<?xml version="1.0" encoding="utf-8"?>
<!-- Generator: Adobe Illustrator 19.2.1, SVG Export Plug-In . SVG Version: 6.00 Build 0)  -->
<svg version="1.1" id="Layer_1" xmlns="http://www.w3.org/2000/svg" xmlns:xlink="http://www.w3.org/1999/xlink" x="0px" y="0px"
	 viewBox="0 0 300 250" style="enable-background:new 0 0 300 250;" xml:space="preserve">
<style type="text/css">
	.st0{fill:#D82C26;}
</style>
<g transform="matrix( 1, 0, 0, 1, -65,4) ">
	<g transform="matrix( 1, 0, 0, 1, 60,17) ">
		<g transform="matrix( 1, 0, 0, 1, 27,8) ">
			<g transform="matrix( 2.815704345703125, 0, 0, 2.832611083984375, 0.15,16.6) ">
				<g>
					
						<g id="IT_300x250_FR_psd_Asset_Research_Phase_IT_Decisions_Makers__V8_1_Vous_voulez_un_r_seau_plus__efficace__rentable_et_flexible___0_Layer0_0_MEMBER_0_FILL">
						<path class="st0" d="M0.6-5.5H0.1L2.2,0h0.5l2.1-5.5H4.3l-1.9,5L0.6-5.5z"/>
					</g>
				</g>
			</g>
			<g transform="matrix( 2.815704345703125, 0, 0, 2.832611083984375, 0.15,16.6) ">
				<g>
					
						<g id="IT_300x250_FR_psd_Asset_Research_Phase_IT_Decisions_Makers__V8_1_Vous_voulez_un_r_seau_plus__efficace__rentable_et_flexible___0_Layer0_0_MEMBER_1_FILL">
						<path class="st0" d="M5-2.8c-0.2,0.3-0.3,0.6-0.3,1c0,0.3,0.1,0.7,0.3,1c0.2,0.3,0.4,0.5,0.7,0.7c0.3,0.2,0.6,0.3,1,0.3
							c0.4,0,0.8-0.1,1-0.3C8-0.3,8.2-0.5,8.3-0.8c0.2-0.3,0.3-0.6,0.3-1s-0.1-0.7-0.3-1C8.2-3.1,8-3.3,7.7-3.5
							C7.3-3.7,7-3.8,6.7-3.8c-0.3,0-0.7,0.1-1,0.3C5.4-3.3,5.1-3.1,5-2.8 M6.7-3.3c0.3,0,0.6,0.1,0.8,0.2C7.6-3,7.8-2.8,8-2.6
							l0.2,0.8C8.1-1.5,8.1-1.3,8-1C7.8-0.8,7.6-0.6,7.4-0.5C7.2-0.4,7-0.3,6.7-0.3c-0.3,0-0.6-0.1-0.8-0.2C5.6-0.7,5.4-0.9,5.4-1
							C5.2-1.3,5.2-1.5,5.2-1.8c0-0.3,0.1-0.5,0.2-0.8C5.4-2.8,5.6-3,5.9-3.2C6.1-3.3,6.4-3.3,6.7-3.3z"/>
					</g>
				</g>
			</g>
			<g transform="matrix( 2.815704345703125, 0, 0, 2.832611083984375, 0.15,16.6) ">
				<g>
					
						<g id="IT_300x250_FR_psd_Asset_Research_Phase_IT_Decisions_Makers__V8_1_Vous_voulez_un_r_seau_plus__efficace__rentable_et_flexible___0_Layer0_0_MEMBER_2_FILL">
						<path class="st0" d="M9.4-1.4c0,0.5,0.1,0.8,0.4,1c0.2,0.3,0.5,0.5,1,0.5c0.3,0,0.5-0.1,0.8-0.3c0.2-0.1,0.4-0.4,0.5-0.7
							L12.2,0h0.5l-0.1-0.9v-2.8h-0.4v1.8c0,0.3-0.1,0.6-0.2,0.9c-0.1,0.2-0.2,0.4-0.5,0.6c-0.2,0.1-0.4,0.2-0.6,0.2
							c-0.3,0-0.6-0.1-0.8-0.4C9.9-0.9,9.9-1.2,9.9-1.5v-2.1H9.4V-1.4z"/>
					</g>
				</g>
			</g>
			<g transform="matrix( 2.815704345703125, 0, 0, 2.832611083984375, 0.15,16.6) ">
				<g>
					
						<g id="IT_300x250_FR_psd_Asset_Research_Phase_IT_Decisions_Makers__V8_1_Vous_voulez_un_r_seau_plus__efficace__rentable_et_flexible___0_Layer0_0_MEMBER_3_FILL">
						<path class="st0" d="M14.1-3.3c0.2-0.1,0.3-0.2,0.5-0.2l0.6,0.1L15.6-3l0.2-0.3l-0.5-0.3l-0.7-0.1l-0.6,0.1l-0.4,0.4
							c-0.1,0.2-0.2,0.3-0.2,0.5c0,0.3,0.1,0.5,0.3,0.7c0,0,0.3,0.2,0.8,0.4l0.8,0.3c0.2,0.2,0.3,0.3,0.3,0.4c0,0.2-0.1,0.4-0.3,0.5
							c-0.2,0.1-0.4,0.2-0.6,0.2c-0.4,0-0.8-0.2-1.2-0.4l-0.1,0.4L14,0l0.8,0.1L15.3,0c0.2-0.1,0.4-0.3,0.4-0.4s0.1-0.3,0.1-0.5
							c0-0.3-0.1-0.5-0.3-0.7c-0.2-0.2-0.5-0.3-0.8-0.5l-0.8-0.3c-0.1-0.1-0.2-0.3-0.2-0.4C13.9-3,13.9-3.1,14.1-3.3z"/>
					</g>
				</g>
			</g>
			<g transform="matrix( 2.815704345703125, 0, 0, 2.832611083984375, 0.15,16.6) ">
				<g>
					
						<g id="IT_300x250_FR_psd_Asset_Research_Phase_IT_Decisions_Makers__V8_1_Vous_voulez_un_r_seau_plus__efficace__rentable_et_flexible___0_Layer0_0_MEMBER_4_FILL">
						<path class="st0" d="M18-3.7h-0.5L18.9,0h0.6l1.3-3.7h-0.4l-1.1,3.2L18-3.7z"/>
					</g>
				</g>
			</g>
			<g transform="matrix( 2.815704345703125, 0, 0, 2.832611083984375, 0.15,16.6) ">
				<g>
					
						<g id="IT_300x250_FR_psd_Asset_Research_Phase_IT_Decisions_Makers__V8_1_Vous_voulez_un_r_seau_plus__efficace__rentable_et_flexible___0_Layer0_0_MEMBER_5_FILL">
						<path class="st0" d="M24-3.5c-0.3-0.2-0.7-0.3-1-0.3c-0.4,0-0.7,0.1-1,0.3c-0.3,0.2-0.5,0.4-0.7,0.7c-0.2,0.2-0.3,0.5-0.3,1
							s0.1,0.8,0.3,1c0.2,0.3,0.4,0.5,0.7,0.7c0.2,0.2,0.5,0.3,1,0.3c0.4,0,0.8-0.1,1-0.3c0.3-0.2,0.5-0.4,0.7-0.7
							c0.2-0.2,0.3-0.6,0.3-1s-0.1-0.8-0.3-1C24.5-3.1,24.3-3.3,24-3.5 M23-3.3c0.4,0,0.6,0.1,0.8,0.2C24-3,24.2-2.8,24.3-2.6
							c0.1,0.2,0.2,0.5,0.2,0.8c0,0.3-0.1,0.6-0.2,0.8c-0.1,0.2-0.3,0.4-0.5,0.5c-0.2,0.1-0.4,0.2-0.8,0.2c-0.3,0-0.6-0.1-0.8-0.2
							C22-0.6,21.8-0.8,21.7-1c-0.1-0.2-0.1-0.5-0.1-0.8l0.1-0.8C21.8-2.8,22-3,22.2-3.2C22.4-3.3,22.6-3.3,23-3.3z"/>
					</g>
				</g>
			</g>
			<g transform="matrix( 2.815704345703125, 0, 0, 2.832611083984375, 0.15,16.6) ">
				<g>
					
						<g id="IT_300x250_FR_psd_Asset_Research_Phase_IT_Decisions_Makers__V8_1_Vous_voulez_un_r_seau_plus__efficace__rentable_et_flexible___0_Layer0_0_MEMBER_6_FILL">
						<path class="st0" d="M28.9-3.7h-0.5v1.8c0,0.3,0,0.6-0.1,0.9c-0.1,0.2-0.2,0.4-0.5,0.6c-0.2,0.1-0.4,0.2-0.6,0.2
							c-0.4,0-0.6-0.1-0.8-0.4c-0.2-0.2-0.2-0.5-0.3-0.9v-2.1h-0.5v2.3c0,0.5,0.1,0.8,0.3,1c0.3,0.3,0.6,0.5,1.1,0.5
							c0.3,0,0.5-0.1,0.8-0.3c0.2-0.1,0.4-0.4,0.5-0.7L28.5,0h0.4l0-0.4V-3.7z"/>
					</g>
				</g>
			</g>
			<g transform="matrix( 2.815704345703125, 0, 0, 2.832611083984375, 0.15,16.6) ">
				<g>
					
						<g id="IT_300x250_FR_psd_Asset_Research_Phase_IT_Decisions_Makers__V8_1_Vous_voulez_un_r_seau_plus__efficace__rentable_et_flexible___0_Layer0_0_MEMBER_7_FILL">
						<path class="st0" d="M30-0.8c0,0.2,0.1,0.4,0.1,0.6c0.1,0.1,0.3,0.3,0.5,0.3l0.2-0.4l-0.3-0.2l0-0.4v-5L30-5.8V-0.8z"/>
					</g>
				</g>
			</g>
			<g transform="matrix( 2.815704345703125, 0, 0, 2.832611083984375, 0.15,16.6) ">
				<g>
					
						<g id="IT_300x250_FR_psd_Asset_Research_Phase_IT_Decisions_Makers__V8_1_Vous_voulez_un_r_seau_plus__efficace__rentable_et_flexible___0_Layer0_0_MEMBER_8_FILL">
						<path class="st0" d="M34.1-3.5c-0.3-0.2-0.6-0.3-0.9-0.3s-0.6,0.1-1,0.3c-0.2,0.1-0.4,0.3-0.7,0.7c-0.1,0.3-0.2,0.6-0.2,1
							c0,0.4,0.1,0.8,0.3,1c0.2,0.3,0.4,0.6,0.6,0.7c0.2,0.2,0.5,0.3,1,0.3c0.6,0,1-0.2,1.5-0.5l-0.1-0.4L34-0.4l-0.8,0.2
							c-0.2,0-0.5-0.1-0.8-0.2C32.3-0.5,32.2-0.7,32-1l-0.2-0.8h3v-0.2c0-0.4-0.1-0.7-0.2-0.9C34.6-3.1,34.4-3.3,34.1-3.5 M31.8-2.1
							c0-0.2,0.1-0.4,0.2-0.6c0.1-0.2,0.3-0.3,0.5-0.5c0.2-0.1,0.5-0.2,0.8-0.2c0.4,0,0.7,0.1,0.9,0.4c0.3,0.3,0.4,0.6,0.4,1H31.8z"
							/>
					</g>
				</g>
			</g>
			<g transform="matrix( 2.815704345703125, 0, 0, 2.832611083984375, 0.15,16.6) ">
				<g>
					
						<g id="IT_300x250_FR_psd_Asset_Research_Phase_IT_Decisions_Makers__V8_1_Vous_voulez_un_r_seau_plus__efficace__rentable_et_flexible___0_Layer0_0_MEMBER_9_FILL">
						<path class="st0" d="M37.6-3.3l-2.3,3V0h2.9l0-0.4h-2.3l2.2-3v-0.4h-2.6l-0.1,0.4H37.6z"/>
					</g>
				</g>
			</g>
			<g transform="matrix( 2.815704345703125, 0, 0, 2.832611083984375, 0.15,16.6) ">
				<g>
					
						<g id="IT_300x250_FR_psd_Asset_Research_Phase_IT_Decisions_Makers__V8_1_Vous_voulez_un_r_seau_plus__efficace__rentable_et_flexible___0_Layer0_0_MEMBER_10_FILL">
						<path class="st0" d="M40.4-3.7v2.3c0,0.5,0.1,0.8,0.3,1c0.2,0.3,0.5,0.5,1,0.5c0.3,0,0.5-0.1,0.8-0.3s0.5-0.4,0.5-0.7l0,0.8
							h0.5l0-0.4v-3.3h-0.5v1.8c0,0.3-0.1,0.6-0.2,0.9c-0.1,0.2-0.2,0.3-0.4,0.6c-0.3,0.1-0.5,0.2-0.7,0.2c-0.3,0-0.6-0.1-0.8-0.4
							c-0.1-0.2-0.2-0.5-0.2-0.9v-2.1H40.4z"/>
					</g>
				</g>
			</g>
			<g transform="matrix( 2.815704345703125, 0, 0, 2.832611083984375, 0.15,16.6) ">
				<g>
					
						<g id="IT_300x250_FR_psd_Asset_Research_Phase_IT_Decisions_Makers__V8_1_Vous_voulez_un_r_seau_plus__efficace__rentable_et_flexible___0_Layer0_0_MEMBER_11_FILL">
						<path class="st0" d="M45.1-3.7h-0.5L44.7,0h0.4v-1.9c0-0.3,0-0.6,0.2-0.8c0.1-0.2,0.2-0.4,0.5-0.5c0.2-0.1,0.4-0.1,0.6-0.1
							c0.4,0,0.6,0.1,0.8,0.3c0.2,0.3,0.3,0.6,0.3,0.9V0h0.5v-2.2c0-0.5-0.1-0.8-0.3-1.1c-0.2-0.3-0.5-0.5-1-0.5
							c-0.3,0-0.5,0.1-0.8,0.3c-0.2,0.1-0.4,0.4-0.5,0.7h0V-3.7z"/>
					</g>
				</g>
			</g>
			<g transform="matrix( 2.815704345703125, 0, 0, 2.832611083984375, 0.15,16.6) ">
				<g>
					
						<g id="IT_300x250_FR_psd_Asset_Research_Phase_IT_Decisions_Makers__V8_1_Vous_voulez_un_r_seau_plus__efficace__rentable_et_flexible___0_Layer0_0_MEMBER_12_FILL">
						<path class="st0" d="M50.8-2.8l0-0.8h-0.4V0h0.5v-1.8c0-0.5,0.1-0.8,0.3-1.1c0.2-0.3,0.5-0.4,0.8-0.4l0.4,0l0-0.4l-0.4,0
							c-0.2,0-0.4,0.1-0.6,0.3C51-3.3,50.9-3.1,50.8-2.8z"/>
					</g>
				</g>
			</g>
			<g transform="matrix( 2.815704345703125, 0, 0, 2.832611083984375, 0.15,16.6) ">
				<g>
					
						<g id="IT_300x250_FR_psd_Asset_Research_Phase_IT_Decisions_Makers__V8_1_Vous_voulez_un_r_seau_plus__efficace__rentable_et_flexible___0_Layer0_0_MEMBER_13_FILL">
						<path class="st0" d="M55.1-3.5c-0.3-0.2-0.6-0.3-0.9-0.3c-0.3,0-0.6,0.1-1,0.3c-0.3,0.2-0.5,0.4-0.7,0.7
							c-0.1,0.3-0.2,0.6-0.2,1c0,0.4,0.1,0.7,0.2,1c0.2,0.4,0.5,0.6,0.7,0.7c0.2,0.2,0.5,0.3,1,0.3c0.6,0,1-0.2,1.5-0.5l-0.1-0.4
							l-0.5,0.3l-0.8,0.2c-0.2,0-0.5-0.1-0.8-0.2C53.4-0.5,53.2-0.7,53-1l-0.2-0.8h3.1v-0.2c0-0.4-0.1-0.7-0.2-0.9
							C55.6-3.1,55.4-3.3,55.1-3.5 M53.5-3.2c0.2-0.1,0.4-0.2,0.8-0.2c0.4,0,0.7,0.1,0.9,0.4c0.2,0.2,0.3,0.5,0.4,1h-2.7
							c0-0.2,0-0.4,0.2-0.6C53.1-2.9,53.3-3,53.5-3.2 M54.7-5.5l-0.8,1.1h0.4l1-1.1H54.7z"/>
					</g>
				</g>
			</g>
			<g transform="matrix( 2.815704345703125, 0, 0, 2.832611083984375, 0.15,16.6) ">
				<g>
					
						<g id="IT_300x250_FR_psd_Asset_Research_Phase_IT_Decisions_Makers__V8_1_Vous_voulez_un_r_seau_plus__efficace__rentable_et_flexible___0_Layer0_0_MEMBER_14_FILL">
						<path class="st0" d="M58.9-3.3l-0.5-0.3l-0.7-0.1l-0.5,0.1c-0.2,0.1-0.3,0.2-0.5,0.4c-0.1,0.1-0.2,0.3-0.2,0.5
							c0,0.3,0.1,0.5,0.3,0.7l1.5,0.7c0.2,0.2,0.2,0.3,0.3,0.4c0,0.2-0.1,0.4-0.3,0.5c-0.1,0.1-0.3,0.2-0.5,0.2
							c-0.5,0-0.9-0.2-1.3-0.4l0,0.4L57.1,0l0.8,0.1L58.4,0c0.2-0.1,0.4-0.2,0.4-0.4c0.1-0.2,0.2-0.4,0.2-0.5c0-0.3-0.1-0.5-0.3-0.7
							c-0.1-0.1-0.4-0.3-0.8-0.5l-0.7-0.3C57.1-2.5,57-2.6,57-2.8c0-0.2,0.1-0.4,0.2-0.5c0.2-0.1,0.4-0.2,0.6-0.2l0.5,0.1L58.8-3
							L58.9-3.3z"/>
					</g>
				</g>
			</g>
			<g transform="matrix( 2.815704345703125, 0, 0, 2.832611083984375, 0.15,16.6) ">
				<g>
					
						<g id="IT_300x250_FR_psd_Asset_Research_Phase_IT_Decisions_Makers__V8_1_Vous_voulez_un_r_seau_plus__efficace__rentable_et_flexible___0_Layer0_0_MEMBER_15_FILL">
						<path class="st0" d="M59.9-0.8c0.1,0.3,0.4,0.5,0.7,0.7c0.3,0.2,0.6,0.3,1,0.3c0.6,0,1-0.2,1.5-0.5l-0.1-0.4
							c-0.1,0.1-0.3,0.3-0.6,0.3c-0.2,0.1-0.5,0.2-0.8,0.2c-0.2,0-0.4-0.1-0.8-0.2L60.3-1c-0.1-0.3-0.2-0.6-0.2-0.8h3.1v-0.2
							c0-0.4-0.1-0.7-0.2-0.9c-0.1-0.3-0.3-0.5-0.6-0.7c-0.3-0.2-0.6-0.3-0.9-0.3c-0.3,0-0.6,0.1-0.9,0.3c-0.3,0.2-0.5,0.4-0.7,0.7
							c-0.2,0.3-0.3,0.7-0.3,1C59.6-1.5,59.7-1.2,59.9-0.8 M60.3-2.7c0.1-0.2,0.3-0.3,0.5-0.5c0.2-0.1,0.4-0.2,0.7-0.2
							c0.3,0,0.6,0.1,0.9,0.4c0.2,0.2,0.4,0.5,0.4,1h-2.7L60.3-2.7z"/>
					</g>
				</g>
			</g>
			<g transform="matrix( 2.815704345703125, 0, 0, 2.832611083984375, 0.15,16.6) ">
				<g>
					
						<g id="IT_300x250_FR_psd_Asset_Research_Phase_IT_Decisions_Makers__V8_1_Vous_voulez_un_r_seau_plus__efficace__rentable_et_flexible___0_Layer0_0_MEMBER_16_FILL">
						<path class="st0" d="M64.6-3.7l-0.7,0.4L64.1-3l0.5-0.3c0.2-0.1,0.4-0.2,0.6-0.2c0.3,0,0.6,0.1,0.8,0.3
							c0.2,0.2,0.3,0.5,0.3,0.8v0.2h-0.4c-1.4,0-2.1,0.4-2.1,1.2c0,0.3,0.1,0.6,0.4,0.9c0.3,0.2,0.5,0.3,0.8,0.3
							c0.3,0,0.6-0.1,0.8-0.2c0.2-0.1,0.4-0.3,0.6-0.6v0.3L66.3,0h0.4l-0.1-0.8v-1.5c0-0.5-0.1-0.8-0.3-1.1
							c-0.2-0.2-0.6-0.3-1.1-0.3L64.6-3.7 M65.7-0.4c-0.2,0.1-0.4,0.2-0.7,0.2c-0.2,0-0.4,0-0.5-0.2c-0.2-0.2-0.3-0.4-0.3-0.6
							c0-0.6,0.6-0.9,1.7-0.9h0.4v0.4c0,0.2,0,0.4-0.2,0.6C66-0.7,65.9-0.5,65.7-0.4z"/>
					</g>
				</g>
			</g>
			<g transform="matrix( 2.815704345703125, 0, 0, 2.832611083984375, 0.15,16.6) ">
				<g>
					
						<g id="IT_300x250_FR_psd_Asset_Research_Phase_IT_Decisions_Makers__V8_1_Vous_voulez_un_r_seau_plus__efficace__rentable_et_flexible___0_Layer0_0_MEMBER_17_FILL">
						<path class="st0" d="M70.8-3.7h-0.5v1.8c0,0.3-0.1,0.6-0.2,0.9c-0.1,0.2-0.2,0.4-0.4,0.6c-0.3,0.1-0.5,0.2-0.6,0.2
							c-0.4,0-0.7-0.1-0.8-0.4c-0.2-0.2-0.3-0.5-0.3-0.9v-2.1h-0.5v2.3c0,0.5,0.1,0.8,0.3,1c0.3,0.3,0.6,0.5,1,0.5
							c0.3,0,0.6-0.1,0.8-0.3c0.3-0.2,0.4-0.4,0.5-0.7L70.4,0h0.4l0-0.4V-3.7z"/>
					</g>
				</g>
			</g>
			<g transform="matrix( 2.815704345703125, 0, 0, 2.832611083984375, 0.15,16.6) ">
				<g>
					
						<g id="IT_300x250_FR_psd_Asset_Research_Phase_IT_Decisions_Makers__V8_1_Vous_voulez_un_r_seau_plus__efficace__rentable_et_flexible___0_Layer0_0_MEMBER_18_FILL">
						<path class="st0" d="M75.4-3.8c-0.3,0-0.6,0.1-0.9,0.3S74-3.1,73.9-2.8l-0.1-0.8h-0.4l0,5.5h0.5v-2.7c0.1,0.3,0.3,0.5,0.6,0.7
							c0.3,0.2,0.6,0.3,0.9,0.3c0.3,0,0.6-0.1,0.9-0.3c0.2-0.1,0.4-0.4,0.6-0.7c0.2-0.2,0.3-0.5,0.3-0.9s-0.1-0.7-0.3-1
							c-0.1-0.2-0.3-0.5-0.6-0.7C76-3.7,75.7-3.8,75.4-3.8 M74.6-3.2c0.2-0.1,0.5-0.2,0.8-0.2c0.3,0,0.6,0.1,0.8,0.2
							c0.2,0.1,0.4,0.3,0.5,0.6c0.1,0.2,0.2,0.5,0.2,0.8c0,0.3-0.1,0.5-0.2,0.8c-0.1,0.3-0.3,0.4-0.5,0.5c-0.2,0.1-0.4,0.2-0.8,0.2
							c-0.3,0-0.5-0.1-0.8-0.2c-0.2-0.2-0.4-0.3-0.5-0.5c-0.1-0.3-0.2-0.6-0.2-0.8c0-0.2,0.1-0.5,0.2-0.8C74.2-2.8,74.4-3,74.6-3.2z
							"/>
					</g>
				</g>
			</g>
			<g transform="matrix( 2.815704345703125, 0, 0, 2.832611083984375, 0.15,16.6) ">
				<g>
					
						<g id="IT_300x250_FR_psd_Asset_Research_Phase_IT_Decisions_Makers__V8_1_Vous_voulez_un_r_seau_plus__efficace__rentable_et_flexible___0_Layer0_0_MEMBER_19_FILL">
						<path class="st0" d="M78.1-0.8c0,0.2,0.1,0.4,0.2,0.6l0.4,0.3l0.3-0.4l-0.3-0.2l0-0.4v-5l-0.5,0.1V-0.8z"/>
					</g>
				</g>
			</g>
			<g transform="matrix( 2.815704345703125, 0, 0, 2.832611083984375, 0.15,16.6) ">
				<g>
					
						<g id="IT_300x250_FR_psd_Asset_Research_Phase_IT_Decisions_Makers__V8_1_Vous_voulez_un_r_seau_plus__efficace__rentable_et_flexible___0_Layer0_0_MEMBER_20_FILL">
						<path class="st0" d="M79.7-1.4c0,0.5,0.1,0.8,0.3,1c0.3,0.3,0.6,0.5,1,0.5c0.3,0,0.5-0.1,0.8-0.3s0.5-0.4,0.6-0.7l0,0.8h0.5
							l-0.1-0.4v-3.3h-0.4v1.8c0,0.3-0.1,0.6-0.2,0.9c-0.1,0.2-0.2,0.4-0.5,0.6c-0.3,0.1-0.5,0.2-0.6,0.2c-0.4,0-0.6-0.1-0.8-0.4
							c-0.1-0.2-0.2-0.5-0.2-0.9v-2.1h-0.4V-1.4z"/>
					</g>
				</g>
			</g>
			<g transform="matrix( 2.815704345703125, 0, 0, 2.832611083984375, 0.15,16.6) ">
				<g>
					
						<g id="IT_300x250_FR_psd_Asset_Research_Phase_IT_Decisions_Makers__V8_1_Vous_voulez_un_r_seau_plus__efficace__rentable_et_flexible___0_Layer0_0_MEMBER_21_FILL">
						<path class="st0" d="M84.3-3.7c-0.2,0.1-0.3,0.2-0.5,0.4c-0.1,0.2-0.2,0.4-0.2,0.5c0,0.3,0.1,0.5,0.3,0.7
							c0.1,0.1,0.3,0.2,0.8,0.4l0.8,0.3c0.2,0.1,0.2,0.3,0.3,0.4c0,0.2-0.1,0.4-0.3,0.5c-0.1,0.1-0.3,0.2-0.5,0.2
							c-0.5,0-0.9-0.2-1.2-0.4l-0.1,0.4L84.2,0l0.8,0.1L85.5,0c0.2-0.1,0.4-0.2,0.4-0.4c0.1-0.1,0.2-0.3,0.2-0.5
							c0-0.3-0.1-0.5-0.3-0.7C85.7-1.7,85.4-1.9,85-2l-0.7-0.3c-0.1-0.1-0.2-0.2-0.2-0.4c0-0.2,0.1-0.4,0.2-0.5
							c0.2-0.1,0.4-0.2,0.6-0.2l0.5,0.1L85.9-3l0.2-0.3l-0.6-0.3l-0.7-0.1L84.3-3.7z"/>
					</g>
				</g>
			</g>
			<g transform="matrix( 2.815704345703125, 0, 0, 2.832611083984375, 0.15,16.6) ">
				<g>
					
						<g id="IT_300x250_FR_psd_Asset_Research_Phase_IT_Decisions_Makers__V8_1_Vous_voulez_un_r_seau_plus__efficace__rentable_et_flexible___0_Layer0_0_MEMBER_22_FILL">
						<path class="st0" d="M1.3,5.3C1,5.5,0.8,5.7,0.7,6C0.5,6.3,0.5,6.6,0.5,7c0,0.4,0.1,0.8,0.3,1c0.1,0.3,0.4,0.5,0.7,0.7
							c0.3,0.2,0.6,0.3,1,0.3c0.6,0,1.1-0.1,1.5-0.4L3.7,8.1L3.1,8.4L2.4,8.6C2,8.6,1.8,8.5,1.6,8.4C1.4,8.3,1.2,8.1,1.1,7.8
							C1,7.6,0.9,7.4,0.9,7.1H4V6.9c0-0.4-0.1-0.7-0.2-1C3.7,5.7,3.5,5.5,3.2,5.3C2.9,5.1,2.6,5.1,2.3,5.1C2,5.1,1.6,5.1,1.3,5.3
							 M2.3,5.5c0.4,0,0.7,0.1,0.9,0.4C3.4,6,3.5,6.3,3.6,6.8H0.9c0-0.2,0.1-0.4,0.1-0.6c0.1-0.2,0.3-0.4,0.5-0.5
							C1.7,5.5,1.9,5.4,2.3,5.5z"/>
					</g>
				</g>
			</g>
			<g transform="matrix( 2.815704345703125, 0, 0, 2.832611083984375, 0.15,16.6) ">
				<g>
					
						<g id="IT_300x250_FR_psd_Asset_Research_Phase_IT_Decisions_Makers__V8_1_Vous_voulez_un_r_seau_plus__efficace__rentable_et_flexible___0_Layer0_0_MEMBER_23_FILL">
						<path class="st0" d="M9.2,3L8.5,2.9C8.1,2.8,7.9,3,7.7,3.2c-0.2,0.2-0.3,0.5-0.3,1v1H5.5v-1c0-0.3,0-0.5,0.2-0.7
							c0.1-0.2,0.3-0.3,0.6-0.3l0.6,0l0-0.3L6.2,2.9C5.8,2.8,5.6,3,5.4,3.2c-0.2,0.2-0.3,0.5-0.3,1v1H4.4L4.3,5.6h0.8v3.3h0.4V5.6
							h1.9v3.3h0.4V5.6h0.8l0.1-0.4H7.9v-1c0-0.3,0.1-0.5,0.2-0.7c0.1-0.2,0.3-0.3,0.6-0.3l0.6,0L9.2,3 M10,5.2H9.5v3.7H10V5.2
							 M10,4l0.1-0.2L10,3.5L9.7,3.4L9.5,3.5c-0.1,0-0.1,0.1-0.1,0.3c0,0.1,0,0.2,0.1,0.2c0,0.1,0.1,0.1,0.2,0.1S9.9,4,10,4z"/>
					</g>
				</g>
			</g>
			<g transform="matrix( 2.815704345703125, 0, 0, 2.832611083984375, 0.15,16.6) ">
				<g>
					
						<g id="IT_300x250_FR_psd_Asset_Research_Phase_IT_Decisions_Makers__V8_1_Vous_voulez_un_r_seau_plus__efficace__rentable_et_flexible___0_Layer0_0_MEMBER_24_FILL">
						<path class="st0" d="M11.8,5.3c-0.3,0.2-0.6,0.5-0.7,0.7c-0.2,0.3-0.3,0.7-0.3,1s0.1,0.7,0.3,1c0.1,0.3,0.4,0.5,0.7,0.7
							c0.3,0.2,0.7,0.3,1,0.3c0.3,0,0.5,0,0.7-0.1c0.1,0,0.3-0.1,0.6-0.3l-0.1-0.4l-0.5,0.3l-0.6,0.1c-0.2,0-0.5-0.1-0.8-0.2
							c-0.2-0.2-0.4-0.4-0.5-0.5c-0.1-0.3-0.2-0.6-0.2-0.8c0-0.2,0.1-0.5,0.2-0.8c0.1-0.2,0.3-0.4,0.5-0.6c0.3-0.1,0.6-0.2,0.8-0.2
							l0.6,0.1l0.4,0.3L14,5.5l-0.6-0.3l-0.7-0.1C12.3,5.1,12,5.1,11.8,5.3z"/>
					</g>
				</g>
			</g>
			<g transform="matrix( 2.815704345703125, 0, 0, 2.832611083984375, 0.15,16.6) ">
				<g>
					
						<g id="IT_300x250_FR_psd_Asset_Research_Phase_IT_Decisions_Makers__V8_1_Vous_voulez_un_r_seau_plus__efficace__rentable_et_flexible___0_Layer0_0_MEMBER_25_FILL">
						<path class="st0" d="M16,5.5c0.3,0,0.6,0.1,0.8,0.3C16.9,5.9,17,6.1,17,6.5v0.2h-0.5c-1.4,0-2.1,0.4-2.1,1.2
							c0,0.3,0.1,0.6,0.4,0.8c0.2,0.2,0.5,0.3,0.8,0.3c0.3,0,0.6-0.1,0.9-0.3c0.2-0.1,0.4-0.3,0.5-0.6h0v0.4l0,0.4h0.4l-0.1-2.4
							c0-0.5-0.1-0.8-0.4-1c-0.3-0.2-0.6-0.3-1-0.3l-0.8,0.1c-0.3,0.2-0.5,0.3-0.6,0.4l0.2,0.3c0.1-0.1,0.3-0.3,0.6-0.3L16,5.5
							 M15.1,8.4c-0.1-0.1-0.2-0.3-0.2-0.5c0-0.6,0.6-0.9,1.7-0.9H17v0.4c0,0.2-0.1,0.4-0.1,0.6c-0.1,0.2-0.3,0.3-0.5,0.5
							c-0.3,0.1-0.5,0.2-0.7,0.2C15.6,8.6,15.4,8.5,15.1,8.4z"/>
					</g>
				</g>
			</g>
			<g transform="matrix( 2.815704345703125, 0, 0, 2.832611083984375, 0.15,16.6) ">
				<g>
					
						<g id="IT_300x250_FR_psd_Asset_Research_Phase_IT_Decisions_Makers__V8_1_Vous_voulez_un_r_seau_plus__efficace__rentable_et_flexible___0_Layer0_0_MEMBER_26_FILL">
						<path class="st0" d="M21.4,5.5l-0.5-0.3l-0.7-0.1c-0.3,0-0.7,0.1-1,0.3c-0.3,0.3-0.5,0.5-0.6,0.7c-0.2,0.3-0.3,0.6-0.3,1
							c0,0.4,0.1,0.8,0.3,1c0.2,0.3,0.4,0.6,0.6,0.7c0.3,0.2,0.7,0.3,1,0.3l0.7-0.1c0.1,0,0.3-0.1,0.5-0.3l-0.1-0.4l-0.5,0.3
							l-0.6,0.1c-0.2,0-0.5-0.1-0.8-0.2C19.2,8.2,19,8,18.9,7.8c-0.1-0.2-0.2-0.5-0.2-0.8c0-0.3,0.1-0.6,0.2-0.8
							c0.1-0.2,0.3-0.4,0.5-0.6c0.3-0.1,0.5-0.2,0.8-0.2l0.6,0.1l0.5,0.3L21.4,5.5z"/>
					</g>
				</g>
			</g>
			<g transform="matrix( 2.815704345703125, 0, 0, 2.832611083984375, 0.15,16.6) ">
				<g>
					
						<g id="IT_300x250_FR_psd_Asset_Research_Phase_IT_Decisions_Makers__V8_1_Vous_voulez_un_r_seau_plus__efficace__rentable_et_flexible___0_Layer0_0_MEMBER_27_FILL">
						<path class="st0" d="M22.7,5.3C22.3,5.6,22.1,5.8,22,6c-0.2,0.3-0.3,0.7-0.3,1s0.1,0.7,0.3,1c0.2,0.3,0.4,0.5,0.7,0.7
							c0.3,0.2,0.6,0.3,1,0.3c0.6,0,1-0.1,1.5-0.4L25,8.1l-0.6,0.3l-0.7,0.1c-0.3,0-0.6-0.1-0.8-0.2c-0.2-0.1-0.4-0.3-0.6-0.5
							c-0.1-0.3-0.2-0.5-0.2-0.8h3.1V6.9c0-0.4-0.1-0.7-0.2-1c-0.1-0.2-0.3-0.4-0.6-0.6c-0.3-0.2-0.6-0.3-0.9-0.3
							C23.3,5.1,23,5.1,22.7,5.3 M23.6,5.5c0.4,0,0.7,0.1,0.9,0.4c0.2,0.2,0.4,0.5,0.4,0.9h-2.7l0.2-0.6c0.1-0.2,0.3-0.4,0.5-0.5
							C23,5.5,23.3,5.4,23.6,5.5z"/>
					</g>
				</g>
			</g>
			<g transform="matrix( 2.815704345703125, 0, 0, 2.832611083984375, 0.15,16.6) ">
				<g>
					
						<g id="IT_300x250_FR_psd_Asset_Research_Phase_IT_Decisions_Makers__V8_1_Vous_voulez_un_r_seau_plus__efficace__rentable_et_flexible___0_Layer0_0_MEMBER_28_FILL">
						<path class="st0" d="M26.4,8.7c0,0.1-0.1,0.3-0.2,0.5l-0.3,0.4L26,9.8c0.5-0.4,0.8-0.9,0.8-1.4l-0.1-0.3C26.6,8,26.5,8,26.4,8
							c-0.1,0-0.2,0-0.3,0.1c-0.1,0-0.1,0.1-0.1,0.3c0,0.1,0,0.2,0.1,0.3L26.4,8.7z"/>
					</g>
				</g>
			</g>
			<g transform="matrix( 2.815704345703125, 0, 0, 2.832611083984375, 0.15,16.6) ">
				<g>
					
						<g id="IT_300x250_FR_psd_Asset_Research_Phase_IT_Decisions_Makers__V8_1_Vous_voulez_un_r_seau_plus__efficace__rentable_et_flexible___0_Layer0_0_MEMBER_29_FILL">
						<path class="st0" d="M31.2,5.2l-0.4-0.1c-0.2,0-0.4,0.1-0.6,0.2C30,5.5,29.8,5.8,29.7,6l-0.1-0.8h-0.4l0,3.7h0.5V7
							c0-0.4,0.1-0.8,0.3-1.1c0.2-0.3,0.4-0.4,0.8-0.4l0.3,0.1L31.2,5.2z"/>
					</g>
				</g>
			</g>
			<g transform="matrix( 2.815704345703125, 0, 0, 2.832611083984375, 0.15,16.6) ">
				<g>
					
						<g id="IT_300x250_FR_psd_Asset_Research_Phase_IT_Decisions_Makers__V8_1_Vous_voulez_un_r_seau_plus__efficace__rentable_et_flexible___0_Layer0_0_MEMBER_30_FILL">
						<path class="st0" d="M32.2,5.3c-0.3,0.3-0.6,0.5-0.7,0.7c-0.2,0.3-0.3,0.7-0.3,1c0,0.3,0.1,0.7,0.3,1c0.1,0.2,0.3,0.4,0.7,0.7
							c0.3,0.2,0.7,0.3,1,0.3c0.6,0,1-0.1,1.5-0.4l-0.1-0.4L34,8.4l-0.8,0.1c-0.3,0-0.5-0.1-0.8-0.2c-0.2-0.1-0.3-0.3-0.5-0.5
							c-0.1-0.3-0.2-0.5-0.2-0.8h3.1V6.9c0-0.4-0.1-0.7-0.2-1c-0.1-0.2-0.3-0.4-0.6-0.6c-0.3-0.2-0.6-0.3-1-0.3
							C32.8,5.1,32.5,5.1,32.2,5.3 M33.1,5.5c0.4,0,0.7,0.1,1,0.4c0.2,0.2,0.4,0.5,0.4,0.9h-2.7L32,6.2c0.1-0.2,0.3-0.4,0.5-0.5
							C32.6,5.5,32.8,5.4,33.1,5.5z"/>
					</g>
				</g>
			</g>
			<g transform="matrix( 2.815704345703125, 0, 0, 2.832611083984375, 0.15,16.6) ">
				<g>
					
						<g id="IT_300x250_FR_psd_Asset_Research_Phase_IT_Decisions_Makers__V8_1_Vous_voulez_un_r_seau_plus__efficace__rentable_et_flexible___0_Layer0_0_MEMBER_31_FILL">
						<path class="st0" d="M36.8,5.7c0.1-0.1,0.3-0.2,0.6-0.2c0.3,0,0.6,0.1,0.8,0.4c0.2,0.3,0.3,0.6,0.3,0.9v2.2h0.4V6.6
							c0-0.5-0.1-0.8-0.3-1.1c-0.2-0.3-0.5-0.4-1-0.4c-0.3,0-0.6,0.1-0.8,0.3c-0.2,0.1-0.4,0.4-0.5,0.7h0l-0.1-0.8h-0.4l0,3.7h0.5V7
							c0-0.3,0-0.5,0.1-0.8C36.5,5.9,36.6,5.8,36.8,5.7z"/>
					</g>
				</g>
			</g>
			<g transform="matrix( 2.815704345703125, 0, 0, 2.832611083984375, 0.15,16.6) ">
				<g>
					
						<g id="IT_300x250_FR_psd_Asset_Research_Phase_IT_Decisions_Makers__V8_1_Vous_voulez_un_r_seau_plus__efficace__rentable_et_flexible___0_Layer0_0_MEMBER_32_FILL">
						<path class="st0" d="M41.4,5.6l0.1-0.4h-1v-1L40,4.3v0.9h-0.6l-0.1,0.4H40V8c0,0.3,0.1,0.5,0.3,0.7s0.4,0.3,0.6,0.3l0.4,0
							l0.3-0.2l0-0.3c-0.2,0.1-0.3,0.2-0.5,0.2c-0.2,0-0.3-0.1-0.4-0.2c-0.1-0.1-0.1-0.3-0.1-0.5V5.6H41.4z"/>
					</g>
				</g>
			</g>
			<g transform="matrix( 2.815704345703125, 0, 0, 2.832611083984375, 0.15,16.6) ">
				<g>
					
						<g id="IT_300x250_FR_psd_Asset_Research_Phase_IT_Decisions_Makers__V8_1_Vous_voulez_un_r_seau_plus__efficace__rentable_et_flexible___0_Layer0_0_MEMBER_33_FILL">
						<path class="st0" d="M43.6,5.5c0.3,0,0.6,0.1,0.8,0.3c0.2,0.2,0.3,0.4,0.3,0.8v0.2h-0.5c-1.4,0-2,0.4-2,1.2
							c0,0.3,0.1,0.6,0.4,0.8c0.2,0.2,0.5,0.3,0.8,0.3c0.3,0,0.5-0.1,0.8-0.3c0.3-0.1,0.5-0.3,0.5-0.6h0v0.4l0.1,0.4h0.4l0-2.4
							c0-0.4-0.1-0.8-0.4-1c-0.2-0.2-0.6-0.3-1-0.3l-0.8,0.1c-0.3,0.1-0.5,0.2-0.6,0.4l0.1,0.3l0.6-0.3L43.6,5.5 M44.6,7v0.4
							c0,0.2,0,0.4-0.1,0.6c-0.1,0.2-0.2,0.4-0.4,0.5c-0.3,0.1-0.5,0.2-0.7,0.2c-0.2,0-0.4-0.1-0.6-0.2c-0.2-0.1-0.3-0.3-0.3-0.5
							c0-0.6,0.6-0.9,1.8-0.9H44.6z"/>
					</g>
				</g>
			</g>
			<g transform="matrix( 2.815704345703125, 0, 0, 2.832611083984375, 0.15,16.6) ">
				<g>
					
						<g id="IT_300x250_FR_psd_Asset_Research_Phase_IT_Decisions_Makers__V8_1_Vous_voulez_un_r_seau_plus__efficace__rentable_et_flexible___0_Layer0_0_MEMBER_34_FILL">
						<path class="st0" d="M46.6,2.9L46.1,3l0,5.9h0.4l0-0.8h0c0.1,0.3,0.3,0.5,0.6,0.6c0.3,0.2,0.6,0.3,0.9,0.3
							c0.4,0,0.7-0.1,0.9-0.3c0.3-0.1,0.5-0.3,0.6-0.6c0.2-0.3,0.2-0.7,0.3-1c0-0.4-0.1-0.7-0.3-0.9c-0.2-0.3-0.4-0.6-0.6-0.7
							c-0.2-0.2-0.5-0.3-1-0.3c-0.3,0-0.6,0.1-0.9,0.2c-0.2,0.1-0.4,0.4-0.6,0.7V2.9 M48,5.5c0.2,0,0.5,0.1,0.8,0.2
							c0.2,0.1,0.4,0.3,0.5,0.6c0.1,0.2,0.2,0.4,0.2,0.8c0,0.3-0.1,0.6-0.2,0.8c-0.1,0.2-0.3,0.4-0.5,0.5c-0.2,0.1-0.4,0.2-0.8,0.2
							c-0.3,0-0.5-0.1-0.8-0.2l-0.5-0.5c-0.1-0.3-0.2-0.6-0.2-0.8c0-0.2,0.1-0.5,0.2-0.8C46.9,6,47,5.8,47.2,5.7
							C47.5,5.5,47.8,5.4,48,5.5z"/>
					</g>
				</g>
			</g>
			<g transform="matrix( 2.815704345703125, 0, 0, 2.832611083984375, 0.15,16.6) ">
				<g>
					
						<g id="IT_300x250_FR_psd_Asset_Research_Phase_IT_Decisions_Makers__V8_1_Vous_voulez_un_r_seau_plus__efficace__rentable_et_flexible___0_Layer0_0_MEMBER_35_FILL">
						<path class="st0" d="M50.9,8.6c0.1,0.1,0.2,0.2,0.4,0.3l0.3-0.3l-0.3-0.3l0-0.4v-5L50.8,3v5C50.8,8.3,50.8,8.5,50.9,8.6z"/>
					</g>
				</g>
			</g>
			<g transform="matrix( 2.815704345703125, 0, 0, 2.832611083984375, 0.15,16.6) ">
				<g>
					
						<g id="IT_300x250_FR_psd_Asset_Research_Phase_IT_Decisions_Makers__V8_1_Vous_voulez_un_r_seau_plus__efficace__rentable_et_flexible___0_Layer0_0_MEMBER_36_FILL">
						<path class="st0" d="M53,5.3c-0.3,0.2-0.5,0.4-0.7,0.7c-0.1,0.3-0.2,0.6-0.2,1c0,0.4,0.1,0.8,0.3,1c0.1,0.3,0.4,0.5,0.7,0.7
							c0.3,0.2,0.6,0.3,1,0.3c0.6,0,1-0.1,1.5-0.4l-0.1-0.4l-0.6,0.3L54,8.6c-0.3,0-0.6-0.1-0.8-0.2c-0.2-0.1-0.4-0.3-0.5-0.5
							c-0.1-0.2-0.2-0.5-0.2-0.8h3V6.9c0-0.4-0.1-0.7-0.2-1c-0.1-0.2-0.3-0.4-0.6-0.6c-0.3-0.2-0.6-0.3-0.9-0.3S53.3,5.1,53,5.3
							 M53.9,5.5c0.4,0,0.7,0.1,0.9,0.4c0.3,0.3,0.4,0.6,0.4,0.9h-2.7c0-0.2,0.1-0.4,0.2-0.6c0.1-0.2,0.3-0.4,0.5-0.5
							C53.4,5.5,53.6,5.4,53.9,5.5z"/>
					</g>
				</g>
			</g>
			<g transform="matrix( 2.815704345703125, 0, 0, 2.832611083984375, 0.15,16.6) ">
				<g>
					
						<g id="IT_300x250_FR_psd_Asset_Research_Phase_IT_Decisions_Makers__V8_1_Vous_voulez_un_r_seau_plus__efficace__rentable_et_flexible___0_Layer0_0_MEMBER_37_FILL">
						<path class="st0" d="M61.2,6.9c0-0.2-0.1-0.6-0.2-1c-0.1-0.2-0.3-0.4-0.6-0.6c-0.3-0.2-0.6-0.3-1-0.3c-0.3,0-0.6,0.1-0.9,0.3
							C58.3,5.5,58,5.7,57.9,6c-0.2,0.3-0.2,0.7-0.3,1c0,0.3,0.1,0.7,0.3,1c0.1,0.2,0.3,0.4,0.6,0.7c0.3,0.2,0.7,0.3,1,0.3
							c0.6,0,1-0.1,1.5-0.4l0-0.4l-0.6,0.3l-0.8,0.1c-0.3,0-0.5-0.1-0.8-0.2c-0.2-0.1-0.4-0.3-0.5-0.5c-0.1-0.2-0.2-0.4-0.2-0.8h3.1
							V6.9 M59.5,5.5c0.4,0,0.7,0.1,1,0.4c0.2,0.3,0.3,0.6,0.3,0.9h-2.7c0-0.2,0.1-0.4,0.2-0.6c0.1-0.2,0.3-0.4,0.5-0.5
							C58.9,5.5,59.2,5.4,59.5,5.5z"/>
					</g>
				</g>
			</g>
			<g transform="matrix( 2.815704345703125, 0, 0, 2.832611083984375, 0.15,16.6) ">
				<g>
					
						<g id="IT_300x250_FR_psd_Asset_Research_Phase_IT_Decisions_Makers__V8_1_Vous_voulez_un_r_seau_plus__efficace__rentable_et_flexible___0_Layer0_0_MEMBER_38_FILL">
						<path class="st0" d="M62.6,5.2v-1l-0.4,0.2v0.9h-0.6l-0.1,0.4h0.7V8c0,0.3,0.1,0.6,0.2,0.7c0.2,0.2,0.4,0.3,0.7,0.3l0.4,0
							l0.3-0.2l0-0.3c-0.2,0.1-0.4,0.2-0.6,0.2c-0.1,0-0.2-0.1-0.3-0.2c-0.1-0.1-0.2-0.3-0.2-0.5V5.6h1l0-0.4H62.6z"/>
					</g>
				</g>
			</g>
			<g transform="matrix( 2.815704345703125, 0, 0, 2.832611083984375, 0.15,16.6) ">
				<g>
					
						<g id="IT_300x250_FR_psd_Asset_Research_Phase_IT_Decisions_Makers__V8_1_Vous_voulez_un_r_seau_plus__efficace__rentable_et_flexible___0_Layer0_0_MEMBER_39_FILL">
						<path class="st0" d="M68.1,3c-0.3-0.1-0.6-0.2-0.8-0.2c-0.4,0-0.8,0.1-1,0.4c-0.3,0.3-0.4,0.6-0.4,1.1v0.9h-0.7l-0.1,0.4H66
							v3.3h0.5V5.6h0.8l0.1-0.4h-0.9V4.3c0-0.4,0.1-0.6,0.2-0.8c0.2-0.2,0.4-0.3,0.7-0.3h0.4l0.4,0.1V8c0,0.3,0,0.5,0.1,0.6
							c0.1,0.1,0.2,0.2,0.4,0.3l0.3-0.3l-0.3-0.3l-0.1-0.4v-5L68.1,3z"/>
					</g>
				</g>
			</g>
			<g transform="matrix( 2.815704345703125, 0, 0, 2.832611083984375, 0.15,16.6) ">
				<g>
					
						<g id="IT_300x250_FR_psd_Asset_Research_Phase_IT_Decisions_Makers__V8_1_Vous_voulez_un_r_seau_plus__efficace__rentable_et_flexible___0_Layer0_0_MEMBER_40_FILL">
						<path class="st0" d="M72.8,6c-0.1-0.2-0.3-0.4-0.6-0.6c-0.3-0.2-0.6-0.3-1-0.3c-0.3,0-0.6,0.1-0.9,0.3C70,5.5,69.8,5.7,69.7,6
							c-0.2,0.3-0.3,0.7-0.3,1s0.1,0.7,0.3,1c0.1,0.2,0.3,0.4,0.7,0.7c0.3,0.2,0.7,0.3,0.9,0.3c0.6,0,1-0.1,1.4-0.4l0-0.4l-0.6,0.3
							l-0.8,0.1c-0.3,0-0.5-0.1-0.8-0.2c-0.2-0.1-0.4-0.3-0.5-0.5c-0.1-0.2-0.2-0.4-0.2-0.8H73V6.9C73,6.7,72.9,6.4,72.8,6
							 M71.2,5.5c0.4,0,0.7,0.1,1,0.4c0.2,0.3,0.3,0.6,0.3,0.9h-2.7c0-0.2,0.1-0.4,0.2-0.6c0.1-0.2,0.3-0.4,0.4-0.5
							C70.7,5.5,70.9,5.4,71.2,5.5z"/>
					</g>
				</g>
			</g>
			<g transform="matrix( 2.815704345703125, 0, 0, 2.832611083984375, 0.15,16.6) ">
				<g>
					
						<g id="IT_300x250_FR_psd_Asset_Research_Phase_IT_Decisions_Makers__V8_1_Vous_voulez_un_r_seau_plus__efficace__rentable_et_flexible___0_Layer0_0_MEMBER_41_FILL">
						<path class="st0" d="M76.6,5.2H76l-1,1.4L74,5.2h-0.5l1.3,1.7l-1.4,1.9h0.6L75,7.2l1.2,1.7h0.5l-1.4-1.9L76.6,5.2z"/>
					</g>
				</g>
			</g>
			<g transform="matrix( 2.815704345703125, 0, 0, 2.832611083984375, 0.15,16.6) ">
				<g>
					
						<g id="IT_300x250_FR_psd_Asset_Research_Phase_IT_Decisions_Makers__V8_1_Vous_voulez_un_r_seau_plus__efficace__rentable_et_flexible___0_Layer0_0_MEMBER_42_FILL">
						<path class="st0" d="M77.8,5.2h-0.5v3.7h0.5V5.2 M77.6,4.1c0.1,0,0.2,0,0.2-0.1c0.1,0,0.1-0.1,0.1-0.2c0-0.1,0-0.2-0.1-0.3
							l-0.2-0.1l-0.3,0.1l-0.1,0.3L77.4,4C77.4,4,77.5,4.1,77.6,4.1z"/>
					</g>
				</g>
			</g>
			<g transform="matrix( 2.815704345703125, 0, 0, 2.832611083984375, 0.15,16.6) ">
				<g>
					
						<g id="IT_300x250_FR_psd_Asset_Research_Phase_IT_Decisions_Makers__V8_1_Vous_voulez_un_r_seau_plus__efficace__rentable_et_flexible___0_Layer0_0_MEMBER_43_FILL">
						<path class="st0" d="M82.5,6.1c-0.1-0.3-0.3-0.5-0.7-0.7c-0.2-0.2-0.6-0.3-0.9-0.3c-0.3,0-0.6,0.1-0.8,0.2
							c-0.3,0.1-0.5,0.4-0.7,0.7V2.9L79,3l0,5.9h0.4l0.1-0.8c0.2,0.3,0.4,0.5,0.6,0.6c0.3,0.2,0.6,0.3,0.9,0.3
							c0.3,0,0.6-0.1,0.9-0.3s0.5-0.4,0.7-0.6c0.1-0.3,0.2-0.6,0.2-1S82.6,6.3,82.5,6.1 M82.1,7.8l-0.5,0.5
							c-0.2,0.1-0.5,0.2-0.8,0.2c-0.3,0-0.6-0.1-0.8-0.2c-0.2-0.1-0.4-0.3-0.5-0.5c-0.1-0.2-0.2-0.5-0.2-0.8c0-0.3,0.1-0.6,0.2-0.8
							c0.1-0.3,0.3-0.5,0.5-0.6c0.3-0.1,0.5-0.2,0.8-0.2c0.2,0,0.4,0.1,0.8,0.2c0.2,0.1,0.3,0.3,0.5,0.6c0.1,0.2,0.2,0.5,0.2,0.8
							S82.2,7.6,82.1,7.8z"/>
					</g>
				</g>
			</g>
			<g transform="matrix( 2.815704345703125, 0, 0, 2.832611083984375, 0.15,16.6) ">
				<g>
					
						<g id="IT_300x250_FR_psd_Asset_Research_Phase_IT_Decisions_Makers__V8_1_Vous_voulez_un_r_seau_plus__efficace__rentable_et_flexible___0_Layer0_0_MEMBER_44_FILL">
						<path class="st0" d="M83.8,8.6c0.1,0.2,0.3,0.3,0.4,0.3l0.2-0.3l-0.3-0.3c-0.1-0.1-0.1-0.3-0.1-0.4v-5L83.6,3v5
							C83.6,8.3,83.7,8.5,83.8,8.6z"/>
					</g>
				</g>
			</g>
			<g transform="matrix( 2.815704345703125, 0, 0, 2.832611083984375, 0.15,16.6) ">
				<g>
					
						<g id="IT_300x250_FR_psd_Asset_Research_Phase_IT_Decisions_Makers__V8_1_Vous_voulez_un_r_seau_plus__efficace__rentable_et_flexible___0_Layer0_0_MEMBER_45_FILL">
						<path class="st0" d="M87.7,5.3c-0.3-0.2-0.6-0.3-0.9-0.3c-0.3,0-0.6,0.1-0.9,0.3c-0.3,0.2-0.5,0.4-0.7,0.7C85,6.3,85,6.7,85,7
							s0.1,0.7,0.3,1c0.1,0.2,0.3,0.4,0.7,0.7c0.3,0.2,0.7,0.3,1,0.3c0.6,0,1-0.1,1.4-0.4l-0.1-0.4l-0.6,0.3l-0.8,0.1
							c-0.3,0-0.5-0.1-0.8-0.2c-0.2-0.1-0.4-0.3-0.5-0.5c-0.1-0.2-0.2-0.4-0.2-0.8h3.1V6.9c0-0.2-0.1-0.6-0.2-1
							C88.2,5.7,88,5.5,87.7,5.3 M86.8,5.5c0.4,0,0.7,0.1,0.9,0.4c0.2,0.3,0.4,0.6,0.4,0.9h-2.7c0-0.1,0.1-0.3,0.2-0.6
							c0.1-0.2,0.3-0.4,0.5-0.5C86.2,5.5,86.5,5.4,86.8,5.5z"/>
					</g>
				</g>
			</g>
			<g transform="matrix( 2.815704345703125, 0, 0, 2.832611083984375, 0.15,16.6) ">
				<g>
					
						<g id="IT_300x250_FR_psd_Asset_Research_Phase_IT_Decisions_Makers__V8_1_Vous_voulez_un_r_seau_plus__efficace__rentable_et_flexible___0_Layer0_0_MEMBER_46_FILL">
						<path class="st0" d="M90.3,8.8l0.3,0.1l0.3-0.1l0.1-0.3l-0.1-0.3c-0.1-0.1-0.2-0.1-0.3-0.1c-0.1,0-0.2,0-0.3,0.1l-0.1,0.3
							L90.3,8.8 M91.3,3.9c0.2,0.2,0.3,0.4,0.3,0.7L91.5,5l-0.2,0.3l-0.4,0.4c-0.2,0.2-0.4,0.4-0.5,0.6L90.3,7v0.3h0.5V7.1l0-0.4
							c0-0.1,0.1-0.3,0.2-0.3l0.3-0.4c0.3-0.2,0.4-0.4,0.4-0.5l0.3-0.4C92,5,92,4.8,92,4.6C92,4.2,92,4,91.8,3.8
							c-0.2-0.2-0.3-0.4-0.6-0.5c-0.2-0.1-0.4-0.1-0.8-0.1c-0.4,0-0.7,0.1-0.9,0.2c-0.3,0.1-0.5,0.3-0.7,0.4l0.2,0.4l0.6-0.4
							c0.2-0.1,0.5-0.2,0.8-0.2C90.8,3.6,91,3.7,91.3,3.9z"/>
					</g>
				</g>
			</g>
		</g>
	</g>
</g>
</svg>
