
<svg xmlns="http://www.w3.org/2000/svg" version="1.1" xmlns:xlink="http://www.w3.org/1999/xlink" preserveAspectRatio="none" x="0px" y="0px" width="160px" height="600px" viewBox="0 0 160 600">
<defs>
<g id="IT_160x600_psd_Asset_5_ManagedWiFi_IT_Research_DM8_1_Want_a_more__cost_effective___efficient__and_agile__network__0_Layer0_0_MEMBER_0_FILL">
<path fill="#D82C26" stroke="none" d="
M 0.65 -5.5
L 0.15 -5.5 1.8 0 2.3 0 3.75 -4.9 5.25 0 5.75 0 7.4 -5.5 6.9 -5.5 5.5 -0.6 4.05 -5.5 3.5 -5.5 2.1 -0.6 2.05 -0.6 0.65 -5.5 Z"/>
</g>

<g id="IT_160x600_psd_Asset_5_ManagedWiFi_IT_Research_DM8_1_Want_a_more__cost_effective___efficient__and_agile__network__0_Layer0_0_MEMBER_1_FILL">
<path fill="#D82C26" stroke="none" d="
M 9 -3.4
Q 9.5 -3.4 9.75 -3.15 10.05 -2.85 10.05 -2.4
L 10.05 -2.2 9.6 -2.2
Q 7.55 -2.2 7.55 -1 7.55 -0.45 7.85 -0.15 8.25 0.1 8.7 0.1 9.15 0.1 9.5 -0.1 9.9 -0.35 10.05 -0.7
L 10.1 -0.35 10.1 0 10.55 0 10.5 -2.35
Q 10.5 -3 10.1 -3.4 9.75 -3.75 9.1 -3.75
L 8.35 -3.65
Q 7.95 -3.5 7.75 -3.3
L 7.85 -2.95 8.4 -3.25
Q 8.7 -3.4 9 -3.4
M 9.65 -1.9
L 10.05 -1.9 10.05 -1.5
Q 10.05 -1.2 9.9 -0.9 9.75 -0.6 9.5 -0.45 9.25 -0.25 8.8 -0.25 8.45 -0.25 8.2 -0.4 7.95 -0.65 7.95 -1 7.95 -1.9 9.65 -1.9 Z"/>
</g>

<g id="IT_160x600_psd_Asset_5_ManagedWiFi_IT_Research_DM8_1_Want_a_more__cost_effective___efficient__and_agile__network__0_Layer0_0_MEMBER_2_FILL">
<path fill="#D82C26" stroke="none" d="
M 14.35 -3.3
Q 14 -3.75 13.3 -3.75 12.9 -3.75 12.5 -3.5 12.15 -3.25 12 -2.85
L 11.95 -3.65 11.5 -3.65 11.55 0 12 0 12 -1.85
Q 12 -2.35 12.15 -2.65 12.25 -2.95 12.6 -3.2 12.9 -3.35 13.2 -3.35 13.8 -3.35 14 -3 14.2 -2.65 14.2 -2.1
L 14.2 0 14.65 0 14.65 -2.2
Q 14.65 -2.85 14.35 -3.3 Z"/>
</g>

<g id="IT_160x600_psd_Asset_5_ManagedWiFi_IT_Research_DM8_1_Want_a_more__cost_effective___efficient__and_agile__network__0_Layer0_0_MEMBER_3_FILL">
<path fill="#D82C26" stroke="none" d="
M 15.8 -3.65
L 15.2 -3.65 15.1 -3.3 15.8 -3.3 15.8 -0.9
Q 15.8 -0.5 16.05 -0.15 16.3 0.1 16.65 0.1
L 17.45 -0.1 17.35 -0.45
Q 17.05 -0.3 16.8 -0.3 16.55 -0.3 16.4 -0.45 16.25 -0.6 16.25 -0.95
L 16.25 -3.3 17.2 -3.3 17.3 -3.65 16.25 -3.65 16.25 -4.7 15.8 -4.5 15.8 -3.65 Z"/>
</g>

<g id="IT_160x600_psd_Asset_5_ManagedWiFi_IT_Research_DM8_1_Want_a_more__cost_effective___efficient__and_agile__network__0_Layer0_0_MEMBER_4_FILL">
<path fill="#D82C26" stroke="none" d="
M 19.1 -1
Q 19.1 -0.5 19.45 -0.15 19.85 0.1 20.25 0.1 20.75 0.1 21.1 -0.1 21.4 -0.3 21.65 -0.7
L 21.65 -0.35 21.7 0 22.15 0 22.05 -0.8 22.05 -2.35
Q 22.05 -3.05 21.7 -3.4 21.35 -3.75 20.65 -3.75
L 19.95 -3.65 19.3 -3.3 19.45 -2.95 20 -3.25
Q 20.3 -3.4 20.6 -3.4 21.1 -3.4 21.35 -3.15 21.65 -2.85 21.65 -2.4
L 21.65 -2.2 21.2 -2.2
Q 19.1 -2.2 19.1 -1
M 19.8 -0.4
Q 19.55 -0.65 19.55 -1 19.55 -1.9 21.25 -1.9
L 21.65 -1.9 21.65 -1.5
Q 21.65 -1.2 21.5 -0.9 21.35 -0.6 21.05 -0.45 20.8 -0.25 20.35 -0.25 20.05 -0.25 19.8 -0.4 Z"/>
</g>

<g id="IT_160x600_psd_Asset_5_ManagedWiFi_IT_Research_DM8_1_Want_a_more__cost_effective___efficient__and_agile__network__0_Layer0_0_MEMBER_5_FILL">
<path fill="#D82C26" stroke="none" d="
M 25 -3.65
L 24.55 -3.65 24.6 0 25.05 0 25.05 -1.8
Q 25.05 -2.25 25.2 -2.65 25.3 -2.9 25.6 -3.2 25.9 -3.35 26.2 -3.35 26.7 -3.35 26.9 -3.05 27.1 -2.8 27.1 -2.15
L 27.1 0 27.55 0 27.55 -1.9
Q 27.55 -2.5 27.9 -2.95 28.15 -3.35 28.7 -3.35 29.25 -3.35 29.45 -3 29.7 -2.6 29.7 -2.05
L 29.7 0 30.15 0 30.15 -2.2
Q 30.15 -2.75 29.8 -3.3 29.5 -3.75 28.8 -3.75 28.4 -3.75 28 -3.5 27.65 -3.25 27.5 -2.8 27.35 -3.3 27.05 -3.5 26.7 -3.75 26.3 -3.75 25.9 -3.75 25.55 -3.5 25.25 -3.3 25.05 -2.85
L 25 -3.65 Z"/>
</g>

<g id="IT_160x600_psd_Asset_5_ManagedWiFi_IT_Research_DM8_1_Want_a_more__cost_effective___efficient__and_agile__network__0_Layer0_0_MEMBER_6_FILL">
<path fill="#D82C26" stroke="none" d="
M 32.9 -3.75
Q 32.4 -3.75 31.9 -3.5 31.55 -3.3 31.2 -2.8 30.95 -2.4 30.95 -1.85 30.95 -1.35 31.2 -0.85 31.55 -0.3 31.9 -0.15 32.3 0.1 32.9 0.1 33.55 0.1 33.9 -0.15 34.25 -0.3 34.6 -0.85 34.85 -1.35 34.85 -1.85 34.85 -2.4 34.6 -2.8 34.25 -3.3 33.9 -3.5 33.4 -3.75 32.9 -3.75
M 32.1 -3.15
Q 32.45 -3.35 32.9 -3.35 33.4 -3.35 33.65 -3.15 34 -2.95 34.2 -2.6
L 34.35 -1.85
Q 34.35 -1.4 34.2 -1.05 34.1 -0.8 33.7 -0.5 33.35 -0.3 32.9 -0.3 32.45 -0.3 32.1 -0.5 31.7 -0.8 31.6 -1.05 31.4 -1.4 31.4 -1.85 31.4 -2.25 31.6 -2.6 31.7 -2.85 32.1 -3.15 Z"/>
</g>

<g id="IT_160x600_psd_Asset_5_ManagedWiFi_IT_Research_DM8_1_Want_a_more__cost_effective___efficient__and_agile__network__0_Layer0_0_MEMBER_7_FILL">
<path fill="#D82C26" stroke="none" d="
M 36.1 -3.65
L 35.65 -3.65 35.7 0 36.15 0 36.15 -1.8
Q 36.15 -2.4 36.4 -2.9 36.7 -3.35 37.15 -3.35
L 37.5 -3.3 37.6 -3.7 37.2 -3.75
Q 36.95 -3.75 36.6 -3.5 36.3 -3.25 36.15 -2.85
L 36.1 -3.65 Z"/>
</g>

<g id="IT_160x600_psd_Asset_5_ManagedWiFi_IT_Research_DM8_1_Want_a_more__cost_effective___efficient__and_agile__network__0_Layer0_0_MEMBER_8_FILL">
<path fill="#D82C26" stroke="none" d="
M 39.55 -3.75
Q 39.1 -3.75 38.6 -3.5 38.35 -3.35 37.95 -2.85 37.75 -2.45 37.75 -1.85 37.75 -1.2 38 -0.85 38.25 -0.35 38.65 -0.15 38.95 0.1 39.6 0.1 40.45 0.1 41.05 -0.35
L 40.95 -0.75 40.4 -0.4 39.65 -0.25
Q 39.3 -0.25 38.9 -0.45 38.65 -0.6 38.35 -1
L 38.2 -1.75 41.25 -1.75 41.25 -1.95
Q 41.25 -2.5 41.05 -2.85 40.9 -3.25 40.45 -3.5 40.05 -3.75 39.55 -3.75
M 38.8 -3.2
Q 39.05 -3.4 39.55 -3.4 40.1 -3.4 40.45 -3.05 40.75 -2.75 40.85 -2.1
L 38.2 -2.1
Q 38.2 -2.4 38.35 -2.7 38.5 -2.95 38.8 -3.2 Z"/>
</g>

<g id="IT_160x600_psd_Asset_5_ManagedWiFi_IT_Research_DM8_1_Want_a_more__cost_effective___efficient__and_agile__network__0_Layer0_0_MEMBER_9_FILL">
<path fill="#D82C26" stroke="none" d="
M 2.35 5.8
Q 1.75 5.8 1.35 6.05 0.95 6.3 0.7 6.7 0.45 7.1 0.45 7.7 0.45 8.35 0.7 8.7 0.95 9.2 1.35 9.4 1.85 9.65 2.35 9.65
L 3.05 9.5
Q 3.4 9.4 3.6 9.2
L 3.5 8.8 3 9.15 2.35 9.25
Q 1.85 9.25 1.6 9.05 1.25 8.8 1.1 8.5 0.9 8.15 0.9 7.7 0.9 7.3 1.1 6.95 1.25 6.6 1.6 6.4 1.95 6.15 2.35 6.15
L 2.9 6.25 3.4 6.55 3.6 6.2 3.05 5.9
Q 2.8 5.8 2.35 5.8 Z"/>
</g>

<g id="IT_160x600_psd_Asset_5_ManagedWiFi_IT_Research_DM8_1_Want_a_more__cost_effective___efficient__and_agile__network__0_Layer0_0_MEMBER_10_FILL">
<path fill="#D82C26" stroke="none" d="
M 6.9 6.05
Q 6.55 5.8 5.9 5.8 5.3 5.8 4.9 6.05 4.4 6.3 4.2 6.7 3.95 7.2 3.95 7.7 3.95 8.2 4.2 8.7 4.45 9.15 4.9 9.4 5.4 9.65 5.9 9.65 6.4 9.65 6.9 9.4 7.35 9.15 7.55 8.7 7.85 8.25 7.85 7.7 7.85 7.15 7.55 6.7 7.35 6.35 6.9 6.05
M 4.4 7.7
Q 4.4 7.2 4.6 6.95 4.75 6.65 5.1 6.35 5.6 6.15 5.9 6.15 6.25 6.15 6.65 6.35 6.95 6.55 7.2 6.95 7.35 7.25 7.35 7.7 7.35 8.15 7.2 8.5 6.9 8.9 6.65 9.05 6.4 9.25 5.9 9.25 5.45 9.25 5.1 9.05 4.75 8.8 4.6 8.5 4.4 8.15 4.4 7.7 Z"/>
</g>

<g id="IT_160x600_psd_Asset_5_ManagedWiFi_IT_Research_DM8_1_Want_a_more__cost_effective___efficient__and_agile__network__0_Layer0_0_MEMBER_11_FILL">
<path fill="#D82C26" stroke="none" d="
M 10.5 8.6
Q 10.5 8.85 10.25 9.1 9.95 9.3 9.65 9.3 9 9.3 8.45 8.85
L 8.4 9.25
Q 8.6 9.45 8.95 9.5 9.25 9.65 9.7 9.65 10 9.65 10.3 9.5 10.55 9.45 10.75 9.15 10.9 8.95 10.9 8.6 10.9 8.15 10.65 7.95 10.45 7.75 9.8 7.5 9.25 7.35 9.1 7.2 8.9 7.05 8.9 6.75 8.9 6.45 9.1 6.3 9.35 6.15 9.65 6.15
L 10.2 6.25 10.6 6.5 10.8 6.15 10.3 5.9
Q 10.1 5.8 9.65 5.8 9.25 5.8 9.05 5.9 8.9 5.95 8.6 6.25 8.45 6.5 8.45 6.8 8.45 7.15 8.7 7.4 9.05 7.7 9.5 7.8 9.9 7.9 10.25 8.15 10.5 8.3 10.5 8.6 Z"/>
</g>

<g id="IT_160x600_psd_Asset_5_ManagedWiFi_IT_Research_DM8_1_Want_a_more__cost_effective___efficient__and_agile__network__0_Layer0_0_MEMBER_12_FILL">
<path fill="#D82C26" stroke="none" d="
M 11.95 5.9
L 11.4 5.9 11.3 6.25 11.95 6.25 11.95 8.65
Q 11.95 9.1 12.2 9.35 12.4 9.6 12.8 9.6
L 13.25 9.55 13.6 9.4 13.55 9.05
Q 13.2 9.25 12.95 9.25 12.7 9.25 12.55 9.1 12.4 8.95 12.4 8.6
L 12.4 6.25 13.35 6.25 13.45 5.9 12.4 5.9 12.4 4.85 11.95 5.05 11.95 5.9 Z"/>
</g>

<g id="IT_160x600_psd_Asset_5_ManagedWiFi_IT_Research_DM8_1_Want_a_more__cost_effective___efficient__and_agile__network__0_Layer0_0_MEMBER_13_FILL">
<path fill="#D82C26" stroke="none" d="
M 13.6 7.4
L 13.6 7.75 15.2 7.75 15.2 7.4 13.6 7.4 Z"/>
</g>

<g id="IT_160x600_psd_Asset_5_ManagedWiFi_IT_Research_DM8_1_Want_a_more__cost_effective___efficient__and_agile__network__0_Layer0_0_MEMBER_14_FILL">
<path fill="#D82C26" stroke="none" d="
M 17.75 5.8
Q 17.15 5.8 16.85 6.05 16.4 6.25 16.2 6.7 15.95 7.1 15.95 7.7 15.95 8.35 16.2 8.7 16.45 9.2 16.85 9.4 17.35 9.65 17.8 9.65 18.65 9.65 19.25 9.2
L 19.2 8.8 18.6 9.15 17.85 9.25
Q 17.35 9.25 17.1 9.05 16.8 8.95 16.6 8.55 16.4 8.2 16.4 7.8
L 19.45 7.8 19.5 7.6
Q 19.5 7.15 19.25 6.65 19.15 6.35 18.7 6 18.3 5.8 17.75 5.8
M 18.7 6.5
Q 19.05 6.95 19.05 7.45
L 16.4 7.45
Q 16.4 7.15 16.55 6.85 16.65 6.65 17.05 6.35 17.3 6.15 17.75 6.15 18.35 6.15 18.7 6.5 Z"/>
</g>

<g id="IT_160x600_psd_Asset_5_ManagedWiFi_IT_Research_DM8_1_Want_a_more__cost_effective___efficient__and_agile__network__0_Layer0_0_MEMBER_15_FILL">
<path fill="#D82C26" stroke="none" d="
M 22.35 3.65
L 21.65 3.55
Q 21.15 3.55 20.85 3.9 20.55 4.2 20.55 4.85
L 20.55 5.9 19.85 5.9 19.8 6.25 20.55 6.25 20.55 9.55 21 9.55 21 6.25 22.9 6.25 22.9 9.55 23.35 9.55 23.35 6.25 24.15 6.25 24.3 5.9 23.35 5.9 23.35 4.85
Q 23.35 4.45 23.5 4.2 23.65 3.95 24.05 3.95
L 24.6 4 24.65 3.65 24 3.55
Q 23.45 3.55 23.15 3.9 22.85 4.2 22.85 4.85
L 22.85 5.9 21 5.9 21 4.85
Q 21 4.45 21.15 4.2 21.3 3.95 21.7 3.95
L 22.25 4 22.35 3.65 Z"/>
</g>

<g id="IT_160x600_psd_Asset_5_ManagedWiFi_IT_Research_DM8_1_Want_a_more__cost_effective___efficient__and_agile__network__0_Layer0_0_MEMBER_16_FILL">
<path fill="#D82C26" stroke="none" d="
M 26.25 5.8
Q 25.65 5.8 25.35 6.05 24.9 6.25 24.7 6.7 24.45 7.2 24.45 7.7 24.45 8.2 24.7 8.7 24.9 9.15 25.35 9.4 25.85 9.65 26.3 9.65 27.15 9.65 27.8 9.2
L 27.7 8.8
Q 27.5 9 27.1 9.15
L 26.35 9.25
Q 25.95 9.25 25.6 9.05 25.25 8.9 25.1 8.55 24.9 8.2 24.9 7.8
L 28 7.8 28 7.6
Q 28 7.05 27.8 6.65 27.6 6.3 27.2 6 26.85 5.8 26.25 5.8
M 24.9 7.45
Q 24.9 7.25 25.1 6.85 25.25 6.6 25.55 6.35 25.8 6.15 26.25 6.15 26.85 6.15 27.2 6.5 27.55 6.85 27.55 7.45
L 24.9 7.45 Z"/>
</g>

<g id="IT_160x600_psd_Asset_5_ManagedWiFi_IT_Research_DM8_1_Want_a_more__cost_effective___efficient__and_agile__network__0_Layer0_0_MEMBER_17_FILL">
<path fill="#D82C26" stroke="none" d="
M 31.2 5.9
Q 31 5.8 30.55 5.8 29.95 5.8 29.55 6.05 29.25 6.2 28.85 6.7 28.6 7.2 28.6 7.7 28.6 8.2 28.85 8.7 29.2 9.25 29.55 9.4 30.05 9.65 30.5 9.65 30.9 9.65 31.2 9.5 31.5 9.45 31.75 9.2
L 31.7 8.8 31.2 9.15 30.55 9.25
Q 30.05 9.25 29.8 9.05 29.5 8.85 29.3 8.5 29.1 8.15 29.1 7.7 29.1 7.3 29.3 6.95 29.45 6.55 29.8 6.4 30.15 6.15 30.55 6.15
L 31.1 6.25 31.6 6.55 31.75 6.2 31.2 5.9 Z"/>
</g>

<g id="IT_160x600_psd_Asset_5_ManagedWiFi_IT_Research_DM8_1_Want_a_more__cost_effective___efficient__and_agile__network__0_Layer0_0_MEMBER_18_FILL">
<path fill="#D82C26" stroke="none" d="
M 32.75 5.9
L 32.2 5.9 32.1 6.25 32.8 6.25 32.8 8.65
Q 32.8 9.15 33 9.35 33.2 9.6 33.65 9.6
L 34.05 9.55 34.4 9.4 34.35 9.05
Q 34 9.25 33.75 9.25 33.5 9.25 33.4 9.1 33.25 8.95 33.25 8.6
L 33.25 6.25 34.15 6.25 34.25 5.9 33.25 5.9 33.25 4.85 32.75 5.05 32.75 5.9 Z"/>
</g>

<g id="IT_160x600_psd_Asset_5_ManagedWiFi_IT_Research_DM8_1_Want_a_more__cost_effective___efficient__and_agile__network__0_Layer0_0_MEMBER_19_FILL">
<path fill="#D82C26" stroke="none" d="
M 35 5.9
L 35 9.55 35.45 9.55 35.45 5.9 35 5.9
M 35.45 4.65
L 35.55 4.45 35.45 4.2 35.25 4.1 35 4.2 34.9 4.45 35 4.65
Q 35.05 4.75 35.25 4.75 35.4 4.75 35.45 4.65 Z"/>
</g>

<g id="IT_160x600_psd_Asset_5_ManagedWiFi_IT_Research_DM8_1_Want_a_more__cost_effective___efficient__and_agile__network__0_Layer0_0_MEMBER_20_FILL">
<path fill="#D82C26" stroke="none" d="
M 36.05 5.9
L 37.45 9.55 37.95 9.55 39.3 5.9 38.85 5.9 37.7 9.05 36.55 5.9 36.05 5.9 Z"/>
</g>

<g id="IT_160x600_psd_Asset_5_ManagedWiFi_IT_Research_DM8_1_Want_a_more__cost_effective___efficient__and_agile__network__0_Layer0_0_MEMBER_21_FILL">
<path fill="#D82C26" stroke="none" d="
M 42.3 6
Q 41.9 5.8 41.35 5.8 40.8 5.8 40.4 6.05 40 6.3 39.8 6.7 39.55 7.1 39.55 7.7 39.55 8.35 39.8 8.7 40.05 9.2 40.45 9.4 40.95 9.65 41.4 9.65 42.25 9.65 42.85 9.2
L 42.8 8.8 42.2 9.15 41.45 9.25
Q 40.95 9.25 40.7 9.05 40.4 8.95 40.2 8.55 40 8.2 40 7.8
L 43.05 7.8 43.05 7.6
Q 43.05 7.05 42.85 6.65 42.75 6.35 42.3 6
M 42.25 6.5
Q 42.65 6.9 42.65 7.45
L 40 7.45
Q 40 7.15 40.15 6.85 40.3 6.55 40.65 6.35 40.9 6.15 41.35 6.15 41.95 6.15 42.25 6.5 Z"/>
</g>

<g id="IT_160x600_psd_Asset_5_ManagedWiFi_IT_Research_DM8_1_Want_a_more__cost_effective___efficient__and_agile__network__0_Layer0_0_MEMBER_22_FILL">
<path fill="#D82C26" stroke="none" d="
M 43.9 8.8
Q 43.8 8.85 43.8 9.05 43.8 9.2 43.9 9.3
L 44.1 9.4
Q 44.1 9.6 43.9 9.9
L 43.6 10.35 43.75 10.45
Q 44.5 9.8 44.5 9.15 44.5 8.95 44.35 8.8
L 44.15 8.7 43.9 8.8 Z"/>
</g>

<g id="IT_160x600_psd_Asset_5_ManagedWiFi_IT_Research_DM8_1_Want_a_more__cost_effective___efficient__and_agile__network__0_Layer0_0_MEMBER_23_FILL">
<path fill="#D82C26" stroke="none" d="
M 0.45 17.2
Q 0.45 17.9 0.7 18.25 0.9 18.7 1.35 18.9 1.65 19.15 2.3 19.15 3.15 19.15 3.75 18.7
L 3.65 18.35 3.1 18.65 2.35 18.8
Q 1.85 18.8 1.6 18.6 1.25 18.4 1.05 18.05 0.9 17.75 0.9 17.3
L 3.95 17.3 3.95 17.1
Q 3.95 16.6 3.75 16.2 3.6 15.75 3.15 15.55 2.75 15.3 2.25 15.3 1.8 15.3 1.3 15.55 1 15.75 0.65 16.25 0.45 16.65 0.45 17.2
M 1.5 15.9
Q 1.85 15.65 2.25 15.65 2.85 15.65 3.15 16.05 3.45 16.3 3.55 16.95
L 0.9 16.95 1.05 16.4
Q 1.25 16.05 1.5 15.9 Z"/>
</g>

<g id="IT_160x600_psd_Asset_5_ManagedWiFi_IT_Research_DM8_1_Want_a_more__cost_effective___efficient__and_agile__network__0_Layer0_0_MEMBER_24_FILL">
<path fill="#D82C26" stroke="none" d="
M 9.9 15.45
L 9.45 15.45 9.45 19.05 9.9 19.05 9.9 15.45
M 9.05 13.55
L 9.15 13.2 8.85 13.1 8.45 13.1
Q 7.95 13.1 7.65 13.4 7.35 13.8 7.35 14.35
L 7.35 15.45 5.5 15.45 5.5 14.4
Q 5.5 14 5.65 13.75 5.8 13.45 6.2 13.45
L 6.75 13.55 6.8 13.2 6.5 13.1 6.15 13.1
Q 5.65 13.1 5.35 13.4 5 13.85 5 14.35
L 5 15.45 4.35 15.45 4.25 15.8 5.05 15.8 5.05 19.05 5.5 19.05 5.5 15.8 7.35 15.8 7.35 19.05 7.8 19.05 7.8 15.8 8.65 15.8 8.75 15.45 7.8 15.45 7.8 14.4
Q 7.8 13.95 8 13.75 8.15 13.45 8.5 13.45
L 9.05 13.55
M 9.7 13.65
Q 9.55 13.65 9.45 13.75
L 9.35 13.95 9.45 14.2 9.7 14.3 9.9 14.2
Q 10 14.15 10 13.95 10 13.8 9.9 13.75 9.85 13.65 9.7 13.65 Z"/>
</g>

<g id="IT_160x600_psd_Asset_5_ManagedWiFi_IT_Research_DM8_1_Want_a_more__cost_effective___efficient__and_agile__network__0_Layer0_0_MEMBER_25_FILL">
<path fill="#D82C26" stroke="none" d="
M 13.35 15.45
Q 13.05 15.3 12.7 15.3 12.2 15.3 11.7 15.55 11.3 15.85 11 16.25 10.75 16.75 10.75 17.25 10.75 17.75 11 18.25 11.3 18.65 11.7 18.95 12.1 19.15 12.65 19.15 13.15 19.15 13.35 19.05
L 13.9 18.75 13.85 18.35
Q 13.65 18.55 13.35 18.65 13.05 18.8 12.7 18.8 12.3 18.8 11.95 18.55 11.65 18.45 11.4 18 11.25 17.7 11.25 17.25 11.25 16.85 11.4 16.45 11.7 16.05 11.95 15.9 12.2 15.7 12.7 15.7
L 13.25 15.8
Q 13.65 16 13.75 16.1
L 13.9 15.75
Q 13.75 15.55 13.35 15.45 Z"/>
</g>

<g id="IT_160x600_psd_Asset_5_ManagedWiFi_IT_Research_DM8_1_Want_a_more__cost_effective___efficient__and_agile__network__0_Layer0_0_MEMBER_26_FILL">
<path fill="#D82C26" stroke="none" d="
M 15.05 15.45
L 14.6 15.45 14.6 19.05 15.05 19.05 15.05 15.45
M 15.05 13.75
Q 14.95 13.65 14.8 13.65 14.65 13.65 14.6 13.75 14.5 13.8 14.5 13.95 14.5 14.15 14.6 14.2
L 14.8 14.3 15.05 14.2 15.15 13.95 15.05 13.75 Z"/>
</g>

<g id="IT_160x600_psd_Asset_5_ManagedWiFi_IT_Research_DM8_1_Want_a_more__cost_effective___efficient__and_agile__network__0_Layer0_0_MEMBER_27_FILL">
<path fill="#D82C26" stroke="none" d="
M 15.9 17.2
Q 15.9 17.75 16.15 18.25 16.35 18.7 16.8 18.9 17.2 19.15 17.75 19.15 18.6 19.15 19.2 18.7
L 19.15 18.35 18.55 18.65 17.8 18.8
Q 17.3 18.8 17.05 18.6 16.65 18.3 16.55 18.05 16.35 17.8 16.35 17.3
L 19.45 17.3 19.45 17.1
Q 19.45 16.8 19.25 16.2 19 15.75 18.65 15.55 18.25 15.3 17.7 15.3 17.2 15.3 16.8 15.55 16.4 15.75 16.15 16.25 15.9 16.75 15.9 17.2
M 17 15.9
Q 17.35 15.65 17.7 15.65 18.25 15.65 18.65 16.05 19 16.4 19 16.95
L 16.35 16.95
Q 16.35 16.65 16.55 16.4 16.75 16.05 17 15.9 Z"/>
</g>

<g id="IT_160x600_psd_Asset_5_ManagedWiFi_IT_Research_DM8_1_Want_a_more__cost_effective___efficient__and_agile__network__0_Layer0_0_MEMBER_28_FILL">
<path fill="#D82C26" stroke="none" d="
M 20.7 15.45
L 20.25 15.45 20.3 19.05 20.75 19.05 20.75 17.2
Q 20.75 16.8 20.9 16.4 21.05 16.05 21.35 15.9 21.6 15.7 21.95 15.7 22.5 15.7 22.7 16.05 22.95 16.45 22.95 16.95
L 22.95 19.05 23.4 19.05 23.4 16.85
Q 23.4 16.2 23.1 15.75 22.75 15.3 22.05 15.3 21.65 15.3 21.25 15.55 20.9 15.85 20.75 16.2
L 20.7 15.45 Z"/>
</g>

<g id="IT_160x600_psd_Asset_5_ManagedWiFi_IT_Research_DM8_1_Want_a_more__cost_effective___efficient__and_agile__network__0_Layer0_0_MEMBER_29_FILL">
<path fill="#D82C26" stroke="none" d="
M 25.95 15.8
L 26.05 15.45 25 15.45 25 14.4 24.55 14.55 24.55 15.45 23.95 15.45 23.85 15.8 24.55 15.8 24.55 18.2
Q 24.55 18.65 24.8 18.9 25.05 19.15 25.4 19.15
L 25.8 19.1 26.2 18.95 26.1 18.6 25.55 18.75
Q 25.3 18.75 25.15 18.6 25 18.45 25 18.1
L 25 15.8 25.95 15.8 Z"/>
</g>

<g id="IT_160x600_psd_Asset_5_ManagedWiFi_IT_Research_DM8_1_Want_a_more__cost_effective___efficient__and_agile__network__0_Layer0_0_MEMBER_30_FILL">
<path fill="#D82C26" stroke="none" d="
M 2.95 26.4
L 2.55 26.4
Q 0.45 26.4 0.45 27.6 0.45 28.2 0.8 28.4 1.1 28.7 1.6 28.7 2.1 28.7 2.45 28.5 2.8 28.3 2.95 27.9
L 3 27.9 3 28.25 3.05 28.6 3.45 28.6 3.4 26.25
Q 3.4 25.55 3.05 25.2 2.7 24.85 2 24.85
L 1.25 24.95
Q 0.75 25.2 0.65 25.3
L 0.8 25.65 1.3 25.35 1.95 25.2
Q 2.35 25.2 2.7 25.45 2.95 25.7 2.95 26.2
L 2.95 26.4
M 2.95 27.1
Q 2.95 27.5 2.85 27.7 2.7 28 2.4 28.15 2.15 28.35 1.7 28.35 1.35 28.35 1.1 28.15 0.9 28 0.9 27.6 0.9 26.7 2.6 26.7
L 2.95 26.7 2.95 27.1 Z"/>
</g>

<g id="IT_160x600_psd_Asset_5_ManagedWiFi_IT_Research_DM8_1_Want_a_more__cost_effective___efficient__and_agile__network__0_Layer0_0_MEMBER_31_FILL">
<path fill="#D82C26" stroke="none" d="
M 6.25 24.85
Q 5.85 24.85 5.45 25.1 5.15 25.3 4.95 25.75
L 4.9 25.75 4.85 24.95 4.45 24.95 4.5 28.6 4.95 28.6 4.95 26.75
Q 4.95 26.25 5.1 25.95 5.2 25.65 5.55 25.4 5.8 25.25 6.15 25.25 6.7 25.25 6.9 25.6 7.15 26 7.15 26.5
L 7.15 28.6 7.6 28.6 7.6 26.35
Q 7.6 25.7 7.25 25.3 6.95 24.85 6.25 24.85 Z"/>
</g>

<g id="IT_160x600_psd_Asset_5_ManagedWiFi_IT_Research_DM8_1_Want_a_more__cost_effective___efficient__and_agile__network__0_Layer0_0_MEMBER_32_FILL">
<path fill="#D82C26" stroke="none" d="
M 12.2 22.65
L 11.75 22.7 11.75 25.75
Q 11.55 25.3 11.1 25.1 10.7 24.85 10.25 24.85 9.8 24.85 9.3 25.1 8.85 25.35 8.65 25.8 8.45 26.2 8.45 26.8 8.45 27.35 8.65 27.75 8.85 28.2 9.3 28.45 9.8 28.7 10.25 28.7 10.7 28.7 11.1 28.45 11.55 28.25 11.75 27.8
L 11.8 28.6 12.25 28.6 12.2 22.65
M 11.75 26.8
Q 11.75 27.2 11.55 27.55 11.4 27.9 11.05 28.1 10.8 28.3 10.3 28.3 9.8 28.3 9.55 28.1 9.25 27.85 9.05 27.55
L 8.9 26.8
Q 8.9 26.4 9.05 26 9.25 25.7 9.55 25.45 9.8 25.25 10.3 25.25 10.8 25.25 11.05 25.45 11.4 25.65 11.55 26 11.75 26.35 11.75 26.8 Z"/>
</g>

<g id="IT_160x600_psd_Asset_5_ManagedWiFi_IT_Research_DM8_1_Want_a_more__cost_effective___efficient__and_agile__network__0_Layer0_0_MEMBER_33_FILL">
<path fill="#D82C26" stroke="none" d="
M 17.45 26.25
Q 17.45 25.55 17.1 25.2 16.75 24.85 16.05 24.85
L 15.3 24.95 14.7 25.3 14.85 25.65 15.4 25.35
Q 15.7 25.2 16 25.2 16.4 25.2 16.75 25.45 17.05 25.75 17.05 26.2
L 17.05 26.4 16.6 26.4
Q 14.5 26.4 14.5 27.6 14.5 28.2 14.85 28.4 15.15 28.7 15.65 28.7 16.15 28.7 16.5 28.5 16.85 28.3 17 27.9
L 17.05 27.9 17.05 28.25 17.1 28.6 17.5 28.6 17.45 26.25
M 17.05 27.1
Q 17.05 27.4 16.9 27.7 16.75 28 16.45 28.15 16.2 28.35 15.75 28.35 15.4 28.35 15.15 28.15 14.95 28 14.95 27.6 14.95 26.7 16.65 26.7
L 17.05 26.7 17.05 27.1 Z"/>
</g>

<g id="IT_160x600_psd_Asset_5_ManagedWiFi_IT_Research_DM8_1_Want_a_more__cost_effective___efficient__and_agile__network__0_Layer0_0_MEMBER_34_FILL">
<path fill="#D82C26" stroke="none" d="
M 20.1 24.85
Q 19.65 24.85 19.15 25.1 18.7 25.4 18.5 25.8 18.3 26.2 18.3 26.75 18.3 27.35 18.5 27.75 18.8 28.2 19.15 28.4 19.55 28.65 20.1 28.65 20.6 28.65 20.95 28.45 21.4 28.15 21.6 27.8
L 21.6 28.55
Q 21.6 29.2 21.25 29.7 20.9 30.1 20.1 30.1
L 19.3 30 18.6 29.65 18.5 30.05
Q 18.75 30.25 19.25 30.4
L 20.1 30.5
Q 21.15 30.5 21.55 29.95 22.05 29.45 22.05 28.55
L 22.05 24.95 21.65 24.95 21.6 25.75
Q 21.4 25.3 20.95 25.1 20.55 24.85 20.1 24.85
M 19.4 25.45
Q 19.75 25.25 20.15 25.25 20.65 25.25 20.9 25.45 21.25 25.65 21.4 26 21.6 26.35 21.6 26.75 21.6 27.2 21.4 27.55 21.2 27.9 20.9 28.1 20.5 28.3 20.15 28.3 19.9 28.3 19.4 28.1
L 18.9 27.55
Q 18.75 27.2 18.75 26.75
L 18.9 26
Q 19.1 25.7 19.4 25.45 Z"/>
</g>

<g id="IT_160x600_psd_Asset_5_ManagedWiFi_IT_Research_DM8_1_Want_a_more__cost_effective___efficient__and_agile__network__0_Layer0_0_MEMBER_35_FILL">
<path fill="#D82C26" stroke="none" d="
M 23.15 24.95
L 23.15 28.6 23.6 28.6 23.6 24.95 23.15 24.95
M 23.4 23.85
L 23.6 23.75 23.7 23.5 23.6 23.25 23.4 23.15 23.15 23.25 23.05 23.5 23.15 23.75 23.4 23.85 Z"/>
</g>

<g id="IT_160x600_psd_Asset_5_ManagedWiFi_IT_Research_DM8_1_Want_a_more__cost_effective___efficient__and_agile__network__0_Layer0_0_MEMBER_36_FILL">
<path fill="#D82C26" stroke="none" d="
M 24.9 28.35
L 25.3 28.7 25.5 28.3 25.25 28.1 25.15 27.7 25.15 22.7 24.7 22.75 24.7 27.8
Q 24.7 28.15 24.9 28.35 Z"/>
</g>

<g id="IT_160x600_psd_Asset_5_ManagedWiFi_IT_Research_DM8_1_Want_a_more__cost_effective___efficient__and_agile__network__0_Layer0_0_MEMBER_37_FILL">
<path fill="#D82C26" stroke="none" d="
M 28.8 25.1
Q 28.45 24.85 27.85 24.85 27.35 24.85 26.95 25.1 26.6 25.3 26.3 25.75 26.05 26.25 26.05 26.75 26.05 27.25 26.3 27.75 26.55 28.25 26.95 28.45 27.45 28.7 27.9 28.7 28.75 28.7 29.35 28.25
L 29.3 27.85 28.7 28.2 27.95 28.35
Q 27.6 28.35 27.2 28.15 26.85 27.9 26.7 27.6 26.5 27.25 26.5 26.85
L 29.55 26.85 29.6 26.65
Q 29.6 26.25 29.4 25.75 29.2 25.35 28.8 25.1
M 28.8 25.55
Q 29.15 26 29.15 26.5
L 26.5 26.5
Q 26.5 26.2 26.65 25.9
L 27.15 25.4
Q 27.4 25.2 27.85 25.2 28.45 25.2 28.8 25.55 Z"/>
</g>

<g id="IT_160x600_psd_Asset_5_ManagedWiFi_IT_Research_DM8_1_Want_a_more__cost_effective___efficient__and_agile__network__0_Layer0_0_MEMBER_38_FILL">
<path fill="#D82C26" stroke="none" d="
M 1.35 35.45
Q 1.55 35.1 1.8 34.95 2 34.75 2.4 34.75 2.9 34.75 3.15 35.15 3.4 35.5 3.4 36
L 3.4 38.15 3.85 38.15 3.85 35.9
Q 3.85 35.2 3.5 34.8 3.2 34.4 2.5 34.4 2 34.4 1.7 34.65 1.35 34.85 1.2 35.3
L 1.15 35.3 1.15 34.5 0.7 34.5 0.75 38.15 1.2 38.15 1.2 36.25
Q 1.2 35.85 1.35 35.45 Z"/>
</g>

<g id="IT_160x600_psd_Asset_5_ManagedWiFi_IT_Research_DM8_1_Want_a_more__cost_effective___efficient__and_agile__network__0_Layer0_0_MEMBER_39_FILL">
<path fill="#D82C26" stroke="none" d="
M 4.9 35.3
Q 4.7 35.7 4.7 36.3 4.7 36.9 4.9 37.3 5.2 37.7 5.6 38 6 38.25 6.55 38.25 7.4 38.25 8 37.8
L 7.9 37.4 7.35 37.75 6.6 37.85
Q 6.1 37.85 5.85 37.65 5.55 37.55 5.3 37.1 5.15 36.8 5.15 36.35
L 8.2 36.35 8.2 36.2
Q 8.2 35.65 8 35.25 7.85 34.9 7.4 34.6 7.05 34.4 6.5 34.4 5.95 34.4 5.55 34.6 5.15 34.9 4.9 35.3
M 6.5 34.75
Q 7.1 34.75 7.4 35.1 7.7 35.4 7.8 36.05
L 5.15 36.05
Q 5.15 35.75 5.3 35.45 5.45 35.2 5.75 34.95 6 34.75 6.5 34.75 Z"/>
</g>

<g id="IT_160x600_psd_Asset_5_ManagedWiFi_IT_Research_DM8_1_Want_a_more__cost_effective___efficient__and_agile__network__0_Layer0_0_MEMBER_40_FILL">
<path fill="#D82C26" stroke="none" d="
M 10.55 34.85
L 10.65 34.5 9.6 34.5 9.6 33.45 9.15 33.6 9.15 34.5 8.55 34.5 8.45 34.85 9.15 34.85 9.15 37.25
Q 9.15 37.7 9.4 37.95 9.65 38.2 10 38.2
L 10.4 38.15 10.8 38 10.7 37.65
Q 10.45 37.85 10.15 37.85 9.9 37.85 9.75 37.7 9.6 37.5 9.6 37.2
L 9.6 34.85 10.55 34.85 Z"/>
</g>

<g id="IT_160x600_psd_Asset_5_ManagedWiFi_IT_Research_DM8_1_Want_a_more__cost_effective___efficient__and_agile__network__0_Layer0_0_MEMBER_41_FILL">
<path fill="#D82C26" stroke="none" d="
M 11.5 34.5
L 11.05 34.5 12.15 38.15 12.65 38.15 13.7 35.05 14.75 38.15 15.25 38.15 16.35 34.5 15.9 34.5 15 37.6 13.95 34.5 13.45 34.5 12.45 37.6 12.4 37.6 11.5 34.5 Z"/>
</g>

<g id="IT_160x600_psd_Asset_5_ManagedWiFi_IT_Research_DM8_1_Want_a_more__cost_effective___efficient__and_agile__network__0_Layer0_0_MEMBER_42_FILL">
<path fill="#D82C26" stroke="none" d="
M 16.95 35.3
Q 16.7 35.8 16.7 36.3 16.7 36.8 16.95 37.3 17.15 37.65 17.65 38 18.15 38.25 18.65 38.25 19.2 38.25 19.6 38 20.15 37.65 20.3 37.3 20.55 36.95 20.55 36.3 20.55 35.7 20.3 35.3 20.15 34.95 19.6 34.6 19.25 34.4 18.65 34.4 18.05 34.4 17.65 34.6 17.15 34.95 16.95 35.3
M 17.15 36.3
Q 17.15 35.8 17.35 35.55 17.5 35.15 17.85 34.95 18.25 34.75 18.65 34.75 19 34.75 19.4 34.95 19.7 35.15 19.95 35.55 20.1 35.85 20.1 36.3 20.1 36.75 19.95 37.05 19.7 37.45 19.4 37.65 19.15 37.85 18.65 37.85 18.1 37.85 17.85 37.65 17.5 37.45 17.35 37.05 17.15 36.8 17.15 36.3 Z"/>
</g>

<g id="IT_160x600_psd_Asset_5_ManagedWiFi_IT_Research_DM8_1_Want_a_more__cost_effective___efficient__and_agile__network__0_Layer0_0_MEMBER_43_FILL">
<path fill="#D82C26" stroke="none" d="
M 21.8 34.5
L 21.4 34.5 21.45 38.15 21.9 38.15 21.9 36.3
Q 21.9 35.75 22.15 35.25 22.45 34.8 22.9 34.8
L 23.25 34.85 23.35 34.45 22.95 34.4
Q 22.55 34.4 22.3 34.6 21.95 34.95 21.9 35.3
L 21.85 35.3 21.8 34.5 Z"/>
</g>

<g id="IT_160x600_psd_Asset_5_ManagedWiFi_IT_Research_DM8_1_Want_a_more__cost_effective___efficient__and_agile__network__0_Layer0_0_MEMBER_44_FILL">
<path fill="#D82C26" stroke="none" d="
M 24.35 32.2
L 23.9 32.3 23.9 38.15 24.35 38.15 24.35 36.25 26.25 38.15 26.85 38.15 24.85 36.15 26.65 34.5 26.05 34.5 24.35 36.15 24.35 32.2 Z"/>
</g>

<g id="IT_160x600_psd_Asset_5_ManagedWiFi_IT_Research_DM8_1_Want_a_more__cost_effective___efficient__and_agile__network__0_Layer0_0_MEMBER_45_FILL">
<path fill="#D82C26" stroke="none" d="
M 29 33.15
Q 29.3 33.45 29.3 33.85
L 29.2 34.3
Q 29.05 34.55 29 34.6
L 28.6 35.05
Q 28.25 35.35 28.15 35.65 28 35.95 28 36.3
L 28 36.55 28.45 36.55 28.45 36.4 28.5 35.95
Q 28.5 35.75 28.65 35.6
L 29.45 34.75 29.65 34.35
Q 29.75 34.2 29.75 33.85 29.75 33.35 29.55 33.1 29.4 32.8 29 32.65 28.7 32.5 28.25 32.5 27.7 32.5 27.35 32.7 26.9 32.9 26.7 33.15
L 26.9 33.5
Q 27.15 33.25 27.5 33.1 27.75 32.9 28.25 32.9 28.65 32.9 29 33.15
M 28 38.1
L 28.25 38.2 28.5 38.1 28.6 37.85 28.5 37.6
Q 28.4 37.5 28.25 37.5 28.05 37.5 28 37.6
L 27.9 37.85 28 38.1 Z"/>
</g>
</defs>

<g transform="matrix( 1, 0, 0, 1, -100,41) ">
<g transform="matrix( 1, 0, 0, 1, 95,0) ">
<g transform="matrix( 1, 0, 0, 1, 26,11) ">
<g transform="matrix( 2.815704345703125, 0, 0, 2.832611083984375, 0.15,15.6) ">
<use xlink:href="#IT_160x600_psd_Asset_5_ManagedWiFi_IT_Research_DM8_1_Want_a_more__cost_effective___efficient__and_agile__network__0_Layer0_0_MEMBER_0_FILL"/>
</g>

<g transform="matrix( 2.815704345703125, 0, 0, 2.832611083984375, 0.15,15.6) ">
<use xlink:href="#IT_160x600_psd_Asset_5_ManagedWiFi_IT_Research_DM8_1_Want_a_more__cost_effective___efficient__and_agile__network__0_Layer0_0_MEMBER_1_FILL"/>
</g>

<g transform="matrix( 2.815704345703125, 0, 0, 2.832611083984375, 0.15,15.6) ">
<use xlink:href="#IT_160x600_psd_Asset_5_ManagedWiFi_IT_Research_DM8_1_Want_a_more__cost_effective___efficient__and_agile__network__0_Layer0_0_MEMBER_2_FILL"/>
</g>

<g transform="matrix( 2.815704345703125, 0, 0, 2.832611083984375, 0.15,15.6) ">
<use xlink:href="#IT_160x600_psd_Asset_5_ManagedWiFi_IT_Research_DM8_1_Want_a_more__cost_effective___efficient__and_agile__network__0_Layer0_0_MEMBER_3_FILL"/>
</g>

<g transform="matrix( 2.815704345703125, 0, 0, 2.832611083984375, 0.15,15.6) ">
<use xlink:href="#IT_160x600_psd_Asset_5_ManagedWiFi_IT_Research_DM8_1_Want_a_more__cost_effective___efficient__and_agile__network__0_Layer0_0_MEMBER_4_FILL"/>
</g>

<g transform="matrix( 2.815704345703125, 0, 0, 2.832611083984375, 0.15,15.6) ">
<use xlink:href="#IT_160x600_psd_Asset_5_ManagedWiFi_IT_Research_DM8_1_Want_a_more__cost_effective___efficient__and_agile__network__0_Layer0_0_MEMBER_5_FILL"/>
</g>

<g transform="matrix( 2.815704345703125, 0, 0, 2.832611083984375, 0.15,15.6) ">
<use xlink:href="#IT_160x600_psd_Asset_5_ManagedWiFi_IT_Research_DM8_1_Want_a_more__cost_effective___efficient__and_agile__network__0_Layer0_0_MEMBER_6_FILL"/>
</g>

<g transform="matrix( 2.815704345703125, 0, 0, 2.832611083984375, 0.15,15.6) ">
<use xlink:href="#IT_160x600_psd_Asset_5_ManagedWiFi_IT_Research_DM8_1_Want_a_more__cost_effective___efficient__and_agile__network__0_Layer0_0_MEMBER_7_FILL"/>
</g>

<g transform="matrix( 2.815704345703125, 0, 0, 2.832611083984375, 0.15,15.6) ">
<use xlink:href="#IT_160x600_psd_Asset_5_ManagedWiFi_IT_Research_DM8_1_Want_a_more__cost_effective___efficient__and_agile__network__0_Layer0_0_MEMBER_8_FILL"/>
</g>

<g transform="matrix( 2.815704345703125, 0, 0, 2.832611083984375, 0.15,15.6) ">
<use xlink:href="#IT_160x600_psd_Asset_5_ManagedWiFi_IT_Research_DM8_1_Want_a_more__cost_effective___efficient__and_agile__network__0_Layer0_0_MEMBER_9_FILL"/>
</g>

<g transform="matrix( 2.815704345703125, 0, 0, 2.832611083984375, 0.15,15.6) ">
<use xlink:href="#IT_160x600_psd_Asset_5_ManagedWiFi_IT_Research_DM8_1_Want_a_more__cost_effective___efficient__and_agile__network__0_Layer0_0_MEMBER_10_FILL"/>
</g>

<g transform="matrix( 2.815704345703125, 0, 0, 2.832611083984375, 0.15,15.6) ">
<use xlink:href="#IT_160x600_psd_Asset_5_ManagedWiFi_IT_Research_DM8_1_Want_a_more__cost_effective___efficient__and_agile__network__0_Layer0_0_MEMBER_11_FILL"/>
</g>

<g transform="matrix( 2.815704345703125, 0, 0, 2.832611083984375, 0.15,15.6) ">
<use xlink:href="#IT_160x600_psd_Asset_5_ManagedWiFi_IT_Research_DM8_1_Want_a_more__cost_effective___efficient__and_agile__network__0_Layer0_0_MEMBER_12_FILL"/>
</g>

<g transform="matrix( 2.815704345703125, 0, 0, 2.832611083984375, 0.15,15.6) ">
<use xlink:href="#IT_160x600_psd_Asset_5_ManagedWiFi_IT_Research_DM8_1_Want_a_more__cost_effective___efficient__and_agile__network__0_Layer0_0_MEMBER_13_FILL"/>
</g>

<g transform="matrix( 2.815704345703125, 0, 0, 2.832611083984375, 0.15,15.6) ">
<use xlink:href="#IT_160x600_psd_Asset_5_ManagedWiFi_IT_Research_DM8_1_Want_a_more__cost_effective___efficient__and_agile__network__0_Layer0_0_MEMBER_14_FILL"/>
</g>

<g transform="matrix( 2.815704345703125, 0, 0, 2.832611083984375, 0.15,15.6) ">
<use xlink:href="#IT_160x600_psd_Asset_5_ManagedWiFi_IT_Research_DM8_1_Want_a_more__cost_effective___efficient__and_agile__network__0_Layer0_0_MEMBER_15_FILL"/>
</g>

<g transform="matrix( 2.815704345703125, 0, 0, 2.832611083984375, 0.15,15.6) ">
<use xlink:href="#IT_160x600_psd_Asset_5_ManagedWiFi_IT_Research_DM8_1_Want_a_more__cost_effective___efficient__and_agile__network__0_Layer0_0_MEMBER_16_FILL"/>
</g>

<g transform="matrix( 2.815704345703125, 0, 0, 2.832611083984375, 0.15,15.6) ">
<use xlink:href="#IT_160x600_psd_Asset_5_ManagedWiFi_IT_Research_DM8_1_Want_a_more__cost_effective___efficient__and_agile__network__0_Layer0_0_MEMBER_17_FILL"/>
</g>

<g transform="matrix( 2.815704345703125, 0, 0, 2.832611083984375, 0.15,15.6) ">
<use xlink:href="#IT_160x600_psd_Asset_5_ManagedWiFi_IT_Research_DM8_1_Want_a_more__cost_effective___efficient__and_agile__network__0_Layer0_0_MEMBER_18_FILL"/>
</g>

<g transform="matrix( 2.815704345703125, 0, 0, 2.832611083984375, 0.15,15.6) ">
<use xlink:href="#IT_160x600_psd_Asset_5_ManagedWiFi_IT_Research_DM8_1_Want_a_more__cost_effective___efficient__and_agile__network__0_Layer0_0_MEMBER_19_FILL"/>
</g>

<g transform="matrix( 2.815704345703125, 0, 0, 2.832611083984375, 0.15,15.6) ">
<use xlink:href="#IT_160x600_psd_Asset_5_ManagedWiFi_IT_Research_DM8_1_Want_a_more__cost_effective___efficient__and_agile__network__0_Layer0_0_MEMBER_20_FILL"/>
</g>

<g transform="matrix( 2.815704345703125, 0, 0, 2.832611083984375, 0.15,15.6) ">
<use xlink:href="#IT_160x600_psd_Asset_5_ManagedWiFi_IT_Research_DM8_1_Want_a_more__cost_effective___efficient__and_agile__network__0_Layer0_0_MEMBER_21_FILL"/>
</g>

<g transform="matrix( 2.815704345703125, 0, 0, 2.832611083984375, 0.15,15.6) ">
<use xlink:href="#IT_160x600_psd_Asset_5_ManagedWiFi_IT_Research_DM8_1_Want_a_more__cost_effective___efficient__and_agile__network__0_Layer0_0_MEMBER_22_FILL"/>
</g>

<g transform="matrix( 2.815704345703125, 0, 0, 2.832611083984375, 0.15,15.6) ">
<use xlink:href="#IT_160x600_psd_Asset_5_ManagedWiFi_IT_Research_DM8_1_Want_a_more__cost_effective___efficient__and_agile__network__0_Layer0_0_MEMBER_23_FILL"/>
</g>

<g transform="matrix( 2.815704345703125, 0, 0, 2.832611083984375, 0.15,15.6) ">
<use xlink:href="#IT_160x600_psd_Asset_5_ManagedWiFi_IT_Research_DM8_1_Want_a_more__cost_effective___efficient__and_agile__network__0_Layer0_0_MEMBER_24_FILL"/>
</g>

<g transform="matrix( 2.815704345703125, 0, 0, 2.832611083984375, 0.15,15.6) ">
<use xlink:href="#IT_160x600_psd_Asset_5_ManagedWiFi_IT_Research_DM8_1_Want_a_more__cost_effective___efficient__and_agile__network__0_Layer0_0_MEMBER_25_FILL"/>
</g>

<g transform="matrix( 2.815704345703125, 0, 0, 2.832611083984375, 0.15,15.6) ">
<use xlink:href="#IT_160x600_psd_Asset_5_ManagedWiFi_IT_Research_DM8_1_Want_a_more__cost_effective___efficient__and_agile__network__0_Layer0_0_MEMBER_26_FILL"/>
</g>

<g transform="matrix( 2.815704345703125, 0, 0, 2.832611083984375, 0.15,15.6) ">
<use xlink:href="#IT_160x600_psd_Asset_5_ManagedWiFi_IT_Research_DM8_1_Want_a_more__cost_effective___efficient__and_agile__network__0_Layer0_0_MEMBER_27_FILL"/>
</g>

<g transform="matrix( 2.815704345703125, 0, 0, 2.832611083984375, 0.15,15.6) ">
<use xlink:href="#IT_160x600_psd_Asset_5_ManagedWiFi_IT_Research_DM8_1_Want_a_more__cost_effective___efficient__and_agile__network__0_Layer0_0_MEMBER_28_FILL"/>
</g>

<g transform="matrix( 2.815704345703125, 0, 0, 2.832611083984375, 0.15,15.6) ">
<use xlink:href="#IT_160x600_psd_Asset_5_ManagedWiFi_IT_Research_DM8_1_Want_a_more__cost_effective___efficient__and_agile__network__0_Layer0_0_MEMBER_29_FILL"/>
</g>

<g transform="matrix( 2.815704345703125, 0, 0, 2.832611083984375, 0.15,15.6) ">
<use xlink:href="#IT_160x600_psd_Asset_5_ManagedWiFi_IT_Research_DM8_1_Want_a_more__cost_effective___efficient__and_agile__network__0_Layer0_0_MEMBER_30_FILL"/>
</g>

<g transform="matrix( 2.815704345703125, 0, 0, 2.832611083984375, 0.15,15.6) ">
<use xlink:href="#IT_160x600_psd_Asset_5_ManagedWiFi_IT_Research_DM8_1_Want_a_more__cost_effective___efficient__and_agile__network__0_Layer0_0_MEMBER_31_FILL"/>
</g>

<g transform="matrix( 2.815704345703125, 0, 0, 2.832611083984375, 0.15,15.6) ">
<use xlink:href="#IT_160x600_psd_Asset_5_ManagedWiFi_IT_Research_DM8_1_Want_a_more__cost_effective___efficient__and_agile__network__0_Layer0_0_MEMBER_32_FILL"/>
</g>

<g transform="matrix( 2.815704345703125, 0, 0, 2.832611083984375, 0.15,15.6) ">
<use xlink:href="#IT_160x600_psd_Asset_5_ManagedWiFi_IT_Research_DM8_1_Want_a_more__cost_effective___efficient__and_agile__network__0_Layer0_0_MEMBER_33_FILL"/>
</g>

<g transform="matrix( 2.815704345703125, 0, 0, 2.832611083984375, 0.15,15.6) ">
<use xlink:href="#IT_160x600_psd_Asset_5_ManagedWiFi_IT_Research_DM8_1_Want_a_more__cost_effective___efficient__and_agile__network__0_Layer0_0_MEMBER_34_FILL"/>
</g>

<g transform="matrix( 2.815704345703125, 0, 0, 2.832611083984375, 0.15,15.6) ">
<use xlink:href="#IT_160x600_psd_Asset_5_ManagedWiFi_IT_Research_DM8_1_Want_a_more__cost_effective___efficient__and_agile__network__0_Layer0_0_MEMBER_35_FILL"/>
</g>

<g transform="matrix( 2.815704345703125, 0, 0, 2.832611083984375, 0.15,15.6) ">
<use xlink:href="#IT_160x600_psd_Asset_5_ManagedWiFi_IT_Research_DM8_1_Want_a_more__cost_effective___efficient__and_agile__network__0_Layer0_0_MEMBER_36_FILL"/>
</g>

<g transform="matrix( 2.815704345703125, 0, 0, 2.832611083984375, 0.15,15.6) ">
<use xlink:href="#IT_160x600_psd_Asset_5_ManagedWiFi_IT_Research_DM8_1_Want_a_more__cost_effective___efficient__and_agile__network__0_Layer0_0_MEMBER_37_FILL"/>
</g>

<g transform="matrix( 2.815704345703125, 0, 0, 2.832611083984375, 0.15,15.6) ">
<use xlink:href="#IT_160x600_psd_Asset_5_ManagedWiFi_IT_Research_DM8_1_Want_a_more__cost_effective___efficient__and_agile__network__0_Layer0_0_MEMBER_38_FILL"/>
</g>

<g transform="matrix( 2.815704345703125, 0, 0, 2.832611083984375, 0.15,15.6) ">
<use xlink:href="#IT_160x600_psd_Asset_5_ManagedWiFi_IT_Research_DM8_1_Want_a_more__cost_effective___efficient__and_agile__network__0_Layer0_0_MEMBER_39_FILL"/>
</g>

<g transform="matrix( 2.815704345703125, 0, 0, 2.832611083984375, 0.15,15.6) ">
<use xlink:href="#IT_160x600_psd_Asset_5_ManagedWiFi_IT_Research_DM8_1_Want_a_more__cost_effective___efficient__and_agile__network__0_Layer0_0_MEMBER_40_FILL"/>
</g>

<g transform="matrix( 2.815704345703125, 0, 0, 2.832611083984375, 0.15,15.6) ">
<use xlink:href="#IT_160x600_psd_Asset_5_ManagedWiFi_IT_Research_DM8_1_Want_a_more__cost_effective___efficient__and_agile__network__0_Layer0_0_MEMBER_41_FILL"/>
</g>

<g transform="matrix( 2.815704345703125, 0, 0, 2.832611083984375, 0.15,15.6) ">
<use xlink:href="#IT_160x600_psd_Asset_5_ManagedWiFi_IT_Research_DM8_1_Want_a_more__cost_effective___efficient__and_agile__network__0_Layer0_0_MEMBER_42_FILL"/>
</g>

<g transform="matrix( 2.815704345703125, 0, 0, 2.832611083984375, 0.15,15.6) ">
<use xlink:href="#IT_160x600_psd_Asset_5_ManagedWiFi_IT_Research_DM8_1_Want_a_more__cost_effective___efficient__and_agile__network__0_Layer0_0_MEMBER_43_FILL"/>
</g>

<g transform="matrix( 2.815704345703125, 0, 0, 2.832611083984375, 0.15,15.6) ">
<use xlink:href="#IT_160x600_psd_Asset_5_ManagedWiFi_IT_Research_DM8_1_Want_a_more__cost_effective___efficient__and_agile__network__0_Layer0_0_MEMBER_44_FILL"/>
</g>

<g transform="matrix( 2.815704345703125, 0, 0, 2.832611083984375, 0.15,15.6) ">
<use xlink:href="#IT_160x600_psd_Asset_5_ManagedWiFi_IT_Research_DM8_1_Want_a_more__cost_effective___efficient__and_agile__network__0_Layer0_0_MEMBER_45_FILL"/>
</g>
</g>
</g>
</g>
</svg>
