
<svg xmlns="http://www.w3.org/2000/svg" version="1.1" xmlns:xlink="http://www.w3.org/1999/xlink" preserveAspectRatio="none" x="0px" y="0px" width="300px" height="600px" viewBox="0 0 300 600">
<defs>
<g id="IT_300x600_psd_Asset_6_ManagedWiFi_IT_Awareness_DM7_1_Does_your_business__struggle_with__network_security__0_Layer0_0_MEMBER_0_FILL">
<path fill="#D82C26" stroke="none" d="
M 3.35 -7.5
L 1.05 -7.5 1.05 0 3.35 0
Q 4.45 0 5.4 -0.4 6.4 -0.85 6.9 -1.65 7.45 -2.45 7.45 -3.75 7.45 -5.1 6.9 -5.85 6.35 -6.75 5.4 -7.1 4.45 -7.5 3.35 -7.5
M 1.65 -6.95
L 3.25 -6.95
Q 4.2 -6.95 5.1 -6.55 5.85 -6.3 6.35 -5.5 6.8 -4.75 6.8 -3.75 6.8 -2.75 6.35 -2 5.85 -1.2 5.1 -0.95 4.2 -0.55 3.25 -0.55
L 1.65 -0.55 1.65 -6.95 Z"/>
</g>

<g id="IT_300x600_psd_Asset_6_ManagedWiFi_IT_Awareness_DM7_1_Does_your_business__struggle_with__network_security__0_Layer0_0_MEMBER_1_FILL">
<path fill="#D82C26" stroke="none" d="
M 8.7 -1.15
Q 9.15 -0.45 9.65 -0.2 10.2 0.15 11 0.15 11.8 0.15 12.35 -0.2 12.85 -0.45 13.3 -1.15 13.65 -1.7 13.65 -2.5 13.65 -3.3 13.3 -3.85 12.95 -4.45 12.35 -4.8 11.75 -5.1 11 -5.1 10.25 -5.1 9.65 -4.8 9.05 -4.45 8.7 -3.85 8.35 -3.15 8.35 -2.5 8.35 -1.85 8.7 -1.15
M 9.25 -3.55
Q 9.45 -3.95 9.95 -4.3 10.4 -4.6 11 -4.6 11.6 -4.6 12.05 -4.3 12.55 -3.95 12.75 -3.55 13 -3.15 13 -2.5 13 -1.85 12.8 -1.45 12.5 -0.9 12.05 -0.65 11.55 -0.4 11 -0.4 10.45 -0.4 9.95 -0.65 9.45 -1 9.25 -1.45 9 -1.8 9 -2.5 9 -3.15 9.25 -3.55 Z"/>
</g>

<g id="IT_300x600_psd_Asset_6_ManagedWiFi_IT_Awareness_DM7_1_Does_your_business__struggle_with__network_security__0_Layer0_0_MEMBER_2_FILL">
<path fill="#D82C26" stroke="none" d="
M 14.5 -2.5
Q 14.5 -1.75 14.8 -1.15 15.15 -0.5 15.7 -0.2 16.25 0.15 17 0.15 18.2 0.15 19 -0.5
L 18.9 -1
Q 18.5 -0.7 18.1 -0.55 17.65 -0.35 17.05 -0.35 16.5 -0.35 16.05 -0.65 15.6 -0.9 15.35 -1.35 15.1 -1.8 15.1 -2.4
L 19.3 -2.4 19.3 -2.65
Q 19.3 -3.3 19 -3.9 18.8 -4.35 18.2 -4.8 17.7 -5.1 16.95 -5.1 16.25 -5.1 15.7 -4.8 15.1 -4.4 14.8 -3.85 14.5 -3.25 14.5 -2.5
M 15.95 -4.35
Q 16.4 -4.65 16.95 -4.65 17.7 -4.65 18.2 -4.15 18.7 -3.55 18.7 -2.85
L 15.1 -2.85
Q 15.1 -3.25 15.35 -3.65 15.45 -3.95 15.95 -4.35 Z"/>
</g>

<g id="IT_300x600_psd_Asset_6_ManagedWiFi_IT_Awareness_DM7_1_Does_your_business__struggle_with__network_security__0_Layer0_0_MEMBER_3_FILL">
<path fill="#D82C26" stroke="none" d="
M 20.15 -0.95
L 20.05 -0.4
Q 20.4 -0.15 20.8 0
L 21.8 0.15
Q 22.3 0.15 22.65 -0.05 23.05 -0.2 23.25 -0.5 23.5 -0.9 23.5 -1.3 23.5 -1.85 23.15 -2.2 22.75 -2.55 21.95 -2.75 21.3 -2.95 21 -3.2 20.7 -3.4 20.7 -3.8 20.7 -4.15 21 -4.4 21.35 -4.6 21.8 -4.6
L 22.5 -4.5 23.1 -4.15 23.35 -4.6 22.65 -4.95
Q 22.3 -5.1 21.75 -5.1
L 21 -4.95
Q 20.65 -4.8 20.35 -4.5 20.15 -4.25 20.15 -3.75 20.15 -3.2 20.5 -2.9 20.85 -2.55 21.55 -2.35
L 22.6 -1.9
Q 22.9 -1.65 22.9 -1.3 22.9 -0.8 22.6 -0.6 22.2 -0.35 21.8 -0.35 20.85 -0.35 20.15 -0.95 Z"/>
</g>

<g id="IT_300x600_psd_Asset_6_ManagedWiFi_IT_Awareness_DM7_1_Does_your_business__struggle_with__network_security__0_Layer0_0_MEMBER_4_FILL">
<path fill="#D82C26" stroke="none" d="
M 26.7 -4.95
L 26 -4.95 28.1 0.05 27.75 1.1
Q 27.5 1.65 27.2 1.75 26.85 2 26.35 2
L 26.5 2.55
Q 27.15 2.55 27.6 2.2 28 1.95 28.3 1.25
L 30.6 -4.95 29.95 -4.95 28.4 -0.65 26.7 -4.95 Z"/>
</g>

<g id="IT_300x600_psd_Asset_6_ManagedWiFi_IT_Awareness_DM7_1_Does_your_business__struggle_with__network_security__0_Layer0_0_MEMBER_5_FILL">
<path fill="#D82C26" stroke="none" d="
M 34.9 -4.8
Q 34.3 -5.1 33.55 -5.1 32.8 -5.1 32.2 -4.8 31.6 -4.45 31.25 -3.85 30.9 -3.15 30.9 -2.5 30.9 -1.85 31.25 -1.15 31.7 -0.45 32.2 -0.2 32.75 0.15 33.55 0.15 34.35 0.15 34.9 -0.2 35.55 -0.5 35.85 -1.15 36.2 -1.7 36.2 -2.5 36.2 -3.3 35.85 -3.85 35.6 -4.35 34.9 -4.8
M 34.6 -4.3
Q 35.05 -4 35.35 -3.55 35.6 -3.05 35.6 -2.5 35.6 -1.95 35.35 -1.45 35.05 -0.9 34.65 -0.65 34.05 -0.4 33.55 -0.4 33 -0.4 32.5 -0.65 32 -1 31.8 -1.45 31.55 -1.8 31.55 -2.5 31.55 -3.15 31.8 -3.55 32 -3.95 32.5 -4.3 32.95 -4.6 33.55 -4.6 34.15 -4.6 34.6 -4.3 Z"/>
</g>

<g id="IT_300x600_psd_Asset_6_ManagedWiFi_IT_Awareness_DM7_1_Does_your_business__struggle_with__network_security__0_Layer0_0_MEMBER_6_FILL">
<path fill="#D82C26" stroke="none" d="
M 37.3 -1.95
Q 37.3 -1.05 37.75 -0.45 38.2 0.15 39.1 0.15 39.7 0.15 40.2 -0.2 40.65 -0.45 40.9 -1.05
L 41 0 41.65 0 41.55 -0.55 41.55 -4.95 40.9 -4.95 40.9 -2.5
Q 40.9 -1.75 40.7 -1.35 40.5 -0.9 40.1 -0.6 39.7 -0.35 39.25 -0.35 38.55 -0.35 38.2 -0.85 37.9 -1.35 37.9 -2.1
L 37.9 -4.95 37.3 -4.95 37.3 -1.95 Z"/>
</g>

<g id="IT_300x600_psd_Asset_6_ManagedWiFi_IT_Awareness_DM7_1_Does_your_business__struggle_with__network_security__0_Layer0_0_MEMBER_7_FILL">
<path fill="#D82C26" stroke="none" d="
M 43.65 -2.45
Q 43.65 -3.3 44.05 -3.95 44.45 -4.55 45.05 -4.55
L 45.5 -4.5 45.65 -5
Q 45.45 -5.1 45.1 -5.1 44.7 -5.1 44.25 -4.8 43.9 -4.4 43.65 -3.9
L 43.6 -4.95 43 -4.95 43.05 0 43.65 0 43.65 -2.45 Z"/>
</g>

<g id="IT_300x600_psd_Asset_6_ManagedWiFi_IT_Awareness_DM7_1_Does_your_business__struggle_with__network_security__0_Layer0_0_MEMBER_8_FILL">
<path fill="#D82C26" stroke="none" d="
M 49.1 -8.1
L 48.45 -8 48.4 0 49 0 49.05 -1.1 49.1 -1.1
Q 49.3 -0.55 49.9 -0.2 50.45 0.15 51.1 0.15 51.8 0.15 52.4 -0.2 53 -0.6 53.3 -1.15 53.6 -1.75 53.6 -2.5 53.6 -3.2 53.3 -3.8 52.95 -4.45 52.4 -4.75 51.9 -5.1 51.1 -5.1 50.5 -5.1 49.95 -4.8 49.4 -4.5 49.1 -3.9
L 49.1 -8.1
M 49.3 -3.55
Q 49.65 -4.05 50 -4.3 50.45 -4.6 51 -4.6 51.6 -4.6 52.05 -4.3 52.55 -3.95 52.75 -3.55 53 -2.95 53 -2.5 53 -1.95 52.75 -1.45 52.55 -1 52.05 -0.65 51.55 -0.4 51 -0.4 50.5 -0.4 50 -0.65 49.6 -0.9 49.3 -1.45 49.05 -1.95 49.05 -2.5 49.05 -2.95 49.3 -3.55 Z"/>
</g>

<g id="IT_300x600_psd_Asset_6_ManagedWiFi_IT_Awareness_DM7_1_Does_your_business__struggle_with__network_security__0_Layer0_0_MEMBER_9_FILL">
<path fill="#D82C26" stroke="none" d="
M 54.7 -1.95
Q 54.7 -1.05 55.15 -0.45 55.55 0.15 56.5 0.15 57.1 0.15 57.6 -0.2 58.05 -0.45 58.3 -1.05
L 58.4 0 59 0 58.95 -4.95 58.3 -4.95 58.3 -2.5
Q 58.3 -1.75 58.1 -1.35 57.9 -0.9 57.5 -0.6 57.1 -0.35 56.65 -0.35 55.95 -0.35 55.6 -0.85 55.3 -1.35 55.3 -2.1
L 55.3 -4.95 54.7 -4.95 54.7 -1.95 Z"/>
</g>

<g id="IT_300x600_psd_Asset_6_ManagedWiFi_IT_Awareness_DM7_1_Does_your_business__struggle_with__network_security__0_Layer0_0_MEMBER_10_FILL">
<path fill="#D82C26" stroke="none" d="
M 60.15 -0.95
L 60.05 -0.4
Q 60.4 -0.15 60.8 0
L 61.8 0.15
Q 62.3 0.15 62.65 -0.05 63.05 -0.2 63.25 -0.5 63.5 -0.8 63.5 -1.3 63.5 -1.85 63.15 -2.2 62.75 -2.55 62 -2.75 61.35 -2.95 61 -3.2 60.7 -3.4 60.7 -3.8 60.7 -4.2 61.05 -4.4 61.3 -4.6 61.8 -4.6
L 62.5 -4.5 63.1 -4.15 63.35 -4.6
Q 63.2 -4.75 62.65 -4.95 62.3 -5.1 61.8 -5.1 61.4 -5.1 61 -4.95 60.65 -4.8 60.4 -4.5 60.15 -4.25 60.15 -3.75 60.15 -3.2 60.5 -2.9 60.85 -2.55 61.55 -2.35 62.3 -2.1 62.6 -1.9 62.9 -1.65 62.9 -1.3 62.9 -0.8 62.6 -0.6 62.2 -0.35 61.8 -0.35 60.85 -0.35 60.15 -0.95 Z"/>
</g>

<g id="IT_300x600_psd_Asset_6_ManagedWiFi_IT_Awareness_DM7_1_Does_your_business__struggle_with__network_security__0_Layer0_0_MEMBER_11_FILL">
<path fill="#D82C26" stroke="none" d="
M 65.2 -4.95
L 64.55 -4.95 64.55 0 65.2 0 65.2 -4.95
M 64.85 -6.5
L 65.2 -6.6 65.3 -6.95 65.2 -7.25
Q 65.05 -7.4 64.85 -7.4
L 64.55 -7.25 64.4 -6.95
Q 64.4 -6.75 64.55 -6.6
L 64.85 -6.5 Z"/>
</g>

<g id="IT_300x600_psd_Asset_6_ManagedWiFi_IT_Awareness_DM7_1_Does_your_business__struggle_with__network_security__0_Layer0_0_MEMBER_12_FILL">
<path fill="#D82C26" stroke="none" d="
M 70.45 -4.5
Q 70 -5.1 69.05 -5.1 68.4 -5.1 68 -4.75 67.55 -4.5 67.3 -3.9
L 67.25 -3.9 67.2 -4.95 66.65 -4.95 66.65 0 67.3 0 67.3 -2.55
Q 67.3 -3.2 67.5 -3.65 67.75 -4.15 68.1 -4.35 68.5 -4.6 68.95 -4.6 69.65 -4.6 70 -4.1 70.3 -3.55 70.3 -2.85
L 70.3 0 70.9 0 70.9 -3.05
Q 70.9 -3.9 70.45 -4.5 Z"/>
</g>

<g id="IT_300x600_psd_Asset_6_ManagedWiFi_IT_Awareness_DM7_1_Does_your_business__struggle_with__network_security__0_Layer0_0_MEMBER_13_FILL">
<path fill="#D82C26" stroke="none" d="
M 75.75 -4.8
Q 75.25 -5.1 74.5 -5.1 73.8 -5.1 73.25 -4.8 72.75 -4.5 72.35 -3.85 72.05 -3.25 72.05 -2.5 72.05 -1.75 72.35 -1.15 72.8 -0.45 73.25 -0.2 73.8 0.15 74.6 0.15 75.75 0.15 76.55 -0.5
L 76.45 -1
Q 76.2 -0.7 75.65 -0.55 75.25 -0.35 74.65 -0.35 74.05 -0.35 73.6 -0.65 73.25 -0.8 72.9 -1.35 72.65 -1.95 72.65 -2.4
L 76.85 -2.4 76.85 -2.65
Q 76.85 -3.25 76.6 -3.9 76.25 -4.45 75.75 -4.8
M 74.5 -4.65
Q 75.25 -4.65 75.75 -4.15 76.25 -3.65 76.25 -2.85
L 72.65 -2.85
Q 72.65 -3.25 72.9 -3.65 73.1 -4 73.5 -4.35 73.95 -4.65 74.5 -4.65 Z"/>
</g>

<g id="IT_300x600_psd_Asset_6_ManagedWiFi_IT_Awareness_DM7_1_Does_your_business__struggle_with__network_security__0_Layer0_0_MEMBER_14_FILL">
<path fill="#D82C26" stroke="none" d="
M 79.35 -5.1
Q 78.95 -5.1 78.55 -4.95 78.2 -4.8 77.95 -4.5 77.7 -4.25 77.7 -3.75 77.7 -3.2 78.05 -2.9 78.5 -2.55 79.1 -2.35 79.85 -2.1 80.15 -1.9 80.45 -1.65 80.45 -1.3 80.45 -0.8 80.15 -0.6 79.75 -0.35 79.35 -0.35 78.4 -0.35 77.7 -0.95
L 77.6 -0.4
Q 77.95 -0.15 78.35 0 78.9 0.15 79.4 0.15 79.85 0.15 80.2 -0.05 80.6 -0.2 80.8 -0.5 81.05 -0.8 81.05 -1.3 81.05 -1.85 80.7 -2.2 80.3 -2.55 79.55 -2.75 78.9 -2.95 78.55 -3.2 78.3 -3.4 78.3 -3.8 78.3 -4.15 78.6 -4.4 78.85 -4.6 79.35 -4.6
L 80.05 -4.5 80.65 -4.15 80.9 -4.6
Q 80.75 -4.75 80.2 -4.95 79.85 -5.1 79.35 -5.1 Z"/>
</g>

<g id="IT_300x600_psd_Asset_6_ManagedWiFi_IT_Awareness_DM7_1_Does_your_business__struggle_with__network_security__0_Layer0_0_MEMBER_15_FILL">
<path fill="#D82C26" stroke="none" d="
M 84.45 -4.95
Q 84 -5.1 83.55 -5.1 83.15 -5.1 82.75 -4.95 82.4 -4.8 82.15 -4.5 81.9 -4.15 81.9 -3.75 81.9 -3.2 82.25 -2.9 82.7 -2.55 83.3 -2.35 84.05 -2.1 84.35 -1.9 84.7 -1.65 84.7 -1.3 84.7 -0.85 84.35 -0.6 84 -0.35 83.55 -0.35 82.6 -0.35 81.9 -0.95
L 81.8 -0.4
Q 82.15 -0.1 82.6 0 83.05 0.15 83.6 0.15 84.05 0.15 84.4 -0.05 84.85 -0.25 85.05 -0.5 85.25 -0.85 85.25 -1.3 85.25 -1.85 84.9 -2.2 84.5 -2.55 83.75 -2.75 83.05 -3 82.75 -3.2 82.5 -3.45 82.5 -3.8 82.5 -4.15 82.8 -4.4 83.05 -4.6 83.55 -4.6
L 84.25 -4.5 84.85 -4.15 85.1 -4.6
Q 84.95 -4.75 84.45 -4.95 Z"/>
</g>

<g id="IT_300x600_psd_Asset_6_ManagedWiFi_IT_Awareness_DM7_1_Does_your_business__struggle_with__network_security__0_Layer0_0_MEMBER_16_FILL">
<path fill="#D82C26" stroke="none" d="
M 3.9 8.85
Q 3.5 8.55 3.2 8.45 2.75 8.3 2.3 8.3
L 1.55 8.45
Q 1.1 8.65 0.9 8.9 0.7 9.25 0.7 9.65 0.7 10.25 1.05 10.55 1.3 10.8 2.1 11.05 2.85 11.3 3.15 11.55 3.45 11.8 3.45 12.15 3.45 12.6 3.1 12.8 2.85 13.05 2.35 13.05 1.4 13.05 0.7 12.45
L 0.6 13
Q 0.95 13.25 1.35 13.4 1.8 13.55 2.35 13.55 2.75 13.55 3.2 13.4 3.5 13.25 3.8 12.9 4.05 12.55 4.05 12.1 4.05 11.6 3.7 11.25 3.35 10.9 2.5 10.65 1.85 10.45 1.55 10.2 1.25 10 1.25 9.65 1.25 9.25 1.55 9 1.8 8.8 2.35 8.8
L 3.05 8.95 3.65 9.3 3.9 8.85 Z"/>
</g>

<g id="IT_300x600_psd_Asset_6_ManagedWiFi_IT_Awareness_DM7_1_Does_your_business__struggle_with__network_security__0_Layer0_0_MEMBER_17_FILL">
<path fill="#D82C26" stroke="none" d="
M 4.65 8.45
L 4.55 8.95 5.45 8.95 5.45 12.2
Q 5.45 12.75 5.8 13.2 6.1 13.5 6.65 13.5
L 7.2 13.45 7.7 13.25 7.6 12.8
Q 7.2 13 6.8 13 6.45 13 6.3 12.8 6.1 12.6 6.1 12.15
L 6.1 8.95 7.35 8.95 7.5 8.45 6.1 8.45 6.1 7.05 5.45 7.25 5.45 8.45 4.65 8.45 Z"/>
</g>

<g id="IT_300x600_psd_Asset_6_ManagedWiFi_IT_Awareness_DM7_1_Does_your_business__struggle_with__network_security__0_Layer0_0_MEMBER_18_FILL">
<path fill="#D82C26" stroke="none" d="
M 11.1 8.4
L 10.55 8.3
Q 10.05 8.3 9.7 8.65 9.35 8.95 9.1 9.55
L 9.05 8.45 8.45 8.45 8.5 13.4 9.1 13.4 9.1 10.95
Q 9.1 10.15 9.5 9.45 9.9 8.85 10.5 8.85
L 10.95 8.95 11.1 8.4 Z"/>
</g>

<g id="IT_300x600_psd_Asset_6_ManagedWiFi_IT_Awareness_DM7_1_Does_your_business__struggle_with__network_security__0_Layer0_0_MEMBER_19_FILL">
<path fill="#D82C26" stroke="none" d="
M 11.8 8.45
L 11.8 11.5
Q 11.8 12.35 12.25 12.95 12.65 13.55 13.6 13.55 14.2 13.55 14.7 13.2 15.15 12.95 15.4 12.35
L 15.5 13.45 16.1 13.4 16.05 12.85 16.05 8.45 15.4 8.45 15.4 10.95
Q 15.4 11.65 15.2 12.05 15 12.6 14.6 12.8 14.2 13.05 13.75 13.05 13 13.05 12.7 12.55 12.4 12.05 12.4 11.3
L 12.4 8.45 11.8 8.45 Z"/>
</g>

<g id="IT_300x600_psd_Asset_6_ManagedWiFi_IT_Awareness_DM7_1_Does_your_business__struggle_with__network_security__0_Layer0_0_MEMBER_20_FILL">
<path fill="#D82C26" stroke="none" d="
M 21.7 9.55
Q 21.4 8.95 20.85 8.65 20.35 8.3 19.7 8.3 19 8.3 18.4 8.65 17.8 9.05 17.5 9.6 17.2 10.2 17.2 10.95 17.2 11.65 17.5 12.25 17.8 12.85 18.4 13.15 18.9 13.5 19.7 13.5 20.35 13.5 20.85 13.2 21.45 12.85 21.7 12.3
L 21.7 13.35
Q 21.7 14.4 21.2 14.9 20.75 15.5 19.65 15.5 19.05 15.5 18.6 15.3 18.05 15.15 17.6 14.85
L 17.5 15.4
Q 17.95 15.7 18.5 15.85 19.1 16 19.7 16 21.05 16 21.7 15.3 22.35 14.5 22.35 13.35
L 22.35 8.45 21.75 8.45 21.7 9.55
M 21.75 10.9
Q 21.75 11.45 21.5 11.95 21.2 12.5 20.75 12.7 20.3 13 19.75 13 19.2 13 18.75 12.7 18.3 12.5 18.05 11.95 17.8 11.45 17.8 10.95 17.8 10.4 18.05 9.9 18.25 9.45 18.75 9.1 19.15 8.85 19.75 8.85 20.4 8.85 20.75 9.1 21.2 9.4 21.5 9.85 21.75 10.45 21.75 10.9 Z"/>
</g>

<g id="IT_300x600_psd_Asset_6_ManagedWiFi_IT_Awareness_DM7_1_Does_your_business__struggle_with__network_security__0_Layer0_0_MEMBER_21_FILL">
<path fill="#D82C26" stroke="none" d="
M 24.65 8.65
Q 24.05 9.05 23.8 9.6 23.45 10.15 23.45 10.95 23.45 11.7 23.8 12.25 24.1 12.85 24.65 13.15 25.2 13.5 25.95 13.5 26.65 13.5 27.15 13.2 27.8 12.75 27.95 12.3
L 28 12.3 28 13.35
Q 28 14.4 27.5 14.9 27 15.5 25.95 15.5 25.3 15.5 24.85 15.3 24.35 15.15 23.9 14.85
L 23.8 15.4
Q 24.3 15.7 24.8 15.85 25.35 16 25.95 16 27.4 16 27.95 15.3 28.6 14.6 28.6 13.35
L 28.65 8.45 28.05 8.45 28 9.55
Q 27.7 8.95 27.15 8.65 26.6 8.3 25.95 8.3 25.35 8.3 24.65 8.65
M 24.35 9.9
Q 24.55 9.4 25 9.1 25.4 8.85 26.05 8.85 26.7 8.85 27.05 9.1 27.55 9.45 27.75 9.85 28 10.3 28 10.9 28 11.6 27.75 11.95 27.55 12.45 27.05 12.7 26.6 13 26.05 13 25.45 13 25 12.7 24.65 12.5 24.35 11.95 24.1 11.6 24.1 10.95 24.1 10.3 24.35 9.9 Z"/>
</g>

<g id="IT_300x600_psd_Asset_6_ManagedWiFi_IT_Awareness_DM7_1_Does_your_business__struggle_with__network_security__0_Layer0_0_MEMBER_22_FILL">
<path fill="#D82C26" stroke="none" d="
M 30.3 13.1
Q 30.55 13.4 30.9 13.55
L 31.15 13
Q 30.85 12.9 30.8 12.7
L 30.7 12.2 30.7 5.35 30.1 5.45 30.1 12.3
Q 30.1 12.85 30.3 13.1 Z"/>
</g>

<g id="IT_300x600_psd_Asset_6_ManagedWiFi_IT_Awareness_DM7_1_Does_your_business__struggle_with__network_security__0_Layer0_0_MEMBER_23_FILL">
<path fill="#D82C26" stroke="none" d="
M 31.85 10.9
Q 31.85 11.6 32.2 12.3 32.5 12.9 33.1 13.2 33.65 13.55 34.4 13.55 35.6 13.55 36.4 12.95
L 36.3 12.4
Q 35.9 12.7 35.5 12.85 35.05 13.05 34.45 13.05 33.95 13.05 33.45 12.8 32.95 12.5 32.75 12.05 32.5 11.7 32.5 11
L 36.7 11 36.7 10.75
Q 36.7 10.1 36.4 9.5 36.2 9 35.6 8.65 35.1 8.3 34.35 8.3 33.6 8.3 33.1 8.65 32.5 8.95 32.2 9.55 31.85 10.25 31.85 10.9
M 33.35 9.05
Q 33.85 8.8 34.35 8.8 35.15 8.8 35.6 9.25 36.1 9.85 36.1 10.55
L 32.5 10.55
Q 32.5 10.25 32.75 9.75 32.9 9.45 33.35 9.05 Z"/>
</g>

<g id="IT_300x600_psd_Asset_6_ManagedWiFi_IT_Awareness_DM7_1_Does_your_business__struggle_with__network_security__0_Layer0_0_MEMBER_24_FILL">
<path fill="#D82C26" stroke="none" d="
M 43.35 8.45
L 42.65 8.45 41.3 12.7 41.25 12.7 40.05 8.45 39.35 8.45 40.9 13.4 41.6 13.4 43 9.2 44.45 13.4 45.1 13.4 46.65 8.45 46 8.45 44.75 12.7 43.35 8.45 Z"/>
</g>

<g id="IT_300x600_psd_Asset_6_ManagedWiFi_IT_Awareness_DM7_1_Does_your_business__struggle_with__network_security__0_Layer0_0_MEMBER_25_FILL">
<path fill="#D82C26" stroke="none" d="
M 48.15 8.45
L 47.55 8.45 47.55 13.4 48.15 13.4 48.15 8.45
M 48.15 6.15
L 47.85 6
Q 47.65 6 47.5 6.15
L 47.4 6.45 47.5 6.8
Q 47.6 6.9 47.85 6.9 48.05 6.9 48.15 6.8 48.3 6.65 48.3 6.45
L 48.15 6.15 Z"/>
</g>

<g id="IT_300x600_psd_Asset_6_ManagedWiFi_IT_Awareness_DM7_1_Does_your_business__struggle_with__network_security__0_Layer0_0_MEMBER_26_FILL">
<path fill="#D82C26" stroke="none" d="
M 51.75 8.95
L 51.9 8.45 50.5 8.45 50.5 7.05 49.85 7.25 49.85 8.45 49.05 8.45 48.95 8.95 49.9 8.95 49.9 12.2
Q 49.9 12.85 50.2 13.2 50.5 13.5 51.05 13.5
L 51.6 13.45 52.1 13.25 52 12.8
Q 51.6 13 51.2 13 50.85 13 50.7 12.8 50.5 12.6 50.5 12.15
L 50.5 8.95 51.75 8.95 Z"/>
</g>

<g id="IT_300x600_psd_Asset_6_ManagedWiFi_IT_Awareness_DM7_1_Does_your_business__struggle_with__network_security__0_Layer0_0_MEMBER_27_FILL">
<path fill="#D82C26" stroke="none" d="
M 53.5 5.35
L 52.9 5.45 52.9 13.4 53.5 13.4 53.5 11
Q 53.5 10.4 53.75 9.8 54 9.25 54.3 9.1 54.7 8.85 55.15 8.85 55.9 8.85 56.2 9.3 56.5 9.85 56.5 10.55
L 56.5 13.4 57.15 13.4 57.15 10.4
Q 57.15 9.5 56.7 8.9 56.25 8.3 55.3 8.3 54.65 8.3 54.25 8.65 53.7 8.95 53.55 9.5
L 53.5 9.5 53.5 5.35 Z"/>
</g>

<g id="IT_300x600_psd_Asset_6_ManagedWiFi_IT_Awareness_DM7_1_Does_your_business__struggle_with__network_security__0_Layer0_0_MEMBER_28_FILL">
<path fill="#D82C26" stroke="none" d="
M 1.55 21.85
L 0.95 21.85 1 26.85 1.6 26.85 1.6 24.3
Q 1.6 23.7 1.85 23.2 2.1 22.7 2.45 22.5 2.85 22.25 3.25 22.25 4 22.25 4.3 22.75 4.6 23.2 4.6 23.95
L 4.6 26.85 5.25 26.85 5.25 23.8
Q 5.25 22.9 4.8 22.3 4.4 21.75 3.4 21.75 2.85 21.75 2.3 22.05 1.8 22.45 1.6 22.95
L 1.55 21.85 Z"/>
</g>

<g id="IT_300x600_psd_Asset_6_ManagedWiFi_IT_Awareness_DM7_1_Does_your_business__struggle_with__network_security__0_Layer0_0_MEMBER_29_FILL">
<path fill="#D82C26" stroke="none" d="
M 10.1 22.05
Q 9.6 21.7 8.8 21.7 8.25 21.7 7.55 22.05 7.05 22.35 6.7 23 6.35 23.5 6.35 24.3 6.35 25.15 6.7 25.7 7 26.25 7.6 26.65 8.3 27 8.9 27 10 27 10.9 26.35
L 10.8 25.8 10 26.3 8.95 26.45
Q 8.35 26.45 7.95 26.2 7.45 25.9 7.25 25.45 6.95 25 6.95 24.45
L 11.15 24.45 11.2 24.15
Q 11.2 23.5 10.9 22.95 10.6 22.35 10.1 22.05
M 8.8 22.2
Q 9.6 22.2 10.1 22.7 10.6 23.2 10.6 24
L 7 24
Q 7 23.55 7.2 23.2 7.45 22.7 7.85 22.5 8.25 22.2 8.8 22.2 Z"/>
</g>

<g id="IT_300x600_psd_Asset_6_ManagedWiFi_IT_Awareness_DM7_1_Does_your_business__struggle_with__network_security__0_Layer0_0_MEMBER_30_FILL">
<path fill="#D82C26" stroke="none" d="
M 12.4 21.85
L 11.65 21.85 11.5 22.35 12.45 22.35 12.45 25.65
Q 12.45 26.25 12.75 26.6 13.1 26.95 13.6 26.95
L 14.15 26.85 14.65 26.65 14.55 26.2
Q 14.05 26.45 13.75 26.45 13.4 26.45 13.25 26.2 13.05 26 13.05 25.55
L 13.05 22.35 14.35 22.35 14.45 21.85 13.05 21.85 13.05 20.45 12.4 20.7 12.4 21.85 Z"/>
</g>

<g id="IT_300x600_psd_Asset_6_ManagedWiFi_IT_Awareness_DM7_1_Does_your_business__struggle_with__network_security__0_Layer0_0_MEMBER_31_FILL">
<path fill="#D82C26" stroke="none" d="
M 22.25 21.85
L 21.65 21.85 20.4 26.1 18.95 21.85 18.3 21.85 16.9 26.1 16.85 26.1 15.65 21.85 15 21.85 16.5 26.85 17.2 26.85 18.6 22.6 18.65 22.6 20.05 26.85 20.75 26.85 22.25 21.85 Z"/>
</g>

<g id="IT_300x600_psd_Asset_6_ManagedWiFi_IT_Awareness_DM7_1_Does_your_business__struggle_with__network_security__0_Layer0_0_MEMBER_32_FILL">
<path fill="#D82C26" stroke="none" d="
M 25.3 21.7
Q 24.65 21.7 23.95 22.05 23.4 22.35 23.05 23 22.7 23.55 22.7 24.35 22.7 25.15 23.05 25.7 23.35 26.25 23.95 26.65 24.65 27 25.3 27 25.9 27 26.7 26.65 27.3 26.25 27.6 25.7 27.95 25.15 27.95 24.35 27.95 23.55 27.6 23 27.25 22.35 26.7 22.05 25.9 21.7 25.3 21.7
M 24.25 22.55
Q 24.7 22.25 25.3 22.25 25.95 22.25 26.4 22.55 26.9 22.8 27.1 23.3 27.35 23.8 27.35 24.35 27.35 24.8 27.1 25.4 26.9 25.85 26.4 26.15 25.95 26.45 25.3 26.45 24.7 26.45 24.25 26.15 23.75 25.85 23.55 25.4 23.3 24.8 23.3 24.35 23.3 23.8 23.55 23.3 23.75 22.8 24.25 22.55 Z"/>
</g>

<g id="IT_300x600_psd_Asset_6_ManagedWiFi_IT_Awareness_DM7_1_Does_your_business__struggle_with__network_security__0_Layer0_0_MEMBER_33_FILL">
<path fill="#D82C26" stroke="none" d="
M 29.65 21.85
L 29.05 21.85 29.1 26.85 29.75 26.85 29.75 24.35
Q 29.75 23.45 30.1 22.9 30.5 22.3 31.15 22.3
L 31.6 22.35 31.7 21.8 31.2 21.75
Q 30.75 21.75 30.35 22.05 29.9 22.35 29.75 22.95
L 29.7 22.95 29.65 21.85 Z"/>
</g>

<g id="IT_300x600_psd_Asset_6_ManagedWiFi_IT_Awareness_DM7_1_Does_your_business__struggle_with__network_security__0_Layer0_0_MEMBER_34_FILL">
<path fill="#D82C26" stroke="none" d="
M 33.1 18.75
L 32.45 18.85 32.45 26.85 33.1 26.85 33.1 24.25 35.65 26.85 36.45 26.85 33.8 24.15 36.25 21.85 35.4 21.85 33.1 24.1 33.1 18.75 Z"/>
</g>

<g id="IT_300x600_psd_Asset_6_ManagedWiFi_IT_Awareness_DM7_1_Does_your_business__struggle_with__network_security__0_Layer0_0_MEMBER_35_FILL">
<path fill="#D82C26" stroke="none" d="
M 41.65 21.85
Q 41.2 21.7 40.75 21.7 40.35 21.7 39.95 21.85 39.65 22 39.35 22.35 39.1 22.7 39.1 23.1 39.1 23.6 39.45 23.95 39.75 24.15 40.55 24.5 41.25 24.75 41.55 24.95 41.9 25.15 41.9 25.55 41.9 25.95 41.55 26.25 41.2 26.5 40.8 26.5 39.85 26.5 39.15 25.9
L 39 26.4
Q 39.2 26.6 39.8 26.8 40.25 26.95 40.8 26.95 41.25 26.95 41.6 26.8 42.05 26.65 42.25 26.3 42.5 25.95 42.5 25.55 42.5 24.95 42.1 24.65 41.7 24.3 40.95 24.05
L 40 23.65
Q 39.7 23.45 39.7 23.05 39.7 22.65 40 22.4 40.4 22.2 40.8 22.2 41.15 22.2 41.5 22.35
L 42.05 22.7 42.35 22.25 41.65 21.85 Z"/>
</g>

<g id="IT_300x600_psd_Asset_6_ManagedWiFi_IT_Awareness_DM7_1_Does_your_business__struggle_with__network_security__0_Layer0_0_MEMBER_36_FILL">
<path fill="#D82C26" stroke="none" d="
M 43.55 23
Q 43.25 23.55 43.25 24.3 43.25 25.1 43.55 25.7 43.9 26.25 44.45 26.65 45.15 27 45.8 27 46.85 27 47.75 26.35
L 47.65 25.8
Q 47.45 26 46.85 26.3 46.4 26.45 45.85 26.45 45.2 26.45 44.8 26.2 44.45 25.95 44.1 25.45 43.85 24.95 43.85 24.45
L 48.05 24.45 48.05 24.15
Q 48.05 23.55 47.8 22.95 47.5 22.3 46.95 22.05 46.45 21.7 45.7 21.7 45.05 21.7 44.45 22.05 44 22.25 43.55 23
M 44.1 23.2
Q 44.35 22.7 44.7 22.5 45.15 22.2 45.7 22.2 46.5 22.2 46.95 22.7 47.45 23.15 47.45 24
L 43.85 24
Q 43.85 23.6 44.1 23.2 Z"/>
</g>

<g id="IT_300x600_psd_Asset_6_ManagedWiFi_IT_Awareness_DM7_1_Does_your_business__struggle_with__network_security__0_Layer0_0_MEMBER_37_FILL">
<path fill="#D82C26" stroke="none" d="
M 49.25 23
Q 48.9 23.55 48.9 24.35 48.9 25.15 49.25 25.7 49.55 26.25 50.15 26.65 50.85 27 51.5 27 51.85 27 52.45 26.8 52.9 26.65 53.2 26.35
L 53.1 25.85
Q 52.7 26.2 52.4 26.3 52.05 26.45 51.55 26.45 50.95 26.45 50.5 26.15 50 25.85 49.8 25.4 49.55 25.05 49.55 24.35 49.55 23.7 49.8 23.3 50.05 22.75 50.5 22.55 50.95 22.25 51.5 22.25 51.95 22.25 52.3 22.4 52.7 22.55 52.95 22.8
L 53.2 22.3
Q 52.85 22.05 52.45 21.9 52.05 21.7 51.5 21.7 50.85 21.7 50.15 22.05 49.55 22.45 49.25 23 Z"/>
</g>

<g id="IT_300x600_psd_Asset_6_ManagedWiFi_IT_Awareness_DM7_1_Does_your_business__struggle_with__network_security__0_Layer0_0_MEMBER_38_FILL">
<path fill="#D82C26" stroke="none" d="
M 54.65 21.85
L 54.05 21.85 54.05 24.9
Q 54.05 25.8 54.45 26.35 54.9 26.95 55.85 26.95 56.45 26.95 56.95 26.65 57.5 26.2 57.65 25.75
L 57.75 26.85 58.35 26.85 58.25 25.7 58.25 21.85 57.65 21.85 57.65 24.35
Q 57.65 25.05 57.45 25.5 57.2 26 56.85 26.2 56.55 26.45 56 26.45 55.25 26.45 54.95 25.95 54.65 25.5 54.65 24.75
L 54.65 21.85 Z"/>
</g>

<g id="IT_300x600_psd_Asset_6_ManagedWiFi_IT_Awareness_DM7_1_Does_your_business__struggle_with__network_security__0_Layer0_0_MEMBER_39_FILL">
<path fill="#D82C26" stroke="none" d="
M 60.8 22.9
Q 61.2 22.3 61.8 22.3
L 62.25 22.35 62.4 21.8 61.85 21.75
Q 61.4 21.75 61 22.05 60.65 22.35 60.4 22.95
L 60.35 21.85 59.75 21.85 59.8 26.85 60.4 26.85 60.4 24.35
Q 60.4 23.55 60.8 22.9 Z"/>
</g>

<g id="IT_300x600_psd_Asset_6_ManagedWiFi_IT_Awareness_DM7_1_Does_your_business__struggle_with__network_security__0_Layer0_0_MEMBER_40_FILL">
<path fill="#D82C26" stroke="none" d="
M 63.75 21.85
L 63.15 21.85 63.15 26.85 63.75 26.85 63.75 21.85
M 63.75 19.55
L 63.45 19.45 63.1 19.55 63 19.9 63.1 20.2
Q 63.25 20.35 63.45 20.35
L 63.75 20.2 63.9 19.9
Q 63.9 19.7 63.75 19.55 Z"/>
</g>

<g id="IT_300x600_psd_Asset_6_ManagedWiFi_IT_Awareness_DM7_1_Does_your_business__struggle_with__network_security__0_Layer0_0_MEMBER_41_FILL">
<path fill="#D82C26" stroke="none" d="
M 64.55 22.35
L 65.5 22.35 65.5 25.65
Q 65.5 26.25 65.8 26.6 66.15 26.95 66.65 26.95
L 67.2 26.85 67.7 26.65 67.6 26.2
Q 67.1 26.45 66.8 26.45 66.45 26.45 66.3 26.2 66.1 26 66.1 25.55
L 66.1 22.35 67.35 22.35 67.5 21.85 66.1 21.85 66.1 20.45 65.45 20.7 65.45 21.85 64.65 21.85 64.55 22.35 Z"/>
</g>

<g id="IT_300x600_psd_Asset_6_ManagedWiFi_IT_Awareness_DM7_1_Does_your_business__struggle_with__network_security__0_Layer0_0_MEMBER_42_FILL">
<path fill="#D82C26" stroke="none" d="
M 72.55 21.85
L 71.9 21.85 70.4 26.15 68.7 21.85 68 21.85 70.1 26.85 69.7 27.9
Q 69.5 28.4 69.2 28.6 68.85 28.8 68.3 28.8
L 68.45 29.35
Q 69.15 29.35 69.6 29.05 70 28.7 70.25 28.1
L 72.55 21.85 Z"/>
</g>

<g id="IT_300x600_psd_Asset_6_ManagedWiFi_IT_Awareness_DM7_1_Does_your_business__struggle_with__network_security__0_Layer0_0_MEMBER_43_FILL">
<path fill="#D82C26" stroke="none" d="
M 75.55 21
Q 75.55 21.3 75.4 21.6
L 75.15 22.05 74.6 22.65
Q 74.05 23.2 73.95 23.45 73.75 24.05 73.75 24.35
L 73.75 24.7 74.35 24.7 74.35 24.45 74.45 23.85
Q 74.45 23.7 74.65 23.4
L 75.7 22.25 76.05 21.7
Q 76.2 21.4 76.2 20.95 76.2 20.4 75.9 20 75.6 19.55 75.15 19.35 74.75 19.15 74.15 19.15 73.5 19.15 72.9 19.4 72.3 19.75 72 20.05
L 72.3 20.55
Q 72.6 20.2 73.05 19.95 73.55 19.7 74.1 19.7 74.65 19.7 75.1 20.05 75.55 20.45 75.55 21
M 73.8 26.75
Q 73.9 26.9 74.1 26.9 74.3 26.9 74.45 26.75
L 74.55 26.45 74.45 26.1
Q 74.3 25.95 74.1 25.95 73.9 25.95 73.75 26.1
L 73.65 26.45 73.8 26.75 Z"/>
</g>
</defs>

<g transform="matrix( 1, 0, 0, 1, -265,35) ">
<g transform="matrix( 1, 0, 0, 1, 260,0) ">
<g transform="matrix( 1, 0, 0, 1, 35,6) ">
<g transform="matrix( 2.815704345703125, 0, 0, 2.832611083984375, -1.85,23.6) ">
<use xlink:href="#IT_300x600_psd_Asset_6_ManagedWiFi_IT_Awareness_DM7_1_Does_your_business__struggle_with__network_security__0_Layer0_0_MEMBER_0_FILL"/>
</g>

<g transform="matrix( 2.815704345703125, 0, 0, 2.832611083984375, -1.85,23.6) ">
<use xlink:href="#IT_300x600_psd_Asset_6_ManagedWiFi_IT_Awareness_DM7_1_Does_your_business__struggle_with__network_security__0_Layer0_0_MEMBER_1_FILL"/>
</g>

<g transform="matrix( 2.815704345703125, 0, 0, 2.832611083984375, -1.85,23.6) ">
<use xlink:href="#IT_300x600_psd_Asset_6_ManagedWiFi_IT_Awareness_DM7_1_Does_your_business__struggle_with__network_security__0_Layer0_0_MEMBER_2_FILL"/>
</g>

<g transform="matrix( 2.815704345703125, 0, 0, 2.832611083984375, -1.85,23.6) ">
<use xlink:href="#IT_300x600_psd_Asset_6_ManagedWiFi_IT_Awareness_DM7_1_Does_your_business__struggle_with__network_security__0_Layer0_0_MEMBER_3_FILL"/>
</g>

<g transform="matrix( 2.815704345703125, 0, 0, 2.832611083984375, -1.85,23.6) ">
<use xlink:href="#IT_300x600_psd_Asset_6_ManagedWiFi_IT_Awareness_DM7_1_Does_your_business__struggle_with__network_security__0_Layer0_0_MEMBER_4_FILL"/>
</g>

<g transform="matrix( 2.815704345703125, 0, 0, 2.832611083984375, -1.85,23.6) ">
<use xlink:href="#IT_300x600_psd_Asset_6_ManagedWiFi_IT_Awareness_DM7_1_Does_your_business__struggle_with__network_security__0_Layer0_0_MEMBER_5_FILL"/>
</g>

<g transform="matrix( 2.815704345703125, 0, 0, 2.832611083984375, -1.85,23.6) ">
<use xlink:href="#IT_300x600_psd_Asset_6_ManagedWiFi_IT_Awareness_DM7_1_Does_your_business__struggle_with__network_security__0_Layer0_0_MEMBER_6_FILL"/>
</g>

<g transform="matrix( 2.815704345703125, 0, 0, 2.832611083984375, -1.85,23.6) ">
<use xlink:href="#IT_300x600_psd_Asset_6_ManagedWiFi_IT_Awareness_DM7_1_Does_your_business__struggle_with__network_security__0_Layer0_0_MEMBER_7_FILL"/>
</g>

<g transform="matrix( 2.815704345703125, 0, 0, 2.832611083984375, -1.85,23.6) ">
<use xlink:href="#IT_300x600_psd_Asset_6_ManagedWiFi_IT_Awareness_DM7_1_Does_your_business__struggle_with__network_security__0_Layer0_0_MEMBER_8_FILL"/>
</g>

<g transform="matrix( 2.815704345703125, 0, 0, 2.832611083984375, -1.85,23.6) ">
<use xlink:href="#IT_300x600_psd_Asset_6_ManagedWiFi_IT_Awareness_DM7_1_Does_your_business__struggle_with__network_security__0_Layer0_0_MEMBER_9_FILL"/>
</g>

<g transform="matrix( 2.815704345703125, 0, 0, 2.832611083984375, -1.85,23.6) ">
<use xlink:href="#IT_300x600_psd_Asset_6_ManagedWiFi_IT_Awareness_DM7_1_Does_your_business__struggle_with__network_security__0_Layer0_0_MEMBER_10_FILL"/>
</g>

<g transform="matrix( 2.815704345703125, 0, 0, 2.832611083984375, -1.85,23.6) ">
<use xlink:href="#IT_300x600_psd_Asset_6_ManagedWiFi_IT_Awareness_DM7_1_Does_your_business__struggle_with__network_security__0_Layer0_0_MEMBER_11_FILL"/>
</g>

<g transform="matrix( 2.815704345703125, 0, 0, 2.832611083984375, -1.85,23.6) ">
<use xlink:href="#IT_300x600_psd_Asset_6_ManagedWiFi_IT_Awareness_DM7_1_Does_your_business__struggle_with__network_security__0_Layer0_0_MEMBER_12_FILL"/>
</g>

<g transform="matrix( 2.815704345703125, 0, 0, 2.832611083984375, -1.85,23.6) ">
<use xlink:href="#IT_300x600_psd_Asset_6_ManagedWiFi_IT_Awareness_DM7_1_Does_your_business__struggle_with__network_security__0_Layer0_0_MEMBER_13_FILL"/>
</g>

<g transform="matrix( 2.815704345703125, 0, 0, 2.832611083984375, -1.85,23.6) ">
<use xlink:href="#IT_300x600_psd_Asset_6_ManagedWiFi_IT_Awareness_DM7_1_Does_your_business__struggle_with__network_security__0_Layer0_0_MEMBER_14_FILL"/>
</g>

<g transform="matrix( 2.815704345703125, 0, 0, 2.832611083984375, -1.85,23.6) ">
<use xlink:href="#IT_300x600_psd_Asset_6_ManagedWiFi_IT_Awareness_DM7_1_Does_your_business__struggle_with__network_security__0_Layer0_0_MEMBER_15_FILL"/>
</g>

<g transform="matrix( 2.815704345703125, 0, 0, 2.832611083984375, -1.85,23.6) ">
<use xlink:href="#IT_300x600_psd_Asset_6_ManagedWiFi_IT_Awareness_DM7_1_Does_your_business__struggle_with__network_security__0_Layer0_0_MEMBER_16_FILL"/>
</g>

<g transform="matrix( 2.815704345703125, 0, 0, 2.832611083984375, -1.85,23.6) ">
<use xlink:href="#IT_300x600_psd_Asset_6_ManagedWiFi_IT_Awareness_DM7_1_Does_your_business__struggle_with__network_security__0_Layer0_0_MEMBER_17_FILL"/>
</g>

<g transform="matrix( 2.815704345703125, 0, 0, 2.832611083984375, -1.85,23.6) ">
<use xlink:href="#IT_300x600_psd_Asset_6_ManagedWiFi_IT_Awareness_DM7_1_Does_your_business__struggle_with__network_security__0_Layer0_0_MEMBER_18_FILL"/>
</g>

<g transform="matrix( 2.815704345703125, 0, 0, 2.832611083984375, -1.85,23.6) ">
<use xlink:href="#IT_300x600_psd_Asset_6_ManagedWiFi_IT_Awareness_DM7_1_Does_your_business__struggle_with__network_security__0_Layer0_0_MEMBER_19_FILL"/>
</g>

<g transform="matrix( 2.815704345703125, 0, 0, 2.832611083984375, -1.85,23.6) ">
<use xlink:href="#IT_300x600_psd_Asset_6_ManagedWiFi_IT_Awareness_DM7_1_Does_your_business__struggle_with__network_security__0_Layer0_0_MEMBER_20_FILL"/>
</g>

<g transform="matrix( 2.815704345703125, 0, 0, 2.832611083984375, -1.85,23.6) ">
<use xlink:href="#IT_300x600_psd_Asset_6_ManagedWiFi_IT_Awareness_DM7_1_Does_your_business__struggle_with__network_security__0_Layer0_0_MEMBER_21_FILL"/>
</g>

<g transform="matrix( 2.815704345703125, 0, 0, 2.832611083984375, -1.85,23.6) ">
<use xlink:href="#IT_300x600_psd_Asset_6_ManagedWiFi_IT_Awareness_DM7_1_Does_your_business__struggle_with__network_security__0_Layer0_0_MEMBER_22_FILL"/>
</g>

<g transform="matrix( 2.815704345703125, 0, 0, 2.832611083984375, -1.85,23.6) ">
<use xlink:href="#IT_300x600_psd_Asset_6_ManagedWiFi_IT_Awareness_DM7_1_Does_your_business__struggle_with__network_security__0_Layer0_0_MEMBER_23_FILL"/>
</g>

<g transform="matrix( 2.815704345703125, 0, 0, 2.832611083984375, -1.85,23.6) ">
<use xlink:href="#IT_300x600_psd_Asset_6_ManagedWiFi_IT_Awareness_DM7_1_Does_your_business__struggle_with__network_security__0_Layer0_0_MEMBER_24_FILL"/>
</g>

<g transform="matrix( 2.815704345703125, 0, 0, 2.832611083984375, -1.85,23.6) ">
<use xlink:href="#IT_300x600_psd_Asset_6_ManagedWiFi_IT_Awareness_DM7_1_Does_your_business__struggle_with__network_security__0_Layer0_0_MEMBER_25_FILL"/>
</g>

<g transform="matrix( 2.815704345703125, 0, 0, 2.832611083984375, -1.85,23.6) ">
<use xlink:href="#IT_300x600_psd_Asset_6_ManagedWiFi_IT_Awareness_DM7_1_Does_your_business__struggle_with__network_security__0_Layer0_0_MEMBER_26_FILL"/>
</g>

<g transform="matrix( 2.815704345703125, 0, 0, 2.832611083984375, -1.85,23.6) ">
<use xlink:href="#IT_300x600_psd_Asset_6_ManagedWiFi_IT_Awareness_DM7_1_Does_your_business__struggle_with__network_security__0_Layer0_0_MEMBER_27_FILL"/>
</g>

<g transform="matrix( 2.815704345703125, 0, 0, 2.832611083984375, -1.85,23.6) ">
<use xlink:href="#IT_300x600_psd_Asset_6_ManagedWiFi_IT_Awareness_DM7_1_Does_your_business__struggle_with__network_security__0_Layer0_0_MEMBER_28_FILL"/>
</g>

<g transform="matrix( 2.815704345703125, 0, 0, 2.832611083984375, -1.85,23.6) ">
<use xlink:href="#IT_300x600_psd_Asset_6_ManagedWiFi_IT_Awareness_DM7_1_Does_your_business__struggle_with__network_security__0_Layer0_0_MEMBER_29_FILL"/>
</g>

<g transform="matrix( 2.815704345703125, 0, 0, 2.832611083984375, -1.85,23.6) ">
<use xlink:href="#IT_300x600_psd_Asset_6_ManagedWiFi_IT_Awareness_DM7_1_Does_your_business__struggle_with__network_security__0_Layer0_0_MEMBER_30_FILL"/>
</g>

<g transform="matrix( 2.815704345703125, 0, 0, 2.832611083984375, -1.85,23.6) ">
<use xlink:href="#IT_300x600_psd_Asset_6_ManagedWiFi_IT_Awareness_DM7_1_Does_your_business__struggle_with__network_security__0_Layer0_0_MEMBER_31_FILL"/>
</g>

<g transform="matrix( 2.815704345703125, 0, 0, 2.832611083984375, -1.85,23.6) ">
<use xlink:href="#IT_300x600_psd_Asset_6_ManagedWiFi_IT_Awareness_DM7_1_Does_your_business__struggle_with__network_security__0_Layer0_0_MEMBER_32_FILL"/>
</g>

<g transform="matrix( 2.815704345703125, 0, 0, 2.832611083984375, -1.85,23.6) ">
<use xlink:href="#IT_300x600_psd_Asset_6_ManagedWiFi_IT_Awareness_DM7_1_Does_your_business__struggle_with__network_security__0_Layer0_0_MEMBER_33_FILL"/>
</g>

<g transform="matrix( 2.815704345703125, 0, 0, 2.832611083984375, -1.85,23.6) ">
<use xlink:href="#IT_300x600_psd_Asset_6_ManagedWiFi_IT_Awareness_DM7_1_Does_your_business__struggle_with__network_security__0_Layer0_0_MEMBER_34_FILL"/>
</g>

<g transform="matrix( 2.815704345703125, 0, 0, 2.832611083984375, -1.85,23.6) ">
<use xlink:href="#IT_300x600_psd_Asset_6_ManagedWiFi_IT_Awareness_DM7_1_Does_your_business__struggle_with__network_security__0_Layer0_0_MEMBER_35_FILL"/>
</g>

<g transform="matrix( 2.815704345703125, 0, 0, 2.832611083984375, -1.85,23.6) ">
<use xlink:href="#IT_300x600_psd_Asset_6_ManagedWiFi_IT_Awareness_DM7_1_Does_your_business__struggle_with__network_security__0_Layer0_0_MEMBER_36_FILL"/>
</g>

<g transform="matrix( 2.815704345703125, 0, 0, 2.832611083984375, -1.85,23.6) ">
<use xlink:href="#IT_300x600_psd_Asset_6_ManagedWiFi_IT_Awareness_DM7_1_Does_your_business__struggle_with__network_security__0_Layer0_0_MEMBER_37_FILL"/>
</g>

<g transform="matrix( 2.815704345703125, 0, 0, 2.832611083984375, -1.85,23.6) ">
<use xlink:href="#IT_300x600_psd_Asset_6_ManagedWiFi_IT_Awareness_DM7_1_Does_your_business__struggle_with__network_security__0_Layer0_0_MEMBER_38_FILL"/>
</g>

<g transform="matrix( 2.815704345703125, 0, 0, 2.832611083984375, -1.85,23.6) ">
<use xlink:href="#IT_300x600_psd_Asset_6_ManagedWiFi_IT_Awareness_DM7_1_Does_your_business__struggle_with__network_security__0_Layer0_0_MEMBER_39_FILL"/>
</g>

<g transform="matrix( 2.815704345703125, 0, 0, 2.832611083984375, -1.85,23.6) ">
<use xlink:href="#IT_300x600_psd_Asset_6_ManagedWiFi_IT_Awareness_DM7_1_Does_your_business__struggle_with__network_security__0_Layer0_0_MEMBER_40_FILL"/>
</g>

<g transform="matrix( 2.815704345703125, 0, 0, 2.832611083984375, -1.85,23.6) ">
<use xlink:href="#IT_300x600_psd_Asset_6_ManagedWiFi_IT_Awareness_DM7_1_Does_your_business__struggle_with__network_security__0_Layer0_0_MEMBER_41_FILL"/>
</g>

<g transform="matrix( 2.815704345703125, 0, 0, 2.832611083984375, -1.85,23.6) ">
<use xlink:href="#IT_300x600_psd_Asset_6_ManagedWiFi_IT_Awareness_DM7_1_Does_your_business__struggle_with__network_security__0_Layer0_0_MEMBER_42_FILL"/>
</g>

<g transform="matrix( 2.815704345703125, 0, 0, 2.832611083984375, -1.85,23.6) ">
<use xlink:href="#IT_300x600_psd_Asset_6_ManagedWiFi_IT_Awareness_DM7_1_Does_your_business__struggle_with__network_security__0_Layer0_0_MEMBER_43_FILL"/>
</g>
</g>
</g>
</g>
</svg>
