
<svg xmlns="http://www.w3.org/2000/svg" version="1.1" xmlns:xlink="http://www.w3.org/1999/xlink" preserveAspectRatio="none" x="0px" y="0px" width="728px" height="90px" viewBox="0 0 728 90">
<defs>
<g id="IT_728x90_FR_psd_Asset_V6_1_Lib_rez_votre__quipe_des_TI_pour_qu_elle__puisse_consacrer_plus_0_Layer0_0_MEMBER_0_FILL">
<path fill="#D82C26" stroke="none" d="
M 1.4 -6.35
L 0.85 -6.35 0.85 0 4.15 0 4.25 -0.5 1.4 -0.5 1.4 -6.35 Z"/>
</g>

<g id="IT_728x90_FR_psd_Asset_V6_1_Lib_rez_votre__quipe_des_TI_pour_qu_elle__puisse_consacrer_plus_0_Layer0_0_MEMBER_1_FILL">
<path fill="#D82C26" stroke="none" d="
M 5.75 -4.2
L 5.2 -4.2 5.2 0 5.75 0 5.75 -4.2
M 5.5 -5.5
L 5.75 -5.6 5.85 -5.9 5.75 -6.15
Q 5.65 -6.25 5.5 -6.25 5.3 -6.25 5.2 -6.15
L 5.1 -5.9 5.2 -5.6 5.5 -5.5 Z"/>
</g>

<g id="IT_728x90_FR_psd_Asset_V6_1_Lib_rez_votre__quipe_des_TI_pour_qu_elle__puisse_consacrer_plus_0_Layer0_0_MEMBER_2_FILL">
<path fill="#D82C26" stroke="none" d="
M 7.7 -6.9
L 7.2 -6.8 7.15 0 7.6 0 7.7 -0.9
Q 7.9 -0.45 8.4 -0.15 8.85 0.1 9.45 0.1 10.05 0.1 10.55 -0.2 11 -0.4 11.25 -0.95 11.55 -1.45 11.55 -2.1 11.55 -2.7 11.25 -3.25 11.05 -3.7 10.55 -4.05 10.05 -4.35 9.45 -4.35 8.9 -4.35 8.45 -4.05 7.95 -3.8 7.75 -3.3
L 7.7 -3.3 7.7 -6.9
M 8.5 -3.65
Q 8.9 -3.9 9.35 -3.9 9.85 -3.9 10.25 -3.65 10.65 -3.4 10.8 -3 11 -2.6 11 -2.1 11 -1.6 10.8 -1.2 10.7 -0.9 10.25 -0.55 9.85 -0.3 9.35 -0.3 8.9 -0.3 8.5 -0.55 8.1 -0.85 7.9 -1.2 7.7 -1.6 7.7 -2.1 7.7 -2.6 7.9 -3 8.15 -3.45 8.5 -3.65 Z"/>
</g>

<g id="IT_728x90_FR_psd_Asset_V6_1_Lib_rez_votre__quipe_des_TI_pour_qu_elle__puisse_consacrer_plus_0_Layer0_0_MEMBER_3_FILL">
<path fill="#D82C26" stroke="none" d="
M 14.5 -4.35
Q 13.9 -4.35 13.45 -4.05 13 -3.75 12.7 -3.25 12.4 -2.8 12.4 -2.15 12.4 -1.45 12.7 -0.95 13 -0.45 13.45 -0.15 14 0.15 14.6 0.15 15.55 0.15 16.25 -0.4
L 16.15 -0.85 15.5 -0.45
Q 15.05 -0.3 14.6 -0.3 14.15 -0.3 13.75 -0.55 13.4 -0.75 13.15 -1.15 12.95 -1.5 12.95 -2.05
L 16.5 -2.05 16.5 -2.25
Q 16.5 -2.9 16.25 -3.3 16 -3.75 15.6 -4.05 15.15 -4.35 14.5 -4.35
M 13.7 -3.7
Q 13.95 -3.9 14.5 -3.9 15.2 -3.9 15.6 -3.5 16 -3.1 16 -2.4
L 12.95 -2.4
Q 12.95 -2.75 13.15 -3.1 13.3 -3.45 13.7 -3.7
M 14.15 -5.05
L 14.55 -5.05 15.65 -6.35 15.05 -6.35 14.15 -5.05 Z"/>
</g>

<g id="IT_728x90_FR_psd_Asset_V6_1_Lib_rez_votre__quipe_des_TI_pour_qu_elle__puisse_consacrer_plus_0_Layer0_0_MEMBER_4_FILL">
<path fill="#D82C26" stroke="none" d="
M 18.15 -3.3
L 18.1 -4.2 17.6 -4.2 17.65 0 18.15 0 18.15 -2.1
Q 18.15 -2.85 18.5 -3.35 18.8 -3.85 19.35 -3.85
L 19.7 -3.8 19.85 -4.25 19.4 -4.35
Q 19.05 -4.35 18.65 -4.05 18.3 -3.65 18.15 -3.3 Z"/>
</g>

<g id="IT_728x90_FR_psd_Asset_V6_1_Lib_rez_votre__quipe_des_TI_pour_qu_elle__puisse_consacrer_plus_0_Layer0_0_MEMBER_5_FILL">
<path fill="#D82C26" stroke="none" d="
M 24 -3.3
Q 23.8 -3.7 23.3 -4.05 22.85 -4.35 22.2 -4.35 21.7 -4.35 21.15 -4.05 20.7 -3.75 20.4 -3.25 20.15 -2.75 20.15 -2.15 20.15 -1.55 20.4 -0.95 20.7 -0.45 21.2 -0.15 21.65 0.15 22.3 0.15 23.25 0.15 23.95 -0.4
L 23.9 -0.85 23.2 -0.45
Q 22.85 -0.3 22.35 -0.3 21.95 -0.3 21.45 -0.55 21.1 -0.75 20.85 -1.15 20.65 -1.65 20.65 -2.05
L 24.2 -2.05 24.2 -2.25
Q 24.2 -2.9 24 -3.3
M 21.4 -3.7
Q 21.75 -3.9 22.2 -3.9 22.95 -3.9 23.3 -3.5 23.7 -3.1 23.7 -2.4
L 20.65 -2.4
Q 20.65 -2.6 20.85 -3.1 21.1 -3.5 21.4 -3.7 Z"/>
</g>

<g id="IT_728x90_FR_psd_Asset_V6_1_Lib_rez_votre__quipe_des_TI_pour_qu_elle__puisse_consacrer_plus_0_Layer0_0_MEMBER_6_FILL">
<path fill="#D82C26" stroke="none" d="
M 27.5 -3.8
L 24.9 -0.4 24.9 0 28.2 0 28.3 -0.45 25.55 -0.45 28.1 -3.8 28.1 -4.2 25.05 -4.2 24.95 -3.8 27.5 -3.8 Z"/>
</g>

<g id="IT_728x90_FR_psd_Asset_V6_1_Lib_rez_votre__quipe_des_TI_pour_qu_elle__puisse_consacrer_plus_0_Layer0_0_MEMBER_7_FILL">
<path fill="#D82C26" stroke="none" d="
M 30.95 -4.2
L 30.35 -4.2 32 0 32.6 0 34.15 -4.2 33.6 -4.2 32.3 -0.55 30.95 -4.2 Z"/>
</g>

<g id="IT_728x90_FR_psd_Asset_V6_1_Lib_rez_votre__quipe_des_TI_pour_qu_elle__puisse_consacrer_plus_0_Layer0_0_MEMBER_8_FILL">
<path fill="#D82C26" stroke="none" d="
M 34.85 -3.25
Q 34.55 -2.8 34.55 -2.1 34.55 -1.45 34.85 -0.95 35.15 -0.45 35.65 -0.15 36.2 0.15 36.8 0.15 37.45 0.15 37.95 -0.15 38.45 -0.45 38.75 -0.95 39.05 -1.45 39.05 -2.1 39.05 -2.8 38.75 -3.25 38.45 -3.75 37.95 -4.05 37.45 -4.35 36.8 -4.35 36.2 -4.35 35.65 -4.05 35.15 -3.75 34.85 -3.25
M 35.1 -2.1
Q 35.1 -2.65 35.3 -3 35.5 -3.4 35.9 -3.65 36.3 -3.9 36.8 -3.9 37.3 -3.9 37.7 -3.65 38.1 -3.4 38.3 -3 38.5 -2.65 38.5 -2.1 38.5 -1.6 38.3 -1.2 38.1 -0.85 37.7 -0.55 37.3 -0.3 36.8 -0.3 36.3 -0.3 35.9 -0.55 35.5 -0.85 35.3 -1.2 35.1 -1.6 35.1 -2.1 Z"/>
</g>

<g id="IT_728x90_FR_psd_Asset_V6_1_Lib_rez_votre__quipe_des_TI_pour_qu_elle__puisse_consacrer_plus_0_Layer0_0_MEMBER_9_FILL">
<path fill="#D82C26" stroke="none" d="
M 40.2 -1
Q 40.2 -0.55 40.45 -0.2 40.75 0.1 41.2 0.1
L 41.65 0.05 42.1 -0.15 42 -0.55
Q 41.65 -0.35 41.35 -0.35 41.05 -0.35 40.9 -0.5 40.7 -0.7 40.7 -1.1
L 40.7 -3.8 41.8 -3.8 41.9 -4.2 40.7 -4.2 40.7 -5.4 40.2 -5.2 40.2 -4.2 39.5 -4.2 39.4 -3.8 40.2 -3.8 40.2 -1 Z"/>
</g>

<g id="IT_728x90_FR_psd_Asset_V6_1_Lib_rez_votre__quipe_des_TI_pour_qu_elle__puisse_consacrer_plus_0_Layer0_0_MEMBER_10_FILL">
<path fill="#D82C26" stroke="none" d="
M 43.4 -3.3
L 43.4 -4.2 42.85 -4.2 42.9 0 43.45 0 43.45 -2.1
Q 43.45 -2.8 43.75 -3.35 44.1 -3.85 44.65 -3.85
L 45 -3.8 45.1 -4.25 44.65 -4.35
Q 44.35 -4.35 43.95 -4.05 43.6 -3.8 43.45 -3.3
L 43.4 -3.3 Z"/>
</g>

<g id="IT_728x90_FR_psd_Asset_V6_1_Lib_rez_votre__quipe_des_TI_pour_qu_elle__puisse_consacrer_plus_0_Layer0_0_MEMBER_11_FILL">
<path fill="#D82C26" stroke="none" d="
M 49.3 -3.3
Q 48.95 -3.8 48.6 -4.05 48.15 -4.35 47.5 -4.35 46.9 -4.35 46.45 -4.05 46 -3.75 45.7 -3.25 45.45 -2.85 45.45 -2.15 45.45 -1.4 45.7 -0.95 46 -0.45 46.45 -0.15 47 0.15 47.6 0.15 48.55 0.15 49.25 -0.4
L 49.15 -0.85 48.5 -0.45
Q 48.05 -0.3 47.65 -0.3 47.15 -0.3 46.75 -0.55 46.4 -0.75 46.15 -1.15 45.95 -1.5 45.95 -2.05
L 49.5 -2.05 49.5 -2.25
Q 49.5 -2.9 49.3 -3.3
M 46.7 -3.7
Q 46.95 -3.9 47.5 -3.9 48.2 -3.9 48.6 -3.5 49 -3.1 49 -2.4
L 45.95 -2.4
Q 45.95 -2.6 46.15 -3.1 46.3 -3.45 46.7 -3.7 Z"/>
</g>

<g id="IT_728x90_FR_psd_Asset_V6_1_Lib_rez_votre__quipe_des_TI_pour_qu_elle__puisse_consacrer_plus_0_Layer0_0_MEMBER_12_FILL">
<path fill="#D82C26" stroke="none" d="
M 55.4 -4.05
Q 54.95 -4.35 54.3 -4.35 53.7 -4.35 53.25 -4.05 52.8 -3.75 52.5 -3.25 52.2 -2.8 52.2 -2.15 52.2 -1.45 52.5 -0.95 52.8 -0.45 53.25 -0.15 53.8 0.15 54.4 0.15 55.35 0.15 56.05 -0.4
L 55.95 -0.85 55.3 -0.45
Q 54.85 -0.3 54.4 -0.3 53.95 -0.3 53.55 -0.55 53.2 -0.75 52.95 -1.15 52.75 -1.5 52.75 -2.05
L 56.3 -2.05 56.3 -2.25
Q 56.3 -2.9 56.1 -3.3 55.75 -3.8 55.4 -4.05
M 54.3 -3.9
Q 55 -3.9 55.4 -3.5 55.8 -3.1 55.8 -2.4
L 52.75 -2.4
Q 52.75 -2.75 52.95 -3.1 53.1 -3.45 53.5 -3.7 53.75 -3.9 54.3 -3.9
M 55.45 -6.35
L 54.85 -6.35 53.95 -5.05 54.35 -5.05 55.45 -6.35 Z"/>
</g>

<g id="IT_728x90_FR_psd_Asset_V6_1_Lib_rez_votre__quipe_des_TI_pour_qu_elle__puisse_consacrer_plus_0_Layer0_0_MEMBER_13_FILL">
<path fill="#D82C26" stroke="none" d="
M 60.3 -4.05
Q 59.85 -4.35 59.3 -4.35 58.65 -4.35 58.2 -4.05 57.65 -3.75 57.45 -3.25 57.2 -2.8 57.2 -2.1 57.2 -1.4 57.45 -0.95 57.7 -0.4 58.2 -0.2 58.65 0.1 59.3 0.1 59.95 0.1 60.3 -0.15 60.8 -0.45 61 -0.9
L 61 1
Q 61 1.95 61.9 2.15
L 62.15 1.7
Q 61.8 1.6 61.7 1.45 61.55 1.25 61.55 0.9
L 61.55 -4.2 61.05 -4.2 61 -3.3
Q 60.8 -3.7 60.3 -4.05
M 59.35 -3.9
Q 59.8 -3.9 60.2 -3.65 60.5 -3.5 60.8 -3 61.05 -2.5 61.05 -2.1 61.05 -1.7 60.8 -1.2 60.55 -0.8 60.2 -0.55 59.8 -0.3 59.35 -0.3 58.9 -0.3 58.5 -0.55 58.15 -0.75 57.9 -1.2 57.7 -1.8 57.7 -2.1 57.7 -2.4 57.9 -3 58.15 -3.45 58.5 -3.65 58.9 -3.9 59.35 -3.9 Z"/>
</g>

<g id="IT_728x90_FR_psd_Asset_V6_1_Lib_rez_votre__quipe_des_TI_pour_qu_elle__puisse_consacrer_plus_0_Layer0_0_MEMBER_14_FILL">
<path fill="#D82C26" stroke="none" d="
M 62.9 -1.65
Q 62.9 -0.9 63.3 -0.4 63.65 0.1 64.45 0.1 64.95 0.1 65.35 -0.15 65.75 -0.4 66 -0.9
L 66.05 0 66.6 0 66.5 -0.5 66.5 -4.2 66 -4.2 66 -2.1
Q 66 -1.65 65.8 -1.15 65.55 -0.7 65.3 -0.55 64.95 -0.3 64.6 -0.3 63.95 -0.3 63.7 -0.75 63.45 -1.05 63.45 -1.8
L 63.45 -4.2 62.9 -4.2 62.9 -1.65 Z"/>
</g>

<g id="IT_728x90_FR_psd_Asset_V6_1_Lib_rez_votre__quipe_des_TI_pour_qu_elle__puisse_consacrer_plus_0_Layer0_0_MEMBER_15_FILL">
<path fill="#D82C26" stroke="none" d="
M 68.5 -4.2
L 67.95 -4.2 67.95 0 68.5 0 68.5 -4.2
M 68.2 -5.5
L 68.5 -5.6 68.6 -5.9 68.5 -6.15
Q 68.4 -6.25 68.2 -6.25 68 -6.25 67.95 -6.15 67.85 -6.1 67.85 -5.9 67.85 -5.7 67.95 -5.6
L 68.2 -5.5 Z"/>
</g>

<g id="IT_728x90_FR_psd_Asset_V6_1_Lib_rez_votre__quipe_des_TI_pour_qu_elle__puisse_consacrer_plus_0_Layer0_0_MEMBER_16_FILL">
<path fill="#D82C26" stroke="none" d="
M 70.4 -4.2
L 69.9 -4.2 69.9 2.15 70.45 2.15 70.45 -0.9
Q 70.65 -0.45 71.15 -0.15 71.55 0.1 72.15 0.1 72.8 0.1 73.25 -0.2 73.75 -0.4 74 -0.95 74.25 -1.4 74.25 -2.1 74.25 -2.8 74 -3.25 73.8 -3.75 73.25 -4.05 72.8 -4.35 72.15 -4.35 71.6 -4.35 71.15 -4.05 70.65 -3.7 70.45 -3.3
L 70.4 -4.2
M 70.4 -2.1
Q 70.4 -2.5 70.65 -3 70.9 -3.45 71.25 -3.65 71.65 -3.9 72.1 -3.9 72.55 -3.9 72.95 -3.65 73.3 -3.45 73.55 -3 73.75 -2.4 73.75 -2.1 73.75 -1.8 73.55 -1.2 73.3 -0.75 72.95 -0.55 72.55 -0.3 72.1 -0.3 71.65 -0.3 71.25 -0.55 70.85 -0.85 70.65 -1.2 70.4 -1.7 70.4 -2.1 Z"/>
</g>

<g id="IT_728x90_FR_psd_Asset_V6_1_Lib_rez_votre__quipe_des_TI_pour_qu_elle__puisse_consacrer_plus_0_Layer0_0_MEMBER_17_FILL">
<path fill="#D82C26" stroke="none" d="
M 75.15 -2.15
Q 75.15 -1.45 75.45 -0.95 75.65 -0.55 76.2 -0.15 76.75 0.15 77.3 0.15 78.2 0.15 79 -0.4
L 78.9 -0.85
Q 78.5 -0.55 78.2 -0.45 77.85 -0.3 77.35 -0.3 76.9 -0.3 76.5 -0.55 76.15 -0.75 75.9 -1.15 75.65 -1.55 75.65 -2.05
L 79.25 -2.05 79.25 -2.25
Q 79.25 -2.8 79 -3.3 78.8 -3.7 78.3 -4.05 77.85 -4.35 77.25 -4.35 76.65 -4.35 76.2 -4.05 75.65 -3.75 75.45 -3.25 75.15 -2.8 75.15 -2.15
M 75.7 -2.4
Q 75.7 -2.75 75.9 -3.1 76.05 -3.4 76.4 -3.7 76.75 -3.9 77.25 -3.9 77.95 -3.9 78.3 -3.5 78.75 -3.1 78.75 -2.4
L 75.7 -2.4 Z"/>
</g>

<g id="IT_728x90_FR_psd_Asset_V6_1_Lib_rez_votre__quipe_des_TI_pour_qu_elle__puisse_consacrer_plus_0_Layer0_0_MEMBER_18_FILL">
<path fill="#D82C26" stroke="none" d="
M 85.05 -4.05
Q 84.6 -4.35 84.05 -4.35 83.5 -4.35 82.95 -4.05 82.55 -3.8 82.2 -3.25 81.95 -2.65 81.95 -2.1 81.95 -1.55 82.2 -0.95 82.6 -0.4 82.95 -0.2 83.5 0.1 84.05 0.1 84.7 0.1 85.05 -0.15 85.5 -0.45 85.8 -0.9
L 85.85 0 86.35 0 86.3 -6.9 85.8 -6.8 85.8 -3.3 85.75 -3.3
Q 85.55 -3.8 85.05 -4.05
M 84.15 -3.9
Q 84.6 -3.9 85 -3.65 85.35 -3.45 85.6 -3 85.8 -2.6 85.8 -2.1 85.8 -1.6 85.6 -1.2 85.4 -0.85 85 -0.55 84.6 -0.3 84.15 -0.3 83.65 -0.3 83.25 -0.55 82.85 -0.8 82.7 -1.2 82.5 -1.6 82.5 -2.1 82.5 -2.6 82.7 -3 82.85 -3.4 83.25 -3.65 83.65 -3.9 84.15 -3.9 Z"/>
</g>

<g id="IT_728x90_FR_psd_Asset_V6_1_Lib_rez_votre__quipe_des_TI_pour_qu_elle__puisse_consacrer_plus_0_Layer0_0_MEMBER_19_FILL">
<path fill="#D82C26" stroke="none" d="
M 90.6 -4.05
Q 90.15 -4.35 89.55 -4.35 88.95 -4.35 88.5 -4.05 87.95 -3.75 87.75 -3.25 87.45 -2.8 87.45 -2.15 87.45 -1.45 87.75 -0.95 87.95 -0.55 88.5 -0.15 89.05 0.15 89.6 0.15 90.5 0.15 91.3 -0.4
L 91.2 -0.85
Q 90.8 -0.55 90.5 -0.45 90.15 -0.3 89.65 -0.3 89.2 -0.3 88.8 -0.55 88.45 -0.75 88.2 -1.15 87.95 -1.55 87.95 -2.05
L 91.55 -2.05 91.55 -2.25
Q 91.55 -2.8 91.3 -3.3 91.1 -3.7 90.6 -4.05
M 89.55 -3.9
Q 90.25 -3.9 90.6 -3.5 91.05 -3.1 91.05 -2.4
L 88 -2.4
Q 88 -2.75 88.2 -3.1 88.35 -3.4 88.7 -3.7 89.05 -3.9 89.55 -3.9 Z"/>
</g>

<g id="IT_728x90_FR_psd_Asset_V6_1_Lib_rez_votre__quipe_des_TI_pour_qu_elle__puisse_consacrer_plus_0_Layer0_0_MEMBER_20_FILL">
<path fill="#D82C26" stroke="none" d="
M 94.55 -4.2
L 93.8 -4.35
Q 93.45 -4.35 93.15 -4.2 92.75 -4 92.6 -3.8 92.4 -3.5 92.4 -3.2 92.4 -2.65 92.7 -2.45
L 93.6 -2
Q 94.35 -1.7 94.5 -1.6 94.75 -1.4 94.75 -1.1 94.75 -0.7 94.5 -0.5 94.25 -0.3 93.85 -0.3 92.95 -0.3 92.45 -0.8
L 92.35 -0.35
Q 92.55 -0.15 93 0
L 93.85 0.1 94.55 0
Q 94.9 -0.2 95.05 -0.45 95.25 -0.7 95.25 -1.1 95.25 -1.55 94.95 -1.85 94.7 -2.1 94 -2.35
L 93.15 -2.7
Q 92.9 -2.95 92.9 -3.2 92.9 -3.5 93.15 -3.75 93.45 -3.9 93.85 -3.9 94.25 -3.9 94.4 -3.8
L 94.9 -3.5 95.15 -3.9 94.55 -4.2 Z"/>
</g>

<g id="IT_728x90_FR_psd_Asset_V6_1_Lib_rez_votre__quipe_des_TI_pour_qu_elle__puisse_consacrer_plus_0_Layer0_0_MEMBER_21_FILL">
<path fill="#D82C26" stroke="none" d="
M 97.45 -5.85
L 99.5 -5.85 99.5 0 100.05 0 100.05 -5.85 101.95 -5.85 102.05 -6.35 97.55 -6.35 97.45 -5.85 Z"/>
</g>

<g id="IT_728x90_FR_psd_Asset_V6_1_Lib_rez_votre__quipe_des_TI_pour_qu_elle__puisse_consacrer_plus_0_Layer0_0_MEMBER_22_FILL">
<path fill="#D82C26" stroke="none" d="
M 103.5 -6.35
L 102.95 -6.35 102.95 0 103.5 0 103.5 -6.35 Z"/>
</g>

<g id="IT_728x90_FR_psd_Asset_V6_1_Lib_rez_votre__quipe_des_TI_pour_qu_elle__puisse_consacrer_plus_0_Layer0_0_MEMBER_23_FILL">
<path fill="#D82C26" stroke="none" d="
M 110.25 -4.05
Q 109.8 -4.35 109.15 -4.35 108.6 -4.35 108.15 -4.05 107.65 -3.7 107.45 -3.3
L 107.4 -3.3 107.4 -4.2 106.9 -4.2 106.9 2.15 107.45 2.15 107.45 -0.9
Q 107.65 -0.45 108.15 -0.15 108.55 0.1 109.15 0.1 109.8 0.1 110.25 -0.2 110.75 -0.4 111 -0.95 111.25 -1.4 111.25 -2.1 111.25 -2.8 111 -3.25 110.8 -3.75 110.25 -4.05
M 109.1 -3.9
Q 109.55 -3.9 109.95 -3.65 110.3 -3.45 110.55 -3 110.75 -2.4 110.75 -2.1 110.75 -1.8 110.55 -1.2 110.3 -0.75 109.95 -0.55 109.55 -0.3 109.1 -0.3 108.65 -0.3 108.25 -0.55 107.8 -0.85 107.65 -1.2 107.4 -1.7 107.4 -2.1 107.4 -2.5 107.65 -3 107.85 -3.45 108.25 -3.65 108.65 -3.9 109.1 -3.9 Z"/>
</g>

<g id="IT_728x90_FR_psd_Asset_V6_1_Lib_rez_votre__quipe_des_TI_pour_qu_elle__puisse_consacrer_plus_0_Layer0_0_MEMBER_24_FILL">
<path fill="#D82C26" stroke="none" d="
M 115.5 -4.05
Q 115.05 -4.35 114.35 -4.35 113.7 -4.35 113.25 -4.05 112.65 -3.7 112.45 -3.25 112.15 -2.8 112.15 -2.1 112.15 -1.45 112.45 -0.95 112.65 -0.5 113.25 -0.15 113.7 0.15 114.35 0.15 115.05 0.15 115.5 -0.15 116.1 -0.5 116.3 -0.95 116.6 -1.45 116.6 -2.1 116.6 -2.8 116.3 -3.25 116.1 -3.7 115.5 -4.05
M 114.35 -3.9
Q 114.85 -3.9 115.25 -3.65 115.7 -3.4 115.85 -3 116.1 -2.6 116.1 -2.1 116.1 -1.8 115.9 -1.2 115.7 -0.85 115.3 -0.55 114.8 -0.3 114.35 -0.3 113.95 -0.3 113.45 -0.55 113.05 -0.85 112.85 -1.2 112.65 -1.8 112.65 -2.1 112.65 -2.5 112.85 -3 113.05 -3.4 113.45 -3.65 113.95 -3.9 114.35 -3.9 Z"/>
</g>

<g id="IT_728x90_FR_psd_Asset_V6_1_Lib_rez_votre__quipe_des_TI_pour_qu_elle__puisse_consacrer_plus_0_Layer0_0_MEMBER_25_FILL">
<path fill="#D82C26" stroke="none" d="
M 121.3 -4.2
L 120.8 -4.2 120.8 -2.1
Q 120.8 -1.65 120.6 -1.15 120.35 -0.7 120.1 -0.55 119.75 -0.3 119.4 -0.3 118.75 -0.3 118.5 -0.75 118.25 -1.05 118.25 -1.8
L 118.25 -4.2 117.7 -4.2 117.7 -1.65
Q 117.7 -0.9 118.1 -0.4 118.45 0.1 119.25 0.1 119.75 0.1 120.15 -0.15 120.55 -0.4 120.8 -0.9
L 120.85 0 121.4 0 121.3 -0.5 121.3 -4.2 Z"/>
</g>

<g id="IT_728x90_FR_psd_Asset_V6_1_Lib_rez_votre__quipe_des_TI_pour_qu_elle__puisse_consacrer_plus_0_Layer0_0_MEMBER_26_FILL">
<path fill="#D82C26" stroke="none" d="
M 124.95 -4.25
L 124.5 -4.35
Q 124.1 -4.35 123.8 -4.05 123.5 -3.8 123.25 -3.3
L 123.2 -4.2 122.7 -4.2 122.75 0 123.3 0 123.3 -2.1
Q 123.3 -2.8 123.6 -3.35 123.9 -3.85 124.45 -3.85
L 124.85 -3.8 124.95 -4.25 Z"/>
</g>

<g id="IT_728x90_FR_psd_Asset_V6_1_Lib_rez_votre__quipe_des_TI_pour_qu_elle__puisse_consacrer_plus_0_Layer0_0_MEMBER_27_FILL">
<path fill="#D82C26" stroke="none" d="
M 130.3 -4.05
Q 129.85 -4.35 129.3 -4.35 128.65 -4.35 128.2 -4.05 127.75 -3.75 127.45 -3.25 127.2 -2.65 127.2 -2.1 127.2 -1.55 127.45 -0.95 127.85 -0.4 128.2 -0.2 128.65 0.1 129.3 0.1 129.95 0.1 130.3 -0.15 130.8 -0.45 131 -0.9
L 131 1
Q 131 1.95 131.9 2.15
L 132.15 1.7
Q 131.9 1.65 131.7 1.45 131.55 1.25 131.55 0.9
L 131.55 -4.2 131.05 -4.2 131.05 -3.3 131 -3.3
Q 130.8 -3.7 130.3 -4.05
M 129.35 -3.9
Q 129.75 -3.9 130.25 -3.65 130.6 -3.45 130.85 -3 131.05 -2.4 131.05 -2.1 131.05 -1.8 130.85 -1.2 130.65 -0.85 130.25 -0.55 129.75 -0.3 129.35 -0.3 128.9 -0.3 128.5 -0.55 128.15 -0.75 127.9 -1.2 127.7 -1.8 127.7 -2.1 127.7 -2.4 127.9 -3 128.15 -3.45 128.5 -3.65 128.9 -3.9 129.35 -3.9 Z"/>
</g>

<g id="IT_728x90_FR_psd_Asset_V6_1_Lib_rez_votre__quipe_des_TI_pour_qu_elle__puisse_consacrer_plus_0_Layer0_0_MEMBER_28_FILL">
<path fill="#D82C26" stroke="none" d="
M 136.5 -4.2
L 136 -4.2 136 -2.1
Q 136 -1.5 135.8 -1.15 135.65 -0.75 135.3 -0.55 134.95 -0.3 134.6 -0.3 133.95 -0.3 133.7 -0.75 133.45 -1.15 133.45 -1.8
L 133.45 -4.2 132.9 -4.2 132.9 -1.65
Q 132.9 -0.9 133.3 -0.4 133.65 0.1 134.45 0.1 134.9 0.1 135.4 -0.15 135.8 -0.45 136 -0.9
L 136.05 0 136.6 0 136.5 -1 136.5 -4.2 Z"/>
</g>

<g id="IT_728x90_FR_psd_Asset_V6_1_Lib_rez_votre__quipe_des_TI_pour_qu_elle__puisse_consacrer_plus_0_Layer0_0_MEMBER_29_FILL">
<path fill="#D82C26" stroke="none" d="
M 138.5 -6.2
Q 138.35 -6.35 138.2 -6.35
L 137.95 -6.25 137.8 -5.95 137.95 -5.65 138.2 -5.55 138 -4.95 137.6 -4.45 137.8 -4.35
Q 138.6 -5.1 138.6 -5.85
L 138.5 -6.2 Z"/>
</g>

<g id="IT_728x90_FR_psd_Asset_V6_1_Lib_rez_votre__quipe_des_TI_pour_qu_elle__puisse_consacrer_plus_0_Layer0_0_MEMBER_30_FILL">
<path fill="#D82C26" stroke="none" d="
M 141.2 -4.35
Q 140.6 -4.35 140.15 -4.05 139.7 -3.75 139.4 -3.25 139.15 -2.85 139.15 -2.15 139.15 -1.4 139.4 -0.95 139.7 -0.45 140.2 -0.15 140.65 0.15 141.3 0.15 142.25 0.15 142.95 -0.4
L 142.85 -0.85 142.2 -0.45
Q 141.75 -0.3 141.35 -0.3 140.85 -0.3 140.45 -0.55 140.1 -0.75 139.85 -1.15 139.65 -1.5 139.65 -2.05
L 143.2 -2.05 143.2 -2.25
Q 143.2 -2.9 143 -3.3 142.8 -3.7 142.3 -4.05 141.85 -4.35 141.2 -4.35
M 140.4 -3.7
Q 140.65 -3.9 141.2 -3.9 141.9 -3.9 142.3 -3.5 142.7 -3.1 142.7 -2.4
L 139.65 -2.4
Q 139.65 -2.6 139.85 -3.1 140.1 -3.5 140.4 -3.7 Z"/>
</g>

<g id="IT_728x90_FR_psd_Asset_V6_1_Lib_rez_votre__quipe_des_TI_pour_qu_elle__puisse_consacrer_plus_0_Layer0_0_MEMBER_31_FILL">
<path fill="#D82C26" stroke="none" d="
M 144.35 -0.95
Q 144.35 -0.5 144.55 -0.25 144.75 0.05 145.05 0.1
L 145.25 -0.35
Q 145.05 -0.4 144.95 -0.6
L 144.85 -1.05 144.85 -6.85 144.35 -6.75 144.35 -0.95 Z"/>
</g>

<g id="IT_728x90_FR_psd_Asset_V6_1_Lib_rez_votre__quipe_des_TI_pour_qu_elle__puisse_consacrer_plus_0_Layer0_0_MEMBER_32_FILL">
<path fill="#D82C26" stroke="none" d="
M 146.3 -0.95
Q 146.3 -0.65 146.5 -0.25 146.8 0.05 147 0.1
L 147.25 -0.35
Q 147.05 -0.4 146.95 -0.6
L 146.85 -1.05 146.85 -6.85 146.3 -6.75 146.3 -0.95 Z"/>
</g>

<g id="IT_728x90_FR_psd_Asset_V6_1_Lib_rez_votre__quipe_des_TI_pour_qu_elle__puisse_consacrer_plus_0_Layer0_0_MEMBER_33_FILL">
<path fill="#D82C26" stroke="none" d="
M 151.15 -4.05
Q 150.7 -4.35 150.1 -4.35 149.5 -4.35 149.05 -4.05 148.5 -3.75 148.3 -3.25 148 -2.8 148 -2.15 148 -1.45 148.3 -0.95 148.5 -0.55 149.05 -0.15 149.6 0.15 150.15 0.15 151.15 0.15 151.85 -0.4
L 151.75 -0.85
Q 151.35 -0.55 151.05 -0.45 150.7 -0.3 150.2 -0.3 149.75 -0.3 149.35 -0.55 149 -0.75 148.75 -1.15 148.6 -1.4 148.5 -2.05
L 152.1 -2.05 152.1 -2.25
Q 152.1 -2.8 151.85 -3.3 151.6 -3.8 151.15 -4.05
M 150.1 -3.9
Q 150.8 -3.9 151.15 -3.5 151.6 -3.1 151.6 -2.4
L 148.55 -2.4
Q 148.55 -2.75 148.75 -3.1 148.9 -3.4 149.25 -3.7 149.6 -3.9 150.1 -3.9 Z"/>
</g>

<g id="IT_728x90_FR_psd_Asset_V6_1_Lib_rez_votre__quipe_des_TI_pour_qu_elle__puisse_consacrer_plus_0_Layer0_0_MEMBER_34_FILL">
<path fill="#D82C26" stroke="none" d="
M 1.3 5.9
L 0.8 5.9 0.85 12.25 1.35 12.25 1.35 9.2 1.4 9.2
Q 1.65 9.7 2.1 9.95 2.5 10.2 3.1 10.2 3.6 10.2 4.2 9.95 4.6 9.7 4.95 9.15 5.2 8.55 5.2 8 5.2 7.45 4.95 6.85 4.6 6.3 4.2 6.05 3.7 5.75 3.1 5.75 2.6 5.75 2.05 6.05 1.7 6.3 1.35 6.8
L 1.3 5.9
M 4.65 8
Q 4.65 8.5 4.45 8.9 4.2 9.35 3.9 9.55 3.5 9.8 3 9.8 2.55 9.8 2.15 9.55 1.8 9.35 1.55 8.9 1.35 8.5 1.35 8 1.35 7.5 1.55 7.1 1.8 6.65 2.15 6.45 2.55 6.2 3 6.2 3.5 6.2 3.9 6.45 4.2 6.65 4.45 7.1 4.65 7.5 4.65 8 Z"/>
</g>

<g id="IT_728x90_FR_psd_Asset_V6_1_Lib_rez_votre__quipe_des_TI_pour_qu_elle__puisse_consacrer_plus_0_Layer0_0_MEMBER_35_FILL">
<path fill="#D82C26" stroke="none" d="
M 6.8 5.9
L 6.3 5.9 6.3 8.45
Q 6.3 9.3 6.65 9.7 7 10.2 7.8 10.2 8.4 10.2 8.75 9.95 9.2 9.65 9.35 9.2
L 9.45 10.1 9.95 10.1 9.9 9.6 9.9 5.9 9.35 5.9 9.35 8
Q 9.35 8.6 9.15 8.95 9 9.4 8.65 9.6 8.25 9.8 7.95 9.8 7.35 9.8 7.05 9.35 6.8 8.95 6.8 8.35
L 6.8 5.9 Z"/>
</g>

<g id="IT_728x90_FR_psd_Asset_V6_1_Lib_rez_votre__quipe_des_TI_pour_qu_elle__puisse_consacrer_plus_0_Layer0_0_MEMBER_36_FILL">
<path fill="#D82C26" stroke="none" d="
M 11.85 5.9
L 11.35 5.9 11.35 10.1 11.85 10.1 11.85 5.9
M 11.6 4.6
L 11.85 4.5
Q 11.95 4.4 11.95 4.2 11.95 4 11.85 3.95 11.8 3.85 11.6 3.85 11.4 3.85 11.3 3.95
L 11.2 4.2 11.3 4.5 11.6 4.6 Z"/>
</g>

<g id="IT_728x90_FR_psd_Asset_V6_1_Lib_rez_votre__quipe_des_TI_pour_qu_elle__puisse_consacrer_plus_0_Layer0_0_MEMBER_37_FILL">
<path fill="#D82C26" stroke="none" d="
M 14.4 5.75
Q 14.05 5.75 13.75 5.9 13.35 6.1 13.2 6.3 13 6.6 13 6.9 13 7.45 13.3 7.65 13.6 7.95 14.2 8.1 14.95 8.4 15.1 8.5 15.35 8.7 15.35 9 15.35 9.4 15.1 9.6 14.85 9.8 14.45 9.8 13.55 9.8 13.05 9.3
L 12.95 9.75
Q 13.15 9.95 13.6 10.1 13.85 10.2 14.45 10.2
L 15.15 10.1
Q 15.5 9.9 15.65 9.65 15.9 9.4 15.9 9 15.9 8.6 15.55 8.25 15.3 8 14.6 7.75 14.1 7.6 13.75 7.4 13.5 7.15 13.5 6.9 13.5 6.6 13.75 6.35 14.05 6.2 14.45 6.2
L 15.05 6.3 15.55 6.6 15.75 6.2 15.15 5.9
Q 14.85 5.75 14.4 5.75 Z"/>
</g>

<g id="IT_728x90_FR_psd_Asset_V6_1_Lib_rez_votre__quipe_des_TI_pour_qu_elle__puisse_consacrer_plus_0_Layer0_0_MEMBER_38_FILL">
<path fill="#D82C26" stroke="none" d="
M 18.15 5.75
Q 17.8 5.75 17.5 5.9 17.15 6.05 16.95 6.3 16.75 6.5 16.75 6.9 16.75 7.45 17.05 7.65 17.35 7.95 17.95 8.1 18.7 8.4 18.85 8.5 19.1 8.75 19.1 9 19.1 9.35 18.85 9.6 18.6 9.8 18.15 9.8 17.3 9.8 16.75 9.3
L 16.65 9.75 17.3 10.1
Q 17.6 10.2 18.2 10.2
L 18.9 10.1
Q 19.15 9.95 19.4 9.65 19.6 9.45 19.6 9 19.6 8.55 19.3 8.25 19.05 8 18.3 7.75 17.85 7.65 17.5 7.4 17.25 7.15 17.25 6.9 17.25 6.6 17.5 6.35 17.8 6.2 18.15 6.2
L 18.75 6.3 19.25 6.6 19.5 6.2 18.9 5.9 18.15 5.75 Z"/>
</g>

<g id="IT_728x90_FR_psd_Asset_V6_1_Lib_rez_votre__quipe_des_TI_pour_qu_elle__puisse_consacrer_plus_0_Layer0_0_MEMBER_39_FILL">
<path fill="#D82C26" stroke="none" d="
M 22.5 5.75
Q 21.9 5.75 21.45 6.05 20.9 6.35 20.7 6.85 20.4 7.3 20.4 7.95 20.4 8.65 20.7 9.15 21 9.65 21.45 9.95 22 10.25 22.55 10.25 23.55 10.25 24.25 9.7
L 24.15 9.25 23.5 9.65
Q 23.05 9.8 22.6 9.8 22.15 9.8 21.75 9.55 21.4 9.35 21.15 8.95 21 8.7 20.9 8.05
L 24.5 8.05 24.5 7.85
Q 24.5 7.3 24.25 6.8 24 6.35 23.6 6.05 23.15 5.75 22.5 5.75
M 23.55 6.6
Q 24 7 24 7.7
L 20.95 7.7
Q 20.95 7.35 21.15 7 21.2 6.85 21.65 6.4 22 6.2 22.5 6.2 23.2 6.2 23.55 6.6 Z"/>
</g>

<g id="IT_728x90_FR_psd_Asset_V6_1_Lib_rez_votre__quipe_des_TI_pour_qu_elle__puisse_consacrer_plus_0_Layer0_0_MEMBER_40_FILL">
<path fill="#D82C26" stroke="none" d="
M 30.65 6.65
L 30.85 6.25
Q 30.65 6.05 30.2 5.9 29.85 5.75 29.4 5.75 28.75 5.75 28.3 6.05 27.8 6.35 27.5 6.85 27.2 7.4 27.2 8 27.2 8.65 27.5 9.15 27.8 9.65 28.3 9.95 28.75 10.25 29.4 10.25 29.85 10.25 30.2 10.1
L 30.85 9.7 30.75 9.3
Q 30.55 9.5 30.15 9.65 29.95 9.75 29.45 9.75 28.9 9.75 28.55 9.55 28.15 9.25 27.95 8.9 27.75 8.3 27.75 8 27.75 7.7 27.95 7.1 28.2 6.65 28.55 6.45 28.95 6.2 29.45 6.2
L 30.1 6.35
Q 30.25 6.4 30.65 6.65 Z"/>
</g>

<g id="IT_728x90_FR_psd_Asset_V6_1_Lib_rez_votre__quipe_des_TI_pour_qu_elle__puisse_consacrer_plus_0_Layer0_0_MEMBER_41_FILL">
<path fill="#D82C26" stroke="none" d="
M 34.8 6.05
Q 34.3 5.75 33.65 5.75 33.05 5.75 32.5 6.05 32 6.35 31.7 6.85 31.4 7.4 31.4 8 31.4 8.65 31.7 9.15 32 9.65 32.5 9.95 33.05 10.25 33.65 10.25 34.3 10.25 34.8 9.95 35.3 9.65 35.6 9.15 35.9 8.65 35.9 8 35.9 7.4 35.6 6.85 35.3 6.35 34.8 6.05
M 35.35 8
Q 35.35 8.5 35.15 8.9 35 9.35 34.55 9.55 34.15 9.8 33.65 9.8 33.15 9.8 32.75 9.55 32.4 9.35 32.15 8.9 31.95 8.5 31.95 8 31.95 7.45 32.15 7.1 32.4 6.65 32.75 6.45 33.15 6.2 33.65 6.2 34.15 6.2 34.55 6.45 34.9 6.65 35.15 7.1 35.35 7.45 35.35 8 Z"/>
</g>

<g id="IT_728x90_FR_psd_Asset_V6_1_Lib_rez_votre__quipe_des_TI_pour_qu_elle__puisse_consacrer_plus_0_Layer0_0_MEMBER_42_FILL">
<path fill="#D82C26" stroke="none" d="
M 40.65 10.1
L 40.65 7.55
Q 40.65 6.8 40.25 6.3 39.85 5.75 39.1 5.75 38.6 5.75 38.15 6.05 37.8 6.35 37.55 6.8
L 37.5 5.9 37 5.9 37.05 10.1 37.6 10.1 37.6 7.95
Q 37.6 7.45 37.75 7 38 6.6 38.25 6.4 38.75 6.2 39 6.2 39.65 6.2 39.85 6.65 40.1 6.95 40.1 7.65
L 40.1 10.1 40.65 10.1 Z"/>
</g>

<g id="IT_728x90_FR_psd_Asset_V6_1_Lib_rez_votre__quipe_des_TI_pour_qu_elle__puisse_consacrer_plus_0_Layer0_0_MEMBER_43_FILL">
<path fill="#D82C26" stroke="none" d="
M 43.15 5.75
Q 42.8 5.75 42.5 5.9 42.1 6.1 42 6.3 41.8 6.5 41.8 6.9 41.8 7.45 42.1 7.65 42.3 7.95 42.95 8.1 43.7 8.35 43.85 8.5 44.15 8.75 44.15 9 44.15 9.4 43.85 9.6 43.6 9.8 43.2 9.8 42.35 9.8 41.8 9.3
L 41.7 9.75
Q 41.85 9.9 42.35 10.1 42.6 10.2 43.2 10.2
L 43.9 10.1
Q 44.25 9.95 44.45 9.65 44.65 9.35 44.65 9 44.65 8.55 44.3 8.25 44.05 8 43.35 7.75 42.85 7.6 42.5 7.4 42.25 7.15 42.25 6.9 42.25 6.6 42.55 6.35 42.8 6.2 43.2 6.2
L 43.8 6.3 44.3 6.6 44.5 6.2 43.9 5.9
Q 43.6 5.75 43.15 5.75 Z"/>
</g>

<g id="IT_728x90_FR_psd_Asset_V6_1_Lib_rez_votre__quipe_des_TI_pour_qu_elle__puisse_consacrer_plus_0_Layer0_0_MEMBER_44_FILL">
<path fill="#D82C26" stroke="none" d="
M 47.3 5.75
Q 46.85 5.75 46.45 5.9 46.05 6.05 45.7 6.3
L 45.85 6.7 46.5 6.35 47.2 6.2
Q 47.8 6.2 48.1 6.5 48.4 6.75 48.4 7.35
L 48.4 7.6 47.9 7.6
Q 45.5 7.6 45.5 8.95 45.5 9.65 45.9 9.9 46.3 10.2 46.85 10.2 47.4 10.2 47.75 10 48.2 9.7 48.4 9.3
L 48.5 10.1 48.95 10.1 48.9 7.35
Q 48.9 6.6 48.45 6.15 48.05 5.75 47.3 5.75
M 48.4 8.35
Q 48.4 8.7 48.25 9.05 48.1 9.35 47.75 9.6 47.4 9.8 46.95 9.8 46.5 9.8 46.25 9.6 46 9.35 46 8.95 46 7.95 47.95 7.95
L 48.4 7.95 48.4 8.35 Z"/>
</g>

<g id="IT_728x90_FR_psd_Asset_V6_1_Lib_rez_votre__quipe_des_TI_pour_qu_elle__puisse_consacrer_plus_0_Layer0_0_MEMBER_45_FILL">
<path fill="#D82C26" stroke="none" d="
M 52.2 5.75
Q 51.6 5.75 51.05 6.05 50.5 6.45 50.3 6.85 50 7.4 50 8 50 8.65 50.3 9.15 50.5 9.55 51.05 9.95 51.6 10.25 52.2 10.25 52.65 10.25 53 10.1
L 53.65 9.7 53.55 9.3 52.95 9.65
Q 52.75 9.75 52.25 9.75 51.7 9.75 51.35 9.55 50.95 9.25 50.75 8.9 50.55 8.5 50.55 8 50.55 7.5 50.75 7.1 51 6.65 51.35 6.45 51.75 6.2 52.2 6.2 52.55 6.2 52.85 6.35 53 6.4 53.4 6.65
L 53.65 6.25
Q 53.5 6.1 53 5.9 52.65 5.75 52.2 5.75 Z"/>
</g>

<g id="IT_728x90_FR_psd_Asset_V6_1_Lib_rez_votre__quipe_des_TI_pour_qu_elle__puisse_consacrer_plus_0_Layer0_0_MEMBER_46_FILL">
<path fill="#D82C26" stroke="none" d="
M 56.75 5.85
L 56.3 5.75
Q 55.9 5.75 55.6 6.05 55.25 6.3 55.1 6.8
L 55.05 6.8 55 5.9 54.5 5.9 54.55 10.1 55.1 10.1 55.1 8
Q 55.1 7.3 55.4 6.75 55.7 6.25 56.3 6.25
L 56.65 6.3 56.75 5.85 Z"/>
</g>

<g id="IT_728x90_FR_psd_Asset_V6_1_Lib_rez_votre__quipe_des_TI_pour_qu_elle__puisse_consacrer_plus_0_Layer0_0_MEMBER_47_FILL">
<path fill="#D82C26" stroke="none" d="
M 61.15 7.85
Q 61.15 7.2 60.9 6.8 60.65 6.35 60.25 6.05 59.8 5.75 59.15 5.75 58.55 5.75 58.1 6.05 57.65 6.35 57.35 6.85 57.05 7.3 57.05 7.95 57.05 8.65 57.35 9.15 57.65 9.65 58.1 9.95 58.65 10.25 59.25 10.25 60.2 10.25 60.9 9.7
L 60.8 9.25 60.15 9.65
Q 59.7 9.8 59.25 9.8 58.8 9.8 58.4 9.55 58.05 9.35 57.8 8.95 57.6 8.6 57.6 8.05
L 61.15 8.05 61.15 7.85
M 60.25 6.6
Q 60.65 7 60.65 7.7
L 57.6 7.7
Q 57.6 7.35 57.8 7 57.9 6.75 58.35 6.4 58.6 6.2 59.15 6.2 59.85 6.2 60.25 6.6 Z"/>
</g>

<g id="IT_728x90_FR_psd_Asset_V6_1_Lib_rez_votre__quipe_des_TI_pour_qu_elle__puisse_consacrer_plus_0_Layer0_0_MEMBER_48_FILL">
<path fill="#D82C26" stroke="none" d="
M 62.75 5.9
L 62.25 5.9 62.3 10.1 62.8 10.1 62.8 8
Q 62.8 7.25 63.15 6.75 63.45 6.25 64 6.25
L 64.35 6.3 64.5 5.85 64.05 5.75
Q 63.7 5.75 63.3 6.05 62.95 6.45 62.8 6.8
L 62.75 5.9 Z"/>
</g>

<g id="IT_728x90_FR_psd_Asset_V6_1_Lib_rez_votre__quipe_des_TI_pour_qu_elle__puisse_consacrer_plus_0_Layer0_0_MEMBER_49_FILL">
<path fill="#D82C26" stroke="none" d="
M 71.4 8
Q 71.4 7.45 71.15 6.85 70.8 6.3 70.4 6.05 69.9 5.75 69.3 5.75 68.75 5.75 68.3 6.05 67.8 6.4 67.6 6.8
L 67.55 6.8 67.5 5.9 67 5.9 67.05 12.25 67.55 12.25 67.55 9.2 67.6 9.2
Q 67.8 9.65 68.3 9.95 68.7 10.2 69.3 10.2 69.8 10.2 70.4 9.95 70.8 9.7 71.15 9.15 71.4 8.55 71.4 8
M 70.85 8
Q 70.85 8.5 70.65 8.9 70.5 9.3 70.1 9.55 69.7 9.8 69.2 9.8 68.75 9.8 68.35 9.55 68 9.35 67.75 8.9 67.55 8.5 67.55 8 67.55 7.5 67.75 7.1 68 6.65 68.35 6.45 68.75 6.2 69.2 6.2 69.7 6.2 70.1 6.45 70.5 6.7 70.65 7.1 70.85 7.5 70.85 8 Z"/>
</g>

<g id="IT_728x90_FR_psd_Asset_V6_1_Lib_rez_votre__quipe_des_TI_pour_qu_elle__puisse_consacrer_plus_0_Layer0_0_MEMBER_50_FILL">
<path fill="#D82C26" stroke="none" d="
M 72.75 9.85
Q 72.95 10.15 73.25 10.2
L 73.45 9.75
Q 73.25 9.7 73.15 9.5
L 73.05 9.05 73.05 3.25 72.55 3.35 72.55 9.15
Q 72.55 9.6 72.75 9.85 Z"/>
</g>

<g id="IT_728x90_FR_psd_Asset_V6_1_Lib_rez_votre__quipe_des_TI_pour_qu_elle__puisse_consacrer_plus_0_Layer0_0_MEMBER_51_FILL">
<path fill="#D82C26" stroke="none" d="
M 78.05 5.9
L 77.55 5.9 77.55 8
Q 77.55 8.6 77.35 8.95 77.25 9.3 76.85 9.6 76.45 9.8 76.15 9.8 75.55 9.8 75.25 9.35 75 8.95 75 8.35
L 75 5.9 74.45 5.9 74.45 8.45
Q 74.45 9.2 74.85 9.7 75.2 10.2 76 10.2 76.6 10.2 76.95 9.95 77.35 9.65 77.55 9.2
L 77.6 10.1 78.15 10.1 78.05 9.1 78.05 5.9 Z"/>
</g>

<g id="IT_728x90_FR_psd_Asset_V6_1_Lib_rez_votre__quipe_des_TI_pour_qu_elle__puisse_consacrer_plus_0_Layer0_0_MEMBER_52_FILL">
<path fill="#D82C26" stroke="none" d="
M 81.6 9
Q 81.6 9.35 81.35 9.6 81.1 9.8 80.65 9.8 79.8 9.8 79.25 9.3
L 79.15 9.75 79.85 10.1
Q 80.1 10.2 80.7 10.2
L 81.4 10.1
Q 81.65 9.95 81.9 9.65 82.1 9.45 82.1 9 82.1 8.55 81.8 8.25 81.55 8 80.8 7.75 80.35 7.65 80 7.4 79.75 7.15 79.75 6.9 79.75 6.6 80 6.35 80.3 6.2 80.65 6.2
L 81.25 6.3 81.75 6.6 82 6.2 81.4 5.9 80.65 5.75
Q 80.3 5.75 80 5.9 79.65 6.05 79.45 6.3 79.25 6.5 79.25 6.9 79.25 7.45 79.55 7.65 79.85 7.95 80.45 8.1 81.2 8.4 81.35 8.5 81.6 8.75 81.6 9 Z"/>
</g>

<g id="IT_728x90_FR_psd_Asset_V6_1_Lib_rez_votre__quipe_des_TI_pour_qu_elle__puisse_consacrer_plus_0_Layer0_0_MEMBER_53_FILL">
<path fill="#D82C26" stroke="none" d="
M 87.9 6.05
Q 87.4 5.75 86.9 5.75 86.25 5.75 85.8 6.05 85.3 6.35 85.05 6.85 84.75 7.4 84.75 8 84.75 8.65 85.05 9.15 85.3 9.65 85.8 9.95 86.3 10.2 86.9 10.2 87.45 10.2 87.9 9.95 88.4 9.65 88.6 9.2
L 88.65 10.1 89.15 10.1 89.1 3.2 88.6 3.3 88.6 6.8
Q 88.2 6.2 87.9 6.05
M 85.3 8
Q 85.3 7.5 85.5 7.1 85.75 6.65 86.1 6.45 86.45 6.2 86.95 6.2 87.4 6.2 87.8 6.45 88.15 6.65 88.4 7.1 88.6 7.5 88.6 8 88.6 8.5 88.4 8.9 88.15 9.35 87.8 9.55 87.4 9.8 86.95 9.8 86.45 9.8 86.1 9.55 85.75 9.35 85.5 8.9 85.3 8.5 85.3 8 Z"/>
</g>

<g id="IT_728x90_FR_psd_Asset_V6_1_Lib_rez_votre__quipe_des_TI_pour_qu_elle__puisse_consacrer_plus_0_Layer0_0_MEMBER_54_FILL">
<path fill="#D82C26" stroke="none" d="
M 92.35 5.75
Q 91.75 5.75 91.3 6.05 90.85 6.35 90.55 6.85 90.25 7.3 90.25 7.95 90.25 8.65 90.55 9.15 90.85 9.65 91.3 9.95 91.85 10.25 92.45 10.25 93.4 10.25 94.1 9.7
L 94 9.25 93.35 9.65
Q 92.9 9.8 92.45 9.8 92 9.8 91.6 9.55 91.25 9.35 91 8.95 90.8 8.6 90.8 8.05
L 94.35 8.05 94.35 7.85
Q 94.35 7.2 94.1 6.8 93.85 6.35 93.45 6.05 93 5.75 92.35 5.75
M 92.35 6.2
Q 93.05 6.2 93.45 6.6 93.85 7 93.85 7.7
L 90.8 7.7
Q 90.8 7.35 91 7 91.1 6.75 91.55 6.4 91.8 6.2 92.35 6.2 Z"/>
</g>

<g id="IT_728x90_FR_psd_Asset_V6_1_Lib_rez_votre__quipe_des_TI_pour_qu_elle__puisse_consacrer_plus_0_Layer0_0_MEMBER_55_FILL">
<path fill="#D82C26" stroke="none" d="
M 97.45 5.9
L 96.8 5.9 96.65 6.3 97.45 6.3 97.45 9.1
Q 97.45 9.6 97.75 9.9 98 10.2 98.45 10.2
L 98.9 10.15 99.35 9.95 99.25 9.55
Q 98.9 9.75 98.6 9.75 98.3 9.75 98.15 9.6 98 9.4 98 9
L 98 6.3 99.05 6.3 99.2 5.9 98 5.9 98 4.7 97.45 4.9 97.45 5.9 Z"/>
</g>

<g id="IT_728x90_FR_psd_Asset_V6_1_Lib_rez_votre__quipe_des_TI_pour_qu_elle__puisse_consacrer_plus_0_Layer0_0_MEMBER_56_FILL">
<path fill="#D82C26" stroke="none" d="
M 102.9 6.05
Q 102.45 5.75 101.85 5.75 101.3 5.75 100.75 6.05 100.3 6.35 100 6.85 99.75 7.35 99.75 7.95 99.75 8.55 100 9.15 100.3 9.65 100.8 9.95 101.25 10.25 101.9 10.25 102.8 10.25 103.6 9.7
L 103.5 9.25
Q 103.1 9.55 102.8 9.65 102.45 9.8 101.95 9.8 101.5 9.8 101.1 9.55 100.65 9.35 100.5 8.95 100.25 8.55 100.25 8.05
L 103.8 8.05
Q 103.85 8.05 103.85 7.85 103.85 7.3 103.6 6.8 103.4 6.4 102.9 6.05
M 102.9 6.6
Q 103.25 6.9 103.35 7.7
L 100.25 7.7 100.45 7
Q 100.65 6.7 101 6.4 101.35 6.2 101.85 6.2 102.55 6.2 102.9 6.6 Z"/>
</g>

<g id="IT_728x90_FR_psd_Asset_V6_1_Lib_rez_votre__quipe_des_TI_pour_qu_elle__puisse_consacrer_plus_0_Layer0_0_MEMBER_57_FILL">
<path fill="#D82C26" stroke="none" d="
M 107.8 6.05
Q 107.5 5.75 106.95 5.75 106.45 5.75 106.05 6.05 105.65 6.4 105.5 6.8
L 105.45 6.8 105.4 5.9 104.95 5.9 104.95 10.1 105.5 10.1 105.5 8
Q 105.5 7.45 105.65 7.05 105.9 6.6 106.15 6.45 106.5 6.2 106.8 6.2 107.3 6.2 107.6 6.6 107.85 6.85 107.85 7.6
L 107.85 10.1 108.4 10.1 108.4 7.95
Q 108.4 7.1 108.75 6.7 109.1 6.2 109.75 6.2 110.3 6.2 110.6 6.65 110.85 7.15 110.85 7.7
L 110.85 10.1 111.35 10.1 111.35 7.6
Q 111.35 6.8 111 6.3 110.6 5.75 109.85 5.75 109.35 5.75 108.9 6.05 108.5 6.35 108.3 6.85 108.15 6.35 107.8 6.05 Z"/>
</g>

<g id="IT_728x90_FR_psd_Asset_V6_1_Lib_rez_votre__quipe_des_TI_pour_qu_elle__puisse_consacrer_plus_0_Layer0_0_MEMBER_58_FILL">
<path fill="#D82C26" stroke="none" d="
M 113.2 5.9
L 112.7 5.9 112.75 12.25 113.25 12.25 113.25 9.2 113.3 9.2
Q 113.5 9.65 114 9.95 114.4 10.2 115 10.2 115.5 10.2 116.1 9.95 116.5 9.7 116.85 9.15 117.1 8.55 117.1 8 117.1 7.45 116.85 6.85 116.5 6.3 116.1 6.05 115.6 5.75 115 5.75 114.45 5.75 114 6.05 113.5 6.4 113.3 6.8
L 113.25 6.8 113.2 5.9
M 115.8 6.45
Q 116.05 6.6 116.35 7.1 116.55 7.5 116.55 8 116.55 8.5 116.35 8.9 116.05 9.4 115.8 9.55 115.4 9.8 114.9 9.8 114.45 9.8 114.05 9.55 113.7 9.35 113.45 8.9 113.25 8.5 113.25 8 113.25 7.5 113.45 7.1 113.7 6.65 114.05 6.45 114.45 6.2 114.9 6.2 115.4 6.2 115.8 6.45 Z"/>
</g>

<g id="IT_728x90_FR_psd_Asset_V6_1_Lib_rez_votre__quipe_des_TI_pour_qu_elle__puisse_consacrer_plus_0_Layer0_0_MEMBER_59_FILL">
<path fill="#D82C26" stroke="none" d="
M 119.35 5.75
Q 119 5.75 118.7 5.9 118.35 6.05 118.15 6.3 117.95 6.6 117.95 6.9 117.95 7.45 118.25 7.65 118.55 7.95 119.15 8.1 119.9 8.4 120.05 8.5 120.3 8.75 120.3 9 120.3 9.35 120.05 9.6 119.8 9.8 119.35 9.8 118.5 9.8 117.95 9.3
L 117.9 9.75
Q 118.1 9.95 118.55 10.1 118.8 10.2 119.4 10.2
L 120.1 10.1
Q 120.45 9.9 120.6 9.65 120.8 9.45 120.8 9 120.8 8.55 120.5 8.25 120.25 8 119.5 7.75
L 118.7 7.4
Q 118.45 7.15 118.45 6.9 118.45 6.6 118.7 6.35 119 6.2 119.35 6.2
L 119.95 6.3 120.45 6.6 120.7 6.2 120.1 5.9 119.35 5.75 Z"/>
</g>

<g id="IT_728x90_FR_psd_Asset_V6_1_Lib_rez_votre__quipe_des_TI_pour_qu_elle__puisse_consacrer_plus_0_Layer0_0_MEMBER_60_FILL">
<path fill="#D82C26" stroke="none" d="
M 125.3 5.75
Q 124.85 5.75 124.45 5.9 124 6.05 123.75 6.3
L 123.9 6.7
Q 124.1 6.5 124.5 6.35
L 125.2 6.2
Q 125.8 6.2 126.1 6.5 126.4 6.75 126.4 7.35
L 126.4 7.6 125.9 7.6
Q 123.5 7.6 123.5 8.95 123.5 9.6 123.9 9.9 124.3 10.2 124.85 10.2 125.4 10.2 125.8 10 126.3 9.6 126.4 9.3
L 126.45 9.3 126.45 9.7 126.5 10.1 127 10.1 126.9 9.2 126.9 7.35
Q 126.9 6.65 126.5 6.15 126 5.75 125.3 5.75
M 126.4 8.35
Q 126.4 8.7 126.25 9.05 126.1 9.35 125.75 9.6 125.5 9.8 124.95 9.8 124.5 9.8 124.25 9.6 124 9.35 124 8.95 124 7.95 125.95 7.95
L 126.4 7.95 126.4 8.35
M 124.3 3.75
L 125.4 5.05 125.85 5.05 124.95 3.75 124.3 3.75 Z"/>
</g>

<g id="IT_728x90_FR_psd_Asset_V6_1_Lib_rez_votre__quipe_des_TI_pour_qu_elle__puisse_consacrer_plus_0_Layer0_0_MEMBER_61_FILL">
<path fill="#D82C26" stroke="none" d="
M 130.4 9.85
Q 130.7 10.15 130.9 10.2
L 131.15 9.75
Q 130.95 9.7 130.85 9.5
L 130.75 9.05 130.75 3.25 130.2 3.35 130.2 9.15
Q 130.2 9.45 130.4 9.85 Z"/>
</g>

<g id="IT_728x90_FR_psd_Asset_V6_1_Lib_rez_votre__quipe_des_TI_pour_qu_elle__puisse_consacrer_plus_0_Layer0_0_MEMBER_62_FILL">
<path fill="#D82C26" stroke="none" d="
M 133.25 4.25
L 133.15 3.9
Q 133 3.75 132.85 3.75
L 132.6 3.85 132.45 4.15 132.6 4.45 132.85 4.55 132.65 5.15 132.25 5.65 132.45 5.75
Q 133.25 5 133.25 4.25 Z"/>
</g>

<g id="IT_728x90_FR_psd_Asset_V6_1_Lib_rez_votre__quipe_des_TI_pour_qu_elle__puisse_consacrer_plus_0_Layer0_0_MEMBER_63_FILL">
<path fill="#D82C26" stroke="none" d="
M 135.25 5.9
L 134.7 5.9 134.7 10.1 135.25 10.1 135.25 5.9
M 135 4.6
L 135.25 4.5 135.35 4.2 135.25 3.95
Q 135.2 3.85 135 3.85 134.8 3.85 134.7 3.95
L 134.6 4.2 134.7 4.5 135 4.6 Z"/>
</g>

<g id="IT_728x90_FR_psd_Asset_V6_1_Lib_rez_votre__quipe_des_TI_pour_qu_elle__puisse_consacrer_plus_0_Layer0_0_MEMBER_64_FILL">
<path fill="#D82C26" stroke="none" d="
M 138.7 5.75
Q 138.25 5.75 137.8 6.05 137.35 6.35 137.2 6.8
L 137.15 5.9 136.65 5.9 136.7 10.1 137.2 10.1 137.2 7.95
Q 137.2 7.4 137.4 7 137.55 6.7 137.9 6.4 138.3 6.2 138.6 6.2 139.2 6.2 139.5 6.65 139.75 7.05 139.75 7.65
L 139.75 10.1 140.3 10.1 140.3 7.55
Q 140.3 6.8 139.9 6.3 139.5 5.75 138.7 5.75 Z"/>
</g>

<g id="IT_728x90_FR_psd_Asset_V6_1_Lib_rez_votre__quipe_des_TI_pour_qu_elle__puisse_consacrer_plus_0_Layer0_0_MEMBER_65_FILL">
<path fill="#D82C26" stroke="none" d="
M 143.7 5.75
Q 143.2 5.75 142.8 6.05 142.35 6.35 142.2 6.8
L 142.15 6.8 142.15 5.9 141.65 5.9 141.65 10.1 142.2 10.1 142.2 7.95
Q 142.2 7.4 142.4 7 142.55 6.6 142.9 6.4 143.3 6.2 143.6 6.2 144.2 6.2 144.5 6.65 144.75 7.05 144.75 7.65
L 144.75 10.1 145.25 10.1 145.25 7.55
Q 145.25 6.7 144.9 6.3 144.5 5.75 143.7 5.75 Z"/>
</g>

<g id="IT_728x90_FR_psd_Asset_V6_1_Lib_rez_votre__quipe_des_TI_pour_qu_elle__puisse_consacrer_plus_0_Layer0_0_MEMBER_66_FILL">
<path fill="#D82C26" stroke="none" d="
M 149.75 6.05
Q 149.25 5.75 148.6 5.75 148 5.75 147.45 6.05 146.95 6.35 146.65 6.85 146.35 7.4 146.35 8 146.35 8.65 146.65 9.15 146.95 9.65 147.45 9.95 148 10.25 148.6 10.25 149.25 10.25 149.75 9.95 150.25 9.65 150.55 9.15 150.85 8.65 150.85 8 150.85 7.4 150.55 6.85 150.25 6.35 149.75 6.05
M 150.3 8
Q 150.3 8.5 150.1 8.9 149.95 9.35 149.5 9.55 149.1 9.8 148.6 9.8 148.1 9.8 147.7 9.55 147.35 9.35 147.1 8.9 146.9 8.5 146.9 8 146.9 7.45 147.1 7.1 147.35 6.65 147.7 6.45 148.1 6.2 148.6 6.2 149.1 6.2 149.5 6.45 149.85 6.65 150.1 7.1 150.3 7.45 150.3 8 Z"/>
</g>

<g id="IT_728x90_FR_psd_Asset_V6_1_Lib_rez_votre__quipe_des_TI_pour_qu_elle__puisse_consacrer_plus_0_Layer0_0_MEMBER_67_FILL">
<path fill="#D82C26" stroke="none" d="
M 151.25 5.9
L 152.85 10.1 153.45 10.1 155 5.9 154.45 5.9 153.15 9.55 151.8 5.9 151.25 5.9 Z"/>
</g>

<g id="IT_728x90_FR_psd_Asset_V6_1_Lib_rez_votre__quipe_des_TI_pour_qu_elle__puisse_consacrer_plus_0_Layer0_0_MEMBER_68_FILL">
<path fill="#D82C26" stroke="none" d="
M 158.5 6.15
Q 158 5.75 157.3 5.75 156.9 5.75 156.45 5.9
L 155.75 6.3 155.9 6.7 156.55 6.35
Q 156.95 6.2 157.25 6.2 157.8 6.2 158.1 6.5 158.45 6.7 158.45 7.35
L 158.45 7.6 157.95 7.6
Q 155.5 7.6 155.5 8.95 155.5 9.6 155.9 9.9 156.35 10.2 156.85 10.2 157.4 10.2 157.8 10 158.25 9.7 158.45 9.3
L 158.5 9.7 158.5 10.1 159 10.1 158.95 7.35
Q 158.95 6.6 158.5 6.15
M 156.3 9.6
Q 156.05 9.4 156.05 8.95 156.05 7.95 158 7.95
L 158.45 7.95 158.45 8.35
Q 158.45 8.7 158.3 9.05
L 157.8 9.6
Q 157.45 9.8 156.95 9.8 156.55 9.8 156.3 9.6 Z"/>
</g>

<g id="IT_728x90_FR_psd_Asset_V6_1_Lib_rez_votre__quipe_des_TI_pour_qu_elle__puisse_consacrer_plus_0_Layer0_0_MEMBER_69_FILL">
<path fill="#D82C26" stroke="none" d="
M 162.05 6.3
L 162.15 5.9 160.95 5.9 160.95 4.7 160.4 4.9 160.4 5.9 159.75 5.9 159.65 6.3 160.4 6.3 160.4 9.1
Q 160.4 9.6 160.7 9.9 160.95 10.2 161.4 10.2
L 161.85 10.15 162.3 9.95 162.2 9.55
Q 161.85 9.75 161.55 9.75 161.25 9.75 161.1 9.6 160.95 9.4 160.95 9
L 160.95 6.3 162.05 6.3 Z"/>
</g>

<g id="IT_728x90_FR_psd_Asset_V6_1_Lib_rez_votre__quipe_des_TI_pour_qu_elle__puisse_consacrer_plus_0_Layer0_0_MEMBER_70_FILL">
<path fill="#D82C26" stroke="none" d="
M 163.65 5.9
L 163.15 5.9 163.15 10.1 163.65 10.1 163.65 5.9
M 163.4 4.6
L 163.65 4.5
Q 163.75 4.4 163.75 4.2 163.75 4 163.65 3.95 163.6 3.85 163.4 3.85 163.2 3.85 163.15 3.95 163 4.05 163 4.2
L 163.15 4.5 163.4 4.6 Z"/>
</g>

<g id="IT_728x90_FR_psd_Asset_V6_1_Lib_rez_votre__quipe_des_TI_pour_qu_elle__puisse_consacrer_plus_0_Layer0_0_MEMBER_71_FILL">
<path fill="#D82C26" stroke="none" d="
M 167 5.75
Q 166.35 5.75 165.9 6.05 165.4 6.35 165.1 6.85 164.8 7.4 164.8 8 164.8 8.65 165.1 9.15 165.4 9.65 165.9 9.95 166.35 10.25 167 10.25 167.7 10.25 168.15 9.95 168.75 9.6 169 9.15 169.25 8.55 169.25 8 169.25 7.45 169 6.85 168.75 6.4 168.15 6.05 167.7 5.75 167 5.75
M 166.1 6.45
Q 166.6 6.2 167 6.2 167.45 6.2 167.95 6.45 168.3 6.65 168.55 7.1 168.75 7.6 168.75 8 168.75 8.3 168.55 8.9 168.3 9.35 167.95 9.55 167.55 9.8 167 9.8 166.6 9.8 166.1 9.55 165.7 9.3 165.55 8.9 165.3 8.4 165.3 8 165.3 7.5 165.55 7.1 165.7 6.7 166.1 6.45 Z"/>
</g>

<g id="IT_728x90_FR_psd_Asset_V6_1_Lib_rez_votre__quipe_des_TI_pour_qu_elle__puisse_consacrer_plus_0_Layer0_0_MEMBER_72_FILL">
<path fill="#D82C26" stroke="none" d="
M 173.65 6.3
Q 173.25 5.75 172.45 5.75 171.95 5.75 171.55 6.05 171.1 6.35 170.95 6.8
L 170.9 6.8 170.85 5.9 170.4 5.9 170.4 10.1 170.95 10.1 170.95 7.95
Q 170.95 7.4 171.15 7 171.3 6.6 171.65 6.4 172.05 6.2 172.35 6.2 172.95 6.2 173.25 6.65 173.5 7.05 173.5 7.65
L 173.5 10.1 174 10.1 174 7.55
Q 174 6.7 173.65 6.3 Z"/>
</g>

<g id="IT_728x90_FR_psd_Asset_V6_1_Lib_rez_votre__quipe_des_TI_pour_qu_elle__puisse_consacrer_plus_0_Layer0_0_MEMBER_73_FILL">
<path fill="#D82C26" stroke="none" d="
M 175.45 10.05
Q 175.55 10.15 175.75 10.15 175.95 10.15 176 10.05
L 176.15 9.75 176 9.45 175.75 9.35 175.45 9.45 175.35 9.75 175.45 10.05 Z"/>
</g>
</defs>

<g transform="matrix( 1, 0, 0, 1, -213,-42) ">
<g transform="matrix( 1, 0, 0, 1, 213,55) ">
<g transform="matrix( 1, 0, 0, 1, 26,7) ">
<g transform="matrix( 2.6895904541015625, 0, 0, 2.672393798828125, -1.85,18.55) ">
<use xlink:href="#IT_728x90_FR_psd_Asset_V6_1_Lib_rez_votre__quipe_des_TI_pour_qu_elle__puisse_consacrer_plus_0_Layer0_0_MEMBER_0_FILL"/>
</g>

<g transform="matrix( 2.6895904541015625, 0, 0, 2.672393798828125, -1.85,18.55) ">
<use xlink:href="#IT_728x90_FR_psd_Asset_V6_1_Lib_rez_votre__quipe_des_TI_pour_qu_elle__puisse_consacrer_plus_0_Layer0_0_MEMBER_1_FILL"/>
</g>

<g transform="matrix( 2.6895904541015625, 0, 0, 2.672393798828125, -1.85,18.55) ">
<use xlink:href="#IT_728x90_FR_psd_Asset_V6_1_Lib_rez_votre__quipe_des_TI_pour_qu_elle__puisse_consacrer_plus_0_Layer0_0_MEMBER_2_FILL"/>
</g>

<g transform="matrix( 2.6895904541015625, 0, 0, 2.672393798828125, -1.85,18.55) ">
<use xlink:href="#IT_728x90_FR_psd_Asset_V6_1_Lib_rez_votre__quipe_des_TI_pour_qu_elle__puisse_consacrer_plus_0_Layer0_0_MEMBER_3_FILL"/>
</g>

<g transform="matrix( 2.6895904541015625, 0, 0, 2.672393798828125, -1.85,18.55) ">
<use xlink:href="#IT_728x90_FR_psd_Asset_V6_1_Lib_rez_votre__quipe_des_TI_pour_qu_elle__puisse_consacrer_plus_0_Layer0_0_MEMBER_4_FILL"/>
</g>

<g transform="matrix( 2.6895904541015625, 0, 0, 2.672393798828125, -1.85,18.55) ">
<use xlink:href="#IT_728x90_FR_psd_Asset_V6_1_Lib_rez_votre__quipe_des_TI_pour_qu_elle__puisse_consacrer_plus_0_Layer0_0_MEMBER_5_FILL"/>
</g>

<g transform="matrix( 2.6895904541015625, 0, 0, 2.672393798828125, -1.85,18.55) ">
<use xlink:href="#IT_728x90_FR_psd_Asset_V6_1_Lib_rez_votre__quipe_des_TI_pour_qu_elle__puisse_consacrer_plus_0_Layer0_0_MEMBER_6_FILL"/>
</g>

<g transform="matrix( 2.6895904541015625, 0, 0, 2.672393798828125, -1.85,18.55) ">
<use xlink:href="#IT_728x90_FR_psd_Asset_V6_1_Lib_rez_votre__quipe_des_TI_pour_qu_elle__puisse_consacrer_plus_0_Layer0_0_MEMBER_7_FILL"/>
</g>

<g transform="matrix( 2.6895904541015625, 0, 0, 2.672393798828125, -1.85,18.55) ">
<use xlink:href="#IT_728x90_FR_psd_Asset_V6_1_Lib_rez_votre__quipe_des_TI_pour_qu_elle__puisse_consacrer_plus_0_Layer0_0_MEMBER_8_FILL"/>
</g>

<g transform="matrix( 2.6895904541015625, 0, 0, 2.672393798828125, -1.85,18.55) ">
<use xlink:href="#IT_728x90_FR_psd_Asset_V6_1_Lib_rez_votre__quipe_des_TI_pour_qu_elle__puisse_consacrer_plus_0_Layer0_0_MEMBER_9_FILL"/>
</g>

<g transform="matrix( 2.6895904541015625, 0, 0, 2.672393798828125, -1.85,18.55) ">
<use xlink:href="#IT_728x90_FR_psd_Asset_V6_1_Lib_rez_votre__quipe_des_TI_pour_qu_elle__puisse_consacrer_plus_0_Layer0_0_MEMBER_10_FILL"/>
</g>

<g transform="matrix( 2.6895904541015625, 0, 0, 2.672393798828125, -1.85,18.55) ">
<use xlink:href="#IT_728x90_FR_psd_Asset_V6_1_Lib_rez_votre__quipe_des_TI_pour_qu_elle__puisse_consacrer_plus_0_Layer0_0_MEMBER_11_FILL"/>
</g>

<g transform="matrix( 2.6895904541015625, 0, 0, 2.672393798828125, -1.85,18.55) ">
<use xlink:href="#IT_728x90_FR_psd_Asset_V6_1_Lib_rez_votre__quipe_des_TI_pour_qu_elle__puisse_consacrer_plus_0_Layer0_0_MEMBER_12_FILL"/>
</g>

<g transform="matrix( 2.6895904541015625, 0, 0, 2.672393798828125, -1.85,18.55) ">
<use xlink:href="#IT_728x90_FR_psd_Asset_V6_1_Lib_rez_votre__quipe_des_TI_pour_qu_elle__puisse_consacrer_plus_0_Layer0_0_MEMBER_13_FILL"/>
</g>

<g transform="matrix( 2.6895904541015625, 0, 0, 2.672393798828125, -1.85,18.55) ">
<use xlink:href="#IT_728x90_FR_psd_Asset_V6_1_Lib_rez_votre__quipe_des_TI_pour_qu_elle__puisse_consacrer_plus_0_Layer0_0_MEMBER_14_FILL"/>
</g>

<g transform="matrix( 2.6895904541015625, 0, 0, 2.672393798828125, -1.85,18.55) ">
<use xlink:href="#IT_728x90_FR_psd_Asset_V6_1_Lib_rez_votre__quipe_des_TI_pour_qu_elle__puisse_consacrer_plus_0_Layer0_0_MEMBER_15_FILL"/>
</g>

<g transform="matrix( 2.6895904541015625, 0, 0, 2.672393798828125, -1.85,18.55) ">
<use xlink:href="#IT_728x90_FR_psd_Asset_V6_1_Lib_rez_votre__quipe_des_TI_pour_qu_elle__puisse_consacrer_plus_0_Layer0_0_MEMBER_16_FILL"/>
</g>

<g transform="matrix( 2.6895904541015625, 0, 0, 2.672393798828125, -1.85,18.55) ">
<use xlink:href="#IT_728x90_FR_psd_Asset_V6_1_Lib_rez_votre__quipe_des_TI_pour_qu_elle__puisse_consacrer_plus_0_Layer0_0_MEMBER_17_FILL"/>
</g>

<g transform="matrix( 2.6895904541015625, 0, 0, 2.672393798828125, -1.85,18.55) ">
<use xlink:href="#IT_728x90_FR_psd_Asset_V6_1_Lib_rez_votre__quipe_des_TI_pour_qu_elle__puisse_consacrer_plus_0_Layer0_0_MEMBER_18_FILL"/>
</g>

<g transform="matrix( 2.6895904541015625, 0, 0, 2.672393798828125, -1.85,18.55) ">
<use xlink:href="#IT_728x90_FR_psd_Asset_V6_1_Lib_rez_votre__quipe_des_TI_pour_qu_elle__puisse_consacrer_plus_0_Layer0_0_MEMBER_19_FILL"/>
</g>

<g transform="matrix( 2.6895904541015625, 0, 0, 2.672393798828125, -1.85,18.55) ">
<use xlink:href="#IT_728x90_FR_psd_Asset_V6_1_Lib_rez_votre__quipe_des_TI_pour_qu_elle__puisse_consacrer_plus_0_Layer0_0_MEMBER_20_FILL"/>
</g>

<g transform="matrix( 2.6895904541015625, 0, 0, 2.672393798828125, -1.85,18.55) ">
<use xlink:href="#IT_728x90_FR_psd_Asset_V6_1_Lib_rez_votre__quipe_des_TI_pour_qu_elle__puisse_consacrer_plus_0_Layer0_0_MEMBER_21_FILL"/>
</g>

<g transform="matrix( 2.6895904541015625, 0, 0, 2.672393798828125, -1.85,18.55) ">
<use xlink:href="#IT_728x90_FR_psd_Asset_V6_1_Lib_rez_votre__quipe_des_TI_pour_qu_elle__puisse_consacrer_plus_0_Layer0_0_MEMBER_22_FILL"/>
</g>

<g transform="matrix( 2.6895904541015625, 0, 0, 2.672393798828125, -1.85,18.55) ">
<use xlink:href="#IT_728x90_FR_psd_Asset_V6_1_Lib_rez_votre__quipe_des_TI_pour_qu_elle__puisse_consacrer_plus_0_Layer0_0_MEMBER_23_FILL"/>
</g>

<g transform="matrix( 2.6895904541015625, 0, 0, 2.672393798828125, -1.85,18.55) ">
<use xlink:href="#IT_728x90_FR_psd_Asset_V6_1_Lib_rez_votre__quipe_des_TI_pour_qu_elle__puisse_consacrer_plus_0_Layer0_0_MEMBER_24_FILL"/>
</g>

<g transform="matrix( 2.6895904541015625, 0, 0, 2.672393798828125, -1.85,18.55) ">
<use xlink:href="#IT_728x90_FR_psd_Asset_V6_1_Lib_rez_votre__quipe_des_TI_pour_qu_elle__puisse_consacrer_plus_0_Layer0_0_MEMBER_25_FILL"/>
</g>

<g transform="matrix( 2.6895904541015625, 0, 0, 2.672393798828125, -1.85,18.55) ">
<use xlink:href="#IT_728x90_FR_psd_Asset_V6_1_Lib_rez_votre__quipe_des_TI_pour_qu_elle__puisse_consacrer_plus_0_Layer0_0_MEMBER_26_FILL"/>
</g>

<g transform="matrix( 2.6895904541015625, 0, 0, 2.672393798828125, -1.85,18.55) ">
<use xlink:href="#IT_728x90_FR_psd_Asset_V6_1_Lib_rez_votre__quipe_des_TI_pour_qu_elle__puisse_consacrer_plus_0_Layer0_0_MEMBER_27_FILL"/>
</g>

<g transform="matrix( 2.6895904541015625, 0, 0, 2.672393798828125, -1.85,18.55) ">
<use xlink:href="#IT_728x90_FR_psd_Asset_V6_1_Lib_rez_votre__quipe_des_TI_pour_qu_elle__puisse_consacrer_plus_0_Layer0_0_MEMBER_28_FILL"/>
</g>

<g transform="matrix( 2.6895904541015625, 0, 0, 2.672393798828125, -1.85,18.55) ">
<use xlink:href="#IT_728x90_FR_psd_Asset_V6_1_Lib_rez_votre__quipe_des_TI_pour_qu_elle__puisse_consacrer_plus_0_Layer0_0_MEMBER_29_FILL"/>
</g>

<g transform="matrix( 2.6895904541015625, 0, 0, 2.672393798828125, -1.85,18.55) ">
<use xlink:href="#IT_728x90_FR_psd_Asset_V6_1_Lib_rez_votre__quipe_des_TI_pour_qu_elle__puisse_consacrer_plus_0_Layer0_0_MEMBER_30_FILL"/>
</g>

<g transform="matrix( 2.6895904541015625, 0, 0, 2.672393798828125, -1.85,18.55) ">
<use xlink:href="#IT_728x90_FR_psd_Asset_V6_1_Lib_rez_votre__quipe_des_TI_pour_qu_elle__puisse_consacrer_plus_0_Layer0_0_MEMBER_31_FILL"/>
</g>

<g transform="matrix( 2.6895904541015625, 0, 0, 2.672393798828125, -1.85,18.55) ">
<use xlink:href="#IT_728x90_FR_psd_Asset_V6_1_Lib_rez_votre__quipe_des_TI_pour_qu_elle__puisse_consacrer_plus_0_Layer0_0_MEMBER_32_FILL"/>
</g>

<g transform="matrix( 2.6895904541015625, 0, 0, 2.672393798828125, -1.85,18.55) ">
<use xlink:href="#IT_728x90_FR_psd_Asset_V6_1_Lib_rez_votre__quipe_des_TI_pour_qu_elle__puisse_consacrer_plus_0_Layer0_0_MEMBER_33_FILL"/>
</g>

<g transform="matrix( 2.6895904541015625, 0, 0, 2.672393798828125, -1.85,18.55) ">
<use xlink:href="#IT_728x90_FR_psd_Asset_V6_1_Lib_rez_votre__quipe_des_TI_pour_qu_elle__puisse_consacrer_plus_0_Layer0_0_MEMBER_34_FILL"/>
</g>

<g transform="matrix( 2.6895904541015625, 0, 0, 2.672393798828125, -1.85,18.55) ">
<use xlink:href="#IT_728x90_FR_psd_Asset_V6_1_Lib_rez_votre__quipe_des_TI_pour_qu_elle__puisse_consacrer_plus_0_Layer0_0_MEMBER_35_FILL"/>
</g>

<g transform="matrix( 2.6895904541015625, 0, 0, 2.672393798828125, -1.85,18.55) ">
<use xlink:href="#IT_728x90_FR_psd_Asset_V6_1_Lib_rez_votre__quipe_des_TI_pour_qu_elle__puisse_consacrer_plus_0_Layer0_0_MEMBER_36_FILL"/>
</g>

<g transform="matrix( 2.6895904541015625, 0, 0, 2.672393798828125, -1.85,18.55) ">
<use xlink:href="#IT_728x90_FR_psd_Asset_V6_1_Lib_rez_votre__quipe_des_TI_pour_qu_elle__puisse_consacrer_plus_0_Layer0_0_MEMBER_37_FILL"/>
</g>

<g transform="matrix( 2.6895904541015625, 0, 0, 2.672393798828125, -1.85,18.55) ">
<use xlink:href="#IT_728x90_FR_psd_Asset_V6_1_Lib_rez_votre__quipe_des_TI_pour_qu_elle__puisse_consacrer_plus_0_Layer0_0_MEMBER_38_FILL"/>
</g>

<g transform="matrix( 2.6895904541015625, 0, 0, 2.672393798828125, -1.85,18.55) ">
<use xlink:href="#IT_728x90_FR_psd_Asset_V6_1_Lib_rez_votre__quipe_des_TI_pour_qu_elle__puisse_consacrer_plus_0_Layer0_0_MEMBER_39_FILL"/>
</g>

<g transform="matrix( 2.6895904541015625, 0, 0, 2.672393798828125, -1.85,18.55) ">
<use xlink:href="#IT_728x90_FR_psd_Asset_V6_1_Lib_rez_votre__quipe_des_TI_pour_qu_elle__puisse_consacrer_plus_0_Layer0_0_MEMBER_40_FILL"/>
</g>

<g transform="matrix( 2.6895904541015625, 0, 0, 2.672393798828125, -1.85,18.55) ">
<use xlink:href="#IT_728x90_FR_psd_Asset_V6_1_Lib_rez_votre__quipe_des_TI_pour_qu_elle__puisse_consacrer_plus_0_Layer0_0_MEMBER_41_FILL"/>
</g>

<g transform="matrix( 2.6895904541015625, 0, 0, 2.672393798828125, -1.85,18.55) ">
<use xlink:href="#IT_728x90_FR_psd_Asset_V6_1_Lib_rez_votre__quipe_des_TI_pour_qu_elle__puisse_consacrer_plus_0_Layer0_0_MEMBER_42_FILL"/>
</g>

<g transform="matrix( 2.6895904541015625, 0, 0, 2.672393798828125, -1.85,18.55) ">
<use xlink:href="#IT_728x90_FR_psd_Asset_V6_1_Lib_rez_votre__quipe_des_TI_pour_qu_elle__puisse_consacrer_plus_0_Layer0_0_MEMBER_43_FILL"/>
</g>

<g transform="matrix( 2.6895904541015625, 0, 0, 2.672393798828125, -1.85,18.55) ">
<use xlink:href="#IT_728x90_FR_psd_Asset_V6_1_Lib_rez_votre__quipe_des_TI_pour_qu_elle__puisse_consacrer_plus_0_Layer0_0_MEMBER_44_FILL"/>
</g>

<g transform="matrix( 2.6895904541015625, 0, 0, 2.672393798828125, -1.85,18.55) ">
<use xlink:href="#IT_728x90_FR_psd_Asset_V6_1_Lib_rez_votre__quipe_des_TI_pour_qu_elle__puisse_consacrer_plus_0_Layer0_0_MEMBER_45_FILL"/>
</g>

<g transform="matrix( 2.6895904541015625, 0, 0, 2.672393798828125, -1.85,18.55) ">
<use xlink:href="#IT_728x90_FR_psd_Asset_V6_1_Lib_rez_votre__quipe_des_TI_pour_qu_elle__puisse_consacrer_plus_0_Layer0_0_MEMBER_46_FILL"/>
</g>

<g transform="matrix( 2.6895904541015625, 0, 0, 2.672393798828125, -1.85,18.55) ">
<use xlink:href="#IT_728x90_FR_psd_Asset_V6_1_Lib_rez_votre__quipe_des_TI_pour_qu_elle__puisse_consacrer_plus_0_Layer0_0_MEMBER_47_FILL"/>
</g>

<g transform="matrix( 2.6895904541015625, 0, 0, 2.672393798828125, -1.85,18.55) ">
<use xlink:href="#IT_728x90_FR_psd_Asset_V6_1_Lib_rez_votre__quipe_des_TI_pour_qu_elle__puisse_consacrer_plus_0_Layer0_0_MEMBER_48_FILL"/>
</g>

<g transform="matrix( 2.6895904541015625, 0, 0, 2.672393798828125, -1.85,18.55) ">
<use xlink:href="#IT_728x90_FR_psd_Asset_V6_1_Lib_rez_votre__quipe_des_TI_pour_qu_elle__puisse_consacrer_plus_0_Layer0_0_MEMBER_49_FILL"/>
</g>

<g transform="matrix( 2.6895904541015625, 0, 0, 2.672393798828125, -1.85,18.55) ">
<use xlink:href="#IT_728x90_FR_psd_Asset_V6_1_Lib_rez_votre__quipe_des_TI_pour_qu_elle__puisse_consacrer_plus_0_Layer0_0_MEMBER_50_FILL"/>
</g>

<g transform="matrix( 2.6895904541015625, 0, 0, 2.672393798828125, -1.85,18.55) ">
<use xlink:href="#IT_728x90_FR_psd_Asset_V6_1_Lib_rez_votre__quipe_des_TI_pour_qu_elle__puisse_consacrer_plus_0_Layer0_0_MEMBER_51_FILL"/>
</g>

<g transform="matrix( 2.6895904541015625, 0, 0, 2.672393798828125, -1.85,18.55) ">
<use xlink:href="#IT_728x90_FR_psd_Asset_V6_1_Lib_rez_votre__quipe_des_TI_pour_qu_elle__puisse_consacrer_plus_0_Layer0_0_MEMBER_52_FILL"/>
</g>

<g transform="matrix( 2.6895904541015625, 0, 0, 2.672393798828125, -1.85,18.55) ">
<use xlink:href="#IT_728x90_FR_psd_Asset_V6_1_Lib_rez_votre__quipe_des_TI_pour_qu_elle__puisse_consacrer_plus_0_Layer0_0_MEMBER_53_FILL"/>
</g>

<g transform="matrix( 2.6895904541015625, 0, 0, 2.672393798828125, -1.85,18.55) ">
<use xlink:href="#IT_728x90_FR_psd_Asset_V6_1_Lib_rez_votre__quipe_des_TI_pour_qu_elle__puisse_consacrer_plus_0_Layer0_0_MEMBER_54_FILL"/>
</g>

<g transform="matrix( 2.6895904541015625, 0, 0, 2.672393798828125, -1.85,18.55) ">
<use xlink:href="#IT_728x90_FR_psd_Asset_V6_1_Lib_rez_votre__quipe_des_TI_pour_qu_elle__puisse_consacrer_plus_0_Layer0_0_MEMBER_55_FILL"/>
</g>

<g transform="matrix( 2.6895904541015625, 0, 0, 2.672393798828125, -1.85,18.55) ">
<use xlink:href="#IT_728x90_FR_psd_Asset_V6_1_Lib_rez_votre__quipe_des_TI_pour_qu_elle__puisse_consacrer_plus_0_Layer0_0_MEMBER_56_FILL"/>
</g>

<g transform="matrix( 2.6895904541015625, 0, 0, 2.672393798828125, -1.85,18.55) ">
<use xlink:href="#IT_728x90_FR_psd_Asset_V6_1_Lib_rez_votre__quipe_des_TI_pour_qu_elle__puisse_consacrer_plus_0_Layer0_0_MEMBER_57_FILL"/>
</g>

<g transform="matrix( 2.6895904541015625, 0, 0, 2.672393798828125, -1.85,18.55) ">
<use xlink:href="#IT_728x90_FR_psd_Asset_V6_1_Lib_rez_votre__quipe_des_TI_pour_qu_elle__puisse_consacrer_plus_0_Layer0_0_MEMBER_58_FILL"/>
</g>

<g transform="matrix( 2.6895904541015625, 0, 0, 2.672393798828125, -1.85,18.55) ">
<use xlink:href="#IT_728x90_FR_psd_Asset_V6_1_Lib_rez_votre__quipe_des_TI_pour_qu_elle__puisse_consacrer_plus_0_Layer0_0_MEMBER_59_FILL"/>
</g>

<g transform="matrix( 2.6895904541015625, 0, 0, 2.672393798828125, -1.85,18.55) ">
<use xlink:href="#IT_728x90_FR_psd_Asset_V6_1_Lib_rez_votre__quipe_des_TI_pour_qu_elle__puisse_consacrer_plus_0_Layer0_0_MEMBER_60_FILL"/>
</g>

<g transform="matrix( 2.6895904541015625, 0, 0, 2.672393798828125, -1.85,18.55) ">
<use xlink:href="#IT_728x90_FR_psd_Asset_V6_1_Lib_rez_votre__quipe_des_TI_pour_qu_elle__puisse_consacrer_plus_0_Layer0_0_MEMBER_61_FILL"/>
</g>

<g transform="matrix( 2.6895904541015625, 0, 0, 2.672393798828125, -1.85,18.55) ">
<use xlink:href="#IT_728x90_FR_psd_Asset_V6_1_Lib_rez_votre__quipe_des_TI_pour_qu_elle__puisse_consacrer_plus_0_Layer0_0_MEMBER_62_FILL"/>
</g>

<g transform="matrix( 2.6895904541015625, 0, 0, 2.672393798828125, -1.85,18.55) ">
<use xlink:href="#IT_728x90_FR_psd_Asset_V6_1_Lib_rez_votre__quipe_des_TI_pour_qu_elle__puisse_consacrer_plus_0_Layer0_0_MEMBER_63_FILL"/>
</g>

<g transform="matrix( 2.6895904541015625, 0, 0, 2.672393798828125, -1.85,18.55) ">
<use xlink:href="#IT_728x90_FR_psd_Asset_V6_1_Lib_rez_votre__quipe_des_TI_pour_qu_elle__puisse_consacrer_plus_0_Layer0_0_MEMBER_64_FILL"/>
</g>

<g transform="matrix( 2.6895904541015625, 0, 0, 2.672393798828125, -1.85,18.55) ">
<use xlink:href="#IT_728x90_FR_psd_Asset_V6_1_Lib_rez_votre__quipe_des_TI_pour_qu_elle__puisse_consacrer_plus_0_Layer0_0_MEMBER_65_FILL"/>
</g>

<g transform="matrix( 2.6895904541015625, 0, 0, 2.672393798828125, -1.85,18.55) ">
<use xlink:href="#IT_728x90_FR_psd_Asset_V6_1_Lib_rez_votre__quipe_des_TI_pour_qu_elle__puisse_consacrer_plus_0_Layer0_0_MEMBER_66_FILL"/>
</g>

<g transform="matrix( 2.6895904541015625, 0, 0, 2.672393798828125, -1.85,18.55) ">
<use xlink:href="#IT_728x90_FR_psd_Asset_V6_1_Lib_rez_votre__quipe_des_TI_pour_qu_elle__puisse_consacrer_plus_0_Layer0_0_MEMBER_67_FILL"/>
</g>

<g transform="matrix( 2.6895904541015625, 0, 0, 2.672393798828125, -1.85,18.55) ">
<use xlink:href="#IT_728x90_FR_psd_Asset_V6_1_Lib_rez_votre__quipe_des_TI_pour_qu_elle__puisse_consacrer_plus_0_Layer0_0_MEMBER_68_FILL"/>
</g>

<g transform="matrix( 2.6895904541015625, 0, 0, 2.672393798828125, -1.85,18.55) ">
<use xlink:href="#IT_728x90_FR_psd_Asset_V6_1_Lib_rez_votre__quipe_des_TI_pour_qu_elle__puisse_consacrer_plus_0_Layer0_0_MEMBER_69_FILL"/>
</g>

<g transform="matrix( 2.6895904541015625, 0, 0, 2.672393798828125, -1.85,18.55) ">
<use xlink:href="#IT_728x90_FR_psd_Asset_V6_1_Lib_rez_votre__quipe_des_TI_pour_qu_elle__puisse_consacrer_plus_0_Layer0_0_MEMBER_70_FILL"/>
</g>

<g transform="matrix( 2.6895904541015625, 0, 0, 2.672393798828125, -1.85,18.55) ">
<use xlink:href="#IT_728x90_FR_psd_Asset_V6_1_Lib_rez_votre__quipe_des_TI_pour_qu_elle__puisse_consacrer_plus_0_Layer0_0_MEMBER_71_FILL"/>
</g>

<g transform="matrix( 2.6895904541015625, 0, 0, 2.672393798828125, -1.85,18.55) ">
<use xlink:href="#IT_728x90_FR_psd_Asset_V6_1_Lib_rez_votre__quipe_des_TI_pour_qu_elle__puisse_consacrer_plus_0_Layer0_0_MEMBER_72_FILL"/>
</g>

<g transform="matrix( 2.6895904541015625, 0, 0, 2.672393798828125, -1.85,18.55) ">
<use xlink:href="#IT_728x90_FR_psd_Asset_V6_1_Lib_rez_votre__quipe_des_TI_pour_qu_elle__puisse_consacrer_plus_0_Layer0_0_MEMBER_73_FILL"/>
</g>
</g>
</g>
</g>
</svg>
