
<svg xmlns="http://www.w3.org/2000/svg" version="1.1" xmlns:xlink="http://www.w3.org/1999/xlink" preserveAspectRatio="none" x="0px" y="0px" width="300px" height="250px" viewBox="0 0 300 250">
<defs>
<g id="IT_300x250_psd_Asset_ManagedWiFi_IT_Eval_DM5_2_Help_your_IT_team__save_time__0_Layer0_0_MEMBER_0_FILL">
<path fill="#D82C26" stroke="none" d="
M 1.25 -5.5
L 0.75 -5.5 0.75 0 1.25 0 1.25 -2.65 4.65 -2.65 4.65 0 5.1 0 5.1 -5.5 4.65 -5.5 4.65 -3.05 1.25 -3.05 1.25 -5.5 Z"/>
</g>

<g id="IT_300x250_psd_Asset_ManagedWiFi_IT_Eval_DM5_2_Help_your_IT_team__save_time__0_Layer0_0_MEMBER_1_FILL">
<path fill="#D82C26" stroke="none" d="
M 8.9 -3.5
Q 8.5 -3.75 7.95 -3.75 7.55 -3.75 7.05 -3.5 6.65 -3.25 6.4 -2.85 6.15 -2.35 6.15 -1.85 6.15 -1.35 6.4 -0.85 6.6 -0.4 7.05 -0.15 7.45 0.1 8.05 0.1 8.9 0.1 9.5 -0.35
L 9.4 -0.75
Q 9.2 -0.55 8.8 -0.4 8.5 -0.25 8.05 -0.25 7.8 -0.25 7.3 -0.45
L 6.8 -1
Q 6.6 -1.5 6.6 -1.75
L 9.7 -1.75 9.7 -1.95
Q 9.7 -2.5 9.5 -2.85 9.3 -3.25 8.9 -3.5
M 6.6 -2.1
L 6.8 -2.7
Q 6.95 -2.95 7.25 -3.2 7.5 -3.4 7.95 -3.4 8.45 -3.4 8.9 -3.05 9.25 -2.7 9.25 -2.1
L 6.6 -2.1 Z"/>
</g>

<g id="IT_300x250_psd_Asset_ManagedWiFi_IT_Eval_DM5_2_Help_your_IT_team__save_time__0_Layer0_0_MEMBER_2_FILL">
<path fill="#D82C26" stroke="none" d="
M 10.65 -0.8
Q 10.65 -0.45 10.8 -0.25 10.95 -0.05 11.25 0.1
L 11.45 -0.3
Q 11.4 -0.3 11.2 -0.5
L 11.1 -0.9 11.1 -5.9 10.65 -5.85 10.65 -0.8 Z"/>
</g>

<g id="IT_300x250_psd_Asset_ManagedWiFi_IT_Eval_DM5_2_Help_your_IT_team__save_time__0_Layer0_0_MEMBER_3_FILL">
<path fill="#D82C26" stroke="none" d="
M 14.3 -3.75
Q 13.85 -3.75 13.45 -3.5 13 -3.3 12.8 -2.85
L 12.75 -3.65 12.35 -3.65 12.35 1.85 12.8 1.85 12.8 -0.8 12.85 -0.8
Q 13 -0.4 13.45 -0.15 13.85 0.1 14.3 0.1 14.75 0.1 15.25 -0.15 15.65 -0.35 15.9 -0.85 16.1 -1.25 16.1 -1.8 16.1 -2.4 15.9 -2.8 15.7 -3.2 15.25 -3.5 14.75 -3.75 14.3 -3.75
M 14.25 -3.35
Q 14.65 -3.35 15 -3.15 15.3 -2.9 15.5 -2.6 15.65 -2.2 15.65 -1.8
L 15.5 -1.05
Q 15.25 -0.6 15 -0.5 14.65 -0.3 14.25 -0.3 13.75 -0.3 13.5 -0.5 13.15 -0.7 13 -1.05 12.8 -1.4 12.8 -1.8 12.8 -2.25 13 -2.6 13.15 -2.95 13.5 -3.15 13.75 -3.35 14.25 -3.35 Z"/>
</g>

<g id="IT_300x250_psd_Asset_ManagedWiFi_IT_Eval_DM5_2_Help_your_IT_team__save_time__0_Layer0_0_MEMBER_4_FILL">
<path fill="#D82C26" stroke="none" d="
M 18.5 -3.65
L 18 -3.65 19.55 0.05 19.25 0.8
Q 19.2 1.1 18.9 1.3 18.7 1.45 18.25 1.45
L 18.35 1.85
Q 18.8 1.85 19.2 1.65 19.45 1.45 19.7 0.9
L 21.35 -3.65 20.9 -3.65 19.8 -0.5 18.5 -3.65 Z"/>
</g>

<g id="IT_300x250_psd_Asset_ManagedWiFi_IT_Eval_DM5_2_Help_your_IT_team__save_time__0_Layer0_0_MEMBER_5_FILL">
<path fill="#D82C26" stroke="none" d="
M 24.65 -3.5
Q 24.15 -3.75 23.65 -3.75 23.15 -3.75 22.65 -3.5 22.3 -3.3 21.95 -2.8 21.7 -2.4 21.7 -1.85 21.7 -1.35 21.95 -0.85 22.3 -0.3 22.65 -0.15 23.05 0.1 23.65 0.1 24.3 0.1 24.65 -0.15 25.1 -0.4 25.35 -0.85 25.6 -1.35 25.6 -1.85 25.6 -2.4 25.35 -2.8 25.1 -3.25 24.65 -3.5
M 23.65 -3.35
Q 24.1 -3.35 24.45 -3.15 24.85 -2.85 24.95 -2.6 25.15 -2.25 25.15 -1.85 25.15 -1.4 24.95 -1.05 24.85 -0.8 24.45 -0.5 24.1 -0.3 23.65 -0.3 23.2 -0.3 22.85 -0.5 22.55 -0.75 22.35 -1.05 22.2 -1.4 22.2 -1.85
L 22.35 -2.6
Q 22.55 -2.9 22.85 -3.15 23.2 -3.35 23.65 -3.35 Z"/>
</g>

<g id="IT_300x250_psd_Asset_ManagedWiFi_IT_Eval_DM5_2_Help_your_IT_team__save_time__0_Layer0_0_MEMBER_6_FILL">
<path fill="#D82C26" stroke="none" d="
M 29.6 -3.65
L 29.15 -3.65 29.15 -1.85
Q 29.15 -1.35 29 -1 28.9 -0.7 28.55 -0.45 28.25 -0.25 27.95 -0.25 27.45 -0.25 27.2 -0.65 26.95 -1 26.95 -1.55
L 26.95 -3.65 26.5 -3.65 26.5 -1.4
Q 26.5 -0.7 26.85 -0.35 27.15 0.1 27.85 0.1 28.25 0.1 28.65 -0.15 29 -0.35 29.15 -0.8
L 29.25 0 29.7 0 29.6 -0.85 29.6 -3.65 Z"/>
</g>

<g id="IT_300x250_psd_Asset_ManagedWiFi_IT_Eval_DM5_2_Help_your_IT_team__save_time__0_Layer0_0_MEMBER_7_FILL">
<path fill="#D82C26" stroke="none" d="
M 31.25 -3.65
L 30.8 -3.65 30.85 0 31.3 0 31.3 -1.8
Q 31.3 -2.45 31.6 -2.9 31.85 -3.35 32.35 -3.35
L 32.65 -3.3 32.75 -3.7 32.35 -3.75
Q 32.1 -3.75 31.75 -3.5 31.45 -3.25 31.3 -2.85
L 31.25 -3.65 Z"/>
</g>

<g id="IT_300x250_psd_Asset_ManagedWiFi_IT_Eval_DM5_2_Help_your_IT_team__save_time__0_Layer0_0_MEMBER_8_FILL">
<path fill="#D82C26" stroke="none" d="
M 35.3 -5.5
L 34.85 -5.5 34.85 0 35.3 0 35.3 -5.5 Z"/>
</g>

<g id="IT_300x250_psd_Asset_ManagedWiFi_IT_Eval_DM5_2_Help_your_IT_team__save_time__0_Layer0_0_MEMBER_9_FILL">
<path fill="#D82C26" stroke="none" d="
M 36.05 -5.1
L 37.8 -5.1 37.8 0 38.25 0 38.25 -5.1 39.95 -5.1 40.05 -5.5 36.15 -5.5 36.05 -5.1 Z"/>
</g>

<g id="IT_300x250_psd_Asset_ManagedWiFi_IT_Eval_DM5_2_Help_your_IT_team__save_time__0_Layer0_0_MEMBER_10_FILL">
<path fill="#D82C26" stroke="none" d="
M 43.55 -3.3
L 43.65 -3.65 42.6 -3.65 42.6 -4.7 42.15 -4.5 42.15 -3.65 41.55 -3.65 41.5 -3.3 42.15 -3.3 42.15 -0.9
Q 42.15 -0.5 42.4 -0.15 42.65 0.1 43 0.1
L 43.8 -0.1 43.75 -0.45 43.15 -0.3
Q 42.9 -0.3 42.75 -0.45 42.6 -0.6 42.6 -0.95
L 42.6 -3.3 43.55 -3.3 Z"/>
</g>

<g id="IT_300x250_psd_Asset_ManagedWiFi_IT_Eval_DM5_2_Help_your_IT_team__save_time__0_Layer0_0_MEMBER_11_FILL">
<path fill="#D82C26" stroke="none" d="
M 44.35 -0.85
Q 44.55 -0.4 45 -0.15 45.4 0.1 45.95 0.1 46.8 0.1 47.4 -0.35
L 47.35 -0.75
Q 47.15 -0.55 46.75 -0.4
L 46 -0.25
Q 45.75 -0.25 45.25 -0.45 44.9 -0.7 44.75 -1 44.55 -1.35 44.55 -1.75
L 47.65 -1.75 47.65 -1.95
Q 47.65 -2.35 47.45 -2.85 47.25 -3.25 46.85 -3.5 46.45 -3.75 45.9 -3.75 45.4 -3.75 45 -3.5 44.65 -3.3 44.35 -2.85 44.1 -2.35 44.1 -1.85 44.1 -1.35 44.35 -0.85
M 44.75 -2.7
Q 44.9 -2.95 45.2 -3.2 45.45 -3.4 45.9 -3.4 46.4 -3.4 46.85 -3.05 47.2 -2.6 47.2 -2.1
L 44.55 -2.1
Q 44.55 -2.3 44.75 -2.7 Z"/>
</g>

<g id="IT_300x250_psd_Asset_ManagedWiFi_IT_Eval_DM5_2_Help_your_IT_team__save_time__0_Layer0_0_MEMBER_12_FILL">
<path fill="#D82C26" stroke="none" d="
M 49.75 -3.4
Q 50.2 -3.4 50.55 -3.15 50.8 -2.8 50.8 -2.4
L 50.8 -2.2 50.35 -2.2
Q 48.3 -2.2 48.3 -1 48.3 -0.45 48.6 -0.15 49 0.1 49.45 0.1 49.9 0.1 50.25 -0.1 50.65 -0.35 50.8 -0.7
L 50.9 0 51.3 0 51.25 -2.35
Q 51.25 -3 50.85 -3.4 50.5 -3.75 49.85 -3.75
L 49.1 -3.65
Q 48.7 -3.5 48.5 -3.3
L 48.6 -2.95 49.15 -3.25
Q 49.45 -3.4 49.75 -3.4
M 50.25 -0.45
Q 50 -0.25 49.55 -0.25 49.2 -0.25 48.95 -0.4 48.7 -0.65 48.7 -1 48.7 -1.9 50.45 -1.9
L 50.8 -1.9 50.8 -1.5
Q 50.8 -1.2 50.65 -0.9 50.5 -0.6 50.25 -0.45 Z"/>
</g>

<g id="IT_300x250_psd_Asset_ManagedWiFi_IT_Eval_DM5_2_Help_your_IT_team__save_time__0_Layer0_0_MEMBER_13_FILL">
<path fill="#D82C26" stroke="none" d="
M 53.4 -3.2
Q 53.7 -3.35 54 -3.35 54.5 -3.35 54.7 -3.05 54.9 -2.8 54.9 -2.15
L 54.9 0 55.35 0 55.35 -1.9
Q 55.35 -2.5 55.7 -2.95 55.95 -3.35 56.5 -3.35 57.05 -3.35 57.25 -3 57.5 -2.6 57.5 -2.05
L 57.5 0 57.95 0 57.95 -2.2
Q 57.95 -2.75 57.6 -3.3 57.3 -3.75 56.6 -3.75 56.2 -3.75 55.8 -3.5 55.45 -3.25 55.3 -2.8 55.15 -3.3 54.85 -3.5 54.5 -3.75 54.1 -3.75 53.7 -3.75 53.35 -3.5 53.05 -3.3 52.85 -2.85
L 52.8 -3.65 52.35 -3.65 52.4 0 52.85 0 52.85 -1.8
Q 52.85 -2.25 53 -2.65 53.1 -2.9 53.4 -3.2 Z"/>
</g>

<g id="IT_300x250_psd_Asset_ManagedWiFi_IT_Eval_DM5_2_Help_your_IT_team__save_time__0_Layer0_0_MEMBER_14_FILL">
<path fill="#D82C26" stroke="none" d="
M 1.1 5.55
Q 0.95 5.6 0.65 5.9 0.5 6.15 0.5 6.45 0.5 6.8 0.75 7.05 1 7.3 1.55 7.45 1.95 7.55 2.3 7.8 2.55 7.95 2.55 8.25 2.55 8.5 2.3 8.75 2.1 8.9 1.7 8.9 1.05 8.9 0.5 8.5
L 0.45 8.9
Q 0.65 9.1 1 9.15 1.3 9.3 1.75 9.3 2.05 9.3 2.35 9.15 2.65 9.05 2.8 8.8 2.95 8.6 2.95 8.2 2.95 7.8 2.7 7.6 2.5 7.4 1.85 7.15 1.3 7 1.15 6.85 0.9 6.7 0.9 6.4 0.9 6.1 1.15 5.95 1.4 5.8 1.7 5.8
L 2.25 5.9 2.65 6.15 2.85 5.8 2.35 5.55
Q 2.15 5.45 1.7 5.45 1.3 5.45 1.1 5.55 Z"/>
</g>

<g id="IT_300x250_psd_Asset_ManagedWiFi_IT_Eval_DM5_2_Help_your_IT_team__save_time__0_Layer0_0_MEMBER_15_FILL">
<path fill="#D82C26" stroke="none" d="
M 5.15 5.8
Q 5.65 5.8 5.9 6.05 6.2 6.3 6.2 6.8
L 6.2 7 5.75 7
Q 3.65 7 3.65 8.2 3.65 8.75 4 9 4.4 9.3 4.85 9.3 5.25 9.3 5.65 9.05 6.05 8.9 6.2 8.45
L 6.25 8.85 6.25 9.2 6.7 9.2 6.6 8.4 6.6 6.8
Q 6.6 6.1 6.25 5.8 5.9 5.45 5.25 5.45 4.75 5.45 4.5 5.55
L 3.85 5.9 4 6.25 4.55 5.9 5.15 5.8
M 4.35 8.75
Q 4.1 8.6 4.1 8.2 4.1 7.3 5.8 7.3
L 6.2 7.3 6.2 7.65
Q 6.2 7.95 6.05 8.25 5.9 8.5 5.6 8.75 5.3 8.95 4.9 8.95 4.55 8.95 4.35 8.75 Z"/>
</g>

<g id="IT_300x250_psd_Asset_ManagedWiFi_IT_Eval_DM5_2_Help_your_IT_team__save_time__0_Layer0_0_MEMBER_16_FILL">
<path fill="#D82C26" stroke="none" d="
M 7.15 5.55
L 8.55 9.2 9.05 9.2 10.4 5.55 9.95 5.55 8.8 8.7 7.65 5.55 7.15 5.55 Z"/>
</g>

<g id="IT_300x250_psd_Asset_ManagedWiFi_IT_Eval_DM5_2_Help_your_IT_team__save_time__0_Layer0_0_MEMBER_17_FILL">
<path fill="#D82C26" stroke="none" d="
M 12.55 5.45
Q 12 5.45 11.6 5.65 11.1 6.05 10.95 6.35 10.75 6.75 10.75 7.35 10.75 7.95 10.95 8.35 11.25 8.75 11.65 9.05 12.05 9.3 12.6 9.3 13.45 9.3 14.05 8.85
L 13.95 8.45 13.4 8.8 12.65 8.9
Q 12.15 8.9 11.9 8.7 11.6 8.6 11.35 8.15
L 11.15 7.4 14.25 7.4 14.25 7.25
Q 14.25 6.7 14.05 6.3 13.8 5.9 13.45 5.65 13.1 5.45 12.55 5.45
M 12.55 5.8
Q 13.15 5.8 13.45 6.15 13.75 6.45 13.85 7.1
L 11.2 7.1
Q 11.2 6.8 11.35 6.5 11.5 6.25 11.8 6 12.05 5.8 12.55 5.8 Z"/>
</g>

<g id="IT_300x250_psd_Asset_ManagedWiFi_IT_Eval_DM5_2_Help_your_IT_team__save_time__0_Layer0_0_MEMBER_18_FILL">
<path fill="#D82C26" stroke="none" d="
M 17.25 5.55
L 17.25 4.5 16.8 4.65 16.8 5.55 16.2 5.55 16.1 5.9 16.8 5.9 16.8 8.3
Q 16.8 8.8 17 9 17.35 9.25 17.65 9.25
L 18.05 9.2 18.4 9.05 18.35 8.7
Q 18.1 8.9 17.75 8.9 17.55 8.9 17.4 8.75 17.25 8.55 17.25 8.25
L 17.25 5.9 18.2 5.9 18.3 5.55 17.25 5.55 Z"/>
</g>

<g id="IT_300x250_psd_Asset_ManagedWiFi_IT_Eval_DM5_2_Help_your_IT_team__save_time__0_Layer0_0_MEMBER_19_FILL">
<path fill="#D82C26" stroke="none" d="
M 19.55 5.55
L 19.1 5.55 19.1 9.2 19.55 9.2 19.55 5.55
M 19.35 4.4
Q 19.5 4.4 19.55 4.3 19.65 4.25 19.65 4.1 19.65 3.9 19.55 3.85
L 19.35 3.75 19.1 3.85 19 4.1 19.1 4.3
Q 19.15 4.4 19.35 4.4 Z"/>
</g>

<g id="IT_300x250_psd_Asset_ManagedWiFi_IT_Eval_DM5_2_Help_your_IT_team__save_time__0_Layer0_0_MEMBER_20_FILL">
<path fill="#D82C26" stroke="none" d="
M 21.15 5.55
L 20.75 5.55 20.75 9.2 21.25 9.2 21.25 7.35
Q 21.25 6.85 21.4 6.55 21.6 6.1 21.8 6 22.1 5.8 22.35 5.8 22.85 5.8 23.05 6.15 23.3 6.5 23.3 7.05
L 23.3 9.2 23.75 9.2 23.75 7.3
Q 23.75 6.65 24.05 6.25 24.45 5.8 24.9 5.8 25.4 5.8 25.65 6.2 25.85 6.55 25.85 7.1
L 25.85 9.2 26.3 9.2 26.3 7
Q 26.3 6.3 26 5.9 25.7 5.45 25 5.45 24.45 5.45 24.2 5.7 23.9 5.9 23.65 6.35 23.6 5.95 23.25 5.7 23 5.45 22.5 5.45 22 5.45 21.7 5.7 21.4 5.9 21.2 6.35
L 21.15 5.55 Z"/>
</g>

<g id="IT_300x250_psd_Asset_ManagedWiFi_IT_Eval_DM5_2_Help_your_IT_team__save_time__0_Layer0_0_MEMBER_21_FILL">
<path fill="#D82C26" stroke="none" d="
M 30.75 7.25
Q 30.75 6.7 30.55 6.3 30.4 5.95 29.95 5.65 29.6 5.45 29.05 5.45 28.5 5.45 28.1 5.65 27.7 5.95 27.45 6.35 27.25 6.75 27.25 7.35 27.25 8 27.5 8.35 27.7 8.75 28.15 9.05 28.55 9.3 29.1 9.3 29.95 9.3 30.55 8.85
L 30.5 8.45 29.9 8.8 29.15 8.9
Q 28.65 8.9 28.4 8.7 28.1 8.6 27.85 8.15 27.7 7.85 27.7 7.4
L 30.75 7.4 30.75 7.25
M 29.05 5.8
Q 29.65 5.8 29.95 6.15 30.35 6.55 30.35 7.1
L 27.7 7.1
Q 27.7 6.8 27.85 6.5 28 6.25 28.3 6 28.65 5.8 29.05 5.8 Z"/>
</g>

<g id="IT_300x250_psd_Asset_ManagedWiFi_IT_Eval_DM5_2_Help_your_IT_team__save_time__0_Layer0_0_MEMBER_22_FILL">
<path fill="#D82C26" stroke="none" d="
M 31.65 9.15
L 31.9 9.25 32.15 9.15 32.25 8.9 32.15 8.65
Q 32.1 8.55 31.9 8.55 31.75 8.55 31.65 8.65
L 31.55 8.9 31.65 9.15 Z"/>
</g>
</defs>

<g transform="matrix( 1, 0, 0, 1, -223,-63) ">
<g transform="matrix( 1, 0, 0, 1, 218,78) ">
<g transform="matrix( 1, 0, 0, 1, 28,10) ">
<g transform="matrix( 2.815704345703125, 0, 0, 2.832611083984375, -0.85,16.6) ">
<use xlink:href="#IT_300x250_psd_Asset_ManagedWiFi_IT_Eval_DM5_2_Help_your_IT_team__save_time__0_Layer0_0_MEMBER_0_FILL"/>
</g>

<g transform="matrix( 2.815704345703125, 0, 0, 2.832611083984375, -0.85,16.6) ">
<use xlink:href="#IT_300x250_psd_Asset_ManagedWiFi_IT_Eval_DM5_2_Help_your_IT_team__save_time__0_Layer0_0_MEMBER_1_FILL"/>
</g>

<g transform="matrix( 2.815704345703125, 0, 0, 2.832611083984375, -0.85,16.6) ">
<use xlink:href="#IT_300x250_psd_Asset_ManagedWiFi_IT_Eval_DM5_2_Help_your_IT_team__save_time__0_Layer0_0_MEMBER_2_FILL"/>
</g>

<g transform="matrix( 2.815704345703125, 0, 0, 2.832611083984375, -0.85,16.6) ">
<use xlink:href="#IT_300x250_psd_Asset_ManagedWiFi_IT_Eval_DM5_2_Help_your_IT_team__save_time__0_Layer0_0_MEMBER_3_FILL"/>
</g>

<g transform="matrix( 2.815704345703125, 0, 0, 2.832611083984375, -0.85,16.6) ">
<use xlink:href="#IT_300x250_psd_Asset_ManagedWiFi_IT_Eval_DM5_2_Help_your_IT_team__save_time__0_Layer0_0_MEMBER_4_FILL"/>
</g>

<g transform="matrix( 2.815704345703125, 0, 0, 2.832611083984375, -0.85,16.6) ">
<use xlink:href="#IT_300x250_psd_Asset_ManagedWiFi_IT_Eval_DM5_2_Help_your_IT_team__save_time__0_Layer0_0_MEMBER_5_FILL"/>
</g>

<g transform="matrix( 2.815704345703125, 0, 0, 2.832611083984375, -0.85,16.6) ">
<use xlink:href="#IT_300x250_psd_Asset_ManagedWiFi_IT_Eval_DM5_2_Help_your_IT_team__save_time__0_Layer0_0_MEMBER_6_FILL"/>
</g>

<g transform="matrix( 2.815704345703125, 0, 0, 2.832611083984375, -0.85,16.6) ">
<use xlink:href="#IT_300x250_psd_Asset_ManagedWiFi_IT_Eval_DM5_2_Help_your_IT_team__save_time__0_Layer0_0_MEMBER_7_FILL"/>
</g>

<g transform="matrix( 2.815704345703125, 0, 0, 2.832611083984375, -0.85,16.6) ">
<use xlink:href="#IT_300x250_psd_Asset_ManagedWiFi_IT_Eval_DM5_2_Help_your_IT_team__save_time__0_Layer0_0_MEMBER_8_FILL"/>
</g>

<g transform="matrix( 2.815704345703125, 0, 0, 2.832611083984375, -0.85,16.6) ">
<use xlink:href="#IT_300x250_psd_Asset_ManagedWiFi_IT_Eval_DM5_2_Help_your_IT_team__save_time__0_Layer0_0_MEMBER_9_FILL"/>
</g>

<g transform="matrix( 2.815704345703125, 0, 0, 2.832611083984375, -0.85,16.6) ">
<use xlink:href="#IT_300x250_psd_Asset_ManagedWiFi_IT_Eval_DM5_2_Help_your_IT_team__save_time__0_Layer0_0_MEMBER_10_FILL"/>
</g>

<g transform="matrix( 2.815704345703125, 0, 0, 2.832611083984375, -0.85,16.6) ">
<use xlink:href="#IT_300x250_psd_Asset_ManagedWiFi_IT_Eval_DM5_2_Help_your_IT_team__save_time__0_Layer0_0_MEMBER_11_FILL"/>
</g>

<g transform="matrix( 2.815704345703125, 0, 0, 2.832611083984375, -0.85,16.6) ">
<use xlink:href="#IT_300x250_psd_Asset_ManagedWiFi_IT_Eval_DM5_2_Help_your_IT_team__save_time__0_Layer0_0_MEMBER_12_FILL"/>
</g>

<g transform="matrix( 2.815704345703125, 0, 0, 2.832611083984375, -0.85,16.6) ">
<use xlink:href="#IT_300x250_psd_Asset_ManagedWiFi_IT_Eval_DM5_2_Help_your_IT_team__save_time__0_Layer0_0_MEMBER_13_FILL"/>
</g>

<g transform="matrix( 2.815704345703125, 0, 0, 2.832611083984375, -0.85,16.6) ">
<use xlink:href="#IT_300x250_psd_Asset_ManagedWiFi_IT_Eval_DM5_2_Help_your_IT_team__save_time__0_Layer0_0_MEMBER_14_FILL"/>
</g>

<g transform="matrix( 2.815704345703125, 0, 0, 2.832611083984375, -0.85,16.6) ">
<use xlink:href="#IT_300x250_psd_Asset_ManagedWiFi_IT_Eval_DM5_2_Help_your_IT_team__save_time__0_Layer0_0_MEMBER_15_FILL"/>
</g>

<g transform="matrix( 2.815704345703125, 0, 0, 2.832611083984375, -0.85,16.6) ">
<use xlink:href="#IT_300x250_psd_Asset_ManagedWiFi_IT_Eval_DM5_2_Help_your_IT_team__save_time__0_Layer0_0_MEMBER_16_FILL"/>
</g>

<g transform="matrix( 2.815704345703125, 0, 0, 2.832611083984375, -0.85,16.6) ">
<use xlink:href="#IT_300x250_psd_Asset_ManagedWiFi_IT_Eval_DM5_2_Help_your_IT_team__save_time__0_Layer0_0_MEMBER_17_FILL"/>
</g>

<g transform="matrix( 2.815704345703125, 0, 0, 2.832611083984375, -0.85,16.6) ">
<use xlink:href="#IT_300x250_psd_Asset_ManagedWiFi_IT_Eval_DM5_2_Help_your_IT_team__save_time__0_Layer0_0_MEMBER_18_FILL"/>
</g>

<g transform="matrix( 2.815704345703125, 0, 0, 2.832611083984375, -0.85,16.6) ">
<use xlink:href="#IT_300x250_psd_Asset_ManagedWiFi_IT_Eval_DM5_2_Help_your_IT_team__save_time__0_Layer0_0_MEMBER_19_FILL"/>
</g>

<g transform="matrix( 2.815704345703125, 0, 0, 2.832611083984375, -0.85,16.6) ">
<use xlink:href="#IT_300x250_psd_Asset_ManagedWiFi_IT_Eval_DM5_2_Help_your_IT_team__save_time__0_Layer0_0_MEMBER_20_FILL"/>
</g>

<g transform="matrix( 2.815704345703125, 0, 0, 2.832611083984375, -0.85,16.6) ">
<use xlink:href="#IT_300x250_psd_Asset_ManagedWiFi_IT_Eval_DM5_2_Help_your_IT_team__save_time__0_Layer0_0_MEMBER_21_FILL"/>
</g>

<g transform="matrix( 2.815704345703125, 0, 0, 2.832611083984375, -0.85,16.6) ">
<use xlink:href="#IT_300x250_psd_Asset_ManagedWiFi_IT_Eval_DM5_2_Help_your_IT_team__save_time__0_Layer0_0_MEMBER_22_FILL"/>
</g>
</g>
</g>
</g>
</svg>
