
<svg xmlns="http://www.w3.org/2000/svg" version="1.1" xmlns:xlink="http://www.w3.org/1999/xlink" preserveAspectRatio="none" x="0px" y="0px" width="300px" height="250px" viewBox="0 0 300 250">
<defs>
<g id="BDM_300x250_FR_psd_Asset_6_V7_1_Vous_souhaitez_en_savoir__plus_sur_votre_client_le__0_Layer0_0_MEMBER_0_FILL">
<path fill="#D82C26" stroke="none" d="
M 0.65 -6
L 0.05 -6 2.35 0 2.9 0 5.2 -6 4.65 -6 2.65 -0.6 0.65 -6 Z"/>
</g>

<g id="BDM_300x250_FR_psd_Asset_6_V7_1_Vous_souhaitez_en_savoir__plus_sur_votre_client_le__0_Layer0_0_MEMBER_1_FILL">
<path fill="#D82C26" stroke="none" d="
M 9.15 -3.1
Q 8.85 -3.55 8.35 -3.85 7.85 -4.1 7.3 -4.1 6.7 -4.1 6.2 -3.85 5.75 -3.55 5.45 -3.1 5.2 -2.65 5.2 -2 5.2 -1.35 5.45 -0.9 5.75 -0.45 6.2 -0.15 6.6 0.1 7.3 0.1 8 0.1 8.35 -0.15 8.85 -0.45 9.15 -0.9 9.4 -1.5 9.4 -2 9.4 -2.5 9.15 -3.1
M 6.45 -3.45
Q 6.8 -3.65 7.3 -3.65 7.8 -3.65 8.15 -3.45 8.45 -3.25 8.7 -2.85 8.9 -2.5 8.9 -2 8.9 -1.5 8.7 -1.15 8.55 -0.8 8.15 -0.55 7.75 -0.3 7.3 -0.3 6.85 -0.3 6.45 -0.55 6.1 -0.75 5.85 -1.15 5.7 -1.5 5.7 -2 5.7 -2.45 5.85 -2.85 6.1 -3.2 6.45 -3.45 Z"/>
</g>

<g id="BDM_300x250_FR_psd_Asset_6_V7_1_Vous_souhaitez_en_savoir__plus_sur_votre_client_le__0_Layer0_0_MEMBER_2_FILL">
<path fill="#D82C26" stroke="none" d="
M 13.75 -3.95
L 13.25 -3.95 13.25 -2
Q 13.25 -1.45 13.1 -1.1 13 -0.8 12.6 -0.5 12.35 -0.3 11.95 -0.3 11.35 -0.3 11.1 -0.7 10.85 -1.1 10.85 -1.7
L 10.85 -3.95 10.35 -3.95 10.35 -1.55
Q 10.35 -0.95 10.7 -0.35 11.1 0.1 11.8 0.1 12.3 0.1 12.7 -0.15 13.15 -0.5 13.25 -0.85
L 13.35 0 13.85 0 13.75 -0.9 13.75 -3.95 Z"/>
</g>

<g id="BDM_300x250_FR_psd_Asset_6_V7_1_Vous_souhaitez_en_savoir__plus_sur_votre_client_le__0_Layer0_0_MEMBER_3_FILL">
<path fill="#D82C26" stroke="none" d="
M 14.85 -0.75
L 14.75 -0.35
Q 14.95 -0.15 15.35 0
L 16.15 0.1 16.85 0 17.35 -0.4
Q 17.5 -0.7 17.5 -1.05 17.5 -1.45 17.2 -1.75 16.75 -2.1 16.3 -2.2
L 15.5 -2.55
Q 15.3 -2.7 15.3 -3 15.3 -3.35 15.55 -3.5 15.75 -3.7 16.15 -3.7
L 16.7 -3.6 17.2 -3.3 17.4 -3.65
Q 17.2 -3.85 16.85 -3.95 16.5 -4.1 16.15 -4.1 15.8 -4.1 15.5 -3.95 15.3 -3.9 15 -3.6 14.8 -3.3 14.8 -3 14.8 -2.5 15.1 -2.3 15.5 -2 15.95 -1.9 16.6 -1.65 16.8 -1.5 17.05 -1.35 17.05 -1.05 17.05 -0.65 16.8 -0.5 16.55 -0.3 16.15 -0.3 15.4 -0.3 14.85 -0.75 Z"/>
</g>

<g id="BDM_300x250_FR_psd_Asset_6_V7_1_Vous_souhaitez_en_savoir__plus_sur_votre_client_le__0_Layer0_0_MEMBER_4_FILL">
<path fill="#D82C26" stroke="none" d="
M 19.95 -0.75
L 19.85 -0.35
Q 20.05 -0.15 20.45 0
L 21.25 0.1 21.95 0 22.45 -0.4
Q 22.6 -0.7 22.6 -1.05 22.6 -1.45 22.3 -1.75 21.85 -2.1 21.4 -2.2
L 20.6 -2.55
Q 20.4 -2.7 20.4 -3 20.4 -3.35 20.65 -3.5 20.85 -3.7 21.25 -3.7
L 21.8 -3.6 22.3 -3.3 22.5 -3.65
Q 22.3 -3.85 21.95 -3.95
L 21.25 -4.1
Q 20.9 -4.1 20.6 -3.95 20.4 -3.9 20.1 -3.6 19.9 -3.3 19.9 -3 19.9 -2.5 20.2 -2.3 20.6 -2 21.05 -1.9 21.7 -1.65 21.9 -1.5 22.15 -1.35 22.15 -1.05 22.15 -0.65 21.9 -0.5 21.65 -0.3 21.25 -0.3 20.5 -0.3 19.95 -0.75 Z"/>
</g>

<g id="BDM_300x250_FR_psd_Asset_6_V7_1_Vous_souhaitez_en_savoir__plus_sur_votre_client_le__0_Layer0_0_MEMBER_5_FILL">
<path fill="#D82C26" stroke="none" d="
M 23.6 -0.9
Q 23.85 -0.45 24.35 -0.15 24.75 0.1 25.4 0.1 26.15 0.1 26.5 -0.15 27.05 -0.5 27.25 -0.9 27.55 -1.4 27.55 -2 27.55 -2.55 27.25 -3.1 27.05 -3.45 26.5 -3.85 26 -4.1 25.4 -4.1 24.85 -4.1 24.35 -3.85 23.85 -3.55 23.6 -3.1 23.3 -2.55 23.3 -2 23.3 -1.4 23.6 -0.9
M 24 -2.85
Q 24.25 -3.25 24.55 -3.45 24.9 -3.65 25.4 -3.65 25.9 -3.65 26.25 -3.45 26.65 -3.2 26.85 -2.85 27.05 -2.35 27.05 -2 27.05 -1.65 26.85 -1.15 26.65 -0.8 26.3 -0.55 25.9 -0.3 25.4 -0.3 24.95 -0.3 24.55 -0.55 24.25 -0.75 24 -1.15 23.8 -1.5 23.8 -2 23.8 -2.5 24 -2.85 Z"/>
</g>

<g id="BDM_300x250_FR_psd_Asset_6_V7_1_Vous_souhaitez_en_savoir__plus_sur_votre_client_le__0_Layer0_0_MEMBER_6_FILL">
<path fill="#D82C26" stroke="none" d="
M 28.5 -1.55
Q 28.5 -0.85 28.85 -0.35 29.25 0.1 29.95 0.1 30.35 0.1 30.85 -0.15 31.3 -0.5 31.4 -0.85
L 31.5 0 31.95 0 31.9 -3.95 31.4 -3.95 31.4 -2
Q 31.4 -1.45 31.25 -1.1 31.05 -0.75 30.75 -0.5 30.5 -0.3 30.1 -0.3 29.5 -0.3 29.25 -0.7 29 -1.1 29 -1.7
L 29 -3.95 28.5 -3.95 28.5 -1.55 Z"/>
</g>

<g id="BDM_300x250_FR_psd_Asset_6_V7_1_Vous_souhaitez_en_savoir__plus_sur_votre_client_le__0_Layer0_0_MEMBER_7_FILL">
<path fill="#D82C26" stroke="none" d="
M 33.7 -6.45
L 33.2 -6.4 33.2 0 33.7 0 33.7 -1.95
Q 33.7 -2.45 33.85 -2.85 34.1 -3.3 34.35 -3.45 34.6 -3.65 35 -3.65 35.65 -3.65 35.85 -3.25 36.1 -2.85 36.1 -2.3
L 36.1 0 36.6 0 36.6 -2.4
Q 36.6 -3.05 36.25 -3.6 35.9 -4.1 35.15 -4.1 34.75 -4.1 34.25 -3.85 33.85 -3.55 33.7 -3.15
L 33.7 -6.45 Z"/>
</g>

<g id="BDM_300x250_FR_psd_Asset_6_V7_1_Vous_souhaitez_en_savoir__plus_sur_votre_client_le__0_Layer0_0_MEMBER_8_FILL">
<path fill="#D82C26" stroke="none" d="
M 39.15 -3.7
Q 39.7 -3.7 40 -3.4 40.3 -3.15 40.3 -2.6
L 40.3 -2.4 39.8 -2.4
Q 37.55 -2.4 37.55 -1.05 37.55 -0.5 37.9 -0.2 38.3 0.1 38.8 0.1 39.35 0.1 39.7 -0.1 40 -0.25 40.3 -0.75
L 40.4 0 40.85 0 40.75 -0.85 40.75 -2.6
Q 40.75 -3.35 40.35 -3.7 39.95 -4.1 39.25 -4.1 38.85 -4.1 38.45 -3.95
L 37.75 -3.6 37.9 -3.2
Q 38.1 -3.4 38.5 -3.55
L 39.15 -3.7
M 39.9 -2.05
L 40.3 -2.05 40.3 -1.65
Q 40.3 -1.3 40.15 -1 39.95 -0.65 39.65 -0.45 39.25 -0.25 38.9 -0.25 38.6 -0.25 38.3 -0.45 38 -0.65 38 -1.1 38 -2.05 39.9 -2.05 Z"/>
</g>

<g id="BDM_300x250_FR_psd_Asset_6_V7_1_Vous_souhaitez_en_savoir__plus_sur_votre_client_le__0_Layer0_0_MEMBER_9_FILL">
<path fill="#D82C26" stroke="none" d="
M 42.5 -3.95
L 42 -3.95 42 0 42.5 0 42.5 -3.95
M 42.25 -5.2
L 42.5 -5.3 42.6 -5.55 42.5 -5.8
Q 42.45 -5.9 42.25 -5.9 42.05 -5.9 42 -5.8
L 41.9 -5.55 42 -5.3 42.25 -5.2 Z"/>
</g>

<g id="BDM_300x250_FR_psd_Asset_6_V7_1_Vous_souhaitez_en_savoir__plus_sur_votre_client_le__0_Layer0_0_MEMBER_10_FILL">
<path fill="#D82C26" stroke="none" d="
M 43.25 -3.6
L 43.95 -3.6 43.95 -0.95
Q 43.95 -0.45 44.2 -0.2 44.5 0.1 44.9 0.1
L 45.35 0.05 45.75 -0.15 45.7 -0.5
Q 45.2 -0.3 45.05 -0.3 44.9 -0.3 44.6 -0.5 44.45 -0.65 44.45 -1.05
L 44.45 -3.6 45.5 -3.6 45.6 -3.95 44.45 -3.95 44.45 -5.1 43.95 -4.9 43.95 -3.95 43.35 -3.95 43.25 -3.6 Z"/>
</g>

<g id="BDM_300x250_FR_psd_Asset_6_V7_1_Vous_souhaitez_en_savoir__plus_sur_votre_client_le__0_Layer0_0_MEMBER_11_FILL">
<path fill="#D82C26" stroke="none" d="
M 49.7 -3.1
Q 49.45 -3.55 49.05 -3.85 48.55 -4.1 48.05 -4.1 47.55 -4.1 47.05 -3.85 46.6 -3.55 46.3 -3.1 46.05 -2.5 46.05 -2 46.05 -1.4 46.35 -0.9 46.55 -0.45 47.05 -0.15 47.45 0.1 48.1 0.1 49.05 0.1 49.7 -0.4
L 49.6 -0.8 48.95 -0.45
Q 48.6 -0.3 48.15 -0.3 47.65 -0.3 47.3 -0.5 46.95 -0.75 46.75 -1.1 46.55 -1.45 46.55 -1.9
L 49.9 -1.9 49.9 -2.15
Q 49.9 -2.7 49.7 -3.1
M 47.25 -3.5
Q 47.5 -3.7 48.05 -3.7 48.65 -3.7 49.05 -3.3 49.45 -2.9 49.45 -2.3
L 46.55 -2.3
Q 46.55 -2.5 46.75 -2.9 46.9 -3.2 47.25 -3.5 Z"/>
</g>

<g id="BDM_300x250_FR_psd_Asset_6_V7_1_Vous_souhaitez_en_savoir__plus_sur_votre_client_le__0_Layer0_0_MEMBER_12_FILL">
<path fill="#D82C26" stroke="none" d="
M 52.95 -3.6
L 50.5 -0.4 50.5 0 53.6 0 53.7 -0.4 51.1 -0.4 53.5 -3.6 53.5 -3.95 50.65 -3.95 50.55 -3.6 52.95 -3.6 Z"/>
</g>

<g id="BDM_300x250_FR_psd_Asset_6_V7_1_Vous_souhaitez_en_savoir__plus_sur_votre_client_le__0_Layer0_0_MEMBER_13_FILL">
<path fill="#D82C26" stroke="none" d="
M 59.5 -3.1
Q 59.4 -3.45 58.9 -3.85 58.4 -4.1 57.85 -4.1 57.35 -4.1 56.85 -3.85 56.35 -3.5 56.15 -3.1 55.9 -2.5 55.9 -2 55.9 -1.5 56.15 -0.9 56.5 -0.4 56.9 -0.15 57.3 0.1 57.9 0.1 58.85 0.1 59.5 -0.4
L 59.4 -0.8
Q 59.2 -0.6 58.8 -0.45 58.35 -0.3 57.95 -0.3 57.5 -0.3 57.15 -0.5 56.75 -0.75 56.6 -1.1 56.45 -1.35 56.35 -1.9
L 59.75 -1.9 59.75 -2.15
Q 59.75 -2.6 59.5 -3.1
M 57.1 -3.5
Q 57.35 -3.7 57.85 -3.7 58.45 -3.7 58.85 -3.3 59.25 -2.95 59.25 -2.3
L 56.4 -2.3
Q 56.4 -2.6 56.55 -2.9 56.8 -3.3 57.1 -3.5 Z"/>
</g>

<g id="BDM_300x250_FR_psd_Asset_6_V7_1_Vous_souhaitez_en_savoir__plus_sur_votre_client_le__0_Layer0_0_MEMBER_14_FILL">
<path fill="#D82C26" stroke="none" d="
M 61.25 -3.1
L 61.2 -3.95 60.7 -3.95 60.75 0 61.25 0 61.25 -2
Q 61.25 -2.55 61.45 -2.9 61.6 -3.3 61.9 -3.45 62.15 -3.65 62.55 -3.65 63.2 -3.65 63.4 -3.25 63.65 -2.85 63.65 -2.3
L 63.65 0 64.15 0 64.15 -2.4
Q 64.15 -3.2 63.8 -3.6 63.45 -4.1 62.7 -4.1 62.2 -4.1 61.8 -3.8 61.4 -3.55 61.25 -3.1 Z"/>
</g>

<g id="BDM_300x250_FR_psd_Asset_6_V7_1_Vous_souhaitez_en_savoir__plus_sur_votre_client_le__0_Layer0_0_MEMBER_15_FILL">
<path fill="#D82C26" stroke="none" d="
M 69.45 -3.65
Q 69.25 -3.85 68.9 -3.95 68.55 -4.1 68.2 -4.1 67.85 -4.1 67.55 -3.95 67.35 -3.9 67.05 -3.6 66.85 -3.3 66.85 -3 66.85 -2.5 67.15 -2.3 67.55 -2 68 -1.9 68.65 -1.65 68.85 -1.5 69.1 -1.35 69.1 -1.05 69.1 -0.65 68.85 -0.5 68.6 -0.3 68.2 -0.3 67.45 -0.3 66.9 -0.75
L 66.8 -0.35
Q 67 -0.15 67.4 0
L 68.2 0.1 68.85 0
Q 69.15 -0.15 69.35 -0.4 69.55 -0.65 69.55 -1.05 69.55 -1.45 69.25 -1.75 68.8 -2.1 68.35 -2.2
L 67.55 -2.55
Q 67.35 -2.7 67.35 -3 67.35 -3.35 67.6 -3.5 67.8 -3.7 68.2 -3.7
L 68.75 -3.6 69.25 -3.3 69.45 -3.65 Z"/>
</g>

<g id="BDM_300x250_FR_psd_Asset_6_V7_1_Vous_souhaitez_en_savoir__plus_sur_votre_client_le__0_Layer0_0_MEMBER_16_FILL">
<path fill="#D82C26" stroke="none" d="
M 70.3 -1.05
Q 70.3 -0.5 70.7 -0.2 71.1 0.1 71.55 0.1 72.1 0.1 72.45 -0.1 72.9 -0.3 73.05 -0.75
L 73.1 -0.75 73.1 -0.35 73.15 0 73.6 0 73.5 -0.85 73.5 -2.6
Q 73.5 -3.35 73.1 -3.7 72.7 -4.1 72 -4.1 71.6 -4.1 71.2 -3.95 70.7 -3.75 70.55 -3.6
L 70.65 -3.2 71.25 -3.55
Q 71.65 -3.7 71.95 -3.7 72.45 -3.7 72.75 -3.4 73.05 -3.15 73.05 -2.6
L 73.05 -2.4 72.6 -2.4
Q 70.3 -2.4 70.3 -1.05
M 72.65 -2.05
L 73.05 -2.05 73.05 -1.65
Q 73.05 -1.3 72.9 -1 72.75 -0.65 72.45 -0.45 71.95 -0.25 71.65 -0.25 71.35 -0.25 71.05 -0.45 70.8 -0.65 70.8 -1.1 70.8 -2.05 72.65 -2.05 Z"/>
</g>

<g id="BDM_300x250_FR_psd_Asset_6_V7_1_Vous_souhaitez_en_savoir__plus_sur_votre_client_le__0_Layer0_0_MEMBER_17_FILL">
<path fill="#D82C26" stroke="none" d="
M 74.6 -3.95
L 74.05 -3.95 75.6 0 76.15 0 77.6 -3.95 77.1 -3.95 75.85 -0.5 74.6 -3.95 Z"/>
</g>

<g id="BDM_300x250_FR_psd_Asset_6_V7_1_Vous_souhaitez_en_savoir__plus_sur_votre_client_le__0_Layer0_0_MEMBER_18_FILL">
<path fill="#D82C26" stroke="none" d="
M 80.05 -4.1
Q 79.55 -4.1 78.95 -3.85 78.5 -3.55 78.2 -3.1 77.95 -2.5 77.95 -2 77.95 -1.5 78.2 -0.9 78.5 -0.45 78.95 -0.15 79.4 0.1 80.05 0.1 80.7 0.1 81.15 -0.15 81.6 -0.45 81.9 -0.9 82.15 -1.5 82.15 -2 82.15 -2.5 81.9 -3.1 81.6 -3.55 81.15 -3.85 80.55 -4.1 80.05 -4.1
M 80.05 -3.65
Q 80.55 -3.65 80.9 -3.45 81.3 -3.2 81.45 -2.85 81.65 -2.5 81.65 -2 81.65 -1.5 81.45 -1.15 81.3 -0.8 80.9 -0.55 80.5 -0.3 80.05 -0.3 79.6 -0.3 79.2 -0.55 78.8 -0.8 78.65 -1.15 78.45 -1.5 78.45 -2 78.45 -2.5 78.65 -2.85 78.8 -3.2 79.2 -3.45 79.55 -3.65 80.05 -3.65 Z"/>
</g>

<g id="BDM_300x250_FR_psd_Asset_6_V7_1_Vous_souhaitez_en_savoir__plus_sur_votre_client_le__0_Layer0_0_MEMBER_19_FILL">
<path fill="#D82C26" stroke="none" d="
M 83.65 -3.95
L 83.15 -3.95 83.15 0 83.65 0 83.65 -3.95
M 83.75 -5.55
Q 83.75 -5.75 83.65 -5.8 83.6 -5.9 83.4 -5.9 83.25 -5.9 83.15 -5.8
L 83.05 -5.55 83.15 -5.3 83.4 -5.2 83.65 -5.3
Q 83.75 -5.35 83.75 -5.55 Z"/>
</g>

<g id="BDM_300x250_FR_psd_Asset_6_V7_1_Vous_souhaitez_en_savoir__plus_sur_votre_client_le__0_Layer0_0_MEMBER_20_FILL">
<path fill="#D82C26" stroke="none" d="
M 85.45 -1.95
Q 85.45 -2.7 85.75 -3.15 86.05 -3.65 86.6 -3.65
L 86.95 -3.6 87.05 -4 86.6 -4.1
Q 86.3 -4.1 85.95 -3.85 85.6 -3.6 85.45 -3.1
L 85.4 -3.95 84.9 -3.95 84.95 0 85.45 0 85.45 -1.95 Z"/>
</g>

<g id="BDM_300x250_FR_psd_Asset_6_V7_1_Vous_souhaitez_en_savoir__plus_sur_votre_client_le__0_Layer0_0_MEMBER_21_FILL">
<path fill="#D82C26" stroke="none" d="
M 1.95 5.35
Q 1.5 5.65 1.3 6.1
L 1.25 6.1 1.25 5.2 0.75 5.2 0.8 11.2 1.3 11.2 1.3 8.35
Q 1.5 8.75 1.95 9.05 2.45 9.3 2.9 9.3 3.5 9.3 3.95 9 4.45 8.75 4.65 8.25 4.9 7.75 4.9 7.2 4.9 6.7 4.65 6.1 4.45 5.7 3.95 5.35 3.45 5.1 2.9 5.1 2.45 5.1 1.95 5.35
M 2.85 5.5
Q 3.25 5.5 3.65 5.75 3.95 5.95 4.2 6.35 4.4 6.7 4.4 7.2 4.4 7.7 4.2 8.05 3.95 8.45 3.65 8.65 3.3 8.85 2.85 8.85 2.3 8.85 2.05 8.65 1.7 8.45 1.45 8.05 1.25 7.55 1.25 7.2 1.25 6.85 1.45 6.35 1.7 6 2.05 5.75 2.4 5.5 2.85 5.5 Z"/>
</g>

<g id="BDM_300x250_FR_psd_Asset_6_V7_1_Vous_souhaitez_en_savoir__plus_sur_votre_client_le__0_Layer0_0_MEMBER_22_FILL">
<path fill="#D82C26" stroke="none" d="
M 6.1 8.95
Q 6.25 9.2 6.55 9.25
L 6.8 8.85
Q 6.6 8.8 6.5 8.6 6.4 8.4 6.4 8.2
L 6.4 2.7 5.9 2.8 5.9 8.3
Q 5.9 8.7 6.1 8.95 Z"/>
</g>

<g id="BDM_300x250_FR_psd_Asset_6_V7_1_Vous_souhaitez_en_savoir__plus_sur_votre_client_le__0_Layer0_0_MEMBER_23_FILL">
<path fill="#D82C26" stroke="none" d="
M 11.05 8.7
L 11.05 5.2 10.55 5.2 10.55 7.2
Q 10.55 7.75 10.4 8.1 10.15 8.5 9.9 8.7 9.5 8.9 9.25 8.9 8.65 8.9 8.4 8.5 8.15 8.1 8.15 7.5
L 8.15 5.2 7.65 5.2 7.65 7.65
Q 7.65 8.3 8 8.8 8.35 9.3 9.1 9.3 9.5 9.3 10 9.05 10.4 8.7 10.55 8.3
L 10.65 9.2 11.15 9.2 11.05 8.7 Z"/>
</g>

<g id="BDM_300x250_FR_psd_Asset_6_V7_1_Vous_souhaitez_en_savoir__plus_sur_votre_client_le__0_Layer0_0_MEMBER_24_FILL">
<path fill="#D82C26" stroke="none" d="
M 12.85 5.65
Q 13.1 5.5 13.45 5.5 13.85 5.5 14 5.6
L 14.5 5.85 14.7 5.5 14.15 5.2 13.45 5.1 12.8 5.2
Q 12.5 5.35 12.3 5.6 12.1 5.9 12.1 6.2 12.1 6.65 12.4 6.85 12.6 7.05 13.25 7.3 13.55 7.4 14.1 7.65 14.35 7.9 14.35 8.15 14.35 8.5 14.05 8.7 13.85 8.9 13.45 8.9 12.65 8.9 12.1 8.4
L 12.05 8.85
Q 12.3 9.1 12.65 9.15 13.05 9.3 13.45 9.3 13.8 9.3 14.1 9.15 14.5 8.95 14.6 8.75 14.8 8.55 14.8 8.15 14.8 7.7 14.5 7.45 14.25 7.2 13.6 6.95 13 6.8 12.8 6.6 12.6 6.45 12.6 6.15 12.6 5.8 12.85 5.65 Z"/>
</g>

<g id="BDM_300x250_FR_psd_Asset_6_V7_1_Vous_souhaitez_en_savoir__plus_sur_votre_client_le__0_Layer0_0_MEMBER_25_FILL">
<path fill="#D82C26" stroke="none" d="
M 17.95 5.65
Q 18.2 5.5 18.55 5.5 18.95 5.5 19.1 5.6
L 19.6 5.85 19.8 5.5 19.25 5.2 18.55 5.1 17.9 5.2
Q 17.6 5.35 17.4 5.6 17.2 5.9 17.2 6.2 17.2 6.65 17.5 6.85 17.7 7.05 18.35 7.3 18.65 7.4 19.2 7.65 19.45 7.9 19.45 8.15 19.45 8.5 19.15 8.7 18.95 8.9 18.55 8.9 17.75 8.9 17.2 8.4
L 17.15 8.85
Q 17.4 9.1 17.75 9.15 18.15 9.3 18.55 9.3 18.9 9.3 19.2 9.15 19.6 9 19.7 8.75 19.9 8.55 19.9 8.15 19.9 7.7 19.6 7.45 19.35 7.2 18.7 6.95 18.1 6.8 17.9 6.6 17.7 6.45 17.7 6.15 17.7 5.8 17.95 5.65 Z"/>
</g>

<g id="BDM_300x250_FR_psd_Asset_6_V7_1_Vous_souhaitez_en_savoir__plus_sur_votre_client_le__0_Layer0_0_MEMBER_26_FILL">
<path fill="#D82C26" stroke="none" d="
M 21.3 5.2
L 20.8 5.2 20.8 7.65
Q 20.8 8.4 21.15 8.8 21.45 9.3 22.2 9.3 22.7 9.3 23.1 9.05 23.5 8.7 23.65 8.3
L 23.75 9.2 24.25 9.2 24.15 8.25 24.15 5.2 23.65 5.2 23.65 7.2
Q 23.65 7.75 23.5 8.1 23.35 8.5 23 8.7 22.6 8.9 22.35 8.9 21.8 8.9 21.5 8.5 21.3 8.15 21.3 7.5
L 21.3 5.2 Z"/>
</g>

<g id="BDM_300x250_FR_psd_Asset_6_V7_1_Vous_souhaitez_en_savoir__plus_sur_votre_client_le__0_Layer0_0_MEMBER_27_FILL">
<path fill="#D82C26" stroke="none" d="
M 25.9 5.2
L 25.45 5.2 25.45 9.2 25.95 9.2 25.95 7.2
Q 25.95 6.55 26.25 6 26.55 5.55 27.1 5.55
L 27.45 5.6 27.55 5.15 27.15 5.1
Q 26.8 5.1 26.45 5.35 26.05 5.75 25.95 6.05
L 25.9 5.2 Z"/>
</g>

<g id="BDM_300x250_FR_psd_Asset_6_V7_1_Vous_souhaitez_en_savoir__plus_sur_votre_client_le__0_Layer0_0_MEMBER_28_FILL">
<path fill="#D82C26" stroke="none" d="
M 29.1 5.2
L 30.6 9.2 31.2 9.2 32.65 5.2 32.15 5.2 30.9 8.7 29.6 5.2 29.1 5.2 Z"/>
</g>

<g id="BDM_300x250_FR_psd_Asset_6_V7_1_Vous_souhaitez_en_savoir__plus_sur_votre_client_le__0_Layer0_0_MEMBER_29_FILL">
<path fill="#D82C26" stroke="none" d="
M 36.9 6.1
Q 36.7 5.65 36.15 5.35 35.65 5.1 35.1 5.1 34.5 5.1 34 5.35 33.55 5.65 33.25 6.1 32.95 6.55 32.95 7.2 32.95 7.8 33.25 8.25 33.55 8.75 34 9.05 34.5 9.3 35.1 9.3 35.65 9.3 36.15 9.05 36.7 8.75 36.9 8.25 37.2 7.8 37.2 7.2 37.2 6.55 36.9 6.1
M 34.25 5.75
Q 34.6 5.5 35.1 5.5 35.55 5.5 35.95 5.75 36.3 6 36.5 6.35 36.7 6.7 36.7 7.2 36.7 7.65 36.5 8.05 36.25 8.45 35.95 8.65 35.6 8.85 35.1 8.85 34.5 8.85 34.25 8.65 33.9 8.45 33.65 8.05 33.45 7.45 33.45 7.2 33.45 6.85 33.65 6.35 33.9 6 34.25 5.75 Z"/>
</g>

<g id="BDM_300x250_FR_psd_Asset_6_V7_1_Vous_souhaitez_en_savoir__plus_sur_votre_client_le__0_Layer0_0_MEMBER_30_FILL">
<path fill="#D82C26" stroke="none" d="
M 37.6 5.2
L 37.5 5.6 38.25 5.6 38.25 8.2
Q 38.25 8.75 38.5 9 38.75 9.25 39.15 9.25
L 39.6 9.2 40 9.05 39.95 8.7 39.3 8.85
Q 39.05 8.85 38.9 8.7 38.7 8.5 38.7 8.15
L 38.7 5.6 39.75 5.6 39.85 5.2 38.7 5.2 38.7 4.05 38.2 4.25 38.2 5.2 37.6 5.2 Z"/>
</g>

<g id="BDM_300x250_FR_psd_Asset_6_V7_1_Vous_souhaitez_en_savoir__plus_sur_votre_client_le__0_Layer0_0_MEMBER_31_FILL">
<path fill="#D82C26" stroke="none" d="
M 41.15 5.2
L 40.7 5.2 40.75 9.2 41.25 9.2 41.25 7.2
Q 41.25 6.55 41.55 6 41.85 5.55 42.35 5.55
L 42.7 5.6 42.8 5.15 42.4 5.1
Q 42.05 5.1 41.7 5.35 41.4 5.65 41.2 6.05
L 41.15 5.2 Z"/>
</g>

<g id="BDM_300x250_FR_psd_Asset_6_V7_1_Vous_souhaitez_en_savoir__plus_sur_votre_client_le__0_Layer0_0_MEMBER_32_FILL">
<path fill="#D82C26" stroke="none" d="
M 46.65 6.05
Q 46.4 5.55 46 5.35 45.7 5.1 45 5.1 44.5 5.1 44 5.35 43.5 5.7 43.3 6.1 43.05 6.5 43.05 7.15 43.05 7.9 43.3 8.25 43.5 8.7 44 9.05 44.6 9.3 45.05 9.3 46 9.3 46.65 8.8
L 46.55 8.35
Q 46.3 8.65 45.9 8.75 45.55 8.9 45.1 8.9 44.7 8.9 44.3 8.65 43.85 8.4 43.75 8.1 43.5 7.7 43.5 7.25
L 46.9 7.25 46.9 7.05
Q 46.9 6.55 46.65 6.05
M 44.2 5.7
Q 44.55 5.5 45 5.5 45.65 5.5 46 5.85 46.4 6.35 46.4 6.9
L 43.55 6.9 43.7 6.25 44.2 5.7 Z"/>
</g>

<g id="BDM_300x250_FR_psd_Asset_6_V7_1_Vous_souhaitez_en_savoir__plus_sur_votre_client_le__0_Layer0_0_MEMBER_33_FILL">
<path fill="#D82C26" stroke="none" d="
M 52.1 5.2
L 51.35 5.1
Q 50.8 5.1 50.3 5.35 49.85 5.65 49.55 6.1 49.3 6.55 49.3 7.2 49.3 7.85 49.55 8.3 49.8 8.75 50.3 9.05 50.8 9.3 51.35 9.3
L 52.1 9.15
Q 52.5 9 52.7 8.8
L 52.65 8.4 52.05 8.75
Q 51.85 8.85 51.4 8.85 50.9 8.85 50.55 8.65 50.15 8.4 50 8.05 49.8 7.7 49.8 7.2 49.8 6.7 50 6.35 50.15 6 50.55 5.75 50.95 5.5 51.35 5.5
L 52 5.6 52.5 5.95 52.7 5.55
Q 52.5 5.35 52.1 5.2 Z"/>
</g>

<g id="BDM_300x250_FR_psd_Asset_6_V7_1_Vous_souhaitez_en_savoir__plus_sur_votre_client_le__0_Layer0_0_MEMBER_34_FILL">
<path fill="#D82C26" stroke="none" d="
M 53.7 8.95
Q 53.85 9.2 54.15 9.25
L 54.4 8.85
Q 54.2 8.8 54.1 8.6 54 8.4 54 8.2
L 54 2.7 53.5 2.8 53.5 8.3
Q 53.5 8.7 53.7 8.95 Z"/>
</g>

<g id="BDM_300x250_FR_psd_Asset_6_V7_1_Vous_souhaitez_en_savoir__plus_sur_votre_client_le__0_Layer0_0_MEMBER_35_FILL">
<path fill="#D82C26" stroke="none" d="
M 55.35 5.2
L 55.35 9.2 55.85 9.2 55.85 5.2 55.35 5.2
M 55.8 3.9
L 55.95 3.6
Q 55.95 3.5 55.8 3.35
L 55.55 3.25 55.3 3.35 55.2 3.6 55.3 3.9 55.55 4 55.8 3.9 Z"/>
</g>

<g id="BDM_300x250_FR_psd_Asset_6_V7_1_Vous_souhaitez_en_savoir__plus_sur_votre_client_le__0_Layer0_0_MEMBER_36_FILL">
<path fill="#D82C26" stroke="none" d="
M 57.8 5.35
Q 57.3 5.7 57.1 6.1 56.85 6.6 56.85 7.15 56.85 7.75 57.1 8.25 57.4 8.8 57.85 9.05 58.35 9.3 58.85 9.3 59.8 9.3 60.45 8.8
L 60.35 8.35
Q 60.1 8.6 59.75 8.75 59.4 8.9 58.9 8.9 58.5 8.9 58.1 8.65 57.65 8.4 57.55 8.1 57.4 7.85 57.3 7.25
L 60.7 7.25 60.7 7.05
Q 60.7 6.65 60.5 6.05 60.3 5.6 59.85 5.35 59.5 5.1 58.8 5.1 58.3 5.1 57.8 5.35
M 58.8 5.5
Q 59.45 5.5 59.8 5.85 60.2 6.25 60.2 6.9
L 57.35 6.9 57.5 6.25
Q 57.8 5.85 58.05 5.7 58.3 5.5 58.8 5.5 Z"/>
</g>

<g id="BDM_300x250_FR_psd_Asset_6_V7_1_Vous_souhaitez_en_savoir__plus_sur_votre_client_le__0_Layer0_0_MEMBER_37_FILL">
<path fill="#D82C26" stroke="none" d="
M 62.15 5.2
L 61.65 5.2 61.7 9.2 62.2 9.2 62.2 7.15
Q 62.2 6.6 62.4 6.25 62.5 5.95 62.85 5.7 63.25 5.5 63.55 5.5 64.1 5.5 64.35 5.9 64.6 6.3 64.6 6.9
L 64.6 9.2 65.1 9.2 65.1 6.75
Q 65.1 6.05 64.75 5.55 64.4 5.1 63.65 5.1 63.15 5.1 62.75 5.35 62.35 5.65 62.2 6.05
L 62.15 5.2 Z"/>
</g>

<g id="BDM_300x250_FR_psd_Asset_6_V7_1_Vous_souhaitez_en_savoir__plus_sur_votre_client_le__0_Layer0_0_MEMBER_38_FILL">
<path fill="#D82C26" stroke="none" d="
M 66.4 4.25
L 66.4 5.2 65.8 5.2 65.7 5.6 66.4 5.6 66.4 8.2
Q 66.4 8.65 66.65 9 67 9.25 67.35 9.25
L 67.8 9.2 68.2 9.05 68.15 8.7 67.5 8.85
Q 67.3 8.85 67.05 8.7 66.9 8.5 66.9 8.15
L 66.9 5.6 67.95 5.6 68.05 5.2 66.9 5.2 66.9 4.05 66.4 4.25 Z"/>
</g>

<g id="BDM_300x250_FR_psd_Asset_6_V7_1_Vous_souhaitez_en_savoir__plus_sur_votre_client_le__0_Layer0_0_MEMBER_39_FILL">
<path fill="#D82C26" stroke="none" d="
M 69.45 3.15
L 70.5 4.4 70.9 4.4 70 3.15 69.45 3.15
M 72.15 6.05
Q 71.9 5.55 71.5 5.35 71.15 5.1 70.5 5.1 70 5.1 69.5 5.35 69.05 5.65 68.75 6.1 68.5 6.6 68.5 7.15 68.5 7.8 68.8 8.25 69 8.7 69.5 9.05 70 9.3 70.55 9.3 71.5 9.3 72.15 8.8
L 72.05 8.35 71.4 8.75
Q 71.05 8.9 70.6 8.9 70.15 8.9 69.75 8.65 69.35 8.35 69.2 8.1 69 7.6 69 7.25
L 72.35 7.25 72.35 7.05
Q 72.35 6.45 72.15 6.05
M 71.5 5.85
Q 71.9 6.35 71.9 6.9
L 69 6.9
Q 69 6.75 69.2 6.25 69.35 5.95 69.7 5.7 69.95 5.5 70.5 5.5 71.15 5.5 71.5 5.85 Z"/>
</g>

<g id="BDM_300x250_FR_psd_Asset_6_V7_1_Vous_souhaitez_en_savoir__plus_sur_votre_client_le__0_Layer0_0_MEMBER_40_FILL">
<path fill="#D82C26" stroke="none" d="
M 73.55 8.95
Q 73.7 9.2 74 9.25
L 74.25 8.85
Q 74.05 8.8 73.95 8.6 73.85 8.4 73.85 8.2
L 73.85 2.7 73.35 2.8 73.35 8.3
Q 73.35 8.55 73.55 8.95 Z"/>
</g>

<g id="BDM_300x250_FR_psd_Asset_6_V7_1_Vous_souhaitez_en_savoir__plus_sur_votre_client_le__0_Layer0_0_MEMBER_41_FILL">
<path fill="#D82C26" stroke="none" d="
M 77.9 5.35
Q 77.55 5.1 76.85 5.1 76.35 5.1 75.85 5.35 75.5 5.6 75.15 6.1 74.9 6.6 74.9 7.15 74.9 7.75 75.15 8.25 75.45 8.75 75.9 9.05 76.4 9.3 76.95 9.3 77.85 9.3 78.5 8.8
L 78.45 8.35 77.8 8.75
Q 77.45 8.9 76.95 8.9 76.55 8.9 76.15 8.65 75.8 8.45 75.6 8.1 75.4 7.75 75.4 7.25
L 78.75 7.25 78.75 7.05
Q 78.75 6.45 78.55 6.05 78.35 5.6 77.9 5.35
M 76.85 5.5
Q 77.55 5.5 77.9 5.85 78.25 6.25 78.3 6.9
L 75.4 6.9
Q 75.4 6.6 75.6 6.25 75.8 5.9 76.1 5.7 76.35 5.5 76.85 5.5 Z"/>
</g>

<g id="BDM_300x250_FR_psd_Asset_6_V7_1_Vous_souhaitez_en_savoir__plus_sur_votre_client_le__0_Layer0_0_MEMBER_42_FILL">
<path fill="#D82C26" stroke="none" d="
M 80.25 9.1
Q 80.35 9.25 80.5 9.25 80.7 9.25 80.75 9.1 80.85 9.05 80.85 8.85 80.85 8.65 80.75 8.6 80.7 8.5 80.5 8.5 80.3 8.5 80.25 8.6 80.15 8.65 80.15 8.85 80.15 9.05 80.25 9.1
M 81.55 5
L 81.35 5.35 80.9 5.8
Q 80.6 6.1 80.4 6.5 80.25 6.8 80.25 7.2
L 80.25 7.45 80.7 7.45 80.7 7.3 80.75 6.8 80.95 6.45
Q 81.15 6.15 81.35 6
L 81.8 5.5 82.05 5.1
Q 82.15 4.9 82.15 4.5 82.15 4.05 81.95 3.7 81.65 3.35 81.35 3.2 81 3.05 80.55 3.05 79.9 3.05 79.55 3.25 79.2 3.4 78.8 3.75
L 79.05 4.15
Q 79.35 3.85 79.7 3.7 79.95 3.5 80.5 3.5 80.95 3.5 81.3 3.75 81.65 4.05 81.65 4.5
L 81.55 5 Z"/>
</g>
</defs>

<g transform="matrix( 1, 0, 0, 1, -286,-104) ">
<g transform="matrix( 1, 0, 0, 1, 281,121) ">
<g transform="matrix( 1, 0, 0, 1, 27,5) ">
<g transform="matrix( 2.815704345703125, 0, 0, 2.832611083984375, 0.15,18.6) ">
<use xlink:href="#BDM_300x250_FR_psd_Asset_6_V7_1_Vous_souhaitez_en_savoir__plus_sur_votre_client_le__0_Layer0_0_MEMBER_0_FILL"/>
</g>

<g transform="matrix( 2.815704345703125, 0, 0, 2.832611083984375, 0.15,18.6) ">
<use xlink:href="#BDM_300x250_FR_psd_Asset_6_V7_1_Vous_souhaitez_en_savoir__plus_sur_votre_client_le__0_Layer0_0_MEMBER_1_FILL"/>
</g>

<g transform="matrix( 2.815704345703125, 0, 0, 2.832611083984375, 0.15,18.6) ">
<use xlink:href="#BDM_300x250_FR_psd_Asset_6_V7_1_Vous_souhaitez_en_savoir__plus_sur_votre_client_le__0_Layer0_0_MEMBER_2_FILL"/>
</g>

<g transform="matrix( 2.815704345703125, 0, 0, 2.832611083984375, 0.15,18.6) ">
<use xlink:href="#BDM_300x250_FR_psd_Asset_6_V7_1_Vous_souhaitez_en_savoir__plus_sur_votre_client_le__0_Layer0_0_MEMBER_3_FILL"/>
</g>

<g transform="matrix( 2.815704345703125, 0, 0, 2.832611083984375, 0.15,18.6) ">
<use xlink:href="#BDM_300x250_FR_psd_Asset_6_V7_1_Vous_souhaitez_en_savoir__plus_sur_votre_client_le__0_Layer0_0_MEMBER_4_FILL"/>
</g>

<g transform="matrix( 2.815704345703125, 0, 0, 2.832611083984375, 0.15,18.6) ">
<use xlink:href="#BDM_300x250_FR_psd_Asset_6_V7_1_Vous_souhaitez_en_savoir__plus_sur_votre_client_le__0_Layer0_0_MEMBER_5_FILL"/>
</g>

<g transform="matrix( 2.815704345703125, 0, 0, 2.832611083984375, 0.15,18.6) ">
<use xlink:href="#BDM_300x250_FR_psd_Asset_6_V7_1_Vous_souhaitez_en_savoir__plus_sur_votre_client_le__0_Layer0_0_MEMBER_6_FILL"/>
</g>

<g transform="matrix( 2.815704345703125, 0, 0, 2.832611083984375, 0.15,18.6) ">
<use xlink:href="#BDM_300x250_FR_psd_Asset_6_V7_1_Vous_souhaitez_en_savoir__plus_sur_votre_client_le__0_Layer0_0_MEMBER_7_FILL"/>
</g>

<g transform="matrix( 2.815704345703125, 0, 0, 2.832611083984375, 0.15,18.6) ">
<use xlink:href="#BDM_300x250_FR_psd_Asset_6_V7_1_Vous_souhaitez_en_savoir__plus_sur_votre_client_le__0_Layer0_0_MEMBER_8_FILL"/>
</g>

<g transform="matrix( 2.815704345703125, 0, 0, 2.832611083984375, 0.15,18.6) ">
<use xlink:href="#BDM_300x250_FR_psd_Asset_6_V7_1_Vous_souhaitez_en_savoir__plus_sur_votre_client_le__0_Layer0_0_MEMBER_9_FILL"/>
</g>

<g transform="matrix( 2.815704345703125, 0, 0, 2.832611083984375, 0.15,18.6) ">
<use xlink:href="#BDM_300x250_FR_psd_Asset_6_V7_1_Vous_souhaitez_en_savoir__plus_sur_votre_client_le__0_Layer0_0_MEMBER_10_FILL"/>
</g>

<g transform="matrix( 2.815704345703125, 0, 0, 2.832611083984375, 0.15,18.6) ">
<use xlink:href="#BDM_300x250_FR_psd_Asset_6_V7_1_Vous_souhaitez_en_savoir__plus_sur_votre_client_le__0_Layer0_0_MEMBER_11_FILL"/>
</g>

<g transform="matrix( 2.815704345703125, 0, 0, 2.832611083984375, 0.15,18.6) ">
<use xlink:href="#BDM_300x250_FR_psd_Asset_6_V7_1_Vous_souhaitez_en_savoir__plus_sur_votre_client_le__0_Layer0_0_MEMBER_12_FILL"/>
</g>

<g transform="matrix( 2.815704345703125, 0, 0, 2.832611083984375, 0.15,18.6) ">
<use xlink:href="#BDM_300x250_FR_psd_Asset_6_V7_1_Vous_souhaitez_en_savoir__plus_sur_votre_client_le__0_Layer0_0_MEMBER_13_FILL"/>
</g>

<g transform="matrix( 2.815704345703125, 0, 0, 2.832611083984375, 0.15,18.6) ">
<use xlink:href="#BDM_300x250_FR_psd_Asset_6_V7_1_Vous_souhaitez_en_savoir__plus_sur_votre_client_le__0_Layer0_0_MEMBER_14_FILL"/>
</g>

<g transform="matrix( 2.815704345703125, 0, 0, 2.832611083984375, 0.15,18.6) ">
<use xlink:href="#BDM_300x250_FR_psd_Asset_6_V7_1_Vous_souhaitez_en_savoir__plus_sur_votre_client_le__0_Layer0_0_MEMBER_15_FILL"/>
</g>

<g transform="matrix( 2.815704345703125, 0, 0, 2.832611083984375, 0.15,18.6) ">
<use xlink:href="#BDM_300x250_FR_psd_Asset_6_V7_1_Vous_souhaitez_en_savoir__plus_sur_votre_client_le__0_Layer0_0_MEMBER_16_FILL"/>
</g>

<g transform="matrix( 2.815704345703125, 0, 0, 2.832611083984375, 0.15,18.6) ">
<use xlink:href="#BDM_300x250_FR_psd_Asset_6_V7_1_Vous_souhaitez_en_savoir__plus_sur_votre_client_le__0_Layer0_0_MEMBER_17_FILL"/>
</g>

<g transform="matrix( 2.815704345703125, 0, 0, 2.832611083984375, 0.15,18.6) ">
<use xlink:href="#BDM_300x250_FR_psd_Asset_6_V7_1_Vous_souhaitez_en_savoir__plus_sur_votre_client_le__0_Layer0_0_MEMBER_18_FILL"/>
</g>

<g transform="matrix( 2.815704345703125, 0, 0, 2.832611083984375, 0.15,18.6) ">
<use xlink:href="#BDM_300x250_FR_psd_Asset_6_V7_1_Vous_souhaitez_en_savoir__plus_sur_votre_client_le__0_Layer0_0_MEMBER_19_FILL"/>
</g>

<g transform="matrix( 2.815704345703125, 0, 0, 2.832611083984375, 0.15,18.6) ">
<use xlink:href="#BDM_300x250_FR_psd_Asset_6_V7_1_Vous_souhaitez_en_savoir__plus_sur_votre_client_le__0_Layer0_0_MEMBER_20_FILL"/>
</g>

<g transform="matrix( 2.815704345703125, 0, 0, 2.832611083984375, 0.15,18.6) ">
<use xlink:href="#BDM_300x250_FR_psd_Asset_6_V7_1_Vous_souhaitez_en_savoir__plus_sur_votre_client_le__0_Layer0_0_MEMBER_21_FILL"/>
</g>

<g transform="matrix( 2.815704345703125, 0, 0, 2.832611083984375, 0.15,18.6) ">
<use xlink:href="#BDM_300x250_FR_psd_Asset_6_V7_1_Vous_souhaitez_en_savoir__plus_sur_votre_client_le__0_Layer0_0_MEMBER_22_FILL"/>
</g>

<g transform="matrix( 2.815704345703125, 0, 0, 2.832611083984375, 0.15,18.6) ">
<use xlink:href="#BDM_300x250_FR_psd_Asset_6_V7_1_Vous_souhaitez_en_savoir__plus_sur_votre_client_le__0_Layer0_0_MEMBER_23_FILL"/>
</g>

<g transform="matrix( 2.815704345703125, 0, 0, 2.832611083984375, 0.15,18.6) ">
<use xlink:href="#BDM_300x250_FR_psd_Asset_6_V7_1_Vous_souhaitez_en_savoir__plus_sur_votre_client_le__0_Layer0_0_MEMBER_24_FILL"/>
</g>

<g transform="matrix( 2.815704345703125, 0, 0, 2.832611083984375, 0.15,18.6) ">
<use xlink:href="#BDM_300x250_FR_psd_Asset_6_V7_1_Vous_souhaitez_en_savoir__plus_sur_votre_client_le__0_Layer0_0_MEMBER_25_FILL"/>
</g>

<g transform="matrix( 2.815704345703125, 0, 0, 2.832611083984375, 0.15,18.6) ">
<use xlink:href="#BDM_300x250_FR_psd_Asset_6_V7_1_Vous_souhaitez_en_savoir__plus_sur_votre_client_le__0_Layer0_0_MEMBER_26_FILL"/>
</g>

<g transform="matrix( 2.815704345703125, 0, 0, 2.832611083984375, 0.15,18.6) ">
<use xlink:href="#BDM_300x250_FR_psd_Asset_6_V7_1_Vous_souhaitez_en_savoir__plus_sur_votre_client_le__0_Layer0_0_MEMBER_27_FILL"/>
</g>

<g transform="matrix( 2.815704345703125, 0, 0, 2.832611083984375, 0.15,18.6) ">
<use xlink:href="#BDM_300x250_FR_psd_Asset_6_V7_1_Vous_souhaitez_en_savoir__plus_sur_votre_client_le__0_Layer0_0_MEMBER_28_FILL"/>
</g>

<g transform="matrix( 2.815704345703125, 0, 0, 2.832611083984375, 0.15,18.6) ">
<use xlink:href="#BDM_300x250_FR_psd_Asset_6_V7_1_Vous_souhaitez_en_savoir__plus_sur_votre_client_le__0_Layer0_0_MEMBER_29_FILL"/>
</g>

<g transform="matrix( 2.815704345703125, 0, 0, 2.832611083984375, 0.15,18.6) ">
<use xlink:href="#BDM_300x250_FR_psd_Asset_6_V7_1_Vous_souhaitez_en_savoir__plus_sur_votre_client_le__0_Layer0_0_MEMBER_30_FILL"/>
</g>

<g transform="matrix( 2.815704345703125, 0, 0, 2.832611083984375, 0.15,18.6) ">
<use xlink:href="#BDM_300x250_FR_psd_Asset_6_V7_1_Vous_souhaitez_en_savoir__plus_sur_votre_client_le__0_Layer0_0_MEMBER_31_FILL"/>
</g>

<g transform="matrix( 2.815704345703125, 0, 0, 2.832611083984375, 0.15,18.6) ">
<use xlink:href="#BDM_300x250_FR_psd_Asset_6_V7_1_Vous_souhaitez_en_savoir__plus_sur_votre_client_le__0_Layer0_0_MEMBER_32_FILL"/>
</g>

<g transform="matrix( 2.815704345703125, 0, 0, 2.832611083984375, 0.15,18.6) ">
<use xlink:href="#BDM_300x250_FR_psd_Asset_6_V7_1_Vous_souhaitez_en_savoir__plus_sur_votre_client_le__0_Layer0_0_MEMBER_33_FILL"/>
</g>

<g transform="matrix( 2.815704345703125, 0, 0, 2.832611083984375, 0.15,18.6) ">
<use xlink:href="#BDM_300x250_FR_psd_Asset_6_V7_1_Vous_souhaitez_en_savoir__plus_sur_votre_client_le__0_Layer0_0_MEMBER_34_FILL"/>
</g>

<g transform="matrix( 2.815704345703125, 0, 0, 2.832611083984375, 0.15,18.6) ">
<use xlink:href="#BDM_300x250_FR_psd_Asset_6_V7_1_Vous_souhaitez_en_savoir__plus_sur_votre_client_le__0_Layer0_0_MEMBER_35_FILL"/>
</g>

<g transform="matrix( 2.815704345703125, 0, 0, 2.832611083984375, 0.15,18.6) ">
<use xlink:href="#BDM_300x250_FR_psd_Asset_6_V7_1_Vous_souhaitez_en_savoir__plus_sur_votre_client_le__0_Layer0_0_MEMBER_36_FILL"/>
</g>

<g transform="matrix( 2.815704345703125, 0, 0, 2.832611083984375, 0.15,18.6) ">
<use xlink:href="#BDM_300x250_FR_psd_Asset_6_V7_1_Vous_souhaitez_en_savoir__plus_sur_votre_client_le__0_Layer0_0_MEMBER_37_FILL"/>
</g>

<g transform="matrix( 2.815704345703125, 0, 0, 2.832611083984375, 0.15,18.6) ">
<use xlink:href="#BDM_300x250_FR_psd_Asset_6_V7_1_Vous_souhaitez_en_savoir__plus_sur_votre_client_le__0_Layer0_0_MEMBER_38_FILL"/>
</g>

<g transform="matrix( 2.815704345703125, 0, 0, 2.832611083984375, 0.15,18.6) ">
<use xlink:href="#BDM_300x250_FR_psd_Asset_6_V7_1_Vous_souhaitez_en_savoir__plus_sur_votre_client_le__0_Layer0_0_MEMBER_39_FILL"/>
</g>

<g transform="matrix( 2.815704345703125, 0, 0, 2.832611083984375, 0.15,18.6) ">
<use xlink:href="#BDM_300x250_FR_psd_Asset_6_V7_1_Vous_souhaitez_en_savoir__plus_sur_votre_client_le__0_Layer0_0_MEMBER_40_FILL"/>
</g>

<g transform="matrix( 2.815704345703125, 0, 0, 2.832611083984375, 0.15,18.6) ">
<use xlink:href="#BDM_300x250_FR_psd_Asset_6_V7_1_Vous_souhaitez_en_savoir__plus_sur_votre_client_le__0_Layer0_0_MEMBER_41_FILL"/>
</g>

<g transform="matrix( 2.815704345703125, 0, 0, 2.832611083984375, 0.15,18.6) ">
<use xlink:href="#BDM_300x250_FR_psd_Asset_6_V7_1_Vous_souhaitez_en_savoir__plus_sur_votre_client_le__0_Layer0_0_MEMBER_42_FILL"/>
</g>
</g>
</g>
</g>
</svg>
