
<svg xmlns="http://www.w3.org/2000/svg" version="1.1" xmlns:xlink="http://www.w3.org/1999/xlink" preserveAspectRatio="none" x="0px" y="0px" width="160px" height="600px" viewBox="0 0 160 600">
<defs>
<g id="BDM_160x600_psd_Asset_2_ManagedWiFi_Awareness_DM6_2_Improve__customer__satisfaction__and_increase__consumer__engage_0_Layer0_0_MEMBER_0_FILL">
<path fill="#D82C26" stroke="none" d="
M 1.15 -5.25
L 0.7 -5.25 0.7 0 1.15 0 1.15 -5.25 Z"/>
</g>

<g id="BDM_160x600_psd_Asset_2_ManagedWiFi_Awareness_DM6_2_Improve__customer__satisfaction__and_increase__consumer__engage_0_Layer0_0_MEMBER_1_FILL">
<path fill="#D82C26" stroke="none" d="
M 4.7 -3.35
Q 4.45 -3.55 3.95 -3.55 3.5 -3.55 3.25 -3.35 2.9 -3.15 2.75 -2.7
L 2.7 -3.45 2.3 -3.45 2.35 0 2.75 0 2.75 -1.75
Q 2.75 -2.2 2.9 -2.5 3 -2.75 3.3 -3.05 3.55 -3.2 3.85 -3.2 4.3 -3.2 4.5 -2.9 4.75 -2.55 4.75 -2.05
L 4.75 0 5.15 0 5.15 -1.8
Q 5.15 -2.4 5.45 -2.8 5.8 -3.2 6.25 -3.2 6.8 -3.2 6.95 -2.85 7.2 -2.45 7.2 -2
L 7.2 0 7.6 0 7.6 -2.1
Q 7.6 -2.7 7.3 -3.15 7.05 -3.55 6.35 -3.55 5.85 -3.55 5.6 -3.35 5.3 -3.15 5.1 -2.7
L 4.7 -3.35 Z"/>
</g>

<g id="BDM_160x600_psd_Asset_2_ManagedWiFi_Awareness_DM6_2_Improve__customer__satisfaction__and_increase__consumer__engage_0_Layer0_0_MEMBER_2_FILL">
<path fill="#D82C26" stroke="none" d="
M 9.05 -3.45
L 8.6 -3.45 8.65 -2.85 8.65 1.8 9.1 1.8 9.1 -0.75
Q 9.4 -0.25 9.7 -0.15 10.1 0.1 10.5 0.1 11 0.1 11.4 -0.15 11.75 -0.35 12.05 -0.8 12.25 -1.4 12.25 -1.75 12.25 -2.15 12.05 -2.65 11.85 -3.05 11.4 -3.35 11.05 -3.55 10.5 -3.55 10.05 -3.55 9.65 -3.35 9.35 -3.15 9.1 -2.7
L 9.05 -2.7 9.05 -3.45
M 9.25 -2.45
Q 9.4 -2.8 9.75 -3 10 -3.2 10.45 -3.2 10.9 -3.2 11.15 -3 11.4 -2.9 11.65 -2.45 11.8 -2.15 11.8 -1.75 11.8 -1.3 11.65 -1 11.45 -0.7 11.15 -0.45 10.75 -0.25 10.45 -0.25 10.15 -0.25 9.75 -0.45 9.4 -0.7 9.25 -1 9.05 -1.4 9.05 -1.75 9.05 -2.05 9.25 -2.45 Z"/>
</g>

<g id="BDM_160x600_psd_Asset_2_ManagedWiFi_Awareness_DM6_2_Improve__customer__satisfaction__and_increase__consumer__engage_0_Layer0_0_MEMBER_3_FILL">
<path fill="#D82C26" stroke="none" d="
M 13.45 -3.45
L 13.05 -3.45 13.1 0 13.55 0 13.55 -1.75
Q 13.55 -2.45 13.8 -2.75 14.05 -3.2 14.5 -3.2
L 14.8 -3.15 14.9 -3.5 14.55 -3.55
Q 14.2 -3.55 13.95 -3.35 13.65 -3.1 13.5 -2.7
L 13.45 -3.45 Z"/>
</g>

<g id="BDM_160x600_psd_Asset_2_ManagedWiFi_Awareness_DM6_2_Improve__customer__satisfaction__and_increase__consumer__engage_0_Layer0_0_MEMBER_4_FILL">
<path fill="#D82C26" stroke="none" d="
M 16.9 -3.6
Q 16.35 -3.6 15.95 -3.35 15.6 -3.15 15.3 -2.7 15.05 -2.3 15.05 -1.75 15.05 -1.1 15.3 -0.8 15.5 -0.35 15.95 -0.15 16.35 0.1 16.9 0.1 17.35 0.1 17.85 -0.15 18.3 -0.45 18.5 -0.8 18.75 -1.2 18.75 -1.75 18.75 -2.2 18.5 -2.7 18.25 -3.1 17.85 -3.35 17.35 -3.6 16.9 -3.6
M 17.65 -0.45
Q 17.25 -0.25 16.9 -0.25 16.55 -0.25 16.15 -0.45 15.8 -0.7 15.65 -1
L 15.5 -1.75 15.65 -2.5
Q 15.8 -2.85 16.15 -3 16.4 -3.2 16.9 -3.2 17.3 -3.2 17.65 -3 17.85 -2.9 18.15 -2.5
L 18.3 -1.75 18.15 -1 17.65 -0.45 Z"/>
</g>

<g id="BDM_160x600_psd_Asset_2_ManagedWiFi_Awareness_DM6_2_Improve__customer__satisfaction__and_increase__consumer__engage_0_Layer0_0_MEMBER_5_FILL">
<path fill="#D82C26" stroke="none" d="
M 19.4 -3.45
L 18.95 -3.45 20.3 0 20.8 0 22.05 -3.45 21.65 -3.45 20.55 -0.45 19.4 -3.45 Z"/>
</g>

<g id="BDM_160x600_psd_Asset_2_ManagedWiFi_Awareness_DM6_2_Improve__customer__satisfaction__and_increase__consumer__engage_0_Layer0_0_MEMBER_6_FILL">
<path fill="#D82C26" stroke="none" d="
M 24.9 -3.35
Q 24.5 -3.6 24 -3.6 23.55 -3.6 23.15 -3.35 22.75 -3.1 22.55 -2.7 22.3 -2.2 22.3 -1.75 22.3 -1.2 22.55 -0.8 22.75 -0.4 23.15 -0.15 23.65 0.1 24.1 0.1 24.95 0.1 25.45 -0.35
L 25.4 -0.7
Q 25 -0.45 24.85 -0.4
L 24.1 -0.25
Q 23.65 -0.25 23.4 -0.45 23.2 -0.55 22.9 -0.95 22.75 -1.3 22.75 -1.7
L 25.65 -1.7 25.7 -1.85
Q 25.7 -2.15 25.5 -2.75 25.3 -3.1 24.9 -3.35
M 24.9 -2.9
Q 25.25 -2.55 25.25 -2
L 22.75 -2
Q 22.75 -2.25 22.9 -2.55 23.05 -2.8 23.35 -3.05 23.75 -3.25 24 -3.25 24.6 -3.25 24.9 -2.9 Z"/>
</g>

<g id="BDM_160x600_psd_Asset_2_ManagedWiFi_Awareness_DM6_2_Improve__customer__satisfaction__and_increase__consumer__engage_0_Layer0_0_MEMBER_7_FILL">
<path fill="#D82C26" stroke="none" d="
M 2.25 5.6
Q 1.8 5.6 1.3 5.85 0.85 6.15 0.65 6.5 0.4 7 0.4 7.45 0.4 7.9 0.65 8.4 0.85 8.85 1.3 9.05 1.7 9.3 2.2 9.3 2.6 9.3 2.9 9.15 3.25 9.05 3.4 8.85
L 3.35 8.5
Q 3.1 8.75 2.85 8.8
L 2.25 8.9
Q 1.8 8.9 1.55 8.7 1.25 8.6 1.05 8.2 0.85 7.85 0.85 7.45 0.85 7.05 1.05 6.7 1.2 6.35 1.5 6.15 2 5.95 2.25 5.95
L 2.8 6.05 3.25 6.35 3.4 6 2.9 5.7 2.25 5.6 Z"/>
</g>

<g id="BDM_160x600_psd_Asset_2_ManagedWiFi_Awareness_DM6_2_Improve__customer__satisfaction__and_increase__consumer__engage_0_Layer0_0_MEMBER_8_FILL">
<path fill="#D82C26" stroke="none" d="
M 7 5.7
L 6.55 5.7 6.55 7.45
Q 6.55 7.9 6.4 8.25 6.2 8.65 6 8.75 5.8 8.9 5.4 8.9 4.9 8.9 4.7 8.55 4.5 8.3 4.5 7.7
L 4.5 5.7 4.05 5.7 4.05 7.8
Q 4.05 8.5 4.35 8.85 4.65 9.3 5.3 9.3 5.7 9.3 6.05 9.05 6.4 8.85 6.55 8.45
L 6.65 9.2 7.05 9.2 7 8.8 7 5.7 Z"/>
</g>

<g id="BDM_160x600_psd_Asset_2_ManagedWiFi_Awareness_DM6_2_Improve__customer__satisfaction__and_increase__consumer__engage_0_Layer0_0_MEMBER_9_FILL">
<path fill="#D82C26" stroke="none" d="
M 8.5 5.7
Q 8.2 5.85 8.05 6.05 7.9 6.3 7.9 6.55 7.9 6.95 8.15 7.15 8.25 7.25 8.85 7.55
L 9.6 7.85
Q 9.85 8 9.85 8.3 9.85 8.6 9.6 8.75 9.4 8.95 9.05 8.95 8.35 8.95 7.9 8.5
L 7.8 8.9 8.35 9.15
Q 8.65 9.3 9.05 9.3 9.35 9.3 9.65 9.15 9.85 9.1 10.05 8.8 10.25 8.6 10.25 8.25 10.25 7.9 10 7.65 9.65 7.35 9.15 7.25 8.65 7.1 8.5 6.95 8.3 6.8 8.3 6.55 8.3 6.25 8.5 6.1 8.75 5.95 9.05 5.95
L 9.55 6.05 9.95 6.3 10.15 5.95 9.65 5.7 9.05 5.6 8.5 5.7 Z"/>
</g>

<g id="BDM_160x600_psd_Asset_2_ManagedWiFi_Awareness_DM6_2_Improve__customer__satisfaction__and_increase__consumer__engage_0_Layer0_0_MEMBER_10_FILL">
<path fill="#D82C26" stroke="none" d="
M 10.6 6.05
L 11.25 6.05 11.25 8.35
Q 11.25 8.75 11.5 9 11.65 9.25 12.05 9.25
L 12.45 9.2 12.8 9.05 12.75 8.75 12.2 8.9
Q 11.95 8.9 11.85 8.75 11.7 8.6 11.7 8.3
L 11.7 6.05 12.6 6.05 12.65 5.7 11.7 5.7 11.7 4.7 11.25 4.9 11.25 5.7 10.7 5.7 10.6 6.05 Z"/>
</g>

<g id="BDM_160x600_psd_Asset_2_ManagedWiFi_Awareness_DM6_2_Improve__customer__satisfaction__and_increase__consumer__engage_0_Layer0_0_MEMBER_11_FILL">
<path fill="#D82C26" stroke="none" d="
M 14.85 5.6
Q 14.35 5.6 13.95 5.85 13.55 6.05 13.25 6.5 13.05 6.85 13.05 7.45 13.05 8 13.25 8.4 13.65 8.9 13.95 9.05 14.35 9.3 14.85 9.3 15.4 9.3 15.8 9.05 16.1 8.9 16.5 8.4 16.75 7.9 16.75 7.45 16.75 6.9 16.5 6.5 16.2 6.05 15.8 5.85 15.4 5.6 14.85 5.6
M 14.15 6.15
Q 14.55 5.95 14.85 5.95 15.2 5.95 15.6 6.15 15.95 6.35 16.1 6.7 16.3 6.95 16.3 7.45 16.3 7.9 16.1 8.15 15.95 8.55 15.6 8.7 15.35 8.9 14.85 8.9 14.4 8.9 14.15 8.7 13.8 8.55 13.65 8.15 13.45 7.9 13.45 7.45 13.45 6.95 13.65 6.7 13.8 6.35 14.15 6.15 Z"/>
</g>

<g id="BDM_160x600_psd_Asset_2_ManagedWiFi_Awareness_DM6_2_Improve__customer__satisfaction__and_increase__consumer__engage_0_Layer0_0_MEMBER_12_FILL">
<path fill="#D82C26" stroke="none" d="
M 21.6 5.6
Q 21.2 5.6 20.85 5.85 20.5 6.05 20.35 6.5 20.2 6.1 19.9 5.85 19.65 5.6 19.2 5.6 18.85 5.6 18.45 5.85 18.15 6.1 18 6.45
L 17.95 5.7 17.55 5.7 17.55 9.2 18 9.2 18 7.45
Q 18 7.05 18.15 6.65 18.35 6.3 18.55 6.15 18.85 5.95 19.1 5.95 19.55 5.95 19.75 6.25 19.95 6.5 19.95 7.15
L 19.95 9.2 20.4 9.2 20.4 7.4
Q 20.4 6.75 20.7 6.35 21 5.95 21.5 5.95 21.95 5.95 22.2 6.3 22.4 6.65 22.4 7.2
L 22.4 9.2 22.85 9.2 22.85 7.1
Q 22.85 6.45 22.55 6.05 22.25 5.6 21.6 5.6 Z"/>
</g>

<g id="BDM_160x600_psd_Asset_2_ManagedWiFi_Awareness_DM6_2_Improve__customer__satisfaction__and_increase__consumer__engage_0_Layer0_0_MEMBER_13_FILL">
<path fill="#D82C26" stroke="none" d="
M 26.25 5.85
Q 25.95 5.6 25.4 5.6 24.9 5.6 24.5 5.85 24.1 6.1 23.9 6.5 23.65 6.9 23.65 7.4 23.65 7.9 23.9 8.4 24.15 8.85 24.5 9.05 25 9.3 25.45 9.3 26.25 9.3 26.85 8.85
L 26.75 8.45 26.2 8.8 25.5 8.95
Q 25.15 8.95 24.75 8.75 24.45 8.5 24.25 8.2 24.1 7.9 24.1 7.5
L 27.05 7.5 27.05 7.3
Q 27.05 6.95 26.85 6.45 26.65 6.1 26.25 5.85
M 24.1 7.2
Q 24.1 6.9 24.25 6.6 24.5 6.25 24.7 6.15 24.95 5.95 25.4 5.95 25.95 5.95 26.25 6.3 26.6 6.6 26.6 7.2
L 24.1 7.2 Z"/>
</g>

<g id="BDM_160x600_psd_Asset_2_ManagedWiFi_Awareness_DM6_2_Improve__customer__satisfaction__and_increase__consumer__engage_0_Layer0_0_MEMBER_14_FILL">
<path fill="#D82C26" stroke="none" d="
M 28.25 5.7
L 27.8 5.7 27.85 9.2 28.3 9.2 28.3 7.45
Q 28.3 6.9 28.55 6.4 28.85 6 29.25 6
L 29.6 6.05 29.65 5.65 29.3 5.6
Q 29.05 5.6 28.7 5.85 28.45 6 28.3 6.45
L 28.25 6.45 28.25 5.7 Z"/>
</g>

<g id="BDM_160x600_psd_Asset_2_ManagedWiFi_Awareness_DM6_2_Improve__customer__satisfaction__and_increase__consumer__engage_0_Layer0_0_MEMBER_15_FILL">
<path fill="#D82C26" stroke="none" d="
M 2.55 15.45
L 2.75 15.15 2.25 14.9
Q 2.05 14.8 1.6 14.8 1.25 14.8 1.05 14.9 0.8 15 0.65 15.2 0.45 15.5 0.45 15.75 0.45 16.1 0.7 16.35 0.95 16.55 1.45 16.7 1.85 16.8 2.2 17.05 2.4 17.2 2.4 17.45 2.4 17.75 2.2 17.95 2 18.1 1.65 18.1 1 18.1 0.5 17.7
L 0.4 18.05
Q 0.45 18.1 0.95 18.35
L 1.65 18.45 2.25 18.35
Q 2.55 18.15 2.65 18 2.85 17.8 2.85 17.45 2.85 17.1 2.55 16.85 2.3 16.6 1.75 16.4
L 1.1 16.1
Q 0.9 15.95 0.9 15.7 0.9 15.4 1.1 15.25 1.25 15.15 1.65 15.15
L 2.15 15.2 2.55 15.45 Z"/>
</g>

<g id="BDM_160x600_psd_Asset_2_ManagedWiFi_Awareness_DM6_2_Improve__customer__satisfaction__and_increase__consumer__engage_0_Layer0_0_MEMBER_16_FILL">
<path fill="#D82C26" stroke="none" d="
M 5.85 16.05
L 5.85 16.25 5.4 16.25
Q 3.45 16.25 3.45 17.4 3.45 17.9 3.75 18.2 4.1 18.45 4.55 18.45 5.05 18.45 5.3 18.25 5.7 18.1 5.85 17.7
L 5.85 18.05 5.9 18.35 6.3 18.35 6.25 16.1
Q 6.25 15.45 5.9 15.1 5.55 14.8 4.9 14.8 4.45 14.8 4.2 14.9
L 3.6 15.2 3.75 15.55 4.25 15.25
Q 4.45 15.15 4.85 15.15 5.35 15.15 5.55 15.35 5.85 15.65 5.85 16.05
M 5.85 16.55
L 5.85 16.9
Q 5.85 17.2 5.7 17.5
L 5.3 17.95
Q 4.9 18.15 4.6 18.15 4.35 18.15 4.05 17.95 3.85 17.8 3.85 17.4 3.85 16.55 5.45 16.55
L 5.85 16.55 Z"/>
</g>

<g id="BDM_160x600_psd_Asset_2_ManagedWiFi_Awareness_DM6_2_Improve__customer__satisfaction__and_increase__consumer__engage_0_Layer0_0_MEMBER_17_FILL">
<path fill="#D82C26" stroke="none" d="
M 7.8 14.9
L 7.8 13.9 7.35 14.05 7.35 14.9 6.8 14.9 6.7 15.25 7.35 15.25 7.35 17.5
Q 7.35 17.95 7.6 18.2 7.85 18.45 8.15 18.45
L 8.55 18.4 8.9 18.25 8.85 17.9
Q 8.45 18.1 8.3 18.1 8.05 18.1 7.95 17.95 7.8 17.8 7.8 17.45
L 7.8 15.25 8.7 15.25 8.8 14.9 7.8 14.9 Z"/>
</g>

<g id="BDM_160x600_psd_Asset_2_ManagedWiFi_Awareness_DM6_2_Improve__customer__satisfaction__and_increase__consumer__engage_0_Layer0_0_MEMBER_18_FILL">
<path fill="#D82C26" stroke="none" d="
M 9.95 14.9
L 9.5 14.9 9.5 18.35 9.95 18.35 9.95 14.9
M 9.7 13.8
Q 9.85 13.8 9.95 13.7
L 10.05 13.5 9.95 13.25 9.7 13.2
Q 9.55 13.2 9.5 13.3
L 9.4 13.5 9.5 13.7
Q 9.55 13.8 9.7 13.8 Z"/>
</g>

<g id="BDM_160x600_psd_Asset_2_ManagedWiFi_Awareness_DM6_2_Improve__customer__satisfaction__and_increase__consumer__engage_0_Layer0_0_MEMBER_19_FILL">
<path fill="#D82C26" stroke="none" d="
M 12.85 15.45
L 13.05 15.15 12.55 14.9
Q 12.35 14.8 11.95 14.8 11.55 14.8 11.4 14.9 11.1 15 10.95 15.2 10.8 15.45 10.8 15.75 10.8 16.1 11.05 16.35 11.25 16.55 11.8 16.7
L 12.5 17.05
Q 12.75 17.2 12.75 17.45 12.75 17.7 12.5 17.95 12.3 18.1 11.95 18.1 11.3 18.1 10.8 17.7
L 10.75 18.05
Q 10.8 18.15 11.25 18.35
L 11.95 18.45 12.55 18.35 13 18
Q 13.15 17.8 13.15 17.45 13.15 17.1 12.9 16.85
L 11.4 16.1
Q 11.2 15.95 11.2 15.7 11.2 15.4 11.4 15.25 11.55 15.15 11.95 15.15
L 12.45 15.2 12.85 15.45 Z"/>
</g>

<g id="BDM_160x600_psd_Asset_2_ManagedWiFi_Awareness_DM6_2_Improve__customer__satisfaction__and_increase__consumer__engage_0_Layer0_0_MEMBER_20_FILL">
<path fill="#D82C26" stroke="none" d="
M 15.95 12.75
L 15.35 12.65
Q 14.85 12.65 14.55 12.95 14.25 13.25 14.25 13.9
L 14.25 14.9 13.65 14.9 13.55 15.25 14.25 15.25 14.25 18.35 14.7 18.35 14.7 15.25 15.5 15.25 15.6 14.9 14.7 14.9 14.7 13.9
Q 14.7 13.55 14.85 13.25 15 13 15.35 13
L 15.9 13.1 15.95 12.75 Z"/>
</g>

<g id="BDM_160x600_psd_Asset_2_ManagedWiFi_Awareness_DM6_2_Improve__customer__satisfaction__and_increase__consumer__engage_0_Layer0_0_MEMBER_21_FILL">
<path fill="#D82C26" stroke="none" d="
M 16.75 15.25
Q 16.95 15.15 17.35 15.15 17.85 15.15 18.05 15.35 18.35 15.65 18.35 16.05
L 18.35 16.25 17.9 16.25
Q 15.9 16.25 15.9 17.4 15.9 17.9 16.25 18.2 16.6 18.45 17 18.45 17.45 18.45 17.8 18.25 18.15 18.1 18.3 17.7
L 18.35 17.7 18.35 18.05 18.4 18.35 18.8 18.35 18.75 16.1
Q 18.75 15.55 18.4 15.1 18.05 14.8 17.4 14.8 16.9 14.8 16.7 14.9 16.5 14.95 16.1 15.2
L 16.25 15.55 16.75 15.25
M 16.55 17.95
Q 16.35 17.8 16.35 17.4 16.35 16.55 17.95 16.55
L 18.35 16.55 18.35 16.9
Q 18.35 17.2 18.2 17.5
L 17.8 17.95
Q 17.4 18.15 17.1 18.15 16.85 18.15 16.55 17.95 Z"/>
</g>

<g id="BDM_160x600_psd_Asset_2_ManagedWiFi_Awareness_DM6_2_Improve__customer__satisfaction__and_increase__consumer__engage_0_Layer0_0_MEMBER_22_FILL">
<path fill="#D82C26" stroke="none" d="
M 21.35 14.8
Q 20.8 14.8 20.4 15 20.15 15.15 19.75 15.65 19.55 16.05 19.55 16.6 19.55 17.2 19.75 17.6 19.9 17.85 20.4 18.25 20.8 18.45 21.35 18.45
L 22 18.35 22.55 18.05 22.45 17.7 21.95 18 21.4 18.1
Q 21.05 18.1 20.65 17.9 20.25 17.6 20.15 17.35 20 17.05 20 16.6 20 16.2 20.15 15.9 20.25 15.65 20.65 15.35 20.9 15.15 21.35 15.15
L 21.9 15.25
Q 22.2 15.35 22.35 15.55
L 22.55 15.2
Q 22.3 14.95 22 14.9 21.8 14.8 21.35 14.8 Z"/>
</g>

<g id="BDM_160x600_psd_Asset_2_ManagedWiFi_Awareness_DM6_2_Improve__customer__satisfaction__and_increase__consumer__engage_0_Layer0_0_MEMBER_23_FILL">
<path fill="#D82C26" stroke="none" d="
M 23.5 14.05
L 23.5 14.9 22.95 14.9 22.85 15.25 23.5 15.25 23.5 17.5
Q 23.5 17.95 23.75 18.2 24 18.45 24.3 18.45
L 24.7 18.4 25.05 18.25 25 17.9
Q 24.6 18.1 24.45 18.1 24.2 18.1 24.1 17.95 23.95 17.8 23.95 17.45
L 23.95 15.25 24.85 15.25 24.95 14.9 23.95 14.9 23.95 13.9 23.5 14.05 Z"/>
</g>

<g id="BDM_160x600_psd_Asset_2_ManagedWiFi_Awareness_DM6_2_Improve__customer__satisfaction__and_increase__consumer__engage_0_Layer0_0_MEMBER_24_FILL">
<path fill="#D82C26" stroke="none" d="
M 26.1 14.9
L 25.65 14.9 25.65 18.35 26.1 18.35 26.1 14.9
M 25.85 13.8
Q 26 13.8 26.1 13.7
L 26.15 13.5 26.1 13.25 25.85 13.2
Q 25.7 13.2 25.65 13.3
L 25.55 13.5 25.65 13.7
Q 25.7 13.8 25.85 13.8 Z"/>
</g>

<g id="BDM_160x600_psd_Asset_2_ManagedWiFi_Awareness_DM6_2_Improve__customer__satisfaction__and_increase__consumer__engage_0_Layer0_0_MEMBER_25_FILL">
<path fill="#D82C26" stroke="none" d="
M 29.7 15
Q 29.3 14.8 28.75 14.8 28.2 14.8 27.8 15 27.4 15.25 27.15 15.65 26.9 16.15 26.9 16.6 26.9 17.15 27.15 17.55 27.35 17.9 27.8 18.2 28.2 18.45 28.75 18.45 29.35 18.45 29.7 18.2 30.15 18 30.35 17.55 30.6 17.25 30.6 16.6 30.6 16.05 30.35 15.65 30.05 15.2 29.7 15
M 28.75 15.15
Q 29.25 15.15 29.5 15.35 29.85 15.5 30 15.85
L 30.15 16.6
Q 30.15 17.05 30 17.35 29.9 17.6 29.5 17.9 29.1 18.1 28.75 18.1 28.4 18.1 28 17.9 27.7 17.65 27.5 17.35 27.35 17.05 27.35 16.6
L 27.5 15.85
Q 27.8 15.45 28 15.35 28.25 15.15 28.75 15.15 Z"/>
</g>

<g id="BDM_160x600_psd_Asset_2_ManagedWiFi_Awareness_DM6_2_Improve__customer__satisfaction__and_increase__consumer__engage_0_Layer0_0_MEMBER_26_FILL">
<path fill="#D82C26" stroke="none" d="
M 34.1 15.2
Q 33.85 14.8 33.15 14.8 32.7 14.8 32.35 15 32 15.25 31.85 15.65
L 31.8 14.9 31.4 14.9 31.45 18.35 31.9 18.35 31.9 16.6
Q 31.9 16.2 32.05 15.8 32.2 15.5 32.45 15.3 32.75 15.15 33.05 15.15 33.55 15.15 33.75 15.5 34 15.85 34 16.35
L 34 18.35 34.4 18.35 34.4 16.25
Q 34.4 15.65 34.1 15.2 Z"/>
</g>

<g id="BDM_160x600_psd_Asset_2_ManagedWiFi_Awareness_DM6_2_Improve__customer__satisfaction__and_increase__consumer__engage_0_Layer0_0_MEMBER_27_FILL">
<path fill="#D82C26" stroke="none" d="
M 1.85 24.3
Q 2.25 24.3 2.6 24.55 2.85 24.8 2.85 25.25
L 2.85 25.45 2.4 25.45
Q 0.45 25.45 0.45 26.6 0.45 27.15 0.75 27.35 1.05 27.65 1.55 27.65 1.9 27.65 2.3 27.45 2.7 27.2 2.85 26.85
L 2.85 27.2 2.9 27.55 3.3 27.55 3.25 25.3
Q 3.25 24.6 2.9 24.3 2.55 23.95 1.9 23.95
L 1.2 24.05 0.6 24.4 0.75 24.75
Q 1 24.5 1.25 24.45 1.55 24.3 1.85 24.3
M 2.85 26.1
Q 2.85 26.35 2.7 26.65 2.55 26.95 2.3 27.1 2.05 27.3 1.6 27.3 1.3 27.3 1.05 27.15 0.85 26.95 0.85 26.6 0.85 25.75 2.5 25.75
L 2.85 25.75 2.85 26.1 Z"/>
</g>

<g id="BDM_160x600_psd_Asset_2_ManagedWiFi_Awareness_DM6_2_Improve__customer__satisfaction__and_increase__consumer__engage_0_Layer0_0_MEMBER_28_FILL">
<path fill="#D82C26" stroke="none" d="
M 4.65 24.05
L 4.25 24.05 4.3 27.55 4.7 27.55 4.7 25.75
Q 4.7 25.3 4.85 25 5.2 24.55 5.3 24.5 5.55 24.35 5.9 24.35 6.4 24.35 6.6 24.65 6.8 25 6.8 25.55
L 6.8 27.55 7.25 27.55 7.25 25.4
Q 7.25 24.8 6.95 24.4 6.65 23.95 5.95 23.95 5.6 23.95 5.2 24.2 4.85 24.5 4.7 24.8
L 4.65 24.05 Z"/>
</g>

<g id="BDM_160x600_psd_Asset_2_ManagedWiFi_Awareness_DM6_2_Improve__customer__satisfaction__and_increase__consumer__engage_0_Layer0_0_MEMBER_29_FILL">
<path fill="#D82C26" stroke="none" d="
M 9.8 23.95
Q 9.3 23.95 8.9 24.2 8.55 24.4 8.3 24.85 8.05 25.35 8.05 25.8 8.05 26.25 8.3 26.75 8.55 27.2 8.9 27.4 9.3 27.65 9.8 27.65 10.25 27.65 10.65 27.4 11.05 27.2 11.25 26.8
L 11.3 27.55 11.7 27.55 11.65 21.85 11.25 21.95 11.25 24.8 11.2 24.8
Q 11.05 24.45 10.65 24.2 10.25 23.95 9.8 23.95
M 9.85 24.35
Q 10.25 24.35 10.6 24.55 10.85 24.7 11.05 25.05 11.25 25.4 11.25 25.8 11.25 26.2 11.05 26.55 10.85 26.9 10.6 27.05 10.25 27.25 9.85 27.25 9.4 27.25 9.15 27.05 8.9 26.9 8.7 26.55 8.5 26.2 8.5 25.8 8.5 25.4 8.7 25.05 8.9 24.7 9.15 24.55 9.4 24.35 9.85 24.35 Z"/>
</g>

<g id="BDM_160x600_psd_Asset_2_ManagedWiFi_Awareness_DM6_2_Improve__customer__satisfaction__and_increase__consumer__engage_0_Layer0_0_MEMBER_30_FILL">
<path fill="#D82C26" stroke="none" d="
M 14.55 24.05
L 14.15 24.05 14.15 27.55 14.55 27.55 14.55 24.05
M 14.35 23
L 14.55 22.9 14.65 22.65 14.55 22.45 14.35 22.35 14.1 22.45 14.05 22.65 14.1 22.9 14.35 23 Z"/>
</g>

<g id="BDM_160x600_psd_Asset_2_ManagedWiFi_Awareness_DM6_2_Improve__customer__satisfaction__and_increase__consumer__engage_0_Layer0_0_MEMBER_31_FILL">
<path fill="#D82C26" stroke="none" d="
M 16 24.05
L 15.6 24.05 15.65 27.55 16.1 27.55 16.1 25.75
Q 16.1 25.3 16.25 25 16.45 24.6 16.65 24.5 16.95 24.35 17.25 24.35 17.75 24.35 17.95 24.65 18.2 25.05 18.2 25.55
L 18.2 27.55 18.6 27.55 18.6 25.4
Q 18.6 24.8 18.3 24.4 18 23.95 17.3 23.95 16.95 23.95 16.55 24.2 16.2 24.5 16.05 24.8
L 16 24.05 Z"/>
</g>

<g id="BDM_160x600_psd_Asset_2_ManagedWiFi_Awareness_DM6_2_Improve__customer__satisfaction__and_increase__consumer__engage_0_Layer0_0_MEMBER_32_FILL">
<path fill="#D82C26" stroke="none" d="
M 21.25 23.95
Q 20.8 23.95 20.3 24.2 19.85 24.5 19.65 24.85 19.4 25.35 19.4 25.8 19.4 26.35 19.65 26.75 19.85 27.2 20.3 27.4 20.7 27.65 21.25 27.65 21.6 27.65 21.9 27.5 22.25 27.4 22.4 27.2
L 22.35 26.85
Q 22.1 27.1 21.85 27.15 21.7 27.25 21.25 27.25 20.8 27.25 20.55 27.05 20.25 26.95 20.05 26.55 19.85 26.05 19.85 25.8 19.85 25.55 20.05 25.05 20.25 24.7 20.55 24.55 20.8 24.35 21.25 24.35 21.6 24.35 21.8 24.45
L 22.25 24.7 22.4 24.35 21.9 24.05 21.25 23.95 Z"/>
</g>

<g id="BDM_160x600_psd_Asset_2_ManagedWiFi_Awareness_DM6_2_Improve__customer__satisfaction__and_increase__consumer__engage_0_Layer0_0_MEMBER_33_FILL">
<path fill="#D82C26" stroke="none" d="
M 23.45 24.05
L 23.05 24.05 23.1 27.55 23.5 27.55 23.5 25.8
Q 23.5 25.2 23.8 24.75 24.05 24.35 24.5 24.35
L 24.8 24.4 24.9 24 24.55 23.95
Q 24.2 23.95 23.95 24.2 23.65 24.45 23.5 24.8
L 23.45 24.05 Z"/>
</g>

<g id="BDM_160x600_psd_Asset_2_ManagedWiFi_Awareness_DM6_2_Improve__customer__satisfaction__and_increase__consumer__engage_0_Layer0_0_MEMBER_34_FILL">
<path fill="#D82C26" stroke="none" d="
M 26.75 23.95
Q 26.3 23.95 25.9 24.2 25.45 24.5 25.25 24.85 25.05 25.2 25.05 25.8 25.05 26.4 25.3 26.75 25.55 27.2 25.9 27.4 26.4 27.65 26.85 27.65 27.7 27.65 28.2 27.2
L 28.15 26.85 27.55 27.15
Q 27.25 27.3 26.85 27.3 26.55 27.3 26.15 27.1 25.75 26.8 25.65 26.6 25.45 26.1 25.45 25.85
L 28.4 25.85 28.4 25.7
Q 28.4 25.2 28.25 24.8 28.05 24.45 27.65 24.2 27.25 23.95 26.75 23.95
M 26.75 24.3
Q 27.35 24.3 27.65 24.65 28 24.95 28 25.55
L 25.5 25.55
Q 25.5 25.25 25.65 25 25.85 24.65 26.1 24.5 26.35 24.3 26.75 24.3 Z"/>
</g>

<g id="BDM_160x600_psd_Asset_2_ManagedWiFi_Awareness_DM6_2_Improve__customer__satisfaction__and_increase__consumer__engage_0_Layer0_0_MEMBER_35_FILL">
<path fill="#D82C26" stroke="none" d="
M 30.4 24.3
Q 30.85 24.3 31.1 24.55 31.35 24.75 31.35 25.25
L 31.35 25.45 30.95 25.45
Q 28.95 25.45 28.95 26.6 28.95 27.15 29.3 27.35 29.6 27.65 30.05 27.65 30.35 27.65 30.85 27.45 31.2 27.25 31.35 26.85
L 31.4 26.85 31.4 27.2 31.45 27.55 31.85 27.55 31.75 26.8 31.75 25.3
Q 31.75 24.6 31.4 24.3 31.1 23.95 30.45 23.95
L 29.75 24.05
Q 29.35 24.2 29.15 24.4
L 29.25 24.75
Q 29.45 24.55 29.8 24.45 30.1 24.3 30.4 24.3
M 31.35 25.75
L 31.35 26.1 31.25 26.65
Q 31.1 26.95 30.8 27.1 30.6 27.3 30.15 27.3 29.85 27.3 29.6 27.15 29.35 26.9 29.35 26.6 29.35 25.75 31 25.75
L 31.35 25.75 Z"/>
</g>

<g id="BDM_160x600_psd_Asset_2_ManagedWiFi_Awareness_DM6_2_Improve__customer__satisfaction__and_increase__consumer__engage_0_Layer0_0_MEMBER_36_FILL">
<path fill="#D82C26" stroke="none" d="
M 33.2 24.05
Q 32.9 24.2 32.75 24.4 32.6 24.65 32.6 24.9 32.6 25.4 32.85 25.5 33.1 25.75 33.6 25.9
L 34.3 26.2
Q 34.55 26.45 34.55 26.65 34.55 26.95 34.3 27.1 34.1 27.3 33.75 27.3 33.05 27.3 32.6 26.85
L 32.5 27.25 33.05 27.55 33.75 27.65
Q 34.05 27.65 34.35 27.5 34.6 27.45 34.8 27.15 34.95 26.95 34.95 26.6 34.95 26.25 34.7 26 34.35 25.7 33.9 25.6
L 33.2 25.3
Q 33 25.15 33 24.9 33 24.6 33.2 24.45 33.45 24.3 33.75 24.3
L 34.25 24.4 34.65 24.65 34.85 24.35 34.35 24.05 33.75 23.95 33.2 24.05 Z"/>
</g>

<g id="BDM_160x600_psd_Asset_2_ManagedWiFi_Awareness_DM6_2_Improve__customer__satisfaction__and_increase__consumer__engage_0_Layer0_0_MEMBER_37_FILL">
<path fill="#D82C26" stroke="none" d="
M 37.2 23.95
Q 36.75 23.95 36.35 24.2 35.95 24.45 35.75 24.85 35.5 25.25 35.5 25.8 35.5 26.25 35.75 26.75 36 27.2 36.35 27.4 36.85 27.65 37.3 27.65 38.15 27.65 38.65 27.2
L 38.6 26.85 38.05 27.15 37.3 27.3
Q 37 27.3 36.6 27.1
L 36.1 26.6 35.95 25.85 38.85 25.85 38.9 25.7
Q 38.9 25.3 38.7 24.8 38.5 24.45 38.1 24.2 37.7 23.95 37.2 23.95
M 37.2 24.3
Q 37.8 24.3 38.1 24.65 38.45 24.95 38.45 25.55
L 35.95 25.55
Q 35.95 25.25 36.1 25 36.3 24.65 36.55 24.5 36.8 24.3 37.2 24.3 Z"/>
</g>

<g id="BDM_160x600_psd_Asset_2_ManagedWiFi_Awareness_DM6_2_Improve__customer__satisfaction__and_increase__consumer__engage_0_Layer0_0_MEMBER_38_FILL">
<path fill="#D82C26" stroke="none" d="
M 3.4 33.55
L 2.9 33.25
Q 2.7 33.15 2.25 33.15 1.7 33.15 1.3 33.35 0.8 33.75 0.65 34.05 0.4 34.45 0.4 35 0.4 35.45 0.65 35.95 0.95 36.4 1.3 36.6 1.65 36.8 2.2 36.8 2.7 36.8 2.9 36.7
L 3.4 36.4 3.35 36.05 2.85 36.35 2.25 36.45
Q 1.8 36.45 1.55 36.25 1.2 36.05 1.05 35.7 0.85 35.45 0.85 35 0.85 34.5 1.05 34.25 1.15 33.95 1.5 33.7 1.85 33.5 2.25 33.5
L 2.8 33.6 3.25 33.9 3.4 33.55 Z"/>
</g>

<g id="BDM_160x600_psd_Asset_2_ManagedWiFi_Awareness_DM6_2_Improve__customer__satisfaction__and_increase__consumer__engage_0_Layer0_0_MEMBER_39_FILL">
<path fill="#D82C26" stroke="none" d="
M 4.05 35.9
Q 4.25 36.3 4.7 36.6 5.05 36.8 5.65 36.8 6.2 36.8 6.6 36.6 7.1 36.2 7.25 35.9 7.5 35.5 7.5 34.95 7.5 34.5 7.25 34 7 33.6 6.6 33.35 6.2 33.15 5.65 33.15 5.05 33.15 4.7 33.35 4.35 33.55 4.05 34 3.8 34.4 3.8 34.95 3.8 35.6 4.05 35.9
M 4.4 34.25
Q 4.55 33.9 4.9 33.7 5.15 33.5 5.65 33.5 6.05 33.5 6.4 33.7 6.75 33.95 6.85 34.25 7.05 34.5 7.05 34.95 7.05 35.4 6.9 35.7 6.7 36 6.4 36.25 6.05 36.45 5.65 36.45 5.15 36.45 4.9 36.25 4.55 36.05 4.4 35.7 4.2 35.3 4.2 34.95 4.2 34.65 4.4 34.25 Z"/>
</g>

<g id="BDM_160x600_psd_Asset_2_ManagedWiFi_Awareness_DM6_2_Improve__customer__satisfaction__and_increase__consumer__engage_0_Layer0_0_MEMBER_40_FILL">
<path fill="#D82C26" stroke="none" d="
M 11.3 34.6
Q 11.3 34 11 33.55 10.6 33.15 10 33.15 9.55 33.15 9.25 33.4 8.9 33.6 8.75 34
L 8.7 33.25 8.3 33.25 8.35 36.7 8.75 36.7 8.75 34.95
Q 8.75 34.55 8.9 34.15 9.05 33.85 9.35 33.7 9.55 33.5 9.9 33.5 10.45 33.5 10.65 33.85 10.85 34.2 10.85 34.7
L 10.85 36.7 11.3 36.7 11.3 34.6 Z"/>
</g>

<g id="BDM_160x600_psd_Asset_2_ManagedWiFi_Awareness_DM6_2_Improve__customer__satisfaction__and_increase__consumer__engage_0_Layer0_0_MEMBER_41_FILL">
<path fill="#D82C26" stroke="none" d="
M 13.3 33.15
Q 12.9 33.15 12.7 33.25 12.45 33.35 12.3 33.55 12.15 33.8 12.15 34.1 12.15 34.5 12.35 34.7 12.6 34.9 13.1 35.05
L 13.85 35.4
Q 14.05 35.55 14.05 35.8 14.05 36.15 13.85 36.3 13.65 36.45 13.3 36.45 12.55 36.45 12.15 36.05
L 12.05 36.45 12.6 36.7
Q 12.8 36.8 13.3 36.8
L 13.9 36.7 14.3 36.35
Q 14.5 36.15 14.5 35.8 14.5 35.45 14.25 35.2 13.9 34.9 13.4 34.8
L 12.75 34.45
Q 12.55 34.4 12.55 34.05 12.55 33.8 12.75 33.65 13 33.5 13.3 33.5 13.65 33.5 13.8 33.6
L 14.2 33.8 14.4 33.5 13.9 33.25
Q 13.7 33.15 13.3 33.15 Z"/>
</g>

<g id="BDM_160x600_psd_Asset_2_ManagedWiFi_Awareness_DM6_2_Improve__customer__satisfaction__and_increase__consumer__engage_0_Layer0_0_MEMBER_42_FILL">
<path fill="#D82C26" stroke="none" d="
M 18.15 33.25
L 17.75 33.25 17.75 34.95
Q 17.75 35.45 17.6 35.75 17.5 36.05 17.15 36.3 16.95 36.45 16.55 36.45 16.05 36.45 15.85 36.1 15.65 35.85 15.65 35.25
L 15.65 33.25 15.2 33.25 15.2 35.35
Q 15.2 35.95 15.5 36.4 15.8 36.8 16.45 36.8 16.9 36.8 17.25 36.6 17.6 36.35 17.75 35.95
L 17.8 36.7 18.25 36.7 18.15 35.9 18.15 33.25 Z"/>
</g>

<g id="BDM_160x600_psd_Asset_2_ManagedWiFi_Awareness_DM6_2_Improve__customer__satisfaction__and_increase__consumer__engage_0_Layer0_0_MEMBER_43_FILL">
<path fill="#D82C26" stroke="none" d="
M 20.15 33.35
Q 19.9 33.55 19.7 34
L 19.65 34 19.65 33.25 19.25 33.25 19.25 36.7 19.7 36.7 19.7 35
Q 19.7 34.5 19.85 34.2 20 33.85 20.25 33.7 20.45 33.5 20.8 33.5 21.25 33.5 21.45 33.8 21.65 34.05 21.65 34.65
L 21.65 36.7 22.1 36.7 22.1 34.9
Q 22.1 34.3 22.4 33.9 22.7 33.5 23.2 33.5 23.7 33.5 23.9 33.85 24.1 34.2 24.1 34.75
L 24.1 36.7 24.55 36.7 24.55 34.65
Q 24.55 34 24.25 33.55 23.95 33.15 23.3 33.15 22.8 33.15 22.5 33.4 22.2 33.6 22 34.05 21.95 33.65 21.6 33.4 21.35 33.15 20.9 33.15 20.5 33.15 20.15 33.35 Z"/>
</g>

<g id="BDM_160x600_psd_Asset_2_ManagedWiFi_Awareness_DM6_2_Improve__customer__satisfaction__and_increase__consumer__engage_0_Layer0_0_MEMBER_44_FILL">
<path fill="#D82C26" stroke="none" d="
M 28.55 34
Q 28.35 33.6 27.95 33.35 27.6 33.15 27.05 33.15 26.55 33.15 26.2 33.35 25.85 33.55 25.6 34 25.35 34.5 25.35 34.95 25.35 35.5 25.6 35.9 25.8 36.25 26.2 36.6 26.6 36.8 27.15 36.8 27.95 36.8 28.5 36.4
L 28.45 36 27.9 36.35 27.15 36.45
Q 26.7 36.45 26.45 36.25 26.25 36.15 25.95 35.75
L 25.75 35.05 28.7 35.05 28.7 34.85
Q 28.7 34.4 28.55 34
M 26.4 33.65
Q 26.7 33.5 27.05 33.5 27.65 33.5 27.95 33.8 28.3 34.15 28.3 34.7
L 25.8 34.7 25.95 34.15
Q 26.1 33.9 26.4 33.65 Z"/>
</g>

<g id="BDM_160x600_psd_Asset_2_ManagedWiFi_Awareness_DM6_2_Improve__customer__satisfaction__and_increase__consumer__engage_0_Layer0_0_MEMBER_45_FILL">
<path fill="#D82C26" stroke="none" d="
M 31 33.15
Q 30.65 33.15 30.4 33.35 30.1 33.6 30 34
L 29.95 34 29.95 33.25 29.5 33.25 29.55 36.7 30 36.7 30 35
Q 30 34.35 30.25 33.95 30.45 33.55 30.95 33.55
L 31.25 33.6 31.35 33.2 31 33.15 Z"/>
</g>

<g id="BDM_160x600_psd_Asset_2_ManagedWiFi_Awareness_DM6_2_Improve__customer__satisfaction__and_increase__consumer__engage_0_Layer0_0_MEMBER_46_FILL">
<path fill="#D82C26" stroke="none" d="
M 1.25 42.55
Q 0.85 42.8 0.65 43.2 0.4 43.6 0.4 44.15 0.4 44.6 0.65 45.1 0.85 45.55 1.3 45.75 1.7 46 2.2 46 3 46 3.6 45.55
L 3.5 45.2
Q 3.1 45.45 2.95 45.5 2.6 45.65 2.25 45.65 1.85 45.65 1.5 45.45
L 1 44.95
Q 0.85 44.6 0.85 44.2
L 3.8 44.2 3.8 44.05
Q 3.8 43.75 3.6 43.15 3.35 42.75 3.05 42.55 2.65 42.3 2.15 42.3 1.65 42.3 1.25 42.55
M 2.15 42.65
Q 2.7 42.65 3 43 3.35 43.3 3.35 43.9
L 0.85 43.9
Q 0.85 43.65 1 43.35 1.15 43.1 1.45 42.85 1.7 42.65 2.15 42.65 Z"/>
</g>

<g id="BDM_160x600_psd_Asset_2_ManagedWiFi_Awareness_DM6_2_Improve__customer__satisfaction__and_increase__consumer__engage_0_Layer0_0_MEMBER_47_FILL">
<path fill="#D82C26" stroke="none" d="
M 6.3 42.3
Q 5.9 42.3 5.55 42.55 5.2 42.75 5.05 43.15
L 5 42.4 4.6 42.4 4.6 45.9 5.05 45.9 5.05 44.1
Q 5.05 43.65 5.2 43.35 5.4 43 5.65 42.85 5.9 42.7 6.2 42.7 6.75 42.7 6.95 43.05 7.15 43.3 7.15 43.9
L 7.15 45.9 7.6 45.9 7.6 43.75
Q 7.6 43.15 7.3 42.75 6.95 42.3 6.3 42.3 Z"/>
</g>

<g id="BDM_160x600_psd_Asset_2_ManagedWiFi_Awareness_DM6_2_Improve__customer__satisfaction__and_increase__consumer__engage_0_Layer0_0_MEMBER_48_FILL">
<path fill="#D82C26" stroke="none" d="
M 9.25 42.55
Q 8.8 42.85 8.6 43.25 8.4 43.6 8.4 44.15 8.4 44.7 8.6 45.05 8.8 45.5 9.25 45.7 9.55 45.95 10.15 45.95 10.6 45.95 10.95 45.75 11.3 45.55 11.55 45.1
L 11.55 45.85
Q 11.55 46.6 11.2 46.95 10.9 47.35 10.1 47.35 9.7 47.35 9.4 47.2 9 47.1 8.7 46.9
L 8.6 47.3 9.3 47.6
Q 9.6 47.7 10.15 47.7 11.1 47.7 11.55 47.2 12 46.7 12 45.85
L 12 42.4 11.6 42.4 11.55 43.2
Q 11.35 42.8 10.95 42.55 10.55 42.3 10.15 42.3 9.65 42.3 9.25 42.55
M 9.5 45.4
Q 9.15 45.2 9 44.85 8.85 44.55 8.85 44.15
L 9 43.4
Q 9.2 43.05 9.5 42.9 9.75 42.7 10.2 42.7 10.65 42.7 10.9 42.9 11.25 43.05 11.4 43.4 11.6 43.9 11.6 44.15 11.6 44.4 11.4 44.9 11.25 45.25 10.9 45.4 10.65 45.6 10.2 45.6 9.75 45.6 9.5 45.4 Z"/>
</g>

<g id="BDM_160x600_psd_Asset_2_ManagedWiFi_Awareness_DM6_2_Improve__customer__satisfaction__and_increase__consumer__engage_0_Layer0_0_MEMBER_49_FILL">
<path fill="#D82C26" stroke="none" d="
M 14.25 42.65
Q 14.7 42.65 14.95 42.9 15.2 43.1 15.2 43.6
L 15.2 43.8 14.8 43.8
Q 12.8 43.8 12.8 44.95 12.8 45.45 13.15 45.75 13.5 46 13.9 46 14.2 46 14.7 45.8 15.05 45.6 15.2 45.2
L 15.25 45.2 15.25 45.6 15.3 45.9 15.7 45.9 15.6 45.15 15.6 43.65
Q 15.6 42.95 15.25 42.65 14.95 42.3 14.3 42.3 13.9 42.3 13.6 42.45 13.25 42.55 13 42.75
L 13.1 43.1
Q 13.3 42.9 13.65 42.8 13.95 42.65 14.25 42.65
M 13.45 45.5
Q 13.2 45.25 13.2 44.95 13.2 44.1 14.85 44.1
L 15.2 44.1 15.2 44.45 15.1 45
Q 14.95 45.25 14.65 45.5 14.45 45.65 14 45.65 13.7 45.65 13.45 45.5 Z"/>
</g>

<g id="BDM_160x600_psd_Asset_2_ManagedWiFi_Awareness_DM6_2_Improve__customer__satisfaction__and_increase__consumer__engage_0_Layer0_0_MEMBER_50_FILL">
<path fill="#D82C26" stroke="none" d="
M 17.25 42.55
Q 16.85 42.9 16.65 43.25 16.4 43.65 16.4 44.15 16.4 44.65 16.65 45.05 16.85 45.45 17.25 45.7 17.55 45.95 18.15 45.95 18.65 45.95 19 45.75 19.4 45.5 19.55 45.1
L 19.6 45.1 19.6 45.85
Q 19.6 46.5 19.25 46.95 18.85 47.35 18.15 47.35
L 17.4 47.2
Q 17.05 47.15 16.75 46.9
L 16.65 47.3 17.35 47.6
Q 17.6 47.7 18.15 47.7 19.1 47.7 19.55 47.2 20 46.7 20 45.85
L 20.05 42.4 19.65 42.4 19.6 43.2
Q 19.4 42.8 19 42.55 18.6 42.3 18.15 42.3 17.75 42.3 17.25 42.55
M 18.2 42.7
Q 18.6 42.7 18.95 42.9 19.2 43.05 19.4 43.4 19.6 43.75 19.6 44.15 19.6 44.55 19.4 44.9 19.2 45.25 18.95 45.4 18.6 45.6 18.2 45.6 17.75 45.6 17.5 45.4 17.15 45.15 17.05 44.85 16.85 44.6 16.85 44.15 16.85 43.75 17.05 43.4 17.25 43.05 17.5 42.9 17.75 42.7 18.2 42.7 Z"/>
</g>

<g id="BDM_160x600_psd_Asset_2_ManagedWiFi_Awareness_DM6_2_Improve__customer__satisfaction__and_increase__consumer__engage_0_Layer0_0_MEMBER_51_FILL">
<path fill="#D82C26" stroke="none" d="
M 21.7 42.55
Q 21.25 42.85 21.05 43.2 20.85 43.55 20.85 44.15 20.85 44.75 21.1 45.1 21.3 45.5 21.7 45.75 22.2 46 22.65 46 23.5 46 24 45.55
L 23.95 45.2
Q 23.55 45.45 23.4 45.5
L 22.65 45.65
Q 22.2 45.65 21.95 45.45 21.55 45.15 21.45 44.95 21.25 44.45 21.25 44.2
L 24.2 44.2 24.2 44.05
Q 24.2 43.6 24.05 43.15 23.85 42.8 23.45 42.55 23.05 42.3 22.55 42.3 22.1 42.3 21.7 42.55
M 22.55 42.65
Q 23.15 42.65 23.45 43 23.8 43.3 23.8 43.9
L 21.3 43.9
Q 21.3 43.65 21.45 43.35 21.6 43.1 21.9 42.85 22.15 42.65 22.55 42.65 Z"/>
</g>

<g id="BDM_160x600_psd_Asset_2_ManagedWiFi_Awareness_DM6_2_Improve__customer__satisfaction__and_increase__consumer__engage_0_Layer0_0_MEMBER_52_FILL">
<path fill="#D82C26" stroke="none" d="
M 25.45 43.15
L 25.45 42.4 25 42.4 25.05 45.9 25.5 45.9 25.5 44.15
Q 25.5 43.75 25.65 43.35 25.85 42.95 26.05 42.85 26.3 42.7 26.6 42.7 27.05 42.7 27.25 43 27.45 43.25 27.45 43.85
L 27.45 45.9 27.9 45.9 27.9 44.1
Q 27.9 43.5 28.2 43.1 28.45 42.7 29 42.7 29.5 42.7 29.7 43.05 29.9 43.3 29.9 43.9
L 29.9 45.9 30.35 45.9 30.35 43.8
Q 30.35 43.15 30.05 42.75 29.75 42.3 29.1 42.3 28.7 42.3 28.3 42.55 28.1 42.7 27.8 43.2 27.7 42.8 27.4 42.55 27.05 42.3 26.7 42.3 26.35 42.3 25.95 42.55 25.65 42.8 25.5 43.15
L 25.45 43.15 Z"/>
</g>

<g id="BDM_160x600_psd_Asset_2_ManagedWiFi_Awareness_DM6_2_Improve__customer__satisfaction__and_increase__consumer__engage_0_Layer0_0_MEMBER_53_FILL">
<path fill="#D82C26" stroke="none" d="
M 32 42.55
Q 31.55 42.85 31.35 43.2 31.15 43.55 31.15 44.15 31.15 44.75 31.4 45.1 31.6 45.5 32 45.75 32.5 46 32.95 46 33.8 46 34.3 45.55
L 34.25 45.2
Q 33.85 45.45 33.65 45.5 33.35 45.65 32.95 45.65 32.5 45.65 32.25 45.45 31.85 45.15 31.75 44.95 31.55 44.45 31.55 44.2
L 34.5 44.2 34.5 44.05
Q 34.5 43.6 34.35 43.15 34.15 42.8 33.75 42.55 33.35 42.3 32.85 42.3 32.4 42.3 32 42.55
M 32.85 42.65
Q 33.45 42.65 33.75 43 34.1 43.3 34.1 43.9
L 31.6 43.9
Q 31.6 43.65 31.75 43.35 31.9 43.1 32.2 42.85 32.45 42.65 32.85 42.65 Z"/>
</g>

<g id="BDM_160x600_psd_Asset_2_ManagedWiFi_Awareness_DM6_2_Improve__customer__satisfaction__and_increase__consumer__engage_0_Layer0_0_MEMBER_54_FILL">
<path fill="#D82C26" stroke="none" d="
M 35.75 43.15
L 35.75 42.4 35.3 42.4 35.35 45.9 35.8 45.9 35.8 44.1
Q 35.8 43.65 35.95 43.35 36.15 43 36.35 42.85 36.65 42.7 36.95 42.7 37.5 42.7 37.65 43.05 37.9 43.4 37.9 43.9
L 37.9 45.9 38.35 45.9 38.35 43.75
Q 38.35 43.2 38 42.75 37.7 42.3 37.05 42.3 36.65 42.3 36.3 42.55 35.95 42.75 35.8 43.15
L 35.75 43.15 Z"/>
</g>

<g id="BDM_160x600_psd_Asset_2_ManagedWiFi_Awareness_DM6_2_Improve__customer__satisfaction__and_increase__consumer__engage_0_Layer0_0_MEMBER_55_FILL">
<path fill="#D82C26" stroke="none" d="
M 40.75 42.75
L 40.85 42.4 39.85 42.4 39.85 41.4 39.45 41.6 39.45 42.4 38.85 42.4 38.8 42.75 39.45 42.75 39.45 45.05
Q 39.45 45.5 39.65 45.75 39.85 45.95 40.25 45.95
L 40.65 45.9 41 45.8 40.9 45.45
Q 40.6 45.6 40.35 45.6 40.15 45.6 40 45.45 39.85 45.3 39.85 45
L 39.85 42.75 40.75 42.75 Z"/>
</g>

<g id="BDM_160x600_psd_Asset_2_ManagedWiFi_Awareness_DM6_2_Improve__customer__satisfaction__and_increase__consumer__engage_0_Layer0_0_MEMBER_56_FILL">
<path fill="#D82C26" stroke="none" d="
M 41.65 45.85
L 41.9 45.95 42.1 45.85
Q 42.2 45.8 42.2 45.6 42.2 45.45 42.1 45.35
L 41.9 45.25 41.65 45.35 41.55 45.6 41.65 45.85 Z"/>
</g>
</defs>

<g transform="matrix( 1, 0, 0, 1, -71,52) ">
<g transform="matrix( 1, 0, 0, 1, 65,0) ">
<g transform="matrix( 1, 0, 0, 1, 26,7) ">
<g transform="matrix( 2.815704345703125, 0, 0, 2.832611083984375, -0.85,14.6) ">
<use xlink:href="#BDM_160x600_psd_Asset_2_ManagedWiFi_Awareness_DM6_2_Improve__customer__satisfaction__and_increase__consumer__engage_0_Layer0_0_MEMBER_0_FILL"/>
</g>

<g transform="matrix( 2.815704345703125, 0, 0, 2.832611083984375, -0.85,14.6) ">
<use xlink:href="#BDM_160x600_psd_Asset_2_ManagedWiFi_Awareness_DM6_2_Improve__customer__satisfaction__and_increase__consumer__engage_0_Layer0_0_MEMBER_1_FILL"/>
</g>

<g transform="matrix( 2.815704345703125, 0, 0, 2.832611083984375, -0.85,14.6) ">
<use xlink:href="#BDM_160x600_psd_Asset_2_ManagedWiFi_Awareness_DM6_2_Improve__customer__satisfaction__and_increase__consumer__engage_0_Layer0_0_MEMBER_2_FILL"/>
</g>

<g transform="matrix( 2.815704345703125, 0, 0, 2.832611083984375, -0.85,14.6) ">
<use xlink:href="#BDM_160x600_psd_Asset_2_ManagedWiFi_Awareness_DM6_2_Improve__customer__satisfaction__and_increase__consumer__engage_0_Layer0_0_MEMBER_3_FILL"/>
</g>

<g transform="matrix( 2.815704345703125, 0, 0, 2.832611083984375, -0.85,14.6) ">
<use xlink:href="#BDM_160x600_psd_Asset_2_ManagedWiFi_Awareness_DM6_2_Improve__customer__satisfaction__and_increase__consumer__engage_0_Layer0_0_MEMBER_4_FILL"/>
</g>

<g transform="matrix( 2.815704345703125, 0, 0, 2.832611083984375, -0.85,14.6) ">
<use xlink:href="#BDM_160x600_psd_Asset_2_ManagedWiFi_Awareness_DM6_2_Improve__customer__satisfaction__and_increase__consumer__engage_0_Layer0_0_MEMBER_5_FILL"/>
</g>

<g transform="matrix( 2.815704345703125, 0, 0, 2.832611083984375, -0.85,14.6) ">
<use xlink:href="#BDM_160x600_psd_Asset_2_ManagedWiFi_Awareness_DM6_2_Improve__customer__satisfaction__and_increase__consumer__engage_0_Layer0_0_MEMBER_6_FILL"/>
</g>

<g transform="matrix( 2.815704345703125, 0, 0, 2.832611083984375, -0.85,14.6) ">
<use xlink:href="#BDM_160x600_psd_Asset_2_ManagedWiFi_Awareness_DM6_2_Improve__customer__satisfaction__and_increase__consumer__engage_0_Layer0_0_MEMBER_7_FILL"/>
</g>

<g transform="matrix( 2.815704345703125, 0, 0, 2.832611083984375, -0.85,14.6) ">
<use xlink:href="#BDM_160x600_psd_Asset_2_ManagedWiFi_Awareness_DM6_2_Improve__customer__satisfaction__and_increase__consumer__engage_0_Layer0_0_MEMBER_8_FILL"/>
</g>

<g transform="matrix( 2.815704345703125, 0, 0, 2.832611083984375, -0.85,14.6) ">
<use xlink:href="#BDM_160x600_psd_Asset_2_ManagedWiFi_Awareness_DM6_2_Improve__customer__satisfaction__and_increase__consumer__engage_0_Layer0_0_MEMBER_9_FILL"/>
</g>

<g transform="matrix( 2.815704345703125, 0, 0, 2.832611083984375, -0.85,14.6) ">
<use xlink:href="#BDM_160x600_psd_Asset_2_ManagedWiFi_Awareness_DM6_2_Improve__customer__satisfaction__and_increase__consumer__engage_0_Layer0_0_MEMBER_10_FILL"/>
</g>

<g transform="matrix( 2.815704345703125, 0, 0, 2.832611083984375, -0.85,14.6) ">
<use xlink:href="#BDM_160x600_psd_Asset_2_ManagedWiFi_Awareness_DM6_2_Improve__customer__satisfaction__and_increase__consumer__engage_0_Layer0_0_MEMBER_11_FILL"/>
</g>

<g transform="matrix( 2.815704345703125, 0, 0, 2.832611083984375, -0.85,14.6) ">
<use xlink:href="#BDM_160x600_psd_Asset_2_ManagedWiFi_Awareness_DM6_2_Improve__customer__satisfaction__and_increase__consumer__engage_0_Layer0_0_MEMBER_12_FILL"/>
</g>

<g transform="matrix( 2.815704345703125, 0, 0, 2.832611083984375, -0.85,14.6) ">
<use xlink:href="#BDM_160x600_psd_Asset_2_ManagedWiFi_Awareness_DM6_2_Improve__customer__satisfaction__and_increase__consumer__engage_0_Layer0_0_MEMBER_13_FILL"/>
</g>

<g transform="matrix( 2.815704345703125, 0, 0, 2.832611083984375, -0.85,14.6) ">
<use xlink:href="#BDM_160x600_psd_Asset_2_ManagedWiFi_Awareness_DM6_2_Improve__customer__satisfaction__and_increase__consumer__engage_0_Layer0_0_MEMBER_14_FILL"/>
</g>

<g transform="matrix( 2.815704345703125, 0, 0, 2.832611083984375, -0.85,14.6) ">
<use xlink:href="#BDM_160x600_psd_Asset_2_ManagedWiFi_Awareness_DM6_2_Improve__customer__satisfaction__and_increase__consumer__engage_0_Layer0_0_MEMBER_15_FILL"/>
</g>

<g transform="matrix( 2.815704345703125, 0, 0, 2.832611083984375, -0.85,14.6) ">
<use xlink:href="#BDM_160x600_psd_Asset_2_ManagedWiFi_Awareness_DM6_2_Improve__customer__satisfaction__and_increase__consumer__engage_0_Layer0_0_MEMBER_16_FILL"/>
</g>

<g transform="matrix( 2.815704345703125, 0, 0, 2.832611083984375, -0.85,14.6) ">
<use xlink:href="#BDM_160x600_psd_Asset_2_ManagedWiFi_Awareness_DM6_2_Improve__customer__satisfaction__and_increase__consumer__engage_0_Layer0_0_MEMBER_17_FILL"/>
</g>

<g transform="matrix( 2.815704345703125, 0, 0, 2.832611083984375, -0.85,14.6) ">
<use xlink:href="#BDM_160x600_psd_Asset_2_ManagedWiFi_Awareness_DM6_2_Improve__customer__satisfaction__and_increase__consumer__engage_0_Layer0_0_MEMBER_18_FILL"/>
</g>

<g transform="matrix( 2.815704345703125, 0, 0, 2.832611083984375, -0.85,14.6) ">
<use xlink:href="#BDM_160x600_psd_Asset_2_ManagedWiFi_Awareness_DM6_2_Improve__customer__satisfaction__and_increase__consumer__engage_0_Layer0_0_MEMBER_19_FILL"/>
</g>

<g transform="matrix( 2.815704345703125, 0, 0, 2.832611083984375, -0.85,14.6) ">
<use xlink:href="#BDM_160x600_psd_Asset_2_ManagedWiFi_Awareness_DM6_2_Improve__customer__satisfaction__and_increase__consumer__engage_0_Layer0_0_MEMBER_20_FILL"/>
</g>

<g transform="matrix( 2.815704345703125, 0, 0, 2.832611083984375, -0.85,14.6) ">
<use xlink:href="#BDM_160x600_psd_Asset_2_ManagedWiFi_Awareness_DM6_2_Improve__customer__satisfaction__and_increase__consumer__engage_0_Layer0_0_MEMBER_21_FILL"/>
</g>

<g transform="matrix( 2.815704345703125, 0, 0, 2.832611083984375, -0.85,14.6) ">
<use xlink:href="#BDM_160x600_psd_Asset_2_ManagedWiFi_Awareness_DM6_2_Improve__customer__satisfaction__and_increase__consumer__engage_0_Layer0_0_MEMBER_22_FILL"/>
</g>

<g transform="matrix( 2.815704345703125, 0, 0, 2.832611083984375, -0.85,14.6) ">
<use xlink:href="#BDM_160x600_psd_Asset_2_ManagedWiFi_Awareness_DM6_2_Improve__customer__satisfaction__and_increase__consumer__engage_0_Layer0_0_MEMBER_23_FILL"/>
</g>

<g transform="matrix( 2.815704345703125, 0, 0, 2.832611083984375, -0.85,14.6) ">
<use xlink:href="#BDM_160x600_psd_Asset_2_ManagedWiFi_Awareness_DM6_2_Improve__customer__satisfaction__and_increase__consumer__engage_0_Layer0_0_MEMBER_24_FILL"/>
</g>

<g transform="matrix( 2.815704345703125, 0, 0, 2.832611083984375, -0.85,14.6) ">
<use xlink:href="#BDM_160x600_psd_Asset_2_ManagedWiFi_Awareness_DM6_2_Improve__customer__satisfaction__and_increase__consumer__engage_0_Layer0_0_MEMBER_25_FILL"/>
</g>

<g transform="matrix( 2.815704345703125, 0, 0, 2.832611083984375, -0.85,14.6) ">
<use xlink:href="#BDM_160x600_psd_Asset_2_ManagedWiFi_Awareness_DM6_2_Improve__customer__satisfaction__and_increase__consumer__engage_0_Layer0_0_MEMBER_26_FILL"/>
</g>

<g transform="matrix( 2.815704345703125, 0, 0, 2.832611083984375, -0.85,14.6) ">
<use xlink:href="#BDM_160x600_psd_Asset_2_ManagedWiFi_Awareness_DM6_2_Improve__customer__satisfaction__and_increase__consumer__engage_0_Layer0_0_MEMBER_27_FILL"/>
</g>

<g transform="matrix( 2.815704345703125, 0, 0, 2.832611083984375, -0.85,14.6) ">
<use xlink:href="#BDM_160x600_psd_Asset_2_ManagedWiFi_Awareness_DM6_2_Improve__customer__satisfaction__and_increase__consumer__engage_0_Layer0_0_MEMBER_28_FILL"/>
</g>

<g transform="matrix( 2.815704345703125, 0, 0, 2.832611083984375, -0.85,14.6) ">
<use xlink:href="#BDM_160x600_psd_Asset_2_ManagedWiFi_Awareness_DM6_2_Improve__customer__satisfaction__and_increase__consumer__engage_0_Layer0_0_MEMBER_29_FILL"/>
</g>

<g transform="matrix( 2.815704345703125, 0, 0, 2.832611083984375, -0.85,14.6) ">
<use xlink:href="#BDM_160x600_psd_Asset_2_ManagedWiFi_Awareness_DM6_2_Improve__customer__satisfaction__and_increase__consumer__engage_0_Layer0_0_MEMBER_30_FILL"/>
</g>

<g transform="matrix( 2.815704345703125, 0, 0, 2.832611083984375, -0.85,14.6) ">
<use xlink:href="#BDM_160x600_psd_Asset_2_ManagedWiFi_Awareness_DM6_2_Improve__customer__satisfaction__and_increase__consumer__engage_0_Layer0_0_MEMBER_31_FILL"/>
</g>

<g transform="matrix( 2.815704345703125, 0, 0, 2.832611083984375, -0.85,14.6) ">
<use xlink:href="#BDM_160x600_psd_Asset_2_ManagedWiFi_Awareness_DM6_2_Improve__customer__satisfaction__and_increase__consumer__engage_0_Layer0_0_MEMBER_32_FILL"/>
</g>

<g transform="matrix( 2.815704345703125, 0, 0, 2.832611083984375, -0.85,14.6) ">
<use xlink:href="#BDM_160x600_psd_Asset_2_ManagedWiFi_Awareness_DM6_2_Improve__customer__satisfaction__and_increase__consumer__engage_0_Layer0_0_MEMBER_33_FILL"/>
</g>

<g transform="matrix( 2.815704345703125, 0, 0, 2.832611083984375, -0.85,14.6) ">
<use xlink:href="#BDM_160x600_psd_Asset_2_ManagedWiFi_Awareness_DM6_2_Improve__customer__satisfaction__and_increase__consumer__engage_0_Layer0_0_MEMBER_34_FILL"/>
</g>

<g transform="matrix( 2.815704345703125, 0, 0, 2.832611083984375, -0.85,14.6) ">
<use xlink:href="#BDM_160x600_psd_Asset_2_ManagedWiFi_Awareness_DM6_2_Improve__customer__satisfaction__and_increase__consumer__engage_0_Layer0_0_MEMBER_35_FILL"/>
</g>

<g transform="matrix( 2.815704345703125, 0, 0, 2.832611083984375, -0.85,14.6) ">
<use xlink:href="#BDM_160x600_psd_Asset_2_ManagedWiFi_Awareness_DM6_2_Improve__customer__satisfaction__and_increase__consumer__engage_0_Layer0_0_MEMBER_36_FILL"/>
</g>

<g transform="matrix( 2.815704345703125, 0, 0, 2.832611083984375, -0.85,14.6) ">
<use xlink:href="#BDM_160x600_psd_Asset_2_ManagedWiFi_Awareness_DM6_2_Improve__customer__satisfaction__and_increase__consumer__engage_0_Layer0_0_MEMBER_37_FILL"/>
</g>

<g transform="matrix( 2.815704345703125, 0, 0, 2.832611083984375, -0.85,14.6) ">
<use xlink:href="#BDM_160x600_psd_Asset_2_ManagedWiFi_Awareness_DM6_2_Improve__customer__satisfaction__and_increase__consumer__engage_0_Layer0_0_MEMBER_38_FILL"/>
</g>

<g transform="matrix( 2.815704345703125, 0, 0, 2.832611083984375, -0.85,14.6) ">
<use xlink:href="#BDM_160x600_psd_Asset_2_ManagedWiFi_Awareness_DM6_2_Improve__customer__satisfaction__and_increase__consumer__engage_0_Layer0_0_MEMBER_39_FILL"/>
</g>

<g transform="matrix( 2.815704345703125, 0, 0, 2.832611083984375, -0.85,14.6) ">
<use xlink:href="#BDM_160x600_psd_Asset_2_ManagedWiFi_Awareness_DM6_2_Improve__customer__satisfaction__and_increase__consumer__engage_0_Layer0_0_MEMBER_40_FILL"/>
</g>

<g transform="matrix( 2.815704345703125, 0, 0, 2.832611083984375, -0.85,14.6) ">
<use xlink:href="#BDM_160x600_psd_Asset_2_ManagedWiFi_Awareness_DM6_2_Improve__customer__satisfaction__and_increase__consumer__engage_0_Layer0_0_MEMBER_41_FILL"/>
</g>

<g transform="matrix( 2.815704345703125, 0, 0, 2.832611083984375, -0.85,14.6) ">
<use xlink:href="#BDM_160x600_psd_Asset_2_ManagedWiFi_Awareness_DM6_2_Improve__customer__satisfaction__and_increase__consumer__engage_0_Layer0_0_MEMBER_42_FILL"/>
</g>

<g transform="matrix( 2.815704345703125, 0, 0, 2.832611083984375, -0.85,14.6) ">
<use xlink:href="#BDM_160x600_psd_Asset_2_ManagedWiFi_Awareness_DM6_2_Improve__customer__satisfaction__and_increase__consumer__engage_0_Layer0_0_MEMBER_43_FILL"/>
</g>

<g transform="matrix( 2.815704345703125, 0, 0, 2.832611083984375, -0.85,14.6) ">
<use xlink:href="#BDM_160x600_psd_Asset_2_ManagedWiFi_Awareness_DM6_2_Improve__customer__satisfaction__and_increase__consumer__engage_0_Layer0_0_MEMBER_44_FILL"/>
</g>

<g transform="matrix( 2.815704345703125, 0, 0, 2.832611083984375, -0.85,14.6) ">
<use xlink:href="#BDM_160x600_psd_Asset_2_ManagedWiFi_Awareness_DM6_2_Improve__customer__satisfaction__and_increase__consumer__engage_0_Layer0_0_MEMBER_45_FILL"/>
</g>

<g transform="matrix( 2.815704345703125, 0, 0, 2.832611083984375, -0.85,14.6) ">
<use xlink:href="#BDM_160x600_psd_Asset_2_ManagedWiFi_Awareness_DM6_2_Improve__customer__satisfaction__and_increase__consumer__engage_0_Layer0_0_MEMBER_46_FILL"/>
</g>

<g transform="matrix( 2.815704345703125, 0, 0, 2.832611083984375, -0.85,14.6) ">
<use xlink:href="#BDM_160x600_psd_Asset_2_ManagedWiFi_Awareness_DM6_2_Improve__customer__satisfaction__and_increase__consumer__engage_0_Layer0_0_MEMBER_47_FILL"/>
</g>

<g transform="matrix( 2.815704345703125, 0, 0, 2.832611083984375, -0.85,14.6) ">
<use xlink:href="#BDM_160x600_psd_Asset_2_ManagedWiFi_Awareness_DM6_2_Improve__customer__satisfaction__and_increase__consumer__engage_0_Layer0_0_MEMBER_48_FILL"/>
</g>

<g transform="matrix( 2.815704345703125, 0, 0, 2.832611083984375, -0.85,14.6) ">
<use xlink:href="#BDM_160x600_psd_Asset_2_ManagedWiFi_Awareness_DM6_2_Improve__customer__satisfaction__and_increase__consumer__engage_0_Layer0_0_MEMBER_49_FILL"/>
</g>

<g transform="matrix( 2.815704345703125, 0, 0, 2.832611083984375, -0.85,14.6) ">
<use xlink:href="#BDM_160x600_psd_Asset_2_ManagedWiFi_Awareness_DM6_2_Improve__customer__satisfaction__and_increase__consumer__engage_0_Layer0_0_MEMBER_50_FILL"/>
</g>

<g transform="matrix( 2.815704345703125, 0, 0, 2.832611083984375, -0.85,14.6) ">
<use xlink:href="#BDM_160x600_psd_Asset_2_ManagedWiFi_Awareness_DM6_2_Improve__customer__satisfaction__and_increase__consumer__engage_0_Layer0_0_MEMBER_51_FILL"/>
</g>

<g transform="matrix( 2.815704345703125, 0, 0, 2.832611083984375, -0.85,14.6) ">
<use xlink:href="#BDM_160x600_psd_Asset_2_ManagedWiFi_Awareness_DM6_2_Improve__customer__satisfaction__and_increase__consumer__engage_0_Layer0_0_MEMBER_52_FILL"/>
</g>

<g transform="matrix( 2.815704345703125, 0, 0, 2.832611083984375, -0.85,14.6) ">
<use xlink:href="#BDM_160x600_psd_Asset_2_ManagedWiFi_Awareness_DM6_2_Improve__customer__satisfaction__and_increase__consumer__engage_0_Layer0_0_MEMBER_53_FILL"/>
</g>

<g transform="matrix( 2.815704345703125, 0, 0, 2.832611083984375, -0.85,14.6) ">
<use xlink:href="#BDM_160x600_psd_Asset_2_ManagedWiFi_Awareness_DM6_2_Improve__customer__satisfaction__and_increase__consumer__engage_0_Layer0_0_MEMBER_54_FILL"/>
</g>

<g transform="matrix( 2.815704345703125, 0, 0, 2.832611083984375, -0.85,14.6) ">
<use xlink:href="#BDM_160x600_psd_Asset_2_ManagedWiFi_Awareness_DM6_2_Improve__customer__satisfaction__and_increase__consumer__engage_0_Layer0_0_MEMBER_55_FILL"/>
</g>

<g transform="matrix( 2.815704345703125, 0, 0, 2.832611083984375, -0.85,14.6) ">
<use xlink:href="#BDM_160x600_psd_Asset_2_ManagedWiFi_Awareness_DM6_2_Improve__customer__satisfaction__and_increase__consumer__engage_0_Layer0_0_MEMBER_56_FILL"/>
</g>
</g>
</g>
</g>
</svg>
