
<svg xmlns="http://www.w3.org/2000/svg" version="1.1" xmlns:xlink="http://www.w3.org/1999/xlink" preserveAspectRatio="none" x="0px" y="0px" width="300px" height="600px" viewBox="0 0 300 600">
<defs>
<g id="BDM_300x600_FR_psd_Asset_V6_2_Augmentez_la__satisfaction_des_clients__et_la_mobilisation__des_0_Layer0_0_MEMBER_0_FILL">
<path fill="#D82C26" stroke="none" d="
M 4 -7.5
L 3.35 -7.5 0.1 0 0.8 0 1.95 -2.75 5.3 -2.75 6.45 0 7.15 0 4 -7.5
M 5.1 -3.3
L 2.15 -3.3 3.65 -6.85 5.1 -3.3 Z"/>
</g>

<g id="BDM_300x600_FR_psd_Asset_V6_2_Augmentez_la__satisfaction_des_clients__et_la_mobilisation__des_0_Layer0_0_MEMBER_1_FILL">
<path fill="#D82C26" stroke="none" d="
M 7.5 -1.95
Q 7.5 -1.05 7.95 -0.45 8.35 0.15 9.3 0.15 9.9 0.15 10.4 -0.2 10.85 -0.45 11.1 -1.05
L 11.2 0 11.8 0 11.7 -1.15 11.7 -4.95 11.1 -4.95 11.1 -2.5
Q 11.1 -1.75 10.9 -1.35 10.7 -0.9 10.3 -0.6 9.9 -0.35 9.45 -0.35 8.75 -0.35 8.4 -0.85 8.1 -1.35 8.1 -2.1
L 8.1 -4.95 7.5 -4.95 7.5 -1.95 Z"/>
</g>

<g id="BDM_300x600_FR_psd_Asset_V6_2_Augmentez_la__satisfaction_des_clients__et_la_mobilisation__des_0_Layer0_0_MEMBER_2_FILL">
<path fill="#D82C26" stroke="none" d="
M 13.8 -4.75
Q 13.2 -4.35 12.95 -3.8 12.6 -3.1 12.6 -2.5 12.6 -1.85 12.95 -1.15 13.3 -0.55 13.8 -0.25 14.35 0.1 15.1 0.1 15.8 0.1 16.3 -0.25 16.9 -0.6 17.1 -1.1
L 17.15 -1.1 17.15 -0.05
Q 17.15 0.95 16.65 1.5 16.15 2.1 15.1 2.1 14.7 2.1 14 1.9 13.9 1.85 13.05 1.45
L 12.95 2
Q 13.45 2.3 13.95 2.45
L 15.1 2.6
Q 16.5 2.6 17.1 1.85 17.75 1.2 17.75 -0.05
L 17.8 -4.95 17.2 -4.95 17.15 -3.85
Q 16.9 -4.4 16.3 -4.8 15.8 -5.1 15.1 -5.1 14.35 -5.1 13.8 -4.75
M 13.5 -3.55
Q 13.75 -4 14.15 -4.3 14.6 -4.6 15.2 -4.6 15.75 -4.6 16.2 -4.3 16.7 -3.95 16.9 -3.55 17.15 -3.1 17.15 -2.5 17.15 -1.8 16.9 -1.45 16.7 -1 16.2 -0.7 15.75 -0.4 15.2 -0.4 14.6 -0.4 14.15 -0.7 13.75 -0.95 13.5 -1.45 13.25 -1.95 13.25 -2.5 13.25 -2.95 13.5 -3.55 Z"/>
</g>

<g id="BDM_300x600_FR_psd_Asset_V6_2_Augmentez_la__satisfaction_des_clients__et_la_mobilisation__des_0_Layer0_0_MEMBER_3_FILL">
<path fill="#D82C26" stroke="none" d="
M 19.55 -4.95
L 18.95 -4.95 19 0 19.6 0 19.6 -2.45
Q 19.6 -3 19.8 -3.6 20 -4 20.4 -4.35 20.75 -4.6 21.15 -4.6 21.8 -4.6 22.1 -4.15 22.4 -3.7 22.4 -2.95
L 22.4 0 23.05 0 23.05 -2.55
Q 23.05 -3.45 23.5 -4 23.9 -4.6 24.6 -4.6 25.25 -4.6 25.6 -4.1 25.9 -3.55 25.9 -2.85
L 25.9 0 26.55 0 26.55 -3
Q 26.55 -3.9 26.1 -4.5 25.65 -5.1 24.75 -5.1 24.05 -5.1 23.65 -4.75 23.15 -4.45 22.95 -3.85 22.75 -4.45 22.35 -4.75 21.95 -5.1 21.3 -5.1 20.75 -5.1 20.3 -4.8 19.85 -4.45 19.6 -3.9
L 19.55 -4.95 Z"/>
</g>

<g id="BDM_300x600_FR_psd_Asset_V6_2_Augmentez_la__satisfaction_des_clients__et_la_mobilisation__des_0_Layer0_0_MEMBER_4_FILL">
<path fill="#D82C26" stroke="none" d="
M 29.85 -5.1
Q 29.15 -5.1 28.6 -4.8 28 -4.4 27.7 -3.85 27.4 -3.25 27.4 -2.5 27.4 -1.75 27.7 -1.15 28.15 -0.45 28.6 -0.2 29.15 0.15 29.95 0.15 31.1 0.15 31.9 -0.5
L 31.8 -1
Q 31.55 -0.7 31 -0.55 30.6 -0.35 30 -0.35 29.4 -0.35 28.95 -0.65 28.5 -0.9 28.25 -1.35 28 -1.95 28 -2.4
L 32.2 -2.4 32.2 -2.65
Q 32.2 -3.25 31.95 -3.9 31.65 -4.4 31.1 -4.8 30.6 -5.1 29.85 -5.1
M 28.85 -4.35
Q 29.3 -4.65 29.85 -4.65 30.6 -4.65 31.1 -4.15 31.6 -3.65 31.6 -2.85
L 28 -2.85
Q 28 -3.25 28.25 -3.65 28.45 -4 28.85 -4.35 Z"/>
</g>

<g id="BDM_300x600_FR_psd_Asset_V6_2_Augmentez_la__satisfaction_des_clients__et_la_mobilisation__des_0_Layer0_0_MEMBER_5_FILL">
<path fill="#D82C26" stroke="none" d="
M 33.6 -4.95
L 33.05 -4.95 33.1 0 33.7 0 33.7 -2.55
Q 33.7 -2.95 33.9 -3.65 34.15 -4.15 34.5 -4.35 35 -4.6 35.35 -4.6 36.05 -4.6 36.4 -4.1 36.7 -3.55 36.7 -2.85
L 36.7 0 37.35 0 37.35 -3.05
Q 37.35 -3.9 36.9 -4.5 36.45 -5.1 35.5 -5.1 34.9 -5.1 34.4 -4.75 33.95 -4.5 33.7 -3.9
L 33.6 -4.95 Z"/>
</g>

<g id="BDM_300x600_FR_psd_Asset_V6_2_Augmentez_la__satisfaction_des_clients__et_la_mobilisation__des_0_Layer0_0_MEMBER_6_FILL">
<path fill="#D82C26" stroke="none" d="
M 38.6 -6.15
L 38.6 -4.95 37.8 -4.95 37.65 -4.45 38.6 -4.45 38.6 -1.2
Q 38.6 -0.55 38.9 -0.25 39.2 0.1 39.75 0.1
L 40.3 0.05 40.8 -0.15 40.75 -0.6
Q 40.15 -0.4 39.95 -0.4 39.6 -0.4 39.4 -0.6 39.2 -0.9 39.2 -1.3
L 39.2 -4.45 40.5 -4.45 40.6 -4.95 39.2 -4.95 39.2 -6.4 38.6 -6.15 Z"/>
</g>

<g id="BDM_300x600_FR_psd_Asset_V6_2_Augmentez_la__satisfaction_des_clients__et_la_mobilisation__des_0_Layer0_0_MEMBER_7_FILL">
<path fill="#D82C26" stroke="none" d="
M 45.35 -3.9
Q 45.15 -4.35 44.55 -4.8 44.05 -5.1 43.3 -5.1 42.6 -5.1 42.05 -4.8 41.45 -4.4 41.15 -3.85 40.85 -3.25 40.85 -2.5 40.85 -1.75 41.15 -1.15 41.6 -0.45 42.05 -0.2 42.6 0.15 43.35 0.15 44.55 0.15 45.35 -0.5
L 45.25 -1
Q 45 -0.7 44.45 -0.55 44.05 -0.35 43.45 -0.35 42.85 -0.35 42.4 -0.65 41.95 -0.9 41.7 -1.35 41.45 -1.95 41.45 -2.4
L 45.65 -2.4 45.65 -2.65
Q 45.65 -3.3 45.35 -3.9
M 43.3 -4.65
Q 44.05 -4.65 44.55 -4.15 45.05 -3.65 45.05 -2.85
L 41.45 -2.85
Q 41.45 -3.25 41.7 -3.65 41.9 -4 42.3 -4.35 42.75 -4.65 43.3 -4.65 Z"/>
</g>

<g id="BDM_300x600_FR_psd_Asset_V6_2_Augmentez_la__satisfaction_des_clients__et_la_mobilisation__des_0_Layer0_0_MEMBER_8_FILL">
<path fill="#D82C26" stroke="none" d="
M 49.05 -4.45
L 46 -0.5 46 0 49.85 0 49.95 -0.5 46.75 -0.5 49.75 -4.45 49.75 -4.95 46.15 -4.95 46.05 -4.45 49.05 -4.45 Z"/>
</g>

<g id="BDM_300x600_FR_psd_Asset_V6_2_Augmentez_la__satisfaction_des_clients__et_la_mobilisation__des_0_Layer0_0_MEMBER_9_FILL">
<path fill="#D82C26" stroke="none" d="
M 52.6 -1.1
Q 52.6 -0.55 52.8 -0.3 53.05 0.05 53.4 0.1
L 53.7 -0.4 53.3 -0.7 53.2 -1.25 53.2 -8.05 52.6 -7.95 52.6 -1.1 Z"/>
</g>

<g id="BDM_300x600_FR_psd_Asset_V6_2_Augmentez_la__satisfaction_des_clients__et_la_mobilisation__des_0_Layer0_0_MEMBER_10_FILL">
<path fill="#D82C26" stroke="none" d="
M 54.15 -1.35
Q 54.15 -0.6 54.6 -0.25 55.15 0.15 55.75 0.15 56.35 0.15 56.85 -0.15 57.4 -0.45 57.6 -0.95
L 57.7 0 58.25 0 58.15 -3.2
Q 58.15 -4.15 57.65 -4.65 57.2 -5.1 56.25 -5.1
L 55.25 -4.95
Q 54.75 -4.75 54.45 -4.5
L 54.6 -4 55.35 -4.45
Q 55.8 -4.6 56.2 -4.6 56.85 -4.6 57.2 -4.25 57.6 -3.95 57.6 -3.25
L 57.6 -3 57 -3
Q 54.15 -3 54.15 -1.35
M 55.05 -0.6
Q 54.75 -0.8 54.75 -1.35 54.75 -2.55 57.05 -2.55
L 57.6 -2.55 57.6 -2.05
Q 57.6 -1.6 57.4 -1.25 57.15 -0.8 56.8 -0.6 56.5 -0.35 55.85 -0.35 55.35 -0.35 55.05 -0.6 Z"/>
</g>

<g id="BDM_300x600_FR_psd_Asset_V6_2_Augmentez_la__satisfaction_des_clients__et_la_mobilisation__des_0_Layer0_0_MEMBER_11_FILL">
<path fill="#D82C26" stroke="none" d="
M 3.9 8.1
L 3.2 7.75
Q 2.75 7.6 2.3 7.6
L 1.55 7.75
Q 1.1 7.95 0.9 8.2 0.7 8.45 0.7 8.95 0.7 9.5 1.05 9.8 1.4 10.15 2.1 10.35
L 3.15 10.8
Q 3.45 11.1 3.45 11.45 3.45 11.9 3.1 12.1 2.85 12.35 2.35 12.35 1.4 12.35 0.7 11.75
L 0.6 12.3
Q 0.95 12.55 1.35 12.7 1.8 12.85 2.35 12.85 2.75 12.85 3.2 12.7 3.6 12.45 3.8 12.2 4.05 11.8 4.05 11.4 4.05 10.9 3.7 10.55 3.35 10.2 2.5 9.95 1.85 9.75 1.55 9.5 1.25 9.3 1.25 8.95 1.25 8.55 1.55 8.3 1.8 8.1 2.35 8.1
L 3.05 8.25
Q 3.25 8.3 3.65 8.6
L 3.9 8.1 Z"/>
</g>

<g id="BDM_300x600_FR_psd_Asset_V6_2_Augmentez_la__satisfaction_des_clients__et_la_mobilisation__des_0_Layer0_0_MEMBER_12_FILL">
<path fill="#D82C26" stroke="none" d="
M 4.85 8.2
L 5.05 8.7 5.8 8.25
Q 6.25 8.1 6.65 8.1 7.3 8.1 7.65 8.45 8.05 8.75 8.05 9.45
L 8.05 9.75 7.45 9.75
Q 4.6 9.75 4.6 11.35 4.6 12.15 5.05 12.5 5.6 12.85 6.15 12.85 6.8 12.85 7.3 12.55 7.8 12.35 8.05 11.75
L 8.15 12.7 8.7 12.7 8.6 11.65 8.6 9.5
Q 8.6 8.55 8.1 8.05 7.65 7.6 6.7 7.6 6.25 7.6 5.7 7.75 5.2 7.9 4.85 8.2
M 5.2 11.35
Q 5.2 10.15 7.5 10.15
L 8.05 10.15 8.05 10.65
Q 8.05 10.95 7.85 11.45 7.65 11.85 7.25 12.1 6.9 12.4 6.3 12.4 5.9 12.4 5.5 12.15 5.2 11.85 5.2 11.35 Z"/>
</g>

<g id="BDM_300x600_FR_psd_Asset_V6_2_Augmentez_la__satisfaction_des_clients__et_la_mobilisation__des_0_Layer0_0_MEMBER_13_FILL">
<path fill="#D82C26" stroke="none" d="
M 10.55 7.75
L 10.55 6.3 9.9 6.55 9.9 7.75 9.1 7.75 9 8.25 9.9 8.25 9.9 11.5
Q 9.9 12.15 10.25 12.5 10.55 12.8 11.05 12.8
L 11.65 12.75 12.15 12.55 12.05 12.1
Q 11.65 12.3 11.25 12.3 10.9 12.3 10.7 12.1 10.55 11.9 10.55 11.45
L 10.55 8.25 11.8 8.25 11.95 7.75 10.55 7.75 Z"/>
</g>

<g id="BDM_300x600_FR_psd_Asset_V6_2_Augmentez_la__satisfaction_des_clients__et_la_mobilisation__des_0_Layer0_0_MEMBER_14_FILL">
<path fill="#D82C26" stroke="none" d="
M 13.3 7.75
L 12.65 7.75 12.65 12.7 13.3 12.7 13.3 7.75
M 13.3 6.1
L 13.4 5.75 13.3 5.45
Q 13.15 5.3 12.95 5.3
L 12.65 5.45 12.5 5.75
Q 12.5 5.95 12.65 6.1
L 12.95 6.2 13.3 6.1 Z"/>
</g>

<g id="BDM_300x600_FR_psd_Asset_V6_2_Augmentez_la__satisfaction_des_clients__et_la_mobilisation__des_0_Layer0_0_MEMBER_15_FILL">
<path fill="#D82C26" stroke="none" d="
M 14.2 11.75
L 14.1 12.3
Q 14.45 12.55 14.85 12.7 15.4 12.85 15.9 12.85 16.35 12.85 16.7 12.7
L 17.35 12.2
Q 17.55 11.85 17.55 11.4 17.55 10.85 17.2 10.55 16.85 10.2 16.05 9.95 15.4 9.75 15.05 9.5 14.8 9.3 14.8 8.95 14.8 8.55 15.1 8.3 15.35 8.1 15.85 8.1 16.25 8.1 16.55 8.25 16.85 8.3 17.15 8.6
L 17.4 8.1 16.7 7.75
Q 16.35 7.6 15.85 7.6 15.45 7.6 15.05 7.75 14.7 7.9 14.45 8.2 14.2 8.55 14.2 8.95 14.2 9.5 14.55 9.8 15 10.15 15.6 10.35 16.35 10.6 16.65 10.8 16.95 11.1 16.95 11.45 16.95 11.9 16.65 12.1 16.4 12.35 15.85 12.35 14.9 12.35 14.2 11.75 Z"/>
</g>

<g id="BDM_300x600_FR_psd_Asset_V6_2_Augmentez_la__satisfaction_des_clients__et_la_mobilisation__des_0_Layer0_0_MEMBER_16_FILL">
<path fill="#D82C26" stroke="none" d="
M 20.9 4.6
L 20.4 4.55
Q 19.7 4.55 19.25 5 18.85 5.5 18.85 6.3
L 18.85 7.75 17.95 7.75 17.85 8.25 18.85 8.25 18.85 12.7 19.5 12.7 19.5 8.25 20.65 8.25 20.75 7.75 19.5 7.75 19.5 6.3
Q 19.5 5.7 19.7 5.45 19.9 5.1 20.45 5.1 20.95 5.1 21.25 5.2
L 21.3 4.7 20.9 4.6 Z"/>
</g>

<g id="BDM_300x600_FR_psd_Asset_V6_2_Augmentez_la__satisfaction_des_clients__et_la_mobilisation__des_0_Layer0_0_MEMBER_17_FILL">
<path fill="#D82C26" stroke="none" d="
M 22.95 8.1
Q 23.65 8.1 24 8.45 24.35 8.75 24.35 9.45
L 24.35 9.75 23.75 9.75
Q 20.9 9.75 20.9 11.35 20.9 12.15 21.4 12.5 21.95 12.85 22.5 12.85 23.1 12.85 23.6 12.55 24.1 12.35 24.35 11.75
L 24.4 11.75 24.45 12.7 25.05 12.7
Q 24.95 12.45 24.95 11.65
L 24.95 9.5
Q 24.95 8.65 24.45 8.05 23.95 7.6 23.05 7.6 22.5 7.6 22.05 7.75 21.5 7.9 21.2 8.2
L 21.35 8.7 22.1 8.25
Q 22.55 8.1 22.95 8.1
M 21.85 12.15
Q 21.5 11.85 21.5 11.35 21.5 10.15 23.85 10.15
L 24.35 10.15 24.35 10.65
Q 24.35 11.1 24.15 11.45 24 11.85 23.55 12.1 23.2 12.4 22.6 12.4 22.2 12.4 21.85 12.15 Z"/>
</g>

<g id="BDM_300x600_FR_psd_Asset_V6_2_Augmentez_la__satisfaction_des_clients__et_la_mobilisation__des_0_Layer0_0_MEMBER_18_FILL">
<path fill="#D82C26" stroke="none" d="
M 29.3 7.75
Q 28.85 7.6 28.4 7.6 27.6 7.6 27.05 7.95 26.45 8.25 26.1 8.9 25.75 9.6 25.75 10.25 25.75 10.9 26.1 11.6 26.5 12.2 27.05 12.5 27.55 12.85 28.35 12.85 28.85 12.85 29.3 12.7 29.75 12.55 30.05 12.25
L 29.95 11.75
Q 29.75 11.95 29.25 12.15 28.9 12.3 28.4 12.3 27.85 12.3 27.35 12.05 27 11.8 26.65 11.3 26.4 10.7 26.4 10.25 26.4 9.7 26.65 9.2 26.95 8.65 27.35 8.4 27.8 8.1 28.4 8.1
L 29.15 8.25
Q 29.55 8.4 29.8 8.65
L 30.05 8.2
Q 29.85 7.9 29.3 7.75 Z"/>
</g>

<g id="BDM_300x600_FR_psd_Asset_V6_2_Augmentez_la__satisfaction_des_clients__et_la_mobilisation__des_0_Layer0_0_MEMBER_19_FILL">
<path fill="#D82C26" stroke="none" d="
M 33.05 8.25
L 33.2 7.75 31.8 7.75 31.8 6.3 31.15 6.55 31.15 7.75 30.35 7.75 30.25 8.25 31.2 8.25 31.2 11.5
Q 31.2 12.15 31.5 12.5 31.8 12.8 32.35 12.8
L 32.9 12.75 33.4 12.55 33.3 12.1
Q 32.9 12.3 32.5 12.3 32.15 12.3 32 12.1 31.8 11.9 31.8 11.45
L 31.8 8.25 33.05 8.25 Z"/>
</g>

<g id="BDM_300x600_FR_psd_Asset_V6_2_Augmentez_la__satisfaction_des_clients__et_la_mobilisation__des_0_Layer0_0_MEMBER_20_FILL">
<path fill="#D82C26" stroke="none" d="
M 34.55 7.75
L 33.9 7.75 33.9 12.7 34.55 12.7 34.55 7.75
M 34.55 6.1
Q 34.7 5.95 34.7 5.75
L 34.55 5.45 34.25 5.3
Q 34.05 5.3 33.9 5.45
L 33.8 5.75 33.9 6.1 34.25 6.2 34.55 6.1 Z"/>
</g>

<g id="BDM_300x600_FR_psd_Asset_V6_2_Augmentez_la__satisfaction_des_clients__et_la_mobilisation__des_0_Layer0_0_MEMBER_21_FILL">
<path fill="#D82C26" stroke="none" d="
M 39.4 7.95
Q 38.85 7.6 38.05 7.6 37.25 7.6 36.7 7.95 36.15 8.25 35.75 8.85 35.4 9.55 35.4 10.2 35.4 10.8 35.75 11.6 36.15 12.2 36.7 12.5 37.25 12.85 38.05 12.85 38.85 12.85 39.4 12.5 40.05 12.15 40.35 11.6 40.7 10.95 40.7 10.2 40.7 9.4 40.35 8.85 40.05 8.3 39.4 7.95
M 39.1 8.4
Q 39.55 8.7 39.85 9.15 40.05 9.6 40.05 10.2 40.05 10.85 39.85 11.25 39.55 11.8 39.15 12.05 38.65 12.35 38.05 12.35 37.45 12.35 37 12.05 36.5 11.7 36.3 11.25 36.05 10.9 36.05 10.2 36.05 9.6 36.3 9.15 36.5 8.75 37 8.4 37.45 8.1 38.05 8.1 38.65 8.1 39.1 8.4 Z"/>
</g>

<g id="BDM_300x600_FR_psd_Asset_V6_2_Augmentez_la__satisfaction_des_clients__et_la_mobilisation__des_0_Layer0_0_MEMBER_22_FILL">
<path fill="#D82C26" stroke="none" d="
M 45.4 8.2
Q 44.95 7.6 44 7.6 43.4 7.6 42.9 7.95 42.45 8.25 42.2 8.8
L 42.15 7.75 41.55 7.75 41.6 12.7 42.2 12.7 42.2 10.2
Q 42.2 9.6 42.45 9.1 42.65 8.7 43.05 8.35 43.45 8.1 43.85 8.1 44.55 8.1 44.9 8.6 45.2 9.15 45.2 9.85
L 45.2 12.7 45.85 12.7 45.85 9.7
Q 45.85 8.8 45.4 8.2 Z"/>
</g>

<g id="BDM_300x600_FR_psd_Asset_V6_2_Augmentez_la__satisfaction_des_clients__et_la_mobilisation__des_0_Layer0_0_MEMBER_23_FILL">
<path fill="#D82C26" stroke="none" d="
M 53.75 4.6
L 53.15 4.7 53.15 8.8
Q 52.85 8.3 52.3 7.9 51.8 7.6 51.1 7.6 50.35 7.6 49.8 7.95 49.2 8.35 48.95 8.9 48.65 9.5 48.65 10.25 48.65 10.95 48.95 11.55 49.2 12.1 49.8 12.5 50.35 12.85 51.1 12.85 51.8 12.85 52.3 12.55 52.85 12.15 53.15 11.65
L 53.2 12.7 53.8 12.7 53.75 4.6
M 52.2 12.05
Q 51.75 12.35 51.2 12.35 50.6 12.35 50.15 12.05 49.75 11.8 49.5 11.3 49.25 10.7 49.25 10.25 49.25 9.7 49.5 9.2 49.7 8.7 50.15 8.4 50.6 8.1 51.2 8.1 51.75 8.1 52.2 8.4 52.7 8.75 52.9 9.2 53.15 9.6 53.15 10.25 53.15 10.85 52.9 11.3 52.7 11.75 52.2 12.05 Z"/>
</g>

<g id="BDM_300x600_FR_psd_Asset_V6_2_Augmentez_la__satisfaction_des_clients__et_la_mobilisation__des_0_Layer0_0_MEMBER_24_FILL">
<path fill="#D82C26" stroke="none" d="
M 54.65 10.2
Q 54.65 10.95 55 11.6 55.3 12.2 55.9 12.5 56.4 12.85 57.2 12.85 58.35 12.85 59.15 12.25
L 59.05 11.7
Q 58.75 12 58.25 12.15 57.85 12.35 57.25 12.35 56.65 12.35 56.2 12.05 55.85 11.9 55.5 11.35 55.25 10.85 55.25 10.3
L 59.45 10.3 59.45 10.05
Q 59.45 9.3 59.2 8.8 58.9 8.25 58.4 7.9 57.9 7.6 57.1 7.6 56.4 7.6 55.85 7.95 55.35 8.25 54.95 8.85 54.65 9.45 54.65 10.2
M 55.25 9.85
Q 55.35 9.35 55.5 9.05 55.75 8.6 56.15 8.35 56.45 8.1 57.1 8.1 57.9 8.1 58.4 8.55 58.85 9.05 58.9 9.85
L 55.25 9.85 Z"/>
</g>

<g id="BDM_300x600_FR_psd_Asset_V6_2_Augmentez_la__satisfaction_des_clients__et_la_mobilisation__des_0_Layer0_0_MEMBER_25_FILL">
<path fill="#D82C26" stroke="none" d="
M 61.7 7.6
Q 61.3 7.6 60.9 7.75 60.55 7.9 60.3 8.2 60.05 8.45 60.05 8.95 60.05 9.5 60.4 9.8 60.85 10.15 61.45 10.35 62.2 10.6 62.5 10.8 62.8 11.1 62.8 11.45 62.8 11.9 62.5 12.1 62.2 12.35 61.7 12.35 60.75 12.35 60.05 11.75
L 59.95 12.3
Q 60.3 12.55 60.7 12.7 61.25 12.85 61.75 12.85 62.2 12.85 62.55 12.7 62.95 12.45 63.15 12.2 63.4 11.9 63.4 11.4 63.4 10.85 63.05 10.55 62.7 10.2 61.9 9.95 61.25 9.75 60.9 9.5 60.65 9.3 60.65 8.95 60.65 8.55 60.95 8.3 61.2 8.1 61.7 8.1 62.1 8.1 62.4 8.25 62.7 8.3 63 8.6
L 63.25 8.1 62.55 7.75
Q 62.2 7.6 61.7 7.6 Z"/>
</g>

<g id="BDM_300x600_FR_psd_Asset_V6_2_Augmentez_la__satisfaction_des_clients__et_la_mobilisation__des_0_Layer0_0_MEMBER_26_FILL">
<path fill="#D82C26" stroke="none" d="
M 69.35 7.75
Q 68.9 7.6 68.4 7.6 67.6 7.6 67.1 7.95 66.4 8.3 66.15 8.9 65.8 9.45 65.8 10.25 65.8 11.05 66.15 11.6 66.45 12.2 67.05 12.5 67.6 12.85 68.4 12.85 68.9 12.85 69.35 12.7 69.8 12.55 70.1 12.25
L 70 11.75
Q 69.8 11.95 69.3 12.15 68.95 12.3 68.45 12.3 67.9 12.3 67.4 12.05 66.9 11.75 66.7 11.3 66.45 10.7 66.45 10.25 66.45 9.7 66.7 9.2 66.9 8.75 67.4 8.4 67.85 8.1 68.4 8.1 68.85 8.1 69.2 8.25
L 69.85 8.65 70.1 8.2
Q 69.8 7.9 69.35 7.75 Z"/>
</g>

<g id="BDM_300x600_FR_psd_Asset_V6_2_Augmentez_la__satisfaction_des_clients__et_la_mobilisation__des_0_Layer0_0_MEMBER_27_FILL">
<path fill="#D82C26" stroke="none" d="
M 70.95 12.4
Q 71.15 12.7 71.5 12.85
L 71.8 12.3 71.45 12
Q 71.35 11.9 71.35 11.45
L 71.35 4.65 70.7 4.75 70.7 11.6
Q 70.7 12.05 70.95 12.4 Z"/>
</g>

<g id="BDM_300x600_FR_psd_Asset_V6_2_Augmentez_la__satisfaction_des_clients__et_la_mobilisation__des_0_Layer0_0_MEMBER_28_FILL">
<path fill="#D82C26" stroke="none" d="
M 73.25 7.75
L 72.6 7.75 72.6 12.7 73.25 12.7 73.25 7.75
M 73.25 6.1
L 73.35 5.75 73.25 5.45
Q 73.1 5.3 72.9 5.3
L 72.6 5.45 72.45 5.75
Q 72.45 5.95 72.6 6.1
L 72.9 6.2 73.25 6.1 Z"/>
</g>

<g id="BDM_300x600_FR_psd_Asset_V6_2_Augmentez_la__satisfaction_des_clients__et_la_mobilisation__des_0_Layer0_0_MEMBER_29_FILL">
<path fill="#D82C26" stroke="none" d="
M 74.1 10.2
Q 74.1 10.8 74.45 11.6 74.75 12.2 75.35 12.5 75.9 12.85 76.65 12.85 77.85 12.85 78.65 12.25
L 78.55 11.7
Q 78.15 12 77.75 12.15 77.3 12.35 76.7 12.35 76.15 12.35 75.7 12.05 75.25 11.8 75 11.35 74.75 11 74.75 10.3
L 78.95 10.3 78.95 10.05
Q 78.95 9.4 78.65 8.8 78.45 8.35 77.85 7.9 77.35 7.6 76.6 7.6 75.85 7.6 75.35 7.95 74.75 8.25 74.45 8.85 74.1 9.55 74.1 10.2
M 75 9.05
Q 75.15 8.75 75.6 8.35 76 8.1 76.6 8.1 77.4 8.1 77.85 8.55 78.35 9.15 78.35 9.85
L 74.75 9.85
Q 74.75 9.55 75 9.05 Z"/>
</g>

<g id="BDM_300x600_FR_psd_Asset_V6_2_Augmentez_la__satisfaction_des_clients__et_la_mobilisation__des_0_Layer0_0_MEMBER_30_FILL">
<path fill="#D82C26" stroke="none" d="
M 82.25 7.6
Q 81.55 7.6 81.15 7.95 80.7 8.2 80.45 8.8
L 80.4 8.8 80.35 7.75 79.8 7.75 79.8 12.7 80.45 12.7 80.45 10.2
Q 80.45 9.5 80.65 9.1 80.85 8.7 81.25 8.35 81.65 8.1 82.1 8.1 82.8 8.1 83.15 8.6 83.45 9.15 83.45 9.85
L 83.45 12.7 84.05 12.7 84.05 9.7
Q 84.05 8.8 83.6 8.2 83.15 7.6 82.25 7.6 Z"/>
</g>

<g id="BDM_300x600_FR_psd_Asset_V6_2_Augmentez_la__satisfaction_des_clients__et_la_mobilisation__des_0_Layer0_0_MEMBER_31_FILL">
<path fill="#D82C26" stroke="none" d="
M 85.35 8.25
L 85.35 11.5
Q 85.35 12.15 85.65 12.5 85.95 12.8 86.5 12.8
L 87.05 12.75 87.55 12.55 87.45 12.1
Q 87.05 12.3 86.65 12.3 86.35 12.3 86.15 12.1 85.95 11.9 85.95 11.45
L 85.95 8.25 87.25 8.25 87.35 7.75 85.95 7.75 85.95 6.3 85.35 6.55 85.35 7.75 84.55 7.75 84.4 8.25 85.35 8.25 Z"/>
</g>

<g id="BDM_300x600_FR_psd_Asset_V6_2_Augmentez_la__satisfaction_des_clients__et_la_mobilisation__des_0_Layer0_0_MEMBER_32_FILL">
<path fill="#D82C26" stroke="none" d="
M 89.6 7.6
L 88.85 7.75
Q 88.4 7.95 88.2 8.2 88 8.45 88 8.95 88 9.5 88.35 9.8 88.7 10.15 89.4 10.35
L 90.45 10.8
Q 90.75 11.1 90.75 11.45 90.75 11.9 90.4 12.1 90.15 12.35 89.65 12.35 88.7 12.35 88 11.75
L 87.9 12.3
Q 88.25 12.55 88.65 12.7 89.1 12.85 89.65 12.85 90.05 12.85 90.5 12.7 90.9 12.45 91.1 12.2 91.35 11.8 91.35 11.4 91.35 10.85 90.95 10.55 90.65 10.2 89.8 9.95 89.15 9.75 88.85 9.5 88.55 9.3 88.55 8.95 88.55 8.55 88.85 8.3 89.1 8.1 89.65 8.1 90 8.1 90.35 8.25 90.55 8.3 90.95 8.6
L 91.2 8.1 90.5 7.75
Q 90.05 7.6 89.6 7.6 Z"/>
</g>

<g id="BDM_300x600_FR_psd_Asset_V6_2_Augmentez_la__satisfaction_des_clients__et_la_mobilisation__des_0_Layer0_0_MEMBER_33_FILL">
<path fill="#D82C26" stroke="none" d="
M 4.35 20.65
Q 3.8 20.3 3.05 20.3 2.3 20.3 1.8 20.65 1.3 20.95 0.9 21.55 0.6 22.15 0.6 22.9 0.6 23.7 0.9 24.3 1.25 24.9 1.85 25.25 2.4 25.55 3.15 25.55 4.3 25.55 5.1 24.95
L 5 24.4
Q 4.75 24.7 4.2 24.85 3.8 25.05 3.2 25.05 2.65 25.05 2.15 24.8 1.8 24.55 1.45 24.05 1.2 23.55 1.2 23
L 5.4 23 5.4 22.75
Q 5.4 22.15 5.15 21.5 4.8 20.9 4.35 20.65
M 3.05 20.8
Q 3.85 20.8 4.3 21.3 4.8 21.75 4.8 22.55
L 1.2 22.55
Q 1.2 22.25 1.45 21.75 1.7 21.3 2.1 21.05 2.5 20.8 3.05 20.8 Z"/>
</g>

<g id="BDM_300x600_FR_psd_Asset_V6_2_Augmentez_la__satisfaction_des_clients__et_la_mobilisation__des_0_Layer0_0_MEMBER_34_FILL">
<path fill="#D82C26" stroke="none" d="
M 8.3 20.95
L 8.4 20.45 7 20.45 7 19.05 6.4 19.3 6.4 20.45 5.6 20.45 5.45 20.95 6.4 20.95 6.4 24.2
Q 6.4 24.85 6.7 25.2 7 25.5 7.55 25.5
L 8.1 25.45 8.6 25.25 8.55 24.8
Q 8.15 25 7.75 25 7.4 25 7.2 24.8 7 24.5 7 24.15
L 7 20.95 8.3 20.95 Z"/>
</g>

<g id="BDM_300x600_FR_psd_Asset_V6_2_Augmentez_la__satisfaction_des_clients__et_la_mobilisation__des_0_Layer0_0_MEMBER_35_FILL">
<path fill="#D82C26" stroke="none" d="
M 11.25 25.1
Q 11.4 25.4 11.8 25.55
L 12.1 25
Q 11.85 24.95 11.75 24.7 11.65 24.6 11.65 24.2
L 11.65 17.35 11 17.45 11 24.3
Q 11 24.75 11.25 25.1 Z"/>
</g>

<g id="BDM_300x600_FR_psd_Asset_V6_2_Augmentez_la__satisfaction_des_clients__et_la_mobilisation__des_0_Layer0_0_MEMBER_36_FILL">
<path fill="#D82C26" stroke="none" d="
M 13.75 21
Q 14.15 20.8 14.6 20.8 15.25 20.8 15.6 21.15 16 21.45 16 22.15
L 16 22.45 15.4 22.45
Q 12.55 22.45 12.55 24.1 12.55 24.85 13 25.2 13.5 25.55 14.15 25.55 14.65 25.55 15.25 25.3 15.75 25 16 24.45
L 16.1 25.4 16.65 25.4 16.6 22.2
Q 16.6 21.3 16.1 20.8 15.6 20.3 14.65 20.3
L 13.65 20.45
Q 13.05 20.75 12.85 20.95
L 13 21.4
Q 13.35 21.15 13.75 21
M 16 23.35
Q 16 23.8 15.8 24.15 15.6 24.6 15.2 24.85 14.8 25.1 14.25 25.1 13.85 25.1 13.45 24.85 13.15 24.65 13.15 24.05 13.15 22.85 15.5 22.85
L 16 22.85 16 23.35 Z"/>
</g>

<g id="BDM_300x600_FR_psd_Asset_V6_2_Augmentez_la__satisfaction_des_clients__et_la_mobilisation__des_0_Layer0_0_MEMBER_37_FILL">
<path fill="#D82C26" stroke="none" d="
M 24.4 20.65
Q 23.95 20.95 23.7 21.6 23.55 20.95 23.1 20.65 22.75 20.3 22.1 20.3 21.45 20.3 21.05 20.65 20.55 20.95 20.35 21.55
L 20.3 20.45 19.7 20.45 19.75 25.4 20.4 25.4 20.4 22.95
Q 20.4 22.25 20.6 21.8 20.85 21.25 21.15 21.1 21.45 20.85 21.95 20.85 22.55 20.85 22.85 21.25 23.2 21.65 23.2 22.5
L 23.2 25.4 23.8 25.4 23.8 22.85
Q 23.8 21.95 24.25 21.4 24.65 20.85 25.4 20.85 26.1 20.85 26.4 21.35 26.7 21.8 26.7 22.6
L 26.7 25.4 27.3 25.4 27.3 22.45
Q 27.3 21.5 26.85 20.9 26.5 20.3 25.5 20.3 24.9 20.3 24.4 20.65 Z"/>
</g>

<g id="BDM_300x600_FR_psd_Asset_V6_2_Augmentez_la__satisfaction_des_clients__et_la_mobilisation__des_0_Layer0_0_MEMBER_38_FILL">
<path fill="#D82C26" stroke="none" d="
M 28.5 21.55
Q 28.15 22.1 28.15 22.95 28.15 23.75 28.5 24.3 28.75 24.8 29.45 25.25 30 25.55 30.8 25.55 31.55 25.55 32.15 25.25 32.75 24.9 33.1 24.3 33.4 23.7 33.4 22.95 33.4 22.15 33.1 21.55 32.7 20.95 32.15 20.65 31.6 20.3 30.8 20.3 29.95 20.3 29.45 20.65 28.8 21 28.5 21.55
M 29 21.85
Q 29.2 21.45 29.7 21.1 30.2 20.85 30.8 20.85 31.35 20.85 31.85 21.1 32.35 21.45 32.55 21.85 32.8 22.45 32.8 22.95 32.8 23.4 32.55 24 32.35 24.45 31.85 24.75 31.4 25.05 30.8 25.05 30.15 25.05 29.7 24.75 29.2 24.45 29 24 28.75 23.4 28.75 22.95 28.75 22.45 29 21.85 Z"/>
</g>

<g id="BDM_300x600_FR_psd_Asset_V6_2_Augmentez_la__satisfaction_des_clients__et_la_mobilisation__des_0_Layer0_0_MEMBER_39_FILL">
<path fill="#D82C26" stroke="none" d="
M 34.9 17.3
L 34.3 17.4 34.25 25.4 34.8 25.4 34.9 24.35
Q 35.25 24.95 35.75 25.25 36.3 25.55 36.95 25.55 37.7 25.55 38.25 25.2 38.8 24.9 39.1 24.25 39.45 23.7 39.45 22.95 39.45 22.15 39.1 21.6 38.85 21.05 38.25 20.65 37.55 20.3 36.95 20.3 36.3 20.3 35.8 20.65 35.25 20.9 34.95 21.55
L 34.9 21.55 34.9 17.3
M 34.9 22.95
Q 34.9 22.4 35.15 21.9 35.45 21.35 35.85 21.1 36.35 20.85 36.85 20.85 37.4 20.85 37.9 21.1 38.3 21.35 38.6 21.9 38.8 22.3 38.8 22.95 38.8 23.55 38.6 24 38.25 24.5 37.9 24.75 37.45 25.05 36.85 25.05 36.3 25.05 35.85 24.75 35.5 24.5 35.15 24 34.9 23.4 34.9 22.95 Z"/>
</g>

<g id="BDM_300x600_FR_psd_Asset_V6_2_Augmentez_la__satisfaction_des_clients__et_la_mobilisation__des_0_Layer0_0_MEMBER_40_FILL">
<path fill="#D82C26" stroke="none" d="
M 40.95 18.15
Q 40.85 18.05 40.6 18.05 40.4 18.05 40.3 18.15
L 40.15 18.45
Q 40.15 18.65 40.3 18.8
L 40.6 18.95
Q 40.8 18.95 40.95 18.8
L 41.05 18.45 40.95 18.15
M 40.95 25.4
L 40.95 20.45 40.3 20.45 40.3 25.4 40.95 25.4 Z"/>
</g>

<g id="BDM_300x600_FR_psd_Asset_V6_2_Augmentez_la__satisfaction_des_clients__et_la_mobilisation__des_0_Layer0_0_MEMBER_41_FILL">
<path fill="#D82C26" stroke="none" d="
M 42.35 25.1
Q 42.6 25.4 42.95 25.55
L 43.25 25
Q 43 24.95 42.85 24.7
L 42.75 24.2 42.75 17.35 42.15 17.45 42.15 24.3
Q 42.15 24.85 42.35 25.1 Z"/>
</g>

<g id="BDM_300x600_FR_psd_Asset_V6_2_Augmentez_la__satisfaction_des_clients__et_la_mobilisation__des_0_Layer0_0_MEMBER_42_FILL">
<path fill="#D82C26" stroke="none" d="
M 44.65 20.45
L 44.05 20.45 44.05 25.4 44.65 25.4 44.65 20.45
M 44.8 18.45
L 44.65 18.15
Q 44.55 18.05 44.35 18.05 44.15 18.05 44.05 18.15
L 43.9 18.45
Q 43.9 18.65 44.05 18.8
L 44.35 18.95 44.65 18.8
Q 44.8 18.65 44.8 18.45 Z"/>
</g>

<g id="BDM_300x600_FR_psd_Asset_V6_2_Augmentez_la__satisfaction_des_clients__et_la_mobilisation__des_0_Layer0_0_MEMBER_43_FILL">
<path fill="#D82C26" stroke="none" d="
M 48.8 20.85
Q 48.4 20.55 48.1 20.45 47.75 20.3 47.2 20.3
L 46.45 20.45
Q 46.1 20.6 45.8 20.9 45.6 21.25 45.6 21.65 45.6 22.25 45.95 22.55 46.2 22.8 47 23.05 47.5 23.2 48.05 23.55 48.35 23.8 48.35 24.15 48.35 24.6 48.05 24.8 47.75 25.05 47.25 25.05 46.3 25.05 45.6 24.45
L 45.5 25
Q 45.85 25.25 46.25 25.4 46.7 25.55 47.25 25.55 47.75 25.55 48.1 25.4 48.4 25.25 48.7 24.9 48.95 24.55 48.95 24.1 48.95 23.55 48.6 23.25 48.25 22.9 47.4 22.65 46.75 22.45 46.45 22.2 46.15 22.05 46.15 21.65 46.15 21.25 46.45 21 46.8 20.8 47.25 20.8 47.65 20.8 47.95 20.95
L 48.55 21.3 48.8 20.85 Z"/>
</g>

<g id="BDM_300x600_FR_psd_Asset_V6_2_Augmentez_la__satisfaction_des_clients__et_la_mobilisation__des_0_Layer0_0_MEMBER_44_FILL">
<path fill="#D82C26" stroke="none" d="
M 50.6 20.45
Q 50 20.75 49.75 20.95
L 49.95 21.4
Q 50.3 21.15 50.7 21 51.1 20.8 51.55 20.8 52.2 20.8 52.55 21.15 52.95 21.45 52.95 22.15
L 52.95 22.45 52.35 22.45
Q 49.5 22.45 49.5 24.1 49.5 24.85 49.95 25.2 50.35 25.55 51.1 25.55 51.6 25.55 52.2 25.3 52.7 25 52.95 24.45
L 53.05 25.4 53.6 25.4 53.5 24.35 53.5 22.2
Q 53.5 21.25 53 20.8 52.55 20.3 51.6 20.3
L 50.6 20.45
M 52.95 23.35
Q 52.95 23.65 52.75 24.15 52.55 24.5 52.15 24.85 51.75 25.1 51.2 25.1 50.8 25.1 50.4 24.85 50.1 24.65 50.1 24.05 50.1 22.85 52.4 22.85
L 52.95 22.85 52.95 23.35 Z"/>
</g>

<g id="BDM_300x600_FR_psd_Asset_V6_2_Augmentez_la__satisfaction_des_clients__et_la_mobilisation__des_0_Layer0_0_MEMBER_45_FILL">
<path fill="#D82C26" stroke="none" d="
M 54.8 20.95
L 54.8 24.2
Q 54.8 24.85 55.15 25.2 55.45 25.5 55.95 25.5
L 56.55 25.45 57.05 25.25 56.95 24.8
Q 56.55 25 56.15 25 55.8 25 55.65 24.8 55.45 24.6 55.45 24.15
L 55.45 20.95 56.7 20.95 56.85 20.45 55.45 20.45 55.45 19.05 54.8 19.3 54.8 20.45 54 20.45 53.9 20.95 54.8 20.95 Z"/>
</g>

<g id="BDM_300x600_FR_psd_Asset_V6_2_Augmentez_la__satisfaction_des_clients__et_la_mobilisation__des_0_Layer0_0_MEMBER_46_FILL">
<path fill="#D82C26" stroke="none" d="
M 58.2 20.45
L 57.55 20.45 57.55 25.4 58.2 25.4 58.2 20.45
M 58.3 18.45
L 58.2 18.15
Q 58.1 18.05 57.85 18.05 57.65 18.05 57.55 18.15 57.45 18.25 57.45 18.45 57.45 18.7 57.55 18.8
L 57.85 18.95
Q 58.05 18.95 58.2 18.8
L 58.3 18.45 Z"/>
</g>

<g id="BDM_300x600_FR_psd_Asset_V6_2_Augmentez_la__satisfaction_des_clients__et_la_mobilisation__des_0_Layer0_0_MEMBER_47_FILL">
<path fill="#D82C26" stroke="none" d="
M 64 24.3
Q 64.35 23.6 64.35 22.95 64.35 22.25 64 21.55 63.6 20.95 63.05 20.65 62.5 20.3 61.7 20.3 60.9 20.3 60.35 20.65 59.8 20.95 59.4 21.55 59.05 22.1 59.05 22.95 59.05 23.75 59.4 24.3 59.75 24.9 60.35 25.25 60.95 25.55 61.7 25.55 62.45 25.55 63.05 25.25 63.65 24.9 64 24.3
M 63.7 22.95
Q 63.7 23.55 63.45 24 63.25 24.45 62.75 24.75 62.3 25.05 61.7 25.05 61.1 25.05 60.65 24.75 60.25 24.5 59.9 24 59.7 23.55 59.7 22.95 59.7 22.3 59.9 21.85 60.25 21.35 60.65 21.1 61.15 20.85 61.7 20.85 62.25 20.85 62.75 21.1 63.25 21.45 63.45 21.85 63.7 22.3 63.7 22.95 Z"/>
</g>

<g id="BDM_300x600_FR_psd_Asset_V6_2_Augmentez_la__satisfaction_des_clients__et_la_mobilisation__des_0_Layer0_0_MEMBER_48_FILL">
<path fill="#D82C26" stroke="none" d="
M 65.75 20.45
L 65.2 20.45 65.25 25.4 65.85 25.4 65.85 22.9
Q 65.85 22.4 66.05 21.8 66.25 21.35 66.65 21.1 67.05 20.85 67.5 20.85 68.25 20.85 68.55 21.3 68.85 21.85 68.85 22.55
L 68.85 25.4 69.5 25.4 69.5 22.4
Q 69.5 21.5 69.05 20.9 68.6 20.3 67.65 20.3 67.05 20.3 66.55 20.65 66.1 20.9 65.85 21.55
L 65.75 20.45 Z"/>
</g>

<g id="BDM_300x600_FR_psd_Asset_V6_2_Augmentez_la__satisfaction_des_clients__et_la_mobilisation__des_0_Layer0_0_MEMBER_49_FILL">
<path fill="#D82C26" stroke="none" d="
M 5.75 30
L 5.1 30.1 5.1 34.25
Q 4.8 33.65 4.25 33.35 3.65 33 3.1 33 2.4 33 1.8 33.35 1.2 33.75 0.9 34.3 0.6 34.9 0.6 35.65 0.6 36.4 0.9 37 1.2 37.6 1.8 37.9 2.3 38.25 3.1 38.25 3.75 38.25 4.25 37.95 4.8 37.7 5.1 37.05
L 5.15 37.05 5.2 38.15 5.8 38.15 5.75 30
M 3.15 33.55
Q 3.75 33.55 4.2 33.85 4.6 34.05 4.9 34.6 5.15 35.1 5.15 35.65 5.15 36.2 4.9 36.7 4.55 37.2 4.2 37.45 3.75 37.75 3.15 37.75 2.6 37.75 2.15 37.45 1.7 37.25 1.45 36.7 1.2 36.2 1.2 35.65 1.2 35.1 1.45 34.6 1.65 34.1 2.15 33.85 2.6 33.55 3.15 33.55 Z"/>
</g>

<g id="BDM_300x600_FR_psd_Asset_V6_2_Augmentez_la__satisfaction_des_clients__et_la_mobilisation__des_0_Layer0_0_MEMBER_50_FILL">
<path fill="#D82C26" stroke="none" d="
M 11.15 34.25
Q 10.95 33.7 10.35 33.35 9.85 33 9.1 33 8.35 33 7.85 33.35 7.3 33.6 6.95 34.25 6.6 34.95 6.6 35.6 6.6 36.3 6.95 37 7.25 37.55 7.85 37.95 8.55 38.3 9.15 38.3 10.25 38.3 11.15 37.65
L 11.05 37.1 10.25 37.6 9.2 37.75
Q 8.6 37.75 8.2 37.5 7.7 37.2 7.5 36.75 7.3 36.45 7.2 35.75
L 11.45 35.75 11.45 35.45
Q 11.45 34.8 11.15 34.25
M 10.35 34
Q 10.85 34.5 10.85 35.3
L 7.25 35.3
Q 7.25 35.05 7.45 34.45 7.7 34.05 8.1 33.8 8.55 33.5 9.1 33.5 9.9 33.5 10.35 34 Z"/>
</g>

<g id="BDM_300x600_FR_psd_Asset_V6_2_Augmentez_la__satisfaction_des_clients__et_la_mobilisation__des_0_Layer0_0_MEMBER_51_FILL">
<path fill="#D82C26" stroke="none" d="
M 14.4 33.65
L 14.95 34 15.25 33.55 14.55 33.15
Q 14.1 33 13.65 33 13.25 33 12.85 33.15 12.45 33.3 12.25 33.65 12 34 12 34.4 12 34.9 12.35 35.25 12.6 35.45 13.4 35.8 14.15 36.05 14.45 36.25 14.8 36.45 14.8 36.85 14.8 37.25 14.45 37.55 14.1 37.8 13.65 37.8 12.7 37.8 12 37.15
L 11.9 37.7
Q 12.15 37.95 12.7 38.1 13.15 38.25 13.7 38.25 14.15 38.25 14.5 38.1 14.95 37.9 15.15 37.6 15.4 37.25 15.4 36.8 15.4 36.25 15 35.95 14.6 35.6 13.85 35.35 13.15 35.1 12.85 34.9 12.6 34.75 12.6 34.35 12.6 33.95 12.9 33.7 13.3 33.5 13.65 33.5
L 14.4 33.65 Z"/>
</g>

<g id="BDM_300x600_FR_psd_Asset_V6_2_Augmentez_la__satisfaction_des_clients__et_la_mobilisation__des_0_Layer0_0_MEMBER_52_FILL">
<path fill="#D82C26" stroke="none" d="
M 18.1 37
Q 18.45 37.6 19.05 37.95 19.65 38.3 20.35 38.3 20.7 38.3 21.3 38.1 21.75 37.95 22.05 37.65
L 21.95 37.15
Q 21.65 37.45 21.25 37.6 20.9 37.75 20.4 37.75 19.8 37.75 19.35 37.45 18.85 37.15 18.65 36.7 18.4 36.2 18.4 35.65 18.4 35.1 18.65 34.6 18.85 34.1 19.35 33.85 19.8 33.55 20.4 33.55
L 21.15 33.7
Q 21.65 33.9 21.8 34.1
L 22.05 33.6
Q 21.8 33.35 21.3 33.2 20.9 33 20.4 33 19.6 33 19.05 33.35 18.45 33.7 18.1 34.3 17.75 35 17.75 35.65 17.75 36.3 18.1 37 Z"/>
</g>

<g id="BDM_300x600_FR_psd_Asset_V6_2_Augmentez_la__satisfaction_des_clients__et_la_mobilisation__des_0_Layer0_0_MEMBER_53_FILL">
<path fill="#D82C26" stroke="none" d="
M 24.9 33
Q 24.1 33 23.55 33.35 23.05 33.6 22.6 34.3 22.3 34.9 22.3 35.65 22.3 36.4 22.6 37 22.95 37.6 23.55 37.95 24.25 38.3 24.9 38.3 25.55 38.3 26.25 37.95 26.95 37.5 27.2 37 27.55 36.45 27.55 35.65 27.55 34.85 27.2 34.3 26.9 33.65 26.25 33.35 25.7 33 24.9 33
M 23.85 33.8
Q 24.35 33.55 24.9 33.55 25.4 33.55 26 33.8 26.4 34.05 26.7 34.6 26.95 35.1 26.95 35.65 26.95 36.1 26.7 36.7 26.5 37.15 26 37.45 25.55 37.75 24.9 37.75 24.3 37.75 23.85 37.45 23.35 37.15 23.15 36.7 22.9 36.1 22.9 35.65 22.9 35.1 23.15 34.6 23.35 34.15 23.85 33.8 Z"/>
</g>

<g id="BDM_300x600_FR_psd_Asset_V6_2_Augmentez_la__satisfaction_des_clients__et_la_mobilisation__des_0_Layer0_0_MEMBER_54_FILL">
<path fill="#D82C26" stroke="none" d="
M 32.25 33.6
Q 31.8 33 30.85 33 30.35 33 29.8 33.35 29.25 33.75 29.05 34.25
L 29 33.15 28.4 33.15 28.45 38.15 29.1 38.15 29.1 35.6
Q 29.1 34.9 29.3 34.5 29.55 34 29.9 33.8 30.2 33.55 30.75 33.55 31.45 33.55 31.75 34.05 32.1 34.45 32.1 35.25
L 32.1 38.15 32.7 38.15 32.7 35.1
Q 32.7 34.2 32.25 33.6 Z"/>
</g>

<g id="BDM_300x600_FR_psd_Asset_V6_2_Augmentez_la__satisfaction_des_clients__et_la_mobilisation__des_0_Layer0_0_MEMBER_55_FILL">
<path fill="#D82C26" stroke="none" d="
M 34.45 33.7
Q 34.85 33.5 35.25 33.5 35.6 33.5 35.95 33.65
L 36.55 34 36.8 33.55 36.1 33.15
Q 35.65 33 35.2 33
L 34.45 33.15
Q 34 33.35 33.8 33.65 33.6 33.9 33.6 34.4 33.6 34.95 33.95 35.25 34.15 35.45 35 35.8
L 36.05 36.25
Q 36.35 36.5 36.35 36.85 36.35 37.25 36 37.55 35.65 37.8 35.25 37.8 34.25 37.8 33.6 37.15
L 33.5 37.7
Q 33.75 37.95 34.25 38.1 34.7 38.25 35.25 38.25 35.65 38.25 36.1 38.1 36.5 37.95 36.7 37.6 36.95 37.25 36.95 36.8 36.95 36.25 36.55 35.95 36.25 35.65 35.4 35.35 34.75 35.15 34.45 34.9 34.15 34.75 34.15 34.35 34.15 33.95 34.45 33.7 Z"/>
</g>

<g id="BDM_300x600_FR_psd_Asset_V6_2_Augmentez_la__satisfaction_des_clients__et_la_mobilisation__des_0_Layer0_0_MEMBER_56_FILL">
<path fill="#D82C26" stroke="none" d="
M 42.35 34.3
Q 42 33.65 41.45 33.35 40.8 33 40.05 33 39.25 33 38.7 33.35 38.15 33.65 37.8 34.3 37.45 34.85 37.45 35.65 37.45 36.45 37.8 37 38.1 37.55 38.7 37.95 39.4 38.3 40.05 38.3 40.65 38.3 41.45 37.95 42.05 37.55 42.35 37 42.7 36.45 42.7 35.65 42.7 34.85 42.35 34.3
M 41.85 36.7
Q 41.65 37.15 41.15 37.45 40.7 37.75 40.05 37.75 39.45 37.75 39 37.45 38.5 37.15 38.3 36.7 38.05 36.1 38.05 35.65 38.05 35.1 38.3 34.6 38.5 34.15 39 33.8 39.5 33.55 40.05 33.55 40.65 33.55 41.15 33.8 41.65 34.15 41.85 34.6 42.1 35.1 42.1 35.65 42.1 36.1 41.85 36.7 Z"/>
</g>

<g id="BDM_300x600_FR_psd_Asset_V6_2_Augmentez_la__satisfaction_des_clients__et_la_mobilisation__des_0_Layer0_0_MEMBER_57_FILL">
<path fill="#D82C26" stroke="none" d="
M 51.15 35.15
Q 51.15 34.25 50.7 33.65 50.35 33 49.35 33 48.85 33 48.25 33.35 47.75 33.75 47.55 34.3 47.4 33.75 46.95 33.35 46.5 33 45.95 33 45.45 33 44.9 33.35 44.4 33.7 44.25 34.25
L 44.2 34.25 44.15 33.15 43.55 33.15 43.6 38.15 44.25 38.15 44.25 35.65
Q 44.25 34.95 44.45 34.5 44.7 33.95 45 33.8 45.3 33.55 45.8 33.55 46.35 33.55 46.75 33.95 47.05 34.4 47.05 35.2
L 47.05 38.15 47.65 38.15 47.65 35.55
Q 47.65 34.7 48.1 34.1 48.55 33.55 49.25 33.55 49.95 33.55 50.25 34.05 50.55 34.6 50.55 35.3
L 50.55 38.15 51.15 38.15 51.15 35.15 Z"/>
</g>

<g id="BDM_300x600_FR_psd_Asset_V6_2_Augmentez_la__satisfaction_des_clients__et_la_mobilisation__des_0_Layer0_0_MEMBER_58_FILL">
<path fill="#D82C26" stroke="none" d="
M 54.5 33.55
Q 55.15 33.55 55.45 33.95 55.75 34.4 55.75 35.2
L 55.75 38.15 56.4 38.15 56.4 35.55
Q 56.4 34.75 56.8 34.1 57.25 33.55 57.95 33.55 58.65 33.55 58.95 34.05 59.25 34.6 59.25 35.3
L 59.25 38.15 59.85 38.15 59.85 35.15
Q 59.85 34.3 59.45 33.65 59 33 58.1 33 57.55 33 57 33.35 56.55 33.7 56.3 34.3 56.1 33.75 55.7 33.35 55.2 33 54.65 33 54.2 33 53.6 33.35 53.2 33.65 52.95 34.25
L 52.9 34.25 52.85 33.15 52.3 33.15 52.35 38.15 52.95 38.15 52.95 35.65
Q 52.95 34.95 53.15 34.5 53.4 34.05 53.7 33.8 54 33.55 54.5 33.55 Z"/>
</g>

<g id="BDM_300x600_FR_psd_Asset_V6_2_Augmentez_la__satisfaction_des_clients__et_la_mobilisation__des_0_Layer0_0_MEMBER_59_FILL">
<path fill="#D82C26" stroke="none" d="
M 61.85 33.7
Q 62.25 33.5 62.7 33.5 63.4 33.5 63.75 33.85 64.1 34.2 64.1 34.85
L 64.1 35.15 63.5 35.15
Q 60.7 35.15 60.7 36.8 60.7 37.55 61.15 37.9 61.55 38.25 62.25 38.25 62.8 38.25 63.4 38 63.85 37.7 64.1 37.15
L 64.15 37.15 64.2 38.15 64.8 38.15 64.7 34.9
Q 64.7 33.95 64.2 33.5 63.7 33 62.8 33 62.2 33 61.8 33.2 61.35 33.35 60.95 33.65
L 61.15 34.1 61.85 33.7
M 64.1 36.05
Q 64.1 36.45 63.95 36.9 63.75 37.25 63.35 37.55 62.95 37.8 62.4 37.8 61.95 37.8 61.6 37.55 61.25 37.3 61.25 36.75 61.25 35.55 63.6 35.55
L 64.1 35.55 64.1 36.05 Z"/>
</g>

<g id="BDM_300x600_FR_psd_Asset_V6_2_Augmentez_la__satisfaction_des_clients__et_la_mobilisation__des_0_Layer0_0_MEMBER_60_FILL">
<path fill="#D82C26" stroke="none" d="
M 65.2 33.15
L 65.05 33.65 66 33.65 66 36.95
Q 66 37.55 66.3 37.9 66.65 38.25 67.15 38.25
L 67.7 38.15 68.2 37.95 68.15 37.5
Q 67.75 37.7 67.35 37.7 67 37.7 66.8 37.5 66.6 37.2 66.6 36.85
L 66.6 33.65 67.9 33.65 68 33.15 66.6 33.15 66.6 31.75 66 32 66 33.15 65.2 33.15 Z"/>
</g>

<g id="BDM_300x600_FR_psd_Asset_V6_2_Augmentez_la__satisfaction_des_clients__et_la_mobilisation__des_0_Layer0_0_MEMBER_61_FILL">
<path fill="#D82C26" stroke="none" d="
M 72.75 34.25
Q 72.55 33.7 71.95 33.35 71.45 33 70.7 33 69.95 33 69.45 33.35 68.9 33.6 68.55 34.25 68.25 34.85 68.25 35.6 68.25 36.4 68.55 37 68.9 37.55 69.45 37.95 70.15 38.3 70.75 38.3 71.85 38.3 72.75 37.65
L 72.65 37.1
Q 72.45 37.3 71.85 37.6 71.35 37.75 70.8 37.75 70.2 37.75 69.8 37.5 69.3 37.2 69.1 36.75 68.85 36.25 68.85 35.75
L 73.05 35.75 73.05 35.45
Q 73.05 34.8 72.75 34.25
M 71.95 34
Q 72.45 34.5 72.45 35.3
L 68.85 35.3
Q 68.85 34.95 69.1 34.45 69.35 34 69.7 33.8 70.15 33.5 70.7 33.5 71.5 33.5 71.95 34 Z"/>
</g>

<g id="BDM_300x600_FR_psd_Asset_V6_2_Augmentez_la__satisfaction_des_clients__et_la_mobilisation__des_0_Layer0_0_MEMBER_62_FILL">
<path fill="#D82C26" stroke="none" d="
M 73.85 33.15
L 73.85 36.2
Q 73.85 37.15 74.3 37.65 74.75 38.25 75.65 38.25 76.25 38.25 76.75 37.95 77.3 37.55 77.45 37.05
L 77.55 38.15 78.2 38.15 78.1 37.55 78.1 33.15 77.45 33.15 77.45 35.65
Q 77.45 36.35 77.25 36.8 77 37.3 76.65 37.5 76.25 37.75 75.8 37.75 75.05 37.75 74.75 37.25 74.45 36.8 74.45 36.05
L 74.45 33.15 73.85 33.15 Z"/>
</g>

<g id="BDM_300x600_FR_psd_Asset_V6_2_Augmentez_la__satisfaction_des_clients__et_la_mobilisation__des_0_Layer0_0_MEMBER_63_FILL">
<path fill="#D82C26" stroke="none" d="
M 81.95 33.1
L 81.4 33
Q 81 33 80.55 33.35 80.2 33.65 79.95 34.25
L 79.85 33.15 79.3 33.15 79.35 38.15 79.95 38.15 79.95 35.65
Q 79.95 34.85 80.35 34.2 80.75 33.55 81.35 33.55
L 81.8 33.65 81.95 33.1 Z"/>
</g>

<g id="BDM_300x600_FR_psd_Asset_V6_2_Augmentez_la__satisfaction_des_clients__et_la_mobilisation__des_0_Layer0_0_MEMBER_64_FILL">
<path fill="#D82C26" stroke="none" d="
M 84.65 33.15
Q 84.3 33 83.75 33
L 83 33.15
Q 82.65 33.3 82.35 33.65 82.15 33.9 82.15 34.4 82.15 34.95 82.5 35.25 82.7 35.45 83.55 35.8
L 84.6 36.25
Q 84.9 36.5 84.9 36.85 84.9 37.25 84.6 37.55 84.2 37.8 83.8 37.8 82.8 37.8 82.15 37.15
L 82.05 37.7
Q 82.3 37.95 82.8 38.1 83.25 38.25 83.8 38.25 84.3 38.25 84.65 38.1 85.05 37.95 85.25 37.6 85.5 37.25 85.5 36.8 85.5 36.25 85.15 35.95 84.8 35.65 84 35.35 83.35 35.15 83 34.9 82.7 34.75 82.7 34.35 82.7 33.95 83 33.7 83.5 33.5 83.8 33.5 84.2 33.5 84.5 33.65
L 85.1 34 85.35 33.55 84.65 33.15 Z"/>
</g>

<g id="BDM_300x600_FR_psd_Asset_V6_2_Augmentez_la__satisfaction_des_clients__et_la_mobilisation__des_0_Layer0_0_MEMBER_65_FILL">
<path fill="#D82C26" stroke="none" d="
M 86.45 38.05
Q 86.6 38.2 86.8 38.2
L 87.1 38.05
Q 87.25 37.9 87.25 37.7 87.25 37.5 87.1 37.4
L 86.8 37.25
Q 86.6 37.25 86.45 37.4
L 86.3 37.7
Q 86.3 37.9 86.45 38.05 Z"/>
</g>
</defs>

<g transform="matrix( 1, 0, 0, 1, -58,53) ">
<g transform="matrix( 1, 0, 0, 1, 52,0) ">
<g transform="matrix( 1, 0, 0, 1, 33,6) ">
<g transform="matrix( 2.815704345703125, 0, 0, 2.832611083984375, 0.15,22.6) ">
<use xlink:href="#BDM_300x600_FR_psd_Asset_V6_2_Augmentez_la__satisfaction_des_clients__et_la_mobilisation__des_0_Layer0_0_MEMBER_0_FILL"/>
</g>

<g transform="matrix( 2.815704345703125, 0, 0, 2.832611083984375, 0.15,22.6) ">
<use xlink:href="#BDM_300x600_FR_psd_Asset_V6_2_Augmentez_la__satisfaction_des_clients__et_la_mobilisation__des_0_Layer0_0_MEMBER_1_FILL"/>
</g>

<g transform="matrix( 2.815704345703125, 0, 0, 2.832611083984375, 0.15,22.6) ">
<use xlink:href="#BDM_300x600_FR_psd_Asset_V6_2_Augmentez_la__satisfaction_des_clients__et_la_mobilisation__des_0_Layer0_0_MEMBER_2_FILL"/>
</g>

<g transform="matrix( 2.815704345703125, 0, 0, 2.832611083984375, 0.15,22.6) ">
<use xlink:href="#BDM_300x600_FR_psd_Asset_V6_2_Augmentez_la__satisfaction_des_clients__et_la_mobilisation__des_0_Layer0_0_MEMBER_3_FILL"/>
</g>

<g transform="matrix( 2.815704345703125, 0, 0, 2.832611083984375, 0.15,22.6) ">
<use xlink:href="#BDM_300x600_FR_psd_Asset_V6_2_Augmentez_la__satisfaction_des_clients__et_la_mobilisation__des_0_Layer0_0_MEMBER_4_FILL"/>
</g>

<g transform="matrix( 2.815704345703125, 0, 0, 2.832611083984375, 0.15,22.6) ">
<use xlink:href="#BDM_300x600_FR_psd_Asset_V6_2_Augmentez_la__satisfaction_des_clients__et_la_mobilisation__des_0_Layer0_0_MEMBER_5_FILL"/>
</g>

<g transform="matrix( 2.815704345703125, 0, 0, 2.832611083984375, 0.15,22.6) ">
<use xlink:href="#BDM_300x600_FR_psd_Asset_V6_2_Augmentez_la__satisfaction_des_clients__et_la_mobilisation__des_0_Layer0_0_MEMBER_6_FILL"/>
</g>

<g transform="matrix( 2.815704345703125, 0, 0, 2.832611083984375, 0.15,22.6) ">
<use xlink:href="#BDM_300x600_FR_psd_Asset_V6_2_Augmentez_la__satisfaction_des_clients__et_la_mobilisation__des_0_Layer0_0_MEMBER_7_FILL"/>
</g>

<g transform="matrix( 2.815704345703125, 0, 0, 2.832611083984375, 0.15,22.6) ">
<use xlink:href="#BDM_300x600_FR_psd_Asset_V6_2_Augmentez_la__satisfaction_des_clients__et_la_mobilisation__des_0_Layer0_0_MEMBER_8_FILL"/>
</g>

<g transform="matrix( 2.815704345703125, 0, 0, 2.832611083984375, 0.15,22.6) ">
<use xlink:href="#BDM_300x600_FR_psd_Asset_V6_2_Augmentez_la__satisfaction_des_clients__et_la_mobilisation__des_0_Layer0_0_MEMBER_9_FILL"/>
</g>

<g transform="matrix( 2.815704345703125, 0, 0, 2.832611083984375, 0.15,22.6) ">
<use xlink:href="#BDM_300x600_FR_psd_Asset_V6_2_Augmentez_la__satisfaction_des_clients__et_la_mobilisation__des_0_Layer0_0_MEMBER_10_FILL"/>
</g>

<g transform="matrix( 2.815704345703125, 0, 0, 2.832611083984375, 0.15,22.6) ">
<use xlink:href="#BDM_300x600_FR_psd_Asset_V6_2_Augmentez_la__satisfaction_des_clients__et_la_mobilisation__des_0_Layer0_0_MEMBER_11_FILL"/>
</g>

<g transform="matrix( 2.815704345703125, 0, 0, 2.832611083984375, 0.15,22.6) ">
<use xlink:href="#BDM_300x600_FR_psd_Asset_V6_2_Augmentez_la__satisfaction_des_clients__et_la_mobilisation__des_0_Layer0_0_MEMBER_12_FILL"/>
</g>

<g transform="matrix( 2.815704345703125, 0, 0, 2.832611083984375, 0.15,22.6) ">
<use xlink:href="#BDM_300x600_FR_psd_Asset_V6_2_Augmentez_la__satisfaction_des_clients__et_la_mobilisation__des_0_Layer0_0_MEMBER_13_FILL"/>
</g>

<g transform="matrix( 2.815704345703125, 0, 0, 2.832611083984375, 0.15,22.6) ">
<use xlink:href="#BDM_300x600_FR_psd_Asset_V6_2_Augmentez_la__satisfaction_des_clients__et_la_mobilisation__des_0_Layer0_0_MEMBER_14_FILL"/>
</g>

<g transform="matrix( 2.815704345703125, 0, 0, 2.832611083984375, 0.15,22.6) ">
<use xlink:href="#BDM_300x600_FR_psd_Asset_V6_2_Augmentez_la__satisfaction_des_clients__et_la_mobilisation__des_0_Layer0_0_MEMBER_15_FILL"/>
</g>

<g transform="matrix( 2.815704345703125, 0, 0, 2.832611083984375, 0.15,22.6) ">
<use xlink:href="#BDM_300x600_FR_psd_Asset_V6_2_Augmentez_la__satisfaction_des_clients__et_la_mobilisation__des_0_Layer0_0_MEMBER_16_FILL"/>
</g>

<g transform="matrix( 2.815704345703125, 0, 0, 2.832611083984375, 0.15,22.6) ">
<use xlink:href="#BDM_300x600_FR_psd_Asset_V6_2_Augmentez_la__satisfaction_des_clients__et_la_mobilisation__des_0_Layer0_0_MEMBER_17_FILL"/>
</g>

<g transform="matrix( 2.815704345703125, 0, 0, 2.832611083984375, 0.15,22.6) ">
<use xlink:href="#BDM_300x600_FR_psd_Asset_V6_2_Augmentez_la__satisfaction_des_clients__et_la_mobilisation__des_0_Layer0_0_MEMBER_18_FILL"/>
</g>

<g transform="matrix( 2.815704345703125, 0, 0, 2.832611083984375, 0.15,22.6) ">
<use xlink:href="#BDM_300x600_FR_psd_Asset_V6_2_Augmentez_la__satisfaction_des_clients__et_la_mobilisation__des_0_Layer0_0_MEMBER_19_FILL"/>
</g>

<g transform="matrix( 2.815704345703125, 0, 0, 2.832611083984375, 0.15,22.6) ">
<use xlink:href="#BDM_300x600_FR_psd_Asset_V6_2_Augmentez_la__satisfaction_des_clients__et_la_mobilisation__des_0_Layer0_0_MEMBER_20_FILL"/>
</g>

<g transform="matrix( 2.815704345703125, 0, 0, 2.832611083984375, 0.15,22.6) ">
<use xlink:href="#BDM_300x600_FR_psd_Asset_V6_2_Augmentez_la__satisfaction_des_clients__et_la_mobilisation__des_0_Layer0_0_MEMBER_21_FILL"/>
</g>

<g transform="matrix( 2.815704345703125, 0, 0, 2.832611083984375, 0.15,22.6) ">
<use xlink:href="#BDM_300x600_FR_psd_Asset_V6_2_Augmentez_la__satisfaction_des_clients__et_la_mobilisation__des_0_Layer0_0_MEMBER_22_FILL"/>
</g>

<g transform="matrix( 2.815704345703125, 0, 0, 2.832611083984375, 0.15,22.6) ">
<use xlink:href="#BDM_300x600_FR_psd_Asset_V6_2_Augmentez_la__satisfaction_des_clients__et_la_mobilisation__des_0_Layer0_0_MEMBER_23_FILL"/>
</g>

<g transform="matrix( 2.815704345703125, 0, 0, 2.832611083984375, 0.15,22.6) ">
<use xlink:href="#BDM_300x600_FR_psd_Asset_V6_2_Augmentez_la__satisfaction_des_clients__et_la_mobilisation__des_0_Layer0_0_MEMBER_24_FILL"/>
</g>

<g transform="matrix( 2.815704345703125, 0, 0, 2.832611083984375, 0.15,22.6) ">
<use xlink:href="#BDM_300x600_FR_psd_Asset_V6_2_Augmentez_la__satisfaction_des_clients__et_la_mobilisation__des_0_Layer0_0_MEMBER_25_FILL"/>
</g>

<g transform="matrix( 2.815704345703125, 0, 0, 2.832611083984375, 0.15,22.6) ">
<use xlink:href="#BDM_300x600_FR_psd_Asset_V6_2_Augmentez_la__satisfaction_des_clients__et_la_mobilisation__des_0_Layer0_0_MEMBER_26_FILL"/>
</g>

<g transform="matrix( 2.815704345703125, 0, 0, 2.832611083984375, 0.15,22.6) ">
<use xlink:href="#BDM_300x600_FR_psd_Asset_V6_2_Augmentez_la__satisfaction_des_clients__et_la_mobilisation__des_0_Layer0_0_MEMBER_27_FILL"/>
</g>

<g transform="matrix( 2.815704345703125, 0, 0, 2.832611083984375, 0.15,22.6) ">
<use xlink:href="#BDM_300x600_FR_psd_Asset_V6_2_Augmentez_la__satisfaction_des_clients__et_la_mobilisation__des_0_Layer0_0_MEMBER_28_FILL"/>
</g>

<g transform="matrix( 2.815704345703125, 0, 0, 2.832611083984375, 0.15,22.6) ">
<use xlink:href="#BDM_300x600_FR_psd_Asset_V6_2_Augmentez_la__satisfaction_des_clients__et_la_mobilisation__des_0_Layer0_0_MEMBER_29_FILL"/>
</g>

<g transform="matrix( 2.815704345703125, 0, 0, 2.832611083984375, 0.15,22.6) ">
<use xlink:href="#BDM_300x600_FR_psd_Asset_V6_2_Augmentez_la__satisfaction_des_clients__et_la_mobilisation__des_0_Layer0_0_MEMBER_30_FILL"/>
</g>

<g transform="matrix( 2.815704345703125, 0, 0, 2.832611083984375, 0.15,22.6) ">
<use xlink:href="#BDM_300x600_FR_psd_Asset_V6_2_Augmentez_la__satisfaction_des_clients__et_la_mobilisation__des_0_Layer0_0_MEMBER_31_FILL"/>
</g>

<g transform="matrix( 2.815704345703125, 0, 0, 2.832611083984375, 0.15,22.6) ">
<use xlink:href="#BDM_300x600_FR_psd_Asset_V6_2_Augmentez_la__satisfaction_des_clients__et_la_mobilisation__des_0_Layer0_0_MEMBER_32_FILL"/>
</g>

<g transform="matrix( 2.815704345703125, 0, 0, 2.832611083984375, 0.15,22.6) ">
<use xlink:href="#BDM_300x600_FR_psd_Asset_V6_2_Augmentez_la__satisfaction_des_clients__et_la_mobilisation__des_0_Layer0_0_MEMBER_33_FILL"/>
</g>

<g transform="matrix( 2.815704345703125, 0, 0, 2.832611083984375, 0.15,22.6) ">
<use xlink:href="#BDM_300x600_FR_psd_Asset_V6_2_Augmentez_la__satisfaction_des_clients__et_la_mobilisation__des_0_Layer0_0_MEMBER_34_FILL"/>
</g>

<g transform="matrix( 2.815704345703125, 0, 0, 2.832611083984375, 0.15,22.6) ">
<use xlink:href="#BDM_300x600_FR_psd_Asset_V6_2_Augmentez_la__satisfaction_des_clients__et_la_mobilisation__des_0_Layer0_0_MEMBER_35_FILL"/>
</g>

<g transform="matrix( 2.815704345703125, 0, 0, 2.832611083984375, 0.15,22.6) ">
<use xlink:href="#BDM_300x600_FR_psd_Asset_V6_2_Augmentez_la__satisfaction_des_clients__et_la_mobilisation__des_0_Layer0_0_MEMBER_36_FILL"/>
</g>

<g transform="matrix( 2.815704345703125, 0, 0, 2.832611083984375, 0.15,22.6) ">
<use xlink:href="#BDM_300x600_FR_psd_Asset_V6_2_Augmentez_la__satisfaction_des_clients__et_la_mobilisation__des_0_Layer0_0_MEMBER_37_FILL"/>
</g>

<g transform="matrix( 2.815704345703125, 0, 0, 2.832611083984375, 0.15,22.6) ">
<use xlink:href="#BDM_300x600_FR_psd_Asset_V6_2_Augmentez_la__satisfaction_des_clients__et_la_mobilisation__des_0_Layer0_0_MEMBER_38_FILL"/>
</g>

<g transform="matrix( 2.815704345703125, 0, 0, 2.832611083984375, 0.15,22.6) ">
<use xlink:href="#BDM_300x600_FR_psd_Asset_V6_2_Augmentez_la__satisfaction_des_clients__et_la_mobilisation__des_0_Layer0_0_MEMBER_39_FILL"/>
</g>

<g transform="matrix( 2.815704345703125, 0, 0, 2.832611083984375, 0.15,22.6) ">
<use xlink:href="#BDM_300x600_FR_psd_Asset_V6_2_Augmentez_la__satisfaction_des_clients__et_la_mobilisation__des_0_Layer0_0_MEMBER_40_FILL"/>
</g>

<g transform="matrix( 2.815704345703125, 0, 0, 2.832611083984375, 0.15,22.6) ">
<use xlink:href="#BDM_300x600_FR_psd_Asset_V6_2_Augmentez_la__satisfaction_des_clients__et_la_mobilisation__des_0_Layer0_0_MEMBER_41_FILL"/>
</g>

<g transform="matrix( 2.815704345703125, 0, 0, 2.832611083984375, 0.15,22.6) ">
<use xlink:href="#BDM_300x600_FR_psd_Asset_V6_2_Augmentez_la__satisfaction_des_clients__et_la_mobilisation__des_0_Layer0_0_MEMBER_42_FILL"/>
</g>

<g transform="matrix( 2.815704345703125, 0, 0, 2.832611083984375, 0.15,22.6) ">
<use xlink:href="#BDM_300x600_FR_psd_Asset_V6_2_Augmentez_la__satisfaction_des_clients__et_la_mobilisation__des_0_Layer0_0_MEMBER_43_FILL"/>
</g>

<g transform="matrix( 2.815704345703125, 0, 0, 2.832611083984375, 0.15,22.6) ">
<use xlink:href="#BDM_300x600_FR_psd_Asset_V6_2_Augmentez_la__satisfaction_des_clients__et_la_mobilisation__des_0_Layer0_0_MEMBER_44_FILL"/>
</g>

<g transform="matrix( 2.815704345703125, 0, 0, 2.832611083984375, 0.15,22.6) ">
<use xlink:href="#BDM_300x600_FR_psd_Asset_V6_2_Augmentez_la__satisfaction_des_clients__et_la_mobilisation__des_0_Layer0_0_MEMBER_45_FILL"/>
</g>

<g transform="matrix( 2.815704345703125, 0, 0, 2.832611083984375, 0.15,22.6) ">
<use xlink:href="#BDM_300x600_FR_psd_Asset_V6_2_Augmentez_la__satisfaction_des_clients__et_la_mobilisation__des_0_Layer0_0_MEMBER_46_FILL"/>
</g>

<g transform="matrix( 2.815704345703125, 0, 0, 2.832611083984375, 0.15,22.6) ">
<use xlink:href="#BDM_300x600_FR_psd_Asset_V6_2_Augmentez_la__satisfaction_des_clients__et_la_mobilisation__des_0_Layer0_0_MEMBER_47_FILL"/>
</g>

<g transform="matrix( 2.815704345703125, 0, 0, 2.832611083984375, 0.15,22.6) ">
<use xlink:href="#BDM_300x600_FR_psd_Asset_V6_2_Augmentez_la__satisfaction_des_clients__et_la_mobilisation__des_0_Layer0_0_MEMBER_48_FILL"/>
</g>

<g transform="matrix( 2.815704345703125, 0, 0, 2.832611083984375, 0.15,22.6) ">
<use xlink:href="#BDM_300x600_FR_psd_Asset_V6_2_Augmentez_la__satisfaction_des_clients__et_la_mobilisation__des_0_Layer0_0_MEMBER_49_FILL"/>
</g>

<g transform="matrix( 2.815704345703125, 0, 0, 2.832611083984375, 0.15,22.6) ">
<use xlink:href="#BDM_300x600_FR_psd_Asset_V6_2_Augmentez_la__satisfaction_des_clients__et_la_mobilisation__des_0_Layer0_0_MEMBER_50_FILL"/>
</g>

<g transform="matrix( 2.815704345703125, 0, 0, 2.832611083984375, 0.15,22.6) ">
<use xlink:href="#BDM_300x600_FR_psd_Asset_V6_2_Augmentez_la__satisfaction_des_clients__et_la_mobilisation__des_0_Layer0_0_MEMBER_51_FILL"/>
</g>

<g transform="matrix( 2.815704345703125, 0, 0, 2.832611083984375, 0.15,22.6) ">
<use xlink:href="#BDM_300x600_FR_psd_Asset_V6_2_Augmentez_la__satisfaction_des_clients__et_la_mobilisation__des_0_Layer0_0_MEMBER_52_FILL"/>
</g>

<g transform="matrix( 2.815704345703125, 0, 0, 2.832611083984375, 0.15,22.6) ">
<use xlink:href="#BDM_300x600_FR_psd_Asset_V6_2_Augmentez_la__satisfaction_des_clients__et_la_mobilisation__des_0_Layer0_0_MEMBER_53_FILL"/>
</g>

<g transform="matrix( 2.815704345703125, 0, 0, 2.832611083984375, 0.15,22.6) ">
<use xlink:href="#BDM_300x600_FR_psd_Asset_V6_2_Augmentez_la__satisfaction_des_clients__et_la_mobilisation__des_0_Layer0_0_MEMBER_54_FILL"/>
</g>

<g transform="matrix( 2.815704345703125, 0, 0, 2.832611083984375, 0.15,22.6) ">
<use xlink:href="#BDM_300x600_FR_psd_Asset_V6_2_Augmentez_la__satisfaction_des_clients__et_la_mobilisation__des_0_Layer0_0_MEMBER_55_FILL"/>
</g>

<g transform="matrix( 2.815704345703125, 0, 0, 2.832611083984375, 0.15,22.6) ">
<use xlink:href="#BDM_300x600_FR_psd_Asset_V6_2_Augmentez_la__satisfaction_des_clients__et_la_mobilisation__des_0_Layer0_0_MEMBER_56_FILL"/>
</g>

<g transform="matrix( 2.815704345703125, 0, 0, 2.832611083984375, 0.15,22.6) ">
<use xlink:href="#BDM_300x600_FR_psd_Asset_V6_2_Augmentez_la__satisfaction_des_clients__et_la_mobilisation__des_0_Layer0_0_MEMBER_57_FILL"/>
</g>

<g transform="matrix( 2.815704345703125, 0, 0, 2.832611083984375, 0.15,22.6) ">
<use xlink:href="#BDM_300x600_FR_psd_Asset_V6_2_Augmentez_la__satisfaction_des_clients__et_la_mobilisation__des_0_Layer0_0_MEMBER_58_FILL"/>
</g>

<g transform="matrix( 2.815704345703125, 0, 0, 2.832611083984375, 0.15,22.6) ">
<use xlink:href="#BDM_300x600_FR_psd_Asset_V6_2_Augmentez_la__satisfaction_des_clients__et_la_mobilisation__des_0_Layer0_0_MEMBER_59_FILL"/>
</g>

<g transform="matrix( 2.815704345703125, 0, 0, 2.832611083984375, 0.15,22.6) ">
<use xlink:href="#BDM_300x600_FR_psd_Asset_V6_2_Augmentez_la__satisfaction_des_clients__et_la_mobilisation__des_0_Layer0_0_MEMBER_60_FILL"/>
</g>

<g transform="matrix( 2.815704345703125, 0, 0, 2.832611083984375, 0.15,22.6) ">
<use xlink:href="#BDM_300x600_FR_psd_Asset_V6_2_Augmentez_la__satisfaction_des_clients__et_la_mobilisation__des_0_Layer0_0_MEMBER_61_FILL"/>
</g>

<g transform="matrix( 2.815704345703125, 0, 0, 2.832611083984375, 0.15,22.6) ">
<use xlink:href="#BDM_300x600_FR_psd_Asset_V6_2_Augmentez_la__satisfaction_des_clients__et_la_mobilisation__des_0_Layer0_0_MEMBER_62_FILL"/>
</g>

<g transform="matrix( 2.815704345703125, 0, 0, 2.832611083984375, 0.15,22.6) ">
<use xlink:href="#BDM_300x600_FR_psd_Asset_V6_2_Augmentez_la__satisfaction_des_clients__et_la_mobilisation__des_0_Layer0_0_MEMBER_63_FILL"/>
</g>

<g transform="matrix( 2.815704345703125, 0, 0, 2.832611083984375, 0.15,22.6) ">
<use xlink:href="#BDM_300x600_FR_psd_Asset_V6_2_Augmentez_la__satisfaction_des_clients__et_la_mobilisation__des_0_Layer0_0_MEMBER_64_FILL"/>
</g>

<g transform="matrix( 2.815704345703125, 0, 0, 2.832611083984375, 0.15,22.6) ">
<use xlink:href="#BDM_300x600_FR_psd_Asset_V6_2_Augmentez_la__satisfaction_des_clients__et_la_mobilisation__des_0_Layer0_0_MEMBER_65_FILL"/>
</g>
</g>
</g>
</g>
</svg>
