
<svg xmlns="http://www.w3.org/2000/svg" version="1.1" xmlns:xlink="http://www.w3.org/1999/xlink" preserveAspectRatio="none" x="0px" y="0px" width="640px" height="480px" viewBox="0 0 640 480">
<defs>
<g id="IT_640x480_psd_Asset_3_ManagedWiFi_IT_Research_DM10_2_If_you_re_considering_changing__your_businesses_networking_solu_0_Layer0_0_MEMBER_0_FILL">
<path fill="#D82C26" stroke="none" d="
M 2 -9
L 1.25 -9 1.25 0 2 0 2 -9 Z"/>
</g>

<g id="IT_640x480_psd_Asset_3_ManagedWiFi_IT_Research_DM10_2_If_you_re_considering_changing__your_businesses_networking_solu_0_Layer0_0_MEMBER_1_FILL">
<path fill="#D82C26" stroke="none" d="
M 6.65 -9.75
L 6.05 -9.75
Q 5.2 -9.75 4.7 -9.25 4.2 -8.65 4.2 -7.7
L 4.2 -5.95 3.15 -5.95 3 -5.35 4.25 -5.35 4.25 0 4.95 0 4.95 -5.35 6.35 -5.35 6.5 -5.95 4.95 -5.95 4.95 -7.65
Q 4.95 -8.3 5.25 -8.75 5.5 -9.15 6.1 -9.15 6.6 -9.15 7.05 -9
L 7.15 -9.65 6.65 -9.75 Z"/>
</g>

<g id="IT_640x480_psd_Asset_3_ManagedWiFi_IT_Research_DM10_2_If_you_re_considering_changing__your_businesses_networking_solu_0_Layer0_0_MEMBER_2_FILL">
<path fill="#D82C26" stroke="none" d="
M 9.85 -5.95
L 9 -5.95 11.5 0.05 11.05 1.3
Q 10.85 1.85 10.45 2.1 10.2 2.3 9.35 2.4
L 9.6 3.05
Q 10.35 3.05 10.9 2.65 11.5 2.2 11.7 1.5
L 14.5 -5.95 13.7 -5.95 11.9 -0.8 9.85 -5.95 Z"/>
</g>

<g id="IT_640x480_psd_Asset_3_ManagedWiFi_IT_Research_DM10_2_If_you_re_considering_changing__your_businesses_networking_solu_0_Layer0_0_MEMBER_3_FILL">
<path fill="#D82C26" stroke="none" d="
M 19.6 -5.75
Q 18.8 -6.15 17.95 -6.15 17.05 -6.15 16.35 -5.75 15.65 -5.3 15.2 -4.6 14.8 -3.9 14.8 -3 14.8 -2.15 15.2 -1.35 15.75 -0.55 16.35 -0.25 17.05 0.2 17.95 0.2 18.85 0.2 19.6 -0.25 20.3 -0.65 20.7 -1.35 21.15 -2.1 21.15 -3 21.15 -3.9 20.7 -4.6 20.4 -5.2 19.6 -5.75
M 19.25 -5.15
Q 19.8 -4.85 20.1 -4.25 20.4 -3.7 20.4 -3 20.4 -2.3 20.1 -1.7 19.8 -1.2 19.25 -0.8 18.75 -0.45 17.95 -0.45 17.2 -0.45 16.7 -0.8 16.2 -1.1 15.85 -1.7 15.55 -2.3 15.55 -3 15.55 -3.7 15.85 -4.25 16.15 -4.9 16.7 -5.15 17.2 -5.5 17.95 -5.5 18.7 -5.5 19.25 -5.15 Z"/>
</g>

<g id="IT_640x480_psd_Asset_3_ManagedWiFi_IT_Research_DM10_2_If_you_re_considering_changing__your_businesses_networking_solu_0_Layer0_0_MEMBER_4_FILL">
<path fill="#D82C26" stroke="none" d="
M 22.35 -2.35
Q 22.35 -1.25 22.9 -0.55 23.4 0.15 24.55 0.15 25.3 0.15 25.85 -0.25 26.5 -0.65 26.7 -1.3
L 26.8 0 27.55 0 27.45 -0.7 27.45 -5.95 26.7 -5.95 26.7 -3
Q 26.7 -2.25 26.45 -1.6 26.1 -1 25.75 -0.75 25.3 -0.45 24.7 -0.45 23.85 -0.45 23.45 -1.05 23.1 -1.75 23.1 -2.5
L 23.1 -5.95 22.35 -5.95 22.35 -2.35 Z"/>
</g>

<g id="IT_640x480_psd_Asset_3_ManagedWiFi_IT_Research_DM10_2_If_you_re_considering_changing__your_businesses_networking_solu_0_Layer0_0_MEMBER_5_FILL">
<path fill="#D82C26" stroke="none" d="
M 29.9 -8.8
Q 29.75 -9 29.5 -9 29.35 -9 29.1 -8.85 28.95 -8.6 28.95 -8.45 28.95 -8.2 29.1 -8.05 29.25 -7.85 29.5 -7.85 29.45 -7.45 29.2 -7
L 28.65 -6.3 28.95 -6.15
Q 30.1 -7.2 30.1 -8.3 30.1 -8.65 29.9 -8.8 Z"/>
</g>

<g id="IT_640x480_psd_Asset_3_ManagedWiFi_IT_Research_DM10_2_If_you_re_considering_changing__your_businesses_networking_solu_0_Layer0_0_MEMBER_6_FILL">
<path fill="#D82C26" stroke="none" d="
M 34.15 -6
L 33.5 -6.15
Q 33 -6.15 32.45 -5.75 32 -5.35 31.75 -4.65
L 31.65 -5.95 30.95 -5.95 31 0 31.75 0 31.75 -2.95
Q 31.75 -4 32.2 -4.75 32.65 -5.45 33.45 -5.45
L 34 -5.4 34.15 -6 Z"/>
</g>

<g id="IT_640x480_psd_Asset_3_ManagedWiFi_IT_Research_DM10_2_If_you_re_considering_changing__your_businesses_networking_solu_0_Layer0_0_MEMBER_7_FILL">
<path fill="#D82C26" stroke="none" d="
M 34.25 -3
Q 34.25 -2 34.65 -1.35 35.05 -0.6 35.7 -0.25 36.45 0.2 37.3 0.2 38.7 0.2 39.65 -0.55
L 39.55 -1.2
Q 39.15 -0.85 38.55 -0.65 38.1 -0.45 37.35 -0.45 36.7 -0.45 36.15 -0.75 35.65 -1.05 35.3 -1.65 34.95 -2.25 34.95 -2.85
L 40 -2.85 40 -3.2
Q 40 -4 39.7 -4.7 39.3 -5.4 38.7 -5.75 38.05 -6.15 37.2 -6.15 36.4 -6.15 35.7 -5.75 35 -5.3 34.65 -4.65 34.25 -4 34.25 -3
M 35 -3.4
Q 35 -3.8 35.25 -4.4 35.6 -4.95 36 -5.2 36.5 -5.55 37.2 -5.55 38.2 -5.55 38.7 -4.95 39.3 -4.4 39.3 -3.4
L 35 -3.4 Z"/>
</g>

<g id="IT_640x480_psd_Asset_3_ManagedWiFi_IT_Research_DM10_2_If_you_re_considering_changing__your_businesses_networking_solu_0_Layer0_0_MEMBER_8_FILL">
<path fill="#D82C26" stroke="none" d="
M 44 -1.35
Q 44.3 -0.7 45.1 -0.2 45.9 0.2 46.7 0.2 47.25 0.2 47.85 -0.05 48.3 -0.15 48.75 -0.55
L 48.65 -1.15
Q 48.2 -0.8 47.8 -0.65 47.2 -0.45 46.75 -0.45 46.2 -0.45 45.5 -0.8 44.95 -1.2 44.65 -1.7 44.4 -2.35 44.4 -2.95 44.4 -3.6 44.65 -4.25 45 -4.85 45.5 -5.15 46 -5.5 46.75 -5.5
L 47.7 -5.35
Q 48.2 -5.1 48.45 -4.85
L 48.75 -5.45
Q 48.5 -5.7 47.85 -5.95 47.15 -6.15 46.75 -6.15 45.85 -6.15 45.15 -5.75 44.45 -5.3 44 -4.6 43.6 -3.8 43.6 -2.95 43.6 -2.05 44 -1.35 Z"/>
</g>

<g id="IT_640x480_psd_Asset_3_ManagedWiFi_IT_Research_DM10_2_If_you_re_considering_changing__your_businesses_networking_solu_0_Layer0_0_MEMBER_9_FILL">
<path fill="#D82C26" stroke="none" d="
M 49.25 -3
Q 49.25 -2.15 49.65 -1.35 50.2 -0.55 50.8 -0.25 51.5 0.2 52.4 0.2 53.3 0.2 54.05 -0.25 54.75 -0.65 55.15 -1.35 55.6 -2.1 55.6 -3 55.6 -3.9 55.15 -4.6 54.85 -5.2 54.05 -5.75 53.25 -6.15 52.4 -6.15 51.5 -6.15 50.8 -5.75 50.1 -5.3 49.65 -4.6 49.25 -3.9 49.25 -3
M 50 -3
Q 50 -3.7 50.3 -4.25 50.6 -4.9 51.15 -5.15 51.65 -5.5 52.4 -5.5 53.15 -5.5 53.7 -5.15 54.25 -4.85 54.55 -4.25 54.85 -3.7 54.85 -3 54.85 -2.3 54.55 -1.7 54.25 -1.2 53.7 -0.8 53.2 -0.45 52.4 -0.45 51.65 -0.45 51.15 -0.8 50.65 -1.1 50.3 -1.7 50 -2.3 50 -3 Z"/>
</g>

<g id="IT_640x480_psd_Asset_3_ManagedWiFi_IT_Research_DM10_2_If_you_re_considering_changing__your_businesses_networking_solu_0_Layer0_0_MEMBER_10_FILL">
<path fill="#D82C26" stroke="none" d="
M 59.75 -6.15
Q 59.1 -6.15 58.45 -5.75 57.85 -5.25 57.65 -4.65
L 57.6 -4.65 57.55 -5.95 56.85 -5.95 56.9 0 57.65 0 57.65 -3.05
Q 57.65 -3.75 57.9 -4.35 58.1 -4.85 58.6 -5.2 59.05 -5.5 59.6 -5.5 60.5 -5.5 60.85 -4.9 61.25 -4.25 61.25 -3.45
L 61.25 0 62 0 62 -3.65
Q 62 -4.7 61.45 -5.4 60.95 -6.15 59.75 -6.15 Z"/>
</g>

<g id="IT_640x480_psd_Asset_3_ManagedWiFi_IT_Research_DM10_2_If_you_re_considering_changing__your_businesses_networking_solu_0_Layer0_0_MEMBER_11_FILL">
<path fill="#D82C26" stroke="none" d="
M 64.35 -5.3
Q 64.7 -5.55 65.25 -5.55 65.75 -5.55 66.1 -5.4 66.75 -5 66.8 -4.95
L 67.1 -5.5 66.3 -5.95
Q 65.6 -6.15 65.25 -6.15 64.7 -6.15 64.3 -5.95 63.9 -5.8 63.55 -5.4 63.25 -5 63.25 -4.5 63.25 -3.8 63.7 -3.45 64 -3.15 64.95 -2.8 65.75 -2.6 66.2 -2.25 66.6 -2 66.6 -1.55 66.6 -1 66.2 -0.7 65.85 -0.4 65.25 -0.4 64.1 -0.4 63.25 -1.15
L 63.15 -0.5
Q 63.45 -0.25 64.05 0 64.65 0.15 65.3 0.15 65.85 0.15 66.25 -0.05 66.75 -0.2 67 -0.6 67.3 -1.05 67.3 -1.55 67.3 -2.2 66.85 -2.6 66.45 -3 65.45 -3.3 64.65 -3.6 64.3 -3.85 63.95 -4.05 63.95 -4.55 63.95 -5 64.35 -5.3 Z"/>
</g>

<g id="IT_640x480_psd_Asset_3_ManagedWiFi_IT_Research_DM10_2_If_you_re_considering_changing__your_businesses_networking_solu_0_Layer0_0_MEMBER_12_FILL">
<path fill="#D82C26" stroke="none" d="
M 69.2 -5.95
L 68.45 -5.95 68.45 0 69.2 0 69.2 -5.95
M 68.85 -7.8
Q 69.05 -7.8 69.2 -7.95 69.35 -8.1 69.35 -8.35 69.35 -8.55 69.2 -8.7 69.05 -8.85 68.85 -8.85 68.6 -8.85 68.45 -8.7 68.3 -8.55 68.3 -8.35 68.3 -8.1 68.45 -7.95 68.6 -7.8 68.85 -7.8 Z"/>
</g>

<g id="IT_640x480_psd_Asset_3_ManagedWiFi_IT_Research_DM10_2_If_you_re_considering_changing__your_businesses_networking_solu_0_Layer0_0_MEMBER_13_FILL">
<path fill="#D82C26" stroke="none" d="
M 76.7 -9.75
L 75.95 -9.6 75.95 -4.65 75.9 -4.65
Q 75.6 -5.35 74.9 -5.75 74.25 -6.15 73.5 -6.15 72.65 -6.15 71.95 -5.7 71.3 -5.35 70.9 -4.6 70.5 -3.8 70.5 -2.95 70.5 -2.1 70.9 -1.4 71.3 -0.6 71.95 -0.25 72.55 0.15 73.5 0.15 74.35 0.15 74.9 -0.2 75.55 -0.55 75.95 -1.3
L 76.05 0 76.75 0 76.7 -9.75
M 74.8 -5.15
Q 75.25 -4.9 75.65 -4.25 75.95 -3.65 75.95 -2.95 75.95 -2.3 75.65 -1.7 75.3 -1.1 74.8 -0.8 74.3 -0.45 73.6 -0.45 72.85 -0.45 72.35 -0.8 71.85 -1.1 71.55 -1.7 71.25 -2.3 71.25 -2.95 71.25 -3.65 71.55 -4.25 71.95 -4.9 72.35 -5.15 72.85 -5.5 73.6 -5.5 74.3 -5.5 74.8 -5.15 Z"/>
</g>

<g id="IT_640x480_psd_Asset_3_ManagedWiFi_IT_Research_DM10_2_If_you_re_considering_changing__your_businesses_networking_solu_0_Layer0_0_MEMBER_14_FILL">
<path fill="#D82C26" stroke="none" d="
M 80.95 -6.15
Q 80.15 -6.15 79.45 -5.75 78.8 -5.3 78.35 -4.65 78 -3.95 78 -3 78 -2 78.4 -1.35 78.8 -0.6 79.45 -0.25 80.15 0.2 81.05 0.2 82.45 0.2 83.4 -0.55
L 83.3 -1.2
Q 82.7 -0.8 82.3 -0.65 81.85 -0.45 81.1 -0.45 80.45 -0.45 79.85 -0.75 79.45 -1.05 79 -1.65 78.7 -2.15 78.7 -2.85
L 83.75 -2.85 83.75 -3.2
Q 83.75 -4 83.45 -4.7 83.05 -5.4 82.45 -5.75 81.8 -6.15 80.95 -6.15
M 79.75 -5.2
Q 80.25 -5.55 80.95 -5.55 81.85 -5.55 82.45 -4.95 83.05 -4.4 83.05 -3.4
L 78.7 -3.4
Q 78.75 -3.85 79 -4.4 79.35 -4.95 79.75 -5.2 Z"/>
</g>

<g id="IT_640x480_psd_Asset_3_ManagedWiFi_IT_Research_DM10_2_If_you_re_considering_changing__your_businesses_networking_solu_0_Layer0_0_MEMBER_15_FILL">
<path fill="#D82C26" stroke="none" d="
M 85.75 -4.65
L 85.7 -5.95 84.95 -5.95 85.05 0 85.8 0 85.8 -2.95
Q 85.8 -4 86.25 -4.75 86.7 -5.45 87.45 -5.45
L 88 -5.4 88.15 -6
Q 87.85 -6.15 87.5 -6.15 87 -6.15 86.5 -5.75 86 -5.4 85.75 -4.65 Z"/>
</g>

<g id="IT_640x480_psd_Asset_3_ManagedWiFi_IT_Research_DM10_2_If_you_re_considering_changing__your_businesses_networking_solu_0_Layer0_0_MEMBER_16_FILL">
<path fill="#D82C26" stroke="none" d="
M 89.7 -5.95
L 88.95 -5.95 88.95 0 89.7 0 89.7 -5.95
M 89.35 -7.8
Q 89.55 -7.8 89.7 -7.95 89.85 -8.1 89.85 -8.35 89.85 -8.55 89.7 -8.7 89.55 -8.85 89.35 -8.85 89.1 -8.85 88.95 -8.7 88.8 -8.55 88.8 -8.35 88.8 -8.1 88.95 -7.95 89.1 -7.8 89.35 -7.8 Z"/>
</g>

<g id="IT_640x480_psd_Asset_3_ManagedWiFi_IT_Research_DM10_2_If_you_re_considering_changing__your_businesses_networking_solu_0_Layer0_0_MEMBER_17_FILL">
<path fill="#D82C26" stroke="none" d="
M 95.95 -5.4
Q 95.45 -6.15 94.3 -6.15 93.65 -6.15 93 -5.75 92.35 -5.25 92.15 -4.65
L 92.1 -4.65 92.05 -5.95 91.35 -5.95 91.4 0 92.15 0 92.15 -3.05
Q 92.15 -3.75 92.4 -4.35 92.65 -4.85 93.15 -5.2 93.6 -5.5 94.15 -5.5 95.05 -5.5 95.4 -4.9 95.75 -4.35 95.75 -3.45
L 95.75 0 96.5 0 96.5 -3.65
Q 96.5 -4.8 95.95 -5.4 Z"/>
</g>

<g id="IT_640x480_psd_Asset_3_ManagedWiFi_IT_Research_DM10_2_If_you_re_considering_changing__your_businesses_networking_solu_0_Layer0_0_MEMBER_18_FILL">
<path fill="#D82C26" stroke="none" d="
M 100.75 -6.15
Q 99.9 -6.15 99.2 -5.7 98.5 -5.35 98.1 -4.55 97.75 -3.9 97.75 -3 97.75 -2.05 98.1 -1.4 98.5 -0.65 99.2 -0.3 99.8 0.1 100.75 0.1 101.5 0.1 102.15 -0.25 102.9 -0.75 103.15 -1.35
L 103.15 -0.1
Q 103.15 1.2 102.6 1.8 102 2.5 100.7 2.5 100.15 2.5 99.4 2.25 98.8 2.1 98.25 1.7
L 98.15 2.4
Q 98.65 2.75 99.35 2.95 100.25 3.15 100.75 3.15 102.4 3.15 103.15 2.25 103.9 1.35 103.9 -0.1
L 103.95 -5.95 103.25 -5.95 103.2 -4.65 103.15 -4.65
Q 102.7 -5.45 102.15 -5.75 101.45 -6.15 100.75 -6.15
M 99.6 -5.15
Q 100.1 -5.5 100.85 -5.5 101.55 -5.5 102.05 -5.15 102.6 -4.85 102.9 -4.25 103.2 -3.65 103.2 -3 103.2 -2.25 102.9 -1.75 102.6 -1.15 102.05 -0.85 101.55 -0.5 100.85 -0.5 100.1 -0.5 99.6 -0.85 99 -1.2 98.8 -1.75 98.5 -2.25 98.5 -3 98.5 -3.65 98.8 -4.25 99 -4.8 99.6 -5.15 Z"/>
</g>

<g id="IT_640x480_psd_Asset_3_ManagedWiFi_IT_Research_DM10_2_If_you_re_considering_changing__your_businesses_networking_solu_0_Layer0_0_MEMBER_19_FILL">
<path fill="#D82C26" stroke="none" d="
M 111.1 -6.15
Q 110.2 -6.15 109.5 -5.75 108.8 -5.3 108.35 -4.6 107.95 -3.8 107.95 -2.95 107.95 -2.05 108.35 -1.35 108.65 -0.7 109.45 -0.2 110.25 0.2 111.05 0.2 111.6 0.2 112.2 -0.05 112.65 -0.15 113.1 -0.55
L 113 -1.15
Q 112.35 -0.7 112.15 -0.65 111.55 -0.45 111.1 -0.45 110.45 -0.45 109.85 -0.8 109.3 -1.2 109 -1.7 108.75 -2.2 108.75 -2.95 108.75 -3.75 109 -4.25 109.35 -4.85 109.85 -5.15 110.35 -5.5 111.1 -5.5 111.55 -5.5 112 -5.35 112.55 -5.1 112.8 -4.85
L 113.1 -5.45
Q 112.85 -5.7 112.2 -5.95 111.5 -6.15 111.1 -6.15 Z"/>
</g>

<g id="IT_640x480_psd_Asset_3_ManagedWiFi_IT_Research_DM10_2_If_you_re_considering_changing__your_businesses_networking_solu_0_Layer0_0_MEMBER_20_FILL">
<path fill="#D82C26" stroke="none" d="
M 114.8 -9.7
L 114.05 -9.6 114.05 0 114.8 0 114.8 -2.9
Q 114.8 -3.7 115.1 -4.3 115.3 -4.9 115.8 -5.2 116.25 -5.5 116.8 -5.5 117.7 -5.5 118.05 -4.9 118.4 -4.35 118.4 -3.45
L 118.4 0 119.15 0 119.15 -3.65
Q 119.15 -4.75 118.65 -5.4 118.15 -6.15 117 -6.15 116.25 -6.15 115.7 -5.75 115.05 -5.35 114.85 -4.7
L 114.8 -4.7 114.8 -9.7 Z"/>
</g>

<g id="IT_640x480_psd_Asset_3_ManagedWiFi_IT_Research_DM10_2_If_you_re_considering_changing__your_businesses_networking_solu_0_Layer0_0_MEMBER_21_FILL">
<path fill="#D82C26" stroke="none" d="
M 120.35 -1.6
Q 120.35 -0.75 120.95 -0.3 121.5 0.15 122.25 0.15 123 0.15 123.6 -0.15 124.25 -0.55 124.5 -1.15
L 124.6 0 125.3 0 125.2 -3.85
Q 125.2 -5 124.6 -5.55 124 -6.15 122.9 -6.15 122.5 -6.15 121.7 -5.95 121.1 -5.7 120.7 -5.4
L 120.9 -4.8
Q 121.35 -5.15 121.8 -5.35 122.5 -5.55 122.8 -5.55 123.55 -5.55 124.05 -5.15 124.5 -4.7 124.5 -3.9
L 124.5 -3.55 123.75 -3.55
Q 120.35 -3.55 120.35 -1.6
M 121.45 -0.7
Q 121.1 -1 121.1 -1.65 121.1 -3.1 123.9 -3.1
L 124.5 -3.1 124.5 -2.5
Q 124.5 -2 124.25 -1.5 124 -1 123.55 -0.7 123.1 -0.4 122.4 -0.4 121.9 -0.4 121.45 -0.7 Z"/>
</g>

<g id="IT_640x480_psd_Asset_3_ManagedWiFi_IT_Research_DM10_2_If_you_re_considering_changing__your_businesses_networking_solu_0_Layer0_0_MEMBER_22_FILL">
<path fill="#D82C26" stroke="none" d="
M 131.4 -5.4
Q 130.9 -6.15 129.7 -6.15 129.05 -6.15 128.4 -5.75 127.85 -5.35 127.55 -4.65
L 127.5 -5.95 126.8 -5.95 126.85 0 127.6 0 127.6 -3.05
Q 127.6 -3.9 127.85 -4.35 128.05 -4.85 128.55 -5.2 129 -5.5 129.55 -5.5 130.45 -5.5 130.8 -4.9 131.2 -4.25 131.2 -3.45
L 131.2 0 131.95 0 131.95 -3.65
Q 131.95 -4.7 131.4 -5.4 Z"/>
</g>

<g id="IT_640x480_psd_Asset_3_ManagedWiFi_IT_Research_DM10_2_If_you_re_considering_changing__your_businesses_networking_solu_0_Layer0_0_MEMBER_23_FILL">
<path fill="#D82C26" stroke="none" d="
M 136.15 -6.15
Q 135.3 -6.15 134.6 -5.7 133.95 -5.35 133.55 -4.55 133.15 -3.85 133.15 -3 133.15 -2.1 133.55 -1.4 133.95 -0.65 134.6 -0.3 135.2 0.1 136.15 0.1 136.95 0.1 137.6 -0.25 138.3 -0.75 138.55 -1.35
L 138.6 -1.35 138.6 -0.1
Q 138.6 1.15 138 1.8 137.4 2.5 136.15 2.5 135.5 2.5 134.85 2.25 134.3 2.15 133.7 1.7
L 133.55 2.4
Q 134.2 2.75 134.75 2.95 135.65 3.15 136.15 3.15 137.8 3.15 138.55 2.25 139.35 1.4 139.35 -0.1
L 139.35 -5.95 138.65 -5.95 138.6 -4.65
Q 138.2 -5.4 137.55 -5.75 136.9 -6.15 136.15 -6.15
M 135 -5.15
Q 135.55 -5.5 136.25 -5.5 136.95 -5.5 137.45 -5.15 138 -4.9 138.3 -4.25 138.6 -3.65 138.6 -3 138.6 -2.25 138.3 -1.75 138 -1.1 137.45 -0.85 136.95 -0.5 136.25 -0.5 135.55 -0.5 135 -0.85 134.5 -1.15 134.2 -1.75 133.9 -2.25 133.9 -3 133.9 -3.65 134.2 -4.25 134.5 -4.85 135 -5.15 Z"/>
</g>

<g id="IT_640x480_psd_Asset_3_ManagedWiFi_IT_Research_DM10_2_If_you_re_considering_changing__your_businesses_networking_solu_0_Layer0_0_MEMBER_24_FILL">
<path fill="#D82C26" stroke="none" d="
M 141.8 -5.95
L 141.05 -5.95 141.05 0 141.8 0 141.8 -5.95
M 141.4 -8.85
Q 141.25 -8.85 141 -8.7 140.85 -8.55 140.85 -8.35 140.85 -8.1 141 -7.95 141.25 -7.8 141.4 -7.8 141.6 -7.8 141.75 -7.95 141.95 -8.1 141.95 -8.35 141.95 -8.55 141.75 -8.7 141.6 -8.85 141.4 -8.85 Z"/>
</g>

<g id="IT_640x480_psd_Asset_3_ManagedWiFi_IT_Research_DM10_2_If_you_re_considering_changing__your_businesses_networking_solu_0_Layer0_0_MEMBER_25_FILL">
<path fill="#D82C26" stroke="none" d="
M 144.1 -5.95
L 143.4 -5.95 143.45 0 144.2 0 144.2 -3.05
Q 144.2 -3.8 144.5 -4.35 144.7 -4.85 145.2 -5.2 145.65 -5.5 146.2 -5.5 147.1 -5.5 147.45 -4.9 147.8 -4.35 147.8 -3.45
L 147.8 0 148.55 0 148.55 -3.65
Q 148.55 -4.75 148.05 -5.4 147.45 -6.15 146.35 -6.15 145.7 -6.15 145.05 -5.75 144.5 -5.35 144.2 -4.65
L 144.1 -5.95 Z"/>
</g>

<g id="IT_640x480_psd_Asset_3_ManagedWiFi_IT_Research_DM10_2_If_you_re_considering_changing__your_businesses_networking_solu_0_Layer0_0_MEMBER_26_FILL">
<path fill="#D82C26" stroke="none" d="
M 150.2 -1.4
Q 150.6 -0.65 151.25 -0.3 151.85 0.1 152.8 0.1 153.65 0.1 154.2 -0.25 154.95 -0.75 155.2 -1.35
L 155.25 -1.35 155.25 -0.1
Q 155.25 1.15 154.65 1.8 154.05 2.5 152.75 2.5 152.15 2.5 151.5 2.25 150.95 2.15 150.35 1.7
L 150.2 2.4
Q 150.85 2.75 151.4 2.95 152.3 3.15 152.8 3.15 154.45 3.15 155.2 2.25 155.95 1.35 155.95 -0.1
L 156 -5.95 155.3 -5.95 155.25 -4.65 155.2 -4.65
Q 154.9 -5.35 154.2 -5.75 153.55 -6.15 152.8 -6.15 151.95 -6.15 151.25 -5.7 150.6 -5.35 150.2 -4.55 149.8 -3.85 149.8 -3 149.8 -2.1 150.2 -1.4
M 150.85 -4.25
Q 151.15 -4.85 151.65 -5.15 152.15 -5.5 152.9 -5.5 153.6 -5.5 154.1 -5.15 154.65 -4.85 154.95 -4.25 155.25 -3.65 155.25 -3 155.25 -2.25 154.95 -1.75 154.65 -1.15 154.1 -0.85 153.6 -0.5 152.9 -0.5 152.15 -0.5 151.65 -0.85 151.15 -1.15 150.85 -1.75 150.55 -2.25 150.55 -3 150.55 -3.65 150.85 -4.25 Z"/>
</g>

<g id="IT_640x480_psd_Asset_3_ManagedWiFi_IT_Research_DM10_2_If_you_re_considering_changing__your_businesses_networking_solu_0_Layer0_0_MEMBER_27_FILL">
<path fill="#D82C26" stroke="none" d="
M 1.05 8.9
L 0.25 8.9 2.75 14.9 2.25 16.1
Q 2 16.75 1.65 16.95 1.25 17.2 0.6 17.2
L 0.8 17.9
Q 1.7 17.8 2.15 17.5 2.65 17.15 2.95 16.35
L 5.7 8.9 4.9 8.9 3.1 14.05 1.05 8.9 Z"/>
</g>

<g id="IT_640x480_psd_Asset_3_ManagedWiFi_IT_Research_DM10_2_If_you_re_considering_changing__your_businesses_networking_solu_0_Layer0_0_MEMBER_28_FILL">
<path fill="#D82C26" stroke="none" d="
M 11.95 10.2
Q 11.45 9.4 10.8 9.1 10.15 8.7 9.2 8.7 8.2 8.7 7.55 9.1 6.85 9.5 6.45 10.2 6 10.95 6 11.85 6 12.8 6.45 13.45 6.8 14.2 7.55 14.6 8.35 15 9.2 15 10 15 10.8 14.6 11.45 14.25 11.95 13.45 12.35 12.75 12.35 11.85 12.35 11 11.95 10.2
M 11.3 10.55
Q 11.6 11.15 11.6 11.85 11.6 12.5 11.3 13.1 11 13.7 10.45 14.05 9.95 14.35 9.2 14.35 8.45 14.35 7.9 14.05 7.3 13.65 7.05 13.1 6.75 12.5 6.75 11.85 6.75 11.15 7.05 10.55 7.35 10.05 7.9 9.65 8.5 9.3 9.2 9.3 9.85 9.3 10.45 9.65 11 10.05 11.3 10.55 Z"/>
</g>

<g id="IT_640x480_psd_Asset_3_ManagedWiFi_IT_Research_DM10_2_If_you_re_considering_changing__your_businesses_networking_solu_0_Layer0_0_MEMBER_29_FILL">
<path fill="#D82C26" stroke="none" d="
M 14.35 8.9
L 13.6 8.9 13.6 12.5
Q 13.6 13.6 14.1 14.3 14.65 15 15.75 15 16.4 15 17.05 14.6 17.65 14.25 17.95 13.55
L 18.05 14.85 18.8 14.85 18.7 14.15 18.65 8.9 17.95 8.9 17.95 11.85
Q 17.95 12.6 17.65 13.2 17.45 13.8 16.95 14.1 16.5 14.4 15.95 14.4 15.1 14.4 14.7 13.8 14.35 13.25 14.35 12.3
L 14.35 8.9 Z"/>
</g>

<g id="IT_640x480_psd_Asset_3_ManagedWiFi_IT_Research_DM10_2_If_you_re_considering_changing__your_businesses_networking_solu_0_Layer0_0_MEMBER_30_FILL">
<path fill="#D82C26" stroke="none" d="
M 23.5 8.8
L 22.9 8.7
Q 22.4 8.7 21.85 9.1 21.35 9.5 21.15 10.15
L 21.1 10.15 21.05 8.9 20.35 8.9 20.4 14.85 21.15 14.85 21.15 11.85
Q 21.15 10.85 21.6 10.1 22.05 9.35 22.85 9.35
L 23.35 9.45 23.5 8.8 Z"/>
</g>

<g id="IT_640x480_psd_Asset_3_ManagedWiFi_IT_Research_DM10_2_If_you_re_considering_changing__your_businesses_networking_solu_0_Layer0_0_MEMBER_31_FILL">
<path fill="#D82C26" stroke="none" d="
M 32.7 10.25
Q 32.35 9.6 31.65 9.1 30.95 8.7 30.1 8.7 29.35 8.7 28.65 9.1 28 9.5 27.65 10.15
L 27.65 5.1 26.9 5.2 26.85 14.85 27.5 14.85 27.6 13.55 27.65 13.55
Q 27.95 14.2 28.65 14.6 29.35 15 30.1 15 30.85 15 31.65 14.6 32.35 14.15 32.7 13.45 33.05 12.75 33.05 11.85 33.05 10.9 32.7 10.25
M 32.05 10.6
Q 32.3 11.2 32.3 11.85 32.3 12.5 32.05 13.1 31.8 13.65 31.2 14.05 30.7 14.35 29.95 14.35 29.35 14.35 28.75 14.05 28.15 13.65 27.9 13.1 27.6 12.6 27.6 11.85 27.6 11.15 27.9 10.6 28.15 10.05 28.75 9.65 29.45 9.3 29.95 9.3 30.6 9.3 31.2 9.65 31.8 10.05 32.05 10.6 Z"/>
</g>

<g id="IT_640x480_psd_Asset_3_ManagedWiFi_IT_Research_DM10_2_If_you_re_considering_changing__your_businesses_networking_solu_0_Layer0_0_MEMBER_32_FILL">
<path fill="#D82C26" stroke="none" d="
M 35.05 8.9
L 34.3 8.9 34.3 12.5
Q 34.3 13.6 34.8 14.3 35.35 15 36.45 15 37.1 15 37.75 14.6 38.35 14.25 38.65 13.55
L 38.75 14.85 39.5 14.85 39.4 14.15 39.35 8.9 38.65 8.9 38.65 11.85
Q 38.65 12.6 38.35 13.2 38.15 13.8 37.65 14.1 37.2 14.4 36.65 14.4 35.8 14.4 35.4 13.8 35.05 13.25 35.05 12.3
L 35.05 8.9 Z"/>
</g>

<g id="IT_640x480_psd_Asset_3_ManagedWiFi_IT_Research_DM10_2_If_you_re_considering_changing__your_businesses_networking_solu_0_Layer0_0_MEMBER_33_FILL">
<path fill="#D82C26" stroke="none" d="
M 42.7 8.7
Q 42.2 8.7 41.75 8.85 41.3 9.1 41 9.45 40.75 9.85 40.75 10.35 40.75 11 41.15 11.35 41.55 11.7 42.4 12 43.15 12.25 43.65 12.55 44.05 12.8 44.05 13.3 44.05 13.85 43.65 14.1 43.3 14.4 42.75 14.4 41.6 14.4 40.75 13.7
L 40.6 14.35
Q 41 14.65 41.55 14.8 42 15 42.75 15 43.35 15 43.75 14.8 44.2 14.6 44.5 14.2 44.75 13.9 44.75 13.25 44.75 12.6 44.35 12.2 43.9 11.8 42.95 11.5
L 41.75 11
Q 41.45 10.7 41.45 10.3 41.45 9.75 41.8 9.55 42.1 9.3 42.75 9.3 43.2 9.3 43.55 9.45 43.75 9.5 44.3 9.85
L 44.6 9.3
Q 44.1 9 43.75 8.9 43.35 8.7 42.7 8.7 Z"/>
</g>

<g id="IT_640x480_psd_Asset_3_ManagedWiFi_IT_Research_DM10_2_If_you_re_considering_changing__your_businesses_networking_solu_0_Layer0_0_MEMBER_34_FILL">
<path fill="#D82C26" stroke="none" d="
M 46.7 8.9
L 45.95 8.9 45.95 14.85 46.7 14.85 46.7 8.9
M 46.7 6.1
Q 46.55 5.95 46.3 5.95 46.1 5.95 45.95 6.1 45.75 6.3 45.75 6.5 45.75 6.6 45.95 6.9 46.1 7.05 46.3 7.05 46.55 7.05 46.7 6.9 46.85 6.7 46.85 6.5 46.85 6.25 46.7 6.1 Z"/>
</g>

<g id="IT_640x480_psd_Asset_3_ManagedWiFi_IT_Research_DM10_2_If_you_re_considering_changing__your_businesses_networking_solu_0_Layer0_0_MEMBER_35_FILL">
<path fill="#D82C26" stroke="none" d="
M 52.95 9.4
Q 52.4 8.7 51.25 8.7 50.6 8.7 49.95 9.1 49.4 9.5 49.1 10.15
L 49.05 8.9 48.35 8.9 48.4 14.85 49.15 14.85 49.15 11.8
Q 49.15 10.95 49.4 10.45 49.65 9.9 50.1 9.6 50.55 9.3 51.1 9.3 52 9.3 52.35 9.9 52.75 10.55 52.75 11.4
L 52.75 14.85 53.5 14.85 53.5 11.2
Q 53.5 10.2 52.95 9.4 Z"/>
</g>

<g id="IT_640x480_psd_Asset_3_ManagedWiFi_IT_Research_DM10_2_If_you_re_considering_changing__your_businesses_networking_solu_0_Layer0_0_MEMBER_36_FILL">
<path fill="#D82C26" stroke="none" d="
M 55.15 10.2
Q 54.75 10.85 54.75 11.8 54.75 12.85 55.15 13.45 55.55 14.25 56.2 14.6 57 15 57.8 15 59.2 15 60.15 14.25
L 60.05 13.6
Q 59.8 13.85 59.1 14.15 58.45 14.4 57.85 14.4 57.15 14.4 56.65 14.05 56.15 13.8 55.8 13.2 55.55 12.65 55.45 11.95
L 60.5 11.95 60.55 11.65
Q 60.55 10.95 60.2 10.15 59.8 9.45 59.2 9.1 58.65 8.7 57.7 8.7 56.8 8.7 56.2 9.1 55.55 9.45 55.15 10.2
M 55.75 10.45
Q 56 10 56.5 9.6 57.1 9.25 57.7 9.25 58.7 9.25 59.2 9.85 59.8 10.45 59.8 11.4
L 55.5 11.4
Q 55.5 10.95 55.75 10.45 Z"/>
</g>

<g id="IT_640x480_psd_Asset_3_ManagedWiFi_IT_Research_DM10_2_If_you_re_considering_changing__your_businesses_networking_solu_0_Layer0_0_MEMBER_37_FILL">
<path fill="#D82C26" stroke="none" d="
M 64.45 8.9
Q 64.05 8.7 63.4 8.7
L 62.45 8.85
Q 61.95 9.1 61.75 9.45 61.45 9.85 61.45 10.35 61.45 10.95 61.85 11.35 62.3 11.7 63.15 12
L 64.4 12.55
Q 64.75 12.85 64.75 13.3 64.75 13.8 64.4 14.1 63.95 14.4 63.45 14.4 62.3 14.4 61.45 13.7
L 61.35 14.35
Q 61.65 14.65 62.25 14.8 62.8 15 63.45 15 64.05 15 64.45 14.8 64.9 14.6 65.2 14.2 65.5 13.85 65.5 13.25 65.5 12.6 65.05 12.2 64.55 11.75 63.65 11.5 62.7 11.15 62.5 11 62.15 10.7 62.15 10.3 62.15 9.75 62.5 9.55 62.8 9.3 63.45 9.3 63.85 9.3 64.3 9.45
L 65 9.85 65.3 9.3
Q 64.95 9.05 64.45 8.9 Z"/>
</g>

<g id="IT_640x480_psd_Asset_3_ManagedWiFi_IT_Research_DM10_2_If_you_re_considering_changing__your_businesses_networking_solu_0_Layer0_0_MEMBER_38_FILL">
<path fill="#D82C26" stroke="none" d="
M 69.45 8.9
Q 69 8.7 68.4 8.7 67.9 8.7 67.45 8.85 67 9.1 66.7 9.45 66.4 9.85 66.4 10.35 66.4 11 66.85 11.35 67.15 11.65 68.1 12
L 69.35 12.55
Q 69.75 12.85 69.75 13.3 69.75 13.8 69.35 14.1 69 14.4 68.4 14.4 67.25 14.4 66.4 13.7
L 66.3 14.35
Q 66.7 14.65 67.2 14.8 67.75 15 68.45 15 69 15 69.4 14.8 69.85 14.6 70.15 14.2 70.45 13.85 70.45 13.25 70.45 12.6 70 12.2 69.5 11.75 68.6 11.5 67.65 11.15 67.45 11 67.1 10.7 67.1 10.3 67.1 9.8 67.5 9.55 67.75 9.3 68.4 9.3 68.9 9.3 69.25 9.45
L 69.95 9.85 70.25 9.3 69.45 8.9 Z"/>
</g>

<g id="IT_640x480_psd_Asset_3_ManagedWiFi_IT_Research_DM10_2_If_you_re_considering_changing__your_businesses_networking_solu_0_Layer0_0_MEMBER_39_FILL">
<path fill="#D82C26" stroke="none" d="
M 75.75 9.1
Q 75.15 8.7 74.2 8.7 73.3 8.7 72.7 9.1 72.05 9.45 71.65 10.2 71.25 11 71.25 11.8 71.25 12.75 71.65 13.45 72 14.2 72.75 14.6 73.45 15 74.3 15 75.75 15 76.7 14.25
L 76.55 13.6
Q 76.25 13.9 75.6 14.15 74.95 14.4 74.4 14.4 73.65 14.4 73.15 14.05 72.6 13.75 72.3 13.2 72 12.6 72 11.95
L 77.05 11.95 77.05 11.65
Q 77.05 10.8 76.7 10.15 76.4 9.5 75.75 9.1
M 74.2 9.25
Q 75.15 9.25 75.75 9.85 76.3 10.45 76.35 11.4
L 72 11.4
Q 72 10.9 72.3 10.45 72.5 10 73.05 9.6 73.65 9.25 74.2 9.25 Z"/>
</g>

<g id="IT_640x480_psd_Asset_3_ManagedWiFi_IT_Research_DM10_2_If_you_re_considering_changing__your_businesses_networking_solu_0_Layer0_0_MEMBER_40_FILL">
<path fill="#D82C26" stroke="none" d="
M 81.85 9.3
Q 81.35 9 81 8.9 80.55 8.7 79.95 8.7 79.45 8.7 79 8.85 78.55 9.1 78.25 9.45 77.95 9.85 77.95 10.35 77.95 11 78.4 11.35 78.7 11.65 79.65 12 80.4 12.25 80.9 12.55 81.3 12.85 81.3 13.3 81.3 13.8 80.9 14.1 80.55 14.4 79.95 14.4 78.85 14.4 78 13.7
L 77.85 14.35
Q 78.25 14.65 78.75 14.8 79.3 15 80 15 80.55 15 80.95 14.8 81.5 14.6 81.7 14.2 82 13.85 82 13.25 82 12.6 81.55 12.2 81.05 11.8 80.2 11.5
L 79 11
Q 78.65 10.65 78.65 10.3 78.65 9.8 79.05 9.55 79.35 9.3 79.95 9.3 80.45 9.3 80.8 9.45
L 81.5 9.85 81.85 9.3 Z"/>
</g>

<g id="IT_640x480_psd_Asset_3_ManagedWiFi_IT_Research_DM10_2_If_you_re_considering_changing__your_businesses_networking_solu_0_Layer0_0_MEMBER_41_FILL">
<path fill="#D82C26" stroke="none" d="
M 86.75 10.15
L 86.7 10.15 86.65 8.9 85.95 8.9 86 14.85 86.75 14.85 86.75 11.8
Q 86.75 11.1 87 10.45 87.35 9.85 87.75 9.6 88.2 9.3 88.75 9.3 89.65 9.3 90 9.9 90.35 10.6 90.35 11.4
L 90.35 14.85 91.1 14.85 91.1 11.2
Q 91.1 10.2 90.55 9.4 90 8.7 88.9 8.7 88.15 8.7 87.6 9.1 86.95 9.5 86.75 10.15 Z"/>
</g>

<g id="IT_640x480_psd_Asset_3_ManagedWiFi_IT_Research_DM10_2_If_you_re_considering_changing__your_businesses_networking_solu_0_Layer0_0_MEMBER_42_FILL">
<path fill="#D82C26" stroke="none" d="
M 95.3 8.7
Q 94.4 8.7 93.8 9.1 93.15 9.45 92.75 10.2 92.35 11 92.35 11.8 92.35 12.75 92.75 13.45 93.15 14.25 93.85 14.6 94.55 15 95.4 15 96.75 15 97.8 14.25
L 97.65 13.6
Q 97.4 13.85 96.7 14.15 96.05 14.4 95.45 14.4 94.75 14.4 94.25 14.05 93.7 13.75 93.4 13.2 93.1 12.6 93.1 11.95
L 98.1 11.95 98.15 11.65
Q 98.15 10.8 97.8 10.15 97.5 9.5 96.85 9.1 96.25 8.7 95.3 8.7
M 94.15 9.6
Q 94.7 9.25 95.3 9.25 96.25 9.25 96.85 9.85 97.4 10.5 97.4 11.4
L 93.1 11.4
Q 93.1 10.9 93.4 10.45 93.6 10 94.15 9.6 Z"/>
</g>

<g id="IT_640x480_psd_Asset_3_ManagedWiFi_IT_Research_DM10_2_If_you_re_considering_changing__your_businesses_networking_solu_0_Layer0_0_MEMBER_43_FILL">
<path fill="#D82C26" stroke="none" d="
M 101.6 14.85
Q 102.05 14.75 102.2 14.65
L 102.1 14.1
Q 101.5 14.35 101.15 14.35 100.85 14.35 100.5 14.1 100.3 13.85 100.3 13.3
L 100.3 9.45 101.8 9.45 102 8.9 100.3 8.9 100.3 7.15 99.55 7.45 99.55 8.9 98.6 8.9 98.45 9.45 99.55 9.45 99.55 13.4
Q 99.55 14.2 99.9 14.55 100.3 14.95 100.95 14.95
L 101.6 14.85 Z"/>
</g>

<g id="IT_640x480_psd_Asset_3_ManagedWiFi_IT_Research_DM10_2_If_you_re_considering_changing__your_businesses_networking_solu_0_Layer0_0_MEMBER_44_FILL">
<path fill="#D82C26" stroke="none" d="
M 103.35 8.9
L 102.55 8.9 104.35 14.85 105.2 14.85 106.9 9.75 108.65 14.85 109.45 14.85 111.3 8.9 110.5 8.9 109.05 14 109 14 107.3 8.9 106.5 8.9 104.85 14 104.8 14 103.35 8.9 Z"/>
</g>

<g id="IT_640x480_psd_Asset_3_ManagedWiFi_IT_Research_DM10_2_If_you_re_considering_changing__your_businesses_networking_solu_0_Layer0_0_MEMBER_45_FILL">
<path fill="#D82C26" stroke="none" d="
M 114.85 8.7
Q 113.85 8.7 113.25 9.1 112.5 9.45 112.1 10.2 111.7 10.85 111.7 11.85 111.7 12.85 112.1 13.45 112.5 14.2 113.25 14.6 113.95 15 114.85 15 115.7 15 116.5 14.6 117.25 14.2 117.6 13.45 118.05 12.8 118.05 11.85 118.05 10.95 117.6 10.2 117.2 9.5 116.5 9.1 115.85 8.7 114.85 8.7
M 114.85 9.3
Q 115.45 9.3 116.15 9.65 116.7 10.05 117 10.55 117.3 11.15 117.3 11.85 117.3 12.5 117 13.1 116.75 13.65 116.15 14.05 115.55 14.35 114.85 14.35 114.15 14.35 113.55 14.05 112.95 13.6 112.75 13.1 112.45 12.5 112.45 11.85 112.45 11.15 112.75 10.55 112.95 10.1 113.55 9.65 114.25 9.3 114.85 9.3 Z"/>
</g>

<g id="IT_640x480_psd_Asset_3_ManagedWiFi_IT_Research_DM10_2_If_you_re_considering_changing__your_businesses_networking_solu_0_Layer0_0_MEMBER_46_FILL">
<path fill="#D82C26" stroke="none" d="
M 122.45 8.8
L 121.8 8.7
Q 121.3 8.7 120.75 9.1 120.25 9.5 120.05 10.15
L 120 10.15 119.95 8.9 119.25 8.9 119.3 14.85 120.05 14.85 120.05 11.85
Q 120.05 10.85 120.5 10.1 120.95 9.35 121.75 9.35
L 122.25 9.45 122.45 8.8 Z"/>
</g>

<g id="IT_640x480_psd_Asset_3_ManagedWiFi_IT_Research_DM10_2_If_you_re_considering_changing__your_businesses_networking_solu_0_Layer0_0_MEMBER_47_FILL">
<path fill="#D82C26" stroke="none" d="
M 124 5.15
L 123.25 5.25 123.25 14.85 124 14.85 124 11.75 127.1 14.85 128.05 14.85 124.85 11.6 127.75 8.9 126.8 8.9 124 11.55 124 5.15 Z"/>
</g>

<g id="IT_640x480_psd_Asset_3_ManagedWiFi_IT_Research_DM10_2_If_you_re_considering_changing__your_businesses_networking_solu_0_Layer0_0_MEMBER_48_FILL">
<path fill="#D82C26" stroke="none" d="
M 129.7 8.9
L 128.95 8.9 128.95 14.85 129.7 14.85 129.7 8.9
M 129.7 6.1
Q 129.55 5.95 129.3 5.95 129.1 5.95 128.95 6.1 128.8 6.25 128.8 6.5 128.8 6.7 128.95 6.9 129.1 7.05 129.3 7.05 129.55 7.05 129.7 6.9 129.85 6.7 129.85 6.5 129.85 6.25 129.7 6.1 Z"/>
</g>

<g id="IT_640x480_psd_Asset_3_ManagedWiFi_IT_Research_DM10_2_If_you_re_considering_changing__your_businesses_networking_solu_0_Layer0_0_MEMBER_49_FILL">
<path fill="#D82C26" stroke="none" d="
M 132.15 10.15
L 132.1 10.15 132.05 8.9 131.35 8.9 131.4 14.85 132.15 14.85 132.15 11.8
Q 132.15 11.1 132.4 10.45 132.75 9.85 133.15 9.6 133.6 9.3 134.15 9.3 135.05 9.3 135.4 9.9 135.75 10.6 135.75 11.4
L 135.75 14.85 136.5 14.85 136.5 11.2
Q 136.5 10.2 135.95 9.4 135.4 8.7 134.3 8.7 133.55 8.7 133 9.1 132.35 9.5 132.15 10.15 Z"/>
</g>

<g id="IT_640x480_psd_Asset_3_ManagedWiFi_IT_Research_DM10_2_If_you_re_considering_changing__your_businesses_networking_solu_0_Layer0_0_MEMBER_50_FILL">
<path fill="#D82C26" stroke="none" d="
M 143.15 10.2
Q 142.8 9.5 142.15 9.1 141.45 8.7 140.7 8.7 139.95 8.7 139.15 9.1 138.5 9.55 138.1 10.25 137.75 10.95 137.75 11.85 137.75 12.75 138.1 13.4 138.45 14.1 139.15 14.55 139.85 14.95 140.7 14.95 141.45 14.95 142.15 14.55 142.75 14.2 143.15 13.5
L 143.15 14.75
Q 143.15 15.9 142.55 16.65 142.05 17.3 140.7 17.3 140 17.3 139.4 17.1
L 138.25 16.55 138.1 17.25
Q 138.75 17.65 139.3 17.75 139.9 17.95 140.75 17.95 142.3 17.95 143.15 17.1 143.9 16.2 143.9 14.75
L 143.95 8.9 143.25 8.9 143.15 10.2
M 142.9 10.6
Q 143.2 11.15 143.2 11.85 143.2 12.5 142.9 13.1 142.6 13.6 142.05 14 141.45 14.35 140.8 14.35 140.2 14.35 139.6 14 139.05 13.6 138.75 13.1 138.5 12.45 138.5 11.85 138.5 11.2 138.75 10.6 139 10.05 139.6 9.65 140.2 9.3 140.8 9.3 141.45 9.3 142.05 9.65 142.65 10.05 142.9 10.6 Z"/>
</g>

<g id="IT_640x480_psd_Asset_3_ManagedWiFi_IT_Research_DM10_2_If_you_re_considering_changing__your_businesses_networking_solu_0_Layer0_0_MEMBER_51_FILL">
<path fill="#D82C26" stroke="none" d="
M 151.05 8.9
Q 150.65 8.7 150 8.7 149.5 8.7 149.05 8.85 148.55 9.1 148.35 9.45 148.05 9.85 148.05 10.35 148.05 10.95 148.45 11.35 148.9 11.7 149.75 12
L 151 12.55
Q 151.35 12.85 151.35 13.3 151.35 13.8 151 14.1 150.55 14.4 150.05 14.4 148.9 14.4 148.05 13.7
L 147.95 14.35
Q 148.25 14.65 148.85 14.8 149.3 15 150.05 15 150.65 15 151.05 14.8 151.5 14.6 151.8 14.2 152.1 13.85 152.1 13.25 152.1 12.6 151.65 12.2 151.15 11.75 150.25 11.5 149.3 11.15 149.1 11 148.75 10.7 148.75 10.3 148.75 9.75 149.1 9.55 149.4 9.3 150.05 9.3 150.45 9.3 150.9 9.45
L 151.6 9.85 151.9 9.3
Q 151.55 9.05 151.05 8.9 Z"/>
</g>

<g id="IT_640x480_psd_Asset_3_ManagedWiFi_IT_Research_DM10_2_If_you_re_considering_changing__your_businesses_networking_solu_0_Layer0_0_MEMBER_52_FILL">
<path fill="#D82C26" stroke="none" d="
M 156.05 8.7
Q 155.05 8.7 154.45 9.1 153.85 9.4 153.3 10.2 152.9 11 152.9 11.85 152.9 12.75 153.3 13.45 153.8 14.25 154.45 14.6 155.15 15 156.05 15 156.9 15 157.7 14.6 158.4 14.2 158.85 13.45 159.25 12.75 159.25 11.85 159.25 11 158.85 10.2 158.35 9.45 157.7 9.1 157.05 8.7 156.05 8.7
M 153.65 11.85
Q 153.65 11.15 153.95 10.55 154.3 10 154.8 9.65 155.4 9.3 156.05 9.3 156.65 9.3 157.35 9.65 157.9 10.05 158.2 10.55 158.5 11.15 158.5 11.85 158.5 12.5 158.2 13.1 157.95 13.65 157.35 14.05 156.85 14.35 156.05 14.35 155.35 14.35 154.8 14.05 154.25 13.7 153.95 13.1 153.65 12.5 153.65 11.85 Z"/>
</g>

<g id="IT_640x480_psd_Asset_3_ManagedWiFi_IT_Research_DM10_2_If_you_re_considering_changing__your_businesses_networking_solu_0_Layer0_0_MEMBER_53_FILL">
<path fill="#D82C26" stroke="none" d="
M 160.8 14.45
Q 161.1 14.8 161.5 14.95
L 161.85 14.35 161.4 14
Q 161.3 13.85 161.3 13.35
L 161.3 5.15 160.55 5.3 160.55 13.5
Q 160.55 14.15 160.8 14.45 Z"/>
</g>

<g id="IT_640x480_psd_Asset_3_ManagedWiFi_IT_Research_DM10_2_If_you_re_considering_changing__your_businesses_networking_solu_0_Layer0_0_MEMBER_54_FILL">
<path fill="#D82C26" stroke="none" d="
M 163.7 8.9
L 162.95 8.9 162.95 12.5
Q 162.95 13.6 163.45 14.3 164 15 165.1 15 165.75 15 166.45 14.6 167 14.25 167.3 13.55
L 167.4 14.85 168.15 14.85 168.05 14.15 168 8.9 167.3 8.9 167.3 11.85
Q 167.3 12.6 167 13.2 166.8 13.8 166.3 14.1 165.85 14.4 165.3 14.4 164.45 14.4 164.05 13.8 163.7 13.25 163.7 12.3
L 163.7 8.9 Z"/>
</g>

<g id="IT_640x480_psd_Asset_3_ManagedWiFi_IT_Research_DM10_2_If_you_re_considering_changing__your_businesses_networking_solu_0_Layer0_0_MEMBER_55_FILL">
<path fill="#D82C26" stroke="none" d="
M 172.3 9.45
L 172.45 8.9 170.75 8.9 170.75 7.15 170 7.45 170 8.9 169.05 8.9 168.9 9.45 170.05 9.45 170.05 13.4
Q 170.05 14.2 170.4 14.55 170.8 14.95 171.4 14.95
L 172.1 14.85 172.7 14.65 172.6 14.1
Q 172 14.35 171.65 14.35 171.25 14.35 171 14.1 170.75 13.75 170.75 13.3
L 170.75 9.45 172.3 9.45 Z"/>
</g>

<g id="IT_640x480_psd_Asset_3_ManagedWiFi_IT_Research_DM10_2_If_you_re_considering_changing__your_businesses_networking_solu_0_Layer0_0_MEMBER_56_FILL">
<path fill="#D82C26" stroke="none" d="
M 174.3 8.9
L 173.55 8.9 173.55 14.85 174.3 14.85 174.3 8.9
M 174.3 6.1
Q 174.15 5.95 173.95 5.95 173.7 5.95 173.55 6.1 173.4 6.25 173.4 6.5 173.4 6.7 173.55 6.9 173.7 7.05 173.95 7.05 174.15 7.05 174.3 6.9 174.45 6.7 174.45 6.5 174.45 6.25 174.3 6.1 Z"/>
</g>

<g id="IT_640x480_psd_Asset_3_ManagedWiFi_IT_Research_DM10_2_If_you_re_considering_changing__your_businesses_networking_solu_0_Layer0_0_MEMBER_57_FILL">
<path fill="#D82C26" stroke="none" d="
M 177.1 9.1
Q 176.4 9.5 176 10.2 175.6 10.85 175.6 11.85 175.6 12.85 176 13.45 176.35 14.2 177.1 14.6 177.9 15 178.75 15 179.65 15 180.35 14.6 181.1 14.2 181.5 13.45 181.9 12.85 181.9 11.85 181.9 10.85 181.5 10.2 181.1 9.45 180.35 9.1 179.75 8.7 178.75 8.7 177.75 8.7 177.1 9.1
M 176.35 11.85
Q 176.35 11.2 176.6 10.55 176.9 10.05 177.45 9.65 178.15 9.3 178.75 9.3 179.4 9.3 180 9.65 180.5 10 180.85 10.55 181.15 11.15 181.15 11.85 181.15 12.6 180.9 13.1 180.65 13.65 180.05 14.05 179.45 14.35 178.75 14.35 178.05 14.35 177.45 14.05 176.85 13.65 176.6 13.1 176.35 12.45 176.35 11.85 Z"/>
</g>

<g id="IT_640x480_psd_Asset_3_ManagedWiFi_IT_Research_DM10_2_If_you_re_considering_changing__your_businesses_networking_solu_0_Layer0_0_MEMBER_58_FILL">
<path fill="#D82C26" stroke="none" d="
M 186.1 8.7
Q 185.45 8.7 184.8 9.1 184.25 9.45 183.95 10.15
L 183.85 8.9 183.15 8.9 183.2 14.85 183.95 14.85 183.95 11.8
Q 183.95 11.05 184.25 10.45 184.5 9.9 184.95 9.6 185.4 9.3 185.95 9.3 186.85 9.3 187.2 9.9 187.55 10.45 187.55 11.4
L 187.55 14.85 188.3 14.85 188.3 11.2
Q 188.3 10.1 187.8 9.4 187.2 8.7 186.1 8.7 Z"/>
</g>

<g id="IT_640x480_psd_Asset_3_ManagedWiFi_IT_Research_DM10_2_If_you_re_considering_changing__your_businesses_networking_solu_0_Layer0_0_MEMBER_59_FILL">
<path fill="#D82C26" stroke="none" d="
M 190.4 14.6
Q 190.35 15 190.1 15.45
L 189.55 16.15 189.85 16.35
Q 191 15.2 191 14.15 191 13.8 190.85 13.65 190.65 13.45 190.45 13.45 190.2 13.45 190.05 13.6 189.85 13.8 189.85 14.05 189.85 14.25 190.05 14.45 190.2 14.6 190.4 14.6 Z"/>
</g>
</defs>

<g transform="matrix( 1, 0, 0, 1, -168,-28) ">
<g transform="matrix( 1, 0, 0, 1, 162,57) ">
<g transform="matrix( 1, 0, 0, 1, 54,10) ">
<g transform="matrix( 2.815704345703125, 0, 0, 2.832611083984375, -0.85,27.6) ">
<use xlink:href="#IT_640x480_psd_Asset_3_ManagedWiFi_IT_Research_DM10_2_If_you_re_considering_changing__your_businesses_networking_solu_0_Layer0_0_MEMBER_0_FILL"/>
</g>

<g transform="matrix( 2.815704345703125, 0, 0, 2.832611083984375, -0.85,27.6) ">
<use xlink:href="#IT_640x480_psd_Asset_3_ManagedWiFi_IT_Research_DM10_2_If_you_re_considering_changing__your_businesses_networking_solu_0_Layer0_0_MEMBER_1_FILL"/>
</g>

<g transform="matrix( 2.815704345703125, 0, 0, 2.832611083984375, -0.85,27.6) ">
<use xlink:href="#IT_640x480_psd_Asset_3_ManagedWiFi_IT_Research_DM10_2_If_you_re_considering_changing__your_businesses_networking_solu_0_Layer0_0_MEMBER_2_FILL"/>
</g>

<g transform="matrix( 2.815704345703125, 0, 0, 2.832611083984375, -0.85,27.6) ">
<use xlink:href="#IT_640x480_psd_Asset_3_ManagedWiFi_IT_Research_DM10_2_If_you_re_considering_changing__your_businesses_networking_solu_0_Layer0_0_MEMBER_3_FILL"/>
</g>

<g transform="matrix( 2.815704345703125, 0, 0, 2.832611083984375, -0.85,27.6) ">
<use xlink:href="#IT_640x480_psd_Asset_3_ManagedWiFi_IT_Research_DM10_2_If_you_re_considering_changing__your_businesses_networking_solu_0_Layer0_0_MEMBER_4_FILL"/>
</g>

<g transform="matrix( 2.815704345703125, 0, 0, 2.832611083984375, -0.85,27.6) ">
<use xlink:href="#IT_640x480_psd_Asset_3_ManagedWiFi_IT_Research_DM10_2_If_you_re_considering_changing__your_businesses_networking_solu_0_Layer0_0_MEMBER_5_FILL"/>
</g>

<g transform="matrix( 2.815704345703125, 0, 0, 2.832611083984375, -0.85,27.6) ">
<use xlink:href="#IT_640x480_psd_Asset_3_ManagedWiFi_IT_Research_DM10_2_If_you_re_considering_changing__your_businesses_networking_solu_0_Layer0_0_MEMBER_6_FILL"/>
</g>

<g transform="matrix( 2.815704345703125, 0, 0, 2.832611083984375, -0.85,27.6) ">
<use xlink:href="#IT_640x480_psd_Asset_3_ManagedWiFi_IT_Research_DM10_2_If_you_re_considering_changing__your_businesses_networking_solu_0_Layer0_0_MEMBER_7_FILL"/>
</g>

<g transform="matrix( 2.815704345703125, 0, 0, 2.832611083984375, -0.85,27.6) ">
<use xlink:href="#IT_640x480_psd_Asset_3_ManagedWiFi_IT_Research_DM10_2_If_you_re_considering_changing__your_businesses_networking_solu_0_Layer0_0_MEMBER_8_FILL"/>
</g>

<g transform="matrix( 2.815704345703125, 0, 0, 2.832611083984375, -0.85,27.6) ">
<use xlink:href="#IT_640x480_psd_Asset_3_ManagedWiFi_IT_Research_DM10_2_If_you_re_considering_changing__your_businesses_networking_solu_0_Layer0_0_MEMBER_9_FILL"/>
</g>

<g transform="matrix( 2.815704345703125, 0, 0, 2.832611083984375, -0.85,27.6) ">
<use xlink:href="#IT_640x480_psd_Asset_3_ManagedWiFi_IT_Research_DM10_2_If_you_re_considering_changing__your_businesses_networking_solu_0_Layer0_0_MEMBER_10_FILL"/>
</g>

<g transform="matrix( 2.815704345703125, 0, 0, 2.832611083984375, -0.85,27.6) ">
<use xlink:href="#IT_640x480_psd_Asset_3_ManagedWiFi_IT_Research_DM10_2_If_you_re_considering_changing__your_businesses_networking_solu_0_Layer0_0_MEMBER_11_FILL"/>
</g>

<g transform="matrix( 2.815704345703125, 0, 0, 2.832611083984375, -0.85,27.6) ">
<use xlink:href="#IT_640x480_psd_Asset_3_ManagedWiFi_IT_Research_DM10_2_If_you_re_considering_changing__your_businesses_networking_solu_0_Layer0_0_MEMBER_12_FILL"/>
</g>

<g transform="matrix( 2.815704345703125, 0, 0, 2.832611083984375, -0.85,27.6) ">
<use xlink:href="#IT_640x480_psd_Asset_3_ManagedWiFi_IT_Research_DM10_2_If_you_re_considering_changing__your_businesses_networking_solu_0_Layer0_0_MEMBER_13_FILL"/>
</g>

<g transform="matrix( 2.815704345703125, 0, 0, 2.832611083984375, -0.85,27.6) ">
<use xlink:href="#IT_640x480_psd_Asset_3_ManagedWiFi_IT_Research_DM10_2_If_you_re_considering_changing__your_businesses_networking_solu_0_Layer0_0_MEMBER_14_FILL"/>
</g>

<g transform="matrix( 2.815704345703125, 0, 0, 2.832611083984375, -0.85,27.6) ">
<use xlink:href="#IT_640x480_psd_Asset_3_ManagedWiFi_IT_Research_DM10_2_If_you_re_considering_changing__your_businesses_networking_solu_0_Layer0_0_MEMBER_15_FILL"/>
</g>

<g transform="matrix( 2.815704345703125, 0, 0, 2.832611083984375, -0.85,27.6) ">
<use xlink:href="#IT_640x480_psd_Asset_3_ManagedWiFi_IT_Research_DM10_2_If_you_re_considering_changing__your_businesses_networking_solu_0_Layer0_0_MEMBER_16_FILL"/>
</g>

<g transform="matrix( 2.815704345703125, 0, 0, 2.832611083984375, -0.85,27.6) ">
<use xlink:href="#IT_640x480_psd_Asset_3_ManagedWiFi_IT_Research_DM10_2_If_you_re_considering_changing__your_businesses_networking_solu_0_Layer0_0_MEMBER_17_FILL"/>
</g>

<g transform="matrix( 2.815704345703125, 0, 0, 2.832611083984375, -0.85,27.6) ">
<use xlink:href="#IT_640x480_psd_Asset_3_ManagedWiFi_IT_Research_DM10_2_If_you_re_considering_changing__your_businesses_networking_solu_0_Layer0_0_MEMBER_18_FILL"/>
</g>

<g transform="matrix( 2.815704345703125, 0, 0, 2.832611083984375, -0.85,27.6) ">
<use xlink:href="#IT_640x480_psd_Asset_3_ManagedWiFi_IT_Research_DM10_2_If_you_re_considering_changing__your_businesses_networking_solu_0_Layer0_0_MEMBER_19_FILL"/>
</g>

<g transform="matrix( 2.815704345703125, 0, 0, 2.832611083984375, -0.85,27.6) ">
<use xlink:href="#IT_640x480_psd_Asset_3_ManagedWiFi_IT_Research_DM10_2_If_you_re_considering_changing__your_businesses_networking_solu_0_Layer0_0_MEMBER_20_FILL"/>
</g>

<g transform="matrix( 2.815704345703125, 0, 0, 2.832611083984375, -0.85,27.6) ">
<use xlink:href="#IT_640x480_psd_Asset_3_ManagedWiFi_IT_Research_DM10_2_If_you_re_considering_changing__your_businesses_networking_solu_0_Layer0_0_MEMBER_21_FILL"/>
</g>

<g transform="matrix( 2.815704345703125, 0, 0, 2.832611083984375, -0.85,27.6) ">
<use xlink:href="#IT_640x480_psd_Asset_3_ManagedWiFi_IT_Research_DM10_2_If_you_re_considering_changing__your_businesses_networking_solu_0_Layer0_0_MEMBER_22_FILL"/>
</g>

<g transform="matrix( 2.815704345703125, 0, 0, 2.832611083984375, -0.85,27.6) ">
<use xlink:href="#IT_640x480_psd_Asset_3_ManagedWiFi_IT_Research_DM10_2_If_you_re_considering_changing__your_businesses_networking_solu_0_Layer0_0_MEMBER_23_FILL"/>
</g>

<g transform="matrix( 2.815704345703125, 0, 0, 2.832611083984375, -0.85,27.6) ">
<use xlink:href="#IT_640x480_psd_Asset_3_ManagedWiFi_IT_Research_DM10_2_If_you_re_considering_changing__your_businesses_networking_solu_0_Layer0_0_MEMBER_24_FILL"/>
</g>

<g transform="matrix( 2.815704345703125, 0, 0, 2.832611083984375, -0.85,27.6) ">
<use xlink:href="#IT_640x480_psd_Asset_3_ManagedWiFi_IT_Research_DM10_2_If_you_re_considering_changing__your_businesses_networking_solu_0_Layer0_0_MEMBER_25_FILL"/>
</g>

<g transform="matrix( 2.815704345703125, 0, 0, 2.832611083984375, -0.85,27.6) ">
<use xlink:href="#IT_640x480_psd_Asset_3_ManagedWiFi_IT_Research_DM10_2_If_you_re_considering_changing__your_businesses_networking_solu_0_Layer0_0_MEMBER_26_FILL"/>
</g>

<g transform="matrix( 2.815704345703125, 0, 0, 2.832611083984375, -0.85,27.6) ">
<use xlink:href="#IT_640x480_psd_Asset_3_ManagedWiFi_IT_Research_DM10_2_If_you_re_considering_changing__your_businesses_networking_solu_0_Layer0_0_MEMBER_27_FILL"/>
</g>

<g transform="matrix( 2.815704345703125, 0, 0, 2.832611083984375, -0.85,27.6) ">
<use xlink:href="#IT_640x480_psd_Asset_3_ManagedWiFi_IT_Research_DM10_2_If_you_re_considering_changing__your_businesses_networking_solu_0_Layer0_0_MEMBER_28_FILL"/>
</g>

<g transform="matrix( 2.815704345703125, 0, 0, 2.832611083984375, -0.85,27.6) ">
<use xlink:href="#IT_640x480_psd_Asset_3_ManagedWiFi_IT_Research_DM10_2_If_you_re_considering_changing__your_businesses_networking_solu_0_Layer0_0_MEMBER_29_FILL"/>
</g>

<g transform="matrix( 2.815704345703125, 0, 0, 2.832611083984375, -0.85,27.6) ">
<use xlink:href="#IT_640x480_psd_Asset_3_ManagedWiFi_IT_Research_DM10_2_If_you_re_considering_changing__your_businesses_networking_solu_0_Layer0_0_MEMBER_30_FILL"/>
</g>

<g transform="matrix( 2.815704345703125, 0, 0, 2.832611083984375, -0.85,27.6) ">
<use xlink:href="#IT_640x480_psd_Asset_3_ManagedWiFi_IT_Research_DM10_2_If_you_re_considering_changing__your_businesses_networking_solu_0_Layer0_0_MEMBER_31_FILL"/>
</g>

<g transform="matrix( 2.815704345703125, 0, 0, 2.832611083984375, -0.85,27.6) ">
<use xlink:href="#IT_640x480_psd_Asset_3_ManagedWiFi_IT_Research_DM10_2_If_you_re_considering_changing__your_businesses_networking_solu_0_Layer0_0_MEMBER_32_FILL"/>
</g>

<g transform="matrix( 2.815704345703125, 0, 0, 2.832611083984375, -0.85,27.6) ">
<use xlink:href="#IT_640x480_psd_Asset_3_ManagedWiFi_IT_Research_DM10_2_If_you_re_considering_changing__your_businesses_networking_solu_0_Layer0_0_MEMBER_33_FILL"/>
</g>

<g transform="matrix( 2.815704345703125, 0, 0, 2.832611083984375, -0.85,27.6) ">
<use xlink:href="#IT_640x480_psd_Asset_3_ManagedWiFi_IT_Research_DM10_2_If_you_re_considering_changing__your_businesses_networking_solu_0_Layer0_0_MEMBER_34_FILL"/>
</g>

<g transform="matrix( 2.815704345703125, 0, 0, 2.832611083984375, -0.85,27.6) ">
<use xlink:href="#IT_640x480_psd_Asset_3_ManagedWiFi_IT_Research_DM10_2_If_you_re_considering_changing__your_businesses_networking_solu_0_Layer0_0_MEMBER_35_FILL"/>
</g>

<g transform="matrix( 2.815704345703125, 0, 0, 2.832611083984375, -0.85,27.6) ">
<use xlink:href="#IT_640x480_psd_Asset_3_ManagedWiFi_IT_Research_DM10_2_If_you_re_considering_changing__your_businesses_networking_solu_0_Layer0_0_MEMBER_36_FILL"/>
</g>

<g transform="matrix( 2.815704345703125, 0, 0, 2.832611083984375, -0.85,27.6) ">
<use xlink:href="#IT_640x480_psd_Asset_3_ManagedWiFi_IT_Research_DM10_2_If_you_re_considering_changing__your_businesses_networking_solu_0_Layer0_0_MEMBER_37_FILL"/>
</g>

<g transform="matrix( 2.815704345703125, 0, 0, 2.832611083984375, -0.85,27.6) ">
<use xlink:href="#IT_640x480_psd_Asset_3_ManagedWiFi_IT_Research_DM10_2_If_you_re_considering_changing__your_businesses_networking_solu_0_Layer0_0_MEMBER_38_FILL"/>
</g>

<g transform="matrix( 2.815704345703125, 0, 0, 2.832611083984375, -0.85,27.6) ">
<use xlink:href="#IT_640x480_psd_Asset_3_ManagedWiFi_IT_Research_DM10_2_If_you_re_considering_changing__your_businesses_networking_solu_0_Layer0_0_MEMBER_39_FILL"/>
</g>

<g transform="matrix( 2.815704345703125, 0, 0, 2.832611083984375, -0.85,27.6) ">
<use xlink:href="#IT_640x480_psd_Asset_3_ManagedWiFi_IT_Research_DM10_2_If_you_re_considering_changing__your_businesses_networking_solu_0_Layer0_0_MEMBER_40_FILL"/>
</g>

<g transform="matrix( 2.815704345703125, 0, 0, 2.832611083984375, -0.85,27.6) ">
<use xlink:href="#IT_640x480_psd_Asset_3_ManagedWiFi_IT_Research_DM10_2_If_you_re_considering_changing__your_businesses_networking_solu_0_Layer0_0_MEMBER_41_FILL"/>
</g>

<g transform="matrix( 2.815704345703125, 0, 0, 2.832611083984375, -0.85,27.6) ">
<use xlink:href="#IT_640x480_psd_Asset_3_ManagedWiFi_IT_Research_DM10_2_If_you_re_considering_changing__your_businesses_networking_solu_0_Layer0_0_MEMBER_42_FILL"/>
</g>

<g transform="matrix( 2.815704345703125, 0, 0, 2.832611083984375, -0.85,27.6) ">
<use xlink:href="#IT_640x480_psd_Asset_3_ManagedWiFi_IT_Research_DM10_2_If_you_re_considering_changing__your_businesses_networking_solu_0_Layer0_0_MEMBER_43_FILL"/>
</g>

<g transform="matrix( 2.815704345703125, 0, 0, 2.832611083984375, -0.85,27.6) ">
<use xlink:href="#IT_640x480_psd_Asset_3_ManagedWiFi_IT_Research_DM10_2_If_you_re_considering_changing__your_businesses_networking_solu_0_Layer0_0_MEMBER_44_FILL"/>
</g>

<g transform="matrix( 2.815704345703125, 0, 0, 2.832611083984375, -0.85,27.6) ">
<use xlink:href="#IT_640x480_psd_Asset_3_ManagedWiFi_IT_Research_DM10_2_If_you_re_considering_changing__your_businesses_networking_solu_0_Layer0_0_MEMBER_45_FILL"/>
</g>

<g transform="matrix( 2.815704345703125, 0, 0, 2.832611083984375, -0.85,27.6) ">
<use xlink:href="#IT_640x480_psd_Asset_3_ManagedWiFi_IT_Research_DM10_2_If_you_re_considering_changing__your_businesses_networking_solu_0_Layer0_0_MEMBER_46_FILL"/>
</g>

<g transform="matrix( 2.815704345703125, 0, 0, 2.832611083984375, -0.85,27.6) ">
<use xlink:href="#IT_640x480_psd_Asset_3_ManagedWiFi_IT_Research_DM10_2_If_you_re_considering_changing__your_businesses_networking_solu_0_Layer0_0_MEMBER_47_FILL"/>
</g>

<g transform="matrix( 2.815704345703125, 0, 0, 2.832611083984375, -0.85,27.6) ">
<use xlink:href="#IT_640x480_psd_Asset_3_ManagedWiFi_IT_Research_DM10_2_If_you_re_considering_changing__your_businesses_networking_solu_0_Layer0_0_MEMBER_48_FILL"/>
</g>

<g transform="matrix( 2.815704345703125, 0, 0, 2.832611083984375, -0.85,27.6) ">
<use xlink:href="#IT_640x480_psd_Asset_3_ManagedWiFi_IT_Research_DM10_2_If_you_re_considering_changing__your_businesses_networking_solu_0_Layer0_0_MEMBER_49_FILL"/>
</g>

<g transform="matrix( 2.815704345703125, 0, 0, 2.832611083984375, -0.85,27.6) ">
<use xlink:href="#IT_640x480_psd_Asset_3_ManagedWiFi_IT_Research_DM10_2_If_you_re_considering_changing__your_businesses_networking_solu_0_Layer0_0_MEMBER_50_FILL"/>
</g>

<g transform="matrix( 2.815704345703125, 0, 0, 2.832611083984375, -0.85,27.6) ">
<use xlink:href="#IT_640x480_psd_Asset_3_ManagedWiFi_IT_Research_DM10_2_If_you_re_considering_changing__your_businesses_networking_solu_0_Layer0_0_MEMBER_51_FILL"/>
</g>

<g transform="matrix( 2.815704345703125, 0, 0, 2.832611083984375, -0.85,27.6) ">
<use xlink:href="#IT_640x480_psd_Asset_3_ManagedWiFi_IT_Research_DM10_2_If_you_re_considering_changing__your_businesses_networking_solu_0_Layer0_0_MEMBER_52_FILL"/>
</g>

<g transform="matrix( 2.815704345703125, 0, 0, 2.832611083984375, -0.85,27.6) ">
<use xlink:href="#IT_640x480_psd_Asset_3_ManagedWiFi_IT_Research_DM10_2_If_you_re_considering_changing__your_businesses_networking_solu_0_Layer0_0_MEMBER_53_FILL"/>
</g>

<g transform="matrix( 2.815704345703125, 0, 0, 2.832611083984375, -0.85,27.6) ">
<use xlink:href="#IT_640x480_psd_Asset_3_ManagedWiFi_IT_Research_DM10_2_If_you_re_considering_changing__your_businesses_networking_solu_0_Layer0_0_MEMBER_54_FILL"/>
</g>

<g transform="matrix( 2.815704345703125, 0, 0, 2.832611083984375, -0.85,27.6) ">
<use xlink:href="#IT_640x480_psd_Asset_3_ManagedWiFi_IT_Research_DM10_2_If_you_re_considering_changing__your_businesses_networking_solu_0_Layer0_0_MEMBER_55_FILL"/>
</g>

<g transform="matrix( 2.815704345703125, 0, 0, 2.832611083984375, -0.85,27.6) ">
<use xlink:href="#IT_640x480_psd_Asset_3_ManagedWiFi_IT_Research_DM10_2_If_you_re_considering_changing__your_businesses_networking_solu_0_Layer0_0_MEMBER_56_FILL"/>
</g>

<g transform="matrix( 2.815704345703125, 0, 0, 2.832611083984375, -0.85,27.6) ">
<use xlink:href="#IT_640x480_psd_Asset_3_ManagedWiFi_IT_Research_DM10_2_If_you_re_considering_changing__your_businesses_networking_solu_0_Layer0_0_MEMBER_57_FILL"/>
</g>

<g transform="matrix( 2.815704345703125, 0, 0, 2.832611083984375, -0.85,27.6) ">
<use xlink:href="#IT_640x480_psd_Asset_3_ManagedWiFi_IT_Research_DM10_2_If_you_re_considering_changing__your_businesses_networking_solu_0_Layer0_0_MEMBER_58_FILL"/>
</g>

<g transform="matrix( 2.815704345703125, 0, 0, 2.832611083984375, -0.85,27.6) ">
<use xlink:href="#IT_640x480_psd_Asset_3_ManagedWiFi_IT_Research_DM10_2_If_you_re_considering_changing__your_businesses_networking_solu_0_Layer0_0_MEMBER_59_FILL"/>
</g>
</g>
</g>
</g>
</svg>
