
<svg xmlns="http://www.w3.org/2000/svg" version="1.1" xmlns:xlink="http://www.w3.org/1999/xlink" preserveAspectRatio="none" x="0px" y="0px" width="728px" height="90px" viewBox="0 0 728 90">
<defs>
<g id="IT_728x90_psd_Asset_6_ManagedWiFi_IT_Awareness_DM7_4_Learn_more_about_the__solutions_that_are_available__0_Layer0_0_MEMBER_0_FILL">
<path fill="#D82C26" stroke="none" d="
M 1.5 -6.6
L 0.9 -6.6 0.9 0 4.35 0 4.45 -0.5 1.5 -0.5 1.5 -6.6 Z"/>
</g>

<g id="IT_728x90_psd_Asset_6_ManagedWiFi_IT_Awareness_DM7_4_Learn_more_about_the__solutions_that_are_available__0_Layer0_0_MEMBER_1_FILL">
<path fill="#D82C26" stroke="none" d="
M 9.2 -3.45
Q 8.95 -3.95 8.5 -4.25 7.9 -4.5 7.35 -4.5 6.8 -4.5 6.25 -4.2 5.8 -4 5.45 -3.4 5.2 -2.8 5.2 -2.2 5.2 -1.6 5.45 -1 5.75 -0.5 6.25 -0.15 6.8 0.15 7.45 0.15 8.4 0.15 9.2 -0.4
L 9.1 -0.9
Q 8.75 -0.65 8.35 -0.5 8 -0.3 7.5 -0.3 7.05 -0.3 6.55 -0.55 6.2 -0.75 5.95 -1.2 5.7 -1.7 5.7 -2.1
L 9.45 -2.1 9.45 -2.35
Q 9.45 -2.85 9.2 -3.45
M 6.5 -3.85
Q 6.9 -4.1 7.35 -4.1 8.05 -4.1 8.5 -3.65 8.9 -3.15 8.9 -2.5
L 5.75 -2.5
Q 5.75 -2.9 5.95 -3.25 6.1 -3.5 6.5 -3.85 Z"/>
</g>

<g id="IT_728x90_psd_Asset_6_ManagedWiFi_IT_Awareness_DM7_4_Learn_more_about_the__solutions_that_are_available__0_Layer0_0_MEMBER_2_FILL">
<path fill="#D82C26" stroke="none" d="
M 11.45 -3.9
Q 11.8 -4.1 12.2 -4.1 12.8 -4.1 13.1 -3.75 13.45 -3.45 13.45 -2.9
L 13.45 -2.65 12.9 -2.65
Q 10.4 -2.65 10.4 -1.2 10.4 -0.5 10.8 -0.2 11.25 0.1 11.8 0.1 12.45 0.1 12.8 -0.15 13.2 -0.35 13.45 -0.85
L 13.55 0 14.05 0 13.95 -0.95 13.95 -2.85
Q 13.95 -3.65 13.5 -4.1 13.15 -4.5 12.3 -4.5 11.85 -4.5 11.4 -4.35 11 -4.3 10.65 -3.95
L 10.8 -3.55 11.45 -3.9
M 11.2 -0.5
Q 10.95 -0.75 10.95 -1.2 10.95 -2.25 13 -2.25
L 13.45 -2.25 13.45 -1.8 13.3 -1.1
Q 13.05 -0.7 12.75 -0.5 12.5 -0.3 11.9 -0.3 11.45 -0.3 11.2 -0.5 Z"/>
</g>

<g id="IT_728x90_psd_Asset_6_ManagedWiFi_IT_Awareness_DM7_4_Learn_more_about_the__solutions_that_are_available__0_Layer0_0_MEMBER_3_FILL">
<path fill="#D82C26" stroke="none" d="
M 17.75 -3.95
L 17.85 -4.45 17.4 -4.5
Q 17.05 -4.5 16.65 -4.2 16.4 -4.05 16.1 -3.45
L 16.05 -4.4 15.55 -4.4 15.6 0 16.15 0 16.15 -2.2
Q 16.15 -2.95 16.45 -3.5 16.8 -4 17.35 -4
L 17.75 -3.95 Z"/>
</g>

<g id="IT_728x90_psd_Asset_6_ManagedWiFi_IT_Awareness_DM7_4_Learn_more_about_the__solutions_that_are_available__0_Layer0_0_MEMBER_4_FILL">
<path fill="#D82C26" stroke="none" d="
M 19.35 -4.4
L 18.85 -4.4 18.9 0 19.45 0 19.45 -2.25
Q 19.45 -2.85 19.65 -3.2 19.75 -3.55 20.15 -3.85 20.5 -4.05 20.9 -4.05 21.6 -4.05 21.8 -3.6 22.1 -3.2 22.1 -2.55
L 22.1 0 22.65 0 22.65 -2.7
Q 22.65 -3.45 22.25 -4 21.9 -4.5 21 -4.5 20.5 -4.5 20.05 -4.2 19.6 -3.9 19.45 -3.45
L 19.4 -3.45 19.35 -4.4 Z"/>
</g>

<g id="IT_728x90_psd_Asset_6_ManagedWiFi_IT_Awareness_DM7_4_Learn_more_about_the__solutions_that_are_available__0_Layer0_0_MEMBER_5_FILL">
<path fill="#D82C26" stroke="none" d="
M 29.45 -4.2
Q 29.1 -4.5 28.55 -4.5 28.05 -4.5 27.65 -4.2 27.25 -4 27.05 -3.45
L 27 -3.45 26.95 -4.4 26.45 -4.4 26.5 0 27.05 0 27.05 -2.2
Q 27.05 -2.8 27.25 -3.2 27.45 -3.65 27.7 -3.85 28.05 -4.05 28.4 -4.05 28.95 -4.05 29.25 -3.65 29.5 -3.35 29.5 -2.6
L 29.5 0 30.05 0 30.05 -2.25
Q 30.05 -3 30.45 -3.55 30.8 -4.05 31.45 -4.05 32.05 -4.05 32.35 -3.6 32.6 -3.1 32.6 -2.5
L 32.6 0 33.15 0 33.15 -2.65
Q 33.15 -3.45 32.75 -4 32.4 -4.5 31.55 -4.5 31.05 -4.5 30.6 -4.2 30.1 -3.8 30 -3.4 29.75 -3.95 29.45 -4.2 Z"/>
</g>

<g id="IT_728x90_psd_Asset_6_ManagedWiFi_IT_Awareness_DM7_4_Learn_more_about_the__solutions_that_are_available__0_Layer0_0_MEMBER_6_FILL">
<path fill="#D82C26" stroke="none" d="
M 34.75 -3.4
Q 34.45 -2.85 34.45 -2.2 34.45 -1.5 34.75 -1 35.05 -0.45 35.6 -0.15 36.15 0.15 36.8 0.15 37.5 0.15 38 -0.15 38.55 -0.45 38.85 -1 39.15 -1.5 39.15 -2.2 39.15 -2.85 38.85 -3.4 38.5 -4 38 -4.2 37.5 -4.5 36.8 -4.5 36.15 -4.5 35.6 -4.2 35.1 -4 34.75 -3.4
M 35 -2.2
Q 35 -2.65 35.25 -3.15 35.5 -3.6 35.85 -3.8 36.35 -4.05 36.8 -4.05 37.25 -4.05 37.75 -3.8 38.1 -3.6 38.35 -3.15 38.6 -2.65 38.6 -2.2 38.6 -1.75 38.35 -1.25 38.1 -0.8 37.75 -0.6 37.45 -0.35 36.8 -0.35 36.25 -0.35 35.85 -0.6 35.5 -0.8 35.25 -1.25 35 -1.75 35 -2.2 Z"/>
</g>

<g id="IT_728x90_psd_Asset_6_ManagedWiFi_IT_Awareness_DM7_4_Learn_more_about_the__solutions_that_are_available__0_Layer0_0_MEMBER_7_FILL">
<path fill="#D82C26" stroke="none" d="
M 41 -3.45
L 40.95 -4.4 40.45 -4.4 40.5 0 41.05 0 41.05 -2.2
Q 41.05 -2.95 41.35 -3.5 41.7 -4 42.25 -4
L 42.65 -3.95 42.8 -4.45 42.3 -4.5
Q 41.95 -4.5 41.55 -4.2 41.25 -4 41.05 -3.45
L 41 -3.45 Z"/>
</g>

<g id="IT_728x90_psd_Asset_6_ManagedWiFi_IT_Awareness_DM7_4_Learn_more_about_the__solutions_that_are_available__0_Layer0_0_MEMBER_8_FILL">
<path fill="#D82C26" stroke="none" d="
M 45.45 -4.5
Q 44.8 -4.5 44.35 -4.2 43.9 -4 43.55 -3.4 43.25 -2.85 43.25 -2.2 43.25 -1.5 43.55 -1 43.9 -0.4 44.35 -0.15 44.9 0.15 45.5 0.15 46.45 0.15 47.25 -0.4
L 47.15 -0.9
Q 46.75 -0.6 46.45 -0.5 46.05 -0.3 45.55 -0.3 45.05 -0.3 44.65 -0.55 44.3 -0.75 44.05 -1.2 43.8 -1.7 43.8 -2.1
L 47.5 -2.1 47.5 -2.35
Q 47.5 -3 47.3 -3.45 46.9 -4.05 46.55 -4.25 46.05 -4.5 45.45 -4.5
M 44.55 -3.85
Q 44.95 -4.1 45.45 -4.1 46.2 -4.1 46.55 -3.65 47 -3.2 47 -2.5
L 43.8 -2.5
Q 43.8 -2.75 44 -3.25
L 44.55 -3.85 Z"/>
</g>

<g id="IT_728x90_psd_Asset_6_ManagedWiFi_IT_Awareness_DM7_4_Learn_more_about_the__solutions_that_are_available__0_Layer0_0_MEMBER_9_FILL">
<path fill="#D82C26" stroke="none" d="
M 51.8 -3.9
Q 52.15 -4.1 52.55 -4.1 53.15 -4.1 53.45 -3.75 53.8 -3.4 53.8 -2.9
L 53.8 -2.65 53.25 -2.65
Q 50.75 -2.65 50.75 -1.2 50.75 -0.5 51.15 -0.2 51.6 0.1 52.15 0.1 52.75 0.1 53.1 -0.15 53.6 -0.4 53.75 -0.85
L 53.8 -0.85 53.8 -0.4 53.85 0 54.35 0 54.3 -2.85
Q 54.3 -3.65 53.85 -4.1 53.45 -4.5 52.6 -4.5 52.15 -4.5 51.7 -4.35 51.35 -4.25 51 -3.95
L 51.15 -3.55
Q 51.3 -3.7 51.8 -3.9
M 53.1 -0.5
Q 52.75 -0.3 52.25 -0.3 51.8 -0.3 51.55 -0.5 51.25 -0.7 51.25 -1.2 51.25 -2.25 53.3 -2.25
L 53.8 -2.25 53.8 -1.8
Q 53.8 -1.6 53.6 -1.1 53.45 -0.8 53.1 -0.5 Z"/>
</g>

<g id="IT_728x90_psd_Asset_6_ManagedWiFi_IT_Awareness_DM7_4_Learn_more_about_the__solutions_that_are_available__0_Layer0_0_MEMBER_10_FILL">
<path fill="#D82C26" stroke="none" d="
M 56.45 -7.2
L 55.9 -7.05 55.85 0 56.35 0 56.45 -0.95
Q 56.65 -0.45 57.2 -0.15 57.6 0.1 58.25 0.1 58.9 0.1 59.4 -0.2 59.95 -0.6 60.15 -1 60.45 -1.5 60.45 -2.2 60.45 -2.8 60.15 -3.35 59.95 -3.85 59.4 -4.2 58.9 -4.5 58.25 -4.5 57.8 -4.5 57.2 -4.25 56.75 -3.95 56.45 -3.45
L 56.45 -7.2
M 59.1 -3.8
Q 59.45 -3.6 59.7 -3.1 59.9 -2.75 59.9 -2.2 59.9 -1.65 59.7 -1.25 59.45 -0.8 59.1 -0.6 58.75 -0.35 58.15 -0.35 57.6 -0.35 57.3 -0.6 56.95 -0.8 56.65 -1.25 56.45 -1.65 56.45 -2.2 56.45 -2.75 56.65 -3.1 56.9 -3.6 57.3 -3.8 57.7 -4.05 58.15 -4.05 58.6 -4.05 59.1 -3.8 Z"/>
</g>

<g id="IT_728x90_psd_Asset_6_ManagedWiFi_IT_Awareness_DM7_4_Learn_more_about_the__solutions_that_are_available__0_Layer0_0_MEMBER_11_FILL">
<path fill="#D82C26" stroke="none" d="
M 65.05 -4.2
Q 64.55 -4.5 63.85 -4.5 63.2 -4.5 62.65 -4.2 62.15 -4 61.8 -3.4 61.5 -2.85 61.5 -2.2 61.5 -1.5 61.8 -1 62.1 -0.45 62.65 -0.15 63.2 0.15 63.85 0.15 64.55 0.15 65.05 -0.15 65.45 -0.4 65.9 -1 66.2 -1.5 66.2 -2.2 66.2 -2.85 65.9 -3.4 65.45 -4.05 65.05 -4.2
M 64.8 -3.8
Q 65.15 -3.6 65.4 -3.15 65.65 -2.65 65.65 -2.2 65.65 -1.75 65.4 -1.25 65.15 -0.8 64.8 -0.6 64.45 -0.35 63.85 -0.35 63.2 -0.35 62.9 -0.6 62.45 -0.85 62.3 -1.25 62.05 -1.75 62.05 -2.2 62.05 -2.65 62.3 -3.15 62.45 -3.55 62.9 -3.8 63.3 -4.05 63.85 -4.05 64.3 -4.05 64.8 -3.8 Z"/>
</g>

<g id="IT_728x90_psd_Asset_6_ManagedWiFi_IT_Awareness_DM7_4_Learn_more_about_the__solutions_that_are_available__0_Layer0_0_MEMBER_12_FILL">
<path fill="#D82C26" stroke="none" d="
M 68.05 -4.4
L 67.5 -4.4 67.5 -1.7
Q 67.5 -0.85 67.9 -0.4 68.25 0.1 69.1 0.1 69.55 0.1 70.05 -0.15 70.5 -0.45 70.7 -0.95
L 70.75 0 71.3 0 71.25 -4.4 70.7 -4.4 70.7 -2.2
Q 70.7 -1.8 70.5 -1.2 70.25 -0.75 69.95 -0.55 69.7 -0.35 69.25 -0.35 68.55 -0.35 68.3 -0.75 68.05 -1.25 68.05 -1.85
L 68.05 -4.4 Z"/>
</g>

<g id="IT_728x90_psd_Asset_6_ManagedWiFi_IT_Awareness_DM7_4_Learn_more_about_the__solutions_that_are_available__0_Layer0_0_MEMBER_13_FILL">
<path fill="#D82C26" stroke="none" d="
M 73.65 -4.4
L 73.65 -5.65 73.1 -5.45 73.1 -4.4 72.4 -4.4 72.3 -3.95 73.1 -3.95 73.1 -1.05
Q 73.1 -0.5 73.4 -0.2 73.65 0.1 74.15 0.1
L 74.6 0.05
Q 74.95 -0.05 75.05 -0.15
L 75 -0.55
Q 74.65 -0.35 74.3 -0.35 74 -0.35 73.8 -0.55 73.65 -0.7 73.65 -1.15
L 73.65 -3.95 74.8 -3.95 74.9 -4.4 73.65 -4.4 Z"/>
</g>

<g id="IT_728x90_psd_Asset_6_ManagedWiFi_IT_Awareness_DM7_4_Learn_more_about_the__solutions_that_are_available__0_Layer0_0_MEMBER_14_FILL">
<path fill="#D82C26" stroke="none" d="
M 78.8 -4.4
L 78.8 -5.65 78.25 -5.45 78.25 -4.4 77.55 -4.4 77.45 -3.95 78.25 -3.95 78.25 -1.05
Q 78.25 -0.5 78.55 -0.2 78.85 0.1 79.3 0.1
L 79.8 0.05 80.25 -0.15 80.15 -0.55
Q 79.8 -0.35 79.45 -0.35 79.15 -0.35 79 -0.55 78.8 -0.7 78.8 -1.15
L 78.8 -3.95 79.95 -3.95 80.05 -4.4 78.8 -4.4 Z"/>
</g>

<g id="IT_728x90_psd_Asset_6_ManagedWiFi_IT_Awareness_DM7_4_Learn_more_about_the__solutions_that_are_available__0_Layer0_0_MEMBER_15_FILL">
<path fill="#D82C26" stroke="none" d="
M 81.8 -7.15
L 81.25 -7.05 81.25 0 81.8 0 81.8 -2.15
Q 81.8 -2.65 82 -3.15 82.25 -3.7 82.55 -3.85 82.8 -4.05 83.25 -4.05 83.9 -4.05 84.2 -3.6 84.45 -3.3 84.45 -2.55
L 84.45 0 85 0 85 -2.7
Q 85 -3.5 84.65 -4 84.2 -4.5 83.4 -4.5 82.9 -4.5 82.45 -4.2 82 -3.95 81.85 -3.45
L 81.8 -3.45 81.8 -7.15 Z"/>
</g>

<g id="IT_728x90_psd_Asset_6_ManagedWiFi_IT_Awareness_DM7_4_Learn_more_about_the__solutions_that_are_available__0_Layer0_0_MEMBER_16_FILL">
<path fill="#D82C26" stroke="none" d="
M 90.35 -3.45
Q 90.1 -3.95 89.65 -4.25 89.15 -4.5 88.5 -4.5 87.95 -4.5 87.4 -4.2 86.9 -3.95 86.65 -3.4 86.35 -2.85 86.35 -2.2 86.35 -1.5 86.65 -1 87 -0.4 87.45 -0.15 88 0.15 88.6 0.15 89.55 0.15 90.35 -0.4
L 90.25 -0.9 89.55 -0.5
Q 89.15 -0.3 88.65 -0.3 88.15 -0.3 87.75 -0.55 87.4 -0.75 87.1 -1.2 86.9 -1.6 86.9 -2.1
L 90.6 -2.1 90.6 -2.35
Q 90.6 -2.85 90.35 -3.45
M 87.65 -3.85
Q 88.05 -4.1 88.5 -4.1 89.2 -4.1 89.65 -3.65 90.05 -3.2 90.1 -2.5
L 86.9 -2.5
Q 86.9 -2.9 87.1 -3.25 87.4 -3.65 87.65 -3.85 Z"/>
</g>

<g id="IT_728x90_psd_Asset_6_ManagedWiFi_IT_Awareness_DM7_4_Learn_more_about_the__solutions_that_are_available__0_Layer0_0_MEMBER_17_FILL">
<path fill="#D82C26" stroke="none" d="
M 2.05 5.95
Q 1.65 5.95 1.35 6.1 0.95 6.3 0.8 6.5 0.6 6.75 0.6 7.15 0.6 7.65 0.9 7.95 1.15 8.15 1.85 8.4
L 2.75 8.8
Q 3.05 9.05 3.05 9.35 3.05 9.75 2.75 9.95 2.5 10.15 2.05 10.15 1.15 10.15 0.6 9.65
L 0.5 10.1 1.2 10.45
Q 1.6 10.6 2.1 10.6 2.5 10.6 2.8 10.45 3.1 10.35 3.35 10 3.55 9.8 3.55 9.35 3.55 8.85 3.25 8.55 3 8.3 2.25 8.05
L 1.35 7.65
Q 1.1 7.5 1.1 7.15 1.1 6.75 1.4 6.6 1.6 6.4 2.05 6.4
L 2.7 6.5 3.2 6.85 3.45 6.45
Q 3.25 6.25 2.85 6.1 2.5 5.95 2.05 5.95 Z"/>
</g>

<g id="IT_728x90_psd_Asset_6_ManagedWiFi_IT_Awareness_DM7_4_Learn_more_about_the__solutions_that_are_available__0_Layer0_0_MEMBER_18_FILL">
<path fill="#D82C26" stroke="none" d="
M 4.6 8.3
Q 4.6 8.9 4.9 9.5 5.2 10 5.7 10.3 6.25 10.6 6.9 10.6 7.6 10.6 8.1 10.3 8.7 9.95 8.95 9.5 9.25 8.9 9.25 8.3 9.25 7.65 8.95 7.1 8.7 6.6 8.1 6.25 7.6 5.95 6.9 5.95 6.25 5.95 5.7 6.25 5.2 6.55 4.9 7.1 4.6 7.65 4.6 8.3
M 8.7 8.3
Q 8.7 8.7 8.5 9.2 8.3 9.6 7.85 9.9 7.45 10.15 6.9 10.15 6.45 10.15 5.95 9.9 5.55 9.55 5.35 9.2 5.15 8.85 5.15 8.3 5.15 7.7 5.35 7.35 5.55 7 5.95 6.65 6.35 6.45 6.9 6.45 7.45 6.45 7.85 6.65 8.35 7.05 8.45 7.35 8.7 7.75 8.7 8.3 Z"/>
</g>

<g id="IT_728x90_psd_Asset_6_ManagedWiFi_IT_Awareness_DM7_4_Learn_more_about_the__solutions_that_are_available__0_Layer0_0_MEMBER_19_FILL">
<path fill="#D82C26" stroke="none" d="
M 10.8 10.2
Q 11 10.45 11.3 10.6
L 11.55 10.1
Q 11.35 10.05 11.25 9.85
L 11.15 9.4 11.15 3.35 10.6 3.45 10.6 9.5
Q 10.6 9.95 10.8 10.2 Z"/>
</g>

<g id="IT_728x90_psd_Asset_6_ManagedWiFi_IT_Awareness_DM7_4_Learn_more_about_the__solutions_that_are_available__0_Layer0_0_MEMBER_20_FILL">
<path fill="#D82C26" stroke="none" d="
M 16.5 6.1
L 15.95 6.1 15.95 8.3
Q 15.95 8.85 15.8 9.3 15.5 9.8 15.25 9.95 15 10.15 14.5 10.15 13.85 10.15 13.6 9.7 13.35 9.4 13.35 8.65
L 13.35 6.1 12.75 6.1 12.75 8.75
Q 12.75 9.55 13.15 10.1 13.55 10.6 14.35 10.6 14.9 10.6 15.35 10.3 15.8 10 15.95 9.55
L 16.05 10.5 16.6 10.5 16.5 9.45 16.5 6.1 Z"/>
</g>

<g id="IT_728x90_psd_Asset_6_ManagedWiFi_IT_Awareness_DM7_4_Learn_more_about_the__solutions_that_are_available__0_Layer0_0_MEMBER_21_FILL">
<path fill="#D82C26" stroke="none" d="
M 20.35 10.35
L 20.3 9.95 19.6 10.1
Q 19.35 10.1 19.1 9.95 18.95 9.75 18.95 9.35
L 18.95 6.55 20.05 6.55 20.2 6.1 18.95 6.1 18.95 4.85 18.4 5.05 18.4 6.1 17.7 6.1 17.55 6.55 18.4 6.55 18.4 9.4
Q 18.4 9.9 18.65 10.25 18.95 10.55 19.4 10.55
L 19.9 10.5 20.35 10.35 Z"/>
</g>

<g id="IT_728x90_psd_Asset_6_ManagedWiFi_IT_Awareness_DM7_4_Learn_more_about_the__solutions_that_are_available__0_Layer0_0_MEMBER_22_FILL">
<path fill="#D82C26" stroke="none" d="
M 21.95 6.1
L 21.4 6.1 21.4 10.5 21.95 10.5 21.95 6.1
M 22.05 4.35
L 21.95 4.05 21.65 3.95 21.4 4.05 21.25 4.35 21.4 4.65 21.65 4.75 21.95 4.65 22.05 4.35 Z"/>
</g>

<g id="IT_728x90_psd_Asset_6_ManagedWiFi_IT_Awareness_DM7_4_Learn_more_about_the__solutions_that_are_available__0_Layer0_0_MEMBER_23_FILL">
<path fill="#D82C26" stroke="none" d="
M 23.6 9.5
Q 23.9 10 24.4 10.3 24.95 10.6 25.6 10.6 26.3 10.6 26.8 10.3 27.4 9.95 27.65 9.5 27.95 8.9 27.95 8.3 27.95 7.65 27.65 7.1 27.4 6.6 26.8 6.25 26.3 5.95 25.6 5.95 24.95 5.95 24.4 6.25 23.9 6.55 23.6 7.1 23.3 7.65 23.3 8.3 23.3 8.9 23.6 9.5
M 24.05 7.35
Q 24.25 7 24.65 6.65 25.05 6.45 25.6 6.45 26.2 6.45 26.55 6.65 27.05 7.05 27.2 7.35 27.4 7.85 27.4 8.3 27.4 8.85 27.2 9.2 27 9.6 26.55 9.9 26.15 10.15 25.6 10.15 25.15 10.15 24.65 9.9 24.25 9.55 24.05 9.2 23.85 8.85 23.85 8.3 23.85 7.7 24.05 7.35 Z"/>
</g>

<g id="IT_728x90_psd_Asset_6_ManagedWiFi_IT_Awareness_DM7_4_Learn_more_about_the__solutions_that_are_available__0_Layer0_0_MEMBER_24_FILL">
<path fill="#D82C26" stroke="none" d="
M 30.6 6.65
Q 30.85 6.45 31.3 6.45 32 6.45 32.25 6.85 32.5 7.35 32.5 7.95
L 32.5 10.5 33.05 10.5 33.05 7.8
Q 33.05 6.95 32.65 6.5 32.25 5.95 31.45 5.95 30.9 5.95 30.45 6.25 29.95 6.65 29.85 7.05
L 29.8 6.1 29.25 6.1 29.3 10.5 29.85 10.5 29.85 8.25
Q 29.85 7.65 30.05 7.25 30.3 6.85 30.6 6.65 Z"/>
</g>

<g id="IT_728x90_psd_Asset_6_ManagedWiFi_IT_Awareness_DM7_4_Learn_more_about_the__solutions_that_are_available__0_Layer0_0_MEMBER_25_FILL">
<path fill="#D82C26" stroke="none" d="
M 36.65 6.1
Q 36.3 5.95 35.85 5.95 35.55 5.95 35.15 6.1 34.75 6.3 34.6 6.5 34.4 6.75 34.4 7.15 34.4 7.65 34.7 7.95 34.95 8.15 35.65 8.4
L 36.55 8.8
Q 36.85 9.05 36.85 9.35 36.85 9.75 36.55 9.95 36.3 10.15 35.85 10.15 34.95 10.15 34.4 9.65
L 34.3 10.1 35 10.45
Q 35.4 10.6 35.9 10.6 36.3 10.6 36.6 10.45 37 10.3 37.15 10 37.4 9.75 37.4 9.35 37.4 8.9 37.05 8.55 36.8 8.3 36.05 8.05
L 35.15 7.65
Q 34.9 7.5 34.9 7.15 34.9 6.75 35.2 6.6 35.4 6.4 35.85 6.4
L 36.5 6.5 37 6.85 37.25 6.45
Q 37.05 6.25 36.65 6.1 Z"/>
</g>

<g id="IT_728x90_psd_Asset_6_ManagedWiFi_IT_Awareness_DM7_4_Learn_more_about_the__solutions_that_are_available__0_Layer0_0_MEMBER_26_FILL">
<path fill="#D82C26" stroke="none" d="
M 40.9 5.05
L 40.9 6.1 40.2 6.1 40.1 6.55 40.95 6.55 40.95 9.4
Q 40.95 10 41.2 10.25 41.5 10.55 41.95 10.55
L 42.45 10.5 42.9 10.35 42.8 9.95 42.1 10.1
Q 41.8 10.1 41.65 9.95 41.45 9.65 41.45 9.35
L 41.45 6.55 42.6 6.55 42.7 6.1 41.45 6.1 41.45 4.85 40.9 5.05 Z"/>
</g>

<g id="IT_728x90_psd_Asset_6_ManagedWiFi_IT_Awareness_DM7_4_Learn_more_about_the__solutions_that_are_available__0_Layer0_0_MEMBER_27_FILL">
<path fill="#D82C26" stroke="none" d="
M 44.5 3.35
L 43.95 3.4 43.95 10.5 44.5 10.5 44.5 8.35
Q 44.5 7.75 44.65 7.3 44.85 6.9 45.2 6.65 45.45 6.45 45.95 6.45 46.65 6.45 46.85 6.85 47.15 7.3 47.15 7.95
L 47.15 10.5 47.65 10.5 47.65 7.8
Q 47.65 7 47.3 6.5 46.9 5.95 46.05 5.95 45.55 5.95 45.1 6.25 44.65 6.55 44.5 7.05
L 44.5 3.35 Z"/>
</g>

<g id="IT_728x90_psd_Asset_6_ManagedWiFi_IT_Awareness_DM7_4_Learn_more_about_the__solutions_that_are_available__0_Layer0_0_MEMBER_28_FILL">
<path fill="#D82C26" stroke="none" d="
M 52 7.85
L 51.5 7.85
Q 48.95 7.85 48.95 9.3 48.95 9.95 49.4 10.25 49.75 10.6 50.35 10.6 50.85 10.6 51.35 10.35 51.75 10.15 52 9.65
L 52.05 9.65 52.05 10.1 52.1 10.5 52.6 10.5 52.5 9.5 52.5 7.65
Q 52.5 6.75 52.1 6.4 51.65 5.95 50.85 5.95 50.4 5.95 49.95 6.1 49.55 6.25 49.2 6.5
L 49.35 6.95 50 6.55 50.75 6.4
Q 51.35 6.4 51.7 6.7 52 7 52 7.6
L 52 7.85
M 52 8.2
L 52 8.65
Q 52 9.05 51.85 9.35 51.6 9.75 51.3 9.95 50.95 10.2 50.5 10.2 50.05 10.2 49.8 9.95 49.5 9.75 49.5 9.3 49.5 8.2 51.55 8.2
L 52 8.2 Z"/>
</g>

<g id="IT_728x90_psd_Asset_6_ManagedWiFi_IT_Awareness_DM7_4_Learn_more_about_the__solutions_that_are_available__0_Layer0_0_MEMBER_29_FILL">
<path fill="#D82C26" stroke="none" d="
M 54.25 6.1
L 53.55 6.1 53.4 6.55 54.25 6.55 54.25 9.4
Q 54.25 9.9 54.5 10.25 54.8 10.55 55.25 10.55
L 55.75 10.5 56.2 10.35 56.1 9.95 55.4 10.1
Q 55.1 10.1 54.95 9.95 54.8 9.75 54.8 9.35
L 54.8 6.55 55.9 6.55 56.05 6.1 54.8 6.1 54.8 4.85 54.25 5.05 54.25 6.1 Z"/>
</g>

<g id="IT_728x90_psd_Asset_6_ManagedWiFi_IT_Awareness_DM7_4_Learn_more_about_the__solutions_that_are_available__0_Layer0_0_MEMBER_30_FILL">
<path fill="#D82C26" stroke="none" d="
M 62.05 7.85
L 61.5 7.85
Q 59 7.85 59 9.3 59 9.95 59.4 10.25 59.8 10.6 60.4 10.6 60.9 10.6 61.4 10.35 61.8 10.15 62.05 9.65
L 62.15 10.5 62.65 10.5 62.55 9.5 62.55 7.65
Q 62.55 6.8 62.1 6.4 61.65 5.95 60.9 5.95 60.45 5.95 60 6.1 59.6 6.25 59.25 6.5
L 59.4 6.95 60.05 6.55 60.8 6.4
Q 61.4 6.4 61.7 6.7 62.05 7 62.05 7.6
L 62.05 7.85
M 62.05 8.2
L 62.05 8.65
Q 62.05 9.05 61.9 9.35 61.65 9.75 61.35 9.95 61 10.2 60.5 10.2 60.15 10.2 59.8 9.95 59.55 9.7 59.55 9.3 59.55 8.2 61.6 8.2
L 62.05 8.2 Z"/>
</g>

<g id="IT_728x90_psd_Asset_6_ManagedWiFi_IT_Awareness_DM7_4_Learn_more_about_the__solutions_that_are_available__0_Layer0_0_MEMBER_31_FILL">
<path fill="#D82C26" stroke="none" d="
M 66.45 6.05
L 66 5.95
Q 65.65 5.95 65.25 6.25 64.95 6.5 64.7 7.05
L 64.65 6.1 64.15 6.1 64.2 10.5 64.75 10.5 64.75 8.3
Q 64.75 7.55 65.05 7 65.45 6.45 65.95 6.45
L 66.35 6.5 66.45 6.05 Z"/>
</g>

<g id="IT_728x90_psd_Asset_6_ManagedWiFi_IT_Awareness_DM7_4_Learn_more_about_the__solutions_that_are_available__0_Layer0_0_MEMBER_32_FILL">
<path fill="#D82C26" stroke="none" d="
M 71.2 8.15
Q 71.2 7.45 70.95 7.05 70.75 6.6 70.25 6.25 69.8 5.95 69.1 5.95 68.55 5.95 68 6.25 67.55 6.55 67.25 7.05 66.95 7.6 66.95 8.25 66.95 8.9 67.25 9.5 67.55 10 68.05 10.3 68.6 10.6 69.2 10.6 70.15 10.6 70.95 10.05
L 70.85 9.6 70.15 10
Q 69.7 10.15 69.25 10.15 68.65 10.15 68.35 9.9 67.9 9.6 67.7 9.25 67.5 8.9 67.5 8.35
L 71.2 8.35 71.2 8.15
M 70.25 6.8
Q 70.6 7.15 70.7 7.95
L 67.5 7.95
Q 67.5 7.75 67.7 7.25 67.95 6.85 68.25 6.65 68.55 6.4 69.1 6.4 69.75 6.4 70.25 6.8 Z"/>
</g>

<g id="IT_728x90_psd_Asset_6_ManagedWiFi_IT_Awareness_DM7_4_Learn_more_about_the__solutions_that_are_available__0_Layer0_0_MEMBER_33_FILL">
<path fill="#D82C26" stroke="none" d="
M 74.85 10.25
Q 75.2 10.6 75.8 10.6 76.3 10.6 76.8 10.35 77.3 10.1 77.45 9.65
L 77.5 9.65 77.5 10.1 77.55 10.5 78.05 10.5 78 7.65
Q 78 6.8 77.55 6.4 77.1 5.95 76.3 5.95 75.85 5.95 75.4 6.1 75.2 6.15 74.65 6.5
L 74.85 6.95
Q 75.15 6.7 75.5 6.55
L 76.2 6.4
Q 76.8 6.4 77.15 6.7 77.45 7 77.45 7.6
L 77.45 7.85 76.95 7.85
Q 74.45 7.85 74.45 9.3 74.45 10 74.85 10.25
M 75.25 9.95
Q 74.95 9.75 74.95 9.3 74.95 8.2 77 8.2
L 77.45 8.2 77.45 8.65
Q 77.45 9.05 77.3 9.35 77.15 9.65 76.8 9.95 76.4 10.2 75.95 10.2 75.6 10.2 75.25 9.95 Z"/>
</g>

<g id="IT_728x90_psd_Asset_6_ManagedWiFi_IT_Awareness_DM7_4_Learn_more_about_the__solutions_that_are_available__0_Layer0_0_MEMBER_34_FILL">
<path fill="#D82C26" stroke="none" d="
M 82.75 6.1
L 82.2 6.1 80.8 9.95 79.4 6.1 78.8 6.1 80.5 10.5 81.1 10.5 82.75 6.1 Z"/>
</g>

<g id="IT_728x90_psd_Asset_6_ManagedWiFi_IT_Awareness_DM7_4_Learn_more_about_the__solutions_that_are_available__0_Layer0_0_MEMBER_35_FILL">
<path fill="#D82C26" stroke="none" d="
M 85.3 5.95
Q 84.85 5.95 84.45 6.1 84.05 6.25 83.7 6.5
L 83.85 6.95 84.5 6.55 85.25 6.4
Q 85.85 6.4 86.15 6.7 86.5 7.05 86.5 7.6
L 86.5 7.85 85.95 7.85
Q 83.45 7.85 83.45 9.3 83.45 9.95 83.85 10.25 84.25 10.6 84.85 10.6 85.25 10.6 85.85 10.35 86.25 10.15 86.5 9.65
L 86.5 10.1 86.55 10.5 87.05 10.5 87 7.65
Q 87 6.8 86.55 6.4 86.1 5.95 85.3 5.95
M 85.8 9.95
Q 85.4 10.2 84.95 10.2 84.6 10.2 84.25 9.95 83.95 9.75 83.95 9.3 83.95 8.2 86.05 8.2
L 86.5 8.2 86.5 8.65
Q 86.5 9.1 86.3 9.35 86.15 9.65 85.8 9.95 Z"/>
</g>

<g id="IT_728x90_psd_Asset_6_ManagedWiFi_IT_Awareness_DM7_4_Learn_more_about_the__solutions_that_are_available__0_Layer0_0_MEMBER_36_FILL">
<path fill="#D82C26" stroke="none" d="
M 89.15 6.1
L 88.6 6.1 88.6 10.5 89.15 10.5 89.15 6.1
M 88.6 4.65
Q 88.8 4.75 88.9 4.75
L 89.15 4.65
Q 89.25 4.55 89.25 4.35 89.25 4.15 89.15 4.05
L 88.9 3.95
Q 88.8 3.95 88.6 4.05
L 88.5 4.35 88.6 4.65 Z"/>
</g>

<g id="IT_728x90_psd_Asset_6_ManagedWiFi_IT_Awareness_DM7_4_Learn_more_about_the__solutions_that_are_available__0_Layer0_0_MEMBER_37_FILL">
<path fill="#D82C26" stroke="none" d="
M 91 10.2
Q 91.2 10.45 91.5 10.6
L 91.75 10.1
Q 91.55 10.05 91.45 9.85
L 91.35 9.4 91.35 3.35 90.8 3.45 90.8 9.5
Q 90.8 9.95 91 10.2 Z"/>
</g>

<g id="IT_728x90_psd_Asset_6_ManagedWiFi_IT_Awareness_DM7_4_Learn_more_about_the__solutions_that_are_available__0_Layer0_0_MEMBER_38_FILL">
<path fill="#D82C26" stroke="none" d="
M 94.6 5.95
Q 94.15 5.95 93.75 6.1 93.35 6.25 93 6.5
L 93.15 6.95 93.8 6.55 94.55 6.4
Q 95.15 6.4 95.45 6.7 95.8 7 95.8 7.6
L 95.8 7.85 95.25 7.85
Q 92.75 7.85 92.75 9.3 92.75 9.95 93.15 10.25 93.55 10.6 94.15 10.6 94.65 10.6 95.15 10.35 95.55 10.15 95.8 9.65
L 95.85 10.5 96.4 10.5 96.3 9.5 96.3 7.65
Q 96.3 6.8 95.85 6.4 95.4 5.95 94.6 5.95
M 95.8 8.2
L 95.8 8.65
Q 95.8 9.1 95.6 9.35 95.45 9.75 95.1 9.95 94.7 10.2 94.25 10.2 93.9 10.2 93.55 9.95 93.25 9.75 93.25 9.3 93.25 8.2 95.35 8.2
L 95.8 8.2 Z"/>
</g>

<g id="IT_728x90_psd_Asset_6_ManagedWiFi_IT_Awareness_DM7_4_Learn_more_about_the__solutions_that_are_available__0_Layer0_0_MEMBER_39_FILL">
<path fill="#D82C26" stroke="none" d="
M 101.4 10.3
Q 101.9 10 102.15 9.45 102.45 8.95 102.45 8.3 102.45 7.65 102.15 7.1 101.95 6.65 101.4 6.25 100.9 5.95 100.25 5.95 99.75 5.95 99.2 6.25 98.7 6.6 98.5 7.05
L 98.45 7.05 98.45 3.3 97.9 3.4 97.85 10.5 98.35 10.5 98.45 9.5
Q 98.65 10 99.2 10.3 99.75 10.6 100.25 10.6 100.9 10.6 101.4 10.3
M 101.9 8.3
Q 101.9 8.85 101.7 9.2 101.5 9.55 101.1 9.9 100.7 10.15 100.2 10.15 99.7 10.15 99.3 9.9 98.8 9.5 98.65 9.2 98.45 8.85 98.45 8.3 98.45 7.75 98.65 7.35 98.85 7 99.3 6.7 99.6 6.45 100.2 6.45 100.8 6.45 101.1 6.7 101.5 6.95 101.7 7.35 101.9 7.75 101.9 8.3 Z"/>
</g>

<g id="IT_728x90_psd_Asset_6_ManagedWiFi_IT_Awareness_DM7_4_Learn_more_about_the__solutions_that_are_available__0_Layer0_0_MEMBER_40_FILL">
<path fill="#D82C26" stroke="none" d="
M 104 10.2
Q 104.2 10.45 104.55 10.6
L 104.8 10.1
Q 104.55 10 104.45 9.85
L 104.35 9.4 104.35 3.35 103.8 3.45 103.8 9.5
Q 103.8 9.8 104 10.2 Z"/>
</g>

<g id="IT_728x90_psd_Asset_6_ManagedWiFi_IT_Awareness_DM7_4_Learn_more_about_the__solutions_that_are_available__0_Layer0_0_MEMBER_41_FILL">
<path fill="#D82C26" stroke="none" d="
M 105.75 8.25
Q 105.75 8.9 106.05 9.5 106.35 10 106.85 10.3 107.3 10.6 108 10.6 108.95 10.6 109.75 10.05
L 109.65 9.6 108.95 10
Q 108.5 10.15 108.05 10.15 107.45 10.15 107.15 9.9 106.7 9.7 106.5 9.25 106.3 8.9 106.3 8.35
L 110 8.35 110 8.15
Q 110 7.55 109.75 7.05 109.55 6.6 109.05 6.25 108.6 5.95 107.9 5.95 107.35 5.95 106.8 6.25 106.25 6.65 106.05 7.05 105.75 7.6 105.75 8.25
M 109.05 6.8
Q 109.4 7.25 109.5 7.95
L 106.3 7.95
Q 106.3 7.6 106.5 7.25 106.65 6.9 107.05 6.65 107.35 6.4 107.9 6.4 108.55 6.4 109.05 6.8 Z"/>
</g>

<g id="IT_728x90_psd_Asset_6_ManagedWiFi_IT_Awareness_DM7_4_Learn_more_about_the__solutions_that_are_available__0_Layer0_0_MEMBER_42_FILL">
<path fill="#D82C26" stroke="none" d="
M 111.3 10.4
Q 111.4 10.55 111.55 10.55 111.8 10.55 111.85 10.4 112 10.35 112 10.1
L 111.85 9.8
Q 111.75 9.7 111.55 9.7
L 111.3 9.8 111.15 10.1
Q 111.15 10.35 111.3 10.4 Z"/>
</g>

<g id="IT_728x90_psd_Asset_6_ManagedWiFi_IT_Awareness_DM7_4_CTA_copy_11_Watch_the_IDC_point_of__view_on_being_prepared__0_Layer0_0_MEMBER_0_FILL">
<path fill="#24B9D1" stroke="none" d="
M 11.15 -13.55
L 11.2 -13.55 15.25 0 17.75 0 22.6 -16.7 20.15 -16.7 16.45 -3.2 16.4 -3.2 12.5 -16.7 9.9 -16.7 6.1 -3.2 6 -3.2 2.35 -16.7 -0.2 -16.7 4.65 0 7.2 0 11.15 -13.55 Z"/>
</g>

<g id="IT_728x90_psd_Asset_6_ManagedWiFi_IT_Awareness_DM7_4_CTA_copy_11_Watch_the_IDC_point_of__view_on_being_prepared__0_Layer0_0_MEMBER_1_FILL">
<path fill="#24B9D1" stroke="none" d="
M 29.95 -6.9
L 29 -6.9
Q 26.2 -6.9 24.4 -6.1 22.5 -5.25 22.5 -3.15 22.5 -1.35 23.55 -0.55 24.65 0.3 26.05 0.3 27.3 0.3 28.4 -0.25 29.4 -0.75 30 -1.8
L 30.05 -1.8 30.25 0 32.3 0
Q 32.15 -0.9 32.15 -2.35
L 32.15 -7.05
Q 32.15 -9.35 30.95 -10.5 29.85 -11.65 27.6 -11.65 25.05 -11.65 23.15 -10.3
L 23.75 -8.6
Q 24.3 -9.15 25.35 -9.55 26.25 -9.9 27.2 -9.9 28.5 -9.9 29.25 -9.3 29.95 -8.6 29.95 -7.35
L 29.95 -6.9
M 25.25 -1.75
Q 24.65 -2.2 24.65 -3.2 24.65 -5.5 29.1 -5.5
L 30.05 -5.5 30.05 -4.65
Q 30.05 -3.85 29.65 -3.05 29.25 -2.35 28.45 -1.8 27.6 -1.3 26.7 -1.3 25.85 -1.3 25.25 -1.75 Z"/>
</g>

<g id="IT_728x90_psd_Asset_6_ManagedWiFi_IT_Awareness_DM7_4_CTA_copy_11_Watch_the_IDC_point_of__view_on_being_prepared__0_Layer0_0_MEMBER_2_FILL">
<path fill="#24B9D1" stroke="none" d="
M 37.45 -14.45
L 35.2 -13.85 35.2 -11.3 33.5 -11.3 33.15 -9.55 35.2 -9.55 35.2 -3.1
Q 35.2 -1.45 35.95 -0.65 36.8 0.25 38.2 0.25 39.65 0.25 40.9 -0.35
L 40.65 -2
Q 39.75 -1.55 38.95 -1.55 37.45 -1.55 37.45 -3.4
L 37.45 -9.55 40.25 -9.55 40.6 -11.3 37.45 -11.3 37.45 -14.45 Z"/>
</g>

<g id="IT_728x90_psd_Asset_6_ManagedWiFi_IT_Awareness_DM7_4_CTA_copy_11_Watch_the_IDC_point_of__view_on_being_prepared__0_Layer0_0_MEMBER_3_FILL">
<path fill="#24B9D1" stroke="none" d="
M 45.8 -9.2
Q 46.65 -9.75 47.75 -9.75 48.6 -9.75 49.35 -9.45 50.2 -9.15 50.75 -8.65
L 51.6 -10.4
Q 50.9 -10.95 49.9 -11.3 48.85 -11.65 47.75 -11.65 46.05 -11.65 44.6 -10.9 43.2 -10.1 42.45 -8.8 41.65 -7.4 41.65 -5.65 41.65 -3.9 42.4 -2.55 43.2 -1.2 44.55 -0.4 45.9 0.35 47.55 0.35 48.75 0.35 49.85 -0.05 51 -0.45 51.6 -1
L 51.3 -2.85
Q 50.6 -2.2 49.75 -1.9 48.95 -1.6 47.9 -1.6 46.7 -1.6 45.85 -2.15 45 -2.65 44.45 -3.6 44 -4.55 44 -5.65 44 -6.8 44.45 -7.7 44.9 -8.65 45.8 -9.2 Z"/>
</g>

<g id="IT_728x90_psd_Asset_6_ManagedWiFi_IT_Awareness_DM7_4_CTA_copy_11_Watch_the_IDC_point_of__view_on_being_prepared__0_Layer0_0_MEMBER_4_FILL">
<path fill="#24B9D1" stroke="none" d="
M 55.65 -18.15
L 53.4 -17.8 53.4 0 55.65 0 55.65 -5.75
Q 55.65 -7.6 56.55 -8.65 57.4 -9.75 58.8 -9.75 60.1 -9.75 60.75 -8.8 61.3 -7.8 61.3 -6.4
L 61.3 0 63.6 0 63.6 -6.95
Q 63.6 -9 62.6 -10.3 61.65 -11.65 59.5 -11.65 58.25 -11.65 57.2 -11 56.15 -10.3 55.7 -9.3
L 55.65 -9.3 55.65 -18.15 Z"/>
</g>

<g id="IT_728x90_psd_Asset_6_ManagedWiFi_IT_Awareness_DM7_4_CTA_copy_11_Watch_the_IDC_point_of__view_on_being_prepared__0_Layer0_0_MEMBER_5_FILL">
<path fill="#24B9D1" stroke="none" d="
M 74.4 -14.45
L 72.1 -13.85 72.1 -11.3 70.45 -11.3 70.1 -9.55 72.15 -9.55 72.15 -3.1
Q 72.15 -1.45 72.9 -0.65 73.65 0.25 75.15 0.25 76.6 0.25 77.85 -0.35
L 77.55 -2
Q 76.75 -1.55 75.9 -1.55 74.4 -1.55 74.4 -3.4
L 74.4 -9.55 77.15 -9.55 77.55 -11.3 74.4 -11.3 74.4 -14.45 Z"/>
</g>

<g id="IT_728x90_psd_Asset_6_ManagedWiFi_IT_Awareness_DM7_4_CTA_copy_11_Watch_the_IDC_point_of__view_on_being_prepared__0_Layer0_0_MEMBER_6_FILL">
<path fill="#24B9D1" stroke="none" d="
M 86.75 -8.8
Q 87.3 -7.8 87.3 -6.4
L 87.3 0 89.6 0 89.6 -6.95
Q 89.6 -9 88.6 -10.3 87.65 -11.65 85.5 -11.65 84.25 -11.65 83.2 -11 82.15 -10.3 81.7 -9.3
L 81.65 -9.3 81.65 -18.15 79.35 -17.8 79.35 0 81.65 0 81.65 -5.75
Q 81.65 -7.6 82.55 -8.65 83.4 -9.75 84.75 -9.75 86.1 -9.75 86.75 -8.8 Z"/>
</g>

<g id="IT_728x90_psd_Asset_6_ManagedWiFi_IT_Awareness_DM7_4_CTA_copy_11_Watch_the_IDC_point_of__view_on_being_prepared__0_Layer0_0_MEMBER_7_FILL">
<path fill="#24B9D1" stroke="none" d="
M 100.6 -10.9
Q 99.4 -11.65 97.7 -11.65 96.1 -11.65 94.75 -10.9 93.5 -10.15 92.65 -8.8 91.9 -7.45 91.9 -5.7 91.9 -3.85 92.7 -2.55 93.45 -1.15 94.8 -0.4 96.15 0.35 97.9 0.35 100.5 0.35 102.5 -0.95
L 102.15 -2.75
Q 101.35 -2.2 100.3 -1.8 99.15 -1.45 98.15 -1.45 96.95 -1.45 96.1 -1.95 95.25 -2.4 94.7 -3.3 94.2 -4 94.1 -5.15
L 103.15 -5.15 103.2 -5.85
Q 103.2 -7.4 102.55 -8.85 101.9 -10.15 100.6 -10.9
M 100.1 -9.1
Q 101 -8.15 101.05 -6.65
L 94.1 -6.65
Q 94.2 -7.5 94.6 -8.2 95 -8.95 95.85 -9.5 96.65 -10 97.7 -10 99.2 -10 100.1 -9.1 Z"/>
</g>

<g id="IT_728x90_psd_Asset_6_ManagedWiFi_IT_Awareness_DM7_4_CTA_copy_11_Watch_the_IDC_point_of__view_on_being_prepared__0_Layer0_0_MEMBER_8_FILL">
<path fill="#24B9D1" stroke="none" d="
M 113.35 -16.7
L 110.95 -16.7 110.95 0 113.35 0 113.35 -16.7 Z"/>
</g>

<g id="IT_728x90_psd_Asset_6_ManagedWiFi_IT_Awareness_DM7_4_CTA_copy_11_Watch_the_IDC_point_of__view_on_being_prepared__0_Layer0_0_MEMBER_9_FILL">
<path fill="#24B9D1" stroke="none" d="
M 126.95 -15.85
Q 124.95 -16.7 122.3 -16.7
L 116.8 -16.7 116.8 0 122.4 0
Q 124.85 0 126.95 -0.9 129.15 -1.9 130.35 -3.75 131.6 -5.6 131.6 -8.4 131.6 -11.3 130.35 -13.15 128.9 -15.1 126.95 -15.85
M 119.15 -2.1
L 119.15 -14.65 122.1 -14.65
Q 125.3 -14.65 127.15 -13.1 129.1 -11.45 129.1 -8.4 129.1 -5.3 127.15 -3.65 125.25 -2.1 122.05 -2.1
L 119.15 -2.1 Z"/>
</g>

<g id="IT_728x90_psd_Asset_6_ManagedWiFi_IT_Awareness_DM7_4_CTA_copy_11_Watch_the_IDC_point_of__view_on_being_prepared__0_Layer0_0_MEMBER_10_FILL">
<path fill="#24B9D1" stroke="none" d="
M 134.6 -3.8
Q 135.75 -1.8 137.75 -0.7 139.75 0.45 142.25 0.45 144.05 0.45 145.6 -0.15 147.2 -0.75 148.1 -1.65
L 147.7 -3.8
Q 146.75 -2.9 145.35 -2.3 143.95 -1.75 142.4 -1.75 140.6 -1.75 139.05 -2.6 137.55 -3.55 136.8 -5 136.05 -6.5 136.05 -8.35 136.05 -10.3 136.85 -11.75 137.6 -13.25 139.05 -14.1 140.55 -15 142.35 -15 143.75 -15 145.15 -14.45 146.5 -13.9 147.4 -13.1
L 148.05 -15.3
Q 147.1 -16.1 145.5 -16.65 144.05 -17.15 142.3 -17.15 139.75 -17.15 137.75 -16.05 135.75 -14.95 134.6 -12.95 133.45 -10.9 133.45 -8.35 133.45 -5.85 134.6 -3.8 Z"/>
</g>

<g id="IT_728x90_psd_Asset_6_ManagedWiFi_IT_Awareness_DM7_4_CTA_copy_11_Watch_the_IDC_point_of__view_on_being_prepared__0_Layer0_0_MEMBER_11_FILL">
<path fill="#24B9D1" stroke="none" d="
M 157.6 -9.25
L 157.5 -11.3 155.3 -11.3 155.35 5.65 157.65 5.65 157.65 -2 157.7 -2
Q 158.25 -0.95 159.45 -0.3 160.6 0.3 161.85 0.3 163.6 0.3 164.75 -0.5 166.05 -1.35 166.7 -2.65 167.4 -4.15 167.4 -5.7 167.4 -7.3 166.7 -8.7 166.05 -10 164.75 -10.85 163.45 -11.65 161.85 -11.65 160.5 -11.65 159.4 -11 158.25 -10.4 157.65 -9.25
L 157.6 -9.25
M 159.4 -9.2
Q 160.35 -9.75 161.4 -9.75 162.45 -9.75 163.4 -9.2 164.25 -8.65 164.7 -7.7 165.15 -6.8 165.15 -5.7 165.15 -4.55 164.7 -3.65 164.25 -2.8 163.4 -2.15 162.45 -1.6 161.4 -1.6 160.35 -1.6 159.4 -2.15 158.6 -2.75 158.05 -3.65 157.55 -4.5 157.55 -5.65 157.55 -6.75 158.05 -7.7 158.6 -8.6 159.4 -9.2 Z"/>
</g>

<g id="IT_728x90_psd_Asset_6_ManagedWiFi_IT_Awareness_DM7_4_CTA_copy_11_Watch_the_IDC_point_of__view_on_being_prepared__0_Layer0_0_MEMBER_12_FILL">
<path fill="#24B9D1" stroke="none" d="
M 169.85 -2.55
Q 170.7 -1.2 172.05 -0.4 173.5 0.35 175.15 0.35 176.9 0.35 178.3 -0.4 179.7 -1.25 180.5 -2.55 181.3 -4 181.3 -5.7 181.3 -7.35 180.5 -8.8 179.7 -10.15 178.3 -10.9 176.9 -11.65 175.15 -11.65 173.5 -11.65 172.05 -10.9 170.7 -10.2 169.85 -8.8 169.05 -7.5 169.05 -5.7 169.05 -3.95 169.85 -2.55
M 171.3 -5.7
Q 171.3 -6.85 171.8 -7.7 172.25 -8.65 173.1 -9.2 174.05 -9.75 175.15 -9.75 176.35 -9.75 177.2 -9.2 178.1 -8.65 178.55 -7.7 179.05 -6.85 179.05 -5.7 179.05 -4.5 178.55 -3.65 178.1 -2.75 177.2 -2.15 176.35 -1.6 175.15 -1.6 174.05 -1.6 173.1 -2.15 172.25 -2.8 171.8 -3.65 171.3 -4.5 171.3 -5.7 Z"/>
</g>

<g id="IT_728x90_psd_Asset_6_ManagedWiFi_IT_Awareness_DM7_4_CTA_copy_11_Watch_the_IDC_point_of__view_on_being_prepared__0_Layer0_0_MEMBER_13_FILL">
<path fill="#24B9D1" stroke="none" d="
M 186.05 -11.3
L 183.75 -11.3 183.75 0 186.05 0 186.05 -11.3
M 183.9 -14.5
Q 184.3 -14.05 184.9 -14.05 185.45 -14.05 185.9 -14.5 186.3 -14.9 186.3 -15.5 186.3 -16 185.9 -16.5 185.4 -16.9 184.9 -16.9 184.3 -16.9 183.9 -16.5 183.45 -16.05 183.45 -15.5 183.45 -14.85 183.9 -14.5 Z"/>
</g>

<g id="IT_728x90_psd_Asset_6_ManagedWiFi_IT_Awareness_DM7_4_CTA_copy_11_Watch_the_IDC_point_of__view_on_being_prepared__0_Layer0_0_MEMBER_14_FILL">
<path fill="#24B9D1" stroke="none" d="
M 189.1 -11.3
Q 189.25 -10.15 189.25 -8.9
L 189.25 0 191.55 0 191.55 -5.95
Q 191.55 -7.6 192.4 -8.7 193.3 -9.75 194.65 -9.75 196 -9.75 196.6 -8.8 197.2 -7.8 197.2 -6.4
L 197.2 0 199.5 0 199.5 -6.95
Q 199.5 -8.95 198.45 -10.3 197.5 -11.65 195.35 -11.65 194.1 -11.65 193 -10.95 191.9 -10.25 191.5 -9.2
L 191.45 -9.2 191.35 -11.3 189.1 -11.3 Z"/>
</g>

<g id="IT_728x90_psd_Asset_6_ManagedWiFi_IT_Awareness_DM7_4_CTA_copy_11_Watch_the_IDC_point_of__view_on_being_prepared__0_Layer0_0_MEMBER_15_FILL">
<path fill="#24B9D1" stroke="none" d="
M 201.15 -11.3
L 200.8 -9.55 202.85 -9.55 202.85 -3.1
Q 202.85 -1.45 203.6 -0.65 204.35 0.25 205.85 0.25 207.3 0.25 208.55 -0.35
L 208.25 -2
Q 207.35 -1.55 206.6 -1.55 205.1 -1.55 205.1 -3.4
L 205.1 -9.55 207.85 -9.55 208.2 -11.3 205.1 -11.3 205.1 -14.45 202.8 -13.85 202.8 -11.3 201.15 -11.3 Z"/>
</g>

<g id="IT_728x90_psd_Asset_6_ManagedWiFi_IT_Awareness_DM7_4_CTA_copy_11_Watch_the_IDC_point_of__view_on_being_prepared__0_Layer0_0_MEMBER_16_FILL">
<path fill="#24B9D1" stroke="none" d="
M 217.45 -10.9
Q 216.05 -10.1 215.3 -8.8 214.45 -7.4 214.45 -5.7 214.45 -4 215.3 -2.55 216 -1.3 217.45 -0.4 218.9 0.35 220.6 0.35 222.35 0.35 223.7 -0.4 225.05 -1.2 225.9 -2.55 226.7 -3.85 226.7 -5.7 226.7 -7.5 225.9 -8.8 225.05 -10.2 223.7 -10.9 222.35 -11.65 220.6 -11.65 218.9 -11.65 217.45 -10.9
M 220.6 -9.75
Q 221.7 -9.75 222.65 -9.2 223.5 -8.65 224 -7.7 224.45 -6.8 224.45 -5.7 224.45 -4.55 224 -3.65 223.5 -2.75 222.65 -2.15 221.7 -1.6 220.6 -1.6 219.4 -1.6 218.55 -2.15 217.65 -2.75 217.2 -3.65 216.75 -4.55 216.75 -5.7 216.75 -6.8 217.2 -7.7 217.65 -8.65 218.55 -9.2 219.4 -9.75 220.6 -9.75 Z"/>
</g>

<g id="IT_728x90_psd_Asset_6_ManagedWiFi_IT_Awareness_DM7_4_CTA_copy_11_Watch_the_IDC_point_of__view_on_being_prepared__0_Layer0_0_MEMBER_17_FILL">
<path fill="#24B9D1" stroke="none" d="
M 236 -17.95
Q 234.9 -18.2 233.85 -18.2 231.85 -18.2 230.85 -17.05 229.8 -15.85 229.8 -13.75
L 229.8 -11.3 227.85 -11.3 227.5 -9.55 229.85 -9.55 229.85 0 232.15 0 232.15 -9.55 234.7 -9.55 235.1 -11.3 232.15 -11.3 232.15 -13.75
Q 232.15 -14.85 232.6 -15.6 233.05 -16.35 234.1 -16.35 234.7 -16.35 235.8 -16.1
L 236 -17.95 Z"/>
</g>

<g id="IT_728x90_psd_Asset_6_ManagedWiFi_IT_Awareness_DM7_4_CTA_copy_11_Watch_the_IDC_point_of__view_on_being_prepared__0_Layer0_0_MEMBER_18_FILL">
<path fill="#24B9D1" stroke="none" d="
M 0.1 15.3
L 4.5 26.6 7.05 26.6 11.35 15.3 8.9 15.3 5.8 24.25 2.6 15.3 0.1 15.3 Z"/>
</g>

<g id="IT_728x90_psd_Asset_6_ManagedWiFi_IT_Awareness_DM7_4_CTA_copy_11_Watch_the_IDC_point_of__view_on_being_prepared__0_Layer0_0_MEMBER_19_FILL">
<path fill="#24B9D1" stroke="none" d="
M 15.05 15.3
L 12.75 15.3 12.75 26.6 15.05 26.6 15.05 15.3
M 12.45 11.15
Q 12.45 11.7 12.9 12.15 13.3 12.55 13.9 12.55 14.4 12.55 14.9 12.15 15.3 11.75 15.3 11.15 15.3 10.5 14.9 10.15 14.45 9.7 13.9 9.7 13.3 9.7 12.9 10.15 12.45 10.55 12.45 11.15 Z"/>
</g>

<g id="IT_728x90_psd_Asset_6_ManagedWiFi_IT_Awareness_DM7_4_CTA_copy_11_Watch_the_IDC_point_of__view_on_being_prepared__0_Layer0_0_MEMBER_20_FILL">
<path fill="#24B9D1" stroke="none" d="
M 28.1 17.75
Q 27.4 16.45 26.2 15.7 24.95 14.95 23.25 14.95 21.65 14.95 20.35 15.7 19 16.45 18.25 17.8 17.45 19.3 17.45 20.95 17.45 22.65 18.25 24.1 19 25.4 20.4 26.2 21.75 26.95 23.45 26.95 26.05 26.95 28.05 25.65
L 27.7 23.9
Q 27.05 24.35 25.9 24.8 24.9 25.15 23.7 25.15 22.55 25.15 21.7 24.65 20.8 24.2 20.25 23.35 19.7 22.45 19.65 21.45
L 28.75 21.45 28.75 20.75
Q 28.75 19.05 28.1 17.75
M 21.4 17.1
Q 22.3 16.6 23.3 16.6 24.8 16.6 25.7 17.55 26.6 18.45 26.6 19.95
L 19.7 19.95
Q 19.7 19.3 20.15 18.4 20.6 17.65 21.4 17.1 Z"/>
</g>

<g id="IT_728x90_psd_Asset_6_ManagedWiFi_IT_Awareness_DM7_4_CTA_copy_11_Watch_the_IDC_point_of__view_on_being_prepared__0_Layer0_0_MEMBER_21_FILL">
<path fill="#24B9D1" stroke="none" d="
M 42.55 24.05
L 42.5 24.05 39.75 15.3 37.35 15.3 34.6 24.05 34.55 24.05 32.1 15.3 29.65 15.3 33.25 26.6 35.65 26.6 38.5 18 38.55 18 41.4 26.6 43.75 26.6 47.45 15.3 45.05 15.3 42.55 24.05 Z"/>
</g>

<g id="IT_728x90_psd_Asset_6_ManagedWiFi_IT_Awareness_DM7_4_CTA_copy_11_Watch_the_IDC_point_of__view_on_being_prepared__0_Layer0_0_MEMBER_22_FILL">
<path fill="#24B9D1" stroke="none" d="
M 64.9 24.05
Q 65.7 22.75 65.7 20.95 65.7 19.1 64.9 17.8 64.15 16.5 62.75 15.7 61.35 14.95 59.6 14.95 57.85 14.95 56.5 15.7 55.15 16.4 54.3 17.8 53.5 19.2 53.5 20.95 53.5 22.75 54.3 24.05 55.15 25.5 56.5 26.2 57.85 26.95 59.6 26.95 61.35 26.95 62.75 26.2 64.2 25.4 64.9 24.05
M 63 22.95
Q 62.55 23.95 61.65 24.45 60.9 25 59.6 25 58.4 25 57.55 24.45 56.75 24 56.2 22.95 55.75 22.05 55.75 20.95 55.75 19.8 56.2 18.9 56.75 17.9 57.55 17.4 58.5 16.85 59.6 16.85 60.8 16.85 61.65 17.4 62.55 18 63 18.9 63.5 19.9 63.5 20.95 63.5 21.95 63 22.95 Z"/>
</g>

<g id="IT_728x90_psd_Asset_6_ManagedWiFi_IT_Awareness_DM7_4_CTA_copy_11_Watch_the_IDC_point_of__view_on_being_prepared__0_Layer0_0_MEMBER_23_FILL">
<path fill="#24B9D1" stroke="none" d="
M 68.05 15.3
Q 68.2 16.45 68.2 17.75
L 68.2 26.6 70.5 26.6 70.5 20.7
Q 70.5 19 71.35 17.9 72.25 16.85 73.6 16.85 74.9 16.85 75.55 17.8 76.15 18.8 76.15 20.2
L 76.15 26.6 78.4 26.6 78.4 19.7
Q 78.4 17.6 77.4 16.3 76.4 15 74.25 15 72.95 15 71.95 15.65 70.9 16.3 70.45 17.4
L 70.4 17.4 70.3 15.3 68.05 15.3 Z"/>
</g>

<g id="IT_728x90_psd_Asset_6_ManagedWiFi_IT_Awareness_DM7_4_CTA_copy_11_Watch_the_IDC_point_of__view_on_being_prepared__0_Layer0_0_MEMBER_24_FILL">
<path fill="#24B9D1" stroke="none" d="
M 90.2 8.3
L 86.3 8.75 86.15 26.6 89.65 26.6
Q 89.85 25.8 89.85 25.1
L 89.9 25.1
Q 90.5 25.95 91.55 26.45 92.55 26.95 93.75 26.95 95.45 26.95 96.75 26.1 98.05 25.2 98.7 23.8 99.35 22.45 99.35 20.7 99.35 18.95 98.7 17.6 97.95 16.25 96.75 15.35 95.5 14.55 93.8 14.55 92.7 14.55 91.7 15 90.75 15.5 90.25 16.1
L 90.2 16.1 90.2 8.3
M 90 20.7
Q 90 20.15 90.35 19.25 90.75 18.5 91.35 18.15 92.05 17.7 92.85 17.7 94.15 17.7 94.9 18.6 95.65 19.45 95.65 20.7 95.65 21.95 94.9 22.85 94.15 23.75 92.85 23.75 92.05 23.75 91.35 23.3 90.75 22.95 90.35 22.2 90 21.4 90 20.7 Z"/>
</g>

<g id="IT_728x90_psd_Asset_6_ManagedWiFi_IT_Awareness_DM7_4_CTA_copy_11_Watch_the_IDC_point_of__view_on_being_prepared__0_Layer0_0_MEMBER_25_FILL">
<path fill="#24B9D1" stroke="none" d="
M 109.95 15.25
Q 108.6 14.5 106.85 14.5 105.1 14.5 103.65 15.25 102.1 16.15 101.35 17.45 100.5 18.9 100.5 20.8 100.5 22.7 101.4 24.1 102.25 25.55 103.7 26.25 105.2 27 107 27 110 27 112 25.8
L 111.45 23.05
Q 109.6 24 107.6 24 106.3 24 105.3 23.4 104.35 22.8 104.25 21.8
L 112.75 21.8 112.75 20.9
Q 112.75 18.85 112.05 17.45 111.3 16 109.95 15.25
M 106.9 17.15
Q 108 17.15 108.6 17.8 109.2 18.4 109.2 19.4
L 104.25 19.4
Q 104.25 18.5 105.05 17.8 105.75 17.15 106.9 17.15 Z"/>
</g>

<g id="IT_728x90_psd_Asset_6_ManagedWiFi_IT_Awareness_DM7_4_CTA_copy_11_Watch_the_IDC_point_of__view_on_being_prepared__0_Layer0_0_MEMBER_26_FILL">
<path fill="#24B9D1" stroke="none" d="
M 118.4 14.85
L 114.5 14.85 114.5 26.6 118.4 26.6 118.4 14.85
M 114.9 9.6
Q 114.25 10.25 114.25 11.1 114.25 12 114.9 12.6 115.55 13.25 116.45 13.25 117.4 13.25 118.05 12.6 118.7 11.95 118.7 11.1 118.7 10.35 118.05 9.6 117.4 9 116.45 9 115.5 9 114.9 9.6 Z"/>
</g>

<g id="IT_728x90_psd_Asset_6_ManagedWiFi_IT_Awareness_DM7_4_CTA_copy_11_Watch_the_IDC_point_of__view_on_being_prepared__0_Layer0_0_MEMBER_27_FILL">
<path fill="#24B9D1" stroke="none" d="
M 131.3 15.95
Q 130.25 14.55 128.05 14.55 126.8 14.55 125.95 15.1 125.05 15.6 124.55 16.5
L 124.5 16.5
Q 124.5 15.7 124.35 14.85
L 120.65 14.85 120.75 26.6 124.65 26.6 124.65 20.25
Q 124.65 19.25 125.2 18.45 125.75 17.7 126.75 17.7 128.45 17.7 128.45 20.2
L 128.45 26.6 132.35 26.6 132.35 19.35
Q 132.35 17.3 131.3 15.95 Z"/>
</g>

<g id="IT_728x90_psd_Asset_6_ManagedWiFi_IT_Awareness_DM7_4_CTA_copy_11_Watch_the_IDC_point_of__view_on_being_prepared__0_Layer0_0_MEMBER_28_FILL">
<path fill="#24B9D1" stroke="none" d="
M 147.15 14.85
L 143.55 14.85 143.4 16.35 143.35 16.35
Q 142.75 15.45 141.75 15 140.8 14.55 139.6 14.55 137.8 14.55 136.6 15.4 135.35 16.25 134.65 17.65 134 18.95 134 20.7 134 22.4 134.65 23.75 135.35 25.15 136.6 25.9 137.9 26.75 139.6 26.75 140.8 26.75 141.7 26.3 142.55 25.95 143.2 25.2
L 143.25 25.2 143.25 25.9
Q 143.25 27.45 142.45 28.3 141.6 29.15 140.15 29.15 138.9 29.15 137.6 28.7 136.25 28.2 135.3 27.55
L 134.8 30.8
Q 135.75 31.45 137.4 31.85 139 32.3 140.4 32.3 143.45 32.3 145.25 30.55 147.05 28.9 147.05 25.5
L 147.15 14.85
M 143.35 20.65
Q 143.35 21.9 142.6 22.8 141.8 23.65 140.5 23.65 139.25 23.65 138.5 22.8 137.75 21.9 137.75 20.65 137.75 19.4 138.5 18.55 139.25 17.7 140.5 17.7 141.75 17.7 142.6 18.55 143.35 19.45 143.35 20.65 Z"/>
</g>

<g id="IT_728x90_psd_Asset_6_ManagedWiFi_IT_Awareness_DM7_4_CTA_copy_11_Watch_the_IDC_point_of__view_on_being_prepared__0_Layer0_0_MEMBER_29_FILL">
<path fill="#24B9D1" stroke="none" d="
M 165.05 15.35
Q 163.8 14.55 162.1 14.55 160.85 14.55 159.9 15.05 159.05 15.45 158.35 16.3
L 158.3 16.3 158.25 14.85 154.55 14.85 154.6 32.3 158.5 32.3 158.5 25.3
Q 159.1 26.05 160.05 26.5 161.05 26.95 162.1 26.95 163.75 26.95 165.05 26.1 166.35 25.2 167 23.8 167.7 22.3 167.7 20.7 167.7 19.1 167 17.6 166.35 16.25 165.05 15.35
M 163.95 20.7
Q 163.95 21.95 163.2 22.85 162.45 23.75 161.15 23.75 160.3 23.75 159.7 23.3 159.15 23 158.7 22.2 158.35 21.55 158.35 20.7 158.35 19.95 158.7 19.25 159.15 18.45 159.7 18.15 160.4 17.7 161.15 17.7 162.45 17.7 163.2 18.6 163.95 19.45 163.95 20.7 Z"/>
</g>

<g id="IT_728x90_psd_Asset_6_ManagedWiFi_IT_Awareness_DM7_4_CTA_copy_11_Watch_the_IDC_point_of__view_on_being_prepared__0_Layer0_0_MEMBER_30_FILL">
<path fill="#24B9D1" stroke="none" d="
M 169.25 14.85
Q 169.4 16 169.4 17.85
L 169.4 26.6 173.3 26.6 173.3 20.55
Q 173.3 19.5 173.85 18.75 174.45 17.9 175.7 17.9
L 176.7 18 177.2 14.7
Q 176.6 14.55 175.9 14.55 174.9 14.55 174.3 15.1 173.6 15.6 173.2 16.55
L 173.15 16.55
Q 173.15 15.5 172.95 14.85
L 169.25 14.85 Z"/>
</g>

<g id="IT_728x90_psd_Asset_6_ManagedWiFi_IT_Awareness_DM7_4_CTA_copy_11_Watch_the_IDC_point_of__view_on_being_prepared__0_Layer0_0_MEMBER_31_FILL">
<path fill="#24B9D1" stroke="none" d="
M 186.45 15.25
Q 185.2 14.5 183.4 14.5 181.6 14.5 180.15 15.25 178.7 16.1 177.85 17.45 177.05 18.85 177.05 20.8 177.05 22.75 177.9 24.1 178.75 25.6 180.25 26.25 181.7 27 183.5 27 186.5 27 188.5 25.8
L 188 23.05
Q 186.1 24 184.1 24 182.8 24 181.8 23.4 180.85 22.8 180.75 21.8
L 189.25 21.8 189.3 20.9
Q 189.3 18.95 188.55 17.45 187.8 16 186.45 15.25
M 185.1 17.8
Q 185.7 18.4 185.7 19.4
L 180.75 19.4
Q 180.85 18.45 181.55 17.8 182.25 17.15 183.4 17.15 184.5 17.15 185.1 17.8 Z"/>
</g>

<g id="IT_728x90_psd_Asset_6_ManagedWiFi_IT_Awareness_DM7_4_CTA_copy_11_Watch_the_IDC_point_of__view_on_being_prepared__0_Layer0_0_MEMBER_32_FILL">
<path fill="#24B9D1" stroke="none" d="
M 204.05 20.7
Q 204.05 18.95 203.4 17.6 202.65 16.2 201.4 15.35 200.15 14.55 198.5 14.55 197.25 14.55 196.3 15.05 195.3 15.5 194.75 16.3
L 194.65 16.3 194.6 14.85 190.95 14.85 191 32.3 194.85 32.3 194.85 25.3 194.9 25.3
Q 195.45 26.05 196.4 26.5 197.4 26.95 198.45 26.95 200.15 26.95 201.45 26.1 202.75 25.2 203.4 23.8 204.05 22.45 204.05 20.7
M 196.05 23.3
Q 195.45 22.95 195.05 22.2 194.7 21.4 194.7 20.7 194.7 20.15 195.05 19.25 195.45 18.5 196.05 18.15 196.75 17.7 197.55 17.7 198.85 17.7 199.6 18.6 200.3 19.45 200.3 20.7 200.3 21.9 199.6 22.85 198.85 23.75 197.55 23.75 196.75 23.75 196.05 23.3 Z"/>
</g>

<g id="IT_728x90_psd_Asset_6_ManagedWiFi_IT_Awareness_DM7_4_CTA_copy_11_Watch_the_IDC_point_of__view_on_being_prepared__0_Layer0_0_MEMBER_33_FILL">
<path fill="#24B9D1" stroke="none" d="
M 210 17.35
Q 210.95 17.35 211.55 17.8 212.15 18.25 212.15 19.05
L 212.15 19.25 211.85 19.25
Q 205.05 19.35 205.05 23.2 205.05 25.1 206.15 26 207.2 26.9 208.65 26.9 209.65 26.9 210.75 26.5 211.8 26 212.2 25.35
L 212.25 25.35 212.45 26.6 216 26.6
Q 215.8 25.95 215.8 24.4
L 215.8 19.75
Q 215.8 14.5 210.85 14.5 209.3 14.5 208.1 14.8 207 15.1 205.7 15.8
L 206.55 18.5
Q 207.25 18.1 208.25 17.7 209.4 17.35 210 17.35
M 211.75 21.4
L 212.25 21.4 212.25 21.9
Q 212.25 23 211.55 23.65 210.9 24.3 209.8 24.3 209.35 24.3 208.95 24 208.6 23.75 208.6 23.1 208.6 22.2 209.5 21.8 210.45 21.4 211.75 21.4 Z"/>
</g>

<g id="IT_728x90_psd_Asset_6_ManagedWiFi_IT_Awareness_DM7_4_CTA_copy_11_Watch_the_IDC_point_of__view_on_being_prepared__0_Layer0_0_MEMBER_34_FILL">
<path fill="#24B9D1" stroke="none" d="
M 224.25 17.9
L 225.25 18 225.75 14.7
Q 225.15 14.55 224.45 14.55 223.45 14.55 222.85 15.1 222.15 15.6 221.75 16.55
L 221.7 16.55
Q 221.7 15.6 221.55 14.85
L 217.85 14.85 217.95 26.6 221.85 26.6 221.85 20.55
Q 221.85 19.6 222.4 18.75 223 17.9 224.25 17.9 Z"/>
</g>

<g id="IT_728x90_psd_Asset_6_ManagedWiFi_IT_Awareness_DM7_4_CTA_copy_11_Watch_the_IDC_point_of__view_on_being_prepared__0_Layer0_0_MEMBER_35_FILL">
<path fill="#24B9D1" stroke="none" d="
M 225.6 20.8
Q 225.6 22.65 226.45 24.1 227.4 25.65 228.8 26.25 230.3 27 232.05 27 235.05 27 237.05 25.8
L 236.55 23.05
Q 234.65 24 232.65 24 231.4 24 230.35 23.4 229.4 22.8 229.3 21.8
L 237.8 21.8 237.85 20.9
Q 237.85 18.95 237.1 17.45 236.35 16 235.05 15.25 233.7 14.5 231.95 14.5 230.15 14.5 228.7 15.25 227.25 16.1 226.45 17.45 225.6 18.8 225.6 20.8
M 230.15 17.8
Q 230.85 17.15 231.95 17.15 233.1 17.15 233.7 17.8 234.3 18.4 234.3 19.4
L 229.3 19.4
Q 229.4 18.45 230.15 17.8 Z"/>
</g>

<g id="IT_728x90_psd_Asset_6_ManagedWiFi_IT_Awareness_DM7_4_CTA_copy_11_Watch_the_IDC_point_of__view_on_being_prepared__0_Layer0_0_MEMBER_36_FILL">
<path fill="#24B9D1" stroke="none" d="
M 252 8.3
L 248.15 8.75 248.15 16.1 248.1 16.1
Q 247.55 15.45 246.6 15 245.7 14.55 244.5 14.55 242.85 14.55 241.6 15.35 240.35 16.25 239.65 17.6 238.95 19.1 238.95 20.7 238.95 22.3 239.65 23.8 240.3 25.2 241.6 26.1 242.9 26.95 244.55 26.95 245.8 26.95 246.8 26.45 247.75 25.95 248.4 25.1
L 248.45 25.1 248.55 26.6 252.1 26.6 252 8.3
M 245.45 17.7
Q 246.3 17.7 246.95 18.15 247.5 18.45 247.95 19.25 248.3 19.95 248.3 20.7 248.3 21.55 247.95 22.2 247.5 23 246.95 23.3 246.35 23.75 245.45 23.75 244.2 23.75 243.45 22.85 242.7 21.95 242.7 20.7 242.7 19.45 243.45 18.6 244.2 17.7 245.45 17.7 Z"/>
</g>

<g id="IT_728x90_psd_Asset_6_ManagedWiFi_IT_Awareness_DM7_4_CTA_copy_11_Watch_the_IDC_point_of__view_on_being_prepared__0_Layer0_0_MEMBER_37_FILL">
<path fill="#24B9D1" stroke="none" d="
M 254.75 26.2
Q 255.4 26.85 256.45 26.85 257.45 26.85 258.1 26.2 258.8 25.5 258.8 24.55 258.8 23.6 258.1 22.9 257.45 22.25 256.45 22.25 255.4 22.25 254.75 22.9 254 23.6 254 24.55 254 25.55 254.75 26.2 Z"/>
</g>

<g id="IT_728x90_psd_Asset_6_ManagedWiFi_IT_Awareness_DM7_4_footer_copy_3_Do_more_with__Wi_Fi_as_a_Service__copy_6_0_Layer0_0_MEMBER_0_FILL">
<path fill="#838282" stroke="none" d="
M -82.55 -9.9
L -85.8 -9.9 -85.8 0 -82.45 0
Q -81.1 0 -79.75 -0.55 -78.5 -1.1 -77.75 -2.2 -77 -3.3 -77 -4.95 -77 -6.65 -77.75 -7.8 -78.5 -8.85 -79.75 -9.4 -80.95 -9.9 -82.55 -9.9
M -82.65 -1.25
L -84.4 -1.25 -84.4 -8.7 -82.65 -8.7
Q -80.75 -8.7 -79.65 -7.75 -78.5 -6.9 -78.5 -4.95 -78.5 -3.05 -79.65 -2.2 -80.75 -1.25 -82.65 -1.25 Z"/>
</g>

<g id="IT_728x90_psd_Asset_6_ManagedWiFi_IT_Awareness_DM7_4_footer_copy_3_Do_more_with__Wi_Fi_as_a_Service__copy_6_0_Layer0_0_MEMBER_1_FILL">
<path fill="#838282" stroke="none" d="
M -72.35 -6.9
Q -73.35 -6.9 -74.2 -6.45 -74.9 -6.15 -75.5 -5.2 -75.95 -4.45 -75.95 -3.35 -75.95 -2.3 -75.5 -1.5 -74.95 -0.65 -74.2 -0.25 -73.35 0.2 -72.35 0.2 -71.3 0.2 -70.5 -0.25 -69.6 -0.75 -69.2 -1.5 -68.7 -2.3 -68.7 -3.35 -68.7 -4.45 -69.2 -5.25 -69.7 -6.1 -70.5 -6.45 -71.3 -6.9 -72.35 -6.9
M -72.35 -5.8
Q -71.7 -5.8 -71.1 -5.45 -70.65 -5.2 -70.3 -4.6 -70.05 -3.95 -70.05 -3.35 -70.05 -2.8 -70.3 -2.15 -70.65 -1.55 -71.1 -1.3 -71.6 -0.95 -72.35 -0.95 -73.05 -0.95 -73.55 -1.3 -74 -1.55 -74.35 -2.15 -74.6 -2.65 -74.6 -3.35 -74.6 -4.1 -74.35 -4.6 -74 -5.2 -73.55 -5.45 -72.95 -5.8 -72.35 -5.8 Z"/>
</g>

<g id="IT_728x90_psd_Asset_6_ManagedWiFi_IT_Awareness_DM7_4_footer_copy_3_Do_more_with__Wi_Fi_as_a_Service__copy_6_0_Layer0_0_MEMBER_2_FILL">
<path fill="#838282" stroke="none" d="
M -62.95 -6.7
L -64.25 -6.7 -64.2 0 -62.8 0 -62.8 -3.45
Q -62.8 -4.5 -62.3 -5.15 -61.8 -5.8 -61.1 -5.8 -60.4 -5.8 -60.05 -5.3 -59.65 -4.75 -59.65 -3.9
L -59.65 0 -58.3 0 -58.3 -3.55
Q -58.3 -4.45 -57.85 -5.15 -57.3 -5.8 -56.6 -5.8 -55.75 -5.8 -55.45 -5.2 -55.1 -4.6 -55.1 -3.75
L -55.1 0 -53.75 0 -53.75 -4.05
Q -53.75 -5.25 -54.35 -6.1 -54.95 -6.9 -56.2 -6.9 -56.95 -6.9 -57.6 -6.5 -58.2 -6.1 -58.5 -5.4 -58.8 -6.15 -59.3 -6.5 -59.85 -6.9 -60.65 -6.9 -61.35 -6.9 -62 -6.5 -62.55 -6.1 -62.85 -5.45
L -62.95 -6.7 Z"/>
</g>

<g id="IT_728x90_psd_Asset_6_ManagedWiFi_IT_Awareness_DM7_4_footer_copy_3_Do_more_with__Wi_Fi_as_a_Service__copy_6_0_Layer0_0_MEMBER_3_FILL">
<path fill="#838282" stroke="none" d="
M -52.4 -3.35
Q -52.4 -2.3 -51.9 -1.5 -51.5 -0.75 -50.6 -0.25 -49.75 0.2 -48.75 0.2 -47.7 0.2 -46.9 -0.25 -46.15 -0.65 -45.6 -1.5 -45.15 -2.3 -45.15 -3.35 -45.15 -4.4 -45.6 -5.25 -46.2 -6.15 -46.9 -6.45 -47.7 -6.9 -48.75 -6.9 -49.75 -6.9 -50.6 -6.45 -51.4 -6.05 -51.9 -5.2 -52.4 -4.5 -52.4 -3.35
M -51.05 -3.35
Q -51.05 -4 -50.75 -4.6 -50.5 -5.15 -50 -5.45 -49.4 -5.8 -48.75 -5.8 -48.15 -5.8 -47.55 -5.45 -47.1 -5.2 -46.75 -4.6 -46.45 -4 -46.45 -3.35 -46.45 -2.75 -46.75 -2.15 -47.1 -1.55 -47.55 -1.3 -48.05 -0.95 -48.75 -0.95 -49.5 -0.95 -50 -1.3 -50.5 -1.6 -50.75 -2.15 -51.05 -2.75 -51.05 -3.35 Z"/>
</g>

<g id="IT_728x90_psd_Asset_6_ManagedWiFi_IT_Awareness_DM7_4_footer_copy_3_Do_more_with__Wi_Fi_as_a_Service__copy_6_0_Layer0_0_MEMBER_4_FILL">
<path fill="#838282" stroke="none" d="
M -42.45 -6.7
L -43.75 -6.7 -43.7 0 -42.35 0 -42.35 -3.35
Q -42.35 -4.3 -41.9 -5 -41.5 -5.7 -40.6 -5.7 -40.2 -5.7 -40.05 -5.6
L -39.8 -6.8 -40.55 -6.9
Q -41.1 -6.9 -41.6 -6.5 -42.1 -6.1 -42.35 -5.45
L -42.45 -6.7 Z"/>
</g>

<g id="IT_728x90_psd_Asset_6_ManagedWiFi_IT_Awareness_DM7_4_footer_copy_3_Do_more_with__Wi_Fi_as_a_Service__copy_6_0_Layer0_0_MEMBER_5_FILL">
<path fill="#838282" stroke="none" d="
M -36.3 -6.9
Q -37.3 -6.9 -38.05 -6.45 -38.85 -6 -39.3 -5.2 -39.75 -4.45 -39.75 -3.35 -39.75 -2.3 -39.3 -1.5 -38.9 -0.75 -38 -0.25 -37.25 0.2 -36.2 0.2 -34.6 0.2 -33.5 -0.55
L -33.7 -1.6
Q -34.25 -1.2 -34.75 -1.1 -35.4 -0.85 -36.05 -0.85 -36.7 -0.85 -37.25 -1.15 -37.85 -1.5 -38.1 -1.95 -38.45 -2.55 -38.45 -3.05
L -33.05 -3.05 -33.05 -3.45
Q -33.05 -4.45 -33.45 -5.25 -33.85 -6.1 -34.6 -6.45 -35.35 -6.9 -36.3 -6.9
M -37.4 -5.65
Q -36.95 -5.95 -36.3 -5.95 -35.45 -5.95 -34.9 -5.4 -34.35 -4.75 -34.35 -3.95
L -38.45 -3.95 -38.15 -4.85
Q -37.95 -5.35 -37.4 -5.65 Z"/>
</g>

<g id="IT_728x90_psd_Asset_6_ManagedWiFi_IT_Awareness_DM7_4_footer_copy_3_Do_more_with__Wi_Fi_as_a_Service__copy_6_0_Layer0_0_MEMBER_6_FILL">
<path fill="#838282" stroke="none" d="
M -28 -6.7
L -29.45 -6.7 -27.3 0 -25.9 0 -24.2 -5.1 -22.5 0 -21.1 0 -18.9 -6.7 -20.3 -6.7 -21.8 -1.55 -23.45 -6.7 -24.85 -6.7 -26.5 -1.55 -26.55 -1.55 -28 -6.7 Z"/>
</g>

<g id="IT_728x90_psd_Asset_6_ManagedWiFi_IT_Awareness_DM7_4_footer_copy_3_Do_more_with__Wi_Fi_as_a_Service__copy_6_0_Layer0_0_MEMBER_7_FILL">
<path fill="#838282" stroke="none" d="
M -16.55 -6.7
L -17.95 -6.7 -17.95 0 -16.55 0 -16.55 -6.7
M -16.65 -9.8
Q -16.85 -10 -17.25 -10 -17.65 -10 -17.85 -9.8 -18.1 -9.45 -18.1 -9.2 -18.1 -8.85 -17.85 -8.6 -17.65 -8.35 -17.25 -8.35 -16.85 -8.35 -16.65 -8.6 -16.4 -8.85 -16.4 -9.2 -16.4 -9.45 -16.65 -9.8 Z"/>
</g>

<g id="IT_728x90_psd_Asset_6_ManagedWiFi_IT_Awareness_DM7_4_footer_copy_3_Do_more_with__Wi_Fi_as_a_Service__copy_6_0_Layer0_0_MEMBER_8_FILL">
<path fill="#838282" stroke="none" d="
M -14.55 -8.2
L -14.55 -6.7 -15.5 -6.7 -15.7 -5.65 -14.5 -5.65 -14.5 -1.85
Q -14.5 -0.85 -14.05 -0.35 -13.6 0.15 -12.75 0.15 -11.85 0.15 -11.15 -0.2
L -11.3 -1.2
Q -11.8 -0.9 -12.3 -0.9 -13.2 -0.9 -13.2 -2.05
L -13.2 -5.65 -11.55 -5.65 -11.3 -6.7 -13.2 -6.7 -13.2 -8.55 -14.55 -8.2 Z"/>
</g>

<g id="IT_728x90_psd_Asset_6_ManagedWiFi_IT_Awareness_DM7_4_footer_copy_3_Do_more_with__Wi_Fi_as_a_Service__copy_6_0_Layer0_0_MEMBER_9_FILL">
<path fill="#838282" stroke="none" d="
M -6.6 -6.9
Q -7.3 -6.9 -7.95 -6.5 -8.5 -6.2 -8.85 -5.5
L -8.85 -10.75 -10.25 -10.55 -10.25 0 -8.85 0 -8.85 -3.4
Q -8.85 -4.5 -8.35 -5.15 -7.8 -5.75 -7.05 -5.75 -6.2 -5.75 -5.85 -5.2 -5.55 -4.65 -5.55 -3.8
L -5.55 0 -4.15 0 -4.15 -4.1
Q -4.15 -5.25 -4.75 -6.1 -5.35 -6.9 -6.6 -6.9 Z"/>
</g>

<g id="IT_728x90_psd_Asset_6_ManagedWiFi_IT_Awareness_DM7_4_footer_copy_3_Do_more_with__Wi_Fi_as_a_Service__copy_6_0_Layer0_0_MEMBER_10_FILL">
<path fill="#838282" stroke="none" d="
M -99.25 8.1
L -100.8 8.1 -103.05 16.1 -103.1 16.1 -105.25 8.1 -106.8 8.1 -103.9 18 -102.4 18 -100.05 9.95 -100 9.95 -97.65 18 -96.15 18 -93.25 8.1 -94.75 8.1 -96.95 16.1 -99.25 8.1 Z"/>
</g>

<g id="IT_728x90_psd_Asset_6_ManagedWiFi_IT_Awareness_DM7_4_footer_copy_3_Do_more_with__Wi_Fi_as_a_Service__copy_6_0_Layer0_0_MEMBER_11_FILL">
<path fill="#838282" stroke="none" d="
M -92.35 11.3
L -92.35 18 -91 18 -91 11.3 -92.35 11.3
M -90.8 8.8
Q -90.8 8.55 -91.05 8.2 -91.4 7.95 -91.65 7.95 -92 7.95 -92.25 8.2 -92.5 8.55 -92.5 8.8 -92.5 9.15 -92.25 9.4 -92 9.65 -91.65 9.65 -91.4 9.65 -91.05 9.4 -90.8 9.15 -90.8 8.8 Z"/>
</g>

<g id="IT_728x90_psd_Asset_6_ManagedWiFi_IT_Awareness_DM7_4_footer_copy_3_Do_more_with__Wi_Fi_as_a_Service__copy_6_0_Layer0_0_MEMBER_12_FILL">
<path fill="#838282" stroke="none" d="
M -89.6 13.85
L -89.6 14.95 -86.45 14.95 -86.45 13.85 -89.6 13.85 Z"/>
</g>

<g id="IT_728x90_psd_Asset_6_ManagedWiFi_IT_Awareness_DM7_4_footer_copy_3_Do_more_with__Wi_Fi_as_a_Service__copy_6_0_Layer0_0_MEMBER_13_FILL">
<path fill="#838282" stroke="none" d="
M -79.65 9.3
L -79.5 8.1 -85 8.1 -85 18 -83.6 18 -83.6 13.6 -79.95 13.6 -79.75 12.4 -83.6 12.4 -83.6 9.3 -79.65 9.3 Z"/>
</g>

<g id="IT_728x90_psd_Asset_6_ManagedWiFi_IT_Awareness_DM7_4_footer_copy_3_Do_more_with__Wi_Fi_as_a_Service__copy_6_0_Layer0_0_MEMBER_14_FILL">
<path fill="#838282" stroke="none" d="
M -77.1 11.3
L -78.45 11.3 -78.45 18 -77.1 18 -77.1 11.3
M -77.75 7.95
Q -78.1 7.95 -78.35 8.2 -78.6 8.55 -78.6 8.8 -78.6 9.15 -78.35 9.4 -78.1 9.65 -77.75 9.65 -77.5 9.65 -77.15 9.4 -76.9 9.15 -76.9 8.8 -76.9 8.55 -77.15 8.2 -77.5 7.95 -77.75 7.95 Z"/>
</g>

<g id="IT_728x90_psd_Asset_6_ManagedWiFi_IT_Awareness_DM7_4_footer_copy_3_Do_more_with__Wi_Fi_as_a_Service__copy_6_0_Layer0_0_MEMBER_15_FILL">
<path fill="#838282" stroke="none" d="
M -67.55 11.75
Q -68.25 11.1 -69.55 11.1 -71.1 11.1 -72.2 11.9
L -71.85 12.9
Q -71.55 12.6 -70.9 12.35 -70.25 12.1 -69.8 12.1 -69.1 12.1 -68.6 12.5 -68.15 12.9 -68.15 13.65
L -68.15 13.9 -68.75 13.9
Q -70.45 13.9 -71.45 14.4 -72.55 14.85 -72.55 16.15 -72.55 17.2 -71.95 17.65 -71.3 18.2 -70.5 18.2 -69.8 18.2 -69.1 17.85 -68.5 17.6 -68.15 16.9
L -68.1 16.9 -68 18 -66.75 18
Q -66.85 17.65 -66.85 16.6
L -66.85 13.8
Q -66.85 12.55 -67.55 11.75
M -70.95 16.95
Q -71.3 16.65 -71.3 16.1 -71.3 14.7 -68.7 14.7
L -68.1 14.7 -68.1 15.25
Q -68.1 15.7 -68.35 16.2 -68.55 16.65 -69.05 16.95 -69.55 17.2 -70.1 17.2 -70.6 17.2 -70.95 16.95 Z"/>
</g>

<g id="IT_728x90_psd_Asset_6_ManagedWiFi_IT_Awareness_DM7_4_footer_copy_3_Do_more_with__Wi_Fi_as_a_Service__copy_6_0_Layer0_0_MEMBER_16_FILL">
<path fill="#838282" stroke="none" d="
M -64.2 11.3
Q -64.75 11.55 -65.1 11.95 -65.45 12.35 -65.45 13.05 -65.45 13.85 -64.95 14.3 -64.5 14.7 -63.55 15 -62.75 15.2 -62.25 15.5 -61.9 15.7 -61.9 16.2 -61.9 16.7 -62.25 16.9 -62.55 17.15 -63.2 17.15 -64.35 17.15 -65.4 16.4
L -65.6 17.5
Q -65.2 17.75 -64.5 18 -63.6 18.2 -63.1 18.2 -62.5 18.2 -61.85 17.95 -61.2 17.65 -60.95 17.3 -60.6 16.8 -60.6 16.1 -60.6 15.3 -61.1 14.85 -61.75 14.4 -62.7 14.1 -63.55 13.85 -63.85 13.65 -64.2 13.45 -64.2 13 -64.2 12.55 -63.85 12.3 -63.5 12.1 -62.95 12.1 -62.55 12.1 -62.1 12.25
L -61.3 12.7 -60.8 11.8
Q -61.15 11.55 -61.75 11.3 -62.3 11.1 -63.05 11.1 -63.75 11.1 -64.2 11.3 Z"/>
</g>

<g id="IT_728x90_psd_Asset_6_ManagedWiFi_IT_Awareness_DM7_4_footer_copy_3_Do_more_with__Wi_Fi_as_a_Service__copy_6_0_Layer0_0_MEMBER_17_FILL">
<path fill="#838282" stroke="none" d="
M -54.95 12.35
Q -54.3 12.1 -53.85 12.1 -53.15 12.1 -52.65 12.5 -52.2 12.9 -52.2 13.65
L -52.2 13.9 -52.8 13.9
Q -54.5 13.9 -55.55 14.4 -56.65 14.85 -56.65 16.15 -56.65 17.15 -56 17.65 -55.35 18.2 -54.55 18.2 -53.85 18.2 -53.15 17.85 -52.55 17.6 -52.2 16.9
L -52.15 16.9 -52.15 17.4 -52.05 18 -50.8 18
Q -50.9 17.65 -50.9 16.6
L -50.9 13.8
Q -50.9 12.55 -51.6 11.75 -52.3 11.1 -53.6 11.1 -55.15 11.1 -56.25 11.9
L -55.9 12.9
Q -55.6 12.6 -54.95 12.35
M -52.2 14.7
L -52.2 15.25
Q -52.2 15.8 -52.4 16.2 -52.75 16.7 -53.1 16.95 -53.6 17.2 -54.15 17.2 -54.65 17.2 -55 16.95 -55.35 16.65 -55.35 16.1 -55.35 14.7 -52.75 14.7
L -52.2 14.7 Z"/>
</g>

<g id="IT_728x90_psd_Asset_6_ManagedWiFi_IT_Awareness_DM7_4_footer_copy_3_Do_more_with__Wi_Fi_as_a_Service__copy_6_0_Layer0_0_MEMBER_18_FILL">
<path fill="#838282" stroke="none" d="
M -40.5 9.8
L -40.05 8.65
Q -40.55 8.3 -41.35 8.05 -42.2 7.8 -42.9 7.8 -43.65 7.8 -44.55 8.15 -45.3 8.45 -45.8 9.1 -46.3 9.75 -46.3 10.7 -46.3 11.45 -45.9 12.1 -45.6 12.5 -45 12.95 -44.25 13.3 -43.6 13.5
L -42.35 14
Q -41.85 14.25 -41.6 14.55 -41.3 14.95 -41.3 15.4 -41.3 16.2 -41.9 16.65 -42.45 17.05 -43.3 17.05 -43.95 17.05 -44.8 16.75 -45.6 16.45 -46.15 15.95
L -46.4 17.25
Q -45.75 17.75 -44.95 18 -44.05 18.25 -43.2 18.25 -42.3 18.25 -41.6 17.9 -40.8 17.6 -40.35 16.9 -39.9 16.25 -39.9 15.25 -39.9 14.3 -40.3 13.85 -40.8 13.25 -41.3 13
L -42.85 12.4
Q -43.65 12.15 -43.95 11.95 -44.35 11.8 -44.6 11.45 -44.85 11.2 -44.85 10.6 -44.85 9.85 -44.25 9.4 -43.6 9 -42.85 9 -42.25 9 -41.6 9.25 -40.9 9.5 -40.5 9.8 Z"/>
</g>

<g id="IT_728x90_psd_Asset_6_ManagedWiFi_IT_Awareness_DM7_4_footer_copy_3_Do_more_with__Wi_Fi_as_a_Service__copy_6_0_Layer0_0_MEMBER_19_FILL">
<path fill="#838282" stroke="none" d="
M -35.4 11.1
Q -36.3 11.1 -37.15 11.55 -37.9 12 -38.35 12.8 -38.85 13.5 -38.85 14.6 -38.85 15.6 -38.35 16.5 -37.9 17.3 -37.1 17.75 -36.25 18.2 -35.3 18.2 -33.65 18.2 -32.55 17.4
L -32.75 16.35
Q -33.2 16.75 -33.85 16.9 -34.5 17.15 -35.15 17.15 -35.75 17.15 -36.35 16.85 -36.8 16.6 -37.2 16.05 -37.45 15.6 -37.55 14.95
L -32.15 14.95 -32.15 14.55
Q -32.15 13.4 -32.55 12.75 -32.95 11.9 -33.65 11.5 -34.45 11.1 -35.4 11.1
M -36.5 12.35
Q -35.95 12.05 -35.4 12.05 -34.5 12.05 -33.95 12.6 -33.4 13.25 -33.4 14.05
L -37.5 14.05
Q -37.5 13.6 -37.2 13.15 -37 12.7 -36.5 12.35 Z"/>
</g>

<g id="IT_728x90_psd_Asset_6_ManagedWiFi_IT_Awareness_DM7_4_footer_copy_3_Do_more_with__Wi_Fi_as_a_Service__copy_6_0_Layer0_0_MEMBER_20_FILL">
<path fill="#838282" stroke="none" d="
M -27.55 11.1
Q -28.1 11.1 -28.6 11.5 -29.1 11.9 -29.35 12.55
L -29.4 12.55 -29.45 11.3 -30.75 11.3 -30.7 18 -29.35 18 -29.35 14.6
Q -29.35 13.7 -28.9 13 -28.5 12.3 -27.65 12.3 -27.2 12.3 -27.05 12.4
L -26.85 11.2 -27.55 11.1 Z"/>
</g>

<g id="IT_728x90_psd_Asset_6_ManagedWiFi_IT_Awareness_DM7_4_footer_copy_3_Do_more_with__Wi_Fi_as_a_Service__copy_6_0_Layer0_0_MEMBER_21_FILL">
<path fill="#838282" stroke="none" d="
M -27.15 11.3
L -24.55 18 -23.05 18 -20.5 11.3 -21.9 11.3 -23.8 16.6 -25.65 11.3 -27.15 11.3 Z"/>
</g>

<g id="IT_728x90_psd_Asset_6_ManagedWiFi_IT_Awareness_DM7_4_footer_copy_3_Do_more_with__Wi_Fi_as_a_Service__copy_6_0_Layer0_0_MEMBER_22_FILL">
<path fill="#838282" stroke="none" d="
M -18.3 11.3
L -19.65 11.3 -19.65 18 -18.3 18 -18.3 11.3
M -19.55 8.2
Q -19.8 8.45 -19.8 8.8 -19.8 9.2 -19.55 9.4 -19.3 9.65 -18.95 9.65 -18.65 9.65 -18.4 9.4 -18.15 9.2 -18.15 8.8 -18.15 8.45 -18.4 8.2 -18.65 7.95 -18.95 7.95 -19.3 7.95 -19.55 8.2 Z"/>
</g>

<g id="IT_728x90_psd_Asset_6_ManagedWiFi_IT_Awareness_DM7_4_footer_copy_3_Do_more_with__Wi_Fi_as_a_Service__copy_6_0_Layer0_0_MEMBER_23_FILL">
<path fill="#838282" stroke="none" d="
M -13.25 11.1
Q -14.25 11.1 -15.1 11.55 -15.85 11.95 -16.4 12.8 -16.85 13.65 -16.85 14.65 -16.85 15.7 -16.4 16.5 -16 17.25 -15.1 17.75 -14.35 18.2 -13.35 18.2 -12.65 18.2 -12 17.95 -11.25 17.7 -10.95 17.4
L -11.15 16.3
Q -11.65 16.7 -12.05 16.85 -12.45 17.05 -13.15 17.05 -13.85 17.05 -14.35 16.7 -14.9 16.4 -15.2 15.85 -15.45 15.25 -15.45 14.65 -15.45 14.05 -15.2 13.45 -14.9 12.85 -14.4 12.55 -13.8 12.2 -13.25 12.2 -12.7 12.2 -12.25 12.4 -11.85 12.55 -11.45 12.85
L -10.95 11.85
Q -11.25 11.55 -11.95 11.3 -12.55 11.1 -13.25 11.1 Z"/>
</g>

<g id="IT_728x90_psd_Asset_6_ManagedWiFi_IT_Awareness_DM7_4_footer_copy_3_Do_more_with__Wi_Fi_as_a_Service__copy_6_0_Layer0_0_MEMBER_24_FILL">
<path fill="#838282" stroke="none" d="
M -6.95 11.1
Q -7.9 11.1 -8.65 11.55 -9.45 12 -9.9 12.8 -10.35 13.55 -10.35 14.6 -10.35 15.7 -9.9 16.5 -9.5 17.25 -8.65 17.75 -7.8 18.2 -6.8 18.2 -5.2 18.2 -4.1 17.4
L -4.3 16.35
Q -4.8 16.75 -5.35 16.9 -6 17.15 -6.65 17.15 -7.3 17.15 -7.85 16.85 -8.45 16.5 -8.7 16.05 -9.05 15.45 -9.05 14.95
L -3.7 14.95 -3.65 14.55
Q -3.65 13.55 -4.05 12.75 -4.45 11.95 -5.2 11.5 -6 11.1 -6.95 11.1
M -8 12.35
Q -7.55 12.05 -6.9 12.05 -6.05 12.05 -5.5 12.6 -4.95 13.25 -4.95 14.05
L -9.05 14.05
Q -8.95 13.45 -8.75 13.15 -8.55 12.65 -8 12.35 Z"/>
</g>

<g id="IT_728x90_psd_Asset_6_ManagedWiFi_IT_Awareness_DM7_4_footer_copy_3_Do_more_with__Wi_Fi_as_a_Service__copy_6_0_Layer0_0_MEMBER_25_FILL">
<path fill="#838282" stroke="none" d="
M -2.15 17.85
Q -1.8 18.1 -1.5 18.1 -1.1 18.1 -0.85 17.85 -0.55 17.65 -0.55 17.2 -0.55 16.85 -0.85 16.55 -1.1 16.3 -1.5 16.3 -1.8 16.3 -2.15 16.55 -2.4 16.9 -2.4 17.2 -2.4 17.5 -2.15 17.85 Z"/>
</g>
</defs>

<g transform="matrix( 1, 0, 0, 1, -261,-59) ">
<g transform="matrix( 1, 0, 0, 1, 261,72) ">
<g transform="matrix( 1, 0, 0, 1, 25,8) ">
<g transform="matrix( 2.6895904541015625, 0, 0, 2.672393798828125, -0.85,19.55) ">
<use xlink:href="#IT_728x90_psd_Asset_6_ManagedWiFi_IT_Awareness_DM7_4_Learn_more_about_the__solutions_that_are_available__0_Layer0_0_MEMBER_0_FILL"/>
</g>

<g transform="matrix( 2.6895904541015625, 0, 0, 2.672393798828125, -0.85,19.55) ">
<use xlink:href="#IT_728x90_psd_Asset_6_ManagedWiFi_IT_Awareness_DM7_4_Learn_more_about_the__solutions_that_are_available__0_Layer0_0_MEMBER_1_FILL"/>
</g>

<g transform="matrix( 2.6895904541015625, 0, 0, 2.672393798828125, -0.85,19.55) ">
<use xlink:href="#IT_728x90_psd_Asset_6_ManagedWiFi_IT_Awareness_DM7_4_Learn_more_about_the__solutions_that_are_available__0_Layer0_0_MEMBER_2_FILL"/>
</g>

<g transform="matrix( 2.6895904541015625, 0, 0, 2.672393798828125, -0.85,19.55) ">
<use xlink:href="#IT_728x90_psd_Asset_6_ManagedWiFi_IT_Awareness_DM7_4_Learn_more_about_the__solutions_that_are_available__0_Layer0_0_MEMBER_3_FILL"/>
</g>

<g transform="matrix( 2.6895904541015625, 0, 0, 2.672393798828125, -0.85,19.55) ">
<use xlink:href="#IT_728x90_psd_Asset_6_ManagedWiFi_IT_Awareness_DM7_4_Learn_more_about_the__solutions_that_are_available__0_Layer0_0_MEMBER_4_FILL"/>
</g>

<g transform="matrix( 2.6895904541015625, 0, 0, 2.672393798828125, -0.85,19.55) ">
<use xlink:href="#IT_728x90_psd_Asset_6_ManagedWiFi_IT_Awareness_DM7_4_Learn_more_about_the__solutions_that_are_available__0_Layer0_0_MEMBER_5_FILL"/>
</g>

<g transform="matrix( 2.6895904541015625, 0, 0, 2.672393798828125, -0.85,19.55) ">
<use xlink:href="#IT_728x90_psd_Asset_6_ManagedWiFi_IT_Awareness_DM7_4_Learn_more_about_the__solutions_that_are_available__0_Layer0_0_MEMBER_6_FILL"/>
</g>

<g transform="matrix( 2.6895904541015625, 0, 0, 2.672393798828125, -0.85,19.55) ">
<use xlink:href="#IT_728x90_psd_Asset_6_ManagedWiFi_IT_Awareness_DM7_4_Learn_more_about_the__solutions_that_are_available__0_Layer0_0_MEMBER_7_FILL"/>
</g>

<g transform="matrix( 2.6895904541015625, 0, 0, 2.672393798828125, -0.85,19.55) ">
<use xlink:href="#IT_728x90_psd_Asset_6_ManagedWiFi_IT_Awareness_DM7_4_Learn_more_about_the__solutions_that_are_available__0_Layer0_0_MEMBER_8_FILL"/>
</g>

<g transform="matrix( 2.6895904541015625, 0, 0, 2.672393798828125, -0.85,19.55) ">
<use xlink:href="#IT_728x90_psd_Asset_6_ManagedWiFi_IT_Awareness_DM7_4_Learn_more_about_the__solutions_that_are_available__0_Layer0_0_MEMBER_9_FILL"/>
</g>

<g transform="matrix( 2.6895904541015625, 0, 0, 2.672393798828125, -0.85,19.55) ">
<use xlink:href="#IT_728x90_psd_Asset_6_ManagedWiFi_IT_Awareness_DM7_4_Learn_more_about_the__solutions_that_are_available__0_Layer0_0_MEMBER_10_FILL"/>
</g>

<g transform="matrix( 2.6895904541015625, 0, 0, 2.672393798828125, -0.85,19.55) ">
<use xlink:href="#IT_728x90_psd_Asset_6_ManagedWiFi_IT_Awareness_DM7_4_Learn_more_about_the__solutions_that_are_available__0_Layer0_0_MEMBER_11_FILL"/>
</g>

<g transform="matrix( 2.6895904541015625, 0, 0, 2.672393798828125, -0.85,19.55) ">
<use xlink:href="#IT_728x90_psd_Asset_6_ManagedWiFi_IT_Awareness_DM7_4_Learn_more_about_the__solutions_that_are_available__0_Layer0_0_MEMBER_12_FILL"/>
</g>

<g transform="matrix( 2.6895904541015625, 0, 0, 2.672393798828125, -0.85,19.55) ">
<use xlink:href="#IT_728x90_psd_Asset_6_ManagedWiFi_IT_Awareness_DM7_4_Learn_more_about_the__solutions_that_are_available__0_Layer0_0_MEMBER_13_FILL"/>
</g>

<g transform="matrix( 2.6895904541015625, 0, 0, 2.672393798828125, -0.85,19.55) ">
<use xlink:href="#IT_728x90_psd_Asset_6_ManagedWiFi_IT_Awareness_DM7_4_Learn_more_about_the__solutions_that_are_available__0_Layer0_0_MEMBER_14_FILL"/>
</g>

<g transform="matrix( 2.6895904541015625, 0, 0, 2.672393798828125, -0.85,19.55) ">
<use xlink:href="#IT_728x90_psd_Asset_6_ManagedWiFi_IT_Awareness_DM7_4_Learn_more_about_the__solutions_that_are_available__0_Layer0_0_MEMBER_15_FILL"/>
</g>

<g transform="matrix( 2.6895904541015625, 0, 0, 2.672393798828125, -0.85,19.55) ">
<use xlink:href="#IT_728x90_psd_Asset_6_ManagedWiFi_IT_Awareness_DM7_4_Learn_more_about_the__solutions_that_are_available__0_Layer0_0_MEMBER_16_FILL"/>
</g>

<g transform="matrix( 2.6895904541015625, 0, 0, 2.672393798828125, -0.85,19.55) ">
<use xlink:href="#IT_728x90_psd_Asset_6_ManagedWiFi_IT_Awareness_DM7_4_Learn_more_about_the__solutions_that_are_available__0_Layer0_0_MEMBER_17_FILL"/>
</g>

<g transform="matrix( 2.6895904541015625, 0, 0, 2.672393798828125, -0.85,19.55) ">
<use xlink:href="#IT_728x90_psd_Asset_6_ManagedWiFi_IT_Awareness_DM7_4_Learn_more_about_the__solutions_that_are_available__0_Layer0_0_MEMBER_18_FILL"/>
</g>

<g transform="matrix( 2.6895904541015625, 0, 0, 2.672393798828125, -0.85,19.55) ">
<use xlink:href="#IT_728x90_psd_Asset_6_ManagedWiFi_IT_Awareness_DM7_4_Learn_more_about_the__solutions_that_are_available__0_Layer0_0_MEMBER_19_FILL"/>
</g>

<g transform="matrix( 2.6895904541015625, 0, 0, 2.672393798828125, -0.85,19.55) ">
<use xlink:href="#IT_728x90_psd_Asset_6_ManagedWiFi_IT_Awareness_DM7_4_Learn_more_about_the__solutions_that_are_available__0_Layer0_0_MEMBER_20_FILL"/>
</g>

<g transform="matrix( 2.6895904541015625, 0, 0, 2.672393798828125, -0.85,19.55) ">
<use xlink:href="#IT_728x90_psd_Asset_6_ManagedWiFi_IT_Awareness_DM7_4_Learn_more_about_the__solutions_that_are_available__0_Layer0_0_MEMBER_21_FILL"/>
</g>

<g transform="matrix( 2.6895904541015625, 0, 0, 2.672393798828125, -0.85,19.55) ">
<use xlink:href="#IT_728x90_psd_Asset_6_ManagedWiFi_IT_Awareness_DM7_4_Learn_more_about_the__solutions_that_are_available__0_Layer0_0_MEMBER_22_FILL"/>
</g>

<g transform="matrix( 2.6895904541015625, 0, 0, 2.672393798828125, -0.85,19.55) ">
<use xlink:href="#IT_728x90_psd_Asset_6_ManagedWiFi_IT_Awareness_DM7_4_Learn_more_about_the__solutions_that_are_available__0_Layer0_0_MEMBER_23_FILL"/>
</g>

<g transform="matrix( 2.6895904541015625, 0, 0, 2.672393798828125, -0.85,19.55) ">
<use xlink:href="#IT_728x90_psd_Asset_6_ManagedWiFi_IT_Awareness_DM7_4_Learn_more_about_the__solutions_that_are_available__0_Layer0_0_MEMBER_24_FILL"/>
</g>

<g transform="matrix( 2.6895904541015625, 0, 0, 2.672393798828125, -0.85,19.55) ">
<use xlink:href="#IT_728x90_psd_Asset_6_ManagedWiFi_IT_Awareness_DM7_4_Learn_more_about_the__solutions_that_are_available__0_Layer0_0_MEMBER_25_FILL"/>
</g>

<g transform="matrix( 2.6895904541015625, 0, 0, 2.672393798828125, -0.85,19.55) ">
<use xlink:href="#IT_728x90_psd_Asset_6_ManagedWiFi_IT_Awareness_DM7_4_Learn_more_about_the__solutions_that_are_available__0_Layer0_0_MEMBER_26_FILL"/>
</g>

<g transform="matrix( 2.6895904541015625, 0, 0, 2.672393798828125, -0.85,19.55) ">
<use xlink:href="#IT_728x90_psd_Asset_6_ManagedWiFi_IT_Awareness_DM7_4_Learn_more_about_the__solutions_that_are_available__0_Layer0_0_MEMBER_27_FILL"/>
</g>

<g transform="matrix( 2.6895904541015625, 0, 0, 2.672393798828125, -0.85,19.55) ">
<use xlink:href="#IT_728x90_psd_Asset_6_ManagedWiFi_IT_Awareness_DM7_4_Learn_more_about_the__solutions_that_are_available__0_Layer0_0_MEMBER_28_FILL"/>
</g>

<g transform="matrix( 2.6895904541015625, 0, 0, 2.672393798828125, -0.85,19.55) ">
<use xlink:href="#IT_728x90_psd_Asset_6_ManagedWiFi_IT_Awareness_DM7_4_Learn_more_about_the__solutions_that_are_available__0_Layer0_0_MEMBER_29_FILL"/>
</g>

<g transform="matrix( 2.6895904541015625, 0, 0, 2.672393798828125, -0.85,19.55) ">
<use xlink:href="#IT_728x90_psd_Asset_6_ManagedWiFi_IT_Awareness_DM7_4_Learn_more_about_the__solutions_that_are_available__0_Layer0_0_MEMBER_30_FILL"/>
</g>

<g transform="matrix( 2.6895904541015625, 0, 0, 2.672393798828125, -0.85,19.55) ">
<use xlink:href="#IT_728x90_psd_Asset_6_ManagedWiFi_IT_Awareness_DM7_4_Learn_more_about_the__solutions_that_are_available__0_Layer0_0_MEMBER_31_FILL"/>
</g>

<g transform="matrix( 2.6895904541015625, 0, 0, 2.672393798828125, -0.85,19.55) ">
<use xlink:href="#IT_728x90_psd_Asset_6_ManagedWiFi_IT_Awareness_DM7_4_Learn_more_about_the__solutions_that_are_available__0_Layer0_0_MEMBER_32_FILL"/>
</g>

<g transform="matrix( 2.6895904541015625, 0, 0, 2.672393798828125, -0.85,19.55) ">
<use xlink:href="#IT_728x90_psd_Asset_6_ManagedWiFi_IT_Awareness_DM7_4_Learn_more_about_the__solutions_that_are_available__0_Layer0_0_MEMBER_33_FILL"/>
</g>

<g transform="matrix( 2.6895904541015625, 0, 0, 2.672393798828125, -0.85,19.55) ">
<use xlink:href="#IT_728x90_psd_Asset_6_ManagedWiFi_IT_Awareness_DM7_4_Learn_more_about_the__solutions_that_are_available__0_Layer0_0_MEMBER_34_FILL"/>
</g>

<g transform="matrix( 2.6895904541015625, 0, 0, 2.672393798828125, -0.85,19.55) ">
<use xlink:href="#IT_728x90_psd_Asset_6_ManagedWiFi_IT_Awareness_DM7_4_Learn_more_about_the__solutions_that_are_available__0_Layer0_0_MEMBER_35_FILL"/>
</g>

<g transform="matrix( 2.6895904541015625, 0, 0, 2.672393798828125, -0.85,19.55) ">
<use xlink:href="#IT_728x90_psd_Asset_6_ManagedWiFi_IT_Awareness_DM7_4_Learn_more_about_the__solutions_that_are_available__0_Layer0_0_MEMBER_36_FILL"/>
</g>

<g transform="matrix( 2.6895904541015625, 0, 0, 2.672393798828125, -0.85,19.55) ">
<use xlink:href="#IT_728x90_psd_Asset_6_ManagedWiFi_IT_Awareness_DM7_4_Learn_more_about_the__solutions_that_are_available__0_Layer0_0_MEMBER_37_FILL"/>
</g>

<g transform="matrix( 2.6895904541015625, 0, 0, 2.672393798828125, -0.85,19.55) ">
<use xlink:href="#IT_728x90_psd_Asset_6_ManagedWiFi_IT_Awareness_DM7_4_Learn_more_about_the__solutions_that_are_available__0_Layer0_0_MEMBER_38_FILL"/>
</g>

<g transform="matrix( 2.6895904541015625, 0, 0, 2.672393798828125, -0.85,19.55) ">
<use xlink:href="#IT_728x90_psd_Asset_6_ManagedWiFi_IT_Awareness_DM7_4_Learn_more_about_the__solutions_that_are_available__0_Layer0_0_MEMBER_39_FILL"/>
</g>

<g transform="matrix( 2.6895904541015625, 0, 0, 2.672393798828125, -0.85,19.55) ">
<use xlink:href="#IT_728x90_psd_Asset_6_ManagedWiFi_IT_Awareness_DM7_4_Learn_more_about_the__solutions_that_are_available__0_Layer0_0_MEMBER_40_FILL"/>
</g>

<g transform="matrix( 2.6895904541015625, 0, 0, 2.672393798828125, -0.85,19.55) ">
<use xlink:href="#IT_728x90_psd_Asset_6_ManagedWiFi_IT_Awareness_DM7_4_Learn_more_about_the__solutions_that_are_available__0_Layer0_0_MEMBER_41_FILL"/>
</g>

<g transform="matrix( 2.6895904541015625, 0, 0, 2.672393798828125, -0.85,19.55) ">
<use xlink:href="#IT_728x90_psd_Asset_6_ManagedWiFi_IT_Awareness_DM7_4_Learn_more_about_the__solutions_that_are_available__0_Layer0_0_MEMBER_42_FILL"/>
</g>
</g>

<g transform="matrix( 1, 0, 0, 1, 350,16) ">
<g transform="matrix( 1, 0, 0, 1, 42,0) ">
<g transform="matrix( 0.67095947265625, 0, 0, 0.677734375, -0.05,12.5) ">
<use xlink:href="#IT_728x90_psd_Asset_6_ManagedWiFi_IT_Awareness_DM7_4_CTA_copy_11_Watch_the_IDC_point_of__view_on_being_prepared__0_Layer0_0_MEMBER_0_FILL"/>
</g>

<g transform="matrix( 0.67095947265625, 0, 0, 0.677734375, -0.05,12.5) ">
<use xlink:href="#IT_728x90_psd_Asset_6_ManagedWiFi_IT_Awareness_DM7_4_CTA_copy_11_Watch_the_IDC_point_of__view_on_being_prepared__0_Layer0_0_MEMBER_1_FILL"/>
</g>

<g transform="matrix( 0.67095947265625, 0, 0, 0.677734375, -0.05,12.5) ">
<use xlink:href="#IT_728x90_psd_Asset_6_ManagedWiFi_IT_Awareness_DM7_4_CTA_copy_11_Watch_the_IDC_point_of__view_on_being_prepared__0_Layer0_0_MEMBER_2_FILL"/>
</g>

<g transform="matrix( 0.67095947265625, 0, 0, 0.677734375, -0.05,12.5) ">
<use xlink:href="#IT_728x90_psd_Asset_6_ManagedWiFi_IT_Awareness_DM7_4_CTA_copy_11_Watch_the_IDC_point_of__view_on_being_prepared__0_Layer0_0_MEMBER_3_FILL"/>
</g>

<g transform="matrix( 0.67095947265625, 0, 0, 0.677734375, -0.05,12.5) ">
<use xlink:href="#IT_728x90_psd_Asset_6_ManagedWiFi_IT_Awareness_DM7_4_CTA_copy_11_Watch_the_IDC_point_of__view_on_being_prepared__0_Layer0_0_MEMBER_4_FILL"/>
</g>

<g transform="matrix( 0.67095947265625, 0, 0, 0.677734375, -0.05,12.5) ">
<use xlink:href="#IT_728x90_psd_Asset_6_ManagedWiFi_IT_Awareness_DM7_4_CTA_copy_11_Watch_the_IDC_point_of__view_on_being_prepared__0_Layer0_0_MEMBER_5_FILL"/>
</g>

<g transform="matrix( 0.67095947265625, 0, 0, 0.677734375, -0.05,12.5) ">
<use xlink:href="#IT_728x90_psd_Asset_6_ManagedWiFi_IT_Awareness_DM7_4_CTA_copy_11_Watch_the_IDC_point_of__view_on_being_prepared__0_Layer0_0_MEMBER_6_FILL"/>
</g>

<g transform="matrix( 0.67095947265625, 0, 0, 0.677734375, -0.05,12.5) ">
<use xlink:href="#IT_728x90_psd_Asset_6_ManagedWiFi_IT_Awareness_DM7_4_CTA_copy_11_Watch_the_IDC_point_of__view_on_being_prepared__0_Layer0_0_MEMBER_7_FILL"/>
</g>

<g transform="matrix( 0.67095947265625, 0, 0, 0.677734375, -0.05,12.5) ">
<use xlink:href="#IT_728x90_psd_Asset_6_ManagedWiFi_IT_Awareness_DM7_4_CTA_copy_11_Watch_the_IDC_point_of__view_on_being_prepared__0_Layer0_0_MEMBER_8_FILL"/>
</g>

<g transform="matrix( 0.67095947265625, 0, 0, 0.677734375, -0.05,12.5) ">
<use xlink:href="#IT_728x90_psd_Asset_6_ManagedWiFi_IT_Awareness_DM7_4_CTA_copy_11_Watch_the_IDC_point_of__view_on_being_prepared__0_Layer0_0_MEMBER_9_FILL"/>
</g>

<g transform="matrix( 0.67095947265625, 0, 0, 0.677734375, -0.05,12.5) ">
<use xlink:href="#IT_728x90_psd_Asset_6_ManagedWiFi_IT_Awareness_DM7_4_CTA_copy_11_Watch_the_IDC_point_of__view_on_being_prepared__0_Layer0_0_MEMBER_10_FILL"/>
</g>

<g transform="matrix( 0.67095947265625, 0, 0, 0.677734375, -0.05,12.5) ">
<use xlink:href="#IT_728x90_psd_Asset_6_ManagedWiFi_IT_Awareness_DM7_4_CTA_copy_11_Watch_the_IDC_point_of__view_on_being_prepared__0_Layer0_0_MEMBER_11_FILL"/>
</g>

<g transform="matrix( 0.67095947265625, 0, 0, 0.677734375, -0.05,12.5) ">
<use xlink:href="#IT_728x90_psd_Asset_6_ManagedWiFi_IT_Awareness_DM7_4_CTA_copy_11_Watch_the_IDC_point_of__view_on_being_prepared__0_Layer0_0_MEMBER_12_FILL"/>
</g>

<g transform="matrix( 0.67095947265625, 0, 0, 0.677734375, -0.05,12.5) ">
<use xlink:href="#IT_728x90_psd_Asset_6_ManagedWiFi_IT_Awareness_DM7_4_CTA_copy_11_Watch_the_IDC_point_of__view_on_being_prepared__0_Layer0_0_MEMBER_13_FILL"/>
</g>

<g transform="matrix( 0.67095947265625, 0, 0, 0.677734375, -0.05,12.5) ">
<use xlink:href="#IT_728x90_psd_Asset_6_ManagedWiFi_IT_Awareness_DM7_4_CTA_copy_11_Watch_the_IDC_point_of__view_on_being_prepared__0_Layer0_0_MEMBER_14_FILL"/>
</g>

<g transform="matrix( 0.67095947265625, 0, 0, 0.677734375, -0.05,12.5) ">
<use xlink:href="#IT_728x90_psd_Asset_6_ManagedWiFi_IT_Awareness_DM7_4_CTA_copy_11_Watch_the_IDC_point_of__view_on_being_prepared__0_Layer0_0_MEMBER_15_FILL"/>
</g>

<g transform="matrix( 0.67095947265625, 0, 0, 0.677734375, -0.05,12.5) ">
<use xlink:href="#IT_728x90_psd_Asset_6_ManagedWiFi_IT_Awareness_DM7_4_CTA_copy_11_Watch_the_IDC_point_of__view_on_being_prepared__0_Layer0_0_MEMBER_16_FILL"/>
</g>

<g transform="matrix( 0.67095947265625, 0, 0, 0.677734375, -0.05,12.5) ">
<use xlink:href="#IT_728x90_psd_Asset_6_ManagedWiFi_IT_Awareness_DM7_4_CTA_copy_11_Watch_the_IDC_point_of__view_on_being_prepared__0_Layer0_0_MEMBER_17_FILL"/>
</g>

<g transform="matrix( 0.67095947265625, 0, 0, 0.677734375, -0.05,12.5) ">
<use xlink:href="#IT_728x90_psd_Asset_6_ManagedWiFi_IT_Awareness_DM7_4_CTA_copy_11_Watch_the_IDC_point_of__view_on_being_prepared__0_Layer0_0_MEMBER_18_FILL"/>
</g>

<g transform="matrix( 0.67095947265625, 0, 0, 0.677734375, -0.05,12.5) ">
<use xlink:href="#IT_728x90_psd_Asset_6_ManagedWiFi_IT_Awareness_DM7_4_CTA_copy_11_Watch_the_IDC_point_of__view_on_being_prepared__0_Layer0_0_MEMBER_19_FILL"/>
</g>

<g transform="matrix( 0.67095947265625, 0, 0, 0.677734375, -0.05,12.5) ">
<use xlink:href="#IT_728x90_psd_Asset_6_ManagedWiFi_IT_Awareness_DM7_4_CTA_copy_11_Watch_the_IDC_point_of__view_on_being_prepared__0_Layer0_0_MEMBER_20_FILL"/>
</g>

<g transform="matrix( 0.67095947265625, 0, 0, 0.677734375, -0.05,12.5) ">
<use xlink:href="#IT_728x90_psd_Asset_6_ManagedWiFi_IT_Awareness_DM7_4_CTA_copy_11_Watch_the_IDC_point_of__view_on_being_prepared__0_Layer0_0_MEMBER_21_FILL"/>
</g>

<g transform="matrix( 0.67095947265625, 0, 0, 0.677734375, -0.05,12.5) ">
<use xlink:href="#IT_728x90_psd_Asset_6_ManagedWiFi_IT_Awareness_DM7_4_CTA_copy_11_Watch_the_IDC_point_of__view_on_being_prepared__0_Layer0_0_MEMBER_22_FILL"/>
</g>

<g transform="matrix( 0.67095947265625, 0, 0, 0.677734375, -0.05,12.5) ">
<use xlink:href="#IT_728x90_psd_Asset_6_ManagedWiFi_IT_Awareness_DM7_4_CTA_copy_11_Watch_the_IDC_point_of__view_on_being_prepared__0_Layer0_0_MEMBER_23_FILL"/>
</g>

<g transform="matrix( 0.67095947265625, 0, 0, 0.677734375, -0.05,12.5) ">
<use xlink:href="#IT_728x90_psd_Asset_6_ManagedWiFi_IT_Awareness_DM7_4_CTA_copy_11_Watch_the_IDC_point_of__view_on_being_prepared__0_Layer0_0_MEMBER_24_FILL"/>
</g>

<g transform="matrix( 0.67095947265625, 0, 0, 0.677734375, -0.05,12.5) ">
<use xlink:href="#IT_728x90_psd_Asset_6_ManagedWiFi_IT_Awareness_DM7_4_CTA_copy_11_Watch_the_IDC_point_of__view_on_being_prepared__0_Layer0_0_MEMBER_25_FILL"/>
</g>

<g transform="matrix( 0.67095947265625, 0, 0, 0.677734375, -0.05,12.5) ">
<use xlink:href="#IT_728x90_psd_Asset_6_ManagedWiFi_IT_Awareness_DM7_4_CTA_copy_11_Watch_the_IDC_point_of__view_on_being_prepared__0_Layer0_0_MEMBER_26_FILL"/>
</g>

<g transform="matrix( 0.67095947265625, 0, 0, 0.677734375, -0.05,12.5) ">
<use xlink:href="#IT_728x90_psd_Asset_6_ManagedWiFi_IT_Awareness_DM7_4_CTA_copy_11_Watch_the_IDC_point_of__view_on_being_prepared__0_Layer0_0_MEMBER_27_FILL"/>
</g>

<g transform="matrix( 0.67095947265625, 0, 0, 0.677734375, -0.05,12.5) ">
<use xlink:href="#IT_728x90_psd_Asset_6_ManagedWiFi_IT_Awareness_DM7_4_CTA_copy_11_Watch_the_IDC_point_of__view_on_being_prepared__0_Layer0_0_MEMBER_28_FILL"/>
</g>

<g transform="matrix( 0.67095947265625, 0, 0, 0.677734375, -0.05,12.5) ">
<use xlink:href="#IT_728x90_psd_Asset_6_ManagedWiFi_IT_Awareness_DM7_4_CTA_copy_11_Watch_the_IDC_point_of__view_on_being_prepared__0_Layer0_0_MEMBER_29_FILL"/>
</g>

<g transform="matrix( 0.67095947265625, 0, 0, 0.677734375, -0.05,12.5) ">
<use xlink:href="#IT_728x90_psd_Asset_6_ManagedWiFi_IT_Awareness_DM7_4_CTA_copy_11_Watch_the_IDC_point_of__view_on_being_prepared__0_Layer0_0_MEMBER_30_FILL"/>
</g>

<g transform="matrix( 0.67095947265625, 0, 0, 0.677734375, -0.05,12.5) ">
<use xlink:href="#IT_728x90_psd_Asset_6_ManagedWiFi_IT_Awareness_DM7_4_CTA_copy_11_Watch_the_IDC_point_of__view_on_being_prepared__0_Layer0_0_MEMBER_31_FILL"/>
</g>

<g transform="matrix( 0.67095947265625, 0, 0, 0.677734375, -0.05,12.5) ">
<use xlink:href="#IT_728x90_psd_Asset_6_ManagedWiFi_IT_Awareness_DM7_4_CTA_copy_11_Watch_the_IDC_point_of__view_on_being_prepared__0_Layer0_0_MEMBER_32_FILL"/>
</g>

<g transform="matrix( 0.67095947265625, 0, 0, 0.677734375, -0.05,12.5) ">
<use xlink:href="#IT_728x90_psd_Asset_6_ManagedWiFi_IT_Awareness_DM7_4_CTA_copy_11_Watch_the_IDC_point_of__view_on_being_prepared__0_Layer0_0_MEMBER_33_FILL"/>
</g>

<g transform="matrix( 0.67095947265625, 0, 0, 0.677734375, -0.05,12.5) ">
<use xlink:href="#IT_728x90_psd_Asset_6_ManagedWiFi_IT_Awareness_DM7_4_CTA_copy_11_Watch_the_IDC_point_of__view_on_being_prepared__0_Layer0_0_MEMBER_34_FILL"/>
</g>

<g transform="matrix( 0.67095947265625, 0, 0, 0.677734375, -0.05,12.5) ">
<use xlink:href="#IT_728x90_psd_Asset_6_ManagedWiFi_IT_Awareness_DM7_4_CTA_copy_11_Watch_the_IDC_point_of__view_on_being_prepared__0_Layer0_0_MEMBER_35_FILL"/>
</g>

<g transform="matrix( 0.67095947265625, 0, 0, 0.677734375, -0.05,12.5) ">
<use xlink:href="#IT_728x90_psd_Asset_6_ManagedWiFi_IT_Awareness_DM7_4_CTA_copy_11_Watch_the_IDC_point_of__view_on_being_prepared__0_Layer0_0_MEMBER_36_FILL"/>
</g>

<g transform="matrix( 0.67095947265625, 0, 0, 0.677734375, -0.05,12.5) ">
<use xlink:href="#IT_728x90_psd_Asset_6_ManagedWiFi_IT_Awareness_DM7_4_CTA_copy_11_Watch_the_IDC_point_of__view_on_being_prepared__0_Layer0_0_MEMBER_37_FILL"/>
</g>
</g>
</g>

<g transform="matrix( 1, 0, 0, 1, 604,12) ">
<g transform="matrix( 1, 0, 0, 1, 0,0) ">
<g transform="matrix( 1.00018310546875, 0, 0, 1.00018310546875, 107.25,10.8) ">
<use xlink:href="#IT_728x90_psd_Asset_6_ManagedWiFi_IT_Awareness_DM7_4_footer_copy_3_Do_more_with__Wi_Fi_as_a_Service__copy_6_0_Layer0_0_MEMBER_0_FILL"/>
</g>

<g transform="matrix( 1.00018310546875, 0, 0, 1.00018310546875, 107.25,10.8) ">
<use xlink:href="#IT_728x90_psd_Asset_6_ManagedWiFi_IT_Awareness_DM7_4_footer_copy_3_Do_more_with__Wi_Fi_as_a_Service__copy_6_0_Layer0_0_MEMBER_1_FILL"/>
</g>

<g transform="matrix( 1.00018310546875, 0, 0, 1.00018310546875, 107.25,10.8) ">
<use xlink:href="#IT_728x90_psd_Asset_6_ManagedWiFi_IT_Awareness_DM7_4_footer_copy_3_Do_more_with__Wi_Fi_as_a_Service__copy_6_0_Layer0_0_MEMBER_2_FILL"/>
</g>

<g transform="matrix( 1.00018310546875, 0, 0, 1.00018310546875, 107.25,10.8) ">
<use xlink:href="#IT_728x90_psd_Asset_6_ManagedWiFi_IT_Awareness_DM7_4_footer_copy_3_Do_more_with__Wi_Fi_as_a_Service__copy_6_0_Layer0_0_MEMBER_3_FILL"/>
</g>

<g transform="matrix( 1.00018310546875, 0, 0, 1.00018310546875, 107.25,10.8) ">
<use xlink:href="#IT_728x90_psd_Asset_6_ManagedWiFi_IT_Awareness_DM7_4_footer_copy_3_Do_more_with__Wi_Fi_as_a_Service__copy_6_0_Layer0_0_MEMBER_4_FILL"/>
</g>

<g transform="matrix( 1.00018310546875, 0, 0, 1.00018310546875, 107.25,10.8) ">
<use xlink:href="#IT_728x90_psd_Asset_6_ManagedWiFi_IT_Awareness_DM7_4_footer_copy_3_Do_more_with__Wi_Fi_as_a_Service__copy_6_0_Layer0_0_MEMBER_5_FILL"/>
</g>

<g transform="matrix( 1.00018310546875, 0, 0, 1.00018310546875, 107.25,10.8) ">
<use xlink:href="#IT_728x90_psd_Asset_6_ManagedWiFi_IT_Awareness_DM7_4_footer_copy_3_Do_more_with__Wi_Fi_as_a_Service__copy_6_0_Layer0_0_MEMBER_6_FILL"/>
</g>

<g transform="matrix( 1.00018310546875, 0, 0, 1.00018310546875, 107.25,10.8) ">
<use xlink:href="#IT_728x90_psd_Asset_6_ManagedWiFi_IT_Awareness_DM7_4_footer_copy_3_Do_more_with__Wi_Fi_as_a_Service__copy_6_0_Layer0_0_MEMBER_7_FILL"/>
</g>

<g transform="matrix( 1.00018310546875, 0, 0, 1.00018310546875, 107.25,10.8) ">
<use xlink:href="#IT_728x90_psd_Asset_6_ManagedWiFi_IT_Awareness_DM7_4_footer_copy_3_Do_more_with__Wi_Fi_as_a_Service__copy_6_0_Layer0_0_MEMBER_8_FILL"/>
</g>

<g transform="matrix( 1.00018310546875, 0, 0, 1.00018310546875, 107.25,10.8) ">
<use xlink:href="#IT_728x90_psd_Asset_6_ManagedWiFi_IT_Awareness_DM7_4_footer_copy_3_Do_more_with__Wi_Fi_as_a_Service__copy_6_0_Layer0_0_MEMBER_9_FILL"/>
</g>

<g transform="matrix( 1.00018310546875, 0, 0, 1.00018310546875, 107.25,10.8) ">
<use xlink:href="#IT_728x90_psd_Asset_6_ManagedWiFi_IT_Awareness_DM7_4_footer_copy_3_Do_more_with__Wi_Fi_as_a_Service__copy_6_0_Layer0_0_MEMBER_10_FILL"/>
</g>

<g transform="matrix( 1.00018310546875, 0, 0, 1.00018310546875, 107.25,10.8) ">
<use xlink:href="#IT_728x90_psd_Asset_6_ManagedWiFi_IT_Awareness_DM7_4_footer_copy_3_Do_more_with__Wi_Fi_as_a_Service__copy_6_0_Layer0_0_MEMBER_11_FILL"/>
</g>

<g transform="matrix( 1.00018310546875, 0, 0, 1.00018310546875, 107.25,10.8) ">
<use xlink:href="#IT_728x90_psd_Asset_6_ManagedWiFi_IT_Awareness_DM7_4_footer_copy_3_Do_more_with__Wi_Fi_as_a_Service__copy_6_0_Layer0_0_MEMBER_12_FILL"/>
</g>

<g transform="matrix( 1.00018310546875, 0, 0, 1.00018310546875, 107.25,10.8) ">
<use xlink:href="#IT_728x90_psd_Asset_6_ManagedWiFi_IT_Awareness_DM7_4_footer_copy_3_Do_more_with__Wi_Fi_as_a_Service__copy_6_0_Layer0_0_MEMBER_13_FILL"/>
</g>

<g transform="matrix( 1.00018310546875, 0, 0, 1.00018310546875, 107.25,10.8) ">
<use xlink:href="#IT_728x90_psd_Asset_6_ManagedWiFi_IT_Awareness_DM7_4_footer_copy_3_Do_more_with__Wi_Fi_as_a_Service__copy_6_0_Layer0_0_MEMBER_14_FILL"/>
</g>

<g transform="matrix( 1.00018310546875, 0, 0, 1.00018310546875, 107.25,10.8) ">
<use xlink:href="#IT_728x90_psd_Asset_6_ManagedWiFi_IT_Awareness_DM7_4_footer_copy_3_Do_more_with__Wi_Fi_as_a_Service__copy_6_0_Layer0_0_MEMBER_15_FILL"/>
</g>

<g transform="matrix( 1.00018310546875, 0, 0, 1.00018310546875, 107.25,10.8) ">
<use xlink:href="#IT_728x90_psd_Asset_6_ManagedWiFi_IT_Awareness_DM7_4_footer_copy_3_Do_more_with__Wi_Fi_as_a_Service__copy_6_0_Layer0_0_MEMBER_16_FILL"/>
</g>

<g transform="matrix( 1.00018310546875, 0, 0, 1.00018310546875, 107.25,10.8) ">
<use xlink:href="#IT_728x90_psd_Asset_6_ManagedWiFi_IT_Awareness_DM7_4_footer_copy_3_Do_more_with__Wi_Fi_as_a_Service__copy_6_0_Layer0_0_MEMBER_17_FILL"/>
</g>

<g transform="matrix( 1.00018310546875, 0, 0, 1.00018310546875, 107.25,10.8) ">
<use xlink:href="#IT_728x90_psd_Asset_6_ManagedWiFi_IT_Awareness_DM7_4_footer_copy_3_Do_more_with__Wi_Fi_as_a_Service__copy_6_0_Layer0_0_MEMBER_18_FILL"/>
</g>

<g transform="matrix( 1.00018310546875, 0, 0, 1.00018310546875, 107.25,10.8) ">
<use xlink:href="#IT_728x90_psd_Asset_6_ManagedWiFi_IT_Awareness_DM7_4_footer_copy_3_Do_more_with__Wi_Fi_as_a_Service__copy_6_0_Layer0_0_MEMBER_19_FILL"/>
</g>

<g transform="matrix( 1.00018310546875, 0, 0, 1.00018310546875, 107.25,10.8) ">
<use xlink:href="#IT_728x90_psd_Asset_6_ManagedWiFi_IT_Awareness_DM7_4_footer_copy_3_Do_more_with__Wi_Fi_as_a_Service__copy_6_0_Layer0_0_MEMBER_20_FILL"/>
</g>

<g transform="matrix( 1.00018310546875, 0, 0, 1.00018310546875, 107.25,10.8) ">
<use xlink:href="#IT_728x90_psd_Asset_6_ManagedWiFi_IT_Awareness_DM7_4_footer_copy_3_Do_more_with__Wi_Fi_as_a_Service__copy_6_0_Layer0_0_MEMBER_21_FILL"/>
</g>

<g transform="matrix( 1.00018310546875, 0, 0, 1.00018310546875, 107.25,10.8) ">
<use xlink:href="#IT_728x90_psd_Asset_6_ManagedWiFi_IT_Awareness_DM7_4_footer_copy_3_Do_more_with__Wi_Fi_as_a_Service__copy_6_0_Layer0_0_MEMBER_22_FILL"/>
</g>

<g transform="matrix( 1.00018310546875, 0, 0, 1.00018310546875, 107.25,10.8) ">
<use xlink:href="#IT_728x90_psd_Asset_6_ManagedWiFi_IT_Awareness_DM7_4_footer_copy_3_Do_more_with__Wi_Fi_as_a_Service__copy_6_0_Layer0_0_MEMBER_23_FILL"/>
</g>

<g transform="matrix( 1.00018310546875, 0, 0, 1.00018310546875, 107.25,10.8) ">
<use xlink:href="#IT_728x90_psd_Asset_6_ManagedWiFi_IT_Awareness_DM7_4_footer_copy_3_Do_more_with__Wi_Fi_as_a_Service__copy_6_0_Layer0_0_MEMBER_24_FILL"/>
</g>

<g transform="matrix( 1.00018310546875, 0, 0, 1.00018310546875, 107.25,10.8) ">
<use xlink:href="#IT_728x90_psd_Asset_6_ManagedWiFi_IT_Awareness_DM7_4_footer_copy_3_Do_more_with__Wi_Fi_as_a_Service__copy_6_0_Layer0_0_MEMBER_25_FILL"/>
</g>
</g>
</g>
</g>
</g>
</svg>
