
<svg xmlns="http://www.w3.org/2000/svg" version="1.1" xmlns:xlink="http://www.w3.org/1999/xlink" preserveAspectRatio="none" x="0px" y="0px" width="160px" height="600px" viewBox="0 0 160 600">
<defs>
<g id="IT_160x600a_psd_Asset_2_IT__administrators__are_supporting__more_devices___hardware___s_0_Layer0_0_MEMBER_0_FILL">
<path fill="#D82C26" stroke="none" d="
M 1.15 -5.25
L 0.7 -5.25 0.7 0 1.15 0 1.15 -5.25 Z"/>
</g>

<g id="IT_160x600a_psd_Asset_2_IT__administrators__are_supporting__more_devices___hardware___s_0_Layer0_0_MEMBER_1_FILL">
<path fill="#D82C26" stroke="none" d="
M 1.65 -4.85
L 3.35 -4.85 3.35 0 3.8 0 3.8 -4.85 5.4 -4.85 5.45 -5.25 1.75 -5.25 1.65 -4.85 Z"/>
</g>

<g id="IT_160x600a_psd_Asset_2_IT__administrators__are_supporting__more_devices___hardware___s_0_Layer0_0_MEMBER_2_FILL">
<path fill="#D82C26" stroke="none" d="
M 1.25 6.05
L 1.85 5.95
Q 2.25 5.95 2.6 6.2 2.85 6.45 2.85 6.9
L 2.85 7.1 2.4 7.1
Q 0.45 7.1 0.45 8.25 0.45 8.8 0.75 9 1.05 9.3 1.55 9.3 1.9 9.3 2.3 9.1 2.7 8.85 2.85 8.5
L 2.85 8.85 2.9 9.2 3.3 9.2 3.25 6.95
Q 3.25 6.25 2.9 5.95 2.55 5.6 1.9 5.6
L 1.2 5.7 0.6 6.05 0.75 6.4 1.25 6.05
M 2.85 7.75
Q 2.85 8 2.7 8.3 2.55 8.6 2.3 8.75 2.05 8.95 1.6 8.95 1.25 8.95 1.05 8.75 0.85 8.6 0.85 8.25 0.85 7.4 2.5 7.4
L 2.85 7.4 2.85 7.75 Z"/>
</g>

<g id="IT_160x600a_psd_Asset_2_IT__administrators__are_supporting__more_devices___hardware___s_0_Layer0_0_MEMBER_3_FILL">
<path fill="#D82C26" stroke="none" d="
M 6.5 5.85
Q 6.1 5.6 5.65 5.6 5.15 5.6 4.75 5.85 4.4 6.05 4.15 6.5 3.9 7 3.9 7.45 3.9 7.95 4.15 8.35 4.35 8.7 4.75 9.05 5.15 9.3 5.65 9.3 6.1 9.3 6.5 9.05 6.9 8.8 7.1 8.4
L 7.15 9.2 7.55 9.2 7.5 3.5 7.1 3.55 7.1 6.45 7.05 6.45
Q 6.8 6.05 6.5 5.85
M 5.7 5.95
Q 6 5.95 6.4 6.15 6.7 6.35 6.9 6.7 7.1 7.05 7.1 7.45 7.1 7.85 6.9 8.2 6.7 8.6 6.4 8.7 6.15 8.9 5.7 8.9 5.25 8.9 5 8.7 4.8 8.6 4.5 8.2
L 4.35 7.45 4.5 6.7 5 6.15
Q 5.4 5.95 5.7 5.95 Z"/>
</g>

<g id="IT_160x600a_psd_Asset_2_IT__administrators__are_supporting__more_devices___hardware___s_0_Layer0_0_MEMBER_4_FILL">
<path fill="#D82C26" stroke="none" d="
M 12.5 5.6
Q 12.1 5.6 11.7 5.85 11.4 6.05 11.2 6.5 11.15 6.1 10.8 5.85 10.45 5.6 10.1 5.6 9.7 5.6 9.35 5.85 9.05 6.1 8.9 6.45
L 8.85 6.45 8.85 5.7 8.4 5.7 8.45 9.2 8.9 9.2 8.9 7.45
Q 8.9 7.05 9.05 6.65 9.25 6.25 9.45 6.15 9.75 5.95 10 5.95 10.45 5.95 10.65 6.25 10.85 6.5 10.85 7.15
L 10.85 9.2 11.3 9.2 11.3 7.4
Q 11.3 6.75 11.6 6.35 11.9 5.95 12.4 5.95 12.85 5.95 13.1 6.3 13.3 6.65 13.3 7.2
L 13.3 9.2 13.75 9.2 13.75 7.1
Q 13.75 6.45 13.45 6.05 13.15 5.6 12.5 5.6 Z"/>
</g>

<g id="IT_160x600a_psd_Asset_2_IT__administrators__are_supporting__more_devices___hardware___s_0_Layer0_0_MEMBER_5_FILL">
<path fill="#D82C26" stroke="none" d="
M 15.05 5.7
L 14.65 5.7 14.65 9.2 15.05 9.2 15.05 5.7
M 15.05 4.55
Q 15.15 4.5 15.15 4.3 15.15 4.15 15.05 4.1
L 14.85 4 14.65 4.1
Q 14.55 4.15 14.55 4.3 14.55 4.5 14.65 4.55
L 14.85 4.65 15.05 4.55 Z"/>
</g>

<g id="IT_160x600a_psd_Asset_2_IT__administrators__are_supporting__more_devices___hardware___s_0_Layer0_0_MEMBER_6_FILL">
<path fill="#D82C26" stroke="none" d="
M 16.4 5.7
L 16 5.7 16 9.2 16.45 9.2 16.45 7.4
Q 16.45 6.95 16.6 6.65 16.75 6.35 17 6.15 17.4 5.95 17.6 5.95 18.1 5.95 18.35 6.3 18.55 6.65 18.55 7.15
L 18.55 9.2 19 9.2 19 7.05
Q 19 6.4 18.65 6 18.35 5.6 17.7 5.6 17.3 5.6 16.95 5.85 16.6 6.05 16.45 6.45
L 16.4 5.7 Z"/>
</g>

<g id="IT_160x600a_psd_Asset_2_IT__administrators__are_supporting__more_devices___hardware___s_0_Layer0_0_MEMBER_7_FILL">
<path fill="#D82C26" stroke="none" d="
M 20.3 4.55
Q 20.4 4.5 20.4 4.3 20.4 4.15 20.3 4.1
L 20.1 4 19.9 4.1
Q 19.8 4.15 19.8 4.3 19.8 4.5 19.9 4.55
L 20.1 4.65 20.3 4.55
M 20.35 9.2
L 20.35 5.7 19.9 5.7 19.9 9.2 20.35 9.2 Z"/>
</g>

<g id="IT_160x600a_psd_Asset_2_IT__administrators__are_supporting__more_devices___hardware___s_0_Layer0_0_MEMBER_8_FILL">
<path fill="#D82C26" stroke="none" d="
M 21.65 5.7
L 21.2 6.05
Q 21.05 6.3 21.05 6.55 21.05 6.9 21.3 7.15 21.45 7.3 22.05 7.55
L 22.75 7.85
Q 23 8 23 8.3 23 8.6 22.75 8.75 22.55 8.95 22.2 8.95 21.6 8.95 21.05 8.5
L 21 8.9 21.5 9.15 22.25 9.3 22.8 9.15
Q 23.05 9.1 23.25 8.8 23.4 8.6 23.4 8.25 23.4 7.9 23.15 7.65 22.9 7.4 22.35 7.25
L 21.65 6.95
Q 21.45 6.8 21.45 6.55 21.45 6.3 21.65 6.1 21.9 5.95 22.2 5.95
L 22.7 6.05 23.1 6.3 23.3 5.95 22.8 5.7 22.2 5.6 21.65 5.7 Z"/>
</g>

<g id="IT_160x600a_psd_Asset_2_IT__administrators__are_supporting__more_devices___hardware___s_0_Layer0_0_MEMBER_9_FILL">
<path fill="#D82C26" stroke="none" d="
M 25.6 6.05
L 25.7 5.7 24.7 5.7 24.7 4.7 24.3 4.9 24.3 5.7 23.75 5.7 23.65 6.05 24.3 6.05 24.3 8.35
Q 24.3 8.8 24.5 9 24.75 9.25 25.1 9.25
L 25.5 9.2 25.85 9.05 25.8 8.75 25.25 8.9
Q 25 8.9 24.85 8.75 24.7 8.6 24.7 8.3
L 24.7 6.05 25.6 6.05 Z"/>
</g>

<g id="IT_160x600a_psd_Asset_2_IT__administrators__are_supporting__more_devices___hardware___s_0_Layer0_0_MEMBER_10_FILL">
<path fill="#D82C26" stroke="none" d="
M 26.65 5.7
L 26.25 5.7 26.3 9.2 26.75 9.2 26.75 7.45
Q 26.75 6.8 27 6.4 27.25 6 27.7 6
L 28 6.05 28.1 5.65 27.75 5.6
Q 27.5 5.6 27.15 5.85 26.8 6.1 26.75 6.45
L 26.7 6.45 26.65 5.7 Z"/>
</g>

<g id="IT_160x600a_psd_Asset_2_IT__administrators__are_supporting__more_devices___hardware___s_0_Layer0_0_MEMBER_11_FILL">
<path fill="#D82C26" stroke="none" d="
M 30.4 6.2
Q 30.7 6.45 30.7 6.9
L 30.7 7.1 30.25 7.1
Q 28.25 7.1 28.25 8.25 28.25 8.75 28.6 9 28.9 9.3 29.35 9.3 29.65 9.3 30.15 9.1 30.5 8.9 30.65 8.5
L 30.7 8.5 30.7 8.85 30.75 9.2 31.15 9.2 31.1 6.95
Q 31.1 6.3 30.75 5.95 30.4 5.6 29.75 5.6
L 29.05 5.7
Q 28.65 5.85 28.45 6.05
L 28.6 6.4 29.1 6.05 29.7 5.95
Q 30.15 5.95 30.4 6.2
M 30.7 7.75
Q 30.7 8 30.55 8.3 30.4 8.6 30.15 8.75 29.9 8.95 29.45 8.95 29.1 8.95 28.9 8.75 28.7 8.6 28.7 8.25 28.7 7.4 30.3 7.4
L 30.7 7.4 30.7 7.75 Z"/>
</g>

<g id="IT_160x600a_psd_Asset_2_IT__administrators__are_supporting__more_devices___hardware___s_0_Layer0_0_MEMBER_12_FILL">
<path fill="#D82C26" stroke="none" d="
M 32.5 5.7
L 32.5 4.7 32.05 4.9 32.05 5.7 31.5 5.7 31.4 6.05 32.05 6.05 32.05 8.35
Q 32.05 8.75 32.3 9 32.55 9.25 32.9 9.25
L 33.25 9.2 33.6 9.05 33.55 8.75
Q 33.25 8.9 33 8.9 32.8 8.9 32.65 8.75 32.5 8.6 32.5 8.3
L 32.5 6.05 33.4 6.05 33.5 5.7 32.5 5.7 Z"/>
</g>

<g id="IT_160x600a_psd_Asset_2_IT__administrators__are_supporting__more_devices___hardware___s_0_Layer0_0_MEMBER_13_FILL">
<path fill="#D82C26" stroke="none" d="
M 36.5 5.85
Q 36 5.6 35.55 5.6 35.1 5.6 34.6 5.85 34.15 6.15 33.95 6.5 33.7 6.9 33.7 7.45 33.7 7.9 33.95 8.4 34.2 8.8 34.6 9.05 35.1 9.3 35.55 9.3 36 9.3 36.5 9.05 36.85 8.85 37.15 8.4 37.4 8.05 37.4 7.45 37.4 6.8 37.15 6.5 36.95 6.05 36.5 5.85
M 35.55 5.95
Q 35.9 5.95 36.3 6.15 36.7 6.45 36.8 6.7 36.95 7 36.95 7.45 36.95 7.85 36.8 8.15 36.65 8.55 36.3 8.7 36.05 8.9 35.55 8.9 35.05 8.9 34.8 8.7 34.55 8.6 34.3 8.15 34.15 7.85 34.15 7.45 34.15 7 34.3 6.7 34.5 6.4 34.8 6.15 35.2 5.95 35.55 5.95 Z"/>
</g>

<g id="IT_160x600a_psd_Asset_2_IT__administrators__are_supporting__more_devices___hardware___s_0_Layer0_0_MEMBER_14_FILL">
<path fill="#D82C26" stroke="none" d="
M 38.5 5.7
L 38.05 5.7 38.1 9.2 38.55 9.2 38.55 7.45
Q 38.55 6.9 38.8 6.4 39.1 6 39.5 6
L 39.85 6.05 39.9 5.65 39.55 5.6
Q 39.3 5.6 38.95 5.85 38.6 6.1 38.55 6.45
L 38.5 6.45 38.5 5.7 Z"/>
</g>

<g id="IT_160x600a_psd_Asset_2_IT__administrators__are_supporting__more_devices___hardware___s_0_Layer0_0_MEMBER_15_FILL">
<path fill="#D82C26" stroke="none" d="
M 41.3 5.6
L 40.75 5.7
Q 40.45 5.85 40.3 6.05 40.15 6.3 40.15 6.55 40.15 6.95 40.4 7.15 40.55 7.3 41.15 7.55
L 41.85 7.85
Q 42.1 8 42.1 8.3 42.1 8.6 41.85 8.75 41.65 8.95 41.3 8.95 40.6 8.95 40.15 8.5
L 40.05 8.9 40.6 9.15 41.3 9.3
Q 41.6 9.3 41.9 9.15 42.05 9.1 42.35 8.8 42.5 8.6 42.5 8.25 42.5 7.9 42.25 7.65 41.9 7.35 41.45 7.25
L 40.75 6.95
Q 40.55 6.8 40.55 6.55 40.55 6.25 40.75 6.1 41 5.95 41.3 5.95
L 41.8 6.05 42.2 6.3 42.4 5.95 41.9 5.7 41.3 5.6 Z"/>
</g>

<g id="IT_160x600a_psd_Asset_2_IT__administrators__are_supporting__more_devices___hardware___s_0_Layer0_0_MEMBER_16_FILL">
<path fill="#D82C26" stroke="none" d="
M 1.25 15.25
Q 1.45 15.15 1.85 15.15 2.35 15.15 2.6 15.35 2.85 15.7 2.85 16.05
L 2.85 16.25 2.4 16.25
Q 0.45 16.25 0.45 17.4 0.45 17.9 0.75 18.2 1.1 18.45 1.55 18.45 2.05 18.45 2.3 18.25 2.7 18.1 2.85 17.7
L 2.85 18.05 2.9 18.35 3.3 18.35 3.25 16.1
Q 3.25 15.45 2.9 15.1 2.55 14.8 1.9 14.8 1.45 14.8 1.2 14.9
L 0.6 15.2 0.75 15.55 1.25 15.25
M 2.3 17.95
Q 1.9 18.15 1.6 18.15 1.35 18.15 1.05 17.95 0.85 17.8 0.85 17.4 0.85 16.55 2.5 16.55
L 2.85 16.55 2.85 16.9
Q 2.85 17.2 2.7 17.5
L 2.3 17.95 Z"/>
</g>

<g id="IT_160x600a_psd_Asset_2_IT__administrators__are_supporting__more_devices___hardware___s_0_Layer0_0_MEMBER_17_FILL">
<path fill="#D82C26" stroke="none" d="
M 5.55 15.15
L 5.9 15.2 5.95 14.85 5.6 14.8
Q 5.25 14.8 5 15 4.65 15.25 4.6 15.65
L 4.55 15.65 4.55 14.9 4.1 14.9 4.15 18.35 4.6 18.35 4.6 16.65
Q 4.6 16.1 4.85 15.6 5.15 15.15 5.55 15.15 Z"/>
</g>

<g id="IT_160x600a_psd_Asset_2_IT__administrators__are_supporting__more_devices___hardware___s_0_Layer0_0_MEMBER_18_FILL">
<path fill="#D82C26" stroke="none" d="
M 8.6 15
Q 8.25 14.8 7.7 14.8 7.2 14.8 6.85 15 6.5 15.2 6.2 15.65 6 16.05 6 16.6 6 17.2 6.2 17.55 6.4 17.9 6.85 18.2 7.15 18.45 7.75 18.45 8.55 18.45 9.15 18
L 9.05 17.65
Q 8.85 17.85 8.5 18
L 7.8 18.1
Q 7.35 18.1 7.1 17.9 6.8 17.8 6.6 17.4 6.4 17.15 6.4 16.7
L 9.35 16.7 9.35 16.5
Q 9.35 16 9.15 15.65 9 15.25 8.6 15
M 7.7 15.1
Q 8.15 15.1 8.6 15.45 8.95 15.9 8.95 16.35
L 6.4 16.35
Q 6.4 16.2 6.6 15.8 6.7 15.6 7 15.3 7.4 15.1 7.7 15.1 Z"/>
</g>

<g id="IT_160x600a_psd_Asset_2_IT__administrators__are_supporting__more_devices___hardware___s_0_Layer0_0_MEMBER_19_FILL">
<path fill="#D82C26" stroke="none" d="
M 13.3 15.15
L 12.85 14.9
Q 12.65 14.8 12.2 14.8 11.85 14.8 11.65 14.9 11.4 15 11.25 15.2 11.05 15.4 11.05 15.75 11.05 16.1 11.3 16.35 11.5 16.55 12.05 16.7 12.45 16.8 12.8 17.05 13 17.2 13 17.45 13 17.75 12.75 17.95 12.55 18.1 12.2 18.1 11.6 18.1 11.05 17.7
L 11 18.05
Q 11.15 18.2 11.55 18.35
L 12.25 18.45 12.8 18.35
Q 13.15 18.2 13.25 18 13.4 17.8 13.4 17.45 13.4 17.05 13.15 16.85 12.95 16.65 12.35 16.4
L 11.65 16.1
Q 11.45 15.9 11.45 15.7 11.45 15.4 11.7 15.25 11.85 15.15 12.2 15.15
L 12.7 15.2 13.15 15.45 13.3 15.15 Z"/>
</g>

<g id="IT_160x600a_psd_Asset_2_IT__administrators__are_supporting__more_devices___hardware___s_0_Layer0_0_MEMBER_20_FILL">
<path fill="#D82C26" stroke="none" d="
M 16.95 14.9
L 16.55 14.9 16.55 16.6
Q 16.55 17.1 16.4 17.4 16.25 17.75 15.95 17.9 15.75 18.1 15.35 18.1 14.85 18.1 14.65 17.75 14.45 17.4 14.45 16.9
L 14.45 14.9 14 14.9 14 17
Q 14 17.6 14.3 18.05 14.6 18.45 15.25 18.45 15.75 18.45 16.05 18.2 16.4 17.9 16.55 17.6
L 16.6 18.35 17.05 18.35 16.95 17.55 16.95 14.9 Z"/>
</g>

<g id="IT_160x600a_psd_Asset_2_IT__administrators__are_supporting__more_devices___hardware___s_0_Layer0_0_MEMBER_21_FILL">
<path fill="#D82C26" stroke="none" d="
M 20.7 18.2
Q 21.1 17.95 21.3 17.55 21.5 17.15 21.5 16.6 21.5 16.05 21.3 15.7 21.1 15.3 20.7 15.05 20.35 14.8 19.75 14.8 19.3 14.8 18.95 15 18.55 15.25 18.35 15.65
L 18.3 14.9 17.9 14.9 17.9 20.15 18.35 20.15 18.35 17.6
Q 18.55 18 18.95 18.25 19.3 18.45 19.75 18.45 20.2 18.45 20.7 18.2
M 20.9 17.35
Q 20.8 17.65 20.45 17.9 20.2 18.1 19.7 18.1 19.4 18.1 19 17.9 18.7 17.65 18.5 17.35 18.35 17.05 18.35 16.6 18.35 16.2 18.5 15.9 18.7 15.6 19 15.35 19.25 15.15 19.7 15.15 20.2 15.15 20.45 15.35 20.8 15.6 20.9 15.9 21.05 16.2 21.05 16.6 21.05 17.05 20.9 17.35 Z"/>
</g>

<g id="IT_160x600a_psd_Asset_2_IT__administrators__are_supporting__more_devices___hardware___s_0_Layer0_0_MEMBER_22_FILL">
<path fill="#D82C26" stroke="none" d="
M 25.6 17.55
Q 25.8 17.15 25.8 16.6 25.8 16.05 25.6 15.7 25.4 15.3 25 15.05 24.65 14.8 24.05 14.8 23.6 14.8 23.25 15 22.85 15.25 22.65 15.65
L 22.6 14.9 22.2 14.9 22.2 20.15 22.65 20.15 22.65 17.6
Q 22.85 18 23.25 18.25 23.6 18.45 24.05 18.45 24.5 18.45 25 18.2 25.4 17.95 25.6 17.55
M 24 15.15
Q 24.5 15.15 24.75 15.35 25.1 15.6 25.2 15.9 25.35 16.2 25.35 16.6 25.35 17.05 25.2 17.35 25.1 17.65 24.75 17.9 24.5 18.1 24 18.1 23.7 18.1 23.3 17.9 23 17.65 22.8 17.35 22.65 17.05 22.65 16.6 22.65 16.2 22.8 15.9 23 15.6 23.3 15.35 23.55 15.15 24 15.15 Z"/>
</g>

<g id="IT_160x600a_psd_Asset_2_IT__administrators__are_supporting__more_devices___hardware___s_0_Layer0_0_MEMBER_23_FILL">
<path fill="#D82C26" stroke="none" d="
M 29.1 15
Q 28.7 14.8 28.15 14.8 27.55 14.8 27.2 15 26.85 15.2 26.55 15.65 26.3 16.05 26.3 16.6 26.3 17.25 26.55 17.55 26.75 18 27.2 18.2 27.5 18.45 28.15 18.45 28.75 18.45 29.1 18.2 29.55 17.9 29.75 17.55 30 17.15 30 16.6 30 16.15 29.75 15.65 29.5 15.25 29.1 15
M 28.15 15.15
Q 28.55 15.15 28.9 15.35 29.1 15.45 29.4 15.85
L 29.55 16.6
Q 29.55 17.05 29.4 17.35 29.2 17.65 28.9 17.9 28.5 18.1 28.15 18.1 27.8 18.1 27.4 17.9 27 17.6 26.9 17.35 26.75 17.05 26.75 16.6
L 26.9 15.85
Q 27.05 15.5 27.4 15.35 27.65 15.15 28.15 15.15 Z"/>
</g>

<g id="IT_160x600a_psd_Asset_2_IT__administrators__are_supporting__more_devices___hardware___s_0_Layer0_0_MEMBER_24_FILL">
<path fill="#D82C26" stroke="none" d="
M 31.05 14.9
L 30.65 14.9 30.7 18.35 31.15 18.35 31.15 16.65
Q 31.15 16 31.4 15.6 31.65 15.15 32.1 15.15
L 32.4 15.2 32.5 14.85 32.15 14.8
Q 31.8 14.8 31.55 15 31.25 15.25 31.1 15.65
L 31.05 14.9 Z"/>
</g>

<g id="IT_160x600a_psd_Asset_2_IT__administrators__are_supporting__more_devices___hardware___s_0_Layer0_0_MEMBER_25_FILL">
<path fill="#D82C26" stroke="none" d="
M 33.2 14.05
L 33.2 14.9 32.65 14.9 32.55 15.25 33.2 15.25 33.2 17.5
Q 33.2 17.95 33.45 18.2 33.7 18.45 34.05 18.45
L 34.45 18.4 34.75 18.25 34.7 17.9
Q 34.3 18.1 34.15 18.1 33.95 18.1 33.8 17.95 33.65 17.8 33.65 17.45
L 33.65 15.25 34.55 15.25 34.65 14.9 33.65 14.9 33.65 13.9 33.2 14.05 Z"/>
</g>

<g id="IT_160x600a_psd_Asset_2_IT__administrators__are_supporting__more_devices___hardware___s_0_Layer0_0_MEMBER_26_FILL">
<path fill="#D82C26" stroke="none" d="
M 35.45 13.8
Q 35.6 13.8 35.65 13.7
L 35.75 13.5 35.65 13.25 35.45 13.2
Q 35.3 13.2 35.2 13.3
L 35.15 13.5 35.2 13.7
Q 35.3 13.8 35.45 13.8
M 35.65 18.35
L 35.65 14.9 35.25 14.9 35.25 18.35 35.65 18.35 Z"/>
</g>

<g id="IT_160x600a_psd_Asset_2_IT__administrators__are_supporting__more_devices___hardware___s_0_Layer0_0_MEMBER_27_FILL">
<path fill="#D82C26" stroke="none" d="
M 39.25 15.2
Q 39 14.8 38.3 14.8 37.8 14.8 37.55 15 37.25 15.2 37.05 15.65
L 37 15.65 37 14.9 36.6 14.9 36.6 18.35 37.05 18.35 37.05 16.6
Q 37.05 16.2 37.2 15.8
L 37.6 15.3
Q 37.9 15.15 38.2 15.15 38.75 15.15 38.95 15.5 39.15 15.9 39.15 16.35
L 39.15 18.35 39.6 18.35 39.6 16.25
Q 39.6 15.75 39.25 15.2 Z"/>
</g>

<g id="IT_160x600a_psd_Asset_2_IT__administrators__are_supporting__more_devices___hardware___s_0_Layer0_0_MEMBER_28_FILL">
<path fill="#D82C26" stroke="none" d="
M 43.85 14.9
L 43.45 14.9 43.4 15.65
Q 43.2 15.25 42.8 15 42.45 14.8 42 14.8 41.4 14.8 41.1 15.05 40.65 15.25 40.45 15.7 40.25 16.05 40.25 16.6 40.25 17.15 40.45 17.55 40.75 18 41.1 18.2 41.45 18.4 42 18.4 42.45 18.4 42.8 18.2 43.15 18.05 43.4 17.6
L 43.4 18.3
Q 43.4 19.05 43.05 19.4 42.8 19.8 42 19.8
L 41.25 19.7 40.55 19.35 40.45 19.75
Q 40.75 19.95 41.15 20.05 41.6 20.2 42 20.2 42.95 20.2 43.4 19.65 43.85 19.2 43.85 18.3
L 43.85 14.9
M 42.05 15.15
Q 42.5 15.15 42.75 15.35 43.1 15.55 43.25 15.9 43.45 16.3 43.45 16.6 43.45 16.85 43.25 17.35 43.1 17.7 42.75 17.85 42.5 18.05 42.05 18.05 41.6 18.05 41.35 17.85 41.05 17.75 40.85 17.35 40.7 17 40.7 16.6 40.7 16.2 40.85 15.9 41 15.55 41.35 15.35 41.6 15.15 42.05 15.15 Z"/>
</g>

<g id="IT_160x600a_psd_Asset_2_IT__administrators__are_supporting__more_devices___hardware___s_0_Layer0_0_MEMBER_29_FILL">
<path fill="#D82C26" stroke="none" d="
M 1.05 24.05
L 0.65 24.05 0.7 27.55 1.15 27.55 1.15 25.8
Q 1.15 25.4 1.3 25 1.5 24.6 1.65 24.5 1.95 24.35 2.2 24.35 2.7 24.35 2.9 24.65 3.1 25.05 3.1 25.5
L 3.1 27.55 3.55 27.55 3.55 25.75
Q 3.55 25.15 3.85 24.7 4.15 24.35 4.65 24.35 5.15 24.35 5.35 24.7 5.55 25.1 5.55 25.55
L 5.55 27.55 6 27.55 6 25.45
Q 6 24.8 5.7 24.4 5.35 23.95 4.7 23.95 4.35 23.95 3.95 24.2 3.55 24.5 3.45 24.85 3.3 24.4 3.05 24.2 2.7 23.95 2.35 23.95 1.95 23.95 1.6 24.2 1.3 24.45 1.15 24.8
L 1.1 24.8 1.05 24.05 Z"/>
</g>

<g id="IT_160x600a_psd_Asset_2_IT__administrators__are_supporting__more_devices___hardware___s_0_Layer0_0_MEMBER_30_FILL">
<path fill="#D82C26" stroke="none" d="
M 9.45 24.2
Q 8.95 23.95 8.5 23.95 7.95 23.95 7.55 24.2 7.1 24.4 6.9 24.85 6.65 25.25 6.65 25.8 6.65 26.25 6.9 26.75 7.2 27.2 7.55 27.4 7.95 27.65 8.5 27.65 8.95 27.65 9.45 27.4 9.85 27.15 10.1 26.75 10.35 26.25 10.35 25.8 10.35 25.25 10.1 24.85 9.9 24.5 9.45 24.2
M 8.5 24.35
L 9.25 24.5 9.75 25.05
Q 9.9 25.45 9.9 25.8
L 9.75 26.55
Q 9.45 26.95 9.25 27.05 9 27.25 8.5 27.25 8 27.25 7.75 27.05 7.4 26.9 7.25 26.55
L 7.1 25.8
Q 7.1 25.45 7.25 25.05 7.4 24.75 7.75 24.5 8.05 24.35 8.5 24.35 Z"/>
</g>

<g id="IT_160x600a_psd_Asset_2_IT__administrators__are_supporting__more_devices___hardware___s_0_Layer0_0_MEMBER_31_FILL">
<path fill="#D82C26" stroke="none" d="
M 11.4 24.05
L 11 24.05 11.05 27.55 11.5 27.55 11.5 25.8
Q 11.5 25.15 11.75 24.75 12 24.35 12.45 24.35
L 12.75 24.4 12.85 24 12.5 23.95
Q 12.25 23.95 11.9 24.2 11.6 24.45 11.45 24.8
L 11.4 24.05 Z"/>
</g>

<g id="IT_160x600a_psd_Asset_2_IT__administrators__are_supporting__more_devices___hardware___s_0_Layer0_0_MEMBER_32_FILL">
<path fill="#D82C26" stroke="none" d="
M 14.6 23.95
Q 14.2 23.95 13.7 24.2 13.3 24.45 13.1 24.85 12.85 25.25 12.85 25.8 12.85 26.25 13.1 26.75 13.4 27.2 13.75 27.4 14.15 27.65 14.65 27.65 15.45 27.65 16.05 27.2
L 15.95 26.85 15.4 27.15
Q 15.1 27.3 14.7 27.3 14.4 27.3 14 27.1 13.65 26.9 13.5 26.6 13.3 26.25 13.3 25.85
L 16.25 25.85 16.25 25.7
Q 16.25 25.15 16.05 24.8 15.9 24.45 15.5 24.2 15.1 23.95 14.6 23.95
M 14.6 24.3
Q 15.15 24.3 15.5 24.65 15.75 24.9 15.85 25.55
L 13.3 25.55
Q 13.3 25.25 13.45 25 13.65 24.65 13.9 24.5 14.15 24.3 14.6 24.3 Z"/>
</g>

<g id="IT_160x600a_psd_Asset_2_IT__administrators__are_supporting__more_devices___hardware___s_0_Layer0_0_MEMBER_33_FILL">
<path fill="#D82C26" stroke="none" d="
M 21.5 21.85
L 21.05 21.95 21.05 24.8
Q 20.85 24.45 20.45 24.2 20.05 23.95 19.65 23.95 19.15 23.95 18.75 24.2 18.4 24.4 18.1 24.85 17.9 25.25 17.9 25.8 17.9 26.35 18.1 26.75 18.4 27.2 18.75 27.4 19.15 27.65 19.65 27.65 20.05 27.65 20.45 27.4 20.85 27.2 21.05 26.8
L 21.1 27.55 21.55 27.55 21.5 21.85
M 18.95 24.55
Q 19.3 24.35 19.7 24.35 20.15 24.35 20.4 24.55 20.75 24.7 20.9 25.05
L 21.05 25.8 20.9 26.55
Q 20.75 26.9 20.4 27.05 20.15 27.25 19.7 27.25 19.3 27.25 18.95 27.05 18.7 26.9 18.5 26.55
L 18.35 25.8 18.5 25.05
Q 18.7 24.7 18.95 24.55 Z"/>
</g>

<g id="IT_160x600a_psd_Asset_2_IT__administrators__are_supporting__more_devices___hardware___s_0_Layer0_0_MEMBER_34_FILL">
<path fill="#D82C26" stroke="none" d="
M 23.9 23.95
Q 23.45 23.95 23.05 24.2 22.6 24.5 22.4 24.85 22.2 25.2 22.2 25.8 22.2 26.4 22.45 26.75 22.7 27.2 23.05 27.4 23.55 27.65 24 27.65 24.85 27.65 25.35 27.2
L 25.3 26.85 24.7 27.15
Q 24.4 27.3 24 27.3 23.7 27.3 23.3 27.1 22.9 26.8 22.8 26.6 22.6 26.1 22.6 25.85
L 25.55 25.85 25.55 25.7
Q 25.55 25.2 25.4 24.8 25.2 24.45 24.8 24.2 24.4 23.95 23.9 23.95
M 23.9 24.3
Q 24.5 24.3 24.8 24.65 25.15 24.95 25.15 25.55
L 22.65 25.55
Q 22.65 25.25 22.8 25 23 24.65 23.25 24.5 23.5 24.3 23.9 24.3 Z"/>
</g>

<g id="IT_160x600a_psd_Asset_2_IT__administrators__are_supporting__more_devices___hardware___s_0_Layer0_0_MEMBER_35_FILL">
<path fill="#D82C26" stroke="none" d="
M 25.65 24.05
L 27 27.55 27.5 27.55 28.8 24.05 28.35 24.05 27.25 27.1 26.15 24.05 25.65 24.05 Z"/>
</g>

<g id="IT_160x600a_psd_Asset_2_IT__administrators__are_supporting__more_devices___hardware___s_0_Layer0_0_MEMBER_36_FILL">
<path fill="#D82C26" stroke="none" d="
M 29.65 24.05
L 29.25 24.05 29.25 27.55 29.65 27.55 29.65 24.05
M 29.45 23
L 29.65 22.9
Q 29.75 22.85 29.75 22.65 29.75 22.5 29.65 22.45
L 29.45 22.35 29.25 22.45
Q 29.15 22.5 29.15 22.65 29.15 22.85 29.25 22.9
L 29.45 23 Z"/>
</g>

<g id="IT_160x600a_psd_Asset_2_IT__administrators__are_supporting__more_devices___hardware___s_0_Layer0_0_MEMBER_37_FILL">
<path fill="#D82C26" stroke="none" d="
M 32.2 23.95
Q 31.75 23.95 31.25 24.2 30.8 24.4 30.6 24.85 30.35 25.35 30.35 25.8 30.35 26.35 30.6 26.75 30.8 27.2 31.25 27.4 31.65 27.65 32.15 27.65 32.55 27.65 32.85 27.5 33.1 27.45 33.35 27.2
L 33.3 26.85
Q 33.05 27.1 32.8 27.15 32.65 27.25 32.2 27.25 31.8 27.25 31.45 27.05 31.2 26.9 31 26.55 30.8 26.2 30.8 25.8 30.8 25.4 31 25.05 31.2 24.7 31.45 24.55 31.8 24.35 32.2 24.35 32.55 24.35 32.75 24.45
L 33.2 24.7 33.35 24.35 32.85 24.05 32.2 23.95 Z"/>
</g>

<g id="IT_160x600a_psd_Asset_2_IT__administrators__are_supporting__more_devices___hardware___s_0_Layer0_0_MEMBER_38_FILL">
<path fill="#D82C26" stroke="none" d="
M 35.3 23.95
Q 34.85 23.95 34.45 24.2 34.05 24.45 33.85 24.85 33.6 25.25 33.6 25.8 33.6 26.25 33.85 26.75 34.1 27.2 34.45 27.4 34.95 27.65 35.4 27.65 36.25 27.65 36.75 27.2
L 36.7 26.85 36.15 27.15 35.4 27.3
Q 35.1 27.3 34.7 27.1
L 34.2 26.6 34 25.85 36.95 25.85 36.95 25.7
Q 36.95 25.2 36.8 24.8 36.6 24.45 36.2 24.2 35.8 23.95 35.3 23.95
M 35.3 24.3
Q 35.9 24.3 36.2 24.65 36.55 24.95 36.55 25.55
L 34.05 25.55
Q 34.05 25.25 34.2 25 34.4 24.65 34.65 24.5 34.9 24.3 35.3 24.3 Z"/>
</g>

<g id="IT_160x600a_psd_Asset_2_IT__administrators__are_supporting__more_devices___hardware___s_0_Layer0_0_MEMBER_39_FILL">
<path fill="#D82C26" stroke="none" d="
M 38.05 24.05
L 37.6 24.4
Q 37.45 24.65 37.45 24.9 37.45 25.35 37.7 25.5 37.95 25.75 38.45 25.9
L 39.15 26.2
Q 39.4 26.45 39.4 26.65 39.4 26.95 39.15 27.1 38.95 27.3 38.6 27.3 38 27.3 37.45 26.85
L 37.4 27.25 37.95 27.55 38.65 27.65
Q 39 27.65 39.2 27.5 39.5 27.4 39.65 27.15 39.8 26.95 39.8 26.6 39.8 26.2 39.55 26 39.3 25.75 38.75 25.6
L 38.05 25.3
Q 37.85 25.1 37.85 24.9 37.85 24.6 38.1 24.45 38.25 24.3 38.6 24.3
L 39.1 24.4 39.5 24.65 39.7 24.35 39.2 24.05 38.6 23.95 38.05 24.05 Z"/>
</g>

<g id="IT_160x600a_psd_Asset_2_IT__administrators__are_supporting__more_devices___hardware___s_0_Layer0_0_MEMBER_40_FILL">
<path fill="#D82C26" stroke="none" d="
M 40.8 27.4
L 40.6 27.9 40.3 28.3 40.45 28.4
Q 41.15 27.8 41.15 27.15
L 41.05 26.85
Q 41 26.75 40.8 26.75 40.65 26.75 40.55 26.85
L 40.5 27.05 40.55 27.3 40.8 27.4 Z"/>
</g>

<g id="IT_160x600a_psd_Asset_2_IT__administrators__are_supporting__more_devices___hardware___s_0_Layer0_0_MEMBER_41_FILL">
<path fill="#D82C26" stroke="none" d="
M 1.15 31.05
L 0.7 31.15 0.7 36.7 1.15 36.7 1.15 35
Q 1.15 34.6 1.3 34.2 1.45 33.85 1.7 33.7 1.9 33.5 2.3 33.5 2.8 33.5 3 33.85 3.2 34.2 3.2 34.7
L 3.2 36.7 3.65 36.7 3.65 34.6
Q 3.65 34 3.35 33.55 3.05 33.15 2.4 33.15 1.9 33.15 1.65 33.35 1.3 33.55 1.15 34
L 1.15 31.05 Z"/>
</g>

<g id="IT_160x600a_psd_Asset_2_IT__administrators__are_supporting__more_devices___hardware___s_0_Layer0_0_MEMBER_42_FILL">
<path fill="#D82C26" stroke="none" d="
M 4.3 35.8
Q 4.3 36.35 4.65 36.55 5 36.8 5.4 36.8 5.85 36.8 6.2 36.6 6.55 36.45 6.7 36.05
L 6.75 36.05 6.75 36.4 6.8 36.7 7.2 36.7 7.15 34.45
Q 7.15 33.9 6.8 33.45 6.45 33.15 5.8 33.15 5.3 33.15 5.1 33.25
L 4.5 33.55 4.65 33.9 5.15 33.6
Q 5.35 33.5 5.75 33.5 6.25 33.5 6.45 33.7 6.7 33.95 6.7 34.45
L 6.7 34.65 6.3 34.65
Q 4.3 34.65 4.3 35.8
M 4.95 36.3
Q 4.75 36.15 4.75 35.75 4.75 34.9 6.35 34.9
L 6.7 34.9 6.7 35.25
Q 6.7 35.65 6.6 35.85 6.45 36.15 6.15 36.3 5.85 36.5 5.5 36.5 5.15 36.5 4.95 36.3 Z"/>
</g>

<g id="IT_160x600a_psd_Asset_2_IT__administrators__are_supporting__more_devices___hardware___s_0_Layer0_0_MEMBER_43_FILL">
<path fill="#D82C26" stroke="none" d="
M 8.4 33.25
L 8 33.25 8.05 36.7 8.5 36.7 8.5 35
Q 8.5 34.35 8.75 33.95 8.95 33.55 9.45 33.55
L 9.75 33.6 9.85 33.2 9.5 33.15
Q 9.15 33.15 8.9 33.35 8.65 33.55 8.45 34
L 8.4 33.25 Z"/>
</g>

<g id="IT_160x600a_psd_Asset_2_IT__administrators__are_supporting__more_devices___hardware___s_0_Layer0_0_MEMBER_44_FILL">
<path fill="#D82C26" stroke="none" d="
M 13.05 34
L 13 34
Q 12.85 33.6 12.45 33.35 12.1 33.15 11.6 33.15 11 33.15 10.7 33.4 10.3 33.65 10.1 34.05 9.85 34.55 9.85 35 9.85 35.5 10.1 35.9 10.3 36.3 10.7 36.55 11 36.8 11.6 36.8 12.1 36.8 12.45 36.6 12.85 36.35 13.05 35.95
L 13.1 36.7 13.5 36.7 13.45 31 13.05 31.1 13.05 34
M 11.65 33.5
Q 12.05 33.5 12.4 33.7 12.75 33.95 12.85 34.25 13.05 34.5 13.05 35 13.05 35.45 12.85 35.7 12.75 36 12.4 36.25 12.05 36.45 11.65 36.45 11.2 36.45 10.95 36.25 10.65 36 10.45 35.7 10.3 35.4 10.3 35 10.3 34.55 10.45 34.25 10.65 33.95 10.95 33.7 11.2 33.5 11.65 33.5 Z"/>
</g>

<g id="IT_160x600a_psd_Asset_2_IT__administrators__are_supporting__more_devices___hardware___s_0_Layer0_0_MEMBER_45_FILL">
<path fill="#D82C26" stroke="none" d="
M 13.95 33.25
L 15.05 36.7 15.5 36.7 16.5 33.75 17.5 36.7 18 36.7 19.05 33.25 18.6 33.25 17.75 36.2 16.75 33.25 16.3 33.25 15.3 36.2 14.45 33.25 13.95 33.25 Z"/>
</g>

<g id="IT_160x600a_psd_Asset_2_IT__administrators__are_supporting__more_devices___hardware___s_0_Layer0_0_MEMBER_46_FILL">
<path fill="#D82C26" stroke="none" d="
M 19.3 35.8
Q 19.3 36.3 19.65 36.55 20 36.8 20.4 36.8 20.85 36.8 21.2 36.6 21.55 36.45 21.7 36.05
L 21.75 36.05 21.75 36.4 21.8 36.7 22.2 36.7 22.15 34.45
Q 22.15 33.9 21.8 33.45 21.45 33.15 20.8 33.15 20.35 33.15 20.1 33.25
L 19.5 33.55 19.65 33.9 20.15 33.6
Q 20.35 33.5 20.75 33.5 21.25 33.5 21.45 33.7 21.75 34 21.75 34.45
L 21.75 34.65 21.3 34.65
Q 19.3 34.65 19.3 35.8
M 19.95 36.3
Q 19.75 36.15 19.75 35.75 19.75 34.9 21.35 34.9
L 21.75 34.9 21.75 35.25
Q 21.75 35.55 21.6 35.85 21.45 36.15 21.2 36.3 20.8 36.5 20.5 36.5 20.15 36.5 19.95 36.3 Z"/>
</g>

<g id="IT_160x600a_psd_Asset_2_IT__administrators__are_supporting__more_devices___hardware___s_0_Layer0_0_MEMBER_47_FILL">
<path fill="#D82C26" stroke="none" d="
M 23.9 33.35
Q 23.6 33.6 23.5 34
L 23.45 34 23.4 33.25 23 33.25 23.05 36.7 23.5 36.7 23.5 35
Q 23.5 34.35 23.75 33.95 23.95 33.55 24.45 33.55
L 24.75 33.6 24.85 33.2 24.5 33.15
Q 24.15 33.15 23.9 33.35 Z"/>
</g>

<g id="IT_160x600a_psd_Asset_2_IT__administrators__are_supporting__more_devices___hardware___s_0_Layer0_0_MEMBER_48_FILL">
<path fill="#D82C26" stroke="none" d="
M 24.85 34.95
Q 24.85 35.5 25.1 35.9 25.3 36.3 25.75 36.6 26.1 36.8 26.65 36.8 27.4 36.8 28.05 36.4
L 27.95 36 27.4 36.35 26.7 36.45
Q 26.3 36.45 25.95 36.25 25.7 36.1 25.5 35.75 25.3 35.5 25.3 35.05
L 28.25 35.05 28.25 34.85
Q 28.25 34.35 28.05 34 27.8 33.55 27.5 33.35 27.15 33.15 26.6 33.15 26.1 33.15 25.7 33.35 25.35 33.55 25.1 34 24.85 34.5 24.85 34.95
M 26.6 33.5
Q 27.15 33.5 27.5 33.8 27.75 34.15 27.85 34.7
L 25.3 34.7 25.45 34.15
Q 25.6 33.9 25.9 33.65 26.2 33.5 26.6 33.5 Z"/>
</g>

<g id="IT_160x600a_psd_Asset_2_IT__administrators__are_supporting__more_devices___hardware___s_0_Layer0_0_MEMBER_49_FILL">
<path fill="#D82C26" stroke="none" d="
M 29.1 36.6
L 28.95 37.05 28.6 37.5 28.8 37.6
Q 29.45 36.95 29.45 36.35 29.45 36.1 29.35 36
L 29.15 35.9 28.9 36 28.8 36.25 28.9 36.5 29.1 36.6 Z"/>
</g>

<g id="IT_160x600a_psd_Asset_2_IT__administrators__are_supporting__more_devices___hardware___s_0_Layer0_0_MEMBER_50_FILL">
<path fill="#D82C26" stroke="none" d="
M 0.65 42.75
Q 0.45 43.05 0.45 43.25 0.45 43.7 0.7 43.85 1.05 44.1 1.45 44.25
L 2.2 44.55
Q 2.4 44.75 2.4 45 2.4 45.3 2.2 45.45 2 45.65 1.65 45.65 1 45.65 0.5 45.25
L 0.4 45.6 0.95 45.9 1.65 46 2.25 45.9
Q 2.55 45.7 2.65 45.55 2.85 45.35 2.85 45 2.85 44.6 2.55 44.35 2.4 44.2 1.75 43.95
L 1.1 43.65
Q 0.9 43.5 0.9 43.25 0.9 42.95 1.1 42.8 1.35 42.65 1.65 42.65
L 2.15 42.75 2.55 43 2.75 42.7 2.25 42.4 1.6 42.3 1.05 42.4
Q 0.75 42.6 0.65 42.75 Z"/>
</g>

<g id="IT_160x600a_psd_Asset_2_IT__administrators__are_supporting__more_devices___hardware___s_0_Layer0_0_MEMBER_51_FILL">
<path fill="#D82C26" stroke="none" d="
M 6.7 43.2
Q 6.5 42.75 6.05 42.55 5.55 42.3 5.1 42.3 4.65 42.3 4.15 42.55 3.7 42.75 3.5 43.2 3.25 43.7 3.25 44.15 3.25 44.6 3.5 45.1 3.7 45.55 4.15 45.75 4.65 46 5.1 46 5.55 46 6.05 45.75 6.5 45.55 6.7 45.1 6.95 44.6 6.95 44.15 6.95 43.7 6.7 43.2
M 5.1 42.7
Q 5.6 42.7 5.85 42.9 6.05 43 6.35 43.4
L 6.5 44.15 6.35 44.9
Q 6.2 45.2 5.85 45.45 5.45 45.65 5.1 45.65 4.75 45.65 4.35 45.45 4 45.2 3.85 44.9
L 3.7 44.15 3.85 43.4
Q 4 43.05 4.35 42.9 4.6 42.7 5.1 42.7 Z"/>
</g>

<g id="IT_160x600a_psd_Asset_2_IT__administrators__are_supporting__more_devices___hardware___s_0_Layer0_0_MEMBER_52_FILL">
<path fill="#D82C26" stroke="none" d="
M 9.2 40.2
L 8.85 40.2
Q 8.35 40.2 8.05 40.5 7.75 40.8 7.75 41.4
L 7.75 42.4 7.15 42.4 7.05 42.75 7.75 42.75 7.75 45.9 8.2 45.9 8.2 42.75 9 42.75 9.1 42.4 8.2 42.4 8.2 41.4
Q 8.2 41.05 8.35 40.8 8.5 40.55 8.9 40.55
L 9.45 40.65 9.5 40.25 9.2 40.2 Z"/>
</g>

<g id="IT_160x600a_psd_Asset_2_IT__administrators__are_supporting__more_devices___hardware___s_0_Layer0_0_MEMBER_53_FILL">
<path fill="#D82C26" stroke="none" d="
M 9.85 45.05
Q 9.85 45.5 10.05 45.75 10.25 45.95 10.65 45.95
L 11.05 45.9 11.4 45.8 11.35 45.45 10.8 45.6
Q 10.55 45.6 10.4 45.45 10.3 45.35 10.3 45
L 10.3 42.75 11.2 42.75 11.25 42.4 10.3 42.4 10.3 41.4 9.85 41.6 9.85 42.4 9.3 42.4 9.2 42.75 9.85 42.75 9.85 45.05 Z"/>
</g>

<g id="IT_160x600a_psd_Asset_2_IT__administrators__are_supporting__more_devices___hardware___s_0_Layer0_0_MEMBER_54_FILL">
<path fill="#D82C26" stroke="none" d="
M 16.6 42.4
L 16.15 42.4 15.3 45.4 14.3 42.4 13.85 42.4 12.85 45.4 12 42.4 11.5 42.4 12.6 45.9 13.05 45.9 14.05 42.95 15.05 45.9 15.55 45.9 16.6 42.4 Z"/>
</g>

<g id="IT_160x600a_psd_Asset_2_IT__administrators__are_supporting__more_devices___hardware___s_0_Layer0_0_MEMBER_55_FILL">
<path fill="#D82C26" stroke="none" d="
M 18.3 42.65
Q 18.75 42.65 19 42.9 19.3 43.15 19.3 43.6
L 19.3 43.8 18.85 43.8
Q 16.85 43.8 16.85 44.95 16.85 45.4 17.2 45.75 17.55 46 18 46 18.25 46 18.75 45.8 19.05 45.6 19.3 45.2
L 19.3 45.6 19.35 45.9 19.75 45.9 19.7 43.65
Q 19.7 43 19.35 42.65 19 42.3 18.35 42.3
L 17.65 42.45
Q 17.4 42.5 17.05 42.75
L 17.2 43.1
Q 17.45 42.85 17.7 42.8 18 42.65 18.3 42.65
M 19.3 44.1
L 19.3 44.45
Q 19.3 44.8 19.15 45 19.05 45.2 18.75 45.5 18.45 45.65 18.05 45.65 17.75 45.65 17.5 45.5 17.3 45.3 17.3 44.95 17.3 44.1 18.9 44.1
L 19.3 44.1 Z"/>
</g>

<g id="IT_160x600a_psd_Asset_2_IT__administrators__are_supporting__more_devices___hardware___s_0_Layer0_0_MEMBER_56_FILL">
<path fill="#D82C26" stroke="none" d="
M 21 42.4
L 20.55 42.4 20.6 45.9 21.05 45.9 21.05 44.15
Q 21.05 43.45 21.3 43.15 21.55 42.7 22 42.7
L 22.35 42.75 22.4 42.4 22.05 42.3
Q 21.8 42.3 21.45 42.55 21.1 42.8 21.05 43.15
L 21 43.15 21 42.4 Z"/>
</g>

<g id="IT_160x600a_psd_Asset_2_IT__administrators__are_supporting__more_devices___hardware___s_0_Layer0_0_MEMBER_57_FILL">
<path fill="#D82C26" stroke="none" d="
M 23.25 42.55
Q 22.85 42.8 22.65 43.2 22.45 43.55 22.45 44.15 22.45 44.7 22.65 45.1 22.85 45.55 23.3 45.75 23.7 46 24.2 46 25 46 25.6 45.55
L 25.5 45.2
Q 25.1 45.45 24.95 45.5 24.65 45.65 24.25 45.65 23.8 45.65 23.55 45.45 23.2 45.25 23.05 44.95 22.85 44.6 22.85 44.2
L 25.8 44.2 25.8 44.05
Q 25.8 43.55 25.6 43.15 25.45 42.8 25.05 42.55 24.65 42.3 24.15 42.3 23.75 42.3 23.25 42.55
M 24.15 42.65
Q 24.7 42.65 25.05 43 25.3 43.25 25.4 43.9
L 22.85 43.9
Q 22.85 43.65 23 43.35 23.15 43.1 23.45 42.85 23.7 42.65 24.15 42.65 Z"/>
</g>

<g id="IT_160x600a_psd_Asset_2_IT__administrators__are_supporting__more_devices___hardware___s_0_Layer0_0_MEMBER_58_FILL">
<path fill="#D82C26" stroke="none" d="
M 26.45 45.85
L 26.7 45.95 26.9 45.85
Q 27 45.8 27 45.6 27 45.45 26.9 45.35
L 26.7 45.25 26.45 45.35 26.35 45.6 26.45 45.85 Z"/>
</g>

<g id="IT_160x600a_psd_Asset_2_IT__administrators__are_supporting__more_devices___hardware___s_0_Layer0_0_MEMBER_59_FILL">
<path fill="#D82C26" stroke="none" d="
M 27.85 45.85
L 28.1 45.95 28.3 45.85
Q 28.4 45.8 28.4 45.6 28.4 45.45 28.3 45.35
L 28.1 45.25 27.85 45.35 27.75 45.6 27.85 45.85 Z"/>
</g>

<g id="IT_160x600a_psd_Asset_2_IT__administrators__are_supporting__more_devices___hardware___s_0_Layer0_0_MEMBER_60_FILL">
<path fill="#D82C26" stroke="none" d="
M 29.25 45.85
L 29.5 45.95 29.7 45.85
Q 29.8 45.8 29.8 45.6 29.8 45.45 29.7 45.35
L 29.5 45.25 29.25 45.35 29.15 45.6 29.25 45.85 Z"/>
</g>
</defs>

<g transform="matrix( 1, 0, 0, 1, 21,51) ">
<g transform="matrix( 2.815704345703125, 0, 0, 2.832611083984375, -0.85,14.6) ">
<use xlink:href="#IT_160x600a_psd_Asset_2_IT__administrators__are_supporting__more_devices___hardware___s_0_Layer0_0_MEMBER_0_FILL"/>
</g>

<g transform="matrix( 2.815704345703125, 0, 0, 2.832611083984375, -0.85,14.6) ">
<use xlink:href="#IT_160x600a_psd_Asset_2_IT__administrators__are_supporting__more_devices___hardware___s_0_Layer0_0_MEMBER_1_FILL"/>
</g>

<g transform="matrix( 2.815704345703125, 0, 0, 2.832611083984375, -0.85,14.6) ">
<use xlink:href="#IT_160x600a_psd_Asset_2_IT__administrators__are_supporting__more_devices___hardware___s_0_Layer0_0_MEMBER_2_FILL"/>
</g>

<g transform="matrix( 2.815704345703125, 0, 0, 2.832611083984375, -0.85,14.6) ">
<use xlink:href="#IT_160x600a_psd_Asset_2_IT__administrators__are_supporting__more_devices___hardware___s_0_Layer0_0_MEMBER_3_FILL"/>
</g>

<g transform="matrix( 2.815704345703125, 0, 0, 2.832611083984375, -0.85,14.6) ">
<use xlink:href="#IT_160x600a_psd_Asset_2_IT__administrators__are_supporting__more_devices___hardware___s_0_Layer0_0_MEMBER_4_FILL"/>
</g>

<g transform="matrix( 2.815704345703125, 0, 0, 2.832611083984375, -0.85,14.6) ">
<use xlink:href="#IT_160x600a_psd_Asset_2_IT__administrators__are_supporting__more_devices___hardware___s_0_Layer0_0_MEMBER_5_FILL"/>
</g>

<g transform="matrix( 2.815704345703125, 0, 0, 2.832611083984375, -0.85,14.6) ">
<use xlink:href="#IT_160x600a_psd_Asset_2_IT__administrators__are_supporting__more_devices___hardware___s_0_Layer0_0_MEMBER_6_FILL"/>
</g>

<g transform="matrix( 2.815704345703125, 0, 0, 2.832611083984375, -0.85,14.6) ">
<use xlink:href="#IT_160x600a_psd_Asset_2_IT__administrators__are_supporting__more_devices___hardware___s_0_Layer0_0_MEMBER_7_FILL"/>
</g>

<g transform="matrix( 2.815704345703125, 0, 0, 2.832611083984375, -0.85,14.6) ">
<use xlink:href="#IT_160x600a_psd_Asset_2_IT__administrators__are_supporting__more_devices___hardware___s_0_Layer0_0_MEMBER_8_FILL"/>
</g>

<g transform="matrix( 2.815704345703125, 0, 0, 2.832611083984375, -0.85,14.6) ">
<use xlink:href="#IT_160x600a_psd_Asset_2_IT__administrators__are_supporting__more_devices___hardware___s_0_Layer0_0_MEMBER_9_FILL"/>
</g>

<g transform="matrix( 2.815704345703125, 0, 0, 2.832611083984375, -0.85,14.6) ">
<use xlink:href="#IT_160x600a_psd_Asset_2_IT__administrators__are_supporting__more_devices___hardware___s_0_Layer0_0_MEMBER_10_FILL"/>
</g>

<g transform="matrix( 2.815704345703125, 0, 0, 2.832611083984375, -0.85,14.6) ">
<use xlink:href="#IT_160x600a_psd_Asset_2_IT__administrators__are_supporting__more_devices___hardware___s_0_Layer0_0_MEMBER_11_FILL"/>
</g>

<g transform="matrix( 2.815704345703125, 0, 0, 2.832611083984375, -0.85,14.6) ">
<use xlink:href="#IT_160x600a_psd_Asset_2_IT__administrators__are_supporting__more_devices___hardware___s_0_Layer0_0_MEMBER_12_FILL"/>
</g>

<g transform="matrix( 2.815704345703125, 0, 0, 2.832611083984375, -0.85,14.6) ">
<use xlink:href="#IT_160x600a_psd_Asset_2_IT__administrators__are_supporting__more_devices___hardware___s_0_Layer0_0_MEMBER_13_FILL"/>
</g>

<g transform="matrix( 2.815704345703125, 0, 0, 2.832611083984375, -0.85,14.6) ">
<use xlink:href="#IT_160x600a_psd_Asset_2_IT__administrators__are_supporting__more_devices___hardware___s_0_Layer0_0_MEMBER_14_FILL"/>
</g>

<g transform="matrix( 2.815704345703125, 0, 0, 2.832611083984375, -0.85,14.6) ">
<use xlink:href="#IT_160x600a_psd_Asset_2_IT__administrators__are_supporting__more_devices___hardware___s_0_Layer0_0_MEMBER_15_FILL"/>
</g>

<g transform="matrix( 2.815704345703125, 0, 0, 2.832611083984375, -0.85,14.6) ">
<use xlink:href="#IT_160x600a_psd_Asset_2_IT__administrators__are_supporting__more_devices___hardware___s_0_Layer0_0_MEMBER_16_FILL"/>
</g>

<g transform="matrix( 2.815704345703125, 0, 0, 2.832611083984375, -0.85,14.6) ">
<use xlink:href="#IT_160x600a_psd_Asset_2_IT__administrators__are_supporting__more_devices___hardware___s_0_Layer0_0_MEMBER_17_FILL"/>
</g>

<g transform="matrix( 2.815704345703125, 0, 0, 2.832611083984375, -0.85,14.6) ">
<use xlink:href="#IT_160x600a_psd_Asset_2_IT__administrators__are_supporting__more_devices___hardware___s_0_Layer0_0_MEMBER_18_FILL"/>
</g>

<g transform="matrix( 2.815704345703125, 0, 0, 2.832611083984375, -0.85,14.6) ">
<use xlink:href="#IT_160x600a_psd_Asset_2_IT__administrators__are_supporting__more_devices___hardware___s_0_Layer0_0_MEMBER_19_FILL"/>
</g>

<g transform="matrix( 2.815704345703125, 0, 0, 2.832611083984375, -0.85,14.6) ">
<use xlink:href="#IT_160x600a_psd_Asset_2_IT__administrators__are_supporting__more_devices___hardware___s_0_Layer0_0_MEMBER_20_FILL"/>
</g>

<g transform="matrix( 2.815704345703125, 0, 0, 2.832611083984375, -0.85,14.6) ">
<use xlink:href="#IT_160x600a_psd_Asset_2_IT__administrators__are_supporting__more_devices___hardware___s_0_Layer0_0_MEMBER_21_FILL"/>
</g>

<g transform="matrix( 2.815704345703125, 0, 0, 2.832611083984375, -0.85,14.6) ">
<use xlink:href="#IT_160x600a_psd_Asset_2_IT__administrators__are_supporting__more_devices___hardware___s_0_Layer0_0_MEMBER_22_FILL"/>
</g>

<g transform="matrix( 2.815704345703125, 0, 0, 2.832611083984375, -0.85,14.6) ">
<use xlink:href="#IT_160x600a_psd_Asset_2_IT__administrators__are_supporting__more_devices___hardware___s_0_Layer0_0_MEMBER_23_FILL"/>
</g>

<g transform="matrix( 2.815704345703125, 0, 0, 2.832611083984375, -0.85,14.6) ">
<use xlink:href="#IT_160x600a_psd_Asset_2_IT__administrators__are_supporting__more_devices___hardware___s_0_Layer0_0_MEMBER_24_FILL"/>
</g>

<g transform="matrix( 2.815704345703125, 0, 0, 2.832611083984375, -0.85,14.6) ">
<use xlink:href="#IT_160x600a_psd_Asset_2_IT__administrators__are_supporting__more_devices___hardware___s_0_Layer0_0_MEMBER_25_FILL"/>
</g>

<g transform="matrix( 2.815704345703125, 0, 0, 2.832611083984375, -0.85,14.6) ">
<use xlink:href="#IT_160x600a_psd_Asset_2_IT__administrators__are_supporting__more_devices___hardware___s_0_Layer0_0_MEMBER_26_FILL"/>
</g>

<g transform="matrix( 2.815704345703125, 0, 0, 2.832611083984375, -0.85,14.6) ">
<use xlink:href="#IT_160x600a_psd_Asset_2_IT__administrators__are_supporting__more_devices___hardware___s_0_Layer0_0_MEMBER_27_FILL"/>
</g>

<g transform="matrix( 2.815704345703125, 0, 0, 2.832611083984375, -0.85,14.6) ">
<use xlink:href="#IT_160x600a_psd_Asset_2_IT__administrators__are_supporting__more_devices___hardware___s_0_Layer0_0_MEMBER_28_FILL"/>
</g>

<g transform="matrix( 2.815704345703125, 0, 0, 2.832611083984375, -0.85,14.6) ">
<use xlink:href="#IT_160x600a_psd_Asset_2_IT__administrators__are_supporting__more_devices___hardware___s_0_Layer0_0_MEMBER_29_FILL"/>
</g>

<g transform="matrix( 2.815704345703125, 0, 0, 2.832611083984375, -0.85,14.6) ">
<use xlink:href="#IT_160x600a_psd_Asset_2_IT__administrators__are_supporting__more_devices___hardware___s_0_Layer0_0_MEMBER_30_FILL"/>
</g>

<g transform="matrix( 2.815704345703125, 0, 0, 2.832611083984375, -0.85,14.6) ">
<use xlink:href="#IT_160x600a_psd_Asset_2_IT__administrators__are_supporting__more_devices___hardware___s_0_Layer0_0_MEMBER_31_FILL"/>
</g>

<g transform="matrix( 2.815704345703125, 0, 0, 2.832611083984375, -0.85,14.6) ">
<use xlink:href="#IT_160x600a_psd_Asset_2_IT__administrators__are_supporting__more_devices___hardware___s_0_Layer0_0_MEMBER_32_FILL"/>
</g>

<g transform="matrix( 2.815704345703125, 0, 0, 2.832611083984375, -0.85,14.6) ">
<use xlink:href="#IT_160x600a_psd_Asset_2_IT__administrators__are_supporting__more_devices___hardware___s_0_Layer0_0_MEMBER_33_FILL"/>
</g>

<g transform="matrix( 2.815704345703125, 0, 0, 2.832611083984375, -0.85,14.6) ">
<use xlink:href="#IT_160x600a_psd_Asset_2_IT__administrators__are_supporting__more_devices___hardware___s_0_Layer0_0_MEMBER_34_FILL"/>
</g>

<g transform="matrix( 2.815704345703125, 0, 0, 2.832611083984375, -0.85,14.6) ">
<use xlink:href="#IT_160x600a_psd_Asset_2_IT__administrators__are_supporting__more_devices___hardware___s_0_Layer0_0_MEMBER_35_FILL"/>
</g>

<g transform="matrix( 2.815704345703125, 0, 0, 2.832611083984375, -0.85,14.6) ">
<use xlink:href="#IT_160x600a_psd_Asset_2_IT__administrators__are_supporting__more_devices___hardware___s_0_Layer0_0_MEMBER_36_FILL"/>
</g>

<g transform="matrix( 2.815704345703125, 0, 0, 2.832611083984375, -0.85,14.6) ">
<use xlink:href="#IT_160x600a_psd_Asset_2_IT__administrators__are_supporting__more_devices___hardware___s_0_Layer0_0_MEMBER_37_FILL"/>
</g>

<g transform="matrix( 2.815704345703125, 0, 0, 2.832611083984375, -0.85,14.6) ">
<use xlink:href="#IT_160x600a_psd_Asset_2_IT__administrators__are_supporting__more_devices___hardware___s_0_Layer0_0_MEMBER_38_FILL"/>
</g>

<g transform="matrix( 2.815704345703125, 0, 0, 2.832611083984375, -0.85,14.6) ">
<use xlink:href="#IT_160x600a_psd_Asset_2_IT__administrators__are_supporting__more_devices___hardware___s_0_Layer0_0_MEMBER_39_FILL"/>
</g>

<g transform="matrix( 2.815704345703125, 0, 0, 2.832611083984375, -0.85,14.6) ">
<use xlink:href="#IT_160x600a_psd_Asset_2_IT__administrators__are_supporting__more_devices___hardware___s_0_Layer0_0_MEMBER_40_FILL"/>
</g>

<g transform="matrix( 2.815704345703125, 0, 0, 2.832611083984375, -0.85,14.6) ">
<use xlink:href="#IT_160x600a_psd_Asset_2_IT__administrators__are_supporting__more_devices___hardware___s_0_Layer0_0_MEMBER_41_FILL"/>
</g>

<g transform="matrix( 2.815704345703125, 0, 0, 2.832611083984375, -0.85,14.6) ">
<use xlink:href="#IT_160x600a_psd_Asset_2_IT__administrators__are_supporting__more_devices___hardware___s_0_Layer0_0_MEMBER_42_FILL"/>
</g>

<g transform="matrix( 2.815704345703125, 0, 0, 2.832611083984375, -0.85,14.6) ">
<use xlink:href="#IT_160x600a_psd_Asset_2_IT__administrators__are_supporting__more_devices___hardware___s_0_Layer0_0_MEMBER_43_FILL"/>
</g>

<g transform="matrix( 2.815704345703125, 0, 0, 2.832611083984375, -0.85,14.6) ">
<use xlink:href="#IT_160x600a_psd_Asset_2_IT__administrators__are_supporting__more_devices___hardware___s_0_Layer0_0_MEMBER_44_FILL"/>
</g>

<g transform="matrix( 2.815704345703125, 0, 0, 2.832611083984375, -0.85,14.6) ">
<use xlink:href="#IT_160x600a_psd_Asset_2_IT__administrators__are_supporting__more_devices___hardware___s_0_Layer0_0_MEMBER_45_FILL"/>
</g>

<g transform="matrix( 2.815704345703125, 0, 0, 2.832611083984375, -0.85,14.6) ">
<use xlink:href="#IT_160x600a_psd_Asset_2_IT__administrators__are_supporting__more_devices___hardware___s_0_Layer0_0_MEMBER_46_FILL"/>
</g>

<g transform="matrix( 2.815704345703125, 0, 0, 2.832611083984375, -0.85,14.6) ">
<use xlink:href="#IT_160x600a_psd_Asset_2_IT__administrators__are_supporting__more_devices___hardware___s_0_Layer0_0_MEMBER_47_FILL"/>
</g>

<g transform="matrix( 2.815704345703125, 0, 0, 2.832611083984375, -0.85,14.6) ">
<use xlink:href="#IT_160x600a_psd_Asset_2_IT__administrators__are_supporting__more_devices___hardware___s_0_Layer0_0_MEMBER_48_FILL"/>
</g>

<g transform="matrix( 2.815704345703125, 0, 0, 2.832611083984375, -0.85,14.6) ">
<use xlink:href="#IT_160x600a_psd_Asset_2_IT__administrators__are_supporting__more_devices___hardware___s_0_Layer0_0_MEMBER_49_FILL"/>
</g>

<g transform="matrix( 2.815704345703125, 0, 0, 2.832611083984375, -0.85,14.6) ">
<use xlink:href="#IT_160x600a_psd_Asset_2_IT__administrators__are_supporting__more_devices___hardware___s_0_Layer0_0_MEMBER_50_FILL"/>
</g>

<g transform="matrix( 2.815704345703125, 0, 0, 2.832611083984375, -0.85,14.6) ">
<use xlink:href="#IT_160x600a_psd_Asset_2_IT__administrators__are_supporting__more_devices___hardware___s_0_Layer0_0_MEMBER_51_FILL"/>
</g>

<g transform="matrix( 2.815704345703125, 0, 0, 2.832611083984375, -0.85,14.6) ">
<use xlink:href="#IT_160x600a_psd_Asset_2_IT__administrators__are_supporting__more_devices___hardware___s_0_Layer0_0_MEMBER_52_FILL"/>
</g>

<g transform="matrix( 2.815704345703125, 0, 0, 2.832611083984375, -0.85,14.6) ">
<use xlink:href="#IT_160x600a_psd_Asset_2_IT__administrators__are_supporting__more_devices___hardware___s_0_Layer0_0_MEMBER_53_FILL"/>
</g>

<g transform="matrix( 2.815704345703125, 0, 0, 2.832611083984375, -0.85,14.6) ">
<use xlink:href="#IT_160x600a_psd_Asset_2_IT__administrators__are_supporting__more_devices___hardware___s_0_Layer0_0_MEMBER_54_FILL"/>
</g>

<g transform="matrix( 2.815704345703125, 0, 0, 2.832611083984375, -0.85,14.6) ">
<use xlink:href="#IT_160x600a_psd_Asset_2_IT__administrators__are_supporting__more_devices___hardware___s_0_Layer0_0_MEMBER_55_FILL"/>
</g>

<g transform="matrix( 2.815704345703125, 0, 0, 2.832611083984375, -0.85,14.6) ">
<use xlink:href="#IT_160x600a_psd_Asset_2_IT__administrators__are_supporting__more_devices___hardware___s_0_Layer0_0_MEMBER_56_FILL"/>
</g>

<g transform="matrix( 2.815704345703125, 0, 0, 2.832611083984375, -0.85,14.6) ">
<use xlink:href="#IT_160x600a_psd_Asset_2_IT__administrators__are_supporting__more_devices___hardware___s_0_Layer0_0_MEMBER_57_FILL"/>
</g>

<g transform="matrix( 2.815704345703125, 0, 0, 2.832611083984375, -0.85,14.6) ">
<use xlink:href="#IT_160x600a_psd_Asset_2_IT__administrators__are_supporting__more_devices___hardware___s_0_Layer0_0_MEMBER_58_FILL"/>
</g>

<g transform="matrix( 2.815704345703125, 0, 0, 2.832611083984375, -0.85,14.6) ">
<use xlink:href="#IT_160x600a_psd_Asset_2_IT__administrators__are_supporting__more_devices___hardware___s_0_Layer0_0_MEMBER_59_FILL"/>
</g>

<g transform="matrix( 2.815704345703125, 0, 0, 2.832611083984375, -0.85,14.6) ">
<use xlink:href="#IT_160x600a_psd_Asset_2_IT__administrators__are_supporting__more_devices___hardware___s_0_Layer0_0_MEMBER_60_FILL"/>
</g>
</g>
</svg>
