
<svg xmlns="http://www.w3.org/2000/svg" version="1.1" xmlns:xlink="http://www.w3.org/1999/xlink" preserveAspectRatio="none" x="0px" y="0px" width="728px" height="90px" viewBox="0 0 728 90">
<defs>
<g id="BDM_728x90_FR_psd_Asset_6_V7_4_Comprenez_mieux__les_besoins_de_vos_clients___0_Layer0_0_MEMBER_0_FILL">
<path fill="#D82C26" stroke="none" d="
M 3.7 -5.8
Q 4.2 -5.8 4.8 -5.55 5.45 -5.3 5.65 -5
L 5.8 -5.55
Q 5.55 -5.8 4.9 -6.05 4.35 -6.25 3.7 -6.25 2.85 -6.25 2.05 -5.85 1.25 -5.3 0.95 -4.7 0.55 -4.05 0.55 -3.05 0.55 -2.05 0.95 -1.4 1.3 -0.65 2.05 -0.25 2.7 0.15 3.7 0.15 4.45 0.15 4.95 -0.1 5.5 -0.3 5.85 -0.65
L 5.7 -1.15
Q 5.4 -0.8 4.85 -0.55 4.25 -0.3 3.7 -0.3 3 -0.3 2.35 -0.7 1.85 -0.95 1.4 -1.65 1.1 -2.3 1.1 -3.05 1.1 -3.75 1.4 -4.45 1.75 -5.05 2.35 -5.4 3 -5.8 3.7 -5.8 Z"/>
</g>

<g id="BDM_728x90_FR_psd_Asset_6_V7_4_Comprenez_mieux__les_besoins_de_vos_clients___0_Layer0_0_MEMBER_1_FILL">
<path fill="#D82C26" stroke="none" d="
M 8.7 -4.15
Q 8.2 -4.15 7.6 -3.9 7.15 -3.6 6.85 -3.15 6.6 -2.7 6.6 -2 6.6 -1.35 6.85 -0.9 7.15 -0.45 7.6 -0.15 8.05 0.1 8.7 0.1 9.45 0.1 9.8 -0.15 10.3 -0.45 10.6 -0.9 10.85 -1.35 10.85 -2 10.85 -2.7 10.6 -3.15 10.3 -3.6 9.8 -3.9 9.3 -4.15 8.7 -4.15
M 8.7 -3.75
Q 9.2 -3.75 9.6 -3.5 10 -3.25 10.15 -2.9 10.35 -2.5 10.35 -2 10.35 -1.55 10.15 -1.15 10 -0.8 9.6 -0.55 9.2 -0.3 8.7 -0.3 8.25 -0.3 7.85 -0.55 7.45 -0.8 7.3 -1.15 7.1 -1.55 7.1 -2 7.1 -2.5 7.3 -2.9 7.45 -3.25 7.85 -3.5 8.25 -3.75 8.7 -3.75 Z"/>
</g>

<g id="BDM_728x90_FR_psd_Asset_6_V7_4_Comprenez_mieux__les_besoins_de_vos_clients___0_Layer0_0_MEMBER_2_FILL">
<path fill="#D82C26" stroke="none" d="
M 13.8 -3.75
Q 14.3 -3.75 14.55 -3.4 14.8 -3.1 14.8 -2.4
L 14.8 0 15.35 0 15.35 -2.1
Q 15.35 -2.85 15.7 -3.25 16.05 -3.75 16.6 -3.75 17.2 -3.75 17.4 -3.3 17.65 -3 17.65 -2.3
L 17.65 0 18.15 0 18.15 -2.4
Q 18.15 -3.25 17.8 -3.65 17.5 -4.15 16.7 -4.15 16.2 -4.15 15.8 -3.9 15.4 -3.55 15.25 -3.1 15.1 -3.6 14.75 -3.9 14.4 -4.15 13.9 -4.15 13.5 -4.15 13.1 -3.9 12.7 -3.55 12.55 -3.15
L 12.5 -3.15 12.45 -4.05 12 -4.05 12.05 0 12.55 0 12.55 -2
Q 12.55 -2.5 12.7 -2.95 12.85 -3.35 13.15 -3.5 13.5 -3.75 13.8 -3.75 Z"/>
</g>

<g id="BDM_728x90_FR_psd_Asset_6_V7_4_Comprenez_mieux__les_besoins_de_vos_clients___0_Layer0_0_MEMBER_3_FILL">
<path fill="#D82C26" stroke="none" d="
M 20 -4.05
L 19.5 -4.05 19.55 2.05 20.05 2.05 20.05 -0.85
Q 20.3 -0.4 20.75 -0.15 21.15 0.1 21.7 0.1 22.25 0.1 22.75 -0.15 23.25 -0.5 23.45 -0.95 23.7 -1.3 23.7 -2 23.7 -2.7 23.45 -3.1 23.25 -3.6 22.75 -3.85 22.3 -4.15 21.7 -4.15 21.25 -4.15 20.75 -3.9 20.25 -3.55 20.05 -3.15
L 20 -4.05
M 21.65 -3.75
Q 22.05 -3.75 22.45 -3.5 22.85 -3.25 23 -2.85 23.2 -2.5 23.2 -2 23.2 -1.5 23 -1.15 22.85 -0.8 22.45 -0.55 22.05 -0.3 21.65 -0.3 21.2 -0.3 20.8 -0.55 20.4 -0.8 20.25 -1.15 20.05 -1.5 20.05 -2 20.05 -2.5 20.25 -2.85 20.4 -3.25 20.8 -3.5 21.2 -3.75 21.65 -3.75 Z"/>
</g>

<g id="BDM_728x90_FR_psd_Asset_6_V7_4_Comprenez_mieux__les_besoins_de_vos_clients___0_Layer0_0_MEMBER_4_FILL">
<path fill="#D82C26" stroke="none" d="
M 25.3 -4.05
L 24.85 -4.05 24.9 0 25.4 0 25.4 -2
Q 25.4 -2.75 25.7 -3.2 26 -3.7 26.55 -3.7
L 26.9 -3.65 27 -4.1 26.55 -4.15
Q 26.25 -4.15 25.85 -3.9 25.55 -3.6 25.4 -3.15
L 25.35 -3.15 25.3 -4.05 Z"/>
</g>

<g id="BDM_728x90_FR_psd_Asset_6_V7_4_Comprenez_mieux__les_besoins_de_vos_clients___0_Layer0_0_MEMBER_5_FILL">
<path fill="#D82C26" stroke="none" d="
M 29.35 -4.15
Q 28.9 -4.15 28.3 -3.9 27.95 -3.65 27.6 -3.15 27.35 -2.55 27.35 -2.05 27.35 -1.5 27.6 -0.9 27.9 -0.45 28.35 -0.15 28.75 0.1 29.4 0.1 30.35 0.1 31 -0.4
L 30.95 -0.8 30.3 -0.45
Q 29.85 -0.3 29.45 -0.3 28.95 -0.3 28.6 -0.5 28.25 -0.75 28.05 -1.1 27.85 -1.45 27.85 -1.95
L 31.25 -1.95 31.25 -2.15
Q 31.25 -2.75 31.05 -3.15 30.85 -3.55 30.4 -3.9 29.9 -4.15 29.35 -4.15
M 29.35 -3.75
Q 30 -3.75 30.35 -3.35 30.7 -3.05 30.8 -2.3
L 27.85 -2.3
Q 27.85 -2.7 28.05 -2.95 28.2 -3.35 28.55 -3.55 28.8 -3.75 29.35 -3.75 Z"/>
</g>

<g id="BDM_728x90_FR_psd_Asset_6_V7_4_Comprenez_mieux__les_besoins_de_vos_clients___0_Layer0_0_MEMBER_6_FILL">
<path fill="#D82C26" stroke="none" d="
M 34.35 -4.15
Q 33.9 -4.15 33.5 -3.9 33.05 -3.6 32.9 -3.15
L 32.85 -4.05 32.35 -4.05 32.4 0 32.9 0 32.9 -2.05
Q 32.9 -2.6 33.1 -2.95 33.25 -3.35 33.6 -3.55 34 -3.75 34.25 -3.75 34.85 -3.75 35.1 -3.35 35.35 -2.85 35.35 -2.35
L 35.35 0 35.85 0 35.85 -2.45
Q 35.85 -3.25 35.5 -3.65 35.15 -4.15 34.35 -4.15 Z"/>
</g>

<g id="BDM_728x90_FR_psd_Asset_6_V7_4_Comprenez_mieux__les_besoins_de_vos_clients___0_Layer0_0_MEMBER_7_FILL">
<path fill="#D82C26" stroke="none" d="
M 40 -3.9
Q 39.6 -4.15 39 -4.15 38.45 -4.15 37.95 -3.9 37.45 -3.55 37.25 -3.15 37 -2.7 37 -2.05 37 -1.35 37.25 -0.9 37.6 -0.4 38 -0.15 38.4 0.1 39.05 0.1 40 0.1 40.65 -0.4
L 40.55 -0.8
Q 40.35 -0.6 39.9 -0.45 39.55 -0.3 39.1 -0.3 38.6 -0.3 38.25 -0.5 37.95 -0.7 37.7 -1.1 37.55 -1.35 37.45 -1.95
L 40.9 -1.95 40.9 -2.15
Q 40.9 -2.65 40.65 -3.15 40.5 -3.55 40 -3.9
M 39 -3.75
Q 39.65 -3.75 40 -3.35 40.4 -2.95 40.4 -2.3
L 37.5 -2.3
Q 37.5 -2.7 37.7 -2.95 37.85 -3.35 38.2 -3.55 38.45 -3.75 39 -3.75 Z"/>
</g>

<g id="BDM_728x90_FR_psd_Asset_6_V7_4_Comprenez_mieux__les_besoins_de_vos_clients___0_Layer0_0_MEMBER_8_FILL">
<path fill="#D82C26" stroke="none" d="
M 44.1 -3.65
L 41.6 -0.4 41.6 0 44.75 0 44.85 -0.4 42.2 -0.4 44.7 -3.65 44.7 -4.05 41.75 -4.05 41.65 -3.65 44.1 -3.65 Z"/>
</g>

<g id="BDM_728x90_FR_psd_Asset_6_V7_4_Comprenez_mieux__les_besoins_de_vos_clients___0_Layer0_0_MEMBER_9_FILL">
<path fill="#D82C26" stroke="none" d="
M 48.15 -3.15
L 48.1 -4.05 47.65 -4.05 47.65 0 48.2 0 48.2 -2
Q 48.2 -2.5 48.35 -2.95 48.5 -3.35 48.8 -3.5 49.15 -3.75 49.45 -3.75 49.95 -3.75 50.2 -3.4 50.45 -3 50.45 -2.4
L 50.45 0 50.95 0 50.95 -2.1
Q 50.95 -2.7 51.3 -3.25 51.7 -3.75 52.25 -3.75 52.85 -3.75 53.05 -3.3 53.3 -2.9 53.3 -2.3
L 53.3 0 53.8 0 53.8 -2.4
Q 53.8 -3.25 53.45 -3.65 53.1 -4.15 52.35 -4.15 51.85 -4.15 51.45 -3.9 51.05 -3.55 50.9 -3.1 50.8 -3.5 50.4 -3.9 50.05 -4.15 49.55 -4.15 49.1 -4.15 48.7 -3.9 48.4 -3.65 48.15 -3.15 Z"/>
</g>

<g id="BDM_728x90_FR_psd_Asset_6_V7_4_Comprenez_mieux__les_besoins_de_vos_clients___0_Layer0_0_MEMBER_10_FILL">
<path fill="#D82C26" stroke="none" d="
M 55.7 -4.05
L 55.2 -4.05 55.2 0 55.7 0 55.7 -4.05
M 55.45 -6
L 55.2 -5.9
Q 55.05 -5.8 55.05 -5.65 55.05 -5.45 55.2 -5.4 55.25 -5.3 55.45 -5.3 55.6 -5.3 55.7 -5.4
L 55.8 -5.65 55.7 -5.9 55.45 -6 Z"/>
</g>

<g id="BDM_728x90_FR_psd_Asset_6_V7_4_Comprenez_mieux__les_besoins_de_vos_clients___0_Layer0_0_MEMBER_11_FILL">
<path fill="#D82C26" stroke="none" d="
M 60.55 -3.15
Q 60.35 -3.55 59.9 -3.9 59.4 -4.15 58.85 -4.15 58.4 -4.15 57.8 -3.9 57.45 -3.65 57.1 -3.15 56.85 -2.55 56.85 -2.05 56.85 -1.5 57.1 -0.9 57.4 -0.45 57.85 -0.15 58.25 0.1 58.9 0.1 59.85 0.1 60.5 -0.4
L 60.45 -0.8 59.8 -0.45
Q 59.35 -0.3 58.95 -0.3 58.45 -0.3 58.1 -0.5 57.75 -0.75 57.55 -1.1 57.35 -1.45 57.35 -1.95
L 60.75 -1.95 60.75 -2.15
Q 60.75 -2.75 60.55 -3.15
M 58.85 -3.75
Q 59.5 -3.75 59.85 -3.35 60.2 -3.05 60.3 -2.3
L 57.35 -2.3
Q 57.35 -2.7 57.55 -2.95 57.7 -3.35 58.05 -3.55 58.3 -3.75 58.85 -3.75 Z"/>
</g>

<g id="BDM_728x90_FR_psd_Asset_6_V7_4_Comprenez_mieux__les_besoins_de_vos_clients___0_Layer0_0_MEMBER_12_FILL">
<path fill="#D82C26" stroke="none" d="
M 65.3 -4.05
L 64.8 -4.05 64.8 -2
Q 64.8 -1.6 64.6 -1.1 64.45 -0.7 64.1 -0.5 63.85 -0.3 63.45 -0.3 62.85 -0.3 62.6 -0.7 62.35 -1.1 62.35 -1.7
L 62.35 -4.05 61.85 -4.05 61.85 -1.55
Q 61.85 -0.85 62.2 -0.35 62.6 0.1 63.3 0.1 63.8 0.1 64.2 -0.15 64.6 -0.5 64.8 -0.85
L 64.85 0 65.35 0 65.3 -4.05 Z"/>
</g>

<g id="BDM_728x90_FR_psd_Asset_6_V7_4_Comprenez_mieux__les_besoins_de_vos_clients___0_Layer0_0_MEMBER_13_FILL">
<path fill="#D82C26" stroke="none" d="
M 66.4 -4.05
L 67.8 -2.1 66.2 0 66.85 0 68.15 -1.8 69.45 0 70.05 0 68.45 -2.15 69.9 -4.05 69.3 -4.05 68.15 -2.45 67 -4.05 66.4 -4.05 Z"/>
</g>

<g id="BDM_728x90_FR_psd_Asset_6_V7_4_Comprenez_mieux__les_besoins_de_vos_clients___0_Layer0_0_MEMBER_14_FILL">
<path fill="#D82C26" stroke="none" d="
M 1 9.85
Q 1.2 10.15 1.45 10.2
L 1.7 9.8 1.4 9.55 1.3 9.1 1.3 3.55 0.8 3.65 0.8 9.2
Q 0.8 9.65 1 9.85 Z"/>
</g>

<g id="BDM_728x90_FR_psd_Asset_6_V7_4_Comprenez_mieux__les_besoins_de_vos_clients___0_Layer0_0_MEMBER_15_FILL">
<path fill="#D82C26" stroke="none" d="
M 3.2 9
Q 2.95 8.6 2.95 8.15
L 6.4 8.15 6.4 7.95
Q 6.4 7.45 6.15 6.95 5.9 6.5 5.5 6.2 5 5.95 4.45 5.95 3.95 5.95 3.45 6.2 2.95 6.55 2.75 6.95 2.45 7.5 2.45 8.05 2.45 8.7 2.75 9.2 3 9.65 3.5 9.95 3.9 10.2 4.55 10.2 5.5 10.2 6.15 9.7
L 6.05 9.3
Q 5.9 9.45 5.4 9.65 5.05 9.8 4.6 9.8 4.1 9.8 3.75 9.6 3.35 9.35 3.2 9
M 3.7 6.55
Q 3.95 6.35 4.45 6.35 5.15 6.35 5.5 6.75 5.9 7.15 5.9 7.8
L 2.95 7.8 3.15 7.15
Q 3.4 6.75 3.7 6.55 Z"/>
</g>

<g id="BDM_728x90_FR_psd_Asset_6_V7_4_Comprenez_mieux__les_besoins_de_vos_clients___0_Layer0_0_MEMBER_16_FILL">
<path fill="#D82C26" stroke="none" d="
M 8.6 5.95
L 8 6.05
Q 7.65 6.25 7.5 6.45 7.3 6.65 7.3 7.05 7.3 7.5 7.55 7.75
L 9.3 8.55
Q 9.55 8.8 9.55 9.05 9.55 9.45 9.25 9.6 9.05 9.8 8.65 9.8 7.85 9.8 7.3 9.35
L 7.2 9.75
Q 7.35 9.9 7.85 10.1
L 8.65 10.2 9.3 10.1
Q 9.55 10 9.85 9.7 10 9.4 10 9.05 10 8.6 9.7 8.35 9.45 8.1 8.8 7.85 8.35 7.75 8 7.5 7.75 7.35 7.75 7.05 7.75 6.75 8 6.5 8.3 6.35 8.65 6.35
L 9.2 6.45 9.7 6.75 9.9 6.4
Q 9.7 6.2 9.35 6.1
L 8.6 5.95 Z"/>
</g>

<g id="BDM_728x90_FR_psd_Asset_6_V7_4_Comprenez_mieux__les_besoins_de_vos_clients___0_Layer0_0_MEMBER_17_FILL">
<path fill="#D82C26" stroke="none" d="
M 13.5 3.5
L 13 3.6 12.95 10.1 13.4 10.1 13.45 9.25 13.5 9.25
Q 13.75 9.75 14.15 9.95 14.55 10.2 15.15 10.2 15.6 10.2 16.2 9.95 16.7 9.6 16.9 9.15 17.15 8.65 17.15 8.1 17.15 7.5 16.9 7 16.65 6.45 16.2 6.25 15.75 5.95 15.15 5.95 14.6 5.95 14.2 6.2 13.7 6.55 13.5 6.95
L 13.5 3.5
M 14.25 6.6
Q 14.6 6.4 15.05 6.4 15.55 6.4 15.9 6.6 16.3 6.85 16.45 7.25 16.65 7.6 16.65 8.1 16.65 8.6 16.45 8.95 16.3 9.3 15.9 9.55 15.5 9.8 15.05 9.8 14.65 9.8 14.25 9.55 13.9 9.35 13.65 8.95 13.45 8.45 13.45 8.1 13.45 7.75 13.65 7.25 13.85 6.85 14.25 6.6 Z"/>
</g>

<g id="BDM_728x90_FR_psd_Asset_6_V7_4_Comprenez_mieux__les_besoins_de_vos_clients___0_Layer0_0_MEMBER_18_FILL">
<path fill="#D82C26" stroke="none" d="
M 21.75 6.95
Q 21.5 6.5 21.1 6.2 20.6 5.95 20.05 5.95 19.55 5.95 19.05 6.2 18.6 6.5 18.3 6.95 18.05 7.55 18.05 8.05 18.05 8.6 18.3 9.2 18.6 9.65 19.05 9.95 19.45 10.2 20.1 10.2 21.1 10.2 21.75 9.7
L 21.65 9.3 21 9.65
Q 20.65 9.8 20.15 9.8 19.7 9.8 19.35 9.6 19 9.4 18.75 9 18.55 8.65 18.55 8.15
L 21.95 8.15 21.95 7.95
Q 21.95 7.35 21.75 6.95
M 21.1 6.75
Q 21.5 7.15 21.5 7.8
L 18.55 7.8
Q 18.55 7.55 18.75 7.15 18.9 6.85 19.25 6.55 19.6 6.35 20.05 6.35 20.75 6.35 21.1 6.75 Z"/>
</g>

<g id="BDM_728x90_FR_psd_Asset_6_V7_4_Comprenez_mieux__les_besoins_de_vos_clients___0_Layer0_0_MEMBER_19_FILL">
<path fill="#D82C26" stroke="none" d="
M 24.2 5.95
L 23.55 6.05 23.05 6.45
Q 22.85 6.75 22.85 7.05 22.85 7.55 23.15 7.75
L 24 8.2
Q 24.5 8.35 24.85 8.55 25.1 8.75 25.1 9.05 25.1 9.5 24.85 9.6 24.65 9.8 24.2 9.8 23.45 9.8 22.9 9.35
L 22.8 9.75
Q 23 9.95 23.4 10.1
L 24.25 10.2 24.9 10.1
Q 25.25 9.95 25.4 9.7 25.6 9.45 25.6 9.05 25.6 8.6 25.3 8.35 25.05 8.1 24.35 7.85
L 23.55 7.5
Q 23.35 7.35 23.35 7.05 23.35 6.75 23.6 6.5 23.85 6.35 24.2 6.35
L 24.8 6.45 25.25 6.75 25.5 6.4
Q 25.3 6.2 24.9 6.1 24.6 5.95 24.2 5.95 Z"/>
</g>

<g id="BDM_728x90_FR_psd_Asset_6_V7_4_Comprenez_mieux__les_besoins_de_vos_clients___0_Layer0_0_MEMBER_20_FILL">
<path fill="#D82C26" stroke="none" d="
M 30.75 8.1
Q 30.75 7.5 30.45 6.95 30.15 6.5 29.7 6.2 29.1 5.95 28.55 5.95 28 5.95 27.5 6.2 27 6.5 26.7 6.95 26.45 7.4 26.45 8.1 26.45 8.75 26.7 9.2 27 9.65 27.5 9.95 27.9 10.2 28.55 10.2 29.25 10.2 29.7 9.95 30.15 9.65 30.45 9.2 30.75 8.7 30.75 8.1
M 30.2 8.1
Q 30.2 8.6 30 8.95 29.85 9.3 29.45 9.55 29.05 9.8 28.55 9.8 28.1 9.8 27.7 9.55 27.3 9.3 27.15 8.95 26.95 8.6 26.95 8.1 26.95 7.6 27.15 7.2 27.3 6.85 27.7 6.6 28.05 6.4 28.55 6.4 29.1 6.4 29.45 6.6 29.85 6.85 30 7.2 30.2 7.6 30.2 8.1 Z"/>
</g>

<g id="BDM_728x90_FR_psd_Asset_6_V7_4_Comprenez_mieux__les_besoins_de_vos_clients___0_Layer0_0_MEMBER_21_FILL">
<path fill="#D82C26" stroke="none" d="
M 32.4 6.1
L 31.85 6.1 31.85 10.1 32.4 10.1 32.4 6.1
M 32.5 4.45
Q 32.5 4.3 32.35 4.2
L 32.1 4.1 31.85 4.2 31.75 4.45 31.85 4.7 32.1 4.85
Q 32.3 4.85 32.35 4.7 32.5 4.65 32.5 4.45 Z"/>
</g>

<g id="BDM_728x90_FR_psd_Asset_6_V7_4_Comprenez_mieux__les_besoins_de_vos_clients___0_Layer0_0_MEMBER_22_FILL">
<path fill="#D82C26" stroke="none" d="
M 34.25 6.1
L 33.75 6.1 33.8 10.1 34.3 10.1 34.3 8.05
Q 34.3 7.5 34.5 7.15 34.65 6.75 35 6.55 35.3 6.4 35.65 6.4 36.3 6.4 36.5 6.8 36.75 7.2 36.75 7.75
L 36.75 10.1 37.25 10.1 37.25 7.65
Q 37.25 6.85 36.9 6.45 36.55 5.95 35.75 5.95 35.3 5.95 34.9 6.25 34.45 6.45 34.3 6.95
L 34.25 6.1 Z"/>
</g>

<g id="BDM_728x90_FR_psd_Asset_6_V7_4_Comprenez_mieux__les_besoins_de_vos_clients___0_Layer0_0_MEMBER_23_FILL">
<path fill="#D82C26" stroke="none" d="
M 40.8 6.75
L 41 6.4
Q 40.75 6.15 40.45 6.1 40.1 5.95 39.75 5.95
L 39.1 6.05
Q 38.75 6.25 38.6 6.45 38.4 6.65 38.4 7.05 38.4 7.55 38.7 7.75 38.9 7.95 39.55 8.2 39.85 8.3 40.4 8.55 40.65 8.8 40.65 9.05 40.65 9.45 40.4 9.6 40.15 9.8 39.75 9.8 39 9.8 38.4 9.35
L 38.3 9.75 38.95 10.1 39.75 10.2 40.45 10.1 40.95 9.7
Q 41.15 9.3 41.15 9.05 41.15 8.6 40.85 8.35 40.6 8.1 39.9 7.85 39.45 7.75 39.1 7.5 38.85 7.35 38.85 7.05 38.85 6.75 39.1 6.5 39.4 6.35 39.75 6.35
L 40.3 6.45 40.8 6.75 Z"/>
</g>

<g id="BDM_728x90_FR_psd_Asset_6_V7_4_Comprenez_mieux__les_besoins_de_vos_clients___0_Layer0_0_MEMBER_24_FILL">
<path fill="#D82C26" stroke="none" d="
M 47.95 3.5
L 47.45 3.6 47.45 6.95
Q 47.1 6.45 46.75 6.2 46.25 5.95 45.8 5.95 45.2 5.95 44.75 6.25 44.4 6.45 44 7 43.75 7.6 43.75 8.1 43.75 8.65 44 9.15 44.3 9.65 44.75 9.95 45.25 10.2 45.8 10.2 46.4 10.2 46.75 9.95 47.2 9.7 47.45 9.25
L 47.5 10.1 48 10.1 47.95 3.5
M 44.45 7.25
Q 44.65 6.85 45 6.6 45.35 6.4 45.85 6.4 46.35 6.4 46.7 6.6 47 6.8 47.25 7.25 47.45 7.6 47.45 8.1 47.45 8.6 47.25 8.95 47 9.35 46.7 9.55 46.3 9.8 45.85 9.8 45.4 9.8 45 9.55 44.65 9.3 44.45 8.95 44.3 8.6 44.3 8.1 44.3 7.65 44.45 7.25 Z"/>
</g>

<g id="BDM_728x90_FR_psd_Asset_6_V7_4_Comprenez_mieux__les_besoins_de_vos_clients___0_Layer0_0_MEMBER_25_FILL">
<path fill="#D82C26" stroke="none" d="
M 52.8 6.95
Q 52.6 6.55 52.15 6.2 51.65 5.95 51.1 5.95 50.6 5.95 50.1 6.2 49.65 6.5 49.35 6.95 49.1 7.55 49.1 8.05 49.1 8.6 49.35 9.2 49.65 9.65 50.1 9.95 50.5 10.2 51.15 10.2 52.2 10.2 52.75 9.7
L 52.7 9.3 52.05 9.65
Q 51.7 9.8 51.2 9.8 50.65 9.8 50.4 9.6 50.05 9.4 49.8 9 49.6 8.65 49.6 8.15
L 53 8.15 53 7.95
Q 53 7.35 52.8 6.95
M 51.1 6.35
Q 51.75 6.35 52.15 6.75 52.45 7.05 52.55 7.8
L 49.6 7.8
Q 49.6 7.4 49.8 7.15 49.95 6.85 50.3 6.55 50.65 6.35 51.1 6.35 Z"/>
</g>

<g id="BDM_728x90_FR_psd_Asset_6_V7_4_Comprenez_mieux__les_besoins_de_vos_clients___0_Layer0_0_MEMBER_26_FILL">
<path fill="#D82C26" stroke="none" d="
M 55.3 6.1
L 56.85 10.1 57.4 10.1 58.9 6.1 58.4 6.1 57.15 9.6 55.85 6.1 55.3 6.1 Z"/>
</g>

<g id="BDM_728x90_FR_psd_Asset_6_V7_4_Comprenez_mieux__les_besoins_de_vos_clients___0_Layer0_0_MEMBER_27_FILL">
<path fill="#D82C26" stroke="none" d="
M 63.65 8.1
Q 63.65 7.5 63.35 6.95 63.15 6.5 62.6 6.2 62 5.95 61.5 5.95 60.9 5.95 60.4 6.2 59.85 6.6 59.65 6.95 59.35 7.5 59.35 8.1 59.35 8.7 59.65 9.2 59.85 9.6 60.4 9.95 60.8 10.2 61.5 10.2 62.15 10.2 62.6 9.95 63.15 9.65 63.35 9.2 63.65 8.7 63.65 8.1
M 61.5 6.4
Q 62 6.4 62.35 6.6 62.75 6.85 62.95 7.2 63.15 7.8 63.15 8.1 63.15 8.6 62.95 8.95 62.75 9.35 62.35 9.55 61.95 9.8 61.5 9.8 61.05 9.8 60.65 9.55 60.3 9.35 60.05 8.95 59.85 8.45 59.85 8.1 59.85 7.8 60.05 7.2 60.3 6.85 60.65 6.6 61 6.4 61.5 6.4 Z"/>
</g>

<g id="BDM_728x90_FR_psd_Asset_6_V7_4_Comprenez_mieux__les_besoins_de_vos_clients___0_Layer0_0_MEMBER_28_FILL">
<path fill="#D82C26" stroke="none" d="
M 66.6 6.1
L 65.85 5.95 65.25 6.05
Q 64.95 6.2 64.75 6.45 64.55 6.65 64.55 7.05 64.55 7.5 64.8 7.75
L 66.55 8.55
Q 66.8 8.8 66.8 9.05 66.8 9.45 66.5 9.6 66.3 9.8 65.9 9.8 65.1 9.8 64.55 9.35
L 64.45 9.75
Q 64.6 9.9 65.1 10.1
L 65.9 10.2 66.55 10.1
Q 66.8 10 67.1 9.7 67.25 9.4 67.25 9.05 67.25 8.6 66.95 8.35 66.7 8.1 66.05 7.85 65.6 7.75 65.25 7.5 65 7.35 65 7.05 65 6.75 65.25 6.5 65.5 6.35 65.9 6.35
L 66.45 6.45 66.95 6.75 67.15 6.4
Q 66.95 6.2 66.6 6.1 Z"/>
</g>

<g id="BDM_728x90_FR_psd_Asset_6_V7_4_Comprenez_mieux__les_besoins_de_vos_clients___0_Layer0_0_MEMBER_29_FILL">
<path fill="#D82C26" stroke="none" d="
M 72.8 6.1
Q 72.45 5.95 72 5.95 71.45 5.95 70.95 6.2 70.4 6.5 70.2 7 69.9 7.45 69.9 8.1 69.9 8.7 70.2 9.2 70.4 9.65 70.9 9.95 71.35 10.2 72 10.2 72.55 10.2 72.8 10.1 73.2 9.95 73.4 9.75
L 73.3 9.3
Q 73 9.6 72.75 9.65 72.45 9.8 72.05 9.8 71.6 9.8 71.2 9.55 70.8 9.3 70.65 8.95 70.45 8.6 70.45 8.1 70.45 7.6 70.65 7.25 70.8 6.85 71.2 6.6 71.55 6.4 72.05 6.4 72.45 6.4 72.65 6.5 72.8 6.55 73.2 6.8
L 73.4 6.45
Q 73.1 6.15 72.8 6.1 Z"/>
</g>

<g id="BDM_728x90_FR_psd_Asset_6_V7_4_Comprenez_mieux__les_besoins_de_vos_clients___0_Layer0_0_MEMBER_30_FILL">
<path fill="#D82C26" stroke="none" d="
M 74.5 9.85
Q 74.8 10.15 75 10.2
L 75.2 9.8 74.9 9.55 74.85 9.1 74.85 3.55 74.3 3.65 74.3 9.2
Q 74.3 9.55 74.5 9.85 Z"/>
</g>

<g id="BDM_728x90_FR_psd_Asset_6_V7_4_Comprenez_mieux__les_besoins_de_vos_clients___0_Layer0_0_MEMBER_31_FILL">
<path fill="#D82C26" stroke="none" d="
M 76.8 6.1
L 76.3 6.1 76.3 10.1 76.8 10.1 76.8 6.1
M 76.9 4.45
L 76.8 4.2 76.55 4.1 76.3 4.2
Q 76.2 4.3 76.2 4.45 76.2 4.65 76.3 4.7 76.4 4.85 76.55 4.85 76.75 4.85 76.8 4.7
L 76.9 4.45 Z"/>
</g>

<g id="BDM_728x90_FR_psd_Asset_6_V7_4_Comprenez_mieux__les_besoins_de_vos_clients___0_Layer0_0_MEMBER_32_FILL">
<path fill="#D82C26" stroke="none" d="
M 81.65 6.95
Q 81.4 6.5 81 6.2 80.5 5.95 79.95 5.95 79.45 5.95 78.95 6.2 78.5 6.5 78.2 6.95 77.95 7.55 77.95 8.05 77.95 8.6 78.2 9.2 78.5 9.65 78.95 9.95 79.35 10.2 80 10.2 81 10.2 81.65 9.7
L 81.55 9.3 80.9 9.65
Q 80.55 9.8 80.05 9.8 79.6 9.8 79.25 9.6 78.9 9.4 78.65 9 78.45 8.65 78.45 8.15
L 81.85 8.15 81.85 7.95
Q 81.85 7.35 81.65 6.95
M 81 6.75
Q 81.4 7.15 81.4 7.8
L 78.45 7.8
Q 78.45 7.55 78.65 7.15 78.8 6.85 79.15 6.55 79.5 6.35 79.95 6.35 80.65 6.35 81 6.75 Z"/>
</g>

<g id="BDM_728x90_FR_psd_Asset_6_V7_4_Comprenez_mieux__les_besoins_de_vos_clients___0_Layer0_0_MEMBER_33_FILL">
<path fill="#D82C26" stroke="none" d="
M 83.45 6.1
L 83 6.1 83 10.1 83.55 10.1 83.55 8.05
Q 83.55 7.55 83.7 7.15 83.85 6.85 84.2 6.55 84.5 6.4 84.85 6.4 85.5 6.4 85.7 6.8 85.95 7.1 85.95 7.75
L 85.95 10.1 86.45 10.1 86.45 7.65
Q 86.45 6.85 86.1 6.45 85.75 5.95 84.95 5.95 84.5 5.95 84.1 6.25 83.75 6.4 83.5 6.95
L 83.45 6.1 Z"/>
</g>

<g id="BDM_728x90_FR_psd_Asset_6_V7_4_Comprenez_mieux__les_besoins_de_vos_clients___0_Layer0_0_MEMBER_34_FILL">
<path fill="#D82C26" stroke="none" d="
M 87.95 6.1
L 87.3 6.1 87.2 6.45 87.95 6.45 87.95 9.15
Q 87.95 9.7 88.2 9.9 88.45 10.2 88.85 10.2
L 89.35 10.15 89.75 9.95 89.65 9.6
Q 89.15 9.8 89 9.8 88.8 9.8 88.6 9.6 88.45 9.45 88.45 9.05
L 88.45 6.45 89.5 6.45 89.6 6.1 88.45 6.1 88.45 4.9 87.95 5.1 87.95 6.1 Z"/>
</g>

<g id="BDM_728x90_FR_psd_Asset_6_V7_4_Comprenez_mieux__les_besoins_de_vos_clients___0_Layer0_0_MEMBER_35_FILL">
<path fill="#D82C26" stroke="none" d="
M 91.85 5.95
L 91.2 6.05
Q 90.85 6.25 90.7 6.45 90.5 6.65 90.5 7.05 90.5 7.55 90.8 7.75 91 7.95 91.65 8.2 91.95 8.3 92.5 8.55 92.75 8.8 92.75 9.05 92.75 9.45 92.5 9.6 92.25 9.8 91.85 9.8 91.1 9.8 90.5 9.35
L 90.4 9.75 91.05 10.1 91.85 10.2 92.55 10.1 93.05 9.7
Q 93.25 9.3 93.25 9.05 93.25 8.6 92.95 8.35 92.7 8.1 92 7.85 91.55 7.75 91.2 7.5 90.95 7.35 90.95 7.05 90.95 6.75 91.2 6.5 91.5 6.35 91.85 6.35
L 92.4 6.45 92.9 6.75 93.1 6.4
Q 92.85 6.15 92.55 6.1 92.25 5.95 91.85 5.95 Z"/>
</g>

<g id="BDM_728x90_FR_psd_Asset_6_V7_4_Comprenez_mieux__les_besoins_de_vos_clients___0_Layer0_0_MEMBER_36_FILL">
<path fill="#D82C26" stroke="none" d="
M 94.45 10.05
Q 94.5 10.15 94.7 10.15
L 94.95 10.05
Q 95.1 9.9 95.1 9.75 95.1 9.6 94.95 9.5 94.9 9.4 94.7 9.4 94.5 9.4 94.45 9.5 94.3 9.6 94.3 9.75 94.3 10 94.45 10.05 Z"/>
</g>

<g id="BDM_728x90_FR_psd_Asset_6_V7_4_CTA_copy_3_Regardez_la_vid_o__0_Layer0_0_MEMBER_0_FILL">
<path fill="#24B9D1" stroke="none" d="
M 6.7 -16.7
L 1.6 -16.7 1.6 0 3.95 0 3.95 -6.9 6.55 -6.9 10.75 0 13.55 0 8.9 -7.25
Q 10.45 -7.7 11.45 -8.95 12.55 -10.2 12.55 -12 12.55 -14.55 10.85 -15.6 9.25 -16.7 6.7 -16.7
M 6.4 -14.75
Q 8.1 -14.75 9.1 -14.1 10.2 -13.4 10.2 -11.95 10.2 -10.4 9.1 -9.55 8.1 -8.75 6.4 -8.75
L 3.95 -8.75 3.95 -14.75 6.4 -14.75 Z"/>
</g>

<g id="BDM_728x90_FR_psd_Asset_6_V7_4_CTA_copy_3_Regardez_la_vid_o__0_Layer0_0_MEMBER_1_FILL">
<path fill="#24B9D1" stroke="none" d="
M 15.3 -2.55
Q 16 -1.2 17.45 -0.4 18.8 0.35 20.5 0.35 23.1 0.35 25.1 -0.95
L 24.75 -2.75
Q 24.15 -2.25 22.95 -1.8 21.75 -1.45 20.75 -1.45 19.6 -1.45 18.75 -1.95 17.8 -2.4 17.3 -3.3 16.75 -4.15 16.7 -5.15
L 25.8 -5.15 25.8 -5.85
Q 25.8 -7.55 25.15 -8.85 24.5 -10.1 23.25 -10.9 22 -11.65 20.3 -11.65 18.7 -11.65 17.4 -10.9 16.05 -10.15 15.3 -8.8 14.5 -7.5 14.5 -5.7 14.5 -4 15.3 -2.55
M 17.2 -8.2
Q 17.6 -8.9 18.45 -9.5 19.25 -10 20.35 -10 21.85 -10 22.75 -9.1 23.65 -8.1 23.65 -6.65
L 16.75 -6.65
Q 16.75 -7.3 17.2 -8.2 Z"/>
</g>

<g id="BDM_728x90_FR_psd_Asset_6_V7_4_CTA_copy_3_Regardez_la_vid_o__0_Layer0_0_MEMBER_2_FILL">
<path fill="#24B9D1" stroke="none" d="
M 28.15 -2.7
Q 28.85 -1.35 30.1 -0.6 31.35 0.2 33.05 0.2 34.35 0.2 35.45 -0.4 36.55 -1.05 37.15 -2.1
L 37.25 -2.1 37.25 -0.35
Q 37.25 1.5 36.25 2.75 35.3 3.85 33.2 3.85 31.8 3.85 30.75 3.45 29.5 3 28.55 2.35
L 28.2 4.35
Q 29.05 4.95 30.55 5.35 31.8 5.75 33.35 5.75 36.4 5.75 37.95 4.1 39.5 2.3 39.5 -0.5
L 39.55 -11.3 37.45 -11.3 37.3 -9.25 37.25 -9.25
Q 36.65 -10.4 35.45 -11 34.35 -11.65 33 -11.65 31.45 -11.65 30.1 -10.85 28.8 -10 28.15 -8.7 27.45 -7.2 27.45 -5.7 27.45 -4.1 28.15 -2.7
M 29.7 -5.7
Q 29.7 -6.85 30.15 -7.75 30.6 -8.7 31.5 -9.2 32.35 -9.75 33.5 -9.75 34.6 -9.75 35.45 -9.2 36.35 -8.7 36.8 -7.75 37.3 -6.8 37.3 -5.7 37.3 -4.55 36.8 -3.7 36.4 -2.85 35.45 -2.2 34.65 -1.7 33.5 -1.7 32.25 -1.7 31.5 -2.25 30.6 -2.75 30.15 -3.7 29.7 -4.6 29.7 -5.7 Z"/>
</g>

<g id="BDM_728x90_FR_psd_Asset_6_V7_4_CTA_copy_3_Regardez_la_vid_o__0_Layer0_0_MEMBER_3_FILL">
<path fill="#24B9D1" stroke="none" d="
M 49.3 -6.9
L 48.35 -6.9
Q 45.55 -6.9 43.75 -6.1 41.9 -5.3 41.9 -3.15 41.9 -1.35 42.95 -0.55 44.05 0.3 45.4 0.3 46.65 0.3 47.75 -0.25 48.9 -0.75 49.35 -1.8
L 49.4 -1.8 49.6 0 51.7 0
Q 51.5 -0.8 51.5 -2.35
L 51.5 -7.05
Q 51.5 -9.35 50.35 -10.5 49.2 -11.65 47 -11.65 44.4 -11.65 42.5 -10.3
L 43.1 -8.6
Q 43.65 -9.15 44.7 -9.55 45.7 -9.9 46.6 -9.9 47.85 -9.9 48.6 -9.3 49.3 -8.6 49.3 -7.35
L 49.3 -6.9
M 44.6 -1.75
Q 44.05 -2.15 44.05 -3.2 44.05 -5.5 48.45 -5.5
L 49.4 -5.5 49.4 -4.65
Q 49.4 -3.85 49 -3.05 48.55 -2.3 47.85 -1.8 47 -1.3 46.05 -1.3 45.2 -1.3 44.6 -1.75 Z"/>
</g>

<g id="BDM_728x90_FR_psd_Asset_6_V7_4_CTA_copy_3_Regardez_la_vid_o__0_Layer0_0_MEMBER_4_FILL">
<path fill="#24B9D1" stroke="none" d="
M 57.6 -8.45
Q 58.35 -9.65 59.7 -9.65 60.3 -9.65 60.7 -9.45
L 61.05 -11.45
Q 60.6 -11.65 59.8 -11.65 58.95 -11.65 58.05 -11 57.15 -10.25 56.8 -9.15
L 56.75 -9.15
Q 56.75 -10.45 56.6 -11.3
L 54.4 -11.3
Q 54.55 -10.4 54.55 -8.5
L 54.55 0 56.8 0 56.8 -5.7
Q 56.8 -7.15 57.6 -8.45 Z"/>
</g>

<g id="BDM_728x90_FR_psd_Asset_6_V7_4_CTA_copy_3_Regardez_la_vid_o__0_Layer0_0_MEMBER_5_FILL">
<path fill="#24B9D1" stroke="none" d="
M 73.2 -18.2
L 70.9 -17.85 70.9 -9.35 70.85 -9.35
Q 70.3 -10.35 69.15 -11 68.05 -11.65 66.7 -11.65 65.15 -11.65 63.8 -10.85 62.6 -10 61.85 -8.7 61.15 -7.2 61.15 -5.7 61.15 -4.15 61.85 -2.65 62.5 -1.35 63.8 -0.5 65.05 0.3 66.7 0.3 68.1 0.3 69.25 -0.35 70.4 -0.95 71 -2.1
L 71.05 -2.1 71.15 0 73.3 0 73.2 -18.2
M 69.15 -9.2
Q 70.05 -8.65 70.5 -7.7 71 -6.75 71 -5.65 71 -4.5 70.5 -3.65 70.05 -2.75 69.15 -2.15 68.3 -1.6 67.2 -1.6 66.05 -1.6 65.2 -2.15 64.4 -2.65 63.85 -3.65 63.4 -4.55 63.4 -5.7 63.4 -6.8 63.85 -7.7 64.4 -8.75 65.2 -9.2 66.05 -9.75 67.2 -9.75 68.3 -9.75 69.15 -9.2 Z"/>
</g>

<g id="BDM_728x90_FR_psd_Asset_6_V7_4_CTA_copy_3_Regardez_la_vid_o__0_Layer0_0_MEMBER_6_FILL">
<path fill="#24B9D1" stroke="none" d="
M 76.4 -2.55
Q 77.2 -1.15 78.55 -0.4 79.9 0.35 81.6 0.35 84.3 0.35 86.2 -0.95
L 85.9 -2.75
Q 85.1 -2.2 84.05 -1.8 82.85 -1.45 81.85 -1.45 80.7 -1.45 79.85 -1.95 78.9 -2.4 78.4 -3.3 77.85 -4.15 77.85 -5.15
L 86.9 -5.15 86.9 -5.85
Q 86.9 -7.55 86.25 -8.85 85.6 -10.15 84.35 -10.9 83.1 -11.65 81.4 -11.65 79.85 -11.65 78.5 -10.9 77.15 -10.15 76.4 -8.8 75.65 -7.45 75.65 -5.7 75.65 -3.9 76.4 -2.55
M 78.35 -8.2
Q 78.75 -8.95 79.6 -9.5 80.3 -10 81.45 -10 82.95 -10 83.85 -9.1 84.75 -8.15 84.8 -6.65
L 77.85 -6.65
Q 77.95 -7.5 78.35 -8.2 Z"/>
</g>

<g id="BDM_728x90_FR_psd_Asset_6_V7_4_CTA_copy_3_Regardez_la_vid_o__0_Layer0_0_MEMBER_7_FILL">
<path fill="#24B9D1" stroke="none" d="
M 94.65 -9.5
L 88.3 -1.8 88.3 0 97.5 0 97.85 -1.8 91.05 -1.8 97.4 -9.55 97.4 -11.3 88.7 -11.3 88.35 -9.5 94.65 -9.5 Z"/>
</g>

<g id="BDM_728x90_FR_psd_Asset_6_V7_4_CTA_copy_3_Regardez_la_vid_o__0_Layer0_0_MEMBER_8_FILL">
<path fill="#24B9D1" stroke="none" d="
M 105.05 -17.8
L 105.05 -3.4
Q 105.05 -0.7 107.3 0.35
L 108.55 -1.45
Q 107.9 -1.85 107.6 -2.35 107.35 -2.95 107.35 -3.8
L 107.35 -18.1 105.05 -17.8 Z"/>
</g>

<g id="BDM_728x90_FR_psd_Asset_6_V7_4_CTA_copy_3_Regardez_la_vid_o__0_Layer0_0_MEMBER_9_FILL">
<path fill="#24B9D1" stroke="none" d="
M 109.8 -3.15
Q 109.8 -1.35 110.85 -0.55 111.95 0.3 113.35 0.3 114.6 0.3 115.7 -0.25 116.7 -0.75 117.3 -1.8
L 117.35 -1.8 117.55 0 119.6 0
Q 119.45 -0.9 119.45 -2.35
L 119.45 -7.05
Q 119.45 -9.35 118.25 -10.5 117.15 -11.65 114.9 -11.65 112.35 -11.65 110.45 -10.3
L 111.05 -8.6
Q 111.6 -9.15 112.65 -9.55 113.55 -9.9 114.5 -9.9 115.8 -9.9 116.55 -9.3 117.25 -8.6 117.25 -7.35
L 117.25 -6.9 116.3 -6.9
Q 113.5 -6.9 111.7 -6.1 109.8 -5.25 109.8 -3.15
M 115.75 -1.8
Q 114.9 -1.3 114 -1.3 113.15 -1.3 112.55 -1.75 111.95 -2.2 111.95 -3.2 111.95 -5.5 116.4 -5.5
L 117.35 -5.5 117.35 -4.65
Q 117.35 -3.85 116.95 -3.05 116.5 -2.25 115.75 -1.8 Z"/>
</g>

<g id="BDM_728x90_FR_psd_Asset_6_V7_4_CTA_copy_3_Regardez_la_vid_o__0_Layer0_0_MEMBER_10_FILL">
<path fill="#24B9D1" stroke="none" d="
M 128.35 -11.3
L 125.85 -11.3 130.2 0 132.75 0 137.05 -11.3 134.65 -11.3 131.5 -2.4 128.35 -11.3 Z"/>
</g>

<g id="BDM_728x90_FR_psd_Asset_6_V7_4_CTA_copy_3_Regardez_la_vid_o__0_Layer0_0_MEMBER_11_FILL">
<path fill="#24B9D1" stroke="none" d="
M 140.75 -11.3
L 138.45 -11.3 138.45 0 140.75 0 140.75 -11.3
M 138.6 -14.5
Q 139.05 -14.05 139.6 -14.05 140.15 -14.05 140.6 -14.5 141.05 -14.85 141.05 -15.5 141.05 -16.05 140.6 -16.5 140.1 -16.9 139.6 -16.9 139.1 -16.9 138.6 -16.5 138.2 -16.1 138.2 -15.5 138.2 -14.85 138.6 -14.5 Z"/>
</g>

<g id="BDM_728x90_FR_psd_Asset_6_V7_4_CTA_copy_3_Regardez_la_vid_o__0_Layer0_0_MEMBER_12_FILL">
<path fill="#24B9D1" stroke="none" d="
M 155.2 -18.2
L 152.95 -17.85 152.95 -9.35 152.9 -9.35
Q 152.2 -10.45 151.15 -11 150.05 -11.65 148.7 -11.65 147.15 -11.65 145.8 -10.85 144.55 -10 143.9 -8.7 143.2 -7.35 143.2 -5.7 143.2 -4 143.85 -2.65 144.5 -1.35 145.8 -0.5 147.05 0.3 148.75 0.3 150.1 0.3 151.25 -0.35 152.35 -0.95 153.05 -2.1
L 153.15 0 155.3 0 155.2 -18.2
M 149.2 -9.75
Q 150.3 -9.75 151.15 -9.2 152.05 -8.65 152.5 -7.7 153 -6.75 153 -5.65 153 -4.5 152.5 -3.65 152.05 -2.75 151.15 -2.15 150.3 -1.6 149.2 -1.6 148.05 -1.6 147.2 -2.15 146.35 -2.8 145.9 -3.65 145.4 -4.65 145.4 -5.7 145.4 -6.7 145.9 -7.7 146.35 -8.65 147.2 -9.2 148.05 -9.75 149.2 -9.75 Z"/>
</g>

<g id="BDM_728x90_FR_psd_Asset_6_V7_4_CTA_copy_3_Regardez_la_vid_o__0_Layer0_0_MEMBER_13_FILL">
<path fill="#24B9D1" stroke="none" d="
M 166.85 -16.8
L 164.4 -16.8 161.95 -13.4 163.75 -13.4 166.85 -16.8
M 158.45 -2.55
Q 159.2 -1.15 160.55 -0.4 161.9 0.35 163.6 0.35 166.25 0.35 168.25 -0.95
L 167.9 -2.75
Q 167.1 -2.2 166.05 -1.8 164.9 -1.45 163.9 -1.45 162.7 -1.45 161.85 -1.95 161 -2.4 160.45 -3.3 159.95 -4 159.85 -5.15
L 168.9 -5.15 168.95 -5.85
Q 168.95 -7.4 168.3 -8.85 167.65 -10.15 166.35 -10.9 165.15 -11.65 163.45 -11.65 161.85 -11.65 160.5 -10.9 159.25 -10.15 158.4 -8.8 157.65 -7.45 157.65 -5.7 157.65 -3.85 158.45 -2.55
M 160.35 -8.2
Q 160.75 -8.95 161.6 -9.5 162.4 -10 163.45 -10 164.95 -10 165.85 -9.1 166.75 -8.15 166.8 -6.65
L 159.85 -6.65
Q 159.95 -7.5 160.35 -8.2 Z"/>
</g>

<g id="BDM_728x90_FR_psd_Asset_6_V7_4_CTA_copy_3_Regardez_la_vid_o__0_Layer0_0_MEMBER_14_FILL">
<path fill="#24B9D1" stroke="none" d="
M 170.6 -5.7
Q 170.6 -3.95 171.4 -2.55 172.25 -1.2 173.6 -0.4 174.95 0.35 176.7 0.35 178.45 0.35 179.8 -0.4 181.3 -1.25 182 -2.55 182.8 -3.85 182.8 -5.7 182.8 -7.5 182 -8.8 181.25 -10.15 179.8 -10.9 178.45 -11.65 176.7 -11.65 174.95 -11.65 173.6 -10.9 172.25 -10.2 171.4 -8.8 170.6 -7.5 170.6 -5.7
M 178.75 -9.2
Q 179.65 -8.65 180.1 -7.7 180.55 -6.8 180.55 -5.7 180.55 -4.55 180.1 -3.65 179.65 -2.75 178.75 -2.15 177.8 -1.6 176.7 -1.6 175.6 -1.6 174.65 -2.15 173.75 -2.75 173.3 -3.65 172.85 -4.55 172.85 -5.7 172.85 -6.8 173.3 -7.7 173.75 -8.65 174.65 -9.2 175.6 -9.75 176.7 -9.75 177.8 -9.75 178.75 -9.2 Z"/>
</g>

<g id="BDM_728x90_FR_psd_Asset_6_V7_4_CTA_copy_3_Regardez_la_vid_o__0_Layer0_0_MEMBER_15_FILL">
<path fill="#24B9D1" stroke="none" d="
M 184.7 -1.35
Q 184.7 -0.7 185.15 -0.25 185.6 0.2 186.25 0.2 186.9 0.2 187.35 -0.25 187.8 -0.7 187.8 -1.35 187.8 -2 187.35 -2.45 186.9 -2.9 186.25 -2.9 185.6 -2.9 185.15 -2.4 184.7 -1.95 184.7 -1.35 Z"/>
</g>

<g id="BDM_728x90_FR_psd_Asset_6_V7_4_footer_copy_3_Faites_en_plus_avec_le_Wi_Fi_en_tant_que_service__copy_7_0_Layer0_0_MEMBER_0_FILL">
<path fill="#838282" stroke="none" d="
M -70.9 -9.2
L -76 -9.2 -76 0 -74.7 0 -74.7 -4.1 -71.35 -4.1 -71.15 -5.2 -74.7 -5.2 -74.7 -8.05 -71.05 -8.05 -70.9 -9.2 Z"/>
</g>

<g id="BDM_728x90_FR_psd_Asset_6_V7_4_footer_copy_3_Faites_en_plus_avec_le_Wi_Fi_en_tant_que_service__copy_7_0_Layer0_0_MEMBER_1_FILL">
<path fill="#838282" stroke="none" d="
M -66.7 -3.8
L -67.2 -3.8
Q -68.75 -3.8 -69.75 -3.35 -70.8 -2.9 -70.8 -1.75 -70.8 -0.75 -70.2 -0.3 -69.65 0.15 -68.85 0.15 -68.15 0.15 -67.55 -0.15 -66.95 -0.45 -66.7 -1
L -66.65 -1 -66.55 0 -65.4 0 -65.5 -3.9
Q -65.5 -5.15 -66.15 -5.8 -66.8 -6.4 -68 -6.4 -69.35 -6.4 -70.45 -5.7
L -70.15 -4.75
Q -69.85 -5 -69.25 -5.25 -68.7 -5.45 -68.2 -5.45 -67.45 -5.45 -67.1 -5.1 -66.7 -4.7 -66.7 -4.05
L -66.7 -3.8
M -69.3 -0.95
Q -69.6 -1.25 -69.6 -1.75 -69.6 -3.05 -67.2 -3.05
L -66.65 -3.05 -66.65 -2.55
Q -66.65 -2.1 -66.9 -1.7 -67.15 -1.2 -67.5 -1 -67.85 -0.75 -68.5 -0.75 -69.05 -0.75 -69.3 -0.95 Z"/>
</g>

<g id="BDM_728x90_FR_psd_Asset_6_V7_4_footer_copy_3_Faites_en_plus_avec_le_Wi_Fi_en_tant_que_service__copy_7_0_Layer0_0_MEMBER_2_FILL">
<path fill="#838282" stroke="none" d="
M -62.55 -6.25
L -63.85 -6.25 -63.85 0 -62.55 0 -62.55 -6.25
M -64 -8.55
Q -64 -8.3 -63.75 -7.95 -63.55 -7.75 -63.2 -7.75 -62.85 -7.75 -62.65 -7.95 -62.4 -8.3 -62.4 -8.55 -62.4 -8.85 -62.65 -9.1 -62.85 -9.3 -63.2 -9.3 -63.55 -9.3 -63.75 -9.1 -64 -8.85 -64 -8.55 Z"/>
</g>

<g id="BDM_728x90_FR_psd_Asset_6_V7_4_footer_copy_3_Faites_en_plus_avec_le_Wi_Fi_en_tant_que_service__copy_7_0_Layer0_0_MEMBER_3_FILL">
<path fill="#838282" stroke="none" d="
M -61.6 -6.25
L -61.8 -5.25 -60.65 -5.25 -60.65 -1.7
Q -60.65 -0.85 -60.25 -0.35 -59.8 0.15 -59 0.15 -58.2 0.15 -57.5 -0.2
L -57.65 -1.1
Q -58.25 -0.85 -58.6 -0.85 -59.4 -0.85 -59.4 -1.9
L -59.4 -5.25 -57.9 -5.25 -57.7 -6.25 -59.4 -6.25 -59.4 -7.95 -60.65 -7.65 -60.65 -6.25 -61.6 -6.25 Z"/>
</g>

<g id="BDM_728x90_FR_psd_Asset_6_V7_4_footer_copy_3_Faites_en_plus_avec_le_Wi_Fi_en_tant_que_service__copy_7_0_Layer0_0_MEMBER_4_FILL">
<path fill="#838282" stroke="none" d="
M -57.1 -3.15
Q -57.1 -2.2 -56.7 -1.4 -56.25 -0.6 -55.5 -0.25 -54.75 0.2 -53.8 0.2 -52.35 0.2 -51.3 -0.55
L -51.45 -1.5
Q -51.8 -1.25 -52.5 -1 -52.95 -0.8 -53.7 -0.8 -54.2 -0.8 -54.8 -1.05 -55.35 -1.4 -55.6 -1.8 -55.9 -2.25 -55.9 -2.85
L -50.9 -2.85 -50.9 -3.2
Q -50.9 -4.2 -51.25 -4.85 -51.65 -5.65 -52.3 -6 -52.9 -6.4 -53.95 -6.4 -54.9 -6.4 -55.55 -6 -56.25 -5.6 -56.7 -4.85 -57.1 -4.05 -57.1 -3.15
M -52.6 -5
Q -52.1 -4.5 -52.1 -3.65
L -55.9 -3.65
Q -55.8 -4.25 -55.6 -4.5 -55.35 -4.95 -54.95 -5.25 -54.45 -5.5 -53.9 -5.5 -53.05 -5.5 -52.6 -5 Z"/>
</g>

<g id="BDM_728x90_FR_psd_Asset_6_V7_4_footer_copy_3_Faites_en_plus_avec_le_Wi_Fi_en_tant_que_service__copy_7_0_Layer0_0_MEMBER_5_FILL">
<path fill="#838282" stroke="none" d="
M -47.7 -6.4
Q -48.3 -6.4 -48.75 -6.2 -49.2 -6.05 -49.6 -5.6 -49.9 -5.15 -49.9 -4.6 -49.9 -3.8 -49.45 -3.45 -49.05 -3.05 -48.15 -2.8 -47.5 -2.65 -46.95 -2.3 -46.6 -2.1 -46.6 -1.7 -46.6 -1.2 -46.95 -1 -47.35 -0.75 -47.85 -0.75 -48.95 -0.75 -49.85 -1.5
L -50.05 -0.45 -49.05 0
Q -48.15 0.2 -47.7 0.2 -47.2 0.2 -46.6 -0.05 -46.2 -0.15 -45.7 -0.65 -45.4 -1.1 -45.4 -1.75 -45.4 -2.45 -45.9 -2.9 -46.25 -3.25 -47.35 -3.6 -48.2 -3.85 -48.45 -4.05 -48.75 -4.25 -48.75 -4.65 -48.75 -5.1 -48.4 -5.25 -48.05 -5.5 -47.6 -5.5 -47.15 -5.5 -46.8 -5.3 -46.4 -5.15 -46.05 -4.9
L -45.55 -5.75
Q -45.9 -6 -46.5 -6.25 -47 -6.4 -47.7 -6.4 Z"/>
</g>

<g id="BDM_728x90_FR_psd_Asset_6_V7_4_footer_copy_3_Faites_en_plus_avec_le_Wi_Fi_en_tant_que_service__copy_7_0_Layer0_0_MEMBER_6_FILL">
<path fill="#838282" stroke="none" d="
M -44.6 -3.85
L -44.6 -2.8 -41.7 -2.8 -41.7 -3.85 -44.6 -3.85 Z"/>
</g>

<g id="BDM_728x90_FR_psd_Asset_6_V7_4_footer_copy_3_Faites_en_plus_avec_le_Wi_Fi_en_tant_que_service__copy_7_0_Layer0_0_MEMBER_7_FILL">
<path fill="#838282" stroke="none" d="
M -39.3 -6
Q -40 -5.6 -40.45 -4.85 -40.85 -4.05 -40.85 -3.15 -40.85 -2.15 -40.4 -1.4 -40 -0.65 -39.25 -0.25 -38.5 0.2 -37.55 0.2 -36.1 0.2 -35.05 -0.55
L -35.2 -1.5 -36.2 -1
Q -36.75 -0.8 -37.4 -0.8 -37.95 -0.8 -38.55 -1.05 -39.1 -1.4 -39.3 -1.8 -39.55 -2.2 -39.65 -2.85
L -34.65 -2.85 -34.65 -3.2
Q -34.65 -4.2 -35 -4.85 -35.4 -5.65 -36.05 -6 -36.65 -6.4 -37.65 -6.4 -38.65 -6.4 -39.3 -6
M -36.35 -5
Q -35.9 -4.55 -35.8 -3.65
L -39.65 -3.65
Q -39.55 -4.15 -39.35 -4.5 -39.15 -4.9 -38.7 -5.25 -38.2 -5.5 -37.65 -5.5 -36.8 -5.5 -36.35 -5 Z"/>
</g>

<g id="BDM_728x90_FR_psd_Asset_6_V7_4_footer_copy_3_Faites_en_plus_avec_le_Wi_Fi_en_tant_que_service__copy_7_0_Layer0_0_MEMBER_8_FILL">
<path fill="#838282" stroke="none" d="
M -32.15 -6.25
L -33.35 -6.25 -33.3 0 -32.05 0 -32.05 -3.25
Q -32.05 -4.15 -31.55 -4.8 -31.15 -5.35 -30.3 -5.35 -29.55 -5.35 -29.25 -4.85 -28.9 -4.25 -28.9 -3.5
L -28.9 0 -27.65 0 -27.65 -3.8
Q -27.65 -4.85 -28.2 -5.65 -28.8 -6.4 -29.95 -6.4 -30.7 -6.4 -31.25 -6.05 -31.85 -5.65 -32.05 -5.05
L -32.1 -5.05 -32.15 -6.25 Z"/>
</g>

<g id="BDM_728x90_FR_psd_Asset_6_V7_4_footer_copy_3_Faites_en_plus_avec_le_Wi_Fi_en_tant_que_service__copy_7_0_Layer0_0_MEMBER_9_FILL">
<path fill="#838282" stroke="none" d="
M -21.95 -6.25
L -23.15 -6.25 -23.1 3.1 -21.85 3.1 -21.85 -1.1 -21.8 -1.1
Q -21.5 -0.5 -20.85 -0.15 -20.25 0.15 -19.55 0.15 -18.65 0.15 -17.95 -0.25 -17.25 -0.7 -16.85 -1.45 -16.5 -2.15 -16.5 -3.15 -16.5 -4.1 -16.85 -4.8 -17.25 -5.6 -17.95 -5.95 -18.6 -6.4 -19.55 -6.4 -20.35 -6.4 -20.9 -6.05 -21.5 -5.7 -21.85 -5.1
L -21.9 -5.1 -21.9 -5.95 -21.95 -6.25
M -21.9 -3.1
Q -21.9 -3.65 -21.65 -4.25 -21.3 -4.8 -20.85 -5.05 -20.4 -5.35 -19.8 -5.35 -19.15 -5.35 -18.7 -5.05 -18.25 -4.75 -17.95 -4.25 -17.7 -3.65 -17.7 -3.15 -17.7 -2.6 -17.95 -2 -18.25 -1.5 -18.7 -1.2 -19.15 -0.9 -19.8 -0.9 -20.4 -0.9 -20.85 -1.2 -21.35 -1.5 -21.65 -2 -21.9 -2.6 -21.9 -3.1 Z"/>
</g>

<g id="BDM_728x90_FR_psd_Asset_6_V7_4_footer_copy_3_Faites_en_plus_avec_le_Wi_Fi_en_tant_que_service__copy_7_0_Layer0_0_MEMBER_10_FILL">
<path fill="#838282" stroke="none" d="
M -15.15 -9.8
L -15.15 -1.9
Q -15.15 -0.4 -13.9 0.2
L -13.2 -0.8
Q -13.55 -1 -13.7 -1.3 -13.85 -1.6 -13.85 -2.1
L -13.85 -9.95 -15.15 -9.8 Z"/>
</g>

<g id="BDM_728x90_FR_psd_Asset_6_V7_4_footer_copy_3_Faites_en_plus_avec_le_Wi_Fi_en_tant_que_service__copy_7_0_Layer0_0_MEMBER_11_FILL">
<path fill="#838282" stroke="none" d="
M -12.15 -2.4
Q -12.15 -1.35 -11.6 -0.55 -11.05 0.15 -9.9 0.15 -9.15 0.15 -8.6 -0.2 -7.95 -0.6 -7.75 -1.15
L -7.65 0 -6.4 0
Q -6.5 -0.45 -6.5 -1.35
L -6.5 -6.25 -7.75 -6.25 -7.75 -3.05
Q -7.75 -2.1 -8.25 -1.45 -8.7 -0.85 -9.5 -0.85 -10.25 -0.85 -10.55 -1.4 -10.9 -2 -10.9 -2.7
L -10.9 -6.25 -12.15 -6.25 -12.15 -2.4 Z"/>
</g>

<g id="BDM_728x90_FR_psd_Asset_6_V7_4_footer_copy_3_Faites_en_plus_avec_le_Wi_Fi_en_tant_que_service__copy_7_0_Layer0_0_MEMBER_12_FILL">
<path fill="#838282" stroke="none" d="
M -2.85 -6.4
Q -3.5 -6.4 -3.9 -6.2 -4.45 -6.05 -4.75 -5.6 -5.1 -5.2 -5.1 -4.6 -5.1 -3.8 -4.65 -3.45 -4.15 -3.05 -3.3 -2.8 -2.65 -2.6 -2.1 -2.3 -1.75 -2.05 -1.75 -1.7 -1.75 -1.25 -2.1 -1 -2.5 -0.75 -3 -0.75 -4.05 -0.75 -5.05 -1.5
L -5.2 -0.45 -4.2 0
Q -3.4 0.2 -2.9 0.2 -2.35 0.2 -1.75 -0.05 -1.25 -0.2 -0.9 -0.65 -0.55 -1.05 -0.55 -1.75 -0.55 -2.4 -1.05 -2.9 -1.45 -3.25 -2.5 -3.6 -3.3 -3.8 -3.6 -4.05 -3.9 -4.25 -3.9 -4.65 -3.9 -5.1 -3.6 -5.25 -3.2 -5.5 -2.8 -5.5 -2.35 -5.5 -1.95 -5.3
L -1.2 -4.9 -0.75 -5.75
Q -0.95 -5.95 -1.65 -6.25 -2.25 -6.4 -2.85 -6.4 Z"/>
</g>

<g id="BDM_728x90_FR_psd_Asset_6_V7_4_footer_copy_3_Faites_en_plus_avec_le_Wi_Fi_en_tant_que_service__copy_7_0_Layer0_0_MEMBER_13_FILL">
<path fill="#838282" stroke="none" d="
M -86.55 9.3
L -86.25 10.25
Q -85.95 10 -85.35 9.75 -84.8 9.55 -84.3 9.55 -83.6 9.55 -83.2 9.9 -82.8 10.2 -82.8 10.95
L -82.8 11.2 -83.35 11.2
Q -84.85 11.2 -85.85 11.65 -86.9 12.1 -86.9 13.25 -86.9 14.25 -86.3 14.7 -85.75 15.15 -84.95 15.15 -84.25 15.15 -83.65 14.85 -83.05 14.55 -82.8 14
L -82.75 14 -82.65 15 -81.5 15 -81.6 11.1
Q -81.6 9.85 -82.25 9.2 -82.9 8.6 -84.1 8.6 -85.55 8.6 -86.55 9.3
M -83.3 11.95
L -82.75 11.95 -82.75 12.45
Q -82.75 12.9 -83 13.3 -83.25 13.8 -83.6 14 -83.95 14.25 -84.6 14.25 -85.15 14.25 -85.4 14 -85.7 13.8 -85.7 13.25 -85.7 11.95 -83.3 11.95 Z"/>
</g>

<g id="BDM_728x90_FR_psd_Asset_6_V7_4_footer_copy_3_Faites_en_plus_avec_le_Wi_Fi_en_tant_que_service__copy_7_0_Layer0_0_MEMBER_14_FILL">
<path fill="#838282" stroke="none" d="
M -80.95 8.75
L -78.55 15 -77.15 15 -74.75 8.75 -76.1 8.75 -77.85 13.7 -79.55 8.75 -80.95 8.75 Z"/>
</g>

<g id="BDM_728x90_FR_psd_Asset_6_V7_4_footer_copy_3_Faites_en_plus_avec_le_Wi_Fi_en_tant_que_service__copy_7_0_Layer0_0_MEMBER_15_FILL">
<path fill="#838282" stroke="none" d="
M -68.55 10.1
Q -68.95 9.35 -69.65 9 -70.25 8.6 -71.25 8.6 -72.2 8.6 -72.85 9 -73.5 9.35 -74 10.15 -74.4 10.8 -74.4 11.85 -74.4 12.95 -74 13.6 -73.55 14.4 -72.8 14.75 -72.05 15.2 -71.15 15.2 -69.65 15.2 -68.6 14.45
L -68.8 13.5 -69.8 14
Q -70.25 14.2 -71 14.2 -71.55 14.2 -72.1 13.9 -72.55 13.7 -72.9 13.2 -73.2 12.75 -73.2 12.15
L -68.2 12.15 -68.2 11.75
Q -68.2 11 -68.55 10.1
M -69.9 10
Q -69.4 10.5 -69.4 11.35
L -73.2 11.35
Q -73.2 10.95 -72.95 10.45 -72.55 9.95 -72.25 9.75 -71.75 9.5 -71.25 9.5 -70.4 9.5 -69.9 10 Z"/>
</g>

<g id="BDM_728x90_FR_psd_Asset_6_V7_4_footer_copy_3_Faites_en_plus_avec_le_Wi_Fi_en_tant_que_service__copy_7_0_Layer0_0_MEMBER_16_FILL">
<path fill="#838282" stroke="none" d="
M -66.85 10.15
Q -67.3 10.9 -67.3 11.9 -67.3 12.85 -66.85 13.6 -66.45 14.35 -65.7 14.75 -64.95 15.2 -64.05 15.2 -63.4 15.2 -62.8 14.95 -62.2 14.8 -61.85 14.45
L -62 13.45
Q -62.45 13.8 -62.85 13.95 -63.3 14.1 -63.85 14.1 -64.45 14.1 -65 13.8 -65.45 13.5 -65.75 13 -66 12.4 -66 11.9 -66 11.2 -65.75 10.75 -65.55 10.25 -65 9.95 -64.55 9.65 -63.95 9.65 -63.5 9.65 -63.05 9.8 -62.6 9.95 -62.3 10.25
L -61.85 9.3
Q -62.1 9 -62.75 8.75 -63.35 8.6 -63.95 8.6 -65 8.6 -65.65 9 -66.4 9.35 -66.85 10.15 Z"/>
</g>

<g id="BDM_728x90_FR_psd_Asset_6_V7_4_footer_copy_3_Faites_en_plus_avec_le_Wi_Fi_en_tant_que_service__copy_7_0_Layer0_0_MEMBER_17_FILL">
<path fill="#838282" stroke="none" d="
M -58 13.1
Q -58 14.6 -56.7 15.2
L -56.05 14.2
Q -56.4 14 -56.55 13.7 -56.7 13.4 -56.7 12.9
L -56.7 5.05 -58 5.2 -58 13.1 Z"/>
</g>

<g id="BDM_728x90_FR_psd_Asset_6_V7_4_footer_copy_3_Faites_en_plus_avec_le_Wi_Fi_en_tant_que_service__copy_7_0_Layer0_0_MEMBER_18_FILL">
<path fill="#838282" stroke="none" d="
M -49.5 10.1
Q -49.85 9.35 -50.55 9 -51.15 8.6 -52.15 8.6 -53.1 8.6 -53.75 9 -54.5 9.4 -54.9 10.15 -55.35 10.9 -55.35 11.85 -55.35 12.85 -54.9 13.6 -54.45 14.4 -53.7 14.75 -53 15.2 -52.05 15.2 -50.55 15.2 -49.5 14.45
L -49.7 13.5 -50.7 14
Q -51.15 14.2 -51.9 14.2 -52.55 14.2 -53 13.9 -53.45 13.7 -53.8 13.2 -54.1 12.75 -54.1 12.15
L -49.15 12.15 -49.1 11.75
Q -49.1 10.9 -49.5 10.1
M -52.15 9.5
Q -51.3 9.5 -50.8 10 -50.3 10.6 -50.3 11.35
L -54.1 11.35
Q -54.1 10.95 -53.85 10.45 -53.6 10.05 -53.15 9.75 -52.65 9.5 -52.15 9.5 Z"/>
</g>

<g id="BDM_728x90_FR_psd_Asset_6_V7_4_footer_copy_3_Faites_en_plus_avec_le_Wi_Fi_en_tant_que_service__copy_7_0_Layer0_0_MEMBER_19_FILL">
<path fill="#838282" stroke="none" d="
M -39 5.8
L -40.45 5.8 -42.55 13.25 -44.6 5.8 -46 5.8 -43.3 15 -41.9 15 -39.75 7.5 -39.7 7.5 -37.5 15 -36.1 15 -33.45 5.8 -34.8 5.8 -36.85 13.25 -39 5.8 Z"/>
</g>

<g id="BDM_728x90_FR_psd_Asset_6_V7_4_footer_copy_3_Faites_en_plus_avec_le_Wi_Fi_en_tant_que_service__copy_7_0_Layer0_0_MEMBER_20_FILL">
<path fill="#838282" stroke="none" d="
M -31.3 8.75
L -32.55 8.75 -32.55 15 -31.3 15 -31.3 8.75
M -31.4 5.9
Q -31.6 5.7 -31.95 5.7 -32.3 5.7 -32.5 5.9 -32.75 6.15 -32.75 6.45 -32.75 6.75 -32.5 7 -32.25 7.25 -31.95 7.25 -31.65 7.25 -31.4 7 -31.15 6.75 -31.15 6.45 -31.15 6.15 -31.4 5.9 Z"/>
</g>

<g id="BDM_728x90_FR_psd_Asset_6_V7_4_footer_copy_3_Faites_en_plus_avec_le_Wi_Fi_en_tant_que_service__copy_7_0_Layer0_0_MEMBER_21_FILL">
<path fill="#838282" stroke="none" d="
M -30 11.15
L -30 12.2 -27.15 12.2 -27.15 11.15 -30 11.15 Z"/>
</g>

<g id="BDM_728x90_FR_psd_Asset_6_V7_4_footer_copy_3_Faites_en_plus_avec_le_Wi_Fi_en_tant_que_service__copy_7_0_Layer0_0_MEMBER_22_FILL">
<path fill="#838282" stroke="none" d="
M -20.65 5.8
L -25.75 5.8 -25.75 15 -24.45 15 -24.45 10.9 -21.1 10.9 -20.9 9.8 -24.45 9.8 -24.45 6.95 -20.75 6.95 -20.65 5.8 Z"/>
</g>

<g id="BDM_728x90_FR_psd_Asset_6_V7_4_footer_copy_3_Faites_en_plus_avec_le_Wi_Fi_en_tant_que_service__copy_7_0_Layer0_0_MEMBER_23_FILL">
<path fill="#838282" stroke="none" d="
M -18.4 8.75
L -19.65 8.75 -19.65 15 -18.4 15 -18.4 8.75
M -18.5 5.9
Q -18.7 5.7 -19.05 5.7 -19.4 5.7 -19.6 5.9 -19.8 6.1 -19.8 6.45 -19.8 6.8 -19.6 7 -19.35 7.25 -19.05 7.25 -18.75 7.25 -18.5 7 -18.25 6.75 -18.25 6.45 -18.25 6.15 -18.5 5.9 Z"/>
</g>

<g id="BDM_728x90_FR_psd_Asset_6_V7_4_footer_copy_3_Faites_en_plus_avec_le_Wi_Fi_en_tant_que_service__copy_7_0_Layer0_0_MEMBER_24_FILL">
<path fill="#838282" stroke="none" d="
M -8.35 10.1
Q -8.75 9.35 -9.4 9 -10 8.6 -11 8.6 -12 8.6 -12.65 9 -13.35 9.4 -13.8 10.15 -14.2 10.95 -14.2 11.85 -14.2 12.8 -13.8 13.6 -13.35 14.4 -12.6 14.75 -11.85 15.2 -10.9 15.2 -9.45 15.2 -8.4 14.45
L -8.55 13.5 -9.55 14
Q -10.1 14.2 -10.75 14.2 -11.35 14.2 -11.9 13.9 -12.4 13.65 -12.7 13.2 -13 12.6 -13 12.15
L -8 12.15 -8 11.75
Q -8 10.8 -8.35 10.1
M -9.7 10
Q -9.2 10.5 -9.2 11.35
L -13 11.35
Q -12.9 10.75 -12.7 10.45 -12.45 10 -12.05 9.75 -11.55 9.5 -11 9.5 -10.15 9.5 -9.7 10 Z"/>
</g>

<g id="BDM_728x90_FR_psd_Asset_6_V7_4_footer_copy_3_Faites_en_plus_avec_le_Wi_Fi_en_tant_que_service__copy_7_0_Layer0_0_MEMBER_25_FILL">
<path fill="#838282" stroke="none" d="
M -5.5 8.75
L -6.7 8.75 -6.65 15 -5.4 15 -5.4 11.75
Q -5.4 10.85 -4.9 10.2 -4.5 9.65 -3.7 9.65 -2.9 9.65 -2.6 10.15 -2.25 10.75 -2.25 11.45
L -2.25 15 -1 15 -1 11.2
Q -1 10.05 -1.55 9.35 -2.15 8.6 -3.3 8.6 -4.05 8.6 -4.6 8.95 -5.2 9.35 -5.4 9.95
L -5.45 9.95 -5.5 8.75 Z"/>
</g>

<g id="BDM_728x90_FR_psd_Asset_6_V7_4_footer_copy_3_Faites_en_plus_avec_le_Wi_Fi_en_tant_que_service__copy_7_0_Layer0_0_MEMBER_26_FILL">
<path fill="#838282" stroke="none" d="
M -91.15 23.75
L -92.05 23.75 -92.25 24.75 -91.15 24.75 -91.15 28.3
Q -91.15 29.2 -90.7 29.65 -90.3 30.15 -89.5 30.15 -88.8 30.15 -88 29.8
L -88.15 28.9
Q -88.75 29.15 -89.05 29.15 -89.9 29.15 -89.9 28.1
L -89.9 24.75 -88.35 24.75 -88.15 23.75 -89.9 23.75 -89.9 22.05 -91.15 22.35 -91.15 23.75 Z"/>
</g>

<g id="BDM_728x90_FR_psd_Asset_6_V7_4_footer_copy_3_Faites_en_plus_avec_le_Wi_Fi_en_tant_que_service__copy_7_0_Layer0_0_MEMBER_27_FILL">
<path fill="#838282" stroke="none" d="
M -84.8 23.55
Q -86.2 23.55 -87.25 24.3
L -86.95 25.25
Q -86.65 25 -86.05 24.75 -85.6 24.55 -85 24.55 -84.3 24.55 -83.9 24.9 -83.5 25.2 -83.5 25.95
L -83.5 26.2 -84.05 26.2
Q -85.55 26.2 -86.6 26.65 -87.6 27.1 -87.6 28.25 -87.6 29.25 -87 29.7 -86.45 30.15 -85.65 30.15 -84.95 30.15 -84.35 29.85 -83.75 29.55 -83.5 29
L -83.45 29 -83.35 30 -82.2 30 -82.3 26.1
Q -82.3 24.85 -82.95 24.2 -83.7 23.55 -84.8 23.55
M -83.45 26.95
L -83.45 27.45
Q -83.45 27.9 -83.7 28.3 -83.9 28.7 -84.35 29 -84.65 29.25 -85.3 29.25 -85.85 29.25 -86.1 29 -86.4 28.8 -86.4 28.25 -86.4 26.95 -84 26.95
L -83.45 26.95 Z"/>
</g>

<g id="BDM_728x90_FR_psd_Asset_6_V7_4_footer_copy_3_Faites_en_plus_avec_le_Wi_Fi_en_tant_que_service__copy_7_0_Layer0_0_MEMBER_28_FILL">
<path fill="#838282" stroke="none" d="
M -79.5 23.75
L -80.7 23.75 -80.65 30 -79.35 30 -79.35 26.75
Q -79.35 25.8 -78.9 25.2 -78.4 24.65 -77.65 24.65 -76.9 24.65 -76.6 25.15 -76.25 25.65 -76.25 26.45
L -76.25 30 -75 30 -75 26.15
Q -75 25.05 -75.55 24.35 -76.15 23.6 -77.3 23.6 -78.05 23.6 -78.55 23.95 -79.05 24.25 -79.4 24.95
L -79.5 23.75 Z"/>
</g>

<g id="BDM_728x90_FR_psd_Asset_6_V7_4_footer_copy_3_Faites_en_plus_avec_le_Wi_Fi_en_tant_que_service__copy_7_0_Layer0_0_MEMBER_29_FILL">
<path fill="#838282" stroke="none" d="
M -73.15 23.75
L -74.05 23.75 -74.25 24.75 -73.15 24.75 -73.15 28.3
Q -73.15 29.15 -72.75 29.65 -72.25 30.15 -71.5 30.15 -70.8 30.15 -70 29.8
L -70.15 28.9
Q -70.75 29.15 -71.1 29.15 -71.9 29.15 -71.9 28.1
L -71.9 24.75 -70.4 24.75 -70.2 23.75 -71.9 23.75 -71.9 22.05 -73.15 22.35 -73.15 23.75 Z"/>
</g>

<g id="BDM_728x90_FR_psd_Asset_6_V7_4_footer_copy_3_Faites_en_plus_avec_le_Wi_Fi_en_tant_que_service__copy_7_0_Layer0_0_MEMBER_30_FILL">
<path fill="#838282" stroke="none" d="
M -63.7 23.6
Q -64.6 23.6 -65.3 24 -65.95 24.45 -66.35 25.2 -66.75 26 -66.75 26.85 -66.75 27.65 -66.35 28.55 -65.95 29.35 -65.3 29.7 -64.6 30.15 -63.7 30.15 -62.95 30.15 -62.35 29.85 -61.75 29.5 -61.4 28.9
L -61.35 28.9 -61.35 30.9
Q -61.35 32.65 -59.95 33.15
L -59.25 32.15
Q -59.75 31.9 -59.9 31.6 -60.1 31.35 -60.1 30.75
L -60.1 23.75 -61.3 23.75 -61.3 24.9 -61.35 24.9
Q -61.8 24.2 -62.3 23.95 -62.95 23.6 -63.7 23.6
M -61.6 25.75
Q -61.35 26.2 -61.35 26.9 -61.35 27.55 -61.6 28 -61.9 28.5 -62.35 28.8 -62.8 29.1 -63.45 29.1 -64 29.1 -64.55 28.8 -65.05 28.45 -65.25 28 -65.5 27.4 -65.5 26.85 -65.5 26.35 -65.25 25.75 -65.05 25.3 -64.55 24.95 -64 24.65 -63.45 24.65 -62.8 24.65 -62.35 24.95 -61.9 25.25 -61.6 25.75 Z"/>
</g>

<g id="BDM_728x90_FR_psd_Asset_6_V7_4_footer_copy_3_Faites_en_plus_avec_le_Wi_Fi_en_tant_que_service__copy_7_0_Layer0_0_MEMBER_31_FILL">
<path fill="#838282" stroke="none" d="
M -57.2 23.75
L -58.45 23.75 -58.45 27.6
Q -58.45 28.7 -57.9 29.4 -57.35 30.15 -56.15 30.15 -55.45 30.15 -54.9 29.8 -54.25 29.4 -54.05 28.85
L -53.95 30 -52.7 30
Q -52.8 29.55 -52.8 28.65
L -52.8 23.75 -54.05 23.75 -54.05 26.95
Q -54.05 27.9 -54.55 28.55 -54.95 29.1 -55.8 29.1 -56.55 29.1 -56.85 28.6 -57.2 28 -57.2 27.3
L -57.2 23.75 Z"/>
</g>

<g id="BDM_728x90_FR_psd_Asset_6_V7_4_footer_copy_3_Faites_en_plus_avec_le_Wi_Fi_en_tant_que_service__copy_7_0_Layer0_0_MEMBER_32_FILL">
<path fill="#838282" stroke="none" d="
M -48.25 23.55
Q -49.15 23.55 -49.9 24 -50.6 24.4 -51.05 25.15 -51.45 25.95 -51.45 26.85 -51.45 27.8 -51.05 28.6 -50.6 29.4 -49.85 29.75 -49.1 30.2 -48.15 30.2 -46.7 30.2 -45.65 29.45
L -45.8 28.5 -46.8 29
Q -47.6 29.2 -48 29.2 -48.6 29.2 -49.15 28.9 -49.65 28.65 -49.95 28.2 -50.25 27.6 -50.25 27.15
L -45.25 27.15 -45.25 26.75
Q -45.25 25.8 -45.6 25.1 -46 24.35 -46.65 24 -47.3 23.55 -48.25 23.55
M -46.95 25
Q -46.45 25.5 -46.45 26.35
L -50.25 26.35
Q -50.15 25.75 -49.95 25.45 -49.7 25 -49.3 24.75 -48.8 24.5 -48.25 24.5 -47.4 24.5 -46.95 25 Z"/>
</g>

<g id="BDM_728x90_FR_psd_Asset_6_V7_4_footer_copy_3_Faites_en_plus_avec_le_Wi_Fi_en_tant_que_service__copy_7_0_Layer0_0_MEMBER_33_FILL">
<path fill="#838282" stroke="none" d="
M -39.15 23.55
Q -39.65 23.55 -40.25 23.8 -40.7 23.95 -41.1 24.4 -41.4 24.85 -41.4 25.4 -41.4 26.2 -40.95 26.55 -40.4 27 -39.6 27.2 -38.7 27.45 -38.45 27.7 -38.1 27.9 -38.1 28.3 -38.1 28.8 -38.45 29 -38.85 29.25 -39.3 29.25 -40.35 29.25 -41.35 28.5
L -41.55 29.55 -40.5 30
Q -39.7 30.2 -39.2 30.2 -38.65 30.2 -38.05 29.95 -37.7 29.85 -37.2 29.35 -36.85 28.85 -36.85 28.25 -36.85 27.5 -37.35 27.1 -37.9 26.65 -38.8 26.4 -39.6 26.2 -39.9 25.95 -40.25 25.7 -40.25 25.35 -40.25 24.95 -39.9 24.7 -39.5 24.5 -39.1 24.5 -38.65 24.5 -38.3 24.7 -37.9 24.85 -37.55 25.1
L -37.05 24.25
Q -37.35 24 -37.95 23.75 -38.75 23.55 -39.15 23.55 Z"/>
</g>

<g id="BDM_728x90_FR_psd_Asset_6_V7_4_footer_copy_3_Faites_en_plus_avec_le_Wi_Fi_en_tant_que_service__copy_7_0_Layer0_0_MEMBER_34_FILL">
<path fill="#838282" stroke="none" d="
M -32.85 23.55
Q -33.75 23.55 -34.5 24 -35.2 24.4 -35.65 25.15 -36.05 25.95 -36.05 26.85 -36.05 27.8 -35.65 28.6 -35.2 29.4 -34.45 29.75 -33.7 30.2 -32.75 30.2 -31.3 30.2 -30.25 29.45
L -30.4 28.5 -31.4 29
Q -32.2 29.2 -32.6 29.2 -33.2 29.2 -33.75 28.9 -34.25 28.65 -34.55 28.2 -34.85 27.6 -34.85 27.15
L -29.85 27.15 -29.85 26.75
Q -29.85 25.8 -30.2 25.1 -30.6 24.35 -31.25 24 -31.9 23.55 -32.85 23.55
M -31.55 25
Q -31.1 25.45 -31 26.35
L -34.85 26.35
Q -34.75 25.75 -34.55 25.45 -34.3 25 -33.9 24.75 -33.4 24.5 -32.85 24.5 -32 24.5 -31.55 25 Z"/>
</g>

<g id="BDM_728x90_FR_psd_Asset_6_V7_4_footer_copy_3_Faites_en_plus_avec_le_Wi_Fi_en_tant_que_service__copy_7_0_Layer0_0_MEMBER_35_FILL">
<path fill="#838282" stroke="none" d="
M -27.35 23.75
L -28.55 23.75 -28.5 30 -27.25 30 -27.25 26.85
Q -27.25 26 -26.85 25.35 -26.4 24.7 -25.65 24.7 -25.3 24.7 -25.1 24.8
L -24.9 23.7
Q -25.1 23.6 -25.6 23.6 -26.15 23.6 -26.55 23.95 -27 24.25 -27.25 24.95
L -27.3 24.95 -27.35 23.75 Z"/>
</g>

<g id="BDM_728x90_FR_psd_Asset_6_V7_4_footer_copy_3_Faites_en_plus_avec_le_Wi_Fi_en_tant_que_service__copy_7_0_Layer0_0_MEMBER_36_FILL">
<path fill="#838282" stroke="none" d="
M -25.2 23.75
L -22.8 30 -21.4 30 -19.05 23.75 -20.35 23.75 -22.1 28.7 -23.8 23.75 -25.2 23.75 Z"/>
</g>

<g id="BDM_728x90_FR_psd_Asset_6_V7_4_footer_copy_3_Faites_en_plus_avec_le_Wi_Fi_en_tant_que_service__copy_7_0_Layer0_0_MEMBER_37_FILL">
<path fill="#838282" stroke="none" d="
M -17 23.75
L -18.25 23.75 -18.25 30 -17 30 -17 23.75
M -17.05 20.9
Q -17.25 20.7 -17.6 20.7 -17.95 20.7 -18.15 20.9 -18.4 21.1 -18.4 21.45 -18.4 21.8 -18.15 22 -17.9 22.25 -17.6 22.25 -17.3 22.25 -17.05 22 -16.85 21.8 -16.85 21.45 -16.85 21.1 -17.05 20.9 Z"/>
</g>

<g id="BDM_728x90_FR_psd_Asset_6_V7_4_footer_copy_3_Faites_en_plus_avec_le_Wi_Fi_en_tant_que_service__copy_7_0_Layer0_0_MEMBER_38_FILL">
<path fill="#838282" stroke="none" d="
M -12.3 23.55
Q -13.25 23.55 -14 24 -14.75 24.35 -15.2 25.15 -15.65 25.9 -15.65 26.9 -15.65 27.85 -15.2 28.6 -14.8 29.35 -14.05 29.75 -13.3 30.2 -12.4 30.2 -11.75 30.2 -11.15 29.95 -10.55 29.8 -10.2 29.45
L -10.35 28.45
Q -10.8 28.8 -11.2 28.95 -11.65 29.1 -12.2 29.1 -12.8 29.1 -13.35 28.8 -13.8 28.5 -14.1 28 -14.35 27.4 -14.35 26.9 -14.35 26.2 -14.1 25.75 -13.9 25.25 -13.35 24.95 -12.9 24.65 -12.3 24.65 -11.85 24.65 -11.4 24.8 -11 24.95 -10.65 25.2
L -10.2 24.3
Q -10.45 24 -11.1 23.75 -11.9 23.55 -12.3 23.55 Z"/>
</g>

<g id="BDM_728x90_FR_psd_Asset_6_V7_4_footer_copy_3_Faites_en_plus_avec_le_Wi_Fi_en_tant_que_service__copy_7_0_Layer0_0_MEMBER_39_FILL">
<path fill="#838282" stroke="none" d="
M -6.45 23.55
Q -7.3 23.55 -8.05 24 -8.7 24.35 -9.2 25.15 -9.6 25.8 -9.6 26.85 -9.6 27.8 -9.2 28.6 -8.75 29.4 -8 29.75 -7.25 30.2 -6.35 30.2 -4.85 30.2 -3.8 29.45
L -4 28.5
Q -4.3 28.75 -5 29 -5.7 29.2 -6.2 29.2 -6.75 29.2 -7.3 28.9 -7.75 28.7 -8.1 28.2 -8.4 27.75 -8.4 27.15
L -3.4 27.15 -3.4 26.75
Q -3.4 26 -3.75 25.1 -4.15 24.35 -4.8 24 -5.55 23.55 -6.45 23.55
M -8.4 26.35
Q -8.4 25.95 -8.15 25.45 -7.75 24.95 -7.45 24.75 -6.95 24.5 -6.4 24.5 -5.55 24.5 -5.1 25 -4.6 25.5 -4.6 26.35
L -8.4 26.35 Z"/>
</g>

<g id="BDM_728x90_FR_psd_Asset_6_V7_4_footer_copy_3_Faites_en_plus_avec_le_Wi_Fi_en_tant_que_service__copy_7_0_Layer0_0_MEMBER_40_FILL">
<path fill="#838282" stroke="none" d="
M -2 29.85
Q -1.65 30.1 -1.4 30.1 -1.05 30.1 -0.8 29.85 -0.55 29.65 -0.55 29.25 -0.55 28.85 -0.8 28.65 -1.05 28.4 -1.4 28.4 -1.65 28.4 -2 28.65 -2.2 28.9 -2.2 29.25 -2.2 29.65 -2 29.85 Z"/>
</g>
</defs>

<g transform="matrix( 1, 0, 0, 1, -172,-99) ">
<g transform="matrix( 1, 0, 0, 1, 171,112) ">
<g transform="matrix( 1, 0, 0, 1, 25,9) ">
<g transform="matrix( 2.6895904541015625, 0, 0, 2.672393798828125, -0.85,17.55) ">
<use xlink:href="#BDM_728x90_FR_psd_Asset_6_V7_4_Comprenez_mieux__les_besoins_de_vos_clients___0_Layer0_0_MEMBER_0_FILL"/>
</g>

<g transform="matrix( 2.6895904541015625, 0, 0, 2.672393798828125, -0.85,17.55) ">
<use xlink:href="#BDM_728x90_FR_psd_Asset_6_V7_4_Comprenez_mieux__les_besoins_de_vos_clients___0_Layer0_0_MEMBER_1_FILL"/>
</g>

<g transform="matrix( 2.6895904541015625, 0, 0, 2.672393798828125, -0.85,17.55) ">
<use xlink:href="#BDM_728x90_FR_psd_Asset_6_V7_4_Comprenez_mieux__les_besoins_de_vos_clients___0_Layer0_0_MEMBER_2_FILL"/>
</g>

<g transform="matrix( 2.6895904541015625, 0, 0, 2.672393798828125, -0.85,17.55) ">
<use xlink:href="#BDM_728x90_FR_psd_Asset_6_V7_4_Comprenez_mieux__les_besoins_de_vos_clients___0_Layer0_0_MEMBER_3_FILL"/>
</g>

<g transform="matrix( 2.6895904541015625, 0, 0, 2.672393798828125, -0.85,17.55) ">
<use xlink:href="#BDM_728x90_FR_psd_Asset_6_V7_4_Comprenez_mieux__les_besoins_de_vos_clients___0_Layer0_0_MEMBER_4_FILL"/>
</g>

<g transform="matrix( 2.6895904541015625, 0, 0, 2.672393798828125, -0.85,17.55) ">
<use xlink:href="#BDM_728x90_FR_psd_Asset_6_V7_4_Comprenez_mieux__les_besoins_de_vos_clients___0_Layer0_0_MEMBER_5_FILL"/>
</g>

<g transform="matrix( 2.6895904541015625, 0, 0, 2.672393798828125, -0.85,17.55) ">
<use xlink:href="#BDM_728x90_FR_psd_Asset_6_V7_4_Comprenez_mieux__les_besoins_de_vos_clients___0_Layer0_0_MEMBER_6_FILL"/>
</g>

<g transform="matrix( 2.6895904541015625, 0, 0, 2.672393798828125, -0.85,17.55) ">
<use xlink:href="#BDM_728x90_FR_psd_Asset_6_V7_4_Comprenez_mieux__les_besoins_de_vos_clients___0_Layer0_0_MEMBER_7_FILL"/>
</g>

<g transform="matrix( 2.6895904541015625, 0, 0, 2.672393798828125, -0.85,17.55) ">
<use xlink:href="#BDM_728x90_FR_psd_Asset_6_V7_4_Comprenez_mieux__les_besoins_de_vos_clients___0_Layer0_0_MEMBER_8_FILL"/>
</g>

<g transform="matrix( 2.6895904541015625, 0, 0, 2.672393798828125, -0.85,17.55) ">
<use xlink:href="#BDM_728x90_FR_psd_Asset_6_V7_4_Comprenez_mieux__les_besoins_de_vos_clients___0_Layer0_0_MEMBER_9_FILL"/>
</g>

<g transform="matrix( 2.6895904541015625, 0, 0, 2.672393798828125, -0.85,17.55) ">
<use xlink:href="#BDM_728x90_FR_psd_Asset_6_V7_4_Comprenez_mieux__les_besoins_de_vos_clients___0_Layer0_0_MEMBER_10_FILL"/>
</g>

<g transform="matrix( 2.6895904541015625, 0, 0, 2.672393798828125, -0.85,17.55) ">
<use xlink:href="#BDM_728x90_FR_psd_Asset_6_V7_4_Comprenez_mieux__les_besoins_de_vos_clients___0_Layer0_0_MEMBER_11_FILL"/>
</g>

<g transform="matrix( 2.6895904541015625, 0, 0, 2.672393798828125, -0.85,17.55) ">
<use xlink:href="#BDM_728x90_FR_psd_Asset_6_V7_4_Comprenez_mieux__les_besoins_de_vos_clients___0_Layer0_0_MEMBER_12_FILL"/>
</g>

<g transform="matrix( 2.6895904541015625, 0, 0, 2.672393798828125, -0.85,17.55) ">
<use xlink:href="#BDM_728x90_FR_psd_Asset_6_V7_4_Comprenez_mieux__les_besoins_de_vos_clients___0_Layer0_0_MEMBER_13_FILL"/>
</g>

<g transform="matrix( 2.6895904541015625, 0, 0, 2.672393798828125, -0.85,17.55) ">
<use xlink:href="#BDM_728x90_FR_psd_Asset_6_V7_4_Comprenez_mieux__les_besoins_de_vos_clients___0_Layer0_0_MEMBER_14_FILL"/>
</g>

<g transform="matrix( 2.6895904541015625, 0, 0, 2.672393798828125, -0.85,17.55) ">
<use xlink:href="#BDM_728x90_FR_psd_Asset_6_V7_4_Comprenez_mieux__les_besoins_de_vos_clients___0_Layer0_0_MEMBER_15_FILL"/>
</g>

<g transform="matrix( 2.6895904541015625, 0, 0, 2.672393798828125, -0.85,17.55) ">
<use xlink:href="#BDM_728x90_FR_psd_Asset_6_V7_4_Comprenez_mieux__les_besoins_de_vos_clients___0_Layer0_0_MEMBER_16_FILL"/>
</g>

<g transform="matrix( 2.6895904541015625, 0, 0, 2.672393798828125, -0.85,17.55) ">
<use xlink:href="#BDM_728x90_FR_psd_Asset_6_V7_4_Comprenez_mieux__les_besoins_de_vos_clients___0_Layer0_0_MEMBER_17_FILL"/>
</g>

<g transform="matrix( 2.6895904541015625, 0, 0, 2.672393798828125, -0.85,17.55) ">
<use xlink:href="#BDM_728x90_FR_psd_Asset_6_V7_4_Comprenez_mieux__les_besoins_de_vos_clients___0_Layer0_0_MEMBER_18_FILL"/>
</g>

<g transform="matrix( 2.6895904541015625, 0, 0, 2.672393798828125, -0.85,17.55) ">
<use xlink:href="#BDM_728x90_FR_psd_Asset_6_V7_4_Comprenez_mieux__les_besoins_de_vos_clients___0_Layer0_0_MEMBER_19_FILL"/>
</g>

<g transform="matrix( 2.6895904541015625, 0, 0, 2.672393798828125, -0.85,17.55) ">
<use xlink:href="#BDM_728x90_FR_psd_Asset_6_V7_4_Comprenez_mieux__les_besoins_de_vos_clients___0_Layer0_0_MEMBER_20_FILL"/>
</g>

<g transform="matrix( 2.6895904541015625, 0, 0, 2.672393798828125, -0.85,17.55) ">
<use xlink:href="#BDM_728x90_FR_psd_Asset_6_V7_4_Comprenez_mieux__les_besoins_de_vos_clients___0_Layer0_0_MEMBER_21_FILL"/>
</g>

<g transform="matrix( 2.6895904541015625, 0, 0, 2.672393798828125, -0.85,17.55) ">
<use xlink:href="#BDM_728x90_FR_psd_Asset_6_V7_4_Comprenez_mieux__les_besoins_de_vos_clients___0_Layer0_0_MEMBER_22_FILL"/>
</g>

<g transform="matrix( 2.6895904541015625, 0, 0, 2.672393798828125, -0.85,17.55) ">
<use xlink:href="#BDM_728x90_FR_psd_Asset_6_V7_4_Comprenez_mieux__les_besoins_de_vos_clients___0_Layer0_0_MEMBER_23_FILL"/>
</g>

<g transform="matrix( 2.6895904541015625, 0, 0, 2.672393798828125, -0.85,17.55) ">
<use xlink:href="#BDM_728x90_FR_psd_Asset_6_V7_4_Comprenez_mieux__les_besoins_de_vos_clients___0_Layer0_0_MEMBER_24_FILL"/>
</g>

<g transform="matrix( 2.6895904541015625, 0, 0, 2.672393798828125, -0.85,17.55) ">
<use xlink:href="#BDM_728x90_FR_psd_Asset_6_V7_4_Comprenez_mieux__les_besoins_de_vos_clients___0_Layer0_0_MEMBER_25_FILL"/>
</g>

<g transform="matrix( 2.6895904541015625, 0, 0, 2.672393798828125, -0.85,17.55) ">
<use xlink:href="#BDM_728x90_FR_psd_Asset_6_V7_4_Comprenez_mieux__les_besoins_de_vos_clients___0_Layer0_0_MEMBER_26_FILL"/>
</g>

<g transform="matrix( 2.6895904541015625, 0, 0, 2.672393798828125, -0.85,17.55) ">
<use xlink:href="#BDM_728x90_FR_psd_Asset_6_V7_4_Comprenez_mieux__les_besoins_de_vos_clients___0_Layer0_0_MEMBER_27_FILL"/>
</g>

<g transform="matrix( 2.6895904541015625, 0, 0, 2.672393798828125, -0.85,17.55) ">
<use xlink:href="#BDM_728x90_FR_psd_Asset_6_V7_4_Comprenez_mieux__les_besoins_de_vos_clients___0_Layer0_0_MEMBER_28_FILL"/>
</g>

<g transform="matrix( 2.6895904541015625, 0, 0, 2.672393798828125, -0.85,17.55) ">
<use xlink:href="#BDM_728x90_FR_psd_Asset_6_V7_4_Comprenez_mieux__les_besoins_de_vos_clients___0_Layer0_0_MEMBER_29_FILL"/>
</g>

<g transform="matrix( 2.6895904541015625, 0, 0, 2.672393798828125, -0.85,17.55) ">
<use xlink:href="#BDM_728x90_FR_psd_Asset_6_V7_4_Comprenez_mieux__les_besoins_de_vos_clients___0_Layer0_0_MEMBER_30_FILL"/>
</g>

<g transform="matrix( 2.6895904541015625, 0, 0, 2.672393798828125, -0.85,17.55) ">
<use xlink:href="#BDM_728x90_FR_psd_Asset_6_V7_4_Comprenez_mieux__les_besoins_de_vos_clients___0_Layer0_0_MEMBER_31_FILL"/>
</g>

<g transform="matrix( 2.6895904541015625, 0, 0, 2.672393798828125, -0.85,17.55) ">
<use xlink:href="#BDM_728x90_FR_psd_Asset_6_V7_4_Comprenez_mieux__les_besoins_de_vos_clients___0_Layer0_0_MEMBER_32_FILL"/>
</g>

<g transform="matrix( 2.6895904541015625, 0, 0, 2.672393798828125, -0.85,17.55) ">
<use xlink:href="#BDM_728x90_FR_psd_Asset_6_V7_4_Comprenez_mieux__les_besoins_de_vos_clients___0_Layer0_0_MEMBER_33_FILL"/>
</g>

<g transform="matrix( 2.6895904541015625, 0, 0, 2.672393798828125, -0.85,17.55) ">
<use xlink:href="#BDM_728x90_FR_psd_Asset_6_V7_4_Comprenez_mieux__les_besoins_de_vos_clients___0_Layer0_0_MEMBER_34_FILL"/>
</g>

<g transform="matrix( 2.6895904541015625, 0, 0, 2.672393798828125, -0.85,17.55) ">
<use xlink:href="#BDM_728x90_FR_psd_Asset_6_V7_4_Comprenez_mieux__les_besoins_de_vos_clients___0_Layer0_0_MEMBER_35_FILL"/>
</g>

<g transform="matrix( 2.6895904541015625, 0, 0, 2.672393798828125, -0.85,17.55) ">
<use xlink:href="#BDM_728x90_FR_psd_Asset_6_V7_4_Comprenez_mieux__les_besoins_de_vos_clients___0_Layer0_0_MEMBER_36_FILL"/>
</g>
</g>

<g transform="matrix( 1, 0, 0, 1, 369,18) ">
<g transform="matrix( 1, 0, 0, 1, 37,8) ">
<g transform="matrix( 0.67095947265625, 0, 0, 0.677734375, -1.05,12.5) ">
<use xlink:href="#BDM_728x90_FR_psd_Asset_6_V7_4_CTA_copy_3_Regardez_la_vid_o__0_Layer0_0_MEMBER_0_FILL"/>
</g>

<g transform="matrix( 0.67095947265625, 0, 0, 0.677734375, -1.05,12.5) ">
<use xlink:href="#BDM_728x90_FR_psd_Asset_6_V7_4_CTA_copy_3_Regardez_la_vid_o__0_Layer0_0_MEMBER_1_FILL"/>
</g>

<g transform="matrix( 0.67095947265625, 0, 0, 0.677734375, -1.05,12.5) ">
<use xlink:href="#BDM_728x90_FR_psd_Asset_6_V7_4_CTA_copy_3_Regardez_la_vid_o__0_Layer0_0_MEMBER_2_FILL"/>
</g>

<g transform="matrix( 0.67095947265625, 0, 0, 0.677734375, -1.05,12.5) ">
<use xlink:href="#BDM_728x90_FR_psd_Asset_6_V7_4_CTA_copy_3_Regardez_la_vid_o__0_Layer0_0_MEMBER_3_FILL"/>
</g>

<g transform="matrix( 0.67095947265625, 0, 0, 0.677734375, -1.05,12.5) ">
<use xlink:href="#BDM_728x90_FR_psd_Asset_6_V7_4_CTA_copy_3_Regardez_la_vid_o__0_Layer0_0_MEMBER_4_FILL"/>
</g>

<g transform="matrix( 0.67095947265625, 0, 0, 0.677734375, -1.05,12.5) ">
<use xlink:href="#BDM_728x90_FR_psd_Asset_6_V7_4_CTA_copy_3_Regardez_la_vid_o__0_Layer0_0_MEMBER_5_FILL"/>
</g>

<g transform="matrix( 0.67095947265625, 0, 0, 0.677734375, -1.05,12.5) ">
<use xlink:href="#BDM_728x90_FR_psd_Asset_6_V7_4_CTA_copy_3_Regardez_la_vid_o__0_Layer0_0_MEMBER_6_FILL"/>
</g>

<g transform="matrix( 0.67095947265625, 0, 0, 0.677734375, -1.05,12.5) ">
<use xlink:href="#BDM_728x90_FR_psd_Asset_6_V7_4_CTA_copy_3_Regardez_la_vid_o__0_Layer0_0_MEMBER_7_FILL"/>
</g>

<g transform="matrix( 0.67095947265625, 0, 0, 0.677734375, -1.05,12.5) ">
<use xlink:href="#BDM_728x90_FR_psd_Asset_6_V7_4_CTA_copy_3_Regardez_la_vid_o__0_Layer0_0_MEMBER_8_FILL"/>
</g>

<g transform="matrix( 0.67095947265625, 0, 0, 0.677734375, -1.05,12.5) ">
<use xlink:href="#BDM_728x90_FR_psd_Asset_6_V7_4_CTA_copy_3_Regardez_la_vid_o__0_Layer0_0_MEMBER_9_FILL"/>
</g>

<g transform="matrix( 0.67095947265625, 0, 0, 0.677734375, -1.05,12.5) ">
<use xlink:href="#BDM_728x90_FR_psd_Asset_6_V7_4_CTA_copy_3_Regardez_la_vid_o__0_Layer0_0_MEMBER_10_FILL"/>
</g>

<g transform="matrix( 0.67095947265625, 0, 0, 0.677734375, -1.05,12.5) ">
<use xlink:href="#BDM_728x90_FR_psd_Asset_6_V7_4_CTA_copy_3_Regardez_la_vid_o__0_Layer0_0_MEMBER_11_FILL"/>
</g>

<g transform="matrix( 0.67095947265625, 0, 0, 0.677734375, -1.05,12.5) ">
<use xlink:href="#BDM_728x90_FR_psd_Asset_6_V7_4_CTA_copy_3_Regardez_la_vid_o__0_Layer0_0_MEMBER_12_FILL"/>
</g>

<g transform="matrix( 0.67095947265625, 0, 0, 0.677734375, -1.05,12.5) ">
<use xlink:href="#BDM_728x90_FR_psd_Asset_6_V7_4_CTA_copy_3_Regardez_la_vid_o__0_Layer0_0_MEMBER_13_FILL"/>
</g>

<g transform="matrix( 0.67095947265625, 0, 0, 0.677734375, -1.05,12.5) ">
<use xlink:href="#BDM_728x90_FR_psd_Asset_6_V7_4_CTA_copy_3_Regardez_la_vid_o__0_Layer0_0_MEMBER_14_FILL"/>
</g>

<g transform="matrix( 0.67095947265625, 0, 0, 0.677734375, -1.05,12.5) ">
<use xlink:href="#BDM_728x90_FR_psd_Asset_6_V7_4_CTA_copy_3_Regardez_la_vid_o__0_Layer0_0_MEMBER_15_FILL"/>
</g>
</g>
</g>

<g transform="matrix( 1, 0, 0, 1, 618,0) ">
<g transform="matrix( 1, 0, 0, 1, 0,0) ">
<g transform="matrix( 1.00018310546875, 0, 0, 1.00018310546875, 92.25,10.8) ">
<use xlink:href="#BDM_728x90_FR_psd_Asset_6_V7_4_footer_copy_3_Faites_en_plus_avec_le_Wi_Fi_en_tant_que_service__copy_7_0_Layer0_0_MEMBER_0_FILL"/>
</g>

<g transform="matrix( 1.00018310546875, 0, 0, 1.00018310546875, 92.25,10.8) ">
<use xlink:href="#BDM_728x90_FR_psd_Asset_6_V7_4_footer_copy_3_Faites_en_plus_avec_le_Wi_Fi_en_tant_que_service__copy_7_0_Layer0_0_MEMBER_1_FILL"/>
</g>

<g transform="matrix( 1.00018310546875, 0, 0, 1.00018310546875, 92.25,10.8) ">
<use xlink:href="#BDM_728x90_FR_psd_Asset_6_V7_4_footer_copy_3_Faites_en_plus_avec_le_Wi_Fi_en_tant_que_service__copy_7_0_Layer0_0_MEMBER_2_FILL"/>
</g>

<g transform="matrix( 1.00018310546875, 0, 0, 1.00018310546875, 92.25,10.8) ">
<use xlink:href="#BDM_728x90_FR_psd_Asset_6_V7_4_footer_copy_3_Faites_en_plus_avec_le_Wi_Fi_en_tant_que_service__copy_7_0_Layer0_0_MEMBER_3_FILL"/>
</g>

<g transform="matrix( 1.00018310546875, 0, 0, 1.00018310546875, 92.25,10.8) ">
<use xlink:href="#BDM_728x90_FR_psd_Asset_6_V7_4_footer_copy_3_Faites_en_plus_avec_le_Wi_Fi_en_tant_que_service__copy_7_0_Layer0_0_MEMBER_4_FILL"/>
</g>

<g transform="matrix( 1.00018310546875, 0, 0, 1.00018310546875, 92.25,10.8) ">
<use xlink:href="#BDM_728x90_FR_psd_Asset_6_V7_4_footer_copy_3_Faites_en_plus_avec_le_Wi_Fi_en_tant_que_service__copy_7_0_Layer0_0_MEMBER_5_FILL"/>
</g>

<g transform="matrix( 1.00018310546875, 0, 0, 1.00018310546875, 92.25,10.8) ">
<use xlink:href="#BDM_728x90_FR_psd_Asset_6_V7_4_footer_copy_3_Faites_en_plus_avec_le_Wi_Fi_en_tant_que_service__copy_7_0_Layer0_0_MEMBER_6_FILL"/>
</g>

<g transform="matrix( 1.00018310546875, 0, 0, 1.00018310546875, 92.25,10.8) ">
<use xlink:href="#BDM_728x90_FR_psd_Asset_6_V7_4_footer_copy_3_Faites_en_plus_avec_le_Wi_Fi_en_tant_que_service__copy_7_0_Layer0_0_MEMBER_7_FILL"/>
</g>

<g transform="matrix( 1.00018310546875, 0, 0, 1.00018310546875, 92.25,10.8) ">
<use xlink:href="#BDM_728x90_FR_psd_Asset_6_V7_4_footer_copy_3_Faites_en_plus_avec_le_Wi_Fi_en_tant_que_service__copy_7_0_Layer0_0_MEMBER_8_FILL"/>
</g>

<g transform="matrix( 1.00018310546875, 0, 0, 1.00018310546875, 92.25,10.8) ">
<use xlink:href="#BDM_728x90_FR_psd_Asset_6_V7_4_footer_copy_3_Faites_en_plus_avec_le_Wi_Fi_en_tant_que_service__copy_7_0_Layer0_0_MEMBER_9_FILL"/>
</g>

<g transform="matrix( 1.00018310546875, 0, 0, 1.00018310546875, 92.25,10.8) ">
<use xlink:href="#BDM_728x90_FR_psd_Asset_6_V7_4_footer_copy_3_Faites_en_plus_avec_le_Wi_Fi_en_tant_que_service__copy_7_0_Layer0_0_MEMBER_10_FILL"/>
</g>

<g transform="matrix( 1.00018310546875, 0, 0, 1.00018310546875, 92.25,10.8) ">
<use xlink:href="#BDM_728x90_FR_psd_Asset_6_V7_4_footer_copy_3_Faites_en_plus_avec_le_Wi_Fi_en_tant_que_service__copy_7_0_Layer0_0_MEMBER_11_FILL"/>
</g>

<g transform="matrix( 1.00018310546875, 0, 0, 1.00018310546875, 92.25,10.8) ">
<use xlink:href="#BDM_728x90_FR_psd_Asset_6_V7_4_footer_copy_3_Faites_en_plus_avec_le_Wi_Fi_en_tant_que_service__copy_7_0_Layer0_0_MEMBER_12_FILL"/>
</g>

<g transform="matrix( 1.00018310546875, 0, 0, 1.00018310546875, 92.25,10.8) ">
<use xlink:href="#BDM_728x90_FR_psd_Asset_6_V7_4_footer_copy_3_Faites_en_plus_avec_le_Wi_Fi_en_tant_que_service__copy_7_0_Layer0_0_MEMBER_13_FILL"/>
</g>

<g transform="matrix( 1.00018310546875, 0, 0, 1.00018310546875, 92.25,10.8) ">
<use xlink:href="#BDM_728x90_FR_psd_Asset_6_V7_4_footer_copy_3_Faites_en_plus_avec_le_Wi_Fi_en_tant_que_service__copy_7_0_Layer0_0_MEMBER_14_FILL"/>
</g>

<g transform="matrix( 1.00018310546875, 0, 0, 1.00018310546875, 92.25,10.8) ">
<use xlink:href="#BDM_728x90_FR_psd_Asset_6_V7_4_footer_copy_3_Faites_en_plus_avec_le_Wi_Fi_en_tant_que_service__copy_7_0_Layer0_0_MEMBER_15_FILL"/>
</g>

<g transform="matrix( 1.00018310546875, 0, 0, 1.00018310546875, 92.25,10.8) ">
<use xlink:href="#BDM_728x90_FR_psd_Asset_6_V7_4_footer_copy_3_Faites_en_plus_avec_le_Wi_Fi_en_tant_que_service__copy_7_0_Layer0_0_MEMBER_16_FILL"/>
</g>

<g transform="matrix( 1.00018310546875, 0, 0, 1.00018310546875, 92.25,10.8) ">
<use xlink:href="#BDM_728x90_FR_psd_Asset_6_V7_4_footer_copy_3_Faites_en_plus_avec_le_Wi_Fi_en_tant_que_service__copy_7_0_Layer0_0_MEMBER_17_FILL"/>
</g>

<g transform="matrix( 1.00018310546875, 0, 0, 1.00018310546875, 92.25,10.8) ">
<use xlink:href="#BDM_728x90_FR_psd_Asset_6_V7_4_footer_copy_3_Faites_en_plus_avec_le_Wi_Fi_en_tant_que_service__copy_7_0_Layer0_0_MEMBER_18_FILL"/>
</g>

<g transform="matrix( 1.00018310546875, 0, 0, 1.00018310546875, 92.25,10.8) ">
<use xlink:href="#BDM_728x90_FR_psd_Asset_6_V7_4_footer_copy_3_Faites_en_plus_avec_le_Wi_Fi_en_tant_que_service__copy_7_0_Layer0_0_MEMBER_19_FILL"/>
</g>

<g transform="matrix( 1.00018310546875, 0, 0, 1.00018310546875, 92.25,10.8) ">
<use xlink:href="#BDM_728x90_FR_psd_Asset_6_V7_4_footer_copy_3_Faites_en_plus_avec_le_Wi_Fi_en_tant_que_service__copy_7_0_Layer0_0_MEMBER_20_FILL"/>
</g>

<g transform="matrix( 1.00018310546875, 0, 0, 1.00018310546875, 92.25,10.8) ">
<use xlink:href="#BDM_728x90_FR_psd_Asset_6_V7_4_footer_copy_3_Faites_en_plus_avec_le_Wi_Fi_en_tant_que_service__copy_7_0_Layer0_0_MEMBER_21_FILL"/>
</g>

<g transform="matrix( 1.00018310546875, 0, 0, 1.00018310546875, 92.25,10.8) ">
<use xlink:href="#BDM_728x90_FR_psd_Asset_6_V7_4_footer_copy_3_Faites_en_plus_avec_le_Wi_Fi_en_tant_que_service__copy_7_0_Layer0_0_MEMBER_22_FILL"/>
</g>

<g transform="matrix( 1.00018310546875, 0, 0, 1.00018310546875, 92.25,10.8) ">
<use xlink:href="#BDM_728x90_FR_psd_Asset_6_V7_4_footer_copy_3_Faites_en_plus_avec_le_Wi_Fi_en_tant_que_service__copy_7_0_Layer0_0_MEMBER_23_FILL"/>
</g>

<g transform="matrix( 1.00018310546875, 0, 0, 1.00018310546875, 92.25,10.8) ">
<use xlink:href="#BDM_728x90_FR_psd_Asset_6_V7_4_footer_copy_3_Faites_en_plus_avec_le_Wi_Fi_en_tant_que_service__copy_7_0_Layer0_0_MEMBER_24_FILL"/>
</g>

<g transform="matrix( 1.00018310546875, 0, 0, 1.00018310546875, 92.25,10.8) ">
<use xlink:href="#BDM_728x90_FR_psd_Asset_6_V7_4_footer_copy_3_Faites_en_plus_avec_le_Wi_Fi_en_tant_que_service__copy_7_0_Layer0_0_MEMBER_25_FILL"/>
</g>

<g transform="matrix( 1.00018310546875, 0, 0, 1.00018310546875, 92.25,10.8) ">
<use xlink:href="#BDM_728x90_FR_psd_Asset_6_V7_4_footer_copy_3_Faites_en_plus_avec_le_Wi_Fi_en_tant_que_service__copy_7_0_Layer0_0_MEMBER_26_FILL"/>
</g>

<g transform="matrix( 1.00018310546875, 0, 0, 1.00018310546875, 92.25,10.8) ">
<use xlink:href="#BDM_728x90_FR_psd_Asset_6_V7_4_footer_copy_3_Faites_en_plus_avec_le_Wi_Fi_en_tant_que_service__copy_7_0_Layer0_0_MEMBER_27_FILL"/>
</g>

<g transform="matrix( 1.00018310546875, 0, 0, 1.00018310546875, 92.25,10.8) ">
<use xlink:href="#BDM_728x90_FR_psd_Asset_6_V7_4_footer_copy_3_Faites_en_plus_avec_le_Wi_Fi_en_tant_que_service__copy_7_0_Layer0_0_MEMBER_28_FILL"/>
</g>

<g transform="matrix( 1.00018310546875, 0, 0, 1.00018310546875, 92.25,10.8) ">
<use xlink:href="#BDM_728x90_FR_psd_Asset_6_V7_4_footer_copy_3_Faites_en_plus_avec_le_Wi_Fi_en_tant_que_service__copy_7_0_Layer0_0_MEMBER_29_FILL"/>
</g>

<g transform="matrix( 1.00018310546875, 0, 0, 1.00018310546875, 92.25,10.8) ">
<use xlink:href="#BDM_728x90_FR_psd_Asset_6_V7_4_footer_copy_3_Faites_en_plus_avec_le_Wi_Fi_en_tant_que_service__copy_7_0_Layer0_0_MEMBER_30_FILL"/>
</g>

<g transform="matrix( 1.00018310546875, 0, 0, 1.00018310546875, 92.25,10.8) ">
<use xlink:href="#BDM_728x90_FR_psd_Asset_6_V7_4_footer_copy_3_Faites_en_plus_avec_le_Wi_Fi_en_tant_que_service__copy_7_0_Layer0_0_MEMBER_31_FILL"/>
</g>

<g transform="matrix( 1.00018310546875, 0, 0, 1.00018310546875, 92.25,10.8) ">
<use xlink:href="#BDM_728x90_FR_psd_Asset_6_V7_4_footer_copy_3_Faites_en_plus_avec_le_Wi_Fi_en_tant_que_service__copy_7_0_Layer0_0_MEMBER_32_FILL"/>
</g>

<g transform="matrix( 1.00018310546875, 0, 0, 1.00018310546875, 92.25,10.8) ">
<use xlink:href="#BDM_728x90_FR_psd_Asset_6_V7_4_footer_copy_3_Faites_en_plus_avec_le_Wi_Fi_en_tant_que_service__copy_7_0_Layer0_0_MEMBER_33_FILL"/>
</g>

<g transform="matrix( 1.00018310546875, 0, 0, 1.00018310546875, 92.25,10.8) ">
<use xlink:href="#BDM_728x90_FR_psd_Asset_6_V7_4_footer_copy_3_Faites_en_plus_avec_le_Wi_Fi_en_tant_que_service__copy_7_0_Layer0_0_MEMBER_34_FILL"/>
</g>

<g transform="matrix( 1.00018310546875, 0, 0, 1.00018310546875, 92.25,10.8) ">
<use xlink:href="#BDM_728x90_FR_psd_Asset_6_V7_4_footer_copy_3_Faites_en_plus_avec_le_Wi_Fi_en_tant_que_service__copy_7_0_Layer0_0_MEMBER_35_FILL"/>
</g>

<g transform="matrix( 1.00018310546875, 0, 0, 1.00018310546875, 92.25,10.8) ">
<use xlink:href="#BDM_728x90_FR_psd_Asset_6_V7_4_footer_copy_3_Faites_en_plus_avec_le_Wi_Fi_en_tant_que_service__copy_7_0_Layer0_0_MEMBER_36_FILL"/>
</g>

<g transform="matrix( 1.00018310546875, 0, 0, 1.00018310546875, 92.25,10.8) ">
<use xlink:href="#BDM_728x90_FR_psd_Asset_6_V7_4_footer_copy_3_Faites_en_plus_avec_le_Wi_Fi_en_tant_que_service__copy_7_0_Layer0_0_MEMBER_37_FILL"/>
</g>

<g transform="matrix( 1.00018310546875, 0, 0, 1.00018310546875, 92.25,10.8) ">
<use xlink:href="#BDM_728x90_FR_psd_Asset_6_V7_4_footer_copy_3_Faites_en_plus_avec_le_Wi_Fi_en_tant_que_service__copy_7_0_Layer0_0_MEMBER_38_FILL"/>
</g>

<g transform="matrix( 1.00018310546875, 0, 0, 1.00018310546875, 92.25,10.8) ">
<use xlink:href="#BDM_728x90_FR_psd_Asset_6_V7_4_footer_copy_3_Faites_en_plus_avec_le_Wi_Fi_en_tant_que_service__copy_7_0_Layer0_0_MEMBER_39_FILL"/>
</g>

<g transform="matrix( 1.00018310546875, 0, 0, 1.00018310546875, 92.25,10.8) ">
<use xlink:href="#BDM_728x90_FR_psd_Asset_6_V7_4_footer_copy_3_Faites_en_plus_avec_le_Wi_Fi_en_tant_que_service__copy_7_0_Layer0_0_MEMBER_40_FILL"/>
</g>
</g>
</g>
</g>
</g>
</svg>
