
<svg xmlns="http://www.w3.org/2000/svg" version="1.1" xmlns:xlink="http://www.w3.org/1999/xlink" preserveAspectRatio="none" x="0px" y="0px" width="200px" height="200px" viewBox="0 0 200 200">
<defs>
<g id="BDM_200x200_psd_Asset_1_ManagedWiFi_Awareness_DM8_3_for_a_more__personalized__customer_experience__0_Layer0_0_MEMBER_0_FILL">
<path fill="#D82C26" stroke="none" d="
M 1.8 -4.85
L 2.25 -4.75 2.3 -5.1 2.05 -5.15 1.75 -5.15
Q 1.3 -5.15 1.05 -4.9 0.75 -4.6 0.75 -4.05
L 0.75 -3.15 0.2 -3.15 0.1 -2.85 0.8 -2.85 0.8 0 1.15 0 1.15 -2.85 1.9 -2.85 2 -3.15 1.15 -3.15 1.15 -4.05
Q 1.15 -4.35 1.3 -4.6 1.45 -4.85 1.8 -4.85 Z"/>
</g>

<g id="BDM_200x200_psd_Asset_1_ManagedWiFi_Awareness_DM8_3_for_a_more__personalized__customer_experience__0_Layer0_0_MEMBER_1_FILL">
<path fill="#D82C26" stroke="none" d="
M 2.15 -1.6
Q 2.15 -1.05 2.35 -0.7 2.6 -0.3 2.95 -0.1 3.45 0.1 3.8 0.1 4.1 0.1 4.7 -0.1 5.1 -0.3 5.3 -0.7 5.5 -1.2 5.5 -1.6 5.5 -1.95 5.3 -2.45 5.1 -2.8 4.7 -3.05 4.1 -3.25 3.8 -3.25 3.45 -3.25 2.95 -3.05 2.6 -2.8 2.35 -2.45 2.15 -2.1 2.15 -1.6
M 3.8 -2.9
Q 4.2 -2.9 4.5 -2.75 4.8 -2.5 4.95 -2.25 5.1 -1.95 5.1 -1.6 5.1 -1.2 4.95 -0.9 4.8 -0.65 4.5 -0.4 4.2 -0.25 3.8 -0.25 3.45 -0.25 3.15 -0.4 2.85 -0.65 2.7 -0.9 2.55 -1.2 2.55 -1.6 2.55 -1.95 2.7 -2.25 2.85 -2.5 3.15 -2.75 3.45 -2.9 3.8 -2.9 Z"/>
</g>

<g id="BDM_200x200_psd_Asset_1_ManagedWiFi_Awareness_DM8_3_for_a_more__personalized__customer_experience__0_Layer0_0_MEMBER_2_FILL">
<path fill="#D82C26" stroke="none" d="
M 7.9 -3.2
L 7.6 -3.25
Q 7.35 -3.25 7.05 -3.05 6.8 -2.9 6.65 -2.45
L 6.6 -3.15 6.25 -3.15 6.3 0 6.65 0 6.65 -1.55
Q 6.65 -2.1 6.9 -2.5 7.15 -2.9 7.55 -2.9
L 7.85 -2.85 7.9 -3.2 Z"/>
</g>

<g id="BDM_200x200_psd_Asset_1_ManagedWiFi_Awareness_DM8_3_for_a_more__personalized__customer_experience__0_Layer0_0_MEMBER_3_FILL">
<path fill="#D82C26" stroke="none" d="
M 9.3 -0.85
Q 9.3 -0.35 9.6 -0.15 9.95 0.1 10.3 0.1 10.75 0.1 11 -0.1 11.3 -0.2 11.5 -0.6
L 11.5 -0.3 11.55 0 11.9 0 11.85 -2.05
Q 11.85 -2.65 11.55 -2.95 11.25 -3.25 10.65 -3.25
L 10 -3.15 9.5 -2.85 9.6 -2.55 10.05 -2.8
Q 10.25 -2.9 10.6 -2.9 11.05 -2.9 11.25 -2.7 11.5 -2.45 11.5 -2.05
L 11.5 -1.9 11.1 -1.9
Q 9.3 -1.9 9.3 -0.85
M 9.9 -0.35
Q 9.7 -0.5 9.7 -0.85 9.7 -1.6 11.15 -1.6
L 11.5 -1.6 11.5 -1.3
Q 11.5 -1 11.35 -0.8 11.3 -0.65 11 -0.35 10.8 -0.2 10.4 -0.2 10.05 -0.2 9.9 -0.35 Z"/>
</g>

<g id="BDM_200x200_psd_Asset_1_ManagedWiFi_Awareness_DM8_3_for_a_more__personalized__customer_experience__0_Layer0_0_MEMBER_4_FILL">
<path fill="#D82C26" stroke="none" d="
M 14.4 -3.15
L 14 -3.15 14.05 0 14.45 0 14.45 -1.55 14.55 -2.3
Q 14.7 -2.55 14.95 -2.75 15.2 -2.9 15.45 -2.9 15.85 -2.9 16 -2.65 16.2 -2.4 16.2 -1.85
L 16.2 0 16.6 0 16.6 -1.6
Q 16.6 -2.15 16.9 -2.55 17.1 -2.9 17.6 -2.9 18.05 -2.9 18.25 -2.6 18.45 -2.1 18.45 -1.8
L 18.45 0 18.8 0 18.8 -1.9
Q 18.8 -2.55 18.55 -2.85 18.25 -3.25 17.7 -3.25 17.35 -3.25 17 -3 16.7 -2.85 16.55 -2.45 16.4 -2.9 16.15 -3 15.9 -3.25 15.5 -3.25 15.25 -3.25 14.85 -3.05 14.5 -2.8 14.45 -2.45
L 14.4 -2.45 14.4 -3.15 Z"/>
</g>

<g id="BDM_200x200_psd_Asset_1_ManagedWiFi_Awareness_DM8_3_for_a_more__personalized__customer_experience__0_Layer0_0_MEMBER_5_FILL">
<path fill="#D82C26" stroke="none" d="
M 19.8 -2.45
Q 19.55 -2.05 19.55 -1.6 19.55 -1.1 19.8 -0.7 20.05 -0.3 20.4 -0.1 20.9 0.1 21.25 0.1 21.6 0.1 22.1 -0.1 22.5 -0.3 22.7 -0.7 22.9 -1.05 22.9 -1.6 22.9 -2.1 22.7 -2.45 22.5 -2.8 22.1 -3.05 21.6 -3.25 21.25 -3.25 20.9 -3.25 20.4 -3.05 20.05 -2.8 19.8 -2.45
M 19.95 -1.6
Q 19.95 -1.95 20.1 -2.25 20.25 -2.5 20.55 -2.75 20.85 -2.9 21.25 -2.9 21.6 -2.9 21.9 -2.75 22.2 -2.5 22.35 -2.25 22.5 -1.95 22.5 -1.6 22.5 -1.2 22.35 -0.9 22.2 -0.65 21.9 -0.4 21.7 -0.25 21.25 -0.25 20.85 -0.25 20.55 -0.4 20.25 -0.65 20.1 -0.9 19.95 -1.2 19.95 -1.6 Z"/>
</g>

<g id="BDM_200x200_psd_Asset_1_ManagedWiFi_Awareness_DM8_3_for_a_more__personalized__customer_experience__0_Layer0_0_MEMBER_6_FILL">
<path fill="#D82C26" stroke="none" d="
M 24.05 -3.15
L 23.65 -3.15 23.7 0 24.1 0 24.1 -1.55
Q 24.1 -2.2 24.35 -2.5 24.6 -2.9 25 -2.9
L 25.25 -2.85 25.35 -3.2 25 -3.25
Q 24.85 -3.25 24.45 -3.05 24.15 -2.75 24.1 -2.45
L 24.05 -2.45 24.05 -3.15 Z"/>
</g>

<g id="BDM_200x200_psd_Asset_1_ManagedWiFi_Awareness_DM8_3_for_a_more__personalized__customer_experience__0_Layer0_0_MEMBER_7_FILL">
<path fill="#D82C26" stroke="none" d="
M 26.25 -3.05
Q 25.9 -2.8 25.7 -2.45 25.5 -2.1 25.5 -1.6 25.5 -1.05 25.7 -0.7 25.95 -0.3 26.3 -0.1 26.7 0.1 27.1 0.1 27.8 0.1 28.35 -0.3
L 28.3 -0.65
Q 28.05 -0.4 27.8 -0.35 27.6 -0.25 27.15 -0.25 26.8 -0.25 26.5 -0.4 26.2 -0.55 26.05 -0.85 25.9 -1.15 25.9 -1.5
L 28.55 -1.5 28.55 -1.7
Q 28.55 -2.15 28.4 -2.45 28.15 -2.85 27.85 -3.05 27.45 -3.25 27.05 -3.25 26.75 -3.25 26.25 -3.05
M 26.05 -2.3
Q 26.2 -2.65 26.45 -2.75 26.75 -2.95 27.05 -2.95 27.55 -2.95 27.85 -2.6 28.15 -2.3 28.2 -1.8
L 25.9 -1.8
Q 25.9 -2.05 26.05 -2.3 Z"/>
</g>

<g id="BDM_200x200_psd_Asset_1_ManagedWiFi_Awareness_DM8_3_for_a_more__personalized__customer_experience__0_Layer0_0_MEMBER_8_FILL">
<path fill="#D82C26" stroke="none" d="
M 2.3 4.9
Q 1.9 4.9 1.55 5.1 1.2 5.3 1.05 5.65
L 1 5.65 1 5 0.6 5 0.6 9.75 1 9.75 1 7.45 1.05 7.45
Q 1.2 7.8 1.55 8 1.9 8.2 2.3 8.2 2.85 8.2 3.1 8 3.5 7.8 3.7 7.4 3.9 6.9 3.9 6.55 3.9 6.2 3.7 5.7 3.5 5.35 3.1 5.1 2.85 4.9 2.3 4.9
M 1.6 5.4
Q 2 5.2 2.25 5.2 2.5 5.2 2.9 5.4 3.1 5.5 3.3 5.9 3.45 6.2 3.45 6.55 3.45 6.9 3.3 7.2 3.1 7.6 2.9 7.7 2.5 7.9 2.25 7.9 2 7.9 1.6 7.7 1.35 7.55 1.15 7.2 1 6.9 1 6.55 1 6.2 1.15 5.9 1.35 5.55 1.6 5.4 Z"/>
</g>

<g id="BDM_200x200_psd_Asset_1_ManagedWiFi_Awareness_DM8_3_for_a_more__personalized__customer_experience__0_Layer0_0_MEMBER_9_FILL">
<path fill="#D82C26" stroke="none" d="
M 6 4.9
Q 5.5 4.9 5.25 5.1 4.9 5.35 4.65 5.7 4.45 6.2 4.45 6.55 4.45 6.9 4.65 7.4 4.9 7.8 5.25 8 5.6 8.2 6.1 8.2 6.9 8.2 7.35 7.8
L 7.25 7.5 6.75 7.75
Q 6.45 7.9 6.1 7.9 5.7 7.9 5.45 7.7 5.15 7.55 5 7.25 4.85 6.95 4.85 6.6
L 7.5 6.6 7.5 6.45
Q 7.5 6.05 7.35 5.65 7.25 5.4 6.85 5.1 6.5 4.9 6 4.9
M 6 5.2
Q 6.55 5.2 6.85 5.5 7.15 5.8 7.15 6.3
L 4.85 6.3 5 5.8 5.4 5.35
Q 5.7 5.2 6 5.2 Z"/>
</g>

<g id="BDM_200x200_psd_Asset_1_ManagedWiFi_Awareness_DM8_3_for_a_more__personalized__customer_experience__0_Layer0_0_MEMBER_10_FILL">
<path fill="#D82C26" stroke="none" d="
M 8.65 5
L 8.25 5 8.3 8.1 8.7 8.1 8.7 6.55
Q 8.7 6 8.9 5.6 9.2 5.25 9.55 5.25
L 9.85 5.3 9.95 4.95 9.6 4.9
Q 9.3 4.9 9.05 5.1 8.75 5.4 8.7 5.65
L 8.65 5.65 8.65 5 Z"/>
</g>

<g id="BDM_200x200_psd_Asset_1_ManagedWiFi_Awareness_DM8_3_for_a_more__personalized__customer_experience__0_Layer0_0_MEMBER_11_FILL">
<path fill="#D82C26" stroke="none" d="
M 10.4 5.25
Q 10.25 5.5 10.25 5.75 10.25 6.05 10.5 6.3 10.9 6.55 11.15 6.65
L 11.85 6.95
Q 12.05 7.05 12.05 7.3 12.05 7.6 11.8 7.75 11.65 7.9 11.35 7.9 10.7 7.9 10.3 7.5
L 10.2 7.85 10.7 8.1 11.35 8.2 11.85 8.1
Q 12.1 8 12.25 7.8 12.4 7.6 12.4 7.3 12.4 6.95 12.15 6.75 12.05 6.65 11.45 6.35
L 10.8 6.1
Q 10.65 5.95 10.65 5.75 10.65 5.4 10.85 5.35 11 5.2 11.35 5.2 11.65 5.2 11.75 5.3
L 12.15 5.5 12.3 5.2 11.85 5
Q 11.7 4.9 11.3 4.9 10.95 4.9 10.8 5
L 10.4 5.25 Z"/>
</g>

<g id="BDM_200x200_psd_Asset_1_ManagedWiFi_Awareness_DM8_3_for_a_more__personalized__customer_experience__0_Layer0_0_MEMBER_12_FILL">
<path fill="#D82C26" stroke="none" d="
M 16.05 5.7
Q 15.85 5.35 15.45 5.1 15.1 4.9 14.6 4.9 14.1 4.9 13.75 5.1 13.4 5.35 13.15 5.7 12.95 6.05 12.95 6.55 12.95 7.05 13.15 7.4 13.4 7.8 13.75 8 14.1 8.2 14.6 8.2 15.1 8.2 15.45 8 15.85 7.8 16.05 7.4 16.3 7 16.3 6.55 16.3 6.1 16.05 5.7
M 15.3 5.4
L 15.75 5.85
Q 15.9 6.15 15.9 6.55 15.9 6.9 15.75 7.2 15.55 7.55 15.3 7.7 14.9 7.9 14.6 7.9 14.25 7.9 13.95 7.7 13.7 7.55 13.5 7.2 13.35 6.9 13.35 6.55 13.35 6.15 13.5 5.85 13.65 5.55 13.95 5.4 14.15 5.2 14.6 5.2 15.05 5.2 15.3 5.4 Z"/>
</g>

<g id="BDM_200x200_psd_Asset_1_ManagedWiFi_Awareness_DM8_3_for_a_more__personalized__customer_experience__0_Layer0_0_MEMBER_13_FILL">
<path fill="#D82C26" stroke="none" d="
M 17.45 5.65
L 17.4 5 17.05 5 17.05 8.1 17.45 8.1 17.45 6.5
Q 17.45 6.1 17.6 5.8 17.75 5.45 18 5.35 18.25 5.2 18.5 5.2 19 5.2 19.15 5.55 19.35 5.8 19.35 6.3
L 19.35 8.1 19.75 8.1 19.75 6.2
Q 19.75 5.65 19.45 5.25 19.25 4.9 18.6 4.9 18.15 4.9 17.9 5.1 17.6 5.3 17.45 5.65 Z"/>
</g>

<g id="BDM_200x200_psd_Asset_1_ManagedWiFi_Awareness_DM8_3_for_a_more__personalized__customer_experience__0_Layer0_0_MEMBER_14_FILL">
<path fill="#D82C26" stroke="none" d="
M 22.7 5.2
Q 22.4 4.9 21.85 4.9 21.4 4.9 21.2 5 20.85 5.1 20.65 5.3
L 20.8 5.6 21.25 5.3 21.8 5.2
Q 22.2 5.2 22.45 5.4 22.65 5.6 22.65 6.05
L 22.65 6.25 22.3 6.25
Q 20.5 6.25 20.5 7.25 20.5 7.75 20.8 7.95 21.05 8.2 21.5 8.2 21.9 8.2 22.2 8.05 22.55 7.8 22.65 7.5
L 22.7 7.5 22.7 7.85 22.75 8.1 23.1 8.1 23.05 6.1
Q 23.05 5.5 22.7 5.2
M 22.65 6.8
Q 22.65 7.15 22.55 7.35
L 22.2 7.75
Q 21.9 7.9 21.55 7.9 21.3 7.9 21.05 7.75 20.85 7.55 20.85 7.25 20.85 6.5 22.35 6.5
L 22.65 6.5 22.65 6.8 Z"/>
</g>

<g id="BDM_200x200_psd_Asset_1_ManagedWiFi_Awareness_DM8_3_for_a_more__personalized__customer_experience__0_Layer0_0_MEMBER_15_FILL">
<path fill="#D82C26" stroke="none" d="
M 24.15 7.9
Q 24.3 8.15 24.5 8.2
L 24.7 7.85
Q 24.5 7.8 24.45 7.65
L 24.4 7.35 24.4 3 24 3.1 24 7.4
Q 24 7.75 24.15 7.9 Z"/>
</g>

<g id="BDM_200x200_psd_Asset_1_ManagedWiFi_Awareness_DM8_3_for_a_more__personalized__customer_experience__0_Layer0_0_MEMBER_16_FILL">
<path fill="#D82C26" stroke="none" d="
M 25.8 5
L 25.4 5 25.4 8.1 25.8 8.1 25.8 5
M 25.6 4
Q 25.75 4 25.8 3.9
L 25.9 3.7 25.8 3.5 25.6 3.45 25.4 3.5 25.35 3.7 25.4 3.9
Q 25.45 4 25.6 4 Z"/>
</g>

<g id="BDM_200x200_psd_Asset_1_ManagedWiFi_Awareness_DM8_3_for_a_more__personalized__customer_experience__0_Layer0_0_MEMBER_17_FILL">
<path fill="#D82C26" stroke="none" d="
M 28.85 5.3
L 28.85 5 26.6 5 26.5 5.3 28.4 5.3 26.45 7.8 26.45 8.1 28.9 8.1 29 7.8 26.95 7.8 28.85 5.3 Z"/>
</g>

<g id="BDM_200x200_psd_Asset_1_ManagedWiFi_Awareness_DM8_3_for_a_more__personalized__customer_experience__0_Layer0_0_MEMBER_18_FILL">
<path fill="#D82C26" stroke="none" d="
M 32.2 5.65
Q 32 5.3 31.65 5.1 31.4 4.9 30.85 4.9 30.4 4.9 30.05 5.1 29.7 5.35 29.5 5.7 29.3 6.05 29.3 6.55 29.3 7.05 29.5 7.4 29.75 7.8 30.1 8 30.35 8.2 30.9 8.2 31.7 8.2 32.15 7.8
L 32.1 7.5 31.6 7.75
Q 31.3 7.9 30.95 7.9 30.55 7.9 30.3 7.7 30 7.55 29.85 7.25 29.7 6.95 29.7 6.6
L 32.35 6.6 32.35 6.45
Q 32.35 6.05 32.2 5.65
M 30.85 5.2
Q 31.35 5.2 31.65 5.5 31.95 5.8 31.95 6.3
L 29.7 6.3 29.85 5.8
Q 30.05 5.5 30.25 5.35 30.5 5.2 30.85 5.2 Z"/>
</g>

<g id="BDM_200x200_psd_Asset_1_ManagedWiFi_Awareness_DM8_3_for_a_more__personalized__customer_experience__0_Layer0_0_MEMBER_19_FILL">
<path fill="#D82C26" stroke="none" d="
M 36.2 2.95
L 35.8 3.05 35.8 5.65
Q 35.55 5.2 35.25 5.1 34.9 4.9 34.5 4.9 33.95 4.9 33.7 5.1 33.3 5.35 33.15 5.7 32.95 6.05 32.95 6.55 32.95 7.05 33.15 7.4 33.3 7.75 33.7 8 33.95 8.2 34.5 8.2 34.9 8.2 35.25 8 35.6 7.8 35.8 7.45
L 35.85 8.1 36.2 8.1 36.2 2.95
M 34.55 5.2
Q 34.8 5.2 35.2 5.4 35.45 5.55 35.65 5.9 35.8 6.2 35.8 6.55 35.8 6.9 35.65 7.2 35.45 7.55 35.2 7.7 34.8 7.9 34.55 7.9 34.3 7.9 33.9 7.7 33.7 7.6 33.5 7.2 33.3 6.95 33.3 6.55 33.3 6.15 33.5 5.9 33.7 5.5 33.9 5.4 34.3 5.2 34.55 5.2 Z"/>
</g>

<g id="BDM_200x200_psd_Asset_1_ManagedWiFi_Awareness_DM8_3_for_a_more__personalized__customer_experience__0_Layer0_0_MEMBER_20_FILL">
<path fill="#D82C26" stroke="none" d="
M 3.1 13.4
Q 2.95 13.2 2.6 13.1
L 2.05 13
Q 1.55 13 1.2 13.2 0.85 13.45 0.6 13.8 0.4 14.15 0.4 14.65 0.4 15.2 0.6 15.55 0.85 16 1.15 16.1 1.55 16.35 2 16.35
L 2.6 16.25 3.1 15.95 3.05 15.6 2.6 15.9 2.05 16
Q 1.6 16 1.4 15.8 1.1 15.65 0.95 15.35 0.8 15.05 0.8 14.65 0.8 14.3 0.95 14 1.1 13.75 1.4 13.5 1.65 13.35 2.05 13.35 2.35 13.35 2.55 13.45
L 2.95 13.7 3.1 13.4 Z"/>
</g>

<g id="BDM_200x200_psd_Asset_1_ManagedWiFi_Awareness_DM8_3_for_a_more__personalized__customer_experience__0_Layer0_0_MEMBER_21_FILL">
<path fill="#D82C26" stroke="none" d="
M 5.95 13.1
L 5.95 14.65
Q 5.95 15.2 5.85 15.4 5.7 15.7 5.45 15.85 5.25 16 4.95 16 4.5 16 4.25 15.7 4.05 15.3 4.05 14.9
L 4.05 13.1 3.7 13.1 3.7 15
Q 3.7 15.65 3.95 15.95 4.25 16.35 4.85 16.35 5.15 16.35 5.5 16.1 5.85 15.95 5.95 15.55
L 6.05 16.25 6.4 16.25 6.4 15.9 6.35 15.5 6.35 13.1 5.95 13.1 Z"/>
</g>

<g id="BDM_200x200_psd_Asset_1_ManagedWiFi_Awareness_DM8_3_for_a_more__personalized__customer_experience__0_Layer0_0_MEMBER_22_FILL">
<path fill="#D82C26" stroke="none" d="
M 9.05 13.6
L 9.2 13.35 8.8 13.1 8.2 13 7.7 13.1
Q 7.5 13.15 7.35 13.4 7.2 13.55 7.2 13.85 7.2 14.25 7.4 14.4 7.6 14.6 8.1 14.75
L 8.75 15.05
Q 8.95 15.25 8.95 15.45 8.95 15.65 8.75 15.85 8.55 16 8.25 16 7.6 16 7.2 15.65
L 7.1 16 7.6 16.25 8.25 16.35
Q 8.55 16.35 8.75 16.2 9 16.15 9.15 15.9 9.3 15.7 9.3 15.4 9.3 15.05 9.1 14.85 8.9 14.65 8.35 14.5
L 7.75 14.2
Q 7.55 14.05 7.55 13.85 7.55 13.6 7.75 13.45 8 13.3 8.25 13.3
L 8.7 13.4 9.05 13.6 Z"/>
</g>

<g id="BDM_200x200_psd_Asset_1_ManagedWiFi_Awareness_DM8_3_for_a_more__personalized__customer_experience__0_Layer0_0_MEMBER_23_FILL">
<path fill="#D82C26" stroke="none" d="
M 10.65 12.2
L 10.25 12.35 10.25 13.1 9.75 13.1 9.65 13.4 10.25 13.4 10.25 15.5
Q 10.25 15.8 10.45 16.1 10.65 16.3 11 16.3
L 11.35 16.25 11.65 16.15 11.6 15.85 11.1 16
Q 10.9 16 10.75 15.85
L 10.65 15.45 10.65 13.4 11.45 13.4 11.55 13.1 10.65 13.1 10.65 12.2 Z"/>
</g>

<g id="BDM_200x200_psd_Asset_1_ManagedWiFi_Awareness_DM8_3_for_a_more__personalized__customer_experience__0_Layer0_0_MEMBER_24_FILL">
<path fill="#D82C26" stroke="none" d="
M 13.55 13
Q 13.05 13 12.7 13.2 12.35 13.45 12.1 13.8 11.9 14.15 11.9 14.65 11.9 15.15 12.1 15.5 12.35 15.95 12.7 16.1 13.1 16.35 13.55 16.35 14 16.35 14.4 16.1 14.8 15.95 15 15.5 15.25 15.1 15.25 14.65 15.25 14.2 15 13.8 14.8 13.45 14.4 13.2 14.05 13 13.55 13
M 14.85 14.65
Q 14.85 15.05 14.7 15.35 14.55 15.65 14.25 15.8 14 16 13.55 16 13.15 16 12.9 15.8 12.6 15.65 12.45 15.35 12.3 15.05 12.3 14.65 12.3 14.3 12.45 14 12.6 13.75 12.9 13.5 13.2 13.35 13.55 13.35 13.95 13.35 14.25 13.5
L 14.7 14
Q 14.85 14.3 14.85 14.65 Z"/>
</g>

<g id="BDM_200x200_psd_Asset_1_ManagedWiFi_Awareness_DM8_3_for_a_more__personalized__customer_experience__0_Layer0_0_MEMBER_25_FILL">
<path fill="#D82C26" stroke="none" d="
M 20.8 14.35
Q 20.8 13.8 20.5 13.4 20.25 13 19.65 13 19.35 13 18.95 13.2 18.65 13.45 18.5 13.8 18.45 13.5 18.15 13.2 17.75 13 17.5 13 17.25 13 16.85 13.2 16.55 13.45 16.4 13.8
L 16.35 13.1 16 13.1 16 16.25 16.4 16.25 16.4 14.7
Q 16.4 14.25 16.55 13.95 16.7 13.65 16.9 13.5 17.15 13.35 17.4 13.35 17.75 13.35 18 13.6 18.2 14 18.2 14.4
L 18.2 16.25 18.6 16.25 18.6 14.6
Q 18.6 14.1 18.85 13.7 19.15 13.35 19.6 13.35 20.05 13.35 20.2 13.65 20.4 13.9 20.4 14.45
L 20.4 16.25 20.8 16.25 20.8 14.35 Z"/>
</g>

<g id="BDM_200x200_psd_Asset_1_ManagedWiFi_Awareness_DM8_3_for_a_more__personalized__customer_experience__0_Layer0_0_MEMBER_26_FILL">
<path fill="#D82C26" stroke="none" d="
M 23.9 13.2
Q 23.65 13 23.1 13 22.65 13 22.3 13.2 21.95 13.45 21.75 13.8 21.55 14.15 21.55 14.65 21.55 15 21.75 15.5 22 15.95 22.35 16.1 22.75 16.35 23.15 16.35 23.85 16.35 24.4 15.95
L 24.35 15.6 23.85 15.9 23.2 16
Q 22.85 16 22.55 15.85 22.25 15.6 22.1 15.35 21.95 15.15 21.95 14.7
L 24.6 14.7 24.6 14.55
Q 24.6 14.15 24.45 13.75 24.15 13.35 23.9 13.2
M 23.9 13.6
Q 24.15 13.85 24.25 14.45
L 21.95 14.45
Q 21.95 14.2 22.1 13.95 22.25 13.6 22.5 13.5 22.7 13.3 23.1 13.3 23.6 13.3 23.9 13.6 Z"/>
</g>

<g id="BDM_200x200_psd_Asset_1_ManagedWiFi_Awareness_DM8_3_for_a_more__personalized__customer_experience__0_Layer0_0_MEMBER_27_FILL">
<path fill="#D82C26" stroke="none" d="
M 26.65 13.35
L 26.95 13.4 27 13.05 26.7 13
Q 26.35 13 26.15 13.2 25.9 13.35 25.75 13.8
L 25.7 13.1 25.35 13.1 25.4 16.25 25.75 16.25 25.75 14.7
Q 25.75 14.15 26 13.75 26.25 13.35 26.65 13.35 Z"/>
</g>

<g id="BDM_200x200_psd_Asset_1_ManagedWiFi_Awareness_DM8_3_for_a_more__personalized__customer_experience__0_Layer0_0_MEMBER_28_FILL">
<path fill="#D82C26" stroke="none" d="
M 28.6 13.8
Q 28.4 14.15 28.4 14.65 28.4 15.15 28.6 15.5 28.85 15.95 29.2 16.1 29.55 16.35 30 16.35 30.7 16.35 31.25 15.95
L 31.2 15.6 30.7 15.9 30.05 16
Q 29.7 16 29.4 15.85 29.1 15.6 28.95 15.35 28.8 15.15 28.8 14.7
L 31.45 14.7 31.45 14.55
Q 31.45 14.1 31.25 13.75 31.05 13.4 30.75 13.2 30.5 13 29.95 13 29.5 13 29.15 13.2 28.85 13.4 28.6 13.8
M 29.35 13.5
Q 29.55 13.3 29.95 13.3 30.45 13.3 30.75 13.6 31.05 13.9 31.05 14.45
L 28.8 14.45
Q 28.8 14.2 28.95 13.95 29.1 13.6 29.35 13.5 Z"/>
</g>

<g id="BDM_200x200_psd_Asset_1_ManagedWiFi_Awareness_DM8_3_for_a_more__personalized__customer_experience__0_Layer0_0_MEMBER_29_FILL">
<path fill="#D82C26" stroke="none" d="
M 34.1 13.1
L 33.25 14.35 32.35 13.1 31.85 13.1 33 14.6 31.75 16.25 32.2 16.25 33.25 14.85 34.25 16.25 34.75 16.25 33.5 14.6 34.6 13.1 34.1 13.1 Z"/>
</g>

<g id="BDM_200x200_psd_Asset_1_ManagedWiFi_Awareness_DM8_3_for_a_more__personalized__customer_experience__0_Layer0_0_MEMBER_30_FILL">
<path fill="#D82C26" stroke="none" d="
M 38.55 14.65
Q 38.55 14.15 38.35 13.8 38.2 13.45 37.8 13.2 37.4 13 37 13 36.5 13 36.25 13.2 35.95 13.4 35.7 13.8
L 35.65 13.1 35.3 13.1 35.3 17.85 35.7 17.85 35.7 15.55 35.75 15.55
Q 35.9 15.95 36.25 16.15 36.75 16.35 37 16.35 37.45 16.35 37.8 16.1 38.2 15.85 38.35 15.5 38.55 15.15 38.55 14.65
M 38.15 14.65
Q 38.15 15.05 38 15.35 37.85 15.7 37.6 15.8 37.35 16 36.95 16 36.55 16 36.3 15.8 36 15.65 35.85 15.35 35.7 15.05 35.7 14.65 35.7 14.3 35.85 14 36 13.75 36.3 13.5 36.6 13.35 36.95 13.35 37.3 13.35 37.6 13.5 37.85 13.7 38 14 38.15 14.3 38.15 14.65 Z"/>
</g>

<g id="BDM_200x200_psd_Asset_1_ManagedWiFi_Awareness_DM8_3_for_a_more__personalized__customer_experience__0_Layer0_0_MEMBER_31_FILL">
<path fill="#D82C26" stroke="none" d="
M 41.55 13.2
Q 41.2 13 40.7 13 40.2 13 39.95 13.2 39.6 13.45 39.35 13.8 39.15 14.3 39.15 14.65 39.15 15 39.35 15.5 39.6 15.95 39.95 16.1 40.35 16.35 40.75 16.35 41.5 16.35 42.05 15.95
L 41.95 15.6 41.45 15.9 40.8 16
Q 40.45 16 40.15 15.85 39.85 15.6 39.7 15.35 39.55 15.15 39.55 14.7
L 42.2 14.7 42.2 14.55
Q 42.2 14.15 42.05 13.75
L 41.55 13.2
M 41.5 13.6
Q 41.85 13.95 41.85 14.45
L 39.55 14.45
Q 39.55 14.2 39.7 13.95 39.85 13.7 40.1 13.5 40.3 13.3 40.7 13.3 41.2 13.3 41.5 13.6 Z"/>
</g>

<g id="BDM_200x200_psd_Asset_1_ManagedWiFi_Awareness_DM8_3_for_a_more__personalized__customer_experience__0_Layer0_0_MEMBER_32_FILL">
<path fill="#D82C26" stroke="none" d="
M 43.35 13.8
L 43.35 13.1 42.95 13.1 43 16.25 43.4 16.25 43.4 14.7
Q 43.4 14.1 43.6 13.75 43.9 13.35 44.25 13.35
L 44.55 13.4 44.65 13.05 44.3 13
Q 43.95 13 43.75 13.2 43.5 13.45 43.35 13.8 Z"/>
</g>

<g id="BDM_200x200_psd_Asset_1_ManagedWiFi_Awareness_DM8_3_for_a_more__personalized__customer_experience__0_Layer0_0_MEMBER_33_FILL">
<path fill="#D82C26" stroke="none" d="
M 45.15 13.1
L 45.15 16.25 45.55 16.25 45.55 13.1 45.15 13.1
M 45.15 12.05
L 45.35 12.15 45.55 12.05 45.6 11.85 45.55 11.65 45.35 11.55 45.15 11.65 45.05 11.85 45.15 12.05 Z"/>
</g>

<g id="BDM_200x200_psd_Asset_1_ManagedWiFi_Awareness_DM8_3_for_a_more__personalized__customer_experience__0_Layer0_0_MEMBER_34_FILL">
<path fill="#D82C26" stroke="none" d="
M 49.2 13.75
Q 49.05 13.45 48.7 13.2 48.35 13 47.9 13 47.45 13 47.1 13.2 46.7 13.45 46.55 13.8 46.3 14.2 46.3 14.65 46.3 15.1 46.55 15.5 46.7 15.95 47.1 16.1 47.5 16.35 47.95 16.35 48.65 16.35 49.2 15.95
L 49.1 15.6 48.6 15.9 47.95 16
Q 47.6 16 47.3 15.85
L 46.85 15.35
Q 46.7 15.15 46.7 14.7
L 49.35 14.7 49.4 14.55
Q 49.4 14.25 49.2 13.75
M 48.7 13.6
Q 49 13.9 49 14.45
L 46.7 14.45
Q 46.7 14.2 46.85 13.95 47 13.7 47.25 13.5 47.5 13.3 47.9 13.3 48.4 13.3 48.7 13.6 Z"/>
</g>

<g id="BDM_200x200_psd_Asset_1_ManagedWiFi_Awareness_DM8_3_for_a_more__personalized__customer_experience__0_Layer0_0_MEMBER_35_FILL">
<path fill="#D82C26" stroke="none" d="
M 50.15 13.1
L 50.15 16.25 50.55 16.25 50.55 14.65
Q 50.55 14.25 50.7 13.95 50.85 13.65 51.05 13.5 51.35 13.35 51.6 13.35 52.1 13.35 52.25 13.65 52.45 13.9 52.45 14.4
L 52.45 16.25 52.85 16.25 52.85 14.3
Q 52.85 13.8 52.55 13.4 52.25 13 51.7 13 51.4 13 51 13.2 50.7 13.45 50.55 13.8
L 50.5 13.1 50.15 13.1 Z"/>
</g>

<g id="BDM_200x200_psd_Asset_1_ManagedWiFi_Awareness_DM8_3_for_a_more__personalized__customer_experience__0_Layer0_0_MEMBER_36_FILL">
<path fill="#D82C26" stroke="none" d="
M 56.3 13.4
Q 56.15 13.2 55.85 13.1
L 55.25 13
Q 54.75 13 54.4 13.2 54.05 13.45 53.8 13.8 53.6 14.15 53.6 14.65 53.6 15.2 53.8 15.55 54.05 15.95 54.4 16.1 54.8 16.35 55.25 16.35
L 55.85 16.25 56.3 15.95 56.25 15.6 55.8 15.9 55.25 16
Q 54.85 16 54.6 15.8 54.3 15.65 54.15 15.35 54 15.05 54 14.65 54 14.3 54.15 14 54.3 13.75 54.6 13.5 54.9 13.35 55.25 13.35 55.6 13.35 55.75 13.45 56.05 13.55 56.15 13.7
L 56.3 13.4 Z"/>
</g>

<g id="BDM_200x200_psd_Asset_1_ManagedWiFi_Awareness_DM8_3_for_a_more__personalized__customer_experience__0_Layer0_0_MEMBER_37_FILL">
<path fill="#D82C26" stroke="none" d="
M 59.05 13.2
Q 58.7 13 58.25 13 57.7 13 57.45 13.2 57.1 13.45 56.85 13.8 56.65 14.3 56.65 14.65 56.65 15.1 56.9 15.5 57.05 15.95 57.45 16.1 57.85 16.35 58.3 16.35 59 16.35 59.55 15.95
L 59.45 15.6 58.95 15.9 58.3 16
Q 57.95 16 57.65 15.85
L 57.2 15.35
Q 57.05 15.15 57.05 14.7
L 59.7 14.7 59.7 14.55
Q 59.7 14.15 59.55 13.75 59.4 13.45 59.05 13.2
M 59.05 13.6
Q 59.35 13.9 59.35 14.45
L 57.05 14.45
Q 57.05 14.2 57.2 13.95 57.35 13.7 57.6 13.5 57.85 13.3 58.25 13.3 58.75 13.3 59.05 13.6 Z"/>
</g>

<g id="BDM_200x200_psd_Asset_1_ManagedWiFi_Awareness_DM8_3_for_a_more__personalized__customer_experience__0_Layer0_0_MEMBER_38_FILL">
<path fill="#D82C26" stroke="none" d="
M 60.45 16.2
L 60.65 16.3 60.85 16.2
Q 60.95 16.15 60.95 16 60.95 15.8 60.85 15.75
L 60.65 15.7 60.45 15.75 60.35 16 60.45 16.2 Z"/>
</g>
</defs>

<g transform="matrix( 1, 0, 0, 1, -55,-13) ">
<g transform="matrix( 1, 0, 0, 1, 47,25) ">
<g transform="matrix( 1, 0, 0, 1, 24,6) ">
<g transform="matrix( 2.815704345703125, 0, 0, 2.832611083984375, 0.15,14.6) ">
<use xlink:href="#BDM_200x200_psd_Asset_1_ManagedWiFi_Awareness_DM8_3_for_a_more__personalized__customer_experience__0_Layer0_0_MEMBER_0_FILL"/>
</g>

<g transform="matrix( 2.815704345703125, 0, 0, 2.832611083984375, 0.15,14.6) ">
<use xlink:href="#BDM_200x200_psd_Asset_1_ManagedWiFi_Awareness_DM8_3_for_a_more__personalized__customer_experience__0_Layer0_0_MEMBER_1_FILL"/>
</g>

<g transform="matrix( 2.815704345703125, 0, 0, 2.832611083984375, 0.15,14.6) ">
<use xlink:href="#BDM_200x200_psd_Asset_1_ManagedWiFi_Awareness_DM8_3_for_a_more__personalized__customer_experience__0_Layer0_0_MEMBER_2_FILL"/>
</g>

<g transform="matrix( 2.815704345703125, 0, 0, 2.832611083984375, 0.15,14.6) ">
<use xlink:href="#BDM_200x200_psd_Asset_1_ManagedWiFi_Awareness_DM8_3_for_a_more__personalized__customer_experience__0_Layer0_0_MEMBER_3_FILL"/>
</g>

<g transform="matrix( 2.815704345703125, 0, 0, 2.832611083984375, 0.15,14.6) ">
<use xlink:href="#BDM_200x200_psd_Asset_1_ManagedWiFi_Awareness_DM8_3_for_a_more__personalized__customer_experience__0_Layer0_0_MEMBER_4_FILL"/>
</g>

<g transform="matrix( 2.815704345703125, 0, 0, 2.832611083984375, 0.15,14.6) ">
<use xlink:href="#BDM_200x200_psd_Asset_1_ManagedWiFi_Awareness_DM8_3_for_a_more__personalized__customer_experience__0_Layer0_0_MEMBER_5_FILL"/>
</g>

<g transform="matrix( 2.815704345703125, 0, 0, 2.832611083984375, 0.15,14.6) ">
<use xlink:href="#BDM_200x200_psd_Asset_1_ManagedWiFi_Awareness_DM8_3_for_a_more__personalized__customer_experience__0_Layer0_0_MEMBER_6_FILL"/>
</g>

<g transform="matrix( 2.815704345703125, 0, 0, 2.832611083984375, 0.15,14.6) ">
<use xlink:href="#BDM_200x200_psd_Asset_1_ManagedWiFi_Awareness_DM8_3_for_a_more__personalized__customer_experience__0_Layer0_0_MEMBER_7_FILL"/>
</g>

<g transform="matrix( 2.815704345703125, 0, 0, 2.832611083984375, 0.15,14.6) ">
<use xlink:href="#BDM_200x200_psd_Asset_1_ManagedWiFi_Awareness_DM8_3_for_a_more__personalized__customer_experience__0_Layer0_0_MEMBER_8_FILL"/>
</g>

<g transform="matrix( 2.815704345703125, 0, 0, 2.832611083984375, 0.15,14.6) ">
<use xlink:href="#BDM_200x200_psd_Asset_1_ManagedWiFi_Awareness_DM8_3_for_a_more__personalized__customer_experience__0_Layer0_0_MEMBER_9_FILL"/>
</g>

<g transform="matrix( 2.815704345703125, 0, 0, 2.832611083984375, 0.15,14.6) ">
<use xlink:href="#BDM_200x200_psd_Asset_1_ManagedWiFi_Awareness_DM8_3_for_a_more__personalized__customer_experience__0_Layer0_0_MEMBER_10_FILL"/>
</g>

<g transform="matrix( 2.815704345703125, 0, 0, 2.832611083984375, 0.15,14.6) ">
<use xlink:href="#BDM_200x200_psd_Asset_1_ManagedWiFi_Awareness_DM8_3_for_a_more__personalized__customer_experience__0_Layer0_0_MEMBER_11_FILL"/>
</g>

<g transform="matrix( 2.815704345703125, 0, 0, 2.832611083984375, 0.15,14.6) ">
<use xlink:href="#BDM_200x200_psd_Asset_1_ManagedWiFi_Awareness_DM8_3_for_a_more__personalized__customer_experience__0_Layer0_0_MEMBER_12_FILL"/>
</g>

<g transform="matrix( 2.815704345703125, 0, 0, 2.832611083984375, 0.15,14.6) ">
<use xlink:href="#BDM_200x200_psd_Asset_1_ManagedWiFi_Awareness_DM8_3_for_a_more__personalized__customer_experience__0_Layer0_0_MEMBER_13_FILL"/>
</g>

<g transform="matrix( 2.815704345703125, 0, 0, 2.832611083984375, 0.15,14.6) ">
<use xlink:href="#BDM_200x200_psd_Asset_1_ManagedWiFi_Awareness_DM8_3_for_a_more__personalized__customer_experience__0_Layer0_0_MEMBER_14_FILL"/>
</g>

<g transform="matrix( 2.815704345703125, 0, 0, 2.832611083984375, 0.15,14.6) ">
<use xlink:href="#BDM_200x200_psd_Asset_1_ManagedWiFi_Awareness_DM8_3_for_a_more__personalized__customer_experience__0_Layer0_0_MEMBER_15_FILL"/>
</g>

<g transform="matrix( 2.815704345703125, 0, 0, 2.832611083984375, 0.15,14.6) ">
<use xlink:href="#BDM_200x200_psd_Asset_1_ManagedWiFi_Awareness_DM8_3_for_a_more__personalized__customer_experience__0_Layer0_0_MEMBER_16_FILL"/>
</g>

<g transform="matrix( 2.815704345703125, 0, 0, 2.832611083984375, 0.15,14.6) ">
<use xlink:href="#BDM_200x200_psd_Asset_1_ManagedWiFi_Awareness_DM8_3_for_a_more__personalized__customer_experience__0_Layer0_0_MEMBER_17_FILL"/>
</g>

<g transform="matrix( 2.815704345703125, 0, 0, 2.832611083984375, 0.15,14.6) ">
<use xlink:href="#BDM_200x200_psd_Asset_1_ManagedWiFi_Awareness_DM8_3_for_a_more__personalized__customer_experience__0_Layer0_0_MEMBER_18_FILL"/>
</g>

<g transform="matrix( 2.815704345703125, 0, 0, 2.832611083984375, 0.15,14.6) ">
<use xlink:href="#BDM_200x200_psd_Asset_1_ManagedWiFi_Awareness_DM8_3_for_a_more__personalized__customer_experience__0_Layer0_0_MEMBER_19_FILL"/>
</g>

<g transform="matrix( 2.815704345703125, 0, 0, 2.832611083984375, 0.15,14.6) ">
<use xlink:href="#BDM_200x200_psd_Asset_1_ManagedWiFi_Awareness_DM8_3_for_a_more__personalized__customer_experience__0_Layer0_0_MEMBER_20_FILL"/>
</g>

<g transform="matrix( 2.815704345703125, 0, 0, 2.832611083984375, 0.15,14.6) ">
<use xlink:href="#BDM_200x200_psd_Asset_1_ManagedWiFi_Awareness_DM8_3_for_a_more__personalized__customer_experience__0_Layer0_0_MEMBER_21_FILL"/>
</g>

<g transform="matrix( 2.815704345703125, 0, 0, 2.832611083984375, 0.15,14.6) ">
<use xlink:href="#BDM_200x200_psd_Asset_1_ManagedWiFi_Awareness_DM8_3_for_a_more__personalized__customer_experience__0_Layer0_0_MEMBER_22_FILL"/>
</g>

<g transform="matrix( 2.815704345703125, 0, 0, 2.832611083984375, 0.15,14.6) ">
<use xlink:href="#BDM_200x200_psd_Asset_1_ManagedWiFi_Awareness_DM8_3_for_a_more__personalized__customer_experience__0_Layer0_0_MEMBER_23_FILL"/>
</g>

<g transform="matrix( 2.815704345703125, 0, 0, 2.832611083984375, 0.15,14.6) ">
<use xlink:href="#BDM_200x200_psd_Asset_1_ManagedWiFi_Awareness_DM8_3_for_a_more__personalized__customer_experience__0_Layer0_0_MEMBER_24_FILL"/>
</g>

<g transform="matrix( 2.815704345703125, 0, 0, 2.832611083984375, 0.15,14.6) ">
<use xlink:href="#BDM_200x200_psd_Asset_1_ManagedWiFi_Awareness_DM8_3_for_a_more__personalized__customer_experience__0_Layer0_0_MEMBER_25_FILL"/>
</g>

<g transform="matrix( 2.815704345703125, 0, 0, 2.832611083984375, 0.15,14.6) ">
<use xlink:href="#BDM_200x200_psd_Asset_1_ManagedWiFi_Awareness_DM8_3_for_a_more__personalized__customer_experience__0_Layer0_0_MEMBER_26_FILL"/>
</g>

<g transform="matrix( 2.815704345703125, 0, 0, 2.832611083984375, 0.15,14.6) ">
<use xlink:href="#BDM_200x200_psd_Asset_1_ManagedWiFi_Awareness_DM8_3_for_a_more__personalized__customer_experience__0_Layer0_0_MEMBER_27_FILL"/>
</g>

<g transform="matrix( 2.815704345703125, 0, 0, 2.832611083984375, 0.15,14.6) ">
<use xlink:href="#BDM_200x200_psd_Asset_1_ManagedWiFi_Awareness_DM8_3_for_a_more__personalized__customer_experience__0_Layer0_0_MEMBER_28_FILL"/>
</g>

<g transform="matrix( 2.815704345703125, 0, 0, 2.832611083984375, 0.15,14.6) ">
<use xlink:href="#BDM_200x200_psd_Asset_1_ManagedWiFi_Awareness_DM8_3_for_a_more__personalized__customer_experience__0_Layer0_0_MEMBER_29_FILL"/>
</g>

<g transform="matrix( 2.815704345703125, 0, 0, 2.832611083984375, 0.15,14.6) ">
<use xlink:href="#BDM_200x200_psd_Asset_1_ManagedWiFi_Awareness_DM8_3_for_a_more__personalized__customer_experience__0_Layer0_0_MEMBER_30_FILL"/>
</g>

<g transform="matrix( 2.815704345703125, 0, 0, 2.832611083984375, 0.15,14.6) ">
<use xlink:href="#BDM_200x200_psd_Asset_1_ManagedWiFi_Awareness_DM8_3_for_a_more__personalized__customer_experience__0_Layer0_0_MEMBER_31_FILL"/>
</g>

<g transform="matrix( 2.815704345703125, 0, 0, 2.832611083984375, 0.15,14.6) ">
<use xlink:href="#BDM_200x200_psd_Asset_1_ManagedWiFi_Awareness_DM8_3_for_a_more__personalized__customer_experience__0_Layer0_0_MEMBER_32_FILL"/>
</g>

<g transform="matrix( 2.815704345703125, 0, 0, 2.832611083984375, 0.15,14.6) ">
<use xlink:href="#BDM_200x200_psd_Asset_1_ManagedWiFi_Awareness_DM8_3_for_a_more__personalized__customer_experience__0_Layer0_0_MEMBER_33_FILL"/>
</g>

<g transform="matrix( 2.815704345703125, 0, 0, 2.832611083984375, 0.15,14.6) ">
<use xlink:href="#BDM_200x200_psd_Asset_1_ManagedWiFi_Awareness_DM8_3_for_a_more__personalized__customer_experience__0_Layer0_0_MEMBER_34_FILL"/>
</g>

<g transform="matrix( 2.815704345703125, 0, 0, 2.832611083984375, 0.15,14.6) ">
<use xlink:href="#BDM_200x200_psd_Asset_1_ManagedWiFi_Awareness_DM8_3_for_a_more__personalized__customer_experience__0_Layer0_0_MEMBER_35_FILL"/>
</g>

<g transform="matrix( 2.815704345703125, 0, 0, 2.832611083984375, 0.15,14.6) ">
<use xlink:href="#BDM_200x200_psd_Asset_1_ManagedWiFi_Awareness_DM8_3_for_a_more__personalized__customer_experience__0_Layer0_0_MEMBER_36_FILL"/>
</g>

<g transform="matrix( 2.815704345703125, 0, 0, 2.832611083984375, 0.15,14.6) ">
<use xlink:href="#BDM_200x200_psd_Asset_1_ManagedWiFi_Awareness_DM8_3_for_a_more__personalized__customer_experience__0_Layer0_0_MEMBER_37_FILL"/>
</g>

<g transform="matrix( 2.815704345703125, 0, 0, 2.832611083984375, 0.15,14.6) ">
<use xlink:href="#BDM_200x200_psd_Asset_1_ManagedWiFi_Awareness_DM8_3_for_a_more__personalized__customer_experience__0_Layer0_0_MEMBER_38_FILL"/>
</g>
</g>
</g>
</g>
</svg>
