
<svg xmlns="http://www.w3.org/2000/svg" version="1.1" xmlns:xlink="http://www.w3.org/1999/xlink" preserveAspectRatio="none" x="0px" y="0px" width="160px" height="600px" viewBox="0 0 160 600">
<defs>
<g id="IT_160x600_FR_psd_Asset_9_V7_2_Rogers_est__le_seul__0_Layer0_0_MEMBER_0_FILL">
<path fill="#D82C26" stroke="none" d="
M 2.6 -6.25
L 0.85 -6.25 0.85 0 1.4 0 1.4 -2.75 2.7 -2.75 4.35 0 4.95 0 3.2 -2.85
Q 3.8 -3 4.25 -3.45 4.65 -3.95 4.65 -4.6 4.65 -5.45 4.05 -5.85 3.5 -6.25 2.6 -6.25
M 3.7 -3.55
Q 3.3 -3.2 2.55 -3.2
L 1.4 -3.2 1.4 -5.8 2.5 -5.8
Q 3.2 -5.8 3.65 -5.5 4.15 -5.3 4.15 -4.6 4.15 -4 3.7 -3.55 Z"/>
</g>

<g id="IT_160x600_FR_psd_Asset_9_V7_2_Rogers_est__le_seul__0_Layer0_0_MEMBER_1_FILL">
<path fill="#D82C26" stroke="none" d="
M 8.8 -4
Q 8.2 -4.25 7.65 -4.25 7.05 -4.25 6.55 -4 6.05 -3.7 5.75 -3.2 5.45 -2.75 5.45 -2.05 5.45 -1.45 5.75 -0.95 6.05 -0.45 6.55 -0.15 6.95 0.1 7.65 0.1 8.35 0.1 8.8 -0.15 9.35 -0.5 9.6 -0.95 9.85 -1.55 9.85 -2.05 9.85 -2.7 9.6 -3.2 9.35 -3.65 8.8 -4
M 7.65 -3.8
Q 8.2 -3.8 8.55 -3.6 8.9 -3.4 9.15 -2.95 9.35 -2.45 9.35 -2.05 9.35 -1.7 9.15 -1.2 8.9 -0.75 8.55 -0.55 8.15 -0.3 7.65 -0.3 7.25 -0.3 6.75 -0.55 6.35 -0.8 6.2 -1.2 6 -1.55 6 -2.05 6 -2.6 6.2 -2.95 6.35 -3.35 6.75 -3.6 7.15 -3.8 7.65 -3.8 Z"/>
</g>

<g id="IT_160x600_FR_psd_Asset_9_V7_2_Rogers_est__le_seul__0_Layer0_0_MEMBER_2_FILL">
<path fill="#D82C26" stroke="none" d="
M 13.7 -4
Q 13.2 -4.25 12.7 -4.25 12.1 -4.25 11.65 -3.95 11.1 -3.65 10.9 -3.15 10.65 -2.75 10.65 -2.05 10.65 -1.35 10.9 -1 11.1 -0.5 11.65 -0.2 12.1 0.1 12.7 0.1 13.25 0.1 13.7 -0.2 14.2 -0.45 14.4 -0.95
L 14.4 -0.05
Q 14.4 0.75 14 1.25 13.5 1.75 12.7 1.75 12.25 1.75 11.8 1.6
L 11 1.2 10.9 1.65
Q 11.4 1.95 11.75 2.05 12.05 2.15 12.7 2.15 13.8 2.15 14.4 1.55 14.9 1 14.9 -0.05
L 14.95 -4.15 14.45 -4.15 14.4 -3.2
Q 14.2 -3.65 13.7 -4
M 12.8 -3.8
Q 13.25 -3.8 13.6 -3.6 13.95 -3.4 14.2 -2.95 14.4 -2.6 14.4 -2.1 14.4 -1.55 14.2 -1.2 14 -0.8 13.6 -0.6 13.3 -0.35 12.8 -0.35 12.2 -0.35 11.9 -0.6 11.6 -0.8 11.35 -1.2 11.15 -1.6 11.15 -2.05 11.15 -2.6 11.35 -2.95 11.6 -3.35 11.9 -3.6 12.25 -3.8 12.8 -3.8 Z"/>
</g>

<g id="IT_160x600_FR_psd_Asset_9_V7_2_Rogers_est__le_seul__0_Layer0_0_MEMBER_3_FILL">
<path fill="#D82C26" stroke="none" d="
M 19.05 -4
Q 18.55 -4.25 18 -4.25 17.45 -4.25 16.95 -4 16.5 -3.7 16.2 -3.2 15.95 -2.7 15.95 -2.1 15.95 -1.55 16.2 -0.95 16.5 -0.45 16.95 -0.15 17.4 0.1 18.05 0.1 19.05 0.1 19.7 -0.4
L 19.65 -0.85 18.95 -0.45
Q 18.6 -0.3 18.1 -0.3 17.65 -0.3 17.25 -0.55 16.9 -0.75 16.65 -1.15 16.45 -1.65 16.45 -2
L 19.95 -2 19.95 -2.2
Q 19.95 -2.85 19.75 -3.25 19.55 -3.65 19.05 -4
M 18 -3.85
Q 18.65 -3.85 19.05 -3.45 19.45 -3.05 19.45 -2.35
L 16.45 -2.35
Q 16.45 -2.55 16.65 -3.05 16.95 -3.45 17.2 -3.6 17.45 -3.85 18 -3.85 Z"/>
</g>

<g id="IT_160x600_FR_psd_Asset_9_V7_2_Rogers_est__le_seul__0_Layer0_0_MEMBER_4_FILL">
<path fill="#D82C26" stroke="none" d="
M 23.05 -3.75
L 23.15 -4.2 22.7 -4.25
Q 22.35 -4.25 22 -4 21.65 -3.75 21.5 -3.25
L 21.45 -4.15 20.95 -4.15 21 0 21.5 0 21.5 -2.05
Q 21.5 -2.75 21.8 -3.3 22.15 -3.8 22.65 -3.8
L 23.05 -3.75 Z"/>
</g>

<g id="IT_160x600_FR_psd_Asset_9_V7_2_Rogers_est__le_seul__0_Layer0_0_MEMBER_5_FILL">
<path fill="#D82C26" stroke="none" d="
M 24.35 -3.65
Q 24.55 -3.85 25 -3.85
L 25.6 -3.75 26.05 -3.45 26.3 -3.8
Q 26.1 -4 25.7 -4.15
L 25 -4.25 24.3 -4.15 23.8 -3.75
Q 23.6 -3.35 23.6 -3.1 23.6 -2.6 23.9 -2.4
L 24.8 -1.95
Q 25.3 -1.85 25.65 -1.55 25.9 -1.4 25.9 -1.05 25.9 -0.7 25.65 -0.5 25.4 -0.3 25 -0.3 24.15 -0.3 23.6 -0.8
L 23.55 -0.35
Q 23.75 -0.15 24.15 0
L 25 0.1 25.7 0
Q 26.05 -0.2 26.2 -0.45 26.4 -0.65 26.4 -1.1 26.4 -1.55 26.1 -1.8 25.85 -2.05 25.15 -2.3
L 24.35 -2.65
Q 24.1 -2.85 24.1 -3.15 24.1 -3.5 24.35 -3.65 Z"/>
</g>

<g id="IT_160x600_FR_psd_Asset_9_V7_2_Rogers_est__le_seul__0_Layer0_0_MEMBER_6_FILL">
<path fill="#D82C26" stroke="none" d="
M 29.15 -0.95
Q 29.35 -0.45 29.9 -0.15 30.3 0.1 30.95 0.1 31.95 0.1 32.6 -0.4
L 32.55 -0.85
Q 32.15 -0.55 31.85 -0.45 31.5 -0.3 31 -0.3 30.55 -0.3 30.15 -0.55 29.75 -0.8 29.6 -1.15 29.35 -1.55 29.35 -2
L 32.85 -2 32.85 -2.2
Q 32.85 -2.85 32.65 -3.25 32.45 -3.65 31.95 -4 31.45 -4.25 30.9 -4.25 30.35 -4.25 29.85 -4 29.4 -3.7 29.1 -3.2 28.85 -2.7 28.85 -2.1 28.85 -1.45 29.15 -0.95
M 29.55 -3.05
Q 29.85 -3.45 30.1 -3.6 30.35 -3.85 30.9 -3.85 31.55 -3.85 31.95 -3.45 32.35 -3.05 32.35 -2.35
L 29.35 -2.35 29.55 -3.05 Z"/>
</g>

<g id="IT_160x600_FR_psd_Asset_9_V7_2_Rogers_est__le_seul__0_Layer0_0_MEMBER_7_FILL">
<path fill="#D82C26" stroke="none" d="
M 34.4 -3.65
Q 34.6 -3.85 35.05 -3.85
L 35.6 -3.75 36.1 -3.45 36.35 -3.8
Q 36.15 -4 35.75 -4.15
L 35 -4.25 34.35 -4.15
Q 34.15 -4.05 33.85 -3.75 33.65 -3.5 33.65 -3.1 33.65 -2.6 33.95 -2.4
L 34.8 -1.95
Q 35.35 -1.8 35.7 -1.55 35.95 -1.4 35.95 -1.05 35.95 -0.75 35.7 -0.5 35.45 -0.3 35.05 -0.3 34.2 -0.3 33.65 -0.8
L 33.55 -0.35 34.2 0 35.05 0.1 35.75 0
Q 36 -0.15 36.25 -0.45 36.45 -0.65 36.45 -1.1 36.45 -1.55 36.15 -1.8 35.9 -2.05 35.2 -2.3
L 34.35 -2.65
Q 34.15 -2.85 34.15 -3.15 34.15 -3.5 34.4 -3.65 Z"/>
</g>

<g id="IT_160x600_FR_psd_Asset_9_V7_2_Rogers_est__le_seul__0_Layer0_0_MEMBER_8_FILL">
<path fill="#D82C26" stroke="none" d="
M 38.25 -4.15
L 38.25 -5.3 37.7 -5.1 37.7 -4.15 37.05 -4.15 36.95 -3.7 37.7 -3.7 37.7 -1
Q 37.7 -0.55 37.95 -0.2 38.25 0.1 38.7 0.1
L 39.15 0.05 39.55 -0.15 39.5 -0.5 38.85 -0.35
Q 38.55 -0.35 38.4 -0.5 38.25 -0.7 38.25 -1.05
L 38.25 -3.7 39.3 -3.7 39.4 -4.15 38.25 -4.15 Z"/>
</g>

<g id="IT_160x600_FR_psd_Asset_9_V7_2_Rogers_est__le_seul__0_Layer0_0_MEMBER_9_FILL">
<path fill="#D82C26" stroke="none" d="
M 1 10.35
L 1.5 10.7 1.75 10.25
Q 1.55 10.2 1.45 10 1.35 9.9 1.35 9.55
L 1.35 3.85 0.8 3.95 0.8 9.65
Q 0.8 9.95 1 10.35 Z"/>
</g>

<g id="IT_160x600_FR_psd_Asset_9_V7_2_Rogers_est__le_seul__0_Layer0_0_MEMBER_10_FILL">
<path fill="#D82C26" stroke="none" d="
M 4.45 6.35
Q 3.8 6.35 3.4 6.6 2.95 6.9 2.65 7.4 2.4 7.9 2.4 8.5 2.4 9.05 2.65 9.65 2.95 10.15 3.4 10.45 4 10.7 4.5 10.7 5.5 10.7 6.15 10.2
L 6.1 9.75 5.4 10.15
Q 5.05 10.3 4.55 10.3 4.1 10.3 3.7 10.05 3.35 9.85 3.1 9.45 2.9 8.95 2.9 8.6
L 6.4 8.6 6.4 8.4
Q 6.4 7.75 6.2 7.35 6 6.95 5.5 6.6 5.15 6.35 4.45 6.35
M 3.65 6.95
Q 3.9 6.75 4.45 6.75 5.15 6.75 5.5 7.15 5.9 7.55 5.9 8.2
L 2.9 8.2
Q 2.9 8.05 3.1 7.55 3.35 7.15 3.65 6.95 Z"/>
</g>

<g id="IT_160x600_FR_psd_Asset_9_V7_2_Rogers_est__le_seul__0_Layer0_0_MEMBER_11_FILL">
<path fill="#D82C26" stroke="none" d="
M 10.15 8.65
Q 10.65 8.8 11 9 11.3 9.25 11.3 9.5 11.3 9.9 11 10.1 10.8 10.3 10.35 10.3 9.5 10.3 9 9.8
L 8.9 10.25
Q 9.1 10.45 9.55 10.6
L 10.35 10.7
Q 10.75 10.7 11.05 10.55 11.35 10.45 11.6 10.15 11.8 9.85 11.8 9.5 11.8 9.1 11.45 8.75 11.15 8.5 10.5 8.3 9.85 8.05 9.7 7.9 9.45 7.75 9.45 7.45 9.45 7.15 9.7 6.9 10 6.75 10.35 6.75
L 10.95 6.85 11.45 7.15 11.65 6.75 11.1 6.45
Q 10.85 6.35 10.35 6.35 9.9 6.35 9.7 6.45 9.35 6.6 9.15 6.85 8.95 7.15 8.95 7.45 8.95 7.9 9.25 8.2
L 10.15 8.65 Z"/>
</g>

<g id="IT_160x600_FR_psd_Asset_9_V7_2_Rogers_est__le_seul__0_Layer0_0_MEMBER_12_FILL">
<path fill="#D82C26" stroke="none" d="
M 14.55 6.35
Q 13.9 6.35 13.5 6.6 13.05 6.9 12.75 7.4 12.5 7.8 12.5 8.5 12.5 9.2 12.75 9.65 13.05 10.15 13.5 10.45 14.1 10.7 14.6 10.7 15.6 10.7 16.25 10.2
L 16.15 9.75 15.5 10.15
Q 15.15 10.3 14.65 10.3 14.2 10.3 13.8 10.05 13.45 9.85 13.2 9.45 13 9.1 13 8.6
L 16.5 8.6 16.5 8.4
Q 16.5 7.85 16.25 7.35 16 6.9 15.6 6.6 15.25 6.35 14.55 6.35
M 13.7 6.95
Q 14.05 6.75 14.55 6.75 15.2 6.75 15.6 7.15 16 7.55 16 8.2
L 13 8.2
Q 13 7.9 13.2 7.55 13.35 7.25 13.7 6.95 Z"/>
</g>

<g id="IT_160x600_FR_psd_Asset_9_V7_2_Rogers_est__le_seul__0_Layer0_0_MEMBER_13_FILL">
<path fill="#D82C26" stroke="none" d="
M 21.05 10.6
L 21 6.45 20.5 6.45 20.5 8.5
Q 20.5 8.95 20.3 9.45 20.15 9.85 19.8 10.05 19.45 10.3 19.1 10.3 18.5 10.3 18.25 9.85 18 9.55 18 8.85
L 18 6.45 17.45 6.45 17.45 9
Q 17.45 9.7 17.85 10.2 18.15 10.7 18.95 10.7 19.4 10.7 19.9 10.45 20.3 10.15 20.5 9.7
L 20.55 10.6 21.05 10.6 Z"/>
</g>

<g id="IT_160x600_FR_psd_Asset_9_V7_2_Rogers_est__le_seul__0_Layer0_0_MEMBER_14_FILL">
<path fill="#D82C26" stroke="none" d="
M 22.5 10.35
L 23 10.7 23.25 10.25
Q 23.05 10.2 22.95 10 22.85 9.9 22.85 9.55
L 22.85 3.85 22.35 3.95 22.35 9.65
Q 22.35 10.05 22.5 10.35 Z"/>
</g>
</defs>

<g transform="matrix( 1, 0, 0, 1, -289,40) ">
<g transform="matrix( 1, 0, 0, 1, 284,2) ">
<g transform="matrix( 1, 0, 0, 1, 28,9) ">
<g transform="matrix( 2.815704345703125, 0, 0, 2.832611083984375, -1.85,17.6) ">
<use xlink:href="#IT_160x600_FR_psd_Asset_9_V7_2_Rogers_est__le_seul__0_Layer0_0_MEMBER_0_FILL"/>
</g>

<g transform="matrix( 2.815704345703125, 0, 0, 2.832611083984375, -1.85,17.6) ">
<use xlink:href="#IT_160x600_FR_psd_Asset_9_V7_2_Rogers_est__le_seul__0_Layer0_0_MEMBER_1_FILL"/>
</g>

<g transform="matrix( 2.815704345703125, 0, 0, 2.832611083984375, -1.85,17.6) ">
<use xlink:href="#IT_160x600_FR_psd_Asset_9_V7_2_Rogers_est__le_seul__0_Layer0_0_MEMBER_2_FILL"/>
</g>

<g transform="matrix( 2.815704345703125, 0, 0, 2.832611083984375, -1.85,17.6) ">
<use xlink:href="#IT_160x600_FR_psd_Asset_9_V7_2_Rogers_est__le_seul__0_Layer0_0_MEMBER_3_FILL"/>
</g>

<g transform="matrix( 2.815704345703125, 0, 0, 2.832611083984375, -1.85,17.6) ">
<use xlink:href="#IT_160x600_FR_psd_Asset_9_V7_2_Rogers_est__le_seul__0_Layer0_0_MEMBER_4_FILL"/>
</g>

<g transform="matrix( 2.815704345703125, 0, 0, 2.832611083984375, -1.85,17.6) ">
<use xlink:href="#IT_160x600_FR_psd_Asset_9_V7_2_Rogers_est__le_seul__0_Layer0_0_MEMBER_5_FILL"/>
</g>

<g transform="matrix( 2.815704345703125, 0, 0, 2.832611083984375, -1.85,17.6) ">
<use xlink:href="#IT_160x600_FR_psd_Asset_9_V7_2_Rogers_est__le_seul__0_Layer0_0_MEMBER_6_FILL"/>
</g>

<g transform="matrix( 2.815704345703125, 0, 0, 2.832611083984375, -1.85,17.6) ">
<use xlink:href="#IT_160x600_FR_psd_Asset_9_V7_2_Rogers_est__le_seul__0_Layer0_0_MEMBER_7_FILL"/>
</g>

<g transform="matrix( 2.815704345703125, 0, 0, 2.832611083984375, -1.85,17.6) ">
<use xlink:href="#IT_160x600_FR_psd_Asset_9_V7_2_Rogers_est__le_seul__0_Layer0_0_MEMBER_8_FILL"/>
</g>

<g transform="matrix( 2.815704345703125, 0, 0, 2.832611083984375, -1.85,17.6) ">
<use xlink:href="#IT_160x600_FR_psd_Asset_9_V7_2_Rogers_est__le_seul__0_Layer0_0_MEMBER_9_FILL"/>
</g>

<g transform="matrix( 2.815704345703125, 0, 0, 2.832611083984375, -1.85,17.6) ">
<use xlink:href="#IT_160x600_FR_psd_Asset_9_V7_2_Rogers_est__le_seul__0_Layer0_0_MEMBER_10_FILL"/>
</g>

<g transform="matrix( 2.815704345703125, 0, 0, 2.832611083984375, -1.85,17.6) ">
<use xlink:href="#IT_160x600_FR_psd_Asset_9_V7_2_Rogers_est__le_seul__0_Layer0_0_MEMBER_11_FILL"/>
</g>

<g transform="matrix( 2.815704345703125, 0, 0, 2.832611083984375, -1.85,17.6) ">
<use xlink:href="#IT_160x600_FR_psd_Asset_9_V7_2_Rogers_est__le_seul__0_Layer0_0_MEMBER_12_FILL"/>
</g>

<g transform="matrix( 2.815704345703125, 0, 0, 2.832611083984375, -1.85,17.6) ">
<use xlink:href="#IT_160x600_FR_psd_Asset_9_V7_2_Rogers_est__le_seul__0_Layer0_0_MEMBER_13_FILL"/>
</g>

<g transform="matrix( 2.815704345703125, 0, 0, 2.832611083984375, -1.85,17.6) ">
<use xlink:href="#IT_160x600_FR_psd_Asset_9_V7_2_Rogers_est__le_seul__0_Layer0_0_MEMBER_14_FILL"/>
</g>
</g>
</g>
</g>
</svg>
