
<svg xmlns="http://www.w3.org/2000/svg" version="1.1" xmlns:xlink="http://www.w3.org/1999/xlink" preserveAspectRatio="none" x="0px" y="0px" width="300px" height="600px" viewBox="0 0 300 600">
<defs>
<g id="BDM_300x600_psd_Asset_ManagedWiFi_Awareness_DM7_2_Get_data_analytics__on_everything__from_foot_traffic__0_Layer0_0_MEMBER_0_FILL">
<path fill="#D82C26" stroke="none" d="
M 7.25 -6.9
Q 6.8 -7.25 6.05 -7.5 5.45 -7.7 4.6 -7.7 3.4 -7.7 2.55 -7.2 1.65 -6.7 1.15 -5.8 0.65 -4.8 0.65 -3.75 0.65 -2.6 1.15 -1.75 1.7 -0.8 2.55 -0.3 3.4 0.2 4.65 0.2 5.55 0.2 6.15 0 6.9 -0.15 7.4 -0.45
L 7.4 -3.9 5.1 -3.9 4.95 -3.35 6.75 -3.35 6.75 -0.85
Q 5.9 -0.35 4.65 -0.35 3.6 -0.35 2.9 -0.85 2.1 -1.3 1.75 -2.05 1.35 -2.7 1.35 -3.75 1.35 -4.8 1.75 -5.45 2.15 -6.25 2.9 -6.7 3.65 -7.15 4.6 -7.15 5.2 -7.15 5.95 -6.9 6.75 -6.6 7.05 -6.35
L 7.25 -6.9 Z"/>
</g>

<g id="BDM_300x600_psd_Asset_ManagedWiFi_Awareness_DM7_2_Get_data_analytics__on_everything__from_foot_traffic__0_Layer0_0_MEMBER_1_FILL">
<path fill="#D82C26" stroke="none" d="
M 8.9 -1.15
Q 9.35 -0.45 9.85 -0.2 10.35 0.15 11.15 0.15 12.3 0.15 13.1 -0.5
L 13 -1
Q 12.75 -0.7 12.2 -0.55 11.8 -0.35 11.2 -0.35 10.6 -0.35 10.15 -0.65 9.8 -0.8 9.45 -1.35 9.2 -1.95 9.2 -2.4
L 13.4 -2.4 13.4 -2.65
Q 13.4 -3.25 13.15 -3.9 12.8 -4.45 12.3 -4.8 11.8 -5.1 11.05 -5.1 10.35 -5.1 9.8 -4.8 9.3 -4.5 8.9 -3.85 8.6 -3.25 8.6 -2.5 8.6 -1.75 8.9 -1.15
M 9.45 -3.65
Q 9.65 -4 10.05 -4.35 10.5 -4.65 11.05 -4.65 11.8 -4.65 12.3 -4.15 12.8 -3.65 12.8 -2.85
L 9.2 -2.85
Q 9.2 -3.25 9.45 -3.65 Z"/>
</g>

<g id="BDM_300x600_psd_Asset_ManagedWiFi_Awareness_DM7_2_Get_data_analytics__on_everything__from_foot_traffic__0_Layer0_0_MEMBER_2_FILL">
<path fill="#D82C26" stroke="none" d="
M 14.65 -1.2
Q 14.65 -0.55 14.95 -0.25 15.3 0.1 15.8 0.1
L 16.4 0.05 16.85 -0.15 16.8 -0.6
Q 16.2 -0.4 16 -0.4 15.65 -0.4 15.45 -0.6 15.25 -0.9 15.25 -1.3
L 15.25 -4.45 16.55 -4.45 16.7 -4.95 15.25 -4.95 15.25 -6.4 14.65 -6.15 14.65 -4.95 13.85 -4.95 13.75 -4.45 14.65 -4.45 14.65 -1.2 Z"/>
</g>

<g id="BDM_300x600_psd_Asset_ManagedWiFi_Awareness_DM7_2_Get_data_analytics__on_everything__from_foot_traffic__0_Layer0_0_MEMBER_3_FILL">
<path fill="#D82C26" stroke="none" d="
M 19.4 -2.5
Q 19.4 -1.75 19.7 -1.15 20 -0.6 20.6 -0.2 21.2 0.15 21.9 0.15 22.55 0.15 23.05 -0.2 23.55 -0.45 23.95 -1.1
L 24 0 24.6 0 24.55 -8.15 23.95 -8 23.95 -3.9 23.9 -3.9
Q 23.6 -4.55 23.05 -4.8 22.55 -5.1 21.9 -5.1 21.1 -5.1 20.6 -4.75 20.05 -4.45 19.7 -3.8 19.4 -3.2 19.4 -2.5
M 23 -4.3
Q 23.35 -4.05 23.7 -3.55 23.95 -2.95 23.95 -2.5 23.95 -1.95 23.7 -1.45 23.4 -0.9 23 -0.65 22.5 -0.4 22 -0.4 21.35 -0.4 20.95 -0.65 20.6 -0.9 20.25 -1.4 20.05 -1.85 20.05 -2.5 20.05 -3.1 20.25 -3.55 20.6 -4.05 20.95 -4.3 21.4 -4.6 22 -4.6 22.55 -4.6 23 -4.3 Z"/>
</g>

<g id="BDM_300x600_psd_Asset_ManagedWiFi_Awareness_DM7_2_Get_data_analytics__on_everything__from_foot_traffic__0_Layer0_0_MEMBER_4_FILL">
<path fill="#D82C26" stroke="none" d="
M 28.75 -4.25
Q 29.1 -3.95 29.1 -3.25
L 29.1 -3 28.5 -3
Q 25.65 -3 25.65 -1.35 25.65 -0.65 26.15 -0.25 26.65 0.15 27.25 0.15 27.9 0.15 28.35 -0.15 28.9 -0.45 29.1 -0.95
L 29.15 -0.95 29.2 0 29.8 0 29.7 -3.2
Q 29.7 -4.15 29.2 -4.65 28.7 -5.1 27.8 -5.1
L 26.8 -4.95
Q 26.35 -4.8 25.95 -4.5
L 26.15 -4 26.85 -4.45
Q 27.3 -4.6 27.7 -4.6 28.4 -4.6 28.75 -4.25
M 26.6 -0.6
Q 26.25 -0.8 26.25 -1.35 26.25 -2.55 28.6 -2.55
L 29.1 -2.55 29.1 -2.05
Q 29.1 -1.6 28.9 -1.25 28.75 -0.85 28.35 -0.6 28 -0.35 27.4 -0.35 26.85 -0.35 26.6 -0.6 Z"/>
</g>

<g id="BDM_300x600_psd_Asset_ManagedWiFi_Awareness_DM7_2_Get_data_analytics__on_everything__from_foot_traffic__0_Layer0_0_MEMBER_5_FILL">
<path fill="#D82C26" stroke="none" d="
M 33.15 -4.45
L 33.3 -4.95 31.85 -4.95 31.85 -6.4 31.25 -6.15 31.25 -4.95 30.45 -4.95 30.3 -4.45 31.25 -4.45 31.25 -1.2
Q 31.25 -0.55 31.55 -0.25 31.9 0.1 32.4 0.1
L 32.95 0.05 33.45 -0.15 33.4 -0.6
Q 32.8 -0.4 32.6 -0.4 32.25 -0.4 32.05 -0.6 31.85 -0.9 31.85 -1.3
L 31.85 -4.45 33.15 -4.45 Z"/>
</g>

<g id="BDM_300x600_psd_Asset_ManagedWiFi_Awareness_DM7_2_Get_data_analytics__on_everything__from_foot_traffic__0_Layer0_0_MEMBER_6_FILL">
<path fill="#D82C26" stroke="none" d="
M 34 -1.35
Q 34 -0.6 34.45 -0.25 35 0.15 35.6 0.15 36.2 0.15 36.7 -0.15 37.25 -0.45 37.45 -0.95
L 37.55 0 38.1 0 38 -3.2
Q 38 -4.15 37.5 -4.65 37.05 -5.1 36.1 -5.1 35.65 -5.1 35.1 -4.95 34.6 -4.75 34.3 -4.5
L 34.45 -4 35.2 -4.45
Q 35.65 -4.6 36.05 -4.6 36.7 -4.6 37.05 -4.25 37.45 -3.95 37.45 -3.25
L 37.45 -3 36.85 -3
Q 34 -3 34 -1.35
M 34.9 -0.6
Q 34.6 -0.8 34.6 -1.35 34.6 -2.55 36.9 -2.55
L 37.45 -2.55 37.45 -2.05
Q 37.45 -1.6 37.25 -1.25 37 -0.8 36.65 -0.6 36.35 -0.35 35.7 -0.35 35.2 -0.35 34.9 -0.6 Z"/>
</g>

<g id="BDM_300x600_psd_Asset_ManagedWiFi_Awareness_DM7_2_Get_data_analytics__on_everything__from_foot_traffic__0_Layer0_0_MEMBER_7_FILL">
<path fill="#D82C26" stroke="none" d="
M 44.4 -4.25
Q 44.8 -3.95 44.8 -3.25
L 44.8 -3 44.2 -3
Q 41.35 -3 41.35 -1.35 41.35 -0.6 41.8 -0.25 42.35 0.15 42.95 0.15 43.55 0.15 44.05 -0.15 44.6 -0.45 44.8 -0.95
L 44.9 0 45.45 0 45.35 -3.2
Q 45.35 -4.15 44.85 -4.65 44.4 -5.1 43.45 -5.1 43 -5.1 42.45 -4.95 41.95 -4.75 41.65 -4.5
L 41.8 -4 42.55 -4.45
Q 43 -4.6 43.4 -4.6 44.05 -4.6 44.4 -4.25
M 42.25 -0.6
Q 41.95 -0.8 41.95 -1.35 41.95 -2.55 44.25 -2.55
L 44.8 -2.55 44.8 -2.05
Q 44.8 -1.6 44.6 -1.25 44.35 -0.8 44 -0.6 43.7 -0.35 43.05 -0.35 42.55 -0.35 42.25 -0.6 Z"/>
</g>

<g id="BDM_300x600_psd_Asset_ManagedWiFi_Awareness_DM7_2_Get_data_analytics__on_everything__from_foot_traffic__0_Layer0_0_MEMBER_8_FILL">
<path fill="#D82C26" stroke="none" d="
M 49.2 -5.1
Q 48.55 -5.1 48.15 -4.75 47.6 -4.45 47.45 -3.9
L 47.4 -3.9 47.35 -4.95 46.75 -4.95 46.8 0 47.45 0 47.45 -2.55
Q 47.45 -3.2 47.65 -3.65 47.9 -4.15 48.25 -4.35 48.65 -4.6 49.1 -4.6 49.75 -4.6 50.15 -4.1 50.45 -3.55 50.45 -2.85
L 50.45 0 51.05 0 51.05 -3.05
Q 51.05 -3.9 50.6 -4.5 50.15 -5.1 49.2 -5.1 Z"/>
</g>

<g id="BDM_300x600_psd_Asset_ManagedWiFi_Awareness_DM7_2_Get_data_analytics__on_everything__from_foot_traffic__0_Layer0_0_MEMBER_9_FILL">
<path fill="#D82C26" stroke="none" d="
M 55.2 -4.25
Q 55.6 -3.95 55.6 -3.25
L 55.6 -3 55 -3
Q 52.15 -3 52.15 -1.35 52.15 -0.6 52.6 -0.25 53.1 0.15 53.7 0.15 54.35 0.15 54.85 -0.15 55.35 -0.5 55.55 -0.95
L 55.6 -0.95 55.65 0 56.25 0 56.15 -3.2
Q 56.15 -4.15 55.65 -4.65 55.15 -5.1 54.25 -5.1 53.7 -5.1 53.25 -4.95 52.8 -4.8 52.4 -4.5
L 52.6 -4 53.35 -4.45
Q 53.75 -4.6 54.15 -4.6 54.85 -4.6 55.2 -4.25
M 53.05 -0.6
Q 52.75 -0.8 52.75 -1.35 52.75 -2.55 55.05 -2.55
L 55.6 -2.55 55.6 -2.05
Q 55.6 -1.75 55.4 -1.25 55.15 -0.8 54.8 -0.6 54.5 -0.35 53.85 -0.35 53.3 -0.35 53.05 -0.6 Z"/>
</g>

<g id="BDM_300x600_psd_Asset_ManagedWiFi_Awareness_DM7_2_Get_data_analytics__on_everything__from_foot_traffic__0_Layer0_0_MEMBER_10_FILL">
<path fill="#D82C26" stroke="none" d="
M 57.6 -1.1
Q 57.6 -0.55 57.8 -0.3 58.05 0.05 58.4 0.1
L 58.65 -0.4 58.3 -0.7 58.2 -1.25 58.2 -8.05 57.6 -7.95 57.6 -1.1 Z"/>
</g>

<g id="BDM_300x600_psd_Asset_ManagedWiFi_Awareness_DM7_2_Get_data_analytics__on_everything__from_foot_traffic__0_Layer0_0_MEMBER_11_FILL">
<path fill="#D82C26" stroke="none" d="
M 59.75 -4.95
L 59.05 -4.95 61.15 0.05 60.75 1.1
Q 60.5 1.65 60.25 1.75 59.85 2 59.35 2
L 59.5 2.55
Q 60.15 2.55 60.65 2.2 61.1 1.85 61.3 1.25
L 63.6 -4.95 62.95 -4.95 61.45 -0.65 59.75 -4.95 Z"/>
</g>

<g id="BDM_300x600_psd_Asset_ManagedWiFi_Awareness_DM7_2_Get_data_analytics__on_everything__from_foot_traffic__0_Layer0_0_MEMBER_12_FILL">
<path fill="#D82C26" stroke="none" d="
M 64.9 -1.2
Q 64.9 -0.55 65.2 -0.25 65.55 0.1 66.05 0.1
L 66.6 0.05 67.1 -0.15 67.05 -0.6
Q 66.45 -0.4 66.25 -0.4 65.9 -0.4 65.7 -0.6 65.5 -0.9 65.5 -1.3
L 65.5 -4.45 66.8 -4.45 66.95 -4.95 65.5 -4.95 65.5 -6.4 64.9 -6.15 64.9 -4.95 64.1 -4.95 63.95 -4.45 64.9 -4.45 64.9 -1.2 Z"/>
</g>

<g id="BDM_300x600_psd_Asset_ManagedWiFi_Awareness_DM7_2_Get_data_analytics__on_everything__from_foot_traffic__0_Layer0_0_MEMBER_13_FILL">
<path fill="#D82C26" stroke="none" d="
M 68.55 -4.95
L 67.9 -4.95 67.9 0 68.55 0 68.55 -4.95
M 68.25 -6.5
L 68.55 -6.6
Q 68.65 -6.7 68.65 -6.95 68.65 -7.2 68.55 -7.25
L 68.25 -7.4
Q 68.05 -7.4 67.9 -7.25
L 67.8 -6.95 67.9 -6.6 68.25 -6.5 Z"/>
</g>

<g id="BDM_300x600_psd_Asset_ManagedWiFi_Awareness_DM7_2_Get_data_analytics__on_everything__from_foot_traffic__0_Layer0_0_MEMBER_14_FILL">
<path fill="#D82C26" stroke="none" d="
M 69.65 -2.5
Q 69.65 -1.8 70 -1.1 70.4 -0.5 70.95 -0.2 71.45 0.15 72.25 0.15 72.75 0.15 73.2 0
L 73.95 -0.45 73.85 -0.95 73.15 -0.55
Q 72.8 -0.4 72.3 -0.4 71.75 -0.4 71.25 -0.65 70.85 -0.9 70.55 -1.45 70.3 -1.95 70.3 -2.5 70.3 -2.95 70.55 -3.55 70.9 -4.05 71.25 -4.3 71.7 -4.6 72.3 -4.6
L 73.05 -4.45
Q 73.45 -4.3 73.7 -4.05
L 73.95 -4.5
Q 73.75 -4.8 73.2 -4.95 72.75 -5.1 72.3 -5.1 71.55 -5.1 70.95 -4.8 70.35 -4.45 70 -3.85 69.65 -3.15 69.65 -2.5 Z"/>
</g>

<g id="BDM_300x600_psd_Asset_ManagedWiFi_Awareness_DM7_2_Get_data_analytics__on_everything__from_foot_traffic__0_Layer0_0_MEMBER_15_FILL">
<path fill="#D82C26" stroke="none" d="
M 74.75 -0.95
L 74.65 -0.4
Q 75 -0.15 75.4 0 75.85 0.15 76.4 0.15 76.9 0.15 77.25 -0.05 77.65 -0.2 77.85 -0.5 78.1 -0.8 78.1 -1.3 78.1 -1.85 77.75 -2.2 77.35 -2.55 76.6 -2.75 75.95 -2.95 75.6 -3.2 75.3 -3.4 75.3 -3.8 75.3 -4.2 75.65 -4.4 75.9 -4.6 76.4 -4.6
L 77.1 -4.5 77.7 -4.15 77.95 -4.6 77.25 -4.95
Q 76.9 -5.1 76.4 -5.1 76 -5.1 75.6 -4.95 75.25 -4.8 75 -4.5 74.75 -4.25 74.75 -3.75 74.75 -3.2 75.1 -2.9 75.45 -2.55 76.15 -2.35 76.75 -2.15 77.2 -1.9 77.5 -1.65 77.5 -1.3 77.5 -0.8 77.2 -0.6 76.8 -0.35 76.4 -0.35 75.45 -0.35 74.75 -0.95 Z"/>
</g>

<g id="BDM_300x600_psd_Asset_ManagedWiFi_Awareness_DM7_2_Get_data_analytics__on_everything__from_foot_traffic__0_Layer0_0_MEMBER_16_FILL">
<path fill="#D82C26" stroke="none" d="
M 4.6 7.95
Q 4.05 7.6 3.25 7.6 2.45 7.6 1.9 7.95 1.25 8.3 0.95 8.85 0.6 9.4 0.6 10.2 0.6 10.95 0.95 11.6 1.25 12.15 1.9 12.5 2.45 12.85 3.25 12.85 4.05 12.85 4.6 12.5 5.15 12.2 5.55 11.6 5.9 10.8 5.9 10.2 5.9 9.55 5.55 8.85 5.15 8.25 4.6 7.95
M 4.3 8.4
Q 4.8 8.75 5 9.15 5.25 9.75 5.25 10.2 5.25 10.75 5 11.25 4.8 11.7 4.3 12.05 3.85 12.35 3.25 12.35 2.6 12.35 2.15 12.05 1.65 11.7 1.45 11.25 1.2 10.75 1.2 10.2 1.2 9.75 1.45 9.15 1.65 8.75 2.15 8.4 2.6 8.1 3.25 8.1 3.85 8.1 4.3 8.4 Z"/>
</g>

<g id="BDM_300x600_psd_Asset_ManagedWiFi_Awareness_DM7_2_Get_data_analytics__on_everything__from_foot_traffic__0_Layer0_0_MEMBER_17_FILL">
<path fill="#D82C26" stroke="none" d="
M 11.3 9.7
Q 11.3 8.8 10.85 8.2 10.4 7.6 9.45 7.6 8.85 7.6 8.35 7.95 7.9 8.25 7.65 8.8
L 7.6 7.75 7 7.75 7.05 12.7 7.65 12.7 7.65 10.2
Q 7.65 9.6 7.9 9.1 8.05 8.65 8.5 8.35 8.9 8.1 9.3 8.1 10 8.1 10.35 8.6 10.65 9.15 10.65 9.85
L 10.65 12.7 11.3 12.7 11.3 9.7 Z"/>
</g>

<g id="BDM_300x600_psd_Asset_ManagedWiFi_Awareness_DM7_2_Get_data_analytics__on_everything__from_foot_traffic__0_Layer0_0_MEMBER_18_FILL">
<path fill="#D82C26" stroke="none" d="
M 14.6 10.2
Q 14.6 10.95 14.95 11.6 15.25 12.2 15.85 12.5 16.35 12.85 17.15 12.85 18.3 12.85 19.1 12.25
L 19 11.7
Q 18.7 12 18.2 12.15 17.8 12.35 17.2 12.35 16.6 12.35 16.15 12.05 15.8 11.9 15.45 11.35 15.2 10.85 15.2 10.3
L 19.4 10.3 19.4 10.05
Q 19.4 9.3 19.15 8.8 18.85 8.25 18.35 7.9 17.75 7.6 17.05 7.6 16.35 7.6 15.8 7.95 15.3 8.25 14.9 8.85 14.6 9.45 14.6 10.2
M 16.1 8.35
Q 16.4 8.1 17.05 8.1 17.85 8.1 18.35 8.55 18.8 9.1 18.8 9.85
L 15.2 9.85
Q 15.3 9.35 15.45 9.05 15.7 8.6 16.1 8.35 Z"/>
</g>

<g id="BDM_300x600_psd_Asset_ManagedWiFi_Awareness_DM7_2_Get_data_analytics__on_everything__from_foot_traffic__0_Layer0_0_MEMBER_19_FILL">
<path fill="#D82C26" stroke="none" d="
M 19.7 7.75
L 21.6 12.7 22.3 12.7 24.15 7.75 23.55 7.75 21.95 12.1 20.35 7.75 19.7 7.75 Z"/>
</g>

<g id="BDM_300x600_psd_Asset_ManagedWiFi_Awareness_DM7_2_Get_data_analytics__on_everything__from_foot_traffic__0_Layer0_0_MEMBER_20_FILL">
<path fill="#D82C26" stroke="none" d="
M 24.45 10.2
Q 24.45 10.95 24.8 11.6 25.1 12.2 25.7 12.5 26.2 12.85 27 12.85 28.15 12.85 28.95 12.25
L 28.85 11.7
Q 28.55 12 28.05 12.15 27.65 12.35 27.05 12.35 26.45 12.35 26 12.05 25.65 11.9 25.3 11.35 25.05 10.85 25.05 10.3
L 29.25 10.3 29.25 10.05
Q 29.25 9.3 29 8.8 28.7 8.25 28.2 7.9 27.7 7.6 26.9 7.6 26.2 7.6 25.65 7.95 25.15 8.25 24.75 8.85 24.45 9.45 24.45 10.2
M 25.05 9.85
Q 25.15 9.35 25.3 9.05 25.55 8.6 25.95 8.35 26.25 8.1 26.9 8.1 27.7 8.1 28.2 8.55 28.65 9.1 28.65 9.85
L 25.05 9.85 Z"/>
</g>

<g id="BDM_300x600_psd_Asset_ManagedWiFi_Awareness_DM7_2_Get_data_analytics__on_everything__from_foot_traffic__0_Layer0_0_MEMBER_21_FILL">
<path fill="#D82C26" stroke="none" d="
M 31 8.8
L 30.95 7.75 30.35 7.75 30.4 12.7 31 12.7 31 10.25
Q 31 9.4 31.4 8.75 31.8 8.15 32.4 8.15
L 32.85 8.25 33 7.7 32.45 7.6
Q 32 7.6 31.6 7.95 31.25 8.25 31 8.8 Z"/>
</g>

<g id="BDM_300x600_psd_Asset_ManagedWiFi_Awareness_DM7_2_Get_data_analytics__on_everything__from_foot_traffic__0_Layer0_0_MEMBER_22_FILL">
<path fill="#D82C26" stroke="none" d="
M 34 7.75
L 33.35 7.75 35.4 12.75 35.05 13.8
Q 34.8 14.35 34.5 14.5 34.1 14.7 33.65 14.7
L 33.8 15.25
Q 34.55 15.25 34.9 14.95 35.35 14.65 35.6 13.95
L 37.9 7.75 37.25 7.75 35.75 12.05 34 7.75 Z"/>
</g>

<g id="BDM_300x600_psd_Asset_ManagedWiFi_Awareness_DM7_2_Get_data_analytics__on_everything__from_foot_traffic__0_Layer0_0_MEMBER_23_FILL">
<path fill="#D82C26" stroke="none" d="
M 41.1 8.25
L 41.2 7.75 39.8 7.75 39.8 6.3 39.2 6.55 39.2 7.75 38.4 7.75 38.25 8.25 39.2 8.25 39.2 11.5
Q 39.2 12.15 39.5 12.5 39.8 12.8 40.35 12.8
L 40.9 12.75 41.4 12.55 41.3 12.1
Q 40.95 12.3 40.55 12.3 40.2 12.3 40 12.1 39.8 11.9 39.8 11.45
L 39.8 8.25 41.1 8.25 Z"/>
</g>

<g id="BDM_300x600_psd_Asset_ManagedWiFi_Awareness_DM7_2_Get_data_analytics__on_everything__from_foot_traffic__0_Layer0_0_MEMBER_24_FILL">
<path fill="#D82C26" stroke="none" d="
M 42.85 4.65
L 42.2 4.7 42.2 12.7 42.85 12.7 42.85 10.3
Q 42.85 9.55 43.05 9.1 43.3 8.6 43.65 8.4 44.05 8.1 44.45 8.1 45.15 8.1 45.5 8.6 45.85 9.1 45.85 9.85
L 45.85 12.7 46.45 12.7 46.45 9.7
Q 46.45 8.8 46 8.2 45.55 7.6 44.65 7.6 43.95 7.6 43.55 7.95 43.1 8.2 42.85 8.8
L 42.85 4.65 Z"/>
</g>

<g id="BDM_300x600_psd_Asset_ManagedWiFi_Awareness_DM7_2_Get_data_analytics__on_everything__from_foot_traffic__0_Layer0_0_MEMBER_25_FILL">
<path fill="#D82C26" stroke="none" d="
M 48.5 7.75
L 47.9 7.75 47.9 12.7 48.5 12.7 48.5 7.75
M 48.5 6.1
Q 48.65 5.95 48.65 5.75
L 48.5 5.45 48.2 5.3
Q 48 5.3 47.9 5.45
L 47.75 5.75
Q 47.75 5.95 47.9 6.1 48 6.2 48.2 6.2
L 48.5 6.1 Z"/>
</g>

<g id="BDM_300x600_psd_Asset_ManagedWiFi_Awareness_DM7_2_Get_data_analytics__on_everything__from_foot_traffic__0_Layer0_0_MEMBER_26_FILL">
<path fill="#D82C26" stroke="none" d="
M 52.4 7.6
Q 51.8 7.6 51.3 7.95 50.85 8.25 50.6 8.8
L 50.55 7.75 49.95 7.75 50 12.7 50.65 12.7 50.65 10.2
Q 50.65 9.5 50.85 9.1 51.05 8.7 51.45 8.35 51.85 8.1 52.3 8.1 52.95 8.1 53.3 8.6 53.6 9.15 53.6 9.85
L 53.6 12.7 54.25 12.7 54.25 9.7
Q 54.25 8.8 53.8 8.2 53.35 7.6 52.4 7.6 Z"/>
</g>

<g id="BDM_300x600_psd_Asset_ManagedWiFi_Awareness_DM7_2_Get_data_analytics__on_everything__from_foot_traffic__0_Layer0_0_MEMBER_27_FILL">
<path fill="#D82C26" stroke="none" d="
M 55.35 10.2
Q 55.35 10.95 55.65 11.55 55.95 12.15 56.55 12.45 57.05 12.8 57.85 12.8 58.45 12.8 59.05 12.5 59.55 12.15 59.85 11.6
L 59.85 12.65
Q 59.85 13.7 59.4 14.2 58.9 14.8 57.8 14.8 57.45 14.8 56.75 14.6 56.25 14.45 55.8 14.15
L 55.65 14.7
Q 56.1 15 56.65 15.15 57.25 15.3 57.85 15.3 59.15 15.3 59.85 14.6 60.5 13.8 60.5 12.65
L 60.5 7.75 59.95 7.75 59.9 8.85 59.85 8.85
Q 59.55 8.2 59 7.95 58.5 7.6 57.85 7.6 57.1 7.6 56.55 7.95 55.95 8.35 55.65 8.9 55.35 9.5 55.35 10.2
M 58.95 8.4
Q 59.3 8.65 59.65 9.15 59.9 9.75 59.9 10.2 59.9 10.75 59.65 11.25 59.35 11.8 58.95 12 58.5 12.3 57.95 12.3 57.35 12.3 56.9 12 56.4 11.7 56.2 11.25 56 10.85 56 10.2 56 9.6 56.2 9.15 56.4 8.75 56.9 8.4 57.35 8.1 57.95 8.1 58.5 8.1 58.95 8.4 Z"/>
</g>

<g id="BDM_300x600_psd_Asset_ManagedWiFi_Awareness_DM7_2_Get_data_analytics__on_everything__from_foot_traffic__0_Layer0_0_MEMBER_28_FILL">
<path fill="#D82C26" stroke="none" d="
M 2.75 17.25
Q 2.05 17.25 1.65 17.7 1.2 18.15 1.2 19
L 1.2 20.45 0.3 20.45 0.2 20.95 1.25 20.95 1.25 25.4 1.85 25.4 1.85 20.95 3 20.95 3.15 20.45 1.85 20.45 1.85 19.05
Q 1.85 18.5 2.05 18.15 2.25 17.8 2.8 17.8
L 3.6 17.9 3.65 17.4 3.25 17.3 2.75 17.25 Z"/>
</g>

<g id="BDM_300x600_psd_Asset_ManagedWiFi_Awareness_DM7_2_Get_data_analytics__on_everything__from_foot_traffic__0_Layer0_0_MEMBER_29_FILL">
<path fill="#D82C26" stroke="none" d="
M 4.5 20.45
L 3.9 20.45 3.95 25.4 4.55 25.4 4.55 22.95
Q 4.55 22.15 4.95 21.45 5.35 20.85 5.95 20.85
L 6.4 20.95 6.55 20.4 6 20.3
Q 5.5 20.3 5.15 20.65 4.8 20.95 4.55 21.55
L 4.5 20.45 Z"/>
</g>

<g id="BDM_300x600_psd_Asset_ManagedWiFi_Awareness_DM7_2_Get_data_analytics__on_everything__from_foot_traffic__0_Layer0_0_MEMBER_30_FILL">
<path fill="#D82C26" stroke="none" d="
M 7 21.55
Q 6.7 22.15 6.7 22.95 6.7 23.7 7 24.3 7.35 24.9 7.95 25.25 8.55 25.55 9.3 25.55 10.05 25.55 10.65 25.25 11.35 24.8 11.6 24.3 11.95 23.75 11.95 22.95 11.95 22.1 11.6 21.55 11.3 21 10.65 20.65 10.1 20.3 9.3 20.3 8.5 20.3 7.95 20.65 7.4 20.95 7 21.55
M 8.25 21.1
Q 8.75 20.85 9.3 20.85 9.8 20.85 10.4 21.1 10.75 21.35 11.1 21.85 11.35 22.45 11.35 22.95 11.35 23.4 11.1 24 10.9 24.45 10.4 24.75 9.95 25.05 9.3 25.05 8.7 25.05 8.25 24.75 7.75 24.45 7.55 24 7.3 23.4 7.3 22.95 7.3 22.45 7.55 21.85 7.75 21.45 8.25 21.1 Z"/>
</g>

<g id="BDM_300x600_psd_Asset_ManagedWiFi_Awareness_DM7_2_Get_data_analytics__on_everything__from_foot_traffic__0_Layer0_0_MEMBER_31_FILL">
<path fill="#D82C26" stroke="none" d="
M 20.65 22.45
Q 20.65 21.55 20.25 20.9 19.8 20.3 18.85 20.3 18.2 20.3 17.8 20.65 17.4 20.85 17.05 21.6 16.9 20.95 16.5 20.65 16.1 20.3 15.45 20.3 14.8 20.3 14.4 20.65 14 20.95 13.75 21.55
L 13.7 21.55 13.65 20.45 13.1 20.45 13.1 25.4 13.75 25.4 13.75 22.95
Q 13.75 22.25 13.95 21.8 14.2 21.35 14.5 21.1 14.8 20.85 15.3 20.85 15.85 20.85 16.25 21.25 16.55 21.7 16.55 22.5
L 16.55 25.4 17.2 25.4 17.2 22.85
Q 17.2 21.85 17.6 21.4 18 20.85 18.75 20.85 19.45 20.85 19.75 21.35 20.05 21.8 20.05 22.6
L 20.05 25.4 20.65 25.4 20.65 22.45 Z"/>
</g>

<g id="BDM_300x600_psd_Asset_ManagedWiFi_Awareness_DM7_2_Get_data_analytics__on_everything__from_foot_traffic__0_Layer0_0_MEMBER_32_FILL">
<path fill="#D82C26" stroke="none" d="
M 26.65 17.3
L 26.15 17.25
Q 25.45 17.25 25 17.7 24.6 18.2 24.6 19
L 24.6 20.45 23.7 20.45 23.55 20.95 24.6 20.95 24.6 25.4 25.25 25.4 25.25 20.95 26.4 20.95 26.5 20.45 25.25 20.45 25.25 19.05
Q 25.25 18.5 25.45 18.15 25.65 17.8 26.2 17.8
L 26.95 17.9 27.05 17.4 26.65 17.3 Z"/>
</g>

<g id="BDM_300x600_psd_Asset_ManagedWiFi_Awareness_DM7_2_Get_data_analytics__on_everything__from_foot_traffic__0_Layer0_0_MEMBER_33_FILL">
<path fill="#D82C26" stroke="none" d="
M 27.05 21.55
Q 26.7 22.1 26.7 22.95 26.7 23.75 27.05 24.3 27.3 24.8 28 25.25 28.6 25.55 29.35 25.55 30.1 25.55 30.7 25.25 31.3 24.9 31.65 24.3 32 23.6 32 22.95 32 22.25 31.65 21.55 31.25 20.95 30.7 20.65 30.15 20.3 29.35 20.3 28.55 20.3 28 20.65 27.35 21 27.05 21.55
M 28.25 21.1
Q 28.75 20.85 29.35 20.85 29.9 20.85 30.4 21.1 30.9 21.45 31.1 21.85 31.35 22.45 31.35 22.95 31.35 23.4 31.1 24 30.9 24.45 30.4 24.75 29.95 25.05 29.35 25.05 28.7 25.05 28.25 24.75 27.75 24.45 27.55 24 27.3 23.4 27.3 22.95 27.3 22.45 27.55 21.85 27.75 21.45 28.25 21.1 Z"/>
</g>

<g id="BDM_300x600_psd_Asset_ManagedWiFi_Awareness_DM7_2_Get_data_analytics__on_everything__from_foot_traffic__0_Layer0_0_MEMBER_34_FILL">
<path fill="#D82C26" stroke="none" d="
M 32.8 22.95
Q 32.8 23.75 33.15 24.3 33.5 24.9 34.1 25.25 34.7 25.55 35.45 25.55 36.2 25.55 36.8 25.25 37.4 24.9 37.75 24.3 38.1 23.75 38.1 22.95 38.1 22.1 37.75 21.55 37.35 20.95 36.8 20.65 36.25 20.3 35.45 20.3 34.65 20.3 34.1 20.65 33.55 20.95 33.15 21.55 32.8 22.1 32.8 22.95
M 33.7 21.85
Q 33.95 21.35 34.4 21.1 34.9 20.85 35.45 20.85 36 20.85 36.5 21.1 37 21.45 37.2 21.85 37.45 22.3 37.45 22.95 37.45 23.55 37.2 24 36.95 24.5 36.5 24.75 36.05 25.05 35.45 25.05 34.85 25.05 34.4 24.75 33.95 24.5 33.7 24 33.45 23.55 33.45 22.95 33.45 22.3 33.7 21.85 Z"/>
</g>

<g id="BDM_300x600_psd_Asset_ManagedWiFi_Awareness_DM7_2_Get_data_analytics__on_everything__from_foot_traffic__0_Layer0_0_MEMBER_35_FILL">
<path fill="#D82C26" stroke="none" d="
M 41.15 20.95
L 41.3 20.45 39.9 20.45 39.9 19.05 39.25 19.3 39.25 20.45 38.45 20.45 38.35 20.95 39.25 20.95 39.25 24.2
Q 39.25 24.85 39.6 25.2 39.9 25.5 40.4 25.5
L 41 25.45 41.5 25.25 41.4 24.8
Q 41 25 40.6 25 40.25 25 40.1 24.8 39.9 24.6 39.9 24.15
L 39.9 20.95 41.15 20.95 Z"/>
</g>

<g id="BDM_300x600_psd_Asset_ManagedWiFi_Awareness_DM7_2_Get_data_analytics__on_everything__from_foot_traffic__0_Layer0_0_MEMBER_36_FILL">
<path fill="#D82C26" stroke="none" d="
M 44.5 20.95
L 44.5 24.2
Q 44.5 24.85 44.8 25.2 45.1 25.5 45.65 25.5
L 46.2 25.45 46.7 25.25 46.6 24.8
Q 46.2 25 45.8 25 45.45 25 45.3 24.8 45.1 24.6 45.1 24.15
L 45.1 20.95 46.4 20.95 46.5 20.45 45.1 20.45 45.1 19.05 44.45 19.3 44.45 20.45 43.65 20.45 43.55 20.95 44.5 20.95 Z"/>
</g>

<g id="BDM_300x600_psd_Asset_ManagedWiFi_Awareness_DM7_2_Get_data_analytics__on_everything__from_foot_traffic__0_Layer0_0_MEMBER_37_FILL">
<path fill="#D82C26" stroke="none" d="
M 48.7 20.65
Q 48.35 20.95 48.1 21.55
L 48.05 20.45 47.45 20.45 47.5 25.4 48.1 25.4 48.1 22.95
Q 48.1 22.15 48.5 21.45 48.9 20.85 49.5 20.85
L 49.95 20.95 50.1 20.4 49.55 20.3
Q 49.1 20.3 48.7 20.65 Z"/>
</g>

<g id="BDM_300x600_psd_Asset_ManagedWiFi_Awareness_DM7_2_Get_data_analytics__on_everything__from_foot_traffic__0_Layer0_0_MEMBER_38_FILL">
<path fill="#D82C26" stroke="none" d="
M 52.6 20.3
Q 52.05 20.3 51.6 20.45 51.1 20.65 50.75 20.95
L 50.95 21.4
Q 51.2 21.15 51.65 21 52.05 20.8 52.5 20.8 53.2 20.8 53.55 21.15 53.9 21.45 53.9 22.15
L 53.9 22.45 53.3 22.45
Q 50.45 22.45 50.45 24.1 50.45 24.8 50.95 25.2 51.35 25.55 52.05 25.55 52.55 25.55 53.15 25.3 53.65 25 53.9 24.45
L 53.95 24.45 54 25.4 54.6 25.4
Q 54.5 25.15 54.5 24.35
L 54.5 22.2
Q 54.5 21.25 54 20.8 53.5 20.3 52.6 20.3
M 53.9 23.35
Q 53.9 23.8 53.7 24.15 53.6 24.5 53.15 24.85 52.65 25.1 52.15 25.1 51.75 25.1 51.4 24.85 51.05 24.65 51.05 24.05 51.05 22.85 53.4 22.85
L 53.9 22.85 53.9 23.35 Z"/>
</g>

<g id="BDM_300x600_psd_Asset_ManagedWiFi_Awareness_DM7_2_Get_data_analytics__on_everything__from_foot_traffic__0_Layer0_0_MEMBER_39_FILL">
<path fill="#D82C26" stroke="none" d="
M 62.9 20.45
L 62.25 20.45 62.25 25.4 62.9 25.4 62.9 20.45
M 61.4 17.3
L 60.9 17.25
Q 60.2 17.25 59.8 17.7 59.4 18.2 59.4 19
L 59.4 20.45 56.85 20.45 56.85 19.05
Q 56.85 18.5 57.05 18.15 57.25 17.8 57.8 17.8
L 58.6 17.9 58.65 17.4 58.25 17.3 57.75 17.25
Q 57.05 17.25 56.65 17.7 56.2 18.15 56.2 19
L 56.2 20.45 55.3 20.45 55.2 20.95 56.25 20.95 56.25 25.4 56.85 25.4 56.85 20.95 59.4 20.95 59.4 25.4 60.05 25.4 60.05 20.95 61.15 20.95 61.3 20.45 60.05 20.45 60.05 19.05
Q 60.05 18.5 60.25 18.15 60.45 17.8 60.95 17.8
L 61.75 17.9 61.8 17.4 61.4 17.3
M 62.25 18.15
L 62.15 18.45 62.25 18.8
Q 62.4 18.95 62.6 18.95
L 62.9 18.8 63 18.45 62.9 18.15
Q 62.8 18.05 62.6 18.05 62.35 18.05 62.25 18.15 Z"/>
</g>

<g id="BDM_300x600_psd_Asset_ManagedWiFi_Awareness_DM7_2_Get_data_analytics__on_everything__from_foot_traffic__0_Layer0_0_MEMBER_40_FILL">
<path fill="#D82C26" stroke="none" d="
M 64 22.95
Q 64 23.6 64.35 24.3 64.7 24.9 65.3 25.25 65.85 25.55 66.6 25.55 67.1 25.55 67.55 25.4 68 25.25 68.3 24.95
L 68.2 24.45
Q 67.9 24.75 67.5 24.9 67.15 25.05 66.65 25.05 66.05 25.05 65.6 24.75 65.25 24.5 64.9 24 64.65 23.4 64.65 22.95 64.65 22.4 64.9 21.9 65.2 21.35 65.6 21.1 66.1 20.85 66.65 20.85
L 67.4 21
Q 67.75 21.05 68.05 21.35
L 68.3 20.9
Q 68.15 20.7 67.55 20.45 67.1 20.3 66.65 20.3 65.85 20.3 65.3 20.65 64.8 20.9 64.35 21.6 64 22.3 64 22.95 Z"/>
</g>

<g id="BDM_300x600_psd_Asset_ManagedWiFi_Awareness_DM7_2_Get_data_analytics__on_everything__from_foot_traffic__0_Layer0_0_MEMBER_41_FILL">
<path fill="#D82C26" stroke="none" d="
M 70.2 24.65
Q 70.1 24.55 69.85 24.55
L 69.55 24.65
Q 69.4 24.8 69.4 25 69.4 25.2 69.55 25.35 69.65 25.5 69.85 25.5 70.05 25.5 70.2 25.35 70.35 25.2 70.35 25 70.35 24.8 70.2 24.65
M 73.4 24.55
L 73.05 24.65 72.95 25 73.05 25.35
Q 73.2 25.5 73.4 25.5 73.6 25.5 73.75 25.35 73.9 25.2 73.9 25 73.9 24.8 73.75 24.65 73.65 24.55 73.4 24.55
M 76.95 24.55
L 76.6 24.65
Q 76.45 24.8 76.45 25 76.45 25.2 76.6 25.35 76.75 25.5 76.95 25.5 77.2 25.5 77.25 25.35 77.4 25.2 77.4 25
L 77.3 24.65
Q 77.2 24.55 76.95 24.55 Z"/>
</g>
</defs>

<g transform="matrix( 1, 0, 0, 1, -237,53) ">
<g transform="matrix( 1, 0, 0, 1, 231,0) ">
<g transform="matrix( 1, 0, 0, 1, 33,5) ">
<g transform="matrix( 2.815704345703125, 0, 0, 2.832611083984375, 0.15,23.6) ">
<use xlink:href="#BDM_300x600_psd_Asset_ManagedWiFi_Awareness_DM7_2_Get_data_analytics__on_everything__from_foot_traffic__0_Layer0_0_MEMBER_0_FILL"/>
</g>

<g transform="matrix( 2.815704345703125, 0, 0, 2.832611083984375, 0.15,23.6) ">
<use xlink:href="#BDM_300x600_psd_Asset_ManagedWiFi_Awareness_DM7_2_Get_data_analytics__on_everything__from_foot_traffic__0_Layer0_0_MEMBER_1_FILL"/>
</g>

<g transform="matrix( 2.815704345703125, 0, 0, 2.832611083984375, 0.15,23.6) ">
<use xlink:href="#BDM_300x600_psd_Asset_ManagedWiFi_Awareness_DM7_2_Get_data_analytics__on_everything__from_foot_traffic__0_Layer0_0_MEMBER_2_FILL"/>
</g>

<g transform="matrix( 2.815704345703125, 0, 0, 2.832611083984375, 0.15,23.6) ">
<use xlink:href="#BDM_300x600_psd_Asset_ManagedWiFi_Awareness_DM7_2_Get_data_analytics__on_everything__from_foot_traffic__0_Layer0_0_MEMBER_3_FILL"/>
</g>

<g transform="matrix( 2.815704345703125, 0, 0, 2.832611083984375, 0.15,23.6) ">
<use xlink:href="#BDM_300x600_psd_Asset_ManagedWiFi_Awareness_DM7_2_Get_data_analytics__on_everything__from_foot_traffic__0_Layer0_0_MEMBER_4_FILL"/>
</g>

<g transform="matrix( 2.815704345703125, 0, 0, 2.832611083984375, 0.15,23.6) ">
<use xlink:href="#BDM_300x600_psd_Asset_ManagedWiFi_Awareness_DM7_2_Get_data_analytics__on_everything__from_foot_traffic__0_Layer0_0_MEMBER_5_FILL"/>
</g>

<g transform="matrix( 2.815704345703125, 0, 0, 2.832611083984375, 0.15,23.6) ">
<use xlink:href="#BDM_300x600_psd_Asset_ManagedWiFi_Awareness_DM7_2_Get_data_analytics__on_everything__from_foot_traffic__0_Layer0_0_MEMBER_6_FILL"/>
</g>

<g transform="matrix( 2.815704345703125, 0, 0, 2.832611083984375, 0.15,23.6) ">
<use xlink:href="#BDM_300x600_psd_Asset_ManagedWiFi_Awareness_DM7_2_Get_data_analytics__on_everything__from_foot_traffic__0_Layer0_0_MEMBER_7_FILL"/>
</g>

<g transform="matrix( 2.815704345703125, 0, 0, 2.832611083984375, 0.15,23.6) ">
<use xlink:href="#BDM_300x600_psd_Asset_ManagedWiFi_Awareness_DM7_2_Get_data_analytics__on_everything__from_foot_traffic__0_Layer0_0_MEMBER_8_FILL"/>
</g>

<g transform="matrix( 2.815704345703125, 0, 0, 2.832611083984375, 0.15,23.6) ">
<use xlink:href="#BDM_300x600_psd_Asset_ManagedWiFi_Awareness_DM7_2_Get_data_analytics__on_everything__from_foot_traffic__0_Layer0_0_MEMBER_9_FILL"/>
</g>

<g transform="matrix( 2.815704345703125, 0, 0, 2.832611083984375, 0.15,23.6) ">
<use xlink:href="#BDM_300x600_psd_Asset_ManagedWiFi_Awareness_DM7_2_Get_data_analytics__on_everything__from_foot_traffic__0_Layer0_0_MEMBER_10_FILL"/>
</g>

<g transform="matrix( 2.815704345703125, 0, 0, 2.832611083984375, 0.15,23.6) ">
<use xlink:href="#BDM_300x600_psd_Asset_ManagedWiFi_Awareness_DM7_2_Get_data_analytics__on_everything__from_foot_traffic__0_Layer0_0_MEMBER_11_FILL"/>
</g>

<g transform="matrix( 2.815704345703125, 0, 0, 2.832611083984375, 0.15,23.6) ">
<use xlink:href="#BDM_300x600_psd_Asset_ManagedWiFi_Awareness_DM7_2_Get_data_analytics__on_everything__from_foot_traffic__0_Layer0_0_MEMBER_12_FILL"/>
</g>

<g transform="matrix( 2.815704345703125, 0, 0, 2.832611083984375, 0.15,23.6) ">
<use xlink:href="#BDM_300x600_psd_Asset_ManagedWiFi_Awareness_DM7_2_Get_data_analytics__on_everything__from_foot_traffic__0_Layer0_0_MEMBER_13_FILL"/>
</g>

<g transform="matrix( 2.815704345703125, 0, 0, 2.832611083984375, 0.15,23.6) ">
<use xlink:href="#BDM_300x600_psd_Asset_ManagedWiFi_Awareness_DM7_2_Get_data_analytics__on_everything__from_foot_traffic__0_Layer0_0_MEMBER_14_FILL"/>
</g>

<g transform="matrix( 2.815704345703125, 0, 0, 2.832611083984375, 0.15,23.6) ">
<use xlink:href="#BDM_300x600_psd_Asset_ManagedWiFi_Awareness_DM7_2_Get_data_analytics__on_everything__from_foot_traffic__0_Layer0_0_MEMBER_15_FILL"/>
</g>

<g transform="matrix( 2.815704345703125, 0, 0, 2.832611083984375, 0.15,23.6) ">
<use xlink:href="#BDM_300x600_psd_Asset_ManagedWiFi_Awareness_DM7_2_Get_data_analytics__on_everything__from_foot_traffic__0_Layer0_0_MEMBER_16_FILL"/>
</g>

<g transform="matrix( 2.815704345703125, 0, 0, 2.832611083984375, 0.15,23.6) ">
<use xlink:href="#BDM_300x600_psd_Asset_ManagedWiFi_Awareness_DM7_2_Get_data_analytics__on_everything__from_foot_traffic__0_Layer0_0_MEMBER_17_FILL"/>
</g>

<g transform="matrix( 2.815704345703125, 0, 0, 2.832611083984375, 0.15,23.6) ">
<use xlink:href="#BDM_300x600_psd_Asset_ManagedWiFi_Awareness_DM7_2_Get_data_analytics__on_everything__from_foot_traffic__0_Layer0_0_MEMBER_18_FILL"/>
</g>

<g transform="matrix( 2.815704345703125, 0, 0, 2.832611083984375, 0.15,23.6) ">
<use xlink:href="#BDM_300x600_psd_Asset_ManagedWiFi_Awareness_DM7_2_Get_data_analytics__on_everything__from_foot_traffic__0_Layer0_0_MEMBER_19_FILL"/>
</g>

<g transform="matrix( 2.815704345703125, 0, 0, 2.832611083984375, 0.15,23.6) ">
<use xlink:href="#BDM_300x600_psd_Asset_ManagedWiFi_Awareness_DM7_2_Get_data_analytics__on_everything__from_foot_traffic__0_Layer0_0_MEMBER_20_FILL"/>
</g>

<g transform="matrix( 2.815704345703125, 0, 0, 2.832611083984375, 0.15,23.6) ">
<use xlink:href="#BDM_300x600_psd_Asset_ManagedWiFi_Awareness_DM7_2_Get_data_analytics__on_everything__from_foot_traffic__0_Layer0_0_MEMBER_21_FILL"/>
</g>

<g transform="matrix( 2.815704345703125, 0, 0, 2.832611083984375, 0.15,23.6) ">
<use xlink:href="#BDM_300x600_psd_Asset_ManagedWiFi_Awareness_DM7_2_Get_data_analytics__on_everything__from_foot_traffic__0_Layer0_0_MEMBER_22_FILL"/>
</g>

<g transform="matrix( 2.815704345703125, 0, 0, 2.832611083984375, 0.15,23.6) ">
<use xlink:href="#BDM_300x600_psd_Asset_ManagedWiFi_Awareness_DM7_2_Get_data_analytics__on_everything__from_foot_traffic__0_Layer0_0_MEMBER_23_FILL"/>
</g>

<g transform="matrix( 2.815704345703125, 0, 0, 2.832611083984375, 0.15,23.6) ">
<use xlink:href="#BDM_300x600_psd_Asset_ManagedWiFi_Awareness_DM7_2_Get_data_analytics__on_everything__from_foot_traffic__0_Layer0_0_MEMBER_24_FILL"/>
</g>

<g transform="matrix( 2.815704345703125, 0, 0, 2.832611083984375, 0.15,23.6) ">
<use xlink:href="#BDM_300x600_psd_Asset_ManagedWiFi_Awareness_DM7_2_Get_data_analytics__on_everything__from_foot_traffic__0_Layer0_0_MEMBER_25_FILL"/>
</g>

<g transform="matrix( 2.815704345703125, 0, 0, 2.832611083984375, 0.15,23.6) ">
<use xlink:href="#BDM_300x600_psd_Asset_ManagedWiFi_Awareness_DM7_2_Get_data_analytics__on_everything__from_foot_traffic__0_Layer0_0_MEMBER_26_FILL"/>
</g>

<g transform="matrix( 2.815704345703125, 0, 0, 2.832611083984375, 0.15,23.6) ">
<use xlink:href="#BDM_300x600_psd_Asset_ManagedWiFi_Awareness_DM7_2_Get_data_analytics__on_everything__from_foot_traffic__0_Layer0_0_MEMBER_27_FILL"/>
</g>

<g transform="matrix( 2.815704345703125, 0, 0, 2.832611083984375, 0.15,23.6) ">
<use xlink:href="#BDM_300x600_psd_Asset_ManagedWiFi_Awareness_DM7_2_Get_data_analytics__on_everything__from_foot_traffic__0_Layer0_0_MEMBER_28_FILL"/>
</g>

<g transform="matrix( 2.815704345703125, 0, 0, 2.832611083984375, 0.15,23.6) ">
<use xlink:href="#BDM_300x600_psd_Asset_ManagedWiFi_Awareness_DM7_2_Get_data_analytics__on_everything__from_foot_traffic__0_Layer0_0_MEMBER_29_FILL"/>
</g>

<g transform="matrix( 2.815704345703125, 0, 0, 2.832611083984375, 0.15,23.6) ">
<use xlink:href="#BDM_300x600_psd_Asset_ManagedWiFi_Awareness_DM7_2_Get_data_analytics__on_everything__from_foot_traffic__0_Layer0_0_MEMBER_30_FILL"/>
</g>

<g transform="matrix( 2.815704345703125, 0, 0, 2.832611083984375, 0.15,23.6) ">
<use xlink:href="#BDM_300x600_psd_Asset_ManagedWiFi_Awareness_DM7_2_Get_data_analytics__on_everything__from_foot_traffic__0_Layer0_0_MEMBER_31_FILL"/>
</g>

<g transform="matrix( 2.815704345703125, 0, 0, 2.832611083984375, 0.15,23.6) ">
<use xlink:href="#BDM_300x600_psd_Asset_ManagedWiFi_Awareness_DM7_2_Get_data_analytics__on_everything__from_foot_traffic__0_Layer0_0_MEMBER_32_FILL"/>
</g>

<g transform="matrix( 2.815704345703125, 0, 0, 2.832611083984375, 0.15,23.6) ">
<use xlink:href="#BDM_300x600_psd_Asset_ManagedWiFi_Awareness_DM7_2_Get_data_analytics__on_everything__from_foot_traffic__0_Layer0_0_MEMBER_33_FILL"/>
</g>

<g transform="matrix( 2.815704345703125, 0, 0, 2.832611083984375, 0.15,23.6) ">
<use xlink:href="#BDM_300x600_psd_Asset_ManagedWiFi_Awareness_DM7_2_Get_data_analytics__on_everything__from_foot_traffic__0_Layer0_0_MEMBER_34_FILL"/>
</g>

<g transform="matrix( 2.815704345703125, 0, 0, 2.832611083984375, 0.15,23.6) ">
<use xlink:href="#BDM_300x600_psd_Asset_ManagedWiFi_Awareness_DM7_2_Get_data_analytics__on_everything__from_foot_traffic__0_Layer0_0_MEMBER_35_FILL"/>
</g>

<g transform="matrix( 2.815704345703125, 0, 0, 2.832611083984375, 0.15,23.6) ">
<use xlink:href="#BDM_300x600_psd_Asset_ManagedWiFi_Awareness_DM7_2_Get_data_analytics__on_everything__from_foot_traffic__0_Layer0_0_MEMBER_36_FILL"/>
</g>

<g transform="matrix( 2.815704345703125, 0, 0, 2.832611083984375, 0.15,23.6) ">
<use xlink:href="#BDM_300x600_psd_Asset_ManagedWiFi_Awareness_DM7_2_Get_data_analytics__on_everything__from_foot_traffic__0_Layer0_0_MEMBER_37_FILL"/>
</g>

<g transform="matrix( 2.815704345703125, 0, 0, 2.832611083984375, 0.15,23.6) ">
<use xlink:href="#BDM_300x600_psd_Asset_ManagedWiFi_Awareness_DM7_2_Get_data_analytics__on_everything__from_foot_traffic__0_Layer0_0_MEMBER_38_FILL"/>
</g>

<g transform="matrix( 2.815704345703125, 0, 0, 2.832611083984375, 0.15,23.6) ">
<use xlink:href="#BDM_300x600_psd_Asset_ManagedWiFi_Awareness_DM7_2_Get_data_analytics__on_everything__from_foot_traffic__0_Layer0_0_MEMBER_39_FILL"/>
</g>

<g transform="matrix( 2.815704345703125, 0, 0, 2.832611083984375, 0.15,23.6) ">
<use xlink:href="#BDM_300x600_psd_Asset_ManagedWiFi_Awareness_DM7_2_Get_data_analytics__on_everything__from_foot_traffic__0_Layer0_0_MEMBER_40_FILL"/>
</g>

<g transform="matrix( 2.815704345703125, 0, 0, 2.832611083984375, 0.15,23.6) ">
<use xlink:href="#BDM_300x600_psd_Asset_ManagedWiFi_Awareness_DM7_2_Get_data_analytics__on_everything__from_foot_traffic__0_Layer0_0_MEMBER_41_FILL"/>
</g>
</g>
</g>
</g>
</svg>
