
<svg xmlns="http://www.w3.org/2000/svg" version="1.1" xmlns:xlink="http://www.w3.org/1999/xlink" preserveAspectRatio="none" x="0px" y="0px" width="300px" height="600px" viewBox="0 0 300 600">
<defs>
<g id="IT_300x600_FR_psd_Asset_V8_2_Les_solutions_de__r_seau_en_tant_que__service_peuvent_aider___0_Layer0_0_MEMBER_0_FILL">
<path fill="#D82C26" stroke="none" d="
M 1.6 -7.25
L 1 -7.25 1 0 4.75 0 4.85 -0.55 1.6 -0.55 1.6 -7.25 Z"/>
</g>

<g id="IT_300x600_FR_psd_Asset_V8_2_Les_solutions_de__r_seau_en_tant_que__service_peuvent_aider___0_Layer0_0_MEMBER_1_FILL">
<path fill="#D82C26" stroke="none" d="
M 8.8 -4.65
Q 8.35 -4.95 7.6 -4.95 6.9 -4.95 6.4 -4.6 5.9 -4.35 5.55 -3.75 5.2 -3.2 5.2 -2.45 5.2 -1.65 5.55 -1.1 5.85 -0.5 6.4 -0.2 6.95 0.15 7.65 0.15 8.8 0.15 9.6 -0.45
L 9.5 -0.95 8.7 -0.55
Q 8.3 -0.35 7.7 -0.35 7.25 -0.35 6.75 -0.6 6.25 -0.9 6.05 -1.35 5.8 -1.75 5.8 -2.3
L 9.85 -2.3 9.85 -2.55
Q 9.85 -3.3 9.6 -3.75 9.45 -4.2 8.8 -4.65
M 7.6 -4.45
Q 8.35 -4.45 8.8 -4 9.3 -3.55 9.3 -2.75
L 5.8 -2.75
Q 5.8 -3.05 6.05 -3.55 6.25 -3.9 6.65 -4.2 6.95 -4.45 7.6 -4.45 Z"/>
</g>

<g id="IT_300x600_FR_psd_Asset_V8_2_Les_solutions_de__r_seau_en_tant_que__service_peuvent_aider___0_Layer0_0_MEMBER_2_FILL">
<path fill="#D82C26" stroke="none" d="
M 13.7 -4.45
L 13.05 -4.8
Q 12.6 -4.95 12.2 -4.95 11.8 -4.95 11.4 -4.8 11.05 -4.65 10.85 -4.35 10.6 -4 10.6 -3.6 10.6 -3.1 10.95 -2.8 11.3 -2.45 11.95 -2.25 12.65 -2 12.95 -1.8 13.3 -1.6 13.3 -1.25 13.3 -0.8 12.95 -0.6 12.7 -0.35 12.2 -0.35 11.3 -0.35 10.6 -0.9
L 10.5 -0.4
Q 10.85 -0.15 11.25 0 11.7 0.15 12.25 0.15 12.65 0.15 13 -0.05 13.4 -0.2 13.6 -0.5 13.85 -0.75 13.85 -1.25 13.85 -1.8 13.5 -2.1 13.05 -2.45 12.4 -2.65 11.65 -2.9 11.45 -3.1 11.15 -3.3 11.15 -3.65 11.15 -4 11.45 -4.25 11.7 -4.45 12.2 -4.45
L 12.9 -4.35 13.45 -4 13.7 -4.45 Z"/>
</g>

<g id="IT_300x600_FR_psd_Asset_V8_2_Les_solutions_de__r_seau_en_tant_que__service_peuvent_aider___0_Layer0_0_MEMBER_3_FILL">
<path fill="#D82C26" stroke="none" d="
M 19 -4.8
Q 18.65 -4.95 18.15 -4.95 17.7 -4.95 17.4 -4.8 17.05 -4.65 16.8 -4.35 16.55 -4 16.55 -3.6 16.55 -3.1 16.9 -2.8 17.25 -2.45 17.9 -2.25 18.5 -2.05 18.95 -1.8 19.25 -1.55 19.25 -1.25 19.25 -0.8 18.9 -0.6 18.65 -0.35 18.15 -0.35 17.25 -0.35 16.55 -0.9
L 16.45 -0.4
Q 16.8 -0.15 17.2 0 17.65 0.15 18.2 0.15 18.65 0.15 19 -0.05 19.4 -0.2 19.6 -0.5 19.8 -0.75 19.8 -1.25 19.8 -1.8 19.45 -2.1 19 -2.45 18.35 -2.65 17.6 -2.9 17.4 -3.1 17.1 -3.3 17.1 -3.65 17.1 -4 17.4 -4.25 17.65 -4.45 18.15 -4.45
L 18.85 -4.35 19.4 -4 19.65 -4.45 19 -4.8 Z"/>
</g>

<g id="IT_300x600_FR_psd_Asset_V8_2_Les_solutions_de__r_seau_en_tant_que__service_peuvent_aider___0_Layer0_0_MEMBER_4_FILL">
<path fill="#D82C26" stroke="none" d="
M 24.3 -4.6
Q 23.8 -4.95 23 -4.95 22.25 -4.95 21.7 -4.6 21.1 -4.3 20.8 -3.7 20.45 -3.2 20.45 -2.4 20.45 -1.65 20.8 -1.1 21.1 -0.5 21.7 -0.2 22.25 0.15 23 0.15 23.8 0.15 24.3 -0.2 24.85 -0.5 25.25 -1.1 25.55 -1.7 25.55 -2.4 25.55 -3.15 25.25 -3.7 24.85 -4.3 24.3 -4.6
M 24.05 -4.15
Q 24.45 -3.95 24.7 -3.45 24.95 -3 24.95 -2.4 24.95 -1.75 24.7 -1.4 24.45 -0.9 24.05 -0.65 23.6 -0.35 23 -0.35 22.4 -0.35 22 -0.65 21.5 -0.95 21.3 -1.4 21.05 -1.9 21.05 -2.4 21.05 -2.85 21.3 -3.45 21.55 -3.9 22 -4.15 22.4 -4.45 23 -4.45 23.6 -4.45 24.05 -4.15 Z"/>
</g>

<g id="IT_300x600_FR_psd_Asset_V8_2_Les_solutions_de__r_seau_en_tant_que__service_peuvent_aider___0_Layer0_0_MEMBER_5_FILL">
<path fill="#D82C26" stroke="none" d="
M 26.6 -1.05
Q 26.6 -0.55 26.8 -0.3 27.05 0 27.35 0.1
L 27.65 -0.4
Q 27.4 -0.45 27.3 -0.7
L 27.2 -1.2 27.2 -7.8 26.6 -7.7 26.6 -1.05 Z"/>
</g>

<g id="IT_300x600_FR_psd_Asset_V8_2_Les_solutions_de__r_seau_en_tant_que__service_peuvent_aider___0_Layer0_0_MEMBER_6_FILL">
<path fill="#D82C26" stroke="none" d="
M 28.5 -1.85
Q 28.5 -0.95 28.95 -0.45 29.35 0.15 30.25 0.15 30.85 0.15 31.35 -0.2 31.85 -0.55 32 -1.05
L 32.1 0 32.7 0 32.6 -1.1 32.6 -4.8 32 -4.8 32 -2.4
Q 32 -1.7 31.8 -1.3 31.55 -0.75 31.25 -0.6 30.85 -0.35 30.4 -0.35 29.7 -0.35 29.4 -0.85 29.1 -1.3 29.1 -2.05
L 29.1 -4.8 28.5 -4.8 28.5 -1.85 Z"/>
</g>

<g id="IT_300x600_FR_psd_Asset_V8_2_Les_solutions_de__r_seau_en_tant_que__service_peuvent_aider___0_Layer0_0_MEMBER_7_FILL">
<path fill="#D82C26" stroke="none" d="
M 34.8 -4.8
L 34.8 -6.15 34.2 -5.95 34.2 -4.8 33.45 -4.8 33.3 -4.3 34.2 -4.3 34.2 -1.15
Q 34.2 -0.55 34.5 -0.25 34.8 0.1 35.35 0.1
L 35.85 0.05 36.35 -0.15 36.25 -0.6
Q 35.9 -0.4 35.5 -0.4 35.15 -0.4 35 -0.6 34.8 -0.8 34.8 -1.25
L 34.8 -4.3 36.05 -4.3 36.15 -4.8 34.8 -4.8 Z"/>
</g>

<g id="IT_300x600_FR_psd_Asset_V8_2_Les_solutions_de__r_seau_en_tant_que__service_peuvent_aider___0_Layer0_0_MEMBER_8_FILL">
<path fill="#D82C26" stroke="none" d="
M 37.65 -4.8
L 37.05 -4.8 37.05 0 37.65 0 37.65 -4.8
M 37.35 -6.3
Q 37.55 -6.3 37.65 -6.4
L 37.75 -6.7 37.65 -7 37.35 -7.15
Q 37.15 -7.15 37.05 -7 36.9 -6.9 36.9 -6.7
L 37.05 -6.4
Q 37.1 -6.3 37.35 -6.3 Z"/>
</g>

<g id="IT_300x600_FR_psd_Asset_V8_2_Les_solutions_de__r_seau_en_tant_que__service_peuvent_aider___0_Layer0_0_MEMBER_9_FILL">
<path fill="#D82C26" stroke="none" d="
M 39 -1.1
Q 39.3 -0.5 39.9 -0.2 40.45 0.15 41.2 0.15 41.95 0.15 42.5 -0.2 43.05 -0.5 43.45 -1.1 43.75 -1.7 43.75 -2.4 43.75 -3.15 43.45 -3.7 43.05 -4.3 42.5 -4.6 41.95 -4.95 41.2 -4.95 40.45 -4.95 39.9 -4.6 39.3 -4.3 39 -3.7 38.65 -3.2 38.65 -2.4 38.65 -1.65 39 -1.1
M 39.5 -3.45
Q 39.7 -3.9 40.15 -4.15 40.6 -4.45 41.2 -4.45 41.8 -4.45 42.25 -4.15 42.65 -3.95 42.9 -3.45 43.15 -3 43.15 -2.4 43.15 -1.75 42.9 -1.4 42.65 -0.9 42.25 -0.65 41.8 -0.35 41.2 -0.35 40.6 -0.35 40.15 -0.65 39.7 -1 39.5 -1.4 39.25 -1.9 39.25 -2.4 39.25 -2.85 39.5 -3.45 Z"/>
</g>

<g id="IT_300x600_FR_psd_Asset_V8_2_Les_solutions_de__r_seau_en_tant_que__service_peuvent_aider___0_Layer0_0_MEMBER_10_FILL">
<path fill="#D82C26" stroke="none" d="
M 45.3 -4.8
L 44.75 -4.8 44.8 0 45.4 0 45.4 -2.45
Q 45.4 -3.1 45.6 -3.5 45.85 -4 46.2 -4.2 46.6 -4.45 47 -4.45 47.65 -4.45 48 -3.95 48.3 -3.5 48.3 -2.75
L 48.3 0 48.9 0 48.9 -2.95
Q 48.9 -3.8 48.45 -4.35 48.1 -4.95 47.1 -4.95 46.55 -4.95 46.05 -4.6 45.65 -4.35 45.4 -3.75
L 45.35 -3.75 45.3 -4.8 Z"/>
</g>

<g id="IT_300x600_FR_psd_Asset_V8_2_Les_solutions_de__r_seau_en_tant_que__service_peuvent_aider___0_Layer0_0_MEMBER_11_FILL">
<path fill="#D82C26" stroke="none" d="
M 49.95 -0.9
L 49.85 -0.4
Q 50.1 -0.15 50.55 0 51 0.15 51.55 0.15 52 0.15 52.35 -0.05 52.75 -0.2 52.95 -0.5 53.2 -0.85 53.2 -1.25 53.2 -1.8 52.8 -2.1 52.5 -2.4 51.7 -2.65 51.05 -2.85 50.75 -3.1 50.5 -3.3 50.5 -3.65 50.5 -4 50.8 -4.25 51.05 -4.45 51.55 -4.45
L 52.2 -4.35 52.8 -4 53.05 -4.45 52.35 -4.8
Q 52 -4.95 51.5 -4.95
L 50.75 -4.8
Q 50.4 -4.65 50.15 -4.35 49.9 -4 49.9 -3.6 49.9 -3.15 50.25 -2.8 50.7 -2.4 51.3 -2.25 52 -2 52.3 -1.8 52.6 -1.55 52.6 -1.25 52.6 -0.8 52.3 -0.6 52 -0.35 51.55 -0.35 50.6 -0.35 49.95 -0.9 Z"/>
</g>

<g id="IT_300x600_FR_psd_Asset_V8_2_Les_solutions_de__r_seau_en_tant_que__service_peuvent_aider___0_Layer0_0_MEMBER_12_FILL">
<path fill="#D82C26" stroke="none" d="
M 60.15 -3.75
Q 59.9 -4.25 59.35 -4.65 58.85 -4.95 58.2 -4.95 57.55 -4.95 56.95 -4.6 56.45 -4.3 56.1 -3.7 55.8 -3.1 55.8 -2.4 55.8 -1.7 56.1 -1.1 56.45 -0.5 56.95 -0.2 57.55 0.15 58.2 0.15 58.85 0.15 59.35 -0.15 59.9 -0.55 60.15 -1.05
L 60.2 -1.05 60.25 0 60.8 0 60.75 -7.85 60.15 -7.75 60.15 -3.75
M 59.25 -4.15
Q 59.75 -3.8 59.95 -3.4 60.2 -2.9 60.2 -2.4 60.2 -1.9 59.95 -1.4 59.8 -1 59.25 -0.65 58.8 -0.35 58.3 -0.35 57.7 -0.35 57.3 -0.65 56.9 -0.85 56.65 -1.4 56.4 -1.9 56.4 -2.4 56.4 -2.9 56.65 -3.4 56.9 -3.85 57.3 -4.15 57.7 -4.45 58.3 -4.45 58.8 -4.45 59.25 -4.15 Z"/>
</g>

<g id="IT_300x600_FR_psd_Asset_V8_2_Les_solutions_de__r_seau_en_tant_que__service_peuvent_aider___0_Layer0_0_MEMBER_13_FILL">
<path fill="#D82C26" stroke="none" d="
M 65.4 -4.65
Q 64.9 -4.95 64.15 -4.95 63.5 -4.95 62.95 -4.6 62.4 -4.3 62.1 -3.75 61.8 -3.15 61.8 -2.45 61.8 -1.7 62.1 -1.1 62.5 -0.45 63 -0.2 63.5 0.15 64.25 0.15 65.4 0.15 66.15 -0.45
L 66.05 -0.95
Q 65.7 -0.7 65.3 -0.55 64.9 -0.35 64.3 -0.35 63.8 -0.35 63.3 -0.6 62.85 -0.95 62.65 -1.35 62.4 -1.65 62.4 -2.3
L 66.45 -2.3 66.45 -2.55
Q 66.45 -3.15 66.2 -3.75 65.95 -4.25 65.4 -4.65
M 64.15 -4.45
Q 64.95 -4.45 65.4 -4 65.8 -3.6 65.9 -2.75
L 62.4 -2.75
Q 62.4 -2.95 62.6 -3.55 62.8 -3.9 63.25 -4.2 63.55 -4.45 64.15 -4.45 Z"/>
</g>

<g id="IT_300x600_FR_psd_Asset_V8_2_Les_solutions_de__r_seau_en_tant_que__service_peuvent_aider___0_Layer0_0_MEMBER_14_FILL">
<path fill="#D82C26" stroke="none" d="
M 3.45 8.2
L 2.95 8.15
Q 2.55 8.15 2.15 8.45 1.8 8.65 1.55 9.3
L 1.5 8.25 0.9 8.25 0.95 13.05 1.55 13.05 1.55 10.7
Q 1.55 9.9 1.95 9.25 2.25 8.65 2.9 8.65
L 3.35 8.75 3.45 8.2 Z"/>
</g>

<g id="IT_300x600_FR_psd_Asset_V8_2_Les_solutions_de__r_seau_en_tant_que__service_peuvent_aider___0_Layer0_0_MEMBER_15_FILL">
<path fill="#D82C26" stroke="none" d="
M 3.55 10.65
Q 3.55 11.45 3.85 11.95 4.25 12.6 4.75 12.9 5.3 13.2 6 13.2 7.15 13.2 7.9 12.6
L 7.8 12.1 7.05 12.55
Q 6.6 12.7 6.05 12.7 5.45 12.7 5.05 12.45 4.55 12.05 4.4 11.75 4.15 11.4 4.15 10.75
L 8.2 10.75 8.2 10.5
Q 8.2 9.9 7.95 9.3 7.6 8.7 7.15 8.45 6.65 8.1 5.9 8.1 5.25 8.1 4.7 8.45 4.15 8.75 3.85 9.35 3.55 9.9 3.55 10.65
M 4.35 9.55
Q 4.55 9.15 5 8.85 5.4 8.6 5.9 8.6 6.7 8.6 7.15 9.05 7.55 9.45 7.65 10.3
L 4.15 10.3
Q 4.15 10.05 4.35 9.55
M 7.25 5.8
L 6.55 5.8 5.5 7.3 6 7.3 7.25 5.8 Z"/>
</g>

<g id="IT_300x600_FR_psd_Asset_V8_2_Les_solutions_de__r_seau_en_tant_que__service_peuvent_aider___0_Layer0_0_MEMBER_16_FILL">
<path fill="#D82C26" stroke="none" d="
M 11.35 8.25
Q 11 8.1 10.5 8.1
L 9.75 8.25
Q 9.4 8.4 9.15 8.7 8.95 8.95 8.95 9.45 8.95 10.05 9.25 10.25 9.7 10.6 10.3 10.8 11 11.05 11.3 11.25 11.6 11.5 11.6 11.8 11.6 12.2 11.3 12.5 11.05 12.7 10.55 12.7 9.55 12.7 8.95 12.15
L 8.85 12.65
Q 9.2 12.9 9.6 13.05 10.05 13.2 10.55 13.2 11 13.2 11.35 13.05 11.65 12.9 11.95 12.55 12.2 12.2 12.2 11.8 12.2 11.3 11.85 10.95 11.45 10.6 10.7 10.4 10.05 10.2 9.75 9.95 9.5 9.8 9.5 9.4 9.5 9.05 9.8 8.8 10.05 8.6 10.55 8.6 10.9 8.6 11.2 8.75
L 11.8 9.05 12.05 8.65
Q 11.65 8.35 11.35 8.25 Z"/>
</g>

<g id="IT_300x600_FR_psd_Asset_V8_2_Les_solutions_de__r_seau_en_tant_que__service_peuvent_aider___0_Layer0_0_MEMBER_17_FILL">
<path fill="#D82C26" stroke="none" d="
M 12.85 10.65
Q 12.85 11.45 13.15 11.95 13.4 12.5 14 12.9 14.6 13.2 15.3 13.2 16.4 13.2 17.2 12.6
L 17.1 12.1 16.3 12.55
Q 15.85 12.7 15.35 12.7 14.75 12.7 14.35 12.45 13.95 12.15 13.65 11.75 13.4 11.25 13.4 10.75
L 17.5 10.75 17.5 10.5
Q 17.5 9.85 17.2 9.3 16.95 8.75 16.45 8.45 15.95 8.1 15.2 8.1 14.5 8.1 14 8.45 13.45 8.75 13.15 9.35 12.85 9.9 12.85 10.65
M 13.65 9.55
Q 13.85 9.2 14.25 8.85 14.75 8.6 15.2 8.6 15.95 8.6 16.45 9.05 16.9 9.5 16.9 10.3
L 13.4 10.3
Q 13.5 9.8 13.65 9.55 Z"/>
</g>

<g id="IT_300x600_FR_psd_Asset_V8_2_Les_solutions_de__r_seau_en_tant_que__service_peuvent_aider___0_Layer0_0_MEMBER_18_FILL">
<path fill="#D82C26" stroke="none" d="
M 21.45 10.2
L 20.85 10.2
Q 18.1 10.2 18.1 11.75 18.1 12.5 18.55 12.85 18.95 13.2 19.6 13.2 20.2 13.2 20.7 12.9 21.15 12.7 21.4 12.15
L 21.45 12.15 21.5 13.05 22.05 13.05 22 9.95
Q 22 9.05 21.5 8.6 21.05 8.1 20.15 8.1 19.6 8.1 19.15 8.3
L 18.35 8.7 18.55 9.2 19.25 8.75
Q 19.7 8.6 20.05 8.6 20.7 8.6 21.05 8.95 21.45 9.25 21.45 9.9
L 21.45 10.2
M 21.45 11.05
Q 21.45 11.35 21.25 11.85 21 12.3 20.65 12.5 20.25 12.75 19.75 12.75 19.35 12.75 19 12.5 18.65 12.25 18.65 11.75 18.65 10.6 20.9 10.6
L 21.45 10.6 21.45 11.05 Z"/>
</g>

<g id="IT_300x600_FR_psd_Asset_V8_2_Les_solutions_de__r_seau_en_tant_que__service_peuvent_aider___0_Layer0_0_MEMBER_19_FILL">
<path fill="#D82C26" stroke="none" d="
M 23.2 8.25
L 23.2 11.2
Q 23.2 12.1 23.65 12.6 24.1 13.2 24.95 13.2 25.55 13.2 26.05 12.9 26.6 12.45 26.7 12.05
L 26.8 13.05 27.4 13.05 27.3 11.95 27.3 8.25 26.7 8.25 26.7 10.65
Q 26.7 11.35 26.5 11.75 26.25 12.3 25.95 12.45 25.55 12.7 25.1 12.7 24.4 12.7 24.1 12.25 23.8 11.75 23.8 11.05
L 23.8 8.25 23.2 8.25 Z"/>
</g>

<g id="IT_300x600_FR_psd_Asset_V8_2_Les_solutions_de__r_seau_en_tant_que__service_peuvent_aider___0_Layer0_0_MEMBER_20_FILL">
<path fill="#D82C26" stroke="none" d="
M 32.8 8.1
Q 32.1 8.1 31.55 8.45 31.1 8.7 30.7 9.35 30.4 9.9 30.4 10.65 30.4 11.45 30.7 11.95 31.05 12.5 31.6 12.9 32.15 13.2 32.85 13.2 34 13.2 34.8 12.6
L 34.65 12.1 33.9 12.55
Q 33.45 12.7 32.9 12.7 32.25 12.7 31.95 12.45 31.45 12.1 31.25 11.75 31 11.25 31 10.75
L 35.05 10.75 35.05 10.5
Q 35.05 9.75 34.8 9.3 34.45 8.7 34 8.45 33.5 8.1 32.8 8.1
M 31.85 8.85
Q 32.25 8.6 32.8 8.6 33.55 8.6 34 9.05 34.5 9.55 34.5 10.3
L 31 10.3
Q 31 9.95 31.25 9.55 31.4 9.15 31.85 8.85 Z"/>
</g>

<g id="IT_300x600_FR_psd_Asset_V8_2_Les_solutions_de__r_seau_en_tant_que__service_peuvent_aider___0_Layer0_0_MEMBER_21_FILL">
<path fill="#D82C26" stroke="none" d="
M 39.75 8.7
Q 39.35 8.15 38.4 8.15 37.9 8.15 37.35 8.45 36.85 8.8 36.7 9.3
L 36.65 9.3 36.6 8.25 36.05 8.25 36.1 13.05 36.7 13.05 36.7 10.6
Q 36.7 9.95 36.9 9.55 37.15 9.05 37.5 8.85 37.85 8.65 38.3 8.65 39 8.65 39.3 9.1 39.6 9.55 39.6 10.3
L 39.6 13.05 40.2 13.05 40.2 10.15
Q 40.2 9.3 39.75 8.7 Z"/>
</g>

<g id="IT_300x600_FR_psd_Asset_V8_2_Les_solutions_de__r_seau_en_tant_que__service_peuvent_aider___0_Layer0_0_MEMBER_22_FILL">
<path fill="#D82C26" stroke="none" d="
M 43.65 7.1
L 43.65 8.25 42.85 8.25 42.75 8.75 43.65 8.75 43.65 11.9
Q 43.65 12.5 43.95 12.85 44.25 13.15 44.75 13.15
L 45.3 13.1 45.8 12.9 45.7 12.45
Q 45.3 12.65 44.95 12.65 44.6 12.65 44.45 12.45 44.25 12.3 44.25 11.8
L 44.25 8.75 45.5 8.75 45.6 8.25 44.25 8.25 44.25 6.9 43.65 7.1 Z"/>
</g>

<g id="IT_300x600_FR_psd_Asset_V8_2_Les_solutions_de__r_seau_en_tant_que__service_peuvent_aider___0_Layer0_0_MEMBER_23_FILL">
<path fill="#D82C26" stroke="none" d="
M 48.2 8.6
Q 48.85 8.6 49.15 8.95 49.55 9.25 49.55 9.9
L 49.55 10.2 48.95 10.2
Q 46.2 10.2 46.2 11.75 46.2 12.5 46.65 12.85 47.05 13.2 47.75 13.2 48.35 13.2 48.8 12.9 49.35 12.7 49.55 12.15
L 49.65 13.05 50.2 13.05 50.1 12 50.1 9.95
Q 50.1 9.05 49.6 8.6 49.15 8.1 48.25 8.1 47.7 8.1 47.3 8.3 46.85 8.4 46.5 8.7
L 46.65 9.2 47.35 8.75
Q 47.8 8.6 48.2 8.6
M 49.55 11.05
Q 49.55 11.35 49.35 11.85 49.05 12.35 48.8 12.5 48.4 12.75 47.85 12.75 47.45 12.75 47.1 12.5 46.8 12.3 46.8 11.75 46.8 10.6 49.05 10.6
L 49.55 10.6 49.55 11.05 Z"/>
</g>

<g id="IT_300x600_FR_psd_Asset_V8_2_Les_solutions_de__r_seau_en_tant_que__service_peuvent_aider___0_Layer0_0_MEMBER_24_FILL">
<path fill="#D82C26" stroke="none" d="
M 55.1 8.7
Q 54.7 8.15 53.75 8.15 53.15 8.15 52.7 8.45 52.25 8.7 52 9.3
L 51.95 8.25 51.35 8.25 51.4 13.05 52 13.05 52 10.6
Q 52 10.15 52.2 9.55 52.45 9.05 52.8 8.85 53.15 8.65 53.6 8.65 54.3 8.65 54.6 9.1 54.9 9.55 54.9 10.3
L 54.9 13.05 55.5 13.05 55.5 10.15
Q 55.5 9.35 55.1 8.7 Z"/>
</g>

<g id="IT_300x600_FR_psd_Asset_V8_2_Les_solutions_de__r_seau_en_tant_que__service_peuvent_aider___0_Layer0_0_MEMBER_25_FILL">
<path fill="#D82C26" stroke="none" d="
M 58.75 8.75
L 58.85 8.25 57.5 8.25 57.5 6.9 56.9 7.1 56.9 8.25 56.15 8.25 56 8.75 56.9 8.75 56.9 11.9
Q 56.9 12.5 57.2 12.85 57.5 13.15 58 13.15
L 58.55 13.1 59.05 12.9 58.95 12.45
Q 58.6 12.65 58.2 12.65 57.85 12.65 57.7 12.45 57.5 12.3 57.5 11.8
L 57.5 8.75 58.75 8.75 Z"/>
</g>

<g id="IT_300x600_FR_psd_Asset_V8_2_Les_solutions_de__r_seau_en_tant_que__service_peuvent_aider___0_Layer0_0_MEMBER_26_FILL">
<path fill="#D82C26" stroke="none" d="
M 64.85 8.45
Q 64.35 8.15 63.7 8.15 63 8.15 62.45 8.45 61.9 8.85 61.6 9.35 61.3 9.95 61.3 10.65 61.3 11.35 61.6 11.95 61.9 12.55 62.45 12.85 62.95 13.2 63.7 13.2 64.35 13.2 64.85 12.9 65.3 12.65 65.65 12.05
L 65.65 14.2
Q 65.65 15.25 66.7 15.55
L 66.95 15
Q 66.55 14.9 66.4 14.7 66.25 14.5 66.25 14.05
L 66.3 8.25 65.7 8.25 65.65 9.3
Q 65.3 8.7 64.85 8.45
M 63.8 8.65
Q 64.4 8.65 64.75 8.9 65.1 9.15 65.45 9.65 65.7 10.15 65.7 10.65 65.7 11.1 65.45 11.7 65.1 12.25 64.75 12.4 64.3 12.7 63.8 12.7 63.2 12.7 62.8 12.4 62.45 12.25 62.1 11.7 61.9 11.25 61.9 10.65 61.9 10.05 62.1 9.65 62.45 9.15 62.8 8.9 63.1 8.65 63.8 8.65 Z"/>
</g>

<g id="IT_300x600_FR_psd_Asset_V8_2_Les_solutions_de__r_seau_en_tant_que__service_peuvent_aider___0_Layer0_0_MEMBER_27_FILL">
<path fill="#D82C26" stroke="none" d="
M 71.05 8.25
L 71.05 10.65
Q 71.05 11.35 70.85 11.75 70.6 12.25 70.25 12.45 69.85 12.7 69.45 12.7 68.75 12.7 68.45 12.25 68.15 11.75 68.15 11.05
L 68.15 8.25 67.55 8.25 67.55 11.2
Q 67.55 12.05 67.95 12.6 68.4 13.2 69.3 13.2 69.9 13.2 70.35 12.9 70.85 12.55 71.05 12.05
L 71.15 13.05 71.75 13.05 71.65 12.5 71.65 8.25 71.05 8.25 Z"/>
</g>

<g id="IT_300x600_FR_psd_Asset_V8_2_Les_solutions_de__r_seau_en_tant_que__service_peuvent_aider___0_Layer0_0_MEMBER_28_FILL">
<path fill="#D82C26" stroke="none" d="
M 72.7 10.65
Q 72.7 11.45 73 11.95 73.3 12.5 73.9 12.9 74.45 13.2 75.15 13.2 76.3 13.2 77.05 12.6
L 76.95 12.1 76.2 12.55
Q 75.7 12.7 75.2 12.7 74.6 12.7 74.2 12.45 73.75 12.15 73.55 11.75 73.35 11.45 73.25 10.75
L 77.35 10.75 77.35 10.5
Q 77.35 9.9 77.1 9.3 76.75 8.7 76.3 8.45 75.8 8.1 75.05 8.1 74.35 8.1 73.85 8.45 73.3 8.75 73 9.35 72.7 9.9 72.7 10.65
M 74.1 8.85
Q 74.6 8.6 75.05 8.6 75.85 8.6 76.3 9.05 76.75 9.5 76.75 10.3
L 73.3 10.3
Q 73.3 9.9 73.5 9.55 73.7 9.2 74.1 8.85 Z"/>
</g>

<g id="IT_300x600_FR_psd_Asset_V8_2_Les_solutions_de__r_seau_en_tant_que__service_peuvent_aider___0_Layer0_0_MEMBER_29_FILL">
<path fill="#D82C26" stroke="none" d="
M 2.25 21.2
Q 1.8 21.2 1.5 21.35 1.15 21.5 0.9 21.8 0.65 22.15 0.65 22.5 0.65 23.05 1 23.35 1.25 23.6 2 23.85 2.6 24.05 3.05 24.3 3.35 24.55 3.35 24.9 3.35 25.35 3 25.55 2.65 25.8 2.25 25.8 1.35 25.8 0.65 25.2
L 0.55 25.7
Q 0.8 25.95 1.3 26.1
L 2.3 26.25
Q 2.75 26.25 3.1 26.1 3.5 25.95 3.7 25.6 3.9 25.35 3.9 24.85 3.9 24.35 3.55 24 3.1 23.65 2.45 23.45
L 1.5 23.05
Q 1.2 22.85 1.2 22.45 1.2 22.1 1.5 21.85 1.9 21.65 2.25 21.65 2.65 21.65 2.95 21.8
L 3.5 22.15 3.75 21.7
Q 3.6 21.55 3.1 21.35 2.75 21.2 2.25 21.2 Z"/>
</g>

<g id="IT_300x600_FR_psd_Asset_V8_2_Les_solutions_de__r_seau_en_tant_que__service_peuvent_aider___0_Layer0_0_MEMBER_30_FILL">
<path fill="#D82C26" stroke="none" d="
M 4.85 22.4
Q 4.55 23 4.55 23.7 4.55 24.45 4.85 25.05 5.3 25.65 5.75 25.95 6.3 26.25 7 26.25 8.15 26.25 8.9 25.65
L 8.8 25.15
Q 8.5 25.45 8.05 25.6 7.45 25.8 7.05 25.8 6.5 25.8 6.05 25.5 5.6 25.25 5.4 24.8 5.15 24.3 5.15 23.8
L 9.2 23.8 9.2 23.55
Q 9.2 22.95 8.95 22.35 8.6 21.75 8.15 21.5 7.65 21.2 6.95 21.2 6.3 21.2 5.7 21.5 5.15 21.8 4.85 22.4
M 5.15 23.35
Q 5.15 23 5.4 22.6 5.55 22.2 6 21.9 6.4 21.65 6.95 21.65 7.7 21.65 8.15 22.1 8.6 22.6 8.65 23.35
L 5.15 23.35 Z"/>
</g>

<g id="IT_300x600_FR_psd_Asset_V8_2_Les_solutions_de__r_seau_en_tant_que__service_peuvent_aider___0_Layer0_0_MEMBER_31_FILL">
<path fill="#D82C26" stroke="none" d="
M 12.2 21.2
Q 11.8 21.2 11.4 21.5 11.05 21.8 10.8 22.35
L 10.75 21.35 10.15 21.35 10.2 26.1 10.8 26.1 10.8 23.75
Q 10.8 22.95 11.2 22.3 11.6 21.7 12.2 21.7
L 12.6 21.8 12.75 21.25 12.2 21.2 Z"/>
</g>

<g id="IT_300x600_FR_psd_Asset_V8_2_Les_solutions_de__r_seau_en_tant_que__service_peuvent_aider___0_Layer0_0_MEMBER_32_FILL">
<path fill="#D82C26" stroke="none" d="
M 12.9 21.35
L 14.75 26.1 15.45 26.1 17.2 21.35 16.6 21.35 15.1 25.5 13.55 21.35 12.9 21.35 Z"/>
</g>

<g id="IT_300x600_FR_psd_Asset_V8_2_Les_solutions_de__r_seau_en_tant_que__service_peuvent_aider___0_Layer0_0_MEMBER_33_FILL">
<path fill="#D82C26" stroke="none" d="
M 18.5 21.35
L 17.9 21.35 17.9 26.1 18.5 26.1 18.5 21.35
M 18.2 19.85
L 18.5 19.7
Q 18.65 19.65 18.65 19.4
L 18.5 19.1
Q 18.4 19 18.2 19 18 19 17.9 19.1
L 17.75 19.4
Q 17.75 19.65 17.9 19.7
L 18.2 19.85 Z"/>
</g>

<g id="IT_300x600_FR_psd_Asset_V8_2_Les_solutions_de__r_seau_en_tant_que__service_peuvent_aider___0_Layer0_0_MEMBER_34_FILL">
<path fill="#D82C26" stroke="none" d="
M 22.05 21.2
Q 21.35 21.2 20.75 21.5 20.15 21.9 19.85 22.4 19.5 23.1 19.5 23.75 19.5 24.35 19.85 25.05 20.15 25.65 20.75 25.95 21.3 26.25 22 26.25 22.5 26.25 22.95 26.1 23.4 25.95 23.65 25.7
L 23.55 25.2 22.9 25.6
Q 22.55 25.75 22.05 25.75 21.5 25.75 21.05 25.45 20.65 25.25 20.4 24.75 20.15 24.4 20.15 23.75 20.15 23.1 20.4 22.7 20.65 22.25 21.05 21.95 21.55 21.7 22.05 21.7
L 22.8 21.85
Q 23.1 21.9 23.4 22.2
L 23.65 21.75
Q 23.4 21.5 22.95 21.35 22.5 21.2 22.05 21.2 Z"/>
</g>

<g id="IT_300x600_FR_psd_Asset_V8_2_Les_solutions_de__r_seau_en_tant_que__service_peuvent_aider___0_Layer0_0_MEMBER_35_FILL">
<path fill="#D82C26" stroke="none" d="
M 24.35 22.4
Q 24.05 23 24.05 23.7 24.05 24.45 24.35 25.05 24.8 25.65 25.25 25.95 25.8 26.25 26.5 26.25 27.65 26.25 28.45 25.65
L 28.3 25.15
Q 28 25.45 27.55 25.6 26.95 25.8 26.55 25.8 26 25.8 25.55 25.5 25.1 25.25 24.9 24.8 24.65 24.3 24.65 23.8
L 28.7 23.8 28.7 23.55
Q 28.7 22.95 28.45 22.35 28.1 21.75 27.65 21.5 27.15 21.2 26.45 21.2 25.8 21.2 25.2 21.5 24.65 21.8 24.35 22.4
M 24.65 23.35
Q 24.65 23 24.9 22.6 25.05 22.2 25.5 21.9 25.9 21.65 26.45 21.65 27.2 21.65 27.65 22.1 28.15 22.7 28.15 23.35
L 24.65 23.35 Z"/>
</g>

<g id="IT_300x600_FR_psd_Asset_V8_2_Les_solutions_de__r_seau_en_tant_que__service_peuvent_aider___0_Layer0_0_MEMBER_36_FILL">
<path fill="#D82C26" stroke="none" d="
M 34.35 21.2
Q 33.75 21.2 33.2 21.5 32.6 21.85 32.4 22.4
L 32.35 22.4 32.3 21.35 31.75 21.35 31.75 28.6 32.35 28.6 32.35 25.1 32.4 25.1
Q 32.75 25.7 33.2 25.95 33.75 26.25 34.35 26.25 35.05 26.25 35.6 25.9 36.15 25.6 36.45 25 36.75 24.5 36.75 23.75 36.75 23 36.45 22.45 36.2 21.9 35.6 21.5 35 21.2 34.35 21.2
M 32.35 23.75
Q 32.35 23.2 32.6 22.7 32.8 22.3 33.25 21.95 33.75 21.7 34.25 21.7 34.75 21.7 35.25 21.95 35.7 22.3 35.9 22.7 36.1 23.1 36.1 23.75 36.1 24.35 35.9 24.75 35.7 25.15 35.25 25.5 34.75 25.75 34.25 25.75 33.75 25.75 33.25 25.5 32.8 25.15 32.6 24.75 32.35 24.25 32.35 23.75 Z"/>
</g>

<g id="IT_300x600_FR_psd_Asset_V8_2_Les_solutions_de__r_seau_en_tant_que__service_peuvent_aider___0_Layer0_0_MEMBER_37_FILL">
<path fill="#D82C26" stroke="none" d="
M 41.85 22.35
Q 41.6 21.8 41.1 21.5 40.6 21.2 39.85 21.2 39.2 21.2 38.65 21.5 38.1 21.8 37.8 22.4 37.5 23 37.5 23.7 37.5 24.45 37.8 25.05 38.1 25.55 38.65 25.95 39.25 26.25 39.95 26.25 41.05 26.25 41.85 25.65
L 41.75 25.15
Q 41.45 25.45 40.95 25.6 40.35 25.8 40 25.8 39.45 25.8 39 25.5 38.65 25.35 38.3 24.8 38.05 24.3 38.05 23.8
L 42.15 23.8 42.15 23.55
Q 42.15 22.9 41.85 22.35
M 41.1 22.1
Q 41.55 22.65 41.55 23.35
L 38.05 23.35
Q 38.15 22.85 38.3 22.6 38.55 22.2 38.9 21.9 39.4 21.65 39.85 21.65 40.65 21.65 41.1 22.1 Z"/>
</g>

<g id="IT_300x600_FR_psd_Asset_V8_2_Les_solutions_de__r_seau_en_tant_que__service_peuvent_aider___0_Layer0_0_MEMBER_38_FILL">
<path fill="#D82C26" stroke="none" d="
M 43.1 21.35
L 43.1 24.25
Q 43.1 25.15 43.5 25.7 43.95 26.25 44.85 26.25 45.4 26.25 45.9 25.95 46.35 25.65 46.6 25.1
L 46.65 26.15 47.25 26.1 47.15 25 47.15 21.35 46.6 21.35 46.6 23.7
Q 46.6 24.3 46.35 24.8 46.25 25.2 45.8 25.55 45.45 25.75 45 25.75 44.25 25.75 43.95 25.3 43.7 24.7 43.7 24.1
L 43.7 21.35 43.1 21.35 Z"/>
</g>

<g id="IT_300x600_FR_psd_Asset_V8_2_Les_solutions_de__r_seau_en_tant_que__service_peuvent_aider___0_Layer0_0_MEMBER_39_FILL">
<path fill="#D82C26" stroke="none" d="
M 47.85 21.35
L 49.7 26.1 50.4 26.1 52.15 21.35 51.55 21.35 50.05 25.5 48.5 21.35 47.85 21.35 Z"/>
</g>

<g id="IT_300x600_FR_psd_Asset_V8_2_Les_solutions_de__r_seau_en_tant_que__service_peuvent_aider___0_Layer0_0_MEMBER_40_FILL">
<path fill="#D82C26" stroke="none" d="
M 52.65 22.4
Q 52.35 23 52.35 23.7 52.35 24.5 52.7 25.05 53 25.55 53.55 25.95 54.1 26.25 54.8 26.25 55.95 26.25 56.75 25.65
L 56.65 25.15
Q 56.25 25.45 55.85 25.6 55.25 25.8 54.85 25.8 54.3 25.8 53.9 25.5 53.45 25.25 53.2 24.8 52.95 24.3 52.95 23.8
L 57 23.8 57 23.55
Q 57 22.8 56.75 22.35 56.4 21.75 55.95 21.5 55.45 21.2 54.75 21.2 54.1 21.2 53.55 21.5 53.05 21.75 52.65 22.4
M 53.8 21.9
Q 54.2 21.65 54.75 21.65 55.5 21.65 55.95 22.1 56.45 22.7 56.45 23.35
L 52.95 23.35
Q 52.95 23 53.2 22.6 53.35 22.3 53.8 21.9 Z"/>
</g>

<g id="IT_300x600_FR_psd_Asset_V8_2_Les_solutions_de__r_seau_en_tant_que__service_peuvent_aider___0_Layer0_0_MEMBER_41_FILL">
<path fill="#D82C26" stroke="none" d="
M 62.15 23.2
Q 62.15 22.35 61.7 21.75 61.25 21.2 60.35 21.2 59.85 21.2 59.3 21.5 58.75 21.95 58.65 22.35
L 58.6 22.35 58.55 21.35 58 21.35 58.05 26.1 58.65 26.1 58.65 23.7
Q 58.65 23 58.85 22.6 59.05 22.2 59.45 21.95 59.75 21.7 60.25 21.7 60.95 21.7 61.25 22.15 61.55 22.7 61.55 23.35
L 61.55 26.1 62.15 26.1 62.15 23.2 Z"/>
</g>

<g id="IT_300x600_FR_psd_Asset_V8_2_Les_solutions_de__r_seau_en_tant_que__service_peuvent_aider___0_Layer0_0_MEMBER_42_FILL">
<path fill="#D82C26" stroke="none" d="
M 65.5 21.35
L 64.15 21.35 64.15 19.95 63.55 20.2 63.55 21.35 62.75 21.35 62.65 21.8 63.55 21.8 63.55 24.95
Q 63.55 25.6 63.85 25.9 64.2 26.25 64.65 26.25
L 65.2 26.15 65.7 25.95 65.6 25.5
Q 65.1 25.75 64.85 25.75 64.55 25.75 64.35 25.55 64.15 25.35 64.15 24.9
L 64.15 21.8 65.4 21.8 65.5 21.35 Z"/>
</g>

<g id="IT_300x600_FR_psd_Asset_V8_2_Les_solutions_de__r_seau_en_tant_que__service_peuvent_aider___0_Layer0_0_MEMBER_43_FILL">
<path fill="#D82C26" stroke="none" d="
M 70 21.2
Q 69.55 21.2 69 21.35 68.6 21.5 68.2 21.8
L 68.4 22.25
Q 68.8 21.95 69.1 21.85 69.5 21.65 69.9 21.65 70.55 21.65 70.9 22 71.25 22.3 71.25 22.95
L 71.25 23.25 70.7 23.25
Q 67.95 23.25 67.95 24.85 67.95 25.55 68.4 25.9 68.8 26.25 69.45 26.25 69.95 26.25 70.55 26 71 25.75 71.25 25.2
L 71.3 25.2 71.3 25.7 71.35 26.1 71.9 26.1 71.85 23
Q 71.85 22.15 71.35 21.65 70.85 21.2 70 21.2
M 71.25 23.65
L 71.25 24.15 71.1 24.9
Q 70.9 25.3 70.5 25.55 70.1 25.8 69.6 25.8 69.1 25.8 68.85 25.55 68.5 25.35 68.5 24.8 68.5 23.65 70.75 23.65
L 71.25 23.65 Z"/>
</g>

<g id="IT_300x600_FR_psd_Asset_V8_2_Les_solutions_de__r_seau_en_tant_que__service_peuvent_aider___0_Layer0_0_MEMBER_44_FILL">
<path fill="#D82C26" stroke="none" d="
M 73.75 21.35
L 73.15 21.35 73.15 26.1 73.75 26.1 73.75 21.35
M 73.75 19.1
Q 73.65 19 73.45 19 73.2 19 73.15 19.1
L 73 19.4
Q 73 19.65 73.15 19.7 73.25 19.85 73.45 19.85
L 73.75 19.7 73.85 19.4 73.75 19.1 Z"/>
</g>

<g id="IT_300x600_FR_psd_Asset_V8_2_Les_solutions_de__r_seau_en_tant_que__service_peuvent_aider___0_Layer0_0_MEMBER_45_FILL">
<path fill="#D82C26" stroke="none" d="
M 79.75 18.25
L 79.15 18.4 79.15 22.35 79.1 22.35
Q 78.9 21.85 78.3 21.5 77.8 21.2 77.2 21.2 76.5 21.2 75.95 21.5 75.4 21.85 75.1 22.45 74.75 23 74.75 23.75 74.75 24.5 75.1 25 75.4 25.65 75.95 25.9 76.45 26.25 77.2 26.25 77.8 26.25 78.3 25.95 78.85 25.65 79.15 25.1
L 79.2 26.1 79.8 26.1 79.75 18.25
M 75.4 23.75
Q 75.4 23.1 75.6 22.7 75.8 22.3 76.25 21.95 76.75 21.7 77.25 21.7 77.75 21.7 78.25 21.95 78.65 22.25 78.9 22.7 79.15 23.1 79.15 23.75 79.15 24.4 78.9 24.75 78.65 25.25 78.25 25.5 77.75 25.75 77.25 25.75 76.75 25.75 76.25 25.5 75.8 25.15 75.6 24.75 75.4 24.35 75.4 23.75 Z"/>
</g>

<g id="IT_300x600_FR_psd_Asset_V8_2_Les_solutions_de__r_seau_en_tant_que__service_peuvent_aider___0_Layer0_0_MEMBER_46_FILL">
<path fill="#D82C26" stroke="none" d="
M 83.15 21.2
Q 82.5 21.2 81.95 21.5 81.4 21.8 81.1 22.4 80.8 23 80.8 23.7 80.8 24.45 81.1 25.05 81.4 25.55 81.95 25.95 82.55 26.25 83.25 26.25 84.35 26.25 85.15 25.65
L 85.05 25.15
Q 84.75 25.45 84.25 25.6 83.65 25.8 83.3 25.8 82.75 25.8 82.3 25.5 81.95 25.35 81.6 24.8 81.35 24.3 81.35 23.8
L 85.45 23.8 85.45 23.55
Q 85.45 22.9 85.15 22.35 84.9 21.8 84.4 21.5 83.9 21.2 83.15 21.2
M 81.35 23.35
Q 81.45 22.85 81.6 22.6 81.85 22.2 82.2 21.9 82.7 21.65 83.15 21.65 83.9 21.65 84.4 22.1 84.85 22.65 84.85 23.35
L 81.35 23.35 Z"/>
</g>

<g id="IT_300x600_FR_psd_Asset_V8_2_Les_solutions_de__r_seau_en_tant_que__service_peuvent_aider___0_Layer0_0_MEMBER_47_FILL">
<path fill="#D82C26" stroke="none" d="
M 86.95 21.35
L 86.4 21.35 86.45 26.1 87.05 26.1 87.05 23.75
Q 87.05 22.85 87.4 22.3 87.8 21.7 88.4 21.7
L 88.85 21.8 88.95 21.25 88.45 21.2
Q 88.05 21.2 87.6 21.5 87.2 21.8 87.05 22.35
L 87 22.35 86.95 21.35 Z"/>
</g>

<g id="IT_300x600_FR_psd_Asset_V8_2_Les_solutions_de__r_seau_en_tant_que__service_peuvent_aider___0_Layer0_0_MEMBER_48_FILL">
<path fill="#D82C26" stroke="none" d="
M 88.95 26.05
L 89.25 26.2
Q 89.45 26.2 89.6 26.05 89.75 25.9 89.75 25.7
L 89.6 25.4
Q 89.45 25.25 89.25 25.25
L 88.95 25.4 88.8 25.7
Q 88.8 25.9 88.95 26.05 Z"/>
</g>
</defs>

<g transform="matrix( 1, 0, 0, 1, -118,42) ">
<g transform="matrix( 1, 0, 0, 1, 113,0) ">
<g transform="matrix( 1, 0, 0, 1, 34,6) ">
<g transform="matrix( 2.815704345703125, 0, 0, 2.832611083984375, -0.85,22.6) ">
<use xlink:href="#IT_300x600_FR_psd_Asset_V8_2_Les_solutions_de__r_seau_en_tant_que__service_peuvent_aider___0_Layer0_0_MEMBER_0_FILL"/>
</g>

<g transform="matrix( 2.815704345703125, 0, 0, 2.832611083984375, -0.85,22.6) ">
<use xlink:href="#IT_300x600_FR_psd_Asset_V8_2_Les_solutions_de__r_seau_en_tant_que__service_peuvent_aider___0_Layer0_0_MEMBER_1_FILL"/>
</g>

<g transform="matrix( 2.815704345703125, 0, 0, 2.832611083984375, -0.85,22.6) ">
<use xlink:href="#IT_300x600_FR_psd_Asset_V8_2_Les_solutions_de__r_seau_en_tant_que__service_peuvent_aider___0_Layer0_0_MEMBER_2_FILL"/>
</g>

<g transform="matrix( 2.815704345703125, 0, 0, 2.832611083984375, -0.85,22.6) ">
<use xlink:href="#IT_300x600_FR_psd_Asset_V8_2_Les_solutions_de__r_seau_en_tant_que__service_peuvent_aider___0_Layer0_0_MEMBER_3_FILL"/>
</g>

<g transform="matrix( 2.815704345703125, 0, 0, 2.832611083984375, -0.85,22.6) ">
<use xlink:href="#IT_300x600_FR_psd_Asset_V8_2_Les_solutions_de__r_seau_en_tant_que__service_peuvent_aider___0_Layer0_0_MEMBER_4_FILL"/>
</g>

<g transform="matrix( 2.815704345703125, 0, 0, 2.832611083984375, -0.85,22.6) ">
<use xlink:href="#IT_300x600_FR_psd_Asset_V8_2_Les_solutions_de__r_seau_en_tant_que__service_peuvent_aider___0_Layer0_0_MEMBER_5_FILL"/>
</g>

<g transform="matrix( 2.815704345703125, 0, 0, 2.832611083984375, -0.85,22.6) ">
<use xlink:href="#IT_300x600_FR_psd_Asset_V8_2_Les_solutions_de__r_seau_en_tant_que__service_peuvent_aider___0_Layer0_0_MEMBER_6_FILL"/>
</g>

<g transform="matrix( 2.815704345703125, 0, 0, 2.832611083984375, -0.85,22.6) ">
<use xlink:href="#IT_300x600_FR_psd_Asset_V8_2_Les_solutions_de__r_seau_en_tant_que__service_peuvent_aider___0_Layer0_0_MEMBER_7_FILL"/>
</g>

<g transform="matrix( 2.815704345703125, 0, 0, 2.832611083984375, -0.85,22.6) ">
<use xlink:href="#IT_300x600_FR_psd_Asset_V8_2_Les_solutions_de__r_seau_en_tant_que__service_peuvent_aider___0_Layer0_0_MEMBER_8_FILL"/>
</g>

<g transform="matrix( 2.815704345703125, 0, 0, 2.832611083984375, -0.85,22.6) ">
<use xlink:href="#IT_300x600_FR_psd_Asset_V8_2_Les_solutions_de__r_seau_en_tant_que__service_peuvent_aider___0_Layer0_0_MEMBER_9_FILL"/>
</g>

<g transform="matrix( 2.815704345703125, 0, 0, 2.832611083984375, -0.85,22.6) ">
<use xlink:href="#IT_300x600_FR_psd_Asset_V8_2_Les_solutions_de__r_seau_en_tant_que__service_peuvent_aider___0_Layer0_0_MEMBER_10_FILL"/>
</g>

<g transform="matrix( 2.815704345703125, 0, 0, 2.832611083984375, -0.85,22.6) ">
<use xlink:href="#IT_300x600_FR_psd_Asset_V8_2_Les_solutions_de__r_seau_en_tant_que__service_peuvent_aider___0_Layer0_0_MEMBER_11_FILL"/>
</g>

<g transform="matrix( 2.815704345703125, 0, 0, 2.832611083984375, -0.85,22.6) ">
<use xlink:href="#IT_300x600_FR_psd_Asset_V8_2_Les_solutions_de__r_seau_en_tant_que__service_peuvent_aider___0_Layer0_0_MEMBER_12_FILL"/>
</g>

<g transform="matrix( 2.815704345703125, 0, 0, 2.832611083984375, -0.85,22.6) ">
<use xlink:href="#IT_300x600_FR_psd_Asset_V8_2_Les_solutions_de__r_seau_en_tant_que__service_peuvent_aider___0_Layer0_0_MEMBER_13_FILL"/>
</g>

<g transform="matrix( 2.815704345703125, 0, 0, 2.832611083984375, -0.85,22.6) ">
<use xlink:href="#IT_300x600_FR_psd_Asset_V8_2_Les_solutions_de__r_seau_en_tant_que__service_peuvent_aider___0_Layer0_0_MEMBER_14_FILL"/>
</g>

<g transform="matrix( 2.815704345703125, 0, 0, 2.832611083984375, -0.85,22.6) ">
<use xlink:href="#IT_300x600_FR_psd_Asset_V8_2_Les_solutions_de__r_seau_en_tant_que__service_peuvent_aider___0_Layer0_0_MEMBER_15_FILL"/>
</g>

<g transform="matrix( 2.815704345703125, 0, 0, 2.832611083984375, -0.85,22.6) ">
<use xlink:href="#IT_300x600_FR_psd_Asset_V8_2_Les_solutions_de__r_seau_en_tant_que__service_peuvent_aider___0_Layer0_0_MEMBER_16_FILL"/>
</g>

<g transform="matrix( 2.815704345703125, 0, 0, 2.832611083984375, -0.85,22.6) ">
<use xlink:href="#IT_300x600_FR_psd_Asset_V8_2_Les_solutions_de__r_seau_en_tant_que__service_peuvent_aider___0_Layer0_0_MEMBER_17_FILL"/>
</g>

<g transform="matrix( 2.815704345703125, 0, 0, 2.832611083984375, -0.85,22.6) ">
<use xlink:href="#IT_300x600_FR_psd_Asset_V8_2_Les_solutions_de__r_seau_en_tant_que__service_peuvent_aider___0_Layer0_0_MEMBER_18_FILL"/>
</g>

<g transform="matrix( 2.815704345703125, 0, 0, 2.832611083984375, -0.85,22.6) ">
<use xlink:href="#IT_300x600_FR_psd_Asset_V8_2_Les_solutions_de__r_seau_en_tant_que__service_peuvent_aider___0_Layer0_0_MEMBER_19_FILL"/>
</g>

<g transform="matrix( 2.815704345703125, 0, 0, 2.832611083984375, -0.85,22.6) ">
<use xlink:href="#IT_300x600_FR_psd_Asset_V8_2_Les_solutions_de__r_seau_en_tant_que__service_peuvent_aider___0_Layer0_0_MEMBER_20_FILL"/>
</g>

<g transform="matrix( 2.815704345703125, 0, 0, 2.832611083984375, -0.85,22.6) ">
<use xlink:href="#IT_300x600_FR_psd_Asset_V8_2_Les_solutions_de__r_seau_en_tant_que__service_peuvent_aider___0_Layer0_0_MEMBER_21_FILL"/>
</g>

<g transform="matrix( 2.815704345703125, 0, 0, 2.832611083984375, -0.85,22.6) ">
<use xlink:href="#IT_300x600_FR_psd_Asset_V8_2_Les_solutions_de__r_seau_en_tant_que__service_peuvent_aider___0_Layer0_0_MEMBER_22_FILL"/>
</g>

<g transform="matrix( 2.815704345703125, 0, 0, 2.832611083984375, -0.85,22.6) ">
<use xlink:href="#IT_300x600_FR_psd_Asset_V8_2_Les_solutions_de__r_seau_en_tant_que__service_peuvent_aider___0_Layer0_0_MEMBER_23_FILL"/>
</g>

<g transform="matrix( 2.815704345703125, 0, 0, 2.832611083984375, -0.85,22.6) ">
<use xlink:href="#IT_300x600_FR_psd_Asset_V8_2_Les_solutions_de__r_seau_en_tant_que__service_peuvent_aider___0_Layer0_0_MEMBER_24_FILL"/>
</g>

<g transform="matrix( 2.815704345703125, 0, 0, 2.832611083984375, -0.85,22.6) ">
<use xlink:href="#IT_300x600_FR_psd_Asset_V8_2_Les_solutions_de__r_seau_en_tant_que__service_peuvent_aider___0_Layer0_0_MEMBER_25_FILL"/>
</g>

<g transform="matrix( 2.815704345703125, 0, 0, 2.832611083984375, -0.85,22.6) ">
<use xlink:href="#IT_300x600_FR_psd_Asset_V8_2_Les_solutions_de__r_seau_en_tant_que__service_peuvent_aider___0_Layer0_0_MEMBER_26_FILL"/>
</g>

<g transform="matrix( 2.815704345703125, 0, 0, 2.832611083984375, -0.85,22.6) ">
<use xlink:href="#IT_300x600_FR_psd_Asset_V8_2_Les_solutions_de__r_seau_en_tant_que__service_peuvent_aider___0_Layer0_0_MEMBER_27_FILL"/>
</g>

<g transform="matrix( 2.815704345703125, 0, 0, 2.832611083984375, -0.85,22.6) ">
<use xlink:href="#IT_300x600_FR_psd_Asset_V8_2_Les_solutions_de__r_seau_en_tant_que__service_peuvent_aider___0_Layer0_0_MEMBER_28_FILL"/>
</g>

<g transform="matrix( 2.815704345703125, 0, 0, 2.832611083984375, -0.85,22.6) ">
<use xlink:href="#IT_300x600_FR_psd_Asset_V8_2_Les_solutions_de__r_seau_en_tant_que__service_peuvent_aider___0_Layer0_0_MEMBER_29_FILL"/>
</g>

<g transform="matrix( 2.815704345703125, 0, 0, 2.832611083984375, -0.85,22.6) ">
<use xlink:href="#IT_300x600_FR_psd_Asset_V8_2_Les_solutions_de__r_seau_en_tant_que__service_peuvent_aider___0_Layer0_0_MEMBER_30_FILL"/>
</g>

<g transform="matrix( 2.815704345703125, 0, 0, 2.832611083984375, -0.85,22.6) ">
<use xlink:href="#IT_300x600_FR_psd_Asset_V8_2_Les_solutions_de__r_seau_en_tant_que__service_peuvent_aider___0_Layer0_0_MEMBER_31_FILL"/>
</g>

<g transform="matrix( 2.815704345703125, 0, 0, 2.832611083984375, -0.85,22.6) ">
<use xlink:href="#IT_300x600_FR_psd_Asset_V8_2_Les_solutions_de__r_seau_en_tant_que__service_peuvent_aider___0_Layer0_0_MEMBER_32_FILL"/>
</g>

<g transform="matrix( 2.815704345703125, 0, 0, 2.832611083984375, -0.85,22.6) ">
<use xlink:href="#IT_300x600_FR_psd_Asset_V8_2_Les_solutions_de__r_seau_en_tant_que__service_peuvent_aider___0_Layer0_0_MEMBER_33_FILL"/>
</g>

<g transform="matrix( 2.815704345703125, 0, 0, 2.832611083984375, -0.85,22.6) ">
<use xlink:href="#IT_300x600_FR_psd_Asset_V8_2_Les_solutions_de__r_seau_en_tant_que__service_peuvent_aider___0_Layer0_0_MEMBER_34_FILL"/>
</g>

<g transform="matrix( 2.815704345703125, 0, 0, 2.832611083984375, -0.85,22.6) ">
<use xlink:href="#IT_300x600_FR_psd_Asset_V8_2_Les_solutions_de__r_seau_en_tant_que__service_peuvent_aider___0_Layer0_0_MEMBER_35_FILL"/>
</g>

<g transform="matrix( 2.815704345703125, 0, 0, 2.832611083984375, -0.85,22.6) ">
<use xlink:href="#IT_300x600_FR_psd_Asset_V8_2_Les_solutions_de__r_seau_en_tant_que__service_peuvent_aider___0_Layer0_0_MEMBER_36_FILL"/>
</g>

<g transform="matrix( 2.815704345703125, 0, 0, 2.832611083984375, -0.85,22.6) ">
<use xlink:href="#IT_300x600_FR_psd_Asset_V8_2_Les_solutions_de__r_seau_en_tant_que__service_peuvent_aider___0_Layer0_0_MEMBER_37_FILL"/>
</g>

<g transform="matrix( 2.815704345703125, 0, 0, 2.832611083984375, -0.85,22.6) ">
<use xlink:href="#IT_300x600_FR_psd_Asset_V8_2_Les_solutions_de__r_seau_en_tant_que__service_peuvent_aider___0_Layer0_0_MEMBER_38_FILL"/>
</g>

<g transform="matrix( 2.815704345703125, 0, 0, 2.832611083984375, -0.85,22.6) ">
<use xlink:href="#IT_300x600_FR_psd_Asset_V8_2_Les_solutions_de__r_seau_en_tant_que__service_peuvent_aider___0_Layer0_0_MEMBER_39_FILL"/>
</g>

<g transform="matrix( 2.815704345703125, 0, 0, 2.832611083984375, -0.85,22.6) ">
<use xlink:href="#IT_300x600_FR_psd_Asset_V8_2_Les_solutions_de__r_seau_en_tant_que__service_peuvent_aider___0_Layer0_0_MEMBER_40_FILL"/>
</g>

<g transform="matrix( 2.815704345703125, 0, 0, 2.832611083984375, -0.85,22.6) ">
<use xlink:href="#IT_300x600_FR_psd_Asset_V8_2_Les_solutions_de__r_seau_en_tant_que__service_peuvent_aider___0_Layer0_0_MEMBER_41_FILL"/>
</g>

<g transform="matrix( 2.815704345703125, 0, 0, 2.832611083984375, -0.85,22.6) ">
<use xlink:href="#IT_300x600_FR_psd_Asset_V8_2_Les_solutions_de__r_seau_en_tant_que__service_peuvent_aider___0_Layer0_0_MEMBER_42_FILL"/>
</g>

<g transform="matrix( 2.815704345703125, 0, 0, 2.832611083984375, -0.85,22.6) ">
<use xlink:href="#IT_300x600_FR_psd_Asset_V8_2_Les_solutions_de__r_seau_en_tant_que__service_peuvent_aider___0_Layer0_0_MEMBER_43_FILL"/>
</g>

<g transform="matrix( 2.815704345703125, 0, 0, 2.832611083984375, -0.85,22.6) ">
<use xlink:href="#IT_300x600_FR_psd_Asset_V8_2_Les_solutions_de__r_seau_en_tant_que__service_peuvent_aider___0_Layer0_0_MEMBER_44_FILL"/>
</g>

<g transform="matrix( 2.815704345703125, 0, 0, 2.832611083984375, -0.85,22.6) ">
<use xlink:href="#IT_300x600_FR_psd_Asset_V8_2_Les_solutions_de__r_seau_en_tant_que__service_peuvent_aider___0_Layer0_0_MEMBER_45_FILL"/>
</g>

<g transform="matrix( 2.815704345703125, 0, 0, 2.832611083984375, -0.85,22.6) ">
<use xlink:href="#IT_300x600_FR_psd_Asset_V8_2_Les_solutions_de__r_seau_en_tant_que__service_peuvent_aider___0_Layer0_0_MEMBER_46_FILL"/>
</g>

<g transform="matrix( 2.815704345703125, 0, 0, 2.832611083984375, -0.85,22.6) ">
<use xlink:href="#IT_300x600_FR_psd_Asset_V8_2_Les_solutions_de__r_seau_en_tant_que__service_peuvent_aider___0_Layer0_0_MEMBER_47_FILL"/>
</g>

<g transform="matrix( 2.815704345703125, 0, 0, 2.832611083984375, -0.85,22.6) ">
<use xlink:href="#IT_300x600_FR_psd_Asset_V8_2_Les_solutions_de__r_seau_en_tant_que__service_peuvent_aider___0_Layer0_0_MEMBER_48_FILL"/>
</g>
</g>
</g>
</g>
</svg>
