
<svg xmlns="http://www.w3.org/2000/svg" version="1.1" xmlns:xlink="http://www.w3.org/1999/xlink" preserveAspectRatio="none" x="0px" y="0px" width="300px" height="600px" viewBox="0 0 300 600">
<defs>
<g id="BDM_300x600_FR_psd_Asset_5_V7_1_Vous_souhaitez__en_savoir_plus_sur__votre_client_le__0_Layer0_0_MEMBER_0_FILL">
<path fill="#D82C26" stroke="none" d="
M 0.8 -7.5
L 0.1 -7.5 2.9 0 3.65 0 6.5 -7.5 5.8 -7.5 3.3 -0.75 0.8 -7.5 Z"/>
</g>

<g id="BDM_300x600_FR_psd_Asset_5_V7_1_Vous_souhaitez__en_savoir_plus_sur__votre_client_le__0_Layer0_0_MEMBER_1_FILL">
<path fill="#D82C26" stroke="none" d="
M 9 -5.1
Q 8.2 -5.1 7.65 -4.8 6.95 -4.35 6.7 -3.85 6.35 -3.3 6.35 -2.5 6.35 -1.7 6.7 -1.15 7 -0.5 7.65 -0.2 8.15 0.15 9 0.15 9.8 0.15 10.35 -0.2 10.85 -0.45 11.3 -1.15 11.6 -1.75 11.6 -2.5 11.6 -3.25 11.3 -3.85 10.95 -4.45 10.35 -4.8 9.75 -5.1 9 -5.1
M 9 -4.6
Q 9.6 -4.6 10.05 -4.3 10.55 -3.95 10.75 -3.55 11 -3.05 11 -2.5 11 -1.95 10.75 -1.45 10.55 -1 10.05 -0.65 9.55 -0.4 9 -0.4 8.4 -0.4 7.9 -0.65 7.4 -1 7.2 -1.45 6.95 -1.95 6.95 -2.5 6.95 -3.05 7.2 -3.55 7.4 -3.95 7.9 -4.3 8.35 -4.6 9 -4.6 Z"/>
</g>

<g id="BDM_300x600_FR_psd_Asset_5_V7_1_Vous_souhaitez__en_savoir_plus_sur__votre_client_le__0_Layer0_0_MEMBER_2_FILL">
<path fill="#D82C26" stroke="none" d="
M 12.7 -1.95
Q 12.7 -1.05 13.15 -0.45 13.6 0.15 14.55 0.15 15.2 0.15 15.6 -0.2 16.1 -0.5 16.35 -1.05
L 16.45 0 17.05 0 16.95 -1.15 16.95 -4.95 16.35 -4.95 16.35 -2.5
Q 16.35 -1.85 16.1 -1.35 15.95 -0.95 15.55 -0.6 15.15 -0.35 14.7 -0.35 14 -0.35 13.65 -0.85 13.35 -1.35 13.35 -2.1
L 13.35 -4.95 12.7 -4.95 12.7 -1.95 Z"/>
</g>

<g id="BDM_300x600_FR_psd_Asset_5_V7_1_Vous_souhaitez__en_savoir_plus_sur__votre_client_le__0_Layer0_0_MEMBER_3_FILL">
<path fill="#D82C26" stroke="none" d="
M 19.05 -4.4
Q 19.3 -4.6 19.85 -4.6
L 20.55 -4.5 21.1 -4.15 21.4 -4.6 20.7 -4.95
Q 20.25 -5.1 19.8 -5.1 19.4 -5.1 19 -4.95 18.65 -4.8 18.4 -4.5 18.15 -4.15 18.15 -3.75 18.15 -3.25 18.5 -2.9 18.95 -2.55 19.55 -2.35 20.3 -2.1 20.6 -1.9 20.95 -1.7 20.95 -1.3 20.95 -0.8 20.6 -0.6 20.25 -0.35 19.85 -0.35 18.9 -0.35 18.2 -0.95
L 18.05 -0.4
Q 18.4 -0.1 18.85 0 19.3 0.15 19.85 0.15 20.3 0.15 20.65 -0.05 21.05 -0.2 21.3 -0.5 21.55 -0.9 21.55 -1.3 21.55 -1.8 21.15 -2.2 20.7 -2.55 20 -2.75 19.25 -3 19.05 -3.2 18.75 -3.4 18.75 -3.8 18.75 -4.15 19.05 -4.4 Z"/>
</g>

<g id="BDM_300x600_FR_psd_Asset_5_V7_1_Vous_souhaitez__en_savoir_plus_sur__votre_client_le__0_Layer0_0_MEMBER_4_FILL">
<path fill="#D82C26" stroke="none" d="
M 24.55 -0.95
L 24.45 -0.4
Q 24.8 -0.15 25.2 0 25.75 0.15 26.2 0.15 26.7 0.15 27.05 -0.05 27.45 -0.2 27.65 -0.5 27.9 -0.8 27.9 -1.3 27.9 -1.85 27.55 -2.2 27.15 -2.55 26.4 -2.75 25.75 -2.95 25.4 -3.2 25.1 -3.4 25.1 -3.8 25.1 -4.15 25.45 -4.4 25.7 -4.6 26.2 -4.6
L 26.9 -4.5 27.5 -4.15 27.75 -4.6
Q 27.6 -4.75 27.05 -4.95 26.7 -5.1 26.2 -5.1 25.8 -5.1 25.4 -4.95 25.05 -4.8 24.8 -4.5 24.55 -4.25 24.55 -3.75 24.55 -3.2 24.9 -2.9 25.2 -2.6 25.95 -2.35 26.7 -2.1 27 -1.9 27.3 -1.65 27.3 -1.3 27.3 -0.8 27 -0.6 26.6 -0.35 26.2 -0.35 25.25 -0.35 24.55 -0.95 Z"/>
</g>

<g id="BDM_300x600_FR_psd_Asset_5_V7_1_Vous_souhaitez__en_savoir_plus_sur__votre_client_le__0_Layer0_0_MEMBER_5_FILL">
<path fill="#D82C26" stroke="none" d="
M 29 -1.15
Q 29.45 -0.45 29.95 -0.2 30.5 0.15 31.3 0.15 32.1 0.15 32.65 -0.2 33.15 -0.45 33.6 -1.15 33.95 -1.7 33.95 -2.5 33.95 -3.3 33.6 -3.85 33.25 -4.45 32.65 -4.8 32.05 -5.1 31.3 -5.1 30.55 -5.1 29.95 -4.8 29.35 -4.45 29 -3.85 28.65 -3.15 28.65 -2.5 28.65 -1.85 29 -1.15
M 29.55 -3.55
Q 29.75 -3.95 30.25 -4.3 30.7 -4.6 31.3 -4.6 31.9 -4.6 32.35 -4.3 32.85 -3.95 33.05 -3.55 33.3 -3.15 33.3 -2.5 33.3 -1.85 33.1 -1.45 32.8 -0.9 32.35 -0.65 31.85 -0.4 31.3 -0.4 30.75 -0.4 30.25 -0.65 29.75 -1 29.55 -1.45 29.3 -1.8 29.3 -2.5 29.3 -3.15 29.55 -3.55 Z"/>
</g>

<g id="BDM_300x600_FR_psd_Asset_5_V7_1_Vous_souhaitez__en_savoir_plus_sur__votre_client_le__0_Layer0_0_MEMBER_6_FILL">
<path fill="#D82C26" stroke="none" d="
M 35.05 -4.95
L 35.05 -1.95
Q 35.05 -1.05 35.5 -0.45 35.9 0.15 36.85 0.15 37.45 0.15 37.95 -0.2 38.4 -0.45 38.65 -1.05
L 38.75 0 39.35 0 39.3 -4.95 38.65 -4.95 38.65 -2.5
Q 38.65 -1.75 38.45 -1.35 38.25 -0.9 37.85 -0.6 37.45 -0.35 37 -0.35 36.3 -0.35 35.95 -0.85 35.65 -1.35 35.65 -2.1
L 35.65 -4.95 35.05 -4.95 Z"/>
</g>

<g id="BDM_300x600_FR_psd_Asset_5_V7_1_Vous_souhaitez__en_savoir_plus_sur__votre_client_le__0_Layer0_0_MEMBER_7_FILL">
<path fill="#D82C26" stroke="none" d="
M 41.4 -8.1
L 40.8 -8 40.8 0 41.4 0 41.4 -2.4
Q 41.4 -3 41.65 -3.6 41.9 -4.05 42.25 -4.35 42.65 -4.6 43.05 -4.6 43.75 -4.6 44.1 -4.1 44.4 -3.55 44.4 -2.85
L 44.4 0 45.05 0 45.05 -3.05
Q 45.05 -3.95 44.6 -4.5 44.15 -5.1 43.2 -5.1 42.6 -5.1 42.15 -4.8 41.55 -4.4 41.45 -3.9
L 41.4 -3.9 41.4 -8.1 Z"/>
</g>

<g id="BDM_300x600_FR_psd_Asset_5_V7_1_Vous_souhaitez__en_savoir_plus_sur__votre_client_le__0_Layer0_0_MEMBER_8_FILL">
<path fill="#D82C26" stroke="none" d="
M 49.2 -4.25
Q 49.55 -3.95 49.55 -3.25
L 49.55 -3 48.95 -3
Q 46.1 -3 46.1 -1.35 46.1 -0.6 46.6 -0.25 47.1 0.15 47.7 0.15 48.3 0.15 48.8 -0.15 49.35 -0.45 49.55 -0.95
L 49.6 -0.95 49.65 0 50.2 0 50.15 -3.2
Q 50.15 -4.05 49.65 -4.65 49.15 -5.1 48.25 -5.1
L 47.2 -4.95
Q 46.7 -4.75 46.4 -4.5
L 46.55 -4 47.3 -4.45
Q 47.75 -4.6 48.15 -4.6 48.85 -4.6 49.2 -4.25
M 47.05 -0.6
Q 46.7 -0.8 46.7 -1.35 46.7 -2.55 49.05 -2.55
L 49.55 -2.55 49.55 -2.05
Q 49.55 -1.6 49.35 -1.25 49.2 -0.8 48.75 -0.6 48.45 -0.35 47.8 -0.35 47.3 -0.35 47.05 -0.6 Z"/>
</g>

<g id="BDM_300x600_FR_psd_Asset_5_V7_1_Vous_souhaitez__en_savoir_plus_sur__votre_client_le__0_Layer0_0_MEMBER_9_FILL">
<path fill="#D82C26" stroke="none" d="
M 52.2 -4.95
L 51.55 -4.95 51.55 0 52.2 0 52.2 -4.95
M 51.9 -6.5
L 52.2 -6.6
Q 52.3 -6.7 52.3 -6.95 52.3 -7.2 52.2 -7.25
L 51.9 -7.4
Q 51.7 -7.4 51.55 -7.25
L 51.45 -6.95 51.55 -6.6 51.9 -6.5 Z"/>
</g>

<g id="BDM_300x600_FR_psd_Asset_5_V7_1_Vous_souhaitez__en_savoir_plus_sur__votre_client_le__0_Layer0_0_MEMBER_10_FILL">
<path fill="#D82C26" stroke="none" d="
M 53.9 -6.15
L 53.9 -4.95 53.1 -4.95 53 -4.45 53.9 -4.45 53.9 -1.2
Q 53.9 -0.55 54.25 -0.25 54.55 0.1 55.05 0.1
L 55.65 0.05 56.15 -0.15 56.05 -0.6
Q 55.45 -0.4 55.25 -0.4 54.9 -0.4 54.75 -0.6 54.55 -0.8 54.55 -1.3
L 54.55 -4.45 55.8 -4.45 55.95 -4.95 54.55 -4.95 54.55 -6.4 53.9 -6.15 Z"/>
</g>

<g id="BDM_300x600_FR_psd_Asset_5_V7_1_Vous_souhaitez__en_savoir_plus_sur__votre_client_le__0_Layer0_0_MEMBER_11_FILL">
<path fill="#D82C26" stroke="none" d="
M 60.15 -4.8
Q 59.65 -5.1 58.85 -5.1 58.2 -5.1 57.6 -4.8 57 -4.4 56.75 -3.85 56.4 -3.3 56.4 -2.5 56.4 -1.7 56.75 -1.15 57.1 -0.5 57.65 -0.2 58.2 0.15 58.95 0.15 60.15 0.15 60.95 -0.5
L 60.85 -1
Q 60.45 -0.7 60 -0.55 59.6 -0.35 59 -0.35 58.45 -0.35 58 -0.65 57.55 -0.9 57.3 -1.35 57 -1.85 57 -2.4
L 61.2 -2.4 61.25 -2.65
Q 61.25 -3.3 60.95 -3.9 60.65 -4.45 60.15 -4.8
M 58.85 -4.65
Q 59.55 -4.65 60.15 -4.15 60.6 -3.65 60.65 -2.85
L 57.05 -2.85
Q 57.05 -3.3 57.25 -3.65 57.45 -4.05 57.9 -4.35 58.3 -4.65 58.85 -4.65 Z"/>
</g>

<g id="BDM_300x600_FR_psd_Asset_5_V7_1_Vous_souhaitez__en_savoir_plus_sur__votre_client_le__0_Layer0_0_MEMBER_12_FILL">
<path fill="#D82C26" stroke="none" d="
M 64.9 -4.45
L 61.85 -0.5 61.85 0 65.7 0 65.8 -0.5 62.6 -0.5 65.6 -4.45 65.6 -4.95 62 -4.95 61.9 -4.45 64.9 -4.45 Z"/>
</g>

<g id="BDM_300x600_FR_psd_Asset_5_V7_1_Vous_souhaitez__en_savoir_plus_sur__votre_client_le__0_Layer0_0_MEMBER_13_FILL">
<path fill="#D82C26" stroke="none" d="
M 4.35 7.9
Q 3.75 7.6 3.05 7.6 2.3 7.6 1.8 7.95 1.3 8.25 0.9 8.85 0.6 9.45 0.6 10.2 0.6 10.95 0.9 11.6 1.3 12.2 1.85 12.5 2.35 12.85 3.15 12.85 4.3 12.85 5.1 12.25
L 5 11.7
Q 4.75 12 4.2 12.15 3.8 12.35 3.2 12.35 2.6 12.35 2.15 12.05 1.8 11.9 1.45 11.35 1.2 10.85 1.2 10.3
L 5.4 10.3 5.4 10.05
Q 5.4 9.45 5.15 8.8 4.85 8.25 4.35 7.9
M 3.05 8.1
Q 3.85 8.1 4.3 8.55 4.8 9.05 4.8 9.85
L 1.2 9.85
Q 1.2 9.55 1.45 9.05 1.7 8.6 2.1 8.35 2.4 8.1 3.05 8.1 Z"/>
</g>

<g id="BDM_300x600_FR_psd_Asset_5_V7_1_Vous_souhaitez__en_savoir_plus_sur__votre_client_le__0_Layer0_0_MEMBER_14_FILL">
<path fill="#D82C26" stroke="none" d="
M 10.8 9.7
Q 10.8 8.8 10.35 8.2 9.9 7.6 8.95 7.6 8.3 7.6 7.9 7.95 7.4 8.25 7.15 8.8
L 7.1 7.75 6.5 7.75 6.55 12.7 7.2 12.7 7.2 10.2
Q 7.2 9.5 7.4 9.1 7.6 8.7 8 8.35 8.4 8.1 8.85 8.1 9.5 8.1 9.85 8.6 10.2 9.1 10.2 9.85
L 10.2 12.7 10.8 12.7 10.8 9.7 Z"/>
</g>

<g id="BDM_300x600_FR_psd_Asset_5_V7_1_Vous_souhaitez__en_savoir_plus_sur__votre_client_le__0_Layer0_0_MEMBER_15_FILL">
<path fill="#D82C26" stroke="none" d="
M 14.2 11.75
L 14.1 12.3
Q 14.45 12.6 14.9 12.7 15.35 12.85 15.9 12.85 16.35 12.85 16.7 12.7
L 17.35 12.2
Q 17.55 11.85 17.55 11.4 17.55 10.85 17.2 10.55 16.85 10.2 16.05 9.95 15.35 9.7 15.05 9.5 14.8 9.25 14.8 8.95 14.8 8.55 15.1 8.3 15.35 8.1 15.85 8.1 16.25 8.1 16.55 8.25 16.85 8.3 17.15 8.6
L 17.4 8.1 16.75 7.75
Q 16.3 7.6 15.85 7.6 15.45 7.6 15.05 7.75 14.7 7.9 14.45 8.2 14.2 8.55 14.2 8.95 14.2 9.5 14.55 9.8 15 10.15 15.6 10.35 16.35 10.6 16.65 10.8 17 11.15 17 11.45 17 11.85 16.65 12.1 16.4 12.35 15.85 12.35 14.9 12.35 14.2 11.75 Z"/>
</g>

<g id="BDM_300x600_FR_psd_Asset_5_V7_1_Vous_souhaitez__en_savoir_plus_sur__votre_client_le__0_Layer0_0_MEMBER_16_FILL">
<path fill="#D82C26" stroke="none" d="
M 20.4 8.1
Q 21.1 8.1 21.45 8.45 21.85 8.75 21.85 9.45
L 21.85 9.75 21.2 9.75
Q 18.4 9.75 18.4 11.35 18.4 12.15 18.85 12.5 19.4 12.85 19.95 12.85 20.6 12.85 21.1 12.55 21.55 12.3 21.8 11.75
L 21.85 11.75 21.9 12.7 22.5 12.7 22.4 11.65 22.4 9.5
Q 22.4 8.55 21.9 8.05 21.4 7.6 20.5 7.6 19.95 7.6 19.5 7.75 19.05 7.9 18.65 8.2
L 18.85 8.7 19.6 8.25
Q 20 8.1 20.4 8.1
M 21.85 10.15
L 21.85 10.65
Q 21.85 10.95 21.65 11.45 21.45 11.85 21.05 12.1 20.7 12.4 20.1 12.4 19.65 12.4 19.3 12.15 19 11.85 19 11.35 19 10.15 21.3 10.15
L 21.85 10.15 Z"/>
</g>

<g id="BDM_300x600_FR_psd_Asset_5_V7_1_Vous_souhaitez__en_savoir_plus_sur__votre_client_le__0_Layer0_0_MEMBER_17_FILL">
<path fill="#D82C26" stroke="none" d="
M 22.95 7.75
L 24.85 12.7 25.55 12.7 27.4 7.75 26.8 7.75 25.2 12.1 23.6 7.75 22.95 7.75 Z"/>
</g>

<g id="BDM_300x600_FR_psd_Asset_5_V7_1_Vous_souhaitez__en_savoir_plus_sur__votre_client_le__0_Layer0_0_MEMBER_18_FILL">
<path fill="#D82C26" stroke="none" d="
M 32.65 8.85
Q 32.25 8.25 31.7 7.95 31.15 7.6 30.35 7.6 29.55 7.6 29 7.95 28.35 8.3 28.05 8.85 27.7 9.4 27.7 10.2 27.7 10.95 28.05 11.6 28.35 12.15 29 12.5 29.55 12.85 30.35 12.85 31.15 12.85 31.7 12.5 32.25 12.2 32.65 11.6 33 10.8 33 10.2 33 9.55 32.65 8.85
M 32.1 11.25
Q 31.9 11.7 31.4 12.05 30.95 12.35 30.35 12.35 29.8 12.35 29.25 12.05 28.85 11.8 28.55 11.25 28.35 10.85 28.35 10.2 28.35 9.6 28.55 9.15 28.9 8.65 29.25 8.4 29.8 8.1 30.35 8.1 30.95 8.1 31.4 8.4 31.9 8.75 32.1 9.15 32.35 9.6 32.35 10.2 32.35 10.9 32.1 11.25 Z"/>
</g>

<g id="BDM_300x600_FR_psd_Asset_5_V7_1_Vous_souhaitez__en_savoir_plus_sur__votre_client_le__0_Layer0_0_MEMBER_19_FILL">
<path fill="#D82C26" stroke="none" d="
M 34.75 7.75
L 34.15 7.75 34.15 12.7 34.75 12.7 34.75 7.75
M 34.75 6.1
Q 34.9 5.95 34.9 5.75
L 34.75 5.45 34.45 5.3
Q 34.25 5.3 34.1 5.45
L 34 5.75 34.1 6.1 34.45 6.2 34.75 6.1 Z"/>
</g>

<g id="BDM_300x600_FR_psd_Asset_5_V7_1_Vous_souhaitez__en_savoir_plus_sur__votre_client_le__0_Layer0_0_MEMBER_20_FILL">
<path fill="#D82C26" stroke="none" d="
M 38.85 7.7
L 38.3 7.6
Q 37.85 7.6 37.45 7.95 37.1 8.25 36.85 8.8
L 36.8 7.75 36.2 7.75 36.25 12.7 36.85 12.7 36.85 10.25
Q 36.85 9.4 37.25 8.75 37.65 8.15 38.25 8.15
L 38.7 8.25 38.85 7.7 Z"/>
</g>

<g id="BDM_300x600_FR_psd_Asset_5_V7_1_Vous_souhaitez__en_savoir_plus_sur__votre_client_le__0_Layer0_0_MEMBER_21_FILL">
<path fill="#D82C26" stroke="none" d="
M 44.3 7.6
Q 43.65 7.6 43.1 7.95 42.6 8.25 42.3 8.85
L 42.25 8.85 42.2 7.75 41.6 7.75 41.65 15.25 42.25 15.25 42.25 11.65 42.3 11.65
Q 42.65 12.25 43.15 12.55 43.7 12.85 44.3 12.85 45.1 12.85 45.6 12.5 46.2 12.1 46.5 11.55 46.8 10.95 46.8 10.25 46.8 9.5 46.5 8.9 46.2 8.35 45.6 7.95 45.1 7.6 44.3 7.6
M 44.2 8.1
Q 44.8 8.1 45.25 8.4 45.7 8.7 45.9 9.2 46.15 9.6 46.15 10.25 46.15 10.85 45.9 11.3 45.65 11.8 45.25 12.05 44.8 12.35 44.2 12.35 43.65 12.35 43.2 12.05 42.85 11.8 42.5 11.3 42.25 10.7 42.25 10.25 42.25 9.7 42.5 9.2 42.8 8.65 43.2 8.4 43.65 8.1 44.2 8.1 Z"/>
</g>

<g id="BDM_300x600_FR_psd_Asset_5_V7_1_Vous_souhaitez__en_savoir_plus_sur__votre_client_le__0_Layer0_0_MEMBER_22_FILL">
<path fill="#D82C26" stroke="none" d="
M 48.15 12.4
Q 48.4 12.7 48.75 12.85
L 49.05 12.3 48.65 12 48.55 11.45 48.55 4.65 47.95 4.75 47.95 11.6
Q 47.95 12.15 48.15 12.4 Z"/>
</g>

<g id="BDM_300x600_FR_psd_Asset_5_V7_1_Vous_souhaitez__en_savoir_plus_sur__votre_client_le__0_Layer0_0_MEMBER_23_FILL">
<path fill="#D82C26" stroke="none" d="
M 54.25 7.75
L 53.65 7.75 53.65 10.2
Q 53.65 10.75 53.45 11.35 53.3 11.75 52.85 12.1 52.45 12.35 52 12.35 51.3 12.35 50.95 11.85 50.65 11.35 50.65 10.6
L 50.65 7.75 50 7.75 50 10.75
Q 50 11.65 50.45 12.25 50.9 12.85 51.85 12.85 52.45 12.85 52.95 12.5 53.4 12.2 53.65 11.65
L 53.75 12.7 54.35 12.7 54.25 11.55 54.25 7.75 Z"/>
</g>

<g id="BDM_300x600_FR_psd_Asset_5_V7_1_Vous_souhaitez__en_savoir_plus_sur__votre_client_le__0_Layer0_0_MEMBER_24_FILL">
<path fill="#D82C26" stroke="none" d="
M 55.5 11.75
L 55.4 12.3
Q 55.65 12.55 56.15 12.7 56.6 12.85 57.15 12.85 57.55 12.85 58 12.7 58.4 12.45 58.6 12.2 58.85 11.8 58.85 11.4 58.85 10.85 58.45 10.55 58.05 10.15 57.3 9.95 56.55 9.7 56.35 9.5 56.05 9.3 56.05 8.95 56.05 8.55 56.35 8.3 56.6 8.1 57.15 8.1 57.5 8.1 57.85 8.25 58.05 8.3 58.45 8.6
L 58.7 8.1 58 7.75
Q 57.55 7.6 57.1 7.6 56.7 7.6 56.3 7.75 55.95 7.9 55.7 8.2 55.45 8.55 55.45 8.95 55.45 9.45 55.8 9.8 56.25 10.15 56.9 10.35 57.6 10.6 57.9 10.8 58.25 11.1 58.25 11.45 58.25 11.9 57.9 12.1 57.65 12.35 57.15 12.35 56.2 12.35 55.5 11.75 Z"/>
</g>

<g id="BDM_300x600_FR_psd_Asset_5_V7_1_Vous_souhaitez__en_savoir_plus_sur__votre_client_le__0_Layer0_0_MEMBER_25_FILL">
<path fill="#D82C26" stroke="none" d="
M 64.35 7.75
Q 64 7.6 63.5 7.6 63.1 7.6 62.7 7.75 62.35 7.9 62.1 8.2 61.85 8.55 61.85 8.95 61.85 9.5 62.2 9.8 62.65 10.15 63.25 10.35 64 10.6 64.3 10.8 64.6 11.1 64.6 11.45 64.6 11.9 64.3 12.1 64 12.35 63.5 12.35 62.55 12.35 61.85 11.75
L 61.75 12.3
Q 62.1 12.55 62.5 12.7 63.05 12.85 63.55 12.85 64 12.85 64.35 12.7
L 65 12.2
Q 65.2 11.85 65.2 11.4 65.2 10.85 64.85 10.55 64.5 10.2 63.7 9.95 63.05 9.75 62.7 9.5 62.45 9.3 62.45 8.95 62.45 8.55 62.75 8.3 63 8.1 63.5 8.1 63.9 8.1 64.2 8.25 64.5 8.3 64.8 8.6
L 65.05 8.1 64.35 7.75 Z"/>
</g>

<g id="BDM_300x600_FR_psd_Asset_5_V7_1_Vous_souhaitez__en_savoir_plus_sur__votre_client_le__0_Layer0_0_MEMBER_26_FILL">
<path fill="#D82C26" stroke="none" d="
M 70.4 7.75
L 69.8 7.75 69.8 10.2
Q 69.8 10.95 69.6 11.35 69.45 11.75 69 12.1 68.6 12.35 68.15 12.35 67.45 12.35 67.1 11.85 66.8 11.35 66.8 10.6
L 66.8 7.75 66.2 7.75 66.2 10.75
Q 66.2 11.6 66.6 12.25 67.05 12.85 68 12.85 68.6 12.85 69.1 12.5 69.55 12.2 69.8 11.65
L 69.9 12.7 70.5 12.7 70.4 11.55 70.4 7.75 Z"/>
</g>

<g id="BDM_300x600_FR_psd_Asset_5_V7_1_Vous_souhaitez__en_savoir_plus_sur__votre_client_le__0_Layer0_0_MEMBER_27_FILL">
<path fill="#D82C26" stroke="none" d="
M 74.55 7.7
L 74 7.6
Q 73.5 7.6 73.15 7.95 72.8 8.25 72.55 8.8
L 72.5 7.75 71.9 7.75 71.95 12.7 72.55 12.7 72.55 10.25
Q 72.55 9.4 72.95 8.75 73.35 8.15 73.95 8.15
L 74.4 8.25 74.55 7.7 Z"/>
</g>

<g id="BDM_300x600_FR_psd_Asset_5_V7_1_Vous_souhaitez__en_savoir_plus_sur__votre_client_le__0_Layer0_0_MEMBER_28_FILL">
<path fill="#D82C26" stroke="none" d="
M 0.1 20.45
L 2 25.4 2.7 25.4 4.55 20.45 3.9 20.45 2.35 24.8 0.75 20.45 0.1 20.45 Z"/>
</g>

<g id="BDM_300x600_FR_psd_Asset_5_V7_1_Vous_souhaitez__en_savoir_plus_sur__votre_client_le__0_Layer0_0_MEMBER_29_FILL">
<path fill="#D82C26" stroke="none" d="
M 9.75 21.55
Q 9.45 21 8.8 20.65 8.25 20.3 7.45 20.3 6.65 20.3 6.1 20.65 5.55 20.95 5.15 21.55 4.85 22.15 4.85 22.95 4.85 23.7 5.15 24.3 5.5 24.9 6.1 25.25 6.7 25.55 7.45 25.55 8.2 25.55 8.8 25.25 9.5 24.8 9.75 24.3 10.1 23.75 10.1 22.95 10.1 22.1 9.75 21.55
M 6.4 21.1
Q 6.9 20.85 7.45 20.85 7.95 20.85 8.55 21.1 8.9 21.35 9.25 21.85 9.5 22.45 9.5 22.95 9.5 23.4 9.25 24 9.05 24.45 8.55 24.75 8.1 25.05 7.45 25.05 6.85 25.05 6.4 24.75 5.9 24.45 5.7 24 5.45 23.4 5.45 22.95 5.45 22.45 5.7 21.85 5.9 21.45 6.4 21.1 Z"/>
</g>

<g id="BDM_300x600_FR_psd_Asset_5_V7_1_Vous_souhaitez__en_savoir_plus_sur__votre_client_le__0_Layer0_0_MEMBER_30_FILL">
<path fill="#D82C26" stroke="none" d="
M 13.2 20.95
L 13.3 20.45 11.9 20.45 11.9 19.05 11.3 19.3 11.3 20.45 10.5 20.45 10.35 20.95 11.3 20.95 11.3 24.2
Q 11.3 24.85 11.6 25.2 11.9 25.5 12.45 25.5
L 13 25.45 13.5 25.25 13.4 24.8
Q 13 25 12.65 25 12.3 25 12.1 24.8 11.9 24.6 11.9 24.15
L 11.9 20.95 13.2 20.95 Z"/>
</g>

<g id="BDM_300x600_FR_psd_Asset_5_V7_1_Vous_souhaitez__en_savoir_plus_sur__votre_client_le__0_Layer0_0_MEMBER_31_FILL">
<path fill="#D82C26" stroke="none" d="
M 14.85 20.45
L 14.25 20.45 14.3 25.4 14.95 25.4 14.95 22.95
Q 14.95 22.1 15.3 21.45 15.7 20.85 16.35 20.85
L 16.8 20.95 16.9 20.4 16.35 20.3
Q 15.9 20.3 15.5 20.65 15.15 20.95 14.9 21.55
L 14.85 20.45 Z"/>
</g>

<g id="BDM_300x600_FR_psd_Asset_5_V7_1_Vous_souhaitez__en_savoir_plus_sur__votre_client_le__0_Layer0_0_MEMBER_32_FILL">
<path fill="#D82C26" stroke="none" d="
M 21.6 21.5
Q 21.4 21 20.8 20.65 20.3 20.3 19.55 20.3 18.8 20.3 18.3 20.65 17.7 20.95 17.4 21.55 17.05 22.25 17.05 22.9 17.05 23.6 17.4 24.3 17.7 24.85 18.3 25.25 18.9 25.55 19.6 25.55 20.8 25.55 21.6 24.95
L 21.5 24.4
Q 21.1 24.7 20.7 24.85 20.25 25.05 19.65 25.05 19.15 25.05 18.65 24.8 18.15 24.5 17.95 24.05 17.75 23.75 17.65 23
L 21.9 23 21.9 22.75
Q 21.9 22.1 21.6 21.5
M 20.8 21.3
Q 21.3 21.8 21.3 22.55
L 17.7 22.55
Q 17.7 22.35 17.9 21.75 18.1 21.4 18.55 21.05 19.05 20.8 19.55 20.8 20.35 20.8 20.8 21.3 Z"/>
</g>

<g id="BDM_300x600_FR_psd_Asset_5_V7_1_Vous_souhaitez__en_savoir_plus_sur__votre_client_le__0_Layer0_0_MEMBER_33_FILL">
<path fill="#D82C26" stroke="none" d="
M 24.9 22.95
Q 24.9 23.7 25.2 24.3 25.55 24.9 26.15 25.25 26.7 25.55 27.45 25.55 27.95 25.55 28.4 25.4 28.85 25.25 29.15 24.95
L 29.05 24.45
Q 28.75 24.75 28.35 24.9 28 25.05 27.5 25.05 26.9 25.05 26.45 24.75 26.1 24.5 25.75 24 25.5 23.4 25.5 22.95 25.5 22.4 25.75 21.9 26.05 21.35 26.45 21.1 26.95 20.85 27.5 20.85
L 28.25 21
Q 28.6 21.05 28.9 21.35
L 29.15 20.9
Q 29 20.7 28.4 20.45 27.95 20.3 27.5 20.3 26.7 20.3 26.15 20.65 25.65 20.9 25.2 21.6 24.9 22.2 24.9 22.95 Z"/>
</g>

<g id="BDM_300x600_FR_psd_Asset_5_V7_1_Vous_souhaitez__en_savoir_plus_sur__votre_client_le__0_Layer0_0_MEMBER_34_FILL">
<path fill="#D82C26" stroke="none" d="
M 30.25 25.1
Q 30.5 25.4 30.85 25.55
L 31.15 25
Q 30.9 24.95 30.75 24.7
L 30.65 24.2 30.65 17.35 30.05 17.45 30.05 24.3
Q 30.05 24.85 30.25 25.1 Z"/>
</g>

<g id="BDM_300x600_FR_psd_Asset_5_V7_1_Vous_souhaitez__en_savoir_plus_sur__votre_client_le__0_Layer0_0_MEMBER_35_FILL">
<path fill="#D82C26" stroke="none" d="
M 32.85 20.45
L 32.2 20.45 32.2 25.4 32.85 25.4 32.85 20.45
M 32.95 18.45
L 32.85 18.15
Q 32.75 18.05 32.5 18.05 32.3 18.05 32.2 18.15
L 32.05 18.45
Q 32.05 18.65 32.2 18.8
L 32.5 18.95
Q 32.7 18.95 32.85 18.8
L 32.95 18.45 Z"/>
</g>

<g id="BDM_300x600_FR_psd_Asset_5_V7_1_Vous_souhaitez__en_savoir_plus_sur__votre_client_le__0_Layer0_0_MEMBER_36_FILL">
<path fill="#D82C26" stroke="none" d="
M 34 22.9
Q 34 23.7 34.3 24.3 34.65 24.85 35.2 25.25 35.8 25.55 36.55 25.55 37.7 25.55 38.5 24.95
L 38.4 24.4
Q 38.15 24.7 37.6 24.85 37.2 25.05 36.6 25.05 36.05 25.05 35.55 24.8 35.2 24.55 34.85 24.05 34.6 23.55 34.6 23
L 38.8 23 38.8 22.75
Q 38.8 22.15 38.55 21.5 38.2 20.9 37.7 20.65 37.2 20.3 36.45 20.3 35.7 20.3 35.2 20.65 34.7 20.9 34.3 21.55 34 22.15 34 22.9
M 34.6 22.55
Q 34.6 22.25 34.85 21.75 35.1 21.35 35.45 21.05 35.95 20.8 36.45 20.8 37.25 20.8 37.7 21.3 38.2 21.75 38.2 22.55
L 34.6 22.55 Z"/>
</g>

<g id="BDM_300x600_FR_psd_Asset_5_V7_1_Vous_souhaitez__en_savoir_plus_sur__votre_client_le__0_Layer0_0_MEMBER_37_FILL">
<path fill="#D82C26" stroke="none" d="
M 40.55 21.55
L 40.5 20.45 39.9 20.45 39.95 25.4 40.6 25.4 40.6 22.9
Q 40.6 22.2 40.8 21.8 41 21.35 41.4 21.1 41.7 20.85 42.25 20.85 42.95 20.85 43.25 21.3 43.55 21.85 43.55 22.55
L 43.55 25.4 44.2 25.4 44.2 22.4
Q 44.2 21.5 43.75 20.9 43.3 20.3 42.35 20.3 41.75 20.3 41.25 20.65 40.75 20.95 40.55 21.55 Z"/>
</g>

<g id="BDM_300x600_FR_psd_Asset_5_V7_1_Vous_souhaitez__en_savoir_plus_sur__votre_client_le__0_Layer0_0_MEMBER_38_FILL">
<path fill="#D82C26" stroke="none" d="
M 44.95 20.45
L 44.8 20.95 45.75 20.95 45.75 24.2
Q 45.75 24.85 46.05 25.2 46.35 25.5 46.9 25.5
L 47.45 25.45 47.95 25.25 47.85 24.8
Q 47.45 25 47.05 25 46.75 25 46.55 24.8 46.35 24.6 46.35 24.15
L 46.35 20.95 47.65 20.95 47.75 20.45 46.35 20.45 46.35 19.05 45.7 19.3 45.7 20.45 44.95 20.45 Z"/>
</g>

<g id="BDM_300x600_FR_psd_Asset_5_V7_1_Vous_souhaitez__en_savoir_plus_sur__votre_client_le__0_Layer0_0_MEMBER_39_FILL">
<path fill="#D82C26" stroke="none" d="
M 48.25 22.9
Q 48.25 23.7 48.55 24.3 48.9 24.85 49.45 25.25 50.05 25.55 50.75 25.55 51.95 25.55 52.75 24.95
L 52.65 24.4
Q 52.4 24.7 51.85 24.85 51.4 25.05 50.8 25.05 50.3 25.05 49.8 24.8 49.3 24.5 49.1 24.05 48.85 23.55 48.85 23
L 53.05 23 53.05 22.75
Q 53.05 22.1 52.75 21.5 52.55 21 51.95 20.65 51.45 20.3 50.7 20.3 49.95 20.3 49.45 20.65 48.85 20.95 48.55 21.55 48.25 22.15 48.25 22.9
M 49.1 21.75
Q 49.35 21.35 49.7 21.05 50.2 20.8 50.7 20.8 51.5 20.8 51.95 21.3 52.45 21.75 52.45 22.55
L 48.85 22.55
Q 48.85 22.25 49.1 21.75
M 50.1 17.9
L 49.4 17.9 50.7 19.45 51.2 19.45 50.1 17.9 Z"/>
</g>

<g id="BDM_300x600_FR_psd_Asset_5_V7_1_Vous_souhaitez__en_savoir_plus_sur__votre_client_le__0_Layer0_0_MEMBER_40_FILL">
<path fill="#D82C26" stroke="none" d="
M 54.4 25.1
Q 54.65 25.4 55 25.55
L 55.3 25
Q 55.05 24.95 54.9 24.7
L 54.8 24.2 54.8 17.35 54.2 17.45 54.2 24.3
Q 54.2 24.85 54.4 25.1 Z"/>
</g>

<g id="BDM_300x600_FR_psd_Asset_5_V7_1_Vous_souhaitez__en_savoir_plus_sur__votre_client_le__0_Layer0_0_MEMBER_41_FILL">
<path fill="#D82C26" stroke="none" d="
M 60.8 23
L 60.8 22.75
Q 60.8 22.1 60.5 21.5 60.3 21 59.7 20.65 59.2 20.3 58.45 20.3 57.7 20.3 57.2 20.65 56.6 20.95 56.3 21.55 56 22.15 56 22.9 56 23.7 56.3 24.3 56.65 24.85 57.2 25.25 57.8 25.55 58.5 25.55 59.7 25.55 60.5 24.95
L 60.4 24.4
Q 60.15 24.7 59.6 24.85 59.15 25.05 58.6 25.05 58.05 25.05 57.55 24.8 57.05 24.5 56.85 24.05 56.6 23.55 56.6 23
L 60.8 23
M 58.45 20.8
Q 59.25 20.8 59.7 21.3 60.2 21.75 60.2 22.55
L 56.6 22.55
Q 56.6 22.25 56.85 21.75 57.1 21.35 57.45 21.05 57.95 20.8 58.45 20.8 Z"/>
</g>

<g id="BDM_300x600_FR_psd_Asset_5_V7_1_Vous_souhaitez__en_savoir_plus_sur__votre_client_le__0_Layer0_0_MEMBER_42_FILL">
<path fill="#D82C26" stroke="none" d="
M 61.8 18.55
Q 62.3 18.3 62.85 18.3 63.5 18.3 63.85 18.65 64.3 18.95 64.3 19.55 64.3 19.9 64.15 20.2
L 63.9 20.65 63.35 21.2
Q 62.85 21.7 62.7 22.05 62.5 22.55 62.5 22.95
L 62.5 23.25 63.1 23.25 63.1 23.05 63.2 22.45
Q 63.2 22.3 63.4 22
L 64.45 20.85 64.8 20.3
Q 64.95 20 64.95 19.55 64.95 19 64.65 18.6 64.35 18.15 63.9 17.95 63.5 17.75 62.9 17.75 62.1 17.75 61.65 18 61.2 18.2 60.75 18.65
L 61.05 19.15
Q 61.35 18.8 61.8 18.55
M 62.85 24.55
Q 62.65 24.55 62.5 24.7
L 62.4 25
Q 62.4 25.2 62.55 25.35 62.65 25.5 62.85 25.5 63.05 25.5 63.2 25.35
L 63.3 25 63.2 24.7
Q 63.05 24.55 62.85 24.55 Z"/>
</g>
</defs>

<g transform="matrix( 1, 0, 0, 1, -237,53) ">
<g transform="matrix( 1, 0, 0, 1, 231,0) ">
<g transform="matrix( 1, 0, 0, 1, 33,6) ">
<g transform="matrix( 2.815704345703125, 0, 0, 2.832611083984375, 0.15,22.6) ">
<use xlink:href="#BDM_300x600_FR_psd_Asset_5_V7_1_Vous_souhaitez__en_savoir_plus_sur__votre_client_le__0_Layer0_0_MEMBER_0_FILL"/>
</g>

<g transform="matrix( 2.815704345703125, 0, 0, 2.832611083984375, 0.15,22.6) ">
<use xlink:href="#BDM_300x600_FR_psd_Asset_5_V7_1_Vous_souhaitez__en_savoir_plus_sur__votre_client_le__0_Layer0_0_MEMBER_1_FILL"/>
</g>

<g transform="matrix( 2.815704345703125, 0, 0, 2.832611083984375, 0.15,22.6) ">
<use xlink:href="#BDM_300x600_FR_psd_Asset_5_V7_1_Vous_souhaitez__en_savoir_plus_sur__votre_client_le__0_Layer0_0_MEMBER_2_FILL"/>
</g>

<g transform="matrix( 2.815704345703125, 0, 0, 2.832611083984375, 0.15,22.6) ">
<use xlink:href="#BDM_300x600_FR_psd_Asset_5_V7_1_Vous_souhaitez__en_savoir_plus_sur__votre_client_le__0_Layer0_0_MEMBER_3_FILL"/>
</g>

<g transform="matrix( 2.815704345703125, 0, 0, 2.832611083984375, 0.15,22.6) ">
<use xlink:href="#BDM_300x600_FR_psd_Asset_5_V7_1_Vous_souhaitez__en_savoir_plus_sur__votre_client_le__0_Layer0_0_MEMBER_4_FILL"/>
</g>

<g transform="matrix( 2.815704345703125, 0, 0, 2.832611083984375, 0.15,22.6) ">
<use xlink:href="#BDM_300x600_FR_psd_Asset_5_V7_1_Vous_souhaitez__en_savoir_plus_sur__votre_client_le__0_Layer0_0_MEMBER_5_FILL"/>
</g>

<g transform="matrix( 2.815704345703125, 0, 0, 2.832611083984375, 0.15,22.6) ">
<use xlink:href="#BDM_300x600_FR_psd_Asset_5_V7_1_Vous_souhaitez__en_savoir_plus_sur__votre_client_le__0_Layer0_0_MEMBER_6_FILL"/>
</g>

<g transform="matrix( 2.815704345703125, 0, 0, 2.832611083984375, 0.15,22.6) ">
<use xlink:href="#BDM_300x600_FR_psd_Asset_5_V7_1_Vous_souhaitez__en_savoir_plus_sur__votre_client_le__0_Layer0_0_MEMBER_7_FILL"/>
</g>

<g transform="matrix( 2.815704345703125, 0, 0, 2.832611083984375, 0.15,22.6) ">
<use xlink:href="#BDM_300x600_FR_psd_Asset_5_V7_1_Vous_souhaitez__en_savoir_plus_sur__votre_client_le__0_Layer0_0_MEMBER_8_FILL"/>
</g>

<g transform="matrix( 2.815704345703125, 0, 0, 2.832611083984375, 0.15,22.6) ">
<use xlink:href="#BDM_300x600_FR_psd_Asset_5_V7_1_Vous_souhaitez__en_savoir_plus_sur__votre_client_le__0_Layer0_0_MEMBER_9_FILL"/>
</g>

<g transform="matrix( 2.815704345703125, 0, 0, 2.832611083984375, 0.15,22.6) ">
<use xlink:href="#BDM_300x600_FR_psd_Asset_5_V7_1_Vous_souhaitez__en_savoir_plus_sur__votre_client_le__0_Layer0_0_MEMBER_10_FILL"/>
</g>

<g transform="matrix( 2.815704345703125, 0, 0, 2.832611083984375, 0.15,22.6) ">
<use xlink:href="#BDM_300x600_FR_psd_Asset_5_V7_1_Vous_souhaitez__en_savoir_plus_sur__votre_client_le__0_Layer0_0_MEMBER_11_FILL"/>
</g>

<g transform="matrix( 2.815704345703125, 0, 0, 2.832611083984375, 0.15,22.6) ">
<use xlink:href="#BDM_300x600_FR_psd_Asset_5_V7_1_Vous_souhaitez__en_savoir_plus_sur__votre_client_le__0_Layer0_0_MEMBER_12_FILL"/>
</g>

<g transform="matrix( 2.815704345703125, 0, 0, 2.832611083984375, 0.15,22.6) ">
<use xlink:href="#BDM_300x600_FR_psd_Asset_5_V7_1_Vous_souhaitez__en_savoir_plus_sur__votre_client_le__0_Layer0_0_MEMBER_13_FILL"/>
</g>

<g transform="matrix( 2.815704345703125, 0, 0, 2.832611083984375, 0.15,22.6) ">
<use xlink:href="#BDM_300x600_FR_psd_Asset_5_V7_1_Vous_souhaitez__en_savoir_plus_sur__votre_client_le__0_Layer0_0_MEMBER_14_FILL"/>
</g>

<g transform="matrix( 2.815704345703125, 0, 0, 2.832611083984375, 0.15,22.6) ">
<use xlink:href="#BDM_300x600_FR_psd_Asset_5_V7_1_Vous_souhaitez__en_savoir_plus_sur__votre_client_le__0_Layer0_0_MEMBER_15_FILL"/>
</g>

<g transform="matrix( 2.815704345703125, 0, 0, 2.832611083984375, 0.15,22.6) ">
<use xlink:href="#BDM_300x600_FR_psd_Asset_5_V7_1_Vous_souhaitez__en_savoir_plus_sur__votre_client_le__0_Layer0_0_MEMBER_16_FILL"/>
</g>

<g transform="matrix( 2.815704345703125, 0, 0, 2.832611083984375, 0.15,22.6) ">
<use xlink:href="#BDM_300x600_FR_psd_Asset_5_V7_1_Vous_souhaitez__en_savoir_plus_sur__votre_client_le__0_Layer0_0_MEMBER_17_FILL"/>
</g>

<g transform="matrix( 2.815704345703125, 0, 0, 2.832611083984375, 0.15,22.6) ">
<use xlink:href="#BDM_300x600_FR_psd_Asset_5_V7_1_Vous_souhaitez__en_savoir_plus_sur__votre_client_le__0_Layer0_0_MEMBER_18_FILL"/>
</g>

<g transform="matrix( 2.815704345703125, 0, 0, 2.832611083984375, 0.15,22.6) ">
<use xlink:href="#BDM_300x600_FR_psd_Asset_5_V7_1_Vous_souhaitez__en_savoir_plus_sur__votre_client_le__0_Layer0_0_MEMBER_19_FILL"/>
</g>

<g transform="matrix( 2.815704345703125, 0, 0, 2.832611083984375, 0.15,22.6) ">
<use xlink:href="#BDM_300x600_FR_psd_Asset_5_V7_1_Vous_souhaitez__en_savoir_plus_sur__votre_client_le__0_Layer0_0_MEMBER_20_FILL"/>
</g>

<g transform="matrix( 2.815704345703125, 0, 0, 2.832611083984375, 0.15,22.6) ">
<use xlink:href="#BDM_300x600_FR_psd_Asset_5_V7_1_Vous_souhaitez__en_savoir_plus_sur__votre_client_le__0_Layer0_0_MEMBER_21_FILL"/>
</g>

<g transform="matrix( 2.815704345703125, 0, 0, 2.832611083984375, 0.15,22.6) ">
<use xlink:href="#BDM_300x600_FR_psd_Asset_5_V7_1_Vous_souhaitez__en_savoir_plus_sur__votre_client_le__0_Layer0_0_MEMBER_22_FILL"/>
</g>

<g transform="matrix( 2.815704345703125, 0, 0, 2.832611083984375, 0.15,22.6) ">
<use xlink:href="#BDM_300x600_FR_psd_Asset_5_V7_1_Vous_souhaitez__en_savoir_plus_sur__votre_client_le__0_Layer0_0_MEMBER_23_FILL"/>
</g>

<g transform="matrix( 2.815704345703125, 0, 0, 2.832611083984375, 0.15,22.6) ">
<use xlink:href="#BDM_300x600_FR_psd_Asset_5_V7_1_Vous_souhaitez__en_savoir_plus_sur__votre_client_le__0_Layer0_0_MEMBER_24_FILL"/>
</g>

<g transform="matrix( 2.815704345703125, 0, 0, 2.832611083984375, 0.15,22.6) ">
<use xlink:href="#BDM_300x600_FR_psd_Asset_5_V7_1_Vous_souhaitez__en_savoir_plus_sur__votre_client_le__0_Layer0_0_MEMBER_25_FILL"/>
</g>

<g transform="matrix( 2.815704345703125, 0, 0, 2.832611083984375, 0.15,22.6) ">
<use xlink:href="#BDM_300x600_FR_psd_Asset_5_V7_1_Vous_souhaitez__en_savoir_plus_sur__votre_client_le__0_Layer0_0_MEMBER_26_FILL"/>
</g>

<g transform="matrix( 2.815704345703125, 0, 0, 2.832611083984375, 0.15,22.6) ">
<use xlink:href="#BDM_300x600_FR_psd_Asset_5_V7_1_Vous_souhaitez__en_savoir_plus_sur__votre_client_le__0_Layer0_0_MEMBER_27_FILL"/>
</g>

<g transform="matrix( 2.815704345703125, 0, 0, 2.832611083984375, 0.15,22.6) ">
<use xlink:href="#BDM_300x600_FR_psd_Asset_5_V7_1_Vous_souhaitez__en_savoir_plus_sur__votre_client_le__0_Layer0_0_MEMBER_28_FILL"/>
</g>

<g transform="matrix( 2.815704345703125, 0, 0, 2.832611083984375, 0.15,22.6) ">
<use xlink:href="#BDM_300x600_FR_psd_Asset_5_V7_1_Vous_souhaitez__en_savoir_plus_sur__votre_client_le__0_Layer0_0_MEMBER_29_FILL"/>
</g>

<g transform="matrix( 2.815704345703125, 0, 0, 2.832611083984375, 0.15,22.6) ">
<use xlink:href="#BDM_300x600_FR_psd_Asset_5_V7_1_Vous_souhaitez__en_savoir_plus_sur__votre_client_le__0_Layer0_0_MEMBER_30_FILL"/>
</g>

<g transform="matrix( 2.815704345703125, 0, 0, 2.832611083984375, 0.15,22.6) ">
<use xlink:href="#BDM_300x600_FR_psd_Asset_5_V7_1_Vous_souhaitez__en_savoir_plus_sur__votre_client_le__0_Layer0_0_MEMBER_31_FILL"/>
</g>

<g transform="matrix( 2.815704345703125, 0, 0, 2.832611083984375, 0.15,22.6) ">
<use xlink:href="#BDM_300x600_FR_psd_Asset_5_V7_1_Vous_souhaitez__en_savoir_plus_sur__votre_client_le__0_Layer0_0_MEMBER_32_FILL"/>
</g>

<g transform="matrix( 2.815704345703125, 0, 0, 2.832611083984375, 0.15,22.6) ">
<use xlink:href="#BDM_300x600_FR_psd_Asset_5_V7_1_Vous_souhaitez__en_savoir_plus_sur__votre_client_le__0_Layer0_0_MEMBER_33_FILL"/>
</g>

<g transform="matrix( 2.815704345703125, 0, 0, 2.832611083984375, 0.15,22.6) ">
<use xlink:href="#BDM_300x600_FR_psd_Asset_5_V7_1_Vous_souhaitez__en_savoir_plus_sur__votre_client_le__0_Layer0_0_MEMBER_34_FILL"/>
</g>

<g transform="matrix( 2.815704345703125, 0, 0, 2.832611083984375, 0.15,22.6) ">
<use xlink:href="#BDM_300x600_FR_psd_Asset_5_V7_1_Vous_souhaitez__en_savoir_plus_sur__votre_client_le__0_Layer0_0_MEMBER_35_FILL"/>
</g>

<g transform="matrix( 2.815704345703125, 0, 0, 2.832611083984375, 0.15,22.6) ">
<use xlink:href="#BDM_300x600_FR_psd_Asset_5_V7_1_Vous_souhaitez__en_savoir_plus_sur__votre_client_le__0_Layer0_0_MEMBER_36_FILL"/>
</g>

<g transform="matrix( 2.815704345703125, 0, 0, 2.832611083984375, 0.15,22.6) ">
<use xlink:href="#BDM_300x600_FR_psd_Asset_5_V7_1_Vous_souhaitez__en_savoir_plus_sur__votre_client_le__0_Layer0_0_MEMBER_37_FILL"/>
</g>

<g transform="matrix( 2.815704345703125, 0, 0, 2.832611083984375, 0.15,22.6) ">
<use xlink:href="#BDM_300x600_FR_psd_Asset_5_V7_1_Vous_souhaitez__en_savoir_plus_sur__votre_client_le__0_Layer0_0_MEMBER_38_FILL"/>
</g>

<g transform="matrix( 2.815704345703125, 0, 0, 2.832611083984375, 0.15,22.6) ">
<use xlink:href="#BDM_300x600_FR_psd_Asset_5_V7_1_Vous_souhaitez__en_savoir_plus_sur__votre_client_le__0_Layer0_0_MEMBER_39_FILL"/>
</g>

<g transform="matrix( 2.815704345703125, 0, 0, 2.832611083984375, 0.15,22.6) ">
<use xlink:href="#BDM_300x600_FR_psd_Asset_5_V7_1_Vous_souhaitez__en_savoir_plus_sur__votre_client_le__0_Layer0_0_MEMBER_40_FILL"/>
</g>

<g transform="matrix( 2.815704345703125, 0, 0, 2.832611083984375, 0.15,22.6) ">
<use xlink:href="#BDM_300x600_FR_psd_Asset_5_V7_1_Vous_souhaitez__en_savoir_plus_sur__votre_client_le__0_Layer0_0_MEMBER_41_FILL"/>
</g>

<g transform="matrix( 2.815704345703125, 0, 0, 2.832611083984375, 0.15,22.6) ">
<use xlink:href="#BDM_300x600_FR_psd_Asset_5_V7_1_Vous_souhaitez__en_savoir_plus_sur__votre_client_le__0_Layer0_0_MEMBER_42_FILL"/>
</g>
</g>
</g>
</g>
</svg>
