
<svg xmlns="http://www.w3.org/2000/svg" version="1.1" xmlns:xlink="http://www.w3.org/1999/xlink" preserveAspectRatio="none" x="0px" y="0px" width="728px" height="90px" viewBox="0 0 728 90">
<defs>
<g id="IT_728x90_psd_Asset_6_ManagedWiFi_IT_Awareness_DM7_1_Does_your_business_struggle__with_network_security__0_Layer0_0_MEMBER_0_FILL">
<path fill="#D82C26" stroke="none" d="
M 4.8 -6.25
Q 4.05 -6.6 2.95 -6.6
L 0.9 -6.6 0.9 0 2.95 0
Q 4.05 0 4.8 -0.35 5.6 -0.7 6.1 -1.45 6.6 -2.15 6.6 -3.3 6.6 -4.45 6.1 -5.15 5.6 -5.95 4.8 -6.25
M 2.85 -0.5
L 1.45 -0.5 1.45 -6.1 2.9 -6.1
Q 3.85 -6.1 4.5 -5.8 5.2 -5.55 5.6 -4.85 6 -4.2 6 -3.3 6 -2.45 5.6 -1.75 5.25 -1.15 4.5 -0.8 3.85 -0.5 2.85 -0.5 Z"/>
</g>

<g id="IT_728x90_psd_Asset_6_ManagedWiFi_IT_Awareness_DM7_1_Does_your_business_struggle__with_network_security__0_Layer0_0_MEMBER_1_FILL">
<path fill="#D82C26" stroke="none" d="
M 8.85 -4.2
Q 8.4 -4 8.05 -3.4 7.7 -2.9 7.7 -2.2 7.7 -1.5 8.05 -1 8.4 -0.4 8.85 -0.15 9.4 0.15 10.05 0.15 10.75 0.15 11.25 -0.15 11.8 -0.45 12.1 -1 12.4 -1.5 12.4 -2.2 12.4 -2.85 12.1 -3.4 11.75 -4 11.25 -4.2 10.75 -4.5 10.05 -4.5 9.4 -4.5 8.85 -4.2
M 9.1 -3.8
Q 9.6 -4.05 10.05 -4.05 10.5 -4.05 11 -3.8 11.35 -3.6 11.6 -3.15 11.85 -2.65 11.85 -2.2 11.85 -1.75 11.6 -1.25 11.45 -0.85 11 -0.6 10.7 -0.35 10.05 -0.35 9.5 -0.35 9.1 -0.6 8.75 -0.8 8.5 -1.25 8.3 -1.65 8.3 -2.2 8.3 -2.75 8.5 -3.15 8.75 -3.6 9.1 -3.8 Z"/>
</g>

<g id="IT_728x90_psd_Asset_6_ManagedWiFi_IT_Awareness_DM7_1_Does_your_business_struggle__with_network_security__0_Layer0_0_MEMBER_2_FILL">
<path fill="#D82C26" stroke="none" d="
M 13.75 -1
Q 14.1 -0.4 14.55 -0.15 15.1 0.15 15.7 0.15 16.65 0.15 17.45 -0.4
L 17.35 -0.9
Q 16.95 -0.6 16.65 -0.5 16.25 -0.3 15.75 -0.3 15.25 -0.3 14.85 -0.55 14.5 -0.75 14.25 -1.2 14 -1.7 14 -2.1
L 17.7 -2.1 17.7 -2.35
Q 17.7 -3 17.5 -3.45 17.1 -4.05 16.75 -4.25 16.25 -4.5 15.65 -4.5 15 -4.5 14.55 -4.2 14.1 -4 13.75 -3.4 13.45 -2.85 13.45 -2.2 13.45 -1.5 13.75 -1
M 14.2 -3.25
L 14.75 -3.85
Q 15.15 -4.1 15.65 -4.1 16.4 -4.1 16.75 -3.65 17.2 -3.2 17.2 -2.5
L 14 -2.5
Q 14 -2.75 14.2 -3.25 Z"/>
</g>

<g id="IT_728x90_psd_Asset_6_ManagedWiFi_IT_Awareness_DM7_1_Does_your_business_struggle__with_network_security__0_Layer0_0_MEMBER_3_FILL">
<path fill="#D82C26" stroke="none" d="
M 18.8 -0.85
L 18.7 -0.35 19.4 0
Q 19.65 0.1 20.3 0.1
L 21 0
Q 21.3 -0.1 21.55 -0.45 21.8 -0.8 21.8 -1.15 21.8 -1.6 21.45 -1.95 21.05 -2.25 20.45 -2.45 19.8 -2.65 19.55 -2.85 19.3 -3 19.3 -3.35 19.3 -3.65 19.6 -3.9 19.9 -4.1 20.25 -4.1 20.6 -4.1 20.9 -3.95 21 -3.95 21.4 -3.65
L 21.65 -4.05
Q 21.45 -4.25 21.05 -4.4
L 20.25 -4.5 19.55 -4.4
Q 19.2 -4.25 19 -3.95 18.8 -3.75 18.8 -3.3 18.8 -2.85 19.1 -2.55 19.4 -2.25 20.05 -2.1 20.75 -1.85 20.95 -1.65 21.25 -1.5 21.25 -1.15 21.25 -0.75 20.95 -0.55 20.6 -0.3 20.25 -0.3 19.45 -0.3 18.8 -0.85 Z"/>
</g>

<g id="IT_728x90_psd_Asset_6_ManagedWiFi_IT_Awareness_DM7_1_Does_your_business_struggle__with_network_security__0_Layer0_0_MEMBER_4_FILL">
<path fill="#D82C26" stroke="none" d="
M 25.15 -4.4
L 24.55 -4.4 26.4 0.05 26.05 0.95
Q 25.9 1.4 25.6 1.55 25.35 1.75 24.85 1.75
L 25 2.25
Q 25.6 2.25 25.95 1.95 26.3 1.75 26.55 1.1
L 28.6 -4.4 28 -4.4 26.7 -0.6 25.15 -4.4 Z"/>
</g>

<g id="IT_728x90_psd_Asset_6_ManagedWiFi_IT_Awareness_DM7_1_Does_your_business_struggle__with_network_security__0_Layer0_0_MEMBER_5_FILL">
<path fill="#D82C26" stroke="none" d="
M 29.55 -1
Q 29.9 -0.4 30.35 -0.15 30.9 0.15 31.55 0.15 32.25 0.15 32.75 -0.15 33.3 -0.45 33.6 -1 33.9 -1.5 33.9 -2.2 33.9 -2.85 33.6 -3.4 33.25 -4 32.75 -4.2 32.25 -4.5 31.55 -4.5 30.9 -4.5 30.35 -4.2 29.9 -4 29.55 -3.4 29.25 -2.85 29.25 -2.2 29.25 -1.5 29.55 -1
M 29.8 -2.2
Q 29.8 -2.75 30 -3.15 30.25 -3.6 30.6 -3.8 31.1 -4.05 31.55 -4.05 32 -4.05 32.5 -3.8 32.95 -3.55 33.1 -3.15 33.35 -2.65 33.35 -2.2 33.35 -1.85 33.15 -1.25 32.85 -0.8 32.5 -0.6 32.2 -0.35 31.55 -0.35 31 -0.35 30.6 -0.6 30.25 -0.8 30 -1.25 29.8 -1.65 29.8 -2.2 Z"/>
</g>

<g id="IT_728x90_psd_Asset_6_ManagedWiFi_IT_Awareness_DM7_1_Does_your_business_struggle__with_network_security__0_Layer0_0_MEMBER_6_FILL">
<path fill="#D82C26" stroke="none" d="
M 35.2 -4.4
L 35.2 -1.7
Q 35.2 -0.95 35.6 -0.4 35.95 0.1 36.8 0.1 37.25 0.1 37.75 -0.15 38.2 -0.45 38.4 -0.95
L 38.5 0 39.05 0 38.95 -0.5 38.95 -4.4 38.4 -4.4 38.4 -2.2
Q 38.4 -1.6 38.2 -1.2 38.1 -0.85 37.7 -0.55 37.35 -0.35 36.95 -0.35 36.25 -0.35 36 -0.75 35.75 -1.25 35.75 -1.85
L 35.75 -4.4 35.2 -4.4 Z"/>
</g>

<g id="IT_728x90_psd_Asset_6_ManagedWiFi_IT_Awareness_DM7_1_Does_your_business_struggle__with_network_security__0_Layer0_0_MEMBER_7_FILL">
<path fill="#D82C26" stroke="none" d="
M 41.7 -4.2
Q 41.45 -4.05 41.15 -3.45
L 41.1 -4.4 40.6 -4.4 40.65 0 41.2 0 41.2 -2.2
Q 41.2 -2.95 41.5 -3.5 41.85 -4 42.4 -4
L 42.8 -3.95 42.9 -4.45 42.45 -4.5
Q 42.1 -4.5 41.7 -4.2 Z"/>
</g>

<g id="IT_728x90_psd_Asset_6_ManagedWiFi_IT_Awareness_DM7_1_Does_your_business_struggle__with_network_security__0_Layer0_0_MEMBER_8_FILL">
<path fill="#D82C26" stroke="none" d="
M 46.5 -7.2
L 45.95 -7.05 45.9 0 46.45 0 46.5 -0.95
Q 46.8 -0.4 47.25 -0.15 47.7 0.1 48.3 0.1 48.95 0.1 49.45 -0.2 49.95 -0.5 50.25 -1 50.5 -1.6 50.5 -2.2 50.5 -2.75 50.25 -3.35 49.9 -3.95 49.45 -4.2 49 -4.5 48.3 -4.5 47.8 -4.5 47.3 -4.25 46.75 -3.95 46.55 -3.45
L 46.5 -3.45 46.5 -7.2
M 49.15 -3.8
Q 49.5 -3.6 49.75 -3.1 49.95 -2.75 49.95 -2.2 49.95 -1.65 49.75 -1.25 49.5 -0.8 49.15 -0.6 48.85 -0.35 48.25 -0.35 47.65 -0.35 47.35 -0.6 46.9 -0.85 46.75 -1.25 46.5 -1.75 46.5 -2.2 46.5 -2.7 46.75 -3.1 46.9 -3.5 47.35 -3.8 47.75 -4.05 48.25 -4.05 48.75 -4.05 49.15 -3.8 Z"/>
</g>

<g id="IT_728x90_psd_Asset_6_ManagedWiFi_IT_Awareness_DM7_1_Does_your_business_struggle__with_network_security__0_Layer0_0_MEMBER_9_FILL">
<path fill="#D82C26" stroke="none" d="
M 55.55 -4.4
L 55 -4.4 55 -2.2
Q 55 -1.6 54.8 -1.2 54.7 -0.85 54.3 -0.55 53.95 -0.35 53.55 -0.35 52.85 -0.35 52.65 -0.75 52.35 -1.2 52.35 -1.85
L 52.35 -4.4 51.8 -4.4 51.8 -1.7
Q 51.8 -0.95 52.2 -0.4 52.55 0.1 53.4 0.1 53.9 0.1 54.4 -0.15 54.9 -0.55 55 -0.95
L 55.1 0 55.65 0 55.55 -1 55.55 -4.4 Z"/>
</g>

<g id="IT_728x90_psd_Asset_6_ManagedWiFi_IT_Awareness_DM7_1_Does_your_business_struggle__with_network_security__0_Layer0_0_MEMBER_10_FILL">
<path fill="#D82C26" stroke="none" d="
M 59.2 -4.4
L 58.4 -4.5 57.7 -4.4
Q 57.35 -4.25 57.15 -3.95 56.95 -3.65 56.95 -3.3 56.95 -2.85 57.25 -2.55 57.65 -2.25 58.2 -2.1 58.85 -1.9 59.15 -1.65 59.4 -1.5 59.4 -1.15 59.4 -0.75 59.1 -0.55 58.85 -0.3 58.45 -0.3 57.65 -0.3 56.95 -0.85
L 56.9 -0.35
Q 57.05 -0.2 57.55 0 57.85 0.1 58.45 0.1
L 59.2 0
Q 59.55 -0.15 59.75 -0.45 59.95 -0.85 59.95 -1.15 59.95 -1.65 59.6 -1.95 59.2 -2.25 58.6 -2.45 57.9 -2.7 57.75 -2.85 57.5 -2.95 57.5 -3.35 57.5 -3.7 57.75 -3.9 58.15 -4.1 58.45 -4.1 58.75 -4.1 59.05 -3.95 59.15 -3.95 59.55 -3.65
L 59.8 -4.05
Q 59.6 -4.25 59.2 -4.4 Z"/>
</g>

<g id="IT_728x90_psd_Asset_6_ManagedWiFi_IT_Awareness_DM7_1_Does_your_business_struggle__with_network_security__0_Layer0_0_MEMBER_11_FILL">
<path fill="#D82C26" stroke="none" d="
M 61.75 -4.4
L 61.2 -4.4 61.2 0 61.75 0 61.75 -4.4
M 61.75 -6.4
Q 61.6 -6.55 61.45 -6.55 61.35 -6.55 61.2 -6.4 61.1 -6.35 61.1 -6.15 61.1 -5.95 61.2 -5.85 61.3 -5.75 61.45 -5.75 61.65 -5.75 61.75 -5.85 61.85 -5.95 61.85 -6.15 61.85 -6.35 61.75 -6.4 Z"/>
</g>

<g id="IT_728x90_psd_Asset_6_ManagedWiFi_IT_Awareness_DM7_1_Does_your_business_struggle__with_network_security__0_Layer0_0_MEMBER_12_FILL">
<path fill="#D82C26" stroke="none" d="
M 63.9 -4.4
L 63.4 -4.4 63.4 0 63.95 0 63.95 -2.25
Q 63.95 -2.7 64.15 -3.2 64.4 -3.65 64.7 -3.85 64.95 -4.05 65.4 -4.05 66.05 -4.05 66.35 -3.6 66.6 -3.2 66.6 -2.55
L 66.6 0 67.15 0 67.15 -2.7
Q 67.15 -3.55 66.75 -4 66.4 -4.5 65.55 -4.5 65 -4.5 64.6 -4.2 64.2 -3.9 63.95 -3.45
L 63.9 -4.4 Z"/>
</g>

<g id="IT_728x90_psd_Asset_6_ManagedWiFi_IT_Awareness_DM7_1_Does_your_business_struggle__with_network_security__0_Layer0_0_MEMBER_13_FILL">
<path fill="#D82C26" stroke="none" d="
M 69.55 -4.2
Q 69.05 -3.95 68.8 -3.4 68.5 -2.85 68.5 -2.2 68.5 -1.5 68.8 -1 69.15 -0.4 69.6 -0.15 70.05 0.15 70.75 0.15 71.7 0.15 72.5 -0.4
L 72.4 -0.9 71.7 -0.5
Q 71.3 -0.3 70.8 -0.3 70.3 -0.3 69.9 -0.55 69.55 -0.75 69.25 -1.2 69.05 -1.6 69.05 -2.1
L 72.75 -2.1 72.75 -2.35
Q 72.75 -2.85 72.5 -3.45 72.25 -3.95 71.8 -4.25 71.3 -4.5 70.65 -4.5 70.1 -4.5 69.55 -4.2
M 69.8 -3.85
Q 70.2 -4.1 70.65 -4.1 71.35 -4.1 71.8 -3.65 72.2 -3.2 72.25 -2.5
L 69.05 -2.5
Q 69.05 -2.9 69.25 -3.25 69.55 -3.65 69.8 -3.85 Z"/>
</g>

<g id="IT_728x90_psd_Asset_6_ManagedWiFi_IT_Awareness_DM7_1_Does_your_business_struggle__with_network_security__0_Layer0_0_MEMBER_14_FILL">
<path fill="#D82C26" stroke="none" d="
M 75.3 -4.1
Q 75.7 -4.1 75.9 -3.95 76.05 -3.9 76.45 -3.65
L 76.7 -4.05 76.05 -4.4 75.3 -4.5 74.6 -4.4
Q 74.3 -4.3 74.05 -3.95 73.85 -3.75 73.85 -3.3 73.85 -2.85 74.15 -2.55 74.45 -2.25 75.1 -2.1
L 76 -1.65
Q 76.3 -1.5 76.3 -1.15 76.3 -0.75 76 -0.55 75.65 -0.3 75.3 -0.3 74.5 -0.3 73.85 -0.85
L 73.75 -0.35
Q 73.95 -0.15 74.45 0 74.7 0.1 75.3 0.1
L 76.05 0
Q 76.4 -0.15 76.6 -0.45 76.8 -0.7 76.8 -1.15 76.8 -1.65 76.5 -1.95 75.95 -2.3 75.45 -2.45 74.75 -2.7 74.6 -2.85 74.35 -3 74.35 -3.35 74.35 -3.65 74.6 -3.9 75 -4.1 75.3 -4.1 Z"/>
</g>

<g id="IT_728x90_psd_Asset_6_ManagedWiFi_IT_Awareness_DM7_1_Does_your_business_struggle__with_network_security__0_Layer0_0_MEMBER_15_FILL">
<path fill="#D82C26" stroke="none" d="
M 79.35 -4.5
L 78.65 -4.4
Q 78.35 -4.3 78.1 -3.95 77.9 -3.75 77.9 -3.3 77.9 -2.85 78.2 -2.55 78.5 -2.25 79.15 -2.1
L 80.05 -1.65
Q 80.35 -1.5 80.35 -1.15 80.35 -0.75 80.05 -0.55 79.7 -0.3 79.35 -0.3 78.55 -0.3 77.9 -0.85
L 77.8 -0.35 78.5 0
Q 78.75 0.1 79.35 0.1
L 80.1 0
Q 80.4 -0.1 80.65 -0.45 80.85 -0.7 80.85 -1.15 80.85 -1.65 80.55 -1.95 79.95 -2.3 79.5 -2.45 78.8 -2.7 78.65 -2.85 78.4 -3 78.4 -3.35 78.4 -3.65 78.65 -3.9 79.05 -4.1 79.35 -4.1 79.7 -4.1 80 -3.95
L 80.5 -3.65 80.75 -4.05 80.1 -4.4 79.35 -4.5 Z"/>
</g>

<g id="IT_728x90_psd_Asset_6_ManagedWiFi_IT_Awareness_DM7_1_Does_your_business_struggle__with_network_security__0_Layer0_0_MEMBER_16_FILL">
<path fill="#D82C26" stroke="none" d="
M 84.85 -3.9
Q 85.25 -4.1 85.55 -4.1 85.85 -4.1 86.15 -3.95 86.3 -3.9 86.7 -3.65
L 86.9 -4.05
Q 86.7 -4.25 86.3 -4.4
L 85.55 -4.5 84.85 -4.4
Q 84.55 -4.3 84.3 -3.95 84.1 -3.75 84.1 -3.3 84.1 -2.85 84.4 -2.55 84.7 -2.25 85.3 -2.1 85.95 -1.9 86.25 -1.65 86.55 -1.5 86.55 -1.15 86.55 -0.75 86.25 -0.55 85.9 -0.3 85.55 -0.3 84.75 -0.3 84.1 -0.85
L 84 -0.35
Q 84.15 -0.2 84.65 0 84.95 0.1 85.55 0.1
L 86.3 0
Q 86.65 -0.15 86.85 -0.45 87.05 -0.7 87.05 -1.15 87.05 -1.65 86.75 -1.95 86.2 -2.3 85.7 -2.45 85 -2.7 84.85 -2.85 84.6 -3 84.6 -3.35 84.6 -3.65 84.85 -3.9 Z"/>
</g>

<g id="IT_728x90_psd_Asset_6_ManagedWiFi_IT_Awareness_DM7_1_Does_your_business_struggle__with_network_security__0_Layer0_0_MEMBER_17_FILL">
<path fill="#D82C26" stroke="none" d="
M 88.65 -5.45
L 88.65 -4.4 87.95 -4.4 87.8 -3.95 88.65 -3.95 88.65 -1.05
Q 88.65 -0.55 88.9 -0.2 89.2 0.1 89.65 0.1
L 90.15 0.05 90.6 -0.15 90.55 -0.55
Q 90.15 -0.35 89.85 -0.35 89.55 -0.35 89.35 -0.55 89.2 -0.7 89.2 -1.15
L 89.2 -3.95 90.3 -3.95 90.45 -4.4 89.2 -4.4 89.2 -5.65 88.65 -5.45 Z"/>
</g>

<g id="IT_728x90_psd_Asset_6_ManagedWiFi_IT_Awareness_DM7_1_Does_your_business_struggle__with_network_security__0_Layer0_0_MEMBER_18_FILL">
<path fill="#D82C26" stroke="none" d="
M 93.85 -3.95
L 93.95 -4.45 93.5 -4.5
Q 93.1 -4.5 92.7 -4.2 92.35 -3.95 92.2 -3.45
L 92.15 -3.45 92.15 -4.4 91.6 -4.4 91.65 0 92.2 0 92.2 -2.2
Q 92.2 -3 92.55 -3.5 92.85 -4 93.45 -4
L 93.85 -3.95 Z"/>
</g>

<g id="IT_728x90_psd_Asset_6_ManagedWiFi_IT_Awareness_DM7_1_Does_your_business_struggle__with_network_security__0_Layer0_0_MEMBER_19_FILL">
<path fill="#D82C26" stroke="none" d="
M 94.9 -1.7
Q 94.9 -0.95 95.3 -0.4 95.65 0.1 96.5 0.1 96.95 0.1 97.45 -0.15 97.95 -0.5 98.1 -0.95
L 98.2 0 98.75 0 98.65 -0.5 98.65 -4.4 98.1 -4.4 98.1 -2.2
Q 98.1 -1.6 97.9 -1.2 97.8 -0.85 97.4 -0.55 97.05 -0.35 96.65 -0.35 95.95 -0.35 95.7 -0.75 95.45 -1.25 95.45 -1.85
L 95.45 -4.4 94.9 -4.4 94.9 -1.7 Z"/>
</g>

<g id="IT_728x90_psd_Asset_6_ManagedWiFi_IT_Awareness_DM7_1_Does_your_business_struggle__with_network_security__0_Layer0_0_MEMBER_20_FILL">
<path fill="#D82C26" stroke="none" d="
M 100.3 -1.05
Q 100.5 -0.55 101.05 -0.2 101.6 0.1 102.2 0.1 102.8 0.1 103.25 -0.2 103.8 -0.5 104 -1
L 104 -0.05
Q 104 0.85 103.55 1.35 103.15 1.85 102.2 1.85 101.65 1.85 101.25 1.65 100.65 1.45 100.4 1.25
L 100.3 1.75
Q 100.6 1.95 101.2 2.15
L 102.2 2.3
Q 103.4 2.3 104 1.65 104.55 1 104.55 -0.05
L 104.6 -4.4 104.05 -4.4 104 -3.4
Q 103.65 -4 103.25 -4.2 102.8 -4.5 102.2 -4.5 101.6 -4.5 101.05 -4.2 100.5 -3.85 100.3 -3.35 100 -2.8 100 -2.2 100 -1.55 100.3 -1.05
M 100.55 -2.2
Q 100.55 -2.6 100.75 -3.1 101 -3.6 101.4 -3.8 101.8 -4.05 102.3 -4.05 102.7 -4.05 103.2 -3.8 103.55 -3.6 103.8 -3.15 104.05 -2.65 104.05 -2.2 104.05 -1.7 103.8 -1.3 103.6 -0.95 103.2 -0.6 102.7 -0.35 102.3 -0.35 101.8 -0.35 101.4 -0.6 100.95 -0.9 100.75 -1.3 100.55 -1.8 100.55 -2.2 Z"/>
</g>

<g id="IT_728x90_psd_Asset_6_ManagedWiFi_IT_Awareness_DM7_1_Does_your_business_struggle__with_network_security__0_Layer0_0_MEMBER_21_FILL">
<path fill="#D82C26" stroke="none" d="
M 105.9 -2.2
Q 105.9 -1.65 106.15 -1.05 106.5 -0.45 106.95 -0.2 107.5 0.1 108.1 0.1 108.65 0.1 109.15 -0.2 109.65 -0.55 109.85 -1
L 109.9 -1 109.9 -0.05
Q 109.9 0.85 109.45 1.35 108.95 1.85 108.1 1.85 107.55 1.85 107.15 1.65 106.6 1.5 106.3 1.25
L 106.2 1.75
Q 106.45 1.95 107.05 2.15
L 108.1 2.3
Q 109.35 2.3 109.85 1.65 110.45 1.05 110.45 -0.05
L 110.45 -4.4 109.95 -4.4 109.9 -3.4
Q 109.55 -4 109.15 -4.2 108.65 -4.5 108.1 -4.5 107.5 -4.5 106.95 -4.2 106.5 -3.95 106.15 -3.35 105.9 -2.75 105.9 -2.2
M 109.05 -3.8
Q 109.4 -3.6 109.7 -3.15 109.9 -2.75 109.9 -2.2 109.9 -1.65 109.7 -1.3 109.5 -0.9 109.05 -0.6 108.65 -0.35 108.15 -0.35 107.75 -0.35 107.25 -0.6 106.85 -0.95 106.65 -1.3 106.45 -1.65 106.45 -2.2 106.45 -2.75 106.65 -3.1 106.9 -3.6 107.25 -3.8 107.75 -4.05 108.15 -4.05 108.65 -4.05 109.05 -3.8 Z"/>
</g>

<g id="IT_728x90_psd_Asset_6_ManagedWiFi_IT_Awareness_DM7_1_Does_your_business_struggle__with_network_security__0_Layer0_0_MEMBER_22_FILL">
<path fill="#D82C26" stroke="none" d="
M 112.05 -0.95
Q 112.05 -0.6 112.25 -0.3 112.5 0.05 112.8 0.1
L 113.05 -0.35
Q 112.7 -0.55 112.7 -0.6
L 112.6 -1.1 112.6 -7.15 112.05 -7.05 112.05 -0.95 Z"/>
</g>

<g id="IT_728x90_psd_Asset_6_ManagedWiFi_IT_Awareness_DM7_1_Does_your_business_struggle__with_network_security__0_Layer0_0_MEMBER_23_FILL">
<path fill="#D82C26" stroke="none" d="
M 116.15 -4.5
Q 115.6 -4.5 115.05 -4.2 114.55 -3.95 114.3 -3.4 114 -2.85 114 -2.2 114 -1.5 114.3 -1 114.65 -0.4 115.1 -0.15 115.65 0.15 116.25 0.15 117.2 0.15 118 -0.4
L 117.9 -0.9 117.2 -0.5
Q 116.8 -0.3 116.3 -0.3 115.8 -0.3 115.4 -0.55 115.05 -0.75 114.75 -1.2 114.55 -1.6 114.55 -2.1
L 118.25 -2.1 118.25 -2.35
Q 118.25 -2.85 118 -3.45 117.75 -3.95 117.3 -4.25 116.8 -4.5 116.15 -4.5
M 115.3 -3.85
Q 115.7 -4.1 116.15 -4.1 116.85 -4.1 117.3 -3.65 117.7 -3.2 117.75 -2.5
L 114.55 -2.5
Q 114.55 -2.9 114.75 -3.25
L 115.3 -3.85 Z"/>
</g>

<g id="IT_728x90_psd_Asset_6_ManagedWiFi_IT_Awareness_DM7_1_Does_your_business_struggle__with_network_security__0_Layer0_0_MEMBER_24_FILL">
<path fill="#D82C26" stroke="none" d="
M 6.7 6.1
L 6.1 6.1 5 9.85 3.75 6.1 3.15 6.1 1.95 9.85 1.9 9.85 0.85 6.1 0.25 6.1 1.6 10.5 2.2 10.5 3.45 6.75 4.7 10.5 5.3 10.5 6.7 6.1 Z"/>
</g>

<g id="IT_728x90_psd_Asset_6_ManagedWiFi_IT_Awareness_DM7_1_Does_your_business_struggle__with_network_security__0_Layer0_0_MEMBER_25_FILL">
<path fill="#D82C26" stroke="none" d="
M 8.35 6.1
L 7.8 6.1 7.8 10.5 8.35 10.5 8.35 6.1
M 8.45 4.35
L 8.35 4.05 8.05 3.95 7.8 4.05 7.65 4.35 7.8 4.65 8.05 4.75 8.35 4.65 8.45 4.35 Z"/>
</g>

<g id="IT_728x90_psd_Asset_6_ManagedWiFi_IT_Awareness_DM7_1_Does_your_business_struggle__with_network_security__0_Layer0_0_MEMBER_26_FILL">
<path fill="#D82C26" stroke="none" d="
M 10.2 5.05
L 10.2 6.1 9.5 6.1 9.4 6.55 10.2 6.55 10.2 9.4
Q 10.2 9.95 10.5 10.25 10.75 10.55 11.25 10.55
L 11.7 10.5 12.15 10.35 12.1 9.95 11.4 10.1
Q 11.15 10.1 10.9 9.95 10.75 9.75 10.75 9.35
L 10.75 6.55 11.9 6.55 12 6.1 10.75 6.1 10.75 4.85 10.2 5.05 Z"/>
</g>

<g id="IT_728x90_psd_Asset_6_ManagedWiFi_IT_Awareness_DM7_1_Does_your_business_struggle__with_network_security__0_Layer0_0_MEMBER_27_FILL">
<path fill="#D82C26" stroke="none" d="
M 13.75 3.35
L 13.2 3.4 13.2 10.5 13.75 10.5 13.75 8.35
Q 13.75 7.7 13.95 7.3 14.15 6.85 14.45 6.65 14.8 6.45 15.2 6.45 15.9 6.45 16.15 6.85 16.4 7.35 16.4 7.95
L 16.4 10.5 16.95 10.5 16.95 7.8
Q 16.95 7.05 16.55 6.5 16.15 5.95 15.35 5.95 14.85 5.95 14.4 6.25 13.95 6.55 13.8 7.05
L 13.75 7.05 13.75 3.35 Z"/>
</g>

<g id="IT_728x90_psd_Asset_6_ManagedWiFi_IT_Awareness_DM7_1_Does_your_business_struggle__with_network_security__0_Layer0_0_MEMBER_28_FILL">
<path fill="#D82C26" stroke="none" d="
M 21.3 6.1
L 20.75 6.1 20.8 10.5 21.35 10.5 21.35 8.25
Q 21.35 7.65 21.55 7.25 21.7 6.95 22.05 6.65 22.4 6.45 22.8 6.45 23.5 6.45 23.75 6.85 24 7.35 24 7.95
L 24 10.5 24.55 10.5 24.55 7.8
Q 24.55 7.05 24.15 6.5 23.75 5.95 22.95 5.95 22.4 5.95 21.95 6.25 21.45 6.65 21.35 7.05
L 21.3 6.1 Z"/>
</g>

<g id="IT_728x90_psd_Asset_6_ManagedWiFi_IT_Awareness_DM7_1_Does_your_business_struggle__with_network_security__0_Layer0_0_MEMBER_29_FILL">
<path fill="#D82C26" stroke="none" d="
M 29.9 7.05
Q 29.7 6.6 29.2 6.25 28.7 5.95 28.05 5.95 27.5 5.95 26.95 6.25 26.45 6.55 26.15 7.05 25.9 7.65 25.9 8.25 25.9 8.85 26.15 9.5 26.4 9.95 26.95 10.3 27.5 10.6 28.15 10.6 29.1 10.6 29.9 10.05
L 29.8 9.6
Q 29.45 9.85 29.05 10 28.7 10.15 28.2 10.15 27.65 10.15 27.25 9.9 26.85 9.65 26.65 9.25 26.4 8.85 26.4 8.35
L 30.15 8.35 30.15 8.15
Q 30.15 7.55 29.9 7.05
M 29.2 6.8
Q 29.6 7.3 29.6 7.95
L 26.45 7.95
Q 26.45 7.6 26.65 7.25 26.8 6.9 27.2 6.65 27.5 6.4 28.05 6.4 28.7 6.4 29.2 6.8 Z"/>
</g>

<g id="IT_728x90_psd_Asset_6_ManagedWiFi_IT_Awareness_DM7_1_Does_your_business_struggle__with_network_security__0_Layer0_0_MEMBER_30_FILL">
<path fill="#D82C26" stroke="none" d="
M 31.55 6.1
L 30.85 6.1 30.75 6.55 31.6 6.55 31.6 9.4
Q 31.6 9.9 31.85 10.25 32.15 10.55 32.6 10.55
L 33.1 10.5 33.55 10.35 33.45 9.95 32.75 10.1
Q 32.45 10.1 32.3 9.95 32.15 9.75 32.15 9.35
L 32.15 6.55 33.25 6.55 33.35 6.1 32.15 6.1 32.15 4.85 31.55 5.05 31.55 6.1 Z"/>
</g>

<g id="IT_728x90_psd_Asset_6_ManagedWiFi_IT_Awareness_DM7_1_Does_your_business_struggle__with_network_security__0_Layer0_0_MEMBER_31_FILL">
<path fill="#D82C26" stroke="none" d="
M 37.7 6.1
L 37.1 6.1 35.85 9.85 34.75 6.1 34.15 6.1 35.5 10.5 36.15 10.5 37.35 6.75 37.4 6.75 38.65 10.5 39.25 10.5 40.6 6.1 40.05 6.1 38.95 9.85 37.7 6.1 Z"/>
</g>

<g id="IT_728x90_psd_Asset_6_ManagedWiFi_IT_Awareness_DM7_1_Does_your_business_struggle__with_network_security__0_Layer0_0_MEMBER_32_FILL">
<path fill="#D82C26" stroke="none" d="
M 41.6 7.1
Q 41.3 7.65 41.3 8.3 41.3 8.9 41.6 9.5 41.85 9.95 42.45 10.3 43 10.6 43.65 10.6 44.35 10.6 44.85 10.3 45.3 10.05 45.7 9.5 46 8.9 46 8.3 46 7.65 45.7 7.1 45.35 6.55 44.85 6.25 44.35 5.95 43.65 5.95 43 5.95 42.45 6.25 41.85 6.6 41.6 7.1
M 45.45 8.3
Q 45.45 8.8 45.2 9.2 45 9.55 44.6 9.9 44.1 10.15 43.65 10.15 43.1 10.15 42.7 9.9 42.2 9.5 42.1 9.2 41.85 8.8 41.85 8.3 41.85 7.75 42.1 7.35 42.2 7.05 42.7 6.65 43.05 6.45 43.65 6.45 44.2 6.45 44.6 6.65 45 7 45.2 7.35 45.45 7.75 45.45 8.3 Z"/>
</g>

<g id="IT_728x90_psd_Asset_6_ManagedWiFi_IT_Awareness_DM7_1_Does_your_business_struggle__with_network_security__0_Layer0_0_MEMBER_33_FILL">
<path fill="#D82C26" stroke="none" d="
M 47.8 6.1
L 47.3 6.1 47.35 10.5 47.9 10.5 47.9 8.3
Q 47.9 7.55 48.2 7 48.6 6.45 49.1 6.45
L 49.5 6.5 49.6 6.05 49.15 5.95
Q 48.8 5.95 48.4 6.25 48.1 6.5 47.85 7.05
L 47.8 6.1 Z"/>
</g>

<g id="IT_728x90_psd_Asset_6_ManagedWiFi_IT_Awareness_DM7_1_Does_your_business_struggle__with_network_security__0_Layer0_0_MEMBER_34_FILL">
<path fill="#D82C26" stroke="none" d="
M 53.95 6.1
L 53.25 6.1 51.2 8.1 51.15 8.1 51.15 3.35 50.6 3.45 50.6 10.5 51.15 10.5 51.15 8.2 51.2 8.2 53.45 10.5 54.15 10.5 51.8 8.1 53.95 6.1 Z"/>
</g>

<g id="IT_728x90_psd_Asset_6_ManagedWiFi_IT_Awareness_DM7_1_Does_your_business_struggle__with_network_security__0_Layer0_0_MEMBER_35_FILL">
<path fill="#D82C26" stroke="none" d="
M 58.5 5.95
L 57.8 6.1
Q 57.4 6.3 57.3 6.5 57.05 6.85 57.05 7.15 57.05 7.65 57.35 7.95
L 59.25 8.8
Q 59.5 9.05 59.5 9.35 59.5 9.7 59.25 9.95 59 10.15 58.55 10.15 57.65 10.15 57.1 9.65
L 57 10.1
Q 57.15 10.25 57.65 10.45 58.1 10.6 58.55 10.6
L 59.3 10.45
Q 59.65 10.3 59.85 10 60.05 9.7 60.05 9.35 60.05 8.85 59.7 8.55 59.45 8.3 58.7 8.05
L 57.85 7.65
Q 57.6 7.55 57.6 7.15 57.6 6.75 57.85 6.6 58.1 6.4 58.55 6.4
L 59.15 6.5 59.7 6.85 59.9 6.45
Q 59.7 6.25 59.3 6.1 58.95 5.95 58.5 5.95 Z"/>
</g>

<g id="IT_728x90_psd_Asset_6_ManagedWiFi_IT_Awareness_DM7_1_Does_your_business_struggle__with_network_security__0_Layer0_0_MEMBER_36_FILL">
<path fill="#D82C26" stroke="none" d="
M 65.05 7.05
Q 64.85 6.6 64.35 6.25 63.9 5.95 63.2 5.95 62.65 5.95 62.1 6.25 61.55 6.65 61.35 7.05 61.05 7.6 61.05 8.25 61.05 8.9 61.35 9.5 61.65 10 62.15 10.3 62.6 10.6 63.3 10.6 64.25 10.6 65.05 10.05
L 64.95 9.6 64.25 10
Q 63.8 10.15 63.35 10.15 62.75 10.15 62.45 9.9 62 9.7 61.8 9.25 61.6 8.9 61.6 8.35
L 65.3 8.35 65.3 8.15
Q 65.3 7.55 65.05 7.05
M 64.35 6.8
Q 64.7 7.25 64.8 7.95
L 61.6 7.95
Q 61.6 7.6 61.8 7.25 61.95 6.9 62.35 6.65 62.65 6.4 63.2 6.4 63.85 6.4 64.35 6.8 Z"/>
</g>

<g id="IT_728x90_psd_Asset_6_ManagedWiFi_IT_Awareness_DM7_1_Does_your_business_struggle__with_network_security__0_Layer0_0_MEMBER_37_FILL">
<path fill="#D82C26" stroke="none" d="
M 69.5 6.1
Q 69.15 5.95 68.7 5.95 68.05 5.95 67.5 6.25 66.95 6.55 66.65 7.1 66.4 7.7 66.4 8.3 66.4 9.05 66.65 9.5 66.9 9.95 67.5 10.3 68.05 10.6 68.65 10.6 69.15 10.6 69.5 10.45 70 10.25 70.15 10.1
L 70.1 9.6
Q 69.85 9.85 69.45 10 69.15 10.15 68.7 10.15 68.2 10.15 67.8 9.9 67.35 9.6 67.15 9.2 66.95 8.85 66.95 8.3 66.95 7.75 67.15 7.35 67.35 6.95 67.75 6.7 68.15 6.45 68.7 6.45 69.15 6.45 69.35 6.55 69.75 6.7 69.95 6.9
L 70.15 6.5
Q 69.9 6.25 69.5 6.1 Z"/>
</g>

<g id="IT_728x90_psd_Asset_6_ManagedWiFi_IT_Awareness_DM7_1_Does_your_business_struggle__with_network_security__0_Layer0_0_MEMBER_38_FILL">
<path fill="#D82C26" stroke="none" d="
M 71.8 6.1
L 71.25 6.1 71.25 8.75
Q 71.25 9.55 71.65 10.1 72.05 10.6 72.85 10.6 73.35 10.6 73.8 10.3 74.2 10.05 74.45 9.55
L 74.55 10.5 75.1 10.5 75 9.95 75 6.1 74.45 6.1 74.45 8.3
Q 74.45 8.9 74.25 9.3 74.1 9.7 73.75 9.95 73.4 10.15 73 10.15 72.35 10.15 72.05 9.7 71.8 9.3 71.8 8.65
L 71.8 6.1 Z"/>
</g>

<g id="IT_728x90_psd_Asset_6_ManagedWiFi_IT_Awareness_DM7_1_Does_your_business_struggle__with_network_security__0_Layer0_0_MEMBER_39_FILL">
<path fill="#D82C26" stroke="none" d="
M 77.15 6.1
L 76.65 6.1 76.7 10.5 77.25 10.5 77.25 8.3
Q 77.25 7.55 77.55 7 77.95 6.45 78.45 6.45
L 78.85 6.5 78.95 6.05 78.5 5.95
Q 78.15 5.95 77.75 6.25 77.45 6.5 77.2 7.05
L 77.15 6.1 Z"/>
</g>

<g id="IT_728x90_psd_Asset_6_ManagedWiFi_IT_Awareness_DM7_1_Does_your_business_struggle__with_network_security__0_Layer0_0_MEMBER_40_FILL">
<path fill="#D82C26" stroke="none" d="
M 80.5 6.1
L 79.95 6.1 79.95 10.5 80.5 10.5 80.5 6.1
M 80.65 4.35
L 80.5 4.05 80.25 3.95 79.95 4.05 79.85 4.35 79.95 4.65 80.25 4.75 80.5 4.65 80.65 4.35 Z"/>
</g>

<g id="IT_728x90_psd_Asset_6_ManagedWiFi_IT_Awareness_DM7_1_Does_your_business_struggle__with_network_security__0_Layer0_0_MEMBER_41_FILL">
<path fill="#D82C26" stroke="none" d="
M 82.35 6.1
L 81.65 6.1 81.55 6.55 82.4 6.55 82.4 9.4
Q 82.4 10 82.65 10.25 82.95 10.55 83.4 10.55
L 83.9 10.5 84.35 10.35 84.25 9.95 83.55 10.1
Q 83.25 10.1 83.1 9.95 82.9 9.65 82.9 9.35
L 82.9 6.55 84.05 6.55 84.15 6.1 82.9 6.1 82.9 4.85 82.35 5.05 82.35 6.1 Z"/>
</g>

<g id="IT_728x90_psd_Asset_6_ManagedWiFi_IT_Awareness_DM7_1_Does_your_business_struggle__with_network_security__0_Layer0_0_MEMBER_42_FILL">
<path fill="#D82C26" stroke="none" d="
M 88.95 6.1
L 88.4 6.1 87.05 9.9 85.55 6.1 84.95 6.1 86.75 10.5 86.45 11.45 86 12.05
Q 85.75 12.15 85.2 12.25
L 85.35 12.7
Q 85.95 12.7 86.35 12.45 86.7 12.15 86.95 11.6
L 88.95 6.1 Z"/>
</g>

<g id="IT_728x90_psd_Asset_6_ManagedWiFi_IT_Awareness_DM7_1_Does_your_business_struggle__with_network_security__0_Layer0_0_MEMBER_43_FILL">
<path fill="#D82C26" stroke="none" d="
M 92.4 5.95
Q 92.5 5.75 92.5 5.3 92.5 4.8 92.3 4.45 91.95 4 91.6 3.9 91.25 3.7 90.7 3.7 90 3.7 89.6 3.9 89.15 4.15 88.85 4.5
L 89.1 4.95
Q 89.25 4.7 89.75 4.4 90.15 4.2 90.65 4.2 91.25 4.2 91.6 4.5 91.95 4.8 91.95 5.3
L 91.85 5.85 91.6 6.25 91.1 6.75 90.55 7.5
Q 90.4 7.9 90.4 8.3
L 90.4 8.6 90.9 8.6 90.9 8.4 90.95 7.85 91.15 7.45 92.1 6.45
Q 92.35 6.2 92.4 5.95
M 90.4 10.4
L 90.7 10.55
Q 90.9 10.55 90.95 10.4 91.1 10.35 91.1 10.1
L 90.95 9.8 90.7 9.7
Q 90.5 9.7 90.4 9.8 90.3 9.9 90.3 10.1 90.3 10.35 90.4 10.4 Z"/>
</g>
</defs>

<g transform="matrix( 1, 0, 0, 1, -261,-59) ">
<g transform="matrix( 1, 0, 0, 1, 261,72) ">
<g transform="matrix( 1, 0, 0, 1, 25,8) ">
<g transform="matrix( 2.6895904541015625, 0, 0, 2.672393798828125, -0.85,19.55) ">
<use xlink:href="#IT_728x90_psd_Asset_6_ManagedWiFi_IT_Awareness_DM7_1_Does_your_business_struggle__with_network_security__0_Layer0_0_MEMBER_0_FILL"/>
</g>

<g transform="matrix( 2.6895904541015625, 0, 0, 2.672393798828125, -0.85,19.55) ">
<use xlink:href="#IT_728x90_psd_Asset_6_ManagedWiFi_IT_Awareness_DM7_1_Does_your_business_struggle__with_network_security__0_Layer0_0_MEMBER_1_FILL"/>
</g>

<g transform="matrix( 2.6895904541015625, 0, 0, 2.672393798828125, -0.85,19.55) ">
<use xlink:href="#IT_728x90_psd_Asset_6_ManagedWiFi_IT_Awareness_DM7_1_Does_your_business_struggle__with_network_security__0_Layer0_0_MEMBER_2_FILL"/>
</g>

<g transform="matrix( 2.6895904541015625, 0, 0, 2.672393798828125, -0.85,19.55) ">
<use xlink:href="#IT_728x90_psd_Asset_6_ManagedWiFi_IT_Awareness_DM7_1_Does_your_business_struggle__with_network_security__0_Layer0_0_MEMBER_3_FILL"/>
</g>

<g transform="matrix( 2.6895904541015625, 0, 0, 2.672393798828125, -0.85,19.55) ">
<use xlink:href="#IT_728x90_psd_Asset_6_ManagedWiFi_IT_Awareness_DM7_1_Does_your_business_struggle__with_network_security__0_Layer0_0_MEMBER_4_FILL"/>
</g>

<g transform="matrix( 2.6895904541015625, 0, 0, 2.672393798828125, -0.85,19.55) ">
<use xlink:href="#IT_728x90_psd_Asset_6_ManagedWiFi_IT_Awareness_DM7_1_Does_your_business_struggle__with_network_security__0_Layer0_0_MEMBER_5_FILL"/>
</g>

<g transform="matrix( 2.6895904541015625, 0, 0, 2.672393798828125, -0.85,19.55) ">
<use xlink:href="#IT_728x90_psd_Asset_6_ManagedWiFi_IT_Awareness_DM7_1_Does_your_business_struggle__with_network_security__0_Layer0_0_MEMBER_6_FILL"/>
</g>

<g transform="matrix( 2.6895904541015625, 0, 0, 2.672393798828125, -0.85,19.55) ">
<use xlink:href="#IT_728x90_psd_Asset_6_ManagedWiFi_IT_Awareness_DM7_1_Does_your_business_struggle__with_network_security__0_Layer0_0_MEMBER_7_FILL"/>
</g>

<g transform="matrix( 2.6895904541015625, 0, 0, 2.672393798828125, -0.85,19.55) ">
<use xlink:href="#IT_728x90_psd_Asset_6_ManagedWiFi_IT_Awareness_DM7_1_Does_your_business_struggle__with_network_security__0_Layer0_0_MEMBER_8_FILL"/>
</g>

<g transform="matrix( 2.6895904541015625, 0, 0, 2.672393798828125, -0.85,19.55) ">
<use xlink:href="#IT_728x90_psd_Asset_6_ManagedWiFi_IT_Awareness_DM7_1_Does_your_business_struggle__with_network_security__0_Layer0_0_MEMBER_9_FILL"/>
</g>

<g transform="matrix( 2.6895904541015625, 0, 0, 2.672393798828125, -0.85,19.55) ">
<use xlink:href="#IT_728x90_psd_Asset_6_ManagedWiFi_IT_Awareness_DM7_1_Does_your_business_struggle__with_network_security__0_Layer0_0_MEMBER_10_FILL"/>
</g>

<g transform="matrix( 2.6895904541015625, 0, 0, 2.672393798828125, -0.85,19.55) ">
<use xlink:href="#IT_728x90_psd_Asset_6_ManagedWiFi_IT_Awareness_DM7_1_Does_your_business_struggle__with_network_security__0_Layer0_0_MEMBER_11_FILL"/>
</g>

<g transform="matrix( 2.6895904541015625, 0, 0, 2.672393798828125, -0.85,19.55) ">
<use xlink:href="#IT_728x90_psd_Asset_6_ManagedWiFi_IT_Awareness_DM7_1_Does_your_business_struggle__with_network_security__0_Layer0_0_MEMBER_12_FILL"/>
</g>

<g transform="matrix( 2.6895904541015625, 0, 0, 2.672393798828125, -0.85,19.55) ">
<use xlink:href="#IT_728x90_psd_Asset_6_ManagedWiFi_IT_Awareness_DM7_1_Does_your_business_struggle__with_network_security__0_Layer0_0_MEMBER_13_FILL"/>
</g>

<g transform="matrix( 2.6895904541015625, 0, 0, 2.672393798828125, -0.85,19.55) ">
<use xlink:href="#IT_728x90_psd_Asset_6_ManagedWiFi_IT_Awareness_DM7_1_Does_your_business_struggle__with_network_security__0_Layer0_0_MEMBER_14_FILL"/>
</g>

<g transform="matrix( 2.6895904541015625, 0, 0, 2.672393798828125, -0.85,19.55) ">
<use xlink:href="#IT_728x90_psd_Asset_6_ManagedWiFi_IT_Awareness_DM7_1_Does_your_business_struggle__with_network_security__0_Layer0_0_MEMBER_15_FILL"/>
</g>

<g transform="matrix( 2.6895904541015625, 0, 0, 2.672393798828125, -0.85,19.55) ">
<use xlink:href="#IT_728x90_psd_Asset_6_ManagedWiFi_IT_Awareness_DM7_1_Does_your_business_struggle__with_network_security__0_Layer0_0_MEMBER_16_FILL"/>
</g>

<g transform="matrix( 2.6895904541015625, 0, 0, 2.672393798828125, -0.85,19.55) ">
<use xlink:href="#IT_728x90_psd_Asset_6_ManagedWiFi_IT_Awareness_DM7_1_Does_your_business_struggle__with_network_security__0_Layer0_0_MEMBER_17_FILL"/>
</g>

<g transform="matrix( 2.6895904541015625, 0, 0, 2.672393798828125, -0.85,19.55) ">
<use xlink:href="#IT_728x90_psd_Asset_6_ManagedWiFi_IT_Awareness_DM7_1_Does_your_business_struggle__with_network_security__0_Layer0_0_MEMBER_18_FILL"/>
</g>

<g transform="matrix( 2.6895904541015625, 0, 0, 2.672393798828125, -0.85,19.55) ">
<use xlink:href="#IT_728x90_psd_Asset_6_ManagedWiFi_IT_Awareness_DM7_1_Does_your_business_struggle__with_network_security__0_Layer0_0_MEMBER_19_FILL"/>
</g>

<g transform="matrix( 2.6895904541015625, 0, 0, 2.672393798828125, -0.85,19.55) ">
<use xlink:href="#IT_728x90_psd_Asset_6_ManagedWiFi_IT_Awareness_DM7_1_Does_your_business_struggle__with_network_security__0_Layer0_0_MEMBER_20_FILL"/>
</g>

<g transform="matrix( 2.6895904541015625, 0, 0, 2.672393798828125, -0.85,19.55) ">
<use xlink:href="#IT_728x90_psd_Asset_6_ManagedWiFi_IT_Awareness_DM7_1_Does_your_business_struggle__with_network_security__0_Layer0_0_MEMBER_21_FILL"/>
</g>

<g transform="matrix( 2.6895904541015625, 0, 0, 2.672393798828125, -0.85,19.55) ">
<use xlink:href="#IT_728x90_psd_Asset_6_ManagedWiFi_IT_Awareness_DM7_1_Does_your_business_struggle__with_network_security__0_Layer0_0_MEMBER_22_FILL"/>
</g>

<g transform="matrix( 2.6895904541015625, 0, 0, 2.672393798828125, -0.85,19.55) ">
<use xlink:href="#IT_728x90_psd_Asset_6_ManagedWiFi_IT_Awareness_DM7_1_Does_your_business_struggle__with_network_security__0_Layer0_0_MEMBER_23_FILL"/>
</g>

<g transform="matrix( 2.6895904541015625, 0, 0, 2.672393798828125, -0.85,19.55) ">
<use xlink:href="#IT_728x90_psd_Asset_6_ManagedWiFi_IT_Awareness_DM7_1_Does_your_business_struggle__with_network_security__0_Layer0_0_MEMBER_24_FILL"/>
</g>

<g transform="matrix( 2.6895904541015625, 0, 0, 2.672393798828125, -0.85,19.55) ">
<use xlink:href="#IT_728x90_psd_Asset_6_ManagedWiFi_IT_Awareness_DM7_1_Does_your_business_struggle__with_network_security__0_Layer0_0_MEMBER_25_FILL"/>
</g>

<g transform="matrix( 2.6895904541015625, 0, 0, 2.672393798828125, -0.85,19.55) ">
<use xlink:href="#IT_728x90_psd_Asset_6_ManagedWiFi_IT_Awareness_DM7_1_Does_your_business_struggle__with_network_security__0_Layer0_0_MEMBER_26_FILL"/>
</g>

<g transform="matrix( 2.6895904541015625, 0, 0, 2.672393798828125, -0.85,19.55) ">
<use xlink:href="#IT_728x90_psd_Asset_6_ManagedWiFi_IT_Awareness_DM7_1_Does_your_business_struggle__with_network_security__0_Layer0_0_MEMBER_27_FILL"/>
</g>

<g transform="matrix( 2.6895904541015625, 0, 0, 2.672393798828125, -0.85,19.55) ">
<use xlink:href="#IT_728x90_psd_Asset_6_ManagedWiFi_IT_Awareness_DM7_1_Does_your_business_struggle__with_network_security__0_Layer0_0_MEMBER_28_FILL"/>
</g>

<g transform="matrix( 2.6895904541015625, 0, 0, 2.672393798828125, -0.85,19.55) ">
<use xlink:href="#IT_728x90_psd_Asset_6_ManagedWiFi_IT_Awareness_DM7_1_Does_your_business_struggle__with_network_security__0_Layer0_0_MEMBER_29_FILL"/>
</g>

<g transform="matrix( 2.6895904541015625, 0, 0, 2.672393798828125, -0.85,19.55) ">
<use xlink:href="#IT_728x90_psd_Asset_6_ManagedWiFi_IT_Awareness_DM7_1_Does_your_business_struggle__with_network_security__0_Layer0_0_MEMBER_30_FILL"/>
</g>

<g transform="matrix( 2.6895904541015625, 0, 0, 2.672393798828125, -0.85,19.55) ">
<use xlink:href="#IT_728x90_psd_Asset_6_ManagedWiFi_IT_Awareness_DM7_1_Does_your_business_struggle__with_network_security__0_Layer0_0_MEMBER_31_FILL"/>
</g>

<g transform="matrix( 2.6895904541015625, 0, 0, 2.672393798828125, -0.85,19.55) ">
<use xlink:href="#IT_728x90_psd_Asset_6_ManagedWiFi_IT_Awareness_DM7_1_Does_your_business_struggle__with_network_security__0_Layer0_0_MEMBER_32_FILL"/>
</g>

<g transform="matrix( 2.6895904541015625, 0, 0, 2.672393798828125, -0.85,19.55) ">
<use xlink:href="#IT_728x90_psd_Asset_6_ManagedWiFi_IT_Awareness_DM7_1_Does_your_business_struggle__with_network_security__0_Layer0_0_MEMBER_33_FILL"/>
</g>

<g transform="matrix( 2.6895904541015625, 0, 0, 2.672393798828125, -0.85,19.55) ">
<use xlink:href="#IT_728x90_psd_Asset_6_ManagedWiFi_IT_Awareness_DM7_1_Does_your_business_struggle__with_network_security__0_Layer0_0_MEMBER_34_FILL"/>
</g>

<g transform="matrix( 2.6895904541015625, 0, 0, 2.672393798828125, -0.85,19.55) ">
<use xlink:href="#IT_728x90_psd_Asset_6_ManagedWiFi_IT_Awareness_DM7_1_Does_your_business_struggle__with_network_security__0_Layer0_0_MEMBER_35_FILL"/>
</g>

<g transform="matrix( 2.6895904541015625, 0, 0, 2.672393798828125, -0.85,19.55) ">
<use xlink:href="#IT_728x90_psd_Asset_6_ManagedWiFi_IT_Awareness_DM7_1_Does_your_business_struggle__with_network_security__0_Layer0_0_MEMBER_36_FILL"/>
</g>

<g transform="matrix( 2.6895904541015625, 0, 0, 2.672393798828125, -0.85,19.55) ">
<use xlink:href="#IT_728x90_psd_Asset_6_ManagedWiFi_IT_Awareness_DM7_1_Does_your_business_struggle__with_network_security__0_Layer0_0_MEMBER_37_FILL"/>
</g>

<g transform="matrix( 2.6895904541015625, 0, 0, 2.672393798828125, -0.85,19.55) ">
<use xlink:href="#IT_728x90_psd_Asset_6_ManagedWiFi_IT_Awareness_DM7_1_Does_your_business_struggle__with_network_security__0_Layer0_0_MEMBER_38_FILL"/>
</g>

<g transform="matrix( 2.6895904541015625, 0, 0, 2.672393798828125, -0.85,19.55) ">
<use xlink:href="#IT_728x90_psd_Asset_6_ManagedWiFi_IT_Awareness_DM7_1_Does_your_business_struggle__with_network_security__0_Layer0_0_MEMBER_39_FILL"/>
</g>

<g transform="matrix( 2.6895904541015625, 0, 0, 2.672393798828125, -0.85,19.55) ">
<use xlink:href="#IT_728x90_psd_Asset_6_ManagedWiFi_IT_Awareness_DM7_1_Does_your_business_struggle__with_network_security__0_Layer0_0_MEMBER_40_FILL"/>
</g>

<g transform="matrix( 2.6895904541015625, 0, 0, 2.672393798828125, -0.85,19.55) ">
<use xlink:href="#IT_728x90_psd_Asset_6_ManagedWiFi_IT_Awareness_DM7_1_Does_your_business_struggle__with_network_security__0_Layer0_0_MEMBER_41_FILL"/>
</g>

<g transform="matrix( 2.6895904541015625, 0, 0, 2.672393798828125, -0.85,19.55) ">
<use xlink:href="#IT_728x90_psd_Asset_6_ManagedWiFi_IT_Awareness_DM7_1_Does_your_business_struggle__with_network_security__0_Layer0_0_MEMBER_42_FILL"/>
</g>

<g transform="matrix( 2.6895904541015625, 0, 0, 2.672393798828125, -0.85,19.55) ">
<use xlink:href="#IT_728x90_psd_Asset_6_ManagedWiFi_IT_Awareness_DM7_1_Does_your_business_struggle__with_network_security__0_Layer0_0_MEMBER_43_FILL"/>
</g>
</g>
</g>
</g>
</svg>
