
<svg xmlns="http://www.w3.org/2000/svg" version="1.1" xmlns:xlink="http://www.w3.org/1999/xlink" preserveAspectRatio="none" x="0px" y="0px" width="300px" height="250px" viewBox="0 0 300 250">
<defs>
<g id="ROG_SEflex_STDbanners_300x250_psd_Asset_1_Version_5_lockup_CTA_Discover_more_0_Layer0_0_MEMBER_0_FILL">
<path fill="#FFFFFF" stroke="none" d="
M 7.9 4.6
Q 7.9 3.25 7.3 2.35 6.65 1.45 5.7 1.1 4.65 0.7 3.55 0.7
L 0.95 0.7 0.95 8.5 3.6 8.5
Q 4.75 8.5 5.7 8.05 6.75 7.55 7.3 6.75 7.9 5.85 7.9 4.6
M 5.8 2.4
Q 6.7 3.15 6.7 4.6 6.7 6.1 5.8 6.75 4.9 7.5 3.45 7.5
L 2.05 7.5 2.05 1.65 3.45 1.65
Q 4.9 1.65 5.8 2.4 Z"/>
</g>

<g id="ROG_SEflex_STDbanners_300x250_psd_Asset_1_Version_5_lockup_CTA_Discover_more_0_Layer0_0_MEMBER_1_FILL">
<path fill="#FFFFFF" stroke="none" d="
M 10 3.2
L 8.95 3.2 8.95 8.5 10 8.5 10 3.2
M 9.5 1.9
Q 9.75 1.9 9.95 1.75 10.15 1.55 10.15 1.25 10.15 1 9.95 0.8 9.75 0.6 9.5 0.6 9.2 0.6 9 0.8 8.8 1.1 8.8 1.25 8.8 1.45 9 1.75 9.25 1.9 9.5 1.9 Z"/>
</g>

<g id="ROG_SEflex_STDbanners_300x250_psd_Asset_1_Version_5_lockup_CTA_Discover_more_0_Layer0_0_MEMBER_2_FILL">
<path fill="#FFFFFF" stroke="none" d="
M 11.5 5.55
Q 11.9 5.95 12.6 6.1
L 13.6 6.5
Q 13.9 6.75 13.9 7.05 13.9 7.45 13.6 7.65 13.2 7.85 12.85 7.85 11.9 7.85 11.15 7.25
L 11 8.1
Q 11.1 8.2 11.85 8.5
L 12.95 8.65
Q 13.5 8.65 13.9 8.45 14.3 8.3 14.65 7.9 14.95 7.55 14.95 7 14.95 6.4 14.5 6
L 13.3 5.4
Q 12.65 5.25 12.35 5.05 12.1 4.95 12.1 4.55 12.1 4.25 12.35 4 12.65 3.85 13.05 3.85
L 13.75 4
Q 14.25 4.25 14.35 4.35
L 14.75 3.6
Q 14.4 3.35 14 3.2 13.55 3.05 13 3.05 12.5 3.05 12.1 3.2 11.6 3.45 11.35 3.75 11.1 4.15 11.1 4.6 11.1 5.3 11.5 5.55 Z"/>
</g>

<g id="ROG_SEflex_STDbanners_300x250_psd_Asset_1_Version_5_lockup_CTA_Discover_more_0_Layer0_0_MEMBER_3_FILL">
<path fill="#FFFFFF" stroke="none" d="
M 15.9 4.4
Q 15.5 5.05 15.5 5.85 15.5 6.6 15.85 7.3 16.25 7.9 16.85 8.3 17.65 8.65 18.25 8.65 18.9 8.65 19.35 8.45 19.9 8.3 20.15 8
L 20 7.15
Q 19.6 7.5 19.3 7.6 18.95 7.75 18.45 7.75 17.95 7.75 17.45 7.5 16.95 7.1 16.8 6.8 16.6 6.4 16.6 5.85 16.6 5.3 16.8 4.9 17.05 4.4 17.45 4.2 17.75 3.95 18.35 3.95
L 19.1 4.1
Q 19.35 4.15 19.75 4.45
L 20.15 3.65
Q 19.85 3.35 19.35 3.2
L 18.35 3.05
Q 17.55 3.05 16.9 3.4 16.15 3.8 15.9 4.4 Z"/>
</g>

<g id="ROG_SEflex_STDbanners_300x250_psd_Asset_1_Version_5_lockup_CTA_Discover_more_0_Layer0_0_MEMBER_4_FILL">
<path fill="#FFFFFF" stroke="none" d="
M 26.2 5.85
Q 26.2 5 25.85 4.35 25.45 3.7 24.8 3.4 24.15 3.05 23.35 3.05 22.55 3.05 21.9 3.4 21.3 3.65 20.9 4.4 20.5 5.05 20.5 5.85 20.5 6.6 20.9 7.3 21.35 8 21.9 8.3 22.7 8.65 23.35 8.65 24 8.65 24.8 8.3 25.45 7.95 25.85 7.3 26.2 6.65 26.2 5.85
M 21.55 5.85
Q 21.55 5.4 21.75 4.9 22 4.4 22.4 4.2 22.7 3.95 23.35 3.95 24 3.95 24.3 4.2 24.7 4.4 24.95 4.9 25.15 5.25 25.15 5.85 25.15 6.4 24.95 6.8 24.65 7.25 24.3 7.45 23.95 7.75 23.35 7.75 22.8 7.75 22.4 7.45 22.05 7.25 21.75 6.8 21.55 6.2 21.55 5.85 Z"/>
</g>

<g id="ROG_SEflex_STDbanners_300x250_psd_Asset_1_Version_5_lockup_CTA_Discover_more_0_Layer0_0_MEMBER_5_FILL">
<path fill="#FFFFFF" stroke="none" d="
M 26.4 3.2
L 28.4 8.5 29.6 8.5 31.6 3.2 30.5 3.2 29 7.35 27.55 3.2 26.4 3.2 Z"/>
</g>

<g id="ROG_SEflex_STDbanners_300x250_psd_Asset_1_Version_5_lockup_CTA_Discover_more_0_Layer0_0_MEMBER_6_FILL">
<path fill="#FFFFFF" stroke="none" d="
M 36.75 4.35
Q 36.4 3.7 35.85 3.4 35.3 3.05 34.5 3.05 33.75 3.05 33.1 3.4 32.5 3.8 32.15 4.4 31.8 4.95 31.8 5.85 31.8 6.75 32.15 7.3 32.45 7.9 33.15 8.3 33.85 8.65 34.55 8.65 35.8 8.65 36.7 8.05
L 36.55 7.2
Q 36.3 7.4 35.7 7.65 35.25 7.8 34.7 7.8 34.25 7.8 33.75 7.55 33.35 7.35 33.1 6.95 32.9 6.7 32.8 6.1
L 37.05 6.1 37.05 5.75
Q 37.05 4.95 36.75 4.35
M 35.6 4.25
Q 36.05 4.7 36.05 5.4
L 32.8 5.4
Q 32.9 4.9 33.05 4.65 33.3 4.3 33.65 4.05 34.05 3.8 34.5 3.8 35.25 3.8 35.6 4.25 Z"/>
</g>

<g id="ROG_SEflex_STDbanners_300x250_psd_Asset_1_Version_5_lockup_CTA_Discover_more_0_Layer0_0_MEMBER_7_FILL">
<path fill="#FFFFFF" stroke="none" d="
M 41.1 3.15
L 40.55 3.05
Q 40.1 3.05 39.7 3.35 39.3 3.65 39.15 4.2
L 39.1 4.2 39.05 3.2 38 3.2 38.05 8.5 39.15 8.5 39.15 5.85
Q 39.15 5.05 39.5 4.55 39.8 4 40.5 4
L 40.95 4.05 41.1 3.15 Z"/>
</g>

<g id="ROG_SEflex_STDbanners_300x250_psd_Asset_1_Version_5_lockup_CTA_Discover_more_0_Layer0_0_MEMBER_8_FILL">
<path fill="#FFFFFF" stroke="none" d="
M 52.1 5.3
Q 52.1 4.4 51.65 3.7 51.2 3.05 50.2 3.05 49.55 3.05 49.1 3.35 48.6 3.65 48.4 4.25 48.15 3.65 47.75 3.35 47.3 3.05 46.7 3.05 46.1 3.05 45.65 3.35 45.1 3.8 45 4.2
L 44.95 4.2 44.9 3.2 43.85 3.2 43.9 8.5 45 8.5 45 5.75
Q 45 4.95 45.4 4.45 45.75 3.95 46.35 3.95 46.9 3.95 47.2 4.3 47.45 4.8 47.45 5.4
L 47.45 8.5 48.55 8.5 48.55 5.7
Q 48.55 4.85 48.9 4.45 49.25 3.95 49.9 3.95 50.5 3.95 50.8 4.4 51.05 4.9 51.05 5.5
L 51.05 8.5 52.1 8.5 52.1 5.3 Z"/>
</g>

<g id="ROG_SEflex_STDbanners_300x250_psd_Asset_1_Version_5_lockup_CTA_Discover_more_0_Layer0_0_MEMBER_9_FILL">
<path fill="#FFFFFF" stroke="none" d="
M 58.75 5.85
Q 58.75 5 58.4 4.35 58 3.7 57.4 3.4 56.75 3.05 55.9 3.05 55.1 3.05 54.45 3.4 53.85 3.7 53.45 4.4 53.05 5.05 53.05 5.85 53.05 6.6 53.45 7.3 53.85 7.9 54.45 8.3 55.25 8.65 55.9 8.65 56.6 8.65 57.4 8.3 58 7.9 58.4 7.3 58.75 6.65 58.75 5.85
M 57.5 4.9
Q 57.75 5.3 57.75 5.85 57.75 6.3 57.5 6.8 57.25 7.25 56.9 7.45 56.45 7.75 55.9 7.75 55.4 7.75 54.95 7.45 54.6 7.25 54.35 6.8 54.15 6.4 54.15 5.85 54.15 5.25 54.35 4.9 54.6 4.4 54.95 4.2 55.35 3.95 55.9 3.95 56.55 3.95 56.9 4.2 57.25 4.4 57.5 4.9 Z"/>
</g>

<g id="ROG_SEflex_STDbanners_300x250_psd_Asset_1_Version_5_lockup_CTA_Discover_more_0_Layer0_0_MEMBER_10_FILL">
<path fill="#FFFFFF" stroke="none" d="
M 60.85 4.2
L 60.75 3.2 59.75 3.2 59.8 8.5 60.85 8.5 60.85 5.85
Q 60.85 5.1 61.25 4.55 61.55 4 62.2 4
L 62.7 4.05 62.85 3.15 62.25 3.05
Q 61.85 3.05 61.45 3.35 61.1 3.65 60.85 4.2 Z"/>
</g>

<g id="ROG_SEflex_STDbanners_300x250_psd_Asset_1_Version_5_lockup_CTA_Discover_more_0_Layer0_0_MEMBER_11_FILL">
<path fill="#FFFFFF" stroke="none" d="
M 67.75 4.35
Q 67.4 3.7 66.85 3.4 66.3 3.05 65.5 3.05 64.75 3.05 64.1 3.4 63.5 3.8 63.15 4.4 62.8 4.95 62.8 5.85 62.8 6.75 63.15 7.3 63.5 7.95 64.15 8.3 64.85 8.65 65.55 8.65 66.8 8.65 67.7 8.05
L 67.55 7.2
Q 67.3 7.4 66.7 7.65 66.25 7.8 65.7 7.8 65.25 7.8 64.75 7.55 64.35 7.35 64.1 6.95 63.8 6.6 63.8 6.1
L 68.05 6.1 68.05 5.75
Q 68.05 4.95 67.75 4.35
M 66.6 4.25
Q 67.05 4.7 67.05 5.4
L 63.8 5.4
Q 63.9 4.9 64.05 4.65 64.3 4.25 64.6 4.05 65 3.8 65.5 3.8 66.25 3.8 66.6 4.25 Z"/>
</g>
</defs>

<g transform="matrix( 1, 0, 0, 1, -38,0) ">
<g transform="matrix( 1, 0, 0, 1, 0,0) ">
<g transform="matrix( 1, 0, 0, 1, 57,125) ">
<g transform="matrix( 1, 0, 0, 1, 9,7) ">
<g transform="matrix( 1.13018798828125, 0, 0, 1.1363525390625, -1.1,-0.55) ">
<use xlink:href="#ROG_SEflex_STDbanners_300x250_psd_Asset_1_Version_5_lockup_CTA_Discover_more_0_Layer0_0_MEMBER_0_FILL"/>
</g>

<g transform="matrix( 1.13018798828125, 0, 0, 1.1363525390625, -1.1,-0.55) ">
<use xlink:href="#ROG_SEflex_STDbanners_300x250_psd_Asset_1_Version_5_lockup_CTA_Discover_more_0_Layer0_0_MEMBER_1_FILL"/>
</g>

<g transform="matrix( 1.13018798828125, 0, 0, 1.1363525390625, -1.1,-0.55) ">
<use xlink:href="#ROG_SEflex_STDbanners_300x250_psd_Asset_1_Version_5_lockup_CTA_Discover_more_0_Layer0_0_MEMBER_2_FILL"/>
</g>

<g transform="matrix( 1.13018798828125, 0, 0, 1.1363525390625, -1.1,-0.55) ">
<use xlink:href="#ROG_SEflex_STDbanners_300x250_psd_Asset_1_Version_5_lockup_CTA_Discover_more_0_Layer0_0_MEMBER_3_FILL"/>
</g>

<g transform="matrix( 1.13018798828125, 0, 0, 1.1363525390625, -1.1,-0.55) ">
<use xlink:href="#ROG_SEflex_STDbanners_300x250_psd_Asset_1_Version_5_lockup_CTA_Discover_more_0_Layer0_0_MEMBER_4_FILL"/>
</g>

<g transform="matrix( 1.13018798828125, 0, 0, 1.1363525390625, -1.1,-0.55) ">
<use xlink:href="#ROG_SEflex_STDbanners_300x250_psd_Asset_1_Version_5_lockup_CTA_Discover_more_0_Layer0_0_MEMBER_5_FILL"/>
</g>

<g transform="matrix( 1.13018798828125, 0, 0, 1.1363525390625, -1.1,-0.55) ">
<use xlink:href="#ROG_SEflex_STDbanners_300x250_psd_Asset_1_Version_5_lockup_CTA_Discover_more_0_Layer0_0_MEMBER_6_FILL"/>
</g>

<g transform="matrix( 1.13018798828125, 0, 0, 1.1363525390625, -1.1,-0.55) ">
<use xlink:href="#ROG_SEflex_STDbanners_300x250_psd_Asset_1_Version_5_lockup_CTA_Discover_more_0_Layer0_0_MEMBER_7_FILL"/>
</g>

<g transform="matrix( 1.13018798828125, 0, 0, 1.1363525390625, -1.1,-0.55) ">
<use xlink:href="#ROG_SEflex_STDbanners_300x250_psd_Asset_1_Version_5_lockup_CTA_Discover_more_0_Layer0_0_MEMBER_8_FILL"/>
</g>

<g transform="matrix( 1.13018798828125, 0, 0, 1.1363525390625, -1.1,-0.55) ">
<use xlink:href="#ROG_SEflex_STDbanners_300x250_psd_Asset_1_Version_5_lockup_CTA_Discover_more_0_Layer0_0_MEMBER_9_FILL"/>
</g>

<g transform="matrix( 1.13018798828125, 0, 0, 1.1363525390625, -1.1,-0.55) ">
<use xlink:href="#ROG_SEflex_STDbanners_300x250_psd_Asset_1_Version_5_lockup_CTA_Discover_more_0_Layer0_0_MEMBER_10_FILL"/>
</g>

<g transform="matrix( 1.13018798828125, 0, 0, 1.1363525390625, -1.1,-0.55) ">
<use xlink:href="#ROG_SEflex_STDbanners_300x250_psd_Asset_1_Version_5_lockup_CTA_Discover_more_0_Layer0_0_MEMBER_11_FILL"/>
</g>
</g>
</g>
</g>
</g>
</svg>
