
<svg xmlns="http://www.w3.org/2000/svg" version="1.1" xmlns:xlink="http://www.w3.org/1999/xlink" preserveAspectRatio="none" x="0px" y="0px" width="336px" height="280px" viewBox="0 0 336 280">
<defs>
<g id="BDM_336x280_FR_psd_Asset_7_V8_3_et_personnaliser_davantage__l_exp_rience_client__0_Layer0_0_MEMBER_0_FILL">
<path fill="#D82C26" stroke="none" d="
M 4.1 -3.1
Q 3.85 -3.55 3.45 -3.85 3.05 -4.1 2.45 -4.1 1.95 -4.1 1.45 -3.85 0.95 -3.5 0.75 -3.1 0.45 -2.55 0.45 -2 0.45 -1.4 0.75 -0.9 0.95 -0.45 1.45 -0.15 1.85 0.1 2.5 0.1 3.45 0.1 4.1 -0.4
L 4 -0.8
Q 3.85 -0.65 3.35 -0.45 3 -0.3 2.55 -0.3 2 -0.3 1.75 -0.5 1.4 -0.7 1.15 -1.1 0.95 -1.6 0.95 -1.9
L 4.3 -1.9 4.35 -2.15
Q 4.35 -2.6 4.1 -3.1
M 1.65 -3.5
Q 2 -3.7 2.45 -3.7 3.05 -3.7 3.45 -3.3 3.85 -2.9 3.85 -2.3
L 0.95 -2.3 1.15 -2.9
Q 1.3 -3.2 1.65 -3.5 Z"/>
</g>

<g id="BDM_336x280_FR_psd_Asset_7_V8_3_et_personnaliser_davantage__l_exp_rience_client__0_Layer0_0_MEMBER_1_FILL">
<path fill="#D82C26" stroke="none" d="
M 4.8 -3.95
L 4.7 -3.6 5.4 -3.6 5.4 -0.95
Q 5.4 -0.45 5.65 -0.2 5.95 0.1 6.35 0.1
L 6.8 0.05 7.2 -0.15 7.1 -0.5
Q 6.7 -0.3 6.5 -0.3 6.25 -0.3 6.05 -0.5 5.9 -0.65 5.9 -1.05
L 5.9 -3.6 6.95 -3.6 7.05 -3.95 5.9 -3.95 5.9 -5.1 5.4 -4.9 5.4 -3.95 4.8 -3.95 Z"/>
</g>

<g id="BDM_336x280_FR_psd_Asset_7_V8_3_et_personnaliser_davantage__l_exp_rience_client__0_Layer0_0_MEMBER_2_FILL">
<path fill="#D82C26" stroke="none" d="
M 10 -3.95
L 9.5 -3.95 9.5 2.05 10 2.05 10 -0.85 10.05 -0.85
Q 10.3 -0.35 10.7 -0.15 11.1 0.1 11.65 0.1 12.2 0.1 12.7 -0.15 13.05 -0.4 13.4 -0.9 13.65 -1.5 13.65 -2 13.65 -2.55 13.4 -3.05 13.05 -3.55 12.7 -3.8 12.25 -4.1 11.65 -4.1 11.2 -4.1 10.7 -3.85 10.3 -3.55 10.05 -3.1
L 10 -3.1 10 -3.95
M 11.6 -3.65
Q 12.05 -3.65 12.4 -3.45 12.7 -3.25 12.95 -2.85 13.15 -2.25 13.15 -2 13.15 -1.65 12.95 -1.15 12.7 -0.75 12.4 -0.55 12 -0.3 11.6 -0.3 11.15 -0.3 10.75 -0.55 10.4 -0.8 10.2 -1.15 10 -1.5 10 -2 10 -2.45 10.2 -2.85 10.4 -3.2 10.75 -3.45 11.1 -3.65 11.6 -3.65 Z"/>
</g>

<g id="BDM_336x280_FR_psd_Asset_7_V8_3_et_personnaliser_davantage__l_exp_rience_client__0_Layer0_0_MEMBER_3_FILL">
<path fill="#D82C26" stroke="none" d="
M 14.4 -2
Q 14.4 -1.5 14.65 -0.9 14.95 -0.45 15.4 -0.15 15.8 0.1 16.45 0.1 17.4 0.1 18.05 -0.4
L 17.95 -0.8 17.3 -0.45
Q 16.95 -0.3 16.5 -0.3 16 -0.3 15.65 -0.5 15.3 -0.75 15.1 -1.1 14.9 -1.45 14.9 -1.9
L 18.25 -1.9 18.25 -2.15
Q 18.25 -2.7 18.05 -3.1 17.8 -3.55 17.4 -3.85 16.9 -4.1 16.4 -4.1 15.9 -4.1 15.4 -3.85 14.95 -3.55 14.65 -3.1 14.4 -2.5 14.4 -2
M 14.9 -2.3
Q 14.9 -2.5 15.1 -2.9 15.25 -3.2 15.6 -3.5 15.85 -3.7 16.4 -3.7 17 -3.7 17.4 -3.3 17.8 -2.9 17.8 -2.3
L 14.9 -2.3 Z"/>
</g>

<g id="BDM_336x280_FR_psd_Asset_7_V8_3_et_personnaliser_davantage__l_exp_rience_client__0_Layer0_0_MEMBER_4_FILL">
<path fill="#D82C26" stroke="none" d="
M 19.75 -1.95
Q 19.75 -2.7 20.05 -3.15 20.35 -3.65 20.9 -3.65
L 21.25 -3.6 21.35 -4 20.9 -4.1
Q 20.6 -4.1 20.25 -3.85 19.9 -3.6 19.75 -3.1
L 19.7 -3.95 19.2 -3.95 19.25 0 19.75 0 19.75 -1.95 Z"/>
</g>

<g id="BDM_336x280_FR_psd_Asset_7_V8_3_et_personnaliser_davantage__l_exp_rience_client__0_Layer0_0_MEMBER_5_FILL">
<path fill="#D82C26" stroke="none" d="
M 23.8 -3.95
Q 23.5 -4.1 23.1 -4.1 22.8 -4.1 22.5 -3.95 22.2 -3.85 22 -3.6 21.8 -3.4 21.8 -3 21.8 -2.5 22.1 -2.3 22.35 -2.05 22.95 -1.9 23.65 -1.6 23.75 -1.5 24 -1.35 24 -1.05 24 -0.6 23.75 -0.5 23.55 -0.3 23.15 -0.3 22.35 -0.3 21.8 -0.75
L 21.7 -0.35 22.35 0 23.15 0.1 23.8 0
Q 24.15 -0.15 24.3 -0.4 24.5 -0.65 24.5 -1.05 24.5 -1.45 24.2 -1.75 23.75 -2.1 23.25 -2.2
L 22.5 -2.55
Q 22.25 -2.7 22.25 -3 22.25 -3.35 22.5 -3.5 22.7 -3.7 23.15 -3.7
L 23.7 -3.6 24.15 -3.3 24.35 -3.65
Q 24.2 -3.85 23.8 -3.95 Z"/>
</g>

<g id="BDM_336x280_FR_psd_Asset_7_V8_3_et_personnaliser_davantage__l_exp_rience_client__0_Layer0_0_MEMBER_6_FILL">
<path fill="#D82C26" stroke="none" d="
M 29.15 -3.1
Q 28.85 -3.55 28.4 -3.85 27.8 -4.1 27.3 -4.1 26.8 -4.1 26.2 -3.85 25.75 -3.55 25.45 -3.1 25.2 -2.5 25.2 -2 25.2 -1.5 25.45 -0.9 25.75 -0.45 26.2 -0.15 26.65 0.1 27.3 0.1 27.95 0.1 28.4 -0.15 28.85 -0.45 29.15 -0.9 29.4 -1.5 29.4 -2 29.4 -2.5 29.15 -3.1
M 26.45 -3.45
Q 26.8 -3.65 27.3 -3.65 27.8 -3.65 28.15 -3.45 28.55 -3.2 28.7 -2.85 28.9 -2.5 28.9 -2 28.9 -1.5 28.7 -1.15 28.55 -0.8 28.15 -0.55 27.75 -0.3 27.3 -0.3 26.85 -0.3 26.45 -0.55 26.05 -0.8 25.9 -1.15 25.7 -1.5 25.7 -2 25.7 -2.5 25.9 -2.85 26.05 -3.2 26.45 -3.45 Z"/>
</g>

<g id="BDM_336x280_FR_psd_Asset_7_V8_3_et_personnaliser_davantage__l_exp_rience_client__0_Layer0_0_MEMBER_7_FILL">
<path fill="#D82C26" stroke="none" d="
M 30.85 -3.95
L 30.4 -3.95 30.45 0 30.95 0 30.95 -2
Q 30.95 -2.5 31.1 -2.9 31.25 -3.25 31.6 -3.45 31.85 -3.65 32.25 -3.65 32.85 -3.65 33.1 -3.25 33.35 -2.85 33.35 -2.3
L 33.35 0 33.85 0 33.85 -2.4
Q 33.85 -3.1 33.45 -3.6 33.15 -4.1 32.35 -4.1 31.9 -4.1 31.5 -3.8 31.15 -3.65 30.9 -3.1
L 30.85 -3.95 Z"/>
</g>

<g id="BDM_336x280_FR_psd_Asset_7_V8_3_et_personnaliser_davantage__l_exp_rience_client__0_Layer0_0_MEMBER_8_FILL">
<path fill="#D82C26" stroke="none" d="
M 35.55 -3.1
L 35.5 -3.95 35.05 -3.95 35.05 0 35.55 0 35.55 -2
Q 35.55 -2.4 35.75 -2.9 35.9 -3.3 36.25 -3.45 36.5 -3.65 36.9 -3.65 37.5 -3.65 37.7 -3.25 37.95 -2.95 37.95 -2.3
L 37.95 0 38.45 0 38.45 -2.4
Q 38.45 -3.2 38.1 -3.6 37.75 -4.1 37 -4.1 36.55 -4.1 36.15 -3.8 35.8 -3.65 35.55 -3.1 Z"/>
</g>

<g id="BDM_336x280_FR_psd_Asset_7_V8_3_et_personnaliser_davantage__l_exp_rience_client__0_Layer0_0_MEMBER_9_FILL">
<path fill="#D82C26" stroke="none" d="
M 39.45 -1.05
Q 39.45 -0.5 39.8 -0.2 40.2 0.1 40.7 0.1 41.2 0.1 41.6 -0.1 42 -0.35 42.15 -0.75
L 42.2 -0.75 42.2 -0.35 42.25 0 42.7 0 42.65 -2.6
Q 42.65 -3.3 42.25 -3.7 41.75 -4.1 41.1 -4.1 40.7 -4.1 40.3 -3.95
L 39.65 -3.6 39.8 -3.2
Q 40 -3.4 40.4 -3.55 40.7 -3.7 41.05 -3.7 41.6 -3.7 41.9 -3.4 42.2 -3.15 42.2 -2.6
L 42.2 -2.4 41.7 -2.4
Q 39.45 -2.4 39.45 -1.05
M 40.15 -0.45
Q 39.9 -0.7 39.9 -1.1 39.9 -2.05 41.75 -2.05
L 42.2 -2.05 42.2 -1.65
Q 42.2 -1.25 42 -1 41.85 -0.65 41.55 -0.45 41.15 -0.25 40.8 -0.25 40.55 -0.25 40.15 -0.45 Z"/>
</g>

<g id="BDM_336x280_FR_psd_Asset_7_V8_3_et_personnaliser_davantage__l_exp_rience_client__0_Layer0_0_MEMBER_10_FILL">
<path fill="#D82C26" stroke="none" d="
M 43.9 -0.9
Q 43.9 -0.45 44.05 -0.25 44.2 0 44.5 0.1
L 44.75 -0.3 44.45 -0.55 44.4 -1 44.4 -6.45 43.9 -6.35 43.9 -0.9 Z"/>
</g>

<g id="BDM_336x280_FR_psd_Asset_7_V8_3_et_personnaliser_davantage__l_exp_rience_client__0_Layer0_0_MEMBER_11_FILL">
<path fill="#D82C26" stroke="none" d="
M 46.2 -3.95
L 45.7 -3.95 45.7 0 46.2 0 46.2 -3.95
M 45.95 -5.2
L 46.2 -5.3 46.3 -5.55 46.2 -5.8
Q 46.1 -5.9 45.95 -5.9 45.75 -5.9 45.7 -5.8 45.6 -5.75 45.6 -5.55 45.6 -5.35 45.7 -5.3
L 45.95 -5.2 Z"/>
</g>

<g id="BDM_336x280_FR_psd_Asset_7_V8_3_et_personnaliser_davantage__l_exp_rience_client__0_Layer0_0_MEMBER_12_FILL">
<path fill="#D82C26" stroke="none" d="
M 49.25 -3.95
Q 48.95 -4.1 48.55 -4.1 48.2 -4.1 47.9 -3.95 47.7 -3.9 47.4 -3.6 47.25 -3.35 47.25 -3 47.25 -2.55 47.5 -2.3 47.85 -2.05 48.35 -1.9 49 -1.65 49.2 -1.5 49.45 -1.35 49.45 -1.05 49.45 -0.65 49.2 -0.5 48.95 -0.3 48.55 -0.3 47.8 -0.3 47.25 -0.75
L 47.15 -0.35
Q 47.35 -0.15 47.75 0
L 48.6 0.1 49.25 0 49.75 -0.4
Q 49.95 -0.8 49.95 -1.05 49.95 -1.45 49.65 -1.75 49.25 -2.05 48.7 -2.2
L 47.9 -2.55
Q 47.7 -2.7 47.7 -3 47.7 -3.35 47.95 -3.5 48.15 -3.7 48.55 -3.7
L 49.15 -3.6 49.6 -3.3 49.8 -3.65
Q 49.55 -3.9 49.25 -3.95 Z"/>
</g>

<g id="BDM_336x280_FR_psd_Asset_7_V8_3_et_personnaliser_davantage__l_exp_rience_client__0_Layer0_0_MEMBER_13_FILL">
<path fill="#D82C26" stroke="none" d="
M 54.25 -3.1
Q 54 -3.55 53.6 -3.85 53.1 -4.1 52.6 -4.1 52.1 -4.1 51.6 -3.85 51.1 -3.5 50.9 -3.1 50.6 -2.55 50.6 -2 50.6 -1.4 50.9 -0.9 51.1 -0.45 51.6 -0.15 52 0.1 52.65 0.1 53.6 0.1 54.25 -0.4
L 54.15 -0.8
Q 54 -0.65 53.5 -0.45 53.15 -0.3 52.7 -0.3 52.15 -0.3 51.9 -0.5 51.55 -0.7 51.3 -1.1 51.1 -1.6 51.1 -1.9
L 54.45 -1.9 54.45 -2.15
Q 54.45 -2.7 54.25 -3.1
M 51.8 -3.5
Q 52.05 -3.7 52.6 -3.7 53.2 -3.7 53.6 -3.3 54 -2.9 54 -2.3
L 51.1 -2.3
Q 51.1 -2.5 51.3 -2.9 51.45 -3.2 51.8 -3.5 Z"/>
</g>

<g id="BDM_336x280_FR_psd_Asset_7_V8_3_et_personnaliser_davantage__l_exp_rience_client__0_Layer0_0_MEMBER_14_FILL">
<path fill="#D82C26" stroke="none" d="
M 55.95 -1.95
Q 55.95 -2.7 56.25 -3.15 56.55 -3.65 57.1 -3.65
L 57.45 -3.6 57.55 -4 57.1 -4.1
Q 56.8 -4.1 56.45 -3.85 56.1 -3.6 55.95 -3.1
L 55.9 -3.95 55.45 -3.95 55.45 0 55.95 0 55.95 -1.95 Z"/>
</g>

<g id="BDM_336x280_FR_psd_Asset_7_V8_3_et_personnaliser_davantage__l_exp_rience_client__0_Layer0_0_MEMBER_15_FILL">
<path fill="#D82C26" stroke="none" d="
M 59.75 -0.9
Q 59.95 -0.45 60.45 -0.15 60.95 0.1 61.5 0.1 62.1 0.1 62.4 -0.15 62.85 -0.4 63.1 -0.85
L 63.15 0 63.65 0 63.6 -6.5 63.1 -6.4 63.1 -3.1
Q 62.9 -3.5 62.4 -3.85 62 -4.1 61.5 -4.1 60.9 -4.1 60.45 -3.8 59.95 -3.45 59.75 -3.05 59.5 -2.65 59.5 -2 59.5 -1.35 59.75 -0.9
M 60.2 -2.85
Q 60.35 -3.15 60.7 -3.45 61.05 -3.65 61.55 -3.65 62 -3.65 62.35 -3.45 62.75 -3.2 62.9 -2.85 63.1 -2.45 63.1 -2 63.1 -1.5 62.9 -1.15 62.75 -0.8 62.35 -0.55 61.95 -0.3 61.55 -0.3 61.1 -0.3 60.7 -0.55 60.35 -0.85 60.2 -1.15 60 -1.5 60 -2 60 -2.45 60.2 -2.85 Z"/>
</g>

<g id="BDM_336x280_FR_psd_Asset_7_V8_3_et_personnaliser_davantage__l_exp_rience_client__0_Layer0_0_MEMBER_16_FILL">
<path fill="#D82C26" stroke="none" d="
M 64.6 -1.05
Q 64.6 -0.5 64.95 -0.2 65.35 0.1 65.85 0.1 66.4 0.1 66.75 -0.1 67.1 -0.3 67.35 -0.75
L 67.4 -0.35 67.4 0 67.9 0 67.8 -0.85 67.8 -2.6
Q 67.8 -3.35 67.4 -3.7 67 -4.1 66.3 -4.1 65.9 -4.1 65.5 -3.95
L 64.8 -3.6 64.95 -3.2
Q 65.15 -3.4 65.55 -3.55
L 66.2 -3.7
Q 66.75 -3.7 67.05 -3.4 67.35 -3.15 67.35 -2.6
L 67.35 -2.4 66.85 -2.4
Q 64.6 -2.4 64.6 -1.05
M 65.35 -0.45
Q 65.05 -0.65 65.05 -1.1 65.05 -2.05 66.95 -2.05
L 67.35 -2.05 67.35 -1.65
Q 67.35 -1.3 67.2 -1 67 -0.65 66.7 -0.45 66.3 -0.25 65.95 -0.25 65.65 -0.25 65.35 -0.45 Z"/>
</g>

<g id="BDM_336x280_FR_psd_Asset_7_V8_3_et_personnaliser_davantage__l_exp_rience_client__0_Layer0_0_MEMBER_17_FILL">
<path fill="#D82C26" stroke="none" d="
M 68.9 -3.95
L 68.35 -3.95 69.85 0 70.45 0 71.9 -3.95 71.4 -3.95 70.15 -0.5 68.9 -3.95 Z"/>
</g>

<g id="BDM_336x280_FR_psd_Asset_7_V8_3_et_personnaliser_davantage__l_exp_rience_client__0_Layer0_0_MEMBER_18_FILL">
<path fill="#D82C26" stroke="none" d="
M 73.95 -3.7
Q 74.5 -3.7 74.8 -3.4 75.1 -3.15 75.1 -2.6
L 75.1 -2.4 74.6 -2.4
Q 72.35 -2.4 72.35 -1.05 72.35 -0.5 72.7 -0.2 73.1 0.1 73.6 0.1 74.1 0.1 74.5 -0.1 74.9 -0.35 75.05 -0.75
L 75.1 -0.75 75.1 -0.35 75.15 0 75.6 0 75.55 -2.6
Q 75.55 -3.3 75.15 -3.7 74.75 -4.1 74 -4.1 73.65 -4.1 73.2 -3.95
L 72.55 -3.6 72.7 -3.2
Q 72.9 -3.4 73.3 -3.55 73.6 -3.7 73.95 -3.7
M 73.05 -0.45
Q 72.8 -0.7 72.8 -1.1 72.8 -2.05 74.65 -2.05
L 75.1 -2.05 75.1 -1.65
Q 75.1 -1.25 74.9 -1 74.75 -0.65 74.45 -0.45 74.05 -0.25 73.7 -0.25 73.45 -0.25 73.05 -0.45 Z"/>
</g>

<g id="BDM_336x280_FR_psd_Asset_7_V8_3_et_personnaliser_davantage__l_exp_rience_client__0_Layer0_0_MEMBER_19_FILL">
<path fill="#D82C26" stroke="none" d="
M 79.85 -3.6
Q 79.5 -4.1 78.7 -4.1 78.25 -4.1 77.85 -3.8 77.45 -3.55 77.3 -3.1
L 77.25 -3.1 77.2 -3.95 76.75 -3.95 76.8 0 77.3 0 77.3 -2
Q 77.3 -2.5 77.45 -2.9 77.7 -3.35 77.95 -3.45 78.2 -3.65 78.6 -3.65 79.25 -3.65 79.45 -3.25 79.7 -2.85 79.7 -2.3
L 79.7 0 80.2 0 80.2 -2.4
Q 80.2 -3.05 79.85 -3.6 Z"/>
</g>

<g id="BDM_336x280_FR_psd_Asset_7_V8_3_et_personnaliser_davantage__l_exp_rience_client__0_Layer0_0_MEMBER_20_FILL">
<path fill="#D82C26" stroke="none" d="
M 80.85 -3.95
L 80.75 -3.6 81.5 -3.6 81.5 -0.95
Q 81.5 -0.45 81.75 -0.2 82 0.1 82.45 0.1
L 82.9 0.05 83.3 -0.15 83.2 -0.5
Q 82.7 -0.3 82.55 -0.3 82.35 -0.3 82.15 -0.5 82 -0.65 82 -1.05
L 82 -3.6 83 -3.6 83.1 -3.95 82 -3.95 82 -5.1 81.5 -4.9 81.5 -3.95 80.85 -3.95 Z"/>
</g>

<g id="BDM_336x280_FR_psd_Asset_7_V8_3_et_personnaliser_davantage__l_exp_rience_client__0_Layer0_0_MEMBER_21_FILL">
<path fill="#D82C26" stroke="none" d="
M 84.15 -3.2
Q 84.35 -3.4 84.75 -3.55 85.05 -3.7 85.4 -3.7 85.95 -3.7 86.25 -3.4 86.55 -3.15 86.55 -2.6
L 86.55 -2.4 86.05 -2.4
Q 83.8 -2.4 83.8 -1.05 83.8 -0.5 84.15 -0.2 84.55 0.1 85.05 0.1 85.55 0.1 85.95 -0.1 86.3 -0.3 86.55 -0.75
L 86.55 -0.35 86.6 0 87.05 0 87 -2.6
Q 87 -3.3 86.6 -3.7 86.2 -4.1 85.5 -4.1 85.1 -4.1 84.7 -3.95
L 84 -3.6 84.15 -3.2
M 85.9 -0.45
Q 85.5 -0.25 85.15 -0.25 84.9 -0.25 84.5 -0.45 84.25 -0.7 84.25 -1.1 84.25 -2.05 86.1 -2.05
L 86.55 -2.05 86.55 -1.65
Q 86.55 -1.3 86.4 -1 86.25 -0.7 85.9 -0.45 Z"/>
</g>

<g id="BDM_336x280_FR_psd_Asset_7_V8_3_et_personnaliser_davantage__l_exp_rience_client__0_Layer0_0_MEMBER_22_FILL">
<path fill="#D82C26" stroke="none" d="
M 89.95 -4.1
Q 89.4 -4.1 88.95 -3.8 88.5 -3.5 88.2 -3.05 88 -2.65 88 -2 88 -1.35 88.2 -0.95 88.45 -0.55 88.95 -0.2 89.4 0.1 89.95 0.1 90.45 0.1 90.9 -0.2 91.35 -0.45 91.6 -0.9
L 91.6 -0.05
Q 91.6 0.7 91.2 1.2 90.85 1.65 89.95 1.65 89.55 1.65 89.1 1.5
L 88.3 1.15 88.25 1.6
Q 88.45 1.75 89.05 1.95 89.5 2.1 89.95 2.1 91.1 2.1 91.55 1.5 92.1 0.85 92.1 -0.05
L 92.1 -3.95 91.65 -3.95 91.6 -3.1
Q 91.4 -3.5 90.9 -3.85 90.4 -4.1 89.95 -4.1
M 90.05 -3.65
Q 90.5 -3.65 90.85 -3.45 91.15 -3.25 91.4 -2.85 91.6 -2.5 91.6 -2 91.6 -1.5 91.4 -1.15 91.15 -0.75 90.85 -0.55 90.5 -0.35 90.05 -0.35 89.55 -0.35 89.2 -0.55 88.9 -0.75 88.65 -1.15 88.45 -1.65 88.45 -2 88.45 -2.35 88.65 -2.85 88.9 -3.25 89.2 -3.45 89.55 -3.65 90.05 -3.65 Z"/>
</g>

<g id="BDM_336x280_FR_psd_Asset_7_V8_3_et_personnaliser_davantage__l_exp_rience_client__0_Layer0_0_MEMBER_23_FILL">
<path fill="#D82C26" stroke="none" d="
M 96.1 -3.85
Q 95.6 -4.1 95.05 -4.1 94.55 -4.1 94.05 -3.85 93.55 -3.5 93.35 -3.1 93.1 -2.5 93.1 -2 93.1 -1.5 93.35 -0.9 93.7 -0.4 94.1 -0.15 94.5 0.1 95.1 0.1 96.05 0.1 96.7 -0.4
L 96.6 -0.8
Q 96.4 -0.6 96 -0.45 95.55 -0.3 95.15 -0.3 94.7 -0.3 94.35 -0.5 93.95 -0.75 93.8 -1.1 93.65 -1.35 93.55 -1.9
L 96.95 -1.9 96.95 -2.15
Q 96.95 -2.6 96.7 -3.1 96.6 -3.45 96.1 -3.85
M 95.05 -3.7
Q 95.65 -3.7 96.05 -3.3 96.45 -2.95 96.45 -2.3
L 93.6 -2.3
Q 93.6 -2.6 93.75 -2.9 94 -3.3 94.3 -3.5 94.55 -3.7 95.05 -3.7 Z"/>
</g>

<g id="BDM_336x280_FR_psd_Asset_7_V8_3_et_personnaliser_davantage__l_exp_rience_client__0_Layer0_0_MEMBER_24_FILL">
<path fill="#D82C26" stroke="none" d="
M 0.95 9.65
L 1.45 10 1.65 9.55
Q 1.45 9.5 1.35 9.3
L 1.3 8.9 1.3 3.45 0.8 3.5 0.8 9
Q 0.8 9.35 0.95 9.65 Z"/>
</g>

<g id="BDM_336x280_FR_psd_Asset_7_V8_3_et_personnaliser_davantage__l_exp_rience_client__0_Layer0_0_MEMBER_25_FILL">
<path fill="#D82C26" stroke="none" d="
M 3.5 4
L 3.2 3.9
Q 3 3.9 2.95 4
L 2.85 4.25 2.95 4.55 3.2 4.65 3 5.2 2.65 5.65 2.85 5.8
Q 3.6 5.15 3.6 4.35
L 3.5 4 Z"/>
</g>

<g id="BDM_336x280_FR_psd_Asset_7_V8_3_et_personnaliser_davantage__l_exp_rience_client__0_Layer0_0_MEMBER_26_FILL">
<path fill="#D82C26" stroke="none" d="
M 7 6.05
Q 6.5 5.8 6 5.8 5.5 5.8 5 6.05 4.5 6.4 4.3 6.8 4 7.25 4 7.9 4 8.5 4.3 9 4.5 9.45 5 9.75 5.5 10 6.05 10 7 10 7.65 9.5
L 7.55 9.1
Q 7.4 9.25 6.9 9.45 6.55 9.6 6.1 9.6 5.7 9.6 5.3 9.4 4.95 9.2 4.7 8.8 4.5 8.3 4.5 7.95
L 7.85 7.95 7.85 7.75
Q 7.85 7.15 7.65 6.75 7.45 6.35 7 6.05
M 4.5 7.6
Q 4.5 7.45 4.7 6.95 4.85 6.65 5.2 6.4 5.55 6.2 6 6.2 6.65 6.2 7 6.55 7.4 7.05 7.4 7.6
L 4.5 7.6 Z"/>
</g>

<g id="BDM_336x280_FR_psd_Asset_7_V8_3_et_personnaliser_davantage__l_exp_rience_client__0_Layer0_0_MEMBER_27_FILL">
<path fill="#D82C26" stroke="none" d="
M 11.3 5.9
L 10.15 7.45 9.05 5.9 8.45 5.9 9.85 7.8 8.25 9.9 8.85 9.9 10.15 8.15 11.45 9.9 12.05 9.9 10.45 7.8 11.85 5.9 11.3 5.9 Z"/>
</g>

<g id="BDM_336x280_FR_psd_Asset_7_V8_3_et_personnaliser_davantage__l_exp_rience_client__0_Layer0_0_MEMBER_28_FILL">
<path fill="#D82C26" stroke="none" d="
M 13.25 5.9
L 12.8 5.9 12.8 11.9 13.3 11.9 13.3 9.05 13.35 9.05
Q 13.55 9.45 14 9.75 14.5 10 14.95 10 15.5 10 15.95 9.7 16.4 9.5 16.7 8.95 16.95 8.45 16.95 7.9 16.95 7.35 16.7 6.85 16.4 6.3 15.95 6.1 15.5 5.8 14.95 5.8 14.4 5.8 14 6.05 13.55 6.35 13.35 6.8
L 13.3 6.8 13.25 5.9
M 14.05 6.45
Q 14.45 6.2 14.85 6.2 15.3 6.2 15.7 6.45 16.05 6.7 16.25 7.05 16.4 7.45 16.4 7.9 16.4 8.4 16.25 8.75 16.05 9.1 15.7 9.35 15.3 9.6 14.85 9.6 14.45 9.6 14.05 9.35 13.75 9.15 13.5 8.75 13.3 8.4 13.3 7.9 13.3 7.4 13.5 7.05 13.75 6.65 14.05 6.45 Z"/>
</g>

<g id="BDM_336x280_FR_psd_Asset_7_V8_3_et_personnaliser_davantage__l_exp_rience_client__0_Layer0_0_MEMBER_29_FILL">
<path fill="#D82C26" stroke="none" d="
M 20.2 3.9
L 19.3 5.1 19.7 5.1 20.75 3.9 20.2 3.9
M 21.35 6.75
Q 21.2 6.45 20.7 6.05 20.2 5.8 19.65 5.8 19.15 5.8 18.65 6.05 18.3 6.3 17.95 6.8 17.7 7.3 17.7 7.9 17.7 8.4 17.95 9 18.25 9.45 18.7 9.75 19.2 10 19.75 10 20.65 10 21.3 9.5
L 21.25 9.1 20.6 9.45
Q 20.25 9.6 19.75 9.6 19.45 9.6 18.95 9.4 18.65 9.2 18.4 8.8 18.2 8.45 18.2 7.95
L 21.55 7.95 21.55 7.75
Q 21.55 7.15 21.35 6.75
M 20.7 6.55
Q 21 6.95 21.1 7.6
L 18.2 7.6
Q 18.2 7.3 18.4 6.95 18.6 6.6 18.9 6.4 19.15 6.2 19.65 6.2 20.35 6.2 20.7 6.55 Z"/>
</g>

<g id="BDM_336x280_FR_psd_Asset_7_V8_3_et_personnaliser_davantage__l_exp_rience_client__0_Layer0_0_MEMBER_30_FILL">
<path fill="#D82C26" stroke="none" d="
M 23 5.9
L 22.5 5.9 22.55 9.9 23.05 9.9 23.05 7.9
Q 23.05 7.2 23.35 6.75 23.65 6.25 24.15 6.25
L 24.5 6.3 24.65 5.85 24.2 5.8
Q 23.9 5.8 23.5 6.05 23.15 6.4 23.05 6.8
L 23 6.8 23 5.9 Z"/>
</g>

<g id="BDM_336x280_FR_psd_Asset_7_V8_3_et_personnaliser_davantage__l_exp_rience_client__0_Layer0_0_MEMBER_31_FILL">
<path fill="#D82C26" stroke="none" d="
M 25.3 5.9
L 25.3 9.9 25.8 9.9 25.8 5.9 25.3 5.9
M 25.55 4.7
L 25.8 4.6
Q 25.9 4.5 25.9 4.35 25.9 4.15 25.8 4.05
L 25.55 3.95
Q 25.45 3.95 25.3 4.1
L 25.2 4.35 25.3 4.6 25.55 4.7 Z"/>
</g>

<g id="BDM_336x280_FR_psd_Asset_7_V8_3_et_personnaliser_davantage__l_exp_rience_client__0_Layer0_0_MEMBER_32_FILL">
<path fill="#D82C26" stroke="none" d="
M 30.7 7.75
Q 30.7 7.25 30.45 6.75 30.25 6.35 29.8 6.05 29.4 5.8 28.8 5.8 28.3 5.8 27.8 6.05 27.3 6.4 27.1 6.8 26.8 7.25 26.8 7.9 26.8 8.5 27.1 9 27.3 9.45 27.8 9.75 28.3 10 28.85 10 29.8 10 30.45 9.5
L 30.35 9.1
Q 30.2 9.25 29.7 9.45 29.35 9.6 28.9 9.6 28.5 9.6 28.1 9.4 27.75 9.2 27.5 8.8 27.3 8.3 27.3 7.95
L 30.65 7.95 30.7 7.75
M 29.8 6.55
Q 30.2 7.05 30.2 7.6
L 27.3 7.6 27.5 6.95
Q 27.65 6.65 28 6.4 28.35 6.2 28.8 6.2 29.45 6.2 29.8 6.55 Z"/>
</g>

<g id="BDM_336x280_FR_psd_Asset_7_V8_3_et_personnaliser_davantage__l_exp_rience_client__0_Layer0_0_MEMBER_33_FILL">
<path fill="#D82C26" stroke="none" d="
M 32.1 5.9
L 31.65 5.9 31.7 9.9 32.2 9.9 32.2 7.85
Q 32.2 7.4 32.35 7 32.6 6.6 32.85 6.4 33.25 6.2 33.5 6.2 34.1 6.2 34.35 6.6 34.6 7 34.6 7.6
L 34.6 9.9 35.1 9.9 35.1 7.45
Q 35.1 6.8 34.7 6.3 34.4 5.8 33.6 5.8 33.15 5.8 32.75 6.05 32.35 6.4 32.2 6.8
L 32.15 6.8 32.1 5.9 Z"/>
</g>

<g id="BDM_336x280_FR_psd_Asset_7_V8_3_et_personnaliser_davantage__l_exp_rience_client__0_Layer0_0_MEMBER_34_FILL">
<path fill="#D82C26" stroke="none" d="
M 38.15 5.8
Q 37.6 5.8 37.1 6.05 36.6 6.35 36.35 6.8 36.05 7.35 36.05 7.9 36.05 8.5 36.35 9 36.55 9.45 37.05 9.75 37.65 10 38.15 10
L 38.9 9.85
Q 39.2 9.8 39.5 9.5
L 39.4 9.1 38.85 9.45
Q 38.65 9.55 38.15 9.55 37.6 9.55 37.35 9.35 37 9.15 36.75 8.75 36.6 8.4 36.6 7.9 36.6 7.45 36.75 7.05 37 6.7 37.35 6.45 37.7 6.2 38.15 6.2
L 38.8 6.35
Q 39.05 6.4 39.3 6.65
L 39.5 6.25 38.9 5.9 38.15 5.8 Z"/>
</g>

<g id="BDM_336x280_FR_psd_Asset_7_V8_3_et_personnaliser_davantage__l_exp_rience_client__0_Layer0_0_MEMBER_35_FILL">
<path fill="#D82C26" stroke="none" d="
M 41.95 5.8
Q 41.45 5.8 40.95 6.05 40.45 6.4 40.25 6.8 39.95 7.25 39.95 7.9 39.95 8.5 40.25 9 40.45 9.45 40.95 9.75 41.45 10 42 10 42.95 10 43.6 9.5
L 43.5 9.1
Q 43.35 9.25 42.85 9.45 42.5 9.6 42.05 9.6 41.65 9.6 41.25 9.4 40.9 9.2 40.65 8.8 40.45 8.3 40.45 7.95
L 43.8 7.95 43.85 7.75
Q 43.85 7.25 43.6 6.75 43.4 6.35 42.95 6.05 42.45 5.8 41.95 5.8
M 41.95 6.2
Q 42.6 6.2 42.95 6.55 43.35 7.05 43.35 7.6
L 40.45 7.6 40.65 6.95
Q 40.8 6.65 41.15 6.4 41.5 6.2 41.95 6.2 Z"/>
</g>

<g id="BDM_336x280_FR_psd_Asset_7_V8_3_et_personnaliser_davantage__l_exp_rience_client__0_Layer0_0_MEMBER_36_FILL">
<path fill="#D82C26" stroke="none" d="
M 48.3 5.8
Q 47.75 5.8 47.25 6.05 46.75 6.35 46.5 6.8 46.2 7.35 46.2 7.9 46.2 8.5 46.5 9 46.7 9.45 47.2 9.75 47.8 10 48.3 10
L 49.05 9.85
Q 49.35 9.8 49.65 9.5
L 49.55 9.1 49 9.45
Q 48.8 9.55 48.35 9.55 47.85 9.55 47.5 9.35 47.1 9.1 46.95 8.75 46.75 8.4 46.75 7.9 46.75 7.4 46.95 7.05 47.1 6.7 47.5 6.45 47.85 6.2 48.3 6.2 48.65 6.2 48.95 6.35 49.2 6.4 49.45 6.65
L 49.65 6.25 49.05 5.9 48.3 5.8 Z"/>
</g>

<g id="BDM_336x280_FR_psd_Asset_7_V8_3_et_personnaliser_davantage__l_exp_rience_client__0_Layer0_0_MEMBER_37_FILL">
<path fill="#D82C26" stroke="none" d="
M 50.6 9.65
L 51.1 10 51.3 9.55 51.05 9.3
Q 50.95 9.25 50.95 8.9
L 50.95 3.45 50.45 3.5 50.45 9
Q 50.45 9.35 50.6 9.65 Z"/>
</g>

<g id="BDM_336x280_FR_psd_Asset_7_V8_3_et_personnaliser_davantage__l_exp_rience_client__0_Layer0_0_MEMBER_38_FILL">
<path fill="#D82C26" stroke="none" d="
M 52.75 5.9
L 52.25 5.9 52.25 9.9 52.75 9.9 52.75 5.9
M 52.75 4.6
Q 52.85 4.5 52.85 4.35 52.85 4.15 52.75 4.05
L 52.5 3.95
Q 52.4 3.95 52.25 4.1
L 52.15 4.35 52.25 4.6 52.5 4.7 52.75 4.6 Z"/>
</g>

<g id="BDM_336x280_FR_psd_Asset_7_V8_3_et_personnaliser_davantage__l_exp_rience_client__0_Layer0_0_MEMBER_39_FILL">
<path fill="#D82C26" stroke="none" d="
M 56.75 6.05
Q 56.35 5.8 55.75 5.8 55.25 5.8 54.75 6.05 54.25 6.4 54.05 6.8 53.8 7.2 53.8 7.9 53.8 8.55 54.05 9 54.25 9.45 54.75 9.75 55.25 10 55.8 10 56.75 10 57.4 9.5
L 57.3 9.1
Q 57.15 9.25 56.65 9.45 56.3 9.6 55.85 9.6 55.55 9.6 55.05 9.4 54.7 9.2 54.45 8.8 54.25 8.3 54.25 7.95
L 57.65 7.95 57.65 7.75
Q 57.65 7.25 57.4 6.75 57.2 6.35 56.75 6.05
M 54.45 6.95
L 54.95 6.4
Q 55.3 6.2 55.75 6.2 56.4 6.2 56.75 6.55 57.15 7.05 57.15 7.6
L 54.25 7.6 54.45 6.95 Z"/>
</g>

<g id="BDM_336x280_FR_psd_Asset_7_V8_3_et_personnaliser_davantage__l_exp_rience_client__0_Layer0_0_MEMBER_40_FILL">
<path fill="#D82C26" stroke="none" d="
M 62.05 7.45
Q 62.05 6.85 61.7 6.3 61.35 5.8 60.55 5.8 60.1 5.8 59.7 6.05 59.3 6.4 59.15 6.8
L 59.1 6.8 59.1 5.9 58.6 5.9 58.65 9.9 59.15 9.9 59.15 7.85
Q 59.15 7.4 59.3 7 59.55 6.6 59.8 6.4 60.2 6.2 60.45 6.2 61.05 6.2 61.3 6.6 61.55 7 61.55 7.6
L 61.55 9.9 62.05 9.9 62.05 7.45 Z"/>
</g>

<g id="BDM_336x280_FR_psd_Asset_7_V8_3_et_personnaliser_davantage__l_exp_rience_client__0_Layer0_0_MEMBER_41_FILL">
<path fill="#D82C26" stroke="none" d="
M 63.35 5.9
L 62.7 5.9 62.6 6.3 63.35 6.3 63.35 8.95
Q 63.35 9.35 63.6 9.7 63.85 9.95 64.3 9.95
L 64.75 9.9 65.15 9.75 65.05 9.4
Q 64.75 9.55 64.45 9.55 64.15 9.55 64 9.4 63.85 9.25 63.85 8.85
L 63.85 6.3 64.9 6.3 65 5.9 63.85 5.9 63.85 4.8 63.35 4.95 63.35 5.9 Z"/>
</g>

<g id="BDM_336x280_FR_psd_Asset_7_V8_3_et_personnaliser_davantage__l_exp_rience_client__0_Layer0_0_MEMBER_42_FILL">
<path fill="#D82C26" stroke="none" d="
M 65.95 9.85
L 66.2 9.95 66.5 9.85 66.6 9.55 66.5 9.3 66.2 9.15
Q 66.1 9.15 65.95 9.3
L 65.85 9.55 65.95 9.85 Z"/>
</g>
</defs>

<g transform="matrix( 1, 0, 0, 1, -18,-42) ">
<g transform="matrix( 1, 0, 0, 1, 12,64) ">
<g transform="matrix( 1, 0, 0, 1, 26,9) ">
<g transform="matrix( 2.815704345703125, 0, 0, 2.832611083984375, -0.85,18.6) ">
<use xlink:href="#BDM_336x280_FR_psd_Asset_7_V8_3_et_personnaliser_davantage__l_exp_rience_client__0_Layer0_0_MEMBER_0_FILL"/>
</g>

<g transform="matrix( 2.815704345703125, 0, 0, 2.832611083984375, -0.85,18.6) ">
<use xlink:href="#BDM_336x280_FR_psd_Asset_7_V8_3_et_personnaliser_davantage__l_exp_rience_client__0_Layer0_0_MEMBER_1_FILL"/>
</g>

<g transform="matrix( 2.815704345703125, 0, 0, 2.832611083984375, -0.85,18.6) ">
<use xlink:href="#BDM_336x280_FR_psd_Asset_7_V8_3_et_personnaliser_davantage__l_exp_rience_client__0_Layer0_0_MEMBER_2_FILL"/>
</g>

<g transform="matrix( 2.815704345703125, 0, 0, 2.832611083984375, -0.85,18.6) ">
<use xlink:href="#BDM_336x280_FR_psd_Asset_7_V8_3_et_personnaliser_davantage__l_exp_rience_client__0_Layer0_0_MEMBER_3_FILL"/>
</g>

<g transform="matrix( 2.815704345703125, 0, 0, 2.832611083984375, -0.85,18.6) ">
<use xlink:href="#BDM_336x280_FR_psd_Asset_7_V8_3_et_personnaliser_davantage__l_exp_rience_client__0_Layer0_0_MEMBER_4_FILL"/>
</g>

<g transform="matrix( 2.815704345703125, 0, 0, 2.832611083984375, -0.85,18.6) ">
<use xlink:href="#BDM_336x280_FR_psd_Asset_7_V8_3_et_personnaliser_davantage__l_exp_rience_client__0_Layer0_0_MEMBER_5_FILL"/>
</g>

<g transform="matrix( 2.815704345703125, 0, 0, 2.832611083984375, -0.85,18.6) ">
<use xlink:href="#BDM_336x280_FR_psd_Asset_7_V8_3_et_personnaliser_davantage__l_exp_rience_client__0_Layer0_0_MEMBER_6_FILL"/>
</g>

<g transform="matrix( 2.815704345703125, 0, 0, 2.832611083984375, -0.85,18.6) ">
<use xlink:href="#BDM_336x280_FR_psd_Asset_7_V8_3_et_personnaliser_davantage__l_exp_rience_client__0_Layer0_0_MEMBER_7_FILL"/>
</g>

<g transform="matrix( 2.815704345703125, 0, 0, 2.832611083984375, -0.85,18.6) ">
<use xlink:href="#BDM_336x280_FR_psd_Asset_7_V8_3_et_personnaliser_davantage__l_exp_rience_client__0_Layer0_0_MEMBER_8_FILL"/>
</g>

<g transform="matrix( 2.815704345703125, 0, 0, 2.832611083984375, -0.85,18.6) ">
<use xlink:href="#BDM_336x280_FR_psd_Asset_7_V8_3_et_personnaliser_davantage__l_exp_rience_client__0_Layer0_0_MEMBER_9_FILL"/>
</g>

<g transform="matrix( 2.815704345703125, 0, 0, 2.832611083984375, -0.85,18.6) ">
<use xlink:href="#BDM_336x280_FR_psd_Asset_7_V8_3_et_personnaliser_davantage__l_exp_rience_client__0_Layer0_0_MEMBER_10_FILL"/>
</g>

<g transform="matrix( 2.815704345703125, 0, 0, 2.832611083984375, -0.85,18.6) ">
<use xlink:href="#BDM_336x280_FR_psd_Asset_7_V8_3_et_personnaliser_davantage__l_exp_rience_client__0_Layer0_0_MEMBER_11_FILL"/>
</g>

<g transform="matrix( 2.815704345703125, 0, 0, 2.832611083984375, -0.85,18.6) ">
<use xlink:href="#BDM_336x280_FR_psd_Asset_7_V8_3_et_personnaliser_davantage__l_exp_rience_client__0_Layer0_0_MEMBER_12_FILL"/>
</g>

<g transform="matrix( 2.815704345703125, 0, 0, 2.832611083984375, -0.85,18.6) ">
<use xlink:href="#BDM_336x280_FR_psd_Asset_7_V8_3_et_personnaliser_davantage__l_exp_rience_client__0_Layer0_0_MEMBER_13_FILL"/>
</g>

<g transform="matrix( 2.815704345703125, 0, 0, 2.832611083984375, -0.85,18.6) ">
<use xlink:href="#BDM_336x280_FR_psd_Asset_7_V8_3_et_personnaliser_davantage__l_exp_rience_client__0_Layer0_0_MEMBER_14_FILL"/>
</g>

<g transform="matrix( 2.815704345703125, 0, 0, 2.832611083984375, -0.85,18.6) ">
<use xlink:href="#BDM_336x280_FR_psd_Asset_7_V8_3_et_personnaliser_davantage__l_exp_rience_client__0_Layer0_0_MEMBER_15_FILL"/>
</g>

<g transform="matrix( 2.815704345703125, 0, 0, 2.832611083984375, -0.85,18.6) ">
<use xlink:href="#BDM_336x280_FR_psd_Asset_7_V8_3_et_personnaliser_davantage__l_exp_rience_client__0_Layer0_0_MEMBER_16_FILL"/>
</g>

<g transform="matrix( 2.815704345703125, 0, 0, 2.832611083984375, -0.85,18.6) ">
<use xlink:href="#BDM_336x280_FR_psd_Asset_7_V8_3_et_personnaliser_davantage__l_exp_rience_client__0_Layer0_0_MEMBER_17_FILL"/>
</g>

<g transform="matrix( 2.815704345703125, 0, 0, 2.832611083984375, -0.85,18.6) ">
<use xlink:href="#BDM_336x280_FR_psd_Asset_7_V8_3_et_personnaliser_davantage__l_exp_rience_client__0_Layer0_0_MEMBER_18_FILL"/>
</g>

<g transform="matrix( 2.815704345703125, 0, 0, 2.832611083984375, -0.85,18.6) ">
<use xlink:href="#BDM_336x280_FR_psd_Asset_7_V8_3_et_personnaliser_davantage__l_exp_rience_client__0_Layer0_0_MEMBER_19_FILL"/>
</g>

<g transform="matrix( 2.815704345703125, 0, 0, 2.832611083984375, -0.85,18.6) ">
<use xlink:href="#BDM_336x280_FR_psd_Asset_7_V8_3_et_personnaliser_davantage__l_exp_rience_client__0_Layer0_0_MEMBER_20_FILL"/>
</g>

<g transform="matrix( 2.815704345703125, 0, 0, 2.832611083984375, -0.85,18.6) ">
<use xlink:href="#BDM_336x280_FR_psd_Asset_7_V8_3_et_personnaliser_davantage__l_exp_rience_client__0_Layer0_0_MEMBER_21_FILL"/>
</g>

<g transform="matrix( 2.815704345703125, 0, 0, 2.832611083984375, -0.85,18.6) ">
<use xlink:href="#BDM_336x280_FR_psd_Asset_7_V8_3_et_personnaliser_davantage__l_exp_rience_client__0_Layer0_0_MEMBER_22_FILL"/>
</g>

<g transform="matrix( 2.815704345703125, 0, 0, 2.832611083984375, -0.85,18.6) ">
<use xlink:href="#BDM_336x280_FR_psd_Asset_7_V8_3_et_personnaliser_davantage__l_exp_rience_client__0_Layer0_0_MEMBER_23_FILL"/>
</g>

<g transform="matrix( 2.815704345703125, 0, 0, 2.832611083984375, -0.85,18.6) ">
<use xlink:href="#BDM_336x280_FR_psd_Asset_7_V8_3_et_personnaliser_davantage__l_exp_rience_client__0_Layer0_0_MEMBER_24_FILL"/>
</g>

<g transform="matrix( 2.815704345703125, 0, 0, 2.832611083984375, -0.85,18.6) ">
<use xlink:href="#BDM_336x280_FR_psd_Asset_7_V8_3_et_personnaliser_davantage__l_exp_rience_client__0_Layer0_0_MEMBER_25_FILL"/>
</g>

<g transform="matrix( 2.815704345703125, 0, 0, 2.832611083984375, -0.85,18.6) ">
<use xlink:href="#BDM_336x280_FR_psd_Asset_7_V8_3_et_personnaliser_davantage__l_exp_rience_client__0_Layer0_0_MEMBER_26_FILL"/>
</g>

<g transform="matrix( 2.815704345703125, 0, 0, 2.832611083984375, -0.85,18.6) ">
<use xlink:href="#BDM_336x280_FR_psd_Asset_7_V8_3_et_personnaliser_davantage__l_exp_rience_client__0_Layer0_0_MEMBER_27_FILL"/>
</g>

<g transform="matrix( 2.815704345703125, 0, 0, 2.832611083984375, -0.85,18.6) ">
<use xlink:href="#BDM_336x280_FR_psd_Asset_7_V8_3_et_personnaliser_davantage__l_exp_rience_client__0_Layer0_0_MEMBER_28_FILL"/>
</g>

<g transform="matrix( 2.815704345703125, 0, 0, 2.832611083984375, -0.85,18.6) ">
<use xlink:href="#BDM_336x280_FR_psd_Asset_7_V8_3_et_personnaliser_davantage__l_exp_rience_client__0_Layer0_0_MEMBER_29_FILL"/>
</g>

<g transform="matrix( 2.815704345703125, 0, 0, 2.832611083984375, -0.85,18.6) ">
<use xlink:href="#BDM_336x280_FR_psd_Asset_7_V8_3_et_personnaliser_davantage__l_exp_rience_client__0_Layer0_0_MEMBER_30_FILL"/>
</g>

<g transform="matrix( 2.815704345703125, 0, 0, 2.832611083984375, -0.85,18.6) ">
<use xlink:href="#BDM_336x280_FR_psd_Asset_7_V8_3_et_personnaliser_davantage__l_exp_rience_client__0_Layer0_0_MEMBER_31_FILL"/>
</g>

<g transform="matrix( 2.815704345703125, 0, 0, 2.832611083984375, -0.85,18.6) ">
<use xlink:href="#BDM_336x280_FR_psd_Asset_7_V8_3_et_personnaliser_davantage__l_exp_rience_client__0_Layer0_0_MEMBER_32_FILL"/>
</g>

<g transform="matrix( 2.815704345703125, 0, 0, 2.832611083984375, -0.85,18.6) ">
<use xlink:href="#BDM_336x280_FR_psd_Asset_7_V8_3_et_personnaliser_davantage__l_exp_rience_client__0_Layer0_0_MEMBER_33_FILL"/>
</g>

<g transform="matrix( 2.815704345703125, 0, 0, 2.832611083984375, -0.85,18.6) ">
<use xlink:href="#BDM_336x280_FR_psd_Asset_7_V8_3_et_personnaliser_davantage__l_exp_rience_client__0_Layer0_0_MEMBER_34_FILL"/>
</g>

<g transform="matrix( 2.815704345703125, 0, 0, 2.832611083984375, -0.85,18.6) ">
<use xlink:href="#BDM_336x280_FR_psd_Asset_7_V8_3_et_personnaliser_davantage__l_exp_rience_client__0_Layer0_0_MEMBER_35_FILL"/>
</g>

<g transform="matrix( 2.815704345703125, 0, 0, 2.832611083984375, -0.85,18.6) ">
<use xlink:href="#BDM_336x280_FR_psd_Asset_7_V8_3_et_personnaliser_davantage__l_exp_rience_client__0_Layer0_0_MEMBER_36_FILL"/>
</g>

<g transform="matrix( 2.815704345703125, 0, 0, 2.832611083984375, -0.85,18.6) ">
<use xlink:href="#BDM_336x280_FR_psd_Asset_7_V8_3_et_personnaliser_davantage__l_exp_rience_client__0_Layer0_0_MEMBER_37_FILL"/>
</g>

<g transform="matrix( 2.815704345703125, 0, 0, 2.832611083984375, -0.85,18.6) ">
<use xlink:href="#BDM_336x280_FR_psd_Asset_7_V8_3_et_personnaliser_davantage__l_exp_rience_client__0_Layer0_0_MEMBER_38_FILL"/>
</g>

<g transform="matrix( 2.815704345703125, 0, 0, 2.832611083984375, -0.85,18.6) ">
<use xlink:href="#BDM_336x280_FR_psd_Asset_7_V8_3_et_personnaliser_davantage__l_exp_rience_client__0_Layer0_0_MEMBER_39_FILL"/>
</g>

<g transform="matrix( 2.815704345703125, 0, 0, 2.832611083984375, -0.85,18.6) ">
<use xlink:href="#BDM_336x280_FR_psd_Asset_7_V8_3_et_personnaliser_davantage__l_exp_rience_client__0_Layer0_0_MEMBER_40_FILL"/>
</g>

<g transform="matrix( 2.815704345703125, 0, 0, 2.832611083984375, -0.85,18.6) ">
<use xlink:href="#BDM_336x280_FR_psd_Asset_7_V8_3_et_personnaliser_davantage__l_exp_rience_client__0_Layer0_0_MEMBER_41_FILL"/>
</g>

<g transform="matrix( 2.815704345703125, 0, 0, 2.832611083984375, -0.85,18.6) ">
<use xlink:href="#BDM_336x280_FR_psd_Asset_7_V8_3_et_personnaliser_davantage__l_exp_rience_client__0_Layer0_0_MEMBER_42_FILL"/>
</g>
</g>
</g>
</g>
</svg>
