
<svg xmlns="http://www.w3.org/2000/svg" version="1.1" xmlns:xlink="http://www.w3.org/1999/xlink" preserveAspectRatio="none" x="0px" y="0px" width="728px" height="90px" viewBox="0 0 728 90">
<defs>
<g id="IT_728x90_FR_psd_Asset_V11_1_Faites__voluer_votre_entreprise__au_moyen_d_une_technologie__0_Layer0_0_MEMBER_0_FILL">
<path fill="#D82C26" stroke="none" d="
M 4.15 -6.35
L 0.85 -6.35 0.85 0 1.4 0 1.4 -3.05 3.9 -3.05 4 -3.5 1.4 -3.5 1.4 -5.85 4.1 -5.85 4.15 -6.35 Z"/>
</g>

<g id="IT_728x90_FR_psd_Asset_V11_1_Faites__voluer_votre_entreprise__au_moyen_d_une_technologie__0_Layer0_0_MEMBER_1_FILL">
<path fill="#D82C26" stroke="none" d="
M 6 -3.75
L 6.7 -3.9
Q 7.25 -3.9 7.6 -3.6 7.9 -3.35 7.9 -2.75
L 7.9 -2.5 7.4 -2.5
Q 5 -2.5 5 -1.15 5 -0.5 5.35 -0.2 5.8 0.1 6.3 0.1 6.85 0.1 7.25 -0.1 7.7 -0.4 7.9 -0.8
L 7.95 -0.4 7.95 0 8.45 0 8.4 -2.75
Q 8.4 -3.5 7.95 -3.95 7.55 -4.35 6.75 -4.35 6.35 -4.35 5.9 -4.2 5.4 -4 5.2 -3.8
L 5.35 -3.4 6 -3.75
M 7.25 -0.5
Q 6.9 -0.3 6.4 -0.3 6 -0.3 5.75 -0.5 5.5 -0.7 5.5 -1.15 5.5 -2.15 7.45 -2.15
L 7.9 -2.15 7.9 -1.75
Q 7.9 -1.4 7.75 -1.05
L 7.25 -0.5 Z"/>
</g>

<g id="IT_728x90_FR_psd_Asset_V11_1_Faites__voluer_votre_entreprise__au_moyen_d_une_technologie__0_Layer0_0_MEMBER_2_FILL">
<path fill="#D82C26" stroke="none" d="
M 10.5 -4.2
L 9.95 -4.2 9.95 0 10.5 0 10.5 -4.2
M 9.85 -5.9
Q 9.85 -5.7 9.95 -5.6
L 10.2 -5.5 10.5 -5.6 10.6 -5.9 10.5 -6.15
Q 10.4 -6.25 10.2 -6.25 10 -6.25 9.95 -6.15 9.85 -6.1 9.85 -5.9 Z"/>
</g>

<g id="IT_728x90_FR_psd_Asset_V11_1_Faites__voluer_votre_entreprise__au_moyen_d_une_technologie__0_Layer0_0_MEMBER_3_FILL">
<path fill="#D82C26" stroke="none" d="
M 12.8 -4.2
L 12.8 -5.4 12.25 -5.2 12.25 -4.2 11.6 -4.2 11.5 -3.8 12.3 -3.8 12.3 -1
Q 12.3 -0.45 12.55 -0.2 12.8 0.1 13.25 0.1
L 13.75 0.05 14.15 -0.15 14.1 -0.55
Q 13.75 -0.35 13.4 -0.35 13.2 -0.35 12.95 -0.5 12.8 -0.7 12.8 -1.1
L 12.8 -3.8 13.9 -3.8 14 -4.2 12.8 -4.2 Z"/>
</g>

<g id="IT_728x90_FR_psd_Asset_V11_1_Faites__voluer_votre_entreprise__au_moyen_d_une_technologie__0_Layer0_0_MEMBER_4_FILL">
<path fill="#D82C26" stroke="none" d="
M 14.75 -2.15
Q 14.75 -1.55 15 -0.95 15.3 -0.45 15.8 -0.15 16.25 0.15 16.9 0.15 17.8 0.15 18.6 -0.4
L 18.5 -0.85
Q 18.1 -0.55 17.8 -0.45 17.45 -0.3 16.95 -0.3 16.5 -0.3 16.1 -0.55 15.65 -0.75 15.5 -1.15 15.25 -1.55 15.25 -2.05
L 18.8 -2.05 18.85 -2.25
Q 18.85 -2.8 18.6 -3.3 18.4 -3.7 17.9 -4.05 17.45 -4.35 16.85 -4.35 16.3 -4.35 15.75 -4.05 15.3 -3.75 15 -3.25 14.75 -2.75 14.75 -2.15
M 16 -3.7
Q 16.35 -3.9 16.85 -3.9 17.55 -3.9 17.9 -3.5 18.25 -3.15 18.35 -2.4
L 15.25 -2.4 15.45 -3.1
Q 15.7 -3.5 16 -3.7 Z"/>
</g>

<g id="IT_728x90_FR_psd_Asset_V11_1_Faites__voluer_votre_entreprise__au_moyen_d_une_technologie__0_Layer0_0_MEMBER_5_FILL">
<path fill="#D82C26" stroke="none" d="
M 19.9 -0.8
L 19.8 -0.35
Q 19.95 -0.2 20.45 0
L 21.3 0.1 22 0
Q 22.3 -0.1 22.55 -0.45 22.75 -0.85 22.75 -1.1 22.75 -1.55 22.45 -1.85 22.1 -2.15 21.45 -2.35
L 20.6 -2.7
Q 20.4 -2.9 20.4 -3.2 20.4 -3.55 20.65 -3.75 20.9 -3.9 21.3 -3.9 21.7 -3.9 21.9 -3.8
L 22.4 -3.5 22.6 -3.9 22.05 -4.2 21.3 -4.35
Q 20.9 -4.35 20.6 -4.2 20.2 -4 20.1 -3.8 19.9 -3.6 19.9 -3.2 19.9 -2.65 20.2 -2.45
L 21.1 -2
Q 21.8 -1.75 21.95 -1.6 22.25 -1.35 22.25 -1.1 22.25 -0.7 21.95 -0.5 21.7 -0.3 21.3 -0.3 20.45 -0.3 19.9 -0.8 Z"/>
</g>

<g id="IT_728x90_FR_psd_Asset_V11_1_Faites__voluer_votre_entreprise__au_moyen_d_une_technologie__0_Layer0_0_MEMBER_6_FILL">
<path fill="#D82C26" stroke="none" d="
M 28.9 -4.05
Q 28.45 -4.35 27.85 -4.35 27.25 -4.35 26.8 -4.05 26.25 -3.75 26.05 -3.25 25.75 -2.8 25.75 -2.15 25.75 -1.45 26.05 -0.95 26.25 -0.55 26.8 -0.15 27.35 0.15 27.9 0.15 28.9 0.15 29.6 -0.4
L 29.5 -0.85
Q 29.1 -0.55 28.8 -0.45 28.45 -0.3 27.95 -0.3 27.5 -0.3 27.1 -0.55 26.75 -0.75 26.5 -1.15 26.35 -1.4 26.25 -2.05
L 29.85 -2.05 29.85 -2.25
Q 29.85 -2.8 29.6 -3.3 29.35 -3.8 28.9 -4.05
M 27.85 -3.9
Q 28.55 -3.9 28.9 -3.5 29.35 -3.1 29.35 -2.4
L 26.3 -2.4
Q 26.3 -2.75 26.5 -3.1 26.65 -3.4 27 -3.7 27.35 -3.9 27.85 -3.9
M 29 -6.35
L 28.4 -6.35 27.45 -5.05 27.9 -5.05 29 -6.35 Z"/>
</g>

<g id="IT_728x90_FR_psd_Asset_V11_1_Faites__voluer_votre_entreprise__au_moyen_d_une_technologie__0_Layer0_0_MEMBER_7_FILL">
<path fill="#D82C26" stroke="none" d="
M 31 -4.2
L 30.45 -4.2 32.05 0 32.65 0 34.2 -4.2 33.65 -4.2 32.35 -0.55 31 -4.2 Z"/>
</g>

<g id="IT_728x90_FR_psd_Asset_V11_1_Faites__voluer_votre_entreprise__au_moyen_d_une_technologie__0_Layer0_0_MEMBER_8_FILL">
<path fill="#D82C26" stroke="none" d="
M 35.1 -3.25
Q 34.8 -2.8 34.8 -2.1 34.8 -1.45 35.1 -0.95 35.4 -0.45 35.9 -0.15 36.35 0.15 37.05 0.15 37.7 0.15 38.2 -0.15 38.75 -0.5 39 -0.95 39.25 -1.4 39.25 -2.1 39.25 -2.85 39 -3.25 38.75 -3.7 38.2 -4.05 37.7 -4.35 37.05 -4.35 36.35 -4.35 35.9 -4.05 35.4 -3.75 35.1 -3.25
M 37.05 -3.9
Q 37.45 -3.9 37.95 -3.65 38.35 -3.4 38.55 -3 38.75 -2.5 38.75 -2.1 38.75 -1.6 38.55 -1.2 38.35 -0.85 37.95 -0.55 37.55 -0.3 37.05 -0.3 36.55 -0.3 36.15 -0.55 35.7 -0.85 35.55 -1.2 35.3 -1.7 35.3 -2.1 35.3 -2.6 35.55 -3 35.7 -3.4 36.15 -3.65 36.55 -3.9 37.05 -3.9 Z"/>
</g>

<g id="IT_728x90_FR_psd_Asset_V11_1_Faites__voluer_votre_entreprise__au_moyen_d_une_technologie__0_Layer0_0_MEMBER_9_FILL">
<path fill="#D82C26" stroke="none" d="
M 40.6 -0.95
Q 40.6 -0.5 40.8 -0.25 41 0.05 41.3 0.1
L 41.5 -0.35
Q 41.3 -0.4 41.2 -0.6
L 41.1 -1.05 41.1 -6.85 40.6 -6.75 40.6 -0.95 Z"/>
</g>

<g id="IT_728x90_FR_psd_Asset_V11_1_Faites__voluer_votre_entreprise__au_moyen_d_une_technologie__0_Layer0_0_MEMBER_10_FILL">
<path fill="#D82C26" stroke="none" d="
M 42.7 -1.65
Q 42.7 -0.8 43.05 -0.4 43.4 0.1 44.25 0.1 44.75 0.1 45.15 -0.15 45.6 -0.45 45.75 -0.9
L 45.85 0 46.35 0 46.3 -4.2 45.75 -4.2 45.75 -2.1
Q 45.75 -1.5 45.6 -1.15 45.35 -0.7 45.1 -0.55 44.7 -0.3 44.35 -0.3 43.75 -0.3 43.5 -0.75 43.25 -1.05 43.25 -1.8
L 43.25 -4.2 42.7 -4.2 42.7 -1.65 Z"/>
</g>

<g id="IT_728x90_FR_psd_Asset_V11_1_Faites__voluer_votre_entreprise__au_moyen_d_une_technologie__0_Layer0_0_MEMBER_11_FILL">
<path fill="#D82C26" stroke="none" d="
M 49.7 -4.35
Q 49.1 -4.35 48.65 -4.05 48.1 -3.75 47.9 -3.25 47.6 -2.8 47.6 -2.15 47.6 -1.45 47.9 -0.95 48.2 -0.45 48.65 -0.15 49.2 0.15 49.75 0.15 50.75 0.15 51.45 -0.4
L 51.35 -0.85 50.7 -0.45
Q 50.25 -0.3 49.8 -0.3 49.35 -0.3 48.95 -0.55 48.6 -0.75 48.35 -1.15 48.15 -1.5 48.15 -2.05
L 51.7 -2.05 51.7 -2.25
Q 51.7 -2.9 51.45 -3.3 51.2 -3.75 50.8 -4.05 50.35 -4.35 49.7 -4.35
M 48.9 -3.7
Q 49.15 -3.9 49.7 -3.9 50.4 -3.9 50.8 -3.5 51.2 -3.1 51.2 -2.4
L 48.15 -2.4
Q 48.15 -2.75 48.35 -3.1 48.5 -3.45 48.9 -3.7 Z"/>
</g>

<g id="IT_728x90_FR_psd_Asset_V11_1_Faites__voluer_votre_entreprise__au_moyen_d_une_technologie__0_Layer0_0_MEMBER_12_FILL">
<path fill="#D82C26" stroke="none" d="
M 53.5 -3.3
L 53.45 -4.2 52.95 -4.2 53 0 53.55 0 53.55 -2.1
Q 53.55 -2.8 53.85 -3.35 54.15 -3.85 54.75 -3.85
L 55.1 -3.8 55.2 -4.25 54.75 -4.35
Q 54.35 -4.35 54.05 -4.05 53.7 -3.8 53.55 -3.3
L 53.5 -3.3 Z"/>
</g>

<g id="IT_728x90_FR_psd_Asset_V11_1_Faites__voluer_votre_entreprise__au_moyen_d_une_technologie__0_Layer0_0_MEMBER_13_FILL">
<path fill="#D82C26" stroke="none" d="
M 57.95 -4.2
L 57.4 -4.2 59 0 59.6 0 61.15 -4.2 60.6 -4.2 59.3 -0.55 57.95 -4.2 Z"/>
</g>

<g id="IT_728x90_FR_psd_Asset_V11_1_Faites__voluer_votre_entreprise__au_moyen_d_une_technologie__0_Layer0_0_MEMBER_14_FILL">
<path fill="#D82C26" stroke="none" d="
M 65.15 -4.05
Q 64.65 -4.35 64 -4.35 63.3 -4.35 62.85 -4.05 62.35 -3.75 62.05 -3.25 61.75 -2.8 61.75 -2.1 61.75 -1.45 62.05 -0.95 62.35 -0.45 62.85 -0.15 63.3 0.15 64 0.15 64.65 0.15 65.15 -0.15 65.7 -0.5 65.95 -0.95 66.2 -1.55 66.2 -2.1 66.2 -2.75 65.95 -3.25 65.7 -3.7 65.15 -4.05
M 64 -3.9
Q 64.4 -3.9 64.9 -3.65 65.3 -3.4 65.5 -3 65.7 -2.5 65.7 -2.1 65.7 -1.8 65.5 -1.2 65.3 -0.85 64.9 -0.55 64.5 -0.3 64 -0.3 63.55 -0.3 63.05 -0.55 62.65 -0.9 62.5 -1.2 62.25 -1.7 62.25 -2.1 62.25 -2.6 62.5 -3 62.65 -3.4 63.05 -3.65 63.55 -3.9 64 -3.9 Z"/>
</g>

<g id="IT_728x90_FR_psd_Asset_V11_1_Faites__voluer_votre_entreprise__au_moyen_d_une_technologie__0_Layer0_0_MEMBER_15_FILL">
<path fill="#D82C26" stroke="none" d="
M 69.15 -3.8
L 69.3 -4.2 68.1 -4.2 68.1 -5.4 67.55 -5.2 67.55 -4.2 66.9 -4.2 66.75 -3.8 67.55 -3.8 67.55 -1
Q 67.55 -0.5 67.85 -0.2 68.1 0.1 68.55 0.1
L 69 0.05 69.45 -0.15 69.35 -0.55
Q 69 -0.35 68.7 -0.35 68.4 -0.35 68.25 -0.5 68.1 -0.7 68.1 -1.1
L 68.1 -3.8 69.15 -3.8 Z"/>
</g>

<g id="IT_728x90_FR_psd_Asset_V11_1_Faites__voluer_votre_entreprise__au_moyen_d_une_technologie__0_Layer0_0_MEMBER_16_FILL">
<path fill="#D82C26" stroke="none" d="
M 70.95 -3.3
L 70.9 -4.2 70.4 -4.2 70.45 0 71 0 71 -2.1
Q 71 -2.8 71.3 -3.35 71.65 -3.85 72.2 -3.85
L 72.55 -3.8 72.65 -4.25 72.2 -4.35
Q 71.8 -4.35 71.5 -4.05 71.15 -3.8 71 -3.3
L 70.95 -3.3 Z"/>
</g>

<g id="IT_728x90_FR_psd_Asset_V11_1_Faites__voluer_votre_entreprise__au_moyen_d_une_technologie__0_Layer0_0_MEMBER_17_FILL">
<path fill="#D82C26" stroke="none" d="
M 75.25 -4.35
Q 74.7 -4.35 74.15 -4.05 73.7 -3.75 73.4 -3.25 73.15 -2.75 73.15 -2.15 73.15 -1.45 73.45 -0.95 73.65 -0.45 74.2 -0.15 74.65 0.15 75.3 0.15 76.2 0.15 77 -0.4
L 76.9 -0.85
Q 76.5 -0.55 76.2 -0.45 75.85 -0.3 75.35 -0.3 74.9 -0.3 74.5 -0.55 74.15 -0.75 73.9 -1.15 73.65 -1.55 73.65 -2.05
L 77.25 -2.05 77.25 -2.25
Q 77.25 -2.8 77 -3.3 76.8 -3.7 76.3 -4.05 75.85 -4.35 75.25 -4.35
M 74.4 -3.7
Q 74.75 -3.9 75.25 -3.9 75.95 -3.9 76.3 -3.5 76.65 -3.2 76.75 -2.4
L 73.65 -2.4 73.85 -3.1
Q 74.1 -3.5 74.4 -3.7 Z"/>
</g>

<g id="IT_728x90_FR_psd_Asset_V11_1_Faites__voluer_votre_entreprise__au_moyen_d_une_technologie__0_Layer0_0_MEMBER_18_FILL">
<path fill="#D82C26" stroke="none" d="
M 80.3 -2.15
Q 80.3 -1.45 80.6 -0.95 80.8 -0.55 81.35 -0.15 81.9 0.15 82.45 0.15 83.45 0.15 84.15 -0.4
L 84.05 -0.85
Q 83.65 -0.55 83.35 -0.45 83 -0.3 82.5 -0.3 82.05 -0.3 81.65 -0.55 81.3 -0.75 81.05 -1.15 80.9 -1.4 80.8 -2.05
L 84.4 -2.05 84.4 -2.25
Q 84.4 -2.8 84.15 -3.3 83.9 -3.8 83.45 -4.05 83 -4.35 82.4 -4.35 81.8 -4.35 81.35 -4.05 80.8 -3.75 80.6 -3.25 80.3 -2.8 80.3 -2.15
M 82.4 -3.9
Q 83.1 -3.9 83.45 -3.5 83.9 -3.1 83.9 -2.4
L 80.85 -2.4
Q 80.85 -2.75 81.05 -3.1 81.2 -3.4 81.55 -3.7 81.9 -3.9 82.4 -3.9 Z"/>
</g>

<g id="IT_728x90_FR_psd_Asset_V11_1_Faites__voluer_votre_entreprise__au_moyen_d_une_technologie__0_Layer0_0_MEMBER_19_FILL">
<path fill="#D82C26" stroke="none" d="
M 86.2 -3.3
L 86.15 -4.2 85.65 -4.2 85.7 0 86.25 0 86.25 -2.15
Q 86.25 -2.65 86.4 -3.1 86.65 -3.5 86.95 -3.7 87.35 -3.9 87.65 -3.9 88.3 -3.9 88.5 -3.45 88.8 -3.05 88.8 -2.45
L 88.8 0 89.3 0 89.3 -2.55
Q 89.3 -3.35 88.95 -3.85 88.45 -4.35 87.75 -4.35 87.25 -4.35 86.85 -4.05 86.4 -3.75 86.25 -3.3
L 86.2 -3.3 Z"/>
</g>

<g id="IT_728x90_FR_psd_Asset_V11_1_Faites__voluer_votre_entreprise__au_moyen_d_une_technologie__0_Layer0_0_MEMBER_20_FILL">
<path fill="#D82C26" stroke="none" d="
M 90.95 -3.8
L 90.95 -1
Q 90.95 -0.55 91.2 -0.2 91.5 0.1 91.95 0.1
L 92.4 0.05 92.85 -0.15 92.75 -0.55
Q 92.4 -0.35 92.1 -0.35 91.8 -0.35 91.65 -0.5 91.5 -0.7 91.5 -1.1
L 91.5 -3.8 92.55 -3.8 92.65 -4.2 91.5 -4.2 91.5 -5.4 90.95 -5.2 90.95 -4.2 90.3 -4.2 90.15 -3.8 90.95 -3.8 Z"/>
</g>

<g id="IT_728x90_FR_psd_Asset_V11_1_Faites__voluer_votre_entreprise__au_moyen_d_une_technologie__0_Layer0_0_MEMBER_21_FILL">
<path fill="#D82C26" stroke="none" d="
M 94.9 -4.05
Q 94.55 -3.8 94.4 -3.3
L 94.35 -3.3 94.3 -4.2 93.8 -4.2 93.85 0 94.4 0 94.4 -2.1
Q 94.4 -2.8 94.7 -3.35 95 -3.85 95.55 -3.85
L 95.95 -3.8 96.05 -4.25 95.6 -4.35
Q 95.2 -4.35 94.9 -4.05 Z"/>
</g>

<g id="IT_728x90_FR_psd_Asset_V11_1_Faites__voluer_votre_entreprise__au_moyen_d_une_technologie__0_Layer0_0_MEMBER_22_FILL">
<path fill="#D82C26" stroke="none" d="
M 100.4 -3.3
Q 100.2 -3.7 99.7 -4.05 99.25 -4.35 98.65 -4.35 98.1 -4.35 97.55 -4.05 97.1 -3.75 96.8 -3.25 96.55 -2.75 96.55 -2.15 96.55 -1.55 96.8 -0.95 97.1 -0.45 97.6 -0.15 98.05 0.15 98.7 0.15 99.6 0.15 100.4 -0.4
L 100.3 -0.85
Q 99.9 -0.55 99.6 -0.45 99.25 -0.3 98.75 -0.3 98.3 -0.3 97.9 -0.55 97.45 -0.75 97.3 -1.15 97.05 -1.55 97.05 -2.05
L 100.6 -2.05 100.65 -2.25
Q 100.65 -2.8 100.4 -3.3
M 97.8 -3.7
Q 98.15 -3.9 98.65 -3.9 99.35 -3.9 99.7 -3.5 100.05 -3.2 100.15 -2.4
L 97.05 -2.4 97.25 -3.1
Q 97.5 -3.5 97.8 -3.7 Z"/>
</g>

<g id="IT_728x90_FR_psd_Asset_V11_1_Faites__voluer_votre_entreprise__au_moyen_d_une_technologie__0_Layer0_0_MEMBER_23_FILL">
<path fill="#D82C26" stroke="none" d="
M 105.3 -4.05
Q 104.8 -4.35 104.2 -4.35 103.65 -4.35 103.2 -4.05 102.7 -3.7 102.5 -3.3
L 102.45 -3.3 102.4 -4.2 101.9 -4.2 101.95 2.15 102.45 2.15 102.45 -0.9 102.5 -0.9
Q 102.7 -0.45 103.2 -0.15 103.6 0.1 104.2 0.1 104.8 0.1 105.3 -0.2 105.7 -0.4 106.05 -0.95 106.3 -1.55 106.3 -2.1 106.3 -2.65 106.05 -3.25 105.75 -3.75 105.3 -4.05
M 104.1 -3.9
Q 104.6 -3.9 105 -3.65 105.25 -3.5 105.55 -3 105.75 -2.6 105.75 -2.1 105.75 -1.6 105.55 -1.2 105.25 -0.7 105 -0.55 104.6 -0.3 104.1 -0.3 103.65 -0.3 103.25 -0.55 102.85 -0.85 102.65 -1.2 102.45 -1.6 102.45 -2.1 102.45 -2.6 102.65 -3 102.9 -3.45 103.25 -3.65 103.65 -3.9 104.1 -3.9 Z"/>
</g>

<g id="IT_728x90_FR_psd_Asset_V11_1_Faites__voluer_votre_entreprise__au_moyen_d_une_technologie__0_Layer0_0_MEMBER_24_FILL">
<path fill="#D82C26" stroke="none" d="
M 109.85 -4.25
L 109.4 -4.35
Q 109.05 -4.35 108.65 -4.05 108.3 -3.65 108.15 -3.3
L 108.1 -4.2 107.6 -4.2 107.65 0 108.15 0 108.15 -2.1
Q 108.15 -2.85 108.5 -3.35 108.8 -3.85 109.35 -3.85
L 109.7 -3.8 109.85 -4.25 Z"/>
</g>

<g id="IT_728x90_FR_psd_Asset_V11_1_Faites__voluer_votre_entreprise__au_moyen_d_une_technologie__0_Layer0_0_MEMBER_25_FILL">
<path fill="#D82C26" stroke="none" d="
M 110.8 -5.6
L 111.05 -5.5 111.35 -5.6 111.45 -5.9 111.35 -6.15
Q 111.25 -6.25 111.05 -6.25 110.85 -6.25 110.8 -6.15 110.7 -6.1 110.7 -5.9 110.7 -5.7 110.8 -5.6
M 111.35 -4.2
L 110.8 -4.2 110.8 0 111.35 0 111.35 -4.2 Z"/>
</g>

<g id="IT_728x90_FR_psd_Asset_V11_1_Faites__voluer_votre_entreprise__au_moyen_d_une_technologie__0_Layer0_0_MEMBER_26_FILL">
<path fill="#D82C26" stroke="none" d="
M 114.8 -4.2
Q 114.5 -4.35 114.05 -4.35 113.7 -4.35 113.4 -4.2 113 -4 112.9 -3.8 112.7 -3.6 112.7 -3.2 112.7 -2.7 112.95 -2.45
L 113.85 -2
Q 114.5 -1.8 114.75 -1.6 115.05 -1.35 115.05 -1.1 115.05 -0.7 114.75 -0.5 114.5 -0.3 114.1 -0.3 113.2 -0.3 112.7 -0.8
L 112.6 -0.35
Q 112.75 -0.2 113.25 0
L 114.1 0.1 114.8 0
Q 115.15 -0.15 115.35 -0.45 115.55 -0.85 115.55 -1.1 115.55 -1.55 115.2 -1.85 114.95 -2.1 114.25 -2.35
L 113.4 -2.7
Q 113.15 -2.95 113.15 -3.2 113.15 -3.5 113.45 -3.75 113.7 -3.9 114.1 -3.9 114.5 -3.9 114.7 -3.8
L 115.2 -3.5 115.4 -3.9 114.8 -4.2 Z"/>
</g>

<g id="IT_728x90_FR_psd_Asset_V11_1_Faites__voluer_votre_entreprise__au_moyen_d_une_technologie__0_Layer0_0_MEMBER_27_FILL">
<path fill="#D82C26" stroke="none" d="
M 120.35 -3.3
Q 120.1 -3.75 119.7 -4.05 119.25 -4.35 118.6 -4.35 118 -4.35 117.55 -4.05 117 -3.75 116.8 -3.25 116.5 -2.8 116.5 -2.15 116.5 -1.45 116.8 -0.95 117.1 -0.45 117.55 -0.15 118.1 0.15 118.65 0.15 119.65 0.15 120.35 -0.4
L 120.25 -0.85 119.6 -0.45
Q 119.15 -0.3 118.7 -0.3 118.25 -0.3 117.85 -0.55 117.5 -0.75 117.25 -1.15 117.1 -1.4 117 -2.05
L 120.6 -2.05 120.6 -2.25
Q 120.6 -2.8 120.35 -3.3
M 117.75 -3.7
Q 118.1 -3.9 118.6 -3.9 119.3 -3.9 119.65 -3.5 120.1 -3.1 120.1 -2.4
L 117.05 -2.4
Q 117.05 -2.75 117.25 -3.1 117.4 -3.4 117.75 -3.7 Z"/>
</g>

<g id="IT_728x90_FR_psd_Asset_V11_1_Faites__voluer_votre_entreprise__au_moyen_d_une_technologie__0_Layer0_0_MEMBER_28_FILL">
<path fill="#D82C26" stroke="none" d="
M 3.45 7.95
L 2.95 7.95
Q 0.5 7.95 0.5 9.35 0.5 9.9 0.9 10.3 1.35 10.6 1.85 10.6 2.3 10.6 2.8 10.35 3.2 10.15 3.45 9.65
L 3.5 10.5 4 10.5 3.95 7.75
Q 3.95 6.95 3.5 6.55 3.1 6.15 2.3 6.15 1.9 6.15 1.45 6.3 1.15 6.35 0.75 6.65
L 0.9 7.1 1.55 6.7
Q 1.95 6.55 2.25 6.55 2.8 6.55 3.1 6.85 3.45 7.15 3.45 7.7
L 3.45 7.95
M 3.45 8.3
L 3.45 8.75
Q 3.45 9.15 3.25 9.4 3.1 9.8 2.8 10 2.45 10.2 1.95 10.2 1.55 10.2 1.3 10 1 9.8 1 9.35 1 8.3 3 8.3
L 3.45 8.3 Z"/>
</g>

<g id="IT_728x90_FR_psd_Asset_V11_1_Faites__voluer_votre_entreprise__au_moyen_d_une_technologie__0_Layer0_0_MEMBER_29_FILL">
<path fill="#D82C26" stroke="none" d="
M 8.5 6.25
L 8.5 8.35
Q 8.5 8.95 8.3 9.35 8.15 9.75 7.8 9.95 7.55 10.15 7.1 10.15 6.5 10.15 6.2 9.75 5.95 9.25 5.95 8.7
L 5.95 6.25 5.45 6.25 5.45 8.85
Q 5.45 9.6 5.8 10.1 6.15 10.6 6.95 10.6 7.45 10.6 7.9 10.3 8.35 10.1 8.5 9.55
L 8.6 10.5 9.1 10.5 9 9.5 9 6.25 8.5 6.25 Z"/>
</g>

<g id="IT_728x90_FR_psd_Asset_V11_1_Faites__voluer_votre_entreprise__au_moyen_d_une_technologie__0_Layer0_0_MEMBER_30_FILL">
<path fill="#D82C26" stroke="none" d="
M 14 6.8
Q 14.25 6.6 14.65 6.6 15.15 6.6 15.45 6.95 15.7 7.35 15.7 8
L 15.7 10.5 16.25 10.5 16.25 8.3
Q 16.25 7.55 16.6 7.05 17 6.6 17.55 6.6 18.15 6.6 18.4 7 18.65 7.4 18.65 8.1
L 18.65 10.5 19.2 10.5 19.2 7.95
Q 19.2 7.25 18.85 6.65 18.5 6.15 17.65 6.15 17.15 6.15 16.75 6.45 16.4 6.65 16.15 7.25 16 6.7 15.65 6.45 15.3 6.15 14.75 6.15 14.3 6.15 13.9 6.45 13.55 6.7 13.3 7.2
L 13.25 6.25 12.75 6.25 12.8 10.5 13.35 10.5 13.35 8.4
Q 13.35 7.85 13.5 7.4 13.65 7.1 14 6.8 Z"/>
</g>

<g id="IT_728x90_FR_psd_Asset_V11_1_Faites__voluer_votre_entreprise__au_moyen_d_une_technologie__0_Layer0_0_MEMBER_31_FILL">
<path fill="#D82C26" stroke="none" d="
M 24.65 7.2
Q 24.35 6.7 23.85 6.4 23.25 6.15 22.7 6.15 22.15 6.15 21.55 6.4 21 6.75 20.75 7.2 20.45 7.75 20.45 8.35 20.45 9.05 20.75 9.5 21 9.95 21.55 10.3 22.1 10.6 22.7 10.6 23.35 10.6 23.85 10.3 24.35 10 24.65 9.5 24.95 9.05 24.95 8.35 24.95 7.75 24.65 7.2
M 24.45 8.35
Q 24.45 8.85 24.2 9.25 24.05 9.65 23.6 9.9 23.2 10.15 22.7 10.15 22.2 10.15 21.8 9.9 21.4 9.65 21.2 9.25 21 8.9 21 8.35 21 7.85 21.2 7.45 21.45 7.1 21.8 6.85 22.1 6.6 22.7 6.6 23.3 6.6 23.6 6.85 24 7.1 24.2 7.45 24.45 7.95 24.45 8.35 Z"/>
</g>

<g id="IT_728x90_FR_psd_Asset_V11_1_Faites__voluer_votre_entreprise__au_moyen_d_une_technologie__0_Layer0_0_MEMBER_32_FILL">
<path fill="#D82C26" stroke="none" d="
M 29.4 6.25
L 28.85 6.25 27.6 9.9 26.15 6.25 25.55 6.25 27.3 10.5 27 11.4
Q 26.85 11.8 26.55 12 26.25 12.15 25.8 12.15
L 25.95 12.65
Q 26.65 12.55 26.9 12.35 27.3 12.1 27.45 11.55
L 29.4 6.25 Z"/>
</g>

<g id="IT_728x90_FR_psd_Asset_V11_1_Faites__voluer_votre_entreprise__au_moyen_d_une_technologie__0_Layer0_0_MEMBER_33_FILL">
<path fill="#D82C26" stroke="none" d="
M 33.9 7.15
Q 33.7 6.75 33.2 6.4 32.7 6.15 32.15 6.15 31.65 6.15 31.05 6.4 30.6 6.7 30.3 7.2 30.05 7.8 30.05 8.35 30.05 9 30.3 9.5 30.6 10 31.1 10.3 31.55 10.6 32.2 10.6 33.2 10.6 33.9 10.05
L 33.8 9.6
Q 33.55 9.85 33.1 10 32.75 10.15 32.25 10.15 31.75 10.15 31.4 9.95 31.1 9.8 30.8 9.3 30.55 8.9 30.55 8.45
L 34.1 8.45 34.15 8.2
Q 34.15 7.75 33.9 7.15
M 33.2 6.95
Q 33.55 7.3 33.65 8.05
L 30.55 8.05 30.75 7.4
Q 31 7 31.3 6.8 31.7 6.55 32.15 6.55 32.8 6.55 33.2 6.95 Z"/>
</g>

<g id="IT_728x90_FR_psd_Asset_V11_1_Faites__voluer_votre_entreprise__au_moyen_d_une_technologie__0_Layer0_0_MEMBER_34_FILL">
<path fill="#D82C26" stroke="none" d="
M 39.05 7.9
Q 39.05 7.2 38.65 6.65 38.3 6.15 37.5 6.15 37 6.15 36.55 6.45 36.2 6.7 35.95 7.2
L 35.9 6.25 35.4 6.25 35.45 10.5 36 10.5 36 8.35
Q 36 7.8 36.15 7.4 36.4 7 36.65 6.8 37 6.6 37.4 6.6 38 6.6 38.25 7 38.5 7.4 38.5 8.05
L 38.5 10.5 39.05 10.5 39.05 7.9 Z"/>
</g>

<g id="IT_728x90_FR_psd_Asset_V11_1_Faites__voluer_votre_entreprise__au_moyen_d_une_technologie__0_Layer0_0_MEMBER_35_FILL">
<path fill="#D82C26" stroke="none" d="
M 46.75 3.6
L 46.25 3.7 46.25 7.2 46.2 7.2
Q 46 6.75 45.5 6.4 45 6.15 44.5 6.15 43.95 6.15 43.4 6.45 42.95 6.75 42.65 7.25 42.4 7.85 42.4 8.4 42.4 8.9 42.65 9.5 42.95 10 43.4 10.3 43.95 10.6 44.5 10.6 45.05 10.6 45.5 10.3 45.95 10.1 46.25 9.55
L 46.3 10.5 46.8 10.5 46.75 3.6
M 44.6 6.6
Q 45.15 6.6 45.45 6.85 45.85 7.1 46.05 7.5 46.25 7.85 46.25 8.4 46.25 8.9 46.05 9.25 45.85 9.65 45.45 9.9 45.05 10.15 44.6 10.15 44.1 10.15 43.7 9.9 43.3 9.65 43.15 9.25 42.95 8.9 42.95 8.4 42.95 7.85 43.15 7.5 43.3 7.1 43.7 6.85 44 6.6 44.6 6.6 Z"/>
</g>

<g id="IT_728x90_FR_psd_Asset_V11_1_Faites__voluer_votre_entreprise__au_moyen_d_une_technologie__0_Layer0_0_MEMBER_36_FILL">
<path fill="#D82C26" stroke="none" d="
M 49.15 4.25
Q 49.1 4.1 48.85 4.1 48.7 4.1 48.6 4.25 48.5 4.3 48.5 4.5 48.5 4.75 48.6 4.8 48.6 4.85 48.85 4.95
L 48.65 5.5 48.25 6 48.45 6.15
Q 49.25 5.4 49.25 4.6 49.25 4.35 49.15 4.25 Z"/>
</g>

<g id="IT_728x90_FR_psd_Asset_V11_1_Faites__voluer_votre_entreprise__au_moyen_d_une_technologie__0_Layer0_0_MEMBER_37_FILL">
<path fill="#D82C26" stroke="none" d="
M 53.35 6.25
L 53.35 8.35
Q 53.35 8.9 53.2 9.35 52.95 9.75 52.7 9.95 52.35 10.15 51.95 10.15 51.35 10.15 51.1 9.75 50.85 9.4 50.85 8.7
L 50.85 6.25 50.3 6.25 50.3 8.85
Q 50.3 9.6 50.65 10.1 51 10.6 51.85 10.6 52.4 10.6 52.75 10.3 53.2 10.1 53.35 9.55
L 53.45 10.5 53.95 10.5 53.9 6.25 53.35 6.25 Z"/>
</g>

<g id="IT_728x90_FR_psd_Asset_V11_1_Faites__voluer_votre_entreprise__au_moyen_d_une_technologie__0_Layer0_0_MEMBER_38_FILL">
<path fill="#D82C26" stroke="none" d="
M 55.5 6.25
L 55.55 10.5 56.05 10.5 56.05 8.35
Q 56.05 7.75 56.25 7.4 56.4 7.1 56.75 6.8 57 6.6 57.45 6.6 58.05 6.6 58.35 7 58.6 7.5 58.6 8.05
L 58.6 10.5 59.15 10.5 59.15 7.9
Q 59.15 7.2 58.75 6.65 58.4 6.15 57.55 6.15 57.1 6.15 56.65 6.45 56.2 6.7 56.05 7.2
L 56 6.25 55.5 6.25 Z"/>
</g>

<g id="IT_728x90_FR_psd_Asset_V11_1_Faites__voluer_votre_entreprise__au_moyen_d_une_technologie__0_Layer0_0_MEMBER_39_FILL">
<path fill="#D82C26" stroke="none" d="
M 64.3 7.15
Q 63.95 6.65 63.6 6.4 63.1 6.15 62.5 6.15 61.95 6.15 61.45 6.4 61 6.7 60.7 7.2 60.45 7.65 60.45 8.35 60.45 9.15 60.7 9.5 61 10 61.45 10.3 62 10.6 62.6 10.6 63.65 10.6 64.25 10.05
L 64.15 9.6
Q 64 9.8 63.5 10 63.05 10.15 62.65 10.15 62.1 10.15 61.75 9.95 61.4 9.75 61.15 9.3 60.95 8.95 60.95 8.45
L 64.5 8.45 64.5 8.2
Q 64.5 7.6 64.3 7.15
M 63.6 6.95
Q 64 7.45 64 8.05
L 60.95 8.05
Q 60.95 7.8 61.15 7.4 61.3 7.05 61.7 6.8 62.05 6.55 62.5 6.55 63.1 6.55 63.6 6.95 Z"/>
</g>

<g id="IT_728x90_FR_psd_Asset_V11_1_Faites__voluer_votre_entreprise__au_moyen_d_une_technologie__0_Layer0_0_MEMBER_40_FILL">
<path fill="#D82C26" stroke="none" d="
M 68.5 5.05
L 67.95 5.25 67.95 6.25 67.3 6.25 67.2 6.7 68 6.7 68 9.45
Q 68 10.05 68.25 10.3 68.5 10.55 68.95 10.55
L 69.45 10.5 69.85 10.35 69.8 9.95
Q 69.3 10.15 69.1 10.15 68.85 10.15 68.65 9.95 68.5 9.8 68.5 9.4
L 68.5 6.7 69.6 6.7 69.7 6.25 68.5 6.25 68.5 5.05 Z"/>
</g>

<g id="IT_728x90_FR_psd_Asset_V11_1_Faites__voluer_votre_entreprise__au_moyen_d_une_technologie__0_Layer0_0_MEMBER_41_FILL">
<path fill="#D82C26" stroke="none" d="
M 74.3 7.15
Q 74.1 6.75 73.6 6.4 73.1 6.15 72.5 6.15 72.05 6.15 71.45 6.4 71 6.7 70.7 7.2 70.45 7.8 70.45 8.35 70.45 9 70.7 9.5 71 10 71.5 10.3 71.95 10.6 72.6 10.6 73.65 10.6 74.25 10.05
L 74.2 9.6
Q 74 9.8 73.5 10 73.15 10.15 72.65 10.15 72.15 10.15 71.75 9.95 71.35 9.7 71.2 9.3 70.95 8.9 70.95 8.45
L 74.5 8.45 74.5 8.2
Q 74.5 7.6 74.3 7.15
M 73.6 6.95
Q 74 7.45 74 8.05
L 70.95 8.05
Q 70.95 7.8 71.15 7.4 71.4 7 71.7 6.8 72.1 6.55 72.5 6.55 73.2 6.55 73.6 6.95 Z"/>
</g>

<g id="IT_728x90_FR_psd_Asset_V11_1_Faites__voluer_votre_entreprise__au_moyen_d_une_technologie__0_Layer0_0_MEMBER_42_FILL">
<path fill="#D82C26" stroke="none" d="
M 75.6 8.4
Q 75.6 9.1 75.85 9.55 76.25 10.1 76.65 10.3 77.1 10.6 77.75 10.6 78.25 10.6 78.6 10.45 79 10.3 79.2 10.1
L 79.15 9.65
Q 78.75 9.95 78.55 10 78.2 10.15 77.8 10.15 77.4 10.15 76.9 9.9 76.5 9.65 76.35 9.25 76.1 8.85 76.1 8.4 76.1 7.9 76.35 7.5 76.5 7.1 76.9 6.85 77.2 6.6 77.8 6.6
L 78.45 6.7 79 7.05 79.2 6.65
Q 78.9 6.35 78.6 6.3 78.15 6.15 77.8 6.15 77.2 6.15 76.65 6.45 76.2 6.65 75.85 7.25 75.6 7.65 75.6 8.4 Z"/>
</g>

<g id="IT_728x90_FR_psd_Asset_V11_1_Faites__voluer_votre_entreprise__au_moyen_d_une_technologie__0_Layer0_0_MEMBER_43_FILL">
<path fill="#D82C26" stroke="none" d="
M 81 7.45
Q 81.2 7 81.5 6.8 81.85 6.6 82.25 6.6 82.85 6.6 83.1 7 83.4 7.45 83.4 8.05
L 83.4 10.5 83.9 10.5 83.9 7.9
Q 83.9 7.15 83.55 6.65 83.2 6.15 82.35 6.15 81.85 6.15 81.45 6.4 81 6.7 80.85 7.15
L 80.85 3.65 80.3 3.7 80.3 10.5 80.85 10.5 80.85 8.45
Q 80.85 7.85 81 7.45 Z"/>
</g>

<g id="IT_728x90_FR_psd_Asset_V11_1_Faites__voluer_votre_entreprise__au_moyen_d_une_technologie__0_Layer0_0_MEMBER_44_FILL">
<path fill="#D82C26" stroke="none" d="
M 85.45 6.25
L 85.45 10.5 86 10.5 86 8.35
Q 86 7.75 86.2 7.4 86.35 7 86.7 6.8 86.95 6.6 87.4 6.6 88 6.6 88.3 7 88.55 7.5 88.55 8.05
L 88.55 10.5 89.05 10.5 89.05 7.9
Q 89.05 7.15 88.7 6.65 88.35 6.15 87.5 6.15 87 6.15 86.6 6.45 86.15 6.7 86 7.2
L 85.95 7.2 85.95 6.25 85.45 6.25 Z"/>
</g>

<g id="IT_728x90_FR_psd_Asset_V11_1_Faites__voluer_votre_entreprise__au_moyen_d_une_technologie__0_Layer0_0_MEMBER_45_FILL">
<path fill="#D82C26" stroke="none" d="
M 94.55 7.2
Q 94.25 6.7 93.75 6.4 93.15 6.15 92.6 6.15 92.05 6.15 91.45 6.4 90.95 6.7 90.65 7.2 90.35 7.75 90.35 8.35 90.35 9.05 90.65 9.5 90.95 10 91.45 10.3 92 10.6 92.6 10.6 93.25 10.6 93.75 10.3 94.25 10 94.55 9.5 94.85 9.05 94.85 8.35 94.85 7.75 94.55 7.2
M 94.3 8.35
Q 94.3 8.9 94.1 9.25 93.9 9.65 93.5 9.9 93.1 10.15 92.6 10.15 92.1 10.15 91.7 9.9 91.3 9.65 91.1 9.25 90.9 8.9 90.9 8.35 90.9 7.85 91.1 7.45 91.35 7.1 91.7 6.85 92 6.6 92.6 6.6 93.2 6.6 93.5 6.85 93.9 7.1 94.1 7.45 94.3 7.85 94.3 8.35 Z"/>
</g>

<g id="IT_728x90_FR_psd_Asset_V11_1_Faites__voluer_votre_entreprise__au_moyen_d_une_technologie__0_Layer0_0_MEMBER_46_FILL">
<path fill="#D82C26" stroke="none" d="
M 96.35 10.2
Q 96.45 10.4 96.85 10.6
L 97.1 10.15
Q 96.75 9.95 96.75 9.9
L 96.7 9.45 96.7 3.65 96.15 3.75 96.15 9.55
Q 96.15 10 96.35 10.2 Z"/>
</g>

<g id="IT_728x90_FR_psd_Asset_V11_1_Faites__voluer_votre_entreprise__au_moyen_d_une_technologie__0_Layer0_0_MEMBER_47_FILL">
<path fill="#D82C26" stroke="none" d="
M 101.4 10.3
Q 101.9 10 102.2 9.5 102.5 9.05 102.5 8.35 102.5 7.75 102.2 7.2 101.9 6.7 101.4 6.4 100.8 6.15 100.25 6.15 99.7 6.15 99.1 6.4 98.6 6.7 98.3 7.2 98 7.75 98 8.35 98 9.05 98.3 9.5 98.6 10 99.1 10.3 99.65 10.6 100.25 10.6 100.9 10.6 101.4 10.3
M 101.95 8.35
Q 101.95 8.9 101.75 9.25 101.6 9.65 101.15 9.9 100.75 10.15 100.25 10.15 99.75 10.15 99.35 9.9 98.95 9.65 98.75 9.25 98.55 8.9 98.55 8.35 98.55 7.85 98.75 7.45 99 7.1 99.35 6.85 99.65 6.6 100.25 6.6 100.85 6.6 101.15 6.85 101.55 7.1 101.75 7.45 101.95 7.85 101.95 8.35 Z"/>
</g>

<g id="IT_728x90_FR_psd_Asset_V11_1_Faites__voluer_votre_entreprise__au_moyen_d_une_technologie__0_Layer0_0_MEMBER_48_FILL">
<path fill="#D82C26" stroke="none" d="
M 104.55 6.45
Q 104.1 6.75 103.8 7.25 103.55 7.85 103.55 8.35 103.55 8.9 103.8 9.5 104.2 10.05 104.55 10.25 105.1 10.55 105.65 10.55 106.15 10.55 106.65 10.3 107.15 10 107.35 9.55
L 107.4 9.55 107.4 10.4
Q 107.4 11.3 106.95 11.75 106.6 12.25 105.65 12.25 105.2 12.25 104.75 12.1
L 103.9 11.7 103.8 12.15
Q 104.05 12.35 104.65 12.55
L 105.65 12.7
Q 106.85 12.7 107.35 12.05 107.9 11.4 107.9 10.4
L 107.95 6.25 107.45 6.25 107.4 7.2 107.35 7.2
Q 107.15 6.75 106.65 6.4 106.15 6.15 105.65 6.15 105.1 6.15 104.55 6.45
M 104.85 6.85
Q 105.15 6.6 105.75 6.6 106.3 6.6 106.6 6.85 107 7.1 107.2 7.45 107.4 7.85 107.4 8.35 107.4 8.9 107.2 9.25 106.95 9.7 106.6 9.9 106.2 10.15 105.75 10.15 105.25 10.15 104.85 9.9 104.45 9.55 104.3 9.25 104.1 8.9 104.1 8.35 104.1 7.85 104.3 7.5 104.45 7.1 104.85 6.85 Z"/>
</g>

<g id="IT_728x90_FR_psd_Asset_V11_1_Faites__voluer_votre_entreprise__au_moyen_d_une_technologie__0_Layer0_0_MEMBER_49_FILL">
<path fill="#D82C26" stroke="none" d="
M 109.5 6.25
L 109.5 10.5 110.05 10.5 110.05 6.25 109.5 6.25
M 109.75 4.95
Q 109.95 4.95 110.05 4.85
L 110.15 4.6 110.05 4.3 109.75 4.2 109.5 4.3 109.4 4.6 109.5 4.85
Q 109.6 4.95 109.75 4.95 Z"/>
</g>

<g id="IT_728x90_FR_psd_Asset_V11_1_Faites__voluer_votre_entreprise__au_moyen_d_une_technologie__0_Layer0_0_MEMBER_50_FILL">
<path fill="#D82C26" stroke="none" d="
M 115.2 7.15
Q 115 6.75 114.5 6.4 114 6.15 113.45 6.15 112.9 6.15 112.4 6.4 111.85 6.7 111.65 7.2 111.35 7.75 111.35 8.35 111.35 9.05 111.65 9.5 111.85 10 112.4 10.3 112.95 10.6 113.5 10.6 114.5 10.6 115.2 10.05
L 115.1 9.6
Q 114.85 9.85 114.4 10 114.05 10.15 113.55 10.15 113.05 10.15 112.7 9.95 112.35 9.75 112.1 9.3 111.85 8.9 111.85 8.45
L 115.45 8.45 115.45 8.2
Q 115.45 7.75 115.2 7.15
M 114.5 6.95
Q 114.95 7.4 114.95 8.05
L 111.85 8.05
Q 111.95 7.6 112.1 7.4 112.25 7.1 112.6 6.8 113 6.55 113.45 6.55 114.1 6.55 114.5 6.95 Z"/>
</g>

<g id="IT_728x90_FR_psd_Asset_V11_1_Faites__voluer_votre_entreprise__au_moyen_d_une_technologie__0_Layer0_0_MEMBER_51_FILL">
<path fill="#D82C26" stroke="none" d="
M 119.85 10.4
L 120.15 10.55 120.45 10.4 120.55 10.15
Q 120.55 9.95 120.45 9.85
L 120.15 9.7 119.85 9.85 119.75 10.15 119.85 10.4
M 116.85 10.4
L 117.15 10.55 117.45 10.4 117.55 10.15
Q 117.55 9.95 117.45 9.85
L 117.15 9.7 116.85 9.85 116.75 10.15 116.85 10.4
M 122.85 10.4
L 123.15 10.55 123.45 10.4 123.55 10.15
Q 123.55 9.95 123.45 9.85
L 123.15 9.7 122.85 9.85 122.75 10.15 122.85 10.4 Z"/>
</g>
</defs>

<g transform="matrix( 1, 0, 0, 1, -185,-76) ">
<g transform="matrix( 1, 0, 0, 1, 185,89) ">
<g transform="matrix( 1, 0, 0, 1, 20,9) ">
<g transform="matrix( 2.6895904541015625, 0, 0, 2.672393798828125, -0.85,18.55) ">
<use xlink:href="#IT_728x90_FR_psd_Asset_V11_1_Faites__voluer_votre_entreprise__au_moyen_d_une_technologie__0_Layer0_0_MEMBER_0_FILL"/>
</g>

<g transform="matrix( 2.6895904541015625, 0, 0, 2.672393798828125, -0.85,18.55) ">
<use xlink:href="#IT_728x90_FR_psd_Asset_V11_1_Faites__voluer_votre_entreprise__au_moyen_d_une_technologie__0_Layer0_0_MEMBER_1_FILL"/>
</g>

<g transform="matrix( 2.6895904541015625, 0, 0, 2.672393798828125, -0.85,18.55) ">
<use xlink:href="#IT_728x90_FR_psd_Asset_V11_1_Faites__voluer_votre_entreprise__au_moyen_d_une_technologie__0_Layer0_0_MEMBER_2_FILL"/>
</g>

<g transform="matrix( 2.6895904541015625, 0, 0, 2.672393798828125, -0.85,18.55) ">
<use xlink:href="#IT_728x90_FR_psd_Asset_V11_1_Faites__voluer_votre_entreprise__au_moyen_d_une_technologie__0_Layer0_0_MEMBER_3_FILL"/>
</g>

<g transform="matrix( 2.6895904541015625, 0, 0, 2.672393798828125, -0.85,18.55) ">
<use xlink:href="#IT_728x90_FR_psd_Asset_V11_1_Faites__voluer_votre_entreprise__au_moyen_d_une_technologie__0_Layer0_0_MEMBER_4_FILL"/>
</g>

<g transform="matrix( 2.6895904541015625, 0, 0, 2.672393798828125, -0.85,18.55) ">
<use xlink:href="#IT_728x90_FR_psd_Asset_V11_1_Faites__voluer_votre_entreprise__au_moyen_d_une_technologie__0_Layer0_0_MEMBER_5_FILL"/>
</g>

<g transform="matrix( 2.6895904541015625, 0, 0, 2.672393798828125, -0.85,18.55) ">
<use xlink:href="#IT_728x90_FR_psd_Asset_V11_1_Faites__voluer_votre_entreprise__au_moyen_d_une_technologie__0_Layer0_0_MEMBER_6_FILL"/>
</g>

<g transform="matrix( 2.6895904541015625, 0, 0, 2.672393798828125, -0.85,18.55) ">
<use xlink:href="#IT_728x90_FR_psd_Asset_V11_1_Faites__voluer_votre_entreprise__au_moyen_d_une_technologie__0_Layer0_0_MEMBER_7_FILL"/>
</g>

<g transform="matrix( 2.6895904541015625, 0, 0, 2.672393798828125, -0.85,18.55) ">
<use xlink:href="#IT_728x90_FR_psd_Asset_V11_1_Faites__voluer_votre_entreprise__au_moyen_d_une_technologie__0_Layer0_0_MEMBER_8_FILL"/>
</g>

<g transform="matrix( 2.6895904541015625, 0, 0, 2.672393798828125, -0.85,18.55) ">
<use xlink:href="#IT_728x90_FR_psd_Asset_V11_1_Faites__voluer_votre_entreprise__au_moyen_d_une_technologie__0_Layer0_0_MEMBER_9_FILL"/>
</g>

<g transform="matrix( 2.6895904541015625, 0, 0, 2.672393798828125, -0.85,18.55) ">
<use xlink:href="#IT_728x90_FR_psd_Asset_V11_1_Faites__voluer_votre_entreprise__au_moyen_d_une_technologie__0_Layer0_0_MEMBER_10_FILL"/>
</g>

<g transform="matrix( 2.6895904541015625, 0, 0, 2.672393798828125, -0.85,18.55) ">
<use xlink:href="#IT_728x90_FR_psd_Asset_V11_1_Faites__voluer_votre_entreprise__au_moyen_d_une_technologie__0_Layer0_0_MEMBER_11_FILL"/>
</g>

<g transform="matrix( 2.6895904541015625, 0, 0, 2.672393798828125, -0.85,18.55) ">
<use xlink:href="#IT_728x90_FR_psd_Asset_V11_1_Faites__voluer_votre_entreprise__au_moyen_d_une_technologie__0_Layer0_0_MEMBER_12_FILL"/>
</g>

<g transform="matrix( 2.6895904541015625, 0, 0, 2.672393798828125, -0.85,18.55) ">
<use xlink:href="#IT_728x90_FR_psd_Asset_V11_1_Faites__voluer_votre_entreprise__au_moyen_d_une_technologie__0_Layer0_0_MEMBER_13_FILL"/>
</g>

<g transform="matrix( 2.6895904541015625, 0, 0, 2.672393798828125, -0.85,18.55) ">
<use xlink:href="#IT_728x90_FR_psd_Asset_V11_1_Faites__voluer_votre_entreprise__au_moyen_d_une_technologie__0_Layer0_0_MEMBER_14_FILL"/>
</g>

<g transform="matrix( 2.6895904541015625, 0, 0, 2.672393798828125, -0.85,18.55) ">
<use xlink:href="#IT_728x90_FR_psd_Asset_V11_1_Faites__voluer_votre_entreprise__au_moyen_d_une_technologie__0_Layer0_0_MEMBER_15_FILL"/>
</g>

<g transform="matrix( 2.6895904541015625, 0, 0, 2.672393798828125, -0.85,18.55) ">
<use xlink:href="#IT_728x90_FR_psd_Asset_V11_1_Faites__voluer_votre_entreprise__au_moyen_d_une_technologie__0_Layer0_0_MEMBER_16_FILL"/>
</g>

<g transform="matrix( 2.6895904541015625, 0, 0, 2.672393798828125, -0.85,18.55) ">
<use xlink:href="#IT_728x90_FR_psd_Asset_V11_1_Faites__voluer_votre_entreprise__au_moyen_d_une_technologie__0_Layer0_0_MEMBER_17_FILL"/>
</g>

<g transform="matrix( 2.6895904541015625, 0, 0, 2.672393798828125, -0.85,18.55) ">
<use xlink:href="#IT_728x90_FR_psd_Asset_V11_1_Faites__voluer_votre_entreprise__au_moyen_d_une_technologie__0_Layer0_0_MEMBER_18_FILL"/>
</g>

<g transform="matrix( 2.6895904541015625, 0, 0, 2.672393798828125, -0.85,18.55) ">
<use xlink:href="#IT_728x90_FR_psd_Asset_V11_1_Faites__voluer_votre_entreprise__au_moyen_d_une_technologie__0_Layer0_0_MEMBER_19_FILL"/>
</g>

<g transform="matrix( 2.6895904541015625, 0, 0, 2.672393798828125, -0.85,18.55) ">
<use xlink:href="#IT_728x90_FR_psd_Asset_V11_1_Faites__voluer_votre_entreprise__au_moyen_d_une_technologie__0_Layer0_0_MEMBER_20_FILL"/>
</g>

<g transform="matrix( 2.6895904541015625, 0, 0, 2.672393798828125, -0.85,18.55) ">
<use xlink:href="#IT_728x90_FR_psd_Asset_V11_1_Faites__voluer_votre_entreprise__au_moyen_d_une_technologie__0_Layer0_0_MEMBER_21_FILL"/>
</g>

<g transform="matrix( 2.6895904541015625, 0, 0, 2.672393798828125, -0.85,18.55) ">
<use xlink:href="#IT_728x90_FR_psd_Asset_V11_1_Faites__voluer_votre_entreprise__au_moyen_d_une_technologie__0_Layer0_0_MEMBER_22_FILL"/>
</g>

<g transform="matrix( 2.6895904541015625, 0, 0, 2.672393798828125, -0.85,18.55) ">
<use xlink:href="#IT_728x90_FR_psd_Asset_V11_1_Faites__voluer_votre_entreprise__au_moyen_d_une_technologie__0_Layer0_0_MEMBER_23_FILL"/>
</g>

<g transform="matrix( 2.6895904541015625, 0, 0, 2.672393798828125, -0.85,18.55) ">
<use xlink:href="#IT_728x90_FR_psd_Asset_V11_1_Faites__voluer_votre_entreprise__au_moyen_d_une_technologie__0_Layer0_0_MEMBER_24_FILL"/>
</g>

<g transform="matrix( 2.6895904541015625, 0, 0, 2.672393798828125, -0.85,18.55) ">
<use xlink:href="#IT_728x90_FR_psd_Asset_V11_1_Faites__voluer_votre_entreprise__au_moyen_d_une_technologie__0_Layer0_0_MEMBER_25_FILL"/>
</g>

<g transform="matrix( 2.6895904541015625, 0, 0, 2.672393798828125, -0.85,18.55) ">
<use xlink:href="#IT_728x90_FR_psd_Asset_V11_1_Faites__voluer_votre_entreprise__au_moyen_d_une_technologie__0_Layer0_0_MEMBER_26_FILL"/>
</g>

<g transform="matrix( 2.6895904541015625, 0, 0, 2.672393798828125, -0.85,18.55) ">
<use xlink:href="#IT_728x90_FR_psd_Asset_V11_1_Faites__voluer_votre_entreprise__au_moyen_d_une_technologie__0_Layer0_0_MEMBER_27_FILL"/>
</g>

<g transform="matrix( 2.6895904541015625, 0, 0, 2.672393798828125, -0.85,18.55) ">
<use xlink:href="#IT_728x90_FR_psd_Asset_V11_1_Faites__voluer_votre_entreprise__au_moyen_d_une_technologie__0_Layer0_0_MEMBER_28_FILL"/>
</g>

<g transform="matrix( 2.6895904541015625, 0, 0, 2.672393798828125, -0.85,18.55) ">
<use xlink:href="#IT_728x90_FR_psd_Asset_V11_1_Faites__voluer_votre_entreprise__au_moyen_d_une_technologie__0_Layer0_0_MEMBER_29_FILL"/>
</g>

<g transform="matrix( 2.6895904541015625, 0, 0, 2.672393798828125, -0.85,18.55) ">
<use xlink:href="#IT_728x90_FR_psd_Asset_V11_1_Faites__voluer_votre_entreprise__au_moyen_d_une_technologie__0_Layer0_0_MEMBER_30_FILL"/>
</g>

<g transform="matrix( 2.6895904541015625, 0, 0, 2.672393798828125, -0.85,18.55) ">
<use xlink:href="#IT_728x90_FR_psd_Asset_V11_1_Faites__voluer_votre_entreprise__au_moyen_d_une_technologie__0_Layer0_0_MEMBER_31_FILL"/>
</g>

<g transform="matrix( 2.6895904541015625, 0, 0, 2.672393798828125, -0.85,18.55) ">
<use xlink:href="#IT_728x90_FR_psd_Asset_V11_1_Faites__voluer_votre_entreprise__au_moyen_d_une_technologie__0_Layer0_0_MEMBER_32_FILL"/>
</g>

<g transform="matrix( 2.6895904541015625, 0, 0, 2.672393798828125, -0.85,18.55) ">
<use xlink:href="#IT_728x90_FR_psd_Asset_V11_1_Faites__voluer_votre_entreprise__au_moyen_d_une_technologie__0_Layer0_0_MEMBER_33_FILL"/>
</g>

<g transform="matrix( 2.6895904541015625, 0, 0, 2.672393798828125, -0.85,18.55) ">
<use xlink:href="#IT_728x90_FR_psd_Asset_V11_1_Faites__voluer_votre_entreprise__au_moyen_d_une_technologie__0_Layer0_0_MEMBER_34_FILL"/>
</g>

<g transform="matrix( 2.6895904541015625, 0, 0, 2.672393798828125, -0.85,18.55) ">
<use xlink:href="#IT_728x90_FR_psd_Asset_V11_1_Faites__voluer_votre_entreprise__au_moyen_d_une_technologie__0_Layer0_0_MEMBER_35_FILL"/>
</g>

<g transform="matrix( 2.6895904541015625, 0, 0, 2.672393798828125, -0.85,18.55) ">
<use xlink:href="#IT_728x90_FR_psd_Asset_V11_1_Faites__voluer_votre_entreprise__au_moyen_d_une_technologie__0_Layer0_0_MEMBER_36_FILL"/>
</g>

<g transform="matrix( 2.6895904541015625, 0, 0, 2.672393798828125, -0.85,18.55) ">
<use xlink:href="#IT_728x90_FR_psd_Asset_V11_1_Faites__voluer_votre_entreprise__au_moyen_d_une_technologie__0_Layer0_0_MEMBER_37_FILL"/>
</g>

<g transform="matrix( 2.6895904541015625, 0, 0, 2.672393798828125, -0.85,18.55) ">
<use xlink:href="#IT_728x90_FR_psd_Asset_V11_1_Faites__voluer_votre_entreprise__au_moyen_d_une_technologie__0_Layer0_0_MEMBER_38_FILL"/>
</g>

<g transform="matrix( 2.6895904541015625, 0, 0, 2.672393798828125, -0.85,18.55) ">
<use xlink:href="#IT_728x90_FR_psd_Asset_V11_1_Faites__voluer_votre_entreprise__au_moyen_d_une_technologie__0_Layer0_0_MEMBER_39_FILL"/>
</g>

<g transform="matrix( 2.6895904541015625, 0, 0, 2.672393798828125, -0.85,18.55) ">
<use xlink:href="#IT_728x90_FR_psd_Asset_V11_1_Faites__voluer_votre_entreprise__au_moyen_d_une_technologie__0_Layer0_0_MEMBER_40_FILL"/>
</g>

<g transform="matrix( 2.6895904541015625, 0, 0, 2.672393798828125, -0.85,18.55) ">
<use xlink:href="#IT_728x90_FR_psd_Asset_V11_1_Faites__voluer_votre_entreprise__au_moyen_d_une_technologie__0_Layer0_0_MEMBER_41_FILL"/>
</g>

<g transform="matrix( 2.6895904541015625, 0, 0, 2.672393798828125, -0.85,18.55) ">
<use xlink:href="#IT_728x90_FR_psd_Asset_V11_1_Faites__voluer_votre_entreprise__au_moyen_d_une_technologie__0_Layer0_0_MEMBER_42_FILL"/>
</g>

<g transform="matrix( 2.6895904541015625, 0, 0, 2.672393798828125, -0.85,18.55) ">
<use xlink:href="#IT_728x90_FR_psd_Asset_V11_1_Faites__voluer_votre_entreprise__au_moyen_d_une_technologie__0_Layer0_0_MEMBER_43_FILL"/>
</g>

<g transform="matrix( 2.6895904541015625, 0, 0, 2.672393798828125, -0.85,18.55) ">
<use xlink:href="#IT_728x90_FR_psd_Asset_V11_1_Faites__voluer_votre_entreprise__au_moyen_d_une_technologie__0_Layer0_0_MEMBER_44_FILL"/>
</g>

<g transform="matrix( 2.6895904541015625, 0, 0, 2.672393798828125, -0.85,18.55) ">
<use xlink:href="#IT_728x90_FR_psd_Asset_V11_1_Faites__voluer_votre_entreprise__au_moyen_d_une_technologie__0_Layer0_0_MEMBER_45_FILL"/>
</g>

<g transform="matrix( 2.6895904541015625, 0, 0, 2.672393798828125, -0.85,18.55) ">
<use xlink:href="#IT_728x90_FR_psd_Asset_V11_1_Faites__voluer_votre_entreprise__au_moyen_d_une_technologie__0_Layer0_0_MEMBER_46_FILL"/>
</g>

<g transform="matrix( 2.6895904541015625, 0, 0, 2.672393798828125, -0.85,18.55) ">
<use xlink:href="#IT_728x90_FR_psd_Asset_V11_1_Faites__voluer_votre_entreprise__au_moyen_d_une_technologie__0_Layer0_0_MEMBER_47_FILL"/>
</g>

<g transform="matrix( 2.6895904541015625, 0, 0, 2.672393798828125, -0.85,18.55) ">
<use xlink:href="#IT_728x90_FR_psd_Asset_V11_1_Faites__voluer_votre_entreprise__au_moyen_d_une_technologie__0_Layer0_0_MEMBER_48_FILL"/>
</g>

<g transform="matrix( 2.6895904541015625, 0, 0, 2.672393798828125, -0.85,18.55) ">
<use xlink:href="#IT_728x90_FR_psd_Asset_V11_1_Faites__voluer_votre_entreprise__au_moyen_d_une_technologie__0_Layer0_0_MEMBER_49_FILL"/>
</g>

<g transform="matrix( 2.6895904541015625, 0, 0, 2.672393798828125, -0.85,18.55) ">
<use xlink:href="#IT_728x90_FR_psd_Asset_V11_1_Faites__voluer_votre_entreprise__au_moyen_d_une_technologie__0_Layer0_0_MEMBER_50_FILL"/>
</g>

<g transform="matrix( 2.6895904541015625, 0, 0, 2.672393798828125, -0.85,18.55) ">
<use xlink:href="#IT_728x90_FR_psd_Asset_V11_1_Faites__voluer_votre_entreprise__au_moyen_d_une_technologie__0_Layer0_0_MEMBER_51_FILL"/>
</g>
</g>
</g>
</g>
</svg>
