
<svg xmlns="http://www.w3.org/2000/svg" version="1.1" xmlns:xlink="http://www.w3.org/1999/xlink" preserveAspectRatio="none" x="0px" y="0px" width="728px" height="90px" viewBox="0 0 728 90">
<defs>
<g id="BDM_728x90_psd_Asset_ManagedWiFi_Awareness_DM7_3_to_individual_customer_spending_habits__0_Layer0_0_MEMBER_0_FILL">
<path fill="#D82C26" stroke="none" d="
M 0.1 -3.8
L 0.9 -3.8 0.9 -1
Q 0.9 -0.55 1.15 -0.2 1.45 0.1 1.9 0.1
L 2.35 0.05 2.8 -0.15 2.7 -0.55
Q 2.35 -0.35 2.05 -0.35 1.75 -0.35 1.6 -0.5 1.4 -0.7 1.4 -1.1
L 1.4 -3.8 2.5 -3.8 2.6 -4.2 1.4 -4.2 1.4 -5.4 0.9 -5.2 0.9 -4.2 0.2 -4.2 0.1 -3.8 Z"/>
</g>

<g id="BDM_728x90_psd_Asset_ManagedWiFi_Awareness_DM7_3_to_individual_customer_spending_habits__0_Layer0_0_MEMBER_1_FILL">
<path fill="#D82C26" stroke="none" d="
M 3.65 -0.95
Q 3.95 -0.45 4.45 -0.15 5 0.15 5.6 0.15 6.25 0.15 6.75 -0.15 7.3 -0.5 7.55 -0.95 7.85 -1.45 7.85 -2.1 7.85 -2.8 7.55 -3.25 7.3 -3.7 6.75 -4.05 6.25 -4.35 5.6 -4.35 5 -4.35 4.45 -4.05 3.95 -3.75 3.65 -3.25 3.35 -2.8 3.35 -2.1 3.35 -1.45 3.65 -0.95
M 4.1 -3
Q 4.25 -3.4 4.7 -3.65 5.1 -3.9 5.6 -3.9 6 -3.9 6.5 -3.65 6.9 -3.4 7.1 -3 7.3 -2.65 7.3 -2.1 7.3 -1.6 7.1 -1.2 6.9 -0.85 6.5 -0.55 6.1 -0.3 5.6 -0.3 5.1 -0.3 4.7 -0.55 4.25 -0.85 4.1 -1.2 3.9 -1.6 3.9 -2.1 3.9 -2.65 4.1 -3 Z"/>
</g>

<g id="BDM_728x90_psd_Asset_ManagedWiFi_Awareness_DM7_3_to_individual_customer_spending_habits__0_Layer0_0_MEMBER_2_FILL">
<path fill="#D82C26" stroke="none" d="
M 11.75 -4.2
L 11.25 -4.2 11.25 0 11.75 0 11.75 -4.2
M 11.5 -5.5
L 11.75 -5.6
Q 11.85 -5.7 11.85 -5.9 11.85 -6.1 11.75 -6.15 11.7 -6.25 11.5 -6.25 11.3 -6.25 11.25 -6.15 11.1 -6.05 11.1 -5.9
L 11.25 -5.6 11.5 -5.5 Z"/>
</g>

<g id="BDM_728x90_psd_Asset_ManagedWiFi_Awareness_DM7_3_to_individual_customer_spending_habits__0_Layer0_0_MEMBER_3_FILL">
<path fill="#D82C26" stroke="none" d="
M 13.85 -4.2
L 13.35 -4.2 13.35 0 13.9 0 13.9 -2.15
Q 13.9 -2.7 14.1 -3.1 14.25 -3.4 14.6 -3.7 15 -3.9 15.3 -3.9 15.9 -3.9 16.2 -3.45 16.45 -3.05 16.45 -2.45
L 16.45 0 16.95 0 16.95 -2.55
Q 16.95 -3.35 16.6 -3.85 16.2 -4.35 15.4 -4.35 14.9 -4.35 14.5 -4.05 14.05 -3.75 13.9 -3.3
L 13.85 -3.3 13.85 -4.2 Z"/>
</g>

<g id="BDM_728x90_psd_Asset_ManagedWiFi_Awareness_DM7_3_to_individual_customer_spending_habits__0_Layer0_0_MEMBER_4_FILL">
<path fill="#D82C26" stroke="none" d="
M 18.55 -0.95
Q 18.8 -0.4 19.25 -0.2 19.8 0.1 20.4 0.1 20.95 0.1 21.4 -0.15 21.9 -0.45 22.1 -0.9
L 22.15 0 22.65 0 22.6 -6.9 22.1 -6.8 22.1 -3.3
Q 21.8 -3.85 21.35 -4.05 20.9 -4.35 20.4 -4.35 19.8 -4.35 19.25 -4.05 18.8 -3.75 18.55 -3.25 18.25 -2.7 18.25 -2.1 18.25 -1.45 18.55 -0.95
M 19 -3
Q 19.3 -3.5 19.55 -3.65 19.95 -3.9 20.45 -3.9 20.9 -3.9 21.3 -3.65 21.65 -3.45 21.9 -3 22.1 -2.6 22.1 -2.1 22.1 -1.6 21.9 -1.2 21.7 -0.85 21.3 -0.55 20.9 -0.3 20.45 -0.3 19.95 -0.3 19.55 -0.55 19.3 -0.7 19 -1.2 18.8 -1.6 18.8 -2.1 18.8 -2.6 19 -3 Z"/>
</g>

<g id="BDM_728x90_psd_Asset_ManagedWiFi_Awareness_DM7_3_to_individual_customer_spending_habits__0_Layer0_0_MEMBER_5_FILL">
<path fill="#D82C26" stroke="none" d="
M 24.75 -4.2
L 24.25 -4.2 24.25 0 24.75 0 24.75 -4.2
M 24.5 -5.5
L 24.75 -5.6
Q 24.85 -5.7 24.85 -5.9 24.85 -6.1 24.75 -6.15 24.7 -6.25 24.5 -6.25 24.3 -6.25 24.2 -6.15
L 24.1 -5.9 24.2 -5.6 24.5 -5.5 Z"/>
</g>

<g id="BDM_728x90_psd_Asset_ManagedWiFi_Awareness_DM7_3_to_individual_customer_spending_habits__0_Layer0_0_MEMBER_6_FILL">
<path fill="#D82C26" stroke="none" d="
M 26.3 -4.2
L 25.75 -4.2 27.35 0 27.95 0 29.55 -4.2 29 -4.2 27.65 -0.55 26.3 -4.2 Z"/>
</g>

<g id="BDM_728x90_psd_Asset_ManagedWiFi_Awareness_DM7_3_to_individual_customer_spending_habits__0_Layer0_0_MEMBER_7_FILL">
<path fill="#D82C26" stroke="none" d="
M 31.05 -4.2
L 30.55 -4.2 30.55 0 31.05 0 31.05 -4.2
M 30.8 -5.5
L 31.05 -5.6 31.2 -5.9
Q 31.2 -6.05 31.05 -6.15 31 -6.25 30.8 -6.25 30.6 -6.25 30.55 -6.15 30.45 -6.1 30.45 -5.9 30.45 -5.7 30.55 -5.6
L 30.8 -5.5 Z"/>
</g>

<g id="BDM_728x90_psd_Asset_ManagedWiFi_Awareness_DM7_3_to_individual_customer_spending_habits__0_Layer0_0_MEMBER_8_FILL">
<path fill="#D82C26" stroke="none" d="
M 36.75 -6.9
L 36.25 -6.8 36.25 -3.3 36.2 -3.3
Q 36 -3.8 35.5 -4.05 35.05 -4.35 34.5 -4.35 33.85 -4.35 33.4 -4.05 33 -3.8 32.65 -3.25 32.4 -2.65 32.4 -2.1 32.4 -1.55 32.65 -0.95 33.05 -0.4 33.4 -0.2 33.85 0.1 34.5 0.1 35.15 0.1 35.5 -0.15 35.95 -0.45 36.25 -0.9
L 36.3 0 36.8 0 36.75 -6.9
M 33.7 -3.65
Q 34.1 -3.9 34.6 -3.9 35.05 -3.9 35.45 -3.65 35.8 -3.45 36.05 -3 36.25 -2.4 36.25 -2.1 36.25 -1.8 36.05 -1.2 35.85 -0.85 35.45 -0.55 35.05 -0.3 34.6 -0.3 34.1 -0.3 33.7 -0.55 33.3 -0.8 33.15 -1.2 32.9 -1.7 32.9 -2.1 32.9 -2.5 33.15 -3 33.3 -3.4 33.7 -3.65 Z"/>
</g>

<g id="BDM_728x90_psd_Asset_ManagedWiFi_Awareness_DM7_3_to_individual_customer_spending_habits__0_Layer0_0_MEMBER_9_FILL">
<path fill="#D82C26" stroke="none" d="
M 38.3 -1.65
Q 38.3 -0.8 38.65 -0.4 39 0.1 39.85 0.1 40.35 0.1 40.75 -0.15 41.2 -0.45 41.35 -0.9
L 41.45 0 41.95 0 41.9 -0.5 41.9 -4.2 41.35 -4.2 41.35 -2.1
Q 41.35 -1.5 41.2 -1.15 40.95 -0.7 40.7 -0.55 40.3 -0.3 39.95 -0.3 39.35 -0.3 39.1 -0.75 38.85 -1.05 38.85 -1.8
L 38.85 -4.2 38.3 -4.2 38.3 -1.65 Z"/>
</g>

<g id="BDM_728x90_psd_Asset_ManagedWiFi_Awareness_DM7_3_to_individual_customer_spending_habits__0_Layer0_0_MEMBER_10_FILL">
<path fill="#D82C26" stroke="none" d="
M 43.45 -3.8
L 43.6 -3.4
Q 43.8 -3.6 44.2 -3.75
L 44.9 -3.9
Q 45.5 -3.9 45.8 -3.6 46.1 -3.35 46.1 -2.75
L 46.1 -2.5 45.6 -2.5
Q 43.2 -2.5 43.2 -1.15 43.2 -0.45 43.6 -0.2 44 0.1 44.55 0.1 45.1 0.1 45.5 -0.1 46 -0.5 46.1 -0.8
L 46.15 -0.8 46.15 -0.4 46.2 0 46.7 0 46.6 -0.9 46.6 -2.75
Q 46.6 -3.45 46.2 -3.95 45.7 -4.35 45 -4.35 44.55 -4.35 44.15 -4.2 43.6 -4 43.45 -3.8
M 44.65 -0.3
Q 44.2 -0.3 43.95 -0.5 43.7 -0.75 43.7 -1.15 43.7 -2.15 45.65 -2.15
L 46.1 -2.15 46.1 -1.75
Q 46.1 -1.4 45.95 -1.05 45.8 -0.75 45.45 -0.5 45.2 -0.3 44.65 -0.3 Z"/>
</g>

<g id="BDM_728x90_psd_Asset_ManagedWiFi_Awareness_DM7_3_to_individual_customer_spending_habits__0_Layer0_0_MEMBER_11_FILL">
<path fill="#D82C26" stroke="none" d="
M 48.15 -0.95
Q 48.15 -0.5 48.35 -0.25 48.55 0 48.85 0.1
L 49.1 -0.35 48.75 -0.6 48.7 -1.05 48.7 -6.85 48.15 -6.75 48.15 -0.95 Z"/>
</g>

<g id="BDM_728x90_psd_Asset_ManagedWiFi_Awareness_DM7_3_to_individual_customer_spending_habits__0_Layer0_0_MEMBER_12_FILL">
<path fill="#D82C26" stroke="none" d="
M 54.3 -4.35
Q 53.65 -4.35 53.2 -4.05 52.7 -3.75 52.4 -3.25 52.1 -2.7 52.1 -2.1 52.1 -1.45 52.4 -0.95 52.6 -0.55 53.15 -0.15 53.7 0.15 54.3 0.15 54.75 0.15 55.1 0
L 55.75 -0.4 55.65 -0.85
Q 55.45 -0.65 55.05 -0.45 54.85 -0.35 54.35 -0.35 53.8 -0.35 53.45 -0.55 53.05 -0.85 52.85 -1.2 52.65 -1.6 52.65 -2.1 52.65 -2.6 52.85 -3 53.1 -3.45 53.45 -3.65 53.85 -3.9 54.3 -3.9 54.65 -3.9 55 -3.75 55.25 -3.7 55.5 -3.45
L 55.75 -3.85
Q 55.6 -4 55.1 -4.2 54.75 -4.35 54.3 -4.35 Z"/>
</g>

<g id="BDM_728x90_psd_Asset_ManagedWiFi_Awareness_DM7_3_to_individual_customer_spending_habits__0_Layer0_0_MEMBER_13_FILL">
<path fill="#D82C26" stroke="none" d="
M 60.4 -4.2
L 59.85 -4.2 59.85 -2.1
Q 59.85 -1.5 59.7 -1.15 59.45 -0.7 59.2 -0.55 58.8 -0.3 58.45 -0.3 57.85 -0.3 57.6 -0.75 57.35 -1.05 57.35 -1.8
L 57.35 -4.2 56.8 -4.2 56.8 -1.65
Q 56.8 -0.8 57.15 -0.4 57.5 0.1 58.35 0.1 58.85 0.1 59.25 -0.15 59.7 -0.45 59.85 -0.9
L 59.95 0 60.45 0 60.4 -4.2 Z"/>
</g>

<g id="BDM_728x90_psd_Asset_ManagedWiFi_Awareness_DM7_3_to_individual_customer_spending_habits__0_Layer0_0_MEMBER_14_FILL">
<path fill="#D82C26" stroke="none" d="
M 64.5 -3.9
L 63.9 -4.2 63.15 -4.35
Q 62.8 -4.35 62.5 -4.2 62.15 -4.05 61.95 -3.8 61.75 -3.5 61.75 -3.2 61.75 -2.65 62.05 -2.45
L 62.95 -2
Q 63.7 -1.7 63.85 -1.6 64.1 -1.35 64.1 -1.1 64.1 -0.75 63.85 -0.5 63.6 -0.3 63.15 -0.3 62.3 -0.3 61.75 -0.8
L 61.7 -0.35
Q 61.9 -0.15 62.35 0
L 63.2 0.1 63.9 0
Q 64.25 -0.2 64.4 -0.45 64.6 -0.7 64.6 -1.1 64.6 -1.55 64.3 -1.85 64.05 -2.1 63.3 -2.35
L 62.5 -2.7
Q 62.25 -2.95 62.25 -3.2 62.25 -3.5 62.5 -3.75 62.8 -3.9 63.15 -3.9 63.6 -3.9 63.75 -3.8
L 64.25 -3.5 64.5 -3.9 Z"/>
</g>

<g id="BDM_728x90_psd_Asset_ManagedWiFi_Awareness_DM7_3_to_individual_customer_spending_habits__0_Layer0_0_MEMBER_15_FILL">
<path fill="#D82C26" stroke="none" d="
M 65.5 -4.2
L 65.35 -3.8 66.15 -3.8 66.15 -1
Q 66.15 -0.5 66.45 -0.2 66.7 0.1 67.15 0.1
L 67.6 0.05 68.05 -0.15 67.95 -0.55
Q 67.6 -0.35 67.3 -0.35 67 -0.35 66.85 -0.5 66.7 -0.7 66.7 -1.1
L 66.7 -3.8 67.75 -3.8 67.9 -4.2 66.7 -4.2 66.7 -5.4 66.15 -5.2 66.15 -4.2 65.5 -4.2 Z"/>
</g>

<g id="BDM_728x90_psd_Asset_ManagedWiFi_Awareness_DM7_3_to_individual_customer_spending_habits__0_Layer0_0_MEMBER_16_FILL">
<path fill="#D82C26" stroke="none" d="
M 69.7 -4.05
Q 69.2 -3.75 68.9 -3.25 68.6 -2.8 68.6 -2.1 68.6 -1.45 68.9 -0.95 69.2 -0.45 69.7 -0.15 70.25 0.15 70.85 0.15 71.5 0.15 72 -0.15 72.5 -0.45 72.8 -0.95 73.1 -1.45 73.1 -2.1 73.1 -2.8 72.8 -3.25 72.5 -3.75 72 -4.05 71.5 -4.35 70.85 -4.35 70.25 -4.35 69.7 -4.05
M 69.95 -3.65
Q 70.35 -3.9 70.85 -3.9 71.35 -3.9 71.75 -3.65 72.15 -3.4 72.35 -3 72.55 -2.65 72.55 -2.1 72.55 -1.6 72.35 -1.2 72.15 -0.85 71.75 -0.55 71.35 -0.3 70.85 -0.3 70.35 -0.3 69.95 -0.55 69.55 -0.85 69.35 -1.2 69.15 -1.6 69.15 -2.1 69.15 -2.65 69.35 -3 69.55 -3.4 69.95 -3.65 Z"/>
</g>

<g id="BDM_728x90_psd_Asset_ManagedWiFi_Awareness_DM7_3_to_individual_customer_spending_habits__0_Layer0_0_MEMBER_17_FILL">
<path fill="#D82C26" stroke="none" d="
M 74.9 -4.2
L 74.4 -4.2 74.4 0 74.95 0 74.95 -2.1
Q 74.95 -2.65 75.1 -3.05 75.3 -3.5 75.6 -3.7 76 -3.9 76.25 -3.9 76.8 -3.9 77.05 -3.5 77.35 -3.2 77.35 -2.5
L 77.35 0 77.85 0 77.85 -2.15
Q 77.85 -2.9 78.25 -3.4 78.55 -3.9 79.2 -3.9 79.75 -3.9 80.05 -3.45 80.3 -3.05 80.3 -2.4
L 80.3 0 80.8 0 80.8 -2.5
Q 80.8 -3.4 80.45 -3.8 80.05 -4.35 79.3 -4.35 78.8 -4.35 78.35 -4.05 77.95 -3.75 77.75 -3.25 77.6 -3.75 77.25 -4.05 76.95 -4.35 76.4 -4.35 75.95 -4.35 75.5 -4.05 75.1 -3.7 74.95 -3.3
L 74.9 -3.3 74.9 -4.2 Z"/>
</g>

<g id="BDM_728x90_psd_Asset_ManagedWiFi_Awareness_DM7_3_to_individual_customer_spending_habits__0_Layer0_0_MEMBER_18_FILL">
<path fill="#D82C26" stroke="none" d="
M 85.95 -3.3
Q 85.7 -3.8 85.25 -4.05 84.8 -4.35 84.2 -4.35 83.6 -4.35 83.15 -4.05 82.6 -3.75 82.4 -3.25 82.1 -2.8 82.1 -2.15 82.1 -1.45 82.4 -0.95 82.6 -0.55 83.15 -0.15 83.7 0.15 84.25 0.15 85.25 0.15 85.95 -0.4
L 85.85 -0.85
Q 85.45 -0.55 85.15 -0.45 84.8 -0.3 84.3 -0.3 83.85 -0.3 83.45 -0.55 83.1 -0.75 82.85 -1.15 82.7 -1.4 82.6 -2.05
L 86.2 -2.05 86.2 -2.25
Q 86.2 -2.8 85.95 -3.3
M 84.2 -3.9
Q 84.9 -3.9 85.25 -3.5 85.7 -3.1 85.7 -2.4
L 82.65 -2.4
Q 82.65 -2.75 82.85 -3.1 83 -3.4 83.35 -3.7 83.7 -3.9 84.2 -3.9 Z"/>
</g>

<g id="BDM_728x90_psd_Asset_ManagedWiFi_Awareness_DM7_3_to_individual_customer_spending_habits__0_Layer0_0_MEMBER_19_FILL">
<path fill="#D82C26" stroke="none" d="
M 89.7 -4.25
L 89.25 -4.35
Q 88.85 -4.35 88.55 -4.05 88.25 -3.8 88 -3.3
L 87.95 -4.2 87.45 -4.2 87.5 0 88.05 0 88.05 -2.1
Q 88.05 -2.8 88.35 -3.35 88.65 -3.85 89.2 -3.85
L 89.6 -3.8 89.7 -4.25 Z"/>
</g>

<g id="BDM_728x90_psd_Asset_ManagedWiFi_Awareness_DM7_3_to_individual_customer_spending_habits__0_Layer0_0_MEMBER_20_FILL">
<path fill="#D82C26" stroke="none" d="
M 94.5 -4.2
L 93.75 -4.35
Q 93.4 -4.35 93.1 -4.2 92.75 -4.05 92.55 -3.8 92.35 -3.5 92.35 -3.2 92.35 -2.65 92.65 -2.45
L 93.55 -2
Q 94.3 -1.7 94.45 -1.6 94.7 -1.4 94.7 -1.1 94.7 -0.75 94.45 -0.5 94.2 -0.3 93.75 -0.3 92.9 -0.3 92.35 -0.8
L 92.3 -0.35
Q 92.5 -0.15 92.95 0
L 93.8 0.1 94.5 0
Q 94.85 -0.2 95 -0.45 95.2 -0.7 95.2 -1.1 95.2 -1.55 94.9 -1.85 94.65 -2.1 93.95 -2.35
L 93.1 -2.7
Q 92.85 -2.95 92.85 -3.2 92.85 -3.5 93.1 -3.75 93.4 -3.9 93.75 -3.9 94.2 -3.9 94.35 -3.8
L 94.85 -3.5 95.1 -3.9 94.5 -4.2 Z"/>
</g>

<g id="BDM_728x90_psd_Asset_ManagedWiFi_Awareness_DM7_3_to_individual_customer_spending_habits__0_Layer0_0_MEMBER_21_FILL">
<path fill="#D82C26" stroke="none" d="
M 100.55 -3.25
Q 100.35 -3.75 99.8 -4.05 99.35 -4.35 98.7 -4.35 98.15 -4.35 97.7 -4.05 97.2 -3.7 97 -3.3
L 96.95 -4.2 96.45 -4.2 96.45 2.15 97 2.15 97 -0.9
Q 97.2 -0.45 97.7 -0.15 98.1 0.1 98.7 0.1 99.35 0.1 99.8 -0.2 100.3 -0.4 100.55 -0.95 100.85 -1.45 100.85 -2.1 100.85 -2.7 100.55 -3.25
M 97.8 -3.65
Q 98.2 -3.9 98.65 -3.9 99.1 -3.9 99.5 -3.65 99.85 -3.45 100.1 -3 100.3 -2.4 100.3 -2.1 100.3 -1.8 100.1 -1.2 99.85 -0.75 99.5 -0.55 99.1 -0.3 98.65 -0.3 98.2 -0.3 97.8 -0.55 97.4 -0.85 97.2 -1.2 96.95 -1.7 96.95 -2.1 96.95 -2.5 97.2 -3 97.45 -3.45 97.8 -3.65 Z"/>
</g>

<g id="BDM_728x90_psd_Asset_ManagedWiFi_Awareness_DM7_3_to_individual_customer_spending_habits__0_Layer0_0_MEMBER_22_FILL">
<path fill="#D82C26" stroke="none" d="
M 105.05 -4.05
Q 104.6 -4.35 103.95 -4.35 103.45 -4.35 102.9 -4.05 102.45 -3.75 102.15 -3.25 101.9 -2.75 101.9 -2.15 101.9 -1.55 102.15 -0.95 102.45 -0.45 102.95 -0.15 103.4 0.15 104.05 0.15 105 0.15 105.7 -0.4
L 105.65 -0.85 104.95 -0.45
Q 104.6 -0.3 104.1 -0.3 103.7 -0.3 103.2 -0.55 102.8 -0.8 102.65 -1.15 102.4 -1.55 102.4 -2.05
L 105.95 -2.05 106 -2.25
Q 106 -2.8 105.75 -3.3 105.55 -3.7 105.05 -4.05
M 103.95 -3.9
Q 104.7 -3.9 105.05 -3.5 105.45 -3.1 105.45 -2.4
L 102.4 -2.4
Q 102.4 -2.6 102.6 -3.1 102.85 -3.5 103.15 -3.7 103.5 -3.9 103.95 -3.9 Z"/>
</g>

<g id="BDM_728x90_psd_Asset_ManagedWiFi_Awareness_DM7_3_to_individual_customer_spending_habits__0_Layer0_0_MEMBER_23_FILL">
<path fill="#D82C26" stroke="none" d="
M 110.5 -3.85
Q 110.1 -4.35 109.35 -4.35 108.85 -4.35 108.4 -4.05 108.05 -3.75 107.8 -3.3
L 107.75 -4.2 107.25 -4.2 107.3 0 107.8 0 107.8 -2.15
Q 107.8 -2.5 108 -3.1 108.25 -3.5 108.5 -3.7 109 -3.9 109.2 -3.9 109.9 -3.9 110.1 -3.45 110.35 -3.15 110.35 -2.45
L 110.35 0 110.9 0 110.9 -2.55
Q 110.9 -3.3 110.5 -3.85 Z"/>
</g>

<g id="BDM_728x90_psd_Asset_ManagedWiFi_Awareness_DM7_3_to_individual_customer_spending_habits__0_Layer0_0_MEMBER_24_FILL">
<path fill="#D82C26" stroke="none" d="
M 115.3 -4.05
Q 114.85 -4.35 114.3 -4.35 113.65 -4.35 113.2 -4.05 112.8 -3.8 112.45 -3.25 112.2 -2.65 112.2 -2.1 112.2 -1.55 112.45 -0.95 112.85 -0.4 113.2 -0.2 113.65 0.1 114.3 0.1 114.95 0.1 115.3 -0.15 115.8 -0.45 116 -0.9
L 116.05 -0.9 116.1 0 116.6 0 116.55 -6.9 116 -6.8 116 -3.3
Q 115.8 -3.8 115.3 -4.05
M 114.35 -3.9
Q 114.75 -3.9 115.25 -3.65 115.65 -3.4 115.8 -3 116.05 -2.5 116.05 -2.1 116.05 -1.7 115.8 -1.2 115.7 -0.9 115.25 -0.55 114.75 -0.3 114.35 -0.3 113.9 -0.3 113.5 -0.55 113.15 -0.75 112.9 -1.2 112.7 -1.8 112.7 -2.1 112.7 -2.4 112.9 -3 113.15 -3.45 113.5 -3.65 113.9 -3.9 114.35 -3.9 Z"/>
</g>

<g id="BDM_728x90_psd_Asset_ManagedWiFi_Awareness_DM7_3_to_individual_customer_spending_habits__0_Layer0_0_MEMBER_25_FILL">
<path fill="#D82C26" stroke="none" d="
M 118.7 -4.2
L 118.15 -4.2 118.15 0 118.7 0 118.7 -4.2
M 118.4 -5.5
L 118.65 -5.6 118.8 -5.9
Q 118.8 -6.05 118.65 -6.15 118.6 -6.25 118.4 -6.25 118.2 -6.25 118.15 -6.15 118.05 -6.1 118.05 -5.9 118.05 -5.7 118.15 -5.6
L 118.4 -5.5 Z"/>
</g>

<g id="BDM_728x90_psd_Asset_ManagedWiFi_Awareness_DM7_3_to_individual_customer_spending_habits__0_Layer0_0_MEMBER_26_FILL">
<path fill="#D82C26" stroke="none" d="
M 120.75 -4.2
L 120.25 -4.2 120.3 0 120.8 0 120.8 -2.15
Q 120.8 -2.5 121 -3.1 121.15 -3.4 121.5 -3.7 121.9 -3.9 122.2 -3.9 122.8 -3.9 123.1 -3.45 123.35 -3.05 123.35 -2.45
L 123.35 0 123.9 0 123.9 -2.55
Q 123.9 -3.3 123.5 -3.85 123.1 -4.35 122.3 -4.35 121.85 -4.35 121.4 -4.05 121.05 -3.75 120.8 -3.3
L 120.75 -4.2 Z"/>
</g>

<g id="BDM_728x90_psd_Asset_ManagedWiFi_Awareness_DM7_3_to_individual_customer_spending_habits__0_Layer0_0_MEMBER_27_FILL">
<path fill="#D82C26" stroke="none" d="
M 125.45 -1
Q 125.65 -0.5 126.2 -0.2 126.65 0.1 127.3 0.1 127.85 0.1 128.3 -0.2 128.8 -0.5 129 -0.95
L 129 -0.05
Q 129 0.75 128.6 1.3 128.15 1.75 127.25 1.75 126.8 1.75 126.35 1.6
L 125.55 1.2 125.45 1.7
Q 125.95 2 126.3 2.05 126.75 2.2 127.3 2.2 128.4 2.2 129 1.6 129.55 0.95 129.55 -0.05
L 129.55 -4.2 129.05 -4.2 129 -3.3
Q 128.8 -3.7 128.3 -4.05 127.8 -4.35 127.3 -4.35 126.65 -4.35 126.2 -4.05 125.7 -3.75 125.45 -3.25 125.15 -2.7 125.15 -2.1 125.15 -1.45 125.45 -1
M 125.9 -3
Q 126.15 -3.45 126.5 -3.65 126.9 -3.9 127.35 -3.9 127.8 -3.9 128.2 -3.65 128.6 -3.4 128.8 -3 129 -2.65 129 -2.1 129 -1.6 128.8 -1.25 128.6 -0.85 128.2 -0.6 127.8 -0.35 127.35 -0.35 126.9 -0.35 126.5 -0.6 126.1 -0.85 125.9 -1.25 125.7 -1.6 125.7 -2.1 125.7 -2.65 125.9 -3 Z"/>
</g>

<g id="BDM_728x90_psd_Asset_ManagedWiFi_Awareness_DM7_3_to_individual_customer_spending_habits__0_Layer0_0_MEMBER_28_FILL">
<path fill="#D82C26" stroke="none" d="
M 133.8 -6.85
L 133.25 -6.75 133.25 0 133.8 0 133.8 -2.05
Q 133.8 -2.6 133.95 -3.05 134.25 -3.55 134.45 -3.65 134.85 -3.9 135.2 -3.9 135.85 -3.9 136.05 -3.45 136.35 -3.05 136.35 -2.45
L 136.35 0 136.85 0 136.85 -2.55
Q 136.85 -3.25 136.5 -3.85 136.1 -4.35 135.3 -4.35 134.8 -4.35 134.4 -4.05 133.95 -3.75 133.8 -3.3
L 133.8 -6.85 Z"/>
</g>

<g id="BDM_728x90_psd_Asset_ManagedWiFi_Awareness_DM7_3_to_individual_customer_spending_habits__0_Layer0_0_MEMBER_29_FILL">
<path fill="#D82C26" stroke="none" d="
M 139.85 -3.9
Q 140.4 -3.9 140.7 -3.6 141.05 -3.35 141.05 -2.75
L 141.05 -2.5 140.5 -2.5
Q 138.1 -2.5 138.1 -1.15 138.1 -0.5 138.5 -0.2 138.9 0.1 139.45 0.1 140 0.1 140.4 -0.1 140.85 -0.4 141 -0.8
L 141.05 -0.8 141.05 -0.4 141.1 0 141.6 0 141.5 -0.9 141.5 -2.75
Q 141.5 -3.55 141.1 -3.95 140.6 -4.35 139.9 -4.35 139.5 -4.35 139.05 -4.2 138.55 -4 138.35 -3.8
L 138.5 -3.4
Q 138.7 -3.6 139.1 -3.75
L 139.85 -3.9
M 138.9 -0.5
Q 138.6 -0.7 138.6 -1.15 138.6 -2.15 140.6 -2.15
L 141.05 -2.15 141.05 -1.75
Q 141.05 -1.55 140.85 -1.05 140.65 -0.7 140.35 -0.5 140.1 -0.3 139.55 -0.3 139.1 -0.3 138.9 -0.5 Z"/>
</g>

<g id="BDM_728x90_psd_Asset_ManagedWiFi_Awareness_DM7_3_to_individual_customer_spending_habits__0_Layer0_0_MEMBER_30_FILL">
<path fill="#D82C26" stroke="none" d="
M 143.6 -6.9
L 143.1 -6.8 143.05 0 143.5 0 143.6 -0.9
Q 143.8 -0.45 144.3 -0.15 144.75 0.1 145.35 0.1 145.95 0.1 146.45 -0.2 146.9 -0.4 147.15 -0.95 147.45 -1.45 147.45 -2.1 147.45 -2.7 147.15 -3.25 146.95 -3.7 146.45 -4.05 145.95 -4.35 145.35 -4.35 144.8 -4.35 144.35 -4.05 143.85 -3.8 143.65 -3.3
L 143.6 -3.3 143.6 -6.9
M 145.25 -3.9
Q 145.75 -3.9 146.15 -3.65 146.55 -3.4 146.7 -3 146.9 -2.6 146.9 -2.1 146.9 -1.6 146.7 -1.2 146.6 -0.9 146.15 -0.55 145.75 -0.3 145.25 -0.3 144.8 -0.3 144.4 -0.55 144 -0.85 143.8 -1.2 143.6 -1.6 143.6 -2.1 143.6 -2.6 143.8 -3 144.05 -3.45 144.4 -3.65 144.8 -3.9 145.25 -3.9 Z"/>
</g>

<g id="BDM_728x90_psd_Asset_ManagedWiFi_Awareness_DM7_3_to_individual_customer_spending_habits__0_Layer0_0_MEMBER_31_FILL">
<path fill="#D82C26" stroke="none" d="
M 149.3 -4.2
L 148.75 -4.2 148.75 0 149.3 0 149.3 -4.2
M 149 -5.5
L 149.25 -5.6 149.4 -5.9
Q 149.4 -6.05 149.25 -6.15 149.2 -6.25 149 -6.25 148.8 -6.25 148.75 -6.15 148.65 -6.1 148.65 -5.9 148.65 -5.7 148.75 -5.6
L 149 -5.5 Z"/>
</g>

<g id="BDM_728x90_psd_Asset_ManagedWiFi_Awareness_DM7_3_to_individual_customer_spending_habits__0_Layer0_0_MEMBER_32_FILL">
<path fill="#D82C26" stroke="none" d="
M 150.3 -3.8
L 151.1 -3.8 151.1 -1
Q 151.1 -0.45 151.35 -0.2 151.6 0.1 152.05 0.1
L 152.55 0.05 152.95 -0.15 152.9 -0.55
Q 152.55 -0.35 152.2 -0.35 152 -0.35 151.75 -0.5 151.6 -0.7 151.6 -1.1
L 151.6 -3.8 152.7 -3.8 152.8 -4.2 151.6 -4.2 151.6 -5.4 151.05 -5.2 151.05 -4.2 150.4 -4.2 150.3 -3.8 Z"/>
</g>

<g id="BDM_728x90_psd_Asset_ManagedWiFi_Awareness_DM7_3_to_individual_customer_spending_habits__0_Layer0_0_MEMBER_33_FILL">
<path fill="#D82C26" stroke="none" d="
M 155.25 -4.35
Q 154.9 -4.35 154.6 -4.2 154.2 -4 154.1 -3.8 153.9 -3.6 153.9 -3.2 153.9 -2.65 154.2 -2.45 154.4 -2.25 155.05 -2 155.8 -1.75 155.95 -1.6 156.25 -1.35 156.25 -1.1 156.25 -0.7 155.95 -0.5 155.7 -0.3 155.3 -0.3 154.45 -0.3 153.9 -0.8
L 153.8 -0.35
Q 153.95 -0.2 154.45 0
L 155.3 0.1 156 0
Q 156.35 -0.15 156.55 -0.45 156.75 -0.85 156.75 -1.1 156.75 -1.55 156.4 -1.85 156.15 -2.1 155.45 -2.35
L 154.6 -2.7
Q 154.35 -2.95 154.35 -3.2 154.35 -3.5 154.65 -3.75 154.9 -3.9 155.3 -3.9 155.7 -3.9 155.9 -3.8
L 156.4 -3.5 156.6 -3.9 156 -4.2
Q 155.7 -4.35 155.25 -4.35 Z"/>
</g>

<g id="BDM_728x90_psd_Asset_ManagedWiFi_Awareness_DM7_3_to_individual_customer_spending_habits__0_Layer0_0_MEMBER_34_FILL">
<path fill="#D82C26" stroke="none" d="
M 158 -0.35
L 158.1 -0.05
Q 158.3 0.05 158.4 0.05
L 158.65 -0.05 158.8 -0.35 158.65 -0.65 158.4 -0.75 158.1 -0.65 158 -0.35 Z"/>
</g>
</defs>

<g transform="matrix( 1, 0, 0, 1, -197,-99) ">
<g transform="matrix( 1, 0, 0, 1, 196,113) ">
<g transform="matrix( 1, 0, 0, 1, 24,21) ">
<g transform="matrix( 2.6895904541015625, 0, 0, 2.672393798828125, 0.15,18.55) ">
<use xlink:href="#BDM_728x90_psd_Asset_ManagedWiFi_Awareness_DM7_3_to_individual_customer_spending_habits__0_Layer0_0_MEMBER_0_FILL"/>
</g>

<g transform="matrix( 2.6895904541015625, 0, 0, 2.672393798828125, 0.15,18.55) ">
<use xlink:href="#BDM_728x90_psd_Asset_ManagedWiFi_Awareness_DM7_3_to_individual_customer_spending_habits__0_Layer0_0_MEMBER_1_FILL"/>
</g>

<g transform="matrix( 2.6895904541015625, 0, 0, 2.672393798828125, 0.15,18.55) ">
<use xlink:href="#BDM_728x90_psd_Asset_ManagedWiFi_Awareness_DM7_3_to_individual_customer_spending_habits__0_Layer0_0_MEMBER_2_FILL"/>
</g>

<g transform="matrix( 2.6895904541015625, 0, 0, 2.672393798828125, 0.15,18.55) ">
<use xlink:href="#BDM_728x90_psd_Asset_ManagedWiFi_Awareness_DM7_3_to_individual_customer_spending_habits__0_Layer0_0_MEMBER_3_FILL"/>
</g>

<g transform="matrix( 2.6895904541015625, 0, 0, 2.672393798828125, 0.15,18.55) ">
<use xlink:href="#BDM_728x90_psd_Asset_ManagedWiFi_Awareness_DM7_3_to_individual_customer_spending_habits__0_Layer0_0_MEMBER_4_FILL"/>
</g>

<g transform="matrix( 2.6895904541015625, 0, 0, 2.672393798828125, 0.15,18.55) ">
<use xlink:href="#BDM_728x90_psd_Asset_ManagedWiFi_Awareness_DM7_3_to_individual_customer_spending_habits__0_Layer0_0_MEMBER_5_FILL"/>
</g>

<g transform="matrix( 2.6895904541015625, 0, 0, 2.672393798828125, 0.15,18.55) ">
<use xlink:href="#BDM_728x90_psd_Asset_ManagedWiFi_Awareness_DM7_3_to_individual_customer_spending_habits__0_Layer0_0_MEMBER_6_FILL"/>
</g>

<g transform="matrix( 2.6895904541015625, 0, 0, 2.672393798828125, 0.15,18.55) ">
<use xlink:href="#BDM_728x90_psd_Asset_ManagedWiFi_Awareness_DM7_3_to_individual_customer_spending_habits__0_Layer0_0_MEMBER_7_FILL"/>
</g>

<g transform="matrix( 2.6895904541015625, 0, 0, 2.672393798828125, 0.15,18.55) ">
<use xlink:href="#BDM_728x90_psd_Asset_ManagedWiFi_Awareness_DM7_3_to_individual_customer_spending_habits__0_Layer0_0_MEMBER_8_FILL"/>
</g>

<g transform="matrix( 2.6895904541015625, 0, 0, 2.672393798828125, 0.15,18.55) ">
<use xlink:href="#BDM_728x90_psd_Asset_ManagedWiFi_Awareness_DM7_3_to_individual_customer_spending_habits__0_Layer0_0_MEMBER_9_FILL"/>
</g>

<g transform="matrix( 2.6895904541015625, 0, 0, 2.672393798828125, 0.15,18.55) ">
<use xlink:href="#BDM_728x90_psd_Asset_ManagedWiFi_Awareness_DM7_3_to_individual_customer_spending_habits__0_Layer0_0_MEMBER_10_FILL"/>
</g>

<g transform="matrix( 2.6895904541015625, 0, 0, 2.672393798828125, 0.15,18.55) ">
<use xlink:href="#BDM_728x90_psd_Asset_ManagedWiFi_Awareness_DM7_3_to_individual_customer_spending_habits__0_Layer0_0_MEMBER_11_FILL"/>
</g>

<g transform="matrix( 2.6895904541015625, 0, 0, 2.672393798828125, 0.15,18.55) ">
<use xlink:href="#BDM_728x90_psd_Asset_ManagedWiFi_Awareness_DM7_3_to_individual_customer_spending_habits__0_Layer0_0_MEMBER_12_FILL"/>
</g>

<g transform="matrix( 2.6895904541015625, 0, 0, 2.672393798828125, 0.15,18.55) ">
<use xlink:href="#BDM_728x90_psd_Asset_ManagedWiFi_Awareness_DM7_3_to_individual_customer_spending_habits__0_Layer0_0_MEMBER_13_FILL"/>
</g>

<g transform="matrix( 2.6895904541015625, 0, 0, 2.672393798828125, 0.15,18.55) ">
<use xlink:href="#BDM_728x90_psd_Asset_ManagedWiFi_Awareness_DM7_3_to_individual_customer_spending_habits__0_Layer0_0_MEMBER_14_FILL"/>
</g>

<g transform="matrix( 2.6895904541015625, 0, 0, 2.672393798828125, 0.15,18.55) ">
<use xlink:href="#BDM_728x90_psd_Asset_ManagedWiFi_Awareness_DM7_3_to_individual_customer_spending_habits__0_Layer0_0_MEMBER_15_FILL"/>
</g>

<g transform="matrix( 2.6895904541015625, 0, 0, 2.672393798828125, 0.15,18.55) ">
<use xlink:href="#BDM_728x90_psd_Asset_ManagedWiFi_Awareness_DM7_3_to_individual_customer_spending_habits__0_Layer0_0_MEMBER_16_FILL"/>
</g>

<g transform="matrix( 2.6895904541015625, 0, 0, 2.672393798828125, 0.15,18.55) ">
<use xlink:href="#BDM_728x90_psd_Asset_ManagedWiFi_Awareness_DM7_3_to_individual_customer_spending_habits__0_Layer0_0_MEMBER_17_FILL"/>
</g>

<g transform="matrix( 2.6895904541015625, 0, 0, 2.672393798828125, 0.15,18.55) ">
<use xlink:href="#BDM_728x90_psd_Asset_ManagedWiFi_Awareness_DM7_3_to_individual_customer_spending_habits__0_Layer0_0_MEMBER_18_FILL"/>
</g>

<g transform="matrix( 2.6895904541015625, 0, 0, 2.672393798828125, 0.15,18.55) ">
<use xlink:href="#BDM_728x90_psd_Asset_ManagedWiFi_Awareness_DM7_3_to_individual_customer_spending_habits__0_Layer0_0_MEMBER_19_FILL"/>
</g>

<g transform="matrix( 2.6895904541015625, 0, 0, 2.672393798828125, 0.15,18.55) ">
<use xlink:href="#BDM_728x90_psd_Asset_ManagedWiFi_Awareness_DM7_3_to_individual_customer_spending_habits__0_Layer0_0_MEMBER_20_FILL"/>
</g>

<g transform="matrix( 2.6895904541015625, 0, 0, 2.672393798828125, 0.15,18.55) ">
<use xlink:href="#BDM_728x90_psd_Asset_ManagedWiFi_Awareness_DM7_3_to_individual_customer_spending_habits__0_Layer0_0_MEMBER_21_FILL"/>
</g>

<g transform="matrix( 2.6895904541015625, 0, 0, 2.672393798828125, 0.15,18.55) ">
<use xlink:href="#BDM_728x90_psd_Asset_ManagedWiFi_Awareness_DM7_3_to_individual_customer_spending_habits__0_Layer0_0_MEMBER_22_FILL"/>
</g>

<g transform="matrix( 2.6895904541015625, 0, 0, 2.672393798828125, 0.15,18.55) ">
<use xlink:href="#BDM_728x90_psd_Asset_ManagedWiFi_Awareness_DM7_3_to_individual_customer_spending_habits__0_Layer0_0_MEMBER_23_FILL"/>
</g>

<g transform="matrix( 2.6895904541015625, 0, 0, 2.672393798828125, 0.15,18.55) ">
<use xlink:href="#BDM_728x90_psd_Asset_ManagedWiFi_Awareness_DM7_3_to_individual_customer_spending_habits__0_Layer0_0_MEMBER_24_FILL"/>
</g>

<g transform="matrix( 2.6895904541015625, 0, 0, 2.672393798828125, 0.15,18.55) ">
<use xlink:href="#BDM_728x90_psd_Asset_ManagedWiFi_Awareness_DM7_3_to_individual_customer_spending_habits__0_Layer0_0_MEMBER_25_FILL"/>
</g>

<g transform="matrix( 2.6895904541015625, 0, 0, 2.672393798828125, 0.15,18.55) ">
<use xlink:href="#BDM_728x90_psd_Asset_ManagedWiFi_Awareness_DM7_3_to_individual_customer_spending_habits__0_Layer0_0_MEMBER_26_FILL"/>
</g>

<g transform="matrix( 2.6895904541015625, 0, 0, 2.672393798828125, 0.15,18.55) ">
<use xlink:href="#BDM_728x90_psd_Asset_ManagedWiFi_Awareness_DM7_3_to_individual_customer_spending_habits__0_Layer0_0_MEMBER_27_FILL"/>
</g>

<g transform="matrix( 2.6895904541015625, 0, 0, 2.672393798828125, 0.15,18.55) ">
<use xlink:href="#BDM_728x90_psd_Asset_ManagedWiFi_Awareness_DM7_3_to_individual_customer_spending_habits__0_Layer0_0_MEMBER_28_FILL"/>
</g>

<g transform="matrix( 2.6895904541015625, 0, 0, 2.672393798828125, 0.15,18.55) ">
<use xlink:href="#BDM_728x90_psd_Asset_ManagedWiFi_Awareness_DM7_3_to_individual_customer_spending_habits__0_Layer0_0_MEMBER_29_FILL"/>
</g>

<g transform="matrix( 2.6895904541015625, 0, 0, 2.672393798828125, 0.15,18.55) ">
<use xlink:href="#BDM_728x90_psd_Asset_ManagedWiFi_Awareness_DM7_3_to_individual_customer_spending_habits__0_Layer0_0_MEMBER_30_FILL"/>
</g>

<g transform="matrix( 2.6895904541015625, 0, 0, 2.672393798828125, 0.15,18.55) ">
<use xlink:href="#BDM_728x90_psd_Asset_ManagedWiFi_Awareness_DM7_3_to_individual_customer_spending_habits__0_Layer0_0_MEMBER_31_FILL"/>
</g>

<g transform="matrix( 2.6895904541015625, 0, 0, 2.672393798828125, 0.15,18.55) ">
<use xlink:href="#BDM_728x90_psd_Asset_ManagedWiFi_Awareness_DM7_3_to_individual_customer_spending_habits__0_Layer0_0_MEMBER_32_FILL"/>
</g>

<g transform="matrix( 2.6895904541015625, 0, 0, 2.672393798828125, 0.15,18.55) ">
<use xlink:href="#BDM_728x90_psd_Asset_ManagedWiFi_Awareness_DM7_3_to_individual_customer_spending_habits__0_Layer0_0_MEMBER_33_FILL"/>
</g>

<g transform="matrix( 2.6895904541015625, 0, 0, 2.672393798828125, 0.15,18.55) ">
<use xlink:href="#BDM_728x90_psd_Asset_ManagedWiFi_Awareness_DM7_3_to_individual_customer_spending_habits__0_Layer0_0_MEMBER_34_FILL"/>
</g>
</g>
</g>
</g>
</svg>
