
<svg xmlns="http://www.w3.org/2000/svg" version="1.1" xmlns:xlink="http://www.w3.org/1999/xlink" preserveAspectRatio="none" x="0px" y="0px" width="200px" height="200px" viewBox="0 0 200 200">
<defs>
<g id="BDM_200x200_psd_Asset_1_ManagedWiFi_Awareness_DM8_1_Looking_to__increase__brand_loyalty__0_Layer0_0_MEMBER_0_FILL">
<path fill="#D82C26" stroke="none" d="
M 1.15 -5.25
L 0.7 -5.25 0.7 0 3.45 0 3.55 -0.4 1.15 -0.4 1.15 -5.25 Z"/>
</g>

<g id="BDM_200x200_psd_Asset_1_ManagedWiFi_Awareness_DM8_1_Looking_to__increase__brand_loyalty__0_Layer0_0_MEMBER_1_FILL">
<path fill="#D82C26" stroke="none" d="
M 4.2 -0.8
Q 4.4 -0.35 4.85 -0.15 5.35 0.1 5.8 0.1 6.25 0.1 6.75 -0.15 7.2 -0.35 7.4 -0.8 7.65 -1.2 7.65 -1.75 7.65 -2.2 7.4 -2.7 7.1 -3.15 6.75 -3.35 6.25 -3.6 5.8 -3.6 5.35 -3.6 4.85 -3.35 4.5 -3.15 4.2 -2.7 3.95 -2.2 3.95 -1.75 3.95 -1.2 4.2 -0.8
M 4.55 -2.5
Q 4.7 -2.85 5.05 -3 5.3 -3.2 5.8 -3.2 6.3 -3.2 6.55 -3 6.75 -2.9 7.05 -2.5
L 7.2 -1.75 7.05 -1
Q 6.9 -0.7 6.55 -0.45 6.15 -0.25 5.8 -0.25 5.45 -0.25 5.05 -0.45 4.7 -0.7 4.55 -1
L 4.4 -1.75 4.55 -2.5 Z"/>
</g>

<g id="BDM_200x200_psd_Asset_1_ManagedWiFi_Awareness_DM8_1_Looking_to__increase__brand_loyalty__0_Layer0_0_MEMBER_2_FILL">
<path fill="#D82C26" stroke="none" d="
M 8.6 -0.8
Q 8.8 -0.35 9.25 -0.15 9.75 0.1 10.2 0.1 10.65 0.1 11.15 -0.15 11.6 -0.35 11.8 -0.8 12.05 -1.2 12.05 -1.75 12.05 -2.2 11.8 -2.7 11.5 -3.15 11.15 -3.35 10.65 -3.6 10.2 -3.6 9.75 -3.6 9.25 -3.35 8.9 -3.15 8.6 -2.7 8.35 -2.2 8.35 -1.75 8.35 -1.2 8.6 -0.8
M 8.95 -2.5
Q 9.1 -2.85 9.45 -3 9.7 -3.2 10.2 -3.2 10.6 -3.2 10.95 -3 11.15 -2.9 11.45 -2.5
L 11.6 -1.75 11.45 -1
Q 11.3 -0.7 10.95 -0.45 10.55 -0.25 10.2 -0.25 9.85 -0.25 9.45 -0.45 9.1 -0.7 8.95 -1
L 8.8 -1.75 8.95 -2.5 Z"/>
</g>

<g id="BDM_200x200_psd_Asset_1_ManagedWiFi_Awareness_DM8_1_Looking_to__increase__brand_loyalty__0_Layer0_0_MEMBER_3_FILL">
<path fill="#D82C26" stroke="none" d="
M 13.4 -5.65
L 13 -5.6 13 0 13.4 0 13.4 -1.8 13.45 -1.8 15.2 0 15.8 0 13.9 -1.9 15.6 -3.45 15.05 -3.45 13.45 -1.9 13.4 -1.9 13.4 -5.65 Z"/>
</g>

<g id="BDM_200x200_psd_Asset_1_ManagedWiFi_Awareness_DM8_1_Looking_to__increase__brand_loyalty__0_Layer0_0_MEMBER_4_FILL">
<path fill="#D82C26" stroke="none" d="
M 16.9 -3.45
L 16.5 -3.45 16.5 0 16.9 0 16.9 -3.45
M 16.9 -4.65
L 17 -4.85 16.9 -5.1 16.7 -5.15 16.5 -5.1
Q 16.4 -5 16.4 -4.85 16.4 -4.7 16.5 -4.65
L 16.7 -4.55 16.9 -4.65 Z"/>
</g>

<g id="BDM_200x200_psd_Asset_1_ManagedWiFi_Awareness_DM8_1_Looking_to__increase__brand_loyalty__0_Layer0_0_MEMBER_5_FILL">
<path fill="#D82C26" stroke="none" d="
M 18.45 -3.45
L 18.05 -3.45 18.1 0 18.5 0 18.5 -1.75
Q 18.5 -2.25 18.65 -2.55 18.85 -2.9 19.1 -3.05 19.35 -3.2 19.65 -3.2 20.2 -3.2 20.4 -2.85 20.6 -2.6 20.6 -2
L 20.6 0 21.05 0 21.05 -2.1
Q 21.05 -2.75 20.75 -3.15 20.5 -3.55 19.75 -3.55 19.35 -3.55 19 -3.35 18.65 -3.15 18.5 -2.7
L 18.45 -3.45 Z"/>
</g>

<g id="BDM_200x200_psd_Asset_1_ManagedWiFi_Awareness_DM8_1_Looking_to__increase__brand_loyalty__0_Layer0_0_MEMBER_6_FILL">
<path fill="#D82C26" stroke="none" d="
M 23.7 -3.55
Q 23.15 -3.55 22.8 -3.35 22.35 -3.05 22.15 -2.65 21.95 -2.3 21.95 -1.75 21.95 -1.2 22.15 -0.8 22.35 -0.45 22.8 -0.15 23.15 0.05 23.7 0.05 24.15 0.05 24.5 -0.15 24.9 -0.4 25.1 -0.8
L 25.1 -0.05
Q 25.1 0.7 24.75 1.05 24.45 1.45 23.65 1.45
L 22.9 1.35 22.25 1 22.15 1.4
Q 22.45 1.6 22.85 1.7 23.15 1.8 23.7 1.8 24.65 1.8 25.1 1.3 25.55 0.8 25.55 -0.05
L 25.55 -3.45 25.15 -3.45 25.1 -2.7
Q 24.9 -3.1 24.5 -3.35 24.15 -3.55 23.7 -3.55
M 22.4 -1.75
L 22.55 -2.5
Q 22.75 -2.85 23.05 -3 23.3 -3.2 23.75 -3.2 24.2 -3.2 24.45 -3 24.8 -2.85 24.95 -2.5 25.15 -2 25.15 -1.75 25.15 -1.5 24.95 -1 24.8 -0.65 24.45 -0.5 24.2 -0.3 23.75 -0.3 23.3 -0.3 23.05 -0.5 22.75 -0.6 22.55 -1
L 22.4 -1.75 Z"/>
</g>

<g id="BDM_200x200_psd_Asset_1_ManagedWiFi_Awareness_DM8_1_Looking_to__increase__brand_loyalty__0_Layer0_0_MEMBER_7_FILL">
<path fill="#D82C26" stroke="none" d="
M 28.2 -4.3
L 28.2 -3.45 27.65 -3.45 27.55 -3.15 28.2 -3.15 28.2 -0.85
Q 28.2 -0.4 28.45 -0.15 28.65 0.05 29.05 0.05
L 29.45 0 29.75 -0.1 29.7 -0.45 29.15 -0.3
Q 28.95 -0.3 28.8 -0.45 28.65 -0.6 28.65 -0.9
L 28.65 -3.15 29.55 -3.15 29.65 -3.45 28.65 -3.45 28.65 -4.45 28.2 -4.3 Z"/>
</g>

<g id="BDM_200x200_psd_Asset_1_ManagedWiFi_Awareness_DM8_1_Looking_to__increase__brand_loyalty__0_Layer0_0_MEMBER_8_FILL">
<path fill="#D82C26" stroke="none" d="
M 30.1 -1.75
Q 30.1 -1.15 30.3 -0.8 30.6 -0.35 31 -0.15 31.4 0.1 31.95 0.1 32.4 0.1 32.9 -0.15 33.35 -0.45 33.55 -0.8 33.8 -1.2 33.8 -1.75 33.8 -2.2 33.55 -2.7 33.3 -3.1 32.9 -3.35 32.4 -3.6 31.95 -3.6 31.4 -3.6 31 -3.35 30.7 -3.2 30.3 -2.7 30.1 -2.3 30.1 -1.75
M 32.7 -0.45
Q 32.2 -0.25 31.95 -0.25 31.6 -0.25 31.2 -0.45 30.9 -0.65 30.7 -1 30.5 -1.5 30.5 -1.75 30.5 -2 30.7 -2.5 30.9 -2.85 31.2 -3 31.45 -3.2 31.95 -3.2 32.4 -3.2 32.65 -3 32.95 -2.85 33.15 -2.5 33.35 -2.15 33.35 -1.75 33.35 -1.35 33.15 -1 33 -0.65 32.7 -0.45 Z"/>
</g>

<g id="BDM_200x200_psd_Asset_1_ManagedWiFi_Awareness_DM8_1_Looking_to__increase__brand_loyalty__0_Layer0_0_MEMBER_9_FILL">
<path fill="#D82C26" stroke="none" d="
M 1.15 5.35
L 0.7 5.35 0.7 8.85 1.15 8.85 1.15 5.35
M 0.9 4.3
L 1.1 4.2
Q 1.2 4.15 1.2 3.95 1.2 3.8 1.1 3.75
L 0.9 3.65 0.7 3.75
Q 0.6 3.8 0.6 3.95 0.6 4.15 0.7 4.2
L 0.9 4.3 Z"/>
</g>

<g id="BDM_200x200_psd_Asset_1_ManagedWiFi_Awareness_DM8_1_Looking_to__increase__brand_loyalty__0_Layer0_0_MEMBER_10_FILL">
<path fill="#D82C26" stroke="none" d="
M 2.65 5.35
L 2.25 5.35 2.3 8.85 2.75 8.85 2.75 7.05
Q 2.75 6.6 2.9 6.3 3.05 5.95 3.3 5.8 3.55 5.6 3.9 5.6 4.35 5.6 4.6 5.95 4.85 6.35 4.85 6.8
L 4.85 8.85 5.25 8.85 5.25 6.7
Q 5.25 6.1 4.95 5.65 4.65 5.25 3.95 5.25 3.6 5.25 3.2 5.5 2.85 5.8 2.7 6.1
L 2.65 5.35 Z"/>
</g>

<g id="BDM_200x200_psd_Asset_1_ManagedWiFi_Awareness_DM8_1_Looking_to__increase__brand_loyalty__0_Layer0_0_MEMBER_11_FILL">
<path fill="#D82C26" stroke="none" d="
M 7.05 5.5
Q 6.6 5.7 6.4 6.15 6.15 6.55 6.15 7.1 6.15 7.55 6.4 8.05 6.7 8.5 7.05 8.7 7.45 8.95 7.95 8.95 8.35 8.95 8.65 8.8 8.9 8.75 9.15 8.5
L 9.1 8.15
Q 8.9 8.35 8.6 8.45
L 8 8.55
Q 7.6 8.55 7.25 8.35 6.9 8.1 6.8 7.8 6.6 7.55 6.6 7.1 6.6 6.7 6.8 6.35 6.95 6 7.25 5.8 7.65 5.6 8 5.6
L 8.55 5.7 9 6 9.15 5.65 8.65 5.35 8 5.25
Q 7.35 5.25 7.05 5.5 Z"/>
</g>

<g id="BDM_200x200_psd_Asset_1_ManagedWiFi_Awareness_DM8_1_Looking_to__increase__brand_loyalty__0_Layer0_0_MEMBER_12_FILL">
<path fill="#D82C26" stroke="none" d="
M 10.6 6.05
Q 10.9 5.65 11.35 5.65
L 11.65 5.7 11.75 5.3 11.35 5.25
Q 11.1 5.25 10.75 5.5 10.5 5.65 10.35 6.1
L 10.3 5.35 9.85 5.35 9.9 8.85 10.35 8.85 10.35 7.1
Q 10.35 6.55 10.6 6.05 Z"/>
</g>

<g id="BDM_200x200_psd_Asset_1_ManagedWiFi_Awareness_DM8_1_Looking_to__increase__brand_loyalty__0_Layer0_0_MEMBER_13_FILL">
<path fill="#D82C26" stroke="none" d="
M 12.8 5.5
Q 12.4 5.75 12.2 6.15 11.95 6.55 11.95 7.05 11.95 7.55 12.2 8.05 12.5 8.5 12.85 8.7 13.25 8.95 13.75 8.95 14.55 8.95 15.15 8.5
L 15.05 8.1 14.5 8.45
Q 14.25 8.55 13.8 8.55 13.35 8.55 13.05 8.4 12.75 8.15 12.55 7.85 12.4 7.55 12.4 7.15
L 15.35 7.15 15.35 6.95
Q 15.35 6.6 15.15 6.1 14.9 5.7 14.6 5.45 14.25 5.25 13.7 5.25 13.1 5.25 12.8 5.5
M 13.7 5.6
Q 14.25 5.6 14.55 5.95 14.9 6.25 14.9 6.85
L 12.4 6.85
Q 12.4 6.55 12.55 6.25 12.8 5.9 13 5.8 13.25 5.6 13.7 5.6 Z"/>
</g>

<g id="BDM_200x200_psd_Asset_1_ManagedWiFi_Awareness_DM8_1_Looking_to__increase__brand_loyalty__0_Layer0_0_MEMBER_14_FILL">
<path fill="#D82C26" stroke="none" d="
M 17.4 5.6
Q 17.9 5.6 18.1 5.85 18.35 6.05 18.35 6.55
L 18.35 6.75 17.95 6.75
Q 15.95 6.75 15.95 7.9 15.95 8.45 16.3 8.65 16.55 8.9 17.05 8.9 17.5 8.9 17.85 8.75 18.2 8.55 18.35 8.15
L 18.4 8.15 18.4 8.5 18.45 8.85 18.85 8.85 18.8 6.55
Q 18.8 5.95 18.45 5.6 18.1 5.25 17.45 5.25
L 16.75 5.35
Q 16.35 5.5 16.15 5.7
L 16.3 6 16.8 5.7 17.4 5.6
M 18.35 7.05
L 18.35 7.4 18.25 7.95
Q 18.1 8.25 17.8 8.4 17.6 8.6 17.15 8.6 16.8 8.6 16.6 8.4 16.4 8.25 16.4 7.9 16.4 7.05 18 7.05
L 18.35 7.05 Z"/>
</g>

<g id="BDM_200x200_psd_Asset_1_ManagedWiFi_Awareness_DM8_1_Looking_to__increase__brand_loyalty__0_Layer0_0_MEMBER_15_FILL">
<path fill="#D82C26" stroke="none" d="
M 20.85 5.25
L 20.3 5.35
Q 20.05 5.4 19.85 5.7 19.7 5.85 19.7 6.2 19.7 6.6 19.95 6.8 20.05 6.9 20.65 7.2
L 21.4 7.5
Q 21.65 7.65 21.65 7.95 21.65 8.25 21.4 8.4 21.1 8.6 20.85 8.6 20.15 8.6 19.7 8.15
L 19.6 8.55 20.15 8.8
Q 20.4 8.9 20.85 8.9 21.25 8.9 21.45 8.8 21.6 8.75 21.9 8.45 22.05 8.25 22.05 7.9 22.05 7.55 21.8 7.3 21.45 7 21 6.9 20.45 6.75 20.3 6.6 20.1 6.45 20.1 6.2 20.1 5.9 20.3 5.75 20.55 5.6 20.85 5.6
L 21.35 5.7 21.75 5.95 21.95 5.6 21.45 5.35 20.85 5.25 Z"/>
</g>

<g id="BDM_200x200_psd_Asset_1_ManagedWiFi_Awareness_DM8_1_Looking_to__increase__brand_loyalty__0_Layer0_0_MEMBER_16_FILL">
<path fill="#D82C26" stroke="none" d="
M 23.55 5.5
Q 23.1 5.7 22.9 6.15 22.7 6.5 22.7 7.05 22.7 7.65 22.9 8.05 23.15 8.45 23.55 8.7 23.95 8.95 24.45 8.95 25.25 8.95 25.85 8.5
L 25.8 8.1
Q 25.6 8.3 25.2 8.45 25 8.55 24.5 8.55 24.1 8.55 23.8 8.4 23.4 8.1 23.3 7.85 23.1 7.45 23.1 7.15
L 26.05 7.15 26.05 6.95
Q 26.05 6.45 25.85 6.1 25.75 5.8 25.3 5.45 24.95 5.25 24.4 5.25 23.85 5.25 23.55 5.5
M 24.4 5.6
Q 24.95 5.6 25.3 5.95 25.65 6.3 25.65 6.85
L 23.1 6.85 23.3 6.25
Q 23.55 5.9 23.75 5.8 23.95 5.6 24.4 5.6 Z"/>
</g>

<g id="BDM_200x200_psd_Asset_1_ManagedWiFi_Awareness_DM8_1_Looking_to__increase__brand_loyalty__0_Layer0_0_MEMBER_17_FILL">
<path fill="#D82C26" stroke="none" d="
M 1.15 11.95
L 0.7 12.05 0.65 17.65 1.05 17.65 1.1 16.9 1.15 16.9
Q 1.3 17.25 1.7 17.5 2.1 17.75 2.55 17.75 3.05 17.75 3.45 17.5 3.85 17.25 4.05 16.85 4.3 16.35 4.3 15.9 4.3 15.4 4.05 15 3.85 14.65 3.45 14.3 3.1 14.1 2.55 14.1 2.1 14.1 1.75 14.3 1.35 14.55 1.15 14.95
L 1.15 11.95
M 3.2 14.65
Q 3.55 14.85 3.7 15.2 3.85 15.5 3.85 15.9 3.85 16.35 3.7 16.65 3.55 16.95 3.2 17.2 2.8 17.4 2.5 17.4 2.2 17.4 1.8 17.2 1.5 17 1.3 16.65 1.1 16.4 1.1 15.9 1.1 15.45 1.3 15.2 1.45 14.8 1.8 14.65 2.05 14.45 2.5 14.45 2.95 14.45 3.2 14.65 Z"/>
</g>

<g id="BDM_200x200_psd_Asset_1_ManagedWiFi_Awareness_DM8_1_Looking_to__increase__brand_loyalty__0_Layer0_0_MEMBER_18_FILL">
<path fill="#D82C26" stroke="none" d="
M 6.05 14.3
Q 5.8 14.6 5.65 14.95
L 5.6 14.2 5.2 14.2 5.2 17.65 5.65 17.65 5.65 15.9
Q 5.65 15.3 5.9 14.9 6.2 14.45 6.65 14.45
L 6.95 14.5 7.05 14.15 6.65 14.1
Q 6.3 14.1 6.05 14.3 Z"/>
</g>

<g id="BDM_200x200_psd_Asset_1_ManagedWiFi_Awareness_DM8_1_Looking_to__increase__brand_loyalty__0_Layer0_0_MEMBER_19_FILL">
<path fill="#D82C26" stroke="none" d="
M 9.55 14.65
Q 9.8 14.85 9.8 15.35
L 9.8 15.55 9.4 15.55
Q 7.4 15.55 7.4 16.7 7.4 17.2 7.75 17.5 8.1 17.75 8.5 17.75 8.95 17.75 9.3 17.55 9.65 17.35 9.8 17
L 9.85 17 9.85 17.35 9.9 17.65 10.3 17.65 10.25 15.4
Q 10.25 14.85 9.9 14.4 9.45 14.05 8.9 14.05 8.5 14.05 8.2 14.2 7.85 14.3 7.6 14.5
L 7.75 14.85 8.25 14.55
Q 8.55 14.4 8.85 14.4 9.3 14.4 9.55 14.65
M 9.8 16.2
Q 9.8 16.6 9.7 16.8
L 9.25 17.25
Q 9.05 17.4 8.6 17.4 8.3 17.4 8.05 17.25 7.85 17.1 7.85 16.7 7.85 15.85 9.45 15.85
L 9.8 15.85 9.8 16.2 Z"/>
</g>

<g id="BDM_200x200_psd_Asset_1_ManagedWiFi_Awareness_DM8_1_Looking_to__increase__brand_loyalty__0_Layer0_0_MEMBER_20_FILL">
<path fill="#D82C26" stroke="none" d="
M 14 14.5
Q 13.75 14.1 13.05 14.1 12.55 14.1 12.3 14.3 11.95 14.5 11.8 14.95
L 11.75 14.95 11.75 14.2 11.35 14.2 11.35 17.65 11.8 17.65 11.8 15.9
Q 11.8 15.5 11.95 15.1
L 12.35 14.6
Q 12.65 14.45 12.95 14.45 13.5 14.45 13.7 14.8 13.9 15.2 13.9 15.65
L 13.9 17.65 14.35 17.65 14.35 15.55
Q 14.35 14.85 14 14.5 Z"/>
</g>

<g id="BDM_200x200_psd_Asset_1_ManagedWiFi_Awareness_DM8_1_Looking_to__increase__brand_loyalty__0_Layer0_0_MEMBER_21_FILL">
<path fill="#D82C26" stroke="none" d="
M 18.85 11.95
L 18.4 12.05 18.4 14.95
Q 18.2 14.55 17.8 14.3 17.45 14.1 17 14.1 16.45 14.1 16.05 14.3 15.65 14.65 15.45 15 15.25 15.35 15.25 15.9 15.25 16.45 15.45 16.85 15.65 17.25 16.05 17.5 16.55 17.75 17 17.75 17.3 17.75 17.8 17.55 18.15 17.35 18.4 16.9
L 18.45 17.65 18.85 17.65 18.85 11.95
M 17.75 14.65
Q 18 14.75 18.25 15.2 18.4 15.5 18.4 15.9 18.4 16.35 18.25 16.65
L 17.75 17.2
Q 17.35 17.4 17.05 17.4 16.7 17.4 16.3 17.2 15.95 16.95 15.85 16.65 15.65 16.25 15.65 15.9 15.65 15.6 15.85 15.2 16 14.8 16.3 14.65 16.55 14.45 17.05 14.45 17.5 14.45 17.75 14.65 Z"/>
</g>

<g id="BDM_200x200_psd_Asset_1_ManagedWiFi_Awareness_DM8_1_Looking_to__increase__brand_loyalty__0_Layer0_0_MEMBER_22_FILL">
<path fill="#D82C26" stroke="none" d="
M 21.6 17.45
L 22.05 17.75 22.25 17.35
Q 22 17.25 22 17.15
L 21.9 16.8 21.9 12 21.45 12.1 21.45 16.9
Q 21.45 17.25 21.6 17.45 Z"/>
</g>

<g id="BDM_200x200_psd_Asset_1_ManagedWiFi_Awareness_DM8_1_Looking_to__increase__brand_loyalty__0_Layer0_0_MEMBER_23_FILL">
<path fill="#D82C26" stroke="none" d="
M 25.65 17.5
Q 26.1 17.2 26.3 16.85 26.55 16.45 26.55 15.9 26.55 15.45 26.3 14.95 26.05 14.55 25.65 14.3 25.15 14.05 24.7 14.05 24.15 14.05 23.75 14.3 23.4 14.5 23.1 14.95 22.85 15.35 22.85 15.9 22.85 16.55 23.1 16.85 23.3 17.3 23.75 17.5 24.05 17.75 24.7 17.75 25.3 17.75 25.65 17.5
M 25.95 16.65
L 25.45 17.2
Q 25.05 17.4 24.7 17.4 24.35 17.4 23.95 17.2 23.6 16.95 23.45 16.65 23.3 16.3 23.3 15.9
L 23.45 15.15
Q 23.6 14.8 23.95 14.65 24.2 14.45 24.7 14.45 25.1 14.45 25.45 14.65 25.65 14.75 25.95 15.15
L 26.1 15.9
Q 26.1 16.3 25.95 16.65 Z"/>
</g>

<g id="BDM_200x200_psd_Asset_1_ManagedWiFi_Awareness_DM8_1_Looking_to__increase__brand_loyalty__0_Layer0_0_MEMBER_24_FILL">
<path fill="#D82C26" stroke="none" d="
M 28.35 17.7
L 28.05 18.4
Q 27.9 18.75 27.7 18.9 27.5 19.05 27.1 19.05
L 27.2 19.45
Q 27.8 19.35 28 19.2 28.3 18.95 28.45 18.55
L 30.05 14.2 29.6 14.2 28.55 17.2 27.35 14.2 26.85 14.2 28.35 17.7 Z"/>
</g>

<g id="BDM_200x200_psd_Asset_1_ManagedWiFi_Awareness_DM8_1_Looking_to__increase__brand_loyalty__0_Layer0_0_MEMBER_25_FILL">
<path fill="#D82C26" stroke="none" d="
M 33.3 15.4
Q 33.3 14.75 32.95 14.4 32.6 14.05 32 14.05 31.6 14.05 31.3 14.2 30.95 14.3 30.7 14.5
L 30.8 14.85 31.35 14.55 31.9 14.4
Q 32.3 14.4 32.65 14.65 32.9 14.9 32.9 15.35
L 32.9 15.55 32.5 15.55
Q 30.5 15.55 30.5 16.7 30.5 17.2 30.85 17.5 31.2 17.75 31.6 17.75 32.05 17.75 32.4 17.55 32.75 17.35 32.9 17
L 33 17.65 33.4 17.65 33.3 16.9 33.3 15.4
M 32.9 16.2
Q 32.9 16.5 32.75 16.8 32.7 17 32.35 17.25 32.15 17.4 31.7 17.4 31.4 17.4 31.15 17.25 30.9 17.1 30.9 16.7 30.9 15.85 32.55 15.85
L 32.9 15.85 32.9 16.2 Z"/>
</g>

<g id="BDM_200x200_psd_Asset_1_ManagedWiFi_Awareness_DM8_1_Looking_to__increase__brand_loyalty__0_Layer0_0_MEMBER_26_FILL">
<path fill="#D82C26" stroke="none" d="
M 34.6 17.45
L 35 17.75 35.2 17.35
Q 35 17.3 34.95 17.15
L 34.85 16.8 34.85 12 34.45 12.1 34.45 16.9
Q 34.45 17.25 34.6 17.45 Z"/>
</g>

<g id="BDM_200x200_psd_Asset_1_ManagedWiFi_Awareness_DM8_1_Looking_to__increase__brand_loyalty__0_Layer0_0_MEMBER_27_FILL">
<path fill="#D82C26" stroke="none" d="
M 36.65 13.2
L 36.2 13.35 36.2 14.2 35.65 14.2 35.55 14.5 36.2 14.5 36.2 16.8
Q 36.2 17.3 36.4 17.5 36.65 17.75 37 17.75
L 37.75 17.55 37.7 17.2
Q 37.4 17.35 37.15 17.35 36.9 17.35 36.75 17.2
L 36.65 16.75 36.65 14.5 37.55 14.5 37.6 14.2 36.65 14.2 36.65 13.2 Z"/>
</g>

<g id="BDM_200x200_psd_Asset_1_ManagedWiFi_Awareness_DM8_1_Looking_to__increase__brand_loyalty__0_Layer0_0_MEMBER_28_FILL">
<path fill="#D82C26" stroke="none" d="
M 41.25 14.2
L 40.8 14.2 39.75 17.2 38.55 14.2 38.05 14.2 39.55 17.7 39.25 18.4
Q 39.1 18.75 38.9 18.9 38.7 19.05 38.3 19.05
L 38.4 19.45
Q 39 19.35 39.2 19.2 39.5 18.95 39.65 18.55
L 41.25 14.2 Z"/>
</g>

<g id="BDM_200x200_psd_Asset_1_ManagedWiFi_Awareness_DM8_1_Looking_to__increase__brand_loyalty__0_Layer0_0_MEMBER_29_FILL">
<path fill="#D82C26" stroke="none" d="
M 43.4 14
L 43.2 14.3 42.85 14.7
Q 42.5 15 42.4 15.3 42.25 15.6 42.25 15.9
L 42.25 16.15 42.7 16.15 42.7 15.6 42.9 15.25
Q 43 15.05 43.25 14.85
L 43.65 14.45 43.85 14.05 43.95 13.55
Q 43.95 13.1 43.75 12.85 43.6 12.6 43.25 12.4
L 42.5 12.3
Q 42.05 12.3 41.65 12.45 41.3 12.6 41 12.9
L 41.25 13.25
Q 41.4 13.05 41.75 12.85 42.25 12.65 42.5 12.65 42.85 12.65 43.2 12.9 43.5 13.15 43.5 13.55
L 43.4 14
M 42.25 17.6
L 42.5 17.7 42.7 17.6
Q 42.8 17.55 42.8 17.35 42.8 17.2 42.7 17.15 42.65 17.05 42.5 17.05 42.3 17.05 42.25 17.15
L 42.15 17.35 42.25 17.6 Z"/>
</g>
</defs>

<g transform="matrix( 1, 0, 0, 1, -55,-13) ">
<g transform="matrix( 1, 0, 0, 1, 47,25) ">
<g transform="matrix( 1, 0, 0, 1, 26,4) ">
<g transform="matrix( 2.815704345703125, 0, 0, 2.832611083984375, -1.85,16.6) ">
<use xlink:href="#BDM_200x200_psd_Asset_1_ManagedWiFi_Awareness_DM8_1_Looking_to__increase__brand_loyalty__0_Layer0_0_MEMBER_0_FILL"/>
</g>

<g transform="matrix( 2.815704345703125, 0, 0, 2.832611083984375, -1.85,16.6) ">
<use xlink:href="#BDM_200x200_psd_Asset_1_ManagedWiFi_Awareness_DM8_1_Looking_to__increase__brand_loyalty__0_Layer0_0_MEMBER_1_FILL"/>
</g>

<g transform="matrix( 2.815704345703125, 0, 0, 2.832611083984375, -1.85,16.6) ">
<use xlink:href="#BDM_200x200_psd_Asset_1_ManagedWiFi_Awareness_DM8_1_Looking_to__increase__brand_loyalty__0_Layer0_0_MEMBER_2_FILL"/>
</g>

<g transform="matrix( 2.815704345703125, 0, 0, 2.832611083984375, -1.85,16.6) ">
<use xlink:href="#BDM_200x200_psd_Asset_1_ManagedWiFi_Awareness_DM8_1_Looking_to__increase__brand_loyalty__0_Layer0_0_MEMBER_3_FILL"/>
</g>

<g transform="matrix( 2.815704345703125, 0, 0, 2.832611083984375, -1.85,16.6) ">
<use xlink:href="#BDM_200x200_psd_Asset_1_ManagedWiFi_Awareness_DM8_1_Looking_to__increase__brand_loyalty__0_Layer0_0_MEMBER_4_FILL"/>
</g>

<g transform="matrix( 2.815704345703125, 0, 0, 2.832611083984375, -1.85,16.6) ">
<use xlink:href="#BDM_200x200_psd_Asset_1_ManagedWiFi_Awareness_DM8_1_Looking_to__increase__brand_loyalty__0_Layer0_0_MEMBER_5_FILL"/>
</g>

<g transform="matrix( 2.815704345703125, 0, 0, 2.832611083984375, -1.85,16.6) ">
<use xlink:href="#BDM_200x200_psd_Asset_1_ManagedWiFi_Awareness_DM8_1_Looking_to__increase__brand_loyalty__0_Layer0_0_MEMBER_6_FILL"/>
</g>

<g transform="matrix( 2.815704345703125, 0, 0, 2.832611083984375, -1.85,16.6) ">
<use xlink:href="#BDM_200x200_psd_Asset_1_ManagedWiFi_Awareness_DM8_1_Looking_to__increase__brand_loyalty__0_Layer0_0_MEMBER_7_FILL"/>
</g>

<g transform="matrix( 2.815704345703125, 0, 0, 2.832611083984375, -1.85,16.6) ">
<use xlink:href="#BDM_200x200_psd_Asset_1_ManagedWiFi_Awareness_DM8_1_Looking_to__increase__brand_loyalty__0_Layer0_0_MEMBER_8_FILL"/>
</g>

<g transform="matrix( 2.815704345703125, 0, 0, 2.832611083984375, -1.85,16.6) ">
<use xlink:href="#BDM_200x200_psd_Asset_1_ManagedWiFi_Awareness_DM8_1_Looking_to__increase__brand_loyalty__0_Layer0_0_MEMBER_9_FILL"/>
</g>

<g transform="matrix( 2.815704345703125, 0, 0, 2.832611083984375, -1.85,16.6) ">
<use xlink:href="#BDM_200x200_psd_Asset_1_ManagedWiFi_Awareness_DM8_1_Looking_to__increase__brand_loyalty__0_Layer0_0_MEMBER_10_FILL"/>
</g>

<g transform="matrix( 2.815704345703125, 0, 0, 2.832611083984375, -1.85,16.6) ">
<use xlink:href="#BDM_200x200_psd_Asset_1_ManagedWiFi_Awareness_DM8_1_Looking_to__increase__brand_loyalty__0_Layer0_0_MEMBER_11_FILL"/>
</g>

<g transform="matrix( 2.815704345703125, 0, 0, 2.832611083984375, -1.85,16.6) ">
<use xlink:href="#BDM_200x200_psd_Asset_1_ManagedWiFi_Awareness_DM8_1_Looking_to__increase__brand_loyalty__0_Layer0_0_MEMBER_12_FILL"/>
</g>

<g transform="matrix( 2.815704345703125, 0, 0, 2.832611083984375, -1.85,16.6) ">
<use xlink:href="#BDM_200x200_psd_Asset_1_ManagedWiFi_Awareness_DM8_1_Looking_to__increase__brand_loyalty__0_Layer0_0_MEMBER_13_FILL"/>
</g>

<g transform="matrix( 2.815704345703125, 0, 0, 2.832611083984375, -1.85,16.6) ">
<use xlink:href="#BDM_200x200_psd_Asset_1_ManagedWiFi_Awareness_DM8_1_Looking_to__increase__brand_loyalty__0_Layer0_0_MEMBER_14_FILL"/>
</g>

<g transform="matrix( 2.815704345703125, 0, 0, 2.832611083984375, -1.85,16.6) ">
<use xlink:href="#BDM_200x200_psd_Asset_1_ManagedWiFi_Awareness_DM8_1_Looking_to__increase__brand_loyalty__0_Layer0_0_MEMBER_15_FILL"/>
</g>

<g transform="matrix( 2.815704345703125, 0, 0, 2.832611083984375, -1.85,16.6) ">
<use xlink:href="#BDM_200x200_psd_Asset_1_ManagedWiFi_Awareness_DM8_1_Looking_to__increase__brand_loyalty__0_Layer0_0_MEMBER_16_FILL"/>
</g>

<g transform="matrix( 2.815704345703125, 0, 0, 2.832611083984375, -1.85,16.6) ">
<use xlink:href="#BDM_200x200_psd_Asset_1_ManagedWiFi_Awareness_DM8_1_Looking_to__increase__brand_loyalty__0_Layer0_0_MEMBER_17_FILL"/>
</g>

<g transform="matrix( 2.815704345703125, 0, 0, 2.832611083984375, -1.85,16.6) ">
<use xlink:href="#BDM_200x200_psd_Asset_1_ManagedWiFi_Awareness_DM8_1_Looking_to__increase__brand_loyalty__0_Layer0_0_MEMBER_18_FILL"/>
</g>

<g transform="matrix( 2.815704345703125, 0, 0, 2.832611083984375, -1.85,16.6) ">
<use xlink:href="#BDM_200x200_psd_Asset_1_ManagedWiFi_Awareness_DM8_1_Looking_to__increase__brand_loyalty__0_Layer0_0_MEMBER_19_FILL"/>
</g>

<g transform="matrix( 2.815704345703125, 0, 0, 2.832611083984375, -1.85,16.6) ">
<use xlink:href="#BDM_200x200_psd_Asset_1_ManagedWiFi_Awareness_DM8_1_Looking_to__increase__brand_loyalty__0_Layer0_0_MEMBER_20_FILL"/>
</g>

<g transform="matrix( 2.815704345703125, 0, 0, 2.832611083984375, -1.85,16.6) ">
<use xlink:href="#BDM_200x200_psd_Asset_1_ManagedWiFi_Awareness_DM8_1_Looking_to__increase__brand_loyalty__0_Layer0_0_MEMBER_21_FILL"/>
</g>

<g transform="matrix( 2.815704345703125, 0, 0, 2.832611083984375, -1.85,16.6) ">
<use xlink:href="#BDM_200x200_psd_Asset_1_ManagedWiFi_Awareness_DM8_1_Looking_to__increase__brand_loyalty__0_Layer0_0_MEMBER_22_FILL"/>
</g>

<g transform="matrix( 2.815704345703125, 0, 0, 2.832611083984375, -1.85,16.6) ">
<use xlink:href="#BDM_200x200_psd_Asset_1_ManagedWiFi_Awareness_DM8_1_Looking_to__increase__brand_loyalty__0_Layer0_0_MEMBER_23_FILL"/>
</g>

<g transform="matrix( 2.815704345703125, 0, 0, 2.832611083984375, -1.85,16.6) ">
<use xlink:href="#BDM_200x200_psd_Asset_1_ManagedWiFi_Awareness_DM8_1_Looking_to__increase__brand_loyalty__0_Layer0_0_MEMBER_24_FILL"/>
</g>

<g transform="matrix( 2.815704345703125, 0, 0, 2.832611083984375, -1.85,16.6) ">
<use xlink:href="#BDM_200x200_psd_Asset_1_ManagedWiFi_Awareness_DM8_1_Looking_to__increase__brand_loyalty__0_Layer0_0_MEMBER_25_FILL"/>
</g>

<g transform="matrix( 2.815704345703125, 0, 0, 2.832611083984375, -1.85,16.6) ">
<use xlink:href="#BDM_200x200_psd_Asset_1_ManagedWiFi_Awareness_DM8_1_Looking_to__increase__brand_loyalty__0_Layer0_0_MEMBER_26_FILL"/>
</g>

<g transform="matrix( 2.815704345703125, 0, 0, 2.832611083984375, -1.85,16.6) ">
<use xlink:href="#BDM_200x200_psd_Asset_1_ManagedWiFi_Awareness_DM8_1_Looking_to__increase__brand_loyalty__0_Layer0_0_MEMBER_27_FILL"/>
</g>

<g transform="matrix( 2.815704345703125, 0, 0, 2.832611083984375, -1.85,16.6) ">
<use xlink:href="#BDM_200x200_psd_Asset_1_ManagedWiFi_Awareness_DM8_1_Looking_to__increase__brand_loyalty__0_Layer0_0_MEMBER_28_FILL"/>
</g>

<g transform="matrix( 2.815704345703125, 0, 0, 2.832611083984375, -1.85,16.6) ">
<use xlink:href="#BDM_200x200_psd_Asset_1_ManagedWiFi_Awareness_DM8_1_Looking_to__increase__brand_loyalty__0_Layer0_0_MEMBER_29_FILL"/>
</g>
</g>
</g>
</g>
</svg>
