
<svg xmlns="http://www.w3.org/2000/svg" version="1.1" xmlns:xlink="http://www.w3.org/1999/xlink" preserveAspectRatio="none" x="0px" y="0px" width="300px" height="250px" viewBox="0 0 300 250">
<defs>
<g id="IT_300x250_FR_psd_Asset_Research_Phase_IT_Decisions_Makers__V10_2_Si_vous_envisagez__de_changer_votre_solution__de_r_seau_d_affai_0_Layer0_0_MEMBER_0_FILL">
<path fill="#D82C26" stroke="none" d="
M 3.5 -4.7
Q 3.3 -4.9 2.9 -5
L 2.15 -5.15
Q 1.75 -5.15 1.35 -5 0.95 -4.75 0.75 -4.5 0.55 -4.25 0.55 -3.75 0.55 -3.35 0.7 -3.05
L 1.2 -2.65 2.6 -2.1
Q 2.9 -1.9 3 -1.75 3.15 -1.6 3.15 -1.25 3.15 -0.8 2.8 -0.5 2.45 -0.25 2 -0.25 1.6 -0.25 1.2 -0.4
L 0.55 -0.8 0.45 -0.4
Q 0.85 -0.1 1.15 0 1.6 0.15 2 0.15 2.45 0.15 2.8 -0.05 3.1 -0.15 3.35 -0.5 3.6 -0.9 3.6 -1.3 3.6 -1.75 3.4 -2 3.1 -2.3 2.9 -2.4
L 1.5 -2.95 1.1 -3.25
Q 0.95 -3.45 0.95 -3.8 0.95 -4.15 1.15 -4.3 1.35 -4.6 1.55 -4.65 1.75 -4.75 2.15 -4.75
L 2.8 -4.65 3.35 -4.35 3.5 -4.7 Z"/>
</g>

<g id="IT_300x250_FR_psd_Asset_Research_Phase_IT_Decisions_Makers__V10_2_Si_vous_envisagez__de_changer_votre_solution__de_r_seau_d_affai_0_Layer0_0_MEMBER_1_FILL">
<path fill="#D82C26" stroke="none" d="
M 4.95 -3.3
L 4.55 -3.3 4.55 0 4.95 0 4.95 -3.3
M 5.05 -4.65
L 4.95 -4.85 4.75 -4.95 4.55 -4.85
Q 4.45 -4.8 4.45 -4.65 4.45 -4.5 4.55 -4.4
L 4.75 -4.35 4.95 -4.4 5.05 -4.65 Z"/>
</g>

<g id="IT_300x250_FR_psd_Asset_Research_Phase_IT_Decisions_Makers__V10_2_Si_vous_envisagez__de_changer_votre_solution__de_r_seau_d_affai_0_Layer0_0_MEMBER_2_FILL">
<path fill="#D82C26" stroke="none" d="
M 7.3 -3.3
L 6.85 -3.3 8.15 0 8.6 0 9.85 -3.3 9.4 -3.3 8.35 -0.4 7.3 -3.3 Z"/>
</g>

<g id="IT_300x250_FR_psd_Asset_Research_Phase_IT_Decisions_Makers__V10_2_Si_vous_envisagez__de_changer_votre_solution__de_r_seau_d_affai_0_Layer0_0_MEMBER_3_FILL">
<path fill="#D82C26" stroke="none" d="
M 11.9 -3.4
Q 11.35 -3.4 11 -3.2 10.65 -3 10.35 -2.55 10.15 -2.2 10.15 -1.65 10.15 -1.1 10.35 -0.75 10.65 -0.35 11 -0.15 11.4 0.1 11.9 0.1 12.4 0.1 12.8 -0.15 13.25 -0.4 13.45 -0.75 13.65 -1.1 13.65 -1.65 13.65 -2.2 13.45 -2.55 13.25 -2.9 12.8 -3.2 12.45 -3.4 11.9 -3.4
M 11.9 -3.05
Q 12.35 -3.05 12.6 -2.85 12.9 -2.7 13.1 -2.35 13.25 -2.05 13.25 -1.65 13.25 -1.25 13.1 -0.95 12.95 -0.6 12.6 -0.45 12.35 -0.25 11.9 -0.25 11.45 -0.25 11.2 -0.45 11 -0.55 10.7 -0.95 10.55 -1.25 10.55 -1.65 10.55 -2.05 10.7 -2.35 10.9 -2.7 11.2 -2.85 11.45 -3.05 11.9 -3.05 Z"/>
</g>

<g id="IT_300x250_FR_psd_Asset_Research_Phase_IT_Decisions_Makers__V10_2_Si_vous_envisagez__de_changer_votre_solution__de_r_seau_d_affai_0_Layer0_0_MEMBER_4_FILL">
<path fill="#D82C26" stroke="none" d="
M 14.5 -1.3
Q 14.5 -0.65 14.8 -0.3 15.1 0.1 15.75 0.1 16.1 0.1 16.45 -0.15 16.8 -0.3 16.95 -0.7
L 17 0 17.4 0 17.35 -0.4 17.35 -3.3 16.95 -3.3 16.95 -1.65
Q 16.95 -1.2 16.8 -0.9 16.65 -0.55 16.4 -0.4 16.2 -0.25 15.85 -0.25 15.3 -0.25 15.15 -0.6 14.95 -0.85 14.95 -1.4
L 14.95 -3.3 14.5 -3.3 14.5 -1.3 Z"/>
</g>

<g id="IT_300x250_FR_psd_Asset_Research_Phase_IT_Decisions_Makers__V10_2_Si_vous_envisagez__de_changer_votre_solution__de_r_seau_d_affai_0_Layer0_0_MEMBER_5_FILL">
<path fill="#D82C26" stroke="none" d="
M 19.95 -3.3
L 19.4 -3.4
Q 19 -3.4 18.85 -3.3 18.6 -3.2 18.45 -3 18.3 -2.75 18.3 -2.5 18.3 -2.1 18.5 -1.9
L 19.2 -1.55
Q 19.75 -1.4 19.9 -1.25 20.15 -1.1 20.15 -0.85 20.15 -0.55 19.9 -0.4 19.7 -0.25 19.4 -0.25 18.7 -0.25 18.3 -0.65
L 18.2 -0.3
Q 18.35 -0.15 18.75 0
L 19.4 0.1 19.95 0
Q 20.2 -0.1 20.35 -0.35 20.55 -0.55 20.55 -0.85 20.55 -1.2 20.3 -1.45 19.95 -1.75 19.5 -1.85
L 18.85 -2.15
Q 18.65 -2.35 18.65 -2.5 18.65 -2.8 18.9 -2.95 19.05 -3.1 19.4 -3.1
L 19.85 -3 20.25 -2.75 20.45 -3.05 19.95 -3.3 Z"/>
</g>

<g id="IT_300x250_FR_psd_Asset_Research_Phase_IT_Decisions_Makers__V10_2_Si_vous_envisagez__de_changer_votre_solution__de_r_seau_d_affai_0_Layer0_0_MEMBER_6_FILL">
<path fill="#D82C26" stroke="none" d="
M 24.95 -3.2
Q 24.7 -3.4 24.1 -3.4 23.65 -3.4 23.3 -3.2 22.9 -2.95 22.7 -2.55 22.5 -2.2 22.5 -1.65 22.5 -1.1 22.7 -0.75 22.95 -0.35 23.3 -0.15 23.7 0.1 24.15 0.1 24.95 0.1 25.5 -0.3
L 25.4 -0.65 24.9 -0.35 24.2 -0.25
Q 23.85 -0.25 23.55 -0.4 23.15 -0.7 23.05 -0.9 22.9 -1.2 22.9 -1.6
L 25.7 -1.6 25.7 -1.75
Q 25.7 -2.25 25.5 -2.6 25.35 -2.95 24.95 -3.2
M 25.3 -1.9
L 22.9 -1.9 23.05 -2.45 23.45 -2.9
Q 23.85 -3.1 24.1 -3.1 24.65 -3.1 24.95 -2.75 25.3 -2.45 25.3 -1.9 Z"/>
</g>

<g id="IT_300x250_FR_psd_Asset_Research_Phase_IT_Decisions_Makers__V10_2_Si_vous_envisagez__de_changer_votre_solution__de_r_seau_d_affai_0_Layer0_0_MEMBER_7_FILL">
<path fill="#D82C26" stroke="none" d="
M 26.95 -3.3
L 26.55 -3.3 26.6 0 27 0 27 -1.7
Q 27 -2.1 27.15 -2.4 27.3 -2.75 27.55 -2.9 27.8 -3.05 28.1 -3.05 28.6 -3.05 28.8 -2.75 29 -2.4 29 -1.9
L 29 0 29.4 0 29.4 -2
Q 29.4 -2.6 29.1 -3 28.8 -3.4 28.2 -3.4 27.8 -3.4 27.45 -3.2 27.15 -2.95 27 -2.6
L 26.95 -3.3 Z"/>
</g>

<g id="IT_300x250_FR_psd_Asset_Research_Phase_IT_Decisions_Makers__V10_2_Si_vous_envisagez__de_changer_votre_solution__de_r_seau_d_affai_0_Layer0_0_MEMBER_8_FILL">
<path fill="#D82C26" stroke="none" d="
M 30.35 -3.3
L 29.9 -3.3 31.15 0 31.65 0 32.85 -3.3 32.45 -3.3 31.4 -0.4 30.35 -3.3 Z"/>
</g>

<g id="IT_300x250_FR_psd_Asset_Research_Phase_IT_Decisions_Makers__V10_2_Si_vous_envisagez__de_changer_votre_solution__de_r_seau_d_affai_0_Layer0_0_MEMBER_9_FILL">
<path fill="#D82C26" stroke="none" d="
M 33.95 -3.3
L 33.5 -3.3 33.5 0 33.95 0 33.95 -3.3
M 34 -4.65
L 33.95 -4.85 33.7 -4.95 33.5 -4.85 33.45 -4.65 33.5 -4.4 33.7 -4.35 33.95 -4.4 34 -4.65 Z"/>
</g>

<g id="IT_300x250_FR_psd_Asset_Research_Phase_IT_Decisions_Makers__V10_2_Si_vous_envisagez__de_changer_votre_solution__de_r_seau_d_affai_0_Layer0_0_MEMBER_10_FILL">
<path fill="#D82C26" stroke="none" d="
M 34.85 -0.65
L 34.8 -0.3
Q 34.85 -0.2 35.3 0
L 35.95 0.1 36.5 0
Q 36.85 -0.15 36.95 -0.35 37.1 -0.55 37.1 -0.85 37.1 -1.2 36.85 -1.45 36.6 -1.7 36.1 -1.85 35.6 -2 35.45 -2.15 35.25 -2.3 35.25 -2.5 35.25 -2.8 35.45 -2.95 35.7 -3.1 35.95 -3.1
L 36.45 -3
Q 36.6 -2.95 36.8 -2.75
L 37 -3.05 36.55 -3.3 35.95 -3.4
Q 35.6 -3.4 35.4 -3.3 35.15 -3.2 35 -3 34.85 -2.75 34.85 -2.5 34.85 -2.15 35.1 -1.9 35.5 -1.65 35.8 -1.55
L 36.5 -1.25
Q 36.7 -1.1 36.7 -0.85 36.7 -0.55 36.5 -0.4 36.3 -0.25 35.95 -0.25 35.25 -0.25 34.85 -0.65 Z"/>
</g>

<g id="IT_300x250_FR_psd_Asset_Research_Phase_IT_Decisions_Makers__V10_2_Si_vous_envisagez__de_changer_votre_solution__de_r_seau_d_affai_0_Layer0_0_MEMBER_11_FILL">
<path fill="#D82C26" stroke="none" d="
M 39.15 -3.4
L 38.5 -3.3
Q 38.15 -3.2 37.95 -3
L 38.05 -2.65
Q 38.3 -2.9 38.55 -2.95
L 39.1 -3.1
Q 39.55 -3.1 39.8 -2.85 40.05 -2.6 40.05 -2.15
L 40.05 -2 39.65 -2
Q 37.75 -2 37.75 -0.9 37.75 -0.35 38.05 -0.15 38.45 0.1 38.8 0.1 39.3 0.1 39.55 -0.1 39.9 -0.25 40.05 -0.65
L 40.1 -0.3 40.1 0 40.5 0 40.45 -2.15
Q 40.45 -2.8 40.1 -3.1 39.8 -3.4 39.15 -3.4
M 39.7 -1.7
L 40.05 -1.7 40.05 -1.4 39.95 -0.85
Q 39.8 -0.55 39.55 -0.4 39.15 -0.2 38.9 -0.2 38.55 -0.2 38.35 -0.4 38.15 -0.6 38.15 -0.9 38.15 -1.7 39.7 -1.7 Z"/>
</g>

<g id="IT_300x250_FR_psd_Asset_Research_Phase_IT_Decisions_Makers__V10_2_Si_vous_envisagez__de_changer_votre_solution__de_r_seau_d_affai_0_Layer0_0_MEMBER_12_FILL">
<path fill="#D82C26" stroke="none" d="
M 44.75 -3.3
L 44.35 -3.3 44.35 -2.6 44.3 -2.6
Q 44.15 -2.95 43.75 -3.2 43.4 -3.4 42.95 -3.4 42.4 -3.4 42.1 -3.15 41.75 -2.9 41.5 -2.55 41.3 -2.15 41.3 -1.65 41.3 -1.15 41.5 -0.8 41.7 -0.4 42.1 -0.15 42.45 0.05 42.95 0.05 43.4 0.05 43.75 -0.15 44.15 -0.4 44.3 -0.75
L 44.3 -0.05
Q 44.3 0.65 44 1 43.6 1.4 42.95 1.4 42.55 1.4 42.25 1.25 41.9 1.2 41.6 0.95
L 41.5 1.35 42.2 1.65 42.95 1.75
Q 43.8 1.75 44.3 1.25 44.75 0.75 44.75 -0.05
L 44.75 -3.3
M 41.9 -2.35
Q 42.1 -2.7 42.35 -2.85 42.6 -3.05 43 -3.05 43.45 -3.05 43.7 -2.85 44 -2.7 44.15 -2.35 44.35 -2.1 44.35 -1.65 44.35 -1.3 44.15 -0.95 44 -0.7 43.7 -0.45 43.4 -0.3 43 -0.3 42.65 -0.3 42.35 -0.45 42.05 -0.7 41.9 -0.95 41.7 -1.3 41.7 -1.65 41.7 -2.1 41.9 -2.35 Z"/>
</g>

<g id="IT_300x250_FR_psd_Asset_Research_Phase_IT_Decisions_Makers__V10_2_Si_vous_envisagez__de_changer_votre_solution__de_r_seau_d_affai_0_Layer0_0_MEMBER_13_FILL">
<path fill="#D82C26" stroke="none" d="
M 47.25 -3.4
Q 46.75 -3.4 46.4 -3.2 46.1 -3 45.85 -2.55 45.6 -2.15 45.6 -1.65 45.6 -1.15 45.85 -0.75 46.1 -0.35 46.45 -0.15 46.85 0.1 47.3 0.1 48 0.1 48.65 -0.3
L 48.55 -0.65 48.05 -0.35 47.35 -0.25
Q 46.95 -0.25 46.65 -0.4 46.35 -0.65 46.2 -0.9 46 -1.3 46 -1.6
L 48.8 -1.6 48.85 -1.75
Q 48.85 -2.1 48.65 -2.6 48.4 -3 48.1 -3.2 47.75 -3.4 47.25 -3.4
M 46.05 -1.9
L 46.2 -2.45
Q 46.4 -2.75 46.6 -2.9 47 -3.1 47.25 -3.1 47.8 -3.1 48.1 -2.75 48.45 -2.4 48.45 -1.9
L 46.05 -1.9 Z"/>
</g>

<g id="IT_300x250_FR_psd_Asset_Research_Phase_IT_Decisions_Makers__V10_2_Si_vous_envisagez__de_changer_votre_solution__de_r_seau_d_affai_0_Layer0_0_MEMBER_14_FILL">
<path fill="#D82C26" stroke="none" d="
M 51.4 -3
L 49.35 -0.3 49.35 0 51.95 0 52 -0.35 49.85 -0.35 51.9 -3 51.9 -3.3 49.5 -3.3 49.4 -3 51.4 -3 Z"/>
</g>

<g id="IT_300x250_FR_psd_Asset_Research_Phase_IT_Decisions_Makers__V10_2_Si_vous_envisagez__de_changer_votre_solution__de_r_seau_d_affai_0_Layer0_0_MEMBER_15_FILL">
<path fill="#D82C26" stroke="none" d="
M 3.8 2.7
L 3.4 2.8 3.4 5.55
Q 3.15 5.1 2.85 4.95 2.45 4.7 2.05 4.7 1.6 4.7 1.2 4.95 0.8 5.2 0.6 5.6 0.4 5.95 0.4 6.45 0.4 7 0.6 7.35 0.85 7.8 1.2 8 1.55 8.2 2.05 8.2 2.5 8.2 2.85 8 3.15 7.8 3.4 7.4
L 3.45 8.1 3.85 8.1 3.8 2.7
M 0.95 5.75
L 1.4 5.25
Q 1.8 5.05 2.1 5.05 2.4 5.05 2.8 5.25 3.1 5.5 3.25 5.75 3.4 6.15 3.4 6.45 3.4 6.85 3.25 7.15 3.1 7.5 2.8 7.65 2.55 7.85 2.1 7.85 1.7 7.85 1.4 7.7
L 0.95 7.15
Q 0.8 6.85 0.8 6.45 0.8 6.15 0.95 5.75 Z"/>
</g>

<g id="IT_300x250_FR_psd_Asset_Research_Phase_IT_Decisions_Makers__V10_2_Si_vous_envisagez__de_changer_votre_solution__de_r_seau_d_affai_0_Layer0_0_MEMBER_16_FILL">
<path fill="#D82C26" stroke="none" d="
M 6.35 4.7
Q 5.9 4.7 5.5 4.95 5.2 5.15 4.95 5.55 4.7 5.95 4.7 6.45 4.7 6.95 4.95 7.35 5.15 7.75 5.55 8 5.9 8.2 6.4 8.2 7.2 8.2 7.75 7.8
L 7.65 7.45 7.15 7.75
Q 6.8 7.9 6.45 7.9 6.15 7.9 5.75 7.7 5.45 7.45 5.3 7.2
L 5.1 6.5 7.9 6.5 7.95 6.35
Q 7.95 6 7.75 5.5 7.6 5.1 7.2 4.95 6.8 4.7 6.35 4.7
M 6.35 5.05
Q 6.9 5.05 7.2 5.35 7.55 5.8 7.55 6.2
L 5.15 6.2
Q 5.15 5.95 5.3 5.7 5.45 5.4 5.7 5.2 6 5.05 6.35 5.05 Z"/>
</g>

<g id="IT_300x250_FR_psd_Asset_Research_Phase_IT_Decisions_Makers__V10_2_Si_vous_envisagez__de_changer_votre_solution__de_r_seau_d_affai_0_Layer0_0_MEMBER_17_FILL">
<path fill="#D82C26" stroke="none" d="
M 10.5 5.75
Q 10.6 5.55 11 5.25 11.4 5.05 11.65 5.05
L 12.2 5.15 12.6 5.4 12.8 5.1 12.3 4.8 11.65 4.7
Q 11.25 4.7 10.75 4.95 10.4 5.2 10.15 5.55 9.9 6.05 9.9 6.45 9.9 6.95 10.15 7.35 10.35 7.75 10.75 8 11.1 8.2 11.65 8.2 12.1 8.2 12.3 8.1 12.55 8.05 12.8 7.8
L 12.7 7.45 12.25 7.75
Q 12.1 7.85 11.7 7.85 11.25 7.85 11 7.65 10.65 7.45 10.5 7.15 10.35 6.85 10.35 6.45 10.35 6.15 10.5 5.75 Z"/>
</g>

<g id="IT_300x250_FR_psd_Asset_Research_Phase_IT_Decisions_Makers__V10_2_Si_vous_envisagez__de_changer_votre_solution__de_r_seau_d_affai_0_Layer0_0_MEMBER_18_FILL">
<path fill="#D82C26" stroke="none" d="
M 16.3 6.1
Q 16.3 5.4 16.05 5.1 15.75 4.7 15.1 4.7 14.75 4.7 14.4 4.95 14 5.2 13.95 5.5
L 13.9 5.5 13.9 2.75 13.5 2.8 13.5 8.1 13.9 8.1 13.9 6.5
Q 13.9 6.05 14.05 5.75 14.2 5.45 14.45 5.25 14.65 5.05 15 5.05 15.5 5.05 15.7 5.4 15.9 5.65 15.9 6.2
L 15.9 8.1 16.3 8.1 16.3 6.1 Z"/>
</g>

<g id="IT_300x250_FR_psd_Asset_Research_Phase_IT_Decisions_Makers__V10_2_Si_vous_envisagez__de_changer_votre_solution__de_r_seau_d_affai_0_Layer0_0_MEMBER_19_FILL">
<path fill="#D82C26" stroke="none" d="
M 17.35 5.15
L 17.5 5.45 17.95 5.15 18.55 5.05
Q 19 5.05 19.2 5.25 19.45 5.45 19.45 5.95
L 19.45 6.15 19.05 6.15
Q 17.15 6.15 17.15 7.25 17.15 7.7 17.5 7.95 17.75 8.2 18.25 8.2 18.7 8.2 18.95 8 19.25 7.9 19.45 7.5
L 19.5 7.5 19.5 7.8 19.55 8.1 19.9 8.1 19.85 5.95
Q 19.85 5.35 19.5 5.05 19.2 4.7 18.6 4.7
L 17.9 4.8 17.35 5.15
M 19.45 6.75
L 19.35 7.3 18.95 7.75
Q 18.65 7.9 18.3 7.9 18.05 7.9 17.8 7.75 17.55 7.5 17.55 7.2 17.55 6.4 19.1 6.4
L 19.45 6.4 19.45 6.75 Z"/>
</g>

<g id="IT_300x250_FR_psd_Asset_Research_Phase_IT_Decisions_Makers__V10_2_Si_vous_envisagez__de_changer_votre_solution__de_r_seau_d_affai_0_Layer0_0_MEMBER_20_FILL">
<path fill="#D82C26" stroke="none" d="
M 21.9 5.2
L 22.45 5.05
Q 22.95 5.05 23.15 5.4 23.35 5.65 23.35 6.2
L 23.35 8.1 23.8 8.1 23.8 6.1
Q 23.8 5.55 23.5 5.1 23.2 4.7 22.55 4.7 22.2 4.7 21.85 4.95 21.5 5.15 21.35 5.55
L 21.3 4.8 20.9 4.8 20.95 8.1 21.35 8.1 21.35 6.45
Q 21.35 6 21.5 5.7
L 21.9 5.2 Z"/>
</g>

<g id="IT_300x250_FR_psd_Asset_Research_Phase_IT_Decisions_Makers__V10_2_Si_vous_envisagez__de_changer_votre_solution__de_r_seau_d_affai_0_Layer0_0_MEMBER_21_FILL">
<path fill="#D82C26" stroke="none" d="
M 26.3 4.7
Q 25.85 4.7 25.45 4.95 25.05 5.2 24.85 5.6 24.65 5.95 24.65 6.45 24.65 7 24.85 7.35 25.1 7.75 25.45 7.95 25.85 8.2 26.3 8.2 26.7 8.2 27.1 7.95 27.45 7.75 27.65 7.4
L 27.65 8.1
Q 27.65 8.75 27.35 9.1 27 9.5 26.3 9.5
L 25.55 9.4
Q 25.05 9.15 24.95 9.05
L 24.85 9.45
Q 24.95 9.55 25.5 9.75
L 26.3 9.85
Q 27.2 9.85 27.65 9.35 28.05 8.85 28.05 8.05
L 28.1 4.8 27.7 4.8 27.65 5.55
Q 27.4 5.15 27.1 4.95 26.7 4.7 26.3 4.7
M 25.65 5.25
Q 26.05 5.05 26.35 5.05 26.8 5.05 27.05 5.25 27.3 5.4 27.5 5.75 27.65 6.05 27.65 6.45 27.65 6.85 27.5 7.15 27.3 7.5 27.05 7.65 26.8 7.85 26.35 7.85 25.9 7.85 25.65 7.65 25.35 7.45 25.2 7.15 25.05 6.85 25.05 6.45 25.05 6.05 25.2 5.75 25.25 5.65 25.65 5.25 Z"/>
</g>

<g id="IT_300x250_FR_psd_Asset_Research_Phase_IT_Decisions_Makers__V10_2_Si_vous_envisagez__de_changer_votre_solution__de_r_seau_d_affai_0_Layer0_0_MEMBER_22_FILL">
<path fill="#D82C26" stroke="none" d="
M 32 5.5
Q 31.75 5.05 31.45 4.95 31.05 4.7 30.6 4.7 30.15 4.7 29.75 4.95 29.4 5.2 29.15 5.55 28.95 6.05 28.95 6.45 28.95 6.85 29.15 7.35 29.35 7.8 29.8 8 30.15 8.2 30.65 8.2 31.5 8.2 31.95 7.8
L 31.9 7.45 31.35 7.75
Q 31.05 7.9 30.7 7.9 30.4 7.9 30 7.7 29.7 7.45 29.55 7.2 29.35 6.95 29.35 6.5
L 32.15 6.5 32.15 6.35
Q 32.15 5.9 32 5.5
M 30.6 5.05
Q 31.15 5.05 31.45 5.35 31.75 5.75 31.75 6.2
L 29.35 6.2 29.5 5.7
Q 29.65 5.45 29.95 5.2 30.25 5.05 30.6 5.05 Z"/>
</g>

<g id="IT_300x250_FR_psd_Asset_Research_Phase_IT_Decisions_Makers__V10_2_Si_vous_envisagez__de_changer_votre_solution__de_r_seau_d_affai_0_Layer0_0_MEMBER_23_FILL">
<path fill="#D82C26" stroke="none" d="
M 33.4 4.8
L 33 4.8 33.05 8.1 33.45 8.1 33.45 6.45
Q 33.45 5.9 33.7 5.5 33.95 5.1 34.4 5.1
L 34.7 5.15 34.8 4.75 34.45 4.7
Q 34.2 4.7 33.85 4.95 33.55 5.25 33.45 5.55
L 33.4 4.8 Z"/>
</g>

<g id="IT_300x250_FR_psd_Asset_Research_Phase_IT_Decisions_Makers__V10_2_Si_vous_envisagez__de_changer_votre_solution__de_r_seau_d_affai_0_Layer0_0_MEMBER_24_FILL">
<path fill="#D82C26" stroke="none" d="
M 36.05 4.8
L 37.35 8.1 37.8 8.1 39.05 4.8 38.6 4.8 37.55 7.7 36.5 4.8 36.05 4.8 Z"/>
</g>

<g id="IT_300x250_FR_psd_Asset_Research_Phase_IT_Decisions_Makers__V10_2_Si_vous_envisagez__de_changer_votre_solution__de_r_seau_d_affai_0_Layer0_0_MEMBER_25_FILL">
<path fill="#D82C26" stroke="none" d="
M 42.65 5.55
Q 42.4 5.15 42 4.95 41.6 4.7 41.1 4.7 40.6 4.7 40.2 4.95 39.85 5.2 39.6 5.55 39.35 5.85 39.35 6.45 39.35 7.05 39.6 7.35 39.8 7.75 40.2 8 40.55 8.2 41.1 8.2 41.65 8.2 42 8 42.45 7.8 42.65 7.35 42.85 7 42.85 6.45 42.85 5.9 42.65 5.55
M 41.1 5.05
Q 41.55 5.05 41.8 5.25 42.15 5.4 42.3 5.75 42.45 6.05 42.45 6.45 42.45 6.85 42.3 7.15 42.15 7.5 41.8 7.65 41.55 7.85 41.1 7.85 40.65 7.85 40.4 7.65 40.1 7.5 39.95 7.15 39.75 6.9 39.75 6.45 39.75 6 39.95 5.75 40.15 5.4 40.4 5.25 40.65 5.05 41.1 5.05 Z"/>
</g>

<g id="IT_300x250_FR_psd_Asset_Research_Phase_IT_Decisions_Makers__V10_2_Si_vous_envisagez__de_changer_votre_solution__de_r_seau_d_affai_0_Layer0_0_MEMBER_26_FILL">
<path fill="#D82C26" stroke="none" d="
M 44.2 3.85
L 43.8 4 43.8 4.8 43.25 4.8 43.15 5.15 43.8 5.15 43.8 7.3
Q 43.8 7.75 44 7.95 44.25 8.2 44.55 8.2
L 44.95 8.15 45.25 8 45.2 7.7
Q 44.9 7.85 44.65 7.85
L 44.3 7.7 44.2 7.25 44.2 5.15 45.05 5.15 45.15 4.8 44.2 4.8 44.2 3.85 Z"/>
</g>

<g id="IT_300x250_FR_psd_Asset_Research_Phase_IT_Decisions_Makers__V10_2_Si_vous_envisagez__de_changer_votre_solution__de_r_seau_d_affai_0_Layer0_0_MEMBER_27_FILL">
<path fill="#D82C26" stroke="none" d="
M 46.3 4.8
L 45.9 4.8 45.9 8.1 46.35 8.1 46.35 6.45
Q 46.35 5.8 46.6 5.5 46.8 5.1 47.25 5.1
L 47.55 5.15 47.65 4.75 47.3 4.7
Q 47 4.7 46.75 4.95 46.4 5.2 46.35 5.55
L 46.3 5.55 46.3 4.8 Z"/>
</g>

<g id="IT_300x250_FR_psd_Asset_Research_Phase_IT_Decisions_Makers__V10_2_Si_vous_envisagez__de_changer_votre_solution__de_r_seau_d_affai_0_Layer0_0_MEMBER_28_FILL">
<path fill="#D82C26" stroke="none" d="
M 51.1 6.35
Q 51.1 5.85 50.9 5.5 50.75 5.15 50.4 4.95 50 4.7 49.55 4.7 49.1 4.7 48.7 4.95 48.35 5.2 48.1 5.55 47.9 5.9 47.9 6.45 47.9 7 48.1 7.35 48.3 7.75 48.7 8 49.05 8.2 49.6 8.2 50.45 8.2 50.9 7.8
L 50.85 7.45 50.3 7.75
Q 50 7.9 49.6 7.9 49.35 7.9 48.95 7.7
L 48.45 7.2
Q 48.3 6.9 48.3 6.5
L 51.1 6.5 51.1 6.35
M 49.55 5.05
Q 50.05 5.05 50.35 5.35 50.7 5.7 50.7 6.2
L 48.3 6.2
Q 48.3 5.95 48.45 5.7 48.6 5.45 48.9 5.2 49.15 5.05 49.55 5.05 Z"/>
</g>

<g id="IT_300x250_FR_psd_Asset_Research_Phase_IT_Decisions_Makers__V10_2_Si_vous_envisagez__de_changer_votre_solution__de_r_seau_d_affai_0_Layer0_0_MEMBER_29_FILL">
<path fill="#D82C26" stroke="none" d="
M 53.7 4.8
L 53.3 5.1
Q 53.15 5.35 53.15 5.6 53.15 5.95 53.4 6.2 53.6 6.4 54.1 6.55
L 54.8 6.85
Q 55 7 55 7.25 55 7.55 54.8 7.7 54.6 7.9 54.25 7.9 53.65 7.9 53.15 7.5
L 53.1 7.85 53.6 8.1
Q 53.8 8.2 54.25 8.2
L 54.8 8.1
Q 55.05 8.05 55.25 7.75 55.4 7.6 55.4 7.25 55.4 6.9 55.15 6.65 54.95 6.45 54.4 6.3
L 53.7 6
Q 53.55 5.85 53.55 5.6 53.55 5.35 53.75 5.2 54 5.05 54.25 5.05 54.6 5.05 54.75 5.15
L 55.1 5.35 55.3 5.05 54.85 4.8 54.25 4.7 53.7 4.8 Z"/>
</g>

<g id="IT_300x250_FR_psd_Asset_Research_Phase_IT_Decisions_Makers__V10_2_Si_vous_envisagez__de_changer_votre_solution__de_r_seau_d_affai_0_Layer0_0_MEMBER_30_FILL">
<path fill="#D82C26" stroke="none" d="
M 59.3 5.55
Q 59.1 5.2 58.7 4.95 58.2 4.7 57.8 4.7 57.3 4.7 56.9 4.95 56.5 5.15 56.25 5.55 56 5.95 56 6.45 56 6.95 56.25 7.35 56.45 7.8 56.9 8 57.25 8.2 57.8 8.2 58.3 8.2 58.7 8 59.1 7.75 59.3 7.35 59.55 6.95 59.55 6.45 59.55 5.95 59.3 5.55
M 58.5 5.25
Q 58.75 5.4 58.95 5.75 59.15 6.15 59.15 6.45 59.15 6.75 58.95 7.15 58.8 7.5 58.5 7.65 58.25 7.85 57.8 7.85 57.3 7.85 57.05 7.65 56.75 7.5 56.6 7.15 56.45 6.85 56.45 6.45 56.45 6.05 56.6 5.75 56.8 5.4 57.05 5.25 57.3 5.05 57.8 5.05 58.25 5.05 58.5 5.25 Z"/>
</g>

<g id="IT_300x250_FR_psd_Asset_Research_Phase_IT_Decisions_Makers__V10_2_Si_vous_envisagez__de_changer_votre_solution__de_r_seau_d_affai_0_Layer0_0_MEMBER_31_FILL">
<path fill="#D82C26" stroke="none" d="
M 60.6 7.9
Q 60.75 8.15 60.95 8.2
L 61.15 7.85 60.9 7.65 60.85 7.3 60.85 2.75 60.45 2.8 60.45 7.4
Q 60.45 7.75 60.6 7.9 Z"/>
</g>

<g id="IT_300x250_FR_psd_Asset_Research_Phase_IT_Decisions_Makers__V10_2_Si_vous_envisagez__de_changer_votre_solution__de_r_seau_d_affai_0_Layer0_0_MEMBER_32_FILL">
<path fill="#D82C26" stroke="none" d="
M 62.35 4.8
L 61.95 4.8 61.95 6.85
Q 61.95 7.45 62.25 7.8 62.5 8.2 63.15 8.2 63.55 8.2 63.9 8 64.2 7.8 64.35 7.4
L 64.45 8.15 64.85 8.1 64.8 7.75 64.8 4.8 64.35 4.8 64.35 6.45
Q 64.35 6.9 64.2 7.2 64.15 7.5 63.85 7.7 63.55 7.85 63.25 7.85 62.8 7.85 62.55 7.55 62.35 7.15 62.35 6.7
L 62.35 4.8 Z"/>
</g>

<g id="IT_300x250_FR_psd_Asset_Research_Phase_IT_Decisions_Makers__V10_2_Si_vous_envisagez__de_changer_votre_solution__de_r_seau_d_affai_0_Layer0_0_MEMBER_33_FILL">
<path fill="#D82C26" stroke="none" d="
M 66.05 4
L 66.05 4.8 65.55 4.8 65.45 5.15 66.05 5.15 66.05 7.3
Q 66.05 7.65 66.25 7.95 66.5 8.2 66.85 8.2
L 67.2 8.15 67.55 8 67.5 7.7 66.95 7.85
Q 66.75 7.85 66.6 7.7 66.45 7.55 66.45 7.25
L 66.45 5.15 67.35 5.15 67.4 4.8 66.45 4.8 66.45 3.85 66.05 4 Z"/>
</g>

<g id="IT_300x250_FR_psd_Asset_Research_Phase_IT_Decisions_Makers__V10_2_Si_vous_envisagez__de_changer_votre_solution__de_r_seau_d_affai_0_Layer0_0_MEMBER_34_FILL">
<path fill="#D82C26" stroke="none" d="
M 68.6 4.8
L 68.2 4.8 68.2 8.1 68.6 8.1 68.6 4.8
M 68.1 3.5
L 68.2 3.7 68.4 3.8 68.6 3.7 68.7 3.5 68.6 3.3
Q 68.55 3.2 68.4 3.2 68.25 3.2 68.2 3.3
L 68.1 3.5 Z"/>
</g>

<g id="IT_300x250_FR_psd_Asset_Research_Phase_IT_Decisions_Makers__V10_2_Si_vous_envisagez__de_changer_votre_solution__de_r_seau_d_affai_0_Layer0_0_MEMBER_35_FILL">
<path fill="#D82C26" stroke="none" d="
M 72.8 5.55
Q 72.6 5.2 72.15 4.95 71.75 4.7 71.25 4.7 70.75 4.7 70.35 4.95 69.9 5.2 69.7 5.55 69.5 5.9 69.5 6.45 69.5 7 69.7 7.35 69.9 7.7 70.35 8 70.7 8.2 71.25 8.2 71.8 8.2 72.15 8 72.6 7.7 72.8 7.35 73 7 73 6.45 73 5.9 72.8 5.55
M 71.25 5.05
Q 71.7 5.05 71.95 5.25 72.15 5.35 72.45 5.75 72.6 6.05 72.6 6.45 72.6 6.85 72.45 7.15 72.35 7.45 71.95 7.65 71.7 7.85 71.25 7.85 70.8 7.85 70.55 7.65 70.25 7.5 70.05 7.15 69.9 6.85 69.9 6.45 69.9 6.05 70.05 5.75 70.35 5.35 70.55 5.25 70.8 5.05 71.25 5.05 Z"/>
</g>

<g id="IT_300x250_FR_psd_Asset_Research_Phase_IT_Decisions_Makers__V10_2_Si_vous_envisagez__de_changer_votre_solution__de_r_seau_d_affai_0_Layer0_0_MEMBER_36_FILL">
<path fill="#D82C26" stroke="none" d="
M 76.75 6.1
Q 76.75 5.55 76.45 5.1 76.15 4.7 75.5 4.7 75.15 4.7 74.8 4.95 74.45 5.15 74.3 5.55
L 74.25 4.8 73.9 4.8 73.9 8.1 74.35 8.1 74.35 6.45 74.45 5.7 74.85 5.2
Q 75.15 5.05 75.45 5.05 75.95 5.05 76.1 5.4 76.35 5.75 76.35 6.2
L 76.35 8.1 76.75 8.1 76.75 6.1 Z"/>
</g>

<g id="IT_300x250_FR_psd_Asset_Research_Phase_IT_Decisions_Makers__V10_2_Si_vous_envisagez__de_changer_votre_solution__de_r_seau_d_affai_0_Layer0_0_MEMBER_37_FILL">
<path fill="#D82C26" stroke="none" d="
M 3.8 10.8
L 3.4 10.9 3.4 13.65
Q 3.15 13.25 2.85 13.05 2.5 12.85 2.05 12.85 1.55 12.85 1.2 13.05 0.85 13.25 0.6 13.7 0.4 14.05 0.4 14.6 0.4 15.1 0.6 15.45 0.8 15.85 1.2 16.1 1.6 16.35 2.05 16.35 2.45 16.35 2.85 16.1 3.15 16 3.4 15.5
L 3.45 16.25 3.85 16.25 3.8 10.8
M 3.4 14.6
Q 3.4 14.95 3.25 15.3 3.1 15.55 2.8 15.8 2.4 16 2.1 16 1.8 16 1.4 15.8
L 0.95 15.3
Q 0.8 15 0.8 14.6 0.8 14.2 0.95 13.9
L 1.4 13.35
Q 1.7 13.2 2.1 13.2 2.5 13.2 2.8 13.35 3.15 13.6 3.25 13.9 3.4 14.2 3.4 14.6 Z"/>
</g>

<g id="IT_300x250_FR_psd_Asset_Research_Phase_IT_Decisions_Makers__V10_2_Si_vous_envisagez__de_changer_votre_solution__de_r_seau_d_affai_0_Layer0_0_MEMBER_38_FILL">
<path fill="#D82C26" stroke="none" d="
M 7.95 14.45
Q 7.95 14.15 7.75 13.65 7.6 13.3 7.2 13.05 6.85 12.85 6.35 12.85 5.85 12.85 5.5 13.05 5.2 13.25 4.95 13.65 4.7 14.15 4.7 14.55 4.7 15 4.95 15.5 5.2 15.9 5.55 16.1 5.95 16.35 6.4 16.35 7.15 16.35 7.75 15.9
L 7.65 15.55 7.15 15.9 6.45 16
Q 6 16 5.75 15.8 5.45 15.65 5.3 15.35
L 5.1 14.65 7.9 14.65 7.95 14.45
M 6.35 13.15
Q 6.9 13.15 7.2 13.5 7.55 13.85 7.55 14.35
L 5.15 14.35
Q 5.15 14.1 5.3 13.8 5.45 13.45 5.7 13.35 5.95 13.15 6.35 13.15 Z"/>
</g>

<g id="IT_300x250_FR_psd_Asset_Research_Phase_IT_Decisions_Makers__V10_2_Si_vous_envisagez__de_changer_votre_solution__de_r_seau_d_affai_0_Layer0_0_MEMBER_39_FILL">
<path fill="#D82C26" stroke="none" d="
M 11.55 13.2
L 11.85 13.25 11.9 12.9 11.55 12.85
Q 11.25 12.85 11 13.05 10.75 13.2 10.6 13.65
L 10.55 12.95 10.15 12.95 10.2 16.25 10.6 16.25 10.6 14.6
Q 10.6 14.1 10.85 13.6 11.1 13.2 11.55 13.2 Z"/>
</g>

<g id="IT_300x250_FR_psd_Asset_Research_Phase_IT_Decisions_Makers__V10_2_Si_vous_envisagez__de_changer_votre_solution__de_r_seau_d_affai_0_Layer0_0_MEMBER_40_FILL">
<path fill="#D82C26" stroke="none" d="
M 15.35 14.45
Q 15.35 14.05 15.2 13.65 14.95 13.25 14.65 13.05 14.3 12.85 13.8 12.85 13.3 12.85 12.95 13.05 12.6 13.3 12.35 13.65 12.15 14.25 12.15 14.55 12.15 15 12.4 15.5 12.55 15.8 13 16.1 13.4 16.35 13.85 16.35 14.65 16.35 15.15 15.9
L 15.1 15.55
Q 14.9 15.75 14.55 15.9
L 13.9 16
Q 13.45 16 13.2 15.8 12.9 15.65 12.75 15.35 12.55 14.85 12.55 14.65
L 15.35 14.65 15.35 14.45
M 14.65 13.5
Q 14.9 13.75 15 14.35
L 12.55 14.35 12.75 13.8
Q 12.8 13.5 13.15 13.35 13.4 13.15 13.8 13.15 14.35 13.15 14.65 13.5
M 14.25 11.25
L 13.5 12.25 13.85 12.25 14.7 11.25 14.25 11.25 Z"/>
</g>

<g id="IT_300x250_FR_psd_Asset_Research_Phase_IT_Decisions_Makers__V10_2_Si_vous_envisagez__de_changer_votre_solution__de_r_seau_d_affai_0_Layer0_0_MEMBER_41_FILL">
<path fill="#D82C26" stroke="none" d="
M 18.2 13.2
Q 18 13 17.75 12.95 17.55 12.85 17.15 12.85 16.8 12.85 16.65 12.95 16.35 13.05 16.2 13.25 16.05 13.5 16.05 13.75 16.05 14.15 16.3 14.3 16.5 14.5 17 14.65
L 17.7 15
Q 17.9 15.15 17.9 15.4 17.9 15.7 17.7 15.85 17.5 16 17.15 16 16.55 16 16.05 15.6
L 16 15.95 16.5 16.25 17.2 16.35
Q 17.45 16.35 17.75 16.2 18 16.1 18.15 15.9 18.3 15.7 18.3 15.35 18.3 15.05 18.05 14.8 17.8 14.55 17.3 14.4
L 16.65 14.1
Q 16.45 13.95 16.45 13.7 16.45 13.45 16.65 13.3 16.9 13.15 17.15 13.15
L 17.65 13.25 18.05 13.5 18.2 13.2 Z"/>
</g>

<g id="IT_300x250_FR_psd_Asset_Research_Phase_IT_Decisions_Makers__V10_2_Si_vous_envisagez__de_changer_votre_solution__de_r_seau_d_affai_0_Layer0_0_MEMBER_42_FILL">
<path fill="#D82C26" stroke="none" d="
M 22.15 14.65
L 22.15 14.45
Q 22.15 14 21.95 13.65 21.8 13.3 21.4 13.05 21.15 12.85 20.55 12.85 20.1 12.85 19.75 13.05 19.4 13.3 19.15 13.65 18.95 14.05 18.95 14.55 18.95 15.1 19.15 15.5 19.4 15.9 19.75 16.1 20.15 16.35 20.6 16.35 21.45 16.35 21.95 15.9
L 21.85 15.55
Q 21.75 15.7 21.35 15.9
L 20.65 16
Q 20.25 16 20 15.8 19.65 15.6 19.5 15.35 19.35 15 19.35 14.65
L 22.15 14.65
M 21.4 13.5
Q 21.75 13.8 21.75 14.35
L 19.35 14.35
Q 19.35 14.1 19.5 13.8 19.65 13.55 19.9 13.35 20.15 13.15 20.55 13.15 21.1 13.15 21.4 13.5 Z"/>
</g>

<g id="IT_300x250_FR_psd_Asset_Research_Phase_IT_Decisions_Makers__V10_2_Si_vous_envisagez__de_changer_votre_solution__de_r_seau_d_affai_0_Layer0_0_MEMBER_43_FILL">
<path fill="#D82C26" stroke="none" d="
M 25.5 16.25
L 25.45 14.1
Q 25.45 13.5 25.1 13.15 24.8 12.85 24.15 12.85 23.7 12.85 23.5 12.95 23.15 13.05 22.95 13.25
L 23.05 13.55 23.55 13.3 24.1 13.15
Q 24.55 13.15 24.8 13.4 25.05 13.65 25.05 14.05
L 25.05 14.25 24.65 14.25
Q 22.75 14.25 22.75 15.35 22.75 15.8 23.05 16.1 23.4 16.35 23.8 16.35 24.05 16.35 24.55 16.15 24.9 15.95 25.05 15.6
L 25.1 15.95 25.1 16.25 25.5 16.25
M 25.05 14.85
Q 25.05 15.2 24.9 15.4 24.85 15.7 24.5 15.85 24.3 16 23.9 16 23.6 16 23.35 15.85 23.15 15.7 23.15 15.35 23.15 14.55 24.7 14.55
L 25.05 14.55 25.05 14.85 Z"/>
</g>

<g id="IT_300x250_FR_psd_Asset_Research_Phase_IT_Decisions_Makers__V10_2_Si_vous_envisagez__de_changer_votre_solution__de_r_seau_d_affai_0_Layer0_0_MEMBER_44_FILL">
<path fill="#D82C26" stroke="none" d="
M 28.9 14.6
Q 28.9 15.05 28.75 15.35
L 28.35 15.85
Q 28.15 16 27.8 16 27.25 16 27.1 15.65 26.9 15.4 26.9 14.85
L 26.9 12.95 26.45 12.95 26.45 14.95
Q 26.45 15.5 26.75 15.95 27.05 16.35 27.7 16.35 28.05 16.35 28.4 16.1 28.7 15.9 28.9 15.55
L 28.95 16.25 29.35 16.25 29.3 15.85 29.3 12.95 28.9 12.95 28.9 14.6 Z"/>
</g>

<g id="IT_300x250_FR_psd_Asset_Research_Phase_IT_Decisions_Makers__V10_2_Si_vous_envisagez__de_changer_votre_solution__de_r_seau_d_affai_0_Layer0_0_MEMBER_45_FILL">
<path fill="#D82C26" stroke="none" d="
M 35 10.8
L 34.6 10.9 34.6 13.65 34.55 13.65
Q 34.4 13.3 34 13.05 33.65 12.85 33.25 12.85 32.7 12.85 32.35 13.05 31.95 13.3 31.8 13.7 31.55 14.1 31.55 14.6 31.55 15.05 31.8 15.45 31.95 15.85 32.35 16.1 32.75 16.35 33.25 16.35 33.6 16.35 34 16.1 34.4 15.95 34.6 15.5
L 34.65 16.25 35.05 16.25 35 10.8
M 34.6 14.6
Q 34.6 14.95 34.45 15.3
L 33.95 15.8
Q 33.55 16 33.3 16 33 16 32.6 15.8 32.3 15.55 32.15 15.3 32 15 32 14.6 32 14.2 32.15 13.9 32.25 13.6 32.6 13.35 32.9 13.2 33.3 13.2 33.65 13.2 33.95 13.35 34.25 13.6 34.45 13.9 34.6 14.2 34.6 14.6 Z"/>
</g>

<g id="IT_300x250_FR_psd_Asset_Research_Phase_IT_Decisions_Makers__V10_2_Si_vous_envisagez__de_changer_votre_solution__de_r_seau_d_affai_0_Layer0_0_MEMBER_46_FILL">
<path fill="#D82C26" stroke="none" d="
M 36.75 11.35
L 36.5 11.25
Q 36.35 11.25 36.3 11.35
L 36.2 11.55 36.3 11.8 36.5 11.9 36.35 12.35 36.05 12.75 36.2 12.85
Q 36.8 12.25 36.8 11.65
L 36.75 11.35 Z"/>
</g>

<g id="IT_300x250_FR_psd_Asset_Research_Phase_IT_Decisions_Makers__V10_2_Si_vous_envisagez__de_changer_votre_solution__de_r_seau_d_affai_0_Layer0_0_MEMBER_47_FILL">
<path fill="#D82C26" stroke="none" d="
M 38 13.3
Q 38.25 13.15 38.55 13.15 38.9 13.15 39.25 13.4 39.5 13.65 39.5 14.05
L 39.5 14.25 39.1 14.25
Q 37.2 14.25 37.2 15.35 37.2 15.8 37.5 16.1 37.85 16.35 38.25 16.35 38.5 16.35 39 16.15 39.35 15.9 39.45 15.6
L 39.5 15.6 39.5 15.95 39.55 16.25 39.9 16.25 39.85 14.1
Q 39.85 13.45 39.55 13.15 39.2 12.85 38.6 12.85 38.15 12.85 37.95 12.95 37.6 13.05 37.35 13.25
L 37.5 13.55 38 13.3
M 39.5 14.85
Q 39.5 15.2 39.35 15.4 39.2 15.75 38.95 15.85 38.75 16 38.3 16 38.05 16 37.8 15.85 37.6 15.7 37.6 15.35 37.6 14.55 39.15 14.55
L 39.5 14.55 39.5 14.85 Z"/>
</g>

<g id="IT_300x250_FR_psd_Asset_Research_Phase_IT_Decisions_Makers__V10_2_Si_vous_envisagez__de_changer_votre_solution__de_r_seau_d_affai_0_Layer0_0_MEMBER_48_FILL">
<path fill="#D82C26" stroke="none" d="
M 42.8 10.9
L 42.2 10.8
Q 41.7 10.8 41.4 11.1 41.15 11.45 41.15 11.95
L 41.15 12.95 40.55 12.95 40.45 13.25 41.15 13.25 41.15 16.25 41.55 16.25 41.55 13.25 43.3 13.25 43.3 16.25 43.7 16.25 43.7 13.25 44.45 13.25 44.55 12.95 43.7 12.95 43.7 12
Q 43.7 11.65 43.85 11.4 44 11.15 44.35 11.15
L 44.85 11.25 44.9 10.9 44.3 10.8
Q 43.85 10.8 43.55 11.1 43.25 11.4 43.25 11.95
L 43.25 12.95 41.55 12.95 41.55 12
Q 41.55 11.65 41.7 11.4 41.85 11.15 42.2 11.15
L 42.75 11.25 42.8 10.9 Z"/>
</g>

<g id="IT_300x250_FR_psd_Asset_Research_Phase_IT_Decisions_Makers__V10_2_Si_vous_envisagez__de_changer_votre_solution__de_r_seau_d_affai_0_Layer0_0_MEMBER_49_FILL">
<path fill="#D82C26" stroke="none" d="
M 46.4 12.85
Q 45.9 12.85 45.7 12.95 45.35 13.05 45.15 13.25
L 45.25 13.55 45.75 13.3 46.3 13.15
Q 46.75 13.15 47 13.4 47.25 13.6 47.25 14.05
L 47.25 14.25 46.85 14.25
Q 44.95 14.25 44.95 15.35 44.95 15.8 45.3 16.1 45.65 16.35 46 16.35 46.35 16.35 46.75 16.15 47.1 15.95 47.25 15.6
L 47.3 15.6 47.3 16.25 47.7 16.25 47.65 14.1
Q 47.65 13.45 47.3 13.15 47 12.85 46.4 12.85
M 47.25 14.85
L 47.15 15.4
Q 47 15.7 46.75 15.85 46.45 16 46.1 16 45.75 16 45.6 15.85 45.35 15.7 45.35 15.35 45.35 14.55 46.9 14.55
L 47.25 14.55 47.25 14.85 Z"/>
</g>

<g id="IT_300x250_FR_psd_Asset_Research_Phase_IT_Decisions_Makers__V10_2_Si_vous_envisagez__de_changer_votre_solution__de_r_seau_d_affai_0_Layer0_0_MEMBER_50_FILL">
<path fill="#D82C26" stroke="none" d="
M 48.75 12.95
L 48.75 16.25 49.15 16.25 49.15 12.95 48.75 12.95
M 48.75 11.8
Q 48.8 11.9 48.95 11.9 49.1 11.9 49.15 11.8
L 49.25 11.6 49.15 11.4 48.95 11.3 48.75 11.4
Q 48.65 11.45 48.65 11.6 48.65 11.75 48.75 11.8 Z"/>
</g>

<g id="IT_300x250_FR_psd_Asset_Research_Phase_IT_Decisions_Makers__V10_2_Si_vous_envisagez__de_changer_votre_solution__de_r_seau_d_affai_0_Layer0_0_MEMBER_51_FILL">
<path fill="#D82C26" stroke="none" d="
M 50.25 12.95
L 50.3 16.25 50.7 16.25 50.7 14.6
Q 50.7 14.1 50.95 13.6 51.2 13.2 51.65 13.2
L 51.9 13.25 52 12.9 51.65 12.85
Q 51.3 12.85 51.1 13.05 50.75 13.3 50.7 13.65
L 50.65 13.65 50.65 12.95 50.25 12.95 Z"/>
</g>

<g id="IT_300x250_FR_psd_Asset_Research_Phase_IT_Decisions_Makers__V10_2_Si_vous_envisagez__de_changer_votre_solution__de_r_seau_d_affai_0_Layer0_0_MEMBER_52_FILL">
<path fill="#D82C26" stroke="none" d="
M 54.75 13.05
Q 54.4 12.85 53.9 12.85 53.4 12.85 53.05 13.05 52.7 13.3 52.45 13.65 52.25 14.05 52.25 14.55 52.25 15.1 52.45 15.5 52.7 15.9 53.05 16.1 53.55 16.35 53.95 16.35 54.75 16.35 55.25 15.9
L 55.2 15.55 54.65 15.9 54 16
Q 53.55 16 53.3 15.8 53 15.65 52.85 15.35 52.65 15 52.65 14.65
L 55.45 14.65 55.45 14.45
Q 55.45 14.05 55.3 13.65 55.05 13.25 54.75 13.05
M 54.75 13.5
Q 55.05 13.8 55.05 14.35
L 52.65 14.35
Q 52.65 14.1 52.8 13.8 52.95 13.5 53.25 13.35 53.45 13.15 53.9 13.15 54.4 13.15 54.75 13.5 Z"/>
</g>

<g id="IT_300x250_FR_psd_Asset_Research_Phase_IT_Decisions_Makers__V10_2_Si_vous_envisagez__de_changer_votre_solution__de_r_seau_d_affai_0_Layer0_0_MEMBER_53_FILL">
<path fill="#D82C26" stroke="none" d="
M 57.25 13.15
L 57.75 13.25 58.1 13.5 58.3 13.2 57.85 12.95
Q 57.65 12.85 57.25 12.85 56.9 12.85 56.7 12.95 56.45 13.05 56.3 13.25 56.15 13.5 56.15 13.75 56.15 14.2 56.4 14.3 56.6 14.5 57.1 14.65
L 57.8 15
Q 58 15.15 58 15.4 58 15.65 57.8 15.85 57.6 16 57.25 16 56.65 16 56.15 15.6
L 56.1 15.95 56.6 16.25 57.25 16.35
Q 57.6 16.35 57.8 16.2 58.1 16.15 58.25 15.9 58.4 15.7 58.4 15.35 58.4 15.05 58.15 14.8 57.95 14.6 57.4 14.4
L 56.7 14.1
Q 56.55 13.95 56.55 13.7 56.55 13.45 56.75 13.3 57 13.15 57.25 13.15 Z"/>
</g>

<g id="IT_300x250_FR_psd_Asset_Research_Phase_IT_Decisions_Makers__V10_2_Si_vous_envisagez__de_changer_votre_solution__de_r_seau_d_affai_0_Layer0_0_MEMBER_54_FILL">
<path fill="#D82C26" stroke="none" d="
M 59.9 15.85
L 59.8 15.6
Q 59.75 15.5 59.55 15.5
L 59.35 15.55 59.25 15.8 59.35 16
Q 59.4 16.1 59.55 16.1
L 59.4 16.55 59.05 16.95 59.25 17.05
Q 59.9 16.4 59.9 15.85 Z"/>
</g>
</defs>

<g transform="matrix( 1, 0, 0, 1, -75,-9) ">
<g transform="matrix( 1, 0, 0, 1, 70,24) ">
<g transform="matrix( 1, 0, 0, 1, 26,8) ">
<g transform="matrix( 2.815704345703125, 0, 0, 2.832611083984375, -0.85,14.6) ">
<use xlink:href="#IT_300x250_FR_psd_Asset_Research_Phase_IT_Decisions_Makers__V10_2_Si_vous_envisagez__de_changer_votre_solution__de_r_seau_d_affai_0_Layer0_0_MEMBER_0_FILL"/>
</g>

<g transform="matrix( 2.815704345703125, 0, 0, 2.832611083984375, -0.85,14.6) ">
<use xlink:href="#IT_300x250_FR_psd_Asset_Research_Phase_IT_Decisions_Makers__V10_2_Si_vous_envisagez__de_changer_votre_solution__de_r_seau_d_affai_0_Layer0_0_MEMBER_1_FILL"/>
</g>

<g transform="matrix( 2.815704345703125, 0, 0, 2.832611083984375, -0.85,14.6) ">
<use xlink:href="#IT_300x250_FR_psd_Asset_Research_Phase_IT_Decisions_Makers__V10_2_Si_vous_envisagez__de_changer_votre_solution__de_r_seau_d_affai_0_Layer0_0_MEMBER_2_FILL"/>
</g>

<g transform="matrix( 2.815704345703125, 0, 0, 2.832611083984375, -0.85,14.6) ">
<use xlink:href="#IT_300x250_FR_psd_Asset_Research_Phase_IT_Decisions_Makers__V10_2_Si_vous_envisagez__de_changer_votre_solution__de_r_seau_d_affai_0_Layer0_0_MEMBER_3_FILL"/>
</g>

<g transform="matrix( 2.815704345703125, 0, 0, 2.832611083984375, -0.85,14.6) ">
<use xlink:href="#IT_300x250_FR_psd_Asset_Research_Phase_IT_Decisions_Makers__V10_2_Si_vous_envisagez__de_changer_votre_solution__de_r_seau_d_affai_0_Layer0_0_MEMBER_4_FILL"/>
</g>

<g transform="matrix( 2.815704345703125, 0, 0, 2.832611083984375, -0.85,14.6) ">
<use xlink:href="#IT_300x250_FR_psd_Asset_Research_Phase_IT_Decisions_Makers__V10_2_Si_vous_envisagez__de_changer_votre_solution__de_r_seau_d_affai_0_Layer0_0_MEMBER_5_FILL"/>
</g>

<g transform="matrix( 2.815704345703125, 0, 0, 2.832611083984375, -0.85,14.6) ">
<use xlink:href="#IT_300x250_FR_psd_Asset_Research_Phase_IT_Decisions_Makers__V10_2_Si_vous_envisagez__de_changer_votre_solution__de_r_seau_d_affai_0_Layer0_0_MEMBER_6_FILL"/>
</g>

<g transform="matrix( 2.815704345703125, 0, 0, 2.832611083984375, -0.85,14.6) ">
<use xlink:href="#IT_300x250_FR_psd_Asset_Research_Phase_IT_Decisions_Makers__V10_2_Si_vous_envisagez__de_changer_votre_solution__de_r_seau_d_affai_0_Layer0_0_MEMBER_7_FILL"/>
</g>

<g transform="matrix( 2.815704345703125, 0, 0, 2.832611083984375, -0.85,14.6) ">
<use xlink:href="#IT_300x250_FR_psd_Asset_Research_Phase_IT_Decisions_Makers__V10_2_Si_vous_envisagez__de_changer_votre_solution__de_r_seau_d_affai_0_Layer0_0_MEMBER_8_FILL"/>
</g>

<g transform="matrix( 2.815704345703125, 0, 0, 2.832611083984375, -0.85,14.6) ">
<use xlink:href="#IT_300x250_FR_psd_Asset_Research_Phase_IT_Decisions_Makers__V10_2_Si_vous_envisagez__de_changer_votre_solution__de_r_seau_d_affai_0_Layer0_0_MEMBER_9_FILL"/>
</g>

<g transform="matrix( 2.815704345703125, 0, 0, 2.832611083984375, -0.85,14.6) ">
<use xlink:href="#IT_300x250_FR_psd_Asset_Research_Phase_IT_Decisions_Makers__V10_2_Si_vous_envisagez__de_changer_votre_solution__de_r_seau_d_affai_0_Layer0_0_MEMBER_10_FILL"/>
</g>

<g transform="matrix( 2.815704345703125, 0, 0, 2.832611083984375, -0.85,14.6) ">
<use xlink:href="#IT_300x250_FR_psd_Asset_Research_Phase_IT_Decisions_Makers__V10_2_Si_vous_envisagez__de_changer_votre_solution__de_r_seau_d_affai_0_Layer0_0_MEMBER_11_FILL"/>
</g>

<g transform="matrix( 2.815704345703125, 0, 0, 2.832611083984375, -0.85,14.6) ">
<use xlink:href="#IT_300x250_FR_psd_Asset_Research_Phase_IT_Decisions_Makers__V10_2_Si_vous_envisagez__de_changer_votre_solution__de_r_seau_d_affai_0_Layer0_0_MEMBER_12_FILL"/>
</g>

<g transform="matrix( 2.815704345703125, 0, 0, 2.832611083984375, -0.85,14.6) ">
<use xlink:href="#IT_300x250_FR_psd_Asset_Research_Phase_IT_Decisions_Makers__V10_2_Si_vous_envisagez__de_changer_votre_solution__de_r_seau_d_affai_0_Layer0_0_MEMBER_13_FILL"/>
</g>

<g transform="matrix( 2.815704345703125, 0, 0, 2.832611083984375, -0.85,14.6) ">
<use xlink:href="#IT_300x250_FR_psd_Asset_Research_Phase_IT_Decisions_Makers__V10_2_Si_vous_envisagez__de_changer_votre_solution__de_r_seau_d_affai_0_Layer0_0_MEMBER_14_FILL"/>
</g>

<g transform="matrix( 2.815704345703125, 0, 0, 2.832611083984375, -0.85,14.6) ">
<use xlink:href="#IT_300x250_FR_psd_Asset_Research_Phase_IT_Decisions_Makers__V10_2_Si_vous_envisagez__de_changer_votre_solution__de_r_seau_d_affai_0_Layer0_0_MEMBER_15_FILL"/>
</g>

<g transform="matrix( 2.815704345703125, 0, 0, 2.832611083984375, -0.85,14.6) ">
<use xlink:href="#IT_300x250_FR_psd_Asset_Research_Phase_IT_Decisions_Makers__V10_2_Si_vous_envisagez__de_changer_votre_solution__de_r_seau_d_affai_0_Layer0_0_MEMBER_16_FILL"/>
</g>

<g transform="matrix( 2.815704345703125, 0, 0, 2.832611083984375, -0.85,14.6) ">
<use xlink:href="#IT_300x250_FR_psd_Asset_Research_Phase_IT_Decisions_Makers__V10_2_Si_vous_envisagez__de_changer_votre_solution__de_r_seau_d_affai_0_Layer0_0_MEMBER_17_FILL"/>
</g>

<g transform="matrix( 2.815704345703125, 0, 0, 2.832611083984375, -0.85,14.6) ">
<use xlink:href="#IT_300x250_FR_psd_Asset_Research_Phase_IT_Decisions_Makers__V10_2_Si_vous_envisagez__de_changer_votre_solution__de_r_seau_d_affai_0_Layer0_0_MEMBER_18_FILL"/>
</g>

<g transform="matrix( 2.815704345703125, 0, 0, 2.832611083984375, -0.85,14.6) ">
<use xlink:href="#IT_300x250_FR_psd_Asset_Research_Phase_IT_Decisions_Makers__V10_2_Si_vous_envisagez__de_changer_votre_solution__de_r_seau_d_affai_0_Layer0_0_MEMBER_19_FILL"/>
</g>

<g transform="matrix( 2.815704345703125, 0, 0, 2.832611083984375, -0.85,14.6) ">
<use xlink:href="#IT_300x250_FR_psd_Asset_Research_Phase_IT_Decisions_Makers__V10_2_Si_vous_envisagez__de_changer_votre_solution__de_r_seau_d_affai_0_Layer0_0_MEMBER_20_FILL"/>
</g>

<g transform="matrix( 2.815704345703125, 0, 0, 2.832611083984375, -0.85,14.6) ">
<use xlink:href="#IT_300x250_FR_psd_Asset_Research_Phase_IT_Decisions_Makers__V10_2_Si_vous_envisagez__de_changer_votre_solution__de_r_seau_d_affai_0_Layer0_0_MEMBER_21_FILL"/>
</g>

<g transform="matrix( 2.815704345703125, 0, 0, 2.832611083984375, -0.85,14.6) ">
<use xlink:href="#IT_300x250_FR_psd_Asset_Research_Phase_IT_Decisions_Makers__V10_2_Si_vous_envisagez__de_changer_votre_solution__de_r_seau_d_affai_0_Layer0_0_MEMBER_22_FILL"/>
</g>

<g transform="matrix( 2.815704345703125, 0, 0, 2.832611083984375, -0.85,14.6) ">
<use xlink:href="#IT_300x250_FR_psd_Asset_Research_Phase_IT_Decisions_Makers__V10_2_Si_vous_envisagez__de_changer_votre_solution__de_r_seau_d_affai_0_Layer0_0_MEMBER_23_FILL"/>
</g>

<g transform="matrix( 2.815704345703125, 0, 0, 2.832611083984375, -0.85,14.6) ">
<use xlink:href="#IT_300x250_FR_psd_Asset_Research_Phase_IT_Decisions_Makers__V10_2_Si_vous_envisagez__de_changer_votre_solution__de_r_seau_d_affai_0_Layer0_0_MEMBER_24_FILL"/>
</g>

<g transform="matrix( 2.815704345703125, 0, 0, 2.832611083984375, -0.85,14.6) ">
<use xlink:href="#IT_300x250_FR_psd_Asset_Research_Phase_IT_Decisions_Makers__V10_2_Si_vous_envisagez__de_changer_votre_solution__de_r_seau_d_affai_0_Layer0_0_MEMBER_25_FILL"/>
</g>

<g transform="matrix( 2.815704345703125, 0, 0, 2.832611083984375, -0.85,14.6) ">
<use xlink:href="#IT_300x250_FR_psd_Asset_Research_Phase_IT_Decisions_Makers__V10_2_Si_vous_envisagez__de_changer_votre_solution__de_r_seau_d_affai_0_Layer0_0_MEMBER_26_FILL"/>
</g>

<g transform="matrix( 2.815704345703125, 0, 0, 2.832611083984375, -0.85,14.6) ">
<use xlink:href="#IT_300x250_FR_psd_Asset_Research_Phase_IT_Decisions_Makers__V10_2_Si_vous_envisagez__de_changer_votre_solution__de_r_seau_d_affai_0_Layer0_0_MEMBER_27_FILL"/>
</g>

<g transform="matrix( 2.815704345703125, 0, 0, 2.832611083984375, -0.85,14.6) ">
<use xlink:href="#IT_300x250_FR_psd_Asset_Research_Phase_IT_Decisions_Makers__V10_2_Si_vous_envisagez__de_changer_votre_solution__de_r_seau_d_affai_0_Layer0_0_MEMBER_28_FILL"/>
</g>

<g transform="matrix( 2.815704345703125, 0, 0, 2.832611083984375, -0.85,14.6) ">
<use xlink:href="#IT_300x250_FR_psd_Asset_Research_Phase_IT_Decisions_Makers__V10_2_Si_vous_envisagez__de_changer_votre_solution__de_r_seau_d_affai_0_Layer0_0_MEMBER_29_FILL"/>
</g>

<g transform="matrix( 2.815704345703125, 0, 0, 2.832611083984375, -0.85,14.6) ">
<use xlink:href="#IT_300x250_FR_psd_Asset_Research_Phase_IT_Decisions_Makers__V10_2_Si_vous_envisagez__de_changer_votre_solution__de_r_seau_d_affai_0_Layer0_0_MEMBER_30_FILL"/>
</g>

<g transform="matrix( 2.815704345703125, 0, 0, 2.832611083984375, -0.85,14.6) ">
<use xlink:href="#IT_300x250_FR_psd_Asset_Research_Phase_IT_Decisions_Makers__V10_2_Si_vous_envisagez__de_changer_votre_solution__de_r_seau_d_affai_0_Layer0_0_MEMBER_31_FILL"/>
</g>

<g transform="matrix( 2.815704345703125, 0, 0, 2.832611083984375, -0.85,14.6) ">
<use xlink:href="#IT_300x250_FR_psd_Asset_Research_Phase_IT_Decisions_Makers__V10_2_Si_vous_envisagez__de_changer_votre_solution__de_r_seau_d_affai_0_Layer0_0_MEMBER_32_FILL"/>
</g>

<g transform="matrix( 2.815704345703125, 0, 0, 2.832611083984375, -0.85,14.6) ">
<use xlink:href="#IT_300x250_FR_psd_Asset_Research_Phase_IT_Decisions_Makers__V10_2_Si_vous_envisagez__de_changer_votre_solution__de_r_seau_d_affai_0_Layer0_0_MEMBER_33_FILL"/>
</g>

<g transform="matrix( 2.815704345703125, 0, 0, 2.832611083984375, -0.85,14.6) ">
<use xlink:href="#IT_300x250_FR_psd_Asset_Research_Phase_IT_Decisions_Makers__V10_2_Si_vous_envisagez__de_changer_votre_solution__de_r_seau_d_affai_0_Layer0_0_MEMBER_34_FILL"/>
</g>

<g transform="matrix( 2.815704345703125, 0, 0, 2.832611083984375, -0.85,14.6) ">
<use xlink:href="#IT_300x250_FR_psd_Asset_Research_Phase_IT_Decisions_Makers__V10_2_Si_vous_envisagez__de_changer_votre_solution__de_r_seau_d_affai_0_Layer0_0_MEMBER_35_FILL"/>
</g>

<g transform="matrix( 2.815704345703125, 0, 0, 2.832611083984375, -0.85,14.6) ">
<use xlink:href="#IT_300x250_FR_psd_Asset_Research_Phase_IT_Decisions_Makers__V10_2_Si_vous_envisagez__de_changer_votre_solution__de_r_seau_d_affai_0_Layer0_0_MEMBER_36_FILL"/>
</g>

<g transform="matrix( 2.815704345703125, 0, 0, 2.832611083984375, -0.85,14.6) ">
<use xlink:href="#IT_300x250_FR_psd_Asset_Research_Phase_IT_Decisions_Makers__V10_2_Si_vous_envisagez__de_changer_votre_solution__de_r_seau_d_affai_0_Layer0_0_MEMBER_37_FILL"/>
</g>

<g transform="matrix( 2.815704345703125, 0, 0, 2.832611083984375, -0.85,14.6) ">
<use xlink:href="#IT_300x250_FR_psd_Asset_Research_Phase_IT_Decisions_Makers__V10_2_Si_vous_envisagez__de_changer_votre_solution__de_r_seau_d_affai_0_Layer0_0_MEMBER_38_FILL"/>
</g>

<g transform="matrix( 2.815704345703125, 0, 0, 2.832611083984375, -0.85,14.6) ">
<use xlink:href="#IT_300x250_FR_psd_Asset_Research_Phase_IT_Decisions_Makers__V10_2_Si_vous_envisagez__de_changer_votre_solution__de_r_seau_d_affai_0_Layer0_0_MEMBER_39_FILL"/>
</g>

<g transform="matrix( 2.815704345703125, 0, 0, 2.832611083984375, -0.85,14.6) ">
<use xlink:href="#IT_300x250_FR_psd_Asset_Research_Phase_IT_Decisions_Makers__V10_2_Si_vous_envisagez__de_changer_votre_solution__de_r_seau_d_affai_0_Layer0_0_MEMBER_40_FILL"/>
</g>

<g transform="matrix( 2.815704345703125, 0, 0, 2.832611083984375, -0.85,14.6) ">
<use xlink:href="#IT_300x250_FR_psd_Asset_Research_Phase_IT_Decisions_Makers__V10_2_Si_vous_envisagez__de_changer_votre_solution__de_r_seau_d_affai_0_Layer0_0_MEMBER_41_FILL"/>
</g>

<g transform="matrix( 2.815704345703125, 0, 0, 2.832611083984375, -0.85,14.6) ">
<use xlink:href="#IT_300x250_FR_psd_Asset_Research_Phase_IT_Decisions_Makers__V10_2_Si_vous_envisagez__de_changer_votre_solution__de_r_seau_d_affai_0_Layer0_0_MEMBER_42_FILL"/>
</g>

<g transform="matrix( 2.815704345703125, 0, 0, 2.832611083984375, -0.85,14.6) ">
<use xlink:href="#IT_300x250_FR_psd_Asset_Research_Phase_IT_Decisions_Makers__V10_2_Si_vous_envisagez__de_changer_votre_solution__de_r_seau_d_affai_0_Layer0_0_MEMBER_43_FILL"/>
</g>

<g transform="matrix( 2.815704345703125, 0, 0, 2.832611083984375, -0.85,14.6) ">
<use xlink:href="#IT_300x250_FR_psd_Asset_Research_Phase_IT_Decisions_Makers__V10_2_Si_vous_envisagez__de_changer_votre_solution__de_r_seau_d_affai_0_Layer0_0_MEMBER_44_FILL"/>
</g>

<g transform="matrix( 2.815704345703125, 0, 0, 2.832611083984375, -0.85,14.6) ">
<use xlink:href="#IT_300x250_FR_psd_Asset_Research_Phase_IT_Decisions_Makers__V10_2_Si_vous_envisagez__de_changer_votre_solution__de_r_seau_d_affai_0_Layer0_0_MEMBER_45_FILL"/>
</g>

<g transform="matrix( 2.815704345703125, 0, 0, 2.832611083984375, -0.85,14.6) ">
<use xlink:href="#IT_300x250_FR_psd_Asset_Research_Phase_IT_Decisions_Makers__V10_2_Si_vous_envisagez__de_changer_votre_solution__de_r_seau_d_affai_0_Layer0_0_MEMBER_46_FILL"/>
</g>

<g transform="matrix( 2.815704345703125, 0, 0, 2.832611083984375, -0.85,14.6) ">
<use xlink:href="#IT_300x250_FR_psd_Asset_Research_Phase_IT_Decisions_Makers__V10_2_Si_vous_envisagez__de_changer_votre_solution__de_r_seau_d_affai_0_Layer0_0_MEMBER_47_FILL"/>
</g>

<g transform="matrix( 2.815704345703125, 0, 0, 2.832611083984375, -0.85,14.6) ">
<use xlink:href="#IT_300x250_FR_psd_Asset_Research_Phase_IT_Decisions_Makers__V10_2_Si_vous_envisagez__de_changer_votre_solution__de_r_seau_d_affai_0_Layer0_0_MEMBER_48_FILL"/>
</g>

<g transform="matrix( 2.815704345703125, 0, 0, 2.832611083984375, -0.85,14.6) ">
<use xlink:href="#IT_300x250_FR_psd_Asset_Research_Phase_IT_Decisions_Makers__V10_2_Si_vous_envisagez__de_changer_votre_solution__de_r_seau_d_affai_0_Layer0_0_MEMBER_49_FILL"/>
</g>

<g transform="matrix( 2.815704345703125, 0, 0, 2.832611083984375, -0.85,14.6) ">
<use xlink:href="#IT_300x250_FR_psd_Asset_Research_Phase_IT_Decisions_Makers__V10_2_Si_vous_envisagez__de_changer_votre_solution__de_r_seau_d_affai_0_Layer0_0_MEMBER_50_FILL"/>
</g>

<g transform="matrix( 2.815704345703125, 0, 0, 2.832611083984375, -0.85,14.6) ">
<use xlink:href="#IT_300x250_FR_psd_Asset_Research_Phase_IT_Decisions_Makers__V10_2_Si_vous_envisagez__de_changer_votre_solution__de_r_seau_d_affai_0_Layer0_0_MEMBER_51_FILL"/>
</g>

<g transform="matrix( 2.815704345703125, 0, 0, 2.832611083984375, -0.85,14.6) ">
<use xlink:href="#IT_300x250_FR_psd_Asset_Research_Phase_IT_Decisions_Makers__V10_2_Si_vous_envisagez__de_changer_votre_solution__de_r_seau_d_affai_0_Layer0_0_MEMBER_52_FILL"/>
</g>

<g transform="matrix( 2.815704345703125, 0, 0, 2.832611083984375, -0.85,14.6) ">
<use xlink:href="#IT_300x250_FR_psd_Asset_Research_Phase_IT_Decisions_Makers__V10_2_Si_vous_envisagez__de_changer_votre_solution__de_r_seau_d_affai_0_Layer0_0_MEMBER_53_FILL"/>
</g>

<g transform="matrix( 2.815704345703125, 0, 0, 2.832611083984375, -0.85,14.6) ">
<use xlink:href="#IT_300x250_FR_psd_Asset_Research_Phase_IT_Decisions_Makers__V10_2_Si_vous_envisagez__de_changer_votre_solution__de_r_seau_d_affai_0_Layer0_0_MEMBER_54_FILL"/>
</g>
</g>
</g>
</g>
</svg>
