
<svg xmlns="http://www.w3.org/2000/svg" version="1.1" xmlns:xlink="http://www.w3.org/1999/xlink" preserveAspectRatio="none" x="0px" y="0px" width="728px" height="90px" viewBox="0 0 728 90">
<defs>
<g id="IT_728x90_psd_Asset_4_ManagedWiFi_IT_Research_DM10_2_If_you_re_considering_changing_your__businesses_networking_solu_0_Layer0_0_MEMBER_0_FILL">
<path fill="#D82C26" stroke="none" d="
M 1.4 -6.35
L 0.85 -6.35 0.85 0 1.4 0 1.4 -6.35 Z"/>
</g>

<g id="IT_728x90_psd_Asset_4_ManagedWiFi_IT_Research_DM10_2_If_you_re_considering_changing_your__businesses_networking_solu_0_Layer0_0_MEMBER_1_FILL">
<path fill="#D82C26" stroke="none" d="
M 5.4 -6.4
L 5.45 -6.8 5.1 -6.9 4.7 -6.9
Q 4.05 -6.9 3.75 -6.55 3.4 -6.2 3.4 -5.4
L 3.4 -4.2 2.6 -4.2 2.5 -3.8 3.4 -3.8 3.4 0 3.9 0 3.9 -3.8 4.9 -3.8 5 -4.2 3.9 -4.2 3.9 -5.4
Q 3.9 -5.9 4.1 -6.15 4.35 -6.45 4.75 -6.45
L 5.4 -6.4 Z"/>
</g>

<g id="IT_728x90_psd_Asset_4_ManagedWiFi_IT_Research_DM10_2_If_you_re_considering_changing_your__businesses_networking_solu_0_Layer0_0_MEMBER_2_FILL">
<path fill="#D82C26" stroke="none" d="
M 7.9 -4.2
L 7.3 -4.2 9.05 0.05 8.75 0.9
Q 8.6 1.35 8.3 1.5 8 1.7 7.55 1.7
L 7.7 2.15
Q 8.25 2.15 8.65 1.9 9.05 1.6 9.25 1.05
L 11.2 -4.2 10.6 -4.2 9.35 -0.55 7.9 -4.2 Z"/>
</g>

<g id="IT_728x90_psd_Asset_4_ManagedWiFi_IT_Research_DM10_2_If_you_re_considering_changing_your__businesses_networking_solu_0_Layer0_0_MEMBER_3_FILL">
<path fill="#D82C26" stroke="none" d="
M 14.05 -4.35
Q 13.45 -4.35 12.9 -4.05 12.4 -3.75 12.1 -3.25 11.8 -2.8 11.8 -2.1 11.8 -1.45 12.1 -0.95 12.4 -0.45 12.9 -0.15 13.45 0.15 14.05 0.15 14.7 0.15 15.2 -0.15 15.7 -0.45 16 -0.95 16.3 -1.45 16.3 -2.1 16.3 -2.8 16 -3.25 15.7 -3.75 15.2 -4.05 14.7 -4.35 14.05 -4.35
M 14.05 -3.9
Q 14.55 -3.9 14.95 -3.65 15.35 -3.4 15.55 -3 15.75 -2.65 15.75 -2.1 15.75 -1.6 15.55 -1.2 15.35 -0.85 14.95 -0.55 14.55 -0.3 14.05 -0.3 13.55 -0.3 13.15 -0.55 12.8 -0.8 12.55 -1.2 12.35 -1.6 12.35 -2.1 12.35 -2.65 12.55 -3 12.8 -3.45 13.15 -3.65 13.55 -3.9 14.05 -3.9 Z"/>
</g>

<g id="IT_728x90_psd_Asset_4_ManagedWiFi_IT_Research_DM10_2_If_you_re_considering_changing_your__businesses_networking_solu_0_Layer0_0_MEMBER_4_FILL">
<path fill="#D82C26" stroke="none" d="
M 17.55 -1.65
Q 17.55 -0.9 17.95 -0.4 18.3 0.1 19.1 0.1 19.6 0.1 20 -0.15 20.4 -0.4 20.65 -0.9
L 20.7 0 21.25 0 21.15 -0.5 21.15 -4.2 20.65 -4.2 20.65 -2.1
Q 20.65 -1.65 20.45 -1.15 20.2 -0.7 19.95 -0.55 19.6 -0.3 19.25 -0.3 18.6 -0.3 18.35 -0.75 18.1 -1.05 18.1 -1.8
L 18.1 -4.2 17.55 -4.2 17.55 -1.65 Z"/>
</g>

<g id="IT_728x90_psd_Asset_4_ManagedWiFi_IT_Research_DM10_2_If_you_re_considering_changing_your__businesses_networking_solu_0_Layer0_0_MEMBER_5_FILL">
<path fill="#D82C26" stroke="none" d="
M 23.3 -6.2
Q 23.25 -6.35 23.05 -6.35 22.95 -6.35 22.75 -6.25
L 22.65 -5.95 22.75 -5.65 23 -5.55
Q 23 -5.35 22.8 -4.95
L 22.4 -4.45 22.6 -4.35
Q 23.45 -5.1 23.45 -5.85 23.45 -6.1 23.3 -6.2 Z"/>
</g>

<g id="IT_728x90_psd_Asset_4_ManagedWiFi_IT_Research_DM10_2_If_you_re_considering_changing_your__businesses_networking_solu_0_Layer0_0_MEMBER_6_FILL">
<path fill="#D82C26" stroke="none" d="
M 25.05 -3.3
L 25 -4.2 24.5 -4.2 24.5 0 25.05 0 25.05 -2.1
Q 25.05 -2.8 25.35 -3.35 25.7 -3.85 26.25 -3.85
L 26.6 -3.8 26.75 -4.25 26.3 -4.35
Q 25.95 -4.35 25.55 -4.05 25.2 -3.8 25.05 -3.3 Z"/>
</g>

<g id="IT_728x90_psd_Asset_4_ManagedWiFi_IT_Research_DM10_2_If_you_re_considering_changing_your__businesses_networking_solu_0_Layer0_0_MEMBER_7_FILL">
<path fill="#D82C26" stroke="none" d="
M 29.3 -4.35
Q 28.7 -4.35 28.25 -4.05 27.7 -3.75 27.5 -3.25 27.2 -2.8 27.2 -2.15 27.2 -1.45 27.5 -0.95 27.7 -0.55 28.25 -0.15 28.8 0.15 29.35 0.15 30.35 0.15 31.05 -0.4
L 30.95 -0.85
Q 30.55 -0.55 30.25 -0.45 29.9 -0.3 29.4 -0.3 28.95 -0.3 28.55 -0.55 28.2 -0.75 27.95 -1.15 27.8 -1.4 27.7 -2.05
L 31.3 -2.05 31.3 -2.25
Q 31.3 -2.8 31.05 -3.3 30.8 -3.75 30.4 -4.05 29.9 -4.35 29.3 -4.35
M 29.3 -3.9
Q 30 -3.9 30.35 -3.5 30.8 -3.1 30.8 -2.4
L 27.75 -2.4
Q 27.75 -2.75 27.95 -3.1 28.1 -3.4 28.45 -3.7 28.8 -3.9 29.3 -3.9 Z"/>
</g>

<g id="IT_728x90_psd_Asset_4_ManagedWiFi_IT_Research_DM10_2_If_you_re_considering_changing_your__businesses_networking_solu_0_Layer0_0_MEMBER_8_FILL">
<path fill="#D82C26" stroke="none" d="
M 34.35 -2.1
Q 34.35 -1.45 34.65 -0.95 34.95 -0.45 35.45 -0.15 35.9 0.15 36.55 0.15 37 0.15 37.35 0 37.75 -0.1 38 -0.4
L 37.9 -0.85
Q 37.75 -0.65 37.35 -0.45 37.1 -0.35 36.6 -0.35 36.05 -0.35 35.7 -0.55 35.3 -0.85 35.1 -1.2 34.9 -1.8 34.9 -2.1 34.9 -2.4 35.1 -3 35.35 -3.45 35.7 -3.65 36.1 -3.9 36.6 -3.9 36.95 -3.9 37.25 -3.75 37.4 -3.7 37.8 -3.45
L 38 -3.85
Q 37.8 -4.05 37.4 -4.2 36.95 -4.35 36.6 -4.35 36 -4.35 35.45 -4.05 34.95 -3.75 34.65 -3.25 34.35 -2.7 34.35 -2.1 Z"/>
</g>

<g id="IT_728x90_psd_Asset_4_ManagedWiFi_IT_Research_DM10_2_If_you_re_considering_changing_your__businesses_networking_solu_0_Layer0_0_MEMBER_9_FILL">
<path fill="#D82C26" stroke="none" d="
M 39.05 -0.95
Q 39.35 -0.45 39.85 -0.15 40.4 0.15 41 0.15 41.65 0.15 42.15 -0.15 42.65 -0.45 42.95 -0.95 43.25 -1.45 43.25 -2.1 43.25 -2.8 42.95 -3.25 42.65 -3.75 42.15 -4.05 41.65 -4.35 41 -4.35 40.4 -4.35 39.85 -4.05 39.35 -3.75 39.05 -3.25 38.75 -2.8 38.75 -2.1 38.75 -1.45 39.05 -0.95
M 39.5 -3
Q 39.7 -3.4 40.1 -3.65 40.5 -3.9 41 -3.9 41.5 -3.9 41.9 -3.65 42.3 -3.4 42.5 -3 42.7 -2.65 42.7 -2.1 42.7 -1.6 42.5 -1.2 42.3 -0.85 41.9 -0.55 41.5 -0.3 41 -0.3 40.5 -0.3 40.1 -0.55 39.7 -0.85 39.5 -1.2 39.3 -1.6 39.3 -2.1 39.3 -2.65 39.5 -3 Z"/>
</g>

<g id="IT_728x90_psd_Asset_4_ManagedWiFi_IT_Research_DM10_2_If_you_re_considering_changing_your__businesses_networking_solu_0_Layer0_0_MEMBER_10_FILL">
<path fill="#D82C26" stroke="none" d="
M 45.05 -4.2
L 44.55 -4.2 44.55 0 45.1 0 45.1 -2.15
Q 45.1 -2.7 45.3 -3.1 45.45 -3.5 45.8 -3.7 46.2 -3.9 46.5 -3.9 47.1 -3.9 47.4 -3.45 47.65 -3.05 47.65 -2.45
L 47.65 0 48.15 0 48.15 -2.55
Q 48.15 -3.35 47.8 -3.85 47.4 -4.35 46.6 -4.35 46.1 -4.35 45.7 -4.05 45.25 -3.75 45.1 -3.3
L 45.05 -3.3 45.05 -4.2 Z"/>
</g>

<g id="IT_728x90_psd_Asset_4_ManagedWiFi_IT_Research_DM10_2_If_you_re_considering_changing_your__businesses_networking_solu_0_Layer0_0_MEMBER_11_FILL">
<path fill="#D82C26" stroke="none" d="
M 49.5 -0.8
L 49.4 -0.35
Q 49.55 -0.2 50.05 0
L 50.9 0.1 51.6 0
Q 51.95 -0.15 52.15 -0.45 52.35 -0.85 52.35 -1.1 52.35 -1.55 52 -1.85 51.75 -2.1 51.05 -2.35
L 50.2 -2.7
Q 49.95 -2.95 49.95 -3.2 49.95 -3.5 50.25 -3.75 50.5 -3.9 50.9 -3.9 51.3 -3.9 51.5 -3.8
L 52 -3.5 52.2 -3.9 51.6 -4.2
Q 51.3 -4.35 50.85 -4.35 50.5 -4.35 50.2 -4.2 49.8 -4 49.7 -3.8 49.5 -3.6 49.5 -3.2 49.5 -2.7 49.75 -2.45
L 50.65 -2
Q 51.3 -1.8 51.55 -1.6 51.85 -1.35 51.85 -1.1 51.85 -0.7 51.55 -0.5 51.3 -0.3 50.9 -0.3 50.05 -0.3 49.5 -0.8 Z"/>
</g>

<g id="IT_728x90_psd_Asset_4_ManagedWiFi_IT_Research_DM10_2_If_you_re_considering_changing_your__businesses_networking_solu_0_Layer0_0_MEMBER_12_FILL">
<path fill="#D82C26" stroke="none" d="
M 54.1 -4.2
L 53.55 -4.2 53.55 0 54.1 0 54.1 -4.2
M 53.85 -5.5
L 54.1 -5.6 54.2 -5.9 54.1 -6.15
Q 54 -6.25 53.85 -6.25 53.65 -6.25 53.55 -6.15
L 53.45 -5.9 53.55 -5.6 53.85 -5.5 Z"/>
</g>

<g id="IT_728x90_psd_Asset_4_ManagedWiFi_IT_Research_DM10_2_If_you_re_considering_changing_your__businesses_networking_solu_0_Layer0_0_MEMBER_13_FILL">
<path fill="#D82C26" stroke="none" d="
M 59.8 -6.9
L 59.25 -6.8 59.25 -3.3
Q 58.95 -3.85 58.55 -4.05 58.05 -4.35 57.55 -4.35 56.9 -4.35 56.45 -4.05 55.95 -3.75 55.7 -3.25 55.4 -2.7 55.4 -2.1 55.4 -1.45 55.7 -0.95 55.95 -0.4 56.45 -0.2 56.9 0.1 57.55 0.1 58.1 0.1 58.55 -0.15 59.05 -0.45 59.25 -0.9
L 59.3 0 59.8 0 59.8 -6.9
M 56.75 -3.65
Q 57.15 -3.9 57.6 -3.9 58.05 -3.9 58.45 -3.65 58.8 -3.45 59.05 -3 59.25 -2.6 59.25 -2.1 59.25 -1.6 59.05 -1.2 58.85 -0.85 58.45 -0.55 58.05 -0.3 57.6 -0.3 57.15 -0.3 56.75 -0.55 56.4 -0.75 56.15 -1.2 55.95 -1.6 55.95 -2.1 55.95 -2.6 56.15 -3 56.4 -3.45 56.75 -3.65 Z"/>
</g>

<g id="IT_728x90_psd_Asset_4_ManagedWiFi_IT_Research_DM10_2_If_you_re_considering_changing_your__businesses_networking_solu_0_Layer0_0_MEMBER_14_FILL">
<path fill="#D82C26" stroke="none" d="
M 64.95 -3.3
Q 64.75 -3.7 64.25 -4.05 63.8 -4.35 63.2 -4.35 62.6 -4.35 62.15 -4.05 61.6 -3.75 61.4 -3.25 61.1 -2.8 61.1 -2.15 61.1 -1.45 61.4 -0.95 61.6 -0.45 62.15 -0.15 62.7 0.15 63.25 0.15 64.15 0.15 64.95 -0.4
L 64.85 -0.85
Q 64.45 -0.55 64.15 -0.45 63.8 -0.3 63.3 -0.3 62.85 -0.3 62.45 -0.55 62.1 -0.75 61.85 -1.15 61.6 -1.55 61.6 -2.05
L 65.2 -2.05 65.2 -2.25
Q 65.2 -2.8 64.95 -3.3
M 62.35 -3.7
Q 62.7 -3.9 63.2 -3.9 63.9 -3.9 64.25 -3.5 64.7 -3.1 64.7 -2.4
L 61.65 -2.4
Q 61.65 -2.75 61.85 -3.1 62 -3.4 62.35 -3.7 Z"/>
</g>

<g id="IT_728x90_psd_Asset_4_ManagedWiFi_IT_Research_DM10_2_If_you_re_considering_changing_your__businesses_networking_solu_0_Layer0_0_MEMBER_15_FILL">
<path fill="#D82C26" stroke="none" d="
M 68.6 -3.8
L 68.7 -4.25 68.25 -4.35
Q 67.9 -4.35 67.5 -4.05 67.15 -3.65 67 -3.3
L 66.95 -4.2 66.45 -4.2 66.5 0 67 0 67 -2.1
Q 67 -2.75 67.35 -3.35 67.65 -3.85 68.2 -3.85
L 68.6 -3.8 Z"/>
</g>

<g id="IT_728x90_psd_Asset_4_ManagedWiFi_IT_Research_DM10_2_If_you_re_considering_changing_your__businesses_networking_solu_0_Layer0_0_MEMBER_16_FILL">
<path fill="#D82C26" stroke="none" d="
M 70.2 -4.2
L 69.65 -4.2 69.65 0 70.2 0 70.2 -4.2
M 69.95 -5.5
L 70.2 -5.6 70.3 -5.9 70.2 -6.15
Q 70.1 -6.25 69.95 -6.25 69.75 -6.25 69.65 -6.15
L 69.55 -5.9 69.65 -5.6 69.95 -5.5 Z"/>
</g>

<g id="IT_728x90_psd_Asset_4_ManagedWiFi_IT_Research_DM10_2_If_you_re_considering_changing_your__businesses_networking_solu_0_Layer0_0_MEMBER_17_FILL">
<path fill="#D82C26" stroke="none" d="
M 75.05 -3.85
Q 74.55 -4.35 73.85 -4.35 73.35 -4.35 72.95 -4.05 72.5 -3.75 72.35 -3.3
L 72.3 -3.3 72.25 -4.2 71.75 -4.2 71.8 0 72.35 0 72.35 -2.15
Q 72.35 -2.65 72.5 -3.1 72.75 -3.5 73.05 -3.7 73.45 -3.9 73.75 -3.9 74.4 -3.9 74.6 -3.45 74.9 -3.05 74.9 -2.45
L 74.9 0 75.4 0 75.4 -2.55
Q 75.4 -3.35 75.05 -3.85 Z"/>
</g>

<g id="IT_728x90_psd_Asset_4_ManagedWiFi_IT_Research_DM10_2_If_you_re_considering_changing_your__businesses_networking_solu_0_Layer0_0_MEMBER_18_FILL">
<path fill="#D82C26" stroke="none" d="
M 79.8 -4.05
Q 79.35 -4.35 78.8 -4.35 78.25 -4.35 77.7 -4.05 77.3 -3.8 76.95 -3.25 76.7 -2.65 76.7 -2.1 76.7 -1.5 76.95 -1 77.25 -0.5 77.7 -0.2 78.15 0.1 78.8 0.1 79.35 0.1 79.8 -0.2 80.3 -0.5 80.5 -0.95
L 80.55 -0.95 80.55 -0.05
Q 80.55 0.8 80.1 1.3 79.75 1.75 78.8 1.75 78.35 1.75 77.9 1.6
L 77.05 1.2 76.95 1.7
Q 77.45 2 77.8 2.05
L 78.8 2.2
Q 80 2.2 80.5 1.6 81.05 0.95 81.05 -0.05
L 81.1 -4.2 80.6 -4.2 80.55 -3.3 80.5 -3.3
Q 80.3 -3.7 79.8 -4.05
M 78.85 -3.9
Q 79.35 -3.9 79.75 -3.65 80.15 -3.4 80.35 -3 80.55 -2.5 80.55 -2.1 80.55 -1.75 80.35 -1.25 80.15 -0.85 79.75 -0.6 79.35 -0.35 78.85 -0.35 78.4 -0.35 78 -0.6 77.6 -0.85 77.4 -1.25 77.2 -1.75 77.2 -2.1 77.2 -2.5 77.4 -3 77.65 -3.45 78 -3.65 78.4 -3.9 78.85 -3.9 Z"/>
</g>

<g id="IT_728x90_psd_Asset_4_ManagedWiFi_IT_Research_DM10_2_If_you_re_considering_changing_your__businesses_networking_solu_0_Layer0_0_MEMBER_19_FILL">
<path fill="#D82C26" stroke="none" d="
M 84.75 -0.95
Q 84.95 -0.45 85.5 -0.15 86.05 0.15 86.65 0.15 87.1 0.15 87.45 0
L 88.1 -0.4 88 -0.85
Q 87.8 -0.65 87.4 -0.45 87.2 -0.35 86.7 -0.35 86.15 -0.35 85.8 -0.55 85.4 -0.85 85.2 -1.2 85 -1.6 85 -2.1 85 -2.6 85.2 -3 85.45 -3.45 85.8 -3.65 86.2 -3.9 86.65 -3.9 87 -3.9 87.3 -3.75 87.45 -3.7 87.85 -3.45
L 88.1 -3.85 87.45 -4.2
Q 87.1 -4.35 86.65 -4.35 86.05 -4.35 85.5 -4.05 84.95 -3.65 84.75 -3.25 84.45 -2.7 84.45 -2.1 84.45 -1.45 84.75 -0.95 Z"/>
</g>

<g id="IT_728x90_psd_Asset_4_ManagedWiFi_IT_Research_DM10_2_If_you_re_considering_changing_your__businesses_networking_solu_0_Layer0_0_MEMBER_20_FILL">
<path fill="#D82C26" stroke="none" d="
M 89.7 -6.85
L 89.15 -6.75 89.15 0 89.7 0 89.7 -2.05
Q 89.7 -2.65 89.9 -3.05 90.1 -3.5 90.4 -3.65 90.75 -3.9 91.1 -3.9 91.7 -3.9 92 -3.45 92.25 -3.05 92.25 -2.45
L 92.25 0 92.75 0 92.75 -2.55
Q 92.75 -3.35 92.4 -3.85 92 -4.35 91.25 -4.35 90.75 -4.35 90.3 -4.05 89.9 -3.7 89.7 -3.3
L 89.7 -6.85 Z"/>
</g>

<g id="IT_728x90_psd_Asset_4_ManagedWiFi_IT_Research_DM10_2_If_you_re_considering_changing_your__businesses_networking_solu_0_Layer0_0_MEMBER_21_FILL">
<path fill="#D82C26" stroke="none" d="
M 94.05 -1.15
Q 94.05 -0.5 94.4 -0.2 94.85 0.1 95.35 0.1 95.9 0.1 96.3 -0.1 96.75 -0.4 96.95 -0.8
L 97.05 0 97.5 0 97.45 -2.75
Q 97.45 -3.5 97 -3.95 96.6 -4.35 95.8 -4.35 95.4 -4.35 94.95 -4.2 94.45 -4 94.25 -3.8
L 94.4 -3.4 95.05 -3.75 95.75 -3.9
Q 96.3 -3.9 96.65 -3.6 96.95 -3.35 96.95 -2.75
L 96.95 -2.5 96.45 -2.5
Q 94.05 -2.5 94.05 -1.15
M 94.8 -0.5
Q 94.55 -0.7 94.55 -1.15 94.55 -2.15 96.5 -2.15
L 96.95 -2.15 96.95 -1.75
Q 96.95 -1.4 96.8 -1.05
L 96.3 -0.5
Q 95.95 -0.3 95.45 -0.3 95.05 -0.3 94.8 -0.5 Z"/>
</g>

<g id="IT_728x90_psd_Asset_4_ManagedWiFi_IT_Research_DM10_2_If_you_re_considering_changing_your__businesses_networking_solu_0_Layer0_0_MEMBER_22_FILL">
<path fill="#D82C26" stroke="none" d="
M 99.45 -4.2
L 98.95 -4.2 99 0 99.55 0 99.55 -2.15
Q 99.55 -2.65 99.7 -3.1 99.95 -3.5 100.25 -3.7 100.65 -3.9 100.95 -3.9 101.6 -3.9 101.8 -3.45 102.1 -3.05 102.1 -2.45
L 102.1 0 102.6 0 102.6 -2.55
Q 102.6 -3.4 102.2 -3.85 101.8 -4.35 101.05 -4.35 100.55 -4.35 100.1 -4.05 99.75 -3.75 99.5 -3.3
L 99.45 -4.2 Z"/>
</g>

<g id="IT_728x90_psd_Asset_4_ManagedWiFi_IT_Research_DM10_2_If_you_re_considering_changing_your__businesses_networking_solu_0_Layer0_0_MEMBER_23_FILL">
<path fill="#D82C26" stroke="none" d="
M 104.9 -4.05
Q 104.5 -3.8 104.15 -3.25 103.9 -2.65 103.9 -2.1 103.9 -1.5 104.15 -1 104.45 -0.5 104.9 -0.2 105.35 0.1 106 0.1 106.55 0.1 107 -0.2 107.5 -0.5 107.7 -0.95
L 107.7 -0.05
Q 107.7 0.85 107.3 1.3 106.95 1.75 106 1.75 105.5 1.75 105.05 1.6
L 104.25 1.2 104.15 1.7
Q 104.65 2 105 2.05 105.55 2.2 106 2.2 107.2 2.2 107.7 1.6 108.25 0.95 108.25 -0.05
L 108.25 -4.2 107.8 -4.2 107.75 -3.3 107.7 -3.3
Q 107.5 -3.7 107 -4.05 106.55 -4.35 106 -4.35 105.45 -4.35 104.9 -4.05
M 105.2 -3.65
Q 105.6 -3.9 106.05 -3.9 106.45 -3.9 106.95 -3.65 107.35 -3.4 107.55 -3 107.75 -2.5 107.75 -2.1 107.75 -1.75 107.55 -1.25 107.35 -0.85 106.95 -0.6 106.45 -0.35 106.05 -0.35 105.6 -0.35 105.2 -0.6 104.8 -0.85 104.6 -1.25 104.4 -1.75 104.4 -2.1 104.4 -2.5 104.6 -3 104.85 -3.45 105.2 -3.65 Z"/>
</g>

<g id="IT_728x90_psd_Asset_4_ManagedWiFi_IT_Research_DM10_2_If_you_re_considering_changing_your__businesses_networking_solu_0_Layer0_0_MEMBER_24_FILL">
<path fill="#D82C26" stroke="none" d="
M 110.4 -4.2
L 109.85 -4.2 109.85 0 110.4 0 110.4 -4.2
M 110.1 -5.5
L 110.35 -5.6 110.5 -5.9
Q 110.5 -6.05 110.35 -6.15 110.3 -6.25 110.1 -6.25 109.9 -6.25 109.85 -6.15 109.75 -6.1 109.75 -5.9 109.75 -5.7 109.85 -5.6
L 110.1 -5.5 Z"/>
</g>

<g id="IT_728x90_psd_Asset_4_ManagedWiFi_IT_Research_DM10_2_If_you_re_considering_changing_your__businesses_networking_solu_0_Layer0_0_MEMBER_25_FILL">
<path fill="#D82C26" stroke="none" d="
M 115.2 -3.85
Q 114.8 -4.35 114.05 -4.35 113.55 -4.35 113.1 -4.05 112.75 -3.75 112.5 -3.3
L 112.45 -4.2 111.95 -4.2 112 0 112.5 0 112.5 -2.15
Q 112.5 -2.5 112.7 -3.1 112.95 -3.5 113.2 -3.7 113.7 -3.9 113.9 -3.9 114.6 -3.9 114.8 -3.45 115.05 -3.15 115.05 -2.45
L 115.05 0 115.6 0 115.6 -2.55
Q 115.6 -3.3 115.2 -3.85 Z"/>
</g>

<g id="IT_728x90_psd_Asset_4_ManagedWiFi_IT_Research_DM10_2_If_you_re_considering_changing_your__businesses_networking_solu_0_Layer0_0_MEMBER_26_FILL">
<path fill="#D82C26" stroke="none" d="
M 120 -4.05
Q 119.55 -4.35 119 -4.35 118.35 -4.35 117.9 -4.05 117.4 -3.75 117.15 -3.25 116.9 -2.8 116.9 -2.1 116.9 -1.35 117.15 -1 117.35 -0.5 117.9 -0.2 118.35 0.1 119 0.1 119.55 0.1 120 -0.2 120.5 -0.5 120.7 -0.95
L 120.7 -0.05
Q 120.7 0.75 120.3 1.3 119.85 1.75 118.95 1.75 118.5 1.75 118.05 1.6
L 117.25 1.2 117.15 1.7
Q 117.65 2 118 2.05 118.45 2.2 119 2.2 120.2 2.2 120.7 1.6 121.25 0.95 121.25 -0.05
L 121.25 -4.2 120.75 -4.2 120.7 -3.3
Q 120.5 -3.7 120 -4.05
M 119.05 -3.9
Q 119.5 -3.9 119.9 -3.65 120.3 -3.4 120.5 -3 120.75 -2.6 120.75 -2.1 120.75 -1.65 120.5 -1.25 120.3 -0.85 119.9 -0.6 119.5 -0.35 119.05 -0.35 118.6 -0.35 118.2 -0.6 117.8 -0.85 117.6 -1.25 117.4 -1.6 117.4 -2.1 117.4 -2.65 117.6 -3 117.85 -3.45 118.2 -3.65 118.6 -3.9 119.05 -3.9 Z"/>
</g>

<g id="IT_728x90_psd_Asset_4_ManagedWiFi_IT_Research_DM10_2_If_you_re_considering_changing_your__businesses_networking_solu_0_Layer0_0_MEMBER_27_FILL">
<path fill="#D82C26" stroke="none" d="
M 124.85 -4.2
L 124.3 -4.2 126.05 0.05 125.75 0.9
Q 125.5 1.4 125.3 1.5 124.9 1.7 124.55 1.7
L 124.7 2.15
Q 125.25 2.15 125.65 1.9 126 1.65 126.2 1.05
L 128.15 -4.2 127.6 -4.2 126.3 -0.55 124.85 -4.2 Z"/>
</g>

<g id="IT_728x90_psd_Asset_4_ManagedWiFi_IT_Research_DM10_2_If_you_re_considering_changing_your__businesses_networking_solu_0_Layer0_0_MEMBER_28_FILL">
<path fill="#D82C26" stroke="none" d="
M 131 -4.35
Q 130.4 -4.35 129.85 -4.05 129.3 -3.7 129.05 -3.25 128.8 -2.75 128.8 -2.1 128.8 -1.55 129.05 -0.95 129.3 -0.5 129.85 -0.15 130.4 0.15 131 0.15 131.7 0.15 132.15 -0.15 132.75 -0.5 132.95 -0.95 133.25 -1.45 133.25 -2.1 133.25 -2.8 132.95 -3.25 132.75 -3.7 132.15 -4.05 131.7 -4.35 131 -4.35
M 130.1 -3.65
Q 130.6 -3.9 131 -3.9 131.5 -3.9 131.9 -3.65 132.35 -3.4 132.5 -3 132.75 -2.6 132.75 -2.1 132.75 -1.8 132.55 -1.2 132.35 -0.85 131.95 -0.55 131.45 -0.3 131 -0.3 130.6 -0.3 130.1 -0.55 129.7 -0.85 129.5 -1.2 129.3 -1.8 129.3 -2.1 129.3 -2.5 129.5 -3 129.7 -3.4 130.1 -3.65 Z"/>
</g>

<g id="IT_728x90_psd_Asset_4_ManagedWiFi_IT_Research_DM10_2_If_you_re_considering_changing_your__businesses_networking_solu_0_Layer0_0_MEMBER_29_FILL">
<path fill="#D82C26" stroke="none" d="
M 134.55 -1.65
Q 134.55 -0.8 134.9 -0.4 135.25 0.1 136.05 0.1 136.5 0.1 137 -0.15 137.45 -0.45 137.6 -0.9
L 137.7 0 138.2 0 138.15 -4.2 137.6 -4.2 137.6 -2.1
Q 137.6 -1.5 137.45 -1.15 137.2 -0.65 136.9 -0.55 136.55 -0.3 136.2 -0.3 135.6 -0.3 135.3 -0.75 135.05 -1.15 135.05 -1.8
L 135.05 -4.2 134.55 -4.2 134.55 -1.65 Z"/>
</g>

<g id="IT_728x90_psd_Asset_4_ManagedWiFi_IT_Research_DM10_2_If_you_re_considering_changing_your__businesses_networking_solu_0_Layer0_0_MEMBER_30_FILL">
<path fill="#D82C26" stroke="none" d="
M 140.2 -4.2
L 139.7 -4.2 139.75 0 140.3 0 140.3 -2.1
Q 140.3 -2.8 140.6 -3.35 140.9 -3.85 141.5 -3.85
L 141.85 -3.8 141.95 -4.25 141.5 -4.35
Q 141.1 -4.35 140.8 -4.05 140.45 -3.8 140.3 -3.3
L 140.25 -3.3 140.2 -4.2 Z"/>
</g>

<g id="IT_728x90_psd_Asset_4_ManagedWiFi_IT_Research_DM10_2_If_you_re_considering_changing_your__businesses_networking_solu_0_Layer0_0_MEMBER_31_FILL">
<path fill="#D82C26" stroke="none" d="
M 1.35 3.6
L 0.85 3.7 0.8 10.5 1.3 10.5 1.35 9.55
Q 1.55 10.05 2.05 10.3 2.6 10.6 3.1 10.6 3.7 10.6 4.2 10.3 4.65 10 4.95 9.5 5.2 8.9 5.2 8.4 5.2 7.85 4.95 7.25 4.65 6.75 4.2 6.45 3.7 6.15 3.1 6.15 2.6 6.15 2.1 6.4 1.6 6.75 1.4 7.2
L 1.35 7.2 1.35 3.6
M 4.65 8.4
Q 4.65 8.9 4.45 9.25 4.3 9.65 3.9 9.9 3.5 10.15 3 10.15 2.55 10.15 2.15 9.9 1.75 9.65 1.55 9.25 1.35 8.9 1.35 8.4 1.35 7.85 1.55 7.5 1.75 7.1 2.15 6.85 2.45 6.6 3 6.6 3.6 6.6 3.9 6.85 4.3 7.1 4.45 7.5 4.65 7.85 4.65 8.4 Z"/>
</g>

<g id="IT_728x90_psd_Asset_4_ManagedWiFi_IT_Research_DM10_2_If_you_re_considering_changing_your__businesses_networking_solu_0_Layer0_0_MEMBER_32_FILL">
<path fill="#D82C26" stroke="none" d="
M 9.55 6.25
L 9.55 8.35
Q 9.55 8.95 9.35 9.35 9.2 9.65 8.85 9.95 8.6 10.15 8.15 10.15 7.5 10.15 7.25 9.75 7 9.25 7 8.7
L 7 6.25 6.45 6.25 6.45 8.85
Q 6.45 9.55 6.85 10.1 7.2 10.6 8 10.6 8.5 10.6 8.95 10.3 9.35 10.1 9.55 9.55
L 9.6 10.5 10.15 10.5 10.05 9.5 10.05 6.25 9.55 6.25 Z"/>
</g>

<g id="IT_728x90_psd_Asset_4_ManagedWiFi_IT_Research_DM10_2_If_you_re_considering_changing_your__businesses_networking_solu_0_Layer0_0_MEMBER_33_FILL">
<path fill="#D82C26" stroke="none" d="
M 14.15 6.6
Q 13.95 6.4 13.55 6.25
L 12.8 6.15 12.15 6.25
Q 11.8 6.45 11.65 6.65 11.45 6.9 11.45 7.3 11.45 7.75 11.75 8.05 11.95 8.25 12.6 8.5 13.25 8.65 13.5 8.9 13.8 9.05 13.8 9.4 13.8 9.8 13.5 9.95 13.15 10.2 12.85 10.2 12.1 10.2 11.45 9.65
L 11.35 10.15
Q 11.7 10.4 12 10.45 12.4 10.6 12.85 10.6 13.25 10.6 13.55 10.45
L 14.1 10.05
Q 14.3 9.65 14.3 9.35 14.3 8.85 13.95 8.65 13.7 8.4 13 8.15 12.3 7.9 12.15 7.75 11.9 7.6 11.9 7.25 11.9 6.9 12.2 6.75 12.4 6.55 12.85 6.55 13.15 6.55 13.45 6.7 13.7 6.75 13.95 7
L 14.15 6.6 Z"/>
</g>

<g id="IT_728x90_psd_Asset_4_ManagedWiFi_IT_Research_DM10_2_If_you_re_considering_changing_your__businesses_networking_solu_0_Layer0_0_MEMBER_34_FILL">
<path fill="#D82C26" stroke="none" d="
M 15.5 6.25
L 15.5 10.5 16.05 10.5 16.05 6.25 15.5 6.25
M 15.8 4.95
Q 15.95 4.95 16.05 4.85
L 16.15 4.6 16.05 4.3 15.8 4.2 15.5 4.3 15.4 4.6 15.5 4.85
Q 15.6 4.95 15.8 4.95 Z"/>
</g>

<g id="IT_728x90_psd_Asset_4_ManagedWiFi_IT_Research_DM10_2_If_you_re_considering_changing_your__businesses_networking_solu_0_Layer0_0_MEMBER_35_FILL">
<path fill="#D82C26" stroke="none" d="
M 21.25 7.9
Q 21.25 7.15 20.9 6.65 20.45 6.15 19.7 6.15 19.2 6.15 18.8 6.45 18.35 6.7 18.2 7.2
L 18.15 7.2 18.1 6.25 17.6 6.25 17.65 10.5 18.2 10.5 18.2 8.35
Q 18.2 7.8 18.35 7.4 18.6 7 18.9 6.8 19.15 6.6 19.6 6.6 20.2 6.6 20.45 7 20.75 7.45 20.75 8.05
L 20.75 10.5 21.25 10.5 21.25 7.9 Z"/>
</g>

<g id="IT_728x90_psd_Asset_4_ManagedWiFi_IT_Research_DM10_2_If_you_re_considering_changing_your__businesses_networking_solu_0_Layer0_0_MEMBER_36_FILL">
<path fill="#D82C26" stroke="none" d="
M 23.6 6.4
Q 23.05 6.7 22.85 7.2 22.55 7.75 22.55 8.35 22.55 9.05 22.85 9.5 23.05 10 23.6 10.3 24.15 10.6 24.7 10.6 25.7 10.6 26.4 10.05
L 26.3 9.6
Q 26.05 9.85 25.6 10 25.25 10.15 24.75 10.15 24.25 10.15 23.9 9.95 23.55 9.75 23.3 9.3 23.05 8.9 23.05 8.45
L 26.65 8.45 26.65 8.2
Q 26.65 7.75 26.4 7.15 26.2 6.75 25.7 6.4 25.2 6.15 24.65 6.15 24.1 6.15 23.6 6.4
M 23.8 6.8
Q 24.2 6.55 24.65 6.55 25.3 6.55 25.7 6.95 26.05 7.3 26.15 8.05
L 23.05 8.05
Q 23.15 7.6 23.3 7.4 23.45 7.1 23.8 6.8 Z"/>
</g>

<g id="IT_728x90_psd_Asset_4_ManagedWiFi_IT_Research_DM10_2_If_you_re_considering_changing_your__businesses_networking_solu_0_Layer0_0_MEMBER_37_FILL">
<path fill="#D82C26" stroke="none" d="
M 29.7 6.7
Q 29.95 6.75 30.2 7
L 30.4 6.6 29.85 6.25 29.1 6.15 28.4 6.25 27.9 6.65
Q 27.7 6.9 27.7 7.3 27.7 7.75 28 8.05
L 28.9 8.5
Q 29.5 8.65 29.75 8.9 30.05 9.05 30.05 9.4 30.05 9.8 29.75 9.95 29.5 10.2 29.1 10.2 28.35 10.2 27.7 9.65
L 27.6 10.15
Q 28.15 10.45 28.25 10.45 28.7 10.6 29.1 10.6 29.5 10.6 29.8 10.45 30.05 10.35 30.35 10.05 30.55 9.8 30.55 9.35 30.55 8.9 30.25 8.65 29.9 8.35 29.25 8.15 28.6 7.9 28.45 7.75 28.2 7.65 28.2 7.25 28.2 6.9 28.45 6.75 28.65 6.55 29.1 6.55 29.4 6.55 29.7 6.7 Z"/>
</g>

<g id="IT_728x90_psd_Asset_4_ManagedWiFi_IT_Research_DM10_2_If_you_re_considering_changing_your__businesses_networking_solu_0_Layer0_0_MEMBER_38_FILL">
<path fill="#D82C26" stroke="none" d="
M 34.35 6.6
Q 34.15 6.4 33.75 6.25
L 33 6.15 32.35 6.25
Q 32.1 6.35 31.8 6.65 31.6 6.9 31.6 7.3 31.6 7.75 31.9 8.05
L 32.8 8.5
Q 33.35 8.65 33.7 8.9 33.95 9.05 33.95 9.4 33.95 9.8 33.7 9.95 33.35 10.2 33 10.2 32.25 10.2 31.6 9.65
L 31.5 10.15
Q 32.05 10.45 32.2 10.45 32.6 10.6 33.05 10.6 33.4 10.6 33.75 10.45
L 34.25 10.05
Q 34.45 9.8 34.45 9.35 34.45 8.9 34.15 8.65 33.9 8.4 33.15 8.15 32.5 7.9 32.35 7.75 32.1 7.6 32.1 7.25 32.1 6.9 32.35 6.75 32.6 6.55 33 6.55 33.3 6.55 33.6 6.7 33.85 6.75 34.1 7
L 34.35 6.6 Z"/>
</g>

<g id="IT_728x90_psd_Asset_4_ManagedWiFi_IT_Research_DM10_2_If_you_re_considering_changing_your__businesses_networking_solu_0_Layer0_0_MEMBER_39_FILL">
<path fill="#D82C26" stroke="none" d="
M 39.3 7.15
Q 39.1 6.75 38.6 6.4 38.1 6.15 37.55 6.15 37.05 6.15 36.45 6.4 36 6.7 35.7 7.2 35.45 7.8 35.45 8.35 35.45 9 35.7 9.5 36 10 36.5 10.3 36.95 10.6 37.6 10.6 38.6 10.6 39.3 10.05
L 39.2 9.6
Q 38.95 9.85 38.5 10 38.15 10.15 37.65 10.15 37.15 10.15 36.8 9.95 36.5 9.8 36.2 9.3 35.95 8.9 35.95 8.45
L 39.5 8.45 39.55 8.2
Q 39.55 7.75 39.3 7.15
M 38.6 6.95
Q 38.95 7.3 39.05 8.05
L 35.95 8.05 36.15 7.4
Q 36.4 7 36.7 6.8 37.1 6.55 37.55 6.55 38.2 6.55 38.6 6.95 Z"/>
</g>

<g id="IT_728x90_psd_Asset_4_ManagedWiFi_IT_Research_DM10_2_If_you_re_considering_changing_your__businesses_networking_solu_0_Layer0_0_MEMBER_40_FILL">
<path fill="#D82C26" stroke="none" d="
M 43.1 7
L 43.3 6.6 42.75 6.25 42 6.15 41.3 6.25
Q 40.95 6.45 40.8 6.65 40.6 6.9 40.6 7.3 40.6 7.75 40.9 8.05
L 41.8 8.5
Q 42.4 8.65 42.65 8.9 42.95 9.05 42.95 9.4 42.95 9.8 42.65 9.95 42.3 10.2 42 10.2 41.25 10.2 40.6 9.65
L 40.5 10.15
Q 40.85 10.4 41.15 10.45 41.55 10.6 42 10.6 42.4 10.6 42.7 10.45 42.95 10.35 43.25 10.05 43.45 9.65 43.45 9.35 43.45 8.9 43.15 8.65 42.8 8.35 42.15 8.15 41.5 7.9 41.3 7.75 41.1 7.6 41.1 7.25 41.1 6.9 41.35 6.75 41.55 6.55 42 6.55 42.3 6.55 42.6 6.7 42.85 6.75 43.1 7 Z"/>
</g>

<g id="IT_728x90_psd_Asset_4_ManagedWiFi_IT_Research_DM10_2_If_you_re_considering_changing_your__businesses_networking_solu_0_Layer0_0_MEMBER_41_FILL">
<path fill="#D82C26" stroke="none" d="
M 50.4 7.9
Q 50.4 7.2 50 6.65 49.65 6.15 48.85 6.15 48.35 6.15 47.9 6.45 47.55 6.7 47.3 7.2
L 47.25 6.25 46.75 6.25 46.8 10.5 47.35 10.5 47.35 8.35
Q 47.35 7.8 47.5 7.4 47.75 7 48 6.8 48.35 6.6 48.75 6.6 49.35 6.6 49.6 7 49.85 7.4 49.85 8.05
L 49.85 10.5 50.4 10.5 50.4 7.9 Z"/>
</g>

<g id="IT_728x90_psd_Asset_4_ManagedWiFi_IT_Research_DM10_2_If_you_re_considering_changing_your__businesses_networking_solu_0_Layer0_0_MEMBER_42_FILL">
<path fill="#D82C26" stroke="none" d="
M 55.55 7.15
Q 55.35 6.75 54.85 6.4 54.35 6.15 53.8 6.15 53.3 6.15 52.7 6.4 52.25 6.7 51.95 7.2 51.7 7.8 51.7 8.35 51.7 9 51.95 9.5 52.25 10 52.75 10.3 53.2 10.6 53.85 10.6 54.85 10.6 55.55 10.05
L 55.45 9.6
Q 55.2 9.85 54.75 10 54.4 10.15 53.9 10.15 53.4 10.15 53.05 9.95 52.75 9.8 52.45 9.3 52.2 8.9 52.2 8.45
L 55.75 8.45 55.8 8.2
Q 55.8 7.75 55.55 7.15
M 54.85 6.95
Q 55.2 7.3 55.3 8.05
L 52.2 8.05 52.4 7.4
Q 52.65 7 52.95 6.8 53.35 6.55 53.8 6.55 54.45 6.55 54.85 6.95 Z"/>
</g>

<g id="IT_728x90_psd_Asset_4_ManagedWiFi_IT_Research_DM10_2_If_you_re_considering_changing_your__businesses_networking_solu_0_Layer0_0_MEMBER_43_FILL">
<path fill="#D82C26" stroke="none" d="
M 57.7 5.05
L 57.15 5.25 57.15 6.25 56.5 6.25 56.4 6.7 57.2 6.7 57.2 9.45
Q 57.2 10.05 57.45 10.3 57.7 10.55 58.15 10.55
L 58.65 10.5 59.05 10.35 59 9.95
Q 58.5 10.15 58.3 10.15 58.05 10.15 57.85 9.95 57.7 9.8 57.7 9.4
L 57.7 6.7 58.8 6.7 58.9 6.25 57.7 6.25 57.7 5.05 Z"/>
</g>

<g id="IT_728x90_psd_Asset_4_ManagedWiFi_IT_Research_DM10_2_If_you_re_considering_changing_your__businesses_networking_solu_0_Layer0_0_MEMBER_44_FILL">
<path fill="#D82C26" stroke="none" d="
M 62.5 6.25
L 61.3 9.9 60.25 6.25 59.7 6.25 61 10.5 61.55 10.5 62.75 6.9 64 10.5 64.55 10.5 65.85 6.25 65.3 6.25 64.25 9.9 63.05 6.25 62.5 6.25 Z"/>
</g>

<g id="IT_728x90_psd_Asset_4_ManagedWiFi_IT_Research_DM10_2_If_you_re_considering_changing_your__businesses_networking_solu_0_Layer0_0_MEMBER_45_FILL">
<path fill="#D82C26" stroke="none" d="
M 70.75 7.2
Q 70.45 6.7 69.95 6.4 69.35 6.15 68.8 6.15 68.25 6.15 67.65 6.4 67.15 6.7 66.85 7.2 66.55 7.75 66.55 8.35 66.55 9.05 66.85 9.5 67.15 10 67.65 10.3 68.2 10.6 68.8 10.6 69.45 10.6 69.95 10.3 70.45 10 70.75 9.5 71.05 9.05 71.05 8.35 71.05 7.75 70.75 7.2
M 70.5 8.35
Q 70.5 8.9 70.3 9.25 70.1 9.65 69.7 9.9 69.3 10.15 68.8 10.15 68.3 10.15 67.9 9.9 67.5 9.65 67.3 9.25 67.1 8.9 67.1 8.35 67.1 7.85 67.3 7.45 67.55 7.1 67.9 6.85 68.2 6.6 68.8 6.6 69.4 6.6 69.7 6.85 70.1 7.1 70.3 7.45 70.5 7.85 70.5 8.35 Z"/>
</g>

<g id="IT_728x90_psd_Asset_4_ManagedWiFi_IT_Research_DM10_2_If_you_re_considering_changing_your__businesses_networking_solu_0_Layer0_0_MEMBER_46_FILL">
<path fill="#D82C26" stroke="none" d="
M 74.45 6.7
L 74.55 6.2 74.1 6.15
Q 73.75 6.15 73.4 6.4 73.1 6.65 72.85 7.2
L 72.8 6.25 72.3 6.25 72.35 10.5 72.9 10.5 72.9 8.4
Q 72.9 7.7 73.2 7.15 73.5 6.6 74.05 6.6
L 74.45 6.7 Z"/>
</g>

<g id="IT_728x90_psd_Asset_4_ManagedWiFi_IT_Research_DM10_2_If_you_re_considering_changing_your__businesses_networking_solu_0_Layer0_0_MEMBER_47_FILL">
<path fill="#D82C26" stroke="none" d="
M 78.05 6.25
L 76.1 8.2 76.05 8.2 76.05 3.65 75.55 3.7 75.55 10.5 76.05 10.5 76.05 8.3 76.1 8.3 78.25 10.5 78.9 10.5 76.65 8.2 78.75 6.25 78.05 6.25 Z"/>
</g>

<g id="IT_728x90_psd_Asset_4_ManagedWiFi_IT_Research_DM10_2_If_you_re_considering_changing_your__businesses_networking_solu_0_Layer0_0_MEMBER_48_FILL">
<path fill="#D82C26" stroke="none" d="
M 79.95 6.25
L 79.95 10.5 80.5 10.5 80.5 6.25 79.95 6.25
M 80.2 4.95
Q 80.4 4.95 80.5 4.85
L 80.6 4.6 80.5 4.3
Q 80.3 4.2 80.2 4.2
L 79.95 4.3 79.85 4.6 79.95 4.85
Q 80.05 4.95 80.2 4.95 Z"/>
</g>

<g id="IT_728x90_psd_Asset_4_ManagedWiFi_IT_Research_DM10_2_If_you_re_considering_changing_your__businesses_networking_solu_0_Layer0_0_MEMBER_49_FILL">
<path fill="#D82C26" stroke="none" d="
M 85.7 7.9
Q 85.7 7.1 85.3 6.65 84.95 6.15 84.15 6.15 83.65 6.15 83.2 6.45 82.85 6.7 82.6 7.2
L 82.55 6.25 82.05 6.25 82.1 10.5 82.65 10.5 82.65 8.35
Q 82.65 7.8 82.8 7.4 83.05 7 83.3 6.8 83.65 6.6 84.05 6.6 84.65 6.6 84.9 7 85.15 7.4 85.15 8.05
L 85.15 10.5 85.7 10.5 85.7 7.9 Z"/>
</g>

<g id="IT_728x90_psd_Asset_4_ManagedWiFi_IT_Research_DM10_2_If_you_re_considering_changing_your__businesses_networking_solu_0_Layer0_0_MEMBER_50_FILL">
<path fill="#D82C26" stroke="none" d="
M 91.35 10.4
L 91.35 6.25 90.9 6.25 90.85 7.2 90.8 7.2
Q 90.6 6.75 90.1 6.4 89.6 6.15 89.1 6.15 88.55 6.15 88 6.45 87.55 6.75 87.25 7.25 87 7.85 87 8.35 87 8.9 87.25 9.5 87.65 10.05 88 10.25 88.45 10.55 89.1 10.55 89.6 10.55 90.1 10.3 90.6 10 90.8 9.55
L 90.8 10.4
Q 90.8 11.35 90.4 11.75 90.05 12.25 89.1 12.25 88.6 12.25 88.15 12.1
L 87.35 11.7 87.25 12.15
Q 87.5 12.35 88.1 12.55
L 89.1 12.7
Q 90.3 12.7 90.8 12.05 91.35 11.4 91.35 10.4
M 90.85 8.35
Q 90.85 8.75 90.65 9.25 90.4 9.7 90.05 9.9 89.55 10.15 89.15 10.15 88.7 10.15 88.3 9.9 87.9 9.6 87.7 9.25 87.5 8.75 87.5 8.35 87.5 8 87.7 7.5 87.9 7.1 88.3 6.85 88.6 6.6 89.15 6.6 89.7 6.6 90.05 6.85 90.45 7.1 90.65 7.45 90.85 8.05 90.85 8.35 Z"/>
</g>

<g id="IT_728x90_psd_Asset_4_ManagedWiFi_IT_Research_DM10_2_If_you_re_considering_changing_your__businesses_networking_solu_0_Layer0_0_MEMBER_51_FILL">
<path fill="#D82C26" stroke="none" d="
M 94.75 10.15
Q 95.15 10.4 95.4 10.45 95.8 10.6 96.25 10.6
L 96.95 10.45
Q 97.3 10.3 97.45 10.05 97.65 9.8 97.65 9.35 97.65 8.9 97.35 8.65 97.1 8.4 96.35 8.15 95.65 7.85 95.55 7.75 95.3 7.6 95.3 7.25 95.3 6.9 95.55 6.75 95.8 6.55 96.2 6.55 96.6 6.55 96.8 6.7 97.05 6.75 97.3 7
L 97.55 6.6
Q 97.35 6.4 96.95 6.25
L 96.2 6.15 95.55 6.25
Q 95.3 6.35 95 6.65 94.8 7.05 94.8 7.3 94.8 7.75 95.1 8.05
L 96 8.5
Q 96.55 8.65 96.9 8.9 97.15 9.05 97.15 9.4 97.15 9.8 96.9 9.95 96.55 10.2 96.2 10.2 95.45 10.2 94.8 9.65
L 94.75 10.15 Z"/>
</g>

<g id="IT_728x90_psd_Asset_4_ManagedWiFi_IT_Research_DM10_2_If_you_re_considering_changing_your__businesses_networking_solu_0_Layer0_0_MEMBER_52_FILL">
<path fill="#D82C26" stroke="none" d="
M 102.05 10.3
Q 102.6 9.95 102.85 9.5 103.15 9.05 103.15 8.35 103.15 7.75 102.85 7.2 102.6 6.75 102.05 6.4 101.45 6.15 100.9 6.15 100.35 6.15 99.75 6.4 99.25 6.7 98.95 7.2 98.65 7.75 98.65 8.35 98.65 9.05 98.95 9.5 99.25 10 99.75 10.3 100.3 10.6 100.9 10.6 101.55 10.6 102.05 10.3
M 102.4 9.25
Q 102.2 9.65 101.8 9.9 101.4 10.15 100.9 10.15 100.4 10.15 100 9.9 99.55 9.65 99.4 9.25 99.2 8.9 99.2 8.35 99.2 7.85 99.4 7.45 99.55 7.1 100 6.85 100.3 6.6 100.9 6.6 101.45 6.6 101.8 6.85 102.2 7.1 102.4 7.45 102.6 7.85 102.6 8.35 102.6 8.9 102.4 9.25 Z"/>
</g>

<g id="IT_728x90_psd_Asset_4_ManagedWiFi_IT_Research_DM10_2_If_you_re_considering_changing_your__businesses_networking_solu_0_Layer0_0_MEMBER_53_FILL">
<path fill="#D82C26" stroke="none" d="
M 104.65 10.2
Q 104.75 10.4 105.15 10.6
L 105.35 10.15 105.05 9.9 105 9.45 105 3.65 104.45 3.75 104.45 9.55
Q 104.45 10 104.65 10.2 Z"/>
</g>

<g id="IT_728x90_psd_Asset_4_ManagedWiFi_IT_Research_DM10_2_If_you_re_considering_changing_your__businesses_networking_solu_0_Layer0_0_MEMBER_54_FILL">
<path fill="#D82C26" stroke="none" d="
M 109.6 6.25
L 109.6 8.35
Q 109.6 8.9 109.45 9.35 109.2 9.75 108.95 9.95 108.6 10.15 108.2 10.15 107.6 10.15 107.35 9.75 107.1 9.4 107.1 8.7
L 107.1 6.25 106.55 6.25 106.55 8.85
Q 106.55 9.55 106.95 10.1 107.25 10.6 108.1 10.6 108.65 10.6 109 10.3 109.45 10.1 109.6 9.55
L 109.7 10.5 110.25 10.5 110.15 10 110.15 6.25 109.6 6.25 Z"/>
</g>

<g id="IT_728x90_psd_Asset_4_ManagedWiFi_IT_Research_DM10_2_If_you_re_considering_changing_your__businesses_networking_solu_0_Layer0_0_MEMBER_55_FILL">
<path fill="#D82C26" stroke="none" d="
M 112.5 5.05
L 111.95 5.25 111.95 6.25 111.3 6.25 111.2 6.7 111.95 6.7 111.95 9.45
Q 111.95 10 112.25 10.3 112.5 10.55 112.95 10.55
L 113.4 10.5 113.85 10.35 113.75 9.95
Q 113.25 10.15 113.1 10.15 112.8 10.15 112.65 9.95 112.5 9.8 112.5 9.4
L 112.5 6.7 113.55 6.7 113.7 6.25 112.5 6.25 112.5 5.05 Z"/>
</g>

<g id="IT_728x90_psd_Asset_4_ManagedWiFi_IT_Research_DM10_2_If_you_re_considering_changing_your__businesses_networking_solu_0_Layer0_0_MEMBER_56_FILL">
<path fill="#D82C26" stroke="none" d="
M 114.85 6.25
L 114.85 10.5 115.4 10.5 115.4 6.25 114.85 6.25
M 115.1 4.95
Q 115.3 4.95 115.4 4.85
L 115.5 4.6 115.4 4.3 115.1 4.2 114.85 4.3 114.75 4.6 114.85 4.85
Q 114.95 4.95 115.1 4.95 Z"/>
</g>

<g id="IT_728x90_psd_Asset_4_ManagedWiFi_IT_Research_DM10_2_If_you_re_considering_changing_your__businesses_networking_solu_0_Layer0_0_MEMBER_57_FILL">
<path fill="#D82C26" stroke="none" d="
M 120.9 7.2
Q 120.65 6.75 120.1 6.4 119.5 6.15 118.95 6.15 118.3 6.15 117.8 6.4 117.3 6.7 117 7.2 116.7 7.75 116.7 8.35 116.7 9.05 117 9.5 117.3 10 117.8 10.3 118.25 10.6 118.95 10.6 119.6 10.6 120.1 10.3 120.65 9.95 120.9 9.5 121.15 9 121.15 8.35 121.15 7.8 120.9 7.2
M 120.65 8.35
Q 120.65 8.75 120.45 9.25 120.25 9.65 119.85 9.9 119.45 10.15 118.95 10.15 118.5 10.15 118 9.9 117.6 9.65 117.45 9.25 117.2 8.85 117.2 8.35 117.2 7.95 117.45 7.45 117.6 7.1 118 6.85 118.4 6.6 118.95 6.6 119.5 6.6 119.85 6.85 120.25 7.1 120.45 7.45 120.65 8.05 120.65 8.35 Z"/>
</g>

<g id="IT_728x90_psd_Asset_4_ManagedWiFi_IT_Research_DM10_2_If_you_re_considering_changing_your__businesses_networking_solu_0_Layer0_0_MEMBER_58_FILL">
<path fill="#D82C26" stroke="none" d="
M 126.1 7.9
Q 126.1 7.2 125.7 6.65 125.35 6.15 124.55 6.15 124.05 6.15 123.6 6.45 123.25 6.7 123 7.2
L 122.95 6.25 122.45 6.25 122.5 10.5 123.05 10.5 123.05 8.35
Q 123.05 7.8 123.2 7.4 123.45 7 123.7 6.8 124.05 6.6 124.45 6.6 125.05 6.6 125.3 7 125.55 7.4 125.55 8.05
L 125.55 10.5 126.1 10.5 126.1 7.9 Z"/>
</g>

<g id="IT_728x90_psd_Asset_4_ManagedWiFi_IT_Research_DM10_2_If_you_re_considering_changing_your__businesses_networking_solu_0_Layer0_0_MEMBER_59_FILL">
<path fill="#D82C26" stroke="none" d="
M 128.4 10
L 128.3 9.65 128 9.5 127.7 9.6 127.6 9.9 127.7 10.2 128 10.3
Q 127.9 10.7 127.75 10.9
L 127.4 11.4 127.6 11.55
Q 128.4 10.8 128.4 10 Z"/>
</g>
</defs>

<g transform="matrix( 1, 0, 0, 1, -152,-53) ">
<g transform="matrix( 1, 0, 0, 1, 152,66) ">
<g transform="matrix( 1, 0, 0, 1, 26,8) ">
<g transform="matrix( 2.6895904541015625, 0, 0, 2.672393798828125, -1.85,18.55) ">
<use xlink:href="#IT_728x90_psd_Asset_4_ManagedWiFi_IT_Research_DM10_2_If_you_re_considering_changing_your__businesses_networking_solu_0_Layer0_0_MEMBER_0_FILL"/>
</g>

<g transform="matrix( 2.6895904541015625, 0, 0, 2.672393798828125, -1.85,18.55) ">
<use xlink:href="#IT_728x90_psd_Asset_4_ManagedWiFi_IT_Research_DM10_2_If_you_re_considering_changing_your__businesses_networking_solu_0_Layer0_0_MEMBER_1_FILL"/>
</g>

<g transform="matrix( 2.6895904541015625, 0, 0, 2.672393798828125, -1.85,18.55) ">
<use xlink:href="#IT_728x90_psd_Asset_4_ManagedWiFi_IT_Research_DM10_2_If_you_re_considering_changing_your__businesses_networking_solu_0_Layer0_0_MEMBER_2_FILL"/>
</g>

<g transform="matrix( 2.6895904541015625, 0, 0, 2.672393798828125, -1.85,18.55) ">
<use xlink:href="#IT_728x90_psd_Asset_4_ManagedWiFi_IT_Research_DM10_2_If_you_re_considering_changing_your__businesses_networking_solu_0_Layer0_0_MEMBER_3_FILL"/>
</g>

<g transform="matrix( 2.6895904541015625, 0, 0, 2.672393798828125, -1.85,18.55) ">
<use xlink:href="#IT_728x90_psd_Asset_4_ManagedWiFi_IT_Research_DM10_2_If_you_re_considering_changing_your__businesses_networking_solu_0_Layer0_0_MEMBER_4_FILL"/>
</g>

<g transform="matrix( 2.6895904541015625, 0, 0, 2.672393798828125, -1.85,18.55) ">
<use xlink:href="#IT_728x90_psd_Asset_4_ManagedWiFi_IT_Research_DM10_2_If_you_re_considering_changing_your__businesses_networking_solu_0_Layer0_0_MEMBER_5_FILL"/>
</g>

<g transform="matrix( 2.6895904541015625, 0, 0, 2.672393798828125, -1.85,18.55) ">
<use xlink:href="#IT_728x90_psd_Asset_4_ManagedWiFi_IT_Research_DM10_2_If_you_re_considering_changing_your__businesses_networking_solu_0_Layer0_0_MEMBER_6_FILL"/>
</g>

<g transform="matrix( 2.6895904541015625, 0, 0, 2.672393798828125, -1.85,18.55) ">
<use xlink:href="#IT_728x90_psd_Asset_4_ManagedWiFi_IT_Research_DM10_2_If_you_re_considering_changing_your__businesses_networking_solu_0_Layer0_0_MEMBER_7_FILL"/>
</g>

<g transform="matrix( 2.6895904541015625, 0, 0, 2.672393798828125, -1.85,18.55) ">
<use xlink:href="#IT_728x90_psd_Asset_4_ManagedWiFi_IT_Research_DM10_2_If_you_re_considering_changing_your__businesses_networking_solu_0_Layer0_0_MEMBER_8_FILL"/>
</g>

<g transform="matrix( 2.6895904541015625, 0, 0, 2.672393798828125, -1.85,18.55) ">
<use xlink:href="#IT_728x90_psd_Asset_4_ManagedWiFi_IT_Research_DM10_2_If_you_re_considering_changing_your__businesses_networking_solu_0_Layer0_0_MEMBER_9_FILL"/>
</g>

<g transform="matrix( 2.6895904541015625, 0, 0, 2.672393798828125, -1.85,18.55) ">
<use xlink:href="#IT_728x90_psd_Asset_4_ManagedWiFi_IT_Research_DM10_2_If_you_re_considering_changing_your__businesses_networking_solu_0_Layer0_0_MEMBER_10_FILL"/>
</g>

<g transform="matrix( 2.6895904541015625, 0, 0, 2.672393798828125, -1.85,18.55) ">
<use xlink:href="#IT_728x90_psd_Asset_4_ManagedWiFi_IT_Research_DM10_2_If_you_re_considering_changing_your__businesses_networking_solu_0_Layer0_0_MEMBER_11_FILL"/>
</g>

<g transform="matrix( 2.6895904541015625, 0, 0, 2.672393798828125, -1.85,18.55) ">
<use xlink:href="#IT_728x90_psd_Asset_4_ManagedWiFi_IT_Research_DM10_2_If_you_re_considering_changing_your__businesses_networking_solu_0_Layer0_0_MEMBER_12_FILL"/>
</g>

<g transform="matrix( 2.6895904541015625, 0, 0, 2.672393798828125, -1.85,18.55) ">
<use xlink:href="#IT_728x90_psd_Asset_4_ManagedWiFi_IT_Research_DM10_2_If_you_re_considering_changing_your__businesses_networking_solu_0_Layer0_0_MEMBER_13_FILL"/>
</g>

<g transform="matrix( 2.6895904541015625, 0, 0, 2.672393798828125, -1.85,18.55) ">
<use xlink:href="#IT_728x90_psd_Asset_4_ManagedWiFi_IT_Research_DM10_2_If_you_re_considering_changing_your__businesses_networking_solu_0_Layer0_0_MEMBER_14_FILL"/>
</g>

<g transform="matrix( 2.6895904541015625, 0, 0, 2.672393798828125, -1.85,18.55) ">
<use xlink:href="#IT_728x90_psd_Asset_4_ManagedWiFi_IT_Research_DM10_2_If_you_re_considering_changing_your__businesses_networking_solu_0_Layer0_0_MEMBER_15_FILL"/>
</g>

<g transform="matrix( 2.6895904541015625, 0, 0, 2.672393798828125, -1.85,18.55) ">
<use xlink:href="#IT_728x90_psd_Asset_4_ManagedWiFi_IT_Research_DM10_2_If_you_re_considering_changing_your__businesses_networking_solu_0_Layer0_0_MEMBER_16_FILL"/>
</g>

<g transform="matrix( 2.6895904541015625, 0, 0, 2.672393798828125, -1.85,18.55) ">
<use xlink:href="#IT_728x90_psd_Asset_4_ManagedWiFi_IT_Research_DM10_2_If_you_re_considering_changing_your__businesses_networking_solu_0_Layer0_0_MEMBER_17_FILL"/>
</g>

<g transform="matrix( 2.6895904541015625, 0, 0, 2.672393798828125, -1.85,18.55) ">
<use xlink:href="#IT_728x90_psd_Asset_4_ManagedWiFi_IT_Research_DM10_2_If_you_re_considering_changing_your__businesses_networking_solu_0_Layer0_0_MEMBER_18_FILL"/>
</g>

<g transform="matrix( 2.6895904541015625, 0, 0, 2.672393798828125, -1.85,18.55) ">
<use xlink:href="#IT_728x90_psd_Asset_4_ManagedWiFi_IT_Research_DM10_2_If_you_re_considering_changing_your__businesses_networking_solu_0_Layer0_0_MEMBER_19_FILL"/>
</g>

<g transform="matrix( 2.6895904541015625, 0, 0, 2.672393798828125, -1.85,18.55) ">
<use xlink:href="#IT_728x90_psd_Asset_4_ManagedWiFi_IT_Research_DM10_2_If_you_re_considering_changing_your__businesses_networking_solu_0_Layer0_0_MEMBER_20_FILL"/>
</g>

<g transform="matrix( 2.6895904541015625, 0, 0, 2.672393798828125, -1.85,18.55) ">
<use xlink:href="#IT_728x90_psd_Asset_4_ManagedWiFi_IT_Research_DM10_2_If_you_re_considering_changing_your__businesses_networking_solu_0_Layer0_0_MEMBER_21_FILL"/>
</g>

<g transform="matrix( 2.6895904541015625, 0, 0, 2.672393798828125, -1.85,18.55) ">
<use xlink:href="#IT_728x90_psd_Asset_4_ManagedWiFi_IT_Research_DM10_2_If_you_re_considering_changing_your__businesses_networking_solu_0_Layer0_0_MEMBER_22_FILL"/>
</g>

<g transform="matrix( 2.6895904541015625, 0, 0, 2.672393798828125, -1.85,18.55) ">
<use xlink:href="#IT_728x90_psd_Asset_4_ManagedWiFi_IT_Research_DM10_2_If_you_re_considering_changing_your__businesses_networking_solu_0_Layer0_0_MEMBER_23_FILL"/>
</g>

<g transform="matrix( 2.6895904541015625, 0, 0, 2.672393798828125, -1.85,18.55) ">
<use xlink:href="#IT_728x90_psd_Asset_4_ManagedWiFi_IT_Research_DM10_2_If_you_re_considering_changing_your__businesses_networking_solu_0_Layer0_0_MEMBER_24_FILL"/>
</g>

<g transform="matrix( 2.6895904541015625, 0, 0, 2.672393798828125, -1.85,18.55) ">
<use xlink:href="#IT_728x90_psd_Asset_4_ManagedWiFi_IT_Research_DM10_2_If_you_re_considering_changing_your__businesses_networking_solu_0_Layer0_0_MEMBER_25_FILL"/>
</g>

<g transform="matrix( 2.6895904541015625, 0, 0, 2.672393798828125, -1.85,18.55) ">
<use xlink:href="#IT_728x90_psd_Asset_4_ManagedWiFi_IT_Research_DM10_2_If_you_re_considering_changing_your__businesses_networking_solu_0_Layer0_0_MEMBER_26_FILL"/>
</g>

<g transform="matrix( 2.6895904541015625, 0, 0, 2.672393798828125, -1.85,18.55) ">
<use xlink:href="#IT_728x90_psd_Asset_4_ManagedWiFi_IT_Research_DM10_2_If_you_re_considering_changing_your__businesses_networking_solu_0_Layer0_0_MEMBER_27_FILL"/>
</g>

<g transform="matrix( 2.6895904541015625, 0, 0, 2.672393798828125, -1.85,18.55) ">
<use xlink:href="#IT_728x90_psd_Asset_4_ManagedWiFi_IT_Research_DM10_2_If_you_re_considering_changing_your__businesses_networking_solu_0_Layer0_0_MEMBER_28_FILL"/>
</g>

<g transform="matrix( 2.6895904541015625, 0, 0, 2.672393798828125, -1.85,18.55) ">
<use xlink:href="#IT_728x90_psd_Asset_4_ManagedWiFi_IT_Research_DM10_2_If_you_re_considering_changing_your__businesses_networking_solu_0_Layer0_0_MEMBER_29_FILL"/>
</g>

<g transform="matrix( 2.6895904541015625, 0, 0, 2.672393798828125, -1.85,18.55) ">
<use xlink:href="#IT_728x90_psd_Asset_4_ManagedWiFi_IT_Research_DM10_2_If_you_re_considering_changing_your__businesses_networking_solu_0_Layer0_0_MEMBER_30_FILL"/>
</g>

<g transform="matrix( 2.6895904541015625, 0, 0, 2.672393798828125, -1.85,18.55) ">
<use xlink:href="#IT_728x90_psd_Asset_4_ManagedWiFi_IT_Research_DM10_2_If_you_re_considering_changing_your__businesses_networking_solu_0_Layer0_0_MEMBER_31_FILL"/>
</g>

<g transform="matrix( 2.6895904541015625, 0, 0, 2.672393798828125, -1.85,18.55) ">
<use xlink:href="#IT_728x90_psd_Asset_4_ManagedWiFi_IT_Research_DM10_2_If_you_re_considering_changing_your__businesses_networking_solu_0_Layer0_0_MEMBER_32_FILL"/>
</g>

<g transform="matrix( 2.6895904541015625, 0, 0, 2.672393798828125, -1.85,18.55) ">
<use xlink:href="#IT_728x90_psd_Asset_4_ManagedWiFi_IT_Research_DM10_2_If_you_re_considering_changing_your__businesses_networking_solu_0_Layer0_0_MEMBER_33_FILL"/>
</g>

<g transform="matrix( 2.6895904541015625, 0, 0, 2.672393798828125, -1.85,18.55) ">
<use xlink:href="#IT_728x90_psd_Asset_4_ManagedWiFi_IT_Research_DM10_2_If_you_re_considering_changing_your__businesses_networking_solu_0_Layer0_0_MEMBER_34_FILL"/>
</g>

<g transform="matrix( 2.6895904541015625, 0, 0, 2.672393798828125, -1.85,18.55) ">
<use xlink:href="#IT_728x90_psd_Asset_4_ManagedWiFi_IT_Research_DM10_2_If_you_re_considering_changing_your__businesses_networking_solu_0_Layer0_0_MEMBER_35_FILL"/>
</g>

<g transform="matrix( 2.6895904541015625, 0, 0, 2.672393798828125, -1.85,18.55) ">
<use xlink:href="#IT_728x90_psd_Asset_4_ManagedWiFi_IT_Research_DM10_2_If_you_re_considering_changing_your__businesses_networking_solu_0_Layer0_0_MEMBER_36_FILL"/>
</g>

<g transform="matrix( 2.6895904541015625, 0, 0, 2.672393798828125, -1.85,18.55) ">
<use xlink:href="#IT_728x90_psd_Asset_4_ManagedWiFi_IT_Research_DM10_2_If_you_re_considering_changing_your__businesses_networking_solu_0_Layer0_0_MEMBER_37_FILL"/>
</g>

<g transform="matrix( 2.6895904541015625, 0, 0, 2.672393798828125, -1.85,18.55) ">
<use xlink:href="#IT_728x90_psd_Asset_4_ManagedWiFi_IT_Research_DM10_2_If_you_re_considering_changing_your__businesses_networking_solu_0_Layer0_0_MEMBER_38_FILL"/>
</g>

<g transform="matrix( 2.6895904541015625, 0, 0, 2.672393798828125, -1.85,18.55) ">
<use xlink:href="#IT_728x90_psd_Asset_4_ManagedWiFi_IT_Research_DM10_2_If_you_re_considering_changing_your__businesses_networking_solu_0_Layer0_0_MEMBER_39_FILL"/>
</g>

<g transform="matrix( 2.6895904541015625, 0, 0, 2.672393798828125, -1.85,18.55) ">
<use xlink:href="#IT_728x90_psd_Asset_4_ManagedWiFi_IT_Research_DM10_2_If_you_re_considering_changing_your__businesses_networking_solu_0_Layer0_0_MEMBER_40_FILL"/>
</g>

<g transform="matrix( 2.6895904541015625, 0, 0, 2.672393798828125, -1.85,18.55) ">
<use xlink:href="#IT_728x90_psd_Asset_4_ManagedWiFi_IT_Research_DM10_2_If_you_re_considering_changing_your__businesses_networking_solu_0_Layer0_0_MEMBER_41_FILL"/>
</g>

<g transform="matrix( 2.6895904541015625, 0, 0, 2.672393798828125, -1.85,18.55) ">
<use xlink:href="#IT_728x90_psd_Asset_4_ManagedWiFi_IT_Research_DM10_2_If_you_re_considering_changing_your__businesses_networking_solu_0_Layer0_0_MEMBER_42_FILL"/>
</g>

<g transform="matrix( 2.6895904541015625, 0, 0, 2.672393798828125, -1.85,18.55) ">
<use xlink:href="#IT_728x90_psd_Asset_4_ManagedWiFi_IT_Research_DM10_2_If_you_re_considering_changing_your__businesses_networking_solu_0_Layer0_0_MEMBER_43_FILL"/>
</g>

<g transform="matrix( 2.6895904541015625, 0, 0, 2.672393798828125, -1.85,18.55) ">
<use xlink:href="#IT_728x90_psd_Asset_4_ManagedWiFi_IT_Research_DM10_2_If_you_re_considering_changing_your__businesses_networking_solu_0_Layer0_0_MEMBER_44_FILL"/>
</g>

<g transform="matrix( 2.6895904541015625, 0, 0, 2.672393798828125, -1.85,18.55) ">
<use xlink:href="#IT_728x90_psd_Asset_4_ManagedWiFi_IT_Research_DM10_2_If_you_re_considering_changing_your__businesses_networking_solu_0_Layer0_0_MEMBER_45_FILL"/>
</g>

<g transform="matrix( 2.6895904541015625, 0, 0, 2.672393798828125, -1.85,18.55) ">
<use xlink:href="#IT_728x90_psd_Asset_4_ManagedWiFi_IT_Research_DM10_2_If_you_re_considering_changing_your__businesses_networking_solu_0_Layer0_0_MEMBER_46_FILL"/>
</g>

<g transform="matrix( 2.6895904541015625, 0, 0, 2.672393798828125, -1.85,18.55) ">
<use xlink:href="#IT_728x90_psd_Asset_4_ManagedWiFi_IT_Research_DM10_2_If_you_re_considering_changing_your__businesses_networking_solu_0_Layer0_0_MEMBER_47_FILL"/>
</g>

<g transform="matrix( 2.6895904541015625, 0, 0, 2.672393798828125, -1.85,18.55) ">
<use xlink:href="#IT_728x90_psd_Asset_4_ManagedWiFi_IT_Research_DM10_2_If_you_re_considering_changing_your__businesses_networking_solu_0_Layer0_0_MEMBER_48_FILL"/>
</g>

<g transform="matrix( 2.6895904541015625, 0, 0, 2.672393798828125, -1.85,18.55) ">
<use xlink:href="#IT_728x90_psd_Asset_4_ManagedWiFi_IT_Research_DM10_2_If_you_re_considering_changing_your__businesses_networking_solu_0_Layer0_0_MEMBER_49_FILL"/>
</g>

<g transform="matrix( 2.6895904541015625, 0, 0, 2.672393798828125, -1.85,18.55) ">
<use xlink:href="#IT_728x90_psd_Asset_4_ManagedWiFi_IT_Research_DM10_2_If_you_re_considering_changing_your__businesses_networking_solu_0_Layer0_0_MEMBER_50_FILL"/>
</g>

<g transform="matrix( 2.6895904541015625, 0, 0, 2.672393798828125, -1.85,18.55) ">
<use xlink:href="#IT_728x90_psd_Asset_4_ManagedWiFi_IT_Research_DM10_2_If_you_re_considering_changing_your__businesses_networking_solu_0_Layer0_0_MEMBER_51_FILL"/>
</g>

<g transform="matrix( 2.6895904541015625, 0, 0, 2.672393798828125, -1.85,18.55) ">
<use xlink:href="#IT_728x90_psd_Asset_4_ManagedWiFi_IT_Research_DM10_2_If_you_re_considering_changing_your__businesses_networking_solu_0_Layer0_0_MEMBER_52_FILL"/>
</g>

<g transform="matrix( 2.6895904541015625, 0, 0, 2.672393798828125, -1.85,18.55) ">
<use xlink:href="#IT_728x90_psd_Asset_4_ManagedWiFi_IT_Research_DM10_2_If_you_re_considering_changing_your__businesses_networking_solu_0_Layer0_0_MEMBER_53_FILL"/>
</g>

<g transform="matrix( 2.6895904541015625, 0, 0, 2.672393798828125, -1.85,18.55) ">
<use xlink:href="#IT_728x90_psd_Asset_4_ManagedWiFi_IT_Research_DM10_2_If_you_re_considering_changing_your__businesses_networking_solu_0_Layer0_0_MEMBER_54_FILL"/>
</g>

<g transform="matrix( 2.6895904541015625, 0, 0, 2.672393798828125, -1.85,18.55) ">
<use xlink:href="#IT_728x90_psd_Asset_4_ManagedWiFi_IT_Research_DM10_2_If_you_re_considering_changing_your__businesses_networking_solu_0_Layer0_0_MEMBER_55_FILL"/>
</g>

<g transform="matrix( 2.6895904541015625, 0, 0, 2.672393798828125, -1.85,18.55) ">
<use xlink:href="#IT_728x90_psd_Asset_4_ManagedWiFi_IT_Research_DM10_2_If_you_re_considering_changing_your__businesses_networking_solu_0_Layer0_0_MEMBER_56_FILL"/>
</g>

<g transform="matrix( 2.6895904541015625, 0, 0, 2.672393798828125, -1.85,18.55) ">
<use xlink:href="#IT_728x90_psd_Asset_4_ManagedWiFi_IT_Research_DM10_2_If_you_re_considering_changing_your__businesses_networking_solu_0_Layer0_0_MEMBER_57_FILL"/>
</g>

<g transform="matrix( 2.6895904541015625, 0, 0, 2.672393798828125, -1.85,18.55) ">
<use xlink:href="#IT_728x90_psd_Asset_4_ManagedWiFi_IT_Research_DM10_2_If_you_re_considering_changing_your__businesses_networking_solu_0_Layer0_0_MEMBER_58_FILL"/>
</g>

<g transform="matrix( 2.6895904541015625, 0, 0, 2.672393798828125, -1.85,18.55) ">
<use xlink:href="#IT_728x90_psd_Asset_4_ManagedWiFi_IT_Research_DM10_2_If_you_re_considering_changing_your__businesses_networking_solu_0_Layer0_0_MEMBER_59_FILL"/>
</g>
</g>
</g>
</g>
</svg>
