
<svg xmlns="http://www.w3.org/2000/svg" version="1.1" xmlns:xlink="http://www.w3.org/1999/xlink" preserveAspectRatio="none" x="0px" y="0px" width="728px" height="90px" viewBox="0 0 728 90">
<defs>
<g id="IT_728x90_psd_Asset_ManagedWiFi_IT_Awareness_DM6_2_IT_administrators_are_supporting_more_devices__hardware__softwa_0_Layer0_0_MEMBER_0_FILL">
<path fill="#D82C26" stroke="none" d="
M 1.5 -6.6
L 0.9 -6.6 0.9 0 1.5 0 1.5 -6.6 Z"/>
</g>

<g id="IT_728x90_psd_Asset_ManagedWiFi_IT_Awareness_DM6_2_IT_administrators_are_supporting_more_devices__hardware__softwa_0_Layer0_0_MEMBER_1_FILL">
<path fill="#D82C26" stroke="none" d="
M 2.55 -6.1
L 4.7 -6.1 4.7 0 5.25 0 5.25 -6.1 7.25 -6.1 7.35 -6.6 2.65 -6.6 2.55 -6.1 Z"/>
</g>

<g id="IT_728x90_psd_Asset_ManagedWiFi_IT_Awareness_DM6_2_IT_administrators_are_supporting_more_devices__hardware__softwa_0_Layer0_0_MEMBER_2_FILL">
<path fill="#D82C26" stroke="none" d="
M 11.15 -3.9
Q 11.5 -4.1 11.9 -4.1 12.5 -4.1 12.8 -3.75 13.15 -3.45 13.15 -2.9
L 13.15 -2.65 12.6 -2.65
Q 10.1 -2.65 10.1 -1.2 10.1 -0.5 10.5 -0.2 10.95 0.1 11.5 0.1 12.15 0.1 12.5 -0.15 12.9 -0.35 13.15 -0.85
L 13.2 0 13.75 0 13.65 -0.95 13.65 -2.85
Q 13.65 -3.65 13.2 -4.1 12.8 -4.5 11.95 -4.5 11.5 -4.5 11.1 -4.35 10.7 -4.3 10.35 -3.95
L 10.5 -3.55 11.15 -3.9
M 12.45 -0.5
Q 12.1 -0.3 11.6 -0.3 11.15 -0.3 10.9 -0.5 10.6 -0.7 10.6 -1.2 10.6 -2.25 12.7 -2.25
L 13.15 -2.25 13.15 -1.8
Q 13.15 -1.45 12.95 -1.1 12.8 -0.7 12.45 -0.5 Z"/>
</g>

<g id="IT_728x90_psd_Asset_ManagedWiFi_IT_Awareness_DM6_2_IT_administrators_are_supporting_more_devices__hardware__softwa_0_Layer0_0_MEMBER_3_FILL">
<path fill="#D82C26" stroke="none" d="
M 19.5 -7.2
L 18.95 -7.05 18.95 -3.45
Q 18.65 -3.95 18.2 -4.25 17.7 -4.5 17.15 -4.5 16.55 -4.5 16 -4.2 15.45 -3.85 15.25 -3.35 14.95 -2.8 14.95 -2.2 14.95 -1.5 15.25 -1 15.45 -0.6 16 -0.2 16.55 0.1 17.15 0.1 17.85 0.1 18.2 -0.15 18.75 -0.45 18.95 -0.95
L 19 -0.95 19 0 19.55 0 19.5 -7.2
M 18.15 -3.8
Q 18.5 -3.6 18.75 -3.1 19 -2.7 19 -2.2 19 -1.75 18.75 -1.25 18.5 -0.8 18.15 -0.6 17.8 -0.35 17.25 -0.35 16.65 -0.35 16.35 -0.6 15.9 -0.85 15.75 -1.25 15.5 -1.75 15.5 -2.2 15.5 -2.7 15.75 -3.1 15.9 -3.6 16.35 -3.8 16.75 -4.05 17.25 -4.05 17.65 -4.05 18.15 -3.8 Z"/>
</g>

<g id="IT_728x90_psd_Asset_ManagedWiFi_IT_Awareness_DM6_2_IT_administrators_are_supporting_more_devices__hardware__softwa_0_Layer0_0_MEMBER_4_FILL">
<path fill="#D82C26" stroke="none" d="
M 23.1 -4.05
Q 23.6 -4.05 23.9 -3.65 24.2 -3.25 24.2 -2.6
L 24.2 0 24.75 0 24.75 -2.25
Q 24.75 -3.05 25.1 -3.55 25.55 -4.05 26.1 -4.05 26.8 -4.05 27 -3.6 27.3 -3.15 27.3 -2.5
L 27.3 0 27.8 0 27.8 -2.65
Q 27.8 -3.45 27.45 -4 27.1 -4.5 26.25 -4.5 25.7 -4.5 25.25 -4.2 24.85 -3.9 24.65 -3.4 24.5 -3.85 24.1 -4.2 23.8 -4.5 23.2 -4.5 22.7 -4.5 22.3 -4.2 21.9 -4 21.7 -3.45
L 21.65 -4.4 21.1 -4.4 21.15 0 21.7 0 21.7 -2.2
Q 21.7 -2.8 21.9 -3.2 22.05 -3.6 22.4 -3.85 22.65 -4.05 23.1 -4.05 Z"/>
</g>

<g id="IT_728x90_psd_Asset_ManagedWiFi_IT_Awareness_DM6_2_IT_administrators_are_supporting_more_devices__hardware__softwa_0_Layer0_0_MEMBER_5_FILL">
<path fill="#D82C26" stroke="none" d="
M 30 -4.4
L 29.45 -4.4 29.45 0 30 0 30 -4.4
M 29.95 -6.4
Q 29.9 -6.55 29.7 -6.55
L 29.4 -6.4 29.3 -6.15 29.4 -5.85
Q 29.5 -5.75 29.7 -5.75 29.9 -5.75 29.95 -5.85 30.1 -6 30.1 -6.15 30.1 -6.3 29.95 -6.4 Z"/>
</g>

<g id="IT_728x90_psd_Asset_ManagedWiFi_IT_Awareness_DM6_2_IT_administrators_are_supporting_more_devices__hardware__softwa_0_Layer0_0_MEMBER_6_FILL">
<path fill="#D82C26" stroke="none" d="
M 35 -4
Q 34.55 -4.5 33.75 -4.5 33.25 -4.5 32.8 -4.2 32.35 -3.9 32.2 -3.45
L 32.15 -3.45 32.1 -4.4 31.6 -4.4 31.65 0 32.2 0 32.2 -2.25
Q 32.2 -2.85 32.4 -3.2 32.5 -3.55 32.9 -3.85 33.25 -4.05 33.65 -4.05 34.35 -4.05 34.55 -3.6 34.85 -3.2 34.85 -2.55
L 34.85 0 35.4 0 35.4 -2.7
Q 35.4 -3.45 35 -4 Z"/>
</g>

<g id="IT_728x90_psd_Asset_ManagedWiFi_IT_Awareness_DM6_2_IT_administrators_are_supporting_more_devices__hardware__softwa_0_Layer0_0_MEMBER_7_FILL">
<path fill="#D82C26" stroke="none" d="
M 37.55 -4.4
L 37 -4.4 37 0 37.55 0 37.55 -4.4
M 37.55 -6.4
L 37.25 -6.55
Q 37.1 -6.55 37 -6.4 36.85 -6.3 36.85 -6.15 36.85 -6 37 -5.85 37.05 -5.75 37.25 -5.75 37.45 -5.75 37.55 -5.85
L 37.65 -6.15 37.55 -6.4 Z"/>
</g>

<g id="IT_728x90_psd_Asset_ManagedWiFi_IT_Awareness_DM6_2_IT_administrators_are_supporting_more_devices__hardware__softwa_0_Layer0_0_MEMBER_8_FILL">
<path fill="#D82C26" stroke="none" d="
M 39.15 -3.95
Q 38.95 -3.75 38.95 -3.3 38.95 -2.85 39.25 -2.55 39.55 -2.25 40.15 -2.1 40.8 -1.9 41.1 -1.65 41.4 -1.5 41.4 -1.15 41.4 -0.75 41.1 -0.55 40.75 -0.3 40.4 -0.3 39.6 -0.3 38.95 -0.85
L 38.85 -0.35
Q 39 -0.2 39.5 0 39.8 0.1 40.4 0.1
L 41.15 0
Q 41.5 -0.15 41.7 -0.45 41.9 -0.7 41.9 -1.15 41.9 -1.65 41.6 -1.95 41.05 -2.3 40.55 -2.45 39.85 -2.7 39.7 -2.85 39.45 -3 39.45 -3.35 39.45 -3.65 39.7 -3.9 40.1 -4.1 40.4 -4.1 40.7 -4.1 41 -3.95 41.15 -3.9 41.55 -3.65
L 41.75 -4.05
Q 41.55 -4.25 41.15 -4.4
L 40.4 -4.5 39.7 -4.4
Q 39.4 -4.3 39.15 -3.95 Z"/>
</g>

<g id="IT_728x90_psd_Asset_ManagedWiFi_IT_Awareness_DM6_2_IT_administrators_are_supporting_more_devices__hardware__softwa_0_Layer0_0_MEMBER_9_FILL">
<path fill="#D82C26" stroke="none" d="
M 43.5 -5.45
L 43.5 -4.4 42.8 -4.4 42.7 -3.95 43.5 -3.95 43.5 -1.05
Q 43.5 -0.55 43.75 -0.2 44.05 0.1 44.5 0.1
L 45 0.05 45.45 -0.15 45.4 -0.55
Q 45 -0.35 44.7 -0.35 44.4 -0.35 44.2 -0.55 44.05 -0.7 44.05 -1.15
L 44.05 -3.95 45.15 -3.95 45.3 -4.4 44.05 -4.4 44.05 -5.65 43.5 -5.45 Z"/>
</g>

<g id="IT_728x90_psd_Asset_ManagedWiFi_IT_Awareness_DM6_2_IT_administrators_are_supporting_more_devices__hardware__softwa_0_Layer0_0_MEMBER_10_FILL">
<path fill="#D82C26" stroke="none" d="
M 48.8 -4.45
L 48.35 -4.5
Q 47.95 -4.5 47.55 -4.2 47.2 -3.95 47.05 -3.45
L 47 -4.4 46.45 -4.4 46.5 0 47.05 0 47.05 -2.2
Q 47.05 -3 47.4 -3.5 47.7 -4 48.3 -4
L 48.7 -3.95 48.8 -4.45 Z"/>
</g>

<g id="IT_728x90_psd_Asset_ManagedWiFi_IT_Awareness_DM6_2_IT_administrators_are_supporting_more_devices__hardware__softwa_0_Layer0_0_MEMBER_11_FILL">
<path fill="#D82C26" stroke="none" d="
M 49.45 -1.2
Q 49.45 -0.5 49.9 -0.2 50.3 0.1 50.85 0.1 51.5 0.1 51.85 -0.15 52.25 -0.35 52.5 -0.85
L 52.6 0 53.1 0 53 -0.95 53 -2.85
Q 53 -3.65 52.55 -4.1 52.2 -4.5 51.35 -4.5 50.9 -4.5 50.45 -4.35 50.05 -4.3 49.7 -3.95
L 49.85 -3.55 50.5 -3.9
Q 50.85 -4.1 51.25 -4.1 51.85 -4.1 52.15 -3.75 52.5 -3.45 52.5 -2.9
L 52.5 -2.65 51.95 -2.65
Q 49.45 -2.65 49.45 -1.2
M 50.25 -0.5
Q 50 -0.75 50 -1.2 50 -2.25 52.05 -2.25
L 52.5 -2.25 52.5 -1.8 52.35 -1.1
Q 52.1 -0.7 51.8 -0.5 51.55 -0.3 50.95 -0.3 50.5 -0.3 50.25 -0.5 Z"/>
</g>

<g id="IT_728x90_psd_Asset_ManagedWiFi_IT_Awareness_DM6_2_IT_administrators_are_supporting_more_devices__hardware__softwa_0_Layer0_0_MEMBER_12_FILL">
<path fill="#D82C26" stroke="none" d="
M 55.3 -4.4
L 55.3 -5.65 54.7 -5.45 54.7 -4.4 54 -4.4 53.9 -3.95 54.75 -3.95 54.75 -1.05
Q 54.75 -0.55 55 -0.2 55.3 0.1 55.75 0.1
L 56.25 0.05 56.7 -0.15 56.6 -0.55
Q 56.25 -0.35 55.9 -0.35 55.6 -0.35 55.45 -0.55 55.3 -0.7 55.3 -1.15
L 55.3 -3.95 56.4 -3.95 56.5 -4.4 55.3 -4.4 Z"/>
</g>

<g id="IT_728x90_psd_Asset_ManagedWiFi_IT_Awareness_DM6_2_IT_administrators_are_supporting_more_devices__hardware__softwa_0_Layer0_0_MEMBER_13_FILL">
<path fill="#D82C26" stroke="none" d="
M 59.6 -4.5
Q 58.95 -4.5 58.4 -4.2 57.9 -4 57.55 -3.4 57.25 -2.85 57.25 -2.2 57.25 -1.5 57.55 -1 57.85 -0.45 58.4 -0.15 58.95 0.15 59.6 0.15 60.3 0.15 60.8 -0.15 61.35 -0.45 61.65 -1 61.95 -1.5 61.95 -2.2 61.95 -2.85 61.65 -3.4 61.3 -4 60.8 -4.2 60.3 -4.5 59.6 -4.5
M 59.6 -4.05
Q 60.05 -4.05 60.55 -3.8 60.9 -3.6 61.15 -3.15 61.4 -2.65 61.4 -2.2 61.4 -1.75 61.15 -1.25 60.9 -0.8 60.55 -0.6 60.2 -0.35 59.6 -0.35 58.95 -0.35 58.65 -0.6 58.2 -0.85 58.05 -1.25 57.8 -1.75 57.8 -2.2 57.8 -2.65 58.05 -3.15 58.2 -3.55 58.65 -3.8 59.05 -4.05 59.6 -4.05 Z"/>
</g>

<g id="IT_728x90_psd_Asset_ManagedWiFi_IT_Awareness_DM6_2_IT_administrators_are_supporting_more_devices__hardware__softwa_0_Layer0_0_MEMBER_14_FILL">
<path fill="#D82C26" stroke="none" d="
M 63.8 -3.45
L 63.75 -4.4 63.25 -4.4 63.3 0 63.85 0 63.85 -2.2
Q 63.85 -2.95 64.15 -3.5 64.5 -4 65.05 -4
L 65.45 -3.95 65.55 -4.45 65.1 -4.5
Q 64.75 -4.5 64.35 -4.2 64.05 -4 63.85 -3.45
L 63.8 -3.45 Z"/>
</g>

<g id="IT_728x90_psd_Asset_ManagedWiFi_IT_Awareness_DM6_2_IT_administrators_are_supporting_more_devices__hardware__softwa_0_Layer0_0_MEMBER_15_FILL">
<path fill="#D82C26" stroke="none" d="
M 69.15 -4.05
Q 68.95 -4.25 68.55 -4.4
L 67.75 -4.5 67.1 -4.4
Q 66.7 -4.25 66.55 -3.95 66.3 -3.7 66.3 -3.3 66.3 -2.9 66.65 -2.55 66.95 -2.25 67.55 -2.1 68.2 -1.9 68.5 -1.65 68.75 -1.5 68.75 -1.15 68.75 -0.75 68.5 -0.55 68.15 -0.3 67.8 -0.3 67 -0.3 66.35 -0.85
L 66.25 -0.35
Q 66.4 -0.2 66.9 0 67.2 0.1 67.8 0.1
L 68.55 0
Q 68.9 -0.15 69.1 -0.45 69.3 -0.7 69.3 -1.15 69.3 -1.65 68.95 -1.95 68.55 -2.25 67.95 -2.45 67.25 -2.7 67.1 -2.85 66.85 -2.95 66.85 -3.35 66.85 -3.65 67.1 -3.9 67.5 -4.1 67.8 -4.1 68.1 -4.1 68.4 -3.95 68.55 -3.9 68.95 -3.65
L 69.15 -4.05 Z"/>
</g>

<g id="IT_728x90_psd_Asset_ManagedWiFi_IT_Awareness_DM6_2_IT_administrators_are_supporting_more_devices__hardware__softwa_0_Layer0_0_MEMBER_16_FILL">
<path fill="#D82C26" stroke="none" d="
M 74.35 -4.5
Q 73.9 -4.5 73.45 -4.35 73.05 -4.3 72.7 -3.95
L 72.85 -3.55 73.5 -3.9
Q 73.85 -4.1 74.25 -4.1 74.85 -4.1 75.15 -3.75 75.5 -3.45 75.5 -2.9
L 75.5 -2.65 74.95 -2.65
Q 72.45 -2.65 72.45 -1.2 72.45 -0.5 72.85 -0.2 73.3 0.1 73.85 0.1 74.5 0.1 74.85 -0.15 75.25 -0.35 75.5 -0.85
L 75.6 0 76.1 0 76 -0.95 76 -2.85
Q 76 -3.65 75.55 -4.1 75.15 -4.5 74.35 -4.5
M 73.25 -0.5
Q 73 -0.75 73 -1.2 73 -2.25 75.05 -2.25
L 75.5 -2.25 75.5 -1.8 75.35 -1.1
Q 75.1 -0.7 74.8 -0.5 74.55 -0.3 73.95 -0.3 73.5 -0.3 73.25 -0.5 Z"/>
</g>

<g id="IT_728x90_psd_Asset_ManagedWiFi_IT_Awareness_DM6_2_IT_administrators_are_supporting_more_devices__hardware__softwa_0_Layer0_0_MEMBER_17_FILL">
<path fill="#D82C26" stroke="none" d="
M 79.45 -4.5
Q 79.1 -4.5 78.7 -4.2 78.45 -4.05 78.15 -3.45
L 78.1 -4.4 77.6 -4.4 77.65 0 78.2 0 78.2 -2.2
Q 78.2 -2.95 78.5 -3.5 78.85 -4 79.4 -4
L 79.8 -3.95 79.9 -4.45 79.45 -4.5 Z"/>
</g>

<g id="IT_728x90_psd_Asset_ManagedWiFi_IT_Awareness_DM6_2_IT_administrators_are_supporting_more_devices__hardware__softwa_0_Layer0_0_MEMBER_18_FILL">
<path fill="#D82C26" stroke="none" d="
M 80.4 -2.2
Q 80.4 -1.5 80.7 -1 81.05 -0.4 81.5 -0.15 82.05 0.15 82.65 0.15 83.6 0.15 84.4 -0.4
L 84.3 -0.9
Q 83.9 -0.6 83.6 -0.5 83.2 -0.3 82.7 -0.3 82.2 -0.3 81.8 -0.55 81.4 -0.8 81.15 -1.2 80.95 -1.6 80.95 -2.1
L 84.65 -2.1 84.65 -2.35
Q 84.65 -3 84.4 -3.45 84.15 -3.95 83.7 -4.25 83.2 -4.5 82.55 -4.5 82 -4.5 81.45 -4.2 81.05 -4 80.7 -3.4 80.4 -2.85 80.4 -2.2
M 81.7 -3.85
Q 82.1 -4.1 82.55 -4.1 83.25 -4.1 83.7 -3.65 84.05 -3.3 84.15 -2.5
L 80.95 -2.5
Q 80.95 -2.75 81.15 -3.25 81.45 -3.65 81.7 -3.85 Z"/>
</g>

<g id="IT_728x90_psd_Asset_ManagedWiFi_IT_Awareness_DM6_2_IT_administrators_are_supporting_more_devices__hardware__softwa_0_Layer0_0_MEMBER_19_FILL">
<path fill="#D82C26" stroke="none" d="
M 89.4 -4.5
L 88.7 -4.4
Q 88.4 -4.3 88.15 -3.95 87.95 -3.75 87.95 -3.3 87.95 -2.85 88.25 -2.55 88.55 -2.25 89.2 -2.1
L 90.1 -1.65
Q 90.4 -1.5 90.4 -1.15 90.4 -0.75 90.1 -0.55 89.75 -0.3 89.4 -0.3 88.6 -0.3 87.95 -0.85
L 87.85 -0.35 88.55 0
Q 88.8 0.1 89.4 0.1
L 90.15 0
Q 90.45 -0.1 90.7 -0.45 90.9 -0.7 90.9 -1.15 90.9 -1.65 90.6 -1.95 90.05 -2.3 89.55 -2.45 88.85 -2.7 88.7 -2.85 88.45 -3 88.45 -3.35 88.45 -3.65 88.7 -3.9 89.1 -4.1 89.4 -4.1 89.75 -4.1 90.05 -3.95
L 90.55 -3.65 90.8 -4.05 90.15 -4.4 89.4 -4.5 Z"/>
</g>

<g id="IT_728x90_psd_Asset_ManagedWiFi_IT_Awareness_DM6_2_IT_administrators_are_supporting_more_devices__hardware__softwa_0_Layer0_0_MEMBER_20_FILL">
<path fill="#D82C26" stroke="none" d="
M 95.85 -4.4
L 95.3 -4.4 95.3 -2.2
Q 95.3 -1.6 95.1 -1.2 95 -0.85 94.6 -0.55 94.25 -0.35 93.85 -0.35 93.15 -0.35 92.9 -0.75 92.65 -1.25 92.65 -1.85
L 92.65 -4.4 92.1 -4.4 92.1 -1.7
Q 92.1 -0.95 92.5 -0.4 92.85 0.1 93.7 0.1 94.25 0.1 94.65 -0.15 95.15 -0.5 95.3 -0.95
L 95.4 0 95.95 0 95.85 -0.5 95.85 -4.4 Z"/>
</g>

<g id="IT_728x90_psd_Asset_ManagedWiFi_IT_Awareness_DM6_2_IT_administrators_are_supporting_more_devices__hardware__softwa_0_Layer0_0_MEMBER_21_FILL">
<path fill="#D82C26" stroke="none" d="
M 99.85 -4.5
Q 99.35 -4.5 98.8 -4.2 98.35 -3.95 98.1 -3.4
L 98.05 -3.4 98 -4.4 97.5 -4.4 97.5 2.25 98.05 2.25 98.05 -0.95 98.1 -0.95
Q 98.3 -0.5 98.8 -0.15 99.25 0.1 99.85 0.1 100.55 0.1 101 -0.2 101.5 -0.5 101.8 -1 102.05 -1.6 102.05 -2.2 102.05 -2.75 101.8 -3.35 101.45 -3.95 101 -4.2 100.55 -4.5 99.85 -4.5
M 99.8 -4.05
Q 100.3 -4.05 100.7 -3.8 101.05 -3.6 101.3 -3.1 101.5 -2.75 101.5 -2.2 101.5 -1.65 101.3 -1.25 101.1 -0.85 100.7 -0.6 100.4 -0.35 99.8 -0.35 99.2 -0.35 98.9 -0.6 98.55 -0.8 98.3 -1.25 98.05 -1.75 98.05 -2.2 98.05 -2.7 98.3 -3.1 98.55 -3.6 98.9 -3.8 99.3 -4.05 99.8 -4.05 Z"/>
</g>

<g id="IT_728x90_psd_Asset_ManagedWiFi_IT_Awareness_DM6_2_IT_administrators_are_supporting_more_devices__hardware__softwa_0_Layer0_0_MEMBER_22_FILL">
<path fill="#D82C26" stroke="none" d="
M 104.7 -4.2
Q 104.25 -3.95 104 -3.4
L 103.95 -3.4 103.9 -4.4 103.4 -4.4 103.4 2.25 103.95 2.25 103.95 -0.95 104 -0.95
Q 104.2 -0.5 104.7 -0.15 105.15 0.1 105.75 0.1 106.4 0.1 106.9 -0.2 107.4 -0.5 107.7 -1 107.95 -1.6 107.95 -2.2 107.95 -2.75 107.7 -3.35 107.35 -3.95 106.9 -4.2 106.4 -4.5 105.75 -4.5 105.25 -4.5 104.7 -4.2
M 104.8 -3.8
Q 105.2 -4.05 105.7 -4.05 106.2 -4.05 106.6 -3.8 106.95 -3.6 107.2 -3.1 107.4 -2.75 107.4 -2.2 107.4 -1.65 107.2 -1.25 107 -0.85 106.6 -0.6 106.3 -0.35 105.7 -0.35 105.1 -0.35 104.8 -0.6 104.4 -0.85 104.15 -1.25 103.95 -1.65 103.95 -2.2 103.95 -2.75 104.15 -3.1 104.35 -3.55 104.8 -3.8 Z"/>
</g>

<g id="IT_728x90_psd_Asset_ManagedWiFi_IT_Awareness_DM6_2_IT_administrators_are_supporting_more_devices__hardware__softwa_0_Layer0_0_MEMBER_23_FILL">
<path fill="#D82C26" stroke="none" d="
M 110.15 -4.2
Q 109.7 -4 109.35 -3.4 109.05 -2.85 109.05 -2.2 109.05 -1.5 109.35 -1 109.7 -0.4 110.15 -0.15 110.7 0.15 111.35 0.15 112.05 0.15 112.55 -0.15 113.1 -0.45 113.4 -1 113.7 -1.5 113.7 -2.2 113.7 -2.85 113.4 -3.4 113.05 -4 112.55 -4.2 112.05 -4.5 111.35 -4.5 110.7 -4.5 110.15 -4.2
M 110.4 -3.8
Q 110.9 -4.05 111.35 -4.05 111.9 -4.05 112.3 -3.8 112.7 -3.55 112.95 -3.15 113.15 -2.55 113.15 -2.2 113.15 -1.65 112.95 -1.25 112.65 -0.8 112.3 -0.6 112 -0.35 111.35 -0.35 110.8 -0.35 110.4 -0.6 110.05 -0.8 109.8 -1.25 109.6 -1.65 109.6 -2.2 109.6 -2.75 109.8 -3.15 110.05 -3.6 110.4 -3.8 Z"/>
</g>

<g id="IT_728x90_psd_Asset_ManagedWiFi_IT_Awareness_DM6_2_IT_administrators_are_supporting_more_devices__hardware__softwa_0_Layer0_0_MEMBER_24_FILL">
<path fill="#D82C26" stroke="none" d="
M 115.55 -4.4
L 115 -4.4 115.05 0 115.6 0 115.6 -2.2
Q 115.6 -3 115.95 -3.5 116.25 -4 116.85 -4
L 117.25 -3.95 117.35 -4.45 116.85 -4.5
Q 116.5 -4.5 116.1 -4.2 115.75 -3.95 115.6 -3.45
L 115.55 -3.45 115.55 -4.4 Z"/>
</g>

<g id="IT_728x90_psd_Asset_ManagedWiFi_IT_Awareness_DM6_2_IT_administrators_are_supporting_more_devices__hardware__softwa_0_Layer0_0_MEMBER_25_FILL">
<path fill="#D82C26" stroke="none" d="
M 119.3 -4.4
L 119.3 -5.65 118.7 -5.45 118.7 -4.4 118 -4.4 117.9 -3.95 118.75 -3.95 118.75 -1.05
Q 118.75 -0.45 119 -0.2 119.3 0.1 119.75 0.1
L 120.25 0.05 120.7 -0.15 120.6 -0.55
Q 120.25 -0.35 119.9 -0.35 119.6 -0.35 119.45 -0.55 119.3 -0.7 119.3 -1.15
L 119.3 -3.95 120.4 -3.95 120.5 -4.4 119.3 -4.4 Z"/>
</g>

<g id="IT_728x90_psd_Asset_ManagedWiFi_IT_Awareness_DM6_2_IT_administrators_are_supporting_more_devices__hardware__softwa_0_Layer0_0_MEMBER_26_FILL">
<path fill="#D82C26" stroke="none" d="
M 122.3 -4.4
L 121.75 -4.4 121.75 0 122.3 0 122.3 -4.4
M 122.3 -6.4
L 122 -6.55
Q 121.85 -6.55 121.75 -6.4 121.6 -6.3 121.6 -6.15 121.6 -6 121.75 -5.85 121.8 -5.75 122 -5.75 122.2 -5.75 122.3 -5.85
L 122.4 -6.15 122.3 -6.4 Z"/>
</g>

<g id="IT_728x90_psd_Asset_ManagedWiFi_IT_Awareness_DM6_2_IT_administrators_are_supporting_more_devices__hardware__softwa_0_Layer0_0_MEMBER_27_FILL">
<path fill="#D82C26" stroke="none" d="
M 125.1 -4.2
Q 124.65 -3.9 124.5 -3.45
L 124.45 -3.45 124.4 -4.4 123.9 -4.4 123.95 0 124.5 0 124.5 -2.25
Q 124.5 -2.85 124.7 -3.2 124.8 -3.55 125.2 -3.85 125.55 -4.05 125.95 -4.05 126.65 -4.05 126.85 -3.6 127.15 -3.2 127.15 -2.55
L 127.15 0 127.7 0 127.7 -2.7
Q 127.7 -3.45 127.3 -4 126.95 -4.5 126.05 -4.5 125.55 -4.5 125.1 -4.2 Z"/>
</g>

<g id="IT_728x90_psd_Asset_ManagedWiFi_IT_Awareness_DM6_2_IT_administrators_are_supporting_more_devices__hardware__softwa_0_Layer0_0_MEMBER_28_FILL">
<path fill="#D82C26" stroke="none" d="
M 130.05 -4.2
Q 129.5 -3.85 129.3 -3.35 129 -2.8 129 -2.2 129 -1.55 129.3 -1.05 129.5 -0.55 130.05 -0.2 130.6 0.1 131.2 0.1 131.8 0.1 132.25 -0.2 132.7 -0.45 133 -1
L 133 -0.05
Q 133 0.85 132.55 1.35 132.15 1.85 131.2 1.85 130.65 1.85 130.25 1.65 129.65 1.45 129.4 1.25
L 129.3 1.75
Q 129.55 1.95 130.15 2.15
L 131.2 2.3
Q 132.4 2.3 133 1.65 133.55 1 133.55 -0.05
L 133.55 -4.4 133.05 -4.4 133 -3.4
Q 132.65 -4 132.25 -4.2 131.8 -4.5 131.2 -4.5 130.6 -4.5 130.05 -4.2
M 130.35 -3.8
Q 130.85 -4.05 131.3 -4.05 131.75 -4.05 132.15 -3.8 132.5 -3.6 132.8 -3.15 133 -2.75 133 -2.2 133 -1.65 132.8 -1.3 132.6 -0.9 132.15 -0.6 131.75 -0.35 131.3 -0.35 130.85 -0.35 130.35 -0.6 129.95 -0.95 129.75 -1.3 129.55 -1.8 129.55 -2.2 129.55 -2.6 129.75 -3.1 130 -3.6 130.35 -3.8 Z"/>
</g>

<g id="IT_728x90_psd_Asset_ManagedWiFi_IT_Awareness_DM6_2_IT_administrators_are_supporting_more_devices__hardware__softwa_0_Layer0_0_MEMBER_29_FILL">
<path fill="#D82C26" stroke="none" d="
M 1.35 6.1
L 0.85 6.1 0.9 10.5 1.45 10.5 1.45 8.3
Q 1.45 7.75 1.6 7.3 1.8 6.85 2.1 6.65 2.35 6.45 2.8 6.45 3.35 6.45 3.65 6.8 3.9 7.2 3.9 7.9
L 3.9 10.5 4.45 10.5 4.45 8.2
Q 4.45 7.45 4.85 6.9 5.25 6.45 5.85 6.45 6.45 6.45 6.75 6.85 7 7.35 7 8
L 7 10.5 7.55 10.5 7.55 7.85
Q 7.55 7.05 7.15 6.5 6.75 5.95 5.95 5.95 5.4 5.95 5 6.25 4.6 6.5 4.35 7.1 4.2 6.5 3.85 6.25 3.5 5.95 2.95 5.95 2.45 5.95 2 6.25 1.6 6.55 1.4 7.05
L 1.35 6.1 Z"/>
</g>

<g id="IT_728x90_psd_Asset_ManagedWiFi_IT_Awareness_DM6_2_IT_administrators_are_supporting_more_devices__hardware__softwa_0_Layer0_0_MEMBER_30_FILL">
<path fill="#D82C26" stroke="none" d="
M 13.5 8.3
Q 13.5 7.65 13.2 7.1 12.95 6.55 12.4 6.25 11.9 5.95 11.2 5.95 10.55 5.95 10 6.25 9.4 6.6 9.15 7.1 8.85 7.65 8.85 8.3 8.85 8.9 9.15 9.5 9.4 9.95 10 10.3 10.55 10.6 11.2 10.6 11.9 10.6 12.4 10.3 12.9 10 13.2 9.5 13.5 8.9 13.5 8.3
M 12.95 8.3
Q 12.95 8.85 12.75 9.2 12.55 9.55 12.15 9.9 11.65 10.15 11.2 10.15 10.65 10.15 10.25 9.9 9.8 9.6 9.6 9.2 9.4 8.7 9.4 8.3 9.4 7.85 9.6 7.35 9.8 6.95 10.25 6.65 10.6 6.45 11.2 6.45 11.75 6.45 12.1 6.65 12.55 6.95 12.75 7.35 12.95 7.7 12.95 8.3 Z"/>
</g>

<g id="IT_728x90_psd_Asset_ManagedWiFi_IT_Awareness_DM6_2_IT_administrators_are_supporting_more_devices__hardware__softwa_0_Layer0_0_MEMBER_31_FILL">
<path fill="#D82C26" stroke="none" d="
M 17.15 6.05
L 16.7 5.95
Q 16.35 5.95 15.95 6.25 15.65 6.5 15.4 7.05
L 15.35 6.1 14.85 6.1 14.85 10.5 15.45 10.5 15.45 8.3
Q 15.45 7.55 15.75 7 16.15 6.45 16.65 6.45
L 17.05 6.5 17.15 6.05 Z"/>
</g>

<g id="IT_728x90_psd_Asset_ManagedWiFi_IT_Awareness_DM6_2_IT_administrators_are_supporting_more_devices__hardware__softwa_0_Layer0_0_MEMBER_32_FILL">
<path fill="#D82C26" stroke="none" d="
M 21.65 7.05
Q 21.45 6.6 20.95 6.25 20.5 5.95 19.8 5.95 19.25 5.95 18.7 6.25 18.25 6.55 17.95 7.05 17.65 7.6 17.65 8.25 17.65 8.9 17.95 9.5 18.25 10 18.75 10.3 19.3 10.6 19.9 10.6 20.85 10.6 21.65 10.05
L 21.55 9.6 20.85 10
Q 20.4 10.15 19.95 10.15 19.35 10.15 19.05 9.9 18.6 9.6 18.4 9.25 18.2 8.9 18.2 8.35
L 21.9 8.35 21.9 8.15
Q 21.9 7.45 21.65 7.05
M 20.95 6.8
Q 21.3 7.15 21.4 7.95
L 18.2 7.95
Q 18.2 7.75 18.4 7.25 18.65 6.85 18.95 6.65 19.25 6.4 19.8 6.4 20.45 6.4 20.95 6.8 Z"/>
</g>

<g id="IT_728x90_psd_Asset_ManagedWiFi_IT_Awareness_DM6_2_IT_administrators_are_supporting_more_devices__hardware__softwa_0_Layer0_0_MEMBER_33_FILL">
<path fill="#D82C26" stroke="none" d="
M 29.65 3.3
L 29.1 3.4 29.1 7.05
Q 28.8 6.55 28.35 6.25 27.9 5.95 27.3 5.95 26.7 5.95 26.15 6.25 25.55 6.75 25.4 7.1 25.1 7.65 25.1 8.3 25.1 8.95 25.4 9.45 25.6 9.95 26.15 10.3 26.7 10.6 27.3 10.6 27.9 10.6 28.35 10.3 28.75 10.1 29.1 9.5
L 29.15 10.5 29.7 10.5 29.65 3.3
M 29.1 8.3
Q 29.1 8.85 28.9 9.2 28.7 9.6 28.25 9.9 27.85 10.15 27.4 10.15 26.95 10.15 26.45 9.9 26.1 9.7 25.85 9.2 25.65 8.7 25.65 8.3 25.65 7.95 25.85 7.35 26.05 6.95 26.45 6.7 26.85 6.45 27.4 6.45 27.95 6.45 28.25 6.7 28.7 6.9 28.9 7.35 29.1 7.75 29.1 8.3 Z"/>
</g>

<g id="IT_728x90_psd_Asset_ManagedWiFi_IT_Awareness_DM6_2_IT_administrators_are_supporting_more_devices__hardware__softwa_0_Layer0_0_MEMBER_34_FILL">
<path fill="#D82C26" stroke="none" d="
M 35 7.05
Q 34.8 6.6 34.3 6.25 33.85 5.95 33.2 5.95 32.6 5.95 32.05 6.25 31.6 6.55 31.3 7.05 31 7.6 31 8.25 31 8.9 31.3 9.5 31.6 10 32.1 10.3 32.65 10.6 33.25 10.6 34.2 10.6 35 10.05
L 34.9 9.6
Q 34.5 9.9 34.2 10 33.75 10.15 33.3 10.15 32.7 10.15 32.4 9.9 31.95 9.6 31.75 9.25 31.55 8.9 31.55 8.35
L 35.25 8.35 35.25 8.15
Q 35.25 7.45 35 7.05
M 34.3 6.8
Q 34.75 7.25 34.75 7.95
L 31.55 7.95
Q 31.55 7.75 31.75 7.25 32 6.85 32.3 6.65 32.6 6.4 33.2 6.4 33.8 6.4 34.3 6.8 Z"/>
</g>

<g id="IT_728x90_psd_Asset_ManagedWiFi_IT_Awareness_DM6_2_IT_administrators_are_supporting_more_devices__hardware__softwa_0_Layer0_0_MEMBER_35_FILL">
<path fill="#D82C26" stroke="none" d="
M 35.85 6.1
L 37.55 10.5 38.15 10.5 39.8 6.1 39.25 6.1 37.85 9.95 36.45 6.1 35.85 6.1 Z"/>
</g>

<g id="IT_728x90_psd_Asset_ManagedWiFi_IT_Awareness_DM6_2_IT_administrators_are_supporting_more_devices__hardware__softwa_0_Layer0_0_MEMBER_36_FILL">
<path fill="#D82C26" stroke="none" d="
M 41.4 6.1
L 40.85 6.1 40.85 10.5 41.4 10.5 41.4 6.1
M 41.5 4.35
L 41.4 4.05 41.1 3.95 40.85 4.05 40.7 4.35 40.85 4.65 41.1 4.75 41.4 4.65 41.5 4.35 Z"/>
</g>

<g id="IT_728x90_psd_Asset_ManagedWiFi_IT_Awareness_DM6_2_IT_administrators_are_supporting_more_devices__hardware__softwa_0_Layer0_0_MEMBER_37_FILL">
<path fill="#D82C26" stroke="none" d="
M 43.3 8.3
Q 43.3 7.75 43.5 7.35 43.7 6.95 44.1 6.7 44.5 6.45 45.05 6.45 45.5 6.45 45.7 6.55 46.1 6.7 46.3 6.9
L 46.5 6.5
Q 46.25 6.25 45.85 6.1 45.5 5.95 45 5.95 44.4 5.95 43.85 6.25 43.3 6.55 43 7.1 42.7 7.65 42.7 8.3 42.7 9 43 9.5 43.25 9.95 43.85 10.3 44.4 10.6 45 10.6 45.5 10.6 45.85 10.45 46.35 10.25 46.5 10.1
L 46.45 9.6
Q 46.3 9.75 45.8 10 45.5 10.15 45.05 10.15 44.6 10.15 44.1 9.9 43.7 9.55 43.5 9.2 43.3 8.85 43.3 8.3 Z"/>
</g>

<g id="IT_728x90_psd_Asset_ManagedWiFi_IT_Awareness_DM6_2_IT_administrators_are_supporting_more_devices__hardware__softwa_0_Layer0_0_MEMBER_38_FILL">
<path fill="#D82C26" stroke="none" d="
M 51.55 8.15
Q 51.55 7.55 51.3 7.05 51.1 6.6 50.6 6.25 50.1 5.95 49.45 5.95 48.9 5.95 48.35 6.25 47.85 6.55 47.55 7.05 47.3 7.5 47.3 8.25 47.3 8.85 47.55 9.5 47.8 9.95 48.35 10.3 48.9 10.6 49.5 10.6 50.55 10.6 51.25 10.05
L 51.2 9.6
Q 50.85 9.85 50.45 10 50.1 10.15 49.55 10.15 49.05 10.15 48.65 9.9 48.25 9.65 48.05 9.25 47.8 8.85 47.8 8.35
L 51.55 8.35 51.55 8.15
M 49.45 6.4
Q 50.15 6.4 50.55 6.8 51 7.25 51 7.95
L 47.8 7.95
Q 47.9 7.45 48.05 7.25 48.2 6.9 48.6 6.65 48.9 6.4 49.45 6.4 Z"/>
</g>

<g id="IT_728x90_psd_Asset_ManagedWiFi_IT_Awareness_DM6_2_IT_administrators_are_supporting_more_devices__hardware__softwa_0_Layer0_0_MEMBER_39_FILL">
<path fill="#D82C26" stroke="none" d="
M 54.05 5.95
L 53.35 6.1
Q 52.95 6.3 52.85 6.5 52.6 6.85 52.6 7.15 52.6 7.65 52.95 7.95
L 54.8 8.8
Q 55.05 9.05 55.05 9.35 55.05 9.7 54.8 9.95 54.55 10.15 54.1 10.15 53.2 10.15 52.65 9.65
L 52.55 10.1
Q 52.7 10.25 53.2 10.45 53.65 10.6 54.1 10.6
L 54.85 10.45
Q 55.2 10.3 55.4 10 55.6 9.7 55.6 9.35 55.6 8.85 55.25 8.55 55 8.3 54.25 8.05
L 53.4 7.65
Q 53.15 7.55 53.15 7.15 53.15 6.75 53.4 6.6 53.65 6.4 54.1 6.4
L 54.7 6.5 55.25 6.85 55.45 6.45
Q 55.25 6.25 54.85 6.1 54.5 5.95 54.05 5.95 Z"/>
</g>

<g id="IT_728x90_psd_Asset_ManagedWiFi_IT_Awareness_DM6_2_IT_administrators_are_supporting_more_devices__hardware__softwa_0_Layer0_0_MEMBER_40_FILL">
<path fill="#D82C26" stroke="none" d="
M 57.75 10
Q 57.75 9.75 57.6 9.6 57.55 9.45 57.3 9.45
L 57 9.6 56.9 9.9 57 10.2 57.3 10.3
Q 57.2 10.75 57.05 10.9
L 56.65 11.45 56.9 11.6
Q 57.75 10.75 57.75 10 Z"/>
</g>

<g id="IT_728x90_psd_Asset_ManagedWiFi_IT_Awareness_DM6_2_IT_administrators_are_supporting_more_devices__hardware__softwa_0_Layer0_0_MEMBER_41_FILL">
<path fill="#D82C26" stroke="none" d="
M 62.05 3.35
L 61.5 3.4 61.5 10.5 62.05 10.5 62.05 8.35
Q 62.05 7.9 62.25 7.3 62.5 6.85 62.8 6.65 63.05 6.45 63.5 6.45 64.2 6.45 64.45 6.85 64.7 7.25 64.7 7.95
L 64.7 10.5 65.25 10.5 65.25 7.8
Q 65.25 7 64.9 6.5 64.45 5.95 63.65 5.95 63.15 5.95 62.7 6.25 62.25 6.55 62.1 7.05
L 62.05 7.05 62.05 3.35 Z"/>
</g>

<g id="IT_728x90_psd_Asset_ManagedWiFi_IT_Awareness_DM6_2_IT_administrators_are_supporting_more_devices__hardware__softwa_0_Layer0_0_MEMBER_42_FILL">
<path fill="#D82C26" stroke="none" d="
M 68.45 5.95
Q 68 5.95 67.55 6.1 67.15 6.25 66.8 6.5
L 66.95 6.95 67.6 6.55 68.35 6.4
Q 68.95 6.4 69.25 6.7 69.6 7 69.6 7.6
L 69.6 7.85 69.05 7.85
Q 66.55 7.85 66.55 9.3 66.55 9.95 66.95 10.25 67.35 10.6 67.95 10.6 68.45 10.6 68.95 10.35 69.35 10.15 69.6 9.65
L 69.7 10.5 70.2 10.5 70.1 9.5 70.1 7.65
Q 70.1 6.8 69.65 6.4 69.2 5.95 68.45 5.95
M 69.6 8.2
L 69.6 8.65
Q 69.6 9.05 69.45 9.35 69.2 9.75 68.9 9.95 68.55 10.2 68.05 10.2 67.7 10.2 67.35 9.95 67.1 9.7 67.1 9.3 67.1 8.2 69.15 8.2
L 69.6 8.2 Z"/>
</g>

<g id="IT_728x90_psd_Asset_ManagedWiFi_IT_Awareness_DM6_2_IT_administrators_are_supporting_more_devices__hardware__softwa_0_Layer0_0_MEMBER_43_FILL">
<path fill="#D82C26" stroke="none" d="
M 72.2 6.1
L 71.7 6.1 71.75 10.5 72.3 10.5 72.3 8.3
Q 72.3 7.55 72.6 7 73 6.45 73.5 6.45
L 73.9 6.5 74 6.05 73.55 5.95
Q 73.2 5.95 72.8 6.25 72.5 6.5 72.25 7.05
L 72.2 6.1 Z"/>
</g>

<g id="IT_728x90_psd_Asset_ManagedWiFi_IT_Awareness_DM6_2_IT_administrators_are_supporting_more_devices__hardware__softwa_0_Layer0_0_MEMBER_44_FILL">
<path fill="#D82C26" stroke="none" d="
M 79.05 3.3
L 78.5 3.4 78.5 7.05
Q 78.2 6.55 77.75 6.25 77.25 5.95 76.7 5.95 76.1 5.95 75.55 6.25 75 6.65 74.8 7.1 74.5 7.65 74.5 8.3 74.5 8.95 74.8 9.45 75.05 10 75.55 10.3 76.1 10.6 76.7 10.6 77.25 10.6 77.75 10.3 78.15 10.1 78.5 9.5
L 78.55 10.5 79.1 10.5 79.05 3.3
M 75.25 7.35
Q 75.45 6.95 75.85 6.7 76.15 6.45 76.8 6.45 77.35 6.45 77.65 6.7 78.1 6.9 78.3 7.35 78.5 7.75 78.5 8.3 78.5 8.85 78.3 9.2 78.1 9.6 77.65 9.9 77.25 10.15 76.8 10.15 76.25 10.15 75.85 9.9 75.5 9.7 75.25 9.2 75.05 8.7 75.05 8.3 75.05 7.95 75.25 7.35 Z"/>
</g>

<g id="IT_728x90_psd_Asset_ManagedWiFi_IT_Awareness_DM6_2_IT_administrators_are_supporting_more_devices__hardware__softwa_0_Layer0_0_MEMBER_45_FILL">
<path fill="#D82C26" stroke="none" d="
M 83.65 6.1
L 83.05 6.1 81.85 9.85 81.8 9.85 80.75 6.1 80.15 6.1 81.5 10.5 82.1 10.5 83.35 6.75 84.65 10.5 85.25 10.5 86.6 6.1 86 6.1 84.95 9.85 84.9 9.85 83.65 6.1 Z"/>
</g>

<g id="IT_728x90_psd_Asset_ManagedWiFi_IT_Awareness_DM6_2_IT_administrators_are_supporting_more_devices__hardware__softwa_0_Layer0_0_MEMBER_46_FILL">
<path fill="#D82C26" stroke="none" d="
M 89.25 5.95
Q 88.8 5.95 88.35 6.1 87.95 6.25 87.6 6.5
L 87.75 6.95 88.4 6.55 89.15 6.4
Q 89.75 6.4 90.1 6.7 90.4 7 90.4 7.6
L 90.4 7.85 89.9 7.85
Q 87.35 7.85 87.35 9.3 87.35 9.95 87.8 10.25 88.15 10.6 88.75 10.6 89.25 10.6 89.75 10.35 90.15 10.15 90.4 9.65
L 90.45 9.65 90.45 10.1 90.5 10.5 91 10.5 90.95 7.65
Q 90.95 6.8 90.5 6.4 90.05 5.95 89.25 5.95
M 90.4 8.2
L 90.4 8.65
Q 90.4 9.05 90.25 9.35 90 9.75 89.7 9.95 89.35 10.2 88.9 10.2 88.45 10.2 88.2 9.95 87.9 9.75 87.9 9.3 87.9 8.2 89.95 8.2
L 90.4 8.2 Z"/>
</g>

<g id="IT_728x90_psd_Asset_ManagedWiFi_IT_Awareness_DM6_2_IT_administrators_are_supporting_more_devices__hardware__softwa_0_Layer0_0_MEMBER_47_FILL">
<path fill="#D82C26" stroke="none" d="
M 93 6.1
L 92.5 6.1 92.55 10.5 93.1 10.5 93.1 8.3
Q 93.1 7.55 93.4 7 93.8 6.45 94.35 6.45
L 94.7 6.5 94.85 6.05 94.35 5.95
Q 94 5.95 93.6 6.25 93.25 6.55 93.1 7.05
L 93.05 7.05 93 6.1 Z"/>
</g>

<g id="IT_728x90_psd_Asset_ManagedWiFi_IT_Awareness_DM6_2_IT_administrators_are_supporting_more_devices__hardware__softwa_0_Layer0_0_MEMBER_48_FILL">
<path fill="#D82C26" stroke="none" d="
M 95.3 8.25
Q 95.3 8.9 95.6 9.5 95.9 10 96.4 10.3 96.95 10.6 97.55 10.6 98.5 10.6 99.3 10.05
L 99.2 9.6
Q 98.8 9.9 98.5 10 98.05 10.15 97.6 10.15 97 10.15 96.7 9.9 96.3 9.65 96.1 9.25 95.85 8.85 95.85 8.35
L 99.55 8.35 99.55 8.15
Q 99.55 7.45 99.35 7.05 99.05 6.5 98.6 6.25 98.15 5.95 97.5 5.95 96.85 5.95 96.4 6.25 95.9 6.55 95.6 7.05 95.3 7.6 95.3 8.25
M 95.85 7.95
Q 95.85 7.75 96.05 7.25 96.25 6.9 96.6 6.65 96.9 6.4 97.5 6.4 98.2 6.4 98.6 6.8 99.05 7.25 99.05 7.95
L 95.85 7.95 Z"/>
</g>

<g id="IT_728x90_psd_Asset_ManagedWiFi_IT_Awareness_DM6_2_IT_administrators_are_supporting_more_devices__hardware__softwa_0_Layer0_0_MEMBER_49_FILL">
<path fill="#D82C26" stroke="none" d="
M 101.55 10
Q 101.55 9.7 101.45 9.6
L 101.15 9.45 100.85 9.6
Q 100.75 9.7 100.75 9.9
L 100.85 10.2 101.15 10.3
Q 101.05 10.75 100.9 10.9
L 100.5 11.45 100.7 11.6
Q 101.55 10.8 101.55 10 Z"/>
</g>

<g id="IT_728x90_psd_Asset_ManagedWiFi_IT_Awareness_DM6_2_IT_administrators_are_supporting_more_devices__hardware__softwa_0_Layer0_0_MEMBER_50_FILL">
<path fill="#D82C26" stroke="none" d="
M 107.3 6.1
Q 107 5.95 106.55 5.95 106.15 5.95 105.85 6.1 105.5 6.25 105.3 6.5 105.1 6.75 105.1 7.15 105.1 7.65 105.4 7.95 105.7 8.2 106.35 8.4
L 107.25 8.8
Q 107.55 9.05 107.55 9.35 107.55 9.75 107.25 9.95 107 10.15 106.55 10.15 105.65 10.15 105.1 9.65
L 105 10.1 105.7 10.45
Q 106.1 10.6 106.6 10.6 107 10.6 107.3 10.45 107.6 10.35 107.85 10 108.05 9.8 108.05 9.35 108.05 8.85 107.75 8.55 107.4 8.25 106.7 8.05
L 105.85 7.65
Q 105.6 7.5 105.6 7.15 105.6 6.75 105.9 6.6 106.1 6.4 106.55 6.4
L 107.2 6.5 107.7 6.85 107.95 6.45 107.3 6.1 Z"/>
</g>

<g id="IT_728x90_psd_Asset_ManagedWiFi_IT_Awareness_DM6_2_IT_administrators_are_supporting_more_devices__hardware__softwa_0_Layer0_0_MEMBER_51_FILL">
<path fill="#D82C26" stroke="none" d="
M 113.45 7.1
Q 113.2 6.6 112.6 6.25 112.1 5.95 111.4 5.95 110.75 5.95 110.2 6.25 109.7 6.55 109.35 7.1 109.05 7.65 109.05 8.3 109.05 8.9 109.35 9.5 109.75 10.05 110.2 10.3 110.75 10.6 111.4 10.6 112.1 10.6 112.6 10.3 113.2 9.95 113.45 9.5 113.75 8.9 113.75 8.3 113.75 7.65 113.45 7.1
M 112.95 7.35
Q 113.2 7.75 113.2 8.3 113.2 8.8 112.95 9.2 112.85 9.5 112.35 9.9 111.95 10.15 111.4 10.15 110.95 10.15 110.45 9.9 110.05 9.55 109.85 9.2 109.6 8.8 109.6 8.3 109.6 7.75 109.85 7.35 110.05 7 110.45 6.65 110.85 6.45 111.4 6.45 111.95 6.45 112.35 6.65 112.75 7 112.95 7.35 Z"/>
</g>

<g id="IT_728x90_psd_Asset_ManagedWiFi_IT_Awareness_DM6_2_IT_administrators_are_supporting_more_devices__hardware__softwa_0_Layer0_0_MEMBER_52_FILL">
<path fill="#D82C26" stroke="none" d="
M 117.05 3.3
L 116.6 3.3
Q 115.95 3.3 115.6 3.65 115.25 4.05 115.25 4.85
L 115.25 6.1 114.45 6.1 114.3 6.55 115.25 6.55 115.25 10.5 115.8 10.5 115.8 6.55 116.8 6.55 116.9 6.1 115.8 6.1 115.8 4.85
Q 115.8 4.3 116 4.05 116.15 3.75 116.65 3.75 117.1 3.75 117.35 3.85
L 117.4 3.4 117.05 3.3 Z"/>
</g>

<g id="IT_728x90_psd_Asset_ManagedWiFi_IT_Awareness_DM6_2_IT_administrators_are_supporting_more_devices__hardware__softwa_0_Layer0_0_MEMBER_53_FILL">
<path fill="#D82C26" stroke="none" d="
M 118.35 6.1
L 117.65 6.1 117.5 6.55 118.35 6.55 118.35 9.4
Q 118.35 9.9 118.6 10.25 118.9 10.55 119.35 10.55
L 119.85 10.5 120.3 10.35 120.2 9.95 119.5 10.1
Q 119.2 10.1 119.05 9.95 118.9 9.75 118.9 9.35
L 118.9 6.55 120 6.55 120.15 6.1 118.9 6.1 118.9 4.85 118.35 5.05 118.35 6.1 Z"/>
</g>

<g id="IT_728x90_psd_Asset_ManagedWiFi_IT_Awareness_DM6_2_IT_administrators_are_supporting_more_devices__hardware__softwa_0_Layer0_0_MEMBER_54_FILL">
<path fill="#D82C26" stroke="none" d="
M 127.35 6.1
L 126.8 6.1 125.7 9.85 124.45 6.1 123.85 6.1 122.65 9.85 122.6 9.85 121.5 6.1 120.95 6.1 122.3 10.5 122.9 10.5 124.15 6.75 125.4 10.5 126 10.5 127.35 6.1 Z"/>
</g>

<g id="IT_728x90_psd_Asset_ManagedWiFi_IT_Awareness_DM6_2_IT_administrators_are_supporting_more_devices__hardware__softwa_0_Layer0_0_MEMBER_55_FILL">
<path fill="#D82C26" stroke="none" d="
M 131.7 9.5
L 131.7 7.65
Q 131.7 6.8 131.25 6.4 130.8 5.95 130.05 5.95 129.6 5.95 129.15 6.1 128.75 6.25 128.4 6.5
L 128.55 6.95 129.2 6.55 129.95 6.4
Q 130.55 6.4 130.85 6.7 131.2 7 131.2 7.6
L 131.2 7.85 130.65 7.85
Q 128.15 7.85 128.15 9.3 128.15 9.95 128.55 10.25 128.95 10.6 129.55 10.6 130.05 10.6 130.55 10.35 130.95 10.15 131.2 9.65
L 131.3 10.5 131.8 10.5 131.7 9.5
M 131.2 8.2
L 131.2 8.65
Q 131.2 9.05 131.05 9.35 130.8 9.75 130.5 9.95 130.15 10.2 129.65 10.2 129.3 10.2 128.95 9.95 128.7 9.7 128.7 9.3 128.7 8.2 130.75 8.2
L 131.2 8.2 Z"/>
</g>

<g id="IT_728x90_psd_Asset_ManagedWiFi_IT_Awareness_DM6_2_IT_administrators_are_supporting_more_devices__hardware__softwa_0_Layer0_0_MEMBER_56_FILL">
<path fill="#D82C26" stroke="none" d="
M 133.8 6.1
L 133.3 6.1 133.35 10.5 133.9 10.5 133.9 8.3
Q 133.9 7.55 134.2 7 134.6 6.45 135.1 6.45
L 135.5 6.5 135.6 6.05 135.15 5.95
Q 134.8 5.95 134.4 6.25 134.1 6.5 133.85 7.05
L 133.8 6.1 Z"/>
</g>

<g id="IT_728x90_psd_Asset_ManagedWiFi_IT_Awareness_DM6_2_IT_administrators_are_supporting_more_devices__hardware__softwa_0_Layer0_0_MEMBER_57_FILL">
<path fill="#D82C26" stroke="none" d="
M 136.1 8.25
Q 136.1 8.9 136.4 9.5 136.7 10 137.2 10.3 137.75 10.6 138.35 10.6 139.3 10.6 140.1 10.05
L 140 9.6 139.3 10
Q 138.85 10.15 138.4 10.15 137.8 10.15 137.5 9.9 137.05 9.6 136.85 9.25 136.65 8.9 136.65 8.35
L 140.35 8.35 140.35 8.15
Q 140.35 7.45 140.1 7.05 139.9 6.6 139.4 6.25 138.95 5.95 138.25 5.95 137.7 5.95 137.15 6.25 136.7 6.55 136.4 7.05 136.1 7.6 136.1 8.25
M 139.4 6.8
Q 139.75 7.15 139.85 7.95
L 136.65 7.95
Q 136.65 7.75 136.85 7.25 137.1 6.85 137.4 6.65 137.7 6.4 138.25 6.4 138.9 6.4 139.4 6.8 Z"/>
</g>

<g id="IT_728x90_psd_Asset_ManagedWiFi_IT_Awareness_DM6_2_IT_administrators_are_supporting_more_devices__hardware__softwa_0_Layer0_0_MEMBER_58_FILL">
<path fill="#D82C26" stroke="none" d="
M 141.65 10.4
Q 141.75 10.55 141.95 10.55 142.15 10.55 142.2 10.4 142.35 10.35 142.35 10.1
L 142.2 9.8 141.95 9.7
Q 141.75 9.7 141.65 9.8
L 141.5 10.1
Q 141.5 10.35 141.65 10.4 Z"/>
</g>

<g id="IT_728x90_psd_Asset_ManagedWiFi_IT_Awareness_DM6_2_IT_administrators_are_supporting_more_devices__hardware__softwa_0_Layer0_0_MEMBER_59_FILL">
<path fill="#D82C26" stroke="none" d="
M 143.85 10.4
L 144.15 10.55
Q 144.4 10.55 144.45 10.4 144.6 10.35 144.6 10.1
L 144.45 9.8
Q 144.35 9.7 144.15 9.7
L 143.85 9.8 143.75 10.1 143.85 10.4 Z"/>
</g>

<g id="IT_728x90_psd_Asset_ManagedWiFi_IT_Awareness_DM6_2_IT_administrators_are_supporting_more_devices__hardware__softwa_0_Layer0_0_MEMBER_60_FILL">
<path fill="#D82C26" stroke="none" d="
M 146.1 10.4
L 146.4 10.55 146.7 10.4
Q 146.8 10.35 146.8 10.1 146.8 9.9 146.7 9.8
L 146.4 9.7 146.1 9.8 146 10.1 146.1 10.4 Z"/>
</g>
</defs>

<g transform="matrix( 1, 0, 0, 1, -261,-42) ">
<g transform="matrix( 1, 0, 0, 1, 261,55) ">
<g transform="matrix( 1, 0, 0, 1, 26,6) ">
<g transform="matrix( 2.6895904541015625, 0, 0, 2.672393798828125, -1.85,19.55) ">
<use xlink:href="#IT_728x90_psd_Asset_ManagedWiFi_IT_Awareness_DM6_2_IT_administrators_are_supporting_more_devices__hardware__softwa_0_Layer0_0_MEMBER_0_FILL"/>
</g>

<g transform="matrix( 2.6895904541015625, 0, 0, 2.672393798828125, -1.85,19.55) ">
<use xlink:href="#IT_728x90_psd_Asset_ManagedWiFi_IT_Awareness_DM6_2_IT_administrators_are_supporting_more_devices__hardware__softwa_0_Layer0_0_MEMBER_1_FILL"/>
</g>

<g transform="matrix( 2.6895904541015625, 0, 0, 2.672393798828125, -1.85,19.55) ">
<use xlink:href="#IT_728x90_psd_Asset_ManagedWiFi_IT_Awareness_DM6_2_IT_administrators_are_supporting_more_devices__hardware__softwa_0_Layer0_0_MEMBER_2_FILL"/>
</g>

<g transform="matrix( 2.6895904541015625, 0, 0, 2.672393798828125, -1.85,19.55) ">
<use xlink:href="#IT_728x90_psd_Asset_ManagedWiFi_IT_Awareness_DM6_2_IT_administrators_are_supporting_more_devices__hardware__softwa_0_Layer0_0_MEMBER_3_FILL"/>
</g>

<g transform="matrix( 2.6895904541015625, 0, 0, 2.672393798828125, -1.85,19.55) ">
<use xlink:href="#IT_728x90_psd_Asset_ManagedWiFi_IT_Awareness_DM6_2_IT_administrators_are_supporting_more_devices__hardware__softwa_0_Layer0_0_MEMBER_4_FILL"/>
</g>

<g transform="matrix( 2.6895904541015625, 0, 0, 2.672393798828125, -1.85,19.55) ">
<use xlink:href="#IT_728x90_psd_Asset_ManagedWiFi_IT_Awareness_DM6_2_IT_administrators_are_supporting_more_devices__hardware__softwa_0_Layer0_0_MEMBER_5_FILL"/>
</g>

<g transform="matrix( 2.6895904541015625, 0, 0, 2.672393798828125, -1.85,19.55) ">
<use xlink:href="#IT_728x90_psd_Asset_ManagedWiFi_IT_Awareness_DM6_2_IT_administrators_are_supporting_more_devices__hardware__softwa_0_Layer0_0_MEMBER_6_FILL"/>
</g>

<g transform="matrix( 2.6895904541015625, 0, 0, 2.672393798828125, -1.85,19.55) ">
<use xlink:href="#IT_728x90_psd_Asset_ManagedWiFi_IT_Awareness_DM6_2_IT_administrators_are_supporting_more_devices__hardware__softwa_0_Layer0_0_MEMBER_7_FILL"/>
</g>

<g transform="matrix( 2.6895904541015625, 0, 0, 2.672393798828125, -1.85,19.55) ">
<use xlink:href="#IT_728x90_psd_Asset_ManagedWiFi_IT_Awareness_DM6_2_IT_administrators_are_supporting_more_devices__hardware__softwa_0_Layer0_0_MEMBER_8_FILL"/>
</g>

<g transform="matrix( 2.6895904541015625, 0, 0, 2.672393798828125, -1.85,19.55) ">
<use xlink:href="#IT_728x90_psd_Asset_ManagedWiFi_IT_Awareness_DM6_2_IT_administrators_are_supporting_more_devices__hardware__softwa_0_Layer0_0_MEMBER_9_FILL"/>
</g>

<g transform="matrix( 2.6895904541015625, 0, 0, 2.672393798828125, -1.85,19.55) ">
<use xlink:href="#IT_728x90_psd_Asset_ManagedWiFi_IT_Awareness_DM6_2_IT_administrators_are_supporting_more_devices__hardware__softwa_0_Layer0_0_MEMBER_10_FILL"/>
</g>

<g transform="matrix( 2.6895904541015625, 0, 0, 2.672393798828125, -1.85,19.55) ">
<use xlink:href="#IT_728x90_psd_Asset_ManagedWiFi_IT_Awareness_DM6_2_IT_administrators_are_supporting_more_devices__hardware__softwa_0_Layer0_0_MEMBER_11_FILL"/>
</g>

<g transform="matrix( 2.6895904541015625, 0, 0, 2.672393798828125, -1.85,19.55) ">
<use xlink:href="#IT_728x90_psd_Asset_ManagedWiFi_IT_Awareness_DM6_2_IT_administrators_are_supporting_more_devices__hardware__softwa_0_Layer0_0_MEMBER_12_FILL"/>
</g>

<g transform="matrix( 2.6895904541015625, 0, 0, 2.672393798828125, -1.85,19.55) ">
<use xlink:href="#IT_728x90_psd_Asset_ManagedWiFi_IT_Awareness_DM6_2_IT_administrators_are_supporting_more_devices__hardware__softwa_0_Layer0_0_MEMBER_13_FILL"/>
</g>

<g transform="matrix( 2.6895904541015625, 0, 0, 2.672393798828125, -1.85,19.55) ">
<use xlink:href="#IT_728x90_psd_Asset_ManagedWiFi_IT_Awareness_DM6_2_IT_administrators_are_supporting_more_devices__hardware__softwa_0_Layer0_0_MEMBER_14_FILL"/>
</g>

<g transform="matrix( 2.6895904541015625, 0, 0, 2.672393798828125, -1.85,19.55) ">
<use xlink:href="#IT_728x90_psd_Asset_ManagedWiFi_IT_Awareness_DM6_2_IT_administrators_are_supporting_more_devices__hardware__softwa_0_Layer0_0_MEMBER_15_FILL"/>
</g>

<g transform="matrix( 2.6895904541015625, 0, 0, 2.672393798828125, -1.85,19.55) ">
<use xlink:href="#IT_728x90_psd_Asset_ManagedWiFi_IT_Awareness_DM6_2_IT_administrators_are_supporting_more_devices__hardware__softwa_0_Layer0_0_MEMBER_16_FILL"/>
</g>

<g transform="matrix( 2.6895904541015625, 0, 0, 2.672393798828125, -1.85,19.55) ">
<use xlink:href="#IT_728x90_psd_Asset_ManagedWiFi_IT_Awareness_DM6_2_IT_administrators_are_supporting_more_devices__hardware__softwa_0_Layer0_0_MEMBER_17_FILL"/>
</g>

<g transform="matrix( 2.6895904541015625, 0, 0, 2.672393798828125, -1.85,19.55) ">
<use xlink:href="#IT_728x90_psd_Asset_ManagedWiFi_IT_Awareness_DM6_2_IT_administrators_are_supporting_more_devices__hardware__softwa_0_Layer0_0_MEMBER_18_FILL"/>
</g>

<g transform="matrix( 2.6895904541015625, 0, 0, 2.672393798828125, -1.85,19.55) ">
<use xlink:href="#IT_728x90_psd_Asset_ManagedWiFi_IT_Awareness_DM6_2_IT_administrators_are_supporting_more_devices__hardware__softwa_0_Layer0_0_MEMBER_19_FILL"/>
</g>

<g transform="matrix( 2.6895904541015625, 0, 0, 2.672393798828125, -1.85,19.55) ">
<use xlink:href="#IT_728x90_psd_Asset_ManagedWiFi_IT_Awareness_DM6_2_IT_administrators_are_supporting_more_devices__hardware__softwa_0_Layer0_0_MEMBER_20_FILL"/>
</g>

<g transform="matrix( 2.6895904541015625, 0, 0, 2.672393798828125, -1.85,19.55) ">
<use xlink:href="#IT_728x90_psd_Asset_ManagedWiFi_IT_Awareness_DM6_2_IT_administrators_are_supporting_more_devices__hardware__softwa_0_Layer0_0_MEMBER_21_FILL"/>
</g>

<g transform="matrix( 2.6895904541015625, 0, 0, 2.672393798828125, -1.85,19.55) ">
<use xlink:href="#IT_728x90_psd_Asset_ManagedWiFi_IT_Awareness_DM6_2_IT_administrators_are_supporting_more_devices__hardware__softwa_0_Layer0_0_MEMBER_22_FILL"/>
</g>

<g transform="matrix( 2.6895904541015625, 0, 0, 2.672393798828125, -1.85,19.55) ">
<use xlink:href="#IT_728x90_psd_Asset_ManagedWiFi_IT_Awareness_DM6_2_IT_administrators_are_supporting_more_devices__hardware__softwa_0_Layer0_0_MEMBER_23_FILL"/>
</g>

<g transform="matrix( 2.6895904541015625, 0, 0, 2.672393798828125, -1.85,19.55) ">
<use xlink:href="#IT_728x90_psd_Asset_ManagedWiFi_IT_Awareness_DM6_2_IT_administrators_are_supporting_more_devices__hardware__softwa_0_Layer0_0_MEMBER_24_FILL"/>
</g>

<g transform="matrix( 2.6895904541015625, 0, 0, 2.672393798828125, -1.85,19.55) ">
<use xlink:href="#IT_728x90_psd_Asset_ManagedWiFi_IT_Awareness_DM6_2_IT_administrators_are_supporting_more_devices__hardware__softwa_0_Layer0_0_MEMBER_25_FILL"/>
</g>

<g transform="matrix( 2.6895904541015625, 0, 0, 2.672393798828125, -1.85,19.55) ">
<use xlink:href="#IT_728x90_psd_Asset_ManagedWiFi_IT_Awareness_DM6_2_IT_administrators_are_supporting_more_devices__hardware__softwa_0_Layer0_0_MEMBER_26_FILL"/>
</g>

<g transform="matrix( 2.6895904541015625, 0, 0, 2.672393798828125, -1.85,19.55) ">
<use xlink:href="#IT_728x90_psd_Asset_ManagedWiFi_IT_Awareness_DM6_2_IT_administrators_are_supporting_more_devices__hardware__softwa_0_Layer0_0_MEMBER_27_FILL"/>
</g>

<g transform="matrix( 2.6895904541015625, 0, 0, 2.672393798828125, -1.85,19.55) ">
<use xlink:href="#IT_728x90_psd_Asset_ManagedWiFi_IT_Awareness_DM6_2_IT_administrators_are_supporting_more_devices__hardware__softwa_0_Layer0_0_MEMBER_28_FILL"/>
</g>

<g transform="matrix( 2.6895904541015625, 0, 0, 2.672393798828125, -1.85,19.55) ">
<use xlink:href="#IT_728x90_psd_Asset_ManagedWiFi_IT_Awareness_DM6_2_IT_administrators_are_supporting_more_devices__hardware__softwa_0_Layer0_0_MEMBER_29_FILL"/>
</g>

<g transform="matrix( 2.6895904541015625, 0, 0, 2.672393798828125, -1.85,19.55) ">
<use xlink:href="#IT_728x90_psd_Asset_ManagedWiFi_IT_Awareness_DM6_2_IT_administrators_are_supporting_more_devices__hardware__softwa_0_Layer0_0_MEMBER_30_FILL"/>
</g>

<g transform="matrix( 2.6895904541015625, 0, 0, 2.672393798828125, -1.85,19.55) ">
<use xlink:href="#IT_728x90_psd_Asset_ManagedWiFi_IT_Awareness_DM6_2_IT_administrators_are_supporting_more_devices__hardware__softwa_0_Layer0_0_MEMBER_31_FILL"/>
</g>

<g transform="matrix( 2.6895904541015625, 0, 0, 2.672393798828125, -1.85,19.55) ">
<use xlink:href="#IT_728x90_psd_Asset_ManagedWiFi_IT_Awareness_DM6_2_IT_administrators_are_supporting_more_devices__hardware__softwa_0_Layer0_0_MEMBER_32_FILL"/>
</g>

<g transform="matrix( 2.6895904541015625, 0, 0, 2.672393798828125, -1.85,19.55) ">
<use xlink:href="#IT_728x90_psd_Asset_ManagedWiFi_IT_Awareness_DM6_2_IT_administrators_are_supporting_more_devices__hardware__softwa_0_Layer0_0_MEMBER_33_FILL"/>
</g>

<g transform="matrix( 2.6895904541015625, 0, 0, 2.672393798828125, -1.85,19.55) ">
<use xlink:href="#IT_728x90_psd_Asset_ManagedWiFi_IT_Awareness_DM6_2_IT_administrators_are_supporting_more_devices__hardware__softwa_0_Layer0_0_MEMBER_34_FILL"/>
</g>

<g transform="matrix( 2.6895904541015625, 0, 0, 2.672393798828125, -1.85,19.55) ">
<use xlink:href="#IT_728x90_psd_Asset_ManagedWiFi_IT_Awareness_DM6_2_IT_administrators_are_supporting_more_devices__hardware__softwa_0_Layer0_0_MEMBER_35_FILL"/>
</g>

<g transform="matrix( 2.6895904541015625, 0, 0, 2.672393798828125, -1.85,19.55) ">
<use xlink:href="#IT_728x90_psd_Asset_ManagedWiFi_IT_Awareness_DM6_2_IT_administrators_are_supporting_more_devices__hardware__softwa_0_Layer0_0_MEMBER_36_FILL"/>
</g>

<g transform="matrix( 2.6895904541015625, 0, 0, 2.672393798828125, -1.85,19.55) ">
<use xlink:href="#IT_728x90_psd_Asset_ManagedWiFi_IT_Awareness_DM6_2_IT_administrators_are_supporting_more_devices__hardware__softwa_0_Layer0_0_MEMBER_37_FILL"/>
</g>

<g transform="matrix( 2.6895904541015625, 0, 0, 2.672393798828125, -1.85,19.55) ">
<use xlink:href="#IT_728x90_psd_Asset_ManagedWiFi_IT_Awareness_DM6_2_IT_administrators_are_supporting_more_devices__hardware__softwa_0_Layer0_0_MEMBER_38_FILL"/>
</g>

<g transform="matrix( 2.6895904541015625, 0, 0, 2.672393798828125, -1.85,19.55) ">
<use xlink:href="#IT_728x90_psd_Asset_ManagedWiFi_IT_Awareness_DM6_2_IT_administrators_are_supporting_more_devices__hardware__softwa_0_Layer0_0_MEMBER_39_FILL"/>
</g>

<g transform="matrix( 2.6895904541015625, 0, 0, 2.672393798828125, -1.85,19.55) ">
<use xlink:href="#IT_728x90_psd_Asset_ManagedWiFi_IT_Awareness_DM6_2_IT_administrators_are_supporting_more_devices__hardware__softwa_0_Layer0_0_MEMBER_40_FILL"/>
</g>

<g transform="matrix( 2.6895904541015625, 0, 0, 2.672393798828125, -1.85,19.55) ">
<use xlink:href="#IT_728x90_psd_Asset_ManagedWiFi_IT_Awareness_DM6_2_IT_administrators_are_supporting_more_devices__hardware__softwa_0_Layer0_0_MEMBER_41_FILL"/>
</g>

<g transform="matrix( 2.6895904541015625, 0, 0, 2.672393798828125, -1.85,19.55) ">
<use xlink:href="#IT_728x90_psd_Asset_ManagedWiFi_IT_Awareness_DM6_2_IT_administrators_are_supporting_more_devices__hardware__softwa_0_Layer0_0_MEMBER_42_FILL"/>
</g>

<g transform="matrix( 2.6895904541015625, 0, 0, 2.672393798828125, -1.85,19.55) ">
<use xlink:href="#IT_728x90_psd_Asset_ManagedWiFi_IT_Awareness_DM6_2_IT_administrators_are_supporting_more_devices__hardware__softwa_0_Layer0_0_MEMBER_43_FILL"/>
</g>

<g transform="matrix( 2.6895904541015625, 0, 0, 2.672393798828125, -1.85,19.55) ">
<use xlink:href="#IT_728x90_psd_Asset_ManagedWiFi_IT_Awareness_DM6_2_IT_administrators_are_supporting_more_devices__hardware__softwa_0_Layer0_0_MEMBER_44_FILL"/>
</g>

<g transform="matrix( 2.6895904541015625, 0, 0, 2.672393798828125, -1.85,19.55) ">
<use xlink:href="#IT_728x90_psd_Asset_ManagedWiFi_IT_Awareness_DM6_2_IT_administrators_are_supporting_more_devices__hardware__softwa_0_Layer0_0_MEMBER_45_FILL"/>
</g>

<g transform="matrix( 2.6895904541015625, 0, 0, 2.672393798828125, -1.85,19.55) ">
<use xlink:href="#IT_728x90_psd_Asset_ManagedWiFi_IT_Awareness_DM6_2_IT_administrators_are_supporting_more_devices__hardware__softwa_0_Layer0_0_MEMBER_46_FILL"/>
</g>

<g transform="matrix( 2.6895904541015625, 0, 0, 2.672393798828125, -1.85,19.55) ">
<use xlink:href="#IT_728x90_psd_Asset_ManagedWiFi_IT_Awareness_DM6_2_IT_administrators_are_supporting_more_devices__hardware__softwa_0_Layer0_0_MEMBER_47_FILL"/>
</g>

<g transform="matrix( 2.6895904541015625, 0, 0, 2.672393798828125, -1.85,19.55) ">
<use xlink:href="#IT_728x90_psd_Asset_ManagedWiFi_IT_Awareness_DM6_2_IT_administrators_are_supporting_more_devices__hardware__softwa_0_Layer0_0_MEMBER_48_FILL"/>
</g>

<g transform="matrix( 2.6895904541015625, 0, 0, 2.672393798828125, -1.85,19.55) ">
<use xlink:href="#IT_728x90_psd_Asset_ManagedWiFi_IT_Awareness_DM6_2_IT_administrators_are_supporting_more_devices__hardware__softwa_0_Layer0_0_MEMBER_49_FILL"/>
</g>

<g transform="matrix( 2.6895904541015625, 0, 0, 2.672393798828125, -1.85,19.55) ">
<use xlink:href="#IT_728x90_psd_Asset_ManagedWiFi_IT_Awareness_DM6_2_IT_administrators_are_supporting_more_devices__hardware__softwa_0_Layer0_0_MEMBER_50_FILL"/>
</g>

<g transform="matrix( 2.6895904541015625, 0, 0, 2.672393798828125, -1.85,19.55) ">
<use xlink:href="#IT_728x90_psd_Asset_ManagedWiFi_IT_Awareness_DM6_2_IT_administrators_are_supporting_more_devices__hardware__softwa_0_Layer0_0_MEMBER_51_FILL"/>
</g>

<g transform="matrix( 2.6895904541015625, 0, 0, 2.672393798828125, -1.85,19.55) ">
<use xlink:href="#IT_728x90_psd_Asset_ManagedWiFi_IT_Awareness_DM6_2_IT_administrators_are_supporting_more_devices__hardware__softwa_0_Layer0_0_MEMBER_52_FILL"/>
</g>

<g transform="matrix( 2.6895904541015625, 0, 0, 2.672393798828125, -1.85,19.55) ">
<use xlink:href="#IT_728x90_psd_Asset_ManagedWiFi_IT_Awareness_DM6_2_IT_administrators_are_supporting_more_devices__hardware__softwa_0_Layer0_0_MEMBER_53_FILL"/>
</g>

<g transform="matrix( 2.6895904541015625, 0, 0, 2.672393798828125, -1.85,19.55) ">
<use xlink:href="#IT_728x90_psd_Asset_ManagedWiFi_IT_Awareness_DM6_2_IT_administrators_are_supporting_more_devices__hardware__softwa_0_Layer0_0_MEMBER_54_FILL"/>
</g>

<g transform="matrix( 2.6895904541015625, 0, 0, 2.672393798828125, -1.85,19.55) ">
<use xlink:href="#IT_728x90_psd_Asset_ManagedWiFi_IT_Awareness_DM6_2_IT_administrators_are_supporting_more_devices__hardware__softwa_0_Layer0_0_MEMBER_55_FILL"/>
</g>

<g transform="matrix( 2.6895904541015625, 0, 0, 2.672393798828125, -1.85,19.55) ">
<use xlink:href="#IT_728x90_psd_Asset_ManagedWiFi_IT_Awareness_DM6_2_IT_administrators_are_supporting_more_devices__hardware__softwa_0_Layer0_0_MEMBER_56_FILL"/>
</g>

<g transform="matrix( 2.6895904541015625, 0, 0, 2.672393798828125, -1.85,19.55) ">
<use xlink:href="#IT_728x90_psd_Asset_ManagedWiFi_IT_Awareness_DM6_2_IT_administrators_are_supporting_more_devices__hardware__softwa_0_Layer0_0_MEMBER_57_FILL"/>
</g>

<g transform="matrix( 2.6895904541015625, 0, 0, 2.672393798828125, -1.85,19.55) ">
<use xlink:href="#IT_728x90_psd_Asset_ManagedWiFi_IT_Awareness_DM6_2_IT_administrators_are_supporting_more_devices__hardware__softwa_0_Layer0_0_MEMBER_58_FILL"/>
</g>

<g transform="matrix( 2.6895904541015625, 0, 0, 2.672393798828125, -1.85,19.55) ">
<use xlink:href="#IT_728x90_psd_Asset_ManagedWiFi_IT_Awareness_DM6_2_IT_administrators_are_supporting_more_devices__hardware__softwa_0_Layer0_0_MEMBER_59_FILL"/>
</g>

<g transform="matrix( 2.6895904541015625, 0, 0, 2.672393798828125, -1.85,19.55) ">
<use xlink:href="#IT_728x90_psd_Asset_ManagedWiFi_IT_Awareness_DM6_2_IT_administrators_are_supporting_more_devices__hardware__softwa_0_Layer0_0_MEMBER_60_FILL"/>
</g>
</g>
</g>
</g>
</svg>
