
<svg xmlns="http://www.w3.org/2000/svg" version="1.1" xmlns:xlink="http://www.w3.org/1999/xlink" preserveAspectRatio="none" x="0px" y="0px" width="728px" height="90px" viewBox="0 0 728 90">
<defs>
<g id="BDM_728x90_psd_Asset_2_ManagedWiFi_Awareness_DM6_2_Improve_customer_satisfaction_and__increase_consumer_engagement_0_Layer0_0_MEMBER_0_FILL">
<path fill="#D82C26" stroke="none" d="
M 1.5 -6.6
L 0.9 -6.6 0.9 0 1.5 0 1.5 -6.6 Z"/>
</g>

<g id="BDM_728x90_psd_Asset_2_ManagedWiFi_Awareness_DM6_2_Improve_customer_satisfaction_and__increase_consumer_engagement_0_Layer0_0_MEMBER_1_FILL">
<path fill="#D82C26" stroke="none" d="
M 3.7 -4.4
L 3.2 -4.4 3.25 0 3.8 0 3.8 -2.2
Q 3.8 -2.8 4 -3.2 4.2 -3.65 4.45 -3.85 4.8 -4.05 5.15 -4.05 5.7 -4.05 6 -3.65 6.25 -3.35 6.25 -2.6
L 6.25 0 6.8 0 6.8 -2.25
Q 6.8 -3 7.2 -3.55 7.55 -4.05 8.2 -4.05 8.8 -4.05 9.1 -3.6 9.35 -3.1 9.35 -2.5
L 9.35 0 9.9 0 9.9 -2.65
Q 9.9 -3.45 9.5 -4 9.15 -4.5 8.3 -4.5 7.8 -4.5 7.35 -4.2 6.85 -3.8 6.75 -3.4 6.5 -3.95 6.2 -4.2 5.85 -4.5 5.3 -4.5 4.8 -4.5 4.4 -4.2 4 -4 3.8 -3.45
L 3.75 -3.45 3.7 -4.4 Z"/>
</g>

<g id="BDM_728x90_psd_Asset_2_ManagedWiFi_Awareness_DM6_2_Improve_customer_satisfaction_and__increase_consumer_engagement_0_Layer0_0_MEMBER_2_FILL">
<path fill="#D82C26" stroke="none" d="
M 13.85 -4.5
Q 13.35 -4.5 12.8 -4.2 12.35 -3.95 12.1 -3.4
L 12.05 -3.4 12 -4.4 11.5 -4.4 11.5 2.25 12.05 2.25 12.05 -0.95 12.1 -0.95
Q 12.3 -0.5 12.8 -0.15 13.25 0.1 13.85 0.1 14.5 0.1 15 -0.2 15.5 -0.5 15.8 -1 16.05 -1.6 16.05 -2.2 16.05 -2.75 15.8 -3.35 15.45 -3.95 15 -4.2 14.5 -4.5 13.85 -4.5
M 13.8 -4.05
Q 14.2 -4.05 14.7 -3.8 15.05 -3.6 15.3 -3.1 15.5 -2.6 15.5 -2.2 15.5 -1.85 15.3 -1.25 15.1 -0.85 14.7 -0.6 14.35 -0.35 13.8 -0.35 13.2 -0.35 12.9 -0.6 12.55 -0.8 12.25 -1.25 12.05 -1.65 12.05 -2.2 12.05 -2.75 12.25 -3.1 12.5 -3.6 12.9 -3.8 13.3 -4.05 13.8 -4.05 Z"/>
</g>

<g id="BDM_728x90_psd_Asset_2_ManagedWiFi_Awareness_DM6_2_Improve_customer_satisfaction_and__increase_consumer_engagement_0_Layer0_0_MEMBER_3_FILL">
<path fill="#D82C26" stroke="none" d="
M 17.95 -3.45
L 17.9 -4.4 17.35 -4.4 17.4 0 17.95 0 17.95 -2.2
Q 17.95 -2.9 18.3 -3.5 18.65 -4 19.2 -4
L 19.6 -3.95 19.7 -4.45 19.25 -4.5
Q 18.9 -4.5 18.5 -4.2 18.25 -4.05 17.95 -3.45 Z"/>
</g>

<g id="BDM_728x90_psd_Asset_2_ManagedWiFi_Awareness_DM6_2_Improve_customer_satisfaction_and__increase_consumer_engagement_0_Layer0_0_MEMBER_4_FILL">
<path fill="#D82C26" stroke="none" d="
M 24.55 -3.4
Q 24.2 -4 23.7 -4.2 23.2 -4.5 22.5 -4.5 21.85 -4.5 21.3 -4.2 20.85 -4 20.5 -3.4 20.2 -2.85 20.2 -2.2 20.2 -1.5 20.5 -1 20.85 -0.4 21.3 -0.15 21.85 0.15 22.5 0.15 23.2 0.15 23.7 -0.15 24.25 -0.45 24.55 -1 24.85 -1.5 24.85 -2.2 24.85 -2.85 24.55 -3.4
M 23.45 -3.8
Q 23.85 -3.55 24.1 -3.15 24.3 -2.55 24.3 -2.2 24.3 -1.65 24.1 -1.25 23.8 -0.8 23.45 -0.6 23.15 -0.35 22.5 -0.35 21.95 -0.35 21.55 -0.6 21.2 -0.8 20.95 -1.25 20.75 -1.65 20.75 -2.2 20.75 -2.75 20.95 -3.15 21.2 -3.6 21.55 -3.8 22.05 -4.05 22.5 -4.05 23.05 -4.05 23.45 -3.8 Z"/>
</g>

<g id="BDM_728x90_psd_Asset_2_ManagedWiFi_Awareness_DM6_2_Improve_customer_satisfaction_and__increase_consumer_engagement_0_Layer0_0_MEMBER_5_FILL">
<path fill="#D82C26" stroke="none" d="
M 26 -4.4
L 25.4 -4.4 27.1 0 27.7 0 29.35 -4.4 28.8 -4.4 27.4 -0.55 26 -4.4 Z"/>
</g>

<g id="BDM_728x90_psd_Asset_2_ManagedWiFi_Awareness_DM6_2_Improve_customer_satisfaction_and__increase_consumer_engagement_0_Layer0_0_MEMBER_6_FILL">
<path fill="#D82C26" stroke="none" d="
M 29.95 -2.2
Q 29.95 -1.5 30.25 -1 30.6 -0.4 31.05 -0.15 31.5 0.15 32.2 0.15 33.15 0.15 33.95 -0.4
L 33.85 -0.9 33.15 -0.5
Q 32.75 -0.3 32.25 -0.3 31.75 -0.3 31.35 -0.55 31 -0.75 30.7 -1.2 30.5 -1.6 30.5 -2.1
L 34.2 -2.1 34.2 -2.35
Q 34.2 -2.85 33.95 -3.45 33.7 -3.95 33.25 -4.25 32.75 -4.5 32.1 -4.5 31.55 -4.5 31 -4.2 30.5 -3.95 30.25 -3.4 29.95 -2.85 29.95 -2.2
M 31.25 -3.85
Q 31.65 -4.1 32.1 -4.1 32.8 -4.1 33.25 -3.65 33.65 -3.2 33.7 -2.5
L 30.5 -2.5
Q 30.5 -2.9 30.7 -3.25 30.85 -3.5 31.25 -3.85 Z"/>
</g>

<g id="BDM_728x90_psd_Asset_2_ManagedWiFi_Awareness_DM6_2_Improve_customer_satisfaction_and__increase_consumer_engagement_0_Layer0_0_MEMBER_7_FILL">
<path fill="#D82C26" stroke="none" d="
M 39.7 -4.5
Q 39.05 -4.5 38.5 -4.2 38 -3.9 37.7 -3.4 37.4 -2.85 37.4 -2.2 37.4 -1.5 37.7 -1 38.05 -0.4 38.5 -0.15 39.05 0.15 39.7 0.15 40.1 0.15 40.55 0
L 41.2 -0.4 41.1 -0.85
Q 40.7 -0.55 40.5 -0.5
L 39.75 -0.35
Q 39.2 -0.35 38.8 -0.6 38.45 -0.8 38.2 -1.25 37.95 -1.75 37.95 -2.2 37.95 -2.7 38.2 -3.1 38.45 -3.6 38.8 -3.8 39.2 -4.05 39.7 -4.05
L 40.4 -3.9
Q 40.65 -3.85 40.95 -3.55
L 41.2 -4
Q 40.95 -4.25 40.55 -4.35 40.1 -4.5 39.7 -4.5 Z"/>
</g>

<g id="BDM_728x90_psd_Asset_2_ManagedWiFi_Awareness_DM6_2_Improve_customer_satisfaction_and__increase_consumer_engagement_0_Layer0_0_MEMBER_8_FILL">
<path fill="#D82C26" stroke="none" d="
M 42.85 -4.4
L 42.25 -4.4 42.25 -1.7
Q 42.25 -0.95 42.65 -0.4 43 0.1 43.85 0.1 44.35 0.1 44.85 -0.15 45.3 -0.45 45.45 -0.95
L 45.55 0 46.1 0 46 -1 46 -4.4 45.45 -4.4 45.45 -2.2
Q 45.45 -1.65 45.3 -1.2 45.05 -0.75 44.75 -0.55 44.5 -0.35 44 -0.35 43.3 -0.35 43.1 -0.75 42.85 -1.1 42.85 -1.85
L 42.85 -4.4 Z"/>
</g>

<g id="BDM_728x90_psd_Asset_2_ManagedWiFi_Awareness_DM6_2_Improve_customer_satisfaction_and__increase_consumer_engagement_0_Layer0_0_MEMBER_9_FILL">
<path fill="#D82C26" stroke="none" d="
M 48.9 -4.5
L 48.2 -4.4
Q 47.9 -4.3 47.65 -3.95 47.45 -3.75 47.45 -3.3 47.45 -2.85 47.75 -2.55 48.05 -2.25 48.65 -2.1 49.3 -1.9 49.6 -1.65 49.9 -1.5 49.9 -1.15 49.9 -0.75 49.6 -0.55 49.25 -0.3 48.9 -0.3 48.1 -0.3 47.45 -0.85
L 47.35 -0.35
Q 47.5 -0.2 48 0 48.3 0.1 48.9 0.1
L 49.65 0
Q 50 -0.15 50.2 -0.45 50.4 -0.7 50.4 -1.15 50.4 -1.65 50.05 -1.95 49.65 -2.25 49.05 -2.45 48.35 -2.7 48.2 -2.85 47.95 -2.95 47.95 -3.35 47.95 -3.65 48.2 -3.9 48.6 -4.1 48.9 -4.1 49.2 -4.1 49.5 -3.95 49.65 -3.9 50.05 -3.65
L 50.25 -4.05
Q 50.05 -4.25 49.65 -4.4
L 48.9 -4.5 Z"/>
</g>

<g id="BDM_728x90_psd_Asset_2_ManagedWiFi_Awareness_DM6_2_Improve_customer_satisfaction_and__increase_consumer_engagement_0_Layer0_0_MEMBER_10_FILL">
<path fill="#D82C26" stroke="none" d="
M 53.65 -3.95
L 53.8 -4.4 52.55 -4.4 52.55 -5.65 52 -5.45 52 -4.4 51.3 -4.4 51.15 -3.95 52 -3.95 52 -1.05
Q 52 -0.55 52.25 -0.2 52.55 0.1 53 0.1
L 53.5 0.05 53.95 -0.15 53.85 -0.55
Q 53.5 -0.35 53.15 -0.35 52.9 -0.35 52.7 -0.55 52.55 -0.7 52.55 -1.15
L 52.55 -3.95 53.65 -3.95 Z"/>
</g>

<g id="BDM_728x90_psd_Asset_2_ManagedWiFi_Awareness_DM6_2_Improve_customer_satisfaction_and__increase_consumer_engagement_0_Layer0_0_MEMBER_11_FILL">
<path fill="#D82C26" stroke="none" d="
M 54.85 -1
Q 55.2 -0.4 55.65 -0.15 56.2 0.15 56.85 0.15 57.55 0.15 58.05 -0.15 58.6 -0.45 58.9 -1 59.2 -1.5 59.2 -2.2 59.2 -2.85 58.9 -3.4 58.55 -4 58.05 -4.2 57.55 -4.5 56.85 -4.5 56.2 -4.5 55.65 -4.2 55.2 -4 54.85 -3.4 54.5 -2.8 54.5 -2.2 54.5 -1.6 54.85 -1
M 55.1 -2.2
Q 55.1 -2.75 55.3 -3.15 55.55 -3.6 55.9 -3.8 56.4 -4.05 56.85 -4.05 57.3 -4.05 57.8 -3.8 58.15 -3.6 58.4 -3.15 58.65 -2.65 58.65 -2.2 58.65 -1.85 58.45 -1.25 58.15 -0.8 57.8 -0.6 57.5 -0.35 56.85 -0.35 56.3 -0.35 55.9 -0.6 55.55 -0.8 55.3 -1.25 55.1 -1.65 55.1 -2.2 Z"/>
</g>

<g id="BDM_728x90_psd_Asset_2_ManagedWiFi_Awareness_DM6_2_Improve_customer_satisfaction_and__increase_consumer_engagement_0_Layer0_0_MEMBER_12_FILL">
<path fill="#D82C26" stroke="none" d="
M 64.05 -3.4
Q 63.9 -3.85 63.5 -4.2 63.2 -4.5 62.6 -4.5 62.1 -4.5 61.7 -4.2 61.3 -4 61.1 -3.45
L 61.05 -4.4 60.5 -4.4 60.55 0 61.1 0 61.1 -2.2
Q 61.1 -2.8 61.3 -3.2 61.45 -3.6 61.8 -3.85 62.05 -4.05 62.5 -4.05 63 -4.05 63.3 -3.65 63.6 -3.25 63.6 -2.6
L 63.6 0 64.15 0 64.15 -2.25
Q 64.15 -3.05 64.5 -3.55 64.95 -4.05 65.5 -4.05 66.2 -4.05 66.4 -3.6 66.65 -3.2 66.65 -2.5
L 66.65 0 67.2 0 67.2 -2.65
Q 67.2 -3.45 66.85 -4 66.5 -4.5 65.65 -4.5 65.1 -4.5 64.65 -4.2 64.25 -3.9 64.05 -3.4 Z"/>
</g>

<g id="BDM_728x90_psd_Asset_2_ManagedWiFi_Awareness_DM6_2_Improve_customer_satisfaction_and__increase_consumer_engagement_0_Layer0_0_MEMBER_13_FILL">
<path fill="#D82C26" stroke="none" d="
M 69.6 -4.2
Q 69.1 -3.95 68.85 -3.4 68.55 -2.85 68.55 -2.2 68.55 -1.5 68.85 -1 69.2 -0.4 69.65 -0.15 70.2 0.15 70.8 0.15 71.75 0.15 72.55 -0.4
L 72.45 -0.9 71.75 -0.5
Q 71.35 -0.3 70.85 -0.3 70.35 -0.3 69.95 -0.55 69.6 -0.75 69.3 -1.2 69.1 -1.6 69.1 -2.1
L 72.8 -2.1 72.8 -2.35
Q 72.8 -2.85 72.55 -3.45 72.3 -3.95 71.85 -4.25 71.35 -4.5 70.7 -4.5 70.15 -4.5 69.6 -4.2
M 69.85 -3.85
Q 70.25 -4.1 70.7 -4.1 71.4 -4.1 71.85 -3.65 72.25 -3.2 72.3 -2.5
L 69.1 -2.5
Q 69.1 -2.9 69.3 -3.25 69.6 -3.65 69.85 -3.85 Z"/>
</g>

<g id="BDM_728x90_psd_Asset_2_ManagedWiFi_Awareness_DM6_2_Improve_customer_satisfaction_and__increase_consumer_engagement_0_Layer0_0_MEMBER_14_FILL">
<path fill="#D82C26" stroke="none" d="
M 74.6 -4.4
L 74.1 -4.4 74.15 0 74.7 0 74.7 -2.2
Q 74.7 -3 75.05 -3.5 75.35 -4 75.95 -4
L 76.3 -3.95 76.45 -4.45 75.95 -4.5
Q 75.6 -4.5 75.2 -4.2 74.9 -4 74.7 -3.45
L 74.65 -3.45 74.6 -4.4 Z"/>
</g>

<g id="BDM_728x90_psd_Asset_2_ManagedWiFi_Awareness_DM6_2_Improve_customer_satisfaction_and__increase_consumer_engagement_0_Layer0_0_MEMBER_15_FILL">
<path fill="#D82C26" stroke="none" d="
M 79.4 -3.95
Q 79.2 -3.65 79.2 -3.3 79.2 -2.85 79.5 -2.55 79.9 -2.25 80.45 -2.1 81.1 -1.9 81.4 -1.65 81.65 -1.5 81.65 -1.15 81.65 -0.75 81.35 -0.55 81.1 -0.3 80.7 -0.3 79.9 -0.3 79.2 -0.85
L 79.15 -0.35
Q 79.3 -0.2 79.8 0 80.1 0.1 80.7 0.1
L 81.4 0
Q 81.8 -0.15 82 -0.45 82.2 -0.85 82.2 -1.15 82.2 -1.65 81.85 -1.95 81.45 -2.25 80.85 -2.45 80.1 -2.7 79.95 -2.85 79.75 -3 79.75 -3.35 79.75 -3.7 80 -3.9 80.4 -4.1 80.7 -4.1 81 -4.1 81.3 -3.95 81.4 -3.95 81.8 -3.65
L 82.05 -4.05
Q 81.85 -4.25 81.45 -4.4
L 80.65 -4.5 79.95 -4.4
Q 79.6 -4.25 79.4 -3.95 Z"/>
</g>

<g id="BDM_728x90_psd_Asset_2_ManagedWiFi_Awareness_DM6_2_Improve_customer_satisfaction_and__increase_consumer_engagement_0_Layer0_0_MEMBER_16_FILL">
<path fill="#D82C26" stroke="none" d="
M 83.65 -3.55
Q 83.8 -3.7 84.3 -3.9 84.65 -4.1 85.05 -4.1 85.65 -4.1 85.95 -3.75 86.3 -3.4 86.3 -2.9
L 86.3 -2.65 85.75 -2.65
Q 83.25 -2.65 83.25 -1.2 83.25 -0.5 83.65 -0.2 84.1 0.1 84.65 0.1 85.25 0.1 85.6 -0.15 86.05 -0.35 86.3 -0.85
L 86.3 -0.4 86.35 0 86.85 0 86.8 -2.85
Q 86.8 -3.65 86.35 -4.1 85.95 -4.5 85.1 -4.5 84.65 -4.5 84.25 -4.35 83.85 -4.3 83.5 -3.95
L 83.65 -3.55
M 85.6 -0.5
Q 85.25 -0.3 84.75 -0.3 84.3 -0.3 84.05 -0.5 83.75 -0.7 83.75 -1.2 83.75 -2.25 85.85 -2.25
L 86.3 -2.25 86.3 -1.8
Q 86.3 -1.45 86.1 -1.1 85.95 -0.8 85.6 -0.5 Z"/>
</g>

<g id="BDM_728x90_psd_Asset_2_ManagedWiFi_Awareness_DM6_2_Improve_customer_satisfaction_and__increase_consumer_engagement_0_Layer0_0_MEMBER_17_FILL">
<path fill="#D82C26" stroke="none" d="
M 89.05 -4.4
L 89.05 -5.65 88.5 -5.45 88.5 -4.4 87.8 -4.4 87.7 -3.95 88.5 -3.95 88.5 -1.05
Q 88.5 -0.5 88.8 -0.2 89.05 0.1 89.55 0.1
L 90.05 0.05 90.45 -0.15 90.4 -0.55
Q 90.05 -0.35 89.7 -0.35 89.4 -0.35 89.25 -0.55 89.05 -0.7 89.05 -1.15
L 89.05 -3.95 90.2 -3.95 90.3 -4.4 89.05 -4.4 Z"/>
</g>

<g id="BDM_728x90_psd_Asset_2_ManagedWiFi_Awareness_DM6_2_Improve_customer_satisfaction_and__increase_consumer_engagement_0_Layer0_0_MEMBER_18_FILL">
<path fill="#D82C26" stroke="none" d="
M 92.05 -4.4
L 91.5 -4.4 91.5 0 92.05 0 92.05 -4.4
M 92.05 -6.4
Q 92 -6.55 91.8 -6.55
L 91.5 -6.4 91.4 -6.15 91.5 -5.85
Q 91.6 -5.75 91.8 -5.75 92 -5.75 92.05 -5.85 92.2 -6 92.2 -6.15 92.2 -6.3 92.05 -6.4 Z"/>
</g>

<g id="BDM_728x90_psd_Asset_2_ManagedWiFi_Awareness_DM6_2_Improve_customer_satisfaction_and__increase_consumer_engagement_0_Layer0_0_MEMBER_19_FILL">
<path fill="#D82C26" stroke="none" d="
M 95.55 -3.95
Q 95.65 -3.95 96.05 -3.65
L 96.3 -4.05
Q 96.2 -4.15 95.7 -4.4
L 94.9 -4.5 94.2 -4.4
Q 93.85 -4.25 93.65 -3.95 93.45 -3.75 93.45 -3.3 93.45 -2.85 93.75 -2.55 94.05 -2.25 94.7 -2.1
L 95.6 -1.65
Q 95.9 -1.5 95.9 -1.15 95.9 -0.75 95.6 -0.55 95.25 -0.3 94.9 -0.3 94.1 -0.3 93.45 -0.85
L 93.35 -0.35 94.05 0
Q 94.3 0.1 94.95 0.1
L 95.65 0
Q 95.95 -0.1 96.2 -0.45 96.4 -0.7 96.4 -1.15 96.4 -1.65 96.1 -1.95 95.5 -2.3 95.05 -2.45 94.35 -2.7 94.2 -2.85 93.95 -3 93.95 -3.35 93.95 -3.65 94.25 -3.9 94.55 -4.1 94.9 -4.1 95.25 -4.1 95.55 -3.95 Z"/>
</g>

<g id="BDM_728x90_psd_Asset_2_ManagedWiFi_Awareness_DM6_2_Improve_customer_satisfaction_and__increase_consumer_engagement_0_Layer0_0_MEMBER_20_FILL">
<path fill="#D82C26" stroke="none" d="
M 100.3 -7.1
L 99.5 -7.2
Q 98.9 -7.2 98.5 -6.8 98.15 -6.45 98.15 -5.65
L 98.15 -4.4 97.35 -4.4 97.2 -3.95 98.15 -3.95 98.15 0 98.7 0 98.7 -3.95 99.7 -3.95 99.8 -4.4 98.7 -4.4 98.7 -5.65
Q 98.7 -6.05 98.85 -6.45 99.1 -6.75 99.55 -6.75
L 100.2 -6.65 100.3 -7.1 Z"/>
</g>

<g id="BDM_728x90_psd_Asset_2_ManagedWiFi_Awareness_DM6_2_Improve_customer_satisfaction_and__increase_consumer_engagement_0_Layer0_0_MEMBER_21_FILL">
<path fill="#D82C26" stroke="none" d="
M 100.5 -1.2
Q 100.5 -0.5 100.95 -0.2 101.35 0.1 101.9 0.1 102.55 0.1 102.9 -0.15 103.3 -0.35 103.55 -0.85
L 103.6 -0.85 103.6 -0.4 103.65 0 104.15 0 104.05 -0.95 104.05 -2.85
Q 104.05 -3.7 103.65 -4.1 103.25 -4.5 102.4 -4.5 101.95 -4.5 101.5 -4.35 101.1 -4.3 100.75 -3.95
L 100.9 -3.55 101.55 -3.9
Q 101.95 -4.1 102.3 -4.1 102.9 -4.1 103.25 -3.75 103.55 -3.45 103.55 -2.9
L 103.55 -2.65 103.05 -2.65
Q 100.5 -2.65 100.5 -1.2
M 103.1 -2.25
L 103.55 -2.25 103.55 -1.8 103.4 -1.1
Q 103.15 -0.7 102.85 -0.5 102.6 -0.3 102.05 -0.3 101.55 -0.3 101.35 -0.5 101.05 -0.7 101.05 -1.2 101.05 -2.25 103.1 -2.25 Z"/>
</g>

<g id="BDM_728x90_psd_Asset_2_ManagedWiFi_Awareness_DM6_2_Improve_customer_satisfaction_and__increase_consumer_engagement_0_Layer0_0_MEMBER_22_FILL">
<path fill="#D82C26" stroke="none" d="
M 105.4 -2.2
Q 105.4 -1.5 105.7 -1 105.9 -0.5 106.5 -0.15 107.05 0.15 107.65 0.15 108.15 0.15 108.5 0 108.9 -0.1 109.15 -0.4
L 109.1 -0.85
Q 108.7 -0.55 108.45 -0.5 108.15 -0.35 107.7 -0.35 107.2 -0.35 106.8 -0.6 106.45 -0.8 106.15 -1.25 105.95 -1.85 105.95 -2.2 105.95 -2.6 106.15 -3.1 106.4 -3.6 106.8 -3.8 107.2 -4.05 107.7 -4.05
L 108.4 -3.9
Q 108.65 -3.85 108.95 -3.55
L 109.15 -4
Q 108.85 -4.3 108.5 -4.35 108.15 -4.5 107.7 -4.5 107.05 -4.5 106.5 -4.2 106 -3.9 105.7 -3.4 105.4 -2.85 105.4 -2.2 Z"/>
</g>

<g id="BDM_728x90_psd_Asset_2_ManagedWiFi_Awareness_DM6_2_Improve_customer_satisfaction_and__increase_consumer_engagement_0_Layer0_0_MEMBER_23_FILL">
<path fill="#D82C26" stroke="none" d="
M 109.9 -3.95
L 110.7 -3.95 110.7 -1.05
Q 110.7 -0.5 111 -0.2 111.3 0.1 111.75 0.1
L 112.25 0.05 112.7 -0.15 112.6 -0.55
Q 112.25 -0.35 111.9 -0.35 111.6 -0.35 111.45 -0.55 111.25 -0.7 111.25 -1.15
L 111.25 -3.95 112.4 -3.95 112.5 -4.4 111.25 -4.4 111.25 -5.65 110.7 -5.45 110.7 -4.4 110 -4.4 109.9 -3.95 Z"/>
</g>

<g id="BDM_728x90_psd_Asset_2_ManagedWiFi_Awareness_DM6_2_Improve_customer_satisfaction_and__increase_consumer_engagement_0_Layer0_0_MEMBER_24_FILL">
<path fill="#D82C26" stroke="none" d="
M 114.25 -4.4
L 113.7 -4.4 113.7 0 114.25 0 114.25 -4.4
M 114.25 -6.4
Q 114.2 -6.55 114 -6.55
L 113.7 -6.4 113.6 -6.15 113.7 -5.85
Q 113.8 -5.75 114 -5.75 114.2 -5.75 114.25 -5.85 114.4 -6 114.4 -6.15 114.4 -6.3 114.25 -6.4 Z"/>
</g>

<g id="BDM_728x90_psd_Asset_2_ManagedWiFi_Awareness_DM6_2_Improve_customer_satisfaction_and__increase_consumer_engagement_0_Layer0_0_MEMBER_25_FILL">
<path fill="#D82C26" stroke="none" d="
M 115.9 -3.4
Q 115.6 -2.85 115.6 -2.2 115.6 -1.5 115.9 -1 116.2 -0.45 116.75 -0.15 117.3 0.15 117.95 0.15 118.65 0.15 119.15 -0.15 119.6 -0.4 119.95 -1 120.3 -1.5 120.3 -2.2 120.3 -2.9 119.95 -3.4 119.6 -4 119.15 -4.2 118.65 -4.5 117.95 -4.5 117.3 -4.5 116.75 -4.2 116.25 -4 115.9 -3.4
M 116.15 -2.2
Q 116.15 -2.65 116.4 -3.15 116.55 -3.55 117 -3.8 117.4 -4.05 117.95 -4.05 118.4 -4.05 118.9 -3.8 119.25 -3.6 119.5 -3.15 119.75 -2.65 119.75 -2.2 119.75 -1.75 119.5 -1.25 119.25 -0.8 118.9 -0.6 118.55 -0.35 117.95 -0.35 117.3 -0.35 117 -0.6 116.55 -0.85 116.4 -1.25 116.15 -1.75 116.15 -2.2 Z"/>
</g>

<g id="BDM_728x90_psd_Asset_2_ManagedWiFi_Awareness_DM6_2_Improve_customer_satisfaction_and__increase_consumer_engagement_0_Layer0_0_MEMBER_26_FILL">
<path fill="#D82C26" stroke="none" d="
M 122.1 -4.4
L 121.6 -4.4 121.65 0 122.2 0 122.2 -2.25
Q 122.2 -2.85 122.4 -3.2 122.5 -3.55 122.9 -3.85 123.25 -4.05 123.65 -4.05 124.35 -4.05 124.55 -3.6 124.85 -3.2 124.85 -2.55
L 124.85 0 125.4 0 125.4 -2.7
Q 125.4 -3.45 125 -4 124.55 -4.5 123.75 -4.5 123.25 -4.5 122.8 -4.2 122.35 -3.9 122.2 -3.45
L 122.15 -3.45 122.1 -4.4 Z"/>
</g>

<g id="BDM_728x90_psd_Asset_2_ManagedWiFi_Awareness_DM6_2_Improve_customer_satisfaction_and__increase_consumer_engagement_0_Layer0_0_MEMBER_27_FILL">
<path fill="#D82C26" stroke="none" d="
M 130.7 -4.1
Q 131.3 -4.1 131.6 -3.75 131.95 -3.4 131.95 -2.9
L 131.95 -2.65 131.4 -2.65
Q 128.9 -2.65 128.9 -1.2 128.9 -0.5 129.3 -0.2 129.75 0.1 130.3 0.1 130.9 0.1 131.25 -0.15 131.75 -0.35 131.9 -0.85
L 131.95 -0.85 131.95 -0.4 132 0 132.5 0 132.45 -2.85
Q 132.45 -3.65 132 -4.1 131.6 -4.5 130.75 -4.5 130.3 -4.5 129.9 -4.35 129.5 -4.3 129.15 -3.95
L 129.3 -3.55
Q 129.45 -3.7 129.95 -3.9 130.3 -4.1 130.7 -4.1
M 131.25 -0.5
Q 130.9 -0.3 130.4 -0.3 129.95 -0.3 129.7 -0.5 129.4 -0.7 129.4 -1.2 129.4 -2.25 131.5 -2.25
L 131.95 -2.25 131.95 -1.8
Q 131.95 -1.45 131.75 -1.1 131.6 -0.8 131.25 -0.5 Z"/>
</g>

<g id="BDM_728x90_psd_Asset_2_ManagedWiFi_Awareness_DM6_2_Improve_customer_satisfaction_and__increase_consumer_engagement_0_Layer0_0_MEMBER_28_FILL">
<path fill="#D82C26" stroke="none" d="
M 134.55 -4.4
L 134 -4.4 134.05 0 134.6 0 134.6 -2.25
Q 134.6 -2.85 134.8 -3.2 135.05 -3.65 135.35 -3.85 135.6 -4.05 136.05 -4.05 136.7 -4.05 137 -3.6 137.25 -3.2 137.25 -2.55
L 137.25 0 137.8 0 137.8 -2.7
Q 137.8 -3.55 137.4 -4 137.05 -4.5 136.2 -4.5 135.65 -4.5 135.2 -4.2 134.85 -3.9 134.6 -3.45
L 134.55 -4.4 Z"/>
</g>

<g id="BDM_728x90_psd_Asset_2_ManagedWiFi_Awareness_DM6_2_Improve_customer_satisfaction_and__increase_consumer_engagement_0_Layer0_0_MEMBER_29_FILL">
<path fill="#D82C26" stroke="none" d="
M 140.2 -4.2
Q 139.75 -3.95 139.4 -3.35 139.15 -2.75 139.15 -2.2 139.15 -1.6 139.4 -1 139.7 -0.5 140.2 -0.2 140.75 0.1 141.35 0.1 141.95 0.1 142.4 -0.15 142.85 -0.45 143.15 -0.95
L 143.2 0 143.7 0 143.7 -7.2 143.15 -7.05 143.15 -3.45 143.1 -3.45
Q 142.9 -3.9 142.4 -4.25 141.8 -4.5 141.35 -4.5 140.75 -4.5 140.2 -4.2
M 140.5 -3.8
Q 140.9 -4.05 141.4 -4.05 141.9 -4.05 142.3 -3.8 142.75 -3.55 142.95 -3.1 143.15 -2.75 143.15 -2.2 143.15 -1.65 142.95 -1.25 142.7 -0.85 142.3 -0.6 142 -0.35 141.4 -0.35 140.8 -0.35 140.5 -0.6 140.1 -0.85 139.9 -1.25 139.7 -1.65 139.7 -2.2 139.7 -2.75 139.9 -3.1 140.15 -3.6 140.5 -3.8 Z"/>
</g>

<g id="BDM_728x90_psd_Asset_2_ManagedWiFi_Awareness_DM6_2_Improve_customer_satisfaction_and__increase_consumer_engagement_0_Layer0_0_MEMBER_30_FILL">
<path fill="#D82C26" stroke="none" d="
M 0.85 6.45
L 0.85 10.85 1.4 10.85 1.4 6.45 0.85 6.45
M 1.15 5.1
Q 1.35 5.1 1.4 5 1.55 4.85 1.55 4.7 1.55 4.55 1.4 4.45 1.35 4.3 1.15 4.3
L 0.85 4.45 0.75 4.7 0.85 5
Q 0.95 5.1 1.15 5.1 Z"/>
</g>

<g id="BDM_728x90_psd_Asset_2_ManagedWiFi_Awareness_DM6_2_Improve_customer_satisfaction_and__increase_consumer_engagement_0_Layer0_0_MEMBER_31_FILL">
<path fill="#D82C26" stroke="none" d="
M 3.8 7.65
Q 4 7.25 4.35 7 4.7 6.8 5.1 6.8 5.8 6.8 6 7.25 6.3 7.7 6.3 8.3
L 6.3 10.85 6.85 10.85 6.85 8.2
Q 6.85 7.4 6.45 6.85 6 6.35 5.2 6.35 4.7 6.35 4.25 6.65 3.85 6.95 3.6 7.4
L 3.55 6.45 3.05 6.45 3.1 10.85 3.65 10.85 3.65 8.6
Q 3.65 8.05 3.8 7.65 Z"/>
</g>

<g id="BDM_728x90_psd_Asset_2_ManagedWiFi_Awareness_DM6_2_Improve_customer_satisfaction_and__increase_consumer_engagement_0_Layer0_0_MEMBER_32_FILL">
<path fill="#D82C26" stroke="none" d="
M 11.3 6.5
Q 10.85 6.35 10.45 6.35 9.8 6.35 9.25 6.65 8.75 6.95 8.45 7.45 8.15 8 8.15 8.65 8.15 9.35 8.45 9.85 8.8 10.45 9.25 10.7 9.8 11 10.45 11 10.85 11 11.3 10.85
L 11.95 10.45 11.85 10
Q 11.45 10.3 11.25 10.35
L 10.5 10.5
Q 9.95 10.5 9.55 10.25 9.2 10.05 8.95 9.6 8.7 9.1 8.7 8.65 8.7 8.15 8.95 7.75 9.2 7.25 9.55 7.05 9.95 6.8 10.45 6.8
L 11.15 6.95
Q 11.4 7 11.7 7.3
L 11.95 6.85 11.3 6.5 Z"/>
</g>

<g id="BDM_728x90_psd_Asset_2_ManagedWiFi_Awareness_DM6_2_Improve_customer_satisfaction_and__increase_consumer_engagement_0_Layer0_0_MEMBER_33_FILL">
<path fill="#D82C26" stroke="none" d="
M 14.15 6.65
Q 13.9 6.8 13.6 7.4
L 13.55 6.45 13.05 6.45 13.1 10.85 13.65 10.85 13.65 8.65
Q 13.65 7.95 13.95 7.35 14.3 6.85 14.85 6.85
L 15.25 6.9 15.35 6.4 14.9 6.35
Q 14.55 6.35 14.15 6.65 Z"/>
</g>

<g id="BDM_728x90_psd_Asset_2_ManagedWiFi_Awareness_DM6_2_Improve_customer_satisfaction_and__increase_consumer_engagement_0_Layer0_0_MEMBER_34_FILL">
<path fill="#D82C26" stroke="none" d="
M 19.15 6.6
Q 18.65 6.35 18 6.35 17.45 6.35 16.9 6.65 16.5 6.85 16.15 7.45 15.85 8 15.85 8.65 15.85 9.35 16.15 9.85 16.5 10.45 16.95 10.7 17.5 11 18.1 11 19.05 11 19.85 10.45
L 19.75 9.95
Q 19.5 10.2 19.05 10.35 18.65 10.55 18.15 10.55 17.65 10.55 17.25 10.3 16.85 10.05 16.6 9.65 16.4 9.25 16.4 8.75
L 20.1 8.75 20.1 8.5
Q 20.1 7.85 19.85 7.4 19.6 6.9 19.15 6.6
M 19.15 7.2
Q 19.5 7.55 19.6 8.35
L 16.4 8.35
Q 16.4 8.1 16.6 7.6
L 17.15 7
Q 17.55 6.75 18 6.75 18.7 6.75 19.15 7.2 Z"/>
</g>

<g id="BDM_728x90_psd_Asset_2_ManagedWiFi_Awareness_DM6_2_Improve_customer_satisfaction_and__increase_consumer_engagement_0_Layer0_0_MEMBER_35_FILL">
<path fill="#D82C26" stroke="none" d="
M 24.1 8.2
L 23.6 8.2
Q 21.1 8.2 21.1 9.65 21.1 10.4 21.5 10.65 21.9 10.95 22.5 10.95 23.05 10.95 23.45 10.75 23.95 10.4 24.1 10
L 24.15 10 24.15 10.45 24.2 10.85 24.7 10.85 24.65 8
Q 24.65 7.2 24.2 6.75 23.8 6.35 22.95 6.35 22.5 6.35 22.05 6.5 21.55 6.7 21.35 6.9
L 21.5 7.3
Q 21.65 7.15 22.15 6.95 22.65 6.75 22.9 6.75 23.45 6.75 23.8 7.1 24.1 7.4 24.1 7.95
L 24.1 8.2
M 24.1 8.6
L 24.1 9.05 23.95 9.75
Q 23.8 10.05 23.45 10.35 23.1 10.55 22.6 10.55 22.15 10.55 21.9 10.35 21.6 10.15 21.6 9.65 21.6 8.6 23.65 8.6
L 24.1 8.6 Z"/>
</g>

<g id="BDM_728x90_psd_Asset_2_ManagedWiFi_Awareness_DM6_2_Improve_customer_satisfaction_and__increase_consumer_engagement_0_Layer0_0_MEMBER_36_FILL">
<path fill="#D82C26" stroke="none" d="
M 28.8 6.8
L 28.2 6.45 27.4 6.35 26.75 6.45
Q 26.35 6.6 26.2 6.9 25.95 7.15 25.95 7.55 25.95 7.95 26.3 8.3 26.6 8.6 27.2 8.75 27.85 8.95 28.15 9.2 28.4 9.35 28.4 9.7 28.4 10.2 28.15 10.3 27.8 10.55 27.45 10.55 26.65 10.55 26 10
L 25.9 10.5
Q 26.05 10.65 26.55 10.85 26.85 10.95 27.45 10.95
L 28.2 10.85
Q 28.55 10.7 28.75 10.4 28.95 10.15 28.95 9.7 28.95 9.2 28.6 8.9 28.2 8.6 27.6 8.4 26.9 8.15 26.75 8 26.5 7.9 26.5 7.5 26.5 7.2 26.75 6.95 27.15 6.75 27.45 6.75 27.75 6.75 28.05 6.9
L 28.6 7.2 28.8 6.8 Z"/>
</g>

<g id="BDM_728x90_psd_Asset_2_ManagedWiFi_Awareness_DM6_2_Improve_customer_satisfaction_and__increase_consumer_engagement_0_Layer0_0_MEMBER_37_FILL">
<path fill="#D82C26" stroke="none" d="
M 33.95 7.4
Q 33.7 6.9 33.25 6.6 32.75 6.35 32.1 6.35 31.55 6.35 31 6.65 30.5 6.9 30.25 7.45 29.95 8 29.95 8.65 29.95 9.35 30.25 9.85 30.6 10.45 31.05 10.7 31.6 11 32.2 11 33.15 11 33.95 10.45
L 33.85 9.95
Q 33.65 10.15 33.15 10.35 32.75 10.55 32.25 10.55 31.75 10.55 31.35 10.3 31 10.1 30.7 9.65 30.5 9.25 30.5 8.75
L 34.2 8.75 34.2 8.5
Q 34.2 8 33.95 7.4
M 33.25 7.2
Q 33.65 7.65 33.7 8.35
L 30.5 8.35
Q 30.5 7.95 30.7 7.6
L 31.25 7
Q 31.65 6.75 32.1 6.75 32.8 6.75 33.25 7.2 Z"/>
</g>

<g id="BDM_728x90_psd_Asset_2_ManagedWiFi_Awareness_DM6_2_Improve_customer_satisfaction_and__increase_consumer_engagement_0_Layer0_0_MEMBER_38_FILL">
<path fill="#D82C26" stroke="none" d="
M 41.2 6.85
Q 41.05 6.7 40.55 6.5 40.1 6.35 39.7 6.35 39.1 6.35 38.55 6.65 37.95 7 37.7 7.45 37.4 8 37.4 8.65 37.4 9.35 37.7 9.85 38.05 10.45 38.5 10.7 39.05 11 39.7 11 40.1 11 40.55 10.85
L 41.2 10.45 41.1 10
Q 40.7 10.3 40.5 10.35
L 39.75 10.5
Q 39.3 10.5 38.8 10.25 38.45 10.05 38.2 9.6 38 9.2 38 8.65 38 8.1 38.2 7.75 38.45 7.25 38.8 7.05 39.2 6.8 39.7 6.8 40.1 6.8 40.4 6.95 40.65 7 40.95 7.3
L 41.2 6.85 Z"/>
</g>

<g id="BDM_728x90_psd_Asset_2_ManagedWiFi_Awareness_DM6_2_Improve_customer_satisfaction_and__increase_consumer_engagement_0_Layer0_0_MEMBER_39_FILL">
<path fill="#D82C26" stroke="none" d="
M 44.3 6.35
Q 43.65 6.35 43.1 6.65 42.6 6.85 42.25 7.45 41.95 8 41.95 8.65 41.95 9.35 42.25 9.85 42.55 10.4 43.1 10.7 43.65 11 44.3 11 45 11 45.5 10.7 45.95 10.45 46.3 9.85 46.65 9.35 46.65 8.65 46.65 7.95 46.3 7.45 45.95 6.85 45.5 6.65 45 6.35 44.3 6.35
M 44.3 6.8
Q 44.75 6.8 45.25 7.05 45.6 7.25 45.85 7.7 46.1 8.2 46.1 8.65 46.1 9.1 45.85 9.6 45.6 10.05 45.25 10.25 44.9 10.5 44.3 10.5 43.65 10.5 43.35 10.25 42.9 10 42.75 9.6 42.5 9.1 42.5 8.65 42.5 8.2 42.75 7.7 42.9 7.3 43.35 7.05 43.75 6.8 44.3 6.8 Z"/>
</g>

<g id="BDM_728x90_psd_Asset_2_ManagedWiFi_Awareness_DM6_2_Improve_customer_satisfaction_and__increase_consumer_engagement_0_Layer0_0_MEMBER_40_FILL">
<path fill="#D82C26" stroke="none" d="
M 51.75 8.2
Q 51.75 7.4 51.35 6.85 51 6.35 50.1 6.35 49.6 6.35 49.15 6.65 48.7 6.95 48.55 7.4
L 48.5 7.4 48.45 6.45 47.95 6.45 48 10.85 48.55 10.85 48.55 8.6
Q 48.55 8 48.75 7.65 48.85 7.3 49.25 7 49.6 6.8 50 6.8 50.7 6.8 50.9 7.25 51.2 7.7 51.2 8.3
L 51.2 10.85 51.75 10.85 51.75 8.2 Z"/>
</g>

<g id="BDM_728x90_psd_Asset_2_ManagedWiFi_Awareness_DM6_2_Improve_customer_satisfaction_and__increase_consumer_engagement_0_Layer0_0_MEMBER_41_FILL">
<path fill="#D82C26" stroke="none" d="
M 55.3 6.45
L 54.55 6.35 53.85 6.45
Q 53.55 6.55 53.3 6.9 53.1 7.1 53.1 7.55 53.1 8 53.4 8.3 53.7 8.6 54.35 8.75
L 55.25 9.2
Q 55.55 9.35 55.55 9.7 55.55 10.15 55.25 10.3 54.9 10.55 54.55 10.55 53.75 10.55 53.1 10
L 53 10.5 53.7 10.85
Q 53.95 10.95 54.55 10.95
L 55.3 10.85
Q 55.6 10.75 55.85 10.4 56.05 10.15 56.05 9.7 56.05 9.2 55.75 8.9 55.2 8.55 54.7 8.4 54 8.15 53.85 8 53.6 7.85 53.6 7.5 53.6 7.2 53.85 6.95 54.25 6.75 54.55 6.75 54.9 6.75 55.2 6.9
L 55.7 7.2 55.95 6.8 55.3 6.45 Z"/>
</g>

<g id="BDM_728x90_psd_Asset_2_ManagedWiFi_Awareness_DM6_2_Improve_customer_satisfaction_and__increase_consumer_engagement_0_Layer0_0_MEMBER_42_FILL">
<path fill="#D82C26" stroke="none" d="
M 61 10.35
L 61 6.45 60.45 6.45 60.45 8.65
Q 60.45 9.3 60.25 9.65 60.15 10 59.75 10.3 59.4 10.5 59 10.5 58.3 10.5 58.05 10.1 57.8 9.6 57.8 9
L 57.8 6.45 57.25 6.45 57.25 9.15
Q 57.25 9.9 57.65 10.45 58 10.95 58.85 10.95 59.5 10.95 59.8 10.7 60.3 10.35 60.45 9.9
L 60.55 10.85 61.1 10.85 61 10.35 Z"/>
</g>

<g id="BDM_728x90_psd_Asset_2_ManagedWiFi_Awareness_DM6_2_Improve_customer_satisfaction_and__increase_consumer_engagement_0_Layer0_0_MEMBER_43_FILL">
<path fill="#D82C26" stroke="none" d="
M 64.75 6.35
Q 64.25 6.35 63.8 6.65 63.45 6.95 63.2 7.4
L 63.15 6.45 62.65 6.45 62.7 10.85 63.25 10.85 63.25 8.65
Q 63.25 8.1 63.4 7.65 63.7 7.15 63.9 7 64.15 6.8 64.6 6.8 65.15 6.8 65.45 7.2 65.7 7.6 65.7 8.25
L 65.7 10.85 66.25 10.85 66.25 8.6
Q 66.25 7.85 66.65 7.3 67 6.8 67.65 6.8 68.25 6.8 68.55 7.25 68.8 7.75 68.8 8.35
L 68.8 10.85 69.35 10.85 69.35 8.2
Q 69.35 7.45 68.95 6.9 68.6 6.35 67.75 6.35 67.2 6.35 66.8 6.65 66.35 6.95 66.15 7.45 66 6.95 65.65 6.65 65.3 6.35 64.75 6.35 Z"/>
</g>

<g id="BDM_728x90_psd_Asset_2_ManagedWiFi_Awareness_DM6_2_Improve_customer_satisfaction_and__increase_consumer_engagement_0_Layer0_0_MEMBER_44_FILL">
<path fill="#D82C26" stroke="none" d="
M 74.7 7.4
Q 74.3 6.8 73.95 6.6 73.45 6.35 72.85 6.35 72.2 6.35 71.75 6.65 71.3 6.85 70.95 7.45 70.65 8 70.65 8.65 70.65 9.35 70.95 9.85 71.3 10.45 71.75 10.7 72.3 11 72.9 11 73.95 11 74.65 10.45
L 74.55 9.95
Q 74.4 10.15 73.85 10.35 73.5 10.55 72.95 10.55 72.45 10.55 72.05 10.3 71.7 10.1 71.45 9.65 71.2 9.15 71.2 8.75
L 74.9 8.75 74.95 8.5
Q 74.95 8 74.7 7.4
M 73.95 7.2
Q 74.4 7.65 74.4 8.35
L 71.2 8.35 71.4 7.6 72 7
Q 72.35 6.75 72.85 6.75 73.6 6.75 73.95 7.2 Z"/>
</g>

<g id="BDM_728x90_psd_Asset_2_ManagedWiFi_Awareness_DM6_2_Improve_customer_satisfaction_and__increase_consumer_engagement_0_Layer0_0_MEMBER_45_FILL">
<path fill="#D82C26" stroke="none" d="
M 76.75 6.45
L 76.2 6.45 76.25 10.85 76.8 10.85 76.8 8.65
Q 76.8 8.05 77.15 7.35 77.45 6.85 78.05 6.85
L 78.45 6.9 78.55 6.4 78.1 6.35
Q 77.75 6.35 77.35 6.65 77 6.9 76.8 7.4
L 76.75 6.45 Z"/>
</g>

<g id="BDM_728x90_psd_Asset_2_ManagedWiFi_Awareness_DM6_2_Improve_customer_satisfaction_and__increase_consumer_engagement_0_Layer0_0_MEMBER_46_FILL">
<path fill="#D82C26" stroke="none" d="
M 85.25 7.4
Q 85 6.9 84.55 6.6 84.05 6.35 83.45 6.35 82.8 6.35 82.35 6.65 81.9 6.85 81.55 7.45 81.25 8 81.25 8.65 81.25 9.35 81.55 9.85 81.9 10.45 82.35 10.7 82.9 11 83.5 11 84.45 11 85.25 10.45
L 85.15 9.95
Q 84.9 10.2 84.45 10.35 84.05 10.55 83.55 10.55 83.05 10.55 82.65 10.3 82.3 10.1 82.05 9.65 81.8 9.15 81.8 8.75
L 85.5 8.75 85.5 8.5
Q 85.5 7.85 85.25 7.4
M 84.55 7.2
Q 85 7.65 85 8.35
L 81.8 8.35
Q 81.8 8.1 82 7.6
L 82.55 7
Q 82.95 6.75 83.45 6.75 84.1 6.75 84.55 7.2 Z"/>
</g>

<g id="BDM_728x90_psd_Asset_2_ManagedWiFi_Awareness_DM6_2_Improve_customer_satisfaction_and__increase_consumer_engagement_0_Layer0_0_MEMBER_47_FILL">
<path fill="#D82C26" stroke="none" d="
M 90.2 6.85
Q 89.85 6.35 89 6.35 88.45 6.35 88.05 6.65 87.65 6.95 87.4 7.4
L 87.35 6.45 86.85 6.45 86.85 10.85 87.4 10.85 87.4 8.6
Q 87.4 8.15 87.6 7.65 87.85 7.2 88.15 7 88.4 6.8 88.9 6.8 89.5 6.8 89.8 7.25 90.05 7.65 90.05 8.3
L 90.05 10.85 90.6 10.85 90.6 8.2
Q 90.6 7.3 90.2 6.85 Z"/>
</g>

<g id="BDM_728x90_psd_Asset_2_ManagedWiFi_Awareness_DM6_2_Improve_customer_satisfaction_and__increase_consumer_engagement_0_Layer0_0_MEMBER_48_FILL">
<path fill="#D82C26" stroke="none" d="
M 95.2 6.65
Q 94.7 6.35 94.15 6.35 93.55 6.35 93 6.65 92.55 6.9 92.2 7.5 91.95 8.1 91.95 8.65 91.95 9.2 92.2 9.8 92.55 10.4 93 10.65 93.45 10.95 94.15 10.95 94.7 10.95 95.2 10.65 95.7 10.3 95.9 9.85
L 95.95 9.85 95.95 10.8
Q 95.95 11.7 95.5 12.2 95 12.7 94.1 12.7
L 93.15 12.55
Q 92.4 12.15 92.3 12.1
L 92.2 12.6
Q 92.5 12.8 93.1 13
L 94.15 13.15
Q 95.4 13.15 95.9 12.5 96.45 11.95 96.45 10.8
L 96.5 6.45 96 6.45 95.95 7.45 95.9 7.45
Q 95.65 6.9 95.2 6.65
M 95.7 7.7
Q 95.95 8.2 95.95 8.65 95.95 9.15 95.7 9.55 95.5 9.9 95.1 10.25 94.7 10.5 94.2 10.5 93.7 10.5 93.3 10.25 92.9 9.9 92.7 9.55 92.5 9.2 92.5 8.65 92.5 8.1 92.7 7.75 92.95 7.25 93.3 7.05 93.7 6.8 94.2 6.8 94.7 6.8 95.1 7.05 95.45 7.25 95.7 7.7 Z"/>
</g>

<g id="BDM_728x90_psd_Asset_2_ManagedWiFi_Awareness_DM6_2_Improve_customer_satisfaction_and__increase_consumer_engagement_0_Layer0_0_MEMBER_49_FILL">
<path fill="#D82C26" stroke="none" d="
M 101.45 10.85
L 101.35 9.9 101.35 8
Q 101.35 7.2 100.9 6.75 100.5 6.35 99.65 6.35 99.2 6.35 98.8 6.5 98.3 6.7 98.05 6.9
L 98.2 7.3 98.85 6.95
Q 99.35 6.75 99.6 6.75 100.2 6.75 100.5 7.1 100.85 7.4 100.85 7.95
L 100.85 8.2 100.3 8.2
Q 97.8 8.2 97.8 9.65 97.8 10.35 98.2 10.65 98.65 10.95 99.2 10.95 99.8 10.95 100.2 10.75 100.6 10.5 100.85 10
L 100.9 10.85 101.45 10.85
M 100.4 8.6
L 100.85 8.6 100.85 9.05
Q 100.85 9.4 100.65 9.75 100.5 10.15 100.15 10.35 99.8 10.55 99.3 10.55 98.85 10.55 98.6 10.35 98.3 10.15 98.3 9.65 98.3 8.6 100.4 8.6 Z"/>
</g>

<g id="BDM_728x90_psd_Asset_2_ManagedWiFi_Awareness_DM6_2_Improve_customer_satisfaction_and__increase_consumer_engagement_0_Layer0_0_MEMBER_50_FILL">
<path fill="#D82C26" stroke="none" d="
M 105.9 6.65
Q 105.45 6.35 104.85 6.35 104.25 6.35 103.7 6.65 103.15 7 102.95 7.5 102.65 8.05 102.65 8.65 102.65 9.3 102.95 9.8 103.15 10.3 103.7 10.65 104.25 10.95 104.85 10.95 105.45 10.95 105.9 10.65 106.45 10.35 106.65 9.85
L 106.65 10.8
Q 106.65 11.7 106.2 12.2 105.8 12.7 104.85 12.7 104.35 12.7 103.9 12.55 103.15 12.15 103.05 12.1
L 102.95 12.6
Q 103.25 12.8 103.85 13 104.3 13.15 104.85 13.15 106.05 13.15 106.65 12.5 107.2 11.85 107.2 10.8
L 107.25 6.45 106.7 6.45 106.65 7.45
Q 106.3 6.8 105.9 6.65
M 104.95 6.8
Q 105.35 6.8 105.85 7.05 106.2 7.25 106.45 7.7 106.7 8.2 106.7 8.65 106.7 9.15 106.45 9.55 106.25 9.9 105.85 10.25 105.35 10.5 104.95 10.5 104.45 10.5 104.05 10.25 103.6 9.95 103.45 9.55 103.2 9.15 103.2 8.65 103.2 8.15 103.45 7.75 103.6 7.25 104.05 7.05 104.45 6.8 104.95 6.8 Z"/>
</g>

<g id="BDM_728x90_psd_Asset_2_ManagedWiFi_Awareness_DM6_2_Improve_customer_satisfaction_and__increase_consumer_engagement_0_Layer0_0_MEMBER_51_FILL">
<path fill="#D82C26" stroke="none" d="
M 112.55 7.4
Q 112.3 6.9 111.85 6.6 111.35 6.35 110.7 6.35 110.15 6.35 109.6 6.65 109.1 6.9 108.85 7.45 108.55 8 108.55 8.65 108.55 9.35 108.85 9.85 109.2 10.45 109.65 10.7 110.2 11 110.8 11 111.75 11 112.55 10.45
L 112.45 9.95
Q 112.25 10.15 111.75 10.35 111.35 10.55 110.85 10.55 110.35 10.55 109.95 10.3 109.6 10.1 109.3 9.65 109.1 9.25 109.1 8.75
L 112.8 8.75 112.8 8.5
Q 112.8 8 112.55 7.4
M 111.85 7.2
Q 112.25 7.65 112.3 8.35
L 109.1 8.35
Q 109.1 7.95 109.3 7.6 109.6 7.2 109.85 7 110.25 6.75 110.7 6.75 111.4 6.75 111.85 7.2 Z"/>
</g>

<g id="BDM_728x90_psd_Asset_2_ManagedWiFi_Awareness_DM6_2_Improve_customer_satisfaction_and__increase_consumer_engagement_0_Layer0_0_MEMBER_52_FILL">
<path fill="#D82C26" stroke="none" d="
M 115.4 7
Q 115.65 6.8 116.1 6.8 116.6 6.8 116.9 7.2 117.2 7.6 117.2 8.25
L 117.2 10.85 117.75 10.85 117.75 8.6
Q 117.75 7.8 118.1 7.3 118.55 6.8 119.1 6.8 119.8 6.8 120 7.25 120.25 7.65 120.25 8.35
L 120.25 10.85 120.8 10.85 120.8 8.2
Q 120.8 7.4 120.45 6.9 120.1 6.35 119.25 6.35 118.7 6.35 118.25 6.65 117.85 6.95 117.65 7.45 117.5 7 117.1 6.65 116.8 6.35 116.2 6.35 115.7 6.35 115.3 6.65 114.85 6.95 114.7 7.4
L 114.65 6.45 114.1 6.45 114.15 10.85 114.7 10.85 114.7 8.65
Q 114.7 8.05 114.9 7.65 115.05 7.25 115.4 7 Z"/>
</g>

<g id="BDM_728x90_psd_Asset_2_ManagedWiFi_Awareness_DM6_2_Improve_customer_satisfaction_and__increase_consumer_engagement_0_Layer0_0_MEMBER_53_FILL">
<path fill="#D82C26" stroke="none" d="
M 125.45 6.6
Q 124.95 6.35 124.3 6.35 123.75 6.35 123.2 6.65 122.7 6.9 122.45 7.45 122.15 8 122.15 8.65 122.15 9.35 122.45 9.85 122.8 10.45 123.25 10.7 123.8 11 124.4 11 125.35 11 126.15 10.45
L 126.05 9.95
Q 125.85 10.15 125.35 10.35 124.95 10.55 124.45 10.55 123.95 10.55 123.55 10.3 123.2 10.1 122.9 9.65 122.7 9.25 122.7 8.75
L 126.4 8.75 126.4 8.5
Q 126.4 8 126.15 7.4 125.9 6.9 125.45 6.6
M 125.45 7.2
Q 125.85 7.65 125.9 8.35
L 122.7 8.35
Q 122.7 7.95 122.9 7.6
L 123.45 7
Q 123.85 6.75 124.3 6.75 125 6.75 125.45 7.2 Z"/>
</g>

<g id="BDM_728x90_psd_Asset_2_ManagedWiFi_Awareness_DM6_2_Improve_customer_satisfaction_and__increase_consumer_engagement_0_Layer0_0_MEMBER_54_FILL">
<path fill="#D82C26" stroke="none" d="
M 131.1 6.85
Q 130.75 6.35 129.9 6.35 129.35 6.35 128.9 6.65 128.4 7.05 128.3 7.4
L 128.25 6.45 127.7 6.45 127.75 10.85 128.3 10.85 128.3 8.6
Q 128.3 8 128.5 7.65 128.75 7.2 129.05 7 129.3 6.8 129.75 6.8 130.4 6.8 130.7 7.25 130.95 7.75 130.95 8.3
L 130.95 10.85 131.5 10.85 131.5 8.2
Q 131.5 7.4 131.1 6.85 Z"/>
</g>

<g id="BDM_728x90_psd_Asset_2_ManagedWiFi_Awareness_DM6_2_Improve_customer_satisfaction_and__increase_consumer_engagement_0_Layer0_0_MEMBER_55_FILL">
<path fill="#D82C26" stroke="none" d="
M 133.75 5.2
L 133.2 5.45 133.2 6.45 132.5 6.45 132.4 6.9 133.2 6.9 133.2 9.8
Q 133.2 10.35 133.5 10.65 133.75 10.95 134.2 10.95
L 134.7 10.9
Q 135.05 10.8 135.15 10.7
L 135.1 10.3
Q 134.7 10.5 134.4 10.5 134.1 10.5 133.9 10.3 133.75 10.15 133.75 9.7
L 133.75 6.9 134.9 6.9 135 6.45 133.75 6.45 133.75 5.2 Z"/>
</g>

<g id="BDM_728x90_psd_Asset_2_ManagedWiFi_Awareness_DM6_2_Improve_customer_satisfaction_and__increase_consumer_engagement_0_Layer0_0_MEMBER_56_FILL">
<path fill="#D82C26" stroke="none" d="
M 136.3 10.8
Q 136.4 10.9 136.6 10.9 136.8 10.9 136.9 10.8 137 10.7 137 10.5 137 10.25 136.9 10.2
L 136.6 10.05 136.3 10.2 136.2 10.5 136.3 10.8 Z"/>
</g>
</defs>

<g transform="matrix( 1, 0, 0, 1, -197,-2) ">
<g transform="matrix( 1, 0, 0, 1, 196,15) ">
<g transform="matrix( 1, 0, 0, 1, 26,7) ">
<g transform="matrix( 2.6895904541015625, 0, 0, 2.672393798828125, -1.85,19.55) ">
<use xlink:href="#BDM_728x90_psd_Asset_2_ManagedWiFi_Awareness_DM6_2_Improve_customer_satisfaction_and__increase_consumer_engagement_0_Layer0_0_MEMBER_0_FILL"/>
</g>

<g transform="matrix( 2.6895904541015625, 0, 0, 2.672393798828125, -1.85,19.55) ">
<use xlink:href="#BDM_728x90_psd_Asset_2_ManagedWiFi_Awareness_DM6_2_Improve_customer_satisfaction_and__increase_consumer_engagement_0_Layer0_0_MEMBER_1_FILL"/>
</g>

<g transform="matrix( 2.6895904541015625, 0, 0, 2.672393798828125, -1.85,19.55) ">
<use xlink:href="#BDM_728x90_psd_Asset_2_ManagedWiFi_Awareness_DM6_2_Improve_customer_satisfaction_and__increase_consumer_engagement_0_Layer0_0_MEMBER_2_FILL"/>
</g>

<g transform="matrix( 2.6895904541015625, 0, 0, 2.672393798828125, -1.85,19.55) ">
<use xlink:href="#BDM_728x90_psd_Asset_2_ManagedWiFi_Awareness_DM6_2_Improve_customer_satisfaction_and__increase_consumer_engagement_0_Layer0_0_MEMBER_3_FILL"/>
</g>

<g transform="matrix( 2.6895904541015625, 0, 0, 2.672393798828125, -1.85,19.55) ">
<use xlink:href="#BDM_728x90_psd_Asset_2_ManagedWiFi_Awareness_DM6_2_Improve_customer_satisfaction_and__increase_consumer_engagement_0_Layer0_0_MEMBER_4_FILL"/>
</g>

<g transform="matrix( 2.6895904541015625, 0, 0, 2.672393798828125, -1.85,19.55) ">
<use xlink:href="#BDM_728x90_psd_Asset_2_ManagedWiFi_Awareness_DM6_2_Improve_customer_satisfaction_and__increase_consumer_engagement_0_Layer0_0_MEMBER_5_FILL"/>
</g>

<g transform="matrix( 2.6895904541015625, 0, 0, 2.672393798828125, -1.85,19.55) ">
<use xlink:href="#BDM_728x90_psd_Asset_2_ManagedWiFi_Awareness_DM6_2_Improve_customer_satisfaction_and__increase_consumer_engagement_0_Layer0_0_MEMBER_6_FILL"/>
</g>

<g transform="matrix( 2.6895904541015625, 0, 0, 2.672393798828125, -1.85,19.55) ">
<use xlink:href="#BDM_728x90_psd_Asset_2_ManagedWiFi_Awareness_DM6_2_Improve_customer_satisfaction_and__increase_consumer_engagement_0_Layer0_0_MEMBER_7_FILL"/>
</g>

<g transform="matrix( 2.6895904541015625, 0, 0, 2.672393798828125, -1.85,19.55) ">
<use xlink:href="#BDM_728x90_psd_Asset_2_ManagedWiFi_Awareness_DM6_2_Improve_customer_satisfaction_and__increase_consumer_engagement_0_Layer0_0_MEMBER_8_FILL"/>
</g>

<g transform="matrix( 2.6895904541015625, 0, 0, 2.672393798828125, -1.85,19.55) ">
<use xlink:href="#BDM_728x90_psd_Asset_2_ManagedWiFi_Awareness_DM6_2_Improve_customer_satisfaction_and__increase_consumer_engagement_0_Layer0_0_MEMBER_9_FILL"/>
</g>

<g transform="matrix( 2.6895904541015625, 0, 0, 2.672393798828125, -1.85,19.55) ">
<use xlink:href="#BDM_728x90_psd_Asset_2_ManagedWiFi_Awareness_DM6_2_Improve_customer_satisfaction_and__increase_consumer_engagement_0_Layer0_0_MEMBER_10_FILL"/>
</g>

<g transform="matrix( 2.6895904541015625, 0, 0, 2.672393798828125, -1.85,19.55) ">
<use xlink:href="#BDM_728x90_psd_Asset_2_ManagedWiFi_Awareness_DM6_2_Improve_customer_satisfaction_and__increase_consumer_engagement_0_Layer0_0_MEMBER_11_FILL"/>
</g>

<g transform="matrix( 2.6895904541015625, 0, 0, 2.672393798828125, -1.85,19.55) ">
<use xlink:href="#BDM_728x90_psd_Asset_2_ManagedWiFi_Awareness_DM6_2_Improve_customer_satisfaction_and__increase_consumer_engagement_0_Layer0_0_MEMBER_12_FILL"/>
</g>

<g transform="matrix( 2.6895904541015625, 0, 0, 2.672393798828125, -1.85,19.55) ">
<use xlink:href="#BDM_728x90_psd_Asset_2_ManagedWiFi_Awareness_DM6_2_Improve_customer_satisfaction_and__increase_consumer_engagement_0_Layer0_0_MEMBER_13_FILL"/>
</g>

<g transform="matrix( 2.6895904541015625, 0, 0, 2.672393798828125, -1.85,19.55) ">
<use xlink:href="#BDM_728x90_psd_Asset_2_ManagedWiFi_Awareness_DM6_2_Improve_customer_satisfaction_and__increase_consumer_engagement_0_Layer0_0_MEMBER_14_FILL"/>
</g>

<g transform="matrix( 2.6895904541015625, 0, 0, 2.672393798828125, -1.85,19.55) ">
<use xlink:href="#BDM_728x90_psd_Asset_2_ManagedWiFi_Awareness_DM6_2_Improve_customer_satisfaction_and__increase_consumer_engagement_0_Layer0_0_MEMBER_15_FILL"/>
</g>

<g transform="matrix( 2.6895904541015625, 0, 0, 2.672393798828125, -1.85,19.55) ">
<use xlink:href="#BDM_728x90_psd_Asset_2_ManagedWiFi_Awareness_DM6_2_Improve_customer_satisfaction_and__increase_consumer_engagement_0_Layer0_0_MEMBER_16_FILL"/>
</g>

<g transform="matrix( 2.6895904541015625, 0, 0, 2.672393798828125, -1.85,19.55) ">
<use xlink:href="#BDM_728x90_psd_Asset_2_ManagedWiFi_Awareness_DM6_2_Improve_customer_satisfaction_and__increase_consumer_engagement_0_Layer0_0_MEMBER_17_FILL"/>
</g>

<g transform="matrix( 2.6895904541015625, 0, 0, 2.672393798828125, -1.85,19.55) ">
<use xlink:href="#BDM_728x90_psd_Asset_2_ManagedWiFi_Awareness_DM6_2_Improve_customer_satisfaction_and__increase_consumer_engagement_0_Layer0_0_MEMBER_18_FILL"/>
</g>

<g transform="matrix( 2.6895904541015625, 0, 0, 2.672393798828125, -1.85,19.55) ">
<use xlink:href="#BDM_728x90_psd_Asset_2_ManagedWiFi_Awareness_DM6_2_Improve_customer_satisfaction_and__increase_consumer_engagement_0_Layer0_0_MEMBER_19_FILL"/>
</g>

<g transform="matrix( 2.6895904541015625, 0, 0, 2.672393798828125, -1.85,19.55) ">
<use xlink:href="#BDM_728x90_psd_Asset_2_ManagedWiFi_Awareness_DM6_2_Improve_customer_satisfaction_and__increase_consumer_engagement_0_Layer0_0_MEMBER_20_FILL"/>
</g>

<g transform="matrix( 2.6895904541015625, 0, 0, 2.672393798828125, -1.85,19.55) ">
<use xlink:href="#BDM_728x90_psd_Asset_2_ManagedWiFi_Awareness_DM6_2_Improve_customer_satisfaction_and__increase_consumer_engagement_0_Layer0_0_MEMBER_21_FILL"/>
</g>

<g transform="matrix( 2.6895904541015625, 0, 0, 2.672393798828125, -1.85,19.55) ">
<use xlink:href="#BDM_728x90_psd_Asset_2_ManagedWiFi_Awareness_DM6_2_Improve_customer_satisfaction_and__increase_consumer_engagement_0_Layer0_0_MEMBER_22_FILL"/>
</g>

<g transform="matrix( 2.6895904541015625, 0, 0, 2.672393798828125, -1.85,19.55) ">
<use xlink:href="#BDM_728x90_psd_Asset_2_ManagedWiFi_Awareness_DM6_2_Improve_customer_satisfaction_and__increase_consumer_engagement_0_Layer0_0_MEMBER_23_FILL"/>
</g>

<g transform="matrix( 2.6895904541015625, 0, 0, 2.672393798828125, -1.85,19.55) ">
<use xlink:href="#BDM_728x90_psd_Asset_2_ManagedWiFi_Awareness_DM6_2_Improve_customer_satisfaction_and__increase_consumer_engagement_0_Layer0_0_MEMBER_24_FILL"/>
</g>

<g transform="matrix( 2.6895904541015625, 0, 0, 2.672393798828125, -1.85,19.55) ">
<use xlink:href="#BDM_728x90_psd_Asset_2_ManagedWiFi_Awareness_DM6_2_Improve_customer_satisfaction_and__increase_consumer_engagement_0_Layer0_0_MEMBER_25_FILL"/>
</g>

<g transform="matrix( 2.6895904541015625, 0, 0, 2.672393798828125, -1.85,19.55) ">
<use xlink:href="#BDM_728x90_psd_Asset_2_ManagedWiFi_Awareness_DM6_2_Improve_customer_satisfaction_and__increase_consumer_engagement_0_Layer0_0_MEMBER_26_FILL"/>
</g>

<g transform="matrix( 2.6895904541015625, 0, 0, 2.672393798828125, -1.85,19.55) ">
<use xlink:href="#BDM_728x90_psd_Asset_2_ManagedWiFi_Awareness_DM6_2_Improve_customer_satisfaction_and__increase_consumer_engagement_0_Layer0_0_MEMBER_27_FILL"/>
</g>

<g transform="matrix( 2.6895904541015625, 0, 0, 2.672393798828125, -1.85,19.55) ">
<use xlink:href="#BDM_728x90_psd_Asset_2_ManagedWiFi_Awareness_DM6_2_Improve_customer_satisfaction_and__increase_consumer_engagement_0_Layer0_0_MEMBER_28_FILL"/>
</g>

<g transform="matrix( 2.6895904541015625, 0, 0, 2.672393798828125, -1.85,19.55) ">
<use xlink:href="#BDM_728x90_psd_Asset_2_ManagedWiFi_Awareness_DM6_2_Improve_customer_satisfaction_and__increase_consumer_engagement_0_Layer0_0_MEMBER_29_FILL"/>
</g>

<g transform="matrix( 2.6895904541015625, 0, 0, 2.672393798828125, -1.85,19.55) ">
<use xlink:href="#BDM_728x90_psd_Asset_2_ManagedWiFi_Awareness_DM6_2_Improve_customer_satisfaction_and__increase_consumer_engagement_0_Layer0_0_MEMBER_30_FILL"/>
</g>

<g transform="matrix( 2.6895904541015625, 0, 0, 2.672393798828125, -1.85,19.55) ">
<use xlink:href="#BDM_728x90_psd_Asset_2_ManagedWiFi_Awareness_DM6_2_Improve_customer_satisfaction_and__increase_consumer_engagement_0_Layer0_0_MEMBER_31_FILL"/>
</g>

<g transform="matrix( 2.6895904541015625, 0, 0, 2.672393798828125, -1.85,19.55) ">
<use xlink:href="#BDM_728x90_psd_Asset_2_ManagedWiFi_Awareness_DM6_2_Improve_customer_satisfaction_and__increase_consumer_engagement_0_Layer0_0_MEMBER_32_FILL"/>
</g>

<g transform="matrix( 2.6895904541015625, 0, 0, 2.672393798828125, -1.85,19.55) ">
<use xlink:href="#BDM_728x90_psd_Asset_2_ManagedWiFi_Awareness_DM6_2_Improve_customer_satisfaction_and__increase_consumer_engagement_0_Layer0_0_MEMBER_33_FILL"/>
</g>

<g transform="matrix( 2.6895904541015625, 0, 0, 2.672393798828125, -1.85,19.55) ">
<use xlink:href="#BDM_728x90_psd_Asset_2_ManagedWiFi_Awareness_DM6_2_Improve_customer_satisfaction_and__increase_consumer_engagement_0_Layer0_0_MEMBER_34_FILL"/>
</g>

<g transform="matrix( 2.6895904541015625, 0, 0, 2.672393798828125, -1.85,19.55) ">
<use xlink:href="#BDM_728x90_psd_Asset_2_ManagedWiFi_Awareness_DM6_2_Improve_customer_satisfaction_and__increase_consumer_engagement_0_Layer0_0_MEMBER_35_FILL"/>
</g>

<g transform="matrix( 2.6895904541015625, 0, 0, 2.672393798828125, -1.85,19.55) ">
<use xlink:href="#BDM_728x90_psd_Asset_2_ManagedWiFi_Awareness_DM6_2_Improve_customer_satisfaction_and__increase_consumer_engagement_0_Layer0_0_MEMBER_36_FILL"/>
</g>

<g transform="matrix( 2.6895904541015625, 0, 0, 2.672393798828125, -1.85,19.55) ">
<use xlink:href="#BDM_728x90_psd_Asset_2_ManagedWiFi_Awareness_DM6_2_Improve_customer_satisfaction_and__increase_consumer_engagement_0_Layer0_0_MEMBER_37_FILL"/>
</g>

<g transform="matrix( 2.6895904541015625, 0, 0, 2.672393798828125, -1.85,19.55) ">
<use xlink:href="#BDM_728x90_psd_Asset_2_ManagedWiFi_Awareness_DM6_2_Improve_customer_satisfaction_and__increase_consumer_engagement_0_Layer0_0_MEMBER_38_FILL"/>
</g>

<g transform="matrix( 2.6895904541015625, 0, 0, 2.672393798828125, -1.85,19.55) ">
<use xlink:href="#BDM_728x90_psd_Asset_2_ManagedWiFi_Awareness_DM6_2_Improve_customer_satisfaction_and__increase_consumer_engagement_0_Layer0_0_MEMBER_39_FILL"/>
</g>

<g transform="matrix( 2.6895904541015625, 0, 0, 2.672393798828125, -1.85,19.55) ">
<use xlink:href="#BDM_728x90_psd_Asset_2_ManagedWiFi_Awareness_DM6_2_Improve_customer_satisfaction_and__increase_consumer_engagement_0_Layer0_0_MEMBER_40_FILL"/>
</g>

<g transform="matrix( 2.6895904541015625, 0, 0, 2.672393798828125, -1.85,19.55) ">
<use xlink:href="#BDM_728x90_psd_Asset_2_ManagedWiFi_Awareness_DM6_2_Improve_customer_satisfaction_and__increase_consumer_engagement_0_Layer0_0_MEMBER_41_FILL"/>
</g>

<g transform="matrix( 2.6895904541015625, 0, 0, 2.672393798828125, -1.85,19.55) ">
<use xlink:href="#BDM_728x90_psd_Asset_2_ManagedWiFi_Awareness_DM6_2_Improve_customer_satisfaction_and__increase_consumer_engagement_0_Layer0_0_MEMBER_42_FILL"/>
</g>

<g transform="matrix( 2.6895904541015625, 0, 0, 2.672393798828125, -1.85,19.55) ">
<use xlink:href="#BDM_728x90_psd_Asset_2_ManagedWiFi_Awareness_DM6_2_Improve_customer_satisfaction_and__increase_consumer_engagement_0_Layer0_0_MEMBER_43_FILL"/>
</g>

<g transform="matrix( 2.6895904541015625, 0, 0, 2.672393798828125, -1.85,19.55) ">
<use xlink:href="#BDM_728x90_psd_Asset_2_ManagedWiFi_Awareness_DM6_2_Improve_customer_satisfaction_and__increase_consumer_engagement_0_Layer0_0_MEMBER_44_FILL"/>
</g>

<g transform="matrix( 2.6895904541015625, 0, 0, 2.672393798828125, -1.85,19.55) ">
<use xlink:href="#BDM_728x90_psd_Asset_2_ManagedWiFi_Awareness_DM6_2_Improve_customer_satisfaction_and__increase_consumer_engagement_0_Layer0_0_MEMBER_45_FILL"/>
</g>

<g transform="matrix( 2.6895904541015625, 0, 0, 2.672393798828125, -1.85,19.55) ">
<use xlink:href="#BDM_728x90_psd_Asset_2_ManagedWiFi_Awareness_DM6_2_Improve_customer_satisfaction_and__increase_consumer_engagement_0_Layer0_0_MEMBER_46_FILL"/>
</g>

<g transform="matrix( 2.6895904541015625, 0, 0, 2.672393798828125, -1.85,19.55) ">
<use xlink:href="#BDM_728x90_psd_Asset_2_ManagedWiFi_Awareness_DM6_2_Improve_customer_satisfaction_and__increase_consumer_engagement_0_Layer0_0_MEMBER_47_FILL"/>
</g>

<g transform="matrix( 2.6895904541015625, 0, 0, 2.672393798828125, -1.85,19.55) ">
<use xlink:href="#BDM_728x90_psd_Asset_2_ManagedWiFi_Awareness_DM6_2_Improve_customer_satisfaction_and__increase_consumer_engagement_0_Layer0_0_MEMBER_48_FILL"/>
</g>

<g transform="matrix( 2.6895904541015625, 0, 0, 2.672393798828125, -1.85,19.55) ">
<use xlink:href="#BDM_728x90_psd_Asset_2_ManagedWiFi_Awareness_DM6_2_Improve_customer_satisfaction_and__increase_consumer_engagement_0_Layer0_0_MEMBER_49_FILL"/>
</g>

<g transform="matrix( 2.6895904541015625, 0, 0, 2.672393798828125, -1.85,19.55) ">
<use xlink:href="#BDM_728x90_psd_Asset_2_ManagedWiFi_Awareness_DM6_2_Improve_customer_satisfaction_and__increase_consumer_engagement_0_Layer0_0_MEMBER_50_FILL"/>
</g>

<g transform="matrix( 2.6895904541015625, 0, 0, 2.672393798828125, -1.85,19.55) ">
<use xlink:href="#BDM_728x90_psd_Asset_2_ManagedWiFi_Awareness_DM6_2_Improve_customer_satisfaction_and__increase_consumer_engagement_0_Layer0_0_MEMBER_51_FILL"/>
</g>

<g transform="matrix( 2.6895904541015625, 0, 0, 2.672393798828125, -1.85,19.55) ">
<use xlink:href="#BDM_728x90_psd_Asset_2_ManagedWiFi_Awareness_DM6_2_Improve_customer_satisfaction_and__increase_consumer_engagement_0_Layer0_0_MEMBER_52_FILL"/>
</g>

<g transform="matrix( 2.6895904541015625, 0, 0, 2.672393798828125, -1.85,19.55) ">
<use xlink:href="#BDM_728x90_psd_Asset_2_ManagedWiFi_Awareness_DM6_2_Improve_customer_satisfaction_and__increase_consumer_engagement_0_Layer0_0_MEMBER_53_FILL"/>
</g>

<g transform="matrix( 2.6895904541015625, 0, 0, 2.672393798828125, -1.85,19.55) ">
<use xlink:href="#BDM_728x90_psd_Asset_2_ManagedWiFi_Awareness_DM6_2_Improve_customer_satisfaction_and__increase_consumer_engagement_0_Layer0_0_MEMBER_54_FILL"/>
</g>

<g transform="matrix( 2.6895904541015625, 0, 0, 2.672393798828125, -1.85,19.55) ">
<use xlink:href="#BDM_728x90_psd_Asset_2_ManagedWiFi_Awareness_DM6_2_Improve_customer_satisfaction_and__increase_consumer_engagement_0_Layer0_0_MEMBER_55_FILL"/>
</g>

<g transform="matrix( 2.6895904541015625, 0, 0, 2.672393798828125, -1.85,19.55) ">
<use xlink:href="#BDM_728x90_psd_Asset_2_ManagedWiFi_Awareness_DM6_2_Improve_customer_satisfaction_and__increase_consumer_engagement_0_Layer0_0_MEMBER_56_FILL"/>
</g>
</g>
</g>
</g>
</svg>
