
<svg xmlns="http://www.w3.org/2000/svg" version="1.1" xmlns:xlink="http://www.w3.org/1999/xlink" preserveAspectRatio="none" x="0px" y="0px" width="300px" height="600px" viewBox="0 0 300 600">
<defs>
<g id="IT_300x600_psd_Asset_6_ManagedWiFi_IT_Awareness_DM7_3_fully_managed_Wi_Fi__solution_offered___as_a_Service___in_Canad_0_Layer0_0_MEMBER_0_FILL">
<path fill="#D82C26" stroke="none" d="
M 3.65 -8.05
L 2.75 -8.15
Q 2.05 -8.15 1.65 -7.7 1.2 -7.25 1.2 -6.4
L 1.2 -4.95 0.3 -4.95 0.2 -4.45 1.25 -4.45 1.25 0 1.85 0 1.85 -4.45 3 -4.45 3.15 -4.95 1.85 -4.95 1.85 -6.4
Q 1.85 -6.95 2.05 -7.3 2.3 -7.65 2.8 -7.65 3.15 -7.65 3.6 -7.5
L 3.65 -8.05 Z"/>
</g>

<g id="IT_300x600_psd_Asset_6_ManagedWiFi_IT_Awareness_DM7_3_fully_managed_Wi_Fi__solution_offered___as_a_Service___in_Canad_0_Layer0_0_MEMBER_1_FILL">
<path fill="#D82C26" stroke="none" d="
M 3.85 -1.95
Q 3.85 -1.05 4.3 -0.45 4.75 0.15 5.7 0.15 6.35 0.15 6.75 -0.2 7.25 -0.5 7.5 -1.05
L 7.6 0 8.2 0 8.1 -1.15 8.1 -4.95 7.5 -4.95 7.5 -2.5
Q 7.5 -1.85 7.25 -1.35 7.1 -0.95 6.7 -0.6 6.3 -0.35 5.85 -0.35 5.15 -0.35 4.8 -0.85 4.5 -1.35 4.5 -2.1
L 4.5 -4.95 3.85 -4.95 3.85 -1.95 Z"/>
</g>

<g id="IT_300x600_psd_Asset_6_ManagedWiFi_IT_Awareness_DM7_3_fully_managed_Wi_Fi__solution_offered___as_a_Service___in_Canad_0_Layer0_0_MEMBER_2_FILL">
<path fill="#D82C26" stroke="none" d="
M 9.6 -1.1
Q 9.6 -0.7 9.8 -0.3 10.05 0.05 10.4 0.1
L 10.7 -0.4
Q 10.45 -0.55 10.35 -0.7 10.25 -0.8 10.25 -1.25
L 10.25 -8.05 9.6 -7.95 9.6 -1.1 Z"/>
</g>

<g id="IT_300x600_psd_Asset_6_ManagedWiFi_IT_Awareness_DM7_3_fully_managed_Wi_Fi__solution_offered___as_a_Service___in_Canad_0_Layer0_0_MEMBER_3_FILL">
<path fill="#D82C26" stroke="none" d="
M 11.75 -1.1
Q 11.75 -0.55 11.95 -0.3 12.2 0.05 12.55 0.1
L 12.85 -0.4 12.45 -0.7 12.35 -1.25 12.35 -8.05 11.75 -7.95 11.75 -1.1 Z"/>
</g>

<g id="IT_300x600_psd_Asset_6_ManagedWiFi_IT_Awareness_DM7_3_fully_managed_Wi_Fi__solution_offered___as_a_Service___in_Canad_0_Layer0_0_MEMBER_4_FILL">
<path fill="#D82C26" stroke="none" d="
M 13.9 -4.95
L 13.2 -4.95 15.3 0.05 14.9 1.1
Q 14.75 1.6 14.4 1.75 14.05 2 13.5 2
L 13.7 2.55
Q 14.3 2.55 14.8 2.2 15.25 1.9 15.45 1.25
L 17.8 -4.95 17.1 -4.95 15.6 -0.65 13.9 -4.95 Z"/>
</g>

<g id="IT_300x600_psd_Asset_6_ManagedWiFi_IT_Awareness_DM7_3_fully_managed_Wi_Fi__solution_offered___as_a_Service___in_Canad_0_Layer0_0_MEMBER_5_FILL">
<path fill="#D82C26" stroke="none" d="
M 22.95 -4.6
Q 23.55 -4.6 23.9 -4.15 24.2 -3.7 24.2 -2.95
L 24.2 0 24.8 0 24.8 -2.55
Q 24.8 -3.45 25.25 -4 25.7 -4.6 26.4 -4.6 27.05 -4.6 27.4 -4.1 27.7 -3.55 27.7 -2.85
L 27.7 0 28.3 0 28.3 -3
Q 28.3 -3.9 27.85 -4.5 27.5 -5.1 26.5 -5.1 25.9 -5.1 25.4 -4.75 24.9 -4.45 24.7 -3.85 24.55 -4.45 24.1 -4.75 23.75 -5.1 23.1 -5.1 22.5 -5.1 22.05 -4.8 21.55 -4.35 21.4 -3.9
L 21.35 -3.9 21.3 -4.95 20.7 -4.95 20.75 0 21.4 0 21.4 -2.45
Q 21.4 -3.2 21.6 -3.6 21.8 -4.05 22.15 -4.35 22.55 -4.6 22.95 -4.6 Z"/>
</g>

<g id="IT_300x600_psd_Asset_6_ManagedWiFi_IT_Awareness_DM7_3_fully_managed_Wi_Fi__solution_offered___as_a_Service___in_Canad_0_Layer0_0_MEMBER_6_FILL">
<path fill="#D82C26" stroke="none" d="
M 29.4 -1.35
Q 29.4 -0.6 29.85 -0.25 30.35 0.15 30.95 0.15 31.6 0.15 32.1 -0.15 32.6 -0.5 32.8 -0.95
L 32.85 -0.95 32.9 0 33.5 0 33.4 -3.2
Q 33.4 -4.15 32.9 -4.65 32.4 -5.1 31.5 -5.1 30.95 -5.1 30.5 -4.95 30.05 -4.8 29.65 -4.5
L 29.85 -4 30.55 -4.45 31.4 -4.6
Q 32.1 -4.6 32.45 -4.25 32.8 -3.95 32.8 -3.25
L 32.8 -3 32.2 -3
Q 29.4 -3 29.4 -1.35
M 30.3 -0.6
Q 29.95 -0.85 29.95 -1.35 29.95 -2.55 32.3 -2.55
L 32.8 -2.55 32.8 -2.05
Q 32.8 -1.6 32.65 -1.25 32.4 -0.8 32.05 -0.6 31.75 -0.35 31.1 -0.35 30.55 -0.35 30.3 -0.6 Z"/>
</g>

<g id="IT_300x600_psd_Asset_6_ManagedWiFi_IT_Awareness_DM7_3_fully_managed_Wi_Fi__solution_offered___as_a_Service___in_Canad_0_Layer0_0_MEMBER_7_FILL">
<path fill="#D82C26" stroke="none" d="
M 35.4 -4.95
L 34.8 -4.95 34.85 0 35.45 0 35.45 -2.55
Q 35.45 -3.05 35.7 -3.65 35.95 -4.15 36.3 -4.35 36.7 -4.6 37.1 -4.6 37.8 -4.6 38.15 -4.1 38.45 -3.55 38.45 -2.85
L 38.45 0 39.1 0 39.1 -3.05
Q 39.1 -3.9 38.65 -4.5 38.2 -5.1 37.25 -5.1 36.65 -5.1 36.15 -4.75 35.7 -4.45 35.45 -3.9
L 35.4 -4.95 Z"/>
</g>

<g id="IT_300x600_psd_Asset_6_ManagedWiFi_IT_Awareness_DM7_3_fully_managed_Wi_Fi__solution_offered___as_a_Service___in_Canad_0_Layer0_0_MEMBER_8_FILL">
<path fill="#D82C26" stroke="none" d="
M 43.25 -4.25
Q 43.6 -3.95 43.6 -3.25
L 43.6 -3 43 -3
Q 40.15 -3 40.15 -1.35 40.15 -0.6 40.65 -0.25 41.15 0.15 41.75 0.15 42.35 0.15 42.85 -0.15 43.4 -0.45 43.6 -0.95
L 43.65 -0.95 43.7 0 44.3 0
Q 44.2 -0.25 44.2 -1.1
L 44.2 -3.2
Q 44.2 -4.05 43.7 -4.65 43.2 -5.1 42.3 -5.1 41.75 -5.1 41.3 -4.95 40.85 -4.8 40.45 -4.5
L 40.6 -4 41.35 -4.45
Q 41.8 -4.6 42.2 -4.6 42.9 -4.6 43.25 -4.25
M 42.85 -0.6
Q 42.5 -0.35 41.85 -0.35 41.35 -0.35 41.1 -0.6 40.75 -0.8 40.75 -1.35 40.75 -2.55 43.1 -2.55
L 43.6 -2.55 43.6 -2.05
Q 43.6 -1.6 43.4 -1.25 43.25 -0.85 42.85 -0.6 Z"/>
</g>

<g id="IT_300x600_psd_Asset_6_ManagedWiFi_IT_Awareness_DM7_3_fully_managed_Wi_Fi__solution_offered___as_a_Service___in_Canad_0_Layer0_0_MEMBER_9_FILL">
<path fill="#D82C26" stroke="none" d="
M 49.8 -3.85
Q 49.55 -4.4 48.95 -4.8 48.45 -5.1 47.8 -5.1 47 -5.1 46.5 -4.75 45.9 -4.35 45.6 -3.8 45.3 -3.2 45.3 -2.5 45.3 -1.75 45.6 -1.15 45.95 -0.5 46.5 -0.25 47 0.1 47.8 0.1 48.45 0.1 48.95 -0.25 49.45 -0.5 49.8 -1.1
L 49.8 -0.05
Q 49.8 0.95 49.3 1.5 48.85 2.1 47.75 2.1 47.4 2.1 46.7 1.9 46.45 1.85 45.7 1.45
L 45.6 2
Q 46.05 2.3 46.6 2.45 47.2 2.6 47.8 2.6 49.15 2.6 49.8 1.85 50.45 1.1 50.45 -0.05
L 50.45 -4.95 49.9 -4.95 49.8 -3.85
M 48.85 -4.3
Q 49.3 -4 49.6 -3.55 49.85 -2.95 49.85 -2.5 49.85 -1.95 49.6 -1.45 49.3 -1 48.85 -0.7 48.4 -0.4 47.85 -0.4 47.3 -0.4 46.85 -0.7 46.35 -1 46.15 -1.45 45.9 -1.95 45.9 -2.5 45.9 -2.95 46.15 -3.55 46.35 -3.95 46.85 -4.3 47.3 -4.6 47.85 -4.6 48.4 -4.6 48.85 -4.3 Z"/>
</g>

<g id="IT_300x600_psd_Asset_6_ManagedWiFi_IT_Awareness_DM7_3_fully_managed_Wi_Fi__solution_offered___as_a_Service___in_Canad_0_Layer0_0_MEMBER_10_FILL">
<path fill="#D82C26" stroke="none" d="
M 55.3 -4.8
Q 54.8 -5.1 54.05 -5.1 53.35 -5.1 52.8 -4.8 52.2 -4.4 51.9 -3.85 51.55 -3.15 51.55 -2.5 51.55 -1.85 51.9 -1.15 52.25 -0.5 52.8 -0.2 53.35 0.15 54.1 0.15 55.3 0.15 56.1 -0.5
L 56 -1
Q 55.6 -0.7 55.2 -0.55 54.75 -0.35 54.15 -0.35 53.6 -0.35 53.15 -0.65 52.7 -0.9 52.45 -1.35 52.25 -1.75 52.15 -2.4
L 56.4 -2.4 56.4 -2.65
Q 56.4 -3.3 56.1 -3.9 55.9 -4.35 55.3 -4.8
M 54.05 -4.65
Q 54.8 -4.65 55.3 -4.15 55.8 -3.55 55.8 -2.85
L 52.2 -2.85
Q 52.2 -3.15 52.4 -3.65 52.55 -3.95 53.05 -4.35 53.5 -4.65 54.05 -4.65 Z"/>
</g>

<g id="IT_300x600_psd_Asset_6_ManagedWiFi_IT_Awareness_DM7_3_fully_managed_Wi_Fi__solution_offered___as_a_Service___in_Canad_0_Layer0_0_MEMBER_11_FILL">
<path fill="#D82C26" stroke="none" d="
M 59.7 -5.1
Q 58.95 -5.1 58.4 -4.75 57.9 -4.45 57.55 -3.8 57.2 -3.1 57.2 -2.5 57.2 -1.85 57.55 -1.15 57.8 -0.6 58.4 -0.2 59.1 0.15 59.7 0.15 60.4 0.15 60.9 -0.2 61.45 -0.5 61.75 -1.1
L 61.8 0 62.4 0 62.35 -8.15 61.75 -8 61.75 -3.9
Q 61.45 -4.5 60.9 -4.8 60.4 -5.1 59.7 -5.1
M 58.75 -4.3
Q 59.2 -4.6 59.8 -4.6 60.35 -4.6 60.8 -4.3 61.3 -3.95 61.5 -3.55 61.75 -3.1 61.75 -2.5 61.75 -1.8 61.5 -1.45 61.3 -1 60.8 -0.65 60.3 -0.4 59.8 -0.4 59.15 -0.4 58.75 -0.65 58.35 -0.9 58.1 -1.4 57.85 -2 57.85 -2.5 57.85 -2.95 58.1 -3.55 58.35 -4 58.75 -4.3 Z"/>
</g>

<g id="IT_300x600_psd_Asset_6_ManagedWiFi_IT_Awareness_DM7_3_fully_managed_Wi_Fi__solution_offered___as_a_Service___in_Canad_0_Layer0_0_MEMBER_12_FILL">
<path fill="#D82C26" stroke="none" d="
M 66.05 -7.5
L 65.35 -7.5 67.55 0 68.3 0 70.25 -6.7 70.3 -6.7 72.25 0 73 0 75.25 -7.5 74.55 -7.5 72.65 -0.85 72.6 -0.85 70.65 -7.5 69.9 -7.5 68 -0.85 67.95 -0.85 66.05 -7.5 Z"/>
</g>

<g id="IT_300x600_psd_Asset_6_ManagedWiFi_IT_Awareness_DM7_3_fully_managed_Wi_Fi__solution_offered___as_a_Service___in_Canad_0_Layer0_0_MEMBER_13_FILL">
<path fill="#D82C26" stroke="none" d="
M 76.75 -4.95
L 76.15 -4.95 76.15 0 76.75 0 76.75 -4.95
M 76.45 -6.5
L 76.75 -6.6
Q 76.9 -6.75 76.9 -6.95 76.9 -7.15 76.75 -7.25
L 76.45 -7.4
Q 76.25 -7.4 76.15 -7.25
L 76 -6.95
Q 76 -6.75 76.15 -6.6 76.25 -6.5 76.45 -6.5 Z"/>
</g>

<g id="IT_300x600_psd_Asset_6_ManagedWiFi_IT_Awareness_DM7_3_fully_managed_Wi_Fi__solution_offered___as_a_Service___in_Canad_0_Layer0_0_MEMBER_14_FILL">
<path fill="#D82C26" stroke="none" d="
M 78 -2.95
L 78 -2.4 80.15 -2.4 80.15 -2.95 78 -2.95 Z"/>
</g>

<g id="IT_300x600_psd_Asset_6_ManagedWiFi_IT_Awareness_DM7_3_fully_managed_Wi_Fi__solution_offered___as_a_Service___in_Canad_0_Layer0_0_MEMBER_15_FILL">
<path fill="#D82C26" stroke="none" d="
M 85.4 -7.5
L 81.55 -7.5 81.55 0 82.2 0 82.2 -3.55 85.1 -3.55 85.2 -4.1 82.2 -4.1 82.2 -6.95 85.35 -6.95 85.4 -7.5 Z"/>
</g>

<g id="IT_300x600_psd_Asset_6_ManagedWiFi_IT_Awareness_DM7_3_fully_managed_Wi_Fi__solution_offered___as_a_Service___in_Canad_0_Layer0_0_MEMBER_16_FILL">
<path fill="#D82C26" stroke="none" d="
M 87.1 -4.95
L 86.5 -4.95 86.5 0 87.1 0 87.1 -4.95
M 86.8 -6.5
L 87.1 -6.6
Q 87.25 -6.75 87.25 -6.95 87.25 -7.15 87.1 -7.25
L 86.8 -7.4
Q 86.6 -7.4 86.5 -7.25
L 86.35 -6.95
Q 86.35 -6.75 86.5 -6.6 86.6 -6.5 86.8 -6.5 Z"/>
</g>

<g id="IT_300x600_psd_Asset_6_ManagedWiFi_IT_Awareness_DM7_3_fully_managed_Wi_Fi__solution_offered___as_a_Service___in_Canad_0_Layer0_0_MEMBER_17_FILL">
<path fill="#D82C26" stroke="none" d="
M 3.9 8.85
Q 3.5 8.55 3.2 8.45 2.75 8.3 2.3 8.3
L 1.55 8.45
Q 1.1 8.65 0.9 8.9 0.7 9.25 0.7 9.65 0.7 10.25 1.05 10.55 1.3 10.8 2.1 11.05 2.85 11.3 3.15 11.55 3.45 11.8 3.45 12.15 3.45 12.6 3.1 12.8 2.85 13.05 2.35 13.05 1.4 13.05 0.7 12.45
L 0.6 13
Q 0.95 13.25 1.35 13.4 1.8 13.55 2.35 13.55 2.75 13.55 3.2 13.4 3.5 13.25 3.8 12.9 4.05 12.55 4.05 12.1 4.05 11.6 3.7 11.25 3.35 10.9 2.5 10.65 1.85 10.45 1.55 10.2 1.25 10 1.25 9.65 1.25 9.25 1.55 9 1.8 8.8 2.35 8.8
L 3.05 8.95 3.65 9.3 3.9 8.85 Z"/>
</g>

<g id="IT_300x600_psd_Asset_6_ManagedWiFi_IT_Awareness_DM7_3_fully_managed_Wi_Fi__solution_offered___as_a_Service___in_Canad_0_Layer0_0_MEMBER_18_FILL">
<path fill="#D82C26" stroke="none" d="
M 7.45 8.3
Q 6.65 8.3 6.1 8.65 5.45 9 5.15 9.55 4.8 10.1 4.8 10.95 4.8 11.75 5.15 12.3 5.45 12.85 6.1 13.2 6.65 13.55 7.45 13.55 8.25 13.55 8.8 13.2 9.35 12.9 9.75 12.3 10.1 11.6 10.1 10.95 10.1 10.25 9.75 9.55 9.35 8.95 8.8 8.65 8.25 8.3 7.45 8.3
M 6.35 9.1
Q 6.8 8.85 7.45 8.85 8.15 8.85 8.5 9.1 9 9.45 9.2 9.85 9.45 10.45 9.45 10.95 9.45 11.55 9.2 12 9 12.45 8.5 12.75 8.05 13.05 7.45 13.05 6.9 13.05 6.35 12.75 6 12.5 5.65 12 5.4 11.4 5.4 10.95 5.4 10.45 5.65 9.85 6 9.35 6.35 9.1 Z"/>
</g>

<g id="IT_300x600_psd_Asset_6_ManagedWiFi_IT_Awareness_DM7_3_fully_managed_Wi_Fi__solution_offered___as_a_Service___in_Canad_0_Layer0_0_MEMBER_19_FILL">
<path fill="#D82C26" stroke="none" d="
M 11.45 13.1
Q 11.7 13.4 12.05 13.55
L 12.3 13
Q 12 12.9 11.95 12.7
L 11.85 12.2 11.85 5.35 11.25 5.45 11.25 12.3
Q 11.25 12.85 11.45 13.1 Z"/>
</g>

<g id="IT_300x600_psd_Asset_6_ManagedWiFi_IT_Awareness_DM7_3_fully_managed_Wi_Fi__solution_offered___as_a_Service___in_Canad_0_Layer0_0_MEMBER_20_FILL">
<path fill="#D82C26" stroke="none" d="
M 13.3 8.45
L 13.3 11.5
Q 13.3 12.35 13.75 12.95 14.2 13.55 15.1 13.55 15.8 13.55 16.2 13.2 16.7 12.9 16.95 12.35 16.95 13.05 17.05 13.45
L 17.65 13.4 17.55 12.85 17.55 8.45 16.95 8.45 16.95 10.95
Q 16.95 11.55 16.7 12.05 16.5 12.6 16.1 12.8 15.7 13.05 15.3 13.05 14.55 13.05 14.25 12.55 13.95 12.05 13.95 11.3
L 13.95 8.45 13.3 8.45 Z"/>
</g>

<g id="IT_300x600_psd_Asset_6_ManagedWiFi_IT_Awareness_DM7_3_fully_managed_Wi_Fi__solution_offered___as_a_Service___in_Canad_0_Layer0_0_MEMBER_21_FILL">
<path fill="#D82C26" stroke="none" d="
M 20.45 13.5
L 21 13.45 21.5 13.25 21.4 12.8
Q 21.05 13 20.65 13 20.3 13 20.1 12.8 19.9 12.6 19.9 12.15
L 19.9 8.95 21.2 8.95 21.3 8.45 19.9 8.45 19.9 7.05 19.3 7.25 19.3 8.45 18.5 8.45 18.35 8.95 19.3 8.95 19.3 12.2
Q 19.3 12.85 19.6 13.2 19.9 13.5 20.45 13.5 Z"/>
</g>

<g id="IT_300x600_psd_Asset_6_ManagedWiFi_IT_Awareness_DM7_3_fully_managed_Wi_Fi__solution_offered___as_a_Service___in_Canad_0_Layer0_0_MEMBER_22_FILL">
<path fill="#D82C26" stroke="none" d="
M 22.95 8.45
L 22.3 8.45 22.3 13.4 22.95 13.4 22.95 8.45
M 22.9 6.15
Q 22.85 6 22.6 6
L 22.3 6.15 22.15 6.45
Q 22.15 6.65 22.3 6.8 22.4 6.9 22.6 6.9 22.85 6.9 22.9 6.8 23.05 6.65 23.05 6.45
L 22.9 6.15 Z"/>
</g>

<g id="IT_300x600_psd_Asset_6_ManagedWiFi_IT_Awareness_DM7_3_fully_managed_Wi_Fi__solution_offered___as_a_Service___in_Canad_0_Layer0_0_MEMBER_23_FILL">
<path fill="#D82C26" stroke="none" d="
M 24.4 9.55
Q 24.05 10.25 24.05 10.95 24.05 11.6 24.4 12.3 24.8 12.9 25.35 13.2 25.9 13.55 26.7 13.55 27.5 13.55 28.05 13.2 28.6 12.9 29 12.3 29.35 11.75 29.35 10.95 29.35 10.1 29 9.55 28.6 8.95 28.05 8.65 27.5 8.3 26.7 8.3 25.9 8.3 25.35 8.65 24.8 8.95 24.4 9.55
M 24.7 10.95
Q 24.7 10.3 24.95 9.85 25.15 9.45 25.65 9.1 26.05 8.85 26.7 8.85 27.4 8.85 27.75 9.1 28.25 9.45 28.45 9.85 28.7 10.3 28.7 10.95 28.7 11.55 28.5 12 28.15 12.5 27.75 12.75 27.3 13.05 26.7 13.05 26.1 13.05 25.65 12.75 25.15 12.45 24.95 12 24.7 11.55 24.7 10.95 Z"/>
</g>

<g id="IT_300x600_psd_Asset_6_ManagedWiFi_IT_Awareness_DM7_3_fully_managed_Wi_Fi__solution_offered___as_a_Service___in_Canad_0_Layer0_0_MEMBER_24_FILL">
<path fill="#D82C26" stroke="none" d="
M 31.05 8.45
L 30.45 8.45 30.5 13.4 31.15 13.4 31.15 10.9
Q 31.15 10.2 31.35 9.8 31.55 9.4 31.95 9.05 32.3 8.85 32.8 8.85 33.5 8.85 33.8 9.3 34.15 9.9 34.15 10.55
L 34.15 13.4 34.75 13.4 34.75 10.4
Q 34.75 9.5 34.3 8.9 33.85 8.3 32.9 8.3 32.3 8.3 31.8 8.65 31.3 8.95 31.1 9.55
L 31.05 8.45 Z"/>
</g>

<g id="IT_300x600_psd_Asset_6_ManagedWiFi_IT_Awareness_DM7_3_fully_managed_Wi_Fi__solution_offered___as_a_Service___in_Canad_0_Layer0_0_MEMBER_25_FILL">
<path fill="#D82C26" stroke="none" d="
M 42.05 8.65
Q 41.5 8.3 40.7 8.3 39.9 8.3 39.35 8.65 38.8 8.95 38.4 9.55 38.05 10.25 38.05 10.95 38.05 11.6 38.4 12.3 38.8 12.9 39.35 13.2 39.9 13.55 40.7 13.55 41.5 13.55 42.05 13.2 42.7 12.85 43 12.3 43.35 11.75 43.35 10.95 43.35 10.1 43 9.55 42.7 9 42.05 8.65
M 42.75 10.95
Q 42.75 11.4 42.5 12 42.15 12.5 41.8 12.75 41.3 13.05 40.7 13.05 40.1 13.05 39.65 12.75 39.15 12.45 38.95 12 38.7 11.55 38.7 10.95 38.7 10.3 38.95 9.85 39.15 9.45 39.65 9.1 40.05 8.85 40.7 8.85 41.4 8.85 41.75 9.1 42.2 9.4 42.5 9.85 42.75 10.45 42.75 10.95 Z"/>
</g>

<g id="IT_300x600_psd_Asset_6_ManagedWiFi_IT_Awareness_DM7_3_fully_managed_Wi_Fi__solution_offered___as_a_Service___in_Canad_0_Layer0_0_MEMBER_26_FILL">
<path fill="#D82C26" stroke="none" d="
M 46.3 5.8
L 47.1 5.9 47.15 5.4
Q 46.95 5.3 46.75 5.3
L 46.25 5.25
Q 45.55 5.25 45.15 5.7 44.75 6.1 44.75 7
L 44.75 8.45 43.85 8.45 43.7 8.95 44.75 8.95 44.75 13.4 45.35 13.4 45.35 8.95 47.9 8.95 47.9 13.4 48.55 13.4 48.55 8.95 49.7 8.95 49.85 8.45 48.55 8.45 48.55 7.05
Q 48.55 6.4 48.75 6.15 48.95 5.8 49.5 5.8
L 50.3 5.9 50.35 5.4 49.95 5.3 49.45 5.25
Q 48.75 5.25 48.35 5.7 47.9 6.15 47.9 7
L 47.9 8.45 45.35 8.45 45.35 7.05
Q 45.35 6.4 45.55 6.15 45.75 5.8 46.3 5.8 Z"/>
</g>

<g id="IT_300x600_psd_Asset_6_ManagedWiFi_IT_Awareness_DM7_3_fully_managed_Wi_Fi__solution_offered___as_a_Service___in_Canad_0_Layer0_0_MEMBER_27_FILL">
<path fill="#D82C26" stroke="none" d="
M 52.5 8.3
Q 51.8 8.3 51.25 8.65 50.7 8.95 50.4 9.55 50.05 10.1 50.05 10.9 50.05 11.75 50.4 12.3 50.7 12.9 51.3 13.2 51.8 13.55 52.6 13.55 53.8 13.55 54.6 12.95
L 54.45 12.4
Q 54.15 12.7 53.65 12.85 53.25 13.05 52.65 13.05 52.15 13.05 51.65 12.8 51.2 12.5 50.9 12.05 50.65 11.55 50.65 11
L 54.85 11 54.85 10.75
Q 54.85 10 54.6 9.5 54.25 8.9 53.8 8.65 53.3 8.3 52.5 8.3
M 51.55 9.05
Q 51.95 8.8 52.5 8.8 53.3 8.8 53.8 9.25 54.2 9.75 54.3 10.55
L 50.65 10.55
Q 50.75 10.05 50.9 9.75 51.15 9.3 51.55 9.05 Z"/>
</g>

<g id="IT_300x600_psd_Asset_6_ManagedWiFi_IT_Awareness_DM7_3_fully_managed_Wi_Fi__solution_offered___as_a_Service___in_Canad_0_Layer0_0_MEMBER_28_FILL">
<path fill="#D82C26" stroke="none" d="
M 58.5 8.95
L 58.6 8.4 58.05 8.3
Q 57.6 8.3 57.2 8.65 56.85 8.95 56.6 9.55
L 56.55 8.45 55.95 8.45 56 13.4 56.65 13.4 56.65 10.95
Q 56.65 10.1 57 9.45 57.4 8.85 58.05 8.85
L 58.5 8.95 Z"/>
</g>

<g id="IT_300x600_psd_Asset_6_ManagedWiFi_IT_Awareness_DM7_3_fully_managed_Wi_Fi__solution_offered___as_a_Service___in_Canad_0_Layer0_0_MEMBER_29_FILL">
<path fill="#D82C26" stroke="none" d="
M 63.6 11
L 63.6 10.75
Q 63.6 10.1 63.3 9.5 63.1 9 62.5 8.65 62 8.3 61.25 8.3 60.5 8.3 60 8.65 59.4 8.95 59.1 9.55 58.75 10.25 58.75 10.9 58.75 11.6 59.1 12.3 59.4 12.9 60 13.2 60.55 13.55 61.3 13.55 62.5 13.55 63.3 12.95
L 63.2 12.4
Q 62.8 12.7 62.4 12.85 61.95 13.05 61.35 13.05 60.85 13.05 60.35 12.8 59.85 12.5 59.65 12.05 59.45 11.75 59.35 11
L 63.6 11
M 62.5 9.25
Q 63 9.85 63 10.55
L 59.4 10.55
Q 59.4 10.35 59.6 9.75 59.8 9.4 60.25 9.05 60.75 8.8 61.25 8.8 62.05 8.8 62.5 9.25 Z"/>
</g>

<g id="IT_300x600_psd_Asset_6_ManagedWiFi_IT_Awareness_DM7_3_fully_managed_Wi_Fi__solution_offered___as_a_Service___in_Canad_0_Layer0_0_MEMBER_30_FILL">
<path fill="#D82C26" stroke="none" d="
M 69.55 5.3
L 68.95 5.4 68.95 9.55
Q 68.65 8.95 68.1 8.65 67.6 8.3 66.9 8.3 66.3 8.3 65.6 8.65 65 9.05 64.75 9.6 64.4 10.3 64.4 10.95 64.4 11.55 64.75 12.25 65.1 12.9 65.6 13.2 66.15 13.55 66.9 13.55 67.6 13.55 68.1 13.25 68.65 12.85 68.95 12.35
L 69 13.4 69.6 13.4 69.55 5.3
M 65.05 10.95
Q 65.05 10.4 65.3 9.9 65.5 9.4 65.95 9.1 66.35 8.85 67 8.85 67.65 8.85 68 9.1 68.5 9.45 68.7 9.9 68.95 10.3 68.95 10.95 68.95 11.55 68.7 12 68.5 12.45 68 12.75 67.55 13.05 67 13.05 66.4 13.05 65.95 12.75 65.55 12.5 65.3 12 65.05 11.4 65.05 10.95 Z"/>
</g>

<g id="IT_300x600_psd_Asset_6_ManagedWiFi_IT_Awareness_DM7_3_fully_managed_Wi_Fi__solution_offered___as_a_Service___in_Canad_0_Layer0_0_MEMBER_31_FILL">
<path fill="#D82C26" stroke="none" d="
M 1.15 19.35
L 1.15 21.85 1.7 21.85 1.7 19.35 1.15 19.35
M 2.75 19.35
L 2.75 21.85 3.3 21.85 3.3 19.35 2.75 19.35 Z"/>
</g>

<g id="IT_300x600_psd_Asset_6_ManagedWiFi_IT_Awareness_DM7_3_fully_managed_Wi_Fi__solution_offered___as_a_Service___in_Canad_0_Layer0_0_MEMBER_32_FILL">
<path fill="#D82C26" stroke="none" d="
M 4.45 22.35
L 4.65 22.85
Q 4.85 22.55 5.35 22.4 5.75 22.2 6.2 22.2 6.8 22.2 7.25 22.55 7.6 22.9 7.6 23.55
L 7.6 23.85 7 23.85
Q 4.15 23.85 4.15 25.5 4.15 26.25 4.65 26.6 5.05 26.95 5.75 26.95 6.25 26.95 6.85 26.7 7.4 26.4 7.6 25.85
L 7.65 25.85 7.7 26.85 8.3 26.85
Q 8.2 26.55 8.2 25.75
L 8.2 23.6
Q 8.2 22.65 7.7 22.2 7.2 21.7 6.3 21.7 5.7 21.7 5.3 21.9 4.85 22.05 4.45 22.35
M 7.1 24.25
L 7.6 24.25 7.6 24.75
Q 7.6 25.2 7.4 25.6 7.3 25.9 6.85 26.25 6.35 26.5 5.85 26.5 5.45 26.5 5.1 26.25 4.75 26.05 4.75 25.45 4.75 24.25 7.1 24.25 Z"/>
</g>

<g id="IT_300x600_psd_Asset_6_ManagedWiFi_IT_Awareness_DM7_3_fully_managed_Wi_Fi__solution_offered___as_a_Service___in_Canad_0_Layer0_0_MEMBER_33_FILL">
<path fill="#D82C26" stroke="none" d="
M 9.3 23.1
Q 9.3 23.6 9.65 23.95 9.95 24.15 10.75 24.5 11.45 24.75 11.75 24.95 12.1 25.15 12.1 25.55 12.1 25.95 11.75 26.25 11.4 26.5 11 26.5 10.05 26.5 9.35 25.9
L 9.2 26.4
Q 9.4 26.6 10 26.8 10.45 26.95 11 26.95 11.45 26.95 11.8 26.8 12.25 26.65 12.45 26.3 12.7 25.95 12.7 25.55 12.7 24.95 12.3 24.65 11.9 24.3 11.15 24.05
L 10.2 23.65
Q 9.9 23.45 9.9 23.05 9.9 22.65 10.2 22.4 10.6 22.2 11 22.2 11.35 22.2 11.7 22.35
L 12.25 22.7 12.55 22.25 11.85 21.85
Q 11.4 21.7 10.95 21.7 10.55 21.7 10.15 21.85 9.85 22 9.55 22.35 9.3 22.7 9.3 23.1 Z"/>
</g>

<g id="IT_300x600_psd_Asset_6_ManagedWiFi_IT_Awareness_DM7_3_fully_managed_Wi_Fi__solution_offered___as_a_Service___in_Canad_0_Layer0_0_MEMBER_34_FILL">
<path fill="#D82C26" stroke="none" d="
M 13.35 23.9
L 13.35 24.4 15.5 24.4 15.5 23.9 13.35 23.9 Z"/>
</g>

<g id="IT_300x600_psd_Asset_6_ManagedWiFi_IT_Awareness_DM7_3_fully_managed_Wi_Fi__solution_offered___as_a_Service___in_Canad_0_Layer0_0_MEMBER_35_FILL">
<path fill="#D82C26" stroke="none" d="
M 17.4 21.9
Q 16.95 22.05 16.55 22.35
L 16.75 22.85
Q 17.05 22.55 17.5 22.4 17.85 22.2 18.3 22.2 18.9 22.2 19.35 22.55 19.75 22.95 19.75 23.55
L 19.75 23.85 19.1 23.85
Q 16.3 23.85 16.3 25.5 16.3 26.25 16.75 26.6 17.15 26.95 17.85 26.95 18.4 26.95 19 26.7 19.5 26.35 19.7 25.85
L 19.75 25.85 19.8 26.85 20.4 26.85 20.3 23.6
Q 20.3 22.65 19.8 22.2 19.3 21.7 18.4 21.7 17.8 21.7 17.4 21.9
M 19.2 24.25
L 19.75 24.25 19.75 24.75
Q 19.75 25 19.55 25.6 19.35 25.95 18.95 26.25 18.55 26.5 18 26.5 17.55 26.5 17.2 26.25 16.9 26.05 16.9 25.45 16.9 24.25 19.2 24.25 Z"/>
</g>

<g id="IT_300x600_psd_Asset_6_ManagedWiFi_IT_Awareness_DM7_3_fully_managed_Wi_Fi__solution_offered___as_a_Service___in_Canad_0_Layer0_0_MEMBER_36_FILL">
<path fill="#D82C26" stroke="none" d="
M 21.5 23.9
L 21.5 24.4 23.65 24.4 23.65 23.9 21.5 23.9 Z"/>
</g>

<g id="IT_300x600_psd_Asset_6_ManagedWiFi_IT_Awareness_DM7_3_fully_managed_Wi_Fi__solution_offered___as_a_Service___in_Canad_0_Layer0_0_MEMBER_37_FILL">
<path fill="#D82C26" stroke="none" d="
M 24.55 21.2
Q 24.55 21.8 24.8 22.2 25.1 22.6 25.55 22.85
L 27.65 23.7 28.25 24.2
Q 28.45 24.45 28.45 24.95 28.45 25.7 27.95 26.05 27.5 26.45 26.7 26.45 26.1 26.45 25.55 26.25 25.05 26.05 24.55 25.65
L 24.45 26.25
Q 24.85 26.6 25.45 26.8 26.2 27.05 26.7 27.05 27.3 27.05 27.9 26.8 28.4 26.6 28.8 26.05 29.15 25.55 29.15 24.9 29.15 24.25 28.8 23.85 28.5 23.5 28.1 23.25
L 26.9 22.8
Q 26.05 22.45 26 22.4 25.65 22.25 25.4 21.95 25.15 21.6 25.15 21.15 25.15 20.65 25.45 20.35 25.65 20 26.1 19.85 26.5 19.7 26.95 19.7 27.5 19.7 27.95 19.9 28.4 20.05 28.8 20.35
L 29 19.75
Q 28.65 19.45 28.05 19.3
L 26.95 19.15
Q 26.3 19.15 25.75 19.35 25.25 19.55 24.85 20.05 24.55 20.5 24.55 21.2 Z"/>
</g>

<g id="IT_300x600_psd_Asset_6_ManagedWiFi_IT_Awareness_DM7_3_fully_managed_Wi_Fi__solution_offered___as_a_Service___in_Canad_0_Layer0_0_MEMBER_38_FILL">
<path fill="#D82C26" stroke="none" d="
M 30.35 23
Q 30.05 23.55 30.05 24.3 30.05 25.1 30.35 25.7 30.7 26.25 31.25 26.65 31.95 27 32.55 27 33.65 27 34.55 26.35
L 34.45 25.8
Q 34.25 26 33.65 26.3 33.2 26.45 32.65 26.45 32 26.45 31.6 26.2 31.1 25.9 30.9 25.45 30.65 24.95 30.65 24.45
L 34.85 24.45 34.85 24.15
Q 34.85 23.55 34.6 22.95 34.3 22.35 33.75 22.05 33.25 21.7 32.5 21.7 31.85 21.7 31.25 22.05 30.7 22.35 30.35 23
M 31.5 22.5
Q 31.95 22.2 32.5 22.2 33.3 22.2 33.75 22.7 34.25 23.15 34.25 24
L 30.65 24
Q 30.65 23.6 30.9 23.2 31.15 22.7 31.5 22.5 Z"/>
</g>

<g id="IT_300x600_psd_Asset_6_ManagedWiFi_IT_Awareness_DM7_3_fully_managed_Wi_Fi__solution_offered___as_a_Service___in_Canad_0_Layer0_0_MEMBER_39_FILL">
<path fill="#D82C26" stroke="none" d="
M 36.5 21.85
L 35.95 21.85 36 26.85 36.6 26.85 36.6 24.35
Q 36.6 23.55 37 22.9 37.4 22.3 38 22.3
L 38.45 22.35 38.6 21.8 38.05 21.75
Q 37.6 21.75 37.2 22.05 36.75 22.35 36.6 22.95
L 36.55 22.95 36.5 21.85 Z"/>
</g>

<g id="IT_300x600_psd_Asset_6_ManagedWiFi_IT_Awareness_DM7_3_fully_managed_Wi_Fi__solution_offered___as_a_Service___in_Canad_0_Layer0_0_MEMBER_40_FILL">
<path fill="#D82C26" stroke="none" d="
M 42.7 21.85
L 41.15 26.2 39.55 21.85 38.85 21.85 40.75 26.85 41.5 26.85 43.3 21.85 42.7 21.85 Z"/>
</g>

<g id="IT_300x600_psd_Asset_6_ManagedWiFi_IT_Awareness_DM7_3_fully_managed_Wi_Fi__solution_offered___as_a_Service___in_Canad_0_Layer0_0_MEMBER_41_FILL">
<path fill="#D82C26" stroke="none" d="
M 44.75 21.85
L 44.1 21.85 44.1 26.85 44.75 26.85 44.75 21.85
M 44.1 20.2
L 44.4 20.35
Q 44.6 20.35 44.75 20.2
L 44.85 19.9 44.75 19.55 44.4 19.45 44.1 19.55
Q 43.95 19.7 43.95 19.9
L 44.1 20.2 Z"/>
</g>

<g id="IT_300x600_psd_Asset_6_ManagedWiFi_IT_Awareness_DM7_3_fully_managed_Wi_Fi__solution_offered___as_a_Service___in_Canad_0_Layer0_0_MEMBER_42_FILL">
<path fill="#D82C26" stroke="none" d="
M 46.2 23
Q 45.85 23.7 45.85 24.35 45.85 25 46.2 25.7 46.45 26.2 47.1 26.65 47.8 27 48.45 27 48.8 27 49.4 26.8 49.85 26.65 50.15 26.35
L 50.05 25.85
Q 49.75 26.15 49.35 26.3 49 26.45 48.5 26.45 47.9 26.45 47.45 26.15 46.95 25.85 46.75 25.4 46.5 24.9 46.5 24.35 46.5 23.8 46.75 23.3 47 22.75 47.45 22.55 47.9 22.25 48.5 22.25
L 49.25 22.4
Q 49.75 22.6 49.9 22.8
L 50.15 22.3
Q 49.75 22 49.4 21.9 49 21.7 48.45 21.7 47.85 21.7 47.15 22.05 46.55 22.4 46.2 23 Z"/>
</g>

<g id="IT_300x600_psd_Asset_6_ManagedWiFi_IT_Awareness_DM7_3_fully_managed_Wi_Fi__solution_offered___as_a_Service___in_Canad_0_Layer0_0_MEMBER_43_FILL">
<path fill="#D82C26" stroke="none" d="
M 53.1 21.7
Q 52.55 21.7 51.85 22.05 51.4 22.3 50.95 23 50.65 23.55 50.65 24.3 50.65 25.1 50.95 25.7 51.3 26.3 51.9 26.65 52.5 27 53.2 27 54.25 27 55.15 26.35
L 55.05 25.8
Q 54.85 26 54.25 26.3 53.8 26.45 53.25 26.45 52.6 26.45 52.2 26.2 51.85 25.95 51.5 25.45 51.25 24.95 51.25 24.45
L 55.45 24.45 55.45 24.15
Q 55.45 23.55 55.2 22.95 54.9 22.35 54.4 22.05 53.85 21.7 53.1 21.7
M 52.15 22.5
Q 52.55 22.2 53.1 22.2 53.9 22.2 54.35 22.7 54.85 23.15 54.85 24
L 51.25 24
Q 51.25 23.6 51.5 23.2 51.75 22.7 52.15 22.5 Z"/>
</g>

<g id="IT_300x600_psd_Asset_6_ManagedWiFi_IT_Awareness_DM7_3_fully_managed_Wi_Fi__solution_offered___as_a_Service___in_Canad_0_Layer0_0_MEMBER_44_FILL">
<path fill="#D82C26" stroke="none" d="
M 56.5 19.35
L 56.5 21.85 57.05 21.85 57.05 19.35 56.5 19.35
M 58.1 19.35
L 58.1 21.85 58.65 21.85 58.65 19.35 58.1 19.35 Z"/>
</g>

<g id="IT_300x600_psd_Asset_6_ManagedWiFi_IT_Awareness_DM7_3_fully_managed_Wi_Fi__solution_offered___as_a_Service___in_Canad_0_Layer0_0_MEMBER_45_FILL">
<path fill="#D82C26" stroke="none" d="
M 1.6 35.3
L 1 35.3 1 40.25 1.6 40.25 1.6 35.3
M 1 33.6
Q 1.1 33.75 1.3 33.75
L 1.6 33.6
Q 1.75 33.55 1.75 33.3 1.75 33.1 1.6 33
L 1.3 32.85
Q 1.1 32.85 1 33 0.85 33.1 0.85 33.3 0.85 33.55 1 33.6 Z"/>
</g>

<g id="IT_300x600_psd_Asset_6_ManagedWiFi_IT_Awareness_DM7_3_fully_managed_Wi_Fi__solution_offered___as_a_Service___in_Canad_0_Layer0_0_MEMBER_46_FILL">
<path fill="#D82C26" stroke="none" d="
M 3.95 36.6
Q 4.2 36.1 4.55 35.9 4.95 35.65 5.4 35.65 6.1 35.65 6.4 36.15 6.7 36.7 6.7 37.4
L 6.7 40.25 7.35 40.25 7.35 37.2
Q 7.35 36.35 6.9 35.75 6.45 35.15 5.5 35.15 4.95 35.15 4.4 35.45 3.9 35.85 3.7 36.35
L 3.65 35.3 3.05 35.3 3.1 40.25 3.7 40.25 3.7 37.7
Q 3.7 37.1 3.95 36.6 Z"/>
</g>

<g id="IT_300x600_psd_Asset_6_ManagedWiFi_IT_Awareness_DM7_3_fully_managed_Wi_Fi__solution_offered___as_a_Service___in_Canad_0_Layer0_0_MEMBER_47_FILL">
<path fill="#D82C26" stroke="none" d="
M 11.25 34.45
Q 10.75 35.3 10.75 36.5 10.75 37.65 11.2 38.55 11.7 39.45 12.6 39.95 13.45 40.45 14.6 40.45 15.4 40.45 16.15 40.15 16.85 39.85 17.25 39.45
L 17.1 38.85
Q 16.65 39.3 16 39.6 15.35 39.85 14.65 39.85 13.7 39.85 12.95 39.4 12.3 39 11.8 38.2 11.4 37.4 11.4 36.5 11.4 35.6 11.8 34.8 12.3 34 12.95 33.6 13.7 33.15 14.65 33.15 15.45 33.15 16 33.4 16.7 33.7 17.05 34.05
L 17.25 33.45
Q 16.7 33 16.1 32.8 15.25 32.55 14.6 32.55 13.45 32.55 12.6 33.05 11.65 33.65 11.25 34.45 Z"/>
</g>

<g id="IT_300x600_psd_Asset_6_ManagedWiFi_IT_Awareness_DM7_3_fully_managed_Wi_Fi__solution_offered___as_a_Service___in_Canad_0_Layer0_0_MEMBER_48_FILL">
<path fill="#D82C26" stroke="none" d="
M 20.15 35.15
Q 19.6 35.15 19.15 35.3 18.7 35.45 18.3 35.75
L 18.5 36.25
Q 18.65 36.1 19.25 35.8 19.65 35.65 20.05 35.65 20.75 35.65 21.1 35.95 21.5 36.35 21.5 37
L 21.5 37.25 20.85 37.25
Q 18.05 37.25 18.05 38.9 18.05 39.65 18.5 40 19 40.4 19.6 40.4 20.25 40.4 20.75 40.1 21.25 39.75 21.45 39.3
L 21.5 39.3 21.55 40.25 22.15 40.25 22.05 37.05
Q 22.05 36.05 21.55 35.6 21.05 35.15 20.15 35.15
M 19.75 39.9
Q 19.2 39.9 18.95 39.65 18.65 39.45 18.65 38.9 18.65 37.7 20.95 37.7
L 21.5 37.7 21.5 38.2
Q 21.5 38.5 21.3 39 21.05 39.45 20.7 39.65 20.4 39.9 19.75 39.9 Z"/>
</g>

<g id="IT_300x600_psd_Asset_6_ManagedWiFi_IT_Awareness_DM7_3_fully_managed_Wi_Fi__solution_offered___as_a_Service___in_Canad_0_Layer0_0_MEMBER_49_FILL">
<path fill="#D82C26" stroke="none" d="
M 24.35 36.6
Q 24.6 36.1 24.95 35.9 25.35 35.65 25.75 35.65 26.5 35.65 26.8 36.15 27.1 36.7 27.1 37.4
L 27.1 40.25 27.75 40.25 27.75 37.2
Q 27.75 36.35 27.3 35.75 26.85 35.15 25.9 35.15 25.35 35.15 24.8 35.45 24.3 35.85 24.1 36.35
L 24.05 35.3 23.45 35.3 23.5 40.25 24.1 40.25 24.1 37.7
Q 24.1 37.1 24.35 36.6 Z"/>
</g>

<g id="IT_300x600_psd_Asset_6_ManagedWiFi_IT_Awareness_DM7_3_fully_managed_Wi_Fi__solution_offered___as_a_Service___in_Canad_0_Layer0_0_MEMBER_50_FILL">
<path fill="#D82C26" stroke="none" d="
M 31.9 35.95
Q 32.25 36.3 32.25 37
L 32.25 37.25 31.65 37.25
Q 28.8 37.25 28.8 38.9 28.8 39.6 29.3 40 29.8 40.4 30.4 40.4 31 40.4 31.5 40.1 32.05 39.8 32.25 39.3
L 32.3 39.3 32.35 40.25 32.95 40.25
Q 32.85 40 32.85 39.15
L 32.85 37.05
Q 32.85 36.05 32.35 35.6 31.85 35.15 30.95 35.15 30.4 35.15 29.95 35.3 29.5 35.45 29.1 35.75
L 29.3 36.25
Q 29.4 36.1 30 35.8 30.45 35.65 30.85 35.65 31.55 35.65 31.9 35.95
M 29.75 39.65
Q 29.4 39.45 29.4 38.9 29.4 37.7 31.75 37.7
L 32.25 37.7 32.25 38.2
Q 32.25 38.65 32.05 39 31.9 39.4 31.5 39.65 31.15 39.9 30.55 39.9 30 39.9 29.75 39.65 Z"/>
</g>

<g id="IT_300x600_psd_Asset_6_ManagedWiFi_IT_Awareness_DM7_3_fully_managed_Wi_Fi__solution_offered___as_a_Service___in_Canad_0_Layer0_0_MEMBER_51_FILL">
<path fill="#D82C26" stroke="none" d="
M 35.15 35.5
Q 34.6 35.8 34.25 36.45 33.95 37.05 33.95 37.75 33.95 38.5 34.25 39.1 34.55 39.65 35.15 40.05 35.75 40.4 36.45 40.4 37.1 40.4 37.6 40.05 38.15 39.8 38.45 39.15
L 38.5 39.15 38.55 40.25 39.15 40.25 39.1 32.1 38.45 32.25 38.45 36.35
Q 38.15 35.75 37.6 35.45 37.1 35.15 36.45 35.15 35.65 35.15 35.15 35.5
M 37.55 35.95
Q 37.9 36.2 38.25 36.7 38.5 37.3 38.5 37.75 38.5 38.3 38.25 38.8 37.95 39.35 37.55 39.6 37.05 39.85 36.5 39.85 36 39.85 35.5 39.6 35 39.25 34.8 38.8 34.55 38.3 34.55 37.75 34.55 37.3 34.8 36.7 35 36.3 35.5 35.95 35.95 35.65 36.5 35.65 37.1 35.65 37.55 35.95 Z"/>
</g>

<g id="IT_300x600_psd_Asset_6_ManagedWiFi_IT_Awareness_DM7_3_fully_managed_Wi_Fi__solution_offered___as_a_Service___in_Canad_0_Layer0_0_MEMBER_52_FILL">
<path fill="#D82C26" stroke="none" d="
M 41.4 35.8
Q 41.85 35.65 42.25 35.65 42.95 35.65 43.3 35.95 43.65 36.3 43.65 37
L 43.65 37.25 43.05 37.25
Q 40.2 37.25 40.2 38.9 40.2 39.65 40.7 40 41.2 40.4 41.8 40.4 42.4 40.4 42.9 40.1 43.45 39.8 43.65 39.3
L 43.7 39.3 43.75 40.25 44.3 40.25 44.25 37.05
Q 44.25 36.1 43.75 35.6 43.25 35.15 42.35 35.15
L 41.3 35.3
Q 40.8 35.5 40.5 35.75
L 40.65 36.25
Q 40.8 36.1 41.4 35.8
M 43.65 38.2
Q 43.65 38.65 43.45 39 43.3 39.45 42.85 39.65 42.55 39.9 41.9 39.9 41.4 39.9 41.15 39.65 40.8 39.45 40.8 38.9 40.8 37.7 43.15 37.7
L 43.65 37.7 43.65 38.2 Z"/>
</g>

<g id="IT_300x600_psd_Asset_6_ManagedWiFi_IT_Awareness_DM7_3_fully_managed_Wi_Fi__solution_offered___as_a_Service___in_Canad_0_Layer0_0_MEMBER_53_FILL">
<path fill="#D82C26" stroke="none" d="
M 45.75 40.2
L 46.05 40.3 46.4 40.2
Q 46.55 40.05 46.55 39.85 46.55 39.65 46.4 39.5 46.25 39.35 46.05 39.35
L 45.75 39.5
Q 45.6 39.65 45.6 39.85 45.6 40.05 45.75 40.2 Z"/>
</g>
</defs>

<g transform="matrix( 1, 0, 0, 1, -265,35) ">
<g transform="matrix( 1, 0, 0, 1, 260,0) ">
<g transform="matrix( 1, 0, 0, 1, 32,4) ">
<g transform="matrix( 2.815704345703125, 0, 0, 2.832611083984375, 0.15,23.6) ">
<use xlink:href="#IT_300x600_psd_Asset_6_ManagedWiFi_IT_Awareness_DM7_3_fully_managed_Wi_Fi__solution_offered___as_a_Service___in_Canad_0_Layer0_0_MEMBER_0_FILL"/>
</g>

<g transform="matrix( 2.815704345703125, 0, 0, 2.832611083984375, 0.15,23.6) ">
<use xlink:href="#IT_300x600_psd_Asset_6_ManagedWiFi_IT_Awareness_DM7_3_fully_managed_Wi_Fi__solution_offered___as_a_Service___in_Canad_0_Layer0_0_MEMBER_1_FILL"/>
</g>

<g transform="matrix( 2.815704345703125, 0, 0, 2.832611083984375, 0.15,23.6) ">
<use xlink:href="#IT_300x600_psd_Asset_6_ManagedWiFi_IT_Awareness_DM7_3_fully_managed_Wi_Fi__solution_offered___as_a_Service___in_Canad_0_Layer0_0_MEMBER_2_FILL"/>
</g>

<g transform="matrix( 2.815704345703125, 0, 0, 2.832611083984375, 0.15,23.6) ">
<use xlink:href="#IT_300x600_psd_Asset_6_ManagedWiFi_IT_Awareness_DM7_3_fully_managed_Wi_Fi__solution_offered___as_a_Service___in_Canad_0_Layer0_0_MEMBER_3_FILL"/>
</g>

<g transform="matrix( 2.815704345703125, 0, 0, 2.832611083984375, 0.15,23.6) ">
<use xlink:href="#IT_300x600_psd_Asset_6_ManagedWiFi_IT_Awareness_DM7_3_fully_managed_Wi_Fi__solution_offered___as_a_Service___in_Canad_0_Layer0_0_MEMBER_4_FILL"/>
</g>

<g transform="matrix( 2.815704345703125, 0, 0, 2.832611083984375, 0.15,23.6) ">
<use xlink:href="#IT_300x600_psd_Asset_6_ManagedWiFi_IT_Awareness_DM7_3_fully_managed_Wi_Fi__solution_offered___as_a_Service___in_Canad_0_Layer0_0_MEMBER_5_FILL"/>
</g>

<g transform="matrix( 2.815704345703125, 0, 0, 2.832611083984375, 0.15,23.6) ">
<use xlink:href="#IT_300x600_psd_Asset_6_ManagedWiFi_IT_Awareness_DM7_3_fully_managed_Wi_Fi__solution_offered___as_a_Service___in_Canad_0_Layer0_0_MEMBER_6_FILL"/>
</g>

<g transform="matrix( 2.815704345703125, 0, 0, 2.832611083984375, 0.15,23.6) ">
<use xlink:href="#IT_300x600_psd_Asset_6_ManagedWiFi_IT_Awareness_DM7_3_fully_managed_Wi_Fi__solution_offered___as_a_Service___in_Canad_0_Layer0_0_MEMBER_7_FILL"/>
</g>

<g transform="matrix( 2.815704345703125, 0, 0, 2.832611083984375, 0.15,23.6) ">
<use xlink:href="#IT_300x600_psd_Asset_6_ManagedWiFi_IT_Awareness_DM7_3_fully_managed_Wi_Fi__solution_offered___as_a_Service___in_Canad_0_Layer0_0_MEMBER_8_FILL"/>
</g>

<g transform="matrix( 2.815704345703125, 0, 0, 2.832611083984375, 0.15,23.6) ">
<use xlink:href="#IT_300x600_psd_Asset_6_ManagedWiFi_IT_Awareness_DM7_3_fully_managed_Wi_Fi__solution_offered___as_a_Service___in_Canad_0_Layer0_0_MEMBER_9_FILL"/>
</g>

<g transform="matrix( 2.815704345703125, 0, 0, 2.832611083984375, 0.15,23.6) ">
<use xlink:href="#IT_300x600_psd_Asset_6_ManagedWiFi_IT_Awareness_DM7_3_fully_managed_Wi_Fi__solution_offered___as_a_Service___in_Canad_0_Layer0_0_MEMBER_10_FILL"/>
</g>

<g transform="matrix( 2.815704345703125, 0, 0, 2.832611083984375, 0.15,23.6) ">
<use xlink:href="#IT_300x600_psd_Asset_6_ManagedWiFi_IT_Awareness_DM7_3_fully_managed_Wi_Fi__solution_offered___as_a_Service___in_Canad_0_Layer0_0_MEMBER_11_FILL"/>
</g>

<g transform="matrix( 2.815704345703125, 0, 0, 2.832611083984375, 0.15,23.6) ">
<use xlink:href="#IT_300x600_psd_Asset_6_ManagedWiFi_IT_Awareness_DM7_3_fully_managed_Wi_Fi__solution_offered___as_a_Service___in_Canad_0_Layer0_0_MEMBER_12_FILL"/>
</g>

<g transform="matrix( 2.815704345703125, 0, 0, 2.832611083984375, 0.15,23.6) ">
<use xlink:href="#IT_300x600_psd_Asset_6_ManagedWiFi_IT_Awareness_DM7_3_fully_managed_Wi_Fi__solution_offered___as_a_Service___in_Canad_0_Layer0_0_MEMBER_13_FILL"/>
</g>

<g transform="matrix( 2.815704345703125, 0, 0, 2.832611083984375, 0.15,23.6) ">
<use xlink:href="#IT_300x600_psd_Asset_6_ManagedWiFi_IT_Awareness_DM7_3_fully_managed_Wi_Fi__solution_offered___as_a_Service___in_Canad_0_Layer0_0_MEMBER_14_FILL"/>
</g>

<g transform="matrix( 2.815704345703125, 0, 0, 2.832611083984375, 0.15,23.6) ">
<use xlink:href="#IT_300x600_psd_Asset_6_ManagedWiFi_IT_Awareness_DM7_3_fully_managed_Wi_Fi__solution_offered___as_a_Service___in_Canad_0_Layer0_0_MEMBER_15_FILL"/>
</g>

<g transform="matrix( 2.815704345703125, 0, 0, 2.832611083984375, 0.15,23.6) ">
<use xlink:href="#IT_300x600_psd_Asset_6_ManagedWiFi_IT_Awareness_DM7_3_fully_managed_Wi_Fi__solution_offered___as_a_Service___in_Canad_0_Layer0_0_MEMBER_16_FILL"/>
</g>

<g transform="matrix( 2.815704345703125, 0, 0, 2.832611083984375, 0.15,23.6) ">
<use xlink:href="#IT_300x600_psd_Asset_6_ManagedWiFi_IT_Awareness_DM7_3_fully_managed_Wi_Fi__solution_offered___as_a_Service___in_Canad_0_Layer0_0_MEMBER_17_FILL"/>
</g>

<g transform="matrix( 2.815704345703125, 0, 0, 2.832611083984375, 0.15,23.6) ">
<use xlink:href="#IT_300x600_psd_Asset_6_ManagedWiFi_IT_Awareness_DM7_3_fully_managed_Wi_Fi__solution_offered___as_a_Service___in_Canad_0_Layer0_0_MEMBER_18_FILL"/>
</g>

<g transform="matrix( 2.815704345703125, 0, 0, 2.832611083984375, 0.15,23.6) ">
<use xlink:href="#IT_300x600_psd_Asset_6_ManagedWiFi_IT_Awareness_DM7_3_fully_managed_Wi_Fi__solution_offered___as_a_Service___in_Canad_0_Layer0_0_MEMBER_19_FILL"/>
</g>

<g transform="matrix( 2.815704345703125, 0, 0, 2.832611083984375, 0.15,23.6) ">
<use xlink:href="#IT_300x600_psd_Asset_6_ManagedWiFi_IT_Awareness_DM7_3_fully_managed_Wi_Fi__solution_offered___as_a_Service___in_Canad_0_Layer0_0_MEMBER_20_FILL"/>
</g>

<g transform="matrix( 2.815704345703125, 0, 0, 2.832611083984375, 0.15,23.6) ">
<use xlink:href="#IT_300x600_psd_Asset_6_ManagedWiFi_IT_Awareness_DM7_3_fully_managed_Wi_Fi__solution_offered___as_a_Service___in_Canad_0_Layer0_0_MEMBER_21_FILL"/>
</g>

<g transform="matrix( 2.815704345703125, 0, 0, 2.832611083984375, 0.15,23.6) ">
<use xlink:href="#IT_300x600_psd_Asset_6_ManagedWiFi_IT_Awareness_DM7_3_fully_managed_Wi_Fi__solution_offered___as_a_Service___in_Canad_0_Layer0_0_MEMBER_22_FILL"/>
</g>

<g transform="matrix( 2.815704345703125, 0, 0, 2.832611083984375, 0.15,23.6) ">
<use xlink:href="#IT_300x600_psd_Asset_6_ManagedWiFi_IT_Awareness_DM7_3_fully_managed_Wi_Fi__solution_offered___as_a_Service___in_Canad_0_Layer0_0_MEMBER_23_FILL"/>
</g>

<g transform="matrix( 2.815704345703125, 0, 0, 2.832611083984375, 0.15,23.6) ">
<use xlink:href="#IT_300x600_psd_Asset_6_ManagedWiFi_IT_Awareness_DM7_3_fully_managed_Wi_Fi__solution_offered___as_a_Service___in_Canad_0_Layer0_0_MEMBER_24_FILL"/>
</g>

<g transform="matrix( 2.815704345703125, 0, 0, 2.832611083984375, 0.15,23.6) ">
<use xlink:href="#IT_300x600_psd_Asset_6_ManagedWiFi_IT_Awareness_DM7_3_fully_managed_Wi_Fi__solution_offered___as_a_Service___in_Canad_0_Layer0_0_MEMBER_25_FILL"/>
</g>

<g transform="matrix( 2.815704345703125, 0, 0, 2.832611083984375, 0.15,23.6) ">
<use xlink:href="#IT_300x600_psd_Asset_6_ManagedWiFi_IT_Awareness_DM7_3_fully_managed_Wi_Fi__solution_offered___as_a_Service___in_Canad_0_Layer0_0_MEMBER_26_FILL"/>
</g>

<g transform="matrix( 2.815704345703125, 0, 0, 2.832611083984375, 0.15,23.6) ">
<use xlink:href="#IT_300x600_psd_Asset_6_ManagedWiFi_IT_Awareness_DM7_3_fully_managed_Wi_Fi__solution_offered___as_a_Service___in_Canad_0_Layer0_0_MEMBER_27_FILL"/>
</g>

<g transform="matrix( 2.815704345703125, 0, 0, 2.832611083984375, 0.15,23.6) ">
<use xlink:href="#IT_300x600_psd_Asset_6_ManagedWiFi_IT_Awareness_DM7_3_fully_managed_Wi_Fi__solution_offered___as_a_Service___in_Canad_0_Layer0_0_MEMBER_28_FILL"/>
</g>

<g transform="matrix( 2.815704345703125, 0, 0, 2.832611083984375, 0.15,23.6) ">
<use xlink:href="#IT_300x600_psd_Asset_6_ManagedWiFi_IT_Awareness_DM7_3_fully_managed_Wi_Fi__solution_offered___as_a_Service___in_Canad_0_Layer0_0_MEMBER_29_FILL"/>
</g>

<g transform="matrix( 2.815704345703125, 0, 0, 2.832611083984375, 0.15,23.6) ">
<use xlink:href="#IT_300x600_psd_Asset_6_ManagedWiFi_IT_Awareness_DM7_3_fully_managed_Wi_Fi__solution_offered___as_a_Service___in_Canad_0_Layer0_0_MEMBER_30_FILL"/>
</g>

<g transform="matrix( 2.815704345703125, 0, 0, 2.832611083984375, 0.15,23.6) ">
<use xlink:href="#IT_300x600_psd_Asset_6_ManagedWiFi_IT_Awareness_DM7_3_fully_managed_Wi_Fi__solution_offered___as_a_Service___in_Canad_0_Layer0_0_MEMBER_31_FILL"/>
</g>

<g transform="matrix( 2.815704345703125, 0, 0, 2.832611083984375, 0.15,23.6) ">
<use xlink:href="#IT_300x600_psd_Asset_6_ManagedWiFi_IT_Awareness_DM7_3_fully_managed_Wi_Fi__solution_offered___as_a_Service___in_Canad_0_Layer0_0_MEMBER_32_FILL"/>
</g>

<g transform="matrix( 2.815704345703125, 0, 0, 2.832611083984375, 0.15,23.6) ">
<use xlink:href="#IT_300x600_psd_Asset_6_ManagedWiFi_IT_Awareness_DM7_3_fully_managed_Wi_Fi__solution_offered___as_a_Service___in_Canad_0_Layer0_0_MEMBER_33_FILL"/>
</g>

<g transform="matrix( 2.815704345703125, 0, 0, 2.832611083984375, 0.15,23.6) ">
<use xlink:href="#IT_300x600_psd_Asset_6_ManagedWiFi_IT_Awareness_DM7_3_fully_managed_Wi_Fi__solution_offered___as_a_Service___in_Canad_0_Layer0_0_MEMBER_34_FILL"/>
</g>

<g transform="matrix( 2.815704345703125, 0, 0, 2.832611083984375, 0.15,23.6) ">
<use xlink:href="#IT_300x600_psd_Asset_6_ManagedWiFi_IT_Awareness_DM7_3_fully_managed_Wi_Fi__solution_offered___as_a_Service___in_Canad_0_Layer0_0_MEMBER_35_FILL"/>
</g>

<g transform="matrix( 2.815704345703125, 0, 0, 2.832611083984375, 0.15,23.6) ">
<use xlink:href="#IT_300x600_psd_Asset_6_ManagedWiFi_IT_Awareness_DM7_3_fully_managed_Wi_Fi__solution_offered___as_a_Service___in_Canad_0_Layer0_0_MEMBER_36_FILL"/>
</g>

<g transform="matrix( 2.815704345703125, 0, 0, 2.832611083984375, 0.15,23.6) ">
<use xlink:href="#IT_300x600_psd_Asset_6_ManagedWiFi_IT_Awareness_DM7_3_fully_managed_Wi_Fi__solution_offered___as_a_Service___in_Canad_0_Layer0_0_MEMBER_37_FILL"/>
</g>

<g transform="matrix( 2.815704345703125, 0, 0, 2.832611083984375, 0.15,23.6) ">
<use xlink:href="#IT_300x600_psd_Asset_6_ManagedWiFi_IT_Awareness_DM7_3_fully_managed_Wi_Fi__solution_offered___as_a_Service___in_Canad_0_Layer0_0_MEMBER_38_FILL"/>
</g>

<g transform="matrix( 2.815704345703125, 0, 0, 2.832611083984375, 0.15,23.6) ">
<use xlink:href="#IT_300x600_psd_Asset_6_ManagedWiFi_IT_Awareness_DM7_3_fully_managed_Wi_Fi__solution_offered___as_a_Service___in_Canad_0_Layer0_0_MEMBER_39_FILL"/>
</g>

<g transform="matrix( 2.815704345703125, 0, 0, 2.832611083984375, 0.15,23.6) ">
<use xlink:href="#IT_300x600_psd_Asset_6_ManagedWiFi_IT_Awareness_DM7_3_fully_managed_Wi_Fi__solution_offered___as_a_Service___in_Canad_0_Layer0_0_MEMBER_40_FILL"/>
</g>

<g transform="matrix( 2.815704345703125, 0, 0, 2.832611083984375, 0.15,23.6) ">
<use xlink:href="#IT_300x600_psd_Asset_6_ManagedWiFi_IT_Awareness_DM7_3_fully_managed_Wi_Fi__solution_offered___as_a_Service___in_Canad_0_Layer0_0_MEMBER_41_FILL"/>
</g>

<g transform="matrix( 2.815704345703125, 0, 0, 2.832611083984375, 0.15,23.6) ">
<use xlink:href="#IT_300x600_psd_Asset_6_ManagedWiFi_IT_Awareness_DM7_3_fully_managed_Wi_Fi__solution_offered___as_a_Service___in_Canad_0_Layer0_0_MEMBER_42_FILL"/>
</g>

<g transform="matrix( 2.815704345703125, 0, 0, 2.832611083984375, 0.15,23.6) ">
<use xlink:href="#IT_300x600_psd_Asset_6_ManagedWiFi_IT_Awareness_DM7_3_fully_managed_Wi_Fi__solution_offered___as_a_Service___in_Canad_0_Layer0_0_MEMBER_43_FILL"/>
</g>

<g transform="matrix( 2.815704345703125, 0, 0, 2.832611083984375, 0.15,23.6) ">
<use xlink:href="#IT_300x600_psd_Asset_6_ManagedWiFi_IT_Awareness_DM7_3_fully_managed_Wi_Fi__solution_offered___as_a_Service___in_Canad_0_Layer0_0_MEMBER_44_FILL"/>
</g>

<g transform="matrix( 2.815704345703125, 0, 0, 2.832611083984375, 0.15,23.6) ">
<use xlink:href="#IT_300x600_psd_Asset_6_ManagedWiFi_IT_Awareness_DM7_3_fully_managed_Wi_Fi__solution_offered___as_a_Service___in_Canad_0_Layer0_0_MEMBER_45_FILL"/>
</g>

<g transform="matrix( 2.815704345703125, 0, 0, 2.832611083984375, 0.15,23.6) ">
<use xlink:href="#IT_300x600_psd_Asset_6_ManagedWiFi_IT_Awareness_DM7_3_fully_managed_Wi_Fi__solution_offered___as_a_Service___in_Canad_0_Layer0_0_MEMBER_46_FILL"/>
</g>

<g transform="matrix( 2.815704345703125, 0, 0, 2.832611083984375, 0.15,23.6) ">
<use xlink:href="#IT_300x600_psd_Asset_6_ManagedWiFi_IT_Awareness_DM7_3_fully_managed_Wi_Fi__solution_offered___as_a_Service___in_Canad_0_Layer0_0_MEMBER_47_FILL"/>
</g>

<g transform="matrix( 2.815704345703125, 0, 0, 2.832611083984375, 0.15,23.6) ">
<use xlink:href="#IT_300x600_psd_Asset_6_ManagedWiFi_IT_Awareness_DM7_3_fully_managed_Wi_Fi__solution_offered___as_a_Service___in_Canad_0_Layer0_0_MEMBER_48_FILL"/>
</g>

<g transform="matrix( 2.815704345703125, 0, 0, 2.832611083984375, 0.15,23.6) ">
<use xlink:href="#IT_300x600_psd_Asset_6_ManagedWiFi_IT_Awareness_DM7_3_fully_managed_Wi_Fi__solution_offered___as_a_Service___in_Canad_0_Layer0_0_MEMBER_49_FILL"/>
</g>

<g transform="matrix( 2.815704345703125, 0, 0, 2.832611083984375, 0.15,23.6) ">
<use xlink:href="#IT_300x600_psd_Asset_6_ManagedWiFi_IT_Awareness_DM7_3_fully_managed_Wi_Fi__solution_offered___as_a_Service___in_Canad_0_Layer0_0_MEMBER_50_FILL"/>
</g>

<g transform="matrix( 2.815704345703125, 0, 0, 2.832611083984375, 0.15,23.6) ">
<use xlink:href="#IT_300x600_psd_Asset_6_ManagedWiFi_IT_Awareness_DM7_3_fully_managed_Wi_Fi__solution_offered___as_a_Service___in_Canad_0_Layer0_0_MEMBER_51_FILL"/>
</g>

<g transform="matrix( 2.815704345703125, 0, 0, 2.832611083984375, 0.15,23.6) ">
<use xlink:href="#IT_300x600_psd_Asset_6_ManagedWiFi_IT_Awareness_DM7_3_fully_managed_Wi_Fi__solution_offered___as_a_Service___in_Canad_0_Layer0_0_MEMBER_52_FILL"/>
</g>

<g transform="matrix( 2.815704345703125, 0, 0, 2.832611083984375, 0.15,23.6) ">
<use xlink:href="#IT_300x600_psd_Asset_6_ManagedWiFi_IT_Awareness_DM7_3_fully_managed_Wi_Fi__solution_offered___as_a_Service___in_Canad_0_Layer0_0_MEMBER_53_FILL"/>
</g>
</g>
</g>
</g>
</svg>
