
<svg xmlns="http://www.w3.org/2000/svg" version="1.1" xmlns:xlink="http://www.w3.org/1999/xlink" preserveAspectRatio="none" x="0px" y="0px" width="300px" height="250px" viewBox="0 0 300 250">
<defs>
<g id="IT_300x250_psd_Asset_3_ManagedWiFi_IT_Research_DM9_1_copy_2_Looking_to_evaluate__your_network_for_a_better__management_solu_0_Layer0_0_MEMBER_0_FILL">
<path fill="#D82C26" stroke="none" d="
M 1.15 -5.25
L 0.7 -5.25 0.7 0 3.45 0 3.55 -0.4 1.15 -0.4 1.15 -5.25 Z"/>
</g>

<g id="IT_300x250_psd_Asset_3_ManagedWiFi_IT_Research_DM9_1_copy_2_Looking_to_evaluate__your_network_for_a_better__management_solu_0_Layer0_0_MEMBER_1_FILL">
<path fill="#D82C26" stroke="none" d="
M 4.2 -0.8
Q 4.4 -0.35 4.85 -0.15 5.35 0.1 5.8 0.1 6.25 0.1 6.75 -0.15 7.2 -0.35 7.4 -0.8 7.65 -1.2 7.65 -1.75 7.65 -2.2 7.4 -2.7 7.1 -3.15 6.75 -3.35 6.25 -3.6 5.8 -3.6 5.35 -3.6 4.85 -3.35 4.5 -3.15 4.2 -2.7 3.95 -2.2 3.95 -1.75 3.95 -1.2 4.2 -0.8
M 4.55 -2.5
Q 4.7 -2.85 5.05 -3 5.3 -3.2 5.8 -3.2 6.3 -3.2 6.55 -3 6.75 -2.9 7.05 -2.5
L 7.2 -1.75 7.05 -1
Q 6.9 -0.7 6.55 -0.45 6.15 -0.25 5.8 -0.25 5.45 -0.25 5.05 -0.45 4.7 -0.7 4.55 -1
L 4.4 -1.75 4.55 -2.5 Z"/>
</g>

<g id="IT_300x250_psd_Asset_3_ManagedWiFi_IT_Research_DM9_1_copy_2_Looking_to_evaluate__your_network_for_a_better__management_solu_0_Layer0_0_MEMBER_2_FILL">
<path fill="#D82C26" stroke="none" d="
M 8.6 -0.8
Q 8.8 -0.35 9.25 -0.15 9.75 0.1 10.2 0.1 10.65 0.1 11.15 -0.15 11.6 -0.35 11.8 -0.8 12.05 -1.2 12.05 -1.75 12.05 -2.2 11.8 -2.7 11.5 -3.15 11.15 -3.35 10.65 -3.6 10.2 -3.6 9.75 -3.6 9.25 -3.35 8.9 -3.15 8.6 -2.7 8.35 -2.2 8.35 -1.75 8.35 -1.2 8.6 -0.8
M 8.95 -2.5
Q 9.1 -2.85 9.45 -3 9.7 -3.2 10.2 -3.2 10.6 -3.2 10.95 -3 11.15 -2.9 11.45 -2.5
L 11.6 -1.75 11.45 -1
Q 11.3 -0.7 10.95 -0.45 10.55 -0.25 10.2 -0.25 9.85 -0.25 9.45 -0.45 9.1 -0.7 8.95 -1
L 8.8 -1.75 8.95 -2.5 Z"/>
</g>

<g id="IT_300x250_psd_Asset_3_ManagedWiFi_IT_Research_DM9_1_copy_2_Looking_to_evaluate__your_network_for_a_better__management_solu_0_Layer0_0_MEMBER_3_FILL">
<path fill="#D82C26" stroke="none" d="
M 13.4 -5.65
L 13 -5.6 13 0 13.4 0 13.4 -1.8 13.45 -1.8 15.2 0 15.8 0 13.9 -1.9 15.6 -3.45 15.05 -3.45 13.45 -1.9 13.4 -1.9 13.4 -5.65 Z"/>
</g>

<g id="IT_300x250_psd_Asset_3_ManagedWiFi_IT_Research_DM9_1_copy_2_Looking_to_evaluate__your_network_for_a_better__management_solu_0_Layer0_0_MEMBER_4_FILL">
<path fill="#D82C26" stroke="none" d="
M 16.9 -3.45
L 16.5 -3.45 16.5 0 16.9 0 16.9 -3.45
M 16.9 -4.65
L 17 -4.85 16.9 -5.1 16.7 -5.15 16.5 -5.1
Q 16.4 -5 16.4 -4.85 16.4 -4.7 16.5 -4.65
L 16.7 -4.55 16.9 -4.65 Z"/>
</g>

<g id="IT_300x250_psd_Asset_3_ManagedWiFi_IT_Research_DM9_1_copy_2_Looking_to_evaluate__your_network_for_a_better__management_solu_0_Layer0_0_MEMBER_5_FILL">
<path fill="#D82C26" stroke="none" d="
M 18.45 -3.45
L 18.05 -3.45 18.1 0 18.5 0 18.5 -1.75
Q 18.5 -2.25 18.65 -2.55 18.85 -2.9 19.1 -3.05 19.35 -3.2 19.65 -3.2 20.2 -3.2 20.4 -2.85 20.6 -2.6 20.6 -2
L 20.6 0 21.05 0 21.05 -2.1
Q 21.05 -2.75 20.75 -3.15 20.5 -3.55 19.75 -3.55 19.35 -3.55 19 -3.35 18.65 -3.15 18.5 -2.7
L 18.45 -3.45 Z"/>
</g>

<g id="IT_300x250_psd_Asset_3_ManagedWiFi_IT_Research_DM9_1_copy_2_Looking_to_evaluate__your_network_for_a_better__management_solu_0_Layer0_0_MEMBER_6_FILL">
<path fill="#D82C26" stroke="none" d="
M 23.7 -3.55
Q 23.15 -3.55 22.8 -3.35 22.35 -3.05 22.15 -2.65 21.95 -2.3 21.95 -1.75 21.95 -1.2 22.15 -0.8 22.35 -0.45 22.8 -0.15 23.15 0.05 23.7 0.05 24.15 0.05 24.5 -0.15 24.9 -0.4 25.1 -0.8
L 25.1 -0.05
Q 25.1 0.7 24.75 1.05 24.45 1.45 23.65 1.45
L 22.9 1.35 22.25 1 22.15 1.4
Q 22.45 1.6 22.85 1.7 23.15 1.8 23.7 1.8 24.65 1.8 25.1 1.3 25.55 0.8 25.55 -0.05
L 25.55 -3.45 25.15 -3.45 25.1 -2.7
Q 24.9 -3.1 24.5 -3.35 24.15 -3.55 23.7 -3.55
M 22.4 -1.75
L 22.55 -2.5
Q 22.75 -2.85 23.05 -3 23.3 -3.2 23.75 -3.2 24.2 -3.2 24.45 -3 24.8 -2.85 24.95 -2.5 25.15 -2 25.15 -1.75 25.15 -1.5 24.95 -1 24.8 -0.65 24.45 -0.5 24.2 -0.3 23.75 -0.3 23.3 -0.3 23.05 -0.5 22.75 -0.6 22.55 -1
L 22.4 -1.75 Z"/>
</g>

<g id="IT_300x250_psd_Asset_3_ManagedWiFi_IT_Research_DM9_1_copy_2_Looking_to_evaluate__your_network_for_a_better__management_solu_0_Layer0_0_MEMBER_7_FILL">
<path fill="#D82C26" stroke="none" d="
M 28.2 -4.3
L 28.2 -3.45 27.65 -3.45 27.55 -3.15 28.2 -3.15 28.2 -0.85
Q 28.2 -0.4 28.45 -0.15 28.65 0.05 29.05 0.05
L 29.45 0 29.75 -0.1 29.7 -0.45 29.15 -0.3
Q 28.95 -0.3 28.8 -0.45 28.65 -0.6 28.65 -0.9
L 28.65 -3.15 29.55 -3.15 29.65 -3.45 28.65 -3.45 28.65 -4.45 28.2 -4.3 Z"/>
</g>

<g id="IT_300x250_psd_Asset_3_ManagedWiFi_IT_Research_DM9_1_copy_2_Looking_to_evaluate__your_network_for_a_better__management_solu_0_Layer0_0_MEMBER_8_FILL">
<path fill="#D82C26" stroke="none" d="
M 30.1 -1.75
Q 30.1 -1.15 30.3 -0.8 30.6 -0.35 31 -0.15 31.4 0.1 31.95 0.1 32.4 0.1 32.9 -0.15 33.35 -0.45 33.55 -0.8 33.8 -1.2 33.8 -1.75 33.8 -2.2 33.55 -2.7 33.3 -3.1 32.9 -3.35 32.4 -3.6 31.95 -3.6 31.4 -3.6 31 -3.35 30.7 -3.2 30.3 -2.7 30.1 -2.3 30.1 -1.75
M 32.7 -0.45
Q 32.2 -0.25 31.95 -0.25 31.6 -0.25 31.2 -0.45 30.9 -0.65 30.7 -1 30.5 -1.5 30.5 -1.75 30.5 -2 30.7 -2.5 30.9 -2.85 31.2 -3 31.45 -3.2 31.95 -3.2 32.4 -3.2 32.65 -3 32.95 -2.85 33.15 -2.5 33.35 -2.15 33.35 -1.75 33.35 -1.35 33.15 -1 33 -0.65 32.7 -0.45 Z"/>
</g>

<g id="IT_300x250_psd_Asset_3_ManagedWiFi_IT_Research_DM9_1_copy_2_Looking_to_evaluate__your_network_for_a_better__management_solu_0_Layer0_0_MEMBER_9_FILL">
<path fill="#D82C26" stroke="none" d="
M 37.6 -3.6
Q 37.2 -3.6 36.7 -3.35 36.3 -3.1 36.1 -2.7 35.85 -2.2 35.85 -1.75 35.85 -1.2 36.1 -0.8 36.3 -0.35 36.75 -0.15 37.15 0.1 37.65 0.1 38.45 0.1 39.05 -0.35
L 38.95 -0.7
Q 38.55 -0.45 38.4 -0.4 38.1 -0.25 37.7 -0.25 37.3 -0.25 36.95 -0.45 36.7 -0.6 36.5 -0.95 36.3 -1.3 36.3 -1.7
L 39.25 -1.7 39.25 -1.85
Q 39.25 -2.35 39.05 -2.75 38.8 -3.15 38.5 -3.35 38.1 -3.6 37.6 -3.6
M 36.45 -2.55
Q 36.6 -2.8 36.9 -3.05 37.3 -3.25 37.6 -3.25 38.15 -3.25 38.5 -2.9 38.75 -2.55 38.85 -2
L 36.3 -2
Q 36.3 -2.25 36.45 -2.55 Z"/>
</g>

<g id="IT_300x250_psd_Asset_3_ManagedWiFi_IT_Research_DM9_1_copy_2_Looking_to_evaluate__your_network_for_a_better__management_solu_0_Layer0_0_MEMBER_10_FILL">
<path fill="#D82C26" stroke="none" d="
M 40.05 -3.45
L 39.55 -3.45 40.9 0 41.4 0 42.7 -3.45 42.25 -3.45 41.15 -0.45 40.05 -3.45 Z"/>
</g>

<g id="IT_300x250_psd_Asset_3_ManagedWiFi_IT_Research_DM9_1_copy_2_Looking_to_evaluate__your_network_for_a_better__management_solu_0_Layer0_0_MEMBER_11_FILL">
<path fill="#D82C26" stroke="none" d="
M 43.85 -3.45
Q 43.5 -3.35 43.3 -3.15
L 43.4 -2.8 43.9 -3.1
Q 44.3 -3.25 44.5 -3.25 44.9 -3.25 45.25 -3 45.5 -2.75 45.5 -2.3
L 45.5 -2.1 45.05 -2.1
Q 43.1 -2.1 43.1 -0.95 43.1 -0.45 43.4 -0.15 43.8 0.1 44.2 0.1 44.7 0.1 44.95 -0.1 45.4 -0.35 45.5 -0.65
L 45.55 -0.3 45.55 0 45.95 0 45.9 -2.25
Q 45.9 -2.9 45.55 -3.25 45.1 -3.6 44.55 -3.6
L 43.85 -3.45
M 45.15 -1.8
L 45.5 -1.8 45.5 -1.45
Q 45.5 -1.15 45.35 -0.85 45.15 -0.55 44.95 -0.4 44.65 -0.25 44.3 -0.25 44 -0.25 43.75 -0.4 43.5 -0.55 43.5 -0.95 43.5 -1.8 45.15 -1.8 Z"/>
</g>

<g id="IT_300x250_psd_Asset_3_ManagedWiFi_IT_Research_DM9_1_copy_2_Looking_to_evaluate__your_network_for_a_better__management_solu_0_Layer0_0_MEMBER_12_FILL">
<path fill="#D82C26" stroke="none" d="
M 47 -0.75
Q 47 -0.4 47.2 -0.2
L 47.6 0.1 47.8 -0.3
Q 47.6 -0.35 47.55 -0.5
L 47.45 -0.85 47.45 -5.65 47 -5.55 47 -0.75 Z"/>
</g>

<g id="IT_300x250_psd_Asset_3_ManagedWiFi_IT_Research_DM9_1_copy_2_Looking_to_evaluate__your_network_for_a_better__management_solu_0_Layer0_0_MEMBER_13_FILL">
<path fill="#D82C26" stroke="none" d="
M 48.6 -1.35
Q 48.6 -0.75 48.9 -0.3 49.2 0.1 49.85 0.1 50.25 0.1 50.65 -0.15 51 -0.45 51.15 -0.75
L 51.2 0 51.65 0 51.55 -0.8 51.55 -3.45 51.15 -3.45 51.15 -1.75
Q 51.15 -1.25 51 -0.95 50.85 -0.6 50.55 -0.45 50.35 -0.25 50 -0.25 49.45 -0.25 49.25 -0.6 49.05 -0.95 49.05 -1.45
L 49.05 -3.45 48.6 -3.45 48.6 -1.35 Z"/>
</g>

<g id="IT_300x250_psd_Asset_3_ManagedWiFi_IT_Research_DM9_1_copy_2_Looking_to_evaluate__your_network_for_a_better__management_solu_0_Layer0_0_MEMBER_14_FILL">
<path fill="#D82C26" stroke="none" d="
M 53.3 -3.1
Q 53.6 -3.25 53.9 -3.25 54.35 -3.25 54.6 -3 54.9 -2.75 54.9 -2.3
L 54.9 -2.1 54.45 -2.1
Q 52.5 -2.1 52.5 -0.95 52.5 -0.45 52.8 -0.15 53.15 0.1 53.6 0.1 54 0.1 54.35 -0.1 54.8 -0.35 54.9 -0.65
L 54.9 -0.3 54.95 0 55.35 0 55.3 -2.25
Q 55.3 -2.9 54.95 -3.25 54.5 -3.6 53.95 -3.6
L 53.25 -3.45 52.65 -3.15 52.8 -2.8 53.3 -3.1
M 53.1 -0.4
Q 52.9 -0.55 52.9 -0.95 52.9 -1.8 54.5 -1.8
L 54.9 -1.8 54.9 -1.45
Q 54.9 -1.15 54.75 -0.85
L 54.35 -0.4
Q 54.05 -0.25 53.65 -0.25 53.35 -0.25 53.1 -0.4 Z"/>
</g>

<g id="IT_300x250_psd_Asset_3_ManagedWiFi_IT_Research_DM9_1_copy_2_Looking_to_evaluate__your_network_for_a_better__management_solu_0_Layer0_0_MEMBER_15_FILL">
<path fill="#D82C26" stroke="none" d="
M 56.95 -3.45
L 56.95 -4.45 56.5 -4.3 56.5 -3.45 55.95 -3.45 55.85 -3.15 56.5 -3.15 56.5 -0.85
Q 56.5 -0.45 56.7 -0.15 56.9 0.05 57.3 0.05
L 57.7 0 58.05 -0.1 58 -0.45
Q 57.7 -0.3 57.45 -0.3 57.2 -0.3 57.05 -0.45
L 56.95 -0.9 56.95 -3.15 57.85 -3.15 57.9 -3.45 56.95 -3.45 Z"/>
</g>

<g id="IT_300x250_psd_Asset_3_ManagedWiFi_IT_Research_DM9_1_copy_2_Looking_to_evaluate__your_network_for_a_better__management_solu_0_Layer0_0_MEMBER_16_FILL">
<path fill="#D82C26" stroke="none" d="
M 60.1 -3.6
Q 59.7 -3.6 59.2 -3.35 58.8 -3.1 58.6 -2.7 58.35 -2.2 58.35 -1.75 58.35 -1.2 58.6 -0.8 58.8 -0.35 59.25 -0.15 59.65 0.1 60.15 0.1 60.95 0.1 61.55 -0.35
L 61.45 -0.7
Q 61.05 -0.45 60.9 -0.4 60.6 -0.25 60.2 -0.25 59.8 -0.25 59.45 -0.45 59.2 -0.6 59 -0.95 58.8 -1.3 58.8 -1.7
L 61.75 -1.7 61.75 -1.85
Q 61.75 -2.35 61.55 -2.75 61.3 -3.15 61 -3.35 60.6 -3.6 60.1 -3.6
M 58.95 -2.55
Q 59.1 -2.8 59.4 -3.05 59.8 -3.25 60.1 -3.25 60.65 -3.25 61 -2.9 61.25 -2.55 61.35 -2
L 58.8 -2
Q 58.8 -2.25 58.95 -2.55 Z"/>
</g>

<g id="IT_300x250_psd_Asset_3_ManagedWiFi_IT_Research_DM9_1_copy_2_Looking_to_evaluate__your_network_for_a_better__management_solu_0_Layer0_0_MEMBER_17_FILL">
<path fill="#D82C26" stroke="none" d="
M 3.35 5
L 2.85 5 1.8 8 0.6 5 0.15 5 1.6 8.5 1.35 9.25
Q 1.2 9.55 0.95 9.7 0.75 9.85 0.35 9.85
L 0.45 10.25
Q 0.85 10.25 1.25 10.05 1.55 9.85 1.7 9.35
L 3.35 5 Z"/>
</g>

<g id="IT_300x250_psd_Asset_3_ManagedWiFi_IT_Research_DM9_1_copy_2_Looking_to_evaluate__your_network_for_a_better__management_solu_0_Layer0_0_MEMBER_18_FILL">
<path fill="#D82C26" stroke="none" d="
M 7.15 5.8
Q 6.95 5.45 6.5 5.15 6.15 4.9 5.55 4.9 4.9 4.9 4.6 5.15 4.2 5.35 3.9 5.8 3.7 6.15 3.7 6.75 3.7 7.3 3.9 7.7 4.3 8.2 4.6 8.35 5 8.6 5.55 8.6 6 8.6 6.5 8.35 6.9 8.1 7.15 7.7 7.4 7.2 7.4 6.75 7.4 6.2 7.15 5.8
M 6.25 5.45
Q 6.6 5.65 6.75 6 6.95 6.25 6.95 6.75 6.95 7.2 6.75 7.45 6.65 7.75 6.3 8 5.95 8.2 5.55 8.2 5.05 8.2 4.8 8 4.45 7.8 4.3 7.45 4.1 7.2 4.1 6.75 4.1 6.25 4.3 6 4.45 5.65 4.8 5.45 5.2 5.25 5.55 5.25 5.85 5.25 6.25 5.45 Z"/>
</g>

<g id="IT_300x250_psd_Asset_3_ManagedWiFi_IT_Research_DM9_1_copy_2_Looking_to_evaluate__your_network_for_a_better__management_solu_0_Layer0_0_MEMBER_19_FILL">
<path fill="#D82C26" stroke="none" d="
M 11.25 5
L 10.8 5 10.8 6.75
Q 10.8 7.2 10.65 7.55 10.55 7.75 10.25 8.05 9.95 8.2 9.65 8.2 9.1 8.2 8.9 7.85 8.7 7.6 8.7 7
L 8.7 5 8.25 5 8.25 7.1
Q 8.25 7.8 8.55 8.15 8.9 8.55 9.55 8.55 9.95 8.55 10.3 8.35 10.65 8.15 10.8 7.7
L 10.85 8.5 11.3 8.45 11.25 8.05 11.25 5 Z"/>
</g>

<g id="IT_300x250_psd_Asset_3_ManagedWiFi_IT_Research_DM9_1_copy_2_Looking_to_evaluate__your_network_for_a_better__management_solu_0_Layer0_0_MEMBER_20_FILL">
<path fill="#D82C26" stroke="none" d="
M 13.25 5.15
Q 13 5.3 12.85 5.75
L 12.8 5 12.4 5 12.4 8.45 12.85 8.45 12.85 6.75
Q 12.85 6.2 13.1 5.7 13.4 5.3 13.85 5.3
L 14.15 5.35 14.25 4.95 13.85 4.9
Q 13.5 4.9 13.25 5.15 Z"/>
</g>

<g id="IT_300x250_psd_Asset_3_ManagedWiFi_IT_Research_DM9_1_copy_2_Looking_to_evaluate__your_network_for_a_better__management_solu_0_Layer0_0_MEMBER_21_FILL">
<path fill="#D82C26" stroke="none" d="
M 16.8 5.95
Q 16.95 5.65 17.2 5.45 17.45 5.25 17.8 5.25 18.3 5.25 18.55 5.6 18.75 6.1 18.75 6.45
L 18.75 8.45 19.2 8.45 19.2 6.35
Q 19.2 5.7 18.85 5.3 18.55 4.9 17.9 4.9 17.5 4.9 17.15 5.15 16.8 5.35 16.65 5.75
L 16.6 5 16.2 5 16.2 8.45 16.65 8.45 16.65 6.7
Q 16.65 6.25 16.8 5.95 Z"/>
</g>

<g id="IT_300x250_psd_Asset_3_ManagedWiFi_IT_Research_DM9_1_copy_2_Looking_to_evaluate__your_network_for_a_better__management_solu_0_Layer0_0_MEMBER_22_FILL">
<path fill="#D82C26" stroke="none" d="
M 20.95 5.15
Q 20.55 5.35 20.3 5.75 20.1 6.15 20.1 6.7 20.1 7.3 20.3 7.7 20.55 8.1 20.95 8.35 21.35 8.6 21.85 8.6 22.65 8.6 23.25 8.15
L 23.2 7.75 22.6 8.1
Q 22.4 8.2 21.9 8.2 21.5 8.2 21.2 8.05 20.8 7.75 20.7 7.5 20.5 7.1 20.5 6.8
L 23.45 6.8 23.45 6.6
Q 23.45 6.1 23.25 5.75 23.15 5.45 22.7 5.1 22.35 4.9 21.8 4.9 21.25 4.9 20.95 5.15
M 21.8 5.25
Q 22.35 5.25 22.7 5.55 23.05 6 23.05 6.5
L 20.5 6.5 20.7 5.9
Q 20.85 5.65 21.1 5.45 21.35 5.25 21.8 5.25 Z"/>
</g>

<g id="IT_300x250_psd_Asset_3_ManagedWiFi_IT_Research_DM9_1_copy_2_Looking_to_evaluate__your_network_for_a_better__management_solu_0_Layer0_0_MEMBER_23_FILL">
<path fill="#D82C26" stroke="none" d="
M 25.8 5.35
L 25.85 5 24.9 5 24.9 4 24.45 4.15 24.45 5 23.9 5 23.8 5.35 24.45 5.35 24.45 7.65
Q 24.45 8 24.65 8.3 24.9 8.55 25.25 8.55
L 25.65 8.5 26 8.35 25.95 8.05 25.4 8.2
Q 25.15 8.2 25 8.05
L 24.9 7.6 24.9 5.35 25.8 5.35 Z"/>
</g>

<g id="IT_300x250_psd_Asset_3_ManagedWiFi_IT_Research_DM9_1_copy_2_Looking_to_evaluate__your_network_for_a_better__management_solu_0_Layer0_0_MEMBER_24_FILL">
<path fill="#D82C26" stroke="none" d="
M 31.45 5
L 31 5 30.15 8 30.1 8 29.15 5 28.65 5 27.7 8 27.65 8 26.8 5 26.35 5 27.4 8.45 27.9 8.45 28.9 5.5 29.9 8.45 30.35 8.45 31.45 5 Z"/>
</g>

<g id="IT_300x250_psd_Asset_3_ManagedWiFi_IT_Research_DM9_1_copy_2_Looking_to_evaluate__your_network_for_a_better__management_solu_0_Layer0_0_MEMBER_25_FILL">
<path fill="#D82C26" stroke="none" d="
M 35.3 5.8
Q 35.1 5.35 34.65 5.15 34.3 4.9 33.7 4.9 33.15 4.9 32.75 5.15 32.3 5.45 32.1 5.8 31.85 6.2 31.85 6.75 31.85 7.2 32.1 7.7 32.35 8.1 32.75 8.35 33.25 8.6 33.7 8.6 34.15 8.6 34.65 8.35 35 8.15 35.3 7.7 35.55 7.35 35.55 6.75 35.55 6.1 35.3 5.8
M 34.45 5.45
Q 34.85 5.75 34.95 6 35.1 6.3 35.1 6.75 35.1 7.15 34.95 7.45 34.85 7.7 34.45 8 34.2 8.2 33.7 8.2 33.2 8.2 32.95 8 32.65 7.75 32.45 7.45 32.3 7.15 32.3 6.75 32.3 6.3 32.45 6 32.65 5.7 32.95 5.45 33.35 5.25 33.7 5.25 34.05 5.25 34.45 5.45 Z"/>
</g>

<g id="IT_300x250_psd_Asset_3_ManagedWiFi_IT_Research_DM9_1_copy_2_Looking_to_evaluate__your_network_for_a_better__management_solu_0_Layer0_0_MEMBER_26_FILL">
<path fill="#D82C26" stroke="none" d="
M 37.35 5.15
Q 37.05 5.4 36.9 5.75
L 36.85 5 36.45 5 36.5 8.45 36.9 8.45 36.9 6.75
Q 36.9 6.15 37.2 5.7 37.45 5.3 37.9 5.3
L 38.2 5.35 38.3 4.95 37.9 4.9
Q 37.55 4.9 37.35 5.15 Z"/>
</g>

<g id="IT_300x250_psd_Asset_3_ManagedWiFi_IT_Research_DM9_1_copy_2_Looking_to_evaluate__your_network_for_a_better__management_solu_0_Layer0_0_MEMBER_27_FILL">
<path fill="#D82C26" stroke="none" d="
M 41.55 5
L 41 5 39.4 6.55 39.35 6.55 39.35 2.8 38.95 2.9 38.95 8.45 39.35 8.45 39.35 6.65 39.4 6.65 41.15 8.45 41.75 8.45 39.85 6.6 41.55 5 Z"/>
</g>

<g id="IT_300x250_psd_Asset_3_ManagedWiFi_IT_Research_DM9_1_copy_2_Looking_to_evaluate__your_network_for_a_better__management_solu_0_Layer0_0_MEMBER_28_FILL">
<path fill="#D82C26" stroke="none" d="
M 45.65 3.2
L 45.7 2.85 45.05 2.75
Q 44.55 2.75 44.25 3.1 43.95 3.4 43.95 4
L 43.95 5 43.35 5 43.25 5.35 44 5.35 44 8.45 44.4 8.45 44.4 5.35 45.2 5.35 45.3 5 44.4 5 44.4 4
Q 44.4 3.65 44.55 3.4 44.7 3.15 45.1 3.15
L 45.65 3.2 Z"/>
</g>

<g id="IT_300x250_psd_Asset_3_ManagedWiFi_IT_Research_DM9_1_copy_2_Looking_to_evaluate__your_network_for_a_better__management_solu_0_Layer0_0_MEMBER_29_FILL">
<path fill="#D82C26" stroke="none" d="
M 49 5.8
Q 48.8 5.35 48.35 5.15 48 4.9 47.4 4.9 46.85 4.9 46.45 5.15 46 5.45 45.8 5.8 45.55 6.2 45.55 6.75 45.55 7.2 45.8 7.7 46.05 8.1 46.45 8.35 46.95 8.6 47.4 8.6 47.85 8.6 48.35 8.35 48.7 8.15 49 7.7 49.25 7.35 49.25 6.75 49.25 6.1 49 5.8
M 48.15 5.45
Q 48.55 5.75 48.65 6 48.8 6.3 48.8 6.75 48.8 7.15 48.65 7.45 48.55 7.7 48.15 8 47.9 8.2 47.4 8.2 46.9 8.2 46.65 8 46.35 7.75 46.15 7.45 46 7.15 46 6.75 46 6.3 46.15 6 46.35 5.7 46.65 5.45 47.05 5.25 47.4 5.25 47.75 5.25 48.15 5.45 Z"/>
</g>

<g id="IT_300x250_psd_Asset_3_ManagedWiFi_IT_Research_DM9_1_copy_2_Looking_to_evaluate__your_network_for_a_better__management_solu_0_Layer0_0_MEMBER_30_FILL">
<path fill="#D82C26" stroke="none" d="
M 51.65 4.9
Q 51.25 4.9 51.05 5.15 50.75 5.4 50.6 5.75
L 50.55 5 50.15 5 50.2 8.45 50.6 8.45 50.6 6.75
Q 50.6 6.15 50.9 5.7 51.15 5.3 51.6 5.3
L 51.9 5.35 52 4.95 51.65 4.9 Z"/>
</g>

<g id="IT_300x250_psd_Asset_3_ManagedWiFi_IT_Research_DM9_1_copy_2_Looking_to_evaluate__your_network_for_a_better__management_solu_0_Layer0_0_MEMBER_31_FILL">
<path fill="#D82C26" stroke="none" d="
M 54.55 5.35
L 55.15 5.25
Q 55.65 5.25 55.85 5.5 56.1 5.7 56.1 6.2
L 56.1 6.4 55.7 6.4
Q 53.7 6.4 53.7 7.55 53.7 8.1 54.05 8.3 54.3 8.55 54.8 8.55 55.25 8.55 55.6 8.35 55.95 8.2 56.1 7.8
L 56.15 7.8 56.15 8.15 56.2 8.45 56.6 8.45 56.55 6.2
Q 56.55 5.55 56.15 5.25 55.85 4.9 55.2 4.9
L 54.5 5
Q 54.1 5.15 53.9 5.35
L 54.05 5.65 54.55 5.35
M 55.55 8.05
Q 55.35 8.25 54.9 8.25 54.55 8.25 54.35 8.05 54.1 7.9 54.1 7.5 54.1 6.7 55.75 6.7
L 56.1 6.7 56.1 7.05 56 7.6
Q 55.85 7.9 55.55 8.05 Z"/>
</g>

<g id="IT_300x250_psd_Asset_3_ManagedWiFi_IT_Research_DM9_1_copy_2_Looking_to_evaluate__your_network_for_a_better__management_solu_0_Layer0_0_MEMBER_32_FILL">
<path fill="#D82C26" stroke="none" d="
M 62.5 5.8
Q 62.3 5.4 61.9 5.15 61.4 4.9 60.95 4.9 60.5 4.9 60.15 5.1 59.8 5.3 59.55 5.75
L 59.55 2.8 59.1 2.85 59.1 8.45 59.5 8.45 59.55 7.7
Q 59.7 8.1 60.15 8.35 60.5 8.55 60.95 8.55 61.5 8.55 61.9 8.35 62.3 8 62.5 7.65 62.7 7.3 62.7 6.75 62.7 6.2 62.5 5.8
M 61.65 5.45
Q 61.95 5.65 62.1 6 62.3 6.5 62.3 6.75 62.3 7.05 62.1 7.45 62 7.75 61.65 8 61.4 8.2 60.9 8.2 60.45 8.2 60.2 8 59.9 7.75 59.7 7.45 59.55 7.15 59.55 6.75 59.55 6.4 59.7 6
L 60.2 5.45
Q 60.6 5.25 60.9 5.25 61.25 5.25 61.65 5.45 Z"/>
</g>

<g id="IT_300x250_psd_Asset_3_ManagedWiFi_IT_Research_DM9_1_copy_2_Looking_to_evaluate__your_network_for_a_better__management_solu_0_Layer0_0_MEMBER_33_FILL">
<path fill="#D82C26" stroke="none" d="
M 66.6 5.75
Q 66.35 5.35 66.05 5.1 65.7 4.9 65.15 4.9 64.65 4.9 64.25 5.15 63.9 5.4 63.65 5.75 63.4 6.25 63.4 6.7 63.4 7.2 63.65 7.7 63.95 8.15 64.3 8.35 64.7 8.6 65.2 8.6 66 8.6 66.6 8.15
L 66.5 7.75 65.95 8.1
Q 65.75 8.2 65.25 8.2 64.9 8.2 64.5 8.05 64.15 7.8 64.05 7.5 63.85 7.25 63.85 6.8
L 66.8 6.8 66.8 6.6
Q 66.8 6.1 66.6 5.75
M 64.45 5.45
Q 64.7 5.25 65.15 5.25 65.7 5.25 66.05 5.55 66.35 5.9 66.4 6.5
L 63.85 6.5
Q 63.85 6.2 64 5.9 64.15 5.6 64.45 5.45 Z"/>
</g>

<g id="IT_300x250_psd_Asset_3_ManagedWiFi_IT_Research_DM9_1_copy_2_Looking_to_evaluate__your_network_for_a_better__management_solu_0_Layer0_0_MEMBER_34_FILL">
<path fill="#D82C26" stroke="none" d="
M 68.2 5
L 68.2 4 67.8 4.15 67.8 5 67.25 5 67.15 5.35 67.8 5.35 67.8 7.65
Q 67.8 8.1 68 8.3 68.25 8.55 68.6 8.55
L 69 8.5 69.35 8.35 69.3 8.05
Q 68.95 8.2 68.7 8.2 68.5 8.2 68.35 8.05 68.2 7.9 68.2 7.6
L 68.2 5.35 69.1 5.35 69.2 5 68.2 5 Z"/>
</g>

<g id="IT_300x250_psd_Asset_3_ManagedWiFi_IT_Research_DM9_1_copy_2_Looking_to_evaluate__your_network_for_a_better__management_solu_0_Layer0_0_MEMBER_35_FILL">
<path fill="#D82C26" stroke="none" d="
M 71.6 5.35
L 71.7 5 70.7 5 70.7 4 70.25 4.15 70.25 5 69.7 5 69.6 5.35 70.25 5.35 70.25 7.65
Q 70.25 8.05 70.5 8.3 70.65 8.55 71.05 8.55
L 71.45 8.5 71.8 8.35 71.75 8.05
Q 71.45 8.2 71.2 8.2 70.95 8.2 70.85 8.05 70.7 7.9 70.7 7.6
L 70.7 5.35 71.6 5.35 Z"/>
</g>

<g id="IT_300x250_psd_Asset_3_ManagedWiFi_IT_Research_DM9_1_copy_2_Looking_to_evaluate__your_network_for_a_better__management_solu_0_Layer0_0_MEMBER_36_FILL">
<path fill="#D82C26" stroke="none" d="
M 72.95 5.15
Q 72.6 5.4 72.35 5.75 72.15 6.15 72.15 6.7 72.15 7.3 72.35 7.7 72.65 8.15 73 8.35 73.4 8.6 73.9 8.6 74.7 8.6 75.3 8.15
L 75.2 7.75 74.65 8.1
Q 74.45 8.2 73.95 8.2 73.55 8.2 73.25 8.05 72.9 7.85 72.75 7.5 72.55 7.25 72.55 6.8
L 75.5 6.8 75.5 6.6
Q 75.5 6.1 75.3 5.75 75.2 5.45 74.75 5.1 74.4 4.9 73.85 4.9 73.35 4.9 72.95 5.15
M 73.85 5.25
Q 74.4 5.25 74.75 5.55 75.1 6 75.1 6.5
L 72.55 6.5
Q 72.55 6.2 72.7 5.9 72.95 5.55 73.15 5.45 73.4 5.25 73.85 5.25 Z"/>
</g>

<g id="IT_300x250_psd_Asset_3_ManagedWiFi_IT_Research_DM9_1_copy_2_Looking_to_evaluate__your_network_for_a_better__management_solu_0_Layer0_0_MEMBER_37_FILL">
<path fill="#D82C26" stroke="none" d="
M 76.8 5
L 76.4 5 76.4 8.45 76.85 8.45 76.85 6.75
Q 76.85 6.2 77.1 5.7 77.4 5.3 77.85 5.3
L 78.15 5.35 78.25 4.95 77.85 4.9
Q 77.5 4.9 77.25 5.15 77 5.3 76.85 5.75
L 76.8 5 Z"/>
</g>

<g id="IT_300x250_psd_Asset_3_ManagedWiFi_IT_Research_DM9_1_copy_2_Looking_to_evaluate__your_network_for_a_better__management_solu_0_Layer0_0_MEMBER_38_FILL">
<path fill="#D82C26" stroke="none" d="
M 6 14.85
Q 6 14.25 5.7 13.8 5.35 13.35 4.7 13.35 4.35 13.35 3.95 13.6 3.6 13.85 3.45 14.25 3.25 13.75 3.05 13.6 2.7 13.35 2.35 13.35 1.95 13.35 1.6 13.6 1.3 13.85 1.15 14.2
L 1.1 14.2 1.05 13.5 0.65 13.5 0.7 16.95 1.15 16.95 1.15 15.2
Q 1.15 14.8 1.3 14.4
L 1.65 13.9
Q 1.95 13.75 2.2 13.75 2.7 13.75 2.9 14.05 3.1 14.45 3.1 14.9
L 3.1 16.95 3.55 16.95 3.55 15.15
Q 3.55 14.55 3.85 14.15 4.1 13.75 4.65 13.75 5.15 13.75 5.35 14.1 5.55 14.5 5.55 14.95
L 5.55 16.95 6 16.95 6 14.85 Z"/>
</g>

<g id="IT_300x250_psd_Asset_3_ManagedWiFi_IT_Research_DM9_1_copy_2_Looking_to_evaluate__your_network_for_a_better__management_solu_0_Layer0_0_MEMBER_39_FILL">
<path fill="#D82C26" stroke="none" d="
M 8.35 13.35
Q 7.95 13.35 7.65 13.5 7.3 13.6 7.05 13.8
L 7.15 14.15
Q 7.35 13.95 7.7 13.85 8 13.7 8.25 13.7 8.65 13.7 9 13.95 9.25 14.2 9.25 14.65
L 9.25 14.85 8.85 14.85
Q 6.85 14.85 6.85 16 6.85 16.5 7.2 16.8 7.55 17.05 7.95 17.05 8.4 17.05 8.75 16.85 9.1 16.65 9.25 16.25
L 9.3 16.25 9.3 16.65 9.35 16.95 9.75 16.95 9.65 16.2 9.65 14.7
Q 9.65 14 9.3 13.7 8.95 13.35 8.35 13.35
M 8.9 15.15
L 9.25 15.15 9.25 15.5
Q 9.25 15.85 9.1 16.05 9.05 16.3 8.7 16.55 8.5 16.7 8.05 16.7 7.75 16.7 7.5 16.55 7.25 16.4 7.25 16 7.25 15.15 8.9 15.15 Z"/>
</g>

<g id="IT_300x250_psd_Asset_3_ManagedWiFi_IT_Research_DM9_1_copy_2_Looking_to_evaluate__your_network_for_a_better__management_solu_0_Layer0_0_MEMBER_40_FILL">
<path fill="#D82C26" stroke="none" d="
M 13.75 14.85
Q 13.75 14.2 13.45 13.8 13.15 13.35 12.5 13.35 12.1 13.35 11.7 13.6 11.35 13.9 11.2 14.2
L 11.15 13.5 10.75 13.5 10.8 16.95 11.25 16.95 11.25 15.15
Q 11.25 14.7 11.4 14.4 11.6 14.05 11.8 13.9 12.1 13.75 12.4 13.75 12.9 13.75 13.1 14.1 13.35 14.45 13.35 14.95
L 13.35 16.95 13.75 16.95 13.75 14.85 Z"/>
</g>

<g id="IT_300x250_psd_Asset_3_ManagedWiFi_IT_Research_DM9_1_copy_2_Looking_to_evaluate__your_network_for_a_better__management_solu_0_Layer0_0_MEMBER_41_FILL">
<path fill="#D82C26" stroke="none" d="
M 16.15 13.35
L 15.4 13.5
Q 15.05 13.6 14.85 13.8
L 14.95 14.15
Q 15.2 13.9 15.5 13.85 15.8 13.7 16.05 13.7 16.45 13.7 16.8 13.95 17.05 14.2 17.05 14.65
L 17.05 14.85 16.65 14.85
Q 14.65 14.85 14.65 16 14.65 16.5 14.95 16.8 15.35 17.05 15.75 17.05 16.2 17.05 16.55 16.85 16.9 16.55 17.05 16.25
L 17.1 16.65 17.1 16.95 17.5 16.95 17.45 14.7
Q 17.45 14 17.1 13.7 16.65 13.35 16.15 13.35
M 16.7 15.15
L 17.05 15.15 17.05 15.5
Q 17.05 15.85 16.9 16.05 16.75 16.35 16.5 16.55 16.2 16.7 15.85 16.7 15.55 16.7 15.3 16.55 15.05 16.4 15.05 16 15.05 15.15 16.7 15.15 Z"/>
</g>

<g id="IT_300x250_psd_Asset_3_ManagedWiFi_IT_Research_DM9_1_copy_2_Looking_to_evaluate__your_network_for_a_better__management_solu_0_Layer0_0_MEMBER_42_FILL">
<path fill="#D82C26" stroke="none" d="
M 21.5 14.25
Q 21.3 13.85 20.9 13.6 20.5 13.35 20.1 13.35 19.6 13.35 19.2 13.6 18.75 13.9 18.55 14.3 18.35 14.65 18.35 15.2 18.35 15.75 18.55 16.15 18.8 16.55 19.2 16.75 19.5 17 20.1 17 20.55 17 20.9 16.8 21.25 16.6 21.5 16.15
L 21.5 16.9
Q 21.5 17.65 21.15 18 20.85 18.4 20.05 18.4 19.65 18.4 19.35 18.25 18.95 18.15 18.65 17.95
L 18.55 18.35
Q 18.85 18.55 19.25 18.65 19.55 18.75 20.1 18.75 21.05 18.75 21.5 18.25 21.95 17.75 21.95 16.9
L 21.95 13.5 21.55 13.5 21.5 14.25
M 21.35 14.45
Q 21.55 14.95 21.55 15.2 21.55 15.45 21.35 15.95 21.2 16.3 20.85 16.45 20.6 16.65 20.15 16.65 19.7 16.65 19.45 16.45 19.1 16.25 18.95 15.95
L 18.8 15.2 18.95 14.45
Q 19.15 14.1 19.45 13.95 19.7 13.75 20.15 13.75 20.6 13.75 20.85 13.95 21.2 14.1 21.35 14.45 Z"/>
</g>

<g id="IT_300x250_psd_Asset_3_ManagedWiFi_IT_Research_DM9_1_copy_2_Looking_to_evaluate__your_network_for_a_better__management_solu_0_Layer0_0_MEMBER_43_FILL">
<path fill="#D82C26" stroke="none" d="
M 26.05 14.2
Q 25.8 13.8 25.5 13.6 25.1 13.35 24.6 13.35 24.1 13.35 23.7 13.6 23.3 13.85 23.1 14.25 22.85 14.65 22.85 15.2 22.85 15.65 23.1 16.15 23.3 16.6 23.75 16.8 24.15 17.05 24.65 17.05 25.45 17.05 26.05 16.6
L 25.95 16.25
Q 25.55 16.5 25.4 16.55
L 24.7 16.7
Q 24.2 16.7 23.95 16.5
L 23.45 16
Q 23.3 15.65 23.3 15.25
L 26.25 15.25 26.25 15.1
Q 26.25 14.8 26.05 14.2
M 25.45 14.05
Q 25.8 14.35 25.8 14.95
L 23.3 14.95
Q 23.3 14.7 23.45 14.4 23.6 14.15 23.9 13.9 24.15 13.7 24.6 13.7 25.15 13.7 25.45 14.05 Z"/>
</g>

<g id="IT_300x250_psd_Asset_3_ManagedWiFi_IT_Research_DM9_1_copy_2_Looking_to_evaluate__your_network_for_a_better__management_solu_0_Layer0_0_MEMBER_44_FILL">
<path fill="#D82C26" stroke="none" d="
M 28.8 13.35
Q 28.45 13.35 28.05 13.6 27.75 13.85 27.6 14.2
L 27.55 14.2 27.55 13.5 27.15 13.5 27.15 16.95 27.6 16.95 27.6 15.2
Q 27.6 14.8 27.75 14.4 27.9 14.1 28.15 13.9 28.4 13.75 28.7 13.75 29.15 13.75 29.35 14.05 29.55 14.3 29.55 14.9
L 29.55 16.95 30 16.95 30 15.15
Q 30 14.55 30.3 14.15 30.55 13.75 31.1 13.75 31.6 13.75 31.8 14.1 32 14.35 32 14.95
L 32 16.95 32.45 16.95 32.45 14.85
Q 32.45 14.25 32.15 13.8 31.85 13.35 31.2 13.35 30.8 13.35 30.4 13.6 30.2 13.75 29.9 14.25 29.8 13.85 29.5 13.6 29.15 13.35 28.8 13.35 Z"/>
</g>

<g id="IT_300x250_psd_Asset_3_ManagedWiFi_IT_Research_DM9_1_copy_2_Looking_to_evaluate__your_network_for_a_better__management_solu_0_Layer0_0_MEMBER_45_FILL">
<path fill="#D82C26" stroke="none" d="
M 36.5 14.2
Q 36.35 13.85 35.95 13.6 35.55 13.35 35.05 13.35 34.6 13.35 34.2 13.6 33.75 13.8 33.55 14.25 33.35 14.6 33.35 15.2 33.35 15.75 33.55 16.15 33.75 16.5 34.2 16.8 34.6 17.05 35.1 17.05 35.9 17.05 36.5 16.6
L 36.45 16.25
Q 36.05 16.5 35.85 16.55 35.55 16.7 35.15 16.7 34.7 16.7 34.45 16.5 34.05 16.2 33.95 16 33.75 15.5 33.75 15.25
L 36.7 15.25 36.7 15.1
Q 36.7 14.6 36.5 14.2
M 35.95 14.05
Q 36.3 14.4 36.3 14.95
L 33.75 14.95 33.95 14.4
Q 34.1 14.15 34.4 13.9 34.6 13.7 35.05 13.7 35.65 13.7 35.95 14.05 Z"/>
</g>

<g id="IT_300x250_psd_Asset_3_ManagedWiFi_IT_Research_DM9_1_copy_2_Looking_to_evaluate__your_network_for_a_better__management_solu_0_Layer0_0_MEMBER_46_FILL">
<path fill="#D82C26" stroke="none" d="
M 40.6 16.95
L 40.6 14.85
Q 40.6 14.2 40.3 13.8 40 13.35 39.3 13.35 38.95 13.35 38.55 13.6 38.2 13.9 38.05 14.2
L 38 13.5 37.6 13.5 37.65 16.95 38.05 16.95 38.05 15.15
Q 38.05 14.7 38.2 14.4 38.55 13.95 38.65 13.9 38.9 13.75 39.25 13.75 39.75 13.75 39.95 14.1 40.15 14.35 40.15 14.95
L 40.15 16.95 40.6 16.95 Z"/>
</g>

<g id="IT_300x250_psd_Asset_3_ManagedWiFi_IT_Research_DM9_1_copy_2_Looking_to_evaluate__your_network_for_a_better__management_solu_0_Layer0_0_MEMBER_47_FILL">
<path fill="#D82C26" stroke="none" d="
M 43.15 13.8
L 43.2 13.5 42.25 13.5 42.25 12.5 41.8 12.65 41.8 13.5 41.25 13.5 41.15 13.8 41.8 13.8 41.8 16.1
Q 41.8 16.4 42 16.8 42.2 17 42.6 17
L 43 16.95 43.35 16.85 43.3 16.5
Q 43 16.65 42.75 16.65 42.5 16.65 42.35 16.5
L 42.25 16.05 42.25 13.8 43.15 13.8 Z"/>
</g>

<g id="IT_300x250_psd_Asset_3_ManagedWiFi_IT_Research_DM9_1_copy_2_Looking_to_evaluate__your_network_for_a_better__management_solu_0_Layer0_0_MEMBER_48_FILL">
<path fill="#D82C26" stroke="none" d="
M 47.45 13.75
L 46.95 13.5
Q 46.65 13.35 46.35 13.35
L 45.8 13.45
Q 45.5 13.6 45.35 13.8 45.2 14.05 45.2 14.3 45.2 14.75 45.45 14.95
L 46.15 15.3
Q 46.7 15.45 46.9 15.65 47.15 15.8 47.15 16.05 47.15 16.3 46.9 16.55 46.7 16.7 46.35 16.7 45.7 16.7 45.2 16.3
L 45.1 16.65 45.65 16.95 46.35 17.05 46.95 16.95 47.4 16.6
Q 47.55 16.4 47.55 16.05 47.55 15.65 47.3 15.4 47.1 15.25 46.45 15
L 45.8 14.7
Q 45.6 14.55 45.6 14.3 45.6 14 45.8 13.85 46.05 13.7 46.35 13.7
L 46.85 13.8 47.25 14.05 47.45 13.75 Z"/>
</g>

<g id="IT_300x250_psd_Asset_3_ManagedWiFi_IT_Research_DM9_1_copy_2_Looking_to_evaluate__your_network_for_a_better__management_solu_0_Layer0_0_MEMBER_49_FILL">
<path fill="#D82C26" stroke="none" d="
M 48.45 14.25
Q 48.2 14.65 48.2 15.2 48.2 15.8 48.45 16.15 48.65 16.6 49.1 16.8 49.5 17.05 50.05 17.05 50.5 17.05 51 16.8 51.45 16.5 51.65 16.15 51.9 15.65 51.9 15.2 51.9 14.75 51.65 14.25 51.45 13.9 51 13.6 50.5 13.35 50.05 13.35 49.5 13.35 49.1 13.6 48.65 13.8 48.45 14.25
M 49.3 13.95
Q 49.55 13.75 50.05 13.75 50.45 13.75 50.8 13.95 51.05 14.1 51.25 14.45 51.45 14.8 51.45 15.2
L 51.3 15.95 50.8 16.5
Q 50.3 16.7 50.05 16.7 49.7 16.7 49.3 16.5 49 16.3 48.8 15.95 48.6 15.45 48.6 15.2 48.6 14.95 48.8 14.45 49 14.1 49.3 13.95 Z"/>
</g>

<g id="IT_300x250_psd_Asset_3_ManagedWiFi_IT_Research_DM9_1_copy_2_Looking_to_evaluate__your_network_for_a_better__management_solu_0_Layer0_0_MEMBER_50_FILL">
<path fill="#D82C26" stroke="none" d="
M 52.95 16.75
L 53.35 17.05 53.55 16.65 53.3 16.45 53.25 16.1 53.25 11.3 52.8 11.4 52.8 16.15
Q 52.8 16.55 52.95 16.75 Z"/>
</g>

<g id="IT_300x250_psd_Asset_3_ManagedWiFi_IT_Research_DM9_1_copy_2_Looking_to_evaluate__your_network_for_a_better__management_solu_0_Layer0_0_MEMBER_51_FILL">
<path fill="#D82C26" stroke="none" d="
M 56.9 13.5
L 56.9 15.2
Q 56.9 15.7 56.75 16 56.6 16.4 56.35 16.5 56.15 16.7 55.75 16.7 55.25 16.7 55.05 16.35 54.8 15.95 54.8 15.5
L 54.8 13.5 54.4 13.5 54.4 15.6
Q 54.4 16.2 54.7 16.65 55 17.05 55.65 17.05 56.05 17.05 56.4 16.8 56.75 16.6 56.9 16.2
L 57 16.95 57.4 16.95 57.35 16.55 57.35 13.5 56.9 13.5 Z"/>
</g>

<g id="IT_300x250_psd_Asset_3_ManagedWiFi_IT_Research_DM9_1_copy_2_Looking_to_evaluate__your_network_for_a_better__management_solu_0_Layer0_0_MEMBER_52_FILL">
<path fill="#D82C26" stroke="none" d="
M 58.7 12.65
L 58.7 13.5 58.1 13.5 58.05 13.8 58.7 13.8 58.7 16.1
Q 58.7 16.55 58.9 16.8 59.1 17 59.5 17
L 59.9 16.95 60.25 16.85 60.2 16.5
Q 59.85 16.65 59.6 16.65 59.4 16.65 59.25 16.5 59.1 16.35 59.1 16.05
L 59.1 13.8 60 13.8 60.1 13.5 59.1 13.5 59.1 12.5 58.7 12.65 Z"/>
</g>

<g id="IT_300x250_psd_Asset_3_ManagedWiFi_IT_Research_DM9_1_copy_2_Looking_to_evaluate__your_network_for_a_better__management_solu_0_Layer0_0_MEMBER_53_FILL">
<path fill="#D82C26" stroke="none" d="
M 60.9 13.5
L 60.9 16.95 61.35 16.95 61.35 13.5 60.9 13.5
M 60.8 12.1
L 60.9 12.3 61.1 12.4 61.35 12.3 61.45 12.1 61.35 11.85 61.1 11.75 60.9 11.85 60.8 12.1 Z"/>
</g>

<g id="IT_300x250_psd_Asset_3_ManagedWiFi_IT_Research_DM9_1_copy_2_Looking_to_evaluate__your_network_for_a_better__management_solu_0_Layer0_0_MEMBER_54_FILL">
<path fill="#D82C26" stroke="none" d="
M 65.05 13.6
Q 64.55 13.35 64.1 13.35 63.65 13.35 63.15 13.6 62.7 13.9 62.5 14.25 62.25 14.75 62.25 15.2 62.25 15.65 62.5 16.15 62.7 16.5 63.15 16.8 63.65 17.05 64.1 17.05 64.55 17.05 65.05 16.8 65.5 16.6 65.7 16.15 65.95 15.8 65.95 15.2 65.95 14.65 65.7 14.25 65.5 13.8 65.05 13.6
M 65.35 14.45
L 65.5 15.2 65.35 15.95
Q 65.2 16.25 64.85 16.5 64.45 16.7 64.1 16.7 63.75 16.7 63.35 16.5
L 62.85 15.95 62.7 15.2 62.85 14.45
Q 63.15 14.05 63.35 13.95 63.6 13.75 64.1 13.75 64.6 13.75 64.85 13.95 65.2 14.1 65.35 14.45 Z"/>
</g>

<g id="IT_300x250_psd_Asset_3_ManagedWiFi_IT_Research_DM9_1_copy_2_Looking_to_evaluate__your_network_for_a_better__management_solu_0_Layer0_0_MEMBER_55_FILL">
<path fill="#D82C26" stroke="none" d="
M 69.55 13.8
Q 69.25 13.35 68.55 13.35 68.2 13.35 67.8 13.6 67.45 13.9 67.3 14.2
L 67.25 13.5 66.85 13.5 66.9 16.95 67.3 16.95 67.3 15.15
Q 67.3 14.7 67.45 14.4 67.65 14.05 67.9 13.9 68.15 13.75 68.5 13.75 69 13.75 69.2 14.1 69.4 14.35 69.4 14.95
L 69.4 16.95 69.85 16.95 69.85 14.85
Q 69.85 14.2 69.55 13.8 Z"/>
</g>

<g id="IT_300x250_psd_Asset_3_ManagedWiFi_IT_Research_DM9_1_copy_2_Looking_to_evaluate__your_network_for_a_better__management_solu_0_Layer0_0_MEMBER_56_FILL">
<path fill="#D82C26" stroke="none" d="
M 71.65 11.95
Q 72.1 11.95 72.35 12.2 72.65 12.45 72.65 12.85
L 72.6 13.3 71.55 14.6
Q 71.4 14.9 71.4 15.2
L 71.4 15.45 71.85 15.45 71.85 15.3 71.9 14.85 72.05 14.55 72.8 13.75 73 13.35
Q 73.1 13.2 73.1 12.85 73.1 12.4 72.9 12.15 72.75 11.9 72.4 11.7 72.1 11.55 71.7 11.55 71.3 11.55 70.8 11.75 70.45 11.9 70.2 12.2
L 70.4 12.55
Q 70.7 12.25 70.95 12.15 71.2 11.95 71.65 11.95
M 71.45 16.9
L 71.65 17 71.9 16.9 72 16.65 71.9 16.45
Q 71.8 16.35 71.65 16.35 71.5 16.35 71.45 16.45 71.35 16.5 71.35 16.65 71.35 16.85 71.45 16.9 Z"/>
</g>
</defs>

<g transform="matrix( 1, 0, 0, 1, -5,-40) ">
<g transform="matrix( 1, 0, 0, 1, 0,53) ">
<g transform="matrix( 1, 0, 0, 1, 27,9) ">
<g transform="matrix( 2.815704345703125, 0, 0, 2.832611083984375, 0.15,16.6) ">
<use xlink:href="#IT_300x250_psd_Asset_3_ManagedWiFi_IT_Research_DM9_1_copy_2_Looking_to_evaluate__your_network_for_a_better__management_solu_0_Layer0_0_MEMBER_0_FILL"/>
</g>

<g transform="matrix( 2.815704345703125, 0, 0, 2.832611083984375, 0.15,16.6) ">
<use xlink:href="#IT_300x250_psd_Asset_3_ManagedWiFi_IT_Research_DM9_1_copy_2_Looking_to_evaluate__your_network_for_a_better__management_solu_0_Layer0_0_MEMBER_1_FILL"/>
</g>

<g transform="matrix( 2.815704345703125, 0, 0, 2.832611083984375, 0.15,16.6) ">
<use xlink:href="#IT_300x250_psd_Asset_3_ManagedWiFi_IT_Research_DM9_1_copy_2_Looking_to_evaluate__your_network_for_a_better__management_solu_0_Layer0_0_MEMBER_2_FILL"/>
</g>

<g transform="matrix( 2.815704345703125, 0, 0, 2.832611083984375, 0.15,16.6) ">
<use xlink:href="#IT_300x250_psd_Asset_3_ManagedWiFi_IT_Research_DM9_1_copy_2_Looking_to_evaluate__your_network_for_a_better__management_solu_0_Layer0_0_MEMBER_3_FILL"/>
</g>

<g transform="matrix( 2.815704345703125, 0, 0, 2.832611083984375, 0.15,16.6) ">
<use xlink:href="#IT_300x250_psd_Asset_3_ManagedWiFi_IT_Research_DM9_1_copy_2_Looking_to_evaluate__your_network_for_a_better__management_solu_0_Layer0_0_MEMBER_4_FILL"/>
</g>

<g transform="matrix( 2.815704345703125, 0, 0, 2.832611083984375, 0.15,16.6) ">
<use xlink:href="#IT_300x250_psd_Asset_3_ManagedWiFi_IT_Research_DM9_1_copy_2_Looking_to_evaluate__your_network_for_a_better__management_solu_0_Layer0_0_MEMBER_5_FILL"/>
</g>

<g transform="matrix( 2.815704345703125, 0, 0, 2.832611083984375, 0.15,16.6) ">
<use xlink:href="#IT_300x250_psd_Asset_3_ManagedWiFi_IT_Research_DM9_1_copy_2_Looking_to_evaluate__your_network_for_a_better__management_solu_0_Layer0_0_MEMBER_6_FILL"/>
</g>

<g transform="matrix( 2.815704345703125, 0, 0, 2.832611083984375, 0.15,16.6) ">
<use xlink:href="#IT_300x250_psd_Asset_3_ManagedWiFi_IT_Research_DM9_1_copy_2_Looking_to_evaluate__your_network_for_a_better__management_solu_0_Layer0_0_MEMBER_7_FILL"/>
</g>

<g transform="matrix( 2.815704345703125, 0, 0, 2.832611083984375, 0.15,16.6) ">
<use xlink:href="#IT_300x250_psd_Asset_3_ManagedWiFi_IT_Research_DM9_1_copy_2_Looking_to_evaluate__your_network_for_a_better__management_solu_0_Layer0_0_MEMBER_8_FILL"/>
</g>

<g transform="matrix( 2.815704345703125, 0, 0, 2.832611083984375, 0.15,16.6) ">
<use xlink:href="#IT_300x250_psd_Asset_3_ManagedWiFi_IT_Research_DM9_1_copy_2_Looking_to_evaluate__your_network_for_a_better__management_solu_0_Layer0_0_MEMBER_9_FILL"/>
</g>

<g transform="matrix( 2.815704345703125, 0, 0, 2.832611083984375, 0.15,16.6) ">
<use xlink:href="#IT_300x250_psd_Asset_3_ManagedWiFi_IT_Research_DM9_1_copy_2_Looking_to_evaluate__your_network_for_a_better__management_solu_0_Layer0_0_MEMBER_10_FILL"/>
</g>

<g transform="matrix( 2.815704345703125, 0, 0, 2.832611083984375, 0.15,16.6) ">
<use xlink:href="#IT_300x250_psd_Asset_3_ManagedWiFi_IT_Research_DM9_1_copy_2_Looking_to_evaluate__your_network_for_a_better__management_solu_0_Layer0_0_MEMBER_11_FILL"/>
</g>

<g transform="matrix( 2.815704345703125, 0, 0, 2.832611083984375, 0.15,16.6) ">
<use xlink:href="#IT_300x250_psd_Asset_3_ManagedWiFi_IT_Research_DM9_1_copy_2_Looking_to_evaluate__your_network_for_a_better__management_solu_0_Layer0_0_MEMBER_12_FILL"/>
</g>

<g transform="matrix( 2.815704345703125, 0, 0, 2.832611083984375, 0.15,16.6) ">
<use xlink:href="#IT_300x250_psd_Asset_3_ManagedWiFi_IT_Research_DM9_1_copy_2_Looking_to_evaluate__your_network_for_a_better__management_solu_0_Layer0_0_MEMBER_13_FILL"/>
</g>

<g transform="matrix( 2.815704345703125, 0, 0, 2.832611083984375, 0.15,16.6) ">
<use xlink:href="#IT_300x250_psd_Asset_3_ManagedWiFi_IT_Research_DM9_1_copy_2_Looking_to_evaluate__your_network_for_a_better__management_solu_0_Layer0_0_MEMBER_14_FILL"/>
</g>

<g transform="matrix( 2.815704345703125, 0, 0, 2.832611083984375, 0.15,16.6) ">
<use xlink:href="#IT_300x250_psd_Asset_3_ManagedWiFi_IT_Research_DM9_1_copy_2_Looking_to_evaluate__your_network_for_a_better__management_solu_0_Layer0_0_MEMBER_15_FILL"/>
</g>

<g transform="matrix( 2.815704345703125, 0, 0, 2.832611083984375, 0.15,16.6) ">
<use xlink:href="#IT_300x250_psd_Asset_3_ManagedWiFi_IT_Research_DM9_1_copy_2_Looking_to_evaluate__your_network_for_a_better__management_solu_0_Layer0_0_MEMBER_16_FILL"/>
</g>

<g transform="matrix( 2.815704345703125, 0, 0, 2.832611083984375, 0.15,16.6) ">
<use xlink:href="#IT_300x250_psd_Asset_3_ManagedWiFi_IT_Research_DM9_1_copy_2_Looking_to_evaluate__your_network_for_a_better__management_solu_0_Layer0_0_MEMBER_17_FILL"/>
</g>

<g transform="matrix( 2.815704345703125, 0, 0, 2.832611083984375, 0.15,16.6) ">
<use xlink:href="#IT_300x250_psd_Asset_3_ManagedWiFi_IT_Research_DM9_1_copy_2_Looking_to_evaluate__your_network_for_a_better__management_solu_0_Layer0_0_MEMBER_18_FILL"/>
</g>

<g transform="matrix( 2.815704345703125, 0, 0, 2.832611083984375, 0.15,16.6) ">
<use xlink:href="#IT_300x250_psd_Asset_3_ManagedWiFi_IT_Research_DM9_1_copy_2_Looking_to_evaluate__your_network_for_a_better__management_solu_0_Layer0_0_MEMBER_19_FILL"/>
</g>

<g transform="matrix( 2.815704345703125, 0, 0, 2.832611083984375, 0.15,16.6) ">
<use xlink:href="#IT_300x250_psd_Asset_3_ManagedWiFi_IT_Research_DM9_1_copy_2_Looking_to_evaluate__your_network_for_a_better__management_solu_0_Layer0_0_MEMBER_20_FILL"/>
</g>

<g transform="matrix( 2.815704345703125, 0, 0, 2.832611083984375, 0.15,16.6) ">
<use xlink:href="#IT_300x250_psd_Asset_3_ManagedWiFi_IT_Research_DM9_1_copy_2_Looking_to_evaluate__your_network_for_a_better__management_solu_0_Layer0_0_MEMBER_21_FILL"/>
</g>

<g transform="matrix( 2.815704345703125, 0, 0, 2.832611083984375, 0.15,16.6) ">
<use xlink:href="#IT_300x250_psd_Asset_3_ManagedWiFi_IT_Research_DM9_1_copy_2_Looking_to_evaluate__your_network_for_a_better__management_solu_0_Layer0_0_MEMBER_22_FILL"/>
</g>

<g transform="matrix( 2.815704345703125, 0, 0, 2.832611083984375, 0.15,16.6) ">
<use xlink:href="#IT_300x250_psd_Asset_3_ManagedWiFi_IT_Research_DM9_1_copy_2_Looking_to_evaluate__your_network_for_a_better__management_solu_0_Layer0_0_MEMBER_23_FILL"/>
</g>

<g transform="matrix( 2.815704345703125, 0, 0, 2.832611083984375, 0.15,16.6) ">
<use xlink:href="#IT_300x250_psd_Asset_3_ManagedWiFi_IT_Research_DM9_1_copy_2_Looking_to_evaluate__your_network_for_a_better__management_solu_0_Layer0_0_MEMBER_24_FILL"/>
</g>

<g transform="matrix( 2.815704345703125, 0, 0, 2.832611083984375, 0.15,16.6) ">
<use xlink:href="#IT_300x250_psd_Asset_3_ManagedWiFi_IT_Research_DM9_1_copy_2_Looking_to_evaluate__your_network_for_a_better__management_solu_0_Layer0_0_MEMBER_25_FILL"/>
</g>

<g transform="matrix( 2.815704345703125, 0, 0, 2.832611083984375, 0.15,16.6) ">
<use xlink:href="#IT_300x250_psd_Asset_3_ManagedWiFi_IT_Research_DM9_1_copy_2_Looking_to_evaluate__your_network_for_a_better__management_solu_0_Layer0_0_MEMBER_26_FILL"/>
</g>

<g transform="matrix( 2.815704345703125, 0, 0, 2.832611083984375, 0.15,16.6) ">
<use xlink:href="#IT_300x250_psd_Asset_3_ManagedWiFi_IT_Research_DM9_1_copy_2_Looking_to_evaluate__your_network_for_a_better__management_solu_0_Layer0_0_MEMBER_27_FILL"/>
</g>

<g transform="matrix( 2.815704345703125, 0, 0, 2.832611083984375, 0.15,16.6) ">
<use xlink:href="#IT_300x250_psd_Asset_3_ManagedWiFi_IT_Research_DM9_1_copy_2_Looking_to_evaluate__your_network_for_a_better__management_solu_0_Layer0_0_MEMBER_28_FILL"/>
</g>

<g transform="matrix( 2.815704345703125, 0, 0, 2.832611083984375, 0.15,16.6) ">
<use xlink:href="#IT_300x250_psd_Asset_3_ManagedWiFi_IT_Research_DM9_1_copy_2_Looking_to_evaluate__your_network_for_a_better__management_solu_0_Layer0_0_MEMBER_29_FILL"/>
</g>

<g transform="matrix( 2.815704345703125, 0, 0, 2.832611083984375, 0.15,16.6) ">
<use xlink:href="#IT_300x250_psd_Asset_3_ManagedWiFi_IT_Research_DM9_1_copy_2_Looking_to_evaluate__your_network_for_a_better__management_solu_0_Layer0_0_MEMBER_30_FILL"/>
</g>

<g transform="matrix( 2.815704345703125, 0, 0, 2.832611083984375, 0.15,16.6) ">
<use xlink:href="#IT_300x250_psd_Asset_3_ManagedWiFi_IT_Research_DM9_1_copy_2_Looking_to_evaluate__your_network_for_a_better__management_solu_0_Layer0_0_MEMBER_31_FILL"/>
</g>

<g transform="matrix( 2.815704345703125, 0, 0, 2.832611083984375, 0.15,16.6) ">
<use xlink:href="#IT_300x250_psd_Asset_3_ManagedWiFi_IT_Research_DM9_1_copy_2_Looking_to_evaluate__your_network_for_a_better__management_solu_0_Layer0_0_MEMBER_32_FILL"/>
</g>

<g transform="matrix( 2.815704345703125, 0, 0, 2.832611083984375, 0.15,16.6) ">
<use xlink:href="#IT_300x250_psd_Asset_3_ManagedWiFi_IT_Research_DM9_1_copy_2_Looking_to_evaluate__your_network_for_a_better__management_solu_0_Layer0_0_MEMBER_33_FILL"/>
</g>

<g transform="matrix( 2.815704345703125, 0, 0, 2.832611083984375, 0.15,16.6) ">
<use xlink:href="#IT_300x250_psd_Asset_3_ManagedWiFi_IT_Research_DM9_1_copy_2_Looking_to_evaluate__your_network_for_a_better__management_solu_0_Layer0_0_MEMBER_34_FILL"/>
</g>

<g transform="matrix( 2.815704345703125, 0, 0, 2.832611083984375, 0.15,16.6) ">
<use xlink:href="#IT_300x250_psd_Asset_3_ManagedWiFi_IT_Research_DM9_1_copy_2_Looking_to_evaluate__your_network_for_a_better__management_solu_0_Layer0_0_MEMBER_35_FILL"/>
</g>

<g transform="matrix( 2.815704345703125, 0, 0, 2.832611083984375, 0.15,16.6) ">
<use xlink:href="#IT_300x250_psd_Asset_3_ManagedWiFi_IT_Research_DM9_1_copy_2_Looking_to_evaluate__your_network_for_a_better__management_solu_0_Layer0_0_MEMBER_36_FILL"/>
</g>

<g transform="matrix( 2.815704345703125, 0, 0, 2.832611083984375, 0.15,16.6) ">
<use xlink:href="#IT_300x250_psd_Asset_3_ManagedWiFi_IT_Research_DM9_1_copy_2_Looking_to_evaluate__your_network_for_a_better__management_solu_0_Layer0_0_MEMBER_37_FILL"/>
</g>

<g transform="matrix( 2.815704345703125, 0, 0, 2.832611083984375, 0.15,16.6) ">
<use xlink:href="#IT_300x250_psd_Asset_3_ManagedWiFi_IT_Research_DM9_1_copy_2_Looking_to_evaluate__your_network_for_a_better__management_solu_0_Layer0_0_MEMBER_38_FILL"/>
</g>

<g transform="matrix( 2.815704345703125, 0, 0, 2.832611083984375, 0.15,16.6) ">
<use xlink:href="#IT_300x250_psd_Asset_3_ManagedWiFi_IT_Research_DM9_1_copy_2_Looking_to_evaluate__your_network_for_a_better__management_solu_0_Layer0_0_MEMBER_39_FILL"/>
</g>

<g transform="matrix( 2.815704345703125, 0, 0, 2.832611083984375, 0.15,16.6) ">
<use xlink:href="#IT_300x250_psd_Asset_3_ManagedWiFi_IT_Research_DM9_1_copy_2_Looking_to_evaluate__your_network_for_a_better__management_solu_0_Layer0_0_MEMBER_40_FILL"/>
</g>

<g transform="matrix( 2.815704345703125, 0, 0, 2.832611083984375, 0.15,16.6) ">
<use xlink:href="#IT_300x250_psd_Asset_3_ManagedWiFi_IT_Research_DM9_1_copy_2_Looking_to_evaluate__your_network_for_a_better__management_solu_0_Layer0_0_MEMBER_41_FILL"/>
</g>

<g transform="matrix( 2.815704345703125, 0, 0, 2.832611083984375, 0.15,16.6) ">
<use xlink:href="#IT_300x250_psd_Asset_3_ManagedWiFi_IT_Research_DM9_1_copy_2_Looking_to_evaluate__your_network_for_a_better__management_solu_0_Layer0_0_MEMBER_42_FILL"/>
</g>

<g transform="matrix( 2.815704345703125, 0, 0, 2.832611083984375, 0.15,16.6) ">
<use xlink:href="#IT_300x250_psd_Asset_3_ManagedWiFi_IT_Research_DM9_1_copy_2_Looking_to_evaluate__your_network_for_a_better__management_solu_0_Layer0_0_MEMBER_43_FILL"/>
</g>

<g transform="matrix( 2.815704345703125, 0, 0, 2.832611083984375, 0.15,16.6) ">
<use xlink:href="#IT_300x250_psd_Asset_3_ManagedWiFi_IT_Research_DM9_1_copy_2_Looking_to_evaluate__your_network_for_a_better__management_solu_0_Layer0_0_MEMBER_44_FILL"/>
</g>

<g transform="matrix( 2.815704345703125, 0, 0, 2.832611083984375, 0.15,16.6) ">
<use xlink:href="#IT_300x250_psd_Asset_3_ManagedWiFi_IT_Research_DM9_1_copy_2_Looking_to_evaluate__your_network_for_a_better__management_solu_0_Layer0_0_MEMBER_45_FILL"/>
</g>

<g transform="matrix( 2.815704345703125, 0, 0, 2.832611083984375, 0.15,16.6) ">
<use xlink:href="#IT_300x250_psd_Asset_3_ManagedWiFi_IT_Research_DM9_1_copy_2_Looking_to_evaluate__your_network_for_a_better__management_solu_0_Layer0_0_MEMBER_46_FILL"/>
</g>

<g transform="matrix( 2.815704345703125, 0, 0, 2.832611083984375, 0.15,16.6) ">
<use xlink:href="#IT_300x250_psd_Asset_3_ManagedWiFi_IT_Research_DM9_1_copy_2_Looking_to_evaluate__your_network_for_a_better__management_solu_0_Layer0_0_MEMBER_47_FILL"/>
</g>

<g transform="matrix( 2.815704345703125, 0, 0, 2.832611083984375, 0.15,16.6) ">
<use xlink:href="#IT_300x250_psd_Asset_3_ManagedWiFi_IT_Research_DM9_1_copy_2_Looking_to_evaluate__your_network_for_a_better__management_solu_0_Layer0_0_MEMBER_48_FILL"/>
</g>

<g transform="matrix( 2.815704345703125, 0, 0, 2.832611083984375, 0.15,16.6) ">
<use xlink:href="#IT_300x250_psd_Asset_3_ManagedWiFi_IT_Research_DM9_1_copy_2_Looking_to_evaluate__your_network_for_a_better__management_solu_0_Layer0_0_MEMBER_49_FILL"/>
</g>

<g transform="matrix( 2.815704345703125, 0, 0, 2.832611083984375, 0.15,16.6) ">
<use xlink:href="#IT_300x250_psd_Asset_3_ManagedWiFi_IT_Research_DM9_1_copy_2_Looking_to_evaluate__your_network_for_a_better__management_solu_0_Layer0_0_MEMBER_50_FILL"/>
</g>

<g transform="matrix( 2.815704345703125, 0, 0, 2.832611083984375, 0.15,16.6) ">
<use xlink:href="#IT_300x250_psd_Asset_3_ManagedWiFi_IT_Research_DM9_1_copy_2_Looking_to_evaluate__your_network_for_a_better__management_solu_0_Layer0_0_MEMBER_51_FILL"/>
</g>

<g transform="matrix( 2.815704345703125, 0, 0, 2.832611083984375, 0.15,16.6) ">
<use xlink:href="#IT_300x250_psd_Asset_3_ManagedWiFi_IT_Research_DM9_1_copy_2_Looking_to_evaluate__your_network_for_a_better__management_solu_0_Layer0_0_MEMBER_52_FILL"/>
</g>

<g transform="matrix( 2.815704345703125, 0, 0, 2.832611083984375, 0.15,16.6) ">
<use xlink:href="#IT_300x250_psd_Asset_3_ManagedWiFi_IT_Research_DM9_1_copy_2_Looking_to_evaluate__your_network_for_a_better__management_solu_0_Layer0_0_MEMBER_53_FILL"/>
</g>

<g transform="matrix( 2.815704345703125, 0, 0, 2.832611083984375, 0.15,16.6) ">
<use xlink:href="#IT_300x250_psd_Asset_3_ManagedWiFi_IT_Research_DM9_1_copy_2_Looking_to_evaluate__your_network_for_a_better__management_solu_0_Layer0_0_MEMBER_54_FILL"/>
</g>

<g transform="matrix( 2.815704345703125, 0, 0, 2.832611083984375, 0.15,16.6) ">
<use xlink:href="#IT_300x250_psd_Asset_3_ManagedWiFi_IT_Research_DM9_1_copy_2_Looking_to_evaluate__your_network_for_a_better__management_solu_0_Layer0_0_MEMBER_55_FILL"/>
</g>

<g transform="matrix( 2.815704345703125, 0, 0, 2.832611083984375, 0.15,16.6) ">
<use xlink:href="#IT_300x250_psd_Asset_3_ManagedWiFi_IT_Research_DM9_1_copy_2_Looking_to_evaluate__your_network_for_a_better__management_solu_0_Layer0_0_MEMBER_56_FILL"/>
</g>
</g>
</g>
</g>
</svg>
