
<svg xmlns="http://www.w3.org/2000/svg" version="1.1" xmlns:xlink="http://www.w3.org/1999/xlink" preserveAspectRatio="none" x="0px" y="0px" width="300px" height="250px" viewBox="0 0 300 250">
<defs>
<g id="IT_300x250_psd_Asset_3_ManagedWiFi_IT_Research_DM9_2_copy_2_Network_as_a__Service_solutions__can_help_address_____0_Layer0_0_MEMBER_0_FILL">
<path fill="#D82C26" stroke="none" d="
M 1.3 -5.25
L 0.7 -5.25 0.7 0 1.15 0 1.15 -4.65 1.2 -4.65 4.5 0 5.05 0 5.05 -5.25 4.6 -5.25 4.6 -0.65 4.55 -0.65 1.3 -5.25 Z"/>
</g>

<g id="IT_300x250_psd_Asset_3_ManagedWiFi_IT_Research_DM9_2_copy_2_Network_as_a__Service_solutions__can_help_address_____0_Layer0_0_MEMBER_1_FILL">
<path fill="#D82C26" stroke="none" d="
M 8.65 -3.35
Q 8.25 -3.6 7.75 -3.6 7.3 -3.6 6.9 -3.35 6.5 -3.1 6.3 -2.7 6.05 -2.2 6.05 -1.75 6.05 -1.2 6.3 -0.8 6.5 -0.4 6.9 -0.15 7.4 0.1 7.85 0.1 8.7 0.1 9.2 -0.35
L 9.15 -0.7
Q 8.75 -0.45 8.6 -0.4
L 7.85 -0.25
Q 7.4 -0.25 7.15 -0.45 6.95 -0.55 6.65 -0.95
L 6.45 -1.7 9.4 -1.7 9.45 -1.85
Q 9.45 -2.15 9.25 -2.75 9.05 -3.1 8.65 -3.35
M 6.65 -2.55
Q 6.8 -2.8 7.1 -3.05 7.5 -3.25 7.75 -3.25 8.35 -3.25 8.65 -2.9 9 -2.55 9 -2
L 6.5 -2
Q 6.5 -2.25 6.65 -2.55 Z"/>
</g>

<g id="IT_300x250_psd_Asset_3_ManagedWiFi_IT_Research_DM9_2_copy_2_Network_as_a__Service_solutions__can_help_address_____0_Layer0_0_MEMBER_2_FILL">
<path fill="#D82C26" stroke="none" d="
M 9.85 -3.45
L 9.75 -3.15 10.4 -3.15 10.4 -0.85
Q 10.4 -0.4 10.65 -0.15 10.85 0.05 11.25 0.05
L 11.6 0 11.95 -0.1 11.9 -0.45
Q 11.6 -0.3 11.35 -0.3 11.15 -0.3 11 -0.45 10.85 -0.6 10.85 -0.9
L 10.85 -3.15 11.75 -3.15 11.85 -3.45 10.85 -3.45 10.85 -4.45 10.4 -4.3 10.4 -3.45 9.85 -3.45 Z"/>
</g>

<g id="IT_300x250_psd_Asset_3_ManagedWiFi_IT_Research_DM9_2_copy_2_Network_as_a__Service_solutions__can_help_address_____0_Layer0_0_MEMBER_3_FILL">
<path fill="#D82C26" stroke="none" d="
M 12.8 -3.45
L 12.3 -3.45 13.4 0 13.85 0 14.85 -2.95 15.85 0 16.35 0 17.4 -3.45 16.95 -3.45 16.1 -0.5 15.1 -3.45 14.65 -3.45 13.65 -0.5 12.8 -3.45 Z"/>
</g>

<g id="IT_300x250_psd_Asset_3_ManagedWiFi_IT_Research_DM9_2_copy_2_Network_as_a__Service_solutions__can_help_address_____0_Layer0_0_MEMBER_4_FILL">
<path fill="#D82C26" stroke="none" d="
M 19.65 -3.6
Q 19.2 -3.6 18.7 -3.35 18.3 -3.1 18.05 -2.7 17.8 -2.2 17.8 -1.75 17.8 -1.2 18.05 -0.8 18.25 -0.45 18.7 -0.15 19.2 0.1 19.65 0.1 20.2 0.1 20.6 -0.15 21 -0.35 21.3 -0.8 21.5 -1.15 21.5 -1.75 21.5 -2.3 21.3 -2.7 20.9 -3.2 20.6 -3.35 20.2 -3.6 19.65 -3.6
M 18.45 -2.5
Q 18.65 -2.85 18.9 -3 19.25 -3.2 19.65 -3.2 20.15 -3.2 20.4 -3 20.7 -2.85 20.9 -2.5 21.1 -2.15 21.1 -1.75 21.1 -1.35 20.9 -1 20.7 -0.65 20.4 -0.45 20 -0.25 19.65 -0.25 19.4 -0.25 18.9 -0.45 18.6 -0.65 18.45 -1 18.25 -1.35 18.25 -1.75 18.25 -2.15 18.45 -2.5 Z"/>
</g>

<g id="IT_300x250_psd_Asset_3_ManagedWiFi_IT_Research_DM9_2_copy_2_Network_as_a__Service_solutions__can_help_address_____0_Layer0_0_MEMBER_5_FILL">
<path fill="#D82C26" stroke="none" d="
M 23.9 -3.55
Q 23.55 -3.55 23.3 -3.35 23 -3.1 22.85 -2.7
L 22.8 -3.45 22.4 -3.45 22.45 0 22.9 0 22.9 -1.75
Q 22.9 -2.45 23.15 -2.75 23.4 -3.2 23.85 -3.2
L 24.15 -3.15 24.25 -3.5 23.9 -3.55 Z"/>
</g>

<g id="IT_300x250_psd_Asset_3_ManagedWiFi_IT_Research_DM9_2_copy_2_Network_as_a__Service_solutions__can_help_address_____0_Layer0_0_MEMBER_6_FILL">
<path fill="#D82C26" stroke="none" d="
M 25.35 -5.65
L 24.9 -5.6 24.9 0 25.35 0 25.35 -1.8 27.15 0 27.7 0 25.8 -1.9 27.55 -3.45 26.95 -3.45 25.35 -1.9 25.35 -5.65 Z"/>
</g>

<g id="IT_300x250_psd_Asset_3_ManagedWiFi_IT_Research_DM9_2_copy_2_Network_as_a__Service_solutions__can_help_address_____0_Layer0_0_MEMBER_7_FILL">
<path fill="#D82C26" stroke="none" d="
M 29.5 -0.95
Q 29.5 -0.5 29.85 -0.15 30.2 0.1 30.6 0.1 31.05 0.1 31.4 -0.1 31.75 -0.3 31.9 -0.65
L 31.95 -0.65 31.95 -0.3 32 0 32.4 0 32.35 -2.25
Q 32.35 -2.8 32 -3.25 31.55 -3.6 31 -3.6 30.6 -3.6 30.3 -3.45 29.95 -3.35 29.7 -3.15
L 29.85 -2.8 30.35 -3.1
Q 30.65 -3.25 30.95 -3.25 31.4 -3.25 31.65 -3 31.95 -2.75 31.95 -2.3
L 31.95 -2.1 31.5 -2.1
Q 29.5 -2.1 29.5 -0.95
M 30.15 -0.4
Q 29.95 -0.55 29.95 -0.95 29.95 -1.8 31.55 -1.8
L 31.95 -1.8 31.95 -1.45
Q 31.95 -1.15 31.8 -0.85
L 31.4 -0.4
Q 31.1 -0.25 30.7 -0.25 30.4 -0.25 30.15 -0.4 Z"/>
</g>

<g id="IT_300x250_psd_Asset_3_ManagedWiFi_IT_Research_DM9_2_copy_2_Network_as_a__Service_solutions__can_help_address_____0_Layer0_0_MEMBER_8_FILL">
<path fill="#D82C26" stroke="none" d="
M 33.85 -3.45
Q 33.55 -3.35 33.4 -3.15 33.25 -2.9 33.25 -2.6 33.25 -2.2 33.5 -2 33.85 -1.75 34.25 -1.65 34.8 -1.45 34.95 -1.3 35.2 -1.15 35.2 -0.9 35.2 -0.65 34.95 -0.4 34.75 -0.25 34.4 -0.25 33.75 -0.25 33.25 -0.65
L 33.2 -0.3 33.7 0 34.4 0.1 35 0 35.45 -0.35
Q 35.6 -0.55 35.6 -0.9 35.6 -1.2 35.35 -1.55
L 33.85 -2.25
Q 33.65 -2.4 33.65 -2.65 33.65 -2.95 33.85 -3.1 34.1 -3.25 34.4 -3.25
L 34.9 -3.15 35.3 -2.9 35.5 -3.2 35 -3.45
Q 34.7 -3.6 34.4 -3.6 34.1 -3.6 33.85 -3.45 Z"/>
</g>

<g id="IT_300x250_psd_Asset_3_ManagedWiFi_IT_Research_DM9_2_copy_2_Network_as_a__Service_solutions__can_help_address_____0_Layer0_0_MEMBER_9_FILL">
<path fill="#D82C26" stroke="none" d="
M 38.5 -3.1
Q 38.8 -3.25 39.1 -3.25 39.55 -3.25 39.8 -3 40.05 -2.8 40.05 -2.3
L 40.05 -2.1 39.65 -2.1
Q 37.65 -2.1 37.65 -0.95 37.65 -0.45 38 -0.15 38.35 0.1 38.75 0.1 39.2 0.1 39.55 -0.1 39.9 -0.3 40.05 -0.65
L 40.1 -0.65 40.1 -0.3 40.15 0 40.55 0 40.5 -2.25
Q 40.5 -2.8 40.15 -3.25 39.7 -3.6 39.15 -3.6 38.75 -3.6 38.45 -3.45 38.1 -3.35 37.85 -3.15
L 38 -2.8 38.5 -3.1
M 39.7 -1.8
L 40.05 -1.8 40.05 -1.45 39.95 -0.85 39.5 -0.4
Q 39.3 -0.25 38.85 -0.25 38.55 -0.25 38.3 -0.4 38.1 -0.55 38.1 -0.95 38.1 -1.8 39.7 -1.8 Z"/>
</g>

<g id="IT_300x250_psd_Asset_3_ManagedWiFi_IT_Research_DM9_2_copy_2_Network_as_a__Service_solutions__can_help_address_____0_Layer0_0_MEMBER_10_FILL">
<path fill="#D82C26" stroke="none" d="
M 1.65 3.6
Q 1.95 3.45 2.25 3.45 2.6 3.45 2.95 3.6 3.35 3.75 3.55 3.95
L 3.65 3.5 3 3.2
Q 2.75 3.1 2.25 3.1 1.8 3.1 1.4 3.25 1 3.4 0.8 3.75 0.55 4.1 0.55 4.5 0.55 5 0.75 5.25 1 5.55 1.25 5.7
L 2.75 6.3
Q 2.9 6.35 3.15 6.6 3.3 6.85 3.3 7.15 3.3 7.65 2.95 7.95 2.65 8.2 2.1 8.2 1.7 8.2 1.25 8.05
L 0.6 7.65 0.5 8.05
Q 0.75 8.3 1.2 8.45 1.65 8.6 2.1 8.6 2.55 8.6 2.9 8.45 3.25 8.35 3.55 7.95 3.75 7.6 3.75 7.1 3.75 6.65 3.55 6.4 3.3 6.1 3.05 5.95
L 1.55 5.4
Q 1.25 5.2 1.15 5.05 1 4.85 1 4.5 1 4.15 1.2 3.95 1.4 3.65 1.65 3.6 Z"/>
</g>

<g id="IT_300x250_psd_Asset_3_ManagedWiFi_IT_Research_DM9_2_copy_2_Network_as_a__Service_solutions__can_help_address_____0_Layer0_0_MEMBER_11_FILL">
<path fill="#D82C26" stroke="none" d="
M 6.25 4.9
Q 5.75 4.9 5.35 5.15 5 5.4 4.75 5.75 4.55 6.15 4.55 6.7 4.55 7.3 4.75 7.7 5.05 8.15 5.4 8.35 5.8 8.6 6.3 8.6 7.1 8.6 7.7 8.15
L 7.6 7.75 7.05 8.1
Q 6.85 8.2 6.35 8.2 5.95 8.2 5.65 8.05 5.3 7.85 5.15 7.5 4.95 7.25 4.95 6.8
L 7.9 6.8 7.9 6.6
Q 7.9 6.1 7.7 5.75 7.6 5.45 7.15 5.1 6.8 4.9 6.25 4.9
M 6.25 5.25
Q 6.8 5.25 7.15 5.55 7.45 5.9 7.5 6.5
L 4.95 6.5
Q 4.95 6.2 5.1 5.9 5.25 5.6 5.55 5.45 5.8 5.25 6.25 5.25 Z"/>
</g>

<g id="IT_300x250_psd_Asset_3_ManagedWiFi_IT_Research_DM9_2_copy_2_Network_as_a__Service_solutions__can_help_address_____0_Layer0_0_MEMBER_12_FILL">
<path fill="#D82C26" stroke="none" d="
M 10.65 4.95
L 10.25 4.9
Q 9.9 4.9 9.65 5.15 9.4 5.3 9.25 5.75
L 9.2 5 8.75 5 8.8 8.45 9.25 8.45 9.25 6.75
Q 9.25 6.2 9.5 5.7 9.8 5.3 10.25 5.3
L 10.55 5.35 10.65 4.95 Z"/>
</g>

<g id="IT_300x250_psd_Asset_3_ManagedWiFi_IT_Research_DM9_2_copy_2_Network_as_a__Service_solutions__can_help_address_____0_Layer0_0_MEMBER_13_FILL">
<path fill="#D82C26" stroke="none" d="
M 10.9 5
L 12.25 8.45 12.75 8.45 14.05 5 13.6 5 12.5 8.05 11.4 5 10.9 5 Z"/>
</g>

<g id="IT_300x250_psd_Asset_3_ManagedWiFi_IT_Research_DM9_2_copy_2_Network_as_a__Service_solutions__can_help_address_____0_Layer0_0_MEMBER_14_FILL">
<path fill="#D82C26" stroke="none" d="
M 14.95 3.95
L 15.15 3.85 15.25 3.6 15.15 3.4 14.95 3.3 14.7 3.4 14.6 3.6 14.7 3.85 14.95 3.95
M 15.15 5
L 14.7 5 14.7 8.45 15.15 8.45 15.15 5 Z"/>
</g>

<g id="IT_300x250_psd_Asset_3_ManagedWiFi_IT_Research_DM9_2_copy_2_Network_as_a__Service_solutions__can_help_address_____0_Layer0_0_MEMBER_15_FILL">
<path fill="#D82C26" stroke="none" d="
M 16.7 6
Q 16.85 5.65 17.15 5.45 17.65 5.25 17.9 5.25
L 18.45 5.35 18.9 5.65 19.05 5.3 18.55 5 17.9 4.9
Q 17.35 4.9 16.95 5.15 16.5 5.45 16.3 5.8 16.05 6.2 16.05 6.75 16.05 7.2 16.3 7.7 16.6 8.15 16.95 8.35 17.35 8.6 17.85 8.6 18.25 8.6 18.55 8.45 18.9 8.35 19.05 8.15
L 19 7.8
Q 18.6 8.1 18.5 8.1
L 17.9 8.2
Q 17.5 8.2 17.15 8 16.8 7.75 16.7 7.45 16.5 7.2 16.5 6.75 16.5 6.35 16.7 6 Z"/>
</g>

<g id="IT_300x250_psd_Asset_3_ManagedWiFi_IT_Research_DM9_2_copy_2_Network_as_a__Service_solutions__can_help_address_____0_Layer0_0_MEMBER_16_FILL">
<path fill="#D82C26" stroke="none" d="
M 21.25 4.9
Q 20.75 4.9 20.35 5.15 20 5.4 19.75 5.75 19.55 6.15 19.55 6.7 19.55 7.3 19.75 7.7 20.05 8.15 20.4 8.35 20.8 8.6 21.3 8.6 22.1 8.6 22.7 8.15
L 22.6 7.75
Q 22.4 7.95 22.05 8.1 21.85 8.2 21.35 8.2 20.95 8.2 20.65 8.05 20.3 7.85 20.15 7.5 19.95 7.25 19.95 6.8
L 22.9 6.8 22.9 6.6
Q 22.9 6.1 22.7 5.75 22.6 5.45 22.15 5.1 21.8 4.9 21.25 4.9
M 21.25 5.25
Q 21.8 5.25 22.15 5.55 22.45 5.9 22.5 6.5
L 19.95 6.5
Q 19.95 6.2 20.1 5.9 20.25 5.6 20.55 5.45 20.8 5.25 21.25 5.25 Z"/>
</g>

<g id="IT_300x250_psd_Asset_3_ManagedWiFi_IT_Research_DM9_2_copy_2_Network_as_a__Service_solutions__can_help_address_____0_Layer0_0_MEMBER_17_FILL">
<path fill="#D82C26" stroke="none" d="
M 26.2 4.9
L 25.65 5
Q 25.5 5.05 25.2 5.35 25.05 5.5 25.05 5.85 25.05 6.2 25.3 6.45 25.45 6.6 26.05 6.85
L 26.75 7.15
Q 27 7.3 27 7.6 27 7.9 26.75 8.05 26.45 8.25 26.2 8.25 25.6 8.25 25.05 7.8
L 25 8.2 25.5 8.45
Q 25.75 8.55 26.25 8.55 26.6 8.55 26.8 8.45 27.05 8.4 27.25 8.1 27.4 7.9 27.4 7.55 27.4 7.2 27.15 6.95 26.8 6.65 26.35 6.55
L 25.65 6.25
Q 25.45 6.1 25.45 5.85 25.45 5.6 25.65 5.4 25.9 5.25 26.2 5.25 26.55 5.25 26.7 5.35
L 27.1 5.6 27.3 5.25 26.8 5 26.2 4.9 Z"/>
</g>

<g id="IT_300x250_psd_Asset_3_ManagedWiFi_IT_Research_DM9_2_copy_2_Network_as_a__Service_solutions__can_help_address_____0_Layer0_0_MEMBER_18_FILL">
<path fill="#D82C26" stroke="none" d="
M 31.5 5.8
Q 31.3 5.35 30.85 5.15 30.5 4.9 29.9 4.9 29.35 4.9 28.95 5.15 28.5 5.35 28.3 5.8 28.05 6.2 28.05 6.75 28.05 7.2 28.3 7.7 28.6 8.15 28.95 8.35 29.45 8.6 29.9 8.6 30.35 8.6 30.85 8.35 31.2 8.15 31.5 7.7 31.75 7.2 31.75 6.75 31.75 6.2 31.5 5.8
M 31.15 7.45
Q 31.05 7.7 30.65 8 30.4 8.2 29.9 8.2 29.4 8.2 29.15 8 28.75 7.7 28.65 7.45 28.5 7.15 28.5 6.75 28.5 6.3 28.65 6 28.75 5.75 29.15 5.45 29.55 5.25 29.9 5.25 30.25 5.25 30.65 5.45 30.95 5.7 31.15 6 31.3 6.3 31.3 6.75 31.3 7.15 31.15 7.45 Z"/>
</g>

<g id="IT_300x250_psd_Asset_3_ManagedWiFi_IT_Research_DM9_2_copy_2_Network_as_a__Service_solutions__can_help_address_____0_Layer0_0_MEMBER_19_FILL">
<path fill="#D82C26" stroke="none" d="
M 32.85 8.25
Q 33 8.5 33.25 8.55
L 33.45 8.2
Q 33.4 8.2 33.2 8
L 33.1 7.6 33.1 2.8 32.65 2.9 32.65 7.7
Q 32.65 8.05 32.85 8.25 Z"/>
</g>

<g id="IT_300x250_psd_Asset_3_ManagedWiFi_IT_Research_DM9_2_copy_2_Network_as_a__Service_solutions__can_help_address_____0_Layer0_0_MEMBER_20_FILL">
<path fill="#D82C26" stroke="none" d="
M 37.2 5
L 36.8 5 36.8 6.75
Q 36.8 7.2 36.65 7.55 36.5 7.8 36.2 8.05 36 8.2 35.65 8.2 35.1 8.2 34.9 7.85 34.7 7.6 34.7 7
L 34.7 5 34.25 5 34.25 7.1
Q 34.25 7.8 34.55 8.15 34.8 8.55 35.5 8.55 35.95 8.55 36.3 8.35 36.7 8.05 36.8 7.7
L 36.85 8.5 37.3 8.45 37.2 7.65 37.2 5 Z"/>
</g>

<g id="IT_300x250_psd_Asset_3_ManagedWiFi_IT_Research_DM9_2_copy_2_Network_as_a__Service_solutions__can_help_address_____0_Layer0_0_MEMBER_21_FILL">
<path fill="#D82C26" stroke="none" d="
M 39.9 5.35
L 39.95 5 39 5 39 4 38.55 4.15 38.55 5 38 5 37.9 5.35 38.55 5.35 38.55 7.65
Q 38.55 8.1 38.75 8.3 39 8.55 39.35 8.55
L 39.75 8.5 40.1 8.35 40.05 8.05 39.5 8.2
Q 39.25 8.2 39.1 8.05
L 39 7.6 39 5.35 39.9 5.35 Z"/>
</g>

<g id="IT_300x250_psd_Asset_3_ManagedWiFi_IT_Research_DM9_2_copy_2_Network_as_a__Service_solutions__can_help_address_____0_Layer0_0_MEMBER_22_FILL">
<path fill="#D82C26" stroke="none" d="
M 41.2 5
L 40.75 5 40.75 8.45 41.2 8.45 41.2 5
M 41 3.95
L 41.2 3.85 41.3 3.6 41.2 3.4 41 3.3 40.75 3.4 40.7 3.6 40.75 3.85 41 3.95 Z"/>
</g>

<g id="IT_300x250_psd_Asset_3_ManagedWiFi_IT_Research_DM9_2_copy_2_Network_as_a__Service_solutions__can_help_address_____0_Layer0_0_MEMBER_23_FILL">
<path fill="#D82C26" stroke="none" d="
M 44.9 5.15
Q 44.6 4.9 43.95 4.9 43.4 4.9 43 5.15 42.55 5.45 42.35 5.8 42.1 6.2 42.1 6.75 42.1 7.2 42.35 7.7 42.6 8.1 43 8.35 43.5 8.6 43.95 8.6 44.5 8.6 44.9 8.35 45.2 8.2 45.6 7.7 45.8 7.3 45.8 6.75 45.8 6.15 45.6 5.8 45.3 5.35 44.9 5.15
M 44.7 5.45
Q 45.05 5.65 45.2 6 45.4 6.25 45.4 6.75 45.4 7.2 45.2 7.45 45.05 7.8 44.7 8 44.45 8.2 43.95 8.2 43.55 8.2 43.2 8 42.85 7.75 42.75 7.45 42.55 7.2 42.55 6.75 42.55 6.25 42.75 6 42.85 5.7 43.2 5.45 43.7 5.25 43.95 5.25 44.3 5.25 44.7 5.45 Z"/>
</g>

<g id="IT_300x250_psd_Asset_3_ManagedWiFi_IT_Research_DM9_2_copy_2_Network_as_a__Service_solutions__can_help_address_____0_Layer0_0_MEMBER_24_FILL">
<path fill="#D82C26" stroke="none" d="
M 47.35 5.95
Q 47.5 5.65 47.75 5.45 48 5.25 48.35 5.25 48.8 5.25 49.05 5.6 49.3 6 49.3 6.45
L 49.3 8.45 49.7 8.45 49.7 6.35
Q 49.7 5.75 49.4 5.3 49.1 4.9 48.45 4.9 48.05 4.9 47.65 5.15 47.35 5.4 47.2 5.75
L 47.15 5.75 47.15 5 46.7 5 46.75 8.45 47.2 8.45 47.2 6.7
Q 47.2 6.25 47.35 5.95 Z"/>
</g>

<g id="IT_300x250_psd_Asset_3_ManagedWiFi_IT_Research_DM9_2_copy_2_Network_as_a__Service_solutions__can_help_address_____0_Layer0_0_MEMBER_25_FILL">
<path fill="#D82C26" stroke="none" d="
M 50.8 5.35
Q 50.65 5.5 50.65 5.85 50.65 6.25 50.9 6.45 51 6.55 51.6 6.85
L 52.35 7.15
Q 52.6 7.3 52.6 7.6 52.6 7.9 52.35 8.05 52.05 8.25 51.8 8.25 51.1 8.25 50.65 7.8
L 50.55 8.2 51.1 8.45
Q 51.35 8.55 51.8 8.55 52.2 8.55 52.4 8.45 52.55 8.4 52.85 8.1 53 7.9 53 7.55 53 7.2 52.75 6.95 52.4 6.65 51.95 6.55 51.4 6.4 51.25 6.25 51.05 6.1 51.05 5.85 51.05 5.55 51.25 5.4 51.5 5.25 51.8 5.25 52.15 5.25 52.3 5.35
L 52.7 5.6 52.9 5.25 52.4 5 51.8 4.9 51.25 5
Q 51 5.05 50.8 5.35 Z"/>
</g>

<g id="IT_300x250_psd_Asset_3_ManagedWiFi_IT_Research_DM9_2_copy_2_Network_as_a__Service_solutions__can_help_address_____0_Layer0_0_MEMBER_26_FILL">
<path fill="#D82C26" stroke="none" d="
M 3.4 13.8
Q 3.25 13.6 2.9 13.5 2.6 13.35 2.25 13.35 1.8 13.35 1.3 13.6 0.9 13.85 0.65 14.25 0.4 14.75 0.4 15.2 0.4 15.75 0.65 16.15 0.85 16.6 1.3 16.8 1.7 17.05 2.2 17.05
L 2.9 16.95 3.4 16.65 3.35 16.25
Q 3.1 16.5 2.85 16.55 2.7 16.65 2.25 16.65 1.8 16.65 1.55 16.45 1.25 16.35 1.05 15.95 0.85 15.6 0.85 15.2 0.85 14.8 1.05 14.45 1.25 14.1 1.5 13.95 1.85 13.75 2.25 13.75 2.6 13.75 2.8 13.85
L 3.25 14.1 3.4 13.8 Z"/>
</g>

<g id="IT_300x250_psd_Asset_3_ManagedWiFi_IT_Research_DM9_2_copy_2_Network_as_a__Service_solutions__can_help_address_____0_Layer0_0_MEMBER_27_FILL">
<path fill="#D82C26" stroke="none" d="
M 6.4 14.85
L 6 14.85
Q 4 14.85 4 16 4 16.5 4.3 16.8 4.7 17.05 5.1 17.05 5.55 17.05 5.9 16.85 6.25 16.55 6.4 16.25
L 6.45 16.65 6.45 16.95 6.85 16.95 6.8 14.7
Q 6.8 14 6.45 13.7 6 13.35 5.45 13.35
L 4.75 13.5
Q 4.4 13.6 4.2 13.8
L 4.3 14.15
Q 4.55 13.9 4.8 13.85 5.2 13.7 5.4 13.7 5.8 13.7 6.15 13.95 6.4 14.2 6.4 14.65
L 6.4 14.85
M 6.05 15.15
L 6.4 15.15 6.4 15.5
Q 6.4 15.85 6.25 16.05 6.1 16.35 5.85 16.55 5.55 16.7 5.2 16.7 4.9 16.7 4.65 16.55 4.4 16.4 4.4 16 4.4 15.15 6.05 15.15 Z"/>
</g>

<g id="IT_300x250_psd_Asset_3_ManagedWiFi_IT_Research_DM9_2_copy_2_Network_as_a__Service_solutions__can_help_address_____0_Layer0_0_MEMBER_28_FILL">
<path fill="#D82C26" stroke="none" d="
M 8.3 13.5
L 7.9 13.5 7.95 16.95 8.35 16.95 8.35 15.15
Q 8.35 14.7 8.5 14.4 8.7 14.05 8.95 13.9 9.2 13.75 9.55 13.75 10.05 13.75 10.25 14.1 10.45 14.35 10.45 14.95
L 10.45 16.95 10.9 16.95 10.9 14.85
Q 10.9 14.2 10.6 13.8 10.3 13.35 9.6 13.35 9.25 13.35 8.85 13.6 8.5 13.9 8.35 14.2
L 8.3 13.5 Z"/>
</g>

<g id="IT_300x250_psd_Asset_3_ManagedWiFi_IT_Research_DM9_2_copy_2_Network_as_a__Service_solutions__can_help_address_____0_Layer0_0_MEMBER_29_FILL">
<path fill="#D82C26" stroke="none" d="
M 13.95 11.3
L 13.5 11.35 13.5 16.95 13.95 16.95 13.95 15.25
Q 13.95 14.75 14.1 14.45 14.2 14.2 14.5 13.9 14.8 13.75 15.1 13.75 15.65 13.75 15.8 14.1 16.05 14.45 16.05 14.95
L 16.05 16.95 16.45 16.95 16.45 14.85
Q 16.45 14.2 16.15 13.8 15.85 13.35 15.2 13.35 14.8 13.35 14.45 13.6 14.1 13.8 13.95 14.2
L 13.95 11.3 Z"/>
</g>

<g id="IT_300x250_psd_Asset_3_ManagedWiFi_IT_Research_DM9_2_copy_2_Network_as_a__Service_solutions__can_help_address_____0_Layer0_0_MEMBER_30_FILL">
<path fill="#D82C26" stroke="none" d="
M 20.75 15.1
Q 20.75 14.6 20.55 14.2 20.3 13.8 20 13.6 19.6 13.35 19.1 13.35 18.7 13.35 18.2 13.6 17.8 13.85 17.6 14.25 17.35 14.65 17.35 15.2 17.35 15.65 17.6 16.15 17.8 16.6 18.25 16.8 18.65 17.05 19.15 17.05 19.95 17.05 20.55 16.6
L 20.45 16.25
Q 20.05 16.5 19.9 16.55 19.6 16.7 19.2 16.7 18.8 16.7 18.45 16.5 18.15 16.25 18 16 17.8 15.65 17.8 15.25
L 20.75 15.25 20.75 15.1
M 19.1 13.7
Q 19.65 13.7 20 14.05 20.25 14.3 20.35 14.95
L 17.8 14.95
Q 17.8 14.7 17.95 14.4 18.1 14.15 18.4 13.9 18.65 13.7 19.1 13.7 Z"/>
</g>

<g id="IT_300x250_psd_Asset_3_ManagedWiFi_IT_Research_DM9_2_copy_2_Network_as_a__Service_solutions__can_help_address_____0_Layer0_0_MEMBER_31_FILL">
<path fill="#D82C26" stroke="none" d="
M 21.8 16.75
L 22.25 17.05 22.45 16.65
Q 22.2 16.55 22.15 16.45
L 22.1 16.1 22.1 11.3 21.65 11.4 21.65 16.15
Q 21.65 16.55 21.8 16.75 Z"/>
</g>

<g id="IT_300x250_psd_Asset_3_ManagedWiFi_IT_Research_DM9_2_copy_2_Network_as_a__Service_solutions__can_help_address_____0_Layer0_0_MEMBER_32_FILL">
<path fill="#D82C26" stroke="none" d="
M 26.05 16.8
Q 26.4 16.6 26.7 16.15 26.9 15.75 26.9 15.2 26.9 14.65 26.7 14.25 26.4 13.8 26.05 13.6 25.65 13.35 25.15 13.35 24.75 13.35 24.35 13.6 23.95 13.85 23.75 14.25
L 23.7 13.5 23.3 13.5 23.3 18.7 23.75 18.7 23.75 16.2
Q 24 16.6 24.35 16.8 24.75 17.05 25.15 17.05 25.65 17.05 26.05 16.8
M 26.3 15.95
Q 26.15 16.25 25.8 16.5 25.4 16.7 25.1 16.7 24.8 16.7 24.4 16.5 24.05 16.25 23.9 15.95 23.7 15.45 23.7 15.2 23.7 14.95 23.9 14.45 24.05 14.1 24.4 13.95 24.65 13.75 25.1 13.75 25.55 13.75 25.8 13.95 26.15 14.1 26.3 14.45
L 26.45 15.2
Q 26.45 15.6 26.3 15.95 Z"/>
</g>

<g id="IT_300x250_psd_Asset_3_ManagedWiFi_IT_Research_DM9_2_copy_2_Network_as_a__Service_solutions__can_help_address_____0_Layer0_0_MEMBER_33_FILL">
<path fill="#D82C26" stroke="none" d="
M 29.35 16.8
Q 29.7 17.05 30.1 17.05 30.55 17.05 30.9 16.85 31.25 16.65 31.4 16.25
L 31.45 16.25 31.45 16.65 31.5 16.95 31.9 16.95 31.85 14.7
Q 31.85 14 31.45 13.7 31.1 13.35 30.5 13.35 30.1 13.35 29.8 13.5 29.45 13.6 29.2 13.8
L 29.35 14.15
Q 29.5 13.95 29.85 13.85 30.15 13.7 30.45 13.7 30.9 13.7 31.15 13.95 31.4 14.15 31.4 14.65
L 31.4 14.85 31 14.85
Q 29 14.85 29 16 29 16.5 29.35 16.8
M 29.65 16.55
Q 29.4 16.4 29.4 16 29.4 15.15 31.05 15.15
L 31.4 15.15 31.4 15.5 31.3 16.05
Q 31.15 16.3 30.85 16.55 30.65 16.7 30.2 16.7 29.9 16.7 29.65 16.55 Z"/>
</g>

<g id="IT_300x250_psd_Asset_3_ManagedWiFi_IT_Research_DM9_2_copy_2_Network_as_a__Service_solutions__can_help_address_____0_Layer0_0_MEMBER_34_FILL">
<path fill="#D82C26" stroke="none" d="
M 36.3 11.25
L 35.9 11.35 35.9 14.2 35.85 14.2
Q 35.6 13.8 35.3 13.6 34.9 13.35 34.45 13.35 33.95 13.35 33.55 13.6 33.2 13.8 32.95 14.3 32.7 14.7 32.7 15.2 32.7 15.65 32.95 16.15 33.2 16.6 33.55 16.8 33.95 17.05 34.45 17.05 34.9 17.05 35.3 16.8 35.7 16.6 35.9 16.2
L 35.95 16.95 36.35 16.95 36.3 11.25
M 35.9 15.2
Q 35.9 15.6 35.7 15.95 35.5 16.3 35.2 16.5 34.8 16.7 34.5 16.7 34.2 16.7 33.8 16.5 33.6 16.35 33.3 15.95 33.15 15.6 33.15 15.2
L 33.3 14.45
Q 33.6 14.05 33.8 13.95 34.05 13.75 34.5 13.75 34.95 13.75 35.2 13.95 35.5 14.1 35.7 14.45 35.9 14.8 35.9 15.2 Z"/>
</g>

<g id="IT_300x250_psd_Asset_3_ManagedWiFi_IT_Research_DM9_2_copy_2_Network_as_a__Service_solutions__can_help_address_____0_Layer0_0_MEMBER_35_FILL">
<path fill="#D82C26" stroke="none" d="
M 40.85 16.95
L 40.85 11.25 40.4 11.35 40.4 14.2
Q 40.2 13.85 39.8 13.6 39.4 13.35 39 13.35 38.55 13.35 38.05 13.6 37.7 13.8 37.45 14.3 37.25 14.65 37.25 15.2 37.25 15.75 37.45 16.15 37.7 16.6 38.05 16.8 38.55 17.05 39 17.05 39.4 17.05 39.8 16.8 40.2 16.6 40.4 16.2
L 40.45 16.95 40.85 16.95
M 40.25 14.45
L 40.4 15.2
Q 40.4 15.6 40.25 15.95
L 39.75 16.5
Q 39.35 16.7 39.05 16.7 38.7 16.7 38.3 16.5 38 16.3 37.85 15.95 37.7 15.6 37.7 15.2
L 37.85 14.45
Q 38.05 14.1 38.3 13.95 38.55 13.75 39.05 13.75 39.5 13.75 39.75 13.95 39.95 14.05 40.25 14.45 Z"/>
</g>

<g id="IT_300x250_psd_Asset_3_ManagedWiFi_IT_Research_DM9_2_copy_2_Network_as_a__Service_solutions__can_help_address_____0_Layer0_0_MEMBER_36_FILL">
<path fill="#D82C26" stroke="none" d="
M 43.8 13.45
L 43.45 13.35
Q 43.2 13.35 42.85 13.6 42.5 13.85 42.45 14.2
L 42.4 14.2 42.4 13.5 41.95 13.5 42 16.95 42.45 16.95 42.45 15.2
Q 42.45 14.6 42.7 14.2 43 13.75 43.4 13.75
L 43.75 13.8 43.8 13.45 Z"/>
</g>

<g id="IT_300x250_psd_Asset_3_ManagedWiFi_IT_Research_DM9_2_copy_2_Network_as_a__Service_solutions__can_help_address_____0_Layer0_0_MEMBER_37_FILL">
<path fill="#D82C26" stroke="none" d="
M 47.4 15.25
L 47.45 15.1
Q 47.45 14.8 47.25 14.2 47.05 13.85 46.65 13.6 46.25 13.35 45.8 13.35 45.3 13.35 44.9 13.6 44.5 13.85 44.3 14.25 44.05 14.65 44.05 15.2 44.05 15.65 44.3 16.15 44.5 16.55 44.9 16.8 45.4 17.05 45.85 17.05 46.7 17.05 47.2 16.6
L 47.15 16.25
Q 46.75 16.5 46.6 16.55
L 45.85 16.7
Q 45.4 16.7 45.15 16.5
L 44.65 16
Q 44.5 15.65 44.5 15.25
L 47.4 15.25
M 46.65 14.05
Q 47 14.35 47 14.95
L 44.5 14.95
Q 44.5 14.7 44.65 14.4 44.8 14.15 45.1 13.9 45.35 13.7 45.8 13.7 46.35 13.7 46.65 14.05 Z"/>
</g>

<g id="IT_300x250_psd_Asset_3_ManagedWiFi_IT_Research_DM9_2_copy_2_Network_as_a__Service_solutions__can_help_address_____0_Layer0_0_MEMBER_38_FILL">
<path fill="#D82C26" stroke="none" d="
M 50.4 13.75
L 49.9 13.5
Q 49.6 13.35 49.3 13.35
L 48.75 13.45
Q 48.45 13.6 48.3 13.8 48.15 14.05 48.15 14.3 48.15 14.75 48.4 14.95
L 49.1 15.3
Q 49.65 15.45 49.85 15.65 50.1 15.8 50.1 16.05 50.1 16.3 49.85 16.55 49.65 16.7 49.3 16.7 48.65 16.7 48.15 16.3
L 48.05 16.65 48.6 16.95 49.3 17.05 49.9 16.95 50.35 16.6
Q 50.5 16.4 50.5 16.05 50.5 15.65 50.25 15.4 50.05 15.25 49.4 15
L 48.75 14.7
Q 48.55 14.55 48.55 14.3 48.55 14 48.75 13.85 49 13.7 49.3 13.7
L 49.8 13.8 50.2 14.05 50.4 13.75 Z"/>
</g>

<g id="IT_300x250_psd_Asset_3_ManagedWiFi_IT_Research_DM9_2_copy_2_Network_as_a__Service_solutions__can_help_address_____0_Layer0_0_MEMBER_39_FILL">
<path fill="#D82C26" stroke="none" d="
M 53.25 14.05
L 53.45 13.75 52.95 13.5
Q 52.65 13.35 52.35 13.35
L 51.8 13.45 51.35 13.8
Q 51.2 14.05 51.2 14.3 51.2 14.7 51.45 14.95 51.8 15.2 52.2 15.3 52.75 15.5 52.9 15.65 53.15 15.8 53.15 16.05 53.15 16.3 52.9 16.55 52.7 16.7 52.35 16.7 51.75 16.7 51.2 16.3
L 51.15 16.65 51.65 16.95 52.4 17.05 52.95 16.95
Q 53.3 16.8 53.4 16.6 53.55 16.4 53.55 16.05 53.55 15.65 53.3 15.4
L 51.8 14.7
Q 51.6 14.55 51.6 14.3 51.6 14.05 51.8 13.85 52.05 13.7 52.35 13.7
L 52.85 13.8 53.25 14.05 Z"/>
</g>

<g id="IT_300x250_psd_Asset_3_ManagedWiFi_IT_Research_DM9_2_copy_2_Network_as_a__Service_solutions__can_help_address_____0_Layer0_0_MEMBER_40_FILL">
<path fill="#D82C26" stroke="none" d="
M 54.5 16.9
L 54.75 17 55 16.9 55.1 16.65 55 16.4 54.75 16.3 54.5 16.4 54.45 16.65 54.5 16.9 Z"/>
</g>

<g id="IT_300x250_psd_Asset_3_ManagedWiFi_IT_Research_DM9_2_copy_2_Network_as_a__Service_solutions__can_help_address_____0_Layer0_0_MEMBER_41_FILL">
<path fill="#D82C26" stroke="none" d="
M 56.15 16.9
L 56.4 17 56.6 16.9
Q 56.7 16.85 56.7 16.65 56.7 16.5 56.6 16.4
L 56.4 16.3 56.15 16.4 56.05 16.65 56.15 16.9 Z"/>
</g>

<g id="IT_300x250_psd_Asset_3_ManagedWiFi_IT_Research_DM9_2_copy_2_Network_as_a__Service_solutions__can_help_address_____0_Layer0_0_MEMBER_42_FILL">
<path fill="#D82C26" stroke="none" d="
M 57.8 16.9
L 58 17 58.25 16.9 58.35 16.65 58.25 16.4 58 16.3 57.8 16.4
Q 57.7 16.5 57.7 16.65 57.7 16.85 57.8 16.9 Z"/>
</g>
</defs>

<g transform="matrix( 1, 0, 0, 1, -5,-40) ">
<g transform="matrix( 1, 0, 0, 1, 0,53) ">
<g transform="matrix( 1, 0, 0, 1, 28,9) ">
<g transform="matrix( 2.815704345703125, 0, 0, 2.832611083984375, -0.85,16.6) ">
<use xlink:href="#IT_300x250_psd_Asset_3_ManagedWiFi_IT_Research_DM9_2_copy_2_Network_as_a__Service_solutions__can_help_address_____0_Layer0_0_MEMBER_0_FILL"/>
</g>

<g transform="matrix( 2.815704345703125, 0, 0, 2.832611083984375, -0.85,16.6) ">
<use xlink:href="#IT_300x250_psd_Asset_3_ManagedWiFi_IT_Research_DM9_2_copy_2_Network_as_a__Service_solutions__can_help_address_____0_Layer0_0_MEMBER_1_FILL"/>
</g>

<g transform="matrix( 2.815704345703125, 0, 0, 2.832611083984375, -0.85,16.6) ">
<use xlink:href="#IT_300x250_psd_Asset_3_ManagedWiFi_IT_Research_DM9_2_copy_2_Network_as_a__Service_solutions__can_help_address_____0_Layer0_0_MEMBER_2_FILL"/>
</g>

<g transform="matrix( 2.815704345703125, 0, 0, 2.832611083984375, -0.85,16.6) ">
<use xlink:href="#IT_300x250_psd_Asset_3_ManagedWiFi_IT_Research_DM9_2_copy_2_Network_as_a__Service_solutions__can_help_address_____0_Layer0_0_MEMBER_3_FILL"/>
</g>

<g transform="matrix( 2.815704345703125, 0, 0, 2.832611083984375, -0.85,16.6) ">
<use xlink:href="#IT_300x250_psd_Asset_3_ManagedWiFi_IT_Research_DM9_2_copy_2_Network_as_a__Service_solutions__can_help_address_____0_Layer0_0_MEMBER_4_FILL"/>
</g>

<g transform="matrix( 2.815704345703125, 0, 0, 2.832611083984375, -0.85,16.6) ">
<use xlink:href="#IT_300x250_psd_Asset_3_ManagedWiFi_IT_Research_DM9_2_copy_2_Network_as_a__Service_solutions__can_help_address_____0_Layer0_0_MEMBER_5_FILL"/>
</g>

<g transform="matrix( 2.815704345703125, 0, 0, 2.832611083984375, -0.85,16.6) ">
<use xlink:href="#IT_300x250_psd_Asset_3_ManagedWiFi_IT_Research_DM9_2_copy_2_Network_as_a__Service_solutions__can_help_address_____0_Layer0_0_MEMBER_6_FILL"/>
</g>

<g transform="matrix( 2.815704345703125, 0, 0, 2.832611083984375, -0.85,16.6) ">
<use xlink:href="#IT_300x250_psd_Asset_3_ManagedWiFi_IT_Research_DM9_2_copy_2_Network_as_a__Service_solutions__can_help_address_____0_Layer0_0_MEMBER_7_FILL"/>
</g>

<g transform="matrix( 2.815704345703125, 0, 0, 2.832611083984375, -0.85,16.6) ">
<use xlink:href="#IT_300x250_psd_Asset_3_ManagedWiFi_IT_Research_DM9_2_copy_2_Network_as_a__Service_solutions__can_help_address_____0_Layer0_0_MEMBER_8_FILL"/>
</g>

<g transform="matrix( 2.815704345703125, 0, 0, 2.832611083984375, -0.85,16.6) ">
<use xlink:href="#IT_300x250_psd_Asset_3_ManagedWiFi_IT_Research_DM9_2_copy_2_Network_as_a__Service_solutions__can_help_address_____0_Layer0_0_MEMBER_9_FILL"/>
</g>

<g transform="matrix( 2.815704345703125, 0, 0, 2.832611083984375, -0.85,16.6) ">
<use xlink:href="#IT_300x250_psd_Asset_3_ManagedWiFi_IT_Research_DM9_2_copy_2_Network_as_a__Service_solutions__can_help_address_____0_Layer0_0_MEMBER_10_FILL"/>
</g>

<g transform="matrix( 2.815704345703125, 0, 0, 2.832611083984375, -0.85,16.6) ">
<use xlink:href="#IT_300x250_psd_Asset_3_ManagedWiFi_IT_Research_DM9_2_copy_2_Network_as_a__Service_solutions__can_help_address_____0_Layer0_0_MEMBER_11_FILL"/>
</g>

<g transform="matrix( 2.815704345703125, 0, 0, 2.832611083984375, -0.85,16.6) ">
<use xlink:href="#IT_300x250_psd_Asset_3_ManagedWiFi_IT_Research_DM9_2_copy_2_Network_as_a__Service_solutions__can_help_address_____0_Layer0_0_MEMBER_12_FILL"/>
</g>

<g transform="matrix( 2.815704345703125, 0, 0, 2.832611083984375, -0.85,16.6) ">
<use xlink:href="#IT_300x250_psd_Asset_3_ManagedWiFi_IT_Research_DM9_2_copy_2_Network_as_a__Service_solutions__can_help_address_____0_Layer0_0_MEMBER_13_FILL"/>
</g>

<g transform="matrix( 2.815704345703125, 0, 0, 2.832611083984375, -0.85,16.6) ">
<use xlink:href="#IT_300x250_psd_Asset_3_ManagedWiFi_IT_Research_DM9_2_copy_2_Network_as_a__Service_solutions__can_help_address_____0_Layer0_0_MEMBER_14_FILL"/>
</g>

<g transform="matrix( 2.815704345703125, 0, 0, 2.832611083984375, -0.85,16.6) ">
<use xlink:href="#IT_300x250_psd_Asset_3_ManagedWiFi_IT_Research_DM9_2_copy_2_Network_as_a__Service_solutions__can_help_address_____0_Layer0_0_MEMBER_15_FILL"/>
</g>

<g transform="matrix( 2.815704345703125, 0, 0, 2.832611083984375, -0.85,16.6) ">
<use xlink:href="#IT_300x250_psd_Asset_3_ManagedWiFi_IT_Research_DM9_2_copy_2_Network_as_a__Service_solutions__can_help_address_____0_Layer0_0_MEMBER_16_FILL"/>
</g>

<g transform="matrix( 2.815704345703125, 0, 0, 2.832611083984375, -0.85,16.6) ">
<use xlink:href="#IT_300x250_psd_Asset_3_ManagedWiFi_IT_Research_DM9_2_copy_2_Network_as_a__Service_solutions__can_help_address_____0_Layer0_0_MEMBER_17_FILL"/>
</g>

<g transform="matrix( 2.815704345703125, 0, 0, 2.832611083984375, -0.85,16.6) ">
<use xlink:href="#IT_300x250_psd_Asset_3_ManagedWiFi_IT_Research_DM9_2_copy_2_Network_as_a__Service_solutions__can_help_address_____0_Layer0_0_MEMBER_18_FILL"/>
</g>

<g transform="matrix( 2.815704345703125, 0, 0, 2.832611083984375, -0.85,16.6) ">
<use xlink:href="#IT_300x250_psd_Asset_3_ManagedWiFi_IT_Research_DM9_2_copy_2_Network_as_a__Service_solutions__can_help_address_____0_Layer0_0_MEMBER_19_FILL"/>
</g>

<g transform="matrix( 2.815704345703125, 0, 0, 2.832611083984375, -0.85,16.6) ">
<use xlink:href="#IT_300x250_psd_Asset_3_ManagedWiFi_IT_Research_DM9_2_copy_2_Network_as_a__Service_solutions__can_help_address_____0_Layer0_0_MEMBER_20_FILL"/>
</g>

<g transform="matrix( 2.815704345703125, 0, 0, 2.832611083984375, -0.85,16.6) ">
<use xlink:href="#IT_300x250_psd_Asset_3_ManagedWiFi_IT_Research_DM9_2_copy_2_Network_as_a__Service_solutions__can_help_address_____0_Layer0_0_MEMBER_21_FILL"/>
</g>

<g transform="matrix( 2.815704345703125, 0, 0, 2.832611083984375, -0.85,16.6) ">
<use xlink:href="#IT_300x250_psd_Asset_3_ManagedWiFi_IT_Research_DM9_2_copy_2_Network_as_a__Service_solutions__can_help_address_____0_Layer0_0_MEMBER_22_FILL"/>
</g>

<g transform="matrix( 2.815704345703125, 0, 0, 2.832611083984375, -0.85,16.6) ">
<use xlink:href="#IT_300x250_psd_Asset_3_ManagedWiFi_IT_Research_DM9_2_copy_2_Network_as_a__Service_solutions__can_help_address_____0_Layer0_0_MEMBER_23_FILL"/>
</g>

<g transform="matrix( 2.815704345703125, 0, 0, 2.832611083984375, -0.85,16.6) ">
<use xlink:href="#IT_300x250_psd_Asset_3_ManagedWiFi_IT_Research_DM9_2_copy_2_Network_as_a__Service_solutions__can_help_address_____0_Layer0_0_MEMBER_24_FILL"/>
</g>

<g transform="matrix( 2.815704345703125, 0, 0, 2.832611083984375, -0.85,16.6) ">
<use xlink:href="#IT_300x250_psd_Asset_3_ManagedWiFi_IT_Research_DM9_2_copy_2_Network_as_a__Service_solutions__can_help_address_____0_Layer0_0_MEMBER_25_FILL"/>
</g>

<g transform="matrix( 2.815704345703125, 0, 0, 2.832611083984375, -0.85,16.6) ">
<use xlink:href="#IT_300x250_psd_Asset_3_ManagedWiFi_IT_Research_DM9_2_copy_2_Network_as_a__Service_solutions__can_help_address_____0_Layer0_0_MEMBER_26_FILL"/>
</g>

<g transform="matrix( 2.815704345703125, 0, 0, 2.832611083984375, -0.85,16.6) ">
<use xlink:href="#IT_300x250_psd_Asset_3_ManagedWiFi_IT_Research_DM9_2_copy_2_Network_as_a__Service_solutions__can_help_address_____0_Layer0_0_MEMBER_27_FILL"/>
</g>

<g transform="matrix( 2.815704345703125, 0, 0, 2.832611083984375, -0.85,16.6) ">
<use xlink:href="#IT_300x250_psd_Asset_3_ManagedWiFi_IT_Research_DM9_2_copy_2_Network_as_a__Service_solutions__can_help_address_____0_Layer0_0_MEMBER_28_FILL"/>
</g>

<g transform="matrix( 2.815704345703125, 0, 0, 2.832611083984375, -0.85,16.6) ">
<use xlink:href="#IT_300x250_psd_Asset_3_ManagedWiFi_IT_Research_DM9_2_copy_2_Network_as_a__Service_solutions__can_help_address_____0_Layer0_0_MEMBER_29_FILL"/>
</g>

<g transform="matrix( 2.815704345703125, 0, 0, 2.832611083984375, -0.85,16.6) ">
<use xlink:href="#IT_300x250_psd_Asset_3_ManagedWiFi_IT_Research_DM9_2_copy_2_Network_as_a__Service_solutions__can_help_address_____0_Layer0_0_MEMBER_30_FILL"/>
</g>

<g transform="matrix( 2.815704345703125, 0, 0, 2.832611083984375, -0.85,16.6) ">
<use xlink:href="#IT_300x250_psd_Asset_3_ManagedWiFi_IT_Research_DM9_2_copy_2_Network_as_a__Service_solutions__can_help_address_____0_Layer0_0_MEMBER_31_FILL"/>
</g>

<g transform="matrix( 2.815704345703125, 0, 0, 2.832611083984375, -0.85,16.6) ">
<use xlink:href="#IT_300x250_psd_Asset_3_ManagedWiFi_IT_Research_DM9_2_copy_2_Network_as_a__Service_solutions__can_help_address_____0_Layer0_0_MEMBER_32_FILL"/>
</g>

<g transform="matrix( 2.815704345703125, 0, 0, 2.832611083984375, -0.85,16.6) ">
<use xlink:href="#IT_300x250_psd_Asset_3_ManagedWiFi_IT_Research_DM9_2_copy_2_Network_as_a__Service_solutions__can_help_address_____0_Layer0_0_MEMBER_33_FILL"/>
</g>

<g transform="matrix( 2.815704345703125, 0, 0, 2.832611083984375, -0.85,16.6) ">
<use xlink:href="#IT_300x250_psd_Asset_3_ManagedWiFi_IT_Research_DM9_2_copy_2_Network_as_a__Service_solutions__can_help_address_____0_Layer0_0_MEMBER_34_FILL"/>
</g>

<g transform="matrix( 2.815704345703125, 0, 0, 2.832611083984375, -0.85,16.6) ">
<use xlink:href="#IT_300x250_psd_Asset_3_ManagedWiFi_IT_Research_DM9_2_copy_2_Network_as_a__Service_solutions__can_help_address_____0_Layer0_0_MEMBER_35_FILL"/>
</g>

<g transform="matrix( 2.815704345703125, 0, 0, 2.832611083984375, -0.85,16.6) ">
<use xlink:href="#IT_300x250_psd_Asset_3_ManagedWiFi_IT_Research_DM9_2_copy_2_Network_as_a__Service_solutions__can_help_address_____0_Layer0_0_MEMBER_36_FILL"/>
</g>

<g transform="matrix( 2.815704345703125, 0, 0, 2.832611083984375, -0.85,16.6) ">
<use xlink:href="#IT_300x250_psd_Asset_3_ManagedWiFi_IT_Research_DM9_2_copy_2_Network_as_a__Service_solutions__can_help_address_____0_Layer0_0_MEMBER_37_FILL"/>
</g>

<g transform="matrix( 2.815704345703125, 0, 0, 2.832611083984375, -0.85,16.6) ">
<use xlink:href="#IT_300x250_psd_Asset_3_ManagedWiFi_IT_Research_DM9_2_copy_2_Network_as_a__Service_solutions__can_help_address_____0_Layer0_0_MEMBER_38_FILL"/>
</g>

<g transform="matrix( 2.815704345703125, 0, 0, 2.832611083984375, -0.85,16.6) ">
<use xlink:href="#IT_300x250_psd_Asset_3_ManagedWiFi_IT_Research_DM9_2_copy_2_Network_as_a__Service_solutions__can_help_address_____0_Layer0_0_MEMBER_39_FILL"/>
</g>

<g transform="matrix( 2.815704345703125, 0, 0, 2.832611083984375, -0.85,16.6) ">
<use xlink:href="#IT_300x250_psd_Asset_3_ManagedWiFi_IT_Research_DM9_2_copy_2_Network_as_a__Service_solutions__can_help_address_____0_Layer0_0_MEMBER_40_FILL"/>
</g>

<g transform="matrix( 2.815704345703125, 0, 0, 2.832611083984375, -0.85,16.6) ">
<use xlink:href="#IT_300x250_psd_Asset_3_ManagedWiFi_IT_Research_DM9_2_copy_2_Network_as_a__Service_solutions__can_help_address_____0_Layer0_0_MEMBER_41_FILL"/>
</g>

<g transform="matrix( 2.815704345703125, 0, 0, 2.832611083984375, -0.85,16.6) ">
<use xlink:href="#IT_300x250_psd_Asset_3_ManagedWiFi_IT_Research_DM9_2_copy_2_Network_as_a__Service_solutions__can_help_address_____0_Layer0_0_MEMBER_42_FILL"/>
</g>
</g>
</g>
</g>
</svg>
