
<svg xmlns="http://www.w3.org/2000/svg" version="1.1" xmlns:xlink="http://www.w3.org/1999/xlink" preserveAspectRatio="none" x="0px" y="0px" width="300px" height="600px" viewBox="0 0 300 600">
<defs>
<g id="BDM_300x600_FR_psd_Asset_V6_1_Vous_cherchez_des__fa_ons_plus_novatrices__de_communiquer__avec_0_Layer0_0_MEMBER_0_FILL">
<path fill="#D82C26" stroke="none" d="
M 0.8 -7.5
L 0.1 -7.5 2.9 0 3.65 0 6.5 -7.5 5.8 -7.5 3.3 -0.75 0.8 -7.5 Z"/>
</g>

<g id="BDM_300x600_FR_psd_Asset_V6_1_Vous_cherchez_des__fa_ons_plus_novatrices__de_communiquer__avec_0_Layer0_0_MEMBER_1_FILL">
<path fill="#D82C26" stroke="none" d="
M 10.05 -4.8
Q 9.45 -5.1 8.7 -5.1 7.95 -5.1 7.35 -4.8 6.75 -4.45 6.4 -3.85 6.05 -3.15 6.05 -2.5 6.05 -1.85 6.4 -1.15 6.85 -0.45 7.35 -0.2 7.9 0.15 8.7 0.15 9.5 0.15 10.05 -0.2 10.7 -0.5 11 -1.15 11.35 -1.7 11.35 -2.5 11.35 -3.3 11 -3.85 10.75 -4.35 10.05 -4.8
M 8.7 -4.6
Q 9.3 -4.6 9.8 -4.3 10.15 -4.05 10.5 -3.55 10.75 -3.05 10.75 -2.5 10.75 -1.95 10.5 -1.45 10.3 -1 9.8 -0.65 9.3 -0.4 8.7 -0.4 8.15 -0.4 7.65 -0.65 7.15 -1 6.95 -1.45 6.7 -1.95 6.7 -2.5 6.7 -3.05 6.95 -3.55 7.15 -3.95 7.65 -4.3 8.1 -4.6 8.7 -4.6 Z"/>
</g>

<g id="BDM_300x600_FR_psd_Asset_V6_1_Vous_cherchez_des__fa_ons_plus_novatrices__de_communiquer__avec_0_Layer0_0_MEMBER_2_FILL">
<path fill="#D82C26" stroke="none" d="
M 12.2 -1.95
Q 12.2 -1.05 12.65 -0.45 13.05 0.15 14 0.15 14.6 0.15 15.1 -0.2 15.55 -0.45 15.8 -1.05
L 15.9 0 16.5 0 16.4 -1.15 16.4 -4.95 15.8 -4.95 15.8 -2.5
Q 15.8 -1.75 15.6 -1.35 15.4 -0.9 15 -0.6 14.6 -0.35 14.15 -0.35 13.45 -0.35 13.1 -0.85 12.8 -1.35 12.8 -2.1
L 12.8 -4.95 12.2 -4.95 12.2 -1.95 Z"/>
</g>

<g id="BDM_300x600_FR_psd_Asset_V6_1_Vous_cherchez_des__fa_ons_plus_novatrices__de_communiquer__avec_0_Layer0_0_MEMBER_3_FILL">
<path fill="#D82C26" stroke="none" d="
M 19.05 -4.6
L 19.75 -4.5 20.35 -4.15 20.6 -4.6 19.9 -4.95
Q 19.45 -5.1 19 -5.1 18.6 -5.1 18.2 -4.95 17.85 -4.8 17.6 -4.5 17.35 -4.15 17.35 -3.75 17.35 -3.25 17.7 -2.9 18.15 -2.55 18.8 -2.35 19.5 -2.1 19.8 -1.9 20.15 -1.7 20.15 -1.3 20.15 -0.8 19.8 -0.6 19.45 -0.35 19.05 -0.35 18.1 -0.35 17.4 -0.95
L 17.3 -0.4
Q 17.55 -0.15 18.05 0 18.5 0.15 19.05 0.15 19.5 0.15 19.9 -0.05 20.3 -0.2 20.5 -0.5 20.75 -0.9 20.75 -1.3 20.75 -1.8 20.35 -2.2 19.9 -2.55 19.2 -2.75 18.45 -3 18.25 -3.2 17.95 -3.4 17.95 -3.8 17.95 -4.15 18.25 -4.4 18.5 -4.6 19.05 -4.6 Z"/>
</g>

<g id="BDM_300x600_FR_psd_Asset_V6_1_Vous_cherchez_des__fa_ons_plus_novatrices__de_communiquer__avec_0_Layer0_0_MEMBER_4_FILL">
<path fill="#D82C26" stroke="none" d="
M 23.45 -1.1
Q 23.85 -0.5 24.4 -0.2 24.95 0.15 25.7 0.15 26.2 0.15 26.65 0
L 27.4 -0.45 27.35 -0.95 26.6 -0.55
Q 26.25 -0.4 25.75 -0.4 25.2 -0.4 24.7 -0.65 24.3 -0.9 24 -1.45 23.8 -1.85 23.8 -2.5 23.8 -3.1 24 -3.55 24.35 -4.05 24.7 -4.3 25.15 -4.6 25.75 -4.6 26.1 -4.6 26.55 -4.45 26.9 -4.3 27.15 -4.05
L 27.4 -4.5
Q 27.2 -4.8 26.7 -4.95
L 25.75 -5.1
Q 25 -5.1 24.4 -4.8 23.8 -4.45 23.45 -3.85 23.15 -3.25 23.15 -2.5 23.15 -1.7 23.45 -1.1 Z"/>
</g>

<g id="BDM_300x600_FR_psd_Asset_V6_1_Vous_cherchez_des__fa_ons_plus_novatrices__de_communiquer__avec_0_Layer0_0_MEMBER_5_FILL">
<path fill="#D82C26" stroke="none" d="
M 28.65 -8.1
L 28.05 -8 28.05 0 28.65 0 28.65 -2.4
Q 28.65 -3 28.9 -3.6 29.15 -4.05 29.5 -4.35 29.9 -4.6 30.3 -4.6 31 -4.6 31.35 -4.1 31.65 -3.55 31.65 -2.85
L 31.65 0 32.3 0 32.3 -3.05
Q 32.3 -3.95 31.85 -4.5 31.4 -5.1 30.45 -5.1 29.85 -5.1 29.4 -4.8 28.8 -4.4 28.7 -3.9
L 28.65 -3.9 28.65 -8.1 Z"/>
</g>

<g id="BDM_300x600_FR_psd_Asset_V6_1_Vous_cherchez_des__fa_ons_plus_novatrices__de_communiquer__avec_0_Layer0_0_MEMBER_6_FILL">
<path fill="#D82C26" stroke="none" d="
M 33.45 -1.15
Q 33.9 -0.45 34.35 -0.2 34.9 0.15 35.7 0.15 36.85 0.15 37.65 -0.5
L 37.55 -1
Q 37.3 -0.7 36.75 -0.55 36.35 -0.35 35.75 -0.35 35.15 -0.35 34.7 -0.65 34.35 -0.8 34 -1.35 33.75 -1.95 33.75 -2.4
L 37.95 -2.4 37.95 -2.65
Q 37.95 -3.25 37.7 -3.9 37.35 -4.45 36.85 -4.8 36.35 -5.1 35.6 -5.1 34.9 -5.1 34.35 -4.8 33.85 -4.5 33.45 -3.85 33.15 -3.25 33.15 -2.5 33.15 -1.75 33.45 -1.15
M 34 -3.65
Q 34.2 -4 34.6 -4.35 35.05 -4.65 35.6 -4.65 36.35 -4.65 36.85 -4.15 37.35 -3.65 37.35 -2.85
L 33.75 -2.85
Q 33.75 -3.25 34 -3.65 Z"/>
</g>

<g id="BDM_300x600_FR_psd_Asset_V6_1_Vous_cherchez_des__fa_ons_plus_novatrices__de_communiquer__avec_0_Layer0_0_MEMBER_7_FILL">
<path fill="#D82C26" stroke="none" d="
M 38.75 -4.95
L 38.85 -3.75 38.85 0 39.45 0 39.45 -2.45
Q 39.45 -3.3 39.85 -3.95 40.25 -4.55 40.85 -4.55
L 41.3 -4.5 41.4 -5
Q 41.25 -5.1 40.9 -5.1 40.45 -5.1 40.05 -4.8 39.6 -4.4 39.45 -3.9
L 39.4 -3.9 39.35 -4.95 38.75 -4.95 Z"/>
</g>

<g id="BDM_300x600_FR_psd_Asset_V6_1_Vous_cherchez_des__fa_ons_plus_novatrices__de_communiquer__avec_0_Layer0_0_MEMBER_8_FILL">
<path fill="#D82C26" stroke="none" d="
M 44.85 -4.95
Q 44.4 -5.1 43.9 -5.1 43.15 -5.1 42.55 -4.8 41.9 -4.35 41.65 -3.85 41.3 -3.3 41.3 -2.5 41.3 -1.65 41.65 -1.1 41.95 -0.5 42.55 -0.2 43.1 0.15 43.9 0.15 44.4 0.15 44.85 0
L 45.6 -0.45 45.5 -0.95 44.8 -0.55
Q 44.45 -0.4 43.95 -0.4 43.4 -0.4 42.9 -0.65 42.4 -1 42.2 -1.45 41.95 -1.95 41.95 -2.5 41.95 -2.95 42.2 -3.55 42.4 -3.95 42.9 -4.3 43.35 -4.6 43.9 -4.6 44.35 -4.6 44.7 -4.45
L 45.35 -4.05 45.6 -4.5
Q 45.3 -4.8 44.85 -4.95 Z"/>
</g>

<g id="BDM_300x600_FR_psd_Asset_V6_1_Vous_cherchez_des__fa_ons_plus_novatrices__de_communiquer__avec_0_Layer0_0_MEMBER_9_FILL">
<path fill="#D82C26" stroke="none" d="
M 46.85 -8.1
L 46.2 -8 46.2 0 46.85 0 46.85 -2.4
Q 46.85 -3.15 47.05 -3.6 47.3 -4.05 47.65 -4.35 48.05 -4.6 48.5 -4.6 49.15 -4.6 49.5 -4.1 49.85 -3.6 49.85 -2.85
L 49.85 0 50.45 0 50.45 -3.05
Q 50.45 -3.95 50 -4.5 49.55 -5.1 48.65 -5.1 48.1 -5.1 47.55 -4.8 47.05 -4.45 46.85 -3.9
L 46.85 -8.1 Z"/>
</g>

<g id="BDM_300x600_FR_psd_Asset_V6_1_Vous_cherchez_des__fa_ons_plus_novatrices__de_communiquer__avec_0_Layer0_0_MEMBER_10_FILL">
<path fill="#D82C26" stroke="none" d="
M 55.05 -4.8
Q 54.55 -5.1 53.75 -5.1 53.1 -5.1 52.5 -4.8 51.9 -4.4 51.65 -3.85 51.3 -3.3 51.3 -2.5 51.3 -1.7 51.65 -1.15 52 -0.5 52.55 -0.2 53.1 0.15 53.85 0.15 55.05 0.15 55.85 -0.5
L 55.75 -1
Q 55.35 -0.7 54.9 -0.55 54.5 -0.35 53.9 -0.35 53.35 -0.35 52.9 -0.65 52.45 -0.9 52.2 -1.35 51.9 -1.85 51.9 -2.4
L 56.1 -2.4 56.15 -2.65
Q 56.15 -3.3 55.85 -3.9 55.55 -4.45 55.05 -4.8
M 53.75 -4.65
Q 54.45 -4.65 55.05 -4.15 55.5 -3.65 55.55 -2.85
L 51.9 -2.85
Q 52 -3.4 52.15 -3.65 52.35 -4.05 52.8 -4.35 53.2 -4.65 53.75 -4.65 Z"/>
</g>

<g id="BDM_300x600_FR_psd_Asset_V6_1_Vous_cherchez_des__fa_ons_plus_novatrices__de_communiquer__avec_0_Layer0_0_MEMBER_11_FILL">
<path fill="#D82C26" stroke="none" d="
M 59.5 -4.45
L 56.45 -0.5 56.45 0 60.35 0 60.45 -0.5 57.2 -0.5 60.25 -4.45 60.25 -4.95 56.65 -4.95 56.5 -4.45 59.5 -4.45 Z"/>
</g>

<g id="BDM_300x600_FR_psd_Asset_V6_1_Vous_cherchez_des__fa_ons_plus_novatrices__de_communiquer__avec_0_Layer0_0_MEMBER_12_FILL">
<path fill="#D82C26" stroke="none" d="
M 67.8 -8.15
L 67.2 -8 67.2 -3.9
Q 66.9 -4.5 66.35 -4.8 65.85 -5.1 65.15 -5.1 64.4 -5.1 63.85 -4.75 63.35 -4.45 63 -3.8 62.7 -3.2 62.7 -2.5 62.7 -1.75 63 -1.15 63.25 -0.6 63.85 -0.2 64.55 0.15 65.15 0.15 65.85 0.15 66.35 -0.2 66.9 -0.5 67.2 -1.1
L 67.25 -1.1 67.3 0 67.85 0 67.8 -8.15
M 64.2 -4.3
Q 64.65 -4.6 65.25 -4.6 65.8 -4.6 66.25 -4.3 66.75 -3.95 66.95 -3.55 67.25 -3 67.25 -2.5 67.25 -1.9 66.95 -1.45 66.75 -1 66.25 -0.65 65.75 -0.4 65.25 -0.4 64.6 -0.4 64.2 -0.65 63.75 -1 63.55 -1.4 63.3 -2 63.3 -2.5 63.3 -2.95 63.55 -3.55 63.75 -3.95 64.2 -4.3 Z"/>
</g>

<g id="BDM_300x600_FR_psd_Asset_V6_1_Vous_cherchez_des__fa_ons_plus_novatrices__de_communiquer__avec_0_Layer0_0_MEMBER_13_FILL">
<path fill="#D82C26" stroke="none" d="
M 69.05 -1.15
Q 69.4 -0.5 69.95 -0.2 70.5 0.15 71.25 0.15 72.45 0.15 73.25 -0.5
L 73.15 -1
Q 72.75 -0.7 72.3 -0.55 71.9 -0.35 71.3 -0.35 70.75 -0.35 70.3 -0.65 69.85 -0.9 69.6 -1.35 69.3 -1.85 69.3 -2.4
L 73.5 -2.4 73.55 -2.65
Q 73.55 -3.3 73.25 -3.9 72.95 -4.45 72.45 -4.8 71.95 -5.1 71.15 -5.1 70.5 -5.1 69.9 -4.8 69.3 -4.4 69.05 -3.85 68.7 -3.3 68.7 -2.5 68.7 -1.7 69.05 -1.15
M 69.55 -3.65
Q 69.75 -4.05 70.2 -4.35 70.6 -4.65 71.15 -4.65 71.85 -4.65 72.45 -4.15 72.9 -3.65 72.95 -2.85
L 69.3 -2.85
Q 69.4 -3.4 69.55 -3.65 Z"/>
</g>

<g id="BDM_300x600_FR_psd_Asset_V6_1_Vous_cherchez_des__fa_ons_plus_novatrices__de_communiquer__avec_0_Layer0_0_MEMBER_14_FILL">
<path fill="#D82C26" stroke="none" d="
M 75 -4.4
Q 75.25 -4.6 75.75 -4.6
L 76.45 -4.5 77.05 -4.15 77.3 -4.6
Q 77.15 -4.75 76.65 -4.95 76.2 -5.1 75.75 -5.1 75.35 -5.1 74.95 -4.95 74.6 -4.8 74.35 -4.5 74.1 -4.15 74.1 -3.75 74.1 -3.2 74.45 -2.9 74.9 -2.55 75.5 -2.35 76.25 -2.1 76.55 -1.9 76.9 -1.65 76.9 -1.3 76.9 -0.85 76.55 -0.6 76.2 -0.35 75.75 -0.35 74.8 -0.35 74.1 -0.95
L 74 -0.4
Q 74.35 -0.15 74.75 0 75.3 0.15 75.8 0.15 76.25 0.15 76.6 -0.05 76.95 -0.2 77.25 -0.5 77.45 -0.85 77.45 -1.3 77.45 -1.85 77.1 -2.2 76.7 -2.55 75.95 -2.75 75.25 -3 74.95 -3.2 74.7 -3.45 74.7 -3.8 74.7 -4.15 75 -4.4 Z"/>
</g>

<g id="BDM_300x600_FR_psd_Asset_V6_1_Vous_cherchez_des__fa_ons_plus_novatrices__de_communiquer__avec_0_Layer0_0_MEMBER_15_FILL">
<path fill="#D82C26" stroke="none" d="
M 2.75 4.55
Q 2.05 4.55 1.65 5 1.2 5.45 1.2 6.3
L 1.2 7.75 0.3 7.75 0.2 8.25 1.25 8.25 1.25 12.7 1.85 12.7 1.85 8.25 3 8.25 3.15 7.75 1.85 7.75 1.85 6.3
Q 1.85 5.7 2.05 5.45 2.25 5.1 2.8 5.1 3.3 5.1 3.6 5.2
L 3.65 4.7 3.25 4.6 2.75 4.55 Z"/>
</g>

<g id="BDM_300x600_FR_psd_Asset_V6_1_Vous_cherchez_des__fa_ons_plus_novatrices__de_communiquer__avec_0_Layer0_0_MEMBER_16_FILL">
<path fill="#D82C26" stroke="none" d="
M 4.4 7.75
Q 3.95 7.9 3.55 8.2
L 3.75 8.7 4.45 8.25 5.3 8.1
Q 6 8.1 6.35 8.45 6.7 8.75 6.7 9.45
L 6.7 9.75 6.1 9.75
Q 3.3 9.75 3.3 11.35 3.3 12.15 3.75 12.5 4.3 12.85 4.85 12.85 5.5 12.85 6 12.55 6.45 12.3 6.7 11.75
L 6.75 11.75 6.8 12.7 7.4 12.7 7.3 11.65 7.3 9.5
Q 7.3 8.55 6.8 8.05 6.3 7.6 5.4 7.6 4.85 7.6 4.4 7.75
M 4.2 12.15
Q 3.85 11.8 3.85 11.35 3.85 10.15 6.2 10.15
L 6.7 10.15 6.7 10.65
Q 6.7 11.1 6.55 11.45 6.35 11.85 5.95 12.1 5.6 12.4 5 12.4 4.55 12.4 4.2 12.15 Z"/>
</g>

<g id="BDM_300x600_FR_psd_Asset_V6_1_Vous_cherchez_des__fa_ons_plus_novatrices__de_communiquer__avec_0_Layer0_0_MEMBER_17_FILL">
<path fill="#D82C26" stroke="none" d="
M 11.7 7.75
Q 11.25 7.6 10.75 7.6 9.95 7.6 9.4 7.95 8.8 8.25 8.5 8.9 8.15 9.45 8.15 10.25 8.15 10.85 8.4 11.5 8.7 12.05 9.2 12.4 9.75 12.7 10.35 12.85
L 9.7 13.75 9.9 13.9 10.15 13.8 10.5 13.75
Q 10.8 13.75 10.95 13.9 11.15 13.95 11.15 14.25 11.15 14.5 10.9 14.65 10.7 14.8 10.35 14.8 9.95 14.8 9.45 14.6
L 9.35 14.9 9.85 15.1 10.35 15.15
Q 10.75 15.15 11.25 14.95 11.65 14.7 11.65 14.25 11.65 13.9 11.35 13.65 11.05 13.5 10.7 13.5
L 10.25 13.55 10.7 12.85
Q 11.25 12.85 11.7 12.7 12.15 12.55 12.45 12.25
L 12.35 11.75
Q 12.05 12 11.65 12.15 11.3 12.3 10.8 12.3 10.25 12.3 9.75 12.05 9.3 11.8 9.05 11.3 8.8 10.85 8.8 10.25 8.8 9.6 9.05 9.2 9.25 8.7 9.7 8.4 10.15 8.1 10.75 8.1 11.2 8.1 11.55 8.25 11.9 8.4 12.15 8.65
L 12.45 8.2
Q 12.15 7.9 11.7 7.75 Z"/>
</g>

<g id="BDM_300x600_FR_psd_Asset_V6_1_Vous_cherchez_des__fa_ons_plus_novatrices__de_communiquer__avec_0_Layer0_0_MEMBER_18_FILL">
<path fill="#D82C26" stroke="none" d="
M 13.95 7.95
Q 13.3 8.3 13 8.85 12.65 9.4 12.65 10.2 12.65 10.95 13 11.6 13.3 12.15 13.95 12.5 14.5 12.85 15.3 12.85 16.1 12.85 16.65 12.5 17.2 12.2 17.6 11.6 17.95 10.8 17.95 10.2 17.95 9.55 17.6 8.85 17.2 8.25 16.65 7.95 16.1 7.6 15.3 7.6 14.5 7.6 13.95 7.95
M 13.5 9.15
Q 13.85 8.65 14.2 8.4 14.75 8.1 15.3 8.1 15.9 8.1 16.35 8.4 16.85 8.75 17.05 9.15 17.3 9.75 17.3 10.2 17.3 10.9 17.05 11.25 16.85 11.7 16.35 12.05 15.9 12.35 15.3 12.35 14.75 12.35 14.2 12.05 13.8 11.8 13.5 11.25 13.25 10.75 13.25 10.2 13.25 9.75 13.5 9.15 Z"/>
</g>

<g id="BDM_300x600_FR_psd_Asset_V6_1_Vous_cherchez_des__fa_ons_plus_novatrices__de_communiquer__avec_0_Layer0_0_MEMBER_19_FILL">
<path fill="#D82C26" stroke="none" d="
M 22.6 8.2
Q 22.15 7.6 21.25 7.6 20.55 7.6 20.15 7.95 19.7 8.2 19.45 8.8
L 19.4 8.8 19.35 7.75 18.8 7.75 18.85 12.7 19.45 12.7 19.45 10.2
Q 19.45 9.5 19.65 9.1 19.85 8.7 20.25 8.35 20.65 8.1 21.1 8.1 21.8 8.1 22.15 8.6 22.45 9.15 22.45 9.85
L 22.45 12.7 23.05 12.7 23.05 9.7
Q 23.05 8.8 22.6 8.2 Z"/>
</g>

<g id="BDM_300x600_FR_psd_Asset_V6_1_Vous_cherchez_des__fa_ons_plus_novatrices__de_communiquer__avec_0_Layer0_0_MEMBER_20_FILL">
<path fill="#D82C26" stroke="none" d="
M 23.95 11.75
L 23.85 12.3
Q 24.2 12.55 24.6 12.7 25.15 12.85 25.65 12.85 26.1 12.85 26.45 12.7
L 27.1 12.2
Q 27.3 11.85 27.3 11.4 27.3 10.85 26.95 10.55 26.6 10.2 25.8 9.95 25.15 9.75 24.8 9.5 24.55 9.3 24.55 8.95 24.55 8.55 24.85 8.3 25.1 8.1 25.6 8.1 26 8.1 26.3 8.25 26.6 8.3 26.9 8.6
L 27.15 8.1 26.45 7.75
Q 26.1 7.6 25.6 7.6 25.2 7.6 24.8 7.75 24.45 7.9 24.2 8.2 23.95 8.45 23.95 8.95 23.95 9.5 24.3 9.8 24.75 10.15 25.35 10.35 26.1 10.6 26.4 10.8 26.7 11.1 26.7 11.45 26.7 11.9 26.4 12.1 26.1 12.35 25.6 12.35 24.65 12.35 23.95 11.75 Z"/>
</g>

<g id="BDM_300x600_FR_psd_Asset_V6_1_Vous_cherchez_des__fa_ons_plus_novatrices__de_communiquer__avec_0_Layer0_0_MEMBER_21_FILL">
<path fill="#D82C26" stroke="none" d="
M 34.9 8.9
Q 34.65 8.35 34.05 7.95 33.5 7.6 32.75 7.6 32.05 7.6 31.55 7.95 30.95 8.3 30.75 8.85
L 30.7 8.85 30.65 7.75 30.05 7.75 30.1 15.25 30.7 15.25 30.7 11.65 30.75 11.65
Q 31.05 12.2 31.55 12.55 32.15 12.85 32.75 12.85 33.5 12.85 34.05 12.5 34.65 12.1 34.9 11.55 35.25 11 35.25 10.25 35.25 9.45 34.9 8.9
M 33.7 8.4
Q 34.15 8.7 34.35 9.2 34.6 9.7 34.6 10.25 34.6 10.7 34.35 11.3 34.1 11.8 33.7 12.05 33.25 12.35 32.65 12.35 32.1 12.35 31.65 12.05 31.15 11.75 30.95 11.3 30.7 10.7 30.7 10.25 30.7 9.7 30.95 9.2 31.15 8.75 31.65 8.4 32.1 8.1 32.65 8.1 33.25 8.1 33.7 8.4 Z"/>
</g>

<g id="BDM_300x600_FR_psd_Asset_V6_1_Vous_cherchez_des__fa_ons_plus_novatrices__de_communiquer__avec_0_Layer0_0_MEMBER_22_FILL">
<path fill="#D82C26" stroke="none" d="
M 36.35 12.4
Q 36.55 12.7 36.9 12.85
L 37.2 12.3 36.85 12 36.75 11.45 36.75 4.65 36.1 4.75 36.1 11.6
Q 36.1 12.05 36.35 12.4 Z"/>
</g>

<g id="BDM_300x600_FR_psd_Asset_V6_1_Vous_cherchez_des__fa_ons_plus_novatrices__de_communiquer__avec_0_Layer0_0_MEMBER_23_FILL">
<path fill="#D82C26" stroke="none" d="
M 41.35 11.35
Q 41.2 11.75 40.75 12.1 40.35 12.35 39.9 12.35 39.2 12.35 38.85 11.85 38.55 11.35 38.55 10.6
L 38.55 7.75 37.95 7.75 37.95 10.75
Q 37.95 11.6 38.35 12.25 38.8 12.85 39.75 12.85 40.35 12.85 40.85 12.5 41.3 12.25 41.55 11.65
L 41.65 12.7 42.25 12.7 42.15 11.55 42.15 7.75 41.55 7.75 41.55 10.2
Q 41.55 10.95 41.35 11.35 Z"/>
</g>

<g id="BDM_300x600_FR_psd_Asset_V6_1_Vous_cherchez_des__fa_ons_plus_novatrices__de_communiquer__avec_0_Layer0_0_MEMBER_24_FILL">
<path fill="#D82C26" stroke="none" d="
M 44.8 8.1
L 45.5 8.25
Q 45.75 8.3 46.05 8.6
L 46.35 8.1 45.65 7.75
Q 45.2 7.6 44.75 7.6 44.35 7.6 43.95 7.75 43.6 7.9 43.35 8.2 43.1 8.55 43.1 8.95 43.1 9.45 43.45 9.8 43.9 10.15 44.55 10.35 45.25 10.6 45.55 10.8 45.9 11.1 45.9 11.45 45.9 11.9 45.55 12.1 45.3 12.35 44.8 12.35 43.85 12.35 43.15 11.75
L 43 12.3
Q 43.35 12.6 43.8 12.7 44.25 12.85 44.8 12.85 45.25 12.85 45.6 12.7 46.05 12.5 46.25 12.2 46.5 11.8 46.5 11.4 46.5 10.85 46.1 10.55 45.7 10.15 44.95 9.95 44.2 9.7 44 9.5 43.7 9.3 43.7 8.95 43.7 8.55 44 8.3 44.25 8.1 44.8 8.1 Z"/>
</g>

<g id="BDM_300x600_FR_psd_Asset_V6_1_Vous_cherchez_des__fa_ons_plus_novatrices__de_communiquer__avec_0_Layer0_0_MEMBER_25_FILL">
<path fill="#D82C26" stroke="none" d="
M 53.1 8.2
Q 52.65 7.6 51.7 7.6 51.1 7.6 50.6 7.95 50.15 8.2 49.9 8.8
L 49.85 8.8 49.8 7.75 49.25 7.75 49.3 12.7 49.9 12.7 49.9 10.2
Q 49.9 9.7 50.1 9.1 50.3 8.7 50.7 8.35 51.1 8.1 51.55 8.1 52.25 8.1 52.6 8.6 52.9 9.15 52.9 9.85
L 52.9 12.7 53.55 12.7 53.55 9.7
Q 53.55 8.8 53.1 8.2 Z"/>
</g>

<g id="BDM_300x600_FR_psd_Asset_V6_1_Vous_cherchez_des__fa_ons_plus_novatrices__de_communiquer__avec_0_Layer0_0_MEMBER_26_FILL">
<path fill="#D82C26" stroke="none" d="
M 55.65 7.95
Q 55.1 8.25 54.7 8.85 54.35 9.55 54.35 10.2 54.35 10.8 54.7 11.6 55.1 12.2 55.65 12.5 56.2 12.85 57 12.85 57.8 12.85 58.35 12.5 59 12.15 59.3 11.6 59.65 10.95 59.65 10.2 59.65 9.4 59.3 8.85 59 8.3 58.35 7.95 57.8 7.6 57 7.6 56.2 7.6 55.65 7.95
M 55 10.2
Q 55 9.6 55.25 9.15 55.45 8.75 55.95 8.4 56.4 8.1 57 8.1 57.6 8.1 58.05 8.4 58.45 8.65 58.8 9.15 59.05 9.75 59.05 10.2 59.05 10.75 58.8 11.25 58.5 11.8 58.1 12.05 57.6 12.35 57 12.35 56.4 12.35 55.95 12.05 55.45 11.7 55.25 11.25 55 10.9 55 10.2 Z"/>
</g>

<g id="BDM_300x600_FR_psd_Asset_V6_1_Vous_cherchez_des__fa_ons_plus_novatrices__de_communiquer__avec_0_Layer0_0_MEMBER_27_FILL">
<path fill="#D82C26" stroke="none" d="
M 59.65 7.75
L 61.55 12.7 62.25 12.7 64.1 7.75 63.45 7.75 61.9 12.1 60.3 7.75 59.65 7.75 Z"/>
</g>

<g id="BDM_300x600_FR_psd_Asset_V6_1_Vous_cherchez_des__fa_ons_plus_novatrices__de_communiquer__avec_0_Layer0_0_MEMBER_28_FILL">
<path fill="#D82C26" stroke="none" d="
M 65.35 7.75
Q 64.85 7.9 64.5 8.2
L 64.7 8.7 65.45 8.25
Q 65.9 8.1 66.3 8.1 66.95 8.1 67.3 8.45 67.7 8.75 67.7 9.45
L 67.7 9.75 67.1 9.75
Q 64.25 9.75 64.25 11.35 64.25 12.15 64.7 12.5 65.25 12.85 65.8 12.85 66.45 12.85 66.95 12.55 67.45 12.35 67.7 11.75
L 67.8 12.7 68.35 12.7 68.25 11.65 68.25 9.5
Q 68.25 8.55 67.75 8.05 67.3 7.6 66.35 7.6
L 65.35 7.75
M 65.15 12.15
Q 64.85 11.85 64.85 11.35 64.85 10.15 67.15 10.15
L 67.7 10.15 67.7 10.65
Q 67.7 10.95 67.5 11.45 67.3 11.85 66.9 12.1 66.55 12.4 65.95 12.4 65.55 12.4 65.15 12.15 Z"/>
</g>

<g id="BDM_300x600_FR_psd_Asset_V6_1_Vous_cherchez_des__fa_ons_plus_novatrices__de_communiquer__avec_0_Layer0_0_MEMBER_29_FILL">
<path fill="#D82C26" stroke="none" d="
M 71.45 8.25
L 71.6 7.75 70.2 7.75 70.2 6.3 69.55 6.55 69.55 7.75 68.75 7.75 68.65 8.25 69.55 8.25 69.55 11.5
Q 69.55 12.15 69.9 12.5 70.2 12.8 70.7 12.8
L 71.3 12.75 71.8 12.55 71.7 12.1
Q 71.3 12.3 70.9 12.3 70.55 12.3 70.35 12.1 70.2 11.9 70.2 11.45
L 70.2 8.25 71.45 8.25 Z"/>
</g>

<g id="BDM_300x600_FR_psd_Asset_V6_1_Vous_cherchez_des__fa_ons_plus_novatrices__de_communiquer__avec_0_Layer0_0_MEMBER_30_FILL">
<path fill="#D82C26" stroke="none" d="
M 74.4 7.6
Q 73.9 7.6 73.55 7.95 73.1 8.25 72.95 8.8
L 72.9 8.8 72.85 7.75 72.25 7.75 72.3 12.7 72.95 12.7 72.95 10.25
Q 72.95 9.3 73.3 8.75 73.7 8.15 74.35 8.15
L 74.8 8.25 74.9 7.7 74.4 7.6 Z"/>
</g>

<g id="BDM_300x600_FR_psd_Asset_V6_1_Vous_cherchez_des__fa_ons_plus_novatrices__de_communiquer__avec_0_Layer0_0_MEMBER_31_FILL">
<path fill="#D82C26" stroke="none" d="
M 76 7.75
L 75.4 7.75 75.4 12.7 76 12.7 76 7.75
M 76 6.1
Q 76.15 5.95 76.15 5.75
L 76 5.45
Q 75.95 5.3 75.7 5.3
L 75.4 5.45 75.25 5.75
Q 75.25 5.95 75.4 6.1
L 75.7 6.2 76 6.1 Z"/>
</g>

<g id="BDM_300x600_FR_psd_Asset_V6_1_Vous_cherchez_des__fa_ons_plus_novatrices__de_communiquer__avec_0_Layer0_0_MEMBER_32_FILL">
<path fill="#D82C26" stroke="none" d="
M 81.2 12.25
L 81.1 11.75
Q 80.8 12 80.4 12.15 80.05 12.3 79.5 12.3 79 12.3 78.5 12.05 78.05 11.8 77.8 11.3 77.55 10.85 77.55 10.25 77.55 9.6 77.8 9.2 78 8.7 78.45 8.4 78.9 8.1 79.5 8.1 79.85 8.1 80.3 8.25 80.65 8.4 80.9 8.65
L 81.2 8.2
Q 80.9 7.9 80.45 7.75
L 79.5 7.6
Q 78.7 7.6 78.15 7.95 77.55 8.25 77.25 8.9 76.9 9.45 76.9 10.25 76.9 11 77.2 11.6 77.6 12.2 78.15 12.5 78.7 12.85 79.45 12.85 80 12.85 80.45 12.7 80.9 12.55 81.2 12.25 Z"/>
</g>

<g id="BDM_300x600_FR_psd_Asset_V6_1_Vous_cherchez_des__fa_ons_plus_novatrices__de_communiquer__avec_0_Layer0_0_MEMBER_33_FILL">
<path fill="#D82C26" stroke="none" d="
M 85.95 8.8
Q 85.65 8.25 85.15 7.9 84.65 7.6 83.85 7.6 83.15 7.6 82.6 7.95 82.1 8.25 81.7 8.85 81.4 9.45 81.4 10.2 81.4 10.95 81.75 11.6 82.05 12.2 82.65 12.5 83.15 12.85 83.95 12.85 85.1 12.85 85.9 12.25
L 85.8 11.7
Q 85.5 12 85 12.15 84.6 12.35 84 12.35 83.4 12.35 82.95 12.05 82.6 11.9 82.25 11.35 82 10.85 82 10.3
L 86.2 10.3 86.2 10.05
Q 86.2 9.3 85.95 8.8
M 83.85 8.1
Q 84.65 8.1 85.15 8.55 85.6 9.1 85.6 9.85
L 82 9.85
Q 82.1 9.35 82.25 9.05 82.5 8.6 82.9 8.35 83.2 8.1 83.85 8.1 Z"/>
</g>

<g id="BDM_300x600_FR_psd_Asset_V6_1_Vous_cherchez_des__fa_ons_plus_novatrices__de_communiquer__avec_0_Layer0_0_MEMBER_34_FILL">
<path fill="#D82C26" stroke="none" d="
M 90 8.1
L 89.3 7.75
Q 88.95 7.6 88.45 7.6 88.05 7.6 87.65 7.75 87.3 7.9 87.05 8.2 86.8 8.45 86.8 8.95 86.8 9.5 87.15 9.8 87.45 10.1 88.2 10.35 88.95 10.6 89.25 10.8 89.55 11.1 89.55 11.45 89.55 11.9 89.25 12.1 88.95 12.35 88.45 12.35 87.5 12.35 86.8 11.75
L 86.7 12.3
Q 87.05 12.55 87.45 12.7
L 88.45 12.85
Q 88.95 12.85 89.3 12.7 89.7 12.45 89.9 12.2 90.15 11.9 90.15 11.4 90.15 10.85 89.8 10.55 89.45 10.2 88.65 9.95 88 9.75 87.65 9.5 87.35 9.3 87.35 8.95 87.35 8.5 87.7 8.3 87.95 8.1 88.45 8.1 88.85 8.1 89.15 8.25 89.45 8.3 89.75 8.6
L 90 8.1 Z"/>
</g>

<g id="BDM_300x600_FR_psd_Asset_V6_1_Vous_cherchez_des__fa_ons_plus_novatrices__de_communiquer__avec_0_Layer0_0_MEMBER_35_FILL">
<path fill="#D82C26" stroke="none" d="
M 5.75 17.3
L 5.1 17.4 5.1 21.55
Q 4.8 20.95 4.25 20.65 3.75 20.3 3.1 20.3 2.4 20.3 1.8 20.65 1.2 21.05 0.9 21.6 0.6 22.2 0.6 22.95 0.6 23.65 0.9 24.25 1.25 24.9 1.8 25.2 2.3 25.55 3.1 25.55 3.75 25.55 4.25 25.25 4.8 25 5.1 24.35
L 5.15 24.35 5.2 25.4 5.8 25.4 5.75 17.3
M 3.15 20.85
Q 3.7 20.85 4.2 21.1 4.6 21.35 4.9 21.9 5.15 22.4 5.15 22.95 5.15 23.4 4.9 24 4.55 24.5 4.2 24.75 3.75 25.05 3.15 25.05 2.6 25.05 2.15 24.75 1.65 24.45 1.45 24 1.2 23.4 1.2 22.95 1.2 22.4 1.45 21.9 1.65 21.45 2.15 21.1 2.65 20.85 3.15 20.85 Z"/>
</g>

<g id="BDM_300x600_FR_psd_Asset_V6_1_Vous_cherchez_des__fa_ons_plus_novatrices__de_communiquer__avec_0_Layer0_0_MEMBER_36_FILL">
<path fill="#D82C26" stroke="none" d="
M 6.6 22.9
Q 6.6 23.6 6.95 24.3 7.25 24.85 7.85 25.25 8.45 25.55 9.15 25.55 10.35 25.55 11.15 24.95
L 11.05 24.4
Q 10.65 24.7 10.25 24.85 9.8 25.05 9.2 25.05 8.7 25.05 8.2 24.8 7.7 24.5 7.5 24.05 7.3 23.75 7.2 23
L 11.45 23 11.45 22.75
Q 11.45 22.1 11.15 21.5 10.95 21 10.35 20.65 9.85 20.3 9.1 20.3 8.35 20.3 7.85 20.65 7.25 20.95 6.95 21.55 6.6 22.25 6.6 22.9
M 8.1 21.05
Q 8.6 20.8 9.1 20.8 9.9 20.8 10.35 21.3 10.85 21.8 10.85 22.55
L 7.25 22.55
Q 7.25 22.35 7.45 21.75 7.65 21.4 8.1 21.05 Z"/>
</g>

<g id="BDM_300x600_FR_psd_Asset_V6_1_Vous_cherchez_des__fa_ons_plus_novatrices__de_communiquer__avec_0_Layer0_0_MEMBER_37_FILL">
<path fill="#D82C26" stroke="none" d="
M 13.9 22.95
Q 13.9 23.75 14.25 24.3 14.55 24.85 15.15 25.25 15.75 25.55 16.5 25.55 17 25.55 17.45 25.4 17.9 25.25 18.2 24.95
L 18.1 24.45
Q 17.7 24.8 17.4 24.9 17.05 25.05 16.55 25.05 15.95 25.05 15.5 24.75 15 24.45 14.8 24 14.55 23.55 14.55 22.95 14.55 22.3 14.8 21.9 15 21.45 15.5 21.1 16 20.85 16.5 20.85 16.95 20.85 17.3 21 17.55 21.05 17.95 21.35
L 18.2 20.9
Q 18.05 20.75 17.45 20.45 17 20.3 16.5 20.3 15.7 20.3 15.15 20.65 14.6 20.95 14.25 21.6 13.9 22.15 13.9 22.95 Z"/>
</g>

<g id="BDM_300x600_FR_psd_Asset_V6_1_Vous_cherchez_des__fa_ons_plus_novatrices__de_communiquer__avec_0_Layer0_0_MEMBER_38_FILL">
<path fill="#D82C26" stroke="none" d="
M 23.35 24.3
Q 23.7 23.6 23.7 22.95 23.7 22.25 23.35 21.55 22.95 20.95 22.4 20.65 21.85 20.3 21.05 20.3 20.25 20.3 19.7 20.65 19.15 20.95 18.75 21.55 18.4 22.1 18.4 22.95 18.4 23.75 18.75 24.3 19.1 24.9 19.7 25.25 20.3 25.55 21.05 25.55 21.8 25.55 22.4 25.25 23 24.9 23.35 24.3
M 23.05 22.95
Q 23.05 23.55 22.8 24 22.6 24.45 22.1 24.75 21.65 25.05 21.05 25.05 20.45 25.05 20 24.75 19.6 24.5 19.25 24 19.05 23.55 19.05 22.95 19.05 22.3 19.25 21.85 19.6 21.35 20 21.1 20.5 20.85 21.05 20.85 21.6 20.85 22.1 21.1 22.6 21.45 22.8 21.85 23.05 22.3 23.05 22.95 Z"/>
</g>

<g id="BDM_300x600_FR_psd_Asset_V6_1_Vous_cherchez_des__fa_ons_plus_novatrices__de_communiquer__avec_0_Layer0_0_MEMBER_39_FILL">
<path fill="#D82C26" stroke="none" d="
M 25.1 20.45
L 24.55 20.45 24.6 25.4 25.2 25.4 25.2 22.95
Q 25.2 22.25 25.4 21.8 25.65 21.35 25.95 21.1 26.25 20.85 26.75 20.85 27.4 20.85 27.7 21.25 28 21.7 28 22.5
L 28 25.4 28.65 25.4 28.65 22.85
Q 28.65 21.95 29.05 21.4 29.45 20.85 30.2 20.85 30.9 20.85 31.2 21.35 31.5 21.8 31.5 22.6
L 31.5 25.4 32.1 25.4 32.1 22.45
Q 32.1 21.45 31.7 20.9 31.25 20.3 30.35 20.3 29.65 20.3 29.25 20.65 28.8 20.9 28.55 21.6 28.3 20.95 27.95 20.65 27.55 20.3 26.9 20.3 26.35 20.3 25.85 20.65 25.45 20.95 25.2 21.55
L 25.15 21.55 25.1 20.45 Z"/>
</g>

<g id="BDM_300x600_FR_psd_Asset_V6_1_Vous_cherchez_des__fa_ons_plus_novatrices__de_communiquer__avec_0_Layer0_0_MEMBER_40_FILL">
<path fill="#D82C26" stroke="none" d="
M 40.85 25.4
L 40.85 22.45
Q 40.85 21.5 40.4 20.9 39.95 20.3 39.05 20.3 38.35 20.3 37.95 20.65 37.5 20.95 37.25 21.6 37 20.95 36.65 20.65 36.3 20.3 35.65 20.3 35 20.3 34.6 20.65 34.1 20.95 33.9 21.55
L 33.85 20.45 33.25 20.45 33.3 25.4 33.9 25.4 33.9 22.95
Q 33.9 22.4 34.15 21.8 34.3 21.35 34.7 21.1 35 20.85 35.5 20.85 36.1 20.85 36.4 21.25 36.75 21.8 36.75 22.5
L 36.75 25.4 37.35 25.4 37.35 22.85
Q 37.35 21.95 37.8 21.4 38.2 20.85 38.9 20.85 39.6 20.85 39.9 21.35 40.2 21.8 40.2 22.6
L 40.2 25.4 40.85 25.4 Z"/>
</g>

<g id="BDM_300x600_FR_psd_Asset_V6_1_Vous_cherchez_des__fa_ons_plus_novatrices__de_communiquer__avec_0_Layer0_0_MEMBER_41_FILL">
<path fill="#D82C26" stroke="none" d="
M 41.95 20.45
L 41.95 23.5
Q 41.95 24.35 42.4 24.95 42.85 25.55 43.75 25.55 44.35 25.55 44.85 25.25 45.4 24.85 45.55 24.35
L 45.65 25.45 46.3 25.4 46.2 24.85 46.2 20.45 45.55 20.45 45.55 22.95
Q 45.55 23.65 45.35 24.05 45.15 24.6 44.75 24.8 44.35 25.05 43.9 25.05 43.2 25.05 42.85 24.55 42.55 24.1 42.55 23.3
L 42.55 20.45 41.95 20.45 Z"/>
</g>

<g id="BDM_300x600_FR_psd_Asset_V6_1_Vous_cherchez_des__fa_ons_plus_novatrices__de_communiquer__avec_0_Layer0_0_MEMBER_42_FILL">
<path fill="#D82C26" stroke="none" d="
M 48 20.45
L 47.4 20.45 47.45 25.4 48.05 25.4 48.05 22.9
Q 48.05 22.3 48.3 21.8 48.5 21.35 48.9 21.1 49.2 20.85 49.7 20.85 50.45 20.85 50.75 21.3 51.05 21.85 51.05 22.55
L 51.05 25.4 51.7 25.4 51.7 22.4
Q 51.7 21.5 51.25 20.9 50.8 20.3 49.85 20.3 49.25 20.3 48.75 20.65 48.25 20.95 48.05 21.55
L 48 20.45 Z"/>
</g>

<g id="BDM_300x600_FR_psd_Asset_V6_1_Vous_cherchez_des__fa_ons_plus_novatrices__de_communiquer__avec_0_Layer0_0_MEMBER_43_FILL">
<path fill="#D82C26" stroke="none" d="
M 53.5 20.45
L 52.85 20.45 52.85 25.4 53.5 25.4 53.5 20.45
M 53.6 18.45
L 53.5 18.15
Q 53.4 18.05 53.15 18.05 52.95 18.05 52.85 18.15
L 52.7 18.45
Q 52.7 18.65 52.85 18.8
L 53.15 18.95
Q 53.35 18.95 53.5 18.8
L 53.6 18.45 Z"/>
</g>

<g id="BDM_300x600_FR_psd_Asset_V6_1_Vous_cherchez_des__fa_ons_plus_novatrices__de_communiquer__avec_0_Layer0_0_MEMBER_44_FILL">
<path fill="#D82C26" stroke="none" d="
M 54.35 22.95
Q 54.35 23.55 54.7 24.25 55.05 24.9 55.55 25.2 56.1 25.55 56.85 25.55 57.55 25.55 58.05 25.25 58.65 24.9 58.85 24.35
L 58.9 24.35 58.9 26.6
Q 58.9 27.75 59.95 27.95
L 60.25 27.45
Q 59.9 27.35 59.65 27.1 59.5 26.9 59.5 26.45
L 59.55 20.45 58.95 20.45 58.9 21.55 58.85 21.55
Q 58.65 21 58.05 20.65 57.55 20.3 56.85 20.3 56.25 20.3 55.55 20.65 54.95 21.05 54.7 21.6 54.35 22.3 54.35 22.95
M 55 22.95
Q 55 22.4 55.25 21.9 55.45 21.4 55.9 21.1 56.4 20.85 56.95 20.85 57.45 20.85 57.95 21.1 58.45 21.45 58.65 21.9 58.9 22.3 58.9 22.95 58.9 23.55 58.65 24 58.45 24.45 57.95 24.75 57.5 25.05 56.95 25.05 56.35 25.05 55.9 24.75 55.5 24.5 55.25 24 55 23.4 55 22.95 Z"/>
</g>

<g id="BDM_300x600_FR_psd_Asset_V6_1_Vous_cherchez_des__fa_ons_plus_novatrices__de_communiquer__avec_0_Layer0_0_MEMBER_45_FILL">
<path fill="#D82C26" stroke="none" d="
M 61.3 23.3
L 61.3 20.45 60.65 20.45 60.65 23.5
Q 60.65 24.35 61.1 24.95 61.55 25.55 62.5 25.55 63.1 25.55 63.55 25.25 64.1 24.9 64.3 24.35
L 64.4 25.45 65 25.4 64.9 24.25 64.9 20.45 64.3 20.45 64.3 22.95
Q 64.3 23.55 64.05 24.05 63.9 24.55 63.5 24.8 63.1 25.05 62.65 25.05 61.9 25.05 61.6 24.55 61.3 24.1 61.3 23.3 Z"/>
</g>

<g id="BDM_300x600_FR_psd_Asset_V6_1_Vous_cherchez_des__fa_ons_plus_novatrices__de_communiquer__avec_0_Layer0_0_MEMBER_46_FILL">
<path fill="#D82C26" stroke="none" d="
M 70.35 21.5
Q 70 20.9 69.55 20.65 69.05 20.3 68.25 20.3 67.55 20.3 67 20.65 66.5 20.95 66.1 21.55 65.8 22.15 65.8 22.9 65.8 23.75 66.15 24.3 66.45 24.85 67.05 25.25 67.6 25.55 68.35 25.55 69.5 25.55 70.3 24.95
L 70.2 24.4
Q 69.9 24.7 69.4 24.85 69 25.05 68.4 25.05 67.85 25.05 67.35 24.8 67 24.55 66.65 24.05 66.4 23.55 66.4 23
L 70.6 23 70.6 22.75
Q 70.6 22 70.35 21.5
M 67.3 21.05
Q 67.7 20.8 68.25 20.8 69.05 20.8 69.55 21.3 69.95 21.7 70.05 22.55
L 66.4 22.55
Q 66.5 22.05 66.65 21.75 66.9 21.3 67.3 21.05 Z"/>
</g>

<g id="BDM_300x600_FR_psd_Asset_V6_1_Vous_cherchez_des__fa_ons_plus_novatrices__de_communiquer__avec_0_Layer0_0_MEMBER_47_FILL">
<path fill="#D82C26" stroke="none" d="
M 74.1 20.4
L 73.55 20.3
Q 73.05 20.3 72.7 20.65 72.35 20.95 72.1 21.55
L 72.05 20.45 71.45 20.45 71.5 25.4 72.1 25.4 72.1 22.95
Q 72.1 22.15 72.5 21.45 72.9 20.85 73.5 20.85
L 73.95 20.95 74.1 20.4 Z"/>
</g>

<g id="BDM_300x600_FR_psd_Asset_V6_1_Vous_cherchez_des__fa_ons_plus_novatrices__de_communiquer__avec_0_Layer0_0_MEMBER_48_FILL">
<path fill="#D82C26" stroke="none" d="
M 2.65 33.5
Q 3.35 33.5 3.7 33.85 4.05 34.2 4.05 34.85
L 4.05 35.15 3.45 35.15
Q 0.6 35.15 0.6 36.8 0.6 37.55 1.1 37.9 1.5 38.25 2.2 38.25 2.7 38.25 3.3 38 3.8 37.7 4.05 37.15
L 4.1 37.15 4.15 38.15 4.7 38.15 4.65 34.9
Q 4.65 34 4.15 33.5 3.65 33 2.75 33 2.15 33 1.75 33.2 1.2 33.35 0.9 33.65
L 1.05 34.1
Q 1.4 33.85 1.8 33.7 2.2 33.5 2.65 33.5
M 4.05 36.05
Q 4.05 36.5 3.85 36.9 3.7 37.25 3.25 37.55 2.85 37.8 2.3 37.8 1.9 37.8 1.55 37.55 1.2 37.35 1.2 36.75 1.2 35.55 3.55 35.55
L 4.05 35.55 4.05 36.05 Z"/>
</g>

<g id="BDM_300x600_FR_psd_Asset_V6_1_Vous_cherchez_des__fa_ons_plus_novatrices__de_communiquer__avec_0_Layer0_0_MEMBER_49_FILL">
<path fill="#D82C26" stroke="none" d="
M 4.9 33.15
L 6.85 38.15 7.55 38.15 9.4 33.15 8.75 33.15 7.2 37.5 5.6 33.15 4.9 33.15 Z"/>
</g>

<g id="BDM_300x600_FR_psd_Asset_V6_1_Vous_cherchez_des__fa_ons_plus_novatrices__de_communiquer__avec_0_Layer0_0_MEMBER_50_FILL">
<path fill="#D82C26" stroke="none" d="
M 11.85 33
Q 11.15 33 10.6 33.35 10.15 33.6 9.7 34.25 9.4 34.85 9.4 35.6 9.4 36.45 9.75 37 10.05 37.55 10.65 37.95 11.25 38.3 11.95 38.3 13 38.3 13.9 37.65
L 13.8 37.1
Q 13.55 37.4 13 37.6 12.55 37.75 12 37.75 11.35 37.75 10.95 37.5 10.6 37.25 10.25 36.75 10 36.25 10 35.75
L 14.2 35.75 14.2 35.45
Q 14.2 34.7 13.95 34.25 13.65 33.65 13.15 33.35 12.65 33 11.85 33
M 10.9 33.8
Q 11.3 33.5 11.85 33.5 12.65 33.5 13.15 34 13.55 34.4 13.65 35.3
L 10 35.3
Q 10.1 34.8 10.25 34.45 10.55 34 10.9 33.8 Z"/>
</g>

<g id="BDM_300x600_FR_psd_Asset_V6_1_Vous_cherchez_des__fa_ons_plus_novatrices__de_communiquer__avec_0_Layer0_0_MEMBER_51_FILL">
<path fill="#D82C26" stroke="none" d="
M 14.8 35.65
Q 14.8 36.4 15.1 37 15.45 37.6 16.05 37.95 16.75 38.3 17.35 38.3 17.75 38.3 18.35 38.1 18.8 37.95 19.1 37.65
L 19 37.15
Q 18.6 37.5 18.3 37.6 17.95 37.75 17.45 37.75 16.85 37.75 16.4 37.45 15.95 37.2 15.7 36.7 15.45 36.35 15.45 35.65 15.45 35 15.7 34.6 15.95 34.05 16.35 33.85 16.8 33.55 17.4 33.55 17.85 33.55 18.2 33.7 18.65 33.85 18.8 34.1
L 19.1 33.6
Q 18.75 33.35 18.35 33.2 17.95 33 17.4 33 16.6 33 16.05 33.35 15.45 33.75 15.15 34.3 14.8 34.85 14.8 35.65 Z"/>
</g>

<g id="BDM_300x600_FR_psd_Asset_V6_1_Vous_cherchez_des__fa_ons_plus_novatrices__de_communiquer__avec_0_Layer0_0_MEMBER_52_FILL">
<path fill="#D82C26" stroke="none" d="
M 21.85 37.8
Q 22.1 38.1 22.45 38.25
L 22.7 37.7
Q 22.4 37.6 22.35 37.4
L 22.25 36.9 22.25 30.05 21.65 30.15 21.65 37.05
Q 21.65 37.55 21.85 37.8 Z"/>
</g>

<g id="BDM_300x600_FR_psd_Asset_V6_1_Vous_cherchez_des__fa_ons_plus_novatrices__de_communiquer__avec_0_Layer0_0_MEMBER_53_FILL">
<path fill="#D82C26" stroke="none" d="
M 23.15 35.6
Q 23.15 36.45 23.5 37 23.8 37.55 24.4 37.95 25.1 38.3 25.7 38.3 26.8 38.3 27.7 37.65
L 27.6 37.1 26.75 37.6
Q 26.3 37.75 25.75 37.75 25.15 37.75 24.75 37.5 24.25 37.2 24.05 36.75 23.75 36.3 23.75 35.75
L 27.95 35.75 28 35.45
Q 28 34.8 27.7 34.25 27.4 33.65 26.9 33.35 26.4 33 25.6 33 24.9 33 24.35 33.35 23.85 33.65 23.5 34.25 23.15 34.8 23.15 35.6
M 24 34.45
Q 24.3 34 24.65 33.8 25.05 33.5 25.6 33.5 26.4 33.5 26.9 34 27.3 34.4 27.4 35.3
L 23.8 35.3
Q 23.8 34.85 24 34.45 Z"/>
</g>

<g id="BDM_300x600_FR_psd_Asset_V6_1_Vous_cherchez_des__fa_ons_plus_novatrices__de_communiquer__avec_0_Layer0_0_MEMBER_54_FILL">
<path fill="#D82C26" stroke="none" d="
M 31 36.25
Q 31.35 36.5 31.35 36.85 31.35 37.2 31 37.55 30.65 37.8 30.2 37.8 29.2 37.8 28.55 37.15
L 28.45 37.7
Q 28.7 37.95 29.25 38.1 29.7 38.25 30.25 38.25 30.7 38.25 31.05 38.1 31.4 37.95 31.7 37.6 31.9 37.35 31.9 36.8 31.9 36.25 31.55 35.95 31.2 35.65 30.4 35.35 29.7 35.1 29.4 34.9 29.15 34.75 29.15 34.35 29.15 33.95 29.45 33.7 29.85 33.5 30.2 33.5 30.6 33.5 30.9 33.65 31.3 33.8 31.5 34
L 31.75 33.55 31.1 33.15
Q 30.65 33 30.2 33 29.8 33 29.4 33.15 29 33.3 28.8 33.65 28.55 34 28.55 34.4 28.55 34.95 28.9 35.25 29.15 35.45 29.95 35.8 30.7 36.05 31 36.25 Z"/>
</g>

<g id="BDM_300x600_FR_psd_Asset_V6_1_Vous_cherchez_des__fa_ons_plus_novatrices__de_communiquer__avec_0_Layer0_0_MEMBER_55_FILL">
<path fill="#D82C26" stroke="none" d="
M 34.3 35.65
Q 34.3 36.3 34.65 37 34.9 37.5 35.55 37.95 36.25 38.3 36.9 38.3 37.25 38.3 37.85 38.1 38.3 37.95 38.6 37.65
L 38.5 37.15
Q 38.2 37.45 37.8 37.6 37.45 37.75 36.95 37.75 36.35 37.75 35.9 37.45 35.4 37.15 35.2 36.7 34.95 36.2 34.95 35.65 34.95 35.1 35.2 34.6 35.4 34.1 35.9 33.85 36.35 33.55 36.95 33.55
L 37.7 33.7
Q 38.2 33.9 38.35 34.1
L 38.6 33.6
Q 38.25 33.35 37.85 33.2 37.45 33 36.9 33 36.15 33 35.6 33.35 35 33.7 34.65 34.3 34.3 35 34.3 35.65 Z"/>
</g>

<g id="BDM_300x600_FR_psd_Asset_V6_1_Vous_cherchez_des__fa_ons_plus_novatrices__de_communiquer__avec_0_Layer0_0_MEMBER_56_FILL">
<path fill="#D82C26" stroke="none" d="
M 39.45 37.8
Q 39.7 38.1 40.05 38.25
L 40.3 37.7
Q 40 37.6 39.95 37.4
L 39.85 36.9 39.85 30.05 39.2 30.15 39.2 37.05
Q 39.2 37.45 39.45 37.8 Z"/>
</g>

<g id="BDM_300x600_FR_psd_Asset_V6_1_Vous_cherchez_des__fa_ons_plus_novatrices__de_communiquer__avec_0_Layer0_0_MEMBER_57_FILL">
<path fill="#D82C26" stroke="none" d="
M 41.75 33.15
L 41.1 33.15 41.1 38.15 41.75 38.15 41.75 33.15
M 41.75 30.85
L 41.45 30.75 41.1 30.85 41 31.2 41.1 31.5
Q 41.25 31.65 41.45 31.65
L 41.75 31.5
Q 41.85 31.4 41.85 31.2 41.85 30.95 41.75 30.85 Z"/>
</g>

<g id="BDM_300x600_FR_psd_Asset_V6_1_Vous_cherchez_des__fa_ons_plus_novatrices__de_communiquer__avec_0_Layer0_0_MEMBER_58_FILL">
<path fill="#D82C26" stroke="none" d="
M 42.65 35.6
Q 42.65 36.4 42.95 37 43.3 37.55 43.85 37.95 44.55 38.3 45.15 38.3 46.25 38.3 47.15 37.65
L 47.05 37.1
Q 46.85 37.3 46.25 37.6 45.8 37.75 45.25 37.75 44.6 37.75 44.2 37.5 43.7 37.2 43.5 36.75 43.25 36.25 43.25 35.75
L 47.45 35.75 47.45 35.45
Q 47.45 34.85 47.2 34.25 46.9 33.65 46.35 33.35 45.85 33 45.1 33 44.35 33 43.85 33.35 43.3 33.6 42.95 34.25 42.65 34.85 42.65 35.6
M 44.1 33.8
Q 44.55 33.5 45.1 33.5 45.9 33.5 46.35 34 46.85 34.45 46.85 35.3
L 43.25 35.3
Q 43.25 34.95 43.5 34.45 43.75 34 44.1 33.8 Z"/>
</g>

<g id="BDM_300x600_FR_psd_Asset_V6_1_Vous_cherchez_des__fa_ons_plus_novatrices__de_communiquer__avec_0_Layer0_0_MEMBER_59_FILL">
<path fill="#D82C26" stroke="none" d="
M 52.15 33.6
Q 51.7 33 50.75 33 50.25 33 49.65 33.35 49.15 33.7 48.95 34.25
L 48.9 34.25 48.85 33.15 48.3 33.15 48.35 38.15 48.95 38.15 48.95 35.6
Q 48.95 35.1 49.15 34.5 49.4 34 49.75 33.8 50.15 33.55 50.6 33.55 51.35 33.55 51.65 34.05 51.95 34.5 51.95 35.25
L 51.95 38.15 52.6 38.15 52.6 35.1
Q 52.6 34.2 52.15 33.6 Z"/>
</g>

<g id="BDM_300x600_FR_psd_Asset_V6_1_Vous_cherchez_des__fa_ons_plus_novatrices__de_communiquer__avec_0_Layer0_0_MEMBER_60_FILL">
<path fill="#D82C26" stroke="none" d="
M 53.85 33.65
L 53.85 36.95
Q 53.85 37.55 54.15 37.9 54.5 38.25 55 38.25
L 55.55 38.15 56.05 37.95 56 37.5
Q 55.6 37.7 55.2 37.7 54.85 37.7 54.65 37.5 54.45 37.2 54.45 36.85
L 54.45 33.65 55.75 33.65 55.85 33.15 54.45 33.15 54.45 31.75 53.85 32 53.85 33.15 53.05 33.15 52.9 33.65 53.85 33.65 Z"/>
</g>

<g id="BDM_300x600_FR_psd_Asset_V6_1_Vous_cherchez_des__fa_ons_plus_novatrices__de_communiquer__avec_0_Layer0_0_MEMBER_61_FILL">
<path fill="#D82C26" stroke="none" d="
M 59.7 33.55
L 59 33.15
Q 58.65 33 58.15 33 57.75 33 57.35 33.15 57 33.3 56.7 33.65 56.5 33.9 56.5 34.4 56.5 34.95 56.85 35.25 57.05 35.45 57.9 35.8
L 58.95 36.25
Q 59.25 36.5 59.25 36.85 59.25 37.25 58.95 37.55 58.55 37.8 58.15 37.8 57.15 37.8 56.5 37.15
L 56.4 37.7
Q 56.65 37.95 57.15 38.1 57.6 38.25 58.15 38.25 58.65 38.25 59 38.1 59.4 37.95 59.6 37.6 59.85 37.25 59.85 36.8 59.85 36.25 59.5 35.95 59.15 35.65 58.35 35.35 57.7 35.15 57.35 34.9 57.05 34.75 57.05 34.35 57.05 33.9 57.4 33.7 57.8 33.5 58.15 33.5 58.55 33.5 58.85 33.65
L 59.45 34 59.7 33.55 Z"/>
</g>

<g id="BDM_300x600_FR_psd_Asset_V6_1_Vous_cherchez_des__fa_ons_plus_novatrices__de_communiquer__avec_0_Layer0_0_MEMBER_62_FILL">
<path fill="#D82C26" stroke="none" d="
M 59.8 31.85
Q 60.1 31.5 60.55 31.25 61.05 31 61.55 31 62.2 31 62.6 31.35 63 31.75 63 32.3
L 62.9 32.9 62.6 33.35 62.05 33.9 61.4 34.75
Q 61.25 35.2 61.25 35.65
L 61.25 36 61.85 36 61.9 35.15
Q 62 34.85 62.15 34.7 62.35 34.4 62.65 34.15
L 63.2 33.55
Q 63.4 33.35 63.5 33 63.65 32.7 63.65 32.25 63.65 31.7 63.4 31.3 63.15 30.9 62.65 30.65 62.25 30.45 61.6 30.45 60.95 30.45 60.35 30.7 59.9 30.9 59.45 31.35
L 59.8 31.85
M 61.25 38.05
Q 61.4 38.2 61.6 38.2
L 61.9 38.05
Q 62.05 37.9 62.05 37.7
L 61.9 37.4 61.6 37.25
Q 61.4 37.25 61.25 37.4
L 61.1 37.7
Q 61.1 37.9 61.25 38.05 Z"/>
</g>
</defs>

<g transform="matrix( 1, 0, 0, 1, -58,53) ">
<g transform="matrix( 1, 0, 0, 1, 52,0) ">
<g transform="matrix( 1, 0, 0, 1, 33,5) ">
<g transform="matrix( 2.815704345703125, 0, 0, 2.832611083984375, 0.15,23.6) ">
<use xlink:href="#BDM_300x600_FR_psd_Asset_V6_1_Vous_cherchez_des__fa_ons_plus_novatrices__de_communiquer__avec_0_Layer0_0_MEMBER_0_FILL"/>
</g>

<g transform="matrix( 2.815704345703125, 0, 0, 2.832611083984375, 0.15,23.6) ">
<use xlink:href="#BDM_300x600_FR_psd_Asset_V6_1_Vous_cherchez_des__fa_ons_plus_novatrices__de_communiquer__avec_0_Layer0_0_MEMBER_1_FILL"/>
</g>

<g transform="matrix( 2.815704345703125, 0, 0, 2.832611083984375, 0.15,23.6) ">
<use xlink:href="#BDM_300x600_FR_psd_Asset_V6_1_Vous_cherchez_des__fa_ons_plus_novatrices__de_communiquer__avec_0_Layer0_0_MEMBER_2_FILL"/>
</g>

<g transform="matrix( 2.815704345703125, 0, 0, 2.832611083984375, 0.15,23.6) ">
<use xlink:href="#BDM_300x600_FR_psd_Asset_V6_1_Vous_cherchez_des__fa_ons_plus_novatrices__de_communiquer__avec_0_Layer0_0_MEMBER_3_FILL"/>
</g>

<g transform="matrix( 2.815704345703125, 0, 0, 2.832611083984375, 0.15,23.6) ">
<use xlink:href="#BDM_300x600_FR_psd_Asset_V6_1_Vous_cherchez_des__fa_ons_plus_novatrices__de_communiquer__avec_0_Layer0_0_MEMBER_4_FILL"/>
</g>

<g transform="matrix( 2.815704345703125, 0, 0, 2.832611083984375, 0.15,23.6) ">
<use xlink:href="#BDM_300x600_FR_psd_Asset_V6_1_Vous_cherchez_des__fa_ons_plus_novatrices__de_communiquer__avec_0_Layer0_0_MEMBER_5_FILL"/>
</g>

<g transform="matrix( 2.815704345703125, 0, 0, 2.832611083984375, 0.15,23.6) ">
<use xlink:href="#BDM_300x600_FR_psd_Asset_V6_1_Vous_cherchez_des__fa_ons_plus_novatrices__de_communiquer__avec_0_Layer0_0_MEMBER_6_FILL"/>
</g>

<g transform="matrix( 2.815704345703125, 0, 0, 2.832611083984375, 0.15,23.6) ">
<use xlink:href="#BDM_300x600_FR_psd_Asset_V6_1_Vous_cherchez_des__fa_ons_plus_novatrices__de_communiquer__avec_0_Layer0_0_MEMBER_7_FILL"/>
</g>

<g transform="matrix( 2.815704345703125, 0, 0, 2.832611083984375, 0.15,23.6) ">
<use xlink:href="#BDM_300x600_FR_psd_Asset_V6_1_Vous_cherchez_des__fa_ons_plus_novatrices__de_communiquer__avec_0_Layer0_0_MEMBER_8_FILL"/>
</g>

<g transform="matrix( 2.815704345703125, 0, 0, 2.832611083984375, 0.15,23.6) ">
<use xlink:href="#BDM_300x600_FR_psd_Asset_V6_1_Vous_cherchez_des__fa_ons_plus_novatrices__de_communiquer__avec_0_Layer0_0_MEMBER_9_FILL"/>
</g>

<g transform="matrix( 2.815704345703125, 0, 0, 2.832611083984375, 0.15,23.6) ">
<use xlink:href="#BDM_300x600_FR_psd_Asset_V6_1_Vous_cherchez_des__fa_ons_plus_novatrices__de_communiquer__avec_0_Layer0_0_MEMBER_10_FILL"/>
</g>

<g transform="matrix( 2.815704345703125, 0, 0, 2.832611083984375, 0.15,23.6) ">
<use xlink:href="#BDM_300x600_FR_psd_Asset_V6_1_Vous_cherchez_des__fa_ons_plus_novatrices__de_communiquer__avec_0_Layer0_0_MEMBER_11_FILL"/>
</g>

<g transform="matrix( 2.815704345703125, 0, 0, 2.832611083984375, 0.15,23.6) ">
<use xlink:href="#BDM_300x600_FR_psd_Asset_V6_1_Vous_cherchez_des__fa_ons_plus_novatrices__de_communiquer__avec_0_Layer0_0_MEMBER_12_FILL"/>
</g>

<g transform="matrix( 2.815704345703125, 0, 0, 2.832611083984375, 0.15,23.6) ">
<use xlink:href="#BDM_300x600_FR_psd_Asset_V6_1_Vous_cherchez_des__fa_ons_plus_novatrices__de_communiquer__avec_0_Layer0_0_MEMBER_13_FILL"/>
</g>

<g transform="matrix( 2.815704345703125, 0, 0, 2.832611083984375, 0.15,23.6) ">
<use xlink:href="#BDM_300x600_FR_psd_Asset_V6_1_Vous_cherchez_des__fa_ons_plus_novatrices__de_communiquer__avec_0_Layer0_0_MEMBER_14_FILL"/>
</g>

<g transform="matrix( 2.815704345703125, 0, 0, 2.832611083984375, 0.15,23.6) ">
<use xlink:href="#BDM_300x600_FR_psd_Asset_V6_1_Vous_cherchez_des__fa_ons_plus_novatrices__de_communiquer__avec_0_Layer0_0_MEMBER_15_FILL"/>
</g>

<g transform="matrix( 2.815704345703125, 0, 0, 2.832611083984375, 0.15,23.6) ">
<use xlink:href="#BDM_300x600_FR_psd_Asset_V6_1_Vous_cherchez_des__fa_ons_plus_novatrices__de_communiquer__avec_0_Layer0_0_MEMBER_16_FILL"/>
</g>

<g transform="matrix( 2.815704345703125, 0, 0, 2.832611083984375, 0.15,23.6) ">
<use xlink:href="#BDM_300x600_FR_psd_Asset_V6_1_Vous_cherchez_des__fa_ons_plus_novatrices__de_communiquer__avec_0_Layer0_0_MEMBER_17_FILL"/>
</g>

<g transform="matrix( 2.815704345703125, 0, 0, 2.832611083984375, 0.15,23.6) ">
<use xlink:href="#BDM_300x600_FR_psd_Asset_V6_1_Vous_cherchez_des__fa_ons_plus_novatrices__de_communiquer__avec_0_Layer0_0_MEMBER_18_FILL"/>
</g>

<g transform="matrix( 2.815704345703125, 0, 0, 2.832611083984375, 0.15,23.6) ">
<use xlink:href="#BDM_300x600_FR_psd_Asset_V6_1_Vous_cherchez_des__fa_ons_plus_novatrices__de_communiquer__avec_0_Layer0_0_MEMBER_19_FILL"/>
</g>

<g transform="matrix( 2.815704345703125, 0, 0, 2.832611083984375, 0.15,23.6) ">
<use xlink:href="#BDM_300x600_FR_psd_Asset_V6_1_Vous_cherchez_des__fa_ons_plus_novatrices__de_communiquer__avec_0_Layer0_0_MEMBER_20_FILL"/>
</g>

<g transform="matrix( 2.815704345703125, 0, 0, 2.832611083984375, 0.15,23.6) ">
<use xlink:href="#BDM_300x600_FR_psd_Asset_V6_1_Vous_cherchez_des__fa_ons_plus_novatrices__de_communiquer__avec_0_Layer0_0_MEMBER_21_FILL"/>
</g>

<g transform="matrix( 2.815704345703125, 0, 0, 2.832611083984375, 0.15,23.6) ">
<use xlink:href="#BDM_300x600_FR_psd_Asset_V6_1_Vous_cherchez_des__fa_ons_plus_novatrices__de_communiquer__avec_0_Layer0_0_MEMBER_22_FILL"/>
</g>

<g transform="matrix( 2.815704345703125, 0, 0, 2.832611083984375, 0.15,23.6) ">
<use xlink:href="#BDM_300x600_FR_psd_Asset_V6_1_Vous_cherchez_des__fa_ons_plus_novatrices__de_communiquer__avec_0_Layer0_0_MEMBER_23_FILL"/>
</g>

<g transform="matrix( 2.815704345703125, 0, 0, 2.832611083984375, 0.15,23.6) ">
<use xlink:href="#BDM_300x600_FR_psd_Asset_V6_1_Vous_cherchez_des__fa_ons_plus_novatrices__de_communiquer__avec_0_Layer0_0_MEMBER_24_FILL"/>
</g>

<g transform="matrix( 2.815704345703125, 0, 0, 2.832611083984375, 0.15,23.6) ">
<use xlink:href="#BDM_300x600_FR_psd_Asset_V6_1_Vous_cherchez_des__fa_ons_plus_novatrices__de_communiquer__avec_0_Layer0_0_MEMBER_25_FILL"/>
</g>

<g transform="matrix( 2.815704345703125, 0, 0, 2.832611083984375, 0.15,23.6) ">
<use xlink:href="#BDM_300x600_FR_psd_Asset_V6_1_Vous_cherchez_des__fa_ons_plus_novatrices__de_communiquer__avec_0_Layer0_0_MEMBER_26_FILL"/>
</g>

<g transform="matrix( 2.815704345703125, 0, 0, 2.832611083984375, 0.15,23.6) ">
<use xlink:href="#BDM_300x600_FR_psd_Asset_V6_1_Vous_cherchez_des__fa_ons_plus_novatrices__de_communiquer__avec_0_Layer0_0_MEMBER_27_FILL"/>
</g>

<g transform="matrix( 2.815704345703125, 0, 0, 2.832611083984375, 0.15,23.6) ">
<use xlink:href="#BDM_300x600_FR_psd_Asset_V6_1_Vous_cherchez_des__fa_ons_plus_novatrices__de_communiquer__avec_0_Layer0_0_MEMBER_28_FILL"/>
</g>

<g transform="matrix( 2.815704345703125, 0, 0, 2.832611083984375, 0.15,23.6) ">
<use xlink:href="#BDM_300x600_FR_psd_Asset_V6_1_Vous_cherchez_des__fa_ons_plus_novatrices__de_communiquer__avec_0_Layer0_0_MEMBER_29_FILL"/>
</g>

<g transform="matrix( 2.815704345703125, 0, 0, 2.832611083984375, 0.15,23.6) ">
<use xlink:href="#BDM_300x600_FR_psd_Asset_V6_1_Vous_cherchez_des__fa_ons_plus_novatrices__de_communiquer__avec_0_Layer0_0_MEMBER_30_FILL"/>
</g>

<g transform="matrix( 2.815704345703125, 0, 0, 2.832611083984375, 0.15,23.6) ">
<use xlink:href="#BDM_300x600_FR_psd_Asset_V6_1_Vous_cherchez_des__fa_ons_plus_novatrices__de_communiquer__avec_0_Layer0_0_MEMBER_31_FILL"/>
</g>

<g transform="matrix( 2.815704345703125, 0, 0, 2.832611083984375, 0.15,23.6) ">
<use xlink:href="#BDM_300x600_FR_psd_Asset_V6_1_Vous_cherchez_des__fa_ons_plus_novatrices__de_communiquer__avec_0_Layer0_0_MEMBER_32_FILL"/>
</g>

<g transform="matrix( 2.815704345703125, 0, 0, 2.832611083984375, 0.15,23.6) ">
<use xlink:href="#BDM_300x600_FR_psd_Asset_V6_1_Vous_cherchez_des__fa_ons_plus_novatrices__de_communiquer__avec_0_Layer0_0_MEMBER_33_FILL"/>
</g>

<g transform="matrix( 2.815704345703125, 0, 0, 2.832611083984375, 0.15,23.6) ">
<use xlink:href="#BDM_300x600_FR_psd_Asset_V6_1_Vous_cherchez_des__fa_ons_plus_novatrices__de_communiquer__avec_0_Layer0_0_MEMBER_34_FILL"/>
</g>

<g transform="matrix( 2.815704345703125, 0, 0, 2.832611083984375, 0.15,23.6) ">
<use xlink:href="#BDM_300x600_FR_psd_Asset_V6_1_Vous_cherchez_des__fa_ons_plus_novatrices__de_communiquer__avec_0_Layer0_0_MEMBER_35_FILL"/>
</g>

<g transform="matrix( 2.815704345703125, 0, 0, 2.832611083984375, 0.15,23.6) ">
<use xlink:href="#BDM_300x600_FR_psd_Asset_V6_1_Vous_cherchez_des__fa_ons_plus_novatrices__de_communiquer__avec_0_Layer0_0_MEMBER_36_FILL"/>
</g>

<g transform="matrix( 2.815704345703125, 0, 0, 2.832611083984375, 0.15,23.6) ">
<use xlink:href="#BDM_300x600_FR_psd_Asset_V6_1_Vous_cherchez_des__fa_ons_plus_novatrices__de_communiquer__avec_0_Layer0_0_MEMBER_37_FILL"/>
</g>

<g transform="matrix( 2.815704345703125, 0, 0, 2.832611083984375, 0.15,23.6) ">
<use xlink:href="#BDM_300x600_FR_psd_Asset_V6_1_Vous_cherchez_des__fa_ons_plus_novatrices__de_communiquer__avec_0_Layer0_0_MEMBER_38_FILL"/>
</g>

<g transform="matrix( 2.815704345703125, 0, 0, 2.832611083984375, 0.15,23.6) ">
<use xlink:href="#BDM_300x600_FR_psd_Asset_V6_1_Vous_cherchez_des__fa_ons_plus_novatrices__de_communiquer__avec_0_Layer0_0_MEMBER_39_FILL"/>
</g>

<g transform="matrix( 2.815704345703125, 0, 0, 2.832611083984375, 0.15,23.6) ">
<use xlink:href="#BDM_300x600_FR_psd_Asset_V6_1_Vous_cherchez_des__fa_ons_plus_novatrices__de_communiquer__avec_0_Layer0_0_MEMBER_40_FILL"/>
</g>

<g transform="matrix( 2.815704345703125, 0, 0, 2.832611083984375, 0.15,23.6) ">
<use xlink:href="#BDM_300x600_FR_psd_Asset_V6_1_Vous_cherchez_des__fa_ons_plus_novatrices__de_communiquer__avec_0_Layer0_0_MEMBER_41_FILL"/>
</g>

<g transform="matrix( 2.815704345703125, 0, 0, 2.832611083984375, 0.15,23.6) ">
<use xlink:href="#BDM_300x600_FR_psd_Asset_V6_1_Vous_cherchez_des__fa_ons_plus_novatrices__de_communiquer__avec_0_Layer0_0_MEMBER_42_FILL"/>
</g>

<g transform="matrix( 2.815704345703125, 0, 0, 2.832611083984375, 0.15,23.6) ">
<use xlink:href="#BDM_300x600_FR_psd_Asset_V6_1_Vous_cherchez_des__fa_ons_plus_novatrices__de_communiquer__avec_0_Layer0_0_MEMBER_43_FILL"/>
</g>

<g transform="matrix( 2.815704345703125, 0, 0, 2.832611083984375, 0.15,23.6) ">
<use xlink:href="#BDM_300x600_FR_psd_Asset_V6_1_Vous_cherchez_des__fa_ons_plus_novatrices__de_communiquer__avec_0_Layer0_0_MEMBER_44_FILL"/>
</g>

<g transform="matrix( 2.815704345703125, 0, 0, 2.832611083984375, 0.15,23.6) ">
<use xlink:href="#BDM_300x600_FR_psd_Asset_V6_1_Vous_cherchez_des__fa_ons_plus_novatrices__de_communiquer__avec_0_Layer0_0_MEMBER_45_FILL"/>
</g>

<g transform="matrix( 2.815704345703125, 0, 0, 2.832611083984375, 0.15,23.6) ">
<use xlink:href="#BDM_300x600_FR_psd_Asset_V6_1_Vous_cherchez_des__fa_ons_plus_novatrices__de_communiquer__avec_0_Layer0_0_MEMBER_46_FILL"/>
</g>

<g transform="matrix( 2.815704345703125, 0, 0, 2.832611083984375, 0.15,23.6) ">
<use xlink:href="#BDM_300x600_FR_psd_Asset_V6_1_Vous_cherchez_des__fa_ons_plus_novatrices__de_communiquer__avec_0_Layer0_0_MEMBER_47_FILL"/>
</g>

<g transform="matrix( 2.815704345703125, 0, 0, 2.832611083984375, 0.15,23.6) ">
<use xlink:href="#BDM_300x600_FR_psd_Asset_V6_1_Vous_cherchez_des__fa_ons_plus_novatrices__de_communiquer__avec_0_Layer0_0_MEMBER_48_FILL"/>
</g>

<g transform="matrix( 2.815704345703125, 0, 0, 2.832611083984375, 0.15,23.6) ">
<use xlink:href="#BDM_300x600_FR_psd_Asset_V6_1_Vous_cherchez_des__fa_ons_plus_novatrices__de_communiquer__avec_0_Layer0_0_MEMBER_49_FILL"/>
</g>

<g transform="matrix( 2.815704345703125, 0, 0, 2.832611083984375, 0.15,23.6) ">
<use xlink:href="#BDM_300x600_FR_psd_Asset_V6_1_Vous_cherchez_des__fa_ons_plus_novatrices__de_communiquer__avec_0_Layer0_0_MEMBER_50_FILL"/>
</g>

<g transform="matrix( 2.815704345703125, 0, 0, 2.832611083984375, 0.15,23.6) ">
<use xlink:href="#BDM_300x600_FR_psd_Asset_V6_1_Vous_cherchez_des__fa_ons_plus_novatrices__de_communiquer__avec_0_Layer0_0_MEMBER_51_FILL"/>
</g>

<g transform="matrix( 2.815704345703125, 0, 0, 2.832611083984375, 0.15,23.6) ">
<use xlink:href="#BDM_300x600_FR_psd_Asset_V6_1_Vous_cherchez_des__fa_ons_plus_novatrices__de_communiquer__avec_0_Layer0_0_MEMBER_52_FILL"/>
</g>

<g transform="matrix( 2.815704345703125, 0, 0, 2.832611083984375, 0.15,23.6) ">
<use xlink:href="#BDM_300x600_FR_psd_Asset_V6_1_Vous_cherchez_des__fa_ons_plus_novatrices__de_communiquer__avec_0_Layer0_0_MEMBER_53_FILL"/>
</g>

<g transform="matrix( 2.815704345703125, 0, 0, 2.832611083984375, 0.15,23.6) ">
<use xlink:href="#BDM_300x600_FR_psd_Asset_V6_1_Vous_cherchez_des__fa_ons_plus_novatrices__de_communiquer__avec_0_Layer0_0_MEMBER_54_FILL"/>
</g>

<g transform="matrix( 2.815704345703125, 0, 0, 2.832611083984375, 0.15,23.6) ">
<use xlink:href="#BDM_300x600_FR_psd_Asset_V6_1_Vous_cherchez_des__fa_ons_plus_novatrices__de_communiquer__avec_0_Layer0_0_MEMBER_55_FILL"/>
</g>

<g transform="matrix( 2.815704345703125, 0, 0, 2.832611083984375, 0.15,23.6) ">
<use xlink:href="#BDM_300x600_FR_psd_Asset_V6_1_Vous_cherchez_des__fa_ons_plus_novatrices__de_communiquer__avec_0_Layer0_0_MEMBER_56_FILL"/>
</g>

<g transform="matrix( 2.815704345703125, 0, 0, 2.832611083984375, 0.15,23.6) ">
<use xlink:href="#BDM_300x600_FR_psd_Asset_V6_1_Vous_cherchez_des__fa_ons_plus_novatrices__de_communiquer__avec_0_Layer0_0_MEMBER_57_FILL"/>
</g>

<g transform="matrix( 2.815704345703125, 0, 0, 2.832611083984375, 0.15,23.6) ">
<use xlink:href="#BDM_300x600_FR_psd_Asset_V6_1_Vous_cherchez_des__fa_ons_plus_novatrices__de_communiquer__avec_0_Layer0_0_MEMBER_58_FILL"/>
</g>

<g transform="matrix( 2.815704345703125, 0, 0, 2.832611083984375, 0.15,23.6) ">
<use xlink:href="#BDM_300x600_FR_psd_Asset_V6_1_Vous_cherchez_des__fa_ons_plus_novatrices__de_communiquer__avec_0_Layer0_0_MEMBER_59_FILL"/>
</g>

<g transform="matrix( 2.815704345703125, 0, 0, 2.832611083984375, 0.15,23.6) ">
<use xlink:href="#BDM_300x600_FR_psd_Asset_V6_1_Vous_cherchez_des__fa_ons_plus_novatrices__de_communiquer__avec_0_Layer0_0_MEMBER_60_FILL"/>
</g>

<g transform="matrix( 2.815704345703125, 0, 0, 2.832611083984375, 0.15,23.6) ">
<use xlink:href="#BDM_300x600_FR_psd_Asset_V6_1_Vous_cherchez_des__fa_ons_plus_novatrices__de_communiquer__avec_0_Layer0_0_MEMBER_61_FILL"/>
</g>

<g transform="matrix( 2.815704345703125, 0, 0, 2.832611083984375, 0.15,23.6) ">
<use xlink:href="#BDM_300x600_FR_psd_Asset_V6_1_Vous_cherchez_des__fa_ons_plus_novatrices__de_communiquer__avec_0_Layer0_0_MEMBER_62_FILL"/>
</g>
</g>
</g>
</g>
</svg>
