
<svg xmlns="http://www.w3.org/2000/svg" version="1.1" xmlns:xlink="http://www.w3.org/1999/xlink" preserveAspectRatio="none" x="0px" y="0px" width="300px" height="600px" viewBox="0 0 300 600">
<defs>
<g id="IT_300x600_psd_Asset_3_ManagedWiFi_IT_Research_DM11_2_with_a__managed__Wi_Fi_solution__0_Layer0_0_MEMBER_0_FILL">
<path fill="#D82C26" stroke="none" d="
M 0.9 -4.65
L 0.25 -4.65 1.7 0 2.3 0 3.65 -3.95 5 0 5.6 0 7.05 -4.65 6.45 -4.65 5.3 -0.65 3.95 -4.65 3.35 -4.65 2.05 -0.65 2 -0.65 0.9 -4.65 Z"/>
</g>

<g id="IT_300x600_psd_Asset_3_ManagedWiFi_IT_Research_DM11_2_with_a__managed__Wi_Fi_solution__0_Layer0_0_MEMBER_1_FILL">
<path fill="#D82C26" stroke="none" d="
M 8.5 -4.65
L 7.9 -4.65 7.9 0 8.5 0 8.5 -4.65
M 8.5 -6.2
L 8.6 -6.5 8.5 -6.8 8.2 -6.9 7.9 -6.8 7.8 -6.5 7.9 -6.2 8.2 -6.05 8.5 -6.2 Z"/>
</g>

<g id="IT_300x600_psd_Asset_3_ManagedWiFi_IT_Research_DM11_2_with_a__managed__Wi_Fi_solution__0_Layer0_0_MEMBER_2_FILL">
<path fill="#D82C26" stroke="none" d="
M 9.4 -4.65
L 9.25 -4.15 10.15 -4.15 10.15 -1.1
Q 10.15 -0.55 10.45 -0.2 10.75 0.1 11.2 0.1
L 11.75 0.05 12.2 -0.15 12.15 -0.6
Q 11.75 -0.4 11.4 -0.4 11.05 -0.4 10.9 -0.55 10.7 -0.75 10.7 -1.2
L 10.7 -4.15 11.9 -4.15 12.05 -4.65 10.7 -4.65 10.7 -5.95 10.15 -5.75 10.15 -4.65 9.4 -4.65 Z"/>
</g>

<g id="IT_300x600_psd_Asset_3_ManagedWiFi_IT_Research_DM11_2_with_a__managed__Wi_Fi_solution__0_Layer0_0_MEMBER_3_FILL">
<path fill="#D82C26" stroke="none" d="
M 13.55 -7.55
L 13 -7.45 13 0 13.55 0 13.55 -2.25
Q 13.55 -2.75 13.75 -3.35 14 -3.8 14.3 -4.05 14.7 -4.3 15.1 -4.3 15.8 -4.3 16.1 -3.8 16.35 -3.3 16.35 -2.7
L 16.35 0 16.95 0 16.95 -2.85
Q 16.95 -3.65 16.55 -4.2 16.15 -4.75 15.25 -4.75 14.7 -4.75 14.25 -4.45 13.75 -4.1 13.6 -3.65
L 13.55 -3.65 13.55 -7.55 Z"/>
</g>

<g id="IT_300x600_psd_Asset_3_ManagedWiFi_IT_Research_DM11_2_with_a__managed__Wi_Fi_solution__0_Layer0_0_MEMBER_4_FILL">
<path fill="#D82C26" stroke="none" d="
M 21.15 -4.15
Q 21.6 -4.3 21.95 -4.3 22.6 -4.3 22.9 -4 23.25 -3.65 23.25 -3.05
L 23.25 -2.8 22.7 -2.8
Q 20.05 -2.8 20.05 -1.25 20.05 -0.55 20.5 -0.2 21.05 0.15 21.55 0.15 22.1 0.15 22.6 -0.15 23.1 -0.4 23.25 -0.9
L 23.3 -0.9 23.35 0 23.9 0 23.8 -1 23.8 -3
Q 23.8 -3.9 23.35 -4.35 22.95 -4.75 22.05 -4.75 21.55 -4.75 21.1 -4.6 20.6 -4.45 20.3 -4.2
L 20.5 -3.75 21.15 -4.15
M 22.55 -0.55
Q 22.15 -0.3 21.65 -0.3 21.25 -0.3 20.9 -0.55 20.6 -0.75 20.6 -1.25 20.6 -2.4 22.8 -2.4
L 23.25 -2.4 23.25 -1.95
Q 23.25 -1.5 23.1 -1.15 22.85 -0.75 22.55 -0.55 Z"/>
</g>

<g id="IT_300x600_psd_Asset_3_ManagedWiFi_IT_Research_DM11_2_with_a__managed__Wi_Fi_solution__0_Layer0_0_MEMBER_5_FILL">
<path fill="#D82C26" stroke="none" d="
M 2.95 8.45
Q 3.6 8.45 3.85 8.85 4.15 9.25 4.15 9.95
L 4.15 12.7 4.7 12.7 4.7 10.3
Q 4.7 9.5 5.1 8.95 5.55 8.45 6.2 8.45 6.8 8.45 7.1 8.9 7.4 9.35 7.4 10.05
L 7.4 12.7 7.95 12.7 7.95 9.95
Q 7.95 9.05 7.55 8.5 7.15 7.95 6.3 7.95 5.7 7.95 5.25 8.25 4.8 8.6 4.6 9.15 4.45 8.6 4.05 8.25 3.7 7.95 3.1 7.95 2.6 7.95 2.15 8.25 1.75 8.5 1.5 9.1
L 1.45 8.1 0.9 8.1 0.95 12.7 1.5 12.7 1.5 10.4
Q 1.5 9.95 1.7 9.35 1.95 8.8 2.25 8.65 2.5 8.45 2.95 8.45 Z"/>
</g>

<g id="IT_300x600_psd_Asset_3_ManagedWiFi_IT_Research_DM11_2_with_a__managed__Wi_Fi_solution__0_Layer0_0_MEMBER_6_FILL">
<path fill="#D82C26" stroke="none" d="
M 10.9 8.4
Q 11.55 8.4 11.85 8.7 12.2 9.05 12.2 9.65
L 12.2 9.95 11.65 9.95
Q 9 9.95 9 11.45 9 12.15 9.45 12.5 10 12.85 10.5 12.85 11 12.85 11.5 12.6 11.95 12.35 12.2 11.8
L 12.25 11.8 12.25 12.3 12.3 12.7 12.85 12.7 12.75 11.7 12.75 9.7
Q 12.75 8.85 12.3 8.4 11.85 7.95 11 7.95 10.5 7.95 10.05 8.1
L 9.25 8.5 9.45 8.95 10.1 8.55
Q 10.55 8.4 10.9 8.4
M 12.05 11.55
Q 11.8 11.95 11.5 12.15 11.1 12.4 10.6 12.4 10.1 12.4 9.85 12.15 9.55 11.95 9.55 11.45 9.55 10.3 11.75 10.3
L 12.2 10.3 12.2 10.8 12.05 11.55 Z"/>
</g>

<g id="IT_300x600_psd_Asset_3_ManagedWiFi_IT_Research_DM11_2_with_a__managed__Wi_Fi_solution__0_Layer0_0_MEMBER_7_FILL">
<path fill="#D82C26" stroke="none" d="
M 14.65 8.1
L 14.1 8.1 14.15 12.7 14.7 12.7 14.7 10.35
Q 14.7 9.9 14.9 9.3 15.15 8.85 15.5 8.65 15.75 8.45 16.25 8.45 16.95 8.45 17.25 8.9 17.5 9.4 17.5 10.05
L 17.5 12.7 18.1 12.7 18.1 9.9
Q 18.1 9.05 17.7 8.5 17.25 7.95 16.4 7.95 15.9 7.95 15.35 8.25 14.95 8.5 14.7 9.1
L 14.65 8.1 Z"/>
</g>

<g id="IT_300x600_psd_Asset_3_ManagedWiFi_IT_Research_DM11_2_with_a__managed__Wi_Fi_solution__0_Layer0_0_MEMBER_8_FILL">
<path fill="#D82C26" stroke="none" d="
M 21.05 8.4
Q 21.65 8.4 22 8.7 22.35 9.05 22.35 9.65
L 22.35 9.95 21.8 9.95
Q 19.15 9.95 19.15 11.45 19.15 12.1 19.55 12.5 20.1 12.85 20.6 12.85 21.15 12.85 21.65 12.6 22.15 12.25 22.35 11.8
L 22.45 12.7 22.95 12.7 22.9 9.7
Q 22.9 8.85 22.45 8.4 21.95 7.95 21.1 7.95 20.65 7.95 20.2 8.1 19.75 8.2 19.4 8.5
L 19.55 8.95 20.25 8.55
Q 20.7 8.4 21.05 8.4
M 22.15 11.55
Q 22 11.9 21.6 12.15 21.25 12.4 20.75 12.4 20.25 12.4 20 12.15 19.7 11.95 19.7 11.45 19.7 10.3 21.85 10.3
L 22.35 10.3 22.35 10.8
Q 22.35 11.2 22.15 11.55 Z"/>
</g>

<g id="IT_300x600_psd_Asset_3_ManagedWiFi_IT_Research_DM11_2_with_a__managed__Wi_Fi_solution__0_Layer0_0_MEMBER_9_FILL">
<path fill="#D82C26" stroke="none" d="
M 23.95 10.4
Q 23.95 11.1 24.25 11.6 24.5 12.1 25.05 12.5 25.6 12.8 26.3 12.8 26.9 12.8 27.4 12.5 27.9 12.2 28.15 11.65
L 28.2 11.65 28.2 12.65
Q 28.2 13.5 27.7 14.1 27.25 14.65 26.25 14.65
L 25.25 14.5 24.35 14.05 24.25 14.6 25.2 15 26.3 15.15
Q 27.55 15.15 28.15 14.45 28.75 13.8 28.75 12.65
L 28.8 8.1 28.25 8.1 28.2 9.1 28.15 9.1
Q 27.95 8.6 27.4 8.25 26.9 7.95 26.3 7.95 25.65 7.95 25.05 8.25 24.55 8.6 24.25 9.15 23.95 9.75 23.95 10.4
M 24.55 10.4
Q 24.55 9.8 24.75 9.4 25 8.9 25.4 8.7 25.8 8.45 26.35 8.45 26.95 8.45 27.3 8.7 27.7 8.9 27.95 9.4 28.2 9.9 28.2 10.4 28.2 10.85 27.95 11.35 27.7 11.85 27.3 12.05 26.95 12.3 26.35 12.3 25.8 12.3 25.4 12.05 25 11.85 24.75 11.35 24.55 10.95 24.55 10.4 Z"/>
</g>

<g id="IT_300x600_psd_Asset_3_ManagedWiFi_IT_Research_DM11_2_with_a__managed__Wi_Fi_solution__0_Layer0_0_MEMBER_10_FILL">
<path fill="#D82C26" stroke="none" d="
M 34.1 9.05
Q 33.8 8.55 33.35 8.25 32.85 7.95 32.15 7.95 31.55 7.95 31 8.25 30.45 8.55 30.15 9.1 29.85 9.7 29.85 10.35 29.85 11.15 30.15 11.65 30.4 12.1 31 12.55 31.55 12.85 32.2 12.85 33.3 12.85 34.05 12.25
L 33.95 11.75
Q 33.65 12.05 33.2 12.2 32.75 12.35 32.25 12.35 31.7 12.35 31.3 12.1 30.9 11.85 30.65 11.45 30.4 10.95 30.4 10.5
L 34.35 10.5 34.35 10.25
Q 34.35 9.65 34.1 9.05
M 31.25 8.65
Q 31.65 8.4 32.15 8.4 32.9 8.4 33.35 8.85 33.8 9.3 33.8 10.05
L 30.4 10.05
Q 30.5 9.55 30.65 9.3 30.85 8.95 31.25 8.65 Z"/>
</g>

<g id="IT_300x600_psd_Asset_3_ManagedWiFi_IT_Research_DM11_2_with_a__managed__Wi_Fi_solution__0_Layer0_0_MEMBER_11_FILL">
<path fill="#D82C26" stroke="none" d="
M 39.95 5.1
L 39.4 5.25 39.4 9.1 39.35 9.1
Q 39.2 8.65 38.6 8.25 38.1 7.95 37.5 7.95 36.85 7.95 36.25 8.25 35.7 8.65 35.45 9.15 35.15 9.75 35.15 10.4 35.15 11.05 35.45 11.65 35.8 12.25 36.25 12.5 36.8 12.85 37.5 12.85 38.1 12.85 38.6 12.55 39.05 12.3 39.4 11.7
L 39.45 12.7 40 12.7 39.95 5.1
M 36.6 8.7
Q 36.9 8.45 37.55 8.45 38.2 8.45 38.5 8.7 38.9 8.9 39.15 9.4 39.4 9.9 39.4 10.4 39.4 10.95 39.15 11.35 38.9 11.85 38.5 12.1 38.1 12.35 37.55 12.35 37 12.35 36.6 12.1 36.1 11.7 35.95 11.4 35.75 11 35.75 10.4 35.75 9.8 35.95 9.4 36.15 8.95 36.6 8.7 Z"/>
</g>

<g id="IT_300x600_psd_Asset_3_ManagedWiFi_IT_Research_DM11_2_with_a__managed__Wi_Fi_solution__0_Layer0_0_MEMBER_12_FILL">
<path fill="#D82C26" stroke="none" d="
M 0.85 18.4
L 0.2 18.4 2.25 25.4 2.95 25.4 4.8 19.2 6.65 25.4 7.35 25.4 9.4 18.4 8.8 18.4 7 24.65 5.15 18.4 4.45 18.4 2.65 24.65 2.6 24.65 0.85 18.4 Z"/>
</g>

<g id="IT_300x600_psd_Asset_3_ManagedWiFi_IT_Research_DM11_2_with_a__managed__Wi_Fi_solution__0_Layer0_0_MEMBER_13_FILL">
<path fill="#D82C26" stroke="none" d="
M 10.55 19.35
Q 10.75 19.35 10.85 19.25
L 11 18.95
Q 11 18.75 10.85 18.65 10.8 18.5 10.55 18.5 10.4 18.5 10.3 18.65 10.15 18.75 10.15 18.95
L 10.3 19.25 10.55 19.35
M 10.85 20.8
L 10.3 20.8 10.3 25.4 10.85 25.4 10.85 20.8 Z"/>
</g>

<g id="IT_300x600_psd_Asset_3_ManagedWiFi_IT_Research_DM11_2_with_a__managed__Wi_Fi_solution__0_Layer0_0_MEMBER_14_FILL">
<path fill="#D82C26" stroke="none" d="
M 12.05 22.7
L 12.05 23.15 14.05 23.15 14.05 22.7 12.05 22.7 Z"/>
</g>

<g id="IT_300x600_psd_Asset_3_ManagedWiFi_IT_Research_DM11_2_with_a__managed__Wi_Fi_solution__0_Layer0_0_MEMBER_15_FILL">
<path fill="#D82C26" stroke="none" d="
M 16 22.1
L 18.7 22.1 18.85 21.55 16 21.55 16 18.95 18.95 18.95 19 18.4 15.4 18.4 15.4 25.4 16 25.4 16 22.1 Z"/>
</g>

<g id="IT_300x600_psd_Asset_3_ManagedWiFi_IT_Research_DM11_2_with_a__managed__Wi_Fi_solution__0_Layer0_0_MEMBER_16_FILL">
<path fill="#D82C26" stroke="none" d="
M 20.05 20.8
L 20.05 25.4 20.65 25.4 20.65 20.8 20.05 20.8
M 20.35 19.35
L 20.65 19.25 20.75 18.95 20.65 18.65 20.35 18.5 20.05 18.65
Q 19.9 18.75 19.9 18.95
L 20.05 19.25 20.35 19.35 Z"/>
</g>

<g id="IT_300x600_psd_Asset_3_ManagedWiFi_IT_Research_DM11_2_with_a__managed__Wi_Fi_solution__0_Layer0_0_MEMBER_17_FILL">
<path fill="#D82C26" stroke="none" d="
M 24.2 22.7
Q 24.55 23.05 25.15 23.2 25.85 23.45 26.15 23.65 26.45 23.9 26.45 24.2 26.45 24.65 26.15 24.85 25.8 25.1 25.4 25.1 24.55 25.1 23.85 24.55
L 23.75 25.05
Q 24 25.25 24.5 25.4 24.95 25.55 25.45 25.55
L 26.2 25.4
Q 26.6 25.25 26.8 24.95 27 24.7 27 24.2 27 23.7 26.65 23.4 26.35 23.1 25.6 22.85
L 24.65 22.45
Q 24.4 22.2 24.4 21.9 24.4 21.55 24.7 21.3 24.95 21.1 25.4 21.1 25.75 21.1 26.05 21.25 26.2 21.3 26.6 21.55
L 26.85 21.15
Q 26.65 20.95 26.2 20.8 25.85 20.65 25.4 20.65
L 24.65 20.8
Q 24.4 20.9 24.1 21.2 23.85 21.55 23.85 21.9 23.85 22.5 24.2 22.7 Z"/>
</g>

<g id="IT_300x600_psd_Asset_3_ManagedWiFi_IT_Research_DM11_2_with_a__managed__Wi_Fi_solution__0_Layer0_0_MEMBER_18_FILL">
<path fill="#D82C26" stroke="none" d="
M 28.05 21.85
Q 27.75 22.4 27.75 23.1 27.75 23.85 28.05 24.35 28.35 24.95 28.95 25.25 29.5 25.55 30.2 25.55 30.95 25.55 31.45 25.25 32.05 24.95 32.35 24.35 32.65 23.85 32.65 23.1 32.65 22.4 32.35 21.85 32.05 21.25 31.45 20.95 30.95 20.65 30.2 20.65 29.5 20.65 28.95 20.95 28.35 21.25 28.05 21.85
M 29.2 21.4
Q 29.7 21.15 30.2 21.15 30.7 21.15 31.2 21.4 31.6 21.6 31.85 22.1 32.1 22.6 32.1 23.1 32.1 23.6 31.85 24.1 31.65 24.5 31.2 24.8 30.7 25.05 30.2 25.05 29.7 25.05 29.2 24.8 28.75 24.5 28.55 24.1 28.3 23.6 28.3 23.1 28.3 22.6 28.55 22.1 28.8 21.6 29.2 21.4 Z"/>
</g>

<g id="IT_300x600_psd_Asset_3_ManagedWiFi_IT_Research_DM11_2_with_a__managed__Wi_Fi_solution__0_Layer0_0_MEMBER_19_FILL">
<path fill="#D82C26" stroke="none" d="
M 34 25.15
Q 34.15 25.4 34.55 25.55
L 34.8 25.05 34.45 24.75 34.35 24.25 34.35 17.9 33.8 18 33.8 24.4
Q 33.8 24.9 34 25.15 Z"/>
</g>

<g id="IT_300x600_psd_Asset_3_ManagedWiFi_IT_Research_DM11_2_with_a__managed__Wi_Fi_solution__0_Layer0_0_MEMBER_20_FILL">
<path fill="#D82C26" stroke="none" d="
M 35.75 20.8
L 35.75 23.6
Q 35.75 24.35 36.15 25 36.6 25.55 37.45 25.55 38 25.55 38.45 25.25 38.9 25 39.15 24.4
L 39.2 25.45 39.8 25.4 39.7 24.35 39.7 20.8 39.15 20.8 39.15 23.1
Q 39.15 23.55 38.95 24.15 38.7 24.6 38.4 24.85 38.05 25.05 37.6 25.05 36.9 25.05 36.6 24.6 36.35 24.1 36.35 23.45
L 36.35 20.8 35.75 20.8 Z"/>
</g>

<g id="IT_300x600_psd_Asset_3_ManagedWiFi_IT_Research_DM11_2_with_a__managed__Wi_Fi_solution__0_Layer0_0_MEMBER_21_FILL">
<path fill="#D82C26" stroke="none" d="
M 43.15 21.25
L 43.25 20.8 41.95 20.8 41.95 19.45 41.35 19.7 41.35 20.8 40.6 20.8 40.5 21.25 41.35 21.25 41.35 24.3
Q 41.35 24.9 41.65 25.2 41.95 25.5 42.45 25.5
L 42.95 25.45 43.45 25.25 43.35 24.85
Q 42.85 25.05 42.6 25.05 42.3 25.05 42.15 24.85 41.95 24.65 41.95 24.2
L 41.95 21.25 43.15 21.25 Z"/>
</g>

<g id="IT_300x600_psd_Asset_3_ManagedWiFi_IT_Research_DM11_2_with_a__managed__Wi_Fi_solution__0_Layer0_0_MEMBER_22_FILL">
<path fill="#D82C26" stroke="none" d="
M 44.5 19.35
L 44.8 19.25 44.9 18.95 44.8 18.65 44.5 18.5 44.2 18.65 44.1 18.95 44.2 19.25 44.5 19.35
M 44.8 20.8
L 44.2 20.8 44.2 25.4 44.8 25.4 44.8 20.8 Z"/>
</g>

<g id="IT_300x600_psd_Asset_3_ManagedWiFi_IT_Research_DM11_2_with_a__managed__Wi_Fi_solution__0_Layer0_0_MEMBER_23_FILL">
<path fill="#D82C26" stroke="none" d="
M 49.6 20.95
Q 49.1 20.65 48.35 20.65 47.65 20.65 47.1 20.95 46.5 21.25 46.2 21.85 45.9 22.4 45.9 23.1 45.9 23.85 46.2 24.35 46.5 24.95 47.1 25.25 47.65 25.55 48.35 25.55 49.1 25.55 49.6 25.25 50.2 24.95 50.5 24.35 50.8 23.85 50.8 23.1 50.8 22.4 50.5 21.85 50.2 21.25 49.6 20.95
M 48.35 21.15
Q 48.85 21.15 49.35 21.4 49.75 21.6 50 22.1 50.25 22.6 50.25 23.1 50.25 23.6 50 24.1 49.8 24.5 49.35 24.8 48.85 25.05 48.35 25.05 47.85 25.05 47.35 24.8 46.9 24.5 46.7 24.1 46.45 23.6 46.45 23.1 46.45 22.6 46.7 22.1 46.95 21.6 47.35 21.4 47.85 21.15 48.35 21.15 Z"/>
</g>

<g id="IT_300x600_psd_Asset_3_ManagedWiFi_IT_Research_DM11_2_with_a__managed__Wi_Fi_solution__0_Layer0_0_MEMBER_24_FILL">
<path fill="#D82C26" stroke="none" d="
M 54.05 21.15
Q 54.75 21.15 55.05 21.6 55.3 22.1 55.3 22.75
L 55.3 25.4 55.9 25.4 55.9 22.6
Q 55.9 21.85 55.5 21.2 55.05 20.65 54.2 20.65 53.6 20.65 53.15 20.95 52.75 21.2 52.5 21.8
L 52.45 20.8 51.9 20.8 51.95 25.4 52.5 25.4 52.5 23.05
Q 52.5 22.55 52.7 22.05 52.95 21.55 53.3 21.35 53.55 21.15 54.05 21.15 Z"/>
</g>

<g id="IT_300x600_psd_Asset_3_ManagedWiFi_IT_Research_DM11_2_with_a__managed__Wi_Fi_solution__0_Layer0_0_MEMBER_25_FILL">
<path fill="#D82C26" stroke="none" d="
M 57.35 25.35
Q 57.45 25.5 57.65 25.5
L 57.95 25.35 58.1 25.05
Q 58.1 24.85 57.95 24.7
L 57.65 24.6
Q 57.45 24.6 57.35 24.7 57.2 24.85 57.2 25.05
L 57.35 25.35 Z"/>
</g>
</defs>

<g transform="matrix( 1, 0, 0, 1, -260,37) ">
<g transform="matrix( 1, 0, 0, 1, 255,0) ">
<g transform="matrix( 1, 0, 0, 1, 34,4) ">
<g transform="matrix( 2.815704345703125, 0, 0, 2.832611083984375, 0.15,21.6) ">
<use xlink:href="#IT_300x600_psd_Asset_3_ManagedWiFi_IT_Research_DM11_2_with_a__managed__Wi_Fi_solution__0_Layer0_0_MEMBER_0_FILL"/>
</g>

<g transform="matrix( 2.815704345703125, 0, 0, 2.832611083984375, 0.15,21.6) ">
<use xlink:href="#IT_300x600_psd_Asset_3_ManagedWiFi_IT_Research_DM11_2_with_a__managed__Wi_Fi_solution__0_Layer0_0_MEMBER_1_FILL"/>
</g>

<g transform="matrix( 2.815704345703125, 0, 0, 2.832611083984375, 0.15,21.6) ">
<use xlink:href="#IT_300x600_psd_Asset_3_ManagedWiFi_IT_Research_DM11_2_with_a__managed__Wi_Fi_solution__0_Layer0_0_MEMBER_2_FILL"/>
</g>

<g transform="matrix( 2.815704345703125, 0, 0, 2.832611083984375, 0.15,21.6) ">
<use xlink:href="#IT_300x600_psd_Asset_3_ManagedWiFi_IT_Research_DM11_2_with_a__managed__Wi_Fi_solution__0_Layer0_0_MEMBER_3_FILL"/>
</g>

<g transform="matrix( 2.815704345703125, 0, 0, 2.832611083984375, 0.15,21.6) ">
<use xlink:href="#IT_300x600_psd_Asset_3_ManagedWiFi_IT_Research_DM11_2_with_a__managed__Wi_Fi_solution__0_Layer0_0_MEMBER_4_FILL"/>
</g>

<g transform="matrix( 2.815704345703125, 0, 0, 2.832611083984375, 0.15,21.6) ">
<use xlink:href="#IT_300x600_psd_Asset_3_ManagedWiFi_IT_Research_DM11_2_with_a__managed__Wi_Fi_solution__0_Layer0_0_MEMBER_5_FILL"/>
</g>

<g transform="matrix( 2.815704345703125, 0, 0, 2.832611083984375, 0.15,21.6) ">
<use xlink:href="#IT_300x600_psd_Asset_3_ManagedWiFi_IT_Research_DM11_2_with_a__managed__Wi_Fi_solution__0_Layer0_0_MEMBER_6_FILL"/>
</g>

<g transform="matrix( 2.815704345703125, 0, 0, 2.832611083984375, 0.15,21.6) ">
<use xlink:href="#IT_300x600_psd_Asset_3_ManagedWiFi_IT_Research_DM11_2_with_a__managed__Wi_Fi_solution__0_Layer0_0_MEMBER_7_FILL"/>
</g>

<g transform="matrix( 2.815704345703125, 0, 0, 2.832611083984375, 0.15,21.6) ">
<use xlink:href="#IT_300x600_psd_Asset_3_ManagedWiFi_IT_Research_DM11_2_with_a__managed__Wi_Fi_solution__0_Layer0_0_MEMBER_8_FILL"/>
</g>

<g transform="matrix( 2.815704345703125, 0, 0, 2.832611083984375, 0.15,21.6) ">
<use xlink:href="#IT_300x600_psd_Asset_3_ManagedWiFi_IT_Research_DM11_2_with_a__managed__Wi_Fi_solution__0_Layer0_0_MEMBER_9_FILL"/>
</g>

<g transform="matrix( 2.815704345703125, 0, 0, 2.832611083984375, 0.15,21.6) ">
<use xlink:href="#IT_300x600_psd_Asset_3_ManagedWiFi_IT_Research_DM11_2_with_a__managed__Wi_Fi_solution__0_Layer0_0_MEMBER_10_FILL"/>
</g>

<g transform="matrix( 2.815704345703125, 0, 0, 2.832611083984375, 0.15,21.6) ">
<use xlink:href="#IT_300x600_psd_Asset_3_ManagedWiFi_IT_Research_DM11_2_with_a__managed__Wi_Fi_solution__0_Layer0_0_MEMBER_11_FILL"/>
</g>

<g transform="matrix( 2.815704345703125, 0, 0, 2.832611083984375, 0.15,21.6) ">
<use xlink:href="#IT_300x600_psd_Asset_3_ManagedWiFi_IT_Research_DM11_2_with_a__managed__Wi_Fi_solution__0_Layer0_0_MEMBER_12_FILL"/>
</g>

<g transform="matrix( 2.815704345703125, 0, 0, 2.832611083984375, 0.15,21.6) ">
<use xlink:href="#IT_300x600_psd_Asset_3_ManagedWiFi_IT_Research_DM11_2_with_a__managed__Wi_Fi_solution__0_Layer0_0_MEMBER_13_FILL"/>
</g>

<g transform="matrix( 2.815704345703125, 0, 0, 2.832611083984375, 0.15,21.6) ">
<use xlink:href="#IT_300x600_psd_Asset_3_ManagedWiFi_IT_Research_DM11_2_with_a__managed__Wi_Fi_solution__0_Layer0_0_MEMBER_14_FILL"/>
</g>

<g transform="matrix( 2.815704345703125, 0, 0, 2.832611083984375, 0.15,21.6) ">
<use xlink:href="#IT_300x600_psd_Asset_3_ManagedWiFi_IT_Research_DM11_2_with_a__managed__Wi_Fi_solution__0_Layer0_0_MEMBER_15_FILL"/>
</g>

<g transform="matrix( 2.815704345703125, 0, 0, 2.832611083984375, 0.15,21.6) ">
<use xlink:href="#IT_300x600_psd_Asset_3_ManagedWiFi_IT_Research_DM11_2_with_a__managed__Wi_Fi_solution__0_Layer0_0_MEMBER_16_FILL"/>
</g>

<g transform="matrix( 2.815704345703125, 0, 0, 2.832611083984375, 0.15,21.6) ">
<use xlink:href="#IT_300x600_psd_Asset_3_ManagedWiFi_IT_Research_DM11_2_with_a__managed__Wi_Fi_solution__0_Layer0_0_MEMBER_17_FILL"/>
</g>

<g transform="matrix( 2.815704345703125, 0, 0, 2.832611083984375, 0.15,21.6) ">
<use xlink:href="#IT_300x600_psd_Asset_3_ManagedWiFi_IT_Research_DM11_2_with_a__managed__Wi_Fi_solution__0_Layer0_0_MEMBER_18_FILL"/>
</g>

<g transform="matrix( 2.815704345703125, 0, 0, 2.832611083984375, 0.15,21.6) ">
<use xlink:href="#IT_300x600_psd_Asset_3_ManagedWiFi_IT_Research_DM11_2_with_a__managed__Wi_Fi_solution__0_Layer0_0_MEMBER_19_FILL"/>
</g>

<g transform="matrix( 2.815704345703125, 0, 0, 2.832611083984375, 0.15,21.6) ">
<use xlink:href="#IT_300x600_psd_Asset_3_ManagedWiFi_IT_Research_DM11_2_with_a__managed__Wi_Fi_solution__0_Layer0_0_MEMBER_20_FILL"/>
</g>

<g transform="matrix( 2.815704345703125, 0, 0, 2.832611083984375, 0.15,21.6) ">
<use xlink:href="#IT_300x600_psd_Asset_3_ManagedWiFi_IT_Research_DM11_2_with_a__managed__Wi_Fi_solution__0_Layer0_0_MEMBER_21_FILL"/>
</g>

<g transform="matrix( 2.815704345703125, 0, 0, 2.832611083984375, 0.15,21.6) ">
<use xlink:href="#IT_300x600_psd_Asset_3_ManagedWiFi_IT_Research_DM11_2_with_a__managed__Wi_Fi_solution__0_Layer0_0_MEMBER_22_FILL"/>
</g>

<g transform="matrix( 2.815704345703125, 0, 0, 2.832611083984375, 0.15,21.6) ">
<use xlink:href="#IT_300x600_psd_Asset_3_ManagedWiFi_IT_Research_DM11_2_with_a__managed__Wi_Fi_solution__0_Layer0_0_MEMBER_23_FILL"/>
</g>

<g transform="matrix( 2.815704345703125, 0, 0, 2.832611083984375, 0.15,21.6) ">
<use xlink:href="#IT_300x600_psd_Asset_3_ManagedWiFi_IT_Research_DM11_2_with_a__managed__Wi_Fi_solution__0_Layer0_0_MEMBER_24_FILL"/>
</g>

<g transform="matrix( 2.815704345703125, 0, 0, 2.832611083984375, 0.15,21.6) ">
<use xlink:href="#IT_300x600_psd_Asset_3_ManagedWiFi_IT_Research_DM11_2_with_a__managed__Wi_Fi_solution__0_Layer0_0_MEMBER_25_FILL"/>
</g>
</g>
</g>
</g>
</svg>
