
<svg xmlns="http://www.w3.org/2000/svg" version="1.1" xmlns:xlink="http://www.w3.org/1999/xlink" preserveAspectRatio="none" x="0px" y="0px" width="640px" height="480px" viewBox="0 0 640 480">
<defs>
<g id="IT_640x480_FR_psd_Asset_B___V5_1_Vous_cherchez_une_solution_de__r_seau_g_r__de_bout_en_bout__pou_0_Layer0_0_MEMBER_0_FILL">
<path fill="#D82C26" stroke="none" d="
M 0.95 -9
L 0.1 -9 3.5 0 4.4 0 7.8 -9 7 -9 3.95 -0.9 0.95 -9 Z"/>
</g>

<g id="IT_640x480_FR_psd_Asset_B___V5_1_Vous_cherchez_une_solution_de__r_seau_g_r__de_bout_en_bout__pou_0_Layer0_0_MEMBER_1_FILL">
<path fill="#D82C26" stroke="none" d="
M 7.9 -1.35
Q 8.45 -0.55 9.05 -0.25 9.8 0.2 10.65 0.2 11.55 0.2 12.3 -0.25 12.95 -0.55 13.45 -1.35 13.85 -2.15 13.85 -3 13.85 -3.9 13.45 -4.6 13 -5.3 12.3 -5.75 11.5 -6.15 10.65 -6.15 9.85 -6.15 9.05 -5.75 8.35 -5.3 7.9 -4.6 7.5 -3.9 7.5 -3 7.5 -2.15 7.9 -1.35
M 8.55 -4.25
Q 8.85 -4.9 9.4 -5.15 9.9 -5.5 10.65 -5.5 11.45 -5.5 11.95 -5.15 12.5 -4.85 12.8 -4.25 13.1 -3.7 13.1 -3 13.1 -2.3 12.8 -1.7 12.45 -1.1 11.95 -0.8 11.45 -0.45 10.65 -0.45 9.9 -0.45 9.4 -0.8 8.9 -1.1 8.55 -1.7 8.25 -2.3 8.25 -3 8.25 -3.7 8.55 -4.25 Z"/>
</g>

<g id="IT_640x480_FR_psd_Asset_B___V5_1_Vous_cherchez_une_solution_de__r_seau_g_r__de_bout_en_bout__pou_0_Layer0_0_MEMBER_2_FILL">
<path fill="#D82C26" stroke="none" d="
M 15.05 -5.95
L 15.05 -2.35
Q 15.05 -1.25 15.6 -0.55 16.1 0.15 17.25 0.15 18 0.15 18.55 -0.25 19.2 -0.65 19.4 -1.3
L 19.55 0 20.25 0 20.15 -5.95 19.4 -5.95 19.4 -3
Q 19.4 -2.1 19.15 -1.6 18.9 -1.05 18.45 -0.75 18 -0.45 17.45 -0.45 16.5 -0.45 16.2 -1.05 15.8 -1.7 15.8 -2.5
L 15.8 -5.95 15.05 -5.95 Z"/>
</g>

<g id="IT_640x480_FR_psd_Asset_B___V5_1_Vous_cherchez_une_solution_de__r_seau_g_r__de_bout_en_bout__pou_0_Layer0_0_MEMBER_3_FILL">
<path fill="#D82C26" stroke="none" d="
M 23.5 -5.55
Q 24 -5.55 24.35 -5.4 24.85 -5.15 25.05 -4.95
L 25.4 -5.5 24.55 -5.95
Q 23.85 -6.15 23.5 -6.15 22.95 -6.15 22.55 -5.95 22.15 -5.8 21.8 -5.4 21.5 -5 21.5 -4.5 21.5 -3.8 21.95 -3.45 22.25 -3.15 23.2 -2.8 24 -2.6 24.45 -2.25 24.85 -2 24.85 -1.55 24.85 -1 24.45 -0.7 24.1 -0.4 23.5 -0.4 22.4 -0.4 21.55 -1.15
L 21.4 -0.5
Q 21.75 -0.25 22.35 0 22.9 0.15 23.55 0.15 24.1 0.15 24.55 -0.05 24.95 -0.2 25.3 -0.6 25.55 -1.1 25.55 -1.55 25.55 -2.2 25.1 -2.6 24.75 -2.95 23.75 -3.3 23.1 -3.5 22.55 -3.85 22.2 -4.1 22.2 -4.55 22.2 -5 22.6 -5.3 23 -5.55 23.5 -5.55 Z"/>
</g>

<g id="IT_640x480_FR_psd_Asset_B___V5_1_Vous_cherchez_une_solution_de__r_seau_g_r__de_bout_en_bout__pou_0_Layer0_0_MEMBER_4_FILL">
<path fill="#D82C26" stroke="none" d="
M 29.05 -2.95
Q 29.05 -2.05 29.45 -1.35 29.85 -0.65 30.55 -0.2 31.35 0.2 32.15 0.2 32.7 0.2 33.3 -0.05 33.85 -0.2 34.2 -0.55
L 34.1 -1.15
Q 33.65 -0.8 33.25 -0.65 32.65 -0.45 32.25 -0.45 31.6 -0.45 31 -0.8 30.5 -1.1 30.15 -1.7 29.85 -2.3 29.85 -2.95 29.85 -3.65 30.15 -4.25 30.55 -4.9 30.95 -5.15 31.5 -5.5 32.2 -5.5 32.7 -5.5 33.15 -5.35 33.65 -5.1 33.9 -4.85
L 34.2 -5.45
Q 33.95 -5.7 33.35 -5.95 32.55 -6.15 32.2 -6.15 31.3 -6.15 30.6 -5.75 29.85 -5.3 29.5 -4.6 29.05 -3.85 29.05 -2.95 Z"/>
</g>

<g id="IT_640x480_FR_psd_Asset_B___V5_1_Vous_cherchez_une_solution_de__r_seau_g_r__de_bout_en_bout__pou_0_Layer0_0_MEMBER_5_FILL">
<path fill="#D82C26" stroke="none" d="
M 39.75 -5.4
Q 39.25 -6.15 38.1 -6.15 37.45 -6.15 36.8 -5.75 36.25 -5.4 35.95 -4.7
L 35.95 -9.7 35.2 -9.6 35.2 0 35.95 0 35.95 -2.9
Q 35.95 -3.65 36.2 -4.3 36.4 -4.9 36.9 -5.2 37.35 -5.5 37.9 -5.5 38.8 -5.5 39.15 -4.9 39.55 -4.25 39.55 -3.45
L 39.55 0 40.25 0 40.25 -3.65
Q 40.25 -4.75 39.75 -5.4 Z"/>
</g>

<g id="IT_640x480_FR_psd_Asset_B___V5_1_Vous_cherchez_une_solution_de__r_seau_g_r__de_bout_en_bout__pou_0_Layer0_0_MEMBER_6_FILL">
<path fill="#D82C26" stroke="none" d="
M 43 -5.75
Q 42.3 -5.3 41.95 -4.65 41.55 -4 41.55 -3 41.55 -2 41.95 -1.35 42.35 -0.6 43 -0.25 43.75 0.2 44.6 0.2 46 0.2 46.95 -0.55
L 46.85 -1.2
Q 46.45 -0.9 45.9 -0.65 45.35 -0.45 44.65 -0.45 44 -0.45 43.45 -0.75 42.95 -1.05 42.6 -1.65 42.25 -2.25 42.25 -2.85
L 47.3 -2.85 47.3 -3.2
Q 47.3 -4 47 -4.7 46.6 -5.4 46 -5.75 45.35 -6.15 44.5 -6.15 43.7 -6.15 43 -5.75
M 43.3 -5.2
Q 43.8 -5.55 44.5 -5.55 45.5 -5.55 46 -4.95 46.6 -4.4 46.6 -3.4
L 42.3 -3.4
Q 42.3 -3.8 42.55 -4.4 42.9 -4.95 43.3 -5.2 Z"/>
</g>

<g id="IT_640x480_FR_psd_Asset_B___V5_1_Vous_cherchez_une_solution_de__r_seau_g_r__de_bout_en_bout__pou_0_Layer0_0_MEMBER_7_FILL">
<path fill="#D82C26" stroke="none" d="
M 49.25 -5.95
L 48.55 -5.95 48.6 0 49.35 0 49.35 -2.95
Q 49.35 -4 49.8 -4.75 50.25 -5.45 51 -5.45
L 51.55 -5.4 51.7 -6
Q 51.4 -6.15 51.05 -6.15 50.55 -6.15 50.05 -5.75 49.6 -5.45 49.35 -4.65
L 49.3 -4.65 49.25 -5.95 Z"/>
</g>

<g id="IT_640x480_FR_psd_Asset_B___V5_1_Vous_cherchez_une_solution_de__r_seau_g_r__de_bout_en_bout__pou_0_Layer0_0_MEMBER_8_FILL">
<path fill="#D82C26" stroke="none" d="
M 53.7 -5.15
Q 54.2 -5.5 54.95 -5.5 55.4 -5.5 55.85 -5.35 56.45 -5.05 56.65 -4.85
L 56.95 -5.45
Q 56.65 -5.7 56.05 -5.95 55.35 -6.15 54.9 -6.15 54.1 -6.15 53.3 -5.75 52.5 -5.2 52.2 -4.6 51.8 -3.8 51.8 -2.95 51.8 -2.05 52.2 -1.35 52.5 -0.7 53.3 -0.2 54 0.2 54.9 0.2 55.45 0.2 56.05 -0.05 56.5 -0.15 56.95 -0.55
L 56.85 -1.15
Q 56.2 -0.7 56 -0.65 55.4 -0.45 54.95 -0.45 54.3 -0.45 53.7 -0.8 53.15 -1.2 52.85 -1.7 52.55 -2.3 52.55 -2.95 52.55 -3.65 52.85 -4.25 53.2 -4.85 53.7 -5.15 Z"/>
</g>

<g id="IT_640x480_FR_psd_Asset_B___V5_1_Vous_cherchez_une_solution_de__r_seau_g_r__de_bout_en_bout__pou_0_Layer0_0_MEMBER_9_FILL">
<path fill="#D82C26" stroke="none" d="
M 58.65 -9.7
L 57.9 -9.6 57.9 0 58.65 0 58.65 -2.9
Q 58.65 -3.65 58.9 -4.3 59.2 -4.9 59.65 -5.2 60.1 -5.5 60.65 -5.5 61.55 -5.5 61.9 -4.9 62.25 -4.35 62.25 -3.45
L 62.25 0 63 0 63 -3.65
Q 63 -4.65 62.5 -5.4 62 -6.15 60.8 -6.15 60.15 -6.15 59.5 -5.75 58.9 -5.35 58.7 -4.7
L 58.65 -4.7 58.65 -9.7 Z"/>
</g>

<g id="IT_640x480_FR_psd_Asset_B___V5_1_Vous_cherchez_une_solution_de__r_seau_g_r__de_bout_en_bout__pou_0_Layer0_0_MEMBER_10_FILL">
<path fill="#D82C26" stroke="none" d="
M 64.65 -1.35
Q 65.05 -0.65 65.75 -0.25 66.45 0.2 67.3 0.2 68.75 0.2 69.7 -0.55
L 69.55 -1.2
Q 69.1 -0.85 68.6 -0.65 68.05 -0.45 67.4 -0.45 66.7 -0.45 66.15 -0.75 65.6 -1.15 65.3 -1.65 65 -2.15 65 -2.85
L 70.05 -2.85 70.05 -3.2
Q 70.05 -4.05 69.7 -4.7 69.4 -5.35 68.75 -5.75 68.05 -6.15 67.2 -6.15 66.4 -6.15 65.7 -5.75 65 -5.3 64.65 -4.65 64.25 -3.85 64.25 -3 64.25 -2.15 64.65 -1.35
M 65 -3.4
Q 65 -3.85 65.3 -4.4 65.55 -4.9 66.05 -5.2 66.45 -5.55 67.2 -5.55 68.15 -5.55 68.75 -4.95 69.25 -4.45 69.35 -3.4
L 65 -3.4 Z"/>
</g>

<g id="IT_640x480_FR_psd_Asset_B___V5_1_Vous_cherchez_une_solution_de__r_seau_g_r__de_bout_en_bout__pou_0_Layer0_0_MEMBER_11_FILL">
<path fill="#D82C26" stroke="none" d="
M 74.35 -5.35
L 70.7 -0.6 70.7 0 75.35 0 75.45 -0.6 71.55 -0.6 75.2 -5.35 75.2 -5.95 70.9 -5.95 70.75 -5.35 74.35 -5.35 Z"/>
</g>

<g id="IT_640x480_FR_psd_Asset_B___V5_1_Vous_cherchez_une_solution_de__r_seau_g_r__de_bout_en_bout__pou_0_Layer0_0_MEMBER_12_FILL">
<path fill="#D82C26" stroke="none" d="
M 79.15 -2.35
Q 79.15 -1.25 79.7 -0.55 80.2 0.15 81.35 0.15 82.1 0.15 82.65 -0.25 83.3 -0.65 83.5 -1.3
L 83.6 0 84.35 0 84.25 -5.95 83.5 -5.95 83.5 -3
Q 83.5 -2.25 83.25 -1.6 82.9 -1 82.55 -0.75 82.1 -0.45 81.55 -0.45 80.65 -0.45 80.25 -1.05 79.9 -1.75 79.9 -2.5
L 79.9 -5.95 79.15 -5.95 79.15 -2.35 Z"/>
</g>

<g id="IT_640x480_FR_psd_Asset_B___V5_1_Vous_cherchez_une_solution_de__r_seau_g_r__de_bout_en_bout__pou_0_Layer0_0_MEMBER_13_FILL">
<path fill="#D82C26" stroke="none" d="
M 90.55 -5.4
Q 90.05 -6.15 88.85 -6.15 88.2 -6.15 87.55 -5.75 87 -5.35 86.7 -4.65
L 86.65 -5.95 85.95 -5.95 86 0 86.75 0 86.75 -3.05
Q 86.75 -3.9 87 -4.35 87.2 -4.85 87.7 -5.2 88.15 -5.5 88.7 -5.5 89.6 -5.5 89.95 -4.9 90.35 -4.25 90.35 -3.45
L 90.35 0 91.1 0 91.1 -3.65
Q 91.1 -4.7 90.55 -5.4 Z"/>
</g>

<g id="IT_640x480_FR_psd_Asset_B___V5_1_Vous_cherchez_une_solution_de__r_seau_g_r__de_bout_en_bout__pou_0_Layer0_0_MEMBER_14_FILL">
<path fill="#D82C26" stroke="none" d="
M 95.3 -6.15
Q 94.5 -6.15 93.8 -5.75 93.1 -5.3 92.75 -4.65 92.35 -4 92.35 -3 92.35 -2 92.75 -1.35 93.15 -0.6 93.8 -0.25 94.55 0.2 95.4 0.2 96.8 0.2 97.75 -0.55
L 97.65 -1.2
Q 97.25 -0.85 96.65 -0.65 96.2 -0.45 95.45 -0.45 94.8 -0.45 94.25 -0.75 93.75 -1.05 93.4 -1.65 93.05 -2.25 93.05 -2.85
L 98.1 -2.85 98.1 -3.2
Q 98.1 -4 97.8 -4.7 97.4 -5.4 96.8 -5.75 96.15 -6.15 95.3 -6.15
M 94.1 -5.2
Q 94.6 -5.55 95.3 -5.55 96.3 -5.55 96.8 -4.95 97.4 -4.4 97.4 -3.4
L 93.1 -3.4
Q 93.1 -3.8 93.35 -4.4 93.7 -4.95 94.1 -5.2 Z"/>
</g>

<g id="IT_640x480_FR_psd_Asset_B___V5_1_Vous_cherchez_une_solution_de__r_seau_g_r__de_bout_en_bout__pou_0_Layer0_0_MEMBER_15_FILL">
<path fill="#D82C26" stroke="none" d="
M 104.85 -5.95
Q 104.15 -6.15 103.8 -6.15 103.25 -6.15 102.85 -5.95 102.45 -5.8 102.1 -5.4 101.8 -5 101.8 -4.5 101.8 -3.8 102.25 -3.45 102.55 -3.15 103.5 -2.8 104.35 -2.55 104.75 -2.25 105.15 -2 105.15 -1.55 105.15 -1 104.75 -0.7 104.4 -0.4 103.8 -0.4 102.65 -0.4 101.8 -1.15
L 101.7 -0.5
Q 102 -0.25 102.6 0 103.2 0.15 103.85 0.15 104.4 0.15 104.8 -0.05 105.2 -0.2 105.55 -0.6 105.85 -1.05 105.85 -1.55 105.85 -2.2 105.4 -2.6 105 -3 104 -3.3 103.2 -3.6 102.85 -3.85 102.5 -4.05 102.5 -4.55 102.5 -5 102.9 -5.3 103.25 -5.55 103.8 -5.55 104.3 -5.55 104.65 -5.4 105.3 -5 105.35 -4.95
L 105.65 -5.5 104.85 -5.95 Z"/>
</g>

<g id="IT_640x480_FR_psd_Asset_B___V5_1_Vous_cherchez_une_solution_de__r_seau_g_r__de_bout_en_bout__pou_0_Layer0_0_MEMBER_16_FILL">
<path fill="#D82C26" stroke="none" d="
M 108.2 -5.75
Q 107.4 -5.2 107.1 -4.6 106.65 -3.9 106.65 -3 106.65 -2.1 107.1 -1.35 107.5 -0.65 108.2 -0.25 108.95 0.2 109.85 0.2 110.7 0.2 111.45 -0.25 112.1 -0.55 112.6 -1.35 113 -2.15 113 -3 113 -3.9 112.6 -4.6 112.15 -5.3 111.45 -5.75 110.65 -6.15 109.85 -6.15 109 -6.15 108.2 -5.75
M 109.85 -5.5
Q 110.6 -5.5 111.1 -5.15 111.65 -4.9 111.95 -4.25 112.25 -3.7 112.25 -3 112.25 -2.3 111.95 -1.7 111.6 -1.1 111.1 -0.8 110.6 -0.45 109.85 -0.45 109.05 -0.45 108.55 -0.8 108 -1.2 107.7 -1.7 107.4 -2.3 107.4 -3 107.4 -3.7 107.7 -4.25 108 -4.85 108.55 -5.15 109.05 -5.5 109.85 -5.5 Z"/>
</g>

<g id="IT_640x480_FR_psd_Asset_B___V5_1_Vous_cherchez_une_solution_de__r_seau_g_r__de_bout_en_bout__pou_0_Layer0_0_MEMBER_17_FILL">
<path fill="#D82C26" stroke="none" d="
M 114.3 -1.3
Q 114.3 -0.75 114.55 -0.35 114.9 0 115.25 0.15
L 115.6 -0.5
Q 115.3 -0.65 115.15 -0.85
L 115.05 -1.5 115.05 -9.7 114.3 -9.55 114.3 -1.3 Z"/>
</g>

<g id="IT_640x480_FR_psd_Asset_B___V5_1_Vous_cherchez_une_solution_de__r_seau_g_r__de_bout_en_bout__pou_0_Layer0_0_MEMBER_18_FILL">
<path fill="#D82C26" stroke="none" d="
M 117.45 -5.95
L 116.7 -5.95 116.7 -2.35
Q 116.7 -1.25 117.25 -0.55 117.75 0.15 118.9 0.15 119.65 0.15 120.2 -0.25 120.85 -0.65 121.05 -1.3
L 121.15 0 121.9 0 121.8 -0.7 121.8 -5.95 121.05 -5.95 121.05 -3
Q 121.05 -2.25 120.8 -1.6 120.45 -1 120.1 -0.75 119.65 -0.45 119.05 -0.45 118.2 -0.45 117.8 -1.05 117.45 -1.75 117.45 -2.5
L 117.45 -5.95 Z"/>
</g>

<g id="IT_640x480_FR_psd_Asset_B___V5_1_Vous_cherchez_une_solution_de__r_seau_g_r__de_bout_en_bout__pou_0_Layer0_0_MEMBER_19_FILL">
<path fill="#D82C26" stroke="none" d="
M 124.55 -7.65
L 123.8 -7.35 123.8 -5.95 122.85 -5.95 122.7 -5.35 123.8 -5.35 123.8 -1.45
Q 123.8 -0.65 124.15 -0.3 124.55 0.15 125.2 0.15
L 125.85 0.05
Q 126.15 0 126.45 -0.2
L 126.35 -0.75
Q 125.9 -0.5 125.4 -0.5 125 -0.5 124.75 -0.75 124.55 -0.95 124.55 -1.55
L 124.55 -5.35 126.05 -5.35 126.25 -5.95 124.55 -5.95 124.55 -7.65 Z"/>
</g>

<g id="IT_640x480_FR_psd_Asset_B___V5_1_Vous_cherchez_une_solution_de__r_seau_g_r__de_bout_en_bout__pou_0_Layer0_0_MEMBER_20_FILL">
<path fill="#D82C26" stroke="none" d="
M 128.1 -5.95
L 127.35 -5.95 127.35 0 128.1 0 128.1 -5.95
M 127.7 -7.8
Q 127.9 -7.8 128.05 -7.95 128.25 -8.1 128.25 -8.35 128.25 -8.55 128.05 -8.7 127.9 -8.85 127.7 -8.85 127.55 -8.85 127.3 -8.7 127.15 -8.55 127.15 -8.35 127.15 -8.1 127.3 -7.95 127.55 -7.8 127.7 -7.8 Z"/>
</g>

<g id="IT_640x480_FR_psd_Asset_B___V5_1_Vous_cherchez_une_solution_de__r_seau_g_r__de_bout_en_bout__pou_0_Layer0_0_MEMBER_21_FILL">
<path fill="#D82C26" stroke="none" d="
M 129.75 -1.35
Q 130.3 -0.55 130.9 -0.25 131.6 0.2 132.5 0.2 133.4 0.2 134.15 -0.25 134.8 -0.6 135.3 -1.35 135.7 -2.15 135.7 -3 135.7 -3.9 135.3 -4.6 134.9 -5.25 134.15 -5.75 133.35 -6.15 132.5 -6.15 131.6 -6.15 130.9 -5.75 130.2 -5.3 129.75 -4.6 129.35 -3.9 129.35 -3 129.35 -2.15 129.75 -1.35
M 130.4 -4.25
Q 130.7 -4.9 131.25 -5.15 131.75 -5.5 132.5 -5.5 133.25 -5.5 133.8 -5.15 134.35 -4.85 134.65 -4.25 134.95 -3.7 134.95 -3 134.95 -2.3 134.65 -1.7 134.35 -1.2 133.8 -0.8 133.3 -0.45 132.5 -0.45 131.75 -0.45 131.25 -0.8 130.75 -1.1 130.4 -1.7 130.1 -2.3 130.1 -3 130.1 -3.7 130.4 -4.25 Z"/>
</g>

<g id="IT_640x480_FR_psd_Asset_B___V5_1_Vous_cherchez_une_solution_de__r_seau_g_r__de_bout_en_bout__pou_0_Layer0_0_MEMBER_22_FILL">
<path fill="#D82C26" stroke="none" d="
M 141.55 -5.4
Q 141.05 -6.15 139.9 -6.15 139.2 -6.15 138.55 -5.75 137.95 -5.25 137.75 -4.65
L 137.7 -4.65 137.65 -5.95 136.95 -5.95 137 0 137.75 0 137.75 -3.05
Q 137.75 -3.75 138 -4.35 138.3 -4.9 138.7 -5.2 139.25 -5.5 139.7 -5.5 140.6 -5.5 140.95 -4.9 141.35 -4.25 141.35 -3.45
L 141.35 0 142.1 0 142.1 -3.65
Q 142.1 -4.7 141.55 -5.4 Z"/>
</g>

<g id="IT_640x480_FR_psd_Asset_B___V5_1_Vous_cherchez_une_solution_de__r_seau_g_r__de_bout_en_bout__pou_0_Layer0_0_MEMBER_23_FILL">
<path fill="#D82C26" stroke="none" d="
M 146.45 -4.6
Q 146.05 -3.8 146.05 -2.95 146.05 -2.1 146.45 -1.4 146.85 -0.6 147.5 -0.25 148.1 0.15 149.05 0.15 149.9 0.15 150.45 -0.2 151.1 -0.55 151.5 -1.3
L 151.6 0 152.3 0 152.25 -9.75 151.5 -9.6 151.5 -4.65 151.45 -4.65
Q 151.15 -5.35 150.45 -5.75 149.8 -6.15 149.05 -6.15 148.2 -6.15 147.5 -5.7 146.85 -5.35 146.45 -4.6
M 150.35 -5.15
Q 150.8 -4.9 151.2 -4.25 151.5 -3.65 151.5 -2.95 151.5 -2.3 151.2 -1.7 150.85 -1.1 150.35 -0.8 149.85 -0.45 149.15 -0.45 148.4 -0.45 147.9 -0.8 147.4 -1.1 147.1 -1.7 146.8 -2.3 146.8 -2.95 146.8 -3.65 147.1 -4.25 147.5 -4.9 147.9 -5.15 148.4 -5.5 149.15 -5.5 149.85 -5.5 150.35 -5.15 Z"/>
</g>

<g id="IT_640x480_FR_psd_Asset_B___V5_1_Vous_cherchez_une_solution_de__r_seau_g_r__de_bout_en_bout__pou_0_Layer0_0_MEMBER_24_FILL">
<path fill="#D82C26" stroke="none" d="
M 156.5 -6.15
Q 155.7 -6.15 155 -5.75 154.35 -5.3 153.9 -4.65 153.55 -3.95 153.55 -3 153.55 -2 153.95 -1.35 154.35 -0.6 155 -0.25 155.7 0.2 156.6 0.2 158 0.2 158.95 -0.55
L 158.85 -1.2
Q 158.25 -0.8 157.85 -0.65 157.4 -0.45 156.65 -0.45 156 -0.45 155.4 -0.75 155 -1.05 154.55 -1.65 154.25 -2.15 154.25 -2.85
L 159.3 -2.85 159.3 -3.2
Q 159.3 -4 159 -4.7 158.6 -5.4 158 -5.75 157.35 -6.15 156.5 -6.15
M 155.3 -5.2
Q 155.8 -5.55 156.5 -5.55 157.4 -5.55 158 -4.95 158.6 -4.4 158.6 -3.4
L 154.25 -3.4
Q 154.3 -3.85 154.55 -4.4 154.9 -4.95 155.3 -5.2 Z"/>
</g>

<g id="IT_640x480_FR_psd_Asset_B___V5_1_Vous_cherchez_une_solution_de__r_seau_g_r__de_bout_en_bout__pou_0_Layer0_0_MEMBER_25_FILL">
<path fill="#D82C26" stroke="none" d="
M 3.65 8.7
Q 3.2 8.7 2.65 9.1 2.2 9.45 1.95 10.15
L 1.9 10.15 1.85 8.9 1.15 8.9 1.2 14.85 1.95 14.85 1.95 11.85
Q 1.95 10.85 2.4 10.1 2.85 9.35 3.6 9.35
L 4.15 9.45 4.3 8.8 3.65 8.7 Z"/>
</g>

<g id="IT_640x480_FR_psd_Asset_B___V5_1_Vous_cherchez_une_solution_de__r_seau_g_r__de_bout_en_bout__pou_0_Layer0_0_MEMBER_26_FILL">
<path fill="#D82C26" stroke="none" d="
M 9 5.8
L 8.15 5.8 6.85 7.65 7.45 7.65 9 5.8
M 10.2 11.95
L 10.2 11.65
Q 10.2 10.8 9.85 10.15 9.55 9.45 8.9 9.1 8.3 8.7 7.35 8.7 6.45 8.7 5.85 9.1 5.2 9.45 4.8 10.2 4.4 11 4.4 11.8 4.4 12.75 4.8 13.45 5.3 14.25 5.9 14.6 6.6 15 7.45 15 8.9 15 9.85 14.25
L 9.7 13.6
Q 9.4 13.9 8.75 14.15 8.1 14.4 7.55 14.4 6.8 14.4 6.3 14.05 5.75 13.75 5.45 13.2 5.15 12.6 5.15 11.95
L 10.2 11.95
M 5.45 10.45
Q 5.65 10 6.2 9.6 6.8 9.25 7.35 9.25 8.3 9.25 8.9 9.85 9.45 10.45 9.5 11.4
L 5.15 11.4
Q 5.15 10.9 5.45 10.45 Z"/>
</g>

<g id="IT_640x480_FR_psd_Asset_B___V5_1_Vous_cherchez_une_solution_de__r_seau_g_r__de_bout_en_bout__pou_0_Layer0_0_MEMBER_27_FILL">
<path fill="#D82C26" stroke="none" d="
M 14.15 8.9
Q 13.7 8.7 13.1 8.7 12.6 8.7 12.15 8.85 11.7 9.1 11.4 9.45 11.1 9.85 11.1 10.35 11.1 11 11.55 11.35 11.85 11.65 12.8 12 13.55 12.25 14.05 12.55 14.45 12.85 14.45 13.3 14.45 13.8 14.05 14.1 13.7 14.4 13.1 14.4 12 14.4 11.15 13.7
L 11 14.35
Q 11.4 14.65 11.95 14.8 12.4 15 13.15 15 13.7 15 14.1 14.8 14.65 14.6 14.85 14.2 15.15 13.85 15.15 13.25 15.15 12.6 14.7 12.2 14.2 11.8 13.35 11.5
L 12.15 11
Q 11.8 10.65 11.8 10.3 11.8 9.8 12.2 9.55 12.5 9.3 13.1 9.3 13.6 9.3 13.95 9.45 14.25 9.55 14.65 9.85
L 15 9.3
Q 14.5 9 14.15 8.9 Z"/>
</g>

<g id="IT_640x480_FR_psd_Asset_B___V5_1_Vous_cherchez_une_solution_de__r_seau_g_r__de_bout_en_bout__pou_0_Layer0_0_MEMBER_28_FILL">
<path fill="#D82C26" stroke="none" d="
M 21.45 10.15
Q 21.05 9.45 20.45 9.1 19.9 8.7 18.9 8.7 18 8.7 17.45 9.1 16.75 9.5 16.35 10.2 16 10.9 16 11.8 16 12.8 16.35 13.45 16.85 14.25 17.45 14.6 18.15 15 19.05 15 20.45 15 21.4 14.25
L 21.3 13.6
Q 20.9 13.9 20.3 14.15 19.7 14.4 19.1 14.4 18.35 14.4 17.85 14.05 17.3 13.75 17 13.2 16.7 12.6 16.7 11.95
L 21.75 11.95 21.75 11.65
Q 21.75 10.85 21.45 10.15
M 20.45 9.85
Q 21.05 10.45 21.05 11.4
L 16.7 11.4
Q 16.8 10.9 17 10.45 17.15 10.1 17.75 9.6 18.35 9.25 18.9 9.25 19.85 9.25 20.45 9.85 Z"/>
</g>

<g id="IT_640x480_FR_psd_Asset_B___V5_1_Vous_cherchez_une_solution_de__r_seau_g_r__de_bout_en_bout__pou_0_Layer0_0_MEMBER_29_FILL">
<path fill="#D82C26" stroke="none" d="
M 25.05 8.7
Q 24.4 8.7 23.85 8.9 23.35 9.05 22.85 9.45
L 23.1 10
Q 23.35 9.75 23.95 9.5 24.4 9.3 24.95 9.3 25.8 9.3 26.2 9.7 26.65 10.1 26.65 10.9
L 26.65 11.25 25.95 11.25
Q 22.55 11.25 22.55 13.25 22.55 14.15 23.1 14.55 23.65 15 24.45 15 25.2 15 25.75 14.65 26.3 14.4 26.65 13.65
L 26.7 13.65 26.7 14.3 26.8 14.85 27.45 14.85 27.35 10.95
Q 27.35 9.85 26.75 9.25 26.1 8.7 25.05 8.7
M 26.65 11.75
L 26.65 12.35
Q 26.65 12.9 26.45 13.35 26.1 13.85 25.7 14.1 25.3 14.45 24.6 14.45 24.05 14.45 23.65 14.15 23.25 13.9 23.25 13.2 23.25 11.75 26.05 11.75
L 26.65 11.75 Z"/>
</g>

<g id="IT_640x480_FR_psd_Asset_B___V5_1_Vous_cherchez_une_solution_de__r_seau_g_r__de_bout_en_bout__pou_0_Layer0_0_MEMBER_30_FILL">
<path fill="#D82C26" stroke="none" d="
M 33.25 8.9
L 33.25 11.85
Q 33.25 12.55 33 13.2 32.7 13.85 32.3 14.1 31.85 14.4 31.25 14.4 30.4 14.4 30 13.8 29.65 13.1 29.65 12.3
L 29.65 8.9 28.9 8.9 28.9 12.5
Q 28.9 13.5 29.45 14.3 30 15 31.1 15 31.75 15 32.4 14.6 33.05 14.2 33.25 13.55
L 33.35 14.85 34.1 14.85 34 14.15 34 8.9 33.25 8.9 Z"/>
</g>

<g id="IT_640x480_FR_psd_Asset_B___V5_1_Vous_cherchez_une_solution_de__r_seau_g_r__de_bout_en_bout__pou_0_Layer0_0_MEMBER_31_FILL">
<path fill="#D82C26" stroke="none" d="
M 42.5 9.1
Q 41.8 8.7 41.05 8.7 40.3 8.7 39.5 9.1 38.85 9.55 38.45 10.25 38.1 10.95 38.1 11.85 38.1 12.75 38.45 13.4 38.8 14.1 39.5 14.55 40.2 14.95 41.05 14.95 41.8 14.95 42.5 14.55 43.1 14.2 43.5 13.5
L 43.5 14.75
Q 43.5 15.9 42.9 16.65 42.3 17.3 41.05 17.3 40.35 17.3 39.75 17.1
L 38.6 16.55 38.45 17.25
Q 39.1 17.65 39.65 17.75 40.25 17.95 41.1 17.95 42.65 17.95 43.5 17.1 44.25 16.2 44.25 14.75
L 44.3 8.9 43.6 8.9 43.5 10.2
Q 43.15 9.5 42.5 9.1
M 43.25 10.6
Q 43.55 11.15 43.55 11.85 43.55 12.5 43.25 13.1 42.95 13.6 42.4 14 41.7 14.35 41.15 14.35 40.55 14.35 39.95 14 39.4 13.6 39.1 13.1 38.85 12.45 38.85 11.85 38.85 11.2 39.1 10.6 39.35 10.05 39.95 9.65 40.55 9.3 41.15 9.3 41.7 9.3 42.4 9.65 43 10.05 43.25 10.6 Z"/>
</g>

<g id="IT_640x480_FR_psd_Asset_B___V5_1_Vous_cherchez_une_solution_de__r_seau_g_r__de_bout_en_bout__pou_0_Layer0_0_MEMBER_32_FILL">
<path fill="#D82C26" stroke="none" d="
M 50.1 5.8
L 49.25 5.8 47.95 7.65 48.55 7.65 50.1 5.8
M 51.3 11.65
Q 51.3 10.85 51 10.15 50.6 9.45 50 9.1 49.45 8.7 48.5 8.7 47.6 8.7 47 9.1 46.4 9.45 45.9 10.2 45.55 10.9 45.55 11.8 45.55 12.8 45.9 13.45 46.4 14.25 47 14.6 47.7 15 48.6 15 50 15 50.95 14.25
L 50.85 13.6
Q 50.45 13.9 49.85 14.15 49.25 14.4 48.65 14.4 47.95 14.4 47.4 14.05 46.85 13.75 46.55 13.2 46.25 12.6 46.25 11.95
L 51.3 11.95 51.3 11.65
M 46.55 10.45
Q 46.8 10 47.3 9.6 47.9 9.25 48.5 9.25 49.4 9.25 50 9.85 50.6 10.45 50.6 11.4
L 46.25 11.4
Q 46.35 10.9 46.55 10.45 Z"/>
</g>

<g id="IT_640x480_FR_psd_Asset_B___V5_1_Vous_cherchez_une_solution_de__r_seau_g_r__de_bout_en_bout__pou_0_Layer0_0_MEMBER_33_FILL">
<path fill="#D82C26" stroke="none" d="
M 53.35 11.85
Q 53.35 10.85 53.8 10.1 54.25 9.35 55 9.35
L 55.55 9.45 55.7 8.8 55.05 8.7
Q 54.55 8.7 54.05 9.1 53.55 9.5 53.3 10.15
L 53.25 8.9 52.5 8.9 52.6 14.85 53.35 14.85 53.35 11.85 Z"/>
</g>

<g id="IT_640x480_FR_psd_Asset_B___V5_1_Vous_cherchez_une_solution_de__r_seau_g_r__de_bout_en_bout__pou_0_Layer0_0_MEMBER_34_FILL">
<path fill="#D82C26" stroke="none" d="
M 60.4 5.8
L 59.55 5.8 58.25 7.65 58.85 7.65 60.4 5.8
M 61.6 11.65
Q 61.6 10.8 61.25 10.15 60.95 9.5 60.3 9.1 59.7 8.7 58.75 8.7 57.85 8.7 57.25 9.1 56.6 9.45 56.2 10.2 55.8 11 55.8 11.8 55.8 12.75 56.2 13.45 56.55 14.2 57.3 14.6 58 15 58.85 15 60.2 15 61.25 14.25
L 61.1 13.6
Q 60.85 13.85 60.15 14.15 59.5 14.4 58.9 14.4 58.2 14.4 57.7 14.05 57.15 13.75 56.85 13.2 56.55 12.6 56.55 11.95
L 61.6 11.95 61.6 11.65
M 56.85 10.45
Q 57.05 10 57.6 9.6 58.15 9.25 58.75 9.25 59.7 9.25 60.3 9.85 60.85 10.45 60.9 11.4
L 56.55 11.4
Q 56.55 10.9 56.85 10.45 Z"/>
</g>

<g id="IT_640x480_FR_psd_Asset_B___V5_1_Vous_cherchez_une_solution_de__r_seau_g_r__de_bout_en_bout__pou_0_Layer0_0_MEMBER_35_FILL">
<path fill="#D82C26" stroke="none" d="
M 65.55 10.25
Q 65.15 11.05 65.15 11.85 65.15 12.65 65.55 13.45 65.9 14.15 66.6 14.6 67.3 15 68.15 15 68.9 15 69.6 14.6 70.25 14.2 70.6 13.55
L 70.65 13.55 70.7 14.85 71.4 14.85 71.35 5.05 70.6 5.2 70.6 10.15
Q 70.25 9.5 69.55 9.1 68.9 8.7 68.15 8.7 67.3 8.7 66.6 9.1 65.9 9.6 65.55 10.25
M 67 9.65
Q 67.7 9.3 68.25 9.3 68.8 9.3 69.5 9.65 70 10 70.3 10.6 70.65 11.1 70.65 11.85 70.65 12.6 70.3 13.1 70 13.7 69.5 14.05 68.9 14.35 68.25 14.35 67.6 14.35 67 14.05 66.5 13.7 66.2 13.1 65.9 12.6 65.9 11.85 65.9 11.15 66.2 10.6 66.5 10 67 9.65 Z"/>
</g>

<g id="IT_640x480_FR_psd_Asset_B___V5_1_Vous_cherchez_une_solution_de__r_seau_g_r__de_bout_en_bout__pou_0_Layer0_0_MEMBER_36_FILL">
<path fill="#D82C26" stroke="none" d="
M 75.6 8.7
Q 74.7 8.7 74.1 9.1 73.45 9.45 73.05 10.2 72.65 10.85 72.65 11.8 72.65 12.85 73.05 13.45 73.45 14.25 74.1 14.6 74.9 15 75.7 15 77.1 15 78.05 14.25
L 77.95 13.6
Q 77.65 13.9 76.95 14.15 76.35 14.4 75.75 14.4 75.05 14.4 74.55 14.05 74.05 13.8 73.7 13.2 73.35 12.5 73.35 11.95
L 78.4 11.95 78.4 11.65
Q 78.4 10.85 78.1 10.15 77.7 9.45 77.1 9.1 76.55 8.7 75.6 8.7
M 74.4 9.6
Q 75 9.25 75.6 9.25 76.6 9.25 77.1 9.85 77.7 10.45 77.7 11.4
L 73.4 11.4
Q 73.4 10.95 73.65 10.45 73.9 10 74.4 9.6 Z"/>
</g>

<g id="IT_640x480_FR_psd_Asset_B___V5_1_Vous_cherchez_une_solution_de__r_seau_g_r__de_bout_en_bout__pou_0_Layer0_0_MEMBER_37_FILL">
<path fill="#D82C26" stroke="none" d="
M 83.25 5.1
L 82.5 5.2 82.4 14.85 83.1 14.85 83.2 13.55 83.25 13.55
Q 83.55 14.25 84.2 14.6 84.9 15 85.65 15 86.5 15 87.2 14.6 87.9 14.15 88.25 13.45 88.65 12.65 88.65 11.85 88.65 10.95 88.25 10.25 87.9 9.6 87.2 9.1 86.5 8.7 85.65 8.7 84.95 8.7 84.25 9.1 83.65 9.45 83.25 10.15
L 83.25 5.1
M 84.35 9.65
Q 84.95 9.3 85.55 9.3 86.2 9.3 86.8 9.65 87.4 10.1 87.6 10.6 87.9 11.15 87.9 11.85 87.9 12.6 87.6 13.1 87.4 13.6 86.8 14.05 86.3 14.35 85.55 14.35 84.9 14.35 84.35 14.05 83.75 13.65 83.5 13.1 83.2 12.6 83.2 11.85 83.2 11.15 83.5 10.6 83.75 10.05 84.35 9.65 Z"/>
</g>

<g id="IT_640x480_FR_psd_Asset_B___V5_1_Vous_cherchez_une_solution_de__r_seau_g_r__de_bout_en_bout__pou_0_Layer0_0_MEMBER_38_FILL">
<path fill="#D82C26" stroke="none" d="
M 94.35 9.1
Q 93.7 8.7 92.7 8.7 91.75 8.7 91.1 9.1 90.5 9.4 89.95 10.2 89.55 11 89.55 11.85 89.55 12.75 89.95 13.45 90.45 14.25 91.1 14.6 91.9 15 92.7 15 93.55 15 94.35 14.6 95 14.25 95.5 13.45 95.9 12.75 95.9 11.85 95.9 11 95.5 10.2 95 9.4 94.35 9.1
M 94.85 10.55
Q 95.15 11.15 95.15 11.85 95.15 12.5 94.85 13.1 94.55 13.7 94 14.05 93.5 14.35 92.7 14.35 92 14.35 91.45 14.05 90.85 13.65 90.6 13.1 90.3 12.5 90.3 11.85 90.3 11.15 90.6 10.55 90.9 10.05 91.45 9.65 92.05 9.3 92.7 9.3 93.4 9.3 94 9.65 94.55 10.05 94.85 10.55 Z"/>
</g>

<g id="IT_640x480_FR_psd_Asset_B___V5_1_Vous_cherchez_une_solution_de__r_seau_g_r__de_bout_en_bout__pou_0_Layer0_0_MEMBER_39_FILL">
<path fill="#D82C26" stroke="none" d="
M 102.3 14.85
L 102.2 8.9 101.45 8.9 101.45 11.85
Q 101.45 12.7 101.2 13.2 101 13.8 100.5 14.1 100.05 14.4 99.5 14.4 98.65 14.4 98.25 13.8 97.85 13.15 97.85 12.3
L 97.85 8.9 97.1 8.9 97.1 12.5
Q 97.1 13.5 97.65 14.3 98.2 15 99.3 15 99.95 15 100.6 14.6 101.25 14.2 101.45 13.55
L 101.6 14.85 102.3 14.85 Z"/>
</g>

<g id="IT_640x480_FR_psd_Asset_B___V5_1_Vous_cherchez_une_solution_de__r_seau_g_r__de_bout_en_bout__pou_0_Layer0_0_MEMBER_40_FILL">
<path fill="#D82C26" stroke="none" d="
M 104.95 8.9
L 104.95 7.15 104.2 7.45 104.2 8.9 103.25 8.9 103.1 9.45 104.2 9.45 104.2 13.4
Q 104.2 14.15 104.6 14.55 105 14.95 105.6 14.95
L 106.3 14.85 106.85 14.65 106.75 14.1
Q 106.15 14.35 105.8 14.35 105.45 14.35 105.2 14.1 104.95 13.75 104.95 13.3
L 104.95 9.45 106.5 9.45 106.65 8.9 104.95 8.9 Z"/>
</g>

<g id="IT_640x480_FR_psd_Asset_B___V5_1_Vous_cherchez_une_solution_de__r_seau_g_r__de_bout_en_bout__pou_0_Layer0_0_MEMBER_41_FILL">
<path fill="#D82C26" stroke="none" d="
M 114.4 9.1
Q 113.8 8.7 112.85 8.7 111.95 8.7 111.35 9.1 110.7 9.45 110.3 10.2 109.9 11 109.9 11.8 109.9 12.75 110.3 13.45 110.65 14.2 111.4 14.6 112.1 15 112.95 15 114.4 15 115.35 14.25
L 115.2 13.6
Q 114.9 13.9 114.25 14.15 113.6 14.4 113.05 14.4 112.3 14.4 111.8 14.05 111.25 13.75 110.95 13.2 110.65 12.6 110.65 11.95
L 115.7 11.95 115.7 11.65
Q 115.7 10.8 115.35 10.15 115.05 9.5 114.4 9.1
M 114.4 9.85
Q 114.95 10.45 115 11.4
L 110.65 11.4
Q 110.65 10.9 110.95 10.45 111.15 10 111.7 9.6 112.25 9.25 112.85 9.25 113.8 9.25 114.4 9.85 Z"/>
</g>

<g id="IT_640x480_FR_psd_Asset_B___V5_1_Vous_cherchez_une_solution_de__r_seau_g_r__de_bout_en_bout__pou_0_Layer0_0_MEMBER_42_FILL">
<path fill="#D82C26" stroke="none" d="
M 122.1 11.2
Q 122.1 10.2 121.55 9.4 121 8.7 119.85 8.7 119.2 8.7 118.55 9.1 118 9.45 117.7 10.15
L 117.65 8.9 116.95 8.9 117 14.85 117.75 14.85 117.75 11.8
Q 117.75 10.95 118 10.45 118.25 9.9 118.7 9.6 119.15 9.3 119.7 9.3 120.6 9.3 120.95 9.9 121.35 10.55 121.35 11.4
L 121.35 14.85 122.1 14.85 122.1 11.2 Z"/>
</g>

<g id="IT_640x480_FR_psd_Asset_B___V5_1_Vous_cherchez_une_solution_de__r_seau_g_r__de_bout_en_bout__pou_0_Layer0_0_MEMBER_43_FILL">
<path fill="#D82C26" stroke="none" d="
M 132.7 11.85
Q 132.7 10.95 132.3 10.25 131.95 9.6 131.25 9.1 130.55 8.7 129.7 8.7 129 8.7 128.3 9.1 127.7 9.45 127.3 10.15
L 127.25 10.15 127.25 5.1 126.5 5.2 126.45 14.85 127.15 14.85 127.25 13.55
Q 127.65 14.25 128.25 14.6 128.95 15 129.7 15 130.55 15 131.25 14.6 131.95 14.15 132.3 13.45 132.7 12.65 132.7 11.85
M 131.65 10.6
Q 131.95 11.15 131.95 11.85 131.95 12.6 131.65 13.1 131.45 13.6 130.85 14.05 130.35 14.35 129.6 14.35 128.95 14.35 128.4 14.05 127.8 13.65 127.55 13.1 127.25 12.6 127.25 11.85 127.25 11.15 127.55 10.6 127.8 10.05 128.4 9.65 129 9.3 129.6 9.3 130.25 9.3 130.85 9.65 131.45 10.1 131.65 10.6 Z"/>
</g>

<g id="IT_640x480_FR_psd_Asset_B___V5_1_Vous_cherchez_une_solution_de__r_seau_g_r__de_bout_en_bout__pou_0_Layer0_0_MEMBER_44_FILL">
<path fill="#D82C26" stroke="none" d="
M 135.15 9.1
Q 134.55 9.4 134 10.2 133.6 11 133.6 11.85 133.6 12.75 134 13.45 134.5 14.25 135.15 14.6 135.95 15 136.75 15 137.6 15 138.4 14.6 139.05 14.25 139.55 13.45 139.95 12.75 139.95 11.85 139.95 11 139.55 10.2 139.05 9.4 138.4 9.1 137.75 8.7 136.75 8.7 135.8 8.7 135.15 9.1
M 134.35 11.85
Q 134.35 11.15 134.65 10.55 135 10 135.5 9.65 136.1 9.3 136.75 9.3 137.45 9.3 138.05 9.65 138.6 10.05 138.9 10.55 139.2 11.15 139.2 11.85 139.2 12.5 138.9 13.1 138.6 13.7 138.05 14.05 137.55 14.35 136.75 14.35 136.05 14.35 135.5 14.05 134.95 13.7 134.65 13.1 134.35 12.5 134.35 11.85 Z"/>
</g>

<g id="IT_640x480_FR_psd_Asset_B___V5_1_Vous_cherchez_une_solution_de__r_seau_g_r__de_bout_en_bout__pou_0_Layer0_0_MEMBER_45_FILL">
<path fill="#D82C26" stroke="none" d="
M 141.9 12.3
L 141.9 8.9 141.15 8.9 141.15 12.5
Q 141.15 13.5 141.7 14.3 142.25 15 143.35 15 144 15 144.65 14.6 145.3 14.2 145.5 13.55
L 145.65 14.85 146.35 14.85 146.25 8.9 145.5 8.9 145.5 11.85
Q 145.5 12.7 145.25 13.2 145.05 13.8 144.55 14.1 144.1 14.4 143.55 14.4 142.7 14.4 142.3 13.8 141.9 13.15 141.9 12.3 Z"/>
</g>

<g id="IT_640x480_FR_psd_Asset_B___V5_1_Vous_cherchez_une_solution_de__r_seau_g_r__de_bout_en_bout__pou_0_Layer0_0_MEMBER_46_FILL">
<path fill="#D82C26" stroke="none" d="
M 148.25 8.9
L 147.3 8.9 147.15 9.45 148.25 9.45 148.25 13.4
Q 148.25 14.15 148.65 14.55 149.05 14.95 149.65 14.95
L 150.3 14.85
Q 150.75 14.75 150.9 14.65
L 150.8 14.1
Q 150.2 14.35 149.85 14.35 149.5 14.35 149.25 14.1 149 13.75 149 13.3
L 149 9.45 150.55 9.45 150.7 8.9 149 8.9 149 7.15 148.25 7.45 148.25 8.9 Z"/>
</g>

<g id="IT_640x480_FR_psd_Asset_B___V5_1_Vous_cherchez_une_solution_de__r_seau_g_r__de_bout_en_bout__pou_0_Layer0_0_MEMBER_47_FILL">
<path fill="#D82C26" stroke="none" d="
M 1.85 23.7
L 1.15 23.7 1.15 32.7 1.9 32.7 1.9 28.4 1.95 28.4
Q 2.35 29.1 2.95 29.45 3.6 29.8 4.35 29.8 5.3 29.8 5.9 29.4 6.55 29.05 6.95 28.3 7.35 27.5 7.35 26.7 7.35 25.85 6.95 25.05 6.55 24.3 5.9 23.95 5.3 23.55 4.35 23.55 3.5 23.55 2.95 23.9 2.25 24.3 1.95 25
L 1.9 25 1.85 23.7
M 4.25 24.15
Q 5 24.15 5.5 24.5 5.95 24.75 6.3 25.4 6.6 26 6.6 26.7 6.6 27.35 6.3 27.95 6 28.55 5.5 28.85 5 29.2 4.25 29.2 3.55 29.2 3.05 28.85 2.55 28.55 2.2 27.95 1.9 27.35 1.9 26.7 1.9 26 2.2 25.4 2.55 24.8 3.05 24.5 3.55 24.15 4.25 24.15 Z"/>
</g>

<g id="IT_640x480_FR_psd_Asset_B___V5_1_Vous_cherchez_une_solution_de__r_seau_g_r__de_bout_en_bout__pou_0_Layer0_0_MEMBER_48_FILL">
<path fill="#D82C26" stroke="none" d="
M 13.05 23.9
Q 12.25 23.5 11.45 23.5 10.6 23.5 9.8 23.9 9.05 24.4 8.65 25.05 8.25 25.75 8.25 26.65 8.25 27.5 8.65 28.3 9.05 28.95 9.8 29.45 10.6 29.85 11.45 29.85 12.25 29.85 13.05 29.45 13.75 29 14.2 28.3 14.6 27.5 14.6 26.65 14.6 25.75 14.2 25.05 13.75 24.35 13.05 23.9
M 11.45 24.15
Q 12.2 24.15 12.7 24.5 13.25 24.8 13.55 25.4 13.85 26 13.85 26.65 13.85 27.35 13.55 27.95 13.15 28.6 12.7 28.85 12.2 29.2 11.45 29.2 10.65 29.2 10.15 28.85 9.65 28.55 9.3 27.95 9 27.35 9 26.65 9 26 9.3 25.4 9.6 24.8 10.15 24.5 10.65 24.15 11.45 24.15 Z"/>
</g>

<g id="IT_640x480_FR_psd_Asset_B___V5_1_Vous_cherchez_une_solution_de__r_seau_g_r__de_bout_en_bout__pou_0_Layer0_0_MEMBER_49_FILL">
<path fill="#D82C26" stroke="none" d="
M 16.6 23.7
L 15.85 23.7 15.85 27.35
Q 15.85 28.45 16.35 29.1 16.85 29.8 18 29.8 18.75 29.8 19.3 29.45 19.9 29 20.2 28.35
L 20.3 29.65 21.05 29.65 20.9 28.25 20.9 23.7 20.2 23.7 20.2 26.65
Q 20.2 27.45 19.9 28.05 19.65 28.6 19.2 28.9 18.75 29.2 18.2 29.2 17.35 29.2 16.95 28.6 16.6 28.05 16.6 27.15
L 16.6 23.7 Z"/>
</g>

<g id="IT_640x480_FR_psd_Asset_B___V5_1_Vous_cherchez_une_solution_de__r_seau_g_r__de_bout_en_bout__pou_0_Layer0_0_MEMBER_50_FILL">
<path fill="#D82C26" stroke="none" d="
M 23.3 23.7
L 22.6 23.7 22.65 29.65 23.4 29.65 23.4 26.7
Q 23.4 25.65 23.85 24.9 24.3 24.2 25.05 24.2 25.45 24.2 25.6 24.3
L 25.75 23.65
Q 25.55 23.55 25.1 23.55 24.6 23.55 24.1 23.9 23.65 24.2 23.4 25
L 23.35 25 23.3 23.7 Z"/>
</g>

<g id="IT_640x480_FR_psd_Asset_B___V5_1_Vous_cherchez_une_solution_de__r_seau_g_r__de_bout_en_bout__pou_0_Layer0_0_MEMBER_51_FILL">
<path fill="#D82C26" stroke="none" d="
M 28.05 23.7
L 30.35 29.65 31.2 29.65 33.4 23.7 32.65 23.7 30.8 28.9 28.85 23.7 28.05 23.7 Z"/>
</g>

<g id="IT_640x480_FR_psd_Asset_B___V5_1_Vous_cherchez_une_solution_de__r_seau_g_r__de_bout_en_bout__pou_0_Layer0_0_MEMBER_52_FILL">
<path fill="#D82C26" stroke="none" d="
M 38.45 23.9
Q 37.65 23.5 36.8 23.5 36 23.5 35.2 23.9 34.5 24.35 34.05 25.05 33.65 25.75 33.65 26.65 33.65 27.5 34.05 28.3 34.5 29 35.2 29.45 36 29.85 36.8 29.85 37.65 29.85 38.45 29.45 39.15 29 39.6 28.3 40 27.5 40 26.65 40 25.75 39.6 25.05 39.15 24.35 38.45 23.9
M 36.8 24.15
Q 37.6 24.15 38.1 24.5 38.65 24.8 38.95 25.4 39.25 26 39.25 26.65 39.25 27.35 38.95 27.95 38.55 28.6 38.1 28.85 37.6 29.2 36.8 29.2 36.05 29.2 35.55 28.85 35.05 28.55 34.7 27.95 34.4 27.35 34.4 26.65 34.4 26 34.7 25.4 35 24.8 35.55 24.5 36.05 24.15 36.8 24.15 Z"/>
</g>

<g id="IT_640x480_FR_psd_Asset_B___V5_1_Vous_cherchez_une_solution_de__r_seau_g_r__de_bout_en_bout__pou_0_Layer0_0_MEMBER_53_FILL">
<path fill="#D82C26" stroke="none" d="
M 41.3 22.3
L 41.3 23.7 40.35 23.7 40.2 24.3 41.35 24.3 41.35 28.2
Q 41.35 29 41.7 29.35 42.1 29.8 42.7 29.8
L 43.4 29.7 44 29.45 43.9 28.9
Q 43.4 29.15 42.95 29.15 42.5 29.15 42.3 28.9 42.05 28.65 42.05 28.1
L 42.05 24.3 43.6 24.3 43.75 23.7 42.05 23.7 42.05 22 41.3 22.3 Z"/>
</g>

<g id="IT_640x480_FR_psd_Asset_B___V5_1_Vous_cherchez_une_solution_de__r_seau_g_r__de_bout_en_bout__pou_0_Layer0_0_MEMBER_54_FILL">
<path fill="#D82C26" stroke="none" d="
M 45.5 23.7
L 44.8 23.7 44.85 29.65 45.6 29.65 45.6 26.7
Q 45.6 25.65 46.05 24.9 46.5 24.2 47.3 24.2 47.65 24.2 47.8 24.3
L 47.95 23.65
Q 47.75 23.55 47.35 23.55 46.8 23.55 46.3 23.9 45.85 24.3 45.6 25
L 45.55 25 45.5 23.7 Z"/>
</g>

<g id="IT_640x480_FR_psd_Asset_B___V5_1_Vous_cherchez_une_solution_de__r_seau_g_r__de_bout_en_bout__pou_0_Layer0_0_MEMBER_55_FILL">
<path fill="#D82C26" stroke="none" d="
M 51.05 23.5
Q 50.25 23.5 49.55 23.9 48.85 24.35 48.45 25.05 48.1 25.7 48.1 26.65 48.1 27.65 48.5 28.3 48.85 29 49.55 29.45 50.35 29.85 51.15 29.85 52.55 29.85 53.5 29.1
L 53.4 28.45
Q 52.8 28.85 52.4 29 51.95 29.2 51.2 29.2 50.55 29.2 49.95 28.9 49.4 28.5 49.15 28 48.8 27.5 48.8 26.8
L 53.85 26.8 53.85 26.45
Q 53.85 25.7 53.55 25 53.1 24.2 52.55 23.9 51.9 23.5 51.05 23.5
M 51.05 24.1
Q 52.05 24.1 52.55 24.7 53.15 25.3 53.15 26.25
L 48.8 26.25
Q 48.85 25.8 49.1 25.25 49.45 24.7 49.85 24.45 50.35 24.1 51.05 24.1 Z"/>
</g>

<g id="IT_640x480_FR_psd_Asset_B___V5_1_Vous_cherchez_une_solution_de__r_seau_g_r__de_bout_en_bout__pou_0_Layer0_0_MEMBER_56_FILL">
<path fill="#D82C26" stroke="none" d="
M 60.4 23.5
Q 59.6 23.5 58.9 23.9 58.2 24.4 57.85 25.05 57.45 25.75 57.45 26.65 57.45 27.5 57.85 28.3 58.2 29 58.95 29.45 59.65 29.85 60.5 29.85 61.85 29.85 62.9 29.1
L 62.75 28.45
Q 62.35 28.75 61.8 29 61.25 29.2 60.55 29.2 59.9 29.2 59.35 28.9 58.75 28.45 58.5 28 58.2 27.5 58.2 26.8
L 63.2 26.8 63.25 26.45
Q 63.25 25.8 62.9 25 62.6 24.3 61.95 23.9 61.25 23.5 60.4 23.5
M 59.25 24.45
Q 59.65 24.1 60.4 24.1 61.35 24.1 61.95 24.7 62.5 25.35 62.5 26.25
L 58.2 26.25
Q 58.2 25.85 58.45 25.25 58.8 24.7 59.25 24.45 Z"/>
</g>

<g id="IT_640x480_FR_psd_Asset_B___V5_1_Vous_cherchez_une_solution_de__r_seau_g_r__de_bout_en_bout__pou_0_Layer0_0_MEMBER_57_FILL">
<path fill="#D82C26" stroke="none" d="
M 65.15 23.7
L 64.45 23.7 64.5 29.65 65.25 29.65 65.25 26.6
Q 65.25 25.85 65.55 25.3 65.75 24.8 66.25 24.45 66.7 24.15 67.25 24.15 68.15 24.15 68.5 24.75 68.85 25.3 68.85 26.2
L 68.85 29.65 69.6 29.65 69.6 26
Q 69.6 24.9 69.1 24.25 68.55 23.55 67.4 23.55 66.65 23.55 66.1 23.95 65.55 24.3 65.25 25
L 65.15 23.7 Z"/>
</g>

<g id="IT_640x480_FR_psd_Asset_B___V5_1_Vous_cherchez_une_solution_de__r_seau_g_r__de_bout_en_bout__pou_0_Layer0_0_MEMBER_58_FILL">
<path fill="#D82C26" stroke="none" d="
M 70.4 23.7
L 70.25 24.3 71.35 24.3 71.35 28.2
Q 71.35 28.95 71.75 29.35 72.15 29.8 72.75 29.8
L 73.45 29.7 74 29.45 73.9 28.9
Q 73.45 29.15 72.95 29.15 72.55 29.15 72.35 28.9 72.1 28.65 72.1 28.1
L 72.1 24.3 73.65 24.3 73.8 23.7 72.1 23.7 72.1 22 71.35 22.3 71.35 23.7 70.4 23.7 Z"/>
</g>

<g id="IT_640x480_FR_psd_Asset_B___V5_1_Vous_cherchez_une_solution_de__r_seau_g_r__de_bout_en_bout__pou_0_Layer0_0_MEMBER_59_FILL">
<path fill="#D82C26" stroke="none" d="
M 75.55 23.7
L 74.85 23.7 74.9 29.65 75.65 29.65 75.65 26.7
Q 75.65 25.65 76.1 24.9 76.55 24.2 77.35 24.2 77.7 24.2 77.85 24.3
L 78 23.65
Q 77.8 23.55 77.4 23.55 76.85 23.55 76.35 23.9 75.9 24.3 75.65 25
L 75.6 25 75.55 23.7 Z"/>
</g>

<g id="IT_640x480_FR_psd_Asset_B___V5_1_Vous_cherchez_une_solution_de__r_seau_g_r__de_bout_en_bout__pou_0_Layer0_0_MEMBER_60_FILL">
<path fill="#D82C26" stroke="none" d="
M 82.6 23.9
Q 81.95 23.5 81.05 23.5 80.25 23.5 79.55 23.9 78.8 24.45 78.5 25.05 78.15 25.7 78.15 26.65 78.15 27.6 78.5 28.3 78.9 29 79.6 29.45 80.3 29.85 81.2 29.85 82.6 29.85 83.55 29.1
L 83.45 28.45
Q 82.85 28.85 82.45 29 82 29.2 81.25 29.2 80.55 29.2 80 28.9 79.4 28.45 79.15 28 78.85 27.5 78.85 26.8
L 83.9 26.8 83.9 26.45
Q 83.9 25.7 83.6 25 83.15 24.2 82.6 23.9
M 81.05 24.1
Q 82 24.1 82.6 24.7 83.2 25.3 83.2 26.25
L 78.85 26.25
Q 78.9 25.8 79.15 25.25 79.4 24.75 79.9 24.45 80.4 24.1 81.05 24.1 Z"/>
</g>

<g id="IT_640x480_FR_psd_Asset_B___V5_1_Vous_cherchez_une_solution_de__r_seau_g_r__de_bout_en_bout__pou_0_Layer0_0_MEMBER_61_FILL">
<path fill="#D82C26" stroke="none" d="
M 85.85 23.7
L 85.15 23.7 85.2 32.7 85.95 32.7 85.95 28.4
Q 86.35 29.1 86.95 29.45 87.6 29.8 88.35 29.8 89.3 29.8 89.9 29.4 90.6 29.05 91 28.3 91.35 27.6 91.35 26.7 91.35 25.75 91 25.05 90.6 24.3 89.9 23.95 89.3 23.55 88.35 23.55 87.5 23.55 86.95 23.9 86.4 24.2 85.95 25
L 85.9 25 85.85 23.7
M 88.25 24.15
Q 89 24.15 89.5 24.5 89.95 24.75 90.3 25.4 90.6 26 90.6 26.7 90.6 27.35 90.3 27.95 90 28.55 89.5 28.85 89 29.2 88.25 29.2 87.55 29.2 87.05 28.85 86.55 28.55 86.2 27.95 85.9 27.35 85.9 26.7 85.9 26 86.2 25.4 86.55 24.8 87.05 24.5 87.55 24.15 88.25 24.15 Z"/>
</g>

<g id="IT_640x480_FR_psd_Asset_B___V5_1_Vous_cherchez_une_solution_de__r_seau_g_r__de_bout_en_bout__pou_0_Layer0_0_MEMBER_62_FILL">
<path fill="#D82C26" stroke="none" d="
M 93.3 23.7
L 92.6 23.7 92.65 29.65 93.4 29.65 93.4 26.7
Q 93.4 25.65 93.85 24.9 94.3 24.2 95.1 24.2 95.45 24.2 95.6 24.3
L 95.75 23.65
Q 95.55 23.55 95.15 23.55 94.6 23.55 94.1 23.9 93.65 24.3 93.4 25
L 93.35 25 93.3 23.7 Z"/>
</g>

<g id="IT_640x480_FR_psd_Asset_B___V5_1_Vous_cherchez_une_solution_de__r_seau_g_r__de_bout_en_bout__pou_0_Layer0_0_MEMBER_63_FILL">
<path fill="#D82C26" stroke="none" d="
M 97.35 23.7
L 96.6 23.7 96.6 29.65 97.35 29.65 97.35 23.7
M 96.6 20.95
Q 96.45 21.1 96.45 21.3 96.45 21.55 96.6 21.7 96.75 21.85 96.95 21.85 97.2 21.85 97.35 21.7 97.5 21.55 97.5 21.3 97.5 21.1 97.35 20.95 97.2 20.8 96.95 20.8 96.75 20.8 96.6 20.95 Z"/>
</g>

<g id="IT_640x480_FR_psd_Asset_B___V5_1_Vous_cherchez_une_solution_de__r_seau_g_r__de_bout_en_bout__pou_0_Layer0_0_MEMBER_64_FILL">
<path fill="#D82C26" stroke="none" d="
M 102.55 24.15
L 101.7 23.7
Q 101 23.5 100.65 23.5 100.3 23.5 99.7 23.7 99.3 23.85 98.95 24.25 98.65 24.65 98.65 25.15 98.65 25.85 99.1 26.2 99.4 26.5 100.35 26.85 101.15 27.05 101.6 27.4 102 27.7 102 28.1 102 28.65 101.6 28.95 101.25 29.25 100.65 29.25 99.55 29.25 98.7 28.5
L 98.55 29.15
Q 98.85 29.4 99.45 29.65 100.05 29.8 100.7 29.8 101.25 29.8 101.65 29.6 102.15 29.45 102.4 29.05 102.7 28.6 102.7 28.1 102.7 27.45 102.25 27.05 101.9 26.7 100.9 26.35 99.95 26.05 99.7 25.8 99.35 25.55 99.35 25.1 99.35 24.65 99.75 24.35 100.15 24.1 100.65 24.1 101.15 24.1 101.5 24.3
L 102.2 24.7 102.55 24.15 Z"/>
</g>

<g id="IT_640x480_FR_psd_Asset_B___V5_1_Vous_cherchez_une_solution_de__r_seau_g_r__de_bout_en_bout__pou_0_Layer0_0_MEMBER_65_FILL">
<path fill="#D82C26" stroke="none" d="
M 106.45 23.5
Q 105.65 23.5 104.95 23.9 104.25 24.4 103.9 25.05 103.5 25.75 103.5 26.65 103.5 27.5 103.9 28.3 104.3 29 105 29.45 105.7 29.85 106.55 29.85 108 29.85 108.95 29.1
L 108.8 28.45
Q 108.35 28.8 107.85 29 107.3 29.2 106.65 29.2 105.95 29.2 105.4 28.9 104.8 28.45 104.55 28 104.25 27.5 104.25 26.8
L 109.3 26.8 109.3 26.45
Q 109.3 25.65 108.95 25 108.6 24.25 108 23.9 107.3 23.5 106.45 23.5
M 106.45 24.1
Q 107.4 24.1 108 24.7 108.6 25.3 108.6 26.25
L 104.25 26.25
Q 104.35 25.6 104.55 25.25 104.8 24.75 105.3 24.45 105.8 24.1 106.45 24.1 Z"/>
</g>

<g id="IT_640x480_FR_psd_Asset_B___V5_1_Vous_cherchez_une_solution_de__r_seau_g_r__de_bout_en_bout__pou_0_Layer0_0_MEMBER_66_FILL">
<path fill="#D82C26" stroke="none" d="
M 110.2 20.75
Q 109.45 21.1 109.15 21.5
L 109.5 22.1
Q 109.95 21.65 110.4 21.4 111 21.1 111.65 21.1 112.4 21.1 112.9 21.55 113.4 21.95 113.4 22.65 113.4 23.05 113.25 23.35 113.1 23.7 112.9 23.9
L 112.25 24.6
Q 111.7 25.1 111.45 25.65 111.25 26.25 111.25 26.65
L 111.25 27.05 112 27.05 112.05 26.1 112.3 25.55 113.6 24.15 114 23.5
Q 114.15 23.15 114.15 22.65 114.15 21.85 113.8 21.45 113.5 20.95 112.95 20.7 112.3 20.45 111.7 20.45 110.9 20.45 110.2 20.75
M 112.05 28.75
Q 111.9 28.6 111.65 28.6 111.4 28.6 111.25 28.75 111.1 29 111.1 29.15 111.1 29.4 111.25 29.55 111.45 29.75 111.65 29.75 111.9 29.75 112.05 29.55 112.2 29.4 112.2 29.15 112.2 29 112.05 28.75 Z"/>
</g>
</defs>

<g transform="matrix( 1, 0, 0, 1, -6,-18) ">
<g transform="matrix( 1, 0, 0, 1, 0,47) ">
<g transform="matrix( 1, 0, 0, 1, 53,10) ">
<g transform="matrix( 2.815704345703125, 0, 0, 2.832611083984375, 0.15,27.6) ">
<use xlink:href="#IT_640x480_FR_psd_Asset_B___V5_1_Vous_cherchez_une_solution_de__r_seau_g_r__de_bout_en_bout__pou_0_Layer0_0_MEMBER_0_FILL"/>
</g>

<g transform="matrix( 2.815704345703125, 0, 0, 2.832611083984375, 0.15,27.6) ">
<use xlink:href="#IT_640x480_FR_psd_Asset_B___V5_1_Vous_cherchez_une_solution_de__r_seau_g_r__de_bout_en_bout__pou_0_Layer0_0_MEMBER_1_FILL"/>
</g>

<g transform="matrix( 2.815704345703125, 0, 0, 2.832611083984375, 0.15,27.6) ">
<use xlink:href="#IT_640x480_FR_psd_Asset_B___V5_1_Vous_cherchez_une_solution_de__r_seau_g_r__de_bout_en_bout__pou_0_Layer0_0_MEMBER_2_FILL"/>
</g>

<g transform="matrix( 2.815704345703125, 0, 0, 2.832611083984375, 0.15,27.6) ">
<use xlink:href="#IT_640x480_FR_psd_Asset_B___V5_1_Vous_cherchez_une_solution_de__r_seau_g_r__de_bout_en_bout__pou_0_Layer0_0_MEMBER_3_FILL"/>
</g>

<g transform="matrix( 2.815704345703125, 0, 0, 2.832611083984375, 0.15,27.6) ">
<use xlink:href="#IT_640x480_FR_psd_Asset_B___V5_1_Vous_cherchez_une_solution_de__r_seau_g_r__de_bout_en_bout__pou_0_Layer0_0_MEMBER_4_FILL"/>
</g>

<g transform="matrix( 2.815704345703125, 0, 0, 2.832611083984375, 0.15,27.6) ">
<use xlink:href="#IT_640x480_FR_psd_Asset_B___V5_1_Vous_cherchez_une_solution_de__r_seau_g_r__de_bout_en_bout__pou_0_Layer0_0_MEMBER_5_FILL"/>
</g>

<g transform="matrix( 2.815704345703125, 0, 0, 2.832611083984375, 0.15,27.6) ">
<use xlink:href="#IT_640x480_FR_psd_Asset_B___V5_1_Vous_cherchez_une_solution_de__r_seau_g_r__de_bout_en_bout__pou_0_Layer0_0_MEMBER_6_FILL"/>
</g>

<g transform="matrix( 2.815704345703125, 0, 0, 2.832611083984375, 0.15,27.6) ">
<use xlink:href="#IT_640x480_FR_psd_Asset_B___V5_1_Vous_cherchez_une_solution_de__r_seau_g_r__de_bout_en_bout__pou_0_Layer0_0_MEMBER_7_FILL"/>
</g>

<g transform="matrix( 2.815704345703125, 0, 0, 2.832611083984375, 0.15,27.6) ">
<use xlink:href="#IT_640x480_FR_psd_Asset_B___V5_1_Vous_cherchez_une_solution_de__r_seau_g_r__de_bout_en_bout__pou_0_Layer0_0_MEMBER_8_FILL"/>
</g>

<g transform="matrix( 2.815704345703125, 0, 0, 2.832611083984375, 0.15,27.6) ">
<use xlink:href="#IT_640x480_FR_psd_Asset_B___V5_1_Vous_cherchez_une_solution_de__r_seau_g_r__de_bout_en_bout__pou_0_Layer0_0_MEMBER_9_FILL"/>
</g>

<g transform="matrix( 2.815704345703125, 0, 0, 2.832611083984375, 0.15,27.6) ">
<use xlink:href="#IT_640x480_FR_psd_Asset_B___V5_1_Vous_cherchez_une_solution_de__r_seau_g_r__de_bout_en_bout__pou_0_Layer0_0_MEMBER_10_FILL"/>
</g>

<g transform="matrix( 2.815704345703125, 0, 0, 2.832611083984375, 0.15,27.6) ">
<use xlink:href="#IT_640x480_FR_psd_Asset_B___V5_1_Vous_cherchez_une_solution_de__r_seau_g_r__de_bout_en_bout__pou_0_Layer0_0_MEMBER_11_FILL"/>
</g>

<g transform="matrix( 2.815704345703125, 0, 0, 2.832611083984375, 0.15,27.6) ">
<use xlink:href="#IT_640x480_FR_psd_Asset_B___V5_1_Vous_cherchez_une_solution_de__r_seau_g_r__de_bout_en_bout__pou_0_Layer0_0_MEMBER_12_FILL"/>
</g>

<g transform="matrix( 2.815704345703125, 0, 0, 2.832611083984375, 0.15,27.6) ">
<use xlink:href="#IT_640x480_FR_psd_Asset_B___V5_1_Vous_cherchez_une_solution_de__r_seau_g_r__de_bout_en_bout__pou_0_Layer0_0_MEMBER_13_FILL"/>
</g>

<g transform="matrix( 2.815704345703125, 0, 0, 2.832611083984375, 0.15,27.6) ">
<use xlink:href="#IT_640x480_FR_psd_Asset_B___V5_1_Vous_cherchez_une_solution_de__r_seau_g_r__de_bout_en_bout__pou_0_Layer0_0_MEMBER_14_FILL"/>
</g>

<g transform="matrix( 2.815704345703125, 0, 0, 2.832611083984375, 0.15,27.6) ">
<use xlink:href="#IT_640x480_FR_psd_Asset_B___V5_1_Vous_cherchez_une_solution_de__r_seau_g_r__de_bout_en_bout__pou_0_Layer0_0_MEMBER_15_FILL"/>
</g>

<g transform="matrix( 2.815704345703125, 0, 0, 2.832611083984375, 0.15,27.6) ">
<use xlink:href="#IT_640x480_FR_psd_Asset_B___V5_1_Vous_cherchez_une_solution_de__r_seau_g_r__de_bout_en_bout__pou_0_Layer0_0_MEMBER_16_FILL"/>
</g>

<g transform="matrix( 2.815704345703125, 0, 0, 2.832611083984375, 0.15,27.6) ">
<use xlink:href="#IT_640x480_FR_psd_Asset_B___V5_1_Vous_cherchez_une_solution_de__r_seau_g_r__de_bout_en_bout__pou_0_Layer0_0_MEMBER_17_FILL"/>
</g>

<g transform="matrix( 2.815704345703125, 0, 0, 2.832611083984375, 0.15,27.6) ">
<use xlink:href="#IT_640x480_FR_psd_Asset_B___V5_1_Vous_cherchez_une_solution_de__r_seau_g_r__de_bout_en_bout__pou_0_Layer0_0_MEMBER_18_FILL"/>
</g>

<g transform="matrix( 2.815704345703125, 0, 0, 2.832611083984375, 0.15,27.6) ">
<use xlink:href="#IT_640x480_FR_psd_Asset_B___V5_1_Vous_cherchez_une_solution_de__r_seau_g_r__de_bout_en_bout__pou_0_Layer0_0_MEMBER_19_FILL"/>
</g>

<g transform="matrix( 2.815704345703125, 0, 0, 2.832611083984375, 0.15,27.6) ">
<use xlink:href="#IT_640x480_FR_psd_Asset_B___V5_1_Vous_cherchez_une_solution_de__r_seau_g_r__de_bout_en_bout__pou_0_Layer0_0_MEMBER_20_FILL"/>
</g>

<g transform="matrix( 2.815704345703125, 0, 0, 2.832611083984375, 0.15,27.6) ">
<use xlink:href="#IT_640x480_FR_psd_Asset_B___V5_1_Vous_cherchez_une_solution_de__r_seau_g_r__de_bout_en_bout__pou_0_Layer0_0_MEMBER_21_FILL"/>
</g>

<g transform="matrix( 2.815704345703125, 0, 0, 2.832611083984375, 0.15,27.6) ">
<use xlink:href="#IT_640x480_FR_psd_Asset_B___V5_1_Vous_cherchez_une_solution_de__r_seau_g_r__de_bout_en_bout__pou_0_Layer0_0_MEMBER_22_FILL"/>
</g>

<g transform="matrix( 2.815704345703125, 0, 0, 2.832611083984375, 0.15,27.6) ">
<use xlink:href="#IT_640x480_FR_psd_Asset_B___V5_1_Vous_cherchez_une_solution_de__r_seau_g_r__de_bout_en_bout__pou_0_Layer0_0_MEMBER_23_FILL"/>
</g>

<g transform="matrix( 2.815704345703125, 0, 0, 2.832611083984375, 0.15,27.6) ">
<use xlink:href="#IT_640x480_FR_psd_Asset_B___V5_1_Vous_cherchez_une_solution_de__r_seau_g_r__de_bout_en_bout__pou_0_Layer0_0_MEMBER_24_FILL"/>
</g>

<g transform="matrix( 2.815704345703125, 0, 0, 2.832611083984375, 0.15,27.6) ">
<use xlink:href="#IT_640x480_FR_psd_Asset_B___V5_1_Vous_cherchez_une_solution_de__r_seau_g_r__de_bout_en_bout__pou_0_Layer0_0_MEMBER_25_FILL"/>
</g>

<g transform="matrix( 2.815704345703125, 0, 0, 2.832611083984375, 0.15,27.6) ">
<use xlink:href="#IT_640x480_FR_psd_Asset_B___V5_1_Vous_cherchez_une_solution_de__r_seau_g_r__de_bout_en_bout__pou_0_Layer0_0_MEMBER_26_FILL"/>
</g>

<g transform="matrix( 2.815704345703125, 0, 0, 2.832611083984375, 0.15,27.6) ">
<use xlink:href="#IT_640x480_FR_psd_Asset_B___V5_1_Vous_cherchez_une_solution_de__r_seau_g_r__de_bout_en_bout__pou_0_Layer0_0_MEMBER_27_FILL"/>
</g>

<g transform="matrix( 2.815704345703125, 0, 0, 2.832611083984375, 0.15,27.6) ">
<use xlink:href="#IT_640x480_FR_psd_Asset_B___V5_1_Vous_cherchez_une_solution_de__r_seau_g_r__de_bout_en_bout__pou_0_Layer0_0_MEMBER_28_FILL"/>
</g>

<g transform="matrix( 2.815704345703125, 0, 0, 2.832611083984375, 0.15,27.6) ">
<use xlink:href="#IT_640x480_FR_psd_Asset_B___V5_1_Vous_cherchez_une_solution_de__r_seau_g_r__de_bout_en_bout__pou_0_Layer0_0_MEMBER_29_FILL"/>
</g>

<g transform="matrix( 2.815704345703125, 0, 0, 2.832611083984375, 0.15,27.6) ">
<use xlink:href="#IT_640x480_FR_psd_Asset_B___V5_1_Vous_cherchez_une_solution_de__r_seau_g_r__de_bout_en_bout__pou_0_Layer0_0_MEMBER_30_FILL"/>
</g>

<g transform="matrix( 2.815704345703125, 0, 0, 2.832611083984375, 0.15,27.6) ">
<use xlink:href="#IT_640x480_FR_psd_Asset_B___V5_1_Vous_cherchez_une_solution_de__r_seau_g_r__de_bout_en_bout__pou_0_Layer0_0_MEMBER_31_FILL"/>
</g>

<g transform="matrix( 2.815704345703125, 0, 0, 2.832611083984375, 0.15,27.6) ">
<use xlink:href="#IT_640x480_FR_psd_Asset_B___V5_1_Vous_cherchez_une_solution_de__r_seau_g_r__de_bout_en_bout__pou_0_Layer0_0_MEMBER_32_FILL"/>
</g>

<g transform="matrix( 2.815704345703125, 0, 0, 2.832611083984375, 0.15,27.6) ">
<use xlink:href="#IT_640x480_FR_psd_Asset_B___V5_1_Vous_cherchez_une_solution_de__r_seau_g_r__de_bout_en_bout__pou_0_Layer0_0_MEMBER_33_FILL"/>
</g>

<g transform="matrix( 2.815704345703125, 0, 0, 2.832611083984375, 0.15,27.6) ">
<use xlink:href="#IT_640x480_FR_psd_Asset_B___V5_1_Vous_cherchez_une_solution_de__r_seau_g_r__de_bout_en_bout__pou_0_Layer0_0_MEMBER_34_FILL"/>
</g>

<g transform="matrix( 2.815704345703125, 0, 0, 2.832611083984375, 0.15,27.6) ">
<use xlink:href="#IT_640x480_FR_psd_Asset_B___V5_1_Vous_cherchez_une_solution_de__r_seau_g_r__de_bout_en_bout__pou_0_Layer0_0_MEMBER_35_FILL"/>
</g>

<g transform="matrix( 2.815704345703125, 0, 0, 2.832611083984375, 0.15,27.6) ">
<use xlink:href="#IT_640x480_FR_psd_Asset_B___V5_1_Vous_cherchez_une_solution_de__r_seau_g_r__de_bout_en_bout__pou_0_Layer0_0_MEMBER_36_FILL"/>
</g>

<g transform="matrix( 2.815704345703125, 0, 0, 2.832611083984375, 0.15,27.6) ">
<use xlink:href="#IT_640x480_FR_psd_Asset_B___V5_1_Vous_cherchez_une_solution_de__r_seau_g_r__de_bout_en_bout__pou_0_Layer0_0_MEMBER_37_FILL"/>
</g>

<g transform="matrix( 2.815704345703125, 0, 0, 2.832611083984375, 0.15,27.6) ">
<use xlink:href="#IT_640x480_FR_psd_Asset_B___V5_1_Vous_cherchez_une_solution_de__r_seau_g_r__de_bout_en_bout__pou_0_Layer0_0_MEMBER_38_FILL"/>
</g>

<g transform="matrix( 2.815704345703125, 0, 0, 2.832611083984375, 0.15,27.6) ">
<use xlink:href="#IT_640x480_FR_psd_Asset_B___V5_1_Vous_cherchez_une_solution_de__r_seau_g_r__de_bout_en_bout__pou_0_Layer0_0_MEMBER_39_FILL"/>
</g>

<g transform="matrix( 2.815704345703125, 0, 0, 2.832611083984375, 0.15,27.6) ">
<use xlink:href="#IT_640x480_FR_psd_Asset_B___V5_1_Vous_cherchez_une_solution_de__r_seau_g_r__de_bout_en_bout__pou_0_Layer0_0_MEMBER_40_FILL"/>
</g>

<g transform="matrix( 2.815704345703125, 0, 0, 2.832611083984375, 0.15,27.6) ">
<use xlink:href="#IT_640x480_FR_psd_Asset_B___V5_1_Vous_cherchez_une_solution_de__r_seau_g_r__de_bout_en_bout__pou_0_Layer0_0_MEMBER_41_FILL"/>
</g>

<g transform="matrix( 2.815704345703125, 0, 0, 2.832611083984375, 0.15,27.6) ">
<use xlink:href="#IT_640x480_FR_psd_Asset_B___V5_1_Vous_cherchez_une_solution_de__r_seau_g_r__de_bout_en_bout__pou_0_Layer0_0_MEMBER_42_FILL"/>
</g>

<g transform="matrix( 2.815704345703125, 0, 0, 2.832611083984375, 0.15,27.6) ">
<use xlink:href="#IT_640x480_FR_psd_Asset_B___V5_1_Vous_cherchez_une_solution_de__r_seau_g_r__de_bout_en_bout__pou_0_Layer0_0_MEMBER_43_FILL"/>
</g>

<g transform="matrix( 2.815704345703125, 0, 0, 2.832611083984375, 0.15,27.6) ">
<use xlink:href="#IT_640x480_FR_psd_Asset_B___V5_1_Vous_cherchez_une_solution_de__r_seau_g_r__de_bout_en_bout__pou_0_Layer0_0_MEMBER_44_FILL"/>
</g>

<g transform="matrix( 2.815704345703125, 0, 0, 2.832611083984375, 0.15,27.6) ">
<use xlink:href="#IT_640x480_FR_psd_Asset_B___V5_1_Vous_cherchez_une_solution_de__r_seau_g_r__de_bout_en_bout__pou_0_Layer0_0_MEMBER_45_FILL"/>
</g>

<g transform="matrix( 2.815704345703125, 0, 0, 2.832611083984375, 0.15,27.6) ">
<use xlink:href="#IT_640x480_FR_psd_Asset_B___V5_1_Vous_cherchez_une_solution_de__r_seau_g_r__de_bout_en_bout__pou_0_Layer0_0_MEMBER_46_FILL"/>
</g>

<g transform="matrix( 2.815704345703125, 0, 0, 2.832611083984375, 0.15,27.6) ">
<use xlink:href="#IT_640x480_FR_psd_Asset_B___V5_1_Vous_cherchez_une_solution_de__r_seau_g_r__de_bout_en_bout__pou_0_Layer0_0_MEMBER_47_FILL"/>
</g>

<g transform="matrix( 2.815704345703125, 0, 0, 2.832611083984375, 0.15,27.6) ">
<use xlink:href="#IT_640x480_FR_psd_Asset_B___V5_1_Vous_cherchez_une_solution_de__r_seau_g_r__de_bout_en_bout__pou_0_Layer0_0_MEMBER_48_FILL"/>
</g>

<g transform="matrix( 2.815704345703125, 0, 0, 2.832611083984375, 0.15,27.6) ">
<use xlink:href="#IT_640x480_FR_psd_Asset_B___V5_1_Vous_cherchez_une_solution_de__r_seau_g_r__de_bout_en_bout__pou_0_Layer0_0_MEMBER_49_FILL"/>
</g>

<g transform="matrix( 2.815704345703125, 0, 0, 2.832611083984375, 0.15,27.6) ">
<use xlink:href="#IT_640x480_FR_psd_Asset_B___V5_1_Vous_cherchez_une_solution_de__r_seau_g_r__de_bout_en_bout__pou_0_Layer0_0_MEMBER_50_FILL"/>
</g>

<g transform="matrix( 2.815704345703125, 0, 0, 2.832611083984375, 0.15,27.6) ">
<use xlink:href="#IT_640x480_FR_psd_Asset_B___V5_1_Vous_cherchez_une_solution_de__r_seau_g_r__de_bout_en_bout__pou_0_Layer0_0_MEMBER_51_FILL"/>
</g>

<g transform="matrix( 2.815704345703125, 0, 0, 2.832611083984375, 0.15,27.6) ">
<use xlink:href="#IT_640x480_FR_psd_Asset_B___V5_1_Vous_cherchez_une_solution_de__r_seau_g_r__de_bout_en_bout__pou_0_Layer0_0_MEMBER_52_FILL"/>
</g>

<g transform="matrix( 2.815704345703125, 0, 0, 2.832611083984375, 0.15,27.6) ">
<use xlink:href="#IT_640x480_FR_psd_Asset_B___V5_1_Vous_cherchez_une_solution_de__r_seau_g_r__de_bout_en_bout__pou_0_Layer0_0_MEMBER_53_FILL"/>
</g>

<g transform="matrix( 2.815704345703125, 0, 0, 2.832611083984375, 0.15,27.6) ">
<use xlink:href="#IT_640x480_FR_psd_Asset_B___V5_1_Vous_cherchez_une_solution_de__r_seau_g_r__de_bout_en_bout__pou_0_Layer0_0_MEMBER_54_FILL"/>
</g>

<g transform="matrix( 2.815704345703125, 0, 0, 2.832611083984375, 0.15,27.6) ">
<use xlink:href="#IT_640x480_FR_psd_Asset_B___V5_1_Vous_cherchez_une_solution_de__r_seau_g_r__de_bout_en_bout__pou_0_Layer0_0_MEMBER_55_FILL"/>
</g>

<g transform="matrix( 2.815704345703125, 0, 0, 2.832611083984375, 0.15,27.6) ">
<use xlink:href="#IT_640x480_FR_psd_Asset_B___V5_1_Vous_cherchez_une_solution_de__r_seau_g_r__de_bout_en_bout__pou_0_Layer0_0_MEMBER_56_FILL"/>
</g>

<g transform="matrix( 2.815704345703125, 0, 0, 2.832611083984375, 0.15,27.6) ">
<use xlink:href="#IT_640x480_FR_psd_Asset_B___V5_1_Vous_cherchez_une_solution_de__r_seau_g_r__de_bout_en_bout__pou_0_Layer0_0_MEMBER_57_FILL"/>
</g>

<g transform="matrix( 2.815704345703125, 0, 0, 2.832611083984375, 0.15,27.6) ">
<use xlink:href="#IT_640x480_FR_psd_Asset_B___V5_1_Vous_cherchez_une_solution_de__r_seau_g_r__de_bout_en_bout__pou_0_Layer0_0_MEMBER_58_FILL"/>
</g>

<g transform="matrix( 2.815704345703125, 0, 0, 2.832611083984375, 0.15,27.6) ">
<use xlink:href="#IT_640x480_FR_psd_Asset_B___V5_1_Vous_cherchez_une_solution_de__r_seau_g_r__de_bout_en_bout__pou_0_Layer0_0_MEMBER_59_FILL"/>
</g>

<g transform="matrix( 2.815704345703125, 0, 0, 2.832611083984375, 0.15,27.6) ">
<use xlink:href="#IT_640x480_FR_psd_Asset_B___V5_1_Vous_cherchez_une_solution_de__r_seau_g_r__de_bout_en_bout__pou_0_Layer0_0_MEMBER_60_FILL"/>
</g>

<g transform="matrix( 2.815704345703125, 0, 0, 2.832611083984375, 0.15,27.6) ">
<use xlink:href="#IT_640x480_FR_psd_Asset_B___V5_1_Vous_cherchez_une_solution_de__r_seau_g_r__de_bout_en_bout__pou_0_Layer0_0_MEMBER_61_FILL"/>
</g>

<g transform="matrix( 2.815704345703125, 0, 0, 2.832611083984375, 0.15,27.6) ">
<use xlink:href="#IT_640x480_FR_psd_Asset_B___V5_1_Vous_cherchez_une_solution_de__r_seau_g_r__de_bout_en_bout__pou_0_Layer0_0_MEMBER_62_FILL"/>
</g>

<g transform="matrix( 2.815704345703125, 0, 0, 2.832611083984375, 0.15,27.6) ">
<use xlink:href="#IT_640x480_FR_psd_Asset_B___V5_1_Vous_cherchez_une_solution_de__r_seau_g_r__de_bout_en_bout__pou_0_Layer0_0_MEMBER_63_FILL"/>
</g>

<g transform="matrix( 2.815704345703125, 0, 0, 2.832611083984375, 0.15,27.6) ">
<use xlink:href="#IT_640x480_FR_psd_Asset_B___V5_1_Vous_cherchez_une_solution_de__r_seau_g_r__de_bout_en_bout__pou_0_Layer0_0_MEMBER_64_FILL"/>
</g>

<g transform="matrix( 2.815704345703125, 0, 0, 2.832611083984375, 0.15,27.6) ">
<use xlink:href="#IT_640x480_FR_psd_Asset_B___V5_1_Vous_cherchez_une_solution_de__r_seau_g_r__de_bout_en_bout__pou_0_Layer0_0_MEMBER_65_FILL"/>
</g>

<g transform="matrix( 2.815704345703125, 0, 0, 2.832611083984375, 0.15,27.6) ">
<use xlink:href="#IT_640x480_FR_psd_Asset_B___V5_1_Vous_cherchez_une_solution_de__r_seau_g_r__de_bout_en_bout__pou_0_Layer0_0_MEMBER_66_FILL"/>
</g>
</g>
</g>
</g>
</svg>
