
<svg xmlns="http://www.w3.org/2000/svg" version="1.1" xmlns:xlink="http://www.w3.org/1999/xlink" preserveAspectRatio="none" x="0px" y="0px" width="200px" height="200px" viewBox="0 0 200 200">
<defs>
<g id="BDM_200x200_FR_psd_Asset_7_V8_1_Vous_tentez_d_accro_tre__la_fid_lisation____la_marque__0_Layer0_0_MEMBER_0_FILL">
<path fill="#D82C26" stroke="none" d="
M 0.5 -4.75
L 0.05 -4.75 1.85 0 2.3 0 4.15 -4.75 3.7 -4.75 2.1 -0.5 0.5 -4.75 Z"/>
</g>

<g id="BDM_200x200_FR_psd_Asset_7_V8_1_Vous_tentez_d_accro_tre__la_fid_lisation____la_marque__0_Layer0_0_MEMBER_1_FILL">
<path fill="#D82C26" stroke="none" d="
M 4.15 -0.7
Q 4.4 -0.3 4.75 -0.1 5.25 0.1 5.6 0.1 5.95 0.1 6.45 -0.1 6.85 -0.3 7.05 -0.7 7.3 -1.1 7.3 -1.6 7.3 -2.05 7.05 -2.45 6.85 -2.8 6.45 -3.05 5.95 -3.25 5.6 -3.25 5.25 -3.25 4.75 -3.05 4.4 -2.8 4.15 -2.45 3.95 -2.1 3.95 -1.6 3.95 -1.05 4.15 -0.7
M 4.5 -2.25
Q 4.65 -2.5 4.95 -2.75 5.2 -2.9 5.6 -2.9 6 -2.9 6.3 -2.75
L 6.75 -2.25
Q 6.9 -1.95 6.9 -1.6 6.9 -1.2 6.75 -0.9 6.6 -0.65 6.3 -0.4 6 -0.25 5.6 -0.25 5.2 -0.25 4.95 -0.4 4.65 -0.65 4.5 -0.9 4.35 -1.2 4.35 -1.6 4.35 -1.95 4.5 -2.25 Z"/>
</g>

<g id="BDM_200x200_FR_psd_Asset_7_V8_1_Vous_tentez_d_accro_tre__la_fid_lisation____la_marque__0_Layer0_0_MEMBER_2_FILL">
<path fill="#D82C26" stroke="none" d="
M 7.85 -1.25
Q 7.85 -0.65 8.15 -0.3 8.45 0.1 9 0.1 9.3 0.1 9.7 -0.1 10 -0.3 10.15 -0.7
L 10.2 0 10.6 0 10.55 -0.35 10.55 -3.15 10.15 -3.15 10.15 -1.6 10.05 -0.85
Q 9.9 -0.55 9.65 -0.4 9.45 -0.25 9.1 -0.25 8.7 -0.25 8.45 -0.55 8.25 -0.95 8.25 -1.35
L 8.25 -3.15 7.85 -3.15 7.85 -1.25 Z"/>
</g>

<g id="BDM_200x200_FR_psd_Asset_7_V8_1_Vous_tentez_d_accro_tre__la_fid_lisation____la_marque__0_Layer0_0_MEMBER_3_FILL">
<path fill="#D82C26" stroke="none" d="
M 12.25 -3.25
L 11.75 -3.15
Q 11.5 -3.05 11.35 -2.85 11.2 -2.6 11.2 -2.35 11.2 -2 11.45 -1.85 11.65 -1.65 12.1 -1.5
L 12.75 -1.2
Q 13 -1.05 13 -0.8 13 -0.55 12.75 -0.4 12.6 -0.2 12.25 -0.2 11.65 -0.2 11.25 -0.6
L 11.15 -0.25 11.65 0 12.3 0.1 12.8 0
Q 13.1 -0.2 13.2 -0.35 13.35 -0.5 13.35 -0.85 13.35 -1.2 13.1 -1.4
L 11.75 -2.05
Q 11.6 -2.1 11.6 -2.4 11.6 -2.65 11.8 -2.8 11.9 -2.9 12.25 -2.9
L 12.7 -2.85 13.1 -2.6 13.25 -2.9 12.8 -3.15 12.25 -3.25 Z"/>
</g>

<g id="BDM_200x200_FR_psd_Asset_7_V8_1_Vous_tentez_d_accro_tre__la_fid_lisation____la_marque__0_Layer0_0_MEMBER_4_FILL">
<path fill="#D82C26" stroke="none" d="
M 15.05 -2.85
L 15.05 -0.75
Q 15.05 -0.35 15.25 -0.15 15.4 0.05 15.75 0.05
L 16.1 0 16.45 -0.1 16.4 -0.4 15.9 -0.25
Q 15.7 -0.25 15.55 -0.4 15.4 -0.55 15.4 -0.8
L 15.4 -2.85 16.25 -2.85 16.3 -3.15 15.4 -3.15 15.4 -4.05 15 -3.9 15 -3.15 14.5 -3.15 14.45 -2.85 15.05 -2.85 Z"/>
</g>

<g id="BDM_200x200_FR_psd_Asset_7_V8_1_Vous_tentez_d_accro_tre__la_fid_lisation____la_marque__0_Layer0_0_MEMBER_5_FILL">
<path fill="#D82C26" stroke="none" d="
M 16.7 -0.7
Q 16.95 -0.3 17.3 -0.1 17.8 0.1 18.1 0.1 18.85 0.1 19.4 -0.3
L 19.3 -0.65
Q 19.05 -0.4 18.8 -0.35 18.6 -0.25 18.15 -0.25 17.8 -0.25 17.5 -0.4 17.2 -0.55 17.05 -0.85 16.9 -1.15 16.9 -1.5
L 19.55 -1.5 19.55 -1.7
Q 19.55 -2.15 19.4 -2.45 19.15 -2.85 18.9 -3.05 18.4 -3.25 18.05 -3.25 17.7 -3.25 17.3 -3.05 16.95 -2.8 16.7 -2.45 16.5 -1.95 16.5 -1.6 16.5 -1.2 16.7 -0.7
M 17.05 -2.3
Q 17.2 -2.55 17.45 -2.75 17.75 -2.95 18.05 -2.95 18.55 -2.95 18.85 -2.6 19.2 -2.25 19.2 -1.8
L 16.9 -1.8
Q 16.9 -2.05 17.05 -2.3 Z"/>
</g>

<g id="BDM_200x200_FR_psd_Asset_7_V8_1_Vous_tentez_d_accro_tre__la_fid_lisation____la_marque__0_Layer0_0_MEMBER_6_FILL">
<path fill="#D82C26" stroke="none" d="
M 21 -3
Q 20.7 -2.85 20.55 -2.45
L 20.55 -3.15 20.15 -3.15 20.2 0 20.6 0 20.6 -1.6 20.7 -2.3
Q 20.85 -2.55 21.1 -2.75 21.35 -2.9 21.65 -2.9 22.1 -2.9 22.3 -2.6 22.5 -2.2 22.5 -1.8
L 22.5 0 22.85 0 22.85 -1.9
Q 22.85 -2.55 22.6 -2.85 22.3 -3.25 21.7 -3.25 21.4 -3.25 21 -3 Z"/>
</g>

<g id="BDM_200x200_FR_psd_Asset_7_V8_1_Vous_tentez_d_accro_tre__la_fid_lisation____la_marque__0_Layer0_0_MEMBER_7_FILL">
<path fill="#D82C26" stroke="none" d="
M 23.75 -3.15
L 23.25 -3.15 23.15 -2.85 23.75 -2.85 23.75 -0.75
Q 23.75 -0.35 23.95 -0.15 24.1 0.05 24.45 0.05
L 24.85 0 25.15 -0.1 25.1 -0.4 24.6 -0.25
Q 24.4 -0.25 24.25 -0.4 24.15 -0.5 24.15 -0.8
L 24.15 -2.85 24.95 -2.85 25 -3.15 24.15 -3.15 24.15 -4.05 23.75 -3.9 23.75 -3.15 Z"/>
</g>

<g id="BDM_200x200_FR_psd_Asset_7_V8_1_Vous_tentez_d_accro_tre__la_fid_lisation____la_marque__0_Layer0_0_MEMBER_8_FILL">
<path fill="#D82C26" stroke="none" d="
M 26 -3.05
Q 25.6 -2.8 25.45 -2.45 25.2 -2.05 25.2 -1.6 25.2 -1.1 25.45 -0.7 25.6 -0.35 26 -0.1 26.5 0.1 26.85 0.1 27.55 0.1 28.1 -0.3
L 28 -0.65
Q 27.85 -0.45 27.5 -0.35 27.3 -0.25 26.85 -0.25 26.5 -0.25 26.2 -0.4
L 25.75 -0.85
Q 25.6 -1.15 25.6 -1.5
L 28.25 -1.5 28.25 -1.7
Q 28.25 -2.15 28.1 -2.45 27.95 -2.75 27.6 -3.05 27.1 -3.25 26.8 -3.25 26.4 -3.25 26 -3.05
M 26.8 -2.95
Q 27.3 -2.95 27.6 -2.6 27.9 -2.3 27.9 -1.8
L 25.6 -1.8
Q 25.6 -2.05 25.75 -2.3 25.9 -2.55 26.15 -2.75 26.55 -2.95 26.8 -2.95 Z"/>
</g>

<g id="BDM_200x200_FR_psd_Asset_7_V8_1_Vous_tentez_d_accro_tre__la_fid_lisation____la_marque__0_Layer0_0_MEMBER_9_FILL">
<path fill="#D82C26" stroke="none" d="
M 30.5 -2.85
L 28.55 -0.3 28.55 0 31 0 31.1 -0.3 29 -0.3 30.95 -2.85 30.95 -3.15 28.65 -3.15 28.6 -2.85 30.5 -2.85 Z"/>
</g>

<g id="BDM_200x200_FR_psd_Asset_7_V8_1_Vous_tentez_d_accro_tre__la_fid_lisation____la_marque__0_Layer0_0_MEMBER_10_FILL">
<path fill="#D82C26" stroke="none" d="
M 32.55 -2.4
Q 32.35 -2.05 32.35 -1.55 32.35 -1.1 32.55 -0.75 32.8 -0.35 33.1 -0.15 33.5 0.1 33.95 0.1 34.2 0.1 34.7 -0.1 35.05 -0.4 35.2 -0.7
L 35.25 -0.7 35.25 0 35.65 0 35.6 -5.15 35.2 -5.05 35.2 -2.45
Q 35.05 -2.75 34.7 -3.05 34.2 -3.25 33.95 -3.25 33.5 -3.25 33.1 -3 32.8 -2.8 32.55 -2.4
M 32.75 -1.55
Q 32.75 -1.95 32.9 -2.25 33.05 -2.55 33.35 -2.7 33.55 -2.9 34 -2.9 34.4 -2.9 34.65 -2.7
L 35.1 -2.25
Q 35.25 -1.95 35.25 -1.55 35.25 -1.2 35.1 -0.9
L 34.65 -0.4
Q 34.35 -0.25 34 -0.25 33.6 -0.25 33.35 -0.4 33.05 -0.65 32.9 -0.9 32.75 -1.2 32.75 -1.55 Z"/>
</g>

<g id="BDM_200x200_FR_psd_Asset_7_V8_1_Vous_tentez_d_accro_tre__la_fid_lisation____la_marque__0_Layer0_0_MEMBER_11_FILL">
<path fill="#D82C26" stroke="none" d="
M 37.05 -4.65
L 36.85 -4.75 36.6 -4.65 36.55 -4.45 36.6 -4.25 36.8 -4.15 36.65 -3.7
Q 36.45 -3.45 36.35 -3.35
L 36.5 -3.25
Q 37.15 -3.75 37.15 -4.35
L 37.05 -4.65 Z"/>
</g>

<g id="BDM_200x200_FR_psd_Asset_7_V8_1_Vous_tentez_d_accro_tre__la_fid_lisation____la_marque__0_Layer0_0_MEMBER_12_FILL">
<path fill="#D82C26" stroke="none" d="
M 37.25 -0.85
Q 37.25 -0.35 37.55 -0.15 37.9 0.1 38.25 0.1 38.7 0.1 38.95 -0.1 39.3 -0.3 39.4 -0.6
L 39.45 -0.6 39.45 -0.3 39.5 0 39.85 0 39.8 -2.05
Q 39.8 -2.65 39.5 -2.95 39.15 -3.25 38.6 -3.25
L 37.95 -3.15 37.4 -2.85 37.55 -2.55
Q 37.75 -2.75 38 -2.8 38.2 -2.9 38.55 -2.9 39 -2.9 39.2 -2.7 39.45 -2.45 39.45 -2.05
L 39.45 -1.9 39.05 -1.9
Q 37.25 -1.9 37.25 -0.85
M 37.85 -0.35
Q 37.65 -0.5 37.65 -0.85 37.65 -1.6 39.1 -1.6
L 39.45 -1.6 39.45 -1.3
Q 39.45 -1 39.3 -0.8
L 38.95 -0.35
Q 38.65 -0.2 38.35 -0.2 38 -0.2 37.85 -0.35 Z"/>
</g>

<g id="BDM_200x200_FR_psd_Asset_7_V8_1_Vous_tentez_d_accro_tre__la_fid_lisation____la_marque__0_Layer0_0_MEMBER_13_FILL">
<path fill="#D82C26" stroke="none" d="
M 42.65 -3.15
L 42.05 -3.25
Q 41.7 -3.25 41.2 -3.05 40.85 -2.8 40.6 -2.45 40.4 -2.05 40.4 -1.55 40.4 -1.05 40.6 -0.7 40.85 -0.3 41.2 -0.1 41.7 0.1 42.05 0.1
L 42.65 0 43.1 -0.3 43.05 -0.6 42.6 -0.35 42.05 -0.25
Q 41.65 -0.25 41.4 -0.45 41.1 -0.6 40.95 -0.9 40.8 -1.2 40.8 -1.55 40.8 -1.95 40.95 -2.25 41.1 -2.55 41.4 -2.7 41.65 -2.9 42.05 -2.9
L 42.55 -2.8 42.95 -2.55 43.1 -2.85
Q 43.05 -2.95 42.65 -3.15 Z"/>
</g>

<g id="BDM_200x200_FR_psd_Asset_7_V8_1_Vous_tentez_d_accro_tre__la_fid_lisation____la_marque__0_Layer0_0_MEMBER_14_FILL">
<path fill="#D82C26" stroke="none" d="
M 45.55 -3.15
L 44.95 -3.25
Q 44.6 -3.25 44.1 -3.05 43.7 -2.8 43.55 -2.45 43.3 -1.95 43.3 -1.55 43.3 -1.2 43.5 -0.7 43.75 -0.3 44.1 -0.1 44.6 0.1 44.95 0.1
L 45.55 0 46.05 -0.3 45.95 -0.6
Q 45.75 -0.4 45.5 -0.35
L 45 -0.25
Q 44.55 -0.25 44.3 -0.45 44.05 -0.6 43.9 -0.9 43.7 -1.15 43.7 -1.55 43.7 -2 43.9 -2.25 44.05 -2.5 44.3 -2.7 44.55 -2.9 44.95 -2.9
L 45.45 -2.8
Q 45.65 -2.75 45.85 -2.55
L 46.05 -2.85 45.55 -3.15 Z"/>
</g>

<g id="BDM_200x200_FR_psd_Asset_7_V8_1_Vous_tentez_d_accro_tre__la_fid_lisation____la_marque__0_Layer0_0_MEMBER_15_FILL">
<path fill="#D82C26" stroke="none" d="
M 46.85 -3.15
L 46.45 -3.15 46.5 0 46.9 0 46.9 -1.55
Q 46.9 -2.2 47.15 -2.5 47.4 -2.9 47.8 -2.9
L 48.05 -2.85 48.15 -3.2 47.8 -3.25
Q 47.65 -3.25 47.25 -3.05 46.95 -2.75 46.9 -2.45
L 46.85 -2.45 46.85 -3.15 Z"/>
</g>

<g id="BDM_200x200_FR_psd_Asset_7_V8_1_Vous_tentez_d_accro_tre__la_fid_lisation____la_marque__0_Layer0_0_MEMBER_16_FILL">
<path fill="#D82C26" stroke="none" d="
M 48.95 -3.05
Q 48.6 -2.8 48.35 -2.45 48.15 -2.1 48.15 -1.6 48.15 -1.05 48.35 -0.7 48.6 -0.3 48.95 -0.1 49.45 0.1 49.8 0.1 50.15 0.1 50.65 -0.1 51.05 -0.3 51.25 -0.7 51.5 -1.1 51.5 -1.6 51.5 -2.05 51.25 -2.45 51.05 -2.8 50.65 -3.05 50.15 -3.25 49.8 -3.25 49.45 -3.25 48.95 -3.05
M 49.8 -2.9
Q 50.2 -2.9 50.5 -2.75
L 50.95 -2.25
Q 51.1 -1.95 51.1 -1.6 51.1 -1.2 50.95 -0.9 50.8 -0.65 50.5 -0.4 50.2 -0.25 49.8 -0.25 49.45 -0.25 49.15 -0.4 48.85 -0.65 48.7 -0.9 48.55 -1.2 48.55 -1.6 48.55 -1.95 48.7 -2.25 48.85 -2.5 49.15 -2.75 49.45 -2.9 49.8 -2.9 Z"/>
</g>

<g id="BDM_200x200_FR_psd_Asset_7_V8_1_Vous_tentez_d_accro_tre__la_fid_lisation____la_marque__0_Layer0_0_MEMBER_17_FILL">
<path fill="#D82C26" stroke="none" d="
M 52.5 -3.15
L 52.1 -3.15 52.1 0 52.5 0 52.5 -3.15
M 52.1 -4.75
L 51.4 -3.8 51.75 -3.8 52.3 -4.6 52.9 -3.8 53.25 -3.8 52.5 -4.75 52.1 -4.75 Z"/>
</g>

<g id="BDM_200x200_FR_psd_Asset_7_V8_1_Vous_tentez_d_accro_tre__la_fid_lisation____la_marque__0_Layer0_0_MEMBER_18_FILL">
<path fill="#D82C26" stroke="none" d="
M 53.55 -3.9
L 53.55 -3.15 53.05 -3.15 52.95 -2.85 53.55 -2.85 53.55 -0.75
Q 53.55 -0.35 53.75 -0.15 53.95 0.05 54.3 0.05
L 54.65 0 54.95 -0.1 54.9 -0.4 54.4 -0.25
Q 54.2 -0.25 54.05 -0.4 53.95 -0.6 53.95 -0.8
L 53.95 -2.85 54.75 -2.85 54.85 -3.15 53.95 -3.15 53.95 -4.05 53.55 -3.9 Z"/>
</g>

<g id="BDM_200x200_FR_psd_Asset_7_V8_1_Vous_tentez_d_accro_tre__la_fid_lisation____la_marque__0_Layer0_0_MEMBER_19_FILL">
<path fill="#D82C26" stroke="none" d="
M 55.75 -1.55
Q 55.75 -2.1 56 -2.5 56.25 -2.9 56.65 -2.9
L 56.9 -2.85 57 -3.2 56.65 -3.25
Q 56.45 -3.25 56.15 -3.05 55.9 -2.9 55.75 -2.45
L 55.7 -3.15 55.3 -3.15 55.35 0 55.75 0 55.75 -1.55 Z"/>
</g>

<g id="BDM_200x200_FR_psd_Asset_7_V8_1_Vous_tentez_d_accro_tre__la_fid_lisation____la_marque__0_Layer0_0_MEMBER_20_FILL">
<path fill="#D82C26" stroke="none" d="
M 57.2 -0.7
Q 57.45 -0.3 57.8 -0.1 58.3 0.1 58.6 0.1 59.3 0.1 59.85 -0.3
L 59.8 -0.65
Q 59.55 -0.4 59.3 -0.35 59.1 -0.25 58.65 -0.25 58.3 -0.25 58 -0.4 57.7 -0.55 57.55 -0.85 57.4 -1.15 57.4 -1.5
L 60.05 -1.5 60.05 -1.7
Q 60.05 -2.15 59.9 -2.45 59.65 -2.85 59.35 -3.05 58.95 -3.25 58.55 -3.25 58.25 -3.25 57.75 -3.05 57.4 -2.8 57.2 -2.45 57 -2.1 57 -1.6 57 -1.2 57.2 -0.7
M 57.55 -2.3
Q 57.7 -2.65 57.95 -2.75 58.25 -2.95 58.55 -2.95 59.05 -2.95 59.35 -2.6 59.65 -2.3 59.7 -1.8
L 57.4 -1.8
Q 57.4 -2.05 57.55 -2.3 Z"/>
</g>

<g id="BDM_200x200_FR_psd_Asset_7_V8_1_Vous_tentez_d_accro_tre__la_fid_lisation____la_marque__0_Layer0_0_MEMBER_21_FILL">
<path fill="#D82C26" stroke="none" d="
M 0.75 7.55
Q 0.9 7.75 1.15 7.85
L 1.3 7.5 1.1 7.3
Q 1 7.2 1 7
L 1 2.65 0.6 2.75 0.6 7.05
Q 0.6 7.4 0.75 7.55 Z"/>
</g>

<g id="BDM_200x200_FR_psd_Asset_7_V8_1_Vous_tentez_d_accro_tre__la_fid_lisation____la_marque__0_Layer0_0_MEMBER_22_FILL">
<path fill="#D82C26" stroke="none" d="
M 2.4 4.65
Q 2.15 4.7 1.85 4.9
L 1.95 5.25 2.45 4.95 2.95 4.85
Q 3.4 4.85 3.6 5.05 3.85 5.3 3.85 5.7
L 3.85 5.9 3.45 5.9
Q 1.65 5.9 1.65 6.9 1.65 7.4 1.95 7.6 2.2 7.85 2.65 7.85 3.05 7.85 3.4 7.7 3.75 7.45 3.85 7.15
L 3.9 7.5 3.9 7.75 4.25 7.75 4.2 5.75
Q 4.2 5.15 3.9 4.85 3.6 4.55 3 4.55 2.6 4.55 2.4 4.65
M 3.5 6.15
L 3.85 6.15 3.85 6.45 3.75 7 3.35 7.4
Q 3.15 7.55 2.75 7.55 2.5 7.55 2.25 7.4 2.05 7.25 2.05 6.9 2.05 6.15 3.5 6.15 Z"/>
</g>

<g id="BDM_200x200_FR_psd_Asset_7_V8_1_Vous_tentez_d_accro_tre__la_fid_lisation____la_marque__0_Layer0_0_MEMBER_23_FILL">
<path fill="#D82C26" stroke="none" d="
M 7.7 3
L 7.75 2.7 7.2 2.6
Q 6.75 2.6 6.5 2.9 6.25 3.15 6.25 3.7
L 6.25 4.65 5.65 4.65 5.6 4.95 6.25 4.95 6.25 7.75 6.65 7.75 6.65 4.95 7.35 4.95 7.45 4.65 6.65 4.65 6.65 3.7 6.75 3.15
Q 6.9 2.95 7.25 2.95
L 7.7 3
M 8.45 4.65
L 8.05 4.65 8.05 7.75 8.45 7.75 8.45 4.65
M 8.25 3.65
Q 8.4 3.65 8.45 3.55
L 8.55 3.35 8.45 3.15 8.25 3.1 8.05 3.15 7.95 3.35 8.05 3.55
Q 8.1 3.65 8.25 3.65 Z"/>
</g>

<g id="BDM_200x200_FR_psd_Asset_7_V8_1_Vous_tentez_d_accro_tre__la_fid_lisation____la_marque__0_Layer0_0_MEMBER_24_FILL">
<path fill="#D82C26" stroke="none" d="
M 11.4 4.75
Q 11.15 4.55 10.65 4.55 10.2 4.55 9.85 4.75 9.45 5 9.3 5.35 9.1 5.7 9.1 6.2 9.1 6.7 9.3 7.05 9.45 7.4 9.85 7.65 10.2 7.85 10.65 7.85 11.15 7.85 11.4 7.65 11.75 7.45 11.95 7.1
L 12 7.75 12.4 7.75 12.35 2.6 11.95 2.7 11.95 5.3
Q 11.7 4.85 11.4 4.75
M 11.35 5.05
Q 11.6 5.2 11.8 5.55 11.95 5.85 11.95 6.2 11.95 6.55 11.8 6.85 11.65 7.1 11.35 7.35 10.95 7.55 10.7 7.55 10.45 7.55 10.05 7.35 9.85 7.2 9.65 6.85 9.5 6.55 9.5 6.2 9.5 5.85 9.65 5.55 9.85 5.2 10.05 5.05 10.3 4.85 10.7 4.85 11.1 4.85 11.35 5.05 Z"/>
</g>

<g id="BDM_200x200_FR_psd_Asset_7_V8_1_Vous_tentez_d_accro_tre__la_fid_lisation____la_marque__0_Layer0_0_MEMBER_25_FILL">
<path fill="#D82C26" stroke="none" d="
M 14.95 3
L 14.25 4 14.6 4 15.4 3 14.95 3
M 15.85 5.3
Q 15.7 4.95 15.35 4.75 15 4.55 14.55 4.55 14.1 4.55 13.75 4.75 13.3 5 13.2 5.35 12.95 5.75 12.95 6.2 12.95 6.65 13.2 7.05 13.35 7.4 13.75 7.65 14.1 7.85 14.6 7.85 15.4 7.85 15.85 7.45
L 15.75 7.15 15.25 7.4
Q 14.95 7.55 14.6 7.55 14.2 7.55 13.95 7.35
L 13.5 6.9
Q 13.35 6.6 13.35 6.25
L 16 6.25 16.05 6.1
Q 16.05 5.8 15.85 5.3
M 15.35 5.15
Q 15.65 5.45 15.65 5.95
L 13.35 5.95 13.5 5.45 13.9 5
Q 14.2 4.85 14.55 4.85 15.05 4.85 15.35 5.15 Z"/>
</g>

<g id="BDM_200x200_FR_psd_Asset_7_V8_1_Vous_tentez_d_accro_tre__la_fid_lisation____la_marque__0_Layer0_0_MEMBER_26_FILL">
<path fill="#D82C26" stroke="none" d="
M 16.8 7.55
Q 16.95 7.8 17.15 7.85
L 17.35 7.5
Q 17.15 7.45 17.1 7.3
L 17.05 7 17.05 2.65 16.65 2.75 16.65 7.05
Q 16.65 7.4 16.8 7.55 Z"/>
</g>

<g id="BDM_200x200_FR_psd_Asset_7_V8_1_Vous_tentez_d_accro_tre__la_fid_lisation____la_marque__0_Layer0_0_MEMBER_27_FILL">
<path fill="#D82C26" stroke="none" d="
M 18.3 4.65
L 17.9 4.65 17.9 7.75 18.3 7.75 18.3 4.65
M 18.1 3.65
Q 18.25 3.65 18.3 3.55
L 18.4 3.35 18.3 3.15 18.1 3.1 17.9 3.15 17.85 3.35 17.9 3.55
Q 17.95 3.65 18.1 3.65 Z"/>
</g>

<g id="BDM_200x200_FR_psd_Asset_7_V8_1_Vous_tentez_d_accro_tre__la_fid_lisation____la_marque__0_Layer0_0_MEMBER_28_FILL">
<path fill="#D82C26" stroke="none" d="
M 20.7 6.95
Q 20.7 7.25 20.5 7.4 20.3 7.55 20 7.55 19.45 7.55 18.95 7.15
L 18.9 7.5 19.4 7.75 20 7.85 20.55 7.75
Q 20.8 7.65 20.95 7.45 21.1 7.25 21.1 6.95 21.1 6.55 20.85 6.4 20.6 6.15 20.1 6
L 19.5 5.75
Q 19.35 5.6 19.35 5.35 19.35 5.1 19.5 5 19.75 4.85 20 4.85 20.3 4.85 20.45 4.95
L 20.85 5.15 21 4.85 20.55 4.65
Q 20.4 4.55 20 4.55
L 19.5 4.6 19.1 4.9
Q 18.95 5.15 18.95 5.4 18.95 5.7 19.2 5.95 19.6 6.2 19.85 6.3
L 20.5 6.55
Q 20.7 6.7 20.7 6.95 Z"/>
</g>

<g id="BDM_200x200_FR_psd_Asset_7_V8_1_Vous_tentez_d_accro_tre__la_fid_lisation____la_marque__0_Layer0_0_MEMBER_29_FILL">
<path fill="#D82C26" stroke="none" d="
M 22.2 4.65
L 21.65 4.9 21.8 5.25
Q 21.9 5.15 22.25 4.95
L 22.8 4.85
Q 23.25 4.85 23.45 5.05 23.7 5.3 23.7 5.7
L 23.7 5.9 23.3 5.9
Q 21.5 5.9 21.5 6.9 21.5 7.4 21.8 7.6 22.05 7.85 22.5 7.85 22.9 7.85 23.2 7.7 23.6 7.4 23.65 7.15
L 23.7 7.15 23.7 7.5 23.75 7.75 24.1 7.75 24.05 5.75
Q 24.05 5.15 23.75 4.85 23.4 4.55 22.85 4.55 22.4 4.55 22.2 4.65
M 23.35 6.15
L 23.7 6.15 23.7 6.45
Q 23.7 6.7 23.55 7
L 23.2 7.4
Q 22.9 7.55 22.6 7.55 22.25 7.55 22.1 7.4 21.85 7.25 21.85 6.9 21.85 6.15 23.35 6.15 Z"/>
</g>

<g id="BDM_200x200_FR_psd_Asset_7_V8_1_Vous_tentez_d_accro_tre__la_fid_lisation____la_marque__0_Layer0_0_MEMBER_30_FILL">
<path fill="#D82C26" stroke="none" d="
M 26.15 4.95
L 26.2 4.65 25.3 4.65 25.3 3.7 24.95 3.9 24.95 4.65 24.4 4.65 24.35 4.95 24.95 4.95 24.95 7
Q 24.95 7.45 25.15 7.6 25.3 7.85 25.65 7.85
L 26 7.8 26.35 7.65 26.3 7.35 25.8 7.5 25.45 7.4
Q 25.3 7.25 25.3 6.95
L 25.3 4.95 26.15 4.95 Z"/>
</g>

<g id="BDM_200x200_FR_psd_Asset_7_V8_1_Vous_tentez_d_accro_tre__la_fid_lisation____la_marque__0_Layer0_0_MEMBER_31_FILL">
<path fill="#D82C26" stroke="none" d="
M 27.15 4.65
L 26.75 4.65 26.75 7.75 27.15 7.75 27.15 4.65
M 26.95 3.65
L 27.15 3.55 27.2 3.35 27.15 3.15 26.95 3.1 26.75 3.15
Q 26.65 3.2 26.65 3.35 26.65 3.5 26.75 3.55 26.8 3.65 26.95 3.65 Z"/>
</g>

<g id="BDM_200x200_FR_psd_Asset_7_V8_1_Vous_tentez_d_accro_tre__la_fid_lisation____la_marque__0_Layer0_0_MEMBER_32_FILL">
<path fill="#D82C26" stroke="none" d="
M 31.1 6.2
Q 31.1 5.75 30.85 5.35 30.7 5 30.25 4.75 29.9 4.55 29.4 4.55 28.9 4.55 28.55 4.75 28.2 5 27.95 5.35 27.75 5.7 27.75 6.2 27.75 6.7 27.95 7.05 28.2 7.45 28.55 7.65 28.9 7.85 29.4 7.85 29.9 7.85 30.25 7.65 30.7 7.45 30.85 7.05 31.1 6.65 31.1 6.2
M 30.7 6.2
Q 30.7 6.55 30.55 6.85 30.4 7.1 30.1 7.35 29.7 7.55 29.4 7.55 29.15 7.55 28.75 7.35 28.45 7.1 28.3 6.85 28.15 6.55 28.15 6.2 28.15 5.8 28.3 5.5 28.45 5.2 28.75 5.05 29 4.85 29.4 4.85 29.85 4.85 30.1 5.05 30.4 5.2 30.55 5.5 30.7 5.8 30.7 6.2 Z"/>
</g>

<g id="BDM_200x200_FR_psd_Asset_7_V8_1_Vous_tentez_d_accro_tre__la_fid_lisation____la_marque__0_Layer0_0_MEMBER_33_FILL">
<path fill="#D82C26" stroke="none" d="
M 32.05 4.65
L 31.7 4.65 31.7 7.75 32.1 7.75 32.1 6.15
Q 32.1 5.75 32.25 5.45 32.4 5.1 32.65 5 32.9 4.85 33.15 4.85 33.65 4.85 33.8 5.15 34 5.5 34 5.95
L 34 7.75 34.4 7.75 34.4 5.85
Q 34.4 5.3 34.15 4.9 33.85 4.55 33.25 4.55 32.8 4.55 32.55 4.75 32.2 5 32.1 5.3
L 32.05 4.65 Z"/>
</g>

<g id="BDM_200x200_FR_psd_Asset_7_V8_1_Vous_tentez_d_accro_tre__la_fid_lisation____la_marque__0_Layer0_0_MEMBER_34_FILL">
<path fill="#D82C26" stroke="none" d="
M 2.55 13.45
L 2.55 13.65 2.2 13.65
Q 0.4 13.65 0.4 14.7 0.4 15.2 0.7 15.4 0.95 15.6 1.4 15.6 1.8 15.6 2.1 15.45 2.45 15.2 2.55 14.9
L 2.6 14.9 2.6 15.25 2.65 15.55 3 15.55 2.95 13.5
Q 2.95 12.9 2.6 12.6 2.3 12.3 1.75 12.3
L 1.1 12.4
Q 0.75 12.5 0.55 12.7
L 0.7 13 1.15 12.7 1.7 12.6
Q 2 12.6 2.35 12.85 2.55 13 2.55 13.45
M 2.55 13.9
L 2.55 14.25
Q 2.55 14.55 2.45 14.75 2.25 15.05 2.05 15.15 1.75 15.35 1.45 15.35 1.25 15.35 0.95 15.15 0.75 14.95 0.75 14.65 0.75 13.9 2.25 13.9
L 2.55 13.9
M 1 10.8
L 1.8 11.75 2.15 11.75 1.45 10.8 1 10.8 Z"/>
</g>

<g id="BDM_200x200_FR_psd_Asset_7_V8_1_Vous_tentez_d_accro_tre__la_fid_lisation____la_marque__0_Layer0_0_MEMBER_35_FILL">
<path fill="#D82C26" stroke="none" d="
M 4.95 15.35
L 5.3 15.6 5.5 15.3 5.25 15.1 5.2 14.75 5.2 10.4 4.8 10.5 4.8 14.85
Q 4.8 15.15 4.95 15.35 Z"/>
</g>

<g id="BDM_200x200_FR_psd_Asset_7_V8_1_Vous_tentez_d_accro_tre__la_fid_lisation____la_marque__0_Layer0_0_MEMBER_36_FILL">
<path fill="#D82C26" stroke="none" d="
M 8.4 13.5
Q 8.4 12.9 8.1 12.6 7.8 12.3 7.2 12.3
L 6.55 12.4
Q 6.3 12.45 6.05 12.7
L 6.15 13 6.6 12.7 7.15 12.6
Q 7.55 12.6 7.8 12.85 8.05 13 8.05 13.45
L 8.05 13.65 7.65 13.65
Q 5.85 13.65 5.85 14.7 5.85 15.2 6.15 15.4 6.4 15.6 6.85 15.6 7.25 15.6 7.55 15.45 7.9 15.25 8.05 14.9
L 8.05 15.25 8.1 15.55 8.45 15.55 8.4 13.5
M 7.7 13.9
L 8.05 13.9 8.05 14.25 7.9 14.75
Q 7.85 14.95 7.55 15.15 7.25 15.35 6.95 15.35 6.65 15.35 6.45 15.15 6.25 15 6.25 14.65 6.25 13.9 7.7 13.9 Z"/>
</g>

<g id="BDM_200x200_FR_psd_Asset_7_V8_1_Vous_tentez_d_accro_tre__la_fid_lisation____la_marque__0_Layer0_0_MEMBER_37_FILL">
<path fill="#D82C26" stroke="none" d="
M 13.25 12.5
Q 12.95 12.75 12.8 13.1 12.65 12.65 12.4 12.5 12.2 12.3 11.75 12.3 11.35 12.3 11.1 12.5 10.8 12.7 10.65 13.05
L 10.65 12.4 10.25 12.4 10.3 15.55 10.7 15.55 10.7 13.95
Q 10.7 13.45 10.8 13.25 10.95 12.95 11.15 12.8 11.4 12.65 11.65 12.65 12.05 12.65 12.25 12.9 12.45 13.15 12.45 13.7
L 12.45 15.55 12.85 15.55 12.85 13.9
Q 12.85 13.3 13.15 13 13.35 12.65 13.85 12.65 14.3 12.65 14.5 12.95 14.65 13.25 14.65 13.75
L 14.65 15.55 15.05 15.55 15.05 13.65
Q 15.05 13.1 14.8 12.7 14.5 12.3 13.95 12.3 13.5 12.3 13.25 12.5 Z"/>
</g>

<g id="BDM_200x200_FR_psd_Asset_7_V8_1_Vous_tentez_d_accro_tre__la_fid_lisation____la_marque__0_Layer0_0_MEMBER_38_FILL">
<path fill="#D82C26" stroke="none" d="
M 17.8 13.45
L 17.8 13.65 17.45 13.65
Q 15.65 13.65 15.65 14.7 15.65 15.2 15.95 15.4 16.2 15.6 16.65 15.6 17.05 15.6 17.35 15.45 17.7 15.2 17.8 14.9
L 17.85 14.9 17.85 15.25 17.9 15.55 18.25 15.55 18.2 13.5
Q 18.2 12.9 17.85 12.6 17.55 12.3 17 12.3
L 16.35 12.4
Q 16 12.5 15.8 12.7
L 15.95 13 16.4 12.7 16.95 12.6
Q 17.35 12.6 17.6 12.85 17.8 13 17.8 13.45
M 17.8 13.9
L 17.8 14.25
Q 17.8 14.55 17.7 14.75
L 17.35 15.15
Q 16.95 15.35 16.7 15.35 16.5 15.35 16.2 15.15 16 14.95 16 14.65 16 13.9 17.5 13.9
L 17.8 13.9 Z"/>
</g>

<g id="BDM_200x200_FR_psd_Asset_7_V8_1_Vous_tentez_d_accro_tre__la_fid_lisation____la_marque__0_Layer0_0_MEMBER_39_FILL">
<path fill="#D82C26" stroke="none" d="
M 20.3 12.65
L 20.55 12.7 20.65 12.35 20.3 12.3
Q 20 12.3 19.8 12.5 19.6 12.65 19.4 13.05
L 19.35 12.4 19 12.4 19 15.55 19.4 15.55 19.4 13.95
Q 19.4 13.45 19.65 13.05 19.9 12.65 20.3 12.65 Z"/>
</g>

<g id="BDM_200x200_FR_psd_Asset_7_V8_1_Vous_tentez_d_accro_tre__la_fid_lisation____la_marque__0_Layer0_0_MEMBER_40_FILL">
<path fill="#D82C26" stroke="none" d="
M 23.9 12.95
L 23.95 12.4 23.55 12.4 23.55 13.1 23.5 13.1
Q 23.35 12.8 23 12.5 22.65 12.3 22.25 12.3 21.75 12.3 21.4 12.5 21.1 12.7 20.85 13.1 20.65 13.45 20.65 13.95 20.65 14.45 20.85 14.8 21.1 15.2 21.4 15.4 21.75 15.6 22.25 15.6 22.65 15.6 23 15.4 23.35 15.25 23.5 14.85
L 23.5 16.25
Q 23.5 17 24.2 17.15
L 24.35 16.8 24 16.6
Q 23.9 16.4 23.9 16.2
L 23.9 12.95
M 22.95 12.8
L 23.4 13.3
Q 23.55 13.6 23.55 13.95 23.55 14.35 23.4 14.65
L 22.95 15.1
Q 22.7 15.3 22.3 15.3 21.85 15.3 21.65 15.1 21.35 14.95 21.2 14.65 21.05 14.35 21.05 13.95 21.05 13.6 21.2 13.3 21.35 13.05 21.65 12.8 21.9 12.65 22.3 12.65 22.65 12.65 22.95 12.8 Z"/>
</g>

<g id="BDM_200x200_FR_psd_Asset_7_V8_1_Vous_tentez_d_accro_tre__la_fid_lisation____la_marque__0_Layer0_0_MEMBER_41_FILL">
<path fill="#D82C26" stroke="none" d="
M 27.4 15.15
L 27.4 12.4 27 12.4 27 13.95
Q 27 14.35 26.85 14.7 26.8 14.95 26.5 15.15 26.3 15.3 25.95 15.3 25.55 15.3 25.3 15 25.1 14.75 25.1 14.2
L 25.1 12.4 24.7 12.4 24.7 14.3
Q 24.7 14.9 25 15.25 25.3 15.6 25.85 15.6 26.3 15.6 26.55 15.4 26.9 15.15 27 14.85
L 27.05 15.55 27.45 15.55 27.4 15.15 Z"/>
</g>

<g id="BDM_200x200_FR_psd_Asset_7_V8_1_Vous_tentez_d_accro_tre__la_fid_lisation____la_marque__0_Layer0_0_MEMBER_42_FILL">
<path fill="#D82C26" stroke="none" d="
M 28.8 12.5
Q 28.4 12.75 28.25 13.1 28.05 13.45 28.05 13.95 28.05 14.45 28.25 14.8 28.5 15.2 28.8 15.4 29.2 15.65 29.65 15.65 30.35 15.65 30.9 15.25
L 30.85 14.9 30.3 15.2 29.7 15.3
Q 29.3 15.3 29.05 15.15 28.75 14.9 28.6 14.65 28.4 14.25 28.4 14
L 31.1 14 31.1 13.85
Q 31.1 13.4 30.9 13.05 30.75 12.75 30.4 12.5 30.05 12.3 29.6 12.3 29.15 12.3 28.8 12.5
M 28.55 13.2
L 28.95 12.8
Q 29.2 12.6 29.6 12.6 30.1 12.6 30.4 12.9 30.7 13.2 30.7 13.75
L 28.4 13.75 28.55 13.2 Z"/>
</g>

<g id="BDM_200x200_FR_psd_Asset_7_V8_1_Vous_tentez_d_accro_tre__la_fid_lisation____la_marque__0_Layer0_0_MEMBER_43_FILL">
<path fill="#D82C26" stroke="none" d="
M 31.65 11.2
Q 31.95 11.05 32.3 11.05 32.75 11.05 32.95 11.25 33.2 11.45 33.2 11.85
L 33.15 12.2 32.95 12.5 32.6 12.85 32.2 13.4 32.1 13.95 32.1 14.15 32.5 14.15 32.5 13.65 32.65 13.35 33.35 12.65 33.55 12.3 33.65 11.8
Q 33.65 11.5 33.45 11.2 33.3 10.95 33 10.8 32.7 10.65 32.35 10.65 31.8 10.65 31.55 10.85 31.3 10.95 31 11.25
L 31.15 11.55 31.65 11.2
M 32.1 15.05
L 32 15.3 32.1 15.5 32.3 15.6 32.5 15.5
Q 32.6 15.45 32.6 15.3 32.6 15.1 32.5 15.05
L 32.3 15 32.1 15.05 Z"/>
</g>
</defs>

<g transform="matrix( 1, 0, 0, 1, -55,-8) ">
<g transform="matrix( 1, 0, 0, 1, 47,20) ">
<g transform="matrix( 1, 0, 0, 1, 24,6) ">
<g transform="matrix( 2.815704345703125, 0, 0, 2.832611083984375, 0.15,14.6) ">
<use xlink:href="#BDM_200x200_FR_psd_Asset_7_V8_1_Vous_tentez_d_accro_tre__la_fid_lisation____la_marque__0_Layer0_0_MEMBER_0_FILL"/>
</g>

<g transform="matrix( 2.815704345703125, 0, 0, 2.832611083984375, 0.15,14.6) ">
<use xlink:href="#BDM_200x200_FR_psd_Asset_7_V8_1_Vous_tentez_d_accro_tre__la_fid_lisation____la_marque__0_Layer0_0_MEMBER_1_FILL"/>
</g>

<g transform="matrix( 2.815704345703125, 0, 0, 2.832611083984375, 0.15,14.6) ">
<use xlink:href="#BDM_200x200_FR_psd_Asset_7_V8_1_Vous_tentez_d_accro_tre__la_fid_lisation____la_marque__0_Layer0_0_MEMBER_2_FILL"/>
</g>

<g transform="matrix( 2.815704345703125, 0, 0, 2.832611083984375, 0.15,14.6) ">
<use xlink:href="#BDM_200x200_FR_psd_Asset_7_V8_1_Vous_tentez_d_accro_tre__la_fid_lisation____la_marque__0_Layer0_0_MEMBER_3_FILL"/>
</g>

<g transform="matrix( 2.815704345703125, 0, 0, 2.832611083984375, 0.15,14.6) ">
<use xlink:href="#BDM_200x200_FR_psd_Asset_7_V8_1_Vous_tentez_d_accro_tre__la_fid_lisation____la_marque__0_Layer0_0_MEMBER_4_FILL"/>
</g>

<g transform="matrix( 2.815704345703125, 0, 0, 2.832611083984375, 0.15,14.6) ">
<use xlink:href="#BDM_200x200_FR_psd_Asset_7_V8_1_Vous_tentez_d_accro_tre__la_fid_lisation____la_marque__0_Layer0_0_MEMBER_5_FILL"/>
</g>

<g transform="matrix( 2.815704345703125, 0, 0, 2.832611083984375, 0.15,14.6) ">
<use xlink:href="#BDM_200x200_FR_psd_Asset_7_V8_1_Vous_tentez_d_accro_tre__la_fid_lisation____la_marque__0_Layer0_0_MEMBER_6_FILL"/>
</g>

<g transform="matrix( 2.815704345703125, 0, 0, 2.832611083984375, 0.15,14.6) ">
<use xlink:href="#BDM_200x200_FR_psd_Asset_7_V8_1_Vous_tentez_d_accro_tre__la_fid_lisation____la_marque__0_Layer0_0_MEMBER_7_FILL"/>
</g>

<g transform="matrix( 2.815704345703125, 0, 0, 2.832611083984375, 0.15,14.6) ">
<use xlink:href="#BDM_200x200_FR_psd_Asset_7_V8_1_Vous_tentez_d_accro_tre__la_fid_lisation____la_marque__0_Layer0_0_MEMBER_8_FILL"/>
</g>

<g transform="matrix( 2.815704345703125, 0, 0, 2.832611083984375, 0.15,14.6) ">
<use xlink:href="#BDM_200x200_FR_psd_Asset_7_V8_1_Vous_tentez_d_accro_tre__la_fid_lisation____la_marque__0_Layer0_0_MEMBER_9_FILL"/>
</g>

<g transform="matrix( 2.815704345703125, 0, 0, 2.832611083984375, 0.15,14.6) ">
<use xlink:href="#BDM_200x200_FR_psd_Asset_7_V8_1_Vous_tentez_d_accro_tre__la_fid_lisation____la_marque__0_Layer0_0_MEMBER_10_FILL"/>
</g>

<g transform="matrix( 2.815704345703125, 0, 0, 2.832611083984375, 0.15,14.6) ">
<use xlink:href="#BDM_200x200_FR_psd_Asset_7_V8_1_Vous_tentez_d_accro_tre__la_fid_lisation____la_marque__0_Layer0_0_MEMBER_11_FILL"/>
</g>

<g transform="matrix( 2.815704345703125, 0, 0, 2.832611083984375, 0.15,14.6) ">
<use xlink:href="#BDM_200x200_FR_psd_Asset_7_V8_1_Vous_tentez_d_accro_tre__la_fid_lisation____la_marque__0_Layer0_0_MEMBER_12_FILL"/>
</g>

<g transform="matrix( 2.815704345703125, 0, 0, 2.832611083984375, 0.15,14.6) ">
<use xlink:href="#BDM_200x200_FR_psd_Asset_7_V8_1_Vous_tentez_d_accro_tre__la_fid_lisation____la_marque__0_Layer0_0_MEMBER_13_FILL"/>
</g>

<g transform="matrix( 2.815704345703125, 0, 0, 2.832611083984375, 0.15,14.6) ">
<use xlink:href="#BDM_200x200_FR_psd_Asset_7_V8_1_Vous_tentez_d_accro_tre__la_fid_lisation____la_marque__0_Layer0_0_MEMBER_14_FILL"/>
</g>

<g transform="matrix( 2.815704345703125, 0, 0, 2.832611083984375, 0.15,14.6) ">
<use xlink:href="#BDM_200x200_FR_psd_Asset_7_V8_1_Vous_tentez_d_accro_tre__la_fid_lisation____la_marque__0_Layer0_0_MEMBER_15_FILL"/>
</g>

<g transform="matrix( 2.815704345703125, 0, 0, 2.832611083984375, 0.15,14.6) ">
<use xlink:href="#BDM_200x200_FR_psd_Asset_7_V8_1_Vous_tentez_d_accro_tre__la_fid_lisation____la_marque__0_Layer0_0_MEMBER_16_FILL"/>
</g>

<g transform="matrix( 2.815704345703125, 0, 0, 2.832611083984375, 0.15,14.6) ">
<use xlink:href="#BDM_200x200_FR_psd_Asset_7_V8_1_Vous_tentez_d_accro_tre__la_fid_lisation____la_marque__0_Layer0_0_MEMBER_17_FILL"/>
</g>

<g transform="matrix( 2.815704345703125, 0, 0, 2.832611083984375, 0.15,14.6) ">
<use xlink:href="#BDM_200x200_FR_psd_Asset_7_V8_1_Vous_tentez_d_accro_tre__la_fid_lisation____la_marque__0_Layer0_0_MEMBER_18_FILL"/>
</g>

<g transform="matrix( 2.815704345703125, 0, 0, 2.832611083984375, 0.15,14.6) ">
<use xlink:href="#BDM_200x200_FR_psd_Asset_7_V8_1_Vous_tentez_d_accro_tre__la_fid_lisation____la_marque__0_Layer0_0_MEMBER_19_FILL"/>
</g>

<g transform="matrix( 2.815704345703125, 0, 0, 2.832611083984375, 0.15,14.6) ">
<use xlink:href="#BDM_200x200_FR_psd_Asset_7_V8_1_Vous_tentez_d_accro_tre__la_fid_lisation____la_marque__0_Layer0_0_MEMBER_20_FILL"/>
</g>

<g transform="matrix( 2.815704345703125, 0, 0, 2.832611083984375, 0.15,14.6) ">
<use xlink:href="#BDM_200x200_FR_psd_Asset_7_V8_1_Vous_tentez_d_accro_tre__la_fid_lisation____la_marque__0_Layer0_0_MEMBER_21_FILL"/>
</g>

<g transform="matrix( 2.815704345703125, 0, 0, 2.832611083984375, 0.15,14.6) ">
<use xlink:href="#BDM_200x200_FR_psd_Asset_7_V8_1_Vous_tentez_d_accro_tre__la_fid_lisation____la_marque__0_Layer0_0_MEMBER_22_FILL"/>
</g>

<g transform="matrix( 2.815704345703125, 0, 0, 2.832611083984375, 0.15,14.6) ">
<use xlink:href="#BDM_200x200_FR_psd_Asset_7_V8_1_Vous_tentez_d_accro_tre__la_fid_lisation____la_marque__0_Layer0_0_MEMBER_23_FILL"/>
</g>

<g transform="matrix( 2.815704345703125, 0, 0, 2.832611083984375, 0.15,14.6) ">
<use xlink:href="#BDM_200x200_FR_psd_Asset_7_V8_1_Vous_tentez_d_accro_tre__la_fid_lisation____la_marque__0_Layer0_0_MEMBER_24_FILL"/>
</g>

<g transform="matrix( 2.815704345703125, 0, 0, 2.832611083984375, 0.15,14.6) ">
<use xlink:href="#BDM_200x200_FR_psd_Asset_7_V8_1_Vous_tentez_d_accro_tre__la_fid_lisation____la_marque__0_Layer0_0_MEMBER_25_FILL"/>
</g>

<g transform="matrix( 2.815704345703125, 0, 0, 2.832611083984375, 0.15,14.6) ">
<use xlink:href="#BDM_200x200_FR_psd_Asset_7_V8_1_Vous_tentez_d_accro_tre__la_fid_lisation____la_marque__0_Layer0_0_MEMBER_26_FILL"/>
</g>

<g transform="matrix( 2.815704345703125, 0, 0, 2.832611083984375, 0.15,14.6) ">
<use xlink:href="#BDM_200x200_FR_psd_Asset_7_V8_1_Vous_tentez_d_accro_tre__la_fid_lisation____la_marque__0_Layer0_0_MEMBER_27_FILL"/>
</g>

<g transform="matrix( 2.815704345703125, 0, 0, 2.832611083984375, 0.15,14.6) ">
<use xlink:href="#BDM_200x200_FR_psd_Asset_7_V8_1_Vous_tentez_d_accro_tre__la_fid_lisation____la_marque__0_Layer0_0_MEMBER_28_FILL"/>
</g>

<g transform="matrix( 2.815704345703125, 0, 0, 2.832611083984375, 0.15,14.6) ">
<use xlink:href="#BDM_200x200_FR_psd_Asset_7_V8_1_Vous_tentez_d_accro_tre__la_fid_lisation____la_marque__0_Layer0_0_MEMBER_29_FILL"/>
</g>

<g transform="matrix( 2.815704345703125, 0, 0, 2.832611083984375, 0.15,14.6) ">
<use xlink:href="#BDM_200x200_FR_psd_Asset_7_V8_1_Vous_tentez_d_accro_tre__la_fid_lisation____la_marque__0_Layer0_0_MEMBER_30_FILL"/>
</g>

<g transform="matrix( 2.815704345703125, 0, 0, 2.832611083984375, 0.15,14.6) ">
<use xlink:href="#BDM_200x200_FR_psd_Asset_7_V8_1_Vous_tentez_d_accro_tre__la_fid_lisation____la_marque__0_Layer0_0_MEMBER_31_FILL"/>
</g>

<g transform="matrix( 2.815704345703125, 0, 0, 2.832611083984375, 0.15,14.6) ">
<use xlink:href="#BDM_200x200_FR_psd_Asset_7_V8_1_Vous_tentez_d_accro_tre__la_fid_lisation____la_marque__0_Layer0_0_MEMBER_32_FILL"/>
</g>

<g transform="matrix( 2.815704345703125, 0, 0, 2.832611083984375, 0.15,14.6) ">
<use xlink:href="#BDM_200x200_FR_psd_Asset_7_V8_1_Vous_tentez_d_accro_tre__la_fid_lisation____la_marque__0_Layer0_0_MEMBER_33_FILL"/>
</g>

<g transform="matrix( 2.815704345703125, 0, 0, 2.832611083984375, 0.15,14.6) ">
<use xlink:href="#BDM_200x200_FR_psd_Asset_7_V8_1_Vous_tentez_d_accro_tre__la_fid_lisation____la_marque__0_Layer0_0_MEMBER_34_FILL"/>
</g>

<g transform="matrix( 2.815704345703125, 0, 0, 2.832611083984375, 0.15,14.6) ">
<use xlink:href="#BDM_200x200_FR_psd_Asset_7_V8_1_Vous_tentez_d_accro_tre__la_fid_lisation____la_marque__0_Layer0_0_MEMBER_35_FILL"/>
</g>

<g transform="matrix( 2.815704345703125, 0, 0, 2.832611083984375, 0.15,14.6) ">
<use xlink:href="#BDM_200x200_FR_psd_Asset_7_V8_1_Vous_tentez_d_accro_tre__la_fid_lisation____la_marque__0_Layer0_0_MEMBER_36_FILL"/>
</g>

<g transform="matrix( 2.815704345703125, 0, 0, 2.832611083984375, 0.15,14.6) ">
<use xlink:href="#BDM_200x200_FR_psd_Asset_7_V8_1_Vous_tentez_d_accro_tre__la_fid_lisation____la_marque__0_Layer0_0_MEMBER_37_FILL"/>
</g>

<g transform="matrix( 2.815704345703125, 0, 0, 2.832611083984375, 0.15,14.6) ">
<use xlink:href="#BDM_200x200_FR_psd_Asset_7_V8_1_Vous_tentez_d_accro_tre__la_fid_lisation____la_marque__0_Layer0_0_MEMBER_38_FILL"/>
</g>

<g transform="matrix( 2.815704345703125, 0, 0, 2.832611083984375, 0.15,14.6) ">
<use xlink:href="#BDM_200x200_FR_psd_Asset_7_V8_1_Vous_tentez_d_accro_tre__la_fid_lisation____la_marque__0_Layer0_0_MEMBER_39_FILL"/>
</g>

<g transform="matrix( 2.815704345703125, 0, 0, 2.832611083984375, 0.15,14.6) ">
<use xlink:href="#BDM_200x200_FR_psd_Asset_7_V8_1_Vous_tentez_d_accro_tre__la_fid_lisation____la_marque__0_Layer0_0_MEMBER_40_FILL"/>
</g>

<g transform="matrix( 2.815704345703125, 0, 0, 2.832611083984375, 0.15,14.6) ">
<use xlink:href="#BDM_200x200_FR_psd_Asset_7_V8_1_Vous_tentez_d_accro_tre__la_fid_lisation____la_marque__0_Layer0_0_MEMBER_41_FILL"/>
</g>

<g transform="matrix( 2.815704345703125, 0, 0, 2.832611083984375, 0.15,14.6) ">
<use xlink:href="#BDM_200x200_FR_psd_Asset_7_V8_1_Vous_tentez_d_accro_tre__la_fid_lisation____la_marque__0_Layer0_0_MEMBER_42_FILL"/>
</g>

<g transform="matrix( 2.815704345703125, 0, 0, 2.832611083984375, 0.15,14.6) ">
<use xlink:href="#BDM_200x200_FR_psd_Asset_7_V8_1_Vous_tentez_d_accro_tre__la_fid_lisation____la_marque__0_Layer0_0_MEMBER_43_FILL"/>
</g>
</g>
</g>
</g>
</svg>
