
<svg xmlns="http://www.w3.org/2000/svg" version="1.1" xmlns:xlink="http://www.w3.org/1999/xlink" preserveAspectRatio="none" x="0px" y="0px" width="640px" height="480px" viewBox="0 0 640 480">
<defs>
<g id="IT_640x480_FR_psd_Asset_V8_2_Les_solutions_de_r_seau__en_tant_que_service_peuvent_aider___0_Layer0_0_MEMBER_0_FILL">
<path fill="#D82C26" stroke="none" d="
M 2 -9
L 1.25 -9 1.25 0 5.9 0 6.05 -0.7 2 -0.7 2 -9 Z"/>
</g>

<g id="IT_640x480_FR_psd_Asset_V8_2_Les_solutions_de_r_seau__en_tant_que_service_peuvent_aider___0_Layer0_0_MEMBER_1_FILL">
<path fill="#D82C26" stroke="none" d="
M 9.45 -6.15
Q 8.65 -6.15 7.95 -5.75 7.25 -5.3 6.9 -4.65 6.5 -4 6.5 -3 6.5 -2 6.9 -1.35 7.3 -0.6 7.95 -0.25 8.7 0.2 9.55 0.2 10.95 0.2 11.9 -0.55
L 11.8 -1.2
Q 11.2 -0.8 10.8 -0.65 10.35 -0.45 9.6 -0.45 8.95 -0.45 8.4 -0.75 7.9 -1.05 7.55 -1.65 7.2 -2.25 7.2 -2.85
L 12.25 -2.85 12.25 -3.2
Q 12.25 -4 11.95 -4.7 11.55 -5.4 10.95 -5.75 10.3 -6.15 9.45 -6.15
M 8.25 -5.2
Q 8.75 -5.55 9.45 -5.55 10.45 -5.55 10.95 -4.95 11.55 -4.4 11.55 -3.4
L 7.25 -3.4
Q 7.25 -3.8 7.5 -4.4 7.85 -4.95 8.25 -5.2 Z"/>
</g>

<g id="IT_640x480_FR_psd_Asset_V8_2_Les_solutions_de_r_seau__en_tant_que_service_peuvent_aider___0_Layer0_0_MEMBER_2_FILL">
<path fill="#D82C26" stroke="none" d="
M 13.2 -1.15
L 13.05 -0.5
Q 13.4 -0.25 14 0 14.55 0.15 15.2 0.15 15.8 0.15 16.2 -0.05 16.6 -0.2 16.95 -0.6 17.25 -1.05 17.25 -1.55 17.25 -2.2 16.8 -2.6 16.4 -3 15.4 -3.3
L 14.2 -3.85
Q 13.9 -4.05 13.9 -4.55 13.9 -5 14.25 -5.3 14.65 -5.55 15.2 -5.55 15.6 -5.55 16.05 -5.4 16.7 -5 16.75 -4.95
L 17.05 -5.5 16.2 -5.95
Q 15.6 -6.15 15.15 -6.15 14.6 -6.15 14.2 -5.95 13.8 -5.8 13.45 -5.4 13.2 -5 13.2 -4.5 13.2 -3.85 13.6 -3.45 14.05 -3.1 14.9 -2.8 15.6 -2.6 16.15 -2.25 16.5 -2.05 16.5 -1.55 16.5 -0.95 16.1 -0.7 15.75 -0.4 15.2 -0.4 14.05 -0.4 13.2 -1.15 Z"/>
</g>

<g id="IT_640x480_FR_psd_Asset_V8_2_Les_solutions_de_r_seau__en_tant_que_service_peuvent_aider___0_Layer0_0_MEMBER_3_FILL">
<path fill="#D82C26" stroke="none" d="
M 23.85 -5.95
Q 23.25 -6.15 22.8 -6.15 22.25 -6.15 21.85 -5.95 21.45 -5.8 21.1 -5.4 20.85 -5 20.85 -4.5 20.85 -3.85 21.25 -3.45 21.7 -3.1 22.55 -2.8 23.25 -2.6 23.8 -2.25 24.15 -2.05 24.15 -1.55 24.15 -0.95 23.75 -0.7 23.4 -0.4 22.85 -0.4 21.7 -0.4 20.85 -1.15
L 20.7 -0.5
Q 21.05 -0.25 21.65 0 22.2 0.15 22.85 0.15 23.45 0.15 23.85 -0.05 24.25 -0.2 24.6 -0.6 24.9 -1.05 24.9 -1.55 24.9 -2.2 24.45 -2.6 24.05 -3 23.05 -3.3
L 21.85 -3.85
Q 21.55 -4.05 21.55 -4.55 21.55 -5 21.9 -5.3 22.3 -5.55 22.85 -5.55 23.25 -5.55 23.7 -5.4 24.35 -5 24.4 -4.95
L 24.7 -5.5 23.85 -5.95 Z"/>
</g>

<g id="IT_640x480_FR_psd_Asset_V8_2_Les_solutions_de_r_seau__en_tant_que_service_peuvent_aider___0_Layer0_0_MEMBER_4_FILL">
<path fill="#D82C26" stroke="none" d="
M 27.25 -5.75
Q 26.55 -5.3 26.1 -4.6 25.7 -3.9 25.7 -3 25.7 -2.15 26.1 -1.35 26.65 -0.55 27.25 -0.25 27.95 0.2 28.85 0.2 29.75 0.2 30.5 -0.25 31.2 -0.65 31.6 -1.35 32.05 -2.1 32.05 -3 32.05 -3.9 31.6 -4.6 31.3 -5.2 30.5 -5.75 29.7 -6.15 28.85 -6.15 27.95 -6.15 27.25 -5.75
M 28.85 -5.5
Q 29.6 -5.5 30.15 -5.15 30.7 -4.85 31 -4.25 31.3 -3.7 31.3 -3 31.3 -2.3 31 -1.7 30.7 -1.2 30.15 -0.8 29.65 -0.45 28.85 -0.45 28.1 -0.45 27.6 -0.8 27.1 -1.1 26.75 -1.7 26.45 -2.3 26.45 -3 26.45 -3.7 26.75 -4.25 27.05 -4.9 27.6 -5.15 28.1 -5.5 28.85 -5.5 Z"/>
</g>

<g id="IT_640x480_FR_psd_Asset_V8_2_Les_solutions_de_r_seau__en_tant_que_service_peuvent_aider___0_Layer0_0_MEMBER_5_FILL">
<path fill="#D82C26" stroke="none" d="
M 33.35 -1.3
Q 33.35 -0.65 33.6 -0.35 33.85 0 34.3 0.15
L 34.65 -0.5
Q 34.35 -0.65 34.2 -0.85 34.1 -1 34.1 -1.5
L 34.1 -9.7 33.35 -9.55 33.35 -1.3 Z"/>
</g>

<g id="IT_640x480_FR_psd_Asset_V8_2_Les_solutions_de_r_seau__en_tant_que_service_peuvent_aider___0_Layer0_0_MEMBER_6_FILL">
<path fill="#D82C26" stroke="none" d="
M 36.5 -5.95
L 35.75 -5.95 35.75 -2.35
Q 35.75 -1.2 36.25 -0.55 36.75 0.15 37.9 0.15 38.65 0.15 39.2 -0.25 39.8 -0.55 40.1 -1.3
L 40.2 0 40.95 0 40.85 -0.7 40.8 -5.95 40.1 -5.95 40.1 -3
Q 40.1 -2.2 39.8 -1.6 39.55 -1.05 39.1 -0.75 38.65 -0.45 38.1 -0.45 37.25 -0.45 36.85 -1.05 36.5 -1.6 36.5 -2.5
L 36.5 -5.95 Z"/>
</g>

<g id="IT_640x480_FR_psd_Asset_V8_2_Les_solutions_de_r_seau__en_tant_que_service_peuvent_aider___0_Layer0_0_MEMBER_7_FILL">
<path fill="#D82C26" stroke="none" d="
M 43.55 -7.65
L 42.8 -7.35 42.8 -5.95 41.85 -5.95 41.7 -5.35 42.85 -5.35 42.85 -1.45
Q 42.85 -0.65 43.2 -0.3 43.6 0.15 44.2 0.15
L 44.9 0.05 45.5 -0.2 45.4 -0.75
Q 44.95 -0.5 44.45 -0.5 44 -0.5 43.8 -0.75 43.55 -1 43.55 -1.55
L 43.55 -5.35 45.1 -5.35 45.25 -5.95 43.55 -5.95 43.55 -7.65 Z"/>
</g>

<g id="IT_640x480_FR_psd_Asset_V8_2_Les_solutions_de_r_seau__en_tant_que_service_peuvent_aider___0_Layer0_0_MEMBER_8_FILL">
<path fill="#D82C26" stroke="none" d="
M 47.1 -5.95
L 46.35 -5.95 46.35 0 47.1 0 47.1 -5.95
M 46.75 -7.8
Q 46.95 -7.8 47.1 -7.95 47.25 -8.1 47.25 -8.35 47.25 -8.55 47.1 -8.7 46.95 -8.85 46.75 -8.85 46.5 -8.85 46.35 -8.7 46.2 -8.55 46.2 -8.35 46.2 -8.1 46.35 -7.95 46.5 -7.8 46.75 -7.8 Z"/>
</g>

<g id="IT_640x480_FR_psd_Asset_V8_2_Les_solutions_de_r_seau__en_tant_que_service_peuvent_aider___0_Layer0_0_MEMBER_9_FILL">
<path fill="#D82C26" stroke="none" d="
M 48.8 -1.35
Q 49.2 -0.65 49.9 -0.25 50.65 0.2 51.55 0.2 52.5 0.2 53.15 -0.25 53.9 -0.6 54.3 -1.35 54.7 -2 54.7 -3 54.7 -4 54.3 -4.6 53.95 -5.25 53.15 -5.75 52.45 -6.15 51.55 -6.15 50.7 -6.15 49.9 -5.75 49.1 -5.2 48.8 -4.6 48.4 -4 48.4 -3 48.4 -2 48.8 -1.35
M 49.4 -4.25
Q 49.7 -4.85 50.25 -5.15 50.8 -5.5 51.55 -5.5 52.3 -5.5 52.8 -5.15 53.35 -4.9 53.65 -4.25 53.95 -3.7 53.95 -3 53.95 -2.35 53.7 -1.7 53.4 -1.2 52.85 -0.8 52.3 -0.45 51.55 -0.45 50.8 -0.45 50.25 -0.8 49.7 -1.2 49.4 -1.7 49.15 -2.35 49.15 -3 49.15 -3.65 49.4 -4.25 Z"/>
</g>

<g id="IT_640x480_FR_psd_Asset_V8_2_Les_solutions_de_r_seau__en_tant_que_service_peuvent_aider___0_Layer0_0_MEMBER_10_FILL">
<path fill="#D82C26" stroke="none" d="
M 60.6 -5.4
Q 60 -6.15 58.9 -6.15 58.25 -6.15 57.6 -5.75 57.05 -5.35 56.75 -4.65
L 56.65 -5.95 55.95 -5.95 56 0 56.75 0 56.75 -3.05
Q 56.75 -3.8 57.05 -4.35 57.25 -4.85 57.75 -5.2 58.2 -5.5 58.75 -5.5 59.65 -5.5 60 -4.9 60.35 -4.35 60.35 -3.45
L 60.35 0 61.1 0 61.1 -3.65
Q 61.1 -4.75 60.6 -5.4 Z"/>
</g>

<g id="IT_640x480_FR_psd_Asset_V8_2_Les_solutions_de_r_seau__en_tant_que_service_peuvent_aider___0_Layer0_0_MEMBER_11_FILL">
<path fill="#D82C26" stroke="none" d="
M 64.4 -5.55
Q 64.8 -5.55 65.25 -5.4 65.9 -5 65.95 -4.95
L 66.25 -5.5 65.45 -5.95
Q 64.75 -6.15 64.35 -6.15 63.8 -6.15 63.4 -5.95 62.95 -5.8 62.7 -5.4 62.4 -5 62.4 -4.5 62.4 -3.85 62.8 -3.45 63.25 -3.1 64.1 -2.8 64.95 -2.55 65.35 -2.25 65.7 -2.05 65.7 -1.55 65.7 -1 65.35 -0.7 64.9 -0.4 64.4 -0.4 63.25 -0.4 62.4 -1.15
L 62.3 -0.5
Q 62.55 -0.25 63.2 0 63.8 0.15 64.4 0.15 65 0.15 65.4 -0.05 65.8 -0.2 66.15 -0.6 66.45 -1.05 66.45 -1.55 66.45 -2.2 66 -2.6 65.6 -3 64.6 -3.3 63.8 -3.6 63.45 -3.85 63.1 -4.05 63.1 -4.55 63.1 -5 63.45 -5.3 63.85 -5.55 64.4 -5.55 Z"/>
</g>

<g id="IT_640x480_FR_psd_Asset_V8_2_Les_solutions_de_r_seau__en_tant_que_service_peuvent_aider___0_Layer0_0_MEMBER_12_FILL">
<path fill="#D82C26" stroke="none" d="
M 69.95 -2.95
Q 69.95 -2.05 70.3 -1.4 70.7 -0.6 71.35 -0.25 72 0.15 72.95 0.15 73.7 0.15 74.35 -0.2 74.9 -0.5 75.35 -1.3
L 75.4 -1.3 75.45 0 76.15 0 76.1 -9.75 75.35 -9.6 75.35 -4.65
Q 75 -5.35 74.35 -5.75 73.65 -6.15 72.95 -6.15 72.1 -6.15 71.35 -5.7 70.7 -5.35 70.3 -4.6 69.95 -3.9 69.95 -2.95
M 74.25 -5.15
Q 74.75 -4.85 75.1 -4.25 75.4 -3.65 75.4 -2.95 75.4 -2.3 75.1 -1.7 74.8 -1.2 74.25 -0.8 73.75 -0.45 73.05 -0.45 72.3 -0.45 71.8 -0.8 71.2 -1.15 71 -1.7 70.7 -2.3 70.7 -2.95 70.7 -3.65 71 -4.25 71.25 -4.85 71.8 -5.15 72.3 -5.5 73.05 -5.5 73.75 -5.5 74.25 -5.15 Z"/>
</g>

<g id="IT_640x480_FR_psd_Asset_V8_2_Les_solutions_de_r_seau__en_tant_que_service_peuvent_aider___0_Layer0_0_MEMBER_13_FILL">
<path fill="#D82C26" stroke="none" d="
M 80.35 -6.15
Q 79.55 -6.15 78.85 -5.75 78.15 -5.3 77.8 -4.65 77.4 -3.85 77.4 -3 77.4 -2.15 77.8 -1.35 78.2 -0.65 78.9 -0.25 79.6 0.2 80.45 0.2 81.9 0.2 82.85 -0.55
L 82.7 -1.2
Q 82.25 -0.85 81.75 -0.65 81.2 -0.45 80.5 -0.45 79.85 -0.45 79.3 -0.75 78.75 -1.15 78.45 -1.65 78.15 -2.15 78.15 -2.85
L 83.2 -2.85 83.2 -3.2
Q 83.2 -4.05 82.85 -4.7 82.55 -5.35 81.9 -5.75 81.2 -6.15 80.35 -6.15
M 79.2 -5.2
Q 79.6 -5.55 80.35 -5.55 81.3 -5.55 81.9 -4.95 82.4 -4.45 82.5 -3.4
L 78.15 -3.4
Q 78.15 -3.85 78.45 -4.4 78.7 -4.9 79.2 -5.2 Z"/>
</g>

<g id="IT_640x480_FR_psd_Asset_V8_2_Les_solutions_de_r_seau__en_tant_que_service_peuvent_aider___0_Layer0_0_MEMBER_14_FILL">
<path fill="#D82C26" stroke="none" d="
M 89.75 -6.15
Q 89.25 -6.15 88.7 -5.75 88.25 -5.35 88 -4.65
L 87.95 -4.65 87.9 -5.95 87.2 -5.95 87.25 0 88 0 88 -2.95
Q 88 -4 88.45 -4.75 88.9 -5.45 89.7 -5.45
L 90.2 -5.4 90.35 -6
Q 90.05 -6.15 89.75 -6.15 Z"/>
</g>

<g id="IT_640x480_FR_psd_Asset_V8_2_Les_solutions_de_r_seau__en_tant_que_service_peuvent_aider___0_Layer0_0_MEMBER_15_FILL">
<path fill="#D82C26" stroke="none" d="
M 94.2 -9
L 92.9 -7.2 93.5 -7.2 95.05 -9 94.2 -9
M 90.5 -3
Q 90.5 -2 90.9 -1.35 91.3 -0.6 91.95 -0.25 92.7 0.2 93.55 0.2 94.95 0.2 95.9 -0.55
L 95.8 -1.2
Q 95.2 -0.8 94.8 -0.65 94.35 -0.45 93.6 -0.45 92.95 -0.45 92.35 -0.75 91.85 -1.1 91.55 -1.65 91.2 -2.15 91.2 -2.85
L 96.25 -2.85 96.25 -3.2
Q 96.25 -4 95.95 -4.7 95.55 -5.4 94.95 -5.75 94.3 -6.15 93.45 -6.15 92.65 -6.15 91.95 -5.75 91.3 -5.3 90.85 -4.65 90.5 -3.95 90.5 -3
M 94.95 -4.95
Q 95.55 -4.4 95.55 -3.4
L 91.2 -3.4
Q 91.25 -3.85 91.5 -4.4 91.85 -4.95 92.25 -5.2 92.75 -5.55 93.45 -5.55 94.45 -5.55 94.95 -4.95 Z"/>
</g>

<g id="IT_640x480_FR_psd_Asset_V8_2_Les_solutions_de_r_seau__en_tant_que_service_peuvent_aider___0_Layer0_0_MEMBER_16_FILL">
<path fill="#D82C26" stroke="none" d="
M 100.2 -5.95
Q 99.6 -6.15 99.15 -6.15 98.6 -6.15 98.2 -5.95 97.8 -5.8 97.45 -5.4 97.2 -5 97.2 -4.5 97.2 -3.8 97.6 -3.45 98 -3.1 98.85 -2.8 99.6 -2.6 100.15 -2.25 100.5 -2.05 100.5 -1.55 100.5 -0.95 100.1 -0.7 99.75 -0.4 99.2 -0.4 98.05 -0.4 97.2 -1.15
L 97.05 -0.5
Q 97.4 -0.25 98 0 98.55 0.15 99.2 0.15 99.8 0.15 100.2 -0.05 100.6 -0.2 100.95 -0.6 101.25 -1.05 101.25 -1.55 101.25 -2.2 100.8 -2.6 100.45 -2.95 99.4 -3.3
L 98.2 -3.85
Q 97.9 -4.05 97.9 -4.55 97.9 -5 98.25 -5.3 98.65 -5.55 99.2 -5.55 99.65 -5.55 100 -5.4 100.6 -5.1 100.75 -4.95
L 101.05 -5.5 100.2 -5.95 Z"/>
</g>

<g id="IT_640x480_FR_psd_Asset_V8_2_Les_solutions_de_r_seau__en_tant_que_service_peuvent_aider___0_Layer0_0_MEMBER_17_FILL">
<path fill="#D82C26" stroke="none" d="
M 103.5 -5.75
Q 102.8 -5.3 102.45 -4.65 102.05 -4 102.05 -3 102.05 -2 102.45 -1.35 102.85 -0.6 103.5 -0.25 104.25 0.2 105.1 0.2 106.5 0.2 107.45 -0.55
L 107.35 -1.2 106.4 -0.65
Q 105.85 -0.45 105.15 -0.45 104.5 -0.45 103.95 -0.75 103.45 -1.05 103.1 -1.65 102.75 -2.25 102.75 -2.85
L 107.8 -2.85 107.8 -3.2
Q 107.8 -4 107.5 -4.7 107.1 -5.4 106.5 -5.75 105.85 -6.15 105 -6.15 104.2 -6.15 103.5 -5.75
M 103.8 -5.2
Q 104.3 -5.55 105 -5.55 106 -5.55 106.5 -4.95 107.1 -4.4 107.1 -3.4
L 102.8 -3.4
Q 102.8 -3.8 103.05 -4.4 103.4 -4.95 103.8 -5.2 Z"/>
</g>

<g id="IT_640x480_FR_psd_Asset_V8_2_Les_solutions_de_r_seau__en_tant_que_service_peuvent_aider___0_Layer0_0_MEMBER_18_FILL">
<path fill="#D82C26" stroke="none" d="
M 108.6 -1.6
Q 108.6 -0.75 109.15 -0.3 109.75 0.15 110.5 0.15 111.2 0.15 111.85 -0.15 112.5 -0.55 112.7 -1.15
L 112.75 -1.15 112.85 0 113.55 0
Q 113.45 -0.3 113.45 -1.3
L 113.45 -3.85
Q 113.45 -5.05 112.8 -5.55 112.2 -6.15 111.15 -6.15 110.65 -6.15 109.95 -5.95 109.25 -5.7 108.95 -5.4
L 109.15 -4.8
Q 109.6 -5.15 110.05 -5.35 110.75 -5.55 111.05 -5.55 111.8 -5.55 112.3 -5.15 112.75 -4.7 112.75 -3.9
L 112.75 -3.55 112 -3.55
Q 108.6 -3.55 108.6 -1.6
M 109.7 -0.7
Q 109.3 -1 109.3 -1.65 109.3 -3.1 112.1 -3.1
L 112.75 -3.1 112.75 -2.5
Q 112.75 -2 112.5 -1.5 112.25 -1 111.8 -0.7 111.3 -0.4 110.65 -0.4 110.1 -0.4 109.7 -0.7 Z"/>
</g>

<g id="IT_640x480_FR_psd_Asset_V8_2_Les_solutions_de_r_seau__en_tant_que_service_peuvent_aider___0_Layer0_0_MEMBER_19_FILL">
<path fill="#D82C26" stroke="none" d="
M 114.95 -2.35
Q 114.95 -1.25 115.5 -0.55 116 0.15 117.15 0.15 117.9 0.15 118.45 -0.25 119.1 -0.65 119.3 -1.3
L 119.45 0 120.15 0 120.05 -5.95 119.3 -5.95 119.3 -3
Q 119.3 -2.1 119.05 -1.6 118.8 -1.05 118.35 -0.75 117.9 -0.45 117.35 -0.45 116.4 -0.45 116.1 -1.05 115.7 -1.7 115.7 -2.5
L 115.7 -5.95 114.95 -5.95 114.95 -2.35 Z"/>
</g>

<g id="IT_640x480_FR_psd_Asset_V8_2_Les_solutions_de_r_seau__en_tant_que_service_peuvent_aider___0_Layer0_0_MEMBER_20_FILL">
<path fill="#D82C26" stroke="none" d="
M 3.65 8.7
Q 2.75 8.7 2.15 9.1 1.5 9.45 1.1 10.2 0.7 11 0.7 11.8 0.7 12.75 1.1 13.45 1.45 14.2 2.2 14.6 2.9 15 3.75 15 5.2 15 6.15 14.25
L 6 13.6
Q 5.7 13.9 5.05 14.15 4.4 14.4 3.85 14.4 3.1 14.4 2.6 14.05 2.05 13.75 1.75 13.2 1.45 12.6 1.45 11.95
L 6.5 11.95 6.5 11.65
Q 6.5 10.8 6.15 10.15 5.85 9.5 5.2 9.1 4.6 8.7 3.65 8.7
M 2.5 9.6
Q 3.05 9.25 3.65 9.25 4.6 9.25 5.2 9.85 5.75 10.45 5.8 11.4
L 1.45 11.4
Q 1.45 10.9 1.75 10.45 1.95 10 2.5 9.6 Z"/>
</g>

<g id="IT_640x480_FR_psd_Asset_V8_2_Les_solutions_de_r_seau__en_tant_que_service_peuvent_aider___0_Layer0_0_MEMBER_21_FILL">
<path fill="#D82C26" stroke="none" d="
M 12.35 9.4
Q 11.8 8.7 10.65 8.7 10 8.7 9.35 9.1 8.8 9.45 8.5 10.15
L 8.45 8.9 7.75 8.9 7.8 14.85 8.55 14.85 8.55 11.8
Q 8.55 10.95 8.8 10.45 9.05 9.9 9.5 9.6 9.95 9.3 10.5 9.3 11.4 9.3 11.75 9.9 12.15 10.55 12.15 11.4
L 12.15 14.85 12.9 14.85 12.9 11.2
Q 12.9 10.2 12.35 9.4 Z"/>
</g>

<g id="IT_640x480_FR_psd_Asset_V8_2_Les_solutions_de_r_seau__en_tant_que_service_peuvent_aider___0_Layer0_0_MEMBER_22_FILL">
<path fill="#D82C26" stroke="none" d="
M 18.15 8.9
L 18.15 7.15 17.4 7.45 17.4 8.9 16.45 8.9 16.3 9.45 17.4 9.45 17.4 13.4
Q 17.4 14.15 17.8 14.55 18.2 14.95 18.8 14.95
L 19.45 14.85
Q 19.9 14.75 20.05 14.65
L 19.95 14.1
Q 19.35 14.35 19 14.35 18.65 14.35 18.4 14.1 18.15 13.75 18.15 13.3
L 18.15 9.45 19.7 9.45 19.85 8.9 18.15 8.9 Z"/>
</g>

<g id="IT_640x480_FR_psd_Asset_V8_2_Les_solutions_de_r_seau__en_tant_que_service_peuvent_aider___0_Layer0_0_MEMBER_23_FILL">
<path fill="#D82C26" stroke="none" d="
M 24.85 9.25
Q 24.2 8.7 23.15 8.7 22.5 8.7 21.95 8.9 21.45 9 20.95 9.45
L 21.15 10
Q 21.45 9.75 22.05 9.5 22.5 9.3 23.05 9.3 23.9 9.3 24.3 9.7 24.75 10.1 24.75 10.9
L 24.75 11.25 24.05 11.25
Q 20.65 11.25 20.65 13.25 20.65 14.15 21.2 14.55 21.75 15 22.5 15 23.3 15 23.85 14.65 24.45 14.35 24.75 13.65
L 24.8 13.65 24.85 14.85 25.55 14.85 25.45 10.95
Q 25.45 9.85 24.85 9.25
M 24.75 11.75
L 24.75 12.35
Q 24.75 12.9 24.5 13.35 24.25 13.85 23.8 14.1 23.4 14.45 22.65 14.45 22.15 14.45 21.7 14.15 21.35 13.85 21.35 13.2 21.35 11.75 24.15 11.75
L 24.75 11.75 Z"/>
</g>

<g id="IT_640x480_FR_psd_Asset_V8_2_Les_solutions_de_r_seau__en_tant_que_service_peuvent_aider___0_Layer0_0_MEMBER_24_FILL">
<path fill="#D82C26" stroke="none" d="
M 32.2 11.2
Q 32.2 10.2 31.65 9.4 31.1 8.7 29.95 8.7 29.3 8.7 28.65 9.1 28.05 9.5 27.85 10.15
L 27.8 10.15 27.75 8.9 27.05 8.9 27.1 14.85 27.85 14.85 27.85 11.8
Q 27.85 11.1 28.1 10.45 28.35 9.9 28.8 9.6 29.25 9.3 29.8 9.3 30.7 9.3 31.05 9.9 31.45 10.55 31.45 11.4
L 31.45 14.85 32.2 14.85 32.2 11.2 Z"/>
</g>

<g id="IT_640x480_FR_psd_Asset_V8_2_Les_solutions_de_r_seau__en_tant_que_service_peuvent_aider___0_Layer0_0_MEMBER_25_FILL">
<path fill="#D82C26" stroke="none" d="
M 34.65 8.9
L 34.65 7.15 33.9 7.45 33.9 8.9 32.95 8.9 32.8 9.45 33.95 9.45 33.95 13.4
Q 33.95 14.2 34.3 14.55 34.7 14.95 35.3 14.95
L 36 14.85 36.6 14.65 36.5 14.1
Q 35.9 14.35 35.55 14.35 35.15 14.35 34.9 14.1 34.65 13.75 34.65 13.3
L 34.65 9.45 36.2 9.45 36.35 8.9 34.65 8.9 Z"/>
</g>

<g id="IT_640x480_FR_psd_Asset_V8_2_Les_solutions_de_r_seau__en_tant_que_service_peuvent_aider___0_Layer0_0_MEMBER_26_FILL">
<path fill="#D82C26" stroke="none" d="
M 42.6 8.7
Q 41.75 8.7 41.05 9.1 40.35 9.6 40 10.25 39.65 10.9 39.65 11.85 39.65 12.75 40 13.45 40.35 14.15 41.05 14.6 41.75 15 42.6 15 43.35 15 44.05 14.6 44.7 14.2 45 13.55
L 45.05 13.55 45.05 16.25
Q 45.05 17.5 46.35 17.9
L 46.65 17.25
Q 46.15 17.1 46 16.85 45.8 16.65 45.8 16.05
L 45.85 8.9 45.1 8.9 45.05 10.2
Q 44.7 9.5 44.05 9.1 43.35 8.7 42.6 8.7
M 41.5 9.65
Q 42.1 9.3 42.7 9.3 43.25 9.3 43.95 9.65 44.4 10 44.8 10.6 45.1 11.15 45.1 11.85 45.1 12.6 44.8 13.1 44.4 13.7 43.95 14.05 43.35 14.35 42.7 14.35 42.05 14.35 41.5 14.05 40.9 13.65 40.65 13.1 40.4 12.65 40.4 11.85 40.4 11.05 40.65 10.6 40.9 10.05 41.5 9.65 Z"/>
</g>

<g id="IT_640x480_FR_psd_Asset_V8_2_Les_solutions_de_r_seau__en_tant_que_service_peuvent_aider___0_Layer0_0_MEMBER_27_FILL">
<path fill="#D82C26" stroke="none" d="
M 51.75 8.9
L 51.75 11.85
Q 51.75 12.55 51.5 13.2 51.2 13.85 50.8 14.1 50.35 14.4 49.8 14.4 48.9 14.4 48.5 13.8 48.15 13.1 48.15 12.3
L 48.15 8.9 47.4 8.9 47.4 12.5
Q 47.4 13.5 47.95 14.3 48.5 15 49.6 15 50.25 15 50.9 14.6 51.55 14.2 51.75 13.55
L 51.85 14.85 52.6 14.85 52.5 8.9 51.75 8.9 Z"/>
</g>

<g id="IT_640x480_FR_psd_Asset_V8_2_Les_solutions_de_r_seau__en_tant_que_service_peuvent_aider___0_Layer0_0_MEMBER_28_FILL">
<path fill="#D82C26" stroke="none" d="
M 55.25 9.1
Q 54.6 9.45 54.2 10.2 53.8 11 53.8 11.8 53.8 12.75 54.2 13.45 54.6 14.25 55.3 14.6 56 15 56.85 15 58.2 15 59.25 14.25
L 59.1 13.6
Q 58.85 13.85 58.15 14.15 57.5 14.4 56.9 14.4 56.2 14.4 55.7 14.05 55.15 13.75 54.85 13.2 54.55 12.6 54.55 11.95
L 59.55 11.95 59.6 11.65
Q 59.6 10.8 59.25 10.15 58.95 9.5 58.3 9.1 57.7 8.7 56.75 8.7 55.85 8.7 55.25 9.1
M 54.85 10.45
Q 55.05 10 55.6 9.6 56.15 9.25 56.75 9.25 57.7 9.25 58.3 9.85 58.85 10.5 58.85 11.4
L 54.55 11.4
Q 54.55 10.9 54.85 10.45 Z"/>
</g>

<g id="IT_640x480_FR_psd_Asset_V8_2_Les_solutions_de_r_seau__en_tant_que_service_peuvent_aider___0_Layer0_0_MEMBER_29_FILL">
<path fill="#D82C26" stroke="none" d="
M 65.25 8.7
Q 64.75 8.7 64.3 8.85 63.85 9.1 63.55 9.45 63.25 9.85 63.25 10.35 63.25 11 63.7 11.35 64 11.65 64.95 12 65.7 12.25 66.2 12.55 66.6 12.85 66.6 13.3 66.6 13.8 66.2 14.1 65.85 14.4 65.25 14.4 64.15 14.4 63.3 13.7
L 63.15 14.35
Q 63.55 14.65 64.1 14.8 64.55 15 65.3 15 65.85 15 66.3 14.8 66.75 14.6 67.05 14.2 67.3 13.8 67.3 13.25 67.3 12.6 66.85 12.2 66.35 11.8 65.5 11.5
L 64.3 11
Q 63.95 10.65 63.95 10.3 63.95 9.8 64.35 9.55 64.65 9.3 65.25 9.3 65.75 9.3 66.1 9.45 66.4 9.55 66.8 9.85
L 67.15 9.3
Q 66.65 9 66.3 8.9 65.85 8.7 65.25 8.7 Z"/>
</g>

<g id="IT_640x480_FR_psd_Asset_V8_2_Les_solutions_de_r_seau__en_tant_que_service_peuvent_aider___0_Layer0_0_MEMBER_30_FILL">
<path fill="#D82C26" stroke="none" d="
M 72.6 9.1
Q 72.05 8.7 71.1 8.7 70.2 8.7 69.6 9.1 69 9.45 68.5 10.2 68.15 10.9 68.15 11.8 68.15 12.8 68.5 13.45 69 14.25 69.6 14.6 70.3 15 71.2 15 72.6 15 73.55 14.25
L 73.45 13.6
Q 73.05 13.9 72.45 14.15 71.85 14.4 71.25 14.4 70.55 14.4 70 14.05 69.45 13.75 69.15 13.2 68.85 12.6 68.85 11.95
L 73.9 11.95 73.9 11.65
Q 73.9 10.85 73.6 10.15 73.2 9.45 72.6 9.1
M 72.6 9.85
Q 73.2 10.45 73.2 11.4
L 68.85 11.4
Q 68.95 10.9 69.15 10.45 69.4 10 69.9 9.6 70.5 9.25 71.1 9.25 72 9.25 72.6 9.85 Z"/>
</g>

<g id="IT_640x480_FR_psd_Asset_V8_2_Les_solutions_de_r_seau__en_tant_que_service_peuvent_aider___0_Layer0_0_MEMBER_31_FILL">
<path fill="#D82C26" stroke="none" d="
M 75.9 10.15
L 75.85 8.9 75.1 8.9 75.2 14.85 75.95 14.85 75.95 11.85
Q 75.95 10.85 76.4 10.1 76.85 9.35 77.6 9.35
L 78.15 9.45 78.3 8.8 77.65 8.7
Q 77.15 8.7 76.65 9.1 76.15 9.5 75.9 10.15 Z"/>
</g>

<g id="IT_640x480_FR_psd_Asset_V8_2_Les_solutions_de_r_seau__en_tant_que_service_peuvent_aider___0_Layer0_0_MEMBER_32_FILL">
<path fill="#D82C26" stroke="none" d="
M 83.15 8.9
L 81.3 14.1 79.35 8.9 78.55 8.9 80.85 14.85 81.7 14.85 83.9 8.9 83.15 8.9 Z"/>
</g>

<g id="IT_640x480_FR_psd_Asset_V8_2_Les_solutions_de_r_seau__en_tant_que_service_peuvent_aider___0_Layer0_0_MEMBER_33_FILL">
<path fill="#D82C26" stroke="none" d="
M 85.55 8.9
L 84.8 8.9 84.8 14.85 85.55 14.85 85.55 8.9
M 85.5 6.1
Q 85.35 5.95 85.15 5.95 84.95 5.95 84.8 6.1 84.6 6.25 84.6 6.5 84.6 6.7 84.8 6.9 84.95 7.05 85.15 7.05 85.35 7.05 85.5 6.9 85.7 6.7 85.7 6.5 85.7 6.25 85.5 6.1 Z"/>
</g>

<g id="IT_640x480_FR_psd_Asset_V8_2_Les_solutions_de_r_seau__en_tant_que_service_peuvent_aider___0_Layer0_0_MEMBER_34_FILL">
<path fill="#D82C26" stroke="none" d="
M 91.65 9.95
L 91.95 9.4
Q 91.6 9.05 91.05 8.9 90.6 8.7 89.95 8.7 88.95 8.7 88.35 9.1 87.7 9.45 87.2 10.25 86.8 10.95 86.8 11.85 86.8 12.7 87.2 13.5 87.6 14.2 88.3 14.6 89.1 15 89.9 15 90.6 15 91.05 14.8 91.65 14.55 91.95 14.3
L 91.85 13.65 91 14.2
Q 90.55 14.35 89.95 14.35 89.2 14.35 88.7 14 88.15 13.7 87.85 13.1 87.6 12.65 87.6 11.85 87.6 11.05 87.85 10.6 88.1 10.05 88.7 9.65 89.3 9.3 89.95 9.3 90.25 9.3 90.85 9.5 91.35 9.65 91.65 9.95 Z"/>
</g>

<g id="IT_640x480_FR_psd_Asset_V8_2_Les_solutions_de_r_seau__en_tant_que_service_peuvent_aider___0_Layer0_0_MEMBER_35_FILL">
<path fill="#D82C26" stroke="none" d="
M 95.4 8.7
Q 94.5 8.7 93.9 9.1 93.25 9.45 92.85 10.2 92.45 11 92.45 11.8 92.45 12.75 92.85 13.45 93.25 14.25 93.95 14.6 94.65 15 95.5 15 96.9 15 97.85 14.25
L 97.75 13.6
Q 97.5 13.85 96.8 14.15 96.15 14.4 95.55 14.4 94.85 14.4 94.35 14.05 93.85 13.8 93.5 13.2 93.25 12.65 93.15 11.95
L 98.2 11.95 98.25 11.65
Q 98.25 10.95 97.9 10.15 97.6 9.5 96.95 9.1 96.35 8.7 95.4 8.7
M 94.25 9.6
Q 94.8 9.25 95.4 9.25 96.4 9.25 96.9 9.85 97.5 10.45 97.5 11.4
L 93.2 11.4
Q 93.2 10.95 93.45 10.45 93.7 10 94.25 9.6 Z"/>
</g>

<g id="IT_640x480_FR_psd_Asset_V8_2_Les_solutions_de_r_seau__en_tant_que_service_peuvent_aider___0_Layer0_0_MEMBER_36_FILL">
<path fill="#D82C26" stroke="none" d="
M 105.45 8.7
Q 104.7 8.7 104.05 9.1 103.35 9.5 103.05 10.2
L 103 10.2 102.95 8.9 102.25 8.9 102.25 17.9 103 17.9 103 13.55 103.05 13.55
Q 103.45 14.25 104.05 14.6 104.75 15 105.45 15 106.3 15 107 14.6 107.7 14.15 108.05 13.45 108.45 12.65 108.45 11.85 108.45 10.95 108.05 10.25 107.7 9.6 107 9.1 106.3 8.7 105.45 8.7
M 103 11.85
Q 103 11.15 103.3 10.6 103.55 10.05 104.15 9.65 104.75 9.3 105.35 9.3 106 9.3 106.6 9.65 107.1 10 107.4 10.6 107.7 11.15 107.7 11.85 107.7 12.6 107.4 13.1 107.1 13.7 106.6 14.05 106.1 14.35 105.35 14.35 104.7 14.35 104.15 14.05 103.55 13.65 103.3 13.1 103 12.6 103 11.85 Z"/>
</g>

<g id="IT_640x480_FR_psd_Asset_V8_2_Les_solutions_de_r_seau__en_tant_que_service_peuvent_aider___0_Layer0_0_MEMBER_37_FILL">
<path fill="#D82C26" stroke="none" d="
M 113.85 9.1
Q 113.3 8.7 112.35 8.7 111.45 8.7 110.85 9.1 110.25 9.45 109.75 10.2 109.4 10.9 109.4 11.8 109.4 12.85 109.8 13.45 110.2 14.25 110.85 14.6 111.65 15 112.45 15 113.85 15 114.8 14.25
L 114.7 13.6
Q 114.3 13.9 113.7 14.15 113.1 14.4 112.5 14.4 111.8 14.4 111.25 14.05 110.8 13.8 110.45 13.2 110.1 12.65 110.1 11.95
L 115.15 11.95 115.15 11.65
Q 115.15 10.85 114.85 10.15 114.45 9.45 113.85 9.1
M 113.85 9.85
Q 114.45 10.45 114.45 11.4
L 110.1 11.4
Q 110.2 10.9 110.4 10.45 110.65 10 111.15 9.6 111.75 9.25 112.35 9.25 113.35 9.25 113.85 9.85 Z"/>
</g>

<g id="IT_640x480_FR_psd_Asset_V8_2_Les_solutions_de_r_seau__en_tant_que_service_peuvent_aider___0_Layer0_0_MEMBER_38_FILL">
<path fill="#D82C26" stroke="none" d="
M 117.1 8.9
L 116.35 8.9 116.35 12.5
Q 116.35 13.5 116.9 14.3 117.45 15 118.55 15 119.2 15 119.85 14.6 120.5 14.2 120.7 13.55
L 120.8 14.85 121.55 14.85 121.45 14.15 121.45 8.9 120.7 8.9 120.7 11.85
Q 120.7 12.55 120.45 13.2 120.15 13.85 119.75 14.1 119.3 14.4 118.7 14.4 117.85 14.4 117.45 13.8 117.1 13.1 117.1 12.3
L 117.1 8.9 Z"/>
</g>

<g id="IT_640x480_FR_psd_Asset_V8_2_Les_solutions_de_r_seau__en_tant_que_service_peuvent_aider___0_Layer0_0_MEMBER_39_FILL">
<path fill="#D82C26" stroke="none" d="
M 122.3 8.9
L 124.6 14.85 125.45 14.85 127.65 8.9 126.9 8.9 125.05 14.1 123.1 8.9 122.3 8.9 Z"/>
</g>

<g id="IT_640x480_FR_psd_Asset_V8_2_Les_solutions_de_r_seau__en_tant_que_service_peuvent_aider___0_Layer0_0_MEMBER_40_FILL">
<path fill="#D82C26" stroke="none" d="
M 133.35 10.15
Q 133.05 9.5 132.4 9.1 131.8 8.7 130.85 8.7 129.95 8.7 129.35 9.1 128.7 9.45 128.3 10.2 127.9 11 127.9 11.8 127.9 12.75 128.3 13.45 128.65 14.2 129.4 14.6 130.1 15 130.95 15 132.4 15 133.35 14.25
L 133.2 13.6
Q 132.9 13.9 132.25 14.15 131.6 14.4 131.05 14.4 130.3 14.4 129.8 14.05 129.25 13.75 128.95 13.2 128.65 12.6 128.65 11.95
L 133.7 11.95 133.7 11.65
Q 133.7 10.8 133.35 10.15
M 132.4 9.85
Q 132.95 10.45 133 11.4
L 128.65 11.4
Q 128.65 10.9 128.95 10.45 129.15 10 129.7 9.6 130.25 9.25 130.85 9.25 131.8 9.25 132.4 9.85 Z"/>
</g>

<g id="IT_640x480_FR_psd_Asset_V8_2_Les_solutions_de_r_seau__en_tant_que_service_peuvent_aider___0_Layer0_0_MEMBER_41_FILL">
<path fill="#D82C26" stroke="none" d="
M 135.65 8.9
L 134.95 8.9 135 14.85 135.75 14.85 135.75 11.8
Q 135.75 10.95 136 10.45 136.25 9.9 136.7 9.6 137.15 9.3 137.7 9.3 138.6 9.3 138.95 9.9 139.35 10.55 139.35 11.4
L 139.35 14.85 140.1 14.85 140.1 11.2
Q 140.1 10.2 139.55 9.4 139 8.7 137.85 8.7 137.2 8.7 136.55 9.1 136 9.45 135.7 10.15
L 135.65 8.9 Z"/>
</g>

<g id="IT_640x480_FR_psd_Asset_V8_2_Les_solutions_de_r_seau__en_tant_que_service_peuvent_aider___0_Layer0_0_MEMBER_42_FILL">
<path fill="#D82C26" stroke="none" d="
M 141.8 7.45
L 141.8 8.9 140.85 8.9 140.7 9.45 141.85 9.45 141.85 13.4
Q 141.85 14.2 142.2 14.55 142.6 14.95 143.2 14.95
L 143.9 14.85 144.5 14.65 144.4 14.1
Q 143.8 14.35 143.45 14.35 143.05 14.35 142.8 14.1 142.55 13.75 142.55 13.3
L 142.55 9.45 144.1 9.45 144.25 8.9 142.55 8.9 142.55 7.15 141.8 7.45 Z"/>
</g>

<g id="IT_640x480_FR_psd_Asset_V8_2_Les_solutions_de_r_seau__en_tant_que_service_peuvent_aider___0_Layer0_0_MEMBER_43_FILL">
<path fill="#D82C26" stroke="none" d="
M 151.75 9.25
Q 151.1 8.7 150.1 8.7 149.35 8.7 148.9 8.9 148.3 9.05 147.9 9.45
L 148.1 10
Q 148.5 9.7 149 9.5 149.45 9.3 150 9.3 150.8 9.3 151.25 9.7 151.7 10.1 151.7 10.9
L 151.7 11.25 150.95 11.25
Q 147.55 11.25 147.55 13.25 147.55 14.1 148.1 14.55 148.7 15 149.45 15 150.15 15 150.8 14.65 151.4 14.35 151.65 13.65
L 151.7 13.65 151.8 14.85 152.5 14.85
Q 152.4 14.5 152.4 13.55
L 152.4 10.95
Q 152.4 9.9 151.75 9.25
M 151.7 11.75
L 151.7 12.35
Q 151.7 12.75 151.45 13.35 151.25 13.8 150.75 14.1 150.25 14.45 149.6 14.45 149.05 14.45 148.65 14.15 148.25 13.85 148.25 13.2 148.25 11.75 151.05 11.75
L 151.7 11.75 Z"/>
</g>

<g id="IT_640x480_FR_psd_Asset_V8_2_Les_solutions_de_r_seau__en_tant_que_service_peuvent_aider___0_Layer0_0_MEMBER_44_FILL">
<path fill="#D82C26" stroke="none" d="
M 154.75 8.9
L 154 8.9 154 14.85 154.75 14.85 154.75 8.9
M 154.75 6.1
Q 154.6 5.95 154.4 5.95 154.15 5.95 154 6.1 153.85 6.25 153.85 6.5 153.85 6.7 154 6.9 154.15 7.05 154.4 7.05 154.6 7.05 154.75 6.9 154.9 6.7 154.9 6.5 154.9 6.25 154.75 6.1 Z"/>
</g>

<g id="IT_640x480_FR_psd_Asset_V8_2_Les_solutions_de_r_seau__en_tant_que_service_peuvent_aider___0_Layer0_0_MEMBER_45_FILL">
<path fill="#D82C26" stroke="none" d="
M 162.3 14.85
L 162.2 5.05 161.5 5.2 161.5 10.15 161.45 10.15
Q 161.05 9.45 160.45 9.1 159.75 8.7 159.05 8.7 158.2 8.7 157.5 9.1 156.8 9.6 156.45 10.25 156.05 11.05 156.05 11.85 156.05 12.65 156.45 13.45 156.8 14.15 157.5 14.6 158.2 15 159.05 15 159.75 15 160.45 14.6 161.15 14.25 161.5 13.55
L 161.55 14.85 162.3 14.85
M 157.1 10.6
Q 157.4 10 157.9 9.65 158.5 9.3 159.15 9.3 159.75 9.3 160.35 9.65 160.95 10.05 161.2 10.6 161.5 11.15 161.5 11.85 161.5 12.6 161.2 13.1 160.95 13.65 160.35 14.05 159.85 14.35 159.15 14.35 158.45 14.35 157.9 14.05 157.4 13.7 157.1 13.1 156.8 12.6 156.8 11.85 156.8 11.15 157.1 10.6 Z"/>
</g>

<g id="IT_640x480_FR_psd_Asset_V8_2_Les_solutions_de_r_seau__en_tant_que_service_peuvent_aider___0_Layer0_0_MEMBER_46_FILL">
<path fill="#D82C26" stroke="none" d="
M 166.45 8.7
Q 165.55 8.7 164.95 9.1 164.3 9.45 163.9 10.2 163.5 11 163.5 11.8 163.5 12.75 163.9 13.45 164.4 14.25 165 14.6 165.7 15 166.55 15 168 15 168.95 14.25
L 168.8 13.6
Q 168.5 13.9 167.85 14.15 167.2 14.4 166.65 14.4 165.9 14.4 165.4 14.05 164.85 13.75 164.55 13.2 164.25 12.6 164.25 11.95
L 169.3 11.95 169.3 11.65
Q 169.3 10.8 168.95 10.15 168.65 9.45 168 9.1 167.4 8.7 166.45 8.7
M 165.3 9.6
Q 165.9 9.25 166.45 9.25 167.4 9.25 168 9.85 168.6 10.45 168.6 11.4
L 164.25 11.4
Q 164.35 10.75 164.55 10.45 164.75 10 165.3 9.6 Z"/>
</g>

<g id="IT_640x480_FR_psd_Asset_V8_2_Les_solutions_de_r_seau__en_tant_que_service_peuvent_aider___0_Layer0_0_MEMBER_47_FILL">
<path fill="#D82C26" stroke="none" d="
M 173.7 8.8
L 173.05 8.7
Q 172.55 8.7 172.05 9.1 171.55 9.5 171.3 10.15
L 171.2 8.9 170.5 8.9 170.55 14.85 171.3 14.85 171.3 11.85
Q 171.3 10.8 171.8 10.1 172.25 9.35 173 9.35
L 173.55 9.45 173.7 8.8 Z"/>
</g>

<g id="IT_640x480_FR_psd_Asset_V8_2_Les_solutions_de_r_seau__en_tant_que_service_peuvent_aider___0_Layer0_0_MEMBER_48_FILL">
<path fill="#D82C26" stroke="none" d="
M 173.65 14.75
Q 173.8 14.9 174.05 14.9 174.3 14.9 174.45 14.75 174.65 14.6 174.65 14.35 174.65 14.1 174.45 13.9 174.3 13.75 174.05 13.75 173.85 13.75 173.65 13.95 173.5 14.1 173.5 14.35 173.5 14.6 173.65 14.75 Z"/>
</g>
</defs>

<g transform="matrix( 1, 0, 0, 1, -70,29) ">
<g transform="matrix( 1, 0, 0, 1, 64,0) ">
<g transform="matrix( 1, 0, 0, 1, 55,10) ">
<g transform="matrix( 2.815704345703125, 0, 0, 2.832611083984375, -1.85,27.6) ">
<use xlink:href="#IT_640x480_FR_psd_Asset_V8_2_Les_solutions_de_r_seau__en_tant_que_service_peuvent_aider___0_Layer0_0_MEMBER_0_FILL"/>
</g>

<g transform="matrix( 2.815704345703125, 0, 0, 2.832611083984375, -1.85,27.6) ">
<use xlink:href="#IT_640x480_FR_psd_Asset_V8_2_Les_solutions_de_r_seau__en_tant_que_service_peuvent_aider___0_Layer0_0_MEMBER_1_FILL"/>
</g>

<g transform="matrix( 2.815704345703125, 0, 0, 2.832611083984375, -1.85,27.6) ">
<use xlink:href="#IT_640x480_FR_psd_Asset_V8_2_Les_solutions_de_r_seau__en_tant_que_service_peuvent_aider___0_Layer0_0_MEMBER_2_FILL"/>
</g>

<g transform="matrix( 2.815704345703125, 0, 0, 2.832611083984375, -1.85,27.6) ">
<use xlink:href="#IT_640x480_FR_psd_Asset_V8_2_Les_solutions_de_r_seau__en_tant_que_service_peuvent_aider___0_Layer0_0_MEMBER_3_FILL"/>
</g>

<g transform="matrix( 2.815704345703125, 0, 0, 2.832611083984375, -1.85,27.6) ">
<use xlink:href="#IT_640x480_FR_psd_Asset_V8_2_Les_solutions_de_r_seau__en_tant_que_service_peuvent_aider___0_Layer0_0_MEMBER_4_FILL"/>
</g>

<g transform="matrix( 2.815704345703125, 0, 0, 2.832611083984375, -1.85,27.6) ">
<use xlink:href="#IT_640x480_FR_psd_Asset_V8_2_Les_solutions_de_r_seau__en_tant_que_service_peuvent_aider___0_Layer0_0_MEMBER_5_FILL"/>
</g>

<g transform="matrix( 2.815704345703125, 0, 0, 2.832611083984375, -1.85,27.6) ">
<use xlink:href="#IT_640x480_FR_psd_Asset_V8_2_Les_solutions_de_r_seau__en_tant_que_service_peuvent_aider___0_Layer0_0_MEMBER_6_FILL"/>
</g>

<g transform="matrix( 2.815704345703125, 0, 0, 2.832611083984375, -1.85,27.6) ">
<use xlink:href="#IT_640x480_FR_psd_Asset_V8_2_Les_solutions_de_r_seau__en_tant_que_service_peuvent_aider___0_Layer0_0_MEMBER_7_FILL"/>
</g>

<g transform="matrix( 2.815704345703125, 0, 0, 2.832611083984375, -1.85,27.6) ">
<use xlink:href="#IT_640x480_FR_psd_Asset_V8_2_Les_solutions_de_r_seau__en_tant_que_service_peuvent_aider___0_Layer0_0_MEMBER_8_FILL"/>
</g>

<g transform="matrix( 2.815704345703125, 0, 0, 2.832611083984375, -1.85,27.6) ">
<use xlink:href="#IT_640x480_FR_psd_Asset_V8_2_Les_solutions_de_r_seau__en_tant_que_service_peuvent_aider___0_Layer0_0_MEMBER_9_FILL"/>
</g>

<g transform="matrix( 2.815704345703125, 0, 0, 2.832611083984375, -1.85,27.6) ">
<use xlink:href="#IT_640x480_FR_psd_Asset_V8_2_Les_solutions_de_r_seau__en_tant_que_service_peuvent_aider___0_Layer0_0_MEMBER_10_FILL"/>
</g>

<g transform="matrix( 2.815704345703125, 0, 0, 2.832611083984375, -1.85,27.6) ">
<use xlink:href="#IT_640x480_FR_psd_Asset_V8_2_Les_solutions_de_r_seau__en_tant_que_service_peuvent_aider___0_Layer0_0_MEMBER_11_FILL"/>
</g>

<g transform="matrix( 2.815704345703125, 0, 0, 2.832611083984375, -1.85,27.6) ">
<use xlink:href="#IT_640x480_FR_psd_Asset_V8_2_Les_solutions_de_r_seau__en_tant_que_service_peuvent_aider___0_Layer0_0_MEMBER_12_FILL"/>
</g>

<g transform="matrix( 2.815704345703125, 0, 0, 2.832611083984375, -1.85,27.6) ">
<use xlink:href="#IT_640x480_FR_psd_Asset_V8_2_Les_solutions_de_r_seau__en_tant_que_service_peuvent_aider___0_Layer0_0_MEMBER_13_FILL"/>
</g>

<g transform="matrix( 2.815704345703125, 0, 0, 2.832611083984375, -1.85,27.6) ">
<use xlink:href="#IT_640x480_FR_psd_Asset_V8_2_Les_solutions_de_r_seau__en_tant_que_service_peuvent_aider___0_Layer0_0_MEMBER_14_FILL"/>
</g>

<g transform="matrix( 2.815704345703125, 0, 0, 2.832611083984375, -1.85,27.6) ">
<use xlink:href="#IT_640x480_FR_psd_Asset_V8_2_Les_solutions_de_r_seau__en_tant_que_service_peuvent_aider___0_Layer0_0_MEMBER_15_FILL"/>
</g>

<g transform="matrix( 2.815704345703125, 0, 0, 2.832611083984375, -1.85,27.6) ">
<use xlink:href="#IT_640x480_FR_psd_Asset_V8_2_Les_solutions_de_r_seau__en_tant_que_service_peuvent_aider___0_Layer0_0_MEMBER_16_FILL"/>
</g>

<g transform="matrix( 2.815704345703125, 0, 0, 2.832611083984375, -1.85,27.6) ">
<use xlink:href="#IT_640x480_FR_psd_Asset_V8_2_Les_solutions_de_r_seau__en_tant_que_service_peuvent_aider___0_Layer0_0_MEMBER_17_FILL"/>
</g>

<g transform="matrix( 2.815704345703125, 0, 0, 2.832611083984375, -1.85,27.6) ">
<use xlink:href="#IT_640x480_FR_psd_Asset_V8_2_Les_solutions_de_r_seau__en_tant_que_service_peuvent_aider___0_Layer0_0_MEMBER_18_FILL"/>
</g>

<g transform="matrix( 2.815704345703125, 0, 0, 2.832611083984375, -1.85,27.6) ">
<use xlink:href="#IT_640x480_FR_psd_Asset_V8_2_Les_solutions_de_r_seau__en_tant_que_service_peuvent_aider___0_Layer0_0_MEMBER_19_FILL"/>
</g>

<g transform="matrix( 2.815704345703125, 0, 0, 2.832611083984375, -1.85,27.6) ">
<use xlink:href="#IT_640x480_FR_psd_Asset_V8_2_Les_solutions_de_r_seau__en_tant_que_service_peuvent_aider___0_Layer0_0_MEMBER_20_FILL"/>
</g>

<g transform="matrix( 2.815704345703125, 0, 0, 2.832611083984375, -1.85,27.6) ">
<use xlink:href="#IT_640x480_FR_psd_Asset_V8_2_Les_solutions_de_r_seau__en_tant_que_service_peuvent_aider___0_Layer0_0_MEMBER_21_FILL"/>
</g>

<g transform="matrix( 2.815704345703125, 0, 0, 2.832611083984375, -1.85,27.6) ">
<use xlink:href="#IT_640x480_FR_psd_Asset_V8_2_Les_solutions_de_r_seau__en_tant_que_service_peuvent_aider___0_Layer0_0_MEMBER_22_FILL"/>
</g>

<g transform="matrix( 2.815704345703125, 0, 0, 2.832611083984375, -1.85,27.6) ">
<use xlink:href="#IT_640x480_FR_psd_Asset_V8_2_Les_solutions_de_r_seau__en_tant_que_service_peuvent_aider___0_Layer0_0_MEMBER_23_FILL"/>
</g>

<g transform="matrix( 2.815704345703125, 0, 0, 2.832611083984375, -1.85,27.6) ">
<use xlink:href="#IT_640x480_FR_psd_Asset_V8_2_Les_solutions_de_r_seau__en_tant_que_service_peuvent_aider___0_Layer0_0_MEMBER_24_FILL"/>
</g>

<g transform="matrix( 2.815704345703125, 0, 0, 2.832611083984375, -1.85,27.6) ">
<use xlink:href="#IT_640x480_FR_psd_Asset_V8_2_Les_solutions_de_r_seau__en_tant_que_service_peuvent_aider___0_Layer0_0_MEMBER_25_FILL"/>
</g>

<g transform="matrix( 2.815704345703125, 0, 0, 2.832611083984375, -1.85,27.6) ">
<use xlink:href="#IT_640x480_FR_psd_Asset_V8_2_Les_solutions_de_r_seau__en_tant_que_service_peuvent_aider___0_Layer0_0_MEMBER_26_FILL"/>
</g>

<g transform="matrix( 2.815704345703125, 0, 0, 2.832611083984375, -1.85,27.6) ">
<use xlink:href="#IT_640x480_FR_psd_Asset_V8_2_Les_solutions_de_r_seau__en_tant_que_service_peuvent_aider___0_Layer0_0_MEMBER_27_FILL"/>
</g>

<g transform="matrix( 2.815704345703125, 0, 0, 2.832611083984375, -1.85,27.6) ">
<use xlink:href="#IT_640x480_FR_psd_Asset_V8_2_Les_solutions_de_r_seau__en_tant_que_service_peuvent_aider___0_Layer0_0_MEMBER_28_FILL"/>
</g>

<g transform="matrix( 2.815704345703125, 0, 0, 2.832611083984375, -1.85,27.6) ">
<use xlink:href="#IT_640x480_FR_psd_Asset_V8_2_Les_solutions_de_r_seau__en_tant_que_service_peuvent_aider___0_Layer0_0_MEMBER_29_FILL"/>
</g>

<g transform="matrix( 2.815704345703125, 0, 0, 2.832611083984375, -1.85,27.6) ">
<use xlink:href="#IT_640x480_FR_psd_Asset_V8_2_Les_solutions_de_r_seau__en_tant_que_service_peuvent_aider___0_Layer0_0_MEMBER_30_FILL"/>
</g>

<g transform="matrix( 2.815704345703125, 0, 0, 2.832611083984375, -1.85,27.6) ">
<use xlink:href="#IT_640x480_FR_psd_Asset_V8_2_Les_solutions_de_r_seau__en_tant_que_service_peuvent_aider___0_Layer0_0_MEMBER_31_FILL"/>
</g>

<g transform="matrix( 2.815704345703125, 0, 0, 2.832611083984375, -1.85,27.6) ">
<use xlink:href="#IT_640x480_FR_psd_Asset_V8_2_Les_solutions_de_r_seau__en_tant_que_service_peuvent_aider___0_Layer0_0_MEMBER_32_FILL"/>
</g>

<g transform="matrix( 2.815704345703125, 0, 0, 2.832611083984375, -1.85,27.6) ">
<use xlink:href="#IT_640x480_FR_psd_Asset_V8_2_Les_solutions_de_r_seau__en_tant_que_service_peuvent_aider___0_Layer0_0_MEMBER_33_FILL"/>
</g>

<g transform="matrix( 2.815704345703125, 0, 0, 2.832611083984375, -1.85,27.6) ">
<use xlink:href="#IT_640x480_FR_psd_Asset_V8_2_Les_solutions_de_r_seau__en_tant_que_service_peuvent_aider___0_Layer0_0_MEMBER_34_FILL"/>
</g>

<g transform="matrix( 2.815704345703125, 0, 0, 2.832611083984375, -1.85,27.6) ">
<use xlink:href="#IT_640x480_FR_psd_Asset_V8_2_Les_solutions_de_r_seau__en_tant_que_service_peuvent_aider___0_Layer0_0_MEMBER_35_FILL"/>
</g>

<g transform="matrix( 2.815704345703125, 0, 0, 2.832611083984375, -1.85,27.6) ">
<use xlink:href="#IT_640x480_FR_psd_Asset_V8_2_Les_solutions_de_r_seau__en_tant_que_service_peuvent_aider___0_Layer0_0_MEMBER_36_FILL"/>
</g>

<g transform="matrix( 2.815704345703125, 0, 0, 2.832611083984375, -1.85,27.6) ">
<use xlink:href="#IT_640x480_FR_psd_Asset_V8_2_Les_solutions_de_r_seau__en_tant_que_service_peuvent_aider___0_Layer0_0_MEMBER_37_FILL"/>
</g>

<g transform="matrix( 2.815704345703125, 0, 0, 2.832611083984375, -1.85,27.6) ">
<use xlink:href="#IT_640x480_FR_psd_Asset_V8_2_Les_solutions_de_r_seau__en_tant_que_service_peuvent_aider___0_Layer0_0_MEMBER_38_FILL"/>
</g>

<g transform="matrix( 2.815704345703125, 0, 0, 2.832611083984375, -1.85,27.6) ">
<use xlink:href="#IT_640x480_FR_psd_Asset_V8_2_Les_solutions_de_r_seau__en_tant_que_service_peuvent_aider___0_Layer0_0_MEMBER_39_FILL"/>
</g>

<g transform="matrix( 2.815704345703125, 0, 0, 2.832611083984375, -1.85,27.6) ">
<use xlink:href="#IT_640x480_FR_psd_Asset_V8_2_Les_solutions_de_r_seau__en_tant_que_service_peuvent_aider___0_Layer0_0_MEMBER_40_FILL"/>
</g>

<g transform="matrix( 2.815704345703125, 0, 0, 2.832611083984375, -1.85,27.6) ">
<use xlink:href="#IT_640x480_FR_psd_Asset_V8_2_Les_solutions_de_r_seau__en_tant_que_service_peuvent_aider___0_Layer0_0_MEMBER_41_FILL"/>
</g>

<g transform="matrix( 2.815704345703125, 0, 0, 2.832611083984375, -1.85,27.6) ">
<use xlink:href="#IT_640x480_FR_psd_Asset_V8_2_Les_solutions_de_r_seau__en_tant_que_service_peuvent_aider___0_Layer0_0_MEMBER_42_FILL"/>
</g>

<g transform="matrix( 2.815704345703125, 0, 0, 2.832611083984375, -1.85,27.6) ">
<use xlink:href="#IT_640x480_FR_psd_Asset_V8_2_Les_solutions_de_r_seau__en_tant_que_service_peuvent_aider___0_Layer0_0_MEMBER_43_FILL"/>
</g>

<g transform="matrix( 2.815704345703125, 0, 0, 2.832611083984375, -1.85,27.6) ">
<use xlink:href="#IT_640x480_FR_psd_Asset_V8_2_Les_solutions_de_r_seau__en_tant_que_service_peuvent_aider___0_Layer0_0_MEMBER_44_FILL"/>
</g>

<g transform="matrix( 2.815704345703125, 0, 0, 2.832611083984375, -1.85,27.6) ">
<use xlink:href="#IT_640x480_FR_psd_Asset_V8_2_Les_solutions_de_r_seau__en_tant_que_service_peuvent_aider___0_Layer0_0_MEMBER_45_FILL"/>
</g>

<g transform="matrix( 2.815704345703125, 0, 0, 2.832611083984375, -1.85,27.6) ">
<use xlink:href="#IT_640x480_FR_psd_Asset_V8_2_Les_solutions_de_r_seau__en_tant_que_service_peuvent_aider___0_Layer0_0_MEMBER_46_FILL"/>
</g>

<g transform="matrix( 2.815704345703125, 0, 0, 2.832611083984375, -1.85,27.6) ">
<use xlink:href="#IT_640x480_FR_psd_Asset_V8_2_Les_solutions_de_r_seau__en_tant_que_service_peuvent_aider___0_Layer0_0_MEMBER_47_FILL"/>
</g>

<g transform="matrix( 2.815704345703125, 0, 0, 2.832611083984375, -1.85,27.6) ">
<use xlink:href="#IT_640x480_FR_psd_Asset_V8_2_Les_solutions_de_r_seau__en_tant_que_service_peuvent_aider___0_Layer0_0_MEMBER_48_FILL"/>
</g>
</g>
</g>
</g>
</svg>
