
<svg xmlns="http://www.w3.org/2000/svg" version="1.1" xmlns:xlink="http://www.w3.org/1999/xlink" preserveAspectRatio="none" x="0px" y="0px" width="200px" height="200px" viewBox="0 0 200 200">
<defs>
<g id="BDM_200x200_FR_psd_Asset_6_V7_3_jusqu_aux_habitudes__de_d_penses__des_clients__0_Layer0_0_MEMBER_0_FILL">
<path fill="#D82C26" stroke="none" d="
M 1.05 -3.3
L 0.65 -3.3 0.65 0.55
Q 0.65 0.95 0.55 1.15 0.4 1.35 0.05 1.35
L 0.15 1.7
Q 0.7 1.7 0.85 1.4 1.05 1.15 1.05 0.55
L 1.05 -3.3
M 1.15 -4.65
L 1.1 -4.85 0.85 -4.95 0.65 -4.85 0.55 -4.65 0.65 -4.4 0.85 -4.35 1.05 -4.4
Q 1.15 -4.5 1.15 -4.65 Z"/>
</g>

<g id="BDM_200x200_FR_psd_Asset_6_V7_3_jusqu_aux_habitudes__de_d_penses__des_clients__0_Layer0_0_MEMBER_1_FILL">
<path fill="#D82C26" stroke="none" d="
M 4.95 -3.3
L 4.55 -3.3 4.55 -1.65
Q 4.55 -1.2 4.4 -0.9 4.25 -0.55 4 -0.4 3.7 -0.25 3.45 -0.25 2.9 -0.25 2.75 -0.6 2.55 -0.85 2.55 -1.4
L 2.55 -3.3 2.1 -3.3 2.1 -1.3
Q 2.1 -0.65 2.4 -0.3 2.7 0.1 3.3 0.1 3.7 0.1 4.05 -0.15 4.4 -0.3 4.55 -0.7
L 4.6 0 5 0 4.95 -0.4 4.95 -3.3 Z"/>
</g>

<g id="BDM_200x200_FR_psd_Asset_6_V7_3_jusqu_aux_habitudes__de_d_penses__des_clients__0_Layer0_0_MEMBER_2_FILL">
<path fill="#D82C26" stroke="none" d="
M 6.95 -3.4
Q 6.6 -3.4 6.4 -3.3 6.15 -3.2 6 -3 5.85 -2.75 5.85 -2.5 5.85 -2.1 6.1 -1.9 6.5 -1.65 6.8 -1.55
L 7.5 -1.25
Q 7.7 -1.05 7.7 -0.85 7.7 -0.55 7.45 -0.4 7.3 -0.25 6.95 -0.25 6.25 -0.25 5.85 -0.65
L 5.8 -0.3
Q 5.85 -0.2 6.3 0
L 6.95 0.1 7.5 0 7.95 -0.35
Q 8.1 -0.55 8.1 -0.85 8.1 -1.2 7.85 -1.45 7.6 -1.7 7.05 -1.85
L 6.4 -2.15
Q 6.25 -2.3 6.25 -2.5 6.25 -2.8 6.45 -2.95 6.6 -3.1 6.95 -3.1
L 7.4 -3 7.8 -2.75 8 -3.05 7.55 -3.3 6.95 -3.4 Z"/>
</g>

<g id="BDM_200x200_FR_psd_Asset_6_V7_3_jusqu_aux_habitudes__de_d_penses__des_clients__0_Layer0_0_MEMBER_3_FILL">
<path fill="#D82C26" stroke="none" d="
M 8.9 -0.75
Q 9.15 -0.35 9.5 -0.15 9.9 0.1 10.35 0.1 10.65 0.1 11.15 -0.1 11.5 -0.35 11.7 -0.7
L 11.7 0.8
Q 11.7 1.45 12.4 1.7
L 12.6 1.35 12.2 1.15 12.1 0.7 12.1 -2.7 12.15 -3.3 11.75 -3.3 11.7 -2.6
Q 11.5 -2.95 11.15 -3.2 10.8 -3.4 10.35 -3.4 9.8 -3.4 9.5 -3.15 9.15 -2.9 8.9 -2.55 8.7 -2.2 8.7 -1.65 8.7 -1.15 8.9 -0.75
M 9.25 -2.35
Q 9.45 -2.7 9.7 -2.85 9.95 -3.05 10.4 -3.05 10.8 -3.05 11.05 -2.85 11.4 -2.7 11.55 -2.35 11.7 -2.05 11.7 -1.65 11.7 -1.25 11.55 -0.95 11.4 -0.6 11.05 -0.45 10.8 -0.25 10.4 -0.25 9.95 -0.25 9.7 -0.45 9.45 -0.6 9.25 -0.95 9.1 -1.25 9.1 -1.65 9.1 -2.05 9.25 -2.35 Z"/>
</g>

<g id="BDM_200x200_FR_psd_Asset_6_V7_3_jusqu_aux_habitudes__de_d_penses__des_clients__0_Layer0_0_MEMBER_4_FILL">
<path fill="#D82C26" stroke="none" d="
M 13.15 -1.3
Q 13.15 -0.65 13.45 -0.3 13.75 0.1 14.35 0.1 14.7 0.1 15.1 -0.15 15.4 -0.3 15.55 -0.7
L 15.65 0 16.05 0 15.95 -0.75 15.95 -3.3 15.55 -3.3 15.55 -1.65
Q 15.55 -1.2 15.4 -0.9 15.2 -0.5 15 -0.4 14.8 -0.25 14.45 -0.25 13.95 -0.25 13.75 -0.6 13.55 -1 13.55 -1.4
L 13.55 -3.3 13.15 -3.3 13.15 -1.3 Z"/>
</g>

<g id="BDM_200x200_FR_psd_Asset_6_V7_3_jusqu_aux_habitudes__de_d_penses__des_clients__0_Layer0_0_MEMBER_5_FILL">
<path fill="#D82C26" stroke="none" d="
M 17.5 -4.9
L 17.3 -5 17.05 -4.9 16.95 -4.7 17.05 -4.45 17.25 -4.35 17.1 -3.9 16.8 -3.5 16.95 -3.4
Q 17.6 -4 17.6 -4.6
L 17.5 -4.9 Z"/>
</g>

<g id="BDM_200x200_FR_psd_Asset_6_V7_3_jusqu_aux_habitudes__de_d_penses__des_clients__0_Layer0_0_MEMBER_6_FILL">
<path fill="#D82C26" stroke="none" d="
M 19.35 -3.4
L 18.65 -3.3
Q 18.3 -3.2 18.1 -3
L 18.2 -2.65
Q 18.45 -2.9 18.7 -2.95 19 -3.1 19.3 -3.1 19.7 -3.1 19.95 -2.85 20.2 -2.65 20.2 -2.15
L 20.2 -2 19.8 -2
Q 17.9 -2 17.9 -0.9 17.9 -0.35 18.25 -0.15 18.6 0.1 18.95 0.1 19.45 0.1 19.7 -0.1 20.05 -0.25 20.2 -0.65
L 20.25 -0.65 20.25 -0.3 20.3 0 20.65 0 20.6 -2.15
Q 20.6 -2.8 20.25 -3.1 19.95 -3.4 19.35 -3.4
M 19.85 -1.7
L 20.2 -1.7 20.2 -1.4 20.1 -0.85
Q 19.95 -0.55 19.7 -0.4 19.3 -0.2 19.05 -0.2 18.7 -0.2 18.55 -0.4 18.3 -0.55 18.3 -0.9 18.3 -1.7 19.85 -1.7 Z"/>
</g>

<g id="BDM_200x200_FR_psd_Asset_6_V7_3_jusqu_aux_habitudes__de_d_penses__des_clients__0_Layer0_0_MEMBER_7_FILL">
<path fill="#D82C26" stroke="none" d="
M 24.45 -3.3
L 24 -3.3 24 -1.65
Q 24 -1.2 23.85 -0.9 23.75 -0.6 23.5 -0.4 23.2 -0.25 22.9 -0.25 22.4 -0.25 22.2 -0.6 22 -1 22 -1.4
L 22 -3.3 21.6 -3.3 21.6 -1.3
Q 21.6 -0.65 21.9 -0.3 22.2 0.1 22.8 0.1 23.15 0.1 23.55 -0.15 23.85 -0.3 24 -0.7
L 24.1 0 24.5 0 24.45 -0.4 24.45 -3.3 Z"/>
</g>

<g id="BDM_200x200_FR_psd_Asset_6_V7_3_jusqu_aux_habitudes__de_d_penses__des_clients__0_Layer0_0_MEMBER_8_FILL">
<path fill="#D82C26" stroke="none" d="
M 25.25 -3.3
L 26.45 -1.75 25.1 0 25.6 0 26.7 -1.45 27.75 0 28.25 0 26.95 -1.75 28.1 -3.3 27.6 -3.3 26.7 -2 25.75 -3.3 25.25 -3.3 Z"/>
</g>

<g id="BDM_200x200_FR_psd_Asset_6_V7_3_jusqu_aux_habitudes__de_d_penses__des_clients__0_Layer0_0_MEMBER_9_FILL">
<path fill="#D82C26" stroke="none" d="
M 31.8 -3.4
Q 31.35 -3.4 31.1 -3.2 30.75 -3 30.6 -2.6
L 30.6 -5.4 30.2 -5.3 30.2 0 30.6 0 30.6 -1.6
Q 30.6 -2.1 30.75 -2.4
L 31.15 -2.9
Q 31.4 -3.05 31.7 -3.05 32.2 -3.05 32.4 -2.75 32.6 -2.4 32.6 -1.9
L 32.6 0 33 0 33 -2
Q 33 -2.6 32.75 -3 32.45 -3.4 31.8 -3.4 Z"/>
</g>

<g id="BDM_200x200_FR_psd_Asset_6_V7_3_jusqu_aux_habitudes__de_d_penses__des_clients__0_Layer0_0_MEMBER_10_FILL">
<path fill="#D82C26" stroke="none" d="
M 33.85 -0.9
Q 33.85 -0.35 34.15 -0.15 34.5 0.1 34.9 0.1 35.3 0.1 35.65 -0.1 35.95 -0.25 36.1 -0.65
L 36.15 -0.65 36.15 -0.3 36.2 0 36.55 0 36.5 -2.15
Q 36.5 -2.8 36.2 -3.1 35.85 -3.4 35.25 -3.4
L 34.55 -3.3
Q 34.2 -3.2 34 -3
L 34.15 -2.65
Q 34.3 -2.85 34.65 -2.95 34.9 -3.1 35.2 -3.1 35.55 -3.1 35.9 -2.85 36.15 -2.6 36.15 -2.15
L 36.15 -2 35.7 -2
Q 33.85 -2 33.85 -0.9
M 34.45 -0.4
Q 34.25 -0.55 34.25 -0.9 34.25 -1.7 35.8 -1.7
L 36.15 -1.7 36.15 -1.4
Q 36.15 -1.05 36 -0.85 35.85 -0.5 35.6 -0.4 35.3 -0.2 34.95 -0.2 34.65 -0.2 34.45 -0.4 Z"/>
</g>

<g id="BDM_200x200_FR_psd_Asset_6_V7_3_jusqu_aux_habitudes__de_d_penses__des_clients__0_Layer0_0_MEMBER_11_FILL">
<path fill="#D82C26" stroke="none" d="
M 39.35 -3.4
Q 38.9 -3.4 38.55 -3.2 38.25 -3 38 -2.6
L 38 -5.4 37.55 -5.35 37.55 0 37.9 0 37.95 -0.7 38 -0.7
Q 38.15 -0.35 38.55 -0.1 39.05 0.1 39.35 0.1 39.8 0.1 40.2 -0.15 40.6 -0.35 40.8 -0.75 41 -1.35 41 -1.65 41 -2.05 40.8 -2.55 40.6 -2.9 40.2 -3.15 39.9 -3.4 39.35 -3.4
M 39.25 -3.05
Q 39.7 -3.05 39.95 -2.85 40.2 -2.7 40.4 -2.35 40.6 -2.1 40.6 -1.65 40.6 -1.2 40.4 -0.95 40.2 -0.6 39.95 -0.45 39.7 -0.25 39.25 -0.25 38.85 -0.25 38.6 -0.45 38.35 -0.6 38.15 -0.95 37.95 -1.2 37.95 -1.65 37.95 -2.1 38.15 -2.35 38.35 -2.7 38.6 -2.85 38.85 -3.05 39.25 -3.05 Z"/>
</g>

<g id="BDM_200x200_FR_psd_Asset_6_V7_3_jusqu_aux_habitudes__de_d_penses__des_clients__0_Layer0_0_MEMBER_12_FILL">
<path fill="#D82C26" stroke="none" d="
M 42.25 -3.3
L 41.85 -3.3 41.85 0 42.25 0 42.25 -3.3
M 42.35 -4.65
L 42.25 -4.85 42.05 -4.95 41.85 -4.85 41.75 -4.65 41.85 -4.4 42.05 -4.35 42.25 -4.4 42.35 -4.65 Z"/>
</g>

<g id="BDM_200x200_FR_psd_Asset_6_V7_3_jusqu_aux_habitudes__de_d_penses__des_clients__0_Layer0_0_MEMBER_13_FILL">
<path fill="#D82C26" stroke="none" d="
M 43.5 -4.1
L 43.5 -3.3 42.95 -3.3 42.9 -3 43.5 -3 43.5 -0.8
Q 43.5 -0.35 43.7 -0.15 43.9 0.05 44.25 0.05
L 44.65 0 44.95 -0.1 44.9 -0.4 44.4 -0.25
Q 44.15 -0.25 44.05 -0.4 43.9 -0.55 43.9 -0.85
L 43.9 -3 44.75 -3 44.85 -3.3 43.9 -3.3 43.9 -4.25 43.5 -4.1 Z"/>
</g>

<g id="BDM_200x200_FR_psd_Asset_6_V7_3_jusqu_aux_habitudes__de_d_penses__des_clients__0_Layer0_0_MEMBER_14_FILL">
<path fill="#D82C26" stroke="none" d="
M 45.5 -3.3
L 45.5 -1.3
Q 45.5 -0.65 45.8 -0.3 46.1 0.1 46.7 0.1 47.05 0.1 47.45 -0.15 47.85 -0.35 47.9 -0.7
L 48 0 48.4 0 48.35 -0.4 48.35 -3.3 47.9 -3.3 47.9 -1.65 47.8 -0.9
Q 47.65 -0.55 47.4 -0.4 47.1 -0.25 46.8 -0.25 46.3 -0.25 46.15 -0.6 45.9 -0.95 45.9 -1.4
L 45.9 -3.3 45.5 -3.3 Z"/>
</g>

<g id="BDM_200x200_FR_psd_Asset_6_V7_3_jusqu_aux_habitudes__de_d_penses__des_clients__0_Layer0_0_MEMBER_15_FILL">
<path fill="#D82C26" stroke="none" d="
M 49.4 -0.75
Q 49.65 -0.35 50 -0.15 50.4 0.1 50.85 0.1 51.15 0.1 51.65 -0.1 52.05 -0.35 52.2 -0.7
L 52.25 -0.7 52.25 0 52.65 0 52.6 -5.4 52.2 -5.35 52.2 -2.6
Q 51.95 -3 51.65 -3.2 51.3 -3.4 50.85 -3.4 50.3 -3.4 50 -3.15 49.65 -2.9 49.4 -2.55 49.2 -2.15 49.2 -1.65 49.2 -1.15 49.4 -0.75
M 49.8 -2.35
Q 50 -2.7 50.25 -2.85 50.45 -3.05 50.9 -3.05 51.35 -3.05 51.6 -2.85 51.85 -2.7 52.05 -2.35 52.25 -1.95 52.25 -1.65 52.25 -1.35 52.05 -0.95 51.85 -0.6 51.6 -0.45 51.35 -0.25 50.9 -0.25 50.45 -0.25 50.25 -0.45 50 -0.6 49.8 -0.95 49.6 -1.2 49.6 -1.65 49.6 -2.1 49.8 -2.35 Z"/>
</g>

<g id="BDM_200x200_FR_psd_Asset_6_V7_3_jusqu_aux_habitudes__de_d_penses__des_clients__0_Layer0_0_MEMBER_16_FILL">
<path fill="#D82C26" stroke="none" d="
M 55.15 -3.4
Q 54.65 -3.4 54.3 -3.2 53.9 -2.95 53.7 -2.55 53.5 -2.2 53.5 -1.65 53.5 -1.1 53.7 -0.75 53.95 -0.35 54.3 -0.15 54.7 0.1 55.2 0.1 55.95 0.1 56.5 -0.3
L 56.45 -0.65 55.9 -0.35 55.2 -0.25
Q 54.85 -0.25 54.55 -0.4
L 54.05 -0.9
Q 53.9 -1.2 53.9 -1.6
L 56.7 -1.6 56.7 -1.75
Q 56.7 -2.25 56.5 -2.6 56.35 -2.9 56 -3.2 55.65 -3.4 55.15 -3.4
M 54.05 -2.45
L 54.5 -2.9
Q 54.8 -3.1 55.15 -3.1 55.65 -3.1 55.95 -2.75 56.3 -2.45 56.3 -1.9
L 53.9 -1.9 54.05 -2.45 Z"/>
</g>

<g id="BDM_200x200_FR_psd_Asset_6_V7_3_jusqu_aux_habitudes__de_d_penses__des_clients__0_Layer0_0_MEMBER_17_FILL">
<path fill="#D82C26" stroke="none" d="
M 59.05 -3.3
L 58.45 -3.4
Q 58.1 -3.4 57.9 -3.3 57.65 -3.2 57.5 -3 57.35 -2.75 57.35 -2.5 57.35 -2.15 57.6 -1.9
L 59 -1.25
Q 59.2 -1.1 59.2 -0.85 59.2 -0.55 59 -0.4 58.8 -0.25 58.45 -0.25 57.75 -0.25 57.35 -0.65
L 57.3 -0.3
Q 57.35 -0.2 57.8 0
L 58.45 0.1 59 0
Q 59.35 -0.15 59.45 -0.35 59.6 -0.55 59.6 -0.85 59.6 -1.2 59.35 -1.45 59.1 -1.7 58.6 -1.85 58.1 -2 57.95 -2.15 57.75 -2.3 57.75 -2.5 57.75 -2.8 57.95 -2.95 58.2 -3.1 58.45 -3.1
L 58.95 -3
Q 59.1 -2.95 59.3 -2.75
L 59.5 -3.05 59.05 -3.3 Z"/>
</g>

<g id="BDM_200x200_FR_psd_Asset_6_V7_3_jusqu_aux_habitudes__de_d_penses__des_clients__0_Layer0_0_MEMBER_18_FILL">
<path fill="#D82C26" stroke="none" d="
M 2.05 5.05
Q 1.6 5.05 1.2 5.3 0.8 5.55 0.6 5.95 0.4 6.3 0.4 6.8 0.4 7.35 0.6 7.7 0.85 8.15 1.2 8.35 1.55 8.55 2.05 8.55 2.5 8.55 2.85 8.35 3.15 8.15 3.4 7.75
L 3.45 8.45 3.85 8.45 3.8 3.05 3.4 3.15 3.4 5.9
Q 3.15 5.45 2.85 5.3 2.45 5.05 2.05 5.05
M 0.95 6.1
L 1.4 5.6
Q 1.8 5.4 2.1 5.4 2.4 5.4 2.8 5.6 3.1 5.85 3.25 6.1 3.4 6.5 3.4 6.8 3.4 7.2 3.25 7.5 3.15 7.8 2.8 8.05 2.5 8.2 2.1 8.2 1.7 8.2 1.4 8.05
L 0.95 7.5
Q 0.8 7.2 0.8 6.8 0.8 6.5 0.95 6.1 Z"/>
</g>

<g id="BDM_200x200_FR_psd_Asset_6_V7_3_jusqu_aux_habitudes__de_d_penses__des_clients__0_Layer0_0_MEMBER_19_FILL">
<path fill="#D82C26" stroke="none" d="
M 6.3 5.05
Q 5.9 5.05 5.5 5.3 5.15 5.55 4.9 5.9 4.7 6.25 4.7 6.8 4.7 7.35 4.9 7.7 5.1 8.1 5.5 8.35 5.85 8.55 6.4 8.55 7.25 8.55 7.7 8.15
L 7.65 7.8
Q 7.25 8.05 7.1 8.1 6.8 8.25 6.4 8.25 6.15 8.25 5.75 8.05 5.55 7.95 5.25 7.55 5.1 7.25 5.1 6.9
L 7.9 6.9 7.9 6.7
Q 7.9 6.2 7.7 5.85 7.6 5.55 7.15 5.3 6.8 5.05 6.3 5.05
M 6.3 5.4
Q 6.85 5.4 7.15 5.7 7.5 6.05 7.5 6.55
L 5.1 6.55
Q 5.1 6.3 5.25 6.05
L 5.65 5.55
Q 5.95 5.4 6.3 5.4 Z"/>
</g>

<g id="BDM_200x200_FR_psd_Asset_6_V7_3_jusqu_aux_habitudes__de_d_penses__des_clients__0_Layer0_0_MEMBER_20_FILL">
<path fill="#D82C26" stroke="none" d="
M 12.25 5.3
Q 11.85 5.05 11.5 5.05 11 5.05 10.6 5.3 10.2 5.55 10 5.95 9.8 6.45 9.8 6.8 9.8 7.2 10 7.7 10.25 8.15 10.6 8.35 10.95 8.55 11.5 8.55 11.9 8.55 12.25 8.35 12.65 8.15 12.85 7.75
L 12.9 8.45 13.3 8.45 13.25 3.05 12.85 3.15 12.85 5.9 12.8 5.9
Q 12.65 5.45 12.25 5.3
M 10.4 6.1
Q 10.55 5.85 10.85 5.6 11.25 5.4 11.55 5.4 11.8 5.4 12.2 5.6
L 12.7 6.1
Q 12.85 6.5 12.85 6.8 12.85 7.2 12.7 7.5 12.5 7.8 12.2 8.05 11.9 8.2 11.55 8.2 11.15 8.2 10.85 8.05 10.5 7.8 10.4 7.5 10.25 7.2 10.25 6.8 10.25 6.5 10.4 6.1 Z"/>
</g>

<g id="BDM_200x200_FR_psd_Asset_6_V7_3_jusqu_aux_habitudes__de_d_penses__des_clients__0_Layer0_0_MEMBER_21_FILL">
<path fill="#D82C26" stroke="none" d="
M 16.6 5.3
Q 16.2 5.05 15.75 5.05 15.3 5.05 14.9 5.3 14.55 5.55 14.3 5.9 14.1 6.4 14.1 6.8 14.1 7.2 14.3 7.7 14.5 8.15 14.95 8.35 15.3 8.55 15.8 8.55 16.65 8.55 17.1 8.15
L 17.05 7.8
Q 16.65 8.05 16.5 8.1 16.2 8.25 15.85 8.25 15.55 8.25 15.15 8.05 14.9 7.9 14.7 7.55 14.5 7.3 14.5 6.9
L 17.3 6.9 17.3 6.7
Q 17.3 6.25 17.15 5.85 16.95 5.5 16.6 5.3
M 15.75 5.4
Q 16.3 5.4 16.6 5.7 16.9 6.1 16.9 6.55
L 14.5 6.55 14.65 6.05
Q 14.8 5.8 15.1 5.55 15.4 5.4 15.75 5.4
M 16.15 3.45
L 15.45 4.5 15.8 4.5 16.65 3.45 16.15 3.45 Z"/>
</g>

<g id="BDM_200x200_FR_psd_Asset_6_V7_3_jusqu_aux_habitudes__de_d_penses__des_clients__0_Layer0_0_MEMBER_22_FILL">
<path fill="#D82C26" stroke="none" d="
M 20.8 8.35
Q 21.15 8.15 21.4 7.7 21.6 7.2 21.6 6.8 21.6 6.45 21.4 5.95 21.2 5.55 20.8 5.3 20.4 5.05 19.95 5.05 19.55 5.05 19.15 5.3 18.75 5.55 18.6 5.9
L 18.55 5.9 18.55 5.15 18.15 5.15 18.15 10.15 18.6 10.15 18.6 7.75
Q 18.75 8.1 19.15 8.35 19.5 8.55 19.95 8.55 20.45 8.55 20.8 8.35
M 21 7.5
Q 20.9 7.8 20.55 8.05 20.25 8.2 19.9 8.2 19.5 8.2 19.2 8.05 18.85 7.8 18.75 7.5 18.55 7.25 18.55 6.8 18.55 6.45 18.75 6.1 18.9 5.85 19.2 5.6 19.6 5.4 19.9 5.4 20.15 5.4 20.55 5.6 20.85 5.85 21 6.1 21.15 6.5 21.15 6.8 21.15 7.2 21 7.5 Z"/>
</g>

<g id="BDM_200x200_FR_psd_Asset_6_V7_3_jusqu_aux_habitudes__de_d_penses__des_clients__0_Layer0_0_MEMBER_23_FILL">
<path fill="#D82C26" stroke="none" d="
M 23.05 5.3
Q 22.7 5.55 22.45 5.9 22.25 6.25 22.25 6.8 22.25 7.35 22.45 7.7 22.65 8.1 23.05 8.35 23.45 8.55 23.95 8.55 24.8 8.55 25.25 8.15
L 25.2 7.8
Q 24.8 8.05 24.65 8.1 24.35 8.25 24 8.25 23.7 8.25 23.3 8.05 23.05 7.9 22.85 7.55 22.65 7.3 22.65 6.9
L 25.45 6.9 25.45 6.7
Q 25.45 6.25 25.3 5.85 25.1 5.5 24.75 5.3 24.35 5.05 23.9 5.05 23.45 5.05 23.05 5.3
M 23.9 5.4
Q 24.4 5.4 24.75 5.7 25.05 6.1 25.05 6.55
L 22.65 6.55
Q 22.65 6.3 22.8 6.05 22.95 5.8 23.25 5.55 23.5 5.4 23.9 5.4 Z"/>
</g>

<g id="BDM_200x200_FR_psd_Asset_6_V7_3_jusqu_aux_habitudes__de_d_penses__des_clients__0_Layer0_0_MEMBER_24_FILL">
<path fill="#D82C26" stroke="none" d="
M 26.9 6.05
Q 27.05 5.7 27.3 5.6 27.5 5.4 27.85 5.4 28.35 5.4 28.55 5.75 28.75 6.15 28.75 6.55
L 28.75 8.45 29.15 8.45 29.15 6.45
Q 29.15 5.9 28.85 5.45 28.55 5.05 27.9 5.05 27.55 5.05 27.2 5.3 26.8 5.6 26.75 5.9
L 26.7 5.9 26.7 5.15 26.3 5.15 26.3 8.45 26.75 8.45 26.75 6.8
Q 26.75 6.35 26.9 6.05 Z"/>
</g>

<g id="BDM_200x200_FR_psd_Asset_6_V7_3_jusqu_aux_habitudes__de_d_penses__des_clients__0_Layer0_0_MEMBER_25_FILL">
<path fill="#D82C26" stroke="none" d="
M 31.1 5.05
L 30.55 5.15 30.15 5.5
Q 30 5.65 30 5.95 30 6.3 30.25 6.55 30.45 6.75 30.95 6.9
L 31.65 7.2
Q 31.85 7.35 31.85 7.6 31.85 7.9 31.65 8.05 31.45 8.25 31.1 8.25 30.5 8.25 30 7.85
L 29.95 8.2 30.45 8.45
Q 30.65 8.55 31.15 8.55 31.5 8.55 31.65 8.45 31.85 8.4 32.1 8.15 32.25 7.95 32.25 7.6 32.25 7.25 32 7 31.8 6.8 31.25 6.65 30.75 6.5 30.6 6.35 30.4 6.2 30.4 5.95 30.4 5.7 30.6 5.55 30.85 5.4 31.1 5.4 31.45 5.4 31.6 5.5
L 31.95 5.7 32.15 5.4 31.7 5.15 31.1 5.05 Z"/>
</g>

<g id="BDM_200x200_FR_psd_Asset_6_V7_3_jusqu_aux_habitudes__de_d_penses__des_clients__0_Layer0_0_MEMBER_26_FILL">
<path fill="#D82C26" stroke="none" d="
M 33.65 5.3
Q 33.3 5.55 33.05 5.9 32.85 6.25 32.85 6.8 32.85 7.35 33.05 7.7 33.25 8.1 33.65 8.35 34 8.55 34.55 8.55 35.4 8.55 35.85 8.15
L 35.8 7.8
Q 35.4 8.05 35.25 8.1 34.95 8.25 34.55 8.25 34.3 8.25 33.9 8.05 33.7 7.95 33.4 7.55 33.25 7.25 33.25 6.9
L 36.05 6.9 36.05 6.7
Q 36.05 6.2 35.85 5.85 35.75 5.6 35.35 5.3 34.95 5.05 34.5 5.05 34.05 5.05 33.65 5.3
M 34.5 5.4
Q 35 5.4 35.3 5.7 35.65 6.05 35.65 6.55
L 33.25 6.55
Q 33.25 6.3 33.4 6.05 33.55 5.8 33.85 5.55 34.1 5.4 34.5 5.4 Z"/>
</g>

<g id="BDM_200x200_FR_psd_Asset_6_V7_3_jusqu_aux_habitudes__de_d_penses__des_clients__0_Layer0_0_MEMBER_27_FILL">
<path fill="#D82C26" stroke="none" d="
M 36.85 5.5
Q 36.7 5.65 36.7 5.95 36.7 6.3 36.95 6.55 37.15 6.75 37.65 6.9
L 38.35 7.2
Q 38.55 7.35 38.55 7.6 38.55 7.9 38.35 8.05 38.15 8.25 37.8 8.25 37.2 8.25 36.7 7.85
L 36.65 8.2 37.15 8.45
Q 37.35 8.55 37.8 8.55 38.2 8.55 38.35 8.45 38.55 8.4 38.8 8.15 38.95 7.95 38.95 7.6 38.95 7.25 38.7 7 38.5 6.8 37.95 6.65 37.45 6.5 37.3 6.35 37.1 6.2 37.1 5.95 37.1 5.7 37.3 5.55 37.55 5.4 37.8 5.4 38.15 5.4 38.3 5.5
L 38.65 5.7 38.85 5.4 38.4 5.15 37.8 5.05 37.25 5.15
Q 36.95 5.35 36.85 5.5 Z"/>
</g>

<g id="BDM_200x200_FR_psd_Asset_6_V7_3_jusqu_aux_habitudes__de_d_penses__des_clients__0_Layer0_0_MEMBER_28_FILL">
<path fill="#D82C26" stroke="none" d="
M 3.8 11.5
L 3.4 11.6 3.4 14.35
Q 3.15 13.95 2.85 13.75 2.5 13.55 2.05 13.55 1.55 13.55 1.2 13.75 0.85 13.95 0.6 14.4 0.4 14.75 0.4 15.3 0.4 15.8 0.6 16.2 0.85 16.6 1.2 16.8 1.6 17.05 2.05 17.05 2.35 17.05 2.85 16.85 3.15 16.65 3.4 16.25
L 3.45 16.95 3.85 16.95 3.8 11.5
M 3.25 14.6
Q 3.4 14.9 3.4 15.3 3.4 15.7 3.25 16 3.1 16.25 2.8 16.5 2.55 16.7 2.1 16.7 1.65 16.7 1.4 16.5
L 0.95 16
Q 0.8 15.7 0.8 15.3 0.8 14.9 0.95 14.6
L 1.4 14.1
Q 1.65 13.9 2.1 13.9 2.55 13.9 2.8 14.1 3.05 14.25 3.25 14.6 Z"/>
</g>

<g id="BDM_200x200_FR_psd_Asset_6_V7_3_jusqu_aux_habitudes__de_d_penses__des_clients__0_Layer0_0_MEMBER_29_FILL">
<path fill="#D82C26" stroke="none" d="
M 7.9 15.15
Q 7.9 14.7 7.7 14.35 7.55 14 7.15 13.75 6.9 13.55 6.3 13.55 5.85 13.55 5.5 13.75 5.1 14 4.9 14.4 4.7 14.75 4.7 15.25 4.7 15.8 4.9 16.2 5.15 16.6 5.5 16.8 5.9 17.05 6.4 17.05 7.15 17.05 7.7 16.65
L 7.65 16.25 7.1 16.6 6.4 16.7
Q 6 16.7 5.75 16.5 5.5 16.35 5.25 16.05 5.1 15.75 5.1 15.35
L 7.9 15.35 7.9 15.15
M 7.5 15.05
L 5.1 15.05
Q 5.1 14.8 5.25 14.5
L 5.65 14.05
Q 5.9 13.85 6.3 13.85 6.85 13.85 7.15 14.2 7.5 14.5 7.5 15.05 Z"/>
</g>

<g id="BDM_200x200_FR_psd_Asset_6_V7_3_jusqu_aux_habitudes__de_d_penses__des_clients__0_Layer0_0_MEMBER_30_FILL">
<path fill="#D82C26" stroke="none" d="
M 9.65 13.55
Q 9.3 13.55 9.1 13.65 8.85 13.75 8.7 13.95 8.55 14.2 8.55 14.45 8.55 14.9 8.8 15 9 15.2 9.5 15.4
L 10.2 15.7
Q 10.4 15.9 10.4 16.1 10.4 16.35 10.2 16.55 10 16.7 9.65 16.7 8.95 16.7 8.55 16.3
L 8.5 16.65
Q 8.55 16.75 9 16.95
L 9.65 17.05 10.2 16.95
Q 10.55 16.8 10.65 16.6 10.8 16.4 10.8 16.1 10.8 15.75 10.55 15.5 10.35 15.3 9.8 15.1
L 9.1 14.8
Q 8.95 14.65 8.95 14.4 8.95 14.15 9.15 14 9.4 13.85 9.65 13.85
L 10.1 13.95 10.5 14.2 10.7 13.9 10.25 13.65
Q 10.05 13.55 9.65 13.55 Z"/>
</g>

<g id="BDM_200x200_FR_psd_Asset_6_V7_3_jusqu_aux_habitudes__de_d_penses__des_clients__0_Layer0_0_MEMBER_31_FILL">
<path fill="#D82C26" stroke="none" d="
M 15.35 14.25
L 15.55 13.95
Q 15.3 13.7 15.05 13.65 14.85 13.55 14.4 13.55 13.9 13.55 13.5 13.75 13.1 14 12.9 14.4 12.65 14.8 12.65 15.3 12.65 15.8 12.9 16.2 13.15 16.6 13.5 16.8 13.9 17.05 14.4 17.05
L 15.05 16.95 15.55 16.65 15.45 16.3 15 16.6 14.45 16.7
Q 14.15 16.7 13.75 16.5 13.35 16.2 13.25 16 13.1 15.7 13.1 15.3 13.1 14.9 13.25 14.6 13.4 14.25 13.75 14.1 14 13.9 14.4 13.9 14.75 13.9 14.95 14
L 15.35 14.25 Z"/>
</g>

<g id="BDM_200x200_FR_psd_Asset_6_V7_3_jusqu_aux_habitudes__de_d_penses__des_clients__0_Layer0_0_MEMBER_32_FILL">
<path fill="#D82C26" stroke="none" d="
M 16.35 16.75
L 16.75 17 16.95 16.7 16.7 16.5 16.65 16.1 16.65 11.55 16.2 11.65 16.2 16.2
Q 16.2 16.55 16.35 16.75 Z"/>
</g>

<g id="BDM_200x200_FR_psd_Asset_6_V7_3_jusqu_aux_habitudes__de_d_penses__des_clients__0_Layer0_0_MEMBER_33_FILL">
<path fill="#D82C26" stroke="none" d="
M 17.75 13.65
L 17.75 16.95 18.15 16.95 18.15 13.65 17.75 13.65
M 17.75 12.1
L 17.65 12.3 17.75 12.55 17.95 12.6 18.15 12.55 18.25 12.3 18.15 12.1 17.95 12 17.75 12.1 Z"/>
</g>

<g id="BDM_200x200_FR_psd_Asset_6_V7_3_jusqu_aux_habitudes__de_d_penses__des_clients__0_Layer0_0_MEMBER_34_FILL">
<path fill="#D82C26" stroke="none" d="
M 22.25 15.35
L 22.25 15.15
Q 22.25 14.85 22.05 14.35 21.9 14 21.5 13.75 21.15 13.55 20.65 13.55 20.15 13.55 19.8 13.75 19.45 14 19.25 14.4 19 14.8 19 15.25 19 15.7 19.25 16.2 19.5 16.6 19.85 16.8 20.25 17.05 20.7 17.05 21.4 17.05 22.05 16.65
L 21.95 16.25 21.45 16.6 20.75 16.7
Q 20.3 16.7 20.05 16.5 19.75 16.35 19.6 16.05
L 19.4 15.35 22.25 15.35
M 21.5 14.2
Q 21.85 14.55 21.85 15.05
L 19.45 15.05
Q 19.45 14.8 19.6 14.5 19.85 14.15 20 14.05 20.25 13.85 20.65 13.85 21.2 13.85 21.5 14.2 Z"/>
</g>

<g id="BDM_200x200_FR_psd_Asset_6_V7_3_jusqu_aux_habitudes__de_d_penses__des_clients__0_Layer0_0_MEMBER_35_FILL">
<path fill="#D82C26" stroke="none" d="
M 25.9 14.95
Q 25.9 14.35 25.6 13.95 25.35 13.55 24.7 13.55 24.3 13.55 23.95 13.75 23.65 14 23.5 14.35
L 23.45 13.65 23.05 13.65 23.1 16.95 23.5 16.95 23.5 15.25 23.65 14.5
Q 23.8 14.25 24.05 14.05 24.3 13.9 24.6 13.9 25.1 13.9 25.3 14.2 25.5 14.55 25.5 15.05
L 25.5 16.95 25.9 16.95 25.9 14.95 Z"/>
</g>

<g id="BDM_200x200_FR_psd_Asset_6_V7_3_jusqu_aux_habitudes__de_d_penses__des_clients__0_Layer0_0_MEMBER_36_FILL">
<path fill="#D82C26" stroke="none" d="
M 28.3 13.95
L 28.4 13.65 27.45 13.65 27.45 12.7 27.05 12.85 27.05 13.65 26.5 13.65 26.4 13.95 27.05 13.95 27.05 16.15
Q 27.05 16.6 27.25 16.8 27.45 17 27.8 17
L 28.2 16.95 28.5 16.85 28.45 16.55 27.95 16.7
Q 27.7 16.7 27.6 16.55 27.45 16.4 27.45 16.1
L 27.45 13.95 28.3 13.95 Z"/>
</g>

<g id="BDM_200x200_FR_psd_Asset_6_V7_3_jusqu_aux_habitudes__de_d_penses__des_clients__0_Layer0_0_MEMBER_37_FILL">
<path fill="#D82C26" stroke="none" d="
M 30.15 13.55
Q 29.8 13.55 29.65 13.65 29.35 13.75 29.2 13.95 29.05 14.2 29.05 14.45 29.05 14.85 29.3 15 29.4 15.1 30 15.4
L 30.7 15.7
Q 30.9 15.85 30.9 16.1 30.9 16.4 30.7 16.55 30.5 16.7 30.15 16.7 29.45 16.7 29.05 16.3
L 29 16.65
Q 29.1 16.75 29.5 16.95
L 30.2 17.05 30.75 16.95 31.15 16.6
Q 31.3 16.4 31.3 16.1 31.3 15.75 31.05 15.5 30.8 15.25 30.3 15.1 29.8 14.95 29.65 14.8 29.45 14.65 29.45 14.4 29.45 14.15 29.65 14 29.9 13.85 30.15 13.85
L 30.65 13.95 31.05 14.2 31.2 13.9
Q 31 13.7 30.75 13.65 30.55 13.55 30.15 13.55 Z"/>
</g>

<g id="BDM_200x200_FR_psd_Asset_6_V7_3_jusqu_aux_habitudes__de_d_penses__des_clients__0_Layer0_0_MEMBER_38_FILL">
<path fill="#D82C26" stroke="none" d="
M 32.2 16.9
L 32.4 17 32.65 16.9 32.75 16.65 32.65 16.45 32.4 16.35 32.2 16.45 32.1 16.65 32.2 16.9 Z"/>
</g>
</defs>

<g transform="matrix( 1, 0, 0, 1, -155,-10) ">
<g transform="matrix( 1, 0, 0, 1, 147,22) ">
<g transform="matrix( 1, 0, 0, 1, 24,5) ">
<g transform="matrix( 2.815704345703125, 0, 0, 2.832611083984375, 0.15,15.6) ">
<use xlink:href="#BDM_200x200_FR_psd_Asset_6_V7_3_jusqu_aux_habitudes__de_d_penses__des_clients__0_Layer0_0_MEMBER_0_FILL"/>
</g>

<g transform="matrix( 2.815704345703125, 0, 0, 2.832611083984375, 0.15,15.6) ">
<use xlink:href="#BDM_200x200_FR_psd_Asset_6_V7_3_jusqu_aux_habitudes__de_d_penses__des_clients__0_Layer0_0_MEMBER_1_FILL"/>
</g>

<g transform="matrix( 2.815704345703125, 0, 0, 2.832611083984375, 0.15,15.6) ">
<use xlink:href="#BDM_200x200_FR_psd_Asset_6_V7_3_jusqu_aux_habitudes__de_d_penses__des_clients__0_Layer0_0_MEMBER_2_FILL"/>
</g>

<g transform="matrix( 2.815704345703125, 0, 0, 2.832611083984375, 0.15,15.6) ">
<use xlink:href="#BDM_200x200_FR_psd_Asset_6_V7_3_jusqu_aux_habitudes__de_d_penses__des_clients__0_Layer0_0_MEMBER_3_FILL"/>
</g>

<g transform="matrix( 2.815704345703125, 0, 0, 2.832611083984375, 0.15,15.6) ">
<use xlink:href="#BDM_200x200_FR_psd_Asset_6_V7_3_jusqu_aux_habitudes__de_d_penses__des_clients__0_Layer0_0_MEMBER_4_FILL"/>
</g>

<g transform="matrix( 2.815704345703125, 0, 0, 2.832611083984375, 0.15,15.6) ">
<use xlink:href="#BDM_200x200_FR_psd_Asset_6_V7_3_jusqu_aux_habitudes__de_d_penses__des_clients__0_Layer0_0_MEMBER_5_FILL"/>
</g>

<g transform="matrix( 2.815704345703125, 0, 0, 2.832611083984375, 0.15,15.6) ">
<use xlink:href="#BDM_200x200_FR_psd_Asset_6_V7_3_jusqu_aux_habitudes__de_d_penses__des_clients__0_Layer0_0_MEMBER_6_FILL"/>
</g>

<g transform="matrix( 2.815704345703125, 0, 0, 2.832611083984375, 0.15,15.6) ">
<use xlink:href="#BDM_200x200_FR_psd_Asset_6_V7_3_jusqu_aux_habitudes__de_d_penses__des_clients__0_Layer0_0_MEMBER_7_FILL"/>
</g>

<g transform="matrix( 2.815704345703125, 0, 0, 2.832611083984375, 0.15,15.6) ">
<use xlink:href="#BDM_200x200_FR_psd_Asset_6_V7_3_jusqu_aux_habitudes__de_d_penses__des_clients__0_Layer0_0_MEMBER_8_FILL"/>
</g>

<g transform="matrix( 2.815704345703125, 0, 0, 2.832611083984375, 0.15,15.6) ">
<use xlink:href="#BDM_200x200_FR_psd_Asset_6_V7_3_jusqu_aux_habitudes__de_d_penses__des_clients__0_Layer0_0_MEMBER_9_FILL"/>
</g>

<g transform="matrix( 2.815704345703125, 0, 0, 2.832611083984375, 0.15,15.6) ">
<use xlink:href="#BDM_200x200_FR_psd_Asset_6_V7_3_jusqu_aux_habitudes__de_d_penses__des_clients__0_Layer0_0_MEMBER_10_FILL"/>
</g>

<g transform="matrix( 2.815704345703125, 0, 0, 2.832611083984375, 0.15,15.6) ">
<use xlink:href="#BDM_200x200_FR_psd_Asset_6_V7_3_jusqu_aux_habitudes__de_d_penses__des_clients__0_Layer0_0_MEMBER_11_FILL"/>
</g>

<g transform="matrix( 2.815704345703125, 0, 0, 2.832611083984375, 0.15,15.6) ">
<use xlink:href="#BDM_200x200_FR_psd_Asset_6_V7_3_jusqu_aux_habitudes__de_d_penses__des_clients__0_Layer0_0_MEMBER_12_FILL"/>
</g>

<g transform="matrix( 2.815704345703125, 0, 0, 2.832611083984375, 0.15,15.6) ">
<use xlink:href="#BDM_200x200_FR_psd_Asset_6_V7_3_jusqu_aux_habitudes__de_d_penses__des_clients__0_Layer0_0_MEMBER_13_FILL"/>
</g>

<g transform="matrix( 2.815704345703125, 0, 0, 2.832611083984375, 0.15,15.6) ">
<use xlink:href="#BDM_200x200_FR_psd_Asset_6_V7_3_jusqu_aux_habitudes__de_d_penses__des_clients__0_Layer0_0_MEMBER_14_FILL"/>
</g>

<g transform="matrix( 2.815704345703125, 0, 0, 2.832611083984375, 0.15,15.6) ">
<use xlink:href="#BDM_200x200_FR_psd_Asset_6_V7_3_jusqu_aux_habitudes__de_d_penses__des_clients__0_Layer0_0_MEMBER_15_FILL"/>
</g>

<g transform="matrix( 2.815704345703125, 0, 0, 2.832611083984375, 0.15,15.6) ">
<use xlink:href="#BDM_200x200_FR_psd_Asset_6_V7_3_jusqu_aux_habitudes__de_d_penses__des_clients__0_Layer0_0_MEMBER_16_FILL"/>
</g>

<g transform="matrix( 2.815704345703125, 0, 0, 2.832611083984375, 0.15,15.6) ">
<use xlink:href="#BDM_200x200_FR_psd_Asset_6_V7_3_jusqu_aux_habitudes__de_d_penses__des_clients__0_Layer0_0_MEMBER_17_FILL"/>
</g>

<g transform="matrix( 2.815704345703125, 0, 0, 2.832611083984375, 0.15,15.6) ">
<use xlink:href="#BDM_200x200_FR_psd_Asset_6_V7_3_jusqu_aux_habitudes__de_d_penses__des_clients__0_Layer0_0_MEMBER_18_FILL"/>
</g>

<g transform="matrix( 2.815704345703125, 0, 0, 2.832611083984375, 0.15,15.6) ">
<use xlink:href="#BDM_200x200_FR_psd_Asset_6_V7_3_jusqu_aux_habitudes__de_d_penses__des_clients__0_Layer0_0_MEMBER_19_FILL"/>
</g>

<g transform="matrix( 2.815704345703125, 0, 0, 2.832611083984375, 0.15,15.6) ">
<use xlink:href="#BDM_200x200_FR_psd_Asset_6_V7_3_jusqu_aux_habitudes__de_d_penses__des_clients__0_Layer0_0_MEMBER_20_FILL"/>
</g>

<g transform="matrix( 2.815704345703125, 0, 0, 2.832611083984375, 0.15,15.6) ">
<use xlink:href="#BDM_200x200_FR_psd_Asset_6_V7_3_jusqu_aux_habitudes__de_d_penses__des_clients__0_Layer0_0_MEMBER_21_FILL"/>
</g>

<g transform="matrix( 2.815704345703125, 0, 0, 2.832611083984375, 0.15,15.6) ">
<use xlink:href="#BDM_200x200_FR_psd_Asset_6_V7_3_jusqu_aux_habitudes__de_d_penses__des_clients__0_Layer0_0_MEMBER_22_FILL"/>
</g>

<g transform="matrix( 2.815704345703125, 0, 0, 2.832611083984375, 0.15,15.6) ">
<use xlink:href="#BDM_200x200_FR_psd_Asset_6_V7_3_jusqu_aux_habitudes__de_d_penses__des_clients__0_Layer0_0_MEMBER_23_FILL"/>
</g>

<g transform="matrix( 2.815704345703125, 0, 0, 2.832611083984375, 0.15,15.6) ">
<use xlink:href="#BDM_200x200_FR_psd_Asset_6_V7_3_jusqu_aux_habitudes__de_d_penses__des_clients__0_Layer0_0_MEMBER_24_FILL"/>
</g>

<g transform="matrix( 2.815704345703125, 0, 0, 2.832611083984375, 0.15,15.6) ">
<use xlink:href="#BDM_200x200_FR_psd_Asset_6_V7_3_jusqu_aux_habitudes__de_d_penses__des_clients__0_Layer0_0_MEMBER_25_FILL"/>
</g>

<g transform="matrix( 2.815704345703125, 0, 0, 2.832611083984375, 0.15,15.6) ">
<use xlink:href="#BDM_200x200_FR_psd_Asset_6_V7_3_jusqu_aux_habitudes__de_d_penses__des_clients__0_Layer0_0_MEMBER_26_FILL"/>
</g>

<g transform="matrix( 2.815704345703125, 0, 0, 2.832611083984375, 0.15,15.6) ">
<use xlink:href="#BDM_200x200_FR_psd_Asset_6_V7_3_jusqu_aux_habitudes__de_d_penses__des_clients__0_Layer0_0_MEMBER_27_FILL"/>
</g>

<g transform="matrix( 2.815704345703125, 0, 0, 2.832611083984375, 0.15,15.6) ">
<use xlink:href="#BDM_200x200_FR_psd_Asset_6_V7_3_jusqu_aux_habitudes__de_d_penses__des_clients__0_Layer0_0_MEMBER_28_FILL"/>
</g>

<g transform="matrix( 2.815704345703125, 0, 0, 2.832611083984375, 0.15,15.6) ">
<use xlink:href="#BDM_200x200_FR_psd_Asset_6_V7_3_jusqu_aux_habitudes__de_d_penses__des_clients__0_Layer0_0_MEMBER_29_FILL"/>
</g>

<g transform="matrix( 2.815704345703125, 0, 0, 2.832611083984375, 0.15,15.6) ">
<use xlink:href="#BDM_200x200_FR_psd_Asset_6_V7_3_jusqu_aux_habitudes__de_d_penses__des_clients__0_Layer0_0_MEMBER_30_FILL"/>
</g>

<g transform="matrix( 2.815704345703125, 0, 0, 2.832611083984375, 0.15,15.6) ">
<use xlink:href="#BDM_200x200_FR_psd_Asset_6_V7_3_jusqu_aux_habitudes__de_d_penses__des_clients__0_Layer0_0_MEMBER_31_FILL"/>
</g>

<g transform="matrix( 2.815704345703125, 0, 0, 2.832611083984375, 0.15,15.6) ">
<use xlink:href="#BDM_200x200_FR_psd_Asset_6_V7_3_jusqu_aux_habitudes__de_d_penses__des_clients__0_Layer0_0_MEMBER_32_FILL"/>
</g>

<g transform="matrix( 2.815704345703125, 0, 0, 2.832611083984375, 0.15,15.6) ">
<use xlink:href="#BDM_200x200_FR_psd_Asset_6_V7_3_jusqu_aux_habitudes__de_d_penses__des_clients__0_Layer0_0_MEMBER_33_FILL"/>
</g>

<g transform="matrix( 2.815704345703125, 0, 0, 2.832611083984375, 0.15,15.6) ">
<use xlink:href="#BDM_200x200_FR_psd_Asset_6_V7_3_jusqu_aux_habitudes__de_d_penses__des_clients__0_Layer0_0_MEMBER_34_FILL"/>
</g>

<g transform="matrix( 2.815704345703125, 0, 0, 2.832611083984375, 0.15,15.6) ">
<use xlink:href="#BDM_200x200_FR_psd_Asset_6_V7_3_jusqu_aux_habitudes__de_d_penses__des_clients__0_Layer0_0_MEMBER_35_FILL"/>
</g>

<g transform="matrix( 2.815704345703125, 0, 0, 2.832611083984375, 0.15,15.6) ">
<use xlink:href="#BDM_200x200_FR_psd_Asset_6_V7_3_jusqu_aux_habitudes__de_d_penses__des_clients__0_Layer0_0_MEMBER_36_FILL"/>
</g>

<g transform="matrix( 2.815704345703125, 0, 0, 2.832611083984375, 0.15,15.6) ">
<use xlink:href="#BDM_200x200_FR_psd_Asset_6_V7_3_jusqu_aux_habitudes__de_d_penses__des_clients__0_Layer0_0_MEMBER_37_FILL"/>
</g>

<g transform="matrix( 2.815704345703125, 0, 0, 2.832611083984375, 0.15,15.6) ">
<use xlink:href="#BDM_200x200_FR_psd_Asset_6_V7_3_jusqu_aux_habitudes__de_d_penses__des_clients__0_Layer0_0_MEMBER_38_FILL"/>
</g>
</g>
</g>
</g>
</svg>
