
<svg xmlns="http://www.w3.org/2000/svg" version="1.1" xmlns:xlink="http://www.w3.org/1999/xlink" preserveAspectRatio="none" x="0px" y="0px" width="160px" height="600px" viewBox="0 0 160 600">
<defs>
<g id="BDM_160x600_FR_psd_Asset_9_V8_2_Exploitez_la__puissance_du__r_seau_Wi_Fi__pour_favoriser__des_p_0_Layer0_0_MEMBER_0_FILL">
<path fill="#D82C26" stroke="none" d="
M 3.3 -4.6
L 3.35 -5 0.7 -5 0.7 0 3.4 0 3.45 -0.4 1.1 -0.4 1.1 -2.4 3.1 -2.4 3.2 -2.75 1.1 -2.75 1.1 -4.6 3.3 -4.6 Z"/>
</g>

<g id="BDM_160x600_FR_psd_Asset_9_V8_2_Exploitez_la__puissance_du__r_seau_Wi_Fi__pour_favoriser__des_p_0_Layer0_0_MEMBER_1_FILL">
<path fill="#D82C26" stroke="none" d="
M 4 -3.3
L 5.15 -1.75 3.85 0 4.35 0 5.4 -1.45 6.5 0 7 0 5.7 -1.75 6.85 -3.3 6.35 -3.3 5.4 -2 4.5 -3.3 4 -3.3 Z"/>
</g>

<g id="BDM_160x600_FR_psd_Asset_9_V8_2_Exploitez_la__puissance_du__r_seau_Wi_Fi__pour_favoriser__des_p_0_Layer0_0_MEMBER_2_FILL">
<path fill="#D82C26" stroke="none" d="
M 9.3 -3.4
Q 8.85 -3.4 8.5 -3.2 8.15 -2.95 7.95 -2.6
L 7.9 -3.3 7.5 -3.3 7.55 -2.7 7.55 1.7 7.95 1.7 7.95 -0.7
Q 8.15 -0.35 8.5 -0.1 9 0.1 9.3 0.1 9.75 0.1 10.15 -0.15 10.55 -0.35 10.75 -0.75 10.95 -1.15 10.95 -1.65 10.95 -2.2 10.75 -2.55 10.55 -2.9 10.15 -3.15 9.85 -3.4 9.3 -3.4
M 9.25 -3.05
Q 9.7 -3.05 9.95 -2.85 10.2 -2.7 10.4 -2.35 10.55 -2.05 10.55 -1.65 10.55 -1.25 10.4 -0.95 10.2 -0.6 9.95 -0.45 9.7 -0.25 9.25 -0.25 8.85 -0.25 8.6 -0.45 8.25 -0.6 8.1 -0.95 7.95 -1.25 7.95 -1.65 7.95 -2.05 8.1 -2.35 8.25 -2.7 8.6 -2.85 8.85 -3.05 9.25 -3.05 Z"/>
</g>

<g id="BDM_160x600_FR_psd_Asset_9_V8_2_Exploitez_la__puissance_du__r_seau_Wi_Fi__pour_favoriser__des_p_0_Layer0_0_MEMBER_3_FILL">
<path fill="#D82C26" stroke="none" d="
M 11.7 -0.75
Q 11.7 -0.4 11.85 -0.2 11.9 -0.15 12.25 0.1
L 12.45 -0.25
Q 12.4 -0.25 12.2 -0.45
L 12.15 -0.85 12.15 -5.4 11.7 -5.3 11.7 -0.75 Z"/>
</g>

<g id="BDM_160x600_FR_psd_Asset_9_V8_2_Exploitez_la__puissance_du__r_seau_Wi_Fi__pour_favoriser__des_p_0_Layer0_0_MEMBER_4_FILL">
<path fill="#D82C26" stroke="none" d="
M 14.65 -3.4
Q 14.1 -3.4 13.75 -3.2 13.3 -2.9 13.1 -2.55 12.9 -2.2 12.9 -1.65 12.9 -1.1 13.1 -0.75 13.3 -0.4 13.75 -0.15 14.15 0.1 14.65 0.1 15.15 0.1 15.55 -0.15 16 -0.4 16.2 -0.75 16.4 -1.1 16.4 -1.65 16.4 -2.2 16.2 -2.55 16 -2.9 15.55 -3.2 15.2 -3.4 14.65 -3.4
M 13.95 -2.85
Q 14.2 -3.05 14.65 -3.05 15.1 -3.05 15.35 -2.85 15.65 -2.7 15.85 -2.35 16 -2.05 16 -1.65 16 -1.25 15.85 -0.95 15.55 -0.55 15.35 -0.45 15.1 -0.25 14.65 -0.25 14.2 -0.25 13.95 -0.45 13.6 -0.6 13.45 -0.95 13.3 -1.25 13.3 -1.65 13.3 -2.05 13.45 -2.35 13.6 -2.65 13.95 -2.85 Z"/>
</g>

<g id="BDM_160x600_FR_psd_Asset_9_V8_2_Exploitez_la__puissance_du__r_seau_Wi_Fi__pour_favoriser__des_p_0_Layer0_0_MEMBER_5_FILL">
<path fill="#D82C26" stroke="none" d="
M 17.55 -3.3
L 17.15 -3.3 17.15 0 17.55 0 17.55 -3.3
M 17.65 -4.65
L 17.55 -4.85 17.35 -4.95 17.15 -4.85 17.05 -4.65 17.15 -4.4 17.35 -4.35 17.55 -4.4 17.65 -4.65 Z"/>
</g>

<g id="BDM_160x600_FR_psd_Asset_9_V8_2_Exploitez_la__puissance_du__r_seau_Wi_Fi__pour_favoriser__des_p_0_Layer0_0_MEMBER_6_FILL">
<path fill="#D82C26" stroke="none" d="
M 18.7 -3.3
L 18.15 -3.3 18.05 -3 18.7 -3 18.7 -0.8
Q 18.7 -0.35 18.9 -0.15 19.1 0.05 19.45 0.05
L 19.85 0 20.15 -0.1 20.1 -0.4 19.6 -0.25
Q 19.35 -0.25 19.25 -0.4 19.1 -0.55 19.1 -0.85
L 19.1 -3 19.95 -3 20.05 -3.3 19.1 -3.3 19.1 -4.25 18.7 -4.1 18.7 -3.3 Z"/>
</g>

<g id="BDM_160x600_FR_psd_Asset_9_V8_2_Exploitez_la__puissance_du__r_seau_Wi_Fi__pour_favoriser__des_p_0_Layer0_0_MEMBER_7_FILL">
<path fill="#D82C26" stroke="none" d="
M 21.95 -3.4
Q 21.5 -3.4 21.15 -3.2 20.75 -2.95 20.55 -2.55 20.35 -2.2 20.35 -1.65 20.35 -1.1 20.55 -0.75 20.8 -0.35 21.15 -0.15 21.55 0.1 22.05 0.1 22.8 0.1 23.35 -0.3
L 23.3 -0.65 22.75 -0.35 22.05 -0.25
Q 21.7 -0.25 21.4 -0.4
L 20.9 -0.9
Q 20.75 -1.2 20.75 -1.6
L 23.55 -1.6 23.55 -1.75
Q 23.55 -2.25 23.35 -2.6 23.2 -2.9 22.85 -3.2 22.5 -3.4 21.95 -3.4
M 20.75 -1.9
L 20.9 -2.45 21.35 -2.9
Q 21.65 -3.1 21.95 -3.1 22.5 -3.1 22.8 -2.75 23.15 -2.45 23.15 -1.9
L 20.75 -1.9 Z"/>
</g>

<g id="BDM_160x600_FR_psd_Asset_9_V8_2_Exploitez_la__puissance_du__r_seau_Wi_Fi__pour_favoriser__des_p_0_Layer0_0_MEMBER_8_FILL">
<path fill="#D82C26" stroke="none" d="
M 25.95 -3
L 23.95 -0.3 23.95 0 26.5 0 26.6 -0.35 24.45 -0.35 26.45 -3 26.45 -3.3 24.05 -3.3 23.95 -3 25.95 -3 Z"/>
</g>

<g id="BDM_160x600_FR_psd_Asset_9_V8_2_Exploitez_la__puissance_du__r_seau_Wi_Fi__pour_favoriser__des_p_0_Layer0_0_MEMBER_9_FILL">
<path fill="#D82C26" stroke="none" d="
M 28.4 -0.75
Q 28.4 -0.4 28.55 -0.2 28.65 -0.05 28.95 0.1
L 29.1 -0.25 28.9 -0.45
Q 28.8 -0.65 28.8 -0.85
L 28.8 -5.4 28.4 -5.3 28.4 -0.75 Z"/>
</g>

<g id="BDM_160x600_FR_psd_Asset_9_V8_2_Exploitez_la__puissance_du__r_seau_Wi_Fi__pour_favoriser__des_p_0_Layer0_0_MEMBER_10_FILL">
<path fill="#D82C26" stroke="none" d="
M 29.6 -0.9
Q 29.6 -0.35 29.9 -0.15 30.25 0.1 30.65 0.1 31.05 0.1 31.4 -0.1 31.7 -0.25 31.85 -0.65
L 31.9 -0.65 31.9 -0.3 31.95 0 32.3 0 32.25 -2.15
Q 32.25 -2.8 31.95 -3.1 31.6 -3.4 31 -3.4
L 30.35 -3.3
Q 30 -3.2 29.75 -3
L 29.9 -2.65
Q 30.05 -2.85 30.4 -2.95 30.65 -3.1 30.95 -3.1 31.3 -3.1 31.65 -2.85 31.9 -2.6 31.9 -2.15
L 31.9 -2 31.5 -2
Q 29.6 -2 29.6 -0.9
M 30.2 -0.4
Q 30 -0.55 30 -0.9 30 -1.7 31.55 -1.7
L 31.9 -1.7 31.9 -1.4
Q 31.9 -1.05 31.75 -0.85 31.6 -0.5 31.35 -0.4 31.05 -0.2 30.7 -0.2 30.4 -0.2 30.2 -0.4 Z"/>
</g>

<g id="BDM_160x600_FR_psd_Asset_9_V8_2_Exploitez_la__puissance_du__r_seau_Wi_Fi__pour_favoriser__des_p_0_Layer0_0_MEMBER_11_FILL">
<path fill="#D82C26" stroke="none" d="
M 2.4 5.05
Q 2 5.05 1.65 5.3 1.25 5.55 1.1 5.9
L 1.05 5.9 1.05 5.15 0.65 5.15 0.65 10.15 1.05 10.15 1.05 7.75 1.1 7.75
Q 1.25 8.1 1.65 8.35 2 8.55 2.4 8.55 2.95 8.55 3.3 8.35 3.7 8.1 3.85 7.7 4.1 7.3 4.1 6.8 4.1 6.35 3.85 5.95 3.7 5.55 3.3 5.3 2.9 5.05 2.4 5.05
M 1.7 5.6
Q 2.1 5.4 2.35 5.4 2.65 5.4 3.05 5.6 3.35 5.85 3.5 6.1 3.65 6.5 3.65 6.8 3.65 7.2 3.5 7.5 3.4 7.8 3.05 8.05 2.75 8.2 2.35 8.2 2 8.2 1.7 8.05 1.4 7.8 1.2 7.5 1.05 7.2 1.05 6.8 1.05 6.5 1.2 6.1
L 1.7 5.6 Z"/>
</g>

<g id="BDM_160x600_FR_psd_Asset_9_V8_2_Exploitez_la__puissance_du__r_seau_Wi_Fi__pour_favoriser__des_p_0_Layer0_0_MEMBER_12_FILL">
<path fill="#D82C26" stroke="none" d="
M 7.6 5.15
L 7.2 5.15 7.2 6.8
Q 7.2 7.25 7.05 7.55 6.9 7.95 6.65 8.05 6.35 8.25 6.1 8.25 5.65 8.25 5.4 7.9 5.2 7.65 5.2 7.05
L 5.2 5.15 4.8 5.15 4.8 7.2
Q 4.8 7.8 5.1 8.15 5.35 8.55 6 8.55 6.4 8.55 6.75 8.35 7.05 8.15 7.2 7.75
L 7.25 8.5 7.7 8.45 7.6 7.7 7.6 5.15 Z"/>
</g>

<g id="BDM_160x600_FR_psd_Asset_9_V8_2_Exploitez_la__puissance_du__r_seau_Wi_Fi__pour_favoriser__des_p_0_Layer0_0_MEMBER_13_FILL">
<path fill="#D82C26" stroke="none" d="
M 9 5.15
L 8.6 5.15 8.6 8.45 9 8.45 9 5.15
M 9 4.05
Q 9.1 4 9.1 3.85 9.1 3.7 9 3.65 8.95 3.55 8.8 3.55 8.65 3.55 8.6 3.65
L 8.5 3.85 8.6 4.05 8.8 4.15 9 4.05 Z"/>
</g>

<g id="BDM_160x600_FR_psd_Asset_9_V8_2_Exploitez_la__puissance_du__r_seau_Wi_Fi__pour_favoriser__des_p_0_Layer0_0_MEMBER_14_FILL">
<path fill="#D82C26" stroke="none" d="
M 10.9 5.05
L 10.35 5.15
Q 10.05 5.35 9.95 5.5 9.8 5.65 9.8 5.95 9.8 6.35 10 6.55 10.3 6.75 10.75 6.9
L 11.4 7.2
Q 11.65 7.35 11.65 7.6 11.65 7.9 11.4 8.05 11.2 8.25 10.9 8.25 10.3 8.25 9.8 7.85
L 9.7 8.2 10.25 8.45
Q 10.45 8.55 10.9 8.55 11.3 8.55 11.45 8.45 11.6 8.4 11.85 8.15 12.05 7.95 12.05 7.6 12.05 7.25 11.8 7 11.55 6.8 11 6.65
L 10.35 6.35
Q 10.2 6.2 10.2 5.95 10.2 5.7 10.4 5.55 10.55 5.4 10.9 5.4 11.2 5.4 11.35 5.5
L 11.75 5.7 11.95 5.4 11.45 5.15 10.9 5.05 Z"/>
</g>

<g id="BDM_160x600_FR_psd_Asset_9_V8_2_Exploitez_la__puissance_du__r_seau_Wi_Fi__pour_favoriser__des_p_0_Layer0_0_MEMBER_15_FILL">
<path fill="#D82C26" stroke="none" d="
M 13.15 5.15
Q 12.9 5.3 12.75 5.5 12.55 5.65 12.55 5.95 12.55 6.3 12.8 6.55 13 6.75 13.5 6.9
L 14.2 7.2
Q 14.4 7.35 14.4 7.6 14.4 7.9 14.2 8.05 14 8.25 13.7 8.25 13.1 8.25 12.6 7.85
L 12.5 8.2 13 8.45
Q 13.25 8.55 13.7 8.55 14.05 8.55 14.25 8.45 14.4 8.4 14.65 8.15 14.8 7.95 14.8 7.6 14.8 7.2 14.55 7 14.35 6.8 13.8 6.65 13.3 6.5 13.15 6.35 12.95 6.2 12.95 5.95 12.95 5.75 13.15 5.55 13.4 5.4 13.7 5.4 14 5.4 14.15 5.5
L 14.55 5.7 14.7 5.4 14.25 5.15 13.65 5.05 13.15 5.15 Z"/>
</g>

<g id="BDM_160x600_FR_psd_Asset_9_V8_2_Exploitez_la__puissance_du__r_seau_Wi_Fi__pour_favoriser__des_p_0_Layer0_0_MEMBER_16_FILL">
<path fill="#D82C26" stroke="none" d="
M 16.7 5.4
Q 17.15 5.4 17.4 5.6 17.65 5.95 17.65 6.3
L 17.65 6.5 17.25 6.5
Q 15.35 6.5 15.35 7.6 15.35 8.1 15.65 8.3 15.9 8.55 16.4 8.55
L 17.15 8.4
Q 17.45 8.2 17.6 7.85
L 17.65 7.85 17.65 8.15 17.7 8.45 18.05 8.45 18 6.35
Q 18 5.7 17.7 5.4 17.35 5.05 16.75 5.05
L 16.1 5.15
Q 15.7 5.3 15.5 5.5
L 15.65 5.8 16.15 5.5 16.7 5.4
M 17.65 7.1
Q 17.65 7.35 17.5 7.65 17.3 7.95 17.1 8.1 16.9 8.25 16.45 8.25 16.2 8.25 15.95 8.1 15.75 7.95 15.75 7.55 15.75 6.75 17.3 6.75
L 17.65 6.75 17.65 7.1 Z"/>
</g>

<g id="BDM_160x600_FR_psd_Asset_9_V8_2_Exploitez_la__puissance_du__r_seau_Wi_Fi__pour_favoriser__des_p_0_Layer0_0_MEMBER_17_FILL">
<path fill="#D82C26" stroke="none" d="
M 21.5 5.45
Q 21.2 5.05 20.55 5.05 20.2 5.05 19.85 5.3 19.5 5.5 19.35 5.9
L 19.3 5.15 18.95 5.15 18.95 8.45 19.35 8.45 19.35 6.8
Q 19.35 6.35 19.5 6.05 19.65 5.8 19.9 5.6 20.15 5.4 20.5 5.4 21 5.4 21.15 5.75 21.35 6 21.35 6.55
L 21.35 8.45 21.8 8.45 21.8 6.45
Q 21.8 5.9 21.5 5.45 Z"/>
</g>

<g id="BDM_160x600_FR_psd_Asset_9_V8_2_Exploitez_la__puissance_du__r_seau_Wi_Fi__pour_favoriser__des_p_0_Layer0_0_MEMBER_18_FILL">
<path fill="#D82C26" stroke="none" d="
M 23.35 5.3
Q 23 5.55 22.75 5.9 22.5 6.4 22.5 6.8 22.5 7.25 22.75 7.75 22.9 8.05 23.35 8.35 23.7 8.55 24.25 8.55 24.65 8.55 24.85 8.45 25.2 8.35 25.35 8.15
L 25.3 7.8 24.85 8.1
Q 24.65 8.2 24.25 8.2 23.8 8.2 23.55 8 23.25 7.85 23.1 7.5 22.95 7.2 22.95 6.8 22.95 6.5 23.1 6.1 23.25 5.85 23.55 5.6 23.95 5.4 24.25 5.4
L 24.75 5.5
Q 25.05 5.6 25.2 5.8
L 25.35 5.45 24.85 5.15 24.25 5.05
Q 23.75 5.05 23.35 5.3 Z"/>
</g>

<g id="BDM_160x600_FR_psd_Asset_9_V8_2_Exploitez_la__puissance_du__r_seau_Wi_Fi__pour_favoriser__des_p_0_Layer0_0_MEMBER_19_FILL">
<path fill="#D82C26" stroke="none" d="
M 26.45 5.3
Q 26.05 5.55 25.9 5.9 25.65 6.3 25.65 6.8 25.65 7.3 25.9 7.7 26.1 8.1 26.5 8.35 26.85 8.55 27.35 8.55 28.15 8.55 28.7 8.15
L 28.6 7.8
Q 28.2 8.05 28.05 8.1 27.75 8.25 27.4 8.25 27.1 8.25 26.7 8.05 26.45 7.9 26.25 7.55 26.05 7.15 26.05 6.9
L 28.85 6.9 28.85 6.7
Q 28.85 6.25 28.7 5.85 28.5 5.5 28.15 5.3 27.75 5.05 27.3 5.05 26.85 5.05 26.45 5.3
M 27.3 5.4
Q 27.85 5.4 28.15 5.7 28.45 6.05 28.5 6.55
L 26.05 6.55 26.25 6.05
Q 26.4 5.75 26.65 5.55 26.95 5.4 27.3 5.4 Z"/>
</g>

<g id="BDM_160x600_FR_psd_Asset_9_V8_2_Exploitez_la__puissance_du__r_seau_Wi_Fi__pour_favoriser__des_p_0_Layer0_0_MEMBER_20_FILL">
<path fill="#D82C26" stroke="none" d="
M 32.25 5.05
Q 31.75 5.05 31.35 5.3 30.95 5.55 30.8 5.95 30.55 6.35 30.55 6.8 30.55 7.3 30.8 7.7 30.95 8.1 31.35 8.35 31.7 8.55 32.25 8.55 32.65 8.55 33 8.35 33.4 8.15 33.6 7.75
L 33.65 8.45 34.05 8.45 34 3.05 33.6 3.15 33.6 5.9 33.55 5.9
Q 33.4 5.45 33 5.3 32.6 5.05 32.25 5.05
M 31.15 6.1
Q 31.3 5.85 31.6 5.6 32 5.4 32.3 5.4 32.55 5.4 32.95 5.6
L 33.45 6.1
Q 33.6 6.5 33.6 6.8 33.6 7.2 33.45 7.5 33.25 7.8 32.95 8.05 32.65 8.2 32.3 8.2 31.9 8.2 31.6 8.05 31.25 7.8 31.15 7.5 31 7.2 31 6.8 31 6.5 31.15 6.1 Z"/>
</g>

<g id="BDM_160x600_FR_psd_Asset_9_V8_2_Exploitez_la__puissance_du__r_seau_Wi_Fi__pour_favoriser__des_p_0_Layer0_0_MEMBER_21_FILL">
<path fill="#D82C26" stroke="none" d="
M 37.75 5.15
L 37.35 5.15 37.35 6.8
Q 37.35 7.25 37.2 7.55 37.05 7.85 36.8 8.05 36.5 8.25 36.25 8.25 35.75 8.25 35.55 7.9 35.35 7.65 35.35 7.05
L 35.35 5.15 34.9 5.15 34.9 7.2
Q 34.9 7.8 35.2 8.15 35.45 8.55 36.15 8.55 36.6 8.55 36.85 8.35 37.2 8.15 37.35 7.75
L 37.4 8.5 37.8 8.45 37.75 8.1 37.75 5.15 Z"/>
</g>

<g id="BDM_160x600_FR_psd_Asset_9_V8_2_Exploitez_la__puissance_du__r_seau_Wi_Fi__pour_favoriser__des_p_0_Layer0_0_MEMBER_22_FILL">
<path fill="#D82C26" stroke="none" d="
M 2.4 13.6
L 2.05 13.55
Q 1.7 13.55 1.45 13.75 1.2 14 1.05 14.35
L 1 13.65 0.65 13.65 0.65 16.95 1.1 16.95 1.1 15.3
Q 1.1 14.7 1.35 14.3 1.6 13.9 2 13.9
L 2.3 13.95 2.4 13.6 Z"/>
</g>

<g id="BDM_160x600_FR_psd_Asset_9_V8_2_Exploitez_la__puissance_du__r_seau_Wi_Fi__pour_favoriser__des_p_0_Layer0_0_MEMBER_23_FILL">
<path fill="#D82C26" stroke="none" d="
M 5.7 15.15
Q 5.7 14.7 5.5 14.35 5.35 14 4.95 13.75 4.7 13.55 4.1 13.55 3.65 13.55 3.3 13.75 2.9 14 2.7 14.4 2.5 14.75 2.5 15.25 2.5 15.8 2.7 16.2 2.95 16.6 3.3 16.8 3.7 17.05 4.2 17.05 4.95 17.05 5.5 16.65
L 5.45 16.25 4.9 16.6 4.2 16.7
Q 3.8 16.7 3.55 16.5 3.3 16.35 3.05 16.05 2.9 15.75 2.9 15.35
L 5.7 15.35 5.7 15.15
M 4.1 13.85
Q 4.65 13.85 4.95 14.2 5.3 14.5 5.3 15.05
L 2.9 15.05
Q 2.9 14.8 3.05 14.5
L 3.45 14.05
Q 3.7 13.85 4.1 13.85
M 5.05 11.95
L 4.55 11.95 3.85 12.95 4.15 12.95 5.05 11.95 Z"/>
</g>

<g id="BDM_160x600_FR_psd_Asset_9_V8_2_Exploitez_la__puissance_du__r_seau_Wi_Fi__pour_favoriser__des_p_0_Layer0_0_MEMBER_24_FILL">
<path fill="#D82C26" stroke="none" d="
M 8.4 13.9
L 7.9 13.65
Q 7.75 13.55 7.35 13.55 6.95 13.55 6.8 13.65 6.55 13.75 6.4 13.95 6.25 14.2 6.25 14.45 6.25 14.85 6.45 15 6.55 15.1 7.15 15.4
L 7.85 15.7
Q 8.1 15.85 8.1 16.1 8.1 16.4 7.85 16.55 7.65 16.7 7.35 16.7 6.65 16.7 6.25 16.3
L 6.15 16.65
Q 6.3 16.8 6.7 16.95
L 7.35 17.05 7.9 16.95
Q 8.15 16.85 8.3 16.6 8.5 16.4 8.5 16.1 8.5 15.75 8.25 15.5 7.9 15.2 7.45 15.1
L 6.8 14.8
Q 6.6 14.6 6.6 14.4 6.6 14.15 6.85 14 7 13.85 7.35 13.85
L 7.8 13.95 8.2 14.2 8.4 13.9 Z"/>
</g>

<g id="BDM_160x600_FR_psd_Asset_9_V8_2_Exploitez_la__puissance_du__r_seau_Wi_Fi__pour_favoriser__des_p_0_Layer0_0_MEMBER_25_FILL">
<path fill="#D82C26" stroke="none" d="
M 9.2 16.2
Q 9.35 16.6 9.8 16.8 10.2 17.05 10.65 17.05 11.4 17.05 11.95 16.65
L 11.9 16.25
Q 11.7 16.45 11.35 16.6
L 10.7 16.7
Q 10.25 16.7 10 16.5 9.7 16.35 9.55 16.05 9.35 15.8 9.35 15.35
L 12.15 15.35 12.15 15.15
Q 12.15 14.75 12 14.35 11.75 13.95 11.45 13.75 11.1 13.55 10.6 13.55 10.1 13.55 9.75 13.75 9.35 14 9.15 14.4 8.95 14.9 8.95 15.25 8.95 15.7 9.2 16.2
M 9.55 14.5
Q 9.65 14.2 9.95 14.05 10.2 13.85 10.6 13.85 11.15 13.85 11.45 14.2 11.7 14.45 11.8 15.05
L 9.35 15.05 9.55 14.5 Z"/>
</g>

<g id="BDM_160x600_FR_psd_Asset_9_V8_2_Exploitez_la__puissance_du__r_seau_Wi_Fi__pour_favoriser__des_p_0_Layer0_0_MEMBER_26_FILL">
<path fill="#D82C26" stroke="none" d="
M 15.35 16.95
L 15.3 14.8
Q 15.3 14.15 15 13.85 14.65 13.55 14.05 13.55 13.6 13.55 13.35 13.65 13 13.75 12.8 13.95
L 12.95 14.3
Q 13.1 14.1 13.45 14 13.7 13.85 14 13.85 14.35 13.85 14.7 14.1 14.95 14.35 14.95 14.75
L 14.95 14.95 14.5 14.95
Q 12.65 14.95 12.65 16.05 12.65 16.6 12.95 16.8 13.3 17.05 13.7 17.05 13.95 17.05 14.45 16.85 14.75 16.7 14.9 16.3
L 14.95 16.3 14.95 16.65 15 16.95 15.35 16.95
M 14.6 15.25
L 14.95 15.25 14.95 15.55
Q 14.95 15.9 14.8 16.1 14.65 16.45 14.4 16.55 14.1 16.75 13.75 16.75 13.55 16.75 13.25 16.55 13.05 16.4 13.05 16.05 13.05 15.25 14.6 15.25 Z"/>
</g>

<g id="BDM_160x600_FR_psd_Asset_9_V8_2_Exploitez_la__puissance_du__r_seau_Wi_Fi__pour_favoriser__des_p_0_Layer0_0_MEMBER_27_FILL">
<path fill="#D82C26" stroke="none" d="
M 18.6 13.65
L 18.6 15.3
Q 18.6 15.75 18.45 16.05 18.4 16.25 18.1 16.55 17.8 16.7 17.5 16.7 17 16.7 16.8 16.35 16.6 15.95 16.6 15.55
L 16.6 13.65 16.2 13.65 16.2 15.65
Q 16.2 16.3 16.5 16.65 16.8 17.05 17.4 17.05 17.75 17.05 18.15 16.8 18.5 16.55 18.6 16.25
L 18.7 16.95 19.1 16.95 19.05 16.55 19.05 13.65 18.6 13.65 Z"/>
</g>

<g id="BDM_160x600_FR_psd_Asset_9_V8_2_Exploitez_la__puissance_du__r_seau_Wi_Fi__pour_favoriser__des_p_0_Layer0_0_MEMBER_28_FILL">
<path fill="#D82C26" stroke="none" d="
M 21.2 11.95
L 20.75 11.95 22.25 16.95 22.7 16.95 24.05 12.5 25.35 16.95 25.85 16.95 27.35 11.95 26.9 11.95 25.6 16.4 24.3 11.95 23.8 11.95 22.5 16.4 21.2 11.95 Z"/>
</g>

<g id="BDM_160x600_FR_psd_Asset_9_V8_2_Exploitez_la__puissance_du__r_seau_Wi_Fi__pour_favoriser__des_p_0_Layer0_0_MEMBER_29_FILL">
<path fill="#D82C26" stroke="none" d="
M 27.9 13.65
L 27.9 16.95 28.35 16.95 28.35 13.65 27.9 13.65
M 27.9 12.1
L 27.8 12.3 27.9 12.55 28.1 12.6 28.3 12.55
Q 28.4 12.45 28.4 12.3 28.4 12.15 28.3 12.1
L 28.1 12 27.9 12.1 Z"/>
</g>

<g id="BDM_160x600_FR_psd_Asset_9_V8_2_Exploitez_la__puissance_du__r_seau_Wi_Fi__pour_favoriser__des_p_0_Layer0_0_MEMBER_30_FILL">
<path fill="#D82C26" stroke="none" d="
M 29.1 15
L 29.1 15.35 30.55 15.35 30.55 15 29.1 15 Z"/>
</g>

<g id="BDM_160x600_FR_psd_Asset_9_V8_2_Exploitez_la__puissance_du__r_seau_Wi_Fi__pour_favoriser__des_p_0_Layer0_0_MEMBER_31_FILL">
<path fill="#D82C26" stroke="none" d="
M 34.05 11.95
L 31.45 11.95 31.45 16.95 31.9 16.95 31.9 14.55 33.85 14.55 33.9 14.2 31.9 14.2 31.9 12.35 34 12.35 34.05 11.95 Z"/>
</g>

<g id="BDM_160x600_FR_psd_Asset_9_V8_2_Exploitez_la__puissance_du__r_seau_Wi_Fi__pour_favoriser__des_p_0_Layer0_0_MEMBER_32_FILL">
<path fill="#D82C26" stroke="none" d="
M 34.75 13.65
L 34.75 16.95 35.15 16.95 35.15 13.65 34.75 13.65
M 34.75 12.1
L 34.65 12.3 34.75 12.55 34.95 12.6 35.15 12.55 35.25 12.3 35.15 12.1 34.95 12 34.75 12.1 Z"/>
</g>

<g id="BDM_160x600_FR_psd_Asset_9_V8_2_Exploitez_la__puissance_du__r_seau_Wi_Fi__pour_favoriser__des_p_0_Layer0_0_MEMBER_33_FILL">
<path fill="#D82C26" stroke="none" d="
M 2.4 22
Q 2 22 1.65 22.25 1.3 22.4 1.1 22.85
L 1.05 22.85 1.05 22.1 0.65 22.1 0.65 27.1 1.05 27.1 1.05 24.7 1.1 24.7
Q 1.25 25.05 1.65 25.3 2 25.5 2.4 25.5 2.95 25.5 3.3 25.3 3.7 25.05 3.85 24.65 4.1 24.25 4.1 23.75 4.1 23.35 3.85 22.85 3.7 22.5 3.3 22.25 2.9 22 2.4 22
M 1.7 22.55
Q 1.95 22.35 2.35 22.35 2.8 22.35 3.05 22.55 3.35 22.8 3.5 23.05 3.65 23.45 3.65 23.75 3.65 24.15 3.5 24.45 3.4 24.75 3.05 25 2.75 25.15 2.35 25.15 1.95 25.15 1.7 24.95 1.4 24.8 1.2 24.45 1.05 24.15 1.05 23.75 1.05 23.45 1.2 23.05
L 1.7 22.55 Z"/>
</g>

<g id="BDM_160x600_FR_psd_Asset_9_V8_2_Exploitez_la__puissance_du__r_seau_Wi_Fi__pour_favoriser__des_p_0_Layer0_0_MEMBER_34_FILL">
<path fill="#D82C26" stroke="none" d="
M 4.6 23.75
Q 4.6 24.25 4.85 24.65 5.05 25.05 5.45 25.3 5.85 25.5 6.35 25.5 6.9 25.5 7.25 25.3 7.7 25.1 7.9 24.65 8.15 24.25 8.15 23.75 8.15 23.25 7.9 22.85 7.65 22.45 7.25 22.25 6.85 22 6.35 22 5.95 22 5.45 22.25 5.1 22.5 4.85 22.85 4.6 23.25 4.6 23.75
M 5.2 23.05
Q 5.4 22.7 5.65 22.55 5.9 22.35 6.35 22.35 6.75 22.35 7.1 22.55 7.35 22.7 7.55 23.05 7.7 23.35 7.7 23.75 7.7 24.15 7.55 24.45 7.4 24.8 7.1 24.95 6.85 25.15 6.35 25.15 5.9 25.15 5.65 24.95 5.35 24.8 5.2 24.45 5.05 24.15 5.05 23.75 5.05 23.35 5.2 23.05 Z"/>
</g>

<g id="BDM_160x600_FR_psd_Asset_9_V8_2_Exploitez_la__puissance_du__r_seau_Wi_Fi__pour_favoriser__des_p_0_Layer0_0_MEMBER_35_FILL">
<path fill="#D82C26" stroke="none" d="
M 8.85 22.1
L 8.85 24.15
Q 8.85 24.75 9.15 25.1 9.4 25.5 10.05 25.5 10.45 25.5 10.8 25.3 11.1 25.1 11.25 24.7
L 11.3 25.45 11.75 25.4 11.65 24.65 11.65 22.1 11.25 22.1 11.25 23.75
Q 11.25 24.2 11.1 24.5 10.95 24.9 10.7 25 10.5 25.15 10.15 25.15 9.7 25.15 9.45 24.85 9.25 24.35 9.25 24
L 9.25 22.1 8.85 22.1 Z"/>
</g>

<g id="BDM_160x600_FR_psd_Asset_9_V8_2_Exploitez_la__puissance_du__r_seau_Wi_Fi__pour_favoriser__des_p_0_Layer0_0_MEMBER_36_FILL">
<path fill="#D82C26" stroke="none" d="
M 13.45 22.25
Q 13.2 22.4 13.05 22.85
L 13 22.1 12.65 22.1 12.65 25.4 13.1 25.4 13.1 23.75
Q 13.1 23.1 13.35 22.8 13.55 22.4 14 22.4
L 14.3 22.45 14.4 22.05 14.05 22
Q 13.8 22 13.45 22.25 Z"/>
</g>

<g id="BDM_160x600_FR_psd_Asset_9_V8_2_Exploitez_la__puissance_du__r_seau_Wi_Fi__pour_favoriser__des_p_0_Layer0_0_MEMBER_37_FILL">
<path fill="#D82C26" stroke="none" d="
M 16.4 20.3
Q 16.15 20.55 16.15 21.15
L 16.15 22.1 15.55 22.1 15.45 22.45 16.15 22.45 16.15 25.4 16.55 25.4 16.55 22.45 17.3 22.45 17.4 22.1 16.55 22.1 16.55 21.15
Q 16.55 20.8 16.7 20.55 16.85 20.35 17.2 20.35
L 17.7 20.4 17.75 20.05 17.5 20 17.15 20
Q 16.7 20 16.4 20.3 Z"/>
</g>

<g id="BDM_160x600_FR_psd_Asset_9_V8_2_Exploitez_la__puissance_du__r_seau_Wi_Fi__pour_favoriser__des_p_0_Layer0_0_MEMBER_38_FILL">
<path fill="#D82C26" stroke="none" d="
M 19 22.35
Q 19.5 22.35 19.7 22.55 19.95 22.8 19.95 23.25
L 19.95 23.45 19.55 23.45
Q 17.65 23.45 17.65 24.55 17.65 25.05 17.95 25.25 18.2 25.5 18.7 25.5 19.1 25.5 19.45 25.3 19.75 25.2 19.95 24.8
L 20 25.1 20 25.4 20.4 25.4 20.35 23.25
Q 20.35 22.65 20 22.35 19.7 22 19.05 22
L 18.4 22.1 17.85 22.4 17.95 22.75 18.45 22.45 19 22.35
M 19.95 24.05
L 19.8 24.6
Q 19.75 24.75 19.45 25.05 19.15 25.2 18.8 25.2 18.5 25.2 18.25 25.05 18.05 24.85 18.05 24.5 18.05 23.7 19.6 23.7
L 19.95 23.7 19.95 24.05 Z"/>
</g>

<g id="BDM_160x600_FR_psd_Asset_9_V8_2_Exploitez_la__puissance_du__r_seau_Wi_Fi__pour_favoriser__des_p_0_Layer0_0_MEMBER_39_FILL">
<path fill="#D82C26" stroke="none" d="
M 20.7 22.1
L 21.95 25.4 22.45 25.4 23.65 22.1 23.25 22.1 22.2 25 21.15 22.1 20.7 22.1 Z"/>
</g>

<g id="BDM_160x600_FR_psd_Asset_9_V8_2_Exploitez_la__puissance_du__r_seau_Wi_Fi__pour_favoriser__des_p_0_Layer0_0_MEMBER_40_FILL">
<path fill="#D82C26" stroke="none" d="
M 23.8 23.75
Q 23.8 24.25 24.05 24.65 24.25 25.1 24.7 25.3 25.05 25.5 25.6 25.5 26.1 25.5 26.5 25.3 26.9 25.05 27.1 24.65 27.35 24.25 27.35 23.75 27.35 23.25 27.1 22.85 26.9 22.5 26.5 22.25 26 22 25.6 22 25.1 22 24.7 22.25 24.3 22.45 24.05 22.85 23.8 23.25 23.8 23.75
M 24.4 23.05
Q 24.6 22.7 24.85 22.55 25.1 22.35 25.6 22.35 26.05 22.35 26.3 22.55 26.55 22.7 26.75 23.05 26.95 23.45 26.95 23.75 26.95 24.05 26.75 24.45 26.6 24.8 26.3 24.95 26.05 25.15 25.6 25.15 25.1 25.15 24.85 24.95 24.55 24.8 24.4 24.45 24.25 24.15 24.25 23.75 24.25 23.35 24.4 23.05 Z"/>
</g>

<g id="BDM_160x600_FR_psd_Asset_9_V8_2_Exploitez_la__puissance_du__r_seau_Wi_Fi__pour_favoriser__des_p_0_Layer0_0_MEMBER_41_FILL">
<path fill="#D82C26" stroke="none" d="
M 29.45 22.4
L 29.75 22.45 29.8 22.05 29.45 22
Q 29.25 22 28.9 22.25 28.65 22.35 28.5 22.85
L 28.45 22.1 28.05 22.1 28.1 25.4 28.5 25.4 28.5 23.75
Q 28.5 23.2 28.75 22.8 28.95 22.4 29.45 22.4 Z"/>
</g>

<g id="BDM_160x600_FR_psd_Asset_9_V8_2_Exploitez_la__puissance_du__r_seau_Wi_Fi__pour_favoriser__des_p_0_Layer0_0_MEMBER_42_FILL">
<path fill="#D82C26" stroke="none" d="
M 30.7 22.1
L 30.3 22.1 30.3 25.4 30.7 25.4 30.7 22.1
M 30.2 20.8
L 30.3 21 30.5 21.1 30.7 21 30.8 20.8 30.7 20.55 30.5 20.5
Q 30.35 20.5 30.3 20.6
L 30.2 20.8 Z"/>
</g>

<g id="BDM_160x600_FR_psd_Asset_9_V8_2_Exploitez_la__puissance_du__r_seau_Wi_Fi__pour_favoriser__des_p_0_Layer0_0_MEMBER_43_FILL">
<path fill="#D82C26" stroke="none" d="
M 31.85 22.9
Q 31.85 22.7 32.05 22.5 32.3 22.35 32.6 22.35 32.9 22.35 33.05 22.45
L 33.45 22.65 33.6 22.35 33.15 22.1 32.55 22 32.05 22.1 31.65 22.4
Q 31.45 22.7 31.45 22.9 31.45 23.25 31.7 23.5 31.9 23.7 32.4 23.85
L 33.1 24.15
Q 33.3 24.3 33.3 24.55 33.3 24.85 33.1 25 32.9 25.2 32.6 25.2 32 25.2 31.5 24.8
L 31.4 25.15 31.9 25.4
Q 32.15 25.5 32.6 25.5
L 33.15 25.4
Q 33.35 25.35 33.55 25.05 33.7 24.9 33.7 24.55 33.7 24.15 33.45 23.95 33.25 23.75 32.7 23.6
L 32.05 23.3
Q 31.85 23.15 31.85 22.9 Z"/>
</g>

<g id="BDM_160x600_FR_psd_Asset_9_V8_2_Exploitez_la__puissance_du__r_seau_Wi_Fi__pour_favoriser__des_p_0_Layer0_0_MEMBER_44_FILL">
<path fill="#D82C26" stroke="none" d="
M 34.2 23.75
Q 34.2 24.3 34.4 24.65 34.6 25.05 35 25.3 35.4 25.5 35.9 25.5 36.75 25.5 37.2 25.1
L 37.15 24.75 36.6 25.05
Q 36.3 25.2 35.95 25.2 35.65 25.2 35.25 25 34.95 24.75 34.8 24.5 34.6 24.25 34.6 23.8
L 37.4 23.8 37.4 23.65
Q 37.4 23.2 37.25 22.8 37 22.4 36.7 22.25 36.3 22 35.85 22 35.4 22 35 22.25 34.65 22.5 34.4 22.85 34.2 23.2 34.2 23.75
M 34.75 23
Q 34.9 22.75 35.2 22.5 35.45 22.35 35.85 22.35 36.35 22.35 36.7 22.65 37 22.95 37 23.5
L 34.6 23.5
Q 34.6 23.25 34.75 23 Z"/>
</g>

<g id="BDM_160x600_FR_psd_Asset_9_V8_2_Exploitez_la__puissance_du__r_seau_Wi_Fi__pour_favoriser__des_p_0_Layer0_0_MEMBER_45_FILL">
<path fill="#D82C26" stroke="none" d="
M 39.5 22.4
L 39.8 22.45 39.85 22.05 39.5 22
Q 39.3 22 38.95 22.25 38.7 22.35 38.55 22.85
L 38.5 22.1 38.1 22.1 38.15 25.4 38.55 25.4 38.55 23.75
Q 38.55 23.2 38.8 22.8 39.05 22.4 39.5 22.4 Z"/>
</g>

<g id="BDM_160x600_FR_psd_Asset_9_V8_2_Exploitez_la__puissance_du__r_seau_Wi_Fi__pour_favoriser__des_p_0_Layer0_0_MEMBER_46_FILL">
<path fill="#D82C26" stroke="none" d="
M 2.05 30.5
Q 1.55 30.5 1.2 30.7 0.85 30.9 0.6 31.35 0.4 31.7 0.4 32.25 0.4 32.75 0.6 33.1 0.8 33.5 1.2 33.75 1.6 34 2.05 34 2.45 34 2.85 33.75 3.15 33.65 3.4 33.15
L 3.45 33.9 3.85 33.9 3.8 28.45 3.4 28.55 3.4 31.3
Q 3.15 30.9 2.85 30.7 2.5 30.5 2.05 30.5
M 3.25 32.95
Q 3.1 33.2 2.8 33.45 2.4 33.65 2.1 33.65 1.8 33.65 1.4 33.45
L 0.95 32.95
Q 0.8 32.65 0.8 32.25 0.8 31.85 0.95 31.55
L 1.4 31
Q 1.7 30.85 2.1 30.85 2.5 30.85 2.8 31 3.15 31.25 3.25 31.55 3.4 31.85 3.4 32.25 3.4 32.65 3.25 32.95 Z"/>
</g>

<g id="BDM_160x600_FR_psd_Asset_9_V8_2_Exploitez_la__puissance_du__r_seau_Wi_Fi__pour_favoriser__des_p_0_Layer0_0_MEMBER_47_FILL">
<path fill="#D82C26" stroke="none" d="
M 6.2 30.5
Q 5.65 30.5 5.4 30.7 5.05 30.95 4.8 31.3 4.55 31.8 4.55 32.2 4.55 32.65 4.8 33.15 5.05 33.55 5.4 33.75 5.8 34 6.25 34 7 34 7.6 33.55
L 7.5 33.2 7 33.55 6.3 33.65
Q 5.85 33.65 5.6 33.45 5.3 33.3 5.15 33
L 4.95 32.3 7.8 32.3 7.8 32.1
Q 7.8 31.8 7.6 31.3 7.45 30.95 7.05 30.7 6.7 30.5 6.2 30.5
M 7.05 31.15
Q 7.4 31.5 7.4 32
L 5 32
Q 5 31.75 5.15 31.45 5.3 31.2 5.55 31 5.8 30.8 6.2 30.8 6.75 30.8 7.05 31.15 Z"/>
</g>

<g id="BDM_160x600_FR_psd_Asset_9_V8_2_Exploitez_la__puissance_du__r_seau_Wi_Fi__pour_favoriser__des_p_0_Layer0_0_MEMBER_48_FILL">
<path fill="#D82C26" stroke="none" d="
M 10.3 31.15
L 10.45 30.85
Q 10.25 30.65 10 30.6 9.8 30.5 9.4 30.5 9.05 30.5 8.9 30.6 8.65 30.65 8.5 30.9 8.3 31.1 8.3 31.4 8.3 31.8 8.55 31.95 8.75 32.15 9.25 32.3
L 9.95 32.65
Q 10.15 32.8 10.15 33.05 10.15 33.35 9.95 33.5 9.75 33.65 9.45 33.65 8.85 33.65 8.35 33.25
L 8.25 33.6 8.75 33.9 9.45 34
Q 9.7 34 10 33.85 10.25 33.75 10.4 33.55 10.55 33.35 10.55 33 10.55 32.65 10.3 32.45 10.05 32.2 9.55 32.05
L 8.9 31.75
Q 8.7 31.6 8.7 31.35 8.7 31.15 8.9 30.95 9.15 30.8 9.45 30.8
L 9.9 30.9 10.3 31.15 Z"/>
</g>

<g id="BDM_160x600_FR_psd_Asset_9_V8_2_Exploitez_la__puissance_du__r_seau_Wi_Fi__pour_favoriser__des_p_0_Layer0_0_MEMBER_49_FILL">
<path fill="#D82C26" stroke="none" d="
M 12.85 30.6
L 12.45 30.6 12.45 35.6 12.9 35.6 12.9 33.2
Q 13.15 33.65 13.45 33.75 13.85 34 14.25 34 14.7 34 15.1 33.75 15.5 33.5 15.7 33.1 15.9 32.75 15.9 32.25 15.9 31.7 15.7 31.35 15.45 30.9 15.1 30.7 14.75 30.5 14.25 30.5 13.8 30.5 13.45 30.7 13.15 30.9 12.9 31.3
L 12.85 30.6
M 12.85 32.25
Q 12.85 31.95 13.05 31.55 13.15 31.25 13.5 31 13.8 30.85 14.2 30.85 14.55 30.85 14.85 31 15.2 31.25 15.3 31.55 15.5 31.8 15.5 32.25 15.5 32.7 15.3 32.95 15.15 33.2 14.85 33.45 14.45 33.65 14.2 33.65 13.9 33.65 13.5 33.45 13.2 33.2 13.05 32.95 12.85 32.55 12.85 32.25 Z"/>
</g>

<g id="BDM_160x600_FR_psd_Asset_9_V8_2_Exploitez_la__puissance_du__r_seau_Wi_Fi__pour_favoriser__des_p_0_Layer0_0_MEMBER_50_FILL">
<path fill="#D82C26" stroke="none" d="
M 17 30.6
L 16.6 30.6 16.65 33.9 17.05 33.9 17.05 32.25
Q 17.05 31.7 17.35 31.25 17.6 30.85 18 30.85
L 18.3 30.9 18.4 30.55 18.05 30.5
Q 17.7 30.5 17.45 30.7 17.2 30.95 17.05 31.3
L 17 30.6 Z"/>
</g>

<g id="BDM_160x600_FR_psd_Asset_9_V8_2_Exploitez_la__puissance_du__r_seau_Wi_Fi__pour_favoriser__des_p_0_Layer0_0_MEMBER_51_FILL">
<path fill="#D82C26" stroke="none" d="
M 20.2 30.5
Q 19.7 30.5 19.3 30.7 18.95 30.95 18.7 31.3 18.45 31.8 18.45 32.25 18.45 32.65 18.7 33.15 18.95 33.55 19.3 33.75 19.8 34 20.2 34 20.65 34 21.15 33.75 21.55 33.55 21.75 33.15 22 32.65 22 32.25 22 31.8 21.75 31.3 21.55 30.95 21.15 30.7 20.75 30.5 20.2 30.5
M 19.05 31.55
Q 19.15 31.25 19.5 31 19.8 30.85 20.2 30.85 20.65 30.85 20.95 31 21.3 31.25 21.4 31.55 21.55 31.85 21.55 32.25 21.55 32.6 21.4 32.95 21.25 33.2 20.95 33.45 20.55 33.65 20.2 33.65 19.9 33.65 19.5 33.45 19.2 33.2 19.05 32.95 18.9 32.6 18.9 32.25 18.9 31.85 19.05 31.55 Z"/>
</g>

<g id="BDM_160x600_FR_psd_Asset_9_V8_2_Exploitez_la__puissance_du__r_seau_Wi_Fi__pour_favoriser__des_p_0_Layer0_0_MEMBER_52_FILL">
<path fill="#D82C26" stroke="none" d="
M 26.55 30.5
Q 26.1 30.5 25.85 30.7 25.55 30.9 25.35 31.35 25.3 31 25 30.7 24.75 30.5 24.3 30.5 23.85 30.5 23.6 30.7 23.3 30.95 23.15 31.3
L 23.1 30.6 22.7 30.6 22.75 33.9 23.15 33.9 23.15 32.25
Q 23.15 31.8 23.3 31.5 23.45 31.15 23.65 31 23.95 30.85 24.2 30.85 24.65 30.85 24.8 31.1 25.05 31.45 25.05 31.95
L 25.05 33.9 25.45 33.9 25.45 32.2
Q 25.45 31.6 25.75 31.2 26.05 30.85 26.5 30.85 26.95 30.85 27.15 31.15 27.35 31.5 27.35 32
L 27.35 33.9 27.75 33.9 27.75 31.9
Q 27.75 31.3 27.5 30.9 27.25 30.5 26.55 30.5 Z"/>
</g>

<g id="BDM_160x600_FR_psd_Asset_9_V8_2_Exploitez_la__puissance_du__r_seau_Wi_Fi__pour_favoriser__des_p_0_Layer0_0_MEMBER_53_FILL">
<path fill="#D82C26" stroke="none" d="
M 31.8 31.3
Q 31.5 30.9 31.15 30.7 30.8 30.5 30.25 30.5 29.7 30.5 29.35 30.7 28.9 30.95 28.7 31.3 28.5 31.7 28.5 32.25 28.5 32.75 28.7 33.15 28.9 33.5 29.35 33.75 29.75 34 30.25 34 30.75 34 31.15 33.75 31.5 33.55 31.8 33.15 32 32.75 32 32.25 32 31.7 31.8 31.3
M 31.45 32.95
L 30.95 33.45
Q 30.55 33.65 30.25 33.65 29.95 33.65 29.55 33.45 29.15 33.15 29.05 32.95 28.9 32.6 28.9 32.25 28.9 31.85 29.05 31.55 29.15 31.3 29.55 31 29.85 30.85 30.25 30.85 30.65 30.85 30.95 31 31.3 31.25 31.4 31.55 31.6 31.8 31.6 32.25 31.6 32.6 31.45 32.95 Z"/>
</g>

<g id="BDM_160x600_FR_psd_Asset_9_V8_2_Exploitez_la__puissance_du__r_seau_Wi_Fi__pour_favoriser__des_p_0_Layer0_0_MEMBER_54_FILL">
<path fill="#D82C26" stroke="none" d="
M 32.75 29.8
L 32.75 30.6 32.25 30.6 32.15 30.9 32.75 30.9 32.75 33.1
Q 32.75 33.5 33 33.75 33.15 33.95 33.55 33.95
L 33.9 33.9 34.25 33.8 34.2 33.45 33.65 33.6
Q 33.4 33.6 33.3 33.5
L 33.2 33.05 33.2 30.9 34.05 30.9 34.1 30.6 33.2 30.6 33.2 29.65 32.75 29.8 Z"/>
</g>

<g id="BDM_160x600_FR_psd_Asset_9_V8_2_Exploitez_la__puissance_du__r_seau_Wi_Fi__pour_favoriser__des_p_0_Layer0_0_MEMBER_55_FILL">
<path fill="#D82C26" stroke="none" d="
M 35.15 30.6
L 34.75 30.6 34.75 33.9 35.15 33.9 35.15 30.6
M 35.25 29.25
Q 35.25 29.1 35.15 29.05
L 34.95 28.95 34.75 29.05 34.65 29.25 34.75 29.45
Q 34.8 29.55 34.95 29.55 35.1 29.55 35.15 29.45 35.25 29.4 35.25 29.25 Z"/>
</g>

<g id="BDM_160x600_FR_psd_Asset_9_V8_2_Exploitez_la__puissance_du__r_seau_Wi_Fi__pour_favoriser__des_p_0_Layer0_0_MEMBER_56_FILL">
<path fill="#D82C26" stroke="none" d="
M 38.55 30.7
Q 38.2 30.5 37.65 30.5 37.15 30.5 36.75 30.7 36.4 30.95 36.15 31.3 35.9 31.8 35.9 32.25 35.9 32.65 36.15 33.15 36.4 33.55 36.75 33.75 37.25 34 37.65 34 38.15 34 38.55 33.75 38.95 33.55 39.2 33.15 39.45 32.65 39.45 32.25 39.45 31.8 39.2 31.3 38.95 30.9 38.55 30.7
M 38.85 32.95
Q 38.7 33.2 38.4 33.45 38 33.65 37.65 33.65 37.35 33.65 36.95 33.45 36.65 33.2 36.5 32.95 36.3 32.45 36.3 32.25 36.3 31.95 36.5 31.55 36.6 31.25 36.95 31 37.25 30.85 37.65 30.85 38.05 30.85 38.35 31 38.7 31.2 38.85 31.55 39 31.85 39 32.25 39 32.6 38.85 32.95 Z"/>
</g>

<g id="BDM_160x600_FR_psd_Asset_9_V8_2_Exploitez_la__puissance_du__r_seau_Wi_Fi__pour_favoriser__des_p_0_Layer0_0_MEMBER_57_FILL">
<path fill="#D82C26" stroke="none" d="
M 41.8 30.5
Q 41.4 30.5 41.05 30.7 40.75 30.95 40.6 31.3
L 40.55 31.3 40.55 30.6 40.15 30.6 40.2 33.9 40.6 33.9 40.6 32.2
Q 40.6 31.85 40.75 31.45 40.9 31.1 41.15 31 41.4 30.85 41.7 30.85 42.2 30.85 42.4 31.15 42.6 31.65 42.6 32
L 42.6 33.9 43 33.9 43 31.85
Q 43 31.3 42.7 30.9 42.45 30.5 41.8 30.5 Z"/>
</g>

<g id="BDM_160x600_FR_psd_Asset_9_V8_2_Exploitez_la__puissance_du__r_seau_Wi_Fi__pour_favoriser__des_p_0_Layer0_0_MEMBER_58_FILL">
<path fill="#D82C26" stroke="none" d="
M 44.3 30.6
Q 44.05 30.7 43.9 30.9 43.75 31.15 43.75 31.4 43.75 31.8 44 31.95 44.2 32.15 44.7 32.3
L 45.4 32.65
Q 45.6 32.8 45.6 33.05 45.6 33.35 45.4 33.5 45.2 33.65 44.85 33.65 44.25 33.65 43.75 33.25
L 43.7 33.6 44.2 33.9 44.85 34
Q 45.2 34 45.4 33.85 45.7 33.8 45.85 33.55 46 33.35 46 33 46 32.7 45.75 32.45 45.5 32.2 45 32.05
L 44.3 31.75
Q 44.15 31.6 44.15 31.35 44.15 31.1 44.35 30.95 44.6 30.8 44.85 30.8
L 45.35 30.9 45.7 31.15 45.9 30.85 45.45 30.6
Q 45.25 30.5 44.85 30.5 44.5 30.5 44.3 30.6 Z"/>
</g>

<g id="BDM_160x600_FR_psd_Asset_9_V8_2_Exploitez_la__puissance_du__r_seau_Wi_Fi__pour_favoriser__des_p_0_Layer0_0_MEMBER_59_FILL">
<path fill="#D82C26" stroke="none" d="
M 1.05 36.95
L 0.65 37.05 0.6 42.35 1 42.35 1.05 41.65
Q 1.3 42.05 1.6 42.25 1.95 42.45 2.45 42.45 2.95 42.45 3.3 42.25 3.75 41.9 3.85 41.6 4.1 41.2 4.1 40.7 4.1 40.3 3.85 39.8 3.7 39.45 3.3 39.2 2.9 38.95 2.45 38.95 2.15 38.95 1.65 39.15 1.25 39.4 1.1 39.75
L 1.05 39.75 1.05 36.95
M 3.05 39.5
Q 3.3 39.65 3.5 40 3.65 40.3 3.65 40.7 3.65 41.1 3.5 41.4 3.3 41.75 3.05 41.9 2.8 42.1 2.35 42.1 1.95 42.1 1.7 41.9 1.45 41.75 1.25 41.4 1.05 41.15 1.05 40.7 1.05 40.25 1.25 40 1.45 39.65 1.7 39.5 1.95 39.3 2.35 39.3 2.8 39.3 3.05 39.5 Z"/>
</g>

<g id="BDM_160x600_FR_psd_Asset_9_V8_2_Exploitez_la__puissance_du__r_seau_Wi_Fi__pour_favoriser__des_p_0_Layer0_0_MEMBER_60_FILL">
<path fill="#D82C26" stroke="none" d="
M 6.65 39.5
Q 6.9 39.75 6.9 40.2
L 6.9 40.4 6.5 40.4
Q 4.6 40.4 4.6 41.45 4.6 42 4.9 42.2 5.25 42.45 5.65 42.45 6.05 42.45 6.4 42.25 6.75 42.1 6.9 41.7
L 6.9 42.05 6.95 42.35 7.35 42.35 7.3 40.2
Q 7.3 39.7 6.95 39.25 6.6 38.95 6 38.95
L 5.35 39.05 4.8 39.35 4.9 39.7 5.4 39.4 5.95 39.3
Q 6.4 39.3 6.65 39.5
M 6.9 41
L 6.75 41.55
Q 6.55 41.85 6.35 41.95 6.15 42.15 5.75 42.15 5.45 42.15 5.2 42 5 41.8 5 41.45 5 40.65 6.55 40.65
L 6.9 40.65 6.9 41 Z"/>
</g>

<g id="BDM_160x600_FR_psd_Asset_9_V8_2_Exploitez_la__puissance_du__r_seau_Wi_Fi__pour_favoriser__des_p_0_Layer0_0_MEMBER_61_FILL">
<path fill="#D82C26" stroke="none" d="
M 8.15 39.35
Q 8 39.6 8 39.85 8 40.2 8.25 40.45
L 9.65 41.1
Q 9.85 41.25 9.85 41.5 9.85 41.8 9.65 41.95 9.45 42.15 9.1 42.15 8.5 42.15 8 41.75
L 7.95 42.1 8.45 42.35 9.15 42.45 9.7 42.35 10.1 42
Q 10.25 41.8 10.25 41.5 10.25 41.15 10 40.9 9.85 40.75 9.25 40.5
L 8.6 40.25
Q 8.4 40.1 8.4 39.85 8.4 39.5 8.6 39.45 8.85 39.3 9.1 39.3 9.45 39.3 9.6 39.4
L 10 39.6 10.15 39.3 9.7 39.05 9.1 38.95 8.6 39.05
Q 8.4 39.1 8.15 39.35 Z"/>
</g>

<g id="BDM_160x600_FR_psd_Asset_9_V8_2_Exploitez_la__puissance_du__r_seau_Wi_Fi__pour_favoriser__des_p_0_Layer0_0_MEMBER_62_FILL">
<path fill="#D82C26" stroke="none" d="
M 13.75 39.75
Q 13.6 39.4 13.2 39.15 12.8 38.95 12.35 38.95 11.95 38.95 11.55 39.2 11.25 39.35 10.95 39.8 10.75 40.15 10.75 40.7 10.75 41.25 10.95 41.6 11.15 42 11.55 42.25 11.9 42.45 12.45 42.45 13.2 42.45 13.75 42.05
L 13.7 41.7 13.15 42
Q 12.95 42.1 12.45 42.1 12.1 42.1 11.8 41.95
L 11.3 41.45
Q 11.15 41.15 11.15 40.75
L 13.95 40.75 13.95 40.6
Q 13.95 40.1 13.75 39.75
M 11.7 39.45
Q 12 39.3 12.35 39.3 12.9 39.3 13.2 39.6 13.55 39.9 13.55 40.45
L 11.15 40.45
Q 11.15 40.2 11.3 39.95 11.4 39.75 11.7 39.45
M 13.3 37.35
L 12.8 37.35 12.1 38.35 12.4 38.35 13.3 37.35 Z"/>
</g>

<g id="BDM_160x600_FR_psd_Asset_9_V8_2_Exploitez_la__puissance_du__r_seau_Wi_Fi__pour_favoriser__des_p_0_Layer0_0_MEMBER_63_FILL">
<path fill="#D82C26" stroke="none" d="
M 16.1 38.95
Q 15.7 38.95 15.3 39.2 15 39.35 14.7 39.8 14.5 40.15 14.5 40.7 14.5 41.25 14.7 41.6 14.9 42 15.3 42.25 15.65 42.45 16.15 42.45 16.95 42.45 17.5 42.05
L 17.4 41.7 16.9 42
Q 16.7 42.1 16.2 42.1 15.85 42.1 15.55 41.95 15.15 41.65 15.05 41.45 14.9 41.15 14.9 40.75
L 17.7 40.75 17.7 40.6
Q 17.7 40.1 17.5 39.75 17.35 39.4 16.95 39.15 16.55 38.95 16.1 38.95
M 16.1 39.3
Q 16.65 39.3 16.95 39.6 17.3 39.9 17.3 40.45
L 14.9 40.45
Q 14.9 40.2 15.05 39.95 15.15 39.75 15.45 39.45 15.75 39.3 16.1 39.3 Z"/>
</g>

<g id="BDM_160x600_FR_psd_Asset_9_V8_2_Exploitez_la__puissance_du__r_seau_Wi_Fi__pour_favoriser__des_p_0_Layer0_0_MEMBER_64_FILL">
<path fill="#D82C26" stroke="none" d="
M 18.4 39.35
Q 18.25 39.6 18.25 39.85 18.25 40.25 18.45 40.45
L 19.85 41.1
Q 20.1 41.25 20.1 41.5 20.1 41.8 19.85 41.95 19.65 42.15 19.35 42.15 18.75 42.15 18.25 41.75
L 18.15 42.1
Q 18.45 42.3 18.7 42.35
L 19.35 42.45 19.9 42.35 20.3 42
Q 20.5 41.7 20.5 41.5 20.5 41.15 20.25 40.9
L 18.8 40.25
Q 18.6 40.05 18.6 39.85 18.6 39.55 18.8 39.45 19.05 39.3 19.35 39.3 19.65 39.3 19.8 39.4
L 20.2 39.6 20.4 39.3 19.9 39.05 19.3 38.95 18.8 39.05 18.4 39.35 Z"/>
</g>

<g id="BDM_160x600_FR_psd_Asset_9_V8_2_Exploitez_la__puissance_du__r_seau_Wi_Fi__pour_favoriser__des_p_0_Layer0_0_MEMBER_65_FILL">
<path fill="#D82C26" stroke="none" d="
M 23.85 39.05
L 23.3 38.95 22.75 39.05
Q 22.6 39.1 22.35 39.35 22.2 39.6 22.2 39.85 22.2 40.25 22.4 40.45
L 23.8 41.1
Q 24.05 41.25 24.05 41.5 24.05 41.8 23.8 41.95 23.6 42.15 23.3 42.15 22.7 42.15 22.2 41.75
L 22.1 42.1
Q 22.4 42.3 22.65 42.35
L 23.3 42.45 23.85 42.35
Q 24.1 42.25 24.25 42 24.45 41.8 24.45 41.5 24.45 41.15 24.2 40.9
L 22.75 40.25
Q 22.55 40.05 22.55 39.85 22.55 39.55 22.8 39.45 22.95 39.3 23.3 39.3 23.6 39.3 23.75 39.4
L 24.15 39.6 24.35 39.3 23.85 39.05 Z"/>
</g>

<g id="BDM_160x600_FR_psd_Asset_9_V8_2_Exploitez_la__puissance_du__r_seau_Wi_Fi__pour_favoriser__des_p_0_Layer0_0_MEMBER_66_FILL">
<path fill="#D82C26" stroke="none" d="
M 27.45 40.7
Q 27.45 41.15 27.3 41.45 27.25 41.75 26.95 41.95 26.65 42.1 26.35 42.1 25.9 42.1 25.65 41.8 25.45 41.3 25.45 40.95
L 25.45 39.05 25.05 39.05 25.05 41.05
Q 25.05 41.7 25.35 42.05 25.65 42.45 26.25 42.45 26.65 42.45 27 42.25 27.4 41.95 27.45 41.65
L 27.55 42.35 27.95 42.35 27.9 42 27.9 39.05 27.45 39.05 27.45 40.7 Z"/>
</g>

<g id="BDM_160x600_FR_psd_Asset_9_V8_2_Exploitez_la__puissance_du__r_seau_Wi_Fi__pour_favoriser__des_p_0_Layer0_0_MEMBER_67_FILL">
<path fill="#D82C26" stroke="none" d="
M 29.25 39.05
L 28.85 39.05 28.85 42.35 29.3 42.35 29.3 40.7
Q 29.3 40.05 29.55 39.75 29.75 39.35 30.2 39.35
L 30.5 39.4 30.6 39 30.25 38.95
Q 29.95 38.95 29.7 39.2 29.4 39.35 29.3 39.75
L 29.25 39.75 29.25 39.05 Z"/>
</g>

<g id="BDM_160x600_FR_psd_Asset_9_V8_2_Exploitez_la__puissance_du__r_seau_Wi_Fi__pour_favoriser__des_p_0_Layer0_0_MEMBER_68_FILL">
<path fill="#D82C26" stroke="none" d="
M 1.05 45.45
L 0.65 45.55 0.65 50.1
Q 0.65 50.45 0.8 50.65
L 1.2 50.9 1.4 50.55
Q 1.2 50.5 1.15 50.35
L 1.05 50 1.05 45.45 Z"/>
</g>

<g id="BDM_160x600_FR_psd_Asset_9_V8_2_Exploitez_la__puissance_du__r_seau_Wi_Fi__pour_favoriser__des_p_0_Layer0_0_MEMBER_69_FILL">
<path fill="#D82C26" stroke="none" d="
M 2.8 45.95
Q 2.75 45.85 2.6 45.85 2.4 45.85 2.35 45.95
L 2.25 46.15 2.35 46.4 2.55 46.45
Q 2.55 46.75 2.4 46.95
L 2.1 47.35 2.25 47.45
Q 2.9 46.85 2.9 46.25
L 2.8 45.95 Z"/>
</g>

<g id="BDM_160x600_FR_psd_Asset_9_V8_2_Exploitez_la__puissance_du__r_seau_Wi_Fi__pour_favoriser__des_p_0_Layer0_0_MEMBER_70_FILL">
<path fill="#D82C26" stroke="none" d="
M 4.8 47.45
Q 4.3 47.45 3.95 47.65 3.55 47.9 3.4 48.25 3.15 48.75 3.15 49.15 3.15 49.6 3.4 50.1 3.65 50.5 4 50.7 4.4 50.95 4.85 50.95 5.6 50.95 6.2 50.5
L 6.1 50.15
Q 5.85 50.4 5.55 50.45 5.25 50.6 4.9 50.6 4.45 50.6 4.2 50.4 3.9 50.25 3.75 49.9 3.55 49.5 3.55 49.25
L 6.35 49.25 6.35 49.05
Q 6.35 48.65 6.2 48.25 5.95 47.85 5.65 47.65 5.3 47.45 4.8 47.45
M 4.15 47.95
Q 4.4 47.75 4.8 47.75 5.35 47.75 5.65 48.1 5.9 48.35 6 48.95
L 3.55 48.95 3.75 48.4
Q 3.9 48.05 4.15 47.95 Z"/>
</g>

<g id="BDM_160x600_FR_psd_Asset_9_V8_2_Exploitez_la__puissance_du__r_seau_Wi_Fi__pour_favoriser__des_p_0_Layer0_0_MEMBER_71_FILL">
<path fill="#D82C26" stroke="none" d="
M 7.5 47.55
L 7.1 47.55 7.1 50.85 7.55 50.85 7.55 49.2 7.65 48.45
Q 7.8 48.15 8.05 47.95 8.3 47.8 8.55 47.8 9 47.8 9.2 48.05 9.4 48.3 9.4 48.9
L 9.4 50.85 9.8 50.85 9.8 49.15
Q 9.8 48.55 10.1 48.15 10.4 47.8 10.85 47.8 11.35 47.8 11.55 48.1 11.75 48.6 11.75 48.95
L 11.75 50.85 12.15 50.85 12.15 48.85
Q 12.15 48.25 11.85 47.85 11.6 47.45 10.95 47.45 10.55 47.45 10.2 47.65 9.9 47.9 9.75 48.3 9.6 47.85 9.35 47.65 9.15 47.45 8.65 47.45 8.25 47.45 8 47.65 7.65 47.9 7.55 48.25
L 7.5 48.25 7.5 47.55 Z"/>
</g>

<g id="BDM_160x600_FR_psd_Asset_9_V8_2_Exploitez_la__puissance_du__r_seau_Wi_Fi__pour_favoriser__des_p_0_Layer0_0_MEMBER_72_FILL">
<path fill="#D82C26" stroke="none" d="
M 14.85 47.45
Q 14.4 47.45 14.05 47.65 13.75 47.85 13.5 48.25
L 13.45 47.55 13.05 47.55 13.1 48.15 13.1 52.55 13.5 52.55 13.5 50.15
Q 13.75 50.6 14.05 50.7 14.45 50.95 14.85 50.95 15.3 50.95 15.7 50.7 16.1 50.45 16.3 50.05 16.5 49.7 16.5 49.2 16.5 48.65 16.3 48.3 16.05 47.85 15.7 47.65 15.35 47.45 14.85 47.45
M 14.1 47.95
Q 14.4 47.8 14.8 47.8 15.2 47.8 15.5 47.95
L 15.95 48.5
Q 16.1 48.8 16.1 49.2 16.1 49.55 15.95 49.9
L 15.5 50.4
Q 15.1 50.6 14.8 50.6 14.5 50.6 14.1 50.4 13.8 50.15 13.65 49.9 13.5 49.55 13.5 49.2 13.5 48.8 13.65 48.5 13.75 48.2 14.1 47.95 Z"/>
</g>

<g id="BDM_160x600_FR_psd_Asset_9_V8_2_Exploitez_la__puissance_du__r_seau_Wi_Fi__pour_favoriser__des_p_0_Layer0_0_MEMBER_73_FILL">
<path fill="#D82C26" stroke="none" d="
M 17.65 45.45
L 17.25 45.55 17.25 50.1
Q 17.25 50.45 17.4 50.65
L 17.8 50.9 18 50.55
Q 17.8 50.5 17.75 50.35
L 17.65 50 17.65 45.45 Z"/>
</g>

<g id="BDM_160x600_FR_psd_Asset_9_V8_2_Exploitez_la__puissance_du__r_seau_Wi_Fi__pour_favoriser__des_p_0_Layer0_0_MEMBER_74_FILL">
<path fill="#D82C26" stroke="none" d="
M 19.85 47.45
Q 19.4 47.45 19.2 47.55 18.9 47.6 18.65 47.85
L 18.75 48.15 19.25 47.9
Q 19.55 47.75 19.8 47.75 20.25 47.75 20.5 48 20.75 48.25 20.75 48.65
L 20.75 48.85 20.35 48.85
Q 18.45 48.85 18.45 49.95 18.45 50.4 18.75 50.7 19.1 50.95 19.5 50.95 19.75 50.95 20.25 50.75 20.65 50.45 20.75 50.2
L 20.75 50.55 20.8 50.85 21.2 50.85 21.15 48.7
Q 21.15 48.1 20.8 47.75 20.45 47.45 19.85 47.45
M 20.75 49.15
L 20.75 49.45
Q 20.75 49.7 20.6 50 20.55 50.3 20.2 50.45 20 50.6 19.6 50.6 19.3 50.6 19.05 50.45 18.85 50.3 18.85 49.95 18.85 49.15 20.4 49.15
L 20.75 49.15 Z"/>
</g>

<g id="BDM_160x600_FR_psd_Asset_9_V8_2_Exploitez_la__puissance_du__r_seau_Wi_Fi__pour_favoriser__des_p_0_Layer0_0_MEMBER_75_FILL">
<path fill="#D82C26" stroke="none" d="
M 22.05 48.3
Q 21.85 48.65 21.85 49.2 21.85 49.75 22.05 50.1 22.3 50.5 22.7 50.7 23.1 50.95 23.55 50.95 23.9 50.95 24.2 50.8
L 24.7 50.55 24.65 50.2 24.15 50.5 23.6 50.6
Q 23.3 50.6 22.9 50.4 22.6 50.15 22.45 49.9 22.25 49.4 22.25 49.2 22.25 48.9 22.45 48.5 22.55 48.2 22.9 47.95 23.2 47.8 23.6 47.8
L 24.1 47.85 24.55 48.15 24.7 47.8 24.2 47.55
Q 24 47.45 23.6 47.45 23.05 47.45 22.7 47.65 22.25 47.85 22.05 48.3 Z"/>
</g>

<g id="BDM_160x600_FR_psd_Asset_9_V8_2_Exploitez_la__puissance_du__r_seau_Wi_Fi__pour_favoriser__des_p_0_Layer0_0_MEMBER_76_FILL">
<path fill="#D82C26" stroke="none" d="
M 25.2 48.25
Q 25 48.65 25 49.15 25 49.7 25.2 50.1 25.45 50.5 25.8 50.7 26.3 50.95 26.7 50.95 27.5 50.95 28 50.5
L 27.95 50.15
Q 27.75 50.35 27.4 50.45 27.1 50.6 26.75 50.6 26.3 50.6 26.05 50.4 25.75 50.25 25.6 49.9 25.4 49.65 25.4 49.25
L 28.2 49.25 28.2 49.05
Q 28.2 48.65 28.05 48.25 27.8 47.85 27.5 47.65 27.15 47.45 26.65 47.45 26.15 47.45 25.8 47.65 25.45 47.9 25.2 48.25
M 27.8 48.95
L 25.4 48.95
Q 25.4 48.7 25.55 48.4 25.7 48.1 26 47.95 26.2 47.75 26.65 47.75 27.2 47.75 27.5 48.1 27.8 48.4 27.8 48.95 Z"/>
</g>

<g id="BDM_160x600_FR_psd_Asset_9_V8_2_Exploitez_la__puissance_du__r_seau_Wi_Fi__pour_favoriser__des_p_0_Layer0_0_MEMBER_77_FILL">
<path fill="#D82C26" stroke="none" d="
M 29.3 47.55
L 28.95 47.55 28.95 50.85 29.35 50.85 29.35 49.2
Q 29.35 48.75 29.5 48.45 29.65 48.15 29.9 47.95 30.15 47.8 30.4 47.8 30.85 47.8 31.05 48.05 31.25 48.45 31.25 48.9
L 31.25 50.85 31.65 50.85 31.65 49.15
Q 31.65 48.55 31.95 48.15 32.25 47.8 32.7 47.8 33.2 47.8 33.35 48.1 33.6 48.5 33.6 48.95
L 33.6 50.85 34 50.85 34 48.85
Q 34 48.25 33.7 47.85 33.45 47.45 32.8 47.45 32.3 47.45 32.05 47.65 31.75 47.9 31.6 48.3 31.5 47.95 31.2 47.65 30.95 47.45 30.5 47.45 30.15 47.45 29.8 47.65 29.5 47.9 29.35 48.25
L 29.3 47.55 Z"/>
</g>

<g id="BDM_160x600_FR_psd_Asset_9_V8_2_Exploitez_la__puissance_du__r_seau_Wi_Fi__pour_favoriser__des_p_0_Layer0_0_MEMBER_78_FILL">
<path fill="#D82C26" stroke="none" d="
M 34.95 48.25
Q 34.7 48.75 34.7 49.15 34.7 49.6 34.95 50.1 35.2 50.5 35.55 50.7 35.95 50.95 36.4 50.95 37.15 50.95 37.75 50.5
L 37.65 50.15
Q 37.4 50.4 37.1 50.45 36.8 50.6 36.45 50.6 36 50.6 35.75 50.4 35.45 50.25 35.3 49.9 35.1 49.5 35.1 49.25
L 37.9 49.25 37.9 49.05
Q 37.9 48.65 37.75 48.25 37.5 47.85 37.2 47.65 36.85 47.45 36.35 47.45 35.85 47.45 35.5 47.65 35.1 47.9 34.95 48.25
M 35.1 48.95
L 35.3 48.4
Q 35.45 48.05 35.7 47.95 35.95 47.75 36.35 47.75 36.9 47.75 37.2 48.1 37.45 48.35 37.55 48.95
L 35.1 48.95 Z"/>
</g>

<g id="BDM_160x600_FR_psd_Asset_9_V8_2_Exploitez_la__puissance_du__r_seau_Wi_Fi__pour_favoriser__des_p_0_Layer0_0_MEMBER_79_FILL">
<path fill="#D82C26" stroke="none" d="
M 41.5 48.8
Q 41.5 48.25 41.2 47.85 40.95 47.45 40.25 47.45 39.8 47.45 39.55 47.65 39.15 47.95 39.1 48.25
L 39.05 48.25 39.05 47.55 38.65 47.55 38.65 50.85 39.1 50.85 39.1 49.15
Q 39.1 48.7 39.25 48.4 39.3 48.1 39.65 47.95 39.9 47.8 40.2 47.8 40.7 47.8 40.9 48.1 41.1 48.6 41.1 48.9
L 41.1 50.85 41.5 50.85 41.5 48.8 Z"/>
</g>

<g id="BDM_160x600_FR_psd_Asset_9_V8_2_Exploitez_la__puissance_du__r_seau_Wi_Fi__pour_favoriser__des_p_0_Layer0_0_MEMBER_80_FILL">
<path fill="#D82C26" stroke="none" d="
M 41.9 47.85
L 42.5 47.85 42.5 50.05
Q 42.5 50.5 42.7 50.7 42.9 50.9 43.25 50.9
L 43.65 50.85 44 50.75 43.9 50.4 43.4 50.55 43.05 50.45
Q 42.9 50.3 42.9 50
L 42.9 47.85 43.75 47.85 43.85 47.55 42.9 47.55 42.9 46.6 42.5 46.75 42.5 47.55 41.95 47.55 41.9 47.85 Z"/>
</g>
</defs>

<g transform="matrix( 1, 0, 0, 1, -109,52) ">
<g transform="matrix( 1, 0, 0, 1, 103,0) ">
<g transform="matrix( 1, 0, 0, 1, 26,6) ">
<g transform="matrix( 2.815704345703125, 0, 0, 2.832611083984375, -0.85,15.6) ">
<use xlink:href="#BDM_160x600_FR_psd_Asset_9_V8_2_Exploitez_la__puissance_du__r_seau_Wi_Fi__pour_favoriser__des_p_0_Layer0_0_MEMBER_0_FILL"/>
</g>

<g transform="matrix( 2.815704345703125, 0, 0, 2.832611083984375, -0.85,15.6) ">
<use xlink:href="#BDM_160x600_FR_psd_Asset_9_V8_2_Exploitez_la__puissance_du__r_seau_Wi_Fi__pour_favoriser__des_p_0_Layer0_0_MEMBER_1_FILL"/>
</g>

<g transform="matrix( 2.815704345703125, 0, 0, 2.832611083984375, -0.85,15.6) ">
<use xlink:href="#BDM_160x600_FR_psd_Asset_9_V8_2_Exploitez_la__puissance_du__r_seau_Wi_Fi__pour_favoriser__des_p_0_Layer0_0_MEMBER_2_FILL"/>
</g>

<g transform="matrix( 2.815704345703125, 0, 0, 2.832611083984375, -0.85,15.6) ">
<use xlink:href="#BDM_160x600_FR_psd_Asset_9_V8_2_Exploitez_la__puissance_du__r_seau_Wi_Fi__pour_favoriser__des_p_0_Layer0_0_MEMBER_3_FILL"/>
</g>

<g transform="matrix( 2.815704345703125, 0, 0, 2.832611083984375, -0.85,15.6) ">
<use xlink:href="#BDM_160x600_FR_psd_Asset_9_V8_2_Exploitez_la__puissance_du__r_seau_Wi_Fi__pour_favoriser__des_p_0_Layer0_0_MEMBER_4_FILL"/>
</g>

<g transform="matrix( 2.815704345703125, 0, 0, 2.832611083984375, -0.85,15.6) ">
<use xlink:href="#BDM_160x600_FR_psd_Asset_9_V8_2_Exploitez_la__puissance_du__r_seau_Wi_Fi__pour_favoriser__des_p_0_Layer0_0_MEMBER_5_FILL"/>
</g>

<g transform="matrix( 2.815704345703125, 0, 0, 2.832611083984375, -0.85,15.6) ">
<use xlink:href="#BDM_160x600_FR_psd_Asset_9_V8_2_Exploitez_la__puissance_du__r_seau_Wi_Fi__pour_favoriser__des_p_0_Layer0_0_MEMBER_6_FILL"/>
</g>

<g transform="matrix( 2.815704345703125, 0, 0, 2.832611083984375, -0.85,15.6) ">
<use xlink:href="#BDM_160x600_FR_psd_Asset_9_V8_2_Exploitez_la__puissance_du__r_seau_Wi_Fi__pour_favoriser__des_p_0_Layer0_0_MEMBER_7_FILL"/>
</g>

<g transform="matrix( 2.815704345703125, 0, 0, 2.832611083984375, -0.85,15.6) ">
<use xlink:href="#BDM_160x600_FR_psd_Asset_9_V8_2_Exploitez_la__puissance_du__r_seau_Wi_Fi__pour_favoriser__des_p_0_Layer0_0_MEMBER_8_FILL"/>
</g>

<g transform="matrix( 2.815704345703125, 0, 0, 2.832611083984375, -0.85,15.6) ">
<use xlink:href="#BDM_160x600_FR_psd_Asset_9_V8_2_Exploitez_la__puissance_du__r_seau_Wi_Fi__pour_favoriser__des_p_0_Layer0_0_MEMBER_9_FILL"/>
</g>

<g transform="matrix( 2.815704345703125, 0, 0, 2.832611083984375, -0.85,15.6) ">
<use xlink:href="#BDM_160x600_FR_psd_Asset_9_V8_2_Exploitez_la__puissance_du__r_seau_Wi_Fi__pour_favoriser__des_p_0_Layer0_0_MEMBER_10_FILL"/>
</g>

<g transform="matrix( 2.815704345703125, 0, 0, 2.832611083984375, -0.85,15.6) ">
<use xlink:href="#BDM_160x600_FR_psd_Asset_9_V8_2_Exploitez_la__puissance_du__r_seau_Wi_Fi__pour_favoriser__des_p_0_Layer0_0_MEMBER_11_FILL"/>
</g>

<g transform="matrix( 2.815704345703125, 0, 0, 2.832611083984375, -0.85,15.6) ">
<use xlink:href="#BDM_160x600_FR_psd_Asset_9_V8_2_Exploitez_la__puissance_du__r_seau_Wi_Fi__pour_favoriser__des_p_0_Layer0_0_MEMBER_12_FILL"/>
</g>

<g transform="matrix( 2.815704345703125, 0, 0, 2.832611083984375, -0.85,15.6) ">
<use xlink:href="#BDM_160x600_FR_psd_Asset_9_V8_2_Exploitez_la__puissance_du__r_seau_Wi_Fi__pour_favoriser__des_p_0_Layer0_0_MEMBER_13_FILL"/>
</g>

<g transform="matrix( 2.815704345703125, 0, 0, 2.832611083984375, -0.85,15.6) ">
<use xlink:href="#BDM_160x600_FR_psd_Asset_9_V8_2_Exploitez_la__puissance_du__r_seau_Wi_Fi__pour_favoriser__des_p_0_Layer0_0_MEMBER_14_FILL"/>
</g>

<g transform="matrix( 2.815704345703125, 0, 0, 2.832611083984375, -0.85,15.6) ">
<use xlink:href="#BDM_160x600_FR_psd_Asset_9_V8_2_Exploitez_la__puissance_du__r_seau_Wi_Fi__pour_favoriser__des_p_0_Layer0_0_MEMBER_15_FILL"/>
</g>

<g transform="matrix( 2.815704345703125, 0, 0, 2.832611083984375, -0.85,15.6) ">
<use xlink:href="#BDM_160x600_FR_psd_Asset_9_V8_2_Exploitez_la__puissance_du__r_seau_Wi_Fi__pour_favoriser__des_p_0_Layer0_0_MEMBER_16_FILL"/>
</g>

<g transform="matrix( 2.815704345703125, 0, 0, 2.832611083984375, -0.85,15.6) ">
<use xlink:href="#BDM_160x600_FR_psd_Asset_9_V8_2_Exploitez_la__puissance_du__r_seau_Wi_Fi__pour_favoriser__des_p_0_Layer0_0_MEMBER_17_FILL"/>
</g>

<g transform="matrix( 2.815704345703125, 0, 0, 2.832611083984375, -0.85,15.6) ">
<use xlink:href="#BDM_160x600_FR_psd_Asset_9_V8_2_Exploitez_la__puissance_du__r_seau_Wi_Fi__pour_favoriser__des_p_0_Layer0_0_MEMBER_18_FILL"/>
</g>

<g transform="matrix( 2.815704345703125, 0, 0, 2.832611083984375, -0.85,15.6) ">
<use xlink:href="#BDM_160x600_FR_psd_Asset_9_V8_2_Exploitez_la__puissance_du__r_seau_Wi_Fi__pour_favoriser__des_p_0_Layer0_0_MEMBER_19_FILL"/>
</g>

<g transform="matrix( 2.815704345703125, 0, 0, 2.832611083984375, -0.85,15.6) ">
<use xlink:href="#BDM_160x600_FR_psd_Asset_9_V8_2_Exploitez_la__puissance_du__r_seau_Wi_Fi__pour_favoriser__des_p_0_Layer0_0_MEMBER_20_FILL"/>
</g>

<g transform="matrix( 2.815704345703125, 0, 0, 2.832611083984375, -0.85,15.6) ">
<use xlink:href="#BDM_160x600_FR_psd_Asset_9_V8_2_Exploitez_la__puissance_du__r_seau_Wi_Fi__pour_favoriser__des_p_0_Layer0_0_MEMBER_21_FILL"/>
</g>

<g transform="matrix( 2.815704345703125, 0, 0, 2.832611083984375, -0.85,15.6) ">
<use xlink:href="#BDM_160x600_FR_psd_Asset_9_V8_2_Exploitez_la__puissance_du__r_seau_Wi_Fi__pour_favoriser__des_p_0_Layer0_0_MEMBER_22_FILL"/>
</g>

<g transform="matrix( 2.815704345703125, 0, 0, 2.832611083984375, -0.85,15.6) ">
<use xlink:href="#BDM_160x600_FR_psd_Asset_9_V8_2_Exploitez_la__puissance_du__r_seau_Wi_Fi__pour_favoriser__des_p_0_Layer0_0_MEMBER_23_FILL"/>
</g>

<g transform="matrix( 2.815704345703125, 0, 0, 2.832611083984375, -0.85,15.6) ">
<use xlink:href="#BDM_160x600_FR_psd_Asset_9_V8_2_Exploitez_la__puissance_du__r_seau_Wi_Fi__pour_favoriser__des_p_0_Layer0_0_MEMBER_24_FILL"/>
</g>

<g transform="matrix( 2.815704345703125, 0, 0, 2.832611083984375, -0.85,15.6) ">
<use xlink:href="#BDM_160x600_FR_psd_Asset_9_V8_2_Exploitez_la__puissance_du__r_seau_Wi_Fi__pour_favoriser__des_p_0_Layer0_0_MEMBER_25_FILL"/>
</g>

<g transform="matrix( 2.815704345703125, 0, 0, 2.832611083984375, -0.85,15.6) ">
<use xlink:href="#BDM_160x600_FR_psd_Asset_9_V8_2_Exploitez_la__puissance_du__r_seau_Wi_Fi__pour_favoriser__des_p_0_Layer0_0_MEMBER_26_FILL"/>
</g>

<g transform="matrix( 2.815704345703125, 0, 0, 2.832611083984375, -0.85,15.6) ">
<use xlink:href="#BDM_160x600_FR_psd_Asset_9_V8_2_Exploitez_la__puissance_du__r_seau_Wi_Fi__pour_favoriser__des_p_0_Layer0_0_MEMBER_27_FILL"/>
</g>

<g transform="matrix( 2.815704345703125, 0, 0, 2.832611083984375, -0.85,15.6) ">
<use xlink:href="#BDM_160x600_FR_psd_Asset_9_V8_2_Exploitez_la__puissance_du__r_seau_Wi_Fi__pour_favoriser__des_p_0_Layer0_0_MEMBER_28_FILL"/>
</g>

<g transform="matrix( 2.815704345703125, 0, 0, 2.832611083984375, -0.85,15.6) ">
<use xlink:href="#BDM_160x600_FR_psd_Asset_9_V8_2_Exploitez_la__puissance_du__r_seau_Wi_Fi__pour_favoriser__des_p_0_Layer0_0_MEMBER_29_FILL"/>
</g>

<g transform="matrix( 2.815704345703125, 0, 0, 2.832611083984375, -0.85,15.6) ">
<use xlink:href="#BDM_160x600_FR_psd_Asset_9_V8_2_Exploitez_la__puissance_du__r_seau_Wi_Fi__pour_favoriser__des_p_0_Layer0_0_MEMBER_30_FILL"/>
</g>

<g transform="matrix( 2.815704345703125, 0, 0, 2.832611083984375, -0.85,15.6) ">
<use xlink:href="#BDM_160x600_FR_psd_Asset_9_V8_2_Exploitez_la__puissance_du__r_seau_Wi_Fi__pour_favoriser__des_p_0_Layer0_0_MEMBER_31_FILL"/>
</g>

<g transform="matrix( 2.815704345703125, 0, 0, 2.832611083984375, -0.85,15.6) ">
<use xlink:href="#BDM_160x600_FR_psd_Asset_9_V8_2_Exploitez_la__puissance_du__r_seau_Wi_Fi__pour_favoriser__des_p_0_Layer0_0_MEMBER_32_FILL"/>
</g>

<g transform="matrix( 2.815704345703125, 0, 0, 2.832611083984375, -0.85,15.6) ">
<use xlink:href="#BDM_160x600_FR_psd_Asset_9_V8_2_Exploitez_la__puissance_du__r_seau_Wi_Fi__pour_favoriser__des_p_0_Layer0_0_MEMBER_33_FILL"/>
</g>

<g transform="matrix( 2.815704345703125, 0, 0, 2.832611083984375, -0.85,15.6) ">
<use xlink:href="#BDM_160x600_FR_psd_Asset_9_V8_2_Exploitez_la__puissance_du__r_seau_Wi_Fi__pour_favoriser__des_p_0_Layer0_0_MEMBER_34_FILL"/>
</g>

<g transform="matrix( 2.815704345703125, 0, 0, 2.832611083984375, -0.85,15.6) ">
<use xlink:href="#BDM_160x600_FR_psd_Asset_9_V8_2_Exploitez_la__puissance_du__r_seau_Wi_Fi__pour_favoriser__des_p_0_Layer0_0_MEMBER_35_FILL"/>
</g>

<g transform="matrix( 2.815704345703125, 0, 0, 2.832611083984375, -0.85,15.6) ">
<use xlink:href="#BDM_160x600_FR_psd_Asset_9_V8_2_Exploitez_la__puissance_du__r_seau_Wi_Fi__pour_favoriser__des_p_0_Layer0_0_MEMBER_36_FILL"/>
</g>

<g transform="matrix( 2.815704345703125, 0, 0, 2.832611083984375, -0.85,15.6) ">
<use xlink:href="#BDM_160x600_FR_psd_Asset_9_V8_2_Exploitez_la__puissance_du__r_seau_Wi_Fi__pour_favoriser__des_p_0_Layer0_0_MEMBER_37_FILL"/>
</g>

<g transform="matrix( 2.815704345703125, 0, 0, 2.832611083984375, -0.85,15.6) ">
<use xlink:href="#BDM_160x600_FR_psd_Asset_9_V8_2_Exploitez_la__puissance_du__r_seau_Wi_Fi__pour_favoriser__des_p_0_Layer0_0_MEMBER_38_FILL"/>
</g>

<g transform="matrix( 2.815704345703125, 0, 0, 2.832611083984375, -0.85,15.6) ">
<use xlink:href="#BDM_160x600_FR_psd_Asset_9_V8_2_Exploitez_la__puissance_du__r_seau_Wi_Fi__pour_favoriser__des_p_0_Layer0_0_MEMBER_39_FILL"/>
</g>

<g transform="matrix( 2.815704345703125, 0, 0, 2.832611083984375, -0.85,15.6) ">
<use xlink:href="#BDM_160x600_FR_psd_Asset_9_V8_2_Exploitez_la__puissance_du__r_seau_Wi_Fi__pour_favoriser__des_p_0_Layer0_0_MEMBER_40_FILL"/>
</g>

<g transform="matrix( 2.815704345703125, 0, 0, 2.832611083984375, -0.85,15.6) ">
<use xlink:href="#BDM_160x600_FR_psd_Asset_9_V8_2_Exploitez_la__puissance_du__r_seau_Wi_Fi__pour_favoriser__des_p_0_Layer0_0_MEMBER_41_FILL"/>
</g>

<g transform="matrix( 2.815704345703125, 0, 0, 2.832611083984375, -0.85,15.6) ">
<use xlink:href="#BDM_160x600_FR_psd_Asset_9_V8_2_Exploitez_la__puissance_du__r_seau_Wi_Fi__pour_favoriser__des_p_0_Layer0_0_MEMBER_42_FILL"/>
</g>

<g transform="matrix( 2.815704345703125, 0, 0, 2.832611083984375, -0.85,15.6) ">
<use xlink:href="#BDM_160x600_FR_psd_Asset_9_V8_2_Exploitez_la__puissance_du__r_seau_Wi_Fi__pour_favoriser__des_p_0_Layer0_0_MEMBER_43_FILL"/>
</g>

<g transform="matrix( 2.815704345703125, 0, 0, 2.832611083984375, -0.85,15.6) ">
<use xlink:href="#BDM_160x600_FR_psd_Asset_9_V8_2_Exploitez_la__puissance_du__r_seau_Wi_Fi__pour_favoriser__des_p_0_Layer0_0_MEMBER_44_FILL"/>
</g>

<g transform="matrix( 2.815704345703125, 0, 0, 2.832611083984375, -0.85,15.6) ">
<use xlink:href="#BDM_160x600_FR_psd_Asset_9_V8_2_Exploitez_la__puissance_du__r_seau_Wi_Fi__pour_favoriser__des_p_0_Layer0_0_MEMBER_45_FILL"/>
</g>

<g transform="matrix( 2.815704345703125, 0, 0, 2.832611083984375, -0.85,15.6) ">
<use xlink:href="#BDM_160x600_FR_psd_Asset_9_V8_2_Exploitez_la__puissance_du__r_seau_Wi_Fi__pour_favoriser__des_p_0_Layer0_0_MEMBER_46_FILL"/>
</g>

<g transform="matrix( 2.815704345703125, 0, 0, 2.832611083984375, -0.85,15.6) ">
<use xlink:href="#BDM_160x600_FR_psd_Asset_9_V8_2_Exploitez_la__puissance_du__r_seau_Wi_Fi__pour_favoriser__des_p_0_Layer0_0_MEMBER_47_FILL"/>
</g>

<g transform="matrix( 2.815704345703125, 0, 0, 2.832611083984375, -0.85,15.6) ">
<use xlink:href="#BDM_160x600_FR_psd_Asset_9_V8_2_Exploitez_la__puissance_du__r_seau_Wi_Fi__pour_favoriser__des_p_0_Layer0_0_MEMBER_48_FILL"/>
</g>

<g transform="matrix( 2.815704345703125, 0, 0, 2.832611083984375, -0.85,15.6) ">
<use xlink:href="#BDM_160x600_FR_psd_Asset_9_V8_2_Exploitez_la__puissance_du__r_seau_Wi_Fi__pour_favoriser__des_p_0_Layer0_0_MEMBER_49_FILL"/>
</g>

<g transform="matrix( 2.815704345703125, 0, 0, 2.832611083984375, -0.85,15.6) ">
<use xlink:href="#BDM_160x600_FR_psd_Asset_9_V8_2_Exploitez_la__puissance_du__r_seau_Wi_Fi__pour_favoriser__des_p_0_Layer0_0_MEMBER_50_FILL"/>
</g>

<g transform="matrix( 2.815704345703125, 0, 0, 2.832611083984375, -0.85,15.6) ">
<use xlink:href="#BDM_160x600_FR_psd_Asset_9_V8_2_Exploitez_la__puissance_du__r_seau_Wi_Fi__pour_favoriser__des_p_0_Layer0_0_MEMBER_51_FILL"/>
</g>

<g transform="matrix( 2.815704345703125, 0, 0, 2.832611083984375, -0.85,15.6) ">
<use xlink:href="#BDM_160x600_FR_psd_Asset_9_V8_2_Exploitez_la__puissance_du__r_seau_Wi_Fi__pour_favoriser__des_p_0_Layer0_0_MEMBER_52_FILL"/>
</g>

<g transform="matrix( 2.815704345703125, 0, 0, 2.832611083984375, -0.85,15.6) ">
<use xlink:href="#BDM_160x600_FR_psd_Asset_9_V8_2_Exploitez_la__puissance_du__r_seau_Wi_Fi__pour_favoriser__des_p_0_Layer0_0_MEMBER_53_FILL"/>
</g>

<g transform="matrix( 2.815704345703125, 0, 0, 2.832611083984375, -0.85,15.6) ">
<use xlink:href="#BDM_160x600_FR_psd_Asset_9_V8_2_Exploitez_la__puissance_du__r_seau_Wi_Fi__pour_favoriser__des_p_0_Layer0_0_MEMBER_54_FILL"/>
</g>

<g transform="matrix( 2.815704345703125, 0, 0, 2.832611083984375, -0.85,15.6) ">
<use xlink:href="#BDM_160x600_FR_psd_Asset_9_V8_2_Exploitez_la__puissance_du__r_seau_Wi_Fi__pour_favoriser__des_p_0_Layer0_0_MEMBER_55_FILL"/>
</g>

<g transform="matrix( 2.815704345703125, 0, 0, 2.832611083984375, -0.85,15.6) ">
<use xlink:href="#BDM_160x600_FR_psd_Asset_9_V8_2_Exploitez_la__puissance_du__r_seau_Wi_Fi__pour_favoriser__des_p_0_Layer0_0_MEMBER_56_FILL"/>
</g>

<g transform="matrix( 2.815704345703125, 0, 0, 2.832611083984375, -0.85,15.6) ">
<use xlink:href="#BDM_160x600_FR_psd_Asset_9_V8_2_Exploitez_la__puissance_du__r_seau_Wi_Fi__pour_favoriser__des_p_0_Layer0_0_MEMBER_57_FILL"/>
</g>

<g transform="matrix( 2.815704345703125, 0, 0, 2.832611083984375, -0.85,15.6) ">
<use xlink:href="#BDM_160x600_FR_psd_Asset_9_V8_2_Exploitez_la__puissance_du__r_seau_Wi_Fi__pour_favoriser__des_p_0_Layer0_0_MEMBER_58_FILL"/>
</g>

<g transform="matrix( 2.815704345703125, 0, 0, 2.832611083984375, -0.85,15.6) ">
<use xlink:href="#BDM_160x600_FR_psd_Asset_9_V8_2_Exploitez_la__puissance_du__r_seau_Wi_Fi__pour_favoriser__des_p_0_Layer0_0_MEMBER_59_FILL"/>
</g>

<g transform="matrix( 2.815704345703125, 0, 0, 2.832611083984375, -0.85,15.6) ">
<use xlink:href="#BDM_160x600_FR_psd_Asset_9_V8_2_Exploitez_la__puissance_du__r_seau_Wi_Fi__pour_favoriser__des_p_0_Layer0_0_MEMBER_60_FILL"/>
</g>

<g transform="matrix( 2.815704345703125, 0, 0, 2.832611083984375, -0.85,15.6) ">
<use xlink:href="#BDM_160x600_FR_psd_Asset_9_V8_2_Exploitez_la__puissance_du__r_seau_Wi_Fi__pour_favoriser__des_p_0_Layer0_0_MEMBER_61_FILL"/>
</g>

<g transform="matrix( 2.815704345703125, 0, 0, 2.832611083984375, -0.85,15.6) ">
<use xlink:href="#BDM_160x600_FR_psd_Asset_9_V8_2_Exploitez_la__puissance_du__r_seau_Wi_Fi__pour_favoriser__des_p_0_Layer0_0_MEMBER_62_FILL"/>
</g>

<g transform="matrix( 2.815704345703125, 0, 0, 2.832611083984375, -0.85,15.6) ">
<use xlink:href="#BDM_160x600_FR_psd_Asset_9_V8_2_Exploitez_la__puissance_du__r_seau_Wi_Fi__pour_favoriser__des_p_0_Layer0_0_MEMBER_63_FILL"/>
</g>

<g transform="matrix( 2.815704345703125, 0, 0, 2.832611083984375, -0.85,15.6) ">
<use xlink:href="#BDM_160x600_FR_psd_Asset_9_V8_2_Exploitez_la__puissance_du__r_seau_Wi_Fi__pour_favoriser__des_p_0_Layer0_0_MEMBER_64_FILL"/>
</g>

<g transform="matrix( 2.815704345703125, 0, 0, 2.832611083984375, -0.85,15.6) ">
<use xlink:href="#BDM_160x600_FR_psd_Asset_9_V8_2_Exploitez_la__puissance_du__r_seau_Wi_Fi__pour_favoriser__des_p_0_Layer0_0_MEMBER_65_FILL"/>
</g>

<g transform="matrix( 2.815704345703125, 0, 0, 2.832611083984375, -0.85,15.6) ">
<use xlink:href="#BDM_160x600_FR_psd_Asset_9_V8_2_Exploitez_la__puissance_du__r_seau_Wi_Fi__pour_favoriser__des_p_0_Layer0_0_MEMBER_66_FILL"/>
</g>

<g transform="matrix( 2.815704345703125, 0, 0, 2.832611083984375, -0.85,15.6) ">
<use xlink:href="#BDM_160x600_FR_psd_Asset_9_V8_2_Exploitez_la__puissance_du__r_seau_Wi_Fi__pour_favoriser__des_p_0_Layer0_0_MEMBER_67_FILL"/>
</g>

<g transform="matrix( 2.815704345703125, 0, 0, 2.832611083984375, -0.85,15.6) ">
<use xlink:href="#BDM_160x600_FR_psd_Asset_9_V8_2_Exploitez_la__puissance_du__r_seau_Wi_Fi__pour_favoriser__des_p_0_Layer0_0_MEMBER_68_FILL"/>
</g>

<g transform="matrix( 2.815704345703125, 0, 0, 2.832611083984375, -0.85,15.6) ">
<use xlink:href="#BDM_160x600_FR_psd_Asset_9_V8_2_Exploitez_la__puissance_du__r_seau_Wi_Fi__pour_favoriser__des_p_0_Layer0_0_MEMBER_69_FILL"/>
</g>

<g transform="matrix( 2.815704345703125, 0, 0, 2.832611083984375, -0.85,15.6) ">
<use xlink:href="#BDM_160x600_FR_psd_Asset_9_V8_2_Exploitez_la__puissance_du__r_seau_Wi_Fi__pour_favoriser__des_p_0_Layer0_0_MEMBER_70_FILL"/>
</g>

<g transform="matrix( 2.815704345703125, 0, 0, 2.832611083984375, -0.85,15.6) ">
<use xlink:href="#BDM_160x600_FR_psd_Asset_9_V8_2_Exploitez_la__puissance_du__r_seau_Wi_Fi__pour_favoriser__des_p_0_Layer0_0_MEMBER_71_FILL"/>
</g>

<g transform="matrix( 2.815704345703125, 0, 0, 2.832611083984375, -0.85,15.6) ">
<use xlink:href="#BDM_160x600_FR_psd_Asset_9_V8_2_Exploitez_la__puissance_du__r_seau_Wi_Fi__pour_favoriser__des_p_0_Layer0_0_MEMBER_72_FILL"/>
</g>

<g transform="matrix( 2.815704345703125, 0, 0, 2.832611083984375, -0.85,15.6) ">
<use xlink:href="#BDM_160x600_FR_psd_Asset_9_V8_2_Exploitez_la__puissance_du__r_seau_Wi_Fi__pour_favoriser__des_p_0_Layer0_0_MEMBER_73_FILL"/>
</g>

<g transform="matrix( 2.815704345703125, 0, 0, 2.832611083984375, -0.85,15.6) ">
<use xlink:href="#BDM_160x600_FR_psd_Asset_9_V8_2_Exploitez_la__puissance_du__r_seau_Wi_Fi__pour_favoriser__des_p_0_Layer0_0_MEMBER_74_FILL"/>
</g>

<g transform="matrix( 2.815704345703125, 0, 0, 2.832611083984375, -0.85,15.6) ">
<use xlink:href="#BDM_160x600_FR_psd_Asset_9_V8_2_Exploitez_la__puissance_du__r_seau_Wi_Fi__pour_favoriser__des_p_0_Layer0_0_MEMBER_75_FILL"/>
</g>

<g transform="matrix( 2.815704345703125, 0, 0, 2.832611083984375, -0.85,15.6) ">
<use xlink:href="#BDM_160x600_FR_psd_Asset_9_V8_2_Exploitez_la__puissance_du__r_seau_Wi_Fi__pour_favoriser__des_p_0_Layer0_0_MEMBER_76_FILL"/>
</g>

<g transform="matrix( 2.815704345703125, 0, 0, 2.832611083984375, -0.85,15.6) ">
<use xlink:href="#BDM_160x600_FR_psd_Asset_9_V8_2_Exploitez_la__puissance_du__r_seau_Wi_Fi__pour_favoriser__des_p_0_Layer0_0_MEMBER_77_FILL"/>
</g>

<g transform="matrix( 2.815704345703125, 0, 0, 2.832611083984375, -0.85,15.6) ">
<use xlink:href="#BDM_160x600_FR_psd_Asset_9_V8_2_Exploitez_la__puissance_du__r_seau_Wi_Fi__pour_favoriser__des_p_0_Layer0_0_MEMBER_78_FILL"/>
</g>

<g transform="matrix( 2.815704345703125, 0, 0, 2.832611083984375, -0.85,15.6) ">
<use xlink:href="#BDM_160x600_FR_psd_Asset_9_V8_2_Exploitez_la__puissance_du__r_seau_Wi_Fi__pour_favoriser__des_p_0_Layer0_0_MEMBER_79_FILL"/>
</g>

<g transform="matrix( 2.815704345703125, 0, 0, 2.832611083984375, -0.85,15.6) ">
<use xlink:href="#BDM_160x600_FR_psd_Asset_9_V8_2_Exploitez_la__puissance_du__r_seau_Wi_Fi__pour_favoriser__des_p_0_Layer0_0_MEMBER_80_FILL"/>
</g>
</g>
</g>
</g>
</svg>
