
<svg xmlns="http://www.w3.org/2000/svg" version="1.1" xmlns:xlink="http://www.w3.org/1999/xlink" preserveAspectRatio="none" x="0px" y="0px" width="640px" height="480px" viewBox="0 0 640 480">
<defs>
<g id="IT_640x480_psd_Asset_5_ManagedWiFi_IT_Awareness_DM7_4_Learn_more_about_the__solutions_that_are_available__0_Layer0_0_MEMBER_0_FILL">
<path fill="#D82C26" stroke="none" d="
M 2 -9
L 1.25 -9 1.25 0 5.9 0 6.05 -0.7 2 -0.7 2 -9 Z"/>
</g>

<g id="IT_640x480_psd_Asset_5_ManagedWiFi_IT_Awareness_DM7_4_Learn_more_about_the__solutions_that_are_available__0_Layer0_0_MEMBER_1_FILL">
<path fill="#D82C26" stroke="none" d="
M 9.45 -6.15
Q 8.65 -6.15 7.95 -5.75 7.25 -5.3 6.9 -4.65 6.5 -4 6.5 -3 6.5 -2 6.9 -1.35 7.3 -0.6 7.95 -0.25 8.7 0.2 9.55 0.2 10.95 0.2 11.9 -0.55
L 11.8 -1.2
Q 11.2 -0.8 10.8 -0.65 10.35 -0.45 9.6 -0.45 8.95 -0.45 8.4 -0.75 7.9 -1.05 7.55 -1.65 7.2 -2.25 7.2 -2.85
L 12.25 -2.85 12.25 -3.2
Q 12.25 -4 11.95 -4.7 11.55 -5.4 10.95 -5.75 10.3 -6.15 9.45 -6.15
M 8.25 -5.2
Q 8.75 -5.55 9.45 -5.55 10.45 -5.55 10.95 -4.95 11.55 -4.4 11.55 -3.4
L 7.25 -3.4
Q 7.25 -3.8 7.5 -4.4 7.85 -4.95 8.25 -5.2 Z"/>
</g>

<g id="IT_640x480_psd_Asset_5_ManagedWiFi_IT_Awareness_DM7_4_Learn_more_about_the__solutions_that_are_available__0_Layer0_0_MEMBER_2_FILL">
<path fill="#D82C26" stroke="none" d="
M 13.05 -1.6
Q 13.05 -0.75 13.6 -0.3 14.2 0.15 14.95 0.15 15.65 0.15 16.3 -0.15 16.95 -0.55 17.15 -1.15
L 17.2 -1.15 17.3 0 18 0
Q 17.85 -0.45 17.85 -1.3
L 17.85 -3.85
Q 17.85 -5 17.25 -5.55 16.65 -6.15 15.6 -6.15 15.1 -6.15 14.4 -5.95 13.7 -5.7 13.35 -5.4
L 13.6 -4.8
Q 14.1 -5.2 14.45 -5.35 15.25 -5.55 15.5 -5.55 16.2 -5.55 16.7 -5.15 17.15 -4.7 17.15 -3.9
L 17.15 -3.55 16.45 -3.55
Q 13.05 -3.55 13.05 -1.6
M 14.15 -0.7
Q 13.75 -1 13.75 -1.65 13.75 -3.1 16.55 -3.1
L 17.15 -3.1 17.15 -2.5
Q 17.15 -1.9 16.95 -1.5 16.7 -1 16.25 -0.7 15.75 -0.4 15.1 -0.4 14.55 -0.4 14.15 -0.7 Z"/>
</g>

<g id="IT_640x480_psd_Asset_5_ManagedWiFi_IT_Awareness_DM7_4_Learn_more_about_the__solutions_that_are_available__0_Layer0_0_MEMBER_3_FILL">
<path fill="#D82C26" stroke="none" d="
M 20.15 -5.95
L 19.45 -5.95 19.5 0 20.25 0 20.25 -2.95
Q 20.25 -4 20.7 -4.75 21.15 -5.45 21.95 -5.45
L 22.5 -5.4 22.65 -6
Q 22.35 -6.15 22 -6.15 21.5 -6.15 20.95 -5.75 20.5 -5.35 20.25 -4.65
L 20.15 -5.95 Z"/>
</g>

<g id="IT_640x480_psd_Asset_5_ManagedWiFi_IT_Awareness_DM7_4_Learn_more_about_the__solutions_that_are_available__0_Layer0_0_MEMBER_4_FILL">
<path fill="#D82C26" stroke="none" d="
M 24.15 -5.95
L 23.45 -5.95 23.5 0 24.25 0 24.25 -3.05
Q 24.25 -3.9 24.5 -4.35 24.7 -4.85 25.2 -5.2 25.65 -5.5 26.2 -5.5 27.1 -5.5 27.45 -4.9 27.8 -4.35 27.8 -3.45
L 27.8 0 28.55 0 28.55 -3.65
Q 28.55 -4.75 28.05 -5.4 27.45 -6.15 26.35 -6.15 25.7 -6.15 25.05 -5.75 24.5 -5.35 24.2 -4.65
L 24.15 -5.95 Z"/>
</g>

<g id="IT_640x480_psd_Asset_5_ManagedWiFi_IT_Awareness_DM7_4_Learn_more_about_the__solutions_that_are_available__0_Layer0_0_MEMBER_5_FILL">
<path fill="#D82C26" stroke="none" d="
M 33.7 -5.95
L 33 -5.95 33.05 0 33.8 0 33.8 -2.95
Q 33.8 -3.85 34.05 -4.35 34.3 -4.95 34.7 -5.2 35.15 -5.5 35.65 -5.5 36.4 -5.5 36.75 -5 37.15 -4.45 37.15 -3.5
L 37.15 0 37.9 0 37.9 -3.1
Q 37.9 -4.1 38.4 -4.85 38.9 -5.5 39.8 -5.5 40.65 -5.5 41 -4.9 41.35 -4.35 41.35 -3.4
L 41.35 0 42.1 0 42.1 -3.55
Q 42.1 -4.6 41.55 -5.4 41.1 -6.15 39.95 -6.15 39.25 -6.15 38.6 -5.75 38 -5.25 37.75 -4.6 37.55 -5.35 37.05 -5.75 36.55 -6.15 35.85 -6.15 35.15 -6.15 34.6 -5.75 34.05 -5.35 33.75 -4.65
L 33.7 -5.95 Z"/>
</g>

<g id="IT_640x480_psd_Asset_5_ManagedWiFi_IT_Awareness_DM7_4_Learn_more_about_the__solutions_that_are_available__0_Layer0_0_MEMBER_6_FILL">
<path fill="#D82C26" stroke="none" d="
M 43.75 -1.35
Q 44.15 -0.65 44.85 -0.25 45.6 0.2 46.5 0.2 47.45 0.2 48.1 -0.25 48.85 -0.6 49.25 -1.35 49.65 -2 49.65 -3 49.65 -4 49.25 -4.6 48.9 -5.25 48.1 -5.75 47.4 -6.15 46.5 -6.15 45.65 -6.15 44.85 -5.75 44.05 -5.2 43.75 -4.6 43.3 -3.9 43.3 -3 43.3 -2.1 43.75 -1.35
M 44.35 -4.25
Q 44.65 -4.85 45.2 -5.15 45.75 -5.5 46.5 -5.5 47.25 -5.5 47.75 -5.15 48.3 -4.9 48.6 -4.25 48.9 -3.7 48.9 -3 48.9 -2.3 48.6 -1.7 48.4 -1.2 47.8 -0.8 47.25 -0.45 46.5 -0.45 45.75 -0.45 45.2 -0.8 44.65 -1.2 44.35 -1.7 44.05 -2.3 44.05 -3 44.05 -3.7 44.35 -4.25 Z"/>
</g>

<g id="IT_640x480_psd_Asset_5_ManagedWiFi_IT_Awareness_DM7_4_Learn_more_about_the__solutions_that_are_available__0_Layer0_0_MEMBER_7_FILL">
<path fill="#D82C26" stroke="none" d="
M 54.05 -6
Q 53.75 -6.15 53.45 -6.15 52.95 -6.15 52.4 -5.75 51.95 -5.35 51.7 -4.65
L 51.65 -4.65 51.6 -5.95 50.9 -5.95 50.95 0 51.7 0 51.7 -2.95
Q 51.7 -4 52.15 -4.75 52.6 -5.45 53.4 -5.45
L 53.9 -5.4 54.05 -6 Z"/>
</g>

<g id="IT_640x480_psd_Asset_5_ManagedWiFi_IT_Awareness_DM7_4_Learn_more_about_the__solutions_that_are_available__0_Layer0_0_MEMBER_8_FILL">
<path fill="#D82C26" stroke="none" d="
M 54.55 -1.35
Q 55.05 -0.55 55.65 -0.25 56.35 0.2 57.2 0.2 58.65 0.2 59.6 -0.55
L 59.45 -1.2
Q 59 -0.85 58.5 -0.65 58.05 -0.45 57.3 -0.45 56.6 -0.45 56.05 -0.75 55.5 -1.15 55.2 -1.65 54.9 -2.15 54.9 -2.85
L 59.95 -2.85 59.95 -3.2
Q 59.95 -4 59.65 -4.7 59.25 -5.4 58.65 -5.75 58 -6.15 57.1 -6.15 56.3 -6.15 55.6 -5.75 54.9 -5.3 54.55 -4.65 54.15 -3.85 54.15 -3 54.15 -2.15 54.55 -1.35
M 54.9 -3.4
Q 55 -4.05 55.2 -4.4 55.45 -4.9 55.95 -5.2 56.45 -5.55 57.1 -5.55 58.05 -5.55 58.65 -4.95 59.25 -4.4 59.25 -3.4
L 54.9 -3.4 Z"/>
</g>

<g id="IT_640x480_psd_Asset_5_ManagedWiFi_IT_Awareness_DM7_4_Learn_more_about_the__solutions_that_are_available__0_Layer0_0_MEMBER_9_FILL">
<path fill="#D82C26" stroke="none" d="
M 63.55 -1.6
Q 63.55 -0.75 64.15 -0.3 64.7 0.15 65.45 0.15 66.2 0.15 66.8 -0.15 67.45 -0.55 67.7 -1.15
L 67.8 0 68.5 0 68.4 -3.85
Q 68.4 -5 67.8 -5.55 67.2 -6.15 66.1 -6.15 65.7 -6.15 64.9 -5.95 64.3 -5.7 63.9 -5.4
L 64.1 -4.8
Q 64.55 -5.15 65 -5.35 65.7 -5.55 66 -5.55 66.75 -5.55 67.25 -5.15 67.7 -4.7 67.7 -3.9
L 67.7 -3.55 66.95 -3.55
Q 63.55 -3.55 63.55 -1.6
M 64.65 -0.7
Q 64.3 -1 64.3 -1.65 64.3 -3.1 67.05 -3.1
L 67.7 -3.1 67.7 -2.5
Q 67.7 -2 67.45 -1.5 67.2 -1 66.75 -0.7 66.3 -0.4 65.6 -0.4 65.05 -0.4 64.65 -0.7 Z"/>
</g>

<g id="IT_640x480_psd_Asset_5_ManagedWiFi_IT_Awareness_DM7_4_Learn_more_about_the__solutions_that_are_available__0_Layer0_0_MEMBER_10_FILL">
<path fill="#D82C26" stroke="none" d="
M 70.75 -1.3
L 70.8 -1.3
Q 71.1 -0.65 71.75 -0.2 72.4 0.15 73.2 0.15 74.15 0.15 74.75 -0.25 75.4 -0.6 75.8 -1.4 76.2 -2.1 76.2 -2.95 76.2 -3.8 75.8 -4.6 75.4 -5.35 74.75 -5.7 74.1 -6.15 73.2 -6.15 72.5 -6.15 71.8 -5.75 71.15 -5.35 70.8 -4.65
L 70.8 -9.75 70.05 -9.6 69.95 0 70.65 0 70.75 -1.3
M 74.35 -5.15
Q 74.9 -4.85 75.15 -4.25 75.45 -3.65 75.45 -2.95 75.45 -2.3 75.15 -1.7 74.95 -1.2 74.35 -0.8 73.85 -0.45 73.1 -0.45 72.4 -0.45 71.9 -0.8 71.35 -1.2 71.05 -1.7 70.75 -2.3 70.75 -2.95 70.75 -3.65 71.05 -4.25 71.4 -4.85 71.9 -5.15 72.4 -5.5 73.1 -5.5 73.85 -5.5 74.35 -5.15 Z"/>
</g>

<g id="IT_640x480_psd_Asset_5_ManagedWiFi_IT_Awareness_DM7_4_Learn_more_about_the__solutions_that_are_available__0_Layer0_0_MEMBER_11_FILL">
<path fill="#D82C26" stroke="none" d="
M 80.25 -6.15
Q 79.45 -6.15 78.65 -5.75 77.95 -5.3 77.5 -4.6 77.1 -3.9 77.1 -3 77.1 -2.15 77.5 -1.35 78.05 -0.55 78.65 -0.25 79.4 0.2 80.25 0.2 81.15 0.2 81.9 -0.25 82.55 -0.55 83.05 -1.35 83.45 -2.15 83.45 -3 83.45 -3.9 83.05 -4.6 82.6 -5.3 81.9 -5.75 81.1 -6.15 80.25 -6.15
M 79 -5.15
Q 79.5 -5.5 80.25 -5.5 81.05 -5.5 81.55 -5.15 82.1 -4.85 82.4 -4.25 82.7 -3.7 82.7 -3 82.7 -2.3 82.4 -1.7 82.05 -1.1 81.55 -0.8 81.05 -0.45 80.25 -0.45 79.5 -0.45 79 -0.8 78.45 -1.2 78.15 -1.7 77.85 -2.3 77.85 -3 77.85 -3.7 78.15 -4.25 78.45 -4.85 79 -5.15 Z"/>
</g>

<g id="IT_640x480_psd_Asset_5_ManagedWiFi_IT_Awareness_DM7_4_Learn_more_about_the__solutions_that_are_available__0_Layer0_0_MEMBER_12_FILL">
<path fill="#D82C26" stroke="none" d="
M 84.7 -2.35
Q 84.7 -1.2 85.2 -0.55 85.7 0.15 86.85 0.15 87.6 0.15 88.15 -0.25 88.8 -0.65 89 -1.3
L 89.15 0 89.9 0 89.75 -1.4 89.75 -5.95 89 -5.95 89 -3
Q 89 -2.1 88.75 -1.6 88.5 -1.05 88.05 -0.75 87.6 -0.45 87.05 -0.45 86.2 -0.45 85.8 -1.05 85.45 -1.6 85.45 -2.5
L 85.45 -5.95 84.7 -5.95 84.7 -2.35 Z"/>
</g>

<g id="IT_640x480_psd_Asset_5_ManagedWiFi_IT_Awareness_DM7_4_Learn_more_about_the__solutions_that_are_available__0_Layer0_0_MEMBER_13_FILL">
<path fill="#D82C26" stroke="none" d="
M 90.8 -5.95
L 90.65 -5.35 91.75 -5.35 91.75 -1.45
Q 91.75 -0.7 92.15 -0.3 92.55 0.15 93.15 0.15
L 93.85 0.05 94.45 -0.2 94.35 -0.75
Q 93.85 -0.5 93.35 -0.5 92.95 -0.5 92.75 -0.75 92.5 -1 92.5 -1.55
L 92.5 -5.35 94.05 -5.35 94.2 -5.95 92.5 -5.95 92.5 -7.65 91.75 -7.35 91.75 -5.95 90.8 -5.95 Z"/>
</g>

<g id="IT_640x480_psd_Asset_5_ManagedWiFi_IT_Awareness_DM7_4_Learn_more_about_the__solutions_that_are_available__0_Layer0_0_MEMBER_14_FILL">
<path fill="#D82C26" stroke="none" d="
M 98.75 -7.65
L 98 -7.35 98 -5.95 97.05 -5.95 96.9 -5.35 98 -5.35 98 -1.45
Q 98 -0.7 98.4 -0.3 98.8 0.15 99.4 0.15
L 100.1 0.05 100.7 -0.2 100.6 -0.75
Q 100.1 -0.5 99.65 -0.5 99.2 -0.5 99 -0.75 98.75 -1 98.75 -1.55
L 98.75 -5.35 100.3 -5.35 100.45 -5.95 98.75 -5.95 98.75 -7.65 Z"/>
</g>

<g id="IT_640x480_psd_Asset_5_ManagedWiFi_IT_Awareness_DM7_4_Learn_more_about_the__solutions_that_are_available__0_Layer0_0_MEMBER_15_FILL">
<path fill="#D82C26" stroke="none" d="
M 102.3 -9.7
L 101.55 -9.6 101.55 0 102.3 0 102.3 -2.9
Q 102.3 -3.65 102.55 -4.3 102.9 -4.95 103.3 -5.2 103.75 -5.5 104.25 -5.5 105.2 -5.5 105.55 -4.9 105.9 -4.35 105.9 -3.45
L 105.9 0 106.65 0 106.65 -3.65
Q 106.65 -4.7 106.1 -5.4 105.6 -6.15 104.45 -6.15 103.8 -6.15 103.15 -5.75 102.6 -5.4 102.35 -4.7
L 102.3 -4.7 102.3 -9.7 Z"/>
</g>

<g id="IT_640x480_psd_Asset_5_ManagedWiFi_IT_Awareness_DM7_4_Learn_more_about_the__solutions_that_are_available__0_Layer0_0_MEMBER_16_FILL">
<path fill="#D82C26" stroke="none" d="
M 110.85 -6.15
Q 110.05 -6.15 109.35 -5.75 108.65 -5.3 108.3 -4.65 107.9 -3.85 107.9 -3 107.9 -2.15 108.3 -1.35 108.7 -0.6 109.4 -0.25 110.1 0.2 110.95 0.2 112.3 0.2 113.35 -0.55
L 113.2 -1.2
Q 112.8 -0.9 112.25 -0.65 111.7 -0.45 111 -0.45 110.35 -0.45 109.8 -0.75 109.25 -1.15 108.95 -1.65 108.65 -2.15 108.65 -2.85
L 113.65 -2.85 113.7 -3.2
Q 113.7 -4.05 113.35 -4.7 113.05 -5.35 112.4 -5.75 111.7 -6.15 110.85 -6.15
M 109.7 -5.2
Q 110.1 -5.55 110.85 -5.55 111.8 -5.55 112.4 -4.95 112.95 -4.4 112.95 -3.4
L 108.65 -3.4
Q 108.65 -3.85 108.95 -4.4 109.2 -4.9 109.7 -5.2 Z"/>
</g>

<g id="IT_640x480_psd_Asset_5_ManagedWiFi_IT_Awareness_DM7_4_Learn_more_about_the__solutions_that_are_available__0_Layer0_0_MEMBER_17_FILL">
<path fill="#D82C26" stroke="none" d="
M 3.85 8.9
Q 3.4 8.7 2.8 8.7 2.3 8.7 1.85 8.85 1.4 9.1 1.1 9.45 0.8 9.85 0.8 10.35 0.8 11 1.25 11.35 1.55 11.65 2.5 12 3.25 12.25 3.75 12.55 4.15 12.85 4.15 13.3 4.15 13.8 3.75 14.1 3.4 14.4 2.8 14.4 1.7 14.4 0.85 13.7
L 0.7 14.35
Q 1.1 14.65 1.6 14.8 2.15 15 2.85 15 3.4 15 3.8 14.8 4.35 14.6 4.55 14.2 4.85 13.85 4.85 13.25 4.85 12.6 4.4 12.2 3.9 11.75 3 11.5 2.05 11.15 1.85 11 1.5 10.7 1.5 10.3 1.5 9.8 1.9 9.55 2.2 9.3 2.8 9.3 3.3 9.3 3.65 9.45
L 4.35 9.85 4.7 9.3
Q 4.2 9 3.85 8.9 Z"/>
</g>

<g id="IT_640x480_psd_Asset_5_ManagedWiFi_IT_Awareness_DM7_4_Learn_more_about_the__solutions_that_are_available__0_Layer0_0_MEMBER_18_FILL">
<path fill="#D82C26" stroke="none" d="
M 11.6 10.2
Q 11.1 9.4 10.45 9.1 9.85 8.7 8.85 8.7 7.85 8.7 7.2 9.1 6.5 9.5 6.1 10.2 5.65 10.95 5.65 11.85 5.65 12.8 6.1 13.45 6.45 14.2 7.2 14.6 8 15 8.85 15 9.75 15 10.45 14.6 11.1 14.25 11.6 13.45 12 12.75 12 11.85 12 11 11.6 10.2
M 10.95 10.55
Q 11.25 11.15 11.25 11.85 11.25 12.5 10.95 13.1 10.75 13.6 10.15 14.05 9.55 14.35 8.85 14.35 8.15 14.35 7.55 14.05 6.95 13.65 6.7 13.1 6.4 12.5 6.4 11.85 6.4 11.15 6.7 10.55 7 10.05 7.55 9.65 8.25 9.3 8.85 9.3 9.5 9.3 10.1 9.65 10.6 10 10.95 10.55 Z"/>
</g>

<g id="IT_640x480_psd_Asset_5_ManagedWiFi_IT_Awareness_DM7_4_Learn_more_about_the__solutions_that_are_available__0_Layer0_0_MEMBER_19_FILL">
<path fill="#D82C26" stroke="none" d="
M 13.55 14.45
Q 13.8 14.8 14.25 14.95
L 14.6 14.35 14.15 14 14.05 13.35 14.05 5.15 13.3 5.3 13.3 13.5
Q 13.3 14.05 13.55 14.45 Z"/>
</g>

<g id="IT_640x480_psd_Asset_5_ManagedWiFi_IT_Awareness_DM7_4_Learn_more_about_the__solutions_that_are_available__0_Layer0_0_MEMBER_20_FILL">
<path fill="#D82C26" stroke="none" d="
M 20.9 14.85
L 20.8 8.9 20.05 8.9 20.05 11.85
Q 20.05 12.55 19.8 13.2 19.5 13.85 19.1 14.1 18.65 14.4 18.05 14.4 17.2 14.4 16.8 13.8 16.45 13.1 16.45 12.3
L 16.45 8.9 15.7 8.9 15.7 12.5
Q 15.7 13.5 16.25 14.3 16.8 15 17.9 15 18.55 15 19.2 14.6 19.85 14.2 20.05 13.55
L 20.15 14.85 20.9 14.85 Z"/>
</g>

<g id="IT_640x480_psd_Asset_5_ManagedWiFi_IT_Awareness_DM7_4_Learn_more_about_the__solutions_that_are_available__0_Layer0_0_MEMBER_21_FILL">
<path fill="#D82C26" stroke="none" d="
M 22.8 7.45
L 22.8 8.9 21.85 8.9 21.7 9.45 22.8 9.45 22.8 13.4
Q 22.8 14.15 23.2 14.55 23.6 14.95 24.2 14.95
L 24.85 14.85
Q 25.3 14.75 25.45 14.65
L 25.35 14.1
Q 24.75 14.35 24.4 14.35 24.05 14.35 23.8 14.1 23.55 13.85 23.55 13.3
L 23.55 9.45 25.1 9.45 25.25 8.9 23.55 8.9 23.55 7.15 22.8 7.45 Z"/>
</g>

<g id="IT_640x480_psd_Asset_5_ManagedWiFi_IT_Awareness_DM7_4_Learn_more_about_the__solutions_that_are_available__0_Layer0_0_MEMBER_22_FILL">
<path fill="#D82C26" stroke="none" d="
M 27.1 8.9
L 26.35 8.9 26.35 14.85 27.1 14.85 27.1 8.9
M 27.1 6.1
Q 26.9 5.95 26.7 5.95 26.5 5.95 26.35 6.1 26.15 6.25 26.15 6.5 26.15 6.7 26.35 6.9 26.5 7.05 26.7 7.05 26.9 7.05 27.1 6.9 27.25 6.7 27.25 6.5 27.25 6.25 27.1 6.1 Z"/>
</g>

<g id="IT_640x480_psd_Asset_5_ManagedWiFi_IT_Awareness_DM7_4_Learn_more_about_the__solutions_that_are_available__0_Layer0_0_MEMBER_23_FILL">
<path fill="#D82C26" stroke="none" d="
M 33.15 9.1
Q 32.5 8.7 31.5 8.7 30.55 8.7 29.9 9.1 29.3 9.4 28.75 10.2 28.35 11 28.35 11.85 28.35 12.75 28.75 13.45 29.25 14.25 29.9 14.6 30.7 15 31.5 15 32.35 15 33.15 14.6 33.8 14.25 34.3 13.45 34.7 12.75 34.7 11.85 34.7 11 34.3 10.2 33.8 9.4 33.15 9.1
M 33.65 10.55
Q 33.95 11.15 33.95 11.85 33.95 12.5 33.65 13.1 33.35 13.7 32.8 14.05 32.3 14.35 31.5 14.35 30.8 14.35 30.25 14.05 29.7 13.7 29.4 13.1 29.1 12.5 29.1 11.85 29.1 11.15 29.4 10.55 29.75 10 30.25 9.65 30.85 9.3 31.5 9.3 32.2 9.3 32.8 9.65 33.35 10.05 33.65 10.55 Z"/>
</g>

<g id="IT_640x480_psd_Asset_5_ManagedWiFi_IT_Awareness_DM7_4_Learn_more_about_the__solutions_that_are_available__0_Layer0_0_MEMBER_24_FILL">
<path fill="#D82C26" stroke="none" d="
M 41.1 11.2
Q 41.1 10.2 40.55 9.4 40 8.7 38.9 8.7 38.15 8.7 37.6 9.1 36.95 9.5 36.75 10.15
L 36.7 10.15 36.65 8.9 35.95 8.9 36 14.85 36.75 14.85 36.75 11.8
Q 36.75 11.1 37 10.45 37.35 9.85 37.75 9.6 38.2 9.3 38.75 9.3 39.65 9.3 40 9.9 40.35 10.6 40.35 11.4
L 40.35 14.85 41.1 14.85 41.1 11.2 Z"/>
</g>

<g id="IT_640x480_psd_Asset_5_ManagedWiFi_IT_Awareness_DM7_4_Learn_more_about_the__solutions_that_are_available__0_Layer0_0_MEMBER_25_FILL">
<path fill="#D82C26" stroke="none" d="
M 45.4 8.9
Q 44.95 8.7 44.35 8.7 43.85 8.7 43.4 8.85 42.95 9.1 42.65 9.45 42.35 9.85 42.35 10.35 42.35 11 42.8 11.35 43.1 11.65 44.05 12 44.8 12.25 45.3 12.55 45.7 12.85 45.7 13.3 45.7 13.8 45.3 14.1 44.95 14.4 44.35 14.4 43.25 14.4 42.4 13.7
L 42.25 14.35
Q 42.65 14.65 43.2 14.8 43.65 15 44.4 15 44.95 15 45.4 14.8 45.85 14.6 46.15 14.2 46.4 13.8 46.4 13.25 46.4 12.6 45.95 12.2 45.45 11.8 44.6 11.5
L 43.4 11
Q 43.05 10.65 43.05 10.3 43.05 9.8 43.45 9.55 43.75 9.3 44.35 9.3 44.85 9.3 45.2 9.45 45.5 9.55 45.9 9.85
L 46.25 9.3
Q 45.75 9 45.4 8.9 Z"/>
</g>

<g id="IT_640x480_psd_Asset_5_ManagedWiFi_IT_Awareness_DM7_4_Learn_more_about_the__solutions_that_are_available__0_Layer0_0_MEMBER_26_FILL">
<path fill="#D82C26" stroke="none" d="
M 51.2 8.9
L 51.2 7.15 50.45 7.45 50.45 8.9 49.5 8.9 49.35 9.45 50.5 9.45 50.5 13.4
Q 50.5 14.2 50.85 14.55 51.25 14.95 51.85 14.95
L 52.55 14.85 53.15 14.65 53.05 14.1
Q 52.45 14.35 52.1 14.35 51.7 14.35 51.45 14.1 51.2 13.75 51.2 13.3
L 51.2 9.45 52.75 9.45 52.9 8.9 51.2 8.9 Z"/>
</g>

<g id="IT_640x480_psd_Asset_5_ManagedWiFi_IT_Awareness_DM7_4_Learn_more_about_the__solutions_that_are_available__0_Layer0_0_MEMBER_27_FILL">
<path fill="#D82C26" stroke="none" d="
M 54.75 5.15
L 54 5.25 54 14.85 54.75 14.85 54.75 11.95
Q 54.75 11.15 55 10.5 55.3 9.95 55.75 9.65 56.3 9.3 56.75 9.3 57.65 9.3 58 9.9 58.35 10.45 58.35 11.4
L 58.35 14.85 59.1 14.85 59.1 11.2
Q 59.1 10.2 58.55 9.4 58 8.7 56.9 8.7 56.25 8.7 55.6 9.1 55.05 9.45 54.8 10.15
L 54.75 10.15 54.75 5.15 Z"/>
</g>

<g id="IT_640x480_psd_Asset_5_ManagedWiFi_IT_Awareness_DM7_4_Learn_more_about_the__solutions_that_are_available__0_Layer0_0_MEMBER_28_FILL">
<path fill="#D82C26" stroke="none" d="
M 62.85 8.7
Q 62.2 8.7 61.65 8.9 61.05 9.05 60.65 9.45
L 60.85 10
Q 61.15 9.75 61.75 9.5 62.2 9.3 62.75 9.3 63.6 9.3 64 9.7 64.45 10.1 64.45 10.9
L 64.45 11.25 63.7 11.25
Q 60.3 11.25 60.3 13.25 60.3 14.1 60.85 14.55 61.45 15 62.2 15 63 15 63.55 14.65 64.15 14.35 64.4 13.65
L 64.45 13.65 64.55 14.85 65.25 14.85
Q 65.15 14.5 65.15 13.55
L 65.15 10.95
Q 65.15 9.85 64.55 9.25 63.9 8.7 62.85 8.7
M 64.45 11.75
L 64.45 12.35
Q 64.45 12.75 64.2 13.35 64 13.8 63.5 14.1 63.1 14.45 62.35 14.45 61.8 14.45 61.4 14.15 61 13.85 61 13.2 61 11.75 63.8 11.75
L 64.45 11.75 Z"/>
</g>

<g id="IT_640x480_psd_Asset_5_ManagedWiFi_IT_Awareness_DM7_4_Learn_more_about_the__solutions_that_are_available__0_Layer0_0_MEMBER_29_FILL">
<path fill="#D82C26" stroke="none" d="
M 67.65 9.45
L 69.2 9.45 69.35 8.9 67.65 8.9 67.65 7.15 66.9 7.45 66.9 8.9 65.95 8.9 65.8 9.45 66.9 9.45 66.9 13.4
Q 66.9 14.15 67.3 14.55 67.7 14.95 68.3 14.95
L 68.95 14.85
Q 69.4 14.75 69.55 14.65
L 69.45 14.1
Q 68.85 14.35 68.5 14.35 68.15 14.35 67.9 14.1 67.65 13.75 67.65 13.3
L 67.65 9.45 Z"/>
</g>

<g id="IT_640x480_psd_Asset_5_ManagedWiFi_IT_Awareness_DM7_4_Learn_more_about_the__solutions_that_are_available__0_Layer0_0_MEMBER_30_FILL">
<path fill="#D82C26" stroke="none" d="
M 75.15 8.7
Q 74.5 8.7 73.95 8.9 73.45 9.05 72.95 9.45
L 73.2 10
Q 73.45 9.75 74.05 9.5 74.5 9.3 75.05 9.3 75.9 9.3 76.3 9.7 76.75 10.1 76.75 10.9
L 76.75 11.25 76.05 11.25
Q 72.65 11.25 72.65 13.25 72.65 14.15 73.2 14.55 73.75 15 74.55 15 75.3 15 75.85 14.65 76.4 14.4 76.75 13.65
L 76.8 13.65 76.8 14.3 76.9 14.85 77.55 14.85 77.45 10.95
Q 77.45 9.85 76.85 9.25 76.2 8.7 75.15 8.7
M 76.75 11.75
L 76.75 12.35
Q 76.75 12.9 76.55 13.35 76.2 13.85 75.8 14.1 75.4 14.45 74.7 14.45 74.15 14.45 73.75 14.15 73.35 13.9 73.35 13.2 73.35 11.75 76.15 11.75
L 76.75 11.75 Z"/>
</g>

<g id="IT_640x480_psd_Asset_5_ManagedWiFi_IT_Awareness_DM7_4_Learn_more_about_the__solutions_that_are_available__0_Layer0_0_MEMBER_31_FILL">
<path fill="#D82C26" stroke="none" d="
M 82.2 8.8
L 81.6 8.7
Q 81.1 8.7 80.55 9.1 80.05 9.5 79.85 10.15
L 79.8 10.15 79.75 8.9 79.05 8.9 79.1 14.85 79.85 14.85 79.85 11.85
Q 79.85 10.85 80.3 10.1 80.75 9.35 81.55 9.35
L 82.05 9.45 82.2 8.8 Z"/>
</g>

<g id="IT_640x480_psd_Asset_5_ManagedWiFi_IT_Awareness_DM7_4_Learn_more_about_the__solutions_that_are_available__0_Layer0_0_MEMBER_32_FILL">
<path fill="#D82C26" stroke="none" d="
M 85.3 8.7
Q 84.4 8.7 83.8 9.1 83.1 9.5 82.7 10.2 82.35 10.9 82.35 11.8 82.35 12.8 82.7 13.45 83.2 14.25 83.8 14.6 84.5 15 85.4 15 86.8 15 87.75 14.25
L 87.65 13.6
Q 87.25 13.9 86.65 14.15 86.05 14.4 85.45 14.4 84.75 14.4 84.2 14.05 83.65 13.75 83.35 13.2 83.05 12.6 83.05 11.95
L 88.1 11.95 88.1 11.65
Q 88.1 10.85 87.8 10.15 87.4 9.45 86.8 9.1 86.25 8.7 85.3 8.7
M 84.1 9.6
Q 84.7 9.25 85.3 9.25 86.2 9.25 86.8 9.85 87.4 10.45 87.4 11.4
L 83.05 11.4
Q 83.15 10.9 83.35 10.45 83.6 10 84.1 9.6 Z"/>
</g>

<g id="IT_640x480_psd_Asset_5_ManagedWiFi_IT_Awareness_DM7_4_Learn_more_about_the__solutions_that_are_available__0_Layer0_0_MEMBER_33_FILL">
<path fill="#D82C26" stroke="none" d="
M 95.95 9.25
Q 95.3 8.7 94.25 8.7 93.6 8.7 93.05 8.9 92.55 9 92.05 9.45
L 92.25 10
Q 92.55 9.75 93.15 9.5 93.6 9.3 94.15 9.3 95 9.3 95.4 9.7 95.85 10.1 95.85 10.9
L 95.85 11.25 95.15 11.25
Q 91.7 11.25 91.7 13.25 91.7 14.1 92.3 14.55 92.85 15 93.6 15 94.4 15 94.95 14.65 95.55 14.35 95.85 13.65
L 95.9 13.65 95.95 14.85 96.65 14.85 96.55 10.95
Q 96.55 9.85 95.95 9.25
M 95.85 11.75
L 95.85 12.35
Q 95.85 12.75 95.6 13.35 95.4 13.8 94.9 14.1 94.5 14.45 93.75 14.45 93.25 14.45 92.8 14.15 92.45 13.85 92.45 13.2 92.45 11.75 95.25 11.75
L 95.85 11.75 Z"/>
</g>

<g id="IT_640x480_psd_Asset_5_ManagedWiFi_IT_Awareness_DM7_4_Learn_more_about_the__solutions_that_are_available__0_Layer0_0_MEMBER_34_FILL">
<path fill="#D82C26" stroke="none" d="
M 97.1 8.9
L 99.4 14.85 100.25 14.85 102.45 8.9 101.7 8.9 99.85 14.1 97.9 8.9 97.1 8.9 Z"/>
</g>

<g id="IT_640x480_psd_Asset_5_ManagedWiFi_IT_Awareness_DM7_4_Learn_more_about_the__solutions_that_are_available__0_Layer0_0_MEMBER_35_FILL">
<path fill="#D82C26" stroke="none" d="
M 105.4 8.7
Q 104.75 8.7 104.2 8.9 103.7 9 103.2 9.45
L 103.4 10
Q 103.7 9.75 104.3 9.5 104.75 9.3 105.3 9.3 106.15 9.3 106.55 9.7 107 10.1 107 10.9
L 107 11.25 106.3 11.25
Q 102.9 11.25 102.9 13.25 102.9 14.15 103.45 14.55 104 15 104.75 15 105.55 15 106.1 14.65 106.7 14.35 107 13.65
L 107.05 13.65 107.1 14.85 107.8 14.85 107.7 10.95
Q 107.7 9.85 107.1 9.25 106.45 8.7 105.4 8.7
M 107 11.75
L 107 12.35
Q 107 12.9 106.75 13.35 106.5 13.85 106.05 14.1 105.65 14.45 104.9 14.45 104.4 14.45 104 14.15 103.6 13.9 103.6 13.2 103.6 11.75 106.4 11.75
L 107 11.75 Z"/>
</g>

<g id="IT_640x480_psd_Asset_5_ManagedWiFi_IT_Awareness_DM7_4_Learn_more_about_the__solutions_that_are_available__0_Layer0_0_MEMBER_36_FILL">
<path fill="#D82C26" stroke="none" d="
M 110.1 8.9
L 109.35 8.9 109.35 14.85 110.1 14.85 110.1 8.9
M 110.1 6.1
Q 109.95 5.95 109.7 5.95 109.5 5.95 109.35 6.1 109.2 6.25 109.2 6.5 109.2 6.7 109.35 6.9 109.5 7.05 109.7 7.05 109.95 7.05 110.1 6.9 110.25 6.7 110.25 6.5 110.25 6.25 110.1 6.1 Z"/>
</g>

<g id="IT_640x480_psd_Asset_5_ManagedWiFi_IT_Awareness_DM7_4_Learn_more_about_the__solutions_that_are_available__0_Layer0_0_MEMBER_37_FILL">
<path fill="#D82C26" stroke="none" d="
M 112.05 14.45
Q 112.25 14.8 112.75 14.95
L 113.1 14.35
Q 112.75 14.2 112.65 14 112.5 13.8 112.5 13.35
L 112.5 5.15 111.75 5.3 111.75 13.5
Q 111.75 14.1 112.05 14.45 Z"/>
</g>

<g id="IT_640x480_psd_Asset_5_ManagedWiFi_IT_Awareness_DM7_4_Learn_more_about_the__solutions_that_are_available__0_Layer0_0_MEMBER_38_FILL">
<path fill="#D82C26" stroke="none" d="
M 116.4 8.7
Q 115.75 8.7 115.2 8.9 114.7 9 114.2 9.45
L 114.4 10
Q 114.7 9.75 115.3 9.5 115.75 9.3 116.3 9.3 117.15 9.3 117.55 9.7 118 10.1 118 10.9
L 118 11.25 117.25 11.25
Q 113.85 11.25 113.85 13.25 113.85 14.1 114.45 14.55 115 15 115.75 15 116.55 15 117.1 14.65 117.7 14.35 118 13.65
L 118.1 14.85 118.8 14.85 118.7 10.95
Q 118.7 9.85 118.1 9.25 117.45 8.7 116.4 8.7
M 118 11.75
L 118 12.35
Q 118 12.75 117.75 13.35 117.55 13.8 117.05 14.1 116.65 14.45 115.9 14.45 115.35 14.45 114.95 14.15 114.6 13.85 114.6 13.2 114.6 11.75 117.35 11.75
L 118 11.75 Z"/>
</g>

<g id="IT_640x480_psd_Asset_5_ManagedWiFi_IT_Awareness_DM7_4_Learn_more_about_the__solutions_that_are_available__0_Layer0_0_MEMBER_39_FILL">
<path fill="#D82C26" stroke="none" d="
M 123.5 8.7
Q 122.8 8.7 122.1 9.1 121.45 9.5 121.1 10.15
L 121.1 5.1 120.35 5.2 120.25 14.85 120.95 14.85 121.05 13.55 121.1 13.55
Q 121.4 14.25 122.05 14.6 122.75 15 123.5 15 124.35 15 125.05 14.6 125.75 14.15 126.1 13.45 126.5 12.65 126.5 11.85 126.5 10.95 126.1 10.25 125.75 9.6 125.05 9.1 124.35 8.7 123.5 8.7
M 125.45 10.6
Q 125.75 11.15 125.75 11.85 125.75 12.6 125.45 13.1 125.25 13.6 124.65 14.05 124.15 14.35 123.4 14.35 122.75 14.35 122.2 14.05 121.6 13.65 121.35 13.1 121.05 12.6 121.05 11.85 121.05 11.15 121.35 10.6 121.6 10.05 122.2 9.65 122.8 9.3 123.4 9.3 124.05 9.3 124.65 9.65 125.25 10.1 125.45 10.6 Z"/>
</g>

<g id="IT_640x480_psd_Asset_5_ManagedWiFi_IT_Awareness_DM7_4_Learn_more_about_the__solutions_that_are_available__0_Layer0_0_MEMBER_40_FILL">
<path fill="#D82C26" stroke="none" d="
M 128.05 14.45
Q 128.3 14.8 128.75 14.95
L 129.1 14.35
Q 128.8 14.2 128.7 14 128.55 13.8 128.55 13.35
L 128.55 5.15 127.8 5.3 127.8 13.5
Q 127.8 14.05 128.05 14.45 Z"/>
</g>

<g id="IT_640x480_psd_Asset_5_ManagedWiFi_IT_Awareness_DM7_4_Learn_more_about_the__solutions_that_are_available__0_Layer0_0_MEMBER_41_FILL">
<path fill="#D82C26" stroke="none" d="
M 134.35 9.1
Q 133.75 8.7 132.8 8.7 131.9 8.7 131.3 9.1 130.65 9.45 130.25 10.2 129.85 11 129.85 11.8 129.85 12.75 130.25 13.45 130.75 14.25 131.35 14.6 132.05 15 132.9 15 134.35 15 135.3 14.25
L 135.15 13.6
Q 134.85 13.9 134.2 14.15 133.55 14.4 133 14.4 132.25 14.4 131.75 14.05 131.2 13.75 130.9 13.2 130.6 12.6 130.6 11.95
L 135.65 11.95 135.65 11.65
Q 135.65 10.8 135.3 10.15 135 9.45 134.35 9.1
M 134.35 9.85
Q 134.95 10.45 134.95 11.4
L 130.6 11.4
Q 130.7 10.75 130.9 10.45 131.1 10 131.65 9.6 132.25 9.25 132.8 9.25 133.75 9.25 134.35 9.85 Z"/>
</g>

<g id="IT_640x480_psd_Asset_5_ManagedWiFi_IT_Awareness_DM7_4_Learn_more_about_the__solutions_that_are_available__0_Layer0_0_MEMBER_42_FILL">
<path fill="#D82C26" stroke="none" d="
M 136.85 14.75
Q 137 14.9 137.25 14.9 137.45 14.9 137.65 14.75 137.8 14.6 137.8 14.35 137.8 14.15 137.65 13.9 137.45 13.75 137.25 13.75 137 13.75 136.85 13.95 136.65 14.1 136.65 14.35 136.65 14.6 136.85 14.75 Z"/>
</g>

<g id="IT_640x480_psd_Asset_5_ManagedWiFi_IT_Awareness_DM7_4_CTA_copy_9_Watch_the_IDC_point_of__view_on_being_prepared__0_Layer0_0_MEMBER_0_FILL">
<path fill="#24B9D1" stroke="none" d="
M 10.5 -12.75
L 10.55 -12.75 14.3 0 16.65 0 21.25 -15.7 18.95 -15.7 15.45 -3 15.4 -3 11.75 -15.7 9.3 -15.7 5.7 -3 5.65 -3 2.2 -15.7 -0.2 -15.7 4.4 0 6.75 0 10.5 -12.75 Z"/>
</g>

<g id="IT_640x480_psd_Asset_5_ManagedWiFi_IT_Awareness_DM7_4_CTA_copy_9_Watch_the_IDC_point_of__view_on_being_prepared__0_Layer0_0_MEMBER_1_FILL">
<path fill="#24B9D1" stroke="none" d="
M 28.15 -6.5
L 27.25 -6.5
Q 24.65 -6.5 22.9 -5.7 21.15 -4.95 21.15 -2.95 21.15 -1.35 22.15 -0.5 23.2 0.3 24.5 0.3 25.6 0.3 26.7 -0.25 27.8 -0.8 28.2 -1.7
L 28.25 -1.7 28.4 0 30.35 0
Q 30.2 -0.8 30.2 -2.2
L 30.2 -6.65
Q 30.2 -8.8 29.1 -9.85 28 -10.95 25.95 -10.95 23.5 -10.95 21.75 -9.7
L 22.3 -8.1
Q 22.9 -8.65 23.85 -8.95 24.7 -9.3 25.6 -9.3 26.8 -9.3 27.45 -8.7 28.15 -8.15 28.15 -6.9
L 28.15 -6.5
M 23.75 -1.65
Q 23.2 -2.05 23.2 -3 23.2 -5.2 27.35 -5.2
L 28.2 -5.2 28.2 -4.35
Q 28.2 -3.55 27.85 -2.85 27.45 -2.1 26.75 -1.7 26.1 -1.25 25.05 -1.25 24.3 -1.25 23.75 -1.65 Z"/>
</g>

<g id="IT_640x480_psd_Asset_5_ManagedWiFi_IT_Awareness_DM7_4_CTA_copy_9_Watch_the_IDC_point_of__view_on_being_prepared__0_Layer0_0_MEMBER_2_FILL">
<path fill="#24B9D1" stroke="none" d="
M 35.2 -13.6
L 33.05 -13 33.05 -10.65 31.5 -10.65 31.15 -9 33.1 -9 33.1 -2.95
Q 33.1 -1.35 33.8 -0.6 34.55 0.25 35.9 0.25 37.25 0.25 38.45 -0.35
L 38.2 -1.9
Q 37.3 -1.45 36.6 -1.45 35.2 -1.45 35.2 -3.2
L 35.2 -9 37.8 -9 38.15 -10.65 35.2 -10.65 35.2 -13.6 Z"/>
</g>

<g id="IT_640x480_psd_Asset_5_ManagedWiFi_IT_Awareness_DM7_4_CTA_copy_9_Watch_the_IDC_point_of__view_on_being_prepared__0_Layer0_0_MEMBER_3_FILL">
<path fill="#24B9D1" stroke="none" d="
M 39.15 -5.35
Q 39.15 -3.7 39.85 -2.4 40.65 -1.05 41.9 -0.4 43.2 0.3 44.7 0.3 45.95 0.3 46.85 -0.05 47.75 -0.35 48.5 -0.95
L 48.2 -2.65
Q 47.5 -2.1 46.75 -1.8 46 -1.5 45.05 -1.5 44 -1.5 43.1 -2 42.25 -2.5 41.8 -3.4 41.35 -4.3 41.35 -5.35 41.35 -6.35 41.8 -7.25 42.15 -8.05 43.05 -8.65 43.75 -9.15 44.9 -9.15 45.55 -9.15 46.4 -8.9 47.2 -8.6 47.7 -8.15
L 48.5 -9.75
Q 47.9 -10.25 46.9 -10.65 45.85 -10.95 44.85 -10.95 43.25 -10.95 41.95 -10.25 40.7 -9.65 39.9 -8.25 39.15 -6.95 39.15 -5.35 Z"/>
</g>

<g id="IT_640x480_psd_Asset_5_ManagedWiFi_IT_Awareness_DM7_4_CTA_copy_9_Watch_the_IDC_point_of__view_on_being_prepared__0_Layer0_0_MEMBER_4_FILL">
<path fill="#24B9D1" stroke="none" d="
M 59.8 -6.5
Q 59.8 -8.5 58.85 -9.65 57.85 -10.95 55.9 -10.95 54.75 -10.95 53.75 -10.35 52.75 -9.65 52.35 -8.7
L 52.3 -8.7 52.3 -17.05 50.15 -16.75 50.15 0 52.3 0 52.3 -5.4
Q 52.3 -7.05 53.15 -8.15 54 -9.15 55.25 -9.15 56.6 -9.15 57.1 -8.25 57.6 -7.45 57.6 -6
L 57.6 0 59.8 0 59.8 -6.5 Z"/>
</g>

<g id="IT_640x480_psd_Asset_5_ManagedWiFi_IT_Awareness_DM7_4_CTA_copy_9_Watch_the_IDC_point_of__view_on_being_prepared__0_Layer0_0_MEMBER_5_FILL">
<path fill="#24B9D1" stroke="none" d="
M 69.9 -13.6
L 67.8 -13 67.8 -10.65 66.25 -10.65 65.9 -9 67.8 -9 67.8 -2.95
Q 67.8 -1.4 68.55 -0.6 69.25 0.25 70.6 0.25 72.05 0.25 73.15 -0.35
L 72.9 -1.9
Q 72.1 -1.45 71.35 -1.45 69.9 -1.45 69.9 -3.2
L 69.9 -9 72.55 -9 72.85 -10.65 69.9 -10.65 69.9 -13.6 Z"/>
</g>

<g id="IT_640x480_psd_Asset_5_ManagedWiFi_IT_Awareness_DM7_4_CTA_copy_9_Watch_the_IDC_point_of__view_on_being_prepared__0_Layer0_0_MEMBER_6_FILL">
<path fill="#24B9D1" stroke="none" d="
M 76.75 -17.05
L 74.6 -16.75 74.6 0 76.75 0 76.75 -5.4
Q 76.75 -7.15 77.55 -8.15 78.4 -9.15 79.65 -9.15 81 -9.15 81.5 -8.25 82.05 -7.4 82.05 -6
L 82.05 0 84.2 0 84.2 -6.5
Q 84.2 -8.45 83.3 -9.65 82.3 -10.95 80.35 -10.95 79.1 -10.95 78.2 -10.35 77.1 -9.6 76.8 -8.7
L 76.75 -8.7 76.75 -17.05 Z"/>
</g>

<g id="IT_640x480_psd_Asset_5_ManagedWiFi_IT_Awareness_DM7_4_CTA_copy_9_Watch_the_IDC_point_of__view_on_being_prepared__0_Layer0_0_MEMBER_7_FILL">
<path fill="#24B9D1" stroke="none" d="
M 87.1 -2.35
Q 87.85 -1.05 89.1 -0.4 90.3 0.3 92 0.3 94.5 0.3 96.3 -0.9
L 96 -2.55
Q 95.4 -2.1 94.3 -1.7 93.35 -1.4 92.25 -1.4 91.2 -1.4 90.35 -1.85 89.45 -2.3 89 -3.1 88.45 -3.9 88.45 -4.85
L 96.95 -4.85 97 -5.5
Q 97 -7 96.35 -8.3 95.75 -9.55 94.55 -10.25 93.5 -10.95 91.8 -10.95 90.35 -10.95 89.05 -10.25 87.9 -9.6 87.1 -8.25 86.35 -6.95 86.35 -5.35 86.35 -3.7 87.1 -2.35
M 88.9 -7.7
Q 89.35 -8.4 90.1 -8.95 90.85 -9.4 91.85 -9.4 93.25 -9.4 94.1 -8.55 94.95 -7.6 94.95 -6.25
L 88.45 -6.25
Q 88.55 -7.05 88.9 -7.7 Z"/>
</g>

<g id="IT_640x480_psd_Asset_5_ManagedWiFi_IT_Awareness_DM7_4_CTA_copy_9_Watch_the_IDC_point_of__view_on_being_prepared__0_Layer0_0_MEMBER_8_FILL">
<path fill="#24B9D1" stroke="none" d="
M 106.5 -15.7
L 104.25 -15.7 104.25 0 106.5 0 106.5 -15.7 Z"/>
</g>

<g id="IT_640x480_psd_Asset_5_ManagedWiFi_IT_Awareness_DM7_4_CTA_copy_9_Watch_the_IDC_point_of__view_on_being_prepared__0_Layer0_0_MEMBER_9_FILL">
<path fill="#24B9D1" stroke="none" d="
M 119.3 -14.9
Q 117.4 -15.7 114.95 -15.7
L 109.75 -15.7 109.75 0 115 0
Q 117.3 0 119.3 -0.85 121.35 -1.75 122.5 -3.5 123.7 -5.3 123.7 -7.9 123.7 -10.55 122.5 -12.35 121.3 -14.05 119.3 -14.9
M 112 -13.8
L 114.75 -13.8
Q 117.7 -13.8 119.5 -12.3 121.35 -10.8 121.35 -7.9 121.35 -4.95 119.5 -3.45 117.7 -1.95 114.75 -1.95
L 112 -1.95 112 -13.8 Z"/>
</g>

<g id="IT_640x480_psd_Asset_5_ManagedWiFi_IT_Awareness_DM7_4_CTA_copy_9_Watch_the_IDC_point_of__view_on_being_prepared__0_Layer0_0_MEMBER_10_FILL">
<path fill="#24B9D1" stroke="none" d="
M 136.75 -15.65
Q 135.15 -16.15 133.7 -16.15 131.4 -16.15 129.45 -15.1 127.55 -14.05 126.5 -12.15 125.4 -10.2 125.4 -7.85 125.4 -5.55 126.5 -3.6 127.55 -1.7 129.45 -0.65 131.35 0.4 133.7 0.4 135.5 0.4 136.85 -0.15 138.45 -0.8 139.2 -1.55
L 138.8 -3.55
Q 138 -2.8 136.6 -2.15 135.4 -1.65 133.85 -1.65 132 -1.65 130.7 -2.45 129.35 -3.25 128.6 -4.7 127.85 -6.1 127.85 -7.85 127.85 -9.6 128.6 -11.05 129.35 -12.45 130.7 -13.25 132.1 -14.1 133.8 -14.1 135.05 -14.1 136.4 -13.6 137.55 -13.1 138.55 -12.3
L 139.15 -14.4
Q 138.3 -15.1 136.75 -15.65 Z"/>
</g>

<g id="IT_640x480_psd_Asset_5_ManagedWiFi_IT_Awareness_DM7_4_CTA_copy_9_Watch_the_IDC_point_of__view_on_being_prepared__0_Layer0_0_MEMBER_11_FILL">
<path fill="#24B9D1" stroke="none" d="
M 148.1 -8.7
L 148.05 -10.65 145.95 -10.65 146 5.35 148.15 5.35 148.15 -1.85 148.25 -1.85
Q 148.8 -0.8 149.85 -0.3 150.9 0.3 152.1 0.3 153.65 0.3 154.85 -0.45 156 -1.15 156.7 -2.5 157.35 -3.9 157.35 -5.35 157.35 -6.8 156.7 -8.2 156.05 -9.45 154.85 -10.2 153.65 -10.95 152.1 -10.95 150.85 -10.95 149.8 -10.35 148.75 -9.75 148.15 -8.7
L 148.1 -8.7
M 149.85 -8.65
Q 150.65 -9.15 151.65 -9.15 152.85 -9.15 153.55 -8.65 154.35 -8.15 154.8 -7.25 155.2 -6.45 155.2 -5.35 155.2 -4.2 154.8 -3.45 154.35 -2.55 153.55 -2.05 152.75 -1.5 151.65 -1.5 150.7 -1.5 149.85 -2.05 148.95 -2.6 148.55 -3.45 148.1 -4.25 148.1 -5.35 148.1 -6.35 148.55 -7.2 149 -8.1 149.85 -8.65 Z"/>
</g>

<g id="IT_640x480_psd_Asset_5_ManagedWiFi_IT_Awareness_DM7_4_CTA_copy_9_Watch_the_IDC_point_of__view_on_being_prepared__0_Layer0_0_MEMBER_12_FILL">
<path fill="#24B9D1" stroke="none" d="
M 159.65 -2.4
Q 160.45 -1.05 161.7 -0.4 163 0.3 164.65 0.3 166.25 0.3 167.55 -0.4 168.8 -1 169.6 -2.4 170.4 -3.75 170.4 -5.35 170.4 -6.95 169.6 -8.3 168.85 -9.6 167.55 -10.25 166.35 -10.95 164.65 -10.95 162.9 -10.95 161.7 -10.25 160.4 -9.55 159.65 -8.3 158.9 -6.95 158.9 -5.35 158.9 -3.65 159.65 -2.4
M 161 -5.35
Q 161 -6.4 161.45 -7.25 161.9 -8.15 162.7 -8.65 163.5 -9.15 164.65 -9.15 165.75 -9.15 166.55 -8.65 167.45 -8.05 167.8 -7.25 168.25 -6.4 168.25 -5.35 168.25 -4.25 167.8 -3.45 167.45 -2.65 166.55 -2.05 165.7 -1.5 164.65 -1.5 163.55 -1.5 162.7 -2.05 161.9 -2.55 161.45 -3.45 161 -4.25 161 -5.35 Z"/>
</g>

<g id="IT_640x480_psd_Asset_5_ManagedWiFi_IT_Awareness_DM7_4_CTA_copy_9_Watch_the_IDC_point_of__view_on_being_prepared__0_Layer0_0_MEMBER_13_FILL">
<path fill="#24B9D1" stroke="none" d="
M 174.85 -10.65
L 172.7 -10.65 172.7 0 174.85 0 174.85 -10.65
M 172.8 -13.6
Q 173.3 -13.2 173.75 -13.2 174.3 -13.2 174.7 -13.6 175.1 -14 175.1 -14.55 175.1 -15.1 174.7 -15.5 174.3 -15.9 173.75 -15.9 173.3 -15.9 172.8 -15.5 172.4 -15.1 172.4 -14.55 172.4 -14 172.8 -13.6 Z"/>
</g>

<g id="IT_640x480_psd_Asset_5_ManagedWiFi_IT_Awareness_DM7_4_CTA_copy_9_Watch_the_IDC_point_of__view_on_being_prepared__0_Layer0_0_MEMBER_14_FILL">
<path fill="#24B9D1" stroke="none" d="
M 179.85 -10.65
L 177.75 -10.65 177.85 0 180.05 0 180.05 -5.55
Q 180.05 -7.2 180.85 -8.2 181.65 -9.15 182.95 -9.15 184.2 -9.15 184.8 -8.25 185.35 -7.3 185.35 -6
L 185.35 0 187.5 0 187.5 -6.5
Q 187.5 -8.4 186.55 -9.65 185.55 -10.95 183.6 -10.95 182.35 -10.95 181.4 -10.3 180.35 -9.65 180 -8.65
L 179.95 -8.65 179.85 -10.65 Z"/>
</g>

<g id="IT_640x480_psd_Asset_5_ManagedWiFi_IT_Awareness_DM7_4_CTA_copy_9_Watch_the_IDC_point_of__view_on_being_prepared__0_Layer0_0_MEMBER_15_FILL">
<path fill="#24B9D1" stroke="none" d="
M 190.65 -2.95
Q 190.65 -1.35 191.35 -0.6 192.1 0.25 193.45 0.25 194.8 0.25 196 -0.35
L 195.75 -1.9
Q 194.85 -1.45 194.15 -1.45 192.75 -1.45 192.75 -3.2
L 192.75 -9 195.35 -9 195.7 -10.65 192.75 -10.65 192.75 -13.6 190.6 -13 190.6 -10.65 189.05 -10.65 188.7 -9 190.65 -9 190.65 -2.95 Z"/>
</g>

<g id="IT_640x480_psd_Asset_5_ManagedWiFi_IT_Awareness_DM7_4_CTA_copy_9_Watch_the_IDC_point_of__view_on_being_prepared__0_Layer0_0_MEMBER_16_FILL">
<path fill="#24B9D1" stroke="none" d="
M 201.55 -5.35
Q 201.55 -3.65 202.3 -2.4 203.2 -1 204.4 -0.4 205.7 0.3 207.3 0.3 208.85 0.3 210.25 -0.4 211.5 -1.05 212.3 -2.4 213.05 -3.65 213.05 -5.35 213.05 -7 212.3 -8.3 211.55 -9.55 210.25 -10.25 209 -10.95 207.3 -10.95 205.6 -10.95 204.4 -10.25 203.15 -9.65 202.3 -8.3 201.55 -6.95 201.55 -5.35
M 209.25 -8.65
Q 210.05 -8.15 210.5 -7.25 210.95 -6.4 210.95 -5.35 210.95 -4.25 210.5 -3.45 210.05 -2.55 209.25 -2.05 208.4 -1.5 207.3 -1.5 206.25 -1.5 205.4 -2.05 204.5 -2.65 204.15 -3.45 203.7 -4.25 203.7 -5.35 203.7 -6.4 204.15 -7.25 204.5 -8.05 205.4 -8.65 206.2 -9.15 207.3 -9.15 208.45 -9.15 209.25 -8.65 Z"/>
</g>

<g id="IT_640x480_psd_Asset_5_ManagedWiFi_IT_Awareness_DM7_4_CTA_copy_9_Watch_the_IDC_point_of__view_on_being_prepared__0_Layer0_0_MEMBER_17_FILL">
<path fill="#24B9D1" stroke="none" d="
M 216.95 -16
Q 216 -15 216 -12.95
L 216 -10.65 214.15 -10.65 213.8 -9 216 -9 216 0 218.15 0 218.15 -9 220.6 -9 220.95 -10.65 218.15 -10.65 218.15 -12.95
Q 218.15 -13.95 218.6 -14.65 219.05 -15.35 220.05 -15.35 220.8 -15.35 221.6 -15.15
L 221.8 -16.9
Q 221 -17.1 219.8 -17.1 217.9 -17.1 216.95 -16 Z"/>
</g>

<g id="IT_640x480_psd_Asset_5_ManagedWiFi_IT_Awareness_DM7_4_CTA_copy_9_Watch_the_IDC_point_of__view_on_being_prepared__0_Layer0_0_MEMBER_18_FILL">
<path fill="#24B9D1" stroke="none" d="
M 0.1 16
L 4.25 26.65 6.6 26.65 10.65 16 8.4 16 5.45 24.4 2.45 16 0.1 16 Z"/>
</g>

<g id="IT_640x480_psd_Asset_5_ManagedWiFi_IT_Awareness_DM7_4_CTA_copy_9_Watch_the_IDC_point_of__view_on_being_prepared__0_Layer0_0_MEMBER_19_FILL">
<path fill="#24B9D1" stroke="none" d="
M 14.15 16
L 12 16 12 26.65 14.15 26.65 14.15 16
M 12.1 11.15
Q 11.7 11.55 11.7 12.05 11.7 12.6 12.1 13 12.6 13.4 13.05 13.4 13.6 13.4 14 13 14.4 12.6 14.4 12.05 14.4 11.55 14 11.15 13.65 10.75 13.05 10.75 12.5 10.75 12.1 11.15 Z"/>
</g>

<g id="IT_640x480_psd_Asset_5_ManagedWiFi_IT_Awareness_DM7_4_CTA_copy_9_Watch_the_IDC_point_of__view_on_being_prepared__0_Layer0_0_MEMBER_20_FILL">
<path fill="#24B9D1" stroke="none" d="
M 24.6 16.35
Q 23.35 15.65 21.85 15.65 20.4 15.65 19.1 16.35 17.8 17.1 17.15 18.35 16.4 19.65 16.4 21.3 16.4 23 17.15 24.25 17.9 25.5 19.15 26.25 20.45 26.95 22.05 26.95 24.6 26.95 26.35 25.7
L 26.05 24.05
Q 25.3 24.6 24.35 24.9 23.45 25.25 22.3 25.25 21.25 25.25 20.4 24.8 19.55 24.35 19.05 23.55 18.5 22.7 18.5 21.8
L 27 21.8 27 21.1
Q 27 19.6 26.4 18.3 25.8 17.1 24.6 16.35
M 24.15 18.1
Q 25 19.05 25 20.35
L 18.5 20.35
Q 18.6 19.65 18.95 18.9 19.45 18.1 20.1 17.7 21 17.2 21.9 17.2 23.35 17.2 24.15 18.1 Z"/>
</g>

<g id="IT_640x480_psd_Asset_5_ManagedWiFi_IT_Awareness_DM7_4_CTA_copy_9_Watch_the_IDC_point_of__view_on_being_prepared__0_Layer0_0_MEMBER_21_FILL">
<path fill="#24B9D1" stroke="none" d="
M 44.6 16
L 42.35 16 40 24.2 39.95 24.2 37.35 16 35.1 16 32.55 24.2 32.5 24.2 30.15 16 27.85 16 31.25 26.65 33.5 26.65 36.15 18.5 36.2 18.5 38.9 26.65 41.15 26.65 44.6 16 Z"/>
</g>

<g id="IT_640x480_psd_Asset_5_ManagedWiFi_IT_Awareness_DM7_4_CTA_copy_9_Watch_the_IDC_point_of__view_on_being_prepared__0_Layer0_0_MEMBER_22_FILL">
<path fill="#24B9D1" stroke="none" d="
M 61 24.25
Q 61.75 22.9 61.75 21.3 61.75 19.65 61 18.35 60.3 17.15 58.95 16.35 57.65 15.65 56 15.65 54.4 15.65 53.1 16.35 51.8 17.05 51.05 18.35 50.3 19.65 50.3 21.3 50.3 22.95 51.05 24.2 51.8 25.5 53.1 26.25 54.4 26.95 56 26.95 57.65 26.95 58.95 26.25 60.3 25.45 61 24.25
M 56 17.45
Q 57.1 17.45 57.95 18 58.75 18.5 59.2 19.35 59.65 20.25 59.65 21.3 59.65 22.3 59.2 23.2 58.75 24.1 57.95 24.6 57.15 25.1 56 25.1 54.9 25.1 54.1 24.6 53.3 24.1 52.85 23.2 52.4 22.3 52.4 21.3 52.4 20.25 52.85 19.35 53.3 18.5 54.1 18 54.95 17.45 56 17.45 Z"/>
</g>

<g id="IT_640x480_psd_Asset_5_ManagedWiFi_IT_Awareness_DM7_4_CTA_copy_9_Watch_the_IDC_point_of__view_on_being_prepared__0_Layer0_0_MEMBER_23_FILL">
<path fill="#24B9D1" stroke="none" d="
M 63.95 16
Q 64.1 17.05 64.1 18.3
L 64.1 26.65 66.25 26.65 66.25 21.05
Q 66.25 19.4 67.05 18.45 67.9 17.45 69.15 17.45 70.5 17.45 71 18.35 71.55 19.3 71.55 20.6
L 71.55 26.65 73.7 26.65 73.7 20.1
Q 73.7 18.2 72.75 16.95 71.8 15.7 69.8 15.7 68.6 15.7 67.6 16.3 66.65 16.95 66.2 17.95
L 66.15 17.95
Q 66.15 16.9 66.05 16
L 63.95 16 Z"/>
</g>

<g id="IT_640x480_psd_Asset_5_ManagedWiFi_IT_Awareness_DM7_4_CTA_copy_9_Watch_the_IDC_point_of__view_on_being_prepared__0_Layer0_0_MEMBER_24_FILL">
<path fill="#24B9D1" stroke="none" d="
M 84.75 9.4
L 81.1 9.85 81 26.65 84.25 26.65
Q 84.45 25.85 84.45 25.2
L 84.5 25.2
Q 85 26 86.05 26.45 87 26.95 88.15 26.95 89.6 26.95 90.9 26.15 92.15 25.3 92.75 23.95 93.4 22.7 93.4 21.05 93.4 19.6 92.75 18.15 92.05 16.85 90.9 16.05 89.6 15.25 88.15 15.25 87.05 15.25 86.2 15.7 85.35 16.15 84.8 16.75
L 84.75 16.75 84.75 9.4
M 85.85 23.5
Q 85.25 23.15 84.95 22.45 84.6 21.9 84.6 21.1 84.6 20.35 84.95 19.7 85.3 19 85.9 18.65 86.55 18.25 87.25 18.25 88.45 18.25 89.2 19.05 89.9 19.9 89.9 21.05 89.9 22.15 89.2 23.1 88.45 23.9 87.25 23.9 86.4 23.9 85.85 23.5 Z"/>
</g>

<g id="IT_640x480_psd_Asset_5_ManagedWiFi_IT_Awareness_DM7_4_CTA_copy_9_Watch_the_IDC_point_of__view_on_being_prepared__0_Layer0_0_MEMBER_25_FILL">
<path fill="#24B9D1" stroke="none" d="
M 105.95 22.1
L 106 21.25
Q 106 19.45 105.3 18.05 104.55 16.65 103.35 15.95 102.1 15.2 100.45 15.2 98.75 15.2 97.4 15.95 96.1 16.7 95.25 18.05 94.45 19.4 94.45 21.15 94.45 22.95 95.3 24.25 96.05 25.6 97.5 26.3 98.9 27 100.55 27 103.35 27 105.25 25.85
L 104.75 23.25
Q 102.85 24.2 101.1 24.2 99.95 24.2 98.95 23.6 98.05 23 97.95 22.1
L 105.95 22.1
M 102.05 18.35
Q 102.65 18.95 102.65 19.85
L 97.95 19.85
Q 98.05 18.95 98.75 18.35 99.45 17.75 100.45 17.75 101.55 17.75 102.05 18.35 Z"/>
</g>

<g id="IT_640x480_psd_Asset_5_ManagedWiFi_IT_Awareness_DM7_4_CTA_copy_9_Watch_the_IDC_point_of__view_on_being_prepared__0_Layer0_0_MEMBER_26_FILL">
<path fill="#24B9D1" stroke="none" d="
M 111.25 15.6
L 107.65 15.6 107.65 26.65 111.25 26.65 111.25 15.6
M 107.95 10.65
Q 107.35 11.25 107.35 12.05 107.35 12.85 107.95 13.45 108.65 14.05 109.45 14.05 110.3 14.05 110.95 13.45 111.55 12.95 111.55 12.05 111.55 11.25 110.95 10.65 110.3 10.05 109.45 10.05 108.65 10.05 107.95 10.65 Z"/>
</g>

<g id="IT_640x480_psd_Asset_5_ManagedWiFi_IT_Awareness_DM7_4_CTA_copy_9_Watch_the_IDC_point_of__view_on_being_prepared__0_Layer0_0_MEMBER_27_FILL">
<path fill="#24B9D1" stroke="none" d="
M 124.4 19.8
Q 124.4 17.9 123.4 16.6 122.45 15.25 120.35 15.25 119.3 15.25 118.35 15.8 117.55 16.25 117.05 17.1
L 117 17.1 116.9 15.6 113.4 15.6 113.5 26.65 117.15 26.65 117.15 20.65
Q 117.15 19.6 117.65 18.95 118.2 18.25 119.1 18.25 120.75 18.25 120.75 20.6
L 120.75 26.65 124.4 26.65 124.4 19.8 Z"/>
</g>

<g id="IT_640x480_psd_Asset_5_ManagedWiFi_IT_Awareness_DM7_4_CTA_copy_9_Watch_the_IDC_point_of__view_on_being_prepared__0_Layer0_0_MEMBER_28_FILL">
<path fill="#24B9D1" stroke="none" d="
M 125.95 21.05
Q 125.95 22.65 126.55 23.9 127.25 25.25 128.4 25.95 129.55 26.75 131.2 26.75 132.25 26.75 133.15 26.35 134.05 26 134.55 25.25
L 134.65 25.25 134.65 25.95
Q 134.65 27.4 133.9 28.2 133.1 29 131.7 29 130.35 29 129.35 28.6 128.15 28.15 127.2 27.5
L 126.65 30.55
Q 127.65 31.15 129.1 31.55 130.7 31.95 131.95 31.95 134.85 31.95 136.5 30.35 138.2 28.75 138.2 25.6
L 138.3 15.6 134.9 15.6 134.75 17 134.7 17
Q 134.15 16.15 133.2 15.7 132.3 15.25 131.2 15.25 129.7 15.25 128.4 16.05 127.2 16.85 126.55 18.2 125.95 19.5 125.95 21.05
M 129.45 21.05
Q 129.45 19.85 130.15 19.05 130.9 18.25 132.05 18.25 133.25 18.25 134 19.05 134.75 19.9 134.75 21.05 134.75 22.25 134 23.05 133.25 23.85 132.05 23.85 130.9 23.85 130.15 23 129.45 22.15 129.45 21.05 Z"/>
</g>

<g id="IT_640x480_psd_Asset_5_ManagedWiFi_IT_Awareness_DM7_4_CTA_copy_9_Watch_the_IDC_point_of__view_on_being_prepared__0_Layer0_0_MEMBER_29_FILL">
<path fill="#24B9D1" stroke="none" d="
M 148.75 16.95
L 148.7 15.6 145.25 15.6 145.3 31.95 148.95 31.95 148.95 25.4 149 25.4
Q 149.5 26.1 150.4 26.55 151.35 26.95 152.35 26.95 153.85 26.95 155.15 26.15 156.35 25.35 156.95 23.95 157.6 22.7 157.6 21.05 157.6 19.45 156.95 18.15 156.25 16.85 155.1 16.05 153.8 15.25 152.35 15.25 151.15 15.25 150.3 15.75 149.4 16.15 148.85 16.95
L 148.75 16.95
M 149.15 19.7
Q 149.5 19.05 150.1 18.65 150.75 18.25 151.45 18.25 152.65 18.25 153.4 19.05 154.05 19.85 154.05 21.05 154.05 22.25 153.4 23.1 152.65 23.9 151.45 23.9 150.6 23.9 150.05 23.5 149.4 23.05 149.15 22.45 148.8 21.9 148.8 21.1 148.8 20.35 149.15 19.7 Z"/>
</g>

<g id="IT_640x480_psd_Asset_5_ManagedWiFi_IT_Awareness_DM7_4_CTA_copy_9_Watch_the_IDC_point_of__view_on_being_prepared__0_Layer0_0_MEMBER_30_FILL">
<path fill="#24B9D1" stroke="none" d="
M 162.7 17.15
Q 162.7 16.3 162.55 15.6
L 159.1 15.6 159.2 26.65 162.85 26.65 162.85 20.95
Q 162.85 20.05 163.4 19.25 163.9 18.45 165.1 18.45 165.75 18.45 166.05 18.55
L 166.55 15.4
Q 165.95 15.25 165.3 15.25 164.5 15.25 163.8 15.8 163.15 16.35 162.75 17.15
L 162.7 17.15 Z"/>
</g>

<g id="IT_640x480_psd_Asset_5_ManagedWiFi_IT_Awareness_DM7_4_CTA_copy_9_Watch_the_IDC_point_of__view_on_being_prepared__0_Layer0_0_MEMBER_31_FILL">
<path fill="#24B9D1" stroke="none" d="
M 166.4 21.15
Q 166.4 23 167.2 24.25 168.05 25.65 169.4 26.3 170.8 27 172.45 27 175.25 27 177.15 25.85
L 176.7 23.25
Q 174.8 24.2 173 24.2 171.8 24.2 170.9 23.6 169.95 23 169.85 22.1
L 177.9 22.1 177.9 21.25
Q 177.9 19.45 177.2 18.05 176.55 16.65 175.25 15.95 174 15.2 172.35 15.2 170.65 15.2 169.3 15.95 168 16.7 167.15 18.05 166.4 19.35 166.4 21.15
M 169.85 19.85
Q 169.95 18.95 170.65 18.35 171.35 17.75 172.35 17.75 173.4 17.75 174 18.35 174.55 19 174.55 19.85
L 169.85 19.85 Z"/>
</g>

<g id="IT_640x480_psd_Asset_5_ManagedWiFi_IT_Awareness_DM7_4_CTA_copy_9_Watch_the_IDC_point_of__view_on_being_prepared__0_Layer0_0_MEMBER_32_FILL">
<path fill="#24B9D1" stroke="none" d="
M 191.15 18.15
Q 190.45 16.85 189.3 16.05 188 15.25 186.55 15.25 185.35 15.25 184.5 15.75 183.65 16.15 183 16.95
L 182.95 16.95 182.9 15.6 179.45 15.6 179.5 31.95 183.15 31.95 183.15 25.4 183.2 25.4
Q 183.6 26.05 184.6 26.55 185.55 26.95 186.55 26.95 188.1 26.95 189.3 26.15 190.55 25.3 191.15 23.95 191.8 22.7 191.8 21.05 191.8 19.6 191.15 18.15
M 183.35 19.7
Q 183.7 19 184.3 18.65 184.95 18.25 185.65 18.25 186.9 18.25 187.55 19.05 188.25 19.8 188.25 21.05 188.25 22.25 187.55 23.1 186.9 23.9 185.65 23.9 184.8 23.9 184.25 23.5 183.65 23.15 183.35 22.45 183 21.9 183 21.1 183 20.35 183.35 19.7 Z"/>
</g>

<g id="IT_640x480_psd_Asset_5_ManagedWiFi_IT_Awareness_DM7_4_CTA_copy_9_Watch_the_IDC_point_of__view_on_being_prepared__0_Layer0_0_MEMBER_33_FILL">
<path fill="#24B9D1" stroke="none" d="
M 202.8 24.55
L 202.8 20.15
Q 202.8 15.2 198.15 15.2 196.75 15.2 195.6 15.5 194.35 15.8 193.3 16.45
L 194.15 19
Q 194.85 18.5 195.75 18.25 196.65 17.95 197.4 17.95 198.35 17.95 198.8 18.35 199.35 18.7 199.35 19.55
L 199.35 19.7 199.1 19.7
Q 192.7 19.8 192.7 23.45 192.7 25.25 193.75 26.05 194.75 26.9 196.1 26.9 197.1 26.9 198.05 26.5 199.05 26.15 199.4 25.45
L 199.5 25.45 199.7 26.65 203 26.65
Q 202.8 26 202.8 24.55
M 196.05 23.3
Q 196.05 22.4 196.9 22.1 197.8 21.7 199 21.7
L 199.5 21.7 199.5 22.2
Q 199.5 23.1 198.85 23.85 198.2 24.45 197.2 24.45 196.75 24.45 196.4 24.2 196.05 23.85 196.05 23.3 Z"/>
</g>

<g id="IT_640x480_psd_Asset_5_ManagedWiFi_IT_Awareness_DM7_4_CTA_copy_9_Watch_the_IDC_point_of__view_on_being_prepared__0_Layer0_0_MEMBER_34_FILL">
<path fill="#24B9D1" stroke="none" d="
M 208.35 17.15
Q 208.35 16.3 208.2 15.6
L 204.7 15.6
Q 204.85 16.6 204.85 18.35
L 204.85 26.65 208.5 26.65 208.5 20.95
Q 208.5 19.95 209.05 19.25 209.55 18.45 210.75 18.45 211.4 18.45 211.7 18.55
L 212.2 15.4
Q 211.6 15.25 210.95 15.25 210.15 15.25 209.45 15.8 208.8 16.35 208.4 17.15
L 208.35 17.15 Z"/>
</g>

<g id="IT_640x480_psd_Asset_5_ManagedWiFi_IT_Awareness_DM7_4_CTA_copy_9_Watch_the_IDC_point_of__view_on_being_prepared__0_Layer0_0_MEMBER_35_FILL">
<path fill="#24B9D1" stroke="none" d="
M 223.5 22.1
L 223.55 21.25
Q 223.55 19.45 222.85 18.05 222.1 16.65 220.9 15.95 219.65 15.2 218 15.2 216.3 15.2 214.95 15.95 213.65 16.7 212.8 18.05 212 19.4 212 21.15 212 22.95 212.85 24.25 213.6 25.6 215.05 26.3 216.45 27 218.1 27 220.9 27 222.8 25.85
L 222.3 23.25
Q 220.4 24.2 218.65 24.2 217.5 24.2 216.5 23.6 215.6 23 215.5 22.1
L 223.5 22.1
M 218 17.75
Q 219.1 17.75 219.6 18.35 220.2 18.95 220.2 19.85
L 215.5 19.85
Q 215.6 18.95 216.3 18.35 217 17.75 218 17.75 Z"/>
</g>

<g id="IT_640x480_psd_Asset_5_ManagedWiFi_IT_Awareness_DM7_4_CTA_copy_9_Watch_the_IDC_point_of__view_on_being_prepared__0_Layer0_0_MEMBER_36_FILL">
<path fill="#24B9D1" stroke="none" d="
M 236.85 9.4
L 233.2 9.85 233.2 16.75 233.15 16.75
Q 232.6 16.15 231.75 15.7 230.95 15.25 229.8 15.25 228.35 15.25 227.05 16.05 225.9 16.85 225.2 18.15 224.6 19.5 224.6 21.05 224.6 22.7 225.2 23.95 225.9 25.35 227.05 26.15 228.35 26.95 229.85 26.95 231 26.95 231.95 26.45 232.95 26 233.45 25.2
L 233.5 25.2 233.6 26.65 236.95 26.65 236.85 9.4
M 232.1 23.5
Q 231.55 23.9 230.7 23.9 229.45 23.9 228.8 23.1 228.1 22.25 228.1 21.05 228.1 19.8 228.8 19.05 229.45 18.25 230.7 18.25 231.45 18.25 232.1 18.65 232.6 18.95 233.05 19.7 233.35 20.4 233.35 21.1 233.35 21.85 233.05 22.45 232.65 23.15 232.1 23.5 Z"/>
</g>

<g id="IT_640x480_psd_Asset_5_ManagedWiFi_IT_Awareness_DM7_4_CTA_copy_9_Watch_the_IDC_point_of__view_on_being_prepared__0_Layer0_0_MEMBER_37_FILL">
<path fill="#24B9D1" stroke="none" d="
M 239.4 26.25
Q 240.1 26.85 241 26.85 241.95 26.85 242.55 26.2 243.2 25.6 243.2 24.65 243.2 23.75 242.55 23.15 241.95 22.5 241 22.5 240.05 22.5 239.4 23.15 238.75 23.75 238.75 24.7 238.75 25.6 239.4 26.25 Z"/>
</g>

<g id="IT_640x480_psd_Asset_5_ManagedWiFi_IT_Awareness_DM7_4_footer_copy_4_Do_more_with_Wi_Fi_as_a_Service__0_Layer0_0_MEMBER_0_FILL">
<path fill="#838282" stroke="none" d="
M 16.55 -13.9
Q 15.15 -15.9 12.95 -16.8 10.7 -17.7 8 -17.7
L 2.2 -17.7 2.2 0 8.1 0
Q 10.85 0 12.95 -0.95 15.2 -1.9 16.55 -3.95 17.9 -5.95 17.9 -8.85 17.9 -11.95 16.55 -13.9
M 4.7 -15.5
L 7.85 -15.5
Q 11.2 -15.5 13.2 -13.85 15.25 -12.2 15.25 -8.85 15.25 -5.55 13.2 -3.9 11.15 -2.2 7.8 -2.2
L 4.7 -2.2 4.7 -15.5 Z"/>
</g>

<g id="IT_640x480_psd_Asset_5_ManagedWiFi_IT_Awareness_DM7_4_footer_copy_4_Do_more_with_Wi_Fi_as_a_Service__0_Layer0_0_MEMBER_1_FILL">
<path fill="#838282" stroke="none" d="
M 29.5 -11.55
Q 28.1 -12.35 26.2 -12.35 24.35 -12.35 22.9 -11.55 21.4 -10.75 20.6 -9.3 19.75 -7.85 19.75 -6 19.75 -4.25 20.6 -2.7 21.4 -1.3 22.9 -0.45 24.35 0.35 26.2 0.35 28.1 0.35 29.5 -0.45 31.05 -1.3 31.85 -2.7 32.7 -4.15 32.7 -6 32.7 -7.9 31.85 -9.35 31 -10.8 29.5 -11.55
M 28.4 -9.75
Q 29.35 -9.1 29.8 -8.15 30.3 -7.2 30.3 -6 30.3 -4.8 29.8 -3.85 29.4 -2.95 28.4 -2.3 27.5 -1.7 26.2 -1.7 24.95 -1.7 24.05 -2.3 23.05 -2.95 22.65 -3.85 22.15 -4.8 22.15 -6 22.15 -7.2 22.65 -8.15 23.1 -9.1 24.05 -9.75 24.9 -10.3 26.2 -10.3 27.6 -10.3 28.4 -9.75 Z"/>
</g>

<g id="IT_640x480_psd_Asset_5_ManagedWiFi_IT_Awareness_DM7_4_footer_copy_4_Do_more_with_Wi_Fi_as_a_Service__0_Layer0_0_MEMBER_2_FILL">
<path fill="#838282" stroke="none" d="
M 46.3 -10.3
Q 47.65 -10.3 48.2 -9.45 48.85 -8.6 48.85 -6.95
L 48.85 0 51.3 0 51.3 -6.3
Q 51.3 -8.15 52.15 -9.2 52.95 -10.3 54.35 -10.3 55.85 -10.3 56.4 -9.3 56.95 -8.3 56.95 -6.7
L 56.95 0 59.4 0 59.4 -7.25
Q 59.4 -9.4 58.35 -10.85 57.35 -12.3 55.05 -12.3 53.6 -12.3 52.55 -11.6 51.5 -10.9 50.9 -9.65 50.45 -10.85 49.5 -11.6 48.6 -12.3 47.1 -12.3 45.7 -12.3 44.7 -11.6 43.7 -10.95 43.2 -9.75
L 43.15 -9.75
Q 43.15 -10.95 43 -11.95
L 40.65 -11.95
Q 40.8 -10.75 40.8 -9.35
L 40.8 0 43.25 0 43.25 -6.15
Q 43.25 -8.05 44.1 -9.2 45 -10.3 46.3 -10.3 Z"/>
</g>

<g id="IT_640x480_psd_Asset_5_ManagedWiFi_IT_Awareness_DM7_4_footer_copy_4_Do_more_with_Wi_Fi_as_a_Service__0_Layer0_0_MEMBER_3_FILL">
<path fill="#838282" stroke="none" d="
M 65 -11.55
Q 63.5 -10.75 62.7 -9.3 61.85 -7.95 61.85 -6 61.85 -4.1 62.7 -2.7 63.5 -1.3 65 -0.45 66.45 0.35 68.3 0.35 70.2 0.35 71.6 -0.45 73 -1.25 73.95 -2.7 74.8 -4.15 74.8 -6 74.8 -7.9 73.95 -9.35 73 -10.85 71.6 -11.55 70.2 -12.35 68.3 -12.35 66.45 -12.35 65 -11.55
M 68.3 -10.3
Q 69.6 -10.3 70.5 -9.75 71.45 -9.1 71.9 -8.15 72.4 -7.2 72.4 -6 72.4 -4.8 71.9 -3.85 71.5 -2.95 70.5 -2.3 69.55 -1.7 68.3 -1.7 67.05 -1.7 66.15 -2.3 65.25 -2.85 64.7 -3.85 64.25 -4.8 64.25 -6 64.25 -7.15 64.7 -8.15 65.25 -9.2 66.15 -9.75 67 -10.3 68.3 -10.3 Z"/>
</g>

<g id="IT_640x480_psd_Asset_5_ManagedWiFi_IT_Awareness_DM7_4_footer_copy_4_Do_more_with_Wi_Fi_as_a_Service__0_Layer0_0_MEMBER_4_FILL">
<path fill="#838282" stroke="none" d="
M 77.25 -11.95
Q 77.4 -10.95 77.4 -9
L 77.4 0 79.8 0 79.8 -6
Q 79.8 -7.6 80.6 -8.95 81.4 -10.2 82.85 -10.2 83.5 -10.2 83.9 -10
L 84.3 -12.15
Q 83.8 -12.3 83 -12.3 81.95 -12.3 81.1 -11.6 80.2 -10.9 79.8 -9.7
L 79.75 -9.7
Q 79.75 -11.05 79.6 -11.95
L 77.25 -11.95 Z"/>
</g>

<g id="IT_640x480_psd_Asset_5_ManagedWiFi_IT_Awareness_DM7_4_footer_copy_4_Do_more_with_Wi_Fi_as_a_Service__0_Layer0_0_MEMBER_5_FILL">
<path fill="#838282" stroke="none" d="
M 90.55 -12.35
Q 88.75 -12.35 87.45 -11.55 86.05 -10.7 85.2 -9.3 84.4 -7.8 84.4 -6 84.4 -4.2 85.25 -2.65 86.1 -1.2 87.5 -0.45 88.9 0.35 90.75 0.35 93.6 0.35 95.6 -1
L 95.25 -2.9
Q 94.35 -2.25 93.3 -1.9 92.3 -1.55 91 -1.55 89.8 -1.55 88.85 -2.05 87.8 -2.65 87.35 -3.45 86.75 -4.35 86.75 -5.45
L 96.35 -5.45 96.35 -6.2
Q 96.35 -7.95 95.65 -9.35 95 -10.75 93.65 -11.55 92.35 -12.35 90.55 -12.35
M 88.6 -10.05
Q 89.45 -10.6 90.55 -10.6 92.1 -10.6 93.1 -9.6 94 -8.7 94.1 -7.05
L 86.75 -7.05
Q 86.85 -7.95 87.25 -8.7 87.8 -9.6 88.6 -10.05 Z"/>
</g>

<g id="IT_640x480_psd_Asset_5_ManagedWiFi_IT_Awareness_DM7_4_footer_copy_4_Do_more_with_Wi_Fi_as_a_Service__0_Layer0_0_MEMBER_6_FILL">
<path fill="#838282" stroke="none" d="
M 105.4 -11.95
L 102.8 -11.95 106.65 0 109.15 0 112.15 -9.15 112.2 -9.15 115.25 0 117.75 0 121.65 -11.95 119.15 -11.95 116.5 -2.7 116.45 -2.7 113.5 -11.95 111 -11.95 108.05 -2.7 108 -2.7 105.4 -11.95 Z"/>
</g>

<g id="IT_640x480_psd_Asset_5_ManagedWiFi_IT_Awareness_DM7_4_footer_copy_4_Do_more_with_Wi_Fi_as_a_Service__0_Layer0_0_MEMBER_7_FILL">
<path fill="#838282" stroke="none" d="
M 125.8 -11.95
L 123.4 -11.95 123.4 0 125.8 0 125.8 -11.95
M 123.55 -15.35
Q 124 -14.9 124.6 -14.9 125.2 -14.9 125.65 -15.35 126.1 -15.8 126.1 -16.4 126.1 -17 125.65 -17.45 125.2 -17.9 124.6 -17.9 124 -17.9 123.55 -17.45 123.1 -17 123.1 -16.4 123.1 -15.8 123.55 -15.35 Z"/>
</g>

<g id="IT_640x480_psd_Asset_5_ManagedWiFi_IT_Awareness_DM7_4_footer_copy_4_Do_more_with_Wi_Fi_as_a_Service__0_Layer0_0_MEMBER_8_FILL">
<path fill="#838282" stroke="none" d="
M 129.45 -3.3
Q 129.45 -1.65 130.3 -0.65 131.15 0.25 132.65 0.25 134.15 0.25 135.5 -0.35
L 135.2 -2.1
Q 134.3 -1.65 133.45 -1.65 131.85 -1.65 131.85 -3.6
L 131.85 -10.1 134.8 -10.1 135.15 -11.95 131.85 -11.95 131.85 -15.3 129.45 -14.65 129.45 -11.95 127.7 -11.95 127.3 -10.1 129.45 -10.1 129.45 -3.3 Z"/>
</g>

<g id="IT_640x480_psd_Asset_5_ManagedWiFi_IT_Awareness_DM7_4_footer_copy_4_Do_more_with_Wi_Fi_as_a_Service__0_Layer0_0_MEMBER_9_FILL">
<path fill="#838282" stroke="none" d="
M 139.55 -19.2
L 137.1 -18.85 137.1 0 139.55 0 139.55 -6.05
Q 139.55 -8 140.45 -9.15 141.45 -10.3 142.85 -10.3 144.3 -10.3 144.9 -9.3 145.5 -8.3 145.5 -6.75
L 145.5 0 147.95 0 147.95 -7.35
Q 147.95 -9.45 146.9 -10.9 145.85 -12.3 143.6 -12.3 142.25 -12.3 141.15 -11.65 140.05 -10.95 139.6 -9.8
L 139.55 -9.8 139.55 -19.2 Z"/>
</g>

<g id="IT_640x480_psd_Asset_5_ManagedWiFi_IT_Awareness_DM7_4_footer_copy_4_Do_more_with_Wi_Fi_as_a_Service__0_Layer0_0_MEMBER_10_FILL">
<path fill="#838282" stroke="none" d="
M 157.35 -17.7
L 154.65 -17.7 159.8 0 162.5 0 166.7 -14.35 166.75 -14.35 171 0 173.65 0 178.8 -17.7 176.2 -17.7 172.25 -3.4 172.2 -3.4 168.1 -17.7 165.35 -17.7 161.3 -3.4 161.25 -3.4 157.35 -17.7 Z"/>
</g>

<g id="IT_640x480_psd_Asset_5_ManagedWiFi_IT_Awareness_DM7_4_footer_copy_4_Do_more_with_Wi_Fi_as_a_Service__0_Layer0_0_MEMBER_11_FILL">
<path fill="#838282" stroke="none" d="
M 182.9 -11.95
L 180.45 -11.95 180.45 0 182.9 0 182.9 -11.95
M 181.7 -17.9
Q 181.05 -17.9 180.6 -17.45 180.15 -17 180.15 -16.4 180.15 -15.8 180.6 -15.35 181.05 -14.9 181.7 -14.9 182.3 -14.9 182.75 -15.35 183.2 -15.8 183.2 -16.4 183.2 -17 182.75 -17.45 182.3 -17.9 181.7 -17.9 Z"/>
</g>

<g id="IT_640x480_psd_Asset_5_ManagedWiFi_IT_Awareness_DM7_4_footer_copy_4_Do_more_with_Wi_Fi_as_a_Service__0_Layer0_0_MEMBER_12_FILL">
<path fill="#838282" stroke="none" d="
M 185.35 -7.35
L 185.35 -5.4 190.95 -5.4 190.95 -7.35 185.35 -7.35 Z"/>
</g>

<g id="IT_640x480_psd_Asset_5_ManagedWiFi_IT_Awareness_DM7_4_footer_copy_4_Do_more_with_Wi_Fi_as_a_Service__0_Layer0_0_MEMBER_13_FILL">
<path fill="#838282" stroke="none" d="
M 196.1 -9.95
L 196.1 -15.5 203.15 -15.5 203.4 -17.7 193.55 -17.7 193.55 0 196.1 0 196.1 -7.85 202.55 -7.85 202.95 -9.95 196.1 -9.95 Z"/>
</g>

<g id="IT_640x480_psd_Asset_5_ManagedWiFi_IT_Awareness_DM7_4_footer_copy_4_Do_more_with_Wi_Fi_as_a_Service__0_Layer0_0_MEMBER_14_FILL">
<path fill="#838282" stroke="none" d="
M 207.7 -11.95
L 205.3 -11.95 205.3 0 207.7 0 207.7 -11.95
M 205.45 -15.35
Q 205.9 -14.9 206.5 -14.9 207.1 -14.9 207.55 -15.35 208 -15.8 208 -16.4 208 -17 207.55 -17.45 207.1 -17.9 206.5 -17.9 205.9 -17.9 205.45 -17.45 205 -17 205 -16.4 205 -15.8 205.45 -15.35 Z"/>
</g>

<g id="IT_640x480_psd_Asset_5_ManagedWiFi_IT_Awareness_DM7_4_footer_copy_4_Do_more_with_Wi_Fi_as_a_Service__0_Layer0_0_MEMBER_15_FILL">
<path fill="#838282" stroke="none" d="
M 222.65 -7.3
Q 219.75 -7.3 217.75 -6.45 215.75 -5.65 215.75 -3.3 215.75 -1.5 216.85 -0.55 218 0.3 219.5 0.3 220.9 0.3 222 -0.25 223.15 -0.85 223.65 -1.9
L 223.75 -1.9 223.95 0 226.15 0
Q 225.95 -0.8 225.95 -2.45
L 225.95 -7.45
Q 225.95 -9.9 224.7 -11.1 223.45 -12.35 221.15 -12.35 218.45 -12.35 216.4 -10.9
L 217.05 -9.1
Q 217.75 -9.7 218.75 -10.1 219.85 -10.5 220.75 -10.5 222.05 -10.5 222.85 -9.8 223.65 -9.1 223.65 -7.8
L 223.65 -7.3 222.65 -7.3
M 222.05 -1.9
Q 221.25 -1.4 220.15 -1.4 219.25 -1.4 218.65 -1.85 218.05 -2.35 218.05 -3.35 218.05 -5.85 222.7 -5.85
L 223.7 -5.85 223.7 -4.9
Q 223.7 -4.1 223.3 -3.2 222.8 -2.4 222.05 -1.9 Z"/>
</g>

<g id="IT_640x480_psd_Asset_5_ManagedWiFi_IT_Awareness_DM7_4_footer_copy_4_Do_more_with_Wi_Fi_as_a_Service__0_Layer0_0_MEMBER_16_FILL">
<path fill="#838282" stroke="none" d="
M 231.3 -7.8
Q 230.75 -8.15 230.75 -8.9 230.75 -9.7 231.35 -10.15 232 -10.55 232.9 -10.55 233.75 -10.55 234.5 -10.2 235.4 -9.85 235.9 -9.4
L 236.85 -11.05
Q 236.2 -11.55 235.05 -11.95 233.95 -12.35 232.75 -12.35 231.75 -12.35 230.7 -11.95 229.7 -11.55 229.1 -10.75 228.45 -9.95 228.45 -8.8 228.45 -7.35 229.35 -6.6 230.2 -5.9 231.9 -5.35 233.55 -4.85 234.2 -4.45 234.85 -4 234.85 -3.25 234.85 -2.35 234.15 -1.9 233.5 -1.45 232.5 -1.45 230.45 -1.45 228.6 -2.85
L 228.25 -0.9
Q 228.9 -0.4 230.15 0 231.25 0.35 232.7 0.35 233.8 0.35 234.9 -0.05 235.8 -0.4 236.55 -1.3 237.2 -2.2 237.2 -3.35 237.2 -4.75 236.2 -5.6 235.2 -6.45 233.45 -6.95 232 -7.35 231.3 -7.8 Z"/>
</g>

<g id="IT_640x480_psd_Asset_5_ManagedWiFi_IT_Awareness_DM7_4_footer_copy_4_Do_more_with_Wi_Fi_as_a_Service__0_Layer0_0_MEMBER_17_FILL">
<path fill="#838282" stroke="none" d="
M 252.1 -7.3
L 251.1 -7.3
Q 248.2 -7.3 246.2 -6.45 244.25 -5.6 244.25 -3.3 244.25 -1.45 245.35 -0.55 246.5 0.3 248 0.3 249.4 0.3 250.45 -0.25 251.65 -0.85 252.1 -1.9
L 252.2 -1.9 252.4 0 254.6 0
Q 254.4 -1.2 254.4 -2.45
L 254.4 -7.45
Q 254.4 -9.9 253.15 -11.1 251.95 -12.35 249.65 -12.35 246.95 -12.35 244.9 -10.9
L 245.5 -9.1
Q 246.2 -9.75 247.25 -10.1 248.35 -10.5 249.2 -10.5 250.5 -10.5 251.35 -9.8 252.1 -9.1 252.1 -7.8
L 252.1 -7.3
M 247.1 -1.85
Q 246.5 -2.35 246.5 -3.35 246.5 -5.85 251.2 -5.85
L 252.15 -5.85 252.15 -4.9
Q 252.15 -3.95 251.75 -3.2 251.3 -2.4 250.55 -1.9 249.75 -1.4 248.65 -1.4 247.7 -1.4 247.1 -1.85 Z"/>
</g>

<g id="IT_640x480_psd_Asset_5_ManagedWiFi_IT_Awareness_DM7_4_footer_copy_4_Do_more_with_Wi_Fi_as_a_Service__0_Layer0_0_MEMBER_18_FILL">
<path fill="#838282" stroke="none" d="
M 262.95 -3.65
L 262.45 -1.3
Q 263.5 -0.55 265.05 0 266.65 0.45 268.2 0.45 269.75 0.45 271.1 -0.15 272.5 -0.75 273.3 -1.95 274.15 -3.2 274.15 -4.9 274.15 -6.4 273.4 -7.4 272.65 -8.35 271.6 -8.9 270.85 -9.25 268.85 -10
L 266.85 -10.75
Q 266.1 -11.15 265.7 -11.7 265.2 -12.35 265.2 -13.2 265.2 -14.6 266.3 -15.3 267.35 -16.05 268.8 -16.05 269.9 -16.05 271.1 -15.6 272.25 -15.25 273.05 -14.6
L 273.8 -16.7
Q 272.9 -17.4 271.5 -17.75 270.3 -18.15 268.75 -18.15 267.1 -18.15 265.8 -17.6 264.4 -16.95 263.55 -15.85 262.7 -14.7 262.7 -13.05 262.7 -11.5 263.35 -10.55 264.05 -9.55 265 -9.05 266.15 -8.45 267.5 -8 269.35 -7.35 269.75 -7.15 270.55 -6.8 271.1 -6.15 271.6 -5.6 271.6 -4.6 271.6 -3.15 270.55 -2.4 269.6 -1.65 268.05 -1.65 266.8 -1.65 265.4 -2.2 264 -2.75 262.95 -3.65 Z"/>
</g>

<g id="IT_640x480_psd_Asset_5_ManagedWiFi_IT_Awareness_DM7_4_footer_copy_4_Do_more_with_Wi_Fi_as_a_Service__0_Layer0_0_MEMBER_19_FILL">
<path fill="#838282" stroke="none" d="
M 282.15 -12.35
Q 280.45 -12.35 279.05 -11.55 277.6 -10.7 276.85 -9.3 276 -7.85 276 -6 276 -4.2 276.85 -2.65 277.7 -1.2 279.1 -0.45 280.5 0.35 282.35 0.35 285.2 0.35 287.2 -1
L 286.85 -2.9
Q 286 -2.25 284.95 -1.9 283.9 -1.55 282.6 -1.55 281.35 -1.55 280.5 -2.05 279.55 -2.55 278.95 -3.45 278.45 -4.35 278.35 -5.45
L 287.95 -5.45 287.95 -6.2
Q 287.95 -8.1 287.25 -9.35 286.55 -10.85 285.25 -11.55 283.95 -12.35 282.15 -12.35
M 280.2 -10.05
Q 281.05 -10.6 282.15 -10.6 283.8 -10.6 284.7 -9.6 285.7 -8.6 285.7 -7.05
L 278.35 -7.05
Q 278.45 -7.95 278.9 -8.7 279.35 -9.5 280.2 -10.05 Z"/>
</g>

<g id="IT_640x480_psd_Asset_5_ManagedWiFi_IT_Awareness_DM7_4_footer_copy_4_Do_more_with_Wi_Fi_as_a_Service__0_Layer0_0_MEMBER_20_FILL">
<path fill="#838282" stroke="none" d="
M 290.4 -11.95
Q 290.55 -10.95 290.55 -9
L 290.55 0 292.95 0 292.95 -6
Q 292.95 -7.6 293.75 -8.95 294.55 -10.2 296 -10.2 296.65 -10.2 297.05 -10
L 297.45 -12.15
Q 296.95 -12.3 296.15 -12.3 295.1 -12.3 294.25 -11.6 293.45 -11 292.95 -9.7
L 292.9 -9.7
Q 292.9 -11.05 292.75 -11.95
L 290.4 -11.95 Z"/>
</g>

<g id="IT_640x480_psd_Asset_5_ManagedWiFi_IT_Awareness_DM7_4_footer_copy_4_Do_more_with_Wi_Fi_as_a_Service__0_Layer0_0_MEMBER_21_FILL">
<path fill="#838282" stroke="none" d="
M 299.55 -11.95
L 296.9 -11.95 301.55 0 304.2 0 308.75 -11.95 306.2 -11.95 302.9 -2.5 299.55 -11.95 Z"/>
</g>

<g id="IT_640x480_psd_Asset_5_ManagedWiFi_IT_Awareness_DM7_4_footer_copy_4_Do_more_with_Wi_Fi_as_a_Service__0_Layer0_0_MEMBER_22_FILL">
<path fill="#838282" stroke="none" d="
M 312.7 -11.95
L 310.25 -11.95 310.25 0 312.7 0 312.7 -11.95
M 310.4 -15.35
Q 310.85 -14.9 311.5 -14.9 312.1 -14.9 312.55 -15.35 313 -15.8 313 -16.4 313 -17 312.55 -17.45 312.1 -17.9 311.5 -17.9 310.85 -17.9 310.4 -17.45 309.95 -17 309.95 -16.4 309.95 -15.8 310.4 -15.35 Z"/>
</g>

<g id="IT_640x480_psd_Asset_5_ManagedWiFi_IT_Awareness_DM7_4_footer_copy_4_Do_more_with_Wi_Fi_as_a_Service__0_Layer0_0_MEMBER_23_FILL">
<path fill="#838282" stroke="none" d="
M 319.65 -9.75
Q 320.5 -10.3 321.75 -10.3 322.55 -10.3 323.45 -10 324.25 -9.7 324.9 -9.15
L 325.8 -11
Q 325.15 -11.55 324 -11.95 322.8 -12.35 321.7 -12.35 319.85 -12.35 318.4 -11.55 316.9 -10.7 316.1 -9.3 315.25 -7.85 315.25 -6 315.25 -4.15 316.1 -2.7 316.95 -1.25 318.35 -0.45 319.75 0.35 321.55 0.35 322.75 0.35 323.95 -0.05 325 -0.4 325.8 -1.05
L 325.45 -3
Q 324.85 -2.45 323.85 -2 322.95 -1.7 321.9 -1.7 320.65 -1.7 319.7 -2.25 318.8 -2.8 318.25 -3.85 317.75 -4.8 317.75 -6 317.75 -7.2 318.25 -8.15 318.7 -9.1 319.65 -9.75 Z"/>
</g>

<g id="IT_640x480_psd_Asset_5_ManagedWiFi_IT_Awareness_DM7_4_footer_copy_4_Do_more_with_Wi_Fi_as_a_Service__0_Layer0_0_MEMBER_24_FILL">
<path fill="#838282" stroke="none" d="
M 333 -12.35
Q 331.2 -12.35 329.9 -11.55 328.5 -10.7 327.65 -9.3 326.85 -7.8 326.85 -6 326.85 -4.2 327.7 -2.65 328.55 -1.2 329.95 -0.45 331.35 0.35 333.2 0.35 336.05 0.35 338.05 -1
L 337.7 -2.9
Q 336.8 -2.25 335.75 -1.9 334.75 -1.55 333.45 -1.55 332.25 -1.55 331.3 -2.05 330.25 -2.65 329.8 -3.45 329.2 -4.35 329.2 -5.45
L 338.8 -5.45 338.8 -6.2
Q 338.8 -7.95 338.1 -9.35 337.45 -10.75 336.1 -11.55 334.8 -12.35 333 -12.35
M 331.05 -10.05
Q 331.9 -10.6 333 -10.6 334.55 -10.6 335.55 -9.6 336.45 -8.7 336.55 -7.05
L 329.2 -7.05
Q 329.3 -7.95 329.7 -8.7 330.25 -9.6 331.05 -10.05 Z"/>
</g>

<g id="IT_640x480_psd_Asset_5_ManagedWiFi_IT_Awareness_DM7_4_footer_copy_4_Do_more_with_Wi_Fi_as_a_Service__0_Layer0_0_MEMBER_25_FILL">
<path fill="#838282" stroke="none" d="
M 341.1 -1.4
Q 341.1 -0.75 341.55 -0.25 342 0.2 342.7 0.2 343.4 0.2 343.85 -0.25 344.35 -0.75 344.35 -1.4 344.35 -2.05 343.85 -2.55 343.4 -3.05 342.7 -3.05 342 -3.05 341.55 -2.55 341.1 -2.1 341.1 -1.4 Z"/>
</g>
</defs>

<g transform="matrix( 1, 0, 0, 1, -39,29) ">
<g transform="matrix( 1, 0, 0, 1, 33,0) ">
<g transform="matrix( 1, 0, 0, 1, 55,10) ">
<g transform="matrix( 2.815704345703125, 0, 0, 2.832611083984375, -1.85,27.6) ">
<use xlink:href="#IT_640x480_psd_Asset_5_ManagedWiFi_IT_Awareness_DM7_4_Learn_more_about_the__solutions_that_are_available__0_Layer0_0_MEMBER_0_FILL"/>
</g>

<g transform="matrix( 2.815704345703125, 0, 0, 2.832611083984375, -1.85,27.6) ">
<use xlink:href="#IT_640x480_psd_Asset_5_ManagedWiFi_IT_Awareness_DM7_4_Learn_more_about_the__solutions_that_are_available__0_Layer0_0_MEMBER_1_FILL"/>
</g>

<g transform="matrix( 2.815704345703125, 0, 0, 2.832611083984375, -1.85,27.6) ">
<use xlink:href="#IT_640x480_psd_Asset_5_ManagedWiFi_IT_Awareness_DM7_4_Learn_more_about_the__solutions_that_are_available__0_Layer0_0_MEMBER_2_FILL"/>
</g>

<g transform="matrix( 2.815704345703125, 0, 0, 2.832611083984375, -1.85,27.6) ">
<use xlink:href="#IT_640x480_psd_Asset_5_ManagedWiFi_IT_Awareness_DM7_4_Learn_more_about_the__solutions_that_are_available__0_Layer0_0_MEMBER_3_FILL"/>
</g>

<g transform="matrix( 2.815704345703125, 0, 0, 2.832611083984375, -1.85,27.6) ">
<use xlink:href="#IT_640x480_psd_Asset_5_ManagedWiFi_IT_Awareness_DM7_4_Learn_more_about_the__solutions_that_are_available__0_Layer0_0_MEMBER_4_FILL"/>
</g>

<g transform="matrix( 2.815704345703125, 0, 0, 2.832611083984375, -1.85,27.6) ">
<use xlink:href="#IT_640x480_psd_Asset_5_ManagedWiFi_IT_Awareness_DM7_4_Learn_more_about_the__solutions_that_are_available__0_Layer0_0_MEMBER_5_FILL"/>
</g>

<g transform="matrix( 2.815704345703125, 0, 0, 2.832611083984375, -1.85,27.6) ">
<use xlink:href="#IT_640x480_psd_Asset_5_ManagedWiFi_IT_Awareness_DM7_4_Learn_more_about_the__solutions_that_are_available__0_Layer0_0_MEMBER_6_FILL"/>
</g>

<g transform="matrix( 2.815704345703125, 0, 0, 2.832611083984375, -1.85,27.6) ">
<use xlink:href="#IT_640x480_psd_Asset_5_ManagedWiFi_IT_Awareness_DM7_4_Learn_more_about_the__solutions_that_are_available__0_Layer0_0_MEMBER_7_FILL"/>
</g>

<g transform="matrix( 2.815704345703125, 0, 0, 2.832611083984375, -1.85,27.6) ">
<use xlink:href="#IT_640x480_psd_Asset_5_ManagedWiFi_IT_Awareness_DM7_4_Learn_more_about_the__solutions_that_are_available__0_Layer0_0_MEMBER_8_FILL"/>
</g>

<g transform="matrix( 2.815704345703125, 0, 0, 2.832611083984375, -1.85,27.6) ">
<use xlink:href="#IT_640x480_psd_Asset_5_ManagedWiFi_IT_Awareness_DM7_4_Learn_more_about_the__solutions_that_are_available__0_Layer0_0_MEMBER_9_FILL"/>
</g>

<g transform="matrix( 2.815704345703125, 0, 0, 2.832611083984375, -1.85,27.6) ">
<use xlink:href="#IT_640x480_psd_Asset_5_ManagedWiFi_IT_Awareness_DM7_4_Learn_more_about_the__solutions_that_are_available__0_Layer0_0_MEMBER_10_FILL"/>
</g>

<g transform="matrix( 2.815704345703125, 0, 0, 2.832611083984375, -1.85,27.6) ">
<use xlink:href="#IT_640x480_psd_Asset_5_ManagedWiFi_IT_Awareness_DM7_4_Learn_more_about_the__solutions_that_are_available__0_Layer0_0_MEMBER_11_FILL"/>
</g>

<g transform="matrix( 2.815704345703125, 0, 0, 2.832611083984375, -1.85,27.6) ">
<use xlink:href="#IT_640x480_psd_Asset_5_ManagedWiFi_IT_Awareness_DM7_4_Learn_more_about_the__solutions_that_are_available__0_Layer0_0_MEMBER_12_FILL"/>
</g>

<g transform="matrix( 2.815704345703125, 0, 0, 2.832611083984375, -1.85,27.6) ">
<use xlink:href="#IT_640x480_psd_Asset_5_ManagedWiFi_IT_Awareness_DM7_4_Learn_more_about_the__solutions_that_are_available__0_Layer0_0_MEMBER_13_FILL"/>
</g>

<g transform="matrix( 2.815704345703125, 0, 0, 2.832611083984375, -1.85,27.6) ">
<use xlink:href="#IT_640x480_psd_Asset_5_ManagedWiFi_IT_Awareness_DM7_4_Learn_more_about_the__solutions_that_are_available__0_Layer0_0_MEMBER_14_FILL"/>
</g>

<g transform="matrix( 2.815704345703125, 0, 0, 2.832611083984375, -1.85,27.6) ">
<use xlink:href="#IT_640x480_psd_Asset_5_ManagedWiFi_IT_Awareness_DM7_4_Learn_more_about_the__solutions_that_are_available__0_Layer0_0_MEMBER_15_FILL"/>
</g>

<g transform="matrix( 2.815704345703125, 0, 0, 2.832611083984375, -1.85,27.6) ">
<use xlink:href="#IT_640x480_psd_Asset_5_ManagedWiFi_IT_Awareness_DM7_4_Learn_more_about_the__solutions_that_are_available__0_Layer0_0_MEMBER_16_FILL"/>
</g>

<g transform="matrix( 2.815704345703125, 0, 0, 2.832611083984375, -1.85,27.6) ">
<use xlink:href="#IT_640x480_psd_Asset_5_ManagedWiFi_IT_Awareness_DM7_4_Learn_more_about_the__solutions_that_are_available__0_Layer0_0_MEMBER_17_FILL"/>
</g>

<g transform="matrix( 2.815704345703125, 0, 0, 2.832611083984375, -1.85,27.6) ">
<use xlink:href="#IT_640x480_psd_Asset_5_ManagedWiFi_IT_Awareness_DM7_4_Learn_more_about_the__solutions_that_are_available__0_Layer0_0_MEMBER_18_FILL"/>
</g>

<g transform="matrix( 2.815704345703125, 0, 0, 2.832611083984375, -1.85,27.6) ">
<use xlink:href="#IT_640x480_psd_Asset_5_ManagedWiFi_IT_Awareness_DM7_4_Learn_more_about_the__solutions_that_are_available__0_Layer0_0_MEMBER_19_FILL"/>
</g>

<g transform="matrix( 2.815704345703125, 0, 0, 2.832611083984375, -1.85,27.6) ">
<use xlink:href="#IT_640x480_psd_Asset_5_ManagedWiFi_IT_Awareness_DM7_4_Learn_more_about_the__solutions_that_are_available__0_Layer0_0_MEMBER_20_FILL"/>
</g>

<g transform="matrix( 2.815704345703125, 0, 0, 2.832611083984375, -1.85,27.6) ">
<use xlink:href="#IT_640x480_psd_Asset_5_ManagedWiFi_IT_Awareness_DM7_4_Learn_more_about_the__solutions_that_are_available__0_Layer0_0_MEMBER_21_FILL"/>
</g>

<g transform="matrix( 2.815704345703125, 0, 0, 2.832611083984375, -1.85,27.6) ">
<use xlink:href="#IT_640x480_psd_Asset_5_ManagedWiFi_IT_Awareness_DM7_4_Learn_more_about_the__solutions_that_are_available__0_Layer0_0_MEMBER_22_FILL"/>
</g>

<g transform="matrix( 2.815704345703125, 0, 0, 2.832611083984375, -1.85,27.6) ">
<use xlink:href="#IT_640x480_psd_Asset_5_ManagedWiFi_IT_Awareness_DM7_4_Learn_more_about_the__solutions_that_are_available__0_Layer0_0_MEMBER_23_FILL"/>
</g>

<g transform="matrix( 2.815704345703125, 0, 0, 2.832611083984375, -1.85,27.6) ">
<use xlink:href="#IT_640x480_psd_Asset_5_ManagedWiFi_IT_Awareness_DM7_4_Learn_more_about_the__solutions_that_are_available__0_Layer0_0_MEMBER_24_FILL"/>
</g>

<g transform="matrix( 2.815704345703125, 0, 0, 2.832611083984375, -1.85,27.6) ">
<use xlink:href="#IT_640x480_psd_Asset_5_ManagedWiFi_IT_Awareness_DM7_4_Learn_more_about_the__solutions_that_are_available__0_Layer0_0_MEMBER_25_FILL"/>
</g>

<g transform="matrix( 2.815704345703125, 0, 0, 2.832611083984375, -1.85,27.6) ">
<use xlink:href="#IT_640x480_psd_Asset_5_ManagedWiFi_IT_Awareness_DM7_4_Learn_more_about_the__solutions_that_are_available__0_Layer0_0_MEMBER_26_FILL"/>
</g>

<g transform="matrix( 2.815704345703125, 0, 0, 2.832611083984375, -1.85,27.6) ">
<use xlink:href="#IT_640x480_psd_Asset_5_ManagedWiFi_IT_Awareness_DM7_4_Learn_more_about_the__solutions_that_are_available__0_Layer0_0_MEMBER_27_FILL"/>
</g>

<g transform="matrix( 2.815704345703125, 0, 0, 2.832611083984375, -1.85,27.6) ">
<use xlink:href="#IT_640x480_psd_Asset_5_ManagedWiFi_IT_Awareness_DM7_4_Learn_more_about_the__solutions_that_are_available__0_Layer0_0_MEMBER_28_FILL"/>
</g>

<g transform="matrix( 2.815704345703125, 0, 0, 2.832611083984375, -1.85,27.6) ">
<use xlink:href="#IT_640x480_psd_Asset_5_ManagedWiFi_IT_Awareness_DM7_4_Learn_more_about_the__solutions_that_are_available__0_Layer0_0_MEMBER_29_FILL"/>
</g>

<g transform="matrix( 2.815704345703125, 0, 0, 2.832611083984375, -1.85,27.6) ">
<use xlink:href="#IT_640x480_psd_Asset_5_ManagedWiFi_IT_Awareness_DM7_4_Learn_more_about_the__solutions_that_are_available__0_Layer0_0_MEMBER_30_FILL"/>
</g>

<g transform="matrix( 2.815704345703125, 0, 0, 2.832611083984375, -1.85,27.6) ">
<use xlink:href="#IT_640x480_psd_Asset_5_ManagedWiFi_IT_Awareness_DM7_4_Learn_more_about_the__solutions_that_are_available__0_Layer0_0_MEMBER_31_FILL"/>
</g>

<g transform="matrix( 2.815704345703125, 0, 0, 2.832611083984375, -1.85,27.6) ">
<use xlink:href="#IT_640x480_psd_Asset_5_ManagedWiFi_IT_Awareness_DM7_4_Learn_more_about_the__solutions_that_are_available__0_Layer0_0_MEMBER_32_FILL"/>
</g>

<g transform="matrix( 2.815704345703125, 0, 0, 2.832611083984375, -1.85,27.6) ">
<use xlink:href="#IT_640x480_psd_Asset_5_ManagedWiFi_IT_Awareness_DM7_4_Learn_more_about_the__solutions_that_are_available__0_Layer0_0_MEMBER_33_FILL"/>
</g>

<g transform="matrix( 2.815704345703125, 0, 0, 2.832611083984375, -1.85,27.6) ">
<use xlink:href="#IT_640x480_psd_Asset_5_ManagedWiFi_IT_Awareness_DM7_4_Learn_more_about_the__solutions_that_are_available__0_Layer0_0_MEMBER_34_FILL"/>
</g>

<g transform="matrix( 2.815704345703125, 0, 0, 2.832611083984375, -1.85,27.6) ">
<use xlink:href="#IT_640x480_psd_Asset_5_ManagedWiFi_IT_Awareness_DM7_4_Learn_more_about_the__solutions_that_are_available__0_Layer0_0_MEMBER_35_FILL"/>
</g>

<g transform="matrix( 2.815704345703125, 0, 0, 2.832611083984375, -1.85,27.6) ">
<use xlink:href="#IT_640x480_psd_Asset_5_ManagedWiFi_IT_Awareness_DM7_4_Learn_more_about_the__solutions_that_are_available__0_Layer0_0_MEMBER_36_FILL"/>
</g>

<g transform="matrix( 2.815704345703125, 0, 0, 2.832611083984375, -1.85,27.6) ">
<use xlink:href="#IT_640x480_psd_Asset_5_ManagedWiFi_IT_Awareness_DM7_4_Learn_more_about_the__solutions_that_are_available__0_Layer0_0_MEMBER_37_FILL"/>
</g>

<g transform="matrix( 2.815704345703125, 0, 0, 2.832611083984375, -1.85,27.6) ">
<use xlink:href="#IT_640x480_psd_Asset_5_ManagedWiFi_IT_Awareness_DM7_4_Learn_more_about_the__solutions_that_are_available__0_Layer0_0_MEMBER_38_FILL"/>
</g>

<g transform="matrix( 2.815704345703125, 0, 0, 2.832611083984375, -1.85,27.6) ">
<use xlink:href="#IT_640x480_psd_Asset_5_ManagedWiFi_IT_Awareness_DM7_4_Learn_more_about_the__solutions_that_are_available__0_Layer0_0_MEMBER_39_FILL"/>
</g>

<g transform="matrix( 2.815704345703125, 0, 0, 2.832611083984375, -1.85,27.6) ">
<use xlink:href="#IT_640x480_psd_Asset_5_ManagedWiFi_IT_Awareness_DM7_4_Learn_more_about_the__solutions_that_are_available__0_Layer0_0_MEMBER_40_FILL"/>
</g>

<g transform="matrix( 2.815704345703125, 0, 0, 2.832611083984375, -1.85,27.6) ">
<use xlink:href="#IT_640x480_psd_Asset_5_ManagedWiFi_IT_Awareness_DM7_4_Learn_more_about_the__solutions_that_are_available__0_Layer0_0_MEMBER_41_FILL"/>
</g>

<g transform="matrix( 2.815704345703125, 0, 0, 2.832611083984375, -1.85,27.6) ">
<use xlink:href="#IT_640x480_psd_Asset_5_ManagedWiFi_IT_Awareness_DM7_4_Learn_more_about_the__solutions_that_are_available__0_Layer0_0_MEMBER_42_FILL"/>
</g>
</g>

<g transform="matrix( 1, 0, 0, 1, 86,182) ">
<g transform="matrix( 1, 0, 0, 1, 88,10) ">
<g transform="matrix( 1.1267547607421875, 0, 0, 1.1267547607421875, 0.9,19.75) ">
<use xlink:href="#IT_640x480_psd_Asset_5_ManagedWiFi_IT_Awareness_DM7_4_CTA_copy_9_Watch_the_IDC_point_of__view_on_being_prepared__0_Layer0_0_MEMBER_0_FILL"/>
</g>

<g transform="matrix( 1.1267547607421875, 0, 0, 1.1267547607421875, 0.9,19.75) ">
<use xlink:href="#IT_640x480_psd_Asset_5_ManagedWiFi_IT_Awareness_DM7_4_CTA_copy_9_Watch_the_IDC_point_of__view_on_being_prepared__0_Layer0_0_MEMBER_1_FILL"/>
</g>

<g transform="matrix( 1.1267547607421875, 0, 0, 1.1267547607421875, 0.9,19.75) ">
<use xlink:href="#IT_640x480_psd_Asset_5_ManagedWiFi_IT_Awareness_DM7_4_CTA_copy_9_Watch_the_IDC_point_of__view_on_being_prepared__0_Layer0_0_MEMBER_2_FILL"/>
</g>

<g transform="matrix( 1.1267547607421875, 0, 0, 1.1267547607421875, 0.9,19.75) ">
<use xlink:href="#IT_640x480_psd_Asset_5_ManagedWiFi_IT_Awareness_DM7_4_CTA_copy_9_Watch_the_IDC_point_of__view_on_being_prepared__0_Layer0_0_MEMBER_3_FILL"/>
</g>

<g transform="matrix( 1.1267547607421875, 0, 0, 1.1267547607421875, 0.9,19.75) ">
<use xlink:href="#IT_640x480_psd_Asset_5_ManagedWiFi_IT_Awareness_DM7_4_CTA_copy_9_Watch_the_IDC_point_of__view_on_being_prepared__0_Layer0_0_MEMBER_4_FILL"/>
</g>

<g transform="matrix( 1.1267547607421875, 0, 0, 1.1267547607421875, 0.9,19.75) ">
<use xlink:href="#IT_640x480_psd_Asset_5_ManagedWiFi_IT_Awareness_DM7_4_CTA_copy_9_Watch_the_IDC_point_of__view_on_being_prepared__0_Layer0_0_MEMBER_5_FILL"/>
</g>

<g transform="matrix( 1.1267547607421875, 0, 0, 1.1267547607421875, 0.9,19.75) ">
<use xlink:href="#IT_640x480_psd_Asset_5_ManagedWiFi_IT_Awareness_DM7_4_CTA_copy_9_Watch_the_IDC_point_of__view_on_being_prepared__0_Layer0_0_MEMBER_6_FILL"/>
</g>

<g transform="matrix( 1.1267547607421875, 0, 0, 1.1267547607421875, 0.9,19.75) ">
<use xlink:href="#IT_640x480_psd_Asset_5_ManagedWiFi_IT_Awareness_DM7_4_CTA_copy_9_Watch_the_IDC_point_of__view_on_being_prepared__0_Layer0_0_MEMBER_7_FILL"/>
</g>

<g transform="matrix( 1.1267547607421875, 0, 0, 1.1267547607421875, 0.9,19.75) ">
<use xlink:href="#IT_640x480_psd_Asset_5_ManagedWiFi_IT_Awareness_DM7_4_CTA_copy_9_Watch_the_IDC_point_of__view_on_being_prepared__0_Layer0_0_MEMBER_8_FILL"/>
</g>

<g transform="matrix( 1.1267547607421875, 0, 0, 1.1267547607421875, 0.9,19.75) ">
<use xlink:href="#IT_640x480_psd_Asset_5_ManagedWiFi_IT_Awareness_DM7_4_CTA_copy_9_Watch_the_IDC_point_of__view_on_being_prepared__0_Layer0_0_MEMBER_9_FILL"/>
</g>

<g transform="matrix( 1.1267547607421875, 0, 0, 1.1267547607421875, 0.9,19.75) ">
<use xlink:href="#IT_640x480_psd_Asset_5_ManagedWiFi_IT_Awareness_DM7_4_CTA_copy_9_Watch_the_IDC_point_of__view_on_being_prepared__0_Layer0_0_MEMBER_10_FILL"/>
</g>

<g transform="matrix( 1.1267547607421875, 0, 0, 1.1267547607421875, 0.9,19.75) ">
<use xlink:href="#IT_640x480_psd_Asset_5_ManagedWiFi_IT_Awareness_DM7_4_CTA_copy_9_Watch_the_IDC_point_of__view_on_being_prepared__0_Layer0_0_MEMBER_11_FILL"/>
</g>

<g transform="matrix( 1.1267547607421875, 0, 0, 1.1267547607421875, 0.9,19.75) ">
<use xlink:href="#IT_640x480_psd_Asset_5_ManagedWiFi_IT_Awareness_DM7_4_CTA_copy_9_Watch_the_IDC_point_of__view_on_being_prepared__0_Layer0_0_MEMBER_12_FILL"/>
</g>

<g transform="matrix( 1.1267547607421875, 0, 0, 1.1267547607421875, 0.9,19.75) ">
<use xlink:href="#IT_640x480_psd_Asset_5_ManagedWiFi_IT_Awareness_DM7_4_CTA_copy_9_Watch_the_IDC_point_of__view_on_being_prepared__0_Layer0_0_MEMBER_13_FILL"/>
</g>

<g transform="matrix( 1.1267547607421875, 0, 0, 1.1267547607421875, 0.9,19.75) ">
<use xlink:href="#IT_640x480_psd_Asset_5_ManagedWiFi_IT_Awareness_DM7_4_CTA_copy_9_Watch_the_IDC_point_of__view_on_being_prepared__0_Layer0_0_MEMBER_14_FILL"/>
</g>

<g transform="matrix( 1.1267547607421875, 0, 0, 1.1267547607421875, 0.9,19.75) ">
<use xlink:href="#IT_640x480_psd_Asset_5_ManagedWiFi_IT_Awareness_DM7_4_CTA_copy_9_Watch_the_IDC_point_of__view_on_being_prepared__0_Layer0_0_MEMBER_15_FILL"/>
</g>

<g transform="matrix( 1.1267547607421875, 0, 0, 1.1267547607421875, 0.9,19.75) ">
<use xlink:href="#IT_640x480_psd_Asset_5_ManagedWiFi_IT_Awareness_DM7_4_CTA_copy_9_Watch_the_IDC_point_of__view_on_being_prepared__0_Layer0_0_MEMBER_16_FILL"/>
</g>

<g transform="matrix( 1.1267547607421875, 0, 0, 1.1267547607421875, 0.9,19.75) ">
<use xlink:href="#IT_640x480_psd_Asset_5_ManagedWiFi_IT_Awareness_DM7_4_CTA_copy_9_Watch_the_IDC_point_of__view_on_being_prepared__0_Layer0_0_MEMBER_17_FILL"/>
</g>

<g transform="matrix( 1.1267547607421875, 0, 0, 1.1267547607421875, 0.9,19.75) ">
<use xlink:href="#IT_640x480_psd_Asset_5_ManagedWiFi_IT_Awareness_DM7_4_CTA_copy_9_Watch_the_IDC_point_of__view_on_being_prepared__0_Layer0_0_MEMBER_18_FILL"/>
</g>

<g transform="matrix( 1.1267547607421875, 0, 0, 1.1267547607421875, 0.9,19.75) ">
<use xlink:href="#IT_640x480_psd_Asset_5_ManagedWiFi_IT_Awareness_DM7_4_CTA_copy_9_Watch_the_IDC_point_of__view_on_being_prepared__0_Layer0_0_MEMBER_19_FILL"/>
</g>

<g transform="matrix( 1.1267547607421875, 0, 0, 1.1267547607421875, 0.9,19.75) ">
<use xlink:href="#IT_640x480_psd_Asset_5_ManagedWiFi_IT_Awareness_DM7_4_CTA_copy_9_Watch_the_IDC_point_of__view_on_being_prepared__0_Layer0_0_MEMBER_20_FILL"/>
</g>

<g transform="matrix( 1.1267547607421875, 0, 0, 1.1267547607421875, 0.9,19.75) ">
<use xlink:href="#IT_640x480_psd_Asset_5_ManagedWiFi_IT_Awareness_DM7_4_CTA_copy_9_Watch_the_IDC_point_of__view_on_being_prepared__0_Layer0_0_MEMBER_21_FILL"/>
</g>

<g transform="matrix( 1.1267547607421875, 0, 0, 1.1267547607421875, 0.9,19.75) ">
<use xlink:href="#IT_640x480_psd_Asset_5_ManagedWiFi_IT_Awareness_DM7_4_CTA_copy_9_Watch_the_IDC_point_of__view_on_being_prepared__0_Layer0_0_MEMBER_22_FILL"/>
</g>

<g transform="matrix( 1.1267547607421875, 0, 0, 1.1267547607421875, 0.9,19.75) ">
<use xlink:href="#IT_640x480_psd_Asset_5_ManagedWiFi_IT_Awareness_DM7_4_CTA_copy_9_Watch_the_IDC_point_of__view_on_being_prepared__0_Layer0_0_MEMBER_23_FILL"/>
</g>

<g transform="matrix( 1.1267547607421875, 0, 0, 1.1267547607421875, 0.9,19.75) ">
<use xlink:href="#IT_640x480_psd_Asset_5_ManagedWiFi_IT_Awareness_DM7_4_CTA_copy_9_Watch_the_IDC_point_of__view_on_being_prepared__0_Layer0_0_MEMBER_24_FILL"/>
</g>

<g transform="matrix( 1.1267547607421875, 0, 0, 1.1267547607421875, 0.9,19.75) ">
<use xlink:href="#IT_640x480_psd_Asset_5_ManagedWiFi_IT_Awareness_DM7_4_CTA_copy_9_Watch_the_IDC_point_of__view_on_being_prepared__0_Layer0_0_MEMBER_25_FILL"/>
</g>

<g transform="matrix( 1.1267547607421875, 0, 0, 1.1267547607421875, 0.9,19.75) ">
<use xlink:href="#IT_640x480_psd_Asset_5_ManagedWiFi_IT_Awareness_DM7_4_CTA_copy_9_Watch_the_IDC_point_of__view_on_being_prepared__0_Layer0_0_MEMBER_26_FILL"/>
</g>

<g transform="matrix( 1.1267547607421875, 0, 0, 1.1267547607421875, 0.9,19.75) ">
<use xlink:href="#IT_640x480_psd_Asset_5_ManagedWiFi_IT_Awareness_DM7_4_CTA_copy_9_Watch_the_IDC_point_of__view_on_being_prepared__0_Layer0_0_MEMBER_27_FILL"/>
</g>

<g transform="matrix( 1.1267547607421875, 0, 0, 1.1267547607421875, 0.9,19.75) ">
<use xlink:href="#IT_640x480_psd_Asset_5_ManagedWiFi_IT_Awareness_DM7_4_CTA_copy_9_Watch_the_IDC_point_of__view_on_being_prepared__0_Layer0_0_MEMBER_28_FILL"/>
</g>

<g transform="matrix( 1.1267547607421875, 0, 0, 1.1267547607421875, 0.9,19.75) ">
<use xlink:href="#IT_640x480_psd_Asset_5_ManagedWiFi_IT_Awareness_DM7_4_CTA_copy_9_Watch_the_IDC_point_of__view_on_being_prepared__0_Layer0_0_MEMBER_29_FILL"/>
</g>

<g transform="matrix( 1.1267547607421875, 0, 0, 1.1267547607421875, 0.9,19.75) ">
<use xlink:href="#IT_640x480_psd_Asset_5_ManagedWiFi_IT_Awareness_DM7_4_CTA_copy_9_Watch_the_IDC_point_of__view_on_being_prepared__0_Layer0_0_MEMBER_30_FILL"/>
</g>

<g transform="matrix( 1.1267547607421875, 0, 0, 1.1267547607421875, 0.9,19.75) ">
<use xlink:href="#IT_640x480_psd_Asset_5_ManagedWiFi_IT_Awareness_DM7_4_CTA_copy_9_Watch_the_IDC_point_of__view_on_being_prepared__0_Layer0_0_MEMBER_31_FILL"/>
</g>

<g transform="matrix( 1.1267547607421875, 0, 0, 1.1267547607421875, 0.9,19.75) ">
<use xlink:href="#IT_640x480_psd_Asset_5_ManagedWiFi_IT_Awareness_DM7_4_CTA_copy_9_Watch_the_IDC_point_of__view_on_being_prepared__0_Layer0_0_MEMBER_32_FILL"/>
</g>

<g transform="matrix( 1.1267547607421875, 0, 0, 1.1267547607421875, 0.9,19.75) ">
<use xlink:href="#IT_640x480_psd_Asset_5_ManagedWiFi_IT_Awareness_DM7_4_CTA_copy_9_Watch_the_IDC_point_of__view_on_being_prepared__0_Layer0_0_MEMBER_33_FILL"/>
</g>

<g transform="matrix( 1.1267547607421875, 0, 0, 1.1267547607421875, 0.9,19.75) ">
<use xlink:href="#IT_640x480_psd_Asset_5_ManagedWiFi_IT_Awareness_DM7_4_CTA_copy_9_Watch_the_IDC_point_of__view_on_being_prepared__0_Layer0_0_MEMBER_34_FILL"/>
</g>

<g transform="matrix( 1.1267547607421875, 0, 0, 1.1267547607421875, 0.9,19.75) ">
<use xlink:href="#IT_640x480_psd_Asset_5_ManagedWiFi_IT_Awareness_DM7_4_CTA_copy_9_Watch_the_IDC_point_of__view_on_being_prepared__0_Layer0_0_MEMBER_35_FILL"/>
</g>

<g transform="matrix( 1.1267547607421875, 0, 0, 1.1267547607421875, 0.9,19.75) ">
<use xlink:href="#IT_640x480_psd_Asset_5_ManagedWiFi_IT_Awareness_DM7_4_CTA_copy_9_Watch_the_IDC_point_of__view_on_being_prepared__0_Layer0_0_MEMBER_36_FILL"/>
</g>

<g transform="matrix( 1.1267547607421875, 0, 0, 1.1267547607421875, 0.9,19.75) ">
<use xlink:href="#IT_640x480_psd_Asset_5_ManagedWiFi_IT_Awareness_DM7_4_CTA_copy_9_Watch_the_IDC_point_of__view_on_being_prepared__0_Layer0_0_MEMBER_37_FILL"/>
</g>
</g>
</g>

<g transform="matrix( 1, 0, 0, 1, 57,356) ">
<g transform="matrix( 1, 0, 0, 1, 0,0) ">
<g transform="matrix( 1.00018310546875, 0, 0, 1.00018310546875, -1.75,19.8) ">
<use xlink:href="#IT_640x480_psd_Asset_5_ManagedWiFi_IT_Awareness_DM7_4_footer_copy_4_Do_more_with_Wi_Fi_as_a_Service__0_Layer0_0_MEMBER_0_FILL"/>
</g>

<g transform="matrix( 1.00018310546875, 0, 0, 1.00018310546875, -1.75,19.8) ">
<use xlink:href="#IT_640x480_psd_Asset_5_ManagedWiFi_IT_Awareness_DM7_4_footer_copy_4_Do_more_with_Wi_Fi_as_a_Service__0_Layer0_0_MEMBER_1_FILL"/>
</g>

<g transform="matrix( 1.00018310546875, 0, 0, 1.00018310546875, -1.75,19.8) ">
<use xlink:href="#IT_640x480_psd_Asset_5_ManagedWiFi_IT_Awareness_DM7_4_footer_copy_4_Do_more_with_Wi_Fi_as_a_Service__0_Layer0_0_MEMBER_2_FILL"/>
</g>

<g transform="matrix( 1.00018310546875, 0, 0, 1.00018310546875, -1.75,19.8) ">
<use xlink:href="#IT_640x480_psd_Asset_5_ManagedWiFi_IT_Awareness_DM7_4_footer_copy_4_Do_more_with_Wi_Fi_as_a_Service__0_Layer0_0_MEMBER_3_FILL"/>
</g>

<g transform="matrix( 1.00018310546875, 0, 0, 1.00018310546875, -1.75,19.8) ">
<use xlink:href="#IT_640x480_psd_Asset_5_ManagedWiFi_IT_Awareness_DM7_4_footer_copy_4_Do_more_with_Wi_Fi_as_a_Service__0_Layer0_0_MEMBER_4_FILL"/>
</g>

<g transform="matrix( 1.00018310546875, 0, 0, 1.00018310546875, -1.75,19.8) ">
<use xlink:href="#IT_640x480_psd_Asset_5_ManagedWiFi_IT_Awareness_DM7_4_footer_copy_4_Do_more_with_Wi_Fi_as_a_Service__0_Layer0_0_MEMBER_5_FILL"/>
</g>

<g transform="matrix( 1.00018310546875, 0, 0, 1.00018310546875, -1.75,19.8) ">
<use xlink:href="#IT_640x480_psd_Asset_5_ManagedWiFi_IT_Awareness_DM7_4_footer_copy_4_Do_more_with_Wi_Fi_as_a_Service__0_Layer0_0_MEMBER_6_FILL"/>
</g>

<g transform="matrix( 1.00018310546875, 0, 0, 1.00018310546875, -1.75,19.8) ">
<use xlink:href="#IT_640x480_psd_Asset_5_ManagedWiFi_IT_Awareness_DM7_4_footer_copy_4_Do_more_with_Wi_Fi_as_a_Service__0_Layer0_0_MEMBER_7_FILL"/>
</g>

<g transform="matrix( 1.00018310546875, 0, 0, 1.00018310546875, -1.75,19.8) ">
<use xlink:href="#IT_640x480_psd_Asset_5_ManagedWiFi_IT_Awareness_DM7_4_footer_copy_4_Do_more_with_Wi_Fi_as_a_Service__0_Layer0_0_MEMBER_8_FILL"/>
</g>

<g transform="matrix( 1.00018310546875, 0, 0, 1.00018310546875, -1.75,19.8) ">
<use xlink:href="#IT_640x480_psd_Asset_5_ManagedWiFi_IT_Awareness_DM7_4_footer_copy_4_Do_more_with_Wi_Fi_as_a_Service__0_Layer0_0_MEMBER_9_FILL"/>
</g>

<g transform="matrix( 1.00018310546875, 0, 0, 1.00018310546875, -1.75,19.8) ">
<use xlink:href="#IT_640x480_psd_Asset_5_ManagedWiFi_IT_Awareness_DM7_4_footer_copy_4_Do_more_with_Wi_Fi_as_a_Service__0_Layer0_0_MEMBER_10_FILL"/>
</g>

<g transform="matrix( 1.00018310546875, 0, 0, 1.00018310546875, -1.75,19.8) ">
<use xlink:href="#IT_640x480_psd_Asset_5_ManagedWiFi_IT_Awareness_DM7_4_footer_copy_4_Do_more_with_Wi_Fi_as_a_Service__0_Layer0_0_MEMBER_11_FILL"/>
</g>

<g transform="matrix( 1.00018310546875, 0, 0, 1.00018310546875, -1.75,19.8) ">
<use xlink:href="#IT_640x480_psd_Asset_5_ManagedWiFi_IT_Awareness_DM7_4_footer_copy_4_Do_more_with_Wi_Fi_as_a_Service__0_Layer0_0_MEMBER_12_FILL"/>
</g>

<g transform="matrix( 1.00018310546875, 0, 0, 1.00018310546875, -1.75,19.8) ">
<use xlink:href="#IT_640x480_psd_Asset_5_ManagedWiFi_IT_Awareness_DM7_4_footer_copy_4_Do_more_with_Wi_Fi_as_a_Service__0_Layer0_0_MEMBER_13_FILL"/>
</g>

<g transform="matrix( 1.00018310546875, 0, 0, 1.00018310546875, -1.75,19.8) ">
<use xlink:href="#IT_640x480_psd_Asset_5_ManagedWiFi_IT_Awareness_DM7_4_footer_copy_4_Do_more_with_Wi_Fi_as_a_Service__0_Layer0_0_MEMBER_14_FILL"/>
</g>

<g transform="matrix( 1.00018310546875, 0, 0, 1.00018310546875, -1.75,19.8) ">
<use xlink:href="#IT_640x480_psd_Asset_5_ManagedWiFi_IT_Awareness_DM7_4_footer_copy_4_Do_more_with_Wi_Fi_as_a_Service__0_Layer0_0_MEMBER_15_FILL"/>
</g>

<g transform="matrix( 1.00018310546875, 0, 0, 1.00018310546875, -1.75,19.8) ">
<use xlink:href="#IT_640x480_psd_Asset_5_ManagedWiFi_IT_Awareness_DM7_4_footer_copy_4_Do_more_with_Wi_Fi_as_a_Service__0_Layer0_0_MEMBER_16_FILL"/>
</g>

<g transform="matrix( 1.00018310546875, 0, 0, 1.00018310546875, -1.75,19.8) ">
<use xlink:href="#IT_640x480_psd_Asset_5_ManagedWiFi_IT_Awareness_DM7_4_footer_copy_4_Do_more_with_Wi_Fi_as_a_Service__0_Layer0_0_MEMBER_17_FILL"/>
</g>

<g transform="matrix( 1.00018310546875, 0, 0, 1.00018310546875, -1.75,19.8) ">
<use xlink:href="#IT_640x480_psd_Asset_5_ManagedWiFi_IT_Awareness_DM7_4_footer_copy_4_Do_more_with_Wi_Fi_as_a_Service__0_Layer0_0_MEMBER_18_FILL"/>
</g>

<g transform="matrix( 1.00018310546875, 0, 0, 1.00018310546875, -1.75,19.8) ">
<use xlink:href="#IT_640x480_psd_Asset_5_ManagedWiFi_IT_Awareness_DM7_4_footer_copy_4_Do_more_with_Wi_Fi_as_a_Service__0_Layer0_0_MEMBER_19_FILL"/>
</g>

<g transform="matrix( 1.00018310546875, 0, 0, 1.00018310546875, -1.75,19.8) ">
<use xlink:href="#IT_640x480_psd_Asset_5_ManagedWiFi_IT_Awareness_DM7_4_footer_copy_4_Do_more_with_Wi_Fi_as_a_Service__0_Layer0_0_MEMBER_20_FILL"/>
</g>

<g transform="matrix( 1.00018310546875, 0, 0, 1.00018310546875, -1.75,19.8) ">
<use xlink:href="#IT_640x480_psd_Asset_5_ManagedWiFi_IT_Awareness_DM7_4_footer_copy_4_Do_more_with_Wi_Fi_as_a_Service__0_Layer0_0_MEMBER_21_FILL"/>
</g>

<g transform="matrix( 1.00018310546875, 0, 0, 1.00018310546875, -1.75,19.8) ">
<use xlink:href="#IT_640x480_psd_Asset_5_ManagedWiFi_IT_Awareness_DM7_4_footer_copy_4_Do_more_with_Wi_Fi_as_a_Service__0_Layer0_0_MEMBER_22_FILL"/>
</g>

<g transform="matrix( 1.00018310546875, 0, 0, 1.00018310546875, -1.75,19.8) ">
<use xlink:href="#IT_640x480_psd_Asset_5_ManagedWiFi_IT_Awareness_DM7_4_footer_copy_4_Do_more_with_Wi_Fi_as_a_Service__0_Layer0_0_MEMBER_23_FILL"/>
</g>

<g transform="matrix( 1.00018310546875, 0, 0, 1.00018310546875, -1.75,19.8) ">
<use xlink:href="#IT_640x480_psd_Asset_5_ManagedWiFi_IT_Awareness_DM7_4_footer_copy_4_Do_more_with_Wi_Fi_as_a_Service__0_Layer0_0_MEMBER_24_FILL"/>
</g>

<g transform="matrix( 1.00018310546875, 0, 0, 1.00018310546875, -1.75,19.8) ">
<use xlink:href="#IT_640x480_psd_Asset_5_ManagedWiFi_IT_Awareness_DM7_4_footer_copy_4_Do_more_with_Wi_Fi_as_a_Service__0_Layer0_0_MEMBER_25_FILL"/>
</g>
</g>
</g>
</g>
</g>
</svg>
