
<svg xmlns="http://www.w3.org/2000/svg" version="1.1" xmlns:xlink="http://www.w3.org/1999/xlink" preserveAspectRatio="none" x="0px" y="0px" width="300px" height="250px" viewBox="0 0 300 250">
<defs>
<g id="IT_300x250_psd_Asset_5_ManagedWiFi_IT_Awareness_DM7_2_Rogers_has_the_only__fully_managed_____0_Layer0_0_MEMBER_0_FILL">
<path fill="#D82C26" stroke="none" d="
M 3.9 -3.85
Q 3.9 -4.6 3.4 -4.95 2.95 -5.25 2.15 -5.25
L 0.7 -5.25 0.7 0 1.15 0 1.15 -2.3 2.25 -2.3 3.65 0 4.15 0 2.7 -2.4
Q 3.1 -2.45 3.55 -2.9 3.9 -3.25 3.9 -3.85
M 3.1 -4.65
Q 3.45 -4.45 3.45 -3.85 3.45 -3.3 3.1 -3 2.75 -2.7 2.15 -2.7
L 1.15 -2.7 1.15 -4.9 2.1 -4.9
Q 2.7 -4.9 3.1 -4.65 Z"/>
</g>

<g id="IT_300x250_psd_Asset_5_ManagedWiFi_IT_Awareness_DM7_2_Rogers_has_the_only__fully_managed_____0_Layer0_0_MEMBER_1_FILL">
<path fill="#D82C26" stroke="none" d="
M 4.9 -2.7
Q 4.65 -2.3 4.65 -1.75 4.65 -1.1 4.9 -0.8 5.1 -0.35 5.55 -0.15 5.95 0.1 6.5 0.1 6.95 0.1 7.45 -0.15 7.9 -0.45 8.1 -0.8 8.35 -1.2 8.35 -1.75 8.35 -2.2 8.1 -2.7 7.85 -3.1 7.45 -3.35 6.95 -3.6 6.5 -3.6 5.95 -3.6 5.55 -3.35 5.2 -3.15 4.9 -2.7
M 7.25 -0.45
Q 6.85 -0.25 6.5 -0.25 6.15 -0.25 5.75 -0.45 5.4 -0.7 5.25 -1
L 5.1 -1.75 5.25 -2.5
Q 5.4 -2.85 5.75 -3 6 -3.2 6.5 -3.2 6.9 -3.2 7.25 -3 7.45 -2.9 7.75 -2.5
L 7.9 -1.75 7.75 -1 7.25 -0.45 Z"/>
</g>

<g id="IT_300x250_psd_Asset_5_ManagedWiFi_IT_Awareness_DM7_2_Rogers_has_the_only__fully_managed_____0_Layer0_0_MEMBER_2_FILL">
<path fill="#D82C26" stroke="none" d="
M 9.25 -0.8
Q 9.45 -0.45 9.85 -0.15 10.25 0.05 10.8 0.05 11.25 0.05 11.6 -0.15 12 -0.4 12.2 -0.8
L 12.2 -0.05
Q 12.2 0.7 11.85 1.05 11.55 1.45 10.75 1.45
L 10 1.35 9.35 1 9.25 1.4
Q 9.55 1.6 9.95 1.7 10.25 1.8 10.8 1.8 11.75 1.8 12.2 1.3 12.65 0.8 12.65 -0.05
L 12.65 -3.45 12.25 -3.45 12.2 -2.7
Q 12 -3.1 11.6 -3.35 11.25 -3.55 10.8 -3.55 10.25 -3.55 9.9 -3.35 9.45 -3.05 9.25 -2.65 9.05 -2.3 9.05 -1.75 9.05 -1.2 9.25 -0.8
M 9.65 -2.5
Q 9.85 -2.85 10.1 -3 10.45 -3.2 10.85 -3.2 11.3 -3.2 11.55 -3 11.75 -2.9 12.05 -2.5
L 12.2 -1.75 12.05 -1
Q 11.75 -0.6 11.55 -0.5 11.3 -0.3 10.85 -0.3 10.45 -0.3 10.1 -0.5 9.85 -0.65 9.65 -1
L 9.5 -1.75 9.65 -2.5 Z"/>
</g>

<g id="IT_300x250_psd_Asset_5_ManagedWiFi_IT_Awareness_DM7_2_Rogers_has_the_only__fully_managed_____0_Layer0_0_MEMBER_3_FILL">
<path fill="#D82C26" stroke="none" d="
M 13.8 -0.8
Q 14 -0.4 14.4 -0.15 14.9 0.1 15.35 0.1 16.2 0.1 16.7 -0.35
L 16.65 -0.7
Q 16.25 -0.45 16.1 -0.4
L 15.35 -0.25
Q 14.9 -0.25 14.65 -0.45 14.45 -0.55 14.15 -0.95 14 -1.3 14 -1.7
L 16.9 -1.7 16.95 -1.85
Q 16.95 -2.15 16.75 -2.75 16.55 -3.1 16.15 -3.35 15.75 -3.6 15.25 -3.6 14.8 -3.6 14.4 -3.35 14 -3.1 13.8 -2.7 13.55 -2.2 13.55 -1.75 13.55 -1.2 13.8 -0.8
M 14.15 -2.55
Q 14.3 -2.8 14.6 -3.05 15 -3.25 15.25 -3.25 15.85 -3.25 16.15 -2.9 16.5 -2.55 16.5 -2
L 14 -2
Q 14 -2.25 14.15 -2.55 Z"/>
</g>

<g id="IT_300x250_psd_Asset_5_ManagedWiFi_IT_Awareness_DM7_2_Rogers_has_the_only__fully_managed_____0_Layer0_0_MEMBER_4_FILL">
<path fill="#D82C26" stroke="none" d="
M 18.2 -3.45
L 17.8 -3.45 17.85 0 18.3 0 18.3 -1.75
Q 18.3 -2.45 18.55 -2.75 18.8 -3.2 19.25 -3.2
L 19.55 -3.15 19.65 -3.5 19.3 -3.55
Q 18.95 -3.55 18.7 -3.35 18.4 -3.1 18.25 -2.7
L 18.2 -3.45 Z"/>
</g>

<g id="IT_300x250_psd_Asset_5_ManagedWiFi_IT_Awareness_DM7_2_Rogers_has_the_only__fully_managed_____0_Layer0_0_MEMBER_5_FILL">
<path fill="#D82C26" stroke="none" d="
M 20.1 -0.65
L 20.05 -0.3 20.55 0 21.3 0.1 21.85 0
Q 22.2 -0.15 22.3 -0.35 22.45 -0.55 22.45 -0.9 22.45 -1.2 22.2 -1.55
L 20.7 -2.25
Q 20.5 -2.4 20.5 -2.65 20.5 -2.9 20.7 -3.1 20.95 -3.25 21.25 -3.25
L 21.75 -3.15 22.15 -2.9 22.35 -3.2 21.85 -3.45
Q 21.55 -3.6 21.25 -3.6 20.95 -3.6 20.7 -3.45 20.5 -3.4 20.25 -3.15 20.1 -2.9 20.1 -2.6 20.1 -2.25 20.35 -2 20.7 -1.75 21.1 -1.65 21.65 -1.45 21.8 -1.3 22.05 -1.15 22.05 -0.9 22.05 -0.65 21.8 -0.4 21.6 -0.25 21.25 -0.25 20.65 -0.25 20.1 -0.65 Z"/>
</g>

<g id="IT_300x250_psd_Asset_5_ManagedWiFi_IT_Awareness_DM7_2_Rogers_has_the_only__fully_managed_____0_Layer0_0_MEMBER_6_FILL">
<path fill="#D82C26" stroke="none" d="
M 25.2 -5.65
L 24.8 -5.6 24.8 0 25.2 0 25.2 -1.7
Q 25.2 -2.2 25.35 -2.5 25.45 -2.8 25.8 -3.05 26.05 -3.2 26.35 -3.2 26.9 -3.2 27.1 -2.85 27.3 -2.6 27.3 -2
L 27.3 0 27.75 0 27.75 -2.1
Q 27.75 -2.75 27.45 -3.15 27.2 -3.55 26.45 -3.55 26.05 -3.55 25.7 -3.35 25.3 -3.05 25.25 -2.75
L 25.2 -2.75 25.2 -5.65 Z"/>
</g>

<g id="IT_300x250_psd_Asset_5_ManagedWiFi_IT_Awareness_DM7_2_Rogers_has_the_only__fully_managed_____0_Layer0_0_MEMBER_7_FILL">
<path fill="#D82C26" stroke="none" d="
M 28.6 -0.95
Q 28.6 -0.5 28.95 -0.15 29.3 0.1 29.75 0.1 30.15 0.1 30.5 -0.1 30.85 -0.3 31 -0.65
L 31.05 -0.65 31.05 -0.3 31.1 0 31.5 0 31.45 -2.25
Q 31.45 -2.8 31.1 -3.25 30.65 -3.6 30.1 -3.6 29.8 -3.6 29.4 -3.45 29.15 -3.4 28.8 -3.15
L 28.95 -2.8 29.45 -3.1
Q 29.75 -3.25 30.05 -3.25 30.5 -3.25 30.75 -3 31.05 -2.75 31.05 -2.3
L 31.05 -2.1 30.6 -2.1
Q 28.6 -2.1 28.6 -0.95
M 29.25 -0.4
Q 29.05 -0.55 29.05 -0.95 29.05 -1.8 30.65 -1.8
L 31.05 -1.8 31.05 -1.45
Q 31.05 -1.15 30.9 -0.85
L 30.5 -0.4
Q 30.2 -0.25 29.8 -0.25 29.5 -0.25 29.25 -0.4 Z"/>
</g>

<g id="IT_300x250_psd_Asset_5_ManagedWiFi_IT_Awareness_DM7_2_Rogers_has_the_only__fully_managed_____0_Layer0_0_MEMBER_8_FILL">
<path fill="#D82C26" stroke="none" d="
M 33.5 -3.6
Q 33.2 -3.6 32.95 -3.45 32.75 -3.4 32.5 -3.15 32.35 -2.9 32.35 -2.6 32.35 -2.25 32.6 -2 32.95 -1.75 33.35 -1.65 33.9 -1.45 34.05 -1.3 34.3 -1.15 34.3 -0.9 34.3 -0.65 34.05 -0.4 33.85 -0.25 33.5 -0.25 32.9 -0.25 32.35 -0.65
L 32.3 -0.3 32.8 0 33.55 0.1 34.1 0
Q 34.45 -0.15 34.55 -0.35 34.7 -0.55 34.7 -0.9 34.7 -1.2 34.45 -1.55
L 32.95 -2.25
Q 32.75 -2.4 32.75 -2.65 32.75 -2.9 32.95 -3.1 33.2 -3.25 33.5 -3.25
L 34 -3.15 34.4 -2.9 34.6 -3.2 34.1 -3.45
Q 33.8 -3.6 33.5 -3.6 Z"/>
</g>

<g id="IT_300x250_psd_Asset_5_ManagedWiFi_IT_Awareness_DM7_2_Rogers_has_the_only__fully_managed_____0_Layer0_0_MEMBER_9_FILL">
<path fill="#D82C26" stroke="none" d="
M 38.4 -3.15
L 38.5 -3.45 37.5 -3.45 37.5 -4.45 37.05 -4.3 37.05 -3.45 36.5 -3.45 36.4 -3.15 37.1 -3.15 37.1 -0.85
Q 37.1 -0.35 37.3 -0.15 37.5 0.05 37.9 0.05
L 38.3 0 38.65 -0.1 38.55 -0.45 38 -0.3
Q 37.8 -0.3 37.65 -0.45 37.5 -0.6 37.5 -0.9
L 37.5 -3.15 38.4 -3.15 Z"/>
</g>

<g id="IT_300x250_psd_Asset_5_ManagedWiFi_IT_Awareness_DM7_2_Rogers_has_the_only__fully_managed_____0_Layer0_0_MEMBER_10_FILL">
<path fill="#D82C26" stroke="none" d="
M 39.75 -5.65
L 39.3 -5.6 39.3 0 39.75 0 39.75 -1.7
Q 39.75 -2.2 39.9 -2.5 40 -2.75 40.3 -3.05 40.6 -3.2 40.9 -3.2 41.45 -3.2 41.6 -2.85 41.85 -2.5 41.85 -2
L 41.85 0 42.25 0 42.25 -2.1
Q 42.25 -2.75 41.95 -3.15 41.7 -3.55 41 -3.55 40.5 -3.55 40.25 -3.35 39.9 -3.15 39.75 -2.75
L 39.75 -5.65 Z"/>
</g>

<g id="IT_300x250_psd_Asset_5_ManagedWiFi_IT_Awareness_DM7_2_Rogers_has_the_only__fully_managed_____0_Layer0_0_MEMBER_11_FILL">
<path fill="#D82C26" stroke="none" d="
M 44.9 -3.6
Q 44.5 -3.6 44 -3.35 43.6 -3.1 43.4 -2.7 43.15 -2.2 43.15 -1.75 43.15 -1.2 43.4 -0.8 43.6 -0.35 44.05 -0.15 44.45 0.1 44.95 0.1 45.75 0.1 46.35 -0.35
L 46.25 -0.7
Q 45.85 -0.45 45.7 -0.4 45.4 -0.25 45 -0.25 44.6 -0.25 44.25 -0.45 44 -0.6 43.8 -0.95 43.6 -1.3 43.6 -1.7
L 46.55 -1.7 46.55 -1.85
Q 46.55 -2.35 46.35 -2.75 46.2 -3.1 45.8 -3.35 45.4 -3.6 44.9 -3.6
M 43.75 -2.55
Q 43.9 -2.8 44.2 -3.05 44.6 -3.25 44.9 -3.25 45.45 -3.25 45.8 -2.9 46.05 -2.55 46.15 -2
L 43.6 -2
Q 43.6 -2.25 43.75 -2.55 Z"/>
</g>

<g id="IT_300x250_psd_Asset_5_ManagedWiFi_IT_Awareness_DM7_2_Rogers_has_the_only__fully_managed_____0_Layer0_0_MEMBER_12_FILL">
<path fill="#D82C26" stroke="none" d="
M 50.5 -3.6
Q 49.95 -3.6 49.55 -3.35 49.2 -3.15 48.9 -2.7 48.65 -2.3 48.65 -1.75 48.65 -1.1 48.9 -0.8 49.1 -0.35 49.55 -0.15 49.95 0.1 50.5 0.1 50.95 0.1 51.45 -0.15 51.9 -0.45 52.1 -0.8 52.35 -1.2 52.35 -1.75 52.35 -2.2 52.1 -2.7 51.85 -3.1 51.45 -3.35 50.95 -3.6 50.5 -3.6
M 49.25 -2.5
Q 49.45 -2.85 49.75 -3 50 -3.2 50.5 -3.2 50.9 -3.2 51.25 -3 51.45 -2.9 51.75 -2.5
L 51.9 -1.75 51.75 -1 51.25 -0.45
Q 50.75 -0.25 50.5 -0.25 50.15 -0.25 49.75 -0.45 49.45 -0.65 49.25 -1
L 49.1 -1.75 49.25 -2.5 Z"/>
</g>

<g id="IT_300x250_psd_Asset_5_ManagedWiFi_IT_Awareness_DM7_2_Rogers_has_the_only__fully_managed_____0_Layer0_0_MEMBER_13_FILL">
<path fill="#D82C26" stroke="none" d="
M 54.95 -3.55
Q 54.45 -3.55 54.2 -3.35 53.85 -3.15 53.7 -2.7
L 53.65 -3.45 53.25 -3.45 53.25 0 53.7 0 53.7 -1.75
Q 53.7 -2.25 53.85 -2.55 54.05 -2.9 54.3 -3.05 54.55 -3.2 54.85 -3.2 55.4 -3.2 55.6 -2.85 55.8 -2.6 55.8 -2
L 55.8 0 56.25 0 56.25 -2.1
Q 56.25 -2.75 55.95 -3.15 55.6 -3.55 54.95 -3.55 Z"/>
</g>

<g id="IT_300x250_psd_Asset_5_ManagedWiFi_IT_Awareness_DM7_2_Rogers_has_the_only__fully_managed_____0_Layer0_0_MEMBER_14_FILL">
<path fill="#D82C26" stroke="none" d="
M 57.35 -0.75
Q 57.35 -0.4 57.5 -0.2
L 57.95 0.1 58.15 -0.3
Q 57.9 -0.4 57.85 -0.5
L 57.8 -0.85 57.8 -5.65 57.35 -5.55 57.35 -0.75 Z"/>
</g>

<g id="IT_300x250_psd_Asset_5_ManagedWiFi_IT_Awareness_DM7_2_Rogers_has_the_only__fully_managed_____0_Layer0_0_MEMBER_15_FILL">
<path fill="#D82C26" stroke="none" d="
M 59 -3.45
L 58.5 -3.45 59.95 0.05 59.7 0.75
Q 59.55 1.1 59.35 1.25 59.15 1.4 58.7 1.4
L 58.85 1.8
Q 59.4 1.7 59.6 1.55 60 1.25 60.1 0.85
L 61.7 -3.45 61.25 -3.45 60.2 -0.45 59 -3.45 Z"/>
</g>

<g id="IT_300x250_psd_Asset_5_ManagedWiFi_IT_Awareness_DM7_2_Rogers_has_the_only__fully_managed_____0_Layer0_0_MEMBER_16_FILL">
<path fill="#D82C26" stroke="none" d="
M 1.3 4
Q 1.3 3.65 1.45 3.4 1.6 3.15 1.95 3.15
L 2.5 3.2 2.55 2.85 1.95 2.75
Q 1.45 2.75 1.15 3.1 0.85 3.4 0.85 4
L 0.85 5 0.2 5 0.15 5.35 0.85 5.35 0.85 8.45 1.3 8.45 1.3 5.35 2.1 5.35 2.2 5 1.3 5 1.3 4 Z"/>
</g>

<g id="IT_300x250_psd_Asset_5_ManagedWiFi_IT_Awareness_DM7_2_Rogers_has_the_only__fully_managed_____0_Layer0_0_MEMBER_17_FILL">
<path fill="#D82C26" stroke="none" d="
M 5.8 5
L 5.35 5 5.35 6.75
Q 5.35 7.2 5.2 7.55 5.1 7.75 4.8 8.05 4.5 8.2 4.2 8.2 3.65 8.2 3.45 7.85 3.25 7.45 3.25 7
L 3.25 5 2.8 5 2.8 7.1
Q 2.8 7.8 3.15 8.15 3.4 8.55 4.1 8.55 4.5 8.55 4.85 8.35 5.2 8.15 5.35 7.7
L 5.4 8.5 5.85 8.45 5.8 8.05 5.8 5 Z"/>
</g>

<g id="IT_300x250_psd_Asset_5_ManagedWiFi_IT_Awareness_DM7_2_Rogers_has_the_only__fully_managed_____0_Layer0_0_MEMBER_18_FILL">
<path fill="#D82C26" stroke="none" d="
M 7.1 8.25
Q 7.25 8.45 7.5 8.55
L 7.7 8.2 7.45 8 7.4 7.6 7.4 2.8 6.95 2.9 6.95 7.7
Q 6.95 8.05 7.1 8.25 Z"/>
</g>

<g id="IT_300x250_psd_Asset_5_ManagedWiFi_IT_Awareness_DM7_2_Rogers_has_the_only__fully_managed_____0_Layer0_0_MEMBER_19_FILL">
<path fill="#D82C26" stroke="none" d="
M 8.75 8.25
Q 8.9 8.5 9.15 8.55
L 9.35 8.2
Q 9.3 8.2 9.1 8
L 9 7.6 9 2.8 8.55 2.9 8.55 7.7
Q 8.55 7.95 8.75 8.25 Z"/>
</g>

<g id="IT_300x250_psd_Asset_5_ManagedWiFi_IT_Awareness_DM7_2_Rogers_has_the_only__fully_managed_____0_Layer0_0_MEMBER_20_FILL">
<path fill="#D82C26" stroke="none" d="
M 10.9 9.25
Q 10.75 9.6 10.55 9.7 10.35 9.85 9.95 9.85
L 10.05 10.25
Q 10.45 10.25 10.85 10.05 11.15 9.85 11.3 9.35
L 12.9 5 12.45 5 11.4 8 10.2 5 9.7 5 11.15 8.5 10.9 9.25 Z"/>
</g>

<g id="IT_300x250_psd_Asset_5_ManagedWiFi_IT_Awareness_DM7_2_Rogers_has_the_only__fully_managed_____0_Layer0_0_MEMBER_21_FILL">
<path fill="#D82C26" stroke="none" d="
M 20.3 8.45
L 20.3 6.4
Q 20.3 5.75 20 5.3 19.7 4.9 19.05 4.9 18.65 4.9 18.25 5.15 17.95 5.35 17.75 5.8 17.7 5.4 17.35 5.15 17 4.9 16.65 4.9 16.3 4.9 15.9 5.15 15.6 5.4 15.45 5.75
L 15.4 5.75 15.4 5 15 5 15 8.45 15.45 8.45 15.45 6.75
Q 15.45 6.25 15.6 5.95 15.75 5.6 16 5.45 16.2 5.25 16.55 5.25 17 5.25 17.2 5.55 17.4 5.8 17.4 6.4
L 17.4 8.45 17.85 8.45 17.85 6.7
Q 17.85 6.05 18.15 5.65 18.45 5.25 18.95 5.25 19.4 5.25 19.65 5.6 19.85 5.95 19.85 6.5
L 19.85 8.45 20.3 8.45 Z"/>
</g>

<g id="IT_300x250_psd_Asset_5_ManagedWiFi_IT_Awareness_DM7_2_Rogers_has_the_only__fully_managed_____0_Layer0_0_MEMBER_22_FILL">
<path fill="#D82C26" stroke="none" d="
M 22.6 5.25
Q 23.1 5.25 23.3 5.5 23.55 5.7 23.55 6.2
L 23.55 6.4 23.15 6.4
Q 21.15 6.4 21.15 7.55 21.15 8.1 21.5 8.3 21.75 8.55 22.25 8.55 22.7 8.55 23.05 8.35 23.4 8.2 23.55 7.8
L 23.6 7.8 23.6 8.15 23.65 8.45 24.05 8.45 24 6.2
Q 24 5.6 23.65 5.25 23.3 4.9 22.65 4.9
L 21.95 5
Q 21.55 5.15 21.35 5.35
L 21.5 5.65 22 5.35 22.6 5.25
M 23.55 7.05
L 23.45 7.6
Q 23.3 7.9 23 8.05 22.8 8.25 22.35 8.25 22 8.25 21.8 8.05 21.6 7.9 21.6 7.5 21.6 6.7 23.2 6.7
L 23.55 6.7 23.55 7.05 Z"/>
</g>

<g id="IT_300x250_psd_Asset_5_ManagedWiFi_IT_Awareness_DM7_2_Rogers_has_the_only__fully_managed_____0_Layer0_0_MEMBER_23_FILL">
<path fill="#D82C26" stroke="none" d="
M 25.5 5.75
L 25.5 5 25.1 5 25.1 8.45 25.55 8.45 25.55 6.7
Q 25.55 6.25 25.7 5.95 25.85 5.65 26.1 5.45 26.35 5.25 26.7 5.25 27.2 5.25 27.45 5.6 27.65 6.1 27.65 6.45
L 27.65 8.45 28.1 8.45 28.1 6.35
Q 28.1 5.85 27.75 5.3 27.45 4.9 26.8 4.9 26.4 4.9 26.05 5.15 25.7 5.35 25.55 5.75
L 25.5 5.75 Z"/>
</g>

<g id="IT_300x250_psd_Asset_5_ManagedWiFi_IT_Awareness_DM7_2_Rogers_has_the_only__fully_managed_____0_Layer0_0_MEMBER_24_FILL">
<path fill="#D82C26" stroke="none" d="
M 30.4 5.25
Q 30.85 5.25 31.1 5.5 31.35 5.75 31.35 6.2
L 31.35 6.4 30.95 6.4
Q 28.95 6.4 28.95 7.55 28.95 8.1 29.3 8.3 29.55 8.55 30.05 8.55 30.5 8.55 30.85 8.35 31.2 8.2 31.35 7.8
L 31.4 7.8 31.4 8.15 31.45 8.45 31.85 8.45 31.75 7.7 31.75 6.2
Q 31.75 5.55 31.4 5.25 31.1 4.9 30.45 4.9
L 29.75 5
Q 29.35 5.15 29.15 5.35
L 29.25 5.65 29.8 5.35 30.4 5.25
M 31.35 7.05
L 31.25 7.6
Q 31.1 7.9 30.8 8.05 30.6 8.25 30.15 8.25 29.8 8.25 29.6 8.05 29.35 7.9 29.35 7.5 29.35 6.7 31 6.7
L 31.35 6.7 31.35 7.05 Z"/>
</g>

<g id="IT_300x250_psd_Asset_5_ManagedWiFi_IT_Awareness_DM7_2_Rogers_has_the_only__fully_managed_____0_Layer0_0_MEMBER_25_FILL">
<path fill="#D82C26" stroke="none" d="
M 36.3 5
L 35.85 5 35.85 5.75 35.8 5.75
Q 35.65 5.4 35.25 5.15 34.9 4.9 34.4 4.9 33.9 4.9 33.5 5.15 33.05 5.4 32.9 5.8 32.65 6.3 32.65 6.75 32.65 7.25 32.9 7.65 33 8 33.5 8.3 33.9 8.55 34.4 8.55 34.75 8.55 35.25 8.3 35.65 8.05 35.8 7.7
L 35.8 8.45
Q 35.8 9.1 35.5 9.55 35.1 9.95 34.4 9.95
L 33.65 9.8 32.95 9.45 32.9 9.85 33.6 10.2 34.4 10.3
Q 35.35 10.3 35.8 9.8 36.25 9.3 36.25 8.4
L 36.3 5
M 34.45 5.25
Q 34.75 5.25 35.15 5.45 35.5 5.65 35.65 6 35.85 6.25 35.85 6.7 35.85 7.2 35.65 7.45 35.5 7.8 35.15 8 34.75 8.2 34.45 8.2 34.15 8.2 33.75 8 33.4 7.75 33.25 7.45 33.1 7.15 33.1 6.75 33.1 6.3 33.25 6 33.35 5.75 33.75 5.45 34.15 5.25 34.45 5.25 Z"/>
</g>

<g id="IT_300x250_psd_Asset_5_ManagedWiFi_IT_Awareness_DM7_2_Rogers_has_the_only__fully_managed_____0_Layer0_0_MEMBER_26_FILL">
<path fill="#D82C26" stroke="none" d="
M 40.55 6.8
L 40.55 6.6
Q 40.55 6.1 40.35 5.75 40.1 5.35 39.8 5.1 39.45 4.9 38.9 4.9 38.4 4.9 38 5.15 37.65 5.4 37.4 5.75 37.15 6.25 37.15 6.7 37.15 7.2 37.4 7.7 37.7 8.15 38.05 8.35 38.45 8.6 38.95 8.6 39.75 8.6 40.35 8.15
L 40.25 7.75 39.7 8.1
Q 39.5 8.2 39 8.2 38.65 8.2 38.25 8.05 37.9 7.8 37.8 7.5 37.6 7.25 37.6 6.8
L 40.55 6.8
M 38.9 5.25
Q 39.45 5.25 39.8 5.55 40.1 5.9 40.15 6.5
L 37.6 6.5
Q 37.6 6.2 37.75 5.9 37.9 5.6 38.2 5.45 38.45 5.25 38.9 5.25 Z"/>
</g>

<g id="IT_300x250_psd_Asset_5_ManagedWiFi_IT_Awareness_DM7_2_Rogers_has_the_only__fully_managed_____0_Layer0_0_MEMBER_27_FILL">
<path fill="#D82C26" stroke="none" d="
M 44.85 2.8
L 44.4 2.85 44.4 5.75
Q 44.15 5.3 43.8 5.1 43.45 4.9 43 4.9 42.5 4.9 42.1 5.15 41.65 5.35 41.45 5.8 41.25 6.2 41.25 6.75 41.25 7.3 41.45 7.65 41.65 8.05 42.1 8.35 42.45 8.55 43 8.55 43.45 8.55 43.8 8.35 44.2 8.1 44.4 7.7
L 44.45 7.7 44.45 8.45 44.9 8.45 44.85 2.8
M 41.85 6
Q 42.05 5.65 42.35 5.45 42.75 5.25 43.05 5.25 43.35 5.25 43.75 5.45 44.1 5.7 44.25 6 44.45 6.5 44.45 6.75 44.45 7.05 44.25 7.45 44.15 7.7 43.75 8 43.5 8.2 43.05 8.2 42.6 8.2 42.35 8 42.05 7.9 41.85 7.5
L 41.7 6.75
Q 41.7 6.4 41.85 6 Z"/>
</g>

<g id="IT_300x250_psd_Asset_5_ManagedWiFi_IT_Awareness_DM7_2_Rogers_has_the_only__fully_managed_____0_Layer0_0_MEMBER_28_FILL">
<path fill="#D82C26" stroke="none" d="
M 46.05 8.45
L 46.3 8.5
Q 46.45 8.5 46.5 8.4 46.6 8.35 46.6 8.2 46.6 8 46.5 7.95
L 46.3 7.85 46.05 7.95 45.95 8.2 46.05 8.45 Z"/>
</g>

<g id="IT_300x250_psd_Asset_5_ManagedWiFi_IT_Awareness_DM7_2_Rogers_has_the_only__fully_managed_____0_Layer0_0_MEMBER_29_FILL">
<path fill="#D82C26" stroke="none" d="
M 47.65 8.45
L 47.9 8.5
Q 48.05 8.5 48.15 8.4
L 48.25 8.2 48.15 7.95 47.9 7.85 47.7 7.95
Q 47.6 8 47.6 8.2
L 47.65 8.45 Z"/>
</g>

<g id="IT_300x250_psd_Asset_5_ManagedWiFi_IT_Awareness_DM7_2_Rogers_has_the_only__fully_managed_____0_Layer0_0_MEMBER_30_FILL">
<path fill="#D82C26" stroke="none" d="
M 49.3 8.45
L 49.55 8.5
Q 49.7 8.5 49.75 8.4 49.85 8.35 49.85 8.2 49.85 8 49.75 7.95
L 49.55 7.85 49.3 7.95 49.2 8.2 49.3 8.45 Z"/>
</g>
</defs>

<g transform="matrix( 1, 0, 0, 1, -66,7) ">
<g transform="matrix( 1, 0, 0, 1, 61,16) ">
<g transform="matrix( 1, 0, 0, 1, 23,4) ">
<g transform="matrix( 2.815704345703125, 0, 0, 2.832611083984375, 0.15,16.6) ">
<use xlink:href="#IT_300x250_psd_Asset_5_ManagedWiFi_IT_Awareness_DM7_2_Rogers_has_the_only__fully_managed_____0_Layer0_0_MEMBER_0_FILL"/>
</g>

<g transform="matrix( 2.815704345703125, 0, 0, 2.832611083984375, 0.15,16.6) ">
<use xlink:href="#IT_300x250_psd_Asset_5_ManagedWiFi_IT_Awareness_DM7_2_Rogers_has_the_only__fully_managed_____0_Layer0_0_MEMBER_1_FILL"/>
</g>

<g transform="matrix( 2.815704345703125, 0, 0, 2.832611083984375, 0.15,16.6) ">
<use xlink:href="#IT_300x250_psd_Asset_5_ManagedWiFi_IT_Awareness_DM7_2_Rogers_has_the_only__fully_managed_____0_Layer0_0_MEMBER_2_FILL"/>
</g>

<g transform="matrix( 2.815704345703125, 0, 0, 2.832611083984375, 0.15,16.6) ">
<use xlink:href="#IT_300x250_psd_Asset_5_ManagedWiFi_IT_Awareness_DM7_2_Rogers_has_the_only__fully_managed_____0_Layer0_0_MEMBER_3_FILL"/>
</g>

<g transform="matrix( 2.815704345703125, 0, 0, 2.832611083984375, 0.15,16.6) ">
<use xlink:href="#IT_300x250_psd_Asset_5_ManagedWiFi_IT_Awareness_DM7_2_Rogers_has_the_only__fully_managed_____0_Layer0_0_MEMBER_4_FILL"/>
</g>

<g transform="matrix( 2.815704345703125, 0, 0, 2.832611083984375, 0.15,16.6) ">
<use xlink:href="#IT_300x250_psd_Asset_5_ManagedWiFi_IT_Awareness_DM7_2_Rogers_has_the_only__fully_managed_____0_Layer0_0_MEMBER_5_FILL"/>
</g>

<g transform="matrix( 2.815704345703125, 0, 0, 2.832611083984375, 0.15,16.6) ">
<use xlink:href="#IT_300x250_psd_Asset_5_ManagedWiFi_IT_Awareness_DM7_2_Rogers_has_the_only__fully_managed_____0_Layer0_0_MEMBER_6_FILL"/>
</g>

<g transform="matrix( 2.815704345703125, 0, 0, 2.832611083984375, 0.15,16.6) ">
<use xlink:href="#IT_300x250_psd_Asset_5_ManagedWiFi_IT_Awareness_DM7_2_Rogers_has_the_only__fully_managed_____0_Layer0_0_MEMBER_7_FILL"/>
</g>

<g transform="matrix( 2.815704345703125, 0, 0, 2.832611083984375, 0.15,16.6) ">
<use xlink:href="#IT_300x250_psd_Asset_5_ManagedWiFi_IT_Awareness_DM7_2_Rogers_has_the_only__fully_managed_____0_Layer0_0_MEMBER_8_FILL"/>
</g>

<g transform="matrix( 2.815704345703125, 0, 0, 2.832611083984375, 0.15,16.6) ">
<use xlink:href="#IT_300x250_psd_Asset_5_ManagedWiFi_IT_Awareness_DM7_2_Rogers_has_the_only__fully_managed_____0_Layer0_0_MEMBER_9_FILL"/>
</g>

<g transform="matrix( 2.815704345703125, 0, 0, 2.832611083984375, 0.15,16.6) ">
<use xlink:href="#IT_300x250_psd_Asset_5_ManagedWiFi_IT_Awareness_DM7_2_Rogers_has_the_only__fully_managed_____0_Layer0_0_MEMBER_10_FILL"/>
</g>

<g transform="matrix( 2.815704345703125, 0, 0, 2.832611083984375, 0.15,16.6) ">
<use xlink:href="#IT_300x250_psd_Asset_5_ManagedWiFi_IT_Awareness_DM7_2_Rogers_has_the_only__fully_managed_____0_Layer0_0_MEMBER_11_FILL"/>
</g>

<g transform="matrix( 2.815704345703125, 0, 0, 2.832611083984375, 0.15,16.6) ">
<use xlink:href="#IT_300x250_psd_Asset_5_ManagedWiFi_IT_Awareness_DM7_2_Rogers_has_the_only__fully_managed_____0_Layer0_0_MEMBER_12_FILL"/>
</g>

<g transform="matrix( 2.815704345703125, 0, 0, 2.832611083984375, 0.15,16.6) ">
<use xlink:href="#IT_300x250_psd_Asset_5_ManagedWiFi_IT_Awareness_DM7_2_Rogers_has_the_only__fully_managed_____0_Layer0_0_MEMBER_13_FILL"/>
</g>

<g transform="matrix( 2.815704345703125, 0, 0, 2.832611083984375, 0.15,16.6) ">
<use xlink:href="#IT_300x250_psd_Asset_5_ManagedWiFi_IT_Awareness_DM7_2_Rogers_has_the_only__fully_managed_____0_Layer0_0_MEMBER_14_FILL"/>
</g>

<g transform="matrix( 2.815704345703125, 0, 0, 2.832611083984375, 0.15,16.6) ">
<use xlink:href="#IT_300x250_psd_Asset_5_ManagedWiFi_IT_Awareness_DM7_2_Rogers_has_the_only__fully_managed_____0_Layer0_0_MEMBER_15_FILL"/>
</g>

<g transform="matrix( 2.815704345703125, 0, 0, 2.832611083984375, 0.15,16.6) ">
<use xlink:href="#IT_300x250_psd_Asset_5_ManagedWiFi_IT_Awareness_DM7_2_Rogers_has_the_only__fully_managed_____0_Layer0_0_MEMBER_16_FILL"/>
</g>

<g transform="matrix( 2.815704345703125, 0, 0, 2.832611083984375, 0.15,16.6) ">
<use xlink:href="#IT_300x250_psd_Asset_5_ManagedWiFi_IT_Awareness_DM7_2_Rogers_has_the_only__fully_managed_____0_Layer0_0_MEMBER_17_FILL"/>
</g>

<g transform="matrix( 2.815704345703125, 0, 0, 2.832611083984375, 0.15,16.6) ">
<use xlink:href="#IT_300x250_psd_Asset_5_ManagedWiFi_IT_Awareness_DM7_2_Rogers_has_the_only__fully_managed_____0_Layer0_0_MEMBER_18_FILL"/>
</g>

<g transform="matrix( 2.815704345703125, 0, 0, 2.832611083984375, 0.15,16.6) ">
<use xlink:href="#IT_300x250_psd_Asset_5_ManagedWiFi_IT_Awareness_DM7_2_Rogers_has_the_only__fully_managed_____0_Layer0_0_MEMBER_19_FILL"/>
</g>

<g transform="matrix( 2.815704345703125, 0, 0, 2.832611083984375, 0.15,16.6) ">
<use xlink:href="#IT_300x250_psd_Asset_5_ManagedWiFi_IT_Awareness_DM7_2_Rogers_has_the_only__fully_managed_____0_Layer0_0_MEMBER_20_FILL"/>
</g>

<g transform="matrix( 2.815704345703125, 0, 0, 2.832611083984375, 0.15,16.6) ">
<use xlink:href="#IT_300x250_psd_Asset_5_ManagedWiFi_IT_Awareness_DM7_2_Rogers_has_the_only__fully_managed_____0_Layer0_0_MEMBER_21_FILL"/>
</g>

<g transform="matrix( 2.815704345703125, 0, 0, 2.832611083984375, 0.15,16.6) ">
<use xlink:href="#IT_300x250_psd_Asset_5_ManagedWiFi_IT_Awareness_DM7_2_Rogers_has_the_only__fully_managed_____0_Layer0_0_MEMBER_22_FILL"/>
</g>

<g transform="matrix( 2.815704345703125, 0, 0, 2.832611083984375, 0.15,16.6) ">
<use xlink:href="#IT_300x250_psd_Asset_5_ManagedWiFi_IT_Awareness_DM7_2_Rogers_has_the_only__fully_managed_____0_Layer0_0_MEMBER_23_FILL"/>
</g>

<g transform="matrix( 2.815704345703125, 0, 0, 2.832611083984375, 0.15,16.6) ">
<use xlink:href="#IT_300x250_psd_Asset_5_ManagedWiFi_IT_Awareness_DM7_2_Rogers_has_the_only__fully_managed_____0_Layer0_0_MEMBER_24_FILL"/>
</g>

<g transform="matrix( 2.815704345703125, 0, 0, 2.832611083984375, 0.15,16.6) ">
<use xlink:href="#IT_300x250_psd_Asset_5_ManagedWiFi_IT_Awareness_DM7_2_Rogers_has_the_only__fully_managed_____0_Layer0_0_MEMBER_25_FILL"/>
</g>

<g transform="matrix( 2.815704345703125, 0, 0, 2.832611083984375, 0.15,16.6) ">
<use xlink:href="#IT_300x250_psd_Asset_5_ManagedWiFi_IT_Awareness_DM7_2_Rogers_has_the_only__fully_managed_____0_Layer0_0_MEMBER_26_FILL"/>
</g>

<g transform="matrix( 2.815704345703125, 0, 0, 2.832611083984375, 0.15,16.6) ">
<use xlink:href="#IT_300x250_psd_Asset_5_ManagedWiFi_IT_Awareness_DM7_2_Rogers_has_the_only__fully_managed_____0_Layer0_0_MEMBER_27_FILL"/>
</g>

<g transform="matrix( 2.815704345703125, 0, 0, 2.832611083984375, 0.15,16.6) ">
<use xlink:href="#IT_300x250_psd_Asset_5_ManagedWiFi_IT_Awareness_DM7_2_Rogers_has_the_only__fully_managed_____0_Layer0_0_MEMBER_28_FILL"/>
</g>

<g transform="matrix( 2.815704345703125, 0, 0, 2.832611083984375, 0.15,16.6) ">
<use xlink:href="#IT_300x250_psd_Asset_5_ManagedWiFi_IT_Awareness_DM7_2_Rogers_has_the_only__fully_managed_____0_Layer0_0_MEMBER_29_FILL"/>
</g>

<g transform="matrix( 2.815704345703125, 0, 0, 2.832611083984375, 0.15,16.6) ">
<use xlink:href="#IT_300x250_psd_Asset_5_ManagedWiFi_IT_Awareness_DM7_2_Rogers_has_the_only__fully_managed_____0_Layer0_0_MEMBER_30_FILL"/>
</g>
</g>
</g>
</g>
</svg>
