
<svg xmlns="http://www.w3.org/2000/svg" version="1.1" xmlns:xlink="http://www.w3.org/1999/xlink" preserveAspectRatio="none" x="0px" y="0px" width="640px" height="480px" viewBox="0 0 640 480">
<defs>
<g id="IT_640x480_psd_Asset_3_ManagedWiFi_IT_Research_DM11_1_Advance_your_business__through_technology__0_Layer0_0_MEMBER_0_FILL">
<path fill="#D82C26" stroke="none" d="
M 4.8 -9
L 4 -9 0.15 0 1 0 2.35 -3.35 6.35 -3.35 7.75 0 8.6 0 4.8 -9
M 6.1 -4
L 2.6 -4 4.4 -8.2 6.1 -4 Z"/>
</g>

<g id="IT_640x480_psd_Asset_3_ManagedWiFi_IT_Research_DM11_1_Advance_your_business__through_technology__0_Layer0_0_MEMBER_1_FILL">
<path fill="#D82C26" stroke="none" d="
M 8.9 -2.95
Q 8.9 -2.05 9.25 -1.4 9.65 -0.6 10.3 -0.25 10.95 0.15 11.9 0.15 12.65 0.15 13.3 -0.2 14 -0.6 14.3 -1.3
L 14.35 -1.3 14.4 0 15.1 0 15.05 -9.75 14.3 -9.6 14.3 -4.65
Q 13.95 -5.35 13.3 -5.75 12.6 -6.15 11.9 -6.15 11.05 -6.15 10.3 -5.7 9.65 -5.35 9.25 -4.6 8.9 -3.9 8.9 -2.95
M 9.65 -2.95
Q 9.65 -3.65 9.95 -4.25 10.2 -4.85 10.75 -5.15 11.25 -5.5 12 -5.5 12.7 -5.5 13.2 -5.15 13.7 -4.85 14.05 -4.25 14.35 -3.65 14.35 -2.95 14.35 -2.3 14.05 -1.7 13.75 -1.2 13.2 -0.8 12.7 -0.45 12 -0.45 11.25 -0.45 10.75 -0.8 10.15 -1.15 9.95 -1.7 9.65 -2.3 9.65 -2.95 Z"/>
</g>

<g id="IT_640x480_psd_Asset_3_ManagedWiFi_IT_Research_DM11_1_Advance_your_business__through_technology__0_Layer0_0_MEMBER_2_FILL">
<path fill="#D82C26" stroke="none" d="
M 16.7 -5.95
L 15.9 -5.95 18.2 0 19.05 0 21.25 -5.95 20.5 -5.95 18.6 -0.75 16.7 -5.95 Z"/>
</g>

<g id="IT_640x480_psd_Asset_3_ManagedWiFi_IT_Research_DM11_1_Advance_your_business__through_technology__0_Layer0_0_MEMBER_3_FILL">
<path fill="#D82C26" stroke="none" d="
M 24.2 -6.15
Q 23.8 -6.15 23 -5.95 22.3 -5.7 22 -5.4
L 22.2 -4.8
Q 22.65 -5.15 23.1 -5.35 23.8 -5.55 24.1 -5.55 24.85 -5.55 25.35 -5.15 25.8 -4.7 25.8 -3.9
L 25.8 -3.55 25.05 -3.55
Q 21.65 -3.55 21.65 -1.6 21.65 -0.75 22.2 -0.3 22.8 0.15 23.55 0.15 24.3 0.15 24.9 -0.15 25.55 -0.55 25.8 -1.15
L 25.9 0 26.6 0
Q 26.5 -0.3 26.5 -1.3
L 26.5 -3.85
Q 26.5 -5 25.9 -5.55 25.3 -6.15 24.2 -6.15
M 22.75 -0.7
Q 22.35 -1 22.35 -1.65 22.35 -3.1 25.15 -3.1
L 25.8 -3.1 25.8 -2.5
Q 25.8 -2 25.55 -1.5 25.3 -1 24.85 -0.7 24.4 -0.4 23.7 -0.4 23.15 -0.4 22.75 -0.7 Z"/>
</g>

<g id="IT_640x480_psd_Asset_3_ManagedWiFi_IT_Research_DM11_1_Advance_your_business__through_technology__0_Layer0_0_MEMBER_4_FILL">
<path fill="#D82C26" stroke="none" d="
M 28.75 -5.95
L 28.05 -5.95 28.1 0 28.85 0 28.85 -3.05
Q 28.85 -3.8 29.15 -4.35 29.35 -4.85 29.85 -5.2 30.3 -5.5 30.85 -5.5 31.75 -5.5 32.1 -4.9 32.45 -4.35 32.45 -3.45
L 32.45 0 33.2 0 33.2 -3.65
Q 33.2 -4.75 32.7 -5.4 32.1 -6.15 31 -6.15 30.35 -6.15 29.7 -5.75 29.15 -5.35 28.85 -4.65
L 28.75 -5.95 Z"/>
</g>

<g id="IT_640x480_psd_Asset_3_ManagedWiFi_IT_Research_DM11_1_Advance_your_business__through_technology__0_Layer0_0_MEMBER_5_FILL">
<path fill="#D82C26" stroke="none" d="
M 34.45 -2.95
Q 34.45 -2.05 34.85 -1.35 35.25 -0.65 35.95 -0.2 36.75 0.2 37.55 0.2 38.1 0.2 38.7 -0.05 39.15 -0.15 39.6 -0.55
L 39.5 -1.15
Q 39.05 -0.8 38.65 -0.65 38.05 -0.45 37.6 -0.45 37.05 -0.45 36.35 -0.8 35.75 -1.2 35.55 -1.7 35.25 -2.3 35.25 -2.95 35.25 -3.65 35.55 -4.25 35.8 -4.85 36.35 -5.15 36.85 -5.5 37.6 -5.5
L 38.55 -5.35
Q 39.05 -5.1 39.3 -4.85
L 39.6 -5.45
Q 39.35 -5.7 38.7 -5.95 38 -6.15 37.6 -6.15 36.7 -6.15 36 -5.75 35.3 -5.3 34.85 -4.6 34.45 -3.8 34.45 -2.95 Z"/>
</g>

<g id="IT_640x480_psd_Asset_3_ManagedWiFi_IT_Research_DM11_1_Advance_your_business__through_technology__0_Layer0_0_MEMBER_6_FILL">
<path fill="#D82C26" stroke="none" d="
M 45.55 -4.7
Q 45.25 -5.35 44.6 -5.75 43.9 -6.15 43.05 -6.15 42.25 -6.15 41.55 -5.75 40.85 -5.3 40.5 -4.65 40.1 -3.85 40.1 -3 40.1 -2.15 40.5 -1.35 40.9 -0.6 41.6 -0.25 42.3 0.2 43.15 0.2 44.5 0.2 45.55 -0.55
L 45.4 -1.2
Q 45 -0.9 44.45 -0.65 43.9 -0.45 43.2 -0.45 42.55 -0.45 42 -0.75 41.45 -1.15 41.15 -1.65 40.85 -2.15 40.85 -2.85
L 45.9 -2.85 45.9 -3.2
Q 45.9 -4.05 45.55 -4.7
M 44.6 -4.95
Q 45.1 -4.45 45.2 -3.4
L 40.85 -3.4
Q 40.85 -3.85 41.15 -4.4 41.4 -4.9 41.9 -5.2 42.3 -5.55 43.05 -5.55 44 -5.55 44.6 -4.95 Z"/>
</g>

<g id="IT_640x480_psd_Asset_3_ManagedWiFi_IT_Research_DM11_1_Advance_your_business__through_technology__0_Layer0_0_MEMBER_7_FILL">
<path fill="#D82C26" stroke="none" d="
M 49.8 -5.95
L 49 -5.95 51.5 0.05 51.05 1.3
Q 50.85 1.9 50.4 2.1 50.15 2.3 49.35 2.4
L 49.55 3.05
Q 50.35 3.05 50.9 2.65 51.4 2.3 51.7 1.5
L 54.5 -5.95 53.7 -5.95 51.85 -0.8 49.8 -5.95 Z"/>
</g>

<g id="IT_640x480_psd_Asset_3_ManagedWiFi_IT_Research_DM11_1_Advance_your_business__through_technology__0_Layer0_0_MEMBER_8_FILL">
<path fill="#D82C26" stroke="none" d="
M 55.2 -4.6
Q 54.75 -3.9 54.75 -3 54.75 -2.1 55.2 -1.35 55.6 -0.65 56.3 -0.25 57.05 0.2 57.95 0.2 58.9 0.2 59.55 -0.25 60.3 -0.6 60.7 -1.35 61.1 -2 61.1 -3 61.1 -4 60.7 -4.6 60.35 -5.25 59.55 -5.75 58.85 -6.15 57.95 -6.15 57.1 -6.15 56.3 -5.75 55.5 -5.2 55.2 -4.6
M 59.2 -5.15
Q 59.75 -4.9 60.05 -4.25 60.35 -3.7 60.35 -3 60.35 -2.3 60.05 -1.7 59.85 -1.2 59.25 -0.8 58.7 -0.45 57.95 -0.45 57.2 -0.45 56.65 -0.8 56.1 -1.2 55.8 -1.7 55.5 -2.3 55.5 -3 55.5 -3.7 55.8 -4.25 56.1 -4.85 56.65 -5.15 57.2 -5.5 57.95 -5.5 58.7 -5.5 59.2 -5.15 Z"/>
</g>

<g id="IT_640x480_psd_Asset_3_ManagedWiFi_IT_Research_DM11_1_Advance_your_business__through_technology__0_Layer0_0_MEMBER_9_FILL">
<path fill="#D82C26" stroke="none" d="
M 62.35 -2.35
Q 62.35 -1.2 62.85 -0.55 63.35 0.15 64.5 0.15 65.3 0.15 65.85 -0.25 66.4 -0.6 66.7 -1.3
L 66.8 0 67.55 0 67.45 -0.7 67.45 -5.95 66.7 -5.95 66.7 -3
Q 66.7 -2.25 66.45 -1.6 66.15 -1.05 65.7 -0.75 65.25 -0.45 64.7 -0.45 63.85 -0.45 63.45 -1.05 63.1 -1.6 63.1 -2.5
L 63.1 -5.95 62.35 -5.95 62.35 -2.35 Z"/>
</g>

<g id="IT_640x480_psd_Asset_3_ManagedWiFi_IT_Research_DM11_1_Advance_your_business__through_technology__0_Layer0_0_MEMBER_10_FILL">
<path fill="#D82C26" stroke="none" d="
M 69.8 -5.95
L 69.1 -5.95 69.15 0 69.9 0 69.9 -2.95
Q 69.9 -4 70.35 -4.75 70.8 -5.45 71.6 -5.45
L 72.1 -5.4 72.25 -6
Q 71.95 -6.15 71.65 -6.15 71.15 -6.15 70.6 -5.75 70.15 -5.35 69.9 -4.65
L 69.85 -4.65 69.8 -5.95 Z"/>
</g>

<g id="IT_640x480_psd_Asset_3_ManagedWiFi_IT_Research_DM11_1_Advance_your_business__through_technology__0_Layer0_0_MEMBER_11_FILL">
<path fill="#D82C26" stroke="none" d="
M 80.4 -5.7
Q 79.75 -6.15 78.85 -6.15 78.1 -6.15 77.45 -5.75 76.75 -5.35 76.45 -4.65
L 76.4 -4.65 76.4 -9.75 75.65 -9.6 75.6 0 76.25 0 76.35 -1.3 76.4 -1.3
Q 76.7 -0.7 77.4 -0.2 78.05 0.15 78.85 0.15 79.8 0.15 80.4 -0.25 81.05 -0.6 81.45 -1.4 81.8 -2.05 81.8 -2.95 81.8 -3.9 81.45 -4.6 81.05 -5.35 80.4 -5.7
M 79.95 -5.15
Q 80.4 -4.9 80.8 -4.25 81.1 -3.65 81.1 -2.95 81.1 -2.3 80.8 -1.7 80.45 -1.1 79.95 -0.8 79.45 -0.45 78.75 -0.45 78.05 -0.45 77.55 -0.8 77.05 -1.1 76.7 -1.7 76.4 -2.3 76.4 -2.95 76.4 -3.65 76.7 -4.25 77.1 -4.9 77.55 -5.15 78.05 -5.5 78.75 -5.5 79.45 -5.5 79.95 -5.15 Z"/>
</g>

<g id="IT_640x480_psd_Asset_3_ManagedWiFi_IT_Research_DM11_1_Advance_your_business__through_technology__0_Layer0_0_MEMBER_12_FILL">
<path fill="#D82C26" stroke="none" d="
M 83.05 -2.35
Q 83.05 -1.2 83.55 -0.55 84.05 0.15 85.2 0.15 86 0.15 86.55 -0.25 87.1 -0.6 87.4 -1.3
L 87.5 0 88.25 0 88.15 -0.7 88.15 -5.95 87.4 -5.95 87.4 -3
Q 87.4 -2.25 87.15 -1.6 86.85 -1.05 86.4 -0.75 85.95 -0.45 85.4 -0.45 84.55 -0.45 84.15 -1.05 83.8 -1.6 83.8 -2.5
L 83.8 -5.95 83.05 -5.95 83.05 -2.35 Z"/>
</g>

<g id="IT_640x480_psd_Asset_3_ManagedWiFi_IT_Research_DM11_1_Advance_your_business__through_technology__0_Layer0_0_MEMBER_13_FILL">
<path fill="#D82C26" stroke="none" d="
M 89.5 -1.15
L 89.4 -0.5
Q 89.65 -0.25 90.3 0 90.85 0.15 91.5 0.15 92.1 0.15 92.5 -0.05 92.9 -0.2 93.25 -0.6 93.55 -1.05 93.55 -1.55 93.55 -2.2 93.1 -2.6 92.7 -3 91.7 -3.3 90.9 -3.6 90.55 -3.85 90.2 -4.05 90.2 -4.55 90.2 -5 90.55 -5.3 90.95 -5.55 91.5 -5.55 91.9 -5.55 92.35 -5.4 93 -5 93.05 -4.95
L 93.35 -5.5 92.5 -5.95
Q 91.9 -6.15 91.45 -6.15 90.9 -6.15 90.5 -5.95 90.05 -5.8 89.8 -5.4 89.5 -5 89.5 -4.5 89.5 -3.85 89.9 -3.45 90.35 -3.1 91.2 -2.8 91.9 -2.6 92.45 -2.25 92.8 -2.05 92.8 -1.55 92.8 -1 92.45 -0.7 92 -0.4 91.5 -0.4 90.35 -0.4 89.5 -1.15 Z"/>
</g>

<g id="IT_640x480_psd_Asset_3_ManagedWiFi_IT_Research_DM11_1_Advance_your_business__through_technology__0_Layer0_0_MEMBER_14_FILL">
<path fill="#D82C26" stroke="none" d="
M 95.45 -5.95
L 94.7 -5.95 94.7 0 95.45 0 95.45 -5.95
M 95.05 -7.8
Q 95.3 -7.8 95.45 -7.95 95.6 -8.1 95.6 -8.35 95.6 -8.55 95.45 -8.7 95.3 -8.85 95.05 -8.85 94.85 -8.85 94.7 -8.7 94.55 -8.55 94.55 -8.35 94.55 -8.1 94.7 -7.95 94.85 -7.8 95.05 -7.8 Z"/>
</g>

<g id="IT_640x480_psd_Asset_3_ManagedWiFi_IT_Research_DM11_1_Advance_your_business__through_technology__0_Layer0_0_MEMBER_15_FILL">
<path fill="#D82C26" stroke="none" d="
M 100.05 -6.15
Q 99.3 -6.15 98.75 -5.75 98.1 -5.25 97.9 -4.65
L 97.85 -4.65 97.8 -5.95 97.1 -5.95 97.15 0 97.9 0 97.9 -3.05
Q 97.9 -3.75 98.15 -4.35 98.45 -4.95 98.9 -5.2 99.35 -5.5 99.9 -5.5 100.8 -5.5 101.15 -4.9 101.5 -4.2 101.5 -3.45
L 101.5 0 102.25 0 102.25 -3.65
Q 102.25 -4.7 101.7 -5.4 101.2 -6.15 100.05 -6.15 Z"/>
</g>

<g id="IT_640x480_psd_Asset_3_ManagedWiFi_IT_Research_DM11_1_Advance_your_business__through_technology__0_Layer0_0_MEMBER_16_FILL">
<path fill="#D82C26" stroke="none" d="
M 103.9 -1.35
Q 104.3 -0.6 105 -0.25 105.7 0.2 106.55 0.2 107.9 0.2 108.95 -0.55
L 108.8 -1.2 107.85 -0.65
Q 107.3 -0.45 106.6 -0.45 105.95 -0.45 105.4 -0.75 104.85 -1.15 104.55 -1.65 104.25 -2.15 104.25 -2.85
L 109.25 -2.85 109.3 -3.2
Q 109.3 -4.05 108.95 -4.7 108.65 -5.35 108 -5.75 107.3 -6.15 106.45 -6.15 105.65 -6.15 104.95 -5.75 104.25 -5.3 103.9 -4.65 103.5 -3.85 103.5 -3 103.5 -2.15 103.9 -1.35
M 104.55 -4.4
Q 104.8 -4.9 105.3 -5.2 105.7 -5.55 106.45 -5.55 107.4 -5.55 108 -4.95 108.55 -4.4 108.55 -3.4
L 104.25 -3.4
Q 104.25 -3.85 104.55 -4.4 Z"/>
</g>

<g id="IT_640x480_psd_Asset_3_ManagedWiFi_IT_Research_DM11_1_Advance_your_business__through_technology__0_Layer0_0_MEMBER_17_FILL">
<path fill="#D82C26" stroke="none" d="
M 110.2 -1.15
L 110.1 -0.5
Q 110.4 -0.25 111 0 111.6 0.15 112.2 0.15 112.8 0.15 113.2 -0.05 113.6 -0.2 113.95 -0.6 114.25 -1.05 114.25 -1.55 114.25 -2.2 113.8 -2.6 113.4 -3 112.4 -3.3 111.6 -3.6 111.25 -3.85 110.9 -4.05 110.9 -4.55 110.9 -5 111.25 -5.3 111.65 -5.55 112.2 -5.55 112.7 -5.55 113.05 -5.4 113.7 -5 113.75 -4.95
L 114.05 -5.5 113.25 -5.95
Q 112.55 -6.15 112.15 -6.15 111.65 -6.15 111.25 -5.95 110.85 -5.8 110.5 -5.4 110.2 -5 110.2 -4.5 110.2 -3.85 110.6 -3.45 111 -3.15 111.9 -2.8 112.75 -2.55 113.15 -2.25 113.55 -2 113.55 -1.55 113.55 -1 113.15 -0.7 112.8 -0.4 112.2 -0.4 111.05 -0.4 110.2 -1.15 Z"/>
</g>

<g id="IT_640x480_psd_Asset_3_ManagedWiFi_IT_Research_DM11_1_Advance_your_business__through_technology__0_Layer0_0_MEMBER_18_FILL">
<path fill="#D82C26" stroke="none" d="
M 115.2 -1.15
L 115.05 -0.5
Q 115.4 -0.25 116 0 116.55 0.15 117.2 0.15 117.75 0.15 118.15 -0.05 118.65 -0.2 118.9 -0.6 119.2 -1.05 119.2 -1.55 119.2 -2.2 118.75 -2.6 118.4 -2.95 117.4 -3.3 116.75 -3.5 116.2 -3.85 115.85 -4.1 115.85 -4.55 115.85 -5 116.25 -5.3 116.65 -5.55 117.15 -5.55 117.65 -5.55 118 -5.4 118.5 -5.15 118.7 -4.95
L 119.05 -5.5 118.2 -5.95
Q 117.5 -6.15 117.15 -6.15 116.6 -6.15 116.2 -5.95 115.8 -5.8 115.45 -5.4 115.15 -5 115.15 -4.5 115.15 -3.8 115.6 -3.45 115.9 -3.15 116.85 -2.8 117.65 -2.6 118.1 -2.25 118.5 -2 118.5 -1.55 118.5 -1 118.1 -0.7 117.75 -0.4 117.15 -0.4 116.05 -0.4 115.2 -1.15 Z"/>
</g>

<g id="IT_640x480_psd_Asset_3_ManagedWiFi_IT_Research_DM11_1_Advance_your_business__through_technology__0_Layer0_0_MEMBER_19_FILL">
<path fill="#D82C26" stroke="none" d="
M 1.25 8.9
L 0.3 8.9 0.15 9.45 1.25 9.45 1.25 13.4
Q 1.25 14.15 1.65 14.55 2.05 14.95 2.65 14.95
L 3.35 14.85 3.95 14.65 3.85 14.1
Q 3.2 14.35 2.85 14.35 2.5 14.35 2.25 14.1 2 13.75 2 13.3
L 2 9.45 3.55 9.45 3.7 8.9 2 8.9 2 7.15 1.25 7.45 1.25 8.9 Z"/>
</g>

<g id="IT_640x480_psd_Asset_3_ManagedWiFi_IT_Research_DM11_1_Advance_your_business__through_technology__0_Layer0_0_MEMBER_20_FILL">
<path fill="#D82C26" stroke="none" d="
M 5.6 10.15
L 5.55 10.15 5.55 5.15 4.8 5.25 4.8 14.85 5.55 14.85 5.55 11.95
Q 5.55 11.15 5.8 10.5 6.15 9.9 6.5 9.65 7.05 9.3 7.5 9.3 8.45 9.3 8.8 9.9 9.15 10.6 9.15 11.4
L 9.15 14.85 9.9 14.85 9.9 11.2
Q 9.9 10.2 9.35 9.4 8.8 8.7 7.7 8.7 7.05 8.7 6.4 9.1 5.85 9.45 5.6 10.15 Z"/>
</g>

<g id="IT_640x480_psd_Asset_3_ManagedWiFi_IT_Research_DM11_1_Advance_your_business__through_technology__0_Layer0_0_MEMBER_21_FILL">
<path fill="#D82C26" stroke="none" d="
M 14 8.7
Q 13.5 8.7 13 9.1 12.5 9.5 12.25 10.15
L 12.2 8.9 11.45 8.9 11.55 14.85 12.3 14.85 12.3 11.85
Q 12.3 10.85 12.75 10.1 13.2 9.35 13.95 9.35
L 14.5 9.45 14.65 8.8 14 8.7 Z"/>
</g>

<g id="IT_640x480_psd_Asset_3_ManagedWiFi_IT_Research_DM11_1_Advance_your_business__through_technology__0_Layer0_0_MEMBER_22_FILL">
<path fill="#D82C26" stroke="none" d="
M 20.65 13.45
Q 21.1 12.8 21.1 11.85 21.1 10.95 20.65 10.2 20.25 9.45 19.5 9.1 18.9 8.7 17.9 8.7 16.9 8.7 16.3 9.1 15.55 9.45 15.15 10.2 14.75 10.85 14.75 11.85 14.75 12.85 15.15 13.45 15.55 14.2 16.3 14.6 17 15 17.9 15 18.8 15 19.5 14.6 20.25 14.2 20.65 13.45
M 15.5 11.85
Q 15.5 11.15 15.8 10.55 16 10.1 16.6 9.65 17.3 9.3 17.9 9.3 18.5 9.3 19.2 9.65 19.75 10.05 20.05 10.55 20.35 11.15 20.35 11.85 20.35 12.5 20.05 13.1 19.8 13.65 19.2 14.05 18.6 14.35 17.9 14.35 17.2 14.35 16.6 14.05 16 13.6 15.8 13.1 15.5 12.5 15.5 11.85 Z"/>
</g>

<g id="IT_640x480_psd_Asset_3_ManagedWiFi_IT_Research_DM11_1_Advance_your_business__through_technology__0_Layer0_0_MEMBER_23_FILL">
<path fill="#D82C26" stroke="none" d="
M 23.05 8.9
L 22.3 8.9 22.3 12.5
Q 22.3 13.5 22.85 14.3 23.4 15 24.45 15 25.15 15 25.8 14.6 26.45 14.2 26.65 13.55
L 26.75 14.85 27.5 14.85 27.4 14.15 27.4 8.9 26.65 8.9 26.65 11.85
Q 26.65 12.55 26.4 13.2 26.1 13.85 25.7 14.1 25.2 14.4 24.65 14.4 23.8 14.4 23.4 13.8 23.05 13.25 23.05 12.3
L 23.05 8.9 Z"/>
</g>

<g id="IT_640x480_psd_Asset_3_ManagedWiFi_IT_Research_DM11_1_Advance_your_business__through_technology__0_Layer0_0_MEMBER_24_FILL">
<path fill="#D82C26" stroke="none" d="
M 34.9 8.9
L 34.2 8.9 34.15 10.2 34.1 10.2
Q 33.7 9.45 33.1 9.1 32.4 8.7 31.7 8.7 30.85 8.7 30.15 9.1 29.45 9.5 29.05 10.25 28.7 10.95 28.7 11.85 28.7 12.75 29.05 13.4 29.4 14.1 30.1 14.55 30.9 14.95 31.7 14.95 32.4 14.95 33.1 14.55 33.7 14.2 34.1 13.5
L 34.1 14.75
Q 34.1 15.85 33.55 16.65 32.95 17.3 31.65 17.3 30.95 17.3 30.35 17.1
L 29.2 16.55 29.05 17.25
Q 29.7 17.65 30.25 17.75 30.9 17.95 31.7 17.95 33.25 17.95 34.1 17.1 34.85 16.2 34.85 14.75
L 34.9 8.9
M 30.55 9.65
Q 31.15 9.3 31.8 9.3 32.4 9.3 33 9.65 33.6 10.05 33.85 10.6 34.15 11.15 34.15 11.85 34.15 12.5 33.85 13.1 33.55 13.6 33 14 32.4 14.35 31.8 14.35 31.15 14.35 30.55 14 29.95 13.6 29.75 13.1 29.45 12.5 29.45 11.85 29.45 11.15 29.75 10.6 29.95 10.1 30.55 9.65 Z"/>
</g>

<g id="IT_640x480_psd_Asset_3_ManagedWiFi_IT_Research_DM11_1_Advance_your_business__through_technology__0_Layer0_0_MEMBER_25_FILL">
<path fill="#D82C26" stroke="none" d="
M 41.65 11.2
Q 41.65 10.2 41.1 9.4 40.55 8.7 39.45 8.7 38.8 8.7 38.15 9.1 37.6 9.45 37.3 10.15
L 37.3 5.15 36.55 5.25 36.55 14.85 37.3 14.85 37.3 11.95
Q 37.3 11.15 37.55 10.5 37.9 9.9 38.25 9.65 38.8 9.3 39.25 9.3 40.15 9.3 40.5 9.9 40.9 10.55 40.9 11.4
L 40.9 14.85 41.65 14.85 41.65 11.2 Z"/>
</g>

<g id="IT_640x480_psd_Asset_3_ManagedWiFi_IT_Research_DM11_1_Advance_your_business__through_technology__0_Layer0_0_MEMBER_26_FILL">
<path fill="#D82C26" stroke="none" d="
M 45.2 8.9
L 45.05 9.45 46.2 9.45 46.2 13.4
Q 46.2 14.2 46.55 14.55 46.95 14.95 47.55 14.95
L 48.25 14.85 48.85 14.65 48.75 14.1
Q 48.1 14.35 47.8 14.35 47.4 14.35 47.15 14.1 46.9 13.75 46.9 13.3
L 46.9 9.45 48.45 9.45 48.6 8.9 46.9 8.9 46.9 7.15 46.15 7.45 46.15 8.9 45.2 8.9 Z"/>
</g>

<g id="IT_640x480_psd_Asset_3_ManagedWiFi_IT_Research_DM11_1_Advance_your_business__through_technology__0_Layer0_0_MEMBER_27_FILL">
<path fill="#D82C26" stroke="none" d="
M 53.55 9.1
Q 53 8.7 52.05 8.7 51.15 8.7 50.55 9.1 49.95 9.45 49.45 10.2 49.1 10.9 49.1 11.8 49.1 12.85 49.5 13.45 49.9 14.25 50.55 14.6 51.25 15 52.15 15 53.55 15 54.5 14.25
L 54.4 13.6
Q 54 13.9 53.4 14.15 52.8 14.4 52.2 14.4 51.5 14.4 50.95 14.05 50.55 13.8 50.1 13.2 49.8 12.6 49.8 11.95
L 54.85 11.95 54.85 11.65
Q 54.85 10.85 54.55 10.15 54.15 9.45 53.55 9.1
M 53.55 9.85
Q 54.15 10.45 54.15 11.4
L 49.8 11.4
Q 49.9 10.9 50.1 10.45 50.35 10 50.85 9.6 51.45 9.25 52.05 9.25 52.95 9.25 53.55 9.85 Z"/>
</g>

<g id="IT_640x480_psd_Asset_3_ManagedWiFi_IT_Research_DM11_1_Advance_your_business__through_technology__0_Layer0_0_MEMBER_28_FILL">
<path fill="#D82C26" stroke="none" d="
M 60.95 14.3
L 60.8 13.65
Q 60.55 13.9 59.95 14.2 59.5 14.35 58.95 14.35 58.2 14.35 57.7 14 57.15 13.75 56.85 13.1 56.55 12.6 56.55 11.85 56.55 11.15 56.85 10.6 57.15 10 57.7 9.65 58.3 9.3 58.9 9.3 59.25 9.3 59.85 9.5 60.3 9.65 60.6 9.95
L 60.95 9.4
Q 60.5 9 60.05 8.9 59.5 8.7 58.9 8.7 57.95 8.7 57.3 9.1 56.55 9.5 56.2 10.25 55.8 10.85 55.8 11.85 55.8 12.85 56.2 13.5 56.6 14.25 57.3 14.6 58 15 58.9 15 59.5 15 60.05 14.8 60.65 14.55 60.95 14.3 Z"/>
</g>

<g id="IT_640x480_psd_Asset_3_ManagedWiFi_IT_Research_DM11_1_Advance_your_business__through_technology__0_Layer0_0_MEMBER_29_FILL">
<path fill="#D82C26" stroke="none" d="
M 62.65 5.15
L 61.9 5.25 61.9 14.85 62.65 14.85 62.65 11.95
Q 62.65 11.15 62.9 10.5 63.25 9.9 63.6 9.65 64.15 9.3 64.6 9.3 65.55 9.3 65.9 9.9 66.25 10.6 66.25 11.4
L 66.25 14.85 67 14.85 67 11.2
Q 67 10.2 66.45 9.4 65.9 8.7 64.8 8.7 64.15 8.7 63.5 9.1 62.95 9.45 62.7 10.15
L 62.65 10.15 62.65 5.15 Z"/>
</g>

<g id="IT_640x480_psd_Asset_3_ManagedWiFi_IT_Research_DM11_1_Advance_your_business__through_technology__0_Layer0_0_MEMBER_30_FILL">
<path fill="#D82C26" stroke="none" d="
M 73.2 9.4
Q 72.6 8.7 71.5 8.7 70.85 8.7 70.2 9.1 69.65 9.45 69.35 10.15
L 69.3 8.9 68.6 8.9 68.65 14.85 69.4 14.85 69.4 11.8
Q 69.4 10.95 69.65 10.45 69.9 9.9 70.35 9.6 70.8 9.3 71.35 9.3 72.25 9.3 72.6 9.9 72.95 10.45 72.95 11.4
L 72.95 14.85 73.7 14.85 73.7 11.2
Q 73.7 10.1 73.2 9.4 Z"/>
</g>

<g id="IT_640x480_psd_Asset_3_ManagedWiFi_IT_Research_DM11_1_Advance_your_business__through_technology__0_Layer0_0_MEMBER_31_FILL">
<path fill="#D82C26" stroke="none" d="
M 75.4 10.2
Q 74.95 10.95 74.95 11.85 74.95 12.8 75.4 13.45 75.75 14.2 76.5 14.6 77.3 15 78.15 15 78.95 15 79.75 14.6 80.4 14.25 80.9 13.45 81.3 12.75 81.3 11.85 81.3 11 80.9 10.2 80.4 9.4 79.75 9.1 79.1 8.7 78.15 8.7 77.15 8.7 76.5 9.1 75.8 9.5 75.4 10.2
M 80.25 10.55
Q 80.55 11.15 80.55 11.85 80.55 12.5 80.25 13.1 79.95 13.7 79.4 14.05 78.9 14.35 78.15 14.35 77.4 14.35 76.85 14.05 76.25 13.65 76 13.1 75.7 12.5 75.7 11.85 75.7 11.15 76 10.55 76.3 10.05 76.85 9.65 77.45 9.3 78.15 9.3 78.8 9.3 79.4 9.65 79.95 10.05 80.25 10.55 Z"/>
</g>

<g id="IT_640x480_psd_Asset_3_ManagedWiFi_IT_Research_DM11_1_Advance_your_business__through_technology__0_Layer0_0_MEMBER_32_FILL">
<path fill="#D82C26" stroke="none" d="
M 82.85 14.45
Q 83.15 14.8 83.55 14.95
L 83.9 14.35 83.45 14 83.35 13.35 83.35 5.15 82.6 5.3 82.6 13.5
Q 82.6 14.05 82.85 14.45 Z"/>
</g>

<g id="IT_640x480_psd_Asset_3_ManagedWiFi_IT_Research_DM11_1_Advance_your_business__through_technology__0_Layer0_0_MEMBER_33_FILL">
<path fill="#D82C26" stroke="none" d="
M 85.05 10.2
Q 84.65 11 84.65 11.85 84.65 12.75 85.05 13.45 85.5 14.2 86.2 14.6 87 15 87.85 15 88.65 15 89.45 14.6 90.1 14.25 90.6 13.45 91 12.75 91 11.85 91 11 90.6 10.2 90.1 9.4 89.45 9.1 88.8 8.7 87.85 8.7 86.85 8.7 86.2 9.1 85.55 9.45 85.05 10.2
M 85.4 11.85
Q 85.4 11.15 85.7 10.55 86 10.05 86.55 9.65 87.15 9.3 87.85 9.3 88.5 9.3 89.1 9.65 89.65 10.05 89.95 10.55 90.25 11.15 90.25 11.85 90.25 12.5 89.95 13.1 89.65 13.7 89.1 14.05 88.6 14.35 87.85 14.35 87.1 14.35 86.55 14.05 85.95 13.65 85.7 13.1 85.4 12.5 85.4 11.85 Z"/>
</g>

<g id="IT_640x480_psd_Asset_3_ManagedWiFi_IT_Research_DM11_1_Advance_your_business__through_technology__0_Layer0_0_MEMBER_34_FILL">
<path fill="#D82C26" stroke="none" d="
M 94.9 8.7
Q 94.05 8.7 93.35 9.1 92.7 9.55 92.3 10.25 91.9 11.05 91.9 11.85 91.9 12.7 92.3 13.4 92.65 14.1 93.35 14.55 94.05 14.95 94.9 14.95 95.65 14.95 96.35 14.55 97 14.15 97.3 13.5
L 97.35 13.5 97.35 14.75
Q 97.35 15.9 96.75 16.65 96.15 17.3 94.9 17.3 94.15 17.3 93.6 17.1 93.15 16.95 92.45 16.55
L 92.3 17.25
Q 92.95 17.65 93.5 17.75 94.1 17.95 94.9 17.95 96.55 17.95 97.3 17.1 98.1 16.25 98.1 14.75
L 98.1 8.9 97.4 8.9 97.35 10.2
Q 97 9.5 96.3 9.1 95.65 8.7 94.9 8.7
M 93.75 9.65
Q 94.45 9.3 95 9.3 95.6 9.3 96.2 9.65 96.75 10 97.05 10.6 97.35 11.15 97.35 11.85 97.35 12.5 97.05 13.1 96.7 13.7 96.2 14 95.6 14.35 95 14.35 94.45 14.35 93.75 14 93.25 13.65 92.95 13.1 92.65 12.5 92.65 11.85 92.65 11.15 92.95 10.6 93.25 10 93.75 9.65 Z"/>
</g>

<g id="IT_640x480_psd_Asset_3_ManagedWiFi_IT_Research_DM11_1_Advance_your_business__through_technology__0_Layer0_0_MEMBER_35_FILL">
<path fill="#D82C26" stroke="none" d="
M 101.7 16.35
L 104.5 8.9 103.7 8.9 101.9 14.05 99.85 8.9 99 8.9 101.5 14.9 101.05 16.1
Q 100.8 16.75 100.45 16.95 99.95 17.2 99.35 17.2
L 99.55 17.9
Q 100.45 17.8 100.9 17.5 101.4 17.15 101.7 16.35 Z"/>
</g>

<g id="IT_640x480_psd_Asset_3_ManagedWiFi_IT_Research_DM11_1_Advance_your_business__through_technology__0_Layer0_0_MEMBER_36_FILL">
<path fill="#D82C26" stroke="none" d="
M 113.6 14.75
Q 113.75 14.9 113.95 14.9 114.2 14.9 114.35 14.75 114.55 14.6 114.55 14.35 114.55 14.15 114.4 13.9 114.2 13.75 113.95 13.75 113.75 13.75 113.6 13.95 113.4 14.1 113.4 14.35 113.4 14.6 113.6 14.75
M 105.5 14.9
Q 105.7 14.9 105.9 14.75 106.05 14.6 106.05 14.35 106.05 14.15 105.9 13.9 105.7 13.75 105.5 13.75 105.25 13.75 105.1 13.95 104.9 14.1 104.9 14.35 104.9 14.6 105.1 14.75 105.25 14.9 105.5 14.9
M 109.35 14.75
Q 109.5 14.9 109.75 14.9 109.95 14.9 110.15 14.75 110.3 14.6 110.3 14.35 110.3 14.15 110.15 13.9 109.95 13.75 109.75 13.75 109.5 13.75 109.35 13.95 109.15 14.1 109.15 14.35 109.15 14.6 109.35 14.75 Z"/>
</g>
</defs>

<g transform="matrix( 1, 0, 0, 1, -13,3) ">
<g transform="matrix( 1, 0, 0, 1, 7,26) ">
<g transform="matrix( 1, 0, 0, 1, 53,10) ">
<g transform="matrix( 2.815704345703125, 0, 0, 2.832611083984375, 0.15,27.6) ">
<use xlink:href="#IT_640x480_psd_Asset_3_ManagedWiFi_IT_Research_DM11_1_Advance_your_business__through_technology__0_Layer0_0_MEMBER_0_FILL"/>
</g>

<g transform="matrix( 2.815704345703125, 0, 0, 2.832611083984375, 0.15,27.6) ">
<use xlink:href="#IT_640x480_psd_Asset_3_ManagedWiFi_IT_Research_DM11_1_Advance_your_business__through_technology__0_Layer0_0_MEMBER_1_FILL"/>
</g>

<g transform="matrix( 2.815704345703125, 0, 0, 2.832611083984375, 0.15,27.6) ">
<use xlink:href="#IT_640x480_psd_Asset_3_ManagedWiFi_IT_Research_DM11_1_Advance_your_business__through_technology__0_Layer0_0_MEMBER_2_FILL"/>
</g>

<g transform="matrix( 2.815704345703125, 0, 0, 2.832611083984375, 0.15,27.6) ">
<use xlink:href="#IT_640x480_psd_Asset_3_ManagedWiFi_IT_Research_DM11_1_Advance_your_business__through_technology__0_Layer0_0_MEMBER_3_FILL"/>
</g>

<g transform="matrix( 2.815704345703125, 0, 0, 2.832611083984375, 0.15,27.6) ">
<use xlink:href="#IT_640x480_psd_Asset_3_ManagedWiFi_IT_Research_DM11_1_Advance_your_business__through_technology__0_Layer0_0_MEMBER_4_FILL"/>
</g>

<g transform="matrix( 2.815704345703125, 0, 0, 2.832611083984375, 0.15,27.6) ">
<use xlink:href="#IT_640x480_psd_Asset_3_ManagedWiFi_IT_Research_DM11_1_Advance_your_business__through_technology__0_Layer0_0_MEMBER_5_FILL"/>
</g>

<g transform="matrix( 2.815704345703125, 0, 0, 2.832611083984375, 0.15,27.6) ">
<use xlink:href="#IT_640x480_psd_Asset_3_ManagedWiFi_IT_Research_DM11_1_Advance_your_business__through_technology__0_Layer0_0_MEMBER_6_FILL"/>
</g>

<g transform="matrix( 2.815704345703125, 0, 0, 2.832611083984375, 0.15,27.6) ">
<use xlink:href="#IT_640x480_psd_Asset_3_ManagedWiFi_IT_Research_DM11_1_Advance_your_business__through_technology__0_Layer0_0_MEMBER_7_FILL"/>
</g>

<g transform="matrix( 2.815704345703125, 0, 0, 2.832611083984375, 0.15,27.6) ">
<use xlink:href="#IT_640x480_psd_Asset_3_ManagedWiFi_IT_Research_DM11_1_Advance_your_business__through_technology__0_Layer0_0_MEMBER_8_FILL"/>
</g>

<g transform="matrix( 2.815704345703125, 0, 0, 2.832611083984375, 0.15,27.6) ">
<use xlink:href="#IT_640x480_psd_Asset_3_ManagedWiFi_IT_Research_DM11_1_Advance_your_business__through_technology__0_Layer0_0_MEMBER_9_FILL"/>
</g>

<g transform="matrix( 2.815704345703125, 0, 0, 2.832611083984375, 0.15,27.6) ">
<use xlink:href="#IT_640x480_psd_Asset_3_ManagedWiFi_IT_Research_DM11_1_Advance_your_business__through_technology__0_Layer0_0_MEMBER_10_FILL"/>
</g>

<g transform="matrix( 2.815704345703125, 0, 0, 2.832611083984375, 0.15,27.6) ">
<use xlink:href="#IT_640x480_psd_Asset_3_ManagedWiFi_IT_Research_DM11_1_Advance_your_business__through_technology__0_Layer0_0_MEMBER_11_FILL"/>
</g>

<g transform="matrix( 2.815704345703125, 0, 0, 2.832611083984375, 0.15,27.6) ">
<use xlink:href="#IT_640x480_psd_Asset_3_ManagedWiFi_IT_Research_DM11_1_Advance_your_business__through_technology__0_Layer0_0_MEMBER_12_FILL"/>
</g>

<g transform="matrix( 2.815704345703125, 0, 0, 2.832611083984375, 0.15,27.6) ">
<use xlink:href="#IT_640x480_psd_Asset_3_ManagedWiFi_IT_Research_DM11_1_Advance_your_business__through_technology__0_Layer0_0_MEMBER_13_FILL"/>
</g>

<g transform="matrix( 2.815704345703125, 0, 0, 2.832611083984375, 0.15,27.6) ">
<use xlink:href="#IT_640x480_psd_Asset_3_ManagedWiFi_IT_Research_DM11_1_Advance_your_business__through_technology__0_Layer0_0_MEMBER_14_FILL"/>
</g>

<g transform="matrix( 2.815704345703125, 0, 0, 2.832611083984375, 0.15,27.6) ">
<use xlink:href="#IT_640x480_psd_Asset_3_ManagedWiFi_IT_Research_DM11_1_Advance_your_business__through_technology__0_Layer0_0_MEMBER_15_FILL"/>
</g>

<g transform="matrix( 2.815704345703125, 0, 0, 2.832611083984375, 0.15,27.6) ">
<use xlink:href="#IT_640x480_psd_Asset_3_ManagedWiFi_IT_Research_DM11_1_Advance_your_business__through_technology__0_Layer0_0_MEMBER_16_FILL"/>
</g>

<g transform="matrix( 2.815704345703125, 0, 0, 2.832611083984375, 0.15,27.6) ">
<use xlink:href="#IT_640x480_psd_Asset_3_ManagedWiFi_IT_Research_DM11_1_Advance_your_business__through_technology__0_Layer0_0_MEMBER_17_FILL"/>
</g>

<g transform="matrix( 2.815704345703125, 0, 0, 2.832611083984375, 0.15,27.6) ">
<use xlink:href="#IT_640x480_psd_Asset_3_ManagedWiFi_IT_Research_DM11_1_Advance_your_business__through_technology__0_Layer0_0_MEMBER_18_FILL"/>
</g>

<g transform="matrix( 2.815704345703125, 0, 0, 2.832611083984375, 0.15,27.6) ">
<use xlink:href="#IT_640x480_psd_Asset_3_ManagedWiFi_IT_Research_DM11_1_Advance_your_business__through_technology__0_Layer0_0_MEMBER_19_FILL"/>
</g>

<g transform="matrix( 2.815704345703125, 0, 0, 2.832611083984375, 0.15,27.6) ">
<use xlink:href="#IT_640x480_psd_Asset_3_ManagedWiFi_IT_Research_DM11_1_Advance_your_business__through_technology__0_Layer0_0_MEMBER_20_FILL"/>
</g>

<g transform="matrix( 2.815704345703125, 0, 0, 2.832611083984375, 0.15,27.6) ">
<use xlink:href="#IT_640x480_psd_Asset_3_ManagedWiFi_IT_Research_DM11_1_Advance_your_business__through_technology__0_Layer0_0_MEMBER_21_FILL"/>
</g>

<g transform="matrix( 2.815704345703125, 0, 0, 2.832611083984375, 0.15,27.6) ">
<use xlink:href="#IT_640x480_psd_Asset_3_ManagedWiFi_IT_Research_DM11_1_Advance_your_business__through_technology__0_Layer0_0_MEMBER_22_FILL"/>
</g>

<g transform="matrix( 2.815704345703125, 0, 0, 2.832611083984375, 0.15,27.6) ">
<use xlink:href="#IT_640x480_psd_Asset_3_ManagedWiFi_IT_Research_DM11_1_Advance_your_business__through_technology__0_Layer0_0_MEMBER_23_FILL"/>
</g>

<g transform="matrix( 2.815704345703125, 0, 0, 2.832611083984375, 0.15,27.6) ">
<use xlink:href="#IT_640x480_psd_Asset_3_ManagedWiFi_IT_Research_DM11_1_Advance_your_business__through_technology__0_Layer0_0_MEMBER_24_FILL"/>
</g>

<g transform="matrix( 2.815704345703125, 0, 0, 2.832611083984375, 0.15,27.6) ">
<use xlink:href="#IT_640x480_psd_Asset_3_ManagedWiFi_IT_Research_DM11_1_Advance_your_business__through_technology__0_Layer0_0_MEMBER_25_FILL"/>
</g>

<g transform="matrix( 2.815704345703125, 0, 0, 2.832611083984375, 0.15,27.6) ">
<use xlink:href="#IT_640x480_psd_Asset_3_ManagedWiFi_IT_Research_DM11_1_Advance_your_business__through_technology__0_Layer0_0_MEMBER_26_FILL"/>
</g>

<g transform="matrix( 2.815704345703125, 0, 0, 2.832611083984375, 0.15,27.6) ">
<use xlink:href="#IT_640x480_psd_Asset_3_ManagedWiFi_IT_Research_DM11_1_Advance_your_business__through_technology__0_Layer0_0_MEMBER_27_FILL"/>
</g>

<g transform="matrix( 2.815704345703125, 0, 0, 2.832611083984375, 0.15,27.6) ">
<use xlink:href="#IT_640x480_psd_Asset_3_ManagedWiFi_IT_Research_DM11_1_Advance_your_business__through_technology__0_Layer0_0_MEMBER_28_FILL"/>
</g>

<g transform="matrix( 2.815704345703125, 0, 0, 2.832611083984375, 0.15,27.6) ">
<use xlink:href="#IT_640x480_psd_Asset_3_ManagedWiFi_IT_Research_DM11_1_Advance_your_business__through_technology__0_Layer0_0_MEMBER_29_FILL"/>
</g>

<g transform="matrix( 2.815704345703125, 0, 0, 2.832611083984375, 0.15,27.6) ">
<use xlink:href="#IT_640x480_psd_Asset_3_ManagedWiFi_IT_Research_DM11_1_Advance_your_business__through_technology__0_Layer0_0_MEMBER_30_FILL"/>
</g>

<g transform="matrix( 2.815704345703125, 0, 0, 2.832611083984375, 0.15,27.6) ">
<use xlink:href="#IT_640x480_psd_Asset_3_ManagedWiFi_IT_Research_DM11_1_Advance_your_business__through_technology__0_Layer0_0_MEMBER_31_FILL"/>
</g>

<g transform="matrix( 2.815704345703125, 0, 0, 2.832611083984375, 0.15,27.6) ">
<use xlink:href="#IT_640x480_psd_Asset_3_ManagedWiFi_IT_Research_DM11_1_Advance_your_business__through_technology__0_Layer0_0_MEMBER_32_FILL"/>
</g>

<g transform="matrix( 2.815704345703125, 0, 0, 2.832611083984375, 0.15,27.6) ">
<use xlink:href="#IT_640x480_psd_Asset_3_ManagedWiFi_IT_Research_DM11_1_Advance_your_business__through_technology__0_Layer0_0_MEMBER_33_FILL"/>
</g>

<g transform="matrix( 2.815704345703125, 0, 0, 2.832611083984375, 0.15,27.6) ">
<use xlink:href="#IT_640x480_psd_Asset_3_ManagedWiFi_IT_Research_DM11_1_Advance_your_business__through_technology__0_Layer0_0_MEMBER_34_FILL"/>
</g>

<g transform="matrix( 2.815704345703125, 0, 0, 2.832611083984375, 0.15,27.6) ">
<use xlink:href="#IT_640x480_psd_Asset_3_ManagedWiFi_IT_Research_DM11_1_Advance_your_business__through_technology__0_Layer0_0_MEMBER_35_FILL"/>
</g>

<g transform="matrix( 2.815704345703125, 0, 0, 2.832611083984375, 0.15,27.6) ">
<use xlink:href="#IT_640x480_psd_Asset_3_ManagedWiFi_IT_Research_DM11_1_Advance_your_business__through_technology__0_Layer0_0_MEMBER_36_FILL"/>
</g>
</g>
</g>
</g>
</svg>
