
<svg xmlns="http://www.w3.org/2000/svg" version="1.1" xmlns:xlink="http://www.w3.org/1999/xlink" preserveAspectRatio="none" x="0px" y="0px" width="728px" height="90px" viewBox="0 0 728 90">
<defs>
<g id="IT_728x90_FR_psd_Asset_V7_1_Votre_entreprise_a_t_elle_du_mal____assurer_la_s_curit__de_son__0_Layer0_0_MEMBER_0_FILL">
<path fill="#D82C26" stroke="none" d="
M 0.7 -6.6
L 0.05 -6.6 2.6 0 3.25 0 5.75 -6.6 5.15 -6.6 2.9 -0.65 0.7 -6.6 Z"/>
</g>

<g id="IT_728x90_FR_psd_Asset_V7_1_Votre_entreprise_a_t_elle_du_mal____assurer_la_s_curit__de_son__0_Layer0_0_MEMBER_1_FILL">
<path fill="#D82C26" stroke="none" d="
M 9.45 -4.2
Q 8.95 -4.5 8.3 -4.5 7.65 -4.5 7.1 -4.2 6.6 -4 6.25 -3.4 5.95 -2.85 5.95 -2.2 5.95 -1.5 6.25 -1 6.55 -0.45 7.1 -0.15 7.65 0.15 8.3 0.15 8.95 0.15 9.45 -0.15 9.95 -0.4 10.3 -1 10.6 -1.5 10.6 -2.2 10.6 -2.85 10.3 -3.4 9.95 -4 9.45 -4.2
M 9.2 -3.8
Q 9.55 -3.6 9.85 -3.15 10.05 -2.75 10.05 -2.2 10.05 -1.65 9.85 -1.25 9.6 -0.8 9.25 -0.6 8.9 -0.35 8.3 -0.35 7.65 -0.35 7.35 -0.6 7 -0.8 6.7 -1.25 6.5 -1.65 6.5 -2.2 6.5 -2.75 6.7 -3.15 7 -3.6 7.35 -3.8 7.75 -4.05 8.3 -4.05 8.8 -4.05 9.2 -3.8 Z"/>
</g>

<g id="IT_728x90_FR_psd_Asset_V7_1_Votre_entreprise_a_t_elle_du_mal____assurer_la_s_curit__de_son__0_Layer0_0_MEMBER_2_FILL">
<path fill="#D82C26" stroke="none" d="
M 13.65 -3.95
L 13.8 -4.4 12.55 -4.4 12.55 -5.65 12 -5.45 12 -4.4 11.3 -4.4 11.15 -3.95 12 -3.95 12 -1.05
Q 12 -0.55 12.25 -0.2 12.55 0.1 13 0.1
L 13.5 0.05 13.95 -0.15 13.9 -0.55
Q 13.5 -0.35 13.15 -0.35 12.9 -0.35 12.7 -0.55 12.55 -0.7 12.55 -1.15
L 12.55 -3.95 13.65 -3.95 Z"/>
</g>

<g id="IT_728x90_FR_psd_Asset_V7_1_Votre_entreprise_a_t_elle_du_mal____assurer_la_s_curit__de_son__0_Layer0_0_MEMBER_3_FILL">
<path fill="#D82C26" stroke="none" d="
M 15.5 -3.45
L 15.5 -4.4 14.95 -4.4 15 0 15.55 0 15.55 -2.2
Q 15.55 -3 15.9 -3.5 16.2 -4 16.8 -4
L 17.2 -3.95 17.3 -4.45 16.8 -4.5
Q 16.45 -4.5 16.05 -4.2 15.7 -3.95 15.55 -3.45
L 15.5 -3.45 Z"/>
</g>

<g id="IT_728x90_FR_psd_Asset_V7_1_Votre_entreprise_a_t_elle_du_mal____assurer_la_s_curit__de_son__0_Layer0_0_MEMBER_4_FILL">
<path fill="#D82C26" stroke="none" d="
M 19.95 -4.5
Q 19.3 -4.5 18.85 -4.2 18.4 -4 18.05 -3.4 17.8 -2.95 17.8 -2.2 17.8 -1.45 18.05 -1 18.35 -0.5 18.85 -0.15 19.4 0.15 20 0.15 21.05 0.15 21.75 -0.4
L 21.7 -0.9
Q 21.35 -0.65 20.95 -0.5 20.6 -0.3 20.05 -0.3 19.65 -0.3 19.15 -0.55 18.8 -0.75 18.55 -1.2 18.3 -1.7 18.3 -2.1
L 22 -2.1 22.05 -2.35
Q 22.05 -2.85 21.8 -3.45 21.55 -3.95 21.05 -4.25 20.55 -4.5 19.95 -4.5
M 19.1 -3.85
Q 19.5 -4.1 19.95 -4.1 20.7 -4.1 21.05 -3.65 21.5 -3.2 21.5 -2.5
L 18.3 -2.5
Q 18.4 -3 18.55 -3.25 18.7 -3.5 19.1 -3.85 Z"/>
</g>

<g id="IT_728x90_FR_psd_Asset_V7_1_Votre_entreprise_a_t_elle_du_mal____assurer_la_s_curit__de_son__0_Layer0_0_MEMBER_5_FILL">
<path fill="#D82C26" stroke="none" d="
M 29.25 -3.45
Q 29 -3.95 28.55 -4.25 27.95 -4.5 27.4 -4.5 26.85 -4.5 26.3 -4.2 25.85 -4 25.5 -3.4 25.25 -2.8 25.25 -2.2 25.25 -1.6 25.5 -1 25.8 -0.5 26.3 -0.15 26.85 0.15 27.5 0.15 28.45 0.15 29.25 -0.4
L 29.15 -0.9
Q 28.8 -0.65 28.4 -0.5 28.05 -0.3 27.5 -0.3 27.1 -0.3 26.6 -0.55 26.25 -0.75 26 -1.2 25.75 -1.7 25.75 -2.1
L 29.5 -2.1 29.5 -2.35
Q 29.5 -2.85 29.25 -3.45
M 26.55 -3.85
Q 26.95 -4.1 27.4 -4.1 28.1 -4.1 28.55 -3.65 28.95 -3.15 28.95 -2.5
L 25.8 -2.5
Q 25.8 -2.9 26 -3.25 26.15 -3.5 26.55 -3.85 Z"/>
</g>

<g id="IT_728x90_FR_psd_Asset_V7_1_Votre_entreprise_a_t_elle_du_mal____assurer_la_s_curit__de_son__0_Layer0_0_MEMBER_6_FILL">
<path fill="#D82C26" stroke="none" d="
M 34.2 -4
Q 33.85 -4.5 32.95 -4.5 32.45 -4.5 32 -4.2 31.55 -3.9 31.4 -3.45
L 31.35 -3.45 31.3 -4.4 30.8 -4.4 30.85 0 31.4 0 31.4 -2.25
Q 31.4 -2.85 31.6 -3.2 31.7 -3.55 32.1 -3.85 32.45 -4.05 32.85 -4.05 33.55 -4.05 33.75 -3.6 34.05 -3.2 34.05 -2.55
L 34.05 0 34.6 0 34.6 -2.7
Q 34.6 -3.45 34.2 -4 Z"/>
</g>

<g id="IT_728x90_FR_psd_Asset_V7_1_Votre_entreprise_a_t_elle_du_mal____assurer_la_s_curit__de_son__0_Layer0_0_MEMBER_7_FILL">
<path fill="#D82C26" stroke="none" d="
M 35.45 -3.95
L 36.3 -3.95 36.3 -1.05
Q 36.3 -0.55 36.55 -0.2 36.85 0.1 37.3 0.1
L 37.8 0.05 38.25 -0.15 38.15 -0.55
Q 37.8 -0.35 37.45 -0.35 37.15 -0.35 37 -0.55 36.85 -0.7 36.85 -1.15
L 36.85 -3.95 37.95 -3.95 38.05 -4.4 36.85 -4.4 36.85 -5.65 36.3 -5.45 36.3 -4.4 35.6 -4.4 35.45 -3.95 Z"/>
</g>

<g id="IT_728x90_FR_psd_Asset_V7_1_Votre_entreprise_a_t_elle_du_mal____assurer_la_s_curit__de_son__0_Layer0_0_MEMBER_8_FILL">
<path fill="#D82C26" stroke="none" d="
M 39.75 -4.4
L 39.25 -4.4 39.3 0 39.85 0 39.85 -2.2
Q 39.85 -2.95 40.15 -3.5 40.5 -4 41.1 -4
L 41.45 -3.95 41.6 -4.45 41.1 -4.5
Q 40.75 -4.5 40.35 -4.2 40.05 -4 39.85 -3.45
L 39.8 -3.45 39.75 -4.4 Z"/>
</g>

<g id="IT_728x90_FR_psd_Asset_V7_1_Votre_entreprise_a_t_elle_du_mal____assurer_la_s_curit__de_son__0_Layer0_0_MEMBER_9_FILL">
<path fill="#D82C26" stroke="none" d="
M 45.35 -4.25
Q 44.85 -4.5 44.25 -4.5 43.6 -4.5 43.15 -4.2 42.7 -4 42.35 -3.4 42.05 -2.85 42.05 -2.2 42.05 -1.5 42.35 -1 42.7 -0.4 43.15 -0.15 43.7 0.15 44.3 0.15 45.35 0.15 46.05 -0.4
L 45.95 -0.9
Q 45.7 -0.65 45.25 -0.5 44.9 -0.3 44.35 -0.3 43.85 -0.3 43.45 -0.55 43.1 -0.75 42.85 -1.2 42.6 -1.7 42.6 -2.1
L 46.3 -2.1 46.35 -2.35
Q 46.35 -2.85 46.1 -3.45 45.7 -4.05 45.35 -4.25
M 44.25 -4.1
Q 45 -4.1 45.35 -3.65 45.8 -3.2 45.8 -2.5
L 42.6 -2.5
Q 42.6 -2.75 42.8 -3.25
L 43.4 -3.85
Q 43.75 -4.1 44.25 -4.1 Z"/>
</g>

<g id="IT_728x90_FR_psd_Asset_V7_1_Votre_entreprise_a_t_elle_du_mal____assurer_la_s_curit__de_son__0_Layer0_0_MEMBER_10_FILL">
<path fill="#D82C26" stroke="none" d="
M 48.2 -3.4
L 48.15 -4.4 47.65 -4.4 47.65 2.25 48.2 2.25 48.2 -0.95 48.25 -0.95
Q 48.45 -0.5 48.95 -0.15 49.4 0.1 50 0.1 50.65 0.1 51.15 -0.2 51.65 -0.5 51.95 -1 52.2 -1.6 52.2 -2.2 52.2 -2.75 51.95 -3.35 51.6 -3.95 51.15 -4.2 50.65 -4.5 50 -4.5 49.5 -4.5 48.95 -4.2 48.5 -3.95 48.25 -3.4
L 48.2 -3.4
M 49.05 -3.8
Q 49.45 -4.05 49.95 -4.05 50.45 -4.05 50.85 -3.8 51.2 -3.6 51.45 -3.1 51.65 -2.75 51.65 -2.2 51.65 -1.65 51.45 -1.25 51.25 -0.85 50.85 -0.6 50.55 -0.35 49.95 -0.35 49.35 -0.35 49.05 -0.6 48.65 -0.85 48.4 -1.25 48.2 -1.65 48.2 -2.2 48.2 -2.75 48.4 -3.1 48.6 -3.55 49.05 -3.8 Z"/>
</g>

<g id="IT_728x90_FR_psd_Asset_V7_1_Votre_entreprise_a_t_elle_du_mal____assurer_la_s_curit__de_son__0_Layer0_0_MEMBER_11_FILL">
<path fill="#D82C26" stroke="none" d="
M 54.15 -2.2
Q 54.15 -2.95 54.45 -3.5 54.8 -4 55.35 -4
L 55.75 -3.95 55.85 -4.45 55.4 -4.5
Q 55.05 -4.5 54.65 -4.2 54.4 -4.05 54.1 -3.45
L 54.05 -4.4 53.55 -4.4 53.6 0 54.15 0 54.15 -2.2 Z"/>
</g>

<g id="IT_728x90_FR_psd_Asset_V7_1_Votre_entreprise_a_t_elle_du_mal____assurer_la_s_curit__de_son__0_Layer0_0_MEMBER_12_FILL">
<path fill="#D82C26" stroke="none" d="
M 57.4 -4.4
L 56.85 -4.4 56.85 0 57.4 0 57.4 -4.4
M 57.4 -6.4
Q 57.35 -6.55 57.15 -6.55
L 56.85 -6.4 56.75 -6.15 56.85 -5.85
Q 56.95 -5.75 57.15 -5.75 57.35 -5.75 57.4 -5.85 57.55 -6 57.55 -6.15 57.55 -6.3 57.4 -6.4 Z"/>
</g>

<g id="IT_728x90_FR_psd_Asset_V7_1_Votre_entreprise_a_t_elle_du_mal____assurer_la_s_curit__de_son__0_Layer0_0_MEMBER_13_FILL">
<path fill="#D82C26" stroke="none" d="
M 59.6 -3.9
Q 59.9 -4.1 60.25 -4.1 60.6 -4.1 60.9 -3.95 61 -3.95 61.4 -3.65
L 61.65 -4.05
Q 61.45 -4.25 61.05 -4.4
L 60.25 -4.5 59.55 -4.4
Q 59.2 -4.25 59 -3.95 58.8 -3.75 58.8 -3.3 58.8 -2.85 59.1 -2.55 59.4 -2.25 60.05 -2.1
L 60.95 -1.65
Q 61.25 -1.5 61.25 -1.15 61.25 -0.75 60.95 -0.55 60.6 -0.3 60.25 -0.3 59.45 -0.3 58.8 -0.85
L 58.7 -0.35 59.4 0
Q 59.65 0.1 60.3 0.1
L 61 0
Q 61.3 -0.1 61.55 -0.45 61.75 -0.7 61.75 -1.15 61.75 -1.65 61.45 -1.95 61.05 -2.25 60.45 -2.45 59.8 -2.65 59.55 -2.85 59.3 -3 59.3 -3.35 59.3 -3.65 59.6 -3.9 Z"/>
</g>

<g id="IT_728x90_FR_psd_Asset_V7_1_Votre_entreprise_a_t_elle_du_mal____assurer_la_s_curit__de_son__0_Layer0_0_MEMBER_14_FILL">
<path fill="#D82C26" stroke="none" d="
M 64.95 -4.5
Q 64.3 -4.5 63.85 -4.2 63.4 -4 63.05 -3.4 62.75 -2.85 62.75 -2.2 62.75 -1.5 63.05 -1 63.4 -0.4 63.85 -0.15 64.4 0.15 65 0.15 66.05 0.15 66.75 -0.4
L 66.7 -0.9
Q 66.35 -0.65 65.95 -0.5 65.6 -0.3 65.05 -0.3 64.65 -0.3 64.15 -0.55 63.8 -0.75 63.55 -1.2 63.3 -1.7 63.3 -2.1
L 67 -2.1 67.05 -2.35
Q 67.05 -2.85 66.8 -3.45 66.55 -3.95 66.05 -4.25 65.55 -4.5 64.95 -4.5
M 64.1 -3.85
Q 64.5 -4.1 64.95 -4.1 65.7 -4.1 66.05 -3.65 66.5 -3.2 66.5 -2.5
L 63.3 -2.5
Q 63.4 -3 63.55 -3.25 63.7 -3.5 64.1 -3.85 Z"/>
</g>

<g id="IT_728x90_FR_psd_Asset_V7_1_Votre_entreprise_a_t_elle_du_mal____assurer_la_s_curit__de_son__0_Layer0_0_MEMBER_15_FILL">
<path fill="#D82C26" stroke="none" d="
M 70.25 -1.2
Q 70.25 -0.5 70.65 -0.2 71.1 0.1 71.65 0.1 72.3 0.1 72.65 -0.15 73.05 -0.35 73.3 -0.85
L 73.35 0 73.9 0 73.8 -0.95 73.8 -2.85
Q 73.8 -3.65 73.35 -4.1 72.95 -4.5 72.1 -4.5 71.65 -4.5 71.25 -4.35 70.85 -4.3 70.5 -3.95
L 70.65 -3.55 71.3 -3.9
Q 71.65 -4.1 72.05 -4.1 72.65 -4.1 72.95 -3.75 73.3 -3.45 73.3 -2.9
L 73.3 -2.65 72.75 -2.65
Q 70.25 -2.65 70.25 -1.2
M 72.85 -2.25
L 73.3 -2.25 73.3 -1.8
Q 73.3 -1.45 73.1 -1.1 72.95 -0.7 72.6 -0.5 72.25 -0.3 71.75 -0.3 71.3 -0.3 71.05 -0.5 70.75 -0.7 70.75 -1.2 70.75 -2.25 72.85 -2.25 Z"/>
</g>

<g id="IT_728x90_FR_psd_Asset_V7_1_Votre_entreprise_a_t_elle_du_mal____assurer_la_s_curit__de_son__0_Layer0_0_MEMBER_16_FILL">
<path fill="#D82C26" stroke="none" d="
M 75.2 -2.6
L 75.2 -2.15 77.1 -2.15 77.1 -2.6 75.2 -2.6 Z"/>
</g>

<g id="IT_728x90_FR_psd_Asset_V7_1_Votre_entreprise_a_t_elle_du_mal____assurer_la_s_curit__de_son__0_Layer0_0_MEMBER_17_FILL">
<path fill="#D82C26" stroke="none" d="
M 78.55 -5.45
L 78.55 -4.4 77.85 -4.4 77.7 -3.95 78.55 -3.95 78.55 -1.05
Q 78.55 -0.55 78.8 -0.2 79.1 0.1 79.55 0.1
L 80.05 0.05 80.5 -0.15 80.4 -0.55
Q 80.05 -0.35 79.7 -0.35 79.4 -0.35 79.25 -0.55 79.1 -0.7 79.1 -1.15
L 79.1 -3.95 80.2 -3.95 80.35 -4.4 79.1 -4.4 79.1 -5.65 78.55 -5.45 Z"/>
</g>

<g id="IT_728x90_FR_psd_Asset_V7_1_Votre_entreprise_a_t_elle_du_mal____assurer_la_s_curit__de_son__0_Layer0_0_MEMBER_18_FILL">
<path fill="#D82C26" stroke="none" d="
M 80.85 -2.6
L 80.85 -2.15 82.75 -2.15 82.75 -2.6 80.85 -2.6 Z"/>
</g>

<g id="IT_728x90_FR_psd_Asset_V7_1_Votre_entreprise_a_t_elle_du_mal____assurer_la_s_curit__de_son__0_Layer0_0_MEMBER_19_FILL">
<path fill="#D82C26" stroke="none" d="
M 84.25 -1
Q 84.6 -0.4 85.05 -0.15 85.6 0.15 86.2 0.15 87.15 0.15 87.95 -0.4
L 87.85 -0.9 87.15 -0.5
Q 86.75 -0.3 86.25 -0.3 85.75 -0.3 85.35 -0.55 84.95 -0.8 84.7 -1.2 84.5 -1.6 84.5 -2.1
L 88.2 -2.1 88.2 -2.35
Q 88.2 -3 87.95 -3.45 87.7 -3.95 87.25 -4.25 86.75 -4.5 86.1 -4.5 85.55 -4.5 85 -4.2 84.6 -4 84.25 -3.4 83.95 -2.85 83.95 -2.2 83.95 -1.5 84.25 -1
M 84.7 -3.25
Q 85 -3.65 85.25 -3.85 85.65 -4.1 86.1 -4.1 86.8 -4.1 87.25 -3.65 87.6 -3.3 87.7 -2.5
L 84.5 -2.5
Q 84.5 -2.75 84.7 -3.25 Z"/>
</g>

<g id="IT_728x90_FR_psd_Asset_V7_1_Votre_entreprise_a_t_elle_du_mal____assurer_la_s_curit__de_son__0_Layer0_0_MEMBER_20_FILL">
<path fill="#D82C26" stroke="none" d="
M 89.55 -0.95
Q 89.55 -0.5 89.75 -0.3 90 0.05 90.25 0.1
L 90.5 -0.35 90.2 -0.6 90.1 -1.1 90.1 -7.15 89.55 -7.05 89.55 -0.95 Z"/>
</g>

<g id="IT_728x90_FR_psd_Asset_V7_1_Votre_entreprise_a_t_elle_du_mal____assurer_la_s_curit__de_son__0_Layer0_0_MEMBER_21_FILL">
<path fill="#D82C26" stroke="none" d="
M 91.8 -0.95
Q 91.8 -0.5 92 -0.3 92.15 0 92.5 0.1
L 92.75 -0.35 92.4 -0.6 92.35 -1.1 92.35 -7.15 91.8 -7.05 91.8 -0.95 Z"/>
</g>

<g id="IT_728x90_FR_psd_Asset_V7_1_Votre_entreprise_a_t_elle_du_mal____assurer_la_s_curit__de_son__0_Layer0_0_MEMBER_22_FILL">
<path fill="#D82C26" stroke="none" d="
M 95.9 -4.5
Q 95.3 -4.5 94.75 -4.2 94.35 -4 94 -3.4 93.7 -2.85 93.7 -2.2 93.7 -1.5 94 -1 94.35 -0.4 94.8 -0.15 95.35 0.15 95.95 0.15 96.9 0.15 97.7 -0.4
L 97.6 -0.9
Q 97.2 -0.6 96.9 -0.5 96.5 -0.3 96 -0.3 95.5 -0.3 95.1 -0.55 94.7 -0.8 94.45 -1.2 94.25 -1.6 94.25 -2.1
L 97.95 -2.1 97.95 -2.35
Q 97.95 -3 97.7 -3.45 97.45 -3.95 97 -4.25 96.5 -4.5 95.9 -4.5
M 95 -3.85
Q 95.4 -4.1 95.9 -4.1 96.55 -4.1 97 -3.65 97.45 -3.2 97.45 -2.5
L 94.25 -2.5
Q 94.25 -2.75 94.45 -3.25 94.75 -3.65 95 -3.85 Z"/>
</g>

<g id="IT_728x90_FR_psd_Asset_V7_1_Votre_entreprise_a_t_elle_du_mal____assurer_la_s_curit__de_son__0_Layer0_0_MEMBER_23_FILL">
<path fill="#D82C26" stroke="none" d="
M 105.7 -7.2
L 105.15 -7.05 105.15 -3.45
Q 104.85 -3.95 104.4 -4.25 103.9 -4.5 103.35 -4.5 102.75 -4.5 102.2 -4.2 101.65 -3.85 101.45 -3.35 101.15 -2.8 101.15 -2.2 101.15 -1.5 101.45 -1 101.65 -0.6 102.2 -0.2 102.75 0.1 103.35 0.1 104.05 0.1 104.4 -0.15 104.85 -0.45 105.15 -0.95
L 105.2 0 105.75 0 105.7 -7.2
M 104.35 -3.8
Q 104.7 -3.6 104.95 -3.1 105.15 -2.75 105.15 -2.2 105.15 -1.65 104.95 -1.25 104.7 -0.8 104.35 -0.6 104 -0.35 103.45 -0.35 102.9 -0.35 102.5 -0.6 102.1 -0.85 101.9 -1.25 101.7 -1.85 101.7 -2.2 101.7 -2.6 101.9 -3.1 102.15 -3.6 102.5 -3.8 103 -4.05 103.45 -4.05 103.85 -4.05 104.35 -3.8 Z"/>
</g>

<g id="IT_728x90_FR_psd_Asset_V7_1_Votre_entreprise_a_t_elle_du_mal____assurer_la_s_curit__de_son__0_Layer0_0_MEMBER_24_FILL">
<path fill="#D82C26" stroke="none" d="
M 111.05 -4.4
L 110.5 -4.4 110.5 -2.2
Q 110.5 -1.6 110.3 -1.2 110.1 -0.75 109.8 -0.55 109.45 -0.35 109.05 -0.35 108.35 -0.35 108.1 -0.75 107.85 -1.25 107.85 -1.85
L 107.85 -4.4 107.3 -4.4 107.3 -1.7
Q 107.3 -0.85 107.7 -0.4 108.05 0.1 108.9 0.1 109.35 0.1 109.85 -0.15 110.3 -0.45 110.5 -0.95
L 110.6 0 111.1 0 111.05 -4.4 Z"/>
</g>

<g id="IT_728x90_FR_psd_Asset_V7_1_Votre_entreprise_a_t_elle_du_mal____assurer_la_s_curit__de_son__0_Layer0_0_MEMBER_25_FILL">
<path fill="#D82C26" stroke="none" d="
M 115.45 -4.4
L 114.95 -4.4 114.95 0 115.5 0 115.5 -2.2
Q 115.5 -2.6 115.7 -3.2 115.85 -3.6 116.2 -3.85 116.45 -4.05 116.9 -4.05 117.45 -4.05 117.7 -3.65 118 -3.25 118 -2.6
L 118 0 118.55 0 118.55 -2.25
Q 118.55 -3.1 118.95 -3.55 119.3 -4.05 119.95 -4.05 120.6 -4.05 120.8 -3.6 121.1 -3.15 121.1 -2.5
L 121.1 0 121.6 0 121.6 -2.65
Q 121.6 -3.45 121.25 -4 120.9 -4.5 120.05 -4.5 119.5 -4.5 119.05 -4.2 118.65 -3.9 118.45 -3.4 118.35 -3.8 117.95 -4.2 117.6 -4.5 117 -4.5 116.55 -4.5 116.1 -4.2 115.8 -4 115.5 -3.45
L 115.45 -4.4 Z"/>
</g>

<g id="IT_728x90_FR_psd_Asset_V7_1_Votre_entreprise_a_t_elle_du_mal____assurer_la_s_curit__de_son__0_Layer0_0_MEMBER_26_FILL">
<path fill="#D82C26" stroke="none" d="
M 124.7 -4.1
Q 125.3 -4.1 125.6 -3.75 125.95 -3.45 125.95 -2.9
L 125.95 -2.65 125.4 -2.65
Q 122.9 -2.65 122.9 -1.2 122.9 -0.5 123.35 -0.2 123.75 0.1 124.3 0.1 124.95 0.1 125.3 -0.15 125.7 -0.35 125.95 -0.85
L 126 -0.85 126 -0.4 126.05 0 126.55 0 126.45 -0.95 126.45 -2.85
Q 126.45 -3.6 126.05 -4.1 125.65 -4.5 124.8 -4.5 124.35 -4.5 123.9 -4.35 123.5 -4.3 123.15 -3.95
L 123.3 -3.55 123.95 -3.9
Q 124.35 -4.1 124.7 -4.1
M 123.75 -0.5
Q 123.45 -0.7 123.45 -1.2 123.45 -2.25 125.5 -2.25
L 125.95 -2.25 125.95 -1.8 125.8 -1.1
Q 125.55 -0.7 125.25 -0.5 125 -0.3 124.4 -0.3 123.95 -0.3 123.75 -0.5 Z"/>
</g>

<g id="IT_728x90_FR_psd_Asset_V7_1_Votre_entreprise_a_t_elle_du_mal____assurer_la_s_curit__de_son__0_Layer0_0_MEMBER_27_FILL">
<path fill="#D82C26" stroke="none" d="
M 128.05 -0.95
Q 128.05 -0.6 128.25 -0.3 128.5 0.05 128.8 0.1
L 129.05 -0.35
Q 128.7 -0.55 128.7 -0.6
L 128.6 -1.1 128.6 -7.15 128.05 -7.05 128.05 -0.95 Z"/>
</g>

<g id="IT_728x90_FR_psd_Asset_V7_1_Votre_entreprise_a_t_elle_du_mal____assurer_la_s_curit__de_son__0_Layer0_0_MEMBER_28_FILL">
<path fill="#D82C26" stroke="none" d="
M 133.25 -3.9
Q 133.6 -4.1 134 -4.1 134.6 -4.1 134.9 -3.75 135.25 -3.4 135.25 -2.9
L 135.25 -2.65 134.7 -2.65
Q 132.2 -2.65 132.2 -1.2 132.2 -0.5 132.6 -0.2 133.05 0.1 133.6 0.1 134.2 0.1 134.55 -0.15 135.05 -0.35 135.2 -0.85
L 135.25 -0.85 135.25 -0.4 135.3 0 135.8 0 135.75 -2.85
Q 135.75 -3.65 135.3 -4.1 134.9 -4.5 134.05 -4.5 133.6 -4.5 133.2 -4.35 132.8 -4.3 132.45 -3.95
L 132.6 -3.55
Q 132.75 -3.7 133.25 -3.9
M 133 -0.5
Q 132.7 -0.7 132.7 -1.2 132.7 -2.25 134.8 -2.25
L 135.25 -2.25 135.25 -1.8
Q 135.25 -1.45 135.05 -1.1 134.9 -0.8 134.55 -0.5 134.2 -0.3 133.7 -0.3 133.25 -0.3 133 -0.5
M 133.7 -6.65
L 133.05 -6.65 134.2 -5.3 134.65 -5.3 133.7 -6.65 Z"/>
</g>

<g id="IT_728x90_FR_psd_Asset_V7_1_Votre_entreprise_a_t_elle_du_mal____assurer_la_s_curit__de_son__0_Layer0_0_MEMBER_29_FILL">
<path fill="#D82C26" stroke="none" d="
M 2.4 5.95
Q 1.95 5.95 1.5 6.1
L 0.8 6.5 0.95 6.95 1.6 6.55 2.35 6.4
Q 2.95 6.4 3.25 6.7 3.6 7.05 3.6 7.6
L 3.6 7.85 3.05 7.85
Q 0.55 7.85 0.55 9.3 0.55 9.95 0.95 10.25 1.35 10.6 1.95 10.6 2.4 10.6 2.9 10.35 3.4 10.15 3.55 9.65
L 3.6 9.65 3.6 10.1 3.65 10.5 4.15 10.5 4.1 7.65
Q 4.1 6.8 3.65 6.4 3.2 5.95 2.4 5.95
M 3.6 8.2
L 3.6 8.65
Q 3.6 9.1 3.4 9.35 3.25 9.65 2.9 9.95 2.5 10.2 2.05 10.2 1.7 10.2 1.35 9.95 1.05 9.75 1.05 9.3 1.05 8.2 3.1 8.2
L 3.6 8.2 Z"/>
</g>

<g id="IT_728x90_FR_psd_Asset_V7_1_Votre_entreprise_a_t_elle_du_mal____assurer_la_s_curit__de_son__0_Layer0_0_MEMBER_30_FILL">
<path fill="#D82C26" stroke="none" d="
M 6.9 5.95
Q 6.5 5.95 6.2 6.1 5.85 6.25 5.65 6.5 5.45 6.75 5.45 7.15 5.45 7.65 5.75 7.95 6.05 8.2 6.7 8.4
L 7.6 8.8
Q 7.9 9.05 7.9 9.35 7.9 9.75 7.6 9.95 7.35 10.15 6.9 10.15 6 10.15 5.45 9.65
L 5.35 10.1
Q 5.55 10.3 6.05 10.45 6.45 10.6 6.9 10.6
L 7.65 10.45
Q 8 10.3 8.2 10 8.4 9.8 8.4 9.35 8.4 8.85 8.1 8.55 7.8 8.3 7.05 8.05
L 6.2 7.65
Q 5.95 7.5 5.95 7.15 5.95 6.75 6.2 6.6 6.45 6.4 6.9 6.4
L 7.5 6.5 8.05 6.85 8.3 6.45 7.65 6.1 6.9 5.95 Z"/>
</g>

<g id="IT_728x90_FR_psd_Asset_V7_1_Votre_entreprise_a_t_elle_du_mal____assurer_la_s_curit__de_son__0_Layer0_0_MEMBER_31_FILL">
<path fill="#D82C26" stroke="none" d="
M 10.95 5.95
Q 10.55 5.95 10.25 6.1 9.9 6.25 9.7 6.5 9.5 6.75 9.5 7.15 9.5 7.65 9.8 7.95 10.1 8.2 10.75 8.4
L 11.65 8.8
Q 11.95 9.05 11.95 9.35 11.95 9.75 11.65 9.95 11.4 10.15 10.95 10.15 10.05 10.15 9.5 9.65
L 9.4 10.1 10.1 10.45
Q 10.5 10.6 10.95 10.6 11.35 10.6 11.7 10.45 12 10.35 12.25 10 12.45 9.8 12.45 9.35 12.45 8.85 12.15 8.55 11.8 8.25 11.1 8.05
L 10.25 7.65
Q 10 7.5 10 7.15 10 6.75 10.25 6.6 10.5 6.4 10.95 6.4
L 11.6 6.5 12.1 6.85 12.35 6.45 11.7 6.1 10.95 5.95 Z"/>
</g>

<g id="IT_728x90_FR_psd_Asset_V7_1_Votre_entreprise_a_t_elle_du_mal____assurer_la_s_curit__de_son__0_Layer0_0_MEMBER_32_FILL">
<path fill="#D82C26" stroke="none" d="
M 17.4 6.1
L 16.85 6.1 16.85 8.3
Q 16.85 8.9 16.65 9.3 16.5 9.7 16.15 9.95 15.8 10.15 15.4 10.15 14.75 10.15 14.45 9.7 14.2 9.3 14.2 8.65
L 14.2 6.1 13.65 6.1 13.65 8.75
Q 13.65 9.55 14.05 10.1 14.45 10.6 15.25 10.6 15.85 10.6 16.2 10.3 16.7 9.95 16.85 9.55
L 16.95 10.5 17.5 10.5 17.4 9.95 17.4 6.1 Z"/>
</g>

<g id="IT_728x90_FR_psd_Asset_V7_1_Votre_entreprise_a_t_elle_du_mal____assurer_la_s_curit__de_son__0_Layer0_0_MEMBER_33_FILL">
<path fill="#D82C26" stroke="none" d="
M 20.85 6.45
L 21.25 6.5 21.35 6.05 20.9 5.95
Q 20.55 5.95 20.15 6.25 19.85 6.5 19.6 7.05
L 19.55 6.1 19.05 6.1 19.1 10.5 19.65 10.5 19.65 8.3
Q 19.65 7.55 19.95 7 20.35 6.45 20.85 6.45 Z"/>
</g>

<g id="IT_728x90_FR_psd_Asset_V7_1_Votre_entreprise_a_t_elle_du_mal____assurer_la_s_curit__de_son__0_Layer0_0_MEMBER_34_FILL">
<path fill="#D82C26" stroke="none" d="
M 22.65 9.25
Q 22.4 8.85 22.4 8.35
L 26.1 8.35 26.1 8.15
Q 26.1 7.45 25.85 7.05 25.65 6.6 25.15 6.25 24.7 5.95 24.05 5.95 23.4 5.95 22.95 6.25 22.45 6.55 22.15 7.05 21.85 7.6 21.85 8.25 21.85 8.9 22.15 9.5 22.45 10 22.95 10.3 23.5 10.6 24.1 10.6 25.05 10.6 25.85 10.05
L 25.75 9.6
Q 25.35 9.9 25.05 10 24.6 10.15 24.15 10.15 23.55 10.15 23.25 9.9 22.85 9.65 22.65 9.25
M 24.05 6.4
Q 24.65 6.4 25.15 6.8 25.6 7.25 25.6 7.95
L 22.4 7.95
Q 22.4 7.75 22.6 7.25 22.8 6.9 23.15 6.65 23.45 6.4 24.05 6.4 Z"/>
</g>

<g id="IT_728x90_FR_psd_Asset_V7_1_Votre_entreprise_a_t_elle_du_mal____assurer_la_s_curit__de_son__0_Layer0_0_MEMBER_35_FILL">
<path fill="#D82C26" stroke="none" d="
M 27.95 6.1
L 27.4 6.1 27.45 10.5 28 10.5 28 8.3
Q 28 7.5 28.35 7 28.65 6.45 29.25 6.45
L 29.65 6.5 29.75 6.05 29.3 5.95
Q 28.85 5.95 28.55 6.25 28.15 6.6 28 7.05
L 27.95 6.1 Z"/>
</g>

<g id="IT_728x90_FR_psd_Asset_V7_1_Votre_entreprise_a_t_elle_du_mal____assurer_la_s_curit__de_son__0_Layer0_0_MEMBER_36_FILL">
<path fill="#D82C26" stroke="none" d="
M 33 10.2
Q 33.1 10.4 33.5 10.6
L 33.75 10.1
Q 33.55 10.05 33.45 9.85
L 33.35 9.4 33.35 3.35 32.8 3.45 32.8 9.5
Q 32.8 9.95 33 10.2 Z"/>
</g>

<g id="IT_728x90_FR_psd_Asset_V7_1_Votre_entreprise_a_t_elle_du_mal____assurer_la_s_curit__de_son__0_Layer0_0_MEMBER_37_FILL">
<path fill="#D82C26" stroke="none" d="
M 36.6 5.95
Q 36.15 5.95 35.7 6.1
L 35 6.5 35.15 6.95 35.8 6.55 36.55 6.4
Q 37.15 6.4 37.45 6.7 37.8 7.05 37.8 7.6
L 37.8 7.85 37.25 7.85
Q 34.75 7.85 34.75 9.3 34.75 9.95 35.15 10.25 35.55 10.6 36.15 10.6 36.6 10.6 37.1 10.35 37.6 10.1 37.75 9.65
L 37.8 9.65 37.8 10.1 37.85 10.5 38.35 10.5 38.3 7.65
Q 38.3 6.8 37.85 6.4 37.4 5.95 36.6 5.95
M 37.8 8.2
L 37.8 8.65
Q 37.8 8.95 37.6 9.35 37.45 9.65 37.1 9.95 36.7 10.2 36.25 10.2 35.9 10.2 35.55 9.95 35.25 9.75 35.25 9.3 35.25 8.2 37.3 8.2
L 37.8 8.2 Z"/>
</g>

<g id="IT_728x90_FR_psd_Asset_V7_1_Votre_entreprise_a_t_elle_du_mal____assurer_la_s_curit__de_son__0_Layer0_0_MEMBER_38_FILL">
<path fill="#D82C26" stroke="none" d="
M 43.3 5.95
Q 42.9 5.95 42.6 6.1 42.2 6.3 42.05 6.5 41.85 6.75 41.85 7.15 41.85 7.65 42.15 7.95 42.4 8.15 43.1 8.4
L 44 8.8
Q 44.3 9.05 44.3 9.35 44.3 9.75 44 9.95 43.75 10.15 43.3 10.15 42.4 10.15 41.85 9.65
L 41.75 10.1 42.45 10.45
Q 42.85 10.6 43.35 10.6 43.75 10.6 44.05 10.45 44.35 10.35 44.6 10 44.8 9.8 44.8 9.35 44.8 8.85 44.5 8.55 44.25 8.3 43.5 8.05
L 42.6 7.65
Q 42.35 7.5 42.35 7.15 42.35 6.75 42.65 6.6 42.85 6.4 43.3 6.4
L 43.95 6.5 44.45 6.85 44.7 6.45
Q 44.5 6.25 44.1 6.1 43.75 5.95 43.3 5.95 Z"/>
</g>

<g id="IT_728x90_FR_psd_Asset_V7_1_Votre_entreprise_a_t_elle_du_mal____assurer_la_s_curit__de_son__0_Layer0_0_MEMBER_39_FILL">
<path fill="#D82C26" stroke="none" d="
M 49.85 7.05
Q 49.65 6.55 49.1 6.25 48.65 5.95 48 5.95 47.35 5.95 46.9 6.25 46.4 6.55 46.1 7.05 45.85 7.5 45.85 8.25 45.85 9 46.1 9.5 46.35 9.95 46.9 10.3 47.45 10.6 48.05 10.6 49.1 10.6 49.8 10.05
L 49.75 9.6
Q 49.4 9.85 49 10 48.65 10.15 48.1 10.15 47.6 10.15 47.2 9.9 46.8 9.65 46.6 9.25 46.35 8.85 46.35 8.35
L 50.05 8.35 50.1 8.15
Q 50.1 7.55 49.85 7.05
M 49.1 6.8
Q 49.55 7.25 49.55 7.95
L 46.35 7.95
Q 46.45 7.45 46.6 7.25 46.75 6.9 47.15 6.65 47.45 6.4 48 6.4 48.7 6.4 49.1 6.8
M 48.55 3.85
L 47.6 5.2 48.05 5.2 49.2 3.85 48.55 3.85 Z"/>
</g>

<g id="IT_728x90_FR_psd_Asset_V7_1_Votre_entreprise_a_t_elle_du_mal____assurer_la_s_curit__de_son__0_Layer0_0_MEMBER_40_FILL">
<path fill="#D82C26" stroke="none" d="
M 54.3 6.1
Q 53.85 5.95 53.45 5.95 52.85 5.95 52.3 6.25 51.75 6.55 51.45 7.1 51.15 7.65 51.15 8.3 51.15 9 51.45 9.5 51.75 10 52.25 10.3 52.8 10.6 53.45 10.6 53.85 10.6 54.3 10.45
L 54.95 10.1 54.85 9.6
Q 54.65 9.8 54.25 10
L 53.5 10.15
Q 53.05 10.15 52.55 9.9 52.15 9.55 51.95 9.2 51.75 8.85 51.75 8.3 51.75 7.75 51.95 7.35 52.15 6.95 52.55 6.7 52.85 6.45 53.45 6.45 53.95 6.45 54.15 6.55 54.5 6.7 54.7 6.9
L 54.95 6.5 54.3 6.1 Z"/>
</g>

<g id="IT_728x90_FR_psd_Asset_V7_1_Votre_entreprise_a_t_elle_du_mal____assurer_la_s_curit__de_son__0_Layer0_0_MEMBER_41_FILL">
<path fill="#D82C26" stroke="none" d="
M 56.6 6.1
L 56.05 6.1 56.05 8.75
Q 56.05 9.6 56.4 10.1 56.9 10.6 57.65 10.6 58.15 10.6 58.6 10.3 59 10.05 59.25 9.55
L 59.3 10.5 59.85 10.5 59.8 9.95 59.8 6.1 59.25 6.1 59.25 8.3
Q 59.25 8.7 59.05 9.3 58.75 9.8 58.5 9.95 58.25 10.15 57.75 10.15 57.15 10.15 56.85 9.7 56.6 9.3 56.6 8.65
L 56.6 6.1 Z"/>
</g>

<g id="IT_728x90_FR_psd_Asset_V7_1_Votre_entreprise_a_t_elle_du_mal____assurer_la_s_curit__de_son__0_Layer0_0_MEMBER_42_FILL">
<path fill="#D82C26" stroke="none" d="
M 61.95 6.1
L 61.4 6.1 61.45 10.5 62 10.5 62 8.3
Q 62 7.5 62.35 7 62.65 6.45 63.25 6.45
L 63.65 6.5 63.75 6.05 63.3 5.95
Q 62.85 5.95 62.55 6.25 62.15 6.6 62 7.05
L 61.95 6.1 Z"/>
</g>

<g id="IT_728x90_FR_psd_Asset_V7_1_Votre_entreprise_a_t_elle_du_mal____assurer_la_s_curit__de_son__0_Layer0_0_MEMBER_43_FILL">
<path fill="#D82C26" stroke="none" d="
M 65.3 6.1
L 64.75 6.1 64.75 10.5 65.3 10.5 65.3 6.1
M 65.4 4.35
Q 65.4 4.15 65.3 4.05 65.1 3.95 65 3.95
L 64.75 4.05
Q 64.65 4.15 64.65 4.35 64.65 4.55 64.75 4.65
L 65 4.75
Q 65.1 4.75 65.3 4.65 65.4 4.55 65.4 4.35 Z"/>
</g>

<g id="IT_728x90_FR_psd_Asset_V7_1_Votre_entreprise_a_t_elle_du_mal____assurer_la_s_curit__de_son__0_Layer0_0_MEMBER_44_FILL">
<path fill="#D82C26" stroke="none" d="
M 67.15 6.1
L 66.45 6.1 66.35 6.55 67.15 6.55 67.15 9.4
Q 67.15 9.95 67.45 10.25 67.7 10.55 68.2 10.55
L 68.7 10.5 69.1 10.35 69.05 9.95 68.35 10.1
Q 68.05 10.1 67.9 9.95 67.7 9.75 67.7 9.35
L 67.7 6.55 68.85 6.55 68.95 6.1 67.7 6.1 67.7 4.85 67.15 5.05 67.15 6.1 Z"/>
</g>

<g id="IT_728x90_FR_psd_Asset_V7_1_Votre_entreprise_a_t_elle_du_mal____assurer_la_s_curit__de_son__0_Layer0_0_MEMBER_45_FILL">
<path fill="#D82C26" stroke="none" d="
M 73.95 8.15
Q 73.95 7.45 73.7 7.05 73.5 6.6 73 6.25 72.55 5.95 71.9 5.95 71.3 5.95 70.75 6.25 70.3 6.55 70 7.05 69.7 7.6 69.7 8.25 69.7 8.9 70 9.5 70.3 10 70.8 10.3 71.35 10.6 71.95 10.6 72.9 10.6 73.7 10.05
L 73.6 9.6
Q 73.2 9.9 72.9 10 72.45 10.15 72 10.15 71.4 10.15 71.1 9.9 70.65 9.6 70.45 9.25 70.25 8.9 70.25 8.35
L 73.95 8.35 73.95 8.15
M 71.9 6.4
Q 72.5 6.4 73 6.8 73.45 7.25 73.45 7.95
L 70.25 7.95
Q 70.25 7.75 70.45 7.25 70.7 6.85 71 6.65 71.3 6.4 71.9 6.4
M 72.45 3.85
L 71.5 5.2 71.95 5.2 73.1 3.85 72.45 3.85 Z"/>
</g>

<g id="IT_728x90_FR_psd_Asset_V7_1_Votre_entreprise_a_t_elle_du_mal____assurer_la_s_curit__de_son__0_Layer0_0_MEMBER_46_FILL">
<path fill="#D82C26" stroke="none" d="
M 81.75 10.5
L 81.7 3.3 81.15 3.4 81.15 7.05
Q 80.85 6.55 80.4 6.25 79.95 5.95 79.35 5.95 78.75 5.95 78.2 6.25 77.6 6.75 77.45 7.1 77.15 7.65 77.15 8.3 77.15 8.95 77.45 9.45 77.65 9.95 78.2 10.3 78.75 10.6 79.35 10.6 79.95 10.6 80.4 10.3 80.9 10.05 81.15 9.5
L 81.2 9.5 81.2 10.5 81.75 10.5
M 80.35 6.7
Q 80.75 6.95 80.95 7.35 81.2 7.85 81.2 8.3 81.2 8.8 80.95 9.2 80.75 9.55 80.35 9.9 79.85 10.15 79.45 10.15 79 10.15 78.5 9.9 78.15 9.7 77.9 9.2 77.7 8.7 77.7 8.3 77.7 7.95 77.9 7.35 78.1 6.95 78.5 6.7 78.9 6.45 79.45 6.45 80 6.45 80.35 6.7 Z"/>
</g>

<g id="IT_728x90_FR_psd_Asset_V7_1_Votre_entreprise_a_t_elle_du_mal____assurer_la_s_curit__de_son__0_Layer0_0_MEMBER_47_FILL">
<path fill="#D82C26" stroke="none" d="
M 83.85 9.25
Q 83.6 8.85 83.6 8.35
L 87.3 8.35 87.3 8.15
Q 87.3 7.45 87.05 7.05 86.85 6.6 86.35 6.25 85.9 5.95 85.25 5.95 84.6 5.95 84.15 6.25 83.65 6.55 83.35 7.05 83.05 7.6 83.05 8.25 83.05 8.9 83.35 9.5 83.65 10 84.15 10.3 84.7 10.6 85.3 10.6 86.25 10.6 87.05 10.05
L 86.95 9.6
Q 86.55 9.9 86.25 10 85.8 10.15 85.35 10.15 84.75 10.15 84.45 9.9 84.05 9.65 83.85 9.25
M 84.35 6.65
Q 84.65 6.4 85.25 6.4 85.85 6.4 86.35 6.8 86.8 7.25 86.8 7.95
L 83.6 7.95
Q 83.6 7.75 83.8 7.25 84 6.9 84.35 6.65 Z"/>
</g>

<g id="IT_728x90_FR_psd_Asset_V7_1_Votre_entreprise_a_t_elle_du_mal____assurer_la_s_curit__de_son__0_Layer0_0_MEMBER_48_FILL">
<path fill="#D82C26" stroke="none" d="
M 92.05 5.95
Q 91.65 5.95 91.35 6.1 91 6.25 90.8 6.5 90.6 6.75 90.6 7.15 90.6 7.65 90.9 7.95 91.2 8.2 91.85 8.4
L 92.75 8.8
Q 93.05 9.05 93.05 9.35 93.05 9.75 92.75 9.95 92.5 10.15 92.05 10.15 91.15 10.15 90.6 9.65
L 90.5 10.1 91.2 10.45
Q 91.6 10.6 92.1 10.6 92.5 10.6 92.8 10.45 93.1 10.35 93.35 10 93.55 9.8 93.55 9.35 93.55 8.85 93.25 8.55 92.9 8.25 92.2 8.05
L 91.35 7.65
Q 91.1 7.5 91.1 7.15 91.1 6.75 91.4 6.6 91.6 6.4 92.05 6.4
L 92.7 6.5 93.2 6.85 93.45 6.45 92.8 6.1
Q 92.5 5.95 92.05 5.95 Z"/>
</g>

<g id="IT_728x90_FR_psd_Asset_V7_1_Votre_entreprise_a_t_elle_du_mal____assurer_la_s_curit__de_son__0_Layer0_0_MEMBER_49_FILL">
<path fill="#D82C26" stroke="none" d="
M 94.85 9.5
Q 95.25 10.05 95.7 10.3 96.25 10.6 96.9 10.6 97.6 10.6 98.1 10.3 98.7 9.95 98.95 9.5 99.25 8.9 99.25 8.3 99.25 7.65 98.95 7.1 98.7 6.6 98.1 6.25 97.6 5.95 96.9 5.95 96.25 5.95 95.7 6.25 95.2 6.55 94.85 7.1 94.55 7.65 94.55 8.3 94.55 8.9 94.85 9.5
M 95.35 7.35
Q 95.55 7 95.95 6.65 96.35 6.45 96.9 6.45 97.45 6.45 97.85 6.65 98.25 7 98.45 7.35 98.7 7.75 98.7 8.3 98.7 8.8 98.45 9.2 98.35 9.5 97.85 9.9 97.45 10.15 96.9 10.15 96.45 10.15 95.95 9.9 95.55 9.55 95.35 9.2 95.1 8.8 95.1 8.3 95.1 7.75 95.35 7.35 Z"/>
</g>

<g id="IT_728x90_FR_psd_Asset_V7_1_Votre_entreprise_a_t_elle_du_mal____assurer_la_s_curit__de_son__0_Layer0_0_MEMBER_50_FILL">
<path fill="#D82C26" stroke="none" d="
M 104.35 7.8
Q 104.35 7.05 103.95 6.5 103.55 5.95 102.7 5.95 102.2 5.95 101.75 6.25 101.3 6.55 101.15 7.05
L 101.1 7.05 101.1 6.1 100.55 6.1 100.6 10.5 101.15 10.5 101.15 8.25
Q 101.15 7.65 101.35 7.25 101.5 6.95 101.85 6.65 102.2 6.45 102.6 6.45 103.3 6.45 103.55 6.85 103.8 7.35 103.8 7.95
L 103.8 10.5 104.35 10.5 104.35 7.8 Z"/>
</g>

<g id="IT_728x90_FR_psd_Asset_V7_1_Votre_entreprise_a_t_elle_du_mal____assurer_la_s_curit__de_son__0_Layer0_0_MEMBER_51_FILL">
<path fill="#D82C26" stroke="none" d="
M 108.65 6.1
L 108.15 6.1 108.2 10.5 108.75 10.5 108.75 8.3
Q 108.75 7.5 109.1 7 109.4 6.45 110 6.45
L 110.35 6.5 110.5 6.05 110 5.95
Q 109.65 5.95 109.25 6.25 108.85 6.65 108.75 7.05
L 108.7 7.05 108.65 6.1 Z"/>
</g>

<g id="IT_728x90_FR_psd_Asset_V7_1_Votre_entreprise_a_t_elle_du_mal____assurer_la_s_curit__de_son__0_Layer0_0_MEMBER_52_FILL">
<path fill="#D82C26" stroke="none" d="
M 115 7.05
Q 114.7 6.5 114.25 6.25 113.8 5.95 113.15 5.95 112.5 5.95 112.05 6.25 111.55 6.55 111.25 7.05 110.95 7.6 110.95 8.25 110.95 8.9 111.25 9.5 111.55 10 112.05 10.3 112.6 10.6 113.2 10.6 114.25 10.6 114.95 10.05
L 114.85 9.6
Q 114.6 9.85 114.15 10 113.8 10.15 113.25 10.15 112.75 10.15 112.35 9.9 111.95 9.65 111.75 9.25 111.5 8.85 111.5 8.35
L 115.2 8.35 115.25 8.15
Q 115.25 7.55 115 7.05
M 114.25 6.8
Q 114.7 7.25 114.7 7.95
L 111.5 7.95
Q 111.6 7.45 111.75 7.25 111.9 6.9 112.3 6.65 112.6 6.4 113.15 6.4 113.85 6.4 114.25 6.8
M 113.7 3.85
L 112.75 5.2 113.2 5.2 114.35 3.85 113.7 3.85 Z"/>
</g>

<g id="IT_728x90_FR_psd_Asset_V7_1_Votre_entreprise_a_t_elle_du_mal____assurer_la_s_curit__de_son__0_Layer0_0_MEMBER_53_FILL">
<path fill="#D82C26" stroke="none" d="
M 117.75 5.95
Q 117.45 5.95 117.05 6.1 116.65 6.3 116.5 6.5 116.3 6.9 116.3 7.15 116.3 7.65 116.6 7.95 116.85 8.15 117.55 8.4
L 118.5 8.8
Q 118.75 9.05 118.75 9.35 118.75 9.75 118.45 9.95 118.25 10.15 117.8 10.15 116.85 10.15 116.3 9.65
L 116.25 10.1
Q 116.4 10.25 116.9 10.45 117.35 10.6 117.8 10.6 118.2 10.6 118.5 10.45 118.9 10.3 119.05 10 119.3 9.75 119.3 9.35 119.3 8.85 118.95 8.55 118.7 8.3 117.95 8.05
L 117.05 7.65
Q 116.8 7.5 116.8 7.15 116.8 6.75 117.1 6.6 117.35 6.4 117.8 6.4
L 118.4 6.5 118.9 6.85 119.15 6.45
Q 118.95 6.25 118.55 6.1 118.2 5.95 117.75 5.95 Z"/>
</g>

<g id="IT_728x90_FR_psd_Asset_V7_1_Votre_entreprise_a_t_elle_du_mal____assurer_la_s_curit__de_son__0_Layer0_0_MEMBER_54_FILL">
<path fill="#D82C26" stroke="none" d="
M 124.55 8.15
Q 124.55 7.55 124.3 7.05 124.1 6.6 123.6 6.25 123.1 5.95 122.45 5.95 121.9 5.95 121.35 6.25 120.85 6.55 120.55 7.05 120.3 7.65 120.3 8.25 120.3 8.9 120.6 9.5 120.8 9.95 121.4 10.3 121.85 10.6 122.55 10.6 123.5 10.6 124.3 10.05
L 124.2 9.6 123.5 10
Q 123.05 10.15 122.6 10.15 122 10.15 121.7 9.9 121.25 9.7 121.05 9.25 120.9 9 120.8 8.35
L 124.55 8.35 124.55 8.15
M 123.6 6.8
Q 124 7.3 124 7.95
L 120.85 7.95
Q 120.85 7.6 121.05 7.25 121.2 6.9 121.6 6.65 121.9 6.4 122.45 6.4 123.1 6.4 123.6 6.8 Z"/>
</g>

<g id="IT_728x90_FR_psd_Asset_V7_1_Votre_entreprise_a_t_elle_du_mal____assurer_la_s_curit__de_son__0_Layer0_0_MEMBER_55_FILL">
<path fill="#D82C26" stroke="none" d="
M 125.5 9.3
Q 125.5 9.95 125.95 10.25 126.3 10.6 126.9 10.6 127.4 10.6 127.9 10.35 128.3 10.15 128.55 9.65
L 128.65 10.5 129.15 10.5 129.05 9.5 129.05 7.65
Q 129.05 6.8 128.65 6.4 128.2 5.95 127.4 5.95 126.95 5.95 126.5 6.1 126.1 6.25 125.75 6.5
L 125.9 6.95 126.55 6.55 127.3 6.4
Q 127.9 6.4 128.2 6.7 128.55 7 128.55 7.6
L 128.55 7.85 128 7.85
Q 125.5 7.85 125.5 9.3
M 126.3 9.95
Q 126.05 9.7 126.05 9.3 126.05 8.2 128.1 8.2
L 128.55 8.2 128.55 8.65
Q 128.55 9.05 128.4 9.35 128.15 9.75 127.85 9.95 127.5 10.2 127 10.2 126.65 10.2 126.3 9.95 Z"/>
</g>

<g id="IT_728x90_FR_psd_Asset_V7_1_Votre_entreprise_a_t_elle_du_mal____assurer_la_s_curit__de_son__0_Layer0_0_MEMBER_56_FILL">
<path fill="#D82C26" stroke="none" d="
M 134.35 6.1
L 133.8 6.1 133.8 8.3
Q 133.8 8.9 133.6 9.3 133.45 9.7 133.1 9.95 132.75 10.15 132.35 10.15 131.7 10.15 131.45 9.7 131.15 9.35 131.15 8.65
L 131.15 6.1 130.6 6.1 130.6 8.75
Q 130.6 9.55 131 10.1 131.4 10.6 132.2 10.6 132.75 10.6 133.2 10.3 133.65 10 133.8 9.55
L 133.9 10.5 134.45 10.5 134.35 9.45 134.35 6.1 Z"/>
</g>

<g id="IT_728x90_FR_psd_Asset_V7_1_Votre_entreprise_a_t_elle_du_mal____assurer_la_s_curit__de_son__0_Layer0_0_MEMBER_57_FILL">
<path fill="#D82C26" stroke="none" d="
M 138.1 5.3
L 138 5.85 137.75 6.25 137.25 6.75 136.7 7.5
Q 136.55 7.9 136.55 8.3
L 136.55 8.6 137.1 8.6 137.1 8.4 137.15 7.85
Q 137.25 7.6 137.3 7.45
L 138.25 6.45
Q 138.5 6.2 138.55 5.95 138.65 5.75 138.65 5.3 138.65 4.8 138.45 4.45 138.1 4.05 137.8 3.9 137.4 3.7 136.85 3.7 136.2 3.7 135.75 3.9 135.3 4.15 135 4.5
L 135.25 4.95
Q 135.5 4.65 135.9 4.4 136.3 4.2 136.8 4.2 137.4 4.2 137.75 4.5 138.1 4.8 138.1 5.3
M 136.45 10.1
Q 136.45 10.35 136.55 10.4
L 136.85 10.55 137.15 10.4 137.25 10.1 137.15 9.8 136.85 9.7
Q 136.65 9.7 136.55 9.8 136.45 9.9 136.45 10.1 Z"/>
</g>
</defs>

<g transform="matrix( 1, 0, 0, 1, -261,-59) ">
<g transform="matrix( 1, 0, 0, 1, 261,72) ">
<g transform="matrix( 1, 0, 0, 1, 24,8) ">
<g transform="matrix( 2.6895904541015625, 0, 0, 2.672393798828125, 0.15,19.55) ">
<use xlink:href="#IT_728x90_FR_psd_Asset_V7_1_Votre_entreprise_a_t_elle_du_mal____assurer_la_s_curit__de_son__0_Layer0_0_MEMBER_0_FILL"/>
</g>

<g transform="matrix( 2.6895904541015625, 0, 0, 2.672393798828125, 0.15,19.55) ">
<use xlink:href="#IT_728x90_FR_psd_Asset_V7_1_Votre_entreprise_a_t_elle_du_mal____assurer_la_s_curit__de_son__0_Layer0_0_MEMBER_1_FILL"/>
</g>

<g transform="matrix( 2.6895904541015625, 0, 0, 2.672393798828125, 0.15,19.55) ">
<use xlink:href="#IT_728x90_FR_psd_Asset_V7_1_Votre_entreprise_a_t_elle_du_mal____assurer_la_s_curit__de_son__0_Layer0_0_MEMBER_2_FILL"/>
</g>

<g transform="matrix( 2.6895904541015625, 0, 0, 2.672393798828125, 0.15,19.55) ">
<use xlink:href="#IT_728x90_FR_psd_Asset_V7_1_Votre_entreprise_a_t_elle_du_mal____assurer_la_s_curit__de_son__0_Layer0_0_MEMBER_3_FILL"/>
</g>

<g transform="matrix( 2.6895904541015625, 0, 0, 2.672393798828125, 0.15,19.55) ">
<use xlink:href="#IT_728x90_FR_psd_Asset_V7_1_Votre_entreprise_a_t_elle_du_mal____assurer_la_s_curit__de_son__0_Layer0_0_MEMBER_4_FILL"/>
</g>

<g transform="matrix( 2.6895904541015625, 0, 0, 2.672393798828125, 0.15,19.55) ">
<use xlink:href="#IT_728x90_FR_psd_Asset_V7_1_Votre_entreprise_a_t_elle_du_mal____assurer_la_s_curit__de_son__0_Layer0_0_MEMBER_5_FILL"/>
</g>

<g transform="matrix( 2.6895904541015625, 0, 0, 2.672393798828125, 0.15,19.55) ">
<use xlink:href="#IT_728x90_FR_psd_Asset_V7_1_Votre_entreprise_a_t_elle_du_mal____assurer_la_s_curit__de_son__0_Layer0_0_MEMBER_6_FILL"/>
</g>

<g transform="matrix( 2.6895904541015625, 0, 0, 2.672393798828125, 0.15,19.55) ">
<use xlink:href="#IT_728x90_FR_psd_Asset_V7_1_Votre_entreprise_a_t_elle_du_mal____assurer_la_s_curit__de_son__0_Layer0_0_MEMBER_7_FILL"/>
</g>

<g transform="matrix( 2.6895904541015625, 0, 0, 2.672393798828125, 0.15,19.55) ">
<use xlink:href="#IT_728x90_FR_psd_Asset_V7_1_Votre_entreprise_a_t_elle_du_mal____assurer_la_s_curit__de_son__0_Layer0_0_MEMBER_8_FILL"/>
</g>

<g transform="matrix( 2.6895904541015625, 0, 0, 2.672393798828125, 0.15,19.55) ">
<use xlink:href="#IT_728x90_FR_psd_Asset_V7_1_Votre_entreprise_a_t_elle_du_mal____assurer_la_s_curit__de_son__0_Layer0_0_MEMBER_9_FILL"/>
</g>

<g transform="matrix( 2.6895904541015625, 0, 0, 2.672393798828125, 0.15,19.55) ">
<use xlink:href="#IT_728x90_FR_psd_Asset_V7_1_Votre_entreprise_a_t_elle_du_mal____assurer_la_s_curit__de_son__0_Layer0_0_MEMBER_10_FILL"/>
</g>

<g transform="matrix( 2.6895904541015625, 0, 0, 2.672393798828125, 0.15,19.55) ">
<use xlink:href="#IT_728x90_FR_psd_Asset_V7_1_Votre_entreprise_a_t_elle_du_mal____assurer_la_s_curit__de_son__0_Layer0_0_MEMBER_11_FILL"/>
</g>

<g transform="matrix( 2.6895904541015625, 0, 0, 2.672393798828125, 0.15,19.55) ">
<use xlink:href="#IT_728x90_FR_psd_Asset_V7_1_Votre_entreprise_a_t_elle_du_mal____assurer_la_s_curit__de_son__0_Layer0_0_MEMBER_12_FILL"/>
</g>

<g transform="matrix( 2.6895904541015625, 0, 0, 2.672393798828125, 0.15,19.55) ">
<use xlink:href="#IT_728x90_FR_psd_Asset_V7_1_Votre_entreprise_a_t_elle_du_mal____assurer_la_s_curit__de_son__0_Layer0_0_MEMBER_13_FILL"/>
</g>

<g transform="matrix( 2.6895904541015625, 0, 0, 2.672393798828125, 0.15,19.55) ">
<use xlink:href="#IT_728x90_FR_psd_Asset_V7_1_Votre_entreprise_a_t_elle_du_mal____assurer_la_s_curit__de_son__0_Layer0_0_MEMBER_14_FILL"/>
</g>

<g transform="matrix( 2.6895904541015625, 0, 0, 2.672393798828125, 0.15,19.55) ">
<use xlink:href="#IT_728x90_FR_psd_Asset_V7_1_Votre_entreprise_a_t_elle_du_mal____assurer_la_s_curit__de_son__0_Layer0_0_MEMBER_15_FILL"/>
</g>

<g transform="matrix( 2.6895904541015625, 0, 0, 2.672393798828125, 0.15,19.55) ">
<use xlink:href="#IT_728x90_FR_psd_Asset_V7_1_Votre_entreprise_a_t_elle_du_mal____assurer_la_s_curit__de_son__0_Layer0_0_MEMBER_16_FILL"/>
</g>

<g transform="matrix( 2.6895904541015625, 0, 0, 2.672393798828125, 0.15,19.55) ">
<use xlink:href="#IT_728x90_FR_psd_Asset_V7_1_Votre_entreprise_a_t_elle_du_mal____assurer_la_s_curit__de_son__0_Layer0_0_MEMBER_17_FILL"/>
</g>

<g transform="matrix( 2.6895904541015625, 0, 0, 2.672393798828125, 0.15,19.55) ">
<use xlink:href="#IT_728x90_FR_psd_Asset_V7_1_Votre_entreprise_a_t_elle_du_mal____assurer_la_s_curit__de_son__0_Layer0_0_MEMBER_18_FILL"/>
</g>

<g transform="matrix( 2.6895904541015625, 0, 0, 2.672393798828125, 0.15,19.55) ">
<use xlink:href="#IT_728x90_FR_psd_Asset_V7_1_Votre_entreprise_a_t_elle_du_mal____assurer_la_s_curit__de_son__0_Layer0_0_MEMBER_19_FILL"/>
</g>

<g transform="matrix( 2.6895904541015625, 0, 0, 2.672393798828125, 0.15,19.55) ">
<use xlink:href="#IT_728x90_FR_psd_Asset_V7_1_Votre_entreprise_a_t_elle_du_mal____assurer_la_s_curit__de_son__0_Layer0_0_MEMBER_20_FILL"/>
</g>

<g transform="matrix( 2.6895904541015625, 0, 0, 2.672393798828125, 0.15,19.55) ">
<use xlink:href="#IT_728x90_FR_psd_Asset_V7_1_Votre_entreprise_a_t_elle_du_mal____assurer_la_s_curit__de_son__0_Layer0_0_MEMBER_21_FILL"/>
</g>

<g transform="matrix( 2.6895904541015625, 0, 0, 2.672393798828125, 0.15,19.55) ">
<use xlink:href="#IT_728x90_FR_psd_Asset_V7_1_Votre_entreprise_a_t_elle_du_mal____assurer_la_s_curit__de_son__0_Layer0_0_MEMBER_22_FILL"/>
</g>

<g transform="matrix( 2.6895904541015625, 0, 0, 2.672393798828125, 0.15,19.55) ">
<use xlink:href="#IT_728x90_FR_psd_Asset_V7_1_Votre_entreprise_a_t_elle_du_mal____assurer_la_s_curit__de_son__0_Layer0_0_MEMBER_23_FILL"/>
</g>

<g transform="matrix( 2.6895904541015625, 0, 0, 2.672393798828125, 0.15,19.55) ">
<use xlink:href="#IT_728x90_FR_psd_Asset_V7_1_Votre_entreprise_a_t_elle_du_mal____assurer_la_s_curit__de_son__0_Layer0_0_MEMBER_24_FILL"/>
</g>

<g transform="matrix( 2.6895904541015625, 0, 0, 2.672393798828125, 0.15,19.55) ">
<use xlink:href="#IT_728x90_FR_psd_Asset_V7_1_Votre_entreprise_a_t_elle_du_mal____assurer_la_s_curit__de_son__0_Layer0_0_MEMBER_25_FILL"/>
</g>

<g transform="matrix( 2.6895904541015625, 0, 0, 2.672393798828125, 0.15,19.55) ">
<use xlink:href="#IT_728x90_FR_psd_Asset_V7_1_Votre_entreprise_a_t_elle_du_mal____assurer_la_s_curit__de_son__0_Layer0_0_MEMBER_26_FILL"/>
</g>

<g transform="matrix( 2.6895904541015625, 0, 0, 2.672393798828125, 0.15,19.55) ">
<use xlink:href="#IT_728x90_FR_psd_Asset_V7_1_Votre_entreprise_a_t_elle_du_mal____assurer_la_s_curit__de_son__0_Layer0_0_MEMBER_27_FILL"/>
</g>

<g transform="matrix( 2.6895904541015625, 0, 0, 2.672393798828125, 0.15,19.55) ">
<use xlink:href="#IT_728x90_FR_psd_Asset_V7_1_Votre_entreprise_a_t_elle_du_mal____assurer_la_s_curit__de_son__0_Layer0_0_MEMBER_28_FILL"/>
</g>

<g transform="matrix( 2.6895904541015625, 0, 0, 2.672393798828125, 0.15,19.55) ">
<use xlink:href="#IT_728x90_FR_psd_Asset_V7_1_Votre_entreprise_a_t_elle_du_mal____assurer_la_s_curit__de_son__0_Layer0_0_MEMBER_29_FILL"/>
</g>

<g transform="matrix( 2.6895904541015625, 0, 0, 2.672393798828125, 0.15,19.55) ">
<use xlink:href="#IT_728x90_FR_psd_Asset_V7_1_Votre_entreprise_a_t_elle_du_mal____assurer_la_s_curit__de_son__0_Layer0_0_MEMBER_30_FILL"/>
</g>

<g transform="matrix( 2.6895904541015625, 0, 0, 2.672393798828125, 0.15,19.55) ">
<use xlink:href="#IT_728x90_FR_psd_Asset_V7_1_Votre_entreprise_a_t_elle_du_mal____assurer_la_s_curit__de_son__0_Layer0_0_MEMBER_31_FILL"/>
</g>

<g transform="matrix( 2.6895904541015625, 0, 0, 2.672393798828125, 0.15,19.55) ">
<use xlink:href="#IT_728x90_FR_psd_Asset_V7_1_Votre_entreprise_a_t_elle_du_mal____assurer_la_s_curit__de_son__0_Layer0_0_MEMBER_32_FILL"/>
</g>

<g transform="matrix( 2.6895904541015625, 0, 0, 2.672393798828125, 0.15,19.55) ">
<use xlink:href="#IT_728x90_FR_psd_Asset_V7_1_Votre_entreprise_a_t_elle_du_mal____assurer_la_s_curit__de_son__0_Layer0_0_MEMBER_33_FILL"/>
</g>

<g transform="matrix( 2.6895904541015625, 0, 0, 2.672393798828125, 0.15,19.55) ">
<use xlink:href="#IT_728x90_FR_psd_Asset_V7_1_Votre_entreprise_a_t_elle_du_mal____assurer_la_s_curit__de_son__0_Layer0_0_MEMBER_34_FILL"/>
</g>

<g transform="matrix( 2.6895904541015625, 0, 0, 2.672393798828125, 0.15,19.55) ">
<use xlink:href="#IT_728x90_FR_psd_Asset_V7_1_Votre_entreprise_a_t_elle_du_mal____assurer_la_s_curit__de_son__0_Layer0_0_MEMBER_35_FILL"/>
</g>

<g transform="matrix( 2.6895904541015625, 0, 0, 2.672393798828125, 0.15,19.55) ">
<use xlink:href="#IT_728x90_FR_psd_Asset_V7_1_Votre_entreprise_a_t_elle_du_mal____assurer_la_s_curit__de_son__0_Layer0_0_MEMBER_36_FILL"/>
</g>

<g transform="matrix( 2.6895904541015625, 0, 0, 2.672393798828125, 0.15,19.55) ">
<use xlink:href="#IT_728x90_FR_psd_Asset_V7_1_Votre_entreprise_a_t_elle_du_mal____assurer_la_s_curit__de_son__0_Layer0_0_MEMBER_37_FILL"/>
</g>

<g transform="matrix( 2.6895904541015625, 0, 0, 2.672393798828125, 0.15,19.55) ">
<use xlink:href="#IT_728x90_FR_psd_Asset_V7_1_Votre_entreprise_a_t_elle_du_mal____assurer_la_s_curit__de_son__0_Layer0_0_MEMBER_38_FILL"/>
</g>

<g transform="matrix( 2.6895904541015625, 0, 0, 2.672393798828125, 0.15,19.55) ">
<use xlink:href="#IT_728x90_FR_psd_Asset_V7_1_Votre_entreprise_a_t_elle_du_mal____assurer_la_s_curit__de_son__0_Layer0_0_MEMBER_39_FILL"/>
</g>

<g transform="matrix( 2.6895904541015625, 0, 0, 2.672393798828125, 0.15,19.55) ">
<use xlink:href="#IT_728x90_FR_psd_Asset_V7_1_Votre_entreprise_a_t_elle_du_mal____assurer_la_s_curit__de_son__0_Layer0_0_MEMBER_40_FILL"/>
</g>

<g transform="matrix( 2.6895904541015625, 0, 0, 2.672393798828125, 0.15,19.55) ">
<use xlink:href="#IT_728x90_FR_psd_Asset_V7_1_Votre_entreprise_a_t_elle_du_mal____assurer_la_s_curit__de_son__0_Layer0_0_MEMBER_41_FILL"/>
</g>

<g transform="matrix( 2.6895904541015625, 0, 0, 2.672393798828125, 0.15,19.55) ">
<use xlink:href="#IT_728x90_FR_psd_Asset_V7_1_Votre_entreprise_a_t_elle_du_mal____assurer_la_s_curit__de_son__0_Layer0_0_MEMBER_42_FILL"/>
</g>

<g transform="matrix( 2.6895904541015625, 0, 0, 2.672393798828125, 0.15,19.55) ">
<use xlink:href="#IT_728x90_FR_psd_Asset_V7_1_Votre_entreprise_a_t_elle_du_mal____assurer_la_s_curit__de_son__0_Layer0_0_MEMBER_43_FILL"/>
</g>

<g transform="matrix( 2.6895904541015625, 0, 0, 2.672393798828125, 0.15,19.55) ">
<use xlink:href="#IT_728x90_FR_psd_Asset_V7_1_Votre_entreprise_a_t_elle_du_mal____assurer_la_s_curit__de_son__0_Layer0_0_MEMBER_44_FILL"/>
</g>

<g transform="matrix( 2.6895904541015625, 0, 0, 2.672393798828125, 0.15,19.55) ">
<use xlink:href="#IT_728x90_FR_psd_Asset_V7_1_Votre_entreprise_a_t_elle_du_mal____assurer_la_s_curit__de_son__0_Layer0_0_MEMBER_45_FILL"/>
</g>

<g transform="matrix( 2.6895904541015625, 0, 0, 2.672393798828125, 0.15,19.55) ">
<use xlink:href="#IT_728x90_FR_psd_Asset_V7_1_Votre_entreprise_a_t_elle_du_mal____assurer_la_s_curit__de_son__0_Layer0_0_MEMBER_46_FILL"/>
</g>

<g transform="matrix( 2.6895904541015625, 0, 0, 2.672393798828125, 0.15,19.55) ">
<use xlink:href="#IT_728x90_FR_psd_Asset_V7_1_Votre_entreprise_a_t_elle_du_mal____assurer_la_s_curit__de_son__0_Layer0_0_MEMBER_47_FILL"/>
</g>

<g transform="matrix( 2.6895904541015625, 0, 0, 2.672393798828125, 0.15,19.55) ">
<use xlink:href="#IT_728x90_FR_psd_Asset_V7_1_Votre_entreprise_a_t_elle_du_mal____assurer_la_s_curit__de_son__0_Layer0_0_MEMBER_48_FILL"/>
</g>

<g transform="matrix( 2.6895904541015625, 0, 0, 2.672393798828125, 0.15,19.55) ">
<use xlink:href="#IT_728x90_FR_psd_Asset_V7_1_Votre_entreprise_a_t_elle_du_mal____assurer_la_s_curit__de_son__0_Layer0_0_MEMBER_49_FILL"/>
</g>

<g transform="matrix( 2.6895904541015625, 0, 0, 2.672393798828125, 0.15,19.55) ">
<use xlink:href="#IT_728x90_FR_psd_Asset_V7_1_Votre_entreprise_a_t_elle_du_mal____assurer_la_s_curit__de_son__0_Layer0_0_MEMBER_50_FILL"/>
</g>

<g transform="matrix( 2.6895904541015625, 0, 0, 2.672393798828125, 0.15,19.55) ">
<use xlink:href="#IT_728x90_FR_psd_Asset_V7_1_Votre_entreprise_a_t_elle_du_mal____assurer_la_s_curit__de_son__0_Layer0_0_MEMBER_51_FILL"/>
</g>

<g transform="matrix( 2.6895904541015625, 0, 0, 2.672393798828125, 0.15,19.55) ">
<use xlink:href="#IT_728x90_FR_psd_Asset_V7_1_Votre_entreprise_a_t_elle_du_mal____assurer_la_s_curit__de_son__0_Layer0_0_MEMBER_52_FILL"/>
</g>

<g transform="matrix( 2.6895904541015625, 0, 0, 2.672393798828125, 0.15,19.55) ">
<use xlink:href="#IT_728x90_FR_psd_Asset_V7_1_Votre_entreprise_a_t_elle_du_mal____assurer_la_s_curit__de_son__0_Layer0_0_MEMBER_53_FILL"/>
</g>

<g transform="matrix( 2.6895904541015625, 0, 0, 2.672393798828125, 0.15,19.55) ">
<use xlink:href="#IT_728x90_FR_psd_Asset_V7_1_Votre_entreprise_a_t_elle_du_mal____assurer_la_s_curit__de_son__0_Layer0_0_MEMBER_54_FILL"/>
</g>

<g transform="matrix( 2.6895904541015625, 0, 0, 2.672393798828125, 0.15,19.55) ">
<use xlink:href="#IT_728x90_FR_psd_Asset_V7_1_Votre_entreprise_a_t_elle_du_mal____assurer_la_s_curit__de_son__0_Layer0_0_MEMBER_55_FILL"/>
</g>

<g transform="matrix( 2.6895904541015625, 0, 0, 2.672393798828125, 0.15,19.55) ">
<use xlink:href="#IT_728x90_FR_psd_Asset_V7_1_Votre_entreprise_a_t_elle_du_mal____assurer_la_s_curit__de_son__0_Layer0_0_MEMBER_56_FILL"/>
</g>

<g transform="matrix( 2.6895904541015625, 0, 0, 2.672393798828125, 0.15,19.55) ">
<use xlink:href="#IT_728x90_FR_psd_Asset_V7_1_Votre_entreprise_a_t_elle_du_mal____assurer_la_s_curit__de_son__0_Layer0_0_MEMBER_57_FILL"/>
</g>
</g>
</g>
</g>
</svg>
