
<svg xmlns="http://www.w3.org/2000/svg" version="1.1" xmlns:xlink="http://www.w3.org/1999/xlink" preserveAspectRatio="none" x="0px" y="0px" width="728px" height="90px" viewBox="0 0 728 90">
<defs>
<g id="IT_728x90_FR_psd_Asset_V7_3_fournisseur_au_Canada___proposer__une_solution_de_Wi_Fi_en_tant_0_Layer0_0_MEMBER_0_FILL">
<path fill="#D82C26" stroke="none" d="
M 2.65 -5.6
L 2.7 -5.95 2.05 -6.05
Q 1.5 -6.05 1.2 -5.7 0.9 -5.4 0.9 -4.75
L 0.9 -3.7 0.25 -3.7 0.15 -3.3 0.9 -3.3 0.9 0 1.35 0 1.35 -3.3 2.2 -3.3 2.35 -3.7 1.35 -3.7 1.35 -4.75
Q 1.35 -5.2 1.55 -5.4 1.7 -5.65 2.1 -5.65
L 2.65 -5.6 Z"/>
</g>

<g id="IT_728x90_FR_psd_Asset_V7_3_fournisseur_au_Canada___proposer__une_solution_de_Wi_Fi_en_tant_0_Layer0_0_MEMBER_1_FILL">
<path fill="#D82C26" stroke="none" d="
M 4.75 -3.8
Q 4.25 -3.8 3.75 -3.55 3.4 -3.35 3.05 -2.85 2.8 -2.35 2.8 -1.85 2.8 -1.35 3.05 -0.85 3.4 -0.3 3.75 -0.15 4.15 0.1 4.75 0.1 5.4 0.1 5.75 -0.15 6.2 -0.4 6.45 -0.85 6.7 -1.2 6.7 -1.85 6.7 -2.45 6.45 -2.85 6.2 -3.3 5.75 -3.55 5.25 -3.8 4.75 -3.8
M 3.95 -3.2
Q 4.3 -3.4 4.75 -3.4 5.2 -3.4 5.55 -3.2 5.85 -3 6.05 -2.65 6.25 -2.3 6.25 -1.85 6.25 -1.4 6.1 -1.05 5.8 -0.65 5.55 -0.5 5.3 -0.3 4.75 -0.3 4.3 -0.3 3.95 -0.5 3.6 -0.75 3.45 -1.05 3.25 -1.55 3.25 -1.85 3.25 -2.15 3.45 -2.65 3.6 -2.95 3.95 -3.2 Z"/>
</g>

<g id="IT_728x90_FR_psd_Asset_V7_3_fournisseur_au_Canada___proposer__une_solution_de_Wi_Fi_en_tant_0_Layer0_0_MEMBER_2_FILL">
<path fill="#D82C26" stroke="none" d="
M 7.9 -1.45
Q 7.9 -0.8 8.2 -0.35 8.5 0.1 9.2 0.1 9.65 0.1 10.05 -0.15 10.4 -0.35 10.55 -0.8
L 10.65 0 11.1 0 11 -0.85 11 -3.7 10.55 -3.7 10.55 -1.85
Q 10.55 -1.35 10.4 -1 10.3 -0.7 9.95 -0.45 9.75 -0.3 9.35 -0.3 8.75 -0.3 8.55 -0.65 8.35 -1 8.35 -1.55
L 8.35 -3.7 7.9 -3.7 7.9 -1.45 Z"/>
</g>

<g id="IT_728x90_FR_psd_Asset_V7_3_fournisseur_au_Canada___proposer__une_solution_de_Wi_Fi_en_tant_0_Layer0_0_MEMBER_3_FILL">
<path fill="#D82C26" stroke="none" d="
M 14.05 -3.8
Q 13.75 -3.8 13.4 -3.55 13.15 -3.35 12.95 -2.9
L 12.9 -3.7 12.45 -3.7 12.5 0 12.95 0 12.95 -1.85
Q 12.95 -2.5 13.25 -2.95 13.5 -3.4 14 -3.4
L 14.35 -3.3 14.4 -3.7 14.05 -3.8 Z"/>
</g>

<g id="IT_728x90_FR_psd_Asset_V7_3_fournisseur_au_Canada___proposer__une_solution_de_Wi_Fi_en_tant_0_Layer0_0_MEMBER_4_FILL">
<path fill="#D82C26" stroke="none" d="
M 15.75 -3.7
L 15.3 -3.7 15.35 0 15.8 0 15.8 -1.9
Q 15.8 -2.3 15.95 -2.7 16.1 -3.05 16.4 -3.2 16.65 -3.4 17 -3.4 17.6 -3.4 17.8 -3.05 18 -2.7 18 -2.15
L 18 0 18.5 0 18.5 -2.25
Q 18.5 -2.8 18.15 -3.35 17.85 -3.8 17.1 -3.8 16.7 -3.8 16.3 -3.55 16 -3.35 15.8 -2.9
L 15.75 -2.9 15.75 -3.7 Z"/>
</g>

<g id="IT_728x90_FR_psd_Asset_V7_3_fournisseur_au_Canada___proposer__une_solution_de_Wi_Fi_en_tant_0_Layer0_0_MEMBER_5_FILL">
<path fill="#D82C26" stroke="none" d="
M 20.35 -3.7
L 19.9 -3.7 19.9 0 20.35 0 20.35 -3.7
M 20.15 -5.5
L 19.9 -5.4 19.8 -5.15 19.9 -4.9 20.15 -4.8 20.35 -4.9
Q 20.45 -5 20.45 -5.15 20.45 -5.35 20.35 -5.4
L 20.15 -5.5 Z"/>
</g>

<g id="IT_728x90_FR_psd_Asset_V7_3_fournisseur_au_Canada___proposer__une_solution_de_Wi_Fi_en_tant_0_Layer0_0_MEMBER_6_FILL">
<path fill="#D82C26" stroke="none" d="
M 23.45 -3.7
L 22.8 -3.8 22.2 -3.7 21.75 -3.35
Q 21.6 -3.1 21.6 -2.8 21.6 -2.4 21.85 -2.15 22.1 -1.9 22.65 -1.75 23.05 -1.65 23.4 -1.4 23.65 -1.25 23.65 -0.95 23.65 -0.6 23.4 -0.45 23.2 -0.25 22.8 -0.25 22.15 -0.25 21.6 -0.7
L 21.5 -0.3 22.1 0 22.85 0.1 23.45 0
Q 23.8 -0.15 23.9 -0.4 24.1 -0.6 24.1 -0.95 24.1 -1.35 23.8 -1.6 23.6 -1.9 22.95 -2.05 22.4 -2.2 22.25 -2.4 22 -2.55 22 -2.8 22 -3.1 22.25 -3.25 22.55 -3.45 22.8 -3.45 23.15 -3.45 23.35 -3.3
L 23.8 -3.05 24 -3.4 23.45 -3.7 Z"/>
</g>

<g id="IT_728x90_FR_psd_Asset_V7_3_fournisseur_au_Canada___proposer__une_solution_de_Wi_Fi_en_tant_0_Layer0_0_MEMBER_7_FILL">
<path fill="#D82C26" stroke="none" d="
M 25.05 -0.7
L 25 -0.3 25.55 0 26.3 0.1 26.9 0
Q 27.2 -0.15 27.4 -0.4 27.55 -0.6 27.55 -0.95 27.55 -1.35 27.3 -1.6 27 -1.9 26.4 -2.05 25.9 -2.2 25.7 -2.4 25.5 -2.55 25.5 -2.8 25.5 -3.1 25.7 -3.25 26 -3.45 26.3 -3.45 26.6 -3.45 26.8 -3.3 26.9 -3.25 27.25 -3.05
L 27.45 -3.4 26.95 -3.7 26.25 -3.8 25.7 -3.7
Q 25.4 -3.55 25.25 -3.35 25.05 -3.15 25.05 -2.8 25.05 -2.4 25.3 -2.15 25.65 -1.85 26.1 -1.75 26.5 -1.65 26.85 -1.4 27.1 -1.25 27.1 -0.95 27.1 -0.55 26.85 -0.45 26.65 -0.25 26.3 -0.25 25.6 -0.25 25.05 -0.7 Z"/>
</g>

<g id="IT_728x90_FR_psd_Asset_V7_3_fournisseur_au_Canada___proposer__une_solution_de_Wi_Fi_en_tant_0_Layer0_0_MEMBER_8_FILL">
<path fill="#D82C26" stroke="none" d="
M 30.3 -3.8
Q 29.85 -3.8 29.35 -3.55 28.9 -3.3 28.7 -2.85 28.45 -2.35 28.45 -1.85 28.45 -1.35 28.7 -0.85 28.9 -0.4 29.35 -0.15 29.75 0.1 30.35 0.1 31.2 0.1 31.8 -0.35
L 31.75 -0.75 31.15 -0.4 30.4 -0.25
Q 30.1 -0.25 29.6 -0.45
L 29.1 -1
Q 28.9 -1.5 28.9 -1.8
L 32.05 -1.8 32.05 -1.95
Q 32.05 -2.3 31.85 -2.9 31.6 -3.35 31.25 -3.55 30.75 -3.8 30.3 -3.8
M 29.55 -3.25
Q 29.95 -3.45 30.3 -3.45 30.9 -3.45 31.2 -3.05 31.6 -2.75 31.6 -2.1
L 28.9 -2.1
Q 28.9 -2.3 29.1 -2.7 29.25 -3.05 29.55 -3.25 Z"/>
</g>

<g id="IT_728x90_FR_psd_Asset_V7_3_fournisseur_au_Canada___proposer__une_solution_de_Wi_Fi_en_tant_0_Layer0_0_MEMBER_9_FILL">
<path fill="#D82C26" stroke="none" d="
M 33.15 -1.45
Q 33.15 -0.75 33.5 -0.35 33.8 0.1 34.5 0.1 34.9 0.1 35.3 -0.15 35.7 -0.4 35.85 -0.8
L 35.9 0 36.4 0 36.3 -0.85 36.3 -3.7 35.85 -3.7 35.85 -1.85
Q 35.85 -1.35 35.7 -1 35.6 -0.7 35.25 -0.45 34.95 -0.3 34.65 -0.3 34.05 -0.3 33.85 -0.65 33.65 -1 33.65 -1.55
L 33.65 -3.7 33.15 -3.7 33.15 -1.45 Z"/>
</g>

<g id="IT_728x90_FR_psd_Asset_V7_3_fournisseur_au_Canada___proposer__une_solution_de_Wi_Fi_en_tant_0_Layer0_0_MEMBER_10_FILL">
<path fill="#D82C26" stroke="none" d="
M 39.3 -3.8
Q 39.05 -3.8 38.7 -3.55 38.45 -3.35 38.25 -2.9
L 38.2 -2.9 38.2 -3.7 37.75 -3.7 37.8 0 38.25 0 38.25 -1.85
Q 38.25 -2.5 38.55 -2.95 38.8 -3.4 39.3 -3.4
L 39.6 -3.3 39.7 -3.7 39.3 -3.8 Z"/>
</g>

<g id="IT_728x90_FR_psd_Asset_V7_3_fournisseur_au_Canada___proposer__une_solution_de_Wi_Fi_en_tant_0_Layer0_0_MEMBER_11_FILL">
<path fill="#D82C26" stroke="none" d="
M 43.5 -3.45
Q 44.05 -3.45 44.25 -3.15 44.55 -2.9 44.55 -2.4
L 44.55 -2.2 44.1 -2.2
Q 42 -2.2 42 -1 42 -0.45 42.35 -0.15 42.7 0.1 43.15 0.1 43.65 0.1 44 -0.1 44.4 -0.35 44.55 -0.7
L 44.6 -0.35 44.6 0 45.05 0 45 -2.4
Q 45 -3.05 44.6 -3.45 44.25 -3.8 43.55 -3.8
L 42.8 -3.65
Q 42.4 -3.55 42.2 -3.35
L 42.35 -2.95
Q 42.55 -3.15 42.9 -3.3 43.2 -3.45 43.5 -3.45
M 42.65 -0.45
Q 42.45 -0.6 42.45 -1 42.45 -1.9 44.15 -1.9
L 44.55 -1.9 44.55 -1.55
Q 44.55 -1.25 44.4 -0.95 44.2 -0.6 43.95 -0.45 43.7 -0.25 43.25 -0.25 42.9 -0.25 42.65 -0.45 Z"/>
</g>

<g id="IT_728x90_FR_psd_Asset_V7_3_fournisseur_au_Canada___proposer__une_solution_de_Wi_Fi_en_tant_0_Layer0_0_MEMBER_12_FILL">
<path fill="#D82C26" stroke="none" d="
M 49.5 -3.7
L 49 -3.7 49 -1.85
Q 49 -1.35 48.85 -1 48.75 -0.7 48.4 -0.45 48.2 -0.3 47.8 -0.3 47.2 -0.3 47 -0.65 46.8 -1 46.8 -1.55
L 46.8 -3.7 46.35 -3.7 46.35 -1.45
Q 46.35 -0.8 46.65 -0.35 47.05 0.1 47.7 0.1 48.1 0.1 48.5 -0.15 48.85 -0.35 49 -0.8
L 49.1 0 49.55 0 49.5 -0.4 49.5 -3.7 Z"/>
</g>

<g id="IT_728x90_FR_psd_Asset_V7_3_fournisseur_au_Canada___proposer__une_solution_de_Wi_Fi_en_tant_0_Layer0_0_MEMBER_13_FILL">
<path fill="#D82C26" stroke="none" d="
M 53.35 -4.05
Q 53.7 -4.6 54.2 -4.95 54.8 -5.3 55.4 -5.3 55.75 -5.3 56.45 -5.1 56.95 -4.85 57.2 -4.6
L 57.35 -5.05
Q 57.05 -5.35 56.5 -5.5 56.05 -5.7 55.4 -5.7 54.5 -5.7 53.95 -5.35 53.3 -4.95 52.9 -4.3 52.5 -3.6 52.5 -2.8 52.5 -1.95 52.9 -1.25 53.3 -0.65 53.9 -0.25 54.6 0.15 55.4 0.15 56.1 0.15 56.55 -0.05 57.1 -0.3 57.35 -0.6
L 57.25 -1.05
Q 57.05 -0.8 56.45 -0.5 56.05 -0.3 55.45 -0.3 54.75 -0.3 54.2 -0.6 53.7 -0.9 53.35 -1.5 53.05 -2.1 53.05 -2.8 53.05 -3.45 53.35 -4.05 Z"/>
</g>

<g id="IT_728x90_FR_psd_Asset_V7_3_fournisseur_au_Canada___proposer__une_solution_de_Wi_Fi_en_tant_0_Layer0_0_MEMBER_14_FILL">
<path fill="#D82C26" stroke="none" d="
M 59.1 -3.65
Q 58.75 -3.55 58.5 -3.35
L 58.65 -2.95
Q 58.75 -3.1 59.15 -3.3
L 59.8 -3.45
Q 60.35 -3.45 60.55 -3.15 60.85 -2.9 60.85 -2.4
L 60.85 -2.2 60.4 -2.2
Q 58.3 -2.2 58.3 -1 58.3 -0.45 58.65 -0.15 59 0.1 59.45 0.1 59.95 0.1 60.3 -0.1 60.7 -0.35 60.85 -0.7
L 60.85 -0.35 60.9 0 61.35 0 61.3 -2.4
Q 61.3 -3.05 60.9 -3.45 60.55 -3.8 59.85 -3.8
L 59.1 -3.65
M 60.25 -0.45
Q 60 -0.25 59.55 -0.25 59.2 -0.25 58.95 -0.45 58.75 -0.6 58.75 -1 58.75 -1.9 60.45 -1.9
L 60.85 -1.9 60.85 -1.55
Q 60.85 -1.25 60.7 -0.95 60.5 -0.6 60.25 -0.45 Z"/>
</g>

<g id="IT_728x90_FR_psd_Asset_V7_3_fournisseur_au_Canada___proposer__une_solution_de_Wi_Fi_en_tant_0_Layer0_0_MEMBER_15_FILL">
<path fill="#D82C26" stroke="none" d="
M 64.45 -3.8
Q 64.05 -3.8 63.65 -3.55 63.35 -3.35 63.15 -2.9
L 63.1 -3.7 62.65 -3.7 62.7 0 63.15 0 63.15 -1.9
Q 63.15 -2.3 63.3 -2.7 63.45 -3.05 63.75 -3.2 64 -3.4 64.4 -3.4 64.95 -3.4 65.15 -3.05 65.4 -2.65 65.4 -2.15
L 65.4 0 65.85 0 65.85 -2.25
Q 65.85 -2.95 65.5 -3.35 65.2 -3.8 64.45 -3.8 Z"/>
</g>

<g id="IT_728x90_FR_psd_Asset_V7_3_fournisseur_au_Canada___proposer__une_solution_de_Wi_Fi_en_tant_0_Layer0_0_MEMBER_16_FILL">
<path fill="#D82C26" stroke="none" d="
M 68.5 -3.45
Q 69.05 -3.45 69.25 -3.15 69.55 -2.9 69.55 -2.4
L 69.55 -2.2 69.1 -2.2
Q 67 -2.2 67 -1 67 -0.45 67.35 -0.15 67.7 0.1 68.15 0.1 68.65 0.1 69 -0.1 69.3 -0.3 69.55 -0.7
L 69.55 -0.35 69.6 0 70.05 0 69.95 -0.8 69.95 -2.4
Q 69.95 -3.1 69.6 -3.45 69.25 -3.8 68.55 -3.8
L 67.8 -3.65
Q 67.45 -3.55 67.2 -3.35
L 67.3 -2.95 67.85 -3.3 68.5 -3.45
M 67.65 -0.45
Q 67.45 -0.6 67.45 -1 67.45 -1.9 69.15 -1.9
L 69.55 -1.9 69.55 -1.55
Q 69.55 -1.25 69.4 -0.95 69.2 -0.6 68.95 -0.45 68.7 -0.25 68.25 -0.25 67.9 -0.25 67.65 -0.45 Z"/>
</g>

<g id="IT_728x90_FR_psd_Asset_V7_3_fournisseur_au_Canada___proposer__une_solution_de_Wi_Fi_en_tant_0_Layer0_0_MEMBER_17_FILL">
<path fill="#D82C26" stroke="none" d="
M 74.95 -6.05
L 74.5 -5.95 74.5 -2.9 74.45 -2.9
Q 74.2 -3.35 73.85 -3.55 73.45 -3.8 73 -3.8 72.5 -3.8 72 -3.55 71.5 -3.15 71.35 -2.85 71.15 -2.45 71.15 -1.85 71.15 -1.25 71.35 -0.85 71.55 -0.4 72 -0.15 72.5 0.1 73 0.1 73.45 0.1 73.85 -0.15 74.3 -0.45 74.5 -0.8
L 74.55 0 75 0 74.95 -6.05
M 72.25 -3.2
Q 72.6 -3.4 73.05 -3.4 73.45 -3.4 73.8 -3.2 74.15 -2.9 74.3 -2.6 74.5 -2.35 74.5 -1.85 74.5 -1.4 74.3 -1.05 74.15 -0.75 73.8 -0.5 73.45 -0.3 73.05 -0.3 72.6 -0.3 72.25 -0.5 71.95 -0.75 71.75 -1.05 71.6 -1.4 71.6 -1.85 71.6 -2.3 71.75 -2.6 72 -3 72.25 -3.2 Z"/>
</g>

<g id="IT_728x90_FR_psd_Asset_V7_3_fournisseur_au_Canada___proposer__une_solution_de_Wi_Fi_en_tant_0_Layer0_0_MEMBER_18_FILL">
<path fill="#D82C26" stroke="none" d="
M 77.65 -3.45
Q 78.1 -3.45 78.4 -3.15 78.7 -2.9 78.7 -2.4
L 78.7 -2.2 78.25 -2.2
Q 76.15 -2.2 76.15 -1 76.15 -0.45 76.45 -0.15 76.85 0.1 77.3 0.1 77.75 0.1 78.15 -0.1 78.5 -0.3 78.65 -0.7
L 78.7 -0.7 78.7 -0.35 78.75 0 79.2 0 79.1 -0.8 79.1 -2.4
Q 79.1 -3.1 78.75 -3.45 78.4 -3.8 77.7 -3.8
L 76.95 -3.65
Q 76.6 -3.55 76.35 -3.35
L 76.45 -2.95 77 -3.3 77.65 -3.45
M 78.1 -0.45
Q 77.85 -0.25 77.4 -0.25 77 -0.25 76.8 -0.45 76.55 -0.6 76.55 -1 76.55 -1.9 78.3 -1.9
L 78.7 -1.9 78.7 -1.55
Q 78.7 -1.25 78.55 -0.95 78.35 -0.6 78.1 -0.45 Z"/>
</g>

<g id="IT_728x90_FR_psd_Asset_V7_3_fournisseur_au_Canada___proposer__une_solution_de_Wi_Fi_en_tant_0_Layer0_0_MEMBER_19_FILL">
<path fill="#D82C26" stroke="none" d="
M 83.55 -3.45
Q 84.05 -3.45 84.35 -3.15 84.6 -2.9 84.6 -2.4
L 84.6 -2.2 84.15 -2.2
Q 82.05 -2.2 82.05 -1 82.05 -0.45 82.4 -0.15 82.8 0.1 83.2 0.1 83.7 0.1 84.05 -0.1 84.45 -0.35 84.6 -0.7
L 84.7 0 85.1 0 85.05 -2.4
Q 85.05 -3.05 84.65 -3.45 84.3 -3.8 83.65 -3.8 83.2 -3.8 82.9 -3.65 82.55 -3.6 82.25 -3.35
L 82.4 -2.95
Q 82.6 -3.15 82.95 -3.3 83.25 -3.45 83.55 -3.45
M 82.75 -0.45
Q 82.5 -0.55 82.5 -1 82.5 -1.9 84.2 -1.9
L 84.6 -1.9 84.6 -1.55
Q 84.6 -1.25 84.45 -0.95 84.3 -0.6 84.05 -0.45 83.8 -0.25 83.3 -0.25 82.95 -0.25 82.75 -0.45
M 83.75 -4.45
L 84.1 -4.45 83.3 -5.55 82.8 -5.55 83.75 -4.45 Z"/>
</g>

<g id="IT_728x90_FR_psd_Asset_V7_3_fournisseur_au_Canada___proposer__une_solution_de_Wi_Fi_en_tant_0_Layer0_0_MEMBER_20_FILL">
<path fill="#D82C26" stroke="none" d="
M 90.2 -3.8
Q 89.75 -3.8 89.35 -3.55 89 -3.35 88.7 -2.9
L 88.65 -3.7 88.2 -3.7 88.25 -3 88.25 1.9 88.7 1.9 88.7 -0.8 88.75 -0.8
Q 88.9 -0.4 89.35 -0.15 89.75 0.1 90.2 0.1 90.7 0.1 91.2 -0.15 91.65 -0.4 91.85 -0.85 92.05 -1.25 92.05 -1.85 92.05 -2.45 91.85 -2.85 91.7 -3.15 91.2 -3.55 90.7 -3.8 90.2 -3.8
M 90.15 -3.4
Q 90.65 -3.4 90.9 -3.2 91.25 -3 91.4 -2.6 91.6 -2.35 91.6 -1.85 91.6 -1.4 91.4 -1.05 91.25 -0.7 90.9 -0.5 90.65 -0.3 90.15 -0.3 89.75 -0.3 89.4 -0.5 89.05 -0.75 88.9 -1.05 88.7 -1.4 88.7 -1.85 88.7 -2.35 88.9 -2.6 89.05 -2.9 89.4 -3.2 89.75 -3.4 90.15 -3.4 Z"/>
</g>

<g id="IT_728x90_FR_psd_Asset_V7_3_fournisseur_au_Canada___proposer__une_solution_de_Wi_Fi_en_tant_0_Layer0_0_MEMBER_21_FILL">
<path fill="#D82C26" stroke="none" d="
M 94.8 -3.8
Q 94.5 -3.8 94.15 -3.55 93.85 -3.3 93.75 -2.9
L 93.7 -2.9 93.65 -3.7 93.25 -3.7 93.25 0 93.75 0 93.75 -1.85
Q 93.75 -2.45 94 -2.95 94.3 -3.4 94.75 -3.4
L 95.1 -3.3 95.2 -3.7 94.8 -3.8 Z"/>
</g>

<g id="IT_728x90_FR_psd_Asset_V7_3_fournisseur_au_Canada___proposer__une_solution_de_Wi_Fi_en_tant_0_Layer0_0_MEMBER_22_FILL">
<path fill="#D82C26" stroke="none" d="
M 95.9 -2.85
Q 95.65 -2.35 95.65 -1.85 95.65 -1.35 95.9 -0.85 96.25 -0.3 96.6 -0.15 97 0.1 97.6 0.1 98.25 0.1 98.6 -0.15 99.05 -0.4 99.3 -0.85 99.55 -1.2 99.55 -1.85 99.55 -2.45 99.3 -2.85 99.05 -3.3 98.6 -3.55 98.1 -3.8 97.6 -3.8 97.1 -3.8 96.6 -3.55 96.25 -3.35 95.9 -2.85
M 97.6 -3.4
Q 98.05 -3.4 98.4 -3.2 98.7 -3 98.9 -2.65 99.1 -2.3 99.1 -1.85 99.1 -1.4 98.95 -1.05 98.65 -0.65 98.4 -0.5 98.15 -0.3 97.6 -0.3 97.15 -0.3 96.8 -0.5 96.45 -0.75 96.3 -1.05 96.1 -1.55 96.1 -1.85 96.1 -2.15 96.3 -2.65 96.45 -2.95 96.8 -3.2 97.15 -3.4 97.6 -3.4 Z"/>
</g>

<g id="IT_728x90_FR_psd_Asset_V7_3_fournisseur_au_Canada___proposer__une_solution_de_Wi_Fi_en_tant_0_Layer0_0_MEMBER_23_FILL">
<path fill="#D82C26" stroke="none" d="
M 101.2 -3.7
L 100.75 -3.7 100.75 1.9 101.25 1.9 101.25 -0.8
Q 101.45 -0.4 101.85 -0.15 102.35 0.1 102.75 0.1 103.2 0.1 103.7 -0.15 104.1 -0.35 104.35 -0.85 104.6 -1.35 104.6 -1.85 104.6 -2.35 104.35 -2.85 104.15 -3.25 103.7 -3.55 103.2 -3.8 102.75 -3.8 102.25 -3.8 101.85 -3.55 101.5 -3.35 101.25 -2.9
L 101.2 -2.9 101.2 -3.7
M 102.65 -3.4
Q 103.1 -3.4 103.45 -3.2 103.7 -3 103.95 -2.6 104.1 -2.3 104.1 -1.85 104.1 -1.4 103.95 -1.05 103.75 -0.75 103.45 -0.5 103.1 -0.3 102.65 -0.3 102.25 -0.3 101.9 -0.5
L 101.4 -1.05
Q 101.2 -1.55 101.2 -1.85 101.2 -2.2 101.4 -2.6 101.65 -3 101.9 -3.2 102.25 -3.4 102.65 -3.4 Z"/>
</g>

<g id="IT_728x90_FR_psd_Asset_V7_3_fournisseur_au_Canada___proposer__une_solution_de_Wi_Fi_en_tant_0_Layer0_0_MEMBER_24_FILL">
<path fill="#D82C26" stroke="none" d="
M 105.8 -2.85
Q 105.55 -2.35 105.55 -1.85 105.55 -1.35 105.8 -0.85 106.05 -0.4 106.5 -0.15 106.9 0.1 107.5 0.1 108.15 0.1 108.5 -0.15 108.95 -0.4 109.2 -0.85 109.45 -1.2 109.45 -1.85 109.45 -2.45 109.2 -2.85 108.95 -3.3 108.5 -3.55 108 -3.8 107.5 -3.8 107 -3.8 106.5 -3.55 106.05 -3.3 105.8 -2.85
M 106 -1.85
Q 106 -2.3 106.2 -2.65 106.35 -2.95 106.7 -3.2 107.05 -3.4 107.5 -3.4 107.95 -3.4 108.3 -3.2 108.65 -2.95 108.8 -2.65 109 -2.3 109 -1.85 109 -1.4 108.8 -1.05 108.65 -0.75 108.3 -0.5 107.95 -0.3 107.5 -0.3 107.05 -0.3 106.7 -0.5 106.35 -0.75 106.2 -1.05 106 -1.4 106 -1.85 Z"/>
</g>

<g id="IT_728x90_FR_psd_Asset_V7_3_fournisseur_au_Canada___proposer__une_solution_de_Wi_Fi_en_tant_0_Layer0_0_MEMBER_25_FILL">
<path fill="#D82C26" stroke="none" d="
M 110.45 -0.7
L 110.35 -0.3 110.9 0 111.65 0.1 112.3 0
Q 112.6 -0.2 112.75 -0.4 112.9 -0.6 112.9 -0.95 112.9 -1.4 112.65 -1.6 112.35 -1.9 111.8 -2.05 111.25 -2.2 111.05 -2.4 110.85 -2.55 110.85 -2.8 110.85 -3.1 111.1 -3.25 111.4 -3.45 111.65 -3.45 111.9 -3.45 112.2 -3.3
L 112.6 -3.05 112.8 -3.4 112.3 -3.7 111.65 -3.8 111.05 -3.7
Q 110.75 -3.55 110.6 -3.35 110.4 -3.05 110.4 -2.8 110.4 -2.35 110.7 -2.15 110.95 -1.9 111.45 -1.75
L 112.25 -1.4
Q 112.5 -1.25 112.5 -0.95 112.5 -0.6 112.25 -0.45 112 -0.25 111.65 -0.25 110.9 -0.25 110.45 -0.7 Z"/>
</g>

<g id="IT_728x90_FR_psd_Asset_V7_3_fournisseur_au_Canada___proposer__une_solution_de_Wi_Fi_en_tant_0_Layer0_0_MEMBER_26_FILL">
<path fill="#D82C26" stroke="none" d="
M 115.65 -3.8
Q 115.2 -3.8 114.7 -3.55 114.25 -3.3 114.05 -2.85 113.8 -2.35 113.8 -1.85 113.8 -1.35 114.05 -0.85 114.3 -0.4 114.75 -0.15 115.05 0.1 115.7 0.1 116.55 0.1 117.15 -0.35
L 117.1 -0.75
Q 116.9 -0.55 116.5 -0.4
L 115.75 -0.25
Q 115.4 -0.25 115 -0.45 114.75 -0.6 114.45 -1 114.25 -1.5 114.25 -1.8
L 117.4 -1.8 117.4 -1.95
Q 117.4 -2.5 117.2 -2.9 116.95 -3.35 116.6 -3.55 116.1 -3.8 115.65 -3.8
M 114.9 -3.25
Q 115.3 -3.45 115.65 -3.45 116.2 -3.45 116.6 -3.05 116.95 -2.7 116.95 -2.1
L 114.25 -2.1 114.45 -2.7
Q 114.6 -3.05 114.9 -3.25 Z"/>
</g>

<g id="IT_728x90_FR_psd_Asset_V7_3_fournisseur_au_Canada___proposer__une_solution_de_Wi_Fi_en_tant_0_Layer0_0_MEMBER_27_FILL">
<path fill="#D82C26" stroke="none" d="
M 120.1 -3.8
Q 119.85 -3.8 119.5 -3.55 119.25 -3.35 119.05 -2.9
L 119 -2.9 119 -3.7 118.55 -3.7 118.6 0 119.05 0 119.05 -1.85
Q 119.05 -2.45 119.3 -2.95 119.6 -3.4 120.1 -3.4
L 120.4 -3.3 120.5 -3.7 120.1 -3.8 Z"/>
</g>

<g id="IT_728x90_FR_psd_Asset_V7_3_fournisseur_au_Canada___proposer__une_solution_de_Wi_Fi_en_tant_0_Layer0_0_MEMBER_28_FILL">
<path fill="#D82C26" stroke="none" d="
M 1.15 5.3
L 0.7 5.3 0.7 7.55
Q 0.7 8.2 1 8.65 1.3 9.1 2 9.1 2.45 9.1 2.85 8.85 3.15 8.65 3.35 8.2
L 3.45 9 3.9 9 3.8 8.1 3.8 5.3 3.35 5.3 3.35 7.15
Q 3.35 7.65 3.2 8 3 8.35 2.75 8.5 2.55 8.7 2.15 8.7 1.55 8.7 1.35 8.35 1.15 8 1.15 7.4
L 1.15 5.3 Z"/>
</g>

<g id="IT_728x90_FR_psd_Asset_V7_3_fournisseur_au_Canada___proposer__une_solution_de_Wi_Fi_en_tant_0_Layer0_0_MEMBER_29_FILL">
<path fill="#D82C26" stroke="none" d="
M 5.7 5.3
L 5.25 5.3 5.3 9 5.75 9 5.75 7.1
Q 5.75 6.6 5.9 6.3
L 6.35 5.75
Q 6.65 5.6 7 5.6 7.55 5.6 7.75 5.95 8 6.35 8 6.85
L 8 9 8.45 9 8.45 6.75
Q 8.45 6.05 8.1 5.65 7.8 5.2 7.1 5.2 6.65 5.2 6.3 5.45 5.9 5.7 5.75 6.1
L 5.7 5.3 Z"/>
</g>

<g id="IT_728x90_FR_psd_Asset_V7_3_fournisseur_au_Canada___proposer__une_solution_de_Wi_Fi_en_tant_0_Layer0_0_MEMBER_30_FILL">
<path fill="#D82C26" stroke="none" d="
M 11.45 5.2
Q 10.9 5.2 10.5 5.45 10.1 5.7 9.85 6.1 9.6 6.6 9.6 7.1 9.6 7.65 9.85 8.15 10.15 8.55 10.55 8.85 10.95 9.1 11.5 9.1 12.35 9.1 13 8.65
L 12.9 8.25 12.3 8.6 11.55 8.7
Q 11.05 8.7 10.8 8.5 10.45 8.3 10.25 7.95
L 10.05 7.2 13.2 7.2 13.2 7
Q 13.2 6.45 13 6.1 12.8 5.7 12.4 5.45 12.1 5.2 11.45 5.2
M 11.45 5.55
Q 12.05 5.55 12.4 5.9 12.75 6.25 12.75 6.85
L 10.1 6.85
Q 10.1 6.55 10.25 6.25 10.4 6 10.7 5.75 11.05 5.55 11.45 5.55 Z"/>
</g>

<g id="IT_728x90_FR_psd_Asset_V7_3_fournisseur_au_Canada___proposer__une_solution_de_Wi_Fi_en_tant_0_Layer0_0_MEMBER_31_FILL">
<path fill="#D82C26" stroke="none" d="
M 16.6 5.3
Q 16.3 5.45 16.15 5.65 15.95 5.85 15.95 6.2 15.95 6.6 16.2 6.85
L 17 7.25
Q 17.55 7.4 17.75 7.6 18 7.75 18 8.05 18 8.35 17.75 8.55 17.55 8.7 17.2 8.7 16.5 8.7 15.95 8.25
L 15.9 8.65
Q 16.15 8.9 16.45 8.95
L 17.2 9.1
Q 17.5 9.1 17.8 8.95 18.05 8.9 18.25 8.6 18.45 8.4 18.45 8 18.45 7.6 18.15 7.35 17.9 7.1 17.3 6.95
L 16.6 6.6
Q 16.4 6.45 16.4 6.2 16.4 5.85 16.6 5.7 16.85 5.55 17.2 5.55
L 17.7 5.65 18.15 5.9 18.35 5.6
Q 18.2 5.45 17.8 5.3 17.6 5.2 17.15 5.2 16.75 5.2 16.6 5.3 Z"/>
</g>

<g id="IT_728x90_FR_psd_Asset_V7_3_fournisseur_au_Canada___proposer__une_solution_de_Wi_Fi_en_tant_0_Layer0_0_MEMBER_32_FILL">
<path fill="#D82C26" stroke="none" d="
M 23 6.1
Q 22.75 5.65 22.3 5.45 21.95 5.2 21.3 5.2 20.7 5.2 20.3 5.45 19.85 5.65 19.6 6.1 19.35 6.6 19.35 7.15 19.35 7.65 19.6 8.15 19.8 8.5 20.3 8.85 20.8 9.1 21.3 9.1 21.8 9.1 22.3 8.85 22.85 8.5 23 8.15 23.25 7.8 23.25 7.15 23.25 6.5 23 6.1
M 21.3 5.6
Q 21.75 5.6 22.1 5.8 22.5 6.1 22.6 6.35 22.8 6.7 22.8 7.15 22.8 7.65 22.6 7.9 22.45 8.3 22.1 8.5 21.75 8.7 21.3 8.7 20.85 8.7 20.5 8.5 20.15 8.2 20 7.9 19.8 7.65 19.8 7.15 19.8 6.7 20 6.35 20.1 6.1 20.5 5.8 20.85 5.6 21.3 5.6 Z"/>
</g>

<g id="IT_728x90_FR_psd_Asset_V7_3_fournisseur_au_Canada___proposer__une_solution_de_Wi_Fi_en_tant_0_Layer0_0_MEMBER_33_FILL">
<path fill="#D82C26" stroke="none" d="
M 24.65 8.75
Q 24.8 8.95 25.05 9.05
L 25.3 8.7 25 8.45 24.95 8.05 24.95 3 24.45 3.1 24.45 8.15
Q 24.45 8.55 24.65 8.75 Z"/>
</g>

<g id="IT_728x90_FR_psd_Asset_V7_3_fournisseur_au_Canada___proposer__une_solution_de_Wi_Fi_en_tant_0_Layer0_0_MEMBER_34_FILL">
<path fill="#D82C26" stroke="none" d="
M 26.8 5.3
L 26.35 5.3 26.35 7.55
Q 26.35 8.25 26.7 8.65 27 9.1 27.7 9.1 28.1 9.1 28.5 8.85 28.9 8.6 29.05 8.2
L 29.1 9 29.55 9 29.5 8.55 29.5 5.3 29.05 5.3 29.05 7.15
Q 29.05 7.65 28.9 8 28.55 8.45 28.45 8.5 28.2 8.7 27.8 8.7 27.25 8.7 27.05 8.35 26.8 7.95 26.8 7.4
L 26.8 5.3 Z"/>
</g>

<g id="IT_728x90_FR_psd_Asset_V7_3_fournisseur_au_Canada___proposer__une_solution_de_Wi_Fi_en_tant_0_Layer0_0_MEMBER_35_FILL">
<path fill="#D82C26" stroke="none" d="
M 31.6 4.25
L 31.15 4.4 31.15 5.3 30.55 5.3 30.45 5.65 31.15 5.65 31.15 8.1
Q 31.15 8.6 31.35 8.8 31.55 9.05 32 9.05
L 32.4 9 32.8 8.85 32.7 8.5
Q 32.45 8.7 32.1 8.7 31.9 8.7 31.75 8.5 31.6 8.35 31.6 8.05
L 31.6 5.65 32.55 5.65 32.65 5.3 31.6 5.3 31.6 4.25 Z"/>
</g>

<g id="IT_728x90_FR_psd_Asset_V7_3_fournisseur_au_Canada___proposer__une_solution_de_Wi_Fi_en_tant_0_Layer0_0_MEMBER_36_FILL">
<path fill="#D82C26" stroke="none" d="
M 34.15 5.3
L 33.7 5.3 33.7 9 34.15 9 34.15 5.3
M 33.95 4.15
Q 34.1 4.15 34.15 4.05 34.25 4 34.25 3.85 34.25 3.65 34.15 3.6
L 33.95 3.5 33.7 3.6 33.6 3.85 33.7 4.05
Q 33.75 4.15 33.95 4.15 Z"/>
</g>

<g id="IT_728x90_FR_psd_Asset_V7_3_fournisseur_au_Canada___proposer__une_solution_de_Wi_Fi_en_tant_0_Layer0_0_MEMBER_37_FILL">
<path fill="#D82C26" stroke="none" d="
M 39 6.1
Q 38.75 5.65 38.3 5.45 37.95 5.2 37.3 5.2 36.7 5.2 36.3 5.45 36 5.6 35.6 6.1 35.35 6.6 35.35 7.15 35.35 7.65 35.6 8.15 35.9 8.55 36.3 8.85 36.8 9.1 37.3 9.1 37.8 9.1 38.3 8.85 38.85 8.5 39 8.15 39.3 7.7 39.3 7.15 39.3 6.55 39 6.1
M 37.3 5.6
Q 37.75 5.6 38.1 5.8 38.45 6 38.65 6.35 38.8 6.75 38.8 7.15 38.8 7.6 38.65 7.9 38.4 8.3 38.1 8.5 37.85 8.7 37.3 8.7 36.85 8.7 36.5 8.5 36.15 8.2 36 7.9 35.8 7.5 35.8 7.15 35.8 6.85 36 6.35 36.1 6.1 36.5 5.8 36.85 5.6 37.3 5.6 Z"/>
</g>

<g id="IT_728x90_FR_psd_Asset_V7_3_fournisseur_au_Canada___proposer__une_solution_de_Wi_Fi_en_tant_0_Layer0_0_MEMBER_38_FILL">
<path fill="#D82C26" stroke="none" d="
M 40.9 6.1
L 40.9 5.3 40.45 5.3 40.5 9 40.95 9 40.95 7.1
Q 40.95 6.6 41.1 6.3 41.2 6 41.55 5.75 41.85 5.6 42.15 5.6 42.75 5.6 42.95 5.95 43.15 6.3 43.15 6.85
L 43.15 9 43.65 9 43.65 6.75
Q 43.65 6.2 43.3 5.65 42.95 5.2 42.25 5.2 41.85 5.2 41.45 5.45 41.1 5.65 40.95 6.1
L 40.9 6.1 Z"/>
</g>

<g id="IT_728x90_FR_psd_Asset_V7_3_fournisseur_au_Canada___proposer__une_solution_de_Wi_Fi_en_tant_0_Layer0_0_MEMBER_39_FILL">
<path fill="#D82C26" stroke="none" d="
M 47.45 5.45
Q 47.05 5.65 46.8 6.15 46.55 6.65 46.55 7.15 46.55 7.65 46.8 8.15 47.05 8.6 47.45 8.85 47.85 9.1 48.4 9.1 48.8 9.1 49.3 8.85 49.65 8.65 49.9 8.2
L 49.95 8.2 49.95 9 50.4 9 50.35 2.95 49.9 3.05 49.9 6.1
Q 49.7 5.7 49.3 5.45 48.95 5.2 48.4 5.2 47.85 5.2 47.45 5.45
M 48.45 5.6
Q 48.95 5.6 49.2 5.8 49.55 6 49.75 6.35 49.95 6.85 49.95 7.15 49.95 7.5 49.75 7.9 49.5 8.3 49.2 8.5 48.95 8.7 48.45 8.7 47.95 8.7 47.7 8.5 47.35 8.2 47.2 7.9 47 7.5 47 7.15 47 6.85 47.2 6.35 47.3 6.1 47.7 5.8 47.95 5.6 48.45 5.6 Z"/>
</g>

<g id="IT_728x90_FR_psd_Asset_V7_3_fournisseur_au_Canada___proposer__une_solution_de_Wi_Fi_en_tant_0_Layer0_0_MEMBER_40_FILL">
<path fill="#D82C26" stroke="none" d="
M 52.45 5.45
Q 52.05 5.7 51.8 6.1 51.55 6.6 51.55 7.1 51.55 7.65 51.8 8.15 52.1 8.55 52.5 8.85 52.9 9.1 53.45 9.1 54.3 9.1 54.95 8.65
L 54.85 8.25 54.25 8.6 53.5 8.7
Q 53 8.7 52.75 8.5 52.4 8.3 52.2 7.95
L 52 7.2 55.15 7.2 55.15 7
Q 55.15 6.45 54.95 6.1 54.75 5.7 54.35 5.45 54.05 5.2 53.4 5.2 52.85 5.2 52.45 5.45
M 53.4 5.55
Q 54 5.55 54.35 5.9 54.7 6.35 54.7 6.85
L 52.05 6.85
Q 52.05 6.55 52.2 6.25 52.35 6 52.65 5.75 53 5.55 53.4 5.55 Z"/>
</g>

<g id="IT_728x90_FR_psd_Asset_V7_3_fournisseur_au_Canada___proposer__une_solution_de_Wi_Fi_en_tant_0_Layer0_0_MEMBER_41_FILL">
<path fill="#D82C26" stroke="none" d="
M 61.2 4
L 62.7 9 63.25 9 64.9 3.4 64.4 3.4 62.95 8.35 61.5 3.4 60.9 3.4 59.5 8.35 58.05 3.4 57.55 3.4 59.2 9 59.75 9 61.2 4 Z"/>
</g>

<g id="IT_728x90_FR_psd_Asset_V7_3_fournisseur_au_Canada___proposer__une_solution_de_Wi_Fi_en_tant_0_Layer0_0_MEMBER_42_FILL">
<path fill="#D82C26" stroke="none" d="
M 66.1 4.15
Q 66.3 4.15 66.35 4.05
L 66.45 3.85 66.35 3.6 66.1 3.5 65.9 3.6
Q 65.8 3.65 65.8 3.85 65.8 4 65.9 4.05 65.95 4.15 66.1 4.15
M 66.35 5.3
L 65.9 5.3 65.9 9 66.35 9 66.35 5.3 Z"/>
</g>

<g id="IT_728x90_FR_psd_Asset_V7_3_fournisseur_au_Canada___proposer__une_solution_de_Wi_Fi_en_tant_0_Layer0_0_MEMBER_43_FILL">
<path fill="#D82C26" stroke="none" d="
M 67.6 6.8
L 67.6 7.2 69.2 7.2 69.2 6.8 67.6 6.8 Z"/>
</g>

<g id="IT_728x90_FR_psd_Asset_V7_3_fournisseur_au_Canada___proposer__une_solution_de_Wi_Fi_en_tant_0_Layer0_0_MEMBER_44_FILL">
<path fill="#D82C26" stroke="none" d="
M 73.4 3.85
L 73.45 3.4 70.6 3.4 70.6 9 71.05 9 71.05 6.35 73.2 6.35 73.3 5.9 71.05 5.9 71.05 3.85 73.4 3.85 Z"/>
</g>

<g id="IT_728x90_FR_psd_Asset_V7_3_fournisseur_au_Canada___proposer__une_solution_de_Wi_Fi_en_tant_0_Layer0_0_MEMBER_45_FILL">
<path fill="#D82C26" stroke="none" d="
M 75.05 5.3
L 74.6 5.3 74.6 9 75.05 9 75.05 5.3
M 74.85 4.15
Q 75 4.15 75.05 4.05
L 75.15 3.85 75.05 3.6 74.85 3.5 74.6 3.6 74.5 3.85 74.6 4.05
Q 74.65 4.15 74.85 4.15 Z"/>
</g>

<g id="IT_728x90_FR_psd_Asset_V7_3_fournisseur_au_Canada___proposer__une_solution_de_Wi_Fi_en_tant_0_Layer0_0_MEMBER_46_FILL">
<path fill="#D82C26" stroke="none" d="
M 81.6 7
Q 81.6 6.45 81.4 6.1 81.2 5.7 80.8 5.45 80.5 5.2 79.85 5.2 79.25 5.2 78.95 5.45 78.65 5.6 78.25 6.1 78.05 6.5 78.05 7.1 78.05 7.8 78.3 8.15 78.5 8.55 78.95 8.85 79.45 9.1 79.9 9.1 80.8 9.1 81.4 8.65
L 81.3 8.25 80.7 8.6 79.95 8.7
Q 79.45 8.7 79.2 8.5 78.8 8.2 78.7 7.95 78.5 7.7 78.5 7.2
L 81.6 7.2 81.6 7
M 79.85 5.55
Q 80.45 5.55 80.8 5.9 81.15 6.25 81.15 6.85
L 78.5 6.85
Q 78.5 6.55 78.65 6.25 78.75 6.05 79.15 5.75 79.4 5.55 79.85 5.55 Z"/>
</g>

<g id="IT_728x90_FR_psd_Asset_V7_3_fournisseur_au_Canada___proposer__une_solution_de_Wi_Fi_en_tant_0_Layer0_0_MEMBER_47_FILL">
<path fill="#D82C26" stroke="none" d="
M 83.2 5.3
L 82.75 5.3 82.8 9 83.25 9 83.25 7.1
Q 83.25 6.55 83.45 6.3 83.55 6.05 83.85 5.75 84.15 5.6 84.5 5.6 85.05 5.6 85.25 5.95 85.5 6.35 85.5 6.85
L 85.5 9 85.95 9 85.95 6.75
Q 85.95 6.05 85.6 5.65 85.3 5.2 84.6 5.2 84.15 5.2 83.8 5.45 83.4 5.7 83.25 6.1
L 83.2 5.3 Z"/>
</g>

<g id="IT_728x90_FR_psd_Asset_V7_3_fournisseur_au_Canada___proposer__une_solution_de_Wi_Fi_en_tant_0_Layer0_0_MEMBER_48_FILL">
<path fill="#D82C26" stroke="none" d="
M 90.65 5.65
L 90.75 5.3 89.7 5.3 89.7 4.25 89.2 4.4 89.2 5.3 88.65 5.3 88.55 5.65 89.25 5.65 89.25 8.1
Q 89.25 8.6 89.45 8.8 89.65 9.05 90.1 9.05
L 90.5 9 90.85 8.85 90.8 8.5
Q 90.55 8.7 90.2 8.7 90 8.7 89.85 8.5 89.7 8.35 89.7 8.05
L 89.7 5.65 90.65 5.65 Z"/>
</g>

<g id="IT_728x90_FR_psd_Asset_V7_3_fournisseur_au_Canada___proposer__une_solution_de_Wi_Fi_en_tant_0_Layer0_0_MEMBER_49_FILL">
<path fill="#D82C26" stroke="none" d="
M 93.1 5.55
Q 93.55 5.55 93.9 5.8 94.15 6.15 94.15 6.55
L 94.15 6.75 93.7 6.75
Q 91.6 6.75 91.6 8 91.6 8.5 91.95 8.8 92.35 9.1 92.75 9.1 93.2 9.1 93.6 8.85 94 8.7 94.15 8.25
L 94.25 9 94.65 9 94.6 6.6
Q 94.6 5.85 94.2 5.55 93.85 5.2 93.2 5.2
L 92.45 5.3 91.8 5.65 91.95 6 92.5 5.7
Q 92.8 5.55 93.1 5.55
M 93.75 7.1
L 94.15 7.1 94.15 7.45
Q 94.15 7.75 94 8.05
L 93.6 8.55
Q 93.2 8.75 92.85 8.75 92.5 8.75 92.3 8.55 92.05 8.45 92.05 7.95 92.05 7.1 93.75 7.1 Z"/>
</g>

<g id="IT_728x90_FR_psd_Asset_V7_3_fournisseur_au_Canada___proposer__une_solution_de_Wi_Fi_en_tant_0_Layer0_0_MEMBER_50_FILL">
<path fill="#D82C26" stroke="none" d="
M 96.45 6.1
L 96.4 5.3 95.95 5.3 96 9 96.45 9 96.45 7.1
Q 96.45 6.55 96.65 6.3 96.75 6.05 97.05 5.75 97.35 5.6 97.7 5.6 98.25 5.6 98.45 5.95 98.7 6.35 98.7 6.85
L 98.7 9 99.15 9 99.15 6.75
Q 99.15 6.05 98.8 5.65 98.5 5.2 97.8 5.2 97.4 5.2 97 5.45 96.6 5.7 96.45 6.1 Z"/>
</g>

<g id="IT_728x90_FR_psd_Asset_V7_3_fournisseur_au_Canada___proposer__une_solution_de_Wi_Fi_en_tant_0_Layer0_0_MEMBER_51_FILL">
<path fill="#D82C26" stroke="none" d="
M 101.5 9.05
L 101.9 9 102.3 8.85 102.2 8.5
Q 101.95 8.7 101.65 8.7 101.4 8.7 101.25 8.5 101.1 8.35 101.1 8.05
L 101.1 5.65 102.05 5.65 102.15 5.3 101.1 5.3 101.1 4.25 100.65 4.4 100.65 5.3 100.05 5.3 99.95 5.65 100.65 5.65 100.65 8.1
Q 100.65 8.6 100.85 8.8 101.05 9.05 101.5 9.05 Z"/>
</g>

<g id="IT_728x90_FR_psd_Asset_V7_3_fournisseur_au_Canada___proposer__une_solution_de_Wi_Fi_en_tant_0_Layer0_0_MEMBER_52_FILL">
<path fill="#D82C26" stroke="none" d="
M 107.35 5.45
Q 107.05 5.2 106.5 5.2 106 5.2 105.5 5.45 105.05 5.7 104.85 6.15 104.65 6.55 104.65 7.15 104.65 7.75 104.85 8.15 105.05 8.5 105.5 8.85 106 9.1 106.5 9.1 106.95 9.1 107.35 8.85 107.7 8.65 107.95 8.2
L 108 8.2 108 9.85
Q 108 10.7 108.75 10.85
L 109 10.5 108.55 10.25 108.45 9.75 108.45 5.3 108 5.3 108 6.1 107.95 6.1
Q 107.85 5.75 107.35 5.45
M 106.55 5.6
Q 106.95 5.6 107.3 5.8 107.7 6.1 107.8 6.35 108 6.7 108 7.15 108 7.65 107.8 7.9 107.65 8.2 107.3 8.5 106.95 8.7 106.55 8.7 106.1 8.7 105.75 8.5 105.5 8.3 105.25 7.9 105.1 7.6 105.1 7.15 105.1 6.75 105.25 6.35 105.45 6.05 105.75 5.8 106.1 5.6 106.55 5.6 Z"/>
</g>

<g id="IT_728x90_FR_psd_Asset_V7_3_fournisseur_au_Canada___proposer__une_solution_de_Wi_Fi_en_tant_0_Layer0_0_MEMBER_53_FILL">
<path fill="#D82C26" stroke="none" d="
M 113 5.3
L 112.55 5.3 112.55 7.15
Q 112.55 7.65 112.35 8 112.2 8.35 111.95 8.5 111.7 8.7 111.3 8.7 110.75 8.7 110.55 8.35 110.3 7.95 110.3 7.4
L 110.3 5.3 109.85 5.3 109.85 7.55
Q 109.85 8.2 110.15 8.65 110.55 9.1 111.2 9.1 111.6 9.1 112 8.85 112.4 8.6 112.55 8.2
L 112.6 9 113.05 9 113 8.55 113 5.3 Z"/>
</g>

<g id="IT_728x90_FR_psd_Asset_V7_3_fournisseur_au_Canada___proposer__une_solution_de_Wi_Fi_en_tant_0_Layer0_0_MEMBER_54_FILL">
<path fill="#D82C26" stroke="none" d="
M 117.55 6.1
Q 117.4 5.7 116.95 5.45 116.65 5.2 116 5.2 115.4 5.2 115.1 5.45 114.75 5.65 114.45 6.1 114.2 6.6 114.2 7.1 114.2 7.65 114.45 8.15 114.6 8.45 115.1 8.85 115.6 9.1 116.1 9.1 116.95 9.1 117.55 8.65
L 117.45 8.25 116.9 8.6 116.1 8.7
Q 115.7 8.7 115.35 8.5 114.95 8.2 114.85 7.95 114.65 7.7 114.65 7.2
L 117.75 7.2 117.75 7
Q 117.75 6.45 117.55 6.1
M 115.3 5.75
Q 115.55 5.55 116 5.55 116.65 5.55 116.95 5.9 117.25 6.2 117.35 6.85
L 114.65 6.85
Q 114.65 6.5 114.85 6.25 115 6 115.3 5.75 Z"/>
</g>

<g id="IT_728x90_FR_psd_Asset_V7_3_fournisseur_au_Canada___proposer__une_solution_de_Wi_Fi_en_tant_0_Layer0_0_MEMBER_55_FILL">
<path fill="#D82C26" stroke="none" d="
M 2.7 14.9
L 2.9 14.55 2.4 14.3 1.7 14.15
Q 1.4 14.15 1.15 14.3 0.85 14.4 0.7 14.65 0.5 14.85 0.5 15.2 0.5 15.55 0.75 15.8 1.1 16.1 1.55 16.2
L 2.3 16.55
Q 2.55 16.75 2.55 17 2.55 17.4 2.3 17.5 2.1 17.7 1.75 17.7 1.05 17.7 0.5 17.25
L 0.45 17.65
Q 0.6 17.8 1 17.95 1.25 18.05 1.75 18.05
L 2.35 17.95
Q 2.7 17.8 2.8 17.6 3 17.35 3 17 3 16.6 2.75 16.35
L 1.15 15.6
Q 0.95 15.45 0.95 15.15 0.95 14.85 1.15 14.7 1.4 14.55 1.75 14.55 2.1 14.55 2.25 14.65
L 2.7 14.9 Z"/>
</g>

<g id="IT_728x90_FR_psd_Asset_V7_3_fournisseur_au_Canada___proposer__une_solution_de_Wi_Fi_en_tant_0_Layer0_0_MEMBER_56_FILL">
<path fill="#D82C26" stroke="none" d="
M 7.25 15.05
Q 7.1 14.6 6.65 14.4 6.25 14.15 5.7 14.15 5.2 14.15 4.8 14.4 4.35 14.7 4.15 15.1 3.9 15.6 3.9 16.1 3.9 16.6 4.15 17.1 4.35 17.55 4.8 17.8 5.2 18.05 5.8 18.05 6.65 18.05 7.25 17.6
L 7.2 17.2 6.6 17.55 5.85 17.7
Q 5.4 17.7 5.05 17.5 4.7 17.25 4.55 16.95 4.35 16.6 4.35 16.2
L 7.45 16.2 7.5 16
Q 7.5 15.55 7.25 15.05
M 5.7 14.55
Q 6.35 14.55 6.65 14.9 7.05 15.3 7.05 15.85
L 4.35 15.85
Q 4.35 15.65 4.55 15.25 4.75 14.9 5 14.75 5.25 14.55 5.7 14.55 Z"/>
</g>

<g id="IT_728x90_FR_psd_Asset_V7_3_fournisseur_au_Canada___proposer__une_solution_de_Wi_Fi_en_tant_0_Layer0_0_MEMBER_57_FILL">
<path fill="#D82C26" stroke="none" d="
M 8.6 14.3
L 8.65 17.95 9.15 17.95 9.15 16.15
Q 9.15 15.45 9.4 15.05 9.7 14.6 10.15 14.6
L 10.5 14.65 10.6 14.25 10.2 14.15
Q 9.9 14.15 9.55 14.4 9.25 14.6 9.1 15.1
L 9.05 14.3 8.6 14.3 Z"/>
</g>

<g id="IT_728x90_FR_psd_Asset_V7_3_fournisseur_au_Canada___proposer__une_solution_de_Wi_Fi_en_tant_0_Layer0_0_MEMBER_58_FILL">
<path fill="#D82C26" stroke="none" d="
M 11.1 14.3
L 12.55 17.95 13.05 17.95 14.45 14.3 13.95 14.3 12.8 17.5 11.6 14.3 11.1 14.3 Z"/>
</g>

<g id="IT_728x90_FR_psd_Asset_V7_3_fournisseur_au_Canada___proposer__une_solution_de_Wi_Fi_en_tant_0_Layer0_0_MEMBER_59_FILL">
<path fill="#D82C26" stroke="none" d="
M 15.8 14.3
L 15.35 14.3 15.35 17.95 15.8 17.95 15.8 14.3
M 15.6 13.15
L 15.8 13.05
Q 15.9 13 15.9 12.8 15.9 12.65 15.8 12.55
L 15.6 12.5 15.35 12.55 15.25 12.8 15.35 13.05 15.6 13.15 Z"/>
</g>

<g id="IT_728x90_FR_psd_Asset_V7_3_fournisseur_au_Canada___proposer__une_solution_de_Wi_Fi_en_tant_0_Layer0_0_MEMBER_60_FILL">
<path fill="#D82C26" stroke="none" d="
M 18.95 14.15
Q 18.45 14.15 17.95 14.4 17.45 14.75 17.25 15.1 17 15.6 17 16.1 17 16.65 17.25 17.15 17.45 17.55 17.95 17.8 18.35 18.05 18.9 18.05 19.4 18.05 19.65 17.95
L 20.2 17.6 20.1 17.25
Q 19.85 17.5 19.6 17.55 19.4 17.65 18.95 17.65 18.45 17.65 18.2 17.45 17.85 17.25 17.65 16.9 17.5 16.55 17.5 16.1
L 17.65 15.35
Q 17.9 14.95 18.2 14.75 18.6 14.55 18.95 14.55
L 19.5 14.65 20 14.95 20.2 14.6
Q 19.8 14.35 19.65 14.3
L 18.95 14.15 Z"/>
</g>

<g id="IT_728x90_FR_psd_Asset_V7_3_fournisseur_au_Canada___proposer__une_solution_de_Wi_Fi_en_tant_0_Layer0_0_MEMBER_61_FILL">
<path fill="#D82C26" stroke="none" d="
M 24.25 15.05
Q 24.1 14.6 23.65 14.4 23.25 14.15 22.7 14.15 22.2 14.15 21.8 14.4 21.35 14.7 21.15 15.1 20.9 15.5 20.9 16.1 20.9 16.75 21.15 17.1 21.4 17.6 21.8 17.8 22.2 18.05 22.8 18.05 23.65 18.05 24.25 17.6
L 24.15 17.2
Q 23.95 17.4 23.55 17.55 23.25 17.7 22.8 17.7 22.4 17.7 22.05 17.5 21.7 17.25 21.55 16.95 21.35 16.6 21.35 16.2
L 24.45 16.2 24.45 16
Q 24.45 15.45 24.25 15.05
M 22 14.75
Q 22.25 14.55 22.7 14.55 23.3 14.55 23.65 14.9 23.95 15.2 24.05 15.85
L 21.35 15.85
Q 21.35 15.5 21.55 15.25 21.75 14.9 22 14.75 Z"/>
</g>

<g id="IT_728x90_FR_psd_Asset_V7_3_fournisseur_au_Canada___proposer__une_solution_de_Wi_Fi_en_tant_0_Layer0_0_MEMBER_62_FILL">
<path fill="#D82C26" stroke="none" d="
M 29 14.15
Q 28.55 14.15 28.05 14.4 27.6 14.7 27.4 15.1 27.15 15.6 27.15 16.1 27.15 16.6 27.4 17.1 27.6 17.55 28.05 17.8 28.45 18.05 29.05 18.05 29.9 18.05 30.5 17.6
L 30.45 17.2 29.85 17.55 29.1 17.7
Q 28.65 17.7 28.3 17.5 28.1 17.35 27.8 16.95 27.6 16.6 27.6 16.2
L 30.7 16.2 30.75 16
Q 30.75 15.65 30.55 15.05 30.3 14.6 29.95 14.4 29.45 14.15 29 14.15
M 29 14.55
Q 29.6 14.55 29.9 14.9 30.3 15.3 30.3 15.85
L 27.6 15.85
Q 27.6 15.65 27.8 15.25 28 14.9 28.25 14.75 28.5 14.55 29 14.55 Z"/>
</g>

<g id="IT_728x90_FR_psd_Asset_V7_3_fournisseur_au_Canada___proposer__une_solution_de_Wi_Fi_en_tant_0_Layer0_0_MEMBER_63_FILL">
<path fill="#D82C26" stroke="none" d="
M 34.75 14.6
Q 34.4 14.15 33.7 14.15 33.3 14.15 32.9 14.4 32.55 14.7 32.4 15.1
L 32.35 15.1 32.35 14.3 31.9 14.3 31.95 17.95 32.4 17.95 32.4 16.1
Q 32.4 15.65 32.55 15.25 32.75 14.9 33 14.75 33.25 14.55 33.6 14.55 34.15 14.55 34.4 14.9 34.6 15.25 34.6 15.85
L 34.6 17.95 35.1 17.95 35.1 15.7
Q 35.1 15.15 34.75 14.6 Z"/>
</g>

<g id="IT_728x90_FR_psd_Asset_V7_3_fournisseur_au_Canada___proposer__une_solution_de_Wi_Fi_en_tant_0_Layer0_0_MEMBER_64_FILL">
<path fill="#D82C26" stroke="none" d="
M 35.85 14.65
L 36.55 14.65 36.55 17.05
Q 36.55 17.45 36.8 17.8 37.05 18.05 37.4 18.05
L 37.85 18 38.2 17.85 38.15 17.5
Q 37.8 17.65 37.55 17.65 37.3 17.65 37.15 17.5 37 17.35 37 17
L 37 14.65 37.95 14.65 38.05 14.3 37 14.3 37 13.2 36.55 13.4 36.55 14.3 35.95 14.3 35.85 14.65 Z"/>
</g>

<g id="IT_728x90_FR_psd_Asset_V7_3_fournisseur_au_Canada___proposer__une_solution_de_Wi_Fi_en_tant_0_Layer0_0_MEMBER_65_FILL">
<path fill="#D82C26" stroke="none" d="
M 39.6 14.3
L 39.15 14.3 39.15 17.95 39.6 17.95 39.6 14.3
M 39.35 13.15
L 39.6 13.05 39.7 12.8 39.6 12.55 39.35 12.5 39.15 12.55
Q 39.05 12.65 39.05 12.8 39.05 13 39.15 13.05
L 39.35 13.15 Z"/>
</g>

<g id="IT_728x90_FR_psd_Asset_V7_3_fournisseur_au_Canada___proposer__une_solution_de_Wi_Fi_en_tant_0_Layer0_0_MEMBER_66_FILL">
<path fill="#D82C26" stroke="none" d="
M 41.65 12.4
L 42.6 13.5 43 13.5 42.2 12.4 41.65 12.4
M 44.15 15.05
Q 44 14.6 43.55 14.4 43.15 14.15 42.6 14.15 42.1 14.15 41.7 14.4 41.25 14.7 41.05 15.1 40.8 15.6 40.8 16.1 40.8 16.6 41.05 17.1 41.25 17.55 41.7 17.8 42.1 18.05 42.7 18.05 43.55 18.05 44.15 17.6
L 44.1 17.2 43.5 17.55
Q 43.15 17.7 42.7 17.7 42.3 17.7 41.95 17.5 41.6 17.25 41.45 16.95 41.25 16.6 41.25 16.2
L 44.35 16.2 44.35 16
Q 44.35 15.45 44.15 15.05
M 41.9 14.75
Q 42.15 14.55 42.6 14.55 43.25 14.55 43.55 14.9 43.85 15.2 43.95 15.85
L 41.25 15.85
Q 41.25 15.5 41.45 15.25 41.65 14.9 41.9 14.75 Z"/>
</g>

<g id="IT_728x90_FR_psd_Asset_V7_3_fournisseur_au_Canada___proposer__une_solution_de_Wi_Fi_en_tant_0_Layer0_0_MEMBER_67_FILL">
<path fill="#D82C26" stroke="none" d="
M 46.45 14.4
Q 46.15 14.6 46 15.1
L 45.95 14.3 45.5 14.3 45.55 17.95 46 17.95 46 16.15
Q 46 15.5 46.3 15.05 46.6 14.6 47.05 14.6
L 47.4 14.65 47.5 14.25 47.1 14.15
Q 46.8 14.15 46.45 14.4 Z"/>
</g>

<g id="IT_728x90_FR_psd_Asset_V7_3_fournisseur_au_Canada___proposer__une_solution_de_Wi_Fi_en_tant_0_Layer0_0_MEMBER_68_FILL">
<path fill="#D82C26" stroke="none" d="
M 48.85 14.4
Q 48.4 14.7 48.2 15.1 47.95 15.6 47.95 16.1 47.95 16.6 48.2 17.1 48.4 17.55 48.85 17.8 49.25 18.05 49.85 18.05 50.7 18.05 51.3 17.6
L 51.25 17.2 50.65 17.55 49.9 17.7
Q 49.45 17.7 49.1 17.5 48.75 17.25 48.6 16.95 48.4 16.6 48.4 16.2
L 51.5 16.2 51.55 16
Q 51.55 15.65 51.35 15.05 51.05 14.6 50.7 14.4 50.3 14.15 49.8 14.15 49.35 14.15 48.85 14.4
M 49.05 14.75
Q 49.3 14.55 49.8 14.55 50.4 14.55 50.7 14.9 51.1 15.3 51.1 15.85
L 48.4 15.85
Q 48.4 15.65 48.6 15.25 48.8 14.9 49.05 14.75 Z"/>
</g>

<g id="IT_728x90_FR_psd_Asset_V7_3_fournisseur_au_Canada___proposer__une_solution_de_Wi_Fi_en_tant_0_Layer0_0_MEMBER_69_FILL">
<path fill="#D82C26" stroke="none" d="
M 57 14.15
Q 56.55 14.15 56.2 14.4 55.75 14.75 55.65 15.1 55.55 14.75 55.2 14.4 54.85 14.15 54.45 14.15 54.05 14.15 53.7 14.4 53.35 14.7 53.2 15.1
L 53.15 15.1 53.15 14.3 52.7 14.3 52.7 17.95 53.2 17.95 53.2 16.15
Q 53.2 15.6 53.35 15.3 53.5 14.9 53.75 14.75 54 14.55 54.35 14.55 54.85 14.55 55.05 14.9 55.25 15.15 55.25 15.8
L 55.25 17.95 55.75 17.95 55.75 16.05
Q 55.75 15.4 56.05 15 56.35 14.55 56.9 14.55 57.4 14.55 57.65 14.95 57.85 15.3 57.85 15.85
L 57.85 17.95 58.3 17.95 58.3 15.75
Q 58.3 15.05 58 14.6 57.7 14.15 57 14.15 Z"/>
</g>

<g id="IT_728x90_FR_psd_Asset_V7_3_fournisseur_au_Canada___proposer__une_solution_de_Wi_Fi_en_tant_0_Layer0_0_MEMBER_70_FILL">
<path fill="#D82C26" stroke="none" d="
M 62.85 15.05
Q 62.7 14.6 62.25 14.4 61.85 14.15 61.3 14.15 60.8 14.15 60.4 14.4 59.95 14.7 59.75 15.1 59.5 15.5 59.5 16.1 59.5 16.6 59.75 17.1 60 17.6 60.4 17.8 60.8 18.05 61.4 18.05 62.25 18.05 62.85 17.6
L 62.75 17.2
Q 62.55 17.4 62.15 17.55 61.85 17.7 61.4 17.7 61 17.7 60.65 17.5 60.3 17.25 60.15 16.95 59.95 16.6 59.95 16.2
L 63.05 16.2 63.05 16
Q 63.05 15.45 62.85 15.05
M 61.3 14.55
Q 61.95 14.55 62.25 14.9 62.55 15.2 62.65 15.85
L 59.95 15.85
Q 59.95 15.5 60.15 15.25 60.35 14.9 60.6 14.75 60.85 14.55 61.3 14.55 Z"/>
</g>

<g id="IT_728x90_FR_psd_Asset_V7_3_fournisseur_au_Canada___proposer__une_solution_de_Wi_Fi_en_tant_0_Layer0_0_MEMBER_71_FILL">
<path fill="#D82C26" stroke="none" d="
M 67.1 14.6
Q 66.75 14.15 66.05 14.15 65.65 14.15 65.25 14.4 64.9 14.65 64.7 15.1
L 64.65 14.3 64.25 14.3 64.25 17.95 64.75 17.95 64.75 16.1
Q 64.75 15.65 64.9 15.25 65.1 14.9 65.35 14.75 65.55 14.55 65.95 14.55 66.45 14.55 66.7 14.9 66.95 15.2 66.95 15.85
L 66.95 17.95 67.4 17.95 67.4 15.7
Q 67.4 15.05 67.1 14.6 Z"/>
</g>

<g id="IT_728x90_FR_psd_Asset_V7_3_fournisseur_au_Canada___proposer__une_solution_de_Wi_Fi_en_tant_0_Layer0_0_MEMBER_72_FILL">
<path fill="#D82C26" stroke="none" d="
M 68.9 13.4
L 68.9 14.3 68.3 14.3 68.2 14.65 68.9 14.65 68.9 17.05
Q 68.9 17.45 69.15 17.8 69.4 18.05 69.75 18.05
L 70.15 18 70.55 17.85 70.5 17.5 69.9 17.65
Q 69.65 17.65 69.5 17.5 69.35 17.35 69.35 17
L 69.35 14.65 70.3 14.65 70.4 14.3 69.35 14.3 69.35 13.2 68.9 13.4 Z"/>
</g>

<g id="IT_728x90_FR_psd_Asset_V7_3_fournisseur_au_Canada___proposer__une_solution_de_Wi_Fi_en_tant_0_Layer0_0_MEMBER_73_FILL">
<path fill="#D82C26" stroke="none" d="
M 76.7 17.9
L 76.75 14.3 76.3 14.3 76.25 15.1
Q 76 14.6 75.6 14.4 75.2 14.15 74.75 14.15 74.2 14.15 73.8 14.45 73.45 14.65 73.1 15.15 72.9 15.55 72.9 16.1 72.9 16.7 73.1 17.1 73.4 17.5 73.8 17.8 74.2 18.05 74.75 18.05 75.2 18.05 75.6 17.8 75.95 17.6 76.25 17.15
L 76.25 17.9
Q 76.25 18.7 75.9 19.1 75.5 19.5 74.7 19.5
L 73.95 19.35
Q 73.7 19.3 73.2 19
L 73.15 19.45
Q 73.45 19.65 73.85 19.75 74.3 19.9 74.75 19.9 75.7 19.9 76.25 19.35 76.7 18.85 76.7 17.9
M 76.25 16.1
Q 76.25 16.55 76.1 16.9 75.8 17.3 75.55 17.45 75.3 17.65 74.8 17.65 74.3 17.65 74.05 17.45 73.75 17.25 73.55 16.9 73.35 16.55 73.35 16.1 73.35 15.6 73.55 15.35 73.7 14.95 74.05 14.75 74.45 14.55 74.8 14.55 75.15 14.55 75.55 14.75 75.85 14.95 76.1 15.35 76.25 15.65 76.25 16.1 Z"/>
</g>

<g id="IT_728x90_FR_psd_Asset_V7_3_fournisseur_au_Canada___proposer__une_solution_de_Wi_Fi_en_tant_0_Layer0_0_MEMBER_74_FILL">
<path fill="#D82C26" stroke="none" d="
M 79.75 13.5
L 80.75 12.4 80.2 12.4 79.4 13.5 79.75 13.5
M 81.45 16
Q 81.45 15.45 81.25 15.05 81.1 14.6 80.65 14.4 80.25 14.15 79.7 14.15 79.2 14.15 78.8 14.4 78.35 14.7 78.15 15.1 77.9 15.6 77.9 16.1 77.9 16.6 78.15 17.1 78.35 17.55 78.8 17.8 79.2 18.05 79.8 18.05 80.65 18.05 81.25 17.6
L 81.15 17.2 80.6 17.55
Q 80.25 17.7 79.8 17.7 79.4 17.7 79.05 17.5 78.7 17.25 78.55 16.95 78.35 16.6 78.35 16.2
L 81.45 16.2 81.45 16
M 78.55 15.25
Q 78.75 14.9 79 14.75 79.25 14.55 79.7 14.55 80.35 14.55 80.65 14.9 80.95 15.2 81.05 15.85
L 78.35 15.85
Q 78.35 15.5 78.55 15.25 Z"/>
</g>

<g id="IT_728x90_FR_psd_Asset_V7_3_fournisseur_au_Canada___proposer__une_solution_de_Wi_Fi_en_tant_0_Layer0_0_MEMBER_75_FILL">
<path fill="#D82C26" stroke="none" d="
M 84.2 14.15
Q 83.9 14.15 83.55 14.4 83.25 14.6 83.1 15.1
L 83.05 14.3 82.6 14.3 82.65 17.95 83.1 17.95 83.1 16.15
Q 83.1 15.5 83.4 15.05 83.7 14.6 84.15 14.6
L 84.5 14.65 84.6 14.25 84.2 14.15 Z"/>
</g>

<g id="IT_728x90_FR_psd_Asset_V7_3_fournisseur_au_Canada___proposer__une_solution_de_Wi_Fi_en_tant_0_Layer0_0_MEMBER_76_FILL">
<path fill="#D82C26" stroke="none" d="
M 88.4 15.05
Q 88.25 14.6 87.8 14.4 87.4 14.15 86.85 14.15 86.35 14.15 85.95 14.4 85.5 14.7 85.3 15.1 85.05 15.6 85.05 16.1 85.05 16.6 85.3 17.1 85.5 17.55 85.95 17.8 86.35 18.05 86.95 18.05 87.8 18.05 88.4 17.6
L 88.35 17.2 87.75 17.55 87 17.7
Q 86.55 17.7 86.2 17.5 85.85 17.25 85.7 16.95 85.5 16.6 85.5 16.2
L 88.6 16.2 88.65 16
Q 88.65 15.55 88.4 15.05
M 86.85 14.55
Q 87.5 14.55 87.8 14.9 88.2 15.3 88.2 15.85
L 85.5 15.85
Q 85.5 15.65 85.7 15.25 85.9 14.9 86.15 14.75 86.4 14.55 86.85 14.55
M 87.35 12.4
L 86.55 13.5 86.95 13.5 87.9 12.4 87.35 12.4 Z"/>
</g>

<g id="IT_728x90_FR_psd_Asset_V7_3_fournisseur_au_Canada___proposer__une_solution_de_Wi_Fi_en_tant_0_Layer0_0_MEMBER_77_FILL">
<path fill="#D82C26" stroke="none" d="
M 89.75 17.9
Q 89.85 18 90 18 90.2 18 90.25 17.9 90.35 17.85 90.35 17.65 90.35 17.45 90.25 17.4
L 90 17.3 89.75 17.4 89.65 17.65 89.75 17.9 Z"/>
</g>
</defs>

<g transform="matrix( 1, 0, 0, 1, -261,-59) ">
<g transform="matrix( 1, 0, 0, 1, 261,72) ">
<g transform="matrix( 1, 0, 0, 1, 24,0) ">
<g transform="matrix( 2.6895904541015625, 0, 0, 2.672393798828125, 0.15,16.55) ">
<use xlink:href="#IT_728x90_FR_psd_Asset_V7_3_fournisseur_au_Canada___proposer__une_solution_de_Wi_Fi_en_tant_0_Layer0_0_MEMBER_0_FILL"/>
</g>

<g transform="matrix( 2.6895904541015625, 0, 0, 2.672393798828125, 0.15,16.55) ">
<use xlink:href="#IT_728x90_FR_psd_Asset_V7_3_fournisseur_au_Canada___proposer__une_solution_de_Wi_Fi_en_tant_0_Layer0_0_MEMBER_1_FILL"/>
</g>

<g transform="matrix( 2.6895904541015625, 0, 0, 2.672393798828125, 0.15,16.55) ">
<use xlink:href="#IT_728x90_FR_psd_Asset_V7_3_fournisseur_au_Canada___proposer__une_solution_de_Wi_Fi_en_tant_0_Layer0_0_MEMBER_2_FILL"/>
</g>

<g transform="matrix( 2.6895904541015625, 0, 0, 2.672393798828125, 0.15,16.55) ">
<use xlink:href="#IT_728x90_FR_psd_Asset_V7_3_fournisseur_au_Canada___proposer__une_solution_de_Wi_Fi_en_tant_0_Layer0_0_MEMBER_3_FILL"/>
</g>

<g transform="matrix( 2.6895904541015625, 0, 0, 2.672393798828125, 0.15,16.55) ">
<use xlink:href="#IT_728x90_FR_psd_Asset_V7_3_fournisseur_au_Canada___proposer__une_solution_de_Wi_Fi_en_tant_0_Layer0_0_MEMBER_4_FILL"/>
</g>

<g transform="matrix( 2.6895904541015625, 0, 0, 2.672393798828125, 0.15,16.55) ">
<use xlink:href="#IT_728x90_FR_psd_Asset_V7_3_fournisseur_au_Canada___proposer__une_solution_de_Wi_Fi_en_tant_0_Layer0_0_MEMBER_5_FILL"/>
</g>

<g transform="matrix( 2.6895904541015625, 0, 0, 2.672393798828125, 0.15,16.55) ">
<use xlink:href="#IT_728x90_FR_psd_Asset_V7_3_fournisseur_au_Canada___proposer__une_solution_de_Wi_Fi_en_tant_0_Layer0_0_MEMBER_6_FILL"/>
</g>

<g transform="matrix( 2.6895904541015625, 0, 0, 2.672393798828125, 0.15,16.55) ">
<use xlink:href="#IT_728x90_FR_psd_Asset_V7_3_fournisseur_au_Canada___proposer__une_solution_de_Wi_Fi_en_tant_0_Layer0_0_MEMBER_7_FILL"/>
</g>

<g transform="matrix( 2.6895904541015625, 0, 0, 2.672393798828125, 0.15,16.55) ">
<use xlink:href="#IT_728x90_FR_psd_Asset_V7_3_fournisseur_au_Canada___proposer__une_solution_de_Wi_Fi_en_tant_0_Layer0_0_MEMBER_8_FILL"/>
</g>

<g transform="matrix( 2.6895904541015625, 0, 0, 2.672393798828125, 0.15,16.55) ">
<use xlink:href="#IT_728x90_FR_psd_Asset_V7_3_fournisseur_au_Canada___proposer__une_solution_de_Wi_Fi_en_tant_0_Layer0_0_MEMBER_9_FILL"/>
</g>

<g transform="matrix( 2.6895904541015625, 0, 0, 2.672393798828125, 0.15,16.55) ">
<use xlink:href="#IT_728x90_FR_psd_Asset_V7_3_fournisseur_au_Canada___proposer__une_solution_de_Wi_Fi_en_tant_0_Layer0_0_MEMBER_10_FILL"/>
</g>

<g transform="matrix( 2.6895904541015625, 0, 0, 2.672393798828125, 0.15,16.55) ">
<use xlink:href="#IT_728x90_FR_psd_Asset_V7_3_fournisseur_au_Canada___proposer__une_solution_de_Wi_Fi_en_tant_0_Layer0_0_MEMBER_11_FILL"/>
</g>

<g transform="matrix( 2.6895904541015625, 0, 0, 2.672393798828125, 0.15,16.55) ">
<use xlink:href="#IT_728x90_FR_psd_Asset_V7_3_fournisseur_au_Canada___proposer__une_solution_de_Wi_Fi_en_tant_0_Layer0_0_MEMBER_12_FILL"/>
</g>

<g transform="matrix( 2.6895904541015625, 0, 0, 2.672393798828125, 0.15,16.55) ">
<use xlink:href="#IT_728x90_FR_psd_Asset_V7_3_fournisseur_au_Canada___proposer__une_solution_de_Wi_Fi_en_tant_0_Layer0_0_MEMBER_13_FILL"/>
</g>

<g transform="matrix( 2.6895904541015625, 0, 0, 2.672393798828125, 0.15,16.55) ">
<use xlink:href="#IT_728x90_FR_psd_Asset_V7_3_fournisseur_au_Canada___proposer__une_solution_de_Wi_Fi_en_tant_0_Layer0_0_MEMBER_14_FILL"/>
</g>

<g transform="matrix( 2.6895904541015625, 0, 0, 2.672393798828125, 0.15,16.55) ">
<use xlink:href="#IT_728x90_FR_psd_Asset_V7_3_fournisseur_au_Canada___proposer__une_solution_de_Wi_Fi_en_tant_0_Layer0_0_MEMBER_15_FILL"/>
</g>

<g transform="matrix( 2.6895904541015625, 0, 0, 2.672393798828125, 0.15,16.55) ">
<use xlink:href="#IT_728x90_FR_psd_Asset_V7_3_fournisseur_au_Canada___proposer__une_solution_de_Wi_Fi_en_tant_0_Layer0_0_MEMBER_16_FILL"/>
</g>

<g transform="matrix( 2.6895904541015625, 0, 0, 2.672393798828125, 0.15,16.55) ">
<use xlink:href="#IT_728x90_FR_psd_Asset_V7_3_fournisseur_au_Canada___proposer__une_solution_de_Wi_Fi_en_tant_0_Layer0_0_MEMBER_17_FILL"/>
</g>

<g transform="matrix( 2.6895904541015625, 0, 0, 2.672393798828125, 0.15,16.55) ">
<use xlink:href="#IT_728x90_FR_psd_Asset_V7_3_fournisseur_au_Canada___proposer__une_solution_de_Wi_Fi_en_tant_0_Layer0_0_MEMBER_18_FILL"/>
</g>

<g transform="matrix( 2.6895904541015625, 0, 0, 2.672393798828125, 0.15,16.55) ">
<use xlink:href="#IT_728x90_FR_psd_Asset_V7_3_fournisseur_au_Canada___proposer__une_solution_de_Wi_Fi_en_tant_0_Layer0_0_MEMBER_19_FILL"/>
</g>

<g transform="matrix( 2.6895904541015625, 0, 0, 2.672393798828125, 0.15,16.55) ">
<use xlink:href="#IT_728x90_FR_psd_Asset_V7_3_fournisseur_au_Canada___proposer__une_solution_de_Wi_Fi_en_tant_0_Layer0_0_MEMBER_20_FILL"/>
</g>

<g transform="matrix( 2.6895904541015625, 0, 0, 2.672393798828125, 0.15,16.55) ">
<use xlink:href="#IT_728x90_FR_psd_Asset_V7_3_fournisseur_au_Canada___proposer__une_solution_de_Wi_Fi_en_tant_0_Layer0_0_MEMBER_21_FILL"/>
</g>

<g transform="matrix( 2.6895904541015625, 0, 0, 2.672393798828125, 0.15,16.55) ">
<use xlink:href="#IT_728x90_FR_psd_Asset_V7_3_fournisseur_au_Canada___proposer__une_solution_de_Wi_Fi_en_tant_0_Layer0_0_MEMBER_22_FILL"/>
</g>

<g transform="matrix( 2.6895904541015625, 0, 0, 2.672393798828125, 0.15,16.55) ">
<use xlink:href="#IT_728x90_FR_psd_Asset_V7_3_fournisseur_au_Canada___proposer__une_solution_de_Wi_Fi_en_tant_0_Layer0_0_MEMBER_23_FILL"/>
</g>

<g transform="matrix( 2.6895904541015625, 0, 0, 2.672393798828125, 0.15,16.55) ">
<use xlink:href="#IT_728x90_FR_psd_Asset_V7_3_fournisseur_au_Canada___proposer__une_solution_de_Wi_Fi_en_tant_0_Layer0_0_MEMBER_24_FILL"/>
</g>

<g transform="matrix( 2.6895904541015625, 0, 0, 2.672393798828125, 0.15,16.55) ">
<use xlink:href="#IT_728x90_FR_psd_Asset_V7_3_fournisseur_au_Canada___proposer__une_solution_de_Wi_Fi_en_tant_0_Layer0_0_MEMBER_25_FILL"/>
</g>

<g transform="matrix( 2.6895904541015625, 0, 0, 2.672393798828125, 0.15,16.55) ">
<use xlink:href="#IT_728x90_FR_psd_Asset_V7_3_fournisseur_au_Canada___proposer__une_solution_de_Wi_Fi_en_tant_0_Layer0_0_MEMBER_26_FILL"/>
</g>

<g transform="matrix( 2.6895904541015625, 0, 0, 2.672393798828125, 0.15,16.55) ">
<use xlink:href="#IT_728x90_FR_psd_Asset_V7_3_fournisseur_au_Canada___proposer__une_solution_de_Wi_Fi_en_tant_0_Layer0_0_MEMBER_27_FILL"/>
</g>

<g transform="matrix( 2.6895904541015625, 0, 0, 2.672393798828125, 0.15,16.55) ">
<use xlink:href="#IT_728x90_FR_psd_Asset_V7_3_fournisseur_au_Canada___proposer__une_solution_de_Wi_Fi_en_tant_0_Layer0_0_MEMBER_28_FILL"/>
</g>

<g transform="matrix( 2.6895904541015625, 0, 0, 2.672393798828125, 0.15,16.55) ">
<use xlink:href="#IT_728x90_FR_psd_Asset_V7_3_fournisseur_au_Canada___proposer__une_solution_de_Wi_Fi_en_tant_0_Layer0_0_MEMBER_29_FILL"/>
</g>

<g transform="matrix( 2.6895904541015625, 0, 0, 2.672393798828125, 0.15,16.55) ">
<use xlink:href="#IT_728x90_FR_psd_Asset_V7_3_fournisseur_au_Canada___proposer__une_solution_de_Wi_Fi_en_tant_0_Layer0_0_MEMBER_30_FILL"/>
</g>

<g transform="matrix( 2.6895904541015625, 0, 0, 2.672393798828125, 0.15,16.55) ">
<use xlink:href="#IT_728x90_FR_psd_Asset_V7_3_fournisseur_au_Canada___proposer__une_solution_de_Wi_Fi_en_tant_0_Layer0_0_MEMBER_31_FILL"/>
</g>

<g transform="matrix( 2.6895904541015625, 0, 0, 2.672393798828125, 0.15,16.55) ">
<use xlink:href="#IT_728x90_FR_psd_Asset_V7_3_fournisseur_au_Canada___proposer__une_solution_de_Wi_Fi_en_tant_0_Layer0_0_MEMBER_32_FILL"/>
</g>

<g transform="matrix( 2.6895904541015625, 0, 0, 2.672393798828125, 0.15,16.55) ">
<use xlink:href="#IT_728x90_FR_psd_Asset_V7_3_fournisseur_au_Canada___proposer__une_solution_de_Wi_Fi_en_tant_0_Layer0_0_MEMBER_33_FILL"/>
</g>

<g transform="matrix( 2.6895904541015625, 0, 0, 2.672393798828125, 0.15,16.55) ">
<use xlink:href="#IT_728x90_FR_psd_Asset_V7_3_fournisseur_au_Canada___proposer__une_solution_de_Wi_Fi_en_tant_0_Layer0_0_MEMBER_34_FILL"/>
</g>

<g transform="matrix( 2.6895904541015625, 0, 0, 2.672393798828125, 0.15,16.55) ">
<use xlink:href="#IT_728x90_FR_psd_Asset_V7_3_fournisseur_au_Canada___proposer__une_solution_de_Wi_Fi_en_tant_0_Layer0_0_MEMBER_35_FILL"/>
</g>

<g transform="matrix( 2.6895904541015625, 0, 0, 2.672393798828125, 0.15,16.55) ">
<use xlink:href="#IT_728x90_FR_psd_Asset_V7_3_fournisseur_au_Canada___proposer__une_solution_de_Wi_Fi_en_tant_0_Layer0_0_MEMBER_36_FILL"/>
</g>

<g transform="matrix( 2.6895904541015625, 0, 0, 2.672393798828125, 0.15,16.55) ">
<use xlink:href="#IT_728x90_FR_psd_Asset_V7_3_fournisseur_au_Canada___proposer__une_solution_de_Wi_Fi_en_tant_0_Layer0_0_MEMBER_37_FILL"/>
</g>

<g transform="matrix( 2.6895904541015625, 0, 0, 2.672393798828125, 0.15,16.55) ">
<use xlink:href="#IT_728x90_FR_psd_Asset_V7_3_fournisseur_au_Canada___proposer__une_solution_de_Wi_Fi_en_tant_0_Layer0_0_MEMBER_38_FILL"/>
</g>

<g transform="matrix( 2.6895904541015625, 0, 0, 2.672393798828125, 0.15,16.55) ">
<use xlink:href="#IT_728x90_FR_psd_Asset_V7_3_fournisseur_au_Canada___proposer__une_solution_de_Wi_Fi_en_tant_0_Layer0_0_MEMBER_39_FILL"/>
</g>

<g transform="matrix( 2.6895904541015625, 0, 0, 2.672393798828125, 0.15,16.55) ">
<use xlink:href="#IT_728x90_FR_psd_Asset_V7_3_fournisseur_au_Canada___proposer__une_solution_de_Wi_Fi_en_tant_0_Layer0_0_MEMBER_40_FILL"/>
</g>

<g transform="matrix( 2.6895904541015625, 0, 0, 2.672393798828125, 0.15,16.55) ">
<use xlink:href="#IT_728x90_FR_psd_Asset_V7_3_fournisseur_au_Canada___proposer__une_solution_de_Wi_Fi_en_tant_0_Layer0_0_MEMBER_41_FILL"/>
</g>

<g transform="matrix( 2.6895904541015625, 0, 0, 2.672393798828125, 0.15,16.55) ">
<use xlink:href="#IT_728x90_FR_psd_Asset_V7_3_fournisseur_au_Canada___proposer__une_solution_de_Wi_Fi_en_tant_0_Layer0_0_MEMBER_42_FILL"/>
</g>

<g transform="matrix( 2.6895904541015625, 0, 0, 2.672393798828125, 0.15,16.55) ">
<use xlink:href="#IT_728x90_FR_psd_Asset_V7_3_fournisseur_au_Canada___proposer__une_solution_de_Wi_Fi_en_tant_0_Layer0_0_MEMBER_43_FILL"/>
</g>

<g transform="matrix( 2.6895904541015625, 0, 0, 2.672393798828125, 0.15,16.55) ">
<use xlink:href="#IT_728x90_FR_psd_Asset_V7_3_fournisseur_au_Canada___proposer__une_solution_de_Wi_Fi_en_tant_0_Layer0_0_MEMBER_44_FILL"/>
</g>

<g transform="matrix( 2.6895904541015625, 0, 0, 2.672393798828125, 0.15,16.55) ">
<use xlink:href="#IT_728x90_FR_psd_Asset_V7_3_fournisseur_au_Canada___proposer__une_solution_de_Wi_Fi_en_tant_0_Layer0_0_MEMBER_45_FILL"/>
</g>

<g transform="matrix( 2.6895904541015625, 0, 0, 2.672393798828125, 0.15,16.55) ">
<use xlink:href="#IT_728x90_FR_psd_Asset_V7_3_fournisseur_au_Canada___proposer__une_solution_de_Wi_Fi_en_tant_0_Layer0_0_MEMBER_46_FILL"/>
</g>

<g transform="matrix( 2.6895904541015625, 0, 0, 2.672393798828125, 0.15,16.55) ">
<use xlink:href="#IT_728x90_FR_psd_Asset_V7_3_fournisseur_au_Canada___proposer__une_solution_de_Wi_Fi_en_tant_0_Layer0_0_MEMBER_47_FILL"/>
</g>

<g transform="matrix( 2.6895904541015625, 0, 0, 2.672393798828125, 0.15,16.55) ">
<use xlink:href="#IT_728x90_FR_psd_Asset_V7_3_fournisseur_au_Canada___proposer__une_solution_de_Wi_Fi_en_tant_0_Layer0_0_MEMBER_48_FILL"/>
</g>

<g transform="matrix( 2.6895904541015625, 0, 0, 2.672393798828125, 0.15,16.55) ">
<use xlink:href="#IT_728x90_FR_psd_Asset_V7_3_fournisseur_au_Canada___proposer__une_solution_de_Wi_Fi_en_tant_0_Layer0_0_MEMBER_49_FILL"/>
</g>

<g transform="matrix( 2.6895904541015625, 0, 0, 2.672393798828125, 0.15,16.55) ">
<use xlink:href="#IT_728x90_FR_psd_Asset_V7_3_fournisseur_au_Canada___proposer__une_solution_de_Wi_Fi_en_tant_0_Layer0_0_MEMBER_50_FILL"/>
</g>

<g transform="matrix( 2.6895904541015625, 0, 0, 2.672393798828125, 0.15,16.55) ">
<use xlink:href="#IT_728x90_FR_psd_Asset_V7_3_fournisseur_au_Canada___proposer__une_solution_de_Wi_Fi_en_tant_0_Layer0_0_MEMBER_51_FILL"/>
</g>

<g transform="matrix( 2.6895904541015625, 0, 0, 2.672393798828125, 0.15,16.55) ">
<use xlink:href="#IT_728x90_FR_psd_Asset_V7_3_fournisseur_au_Canada___proposer__une_solution_de_Wi_Fi_en_tant_0_Layer0_0_MEMBER_52_FILL"/>
</g>

<g transform="matrix( 2.6895904541015625, 0, 0, 2.672393798828125, 0.15,16.55) ">
<use xlink:href="#IT_728x90_FR_psd_Asset_V7_3_fournisseur_au_Canada___proposer__une_solution_de_Wi_Fi_en_tant_0_Layer0_0_MEMBER_53_FILL"/>
</g>

<g transform="matrix( 2.6895904541015625, 0, 0, 2.672393798828125, 0.15,16.55) ">
<use xlink:href="#IT_728x90_FR_psd_Asset_V7_3_fournisseur_au_Canada___proposer__une_solution_de_Wi_Fi_en_tant_0_Layer0_0_MEMBER_54_FILL"/>
</g>

<g transform="matrix( 2.6895904541015625, 0, 0, 2.672393798828125, 0.15,16.55) ">
<use xlink:href="#IT_728x90_FR_psd_Asset_V7_3_fournisseur_au_Canada___proposer__une_solution_de_Wi_Fi_en_tant_0_Layer0_0_MEMBER_55_FILL"/>
</g>

<g transform="matrix( 2.6895904541015625, 0, 0, 2.672393798828125, 0.15,16.55) ">
<use xlink:href="#IT_728x90_FR_psd_Asset_V7_3_fournisseur_au_Canada___proposer__une_solution_de_Wi_Fi_en_tant_0_Layer0_0_MEMBER_56_FILL"/>
</g>

<g transform="matrix( 2.6895904541015625, 0, 0, 2.672393798828125, 0.15,16.55) ">
<use xlink:href="#IT_728x90_FR_psd_Asset_V7_3_fournisseur_au_Canada___proposer__une_solution_de_Wi_Fi_en_tant_0_Layer0_0_MEMBER_57_FILL"/>
</g>

<g transform="matrix( 2.6895904541015625, 0, 0, 2.672393798828125, 0.15,16.55) ">
<use xlink:href="#IT_728x90_FR_psd_Asset_V7_3_fournisseur_au_Canada___proposer__une_solution_de_Wi_Fi_en_tant_0_Layer0_0_MEMBER_58_FILL"/>
</g>

<g transform="matrix( 2.6895904541015625, 0, 0, 2.672393798828125, 0.15,16.55) ">
<use xlink:href="#IT_728x90_FR_psd_Asset_V7_3_fournisseur_au_Canada___proposer__une_solution_de_Wi_Fi_en_tant_0_Layer0_0_MEMBER_59_FILL"/>
</g>

<g transform="matrix( 2.6895904541015625, 0, 0, 2.672393798828125, 0.15,16.55) ">
<use xlink:href="#IT_728x90_FR_psd_Asset_V7_3_fournisseur_au_Canada___proposer__une_solution_de_Wi_Fi_en_tant_0_Layer0_0_MEMBER_60_FILL"/>
</g>

<g transform="matrix( 2.6895904541015625, 0, 0, 2.672393798828125, 0.15,16.55) ">
<use xlink:href="#IT_728x90_FR_psd_Asset_V7_3_fournisseur_au_Canada___proposer__une_solution_de_Wi_Fi_en_tant_0_Layer0_0_MEMBER_61_FILL"/>
</g>

<g transform="matrix( 2.6895904541015625, 0, 0, 2.672393798828125, 0.15,16.55) ">
<use xlink:href="#IT_728x90_FR_psd_Asset_V7_3_fournisseur_au_Canada___proposer__une_solution_de_Wi_Fi_en_tant_0_Layer0_0_MEMBER_62_FILL"/>
</g>

<g transform="matrix( 2.6895904541015625, 0, 0, 2.672393798828125, 0.15,16.55) ">
<use xlink:href="#IT_728x90_FR_psd_Asset_V7_3_fournisseur_au_Canada___proposer__une_solution_de_Wi_Fi_en_tant_0_Layer0_0_MEMBER_63_FILL"/>
</g>

<g transform="matrix( 2.6895904541015625, 0, 0, 2.672393798828125, 0.15,16.55) ">
<use xlink:href="#IT_728x90_FR_psd_Asset_V7_3_fournisseur_au_Canada___proposer__une_solution_de_Wi_Fi_en_tant_0_Layer0_0_MEMBER_64_FILL"/>
</g>

<g transform="matrix( 2.6895904541015625, 0, 0, 2.672393798828125, 0.15,16.55) ">
<use xlink:href="#IT_728x90_FR_psd_Asset_V7_3_fournisseur_au_Canada___proposer__une_solution_de_Wi_Fi_en_tant_0_Layer0_0_MEMBER_65_FILL"/>
</g>

<g transform="matrix( 2.6895904541015625, 0, 0, 2.672393798828125, 0.15,16.55) ">
<use xlink:href="#IT_728x90_FR_psd_Asset_V7_3_fournisseur_au_Canada___proposer__une_solution_de_Wi_Fi_en_tant_0_Layer0_0_MEMBER_66_FILL"/>
</g>

<g transform="matrix( 2.6895904541015625, 0, 0, 2.672393798828125, 0.15,16.55) ">
<use xlink:href="#IT_728x90_FR_psd_Asset_V7_3_fournisseur_au_Canada___proposer__une_solution_de_Wi_Fi_en_tant_0_Layer0_0_MEMBER_67_FILL"/>
</g>

<g transform="matrix( 2.6895904541015625, 0, 0, 2.672393798828125, 0.15,16.55) ">
<use xlink:href="#IT_728x90_FR_psd_Asset_V7_3_fournisseur_au_Canada___proposer__une_solution_de_Wi_Fi_en_tant_0_Layer0_0_MEMBER_68_FILL"/>
</g>

<g transform="matrix( 2.6895904541015625, 0, 0, 2.672393798828125, 0.15,16.55) ">
<use xlink:href="#IT_728x90_FR_psd_Asset_V7_3_fournisseur_au_Canada___proposer__une_solution_de_Wi_Fi_en_tant_0_Layer0_0_MEMBER_69_FILL"/>
</g>

<g transform="matrix( 2.6895904541015625, 0, 0, 2.672393798828125, 0.15,16.55) ">
<use xlink:href="#IT_728x90_FR_psd_Asset_V7_3_fournisseur_au_Canada___proposer__une_solution_de_Wi_Fi_en_tant_0_Layer0_0_MEMBER_70_FILL"/>
</g>

<g transform="matrix( 2.6895904541015625, 0, 0, 2.672393798828125, 0.15,16.55) ">
<use xlink:href="#IT_728x90_FR_psd_Asset_V7_3_fournisseur_au_Canada___proposer__une_solution_de_Wi_Fi_en_tant_0_Layer0_0_MEMBER_71_FILL"/>
</g>

<g transform="matrix( 2.6895904541015625, 0, 0, 2.672393798828125, 0.15,16.55) ">
<use xlink:href="#IT_728x90_FR_psd_Asset_V7_3_fournisseur_au_Canada___proposer__une_solution_de_Wi_Fi_en_tant_0_Layer0_0_MEMBER_72_FILL"/>
</g>

<g transform="matrix( 2.6895904541015625, 0, 0, 2.672393798828125, 0.15,16.55) ">
<use xlink:href="#IT_728x90_FR_psd_Asset_V7_3_fournisseur_au_Canada___proposer__une_solution_de_Wi_Fi_en_tant_0_Layer0_0_MEMBER_73_FILL"/>
</g>

<g transform="matrix( 2.6895904541015625, 0, 0, 2.672393798828125, 0.15,16.55) ">
<use xlink:href="#IT_728x90_FR_psd_Asset_V7_3_fournisseur_au_Canada___proposer__une_solution_de_Wi_Fi_en_tant_0_Layer0_0_MEMBER_74_FILL"/>
</g>

<g transform="matrix( 2.6895904541015625, 0, 0, 2.672393798828125, 0.15,16.55) ">
<use xlink:href="#IT_728x90_FR_psd_Asset_V7_3_fournisseur_au_Canada___proposer__une_solution_de_Wi_Fi_en_tant_0_Layer0_0_MEMBER_75_FILL"/>
</g>

<g transform="matrix( 2.6895904541015625, 0, 0, 2.672393798828125, 0.15,16.55) ">
<use xlink:href="#IT_728x90_FR_psd_Asset_V7_3_fournisseur_au_Canada___proposer__une_solution_de_Wi_Fi_en_tant_0_Layer0_0_MEMBER_76_FILL"/>
</g>

<g transform="matrix( 2.6895904541015625, 0, 0, 2.672393798828125, 0.15,16.55) ">
<use xlink:href="#IT_728x90_FR_psd_Asset_V7_3_fournisseur_au_Canada___proposer__une_solution_de_Wi_Fi_en_tant_0_Layer0_0_MEMBER_77_FILL"/>
</g>
</g>
</g>
</g>
</svg>
