
<svg xmlns="http://www.w3.org/2000/svg" version="1.1" xmlns:xlink="http://www.w3.org/1999/xlink" preserveAspectRatio="none" x="0px" y="0px" width="300px" height="600px" viewBox="0 0 300 600">
<defs>
<g id="BDM_300x600_psd_Asset_2_ManagedWiFi_Awareness_DM6_1_Looking_for_new__and_more_innovative__ways_to_connect_to__custo_0_Layer0_0_MEMBER_0_FILL">
<path fill="#D82C26" stroke="none" d="
M 1.65 -7.5
L 1.05 -7.5 1.05 0 4.9 0 5.05 -0.55 1.65 -0.55 1.65 -7.5 Z"/>
</g>

<g id="BDM_300x600_psd_Asset_2_ManagedWiFi_Awareness_DM6_1_Looking_for_new__and_more_innovative__ways_to_connect_to__custo_0_Layer0_0_MEMBER_1_FILL">
<path fill="#D82C26" stroke="none" d="
M 9.45 -4.8
Q 8.85 -5.1 8.1 -5.1 7.35 -5.1 6.75 -4.8 6.15 -4.45 5.8 -3.85 5.45 -3.15 5.45 -2.5 5.45 -1.85 5.8 -1.15 6.25 -0.45 6.75 -0.2 7.3 0.15 8.1 0.15 8.9 0.15 9.45 -0.2 10.1 -0.5 10.4 -1.15 10.75 -1.7 10.75 -2.5 10.75 -3.3 10.4 -3.85 10.15 -4.35 9.45 -4.8
M 9.15 -4.3
Q 9.55 -4.05 9.9 -3.55 10.15 -3.05 10.15 -2.5 10.15 -1.95 9.9 -1.45 9.6 -0.9 9.2 -0.65 8.6 -0.4 8.1 -0.4 7.55 -0.4 7.05 -0.65 6.55 -1 6.35 -1.45 6.1 -1.8 6.1 -2.5 6.1 -3.15 6.35 -3.55 6.55 -3.95 7.05 -4.3 7.5 -4.6 8.1 -4.6 8.7 -4.6 9.15 -4.3 Z"/>
</g>

<g id="BDM_300x600_psd_Asset_2_ManagedWiFi_Awareness_DM6_1_Looking_for_new__and_more_innovative__ways_to_connect_to__custo_0_Layer0_0_MEMBER_2_FILL">
<path fill="#D82C26" stroke="none" d="
M 14.2 -5.1
Q 13.45 -5.1 12.85 -4.8 12.25 -4.4 11.95 -3.85 11.6 -3.3 11.6 -2.5 11.6 -1.7 11.95 -1.15 12.3 -0.5 12.85 -0.2 13.4 0.15 14.2 0.15 14.95 0.15 15.6 -0.2 16.15 -0.5 16.5 -1.15 16.85 -1.7 16.85 -2.5 16.85 -3.3 16.5 -3.85 16.2 -4.4 15.6 -4.8 14.95 -5.1 14.2 -5.1
M 13.15 -4.3
Q 13.6 -4.6 14.2 -4.6 14.85 -4.6 15.3 -4.3 15.8 -3.95 16 -3.55 16.25 -3.05 16.25 -2.5 16.25 -1.95 16 -1.45 15.8 -1 15.3 -0.65 14.8 -0.4 14.2 -0.4 13.65 -0.4 13.15 -0.65 12.65 -1 12.45 -1.45 12.2 -1.95 12.2 -2.5 12.2 -3.05 12.45 -3.55 12.65 -3.95 13.15 -4.3 Z"/>
</g>

<g id="BDM_300x600_psd_Asset_2_ManagedWiFi_Awareness_DM6_1_Looking_for_new__and_more_innovative__ways_to_connect_to__custo_0_Layer0_0_MEMBER_3_FILL">
<path fill="#D82C26" stroke="none" d="
M 18.65 -8.1
L 18.05 -7.95 18.05 0 18.65 0 18.65 -2.6 18.7 -2.6 21.25 0 22.05 0 19.35 -2.7 21.8 -4.95 21 -4.95 18.7 -2.7 18.65 -2.7 18.65 -8.1 Z"/>
</g>

<g id="BDM_300x600_psd_Asset_2_ManagedWiFi_Awareness_DM6_1_Looking_for_new__and_more_innovative__ways_to_connect_to__custo_0_Layer0_0_MEMBER_4_FILL">
<path fill="#D82C26" stroke="none" d="
M 23.5 -4.95
L 22.85 -4.95 22.85 0 23.5 0 23.5 -4.95
M 23.15 -6.5
L 23.5 -6.6 23.6 -6.95 23.5 -7.25
Q 23.35 -7.4 23.15 -7.4
L 22.85 -7.25 22.7 -6.95
Q 22.7 -6.75 22.85 -6.6
L 23.15 -6.5 Z"/>
</g>

<g id="BDM_300x600_psd_Asset_2_ManagedWiFi_Awareness_DM6_1_Looking_for_new__and_more_innovative__ways_to_connect_to__custo_0_Layer0_0_MEMBER_5_FILL">
<path fill="#D82C26" stroke="none" d="
M 25.55 -3.9
L 25.5 -4.95 24.95 -4.95 25 0 25.6 0 25.6 -2.55
Q 25.6 -3.2 25.8 -3.65 26.05 -4.15 26.4 -4.35 26.8 -4.6 27.25 -4.6 27.95 -4.6 28.3 -4.1 28.6 -3.55 28.6 -2.85
L 28.6 0 29.2 0 29.2 -3.05
Q 29.2 -3.9 28.75 -4.5 28.3 -5.1 27.4 -5.1 26.7 -5.1 26.3 -4.75 25.85 -4.5 25.6 -3.9
L 25.55 -3.9 Z"/>
</g>

<g id="BDM_300x600_psd_Asset_2_ManagedWiFi_Awareness_DM6_1_Looking_for_new__and_more_innovative__ways_to_connect_to__custo_0_Layer0_0_MEMBER_6_FILL">
<path fill="#D82C26" stroke="none" d="
M 34.85 -3.85
Q 34.6 -4.4 34 -4.8 33.5 -5.1 32.8 -5.1 32.05 -5.1 31.55 -4.75 30.95 -4.35 30.65 -3.8 30.35 -3.2 30.35 -2.5 30.35 -1.75 30.65 -1.15 31 -0.55 31.5 -0.25 32.05 0.1 32.8 0.1 33.5 0.1 34 -0.25 34.55 -0.55 34.85 -1.1
L 34.85 -0.05
Q 34.85 0.95 34.35 1.5 33.9 2.1 32.8 2.1 32.45 2.1 31.75 1.9 31.55 1.85 30.75 1.45
L 30.65 2
Q 31.15 2.3 31.65 2.45 32.2 2.6 32.85 2.6 34.2 2.6 34.8 1.85 35.45 1.2 35.45 -0.05
L 35.5 -4.95 34.9 -4.95 34.85 -3.85
M 33.9 -4.3
Q 34.4 -3.95 34.6 -3.55 34.85 -3.1 34.85 -2.5 34.85 -1.8 34.6 -1.45 34.4 -1 33.9 -0.7 33.45 -0.4 32.9 -0.4 32.3 -0.4 31.85 -0.7 31.4 -1.05 31.2 -1.45 30.95 -1.95 30.95 -2.5 30.95 -2.95 31.2 -3.55 31.4 -3.95 31.85 -4.3 32.3 -4.6 32.9 -4.6 33.45 -4.6 33.9 -4.3 Z"/>
</g>

<g id="BDM_300x600_psd_Asset_2_ManagedWiFi_Awareness_DM6_1_Looking_for_new__and_more_innovative__ways_to_connect_to__custo_0_Layer0_0_MEMBER_7_FILL">
<path fill="#D82C26" stroke="none" d="
M 38.45 -4.45
L 39.45 -4.45 39.45 0 40.1 0 40.1 -4.45 41.25 -4.45 41.35 -4.95 40.1 -4.95 40.1 -6.4
Q 40.1 -6.95 40.3 -7.3 40.55 -7.65 41.05 -7.65 41.4 -7.65 41.85 -7.5
L 41.9 -8.05 41 -8.15
Q 40.3 -8.15 39.85 -7.7 39.45 -7.2 39.45 -6.4
L 39.45 -4.95 38.55 -4.95 38.45 -4.45 Z"/>
</g>

<g id="BDM_300x600_psd_Asset_2_ManagedWiFi_Awareness_DM6_1_Looking_for_new__and_more_innovative__ways_to_connect_to__custo_0_Layer0_0_MEMBER_8_FILL">
<path fill="#D82C26" stroke="none" d="
M 45.55 -4.8
Q 44.95 -5.1 44.2 -5.1 43.45 -5.1 42.85 -4.8 42.15 -4.35 41.9 -3.85 41.55 -3.3 41.55 -2.5 41.55 -1.7 41.9 -1.15 42.2 -0.5 42.85 -0.2 43.4 0.15 44.2 0.15 45 0.15 45.55 -0.2 46.05 -0.45 46.5 -1.15 46.85 -1.85 46.85 -2.5 46.85 -3.15 46.5 -3.85 46.15 -4.45 45.55 -4.8
M 44.2 -4.6
Q 44.8 -4.6 45.25 -4.3 45.75 -3.95 45.95 -3.55 46.2 -3.05 46.2 -2.5 46.2 -1.8 45.95 -1.45 45.75 -1 45.25 -0.65 44.75 -0.4 44.2 -0.4 43.7 -0.4 43.1 -0.65 42.7 -0.9 42.4 -1.45 42.15 -1.95 42.15 -2.5 42.15 -3.05 42.4 -3.55 42.75 -4.05 43.1 -4.3 43.65 -4.6 44.2 -4.6 Z"/>
</g>

<g id="BDM_300x600_psd_Asset_2_ManagedWiFi_Awareness_DM6_1_Looking_for_new__and_more_innovative__ways_to_connect_to__custo_0_Layer0_0_MEMBER_9_FILL">
<path fill="#D82C26" stroke="none" d="
M 48.55 -3.9
L 48.5 -4.95 47.9 -4.95 48 -3.75 48 0 48.6 0 48.6 -2.45
Q 48.6 -3.3 49 -3.95 49.4 -4.55 50 -4.55
L 50.45 -4.5 50.55 -5
Q 50.4 -5.1 50.05 -5.1 49.6 -5.1 49.2 -4.8 48.75 -4.4 48.6 -3.9
L 48.55 -3.9 Z"/>
</g>

<g id="BDM_300x600_psd_Asset_2_ManagedWiFi_Awareness_DM6_1_Looking_for_new__and_more_innovative__ways_to_connect_to__custo_0_Layer0_0_MEMBER_10_FILL">
<path fill="#D82C26" stroke="none" d="
M 53.95 -4.95
L 53.35 -4.95 53.4 0 54 0 54 -2.55
Q 54 -3.05 54.25 -3.65 54.5 -4.15 54.85 -4.35 55.25 -4.6 55.7 -4.6 56.35 -4.6 56.7 -4.1 57 -3.55 57 -2.85
L 57 0 57.65 0 57.65 -3.05
Q 57.65 -3.9 57.2 -4.5 56.75 -5.1 55.8 -5.1 55.2 -5.1 54.7 -4.75 54.25 -4.45 54 -3.9
L 53.95 -4.95 Z"/>
</g>

<g id="BDM_300x600_psd_Asset_2_ManagedWiFi_Awareness_DM6_1_Looking_for_new__and_more_innovative__ways_to_connect_to__custo_0_Layer0_0_MEMBER_11_FILL">
<path fill="#D82C26" stroke="none" d="
M 59.1 -1.15
Q 59.45 -0.5 60 -0.2 60.55 0.15 61.3 0.15 62.5 0.15 63.3 -0.5
L 63.2 -1
Q 62.8 -0.7 62.4 -0.55 61.95 -0.35 61.35 -0.35 60.8 -0.35 60.35 -0.65 59.9 -0.9 59.65 -1.35 59.45 -1.75 59.35 -2.4
L 63.6 -2.4 63.6 -2.65
Q 63.6 -3.3 63.3 -3.9 63.1 -4.35 62.5 -4.8 62 -5.1 61.2 -5.1 60.55 -5.1 60 -4.8 59.4 -4.4 59.1 -3.85 58.75 -3.15 58.75 -2.5 58.75 -1.85 59.1 -1.15
M 59.6 -3.65
Q 59.75 -3.95 60.25 -4.35 60.7 -4.65 61.2 -4.65 62 -4.65 62.5 -4.15 63 -3.55 63 -2.85
L 59.4 -2.85
Q 59.4 -3.15 59.6 -3.65 Z"/>
</g>

<g id="BDM_300x600_psd_Asset_2_ManagedWiFi_Awareness_DM6_1_Looking_for_new__and_more_innovative__ways_to_connect_to__custo_0_Layer0_0_MEMBER_12_FILL">
<path fill="#D82C26" stroke="none" d="
M 64.7 -4.95
L 64 -4.95 65.55 0 66.25 0 67.65 -4.25 69.1 0 69.75 0 71.3 -4.95 70.65 -4.95 69.4 -0.7 68 -4.95 67.3 -4.95 65.95 -0.7 65.9 -0.7 64.7 -4.95 Z"/>
</g>

<g id="BDM_300x600_psd_Asset_2_ManagedWiFi_Awareness_DM6_1_Looking_for_new__and_more_innovative__ways_to_connect_to__custo_0_Layer0_0_MEMBER_13_FILL">
<path fill="#D82C26" stroke="none" d="
M 2.65 8.1
Q 3.35 8.1 3.7 8.45 4.05 8.75 4.05 9.45
L 4.05 9.75 3.45 9.75
Q 0.6 9.75 0.6 11.35 0.6 12.15 1.1 12.5 1.65 12.85 2.2 12.85 2.8 12.85 3.3 12.55 3.8 12.35 4.05 11.75
L 4.1 11.75 4.15 12.7 4.7 12.7 4.65 9.5
Q 4.65 8.65 4.15 8.05 3.65 7.6 2.75 7.6 2.2 7.6 1.75 7.75 1.2 7.9 0.9 8.2
L 1.05 8.7 1.8 8.25
Q 2.25 8.1 2.65 8.1
M 1.55 12.15
Q 1.2 11.85 1.2 11.35 1.2 10.15 3.55 10.15
L 4.05 10.15 4.05 10.65
Q 4.05 11.1 3.85 11.45 3.7 11.85 3.25 12.1 2.9 12.4 2.3 12.4 1.9 12.4 1.55 12.15 Z"/>
</g>

<g id="BDM_300x600_psd_Asset_2_ManagedWiFi_Awareness_DM6_1_Looking_for_new__and_more_innovative__ways_to_connect_to__custo_0_Layer0_0_MEMBER_14_FILL">
<path fill="#D82C26" stroke="none" d="
M 9.85 8.2
Q 9.4 7.6 8.5 7.6 7.8 7.6 7.4 7.95 6.95 8.2 6.7 8.8
L 6.65 8.8 6.6 7.75 6.05 7.75 6.1 12.7 6.7 12.7 6.7 10.2
Q 6.7 9.5 6.9 9.1 7.1 8.7 7.5 8.35 7.9 8.1 8.35 8.1 9.05 8.1 9.4 8.6 9.7 9.15 9.7 9.85
L 9.7 12.7 10.3 12.7 10.3 9.7
Q 10.3 8.8 9.85 8.2 Z"/>
</g>

<g id="BDM_300x600_psd_Asset_2_ManagedWiFi_Awareness_DM6_1_Looking_for_new__and_more_innovative__ways_to_connect_to__custo_0_Layer0_0_MEMBER_15_FILL">
<path fill="#D82C26" stroke="none" d="
M 16.6 4.6
L 15.95 4.7 15.95 8.8
Q 15.65 8.3 15.1 7.9 14.6 7.6 13.95 7.6 13.15 7.6 12.65 7.95 12.05 8.35 11.75 8.9 11.45 9.5 11.45 10.25 11.45 10.95 11.75 11.55 12.05 12.1 12.65 12.5 13.15 12.85 13.95 12.85 14.6 12.85 15.1 12.55 15.6 12.25 15.95 11.65
L 16 11.65 16.05 12.7 16.65 12.7 16.6 4.6
M 14 8.1
Q 14.6 8.1 15.05 8.4 15.45 8.65 15.75 9.2 16 9.7 16 10.25 16 10.7 15.75 11.3 15.4 11.8 15.05 12.05 14.6 12.35 14 12.35 13.45 12.35 13 12.05 12.5 11.75 12.3 11.3 12.05 10.7 12.05 10.25 12.05 9.7 12.3 9.2 12.5 8.75 13 8.4 13.45 8.1 14 8.1 Z"/>
</g>

<g id="BDM_300x600_psd_Asset_2_ManagedWiFi_Awareness_DM6_1_Looking_for_new__and_more_innovative__ways_to_connect_to__custo_0_Layer0_0_MEMBER_16_FILL">
<path fill="#D82C26" stroke="none" d="
M 25 7.95
Q 24.5 8.3 24.3 8.9 24.15 8.25 23.7 7.95 23.35 7.6 22.7 7.6 22.05 7.6 21.65 7.95 21.15 8.3 21 8.8
L 20.95 8.8 20.9 7.75 20.3 7.75 20.35 12.7 21 12.7 21 10.25
Q 21 9.5 21.2 9.1 21.45 8.6 21.75 8.35 22.15 8.1 22.55 8.1 23.15 8.1 23.5 8.55 23.8 9 23.8 9.8
L 23.8 12.7 24.4 12.7 24.4 10.15
Q 24.4 9.25 24.85 8.7 25.3 8.1 26 8.1 26.7 8.1 27 8.65 27.3 9.1 27.3 9.9
L 27.3 12.7 27.9 12.7 27.9 9.75
Q 27.9 8.8 27.45 8.2 27.1 7.6 26.1 7.6 25.5 7.6 25 7.95 Z"/>
</g>

<g id="BDM_300x600_psd_Asset_2_ManagedWiFi_Awareness_DM6_1_Looking_for_new__and_more_innovative__ways_to_connect_to__custo_0_Layer0_0_MEMBER_17_FILL">
<path fill="#D82C26" stroke="none" d="
M 33.95 8.85
Q 33.55 8.25 33 7.95 32.45 7.6 31.65 7.6 30.85 7.6 30.3 7.95 29.75 8.25 29.35 8.85 29 9.4 29 10.2 29 10.95 29.35 11.6 29.75 12.2 30.3 12.5 30.85 12.85 31.65 12.85 32.45 12.85 33 12.5 33.55 12.2 33.95 11.6 34.3 10.95 34.3 10.2 34.3 9.4 33.95 8.85
M 31.65 8.1
Q 32.25 8.1 32.7 8.4 33.2 8.75 33.4 9.15 33.65 9.6 33.65 10.2 33.65 10.9 33.4 11.25 33.15 11.8 32.7 12.05 32.25 12.35 31.65 12.35 31.05 12.35 30.6 12.05 30.15 11.8 29.9 11.25 29.65 10.9 29.65 10.2 29.65 9.6 29.9 9.15 30.15 8.65 30.6 8.4 31.05 8.1 31.65 8.1 Z"/>
</g>

<g id="BDM_300x600_psd_Asset_2_ManagedWiFi_Awareness_DM6_1_Looking_for_new__and_more_innovative__ways_to_connect_to__custo_0_Layer0_0_MEMBER_18_FILL">
<path fill="#D82C26" stroke="none" d="
M 36.05 10.25
Q 36.05 9.4 36.45 8.75 36.85 8.15 37.45 8.15
L 37.9 8.25 38.05 7.7 37.5 7.6
Q 37 7.6 36.65 7.95 36.3 8.25 36.05 8.8
L 36 7.75 35.4 7.75 35.45 12.7 36.05 12.7 36.05 10.25 Z"/>
</g>

<g id="BDM_300x600_psd_Asset_2_ManagedWiFi_Awareness_DM6_1_Looking_for_new__and_more_innovative__ways_to_connect_to__custo_0_Layer0_0_MEMBER_19_FILL">
<path fill="#D82C26" stroke="none" d="
M 41.95 7.9
Q 41.35 7.6 40.65 7.6 39.95 7.6 39.4 7.95 38.9 8.25 38.5 8.85 38.2 9.45 38.2 10.2 38.2 10.95 38.55 11.6 38.85 12.2 39.45 12.5 39.95 12.85 40.75 12.85 41.9 12.85 42.7 12.25
L 42.6 11.7
Q 42.3 12 41.8 12.15 41.4 12.35 40.8 12.35 40.2 12.35 39.75 12.05 39.4 11.9 39.05 11.35 38.8 10.85 38.8 10.3
L 43 10.3 43 10.05
Q 43 9.45 42.75 8.8 42.45 8.25 41.95 7.9
M 40.65 8.1
Q 41.45 8.1 41.95 8.55 42.4 9.1 42.4 9.85
L 38.8 9.85
Q 38.9 9.35 39.05 9.05 39.3 8.6 39.7 8.35 40 8.1 40.65 8.1 Z"/>
</g>

<g id="BDM_300x600_psd_Asset_2_ManagedWiFi_Awareness_DM6_1_Looking_for_new__and_more_innovative__ways_to_connect_to__custo_0_Layer0_0_MEMBER_20_FILL">
<path fill="#D82C26" stroke="none" d="
M 47 7.75
L 46.4 7.75 46.4 12.7 47 12.7 47 7.75
M 47 6.1
Q 47.15 5.95 47.15 5.75
L 47 5.45
Q 46.95 5.3 46.7 5.3
L 46.4 5.45 46.25 5.75
Q 46.25 5.95 46.4 6.1
L 46.7 6.2 47 6.1 Z"/>
</g>

<g id="BDM_300x600_psd_Asset_2_ManagedWiFi_Awareness_DM6_1_Looking_for_new__and_more_innovative__ways_to_connect_to__custo_0_Layer0_0_MEMBER_21_FILL">
<path fill="#D82C26" stroke="none" d="
M 52.3 8.2
Q 51.85 7.6 50.9 7.6 50.25 7.6 49.85 7.95 49.35 8.25 49.1 8.8
L 49.05 7.75 48.45 7.75 48.5 12.7 49.15 12.7 49.15 10.2
Q 49.15 9.5 49.35 9.1 49.55 8.7 49.95 8.35 50.35 8.1 50.8 8.1 51.45 8.1 51.8 8.6 52.15 9.1 52.15 9.85
L 52.15 12.7 52.75 12.7 52.75 9.7
Q 52.75 8.8 52.3 8.2 Z"/>
</g>

<g id="BDM_300x600_psd_Asset_2_ManagedWiFi_Awareness_DM6_1_Looking_for_new__and_more_innovative__ways_to_connect_to__custo_0_Layer0_0_MEMBER_22_FILL">
<path fill="#D82C26" stroke="none" d="
M 54.75 7.75
L 54.15 7.75 54.2 12.7 54.8 12.7 54.8 10.2
Q 54.8 9.6 55.05 9.1 55.25 8.7 55.65 8.35 56.05 8.1 56.45 8.1 57.15 8.1 57.5 8.6 57.8 9.15 57.8 9.85
L 57.8 12.7 58.45 12.7 58.45 9.7
Q 58.45 8.8 58 8.2 57.55 7.6 56.6 7.6 56 7.6 55.5 7.95 55.05 8.25 54.8 8.8
L 54.75 7.75 Z"/>
</g>

<g id="BDM_300x600_psd_Asset_2_ManagedWiFi_Awareness_DM6_1_Looking_for_new__and_more_innovative__ways_to_connect_to__custo_0_Layer0_0_MEMBER_23_FILL">
<path fill="#D82C26" stroke="none" d="
M 64.5 8.85
Q 64.1 8.25 63.55 7.95 63 7.6 62.2 7.6 61.4 7.6 60.85 7.95 60.2 8.3 59.9 8.85 59.55 9.4 59.55 10.2 59.55 10.95 59.9 11.6 60.2 12.15 60.85 12.5 61.4 12.85 62.2 12.85 63 12.85 63.55 12.5 64.1 12.2 64.5 11.6 64.85 10.8 64.85 10.2 64.85 9.55 64.5 8.85
M 62.2 8.1
Q 62.8 8.1 63.25 8.4 63.75 8.75 63.95 9.15 64.2 9.75 64.2 10.2 64.2 10.75 63.95 11.25 63.75 11.7 63.25 12.05 62.8 12.35 62.2 12.35 61.55 12.35 61.1 12.05 60.7 11.8 60.4 11.25 60.15 10.75 60.15 10.2 60.15 9.75 60.4 9.15 60.75 8.65 61.1 8.4 61.55 8.1 62.2 8.1 Z"/>
</g>

<g id="BDM_300x600_psd_Asset_2_ManagedWiFi_Awareness_DM6_1_Looking_for_new__and_more_innovative__ways_to_connect_to__custo_0_Layer0_0_MEMBER_24_FILL">
<path fill="#D82C26" stroke="none" d="
M 65.1 7.75
L 67 12.7 67.7 12.7 69.55 7.75 68.9 7.75 67.35 12.1 65.75 7.75 65.1 7.75 Z"/>
</g>

<g id="BDM_300x600_psd_Asset_2_ManagedWiFi_Awareness_DM6_1_Looking_for_new__and_more_innovative__ways_to_connect_to__custo_0_Layer0_0_MEMBER_25_FILL">
<path fill="#D82C26" stroke="none" d="
M 72 8.1
Q 72.65 8.1 73 8.45 73.4 8.75 73.4 9.45
L 73.4 9.75 72.8 9.75
Q 69.95 9.75 69.95 11.35 69.95 12.15 70.4 12.5 71 12.85 71.55 12.85 72.15 12.85 72.65 12.55 73.15 12.35 73.4 11.75
L 73.5 12.7 74.05 12.7 74 9.5
Q 74 8.6 73.45 8.05 73 7.6 72.05 7.6
L 71.05 7.75
Q 70.55 7.95 70.25 8.2
L 70.4 8.7 71.15 8.25
Q 71.6 8.1 72 8.1
M 73.2 11.45
Q 73 11.85 72.6 12.1 72.25 12.4 71.65 12.4 71.25 12.4 70.85 12.15 70.55 11.85 70.55 11.35 70.55 10.15 72.9 10.15
L 73.4 10.15 73.4 10.65
Q 73.4 11.1 73.2 11.45 Z"/>
</g>

<g id="BDM_300x600_psd_Asset_2_ManagedWiFi_Awareness_DM6_1_Looking_for_new__and_more_innovative__ways_to_connect_to__custo_0_Layer0_0_MEMBER_26_FILL">
<path fill="#D82C26" stroke="none" d="
M 75.55 8.25
L 75.55 11.5
Q 75.55 12.15 75.85 12.5 76.15 12.8 76.7 12.8
L 77.25 12.75 77.75 12.55 77.65 12.1
Q 77.25 12.3 76.85 12.3 76.55 12.3 76.35 12.1 76.15 11.9 76.15 11.45
L 76.15 8.25 77.45 8.25 77.55 7.75 76.15 7.75 76.15 6.3 75.55 6.55 75.55 7.75 74.75 7.75 74.6 8.25 75.55 8.25 Z"/>
</g>

<g id="BDM_300x600_psd_Asset_2_ManagedWiFi_Awareness_DM6_1_Looking_for_new__and_more_innovative__ways_to_connect_to__custo_0_Layer0_0_MEMBER_27_FILL">
<path fill="#D82C26" stroke="none" d="
M 79.15 7.75
L 78.55 7.75 78.55 12.7 79.15 12.7 79.15 7.75
M 79.15 6.1
Q 79.3 5.95 79.3 5.75
L 79.15 5.45
Q 79.1 5.3 78.85 5.3
L 78.55 5.45 78.4 5.75
Q 78.4 5.95 78.55 6.1
L 78.85 6.2 79.15 6.1 Z"/>
</g>

<g id="BDM_300x600_psd_Asset_2_ManagedWiFi_Awareness_DM6_1_Looking_for_new__and_more_innovative__ways_to_connect_to__custo_0_Layer0_0_MEMBER_28_FILL">
<path fill="#D82C26" stroke="none" d="
M 83.75 7.75
L 82.2 12.1 80.6 7.75 79.95 7.75 81.85 12.7 82.55 12.7 84.4 7.75 83.75 7.75 Z"/>
</g>

<g id="BDM_300x600_psd_Asset_2_ManagedWiFi_Awareness_DM6_1_Looking_for_new__and_more_innovative__ways_to_connect_to__custo_0_Layer0_0_MEMBER_29_FILL">
<path fill="#D82C26" stroke="none" d="
M 84.7 10.2
Q 84.7 10.95 85 11.6 85.4 12.2 85.9 12.5 86.45 12.85 87.25 12.85 88.4 12.85 89.2 12.25
L 89.1 11.7
Q 88.85 12 88.3 12.15 87.9 12.35 87.3 12.35 86.7 12.35 86.25 12.05 85.9 11.9 85.55 11.35 85.3 10.85 85.3 10.3
L 89.5 10.3 89.5 10.05
Q 89.5 9.45 89.25 8.8 88.9 8.25 88.4 7.9 87.9 7.6 87.15 7.6 86.4 7.6 85.9 7.95 85.4 8.2 85 8.85 84.7 9.45 84.7 10.2
M 85.3 9.85
Q 85.3 9.55 85.55 9.05 85.8 8.65 86.15 8.35 86.55 8.1 87.15 8.1 87.95 8.1 88.4 8.55 88.9 9.05 88.9 9.85
L 85.3 9.85 Z"/>
</g>

<g id="BDM_300x600_psd_Asset_2_ManagedWiFi_Awareness_DM6_1_Looking_for_new__and_more_innovative__ways_to_connect_to__custo_0_Layer0_0_MEMBER_30_FILL">
<path fill="#D82C26" stroke="none" d="
M 0.95 20.45
L 0.3 20.45 1.8 25.4 2.5 25.4 3.9 21.2 5.35 25.4 6.05 25.4 7.55 20.45 6.9 20.45 5.7 24.7 5.65 24.7 4.25 20.45 3.6 20.45 2.2 24.7 2.15 24.7 0.95 20.45 Z"/>
</g>

<g id="BDM_300x600_psd_Asset_2_ManagedWiFi_Awareness_DM6_1_Looking_for_new__and_more_innovative__ways_to_connect_to__custo_0_Layer0_0_MEMBER_31_FILL">
<path fill="#D82C26" stroke="none" d="
M 9.2 20.45
Q 8.7 20.65 8.35 20.95
L 8.55 21.4
Q 8.8 21.15 9.25 21 9.65 20.8 10.1 20.8 10.8 20.8 11.15 21.15 11.5 21.45 11.5 22.15
L 11.5 22.45 10.9 22.45
Q 8.05 22.45 8.05 24.1 8.05 24.8 8.55 25.2 8.95 25.55 9.65 25.55 10.15 25.55 10.75 25.3 11.25 25 11.5 24.45
L 11.55 24.45 11.6 25.4 12.2 25.4
Q 12.1 25.15 12.1 24.35
L 12.1 22.2
Q 12.1 21.25 11.6 20.8 11.1 20.3 10.2 20.3 9.65 20.3 9.2 20.45
M 11.5 23.35
Q 11.5 23.8 11.3 24.15 11.2 24.5 10.75 24.85 10.25 25.1 9.8 25.1 9.35 25.1 9 24.85 8.65 24.65 8.65 24.05 8.65 22.85 11 22.85
L 11.5 22.85 11.5 23.35 Z"/>
</g>

<g id="BDM_300x600_psd_Asset_2_ManagedWiFi_Awareness_DM6_1_Looking_for_new__and_more_innovative__ways_to_connect_to__custo_0_Layer0_0_MEMBER_32_FILL">
<path fill="#D82C26" stroke="none" d="
M 17.25 20.45
L 16.6 20.45 15.1 24.75 13.35 20.45 12.7 20.45 14.75 25.45 14.4 26.5
Q 14.15 27 13.9 27.2 13.4 27.4 13 27.4
L 13.15 27.95
Q 13.85 27.95 14.3 27.65 14.75 27.3 14.95 26.65
L 17.25 20.45 Z"/>
</g>

<g id="BDM_300x600_psd_Asset_2_ManagedWiFi_Awareness_DM6_1_Looking_for_new__and_more_innovative__ways_to_connect_to__custo_0_Layer0_0_MEMBER_33_FILL">
<path fill="#D82C26" stroke="none" d="
M 20.25 23.55
Q 20.55 23.8 20.55 24.15 20.55 24.6 20.25 24.8 20 25.05 19.45 25.05 18.5 25.05 17.8 24.45
L 17.7 25
Q 18.05 25.25 18.45 25.4 19 25.55 19.5 25.55 19.95 25.55 20.3 25.4 20.55 25.3 20.95 24.9 21.15 24.65 21.15 24.1 21.15 23.55 20.8 23.25 20.45 22.9 19.65 22.65 18.95 22.4 18.65 22.2 18.4 22.05 18.4 21.65 18.4 21.25 18.7 21 18.95 20.8 19.45 20.8 19.85 20.8 20.15 20.95 20.55 21.1 20.75 21.3
L 21 20.85 20.35 20.45
Q 19.9 20.3 19.45 20.3 19.05 20.3 18.65 20.45 18.3 20.6 18.05 20.9 17.8 21.3 17.8 21.65 17.8 22.25 18.15 22.55 18.45 22.8 19.2 23.05 19.85 23.25 20.25 23.55 Z"/>
</g>

<g id="BDM_300x600_psd_Asset_2_ManagedWiFi_Awareness_DM6_1_Looking_for_new__and_more_innovative__ways_to_connect_to__custo_0_Layer0_0_MEMBER_34_FILL">
<path fill="#D82C26" stroke="none" d="
M 24.55 20.95
L 24.55 24.2
Q 24.55 24.85 24.85 25.2 25.25 25.5 25.7 25.5
L 26.25 25.45 26.75 25.25 26.7 24.8
Q 26.3 25 25.9 25 25.55 25 25.35 24.8 25.15 24.5 25.15 24.15
L 25.15 20.95 26.45 20.95 26.6 20.45 25.15 20.45 25.15 19.05 24.55 19.3 24.55 20.45 23.75 20.45 23.6 20.95 24.55 20.95 Z"/>
</g>

<g id="BDM_300x600_psd_Asset_2_ManagedWiFi_Awareness_DM6_1_Looking_for_new__and_more_innovative__ways_to_connect_to__custo_0_Layer0_0_MEMBER_35_FILL">
<path fill="#D82C26" stroke="none" d="
M 27.4 21.55
Q 27.05 22.1 27.05 22.95 27.05 23.75 27.4 24.3 27.7 24.85 28.3 25.25 28.9 25.55 29.65 25.55 30.45 25.55 31.05 25.25 31.65 24.9 32 24.3 32.3 23.7 32.3 22.95 32.3 22.15 32 21.55 31.6 20.95 31.05 20.65 30.5 20.3 29.65 20.3 28.85 20.3 28.3 20.65 27.7 20.95 27.4 21.55
M 28.6 21.1
Q 29.1 20.85 29.65 20.85 30.25 20.85 30.75 21.1 31.25 21.45 31.45 21.85 31.7 22.45 31.7 22.95 31.7 23.4 31.45 24 31.25 24.45 30.75 24.75 30.3 25.05 29.65 25.05 29.05 25.05 28.6 24.75 28.1 24.45 27.9 24 27.65 23.4 27.65 22.95 27.65 22.45 27.9 21.85 28.1 21.45 28.6 21.1 Z"/>
</g>

<g id="BDM_300x600_psd_Asset_2_ManagedWiFi_Awareness_DM6_1_Looking_for_new__and_more_innovative__ways_to_connect_to__custo_0_Layer0_0_MEMBER_36_FILL">
<path fill="#D82C26" stroke="none" d="
M 38.7 21
Q 38.95 21.05 39.35 21.35
L 39.6 20.9
Q 39.45 20.75 38.85 20.45 38.4 20.3 37.9 20.3 37.1 20.3 36.6 20.65 35.95 20.95 35.65 21.6 35.3 22.15 35.3 22.95 35.3 23.75 35.65 24.3 35.95 24.85 36.55 25.25 37.15 25.55 37.9 25.55 38.4 25.55 38.85 25.4 39.3 25.25 39.6 24.95
L 39.5 24.45
Q 39.2 24.75 38.8 24.9 38.45 25.05 37.95 25.05 37.35 25.05 36.9 24.75 36.4 24.45 36.2 24 35.95 23.4 35.95 22.95 35.95 22.4 36.2 21.9 36.4 21.45 36.9 21.1 37.4 20.85 37.9 20.85 38.35 20.85 38.7 21 Z"/>
</g>

<g id="BDM_300x600_psd_Asset_2_ManagedWiFi_Awareness_DM6_1_Looking_for_new__and_more_innovative__ways_to_connect_to__custo_0_Layer0_0_MEMBER_37_FILL">
<path fill="#D82C26" stroke="none" d="
M 45 21.55
Q 44.7 20.95 44.05 20.65 43.5 20.3 42.7 20.3 41.9 20.3 41.35 20.65 40.8 20.95 40.4 21.55 40.1 22.15 40.1 22.95 40.1 23.7 40.4 24.3 40.75 24.9 41.35 25.25 41.95 25.55 42.7 25.55 43.45 25.55 44.05 25.25 44.7 24.9 45 24.3 45.35 23.75 45.35 22.95 45.35 22.1 45 21.55
M 41.65 21.1
Q 42.15 20.85 42.7 20.85 43.2 20.85 43.8 21.1 44.3 21.45 44.5 21.85 44.75 22.45 44.75 22.95 44.75 23.4 44.5 24 44.3 24.45 43.8 24.75 43.35 25.05 42.7 25.05 42.1 25.05 41.65 24.75 41.15 24.45 40.95 24 40.7 23.4 40.7 22.95 40.7 22.45 40.95 21.85 41.15 21.45 41.65 21.1 Z"/>
</g>

<g id="BDM_300x600_psd_Asset_2_ManagedWiFi_Awareness_DM6_1_Looking_for_new__and_more_innovative__ways_to_connect_to__custo_0_Layer0_0_MEMBER_38_FILL">
<path fill="#D82C26" stroke="none" d="
M 48.8 20.85
Q 49.55 20.85 49.85 21.3 50.15 21.85 50.15 22.55
L 50.15 25.4 50.75 25.4 50.75 22.4
Q 50.75 21.5 50.3 20.9 49.85 20.3 48.95 20.3 48.25 20.3 47.85 20.65 47.4 20.9 47.15 21.55
L 47.1 21.55 47.05 20.45 46.5 20.45 46.5 25.4 47.15 25.4 47.15 22.9
Q 47.15 22.2 47.35 21.8 47.55 21.35 47.95 21.1 48.25 20.85 48.8 20.85 Z"/>
</g>

<g id="BDM_300x600_psd_Asset_2_ManagedWiFi_Awareness_DM6_1_Looking_for_new__and_more_innovative__ways_to_connect_to__custo_0_Layer0_0_MEMBER_39_FILL">
<path fill="#D82C26" stroke="none" d="
M 54.5 20.85
Q 55.2 20.85 55.55 21.3 55.85 21.85 55.85 22.55
L 55.85 25.4 56.45 25.4 56.45 22.4
Q 56.45 21.5 56 20.9 55.55 20.3 54.6 20.3 53.95 20.3 53.55 20.65 53.05 20.95 52.8 21.55
L 52.75 20.45 52.15 20.45 52.2 25.4 52.85 25.4 52.85 22.9
Q 52.85 22.2 53.05 21.8 53.25 21.35 53.65 21.1 53.95 20.85 54.5 20.85 Z"/>
</g>

<g id="BDM_300x600_psd_Asset_2_ManagedWiFi_Awareness_DM6_1_Looking_for_new__and_more_innovative__ways_to_connect_to__custo_0_Layer0_0_MEMBER_40_FILL">
<path fill="#D82C26" stroke="none" d="
M 62.1 21.5
Q 61.9 21 61.3 20.65 60.8 20.3 60.05 20.3 59.3 20.3 58.8 20.65 58.2 20.95 57.9 21.55 57.6 22.15 57.6 22.9 57.6 23.7 57.9 24.3 58.25 24.85 58.8 25.25 59.4 25.55 60.1 25.55 61.3 25.55 62.1 24.95
L 62 24.4
Q 61.75 24.7 61.2 24.85 60.75 25.05 60.15 25.05 59.65 25.05 59.15 24.8 58.65 24.5 58.45 24.05 58.2 23.55 58.2 23
L 62.4 23 62.4 22.75
Q 62.4 22.1 62.1 21.5
M 61.3 21.3
Q 61.8 21.8 61.8 22.55
L 58.2 22.55
Q 58.2 22.25 58.45 21.75 58.7 21.35 59.05 21.05 59.55 20.8 60.05 20.8 60.85 20.8 61.3 21.3 Z"/>
</g>

<g id="BDM_300x600_psd_Asset_2_ManagedWiFi_Awareness_DM6_1_Looking_for_new__and_more_innovative__ways_to_connect_to__custo_0_Layer0_0_MEMBER_41_FILL">
<path fill="#D82C26" stroke="none" d="
M 63.25 22.95
Q 63.25 23.7 63.55 24.3 63.9 24.9 64.5 25.25 65.1 25.55 65.8 25.55 66.35 25.55 66.8 25.4 67.2 25.3 67.5 24.95
L 67.45 24.45 66.7 24.9
Q 66.35 25.05 65.85 25.05 65.25 25.05 64.8 24.75 64.45 24.5 64.1 24 63.9 23.55 63.9 22.95 63.9 22.3 64.1 21.9 64.4 21.35 64.8 21.1 65.3 20.85 65.85 20.85 66.2 20.85 66.65 21 66.95 21.05 67.25 21.35
L 67.5 20.9
Q 67.4 20.75 66.8 20.45
L 65.85 20.3
Q 65.05 20.3 64.5 20.65 64 20.9 63.55 21.6 63.25 22.2 63.25 22.95 Z"/>
</g>

<g id="BDM_300x600_psd_Asset_2_ManagedWiFi_Awareness_DM6_1_Looking_for_new__and_more_innovative__ways_to_connect_to__custo_0_Layer0_0_MEMBER_42_FILL">
<path fill="#D82C26" stroke="none" d="
M 69.5 20.95
L 70.8 20.95 70.9 20.45 69.5 20.45 69.5 19.05 68.9 19.3 68.9 20.45 68.1 20.45 67.95 20.95 68.9 20.95 68.9 24.2
Q 68.9 24.85 69.2 25.2 69.5 25.5 70.05 25.5
L 70.6 25.45 71.1 25.25 71.05 24.8
Q 70.65 25 70.25 25 69.9 25 69.7 24.8 69.5 24.5 69.5 24.15
L 69.5 20.95 Z"/>
</g>

<g id="BDM_300x600_psd_Asset_2_ManagedWiFi_Awareness_DM6_1_Looking_for_new__and_more_innovative__ways_to_connect_to__custo_0_Layer0_0_MEMBER_43_FILL">
<path fill="#D82C26" stroke="none" d="
M 74.1 20.95
L 74.1 24.2
Q 74.1 24.85 74.4 25.2 74.8 25.5 75.25 25.5
L 75.85 25.45 76.3 25.25 76.25 24.8
Q 75.85 25 75.45 25 75.1 25 74.9 24.8 74.7 24.5 74.7 24.15
L 74.7 20.95 76 20.95 76.15 20.45 74.7 20.45 74.7 19.05 74.1 19.3 74.1 20.45 73.3 20.45 73.2 20.95 74.1 20.95 Z"/>
</g>

<g id="BDM_300x600_psd_Asset_2_ManagedWiFi_Awareness_DM6_1_Looking_for_new__and_more_innovative__ways_to_connect_to__custo_0_Layer0_0_MEMBER_44_FILL">
<path fill="#D82C26" stroke="none" d="
M 81.9 22.95
Q 81.9 22.25 81.55 21.55 81.15 20.95 80.6 20.65 80.05 20.3 79.25 20.3 78.45 20.3 77.9 20.65 77.25 21 76.95 21.55 76.6 22.1 76.6 22.95 76.6 23.75 76.95 24.3 77.2 24.8 77.9 25.25 78.5 25.55 79.25 25.55 80 25.55 80.6 25.25 81.2 24.9 81.55 24.3 81.9 23.6 81.9 22.95
M 81.25 22.95
Q 81.25 23.4 81 24 80.8 24.45 80.3 24.75 79.85 25.05 79.25 25.05 78.6 25.05 78.15 24.75 77.65 24.45 77.45 24 77.2 23.4 77.2 22.95 77.2 22.45 77.45 21.85 77.65 21.45 78.15 21.1 78.65 20.85 79.25 20.85 79.8 20.85 80.3 21.1 80.8 21.45 81 21.85 81.25 22.45 81.25 22.95 Z"/>
</g>

<g id="BDM_300x600_psd_Asset_2_ManagedWiFi_Awareness_DM6_1_Looking_for_new__and_more_innovative__ways_to_connect_to__custo_0_Layer0_0_MEMBER_45_FILL">
<path fill="#D82C26" stroke="none" d="
M 4.15 33.2
Q 3.75 33 3.2 33 2.4 33 1.85 33.35 1.25 33.75 0.95 34.3 0.6 34.85 0.6 35.65 0.6 36.45 0.95 37 1.25 37.55 1.85 37.95 2.55 38.3 3.2 38.3 3.55 38.3 4.15 38.1 4.6 37.95 4.9 37.65
L 4.8 37.15
Q 4.4 37.5 4.1 37.6 3.75 37.75 3.25 37.75 2.65 37.75 2.2 37.45 1.7 37.15 1.5 36.7 1.25 36.35 1.25 35.65 1.25 35 1.5 34.6 1.7 34.1 2.2 33.85 2.65 33.55 3.2 33.55 3.65 33.55 4 33.7 4.4 33.85 4.65 34.1
L 4.9 33.6
Q 4.55 33.35 4.15 33.2 Z"/>
</g>

<g id="BDM_300x600_psd_Asset_2_ManagedWiFi_Awareness_DM6_1_Looking_for_new__and_more_innovative__ways_to_connect_to__custo_0_Layer0_0_MEMBER_46_FILL">
<path fill="#D82C26" stroke="none" d="
M 5.75 33.15
L 5.75 36.2
Q 5.75 37.1 6.15 37.65 6.6 38.25 7.55 38.25 8.15 38.25 8.65 37.95 9.15 37.55 9.35 37.05
L 9.45 38.15 10.05 38.15 9.95 36.95 9.95 33.15 9.35 33.15 9.35 35.65
Q 9.35 36.35 9.15 36.8 8.9 37.3 8.55 37.5 8.15 37.75 7.7 37.75 6.95 37.75 6.65 37.25 6.35 36.8 6.35 36.05
L 6.35 33.15 5.75 33.15 Z"/>
</g>

<g id="BDM_300x600_psd_Asset_2_ManagedWiFi_Awareness_DM6_1_Looking_for_new__and_more_innovative__ways_to_connect_to__custo_0_Layer0_0_MEMBER_47_FILL">
<path fill="#D82C26" stroke="none" d="
M 13.7 33.15
Q 13.25 33 12.8 33
L 12.05 33.15
Q 11.6 33.35 11.4 33.65 11.2 33.9 11.2 34.4 11.2 34.95 11.55 35.25 11.75 35.45 12.6 35.8
L 13.65 36.25
Q 13.95 36.5 13.95 36.85 13.95 37.25 13.6 37.55 13.25 37.8 12.85 37.8 11.85 37.8 11.2 37.15
L 11.1 37.7
Q 11.35 37.95 11.85 38.1 12.3 38.25 12.85 38.25 13.25 38.25 13.7 38.1 14.1 37.95 14.3 37.6 14.55 37.25 14.55 36.8 14.55 36.25 14.15 35.95 13.85 35.65 13 35.35 12.35 35.15 12.05 34.9 11.75 34.75 11.75 34.35 11.75 33.95 12.05 33.7 12.45 33.5 12.85 33.5
L 13.55 33.65 14.15 34 14.4 33.55 13.7 33.15 Z"/>
</g>

<g id="BDM_300x600_psd_Asset_2_ManagedWiFi_Awareness_DM6_1_Looking_for_new__and_more_innovative__ways_to_connect_to__custo_0_Layer0_0_MEMBER_48_FILL">
<path fill="#D82C26" stroke="none" d="
M 15.15 33.15
L 15.05 33.65 15.95 33.65 15.95 36.95
Q 15.95 37.55 16.3 37.9 16.65 38.25 17.15 38.25
L 17.7 38.15 18.2 37.95 18.1 37.5
Q 17.7 37.7 17.3 37.7 16.95 37.7 16.8 37.5 16.6 37.3 16.6 36.85
L 16.6 33.65 17.85 33.65 18 33.15 16.6 33.15 16.6 31.75 15.95 32 15.95 33.15 15.15 33.15 Z"/>
</g>

<g id="BDM_300x600_psd_Asset_2_ManagedWiFi_Awareness_DM6_1_Looking_for_new__and_more_innovative__ways_to_connect_to__custo_0_Layer0_0_MEMBER_49_FILL">
<path fill="#D82C26" stroke="none" d="
M 18.8 37
Q 19.05 37.5 19.75 37.95 20.45 38.3 21.1 38.3 21.75 38.3 22.45 37.95 23.05 37.6 23.4 37 23.75 36.3 23.75 35.65 23.75 35 23.4 34.3 22.95 33.6 22.45 33.35 21.9 33 21.1 33 20.3 33 19.75 33.35 19.1 33.65 18.8 34.3 18.45 34.85 18.45 35.65 18.45 36.45 18.8 37
M 19.3 34.6
Q 19.6 34.05 20 33.8 20.6 33.55 21.1 33.55 21.65 33.55 22.15 33.8 22.65 34.15 22.85 34.6 23.1 35 23.1 35.65 23.1 36.25 22.85 36.7 22.65 37.15 22.15 37.45 21.7 37.75 21.1 37.75 20.55 37.75 20 37.45 19.65 37.2 19.3 36.7 19.1 36.25 19.1 35.65 19.1 35 19.3 34.6 Z"/>
</g>

<g id="BDM_300x600_psd_Asset_2_ManagedWiFi_Awareness_DM6_1_Looking_for_new__and_more_innovative__ways_to_connect_to__custo_0_Layer0_0_MEMBER_50_FILL">
<path fill="#D82C26" stroke="none" d="
M 32 33.65
Q 31.55 33 30.65 33 30.1 33 29.55 33.35 29.05 33.75 28.85 34.3 28.65 33.75 28.25 33.35 27.8 33 27.2 33 26.75 33 26.2 33.35 25.7 33.65 25.5 34.25
L 25.45 33.15 24.85 33.15 24.9 38.15 25.5 38.15 25.5 35.65
Q 25.5 35.1 25.75 34.5 25.9 34.05 26.3 33.8 26.55 33.55 27.1 33.55 27.7 33.55 28 33.95 28.35 34.5 28.35 35.2
L 28.35 38.15 28.95 38.15 28.95 35.55
Q 28.95 34.7 29.4 34.1 29.8 33.55 30.5 33.55 31.2 33.55 31.5 34.05 31.8 34.6 31.8 35.3
L 31.8 38.15 32.45 38.15 32.45 35.15
Q 32.45 34.25 32 33.65 Z"/>
</g>

<g id="BDM_300x600_psd_Asset_2_ManagedWiFi_Awareness_DM6_1_Looking_for_new__and_more_innovative__ways_to_connect_to__custo_0_Layer0_0_MEMBER_51_FILL">
<path fill="#D82C26" stroke="none" d="
M 33.55 35.6
Q 33.55 36.45 33.9 37 34.2 37.55 34.8 37.95 35.5 38.3 36.1 38.3 37.2 38.3 38.1 37.65
L 37.95 37.1
Q 37.7 37.4 37.15 37.6 36.7 37.75 36.15 37.75 35.55 37.75 35.15 37.5 34.65 37.2 34.45 36.75 34.15 36.3 34.15 35.75
L 38.35 35.75 38.4 35.45
Q 38.4 34.8 38.1 34.25 37.8 33.65 37.3 33.35 36.8 33 36 33 35.3 33 34.75 33.35 34.25 33.65 33.9 34.25 33.55 34.8 33.55 35.6
M 34.4 34.45
Q 34.7 34 35.05 33.8 35.45 33.5 36 33.5 36.8 33.5 37.3 34 37.7 34.4 37.8 35.3
L 34.15 35.3
Q 34.25 34.8 34.4 34.45 Z"/>
</g>

<g id="BDM_300x600_psd_Asset_2_ManagedWiFi_Awareness_DM6_1_Looking_for_new__and_more_innovative__ways_to_connect_to__custo_0_Layer0_0_MEMBER_52_FILL">
<path fill="#D82C26" stroke="none" d="
M 41.55 33
Q 41.25 33 40.7 33.35 40.35 33.65 40.1 34.25
L 40.05 33.15 39.45 33.15 39.5 38.15 40.15 38.15 40.15 35.65
Q 40.15 34.75 40.5 34.2 40.9 33.55 41.55 33.55
L 41.95 33.65 42.1 33.1 41.55 33 Z"/>
</g>

<g id="BDM_300x600_psd_Asset_2_ManagedWiFi_Awareness_DM6_1_Looking_for_new__and_more_innovative__ways_to_connect_to__custo_0_Layer0_0_MEMBER_53_FILL">
<path fill="#D82C26" stroke="none" d="
M 44.95 33.65
L 45.5 34 45.8 33.55 45.1 33.15
Q 44.65 33 44.2 33 43.8 33 43.4 33.15 43 33.3 42.8 33.65 42.55 34 42.55 34.4 42.55 34.9 42.9 35.25 43.2 35.45 44 35.8 44.7 36.05 45 36.25 45.35 36.45 45.35 36.85 45.35 37.25 45 37.55 44.65 37.8 44.25 37.8 43.25 37.8 42.6 37.15
L 42.45 37.7
Q 42.65 37.9 43.25 38.1 43.7 38.25 44.25 38.25 44.7 38.25 45.05 38.1 45.5 37.95 45.7 37.6 45.95 37.25 45.95 36.8 45.95 36.25 45.55 35.95 45.15 35.6 44.4 35.35 43.65 35.1 43.45 34.9 43.15 34.75 43.15 34.35 43.15 33.95 43.45 33.7 43.85 33.5 44.25 33.5 44.6 33.5 44.95 33.65 Z"/>
</g>

<g id="BDM_300x600_psd_Asset_2_ManagedWiFi_Awareness_DM6_1_Looking_for_new__and_more_innovative__ways_to_connect_to__custo_0_Layer0_0_MEMBER_54_FILL">
<path fill="#D82C26" stroke="none" d="
M 47.95 30.45
Q 47.3 30.45 46.7 30.7 46.25 30.9 45.8 31.35
L 46.15 31.85
Q 46.45 31.5 46.9 31.25 47.4 31 47.9 31 48.55 31 48.95 31.35 49.35 31.75 49.35 32.3
L 49.25 32.9 48.95 33.35 48.4 33.9 47.75 34.75
Q 47.6 35.2 47.6 35.65
L 47.6 36 48.2 36 48.25 35.15 48.45 34.7 49.55 33.55
Q 49.8 33.15 49.85 33 50 32.7 50 32.25 50 31.7 49.75 31.3 49.5 30.9 49 30.65 48.6 30.45 47.95 30.45
M 47.6 38.05
Q 47.75 38.2 47.95 38.2
L 48.25 38.05
Q 48.4 37.9 48.4 37.7
L 48.25 37.4 47.95 37.25
Q 47.75 37.25 47.6 37.4
L 47.45 37.7
Q 47.45 37.9 47.6 38.05 Z"/>
</g>
</defs>

<g transform="matrix( 1, 0, 0, 1, -58,53) ">
<g transform="matrix( 1, 0, 0, 1, 52,0) ">
<g transform="matrix( 1, 0, 0, 1, 34,5) ">
<g transform="matrix( 2.815704345703125, 0, 0, 2.832611083984375, -0.85,23.6) ">
<use xlink:href="#BDM_300x600_psd_Asset_2_ManagedWiFi_Awareness_DM6_1_Looking_for_new__and_more_innovative__ways_to_connect_to__custo_0_Layer0_0_MEMBER_0_FILL"/>
</g>

<g transform="matrix( 2.815704345703125, 0, 0, 2.832611083984375, -0.85,23.6) ">
<use xlink:href="#BDM_300x600_psd_Asset_2_ManagedWiFi_Awareness_DM6_1_Looking_for_new__and_more_innovative__ways_to_connect_to__custo_0_Layer0_0_MEMBER_1_FILL"/>
</g>

<g transform="matrix( 2.815704345703125, 0, 0, 2.832611083984375, -0.85,23.6) ">
<use xlink:href="#BDM_300x600_psd_Asset_2_ManagedWiFi_Awareness_DM6_1_Looking_for_new__and_more_innovative__ways_to_connect_to__custo_0_Layer0_0_MEMBER_2_FILL"/>
</g>

<g transform="matrix( 2.815704345703125, 0, 0, 2.832611083984375, -0.85,23.6) ">
<use xlink:href="#BDM_300x600_psd_Asset_2_ManagedWiFi_Awareness_DM6_1_Looking_for_new__and_more_innovative__ways_to_connect_to__custo_0_Layer0_0_MEMBER_3_FILL"/>
</g>

<g transform="matrix( 2.815704345703125, 0, 0, 2.832611083984375, -0.85,23.6) ">
<use xlink:href="#BDM_300x600_psd_Asset_2_ManagedWiFi_Awareness_DM6_1_Looking_for_new__and_more_innovative__ways_to_connect_to__custo_0_Layer0_0_MEMBER_4_FILL"/>
</g>

<g transform="matrix( 2.815704345703125, 0, 0, 2.832611083984375, -0.85,23.6) ">
<use xlink:href="#BDM_300x600_psd_Asset_2_ManagedWiFi_Awareness_DM6_1_Looking_for_new__and_more_innovative__ways_to_connect_to__custo_0_Layer0_0_MEMBER_5_FILL"/>
</g>

<g transform="matrix( 2.815704345703125, 0, 0, 2.832611083984375, -0.85,23.6) ">
<use xlink:href="#BDM_300x600_psd_Asset_2_ManagedWiFi_Awareness_DM6_1_Looking_for_new__and_more_innovative__ways_to_connect_to__custo_0_Layer0_0_MEMBER_6_FILL"/>
</g>

<g transform="matrix( 2.815704345703125, 0, 0, 2.832611083984375, -0.85,23.6) ">
<use xlink:href="#BDM_300x600_psd_Asset_2_ManagedWiFi_Awareness_DM6_1_Looking_for_new__and_more_innovative__ways_to_connect_to__custo_0_Layer0_0_MEMBER_7_FILL"/>
</g>

<g transform="matrix( 2.815704345703125, 0, 0, 2.832611083984375, -0.85,23.6) ">
<use xlink:href="#BDM_300x600_psd_Asset_2_ManagedWiFi_Awareness_DM6_1_Looking_for_new__and_more_innovative__ways_to_connect_to__custo_0_Layer0_0_MEMBER_8_FILL"/>
</g>

<g transform="matrix( 2.815704345703125, 0, 0, 2.832611083984375, -0.85,23.6) ">
<use xlink:href="#BDM_300x600_psd_Asset_2_ManagedWiFi_Awareness_DM6_1_Looking_for_new__and_more_innovative__ways_to_connect_to__custo_0_Layer0_0_MEMBER_9_FILL"/>
</g>

<g transform="matrix( 2.815704345703125, 0, 0, 2.832611083984375, -0.85,23.6) ">
<use xlink:href="#BDM_300x600_psd_Asset_2_ManagedWiFi_Awareness_DM6_1_Looking_for_new__and_more_innovative__ways_to_connect_to__custo_0_Layer0_0_MEMBER_10_FILL"/>
</g>

<g transform="matrix( 2.815704345703125, 0, 0, 2.832611083984375, -0.85,23.6) ">
<use xlink:href="#BDM_300x600_psd_Asset_2_ManagedWiFi_Awareness_DM6_1_Looking_for_new__and_more_innovative__ways_to_connect_to__custo_0_Layer0_0_MEMBER_11_FILL"/>
</g>

<g transform="matrix( 2.815704345703125, 0, 0, 2.832611083984375, -0.85,23.6) ">
<use xlink:href="#BDM_300x600_psd_Asset_2_ManagedWiFi_Awareness_DM6_1_Looking_for_new__and_more_innovative__ways_to_connect_to__custo_0_Layer0_0_MEMBER_12_FILL"/>
</g>

<g transform="matrix( 2.815704345703125, 0, 0, 2.832611083984375, -0.85,23.6) ">
<use xlink:href="#BDM_300x600_psd_Asset_2_ManagedWiFi_Awareness_DM6_1_Looking_for_new__and_more_innovative__ways_to_connect_to__custo_0_Layer0_0_MEMBER_13_FILL"/>
</g>

<g transform="matrix( 2.815704345703125, 0, 0, 2.832611083984375, -0.85,23.6) ">
<use xlink:href="#BDM_300x600_psd_Asset_2_ManagedWiFi_Awareness_DM6_1_Looking_for_new__and_more_innovative__ways_to_connect_to__custo_0_Layer0_0_MEMBER_14_FILL"/>
</g>

<g transform="matrix( 2.815704345703125, 0, 0, 2.832611083984375, -0.85,23.6) ">
<use xlink:href="#BDM_300x600_psd_Asset_2_ManagedWiFi_Awareness_DM6_1_Looking_for_new__and_more_innovative__ways_to_connect_to__custo_0_Layer0_0_MEMBER_15_FILL"/>
</g>

<g transform="matrix( 2.815704345703125, 0, 0, 2.832611083984375, -0.85,23.6) ">
<use xlink:href="#BDM_300x600_psd_Asset_2_ManagedWiFi_Awareness_DM6_1_Looking_for_new__and_more_innovative__ways_to_connect_to__custo_0_Layer0_0_MEMBER_16_FILL"/>
</g>

<g transform="matrix( 2.815704345703125, 0, 0, 2.832611083984375, -0.85,23.6) ">
<use xlink:href="#BDM_300x600_psd_Asset_2_ManagedWiFi_Awareness_DM6_1_Looking_for_new__and_more_innovative__ways_to_connect_to__custo_0_Layer0_0_MEMBER_17_FILL"/>
</g>

<g transform="matrix( 2.815704345703125, 0, 0, 2.832611083984375, -0.85,23.6) ">
<use xlink:href="#BDM_300x600_psd_Asset_2_ManagedWiFi_Awareness_DM6_1_Looking_for_new__and_more_innovative__ways_to_connect_to__custo_0_Layer0_0_MEMBER_18_FILL"/>
</g>

<g transform="matrix( 2.815704345703125, 0, 0, 2.832611083984375, -0.85,23.6) ">
<use xlink:href="#BDM_300x600_psd_Asset_2_ManagedWiFi_Awareness_DM6_1_Looking_for_new__and_more_innovative__ways_to_connect_to__custo_0_Layer0_0_MEMBER_19_FILL"/>
</g>

<g transform="matrix( 2.815704345703125, 0, 0, 2.832611083984375, -0.85,23.6) ">
<use xlink:href="#BDM_300x600_psd_Asset_2_ManagedWiFi_Awareness_DM6_1_Looking_for_new__and_more_innovative__ways_to_connect_to__custo_0_Layer0_0_MEMBER_20_FILL"/>
</g>

<g transform="matrix( 2.815704345703125, 0, 0, 2.832611083984375, -0.85,23.6) ">
<use xlink:href="#BDM_300x600_psd_Asset_2_ManagedWiFi_Awareness_DM6_1_Looking_for_new__and_more_innovative__ways_to_connect_to__custo_0_Layer0_0_MEMBER_21_FILL"/>
</g>

<g transform="matrix( 2.815704345703125, 0, 0, 2.832611083984375, -0.85,23.6) ">
<use xlink:href="#BDM_300x600_psd_Asset_2_ManagedWiFi_Awareness_DM6_1_Looking_for_new__and_more_innovative__ways_to_connect_to__custo_0_Layer0_0_MEMBER_22_FILL"/>
</g>

<g transform="matrix( 2.815704345703125, 0, 0, 2.832611083984375, -0.85,23.6) ">
<use xlink:href="#BDM_300x600_psd_Asset_2_ManagedWiFi_Awareness_DM6_1_Looking_for_new__and_more_innovative__ways_to_connect_to__custo_0_Layer0_0_MEMBER_23_FILL"/>
</g>

<g transform="matrix( 2.815704345703125, 0, 0, 2.832611083984375, -0.85,23.6) ">
<use xlink:href="#BDM_300x600_psd_Asset_2_ManagedWiFi_Awareness_DM6_1_Looking_for_new__and_more_innovative__ways_to_connect_to__custo_0_Layer0_0_MEMBER_24_FILL"/>
</g>

<g transform="matrix( 2.815704345703125, 0, 0, 2.832611083984375, -0.85,23.6) ">
<use xlink:href="#BDM_300x600_psd_Asset_2_ManagedWiFi_Awareness_DM6_1_Looking_for_new__and_more_innovative__ways_to_connect_to__custo_0_Layer0_0_MEMBER_25_FILL"/>
</g>

<g transform="matrix( 2.815704345703125, 0, 0, 2.832611083984375, -0.85,23.6) ">
<use xlink:href="#BDM_300x600_psd_Asset_2_ManagedWiFi_Awareness_DM6_1_Looking_for_new__and_more_innovative__ways_to_connect_to__custo_0_Layer0_0_MEMBER_26_FILL"/>
</g>

<g transform="matrix( 2.815704345703125, 0, 0, 2.832611083984375, -0.85,23.6) ">
<use xlink:href="#BDM_300x600_psd_Asset_2_ManagedWiFi_Awareness_DM6_1_Looking_for_new__and_more_innovative__ways_to_connect_to__custo_0_Layer0_0_MEMBER_27_FILL"/>
</g>

<g transform="matrix( 2.815704345703125, 0, 0, 2.832611083984375, -0.85,23.6) ">
<use xlink:href="#BDM_300x600_psd_Asset_2_ManagedWiFi_Awareness_DM6_1_Looking_for_new__and_more_innovative__ways_to_connect_to__custo_0_Layer0_0_MEMBER_28_FILL"/>
</g>

<g transform="matrix( 2.815704345703125, 0, 0, 2.832611083984375, -0.85,23.6) ">
<use xlink:href="#BDM_300x600_psd_Asset_2_ManagedWiFi_Awareness_DM6_1_Looking_for_new__and_more_innovative__ways_to_connect_to__custo_0_Layer0_0_MEMBER_29_FILL"/>
</g>

<g transform="matrix( 2.815704345703125, 0, 0, 2.832611083984375, -0.85,23.6) ">
<use xlink:href="#BDM_300x600_psd_Asset_2_ManagedWiFi_Awareness_DM6_1_Looking_for_new__and_more_innovative__ways_to_connect_to__custo_0_Layer0_0_MEMBER_30_FILL"/>
</g>

<g transform="matrix( 2.815704345703125, 0, 0, 2.832611083984375, -0.85,23.6) ">
<use xlink:href="#BDM_300x600_psd_Asset_2_ManagedWiFi_Awareness_DM6_1_Looking_for_new__and_more_innovative__ways_to_connect_to__custo_0_Layer0_0_MEMBER_31_FILL"/>
</g>

<g transform="matrix( 2.815704345703125, 0, 0, 2.832611083984375, -0.85,23.6) ">
<use xlink:href="#BDM_300x600_psd_Asset_2_ManagedWiFi_Awareness_DM6_1_Looking_for_new__and_more_innovative__ways_to_connect_to__custo_0_Layer0_0_MEMBER_32_FILL"/>
</g>

<g transform="matrix( 2.815704345703125, 0, 0, 2.832611083984375, -0.85,23.6) ">
<use xlink:href="#BDM_300x600_psd_Asset_2_ManagedWiFi_Awareness_DM6_1_Looking_for_new__and_more_innovative__ways_to_connect_to__custo_0_Layer0_0_MEMBER_33_FILL"/>
</g>

<g transform="matrix( 2.815704345703125, 0, 0, 2.832611083984375, -0.85,23.6) ">
<use xlink:href="#BDM_300x600_psd_Asset_2_ManagedWiFi_Awareness_DM6_1_Looking_for_new__and_more_innovative__ways_to_connect_to__custo_0_Layer0_0_MEMBER_34_FILL"/>
</g>

<g transform="matrix( 2.815704345703125, 0, 0, 2.832611083984375, -0.85,23.6) ">
<use xlink:href="#BDM_300x600_psd_Asset_2_ManagedWiFi_Awareness_DM6_1_Looking_for_new__and_more_innovative__ways_to_connect_to__custo_0_Layer0_0_MEMBER_35_FILL"/>
</g>

<g transform="matrix( 2.815704345703125, 0, 0, 2.832611083984375, -0.85,23.6) ">
<use xlink:href="#BDM_300x600_psd_Asset_2_ManagedWiFi_Awareness_DM6_1_Looking_for_new__and_more_innovative__ways_to_connect_to__custo_0_Layer0_0_MEMBER_36_FILL"/>
</g>

<g transform="matrix( 2.815704345703125, 0, 0, 2.832611083984375, -0.85,23.6) ">
<use xlink:href="#BDM_300x600_psd_Asset_2_ManagedWiFi_Awareness_DM6_1_Looking_for_new__and_more_innovative__ways_to_connect_to__custo_0_Layer0_0_MEMBER_37_FILL"/>
</g>

<g transform="matrix( 2.815704345703125, 0, 0, 2.832611083984375, -0.85,23.6) ">
<use xlink:href="#BDM_300x600_psd_Asset_2_ManagedWiFi_Awareness_DM6_1_Looking_for_new__and_more_innovative__ways_to_connect_to__custo_0_Layer0_0_MEMBER_38_FILL"/>
</g>

<g transform="matrix( 2.815704345703125, 0, 0, 2.832611083984375, -0.85,23.6) ">
<use xlink:href="#BDM_300x600_psd_Asset_2_ManagedWiFi_Awareness_DM6_1_Looking_for_new__and_more_innovative__ways_to_connect_to__custo_0_Layer0_0_MEMBER_39_FILL"/>
</g>

<g transform="matrix( 2.815704345703125, 0, 0, 2.832611083984375, -0.85,23.6) ">
<use xlink:href="#BDM_300x600_psd_Asset_2_ManagedWiFi_Awareness_DM6_1_Looking_for_new__and_more_innovative__ways_to_connect_to__custo_0_Layer0_0_MEMBER_40_FILL"/>
</g>

<g transform="matrix( 2.815704345703125, 0, 0, 2.832611083984375, -0.85,23.6) ">
<use xlink:href="#BDM_300x600_psd_Asset_2_ManagedWiFi_Awareness_DM6_1_Looking_for_new__and_more_innovative__ways_to_connect_to__custo_0_Layer0_0_MEMBER_41_FILL"/>
</g>

<g transform="matrix( 2.815704345703125, 0, 0, 2.832611083984375, -0.85,23.6) ">
<use xlink:href="#BDM_300x600_psd_Asset_2_ManagedWiFi_Awareness_DM6_1_Looking_for_new__and_more_innovative__ways_to_connect_to__custo_0_Layer0_0_MEMBER_42_FILL"/>
</g>

<g transform="matrix( 2.815704345703125, 0, 0, 2.832611083984375, -0.85,23.6) ">
<use xlink:href="#BDM_300x600_psd_Asset_2_ManagedWiFi_Awareness_DM6_1_Looking_for_new__and_more_innovative__ways_to_connect_to__custo_0_Layer0_0_MEMBER_43_FILL"/>
</g>

<g transform="matrix( 2.815704345703125, 0, 0, 2.832611083984375, -0.85,23.6) ">
<use xlink:href="#BDM_300x600_psd_Asset_2_ManagedWiFi_Awareness_DM6_1_Looking_for_new__and_more_innovative__ways_to_connect_to__custo_0_Layer0_0_MEMBER_44_FILL"/>
</g>

<g transform="matrix( 2.815704345703125, 0, 0, 2.832611083984375, -0.85,23.6) ">
<use xlink:href="#BDM_300x600_psd_Asset_2_ManagedWiFi_Awareness_DM6_1_Looking_for_new__and_more_innovative__ways_to_connect_to__custo_0_Layer0_0_MEMBER_45_FILL"/>
</g>

<g transform="matrix( 2.815704345703125, 0, 0, 2.832611083984375, -0.85,23.6) ">
<use xlink:href="#BDM_300x600_psd_Asset_2_ManagedWiFi_Awareness_DM6_1_Looking_for_new__and_more_innovative__ways_to_connect_to__custo_0_Layer0_0_MEMBER_46_FILL"/>
</g>

<g transform="matrix( 2.815704345703125, 0, 0, 2.832611083984375, -0.85,23.6) ">
<use xlink:href="#BDM_300x600_psd_Asset_2_ManagedWiFi_Awareness_DM6_1_Looking_for_new__and_more_innovative__ways_to_connect_to__custo_0_Layer0_0_MEMBER_47_FILL"/>
</g>

<g transform="matrix( 2.815704345703125, 0, 0, 2.832611083984375, -0.85,23.6) ">
<use xlink:href="#BDM_300x600_psd_Asset_2_ManagedWiFi_Awareness_DM6_1_Looking_for_new__and_more_innovative__ways_to_connect_to__custo_0_Layer0_0_MEMBER_48_FILL"/>
</g>

<g transform="matrix( 2.815704345703125, 0, 0, 2.832611083984375, -0.85,23.6) ">
<use xlink:href="#BDM_300x600_psd_Asset_2_ManagedWiFi_Awareness_DM6_1_Looking_for_new__and_more_innovative__ways_to_connect_to__custo_0_Layer0_0_MEMBER_49_FILL"/>
</g>

<g transform="matrix( 2.815704345703125, 0, 0, 2.832611083984375, -0.85,23.6) ">
<use xlink:href="#BDM_300x600_psd_Asset_2_ManagedWiFi_Awareness_DM6_1_Looking_for_new__and_more_innovative__ways_to_connect_to__custo_0_Layer0_0_MEMBER_50_FILL"/>
</g>

<g transform="matrix( 2.815704345703125, 0, 0, 2.832611083984375, -0.85,23.6) ">
<use xlink:href="#BDM_300x600_psd_Asset_2_ManagedWiFi_Awareness_DM6_1_Looking_for_new__and_more_innovative__ways_to_connect_to__custo_0_Layer0_0_MEMBER_51_FILL"/>
</g>

<g transform="matrix( 2.815704345703125, 0, 0, 2.832611083984375, -0.85,23.6) ">
<use xlink:href="#BDM_300x600_psd_Asset_2_ManagedWiFi_Awareness_DM6_1_Looking_for_new__and_more_innovative__ways_to_connect_to__custo_0_Layer0_0_MEMBER_52_FILL"/>
</g>

<g transform="matrix( 2.815704345703125, 0, 0, 2.832611083984375, -0.85,23.6) ">
<use xlink:href="#BDM_300x600_psd_Asset_2_ManagedWiFi_Awareness_DM6_1_Looking_for_new__and_more_innovative__ways_to_connect_to__custo_0_Layer0_0_MEMBER_53_FILL"/>
</g>

<g transform="matrix( 2.815704345703125, 0, 0, 2.832611083984375, -0.85,23.6) ">
<use xlink:href="#BDM_300x600_psd_Asset_2_ManagedWiFi_Awareness_DM6_1_Looking_for_new__and_more_innovative__ways_to_connect_to__custo_0_Layer0_0_MEMBER_54_FILL"/>
</g>
</g>
</g>
</g>
</svg>
