
<svg xmlns="http://www.w3.org/2000/svg" version="1.1" xmlns:xlink="http://www.w3.org/1999/xlink" preserveAspectRatio="none" x="0px" y="0px" width="640px" height="480px" viewBox="0 0 640 480">
<defs>
<g id="IT_640x480_psd_Asset_5_ManagedWiFi_IT_Awareness_DM7_1_Does_your_business__struggle_with_network_security__0_Layer0_0_MEMBER_0_FILL">
<path fill="#D82C26" stroke="none" d="
M 8.3 -7
Q 7.65 -8.05 6.5 -8.5 5.45 -9 4.05 -9
L 1.25 -9 1.25 0 4.05 0
Q 5.45 0 6.5 -0.5 7.65 -1 8.3 -2 8.95 -3 8.95 -4.5 8.95 -6.05 8.3 -7
M 6.1 -7.9
Q 7.05 -7.45 7.6 -6.6 8.15 -5.75 8.15 -4.5 8.15 -3.2 7.6 -2.4 7.05 -1.55 6.1 -1.1 5.15 -0.7 3.9 -0.7
L 2 -0.7 2 -8.3 3.9 -8.3
Q 5.15 -8.3 6.1 -7.9 Z"/>
</g>

<g id="IT_640x480_psd_Asset_5_ManagedWiFi_IT_Awareness_DM7_1_Does_your_business__struggle_with_network_security__0_Layer0_0_MEMBER_1_FILL">
<path fill="#D82C26" stroke="none" d="
M 14.75 -5.75
Q 13.95 -6.15 13.1 -6.15 12.2 -6.15 11.5 -5.75 10.8 -5.3 10.35 -4.6 9.95 -3.9 9.95 -3 9.95 -2.15 10.35 -1.35 10.9 -0.55 11.5 -0.25 12.2 0.2 13.1 0.2 14 0.2 14.75 -0.25 15.45 -0.65 15.85 -1.35 16.3 -2.1 16.3 -3 16.3 -3.9 15.85 -4.6 15.55 -5.2 14.75 -5.75
M 13.1 -5.5
Q 13.85 -5.5 14.4 -5.15 14.95 -4.85 15.25 -4.25 15.55 -3.7 15.55 -3 15.55 -2.3 15.25 -1.7 14.95 -1.2 14.4 -0.8 13.9 -0.45 13.1 -0.45 12.35 -0.45 11.85 -0.8 11.35 -1.1 11 -1.7 10.7 -2.3 10.7 -3 10.7 -3.7 11 -4.25 11.3 -4.9 11.85 -5.15 12.35 -5.5 13.1 -5.5 Z"/>
</g>

<g id="IT_640x480_psd_Asset_5_ManagedWiFi_IT_Awareness_DM7_1_Does_your_business__struggle_with_network_security__0_Layer0_0_MEMBER_2_FILL">
<path fill="#D82C26" stroke="none" d="
M 20.15 -6.15
Q 19.35 -6.15 18.65 -5.75 17.95 -5.3 17.6 -4.65 17.2 -3.85 17.2 -3 17.2 -2.15 17.6 -1.35 18 -0.6 18.7 -0.25 19.4 0.2 20.25 0.2 21.6 0.2 22.65 -0.55
L 22.5 -1.2
Q 22.1 -0.9 21.55 -0.65 21 -0.45 20.3 -0.45 19.65 -0.45 19.1 -0.75 18.55 -1.15 18.25 -1.65 17.95 -2.15 17.95 -2.85
L 22.95 -2.85 23 -3.2
Q 23 -3.9 22.65 -4.7 22.35 -5.35 21.7 -5.75 21 -6.15 20.15 -6.15
M 19 -5.2
Q 19.4 -5.55 20.15 -5.55 21.1 -5.55 21.7 -4.95 22.25 -4.4 22.25 -3.4
L 17.95 -3.4
Q 17.95 -3.8 18.2 -4.4 18.55 -4.95 19 -5.2 Z"/>
</g>

<g id="IT_640x480_psd_Asset_5_ManagedWiFi_IT_Awareness_DM7_1_Does_your_business__struggle_with_network_security__0_Layer0_0_MEMBER_3_FILL">
<path fill="#D82C26" stroke="none" d="
M 23.9 -1.15
L 23.8 -0.5
Q 24 -0.3 24.7 0 25.3 0.15 25.9 0.15 26.5 0.15 26.9 -0.05 27.3 -0.2 27.65 -0.6 27.95 -1.05 27.95 -1.55 27.95 -2.2 27.5 -2.6 27.1 -3 26.1 -3.3 25.3 -3.6 24.95 -3.85 24.6 -4.05 24.6 -4.55 24.6 -5 24.95 -5.3 25.35 -5.55 25.9 -5.55 26.4 -5.55 26.75 -5.4 27.4 -5 27.45 -4.95
L 27.75 -5.5 26.95 -5.95
Q 26.25 -6.15 25.85 -6.15 25.35 -6.15 24.9 -5.95 24.55 -5.85 24.2 -5.4 23.9 -5 23.9 -4.5 23.9 -3.85 24.3 -3.45 24.75 -3.1 25.6 -2.8 26.45 -2.55 26.85 -2.25 27.25 -2 27.25 -1.55 27.25 -1 26.85 -0.7 26.4 -0.4 25.9 -0.4 24.75 -0.4 23.9 -1.15 Z"/>
</g>

<g id="IT_640x480_psd_Asset_5_ManagedWiFi_IT_Awareness_DM7_1_Does_your_business__struggle_with_network_security__0_Layer0_0_MEMBER_4_FILL">
<path fill="#D82C26" stroke="none" d="
M 31.8 -5.95
L 30.95 -5.95 33.45 0.05 33 1.3
Q 32.8 1.85 32.4 2.1 32.15 2.3 31.35 2.4
L 31.55 3.05
Q 32.35 3.05 32.9 2.65 33.45 2.2 33.7 1.5
L 36.45 -5.95 35.65 -5.95 33.85 -0.8 31.8 -5.95 Z"/>
</g>

<g id="IT_640x480_psd_Asset_5_ManagedWiFi_IT_Awareness_DM7_1_Does_your_business__struggle_with_network_security__0_Layer0_0_MEMBER_5_FILL">
<path fill="#D82C26" stroke="none" d="
M 39.9 -6.15
Q 39.1 -6.15 38.3 -5.75 37.6 -5.3 37.15 -4.6 36.75 -3.9 36.75 -3 36.75 -2.15 37.15 -1.35 37.7 -0.55 38.3 -0.25 39.05 0.2 39.9 0.2 40.8 0.2 41.55 -0.25 42.2 -0.55 42.7 -1.35 43.1 -2.15 43.1 -3 43.1 -3.9 42.7 -4.6 42.25 -5.3 41.55 -5.75 40.75 -6.15 39.9 -6.15
M 38.65 -5.15
Q 39.15 -5.5 39.9 -5.5 40.7 -5.5 41.2 -5.15 41.75 -4.85 42.05 -4.25 42.35 -3.7 42.35 -3 42.35 -2.3 42.05 -1.7 41.7 -1.1 41.2 -0.8 40.7 -0.45 39.9 -0.45 39.15 -0.45 38.65 -0.8 38.15 -1.1 37.8 -1.7 37.5 -2.3 37.5 -3 37.5 -3.7 37.8 -4.25 38.1 -4.9 38.65 -5.15 Z"/>
</g>

<g id="IT_640x480_psd_Asset_5_ManagedWiFi_IT_Awareness_DM7_1_Does_your_business__struggle_with_network_security__0_Layer0_0_MEMBER_6_FILL">
<path fill="#D82C26" stroke="none" d="
M 44.3 -2.35
Q 44.3 -1.25 44.85 -0.55 45.35 0.15 46.5 0.15 47.25 0.15 47.8 -0.25 48.45 -0.65 48.65 -1.3
L 48.8 0 49.5 0 49.4 -5.95 48.65 -5.95 48.65 -3
Q 48.65 -2.1 48.4 -1.6 48.15 -1.05 47.7 -0.75 47.25 -0.45 46.7 -0.45 45.75 -0.45 45.45 -1.05 45.05 -1.7 45.05 -2.5
L 45.05 -5.95 44.3 -5.95 44.3 -2.35 Z"/>
</g>

<g id="IT_640x480_psd_Asset_5_ManagedWiFi_IT_Awareness_DM7_1_Does_your_business__struggle_with_network_security__0_Layer0_0_MEMBER_7_FILL">
<path fill="#D82C26" stroke="none" d="
M 54.25 -6
Q 53.95 -6.15 53.6 -6.15 53.1 -6.15 52.6 -5.75 52.2 -5.5 51.85 -4.65
L 51.8 -5.95 51.05 -5.95 51.15 0 51.9 0 51.9 -2.95
Q 51.9 -4 52.35 -4.75 52.8 -5.45 53.55 -5.45
L 54.1 -5.4 54.25 -6 Z"/>
</g>

<g id="IT_640x480_psd_Asset_5_ManagedWiFi_IT_Awareness_DM7_1_Does_your_business__struggle_with_network_security__0_Layer0_0_MEMBER_8_FILL">
<path fill="#D82C26" stroke="none" d="
M 58.4 -9.75
L 57.65 -9.6 57.55 0 58.25 0 58.35 -1.3 58.4 -1.3
Q 58.7 -0.65 59.35 -0.2 60 0.15 60.8 0.15 61.75 0.15 62.35 -0.25 63 -0.6 63.4 -1.4 63.8 -2.1 63.8 -2.95 63.8 -3.8 63.4 -4.6 63 -5.35 62.35 -5.7 61.7 -6.15 60.8 -6.15 60.1 -6.15 59.4 -5.75 58.75 -5.35 58.4 -4.65
L 58.4 -9.75
M 58.65 -4.25
Q 59 -4.85 59.5 -5.15 60 -5.5 60.7 -5.5 61.45 -5.5 61.95 -5.15 62.5 -4.85 62.75 -4.25 63.05 -3.65 63.05 -2.95 63.05 -2.3 62.75 -1.7 62.55 -1.2 61.95 -0.8 61.45 -0.45 60.7 -0.45 60 -0.45 59.5 -0.8 58.95 -1.2 58.65 -1.7 58.35 -2.3 58.35 -2.95 58.35 -3.65 58.65 -4.25 Z"/>
</g>

<g id="IT_640x480_psd_Asset_5_ManagedWiFi_IT_Awareness_DM7_1_Does_your_business__struggle_with_network_security__0_Layer0_0_MEMBER_9_FILL">
<path fill="#D82C26" stroke="none" d="
M 65 -2.35
Q 65 -1.25 65.55 -0.55 66.05 0.15 67.2 0.15 67.95 0.15 68.5 -0.25 69.15 -0.65 69.35 -1.3
L 69.5 0 70.2 0 70.1 -5.95 69.35 -5.95 69.35 -3
Q 69.35 -2.1 69.1 -1.6 68.85 -1.05 68.4 -0.75 67.95 -0.45 67.4 -0.45 66.45 -0.45 66.15 -1.05 65.75 -1.7 65.75 -2.5
L 65.75 -5.95 65 -5.95 65 -2.35 Z"/>
</g>

<g id="IT_640x480_psd_Asset_5_ManagedWiFi_IT_Awareness_DM7_1_Does_your_business__struggle_with_network_security__0_Layer0_0_MEMBER_10_FILL">
<path fill="#D82C26" stroke="none" d="
M 74.5 -5.95
Q 73.8 -6.15 73.45 -6.15 72.9 -6.15 72.5 -5.95 72.1 -5.8 71.75 -5.4 71.45 -5 71.45 -4.5 71.45 -3.8 71.9 -3.45 72.2 -3.15 73.15 -2.8 73.95 -2.6 74.4 -2.25 74.8 -2 74.8 -1.55 74.8 -1 74.4 -0.7 74.05 -0.4 73.45 -0.4 72.35 -0.4 71.5 -1.15
L 71.35 -0.5
Q 71.7 -0.25 72.3 0 72.85 0.15 73.5 0.15 74.05 0.15 74.5 -0.05 74.95 -0.2 75.2 -0.6 75.5 -1.05 75.5 -1.55 75.5 -2.2 75.05 -2.6 74.7 -2.95 73.7 -3.3 73.05 -3.5 72.5 -3.85 72.15 -4.1 72.15 -4.55 72.15 -5 72.55 -5.3 72.95 -5.55 73.45 -5.55 73.95 -5.55 74.3 -5.4 74.8 -5.15 75 -4.95
L 75.35 -5.5 74.5 -5.95 Z"/>
</g>

<g id="IT_640x480_psd_Asset_5_ManagedWiFi_IT_Awareness_DM7_1_Does_your_business__struggle_with_network_security__0_Layer0_0_MEMBER_11_FILL">
<path fill="#D82C26" stroke="none" d="
M 77.45 -5.95
L 76.7 -5.95 76.7 0 77.45 0 77.45 -5.95
M 77.05 -7.8
Q 77.25 -7.8 77.4 -7.95 77.6 -8.1 77.6 -8.35 77.6 -8.55 77.4 -8.7 77.25 -8.85 77.05 -8.85 76.9 -8.85 76.65 -8.7 76.5 -8.55 76.5 -8.35 76.5 -8.1 76.65 -7.95 76.9 -7.8 77.05 -7.8 Z"/>
</g>

<g id="IT_640x480_psd_Asset_5_ManagedWiFi_IT_Awareness_DM7_1_Does_your_business__struggle_with_network_security__0_Layer0_0_MEMBER_12_FILL">
<path fill="#D82C26" stroke="none" d="
M 79.75 -5.95
L 79.1 -5.95 79.15 0 79.9 0 79.9 -3.05
Q 79.9 -3.9 80.15 -4.35 80.35 -4.85 80.85 -5.2 81.3 -5.5 81.85 -5.5 82.75 -5.5 83.1 -4.9 83.45 -4.35 83.45 -3.45
L 83.45 0 84.2 0 84.2 -3.65
Q 84.2 -4.75 83.7 -5.4 83.1 -6.15 82 -6.15 81.35 -6.15 80.7 -5.75 80.15 -5.35 79.85 -4.65
L 79.75 -5.95 Z"/>
</g>

<g id="IT_640x480_psd_Asset_5_ManagedWiFi_IT_Awareness_DM7_1_Does_your_business__struggle_with_network_security__0_Layer0_0_MEMBER_13_FILL">
<path fill="#D82C26" stroke="none" d="
M 85.5 -3
Q 85.5 -2 85.9 -1.35 86.3 -0.6 86.95 -0.25 87.65 0.2 88.55 0.2 89.95 0.2 90.9 -0.55
L 90.8 -1.2
Q 90.2 -0.8 89.8 -0.65 89.35 -0.45 88.6 -0.45 87.95 -0.45 87.35 -0.75 86.95 -1.05 86.5 -1.65 86.2 -2.15 86.2 -2.85
L 91.25 -2.85 91.25 -3.2
Q 91.25 -4 90.95 -4.7 90.55 -5.4 89.95 -5.75 89.3 -6.15 88.45 -6.15 87.65 -6.15 86.95 -5.75 86.3 -5.3 85.85 -4.65 85.5 -3.95 85.5 -3
M 89.95 -4.95
Q 90.55 -4.4 90.55 -3.4
L 86.2 -3.4
Q 86.25 -3.85 86.5 -4.4 86.85 -4.95 87.25 -5.2 87.75 -5.55 88.45 -5.55 89.35 -5.55 89.95 -4.95 Z"/>
</g>

<g id="IT_640x480_psd_Asset_5_ManagedWiFi_IT_Awareness_DM7_1_Does_your_business__struggle_with_network_security__0_Layer0_0_MEMBER_14_FILL">
<path fill="#D82C26" stroke="none" d="
M 95.2 -5.95
Q 94.6 -6.15 94.15 -6.15 93.6 -6.15 93.2 -5.95 92.8 -5.8 92.45 -5.4 92.2 -5 92.2 -4.5 92.2 -3.8 92.6 -3.45 93 -3.1 93.85 -2.8 94.65 -2.6 95.1 -2.25 95.5 -2.05 95.5 -1.55 95.5 -0.95 95.1 -0.7 94.75 -0.4 94.2 -0.4 93.05 -0.4 92.2 -1.15
L 92.05 -0.5
Q 92.4 -0.25 93 0 93.55 0.15 94.2 0.15 94.8 0.15 95.2 -0.05 95.6 -0.2 95.95 -0.6 96.2 -0.95 96.2 -1.55 96.2 -2.25 95.8 -2.6 95.45 -2.95 94.4 -3.3
L 93.2 -3.85
Q 92.9 -4.05 92.9 -4.55 92.9 -5 93.25 -5.3 93.65 -5.55 94.2 -5.55 94.65 -5.55 95 -5.4
L 95.75 -4.95 96.05 -5.5 95.2 -5.95 Z"/>
</g>

<g id="IT_640x480_psd_Asset_5_ManagedWiFi_IT_Awareness_DM7_1_Does_your_business__struggle_with_network_security__0_Layer0_0_MEMBER_15_FILL">
<path fill="#D82C26" stroke="none" d="
M 100.2 -5.95
Q 99.5 -6.15 99.1 -6.15 98.55 -6.15 98.15 -5.95 97.7 -5.8 97.45 -5.4 97.15 -5 97.15 -4.5 97.15 -3.85 97.55 -3.45 98 -3.1 98.85 -2.8 99.7 -2.55 100.1 -2.25 100.5 -2 100.5 -1.55 100.5 -1 100.1 -0.7 99.65 -0.4 99.15 -0.4 98 -0.4 97.15 -1.15
L 97.05 -0.5
Q 97.25 -0.3 97.95 0 98.55 0.15 99.15 0.15 99.75 0.15 100.15 -0.05 100.55 -0.2 100.9 -0.6 101.2 -1.05 101.2 -1.55 101.2 -2.2 100.75 -2.6 100.35 -3 99.35 -3.3 98.55 -3.6 98.2 -3.85 97.85 -4.05 97.85 -4.55 97.85 -5 98.2 -5.3 98.6 -5.55 99.15 -5.55 99.55 -5.55 100 -5.4 100.65 -5 100.7 -4.95
L 101 -5.5 100.2 -5.95 Z"/>
</g>

<g id="IT_640x480_psd_Asset_5_ManagedWiFi_IT_Awareness_DM7_1_Does_your_business__struggle_with_network_security__0_Layer0_0_MEMBER_16_FILL">
<path fill="#D82C26" stroke="none" d="
M 3.85 8.9
Q 3.4 8.7 2.8 8.7 2.3 8.7 1.85 8.85 1.4 9.1 1.1 9.45 0.8 9.85 0.8 10.35 0.8 11 1.25 11.35 1.55 11.65 2.5 12 3.25 12.25 3.75 12.55 4.15 12.85 4.15 13.3 4.15 13.8 3.75 14.1 3.4 14.4 2.8 14.4 1.7 14.4 0.85 13.7
L 0.7 14.35
Q 1.1 14.65 1.6 14.8 2.15 15 2.85 15 3.4 15 3.8 14.8 4.35 14.6 4.55 14.2 4.85 13.85 4.85 13.25 4.85 12.6 4.4 12.2 3.9 11.75 3 11.5 2.05 11.15 1.85 11 1.5 10.7 1.5 10.3 1.5 9.8 1.9 9.55 2.2 9.3 2.8 9.3 3.3 9.3 3.65 9.45
L 4.35 9.85 4.7 9.3
Q 4.2 9 3.85 8.9 Z"/>
</g>

<g id="IT_640x480_psd_Asset_5_ManagedWiFi_IT_Awareness_DM7_1_Does_your_business__struggle_with_network_security__0_Layer0_0_MEMBER_17_FILL">
<path fill="#D82C26" stroke="none" d="
M 6.45 8.9
L 5.5 8.9 5.35 9.45 6.5 9.45 6.5 13.4
Q 6.5 14.2 6.85 14.55 7.25 14.95 7.85 14.95
L 8.55 14.85 9.15 14.65 9.05 14.1
Q 8.45 14.35 8.1 14.35 7.7 14.35 7.45 14.1 7.2 13.75 7.2 13.3
L 7.2 9.45 8.75 9.45 8.9 8.9 7.2 8.9 7.2 7.15 6.45 7.45 6.45 8.9 Z"/>
</g>

<g id="IT_640x480_psd_Asset_5_ManagedWiFi_IT_Awareness_DM7_1_Does_your_business__struggle_with_network_security__0_Layer0_0_MEMBER_18_FILL">
<path fill="#D82C26" stroke="none" d="
M 10.75 10.15
L 10.65 8.9 9.95 8.9 10 14.85 10.75 14.85 10.75 11.85
Q 10.75 10.85 11.2 10.1 11.65 9.35 12.45 9.35
L 13 9.45 13.15 8.8 12.5 8.7
Q 12 8.7 11.45 9.1 10.95 9.5 10.75 10.15 Z"/>
</g>

<g id="IT_640x480_psd_Asset_5_ManagedWiFi_IT_Awareness_DM7_1_Does_your_business__struggle_with_network_security__0_Layer0_0_MEMBER_19_FILL">
<path fill="#D82C26" stroke="none" d="
M 14.65 8.9
L 13.9 8.9 13.9 12.5
Q 13.9 13.6 14.45 14.3 15 15 16.05 15 16.75 15 17.4 14.6 18.05 14.2 18.25 13.55
L 18.35 14.85 19.1 14.85 19 14.15 19 8.9 18.25 8.9 18.25 11.85
Q 18.25 12.55 18 13.2 17.7 13.8 17.25 14.1 16.8 14.4 16.25 14.4 15.4 14.4 15 13.8 14.65 13.25 14.65 12.3
L 14.65 8.9 Z"/>
</g>

<g id="IT_640x480_psd_Asset_5_ManagedWiFi_IT_Awareness_DM7_1_Does_your_business__struggle_with_network_security__0_Layer0_0_MEMBER_20_FILL">
<path fill="#D82C26" stroke="none" d="
M 24.7 9.1
Q 24 8.7 23.3 8.7 22.45 8.7 21.75 9.1 21.05 9.5 20.65 10.25 20.3 10.95 20.3 11.85 20.3 12.75 20.65 13.4 21 14.1 21.7 14.55 22.4 14.95 23.3 14.95 24 14.95 24.7 14.55 25.3 14.2 25.7 13.5
L 25.7 14.75
Q 25.7 15.85 25.15 16.65 24.55 17.3 23.25 17.3 22.55 17.3 21.95 17.1
L 20.8 16.55 20.65 17.25
Q 21.3 17.65 21.85 17.75 22.45 17.95 23.3 17.95 24.85 17.95 25.7 17.1 26.45 16.2 26.45 14.75
L 26.5 8.9 25.8 8.9 25.75 10.2 25.7 10.2
Q 25.3 9.45 24.7 9.1
M 23.4 9.3
Q 24 9.3 24.6 9.65 25.2 10.05 25.45 10.6 25.75 11.15 25.75 11.85 25.75 12.5 25.45 13.1 25.15 13.6 24.6 14 24 14.35 23.4 14.35 22.75 14.35 22.15 14 21.55 13.6 21.35 13.1 21.05 12.5 21.05 11.85 21.05 11.15 21.35 10.6 21.55 10.1 22.15 9.65 22.75 9.3 23.4 9.3 Z"/>
</g>

<g id="IT_640x480_psd_Asset_5_ManagedWiFi_IT_Awareness_DM7_1_Does_your_business__struggle_with_network_security__0_Layer0_0_MEMBER_21_FILL">
<path fill="#D82C26" stroke="none" d="
M 33.95 8.9
L 33.25 8.9 33.2 10.2 33.15 10.2
Q 32.75 9.45 32.15 9.1 31.45 8.7 30.7 8.7 29.95 8.7 29.15 9.1 28.5 9.55 28.1 10.25 27.75 10.95 27.75 11.85 27.75 12.75 28.1 13.4 28.45 14.1 29.15 14.55 29.85 14.95 30.7 14.95 31.45 14.95 32.15 14.55 32.75 14.2 33.15 13.5
L 33.15 14.75
Q 33.15 15.9 32.55 16.65 32.05 17.3 30.7 17.3 30 17.3 29.4 17.1
L 28.25 16.55 28.1 17.25
Q 28.75 17.65 29.3 17.75 29.9 17.95 30.75 17.95 32.3 17.95 33.15 17.1 33.9 16.2 33.9 14.75
L 33.95 8.9
M 32.05 9.65
Q 32.65 10.05 32.9 10.6 33.2 11.15 33.2 11.85 33.2 12.5 32.9 13.1 32.6 13.6 32.05 14 31.45 14.35 30.85 14.35 30.2 14.35 29.6 14 29.05 13.6 28.75 13.1 28.5 12.45 28.5 11.85 28.5 11.2 28.75 10.6 29 10.05 29.6 9.65 30.2 9.3 30.85 9.3 31.45 9.3 32.05 9.65 Z"/>
</g>

<g id="IT_640x480_psd_Asset_5_ManagedWiFi_IT_Awareness_DM7_1_Does_your_business__struggle_with_network_security__0_Layer0_0_MEMBER_22_FILL">
<path fill="#D82C26" stroke="none" d="
M 35.85 14.45
Q 36.05 14.8 36.55 14.95
L 36.9 14.35 36.45 14
Q 36.35 13.85 36.35 13.35
L 36.35 5.15 35.6 5.3 35.6 13.5
Q 35.6 14.15 35.85 14.45 Z"/>
</g>

<g id="IT_640x480_psd_Asset_5_ManagedWiFi_IT_Awareness_DM7_1_Does_your_business__struggle_with_network_security__0_Layer0_0_MEMBER_23_FILL">
<path fill="#D82C26" stroke="none" d="
M 42.1 9.1
Q 41.55 8.7 40.6 8.7 39.7 8.7 39.1 9.1 38.45 9.45 38.05 10.2 37.65 10.85 37.65 11.8 37.65 12.85 38.05 13.45 38.45 14.25 39.1 14.6 39.9 15 40.7 15 42.1 15 43.05 14.25
L 42.95 13.6
Q 42.7 13.85 42 14.15 41.35 14.4 40.75 14.4 40.05 14.4 39.55 14.05 39.05 13.8 38.7 13.2 38.45 12.65 38.35 11.95
L 43.4 11.95 43.45 11.65
Q 43.45 10.95 43.1 10.15 42.8 9.5 42.1 9.1
M 42.1 9.85
Q 42.7 10.45 42.7 11.4
L 38.4 11.4
Q 38.4 10.95 38.65 10.45 38.9 10 39.4 9.6 40 9.25 40.6 9.25 41.6 9.25 42.1 9.85 Z"/>
</g>

<g id="IT_640x480_psd_Asset_5_ManagedWiFi_IT_Awareness_DM7_1_Does_your_business__struggle_with_network_security__0_Layer0_0_MEMBER_24_FILL">
<path fill="#D82C26" stroke="none" d="
M 55.35 8.9
L 54.6 8.9 53.1 14 51.4 8.9 50.6 8.9 48.95 14 48.9 14 47.45 8.9 46.65 8.9 48.45 14.85 49.3 14.85 51 9.75 52.7 14.85 53.55 14.85 55.35 8.9 Z"/>
</g>

<g id="IT_640x480_psd_Asset_5_ManagedWiFi_IT_Awareness_DM7_1_Does_your_business__struggle_with_network_security__0_Layer0_0_MEMBER_25_FILL">
<path fill="#D82C26" stroke="none" d="
M 57.1 8.9
L 56.35 8.9 56.35 14.85 57.1 14.85 57.1 8.9
M 57.1 6.1
Q 56.95 5.95 56.7 5.95 56.5 5.95 56.35 6.1 56.2 6.25 56.2 6.5 56.2 6.7 56.35 6.9 56.5 7.05 56.7 7.05 56.95 7.05 57.1 6.9 57.25 6.7 57.25 6.5 57.25 6.25 57.1 6.1 Z"/>
</g>

<g id="IT_640x480_psd_Asset_5_ManagedWiFi_IT_Awareness_DM7_1_Does_your_business__struggle_with_network_security__0_Layer0_0_MEMBER_26_FILL">
<path fill="#D82C26" stroke="none" d="
M 61.15 14.85
L 61.75 14.65 61.65 14.1
Q 61 14.35 60.7 14.35 60.3 14.35 60.05 14.1 59.8 13.75 59.8 13.3
L 59.8 9.45 61.35 9.45 61.5 8.9 59.8 8.9 59.8 7.15 59.05 7.45 59.05 8.9 58.1 8.9 57.95 9.45 59.1 9.45 59.1 13.4
Q 59.1 14.2 59.45 14.55 59.85 14.95 60.45 14.95
L 61.15 14.85 Z"/>
</g>

<g id="IT_640x480_psd_Asset_5_ManagedWiFi_IT_Awareness_DM7_1_Does_your_business__struggle_with_network_security__0_Layer0_0_MEMBER_27_FILL">
<path fill="#D82C26" stroke="none" d="
M 63.35 5.15
L 62.6 5.25 62.6 14.85 63.35 14.85 63.35 11.95
Q 63.35 11.15 63.6 10.5 63.9 9.95 64.35 9.65 64.9 9.3 65.3 9.3 66.25 9.3 66.6 9.9 66.95 10.45 66.95 11.4
L 66.95 14.85 67.7 14.85 67.7 11.2
Q 67.7 10.2 67.15 9.4 66.6 8.7 65.5 8.7 64.85 8.7 64.2 9.1 63.65 9.45 63.4 10.15
L 63.35 10.15 63.35 5.15 Z"/>
</g>

<g id="IT_640x480_psd_Asset_5_ManagedWiFi_IT_Awareness_DM7_1_Does_your_business__struggle_with_network_security__0_Layer0_0_MEMBER_28_FILL">
<path fill="#D82C26" stroke="none" d="
M 75.05 8.7
Q 74.4 8.7 73.75 9.1 73.1 9.5 72.9 10.15
L 72.85 10.15 72.8 8.9 72.1 8.9 72.15 14.85 72.9 14.85 72.9 11.8
Q 72.9 11.1 73.15 10.45 73.45 9.9 73.9 9.6 74.35 9.3 74.9 9.3 75.8 9.3 76.15 9.9 76.5 10.45 76.5 11.4
L 76.5 14.85 77.25 14.85 77.25 11.2
Q 77.25 10.1 76.7 9.4 76.15 8.7 75.05 8.7 Z"/>
</g>

<g id="IT_640x480_psd_Asset_5_ManagedWiFi_IT_Awareness_DM7_1_Does_your_business__struggle_with_network_security__0_Layer0_0_MEMBER_29_FILL">
<path fill="#D82C26" stroke="none" d="
M 83 9.1
Q 82.4 8.7 81.45 8.7 80.55 8.7 79.95 9.1 79.3 9.45 78.9 10.2 78.5 11 78.5 11.8 78.5 12.75 78.9 13.45 79.25 14.2 80 14.6 80.7 15 81.55 15 83 15 83.95 14.25
L 83.8 13.6
Q 83.5 13.9 82.85 14.15 82.2 14.4 81.65 14.4 80.9 14.4 80.4 14.05 79.85 13.75 79.55 13.2 79.25 12.6 79.25 11.95
L 84.3 11.95 84.3 11.65
Q 84.3 10.8 83.95 10.15 83.65 9.45 83 9.1
M 83 9.85
Q 83.55 10.45 83.6 11.4
L 79.25 11.4
Q 79.25 10.9 79.55 10.45 79.75 10 80.3 9.6 80.9 9.25 81.45 9.25 82.4 9.25 83 9.85 Z"/>
</g>

<g id="IT_640x480_psd_Asset_5_ManagedWiFi_IT_Awareness_DM7_1_Does_your_business__struggle_with_network_security__0_Layer0_0_MEMBER_30_FILL">
<path fill="#D82C26" stroke="none" d="
M 85.7 7.45
L 85.7 8.9 84.75 8.9 84.6 9.45 85.7 9.45 85.7 13.4
Q 85.7 14.15 86.1 14.55 86.5 14.95 87.1 14.95
L 87.75 14.85
Q 88.2 14.75 88.35 14.65
L 88.25 14.1
Q 87.65 14.35 87.3 14.35 86.95 14.35 86.7 14.1 86.45 13.75 86.45 13.3
L 86.45 9.45 88 9.45 88.15 8.9 86.45 8.9 86.45 7.15 85.7 7.45 Z"/>
</g>

<g id="IT_640x480_psd_Asset_5_ManagedWiFi_IT_Awareness_DM7_1_Does_your_business__struggle_with_network_security__0_Layer0_0_MEMBER_31_FILL">
<path fill="#D82C26" stroke="none" d="
M 93.5 8.9
L 92.65 8.9 91 14 90.95 14 89.5 8.9 88.7 8.9 90.55 14.85 91.35 14.85 93.05 9.75 94.8 14.85 95.6 14.85 97.45 8.9 96.65 8.9 95.2 14 95.15 14 93.5 8.9 Z"/>
</g>

<g id="IT_640x480_psd_Asset_5_ManagedWiFi_IT_Awareness_DM7_1_Does_your_business__struggle_with_network_security__0_Layer0_0_MEMBER_32_FILL">
<path fill="#D82C26" stroke="none" d="
M 102.65 14.6
Q 103.35 14.2 103.8 13.45 104.2 12.75 104.2 11.85 104.2 11 103.8 10.2 103.3 9.45 102.65 9.1 102 8.7 101 8.7 100 8.7 99.4 9.1 98.8 9.4 98.25 10.2 97.85 11 97.85 11.85 97.85 12.75 98.25 13.45 98.75 14.25 99.4 14.6 100.1 15 101 15 101.85 15 102.65 14.6
M 103.15 13.1
Q 102.9 13.65 102.3 14.05 101.8 14.35 101 14.35 100.3 14.35 99.75 14.05 99.2 13.7 98.9 13.1 98.6 12.5 98.6 11.85 98.6 11.15 98.9 10.55 99.25 10 99.75 9.65 100.35 9.3 101 9.3 101.6 9.3 102.3 9.65 102.85 10.05 103.15 10.55 103.45 11.15 103.45 11.85 103.45 12.5 103.15 13.1 Z"/>
</g>

<g id="IT_640x480_psd_Asset_5_ManagedWiFi_IT_Awareness_DM7_1_Does_your_business__struggle_with_network_security__0_Layer0_0_MEMBER_33_FILL">
<path fill="#D82C26" stroke="none" d="
M 106.2 10.15
L 106.15 8.9 105.4 8.9 105.5 14.85 106.25 14.85 106.25 11.85
Q 106.25 10.85 106.7 10.1 107.15 9.35 107.9 9.35
L 108.45 9.45 108.6 8.8 107.95 8.7
Q 107.45 8.7 106.95 9.1 106.45 9.5 106.2 10.15 Z"/>
</g>

<g id="IT_640x480_psd_Asset_5_ManagedWiFi_IT_Awareness_DM7_1_Does_your_business__struggle_with_network_security__0_Layer0_0_MEMBER_34_FILL">
<path fill="#D82C26" stroke="none" d="
M 113.95 8.9
L 112.95 8.9 110.2 11.55 110.15 11.55 110.15 5.15 109.4 5.25 109.4 14.85 110.15 14.85 110.15 11.75 110.2 11.75 113.25 14.85 114.2 14.85 111 11.6 113.95 8.9 Z"/>
</g>

<g id="IT_640x480_psd_Asset_5_ManagedWiFi_IT_Awareness_DM7_1_Does_your_business__struggle_with_network_security__0_Layer0_0_MEMBER_35_FILL">
<path fill="#D82C26" stroke="none" d="
M 120.45 8.9
Q 120 8.7 119.35 8.7 118.85 8.7 118.4 8.85 118.05 9.05 117.7 9.45 117.4 9.85 117.4 10.35 117.4 10.95 117.8 11.35 118.25 11.7 119.1 12
L 120.35 12.55
Q 120.75 12.85 120.75 13.3 120.75 13.8 120.35 14.1 119.9 14.4 119.4 14.4 118.25 14.4 117.4 13.7
L 117.3 14.35
Q 117.55 14.6 118.2 14.8 118.75 15 119.4 15 120 15 120.4 14.8 120.85 14.6 121.15 14.2 121.45 13.85 121.45 13.25 121.45 12.6 121 12.2 120.5 11.75 119.6 11.5 118.65 11.15 118.45 11 118.1 10.7 118.1 10.3 118.1 9.75 118.45 9.55 118.75 9.3 119.4 9.3 119.8 9.3 120.25 9.45
L 120.95 9.85 121.25 9.3 120.45 8.9 Z"/>
</g>

<g id="IT_640x480_psd_Asset_5_ManagedWiFi_IT_Awareness_DM7_1_Does_your_business__struggle_with_network_security__0_Layer0_0_MEMBER_36_FILL">
<path fill="#D82C26" stroke="none" d="
M 125.2 8.7
Q 124.3 8.7 123.7 9.1 123.05 9.45 122.65 10.2 122.25 11 122.25 11.8 122.25 12.75 122.65 13.45 123 14.2 123.75 14.6 124.45 15 125.3 15 126.65 15 127.7 14.25
L 127.55 13.6
Q 127.3 13.85 126.6 14.15 125.95 14.4 125.35 14.4 124.65 14.4 124.15 14.05 123.6 13.75 123.3 13.2 123 12.6 123 11.95
L 128.05 11.95 128.05 11.65
Q 128.05 10.8 127.7 10.15 127.4 9.5 126.75 9.1 126.15 8.7 125.2 8.7
M 124.05 9.6
Q 124.6 9.25 125.2 9.25 126.15 9.25 126.75 9.85 127.3 10.45 127.35 11.4
L 123 11.4
Q 123 10.9 123.3 10.45 123.5 10 124.05 9.6 Z"/>
</g>

<g id="IT_640x480_psd_Asset_5_ManagedWiFi_IT_Awareness_DM7_1_Does_your_business__struggle_with_network_security__0_Layer0_0_MEMBER_37_FILL">
<path fill="#D82C26" stroke="none" d="
M 133.2 8.9
Q 132.75 8.7 132.1 8.7 131.1 8.7 130.5 9.1 129.85 9.45 129.35 10.25 128.95 10.95 128.95 11.85 128.95 12.7 129.35 13.5 129.75 14.2 130.45 14.6 131.25 15 132.05 15 132.75 15 133.2 14.8 133.8 14.55 134.1 14.3
L 134 13.65
Q 133.75 13.9 133.15 14.2 132.7 14.35 132.1 14.35 131.4 14.35 130.85 14 130.3 13.7 130 13.1 129.75 12.5 129.75 11.85 129.75 11.2 130 10.6 130.25 10.05 130.85 9.65 131.45 9.3 132.1 9.3 132.35 9.3 133.05 9.5 133.5 9.65 133.8 9.95
L 134.1 9.4
Q 133.75 9.05 133.2 8.9 Z"/>
</g>

<g id="IT_640x480_psd_Asset_5_ManagedWiFi_IT_Awareness_DM7_1_Does_your_business__struggle_with_network_security__0_Layer0_0_MEMBER_38_FILL">
<path fill="#D82C26" stroke="none" d="
M 135.8 8.9
L 135.05 8.9 135.05 12.5
Q 135.05 13.6 135.55 14.3 136.1 15 137.2 15 137.85 15 138.5 14.6 139.1 14.25 139.4 13.55
L 139.5 14.85 140.25 14.85 140.15 14.15 140.1 8.9 139.4 8.9 139.4 11.85
Q 139.4 12.6 139.1 13.2 138.9 13.8 138.4 14.1 137.95 14.4 137.4 14.4 136.55 14.4 136.15 13.8 135.8 13.25 135.8 12.3
L 135.8 8.9 Z"/>
</g>

<g id="IT_640x480_psd_Asset_5_ManagedWiFi_IT_Awareness_DM7_1_Does_your_business__struggle_with_network_security__0_Layer0_0_MEMBER_39_FILL">
<path fill="#D82C26" stroke="none" d="
M 144.95 8.8
L 144.35 8.7
Q 143.85 8.7 143.3 9.1 142.8 9.5 142.6 10.15
L 142.55 10.15 142.5 8.9 141.8 8.9 141.85 14.85 142.6 14.85 142.6 11.85
Q 142.6 10.85 143.05 10.1 143.5 9.35 144.3 9.35
L 144.8 9.45 144.95 8.8 Z"/>
</g>

<g id="IT_640x480_psd_Asset_5_ManagedWiFi_IT_Awareness_DM7_1_Does_your_business__struggle_with_network_security__0_Layer0_0_MEMBER_40_FILL">
<path fill="#D82C26" stroke="none" d="
M 146.55 8.9
L 145.8 8.9 145.8 14.85 146.55 14.85 146.55 8.9
M 146.5 6.1
Q 146.35 5.95 146.15 5.95 146 5.95 145.75 6.1 145.6 6.25 145.6 6.5 145.6 6.7 145.75 6.9 146 7.05 146.15 7.05 146.35 7.05 146.5 6.9 146.7 6.7 146.7 6.5 146.7 6.25 146.5 6.1 Z"/>
</g>

<g id="IT_640x480_psd_Asset_5_ManagedWiFi_IT_Awareness_DM7_1_Does_your_business__struggle_with_network_security__0_Layer0_0_MEMBER_41_FILL">
<path fill="#D82C26" stroke="none" d="
M 148.5 8.9
L 147.55 8.9 147.4 9.45 148.5 9.45 148.5 13.4
Q 148.5 14.15 148.9 14.55 149.3 14.95 149.9 14.95
L 150.55 14.85
Q 151 14.75 151.15 14.65
L 151.05 14.1
Q 150.45 14.35 150.1 14.35 149.75 14.35 149.5 14.1 149.25 13.75 149.25 13.3
L 149.25 9.45 150.8 9.45 150.95 8.9 149.25 8.9 149.25 7.15 148.5 7.45 148.5 8.9 Z"/>
</g>

<g id="IT_640x480_psd_Asset_5_ManagedWiFi_IT_Awareness_DM7_1_Does_your_business__struggle_with_network_security__0_Layer0_0_MEMBER_42_FILL">
<path fill="#D82C26" stroke="none" d="
M 156.95 8.9
L 156.15 8.9 154.35 14.05 152.3 8.9 151.45 8.9 153.95 14.9 153.5 16.1
Q 153.25 16.75 152.9 16.95 152.4 17.2 151.8 17.2
L 152 17.9
Q 152.9 17.8 153.35 17.5 153.95 17.1 154.15 16.35
L 156.95 8.9 Z"/>
</g>

<g id="IT_640x480_psd_Asset_5_ManagedWiFi_IT_Awareness_DM7_1_Does_your_business__struggle_with_network_security__0_Layer0_0_MEMBER_43_FILL">
<path fill="#D82C26" stroke="none" d="
M 158.7 5.6
Q 157.9 5.6 157.2 5.9 156.7 6.15 156.15 6.7
L 156.5 7.3
Q 156.9 6.85 157.45 6.55 158.05 6.3 158.65 6.3 159.45 6.3 159.9 6.7 160.4 7.15 160.4 7.8 160.4 8.2 160.25 8.55
L 159.9 9.1 159.25 9.8
Q 158.75 10.3 158.5 10.8 158.25 11.3 158.25 11.85
L 158.25 12.25 159 12.25 159.05 11.25 159.35 10.7
Q 159.5 10.45 159.95 10.05
L 160.6 9.35 161 8.7
Q 161.15 8.25 161.15 7.8 161.15 7.15 160.85 6.6 160.5 6.15 159.95 5.85 159.35 5.6 158.7 5.6
M 158.3 14.75
Q 158.45 14.9 158.7 14.9 158.9 14.9 159.05 14.75 159.2 14.6 159.2 14.35 159.2 14.1 159.05 13.95 158.85 13.75 158.7 13.75 158.5 13.75 158.3 13.95 158.1 14.1 158.1 14.35 158.1 14.6 158.3 14.75 Z"/>
</g>
</defs>

<g transform="matrix( 1, 0, 0, 1, -39,29) ">
<g transform="matrix( 1, 0, 0, 1, 33,0) ">
<g transform="matrix( 1, 0, 0, 1, 55,10) ">
<g transform="matrix( 2.815704345703125, 0, 0, 2.832611083984375, -1.85,27.6) ">
<use xlink:href="#IT_640x480_psd_Asset_5_ManagedWiFi_IT_Awareness_DM7_1_Does_your_business__struggle_with_network_security__0_Layer0_0_MEMBER_0_FILL"/>
</g>

<g transform="matrix( 2.815704345703125, 0, 0, 2.832611083984375, -1.85,27.6) ">
<use xlink:href="#IT_640x480_psd_Asset_5_ManagedWiFi_IT_Awareness_DM7_1_Does_your_business__struggle_with_network_security__0_Layer0_0_MEMBER_1_FILL"/>
</g>

<g transform="matrix( 2.815704345703125, 0, 0, 2.832611083984375, -1.85,27.6) ">
<use xlink:href="#IT_640x480_psd_Asset_5_ManagedWiFi_IT_Awareness_DM7_1_Does_your_business__struggle_with_network_security__0_Layer0_0_MEMBER_2_FILL"/>
</g>

<g transform="matrix( 2.815704345703125, 0, 0, 2.832611083984375, -1.85,27.6) ">
<use xlink:href="#IT_640x480_psd_Asset_5_ManagedWiFi_IT_Awareness_DM7_1_Does_your_business__struggle_with_network_security__0_Layer0_0_MEMBER_3_FILL"/>
</g>

<g transform="matrix( 2.815704345703125, 0, 0, 2.832611083984375, -1.85,27.6) ">
<use xlink:href="#IT_640x480_psd_Asset_5_ManagedWiFi_IT_Awareness_DM7_1_Does_your_business__struggle_with_network_security__0_Layer0_0_MEMBER_4_FILL"/>
</g>

<g transform="matrix( 2.815704345703125, 0, 0, 2.832611083984375, -1.85,27.6) ">
<use xlink:href="#IT_640x480_psd_Asset_5_ManagedWiFi_IT_Awareness_DM7_1_Does_your_business__struggle_with_network_security__0_Layer0_0_MEMBER_5_FILL"/>
</g>

<g transform="matrix( 2.815704345703125, 0, 0, 2.832611083984375, -1.85,27.6) ">
<use xlink:href="#IT_640x480_psd_Asset_5_ManagedWiFi_IT_Awareness_DM7_1_Does_your_business__struggle_with_network_security__0_Layer0_0_MEMBER_6_FILL"/>
</g>

<g transform="matrix( 2.815704345703125, 0, 0, 2.832611083984375, -1.85,27.6) ">
<use xlink:href="#IT_640x480_psd_Asset_5_ManagedWiFi_IT_Awareness_DM7_1_Does_your_business__struggle_with_network_security__0_Layer0_0_MEMBER_7_FILL"/>
</g>

<g transform="matrix( 2.815704345703125, 0, 0, 2.832611083984375, -1.85,27.6) ">
<use xlink:href="#IT_640x480_psd_Asset_5_ManagedWiFi_IT_Awareness_DM7_1_Does_your_business__struggle_with_network_security__0_Layer0_0_MEMBER_8_FILL"/>
</g>

<g transform="matrix( 2.815704345703125, 0, 0, 2.832611083984375, -1.85,27.6) ">
<use xlink:href="#IT_640x480_psd_Asset_5_ManagedWiFi_IT_Awareness_DM7_1_Does_your_business__struggle_with_network_security__0_Layer0_0_MEMBER_9_FILL"/>
</g>

<g transform="matrix( 2.815704345703125, 0, 0, 2.832611083984375, -1.85,27.6) ">
<use xlink:href="#IT_640x480_psd_Asset_5_ManagedWiFi_IT_Awareness_DM7_1_Does_your_business__struggle_with_network_security__0_Layer0_0_MEMBER_10_FILL"/>
</g>

<g transform="matrix( 2.815704345703125, 0, 0, 2.832611083984375, -1.85,27.6) ">
<use xlink:href="#IT_640x480_psd_Asset_5_ManagedWiFi_IT_Awareness_DM7_1_Does_your_business__struggle_with_network_security__0_Layer0_0_MEMBER_11_FILL"/>
</g>

<g transform="matrix( 2.815704345703125, 0, 0, 2.832611083984375, -1.85,27.6) ">
<use xlink:href="#IT_640x480_psd_Asset_5_ManagedWiFi_IT_Awareness_DM7_1_Does_your_business__struggle_with_network_security__0_Layer0_0_MEMBER_12_FILL"/>
</g>

<g transform="matrix( 2.815704345703125, 0, 0, 2.832611083984375, -1.85,27.6) ">
<use xlink:href="#IT_640x480_psd_Asset_5_ManagedWiFi_IT_Awareness_DM7_1_Does_your_business__struggle_with_network_security__0_Layer0_0_MEMBER_13_FILL"/>
</g>

<g transform="matrix( 2.815704345703125, 0, 0, 2.832611083984375, -1.85,27.6) ">
<use xlink:href="#IT_640x480_psd_Asset_5_ManagedWiFi_IT_Awareness_DM7_1_Does_your_business__struggle_with_network_security__0_Layer0_0_MEMBER_14_FILL"/>
</g>

<g transform="matrix( 2.815704345703125, 0, 0, 2.832611083984375, -1.85,27.6) ">
<use xlink:href="#IT_640x480_psd_Asset_5_ManagedWiFi_IT_Awareness_DM7_1_Does_your_business__struggle_with_network_security__0_Layer0_0_MEMBER_15_FILL"/>
</g>

<g transform="matrix( 2.815704345703125, 0, 0, 2.832611083984375, -1.85,27.6) ">
<use xlink:href="#IT_640x480_psd_Asset_5_ManagedWiFi_IT_Awareness_DM7_1_Does_your_business__struggle_with_network_security__0_Layer0_0_MEMBER_16_FILL"/>
</g>

<g transform="matrix( 2.815704345703125, 0, 0, 2.832611083984375, -1.85,27.6) ">
<use xlink:href="#IT_640x480_psd_Asset_5_ManagedWiFi_IT_Awareness_DM7_1_Does_your_business__struggle_with_network_security__0_Layer0_0_MEMBER_17_FILL"/>
</g>

<g transform="matrix( 2.815704345703125, 0, 0, 2.832611083984375, -1.85,27.6) ">
<use xlink:href="#IT_640x480_psd_Asset_5_ManagedWiFi_IT_Awareness_DM7_1_Does_your_business__struggle_with_network_security__0_Layer0_0_MEMBER_18_FILL"/>
</g>

<g transform="matrix( 2.815704345703125, 0, 0, 2.832611083984375, -1.85,27.6) ">
<use xlink:href="#IT_640x480_psd_Asset_5_ManagedWiFi_IT_Awareness_DM7_1_Does_your_business__struggle_with_network_security__0_Layer0_0_MEMBER_19_FILL"/>
</g>

<g transform="matrix( 2.815704345703125, 0, 0, 2.832611083984375, -1.85,27.6) ">
<use xlink:href="#IT_640x480_psd_Asset_5_ManagedWiFi_IT_Awareness_DM7_1_Does_your_business__struggle_with_network_security__0_Layer0_0_MEMBER_20_FILL"/>
</g>

<g transform="matrix( 2.815704345703125, 0, 0, 2.832611083984375, -1.85,27.6) ">
<use xlink:href="#IT_640x480_psd_Asset_5_ManagedWiFi_IT_Awareness_DM7_1_Does_your_business__struggle_with_network_security__0_Layer0_0_MEMBER_21_FILL"/>
</g>

<g transform="matrix( 2.815704345703125, 0, 0, 2.832611083984375, -1.85,27.6) ">
<use xlink:href="#IT_640x480_psd_Asset_5_ManagedWiFi_IT_Awareness_DM7_1_Does_your_business__struggle_with_network_security__0_Layer0_0_MEMBER_22_FILL"/>
</g>

<g transform="matrix( 2.815704345703125, 0, 0, 2.832611083984375, -1.85,27.6) ">
<use xlink:href="#IT_640x480_psd_Asset_5_ManagedWiFi_IT_Awareness_DM7_1_Does_your_business__struggle_with_network_security__0_Layer0_0_MEMBER_23_FILL"/>
</g>

<g transform="matrix( 2.815704345703125, 0, 0, 2.832611083984375, -1.85,27.6) ">
<use xlink:href="#IT_640x480_psd_Asset_5_ManagedWiFi_IT_Awareness_DM7_1_Does_your_business__struggle_with_network_security__0_Layer0_0_MEMBER_24_FILL"/>
</g>

<g transform="matrix( 2.815704345703125, 0, 0, 2.832611083984375, -1.85,27.6) ">
<use xlink:href="#IT_640x480_psd_Asset_5_ManagedWiFi_IT_Awareness_DM7_1_Does_your_business__struggle_with_network_security__0_Layer0_0_MEMBER_25_FILL"/>
</g>

<g transform="matrix( 2.815704345703125, 0, 0, 2.832611083984375, -1.85,27.6) ">
<use xlink:href="#IT_640x480_psd_Asset_5_ManagedWiFi_IT_Awareness_DM7_1_Does_your_business__struggle_with_network_security__0_Layer0_0_MEMBER_26_FILL"/>
</g>

<g transform="matrix( 2.815704345703125, 0, 0, 2.832611083984375, -1.85,27.6) ">
<use xlink:href="#IT_640x480_psd_Asset_5_ManagedWiFi_IT_Awareness_DM7_1_Does_your_business__struggle_with_network_security__0_Layer0_0_MEMBER_27_FILL"/>
</g>

<g transform="matrix( 2.815704345703125, 0, 0, 2.832611083984375, -1.85,27.6) ">
<use xlink:href="#IT_640x480_psd_Asset_5_ManagedWiFi_IT_Awareness_DM7_1_Does_your_business__struggle_with_network_security__0_Layer0_0_MEMBER_28_FILL"/>
</g>

<g transform="matrix( 2.815704345703125, 0, 0, 2.832611083984375, -1.85,27.6) ">
<use xlink:href="#IT_640x480_psd_Asset_5_ManagedWiFi_IT_Awareness_DM7_1_Does_your_business__struggle_with_network_security__0_Layer0_0_MEMBER_29_FILL"/>
</g>

<g transform="matrix( 2.815704345703125, 0, 0, 2.832611083984375, -1.85,27.6) ">
<use xlink:href="#IT_640x480_psd_Asset_5_ManagedWiFi_IT_Awareness_DM7_1_Does_your_business__struggle_with_network_security__0_Layer0_0_MEMBER_30_FILL"/>
</g>

<g transform="matrix( 2.815704345703125, 0, 0, 2.832611083984375, -1.85,27.6) ">
<use xlink:href="#IT_640x480_psd_Asset_5_ManagedWiFi_IT_Awareness_DM7_1_Does_your_business__struggle_with_network_security__0_Layer0_0_MEMBER_31_FILL"/>
</g>

<g transform="matrix( 2.815704345703125, 0, 0, 2.832611083984375, -1.85,27.6) ">
<use xlink:href="#IT_640x480_psd_Asset_5_ManagedWiFi_IT_Awareness_DM7_1_Does_your_business__struggle_with_network_security__0_Layer0_0_MEMBER_32_FILL"/>
</g>

<g transform="matrix( 2.815704345703125, 0, 0, 2.832611083984375, -1.85,27.6) ">
<use xlink:href="#IT_640x480_psd_Asset_5_ManagedWiFi_IT_Awareness_DM7_1_Does_your_business__struggle_with_network_security__0_Layer0_0_MEMBER_33_FILL"/>
</g>

<g transform="matrix( 2.815704345703125, 0, 0, 2.832611083984375, -1.85,27.6) ">
<use xlink:href="#IT_640x480_psd_Asset_5_ManagedWiFi_IT_Awareness_DM7_1_Does_your_business__struggle_with_network_security__0_Layer0_0_MEMBER_34_FILL"/>
</g>

<g transform="matrix( 2.815704345703125, 0, 0, 2.832611083984375, -1.85,27.6) ">
<use xlink:href="#IT_640x480_psd_Asset_5_ManagedWiFi_IT_Awareness_DM7_1_Does_your_business__struggle_with_network_security__0_Layer0_0_MEMBER_35_FILL"/>
</g>

<g transform="matrix( 2.815704345703125, 0, 0, 2.832611083984375, -1.85,27.6) ">
<use xlink:href="#IT_640x480_psd_Asset_5_ManagedWiFi_IT_Awareness_DM7_1_Does_your_business__struggle_with_network_security__0_Layer0_0_MEMBER_36_FILL"/>
</g>

<g transform="matrix( 2.815704345703125, 0, 0, 2.832611083984375, -1.85,27.6) ">
<use xlink:href="#IT_640x480_psd_Asset_5_ManagedWiFi_IT_Awareness_DM7_1_Does_your_business__struggle_with_network_security__0_Layer0_0_MEMBER_37_FILL"/>
</g>

<g transform="matrix( 2.815704345703125, 0, 0, 2.832611083984375, -1.85,27.6) ">
<use xlink:href="#IT_640x480_psd_Asset_5_ManagedWiFi_IT_Awareness_DM7_1_Does_your_business__struggle_with_network_security__0_Layer0_0_MEMBER_38_FILL"/>
</g>

<g transform="matrix( 2.815704345703125, 0, 0, 2.832611083984375, -1.85,27.6) ">
<use xlink:href="#IT_640x480_psd_Asset_5_ManagedWiFi_IT_Awareness_DM7_1_Does_your_business__struggle_with_network_security__0_Layer0_0_MEMBER_39_FILL"/>
</g>

<g transform="matrix( 2.815704345703125, 0, 0, 2.832611083984375, -1.85,27.6) ">
<use xlink:href="#IT_640x480_psd_Asset_5_ManagedWiFi_IT_Awareness_DM7_1_Does_your_business__struggle_with_network_security__0_Layer0_0_MEMBER_40_FILL"/>
</g>

<g transform="matrix( 2.815704345703125, 0, 0, 2.832611083984375, -1.85,27.6) ">
<use xlink:href="#IT_640x480_psd_Asset_5_ManagedWiFi_IT_Awareness_DM7_1_Does_your_business__struggle_with_network_security__0_Layer0_0_MEMBER_41_FILL"/>
</g>

<g transform="matrix( 2.815704345703125, 0, 0, 2.832611083984375, -1.85,27.6) ">
<use xlink:href="#IT_640x480_psd_Asset_5_ManagedWiFi_IT_Awareness_DM7_1_Does_your_business__struggle_with_network_security__0_Layer0_0_MEMBER_42_FILL"/>
</g>

<g transform="matrix( 2.815704345703125, 0, 0, 2.832611083984375, -1.85,27.6) ">
<use xlink:href="#IT_640x480_psd_Asset_5_ManagedWiFi_IT_Awareness_DM7_1_Does_your_business__struggle_with_network_security__0_Layer0_0_MEMBER_43_FILL"/>
</g>
</g>
</g>
</g>
</svg>
