
<svg xmlns="http://www.w3.org/2000/svg" version="1.1" xmlns:xlink="http://www.w3.org/1999/xlink" preserveAspectRatio="none" x="0px" y="0px" width="300px" height="250px" viewBox="0 0 300 250">
<defs>
<g id="BDM_300x250_FR_psd_Asset_6_V7_3_jusqu_aux_habitudes__de_d_penses_des_clients__0_Layer0_0_MEMBER_0_FILL">
<path fill="#D82C26" stroke="none" d="
M 1.3 -3.95
L 0.8 -3.95 0.8 0.65
Q 0.8 1.2 0.65 1.4 0.5 1.6 0.05 1.6
L 0.2 2.05
Q 0.85 1.95 1.05 1.65 1.3 1.3 1.3 0.65
L 1.3 -3.95
M 1.3 -5.3
L 1.4 -5.55 1.3 -5.8
Q 1.2 -5.9 1.05 -5.9 0.85 -5.9 0.8 -5.8 0.7 -5.75 0.7 -5.55 0.7 -5.35 0.8 -5.3
L 1.05 -5.2 1.3 -5.3 Z"/>
</g>

<g id="BDM_300x250_FR_psd_Asset_6_V7_3_jusqu_aux_habitudes__de_d_penses_des_clients__0_Layer0_0_MEMBER_1_FILL">
<path fill="#D82C26" stroke="none" d="
M 2.5 -1.55
Q 2.5 -0.95 2.85 -0.35 3.25 0.1 3.95 0.1 4.45 0.1 4.85 -0.15 5.3 -0.5 5.4 -0.85
L 5.5 0 6 0 5.9 -0.9 5.9 -3.95 5.4 -3.95 5.4 -2
Q 5.4 -1.45 5.25 -1.1 5.15 -0.8 4.75 -0.5 4.5 -0.3 4.1 -0.3 3.5 -0.3 3.25 -0.7 3 -1.1 3 -1.7
L 3 -3.95 2.5 -3.95 2.5 -1.55 Z"/>
</g>

<g id="BDM_300x250_FR_psd_Asset_6_V7_3_jusqu_aux_habitudes__de_d_penses_des_clients__0_Layer0_0_MEMBER_2_FILL">
<path fill="#D82C26" stroke="none" d="
M 8.3 -4.1
Q 7.95 -4.1 7.65 -3.95 7.45 -3.9 7.15 -3.6 6.95 -3.3 6.95 -3 6.95 -2.5 7.25 -2.3 7.65 -2 8.1 -1.9 8.75 -1.65 8.95 -1.5 9.2 -1.35 9.2 -1.05 9.2 -0.65 8.95 -0.5 8.7 -0.3 8.3 -0.3 7.55 -0.3 7 -0.75
L 6.9 -0.35
Q 7.1 -0.15 7.5 0
L 8.3 0.1 8.95 0
Q 9.25 -0.15 9.45 -0.4 9.65 -0.65 9.65 -1.05 9.65 -1.45 9.35 -1.75 8.9 -2.1 8.45 -2.2
L 7.65 -2.55
Q 7.45 -2.7 7.45 -3 7.45 -3.35 7.7 -3.5 7.9 -3.7 8.3 -3.7
L 8.85 -3.6 9.35 -3.3 9.55 -3.65
Q 9.35 -3.85 9 -3.95 8.65 -4.1 8.3 -4.1 Z"/>
</g>

<g id="BDM_300x250_FR_psd_Asset_6_V7_3_jusqu_aux_habitudes__de_d_penses_des_clients__0_Layer0_0_MEMBER_3_FILL">
<path fill="#D82C26" stroke="none" d="
M 13.95 -3.1
Q 13.7 -3.55 13.3 -3.85 12.8 -4.1 12.35 -4.1 11.75 -4.1 11.3 -3.8 10.95 -3.55 10.6 -3.05 10.35 -2.55 10.35 -2 10.35 -1.5 10.6 -0.9 10.95 -0.4 11.3 -0.15 11.8 0.1 12.35 0.1 12.95 0.1 13.3 -0.15 13.7 -0.35 13.95 -0.85
L 14 -0.85 14 0.95
Q 14 1.85 14.85 2.05
L 15.05 1.6
Q 14.8 1.55 14.6 1.35 14.45 1.2 14.45 0.85
L 14.5 -3.95 14 -3.95 14 -3.1 13.95 -3.1
M 11.6 -3.45
Q 11.95 -3.65 12.4 -3.65 12.9 -3.65 13.25 -3.45 13.6 -3.2 13.8 -2.85 14 -2.45 14 -2 14 -1.5 13.8 -1.15 13.6 -0.8 13.25 -0.55 12.85 -0.3 12.4 -0.3 12 -0.3 11.6 -0.55 11.3 -0.75 11.05 -1.15 10.85 -1.5 10.85 -2 10.85 -2.45 11.05 -2.85 11.3 -3.25 11.6 -3.45 Z"/>
</g>

<g id="BDM_300x250_FR_psd_Asset_6_V7_3_jusqu_aux_habitudes__de_d_penses_des_clients__0_Layer0_0_MEMBER_4_FILL">
<path fill="#D82C26" stroke="none" d="
M 19.1 -3.95
L 18.6 -3.95 18.6 -2
Q 18.6 -1.45 18.45 -1.1 18.25 -0.75 17.95 -0.5 17.7 -0.3 17.3 -0.3 16.7 -0.3 16.45 -0.7 16.2 -1.1 16.2 -1.7
L 16.2 -3.95 15.7 -3.95 15.7 -1.55
Q 15.7 -0.85 16.05 -0.35 16.45 0.1 17.15 0.1 17.55 0.1 18.05 -0.15 18.5 -0.5 18.6 -0.85
L 18.7 0 19.15 0 19.1 -3.95 Z"/>
</g>

<g id="BDM_300x250_FR_psd_Asset_6_V7_3_jusqu_aux_habitudes__de_d_penses_des_clients__0_Layer0_0_MEMBER_5_FILL">
<path fill="#D82C26" stroke="none" d="
M 20.9 -5.85
Q 20.85 -6 20.65 -6
L 20.35 -5.9 20.25 -5.6 20.35 -5.35 20.6 -5.25
Q 20.6 -4.9 20.4 -4.7
L 20.05 -4.2 20.25 -4.1
Q 21 -4.75 21 -5.5 21 -5.8 20.9 -5.85 Z"/>
</g>

<g id="BDM_300x250_FR_psd_Asset_6_V7_3_jusqu_aux_habitudes__de_d_penses_des_clients__0_Layer0_0_MEMBER_6_FILL">
<path fill="#D82C26" stroke="none" d="
M 23 -3.7
Q 23.5 -3.7 23.8 -3.4 24.1 -3.15 24.1 -2.6
L 24.1 -2.4 23.65 -2.4
Q 21.35 -2.4 21.35 -1.05 21.35 -0.5 21.75 -0.2 22.15 0.1 22.65 0.1 23.15 0.1 23.5 -0.1 23.95 -0.3 24.1 -0.75
L 24.15 -0.75 24.15 -0.35 24.2 0 24.65 0 24.6 -2.6
Q 24.6 -3.3 24.2 -3.7 23.7 -4.1 23.05 -4.1 22.65 -4.1 22.25 -3.95 21.75 -3.75 21.6 -3.6
L 21.75 -3.2 22.3 -3.55 23 -3.7
M 22.1 -0.45
Q 21.85 -0.7 21.85 -1.1 21.85 -2.05 23.7 -2.05
L 24.1 -2.05 24.1 -1.65
Q 24.1 -1.3 23.95 -1 23.8 -0.65 23.5 -0.45 23.1 -0.25 22.75 -0.25 22.4 -0.25 22.1 -0.45 Z"/>
</g>

<g id="BDM_300x250_FR_psd_Asset_6_V7_3_jusqu_aux_habitudes__de_d_penses_des_clients__0_Layer0_0_MEMBER_7_FILL">
<path fill="#D82C26" stroke="none" d="
M 29.15 -3.95
L 28.65 -3.95 28.65 -2
Q 28.65 -1.45 28.5 -1.1 28.3 -0.75 28 -0.5 27.75 -0.3 27.35 -0.3 26.75 -0.3 26.5 -0.7 26.25 -1.1 26.25 -1.7
L 26.25 -3.95 25.75 -3.95 25.75 -1.55
Q 25.75 -0.95 26.1 -0.35 26.5 0.1 27.2 0.1 27.6 0.1 28.1 -0.15 28.55 -0.5 28.65 -0.85
L 28.75 0 29.25 0 29.15 -0.9 29.15 -3.95 Z"/>
</g>

<g id="BDM_300x250_FR_psd_Asset_6_V7_3_jusqu_aux_habitudes__de_d_penses_des_clients__0_Layer0_0_MEMBER_8_FILL">
<path fill="#D82C26" stroke="none" d="
M 30.15 -3.95
L 31.55 -2.1 29.95 0 30.55 0 31.85 -1.75 33.1 0 33.75 0 32.15 -2.1 33.55 -3.95 32.95 -3.95 31.85 -2.4 30.75 -3.95 30.15 -3.95 Z"/>
</g>

<g id="BDM_300x250_FR_psd_Asset_6_V7_3_jusqu_aux_habitudes__de_d_penses_des_clients__0_Layer0_0_MEMBER_9_FILL">
<path fill="#D82C26" stroke="none" d="
M 36.65 -6.45
L 36.15 -6.4 36.15 0 36.65 0 36.65 -1.95
Q 36.65 -2.45 36.8 -2.85 37.05 -3.3 37.3 -3.45 37.55 -3.65 37.95 -3.65 38.6 -3.65 38.8 -3.25 39.05 -2.85 39.05 -2.3
L 39.05 0 39.55 0 39.55 -2.4
Q 39.55 -3.05 39.2 -3.6 38.85 -4.1 38.1 -4.1 37.6 -4.1 37.2 -3.85 36.8 -3.55 36.65 -3.15
L 36.65 -6.45 Z"/>
</g>

<g id="BDM_300x250_FR_psd_Asset_6_V7_3_jusqu_aux_habitudes__de_d_penses_des_clients__0_Layer0_0_MEMBER_10_FILL">
<path fill="#D82C26" stroke="none" d="
M 42.1 -3.7
Q 42.65 -3.7 42.95 -3.4 43.25 -3.15 43.25 -2.6
L 43.25 -2.4 42.75 -2.4
Q 40.5 -2.4 40.5 -1.05 40.5 -0.5 40.85 -0.2 41.25 0.1 41.75 0.1 42.25 0.1 42.65 -0.1 43 -0.3 43.25 -0.75
L 43.3 -0.35 43.3 0 43.75 0 43.7 -2.6
Q 43.7 -3.3 43.3 -3.7 42.9 -4.1 42.2 -4.1 41.8 -4.1 41.4 -3.95
L 40.7 -3.6 40.85 -3.2
Q 41.05 -3.4 41.45 -3.55
L 42.1 -3.7
M 42.6 -0.45
Q 42.2 -0.25 41.85 -0.25 41.6 -0.25 41.2 -0.45 40.95 -0.7 40.95 -1.1 40.95 -2.05 42.85 -2.05
L 43.25 -2.05 43.25 -1.65
Q 43.25 -1.3 43.1 -1 42.95 -0.7 42.6 -0.45 Z"/>
</g>

<g id="BDM_300x250_FR_psd_Asset_6_V7_3_jusqu_aux_habitudes__de_d_penses_des_clients__0_Layer0_0_MEMBER_11_FILL">
<path fill="#D82C26" stroke="none" d="
M 45.45 -6.5
L 44.95 -6.4 44.9 0 45.35 0 45.4 -0.85 45.45 -0.85
Q 45.7 -0.35 46.1 -0.15 46.6 0.1 47.05 0.1 47.6 0.1 48.1 -0.15 48.6 -0.45 48.8 -0.9 49.05 -1.5 49.05 -2 49.05 -2.55 48.8 -3.05 48.6 -3.45 48.1 -3.8 47.65 -4.1 47.05 -4.1 46.55 -4.1 46.15 -3.85 45.65 -3.5 45.45 -3.1
L 45.45 -6.5
M 47 -3.65
Q 47.5 -3.65 47.85 -3.45 48.2 -3.15 48.35 -2.85 48.55 -2.45 48.55 -2 48.55 -1.5 48.35 -1.15 48.2 -0.85 47.85 -0.55 47.45 -0.3 47 -0.3 46.6 -0.3 46.2 -0.55 45.8 -0.8 45.65 -1.15 45.45 -1.5 45.45 -2 45.45 -2.45 45.65 -2.85 45.8 -3.2 46.2 -3.45 46.55 -3.65 47 -3.65 Z"/>
</g>

<g id="BDM_300x250_FR_psd_Asset_6_V7_3_jusqu_aux_habitudes__de_d_penses_des_clients__0_Layer0_0_MEMBER_12_FILL">
<path fill="#D82C26" stroke="none" d="
M 50.05 -5.3
L 50.3 -5.2 50.55 -5.3
Q 50.65 -5.35 50.65 -5.55 50.65 -5.75 50.55 -5.8 50.5 -5.9 50.3 -5.9 50.15 -5.9 50.05 -5.8
L 49.95 -5.55 50.05 -5.3
M 50.55 -3.95
L 50.05 -3.95 50.05 0 50.55 0 50.55 -3.95 Z"/>
</g>

<g id="BDM_300x250_FR_psd_Asset_6_V7_3_jusqu_aux_habitudes__de_d_penses_des_clients__0_Layer0_0_MEMBER_13_FILL">
<path fill="#D82C26" stroke="none" d="
M 53.55 -3.6
L 53.65 -3.95 52.5 -3.95 52.5 -5.1 52 -4.9 52 -3.95 51.4 -3.95 51.3 -3.6 52.05 -3.6 52.05 -0.95
Q 52.05 -0.4 52.3 -0.2 52.55 0.1 52.95 0.1
L 53.4 0.05 53.8 -0.15 53.75 -0.5
Q 53.25 -0.3 53.1 -0.3 52.9 -0.3 52.7 -0.5 52.5 -0.65 52.5 -1.05
L 52.5 -3.6 53.55 -3.6 Z"/>
</g>

<g id="BDM_300x250_FR_psd_Asset_6_V7_3_jusqu_aux_habitudes__de_d_penses_des_clients__0_Layer0_0_MEMBER_14_FILL">
<path fill="#D82C26" stroke="none" d="
M 54.4 -1.55
Q 54.4 -0.95 54.75 -0.35 55.15 0.1 55.85 0.1 56.35 0.1 56.75 -0.15 57.2 -0.5 57.3 -0.85
L 57.4 0 57.9 0 57.8 -0.9 57.8 -3.95 57.3 -3.95 57.3 -2
Q 57.3 -1.45 57.15 -1.1 57.05 -0.8 56.65 -0.5 56.4 -0.3 56 -0.3 55.45 -0.3 55.15 -0.7 54.9 -1.1 54.9 -1.7
L 54.9 -3.95 54.4 -3.95 54.4 -1.55 Z"/>
</g>

<g id="BDM_300x250_FR_psd_Asset_6_V7_3_jusqu_aux_habitudes__de_d_penses_des_clients__0_Layer0_0_MEMBER_15_FILL">
<path fill="#D82C26" stroke="none" d="
M 59.1 -0.9
Q 59.3 -0.45 59.8 -0.15 60.3 0.1 60.85 0.1 61.45 0.1 61.75 -0.15 62.2 -0.4 62.45 -0.85
L 62.5 0 63 0 62.95 -6.5 62.45 -6.4 62.45 -3.1
Q 62.25 -3.5 61.75 -3.85 61.35 -4.1 60.85 -4.1 60.25 -4.1 59.8 -3.8 59.3 -3.45 59.1 -3.05 58.85 -2.65 58.85 -2 58.85 -1.35 59.1 -0.9
M 59.55 -2.85
Q 59.7 -3.15 60.05 -3.45 60.4 -3.65 60.9 -3.65 61.35 -3.65 61.7 -3.45 62.1 -3.2 62.25 -2.85 62.45 -2.45 62.45 -2 62.45 -1.5 62.25 -1.15 62.1 -0.8 61.7 -0.55 61.3 -0.3 60.9 -0.3 60.45 -0.3 60.05 -0.55 59.7 -0.85 59.55 -1.15 59.35 -1.5 59.35 -2 59.35 -2.45 59.55 -2.85 Z"/>
</g>

<g id="BDM_300x250_FR_psd_Asset_6_V7_3_jusqu_aux_habitudes__de_d_penses_des_clients__0_Layer0_0_MEMBER_16_FILL">
<path fill="#D82C26" stroke="none" d="
M 64.2 -0.9
Q 64.5 -0.45 64.95 -0.15 65.35 0.1 66 0.1 66.95 0.1 67.6 -0.4
L 67.5 -0.8 66.85 -0.45
Q 66.5 -0.3 66.05 -0.3 65.55 -0.3 65.2 -0.5 64.85 -0.75 64.65 -1.1 64.45 -1.45 64.45 -1.9
L 67.8 -1.9 67.8 -2.15
Q 67.8 -2.7 67.6 -3.1 67.35 -3.55 66.95 -3.85 66.45 -4.1 65.95 -4.1 65.45 -4.1 64.95 -3.85 64.5 -3.55 64.2 -3.1 63.95 -2.5 63.95 -2 63.95 -1.5 64.2 -0.9
M 64.65 -2.9
Q 64.8 -3.2 65.15 -3.5 65.4 -3.7 65.95 -3.7 66.55 -3.7 66.95 -3.3 67.35 -2.9 67.35 -2.3
L 64.45 -2.3
Q 64.45 -2.5 64.65 -2.9 Z"/>
</g>

<g id="BDM_300x250_FR_psd_Asset_6_V7_3_jusqu_aux_habitudes__de_d_penses_des_clients__0_Layer0_0_MEMBER_17_FILL">
<path fill="#D82C26" stroke="none" d="
M 69.25 -3.95
Q 69.05 -3.9 68.75 -3.6 68.6 -3.35 68.6 -3 68.6 -2.5 68.85 -2.3 69.2 -2.05 69.7 -1.9 70.35 -1.65 70.55 -1.5 70.8 -1.35 70.8 -1.05 70.8 -0.65 70.55 -0.5 70.3 -0.3 69.9 -0.3 69.15 -0.3 68.6 -0.75
L 68.5 -0.35
Q 68.7 -0.15 69.1 0
L 69.95 0.1 70.6 0 71.1 -0.4
Q 71.25 -0.7 71.25 -1.05 71.25 -1.4 71 -1.75 70.6 -2.05 70.05 -2.2
L 69.25 -2.55
Q 69.05 -2.7 69.05 -3 69.05 -3.35 69.3 -3.5 69.5 -3.7 69.9 -3.7
L 70.45 -3.6 70.95 -3.3 71.15 -3.65
Q 70.95 -3.85 70.6 -3.95 70.3 -4.1 69.9 -4.1 69.55 -4.1 69.25 -3.95 Z"/>
</g>

<g id="BDM_300x250_FR_psd_Asset_6_V7_3_jusqu_aux_habitudes__de_d_penses_des_clients__0_Layer0_0_MEMBER_18_FILL">
<path fill="#D82C26" stroke="none" d="
M 1.45 5.35
Q 1 5.65 0.7 6.15 0.45 6.65 0.45 7.2 0.45 7.75 0.7 8.25 1 8.8 1.45 9 1.9 9.3 2.45 9.3 2.9 9.3 3.4 9.05 3.95 8.7 4.1 8.3
L 4.15 9.2 4.65 9.2 4.6 2.65 4.1 2.75 4.1 6.05
Q 3.75 5.55 3.4 5.35 2.9 5.1 2.45 5.1 1.95 5.1 1.45 5.35
M 2.55 5.5
Q 2.95 5.5 3.35 5.75 3.65 5.95 3.9 6.35 4.1 6.7 4.1 7.2 4.1 7.7 3.9 8.05 3.65 8.45 3.35 8.65 3 8.85 2.55 8.85 2.05 8.85 1.7 8.65 1.4 8.45 1.15 8.05 0.95 7.55 0.95 7.2 0.95 6.85 1.15 6.35 1.4 5.95 1.7 5.75 2.1 5.5 2.55 5.5 Z"/>
</g>

<g id="BDM_300x250_FR_psd_Asset_6_V7_3_jusqu_aux_habitudes__de_d_penses_des_clients__0_Layer0_0_MEMBER_19_FILL">
<path fill="#D82C26" stroke="none" d="
M 6.55 5.35
Q 6.2 5.6 5.85 6.1 5.6 6.6 5.6 7.15 5.6 7.75 5.85 8.25 6.15 8.75 6.6 9.05 7.1 9.3 7.65 9.3 8.65 9.3 9.2 8.8
L 9.15 8.35 8.5 8.75
Q 8.15 8.9 7.7 8.9 7.25 8.9 6.85 8.65 6.5 8.45 6.3 8.1 6.1 7.75 6.1 7.25
L 9.45 7.25 9.45 7.05
Q 9.45 6.45 9.25 6.05 9.05 5.6 8.6 5.35 8.25 5.1 7.55 5.1 7.05 5.1 6.55 5.35
M 7.55 5.5
Q 8.25 5.5 8.6 5.85 8.95 6.25 9 6.9
L 6.1 6.9
Q 6.1 6.6 6.3 6.25 6.5 5.9 6.8 5.7 7.05 5.5 7.55 5.5 Z"/>
</g>

<g id="BDM_300x250_FR_psd_Asset_6_V7_3_jusqu_aux_habitudes__de_d_penses_des_clients__0_Layer0_0_MEMBER_20_FILL">
<path fill="#D82C26" stroke="none" d="
M 15.95 2.65
L 15.45 2.75 15.45 6.05
Q 15.25 5.6 14.8 5.35 14.3 5.1 13.85 5.1 13.3 5.1 12.8 5.35 12.3 5.7 12.1 6.15 11.85 6.65 11.85 7.2 11.85 7.75 12.1 8.25 12.3 8.75 12.8 9 13.25 9.3 13.85 9.3 14.3 9.3 14.8 9.05 15.3 8.65 15.45 8.3
L 15.5 8.3 15.5 9.2 16 9.2 15.95 2.65
M 13.9 5.5
Q 14.3 5.5 14.7 5.75 15.1 6 15.3 6.35 15.5 6.85 15.5 7.2 15.5 7.55 15.3 8.05 15.1 8.45 14.7 8.65 14.35 8.85 13.9 8.85 13.35 8.85 13.1 8.65 12.7 8.4 12.55 8.05 12.35 7.7 12.35 7.2 12.35 6.7 12.55 6.35 12.7 6 13.1 5.75 13.45 5.5 13.9 5.5 Z"/>
</g>

<g id="BDM_300x250_FR_psd_Asset_6_V7_3_jusqu_aux_habitudes__de_d_penses_des_clients__0_Layer0_0_MEMBER_21_FILL">
<path fill="#D82C26" stroke="none" d="
M 18.6 4.4
L 19 4.4 20.05 3.15 19.45 3.15 18.6 4.4
M 20.85 7.05
Q 20.85 6.55 20.6 6.05 20.35 5.55 19.95 5.35 19.6 5.1 18.95 5.1 18.45 5.1 17.95 5.35 17.45 5.7 17.25 6.1 16.95 6.55 16.95 7.15 16.95 7.8 17.25 8.25 17.45 8.7 17.95 9.05 18.45 9.3 19 9.3 19.95 9.3 20.6 8.8
L 20.5 8.35 19.85 8.75
Q 19.5 8.9 19.05 8.9 18.6 8.9 18.25 8.65 17.85 8.4 17.65 8.1 17.45 7.6 17.45 7.25
L 20.8 7.25 20.85 7.05
M 18.15 5.7
Q 18.5 5.5 18.95 5.5 19.6 5.5 19.95 5.85 20.35 6.35 20.35 6.9
L 17.45 6.9
Q 17.45 6.75 17.65 6.25 17.8 5.95 18.15 5.7 Z"/>
</g>

<g id="BDM_300x250_FR_psd_Asset_6_V7_3_jusqu_aux_habitudes__de_d_penses_des_clients__0_Layer0_0_MEMBER_22_FILL">
<path fill="#D82C26" stroke="none" d="
M 22.35 6.1
L 22.3 6.1 22.3 5.2 21.8 5.2 21.8 11.2 22.3 11.2 22.3 8.35 22.35 8.35
Q 22.55 8.75 23 9.05 23.5 9.3 23.95 9.3 24.55 9.3 25 9 25.4 8.8 25.7 8.25 25.95 7.75 25.95 7.2 25.95 6.7 25.7 6.1 25.35 5.6 25 5.35 24.5 5.1 23.95 5.1 23.5 5.1 23 5.35 22.55 5.65 22.35 6.1
M 23.05 5.75
Q 23.45 5.5 23.9 5.5 24.3 5.5 24.7 5.75 25 5.95 25.25 6.35 25.45 6.85 25.45 7.2 25.45 7.55 25.25 8.05 25 8.45 24.7 8.65 24.35 8.85 23.9 8.85 23.4 8.85 23.05 8.65 22.7 8.4 22.5 8.05 22.3 7.7 22.3 7.2 22.3 6.7 22.5 6.35 22.7 6 23.05 5.75 Z"/>
</g>

<g id="BDM_300x250_FR_psd_Asset_6_V7_3_jusqu_aux_habitudes__de_d_penses_des_clients__0_Layer0_0_MEMBER_23_FILL">
<path fill="#D82C26" stroke="none" d="
M 30.55 7.25
L 30.55 7.05
Q 30.55 6.45 30.35 6.05 30.1 5.55 29.7 5.35 29.35 5.1 28.7 5.1 28.2 5.1 27.7 5.35 27.25 5.65 26.95 6.1 26.7 6.6 26.7 7.15 26.7 7.75 26.95 8.25 27.25 8.75 27.7 9.05 28.2 9.3 28.75 9.3 29.7 9.3 30.35 8.8
L 30.25 8.35 29.6 8.75
Q 29.25 8.9 28.8 8.9 28.35 8.9 27.95 8.65 27.55 8.35 27.4 8.1 27.2 7.75 27.2 7.25
L 30.55 7.25
M 28.7 5.5
Q 29.35 5.5 29.7 5.85 30.1 6.35 30.1 6.9
L 27.2 6.9
Q 27.2 6.75 27.4 6.25 27.55 5.95 27.9 5.7 28.15 5.5 28.7 5.5 Z"/>
</g>

<g id="BDM_300x250_FR_psd_Asset_6_V7_3_jusqu_aux_habitudes__de_d_penses_des_clients__0_Layer0_0_MEMBER_24_FILL">
<path fill="#D82C26" stroke="none" d="
M 32 5.2
L 31.55 5.2 31.55 9.2 32.05 9.2 32.05 7.15
Q 32.05 6.75 32.25 6.25 32.4 5.9 32.75 5.7 33.15 5.5 33.4 5.5 33.95 5.5 34.25 5.9 34.45 6.25 34.45 6.9
L 34.45 9.2 34.95 9.2 34.95 6.75
Q 34.95 6.05 34.6 5.55 34.25 5.1 33.5 5.1 33.05 5.1 32.65 5.35 32.35 5.55 32.05 6.05
L 32 5.2 Z"/>
</g>

<g id="BDM_300x250_FR_psd_Asset_6_V7_3_jusqu_aux_habitudes__de_d_penses_des_clients__0_Layer0_0_MEMBER_25_FILL">
<path fill="#D82C26" stroke="none" d="
M 36.7 5.65
Q 36.95 5.5 37.3 5.5 37.7 5.5 37.85 5.6
L 38.35 5.85 38.55 5.5 38 5.2 37.3 5.1 36.65 5.2
Q 36.35 5.35 36.15 5.6 35.95 5.9 35.95 6.2 35.95 6.65 36.25 6.85 36.45 7.05 37.1 7.3 37.4 7.4 37.95 7.65 38.2 7.9 38.2 8.15 38.2 8.45 37.95 8.7 37.7 8.9 37.3 8.9 36.5 8.9 36 8.4
L 35.9 8.85
Q 36.15 9.1 36.5 9.15 36.9 9.3 37.3 9.3
L 38 9.15
Q 38.3 9 38.5 8.75 38.65 8.55 38.65 8.15 38.65 7.7 38.35 7.45 38.1 7.2 37.45 6.95 36.8 6.75 36.65 6.6 36.45 6.45 36.45 6.15 36.45 5.8 36.7 5.65 Z"/>
</g>

<g id="BDM_300x250_FR_psd_Asset_6_V7_3_jusqu_aux_habitudes__de_d_penses_des_clients__0_Layer0_0_MEMBER_26_FILL">
<path fill="#D82C26" stroke="none" d="
M 43 6.05
Q 42.75 5.55 42.35 5.35 42 5.1 41.35 5.1 40.85 5.1 40.35 5.35 39.9 5.65 39.6 6.1 39.35 6.6 39.35 7.15 39.35 7.75 39.6 8.25 39.9 8.75 40.35 9.05 40.85 9.3 41.4 9.3 42.35 9.3 43 8.8
L 42.9 8.35 42.25 8.75
Q 41.9 8.9 41.45 8.9 41 8.9 40.6 8.65 40.2 8.35 40.05 8.1 39.85 7.75 39.85 7.25
L 43.2 7.25 43.2 7.05
Q 43.2 6.45 43 6.05
M 41.35 5.5
Q 42 5.5 42.35 5.85 42.75 6.35 42.75 6.9
L 39.85 6.9
Q 39.85 6.75 40.05 6.25 40.2 5.95 40.55 5.7 40.8 5.5 41.35 5.5 Z"/>
</g>

<g id="BDM_300x250_FR_psd_Asset_6_V7_3_jusqu_aux_habitudes__de_d_penses_des_clients__0_Layer0_0_MEMBER_27_FILL">
<path fill="#D82C26" stroke="none" d="
M 46.55 5.5
L 46 5.2 45.3 5.1 44.65 5.2
Q 44.35 5.35 44.15 5.6 44 5.85 44 6.2 44 6.65 44.25 6.85 44.4 7 45.1 7.3 45.4 7.4 45.95 7.65 46.2 7.9 46.2 8.15 46.2 8.45 45.95 8.7 45.7 8.9 45.3 8.9 44.5 8.9 44 8.4
L 43.9 8.85
Q 44.15 9.1 44.5 9.15 44.9 9.3 45.3 9.3 45.65 9.3 46 9.15 46.3 9 46.5 8.75 46.65 8.55 46.65 8.15 46.65 7.7 46.4 7.45 46.15 7.2 45.45 6.95 44.8 6.75 44.65 6.6 44.45 6.45 44.45 6.15 44.45 5.8 44.7 5.65 44.95 5.5 45.3 5.5 45.7 5.5 45.85 5.6
L 46.35 5.85 46.55 5.5 Z"/>
</g>

<g id="BDM_300x250_FR_psd_Asset_6_V7_3_jusqu_aux_habitudes__de_d_penses_des_clients__0_Layer0_0_MEMBER_28_FILL">
<path fill="#D82C26" stroke="none" d="
M 51.95 5.35
Q 51.45 5.1 51 5.1 50.45 5.1 49.95 5.35 49.55 5.6 49.25 6.15 49 6.65 49 7.2 49 7.75 49.25 8.25 49.55 8.8 49.95 9 50.4 9.3 51 9.3 51.45 9.3 51.95 9.05 52.4 8.75 52.65 8.3
L 52.7 9.2 53.15 9.2 53.1 2.65 52.65 2.75 52.65 6.05 52.6 6.05
Q 52.35 5.55 51.95 5.35
M 51.05 5.5
Q 51.5 5.5 51.9 5.75 52.25 6 52.45 6.35 52.65 6.7 52.65 7.2 52.65 7.7 52.45 8.05 52.25 8.4 51.9 8.65 51.55 8.85 51.05 8.85 50.6 8.85 50.25 8.65 49.95 8.45 49.7 8.05 49.5 7.7 49.5 7.2 49.5 6.7 49.7 6.35 49.95 5.95 50.25 5.75 50.65 5.5 51.05 5.5 Z"/>
</g>

<g id="BDM_300x250_FR_psd_Asset_6_V7_3_jusqu_aux_habitudes__de_d_penses_des_clients__0_Layer0_0_MEMBER_29_FILL">
<path fill="#D82C26" stroke="none" d="
M 57.1 5.35
Q 56.8 5.1 56.1 5.1 55.6 5.1 55.1 5.35 54.6 5.7 54.4 6.1 54.15 6.5 54.15 7.15 54.15 7.9 54.4 8.25 54.6 8.7 55.1 9.05 55.7 9.3 56.15 9.3 57.1 9.3 57.75 8.8
L 57.65 8.35
Q 57.4 8.6 57.05 8.75 56.6 8.9 56.2 8.9 55.8 8.9 55.4 8.65 54.95 8.4 54.85 8.1 54.7 7.85 54.6 7.25
L 58 7.25 58 7.05
Q 58 6.55 57.75 6.05 57.5 5.55 57.1 5.35
M 56.1 5.5
Q 56.75 5.5 57.1 5.85 57.5 6.35 57.5 6.9
L 54.65 6.9 54.8 6.25 55.3 5.7
Q 55.65 5.5 56.1 5.5 Z"/>
</g>

<g id="BDM_300x250_FR_psd_Asset_6_V7_3_jusqu_aux_habitudes__de_d_penses_des_clients__0_Layer0_0_MEMBER_30_FILL">
<path fill="#D82C26" stroke="none" d="
M 61.35 5.5
L 60.8 5.2 60.05 5.1 59.45 5.2
Q 59.05 5.4 58.95 5.6 58.75 5.8 58.75 6.2 58.75 6.65 59.05 6.85 59.2 7.05 59.9 7.3
L 60.7 7.65
Q 60.95 7.85 60.95 8.15 60.95 8.5 60.7 8.7 60.5 8.9 60.1 8.9 59.3 8.9 58.75 8.4
L 58.7 8.85
Q 58.95 9.1 59.3 9.15 59.7 9.3 60.1 9.3 60.45 9.3 60.75 9.15 61.15 8.95 61.25 8.75 61.45 8.55 61.45 8.15 61.45 7.7 61.15 7.45 60.9 7.2 60.25 6.95 59.65 6.8 59.45 6.6 59.2 6.45 59.2 6.15 59.2 5.8 59.45 5.65 59.75 5.5 60.1 5.5 60.45 5.5 60.65 5.6 60.9 5.65 61.1 5.85
L 61.35 5.5 Z"/>
</g>

<g id="BDM_300x250_FR_psd_Asset_6_V7_3_jusqu_aux_habitudes__de_d_penses_des_clients__0_Layer0_0_MEMBER_31_FILL">
<path fill="#D82C26" stroke="none" d="
M 66.65 5.2
L 65.85 5.1
Q 65.3 5.1 64.8 5.35 64.35 5.65 64.05 6.1 63.8 6.7 63.8 7.2 63.8 7.7 64.05 8.3 64.35 8.75 64.8 9.05 65.3 9.3 65.85 9.3 66.3 9.3 66.6 9.15 67 9 67.2 8.8
L 67.15 8.4 66.6 8.75
Q 66.4 8.85 65.9 8.85 65.4 8.85 65.05 8.65 64.75 8.45 64.5 8.05 64.3 7.7 64.3 7.2 64.3 6.7 64.5 6.35 64.75 5.95 65.05 5.75 65.45 5.5 65.9 5.5
L 66.5 5.6
Q 66.9 5.8 67 5.95
L 67.2 5.55 66.65 5.2 Z"/>
</g>

<g id="BDM_300x250_FR_psd_Asset_6_V7_3_jusqu_aux_habitudes__de_d_penses_des_clients__0_Layer0_0_MEMBER_32_FILL">
<path fill="#D82C26" stroke="none" d="
M 68.2 8.95
Q 68.35 9.2 68.65 9.25
L 68.9 8.85
Q 68.7 8.8 68.6 8.6 68.5 8.4 68.5 8.2
L 68.5 2.7 68 2.8 68 8.3
Q 68 8.55 68.2 8.95 Z"/>
</g>

<g id="BDM_300x250_FR_psd_Asset_6_V7_3_jusqu_aux_habitudes__de_d_penses_des_clients__0_Layer0_0_MEMBER_33_FILL">
<path fill="#D82C26" stroke="none" d="
M 70.35 5.2
L 69.85 5.2 69.85 9.2 70.35 9.2 70.35 5.2
M 70.1 4
L 70.35 3.9 70.45 3.6 70.35 3.35 70.1 3.25 69.85 3.35
Q 69.75 3.45 69.75 3.6 69.75 3.8 69.85 3.9
L 70.1 4 Z"/>
</g>

<g id="BDM_300x250_FR_psd_Asset_6_V7_3_jusqu_aux_habitudes__de_d_penses_des_clients__0_Layer0_0_MEMBER_34_FILL">
<path fill="#D82C26" stroke="none" d="
M 72.3 5.35
Q 71.95 5.6 71.6 6.1 71.35 6.6 71.35 7.15 71.35 7.75 71.6 8.25 71.9 8.75 72.35 9.05 72.85 9.3 73.4 9.3 74.4 9.3 74.95 8.8
L 74.9 8.35 74.25 8.75
Q 73.9 8.9 73.45 8.9 73 8.9 72.6 8.65 72.25 8.45 72.05 8.1 71.85 7.75 71.85 7.25
L 75.2 7.25 75.2 7.05
Q 75.2 6.45 75 6.05 74.8 5.6 74.35 5.35 74 5.1 73.3 5.1 72.8 5.1 72.3 5.35
M 73.3 5.5
Q 74 5.5 74.35 5.85 74.7 6.25 74.75 6.9
L 71.85 6.9
Q 71.85 6.6 72.05 6.25 72.25 5.9 72.55 5.7 72.8 5.5 73.3 5.5 Z"/>
</g>

<g id="BDM_300x250_FR_psd_Asset_6_V7_3_jusqu_aux_habitudes__de_d_penses_des_clients__0_Layer0_0_MEMBER_35_FILL">
<path fill="#D82C26" stroke="none" d="
M 76.65 5.2
L 76.2 5.2 76.2 9.2 76.7 9.2 76.7 7.15
Q 76.7 6.6 76.9 6.25 77 5.95 77.35 5.7 77.75 5.5 78.05 5.5 78.6 5.5 78.85 5.9 79.1 6.2 79.1 6.9
L 79.1 9.2 79.6 9.2 79.6 6.75
Q 79.6 6.05 79.25 5.55 78.9 5.1 78.15 5.1 77.75 5.1 77.25 5.35 76.85 5.65 76.7 6.05
L 76.65 5.2 Z"/>
</g>

<g id="BDM_300x250_FR_psd_Asset_6_V7_3_jusqu_aux_habitudes__de_d_penses_des_clients__0_Layer0_0_MEMBER_36_FILL">
<path fill="#D82C26" stroke="none" d="
M 81.4 5.2
L 81.4 4.05 80.9 4.25 80.9 5.2 80.3 5.2 80.2 5.6 80.95 5.6 80.95 8.2
Q 80.95 8.75 81.2 9 81.45 9.25 81.85 9.25
L 82.3 9.2 82.7 9.05 82.65 8.7 82 8.85
Q 81.75 8.85 81.6 8.7 81.4 8.4 81.4 8.15
L 81.4 5.6 82.45 5.6 82.55 5.2 81.4 5.2 Z"/>
</g>

<g id="BDM_300x250_FR_psd_Asset_6_V7_3_jusqu_aux_habitudes__de_d_penses_des_clients__0_Layer0_0_MEMBER_37_FILL">
<path fill="#D82C26" stroke="none" d="
M 84 5.2
Q 83.65 5.35 83.55 5.6 83.35 5.8 83.35 6.2 83.35 6.6 83.6 6.85 83.75 7 84.45 7.3 84.95 7.45 85.3 7.65 85.55 7.9 85.55 8.15 85.55 8.45 85.3 8.7 85.05 8.9 84.65 8.9 83.85 8.9 83.35 8.4
L 83.25 8.85
Q 83.5 9.1 83.85 9.15 84.3 9.3 84.7 9.3 85.05 9.3 85.35 9.15 85.65 9 85.85 8.75 86.05 8.45 86.05 8.15 86.05 7.7 85.75 7.45 85.5 7.2 84.8 6.95 84.25 6.8 84.05 6.6 83.8 6.45 83.8 6.15 83.8 5.8 84.05 5.65 84.3 5.5 84.65 5.5 85.05 5.5 85.25 5.6
L 85.7 5.85 85.9 5.5 85.35 5.2 84.65 5.1 84 5.2 Z"/>
</g>

<g id="BDM_300x250_FR_psd_Asset_6_V7_3_jusqu_aux_habitudes__de_d_penses_des_clients__0_Layer0_0_MEMBER_38_FILL">
<path fill="#D82C26" stroke="none" d="
M 87.1 9.15
L 87.35 9.25
Q 87.55 9.25 87.6 9.1 87.75 9.05 87.75 8.85 87.75 8.7 87.6 8.6 87.55 8.45 87.35 8.45 87.2 8.45 87.1 8.6 87 8.65 87 8.85 87 9.05 87.1 9.15 Z"/>
</g>
</defs>

<g transform="matrix( 1, 0, 0, 1, -286,-104) ">
<g transform="matrix( 1, 0, 0, 1, 281,121) ">
<g transform="matrix( 1, 0, 0, 1, 27,4) ">
<g transform="matrix( 2.815704345703125, 0, 0, 2.832611083984375, 0.15,18.6) ">
<use xlink:href="#BDM_300x250_FR_psd_Asset_6_V7_3_jusqu_aux_habitudes__de_d_penses_des_clients__0_Layer0_0_MEMBER_0_FILL"/>
</g>

<g transform="matrix( 2.815704345703125, 0, 0, 2.832611083984375, 0.15,18.6) ">
<use xlink:href="#BDM_300x250_FR_psd_Asset_6_V7_3_jusqu_aux_habitudes__de_d_penses_des_clients__0_Layer0_0_MEMBER_1_FILL"/>
</g>

<g transform="matrix( 2.815704345703125, 0, 0, 2.832611083984375, 0.15,18.6) ">
<use xlink:href="#BDM_300x250_FR_psd_Asset_6_V7_3_jusqu_aux_habitudes__de_d_penses_des_clients__0_Layer0_0_MEMBER_2_FILL"/>
</g>

<g transform="matrix( 2.815704345703125, 0, 0, 2.832611083984375, 0.15,18.6) ">
<use xlink:href="#BDM_300x250_FR_psd_Asset_6_V7_3_jusqu_aux_habitudes__de_d_penses_des_clients__0_Layer0_0_MEMBER_3_FILL"/>
</g>

<g transform="matrix( 2.815704345703125, 0, 0, 2.832611083984375, 0.15,18.6) ">
<use xlink:href="#BDM_300x250_FR_psd_Asset_6_V7_3_jusqu_aux_habitudes__de_d_penses_des_clients__0_Layer0_0_MEMBER_4_FILL"/>
</g>

<g transform="matrix( 2.815704345703125, 0, 0, 2.832611083984375, 0.15,18.6) ">
<use xlink:href="#BDM_300x250_FR_psd_Asset_6_V7_3_jusqu_aux_habitudes__de_d_penses_des_clients__0_Layer0_0_MEMBER_5_FILL"/>
</g>

<g transform="matrix( 2.815704345703125, 0, 0, 2.832611083984375, 0.15,18.6) ">
<use xlink:href="#BDM_300x250_FR_psd_Asset_6_V7_3_jusqu_aux_habitudes__de_d_penses_des_clients__0_Layer0_0_MEMBER_6_FILL"/>
</g>

<g transform="matrix( 2.815704345703125, 0, 0, 2.832611083984375, 0.15,18.6) ">
<use xlink:href="#BDM_300x250_FR_psd_Asset_6_V7_3_jusqu_aux_habitudes__de_d_penses_des_clients__0_Layer0_0_MEMBER_7_FILL"/>
</g>

<g transform="matrix( 2.815704345703125, 0, 0, 2.832611083984375, 0.15,18.6) ">
<use xlink:href="#BDM_300x250_FR_psd_Asset_6_V7_3_jusqu_aux_habitudes__de_d_penses_des_clients__0_Layer0_0_MEMBER_8_FILL"/>
</g>

<g transform="matrix( 2.815704345703125, 0, 0, 2.832611083984375, 0.15,18.6) ">
<use xlink:href="#BDM_300x250_FR_psd_Asset_6_V7_3_jusqu_aux_habitudes__de_d_penses_des_clients__0_Layer0_0_MEMBER_9_FILL"/>
</g>

<g transform="matrix( 2.815704345703125, 0, 0, 2.832611083984375, 0.15,18.6) ">
<use xlink:href="#BDM_300x250_FR_psd_Asset_6_V7_3_jusqu_aux_habitudes__de_d_penses_des_clients__0_Layer0_0_MEMBER_10_FILL"/>
</g>

<g transform="matrix( 2.815704345703125, 0, 0, 2.832611083984375, 0.15,18.6) ">
<use xlink:href="#BDM_300x250_FR_psd_Asset_6_V7_3_jusqu_aux_habitudes__de_d_penses_des_clients__0_Layer0_0_MEMBER_11_FILL"/>
</g>

<g transform="matrix( 2.815704345703125, 0, 0, 2.832611083984375, 0.15,18.6) ">
<use xlink:href="#BDM_300x250_FR_psd_Asset_6_V7_3_jusqu_aux_habitudes__de_d_penses_des_clients__0_Layer0_0_MEMBER_12_FILL"/>
</g>

<g transform="matrix( 2.815704345703125, 0, 0, 2.832611083984375, 0.15,18.6) ">
<use xlink:href="#BDM_300x250_FR_psd_Asset_6_V7_3_jusqu_aux_habitudes__de_d_penses_des_clients__0_Layer0_0_MEMBER_13_FILL"/>
</g>

<g transform="matrix( 2.815704345703125, 0, 0, 2.832611083984375, 0.15,18.6) ">
<use xlink:href="#BDM_300x250_FR_psd_Asset_6_V7_3_jusqu_aux_habitudes__de_d_penses_des_clients__0_Layer0_0_MEMBER_14_FILL"/>
</g>

<g transform="matrix( 2.815704345703125, 0, 0, 2.832611083984375, 0.15,18.6) ">
<use xlink:href="#BDM_300x250_FR_psd_Asset_6_V7_3_jusqu_aux_habitudes__de_d_penses_des_clients__0_Layer0_0_MEMBER_15_FILL"/>
</g>

<g transform="matrix( 2.815704345703125, 0, 0, 2.832611083984375, 0.15,18.6) ">
<use xlink:href="#BDM_300x250_FR_psd_Asset_6_V7_3_jusqu_aux_habitudes__de_d_penses_des_clients__0_Layer0_0_MEMBER_16_FILL"/>
</g>

<g transform="matrix( 2.815704345703125, 0, 0, 2.832611083984375, 0.15,18.6) ">
<use xlink:href="#BDM_300x250_FR_psd_Asset_6_V7_3_jusqu_aux_habitudes__de_d_penses_des_clients__0_Layer0_0_MEMBER_17_FILL"/>
</g>

<g transform="matrix( 2.815704345703125, 0, 0, 2.832611083984375, 0.15,18.6) ">
<use xlink:href="#BDM_300x250_FR_psd_Asset_6_V7_3_jusqu_aux_habitudes__de_d_penses_des_clients__0_Layer0_0_MEMBER_18_FILL"/>
</g>

<g transform="matrix( 2.815704345703125, 0, 0, 2.832611083984375, 0.15,18.6) ">
<use xlink:href="#BDM_300x250_FR_psd_Asset_6_V7_3_jusqu_aux_habitudes__de_d_penses_des_clients__0_Layer0_0_MEMBER_19_FILL"/>
</g>

<g transform="matrix( 2.815704345703125, 0, 0, 2.832611083984375, 0.15,18.6) ">
<use xlink:href="#BDM_300x250_FR_psd_Asset_6_V7_3_jusqu_aux_habitudes__de_d_penses_des_clients__0_Layer0_0_MEMBER_20_FILL"/>
</g>

<g transform="matrix( 2.815704345703125, 0, 0, 2.832611083984375, 0.15,18.6) ">
<use xlink:href="#BDM_300x250_FR_psd_Asset_6_V7_3_jusqu_aux_habitudes__de_d_penses_des_clients__0_Layer0_0_MEMBER_21_FILL"/>
</g>

<g transform="matrix( 2.815704345703125, 0, 0, 2.832611083984375, 0.15,18.6) ">
<use xlink:href="#BDM_300x250_FR_psd_Asset_6_V7_3_jusqu_aux_habitudes__de_d_penses_des_clients__0_Layer0_0_MEMBER_22_FILL"/>
</g>

<g transform="matrix( 2.815704345703125, 0, 0, 2.832611083984375, 0.15,18.6) ">
<use xlink:href="#BDM_300x250_FR_psd_Asset_6_V7_3_jusqu_aux_habitudes__de_d_penses_des_clients__0_Layer0_0_MEMBER_23_FILL"/>
</g>

<g transform="matrix( 2.815704345703125, 0, 0, 2.832611083984375, 0.15,18.6) ">
<use xlink:href="#BDM_300x250_FR_psd_Asset_6_V7_3_jusqu_aux_habitudes__de_d_penses_des_clients__0_Layer0_0_MEMBER_24_FILL"/>
</g>

<g transform="matrix( 2.815704345703125, 0, 0, 2.832611083984375, 0.15,18.6) ">
<use xlink:href="#BDM_300x250_FR_psd_Asset_6_V7_3_jusqu_aux_habitudes__de_d_penses_des_clients__0_Layer0_0_MEMBER_25_FILL"/>
</g>

<g transform="matrix( 2.815704345703125, 0, 0, 2.832611083984375, 0.15,18.6) ">
<use xlink:href="#BDM_300x250_FR_psd_Asset_6_V7_3_jusqu_aux_habitudes__de_d_penses_des_clients__0_Layer0_0_MEMBER_26_FILL"/>
</g>

<g transform="matrix( 2.815704345703125, 0, 0, 2.832611083984375, 0.15,18.6) ">
<use xlink:href="#BDM_300x250_FR_psd_Asset_6_V7_3_jusqu_aux_habitudes__de_d_penses_des_clients__0_Layer0_0_MEMBER_27_FILL"/>
</g>

<g transform="matrix( 2.815704345703125, 0, 0, 2.832611083984375, 0.15,18.6) ">
<use xlink:href="#BDM_300x250_FR_psd_Asset_6_V7_3_jusqu_aux_habitudes__de_d_penses_des_clients__0_Layer0_0_MEMBER_28_FILL"/>
</g>

<g transform="matrix( 2.815704345703125, 0, 0, 2.832611083984375, 0.15,18.6) ">
<use xlink:href="#BDM_300x250_FR_psd_Asset_6_V7_3_jusqu_aux_habitudes__de_d_penses_des_clients__0_Layer0_0_MEMBER_29_FILL"/>
</g>

<g transform="matrix( 2.815704345703125, 0, 0, 2.832611083984375, 0.15,18.6) ">
<use xlink:href="#BDM_300x250_FR_psd_Asset_6_V7_3_jusqu_aux_habitudes__de_d_penses_des_clients__0_Layer0_0_MEMBER_30_FILL"/>
</g>

<g transform="matrix( 2.815704345703125, 0, 0, 2.832611083984375, 0.15,18.6) ">
<use xlink:href="#BDM_300x250_FR_psd_Asset_6_V7_3_jusqu_aux_habitudes__de_d_penses_des_clients__0_Layer0_0_MEMBER_31_FILL"/>
</g>

<g transform="matrix( 2.815704345703125, 0, 0, 2.832611083984375, 0.15,18.6) ">
<use xlink:href="#BDM_300x250_FR_psd_Asset_6_V7_3_jusqu_aux_habitudes__de_d_penses_des_clients__0_Layer0_0_MEMBER_32_FILL"/>
</g>

<g transform="matrix( 2.815704345703125, 0, 0, 2.832611083984375, 0.15,18.6) ">
<use xlink:href="#BDM_300x250_FR_psd_Asset_6_V7_3_jusqu_aux_habitudes__de_d_penses_des_clients__0_Layer0_0_MEMBER_33_FILL"/>
</g>

<g transform="matrix( 2.815704345703125, 0, 0, 2.832611083984375, 0.15,18.6) ">
<use xlink:href="#BDM_300x250_FR_psd_Asset_6_V7_3_jusqu_aux_habitudes__de_d_penses_des_clients__0_Layer0_0_MEMBER_34_FILL"/>
</g>

<g transform="matrix( 2.815704345703125, 0, 0, 2.832611083984375, 0.15,18.6) ">
<use xlink:href="#BDM_300x250_FR_psd_Asset_6_V7_3_jusqu_aux_habitudes__de_d_penses_des_clients__0_Layer0_0_MEMBER_35_FILL"/>
</g>

<g transform="matrix( 2.815704345703125, 0, 0, 2.832611083984375, 0.15,18.6) ">
<use xlink:href="#BDM_300x250_FR_psd_Asset_6_V7_3_jusqu_aux_habitudes__de_d_penses_des_clients__0_Layer0_0_MEMBER_36_FILL"/>
</g>

<g transform="matrix( 2.815704345703125, 0, 0, 2.832611083984375, 0.15,18.6) ">
<use xlink:href="#BDM_300x250_FR_psd_Asset_6_V7_3_jusqu_aux_habitudes__de_d_penses_des_clients__0_Layer0_0_MEMBER_37_FILL"/>
</g>

<g transform="matrix( 2.815704345703125, 0, 0, 2.832611083984375, 0.15,18.6) ">
<use xlink:href="#BDM_300x250_FR_psd_Asset_6_V7_3_jusqu_aux_habitudes__de_d_penses_des_clients__0_Layer0_0_MEMBER_38_FILL"/>
</g>
</g>
</g>
</g>
</svg>
