
<svg xmlns="http://www.w3.org/2000/svg" version="1.1" xmlns:xlink="http://www.w3.org/1999/xlink" preserveAspectRatio="none" x="0px" y="0px" width="300px" height="250px" viewBox="0 0 300 250">
<defs>
<g id="IT_300x250_FR_psd_Asset_Research_Phase_IT_Decisions_Makers__V9_1_copy_2_Vous_cherchez____valuer_votre__r_seau_pour_une_meilleure__solut_0_Layer0_0_MEMBER_0_FILL">
<path fill="#D82C26" stroke="none" d="
M 0.55 -5.25
L 0.05 -5.25 2.05 0 2.55 0 4.55 -5.25 4.05 -5.25 2.3 -0.55 0.55 -5.25 Z"/>
</g>

<g id="IT_300x250_FR_psd_Asset_Research_Phase_IT_Decisions_Makers__V9_1_copy_2_Vous_cherchez____valuer_votre__r_seau_pour_une_meilleure__solut_0_Layer0_0_MEMBER_1_FILL">
<path fill="#D82C26" stroke="none" d="
M 4.8 -2.7
Q 4.55 -2.3 4.55 -1.75 4.55 -1.1 4.8 -0.8 5 -0.35 5.45 -0.15 5.85 0.1 6.4 0.1 6.85 0.1 7.35 -0.15 7.8 -0.45 8 -0.8 8.25 -1.2 8.25 -1.75 8.25 -2.2 8 -2.7 7.75 -3.1 7.35 -3.35 6.85 -3.6 6.4 -3.6 5.85 -3.6 5.45 -3.35 5.1 -3.15 4.8 -2.7
M 7.15 -0.45
Q 6.65 -0.25 6.4 -0.25 6.05 -0.25 5.65 -0.45 5.35 -0.65 5.15 -1
L 5 -1.75 5.15 -2.5
Q 5.35 -2.85 5.65 -3 5.9 -3.2 6.4 -3.2 6.8 -3.2 7.15 -3 7.35 -2.9 7.65 -2.5
L 7.8 -1.75 7.65 -1 7.15 -0.45 Z"/>
</g>

<g id="IT_300x250_FR_psd_Asset_Research_Phase_IT_Decisions_Makers__V9_1_copy_2_Vous_cherchez____valuer_votre__r_seau_pour_une_meilleure__solut_0_Layer0_0_MEMBER_2_FILL">
<path fill="#D82C26" stroke="none" d="
M 9.1 -1.35
Q 9.1 -0.75 9.4 -0.3 9.7 0.1 10.35 0.1 10.75 0.1 11.1 -0.15 11.45 -0.35 11.6 -0.75
L 11.7 0 12.1 0 12.05 -0.4 12.05 -3.45 11.6 -3.45 11.6 -1.75
Q 11.6 -1.25 11.45 -0.95 11.3 -0.55 11.05 -0.45 10.85 -0.25 10.45 -0.25 9.9 -0.25 9.75 -0.6 9.5 -1 9.5 -1.45
L 9.5 -3.45 9.1 -3.45 9.1 -1.35 Z"/>
</g>

<g id="IT_300x250_FR_psd_Asset_Research_Phase_IT_Decisions_Makers__V9_1_copy_2_Vous_cherchez____valuer_votre__r_seau_pour_une_meilleure__solut_0_Layer0_0_MEMBER_3_FILL">
<path fill="#D82C26" stroke="none" d="
M 13.6 -3.45
Q 13.3 -3.35 13.15 -3.15 13 -2.9 13 -2.6 13 -2.2 13.25 -2
L 13.95 -1.65
Q 14.5 -1.5 14.7 -1.3 14.9 -1.15 14.9 -0.9 14.9 -0.6 14.7 -0.4 14.5 -0.25 14.15 -0.25 13.5 -0.25 13 -0.65
L 12.9 -0.3 13.45 0 14.15 0.1 14.75 0 15.15 -0.35
Q 15.35 -0.55 15.35 -0.9 15.35 -1.2 15.1 -1.55 14.9 -1.7 14.25 -1.95 13.75 -2.1 13.6 -2.25 13.4 -2.4 13.4 -2.65 13.4 -2.95 13.6 -3.1 13.85 -3.25 14.15 -3.25
L 14.65 -3.15 15.05 -2.9 15.25 -3.2 14.75 -3.45
Q 14.45 -3.6 14.15 -3.6 13.85 -3.6 13.6 -3.45 Z"/>
</g>

<g id="IT_300x250_FR_psd_Asset_Research_Phase_IT_Decisions_Makers__V9_1_copy_2_Vous_cherchez____valuer_votre__r_seau_pour_une_meilleure__solut_0_Layer0_0_MEMBER_4_FILL">
<path fill="#D82C26" stroke="none" d="
M 19.15 -3.6
Q 18.7 -3.6 18.2 -3.35 17.85 -3.15 17.55 -2.7 17.3 -2.2 17.3 -1.75 17.3 -1.2 17.55 -0.8 17.75 -0.35 18.2 -0.15 18.5 0.1 19.1 0.1
L 19.8 0 20.3 -0.3 20.25 -0.7
Q 20 -0.45 19.75 -0.4 19.55 -0.25 19.15 -0.25 18.9 -0.25 18.4 -0.45 18.1 -0.65 17.95 -1 17.75 -1.25 17.75 -1.75 17.75 -2.2 17.95 -2.45 18.1 -2.85 18.4 -3 18.75 -3.2 19.15 -3.2 19.5 -3.2 19.7 -3.1
L 20.15 -2.85 20.3 -3.15
Q 20.15 -3.35 19.8 -3.45 19.5 -3.6 19.15 -3.6 Z"/>
</g>

<g id="IT_300x250_FR_psd_Asset_Research_Phase_IT_Decisions_Makers__V9_1_copy_2_Vous_cherchez____valuer_votre__r_seau_pour_une_meilleure__solut_0_Layer0_0_MEMBER_5_FILL">
<path fill="#D82C26" stroke="none" d="
M 21.45 -5.65
L 21 -5.6 21 0 21.45 0 21.45 -1.7
Q 21.45 -2.2 21.6 -2.5 21.7 -2.75 22 -3.05 22.3 -3.2 22.6 -3.2 23.15 -3.2 23.35 -2.85 23.55 -2.6 23.55 -2
L 23.55 0 24 0 24 -2.1
Q 24 -2.75 23.7 -3.15 23.35 -3.55 22.7 -3.55 22.3 -3.55 21.95 -3.35 21.6 -3.15 21.45 -2.75
L 21.45 -5.65 Z"/>
</g>

<g id="IT_300x250_FR_psd_Asset_Research_Phase_IT_Decisions_Makers__V9_1_copy_2_Vous_cherchez____valuer_votre__r_seau_pour_une_meilleure__solut_0_Layer0_0_MEMBER_6_FILL">
<path fill="#D82C26" stroke="none" d="
M 24.85 -1.75
Q 24.85 -1.2 25.1 -0.8 25.3 -0.4 25.7 -0.15 26.2 0.1 26.65 0.1 27.5 0.1 28 -0.35
L 27.95 -0.7
Q 27.55 -0.45 27.4 -0.4
L 26.65 -0.25
Q 26.2 -0.25 25.95 -0.45 25.75 -0.55 25.45 -0.95
L 25.25 -1.7 28.2 -1.7 28.2 -1.85
Q 28.2 -2.3 28.05 -2.75 27.85 -3.1 27.45 -3.35 27.05 -3.6 26.55 -3.6 26.1 -3.6 25.7 -3.35 25.3 -3.1 25.1 -2.7 24.85 -2.2 24.85 -1.75
M 27.45 -2.9
Q 27.8 -2.55 27.8 -2
L 25.3 -2
Q 25.3 -2.25 25.45 -2.55 25.6 -2.8 25.9 -3.05 26.3 -3.25 26.55 -3.25 27.15 -3.25 27.45 -2.9 Z"/>
</g>

<g id="IT_300x250_FR_psd_Asset_Research_Phase_IT_Decisions_Makers__V9_1_copy_2_Vous_cherchez____valuer_votre__r_seau_pour_une_meilleure__solut_0_Layer0_0_MEMBER_7_FILL">
<path fill="#D82C26" stroke="none" d="
M 29.5 -3.45
L 29.05 -3.45 29.1 0 29.55 0 29.55 -1.75
Q 29.55 -2.35 29.8 -2.75 30.1 -3.2 30.5 -3.2
L 30.85 -3.15 30.9 -3.5 30.55 -3.55
Q 30.2 -3.55 29.95 -3.35 29.6 -3.1 29.55 -2.7
L 29.5 -2.7 29.5 -3.45 Z"/>
</g>

<g id="IT_300x250_FR_psd_Asset_Research_Phase_IT_Decisions_Makers__V9_1_copy_2_Vous_cherchez____valuer_votre__r_seau_pour_une_meilleure__solut_0_Layer0_0_MEMBER_8_FILL">
<path fill="#D82C26" stroke="none" d="
M 33.6 -3.45
L 32.95 -3.6
Q 32.4 -3.6 32 -3.35 31.65 -3.15 31.35 -2.7 31.1 -2.2 31.1 -1.75 31.1 -1.2 31.35 -0.8 31.55 -0.35 32 -0.15 32.3 0.1 32.9 0.1
L 33.6 0 34.1 -0.3 34.05 -0.7 33.55 -0.4
Q 33.25 -0.25 32.95 -0.25 32.7 -0.25 32.2 -0.45 31.9 -0.65 31.75 -1 31.55 -1.25 31.55 -1.75 31.55 -2.2 31.75 -2.45 31.9 -2.85 32.2 -3 32.45 -3.2 32.95 -3.2 33.3 -3.2 33.5 -3.1
L 33.95 -2.85 34.1 -3.15
Q 33.95 -3.35 33.6 -3.45 Z"/>
</g>

<g id="IT_300x250_FR_psd_Asset_Research_Phase_IT_Decisions_Makers__V9_1_copy_2_Vous_cherchez____valuer_votre__r_seau_pour_une_meilleure__solut_0_Layer0_0_MEMBER_9_FILL">
<path fill="#D82C26" stroke="none" d="
M 35.25 -5.65
L 34.8 -5.6 34.8 0 35.25 0 35.25 -1.7
Q 35.25 -2.2 35.4 -2.5 35.5 -2.75 35.8 -3.05 36.1 -3.2 36.4 -3.2 36.95 -3.2 37.15 -2.85 37.35 -2.45 37.35 -2
L 37.35 0 37.75 0 37.75 -2.1
Q 37.75 -2.75 37.45 -3.15 37.2 -3.55 36.5 -3.55 36 -3.55 35.75 -3.35 35.4 -3.15 35.25 -2.75
L 35.25 -5.65 Z"/>
</g>

<g id="IT_300x250_FR_psd_Asset_Research_Phase_IT_Decisions_Makers__V9_1_copy_2_Vous_cherchez____valuer_votre__r_seau_pour_une_meilleure__solut_0_Layer0_0_MEMBER_10_FILL">
<path fill="#D82C26" stroke="none" d="
M 40.35 -3.6
Q 39.9 -3.6 39.5 -3.35 39.05 -3.05 38.85 -2.7 38.65 -2.3 38.65 -1.75 38.65 -1.15 38.85 -0.8 39.15 -0.35 39.5 -0.15 40 0.1 40.4 0.1 41.2 0.1 41.8 -0.35
L 41.75 -0.7
Q 41.35 -0.45 41.15 -0.4 40.85 -0.25 40.45 -0.25 40 -0.25 39.75 -0.45 39.4 -0.6 39.25 -0.95 39.05 -1.45 39.05 -1.7
L 42 -1.7 42 -1.85
Q 42 -2.35 41.8 -2.75 41.65 -3.1 41.25 -3.35 40.85 -3.6 40.35 -3.6
M 39.25 -2.55
Q 39.4 -2.8 39.7 -3.05 40 -3.25 40.35 -3.25 40.95 -3.25 41.25 -2.9 41.6 -2.45 41.6 -2
L 39.05 -2 39.25 -2.55 Z"/>
</g>

<g id="IT_300x250_FR_psd_Asset_Research_Phase_IT_Decisions_Makers__V9_1_copy_2_Vous_cherchez____valuer_votre__r_seau_pour_une_meilleure__solut_0_Layer0_0_MEMBER_11_FILL">
<path fill="#D82C26" stroke="none" d="
M 44.65 -3.15
L 42.5 -0.35 42.5 0 45.25 0 45.3 -0.35 43.05 -0.35 45.15 -3.15 45.15 -3.45 42.65 -3.45 42.55 -3.15 44.65 -3.15 Z"/>
</g>

<g id="IT_300x250_FR_psd_Asset_Research_Phase_IT_Decisions_Makers__V9_1_copy_2_Vous_cherchez____valuer_votre__r_seau_pour_une_meilleure__solut_0_Layer0_0_MEMBER_12_FILL">
<path fill="#D82C26" stroke="none" d="
M 49.65 -3.25
Q 49.2 -3.6 48.65 -3.6
L 47.95 -3.45
Q 47.6 -3.35 47.4 -3.15
L 47.5 -2.8 48 -3.1
Q 48.3 -3.25 48.6 -3.25 49 -3.25 49.35 -3 49.6 -2.75 49.6 -2.3
L 49.6 -2.1 49.15 -2.1
Q 47.2 -2.1 47.2 -0.95 47.2 -0.45 47.5 -0.15 47.9 0.1 48.3 0.1 48.8 0.1 49.05 -0.1 49.5 -0.35 49.6 -0.65
L 49.6 -0.3 49.65 0 50.05 0 50 -2.25
Q 50 -2.9 49.65 -3.25
M 47.85 -0.4
Q 47.6 -0.5 47.6 -0.95 47.6 -1.8 49.25 -1.8
L 49.6 -1.8 49.6 -1.45
Q 49.6 -1.15 49.45 -0.85 49.25 -0.55 49.05 -0.4 48.75 -0.25 48.4 -0.25 48.1 -0.25 47.85 -0.4
M 49.15 -4.2
L 48.35 -5.25 47.85 -5.25 48.75 -4.2 49.15 -4.2 Z"/>
</g>

<g id="IT_300x250_FR_psd_Asset_Research_Phase_IT_Decisions_Makers__V9_1_copy_2_Vous_cherchez____valuer_votre__r_seau_pour_une_meilleure__solut_0_Layer0_0_MEMBER_13_FILL">
<path fill="#D82C26" stroke="none" d="
M 54.85 -3.35
Q 54.45 -3.6 53.95 -3.6 53.5 -3.6 53.1 -3.35 52.65 -3.15 52.45 -2.7 52.25 -2.3 52.25 -1.75 52.25 -1.15 52.45 -0.8 52.65 -0.45 53.1 -0.15 53.5 0.1 54 0.1 54.8 0.1 55.4 -0.35
L 55.35 -0.7
Q 54.95 -0.45 54.75 -0.4 54.45 -0.25 54.05 -0.25 53.6 -0.25 53.35 -0.45 53 -0.6 52.85 -0.95 52.65 -1.45 52.65 -1.7
L 55.6 -1.7 55.6 -1.85
Q 55.6 -2.35 55.4 -2.75 55.25 -3.1 54.85 -3.35
M 52.65 -2
L 52.85 -2.55
Q 53 -2.8 53.3 -3.05 53.6 -3.25 53.95 -3.25 54.55 -3.25 54.85 -2.9 55.2 -2.45 55.2 -2
L 52.65 -2
M 54.4 -5.25
L 53.65 -4.2 54 -4.2 54.9 -5.25 54.4 -5.25 Z"/>
</g>

<g id="IT_300x250_FR_psd_Asset_Research_Phase_IT_Decisions_Makers__V9_1_copy_2_Vous_cherchez____valuer_votre__r_seau_pour_une_meilleure__solut_0_Layer0_0_MEMBER_14_FILL">
<path fill="#D82C26" stroke="none" d="
M 56.35 -3.45
L 55.9 -3.45 57.25 0 57.75 0 59 -3.45 58.55 -3.45 57.5 -0.45 56.35 -3.45 Z"/>
</g>

<g id="IT_300x250_FR_psd_Asset_Research_Phase_IT_Decisions_Makers__V9_1_copy_2_Vous_cherchez____valuer_votre__r_seau_pour_une_meilleure__solut_0_Layer0_0_MEMBER_15_FILL">
<path fill="#D82C26" stroke="none" d="
M 59.4 -0.95
Q 59.4 -0.45 59.7 -0.15 60.05 0.1 60.5 0.1 61 0.1 61.25 -0.1 61.7 -0.35 61.8 -0.65
L 61.8 -0.3 61.85 0 62.25 0 62.2 -2.25
Q 62.2 -2.9 61.85 -3.25 61.4 -3.6 60.85 -3.6
L 60.15 -3.45 59.55 -3.15 59.7 -2.8 60.2 -3.1
Q 60.5 -3.25 60.8 -3.25 61.2 -3.25 61.55 -3 61.8 -2.75 61.8 -2.3
L 61.8 -2.1 61.35 -2.1
Q 59.4 -2.1 59.4 -0.95
M 60 -0.4
Q 59.8 -0.55 59.8 -0.95 59.8 -1.8 61.45 -1.8
L 61.8 -1.8 61.8 -1.45
Q 61.8 -1.15 61.65 -0.85
L 61.25 -0.4
Q 60.95 -0.25 60.55 -0.25 60.25 -0.25 60 -0.4 Z"/>
</g>

<g id="IT_300x250_FR_psd_Asset_Research_Phase_IT_Decisions_Makers__V9_1_copy_2_Vous_cherchez____valuer_votre__r_seau_pour_une_meilleure__solut_0_Layer0_0_MEMBER_16_FILL">
<path fill="#D82C26" stroke="none" d="
M 63.3 -0.75
Q 63.3 -0.4 63.45 -0.2
L 63.85 0.1 64.05 -0.3
Q 63.85 -0.35 63.8 -0.5
L 63.7 -0.85 63.7 -5.65 63.3 -5.55 63.3 -0.75 Z"/>
</g>

<g id="IT_300x250_FR_psd_Asset_Research_Phase_IT_Decisions_Makers__V9_1_copy_2_Vous_cherchez____valuer_votre__r_seau_pour_une_meilleure__solut_0_Layer0_0_MEMBER_17_FILL">
<path fill="#D82C26" stroke="none" d="
M 64.8 -1.35
Q 64.8 -0.7 65.15 -0.3 65.45 0.1 66.1 0.1 66.45 0.1 66.85 -0.15 67.2 -0.35 67.35 -0.75
L 67.4 0 67.85 0 67.8 -0.4 67.8 -3.45 67.35 -3.45 67.35 -1.75
Q 67.35 -1.25 67.2 -0.95 67.05 -0.65 66.8 -0.45 66.55 -0.25 66.2 -0.25 65.65 -0.25 65.45 -0.6 65.25 -1.1 65.25 -1.45
L 65.25 -3.45 64.8 -3.45 64.8 -1.35 Z"/>
</g>

<g id="IT_300x250_FR_psd_Asset_Research_Phase_IT_Decisions_Makers__V9_1_copy_2_Vous_cherchez____valuer_votre__r_seau_pour_une_meilleure__solut_0_Layer0_0_MEMBER_18_FILL">
<path fill="#D82C26" stroke="none" d="
M 70.4 -3.6
Q 70 -3.6 69.5 -3.35 69.1 -3.1 68.9 -2.7 68.7 -2.3 68.7 -1.75 68.7 -1.15 68.9 -0.8 69.1 -0.35 69.55 -0.15 69.95 0.1 70.45 0.1 71.25 0.1 71.85 -0.35
L 71.75 -0.7
Q 71.35 -0.45 71.2 -0.4 70.9 -0.25 70.5 -0.25 70.05 -0.25 69.8 -0.45 69.5 -0.55 69.3 -0.95 69.1 -1.3 69.1 -1.7
L 72.05 -1.7 72.05 -1.85
Q 72.05 -2.35 71.85 -2.75 71.7 -3.1 71.3 -3.35 70.9 -3.6 70.4 -3.6
M 69.25 -2.55
Q 69.4 -2.8 69.7 -3.05 70.1 -3.25 70.4 -3.25 70.95 -3.25 71.3 -2.9 71.55 -2.55 71.65 -2
L 69.1 -2
Q 69.1 -2.25 69.25 -2.55 Z"/>
</g>

<g id="IT_300x250_FR_psd_Asset_Research_Phase_IT_Decisions_Makers__V9_1_copy_2_Vous_cherchez____valuer_votre__r_seau_pour_une_meilleure__solut_0_Layer0_0_MEMBER_19_FILL">
<path fill="#D82C26" stroke="none" d="
M 74.35 -3.55
Q 74 -3.55 73.8 -3.35 73.5 -3.1 73.35 -2.7
L 73.3 -3.45 72.9 -3.45 72.95 0 73.35 0 73.35 -1.75
Q 73.35 -2.35 73.65 -2.75 73.9 -3.2 74.35 -3.2
L 74.65 -3.15 74.75 -3.5 74.35 -3.55 Z"/>
</g>

<g id="IT_300x250_FR_psd_Asset_Research_Phase_IT_Decisions_Makers__V9_1_copy_2_Vous_cherchez____valuer_votre__r_seau_pour_une_meilleure__solut_0_Layer0_0_MEMBER_20_FILL">
<path fill="#D82C26" stroke="none" d="
M 76.5 -3.45
L 76 -3.45 77.35 0 77.85 0 79.15 -3.45 78.7 -3.45 77.6 -0.45 76.5 -3.45 Z"/>
</g>

<g id="IT_300x250_FR_psd_Asset_Research_Phase_IT_Decisions_Makers__V9_1_copy_2_Vous_cherchez____valuer_votre__r_seau_pour_une_meilleure__solut_0_Layer0_0_MEMBER_21_FILL">
<path fill="#D82C26" stroke="none" d="
M 79.65 -0.8
Q 79.85 -0.45 80.3 -0.15 80.8 0.1 81.25 0.1 81.8 0.1 82.2 -0.15 82.65 -0.35 82.85 -0.8 83.1 -1.1 83.1 -1.75 83.1 -2.3 82.85 -2.7 82.55 -3.15 82.2 -3.35 81.8 -3.6 81.25 -3.6 80.8 -3.6 80.3 -3.35 79.9 -3.1 79.65 -2.7 79.4 -2.2 79.4 -1.75 79.4 -1.2 79.65 -0.8
M 80 -2.5
Q 80.3 -2.9 80.5 -3 80.85 -3.2 81.25 -3.2 81.75 -3.2 82 -3 82.35 -2.85 82.5 -2.5 82.7 -2 82.7 -1.75 82.7 -1.5 82.5 -1 82.3 -0.65 82 -0.45 81.6 -0.25 81.25 -0.25 81 -0.25 80.5 -0.45
L 80 -1 79.85 -1.75 80 -2.5 Z"/>
</g>

<g id="IT_300x250_FR_psd_Asset_Research_Phase_IT_Decisions_Makers__V9_1_copy_2_Vous_cherchez____valuer_votre__r_seau_pour_une_meilleure__solut_0_Layer0_0_MEMBER_22_FILL">
<path fill="#D82C26" stroke="none" d="
M 84 -4.3
L 84 -3.45 83.45 -3.45 83.35 -3.15 84 -3.15 84 -0.85
Q 84 -0.4 84.25 -0.15 84.45 0.05 84.85 0.05
L 85.2 0 85.55 -0.1 85.5 -0.45 84.95 -0.3
Q 84.75 -0.3 84.6 -0.45 84.45 -0.6 84.45 -0.9
L 84.45 -3.15 85.35 -3.15 85.45 -3.45 84.45 -3.45 84.45 -4.45 84 -4.3 Z"/>
</g>

<g id="IT_300x250_FR_psd_Asset_Research_Phase_IT_Decisions_Makers__V9_1_copy_2_Vous_cherchez____valuer_votre__r_seau_pour_une_meilleure__solut_0_Layer0_0_MEMBER_23_FILL">
<path fill="#D82C26" stroke="none" d="
M 86.6 -3.45
L 86.2 -3.45 86.2 0 86.65 0 86.65 -1.75
Q 86.65 -2.35 86.9 -2.75 87.2 -3.2 87.65 -3.2
L 87.95 -3.15 88.05 -3.5 87.65 -3.55
Q 87.3 -3.55 87.05 -3.35 86.8 -3.15 86.65 -2.7
L 86.6 -3.45 Z"/>
</g>

<g id="IT_300x250_FR_psd_Asset_Research_Phase_IT_Decisions_Makers__V9_1_copy_2_Vous_cherchez____valuer_votre__r_seau_pour_une_meilleure__solut_0_Layer0_0_MEMBER_24_FILL">
<path fill="#D82C26" stroke="none" d="
M 89.95 -3.6
Q 89.55 -3.6 89.05 -3.35 88.65 -3.1 88.45 -2.7 88.25 -2.3 88.25 -1.75 88.25 -1.15 88.45 -0.8 88.65 -0.35 89.1 -0.15 89.5 0.1 90 0.1 90.8 0.1 91.4 -0.35
L 91.3 -0.7
Q 90.9 -0.45 90.75 -0.4 90.45 -0.25 90.05 -0.25 89.6 -0.25 89.35 -0.45 89.05 -0.55 88.85 -0.95 88.65 -1.3 88.65 -1.7
L 91.6 -1.7 91.6 -1.85
Q 91.6 -2.35 91.4 -2.75 91.25 -3.1 90.85 -3.35 90.45 -3.6 89.95 -3.6
M 88.85 -2.55
Q 89 -2.85 89.25 -3.05 89.65 -3.25 89.95 -3.25 90.5 -3.25 90.85 -2.9 91.2 -2.45 91.2 -2
L 88.65 -2
Q 88.65 -2.3 88.85 -2.55 Z"/>
</g>

<g id="IT_300x250_FR_psd_Asset_Research_Phase_IT_Decisions_Makers__V9_1_copy_2_Vous_cherchez____valuer_votre__r_seau_pour_une_meilleure__solut_0_Layer0_0_MEMBER_25_FILL">
<path fill="#D82C26" stroke="none" d="
M 1.05 5
L 0.65 5 0.7 8.45 1.15 8.45 1.15 6.75
Q 1.15 6.1 1.4 5.7 1.65 5.3 2.1 5.3
L 2.4 5.35 2.5 4.95 2.15 4.9
Q 1.8 4.9 1.55 5.15 1.2 5.4 1.15 5.75
L 1.1 5.75 1.05 5 Z"/>
</g>

<g id="IT_300x250_FR_psd_Asset_Research_Phase_IT_Decisions_Makers__V9_1_copy_2_Vous_cherchez____valuer_votre__r_seau_pour_une_meilleure__solut_0_Layer0_0_MEMBER_26_FILL">
<path fill="#D82C26" stroke="none" d="
M 4.9 3.2
L 4.15 4.3 4.5 4.3 5.4 3.2 4.9 3.2
M 5.9 5.75
Q 5.65 5.35 5.35 5.1 5 4.9 4.45 4.9 3.85 4.9 3.55 5.15 3.2 5.4 2.95 5.75 2.7 6.25 2.7 6.7 2.7 7.2 2.95 7.7 3.25 8.15 3.6 8.35 4 8.6 4.5 8.6 5.3 8.6 5.9 8.15
L 5.8 7.75 5.25 8.1
Q 5 8.2 4.55 8.2 4.1 8.2 3.8 8.05 3.5 7.8 3.3 7.5 3.15 7.2 3.15 6.8
L 6.1 6.8 6.1 6.6
Q 6.1 6.25 5.9 5.75
M 3.75 5.45
Q 4 5.25 4.45 5.25 5 5.25 5.3 5.55 5.65 5.9 5.65 6.5
L 3.15 6.5
Q 3.15 6.2 3.3 5.9 3.45 5.6 3.75 5.45 Z"/>
</g>

<g id="IT_300x250_FR_psd_Asset_Research_Phase_IT_Decisions_Makers__V9_1_copy_2_Vous_cherchez____valuer_votre__r_seau_pour_une_meilleure__solut_0_Layer0_0_MEMBER_27_FILL">
<path fill="#D82C26" stroke="none" d="
M 6.9 5.35
Q 6.75 5.5 6.75 5.85 6.75 6.2 7 6.45 7.15 6.6 7.75 6.85
L 8.45 7.15
Q 8.7 7.3 8.7 7.6 8.7 7.9 8.45 8.05 8.15 8.25 7.9 8.25 7.3 8.25 6.75 7.8
L 6.7 8.2
Q 7 8.4 7.25 8.45 7.45 8.55 7.95 8.55 8.35 8.55 8.5 8.45 8.75 8.4 8.95 8.1 9.1 7.9 9.1 7.55 9.1 7.15 8.85 6.95 8.6 6.7 8.05 6.55
L 7.35 6.25
Q 7.15 6.05 7.15 5.85 7.15 5.55 7.4 5.4 7.55 5.25 7.9 5.25 8.25 5.25 8.4 5.35
L 8.8 5.6 9 5.25 8.5 5 7.9 4.9 7.35 5
Q 7.2 5.05 6.9 5.35 Z"/>
</g>

<g id="IT_300x250_FR_psd_Asset_Research_Phase_IT_Decisions_Makers__V9_1_copy_2_Vous_cherchez____valuer_votre__r_seau_pour_une_meilleure__solut_0_Layer0_0_MEMBER_28_FILL">
<path fill="#D82C26" stroke="none" d="
M 11.45 4.9
Q 10.95 4.9 10.55 5.15 10.2 5.4 9.95 5.75 9.7 6.25 9.7 6.7 9.7 7.2 9.95 7.7 10.25 8.15 10.6 8.35 11 8.6 11.5 8.6 12.3 8.6 12.9 8.15
L 12.8 7.75 12.25 8.1
Q 12 8.2 11.55 8.2 11.2 8.2 10.8 8.05 10.45 7.8 10.35 7.5 10.15 7.25 10.15 6.8
L 13.1 6.8 13.1 6.6
Q 13.1 6.1 12.9 5.75 12.65 5.35 12.35 5.1 12 4.9 11.45 4.9
M 11.45 5.25
Q 12 5.25 12.35 5.55 12.65 5.9 12.7 6.5
L 10.15 6.5
Q 10.15 6.2 10.3 5.9 10.45 5.6 10.75 5.45 11 5.25 11.45 5.25 Z"/>
</g>

<g id="IT_300x250_FR_psd_Asset_Research_Phase_IT_Decisions_Makers__V9_1_copy_2_Vous_cherchez____valuer_votre__r_seau_pour_une_meilleure__solut_0_Layer0_0_MEMBER_29_FILL">
<path fill="#D82C26" stroke="none" d="
M 14.5 5.35
L 15.1 5.25
Q 15.6 5.25 15.85 5.5 16.1 5.75 16.1 6.2
L 16.1 6.4 15.65 6.4
Q 13.7 6.4 13.7 7.55 13.7 8.1 14 8.3 14.25 8.55 14.8 8.55 15.3 8.55 15.55 8.35 15.95 8.2 16.1 7.8
L 16.1 8.15 16.15 8.45 16.55 8.45 16.5 6.2
Q 16.5 5.55 16.15 5.25 15.8 4.9 15.15 4.9
L 14.45 5 13.85 5.35 14 5.65 14.5 5.35
M 14.3 8.05
Q 14.1 7.9 14.1 7.5 14.1 6.7 15.75 6.7
L 16.1 6.7 16.1 7.05 15.95 7.6
Q 15.8 7.9 15.55 8.05 15.3 8.25 14.85 8.25 14.5 8.25 14.3 8.05 Z"/>
</g>

<g id="IT_300x250_FR_psd_Asset_Research_Phase_IT_Decisions_Makers__V9_1_copy_2_Vous_cherchez____valuer_votre__r_seau_pour_une_meilleure__solut_0_Layer0_0_MEMBER_30_FILL">
<path fill="#D82C26" stroke="none" d="
M 20.5 8.05
L 20.5 5 20.05 5 20.05 6.75
Q 20.05 7.2 19.9 7.55 19.75 7.85 19.5 8.05 19.2 8.2 18.9 8.2 18.35 8.2 18.2 7.85 17.95 7.5 17.95 7
L 17.95 5 17.55 5 17.55 7.1
Q 17.55 7.8 17.85 8.15 18.1 8.55 18.8 8.55 19.3 8.55 19.55 8.35 19.9 8.15 20.05 7.7
L 20.15 8.5 20.55 8.45 20.5 8.05 Z"/>
</g>

<g id="IT_300x250_FR_psd_Asset_Research_Phase_IT_Decisions_Makers__V9_1_copy_2_Vous_cherchez____valuer_votre__r_seau_pour_une_meilleure__solut_0_Layer0_0_MEMBER_31_FILL">
<path fill="#D82C26" stroke="none" d="
M 26.45 5.8
Q 26.25 5.4 25.85 5.15 25.45 4.9 24.95 4.9 24.4 4.9 24.1 5.15 23.7 5.4 23.55 5.75
L 23.5 5.75 23.5 5 23.05 5 23.1 5.65 23.1 10.25 23.5 10.25 23.5 7.75 23.55 7.75
Q 23.7 8.1 24.1 8.35 24.45 8.55 24.95 8.55 25.5 8.55 25.85 8.35 26.25 8 26.45 7.65 26.7 7.25 26.7 6.75 26.7 6.3 26.45 5.8
M 25.6 5.45
Q 25.9 5.65 26.05 6 26.25 6.35 26.25 6.75 26.25 7.15 26.05 7.5 25.85 7.85 25.6 8 25.35 8.2 24.9 8.2 24.5 8.2 24.15 8 23.8 7.75 23.7 7.45 23.5 7.2 23.5 6.75 23.5 6.35 23.7 6 23.85 5.65 24.15 5.45 24.65 5.25 24.9 5.25 25.2 5.25 25.6 5.45 Z"/>
</g>

<g id="IT_300x250_FR_psd_Asset_Research_Phase_IT_Decisions_Makers__V9_1_copy_2_Vous_cherchez____valuer_votre__r_seau_pour_une_meilleure__solut_0_Layer0_0_MEMBER_32_FILL">
<path fill="#D82C26" stroke="none" d="
M 31.05 6.75
Q 31.05 6.2 30.8 5.8 30.6 5.45 30.15 5.15 29.8 4.9 29.2 4.9 28.55 4.9 28.25 5.15 27.8 5.35 27.6 5.8 27.35 6.1 27.35 6.75 27.35 7.35 27.6 7.7 27.9 8.15 28.25 8.35 28.65 8.6 29.2 8.6 29.65 8.6 30.15 8.35 30.55 8.1 30.8 7.7 31.05 7.2 31.05 6.75
M 30.6 6.75
Q 30.6 7.15 30.45 7.45 30.25 7.75 29.95 8 29.6 8.2 29.2 8.2 28.7 8.2 28.45 8 28.05 7.7 27.95 7.45 27.8 7.15 27.8 6.75 27.8 6.3 27.95 6 28.05 5.75 28.45 5.45 28.85 5.25 29.2 5.25 29.45 5.25 29.95 5.45 30.25 5.7 30.45 6 30.6 6.3 30.6 6.75 Z"/>
</g>

<g id="IT_300x250_FR_psd_Asset_Research_Phase_IT_Decisions_Makers__V9_1_copy_2_Vous_cherchez____valuer_votre__r_seau_pour_une_meilleure__solut_0_Layer0_0_MEMBER_33_FILL">
<path fill="#D82C26" stroke="none" d="
M 32.35 5
L 31.9 5 31.9 7.1
Q 31.9 7.8 32.2 8.15 32.45 8.55 33.15 8.55 33.65 8.55 33.9 8.35 34.25 8.15 34.4 7.7
L 34.5 8.5 34.9 8.45 34.85 8.05 34.85 5 34.4 5 34.4 6.75
Q 34.4 7.2 34.25 7.55 34.1 7.85 33.85 8.05 33.65 8.2 33.25 8.2 32.75 8.2 32.55 7.85 32.35 7.6 32.35 7
L 32.35 5 Z"/>
</g>

<g id="IT_300x250_FR_psd_Asset_Research_Phase_IT_Decisions_Makers__V9_1_copy_2_Vous_cherchez____valuer_votre__r_seau_pour_une_meilleure__solut_0_Layer0_0_MEMBER_34_FILL">
<path fill="#D82C26" stroke="none" d="
M 36.4 5
L 35.95 5 36 8.45 36.45 8.45 36.45 6.75
Q 36.45 6.2 36.7 5.7 37 5.3 37.4 5.3
L 37.75 5.35 37.8 4.95 37.45 4.9
Q 37.1 4.9 36.85 5.15 36.5 5.4 36.45 5.75
L 36.4 5.75 36.4 5 Z"/>
</g>

<g id="IT_300x250_FR_psd_Asset_Research_Phase_IT_Decisions_Makers__V9_1_copy_2_Vous_cherchez____valuer_votre__r_seau_pour_une_meilleure__solut_0_Layer0_0_MEMBER_35_FILL">
<path fill="#D82C26" stroke="none" d="
M 42.65 5
L 42.2 5 42.2 6.75
Q 42.2 7.2 42.05 7.55
L 41.65 8.05
Q 41.35 8.2 41.05 8.2 40.5 8.2 40.3 7.85 40.1 7.6 40.1 7
L 40.1 5 39.65 5 39.65 7.1
Q 39.65 7.8 39.95 8.15 40.3 8.55 40.95 8.55 41.35 8.55 41.7 8.35 42.05 8.15 42.2 7.7
L 42.25 8.5 42.7 8.45 42.65 8.05 42.65 5 Z"/>
</g>

<g id="IT_300x250_FR_psd_Asset_Research_Phase_IT_Decisions_Makers__V9_1_copy_2_Vous_cherchez____valuer_votre__r_seau_pour_une_meilleure__solut_0_Layer0_0_MEMBER_36_FILL">
<path fill="#D82C26" stroke="none" d="
M 44.15 5
L 43.75 5 43.8 8.45 44.2 8.45 44.2 6.7
Q 44.2 6.25 44.35 5.95 44.5 5.6 44.8 5.45 45 5.25 45.35 5.25 45.85 5.25 46.1 5.6 46.3 5.95 46.3 6.45
L 46.3 8.45 46.75 8.45 46.75 6.35
Q 46.75 5.75 46.45 5.3 46.15 4.9 45.45 4.9 45.1 4.9 44.7 5.15 44.35 5.35 44.2 5.75
L 44.15 5 Z"/>
</g>

<g id="IT_300x250_FR_psd_Asset_Research_Phase_IT_Decisions_Makers__V9_1_copy_2_Vous_cherchez____valuer_votre__r_seau_pour_une_meilleure__solut_0_Layer0_0_MEMBER_37_FILL">
<path fill="#D82C26" stroke="none" d="
M 51 6.6
Q 51 6.1 50.8 5.75 50.55 5.35 50.25 5.1 49.9 4.9 49.35 4.9 48.85 4.9 48.45 5.15 48.1 5.4 47.85 5.75 47.6 6.25 47.6 6.7 47.6 7.2 47.85 7.7 48.15 8.15 48.5 8.35 48.9 8.6 49.4 8.6 50.2 8.6 50.8 8.15
L 50.7 7.75 50.15 8.1
Q 49.95 8.2 49.45 8.2 49.1 8.2 48.7 8.05 48.35 7.8 48.25 7.5 48.05 7.25 48.05 6.8
L 51 6.8 51 6.6
M 49.35 5.25
Q 49.9 5.25 50.25 5.55 50.55 5.9 50.6 6.5
L 48.05 6.5
Q 48.05 6.2 48.2 5.9 48.35 5.6 48.65 5.45 48.9 5.25 49.35 5.25 Z"/>
</g>

<g id="IT_300x250_FR_psd_Asset_Research_Phase_IT_Decisions_Makers__V9_1_copy_2_Vous_cherchez____valuer_votre__r_seau_pour_une_meilleure__solut_0_Layer0_0_MEMBER_38_FILL">
<path fill="#D82C26" stroke="none" d="
M 56.55 5.15
Q 56.15 5.45 56.05 5.8 55.9 5.35 55.65 5.15 55.3 4.9 54.9 4.9 54.55 4.9 54.2 5.15 53.85 5.45 53.7 5.75
L 53.65 5 53.25 5 53.3 8.45 53.75 8.45 53.75 6.75 53.85 5.95
Q 54 5.65 54.25 5.45 54.5 5.25 54.8 5.25 55.25 5.25 55.45 5.55 55.7 5.9 55.7 6.4
L 55.7 8.45 56.15 8.45 56.15 6.7
Q 56.15 6.05 56.45 5.65 56.75 5.25 57.25 5.25 57.7 5.25 57.95 5.6 58.15 6.1 58.15 6.5
L 58.15 8.45 58.55 8.45 58.55 6.4
Q 58.55 5.75 58.25 5.3 57.95 4.9 57.3 4.9 56.9 4.9 56.55 5.15 Z"/>
</g>

<g id="IT_300x250_FR_psd_Asset_Research_Phase_IT_Decisions_Makers__V9_1_copy_2_Vous_cherchez____valuer_votre__r_seau_pour_une_meilleure__solut_0_Layer0_0_MEMBER_39_FILL">
<path fill="#D82C26" stroke="none" d="
M 62.05 5.1
Q 61.7 4.9 61.15 4.9 60.6 4.9 60.3 5.15 59.9 5.35 59.65 5.75 59.45 6.15 59.45 6.7 59.45 7.3 59.65 7.7 59.9 8.1 60.3 8.35 60.7 8.6 61.2 8.6 62 8.6 62.6 8.15
L 62.55 7.75 61.95 8.1
Q 61.75 8.2 61.25 8.2 60.85 8.2 60.55 8.05 60.15 7.75 60.05 7.5 59.85 7.25 59.85 6.8
L 62.8 6.8 62.8 6.6
Q 62.8 6.1 62.6 5.75 62.5 5.45 62.05 5.1
M 61.15 5.25
Q 61.7 5.25 62.05 5.55 62.4 6 62.4 6.5
L 59.85 6.5
Q 59.85 6.3 60.05 5.9 60.2 5.65 60.45 5.45 60.7 5.25 61.15 5.25 Z"/>
</g>

<g id="IT_300x250_FR_psd_Asset_Research_Phase_IT_Decisions_Makers__V9_1_copy_2_Vous_cherchez____valuer_votre__r_seau_pour_une_meilleure__solut_0_Layer0_0_MEMBER_40_FILL">
<path fill="#D82C26" stroke="none" d="
M 64.1 5
L 63.7 5 63.7 8.45 64.1 8.45 64.1 5
M 63.9 3.95
L 64.1 3.85
Q 64.2 3.75 64.2 3.6 64.2 3.45 64.1 3.4
L 63.9 3.3 63.7 3.4
Q 63.6 3.45 63.6 3.6 63.6 3.75 63.7 3.85
L 63.9 3.95 Z"/>
</g>

<g id="IT_300x250_FR_psd_Asset_Research_Phase_IT_Decisions_Makers__V9_1_copy_2_Vous_cherchez____valuer_votre__r_seau_pour_une_meilleure__solut_0_Layer0_0_MEMBER_41_FILL">
<path fill="#D82C26" stroke="none" d="
M 65.4 8.25
Q 65.55 8.45 65.8 8.55
L 66 8.2 65.75 8 65.65 7.6 65.65 2.8 65.25 2.9 65.25 7.7
Q 65.25 8.05 65.4 8.25 Z"/>
</g>

<g id="IT_300x250_FR_psd_Asset_Research_Phase_IT_Decisions_Makers__V9_1_copy_2_Vous_cherchez____valuer_votre__r_seau_pour_une_meilleure__solut_0_Layer0_0_MEMBER_42_FILL">
<path fill="#D82C26" stroke="none" d="
M 66.95 8.25
Q 67.2 8.5 67.4 8.55
L 67.6 8.2 67.3 8 67.25 7.6 67.25 2.8 66.8 2.9 66.8 7.7
Q 66.8 8.05 66.95 8.25 Z"/>
</g>

<g id="IT_300x250_FR_psd_Asset_Research_Phase_IT_Decisions_Makers__V9_1_copy_2_Vous_cherchez____valuer_votre__r_seau_pour_une_meilleure__solut_0_Layer0_0_MEMBER_43_FILL">
<path fill="#D82C26" stroke="none" d="
M 71.55 6.6
Q 71.55 6.25 71.35 5.75 71.15 5.4 70.75 5.1 70.4 4.9 69.85 4.9 69.3 4.9 69 5.15 68.65 5.4 68.4 5.75 68.15 6.25 68.15 6.7 68.15 7.2 68.4 7.7 68.65 8.15 69 8.35 69.5 8.6 69.95 8.6 70.8 8.6 71.3 8.15
L 71.25 7.75 70.7 8.1
Q 70.45 8.2 69.95 8.2 69.55 8.2 69.25 8.05 68.95 7.8 68.75 7.5 68.6 7.2 68.6 6.8
L 71.5 6.8 71.55 6.6
M 69.85 5.25
Q 70.45 5.25 70.75 5.55 71.1 5.9 71.1 6.5
L 68.6 6.5
Q 68.6 6.2 68.75 5.9 68.9 5.6 69.2 5.45 69.45 5.25 69.85 5.25 Z"/>
</g>

<g id="IT_300x250_FR_psd_Asset_Research_Phase_IT_Decisions_Makers__V9_1_copy_2_Vous_cherchez____valuer_votre__r_seau_pour_une_meilleure__solut_0_Layer0_0_MEMBER_44_FILL">
<path fill="#D82C26" stroke="none" d="
M 72.8 5
L 72.35 5 72.35 7.1
Q 72.35 7.8 72.65 8.15 72.9 8.55 73.6 8.55 74.05 8.55 74.4 8.35 74.8 8.05 74.9 7.7
L 74.95 8.5 75.4 8.45 75.3 7.65 75.3 5 74.9 5 74.9 6.75
Q 74.9 7.2 74.75 7.55 74.6 7.8 74.3 8.05 74.1 8.2 73.75 8.2 73.2 8.2 73 7.85 72.8 7.6 72.8 7
L 72.8 5 Z"/>
</g>

<g id="IT_300x250_FR_psd_Asset_Research_Phase_IT_Decisions_Makers__V9_1_copy_2_Vous_cherchez____valuer_votre__r_seau_pour_une_meilleure__solut_0_Layer0_0_MEMBER_45_FILL">
<path fill="#D82C26" stroke="none" d="
M 76.85 5
L 76.45 5 76.45 8.45 76.9 8.45 76.9 6.75
Q 76.9 6.2 77.15 5.7 77.45 5.3 77.9 5.3
L 78.2 5.35 78.3 4.95 77.9 4.9
Q 77.55 4.9 77.3 5.15 77.05 5.4 76.9 5.75
L 76.85 5 Z"/>
</g>

<g id="IT_300x250_FR_psd_Asset_Research_Phase_IT_Decisions_Makers__V9_1_copy_2_Vous_cherchez____valuer_votre__r_seau_pour_une_meilleure__solut_0_Layer0_0_MEMBER_46_FILL">
<path fill="#D82C26" stroke="none" d="
M 81.65 5.75
Q 81.55 5.45 81.1 5.1 80.75 4.9 80.2 4.9 79.65 4.9 79.35 5.15 78.95 5.35 78.7 5.75 78.5 6.15 78.5 6.7 78.5 7.3 78.7 7.7 78.95 8.1 79.35 8.35 79.75 8.6 80.25 8.6 81.05 8.6 81.65 8.15
L 81.55 7.75 81 8.1
Q 80.8 8.2 80.3 8.2 79.9 8.2 79.6 8.05 79.25 7.85 79.1 7.5 78.9 7.25 78.9 6.8
L 81.85 6.8 81.85 6.6
Q 81.85 6.1 81.65 5.75
M 81.1 5.55
Q 81.45 6 81.45 6.5
L 78.9 6.5
Q 78.9 6.3 79.1 5.9 79.25 5.65 79.5 5.45 79.75 5.25 80.2 5.25 80.75 5.25 81.1 5.55 Z"/>
</g>

<g id="IT_300x250_FR_psd_Asset_Research_Phase_IT_Decisions_Makers__V9_1_copy_2_Vous_cherchez____valuer_votre__r_seau_pour_une_meilleure__solut_0_Layer0_0_MEMBER_47_FILL">
<path fill="#D82C26" stroke="none" d="
M 2.55 14.05
L 2.75 13.75 2.25 13.5
Q 1.95 13.35 1.6 13.35
L 1.05 13.45
Q 0.75 13.65 0.65 13.8 0.45 14.1 0.45 14.3 0.45 14.7 0.7 14.95
L 1.45 15.3
Q 2 15.45 2.2 15.65 2.4 15.8 2.4 16.05 2.4 16.35 2.2 16.55 2 16.7 1.65 16.7 1 16.7 0.5 16.3
L 0.4 16.65 0.95 16.95 1.65 17.05 2.25 16.95
Q 2.55 16.75 2.65 16.6 2.85 16.4 2.85 16.05 2.85 15.65 2.55 15.4 2.4 15.25 1.75 15
L 1.1 14.7
Q 0.9 14.55 0.9 14.3 0.9 14 1.1 13.85 1.35 13.7 1.65 13.7
L 2.15 13.8 2.55 14.05 Z"/>
</g>

<g id="IT_300x250_FR_psd_Asset_Research_Phase_IT_Decisions_Makers__V9_1_copy_2_Vous_cherchez____valuer_votre__r_seau_pour_une_meilleure__solut_0_Layer0_0_MEMBER_48_FILL">
<path fill="#D82C26" stroke="none" d="
M 6.25 13.6
Q 5.75 13.35 5.3 13.35 4.75 13.35 4.35 13.6 3.9 13.8 3.7 14.25 3.45 14.65 3.45 15.2 3.45 15.8 3.7 16.15 3.9 16.6 4.35 16.8 4.75 17.05 5.3 17.05 5.75 17.05 6.25 16.8 6.7 16.5 6.9 16.15 7.15 15.65 7.15 15.2 7.15 14.75 6.9 14.25 6.7 13.9 6.25 13.6
M 5.3 13.75
Q 5.7 13.75 6.05 13.95 6.25 14.05 6.55 14.45
L 6.7 15.2 6.55 15.95 6.05 16.5
Q 5.55 16.7 5.3 16.7 4.95 16.7 4.55 16.5 4.25 16.3 4.05 15.95
L 3.9 15.2 4.05 14.45
Q 4.25 14.1 4.55 13.95 4.8 13.75 5.3 13.75 Z"/>
</g>

<g id="IT_300x250_FR_psd_Asset_Research_Phase_IT_Decisions_Makers__V9_1_copy_2_Vous_cherchez____valuer_votre__r_seau_pour_une_meilleure__solut_0_Layer0_0_MEMBER_49_FILL">
<path fill="#D82C26" stroke="none" d="
M 8.2 16.75
L 8.6 17.05 8.8 16.65
Q 8.6 16.6 8.55 16.45
L 8.45 16.1 8.45 11.3 8 11.4 8 16.15
Q 8 16.45 8.2 16.75 Z"/>
</g>

<g id="IT_300x250_FR_psd_Asset_Research_Phase_IT_Decisions_Makers__V9_1_copy_2_Vous_cherchez____valuer_votre__r_seau_pour_une_meilleure__solut_0_Layer0_0_MEMBER_50_FILL">
<path fill="#D82C26" stroke="none" d="
M 9.55 15.6
Q 9.55 16.2 9.85 16.65 10.25 17.05 10.85 17.05 11.2 17.05 11.6 16.8 11.95 16.6 12.1 16.2
L 12.15 16.95 12.6 16.95 12.55 16.55 12.55 13.5 12.1 13.5 12.1 15.2
Q 12.1 15.7 11.95 16 11.8 16.3 11.55 16.5 11.3 16.7 10.95 16.7 10.45 16.7 10.2 16.35 10 16 10 15.5
L 10 13.5 9.55 13.5 9.55 15.6 Z"/>
</g>

<g id="IT_300x250_FR_psd_Asset_Research_Phase_IT_Decisions_Makers__V9_1_copy_2_Vous_cherchez____valuer_votre__r_seau_pour_une_meilleure__solut_0_Layer0_0_MEMBER_51_FILL">
<path fill="#D82C26" stroke="none" d="
M 15.4 16.85
L 15.3 16.5
Q 15 16.65 14.75 16.65 14.55 16.65 14.4 16.5 14.25 16.35 14.25 16.05
L 14.25 13.8 15.15 13.8 15.25 13.5 14.25 13.5 14.25 12.5 13.8 12.65 13.8 13.5 13.25 13.5 13.2 13.8 13.85 13.8 13.85 16.1
Q 13.85 16.55 14.05 16.8 14.25 17 14.65 17
L 15.05 16.95 15.4 16.85 Z"/>
</g>

<g id="IT_300x250_FR_psd_Asset_Research_Phase_IT_Decisions_Makers__V9_1_copy_2_Vous_cherchez____valuer_votre__r_seau_pour_une_meilleure__solut_0_Layer0_0_MEMBER_52_FILL">
<path fill="#D82C26" stroke="none" d="
M 16 13.5
L 16 16.95 16.45 16.95 16.45 13.5 16 13.5
M 15.9 12.1
L 16 12.3 16.25 12.4 16.45 12.3 16.55 12.1 16.45 11.85 16.25 11.75 16 11.85 15.9 12.1 Z"/>
</g>

<g id="IT_300x250_FR_psd_Asset_Research_Phase_IT_Decisions_Makers__V9_1_copy_2_Vous_cherchez____valuer_votre__r_seau_pour_une_meilleure__solut_0_Layer0_0_MEMBER_53_FILL">
<path fill="#D82C26" stroke="none" d="
M 20.8 16.15
Q 21 15.75 21 15.2 21 14.65 20.8 14.25 20.5 13.8 20.1 13.6 19.7 13.35 19.15 13.35 18.65 13.35 18.25 13.6 17.85 13.8 17.55 14.25 17.35 14.65 17.35 15.2 17.35 15.75 17.55 16.15 17.85 16.6 18.25 16.8 18.65 17.05 19.15 17.05 19.7 17.05 20.1 16.8 20.5 16.6 20.8 16.15
M 20.6 15.2
Q 20.6 15.6 20.4 15.95 20.2 16.3 19.9 16.5 19.5 16.7 19.15 16.7 18.85 16.7 18.45 16.5 18.15 16.3 17.95 15.95 17.75 15.6 17.75 15.2 17.75 14.8 17.95 14.45 18.15 14.1 18.45 13.95 18.7 13.75 19.15 13.75 19.65 13.75 19.9 13.95 20.2 14.1 20.4 14.45 20.6 14.8 20.6 15.2 Z"/>
</g>

<g id="IT_300x250_FR_psd_Asset_Research_Phase_IT_Decisions_Makers__V9_1_copy_2_Vous_cherchez____valuer_votre__r_seau_pour_une_meilleure__solut_0_Layer0_0_MEMBER_54_FILL">
<path fill="#D82C26" stroke="none" d="
M 23.6 13.35
Q 23.2 13.35 22.85 13.6 22.5 13.8 22.35 14.2
L 22.3 13.5 21.9 13.5 21.9 16.95 22.35 16.95 22.35 15.15
Q 22.35 14.7 22.5 14.4 22.7 14.05 22.9 13.9 23.2 13.75 23.5 13.75 24.05 13.75 24.25 14.1 24.45 14.35 24.45 14.95
L 24.45 16.95 24.9 16.95 24.9 14.85
Q 24.9 14.15 24.55 13.8 24.25 13.35 23.6 13.35 Z"/>
</g>

<g id="IT_300x250_FR_psd_Asset_Research_Phase_IT_Decisions_Makers__V9_1_copy_2_Vous_cherchez____valuer_votre__r_seau_pour_une_meilleure__solut_0_Layer0_0_MEMBER_55_FILL">
<path fill="#D82C26" stroke="none" d="
M 28.9 13.35
Q 28.45 13.35 27.95 13.6 27.6 13.8 27.35 14.3 27.15 14.65 27.15 15.2 27.15 15.75 27.35 16.15 27.6 16.6 27.95 16.8 28.45 17.05 28.9 17.05 29.3 17.05 29.7 16.8 30.1 16.6 30.3 16.2
L 30.35 16.95 30.75 16.95 30.75 11.25 30.3 11.35 30.3 14.2
Q 30.1 13.85 29.7 13.6 29.3 13.35 28.9 13.35
M 30.15 14.45
L 30.3 15.2
Q 30.3 15.6 30.15 15.95
L 29.65 16.5
Q 29.25 16.7 28.95 16.7 28.6 16.7 28.2 16.5 27.9 16.3 27.75 15.95 27.55 15.45 27.55 15.2 27.55 14.95 27.75 14.45 27.95 14.1 28.2 13.95 28.45 13.75 28.95 13.75 29.4 13.75 29.65 13.95 29.85 14.05 30.15 14.45 Z"/>
</g>

<g id="IT_300x250_FR_psd_Asset_Research_Phase_IT_Decisions_Makers__V9_1_copy_2_Vous_cherchez____valuer_votre__r_seau_pour_une_meilleure__solut_0_Layer0_0_MEMBER_56_FILL">
<path fill="#D82C26" stroke="none" d="
M 34.25 13.6
Q 33.85 13.35 33.35 13.35 32.95 13.35 32.45 13.6 32.05 13.85 31.85 14.25 31.6 14.65 31.6 15.2 31.6 15.65 31.85 16.15 32.05 16.6 32.5 16.8 32.9 17.05 33.4 17.05 34.2 17.05 34.8 16.6
L 34.7 16.25
Q 34.3 16.5 34.15 16.55 33.85 16.7 33.45 16.7 33.05 16.7 32.7 16.5 32.4 16.25 32.25 16 32.05 15.65 32.05 15.25
L 35 15.25 35 15.1
Q 35 14.6 34.8 14.2 34.55 13.8 34.25 13.6
M 34.25 14.05
Q 34.5 14.3 34.6 14.95
L 32.05 14.95
Q 32.05 14.7 32.2 14.4 32.35 14.15 32.65 13.9 32.9 13.7 33.35 13.7 33.9 13.7 34.25 14.05 Z"/>
</g>

<g id="IT_300x250_FR_psd_Asset_Research_Phase_IT_Decisions_Makers__V9_1_copy_2_Vous_cherchez____valuer_votre__r_seau_pour_une_meilleure__solut_0_Layer0_0_MEMBER_57_FILL">
<path fill="#D82C26" stroke="none" d="
M 40.6 16.9
L 40.65 13.5 40.2 13.5 40.2 14.25 40.15 14.25
Q 40 13.85 39.6 13.6 39.2 13.35 38.75 13.35 38.25 13.35 37.85 13.6 37.45 13.95 37.25 14.3 37 14.7 37 15.2 37 15.65 37.25 16.15 37.5 16.55 37.85 16.75 38.15 17 38.75 17 39.25 17 39.6 16.8 40 16.55 40.15 16.15
L 40.2 16.15 40.2 16.9
Q 40.2 17.55 39.85 18 39.45 18.4 38.75 18.4
L 38 18.25
Q 37.6 18.15 37.3 17.95
L 37.25 18.35
Q 37.55 18.6 37.95 18.65 38.2 18.75 38.75 18.75 39.7 18.75 40.15 18.25 40.6 17.75 40.6 16.9
M 40 14.45
Q 40.2 14.8 40.2 15.2 40.2 15.6 40 15.95 39.8 16.35 39.5 16.45 39.25 16.65 38.8 16.65 38.35 16.65 38.1 16.45
L 37.6 15.95 37.45 15.2 37.6 14.45
Q 37.9 14.05 38.1 13.95 38.35 13.75 38.8 13.75 39.25 13.75 39.5 13.95 39.8 14.1 40 14.45 Z"/>
</g>

<g id="IT_300x250_FR_psd_Asset_Research_Phase_IT_Decisions_Makers__V9_1_copy_2_Vous_cherchez____valuer_votre__r_seau_pour_une_meilleure__solut_0_Layer0_0_MEMBER_58_FILL">
<path fill="#D82C26" stroke="none" d="
M 44.1 13.6
Q 43.7 13.35 43.2 13.35 42.75 13.35 42.35 13.6 41.9 13.8 41.7 14.25 41.5 14.6 41.5 15.2 41.5 15.75 41.7 16.15 41.9 16.5 42.35 16.8 42.75 17.05 43.25 17.05 44.05 17.05 44.65 16.6
L 44.6 16.25
Q 44.2 16.5 44 16.55 43.7 16.7 43.3 16.7 42.85 16.7 42.6 16.5 42.2 16.2 42.1 16 41.9 15.5 41.9 15.25
L 44.85 15.25 44.85 15.1
Q 44.85 14.6 44.65 14.2 44.5 13.85 44.1 13.6
M 44.1 14.05
Q 44.45 14.4 44.45 14.95
L 41.9 14.95 42.1 14.4
Q 42.25 14.15 42.55 13.9 42.75 13.7 43.2 13.7 43.8 13.7 44.1 14.05 Z"/>
</g>

<g id="IT_300x250_FR_psd_Asset_Research_Phase_IT_Decisions_Makers__V9_1_copy_2_Vous_cherchez____valuer_votre__r_seau_pour_une_meilleure__solut_0_Layer0_0_MEMBER_59_FILL">
<path fill="#D82C26" stroke="none" d="
M 47.8 13.75
L 47.3 13.5
Q 47 13.35 46.7 13.35
L 46.15 13.45
Q 45.85 13.6 45.7 13.8 45.55 14.05 45.55 14.3 45.55 14.75 45.8 14.95
L 46.5 15.3
Q 47.05 15.45 47.25 15.65 47.45 15.8 47.45 16.05 47.45 16.35 47.25 16.55 47.05 16.7 46.7 16.7 46.05 16.7 45.55 16.3
L 45.45 16.65 46 16.95 46.7 17.05 47.3 16.95 47.7 16.6
Q 47.9 16.4 47.9 16.05 47.9 15.65 47.65 15.4 47.45 15.25 46.8 15 46.3 14.85 46.15 14.7 45.95 14.55 45.95 14.3 45.95 14 46.15 13.85 46.4 13.7 46.7 13.7
L 47.2 13.8 47.6 14.05 47.8 13.75 Z"/>
</g>

<g id="IT_300x250_FR_psd_Asset_Research_Phase_IT_Decisions_Makers__V9_1_copy_2_Vous_cherchez____valuer_votre__r_seau_pour_une_meilleure__solut_0_Layer0_0_MEMBER_60_FILL">
<path fill="#D82C26" stroke="none" d="
M 49.4 13.8
L 50.3 13.8 50.35 13.5 49.4 13.5 49.4 12.5 48.95 12.65 48.95 13.5 48.4 13.5 48.3 13.8 48.95 13.8 48.95 16.1
Q 48.95 16.45 49.2 16.8 49.35 17 49.75 17
L 50.15 16.95 50.5 16.85 50.45 16.5
Q 50.15 16.65 49.9 16.65 49.65 16.65 49.5 16.5
L 49.4 16.05 49.4 13.8 Z"/>
</g>

<g id="IT_300x250_FR_psd_Asset_Research_Phase_IT_Decisions_Makers__V9_1_copy_2_Vous_cherchez____valuer_votre__r_seau_pour_une_meilleure__solut_0_Layer0_0_MEMBER_61_FILL">
<path fill="#D82C26" stroke="none" d="
M 51.15 13.5
L 51.15 16.95 51.6 16.95 51.6 13.5 51.15 13.5
M 51.05 12.1
L 51.15 12.3 51.35 12.4 51.6 12.3 51.65 12.1 51.6 11.85 51.35 11.75 51.15 11.85 51.05 12.1 Z"/>
</g>

<g id="IT_300x250_FR_psd_Asset_Research_Phase_IT_Decisions_Makers__V9_1_copy_2_Vous_cherchez____valuer_votre__r_seau_pour_une_meilleure__solut_0_Layer0_0_MEMBER_62_FILL">
<path fill="#D82C26" stroke="none" d="
M 55.9 16.15
Q 56.15 15.65 56.15 15.2 56.15 14.75 55.9 14.25 55.7 13.8 55.25 13.6 54.75 13.35 54.3 13.35 53.85 13.35 53.35 13.6 52.9 13.9 52.7 14.25 52.45 14.75 52.45 15.2 52.45 15.65 52.7 16.15 52.9 16.5 53.35 16.8 53.85 17.05 54.3 17.05 54.75 17.05 55.25 16.8 55.7 16.6 55.9 16.15
M 55.05 13.95
Q 55.4 14.1 55.55 14.45
L 55.7 15.2 55.55 15.95
Q 55.4 16.25 55.05 16.5 54.65 16.7 54.3 16.7 53.95 16.7 53.55 16.5
L 53.05 15.95 52.9 15.2 53.05 14.45
Q 53.35 14.05 53.55 13.95 53.8 13.75 54.3 13.75 54.8 13.75 55.05 13.95 Z"/>
</g>

<g id="IT_300x250_FR_psd_Asset_Research_Phase_IT_Decisions_Makers__V9_1_copy_2_Vous_cherchez____valuer_votre__r_seau_pour_une_meilleure__solut_0_Layer0_0_MEMBER_63_FILL">
<path fill="#D82C26" stroke="none" d="
M 59.7 13.8
Q 59.4 13.35 58.75 13.35 58.35 13.35 57.95 13.6 57.6 13.9 57.45 14.2
L 57.4 13.5 57 13.5 57.05 16.95 57.5 16.95 57.5 15.15
Q 57.5 14.7 57.65 14.4 57.85 14.05 58.05 13.9 58.35 13.75 58.65 13.75 59.15 13.75 59.35 14.1 59.6 14.45 59.6 14.95
L 59.6 16.95 60 16.95 60 14.85
Q 60 14.2 59.7 13.8 Z"/>
</g>

<g id="IT_300x250_FR_psd_Asset_Research_Phase_IT_Decisions_Makers__V9_1_copy_2_Vous_cherchez____valuer_votre__r_seau_pour_une_meilleure__solut_0_Layer0_0_MEMBER_64_FILL">
<path fill="#D82C26" stroke="none" d="
M 61.75 11.95
Q 62.15 11.95 62.5 12.2 62.8 12.45 62.8 12.85
L 62.7 13.3 62.5 13.6 62.1 14 61.65 14.6 61.55 15.2 61.55 15.45 61.95 15.45 61.95 15.3 62 14.85 62.15 14.55 62.9 13.75 63.15 13.35 63.25 12.85
Q 63.25 12.55 63.05 12.15 62.8 11.8 62.5 11.7 62.2 11.55 61.8 11.55 61.45 11.55 60.95 11.75 60.6 11.9 60.3 12.2
L 60.5 12.55 61.05 12.15
Q 61.3 11.95 61.75 11.95
M 61.55 16.9
L 61.8 17 62 16.9 62.1 16.65 62 16.45
Q 61.95 16.35 61.8 16.35 61.6 16.35 61.55 16.45
L 61.45 16.65 61.55 16.9 Z"/>
</g>
</defs>

<g transform="matrix( 1, 0, 0, 1, -5,-40) ">
<g transform="matrix( 1, 0, 0, 1, 0,53) ">
<g transform="matrix( 1, 0, 0, 1, 27,9) ">
<g transform="matrix( 2.815704345703125, 0, 0, 2.832611083984375, 0.15,16.6) ">
<use xlink:href="#IT_300x250_FR_psd_Asset_Research_Phase_IT_Decisions_Makers__V9_1_copy_2_Vous_cherchez____valuer_votre__r_seau_pour_une_meilleure__solut_0_Layer0_0_MEMBER_0_FILL"/>
</g>

<g transform="matrix( 2.815704345703125, 0, 0, 2.832611083984375, 0.15,16.6) ">
<use xlink:href="#IT_300x250_FR_psd_Asset_Research_Phase_IT_Decisions_Makers__V9_1_copy_2_Vous_cherchez____valuer_votre__r_seau_pour_une_meilleure__solut_0_Layer0_0_MEMBER_1_FILL"/>
</g>

<g transform="matrix( 2.815704345703125, 0, 0, 2.832611083984375, 0.15,16.6) ">
<use xlink:href="#IT_300x250_FR_psd_Asset_Research_Phase_IT_Decisions_Makers__V9_1_copy_2_Vous_cherchez____valuer_votre__r_seau_pour_une_meilleure__solut_0_Layer0_0_MEMBER_2_FILL"/>
</g>

<g transform="matrix( 2.815704345703125, 0, 0, 2.832611083984375, 0.15,16.6) ">
<use xlink:href="#IT_300x250_FR_psd_Asset_Research_Phase_IT_Decisions_Makers__V9_1_copy_2_Vous_cherchez____valuer_votre__r_seau_pour_une_meilleure__solut_0_Layer0_0_MEMBER_3_FILL"/>
</g>

<g transform="matrix( 2.815704345703125, 0, 0, 2.832611083984375, 0.15,16.6) ">
<use xlink:href="#IT_300x250_FR_psd_Asset_Research_Phase_IT_Decisions_Makers__V9_1_copy_2_Vous_cherchez____valuer_votre__r_seau_pour_une_meilleure__solut_0_Layer0_0_MEMBER_4_FILL"/>
</g>

<g transform="matrix( 2.815704345703125, 0, 0, 2.832611083984375, 0.15,16.6) ">
<use xlink:href="#IT_300x250_FR_psd_Asset_Research_Phase_IT_Decisions_Makers__V9_1_copy_2_Vous_cherchez____valuer_votre__r_seau_pour_une_meilleure__solut_0_Layer0_0_MEMBER_5_FILL"/>
</g>

<g transform="matrix( 2.815704345703125, 0, 0, 2.832611083984375, 0.15,16.6) ">
<use xlink:href="#IT_300x250_FR_psd_Asset_Research_Phase_IT_Decisions_Makers__V9_1_copy_2_Vous_cherchez____valuer_votre__r_seau_pour_une_meilleure__solut_0_Layer0_0_MEMBER_6_FILL"/>
</g>

<g transform="matrix( 2.815704345703125, 0, 0, 2.832611083984375, 0.15,16.6) ">
<use xlink:href="#IT_300x250_FR_psd_Asset_Research_Phase_IT_Decisions_Makers__V9_1_copy_2_Vous_cherchez____valuer_votre__r_seau_pour_une_meilleure__solut_0_Layer0_0_MEMBER_7_FILL"/>
</g>

<g transform="matrix( 2.815704345703125, 0, 0, 2.832611083984375, 0.15,16.6) ">
<use xlink:href="#IT_300x250_FR_psd_Asset_Research_Phase_IT_Decisions_Makers__V9_1_copy_2_Vous_cherchez____valuer_votre__r_seau_pour_une_meilleure__solut_0_Layer0_0_MEMBER_8_FILL"/>
</g>

<g transform="matrix( 2.815704345703125, 0, 0, 2.832611083984375, 0.15,16.6) ">
<use xlink:href="#IT_300x250_FR_psd_Asset_Research_Phase_IT_Decisions_Makers__V9_1_copy_2_Vous_cherchez____valuer_votre__r_seau_pour_une_meilleure__solut_0_Layer0_0_MEMBER_9_FILL"/>
</g>

<g transform="matrix( 2.815704345703125, 0, 0, 2.832611083984375, 0.15,16.6) ">
<use xlink:href="#IT_300x250_FR_psd_Asset_Research_Phase_IT_Decisions_Makers__V9_1_copy_2_Vous_cherchez____valuer_votre__r_seau_pour_une_meilleure__solut_0_Layer0_0_MEMBER_10_FILL"/>
</g>

<g transform="matrix( 2.815704345703125, 0, 0, 2.832611083984375, 0.15,16.6) ">
<use xlink:href="#IT_300x250_FR_psd_Asset_Research_Phase_IT_Decisions_Makers__V9_1_copy_2_Vous_cherchez____valuer_votre__r_seau_pour_une_meilleure__solut_0_Layer0_0_MEMBER_11_FILL"/>
</g>

<g transform="matrix( 2.815704345703125, 0, 0, 2.832611083984375, 0.15,16.6) ">
<use xlink:href="#IT_300x250_FR_psd_Asset_Research_Phase_IT_Decisions_Makers__V9_1_copy_2_Vous_cherchez____valuer_votre__r_seau_pour_une_meilleure__solut_0_Layer0_0_MEMBER_12_FILL"/>
</g>

<g transform="matrix( 2.815704345703125, 0, 0, 2.832611083984375, 0.15,16.6) ">
<use xlink:href="#IT_300x250_FR_psd_Asset_Research_Phase_IT_Decisions_Makers__V9_1_copy_2_Vous_cherchez____valuer_votre__r_seau_pour_une_meilleure__solut_0_Layer0_0_MEMBER_13_FILL"/>
</g>

<g transform="matrix( 2.815704345703125, 0, 0, 2.832611083984375, 0.15,16.6) ">
<use xlink:href="#IT_300x250_FR_psd_Asset_Research_Phase_IT_Decisions_Makers__V9_1_copy_2_Vous_cherchez____valuer_votre__r_seau_pour_une_meilleure__solut_0_Layer0_0_MEMBER_14_FILL"/>
</g>

<g transform="matrix( 2.815704345703125, 0, 0, 2.832611083984375, 0.15,16.6) ">
<use xlink:href="#IT_300x250_FR_psd_Asset_Research_Phase_IT_Decisions_Makers__V9_1_copy_2_Vous_cherchez____valuer_votre__r_seau_pour_une_meilleure__solut_0_Layer0_0_MEMBER_15_FILL"/>
</g>

<g transform="matrix( 2.815704345703125, 0, 0, 2.832611083984375, 0.15,16.6) ">
<use xlink:href="#IT_300x250_FR_psd_Asset_Research_Phase_IT_Decisions_Makers__V9_1_copy_2_Vous_cherchez____valuer_votre__r_seau_pour_une_meilleure__solut_0_Layer0_0_MEMBER_16_FILL"/>
</g>

<g transform="matrix( 2.815704345703125, 0, 0, 2.832611083984375, 0.15,16.6) ">
<use xlink:href="#IT_300x250_FR_psd_Asset_Research_Phase_IT_Decisions_Makers__V9_1_copy_2_Vous_cherchez____valuer_votre__r_seau_pour_une_meilleure__solut_0_Layer0_0_MEMBER_17_FILL"/>
</g>

<g transform="matrix( 2.815704345703125, 0, 0, 2.832611083984375, 0.15,16.6) ">
<use xlink:href="#IT_300x250_FR_psd_Asset_Research_Phase_IT_Decisions_Makers__V9_1_copy_2_Vous_cherchez____valuer_votre__r_seau_pour_une_meilleure__solut_0_Layer0_0_MEMBER_18_FILL"/>
</g>

<g transform="matrix( 2.815704345703125, 0, 0, 2.832611083984375, 0.15,16.6) ">
<use xlink:href="#IT_300x250_FR_psd_Asset_Research_Phase_IT_Decisions_Makers__V9_1_copy_2_Vous_cherchez____valuer_votre__r_seau_pour_une_meilleure__solut_0_Layer0_0_MEMBER_19_FILL"/>
</g>

<g transform="matrix( 2.815704345703125, 0, 0, 2.832611083984375, 0.15,16.6) ">
<use xlink:href="#IT_300x250_FR_psd_Asset_Research_Phase_IT_Decisions_Makers__V9_1_copy_2_Vous_cherchez____valuer_votre__r_seau_pour_une_meilleure__solut_0_Layer0_0_MEMBER_20_FILL"/>
</g>

<g transform="matrix( 2.815704345703125, 0, 0, 2.832611083984375, 0.15,16.6) ">
<use xlink:href="#IT_300x250_FR_psd_Asset_Research_Phase_IT_Decisions_Makers__V9_1_copy_2_Vous_cherchez____valuer_votre__r_seau_pour_une_meilleure__solut_0_Layer0_0_MEMBER_21_FILL"/>
</g>

<g transform="matrix( 2.815704345703125, 0, 0, 2.832611083984375, 0.15,16.6) ">
<use xlink:href="#IT_300x250_FR_psd_Asset_Research_Phase_IT_Decisions_Makers__V9_1_copy_2_Vous_cherchez____valuer_votre__r_seau_pour_une_meilleure__solut_0_Layer0_0_MEMBER_22_FILL"/>
</g>

<g transform="matrix( 2.815704345703125, 0, 0, 2.832611083984375, 0.15,16.6) ">
<use xlink:href="#IT_300x250_FR_psd_Asset_Research_Phase_IT_Decisions_Makers__V9_1_copy_2_Vous_cherchez____valuer_votre__r_seau_pour_une_meilleure__solut_0_Layer0_0_MEMBER_23_FILL"/>
</g>

<g transform="matrix( 2.815704345703125, 0, 0, 2.832611083984375, 0.15,16.6) ">
<use xlink:href="#IT_300x250_FR_psd_Asset_Research_Phase_IT_Decisions_Makers__V9_1_copy_2_Vous_cherchez____valuer_votre__r_seau_pour_une_meilleure__solut_0_Layer0_0_MEMBER_24_FILL"/>
</g>

<g transform="matrix( 2.815704345703125, 0, 0, 2.832611083984375, 0.15,16.6) ">
<use xlink:href="#IT_300x250_FR_psd_Asset_Research_Phase_IT_Decisions_Makers__V9_1_copy_2_Vous_cherchez____valuer_votre__r_seau_pour_une_meilleure__solut_0_Layer0_0_MEMBER_25_FILL"/>
</g>

<g transform="matrix( 2.815704345703125, 0, 0, 2.832611083984375, 0.15,16.6) ">
<use xlink:href="#IT_300x250_FR_psd_Asset_Research_Phase_IT_Decisions_Makers__V9_1_copy_2_Vous_cherchez____valuer_votre__r_seau_pour_une_meilleure__solut_0_Layer0_0_MEMBER_26_FILL"/>
</g>

<g transform="matrix( 2.815704345703125, 0, 0, 2.832611083984375, 0.15,16.6) ">
<use xlink:href="#IT_300x250_FR_psd_Asset_Research_Phase_IT_Decisions_Makers__V9_1_copy_2_Vous_cherchez____valuer_votre__r_seau_pour_une_meilleure__solut_0_Layer0_0_MEMBER_27_FILL"/>
</g>

<g transform="matrix( 2.815704345703125, 0, 0, 2.832611083984375, 0.15,16.6) ">
<use xlink:href="#IT_300x250_FR_psd_Asset_Research_Phase_IT_Decisions_Makers__V9_1_copy_2_Vous_cherchez____valuer_votre__r_seau_pour_une_meilleure__solut_0_Layer0_0_MEMBER_28_FILL"/>
</g>

<g transform="matrix( 2.815704345703125, 0, 0, 2.832611083984375, 0.15,16.6) ">
<use xlink:href="#IT_300x250_FR_psd_Asset_Research_Phase_IT_Decisions_Makers__V9_1_copy_2_Vous_cherchez____valuer_votre__r_seau_pour_une_meilleure__solut_0_Layer0_0_MEMBER_29_FILL"/>
</g>

<g transform="matrix( 2.815704345703125, 0, 0, 2.832611083984375, 0.15,16.6) ">
<use xlink:href="#IT_300x250_FR_psd_Asset_Research_Phase_IT_Decisions_Makers__V9_1_copy_2_Vous_cherchez____valuer_votre__r_seau_pour_une_meilleure__solut_0_Layer0_0_MEMBER_30_FILL"/>
</g>

<g transform="matrix( 2.815704345703125, 0, 0, 2.832611083984375, 0.15,16.6) ">
<use xlink:href="#IT_300x250_FR_psd_Asset_Research_Phase_IT_Decisions_Makers__V9_1_copy_2_Vous_cherchez____valuer_votre__r_seau_pour_une_meilleure__solut_0_Layer0_0_MEMBER_31_FILL"/>
</g>

<g transform="matrix( 2.815704345703125, 0, 0, 2.832611083984375, 0.15,16.6) ">
<use xlink:href="#IT_300x250_FR_psd_Asset_Research_Phase_IT_Decisions_Makers__V9_1_copy_2_Vous_cherchez____valuer_votre__r_seau_pour_une_meilleure__solut_0_Layer0_0_MEMBER_32_FILL"/>
</g>

<g transform="matrix( 2.815704345703125, 0, 0, 2.832611083984375, 0.15,16.6) ">
<use xlink:href="#IT_300x250_FR_psd_Asset_Research_Phase_IT_Decisions_Makers__V9_1_copy_2_Vous_cherchez____valuer_votre__r_seau_pour_une_meilleure__solut_0_Layer0_0_MEMBER_33_FILL"/>
</g>

<g transform="matrix( 2.815704345703125, 0, 0, 2.832611083984375, 0.15,16.6) ">
<use xlink:href="#IT_300x250_FR_psd_Asset_Research_Phase_IT_Decisions_Makers__V9_1_copy_2_Vous_cherchez____valuer_votre__r_seau_pour_une_meilleure__solut_0_Layer0_0_MEMBER_34_FILL"/>
</g>

<g transform="matrix( 2.815704345703125, 0, 0, 2.832611083984375, 0.15,16.6) ">
<use xlink:href="#IT_300x250_FR_psd_Asset_Research_Phase_IT_Decisions_Makers__V9_1_copy_2_Vous_cherchez____valuer_votre__r_seau_pour_une_meilleure__solut_0_Layer0_0_MEMBER_35_FILL"/>
</g>

<g transform="matrix( 2.815704345703125, 0, 0, 2.832611083984375, 0.15,16.6) ">
<use xlink:href="#IT_300x250_FR_psd_Asset_Research_Phase_IT_Decisions_Makers__V9_1_copy_2_Vous_cherchez____valuer_votre__r_seau_pour_une_meilleure__solut_0_Layer0_0_MEMBER_36_FILL"/>
</g>

<g transform="matrix( 2.815704345703125, 0, 0, 2.832611083984375, 0.15,16.6) ">
<use xlink:href="#IT_300x250_FR_psd_Asset_Research_Phase_IT_Decisions_Makers__V9_1_copy_2_Vous_cherchez____valuer_votre__r_seau_pour_une_meilleure__solut_0_Layer0_0_MEMBER_37_FILL"/>
</g>

<g transform="matrix( 2.815704345703125, 0, 0, 2.832611083984375, 0.15,16.6) ">
<use xlink:href="#IT_300x250_FR_psd_Asset_Research_Phase_IT_Decisions_Makers__V9_1_copy_2_Vous_cherchez____valuer_votre__r_seau_pour_une_meilleure__solut_0_Layer0_0_MEMBER_38_FILL"/>
</g>

<g transform="matrix( 2.815704345703125, 0, 0, 2.832611083984375, 0.15,16.6) ">
<use xlink:href="#IT_300x250_FR_psd_Asset_Research_Phase_IT_Decisions_Makers__V9_1_copy_2_Vous_cherchez____valuer_votre__r_seau_pour_une_meilleure__solut_0_Layer0_0_MEMBER_39_FILL"/>
</g>

<g transform="matrix( 2.815704345703125, 0, 0, 2.832611083984375, 0.15,16.6) ">
<use xlink:href="#IT_300x250_FR_psd_Asset_Research_Phase_IT_Decisions_Makers__V9_1_copy_2_Vous_cherchez____valuer_votre__r_seau_pour_une_meilleure__solut_0_Layer0_0_MEMBER_40_FILL"/>
</g>

<g transform="matrix( 2.815704345703125, 0, 0, 2.832611083984375, 0.15,16.6) ">
<use xlink:href="#IT_300x250_FR_psd_Asset_Research_Phase_IT_Decisions_Makers__V9_1_copy_2_Vous_cherchez____valuer_votre__r_seau_pour_une_meilleure__solut_0_Layer0_0_MEMBER_41_FILL"/>
</g>

<g transform="matrix( 2.815704345703125, 0, 0, 2.832611083984375, 0.15,16.6) ">
<use xlink:href="#IT_300x250_FR_psd_Asset_Research_Phase_IT_Decisions_Makers__V9_1_copy_2_Vous_cherchez____valuer_votre__r_seau_pour_une_meilleure__solut_0_Layer0_0_MEMBER_42_FILL"/>
</g>

<g transform="matrix( 2.815704345703125, 0, 0, 2.832611083984375, 0.15,16.6) ">
<use xlink:href="#IT_300x250_FR_psd_Asset_Research_Phase_IT_Decisions_Makers__V9_1_copy_2_Vous_cherchez____valuer_votre__r_seau_pour_une_meilleure__solut_0_Layer0_0_MEMBER_43_FILL"/>
</g>

<g transform="matrix( 2.815704345703125, 0, 0, 2.832611083984375, 0.15,16.6) ">
<use xlink:href="#IT_300x250_FR_psd_Asset_Research_Phase_IT_Decisions_Makers__V9_1_copy_2_Vous_cherchez____valuer_votre__r_seau_pour_une_meilleure__solut_0_Layer0_0_MEMBER_44_FILL"/>
</g>

<g transform="matrix( 2.815704345703125, 0, 0, 2.832611083984375, 0.15,16.6) ">
<use xlink:href="#IT_300x250_FR_psd_Asset_Research_Phase_IT_Decisions_Makers__V9_1_copy_2_Vous_cherchez____valuer_votre__r_seau_pour_une_meilleure__solut_0_Layer0_0_MEMBER_45_FILL"/>
</g>

<g transform="matrix( 2.815704345703125, 0, 0, 2.832611083984375, 0.15,16.6) ">
<use xlink:href="#IT_300x250_FR_psd_Asset_Research_Phase_IT_Decisions_Makers__V9_1_copy_2_Vous_cherchez____valuer_votre__r_seau_pour_une_meilleure__solut_0_Layer0_0_MEMBER_46_FILL"/>
</g>

<g transform="matrix( 2.815704345703125, 0, 0, 2.832611083984375, 0.15,16.6) ">
<use xlink:href="#IT_300x250_FR_psd_Asset_Research_Phase_IT_Decisions_Makers__V9_1_copy_2_Vous_cherchez____valuer_votre__r_seau_pour_une_meilleure__solut_0_Layer0_0_MEMBER_47_FILL"/>
</g>

<g transform="matrix( 2.815704345703125, 0, 0, 2.832611083984375, 0.15,16.6) ">
<use xlink:href="#IT_300x250_FR_psd_Asset_Research_Phase_IT_Decisions_Makers__V9_1_copy_2_Vous_cherchez____valuer_votre__r_seau_pour_une_meilleure__solut_0_Layer0_0_MEMBER_48_FILL"/>
</g>

<g transform="matrix( 2.815704345703125, 0, 0, 2.832611083984375, 0.15,16.6) ">
<use xlink:href="#IT_300x250_FR_psd_Asset_Research_Phase_IT_Decisions_Makers__V9_1_copy_2_Vous_cherchez____valuer_votre__r_seau_pour_une_meilleure__solut_0_Layer0_0_MEMBER_49_FILL"/>
</g>

<g transform="matrix( 2.815704345703125, 0, 0, 2.832611083984375, 0.15,16.6) ">
<use xlink:href="#IT_300x250_FR_psd_Asset_Research_Phase_IT_Decisions_Makers__V9_1_copy_2_Vous_cherchez____valuer_votre__r_seau_pour_une_meilleure__solut_0_Layer0_0_MEMBER_50_FILL"/>
</g>

<g transform="matrix( 2.815704345703125, 0, 0, 2.832611083984375, 0.15,16.6) ">
<use xlink:href="#IT_300x250_FR_psd_Asset_Research_Phase_IT_Decisions_Makers__V9_1_copy_2_Vous_cherchez____valuer_votre__r_seau_pour_une_meilleure__solut_0_Layer0_0_MEMBER_51_FILL"/>
</g>

<g transform="matrix( 2.815704345703125, 0, 0, 2.832611083984375, 0.15,16.6) ">
<use xlink:href="#IT_300x250_FR_psd_Asset_Research_Phase_IT_Decisions_Makers__V9_1_copy_2_Vous_cherchez____valuer_votre__r_seau_pour_une_meilleure__solut_0_Layer0_0_MEMBER_52_FILL"/>
</g>

<g transform="matrix( 2.815704345703125, 0, 0, 2.832611083984375, 0.15,16.6) ">
<use xlink:href="#IT_300x250_FR_psd_Asset_Research_Phase_IT_Decisions_Makers__V9_1_copy_2_Vous_cherchez____valuer_votre__r_seau_pour_une_meilleure__solut_0_Layer0_0_MEMBER_53_FILL"/>
</g>

<g transform="matrix( 2.815704345703125, 0, 0, 2.832611083984375, 0.15,16.6) ">
<use xlink:href="#IT_300x250_FR_psd_Asset_Research_Phase_IT_Decisions_Makers__V9_1_copy_2_Vous_cherchez____valuer_votre__r_seau_pour_une_meilleure__solut_0_Layer0_0_MEMBER_54_FILL"/>
</g>

<g transform="matrix( 2.815704345703125, 0, 0, 2.832611083984375, 0.15,16.6) ">
<use xlink:href="#IT_300x250_FR_psd_Asset_Research_Phase_IT_Decisions_Makers__V9_1_copy_2_Vous_cherchez____valuer_votre__r_seau_pour_une_meilleure__solut_0_Layer0_0_MEMBER_55_FILL"/>
</g>

<g transform="matrix( 2.815704345703125, 0, 0, 2.832611083984375, 0.15,16.6) ">
<use xlink:href="#IT_300x250_FR_psd_Asset_Research_Phase_IT_Decisions_Makers__V9_1_copy_2_Vous_cherchez____valuer_votre__r_seau_pour_une_meilleure__solut_0_Layer0_0_MEMBER_56_FILL"/>
</g>

<g transform="matrix( 2.815704345703125, 0, 0, 2.832611083984375, 0.15,16.6) ">
<use xlink:href="#IT_300x250_FR_psd_Asset_Research_Phase_IT_Decisions_Makers__V9_1_copy_2_Vous_cherchez____valuer_votre__r_seau_pour_une_meilleure__solut_0_Layer0_0_MEMBER_57_FILL"/>
</g>

<g transform="matrix( 2.815704345703125, 0, 0, 2.832611083984375, 0.15,16.6) ">
<use xlink:href="#IT_300x250_FR_psd_Asset_Research_Phase_IT_Decisions_Makers__V9_1_copy_2_Vous_cherchez____valuer_votre__r_seau_pour_une_meilleure__solut_0_Layer0_0_MEMBER_58_FILL"/>
</g>

<g transform="matrix( 2.815704345703125, 0, 0, 2.832611083984375, 0.15,16.6) ">
<use xlink:href="#IT_300x250_FR_psd_Asset_Research_Phase_IT_Decisions_Makers__V9_1_copy_2_Vous_cherchez____valuer_votre__r_seau_pour_une_meilleure__solut_0_Layer0_0_MEMBER_59_FILL"/>
</g>

<g transform="matrix( 2.815704345703125, 0, 0, 2.832611083984375, 0.15,16.6) ">
<use xlink:href="#IT_300x250_FR_psd_Asset_Research_Phase_IT_Decisions_Makers__V9_1_copy_2_Vous_cherchez____valuer_votre__r_seau_pour_une_meilleure__solut_0_Layer0_0_MEMBER_60_FILL"/>
</g>

<g transform="matrix( 2.815704345703125, 0, 0, 2.832611083984375, 0.15,16.6) ">
<use xlink:href="#IT_300x250_FR_psd_Asset_Research_Phase_IT_Decisions_Makers__V9_1_copy_2_Vous_cherchez____valuer_votre__r_seau_pour_une_meilleure__solut_0_Layer0_0_MEMBER_61_FILL"/>
</g>

<g transform="matrix( 2.815704345703125, 0, 0, 2.832611083984375, 0.15,16.6) ">
<use xlink:href="#IT_300x250_FR_psd_Asset_Research_Phase_IT_Decisions_Makers__V9_1_copy_2_Vous_cherchez____valuer_votre__r_seau_pour_une_meilleure__solut_0_Layer0_0_MEMBER_62_FILL"/>
</g>

<g transform="matrix( 2.815704345703125, 0, 0, 2.832611083984375, 0.15,16.6) ">
<use xlink:href="#IT_300x250_FR_psd_Asset_Research_Phase_IT_Decisions_Makers__V9_1_copy_2_Vous_cherchez____valuer_votre__r_seau_pour_une_meilleure__solut_0_Layer0_0_MEMBER_63_FILL"/>
</g>

<g transform="matrix( 2.815704345703125, 0, 0, 2.832611083984375, 0.15,16.6) ">
<use xlink:href="#IT_300x250_FR_psd_Asset_Research_Phase_IT_Decisions_Makers__V9_1_copy_2_Vous_cherchez____valuer_votre__r_seau_pour_une_meilleure__solut_0_Layer0_0_MEMBER_64_FILL"/>
</g>
</g>
</g>
</g>
</svg>
