
<svg xmlns="http://www.w3.org/2000/svg" version="1.1" xmlns:xlink="http://www.w3.org/1999/xlink" preserveAspectRatio="none" x="0px" y="0px" width="250px" height="250px" viewBox="0 0 250 250">
<defs>
<g id="BDM_250x250_psd_Asset_1_ManagedWiFi_Awareness_DM8_3_for_a_more__personalized__customer_experience__0_Layer0_0_MEMBER_0_FILL">
<path fill="#D82C26" stroke="none" d="
M 2.15 -4.7
L 1.6 -4.8
Q 1.2 -4.8 0.95 -4.5 0.7 -4.25 0.7 -3.75
L 0.7 -2.9 0.2 -2.9 0.1 -2.6 0.7 -2.6 0.7 0 1.1 0 1.1 -2.6 1.75 -2.6 1.85 -2.9 1.1 -2.9 1.1 -3.75
Q 1.1 -4.15 1.2 -4.25 1.35 -4.45 1.65 -4.45
L 2.1 -4.4 2.15 -4.7 Z"/>
</g>

<g id="BDM_250x250_psd_Asset_1_ManagedWiFi_Awareness_DM8_3_for_a_more__personalized__customer_experience__0_Layer0_0_MEMBER_1_FILL">
<path fill="#D82C26" stroke="none" d="
M 2 -1.45
Q 2 -1.15 2.2 -0.65
L 2.75 -0.1
Q 3.25 0.1 3.55 0.1 3.85 0.1 4.35 -0.1 4.6 -0.25 4.9 -0.65 5.1 -1 5.1 -1.45 5.1 -1.9 4.9 -2.25 4.7 -2.6 4.35 -2.8 4 -3 3.55 -3 3.1 -3 2.75 -2.8 2.35 -2.5 2.2 -2.25 2 -1.75 2 -1.45
M 2.4 -1.45
Q 2.4 -1.9 2.5 -2.1
L 2.95 -2.55
Q 3.2 -2.7 3.55 -2.7 3.9 -2.7 4.2 -2.55
L 4.6 -2.1
Q 4.75 -1.8 4.75 -1.45 4.75 -1.15 4.6 -0.85 4.45 -0.55 4.2 -0.4 3.8 -0.2 3.55 -0.2 3.25 -0.2 2.95 -0.4 2.65 -0.55 2.5 -0.85 2.4 -1.05 2.4 -1.45 Z"/>
</g>

<g id="BDM_250x250_psd_Asset_1_ManagedWiFi_Awareness_DM8_3_for_a_more__personalized__customer_experience__0_Layer0_0_MEMBER_2_FILL">
<path fill="#D82C26" stroke="none" d="
M 6.45 -2.3
Q 6.65 -2.65 7.05 -2.65
L 7.3 -2.65 7.35 -2.95 7.05 -3
Q 6.75 -3 6.55 -2.8 6.4 -2.7 6.2 -2.3
L 6.15 -2.9 5.8 -2.9 5.85 0 6.2 0 6.2 -1.45
Q 6.2 -1.95 6.45 -2.3 Z"/>
</g>

<g id="BDM_250x250_psd_Asset_1_ManagedWiFi_Awareness_DM8_3_for_a_more__personalized__customer_experience__0_Layer0_0_MEMBER_3_FILL">
<path fill="#D82C26" stroke="none" d="
M 8.65 -0.8
Q 8.65 -0.35 8.95 -0.15 9.2 0.1 9.6 0.1 10 0.1 10.25 -0.1 10.6 -0.25 10.65 -0.55
L 10.7 -0.55 10.7 -0.25 10.75 0 11.05 0 11 -1.9
Q 11 -2.45 10.7 -2.7 10.5 -3 9.9 -3
L 9.3 -2.9 8.8 -2.65 8.9 -2.35 9.35 -2.6 9.85 -2.7
Q 10.25 -2.7 10.45 -2.5 10.7 -2.25 10.7 -1.9
L 10.7 -1.75 10.3 -1.75
Q 8.65 -1.75 8.65 -0.8
M 9.2 -0.35
Q 9 -0.5 9 -0.8 9 -1.5 10.35 -1.5
L 10.7 -1.5 10.7 -1.2 10.55 -0.75
Q 10.5 -0.55 10.2 -0.35 10 -0.2 9.65 -0.2 9.35 -0.2 9.2 -0.35 Z"/>
</g>

<g id="BDM_250x250_psd_Asset_1_ManagedWiFi_Awareness_DM8_3_for_a_more__personalized__customer_experience__0_Layer0_0_MEMBER_4_FILL">
<path fill="#D82C26" stroke="none" d="
M 15 -2.8
Q 14.8 -3 14.4 -3 14.05 -3 13.8 -2.8 13.55 -2.6 13.4 -2.3
L 13.35 -2.9 13 -2.9 13.05 0 13.4 0 13.4 -1.45
Q 13.4 -1.85 13.55 -2.1 13.65 -2.4 13.85 -2.55 14.1 -2.7 14.3 -2.7 14.7 -2.7 14.85 -2.45 15.05 -2.2 15.05 -1.7
L 15.05 0 15.4 0 15.4 -1.5
Q 15.4 -2.05 15.7 -2.35 15.9 -2.7 16.35 -2.7 16.75 -2.7 16.95 -2.4 17.1 -2.1 17.1 -1.65
L 17.1 0 17.45 0 17.45 -1.75
Q 17.45 -2.35 17.2 -2.65 17 -3 16.4 -3 16 -3 15.75 -2.8 15.45 -2.5 15.35 -2.25 15.3 -2.5 15 -2.8 Z"/>
</g>

<g id="BDM_250x250_psd_Asset_1_ManagedWiFi_Awareness_DM8_3_for_a_more__personalized__customer_experience__0_Layer0_0_MEMBER_5_FILL">
<path fill="#D82C26" stroke="none" d="
M 18.95 -2.8
Q 18.5 -2.55 18.4 -2.25 18.2 -1.9 18.2 -1.45 18.2 -1 18.4 -0.65 18.55 -0.35 18.95 -0.1 19.35 0.1 19.75 0.1 20.1 0.1 20.5 -0.1 20.85 -0.3 21.1 -0.65 21.3 -1.15 21.3 -1.45 21.3 -1.75 21.1 -2.25 20.9 -2.55 20.5 -2.8 20.25 -3 19.75 -3 19.2 -3 18.95 -2.8
M 19.1 -2.55
Q 19.4 -2.7 19.75 -2.7 20.05 -2.7 20.35 -2.55 20.55 -2.4 20.75 -2.1 20.9 -1.8 20.9 -1.45 20.9 -1.15 20.75 -0.85 20.6 -0.5 20.35 -0.4 20.05 -0.2 19.75 -0.2 19.5 -0.2 19.1 -0.4 18.85 -0.5 18.7 -0.85 18.55 -1.15 18.55 -1.45 18.55 -1.8 18.7 -2.1 18.9 -2.4 19.1 -2.55 Z"/>
</g>

<g id="BDM_250x250_psd_Asset_1_ManagedWiFi_Awareness_DM8_3_for_a_more__personalized__customer_experience__0_Layer0_0_MEMBER_6_FILL">
<path fill="#D82C26" stroke="none" d="
M 22.35 -2.9
L 22 -2.9 22 0 22.4 0 22.4 -1.45
Q 22.4 -2.05 22.6 -2.3 22.8 -2.65 23.2 -2.65
L 23.45 -2.65 23.55 -2.95 23.25 -3
Q 22.95 -3 22.75 -2.8 22.5 -2.65 22.4 -2.3
L 22.35 -2.3 22.35 -2.9 Z"/>
</g>

<g id="BDM_250x250_psd_Asset_1_ManagedWiFi_Awareness_DM8_3_for_a_more__personalized__customer_experience__0_Layer0_0_MEMBER_7_FILL">
<path fill="#D82C26" stroke="none" d="
M 25.15 -3
Q 24.75 -3 24.4 -2.8 24 -2.5 23.9 -2.25 23.7 -2 23.7 -1.45 23.7 -1 23.9 -0.65 24.2 -0.25 24.45 -0.1 24.85 0.1 25.2 0.1 25.85 0.1 26.35 -0.3
L 26.3 -0.6 25.8 -0.3 25.25 -0.2
Q 24.9 -0.2 24.65 -0.35 24.3 -0.6 24.2 -0.8 24.05 -1.1 24.05 -1.4
L 26.55 -1.4 26.55 -1.55
Q 26.55 -1.95 26.35 -2.3 26.15 -2.65 25.9 -2.8 25.65 -3 25.15 -3
M 24.55 -2.55
Q 24.85 -2.7 25.15 -2.7 25.55 -2.7 25.9 -2.45 26.2 -2.15 26.2 -1.65
L 24.05 -1.65
Q 24.05 -1.9 24.2 -2.15
L 24.55 -2.55 Z"/>
</g>

<g id="BDM_250x250_psd_Asset_1_ManagedWiFi_Awareness_DM8_3_for_a_more__personalized__customer_experience__0_Layer0_0_MEMBER_8_FILL">
<path fill="#D82C26" stroke="none" d="
M 2.15 4.35
Q 1.7 4.35 1.45 4.55 1.15 4.7 0.95 5.05
L 0.9 4.45 0.55 4.45 0.55 8.85 0.95 8.85 0.95 6.7
Q 1.1 7.05 1.45 7.25 1.75 7.4 2.15 7.4 2.55 7.4 2.9 7.2 3.25 7.05 3.4 6.65 3.6 6.4 3.6 5.9 3.6 5.45 3.4 5.1 3.3 4.85 2.9 4.55 2.55 4.35 2.15 4.35
M 1.5 4.8
Q 1.75 4.65 2.1 4.65 2.4 4.65 2.7 4.8
L 3.1 5.25 3.2 5.9 3.1 6.5
Q 2.95 6.8 2.7 6.95 2.4 7.1 2.1 7.1 1.75 7.1 1.5 6.95 1.2 6.8 1.05 6.5
L 0.95 5.9 1.05 5.25 1.5 4.8 Z"/>
</g>

<g id="BDM_250x250_psd_Asset_1_ManagedWiFi_Awareness_DM8_3_for_a_more__personalized__customer_experience__0_Layer0_0_MEMBER_9_FILL">
<path fill="#D82C26" stroke="none" d="
M 6.35 4.55
Q 6.1 4.35 5.6 4.35 5.2 4.35 4.85 4.55 4.5 4.75 4.35 5.1 4.15 5.35 4.15 5.85 4.15 6.35 4.35 6.7 4.5 7 4.9 7.25 5.3 7.45 5.65 7.45 6.3 7.45 6.8 7.05
L 6.75 6.75 6.25 7
Q 6.05 7.15 5.7 7.15 5.3 7.15 5.1 6.95 4.85 6.8 4.65 6.55 4.5 6.25 4.5 5.95
L 6.95 5.95 7 5.8
Q 7 5.4 6.8 5.05 6.6 4.7 6.35 4.55
M 6.35 4.9
Q 6.55 5.1 6.65 5.65
L 4.5 5.65 4.65 5.2
Q 4.85 4.9 5 4.8 5.3 4.65 5.6 4.65 6.1 4.65 6.35 4.9 Z"/>
</g>

<g id="BDM_250x250_psd_Asset_1_ManagedWiFi_Awareness_DM8_3_for_a_more__personalized__customer_experience__0_Layer0_0_MEMBER_10_FILL">
<path fill="#D82C26" stroke="none" d="
M 9.25 4.4
L 8.9 4.35
Q 8.65 4.35 8.4 4.55 8.25 4.65 8.05 5.05
L 8.05 4.45 7.7 4.45 7.7 7.35 8.1 7.35 8.1 5.9
Q 8.1 5.3 8.3 5.05 8.55 4.65 8.9 4.65
L 9.15 4.7 9.25 4.4 Z"/>
</g>

<g id="BDM_250x250_psd_Asset_1_ManagedWiFi_Awareness_DM8_3_for_a_more__personalized__customer_experience__0_Layer0_0_MEMBER_11_FILL">
<path fill="#D82C26" stroke="none" d="
M 11.05 4.45
Q 10.9 4.35 10.55 4.35 10.2 4.35 10.05 4.45 9.9 4.5 9.7 4.7 9.55 4.95 9.55 5.15 9.55 5.45 9.75 5.65
L 11 6.25
Q 11.2 6.4 11.2 6.6 11.2 6.85 11 7 10.8 7.15 10.55 7.15 10.1 7.15 9.55 6.8
L 9.5 7.1 9.95 7.35 10.55 7.4 11.05 7.35 11.4 7.05 11.55 6.6
Q 11.55 6.3 11.3 6.05 11.1 5.85 10.65 5.7 10.35 5.65 10.05 5.45 9.9 5.4 9.9 5.1 9.9 4.9 10.1 4.75
L 10.55 4.65 10.95 4.7 11.3 4.9 11.45 4.65 11.05 4.45 Z"/>
</g>

<g id="BDM_250x250_psd_Asset_1_ManagedWiFi_Awareness_DM8_3_for_a_more__personalized__customer_experience__0_Layer0_0_MEMBER_12_FILL">
<path fill="#D82C26" stroke="none" d="
M 12.25 5.1
Q 12.05 5.35 12.05 5.9 12.05 6.35 12.25 6.7 12.55 7.1 12.8 7.25 13.3 7.45 13.6 7.45 13.9 7.45 14.4 7.25
L 14.95 6.7
Q 15.15 6.35 15.15 5.9 15.15 5.35 14.95 5.1 14.7 4.7 14.4 4.55 14.05 4.35 13.6 4.35 13.15 4.35 12.8 4.55 12.5 4.65 12.25 5.1
M 12.4 5.9
Q 12.4 5.55 12.55 5.25
L 12.95 4.8
Q 13.25 4.65 13.6 4.65 14 4.65 14.2 4.8
L 14.65 5.25
Q 14.8 5.55 14.8 5.9 14.8 6.2 14.65 6.5 14.5 6.8 14.2 6.95 14 7.1 13.6 7.1 13.25 7.1 12.95 6.95 12.7 6.8 12.55 6.5 12.4 6.2 12.4 5.9 Z"/>
</g>

<g id="BDM_250x250_psd_Asset_1_ManagedWiFi_Awareness_DM8_3_for_a_more__personalized__customer_experience__0_Layer0_0_MEMBER_13_FILL">
<path fill="#D82C26" stroke="none" d="
M 16.2 4.45
L 15.85 4.45 15.9 7.35 16.25 7.35 16.25 5.85
Q 16.25 5.5 16.4 5.2 16.45 5 16.75 4.8 17 4.65 17.25 4.65 17.65 4.65 17.85 4.95 18 5.25 18 5.65
L 18 7.35 18.4 7.35 18.4 5.55
Q 18.4 5.1 18.1 4.7 17.9 4.35 17.3 4.35 16.9 4.35 16.65 4.55 16.45 4.65 16.25 5.05
L 16.2 4.45 Z"/>
</g>

<g id="BDM_250x250_psd_Asset_1_ManagedWiFi_Awareness_DM8_3_for_a_more__personalized__customer_experience__0_Layer0_0_MEMBER_14_FILL">
<path fill="#D82C26" stroke="none" d="
M 21.1 5.6
L 20.75 5.6
Q 19.1 5.6 19.1 6.55 19.1 7 19.35 7.2 19.6 7.4 20 7.4 20.35 7.4 20.65 7.25 20.95 7.1 21.1 6.8
L 21.15 7.1 21.15 7.35 21.5 7.35 21.45 5.45
Q 21.45 4.9 21.15 4.6 20.8 4.35 20.3 4.35 19.9 4.35 19.75 4.45
L 19.25 4.7 19.35 5
Q 19.55 4.8 19.8 4.75 19.95 4.65 20.25 4.65 20.7 4.65 20.9 4.85 21.1 5 21.1 5.45
L 21.1 5.6
M 21.1 5.85
L 21.1 6.15 21 6.6 20.65 7
Q 20.45 7.15 20.1 7.15 19.85 7.15 19.6 7 19.45 6.85 19.45 6.55 19.45 5.85 20.8 5.85
L 21.1 5.85 Z"/>
</g>

<g id="BDM_250x250_psd_Asset_1_ManagedWiFi_Awareness_DM8_3_for_a_more__personalized__customer_experience__0_Layer0_0_MEMBER_15_FILL">
<path fill="#D82C26" stroke="none" d="
M 22.45 7.15
Q 22.55 7.25 22.8 7.4
L 23 7.1 22.75 6.95 22.7 6.6 22.7 2.6 22.35 2.7 22.35 6.7 22.45 7.15 Z"/>
</g>

<g id="BDM_250x250_psd_Asset_1_ManagedWiFi_Awareness_DM8_3_for_a_more__personalized__customer_experience__0_Layer0_0_MEMBER_16_FILL">
<path fill="#D82C26" stroke="none" d="
M 24.05 4.45
L 23.7 4.45 23.7 7.35 24.05 7.35 24.05 4.45
M 23.7 3.45
L 23.85 3.55 24.05 3.45 24.1 3.25 24.05 3.1 23.85 3 23.7 3.1
Q 23.6 3.15 23.6 3.25 23.6 3.4 23.7 3.45 Z"/>
</g>

<g id="BDM_250x250_psd_Asset_1_ManagedWiFi_Awareness_DM8_3_for_a_more__personalized__customer_experience__0_Layer0_0_MEMBER_17_FILL">
<path fill="#D82C26" stroke="none" d="
M 26.9 4.7
L 26.9 4.45 24.75 4.45 24.7 4.7 26.45 4.7 24.65 7.05 24.65 7.35 26.95 7.35 27 7.05 25.1 7.05 26.9 4.7 Z"/>
</g>

<g id="BDM_250x250_psd_Asset_1_ManagedWiFi_Awareness_DM8_3_for_a_more__personalized__customer_experience__0_Layer0_0_MEMBER_18_FILL">
<path fill="#D82C26" stroke="none" d="
M 27.5 5.1
Q 27.3 5.35 27.3 5.85 27.3 6.35 27.5 6.7 27.8 7.1 28.05 7.25 28.45 7.45 28.8 7.45 29.45 7.45 29.95 7.05
L 29.9 6.75 29.45 7
Q 29.15 7.15 28.85 7.15 28.45 7.15 28.25 6.95 28 6.8 27.8 6.55 27.65 6.25 27.65 5.95
L 30.15 5.95 30.15 5.8
Q 30.15 5.4 29.95 5.05 29.75 4.7 29.5 4.55 29.25 4.35 28.75 4.35 28.35 4.35 28 4.55 27.65 4.75 27.5 5.1
M 27.65 5.65
L 27.8 5.2
Q 28 4.9 28.2 4.8 28.45 4.65 28.75 4.65 29.25 4.65 29.5 4.9 29.8 5.2 29.8 5.65
L 27.65 5.65 Z"/>
</g>

<g id="BDM_250x250_psd_Asset_1_ManagedWiFi_Awareness_DM8_3_for_a_more__personalized__customer_experience__0_Layer0_0_MEMBER_19_FILL">
<path fill="#D82C26" stroke="none" d="
M 33.7 2.55
L 33.35 2.65 33.35 5.05
Q 33.05 4.65 32.85 4.55 32.5 4.35 32.15 4.35 31.65 4.35 31.4 4.55 31.05 4.75 30.85 5.1 30.7 5.5 30.7 5.9 30.7 6.35 30.85 6.65 31.1 7.1 31.4 7.2 31.65 7.4 32.15 7.4 32.55 7.4 32.85 7.25 33.15 7 33.35 6.7
L 33.4 7.35 33.75 7.35 33.7 2.55
M 32.2 4.65
Q 32.5 4.65 32.8 4.8
L 33.2 5.25
Q 33.35 5.55 33.35 5.9 33.35 6.2 33.2 6.5 33.05 6.8 32.8 6.95 32.5 7.1 32.2 7.1 31.85 7.1 31.6 6.95 31.35 6.85 31.2 6.5 31.05 6.2 31.05 5.9 31.05 5.55 31.2 5.25 31.4 4.95 31.6 4.8 31.85 4.65 32.2 4.65 Z"/>
</g>

<g id="BDM_250x250_psd_Asset_1_ManagedWiFi_Awareness_DM8_3_for_a_more__personalized__customer_experience__0_Layer0_0_MEMBER_20_FILL">
<path fill="#D82C26" stroke="none" d="
M 1.9 11.7
Q 1.45 11.7 1.1 11.9 0.8 12 0.55 12.45 0.35 12.7 0.35 13.25 0.35 13.7 0.55 14.05 0.7 14.35 1.1 14.6 1.4 14.75 1.85 14.75 2.25 14.75 2.45 14.65
L 2.85 14.4 2.8 14.1
Q 2.7 14.25 2.4 14.35 2.25 14.45 1.9 14.45 1.55 14.45 1.3 14.3 1 14.15 0.85 13.85 0.75 13.65 0.75 13.25 0.75 12.8 0.85 12.6
L 1.3 12.15
Q 1.55 12 1.9 12 2.2 12 2.35 12.1
L 2.7 12.3 2.85 12.05 2.45 11.8
Q 2.25 11.7 1.9 11.7 Z"/>
</g>

<g id="BDM_250x250_psd_Asset_1_ManagedWiFi_Awareness_DM8_3_for_a_more__personalized__customer_experience__0_Layer0_0_MEMBER_21_FILL">
<path fill="#D82C26" stroke="none" d="
M 3.8 11.8
L 3.4 11.8 3.4 13.55
Q 3.4 14.1 3.7 14.4 3.9 14.75 4.5 14.75 4.9 14.75 5.15 14.55 5.35 14.45 5.55 14.05
L 5.6 14.7 5.95 14.7 5.9 14.35 5.9 11.8 5.55 11.8 5.55 13.25
Q 5.55 13.6 5.4 13.9 5.3 14.2 5.05 14.3 4.9 14.45 4.6 14.45 4.2 14.45 3.95 14.2 3.8 13.9 3.8 13.45
L 3.8 11.8 Z"/>
</g>

<g id="BDM_250x250_psd_Asset_1_ManagedWiFi_Awareness_DM8_3_for_a_more__personalized__customer_experience__0_Layer0_0_MEMBER_22_FILL">
<path fill="#D82C26" stroke="none" d="
M 7.2 11.8
Q 6.95 11.9 6.85 12.05 6.7 12.2 6.7 12.5 6.7 12.8 6.9 13
L 8.15 13.6
Q 8.3 13.7 8.3 13.95 8.3 14.2 8.1 14.35 7.95 14.5 7.65 14.5 7.15 14.5 6.7 14.15
L 6.65 14.45 7.1 14.7 7.7 14.75
Q 8 14.75 8.15 14.65 8.4 14.55 8.5 14.4 8.65 14.2 8.65 13.9 8.65 13.6 8.45 13.4
L 7.2 12.8
Q 7.05 12.75 7.05 12.45 7.05 12.25 7.2 12.1 7.35 12 7.65 12
L 8.1 12.05 8.4 12.25 8.6 12 8.15 11.8
Q 8 11.7 7.65 11.7 7.35 11.7 7.2 11.8 Z"/>
</g>

<g id="BDM_250x250_psd_Asset_1_ManagedWiFi_Awareness_DM8_3_for_a_more__personalized__customer_experience__0_Layer0_0_MEMBER_23_FILL">
<path fill="#D82C26" stroke="none" d="
M 10.65 12.05
L 10.75 11.8 9.9 11.8 9.9 10.95 9.55 11.1 9.55 11.8 9.1 11.8 9 12.05 9.55 12.05 9.55 14
Q 9.55 14.35 9.75 14.55 9.9 14.75 10.25 14.75
L 10.55 14.7 10.85 14.6 10.8 14.3
Q 10.6 14.45 10.35 14.45 10.15 14.45 10.05 14.35 9.9 14.2 9.9 13.95
L 9.9 12.05 10.65 12.05 Z"/>
</g>

<g id="BDM_250x250_psd_Asset_1_ManagedWiFi_Awareness_DM8_3_for_a_more__personalized__customer_experience__0_Layer0_0_MEMBER_24_FILL">
<path fill="#D82C26" stroke="none" d="
M 12.6 11.7
Q 12.1 11.7 11.85 11.9 11.45 12.05 11.3 12.45 11.1 12.7 11.1 13.25 11.1 13.75 11.3 14 11.45 14.4 11.85 14.55 12.1 14.75 12.6 14.75 13.15 14.75 13.4 14.55 13.8 14.4 13.95 14 14.2 13.65 14.2 13.25 14.2 12.8 13.95 12.45 13.8 12.05 13.4 11.9 13.15 11.7 12.6 11.7
M 12.6 12
Q 12.95 12 13.25 12.15 13.5 12.25 13.65 12.6 13.8 12.9 13.8 13.25 13.8 13.55 13.65 13.85 13.5 14.2 13.25 14.3 12.95 14.45 12.6 14.45 12.3 14.45 12 14.3 11.75 14.2 11.6 13.85 11.45 13.55 11.45 13.25 11.45 12.9 11.6 12.6 11.75 12.25 12 12.15 12.3 12 12.6 12 Z"/>
</g>

<g id="BDM_250x250_psd_Asset_1_ManagedWiFi_Awareness_DM8_3_for_a_more__personalized__customer_experience__0_Layer0_0_MEMBER_25_FILL">
<path fill="#D82C26" stroke="none" d="
M 15.75 12.15
Q 16 12 16.2 12 16.5 12 16.75 12.25 16.95 12.55 16.95 12.95
L 16.95 14.7 17.3 14.7 17.3 13.2
Q 17.3 12.7 17.55 12.3 17.8 12 18.2 12 18.65 12 18.8 12.3 19 12.7 19 13.05
L 19 14.7 19.35 14.7 19.35 12.95
Q 19.35 12.45 19.1 12.05 18.8 11.7 18.3 11.7 17.9 11.7 17.65 11.9 17.45 12 17.25 12.45 17.1 12 16.9 11.9 16.7 11.7 16.3 11.7 15.9 11.7 15.7 11.9 15.4 12.05 15.3 12.4
L 15.25 12.4 15.25 11.8 14.9 11.8 14.9 14.7 15.3 14.7 15.3 13.25 15.4 12.55 15.75 12.15 Z"/>
</g>

<g id="BDM_250x250_psd_Asset_1_ManagedWiFi_Awareness_DM8_3_for_a_more__personalized__customer_experience__0_Layer0_0_MEMBER_26_FILL">
<path fill="#D82C26" stroke="none" d="
M 21.5 11.7
Q 21.1 11.7 20.75 11.9 20.55 12 20.25 12.4 20.05 12.9 20.05 13.2 20.05 13.6 20.25 14 20.5 14.45 20.8 14.55 21.05 14.75 21.55 14.75 22.3 14.75 22.7 14.4
L 22.65 14.1 22.2 14.35
Q 22 14.45 21.6 14.45 21.25 14.45 21 14.3 20.8 14.2 20.6 13.9 20.4 13.5 20.4 13.3
L 22.9 13.3 22.9 13.15
Q 22.9 12.7 22.75 12.4 22.45 12 22.25 11.9 22 11.7 21.5 11.7
M 21.5 11.95
Q 21.95 11.95 22.25 12.25 22.55 12.55 22.55 13
L 20.45 13 20.55 12.55
Q 20.75 12.25 20.95 12.15 21.25 11.95 21.5 11.95 Z"/>
</g>

<g id="BDM_250x250_psd_Asset_1_ManagedWiFi_Awareness_DM8_3_for_a_more__personalized__customer_experience__0_Layer0_0_MEMBER_27_FILL">
<path fill="#D82C26" stroke="none" d="
M 23.95 11.8
L 23.6 11.8 23.6 14.7 24 14.7 24 13.25
Q 24 12.7 24.2 12.35 24.45 12 24.8 12
L 25.05 12.05 25.15 11.75 24.85 11.7
Q 24.55 11.7 24.35 11.9 24.1 12.1 24 12.4
L 23.95 12.4 23.95 11.8 Z"/>
</g>

<g id="BDM_250x250_psd_Asset_1_ManagedWiFi_Awareness_DM8_3_for_a_more__personalized__customer_experience__0_Layer0_0_MEMBER_28_FILL">
<path fill="#D82C26" stroke="none" d="
M 27.85 11.7
Q 27.4 11.7 27.15 11.9 26.9 12 26.6 12.4 26.4 12.9 26.4 13.2 26.4 13.6 26.6 14 26.85 14.45 27.15 14.55 27.4 14.75 27.9 14.75 28.65 14.75 29.05 14.4
L 29 14.1 28.55 14.35
Q 28.35 14.45 27.95 14.45 27.6 14.45 27.35 14.3 27.15 14.2 26.95 13.9
L 26.75 13.3 29.25 13.3 29.25 13.15
Q 29.25 12.7 29.1 12.4 28.95 12.05 28.6 11.9 28.35 11.7 27.85 11.7
M 27.85 11.95
Q 28.3 11.95 28.6 12.25 28.9 12.55 28.9 13
L 26.8 13 26.9 12.55 27.3 12.15
Q 27.6 11.95 27.85 11.95 Z"/>
</g>

<g id="BDM_250x250_psd_Asset_1_ManagedWiFi_Awareness_DM8_3_for_a_more__personalized__customer_experience__0_Layer0_0_MEMBER_29_FILL">
<path fill="#D82C26" stroke="none" d="
M 32.15 11.8
L 31.75 11.8 30.9 12.9 30.1 11.8 29.65 11.8 30.7 13.15 29.55 14.7 29.95 14.7 30.9 13.4 31.85 14.7 32.3 14.7 31.15 13.15 32.15 11.8 Z"/>
</g>

<g id="BDM_250x250_psd_Asset_1_ManagedWiFi_Awareness_DM8_3_for_a_more__personalized__customer_experience__0_Layer0_0_MEMBER_30_FILL">
<path fill="#D82C26" stroke="none" d="
M 33.2 11.8
L 32.85 11.8 32.85 16.2 33.25 16.2 33.25 14.05
Q 33.4 14.4 33.75 14.6 34.05 14.75 34.4 14.75 34.85 14.75 35.2 14.55 35.45 14.45 35.7 14 35.9 13.6 35.9 13.25 35.9 12.95 35.7 12.45 35.5 12.15 35.2 11.9 34.85 11.7 34.4 11.7 34.05 11.7 33.7 11.9 33.45 12.05 33.25 12.4
L 33.2 12.4 33.2 11.8
M 34.35 12
Q 34.75 12 34.95 12.15 35.15 12.3 35.35 12.6 35.5 12.9 35.5 13.25 35.5 13.55 35.35 13.85 35.2 14.2 34.95 14.3 34.75 14.45 34.35 14.45 34.05 14.45 33.8 14.3 33.5 14.15 33.35 13.85 33.2 13.55 33.2 13.25 33.2 12.9 33.35 12.6
L 33.8 12.15
Q 34.05 12 34.35 12 Z"/>
</g>

<g id="BDM_250x250_psd_Asset_1_ManagedWiFi_Awareness_DM8_3_for_a_more__personalized__customer_experience__0_Layer0_0_MEMBER_31_FILL">
<path fill="#D82C26" stroke="none" d="
M 37.9 11.7
Q 37.4 11.7 37.15 11.9 36.8 12.05 36.65 12.4 36.45 12.75 36.45 13.2 36.45 13.75 36.65 14 36.8 14.4 37.15 14.55 37.5 14.75 37.95 14.75 38.6 14.75 39.1 14.4
L 39.05 14.1 38.55 14.35
Q 38.35 14.45 37.95 14.45 37.65 14.45 37.35 14.3
L 36.95 13.9
Q 36.8 13.6 36.8 13.3
L 39.25 13.3 39.25 13.15
Q 39.25 12.7 39.1 12.4 38.9 12.05 38.65 11.9 38.3 11.7 37.9 11.7
M 37.9 11.95
Q 38.35 11.95 38.65 12.25 38.9 12.6 38.9 13
L 36.8 13
Q 36.8 12.8 36.95 12.55
L 37.3 12.15
Q 37.6 11.95 37.9 11.95 Z"/>
</g>

<g id="BDM_250x250_psd_Asset_1_ManagedWiFi_Awareness_DM8_3_for_a_more__personalized__customer_experience__0_Layer0_0_MEMBER_32_FILL">
<path fill="#D82C26" stroke="none" d="
M 41.2 11.7
Q 40.9 11.7 40.7 11.9 40.55 12 40.35 12.4
L 40.3 11.8 39.95 11.8 40 14.7 40.35 14.7 40.35 13.25
Q 40.35 12.75 40.6 12.35 40.85 12 41.2 12
L 41.45 12.05 41.5 11.75 41.2 11.7 Z"/>
</g>

<g id="BDM_250x250_psd_Asset_1_ManagedWiFi_Awareness_DM8_3_for_a_more__personalized__customer_experience__0_Layer0_0_MEMBER_33_FILL">
<path fill="#D82C26" stroke="none" d="
M 42.4 11.8
L 42 11.8 42 14.7 42.4 14.7 42.4 11.8
M 42.4 10.8
L 42.45 10.6 42.4 10.4 42.2 10.35 42 10.45 41.95 10.6 42 10.8 42.2 10.9 42.4 10.8 Z"/>
</g>

<g id="BDM_250x250_psd_Asset_1_ManagedWiFi_Awareness_DM8_3_for_a_more__personalized__customer_experience__0_Layer0_0_MEMBER_34_FILL">
<path fill="#D82C26" stroke="none" d="
M 44.55 11.7
Q 44.1 11.7 43.85 11.9 43.6 12 43.3 12.4 43.15 12.8 43.15 13.2 43.15 13.7 43.3 14 43.55 14.45 43.85 14.55 44.2 14.75 44.6 14.75 45.3 14.75 45.8 14.4
L 45.7 14.1
Q 45.5 14.3 45.25 14.35 45.05 14.45 44.65 14.45 44.35 14.45 44.05 14.3 43.85 14.2 43.65 13.9 43.5 13.6 43.5 13.3
L 45.95 13.3 45.95 13.15
Q 45.95 12.7 45.8 12.4 45.6 12.05 45.3 11.9 45.05 11.7 44.55 11.7
M 44.55 11.95
Q 45.1 11.95 45.3 12.25 45.6 12.55 45.6 13
L 43.5 13 43.65 12.55
Q 43.7 12.35 44 12.15 44.3 11.95 44.55 11.95 Z"/>
</g>

<g id="BDM_250x250_psd_Asset_1_ManagedWiFi_Awareness_DM8_3_for_a_more__personalized__customer_experience__0_Layer0_0_MEMBER_35_FILL">
<path fill="#D82C26" stroke="none" d="
M 47 11.8
L 46.65 11.8 46.7 14.7 47.05 14.7 47.05 13.2
Q 47.05 12.85 47.2 12.55 47.25 12.35 47.55 12.15 47.8 12 48.05 12 48.45 12 48.65 12.3 48.8 12.6 48.8 13
L 48.8 14.7 49.2 14.7 49.2 12.9
Q 49.2 12.35 48.9 12.05 48.7 11.7 48.1 11.7 47.7 11.7 47.45 11.9 47.25 12 47.05 12.4
L 47 11.8 Z"/>
</g>

<g id="BDM_250x250_psd_Asset_1_ManagedWiFi_Awareness_DM8_3_for_a_more__personalized__customer_experience__0_Layer0_0_MEMBER_36_FILL">
<path fill="#D82C26" stroke="none" d="
M 51.4 11.7
Q 50.9 11.7 50.65 11.9 50.35 12 50.1 12.45 49.9 12.7 49.9 13.25 49.9 13.7 50.1 14.05 50.25 14.35 50.65 14.6 50.95 14.75 51.4 14.75 51.8 14.75 51.95 14.65 52.2 14.6 52.4 14.4
L 52.35 14.1
Q 52.25 14.25 51.95 14.35 51.8 14.45 51.45 14.45 51.1 14.45 50.85 14.3 50.55 14.15 50.4 13.85 50.3 13.65 50.3 13.25 50.3 12.8 50.4 12.6
L 50.85 12.15
Q 51.1 12 51.45 12 51.75 12 51.9 12.1
L 52.25 12.3 52.4 12.05 52 11.8
Q 51.8 11.7 51.4 11.7 Z"/>
</g>

<g id="BDM_250x250_psd_Asset_1_ManagedWiFi_Awareness_DM8_3_for_a_more__personalized__customer_experience__0_Layer0_0_MEMBER_37_FILL">
<path fill="#D82C26" stroke="none" d="
M 54.2 11.7
Q 53.8 11.7 53.45 11.9 53.1 12.05 52.95 12.4 52.75 12.75 52.75 13.2 52.75 13.75 52.95 14 53.2 14.45 53.5 14.55 53.75 14.75 54.25 14.75 55 14.75 55.4 14.4
L 55.35 14.1 54.9 14.35
Q 54.7 14.45 54.3 14.45 53.95 14.45 53.7 14.3 53.45 14.15 53.25 13.9 53.1 13.6 53.1 13.3
L 55.6 13.3 55.6 13.15
Q 55.6 12.65 55.4 12.4 55.2 12.05 54.95 11.9 54.7 11.7 54.2 11.7
M 54.2 11.95
Q 54.65 11.95 54.95 12.25 55.25 12.55 55.25 13
L 53.1 13 53.25 12.55
Q 53.45 12.25 53.65 12.15 53.95 11.95 54.2 11.95 Z"/>
</g>

<g id="BDM_250x250_psd_Asset_1_ManagedWiFi_Awareness_DM8_3_for_a_more__personalized__customer_experience__0_Layer0_0_MEMBER_38_FILL">
<path fill="#D82C26" stroke="none" d="
M 56.3 14.65
L 56.45 14.75 56.65 14.65
Q 56.75 14.6 56.75 14.45 56.75 14.3 56.65 14.25
L 56.45 14.15 56.3 14.25 56.2 14.45 56.3 14.65 Z"/>
</g>
</defs>

<g transform="matrix( 1, 0, 0, 1, -69,-16) ">
<g transform="matrix( 1, 0, 0, 1, 59,31) ">
<g transform="matrix( 1, 0, 0, 1, 33,9) ">
<g transform="matrix( 3.5196380615234375, 0, 0, 3.540771484375, 0.2,17.8) ">
<use xlink:href="#BDM_250x250_psd_Asset_1_ManagedWiFi_Awareness_DM8_3_for_a_more__personalized__customer_experience__0_Layer0_0_MEMBER_0_FILL"/>
</g>

<g transform="matrix( 3.5196380615234375, 0, 0, 3.540771484375, 0.2,17.8) ">
<use xlink:href="#BDM_250x250_psd_Asset_1_ManagedWiFi_Awareness_DM8_3_for_a_more__personalized__customer_experience__0_Layer0_0_MEMBER_1_FILL"/>
</g>

<g transform="matrix( 3.5196380615234375, 0, 0, 3.540771484375, 0.2,17.8) ">
<use xlink:href="#BDM_250x250_psd_Asset_1_ManagedWiFi_Awareness_DM8_3_for_a_more__personalized__customer_experience__0_Layer0_0_MEMBER_2_FILL"/>
</g>

<g transform="matrix( 3.5196380615234375, 0, 0, 3.540771484375, 0.2,17.8) ">
<use xlink:href="#BDM_250x250_psd_Asset_1_ManagedWiFi_Awareness_DM8_3_for_a_more__personalized__customer_experience__0_Layer0_0_MEMBER_3_FILL"/>
</g>

<g transform="matrix( 3.5196380615234375, 0, 0, 3.540771484375, 0.2,17.8) ">
<use xlink:href="#BDM_250x250_psd_Asset_1_ManagedWiFi_Awareness_DM8_3_for_a_more__personalized__customer_experience__0_Layer0_0_MEMBER_4_FILL"/>
</g>

<g transform="matrix( 3.5196380615234375, 0, 0, 3.540771484375, 0.2,17.8) ">
<use xlink:href="#BDM_250x250_psd_Asset_1_ManagedWiFi_Awareness_DM8_3_for_a_more__personalized__customer_experience__0_Layer0_0_MEMBER_5_FILL"/>
</g>

<g transform="matrix( 3.5196380615234375, 0, 0, 3.540771484375, 0.2,17.8) ">
<use xlink:href="#BDM_250x250_psd_Asset_1_ManagedWiFi_Awareness_DM8_3_for_a_more__personalized__customer_experience__0_Layer0_0_MEMBER_6_FILL"/>
</g>

<g transform="matrix( 3.5196380615234375, 0, 0, 3.540771484375, 0.2,17.8) ">
<use xlink:href="#BDM_250x250_psd_Asset_1_ManagedWiFi_Awareness_DM8_3_for_a_more__personalized__customer_experience__0_Layer0_0_MEMBER_7_FILL"/>
</g>

<g transform="matrix( 3.5196380615234375, 0, 0, 3.540771484375, 0.2,17.8) ">
<use xlink:href="#BDM_250x250_psd_Asset_1_ManagedWiFi_Awareness_DM8_3_for_a_more__personalized__customer_experience__0_Layer0_0_MEMBER_8_FILL"/>
</g>

<g transform="matrix( 3.5196380615234375, 0, 0, 3.540771484375, 0.2,17.8) ">
<use xlink:href="#BDM_250x250_psd_Asset_1_ManagedWiFi_Awareness_DM8_3_for_a_more__personalized__customer_experience__0_Layer0_0_MEMBER_9_FILL"/>
</g>

<g transform="matrix( 3.5196380615234375, 0, 0, 3.540771484375, 0.2,17.8) ">
<use xlink:href="#BDM_250x250_psd_Asset_1_ManagedWiFi_Awareness_DM8_3_for_a_more__personalized__customer_experience__0_Layer0_0_MEMBER_10_FILL"/>
</g>

<g transform="matrix( 3.5196380615234375, 0, 0, 3.540771484375, 0.2,17.8) ">
<use xlink:href="#BDM_250x250_psd_Asset_1_ManagedWiFi_Awareness_DM8_3_for_a_more__personalized__customer_experience__0_Layer0_0_MEMBER_11_FILL"/>
</g>

<g transform="matrix( 3.5196380615234375, 0, 0, 3.540771484375, 0.2,17.8) ">
<use xlink:href="#BDM_250x250_psd_Asset_1_ManagedWiFi_Awareness_DM8_3_for_a_more__personalized__customer_experience__0_Layer0_0_MEMBER_12_FILL"/>
</g>

<g transform="matrix( 3.5196380615234375, 0, 0, 3.540771484375, 0.2,17.8) ">
<use xlink:href="#BDM_250x250_psd_Asset_1_ManagedWiFi_Awareness_DM8_3_for_a_more__personalized__customer_experience__0_Layer0_0_MEMBER_13_FILL"/>
</g>

<g transform="matrix( 3.5196380615234375, 0, 0, 3.540771484375, 0.2,17.8) ">
<use xlink:href="#BDM_250x250_psd_Asset_1_ManagedWiFi_Awareness_DM8_3_for_a_more__personalized__customer_experience__0_Layer0_0_MEMBER_14_FILL"/>
</g>

<g transform="matrix( 3.5196380615234375, 0, 0, 3.540771484375, 0.2,17.8) ">
<use xlink:href="#BDM_250x250_psd_Asset_1_ManagedWiFi_Awareness_DM8_3_for_a_more__personalized__customer_experience__0_Layer0_0_MEMBER_15_FILL"/>
</g>

<g transform="matrix( 3.5196380615234375, 0, 0, 3.540771484375, 0.2,17.8) ">
<use xlink:href="#BDM_250x250_psd_Asset_1_ManagedWiFi_Awareness_DM8_3_for_a_more__personalized__customer_experience__0_Layer0_0_MEMBER_16_FILL"/>
</g>

<g transform="matrix( 3.5196380615234375, 0, 0, 3.540771484375, 0.2,17.8) ">
<use xlink:href="#BDM_250x250_psd_Asset_1_ManagedWiFi_Awareness_DM8_3_for_a_more__personalized__customer_experience__0_Layer0_0_MEMBER_17_FILL"/>
</g>

<g transform="matrix( 3.5196380615234375, 0, 0, 3.540771484375, 0.2,17.8) ">
<use xlink:href="#BDM_250x250_psd_Asset_1_ManagedWiFi_Awareness_DM8_3_for_a_more__personalized__customer_experience__0_Layer0_0_MEMBER_18_FILL"/>
</g>

<g transform="matrix( 3.5196380615234375, 0, 0, 3.540771484375, 0.2,17.8) ">
<use xlink:href="#BDM_250x250_psd_Asset_1_ManagedWiFi_Awareness_DM8_3_for_a_more__personalized__customer_experience__0_Layer0_0_MEMBER_19_FILL"/>
</g>

<g transform="matrix( 3.5196380615234375, 0, 0, 3.540771484375, 0.2,17.8) ">
<use xlink:href="#BDM_250x250_psd_Asset_1_ManagedWiFi_Awareness_DM8_3_for_a_more__personalized__customer_experience__0_Layer0_0_MEMBER_20_FILL"/>
</g>

<g transform="matrix( 3.5196380615234375, 0, 0, 3.540771484375, 0.2,17.8) ">
<use xlink:href="#BDM_250x250_psd_Asset_1_ManagedWiFi_Awareness_DM8_3_for_a_more__personalized__customer_experience__0_Layer0_0_MEMBER_21_FILL"/>
</g>

<g transform="matrix( 3.5196380615234375, 0, 0, 3.540771484375, 0.2,17.8) ">
<use xlink:href="#BDM_250x250_psd_Asset_1_ManagedWiFi_Awareness_DM8_3_for_a_more__personalized__customer_experience__0_Layer0_0_MEMBER_22_FILL"/>
</g>

<g transform="matrix( 3.5196380615234375, 0, 0, 3.540771484375, 0.2,17.8) ">
<use xlink:href="#BDM_250x250_psd_Asset_1_ManagedWiFi_Awareness_DM8_3_for_a_more__personalized__customer_experience__0_Layer0_0_MEMBER_23_FILL"/>
</g>

<g transform="matrix( 3.5196380615234375, 0, 0, 3.540771484375, 0.2,17.8) ">
<use xlink:href="#BDM_250x250_psd_Asset_1_ManagedWiFi_Awareness_DM8_3_for_a_more__personalized__customer_experience__0_Layer0_0_MEMBER_24_FILL"/>
</g>

<g transform="matrix( 3.5196380615234375, 0, 0, 3.540771484375, 0.2,17.8) ">
<use xlink:href="#BDM_250x250_psd_Asset_1_ManagedWiFi_Awareness_DM8_3_for_a_more__personalized__customer_experience__0_Layer0_0_MEMBER_25_FILL"/>
</g>

<g transform="matrix( 3.5196380615234375, 0, 0, 3.540771484375, 0.2,17.8) ">
<use xlink:href="#BDM_250x250_psd_Asset_1_ManagedWiFi_Awareness_DM8_3_for_a_more__personalized__customer_experience__0_Layer0_0_MEMBER_26_FILL"/>
</g>

<g transform="matrix( 3.5196380615234375, 0, 0, 3.540771484375, 0.2,17.8) ">
<use xlink:href="#BDM_250x250_psd_Asset_1_ManagedWiFi_Awareness_DM8_3_for_a_more__personalized__customer_experience__0_Layer0_0_MEMBER_27_FILL"/>
</g>

<g transform="matrix( 3.5196380615234375, 0, 0, 3.540771484375, 0.2,17.8) ">
<use xlink:href="#BDM_250x250_psd_Asset_1_ManagedWiFi_Awareness_DM8_3_for_a_more__personalized__customer_experience__0_Layer0_0_MEMBER_28_FILL"/>
</g>

<g transform="matrix( 3.5196380615234375, 0, 0, 3.540771484375, 0.2,17.8) ">
<use xlink:href="#BDM_250x250_psd_Asset_1_ManagedWiFi_Awareness_DM8_3_for_a_more__personalized__customer_experience__0_Layer0_0_MEMBER_29_FILL"/>
</g>

<g transform="matrix( 3.5196380615234375, 0, 0, 3.540771484375, 0.2,17.8) ">
<use xlink:href="#BDM_250x250_psd_Asset_1_ManagedWiFi_Awareness_DM8_3_for_a_more__personalized__customer_experience__0_Layer0_0_MEMBER_30_FILL"/>
</g>

<g transform="matrix( 3.5196380615234375, 0, 0, 3.540771484375, 0.2,17.8) ">
<use xlink:href="#BDM_250x250_psd_Asset_1_ManagedWiFi_Awareness_DM8_3_for_a_more__personalized__customer_experience__0_Layer0_0_MEMBER_31_FILL"/>
</g>

<g transform="matrix( 3.5196380615234375, 0, 0, 3.540771484375, 0.2,17.8) ">
<use xlink:href="#BDM_250x250_psd_Asset_1_ManagedWiFi_Awareness_DM8_3_for_a_more__personalized__customer_experience__0_Layer0_0_MEMBER_32_FILL"/>
</g>

<g transform="matrix( 3.5196380615234375, 0, 0, 3.540771484375, 0.2,17.8) ">
<use xlink:href="#BDM_250x250_psd_Asset_1_ManagedWiFi_Awareness_DM8_3_for_a_more__personalized__customer_experience__0_Layer0_0_MEMBER_33_FILL"/>
</g>

<g transform="matrix( 3.5196380615234375, 0, 0, 3.540771484375, 0.2,17.8) ">
<use xlink:href="#BDM_250x250_psd_Asset_1_ManagedWiFi_Awareness_DM8_3_for_a_more__personalized__customer_experience__0_Layer0_0_MEMBER_34_FILL"/>
</g>

<g transform="matrix( 3.5196380615234375, 0, 0, 3.540771484375, 0.2,17.8) ">
<use xlink:href="#BDM_250x250_psd_Asset_1_ManagedWiFi_Awareness_DM8_3_for_a_more__personalized__customer_experience__0_Layer0_0_MEMBER_35_FILL"/>
</g>

<g transform="matrix( 3.5196380615234375, 0, 0, 3.540771484375, 0.2,17.8) ">
<use xlink:href="#BDM_250x250_psd_Asset_1_ManagedWiFi_Awareness_DM8_3_for_a_more__personalized__customer_experience__0_Layer0_0_MEMBER_36_FILL"/>
</g>

<g transform="matrix( 3.5196380615234375, 0, 0, 3.540771484375, 0.2,17.8) ">
<use xlink:href="#BDM_250x250_psd_Asset_1_ManagedWiFi_Awareness_DM8_3_for_a_more__personalized__customer_experience__0_Layer0_0_MEMBER_37_FILL"/>
</g>

<g transform="matrix( 3.5196380615234375, 0, 0, 3.540771484375, 0.2,17.8) ">
<use xlink:href="#BDM_250x250_psd_Asset_1_ManagedWiFi_Awareness_DM8_3_for_a_more__personalized__customer_experience__0_Layer0_0_MEMBER_38_FILL"/>
</g>
</g>
</g>
</g>
</svg>
