
<svg xmlns="http://www.w3.org/2000/svg" version="1.1" xmlns:xlink="http://www.w3.org/1999/xlink" preserveAspectRatio="none" x="0px" y="0px" width="728px" height="90px" viewBox="0 0 728 90">
<defs>
<g id="IT_728x90_psd_Asset_4_ManagedWiFi_IT_Research_DM8_1_Want_a_more_cost_effective___efficient_and_agile_network__0_Layer0_0_MEMBER_0_FILL">
<path fill="#D82C26" stroke="none" d="
M 0.8 -6.6
L 0.2 -6.6 2.15 0 2.8 0 4.55 -5.9 6.3 0 6.95 0 8.9 -6.6 8.3 -6.6 6.6 -0.75 4.85 -6.6 4.2 -6.6 2.5 -0.75 0.8 -6.6 Z"/>
</g>

<g id="IT_728x90_psd_Asset_4_ManagedWiFi_IT_Research_DM8_1_Want_a_more_cost_effective___efficient_and_agile_network__0_Layer0_0_MEMBER_1_FILL">
<path fill="#D82C26" stroke="none" d="
M 9.35 -1.2
Q 9.35 -0.5 9.8 -0.2 10.2 0.1 10.75 0.1 11.4 0.1 11.75 -0.15 12.15 -0.35 12.4 -0.85
L 12.45 -0.85 12.45 -0.4 12.5 0 13 0 12.95 -2.85
Q 12.95 -3.65 12.5 -4.1 12.1 -4.5 11.25 -4.5 10.8 -4.5 10.35 -4.35 9.95 -4.3 9.6 -3.95
L 9.8 -3.55
Q 10 -3.75 10.45 -3.9 10.8 -4.1 11.15 -4.1 11.75 -4.1 12.1 -3.75 12.4 -3.45 12.4 -2.9
L 12.4 -2.65 11.9 -2.65
Q 9.35 -2.65 9.35 -1.2
M 11.95 -2.25
L 12.4 -2.25 12.4 -1.8 12.25 -1.1
Q 12.1 -0.75 11.7 -0.5 11.45 -0.3 10.9 -0.3 10.4 -0.3 10.2 -0.5 9.9 -0.7 9.9 -1.2 9.9 -2.25 11.95 -2.25 Z"/>
</g>

<g id="IT_728x90_psd_Asset_4_ManagedWiFi_IT_Research_DM8_1_Want_a_more_cost_effective___efficient_and_agile_network__0_Layer0_0_MEMBER_2_FILL">
<path fill="#D82C26" stroke="none" d="
M 15 -4.4
L 14.5 -4.4 14.55 0 15.1 0 15.1 -2.25
Q 15.1 -2.85 15.3 -3.2 15.4 -3.55 15.8 -3.85 16.15 -4.05 16.55 -4.05 17.25 -4.05 17.45 -3.6 17.75 -3.2 17.75 -2.55
L 17.75 0 18.3 0 18.3 -2.7
Q 18.3 -3.45 17.9 -4 17.55 -4.5 16.65 -4.5 16.15 -4.5 15.7 -4.2 15.25 -3.9 15.1 -3.45
L 15.05 -3.45 15 -4.4 Z"/>
</g>

<g id="IT_728x90_psd_Asset_4_ManagedWiFi_IT_Research_DM8_1_Want_a_more_cost_effective___efficient_and_agile_network__0_Layer0_0_MEMBER_3_FILL">
<path fill="#D82C26" stroke="none" d="
M 20 -3.95
L 20 -1.05
Q 20 -0.45 20.25 -0.2 20.55 0.1 21 0.1
L 21.5 0.05 21.95 -0.15 21.85 -0.55
Q 21.5 -0.35 21.15 -0.35 20.85 -0.35 20.7 -0.55 20.55 -0.7 20.55 -1.15
L 20.55 -3.95 21.65 -3.95 21.75 -4.4 20.55 -4.4 20.55 -5.65 19.95 -5.45 19.95 -4.4 19.25 -4.4 19.15 -3.95 20 -3.95 Z"/>
</g>

<g id="IT_728x90_psd_Asset_4_ManagedWiFi_IT_Research_DM8_1_Want_a_more_cost_effective___efficient_and_agile_network__0_Layer0_0_MEMBER_4_FILL">
<path fill="#D82C26" stroke="none" d="
M 24.75 -1.2
Q 24.75 -0.5 25.15 -0.2 25.6 0.1 26.15 0.1 26.8 0.1 27.15 -0.15 27.55 -0.35 27.8 -0.85
L 27.9 0 28.4 0 28.3 -0.95 28.3 -2.85
Q 28.3 -3.65 27.85 -4.1 27.45 -4.5 26.6 -4.5 26.15 -4.5 25.75 -4.35 25.35 -4.3 25 -3.95
L 25.15 -3.55 25.8 -3.9
Q 26.15 -4.1 26.55 -4.1 27.15 -4.1 27.45 -3.75 27.8 -3.45 27.8 -2.9
L 27.8 -2.65 27.25 -2.65
Q 24.75 -2.65 24.75 -1.2
M 27.35 -2.25
L 27.8 -2.25 27.8 -1.8
Q 27.8 -1.45 27.6 -1.1 27.45 -0.7 27.1 -0.5 26.75 -0.3 26.25 -0.3 25.8 -0.3 25.55 -0.5 25.3 -0.7 25.3 -1.2 25.3 -2.25 27.35 -2.25 Z"/>
</g>

<g id="IT_728x90_psd_Asset_4_ManagedWiFi_IT_Research_DM8_1_Want_a_more_cost_effective___efficient_and_agile_network__0_Layer0_0_MEMBER_5_FILL">
<path fill="#D82C26" stroke="none" d="
M 34.05 -4.05
Q 34.6 -4.05 34.9 -3.65 35.15 -3.35 35.15 -2.6
L 35.15 0 35.75 0 35.75 -2.25
Q 35.75 -3.05 36.1 -3.55 36.45 -4.05 37.1 -4.05 37.7 -4.05 38 -3.6 38.25 -3.1 38.25 -2.5
L 38.25 0 38.8 0 38.8 -2.65
Q 38.8 -3.45 38.45 -4 38 -4.5 37.2 -4.5 36.7 -4.5 36.25 -4.2 35.75 -3.8 35.65 -3.4 35.4 -3.95 35.1 -4.2 34.75 -4.5 34.2 -4.5 33.7 -4.5 33.3 -4.2 32.9 -4 32.7 -3.45
L 32.65 -3.45 32.6 -4.4 32.1 -4.4 32.15 0 32.7 0 32.7 -2.2
Q 32.7 -2.8 32.9 -3.2 33.1 -3.65 33.35 -3.85 33.7 -4.05 34.05 -4.05 Z"/>
</g>

<g id="IT_728x90_psd_Asset_4_ManagedWiFi_IT_Research_DM8_1_Want_a_more_cost_effective___efficient_and_agile_network__0_Layer0_0_MEMBER_6_FILL">
<path fill="#D82C26" stroke="none" d="
M 40.1 -2.2
Q 40.1 -1.5 40.4 -1 40.85 -0.4 41.25 -0.15 41.8 0.15 42.45 0.15 43.15 0.15 43.65 -0.15 44.2 -0.45 44.5 -1 44.8 -1.5 44.8 -2.2 44.8 -2.85 44.5 -3.4 44.15 -4 43.65 -4.2 43.15 -4.5 42.45 -4.5 41.8 -4.5 41.25 -4.2 40.85 -4.05 40.4 -3.4 40.1 -2.85 40.1 -2.2
M 43.4 -3.8
Q 43.75 -3.6 44 -3.15 44.25 -2.65 44.25 -2.2 44.25 -1.75 44 -1.25 43.85 -0.85 43.4 -0.6 43.1 -0.35 42.45 -0.35 41.9 -0.35 41.5 -0.6 41.15 -0.8 40.9 -1.25 40.65 -1.75 40.65 -2.2 40.65 -2.65 40.9 -3.15 41.15 -3.6 41.5 -3.8 42 -4.05 42.45 -4.05 42.9 -4.05 43.4 -3.8 Z"/>
</g>

<g id="IT_728x90_psd_Asset_4_ManagedWiFi_IT_Research_DM8_1_Want_a_more_cost_effective___efficient_and_agile_network__0_Layer0_0_MEMBER_7_FILL">
<path fill="#D82C26" stroke="none" d="
M 48.3 -3.95
L 48.45 -4.45 47.95 -4.5
Q 47.6 -4.5 47.2 -4.2 46.9 -4 46.7 -3.45
L 46.65 -3.45 46.6 -4.4 46.1 -4.4 46.15 0 46.7 0 46.7 -2.2
Q 46.7 -2.95 47 -3.5 47.35 -4 47.95 -4
L 48.3 -3.95 Z"/>
</g>

<g id="IT_728x90_psd_Asset_4_ManagedWiFi_IT_Research_DM8_1_Want_a_more_cost_effective___efficient_and_agile_network__0_Layer0_0_MEMBER_8_FILL">
<path fill="#D82C26" stroke="none" d="
M 49.2 -1
Q 49.55 -0.4 50 -0.15 50.55 0.15 51.15 0.15 52.1 0.15 52.9 -0.4
L 52.8 -0.9
Q 52.4 -0.6 52.1 -0.5 51.75 -0.3 51.2 -0.3 50.7 -0.3 50.3 -0.55 49.95 -0.75 49.7 -1.2 49.45 -1.7 49.45 -2.1
L 53.15 -2.1 53.15 -2.35
Q 53.15 -3 52.95 -3.45 52.55 -4.05 52.2 -4.25 51.7 -4.5 51.1 -4.5 50.45 -4.5 50 -4.2 49.55 -4 49.2 -3.4 48.9 -2.85 48.9 -2.2 48.9 -1.5 49.2 -1
M 49.65 -3.25
L 50.25 -3.85
Q 50.6 -4.1 51.1 -4.1 51.85 -4.1 52.2 -3.65 52.65 -3.2 52.65 -2.5
L 49.45 -2.5
Q 49.45 -2.75 49.65 -3.25 Z"/>
</g>

<g id="IT_728x90_psd_Asset_4_ManagedWiFi_IT_Research_DM8_1_Want_a_more_cost_effective___efficient_and_agile_network__0_Layer0_0_MEMBER_9_FILL">
<path fill="#D82C26" stroke="none" d="
M 59.5 -4.35
Q 59.15 -4.5 58.65 -4.5 58.05 -4.5 57.5 -4.2 56.9 -3.85 56.65 -3.4 56.35 -2.85 56.35 -2.2 56.35 -1.5 56.65 -1 56.95 -0.45 57.5 -0.15 58.05 0.15 58.65 0.15 59.15 0.15 59.5 0
L 60.15 -0.4 60.1 -0.85
Q 59.7 -0.55 59.45 -0.5 59.15 -0.35 58.7 -0.35 58.2 -0.35 57.8 -0.6 57.45 -0.8 57.15 -1.25 56.95 -1.65 56.95 -2.2 56.95 -2.75 57.15 -3.1 57.4 -3.6 57.75 -3.8 58.25 -4.05 58.7 -4.05 59.05 -4.05 59.35 -3.9 59.65 -3.85 59.95 -3.55
L 60.15 -4
Q 59.85 -4.3 59.5 -4.35 Z"/>
</g>

<g id="IT_728x90_psd_Asset_4_ManagedWiFi_IT_Research_DM8_1_Want_a_more_cost_effective___efficient_and_agile_network__0_Layer0_0_MEMBER_10_FILL">
<path fill="#D82C26" stroke="none" d="
M 65.3 -3.4
Q 64.95 -4 64.45 -4.2 63.95 -4.5 63.25 -4.5 62.6 -4.5 62.05 -4.2 61.6 -4 61.25 -3.4 60.95 -2.85 60.95 -2.2 60.95 -1.5 61.25 -1 61.6 -0.4 62.05 -0.15 62.6 0.15 63.25 0.15 63.95 0.15 64.45 -0.15 65 -0.45 65.3 -1 65.6 -1.5 65.6 -2.2 65.6 -2.85 65.3 -3.4
M 64.2 -3.8
Q 64.65 -3.55 64.8 -3.15 65.05 -2.65 65.05 -2.2 65.05 -1.85 64.85 -1.25 64.55 -0.8 64.2 -0.6 63.9 -0.35 63.25 -0.35 62.7 -0.35 62.3 -0.6 61.95 -0.8 61.7 -1.25 61.5 -1.65 61.5 -2.2 61.5 -2.75 61.7 -3.15 61.95 -3.6 62.3 -3.8 62.8 -4.05 63.25 -4.05 63.8 -4.05 64.2 -3.8 Z"/>
</g>

<g id="IT_728x90_psd_Asset_4_ManagedWiFi_IT_Research_DM8_1_Want_a_more_cost_effective___efficient_and_agile_network__0_Layer0_0_MEMBER_11_FILL">
<path fill="#D82C26" stroke="none" d="
M 69.5 -4.05
Q 69.3 -4.25 68.9 -4.4
L 68.1 -4.5 67.4 -4.4
Q 67.05 -4.25 66.85 -3.95 66.65 -3.65 66.65 -3.3 66.65 -2.85 66.95 -2.55 67.35 -2.25 67.9 -2.1 68.55 -1.9 68.85 -1.65 69.1 -1.5 69.1 -1.15 69.1 -0.75 68.8 -0.55 68.55 -0.3 68.15 -0.3 67.35 -0.3 66.65 -0.85
L 66.6 -0.35
Q 66.75 -0.2 67.25 0 67.55 0.1 68.15 0.1
L 68.85 0
Q 69.25 -0.15 69.45 -0.45 69.65 -0.85 69.65 -1.15 69.65 -1.65 69.3 -1.95 68.9 -2.25 68.3 -2.45 67.55 -2.7 67.4 -2.85 67.2 -3 67.2 -3.35 67.2 -3.7 67.45 -3.9 67.85 -4.1 68.15 -4.1 68.45 -4.1 68.75 -3.95 68.85 -3.95 69.25 -3.65
L 69.5 -4.05 Z"/>
</g>

<g id="IT_728x90_psd_Asset_4_ManagedWiFi_IT_Research_DM8_1_Want_a_more_cost_effective___efficient_and_agile_network__0_Layer0_0_MEMBER_12_FILL">
<path fill="#D82C26" stroke="none" d="
M 70.5 -4.4
L 70.4 -3.95 71.25 -3.95 71.25 -1.05
Q 71.25 -0.45 71.5 -0.2 71.8 0.1 72.25 0.1
L 72.75 0.05 73.2 -0.15 73.1 -0.55
Q 72.75 -0.35 72.4 -0.35 72.1 -0.35 71.95 -0.55 71.75 -0.75 71.75 -1.15
L 71.75 -3.95 72.9 -3.95 73 -4.4 71.75 -4.4 71.75 -5.65 71.2 -5.45 71.2 -4.4 70.5 -4.4 Z"/>
</g>

<g id="IT_728x90_psd_Asset_4_ManagedWiFi_IT_Research_DM8_1_Want_a_more_cost_effective___efficient_and_agile_network__0_Layer0_0_MEMBER_13_FILL">
<path fill="#D82C26" stroke="none" d="
M 73.5 -2.6
L 73.5 -2.15 75.45 -2.15 75.45 -2.6 73.5 -2.6 Z"/>
</g>

<g id="IT_728x90_psd_Asset_4_ManagedWiFi_IT_Research_DM8_1_Want_a_more_cost_effective___efficient_and_agile_network__0_Layer0_0_MEMBER_14_FILL">
<path fill="#D82C26" stroke="none" d="
M 79.95 -4.25
Q 79.35 -4.5 78.8 -4.5 78.25 -4.5 77.7 -4.2 77.2 -3.95 76.95 -3.4 76.65 -2.85 76.65 -2.2 76.65 -1.5 76.95 -1 77.15 -0.5 77.75 -0.15 78.2 0.15 78.9 0.15 79.85 0.15 80.65 -0.4
L 80.55 -0.9 79.85 -0.5
Q 79.45 -0.3 78.95 -0.3 78.45 -0.3 78.05 -0.55 77.7 -0.75 77.4 -1.2 77.25 -1.5 77.15 -2.1
L 80.9 -2.1 80.9 -2.35
Q 80.9 -2.85 80.65 -3.45 80.4 -3.95 79.95 -4.25
M 78.8 -4.1
Q 79.5 -4.1 79.95 -3.65 80.35 -3.15 80.35 -2.5
L 77.2 -2.5
Q 77.2 -2.9 77.4 -3.25 77.55 -3.5 77.95 -3.85 78.35 -4.1 78.8 -4.1 Z"/>
</g>

<g id="IT_728x90_psd_Asset_4_ManagedWiFi_IT_Research_DM8_1_Want_a_more_cost_effective___efficient_and_agile_network__0_Layer0_0_MEMBER_15_FILL">
<path fill="#D82C26" stroke="none" d="
M 87.45 -7.1
L 86.65 -7.2
Q 86.05 -7.2 85.65 -6.8 85.3 -6.45 85.3 -5.65
L 85.3 -4.4 83.05 -4.4 83.05 -5.65
Q 83.05 -6.1 83.25 -6.45 83.4 -6.75 83.9 -6.75
L 84.6 -6.65 84.65 -7.1 83.85 -7.2
Q 83.25 -7.2 82.85 -6.8 82.5 -6.45 82.5 -5.65
L 82.5 -4.4 81.7 -4.4 81.6 -3.95 82.5 -3.95 82.5 0 83.05 0 83.05 -3.95 85.3 -3.95 85.3 0 85.85 0 85.85 -3.95 86.85 -3.95 87 -4.4 85.85 -4.4 85.85 -5.65
Q 85.85 -6.1 86.05 -6.45 86.3 -6.75 86.7 -6.75
L 87.4 -6.65 87.45 -7.1 Z"/>
</g>

<g id="IT_728x90_psd_Asset_4_ManagedWiFi_IT_Research_DM8_1_Want_a_more_cost_effective___efficient_and_agile_network__0_Layer0_0_MEMBER_16_FILL">
<path fill="#D82C26" stroke="none" d="
M 89.7 -4.5
Q 89.15 -4.5 88.6 -4.2 88.15 -4 87.8 -3.4 87.55 -2.8 87.55 -2.2 87.55 -1.6 87.8 -1 88.1 -0.5 88.6 -0.15 89.15 0.15 89.8 0.15 90.75 0.15 91.55 -0.4
L 91.45 -0.9
Q 91.1 -0.65 90.7 -0.5 90.35 -0.3 89.8 -0.3 89.4 -0.3 88.9 -0.55 88.55 -0.75 88.3 -1.2 88.05 -1.7 88.05 -2.1
L 91.8 -2.1 91.8 -2.35
Q 91.8 -2.85 91.55 -3.45 91.3 -3.95 90.85 -4.25 90.25 -4.5 89.7 -4.5
M 89.7 -4.1
Q 90.4 -4.1 90.85 -3.65 91.25 -3.15 91.25 -2.5
L 88.05 -2.5
Q 88.15 -3 88.3 -3.25 88.45 -3.5 88.85 -3.85 89.25 -4.1 89.7 -4.1 Z"/>
</g>

<g id="IT_728x90_psd_Asset_4_ManagedWiFi_IT_Research_DM8_1_Want_a_more_cost_effective___efficient_and_agile_network__0_Layer0_0_MEMBER_17_FILL">
<path fill="#D82C26" stroke="none" d="
M 95.15 -4.5
Q 94.55 -4.5 94 -4.2 93.4 -3.85 93.15 -3.4 92.85 -2.85 92.85 -2.2 92.85 -1.5 93.15 -1 93.45 -0.5 93.95 -0.15 94.5 0.15 95.15 0.15 95.65 0.15 96 0
L 96.65 -0.4 96.55 -0.85
Q 96.3 -0.6 95.95 -0.5 95.65 -0.35 95.2 -0.35 94.75 -0.35 94.25 -0.6 93.9 -0.8 93.65 -1.25 93.45 -1.65 93.45 -2.2 93.45 -2.75 93.65 -3.1 93.9 -3.6 94.25 -3.8 94.75 -4.05 95.2 -4.05 95.55 -4.05 95.85 -3.9 96.15 -3.85 96.45 -3.55
L 96.65 -4
Q 96.4 -4.25 96 -4.35 95.55 -4.5 95.15 -4.5 Z"/>
</g>

<g id="IT_728x90_psd_Asset_4_ManagedWiFi_IT_Research_DM8_1_Want_a_more_cost_effective___efficient_and_agile_network__0_Layer0_0_MEMBER_18_FILL">
<path fill="#D82C26" stroke="none" d="
M 98.75 -4.4
L 98.75 -5.65 98.2 -5.45 98.2 -4.4 97.5 -4.4 97.4 -3.95 98.2 -3.95 98.2 -1.05
Q 98.2 -0.5 98.5 -0.2 98.75 0.1 99.2 0.1
L 99.7 0.05 100.15 -0.15 100.1 -0.55
Q 99.7 -0.35 99.4 -0.35 99.1 -0.35 98.9 -0.55 98.75 -0.7 98.75 -1.15
L 98.75 -3.95 99.9 -3.95 100 -4.4 98.75 -4.4 Z"/>
</g>

<g id="IT_728x90_psd_Asset_4_ManagedWiFi_IT_Research_DM8_1_Want_a_more_cost_effective___efficient_and_agile_network__0_Layer0_0_MEMBER_19_FILL">
<path fill="#D82C26" stroke="none" d="
M 101.75 -4.4
L 101.2 -4.4 101.2 0 101.75 0 101.75 -4.4
M 101.2 -6.4
Q 101.1 -6.35 101.1 -6.15 101.1 -5.95 101.2 -5.85 101.25 -5.75 101.45 -5.75 101.65 -5.75 101.75 -5.85 101.85 -5.95 101.85 -6.15 101.85 -6.35 101.75 -6.4 101.6 -6.55 101.45 -6.55 101.3 -6.55 101.2 -6.4 Z"/>
</g>

<g id="IT_728x90_psd_Asset_4_ManagedWiFi_IT_Research_DM8_1_Want_a_more_cost_effective___efficient_and_agile_network__0_Layer0_0_MEMBER_20_FILL">
<path fill="#D82C26" stroke="none" d="
M 103.35 -4.4
L 102.75 -4.4 104.45 0 105.1 0 106.7 -4.4 106.15 -4.4 104.75 -0.55 103.35 -4.4 Z"/>
</g>

<g id="IT_728x90_psd_Asset_4_ManagedWiFi_IT_Research_DM8_1_Want_a_more_cost_effective___efficient_and_agile_network__0_Layer0_0_MEMBER_21_FILL">
<path fill="#D82C26" stroke="none" d="
M 110.6 -4.25
Q 110.1 -4.5 109.45 -4.5 108.9 -4.5 108.35 -4.2 107.95 -4 107.6 -3.4 107.3 -2.85 107.3 -2.2 107.3 -1.5 107.6 -1 107.95 -0.4 108.4 -0.15 108.95 0.15 109.55 0.15 110.5 0.15 111.3 -0.4
L 111.2 -0.9 110.5 -0.5
Q 110.1 -0.3 109.6 -0.3 109.1 -0.3 108.7 -0.55 108.3 -0.8 108.05 -1.2 107.85 -1.6 107.85 -2.1
L 111.55 -2.1 111.55 -2.35
Q 111.55 -3 111.3 -3.45 111.05 -3.95 110.6 -4.25
M 109.45 -4.1
Q 110.15 -4.1 110.6 -3.65 110.95 -3.3 111.05 -2.5
L 107.85 -2.5
Q 107.85 -2.75 108.05 -3.25
L 108.6 -3.85
Q 109 -4.1 109.45 -4.1 Z"/>
</g>

<g id="IT_728x90_psd_Asset_4_ManagedWiFi_IT_Research_DM8_1_Want_a_more_cost_effective___efficient_and_agile_network__0_Layer0_0_MEMBER_22_FILL">
<path fill="#D82C26" stroke="none" d="
M 112.85 -0.3
Q 112.95 -0.15 113.1 -0.15 113.1 0.05 112.9 0.45 112.8 0.65 112.5 0.95
L 112.7 1.1
Q 113.55 0.3 113.55 -0.5
L 113.45 -0.85 113.15 -1
Q 112.95 -1 112.85 -0.9 112.75 -0.8 112.75 -0.6 112.75 -0.35 112.85 -0.3 Z"/>
</g>

<g id="IT_728x90_psd_Asset_4_ManagedWiFi_IT_Research_DM8_1_Want_a_more_cost_effective___efficient_and_agile_network__0_Layer0_0_MEMBER_23_FILL">
<path fill="#D82C26" stroke="none" d="
M 3.8 6.6
Q 3.3 6.35 2.7 6.35 2.05 6.35 1.6 6.65 1.15 6.85 0.8 7.45 0.5 8 0.5 8.65 0.5 9.35 0.8 9.85 1.15 10.45 1.6 10.7 2.15 11 2.75 11 3.8 11 4.5 10.45
L 4.4 9.95
Q 4.25 10.15 3.7 10.35 3.35 10.55 2.8 10.55 2.4 10.55 1.9 10.3 1.55 10.1 1.3 9.65 1.05 9.15 1.05 8.75
L 4.75 8.75 4.8 8.5
Q 4.8 8 4.55 7.4 4.15 6.8 3.8 6.6
M 3.8 7.2
Q 4.25 7.65 4.25 8.35
L 1.05 8.35
Q 1.15 7.85 1.3 7.6 1.45 7.35 1.85 7 2.25 6.75 2.7 6.75 3.45 6.75 3.8 7.2 Z"/>
</g>

<g id="IT_728x90_psd_Asset_4_ManagedWiFi_IT_Research_DM8_1_Want_a_more_cost_effective___efficient_and_agile_network__0_Layer0_0_MEMBER_24_FILL">
<path fill="#D82C26" stroke="none" d="
M 11.3 3.75
L 10.5 3.65
Q 9.95 3.65 9.55 4.05 9.2 4.4 9.2 5.2
L 9.2 6.45 6.9 6.45 6.9 5.2
Q 6.9 4.9 7.1 4.4 7.35 4.1 7.75 4.1
L 8.45 4.2 8.55 3.75 7.75 3.65
Q 7.15 3.65 6.75 4.05 6.35 4.45 6.35 5.2
L 6.35 6.45 5.55 6.45 5.45 6.9 6.4 6.9 6.4 10.85 6.9 10.85 6.9 6.9 9.2 6.9 9.2 10.85 9.75 10.85 9.75 6.9 10.75 6.9 10.85 6.45 9.75 6.45 9.75 5.2
Q 9.75 4.75 9.95 4.4 10.1 4.1 10.55 4.1
L 11.25 4.2 11.3 3.75
M 11.7 6.45
L 11.7 10.85 12.25 10.85 12.25 6.45 11.7 6.45
M 12.25 4.45
Q 12.2 4.3 12 4.3
L 11.7 4.45 11.6 4.7 11.7 5
Q 11.8 5.1 12 5.1 12.2 5.1 12.25 5 12.35 4.9 12.35 4.7 12.35 4.5 12.25 4.45 Z"/>
</g>

<g id="IT_728x90_psd_Asset_4_ManagedWiFi_IT_Research_DM8_1_Want_a_more_cost_effective___efficient_and_agile_network__0_Layer0_0_MEMBER_25_FILL">
<path fill="#D82C26" stroke="none" d="
M 13.9 9.85
Q 14.25 10.45 14.7 10.7 15.25 11 15.9 11 16.3 11 16.75 10.85
L 17.4 10.45 17.3 10
Q 16.9 10.3 16.7 10.35
L 15.95 10.5
Q 15.5 10.5 15 10.25 14.65 10.05 14.4 9.6 14.15 9.1 14.15 8.65 14.15 8.15 14.4 7.75 14.65 7.25 15 7.05 15.4 6.8 15.9 6.8 16.25 6.8 16.6 6.95 16.85 7 17.15 7.3
L 17.4 6.85
Q 17.25 6.7 16.75 6.5 16.3 6.35 15.9 6.35 15.3 6.35 14.75 6.65 14.15 7 13.9 7.45 13.6 8 13.6 8.65 13.6 9.35 13.9 9.85 Z"/>
</g>

<g id="IT_728x90_psd_Asset_4_ManagedWiFi_IT_Research_DM8_1_Want_a_more_cost_effective___efficient_and_agile_network__0_Layer0_0_MEMBER_26_FILL">
<path fill="#D82C26" stroke="none" d="
M 18.5 6.45
L 18.5 10.85 19.05 10.85 19.05 6.45 18.5 6.45
M 18.8 5.1
Q 19 5.1 19.05 5 19.2 4.85 19.2 4.7 19.2 4.55 19.05 4.45 19 4.3 18.8 4.3
L 18.5 4.45 18.4 4.7
Q 18.4 4.8 18.5 5 18.6 5.1 18.8 5.1 Z"/>
</g>

<g id="IT_728x90_psd_Asset_4_ManagedWiFi_IT_Research_DM8_1_Want_a_more_cost_effective___efficient_and_agile_network__0_Layer0_0_MEMBER_27_FILL">
<path fill="#D82C26" stroke="none" d="
M 24.45 7.4
Q 24.05 6.8 23.7 6.6 23.2 6.35 22.6 6.35 21.95 6.35 21.5 6.65 21.05 6.85 20.7 7.45 20.4 8 20.4 8.65 20.4 9.35 20.7 9.85 21.05 10.45 21.5 10.7 22.05 11 22.65 11 23.7 11 24.4 10.45
L 24.3 9.95
Q 24.15 10.15 23.6 10.35 23.25 10.55 22.7 10.55 22.3 10.55 21.8 10.3 21.45 10.1 21.2 9.65 20.95 9.15 20.95 8.75
L 24.65 8.75 24.7 8.5
Q 24.7 8 24.45 7.4
M 23.7 7.2
Q 24.15 7.65 24.15 8.35
L 20.95 8.35 21.15 7.6 21.75 7
Q 22.1 6.75 22.6 6.75 23.35 6.75 23.7 7.2 Z"/>
</g>

<g id="IT_728x90_psd_Asset_4_ManagedWiFi_IT_Research_DM8_1_Want_a_more_cost_effective___efficient_and_agile_network__0_Layer0_0_MEMBER_28_FILL">
<path fill="#D82C26" stroke="none" d="
M 29.4 6.85
Q 28.95 6.35 28.15 6.35 27.65 6.35 27.2 6.65 26.8 6.95 26.55 7.4
L 26.5 6.45 26 6.45 26.05 10.85 26.6 10.85 26.6 8.6
Q 26.6 8.05 26.75 7.65 26.95 7.25 27.3 7 27.65 6.8 28.05 6.8 28.75 6.8 28.95 7.25 29.25 7.7 29.25 8.3
L 29.25 10.85 29.8 10.85 29.8 8.2
Q 29.8 7.4 29.4 6.85 Z"/>
</g>

<g id="IT_728x90_psd_Asset_4_ManagedWiFi_IT_Research_DM8_1_Want_a_more_cost_effective___efficient_and_agile_network__0_Layer0_0_MEMBER_29_FILL">
<path fill="#D82C26" stroke="none" d="
M 32 5.2
L 31.45 5.45 31.45 6.45 30.75 6.45 30.65 6.9 31.5 6.9 31.5 9.8
Q 31.5 10.4 31.75 10.65 32.05 10.95 32.5 10.95
L 33 10.9 33.45 10.7 33.35 10.3
Q 33 10.5 32.65 10.5 32.35 10.5 32.2 10.3 32 10.1 32 9.7
L 32 6.9 33.15 6.9 33.25 6.45 32 6.45 32 5.2 Z"/>
</g>

<g id="IT_728x90_psd_Asset_4_ManagedWiFi_IT_Research_DM8_1_Want_a_more_cost_effective___efficient_and_agile_network__0_Layer0_0_MEMBER_30_FILL">
<path fill="#D82C26" stroke="none" d="
M 39.3 8.2
L 38.75 8.2
Q 36.25 8.2 36.25 9.65 36.25 10.35 36.65 10.65 37.1 10.95 37.65 10.95 38.25 10.95 38.65 10.75 39.05 10.5 39.3 10
L 39.35 10.85 39.9 10.85 39.8 9.9 39.8 8
Q 39.8 7.2 39.35 6.75 38.95 6.35 38.1 6.35 37.65 6.35 37.25 6.5 36.75 6.7 36.5 6.9
L 36.65 7.3
Q 36.8 7.15 37.3 6.95 37.8 6.75 38.05 6.75 38.65 6.75 38.95 7.1 39.3 7.4 39.3 7.95
L 39.3 8.2
M 39.3 8.6
L 39.3 9.05
Q 39.3 9.4 39.1 9.75 38.95 10.15 38.6 10.35 38.25 10.55 37.75 10.55 37.3 10.55 37.05 10.35 36.75 10.15 36.75 9.65 36.75 8.6 38.85 8.6
L 39.3 8.6 Z"/>
</g>

<g id="IT_728x90_psd_Asset_4_ManagedWiFi_IT_Research_DM8_1_Want_a_more_cost_effective___efficient_and_agile_network__0_Layer0_0_MEMBER_31_FILL">
<path fill="#D82C26" stroke="none" d="
M 44.75 6.85
Q 44.4 6.35 43.55 6.35 43 6.35 42.6 6.65 42.2 6.95 41.95 7.4
L 41.9 6.45 41.35 6.45 41.4 10.85 41.95 10.85 41.95 8.6
Q 41.95 8.15 42.15 7.65 42.4 7.2 42.7 7 42.95 6.8 43.4 6.8 44.05 6.8 44.35 7.25 44.6 7.75 44.6 8.3
L 44.6 10.85 45.15 10.85 45.15 8.2
Q 45.15 7.3 44.75 6.85 Z"/>
</g>

<g id="IT_728x90_psd_Asset_4_ManagedWiFi_IT_Research_DM8_1_Want_a_more_cost_effective___efficient_and_agile_network__0_Layer0_0_MEMBER_32_FILL">
<path fill="#D82C26" stroke="none" d="
M 51.1 10.85
L 51.05 3.65 50.5 3.8 50.5 7.4 50.45 7.4
Q 50.2 6.9 49.75 6.6 49.15 6.35 48.7 6.35 48.1 6.35 47.55 6.65 47.1 6.9 46.75 7.5 46.5 8.1 46.5 8.65 46.5 9.25 46.75 9.85 47.05 10.35 47.55 10.65 48.1 10.95 48.7 10.95 49.3 10.95 49.75 10.7 50.2 10.4 50.5 9.9
L 50.55 10.85 51.1 10.85
M 50.3 7.75
Q 50.5 8.1 50.5 8.65 50.5 9.2 50.3 9.6 50 10.05 49.65 10.25 49.35 10.5 48.75 10.5 48.15 10.5 47.85 10.25 47.45 10 47.25 9.6 47.05 9.2 47.05 8.65 47.05 8.1 47.25 7.75 47.5 7.25 47.85 7.05 48.25 6.8 48.75 6.8 49.25 6.8 49.65 7.05 50.05 7.25 50.3 7.75 Z"/>
</g>

<g id="IT_728x90_psd_Asset_4_ManagedWiFi_IT_Research_DM8_1_Want_a_more_cost_effective___efficient_and_agile_network__0_Layer0_0_MEMBER_33_FILL">
<path fill="#D82C26" stroke="none" d="
M 54.6 9.65
Q 54.6 10.35 55 10.65 55.45 10.95 56 10.95 56.55 10.95 57 10.75 57.4 10.5 57.65 10
L 57.65 10.45 57.7 10.85 58.2 10.85 58.15 8
Q 58.15 7.2 57.7 6.75 57.3 6.35 56.45 6.35 56 6.35 55.6 6.5 55.1 6.7 54.85 6.9
L 55 7.3
Q 55.15 7.15 55.65 6.95 56.15 6.75 56.4 6.75 57 6.75 57.3 7.1 57.65 7.45 57.65 7.95
L 57.65 8.2 57.1 8.2
Q 54.6 8.2 54.6 9.65
M 55.4 10.35
Q 55.1 10.15 55.1 9.65 55.1 8.6 57.2 8.6
L 57.65 8.6 57.65 9.05
Q 57.65 9.4 57.45 9.75 57.3 10.05 56.95 10.35 56.6 10.55 56.1 10.55 55.65 10.55 55.4 10.35 Z"/>
</g>

<g id="IT_728x90_psd_Asset_4_ManagedWiFi_IT_Research_DM8_1_Want_a_more_cost_effective___efficient_and_agile_network__0_Layer0_0_MEMBER_34_FILL">
<path fill="#D82C26" stroke="none" d="
M 63.5 6.45
L 63.45 7.45
Q 63.1 6.85 62.7 6.65 62.25 6.35 61.65 6.35 61.05 6.35 60.5 6.65 59.95 7 59.75 7.5 59.45 8.05 59.45 8.65 59.45 9.3 59.75 9.8 59.95 10.3 60.5 10.65 61.05 10.95 61.65 10.95 62.25 10.95 62.7 10.65 63.15 10.4 63.45 9.85
L 63.45 10.8
Q 63.45 11.7 63 12.2 62.6 12.7 61.65 12.7 61.15 12.7 60.7 12.55 59.95 12.15 59.85 12.1
L 59.75 12.6
Q 60 12.8 60.6 13
L 61.65 13.15
Q 62.85 13.15 63.45 12.5 64 11.85 64 10.8
L 64 6.45 63.5 6.45
M 62.65 7.05
Q 63 7.25 63.25 7.7 63.45 8.1 63.45 8.65 63.45 9.2 63.25 9.55 63.05 9.9 62.65 10.25 62.15 10.5 61.75 10.5 61.25 10.5 60.85 10.25 60.4 9.95 60.2 9.55 60 9.05 60 8.65 60 8.25 60.2 7.75 60.45 7.25 60.85 7.05 61.25 6.8 61.75 6.8 62.15 6.8 62.65 7.05 Z"/>
</g>

<g id="IT_728x90_psd_Asset_4_ManagedWiFi_IT_Research_DM8_1_Want_a_more_cost_effective___efficient_and_agile_network__0_Layer0_0_MEMBER_35_FILL">
<path fill="#D82C26" stroke="none" d="
M 65.65 6.45
L 65.65 10.85 66.2 10.85 66.2 6.45 65.65 6.45
M 65.9 5.1
Q 66.1 5.1 66.2 5
L 66.3 4.7 66.2 4.45
Q 66.05 4.3 65.9 4.3 65.75 4.3 65.65 4.45 65.55 4.5 65.55 4.7 65.55 4.9 65.65 5 65.7 5.1 65.9 5.1 Z"/>
</g>

<g id="IT_728x90_psd_Asset_4_ManagedWiFi_IT_Research_DM8_1_Want_a_more_cost_effective___efficient_and_agile_network__0_Layer0_0_MEMBER_36_FILL">
<path fill="#D82C26" stroke="none" d="
M 68.05 10.6
Q 68.25 10.85 68.55 10.95
L 68.8 10.5 68.5 10.25 68.4 9.75 68.4 3.7 67.85 3.85 67.85 9.9
Q 67.85 10.35 68.05 10.6 Z"/>
</g>

<g id="IT_728x90_psd_Asset_4_ManagedWiFi_IT_Research_DM8_1_Want_a_more_cost_effective___efficient_and_agile_network__0_Layer0_0_MEMBER_37_FILL">
<path fill="#D82C26" stroke="none" d="
M 74.05 8.5
Q 74.05 8 73.8 7.4 73.4 6.8 73.05 6.6 72.55 6.35 71.95 6.35 71.3 6.35 70.85 6.65 70.4 6.85 70.05 7.45 69.75 8 69.75 8.65 69.75 9.35 70.05 9.85 70.4 10.45 70.85 10.7 71.4 11 72 11 73.05 11 73.75 10.45
L 73.65 9.95
Q 73.5 10.15 72.95 10.35 72.6 10.55 72.05 10.55 71.55 10.55 71.15 10.3 70.8 10.1 70.55 9.65 70.3 9.15 70.3 8.75
L 74 8.75 74.05 8.5
M 71.95 6.75
Q 72.7 6.75 73.05 7.2 73.5 7.65 73.5 8.35
L 70.3 8.35
Q 70.3 8.1 70.5 7.6
L 71.1 7
Q 71.45 6.75 71.95 6.75 Z"/>
</g>

<g id="IT_728x90_psd_Asset_4_ManagedWiFi_IT_Research_DM8_1_Want_a_more_cost_effective___efficient_and_agile_network__0_Layer0_0_MEMBER_38_FILL">
<path fill="#D82C26" stroke="none" d="
M 81.35 10.85
L 81.35 8.2
Q 81.35 7.4 80.95 6.85 80.5 6.35 79.7 6.35 79.2 6.35 78.75 6.65 78.35 6.95 78.1 7.4
L 78.05 6.45 77.55 6.45 77.6 10.85 78.15 10.85 78.15 8.6
Q 78.15 8.05 78.3 7.65 78.5 7.25 78.85 7 79.2 6.8 79.6 6.8 80.3 6.8 80.5 7.25 80.8 7.7 80.8 8.3
L 80.8 10.85 81.35 10.85 Z"/>
</g>

<g id="IT_728x90_psd_Asset_4_ManagedWiFi_IT_Research_DM8_1_Want_a_more_cost_effective___efficient_and_agile_network__0_Layer0_0_MEMBER_39_FILL">
<path fill="#D82C26" stroke="none" d="
M 85.95 6.6
Q 85.45 6.35 84.85 6.35 84.2 6.35 83.75 6.65 83.3 6.85 82.95 7.45 82.65 8 82.65 8.65 82.65 9.35 82.95 9.85 83.3 10.45 83.75 10.7 84.3 11 84.9 11 85.85 11 86.65 10.45
L 86.55 9.95
Q 86.3 10.2 85.85 10.35 85.45 10.55 84.95 10.55 84.45 10.55 84.05 10.3 83.7 10.1 83.45 9.65 83.2 9.15 83.2 8.75
L 86.9 8.75 86.9 8.5
Q 86.9 7.85 86.7 7.4 86.35 6.85 85.95 6.6
M 84.85 6.75
Q 85.5 6.75 85.95 7.2 86.4 7.65 86.4 8.35
L 83.2 8.35
Q 83.2 8.1 83.4 7.6
L 83.95 7
Q 84.35 6.75 84.85 6.75 Z"/>
</g>

<g id="IT_728x90_psd_Asset_4_ManagedWiFi_IT_Research_DM8_1_Want_a_more_cost_effective___efficient_and_agile_network__0_Layer0_0_MEMBER_40_FILL">
<path fill="#D82C26" stroke="none" d="
M 88.9 5.2
L 88.35 5.45 88.35 6.45 87.65 6.45 87.55 6.9 88.35 6.9 88.35 9.8
Q 88.35 10.35 88.65 10.65 88.9 10.95 89.4 10.95
L 89.9 10.9 90.3 10.7 90.25 10.3
Q 89.9 10.5 89.55 10.5 89.25 10.5 89.1 10.3 88.9 10.15 88.9 9.7
L 88.9 6.9 90.05 6.9 90.15 6.45 88.9 6.45 88.9 5.2 Z"/>
</g>

<g id="IT_728x90_psd_Asset_4_ManagedWiFi_IT_Research_DM8_1_Want_a_more_cost_effective___efficient_and_agile_network__0_Layer0_0_MEMBER_41_FILL">
<path fill="#D82C26" stroke="none" d="
M 94.45 6.45
L 93.85 6.45 92.65 10.2 92.6 10.2 91.55 6.45 90.95 6.45 92.3 10.85 92.9 10.85 94.15 7.1 95.45 10.85 96.05 10.85 97.4 6.45 96.8 6.45 95.75 10.2 95.7 10.2 94.45 6.45 Z"/>
</g>

<g id="IT_728x90_psd_Asset_4_ManagedWiFi_IT_Research_DM8_1_Want_a_more_cost_effective___efficient_and_agile_network__0_Layer0_0_MEMBER_42_FILL">
<path fill="#D82C26" stroke="none" d="
M 101.6 10.7
Q 102.15 10.4 102.45 9.85 102.75 9.35 102.75 8.65 102.75 8 102.45 7.45 102.1 6.85 101.6 6.65 101.1 6.35 100.4 6.35 99.8 6.35 99.25 6.65 98.75 6.85 98.4 7.45 98.1 8 98.1 8.65 98.1 9.35 98.4 9.85 98.75 10.45 99.25 10.7 99.8 11 100.4 11 101.1 11 101.6 10.7
M 102 9.6
Q 101.7 10.05 101.35 10.25 101.05 10.5 100.4 10.5 99.8 10.5 99.5 10.25 99.15 10.05 98.85 9.6 98.65 9.2 98.65 8.65 98.65 8.1 98.85 7.7 99.15 7.25 99.5 7.05 99.9 6.8 100.4 6.8 100.95 6.8 101.35 7.05 101.7 7.25 102 7.7 102.2 8.1 102.2 8.65 102.2 9.2 102 9.6 Z"/>
</g>

<g id="IT_728x90_psd_Asset_4_ManagedWiFi_IT_Research_DM8_1_Want_a_more_cost_effective___efficient_and_agile_network__0_Layer0_0_MEMBER_43_FILL">
<path fill="#D82C26" stroke="none" d="
M 105.2 6.65
Q 104.85 6.9 104.65 7.4
L 104.6 6.45 104.05 6.45 104.1 10.85 104.65 10.85 104.65 8.65
Q 104.65 7.9 105 7.35 105.3 6.85 105.9 6.85
L 106.3 6.9 106.4 6.4 105.95 6.35
Q 105.5 6.35 105.2 6.65 Z"/>
</g>

<g id="IT_728x90_psd_Asset_4_ManagedWiFi_IT_Research_DM8_1_Want_a_more_cost_effective___efficient_and_agile_network__0_Layer0_0_MEMBER_44_FILL">
<path fill="#D82C26" stroke="none" d="
M 107.95 3.7
L 107.4 3.8 107.4 10.85 107.95 10.85 107.95 8.55 110.2 10.85 110.95 10.85 108.55 8.5 110.75 6.45 110 6.45 107.95 8.45 107.95 3.7 Z"/>
</g>

<g id="IT_728x90_psd_Asset_4_ManagedWiFi_IT_Research_DM8_1_Want_a_more_cost_effective___efficient_and_agile_network__0_Layer0_0_MEMBER_45_FILL">
<path fill="#D82C26" stroke="none" d="
M 113.85 4.85
Q 114.2 5.15 114.2 5.7
L 114.1 6.2
Q 114.05 6.3 113.85 6.65
L 113.35 7.15
Q 112.95 7.55 112.8 7.9 112.65 8.2 112.65 8.65
L 112.65 8.95 113.2 8.95 113.2 8.75 113.25 8.25 113.4 7.8 114.35 6.8
Q 114.6 6.55 114.65 6.3 114.8 6.1 114.8 5.7 114.8 5.2 114.55 4.8 114.3 4.5 113.9 4.25 113.3 4.05 112.95 4.05 112.45 4.05 111.85 4.3 111.45 4.5 111.1 4.85
L 111.35 5.3
Q 111.75 4.9 112 4.8 112.5 4.55 112.9 4.55 113.5 4.55 113.85 4.85
M 112.65 10.8
Q 112.75 10.9 112.95 10.9 113.15 10.9 113.25 10.8
L 113.35 10.5 113.25 10.2
Q 113.15 10.1 112.95 10.1 112.75 10.1 112.65 10.2 112.55 10.3 112.55 10.5 112.55 10.7 112.65 10.8 Z"/>
</g>
</defs>

<g transform="matrix( 1, 0, 0, 1, -223,-39) ">
<g transform="matrix( 1, 0, 0, 1, 223,52) ">
<g transform="matrix( 1, 0, 0, 1, 24,7) ">
<g transform="matrix( 2.6895904541015625, 0, 0, 2.672393798828125, 0.15,19.55) ">
<use xlink:href="#IT_728x90_psd_Asset_4_ManagedWiFi_IT_Research_DM8_1_Want_a_more_cost_effective___efficient_and_agile_network__0_Layer0_0_MEMBER_0_FILL"/>
</g>

<g transform="matrix( 2.6895904541015625, 0, 0, 2.672393798828125, 0.15,19.55) ">
<use xlink:href="#IT_728x90_psd_Asset_4_ManagedWiFi_IT_Research_DM8_1_Want_a_more_cost_effective___efficient_and_agile_network__0_Layer0_0_MEMBER_1_FILL"/>
</g>

<g transform="matrix( 2.6895904541015625, 0, 0, 2.672393798828125, 0.15,19.55) ">
<use xlink:href="#IT_728x90_psd_Asset_4_ManagedWiFi_IT_Research_DM8_1_Want_a_more_cost_effective___efficient_and_agile_network__0_Layer0_0_MEMBER_2_FILL"/>
</g>

<g transform="matrix( 2.6895904541015625, 0, 0, 2.672393798828125, 0.15,19.55) ">
<use xlink:href="#IT_728x90_psd_Asset_4_ManagedWiFi_IT_Research_DM8_1_Want_a_more_cost_effective___efficient_and_agile_network__0_Layer0_0_MEMBER_3_FILL"/>
</g>

<g transform="matrix( 2.6895904541015625, 0, 0, 2.672393798828125, 0.15,19.55) ">
<use xlink:href="#IT_728x90_psd_Asset_4_ManagedWiFi_IT_Research_DM8_1_Want_a_more_cost_effective___efficient_and_agile_network__0_Layer0_0_MEMBER_4_FILL"/>
</g>

<g transform="matrix( 2.6895904541015625, 0, 0, 2.672393798828125, 0.15,19.55) ">
<use xlink:href="#IT_728x90_psd_Asset_4_ManagedWiFi_IT_Research_DM8_1_Want_a_more_cost_effective___efficient_and_agile_network__0_Layer0_0_MEMBER_5_FILL"/>
</g>

<g transform="matrix( 2.6895904541015625, 0, 0, 2.672393798828125, 0.15,19.55) ">
<use xlink:href="#IT_728x90_psd_Asset_4_ManagedWiFi_IT_Research_DM8_1_Want_a_more_cost_effective___efficient_and_agile_network__0_Layer0_0_MEMBER_6_FILL"/>
</g>

<g transform="matrix( 2.6895904541015625, 0, 0, 2.672393798828125, 0.15,19.55) ">
<use xlink:href="#IT_728x90_psd_Asset_4_ManagedWiFi_IT_Research_DM8_1_Want_a_more_cost_effective___efficient_and_agile_network__0_Layer0_0_MEMBER_7_FILL"/>
</g>

<g transform="matrix( 2.6895904541015625, 0, 0, 2.672393798828125, 0.15,19.55) ">
<use xlink:href="#IT_728x90_psd_Asset_4_ManagedWiFi_IT_Research_DM8_1_Want_a_more_cost_effective___efficient_and_agile_network__0_Layer0_0_MEMBER_8_FILL"/>
</g>

<g transform="matrix( 2.6895904541015625, 0, 0, 2.672393798828125, 0.15,19.55) ">
<use xlink:href="#IT_728x90_psd_Asset_4_ManagedWiFi_IT_Research_DM8_1_Want_a_more_cost_effective___efficient_and_agile_network__0_Layer0_0_MEMBER_9_FILL"/>
</g>

<g transform="matrix( 2.6895904541015625, 0, 0, 2.672393798828125, 0.15,19.55) ">
<use xlink:href="#IT_728x90_psd_Asset_4_ManagedWiFi_IT_Research_DM8_1_Want_a_more_cost_effective___efficient_and_agile_network__0_Layer0_0_MEMBER_10_FILL"/>
</g>

<g transform="matrix( 2.6895904541015625, 0, 0, 2.672393798828125, 0.15,19.55) ">
<use xlink:href="#IT_728x90_psd_Asset_4_ManagedWiFi_IT_Research_DM8_1_Want_a_more_cost_effective___efficient_and_agile_network__0_Layer0_0_MEMBER_11_FILL"/>
</g>

<g transform="matrix( 2.6895904541015625, 0, 0, 2.672393798828125, 0.15,19.55) ">
<use xlink:href="#IT_728x90_psd_Asset_4_ManagedWiFi_IT_Research_DM8_1_Want_a_more_cost_effective___efficient_and_agile_network__0_Layer0_0_MEMBER_12_FILL"/>
</g>

<g transform="matrix( 2.6895904541015625, 0, 0, 2.672393798828125, 0.15,19.55) ">
<use xlink:href="#IT_728x90_psd_Asset_4_ManagedWiFi_IT_Research_DM8_1_Want_a_more_cost_effective___efficient_and_agile_network__0_Layer0_0_MEMBER_13_FILL"/>
</g>

<g transform="matrix( 2.6895904541015625, 0, 0, 2.672393798828125, 0.15,19.55) ">
<use xlink:href="#IT_728x90_psd_Asset_4_ManagedWiFi_IT_Research_DM8_1_Want_a_more_cost_effective___efficient_and_agile_network__0_Layer0_0_MEMBER_14_FILL"/>
</g>

<g transform="matrix( 2.6895904541015625, 0, 0, 2.672393798828125, 0.15,19.55) ">
<use xlink:href="#IT_728x90_psd_Asset_4_ManagedWiFi_IT_Research_DM8_1_Want_a_more_cost_effective___efficient_and_agile_network__0_Layer0_0_MEMBER_15_FILL"/>
</g>

<g transform="matrix( 2.6895904541015625, 0, 0, 2.672393798828125, 0.15,19.55) ">
<use xlink:href="#IT_728x90_psd_Asset_4_ManagedWiFi_IT_Research_DM8_1_Want_a_more_cost_effective___efficient_and_agile_network__0_Layer0_0_MEMBER_16_FILL"/>
</g>

<g transform="matrix( 2.6895904541015625, 0, 0, 2.672393798828125, 0.15,19.55) ">
<use xlink:href="#IT_728x90_psd_Asset_4_ManagedWiFi_IT_Research_DM8_1_Want_a_more_cost_effective___efficient_and_agile_network__0_Layer0_0_MEMBER_17_FILL"/>
</g>

<g transform="matrix( 2.6895904541015625, 0, 0, 2.672393798828125, 0.15,19.55) ">
<use xlink:href="#IT_728x90_psd_Asset_4_ManagedWiFi_IT_Research_DM8_1_Want_a_more_cost_effective___efficient_and_agile_network__0_Layer0_0_MEMBER_18_FILL"/>
</g>

<g transform="matrix( 2.6895904541015625, 0, 0, 2.672393798828125, 0.15,19.55) ">
<use xlink:href="#IT_728x90_psd_Asset_4_ManagedWiFi_IT_Research_DM8_1_Want_a_more_cost_effective___efficient_and_agile_network__0_Layer0_0_MEMBER_19_FILL"/>
</g>

<g transform="matrix( 2.6895904541015625, 0, 0, 2.672393798828125, 0.15,19.55) ">
<use xlink:href="#IT_728x90_psd_Asset_4_ManagedWiFi_IT_Research_DM8_1_Want_a_more_cost_effective___efficient_and_agile_network__0_Layer0_0_MEMBER_20_FILL"/>
</g>

<g transform="matrix( 2.6895904541015625, 0, 0, 2.672393798828125, 0.15,19.55) ">
<use xlink:href="#IT_728x90_psd_Asset_4_ManagedWiFi_IT_Research_DM8_1_Want_a_more_cost_effective___efficient_and_agile_network__0_Layer0_0_MEMBER_21_FILL"/>
</g>

<g transform="matrix( 2.6895904541015625, 0, 0, 2.672393798828125, 0.15,19.55) ">
<use xlink:href="#IT_728x90_psd_Asset_4_ManagedWiFi_IT_Research_DM8_1_Want_a_more_cost_effective___efficient_and_agile_network__0_Layer0_0_MEMBER_22_FILL"/>
</g>

<g transform="matrix( 2.6895904541015625, 0, 0, 2.672393798828125, 0.15,19.55) ">
<use xlink:href="#IT_728x90_psd_Asset_4_ManagedWiFi_IT_Research_DM8_1_Want_a_more_cost_effective___efficient_and_agile_network__0_Layer0_0_MEMBER_23_FILL"/>
</g>

<g transform="matrix( 2.6895904541015625, 0, 0, 2.672393798828125, 0.15,19.55) ">
<use xlink:href="#IT_728x90_psd_Asset_4_ManagedWiFi_IT_Research_DM8_1_Want_a_more_cost_effective___efficient_and_agile_network__0_Layer0_0_MEMBER_24_FILL"/>
</g>

<g transform="matrix( 2.6895904541015625, 0, 0, 2.672393798828125, 0.15,19.55) ">
<use xlink:href="#IT_728x90_psd_Asset_4_ManagedWiFi_IT_Research_DM8_1_Want_a_more_cost_effective___efficient_and_agile_network__0_Layer0_0_MEMBER_25_FILL"/>
</g>

<g transform="matrix( 2.6895904541015625, 0, 0, 2.672393798828125, 0.15,19.55) ">
<use xlink:href="#IT_728x90_psd_Asset_4_ManagedWiFi_IT_Research_DM8_1_Want_a_more_cost_effective___efficient_and_agile_network__0_Layer0_0_MEMBER_26_FILL"/>
</g>

<g transform="matrix( 2.6895904541015625, 0, 0, 2.672393798828125, 0.15,19.55) ">
<use xlink:href="#IT_728x90_psd_Asset_4_ManagedWiFi_IT_Research_DM8_1_Want_a_more_cost_effective___efficient_and_agile_network__0_Layer0_0_MEMBER_27_FILL"/>
</g>

<g transform="matrix( 2.6895904541015625, 0, 0, 2.672393798828125, 0.15,19.55) ">
<use xlink:href="#IT_728x90_psd_Asset_4_ManagedWiFi_IT_Research_DM8_1_Want_a_more_cost_effective___efficient_and_agile_network__0_Layer0_0_MEMBER_28_FILL"/>
</g>

<g transform="matrix( 2.6895904541015625, 0, 0, 2.672393798828125, 0.15,19.55) ">
<use xlink:href="#IT_728x90_psd_Asset_4_ManagedWiFi_IT_Research_DM8_1_Want_a_more_cost_effective___efficient_and_agile_network__0_Layer0_0_MEMBER_29_FILL"/>
</g>

<g transform="matrix( 2.6895904541015625, 0, 0, 2.672393798828125, 0.15,19.55) ">
<use xlink:href="#IT_728x90_psd_Asset_4_ManagedWiFi_IT_Research_DM8_1_Want_a_more_cost_effective___efficient_and_agile_network__0_Layer0_0_MEMBER_30_FILL"/>
</g>

<g transform="matrix( 2.6895904541015625, 0, 0, 2.672393798828125, 0.15,19.55) ">
<use xlink:href="#IT_728x90_psd_Asset_4_ManagedWiFi_IT_Research_DM8_1_Want_a_more_cost_effective___efficient_and_agile_network__0_Layer0_0_MEMBER_31_FILL"/>
</g>

<g transform="matrix( 2.6895904541015625, 0, 0, 2.672393798828125, 0.15,19.55) ">
<use xlink:href="#IT_728x90_psd_Asset_4_ManagedWiFi_IT_Research_DM8_1_Want_a_more_cost_effective___efficient_and_agile_network__0_Layer0_0_MEMBER_32_FILL"/>
</g>

<g transform="matrix( 2.6895904541015625, 0, 0, 2.672393798828125, 0.15,19.55) ">
<use xlink:href="#IT_728x90_psd_Asset_4_ManagedWiFi_IT_Research_DM8_1_Want_a_more_cost_effective___efficient_and_agile_network__0_Layer0_0_MEMBER_33_FILL"/>
</g>

<g transform="matrix( 2.6895904541015625, 0, 0, 2.672393798828125, 0.15,19.55) ">
<use xlink:href="#IT_728x90_psd_Asset_4_ManagedWiFi_IT_Research_DM8_1_Want_a_more_cost_effective___efficient_and_agile_network__0_Layer0_0_MEMBER_34_FILL"/>
</g>

<g transform="matrix( 2.6895904541015625, 0, 0, 2.672393798828125, 0.15,19.55) ">
<use xlink:href="#IT_728x90_psd_Asset_4_ManagedWiFi_IT_Research_DM8_1_Want_a_more_cost_effective___efficient_and_agile_network__0_Layer0_0_MEMBER_35_FILL"/>
</g>

<g transform="matrix( 2.6895904541015625, 0, 0, 2.672393798828125, 0.15,19.55) ">
<use xlink:href="#IT_728x90_psd_Asset_4_ManagedWiFi_IT_Research_DM8_1_Want_a_more_cost_effective___efficient_and_agile_network__0_Layer0_0_MEMBER_36_FILL"/>
</g>

<g transform="matrix( 2.6895904541015625, 0, 0, 2.672393798828125, 0.15,19.55) ">
<use xlink:href="#IT_728x90_psd_Asset_4_ManagedWiFi_IT_Research_DM8_1_Want_a_more_cost_effective___efficient_and_agile_network__0_Layer0_0_MEMBER_37_FILL"/>
</g>

<g transform="matrix( 2.6895904541015625, 0, 0, 2.672393798828125, 0.15,19.55) ">
<use xlink:href="#IT_728x90_psd_Asset_4_ManagedWiFi_IT_Research_DM8_1_Want_a_more_cost_effective___efficient_and_agile_network__0_Layer0_0_MEMBER_38_FILL"/>
</g>

<g transform="matrix( 2.6895904541015625, 0, 0, 2.672393798828125, 0.15,19.55) ">
<use xlink:href="#IT_728x90_psd_Asset_4_ManagedWiFi_IT_Research_DM8_1_Want_a_more_cost_effective___efficient_and_agile_network__0_Layer0_0_MEMBER_39_FILL"/>
</g>

<g transform="matrix( 2.6895904541015625, 0, 0, 2.672393798828125, 0.15,19.55) ">
<use xlink:href="#IT_728x90_psd_Asset_4_ManagedWiFi_IT_Research_DM8_1_Want_a_more_cost_effective___efficient_and_agile_network__0_Layer0_0_MEMBER_40_FILL"/>
</g>

<g transform="matrix( 2.6895904541015625, 0, 0, 2.672393798828125, 0.15,19.55) ">
<use xlink:href="#IT_728x90_psd_Asset_4_ManagedWiFi_IT_Research_DM8_1_Want_a_more_cost_effective___efficient_and_agile_network__0_Layer0_0_MEMBER_41_FILL"/>
</g>

<g transform="matrix( 2.6895904541015625, 0, 0, 2.672393798828125, 0.15,19.55) ">
<use xlink:href="#IT_728x90_psd_Asset_4_ManagedWiFi_IT_Research_DM8_1_Want_a_more_cost_effective___efficient_and_agile_network__0_Layer0_0_MEMBER_42_FILL"/>
</g>

<g transform="matrix( 2.6895904541015625, 0, 0, 2.672393798828125, 0.15,19.55) ">
<use xlink:href="#IT_728x90_psd_Asset_4_ManagedWiFi_IT_Research_DM8_1_Want_a_more_cost_effective___efficient_and_agile_network__0_Layer0_0_MEMBER_43_FILL"/>
</g>

<g transform="matrix( 2.6895904541015625, 0, 0, 2.672393798828125, 0.15,19.55) ">
<use xlink:href="#IT_728x90_psd_Asset_4_ManagedWiFi_IT_Research_DM8_1_Want_a_more_cost_effective___efficient_and_agile_network__0_Layer0_0_MEMBER_44_FILL"/>
</g>

<g transform="matrix( 2.6895904541015625, 0, 0, 2.672393798828125, 0.15,19.55) ">
<use xlink:href="#IT_728x90_psd_Asset_4_ManagedWiFi_IT_Research_DM8_1_Want_a_more_cost_effective___efficient_and_agile_network__0_Layer0_0_MEMBER_45_FILL"/>
</g>
</g>
</g>
</g>
</svg>
