
<svg xmlns="http://www.w3.org/2000/svg" version="1.1" xmlns:xlink="http://www.w3.org/1999/xlink" preserveAspectRatio="none" x="0px" y="0px" width="728px" height="90px" viewBox="0 0 728 90">
<defs>
<g id="IT_728x90_psd_Asset_4_ManagedWiFi_IT_Research_DM8_2_Network_as_a_Service_solutions_can_help___0_Layer0_0_MEMBER_0_FILL">
<path fill="#D82C26" stroke="none" d="
M 1.6 -6.6
L 0.9 -6.6 0.9 0 1.45 0 1.45 -5.85 1.5 -5.85 5.65 0 6.35 0 6.35 -6.6 5.8 -6.6 5.8 -0.8 5.75 -0.8 1.6 -6.6 Z"/>
</g>

<g id="IT_728x90_psd_Asset_4_ManagedWiFi_IT_Research_DM8_2_Network_as_a_Service_solutions_can_help___0_Layer0_0_MEMBER_1_FILL">
<path fill="#D82C26" stroke="none" d="
M 8.9 -4.2
Q 8.45 -4 8.1 -3.4 7.85 -2.95 7.85 -2.2 7.85 -1.45 8.1 -1 8.4 -0.5 8.9 -0.15 9.45 0.15 10.05 0.15 11.1 0.15 11.8 -0.4
L 11.75 -0.9
Q 11.4 -0.65 11 -0.5 10.65 -0.3 10.1 -0.3 9.7 -0.3 9.2 -0.55 8.85 -0.75 8.6 -1.2 8.35 -1.7 8.35 -2.1
L 12.05 -2.1 12.1 -2.35
Q 12.1 -2.85 11.85 -3.45 11.6 -3.95 11.1 -4.25 10.6 -4.5 10 -4.5 9.35 -4.5 8.9 -4.2
M 9.15 -3.85
Q 9.55 -4.1 10 -4.1 10.75 -4.1 11.1 -3.65 11.55 -3.2 11.55 -2.5
L 8.35 -2.5
Q 8.45 -3 8.6 -3.25 8.75 -3.5 9.15 -3.85 Z"/>
</g>

<g id="IT_728x90_psd_Asset_4_ManagedWiFi_IT_Research_DM8_2_Network_as_a_Service_solutions_can_help___0_Layer0_0_MEMBER_2_FILL">
<path fill="#D82C26" stroke="none" d="
M 14.05 -4.4
L 14.05 -5.65 13.5 -5.45 13.5 -4.4 12.8 -4.4 12.7 -3.95 13.55 -3.95 13.55 -1.05
Q 13.55 -0.45 13.8 -0.2 14.1 0.1 14.55 0.1
L 15.05 0.05 15.5 -0.15 15.4 -0.55
Q 15.05 -0.35 14.7 -0.35 14.4 -0.35 14.25 -0.55 14.05 -0.75 14.05 -1.15
L 14.05 -3.95 15.2 -3.95 15.3 -4.4 14.05 -4.4 Z"/>
</g>

<g id="IT_728x90_psd_Asset_4_ManagedWiFi_IT_Research_DM8_2_Network_as_a_Service_solutions_can_help___0_Layer0_0_MEMBER_3_FILL">
<path fill="#D82C26" stroke="none" d="
M 16.7 -4.4
L 16.1 -4.4 17.45 0 18.05 0 19.3 -3.75 19.35 -3.75 20.6 0 21.2 0 22.55 -4.4 22 -4.4 20.9 -0.65 19.65 -4.4 19.05 -4.4 17.8 -0.65 16.7 -4.4 Z"/>
</g>

<g id="IT_728x90_psd_Asset_4_ManagedWiFi_IT_Research_DM8_2_Network_as_a_Service_solutions_can_help___0_Layer0_0_MEMBER_4_FILL">
<path fill="#D82C26" stroke="none" d="
M 23.55 -1
Q 23.85 -0.45 24.4 -0.15 24.95 0.15 25.6 0.15 26.3 0.15 26.8 -0.15 27.25 -0.4 27.6 -1 27.9 -1.5 27.9 -2.2 27.9 -2.85 27.6 -3.4 27.25 -4 26.8 -4.2 26.3 -4.5 25.6 -4.5 24.95 -4.5 24.4 -4.2 23.9 -4 23.55 -3.4 23.25 -2.85 23.25 -2.2 23.25 -1.5 23.55 -1
M 24 -3.15
Q 24.3 -3.6 24.65 -3.8 25.05 -4.05 25.6 -4.05 26.1 -4.05 26.5 -3.8 26.85 -3.6 27.15 -3.15 27.35 -2.75 27.35 -2.2 27.35 -1.65 27.15 -1.25 26.9 -0.8 26.55 -0.6 26.2 -0.35 25.6 -0.35 24.95 -0.35 24.65 -0.6 24.3 -0.8 24 -1.25 23.8 -1.85 23.8 -2.2 23.8 -2.55 24 -3.15 Z"/>
</g>

<g id="IT_728x90_psd_Asset_4_ManagedWiFi_IT_Research_DM8_2_Network_as_a_Service_solutions_can_help___0_Layer0_0_MEMBER_5_FILL">
<path fill="#D82C26" stroke="none" d="
M 29.75 -4.4
L 29.25 -4.4 29.25 0 29.8 0 29.8 -2.2
Q 29.8 -2.9 30.15 -3.5 30.5 -4 31.05 -4
L 31.45 -3.95 31.55 -4.45 31.1 -4.5
Q 30.75 -4.5 30.35 -4.2 30.1 -4.05 29.8 -3.45
L 29.75 -4.4 Z"/>
</g>

<g id="IT_728x90_psd_Asset_4_ManagedWiFi_IT_Research_DM8_2_Network_as_a_Service_solutions_can_help___0_Layer0_0_MEMBER_6_FILL">
<path fill="#D82C26" stroke="none" d="
M 33.1 -7.15
L 32.55 -7.05 32.55 0 33.1 0 33.1 -2.3 33.15 -2.3 35.4 0 36.1 0 33.75 -2.35 35.9 -4.4 35.15 -4.4 33.15 -2.4 33.1 -2.4 33.1 -7.15 Z"/>
</g>

<g id="IT_728x90_psd_Asset_4_ManagedWiFi_IT_Research_DM8_2_Network_as_a_Service_solutions_can_help___0_Layer0_0_MEMBER_7_FILL">
<path fill="#D82C26" stroke="none" d="
M 38.95 -1.2
Q 38.95 -0.5 39.35 -0.2 39.8 0.1 40.35 0.1 41 0.1 41.35 -0.15 41.75 -0.35 42 -0.85
L 42.1 0 42.6 0 42.5 -0.95 42.5 -2.85
Q 42.5 -3.65 42.05 -4.1 41.65 -4.5 40.8 -4.5 40.35 -4.5 39.95 -4.35 39.55 -4.3 39.2 -3.95
L 39.35 -3.55 40 -3.9
Q 40.35 -4.1 40.75 -4.1 41.35 -4.1 41.65 -3.75 42 -3.45 42 -2.9
L 42 -2.65 41.45 -2.65
Q 38.95 -2.65 38.95 -1.2
M 39.75 -0.5
Q 39.5 -0.7 39.5 -1.2 39.5 -2.25 41.55 -2.25
L 42 -2.25 42 -1.8
Q 42 -1.45 41.8 -1.1 41.65 -0.7 41.3 -0.5 40.95 -0.3 40.45 -0.3 40 -0.3 39.75 -0.5 Z"/>
</g>

<g id="IT_728x90_psd_Asset_4_ManagedWiFi_IT_Research_DM8_2_Network_as_a_Service_solutions_can_help___0_Layer0_0_MEMBER_8_FILL">
<path fill="#D82C26" stroke="none" d="
M 44.65 -3.9
Q 44.95 -4.1 45.3 -4.1 45.65 -4.1 45.95 -3.95 46.05 -3.95 46.45 -3.65
L 46.7 -4.05 46.05 -4.4 45.3 -4.5 44.6 -4.4
Q 44.3 -4.3 44.05 -3.95 43.85 -3.75 43.85 -3.3 43.85 -2.85 44.15 -2.55 44.45 -2.25 45.1 -2.1
L 46 -1.65
Q 46.3 -1.5 46.3 -1.15 46.3 -0.75 46 -0.55 45.65 -0.3 45.3 -0.3 44.5 -0.3 43.85 -0.85
L 43.75 -0.35 44.45 0
Q 44.7 0.1 45.35 0.1
L 46.05 0
Q 46.35 -0.1 46.6 -0.45 46.8 -0.7 46.8 -1.15 46.8 -1.65 46.5 -1.95 45.9 -2.3 45.45 -2.45 44.75 -2.7 44.6 -2.85 44.35 -3 44.35 -3.35 44.35 -3.65 44.65 -3.9 Z"/>
</g>

<g id="IT_728x90_psd_Asset_4_ManagedWiFi_IT_Research_DM8_2_Network_as_a_Service_solutions_can_help___0_Layer0_0_MEMBER_9_FILL">
<path fill="#D82C26" stroke="none" d="
M 50 -1.2
Q 50 -0.45 50.4 -0.2 50.8 0.1 51.35 0.1 52 0.1 52.35 -0.15 52.85 -0.4 53 -0.85
L 53.05 -0.85 53.05 -0.4 53.1 0 53.6 0 53.55 -2.85
Q 53.55 -3.65 53.1 -4.1 52.7 -4.5 51.85 -4.5 51.4 -4.5 50.95 -4.35 50.65 -4.3 50.2 -3.95
L 50.4 -3.55
Q 50.6 -3.75 51.05 -3.9 51.4 -4.1 51.75 -4.1 52.35 -4.1 52.7 -3.75 53 -3.45 53 -2.9
L 53 -2.65 52.5 -2.65
Q 50 -2.65 50 -1.2
M 52.55 -2.25
L 53 -2.25 53 -1.8 52.85 -1.1
Q 52.7 -0.8 52.35 -0.5 52 -0.3 51.5 -0.3 51.05 -0.3 50.8 -0.5 50.5 -0.7 50.5 -1.2 50.5 -2.25 52.55 -2.25 Z"/>
</g>

<g id="IT_728x90_psd_Asset_4_ManagedWiFi_IT_Research_DM8_2_Network_as_a_Service_solutions_can_help___0_Layer0_0_MEMBER_10_FILL">
<path fill="#D82C26" stroke="none" d="
M 59.3 -6.8
Q 58.7 -6.8 58.3 -6.6 57.8 -6.4 57.5 -6 57.2 -5.55 57.2 -5 57.2 -4.45 57.45 -4.05 57.65 -3.75 58.1 -3.5
L 59.95 -2.75 60.45 -2.35
Q 60.65 -2.1 60.65 -1.65 60.65 -1 60.2 -0.65 59.7 -0.3 59.1 -0.3 58.8 -0.3 58.1 -0.5 57.65 -0.7 57.2 -1.05
L 57.1 -0.5
Q 57.4 -0.25 58 0 58.8 0.2 59.15 0.2 59.65 0.2 60.15 -0.05 60.65 -0.25 60.95 -0.7 61.25 -1.05 61.25 -1.7 61.25 -2.25 61 -2.6 60.65 -3.05 60.3 -3.15 59.85 -3.45 59.3 -3.55
L 58.45 -3.9
Q 58.2 -4.05 57.95 -4.35 57.75 -4.55 57.75 -5 57.75 -5.4 58 -5.75 58.15 -5.95 58.55 -6.15
L 59.3 -6.3
Q 59.75 -6.3 60.2 -6.15 60.6 -6 60.95 -5.75
L 61.1 -6.25 60.3 -6.65
Q 59.85 -6.8 59.3 -6.8 Z"/>
</g>

<g id="IT_728x90_psd_Asset_4_ManagedWiFi_IT_Research_DM8_2_Network_as_a_Service_solutions_can_help___0_Layer0_0_MEMBER_11_FILL">
<path fill="#D82C26" stroke="none" d="
M 65.7 -4.25
Q 65.1 -4.5 64.55 -4.5 64 -4.5 63.45 -4.2 63 -4 62.65 -3.4 62.4 -2.8 62.4 -2.2 62.4 -1.5 62.7 -1 62.9 -0.5 63.5 -0.15 63.95 0.15 64.65 0.15 65.6 0.15 66.4 -0.4
L 66.3 -0.9 65.6 -0.5
Q 65.2 -0.3 64.7 -0.3 64.2 -0.3 63.8 -0.55 63.45 -0.75 63.15 -1.2 63 -1.5 62.9 -2.1
L 66.65 -2.1 66.65 -2.35
Q 66.65 -2.85 66.4 -3.45 66.15 -3.95 65.7 -4.25
M 64.55 -4.1
Q 65.25 -4.1 65.7 -3.65 66.1 -3.15 66.1 -2.5
L 62.95 -2.5
Q 62.95 -2.9 63.15 -3.25 63.3 -3.5 63.7 -3.85 64.1 -4.1 64.55 -4.1 Z"/>
</g>

<g id="IT_728x90_psd_Asset_4_ManagedWiFi_IT_Research_DM8_2_Network_as_a_Service_solutions_can_help___0_Layer0_0_MEMBER_12_FILL">
<path fill="#D82C26" stroke="none" d="
M 68.5 -3.45
L 68.45 -4.4 67.95 -4.4 68 0 68.55 0 68.55 -2.2
Q 68.55 -2.95 68.85 -3.5 69.2 -4 69.75 -4
L 70.15 -3.95 70.3 -4.45 69.8 -4.5
Q 69.45 -4.5 69.05 -4.2 68.75 -4 68.55 -3.45
L 68.5 -3.45 Z"/>
</g>

<g id="IT_728x90_psd_Asset_4_ManagedWiFi_IT_Research_DM8_2_Network_as_a_Service_solutions_can_help___0_Layer0_0_MEMBER_13_FILL">
<path fill="#D82C26" stroke="none" d="
M 71.45 -4.4
L 70.85 -4.4 72.55 0 73.15 0 74.8 -4.4 74.25 -4.4 72.85 -0.55 71.45 -4.4 Z"/>
</g>

<g id="IT_728x90_psd_Asset_4_ManagedWiFi_IT_Research_DM8_2_Network_as_a_Service_solutions_can_help___0_Layer0_0_MEMBER_14_FILL">
<path fill="#D82C26" stroke="none" d="
M 76.4 -4.4
L 75.85 -4.4 75.85 0 76.4 0 76.4 -4.4
M 76.4 -6.4
L 76.1 -6.55 75.8 -6.4 75.7 -6.15
Q 75.7 -6.05 75.8 -5.85 75.9 -5.75 76.1 -5.75 76.3 -5.75 76.4 -5.85
L 76.5 -6.15 76.4 -6.4 Z"/>
</g>

<g id="IT_728x90_psd_Asset_4_ManagedWiFi_IT_Research_DM8_2_Network_as_a_Service_solutions_can_help___0_Layer0_0_MEMBER_15_FILL">
<path fill="#D82C26" stroke="none" d="
M 80 -4.5
Q 79.4 -4.5 78.85 -4.2 78.25 -3.85 78 -3.4 77.7 -2.85 77.7 -2.2 77.7 -1.5 78 -1 78.3 -0.45 78.85 -0.15 79.3 0.15 80 0.15 80.5 0.15 80.85 0
L 81.5 -0.4 81.4 -0.85
Q 81.15 -0.6 80.8 -0.5 80.5 -0.35 80.05 -0.35 79.6 -0.35 79.1 -0.6 78.75 -0.8 78.5 -1.25 78.3 -1.65 78.3 -2.2 78.3 -2.75 78.5 -3.1 78.75 -3.6 79.1 -3.8 79.6 -4.05 80.05 -4.05 80.4 -4.05 80.7 -3.9 81 -3.85 81.3 -3.55
L 81.5 -4
Q 81.2 -4.3 80.85 -4.35 80.5 -4.5 80 -4.5 Z"/>
</g>

<g id="IT_728x90_psd_Asset_4_ManagedWiFi_IT_Research_DM8_2_Network_as_a_Service_solutions_can_help___0_Layer0_0_MEMBER_16_FILL">
<path fill="#D82C26" stroke="none" d="
M 85.6 -4.25
Q 85 -4.5 84.45 -4.5 83.9 -4.5 83.35 -4.2 82.9 -4 82.55 -3.4 82.3 -2.95 82.3 -2.2 82.3 -1.6 82.55 -1 82.85 -0.5 83.35 -0.15 83.9 0.15 84.5 0.15 85.55 0.15 86.25 -0.4
L 86.2 -0.9
Q 85.85 -0.65 85.45 -0.5 85.1 -0.3 84.55 -0.3 84.15 -0.3 83.65 -0.55 83.3 -0.75 83.05 -1.2 82.8 -1.7 82.8 -2.1
L 86.55 -2.1 86.55 -2.35
Q 86.55 -2.85 86.3 -3.45 86.05 -3.95 85.6 -4.25
M 84.45 -4.1
Q 85.2 -4.1 85.55 -3.65 86 -3.2 86 -2.5
L 82.8 -2.5
Q 82.9 -3 83.05 -3.25 83.2 -3.5 83.6 -3.85 84 -4.1 84.45 -4.1 Z"/>
</g>

<g id="IT_728x90_psd_Asset_4_ManagedWiFi_IT_Research_DM8_2_Network_as_a_Service_solutions_can_help___0_Layer0_0_MEMBER_17_FILL">
<path fill="#D82C26" stroke="none" d="
M 89.8 -0.85
L 89.7 -0.35 90.4 0
Q 90.7 0.1 91.3 0.1
L 92 0
Q 92.4 -0.15 92.55 -0.45 92.8 -0.8 92.8 -1.15 92.8 -1.6 92.45 -1.95 92.05 -2.25 91.45 -2.45 90.7 -2.7 90.55 -2.85 90.3 -3 90.3 -3.35 90.3 -3.65 90.6 -3.9 91 -4.1 91.3 -4.1 91.6 -4.1 91.9 -3.95 92 -3.95 92.4 -3.65
L 92.65 -4.05
Q 92.45 -4.25 92.05 -4.4
L 91.25 -4.5 90.55 -4.4
Q 90.2 -4.25 90 -3.95 89.8 -3.65 89.8 -3.3 89.8 -2.85 90.1 -2.55 90.4 -2.25 91.05 -2.1 91.75 -1.85 91.95 -1.65 92.25 -1.5 92.25 -1.15 92.25 -0.75 91.95 -0.55 91.7 -0.3 91.3 -0.3 90.45 -0.3 89.8 -0.85 Z"/>
</g>

<g id="IT_728x90_psd_Asset_4_ManagedWiFi_IT_Research_DM8_2_Network_as_a_Service_solutions_can_help___0_Layer0_0_MEMBER_18_FILL">
<path fill="#D82C26" stroke="none" d="
M 94.9 -4.2
Q 94.45 -4 94.1 -3.4 93.8 -2.85 93.8 -2.2 93.8 -1.5 94.1 -1 94.45 -0.4 94.9 -0.15 95.45 0.15 96.1 0.15 96.8 0.15 97.3 -0.15 97.85 -0.45 98.15 -1 98.45 -1.5 98.45 -2.2 98.45 -2.85 98.15 -3.4 97.8 -4 97.3 -4.2 96.8 -4.5 96.1 -4.5 95.45 -4.5 94.9 -4.2
M 95.15 -3.8
Q 95.65 -4.05 96.1 -4.05 96.65 -4.05 97.05 -3.8 97.4 -3.6 97.7 -3.15 97.9 -2.75 97.9 -2.2 97.9 -1.65 97.7 -1.25 97.4 -0.8 97.05 -0.6 96.75 -0.35 96.1 -0.35 95.55 -0.35 95.15 -0.6 94.8 -0.8 94.55 -1.25 94.35 -1.65 94.35 -2.2 94.35 -2.75 94.55 -3.15 94.8 -3.6 95.15 -3.8 Z"/>
</g>

<g id="IT_728x90_psd_Asset_4_ManagedWiFi_IT_Research_DM8_2_Network_as_a_Service_solutions_can_help___0_Layer0_0_MEMBER_19_FILL">
<path fill="#D82C26" stroke="none" d="
M 99.8 -0.95
Q 99.8 -0.5 100 -0.3 100.25 0.05 100.5 0.1
L 100.75 -0.35 100.45 -0.6 100.35 -1.1 100.35 -7.15 99.8 -7.05 99.8 -0.95 Z"/>
</g>

<g id="IT_728x90_psd_Asset_4_ManagedWiFi_IT_Research_DM8_2_Network_as_a_Service_solutions_can_help___0_Layer0_0_MEMBER_20_FILL">
<path fill="#D82C26" stroke="none" d="
M 105.75 -4.4
L 105.2 -4.4 105.2 -2.2
Q 105.2 -1.8 105 -1.2 104.75 -0.75 104.45 -0.55 104.2 -0.35 103.75 -0.35 103.05 -0.35 102.8 -0.75 102.55 -1.25 102.55 -1.85
L 102.55 -4.4 102 -4.4 102 -1.7
Q 102 -0.9 102.35 -0.4 102.8 0.1 103.6 0.1 104.05 0.1 104.55 -0.15 105 -0.45 105.2 -0.95
L 105.25 0 105.8 0 105.75 -4.4 Z"/>
</g>

<g id="IT_728x90_psd_Asset_4_ManagedWiFi_IT_Research_DM8_2_Network_as_a_Service_solutions_can_help___0_Layer0_0_MEMBER_21_FILL">
<path fill="#D82C26" stroke="none" d="
M 109.3 -3.95
L 109.4 -4.4 108.15 -4.4 108.15 -5.65 107.6 -5.45 107.6 -4.4 106.9 -4.4 106.8 -3.95 107.6 -3.95 107.6 -1.05
Q 107.6 -0.5 107.9 -0.2 108.15 0.1 108.65 0.1
L 109.1 0.05
Q 109.45 -0.05 109.55 -0.15
L 109.5 -0.55
Q 109.15 -0.35 108.8 -0.35 108.5 -0.35 108.3 -0.55 108.15 -0.7 108.15 -1.15
L 108.15 -3.95 109.3 -3.95 Z"/>
</g>

<g id="IT_728x90_psd_Asset_4_ManagedWiFi_IT_Research_DM8_2_Network_as_a_Service_solutions_can_help___0_Layer0_0_MEMBER_22_FILL">
<path fill="#D82C26" stroke="none" d="
M 111.15 -4.4
L 110.6 -4.4 110.6 0 111.15 0 111.15 -4.4
M 111.15 -6.4
Q 111 -6.55 110.85 -6.55 110.7 -6.55 110.6 -6.4 110.5 -6.35 110.5 -6.15 110.5 -5.95 110.6 -5.85 110.65 -5.75 110.85 -5.75 111.05 -5.75 111.15 -5.85 111.25 -5.95 111.25 -6.15 111.25 -6.35 111.15 -6.4 Z"/>
</g>

<g id="IT_728x90_psd_Asset_4_ManagedWiFi_IT_Research_DM8_2_Network_as_a_Service_solutions_can_help___0_Layer0_0_MEMBER_23_FILL">
<path fill="#D82C26" stroke="none" d="
M 116 -4.2
Q 115.5 -4.5 114.8 -4.5 114.2 -4.5 113.65 -4.2 113.15 -4 112.8 -3.4 112.5 -2.85 112.5 -2.2 112.5 -1.5 112.8 -1 113.1 -0.45 113.65 -0.15 114.2 0.15 114.8 0.15 115.5 0.15 116 -0.15 116.55 -0.45 116.85 -1 117.15 -1.5 117.15 -2.2 117.15 -2.85 116.85 -3.4 116.5 -4 116 -4.2
M 115.75 -3.8
Q 116.1 -3.6 116.4 -3.15 116.6 -2.75 116.6 -2.2 116.6 -1.65 116.4 -1.25 116.1 -0.8 115.75 -0.6 115.45 -0.35 114.8 -0.35 114.2 -0.35 113.9 -0.6 113.55 -0.8 113.25 -1.25 113.05 -1.65 113.05 -2.2 113.05 -2.75 113.25 -3.15 113.55 -3.6 113.9 -3.8 114.3 -4.05 114.8 -4.05 115.35 -4.05 115.75 -3.8 Z"/>
</g>

<g id="IT_728x90_psd_Asset_4_ManagedWiFi_IT_Research_DM8_2_Network_as_a_Service_solutions_can_help___0_Layer0_0_MEMBER_24_FILL">
<path fill="#D82C26" stroke="none" d="
M 119.05 -3.45
L 119 -4.4 118.5 -4.4 118.5 0 119.05 0 119.05 -2.25
Q 119.05 -2.7 119.25 -3.2 119.5 -3.65 119.8 -3.85 120.05 -4.05 120.55 -4.05 121.15 -4.05 121.45 -3.6 121.7 -3.3 121.7 -2.55
L 121.7 0 122.25 0 122.25 -2.7
Q 122.25 -3.55 121.85 -4 121.5 -4.5 120.65 -4.5 120.1 -4.5 119.7 -4.2 119.3 -3.9 119.05 -3.45 Z"/>
</g>

<g id="IT_728x90_psd_Asset_4_ManagedWiFi_IT_Research_DM8_2_Network_as_a_Service_solutions_can_help___0_Layer0_0_MEMBER_25_FILL">
<path fill="#D82C26" stroke="none" d="
M 125.05 -4.5
L 124.35 -4.4
Q 124 -4.25 123.8 -3.95 123.6 -3.65 123.6 -3.3 123.6 -2.85 123.9 -2.55 124.3 -2.25 124.85 -2.1 125.5 -1.9 125.8 -1.65 126.05 -1.5 126.05 -1.15 126.05 -0.75 125.75 -0.55 125.5 -0.3 125.1 -0.3 124.3 -0.3 123.6 -0.85
L 123.55 -0.35
Q 123.7 -0.2 124.2 0 124.5 0.1 125.1 0.1
L 125.8 0
Q 126.2 -0.15 126.4 -0.45 126.6 -0.85 126.6 -1.15 126.6 -1.65 126.25 -1.95 125.85 -2.25 125.25 -2.45 124.5 -2.7 124.35 -2.85 124.15 -3 124.15 -3.35 124.15 -3.7 124.4 -3.9 124.8 -4.1 125.1 -4.1 125.4 -4.1 125.7 -3.95 125.8 -3.95 126.2 -3.65
L 126.45 -4.05
Q 126.25 -4.25 125.85 -4.4
L 125.05 -4.5 Z"/>
</g>

<g id="IT_728x90_psd_Asset_4_ManagedWiFi_IT_Research_DM8_2_Network_as_a_Service_solutions_can_help___0_Layer0_0_MEMBER_26_FILL">
<path fill="#D82C26" stroke="none" d="
M 130 -1
Q 130.3 -0.45 130.85 -0.15 131.4 0.15 132 0.15 132.5 0.15 132.85 0
L 133.5 -0.4 133.45 -0.85
Q 133.05 -0.55 132.8 -0.5 132.5 -0.35 132.05 -0.35 131.55 -0.35 131.15 -0.6 130.8 -0.8 130.5 -1.25 130.3 -1.65 130.3 -2.2 130.3 -2.75 130.5 -3.1 130.75 -3.6 131.15 -3.8 131.55 -4.05 132.05 -4.05
L 132.75 -3.9
Q 133 -3.85 133.3 -3.55
L 133.5 -4
Q 133.2 -4.3 132.85 -4.35 132.5 -4.5 132.05 -4.5 131.4 -4.5 130.85 -4.2 130.35 -3.9 130.05 -3.4 129.75 -2.85 129.75 -2.2 129.75 -1.6 130 -1 Z"/>
</g>

<g id="IT_728x90_psd_Asset_4_ManagedWiFi_IT_Research_DM8_2_Network_as_a_Service_solutions_can_help___0_Layer0_0_MEMBER_27_FILL">
<path fill="#D82C26" stroke="none" d="
M 134.45 -1.2
Q 134.45 -0.45 134.85 -0.2 135.25 0.1 135.85 0.1 136.45 0.1 136.8 -0.15 137.3 -0.4 137.45 -0.85
L 137.5 -0.85 137.5 -0.4 137.55 0 138.05 0 138 -2.85
Q 138 -3.65 137.55 -4.1 137.15 -4.5 136.3 -4.5 135.85 -4.5 135.4 -4.35 135.05 -4.25 134.7 -3.95
L 134.85 -3.55
Q 135 -3.7 135.5 -3.9 135.85 -4.1 136.25 -4.1 136.8 -4.1 137.15 -3.75 137.45 -3.45 137.45 -2.9
L 137.45 -2.65 136.95 -2.65
Q 134.45 -2.65 134.45 -1.2
M 135.25 -0.5
Q 134.95 -0.7 134.95 -1.2 134.95 -2.25 137 -2.25
L 137.45 -2.25 137.45 -1.8 137.3 -1.1
Q 137.15 -0.8 136.8 -0.5 136.45 -0.3 135.95 -0.3 135.5 -0.3 135.25 -0.5 Z"/>
</g>

<g id="IT_728x90_psd_Asset_4_ManagedWiFi_IT_Research_DM8_2_Network_as_a_Service_solutions_can_help___0_Layer0_0_MEMBER_28_FILL">
<path fill="#D82C26" stroke="none" d="
M 140.75 -4.2
Q 140.3 -3.9 140.15 -3.45
L 140.1 -3.45 140.05 -4.4 139.55 -4.4 139.6 0 140.15 0 140.15 -2.25
Q 140.15 -2.85 140.35 -3.2 140.45 -3.55 140.85 -3.85 141.2 -4.05 141.6 -4.05 142.25 -4.05 142.55 -3.6 142.8 -3.2 142.8 -2.55
L 142.8 0 143.35 0 143.35 -2.7
Q 143.35 -3.45 142.95 -4 142.6 -4.5 141.7 -4.5 141.2 -4.5 140.75 -4.2 Z"/>
</g>

<g id="IT_728x90_psd_Asset_4_ManagedWiFi_IT_Research_DM8_2_Network_as_a_Service_solutions_can_help___0_Layer0_0_MEMBER_29_FILL">
<path fill="#D82C26" stroke="none" d="
M 147.75 -7.15
L 147.2 -7.05 147.2 0 147.75 0 147.75 -2.15
Q 147.75 -2.8 147.95 -3.15 148.1 -3.6 148.45 -3.85 148.7 -4.05 149.2 -4.05 149.9 -4.05 150.1 -3.6 150.4 -3.2 150.4 -2.55
L 150.4 0 150.95 0 150.95 -2.7
Q 150.95 -3.45 150.55 -4 150.2 -4.5 149.35 -4.5 148.8 -4.5 148.35 -4.2 147.9 -3.9 147.75 -3.45
L 147.75 -7.15 Z"/>
</g>

<g id="IT_728x90_psd_Asset_4_ManagedWiFi_IT_Research_DM8_2_Network_as_a_Service_solutions_can_help___0_Layer0_0_MEMBER_30_FILL">
<path fill="#D82C26" stroke="none" d="
M 155.55 -4.25
Q 155.05 -4.5 154.45 -4.5 153.8 -4.5 153.35 -4.2 152.9 -4 152.55 -3.4 152.25 -2.85 152.25 -2.2 152.25 -1.5 152.55 -1 152.9 -0.4 153.35 -0.15 153.9 0.15 154.5 0.15 155.45 0.15 156.25 -0.4
L 156.15 -0.9
Q 155.75 -0.6 155.45 -0.5 155.05 -0.3 154.55 -0.3 154.05 -0.3 153.65 -0.55 153.3 -0.75 153.05 -1.2 152.8 -1.7 152.8 -2.1
L 156.5 -2.1 156.5 -2.35
Q 156.5 -3 156.25 -3.45 156 -3.95 155.55 -4.25
M 154.45 -4.1
Q 155.1 -4.1 155.55 -3.65 156 -3.2 156 -2.5
L 152.8 -2.5
Q 152.8 -2.75 153 -3.25
L 153.55 -3.85
Q 153.95 -4.1 154.45 -4.1 Z"/>
</g>

<g id="IT_728x90_psd_Asset_4_ManagedWiFi_IT_Research_DM8_2_Network_as_a_Service_solutions_can_help___0_Layer0_0_MEMBER_31_FILL">
<path fill="#D82C26" stroke="none" d="
M 157.85 -0.95
Q 157.85 -0.6 158.05 -0.3 158.3 0.05 158.55 0.1
L 158.85 -0.35
Q 158.55 -0.5 158.5 -0.6
L 158.4 -1.1 158.4 -7.15 157.85 -7.05 157.85 -0.95 Z"/>
</g>

<g id="IT_728x90_psd_Asset_4_ManagedWiFi_IT_Research_DM8_2_Network_as_a_Service_solutions_can_help___0_Layer0_0_MEMBER_32_FILL">
<path fill="#D82C26" stroke="none" d="
M 160.6 -4.4
L 160.1 -4.4 160.1 2.25 160.65 2.25 160.65 -0.95 160.7 -0.95
Q 160.9 -0.5 161.4 -0.15 161.85 0.1 162.45 0.1 163.15 0.1 163.6 -0.2 164.1 -0.5 164.4 -1 164.65 -1.6 164.65 -2.2 164.65 -2.75 164.4 -3.35 164.05 -3.95 163.6 -4.2 163.15 -4.5 162.45 -4.5 161.95 -4.5 161.4 -4.2 160.95 -3.95 160.7 -3.4
L 160.65 -3.4 160.6 -4.4
M 160.85 -3.1
Q 161.05 -3.55 161.5 -3.8 161.9 -4.05 162.4 -4.05 162.9 -4.05 163.3 -3.8 163.65 -3.6 163.9 -3.1 164.1 -2.75 164.1 -2.2 164.1 -1.65 163.9 -1.25 163.7 -0.85 163.3 -0.6 163 -0.35 162.4 -0.35 161.8 -0.35 161.5 -0.6 161.1 -0.85 160.85 -1.25 160.65 -1.85 160.65 -2.2 160.65 -2.6 160.85 -3.1 Z"/>
</g>

<g id="IT_728x90_psd_Asset_4_ManagedWiFi_IT_Research_DM8_2_Network_as_a_Service_solutions_can_help___0_Layer0_0_MEMBER_33_FILL">
<path fill="#D82C26" stroke="none" d="
M 165.8 -0.35
L 165.95 -0.05
Q 166.05 0.05 166.25 0.05
L 166.5 -0.05 166.65 -0.35
Q 166.65 -0.55 166.5 -0.65 166.45 -0.8 166.25 -0.8 166.05 -0.8 165.95 -0.65 165.8 -0.55 165.8 -0.35 Z"/>
</g>
</defs>

<g transform="matrix( 1, 0, 0, 1, -223,-39) ">
<g transform="matrix( 1, 0, 0, 1, 223,52) ">
<g transform="matrix( 1, 0, 0, 1, 26,20) ">
<g transform="matrix( 2.6895904541015625, 0, 0, 2.672393798828125, -1.85,19.55) ">
<use xlink:href="#IT_728x90_psd_Asset_4_ManagedWiFi_IT_Research_DM8_2_Network_as_a_Service_solutions_can_help___0_Layer0_0_MEMBER_0_FILL"/>
</g>

<g transform="matrix( 2.6895904541015625, 0, 0, 2.672393798828125, -1.85,19.55) ">
<use xlink:href="#IT_728x90_psd_Asset_4_ManagedWiFi_IT_Research_DM8_2_Network_as_a_Service_solutions_can_help___0_Layer0_0_MEMBER_1_FILL"/>
</g>

<g transform="matrix( 2.6895904541015625, 0, 0, 2.672393798828125, -1.85,19.55) ">
<use xlink:href="#IT_728x90_psd_Asset_4_ManagedWiFi_IT_Research_DM8_2_Network_as_a_Service_solutions_can_help___0_Layer0_0_MEMBER_2_FILL"/>
</g>

<g transform="matrix( 2.6895904541015625, 0, 0, 2.672393798828125, -1.85,19.55) ">
<use xlink:href="#IT_728x90_psd_Asset_4_ManagedWiFi_IT_Research_DM8_2_Network_as_a_Service_solutions_can_help___0_Layer0_0_MEMBER_3_FILL"/>
</g>

<g transform="matrix( 2.6895904541015625, 0, 0, 2.672393798828125, -1.85,19.55) ">
<use xlink:href="#IT_728x90_psd_Asset_4_ManagedWiFi_IT_Research_DM8_2_Network_as_a_Service_solutions_can_help___0_Layer0_0_MEMBER_4_FILL"/>
</g>

<g transform="matrix( 2.6895904541015625, 0, 0, 2.672393798828125, -1.85,19.55) ">
<use xlink:href="#IT_728x90_psd_Asset_4_ManagedWiFi_IT_Research_DM8_2_Network_as_a_Service_solutions_can_help___0_Layer0_0_MEMBER_5_FILL"/>
</g>

<g transform="matrix( 2.6895904541015625, 0, 0, 2.672393798828125, -1.85,19.55) ">
<use xlink:href="#IT_728x90_psd_Asset_4_ManagedWiFi_IT_Research_DM8_2_Network_as_a_Service_solutions_can_help___0_Layer0_0_MEMBER_6_FILL"/>
</g>

<g transform="matrix( 2.6895904541015625, 0, 0, 2.672393798828125, -1.85,19.55) ">
<use xlink:href="#IT_728x90_psd_Asset_4_ManagedWiFi_IT_Research_DM8_2_Network_as_a_Service_solutions_can_help___0_Layer0_0_MEMBER_7_FILL"/>
</g>

<g transform="matrix( 2.6895904541015625, 0, 0, 2.672393798828125, -1.85,19.55) ">
<use xlink:href="#IT_728x90_psd_Asset_4_ManagedWiFi_IT_Research_DM8_2_Network_as_a_Service_solutions_can_help___0_Layer0_0_MEMBER_8_FILL"/>
</g>

<g transform="matrix( 2.6895904541015625, 0, 0, 2.672393798828125, -1.85,19.55) ">
<use xlink:href="#IT_728x90_psd_Asset_4_ManagedWiFi_IT_Research_DM8_2_Network_as_a_Service_solutions_can_help___0_Layer0_0_MEMBER_9_FILL"/>
</g>

<g transform="matrix( 2.6895904541015625, 0, 0, 2.672393798828125, -1.85,19.55) ">
<use xlink:href="#IT_728x90_psd_Asset_4_ManagedWiFi_IT_Research_DM8_2_Network_as_a_Service_solutions_can_help___0_Layer0_0_MEMBER_10_FILL"/>
</g>

<g transform="matrix( 2.6895904541015625, 0, 0, 2.672393798828125, -1.85,19.55) ">
<use xlink:href="#IT_728x90_psd_Asset_4_ManagedWiFi_IT_Research_DM8_2_Network_as_a_Service_solutions_can_help___0_Layer0_0_MEMBER_11_FILL"/>
</g>

<g transform="matrix( 2.6895904541015625, 0, 0, 2.672393798828125, -1.85,19.55) ">
<use xlink:href="#IT_728x90_psd_Asset_4_ManagedWiFi_IT_Research_DM8_2_Network_as_a_Service_solutions_can_help___0_Layer0_0_MEMBER_12_FILL"/>
</g>

<g transform="matrix( 2.6895904541015625, 0, 0, 2.672393798828125, -1.85,19.55) ">
<use xlink:href="#IT_728x90_psd_Asset_4_ManagedWiFi_IT_Research_DM8_2_Network_as_a_Service_solutions_can_help___0_Layer0_0_MEMBER_13_FILL"/>
</g>

<g transform="matrix( 2.6895904541015625, 0, 0, 2.672393798828125, -1.85,19.55) ">
<use xlink:href="#IT_728x90_psd_Asset_4_ManagedWiFi_IT_Research_DM8_2_Network_as_a_Service_solutions_can_help___0_Layer0_0_MEMBER_14_FILL"/>
</g>

<g transform="matrix( 2.6895904541015625, 0, 0, 2.672393798828125, -1.85,19.55) ">
<use xlink:href="#IT_728x90_psd_Asset_4_ManagedWiFi_IT_Research_DM8_2_Network_as_a_Service_solutions_can_help___0_Layer0_0_MEMBER_15_FILL"/>
</g>

<g transform="matrix( 2.6895904541015625, 0, 0, 2.672393798828125, -1.85,19.55) ">
<use xlink:href="#IT_728x90_psd_Asset_4_ManagedWiFi_IT_Research_DM8_2_Network_as_a_Service_solutions_can_help___0_Layer0_0_MEMBER_16_FILL"/>
</g>

<g transform="matrix( 2.6895904541015625, 0, 0, 2.672393798828125, -1.85,19.55) ">
<use xlink:href="#IT_728x90_psd_Asset_4_ManagedWiFi_IT_Research_DM8_2_Network_as_a_Service_solutions_can_help___0_Layer0_0_MEMBER_17_FILL"/>
</g>

<g transform="matrix( 2.6895904541015625, 0, 0, 2.672393798828125, -1.85,19.55) ">
<use xlink:href="#IT_728x90_psd_Asset_4_ManagedWiFi_IT_Research_DM8_2_Network_as_a_Service_solutions_can_help___0_Layer0_0_MEMBER_18_FILL"/>
</g>

<g transform="matrix( 2.6895904541015625, 0, 0, 2.672393798828125, -1.85,19.55) ">
<use xlink:href="#IT_728x90_psd_Asset_4_ManagedWiFi_IT_Research_DM8_2_Network_as_a_Service_solutions_can_help___0_Layer0_0_MEMBER_19_FILL"/>
</g>

<g transform="matrix( 2.6895904541015625, 0, 0, 2.672393798828125, -1.85,19.55) ">
<use xlink:href="#IT_728x90_psd_Asset_4_ManagedWiFi_IT_Research_DM8_2_Network_as_a_Service_solutions_can_help___0_Layer0_0_MEMBER_20_FILL"/>
</g>

<g transform="matrix( 2.6895904541015625, 0, 0, 2.672393798828125, -1.85,19.55) ">
<use xlink:href="#IT_728x90_psd_Asset_4_ManagedWiFi_IT_Research_DM8_2_Network_as_a_Service_solutions_can_help___0_Layer0_0_MEMBER_21_FILL"/>
</g>

<g transform="matrix( 2.6895904541015625, 0, 0, 2.672393798828125, -1.85,19.55) ">
<use xlink:href="#IT_728x90_psd_Asset_4_ManagedWiFi_IT_Research_DM8_2_Network_as_a_Service_solutions_can_help___0_Layer0_0_MEMBER_22_FILL"/>
</g>

<g transform="matrix( 2.6895904541015625, 0, 0, 2.672393798828125, -1.85,19.55) ">
<use xlink:href="#IT_728x90_psd_Asset_4_ManagedWiFi_IT_Research_DM8_2_Network_as_a_Service_solutions_can_help___0_Layer0_0_MEMBER_23_FILL"/>
</g>

<g transform="matrix( 2.6895904541015625, 0, 0, 2.672393798828125, -1.85,19.55) ">
<use xlink:href="#IT_728x90_psd_Asset_4_ManagedWiFi_IT_Research_DM8_2_Network_as_a_Service_solutions_can_help___0_Layer0_0_MEMBER_24_FILL"/>
</g>

<g transform="matrix( 2.6895904541015625, 0, 0, 2.672393798828125, -1.85,19.55) ">
<use xlink:href="#IT_728x90_psd_Asset_4_ManagedWiFi_IT_Research_DM8_2_Network_as_a_Service_solutions_can_help___0_Layer0_0_MEMBER_25_FILL"/>
</g>

<g transform="matrix( 2.6895904541015625, 0, 0, 2.672393798828125, -1.85,19.55) ">
<use xlink:href="#IT_728x90_psd_Asset_4_ManagedWiFi_IT_Research_DM8_2_Network_as_a_Service_solutions_can_help___0_Layer0_0_MEMBER_26_FILL"/>
</g>

<g transform="matrix( 2.6895904541015625, 0, 0, 2.672393798828125, -1.85,19.55) ">
<use xlink:href="#IT_728x90_psd_Asset_4_ManagedWiFi_IT_Research_DM8_2_Network_as_a_Service_solutions_can_help___0_Layer0_0_MEMBER_27_FILL"/>
</g>

<g transform="matrix( 2.6895904541015625, 0, 0, 2.672393798828125, -1.85,19.55) ">
<use xlink:href="#IT_728x90_psd_Asset_4_ManagedWiFi_IT_Research_DM8_2_Network_as_a_Service_solutions_can_help___0_Layer0_0_MEMBER_28_FILL"/>
</g>

<g transform="matrix( 2.6895904541015625, 0, 0, 2.672393798828125, -1.85,19.55) ">
<use xlink:href="#IT_728x90_psd_Asset_4_ManagedWiFi_IT_Research_DM8_2_Network_as_a_Service_solutions_can_help___0_Layer0_0_MEMBER_29_FILL"/>
</g>

<g transform="matrix( 2.6895904541015625, 0, 0, 2.672393798828125, -1.85,19.55) ">
<use xlink:href="#IT_728x90_psd_Asset_4_ManagedWiFi_IT_Research_DM8_2_Network_as_a_Service_solutions_can_help___0_Layer0_0_MEMBER_30_FILL"/>
</g>

<g transform="matrix( 2.6895904541015625, 0, 0, 2.672393798828125, -1.85,19.55) ">
<use xlink:href="#IT_728x90_psd_Asset_4_ManagedWiFi_IT_Research_DM8_2_Network_as_a_Service_solutions_can_help___0_Layer0_0_MEMBER_31_FILL"/>
</g>

<g transform="matrix( 2.6895904541015625, 0, 0, 2.672393798828125, -1.85,19.55) ">
<use xlink:href="#IT_728x90_psd_Asset_4_ManagedWiFi_IT_Research_DM8_2_Network_as_a_Service_solutions_can_help___0_Layer0_0_MEMBER_32_FILL"/>
</g>

<g transform="matrix( 2.6895904541015625, 0, 0, 2.672393798828125, -1.85,19.55) ">
<use xlink:href="#IT_728x90_psd_Asset_4_ManagedWiFi_IT_Research_DM8_2_Network_as_a_Service_solutions_can_help___0_Layer0_0_MEMBER_33_FILL"/>
</g>
</g>
</g>
</g>
</svg>
