
<svg xmlns="http://www.w3.org/2000/svg" version="1.1" xmlns:xlink="http://www.w3.org/1999/xlink" preserveAspectRatio="none" x="0px" y="0px" width="160px" height="600px" viewBox="0 0 160 600">
<defs>
<g id="BDM_160x600_psd_Asset_1_ManagedWiFi_Awareness_DM8_2_Harness_the__power_of__Wi_Fi_to_push__out_location__based__prom_0_Layer0_0_MEMBER_0_FILL">
<path fill="#D82C26" stroke="none" d="
M 1.3 -5.75
L 0.8 -5.75 0.8 0 1.3 0 1.3 -2.75 4.85 -2.75 4.85 0 5.35 0 5.35 -5.75 4.85 -5.75 4.85 -3.2 1.3 -3.2 1.3 -5.75 Z"/>
</g>

<g id="BDM_160x600_psd_Asset_1_ManagedWiFi_Awareness_DM8_2_Harness_the__power_of__Wi_Fi_to_push__out_location__based__prom_0_Layer0_0_MEMBER_1_FILL">
<path fill="#D82C26" stroke="none" d="
M 7.8 -3.55
Q 8.25 -3.55 8.6 -3.3 8.9 -3 8.9 -2.5
L 8.9 -2.3 8.4 -2.3
Q 6.25 -2.3 6.25 -1 6.25 -0.4 6.6 -0.2 7 0.1 7.45 0.1 7.95 0.1 8.3 -0.1 8.65 -0.3 8.9 -0.75
L 8.9 -0.35 8.95 0 9.4 0 9.35 -2.45
Q 9.35 -3.15 8.95 -3.55 8.6 -3.9 7.85 -3.9 7.35 -3.9 7.1 -3.8
L 6.45 -3.45 6.6 -3.05 7.15 -3.4 7.8 -3.55
M 6.95 -0.45
Q 6.7 -0.6 6.7 -1.05 6.7 -1.95 8.5 -1.95
L 8.9 -1.95 8.9 -1.6
Q 8.9 -1.25 8.75 -0.95 8.6 -0.7 8.3 -0.45 8.05 -0.25 7.55 -0.25 7.15 -0.25 6.95 -0.45 Z"/>
</g>

<g id="BDM_160x600_psd_Asset_1_ManagedWiFi_Awareness_DM8_2_Harness_the__power_of__Wi_Fi_to_push__out_location__based__prom_0_Layer0_0_MEMBER_2_FILL">
<path fill="#D82C26" stroke="none" d="
M 10.8 -3.8
L 10.35 -3.8 10.35 0 10.85 0 10.85 -1.9
Q 10.85 -2.55 11.15 -3 11.45 -3.5 11.9 -3.5
L 12.25 -3.45 12.35 -3.85 11.95 -3.9
Q 11.55 -3.9 11.3 -3.65 11.05 -3.45 10.85 -3
L 10.8 -3.8 Z"/>
</g>

<g id="BDM_160x600_psd_Asset_1_ManagedWiFi_Awareness_DM8_2_Harness_the__power_of__Wi_Fi_to_push__out_location__based__prom_0_Layer0_0_MEMBER_3_FILL">
<path fill="#D82C26" stroke="none" d="
M 13.3 -3.8
L 12.85 -3.8 12.9 0 13.35 0 13.35 -1.95
Q 13.35 -2.45 13.55 -2.8 13.7 -3.15 14 -3.35 14.3 -3.5 14.65 -3.5 15.2 -3.5 15.4 -3.15 15.65 -2.85 15.65 -2.2
L 15.65 0 16.15 0 16.15 -2.3
Q 16.15 -2.9 15.8 -3.45 15.45 -3.9 14.7 -3.9 14.2 -3.9 13.9 -3.65 13.5 -3.4 13.35 -3
L 13.3 -3.8 Z"/>
</g>

<g id="BDM_160x600_psd_Asset_1_ManagedWiFi_Awareness_DM8_2_Harness_the__power_of__Wi_Fi_to_push__out_location__based__prom_0_Layer0_0_MEMBER_4_FILL">
<path fill="#D82C26" stroke="none" d="
M 19.8 -3.65
Q 19.45 -3.9 18.8 -3.9 18.25 -3.9 17.85 -3.65 17.45 -3.45 17.2 -2.95 16.95 -2.55 16.95 -1.9 16.95 -1.3 17.2 -0.85 17.4 -0.4 17.85 -0.15 18.25 0.1 18.9 0.1 19.75 0.1 20.4 -0.35
L 20.3 -0.75 19.7 -0.4
Q 19.45 -0.3 18.9 -0.3 18.4 -0.3 18.15 -0.5 17.7 -0.75 17.6 -1.05 17.4 -1.4 17.4 -1.85
L 20.6 -1.85 20.6 -2.05
Q 20.6 -2.6 20.4 -3 20.15 -3.45 19.8 -3.65
M 18.8 -3.55
Q 19.4 -3.55 19.8 -3.15 20.15 -2.85 20.15 -2.2
L 17.4 -2.2
Q 17.4 -2.55 17.6 -2.8 17.75 -3.15 18.05 -3.35 18.4 -3.55 18.8 -3.55 Z"/>
</g>

<g id="BDM_160x600_psd_Asset_1_ManagedWiFi_Awareness_DM8_2_Harness_the__power_of__Wi_Fi_to_push__out_location__based__prom_0_Layer0_0_MEMBER_5_FILL">
<path fill="#D82C26" stroke="none" d="
M 23.65 -3.5
L 23.15 -3.8
Q 22.9 -3.9 22.45 -3.9 22.05 -3.9 21.85 -3.8 21.6 -3.75 21.4 -3.45 21.2 -3.25 21.2 -2.85 21.2 -2.45 21.45 -2.2 21.85 -1.9 22.3 -1.8
L 23.1 -1.45
Q 23.3 -1.3 23.3 -1 23.3 -0.65 23.05 -0.45 22.75 -0.25 22.45 -0.25 21.7 -0.25 21.2 -0.75
L 21.1 -0.3 21.7 0 22.5 0.1 23.1 0 23.6 -0.4
Q 23.8 -0.7 23.8 -1 23.8 -1.4 23.5 -1.65 23.2 -1.95 22.6 -2.1
L 21.85 -2.45
Q 21.65 -2.6 21.65 -2.9 21.65 -3.2 21.9 -3.4 22.15 -3.55 22.45 -3.55
L 23 -3.45 23.45 -3.15 23.65 -3.5 Z"/>
</g>

<g id="BDM_160x600_psd_Asset_1_ManagedWiFi_Awareness_DM8_2_Harness_the__power_of__Wi_Fi_to_push__out_location__based__prom_0_Layer0_0_MEMBER_6_FILL">
<path fill="#D82C26" stroke="none" d="
M 24.35 -0.75
L 24.3 -0.3 24.85 0 25.65 0.1 26.25 0
Q 26.6 -0.15 26.75 -0.4 26.95 -0.7 26.95 -1 26.95 -1.4 26.65 -1.65 26.35 -1.95 25.75 -2.1
L 25 -2.45
Q 24.8 -2.6 24.8 -2.9 24.8 -3.15 25.05 -3.4 25.3 -3.55 25.65 -3.55
L 26.15 -3.45 26.6 -3.15 26.8 -3.5 26.3 -3.8
Q 26.1 -3.9 25.6 -3.9 25.2 -3.9 25 -3.8 24.75 -3.75 24.55 -3.45 24.35 -3.25 24.35 -2.85 24.35 -2.45 24.6 -2.2 25 -1.9 25.45 -1.8
L 26.25 -1.45
Q 26.5 -1.3 26.5 -1 26.5 -0.7 26.25 -0.45 25.85 -0.25 25.65 -0.25 24.85 -0.25 24.35 -0.75 Z"/>
</g>

<g id="BDM_160x600_psd_Asset_1_ManagedWiFi_Awareness_DM8_2_Harness_the__power_of__Wi_Fi_to_push__out_location__based__prom_0_Layer0_0_MEMBER_7_FILL">
<path fill="#D82C26" stroke="none" d="
M 28.5 -3.45
L 29.2 -3.45 29.2 -0.9
Q 29.2 -0.4 29.45 -0.2 29.7 0.1 30.1 0.1
L 30.9 -0.1 30.8 -0.5
Q 30.55 -0.3 30.2 -0.3 29.95 -0.3 29.8 -0.45 29.65 -0.65 29.65 -1
L 29.65 -3.45 30.65 -3.45 30.75 -3.8 29.65 -3.8 29.65 -4.9 29.2 -4.7 29.2 -3.8 28.55 -3.8 28.5 -3.45 Z"/>
</g>

<g id="BDM_160x600_psd_Asset_1_ManagedWiFi_Awareness_DM8_2_Harness_the__power_of__Wi_Fi_to_push__out_location__based__prom_0_Layer0_0_MEMBER_8_FILL">
<path fill="#D82C26" stroke="none" d="
M 34.35 -3.45
Q 34 -3.9 33.3 -3.9 32.75 -3.9 32.45 -3.65 32.15 -3.45 31.9 -3
L 31.9 -6.2 31.45 -6.1 31.45 0 31.9 0 31.9 -1.85
Q 31.9 -2.35 32.05 -2.75 32.3 -3.2 32.55 -3.3 32.75 -3.5 33.15 -3.5 33.75 -3.5 33.95 -3.15 34.2 -2.85 34.2 -2.2
L 34.2 0 34.7 0 34.7 -2.3
Q 34.7 -2.9 34.35 -3.45 Z"/>
</g>

<g id="BDM_160x600_psd_Asset_1_ManagedWiFi_Awareness_DM8_2_Harness_the__power_of__Wi_Fi_to_push__out_location__based__prom_0_Layer0_0_MEMBER_9_FILL">
<path fill="#D82C26" stroke="none" d="
M 37.35 -3.9
Q 36.8 -3.9 36.4 -3.65 36.05 -3.45 35.7 -2.95 35.45 -2.45 35.45 -1.9 35.45 -1.45 35.7 -0.85 36.05 -0.3 36.4 -0.15 36.8 0.1 37.4 0.1 38.3 0.1 38.95 -0.35
L 38.85 -0.75 38.25 -0.4
Q 38 -0.3 37.45 -0.3 36.95 -0.3 36.7 -0.5 36.25 -0.75 36.15 -1.05 35.95 -1.4 35.95 -1.85
L 39.15 -1.85 39.15 -2.05
Q 39.15 -2.6 38.95 -3 38.7 -3.45 38.35 -3.65 38 -3.9 37.35 -3.9
M 36.6 -3.35
Q 36.85 -3.55 37.35 -3.55 37.95 -3.55 38.35 -3.15 38.7 -2.8 38.7 -2.2
L 35.95 -2.2
Q 35.95 -2.55 36.15 -2.8 36.3 -3.15 36.6 -3.35 Z"/>
</g>

<g id="BDM_160x600_psd_Asset_1_ManagedWiFi_Awareness_DM8_2_Harness_the__power_of__Wi_Fi_to_push__out_location__based__prom_0_Layer0_0_MEMBER_10_FILL">
<path fill="#D82C26" stroke="none" d="
M 1.2 5.75
L 0.7 5.75 0.75 6.45 0.75 11.5 1.25 11.5 1.25 8.7
Q 1.5 9.2 1.9 9.4 2.3 9.65 2.8 9.65 3.35 9.65 3.8 9.35 4.25 9.1 4.45 8.65 4.7 8.15 4.7 7.65 4.7 7.1 4.45 6.6 4.25 6.15 3.8 5.9 3.35 5.6 2.8 5.6 2.3 5.6 1.9 5.85 1.45 6.15 1.25 6.55
L 1.2 6.55 1.2 5.75
M 3.5 9
Q 3.15 9.25 2.7 9.25 2.3 9.25 1.95 9 1.6 8.8 1.4 8.45 1.2 8.1 1.2 7.65 1.2 7.15 1.4 6.8 1.7 6.4 1.95 6.25 2.3 6 2.7 6 3.15 6 3.5 6.25 3.8 6.45 4 6.8 4.2 7.15 4.2 7.65 4.2 8.1 4 8.45 3.85 8.85 3.5 9 Z"/>
</g>

<g id="BDM_160x600_psd_Asset_1_ManagedWiFi_Awareness_DM8_2_Harness_the__power_of__Wi_Fi_to_push__out_location__based__prom_0_Layer0_0_MEMBER_11_FILL">
<path fill="#D82C26" stroke="none" d="
M 8.3 5.85
Q 7.8 5.6 7.3 5.6 6.75 5.6 6.25 5.85 5.75 6.2 5.5 6.6 5.25 7.1 5.25 7.6 5.25 8.15 5.5 8.65 5.8 9.1 6.25 9.4 6.75 9.65 7.3 9.65 7.8 9.65 8.3 9.4 8.7 9.15 9.05 8.65 9.3 8.15 9.3 7.6 9.3 7.1 9.05 6.6 8.8 6.1 8.3 5.85
M 8.65 8.45
Q 8.45 8.8 8.1 9 7.7 9.25 7.3 9.25 6.85 9.25 6.45 9 6.05 8.7 5.9 8.45 5.75 8.1 5.75 7.6 5.75 7.2 5.9 6.8 6.15 6.4 6.45 6.25 6.85 6 7.3 6 7.7 6 8.1 6.25 8.4 6.35 8.65 6.8 8.85 7.3 8.85 7.6 8.85 7.95 8.65 8.45 Z"/>
</g>

<g id="BDM_160x600_psd_Asset_1_ManagedWiFi_Awareness_DM8_2_Harness_the__power_of__Wi_Fi_to_push__out_location__based__prom_0_Layer0_0_MEMBER_12_FILL">
<path fill="#D82C26" stroke="none" d="
M 15.15 5.75
L 14.65 5.75 13.7 9 12.6 5.75 12.1 5.75 11 9 10.05 5.75 9.55 5.75 10.7 9.55 11.25 9.55 12.35 6.3 13.45 9.55 13.95 9.55 15.15 5.75 Z"/>
</g>

<g id="BDM_160x600_psd_Asset_1_ManagedWiFi_Awareness_DM8_2_Harness_the__power_of__Wi_Fi_to_push__out_location__based__prom_0_Layer0_0_MEMBER_13_FILL">
<path fill="#D82C26" stroke="none" d="
M 17.3 5.6
Q 16.75 5.6 16.35 5.85 15.8 6.2 15.65 6.6 15.4 7.1 15.4 7.6 15.4 8.15 15.65 8.65 15.85 9.1 16.35 9.4 16.85 9.65 17.35 9.65 18.3 9.65 18.85 9.15
L 18.8 8.75 18.15 9.1
Q 17.85 9.25 17.4 9.25 16.95 9.25 16.6 9.05
L 16.05 8.5
Q 15.85 8 15.85 7.7
L 19.1 7.7 19.1 7.5
Q 19.1 6.95 18.9 6.55 18.7 6.15 18.25 5.85 17.85 5.6 17.3 5.6
M 18.25 6.35
Q 18.65 6.75 18.65 7.35
L 15.85 7.35 16.05 6.75
Q 16.15 6.5 16.55 6.2 16.8 6 17.3 6 17.9 6 18.25 6.35 Z"/>
</g>

<g id="BDM_160x600_psd_Asset_1_ManagedWiFi_Awareness_DM8_2_Harness_the__power_of__Wi_Fi_to_push__out_location__based__prom_0_Layer0_0_MEMBER_14_FILL">
<path fill="#D82C26" stroke="none" d="
M 21.45 6.05
L 21.8 6.1 21.9 5.7 21.5 5.6
Q 21.2 5.6 20.85 5.85 20.5 6.15 20.35 6.55
L 20.3 5.75 19.85 5.75 19.9 9.55 20.4 9.55 20.4 7.65
Q 20.4 6.9 20.65 6.5 20.95 6.05 21.45 6.05 Z"/>
</g>

<g id="BDM_160x600_psd_Asset_1_ManagedWiFi_Awareness_DM8_2_Harness_the__power_of__Wi_Fi_to_push__out_location__based__prom_0_Layer0_0_MEMBER_15_FILL">
<path fill="#D82C26" stroke="none" d="
M 26.45 5.85
Q 25.95 5.6 25.45 5.6 24.9 5.6 24.4 5.85 23.9 6.2 23.65 6.6 23.4 7.1 23.4 7.6 23.4 8.15 23.65 8.65 23.95 9.1 24.4 9.4 24.9 9.65 25.45 9.65 25.95 9.65 26.45 9.4 26.85 9.15 27.2 8.65 27.45 8.15 27.45 7.6 27.45 7.1 27.2 6.6 26.95 6.1 26.45 5.85
M 24.05 6.8
Q 24.3 6.4 24.6 6.25 25 6 25.45 6 25.85 6 26.25 6.25 26.55 6.35 26.8 6.8 27 7.3 27 7.6 27 7.95 26.8 8.45 26.6 8.8 26.25 9 25.85 9.25 25.45 9.25 25 9.25 24.6 9 24.2 8.7 24.05 8.45 23.9 8.1 23.9 7.6 23.9 7.2 24.05 6.8 Z"/>
</g>

<g id="BDM_160x600_psd_Asset_1_ManagedWiFi_Awareness_DM8_2_Harness_the__power_of__Wi_Fi_to_push__out_location__based__prom_0_Layer0_0_MEMBER_16_FILL">
<path fill="#D82C26" stroke="none" d="
M 27.7 5.75
L 27.6 6.1 28.4 6.1 28.4 9.55 28.85 9.55 28.85 6.1 29.75 6.1 29.85 5.75 28.85 5.75 28.85 4.65
Q 28.85 4.35 29.05 3.95 29.2 3.7 29.6 3.7
L 30.2 3.75 30.25 3.4 29.95 3.3 29.6 3.3
Q 29 3.3 28.7 3.6 28.4 4 28.4 4.65
L 28.4 5.75 27.7 5.75 Z"/>
</g>

<g id="BDM_160x600_psd_Asset_1_ManagedWiFi_Awareness_DM8_2_Harness_the__power_of__Wi_Fi_to_push__out_location__based__prom_0_Layer0_0_MEMBER_17_FILL">
<path fill="#D82C26" stroke="none" d="
M 7.75 13.3
L 7.2 13.3 5.75 18.45 4.25 13.3 3.65 13.3 2.2 18.45 2.15 18.45 0.7 13.3 0.15 13.3 1.85 19.05 2.45 19.05 3.95 13.95 5.45 19.05 6.05 19.05 7.75 13.3 Z"/>
</g>

<g id="BDM_160x600_psd_Asset_1_ManagedWiFi_Awareness_DM8_2_Harness_the__power_of__Wi_Fi_to_push__out_location__based__prom_0_Layer0_0_MEMBER_18_FILL">
<path fill="#D82C26" stroke="none" d="
M 8.85 15.25
L 8.35 15.25 8.35 19.05 8.85 19.05 8.85 15.25
M 8.85 13.5
L 8.6 13.4 8.35 13.5 8.25 13.75 8.35 14 8.6 14.1 8.85 14 8.95 13.75 8.85 13.5 Z"/>
</g>

<g id="BDM_160x600_psd_Asset_1_ManagedWiFi_Awareness_DM8_2_Harness_the__power_of__Wi_Fi_to_push__out_location__based__prom_0_Layer0_0_MEMBER_19_FILL">
<path fill="#D82C26" stroke="none" d="
M 9.7 16.8
L 9.7 17.2 11.35 17.2 11.35 16.8 9.7 16.8 Z"/>
</g>

<g id="BDM_160x600_psd_Asset_1_ManagedWiFi_Awareness_DM8_2_Harness_the__power_of__Wi_Fi_to_push__out_location__based__prom_0_Layer0_0_MEMBER_20_FILL">
<path fill="#D82C26" stroke="none" d="
M 15.3 13.75
L 15.3 13.3 12.35 13.3 12.35 19.05 12.85 19.05 12.85 16.35 15.1 16.35 15.2 15.9 12.85 15.9 12.85 13.75 15.3 13.75 Z"/>
</g>

<g id="BDM_160x600_psd_Asset_1_ManagedWiFi_Awareness_DM8_2_Harness_the__power_of__Wi_Fi_to_push__out_location__based__prom_0_Layer0_0_MEMBER_21_FILL">
<path fill="#D82C26" stroke="none" d="
M 16.55 15.25
L 16.1 15.25 16.1 19.05 16.55 19.05 16.55 15.25
M 16.65 13.75
L 16.55 13.5 16.3 13.4 16.05 13.5 15.95 13.75 16.05 14 16.3 14.1 16.55 14 16.65 13.75 Z"/>
</g>

<g id="BDM_160x600_psd_Asset_1_ManagedWiFi_Awareness_DM8_2_Harness_the__power_of__Wi_Fi_to_push__out_location__based__prom_0_Layer0_0_MEMBER_22_FILL">
<path fill="#D82C26" stroke="none" d="
M 20.45 19.1
L 20.85 18.95 20.8 18.6 20.2 18.75
Q 19.95 18.75 19.8 18.6 19.65 18.45 19.65 18.1
L 19.65 15.65 20.6 15.65 20.7 15.25 19.65 15.25 19.65 14.15 19.15 14.35 19.15 15.25 18.55 15.25 18.45 15.65 19.15 15.65 19.15 18.15
Q 19.15 18.55 19.4 18.9 19.65 19.15 20.05 19.15
L 20.45 19.1 Z"/>
</g>

<g id="BDM_160x600_psd_Asset_1_ManagedWiFi_Awareness_DM8_2_Harness_the__power_of__Wi_Fi_to_push__out_location__based__prom_0_Layer0_0_MEMBER_23_FILL">
<path fill="#D82C26" stroke="none" d="
M 24.05 15.4
Q 23.55 15.15 23 15.15 22.5 15.15 22 15.4 21.6 15.55 21.25 16.1 21 16.6 21 17.15 21 17.7 21.25 18.2 21.6 18.75 22 18.9 22.45 19.2 23 19.2 23.6 19.2 24.05 18.9 24.5 18.7 24.8 18.2 25.05 17.7 25.05 17.15 25.05 16.6 24.8 16.1 24.5 15.6 24.05 15.4
M 21.65 16.35
Q 21.9 15.95 22.2 15.75 22.55 15.55 23 15.55 23.5 15.55 23.85 15.75 24.2 16.05 24.35 16.35 24.55 16.7 24.55 17.15 24.55 17.6 24.4 17.95 24.2 18.3 23.85 18.55 23.5 18.75 23 18.75 22.55 18.75 22.2 18.55 21.9 18.35 21.65 17.95 21.45 17.45 21.45 17.15 21.45 16.85 21.65 16.35 Z"/>
</g>

<g id="BDM_160x600_psd_Asset_1_ManagedWiFi_Awareness_DM8_2_Harness_the__power_of__Wi_Fi_to_push__out_location__based__prom_0_Layer0_0_MEMBER_24_FILL">
<path fill="#D82C26" stroke="none" d="
M 29.3 15.15
Q 28.9 15.15 28.4 15.4 27.95 15.7 27.8 16.1
L 27.75 16.1 27.7 15.25 27.25 15.25 27.3 15.95 27.3 21 27.75 21 27.75 18.25 27.8 18.25
Q 28 18.6 28.4 18.95 28.8 19.15 29.3 19.15 30 19.15 30.3 18.9 30.75 18.65 31 18.2 31.25 17.7 31.25 17.15 31.25 16.65 31 16.15 30.8 15.75 30.3 15.4 29.9 15.15 29.3 15.15
M 29.25 15.55
Q 29.7 15.55 30.05 15.75 30.4 16.05 30.55 16.35 30.75 16.7 30.75 17.15 30.75 17.7 30.55 17.95 30.4 18.25 30.05 18.55 29.7 18.75 29.25 18.75 28.75 18.75 28.5 18.55 28.1 18.3 27.95 17.95 27.75 17.6 27.75 17.15 27.75 16.7 27.95 16.35 28.1 16 28.5 15.75 28.75 15.55 29.25 15.55 Z"/>
</g>

<g id="BDM_160x600_psd_Asset_1_ManagedWiFi_Awareness_DM8_2_Harness_the__power_of__Wi_Fi_to_push__out_location__based__prom_0_Layer0_0_MEMBER_25_FILL">
<path fill="#D82C26" stroke="none" d="
M 32 15.25
L 32 17.6
Q 32 18.3 32.35 18.7 32.65 19.15 33.4 19.15 33.9 19.15 34.25 18.9 34.55 18.7 34.8 18.25
L 34.85 19.05 35.3 19.05 35.25 18.65 35.25 15.25 34.8 15.25 34.8 17.15
Q 34.8 17.55 34.6 18.05 34.45 18.4 34.15 18.6 33.75 18.8 33.5 18.8 32.95 18.8 32.7 18.4 32.5 18.05 32.5 17.45
L 32.5 15.25 32 15.25 Z"/>
</g>

<g id="BDM_160x600_psd_Asset_1_ManagedWiFi_Awareness_DM8_2_Harness_the__power_of__Wi_Fi_to_push__out_location__based__prom_0_Layer0_0_MEMBER_26_FILL">
<path fill="#D82C26" stroke="none" d="
M 37.35 15.15
L 36.75 15.25
Q 36.45 15.4 36.3 15.6 36.1 15.85 36.1 16.2 36.1 16.65 36.4 16.85 36.65 17.1 37.2 17.25
L 38 17.6
Q 38.25 17.85 38.25 18.1 38.25 18.45 38 18.6 37.75 18.8 37.4 18.8 36.65 18.8 36.1 18.35
L 36.05 18.75 36.6 19.05
Q 36.85 19.15 37.4 19.15 37.85 19.15 38.05 19.05 38.4 18.9 38.5 18.65 38.7 18.45 38.7 18.05 38.7 17.65 38.4 17.4 38.1 17.1 37.5 16.95 37.1 16.85 36.75 16.6 36.55 16.4 36.55 16.15 36.55 15.85 36.8 15.7 37.1 15.5 37.4 15.5 37.7 15.5 37.9 15.65 38.15 15.7 38.35 15.9
L 38.6 15.55 38.05 15.25 37.35 15.15 Z"/>
</g>

<g id="BDM_160x600_psd_Asset_1_ManagedWiFi_Awareness_DM8_2_Harness_the__power_of__Wi_Fi_to_push__out_location__based__prom_0_Layer0_0_MEMBER_27_FILL">
<path fill="#D82C26" stroke="none" d="
M 42.35 15.6
Q 42.05 15.15 41.3 15.15 40.85 15.15 40.45 15.4 40.15 15.6 39.95 16.05
L 39.9 16.05 39.9 12.85 39.45 12.95 39.45 19.05 39.9 19.05 39.9 17.2
Q 39.9 16.8 40.1 16.3 40.25 15.9 40.55 15.75 40.8 15.55 41.2 15.55 41.8 15.55 42 15.95 42.2 16.3 42.2 16.85
L 42.2 19.05 42.7 19.05 42.7 16.75
Q 42.7 16 42.35 15.6 Z"/>
</g>

<g id="BDM_160x600_psd_Asset_1_ManagedWiFi_Awareness_DM8_2_Harness_the__power_of__Wi_Fi_to_push__out_location__based__prom_0_Layer0_0_MEMBER_28_FILL">
<path fill="#D82C26" stroke="none" d="
M 4.25 25.65
Q 3.95 25.15 3.5 24.95 3.05 24.65 2.5 24.65 1.9 24.65 1.45 24.95 1.05 25.15 0.7 25.65 0.45 26.15 0.45 26.7 0.45 27.15 0.7 27.75 1.05 28.25 1.45 28.45 1.95 28.7 2.5 28.7 3 28.7 3.5 28.45 3.95 28.25 4.25 27.75 4.5 27.15 4.5 26.7 4.5 26.15 4.25 25.65
M 4.05 26.7
Q 4.05 27 3.85 27.5 3.6 27.9 3.3 28.1 2.95 28.3 2.5 28.3 2 28.3 1.65 28.1 1.3 27.85 1.1 27.5 0.95 27.15 0.95 26.7 0.95 26.2 1.1 25.9 1.3 25.55 1.65 25.3 2 25.1 2.5 25.1 2.95 25.1 3.3 25.3 3.6 25.5 3.85 25.9 4.05 26.3 4.05 26.7 Z"/>
</g>

<g id="BDM_160x600_psd_Asset_1_ManagedWiFi_Awareness_DM8_2_Harness_the__power_of__Wi_Fi_to_push__out_location__based__prom_0_Layer0_0_MEMBER_29_FILL">
<path fill="#D82C26" stroke="none" d="
M 8.05 26.7
Q 8.05 27.2 7.9 27.55 7.75 27.9 7.45 28.1 7.2 28.3 6.8 28.3 6.2 28.3 6 27.95 5.75 27.55 5.75 27
L 5.75 24.8 5.3 24.8 5.3 27.1
Q 5.3 27.8 5.6 28.25 6 28.7 6.65 28.7 7.1 28.7 7.5 28.45 7.9 28.2 8.05 27.8
L 8.15 28.6 8.6 28.6 8.5 27.7 8.5 24.8 8.05 24.8 8.05 26.7 Z"/>
</g>

<g id="BDM_160x600_psd_Asset_1_ManagedWiFi_Awareness_DM8_2_Harness_the__power_of__Wi_Fi_to_push__out_location__based__prom_0_Layer0_0_MEMBER_30_FILL">
<path fill="#D82C26" stroke="none" d="
M 10.25 23.7
L 9.8 23.9 9.8 24.8 9.15 24.8 9.1 25.15 9.8 25.15 9.8 27.7
Q 9.8 28.2 10.05 28.4 10.3 28.7 10.7 28.7
L 11.1 28.6
Q 11.3 28.6 11.5 28.45
L 11.4 28.1
Q 11.15 28.3 10.8 28.3 10.55 28.3 10.4 28.1 10.25 27.95 10.25 27.6
L 10.25 25.15 11.25 25.15 11.35 24.8 10.25 24.8 10.25 23.7 Z"/>
</g>

<g id="BDM_160x600_psd_Asset_1_ManagedWiFi_Awareness_DM8_2_Harness_the__power_of__Wi_Fi_to_push__out_location__based__prom_0_Layer0_0_MEMBER_31_FILL">
<path fill="#D82C26" stroke="none" d="
M 13.55 28.35
Q 13.7 28.55 14 28.7
L 14.2 28.3 13.95 28.05
Q 13.85 27.85 13.85 27.65
L 13.85 22.4 13.4 22.5 13.4 27.75
Q 13.4 28.15 13.55 28.35 Z"/>
</g>

<g id="BDM_160x600_psd_Asset_1_ManagedWiFi_Awareness_DM8_2_Harness_the__power_of__Wi_Fi_to_push__out_location__based__prom_0_Layer0_0_MEMBER_32_FILL">
<path fill="#D82C26" stroke="none" d="
M 18.5 25.65
Q 18.2 25.15 17.75 24.95 17.3 24.65 16.7 24.65 16.15 24.65 15.7 24.95 15.3 25.15 14.95 25.65 14.7 26.15 14.7 26.7 14.7 27.15 14.95 27.75 15.3 28.25 15.7 28.45 16.2 28.7 16.7 28.7 17.25 28.7 17.75 28.45 18.2 28.25 18.5 27.75 18.75 27.15 18.75 26.7 18.75 26.15 18.5 25.65
M 18.25 26.7
Q 18.25 27.15 18.1 27.5 17.85 27.9 17.55 28.1 17.2 28.3 16.7 28.3 16.25 28.3 15.9 28.1 15.6 27.9 15.35 27.5 15.15 27 15.15 26.7 15.15 26.3 15.35 25.9 15.6 25.5 15.9 25.3 16.25 25.1 16.7 25.1 17.2 25.1 17.55 25.3 17.9 25.55 18.1 25.9 18.25 26.2 18.25 26.7 Z"/>
</g>

<g id="BDM_160x600_psd_Asset_1_ManagedWiFi_Awareness_DM8_2_Harness_the__power_of__Wi_Fi_to_push__out_location__based__prom_0_Layer0_0_MEMBER_33_FILL">
<path fill="#D82C26" stroke="none" d="
M 19.3 26.7
Q 19.3 27.25 19.55 27.75 19.9 28.3 20.3 28.45 20.8 28.7 21.3 28.7
L 22.05 28.6 22.6 28.25 22.55 27.85 22 28.2 21.35 28.3
Q 20.95 28.3 20.55 28.1 20.15 27.85 20 27.5 19.8 27.15 19.8 26.7 19.8 26.25 20 25.9 20.15 25.55 20.55 25.3 20.8 25.1 21.3 25.1 21.7 25.1 21.9 25.2 22.25 25.3 22.4 25.5
L 22.6 25.15 22.05 24.8 21.3 24.65
Q 20.75 24.65 20.3 24.95 19.9 25.15 19.55 25.65 19.3 26.15 19.3 26.7 Z"/>
</g>

<g id="BDM_160x600_psd_Asset_1_ManagedWiFi_Awareness_DM8_2_Harness_the__power_of__Wi_Fi_to_push__out_location__based__prom_0_Layer0_0_MEMBER_34_FILL">
<path fill="#D82C26" stroke="none" d="
M 26.1 26.15
Q 26.1 25.4 25.75 25.05 25.25 24.65 24.65 24.65
L 23.9 24.8
Q 23.4 25 23.25 25.15
L 23.4 25.55
Q 23.6 25.35 23.95 25.2 24.25 25.05 24.6 25.05 25.05 25.05 25.4 25.3 25.65 25.65 25.65 26.1
L 25.65 26.3 25.2 26.3
Q 23.05 26.3 23.05 27.55 23.05 28.2 23.4 28.4 23.7 28.7 24.25 28.7 24.75 28.7 25.1 28.5 25.5 28.25 25.65 27.85
L 25.7 27.85 25.7 28.25 25.75 28.6 26.2 28.6 26.1 27.75 26.1 26.15
M 25.65 27
Q 25.65 27.35 25.5 27.65 25.35 27.9 25.05 28.15 24.8 28.35 24.35 28.35 23.95 28.35 23.75 28.15 23.5 28.05 23.5 27.55 23.5 26.65 25.25 26.65
L 25.65 26.65 25.65 27 Z"/>
</g>

<g id="BDM_160x600_psd_Asset_1_ManagedWiFi_Awareness_DM8_2_Harness_the__power_of__Wi_Fi_to_push__out_location__based__prom_0_Layer0_0_MEMBER_35_FILL">
<path fill="#D82C26" stroke="none" d="
M 27.7 23.7
L 27.25 23.9 27.25 24.8 26.6 24.8 26.55 25.15 27.25 25.15 27.25 27.7
Q 27.25 28.2 27.5 28.4 27.75 28.7 28.15 28.7
L 28.55 28.6
Q 28.75 28.6 28.95 28.45
L 28.85 28.1
Q 28.6 28.3 28.25 28.3 28 28.3 27.85 28.1 27.7 27.95 27.7 27.6
L 27.7 25.15 28.7 25.15 28.8 24.8 27.7 24.8 27.7 23.7 Z"/>
</g>

<g id="BDM_160x600_psd_Asset_1_ManagedWiFi_Awareness_DM8_2_Harness_the__power_of__Wi_Fi_to_push__out_location__based__prom_0_Layer0_0_MEMBER_36_FILL">
<path fill="#D82C26" stroke="none" d="
M 29.5 24.8
L 29.5 28.6 29.95 28.6 29.95 24.8 29.5 24.8
M 29.7 23.6
Q 29.9 23.6 29.95 23.5
L 30.05 23.25 29.95 23.05
Q 29.9 22.95 29.7 22.95 29.55 22.95 29.45 23.05
L 29.35 23.25 29.45 23.5
Q 29.55 23.6 29.7 23.6 Z"/>
</g>

<g id="BDM_160x600_psd_Asset_1_ManagedWiFi_Awareness_DM8_2_Harness_the__power_of__Wi_Fi_to_push__out_location__based__prom_0_Layer0_0_MEMBER_37_FILL">
<path fill="#D82C26" stroke="none" d="
M 34.55 25.65
Q 34.25 25.15 33.8 24.95 33.35 24.65 32.8 24.65 32.2 24.65 31.75 24.95 31.35 25.15 31 25.65 30.75 26.15 30.75 26.7 30.75 27.15 31 27.75 31.35 28.25 31.75 28.45 32.25 28.7 32.8 28.7 33.3 28.7 33.8 28.45 34.25 28.25 34.55 27.75 34.8 27.15 34.8 26.7 34.8 26.15 34.55 25.65
M 34.35 26.7
Q 34.35 27 34.15 27.5 33.9 27.9 33.6 28.1 33.25 28.3 32.8 28.3 32.3 28.3 31.95 28.1 31.6 27.85 31.4 27.5 31.25 27.15 31.25 26.7 31.25 26.2 31.4 25.9 31.6 25.55 31.95 25.3 32.3 25.1 32.8 25.1 33.25 25.1 33.6 25.3 33.9 25.5 34.15 25.9 34.35 26.3 34.35 26.7 Z"/>
</g>

<g id="BDM_160x600_psd_Asset_1_ManagedWiFi_Awareness_DM8_2_Harness_the__power_of__Wi_Fi_to_push__out_location__based__prom_0_Layer0_0_MEMBER_38_FILL">
<path fill="#D82C26" stroke="none" d="
M 38.9 26.25
Q 38.9 25.7 38.55 25.15 38.2 24.7 37.45 24.7 36.95 24.7 36.65 24.95 36.25 25.2 36.1 25.6
L 36.05 24.8 35.6 24.8 35.6 28.6 36.1 28.6 36.1 26.65
Q 36.1 26.2 36.25 25.8 36.45 25.5 36.75 25.25 37 25.1 37.35 25.1 37.95 25.1 38.15 25.45 38.4 25.85 38.4 26.4
L 38.4 28.6 38.9 28.6 38.9 26.25 Z"/>
</g>

<g id="BDM_160x600_psd_Asset_1_ManagedWiFi_Awareness_DM8_2_Harness_the__power_of__Wi_Fi_to_push__out_location__based__prom_0_Layer0_0_MEMBER_39_FILL">
<path fill="#D82C26" stroke="none" d="
M 41.4 26.75
L 41.4 26.35 39.7 26.35 39.7 26.75 41.4 26.75 Z"/>
</g>

<g id="BDM_160x600_psd_Asset_1_ManagedWiFi_Awareness_DM8_2_Harness_the__power_of__Wi_Fi_to_push__out_location__based__prom_0_Layer0_0_MEMBER_40_FILL">
<path fill="#D82C26" stroke="none" d="
M 1.25 31.9
L 0.75 32 0.7 38.15 1.15 38.15 1.2 37.3 1.25 37.3
Q 1.35 37.6 1.85 38 2.35 38.25 2.8 38.25 3.35 38.25 3.8 37.95 4.25 37.7 4.45 37.25 4.7 36.75 4.7 36.25 4.7 35.7 4.45 35.2 4.25 34.75 3.8 34.5 3.35 34.2 2.8 34.2 2.3 34.2 1.9 34.45 1.5 34.65 1.25 35.15
L 1.25 31.9
M 1.4 35.4
Q 1.6 35.05 1.95 34.85 2.35 34.6 2.7 34.6 3.15 34.6 3.5 34.85 3.85 35.05 4.05 35.4 4.2 35.8 4.2 36.25 4.2 36.7 4.05 37.05 3.75 37.45 3.5 37.6 3.15 37.85 2.7 37.85 2.35 37.85 1.95 37.6 1.7 37.45 1.4 37.05 1.2 36.55 1.2 36.25 1.2 35.9 1.4 35.4 Z"/>
</g>

<g id="BDM_160x600_psd_Asset_1_ManagedWiFi_Awareness_DM8_2_Harness_the__power_of__Wi_Fi_to_push__out_location__based__prom_0_Layer0_0_MEMBER_41_FILL">
<path fill="#D82C26" stroke="none" d="
M 7.4 35.85
Q 5.25 35.85 5.25 37.1 5.25 37.65 5.6 37.95 6 38.25 6.45 38.25 6.9 38.25 7.3 38 7.7 37.75 7.85 37.4
L 7.9 37.4 7.9 37.8 7.95 38.15 8.4 38.15 8.35 35.65
Q 8.35 34.95 7.95 34.55 7.5 34.2 6.85 34.2
L 6.1 34.35
Q 5.85 34.4 5.45 34.7
L 5.6 35.05
Q 6 34.8 6.15 34.75
L 6.8 34.6
Q 7.25 34.6 7.6 34.85 7.9 35.15 7.9 35.65
L 7.9 35.85 7.4 35.85
M 5.7 37.1
Q 5.7 36.15 7.5 36.15
L 7.9 36.15 7.9 36.55
Q 7.9 36.85 7.75 37.15 7.6 37.5 7.3 37.7 6.9 37.9 6.55 37.9 6.25 37.9 5.95 37.7 5.7 37.45 5.7 37.1 Z"/>
</g>

<g id="BDM_160x600_psd_Asset_1_ManagedWiFi_Awareness_DM8_2_Harness_the__power_of__Wi_Fi_to_push__out_location__based__prom_0_Layer0_0_MEMBER_42_FILL">
<path fill="#D82C26" stroke="none" d="
M 10.2 36.3
Q 10.9 36.6 11 36.7 11.25 36.85 11.25 37.15 11.25 37.5 11 37.65 10.8 37.85 10.4 37.85 9.7 37.85 9.15 37.4
L 9.05 37.8
Q 9.3 38.05 9.65 38.1
L 10.4 38.25
Q 10.75 38.25 11.05 38.1 11.4 37.95 11.5 37.75 11.7 37.5 11.7 37.15 11.7 36.7 11.4 36.45 11.2 36.25 10.55 36 10 35.85 9.8 35.65 9.55 35.5 9.55 35.25 9.55 34.9 9.8 34.75 10.05 34.6 10.4 34.6 10.75 34.6 10.95 34.7
L 11.4 34.95 11.6 34.6 11.05 34.35
Q 10.75 34.2 10.4 34.2
L 9.8 34.3
Q 9.5 34.45 9.3 34.7 9.1 35 9.1 35.25 9.1 35.7 9.4 35.9 9.65 36.15 10.2 36.3 Z"/>
</g>

<g id="BDM_160x600_psd_Asset_1_ManagedWiFi_Awareness_DM8_2_Harness_the__power_of__Wi_Fi_to_push__out_location__based__prom_0_Layer0_0_MEMBER_43_FILL">
<path fill="#D82C26" stroke="none" d="
M 12.45 35.15
Q 12.2 35.65 12.2 36.2 12.2 36.75 12.45 37.25 12.8 37.75 13.15 38 13.65 38.25 14.15 38.25 15.05 38.25 15.7 37.75
L 15.6 37.35
Q 15.5 37.45 15 37.7 14.65 37.85 14.2 37.85 13.75 37.85 13.4 37.65 13.05 37.4 12.9 37.1 12.75 36.85 12.65 36.3
L 15.9 36.3 15.9 36.1
Q 15.9 35.55 15.7 35.15 15.45 34.65 15.05 34.45 14.65 34.2 14.1 34.2 13.55 34.2 13.15 34.45 12.65 34.8 12.45 35.15
M 12.7 35.95
Q 12.7 35.65 12.85 35.35 12.95 35.1 13.35 34.8 13.6 34.6 14.1 34.6 14.7 34.6 15.05 34.95 15.45 35.35 15.45 35.95
L 12.7 35.95 Z"/>
</g>

<g id="BDM_160x600_psd_Asset_1_ManagedWiFi_Awareness_DM8_2_Harness_the__power_of__Wi_Fi_to_push__out_location__based__prom_0_Layer0_0_MEMBER_44_FILL">
<path fill="#D82C26" stroke="none" d="
M 16.7 35.2
Q 16.45 35.7 16.45 36.25 16.45 36.75 16.7 37.25 16.95 37.7 17.4 37.95 17.85 38.25 18.4 38.25 18.8 38.25 19.3 38 19.75 37.75 19.95 37.3
L 20 38.15 20.45 38.15 20.4 31.9 19.95 32 19.95 35.15 19.9 35.15
Q 19.65 34.65 19.3 34.45 18.8 34.2 18.4 34.2 17.85 34.2 17.4 34.5 16.95 34.75 16.7 35.2
M 17.15 35.4
Q 17.25 35.15 17.65 34.85 18.05 34.6 18.45 34.6 18.85 34.6 19.2 34.85 19.65 35.1 19.75 35.4 19.95 35.75 19.95 36.25 19.95 36.7 19.75 37.05 19.6 37.35 19.2 37.6 18.85 37.85 18.45 37.85 18.05 37.85 17.65 37.6 17.3 37.45 17.15 37.05 16.95 36.7 16.95 36.25 16.95 35.75 17.15 35.4 Z"/>
</g>

<g id="BDM_160x600_psd_Asset_1_ManagedWiFi_Awareness_DM8_2_Harness_the__power_of__Wi_Fi_to_push__out_location__based__prom_0_Layer0_0_MEMBER_45_FILL">
<path fill="#D82C26" stroke="none" d="
M 3.8 44
Q 3.3 43.75 2.8 43.75 2.3 43.75 1.9 44 1.5 44.2 1.25 44.7
L 1.2 44.7 1.2 43.85 0.7 43.85 0.75 44.55 0.75 49.6 1.25 49.6 1.25 46.85
Q 1.45 47.3 1.9 47.5 2.2 47.75 2.8 47.75 3.45 47.75 3.8 47.5 4.3 47.1 4.45 46.8 4.7 46.2 4.7 45.75 4.7 45.25 4.45 44.75 4.25 44.35 3.8 44
M 4 44.95
Q 4.2 45.3 4.2 45.75 4.2 46.2 4 46.55 3.85 46.95 3.5 47.15 3.25 47.35 2.7 47.35 2.2 47.35 1.95 47.15 1.65 46.95 1.4 46.55 1.2 46.2 1.2 45.75 1.2 45.3 1.4 44.95 1.65 44.55 1.95 44.35 2.2 44.15 2.7 44.15 3.25 44.15 3.5 44.35 3.85 44.55 4 44.95 Z"/>
</g>

<g id="BDM_160x600_psd_Asset_1_ManagedWiFi_Awareness_DM8_2_Harness_the__power_of__Wi_Fi_to_push__out_location__based__prom_0_Layer0_0_MEMBER_46_FILL">
<path fill="#D82C26" stroke="none" d="
M 7.05 44.15
L 7.4 44.2 7.5 43.8 7.1 43.75
Q 6.8 43.75 6.45 44 6.15 44.2 6 44.7
L 5.95 44.7 5.95 43.85 5.5 43.85 5.5 47.65 6 47.65 6 45.75
Q 6 45.1 6.3 44.65 6.6 44.15 7.05 44.15 Z"/>
</g>

<g id="BDM_160x600_psd_Asset_1_ManagedWiFi_Awareness_DM8_2_Harness_the__power_of__Wi_Fi_to_push__out_location__based__prom_0_Layer0_0_MEMBER_47_FILL">
<path fill="#D82C26" stroke="none" d="
M 8.55 44
Q 8.15 44.2 7.8 44.7 7.55 45.2 7.55 45.75 7.55 46.3 7.8 46.8 8.15 47.3 8.55 47.5 8.95 47.75 9.55 47.75 10.25 47.75 10.6 47.5 11.05 47.3 11.35 46.8 11.6 46.3 11.6 45.75 11.6 45.2 11.35 44.7 11.05 44.2 10.6 44 10.25 43.75 9.55 43.75 8.95 43.75 8.55 44
M 8.75 44.35
Q 9.1 44.15 9.55 44.15 10.05 44.15 10.4 44.35 10.75 44.6 10.95 44.95 11.1 45.35 11.1 45.75 11.1 46.2 10.95 46.55 10.7 46.95 10.4 47.15 10.05 47.35 9.55 47.35 9.1 47.35 8.75 47.15 8.45 46.95 8.2 46.55 8.05 46.2 8.05 45.75 8.05 45.35 8.2 44.95 8.45 44.55 8.75 44.35 Z"/>
</g>

<g id="BDM_160x600_psd_Asset_1_ManagedWiFi_Awareness_DM8_2_Harness_the__power_of__Wi_Fi_to_push__out_location__based__prom_0_Layer0_0_MEMBER_48_FILL">
<path fill="#D82C26" stroke="none" d="
M 15 44
Q 14.65 43.75 14.2 43.75 13.8 43.75 13.4 44 13.05 44.2 12.9 44.7
L 12.85 43.85 12.4 43.85 12.4 47.65 12.9 47.65 12.9 45.75
Q 12.9 45.3 13.05 44.9 13.2 44.5 13.5 44.35 13.7 44.15 14.1 44.15 14.6 44.15 14.8 44.45 15.05 44.85 15.05 45.4
L 15.05 47.65 15.55 47.65 15.55 45.7
Q 15.55 45 15.85 44.55 16.25 44.15 16.75 44.15 17.3 44.15 17.5 44.55 17.75 44.95 17.75 45.5
L 17.75 47.65 18.2 47.65 18.2 45.4
Q 18.2 44.6 17.85 44.2 17.55 43.75 16.85 43.75 16.4 43.75 16 44 15.6 44.25 15.45 44.7 15.3 44.2 15 44 Z"/>
</g>

<g id="BDM_160x600_psd_Asset_1_ManagedWiFi_Awareness_DM8_2_Harness_the__power_of__Wi_Fi_to_push__out_location__based__prom_0_Layer0_0_MEMBER_49_FILL">
<path fill="#D82C26" stroke="none" d="
M 19.25 46.8
Q 19.5 47.25 19.95 47.5 20.35 47.75 21 47.75 21.7 47.75 22.05 47.5 22.5 47.25 22.75 46.8 23.05 46.35 23.05 45.75 23.05 45.15 22.75 44.7 22.5 44.25 22.05 44 21.7 43.75 21 43.75 20.35 43.75 19.95 44 19.5 44.25 19.25 44.7 19 45.1 19 45.75 19 46.45 19.25 46.8
M 19.65 44.95
Q 19.8 44.6 20.2 44.35 20.45 44.15 21 44.15 21.55 44.15 21.8 44.35 22.2 44.6 22.35 44.95 22.55 45.3 22.55 45.75 22.55 46.2 22.35 46.55 22.2 46.85 21.85 47.15 21.5 47.35 21 47.35 20.45 47.35 20.2 47.15 19.8 46.9 19.65 46.55 19.45 46.2 19.45 45.75 19.45 45.3 19.65 44.95 Z"/>
</g>

<g id="BDM_160x600_psd_Asset_1_ManagedWiFi_Awareness_DM8_2_Harness_the__power_of__Wi_Fi_to_push__out_location__based__prom_0_Layer0_0_MEMBER_50_FILL">
<path fill="#D82C26" stroke="none" d="
M 24.35 42.75
L 23.85 42.95 23.85 43.85 23.25 43.85 23.15 44.25 23.85 44.25 23.85 46.75
Q 23.85 47.15 24.1 47.5 24.35 47.75 24.75 47.75
L 25.2 47.7 25.55 47.55 25.5 47.2 24.9 47.35
Q 24.65 47.35 24.5 47.2 24.35 47.05 24.35 46.7
L 24.35 44.25 25.3 44.25 25.4 43.85 24.35 43.85 24.35 42.75 Z"/>
</g>

<g id="BDM_160x600_psd_Asset_1_ManagedWiFi_Awareness_DM8_2_Harness_the__power_of__Wi_Fi_to_push__out_location__based__prom_0_Layer0_0_MEMBER_51_FILL">
<path fill="#D82C26" stroke="none" d="
M 26.1 43.85
L 26.1 47.65 26.6 47.65 26.6 43.85 26.1 43.85
M 26.35 42.7
L 26.6 42.6 26.7 42.35 26.6 42.1
Q 26.5 42 26.35 42
L 26.1 42.1 26 42.35 26.1 42.6 26.35 42.7 Z"/>
</g>

<g id="BDM_160x600_psd_Asset_1_ManagedWiFi_Awareness_DM8_2_Harness_the__power_of__Wi_Fi_to_push__out_location__based__prom_0_Layer0_0_MEMBER_52_FILL">
<path fill="#D82C26" stroke="none" d="
M 29.4 43.75
Q 28.8 43.75 28.35 44 27.9 44.25 27.65 44.7 27.4 45.1 27.4 45.75 27.4 46.45 27.65 46.8 27.9 47.25 28.35 47.5 28.8 47.75 29.4 47.75 30.1 47.75 30.45 47.5 30.9 47.25 31.15 46.8 31.45 46.35 31.45 45.75 31.45 45.15 31.15 44.7 30.9 44.25 30.45 44 30.1 43.75 29.4 43.75
M 29.4 44.15
Q 29.95 44.15 30.2 44.35 30.6 44.6 30.75 44.95 30.95 45.3 30.95 45.75 30.95 46.2 30.75 46.55 30.6 46.85 30.25 47.15 29.9 47.35 29.4 47.35 28.85 47.35 28.6 47.15 28.2 46.9 28.05 46.55 27.85 46.2 27.85 45.75 27.85 45.3 28.05 44.95 28.2 44.6 28.6 44.35 28.85 44.15 29.4 44.15 Z"/>
</g>

<g id="BDM_160x600_psd_Asset_1_ManagedWiFi_Awareness_DM8_2_Harness_the__power_of__Wi_Fi_to_push__out_location__based__prom_0_Layer0_0_MEMBER_53_FILL">
<path fill="#D82C26" stroke="none" d="
M 34.1 43.75
Q 33.65 43.75 33.25 44 32.95 44.15 32.7 44.7
L 32.65 43.85 32.2 43.85 32.25 47.65 32.75 47.65 32.75 45.7
Q 32.75 45.25 32.9 44.85 33.1 44.5 33.35 44.35 33.6 44.15 34 44.15 34.6 44.15 34.8 44.5 35.05 44.9 35.05 45.45
L 35.05 47.65 35.5 47.65 35.5 45.35
Q 35.5 44.6 35.15 44.2 34.85 43.75 34.1 43.75 Z"/>
</g>

<g id="BDM_160x600_psd_Asset_1_ManagedWiFi_Awareness_DM8_2_Harness_the__power_of__Wi_Fi_to_push__out_location__based__prom_0_Layer0_0_MEMBER_54_FILL">
<path fill="#D82C26" stroke="none" d="
M 38.8 44.15
L 38.25 43.85 37.55 43.75 36.95 43.85
Q 36.65 44 36.5 44.2 36.3 44.4 36.3 44.8 36.3 45.25 36.6 45.45 36.85 45.7 37.4 45.85
L 38.2 46.2
Q 38.45 46.45 38.45 46.7 38.45 46.95 38.2 47.2 37.95 47.4 37.6 47.4 36.85 47.4 36.3 46.95
L 36.25 47.35 36.85 47.65
Q 37.05 47.75 37.6 47.75
L 38.25 47.65
Q 38.6 47.5 38.7 47.25 38.9 47.05 38.9 46.65 38.9 46.25 38.6 46 38.3 45.7 37.7 45.55
L 36.95 45.2
Q 36.75 45 36.75 44.75 36.75 44.45 37 44.3 37.2 44.1 37.6 44.1
L 38.15 44.2 38.6 44.5 38.8 44.15 Z"/>
</g>

<g id="BDM_160x600_psd_Asset_1_ManagedWiFi_Awareness_DM8_2_Harness_the__power_of__Wi_Fi_to_push__out_location__based__prom_0_Layer0_0_MEMBER_55_FILL">
<path fill="#D82C26" stroke="none" d="
M 39.9 47.6
Q 40 47.7 40.15 47.7 40.35 47.7 40.45 47.6
L 40.55 47.35 40.45 47.1
Q 40.35 47 40.15 47 40 47 39.9 47.1
L 39.8 47.35 39.9 47.6
M 45.25 47.35
Q 45.25 47.55 45.35 47.6 45.4 47.7 45.6 47.7 45.8 47.7 45.85 47.6
L 45.95 47.35
Q 45.95 47.15 45.85 47.1 45.8 47 45.6 47 45.4 47 45.35 47.1 45.25 47.15 45.25 47.35
M 42.65 47.6
Q 42.7 47.7 42.9 47.7 43.05 47.7 43.15 47.6
L 43.25 47.35 43.15 47.1
Q 43.05 47 42.9 47 42.7 47 42.65 47.1 42.55 47.15 42.55 47.35 42.55 47.55 42.65 47.6 Z"/>
</g>
</defs>

<g transform="matrix( 1, 0, 0, 1, -109,52) ">
<g transform="matrix( 1, 0, 0, 1, 103,0) ">
<g transform="matrix( 1, 0, 0, 1, 25,4) ">
<g transform="matrix( 2.815704345703125, 0, 0, 2.832611083984375, 0.15,17.6) ">
<use xlink:href="#BDM_160x600_psd_Asset_1_ManagedWiFi_Awareness_DM8_2_Harness_the__power_of__Wi_Fi_to_push__out_location__based__prom_0_Layer0_0_MEMBER_0_FILL"/>
</g>

<g transform="matrix( 2.815704345703125, 0, 0, 2.832611083984375, 0.15,17.6) ">
<use xlink:href="#BDM_160x600_psd_Asset_1_ManagedWiFi_Awareness_DM8_2_Harness_the__power_of__Wi_Fi_to_push__out_location__based__prom_0_Layer0_0_MEMBER_1_FILL"/>
</g>

<g transform="matrix( 2.815704345703125, 0, 0, 2.832611083984375, 0.15,17.6) ">
<use xlink:href="#BDM_160x600_psd_Asset_1_ManagedWiFi_Awareness_DM8_2_Harness_the__power_of__Wi_Fi_to_push__out_location__based__prom_0_Layer0_0_MEMBER_2_FILL"/>
</g>

<g transform="matrix( 2.815704345703125, 0, 0, 2.832611083984375, 0.15,17.6) ">
<use xlink:href="#BDM_160x600_psd_Asset_1_ManagedWiFi_Awareness_DM8_2_Harness_the__power_of__Wi_Fi_to_push__out_location__based__prom_0_Layer0_0_MEMBER_3_FILL"/>
</g>

<g transform="matrix( 2.815704345703125, 0, 0, 2.832611083984375, 0.15,17.6) ">
<use xlink:href="#BDM_160x600_psd_Asset_1_ManagedWiFi_Awareness_DM8_2_Harness_the__power_of__Wi_Fi_to_push__out_location__based__prom_0_Layer0_0_MEMBER_4_FILL"/>
</g>

<g transform="matrix( 2.815704345703125, 0, 0, 2.832611083984375, 0.15,17.6) ">
<use xlink:href="#BDM_160x600_psd_Asset_1_ManagedWiFi_Awareness_DM8_2_Harness_the__power_of__Wi_Fi_to_push__out_location__based__prom_0_Layer0_0_MEMBER_5_FILL"/>
</g>

<g transform="matrix( 2.815704345703125, 0, 0, 2.832611083984375, 0.15,17.6) ">
<use xlink:href="#BDM_160x600_psd_Asset_1_ManagedWiFi_Awareness_DM8_2_Harness_the__power_of__Wi_Fi_to_push__out_location__based__prom_0_Layer0_0_MEMBER_6_FILL"/>
</g>

<g transform="matrix( 2.815704345703125, 0, 0, 2.832611083984375, 0.15,17.6) ">
<use xlink:href="#BDM_160x600_psd_Asset_1_ManagedWiFi_Awareness_DM8_2_Harness_the__power_of__Wi_Fi_to_push__out_location__based__prom_0_Layer0_0_MEMBER_7_FILL"/>
</g>

<g transform="matrix( 2.815704345703125, 0, 0, 2.832611083984375, 0.15,17.6) ">
<use xlink:href="#BDM_160x600_psd_Asset_1_ManagedWiFi_Awareness_DM8_2_Harness_the__power_of__Wi_Fi_to_push__out_location__based__prom_0_Layer0_0_MEMBER_8_FILL"/>
</g>

<g transform="matrix( 2.815704345703125, 0, 0, 2.832611083984375, 0.15,17.6) ">
<use xlink:href="#BDM_160x600_psd_Asset_1_ManagedWiFi_Awareness_DM8_2_Harness_the__power_of__Wi_Fi_to_push__out_location__based__prom_0_Layer0_0_MEMBER_9_FILL"/>
</g>

<g transform="matrix( 2.815704345703125, 0, 0, 2.832611083984375, 0.15,17.6) ">
<use xlink:href="#BDM_160x600_psd_Asset_1_ManagedWiFi_Awareness_DM8_2_Harness_the__power_of__Wi_Fi_to_push__out_location__based__prom_0_Layer0_0_MEMBER_10_FILL"/>
</g>

<g transform="matrix( 2.815704345703125, 0, 0, 2.832611083984375, 0.15,17.6) ">
<use xlink:href="#BDM_160x600_psd_Asset_1_ManagedWiFi_Awareness_DM8_2_Harness_the__power_of__Wi_Fi_to_push__out_location__based__prom_0_Layer0_0_MEMBER_11_FILL"/>
</g>

<g transform="matrix( 2.815704345703125, 0, 0, 2.832611083984375, 0.15,17.6) ">
<use xlink:href="#BDM_160x600_psd_Asset_1_ManagedWiFi_Awareness_DM8_2_Harness_the__power_of__Wi_Fi_to_push__out_location__based__prom_0_Layer0_0_MEMBER_12_FILL"/>
</g>

<g transform="matrix( 2.815704345703125, 0, 0, 2.832611083984375, 0.15,17.6) ">
<use xlink:href="#BDM_160x600_psd_Asset_1_ManagedWiFi_Awareness_DM8_2_Harness_the__power_of__Wi_Fi_to_push__out_location__based__prom_0_Layer0_0_MEMBER_13_FILL"/>
</g>

<g transform="matrix( 2.815704345703125, 0, 0, 2.832611083984375, 0.15,17.6) ">
<use xlink:href="#BDM_160x600_psd_Asset_1_ManagedWiFi_Awareness_DM8_2_Harness_the__power_of__Wi_Fi_to_push__out_location__based__prom_0_Layer0_0_MEMBER_14_FILL"/>
</g>

<g transform="matrix( 2.815704345703125, 0, 0, 2.832611083984375, 0.15,17.6) ">
<use xlink:href="#BDM_160x600_psd_Asset_1_ManagedWiFi_Awareness_DM8_2_Harness_the__power_of__Wi_Fi_to_push__out_location__based__prom_0_Layer0_0_MEMBER_15_FILL"/>
</g>

<g transform="matrix( 2.815704345703125, 0, 0, 2.832611083984375, 0.15,17.6) ">
<use xlink:href="#BDM_160x600_psd_Asset_1_ManagedWiFi_Awareness_DM8_2_Harness_the__power_of__Wi_Fi_to_push__out_location__based__prom_0_Layer0_0_MEMBER_16_FILL"/>
</g>

<g transform="matrix( 2.815704345703125, 0, 0, 2.832611083984375, 0.15,17.6) ">
<use xlink:href="#BDM_160x600_psd_Asset_1_ManagedWiFi_Awareness_DM8_2_Harness_the__power_of__Wi_Fi_to_push__out_location__based__prom_0_Layer0_0_MEMBER_17_FILL"/>
</g>

<g transform="matrix( 2.815704345703125, 0, 0, 2.832611083984375, 0.15,17.6) ">
<use xlink:href="#BDM_160x600_psd_Asset_1_ManagedWiFi_Awareness_DM8_2_Harness_the__power_of__Wi_Fi_to_push__out_location__based__prom_0_Layer0_0_MEMBER_18_FILL"/>
</g>

<g transform="matrix( 2.815704345703125, 0, 0, 2.832611083984375, 0.15,17.6) ">
<use xlink:href="#BDM_160x600_psd_Asset_1_ManagedWiFi_Awareness_DM8_2_Harness_the__power_of__Wi_Fi_to_push__out_location__based__prom_0_Layer0_0_MEMBER_19_FILL"/>
</g>

<g transform="matrix( 2.815704345703125, 0, 0, 2.832611083984375, 0.15,17.6) ">
<use xlink:href="#BDM_160x600_psd_Asset_1_ManagedWiFi_Awareness_DM8_2_Harness_the__power_of__Wi_Fi_to_push__out_location__based__prom_0_Layer0_0_MEMBER_20_FILL"/>
</g>

<g transform="matrix( 2.815704345703125, 0, 0, 2.832611083984375, 0.15,17.6) ">
<use xlink:href="#BDM_160x600_psd_Asset_1_ManagedWiFi_Awareness_DM8_2_Harness_the__power_of__Wi_Fi_to_push__out_location__based__prom_0_Layer0_0_MEMBER_21_FILL"/>
</g>

<g transform="matrix( 2.815704345703125, 0, 0, 2.832611083984375, 0.15,17.6) ">
<use xlink:href="#BDM_160x600_psd_Asset_1_ManagedWiFi_Awareness_DM8_2_Harness_the__power_of__Wi_Fi_to_push__out_location__based__prom_0_Layer0_0_MEMBER_22_FILL"/>
</g>

<g transform="matrix( 2.815704345703125, 0, 0, 2.832611083984375, 0.15,17.6) ">
<use xlink:href="#BDM_160x600_psd_Asset_1_ManagedWiFi_Awareness_DM8_2_Harness_the__power_of__Wi_Fi_to_push__out_location__based__prom_0_Layer0_0_MEMBER_23_FILL"/>
</g>

<g transform="matrix( 2.815704345703125, 0, 0, 2.832611083984375, 0.15,17.6) ">
<use xlink:href="#BDM_160x600_psd_Asset_1_ManagedWiFi_Awareness_DM8_2_Harness_the__power_of__Wi_Fi_to_push__out_location__based__prom_0_Layer0_0_MEMBER_24_FILL"/>
</g>

<g transform="matrix( 2.815704345703125, 0, 0, 2.832611083984375, 0.15,17.6) ">
<use xlink:href="#BDM_160x600_psd_Asset_1_ManagedWiFi_Awareness_DM8_2_Harness_the__power_of__Wi_Fi_to_push__out_location__based__prom_0_Layer0_0_MEMBER_25_FILL"/>
</g>

<g transform="matrix( 2.815704345703125, 0, 0, 2.832611083984375, 0.15,17.6) ">
<use xlink:href="#BDM_160x600_psd_Asset_1_ManagedWiFi_Awareness_DM8_2_Harness_the__power_of__Wi_Fi_to_push__out_location__based__prom_0_Layer0_0_MEMBER_26_FILL"/>
</g>

<g transform="matrix( 2.815704345703125, 0, 0, 2.832611083984375, 0.15,17.6) ">
<use xlink:href="#BDM_160x600_psd_Asset_1_ManagedWiFi_Awareness_DM8_2_Harness_the__power_of__Wi_Fi_to_push__out_location__based__prom_0_Layer0_0_MEMBER_27_FILL"/>
</g>

<g transform="matrix( 2.815704345703125, 0, 0, 2.832611083984375, 0.15,17.6) ">
<use xlink:href="#BDM_160x600_psd_Asset_1_ManagedWiFi_Awareness_DM8_2_Harness_the__power_of__Wi_Fi_to_push__out_location__based__prom_0_Layer0_0_MEMBER_28_FILL"/>
</g>

<g transform="matrix( 2.815704345703125, 0, 0, 2.832611083984375, 0.15,17.6) ">
<use xlink:href="#BDM_160x600_psd_Asset_1_ManagedWiFi_Awareness_DM8_2_Harness_the__power_of__Wi_Fi_to_push__out_location__based__prom_0_Layer0_0_MEMBER_29_FILL"/>
</g>

<g transform="matrix( 2.815704345703125, 0, 0, 2.832611083984375, 0.15,17.6) ">
<use xlink:href="#BDM_160x600_psd_Asset_1_ManagedWiFi_Awareness_DM8_2_Harness_the__power_of__Wi_Fi_to_push__out_location__based__prom_0_Layer0_0_MEMBER_30_FILL"/>
</g>

<g transform="matrix( 2.815704345703125, 0, 0, 2.832611083984375, 0.15,17.6) ">
<use xlink:href="#BDM_160x600_psd_Asset_1_ManagedWiFi_Awareness_DM8_2_Harness_the__power_of__Wi_Fi_to_push__out_location__based__prom_0_Layer0_0_MEMBER_31_FILL"/>
</g>

<g transform="matrix( 2.815704345703125, 0, 0, 2.832611083984375, 0.15,17.6) ">
<use xlink:href="#BDM_160x600_psd_Asset_1_ManagedWiFi_Awareness_DM8_2_Harness_the__power_of__Wi_Fi_to_push__out_location__based__prom_0_Layer0_0_MEMBER_32_FILL"/>
</g>

<g transform="matrix( 2.815704345703125, 0, 0, 2.832611083984375, 0.15,17.6) ">
<use xlink:href="#BDM_160x600_psd_Asset_1_ManagedWiFi_Awareness_DM8_2_Harness_the__power_of__Wi_Fi_to_push__out_location__based__prom_0_Layer0_0_MEMBER_33_FILL"/>
</g>

<g transform="matrix( 2.815704345703125, 0, 0, 2.832611083984375, 0.15,17.6) ">
<use xlink:href="#BDM_160x600_psd_Asset_1_ManagedWiFi_Awareness_DM8_2_Harness_the__power_of__Wi_Fi_to_push__out_location__based__prom_0_Layer0_0_MEMBER_34_FILL"/>
</g>

<g transform="matrix( 2.815704345703125, 0, 0, 2.832611083984375, 0.15,17.6) ">
<use xlink:href="#BDM_160x600_psd_Asset_1_ManagedWiFi_Awareness_DM8_2_Harness_the__power_of__Wi_Fi_to_push__out_location__based__prom_0_Layer0_0_MEMBER_35_FILL"/>
</g>

<g transform="matrix( 2.815704345703125, 0, 0, 2.832611083984375, 0.15,17.6) ">
<use xlink:href="#BDM_160x600_psd_Asset_1_ManagedWiFi_Awareness_DM8_2_Harness_the__power_of__Wi_Fi_to_push__out_location__based__prom_0_Layer0_0_MEMBER_36_FILL"/>
</g>

<g transform="matrix( 2.815704345703125, 0, 0, 2.832611083984375, 0.15,17.6) ">
<use xlink:href="#BDM_160x600_psd_Asset_1_ManagedWiFi_Awareness_DM8_2_Harness_the__power_of__Wi_Fi_to_push__out_location__based__prom_0_Layer0_0_MEMBER_37_FILL"/>
</g>

<g transform="matrix( 2.815704345703125, 0, 0, 2.832611083984375, 0.15,17.6) ">
<use xlink:href="#BDM_160x600_psd_Asset_1_ManagedWiFi_Awareness_DM8_2_Harness_the__power_of__Wi_Fi_to_push__out_location__based__prom_0_Layer0_0_MEMBER_38_FILL"/>
</g>

<g transform="matrix( 2.815704345703125, 0, 0, 2.832611083984375, 0.15,17.6) ">
<use xlink:href="#BDM_160x600_psd_Asset_1_ManagedWiFi_Awareness_DM8_2_Harness_the__power_of__Wi_Fi_to_push__out_location__based__prom_0_Layer0_0_MEMBER_39_FILL"/>
</g>

<g transform="matrix( 2.815704345703125, 0, 0, 2.832611083984375, 0.15,17.6) ">
<use xlink:href="#BDM_160x600_psd_Asset_1_ManagedWiFi_Awareness_DM8_2_Harness_the__power_of__Wi_Fi_to_push__out_location__based__prom_0_Layer0_0_MEMBER_40_FILL"/>
</g>

<g transform="matrix( 2.815704345703125, 0, 0, 2.832611083984375, 0.15,17.6) ">
<use xlink:href="#BDM_160x600_psd_Asset_1_ManagedWiFi_Awareness_DM8_2_Harness_the__power_of__Wi_Fi_to_push__out_location__based__prom_0_Layer0_0_MEMBER_41_FILL"/>
</g>

<g transform="matrix( 2.815704345703125, 0, 0, 2.832611083984375, 0.15,17.6) ">
<use xlink:href="#BDM_160x600_psd_Asset_1_ManagedWiFi_Awareness_DM8_2_Harness_the__power_of__Wi_Fi_to_push__out_location__based__prom_0_Layer0_0_MEMBER_42_FILL"/>
</g>

<g transform="matrix( 2.815704345703125, 0, 0, 2.832611083984375, 0.15,17.6) ">
<use xlink:href="#BDM_160x600_psd_Asset_1_ManagedWiFi_Awareness_DM8_2_Harness_the__power_of__Wi_Fi_to_push__out_location__based__prom_0_Layer0_0_MEMBER_43_FILL"/>
</g>

<g transform="matrix( 2.815704345703125, 0, 0, 2.832611083984375, 0.15,17.6) ">
<use xlink:href="#BDM_160x600_psd_Asset_1_ManagedWiFi_Awareness_DM8_2_Harness_the__power_of__Wi_Fi_to_push__out_location__based__prom_0_Layer0_0_MEMBER_44_FILL"/>
</g>

<g transform="matrix( 2.815704345703125, 0, 0, 2.832611083984375, 0.15,17.6) ">
<use xlink:href="#BDM_160x600_psd_Asset_1_ManagedWiFi_Awareness_DM8_2_Harness_the__power_of__Wi_Fi_to_push__out_location__based__prom_0_Layer0_0_MEMBER_45_FILL"/>
</g>

<g transform="matrix( 2.815704345703125, 0, 0, 2.832611083984375, 0.15,17.6) ">
<use xlink:href="#BDM_160x600_psd_Asset_1_ManagedWiFi_Awareness_DM8_2_Harness_the__power_of__Wi_Fi_to_push__out_location__based__prom_0_Layer0_0_MEMBER_46_FILL"/>
</g>

<g transform="matrix( 2.815704345703125, 0, 0, 2.832611083984375, 0.15,17.6) ">
<use xlink:href="#BDM_160x600_psd_Asset_1_ManagedWiFi_Awareness_DM8_2_Harness_the__power_of__Wi_Fi_to_push__out_location__based__prom_0_Layer0_0_MEMBER_47_FILL"/>
</g>

<g transform="matrix( 2.815704345703125, 0, 0, 2.832611083984375, 0.15,17.6) ">
<use xlink:href="#BDM_160x600_psd_Asset_1_ManagedWiFi_Awareness_DM8_2_Harness_the__power_of__Wi_Fi_to_push__out_location__based__prom_0_Layer0_0_MEMBER_48_FILL"/>
</g>

<g transform="matrix( 2.815704345703125, 0, 0, 2.832611083984375, 0.15,17.6) ">
<use xlink:href="#BDM_160x600_psd_Asset_1_ManagedWiFi_Awareness_DM8_2_Harness_the__power_of__Wi_Fi_to_push__out_location__based__prom_0_Layer0_0_MEMBER_49_FILL"/>
</g>

<g transform="matrix( 2.815704345703125, 0, 0, 2.832611083984375, 0.15,17.6) ">
<use xlink:href="#BDM_160x600_psd_Asset_1_ManagedWiFi_Awareness_DM8_2_Harness_the__power_of__Wi_Fi_to_push__out_location__based__prom_0_Layer0_0_MEMBER_50_FILL"/>
</g>

<g transform="matrix( 2.815704345703125, 0, 0, 2.832611083984375, 0.15,17.6) ">
<use xlink:href="#BDM_160x600_psd_Asset_1_ManagedWiFi_Awareness_DM8_2_Harness_the__power_of__Wi_Fi_to_push__out_location__based__prom_0_Layer0_0_MEMBER_51_FILL"/>
</g>

<g transform="matrix( 2.815704345703125, 0, 0, 2.832611083984375, 0.15,17.6) ">
<use xlink:href="#BDM_160x600_psd_Asset_1_ManagedWiFi_Awareness_DM8_2_Harness_the__power_of__Wi_Fi_to_push__out_location__based__prom_0_Layer0_0_MEMBER_52_FILL"/>
</g>

<g transform="matrix( 2.815704345703125, 0, 0, 2.832611083984375, 0.15,17.6) ">
<use xlink:href="#BDM_160x600_psd_Asset_1_ManagedWiFi_Awareness_DM8_2_Harness_the__power_of__Wi_Fi_to_push__out_location__based__prom_0_Layer0_0_MEMBER_53_FILL"/>
</g>

<g transform="matrix( 2.815704345703125, 0, 0, 2.832611083984375, 0.15,17.6) ">
<use xlink:href="#BDM_160x600_psd_Asset_1_ManagedWiFi_Awareness_DM8_2_Harness_the__power_of__Wi_Fi_to_push__out_location__based__prom_0_Layer0_0_MEMBER_54_FILL"/>
</g>

<g transform="matrix( 2.815704345703125, 0, 0, 2.832611083984375, 0.15,17.6) ">
<use xlink:href="#BDM_160x600_psd_Asset_1_ManagedWiFi_Awareness_DM8_2_Harness_the__power_of__Wi_Fi_to_push__out_location__based__prom_0_Layer0_0_MEMBER_55_FILL"/>
</g>
</g>
</g>
</g>
</svg>
