
<svg xmlns="http://www.w3.org/2000/svg" version="1.1" xmlns:xlink="http://www.w3.org/1999/xlink" preserveAspectRatio="none" x="0px" y="0px" width="160px" height="600px" viewBox="0 0 160 600">
<defs>
<g id="BDM_160x600_psd_Asset_1_ManagedWiFi_Awareness_DM8_3_for_a_more__personalized__customer__experience__0_Layer0_0_MEMBER_0_FILL">
<path fill="#D82C26" stroke="none" d="
M 2.6 -6.5
L 2.2 -6.5
Q 1.65 -6.5 1.3 -6.15 0.95 -5.8 0.95 -5.1
L 0.95 -3.95 0.25 -3.95 0.15 -3.6 1 -3.6 1 0 1.45 0 1.45 -3.6 2.4 -3.6 2.5 -3.95 1.45 -3.95 1.45 -5.1
Q 1.45 -5.5 1.65 -5.8 1.8 -6.1 2.25 -6.1
L 2.85 -6 2.95 -6.4 2.6 -6.5 Z"/>
</g>

<g id="BDM_160x600_psd_Asset_1_ManagedWiFi_Awareness_DM8_3_for_a_more__personalized__customer__experience__0_Layer0_0_MEMBER_1_FILL">
<path fill="#D82C26" stroke="none" d="
M 3.65 -3.85
Q 3.2 -3.55 2.9 -3.1 2.65 -2.5 2.65 -2 2.65 -1.5 2.9 -0.9 3.2 -0.45 3.65 -0.15 4.1 0.1 4.75 0.1 5.4 0.1 5.85 -0.15 6.3 -0.45 6.6 -0.9 6.85 -1.5 6.85 -2 6.85 -2.5 6.6 -3.1 6.3 -3.55 5.85 -3.85 5.25 -4.1 4.75 -4.1 4.25 -4.1 3.65 -3.85
M 3.9 -3.45
Q 4.25 -3.65 4.75 -3.65 5.25 -3.65 5.6 -3.45 6 -3.2 6.15 -2.85 6.35 -2.5 6.35 -2 6.35 -1.5 6.15 -1.15 6 -0.8 5.6 -0.55 5.2 -0.3 4.75 -0.3 4.3 -0.3 3.9 -0.55 3.5 -0.8 3.35 -1.15 3.15 -1.5 3.15 -2 3.15 -2.5 3.35 -2.85 3.5 -3.2 3.9 -3.45 Z"/>
</g>

<g id="BDM_160x600_psd_Asset_1_ManagedWiFi_Awareness_DM8_3_for_a_more__personalized__customer__experience__0_Layer0_0_MEMBER_2_FILL">
<path fill="#D82C26" stroke="none" d="
M 8.2 -3.95
L 7.75 -3.95 7.75 0 8.25 0 8.25 -1.95
Q 8.25 -2.7 8.55 -3.15 8.85 -3.65 9.4 -3.65
L 9.75 -3.6 9.85 -4 9.4 -4.1
Q 9.1 -4.1 8.75 -3.85 8.4 -3.45 8.25 -3.1
L 8.2 -3.95 Z"/>
</g>

<g id="BDM_160x600_psd_Asset_1_ManagedWiFi_Awareness_DM8_3_for_a_more__personalized__customer__experience__0_Layer0_0_MEMBER_3_FILL">
<path fill="#D82C26" stroke="none" d="
M 13.25 -3.7
Q 13.75 -3.7 14.05 -3.4 14.35 -3.15 14.35 -2.6
L 14.35 -2.4 13.85 -2.4
Q 11.6 -2.4 11.6 -1.05 11.6 -0.5 12 -0.2 12.3 0.1 12.85 0.1 13.4 0.1 13.75 -0.1 14.2 -0.3 14.35 -0.75
L 14.45 0 14.9 0 14.8 -0.85 14.8 -2.6
Q 14.8 -3.35 14.4 -3.7 14 -4.1 13.3 -4.1 12.9 -4.1 12.5 -3.95
L 11.8 -3.6 11.95 -3.2
Q 12.15 -3.4 12.55 -3.55 12.95 -3.7 13.25 -3.7
M 12.35 -0.45
Q 12.1 -0.65 12.1 -1.1 12.1 -2.05 13.95 -2.05
L 14.35 -2.05 14.35 -1.65
Q 14.35 -1.3 14.2 -1 14.05 -0.65 13.75 -0.45 13.25 -0.25 12.95 -0.25 12.65 -0.25 12.35 -0.45 Z"/>
</g>

<g id="BDM_160x600_psd_Asset_1_ManagedWiFi_Awareness_DM8_3_for_a_more__personalized__customer__experience__0_Layer0_0_MEMBER_4_FILL">
<path fill="#D82C26" stroke="none" d="
M 19.35 -3.65
Q 19.85 -3.65 20.05 -3.35 20.35 -2.95 20.35 -2.35
L 20.35 0 20.85 0 20.85 -2.05
Q 20.85 -2.8 21.2 -3.2 21.5 -3.65 22.1 -3.65 22.65 -3.65 22.9 -3.25 23.15 -2.85 23.15 -2.25
L 23.15 0 23.6 0 23.6 -2.4
Q 23.6 -3.2 23.25 -3.6 22.9 -4.1 22.2 -4.1 21.7 -4.1 21.3 -3.8 20.9 -3.55 20.75 -3.05 20.6 -3.6 20.25 -3.8 19.95 -4.1 19.45 -4.1 19 -4.1 18.6 -3.8 18.25 -3.6 18.1 -3.1
L 18.05 -3.1 18 -3.95 17.55 -3.95 17.6 0 18.1 0 18.1 -1.95
Q 18.1 -2.5 18.25 -2.9 18.4 -3.3 18.7 -3.45 18.95 -3.65 19.35 -3.65 Z"/>
</g>

<g id="BDM_160x600_psd_Asset_1_ManagedWiFi_Awareness_DM8_3_for_a_more__personalized__customer__experience__0_Layer0_0_MEMBER_5_FILL">
<path fill="#D82C26" stroke="none" d="
M 24.75 -3.1
Q 24.5 -2.5 24.5 -2 24.5 -1.5 24.75 -0.9 25.05 -0.45 25.5 -0.15 25.95 0.1 26.6 0.1 27.25 0.1 27.7 -0.15 28.15 -0.45 28.45 -0.9 28.7 -1.35 28.7 -2 28.7 -2.65 28.45 -3.1 28.15 -3.55 27.7 -3.85 27.1 -4.1 26.6 -4.1 26.1 -4.1 25.5 -3.85 25.05 -3.55 24.75 -3.1
M 25 -2
Q 25 -2.5 25.2 -2.85 25.35 -3.2 25.75 -3.45 26.1 -3.65 26.6 -3.65 27.1 -3.65 27.45 -3.45 27.85 -3.2 28 -2.85 28.2 -2.5 28.2 -2 28.2 -1.5 28 -1.15 27.85 -0.8 27.45 -0.55 27.05 -0.3 26.6 -0.3 26.15 -0.3 25.75 -0.55 25.35 -0.8 25.2 -1.15 25 -1.5 25 -2 Z"/>
</g>

<g id="BDM_160x600_psd_Asset_1_ManagedWiFi_Awareness_DM8_3_for_a_more__personalized__customer__experience__0_Layer0_0_MEMBER_6_FILL">
<path fill="#D82C26" stroke="none" d="
M 30.05 -3.95
L 29.6 -3.95 29.6 0 30.1 0 30.1 -1.95
Q 30.1 -2.75 30.45 -3.15 30.75 -3.65 31.25 -3.65
L 31.6 -3.6 31.7 -4 31.3 -4.1
Q 30.95 -4.1 30.6 -3.85 30.25 -3.45 30.1 -3.1
L 30.05 -3.95 Z"/>
</g>

<g id="BDM_160x600_psd_Asset_1_ManagedWiFi_Awareness_DM8_3_for_a_more__personalized__customer__experience__0_Layer0_0_MEMBER_7_FILL">
<path fill="#D82C26" stroke="none" d="
M 34.8 -3.85
Q 34.4 -4.1 33.8 -4.1 33.3 -4.1 32.8 -3.85 32.3 -3.5 32.1 -3.1 31.8 -2.55 31.8 -2 31.8 -1.4 32.1 -0.9 32.3 -0.45 32.8 -0.15 33.2 0.1 33.85 0.1 34.8 0.1 35.45 -0.4
L 35.35 -0.8
Q 35.2 -0.65 34.7 -0.45 34.35 -0.3 33.9 -0.3 33.35 -0.3 33.1 -0.5 32.75 -0.7 32.5 -1.1 32.3 -1.6 32.3 -1.9
L 35.65 -1.9 35.7 -2.15
Q 35.7 -2.6 35.45 -3.1 35.2 -3.55 34.8 -3.85
M 33.8 -3.7
Q 34.4 -3.7 34.8 -3.3 35.2 -2.9 35.2 -2.3
L 32.3 -2.3 32.5 -2.9
Q 32.65 -3.2 33 -3.5 33.35 -3.7 33.8 -3.7 Z"/>
</g>

<g id="BDM_160x600_psd_Asset_1_ManagedWiFi_Awareness_DM8_3_for_a_more__personalized__customer__experience__0_Layer0_0_MEMBER_8_FILL">
<path fill="#D82C26" stroke="none" d="
M 1.25 5.9
L 0.75 5.9 0.8 11.9 1.3 11.9 1.3 9.05
Q 1.5 9.45 1.95 9.75 2.45 10 2.9 10 3.5 10 3.95 9.7 4.45 9.45 4.65 8.95 4.9 8.45 4.9 7.9 4.9 7.35 4.65 6.85 4.45 6.35 3.95 6.1 3.5 5.8 2.9 5.8 2.45 5.8 1.95 6.05 1.5 6.35 1.3 6.8
L 1.25 6.8 1.25 5.9
M 4.4 7.9
Q 4.4 8.4 4.2 8.75 3.95 9.15 3.65 9.35 3.25 9.6 2.85 9.6 2.4 9.6 2.05 9.35 1.7 9.15 1.45 8.75 1.25 8.25 1.25 7.9 1.25 7.55 1.45 7.05 1.7 6.7 2.05 6.45 2.4 6.2 2.85 6.2 3.25 6.2 3.65 6.45 3.95 6.65 4.2 7.05 4.4 7.4 4.4 7.9 Z"/>
</g>

<g id="BDM_160x600_psd_Asset_1_ManagedWiFi_Awareness_DM8_3_for_a_more__personalized__customer__experience__0_Layer0_0_MEMBER_9_FILL">
<path fill="#D82C26" stroke="none" d="
M 7.55 5.8
Q 7.05 5.8 6.55 6.05 6.1 6.35 5.8 6.8 5.55 7.3 5.55 7.9 5.55 8.5 5.85 9 6.05 9.45 6.55 9.75 7.05 10 7.6 10 8.55 10 9.2 9.5
L 9.1 9.1 8.45 9.45
Q 8.1 9.6 7.65 9.6 7.3 9.6 6.8 9.4 6.45 9.15 6.25 8.8 6.05 8.3 6.05 7.95
L 9.4 7.95 9.4 7.75
Q 9.4 7.15 9.2 6.75 9 6.35 8.55 6.05 8.05 5.8 7.55 5.8
M 8.55 6.55
Q 8.95 7.05 8.95 7.6
L 6.05 7.6
Q 6.05 7.45 6.25 6.95 6.4 6.65 6.75 6.4 7 6.2 7.55 6.2 8.2 6.2 8.55 6.55 Z"/>
</g>

<g id="BDM_160x600_psd_Asset_1_ManagedWiFi_Awareness_DM8_3_for_a_more__personalized__customer__experience__0_Layer0_0_MEMBER_10_FILL">
<path fill="#D82C26" stroke="none" d="
M 10.75 5.9
L 10.25 5.9 10.3 9.9 10.8 9.9 10.8 7.9
Q 10.8 7.2 11.1 6.75 11.4 6.25 11.95 6.25
L 12.3 6.3 12.4 5.85 11.95 5.8
Q 11.65 5.8 11.3 6.05 10.95 6.35 10.8 6.8
L 10.75 5.9 Z"/>
</g>

<g id="BDM_160x600_psd_Asset_1_ManagedWiFi_Awareness_DM8_3_for_a_more__personalized__customer__experience__0_Layer0_0_MEMBER_11_FILL">
<path fill="#D82C26" stroke="none" d="
M 14.05 5.8
L 13.45 5.9
Q 13.05 6.1 12.95 6.3 12.75 6.5 12.75 6.9 12.75 7.3 13.05 7.6 13.3 7.85 13.9 8 14.6 8.3 14.7 8.4 14.95 8.55 14.95 8.85 14.95 9.2 14.7 9.4 14.5 9.6 14.1 9.6 13.3 9.6 12.75 9.1
L 12.7 9.55
Q 12.95 9.8 13.3 9.85 13.7 10 14.1 10 14.45 10 14.75 9.85 15.1 9.75 15.25 9.45 15.45 9.25 15.45 8.85 15.45 8.4 15.15 8.15 14.9 7.9 14.25 7.65 13.65 7.5 13.45 7.3 13.2 7.15 13.2 6.85 13.2 6.5 13.45 6.35 13.75 6.2 14.1 6.2
L 14.65 6.3
Q 14.95 6.4 15.1 6.6
L 15.35 6.2 14.75 5.9 14.05 5.8 Z"/>
</g>

<g id="BDM_160x600_psd_Asset_1_ManagedWiFi_Awareness_DM8_3_for_a_more__personalized__customer__experience__0_Layer0_0_MEMBER_12_FILL">
<path fill="#D82C26" stroke="none" d="
M 19.25 6.05
Q 18.65 5.8 18.15 5.8 17.65 5.8 17.05 6.05 16.6 6.35 16.3 6.8 16.05 7.3 16.05 7.9 16.05 8.4 16.3 9 16.6 9.45 17.05 9.75 17.65 10 18.15 10 18.65 10 19.25 9.75 19.7 9.45 20 9 20.25 8.4 20.25 7.9 20.25 7.3 20 6.8 19.7 6.35 19.25 6.05
M 19.75 7.9
Q 19.75 8.4 19.55 8.75 19.4 9.1 19 9.35 18.6 9.6 18.15 9.6 17.7 9.6 17.3 9.35 16.9 9.1 16.75 8.75 16.55 8.4 16.55 7.9 16.55 7.4 16.75 7.05 16.9 6.7 17.3 6.45 17.7 6.2 18.15 6.2 18.6 6.2 19 6.45 19.4 6.7 19.55 7.05 19.75 7.4 19.75 7.9 Z"/>
</g>

<g id="BDM_160x600_psd_Asset_1_ManagedWiFi_Awareness_DM8_3_for_a_more__personalized__customer__experience__0_Layer0_0_MEMBER_13_FILL">
<path fill="#D82C26" stroke="none" d="
M 21.6 5.9
L 21.15 5.9 21.2 9.9 21.7 9.9 21.7 7.85
Q 21.7 7.4 21.85 7 22 6.7 22.35 6.4 22.75 6.2 23 6.2 23.55 6.2 23.85 6.6 24.1 7 24.1 7.6
L 24.1 9.9 24.6 9.9 24.6 7.45
Q 24.6 6.8 24.2 6.3 23.9 5.8 23.1 5.8 22.65 5.8 22.25 6.05 21.9 6.3 21.65 6.8
L 21.6 5.9 Z"/>
</g>

<g id="BDM_160x600_psd_Asset_1_ManagedWiFi_Awareness_DM8_3_for_a_more__personalized__customer__experience__0_Layer0_0_MEMBER_14_FILL">
<path fill="#D82C26" stroke="none" d="
M 27.15 5.8
L 26.3 5.9 25.65 6.3 25.8 6.7
Q 26 6.5 26.4 6.35 26.7 6.2 27.05 6.2 27.55 6.2 27.9 6.45 28.2 6.75 28.2 7.3
L 28.2 7.5 27.7 7.5
Q 25.45 7.5 25.45 8.8 25.45 9.4 25.8 9.7 26.2 10 26.7 10 27.1 10 27.6 9.75 28 9.5 28.2 9.1
L 28.2 9.5 28.25 9.9 28.7 9.9 28.65 7.3
Q 28.65 6.65 28.25 6.15 27.9 5.8 27.15 5.8
M 28.2 8.25
L 28.05 8.9
Q 27.75 9.3 27.55 9.4 27.3 9.6 26.8 9.6 26.4 9.6 26.15 9.4 25.9 9.25 25.9 8.8 25.9 7.85 27.75 7.85
L 28.2 7.85 28.2 8.25 Z"/>
</g>

<g id="BDM_160x600_psd_Asset_1_ManagedWiFi_Awareness_DM8_3_for_a_more__personalized__customer__experience__0_Layer0_0_MEMBER_15_FILL">
<path fill="#D82C26" stroke="none" d="
M 29.95 9.65
L 30.4 10 30.65 9.55
Q 30.45 9.5 30.35 9.3
L 30.3 8.9 30.3 3.45 29.8 3.5 29.8 9
Q 29.8 9.35 29.95 9.65 Z"/>
</g>

<g id="BDM_160x600_psd_Asset_1_ManagedWiFi_Awareness_DM8_3_for_a_more__personalized__customer__experience__0_Layer0_0_MEMBER_16_FILL">
<path fill="#D82C26" stroke="none" d="
M 32 5.9
L 31.5 5.9 31.5 9.9 32 9.9 32 5.9
M 32 4.6
L 32.1 4.35 32 4.05 31.75 3.95
Q 31.6 3.95 31.5 4.1 31.4 4.15 31.4 4.35 31.4 4.5 31.5 4.6
L 31.75 4.7 32 4.6 Z"/>
</g>

<g id="BDM_160x600_psd_Asset_1_ManagedWiFi_Awareness_DM8_3_for_a_more__personalized__customer__experience__0_Layer0_0_MEMBER_17_FILL">
<path fill="#D82C26" stroke="none" d="
M 32.75 9.5
L 32.75 9.9 35.85 9.9 35.95 9.5 33.35 9.5 35.8 6.3 35.8 5.9 32.9 5.9 32.8 6.3 35.2 6.3 32.75 9.5 Z"/>
</g>

<g id="BDM_160x600_psd_Asset_1_ManagedWiFi_Awareness_DM8_3_for_a_more__personalized__customer__experience__0_Layer0_0_MEMBER_18_FILL">
<path fill="#D82C26" stroke="none" d="
M 38.2 5.8
Q 37.7 5.8 37.2 6.05 36.7 6.4 36.5 6.8 36.25 7.3 36.25 7.9 36.25 8.4 36.5 9 36.85 9.5 37.25 9.75 37.75 10 38.3 10 39.2 10 39.85 9.5
L 39.8 9.1 39.15 9.45
Q 38.8 9.6 38.3 9.6 38 9.6 37.5 9.4 37.1 9.15 36.95 8.8 36.75 8.45 36.75 7.95
L 40.1 7.95 40.1 7.75
Q 40.1 7.15 39.9 6.75 39.75 6.45 39.25 6.05 38.75 5.8 38.2 5.8
M 39.25 6.55
Q 39.6 6.95 39.6 7.6
L 36.75 7.6
Q 36.75 7.3 36.95 6.95 37.15 6.6 37.45 6.4 37.7 6.2 38.2 6.2 38.85 6.2 39.25 6.55 Z"/>
</g>

<g id="BDM_160x600_psd_Asset_1_ManagedWiFi_Awareness_DM8_3_for_a_more__personalized__customer__experience__0_Layer0_0_MEMBER_19_FILL">
<path fill="#D82C26" stroke="none" d="
M 42.75 5.8
Q 42.15 5.8 41.7 6.1 41.2 6.35 41 6.85 40.75 7.35 40.75 7.9 40.75 8.45 41 8.95 41.2 9.45 41.7 9.7 42.15 10 42.75 10 43.2 10 43.7 9.75 44.15 9.45 44.35 9
L 44.4 9 44.45 9.9 44.9 9.9 44.85 3.4 44.35 3.5 44.35 6.8
Q 44.15 6.3 43.7 6.05 43.2 5.8 42.75 5.8
M 44.4 7.9
Q 44.4 8.25 44.2 8.75 44 9.15 43.6 9.35 43.25 9.6 42.8 9.6 42.35 9.6 42 9.35 41.6 9.1 41.45 8.75 41.25 8.4 41.25 7.9 41.25 7.4 41.45 7.05 41.6 6.7 42 6.45 42.35 6.2 42.8 6.2 43.25 6.2 43.6 6.45 44 6.7 44.2 7.05 44.4 7.55 44.4 7.9 Z"/>
</g>

<g id="BDM_160x600_psd_Asset_1_ManagedWiFi_Awareness_DM8_3_for_a_more__personalized__customer__experience__0_Layer0_0_MEMBER_20_FILL">
<path fill="#D82C26" stroke="none" d="
M 0.75 16.7
Q 0.45 17.15 0.45 17.8 0.45 18.4 0.75 18.9 1 19.4 1.5 19.6 1.95 19.9 2.55 19.9
L 3.3 19.75
Q 3.7 19.6 3.9 19.4
L 3.85 19 3.25 19.35 2.6 19.45
Q 2.1 19.45 1.75 19.25 1.35 19 1.2 18.65 1 18.25 1 17.8 1 17.3 1.2 16.95 1.35 16.6 1.75 16.35 2.15 16.1 2.55 16.1
L 3.2 16.2 3.7 16.55 3.9 16.15
Q 3.7 15.95 3.3 15.8 3.05 15.7 2.55 15.7 1.9 15.7 1.5 15.95 1.1 16.2 0.75 16.7 Z"/>
</g>

<g id="BDM_160x600_psd_Asset_1_ManagedWiFi_Awareness_DM8_3_for_a_more__personalized__customer__experience__0_Layer0_0_MEMBER_21_FILL">
<path fill="#D82C26" stroke="none" d="
M 7.95 15.8
L 7.45 15.8 7.45 17.8
Q 7.45 18.35 7.3 18.7 7.15 19.1 6.8 19.25 6.55 19.45 6.15 19.45 5.5 19.45 5.3 19.1 5.05 18.6 5.05 18.1
L 5.05 15.8 4.55 15.8 4.55 18.2
Q 4.55 18.9 4.9 19.4 5.3 19.9 6 19.9 6.55 19.9 6.9 19.6 7.3 19.35 7.45 18.9
L 7.55 19.8 8.05 19.75 7.95 18.85 7.95 15.8 Z"/>
</g>

<g id="BDM_160x600_psd_Asset_1_ManagedWiFi_Awareness_DM8_3_for_a_more__personalized__customer__experience__0_Layer0_0_MEMBER_22_FILL">
<path fill="#D82C26" stroke="none" d="
M 8.85 19.45
Q 9.25 19.7 9.45 19.75 9.85 19.9 10.25 19.9 10.6 19.9 10.9 19.75 11.3 19.6 11.4 19.35 11.6 19.15 11.6 18.75 11.6 18.3 11.3 18
L 10.4 17.55
Q 9.95 17.45 9.6 17.2 9.4 17.05 9.4 16.75 9.4 16.4 9.65 16.25 9.9 16.1 10.25 16.1 10.65 16.1 10.8 16.2
L 11.3 16.45 11.5 16.1 10.95 15.8
Q 10.7 15.7 10.25 15.7 9.8 15.7 9.6 15.8
L 9.1 16.15
Q 8.9 16.55 8.9 16.75 8.9 17.25 9.2 17.45 9.55 17.7 10.05 17.9 10.35 18 10.9 18.25 11.15 18.5 11.15 18.75 11.15 19.05 10.9 19.3 10.5 19.5 10.25 19.5 9.45 19.5 8.95 19
L 8.85 19.45 Z"/>
</g>

<g id="BDM_160x600_psd_Asset_1_ManagedWiFi_Awareness_DM8_3_for_a_more__personalized__customer__experience__0_Layer0_0_MEMBER_23_FILL">
<path fill="#D82C26" stroke="none" d="
M 13.25 14.65
L 12.75 14.85 12.75 15.8 12.1 15.8 12 16.2 12.75 16.2 12.75 18.8
Q 12.75 19.35 13 19.6 13.25 19.85 13.65 19.85
L 14.1 19.8 14.5 19.65 14.45 19.25
Q 14.1 19.45 13.8 19.45 13.55 19.45 13.4 19.3 13.25 19.1 13.25 18.75
L 13.25 16.2 14.25 16.2 14.35 15.8 13.25 15.8 13.25 14.65 Z"/>
</g>

<g id="BDM_160x600_psd_Asset_1_ManagedWiFi_Awareness_DM8_3_for_a_more__personalized__customer__experience__0_Layer0_0_MEMBER_24_FILL">
<path fill="#D82C26" stroke="none" d="
M 16.8 15.7
Q 16.15 15.7 15.75 15.95 15.25 16.2 15 16.7 14.7 17.15 14.7 17.8 14.7 18.4 15 18.85 15.25 19.4 15.75 19.6 16.2 19.9 16.8 19.9 17.45 19.9 17.9 19.6 18.45 19.4 18.65 18.85 18.95 18.4 18.95 17.8 18.95 17.15 18.65 16.7 18.45 16.2 17.9 15.95 17.55 15.7 16.8 15.7
M 15.2 17.8
Q 15.2 17.45 15.4 16.95 15.65 16.55 15.95 16.35 16.35 16.1 16.8 16.1 17.3 16.1 17.65 16.35 18.05 16.6 18.25 16.95 18.45 17.45 18.45 17.8 18.45 18.1 18.25 18.6 18 19.05 17.7 19.25 17.35 19.45 16.8 19.45 16.3 19.45 15.95 19.25 15.65 19.05 15.4 18.6 15.2 18.1 15.2 17.8 Z"/>
</g>

<g id="BDM_160x600_psd_Asset_1_ManagedWiFi_Awareness_DM8_3_for_a_more__personalized__customer__experience__0_Layer0_0_MEMBER_25_FILL">
<path fill="#D82C26" stroke="none" d="
M 25.9 17.4
Q 25.9 16.75 25.55 16.15 25.2 15.7 24.45 15.7 23.9 15.7 23.6 15.95 23.25 16.25 23 16.7 22.85 16.25 22.55 15.95 22.3 15.7 21.7 15.7 21.2 15.7 20.9 15.95 20.5 16.2 20.35 16.65
L 20.3 15.8 19.8 15.8 19.85 19.75 20.35 19.75 20.35 17.8
Q 20.35 17.3 20.5 16.9
L 20.95 16.3
Q 21.2 16.1 21.6 16.1 22.15 16.1 22.35 16.45 22.6 16.8 22.6 17.4
L 22.6 19.75 23.1 19.75 23.1 17.7
Q 23.1 16.95 23.45 16.55 23.85 16.1 24.35 16.1 24.9 16.1 25.15 16.5 25.4 16.9 25.4 17.5
L 25.4 19.75 25.9 19.75 25.9 17.4 Z"/>
</g>

<g id="BDM_160x600_psd_Asset_1_ManagedWiFi_Awareness_DM8_3_for_a_more__personalized__customer__experience__0_Layer0_0_MEMBER_26_FILL">
<path fill="#D82C26" stroke="none" d="
M 27.05 16.7
Q 26.8 17.1 26.8 17.75 26.8 18.5 27.05 18.85 27.25 19.35 27.75 19.6 28.2 19.9 28.8 19.9 29.65 19.9 30.4 19.4
L 30.3 18.95 29.65 19.35
Q 29.3 19.5 28.85 19.5 28.4 19.5 28.05 19.25 27.7 19.05 27.45 18.65 27.25 18.25 27.25 17.85
L 30.6 17.85 30.65 17.65
Q 30.65 17.15 30.4 16.65 30.15 16.15 29.75 15.95 29.45 15.7 28.75 15.7 28.15 15.7 27.75 15.95 27.25 16.2 27.05 16.7
M 27.25 17.5
L 27.45 16.85
Q 27.6 16.55 27.95 16.3 28.35 16.05 28.75 16.05 29.35 16.05 29.75 16.45 30.15 16.85 30.15 17.5
L 27.25 17.5 Z"/>
</g>

<g id="BDM_160x600_psd_Asset_1_ManagedWiFi_Awareness_DM8_3_for_a_more__personalized__customer__experience__0_Layer0_0_MEMBER_27_FILL">
<path fill="#D82C26" stroke="none" d="
M 32.5 15.95
Q 32.15 16.2 32 16.65
L 31.95 15.8 31.5 15.8 31.55 19.75 32.05 19.75 32.05 17.8
Q 32.05 17.15 32.35 16.6 32.65 16.15 33.15 16.15
L 33.5 16.2 33.6 15.75 33.2 15.7
Q 32.75 15.7 32.5 15.95 Z"/>
</g>

<g id="BDM_160x600_psd_Asset_1_ManagedWiFi_Awareness_DM8_3_for_a_more__personalized__customer__experience__0_Layer0_0_MEMBER_28_FILL">
<path fill="#D82C26" stroke="none" d="
M 4.1 26.55
Q 3.85 26.1 3.45 25.8 3.05 25.55 2.45 25.55 1.9 25.55 1.45 25.85 1 26.1 0.75 26.55 0.45 27.1 0.45 27.65 0.45 28.3 0.75 28.75 0.95 29.2 1.45 29.5 1.85 29.75 2.5 29.75 3.45 29.75 4.1 29.25
L 4 28.85
Q 3.85 29 3.35 29.2 3 29.35 2.55 29.35 2 29.35 1.75 29.15 1.4 28.95 1.15 28.55 0.95 28.05 0.95 27.75
L 4.3 27.75 4.35 27.55
Q 4.35 27.05 4.1 26.55
M 3.45 26.35
Q 3.85 26.75 3.85 27.4
L 0.95 27.4 1.15 26.75
Q 1.25 26.5 1.65 26.2 2.05 25.95 2.45 25.95 3.05 25.95 3.45 26.35 Z"/>
</g>

<g id="BDM_160x600_psd_Asset_1_ManagedWiFi_Awareness_DM8_3_for_a_more__personalized__customer__experience__0_Layer0_0_MEMBER_29_FILL">
<path fill="#D82C26" stroke="none" d="
M 5.2 29.65
L 6.5 27.9 7.8 29.65 8.4 29.65 6.8 27.55 8.2 25.7 7.65 25.7 6.5 27.25 5.4 25.7 4.8 25.7 6.2 27.55 4.6 29.65 5.2 29.65 Z"/>
</g>

<g id="BDM_160x600_psd_Asset_1_ManagedWiFi_Awareness_DM8_3_for_a_more__personalized__customer__experience__0_Layer0_0_MEMBER_30_FILL">
<path fill="#D82C26" stroke="none" d="
M 13.2 27.65
Q 13.2 27.1 12.95 26.6 12.6 26.1 12.25 25.85 11.75 25.55 11.2 25.55 10.7 25.55 10.25 25.85 9.85 26.05 9.6 26.55
L 9.55 26.55 9.5 25.7 9.05 25.7 9.05 31.7 9.55 31.7 9.55 28.8 9.6 28.8
Q 9.85 29.3 10.25 29.5 10.65 29.75 11.2 29.75 11.65 29.75 12.25 29.5 12.6 29.25 12.95 28.75 13.2 28.15 13.2 27.65
M 12.5 26.85
Q 12.65 27.25 12.65 27.65 12.65 28.15 12.5 28.5 12.2 28.95 11.95 29.1 11.55 29.35 11.1 29.35 10.7 29.35 10.3 29.1 10 28.9 9.75 28.5 9.55 28.15 9.55 27.65 9.55 27.2 9.75 26.85 10 26.4 10.3 26.2 10.65 26 11.1 26 11.6 26 11.95 26.2 12.3 26.45 12.5 26.85 Z"/>
</g>

<g id="BDM_160x600_psd_Asset_1_ManagedWiFi_Awareness_DM8_3_for_a_more__personalized__customer__experience__0_Layer0_0_MEMBER_31_FILL">
<path fill="#D82C26" stroke="none" d="
M 17.7 27.75
L 17.7 27.55
Q 17.7 26.95 17.5 26.55 17.3 26.15 16.85 25.8 16.35 25.55 15.8 25.55 15.25 25.55 14.8 25.85 14.45 26.05 14.1 26.55 13.85 27.15 13.85 27.65 13.85 28.25 14.1 28.75 14.4 29.2 14.85 29.5 15.25 29.75 15.9 29.75 16.8 29.75 17.45 29.25
L 17.4 28.85 16.75 29.2
Q 16.4 29.35 15.9 29.35 15.45 29.35 15.1 29.15 14.8 28.95 14.55 28.55 14.35 28.2 14.35 27.75
L 17.7 27.75
M 16.85 26.35
Q 17.15 26.65 17.25 27.4
L 14.35 27.4
Q 14.35 27 14.55 26.75 14.7 26.4 15.05 26.2 15.4 25.95 15.8 25.95 16.45 25.95 16.85 26.35 Z"/>
</g>

<g id="BDM_160x600_psd_Asset_1_ManagedWiFi_Awareness_DM8_3_for_a_more__personalized__customer__experience__0_Layer0_0_MEMBER_32_FILL">
<path fill="#D82C26" stroke="none" d="
M 19.55 25.85
Q 19.25 26.05 19.1 26.55
L 19.05 26.55 19.05 25.7 18.55 25.7 18.6 29.65 19.1 29.65 19.1 27.7
Q 19.1 26.95 19.4 26.5 19.7 26 20.2 26
L 20.55 26.05 20.65 25.65 20.25 25.55
Q 19.95 25.55 19.55 25.85 Z"/>
</g>

<g id="BDM_160x600_psd_Asset_1_ManagedWiFi_Awareness_DM8_3_for_a_more__personalized__customer__experience__0_Layer0_0_MEMBER_33_FILL">
<path fill="#D82C26" stroke="none" d="
M 21.25 25.7
L 21.25 29.65 21.75 29.65 21.75 25.7 21.25 25.7
M 21.5 24.45
Q 21.7 24.45 21.75 24.35
L 21.85 24.1 21.75 23.85
Q 21.7 23.75 21.5 23.75
L 21.25 23.85 21.15 24.1 21.25 24.35
Q 21.3 24.45 21.5 24.45 Z"/>
</g>

<g id="BDM_160x600_psd_Asset_1_ManagedWiFi_Awareness_DM8_3_for_a_more__personalized__customer__experience__0_Layer0_0_MEMBER_34_FILL">
<path fill="#D82C26" stroke="none" d="
M 26.3 26.55
Q 26.05 26.1 25.65 25.8 25.15 25.55 24.65 25.55 24.1 25.55 23.65 25.85 23.2 26.1 22.95 26.55 22.65 27.1 22.65 27.65 22.65 28.3 22.95 28.75 23.15 29.2 23.65 29.5 24.05 29.75 24.7 29.75 25.65 29.75 26.3 29.25
L 26.2 28.85
Q 26.05 29 25.55 29.2 25.2 29.35 24.75 29.35 24.2 29.35 23.95 29.15 23.6 28.95 23.35 28.55 23.15 28.05 23.15 27.75
L 26.5 27.75 26.5 27.55
Q 26.5 26.95 26.3 26.55
M 25.65 26.35
Q 26.05 26.75 26.05 27.4
L 23.15 27.4
Q 23.15 27.15 23.35 26.75 23.45 26.5 23.85 26.2 24.25 25.95 24.65 25.95 25.25 25.95 25.65 26.35 Z"/>
</g>

<g id="BDM_160x600_psd_Asset_1_ManagedWiFi_Awareness_DM8_3_for_a_more__personalized__customer__experience__0_Layer0_0_MEMBER_35_FILL">
<path fill="#D82C26" stroke="none" d="
M 30.85 27.25
Q 30.85 26.55 30.45 26.05 30.1 25.55 29.35 25.55 28.9 25.55 28.5 25.85 28.15 26 27.9 26.55
L 27.85 25.7 27.4 25.7 27.45 29.65 27.95 29.65 27.95 27.65
Q 27.95 27.15 28.1 26.75 28.25 26.4 28.6 26.2 28.85 26 29.25 26 29.85 26 30.1 26.4 30.35 26.8 30.35 27.35
L 30.35 29.65 30.85 29.65 30.85 27.25 Z"/>
</g>

<g id="BDM_160x600_psd_Asset_1_ManagedWiFi_Awareness_DM8_3_for_a_more__personalized__customer__experience__0_Layer0_0_MEMBER_36_FILL">
<path fill="#D82C26" stroke="none" d="
M 34.55 25.7
L 33.8 25.55
Q 33.25 25.55 32.7 25.85 32.25 26.1 31.95 26.6 31.7 27.1 31.7 27.65 31.7 28.25 31.95 28.75 32.25 29.3 32.7 29.5 33.1 29.75 33.75 29.75 34.3 29.75 34.55 29.65
L 35.15 29.3 35.05 28.9
Q 34.85 29.1 34.5 29.2 34.2 29.35 33.8 29.35 33.35 29.35 32.95 29.1 32.6 28.85 32.4 28.5 32.2 28 32.2 27.65 32.2 27.35 32.4 26.85 32.6 26.45 32.95 26.2 33.3 26 33.8 26 34.2 26 34.4 26.1
L 34.95 26.4 35.15 26.05
Q 34.95 25.85 34.55 25.7 Z"/>
</g>

<g id="BDM_160x600_psd_Asset_1_ManagedWiFi_Awareness_DM8_3_for_a_more__personalized__customer__experience__0_Layer0_0_MEMBER_37_FILL">
<path fill="#D82C26" stroke="none" d="
M 39.15 26.55
Q 38.9 26.1 38.5 25.8 38 25.55 37.5 25.55 36.95 25.55 36.5 25.85 36.1 26.05 35.75 26.55 35.5 27.15 35.5 27.65 35.5 28.3 35.8 28.75 36 29.2 36.5 29.5 36.9 29.75 37.55 29.75 38.5 29.75 39.15 29.25
L 39.05 28.85 38.4 29.2
Q 38.05 29.35 37.6 29.35 37.1 29.35 36.75 29.15 36.4 28.9 36.2 28.55 36 28.2 36 27.75
L 39.35 27.75 39.35 27.55
Q 39.35 26.95 39.15 26.55
M 38.5 26.35
Q 38.9 26.75 38.9 27.4
L 36 27.4
Q 36 27.15 36.2 26.75 36.3 26.5 36.7 26.2 37.05 25.95 37.5 25.95 38.1 25.95 38.5 26.35 Z"/>
</g>

<g id="BDM_160x600_psd_Asset_1_ManagedWiFi_Awareness_DM8_3_for_a_more__personalized__customer__experience__0_Layer0_0_MEMBER_38_FILL">
<path fill="#D82C26" stroke="none" d="
M 40.85 29.3
L 40.75 29.05
Q 40.55 28.95 40.45 28.95
L 40.2 29.05 40.1 29.3 40.2 29.6
Q 40.3 29.7 40.45 29.7 40.65 29.7 40.75 29.6
L 40.85 29.3 Z"/>
</g>
</defs>

<g transform="matrix( 1, 0, 0, 1, -109,52) ">
<g transform="matrix( 1, 0, 0, 1, 103,0) ">
<g transform="matrix( 1, 0, 0, 1, 25,3) ">
<g transform="matrix( 2.815704345703125, 0, 0, 2.832611083984375, 0.15,18.6) ">
<use xlink:href="#BDM_160x600_psd_Asset_1_ManagedWiFi_Awareness_DM8_3_for_a_more__personalized__customer__experience__0_Layer0_0_MEMBER_0_FILL"/>
</g>

<g transform="matrix( 2.815704345703125, 0, 0, 2.832611083984375, 0.15,18.6) ">
<use xlink:href="#BDM_160x600_psd_Asset_1_ManagedWiFi_Awareness_DM8_3_for_a_more__personalized__customer__experience__0_Layer0_0_MEMBER_1_FILL"/>
</g>

<g transform="matrix( 2.815704345703125, 0, 0, 2.832611083984375, 0.15,18.6) ">
<use xlink:href="#BDM_160x600_psd_Asset_1_ManagedWiFi_Awareness_DM8_3_for_a_more__personalized__customer__experience__0_Layer0_0_MEMBER_2_FILL"/>
</g>

<g transform="matrix( 2.815704345703125, 0, 0, 2.832611083984375, 0.15,18.6) ">
<use xlink:href="#BDM_160x600_psd_Asset_1_ManagedWiFi_Awareness_DM8_3_for_a_more__personalized__customer__experience__0_Layer0_0_MEMBER_3_FILL"/>
</g>

<g transform="matrix( 2.815704345703125, 0, 0, 2.832611083984375, 0.15,18.6) ">
<use xlink:href="#BDM_160x600_psd_Asset_1_ManagedWiFi_Awareness_DM8_3_for_a_more__personalized__customer__experience__0_Layer0_0_MEMBER_4_FILL"/>
</g>

<g transform="matrix( 2.815704345703125, 0, 0, 2.832611083984375, 0.15,18.6) ">
<use xlink:href="#BDM_160x600_psd_Asset_1_ManagedWiFi_Awareness_DM8_3_for_a_more__personalized__customer__experience__0_Layer0_0_MEMBER_5_FILL"/>
</g>

<g transform="matrix( 2.815704345703125, 0, 0, 2.832611083984375, 0.15,18.6) ">
<use xlink:href="#BDM_160x600_psd_Asset_1_ManagedWiFi_Awareness_DM8_3_for_a_more__personalized__customer__experience__0_Layer0_0_MEMBER_6_FILL"/>
</g>

<g transform="matrix( 2.815704345703125, 0, 0, 2.832611083984375, 0.15,18.6) ">
<use xlink:href="#BDM_160x600_psd_Asset_1_ManagedWiFi_Awareness_DM8_3_for_a_more__personalized__customer__experience__0_Layer0_0_MEMBER_7_FILL"/>
</g>

<g transform="matrix( 2.815704345703125, 0, 0, 2.832611083984375, 0.15,18.6) ">
<use xlink:href="#BDM_160x600_psd_Asset_1_ManagedWiFi_Awareness_DM8_3_for_a_more__personalized__customer__experience__0_Layer0_0_MEMBER_8_FILL"/>
</g>

<g transform="matrix( 2.815704345703125, 0, 0, 2.832611083984375, 0.15,18.6) ">
<use xlink:href="#BDM_160x600_psd_Asset_1_ManagedWiFi_Awareness_DM8_3_for_a_more__personalized__customer__experience__0_Layer0_0_MEMBER_9_FILL"/>
</g>

<g transform="matrix( 2.815704345703125, 0, 0, 2.832611083984375, 0.15,18.6) ">
<use xlink:href="#BDM_160x600_psd_Asset_1_ManagedWiFi_Awareness_DM8_3_for_a_more__personalized__customer__experience__0_Layer0_0_MEMBER_10_FILL"/>
</g>

<g transform="matrix( 2.815704345703125, 0, 0, 2.832611083984375, 0.15,18.6) ">
<use xlink:href="#BDM_160x600_psd_Asset_1_ManagedWiFi_Awareness_DM8_3_for_a_more__personalized__customer__experience__0_Layer0_0_MEMBER_11_FILL"/>
</g>

<g transform="matrix( 2.815704345703125, 0, 0, 2.832611083984375, 0.15,18.6) ">
<use xlink:href="#BDM_160x600_psd_Asset_1_ManagedWiFi_Awareness_DM8_3_for_a_more__personalized__customer__experience__0_Layer0_0_MEMBER_12_FILL"/>
</g>

<g transform="matrix( 2.815704345703125, 0, 0, 2.832611083984375, 0.15,18.6) ">
<use xlink:href="#BDM_160x600_psd_Asset_1_ManagedWiFi_Awareness_DM8_3_for_a_more__personalized__customer__experience__0_Layer0_0_MEMBER_13_FILL"/>
</g>

<g transform="matrix( 2.815704345703125, 0, 0, 2.832611083984375, 0.15,18.6) ">
<use xlink:href="#BDM_160x600_psd_Asset_1_ManagedWiFi_Awareness_DM8_3_for_a_more__personalized__customer__experience__0_Layer0_0_MEMBER_14_FILL"/>
</g>

<g transform="matrix( 2.815704345703125, 0, 0, 2.832611083984375, 0.15,18.6) ">
<use xlink:href="#BDM_160x600_psd_Asset_1_ManagedWiFi_Awareness_DM8_3_for_a_more__personalized__customer__experience__0_Layer0_0_MEMBER_15_FILL"/>
</g>

<g transform="matrix( 2.815704345703125, 0, 0, 2.832611083984375, 0.15,18.6) ">
<use xlink:href="#BDM_160x600_psd_Asset_1_ManagedWiFi_Awareness_DM8_3_for_a_more__personalized__customer__experience__0_Layer0_0_MEMBER_16_FILL"/>
</g>

<g transform="matrix( 2.815704345703125, 0, 0, 2.832611083984375, 0.15,18.6) ">
<use xlink:href="#BDM_160x600_psd_Asset_1_ManagedWiFi_Awareness_DM8_3_for_a_more__personalized__customer__experience__0_Layer0_0_MEMBER_17_FILL"/>
</g>

<g transform="matrix( 2.815704345703125, 0, 0, 2.832611083984375, 0.15,18.6) ">
<use xlink:href="#BDM_160x600_psd_Asset_1_ManagedWiFi_Awareness_DM8_3_for_a_more__personalized__customer__experience__0_Layer0_0_MEMBER_18_FILL"/>
</g>

<g transform="matrix( 2.815704345703125, 0, 0, 2.832611083984375, 0.15,18.6) ">
<use xlink:href="#BDM_160x600_psd_Asset_1_ManagedWiFi_Awareness_DM8_3_for_a_more__personalized__customer__experience__0_Layer0_0_MEMBER_19_FILL"/>
</g>

<g transform="matrix( 2.815704345703125, 0, 0, 2.832611083984375, 0.15,18.6) ">
<use xlink:href="#BDM_160x600_psd_Asset_1_ManagedWiFi_Awareness_DM8_3_for_a_more__personalized__customer__experience__0_Layer0_0_MEMBER_20_FILL"/>
</g>

<g transform="matrix( 2.815704345703125, 0, 0, 2.832611083984375, 0.15,18.6) ">
<use xlink:href="#BDM_160x600_psd_Asset_1_ManagedWiFi_Awareness_DM8_3_for_a_more__personalized__customer__experience__0_Layer0_0_MEMBER_21_FILL"/>
</g>

<g transform="matrix( 2.815704345703125, 0, 0, 2.832611083984375, 0.15,18.6) ">
<use xlink:href="#BDM_160x600_psd_Asset_1_ManagedWiFi_Awareness_DM8_3_for_a_more__personalized__customer__experience__0_Layer0_0_MEMBER_22_FILL"/>
</g>

<g transform="matrix( 2.815704345703125, 0, 0, 2.832611083984375, 0.15,18.6) ">
<use xlink:href="#BDM_160x600_psd_Asset_1_ManagedWiFi_Awareness_DM8_3_for_a_more__personalized__customer__experience__0_Layer0_0_MEMBER_23_FILL"/>
</g>

<g transform="matrix( 2.815704345703125, 0, 0, 2.832611083984375, 0.15,18.6) ">
<use xlink:href="#BDM_160x600_psd_Asset_1_ManagedWiFi_Awareness_DM8_3_for_a_more__personalized__customer__experience__0_Layer0_0_MEMBER_24_FILL"/>
</g>

<g transform="matrix( 2.815704345703125, 0, 0, 2.832611083984375, 0.15,18.6) ">
<use xlink:href="#BDM_160x600_psd_Asset_1_ManagedWiFi_Awareness_DM8_3_for_a_more__personalized__customer__experience__0_Layer0_0_MEMBER_25_FILL"/>
</g>

<g transform="matrix( 2.815704345703125, 0, 0, 2.832611083984375, 0.15,18.6) ">
<use xlink:href="#BDM_160x600_psd_Asset_1_ManagedWiFi_Awareness_DM8_3_for_a_more__personalized__customer__experience__0_Layer0_0_MEMBER_26_FILL"/>
</g>

<g transform="matrix( 2.815704345703125, 0, 0, 2.832611083984375, 0.15,18.6) ">
<use xlink:href="#BDM_160x600_psd_Asset_1_ManagedWiFi_Awareness_DM8_3_for_a_more__personalized__customer__experience__0_Layer0_0_MEMBER_27_FILL"/>
</g>

<g transform="matrix( 2.815704345703125, 0, 0, 2.832611083984375, 0.15,18.6) ">
<use xlink:href="#BDM_160x600_psd_Asset_1_ManagedWiFi_Awareness_DM8_3_for_a_more__personalized__customer__experience__0_Layer0_0_MEMBER_28_FILL"/>
</g>

<g transform="matrix( 2.815704345703125, 0, 0, 2.832611083984375, 0.15,18.6) ">
<use xlink:href="#BDM_160x600_psd_Asset_1_ManagedWiFi_Awareness_DM8_3_for_a_more__personalized__customer__experience__0_Layer0_0_MEMBER_29_FILL"/>
</g>

<g transform="matrix( 2.815704345703125, 0, 0, 2.832611083984375, 0.15,18.6) ">
<use xlink:href="#BDM_160x600_psd_Asset_1_ManagedWiFi_Awareness_DM8_3_for_a_more__personalized__customer__experience__0_Layer0_0_MEMBER_30_FILL"/>
</g>

<g transform="matrix( 2.815704345703125, 0, 0, 2.832611083984375, 0.15,18.6) ">
<use xlink:href="#BDM_160x600_psd_Asset_1_ManagedWiFi_Awareness_DM8_3_for_a_more__personalized__customer__experience__0_Layer0_0_MEMBER_31_FILL"/>
</g>

<g transform="matrix( 2.815704345703125, 0, 0, 2.832611083984375, 0.15,18.6) ">
<use xlink:href="#BDM_160x600_psd_Asset_1_ManagedWiFi_Awareness_DM8_3_for_a_more__personalized__customer__experience__0_Layer0_0_MEMBER_32_FILL"/>
</g>

<g transform="matrix( 2.815704345703125, 0, 0, 2.832611083984375, 0.15,18.6) ">
<use xlink:href="#BDM_160x600_psd_Asset_1_ManagedWiFi_Awareness_DM8_3_for_a_more__personalized__customer__experience__0_Layer0_0_MEMBER_33_FILL"/>
</g>

<g transform="matrix( 2.815704345703125, 0, 0, 2.832611083984375, 0.15,18.6) ">
<use xlink:href="#BDM_160x600_psd_Asset_1_ManagedWiFi_Awareness_DM8_3_for_a_more__personalized__customer__experience__0_Layer0_0_MEMBER_34_FILL"/>
</g>

<g transform="matrix( 2.815704345703125, 0, 0, 2.832611083984375, 0.15,18.6) ">
<use xlink:href="#BDM_160x600_psd_Asset_1_ManagedWiFi_Awareness_DM8_3_for_a_more__personalized__customer__experience__0_Layer0_0_MEMBER_35_FILL"/>
</g>

<g transform="matrix( 2.815704345703125, 0, 0, 2.832611083984375, 0.15,18.6) ">
<use xlink:href="#BDM_160x600_psd_Asset_1_ManagedWiFi_Awareness_DM8_3_for_a_more__personalized__customer__experience__0_Layer0_0_MEMBER_36_FILL"/>
</g>

<g transform="matrix( 2.815704345703125, 0, 0, 2.832611083984375, 0.15,18.6) ">
<use xlink:href="#BDM_160x600_psd_Asset_1_ManagedWiFi_Awareness_DM8_3_for_a_more__personalized__customer__experience__0_Layer0_0_MEMBER_37_FILL"/>
</g>

<g transform="matrix( 2.815704345703125, 0, 0, 2.832611083984375, 0.15,18.6) ">
<use xlink:href="#BDM_160x600_psd_Asset_1_ManagedWiFi_Awareness_DM8_3_for_a_more__personalized__customer__experience__0_Layer0_0_MEMBER_38_FILL"/>
</g>
</g>
</g>
</g>
</svg>
