
<svg xmlns="http://www.w3.org/2000/svg" version="1.1" xmlns:xlink="http://www.w3.org/1999/xlink" preserveAspectRatio="none" x="0px" y="0px" width="300px" height="600px" viewBox="0 0 300 600">
<defs>
<g id="Business_DM_Banners___300x600_psd_Asset_2_Evaluation___Professional_Services_fr1_When_you_re_working_with_important_clients_0_Layer0_0_MEMBER_0_FILL">
<path fill="#DA291C" stroke="none" d="
M 0.9 -7.5
L 0.2 -7.5 2.45 0 3.15 0 5.15 -6.7 7.15 0 7.85 0 10.1 -7.5 9.4 -7.5 7.5 -0.85 5.5 -7.5 4.75 -7.5 2.85 -0.85 2.8 -0.85 0.9 -7.5 Z"/>
</g>

<g id="Business_DM_Banners___300x600_psd_Asset_2_Evaluation___Professional_Services_fr1_When_you_re_working_with_important_clients_0_Layer0_0_MEMBER_1_FILL">
<path fill="#DA291C" stroke="none" d="
M 12 -8.1
L 11.4 -8 11.4 0 12 0 12 -2.4
Q 12 -2.9 12.2 -3.6 12.45 -4.05 12.8 -4.35 13.2 -4.6 13.65 -4.6 14.35 -4.6 14.7 -4.1 15 -3.55 15 -2.85
L 15 0 15.6 0 15.6 -3.05
Q 15.6 -3.95 15.2 -4.5 14.75 -5.1 13.8 -5.1 13.25 -5.1 12.7 -4.8 12.15 -4.35 12 -3.9
L 12 -8.1 Z"/>
</g>

<g id="Business_DM_Banners___300x600_psd_Asset_2_Evaluation___Professional_Services_fr1_When_you_re_working_with_important_clients_0_Layer0_0_MEMBER_2_FILL">
<path fill="#DA291C" stroke="none" d="
M 19.6 -5.1
Q 18.95 -5.1 18.35 -4.8 17.75 -4.4 17.5 -3.85 17.15 -3.3 17.15 -2.5 17.15 -1.7 17.5 -1.15 17.85 -0.5 18.4 -0.2 18.95 0.15 19.7 0.15 20.9 0.15 21.7 -0.5
L 21.6 -1
Q 21.2 -0.7 20.8 -0.55 20.35 -0.35 19.75 -0.35 19.2 -0.35 18.75 -0.65 18.3 -0.9 18.05 -1.35 17.85 -1.75 17.75 -2.4
L 21.95 -2.4 22 -2.65
Q 22 -3.3 21.7 -3.9 21.5 -4.35 20.9 -4.8 20.4 -5.1 19.6 -5.1
M 18.65 -4.35
Q 19.05 -4.65 19.6 -4.65 20.4 -4.65 20.9 -4.15 21.4 -3.55 21.4 -2.85
L 17.8 -2.85
Q 17.8 -3.3 18 -3.65 18.2 -4.05 18.65 -4.35 Z"/>
</g>

<g id="Business_DM_Banners___300x600_psd_Asset_2_Evaluation___Professional_Services_fr1_When_you_re_working_with_important_clients_0_Layer0_0_MEMBER_3_FILL">
<path fill="#DA291C" stroke="none" d="
M 24.1 -4.95
L 23.5 -4.95 23.55 0 24.2 0 24.2 -2.55
Q 24.2 -3.2 24.4 -3.65 24.65 -4.15 25 -4.35 25.4 -4.6 25.85 -4.6 26.5 -4.6 26.85 -4.1 27.15 -3.55 27.15 -2.85
L 27.15 0 27.8 0 27.8 -3.05
Q 27.8 -3.9 27.35 -4.5 26.9 -5.1 25.95 -5.1 25.35 -5.1 24.85 -4.75 24.4 -4.45 24.15 -3.9
L 24.1 -4.95 Z"/>
</g>

<g id="Business_DM_Banners___300x600_psd_Asset_2_Evaluation___Professional_Services_fr1_When_you_re_working_with_important_clients_0_Layer0_0_MEMBER_4_FILL">
<path fill="#DA291C" stroke="none" d="
M 32.25 -4.95
L 31.55 -4.95 33.65 0.05 33.25 1.1
Q 33.1 1.6 32.75 1.75 32.4 2 31.85 2
L 32.05 2.55
Q 32.65 2.55 33.15 2.2 33.55 1.95 33.85 1.25
L 36.15 -4.95 35.45 -4.95 33.95 -0.65 32.25 -4.95 Z"/>
</g>

<g id="Business_DM_Banners___300x600_psd_Asset_2_Evaluation___Professional_Services_fr1_When_you_re_working_with_important_clients_0_Layer0_0_MEMBER_5_FILL">
<path fill="#DA291C" stroke="none" d="
M 39.5 -5.1
Q 38.75 -5.1 38.15 -4.8 37.55 -4.45 37.2 -3.85 36.9 -3.25 36.9 -2.5 36.9 -1.75 37.2 -1.15 37.65 -0.45 38.15 -0.2 38.7 0.15 39.5 0.15 40.3 0.15 40.85 -0.2 41.5 -0.5 41.8 -1.15 42.15 -1.7 42.15 -2.5 42.15 -3.3 41.8 -3.85 41.55 -4.35 40.85 -4.8 40.25 -5.1 39.5 -5.1
M 38.45 -4.3
Q 38.9 -4.6 39.5 -4.6 40.1 -4.6 40.6 -4.3 40.95 -4.05 41.3 -3.55 41.55 -3.05 41.55 -2.5 41.55 -1.95 41.3 -1.45 41.1 -1 40.6 -0.65 40.1 -0.4 39.5 -0.4 38.95 -0.4 38.45 -0.65 37.95 -1 37.75 -1.45 37.5 -1.95 37.5 -2.5 37.5 -3.05 37.75 -3.55 37.95 -3.95 38.45 -4.3 Z"/>
</g>

<g id="Business_DM_Banners___300x600_psd_Asset_2_Evaluation___Professional_Services_fr1_When_you_re_working_with_important_clients_0_Layer0_0_MEMBER_6_FILL">
<path fill="#DA291C" stroke="none" d="
M 43.7 -1.95
Q 43.7 -1.1 44.1 -0.45 44.55 0.15 45.5 0.15 46.1 0.15 46.6 -0.2 47.05 -0.5 47.3 -1.05
L 47.4 0 48 0 47.9 -1.15 47.9 -4.95 47.3 -4.95 47.3 -2.5
Q 47.3 -1.75 47.1 -1.35 46.9 -0.9 46.5 -0.6 46.1 -0.35 45.65 -0.35 44.95 -0.35 44.6 -0.85 44.3 -1.35 44.3 -2.1
L 44.3 -4.95 43.7 -4.95 43.7 -1.95 Z"/>
</g>

<g id="Business_DM_Banners___300x600_psd_Asset_2_Evaluation___Professional_Services_fr1_When_you_re_working_with_important_clients_0_Layer0_0_MEMBER_7_FILL">
<path fill="#DA291C" stroke="none" d="
M 50.5 -7.35
Q 50.35 -7.5 50.15 -7.5 49.95 -7.5 49.8 -7.35
L 49.7 -7 49.8 -6.7
Q 49.95 -6.55 50.15 -6.55
L 49.9 -5.85 49.4 -5.25 49.65 -5.1
Q 50.6 -6 50.6 -6.9 50.6 -7.25 50.5 -7.35 Z"/>
</g>

<g id="Business_DM_Banners___300x600_psd_Asset_2_Evaluation___Professional_Services_fr1_When_you_re_working_with_important_clients_0_Layer0_0_MEMBER_8_FILL">
<path fill="#DA291C" stroke="none" d="
M 54.5 -5
Q 54.35 -5.1 54 -5.1 53.55 -5.1 53.1 -4.8 52.7 -4.4 52.55 -3.9
L 52.5 -3.9 52.45 -4.95 51.85 -4.95 51.9 0 52.55 0 52.55 -2.45
Q 52.55 -3.4 52.9 -3.95 53.3 -4.55 53.95 -4.55
L 54.4 -4.5 54.5 -5 Z"/>
</g>

<g id="Business_DM_Banners___300x600_psd_Asset_2_Evaluation___Professional_Services_fr1_When_you_re_working_with_important_clients_0_Layer0_0_MEMBER_9_FILL">
<path fill="#DA291C" stroke="none" d="
M 55.1 -2.5
Q 55.1 -1.75 55.4 -1.15 55.85 -0.45 56.35 -0.2 56.85 0.15 57.65 0.15 58.8 0.15 59.6 -0.5
L 59.5 -1
Q 59.2 -0.7 58.7 -0.55 58.3 -0.35 57.7 -0.35 57.1 -0.35 56.65 -0.65 56.3 -0.8 55.95 -1.35 55.7 -1.95 55.7 -2.4
L 59.9 -2.4 59.9 -2.65
Q 59.9 -3.25 59.65 -3.9 59.35 -4.45 58.85 -4.8 58.25 -5.1 57.55 -5.1 56.9 -5.1 56.3 -4.8 55.75 -4.4 55.4 -3.85 55.1 -3.25 55.1 -2.5
M 56.6 -4.35
Q 57 -4.65 57.55 -4.65 58.3 -4.65 58.8 -4.15 59.3 -3.65 59.3 -2.85
L 55.7 -2.85
Q 55.7 -3.25 55.95 -3.65 56.15 -4.05 56.6 -4.35 Z"/>
</g>

<g id="Business_DM_Banners___300x600_psd_Asset_2_Evaluation___Professional_Services_fr1_When_you_re_working_with_important_clients_0_Layer0_0_MEMBER_10_FILL">
<path fill="#DA291C" stroke="none" d="
M 0.95 9.15
L 0.3 9.15 1.8 14.1 2.5 14.1 3.9 9.9 5.35 14.1 6.05 14.1 7.55 9.15 6.9 9.15 5.7 13.4 5.65 13.4 4.25 9.15 3.6 9.15 2.2 13.4 2.15 13.4 0.95 9.15 Z"/>
</g>

<g id="Business_DM_Banners___300x600_psd_Asset_2_Evaluation___Professional_Services_fr1_When_you_re_working_with_important_clients_0_Layer0_0_MEMBER_11_FILL">
<path fill="#DA291C" stroke="none" d="
M 12.4 9.35
Q 11.85 9 11.05 9 10.25 9 9.7 9.35 9.05 9.7 8.75 10.25 8.4 10.8 8.4 11.65 8.4 12.45 8.75 13 9 13.5 9.7 13.95 10.3 14.25 11.05 14.25 11.8 14.25 12.4 13.95 13 13.6 13.35 13 13.7 12.3 13.7 11.65 13.7 10.95 13.35 10.25 12.95 9.65 12.4 9.35
M 12.8 10.55
Q 13.05 11.15 13.05 11.65 13.05 12.1 12.8 12.7 12.6 13.15 12.1 13.45 11.65 13.75 11.05 13.75 10.5 13.75 9.95 13.45 9.6 13.2 9.25 12.7 9 12.1 9 11.65 9 11.15 9.25 10.55 9.6 10.05 9.95 9.8 10.55 9.55 11.05 9.55 11.6 9.55 12.1 9.8 12.6 10.15 12.8 10.55 Z"/>
</g>

<g id="Business_DM_Banners___300x600_psd_Asset_2_Evaluation___Professional_Services_fr1_When_you_re_working_with_important_clients_0_Layer0_0_MEMBER_12_FILL">
<path fill="#DA291C" stroke="none" d="
M 15.8 9.15
L 15.2 9.15 15.25 14.1 15.85 14.1 15.85 11.65
Q 15.85 10.85 16.25 10.2 16.6 9.55 17.25 9.55
L 17.7 9.65 17.85 9.1 17.3 9
Q 16.85 9 16.45 9.35 16.1 9.65 15.85 10.25
L 15.8 9.15 Z"/>
</g>

<g id="Business_DM_Banners___300x600_psd_Asset_2_Evaluation___Professional_Services_fr1_When_you_re_working_with_important_clients_0_Layer0_0_MEMBER_13_FILL">
<path fill="#DA291C" stroke="none" d="
M 22.2 14.1
L 23 14.1 20.35 11.45 22.8 9.15 21.95 9.15 19.65 11.4 19.65 6.05 19 6.15 19 14.1 19.65 14.1 19.65 11.55 22.2 14.1 Z"/>
</g>

<g id="Business_DM_Banners___300x600_psd_Asset_2_Evaluation___Professional_Services_fr1_When_you_re_working_with_important_clients_0_Layer0_0_MEMBER_14_FILL">
<path fill="#DA291C" stroke="none" d="
M 24.9 9.15
L 24.25 9.15 24.25 14.1 24.9 14.1 24.9 9.15
M 24.6 7.65
L 24.9 7.5
Q 25 7.4 25 7.15 25 6.95 24.9 6.85 24.8 6.75 24.6 6.75 24.35 6.75 24.25 6.85
L 24.15 7.15 24.25 7.5
Q 24.4 7.65 24.6 7.65 Z"/>
</g>

<g id="Business_DM_Banners___300x600_psd_Asset_2_Evaluation___Professional_Services_fr1_When_you_re_working_with_important_clients_0_Layer0_0_MEMBER_15_FILL">
<path fill="#DA291C" stroke="none" d="
M 31.05 11.1
Q 31.05 10.2 30.6 9.6 30.15 9 29.2 9 28.7 9 28.15 9.35 27.65 9.65 27.4 10.25
L 27.35 9.15 26.75 9.15 26.8 14.1 27.45 14.1 27.45 11.6
Q 27.45 10.9 27.65 10.5 27.9 10 28.25 9.8 28.55 9.55 29.1 9.55 29.8 9.55 30.1 10.05 30.45 10.45 30.45 11.25
L 30.45 14.1 31.05 14.1 31.05 11.1 Z"/>
</g>

<g id="Business_DM_Banners___300x600_psd_Asset_2_Evaluation___Professional_Services_fr1_When_you_re_working_with_important_clients_0_Layer0_0_MEMBER_16_FILL">
<path fill="#DA291C" stroke="none" d="
M 35.05 9
Q 34.4 9 33.8 9.35 33.2 9.75 32.9 10.3 32.6 10.9 32.6 11.65 32.6 12.35 32.9 12.95 33.15 13.5 33.75 13.9 34.35 14.2 35.05 14.2 35.75 14.2 36.25 13.9 36.8 13.65 37.1 13
L 37.1 14.05
Q 37.1 15.1 36.6 15.65 36.15 16.2 35.05 16.2 34.45 16.2 34 16 33.45 15.85 33 15.55
L 32.9 16.1
Q 33.4 16.4 33.9 16.55 34.7 16.75 35.1 16.75 36.45 16.75 37.1 16 37.7 15.25 37.7 14.05
L 37.75 9.15 37.15 9.15 37.1 10.25
Q 36.8 9.65 36.25 9.35 35.75 9 35.05 9
M 34.15 9.8
Q 34.65 9.55 35.15 9.55 35.65 9.55 36.15 9.8 36.65 10.15 36.85 10.6 37.15 11.05 37.15 11.6 37.15 12.2 36.85 12.65 36.65 13.1 36.15 13.45 35.65 13.7 35.15 13.7 34.6 13.7 34.15 13.4 33.65 13.15 33.45 12.65 33.2 12.15 33.2 11.65 33.2 11.1 33.45 10.6 33.65 10.15 34.15 9.8 Z"/>
</g>

<g id="Business_DM_Banners___300x600_psd_Asset_2_Evaluation___Professional_Services_fr1_When_you_re_working_with_important_clients_0_Layer0_0_MEMBER_17_FILL">
<path fill="#DA291C" stroke="none" d="
M 42.3 9.15
L 41.6 9.15 43.15 14.1 43.85 14.1 45.25 9.9 46.7 14.1 47.35 14.1 48.9 9.15 48.25 9.15 47.05 13.4 47 13.4 45.6 9.15 44.9 9.15 43.55 13.4 43.5 13.4 42.3 9.15 Z"/>
</g>

<g id="Business_DM_Banners___300x600_psd_Asset_2_Evaluation___Professional_Services_fr1_When_you_re_working_with_important_clients_0_Layer0_0_MEMBER_18_FILL">
<path fill="#DA291C" stroke="none" d="
M 50.2 9.15
L 50.2 14.1 50.85 14.1 50.85 9.15 50.2 9.15
M 50.95 7.15
L 50.85 6.85
Q 50.75 6.75 50.5 6.75 50.3 6.75 50.2 6.85
L 50.05 7.15
Q 50.05 7.35 50.2 7.5
L 50.5 7.65
Q 50.7 7.65 50.85 7.5
L 50.95 7.15 Z"/>
</g>

<g id="Business_DM_Banners___300x600_psd_Asset_2_Evaluation___Professional_Services_fr1_When_you_re_working_with_important_clients_0_Layer0_0_MEMBER_19_FILL">
<path fill="#DA291C" stroke="none" d="
M 53.6 9.15
L 53.6 7.75 52.95 8 52.95 9.15 52.2 9.15 52.05 9.65 53 9.65 53 12.9
Q 53 13.55 53.3 13.9 53.65 14.25 54.15 14.25
L 54.7 14.15 55.2 13.95 55.1 13.5
Q 54.7 13.7 54.3 13.7 53.95 13.7 53.8 13.5 53.6 13.3 53.6 12.85
L 53.6 9.65 54.9 9.65 55 9.15 53.6 9.15 Z"/>
</g>

<g id="Business_DM_Banners___300x600_psd_Asset_2_Evaluation___Professional_Services_fr1_When_you_re_working_with_important_clients_0_Layer0_0_MEMBER_20_FILL">
<path fill="#DA291C" stroke="none" d="
M 57.05 6.05
L 56.4 6.15 56.4 14.1 57.05 14.1 57.05 11.7
Q 57.05 10.95 57.25 10.55 57.5 10.05 57.85 9.8 58.15 9.55 58.7 9.55 59.45 9.55 59.75 10.05 60.05 10.5 60.05 11.25
L 60.05 14.1 60.65 14.1 60.65 11.1
Q 60.65 10.2 60.2 9.6 59.85 9 58.85 9 58.25 9 57.75 9.35 57.3 9.65 57.05 10.2
L 57.05 6.05 Z"/>
</g>

<g id="Business_DM_Banners___300x600_psd_Asset_2_Evaluation___Professional_Services_fr1_When_you_re_working_with_important_clients_0_Layer0_0_MEMBER_21_FILL">
<path fill="#DA291C" stroke="none" d="
M 1.6 23.3
L 1 23.3 1 28.25 1.6 28.25 1.6 23.3
M 0.85 21.3
Q 0.85 21.55 1 21.6 1.1 21.75 1.3 21.75
L 1.6 21.6
Q 1.75 21.55 1.75 21.3 1.75 21.1 1.6 21
L 1.3 20.85
Q 1.1 20.85 1 21 0.85 21.1 0.85 21.3 Z"/>
</g>

<g id="Business_DM_Banners___300x600_psd_Asset_2_Evaluation___Professional_Services_fr1_When_you_re_working_with_important_clients_0_Layer0_0_MEMBER_22_FILL">
<path fill="#DA291C" stroke="none" d="
M 4.05 23.3
L 3.5 23.3 3.5 28.25 4.15 28.25 4.15 25.75
Q 4.15 25.05 4.35 24.65 4.55 24.15 4.9 23.9 5.3 23.65 5.7 23.65 6.35 23.65 6.65 24.1 6.95 24.5 6.95 25.3
L 6.95 28.25 7.6 28.25 7.6 25.7
Q 7.6 24.75 8 24.2 8.45 23.65 9.15 23.65 9.85 23.65 10.15 24.15 10.45 24.7 10.45 25.4
L 10.45 28.25 11.05 28.25 11.05 25.25
Q 11.05 24.4 10.65 23.75 10.2 23.15 9.25 23.15 8.65 23.15 8.2 23.45 7.75 23.75 7.45 24.4 7.3 23.85 6.9 23.45 6.45 23.15 5.85 23.15 5.35 23.15 4.8 23.45 4.4 23.8 4.15 24.35
L 4.1 24.35 4.05 23.3 Z"/>
</g>

<g id="Business_DM_Banners___300x600_psd_Asset_2_Evaluation___Professional_Services_fr1_When_you_re_working_with_important_clients_0_Layer0_0_MEMBER_23_FILL">
<path fill="#DA291C" stroke="none" d="
M 13.5 23.3
L 12.9 23.3 12.9 30.8 13.55 30.8 13.55 27.2 13.6 27.2
Q 13.8 27.7 14.4 28.05 15 28.4 15.6 28.4 16.2 28.4 16.9 28.05 17.5 27.65 17.75 27.1 18.05 26.5 18.05 25.75 18.05 25 17.75 24.4 17.4 23.8 16.9 23.5 16.35 23.15 15.6 23.15 14.95 23.15 14.4 23.45 13.85 23.85 13.55 24.35
L 13.5 23.3
M 13.8 24.7
Q 14 24.3 14.5 23.95 14.95 23.65 15.5 23.65 16.05 23.65 16.5 23.95 17 24.3 17.2 24.7 17.45 25.3 17.45 25.75 17.45 26.3 17.2 26.8 17 27.25 16.5 27.6 16 27.85 15.5 27.85 15 27.85 14.5 27.6 14 27.25 13.8 26.8 13.5 26.35 13.5 25.75 13.5 25.25 13.8 24.7 Z"/>
</g>

<g id="Business_DM_Banners___300x600_psd_Asset_2_Evaluation___Professional_Services_fr1_When_you_re_working_with_important_clients_0_Layer0_0_MEMBER_24_FILL">
<path fill="#DA291C" stroke="none" d="
M 24.25 24.4
Q 24 23.9 23.3 23.45 22.7 23.15 21.95 23.15 21.2 23.15 20.6 23.45 20 23.8 19.65 24.4 19.3 25.1 19.3 25.75 19.3 26.4 19.65 27.1 20.1 27.8 20.6 28.05 21.15 28.4 21.95 28.4 22.75 28.4 23.3 28.05 23.95 27.75 24.25 27.1 24.6 26.55 24.6 25.75 24.6 24.95 24.25 24.4
M 23 23.95
Q 23.35 24.1 23.75 24.7 24 25.2 24 25.75 24 26.3 23.75 26.8 23.55 27.25 23.05 27.6 22.55 27.85 21.95 27.85 21.4 27.85 20.9 27.6 20.4 27.25 20.2 26.8 19.95 26.3 19.95 25.75 19.95 25.2 20.2 24.7 20.45 24.15 20.9 23.95 21.35 23.65 21.95 23.65 22.55 23.65 23 23.95 Z"/>
</g>

<g id="Business_DM_Banners___300x600_psd_Asset_2_Evaluation___Professional_Services_fr1_When_you_re_working_with_important_clients_0_Layer0_0_MEMBER_25_FILL">
<path fill="#DA291C" stroke="none" d="
M 27.4 23.45
Q 26.95 23.85 26.8 24.35
L 26.75 24.35 26.7 23.3 26.1 23.3 26.15 28.25 26.8 28.25 26.8 25.75
Q 26.8 24.95 27.2 24.3 27.6 23.7 28.2 23.7
L 28.65 23.75 28.75 23.2 28.25 23.15
Q 27.8 23.15 27.4 23.45 Z"/>
</g>

<g id="Business_DM_Banners___300x600_psd_Asset_2_Evaluation___Professional_Services_fr1_When_you_re_working_with_important_clients_0_Layer0_0_MEMBER_26_FILL">
<path fill="#DA291C" stroke="none" d="
M 29.6 23.3
L 29.45 23.75 30.4 23.75 30.4 27.05
Q 30.4 27.7 30.7 28 31 28.35 31.55 28.35
L 32.6 28.1 32.5 27.6
Q 32.1 27.85 31.75 27.85 31.5 27.85 31.2 27.65 31 27.45 31 26.95
L 31 23.75 32.3 23.75 32.4 23.3 31 23.3 31 21.85 30.4 22.1 30.4 23.3 29.6 23.3 Z"/>
</g>

<g id="Business_DM_Banners___300x600_psd_Asset_2_Evaluation___Professional_Services_fr1_When_you_re_working_with_important_clients_0_Layer0_0_MEMBER_27_FILL">
<path fill="#DA291C" stroke="none" d="
M 35.6 23.6
Q 36.2 23.6 36.65 23.95 37 24.3 37 25
L 37 25.25 36.4 25.25
Q 33.55 25.25 33.55 26.9 33.55 27.65 34.05 28 34.55 28.4 35.15 28.4 35.75 28.4 36.25 28.1 36.8 27.8 37 27.3
L 37.05 27.3 37.1 28.25 37.65 28.25 37.6 25
Q 37.6 24.1 37.1 23.6 36.6 23.15 35.7 23.15 35.15 23.15 34.7 23.3 34.15 23.45 33.85 23.75
L 34 24.25
Q 34.3 23.95 34.75 23.8 35.35 23.6 35.6 23.6
M 37 25.7
L 37 26.2
Q 37 26.6 36.8 27 36.65 27.45 36.2 27.65 35.9 27.9 35.25 27.9 34.75 27.9 34.5 27.65 34.15 27.45 34.15 26.9 34.15 25.7 36.5 25.7
L 37 25.7 Z"/>
</g>

<g id="Business_DM_Banners___300x600_psd_Asset_2_Evaluation___Professional_Services_fr1_When_you_re_working_with_important_clients_0_Layer0_0_MEMBER_28_FILL">
<path fill="#DA291C" stroke="none" d="
M 40.9 23.9
Q 41.3 23.65 41.75 23.65 42.45 23.65 42.75 24.15 43.05 24.7 43.05 25.35
L 43.05 28.25 43.7 28.25 43.7 25.2
Q 43.7 24.35 43.25 23.75 42.8 23.15 41.85 23.15 41.3 23.15 40.75 23.45 40.25 23.85 40.05 24.35
L 40 23.3 39.4 23.3 39.45 28.25 40.05 28.25 40.05 25.7
Q 40.05 25.1 40.3 24.6 40.55 24.1 40.9 23.9 Z"/>
</g>

<g id="Business_DM_Banners___300x600_psd_Asset_2_Evaluation___Professional_Services_fr1_When_you_re_working_with_important_clients_0_Layer0_0_MEMBER_29_FILL">
<path fill="#DA291C" stroke="none" d="
M 44.85 23.3
L 44.7 23.75 45.65 23.75 45.65 27.05
Q 45.65 27.7 45.95 28 46.25 28.35 46.8 28.35
L 47.85 28.1 47.8 27.6
Q 47.3 27.85 47 27.85 46.75 27.85 46.45 27.65 46.25 27.35 46.25 26.95
L 46.25 23.75 47.55 23.75 47.65 23.3 46.25 23.3 46.25 21.85 45.65 22.1 45.65 23.3 44.85 23.3 Z"/>
</g>

<g id="Business_DM_Banners___300x600_psd_Asset_2_Evaluation___Professional_Services_fr1_When_you_re_working_with_important_clients_0_Layer0_0_MEMBER_30_FILL">
<path fill="#DA291C" stroke="none" d="
M 4.15 37.4
L 3.2 37.25
Q 2.4 37.25 1.85 37.6 1.3 37.9 0.95 38.55 0.6 39.1 0.6 39.9 0.6 40.7 0.95 41.25 1.25 41.8 1.85 42.2 2.45 42.5 3.2 42.5
L 4.15 42.35
Q 4.6 42.2 4.9 41.9
L 4.8 41.4
Q 4.5 41.65 4.1 41.8 3.75 41.95 3.25 41.95 2.6 41.95 2.2 41.7 1.7 41.4 1.5 40.95 1.25 40.5 1.25 39.9 1.25 39.25 1.5 38.85 1.7 38.4 2.2 38.05 2.6 37.8 3.2 37.8
L 4 37.9 4.65 38.3 4.9 37.85
Q 4.6 37.55 4.15 37.4 Z"/>
</g>

<g id="Business_DM_Banners___300x600_psd_Asset_2_Evaluation___Professional_Services_fr1_When_you_re_working_with_important_clients_0_Layer0_0_MEMBER_31_FILL">
<path fill="#DA291C" stroke="none" d="
M 6.4 42.05
Q 6.65 42.35 7 42.5
L 7.3 41.95
Q 7.05 41.9 6.9 41.65
L 6.8 41.1 6.8 34.3 6.2 34.4 6.2 41.25
Q 6.2 41.8 6.4 42.05 Z"/>
</g>

<g id="Business_DM_Banners___300x600_psd_Asset_2_Evaluation___Professional_Services_fr1_When_you_re_working_with_important_clients_0_Layer0_0_MEMBER_32_FILL">
<path fill="#DA291C" stroke="none" d="
M 8.8 37.4
L 8.8 42.35 9.4 42.35 9.4 37.4 8.8 37.4
M 8.75 35.75
Q 8.85 35.85 9.1 35.85 9.3 35.85 9.4 35.75 9.55 35.6 9.55 35.4
L 9.4 35.1 9.1 34.95
Q 8.9 34.95 8.75 35.1
L 8.65 35.4 8.75 35.75 Z"/>
</g>

<g id="Business_DM_Banners___300x600_psd_Asset_2_Evaluation___Professional_Services_fr1_When_you_re_working_with_important_clients_0_Layer0_0_MEMBER_33_FILL">
<path fill="#DA291C" stroke="none" d="
M 15.8 39.7
Q 15.8 39.05 15.5 38.45 15.3 37.95 14.7 37.6 14.2 37.25 13.45 37.25 12.7 37.25 12.2 37.6 11.6 37.9 11.3 38.5 11 39.1 11 39.85 11 40.65 11.3 41.25 11.55 41.8 12.2 42.15 12.75 42.5 13.5 42.5 14.7 42.5 15.5 41.9
L 15.4 41.35
Q 15 41.65 14.6 41.8 14.15 42 13.55 42 13.05 42 12.55 41.75 12.05 41.45 11.85 41 11.6 40.5 11.6 39.95
L 15.8 39.95 15.8 39.7
M 13.45 37.75
Q 14.25 37.75 14.7 38.2 15.2 38.8 15.2 39.5
L 11.6 39.5
Q 11.6 39.2 11.85 38.7 12 38.4 12.45 38 12.95 37.75 13.45 37.75 Z"/>
</g>

<g id="Business_DM_Banners___300x600_psd_Asset_2_Evaluation___Professional_Services_fr1_When_you_re_working_with_important_clients_0_Layer0_0_MEMBER_34_FILL">
<path fill="#DA291C" stroke="none" d="
M 18.8 38
Q 19.15 37.8 19.65 37.8 20.35 37.8 20.7 38.25 21 38.8 21 39.5
L 21 42.35 21.6 42.35 21.6 39.35
Q 21.6 38.45 21.15 37.85 20.7 37.25 19.75 37.25 19.1 37.25 18.7 37.6 18.15 37.9 18 38.5
L 17.95 38.5 17.9 37.4 17.3 37.4 17.35 42.35 18 42.35 18 39.85
Q 18 39.15 18.2 38.75 18.4 38.35 18.8 38 Z"/>
</g>

<g id="Business_DM_Banners___300x600_psd_Asset_2_Evaluation___Professional_Services_fr1_When_you_re_working_with_important_clients_0_Layer0_0_MEMBER_35_FILL">
<path fill="#DA291C" stroke="none" d="
M 24.2 36
L 23.55 36.2 23.55 37.4 22.75 37.4 22.65 37.9 23.55 37.9 23.55 41.15
Q 23.55 41.8 23.9 42.15 24.2 42.45 24.7 42.45
L 25.3 42.4 25.8 42.2 25.7 41.75
Q 25.3 41.95 24.9 41.95 24.55 41.95 24.4 41.75 24.2 41.55 24.2 41.1
L 24.2 37.9 25.45 37.9 25.6 37.4 24.2 37.4 24.2 36 Z"/>
</g>

<g id="Business_DM_Banners___300x600_psd_Asset_2_Evaluation___Professional_Services_fr1_When_you_re_working_with_important_clients_0_Layer0_0_MEMBER_36_FILL">
<path fill="#DA291C" stroke="none" d="
M 29.4 37.4
Q 29.05 37.25 28.55 37.25 28.15 37.25 27.75 37.4 27.4 37.55 27.15 37.85 26.9 38.15 26.9 38.6 26.9 39.2 27.25 39.5 27.55 39.75 28.3 40 29.1 40.25 29.35 40.5 29.65 40.75 29.65 41.1 29.65 41.55 29.35 41.75 29.05 42 28.55 42 27.6 42 26.9 41.4
L 26.8 41.95
Q 27.15 42.2 27.55 42.35 28.1 42.5 28.6 42.5 29.05 42.5 29.4 42.35 29.7 42.2 30 41.85 30.25 41.6 30.25 41.05 30.25 40.5 29.9 40.2 29.55 39.85 28.75 39.6 28.1 39.4 27.75 39.15 27.5 38.95 27.5 38.6 27.5 38.2 27.8 37.95 28.05 37.75 28.55 37.75 28.95 37.75 29.25 37.9 29.65 38.05 29.85 38.25
L 30.1 37.8
Q 29.85 37.55 29.4 37.4 Z"/>
</g>
</defs>

<g transform="matrix( 1, 0, 0, 1, -3,0) ">
<g transform="matrix( 1, 0, 0, 1, 1,24) ">
<g transform="matrix( 1, 0, 0, 1, 30,22) ">
<g transform="matrix( 2.815704345703125, 0, 0, 2.832611083984375, -0.85,22.6) ">
<use xlink:href="#Business_DM_Banners___300x600_psd_Asset_2_Evaluation___Professional_Services_fr1_When_you_re_working_with_important_clients_0_Layer0_0_MEMBER_0_FILL"/>
</g>

<g transform="matrix( 2.815704345703125, 0, 0, 2.832611083984375, -0.85,22.6) ">
<use xlink:href="#Business_DM_Banners___300x600_psd_Asset_2_Evaluation___Professional_Services_fr1_When_you_re_working_with_important_clients_0_Layer0_0_MEMBER_1_FILL"/>
</g>

<g transform="matrix( 2.815704345703125, 0, 0, 2.832611083984375, -0.85,22.6) ">
<use xlink:href="#Business_DM_Banners___300x600_psd_Asset_2_Evaluation___Professional_Services_fr1_When_you_re_working_with_important_clients_0_Layer0_0_MEMBER_2_FILL"/>
</g>

<g transform="matrix( 2.815704345703125, 0, 0, 2.832611083984375, -0.85,22.6) ">
<use xlink:href="#Business_DM_Banners___300x600_psd_Asset_2_Evaluation___Professional_Services_fr1_When_you_re_working_with_important_clients_0_Layer0_0_MEMBER_3_FILL"/>
</g>

<g transform="matrix( 2.815704345703125, 0, 0, 2.832611083984375, -0.85,22.6) ">
<use xlink:href="#Business_DM_Banners___300x600_psd_Asset_2_Evaluation___Professional_Services_fr1_When_you_re_working_with_important_clients_0_Layer0_0_MEMBER_4_FILL"/>
</g>

<g transform="matrix( 2.815704345703125, 0, 0, 2.832611083984375, -0.85,22.6) ">
<use xlink:href="#Business_DM_Banners___300x600_psd_Asset_2_Evaluation___Professional_Services_fr1_When_you_re_working_with_important_clients_0_Layer0_0_MEMBER_5_FILL"/>
</g>

<g transform="matrix( 2.815704345703125, 0, 0, 2.832611083984375, -0.85,22.6) ">
<use xlink:href="#Business_DM_Banners___300x600_psd_Asset_2_Evaluation___Professional_Services_fr1_When_you_re_working_with_important_clients_0_Layer0_0_MEMBER_6_FILL"/>
</g>

<g transform="matrix( 2.815704345703125, 0, 0, 2.832611083984375, -0.85,22.6) ">
<use xlink:href="#Business_DM_Banners___300x600_psd_Asset_2_Evaluation___Professional_Services_fr1_When_you_re_working_with_important_clients_0_Layer0_0_MEMBER_7_FILL"/>
</g>

<g transform="matrix( 2.815704345703125, 0, 0, 2.832611083984375, -0.85,22.6) ">
<use xlink:href="#Business_DM_Banners___300x600_psd_Asset_2_Evaluation___Professional_Services_fr1_When_you_re_working_with_important_clients_0_Layer0_0_MEMBER_8_FILL"/>
</g>

<g transform="matrix( 2.815704345703125, 0, 0, 2.832611083984375, -0.85,22.6) ">
<use xlink:href="#Business_DM_Banners___300x600_psd_Asset_2_Evaluation___Professional_Services_fr1_When_you_re_working_with_important_clients_0_Layer0_0_MEMBER_9_FILL"/>
</g>

<g transform="matrix( 2.815704345703125, 0, 0, 2.832611083984375, -0.85,22.6) ">
<use xlink:href="#Business_DM_Banners___300x600_psd_Asset_2_Evaluation___Professional_Services_fr1_When_you_re_working_with_important_clients_0_Layer0_0_MEMBER_10_FILL"/>
</g>

<g transform="matrix( 2.815704345703125, 0, 0, 2.832611083984375, -0.85,22.6) ">
<use xlink:href="#Business_DM_Banners___300x600_psd_Asset_2_Evaluation___Professional_Services_fr1_When_you_re_working_with_important_clients_0_Layer0_0_MEMBER_11_FILL"/>
</g>

<g transform="matrix( 2.815704345703125, 0, 0, 2.832611083984375, -0.85,22.6) ">
<use xlink:href="#Business_DM_Banners___300x600_psd_Asset_2_Evaluation___Professional_Services_fr1_When_you_re_working_with_important_clients_0_Layer0_0_MEMBER_12_FILL"/>
</g>

<g transform="matrix( 2.815704345703125, 0, 0, 2.832611083984375, -0.85,22.6) ">
<use xlink:href="#Business_DM_Banners___300x600_psd_Asset_2_Evaluation___Professional_Services_fr1_When_you_re_working_with_important_clients_0_Layer0_0_MEMBER_13_FILL"/>
</g>

<g transform="matrix( 2.815704345703125, 0, 0, 2.832611083984375, -0.85,22.6) ">
<use xlink:href="#Business_DM_Banners___300x600_psd_Asset_2_Evaluation___Professional_Services_fr1_When_you_re_working_with_important_clients_0_Layer0_0_MEMBER_14_FILL"/>
</g>

<g transform="matrix( 2.815704345703125, 0, 0, 2.832611083984375, -0.85,22.6) ">
<use xlink:href="#Business_DM_Banners___300x600_psd_Asset_2_Evaluation___Professional_Services_fr1_When_you_re_working_with_important_clients_0_Layer0_0_MEMBER_15_FILL"/>
</g>

<g transform="matrix( 2.815704345703125, 0, 0, 2.832611083984375, -0.85,22.6) ">
<use xlink:href="#Business_DM_Banners___300x600_psd_Asset_2_Evaluation___Professional_Services_fr1_When_you_re_working_with_important_clients_0_Layer0_0_MEMBER_16_FILL"/>
</g>

<g transform="matrix( 2.815704345703125, 0, 0, 2.832611083984375, -0.85,22.6) ">
<use xlink:href="#Business_DM_Banners___300x600_psd_Asset_2_Evaluation___Professional_Services_fr1_When_you_re_working_with_important_clients_0_Layer0_0_MEMBER_17_FILL"/>
</g>

<g transform="matrix( 2.815704345703125, 0, 0, 2.832611083984375, -0.85,22.6) ">
<use xlink:href="#Business_DM_Banners___300x600_psd_Asset_2_Evaluation___Professional_Services_fr1_When_you_re_working_with_important_clients_0_Layer0_0_MEMBER_18_FILL"/>
</g>

<g transform="matrix( 2.815704345703125, 0, 0, 2.832611083984375, -0.85,22.6) ">
<use xlink:href="#Business_DM_Banners___300x600_psd_Asset_2_Evaluation___Professional_Services_fr1_When_you_re_working_with_important_clients_0_Layer0_0_MEMBER_19_FILL"/>
</g>

<g transform="matrix( 2.815704345703125, 0, 0, 2.832611083984375, -0.85,22.6) ">
<use xlink:href="#Business_DM_Banners___300x600_psd_Asset_2_Evaluation___Professional_Services_fr1_When_you_re_working_with_important_clients_0_Layer0_0_MEMBER_20_FILL"/>
</g>

<g transform="matrix( 2.815704345703125, 0, 0, 2.832611083984375, -0.85,22.6) ">
<use xlink:href="#Business_DM_Banners___300x600_psd_Asset_2_Evaluation___Professional_Services_fr1_When_you_re_working_with_important_clients_0_Layer0_0_MEMBER_21_FILL"/>
</g>

<g transform="matrix( 2.815704345703125, 0, 0, 2.832611083984375, -0.85,22.6) ">
<use xlink:href="#Business_DM_Banners___300x600_psd_Asset_2_Evaluation___Professional_Services_fr1_When_you_re_working_with_important_clients_0_Layer0_0_MEMBER_22_FILL"/>
</g>

<g transform="matrix( 2.815704345703125, 0, 0, 2.832611083984375, -0.85,22.6) ">
<use xlink:href="#Business_DM_Banners___300x600_psd_Asset_2_Evaluation___Professional_Services_fr1_When_you_re_working_with_important_clients_0_Layer0_0_MEMBER_23_FILL"/>
</g>

<g transform="matrix( 2.815704345703125, 0, 0, 2.832611083984375, -0.85,22.6) ">
<use xlink:href="#Business_DM_Banners___300x600_psd_Asset_2_Evaluation___Professional_Services_fr1_When_you_re_working_with_important_clients_0_Layer0_0_MEMBER_24_FILL"/>
</g>

<g transform="matrix( 2.815704345703125, 0, 0, 2.832611083984375, -0.85,22.6) ">
<use xlink:href="#Business_DM_Banners___300x600_psd_Asset_2_Evaluation___Professional_Services_fr1_When_you_re_working_with_important_clients_0_Layer0_0_MEMBER_25_FILL"/>
</g>

<g transform="matrix( 2.815704345703125, 0, 0, 2.832611083984375, -0.85,22.6) ">
<use xlink:href="#Business_DM_Banners___300x600_psd_Asset_2_Evaluation___Professional_Services_fr1_When_you_re_working_with_important_clients_0_Layer0_0_MEMBER_26_FILL"/>
</g>

<g transform="matrix( 2.815704345703125, 0, 0, 2.832611083984375, -0.85,22.6) ">
<use xlink:href="#Business_DM_Banners___300x600_psd_Asset_2_Evaluation___Professional_Services_fr1_When_you_re_working_with_important_clients_0_Layer0_0_MEMBER_27_FILL"/>
</g>

<g transform="matrix( 2.815704345703125, 0, 0, 2.832611083984375, -0.85,22.6) ">
<use xlink:href="#Business_DM_Banners___300x600_psd_Asset_2_Evaluation___Professional_Services_fr1_When_you_re_working_with_important_clients_0_Layer0_0_MEMBER_28_FILL"/>
</g>

<g transform="matrix( 2.815704345703125, 0, 0, 2.832611083984375, -0.85,22.6) ">
<use xlink:href="#Business_DM_Banners___300x600_psd_Asset_2_Evaluation___Professional_Services_fr1_When_you_re_working_with_important_clients_0_Layer0_0_MEMBER_29_FILL"/>
</g>

<g transform="matrix( 2.815704345703125, 0, 0, 2.832611083984375, -0.85,22.6) ">
<use xlink:href="#Business_DM_Banners___300x600_psd_Asset_2_Evaluation___Professional_Services_fr1_When_you_re_working_with_important_clients_0_Layer0_0_MEMBER_30_FILL"/>
</g>

<g transform="matrix( 2.815704345703125, 0, 0, 2.832611083984375, -0.85,22.6) ">
<use xlink:href="#Business_DM_Banners___300x600_psd_Asset_2_Evaluation___Professional_Services_fr1_When_you_re_working_with_important_clients_0_Layer0_0_MEMBER_31_FILL"/>
</g>

<g transform="matrix( 2.815704345703125, 0, 0, 2.832611083984375, -0.85,22.6) ">
<use xlink:href="#Business_DM_Banners___300x600_psd_Asset_2_Evaluation___Professional_Services_fr1_When_you_re_working_with_important_clients_0_Layer0_0_MEMBER_32_FILL"/>
</g>

<g transform="matrix( 2.815704345703125, 0, 0, 2.832611083984375, -0.85,22.6) ">
<use xlink:href="#Business_DM_Banners___300x600_psd_Asset_2_Evaluation___Professional_Services_fr1_When_you_re_working_with_important_clients_0_Layer0_0_MEMBER_33_FILL"/>
</g>

<g transform="matrix( 2.815704345703125, 0, 0, 2.832611083984375, -0.85,22.6) ">
<use xlink:href="#Business_DM_Banners___300x600_psd_Asset_2_Evaluation___Professional_Services_fr1_When_you_re_working_with_important_clients_0_Layer0_0_MEMBER_34_FILL"/>
</g>

<g transform="matrix( 2.815704345703125, 0, 0, 2.832611083984375, -0.85,22.6) ">
<use xlink:href="#Business_DM_Banners___300x600_psd_Asset_2_Evaluation___Professional_Services_fr1_When_you_re_working_with_important_clients_0_Layer0_0_MEMBER_35_FILL"/>
</g>

<g transform="matrix( 2.815704345703125, 0, 0, 2.832611083984375, -0.85,22.6) ">
<use xlink:href="#Business_DM_Banners___300x600_psd_Asset_2_Evaluation___Professional_Services_fr1_When_you_re_working_with_important_clients_0_Layer0_0_MEMBER_36_FILL"/>
</g>
</g>
</g>
</g>
</svg>
