
<svg xmlns="http://www.w3.org/2000/svg" version="1.1" xmlns:xlink="http://www.w3.org/1999/xlink" preserveAspectRatio="none" x="0px" y="0px" width="300px" height="250px" viewBox="0 0 300 250">
<defs>
<g id="IT_300x250_FR_psd_Asset_Awareness_Phase_IT_Decisions_Makers__V6_3_que_jamais__0_Layer0_0_MEMBER_0_FILL">
<path fill="#D82C26" stroke="none" d="
M 4.4 -3.8
L 3.95 -3.8 3.95 -2.95 3.9 -2.95
Q 3.65 -3.45 3.25 -3.65 2.95 -3.9 2.35 -3.9 1.75 -3.9 1.35 -3.65 0.85 -3.25 0.7 -2.95 0.45 -2.35 0.45 -1.9 0.45 -1.4 0.7 -0.9 0.9 -0.5 1.35 -0.15 1.85 0.1 2.35 0.1 2.85 0.1 3.25 -0.15 3.7 -0.35 3.9 -0.8
L 3.9 0.9
Q 3.9 1.7 4.75 1.95
L 4.95 1.55
Q 4.7 1.5 4.5 1.3
L 4.4 0.8 4.4 -3.8
M 1.65 -3.3
Q 1.9 -3.5 2.45 -3.5 2.85 -3.5 3.2 -3.3 3.5 -3.1 3.75 -2.7 3.95 -2.2 3.95 -1.9 3.95 -1.6 3.75 -1.1 3.5 -0.7 3.2 -0.5 2.85 -0.3 2.45 -0.3 1.9 -0.3 1.65 -0.5 1.35 -0.7 1.1 -1.1 0.95 -1.45 0.95 -1.9 0.95 -2.3 1.1 -2.7 1.35 -3.1 1.65 -3.3 Z"/>
</g>

<g id="IT_300x250_FR_psd_Asset_Awareness_Phase_IT_Decisions_Makers__V6_3_que_jamais__0_Layer0_0_MEMBER_1_FILL">
<path fill="#D82C26" stroke="none" d="
M 8.85 -3.8
L 8.35 -3.8 8.35 -1.9
Q 8.35 -1.4 8.2 -1.05 8.05 -0.65 7.75 -0.5 7.5 -0.3 7.1 -0.3 6.5 -0.3 6.3 -0.65 6.05 -1.05 6.05 -1.6
L 6.05 -3.8 5.6 -3.8 5.6 -1.5
Q 5.6 -0.8 5.9 -0.35 6.3 0.1 7 0.1 7.4 0.1 7.8 -0.15 8.2 -0.4 8.35 -0.8
L 8.45 0 8.9 0 8.85 -3.8 Z"/>
</g>

<g id="IT_300x250_FR_psd_Asset_Awareness_Phase_IT_Decisions_Makers__V6_3_que_jamais__0_Layer0_0_MEMBER_2_FILL">
<path fill="#D82C26" stroke="none" d="
M 9.85 -1.9
Q 9.85 -1.3 10.1 -0.85 10.35 -0.4 10.8 -0.15 11.1 0.1 11.8 0.1 12.7 0.1 13.3 -0.35
L 13.2 -0.75 12.6 -0.4
Q 12.35 -0.3 11.8 -0.3 11.3 -0.3 11.05 -0.5 10.7 -0.7 10.5 -1.05 10.3 -1.4 10.3 -1.85
L 13.5 -1.85 13.5 -2.05
Q 13.5 -2.6 13.3 -3 13.05 -3.45 12.7 -3.65 12.35 -3.9 11.7 -3.9 11.15 -3.9 10.75 -3.65 10.35 -3.45 10.1 -2.95 9.85 -2.55 9.85 -1.9
M 10.95 -3.35
Q 11.3 -3.55 11.7 -3.55 12.3 -3.55 12.7 -3.15 13.05 -2.85 13.05 -2.2
L 10.3 -2.2
Q 10.3 -2.55 10.5 -2.8 10.65 -3.15 10.95 -3.35 Z"/>
</g>

<g id="IT_300x250_FR_psd_Asset_Awareness_Phase_IT_Decisions_Makers__V6_3_que_jamais__0_Layer0_0_MEMBER_3_FILL">
<path fill="#D82C26" stroke="none" d="
M 16.6 -3.8
L 16.1 -3.8 16.1 0.6
Q 16.1 1.15 15.95 1.35 15.8 1.55 15.4 1.55
L 15.55 1.95
Q 16.1 1.95 16.35 1.6 16.6 1.2 16.6 0.65
L 16.6 -3.8
M 16.6 -5.1
L 16.7 -5.35 16.6 -5.55
Q 16.55 -5.65 16.35 -5.65 16.2 -5.65 16.1 -5.55
L 16 -5.35 16.1 -5.1
Q 16.2 -5 16.35 -5 16.5 -5 16.6 -5.1 Z"/>
</g>

<g id="IT_300x250_FR_psd_Asset_Awareness_Phase_IT_Decisions_Makers__V6_3_que_jamais__0_Layer0_0_MEMBER_4_FILL">
<path fill="#D82C26" stroke="none" d="
M 18.4 -3.8
L 17.75 -3.45 17.9 -3.05 18.45 -3.4 19.1 -3.55
Q 19.55 -3.55 19.9 -3.3 20.2 -3 20.2 -2.5
L 20.2 -2.3 19.7 -2.3
Q 17.55 -2.3 17.55 -1 17.55 -0.4 17.9 -0.2 18.3 0.1 18.75 0.1 19.25 0.1 19.6 -0.1 19.95 -0.3 20.2 -0.75
L 20.2 -0.35 20.25 0 20.7 0 20.65 -2.45
Q 20.65 -3.15 20.25 -3.55 19.9 -3.9 19.15 -3.9 18.65 -3.9 18.4 -3.8
M 19.8 -1.95
L 20.2 -1.95 20.2 -1.6
Q 20.2 -1.25 20.05 -0.95 19.9 -0.7 19.6 -0.45 19.35 -0.25 18.85 -0.25 18.45 -0.25 18.25 -0.45 18 -0.6 18 -1.05 18 -1.95 19.8 -1.95 Z"/>
</g>

<g id="IT_300x250_FR_psd_Asset_Awareness_Phase_IT_Decisions_Makers__V6_3_que_jamais__0_Layer0_0_MEMBER_5_FILL">
<path fill="#D82C26" stroke="none" d="
M 23.5 -3.5
Q 23.95 -3.5 24.25 -3.2 24.45 -2.85 24.45 -2.25
L 24.45 0 24.95 0 24.95 -1.95
Q 24.95 -2.7 25.3 -3.1 25.6 -3.5 26.15 -3.5 26.7 -3.5 26.9 -3.15 27.15 -2.65 27.15 -2.15
L 27.15 0 27.6 0 27.6 -2.3
Q 27.6 -3 27.3 -3.45 26.95 -3.9 26.25 -3.9 25.7 -3.9 25.4 -3.65 25.1 -3.5 24.85 -2.95 24.7 -3.45 24.4 -3.65 24.15 -3.9 23.65 -3.9 23.1 -3.9 22.85 -3.65 22.45 -3.4 22.3 -3
L 22.25 -3.8 21.8 -3.8 21.85 0 22.3 0 22.3 -1.9
Q 22.3 -2.4 22.5 -2.75 22.65 -3.1 22.9 -3.35 23.2 -3.5 23.5 -3.5 Z"/>
</g>

<g id="IT_300x250_FR_psd_Asset_Awareness_Phase_IT_Decisions_Makers__V6_3_que_jamais__0_Layer0_0_MEMBER_6_FILL">
<path fill="#D82C26" stroke="none" d="
M 28.55 -1
Q 28.55 -0.4 28.9 -0.2 29.3 0.1 29.75 0.1 30.25 0.1 30.6 -0.1 30.95 -0.3 31.2 -0.75
L 31.2 -0.35 31.25 0 31.7 0 31.65 -2.45
Q 31.65 -3.15 31.25 -3.55 30.9 -3.9 30.15 -3.9 29.65 -3.9 29.4 -3.8
L 28.75 -3.45 28.9 -3.05 29.45 -3.4 30.1 -3.55
Q 30.55 -3.55 30.9 -3.3 31.2 -3 31.2 -2.5
L 31.2 -2.3 30.75 -2.3
Q 28.55 -2.3 28.55 -1
M 29.25 -0.45
Q 29 -0.6 29 -1.05 29 -1.95 30.8 -1.95
L 31.2 -1.95 31.2 -1.6
Q 31.2 -1.25 31.05 -0.95 30.9 -0.7 30.6 -0.45 30.35 -0.25 29.85 -0.25 29.45 -0.25 29.25 -0.45 Z"/>
</g>

<g id="IT_300x250_FR_psd_Asset_Awareness_Phase_IT_Decisions_Makers__V6_3_que_jamais__0_Layer0_0_MEMBER_7_FILL">
<path fill="#D82C26" stroke="none" d="
M 33.3 -3.8
L 32.85 -3.8 32.85 0 33.3 0 33.3 -3.8
M 33.3 -5.55
Q 33.25 -5.65 33.1 -5.65 32.9 -5.65 32.85 -5.55 32.75 -5.5 32.75 -5.35 32.75 -5.15 32.85 -5.1 32.9 -5 33.1 -5 33.25 -5 33.3 -5.1 33.4 -5.15 33.4 -5.35 33.4 -5.5 33.3 -5.55 Z"/>
</g>

<g id="IT_300x250_FR_psd_Asset_Awareness_Phase_IT_Decisions_Makers__V6_3_que_jamais__0_Layer0_0_MEMBER_8_FILL">
<path fill="#D82C26" stroke="none" d="
M 34.35 -0.75
L 34.25 -0.3 34.85 0 35.6 0.1 36.25 0 36.75 -0.4
Q 36.9 -0.6 36.9 -1 36.9 -1.4 36.65 -1.65 36.35 -1.95 35.75 -2.1
L 35 -2.45
Q 34.75 -2.6 34.75 -2.9 34.75 -3.15 35 -3.4 35.25 -3.55 35.6 -3.55
L 36.15 -3.45 36.6 -3.15 36.8 -3.5 36.25 -3.8
Q 36.05 -3.9 35.6 -3.9 35.15 -3.9 35 -3.8 34.8 -3.75 34.5 -3.45 34.35 -3.2 34.35 -2.85 34.35 -2.4 34.6 -2.2 34.85 -1.95 35.4 -1.8 35.85 -1.7 36.2 -1.45 36.45 -1.3 36.45 -1 36.45 -0.7 36.2 -0.45 35.9 -0.25 35.6 -0.25 34.85 -0.25 34.35 -0.75 Z"/>
</g>

<g id="IT_300x250_FR_psd_Asset_Awareness_Phase_IT_Decisions_Makers__V6_3_que_jamais__0_Layer0_0_MEMBER_9_FILL">
<path fill="#D82C26" stroke="none" d="
M 37.85 -0.3
Q 37.85 -0.1 37.95 -0.05
L 38.2 0.05 38.45 -0.05 38.55 -0.3 38.45 -0.6 38.2 -0.7
Q 38.05 -0.7 37.95 -0.55 37.85 -0.5 37.85 -0.3 Z"/>
</g>
</defs>

<g transform="matrix( 1, 0, 0, 1, -5,23) ">
<g transform="matrix( 1, 0, 0, 1, 0,0) ">
<g transform="matrix( 1, 0, 0, 1, 28,11) ">
<g transform="matrix( 2.815704345703125, 0, 0, 2.832611083984375, -0.85,16.6) ">
<use xlink:href="#IT_300x250_FR_psd_Asset_Awareness_Phase_IT_Decisions_Makers__V6_3_que_jamais__0_Layer0_0_MEMBER_0_FILL"/>
</g>

<g transform="matrix( 2.815704345703125, 0, 0, 2.832611083984375, -0.85,16.6) ">
<use xlink:href="#IT_300x250_FR_psd_Asset_Awareness_Phase_IT_Decisions_Makers__V6_3_que_jamais__0_Layer0_0_MEMBER_1_FILL"/>
</g>

<g transform="matrix( 2.815704345703125, 0, 0, 2.832611083984375, -0.85,16.6) ">
<use xlink:href="#IT_300x250_FR_psd_Asset_Awareness_Phase_IT_Decisions_Makers__V6_3_que_jamais__0_Layer0_0_MEMBER_2_FILL"/>
</g>

<g transform="matrix( 2.815704345703125, 0, 0, 2.832611083984375, -0.85,16.6) ">
<use xlink:href="#IT_300x250_FR_psd_Asset_Awareness_Phase_IT_Decisions_Makers__V6_3_que_jamais__0_Layer0_0_MEMBER_3_FILL"/>
</g>

<g transform="matrix( 2.815704345703125, 0, 0, 2.832611083984375, -0.85,16.6) ">
<use xlink:href="#IT_300x250_FR_psd_Asset_Awareness_Phase_IT_Decisions_Makers__V6_3_que_jamais__0_Layer0_0_MEMBER_4_FILL"/>
</g>

<g transform="matrix( 2.815704345703125, 0, 0, 2.832611083984375, -0.85,16.6) ">
<use xlink:href="#IT_300x250_FR_psd_Asset_Awareness_Phase_IT_Decisions_Makers__V6_3_que_jamais__0_Layer0_0_MEMBER_5_FILL"/>
</g>

<g transform="matrix( 2.815704345703125, 0, 0, 2.832611083984375, -0.85,16.6) ">
<use xlink:href="#IT_300x250_FR_psd_Asset_Awareness_Phase_IT_Decisions_Makers__V6_3_que_jamais__0_Layer0_0_MEMBER_6_FILL"/>
</g>

<g transform="matrix( 2.815704345703125, 0, 0, 2.832611083984375, -0.85,16.6) ">
<use xlink:href="#IT_300x250_FR_psd_Asset_Awareness_Phase_IT_Decisions_Makers__V6_3_que_jamais__0_Layer0_0_MEMBER_7_FILL"/>
</g>

<g transform="matrix( 2.815704345703125, 0, 0, 2.832611083984375, -0.85,16.6) ">
<use xlink:href="#IT_300x250_FR_psd_Asset_Awareness_Phase_IT_Decisions_Makers__V6_3_que_jamais__0_Layer0_0_MEMBER_8_FILL"/>
</g>

<g transform="matrix( 2.815704345703125, 0, 0, 2.832611083984375, -0.85,16.6) ">
<use xlink:href="#IT_300x250_FR_psd_Asset_Awareness_Phase_IT_Decisions_Makers__V6_3_que_jamais__0_Layer0_0_MEMBER_9_FILL"/>
</g>
</g>
</g>
</g>
</svg>
