
<svg xmlns="http://www.w3.org/2000/svg" version="1.1" xmlns:xlink="http://www.w3.org/1999/xlink" preserveAspectRatio="none" x="0px" y="0px" width="160px" height="600px" viewBox="0 0 160 600">
<defs>
<g id="IT_160x600_FR_psd_Asset_9_V9_3___apaiser_les__sources__d_irritation__fr_quentes__pour_les__ent_0_Layer0_0_MEMBER_0_FILL">
<path fill="#D82C26" stroke="none" d="
M 1.3 -3.25
L 1.95 -3.4
Q 2.35 -3.4 2.7 -3.15 2.95 -2.9 2.95 -2.4
L 2.95 -2.2 2.55 -2.2
Q 0.45 -2.2 0.45 -1 0.45 -0.45 0.8 -0.15 1.15 0.1 1.6 0.1 2.1 0.1 2.45 -0.1 2.8 -0.3 2.95 -0.7
L 3 -0.7 3 -0.35 3.05 0 3.45 0 3.4 -2.35
Q 3.4 -3.05 3.05 -3.4 2.7 -3.75 2 -3.75
L 1.25 -3.65
Q 0.75 -3.4 0.65 -3.3
L 0.8 -2.95 1.3 -3.25
M 2.4 -0.45
Q 2.15 -0.25 1.7 -0.25 1.4 -0.25 1.1 -0.4 0.9 -0.6 0.9 -1 0.9 -1.9 2.6 -1.9
L 2.95 -1.9 2.95 -1.5
Q 2.95 -1.1 2.85 -0.9 2.7 -0.6 2.4 -0.45
M 1.15 -5.5
L 2.1 -4.4 2.5 -4.4 1.7 -5.5 1.15 -5.5 Z"/>
</g>

<g id="IT_160x600_FR_psd_Asset_9_V9_3___apaiser_les__sources__d_irritation__fr_quentes__pour_les__ent_0_Layer0_0_MEMBER_1_FILL">
<path fill="#D82C26" stroke="none" d="
M 6.65 -3.25
Q 6.95 -3.4 7.25 -3.4 7.75 -3.4 8 -3.15 8.3 -2.85 8.3 -2.4
L 8.3 -2.2 7.85 -2.2
Q 5.75 -2.2 5.75 -1 5.75 -0.5 6.1 -0.15 6.5 0.1 6.9 0.1 7.4 0.1 7.75 -0.1 8.05 -0.3 8.3 -0.7
L 8.3 -0.35 8.35 0 8.8 0 8.7 -0.8 8.7 -2.35
Q 8.7 -3.05 8.35 -3.4 8 -3.75 7.3 -3.75
L 6.6 -3.65 5.95 -3.3 6.1 -2.95 6.65 -3.25
M 6.45 -0.4
Q 6.2 -0.65 6.2 -1 6.2 -1.9 7.9 -1.9
L 8.3 -1.9 8.3 -1.5
Q 8.3 -1.2 8.15 -0.9 8 -0.6 7.7 -0.45 7.45 -0.25 7 -0.25 6.7 -0.25 6.45 -0.4 Z"/>
</g>

<g id="IT_160x600_FR_psd_Asset_9_V9_3___apaiser_les__sources__d_irritation__fr_quentes__pour_les__ent_0_Layer0_0_MEMBER_2_FILL">
<path fill="#D82C26" stroke="none" d="
M 11.8 -3.75
Q 11.4 -3.75 10.9 -3.5 10.5 -3.25 10.3 -2.85
L 10.25 -3.65 9.8 -3.65 9.85 1.85 10.3 1.85 10.3 -0.8
Q 10.5 -0.4 10.9 -0.15 11.4 0.1 11.8 0.1 12.25 0.1 12.75 -0.15 13.2 -0.4 13.4 -0.85 13.6 -1.25 13.6 -1.8 13.6 -2.4 13.4 -2.8 13.25 -3.1 12.75 -3.5 12.25 -3.75 11.8 -3.75
M 11.75 -3.35
Q 12.15 -3.35 12.5 -3.15 12.85 -2.9 12.95 -2.6 13.15 -2.25 13.15 -1.8 13.15 -1.4 12.95 -1.05 12.8 -0.65 12.5 -0.5 12.15 -0.3 11.75 -0.3 11.25 -0.3 11 -0.5 10.65 -0.7 10.45 -1.05
L 10.3 -1.8
Q 10.3 -2.2 10.45 -2.6 10.65 -2.95 11 -3.15 11.25 -3.35 11.75 -3.35 Z"/>
</g>

<g id="IT_160x600_FR_psd_Asset_9_V9_3___apaiser_les__sources__d_irritation__fr_quentes__pour_les__ent_0_Layer0_0_MEMBER_3_FILL">
<path fill="#D82C26" stroke="none" d="
M 14.25 -1
Q 14.25 -0.5 14.6 -0.15 15 0.1 15.45 0.1 15.9 0.1 16.25 -0.1 16.65 -0.35 16.8 -0.7
L 16.85 -0.35 16.85 0 17.3 0 17.25 -2.35
Q 17.25 -3 16.85 -3.4 16.5 -3.75 15.85 -3.75
L 15.1 -3.65
Q 14.7 -3.5 14.5 -3.3
L 14.6 -2.95 15.15 -3.25
Q 15.45 -3.4 15.75 -3.4 16.25 -3.4 16.5 -3.15 16.8 -2.85 16.8 -2.4
L 16.8 -2.2 16.35 -2.2
Q 14.25 -2.2 14.25 -1
M 14.95 -0.4
Q 14.7 -0.65 14.7 -1 14.7 -1.9 16.4 -1.9
L 16.8 -1.9 16.8 -1.5
Q 16.8 -1.2 16.65 -0.9 16.5 -0.6 16.2 -0.45 16 -0.25 15.55 -0.25 15.2 -0.25 14.95 -0.4 Z"/>
</g>

<g id="IT_160x600_FR_psd_Asset_9_V9_3___apaiser_les__sources__d_irritation__fr_quentes__pour_les__ent_0_Layer0_0_MEMBER_4_FILL">
<path fill="#D82C26" stroke="none" d="
M 18.8 -3.65
L 18.35 -3.65 18.35 0 18.8 0 18.8 -3.65
M 18.6 -4.75
L 18.8 -4.85 18.9 -5.1 18.8 -5.35 18.6 -5.4
Q 18.4 -5.4 18.35 -5.3
L 18.25 -5.1 18.35 -4.85 18.6 -4.75 Z"/>
</g>

<g id="IT_160x600_FR_psd_Asset_9_V9_3___apaiser_les__sources__d_irritation__fr_quentes__pour_les__ent_0_Layer0_0_MEMBER_5_FILL">
<path fill="#D82C26" stroke="none" d="
M 19.75 -0.7
L 19.7 -0.3 20.25 0 21 0.1 21.6 0
Q 21.95 -0.15 22.05 -0.4 22.2 -0.6 22.2 -0.95 22.2 -1.4 21.95 -1.6 21.6 -1.85 21.1 -2.05 20.55 -2.2 20.4 -2.35 20.2 -2.5 20.2 -2.75 20.2 -3.1 20.4 -3.25 20.65 -3.4 20.95 -3.4
L 21.5 -3.3 21.9 -3.05 22.1 -3.35 21.6 -3.65 20.95 -3.75 20.35 -3.65 19.9 -3.3
Q 19.75 -3.05 19.75 -2.75 19.75 -2.35 20 -2.1
L 21.55 -1.4
Q 21.8 -1.15 21.8 -0.95 21.8 -0.6 21.55 -0.45 21.35 -0.25 20.95 -0.25 20.3 -0.25 19.75 -0.7 Z"/>
</g>

<g id="IT_160x600_FR_psd_Asset_9_V9_3___apaiser_les__sources__d_irritation__fr_quentes__pour_les__ent_0_Layer0_0_MEMBER_6_FILL">
<path fill="#D82C26" stroke="none" d="
M 24.65 -3.75
Q 24.15 -3.75 23.75 -3.5 23.4 -3.3 23.1 -2.85 22.85 -2.45 22.85 -1.85 22.85 -1.2 23.1 -0.85 23.35 -0.35 23.75 -0.15 24.15 0.1 24.7 0.1 25.55 0.1 26.15 -0.35
L 26.1 -0.75 25.5 -0.4 24.75 -0.25
Q 24.4 -0.25 24 -0.45 23.7 -0.65 23.5 -1 23.3 -1.35 23.3 -1.75
L 26.35 -1.75 26.35 -1.95
Q 26.35 -2.5 26.15 -2.85 26 -3.25 25.6 -3.5 25.1 -3.75 24.65 -3.75
M 23.95 -3.2
Q 24.2 -3.4 24.65 -3.4 25.2 -3.4 25.55 -3.05 25.95 -2.65 25.95 -2.1
L 23.3 -2.1
Q 23.3 -2.4 23.45 -2.7 23.55 -2.9 23.95 -3.2 Z"/>
</g>

<g id="IT_160x600_FR_psd_Asset_9_V9_3___apaiser_les__sources__d_irritation__fr_quentes__pour_les__ent_0_Layer0_0_MEMBER_7_FILL">
<path fill="#D82C26" stroke="none" d="
M 28.8 -3.75
Q 28.5 -3.75 28.15 -3.5 27.8 -3.25 27.75 -2.85
L 27.7 -2.85 27.65 -3.65 27.25 -3.65 27.3 0 27.75 0 27.75 -1.8
Q 27.75 -2.4 28 -2.9 28.3 -3.35 28.75 -3.35
L 29.1 -3.3 29.2 -3.7 28.8 -3.75 Z"/>
</g>

<g id="IT_160x600_FR_psd_Asset_9_V9_3___apaiser_les__sources__d_irritation__fr_quentes__pour_les__ent_0_Layer0_0_MEMBER_8_FILL">
<path fill="#D82C26" stroke="none" d="
M 31.15 -0.8
Q 31.15 -0.45 31.35 -0.25
L 31.75 0.1 31.95 -0.3 31.7 -0.5 31.65 -0.9 31.65 -5.9 31.15 -5.85 31.15 -0.8 Z"/>
</g>

<g id="IT_160x600_FR_psd_Asset_9_V9_3___apaiser_les__sources__d_irritation__fr_quentes__pour_les__ent_0_Layer0_0_MEMBER_9_FILL">
<path fill="#D82C26" stroke="none" d="
M 35.3 -3.5
Q 34.9 -3.75 34.35 -3.75 33.85 -3.75 33.45 -3.5 33.1 -3.3 32.8 -2.85 32.55 -2.35 32.55 -1.85 32.55 -1.35 32.8 -0.85 33 -0.4 33.45 -0.15 33.85 0.1 34.4 0.1 35.25 0.1 35.85 -0.35
L 35.8 -0.75
Q 35.6 -0.55 35.2 -0.4
L 34.45 -0.25
Q 34.2 -0.25 33.7 -0.45 33.35 -0.7 33.2 -1 33 -1.35 33 -1.75
L 36.1 -1.75 36.1 -1.95
Q 36.1 -2.35 35.9 -2.85 35.7 -3.25 35.3 -3.5
M 33.65 -3.2
Q 33.9 -3.4 34.35 -3.4 34.85 -3.4 35.3 -3.05 35.65 -2.6 35.65 -2.1
L 33 -2.1
Q 33 -2.3 33.2 -2.7 33.35 -2.95 33.65 -3.2 Z"/>
</g>

<g id="IT_160x600_FR_psd_Asset_9_V9_3___apaiser_les__sources__d_irritation__fr_quentes__pour_les__ent_0_Layer0_0_MEMBER_10_FILL">
<path fill="#D82C26" stroke="none" d="
M 38.65 -3.65
L 38 -3.75 37.4 -3.65
Q 37.1 -3.5 36.95 -3.3 36.8 -3.05 36.8 -2.75 36.8 -2.3 37.05 -2.1 37.2 -1.95 37.8 -1.7
L 38.6 -1.4
Q 38.8 -1.2 38.8 -0.95 38.8 -0.55 38.55 -0.45 38.35 -0.25 38 -0.25 37.25 -0.25 36.8 -0.7
L 36.7 -0.3 37.25 0 38 0.1 38.6 0
Q 38.95 -0.15 39.05 -0.4 39.25 -0.6 39.25 -0.95 39.25 -1.35 39 -1.6
L 37.4 -2.35
Q 37.2 -2.5 37.2 -2.75 37.2 -3.1 37.45 -3.25 37.7 -3.4 38 -3.4
L 38.5 -3.3 38.95 -3.05 39.15 -3.35 38.65 -3.65 Z"/>
</g>

<g id="IT_160x600_FR_psd_Asset_9_V9_3___apaiser_les__sources__d_irritation__fr_quentes__pour_les__ent_0_Layer0_0_MEMBER_11_FILL">
<path fill="#D82C26" stroke="none" d="
M 1.7 5.8
Q 1.3 5.8 1.1 5.9 0.95 5.95 0.65 6.25 0.5 6.5 0.5 6.8 0.5 7.15 0.75 7.4 1 7.65 1.55 7.8 1.95 7.9 2.3 8.15 2.55 8.3 2.55 8.6 2.55 8.85 2.3 9.1 2 9.3 1.7 9.3 1.05 9.3 0.5 8.85
L 0.45 9.25
Q 0.65 9.45 1 9.5 1.3 9.65 1.75 9.65 2.05 9.65 2.35 9.5 2.65 9.4 2.8 9.15 2.95 8.95 2.95 8.6 2.95 8.15 2.7 7.95 2.5 7.75 1.85 7.5 1.3 7.35 1.15 7.2 0.9 7.05 0.9 6.75 0.9 6.45 1.15 6.3 1.4 6.15 1.7 6.15
L 2.25 6.25 2.65 6.5 2.85 6.15 2.35 5.9
Q 2.15 5.8 1.7 5.8 Z"/>
</g>

<g id="IT_160x600_FR_psd_Asset_9_V9_3___apaiser_les__sources__d_irritation__fr_quentes__pour_les__ent_0_Layer0_0_MEMBER_12_FILL">
<path fill="#D82C26" stroke="none" d="
M 6.5 6.05
Q 6.15 5.8 5.5 5.8 4.95 5.8 4.55 6.05 4.05 6.3 3.85 6.7 3.6 7.1 3.6 7.7 3.6 8.35 3.85 8.7 4.1 9.15 4.55 9.4 5.05 9.65 5.5 9.65 6 9.65 6.5 9.4 6.95 9.15 7.2 8.7 7.45 8.35 7.45 7.7 7.45 7.1 7.2 6.7 7 6.3 6.5 6.05
M 4.25 6.95
Q 4.4 6.55 4.75 6.35 5.15 6.15 5.5 6.15 5.9 6.15 6.3 6.35 6.65 6.55 6.8 6.95 7 7.2 7 7.7 7 8.15 6.85 8.5 6.55 8.9 6.3 9.05 6.05 9.25 5.5 9.25 5 9.25 4.75 9.05 4.45 8.85 4.25 8.5 4.05 8.15 4.05 7.7 4.05 7.2 4.25 6.95 Z"/>
</g>

<g id="IT_160x600_FR_psd_Asset_9_V9_3___apaiser_les__sources__d_irritation__fr_quentes__pour_les__ent_0_Layer0_0_MEMBER_13_FILL">
<path fill="#D82C26" stroke="none" d="
M 11.45 5.9
L 11 5.9 11 7.7
Q 11 8.2 10.85 8.55 10.75 8.85 10.4 9.1 10.1 9.25 9.8 9.25 9.2 9.25 9 8.9 8.8 8.55 8.8 8
L 8.8 5.9 8.35 5.9 8.35 8.1
Q 8.35 8.75 8.65 9.2 9.05 9.65 9.65 9.65 10.05 9.65 10.45 9.4 10.85 9.15 11 8.75
L 11.05 9.55 11.5 9.55 11.45 9.1 11.45 5.9 Z"/>
</g>

<g id="IT_160x600_FR_psd_Asset_9_V9_3___apaiser_les__sources__d_irritation__fr_quentes__pour_les__ent_0_Layer0_0_MEMBER_14_FILL">
<path fill="#D82C26" stroke="none" d="
M 13.05 5.9
L 12.6 5.9 12.65 9.55 13.1 9.55 13.1 7.7
Q 13.1 7.15 13.35 6.65 13.65 6.2 14.1 6.2
L 14.45 6.25 14.55 5.85 14.15 5.8
Q 13.75 5.8 13.5 6.05 13.25 6.25 13.1 6.7
L 13.05 6.7 13.05 5.9 Z"/>
</g>

<g id="IT_160x600_FR_psd_Asset_9_V9_3___apaiser_les__sources__d_irritation__fr_quentes__pour_les__ent_0_Layer0_0_MEMBER_15_FILL">
<path fill="#D82C26" stroke="none" d="
M 16.65 5.8
Q 16.05 5.8 15.65 6.05 15.35 6.2 14.95 6.7 14.7 7.2 14.7 7.7 14.7 8.2 14.95 8.7 15.3 9.25 15.65 9.4 16.15 9.65 16.6 9.65 17 9.65 17.3 9.5 17.6 9.45 17.85 9.2
L 17.8 8.8 17.3 9.15 16.65 9.25
Q 16.15 9.25 15.9 9.05 15.65 8.9 15.35 8.5 15.2 8.15 15.2 7.7
L 15.35 6.95
Q 15.6 6.5 15.9 6.4 16.25 6.15 16.65 6.15
L 17.2 6.25 17.7 6.55 17.85 6.2 17.3 5.9
Q 17.1 5.8 16.65 5.8 Z"/>
</g>

<g id="IT_160x600_FR_psd_Asset_9_V9_3___apaiser_les__sources__d_irritation__fr_quentes__pour_les__ent_0_Layer0_0_MEMBER_16_FILL">
<path fill="#D82C26" stroke="none" d="
M 21.65 6.65
Q 21.45 6.3 21.05 6 20.65 5.8 20.1 5.8 19.5 5.8 19.2 6.05 18.75 6.25 18.55 6.7 18.3 7.1 18.3 7.7 18.3 8.35 18.55 8.7 18.8 9.2 19.2 9.4 19.7 9.65 20.15 9.65 21 9.65 21.6 9.2
L 21.55 8.8 20.95 9.15 20.2 9.25
Q 19.7 9.25 19.45 9.05 19.1 8.9 18.95 8.55 18.75 8.2 18.75 7.8
L 21.8 7.8 21.85 7.6
Q 21.85 7.25 21.65 6.65
M 21.05 6.5
Q 21.4 6.95 21.4 7.45
L 18.75 7.45
Q 18.75 7.15 18.9 6.85 19 6.65 19.4 6.35 19.65 6.15 20.1 6.15 20.7 6.15 21.05 6.5 Z"/>
</g>

<g id="IT_160x600_FR_psd_Asset_9_V9_3___apaiser_les__sources__d_irritation__fr_quentes__pour_les__ent_0_Layer0_0_MEMBER_17_FILL">
<path fill="#D82C26" stroke="none" d="
M 23.7 5.8
Q 23.3 5.8 23.15 5.9 22.9 5.95 22.7 6.25 22.5 6.45 22.5 6.8 22.5 7.15 22.75 7.4 23.1 7.7 23.55 7.8 23.95 7.9 24.3 8.15 24.55 8.3 24.55 8.6 24.55 8.85 24.3 9.1 24 9.3 23.75 9.3 23.05 9.3 22.5 8.85
L 22.45 9.25 23 9.5 23.75 9.65
Q 24.05 9.65 24.35 9.5 24.6 9.45 24.8 9.15 25 8.95 25 8.6 25 8.2 24.7 7.95 24.55 7.75 23.85 7.5
L 23.15 7.2
Q 22.95 7.05 22.95 6.75 22.95 6.45 23.15 6.3 23.4 6.15 23.75 6.15
L 24.25 6.25 24.7 6.5 24.9 6.15 24.35 5.9
Q 24.15 5.8 23.7 5.8 Z"/>
</g>

<g id="IT_160x600_FR_psd_Asset_9_V9_3___apaiser_les__sources__d_irritation__fr_quentes__pour_les__ent_0_Layer0_0_MEMBER_18_FILL">
<path fill="#D82C26" stroke="none" d="
M 4.2 13.1
L 3.75 13.2 3.75 16.2
Q 3.45 15.75 3.1 15.55 2.7 15.3 2.25 15.3 1.8 15.3 1.3 15.55 0.8 15.95 0.65 16.25 0.45 16.65 0.45 17.25 0.45 17.85 0.65 18.2 0.85 18.65 1.3 18.9 1.7 19.15 2.25 19.15 2.75 19.15 3.15 18.95 3.5 18.75 3.75 18.25
L 3.8 19.05 4.25 19.05 4.2 13.1
M 1.55 15.9
Q 1.9 15.7 2.3 15.7 2.8 15.7 3.05 15.9 3.3 16.05 3.6 16.45 3.75 16.85 3.75 17.25 3.75 17.7 3.6 18 3.35 18.45 3.05 18.55 2.7 18.8 2.3 18.8 2.05 18.8 1.55 18.6 1.3 18.4 1.05 18 0.9 17.7 0.9 17.25 0.9 16.85 1.05 16.45
L 1.55 15.9 Z"/>
</g>

<g id="IT_160x600_FR_psd_Asset_9_V9_3___apaiser_les__sources__d_irritation__fr_quentes__pour_les__ent_0_Layer0_0_MEMBER_19_FILL">
<path fill="#D82C26" stroke="none" d="
M 6.05 13.7
Q 6 13.55 5.8 13.55
L 5.55 13.65 5.45 13.9 5.55 14.15 5.8 14.25 5.6 14.75
Q 5.45 15.1 5.25 15.2
L 5.45 15.3
Q 6.15 14.7 6.15 14
L 6.05 13.7 Z"/>
</g>

<g id="IT_160x600_FR_psd_Asset_9_V9_3___apaiser_les__sources__d_irritation__fr_quentes__pour_les__ent_0_Layer0_0_MEMBER_20_FILL">
<path fill="#D82C26" stroke="none" d="
M 7.8 15.45
L 7.35 15.45 7.35 19.05 7.8 19.05 7.8 15.45
M 7.9 13.95
L 7.8 13.75
Q 7.75 13.65 7.55 13.65 7.4 13.65 7.35 13.75
L 7.25 13.95 7.35 14.2 7.55 14.3 7.8 14.2 7.9 13.95 Z"/>
</g>

<g id="IT_160x600_FR_psd_Asset_9_V9_3___apaiser_les__sources__d_irritation__fr_quentes__pour_les__ent_0_Layer0_0_MEMBER_21_FILL">
<path fill="#D82C26" stroke="none" d="
M 9.45 17.25
Q 9.45 16.65 9.7 16.15 10 15.7 10.45 15.7
L 10.8 15.8 10.9 15.4 10.5 15.3
Q 10.2 15.3 9.85 15.55 9.55 15.8 9.45 16.2
L 9.4 16.2 9.35 15.45 8.95 15.45 9 19.05 9.45 19.05 9.45 17.25 Z"/>
</g>

<g id="IT_160x600_FR_psd_Asset_9_V9_3___apaiser_les__sources__d_irritation__fr_quentes__pour_les__ent_0_Layer0_0_MEMBER_22_FILL">
<path fill="#D82C26" stroke="none" d="
M 13.4 15.4
L 13.05 15.3
Q 12.75 15.3 12.4 15.55 12.15 15.75 11.95 16.2
L 11.9 15.45 11.5 15.45 11.5 19.05 12 19.05 12 17.25
Q 12 16.55 12.25 16.15 12.55 15.7 13 15.7
L 13.35 15.8 13.4 15.4 Z"/>
</g>

<g id="IT_160x600_FR_psd_Asset_9_V9_3___apaiser_les__sources__d_irritation__fr_quentes__pour_les__ent_0_Layer0_0_MEMBER_23_FILL">
<path fill="#D82C26" stroke="none" d="
M 14.5 15.45
L 14.05 15.45 14.05 19.05 14.5 19.05 14.5 15.45
M 14.5 13.75
Q 14.45 13.65 14.25 13.65 14.1 13.65 14.05 13.75 13.95 13.8 13.95 13.95 13.95 14.15 14.05 14.2
L 14.25 14.3 14.5 14.2 14.6 13.95 14.5 13.75 Z"/>
</g>

<g id="IT_160x600_FR_psd_Asset_9_V9_3___apaiser_les__sources__d_irritation__fr_quentes__pour_les__ent_0_Layer0_0_MEMBER_24_FILL">
<path fill="#D82C26" stroke="none" d="
M 17.3 15.45
L 16.3 15.45 16.3 14.4 15.8 14.55 15.8 15.45 15.25 15.45 15.15 15.8 15.85 15.8 15.85 18.2
Q 15.85 18.7 16.05 18.9 16.3 19.15 16.65 19.15
L 17.1 19.1 17.45 18.95 17.4 18.6
Q 17.05 18.75 16.8 18.75 16.55 18.75 16.4 18.6
L 16.3 18.1 16.3 15.8 17.2 15.8 17.3 15.45 Z"/>
</g>

<g id="IT_160x600_FR_psd_Asset_9_V9_3___apaiser_les__sources__d_irritation__fr_quentes__pour_les__ent_0_Layer0_0_MEMBER_25_FILL">
<path fill="#D82C26" stroke="none" d="
M 20.45 16.65
L 20.45 16.9 20 16.9
Q 17.9 16.9 17.9 18.1 17.9 18.6 18.25 18.9 18.6 19.15 19.05 19.15 19.55 19.15 19.9 18.95 20.25 18.75 20.4 18.35
L 20.45 18.35 20.45 18.75 20.5 19.05 20.9 19.05 20.85 16.7
Q 20.85 16 20.5 15.65 20.05 15.3 19.45 15.3
L 18.7 15.45 18.1 15.75 18.25 16.15 18.8 15.8
Q 19 15.7 19.4 15.7 19.9 15.7 20.15 15.95 20.45 16.2 20.45 16.65
M 20.45 17.55
Q 20.45 17.85 20.3 18.15 20.15 18.4 19.85 18.65 19.55 18.8 19.15 18.8 18.85 18.8 18.6 18.65 18.35 18.45 18.35 18.05 18.35 17.2 20.05 17.2
L 20.45 17.2 20.45 17.55 Z"/>
</g>

<g id="IT_160x600_FR_psd_Asset_9_V9_3___apaiser_les__sources__d_irritation__fr_quentes__pour_les__ent_0_Layer0_0_MEMBER_26_FILL">
<path fill="#D82C26" stroke="none" d="
M 22.5 15.45
L 22.5 14.4 22.05 14.55 22.05 15.45 21.5 15.45 21.4 15.8 22.05 15.8 22.05 18.2
Q 22.05 18.65 22.3 18.9 22.55 19.15 22.9 19.15
L 23.35 19.1 23.7 18.95 23.65 18.6 23.05 18.75
Q 22.8 18.75 22.65 18.6 22.5 18.45 22.5 18.1
L 22.5 15.8 23.45 15.8 23.55 15.45 22.5 15.45 Z"/>
</g>

<g id="IT_160x600_FR_psd_Asset_9_V9_3___apaiser_les__sources__d_irritation__fr_quentes__pour_les__ent_0_Layer0_0_MEMBER_27_FILL">
<path fill="#D82C26" stroke="none" d="
M 24.8 15.45
L 24.35 15.45 24.35 19.05 24.8 19.05 24.8 15.45
M 24.8 13.75
Q 24.75 13.65 24.55 13.65 24.4 13.65 24.35 13.75
L 24.25 13.95 24.35 14.2 24.55 14.3 24.8 14.2 24.9 13.95 24.8 13.75 Z"/>
</g>

<g id="IT_160x600_FR_psd_Asset_9_V9_3___apaiser_les__sources__d_irritation__fr_quentes__pour_les__ent_0_Layer0_0_MEMBER_28_FILL">
<path fill="#D82C26" stroke="none" d="
M 25.95 16.25
Q 25.7 16.75 25.7 17.25 25.7 17.75 25.95 18.25 26.25 18.7 26.65 18.9 27.05 19.15 27.65 19.15 28.3 19.15 28.65 18.9 29.05 18.7 29.35 18.25 29.6 17.75 29.6 17.25 29.6 16.75 29.35 16.25 29 15.75 28.65 15.55 28.15 15.3 27.65 15.3 27.15 15.3 26.65 15.55 26.3 15.75 25.95 16.25
M 26.85 15.9
Q 27.2 15.7 27.65 15.7 28.15 15.7 28.4 15.9 28.65 16.05 28.95 16.45 29.15 16.95 29.15 17.25 29.15 17.6 28.95 18 28.8 18.4 28.45 18.55 28.05 18.8 27.65 18.8 27.25 18.8 26.85 18.55 26.5 18.4 26.35 18 26.15 17.6 26.15 17.25 26.15 16.95 26.35 16.45 26.5 16.15 26.85 15.9 Z"/>
</g>

<g id="IT_160x600_FR_psd_Asset_9_V9_3___apaiser_les__sources__d_irritation__fr_quentes__pour_les__ent_0_Layer0_0_MEMBER_29_FILL">
<path fill="#D82C26" stroke="none" d="
M 30.9 15.45
L 30.45 15.45 30.5 19.05 30.95 19.05 30.95 17.2
Q 30.95 16.8 31.1 16.4 31.35 16 31.55 15.9 31.8 15.7 32.15 15.7 32.75 15.7 32.95 16.05 33.15 16.4 33.15 16.95
L 33.15 19.05 33.6 19.05 33.6 16.85
Q 33.6 16.2 33.3 15.75 32.95 15.3 32.25 15.3 31.85 15.3 31.45 15.55 31.05 15.95 30.95 16.2
L 30.9 15.45 Z"/>
</g>

<g id="IT_160x600_FR_psd_Asset_9_V9_3___apaiser_les__sources__d_irritation__fr_quentes__pour_les__ent_0_Layer0_0_MEMBER_30_FILL">
<path fill="#D82C26" stroke="none" d="
M 2.7 22.7
L 2.05 22.6
Q 1.55 22.6 1.2 22.95 0.9 23.25 0.9 23.9
L 0.9 24.95 0.25 24.95 0.15 25.3 0.9 25.3 0.9 28.6 1.35 28.6 1.35 25.3 2.2 25.3 2.3 24.95 1.35 24.95 1.35 23.9
Q 1.35 23.55 1.5 23.25 1.65 23 2.05 23
L 2.65 23.1 2.7 22.7 Z"/>
</g>

<g id="IT_160x600_FR_psd_Asset_9_V9_3___apaiser_les__sources__d_irritation__fr_quentes__pour_les__ent_0_Layer0_0_MEMBER_31_FILL">
<path fill="#D82C26" stroke="none" d="
M 4.45 25.25
L 4.75 25.3 4.85 24.9 4.45 24.85
Q 4.2 24.85 3.85 25.1 3.55 25.35 3.4 25.75
L 3.35 24.95 2.9 24.95 2.95 28.6 3.4 28.6 3.4 26.8
Q 3.4 26.15 3.7 25.7 3.95 25.25 4.45 25.25 Z"/>
</g>

<g id="IT_160x600_FR_psd_Asset_9_V9_3___apaiser_les__sources__d_irritation__fr_quentes__pour_les__ent_0_Layer0_0_MEMBER_32_FILL">
<path fill="#D82C26" stroke="none" d="
M 8.4 25.75
Q 8.2 25.35 7.8 25.1 7.5 24.85 6.85 24.85 6.35 24.85 5.95 25.1 5.6 25.3 5.3 25.75 5.05 26.25 5.05 26.75 5.05 27.25 5.3 27.75 5.5 28.2 5.95 28.45 6.45 28.7 6.9 28.7 7.75 28.7 8.35 28.25
L 8.3 27.85
Q 8.1 28.05 7.7 28.2
L 6.95 28.35
Q 6.7 28.35 6.2 28.15 5.85 27.9 5.7 27.6 5.5 27.25 5.5 26.85
L 8.6 26.85 8.6 26.65
Q 8.6 26.25 8.4 25.75
M 7.8 25.55
Q 8.15 26 8.15 26.5
L 5.5 26.5
Q 5.5 26.15 5.7 25.9 5.85 25.65 6.15 25.4 6.4 25.2 6.85 25.2 7.45 25.2 7.8 25.55
M 7.35 23.1
L 6.55 24.2 6.9 24.2 7.85 23.1 7.35 23.1 Z"/>
</g>

<g id="IT_160x600_FR_psd_Asset_9_V9_3___apaiser_les__sources__d_irritation__fr_quentes__pour_les__ent_0_Layer0_0_MEMBER_33_FILL">
<path fill="#D82C26" stroke="none" d="
M 12.6 24.95
L 12.6 25.75 12.55 25.75
Q 12.4 25.35 11.95 25.1 11.55 24.85 11.1 24.85 10.55 24.85 10.15 25.1 9.75 25.3 9.5 25.8 9.25 26.3 9.25 26.8 9.25 27.25 9.5 27.75 9.75 28.25 10.15 28.45 10.55 28.7 11.1 28.7 11.55 28.7 11.95 28.45 12.4 28.2 12.55 27.8
L 12.6 27.8 12.6 29.45
Q 12.6 30.3 13.35 30.45
L 13.55 30.1 13.15 29.85 13.05 29.35 13.05 24.95 12.6 24.95
M 11.9 25.45
Q 12.3 25.75 12.4 26 12.6 26.35 12.6 26.8 12.6 27.2 12.4 27.55 12.3 27.8 11.9 28.1 11.65 28.3 11.15 28.3 10.65 28.3 10.4 28.1 10 27.8 9.9 27.55
L 9.75 26.8
Q 9.75 26.4 9.9 26 10 25.75 10.4 25.45 10.65 25.25 11.15 25.25 11.65 25.25 11.9 25.45 Z"/>
</g>

<g id="IT_160x600_FR_psd_Asset_9_V9_3___apaiser_les__sources__d_irritation__fr_quentes__pour_les__ent_0_Layer0_0_MEMBER_34_FILL">
<path fill="#D82C26" stroke="none" d="
M 16.8 26.75
Q 16.8 27.25 16.65 27.6 16.55 27.9 16.2 28.15 16 28.3 15.6 28.3 15.05 28.3 14.85 27.95 14.6 27.55 14.6 27.05
L 14.6 24.95 14.15 24.95 14.15 27.15
Q 14.15 27.85 14.5 28.25 14.8 28.7 15.5 28.7 15.9 28.7 16.3 28.45 16.65 28.25 16.8 27.8
L 16.9 28.6 17.35 28.6 17.25 27.75 17.25 24.95 16.8 24.95 16.8 26.75 Z"/>
</g>

<g id="IT_160x600_FR_psd_Asset_9_V9_3___apaiser_les__sources__d_irritation__fr_quentes__pour_les__ent_0_Layer0_0_MEMBER_35_FILL">
<path fill="#D82C26" stroke="none" d="
M 18.8 27.6
L 18.65 26.85 21.7 26.85 21.7 26.65
Q 21.7 26.1 21.5 25.75 21.35 25.35 20.9 25.1 20.6 24.85 20 24.85 19.55 24.85 19.05 25.1 18.8 25.25 18.4 25.75 18.2 26.15 18.2 26.75 18.2 27.4 18.45 27.75 18.7 28.25 19.1 28.45 19.5 28.7 20.05 28.7 20.9 28.7 21.5 28.25
L 21.45 27.85 20.85 28.2 20.1 28.35
Q 19.75 28.35 19.35 28.15 19.1 28 18.8 27.6
M 19.25 25.4
Q 19.6 25.2 20 25.2 20.6 25.2 20.9 25.55 21.3 25.95 21.3 26.5
L 18.65 26.5
Q 18.65 26.2 18.8 25.9 18.95 25.65 19.25 25.4 Z"/>
</g>

<g id="IT_160x600_FR_psd_Asset_9_V9_3___apaiser_les__sources__d_irritation__fr_quentes__pour_les__ent_0_Layer0_0_MEMBER_36_FILL">
<path fill="#D82C26" stroke="none" d="
M 25.75 26.35
Q 25.75 25.7 25.4 25.3 25.1 24.85 24.4 24.85 24 24.85 23.6 25.1 23.3 25.3 23.1 25.75
L 23.05 25.75 23.05 24.95 22.6 24.95 22.65 28.6 23.1 28.6 23.1 26.75
Q 23.1 26.25 23.25 25.95 23.35 25.65 23.7 25.4 23.95 25.25 24.3 25.25 24.85 25.25 25.05 25.6 25.3 26 25.3 26.5
L 25.3 28.6 25.75 28.6 25.75 26.35 Z"/>
</g>

<g id="IT_160x600_FR_psd_Asset_9_V9_3___apaiser_les__sources__d_irritation__fr_quentes__pour_les__ent_0_Layer0_0_MEMBER_37_FILL">
<path fill="#D82C26" stroke="none" d="
M 27.4 23.9
L 26.95 24.1 26.95 24.95 26.35 24.95 26.25 25.3 26.95 25.3 26.95 27.7
Q 26.95 28.2 27.15 28.4 27.35 28.65 27.8 28.65
L 28.2 28.6 28.55 28.5 28.5 28.15
Q 28.2 28.3 27.9 28.3 27.7 28.3 27.55 28.15 27.4 28 27.4 27.65
L 27.4 25.3 28.35 25.3 28.45 24.95 27.4 24.95 27.4 23.9 Z"/>
</g>

<g id="IT_160x600_FR_psd_Asset_9_V9_3___apaiser_les__sources__d_irritation__fr_quentes__pour_les__ent_0_Layer0_0_MEMBER_38_FILL">
<path fill="#D82C26" stroke="none" d="
M 31.6 25.1
Q 31.25 24.85 30.65 24.85 30.15 24.85 29.75 25.1 29.4 25.3 29.1 25.75 28.85 26.25 28.85 26.75 28.85 27.25 29.1 27.75 29.35 28.25 29.75 28.45 30.25 28.7 30.7 28.7 31.55 28.7 32.15 28.25
L 32.1 27.85 31.5 28.2 30.75 28.35
Q 30.4 28.35 30 28.15 29.65 27.9 29.5 27.6 29.3 27.25 29.3 26.85
L 32.35 26.85 32.4 26.65
Q 32.4 26.25 32.2 25.75 32 25.35 31.6 25.1
M 31.6 25.55
Q 31.95 26 31.95 26.5
L 29.3 26.5
Q 29.3 26.2 29.45 25.9
L 29.95 25.4
Q 30.2 25.2 30.65 25.2 31.25 25.2 31.6 25.55 Z"/>
</g>

<g id="IT_160x600_FR_psd_Asset_9_V9_3___apaiser_les__sources__d_irritation__fr_quentes__pour_les__ent_0_Layer0_0_MEMBER_39_FILL">
<path fill="#D82C26" stroke="none" d="
M 34.8 25.3
L 35.25 25.55 35.45 25.25 34.9 24.95 34.25 24.85 33.7 24.95
Q 33.4 25.1 33.25 25.3 33.05 25.6 33.05 25.85 33.05 26.25 33.3 26.5 33.55 26.7 34.1 26.85
L 34.85 27.2
Q 35.1 27.45 35.1 27.65 35.1 28 34.85 28.15 34.65 28.35 34.3 28.35 33.55 28.35 33.1 27.9
L 33 28.3 33.55 28.6 34.3 28.7 34.9 28.6
Q 35.25 28.45 35.35 28.2 35.55 28 35.55 27.65 35.55 27.25 35.25 27 35.05 26.8 34.4 26.55
L 33.7 26.25
Q 33.5 26.1 33.5 25.8 33.5 25.5 33.7 25.35 33.95 25.2 34.3 25.2
L 34.8 25.3 Z"/>
</g>

<g id="IT_160x600_FR_psd_Asset_9_V9_3___apaiser_les__sources__d_irritation__fr_quentes__pour_les__ent_0_Layer0_0_MEMBER_40_FILL">
<path fill="#D82C26" stroke="none" d="
M 1.15 34.5
L 0.7 34.5 0.7 40 1.15 40 1.15 37.35 1.2 37.35
Q 1.4 37.75 1.8 38 2.2 38.25 2.65 38.25 3.2 38.25 3.6 38 4.05 37.7 4.25 37.3 4.5 36.8 4.5 36.3 4.5 35.75 4.25 35.35 4 34.85 3.6 34.65 3.3 34.4 2.65 34.4 2.15 34.4 1.8 34.6 1.4 34.95 1.2 35.3
L 1.15 35.3 1.15 34.5
M 1.35 35.55
Q 1.5 35.25 1.85 34.95 2.35 34.75 2.6 34.75 2.95 34.75 3.35 34.95 3.7 35.25 3.85 35.55 4 35.85 4 36.3 4 36.75 3.85 37.1 3.7 37.4 3.35 37.65 3.1 37.85 2.6 37.85 2.2 37.85 1.85 37.65 1.5 37.4 1.35 37.1 1.15 36.75 1.15 36.3 1.15 35.8 1.35 35.55 Z"/>
</g>

<g id="IT_160x600_FR_psd_Asset_9_V9_3___apaiser_les__sources__d_irritation__fr_quentes__pour_les__ent_0_Layer0_0_MEMBER_41_FILL">
<path fill="#D82C26" stroke="none" d="
M 5.4 35.3
Q 5.15 35.8 5.15 36.3 5.15 36.8 5.4 37.3 5.7 37.7 6.1 38 6.6 38.25 7.1 38.25 7.6 38.25 8.1 38 8.5 37.7 8.8 37.3 9.05 36.8 9.05 36.3 9.05 35.8 8.8 35.3 8.5 34.9 8.1 34.6 7.7 34.4 7.1 34.4 6.5 34.4 6.1 34.6 5.7 34.9 5.4 35.3
M 6.3 34.95
Q 6.8 34.75 7.1 34.75 7.4 34.75 7.9 34.95 8.25 35.25 8.4 35.55 8.6 35.8 8.6 36.3 8.6 36.8 8.4 37.05 8.25 37.35 7.9 37.65 7.55 37.85 7.1 37.85 6.65 37.85 6.3 37.65 5.95 37.35 5.8 37.05 5.65 36.75 5.65 36.3 5.65 35.85 5.8 35.55 5.95 35.25 6.3 34.95 Z"/>
</g>

<g id="IT_160x600_FR_psd_Asset_9_V9_3___apaiser_les__sources__d_irritation__fr_quentes__pour_les__ent_0_Layer0_0_MEMBER_42_FILL">
<path fill="#D82C26" stroke="none" d="
M 10.4 36.6
L 10.4 34.5 9.9 34.5 9.9 36.7
Q 9.9 37.3 10.25 37.8 10.55 38.25 11.25 38.25 11.65 38.25 12.05 38 12.35 37.8 12.55 37.35
L 12.65 38.15 13.1 38.15 13.05 37.7 13.05 34.5 12.55 34.5 12.55 36.3
Q 12.55 36.8 12.4 37.15 12.25 37.5 12 37.65 11.75 37.85 11.35 37.85 10.8 37.85 10.6 37.5 10.4 37.15 10.4 36.6 Z"/>
</g>

<g id="IT_160x600_FR_psd_Asset_9_V9_3___apaiser_les__sources__d_irritation__fr_quentes__pour_les__ent_0_Layer0_0_MEMBER_43_FILL">
<path fill="#D82C26" stroke="none" d="
M 14.65 36.3
Q 14.65 35.7 14.95 35.25 15.25 34.8 15.7 34.8
L 16 34.85 16.1 34.45 15.75 34.4
Q 15.35 34.4 15.1 34.6 14.8 34.95 14.65 35.3
L 14.6 34.5 14.2 34.5 14.2 38.15 14.65 38.15 14.65 36.3 Z"/>
</g>

<g id="IT_160x600_FR_psd_Asset_9_V9_3___apaiser_les__sources__d_irritation__fr_quentes__pour_les__ent_0_Layer0_0_MEMBER_44_FILL">
<path fill="#D82C26" stroke="none" d="
M 18.25 37.9
Q 18.5 38.15 18.7 38.2
L 18.9 37.85 18.65 37.6
Q 18.55 37.5 18.55 37.2
L 18.55 32.2 18.1 32.3 18.1 37.3
Q 18.1 37.7 18.25 37.9 Z"/>
</g>

<g id="IT_160x600_FR_psd_Asset_9_V9_3___apaiser_les__sources__d_irritation__fr_quentes__pour_les__ent_0_Layer0_0_MEMBER_45_FILL">
<path fill="#D82C26" stroke="none" d="
M 19.5 36.3
Q 19.5 36.95 19.75 37.3 19.95 37.7 20.4 38 20.9 38.25 21.35 38.25 22.2 38.25 22.8 37.8
L 22.75 37.4 22.15 37.75 21.4 37.85
Q 20.9 37.85 20.65 37.65 20.3 37.5 20.15 37.1 19.95 36.85 19.95 36.35
L 23 36.35 23.05 36.2
Q 23.05 35.75 22.8 35.25 22.7 34.95 22.25 34.6 21.85 34.4 21.3 34.4 20.75 34.4 20.4 34.6 19.95 34.9 19.75 35.3 19.5 35.7 19.5 36.3
M 19.95 36.05
Q 19.95 35.75 20.1 35.45 20.2 35.25 20.6 34.95 20.85 34.75 21.3 34.75 21.9 34.75 22.25 35.1 22.6 35.55 22.6 36.05
L 19.95 36.05 Z"/>
</g>

<g id="IT_160x600_FR_psd_Asset_9_V9_3___apaiser_les__sources__d_irritation__fr_quentes__pour_les__ent_0_Layer0_0_MEMBER_46_FILL">
<path fill="#D82C26" stroke="none" d="
M 24.9 34.4
Q 24.5 34.4 24.35 34.5 24.1 34.55 23.9 34.85 23.7 35.05 23.7 35.4 23.7 35.75 23.95 36 24.3 36.3 24.75 36.4 25.15 36.5 25.5 36.75 25.75 36.9 25.75 37.2 25.75 37.45 25.5 37.7 25.3 37.85 24.95 37.85 24.25 37.85 23.7 37.45
L 23.65 37.8
Q 23.85 38 24.2 38.1
L 24.95 38.25
Q 25.25 38.25 25.55 38.1 25.8 38.05 26 37.75 26.2 37.55 26.2 37.15 26.2 36.8 25.9 36.55 25.7 36.25 25.05 36.1
L 24.35 35.8
Q 24.15 35.65 24.15 35.35 24.15 35.05 24.35 34.9 24.6 34.75 24.95 34.75 25.3 34.75 25.45 34.85
L 25.9 35.1 26.1 34.75 25.55 34.5
Q 25.35 34.4 24.9 34.4 Z"/>
</g>

<g id="IT_160x600_FR_psd_Asset_9_V9_3___apaiser_les__sources__d_irritation__fr_quentes__pour_les__ent_0_Layer0_0_MEMBER_47_FILL">
<path fill="#D82C26" stroke="none" d="
M 3.75 44.8
Q 3.6 44.35 3.15 44.15 2.75 43.9 2.25 43.9 1.8 43.9 1.3 44.15 1 44.35 0.65 44.85 0.45 45.2 0.45 45.8 0.45 46.5 0.7 46.85 1 47.3 1.35 47.5 1.65 47.75 2.3 47.75 3.15 47.75 3.75 47.3
L 3.65 46.9 3.1 47.25 2.35 47.4
Q 1.85 47.4 1.6 47.2 1.25 47 1.05 46.65 0.9 46.35 0.9 45.9
L 3.95 45.9 3.95 45.7
Q 3.95 45.2 3.75 44.8
M 3.15 44.6
Q 3.45 44.9 3.55 45.55
L 0.9 45.55 1.05 45
Q 1.2 44.65 1.5 44.45 1.9 44.25 2.25 44.25 2.8 44.25 3.15 44.6 Z"/>
</g>

<g id="IT_160x600_FR_psd_Asset_9_V9_3___apaiser_les__sources__d_irritation__fr_quentes__pour_les__ent_0_Layer0_0_MEMBER_48_FILL">
<path fill="#D82C26" stroke="none" d="
M 4.85 44
L 4.9 47.65 5.35 47.65 5.35 45.8
Q 5.35 45.3 5.5 45 5.6 44.7 5.95 44.45 6.2 44.3 6.55 44.3 7.1 44.3 7.3 44.65 7.55 45.05 7.55 45.55
L 7.55 47.65 8 47.65 8 45.45
Q 8 44.75 7.65 44.35 7.35 43.9 6.65 43.9 6.25 43.9 5.85 44.15 5.55 44.35 5.35 44.8
L 5.3 44.8 5.3 44 4.85 44 Z"/>
</g>

<g id="IT_160x600_FR_psd_Asset_9_V9_3___apaiser_les__sources__d_irritation__fr_quentes__pour_les__ent_0_Layer0_0_MEMBER_49_FILL">
<path fill="#D82C26" stroke="none" d="
M 9.65 43
L 9.2 43.15 9.2 44 8.6 44 8.5 44.4 9.2 44.4 9.2 46.8
Q 9.2 47.25 9.4 47.5 9.75 47.75 10.05 47.75
L 10.45 47.7 10.8 47.55 10.75 47.2
Q 10.45 47.35 10.15 47.35 9.95 47.35 9.8 47.2 9.65 47.05 9.65 46.7
L 9.65 44.4 10.6 44.4 10.7 44 9.65 44 9.65 43 Z"/>
</g>

<g id="IT_160x600_FR_psd_Asset_9_V9_3___apaiser_les__sources__d_irritation__fr_quentes__pour_les__ent_0_Layer0_0_MEMBER_50_FILL">
<path fill="#D82C26" stroke="none" d="
M 13.4 44
L 13 43.9
Q 12.7 43.9 12.35 44.15 12.05 44.4 11.95 44.8
L 11.9 44.8 11.85 44 11.45 44 11.5 47.65 11.95 47.65 11.95 45.85
Q 11.95 45.25 12.2 44.75 12.5 44.3 12.95 44.3
L 13.3 44.35 13.4 44 Z"/>
</g>

<g id="IT_160x600_FR_psd_Asset_9_V9_3___apaiser_les__sources__d_irritation__fr_quentes__pour_les__ent_0_Layer0_0_MEMBER_51_FILL">
<path fill="#D82C26" stroke="none" d="
M 13.8 46.85
Q 14.2 47.35 14.5 47.5 14.8 47.75 15.45 47.75 16.3 47.75 16.9 47.3
L 16.8 46.9
Q 16.6 47.1 16.2 47.25 15.9 47.4 15.5 47.4 15 47.4 14.75 47.2 14.4 47 14.2 46.65 14 46.25 14 45.9
L 17.1 45.9 17.1 45.7
Q 17.1 45.2 16.9 44.8 16.65 44.35 16.3 44.15 15.9 43.9 15.4 43.9 14.95 43.9 14.45 44.15 14 44.4 13.8 44.85 13.6 45.2 13.6 45.8 13.6 46.45 13.8 46.85
M 14.2 45
Q 14.35 44.65 14.65 44.45 15.05 44.25 15.4 44.25 15.95 44.25 16.3 44.6 16.65 44.95 16.65 45.55
L 14.05 45.55 14.2 45 Z"/>
</g>

<g id="IT_160x600_FR_psd_Asset_9_V9_3___apaiser_les__sources__d_irritation__fr_quentes__pour_les__ent_0_Layer0_0_MEMBER_52_FILL">
<path fill="#D82C26" stroke="none" d="
M 19.95 43.9
Q 19.5 43.9 19.1 44.15 18.65 44.4 18.5 44.8
L 18.45 44.8 18.45 44 18 44 18 49.5 18.45 49.5 18.45 46.9 18.5 46.9
Q 18.7 47.25 19.1 47.55 19.45 47.75 19.95 47.75 20.6 47.75 20.9 47.5 21.3 47.3 21.55 46.8 21.8 46.3 21.8 45.85 21.8 45.35 21.55 44.85 21.35 44.45 20.9 44.15 20.5 43.9 19.95 43.9
M 19.15 44.5
Q 19.5 44.3 19.9 44.3 20.4 44.3 20.65 44.5 21 44.75 21.15 45.05 21.3 45.45 21.3 45.85 21.3 46.3 21.15 46.6 21 47 20.65 47.15 20.3 47.4 19.9 47.4 19.55 47.4 19.15 47.15 18.8 47 18.65 46.6 18.45 46.35 18.45 45.85 18.45 45.4 18.65 45.05 18.8 44.75 19.15 44.5 Z"/>
</g>

<g id="IT_160x600_FR_psd_Asset_9_V9_3___apaiser_les__sources__d_irritation__fr_quentes__pour_les__ent_0_Layer0_0_MEMBER_53_FILL">
<path fill="#D82C26" stroke="none" d="
M 23.15 44.8
L 23.1 44 22.65 44 22.7 47.65 23.15 47.65 23.15 45.85
Q 23.15 45.2 23.45 44.75 23.75 44.3 24.2 44.3
L 24.5 44.35 24.6 44 24.25 43.9
Q 23.95 43.9 23.6 44.15 23.35 44.35 23.15 44.8 Z"/>
</g>

<g id="IT_160x600_FR_psd_Asset_9_V9_3___apaiser_les__sources__d_irritation__fr_quentes__pour_les__ent_0_Layer0_0_MEMBER_54_FILL">
<path fill="#D82C26" stroke="none" d="
M 25.25 44
L 25.25 47.65 25.7 47.65 25.7 44 25.25 44
M 25.45 42.9
L 25.7 42.8 25.8 42.55 25.7 42.35
Q 25.6 42.25 25.45 42.25 25.3 42.25 25.25 42.35 25.15 42.4 25.15 42.55 25.15 42.75 25.25 42.8
L 25.45 42.9 Z"/>
</g>

<g id="IT_160x600_FR_psd_Asset_9_V9_3___apaiser_les__sources__d_irritation__fr_quentes__pour_les__ent_0_Layer0_0_MEMBER_55_FILL">
<path fill="#D82C26" stroke="none" d="
M 28.5 44
L 27.85 43.9 27.25 44
Q 26.95 44.15 26.8 44.35 26.65 44.6 26.65 44.9 26.65 45.35 26.9 45.55 27.05 45.7 27.65 45.95 28.2 46.1 28.4 46.3 28.65 46.45 28.65 46.7 28.65 47.1 28.4 47.2 28.2 47.4 27.85 47.4 27.1 47.4 26.65 46.95
L 26.55 47.35
Q 26.6 47.4 27.1 47.65
L 27.85 47.75 28.45 47.65
Q 28.8 47.5 28.9 47.3 29.1 47.05 29.1 46.7 29.1 46.3 28.8 46.05 28.55 45.8 28 45.65
L 27.25 45.3
Q 27.05 45.15 27.05 44.9 27.05 44.6 27.3 44.45 27.5 44.25 27.85 44.25
L 28.35 44.35 28.8 44.65 29 44.3 28.5 44 Z"/>
</g>

<g id="IT_160x600_FR_psd_Asset_9_V9_3___apaiser_les__sources__d_irritation__fr_quentes__pour_les__ent_0_Layer0_0_MEMBER_56_FILL">
<path fill="#D82C26" stroke="none" d="
M 29.7 45.8
Q 29.7 46.35 29.95 46.85 30.2 47.25 30.6 47.5 31 47.75 31.6 47.75 32.45 47.75 33.05 47.3
L 32.95 46.9
Q 32.75 47.1 32.35 47.25 32.05 47.4 31.6 47.4 31.2 47.4 30.85 47.2 30.55 46.95 30.35 46.65 30.15 46.25 30.15 45.9
L 33.25 45.9 33.25 45.7
Q 33.25 45.2 33.05 44.8 32.8 44.35 32.45 44.15 32.05 43.9 31.5 43.9 31.1 43.9 30.6 44.15 30.15 44.4 29.95 44.85 29.7 45.25 29.7 45.8
M 30.15 45.55
L 30.35 45
Q 30.5 44.65 30.8 44.45 31.2 44.25 31.5 44.25 32 44.25 32.45 44.6 32.8 44.95 32.8 45.55
L 30.15 45.55 Z"/>
</g>

<g id="IT_160x600_FR_psd_Asset_9_V9_3___apaiser_les__sources__d_irritation__fr_quentes__pour_les__ent_0_Layer0_0_MEMBER_57_FILL">
<path fill="#D82C26" stroke="none" d="
M 35.15 43.9
L 34.55 44 34.1 44.35
Q 33.95 44.6 33.95 44.9 33.95 45.35 34.2 45.55 34.25 45.6 34.95 45.95 35.6 46.15 35.75 46.3 35.95 46.45 35.95 46.7 35.95 47.05 35.75 47.2 35.5 47.4 35.15 47.4 34.5 47.4 33.95 46.95
L 33.85 47.35
Q 33.95 47.45 34.45 47.65
L 35.15 47.75 35.8 47.65 36.25 47.3
Q 36.4 47 36.4 46.7 36.4 46.3 36.15 46.05 35.8 45.8 35.3 45.65
L 34.55 45.3
Q 34.35 45.1 34.35 44.9 34.35 44.6 34.6 44.45 34.8 44.25 35.15 44.25
L 35.7 44.35 36.1 44.65 36.3 44.3 35.8 44 35.15 43.9 Z"/>
</g>

<g id="IT_160x600_FR_psd_Asset_9_V9_3___apaiser_les__sources__d_irritation__fr_quentes__pour_les__ent_0_Layer0_0_MEMBER_58_FILL">
<path fill="#D82C26" stroke="none" d="
M 0.7 54.4
Q 0.45 54.7 0.45 55.35 0.45 56.05 0.7 56.35 0.95 56.85 1.35 57.05 1.85 57.3 2.35 57.3
L 3.05 57.2 3.6 56.85 3.5 56.5 3 56.8 2.35 56.9
Q 1.85 56.9 1.6 56.7 1.2 56.4 1.1 56.15 0.9 55.8 0.9 55.35 0.9 54.95 1.1 54.6 1.2 54.35 1.6 54.05 1.85 53.85 2.35 53.85 2.75 53.85 2.9 53.95
L 3.4 54.2 3.6 53.85 3.05 53.55 2.35 53.45
Q 1.75 53.45 1.35 53.7 0.9 53.95 0.7 54.4 Z"/>
</g>

<g id="IT_160x600_FR_psd_Asset_9_V9_3___apaiser_les__sources__d_irritation__fr_quentes__pour_les__ent_0_Layer0_0_MEMBER_59_FILL">
<path fill="#D82C26" stroke="none" d="
M 6.65 55
L 6.2 55
Q 4.15 55 4.15 56.2 4.15 56.8 4.45 57 4.85 57.3 5.3 57.3 5.6 57.3 6.1 57.1 6.5 56.85 6.65 56.5
L 6.7 56.85 6.7 57.2 7.15 57.2 7.1 54.85
Q 7.1 54.1 6.7 53.8 6.35 53.45 5.7 53.45
L 4.95 53.55
Q 4.55 53.7 4.35 53.9
L 4.45 54.25
Q 4.85 54 5 53.95 5.3 53.8 5.6 53.8 6.1 53.8 6.35 54.05 6.65 54.35 6.65 54.8
L 6.65 55
M 6.25 55.3
L 6.65 55.3 6.65 55.7
Q 6.65 56.05 6.5 56.25 6.35 56.6 6.1 56.75 5.85 56.95 5.4 56.95 5 56.95 4.8 56.75 4.55 56.6 4.55 56.2 4.55 55.3 6.25 55.3 Z"/>
</g>

<g id="IT_160x600_FR_psd_Asset_9_V9_3___apaiser_les__sources__d_irritation__fr_quentes__pour_les__ent_0_Layer0_0_MEMBER_60_FILL">
<path fill="#D82C26" stroke="none" d="
M 11.3 54.95
Q 11.3 54.3 11 53.9 10.65 53.45 9.95 53.45 9.55 53.45 9.15 53.7 8.75 54 8.65 54.35
L 8.6 53.55 8.15 53.55 8.2 57.2 8.65 57.2 8.65 55.35
Q 8.65 54.85 8.8 54.55
L 9.25 54
Q 9.55 53.85 9.9 53.85 10.45 53.85 10.65 54.2 10.85 54.55 10.85 55.1
L 10.85 57.2 11.3 57.2 11.3 54.95 Z"/>
</g>

<g id="IT_160x600_FR_psd_Asset_9_V9_3___apaiser_les__sources__d_irritation__fr_quentes__pour_les__ent_0_Layer0_0_MEMBER_61_FILL">
<path fill="#D82C26" stroke="none" d="
M 12.4 53.9
L 12.5 54.25
Q 12.9 54 13.05 53.95 13.35 53.8 13.7 53.8 14.1 53.8 14.45 54.05 14.7 54.4 14.7 54.8
L 14.7 55 14.25 55
Q 12.2 55 12.2 56.2 12.2 56.8 12.55 57 12.85 57.3 13.35 57.3 13.65 57.3 14.15 57.1 14.55 56.85 14.7 56.5
L 14.8 57.2 15.2 57.2 15.15 54.85
Q 15.15 54.1 14.75 53.8 14.4 53.45 13.75 53.45
L 13 53.55
Q 12.6 53.7 12.4 53.9
M 14.35 55.3
L 14.7 55.3 14.7 55.7
Q 14.7 56.05 14.55 56.25 14.4 56.6 14.15 56.75 13.9 56.95 13.45 56.95 13.05 56.95 12.85 56.75 12.6 56.6 12.6 56.2 12.6 55.3 14.35 55.3 Z"/>
</g>

<g id="IT_160x600_FR_psd_Asset_9_V9_3___apaiser_les__sources__d_irritation__fr_quentes__pour_les__ent_0_Layer0_0_MEMBER_62_FILL">
<path fill="#D82C26" stroke="none" d="
M 19.8 51.25
L 19.35 51.3 19.35 54.35 19.3 54.35
Q 19.1 53.95 18.7 53.7 18.4 53.45 17.85 53.45 17.3 53.45 16.9 53.7 16.5 53.9 16.25 54.4 16 54.9 16 55.35 16 55.85 16.25 56.35 16.45 56.75 16.9 57.05 17.3 57.3 17.85 57.3 18.3 57.3 18.7 57.05 19.15 56.75 19.35 56.4
L 19.4 57.2 19.8 57.2 19.8 51.25
M 16.65 54.6
Q 16.75 54.35 17.15 54.05 17.4 53.85 17.9 53.85 18.3 53.85 18.65 54.05 19.05 54.35 19.15 54.6 19.35 54.95 19.35 55.35 19.35 55.8 19.15 56.15 19.05 56.4 18.65 56.7 18.3 56.9 17.9 56.9 17.4 56.9 17.15 56.7 16.75 56.4 16.65 56.15 16.45 55.65 16.45 55.35 16.45 55.1 16.65 54.6 Z"/>
</g>

<g id="IT_160x600_FR_psd_Asset_9_V9_3___apaiser_les__sources__d_irritation__fr_quentes__pour_les__ent_0_Layer0_0_MEMBER_63_FILL">
<path fill="#D82C26" stroke="none" d="
M 21.4 53.55
L 20.95 53.55 20.95 57.2 21.4 57.2 21.4 53.55
M 20.95 52.35
L 21.15 52.45 21.4 52.35 21.5 52.1 21.4 51.85 21.15 51.75 20.95 51.85 20.85 52.1 20.95 52.35 Z"/>
</g>

<g id="IT_160x600_FR_psd_Asset_9_V9_3___apaiser_les__sources__d_irritation__fr_quentes__pour_les__ent_0_Layer0_0_MEMBER_64_FILL">
<path fill="#D82C26" stroke="none" d="
M 25.85 55.25
Q 25.85 54.7 25.65 54.35 25.45 53.95 25.05 53.7 24.75 53.45 24.1 53.45 23.6 53.45 23.2 53.7 22.75 54 22.55 54.35 22.3 54.85 22.3 55.35 22.3 55.85 22.55 56.35 22.75 56.8 23.2 57.05 23.7 57.3 24.2 57.3 25.05 57.3 25.65 56.85
L 25.55 56.45
Q 25.35 56.65 24.95 56.8 24.65 56.95 24.2 56.95 23.85 56.95 23.45 56.7 23.25 56.6 22.95 56.2 22.75 55.7 22.75 55.45
L 25.85 55.45 25.85 55.25
M 24.1 53.8
Q 24.7 53.8 25.05 54.15 25.4 54.5 25.4 55.1
L 22.75 55.1 22.95 54.5
Q 23.1 54.25 23.4 54 23.65 53.8 24.1 53.8 Z"/>
</g>

<g id="IT_160x600_FR_psd_Asset_9_V9_3___apaiser_les__sources__d_irritation__fr_quentes__pour_les__ent_0_Layer0_0_MEMBER_65_FILL">
<path fill="#D82C26" stroke="none" d="
M 27.15 53.55
L 26.75 53.55 26.75 57.2 27.2 57.2 27.2 55.35
Q 27.2 54.95 27.4 54.55 27.5 54.3 27.8 54 28.1 53.85 28.45 53.85 29 53.85 29.2 54.2 29.4 54.55 29.4 55.1
L 29.4 57.2 29.9 57.2 29.9 54.95
Q 29.9 54.35 29.55 53.9 29.25 53.45 28.55 53.45 28.1 53.45 27.75 53.7 27.35 53.95 27.2 54.35
L 27.15 53.55 Z"/>
</g>

<g id="IT_160x600_FR_psd_Asset_9_V9_3___apaiser_les__sources__d_irritation__fr_quentes__pour_les__ent_0_Layer0_0_MEMBER_66_FILL">
<path fill="#D82C26" stroke="none" d="
M 31.4 53.55
L 31 53.55 31 57.2 31.45 57.2 31.45 55.35
Q 31.45 54.8 31.65 54.55 31.75 54.3 32.05 54 32.35 53.85 32.7 53.85 33.25 53.85 33.45 54.2 33.65 54.55 33.65 55.1
L 33.65 57.2 34.1 57.2 34.1 54.95
Q 34.1 54.3 33.8 53.9 33.45 53.45 32.75 53.45 32.35 53.45 32 53.7 31.6 53.95 31.45 54.35
L 31.4 53.55 Z"/>
</g>

<g id="IT_160x600_FR_psd_Asset_9_V9_3___apaiser_les__sources__d_irritation__fr_quentes__pour_les__ent_0_Layer0_0_MEMBER_67_FILL">
<path fill="#D82C26" stroke="none" d="
M 37.75 53.7
Q 37.45 53.45 36.8 53.45 36.3 53.45 35.9 53.7 35.45 54 35.25 54.35 35 54.85 35 55.35 35 55.85 35.25 56.35 35.45 56.8 35.9 57.05 36.4 57.3 36.9 57.3 37.75 57.3 38.35 56.85
L 38.25 56.45
Q 38.05 56.65 37.65 56.8 37.35 56.95 36.9 56.95 36.55 56.95 36.15 56.7 35.95 56.6 35.65 56.2 35.45 55.7 35.45 55.45
L 38.55 55.45 38.55 55.25
Q 38.55 54.7 38.35 54.35 38.15 53.95 37.75 53.7
M 36.8 53.8
Q 37.4 53.8 37.75 54.15 38.1 54.5 38.1 55.1
L 35.45 55.1 35.65 54.5
Q 35.8 54.25 36.1 54 36.35 53.8 36.8 53.8 Z"/>
</g>

<g id="IT_160x600_FR_psd_Asset_9_V9_3___apaiser_les__sources__d_irritation__fr_quentes__pour_les__ent_0_Layer0_0_MEMBER_68_FILL">
<path fill="#D82C26" stroke="none" d="
M 39.85 54.85
Q 39.65 54.65 39.65 54.4 39.65 54.1 39.9 53.95 40.15 53.8 40.45 53.8
L 40.95 53.9
Q 41.2 53.95 41.4 54.15
L 41.6 53.85
Q 41.5 53.75 41.1 53.55
L 40.45 53.45 39.85 53.55 39.4 53.9
Q 39.25 54.15 39.25 54.45 39.25 54.95 39.5 55.05 39.75 55.3 40.25 55.45
L 41.05 55.8
Q 41.25 55.95 41.25 56.25 41.25 56.6 41.05 56.75 40.65 56.95 40.45 56.95 39.8 56.95 39.25 56.5
L 39.15 56.9 39.75 57.2 40.45 57.3
Q 40.85 57.3 41.05 57.15 41.25 57.1 41.55 56.8 41.7 56.6 41.7 56.25 41.7 55.85 41.45 55.6
L 39.85 54.85 Z"/>
</g>

<g id="IT_160x600_FR_psd_Asset_9_V9_3___apaiser_les__sources__d_irritation__fr_quentes__pour_les__ent_0_Layer0_0_MEMBER_69_FILL">
<path fill="#D82C26" stroke="none" d="
M 42.65 57.15
L 42.9 57.25 43.15 57.15 43.25 56.9 43.15 56.65
Q 43.1 56.55 42.9 56.55 42.75 56.55 42.65 56.65
L 42.55 56.9 42.65 57.15 Z"/>
</g>
</defs>

<g transform="matrix( 1, 0, 0, 1, -102,38) ">
<g transform="matrix( 1, 0, 0, 1, 97,3) ">
<g transform="matrix( 1, 0, 0, 1, 26,10) ">
<g transform="matrix( 2.815704345703125, 0, 0, 2.832611083984375, 0.15,16.6) ">
<use xlink:href="#IT_160x600_FR_psd_Asset_9_V9_3___apaiser_les__sources__d_irritation__fr_quentes__pour_les__ent_0_Layer0_0_MEMBER_0_FILL"/>
</g>

<g transform="matrix( 2.815704345703125, 0, 0, 2.832611083984375, 0.15,16.6) ">
<use xlink:href="#IT_160x600_FR_psd_Asset_9_V9_3___apaiser_les__sources__d_irritation__fr_quentes__pour_les__ent_0_Layer0_0_MEMBER_1_FILL"/>
</g>

<g transform="matrix( 2.815704345703125, 0, 0, 2.832611083984375, 0.15,16.6) ">
<use xlink:href="#IT_160x600_FR_psd_Asset_9_V9_3___apaiser_les__sources__d_irritation__fr_quentes__pour_les__ent_0_Layer0_0_MEMBER_2_FILL"/>
</g>

<g transform="matrix( 2.815704345703125, 0, 0, 2.832611083984375, 0.15,16.6) ">
<use xlink:href="#IT_160x600_FR_psd_Asset_9_V9_3___apaiser_les__sources__d_irritation__fr_quentes__pour_les__ent_0_Layer0_0_MEMBER_3_FILL"/>
</g>

<g transform="matrix( 2.815704345703125, 0, 0, 2.832611083984375, 0.15,16.6) ">
<use xlink:href="#IT_160x600_FR_psd_Asset_9_V9_3___apaiser_les__sources__d_irritation__fr_quentes__pour_les__ent_0_Layer0_0_MEMBER_4_FILL"/>
</g>

<g transform="matrix( 2.815704345703125, 0, 0, 2.832611083984375, 0.15,16.6) ">
<use xlink:href="#IT_160x600_FR_psd_Asset_9_V9_3___apaiser_les__sources__d_irritation__fr_quentes__pour_les__ent_0_Layer0_0_MEMBER_5_FILL"/>
</g>

<g transform="matrix( 2.815704345703125, 0, 0, 2.832611083984375, 0.15,16.6) ">
<use xlink:href="#IT_160x600_FR_psd_Asset_9_V9_3___apaiser_les__sources__d_irritation__fr_quentes__pour_les__ent_0_Layer0_0_MEMBER_6_FILL"/>
</g>

<g transform="matrix( 2.815704345703125, 0, 0, 2.832611083984375, 0.15,16.6) ">
<use xlink:href="#IT_160x600_FR_psd_Asset_9_V9_3___apaiser_les__sources__d_irritation__fr_quentes__pour_les__ent_0_Layer0_0_MEMBER_7_FILL"/>
</g>

<g transform="matrix( 2.815704345703125, 0, 0, 2.832611083984375, 0.15,16.6) ">
<use xlink:href="#IT_160x600_FR_psd_Asset_9_V9_3___apaiser_les__sources__d_irritation__fr_quentes__pour_les__ent_0_Layer0_0_MEMBER_8_FILL"/>
</g>

<g transform="matrix( 2.815704345703125, 0, 0, 2.832611083984375, 0.15,16.6) ">
<use xlink:href="#IT_160x600_FR_psd_Asset_9_V9_3___apaiser_les__sources__d_irritation__fr_quentes__pour_les__ent_0_Layer0_0_MEMBER_9_FILL"/>
</g>

<g transform="matrix( 2.815704345703125, 0, 0, 2.832611083984375, 0.15,16.6) ">
<use xlink:href="#IT_160x600_FR_psd_Asset_9_V9_3___apaiser_les__sources__d_irritation__fr_quentes__pour_les__ent_0_Layer0_0_MEMBER_10_FILL"/>
</g>

<g transform="matrix( 2.815704345703125, 0, 0, 2.832611083984375, 0.15,16.6) ">
<use xlink:href="#IT_160x600_FR_psd_Asset_9_V9_3___apaiser_les__sources__d_irritation__fr_quentes__pour_les__ent_0_Layer0_0_MEMBER_11_FILL"/>
</g>

<g transform="matrix( 2.815704345703125, 0, 0, 2.832611083984375, 0.15,16.6) ">
<use xlink:href="#IT_160x600_FR_psd_Asset_9_V9_3___apaiser_les__sources__d_irritation__fr_quentes__pour_les__ent_0_Layer0_0_MEMBER_12_FILL"/>
</g>

<g transform="matrix( 2.815704345703125, 0, 0, 2.832611083984375, 0.15,16.6) ">
<use xlink:href="#IT_160x600_FR_psd_Asset_9_V9_3___apaiser_les__sources__d_irritation__fr_quentes__pour_les__ent_0_Layer0_0_MEMBER_13_FILL"/>
</g>

<g transform="matrix( 2.815704345703125, 0, 0, 2.832611083984375, 0.15,16.6) ">
<use xlink:href="#IT_160x600_FR_psd_Asset_9_V9_3___apaiser_les__sources__d_irritation__fr_quentes__pour_les__ent_0_Layer0_0_MEMBER_14_FILL"/>
</g>

<g transform="matrix( 2.815704345703125, 0, 0, 2.832611083984375, 0.15,16.6) ">
<use xlink:href="#IT_160x600_FR_psd_Asset_9_V9_3___apaiser_les__sources__d_irritation__fr_quentes__pour_les__ent_0_Layer0_0_MEMBER_15_FILL"/>
</g>

<g transform="matrix( 2.815704345703125, 0, 0, 2.832611083984375, 0.15,16.6) ">
<use xlink:href="#IT_160x600_FR_psd_Asset_9_V9_3___apaiser_les__sources__d_irritation__fr_quentes__pour_les__ent_0_Layer0_0_MEMBER_16_FILL"/>
</g>

<g transform="matrix( 2.815704345703125, 0, 0, 2.832611083984375, 0.15,16.6) ">
<use xlink:href="#IT_160x600_FR_psd_Asset_9_V9_3___apaiser_les__sources__d_irritation__fr_quentes__pour_les__ent_0_Layer0_0_MEMBER_17_FILL"/>
</g>

<g transform="matrix( 2.815704345703125, 0, 0, 2.832611083984375, 0.15,16.6) ">
<use xlink:href="#IT_160x600_FR_psd_Asset_9_V9_3___apaiser_les__sources__d_irritation__fr_quentes__pour_les__ent_0_Layer0_0_MEMBER_18_FILL"/>
</g>

<g transform="matrix( 2.815704345703125, 0, 0, 2.832611083984375, 0.15,16.6) ">
<use xlink:href="#IT_160x600_FR_psd_Asset_9_V9_3___apaiser_les__sources__d_irritation__fr_quentes__pour_les__ent_0_Layer0_0_MEMBER_19_FILL"/>
</g>

<g transform="matrix( 2.815704345703125, 0, 0, 2.832611083984375, 0.15,16.6) ">
<use xlink:href="#IT_160x600_FR_psd_Asset_9_V9_3___apaiser_les__sources__d_irritation__fr_quentes__pour_les__ent_0_Layer0_0_MEMBER_20_FILL"/>
</g>

<g transform="matrix( 2.815704345703125, 0, 0, 2.832611083984375, 0.15,16.6) ">
<use xlink:href="#IT_160x600_FR_psd_Asset_9_V9_3___apaiser_les__sources__d_irritation__fr_quentes__pour_les__ent_0_Layer0_0_MEMBER_21_FILL"/>
</g>

<g transform="matrix( 2.815704345703125, 0, 0, 2.832611083984375, 0.15,16.6) ">
<use xlink:href="#IT_160x600_FR_psd_Asset_9_V9_3___apaiser_les__sources__d_irritation__fr_quentes__pour_les__ent_0_Layer0_0_MEMBER_22_FILL"/>
</g>

<g transform="matrix( 2.815704345703125, 0, 0, 2.832611083984375, 0.15,16.6) ">
<use xlink:href="#IT_160x600_FR_psd_Asset_9_V9_3___apaiser_les__sources__d_irritation__fr_quentes__pour_les__ent_0_Layer0_0_MEMBER_23_FILL"/>
</g>

<g transform="matrix( 2.815704345703125, 0, 0, 2.832611083984375, 0.15,16.6) ">
<use xlink:href="#IT_160x600_FR_psd_Asset_9_V9_3___apaiser_les__sources__d_irritation__fr_quentes__pour_les__ent_0_Layer0_0_MEMBER_24_FILL"/>
</g>

<g transform="matrix( 2.815704345703125, 0, 0, 2.832611083984375, 0.15,16.6) ">
<use xlink:href="#IT_160x600_FR_psd_Asset_9_V9_3___apaiser_les__sources__d_irritation__fr_quentes__pour_les__ent_0_Layer0_0_MEMBER_25_FILL"/>
</g>

<g transform="matrix( 2.815704345703125, 0, 0, 2.832611083984375, 0.15,16.6) ">
<use xlink:href="#IT_160x600_FR_psd_Asset_9_V9_3___apaiser_les__sources__d_irritation__fr_quentes__pour_les__ent_0_Layer0_0_MEMBER_26_FILL"/>
</g>

<g transform="matrix( 2.815704345703125, 0, 0, 2.832611083984375, 0.15,16.6) ">
<use xlink:href="#IT_160x600_FR_psd_Asset_9_V9_3___apaiser_les__sources__d_irritation__fr_quentes__pour_les__ent_0_Layer0_0_MEMBER_27_FILL"/>
</g>

<g transform="matrix( 2.815704345703125, 0, 0, 2.832611083984375, 0.15,16.6) ">
<use xlink:href="#IT_160x600_FR_psd_Asset_9_V9_3___apaiser_les__sources__d_irritation__fr_quentes__pour_les__ent_0_Layer0_0_MEMBER_28_FILL"/>
</g>

<g transform="matrix( 2.815704345703125, 0, 0, 2.832611083984375, 0.15,16.6) ">
<use xlink:href="#IT_160x600_FR_psd_Asset_9_V9_3___apaiser_les__sources__d_irritation__fr_quentes__pour_les__ent_0_Layer0_0_MEMBER_29_FILL"/>
</g>

<g transform="matrix( 2.815704345703125, 0, 0, 2.832611083984375, 0.15,16.6) ">
<use xlink:href="#IT_160x600_FR_psd_Asset_9_V9_3___apaiser_les__sources__d_irritation__fr_quentes__pour_les__ent_0_Layer0_0_MEMBER_30_FILL"/>
</g>

<g transform="matrix( 2.815704345703125, 0, 0, 2.832611083984375, 0.15,16.6) ">
<use xlink:href="#IT_160x600_FR_psd_Asset_9_V9_3___apaiser_les__sources__d_irritation__fr_quentes__pour_les__ent_0_Layer0_0_MEMBER_31_FILL"/>
</g>

<g transform="matrix( 2.815704345703125, 0, 0, 2.832611083984375, 0.15,16.6) ">
<use xlink:href="#IT_160x600_FR_psd_Asset_9_V9_3___apaiser_les__sources__d_irritation__fr_quentes__pour_les__ent_0_Layer0_0_MEMBER_32_FILL"/>
</g>

<g transform="matrix( 2.815704345703125, 0, 0, 2.832611083984375, 0.15,16.6) ">
<use xlink:href="#IT_160x600_FR_psd_Asset_9_V9_3___apaiser_les__sources__d_irritation__fr_quentes__pour_les__ent_0_Layer0_0_MEMBER_33_FILL"/>
</g>

<g transform="matrix( 2.815704345703125, 0, 0, 2.832611083984375, 0.15,16.6) ">
<use xlink:href="#IT_160x600_FR_psd_Asset_9_V9_3___apaiser_les__sources__d_irritation__fr_quentes__pour_les__ent_0_Layer0_0_MEMBER_34_FILL"/>
</g>

<g transform="matrix( 2.815704345703125, 0, 0, 2.832611083984375, 0.15,16.6) ">
<use xlink:href="#IT_160x600_FR_psd_Asset_9_V9_3___apaiser_les__sources__d_irritation__fr_quentes__pour_les__ent_0_Layer0_0_MEMBER_35_FILL"/>
</g>

<g transform="matrix( 2.815704345703125, 0, 0, 2.832611083984375, 0.15,16.6) ">
<use xlink:href="#IT_160x600_FR_psd_Asset_9_V9_3___apaiser_les__sources__d_irritation__fr_quentes__pour_les__ent_0_Layer0_0_MEMBER_36_FILL"/>
</g>

<g transform="matrix( 2.815704345703125, 0, 0, 2.832611083984375, 0.15,16.6) ">
<use xlink:href="#IT_160x600_FR_psd_Asset_9_V9_3___apaiser_les__sources__d_irritation__fr_quentes__pour_les__ent_0_Layer0_0_MEMBER_37_FILL"/>
</g>

<g transform="matrix( 2.815704345703125, 0, 0, 2.832611083984375, 0.15,16.6) ">
<use xlink:href="#IT_160x600_FR_psd_Asset_9_V9_3___apaiser_les__sources__d_irritation__fr_quentes__pour_les__ent_0_Layer0_0_MEMBER_38_FILL"/>
</g>

<g transform="matrix( 2.815704345703125, 0, 0, 2.832611083984375, 0.15,16.6) ">
<use xlink:href="#IT_160x600_FR_psd_Asset_9_V9_3___apaiser_les__sources__d_irritation__fr_quentes__pour_les__ent_0_Layer0_0_MEMBER_39_FILL"/>
</g>

<g transform="matrix( 2.815704345703125, 0, 0, 2.832611083984375, 0.15,16.6) ">
<use xlink:href="#IT_160x600_FR_psd_Asset_9_V9_3___apaiser_les__sources__d_irritation__fr_quentes__pour_les__ent_0_Layer0_0_MEMBER_40_FILL"/>
</g>

<g transform="matrix( 2.815704345703125, 0, 0, 2.832611083984375, 0.15,16.6) ">
<use xlink:href="#IT_160x600_FR_psd_Asset_9_V9_3___apaiser_les__sources__d_irritation__fr_quentes__pour_les__ent_0_Layer0_0_MEMBER_41_FILL"/>
</g>

<g transform="matrix( 2.815704345703125, 0, 0, 2.832611083984375, 0.15,16.6) ">
<use xlink:href="#IT_160x600_FR_psd_Asset_9_V9_3___apaiser_les__sources__d_irritation__fr_quentes__pour_les__ent_0_Layer0_0_MEMBER_42_FILL"/>
</g>

<g transform="matrix( 2.815704345703125, 0, 0, 2.832611083984375, 0.15,16.6) ">
<use xlink:href="#IT_160x600_FR_psd_Asset_9_V9_3___apaiser_les__sources__d_irritation__fr_quentes__pour_les__ent_0_Layer0_0_MEMBER_43_FILL"/>
</g>

<g transform="matrix( 2.815704345703125, 0, 0, 2.832611083984375, 0.15,16.6) ">
<use xlink:href="#IT_160x600_FR_psd_Asset_9_V9_3___apaiser_les__sources__d_irritation__fr_quentes__pour_les__ent_0_Layer0_0_MEMBER_44_FILL"/>
</g>

<g transform="matrix( 2.815704345703125, 0, 0, 2.832611083984375, 0.15,16.6) ">
<use xlink:href="#IT_160x600_FR_psd_Asset_9_V9_3___apaiser_les__sources__d_irritation__fr_quentes__pour_les__ent_0_Layer0_0_MEMBER_45_FILL"/>
</g>

<g transform="matrix( 2.815704345703125, 0, 0, 2.832611083984375, 0.15,16.6) ">
<use xlink:href="#IT_160x600_FR_psd_Asset_9_V9_3___apaiser_les__sources__d_irritation__fr_quentes__pour_les__ent_0_Layer0_0_MEMBER_46_FILL"/>
</g>

<g transform="matrix( 2.815704345703125, 0, 0, 2.832611083984375, 0.15,16.6) ">
<use xlink:href="#IT_160x600_FR_psd_Asset_9_V9_3___apaiser_les__sources__d_irritation__fr_quentes__pour_les__ent_0_Layer0_0_MEMBER_47_FILL"/>
</g>

<g transform="matrix( 2.815704345703125, 0, 0, 2.832611083984375, 0.15,16.6) ">
<use xlink:href="#IT_160x600_FR_psd_Asset_9_V9_3___apaiser_les__sources__d_irritation__fr_quentes__pour_les__ent_0_Layer0_0_MEMBER_48_FILL"/>
</g>

<g transform="matrix( 2.815704345703125, 0, 0, 2.832611083984375, 0.15,16.6) ">
<use xlink:href="#IT_160x600_FR_psd_Asset_9_V9_3___apaiser_les__sources__d_irritation__fr_quentes__pour_les__ent_0_Layer0_0_MEMBER_49_FILL"/>
</g>

<g transform="matrix( 2.815704345703125, 0, 0, 2.832611083984375, 0.15,16.6) ">
<use xlink:href="#IT_160x600_FR_psd_Asset_9_V9_3___apaiser_les__sources__d_irritation__fr_quentes__pour_les__ent_0_Layer0_0_MEMBER_50_FILL"/>
</g>

<g transform="matrix( 2.815704345703125, 0, 0, 2.832611083984375, 0.15,16.6) ">
<use xlink:href="#IT_160x600_FR_psd_Asset_9_V9_3___apaiser_les__sources__d_irritation__fr_quentes__pour_les__ent_0_Layer0_0_MEMBER_51_FILL"/>
</g>

<g transform="matrix( 2.815704345703125, 0, 0, 2.832611083984375, 0.15,16.6) ">
<use xlink:href="#IT_160x600_FR_psd_Asset_9_V9_3___apaiser_les__sources__d_irritation__fr_quentes__pour_les__ent_0_Layer0_0_MEMBER_52_FILL"/>
</g>

<g transform="matrix( 2.815704345703125, 0, 0, 2.832611083984375, 0.15,16.6) ">
<use xlink:href="#IT_160x600_FR_psd_Asset_9_V9_3___apaiser_les__sources__d_irritation__fr_quentes__pour_les__ent_0_Layer0_0_MEMBER_53_FILL"/>
</g>

<g transform="matrix( 2.815704345703125, 0, 0, 2.832611083984375, 0.15,16.6) ">
<use xlink:href="#IT_160x600_FR_psd_Asset_9_V9_3___apaiser_les__sources__d_irritation__fr_quentes__pour_les__ent_0_Layer0_0_MEMBER_54_FILL"/>
</g>

<g transform="matrix( 2.815704345703125, 0, 0, 2.832611083984375, 0.15,16.6) ">
<use xlink:href="#IT_160x600_FR_psd_Asset_9_V9_3___apaiser_les__sources__d_irritation__fr_quentes__pour_les__ent_0_Layer0_0_MEMBER_55_FILL"/>
</g>

<g transform="matrix( 2.815704345703125, 0, 0, 2.832611083984375, 0.15,16.6) ">
<use xlink:href="#IT_160x600_FR_psd_Asset_9_V9_3___apaiser_les__sources__d_irritation__fr_quentes__pour_les__ent_0_Layer0_0_MEMBER_56_FILL"/>
</g>

<g transform="matrix( 2.815704345703125, 0, 0, 2.832611083984375, 0.15,16.6) ">
<use xlink:href="#IT_160x600_FR_psd_Asset_9_V9_3___apaiser_les__sources__d_irritation__fr_quentes__pour_les__ent_0_Layer0_0_MEMBER_57_FILL"/>
</g>

<g transform="matrix( 2.815704345703125, 0, 0, 2.832611083984375, 0.15,16.6) ">
<use xlink:href="#IT_160x600_FR_psd_Asset_9_V9_3___apaiser_les__sources__d_irritation__fr_quentes__pour_les__ent_0_Layer0_0_MEMBER_58_FILL"/>
</g>

<g transform="matrix( 2.815704345703125, 0, 0, 2.832611083984375, 0.15,16.6) ">
<use xlink:href="#IT_160x600_FR_psd_Asset_9_V9_3___apaiser_les__sources__d_irritation__fr_quentes__pour_les__ent_0_Layer0_0_MEMBER_59_FILL"/>
</g>

<g transform="matrix( 2.815704345703125, 0, 0, 2.832611083984375, 0.15,16.6) ">
<use xlink:href="#IT_160x600_FR_psd_Asset_9_V9_3___apaiser_les__sources__d_irritation__fr_quentes__pour_les__ent_0_Layer0_0_MEMBER_60_FILL"/>
</g>

<g transform="matrix( 2.815704345703125, 0, 0, 2.832611083984375, 0.15,16.6) ">
<use xlink:href="#IT_160x600_FR_psd_Asset_9_V9_3___apaiser_les__sources__d_irritation__fr_quentes__pour_les__ent_0_Layer0_0_MEMBER_61_FILL"/>
</g>

<g transform="matrix( 2.815704345703125, 0, 0, 2.832611083984375, 0.15,16.6) ">
<use xlink:href="#IT_160x600_FR_psd_Asset_9_V9_3___apaiser_les__sources__d_irritation__fr_quentes__pour_les__ent_0_Layer0_0_MEMBER_62_FILL"/>
</g>

<g transform="matrix( 2.815704345703125, 0, 0, 2.832611083984375, 0.15,16.6) ">
<use xlink:href="#IT_160x600_FR_psd_Asset_9_V9_3___apaiser_les__sources__d_irritation__fr_quentes__pour_les__ent_0_Layer0_0_MEMBER_63_FILL"/>
</g>

<g transform="matrix( 2.815704345703125, 0, 0, 2.832611083984375, 0.15,16.6) ">
<use xlink:href="#IT_160x600_FR_psd_Asset_9_V9_3___apaiser_les__sources__d_irritation__fr_quentes__pour_les__ent_0_Layer0_0_MEMBER_64_FILL"/>
</g>

<g transform="matrix( 2.815704345703125, 0, 0, 2.832611083984375, 0.15,16.6) ">
<use xlink:href="#IT_160x600_FR_psd_Asset_9_V9_3___apaiser_les__sources__d_irritation__fr_quentes__pour_les__ent_0_Layer0_0_MEMBER_65_FILL"/>
</g>

<g transform="matrix( 2.815704345703125, 0, 0, 2.832611083984375, 0.15,16.6) ">
<use xlink:href="#IT_160x600_FR_psd_Asset_9_V9_3___apaiser_les__sources__d_irritation__fr_quentes__pour_les__ent_0_Layer0_0_MEMBER_66_FILL"/>
</g>

<g transform="matrix( 2.815704345703125, 0, 0, 2.832611083984375, 0.15,16.6) ">
<use xlink:href="#IT_160x600_FR_psd_Asset_9_V9_3___apaiser_les__sources__d_irritation__fr_quentes__pour_les__ent_0_Layer0_0_MEMBER_67_FILL"/>
</g>

<g transform="matrix( 2.815704345703125, 0, 0, 2.832611083984375, 0.15,16.6) ">
<use xlink:href="#IT_160x600_FR_psd_Asset_9_V9_3___apaiser_les__sources__d_irritation__fr_quentes__pour_les__ent_0_Layer0_0_MEMBER_68_FILL"/>
</g>

<g transform="matrix( 2.815704345703125, 0, 0, 2.832611083984375, 0.15,16.6) ">
<use xlink:href="#IT_160x600_FR_psd_Asset_9_V9_3___apaiser_les__sources__d_irritation__fr_quentes__pour_les__ent_0_Layer0_0_MEMBER_69_FILL"/>
</g>
</g>
</g>
</g>
</svg>
