
<svg xmlns="http://www.w3.org/2000/svg" version="1.1" xmlns:xlink="http://www.w3.org/1999/xlink" preserveAspectRatio="none" x="0px" y="0px" width="300px" height="600px" viewBox="0 0 300 600">
<defs>
<g id="BDM_300x600_FR_psd_Asset_6_V8_1_Vous_tentez__d_accro_tre__la_fid_lisation____la_marque__0_Layer0_0_MEMBER_0_FILL">
<path fill="#D82C26" stroke="none" d="
M 0.8 -7.5
L 0.1 -7.5 2.9 0 3.65 0 6.5 -7.5 5.8 -7.5 3.3 -0.75 0.8 -7.5 Z"/>
</g>

<g id="BDM_300x600_FR_psd_Asset_6_V8_1_Vous_tentez__d_accro_tre__la_fid_lisation____la_marque__0_Layer0_0_MEMBER_1_FILL">
<path fill="#D82C26" stroke="none" d="
M 9 -5.1
Q 8.2 -5.1 7.65 -4.8 6.95 -4.35 6.7 -3.85 6.35 -3.3 6.35 -2.5 6.35 -1.7 6.7 -1.15 7 -0.5 7.65 -0.2 8.15 0.15 9 0.15 9.8 0.15 10.35 -0.2 10.85 -0.45 11.3 -1.15 11.6 -1.75 11.6 -2.5 11.6 -3.25 11.3 -3.85 10.95 -4.45 10.35 -4.8 9.75 -5.1 9 -5.1
M 9 -4.6
Q 9.6 -4.6 10.05 -4.3 10.55 -3.95 10.75 -3.55 11 -3.05 11 -2.5 11 -1.95 10.75 -1.45 10.55 -1 10.05 -0.65 9.55 -0.4 9 -0.4 8.4 -0.4 7.9 -0.65 7.4 -1 7.2 -1.45 6.95 -1.95 6.95 -2.5 6.95 -3.05 7.2 -3.55 7.4 -3.95 7.9 -4.3 8.35 -4.6 9 -4.6 Z"/>
</g>

<g id="BDM_300x600_FR_psd_Asset_6_V8_1_Vous_tentez__d_accro_tre__la_fid_lisation____la_marque__0_Layer0_0_MEMBER_2_FILL">
<path fill="#D82C26" stroke="none" d="
M 12.7 -1.95
Q 12.7 -1.05 13.15 -0.45 13.6 0.15 14.55 0.15 15.2 0.15 15.6 -0.2 16.1 -0.5 16.35 -1.05
L 16.45 0 17.05 0 16.95 -1.15 16.95 -4.95 16.35 -4.95 16.35 -2.5
Q 16.35 -1.85 16.1 -1.35 15.95 -0.95 15.55 -0.6 15.15 -0.35 14.7 -0.35 14 -0.35 13.65 -0.85 13.35 -1.35 13.35 -2.1
L 13.35 -4.95 12.7 -4.95 12.7 -1.95 Z"/>
</g>

<g id="BDM_300x600_FR_psd_Asset_6_V8_1_Vous_tentez__d_accro_tre__la_fid_lisation____la_marque__0_Layer0_0_MEMBER_3_FILL">
<path fill="#D82C26" stroke="none" d="
M 19.05 -4.4
Q 19.3 -4.6 19.85 -4.6
L 20.55 -4.5 21.1 -4.15 21.4 -4.6 20.7 -4.95
Q 20.25 -5.1 19.8 -5.1 19.4 -5.1 19 -4.95 18.65 -4.8 18.4 -4.5 18.15 -4.15 18.15 -3.75 18.15 -3.25 18.5 -2.9 18.95 -2.55 19.55 -2.35 20.3 -2.1 20.6 -1.9 20.95 -1.7 20.95 -1.3 20.95 -0.8 20.6 -0.6 20.25 -0.35 19.85 -0.35 18.9 -0.35 18.2 -0.95
L 18.05 -0.4
Q 18.4 -0.1 18.85 0 19.3 0.15 19.85 0.15 20.3 0.15 20.65 -0.05 21.05 -0.2 21.3 -0.5 21.55 -0.9 21.55 -1.3 21.55 -1.8 21.15 -2.2 20.7 -2.55 20 -2.75 19.25 -3 19.05 -3.2 18.75 -3.4 18.75 -3.8 18.75 -4.15 19.05 -4.4 Z"/>
</g>

<g id="BDM_300x600_FR_psd_Asset_6_V8_1_Vous_tentez__d_accro_tre__la_fid_lisation____la_marque__0_Layer0_0_MEMBER_4_FILL">
<path fill="#D82C26" stroke="none" d="
M 24.9 -1.2
Q 24.9 -0.6 25.25 -0.25 25.55 0.1 26.1 0.1
L 26.65 0.05 27.15 -0.15 27.05 -0.6
Q 26.45 -0.4 26.25 -0.4 25.9 -0.4 25.75 -0.6 25.55 -0.8 25.55 -1.3
L 25.55 -4.45 26.8 -4.45 26.95 -4.95 25.55 -4.95 25.55 -6.4 24.9 -6.15 24.9 -4.95 24.1 -4.95 24 -4.45 24.9 -4.45 24.9 -1.2 Z"/>
</g>

<g id="BDM_300x600_FR_psd_Asset_6_V8_1_Vous_tentez__d_accro_tre__la_fid_lisation____la_marque__0_Layer0_0_MEMBER_5_FILL">
<path fill="#D82C26" stroke="none" d="
M 29.85 -5.1
Q 29.2 -5.1 28.6 -4.8 28 -4.4 27.75 -3.85 27.4 -3.3 27.4 -2.5 27.4 -1.85 27.75 -1.15 28.1 -0.5 28.65 -0.2 29.2 0.15 29.95 0.15 31.15 0.15 31.95 -0.5
L 31.85 -1
Q 31.45 -0.7 31.05 -0.55 30.6 -0.35 30 -0.35 29.45 -0.35 29 -0.65 28.55 -0.9 28.3 -1.35 28.1 -1.75 28 -2.4
L 32.25 -2.4 32.25 -2.65
Q 32.25 -3.3 31.95 -3.9 31.75 -4.35 31.15 -4.8 30.65 -5.1 29.85 -5.1
M 28.9 -4.35
Q 29.35 -4.65 29.85 -4.65 30.65 -4.65 31.15 -4.15 31.65 -3.55 31.65 -2.85
L 28.05 -2.85
Q 28.05 -3.3 28.25 -3.65 28.45 -4.05 28.9 -4.35 Z"/>
</g>

<g id="BDM_300x600_FR_psd_Asset_6_V8_1_Vous_tentez__d_accro_tre__la_fid_lisation____la_marque__0_Layer0_0_MEMBER_6_FILL">
<path fill="#D82C26" stroke="none" d="
M 33.9 -4.95
L 33.35 -4.95 33.4 0 34 0 34 -2.55
Q 34 -2.95 34.2 -3.65 34.45 -4.15 34.8 -4.35 35.3 -4.6 35.65 -4.6 36.35 -4.6 36.7 -4.1 37 -3.55 37 -2.85
L 37 0 37.65 0 37.65 -3.05
Q 37.65 -3.9 37.2 -4.5 36.75 -5.1 35.8 -5.1 35.2 -5.1 34.7 -4.75 34.25 -4.5 34 -3.9
L 33.95 -3.9 33.9 -4.95 Z"/>
</g>

<g id="BDM_300x600_FR_psd_Asset_6_V8_1_Vous_tentez__d_accro_tre__la_fid_lisation____la_marque__0_Layer0_0_MEMBER_7_FILL">
<path fill="#D82C26" stroke="none" d="
M 39.15 -1.2
Q 39.15 -0.55 39.5 -0.25 39.8 0.1 40.3 0.1
L 40.9 0.05 41.4 -0.15 41.3 -0.6
Q 40.7 -0.4 40.5 -0.4 40.15 -0.4 39.95 -0.6 39.8 -0.8 39.8 -1.3
L 39.8 -4.45 41.05 -4.45 41.2 -4.95 39.8 -4.95 39.8 -6.4 39.15 -6.15 39.15 -4.95 38.35 -4.95 38.25 -4.45 39.15 -4.45 39.15 -1.2 Z"/>
</g>

<g id="BDM_300x600_FR_psd_Asset_6_V8_1_Vous_tentez__d_accro_tre__la_fid_lisation____la_marque__0_Layer0_0_MEMBER_8_FILL">
<path fill="#D82C26" stroke="none" d="
M 45.4 -4.8
Q 44.9 -5.1 44.1 -5.1 43.45 -5.1 42.85 -4.8 42.25 -4.4 42 -3.85 41.65 -3.3 41.65 -2.5 41.65 -1.7 42 -1.15 42.35 -0.5 42.9 -0.2 43.45 0.15 44.2 0.15 45.4 0.15 46.2 -0.5
L 46.1 -1
Q 45.7 -0.7 45.25 -0.55 44.85 -0.35 44.25 -0.35 43.7 -0.35 43.25 -0.65 42.8 -0.9 42.55 -1.35 42.25 -1.85 42.25 -2.4
L 46.45 -2.4 46.5 -2.65
Q 46.5 -3.3 46.2 -3.9 45.9 -4.45 45.4 -4.8
M 44.1 -4.65
Q 44.8 -4.65 45.4 -4.15 45.85 -3.65 45.9 -2.85
L 42.25 -2.85
Q 42.35 -3.4 42.5 -3.65 42.7 -4.05 43.15 -4.35 43.55 -4.65 44.1 -4.65 Z"/>
</g>

<g id="BDM_300x600_FR_psd_Asset_6_V8_1_Vous_tentez__d_accro_tre__la_fid_lisation____la_marque__0_Layer0_0_MEMBER_9_FILL">
<path fill="#D82C26" stroke="none" d="
M 50.15 -4.45
L 47.1 -0.5 47.1 0 50.95 0 51.05 -0.5 47.8 -0.5 50.85 -4.45 50.85 -4.95 47.25 -4.95 47.15 -4.45 50.15 -4.45 Z"/>
</g>

<g id="BDM_300x600_FR_psd_Asset_6_V8_1_Vous_tentez__d_accro_tre__la_fid_lisation____la_marque__0_Layer0_0_MEMBER_10_FILL">
<path fill="#D82C26" stroke="none" d="
M 5.75 4.6
L 5.1 4.7 5.1 8.8
Q 4.8 8.3 4.25 7.9 3.75 7.6 3.1 7.6 2.3 7.6 1.8 7.95 1.2 8.35 0.9 8.9 0.6 9.5 0.6 10.25 0.6 10.95 0.9 11.55 1.2 12.1 1.8 12.5 2.3 12.85 3.1 12.85 3.75 12.85 4.25 12.55 4.75 12.25 5.1 11.65
L 5.15 11.65 5.2 12.7 5.8 12.7 5.75 4.6
M 4.2 8.4
Q 4.6 8.65 4.9 9.2 5.15 9.7 5.15 10.25 5.15 10.7 4.9 11.3 4.55 11.8 4.2 12.05 3.75 12.35 3.15 12.35 2.6 12.35 2.15 12.05 1.65 11.75 1.45 11.3 1.2 10.7 1.2 10.25 1.2 9.7 1.45 9.2 1.65 8.75 2.15 8.4 2.6 8.1 3.15 8.1 3.75 8.1 4.2 8.4 Z"/>
</g>

<g id="BDM_300x600_FR_psd_Asset_6_V8_1_Vous_tentez__d_accro_tre__la_fid_lisation____la_marque__0_Layer0_0_MEMBER_11_FILL">
<path fill="#D82C26" stroke="none" d="
M 8.15 5.35
L 7.85 5.2
Q 7.65 5.2 7.5 5.35 7.35 5.5 7.35 5.7 7.35 5.95 7.5 6 7.6 6.15 7.8 6.15 7.7 6.65 7.55 6.85
L 7.1 7.45 7.35 7.6
Q 8.3 6.65 8.3 5.8 8.3 5.6 8.15 5.35 Z"/>
</g>

<g id="BDM_300x600_FR_psd_Asset_6_V8_1_Vous_tentez__d_accro_tre__la_fid_lisation____la_marque__0_Layer0_0_MEMBER_12_FILL">
<path fill="#D82C26" stroke="none" d="
M 10.65 8.1
Q 11.3 8.1 11.65 8.45 12.05 8.75 12.05 9.45
L 12.05 9.75 11.45 9.75
Q 8.6 9.75 8.6 11.35 8.6 12.15 9.05 12.5 9.6 12.85 10.15 12.85 10.8 12.85 11.3 12.55 11.85 12.3 12 11.75
L 12.05 11.75 12.15 12.7 12.7 12.7 12.6 11.65 12.6 9.5
Q 12.6 8.55 12.1 8.05 11.65 7.6 10.7 7.6 10.25 7.6 9.7 7.75 9.2 7.9 8.85 8.2
L 9.05 8.7 9.8 8.25
Q 10.25 8.1 10.65 8.1
M 11.5 10.15
L 12.05 10.15 12.05 10.65
Q 12.05 10.95 11.85 11.45 11.65 11.85 11.25 12.1 10.9 12.4 10.3 12.4 9.85 12.4 9.5 12.15 9.2 11.85 9.2 11.35 9.2 10.15 11.5 10.15 Z"/>
</g>

<g id="BDM_300x600_FR_psd_Asset_6_V8_1_Vous_tentez__d_accro_tre__la_fid_lisation____la_marque__0_Layer0_0_MEMBER_13_FILL">
<path fill="#D82C26" stroke="none" d="
M 13.7 10.25
Q 13.7 10.9 14.05 11.6 14.3 12.15 14.95 12.5 15.5 12.85 16.3 12.85 16.8 12.85 17.25 12.7 17.7 12.55 18 12.25
L 17.9 11.75
Q 17.7 11.95 17.2 12.15 16.85 12.3 16.35 12.3 15.8 12.3 15.3 12.05 14.8 11.75 14.6 11.3 14.35 10.7 14.35 10.25 14.35 9.7 14.6 9.2 14.8 8.75 15.3 8.4 15.75 8.1 16.35 8.1
L 17.1 8.25 17.75 8.65 18 8.2
Q 17.7 7.9 17.25 7.75 16.8 7.6 16.3 7.6 15.55 7.6 15 7.95 14.4 8.25 14.05 8.9 13.7 9.6 13.7 10.25 Z"/>
</g>

<g id="BDM_300x600_FR_psd_Asset_6_V8_1_Vous_tentez__d_accro_tre__la_fid_lisation____la_marque__0_Layer0_0_MEMBER_14_FILL">
<path fill="#D82C26" stroke="none" d="
M 22.05 7.75
Q 21.6 7.6 21.1 7.6 20.3 7.6 19.75 7.95 19.15 8.25 18.85 8.9 18.5 9.45 18.5 10.25 18.5 11 18.8 11.6 19.2 12.2 19.75 12.5 20.3 12.85 21.05 12.85 21.6 12.85 22.05 12.7 22.5 12.55 22.8 12.25
L 22.7 11.75
Q 22.4 12 22 12.15 21.65 12.3 21.15 12.3 20.6 12.3 20.1 12.05 19.65 11.8 19.4 11.3 19.15 10.85 19.15 10.25 19.15 9.6 19.4 9.2 19.6 8.7 20.05 8.4 20.5 8.1 21.1 8.1 21.45 8.1 21.9 8.25 22.25 8.4 22.5 8.65
L 22.8 8.2
Q 22.5 7.9 22.05 7.75 Z"/>
</g>

<g id="BDM_300x600_FR_psd_Asset_6_V8_1_Vous_tentez__d_accro_tre__la_fid_lisation____la_marque__0_Layer0_0_MEMBER_15_FILL">
<path fill="#D82C26" stroke="none" d="
M 24.3 10.25
Q 24.3 9.4 24.7 8.75 25.1 8.15 25.7 8.15
L 26.15 8.25 26.3 7.7 25.75 7.6
Q 25.25 7.6 24.9 7.95 24.45 8.25 24.3 8.8
L 24.2 7.75 23.65 7.75 23.7 12.7 24.3 12.7 24.3 10.25 Z"/>
</g>

<g id="BDM_300x600_FR_psd_Asset_6_V8_1_Vous_tentez__d_accro_tre__la_fid_lisation____la_marque__0_Layer0_0_MEMBER_16_FILL">
<path fill="#D82C26" stroke="none" d="
M 31.35 8.85
Q 31.05 8.3 30.4 7.95 29.85 7.6 29.05 7.6 28.25 7.6 27.7 7.95 27.15 8.25 26.75 8.85 26.4 9.55 26.4 10.2 26.4 10.8 26.75 11.6 27.15 12.2 27.7 12.5 28.25 12.85 29.05 12.85 29.85 12.85 30.4 12.5 31.05 12.15 31.35 11.6 31.7 10.95 31.7 10.2 31.7 9.4 31.35 8.85
M 31.1 10.2
Q 31.1 10.75 30.85 11.25 30.65 11.7 30.15 12.05 29.7 12.35 29.05 12.35 28.45 12.35 28 12.05 27.5 11.7 27.3 11.25 27.05 10.75 27.05 10.2 27.05 9.75 27.3 9.15 27.5 8.75 28 8.4 28.45 8.1 29.05 8.1 29.65 8.1 30.1 8.4 30.5 8.65 30.85 9.15 31.1 9.75 31.1 10.2 Z"/>
</g>

<g id="BDM_300x600_FR_psd_Asset_6_V8_1_Vous_tentez__d_accro_tre__la_fid_lisation____la_marque__0_Layer0_0_MEMBER_17_FILL">
<path fill="#D82C26" stroke="none" d="
M 33.45 7.75
L 32.85 7.75 32.85 12.7 33.45 12.7 33.45 7.75
M 32.85 5.2
L 31.7 6.75 32.25 6.75 33.15 5.5 34.1 6.75 34.65 6.75 33.5 5.2 32.85 5.2 Z"/>
</g>

<g id="BDM_300x600_FR_psd_Asset_6_V8_1_Vous_tentez__d_accro_tre__la_fid_lisation____la_marque__0_Layer0_0_MEMBER_18_FILL">
<path fill="#D82C26" stroke="none" d="
M 35.3 8.25
L 35.3 11.5
Q 35.3 12.15 35.65 12.5 35.95 12.8 36.45 12.8
L 37.05 12.75 37.55 12.55 37.45 12.1
Q 37.05 12.3 36.65 12.3 36.3 12.3 36.1 12.1 35.95 11.9 35.95 11.45
L 35.95 8.25 37.2 8.25 37.35 7.75 35.95 7.75 35.95 6.3 35.3 6.55 35.3 7.75 34.5 7.75 34.4 8.25 35.3 8.25 Z"/>
</g>

<g id="BDM_300x600_FR_psd_Asset_6_V8_1_Vous_tentez__d_accro_tre__la_fid_lisation____la_marque__0_Layer0_0_MEMBER_19_FILL">
<path fill="#D82C26" stroke="none" d="
M 40.8 8.25
L 40.9 7.7 40.4 7.6
Q 39.9 7.6 39.55 7.95 39.1 8.25 38.95 8.8
L 38.9 8.8 38.85 7.75 38.3 7.75 38.35 12.7 38.95 12.7 38.95 10.25
Q 38.95 9.4 39.35 8.75 39.75 8.15 40.35 8.15
L 40.8 8.25 Z"/>
</g>

<g id="BDM_300x600_FR_psd_Asset_6_V8_1_Vous_tentez__d_accro_tre__la_fid_lisation____la_marque__0_Layer0_0_MEMBER_20_FILL">
<path fill="#D82C26" stroke="none" d="
M 44.8 7.9
Q 44.3 7.6 43.55 7.6 42.8 7.6 42.3 7.95 41.8 8.2 41.4 8.85 41.1 9.45 41.1 10.2 41.1 10.95 41.4 11.6 41.8 12.2 42.3 12.5 42.85 12.85 43.65 12.85 44.8 12.85 45.6 12.25
L 45.5 11.7
Q 45.25 12 44.7 12.15 44.3 12.35 43.7 12.35 43.1 12.35 42.65 12.05 42.3 11.9 41.95 11.35 41.7 10.85 41.7 10.3
L 45.9 10.3 45.9 10.05
Q 45.9 9.45 45.65 8.8 45.3 8.25 44.8 7.9
M 43.55 8.1
Q 44.35 8.1 44.8 8.55 45.3 9.05 45.3 9.85
L 41.7 9.85
Q 41.7 9.55 41.95 9.05 42.2 8.65 42.55 8.35 42.95 8.1 43.55 8.1 Z"/>
</g>

<g id="BDM_300x600_FR_psd_Asset_6_V8_1_Vous_tentez__d_accro_tre__la_fid_lisation____la_marque__0_Layer0_0_MEMBER_21_FILL">
<path fill="#D82C26" stroke="none" d="
M 1.2 25.1
Q 1.45 25.4 1.8 25.55
L 2.1 25
Q 1.85 24.95 1.7 24.7
L 1.6 24.2 1.6 17.35 1 17.45 1 24.3
Q 1 24.85 1.2 25.1 Z"/>
</g>

<g id="BDM_300x600_FR_psd_Asset_6_V8_1_Vous_tentez__d_accro_tre__la_fid_lisation____la_marque__0_Layer0_0_MEMBER_22_FILL">
<path fill="#D82C26" stroke="none" d="
M 4 21
Q 4.4 20.8 4.85 20.8 5.5 20.8 5.85 21.15 6.25 21.45 6.25 22.15
L 6.25 22.45 5.65 22.45
Q 2.8 22.45 2.8 24.1 2.8 24.85 3.25 25.2 3.75 25.55 4.4 25.55 4.9 25.55 5.5 25.3 6 25 6.25 24.45
L 6.35 25.4 6.9 25.4 6.85 22.2
Q 6.85 21.25 6.3 20.8 5.85 20.3 4.9 20.3
L 3.9 20.45
Q 3.3 20.75 3.1 20.95
L 3.25 21.4
Q 3.6 21.15 4 21
M 6.25 23.35
Q 6.25 23.8 6.05 24.15 5.85 24.5 5.45 24.85 5.05 25.1 4.5 25.1 4.1 25.1 3.7 24.85 3.4 24.65 3.4 24.05 3.4 22.85 5.75 22.85
L 6.25 22.85 6.25 23.35 Z"/>
</g>

<g id="BDM_300x600_FR_psd_Asset_6_V8_1_Vous_tentez__d_accro_tre__la_fid_lisation____la_marque__0_Layer0_0_MEMBER_23_FILL">
<path fill="#D82C26" stroke="none" d="
M 14.25 20.45
L 13.6 20.45 13.6 25.4 14.25 25.4 14.25 20.45
M 13.6 18.15
Q 13.5 18.25 13.5 18.45 13.5 18.7 13.6 18.8
L 13.9 18.95
Q 14.1 18.95 14.25 18.8
L 14.35 18.45 14.25 18.15
Q 14.15 18.05 13.9 18.05 13.7 18.05 13.6 18.15
M 9.85 20.45
L 9.75 20.95 10.75 20.95 10.75 25.4 11.4 25.4 11.4 20.95 12.5 20.95 12.65 20.45 11.4 20.45 11.4 19.05
Q 11.4 18.5 11.6 18.15 11.8 17.8 12.3 17.8
L 13.1 17.9 13.15 17.4 12.75 17.3 12.25 17.25
Q 11.6 17.25 11.15 17.7 10.75 18.2 10.75 19
L 10.75 20.45 9.85 20.45 Z"/>
</g>

<g id="BDM_300x600_FR_psd_Asset_6_V8_1_Vous_tentez__d_accro_tre__la_fid_lisation____la_marque__0_Layer0_0_MEMBER_24_FILL">
<path fill="#D82C26" stroke="none" d="
M 19.95 21.55
L 19.9 21.55
Q 19.6 20.95 19.1 20.65 18.55 20.3 17.9 20.3 17.3 20.3 16.6 20.65 16.05 21.05 15.7 21.6 15.4 22.2 15.4 22.95 15.4 23.65 15.7 24.25 16.15 24.95 16.6 25.2 17.15 25.55 17.9 25.55 18.5 25.55 19.1 25.25 19.65 24.95 19.95 24.35
L 20 25.4 20.6 25.4 20.55 17.3 19.95 17.4 19.95 21.55
M 18 20.85
Q 18.5 20.85 19 21.1 19.5 21.45 19.7 21.9 19.95 22.4 19.95 22.95 19.95 23.4 19.7 24 19.5 24.45 19 24.75 18.55 25.05 18 25.05 17.4 25.05 16.95 24.75 16.55 24.5 16.3 24 16.05 23.55 16.05 22.95 16.05 22.3 16.3 21.9 16.5 21.4 16.95 21.1 17.45 20.85 18 20.85 Z"/>
</g>

<g id="BDM_300x600_FR_psd_Asset_6_V8_1_Vous_tentez__d_accro_tre__la_fid_lisation____la_marque__0_Layer0_0_MEMBER_25_FILL">
<path fill="#D82C26" stroke="none" d="
M 23.75 19.45
L 24.25 19.45 25.55 17.9 24.8 17.9 23.75 19.45
M 24.15 20.3
Q 23.45 20.3 22.9 20.65 22.35 20.95 22.05 21.55 21.7 22.1 21.7 22.9 21.7 23.75 22.05 24.3 22.35 24.85 22.95 25.25 23.5 25.55 24.25 25.55 25.45 25.55 26.25 24.95
L 26.1 24.4
Q 25.8 24.7 25.3 24.85 24.9 25.05 24.3 25.05 23.8 25.05 23.3 24.8 22.85 24.5 22.55 24.05 22.3 23.55 22.3 23
L 26.5 23 26.5 22.75
Q 26.5 22 26.25 21.5 25.9 20.9 25.45 20.65 24.95 20.3 24.15 20.3
M 23.2 21.05
Q 23.6 20.8 24.15 20.8 24.95 20.8 25.45 21.3 25.85 21.7 25.95 22.55
L 22.3 22.55
Q 22.4 22.05 22.55 21.75 22.8 21.3 23.2 21.05 Z"/>
</g>

<g id="BDM_300x600_FR_psd_Asset_6_V8_1_Vous_tentez__d_accro_tre__la_fid_lisation____la_marque__0_Layer0_0_MEMBER_26_FILL">
<path fill="#D82C26" stroke="none" d="
M 27.9 25.1
Q 28.15 25.45 28.45 25.55
L 28.75 25
Q 28.5 24.95 28.4 24.7 28.3 24.6 28.3 24.2
L 28.3 17.35 27.65 17.45 27.65 24.3
Q 27.65 24.75 27.9 25.1 Z"/>
</g>

<g id="BDM_300x600_FR_psd_Asset_6_V8_1_Vous_tentez__d_accro_tre__la_fid_lisation____la_marque__0_Layer0_0_MEMBER_27_FILL">
<path fill="#D82C26" stroke="none" d="
M 30.45 20.45
L 29.8 20.45 29.8 25.4 30.45 25.4 30.45 20.45
M 29.8 18.8
Q 29.95 18.95 30.15 18.95
L 30.45 18.8
Q 30.6 18.65 30.6 18.45
L 30.45 18.15
Q 30.35 18.05 30.15 18.05 29.9 18.05 29.8 18.15
L 29.7 18.45 29.8 18.8 Z"/>
</g>

<g id="BDM_300x600_FR_psd_Asset_6_V8_1_Vous_tentez__d_accro_tre__la_fid_lisation____la_marque__0_Layer0_0_MEMBER_28_FILL">
<path fill="#D82C26" stroke="none" d="
M 34.15 20.45
Q 33.7 20.3 33.25 20.3
L 32.5 20.45
Q 32.05 20.65 31.85 20.9 31.65 21.25 31.65 21.65 31.65 22.25 32 22.55 32.25 22.8 33.05 23.05 33.55 23.2 34.1 23.55 34.4 23.8 34.4 24.15 34.4 24.6 34.05 24.8 33.8 25.05 33.3 25.05 32.35 25.05 31.65 24.45
L 31.55 25
Q 31.9 25.25 32.3 25.4 32.75 25.55 33.3 25.55 33.7 25.55 34.15 25.4 34.45 25.25 34.75 24.9 35 24.55 35 24.1 35 23.55 34.6 23.25 34.3 22.9 33.45 22.65 32.8 22.45 32.5 22.2 32.2 22.05 32.2 21.65 32.2 21.25 32.5 21 32.75 20.8 33.3 20.8 33.65 20.8 34 20.95
L 34.6 21.3 34.85 20.85
Q 34.45 20.55 34.15 20.45 Z"/>
</g>

<g id="BDM_300x600_FR_psd_Asset_6_V8_1_Vous_tentez__d_accro_tre__la_fid_lisation____la_marque__0_Layer0_0_MEMBER_29_FILL">
<path fill="#D82C26" stroke="none" d="
M 37.95 20.3
L 36.9 20.45
Q 36.3 20.75 36.1 20.95
L 36.25 21.4
Q 36.6 21.15 37 21 37.4 20.8 37.85 20.8 38.5 20.8 38.85 21.15 39.25 21.4 39.25 22.15
L 39.25 22.45 38.65 22.45
Q 35.8 22.45 35.8 24.1 35.8 24.85 36.25 25.2 36.75 25.55 37.4 25.55 37.9 25.55 38.5 25.3 39 25 39.25 24.45
L 39.35 25.4 39.9 25.4 39.85 22.2
Q 39.85 21.3 39.35 20.8 38.85 20.3 37.95 20.3
M 39.25 23.35
Q 39.25 23.8 39.05 24.15 38.85 24.6 38.45 24.85 38.05 25.1 37.5 25.1 37.1 25.1 36.75 24.85 36.4 24.65 36.4 24.05 36.4 22.85 38.75 22.85
L 39.25 22.85 39.25 23.35 Z"/>
</g>

<g id="BDM_300x600_FR_psd_Asset_6_V8_1_Vous_tentez__d_accro_tre__la_fid_lisation____la_marque__0_Layer0_0_MEMBER_30_FILL">
<path fill="#D82C26" stroke="none" d="
M 43.3 20.95
L 43.4 20.45 42 20.45 42 19.05 41.4 19.3 41.4 20.45 40.6 20.45 40.45 20.95 41.4 20.95 41.4 24.2
Q 41.4 24.85 41.7 25.2 42 25.5 42.55 25.5
L 43.1 25.45 43.6 25.25 43.5 24.8
Q 43.1 25 42.75 25 42.4 25 42.2 24.8 42 24.6 42 24.15
L 42 20.95 43.3 20.95 Z"/>
</g>

<g id="BDM_300x600_FR_psd_Asset_6_V8_1_Vous_tentez__d_accro_tre__la_fid_lisation____la_marque__0_Layer0_0_MEMBER_31_FILL">
<path fill="#D82C26" stroke="none" d="
M 45.05 20.45
L 44.4 20.45 44.4 25.4 45.05 25.4 45.05 20.45
M 45.15 18.45
L 45 18.15
Q 44.95 18.05 44.7 18.05 44.5 18.05 44.4 18.15
L 44.25 18.45
Q 44.25 18.65 44.4 18.8
L 44.7 18.95
Q 44.95 18.95 45 18.8 45.15 18.65 45.15 18.45 Z"/>
</g>

<g id="BDM_300x600_FR_psd_Asset_6_V8_1_Vous_tentez__d_accro_tre__la_fid_lisation____la_marque__0_Layer0_0_MEMBER_32_FILL">
<path fill="#D82C26" stroke="none" d="
M 50.15 20.65
Q 49.6 20.3 48.8 20.3 48 20.3 47.45 20.65 46.9 20.95 46.5 21.55 46.15 22.1 46.15 22.95 46.15 23.75 46.5 24.3 46.85 24.9 47.45 25.25 48.05 25.55 48.8 25.55 49.55 25.55 50.15 25.25 50.75 24.9 51.1 24.3 51.45 23.75 51.45 22.95 51.45 22.1 51.1 21.55 50.7 20.95 50.15 20.65
M 48.8 20.85
Q 49.35 20.85 49.85 21.1 50.35 21.45 50.55 21.85 50.8 22.3 50.8 22.95 50.8 23.55 50.6 24 50.25 24.5 49.85 24.75 49.4 25.05 48.8 25.05 48.2 25.05 47.75 24.75 47.3 24.5 47.05 24 46.8 23.55 46.8 22.95 46.8 22.3 47.05 21.85 47.3 21.35 47.75 21.1 48.25 20.85 48.8 20.85 Z"/>
</g>

<g id="BDM_300x600_FR_psd_Asset_6_V8_1_Vous_tentez__d_accro_tre__la_fid_lisation____la_marque__0_Layer0_0_MEMBER_33_FILL">
<path fill="#D82C26" stroke="none" d="
M 53.15 20.45
L 52.55 20.45 52.6 25.4 53.25 25.4 53.25 22.9
Q 53.25 22.2 53.45 21.8 53.65 21.35 54.05 21.1 54.35 20.85 54.9 20.85 55.6 20.85 55.9 21.3 56.2 21.85 56.2 22.55
L 56.2 25.4 56.85 25.4 56.85 22.4
Q 56.85 21.5 56.4 20.9 55.95 20.3 55 20.3 54.4 20.3 53.9 20.65 53.4 20.95 53.2 21.55
L 53.15 20.45 Z"/>
</g>

<g id="BDM_300x600_FR_psd_Asset_6_V8_1_Vous_tentez__d_accro_tre__la_fid_lisation____la_marque__0_Layer0_0_MEMBER_34_FILL">
<path fill="#D82C26" stroke="none" d="
M 2.65 33.5
Q 3.35 33.5 3.7 33.85 4.05 34.2 4.05 34.85
L 4.05 35.15 3.45 35.15
Q 0.6 35.15 0.6 36.8 0.6 37.55 1.1 37.9 1.5 38.25 2.2 38.25 2.7 38.25 3.3 38 3.8 37.7 4.05 37.15
L 4.1 37.15 4.15 38.15 4.7 38.15 4.65 34.9
Q 4.65 34 4.15 33.5 3.65 33 2.75 33 2.15 33 1.75 33.2 1.2 33.35 0.9 33.65
L 1.05 34.1
Q 1.4 33.85 1.8 33.7 2.2 33.5 2.65 33.5
M 4.05 36.05
Q 4.05 36.5 3.85 36.9 3.7 37.25 3.25 37.55 2.85 37.8 2.3 37.8 1.9 37.8 1.55 37.55 1.2 37.35 1.2 36.75 1.2 35.55 3.55 35.55
L 4.05 35.55 4.05 36.05
M 2.3 30.6
L 1.6 30.6 2.9 32.15 3.4 32.15 2.3 30.6 Z"/>
</g>

<g id="BDM_300x600_FR_psd_Asset_6_V8_1_Vous_tentez__d_accro_tre__la_fid_lisation____la_marque__0_Layer0_0_MEMBER_35_FILL">
<path fill="#D82C26" stroke="none" d="
M 8.55 37.8
Q 8.8 38.1 9.15 38.25
L 9.45 37.7
Q 9.2 37.65 9.05 37.4
L 8.95 36.9 8.95 30.05 8.35 30.15 8.35 37.05
Q 8.35 37.55 8.55 37.8 Z"/>
</g>

<g id="BDM_300x600_FR_psd_Asset_6_V8_1_Vous_tentez__d_accro_tre__la_fid_lisation____la_marque__0_Layer0_0_MEMBER_36_FILL">
<path fill="#D82C26" stroke="none" d="
M 11.35 33.7
Q 11.75 33.5 12.2 33.5 12.85 33.5 13.2 33.85 13.6 34.25 13.6 34.85
L 13.6 35.15 13 35.15
Q 10.15 35.15 10.15 36.8 10.15 37.55 10.6 37.9 11.1 38.25 11.75 38.25 12.25 38.25 12.85 38 13.35 37.7 13.6 37.15
L 13.7 38.15 14.25 38.15 14.2 34.9
Q 14.2 33.95 13.65 33.5 13.2 33 12.25 33 11.7 33 11.25 33.2 10.75 33.4 10.45 33.65
L 10.6 34.1
Q 10.95 33.85 11.35 33.7
M 13.6 36.05
Q 13.6 36.5 13.4 36.9 13.2 37.25 12.8 37.55 12.4 37.8 11.85 37.8 11.45 37.8 11.05 37.55 10.75 37.35 10.75 36.75 10.75 35.55 13.1 35.55
L 13.6 35.55 13.6 36.05 Z"/>
</g>

<g id="BDM_300x600_FR_psd_Asset_6_V8_1_Vous_tentez__d_accro_tre__la_fid_lisation____la_marque__0_Layer0_0_MEMBER_37_FILL">
<path fill="#D82C26" stroke="none" d="
M 19.3 33.8
Q 19.55 33.55 20.05 33.55 20.7 33.55 21 33.95 21.3 34.4 21.3 35.2
L 21.3 38.15 21.95 38.15 21.95 35.55
Q 21.95 34.75 22.35 34.1 22.8 33.55 23.5 33.55 24.2 33.55 24.5 34.05 24.8 34.6 24.8 35.3
L 24.8 38.15 25.4 38.15 25.4 35.15
Q 25.4 34.2 25 33.65 24.55 33 23.65 33 23.1 33 22.55 33.35 22.1 33.7 21.85 34.3 21.65 33.75 21.25 33.35 20.75 33 20.2 33 19.75 33 19.2 33.35 18.75 33.6 18.5 34.25
L 18.4 33.15 17.85 33.15 17.9 38.15 18.5 38.15 18.5 35.65
Q 18.5 35.2 18.7 34.5 18.95 34 19.3 33.8 Z"/>
</g>

<g id="BDM_300x600_FR_psd_Asset_6_V8_1_Vous_tentez__d_accro_tre__la_fid_lisation____la_marque__0_Layer0_0_MEMBER_38_FILL">
<path fill="#D82C26" stroke="none" d="
M 28.55 33.5
Q 29.2 33.5 29.55 33.85 29.95 34.25 29.95 34.85
L 29.95 35.15 29.35 35.15
Q 26.5 35.15 26.5 36.8 26.5 37.55 26.95 37.9 27.45 38.25 28.1 38.25 28.6 38.25 29.2 38 29.7 37.7 29.95 37.15
L 30.05 38.15 30.6 38.15 30.55 34.9
Q 30.55 33.95 30 33.5 29.55 33 28.6 33 28.05 33 27.6 33.2 27.1 33.4 26.8 33.65
L 26.95 34.1
Q 27.3 33.85 27.7 33.7 28.1 33.5 28.55 33.5
M 29.95 36.05
Q 29.95 36.5 29.75 36.9 29.55 37.25 29.15 37.55 28.75 37.8 28.2 37.8 27.8 37.8 27.4 37.55 27.1 37.35 27.1 36.75 27.1 35.55 29.45 35.55
L 29.95 35.55 29.95 36.05 Z"/>
</g>

<g id="BDM_300x600_FR_psd_Asset_6_V8_1_Vous_tentez__d_accro_tre__la_fid_lisation____la_marque__0_Layer0_0_MEMBER_39_FILL">
<path fill="#D82C26" stroke="none" d="
M 34.05 33
Q 33.65 33 33.2 33.35 32.75 33.65 32.6 34.25
L 32.55 34.25 32.5 33.15 31.9 33.15 31.95 38.15 32.6 38.15 32.6 35.65
Q 32.6 34.75 32.95 34.2 33.35 33.55 34 33.55
L 34.45 33.65 34.55 33.1 34.05 33 Z"/>
</g>

<g id="BDM_300x600_FR_psd_Asset_6_V8_1_Vous_tentez__d_accro_tre__la_fid_lisation____la_marque__0_Layer0_0_MEMBER_40_FILL">
<path fill="#D82C26" stroke="none" d="
M 35.05 34.3
Q 34.7 35 34.7 35.65 34.7 36.3 35.05 37 35.35 37.6 35.9 37.9 36.45 38.25 37.2 38.25 37.9 38.25 38.4 37.95 39 37.6 39.2 37.05
L 39.25 37.05 39.25 39.3
Q 39.25 40.4 40.3 40.7
L 40.6 40.15
Q 40.2 40 40.05 39.8 39.85 39.65 39.85 39.15
L 39.9 33.15 39.3 33.15 39.25 34.25
Q 38.95 33.65 38.4 33.35 37.8 33 37.2 33 36.6 33 35.9 33.35 35.3 33.75 35.05 34.3
M 36.25 33.85
Q 36.7 33.55 37.3 33.55 37.85 33.55 38.3 33.85 38.8 34.1 39 34.6 39.25 35 39.25 35.65 39.25 36.35 39 36.7 38.8 37.15 38.3 37.45 37.85 37.75 37.3 37.75 36.7 37.75 36.25 37.45 35.9 37.25 35.6 36.7 35.35 36.2 35.35 35.65 35.35 35.1 35.6 34.6 35.85 34.05 36.25 33.85 Z"/>
</g>

<g id="BDM_300x600_FR_psd_Asset_6_V8_1_Vous_tentez__d_accro_tre__la_fid_lisation____la_marque__0_Layer0_0_MEMBER_41_FILL">
<path fill="#D82C26" stroke="none" d="
M 41.3 33.15
L 41.3 36.2
Q 41.3 37.1 41.7 37.65 42.15 38.25 43.1 38.25 43.7 38.25 44.2 37.95 44.65 37.65 44.9 37.05
L 45 38.15 45.6 38.15 45.5 36.95 45.5 33.15 44.9 33.15 44.9 35.65
Q 44.9 36.35 44.7 36.8 44.45 37.3 44.1 37.5 43.7 37.75 43.25 37.75 42.5 37.75 42.2 37.25 41.9 36.8 41.9 36.05
L 41.9 33.15 41.3 33.15 Z"/>
</g>

<g id="BDM_300x600_FR_psd_Asset_6_V8_1_Vous_tentez__d_accro_tre__la_fid_lisation____la_marque__0_Layer0_0_MEMBER_42_FILL">
<path fill="#D82C26" stroke="none" d="
M 51.5 35.45
Q 51.5 34.85 51.25 34.25 50.95 33.65 50.4 33.35 49.9 33 49.15 33 48.4 33 47.9 33.35 47.35 33.6 47 34.25 46.7 34.85 46.7 35.6 46.7 36.4 47 37 47.35 37.55 47.9 37.95 48.6 38.3 49.25 38.3 50.3 38.3 51.2 37.65
L 51.1 37.1
Q 50.9 37.3 50.3 37.6 49.85 37.75 49.3 37.75 48.65 37.75 48.25 37.5 47.75 37.2 47.55 36.75 47.3 36.25 47.3 35.75
L 51.5 35.75 51.5 35.45
M 49.15 33.5
Q 49.95 33.5 50.4 34 50.9 34.45 50.9 35.3
L 47.3 35.3
Q 47.3 34.95 47.55 34.45 47.8 34 48.15 33.8 48.6 33.5 49.15 33.5 Z"/>
</g>

<g id="BDM_300x600_FR_psd_Asset_6_V8_1_Vous_tentez__d_accro_tre__la_fid_lisation____la_marque__0_Layer0_0_MEMBER_43_FILL">
<path fill="#D82C26" stroke="none" d="
M 53.6 30.45
Q 52.95 30.45 52.35 30.7 51.9 30.9 51.45 31.35
L 51.75 31.85
Q 52.05 31.5 52.5 31.25 53 31 53.55 31 54.2 31 54.6 31.35 55 31.75 55 32.3 55 32.6 54.85 32.9
L 54.6 33.35 54.05 33.9
Q 53.45 34.6 53.4 34.75 53.2 35.35 53.2 35.65
L 53.2 36 53.8 36 53.8 35.75 53.9 35.15
Q 53.9 35 54.1 34.7
L 55.2 33.55 55.5 33
Q 55.65 32.7 55.65 32.25 55.65 31.7 55.35 31.3 55.15 30.9 54.6 30.65 54.2 30.45 53.6 30.45
M 53.25 38.05
Q 53.35 38.2 53.55 38.2 53.75 38.2 53.9 38.05
L 54 37.7 53.9 37.4
Q 53.75 37.25 53.55 37.25 53.35 37.25 53.25 37.4
L 53.1 37.7
Q 53.1 37.9 53.25 38.05 Z"/>
</g>
</defs>

<g transform="matrix( 1, 0, 0, 1, -64,53) ">
<g transform="matrix( 1, 0, 0, 1, 58,0) ">
<g transform="matrix( 1, 0, 0, 1, 33,7) ">
<g transform="matrix( 2.815704345703125, 0, 0, 2.832611083984375, 0.15,21.6) ">
<use xlink:href="#BDM_300x600_FR_psd_Asset_6_V8_1_Vous_tentez__d_accro_tre__la_fid_lisation____la_marque__0_Layer0_0_MEMBER_0_FILL"/>
</g>

<g transform="matrix( 2.815704345703125, 0, 0, 2.832611083984375, 0.15,21.6) ">
<use xlink:href="#BDM_300x600_FR_psd_Asset_6_V8_1_Vous_tentez__d_accro_tre__la_fid_lisation____la_marque__0_Layer0_0_MEMBER_1_FILL"/>
</g>

<g transform="matrix( 2.815704345703125, 0, 0, 2.832611083984375, 0.15,21.6) ">
<use xlink:href="#BDM_300x600_FR_psd_Asset_6_V8_1_Vous_tentez__d_accro_tre__la_fid_lisation____la_marque__0_Layer0_0_MEMBER_2_FILL"/>
</g>

<g transform="matrix( 2.815704345703125, 0, 0, 2.832611083984375, 0.15,21.6) ">
<use xlink:href="#BDM_300x600_FR_psd_Asset_6_V8_1_Vous_tentez__d_accro_tre__la_fid_lisation____la_marque__0_Layer0_0_MEMBER_3_FILL"/>
</g>

<g transform="matrix( 2.815704345703125, 0, 0, 2.832611083984375, 0.15,21.6) ">
<use xlink:href="#BDM_300x600_FR_psd_Asset_6_V8_1_Vous_tentez__d_accro_tre__la_fid_lisation____la_marque__0_Layer0_0_MEMBER_4_FILL"/>
</g>

<g transform="matrix( 2.815704345703125, 0, 0, 2.832611083984375, 0.15,21.6) ">
<use xlink:href="#BDM_300x600_FR_psd_Asset_6_V8_1_Vous_tentez__d_accro_tre__la_fid_lisation____la_marque__0_Layer0_0_MEMBER_5_FILL"/>
</g>

<g transform="matrix( 2.815704345703125, 0, 0, 2.832611083984375, 0.15,21.6) ">
<use xlink:href="#BDM_300x600_FR_psd_Asset_6_V8_1_Vous_tentez__d_accro_tre__la_fid_lisation____la_marque__0_Layer0_0_MEMBER_6_FILL"/>
</g>

<g transform="matrix( 2.815704345703125, 0, 0, 2.832611083984375, 0.15,21.6) ">
<use xlink:href="#BDM_300x600_FR_psd_Asset_6_V8_1_Vous_tentez__d_accro_tre__la_fid_lisation____la_marque__0_Layer0_0_MEMBER_7_FILL"/>
</g>

<g transform="matrix( 2.815704345703125, 0, 0, 2.832611083984375, 0.15,21.6) ">
<use xlink:href="#BDM_300x600_FR_psd_Asset_6_V8_1_Vous_tentez__d_accro_tre__la_fid_lisation____la_marque__0_Layer0_0_MEMBER_8_FILL"/>
</g>

<g transform="matrix( 2.815704345703125, 0, 0, 2.832611083984375, 0.15,21.6) ">
<use xlink:href="#BDM_300x600_FR_psd_Asset_6_V8_1_Vous_tentez__d_accro_tre__la_fid_lisation____la_marque__0_Layer0_0_MEMBER_9_FILL"/>
</g>

<g transform="matrix( 2.815704345703125, 0, 0, 2.832611083984375, 0.15,21.6) ">
<use xlink:href="#BDM_300x600_FR_psd_Asset_6_V8_1_Vous_tentez__d_accro_tre__la_fid_lisation____la_marque__0_Layer0_0_MEMBER_10_FILL"/>
</g>

<g transform="matrix( 2.815704345703125, 0, 0, 2.832611083984375, 0.15,21.6) ">
<use xlink:href="#BDM_300x600_FR_psd_Asset_6_V8_1_Vous_tentez__d_accro_tre__la_fid_lisation____la_marque__0_Layer0_0_MEMBER_11_FILL"/>
</g>

<g transform="matrix( 2.815704345703125, 0, 0, 2.832611083984375, 0.15,21.6) ">
<use xlink:href="#BDM_300x600_FR_psd_Asset_6_V8_1_Vous_tentez__d_accro_tre__la_fid_lisation____la_marque__0_Layer0_0_MEMBER_12_FILL"/>
</g>

<g transform="matrix( 2.815704345703125, 0, 0, 2.832611083984375, 0.15,21.6) ">
<use xlink:href="#BDM_300x600_FR_psd_Asset_6_V8_1_Vous_tentez__d_accro_tre__la_fid_lisation____la_marque__0_Layer0_0_MEMBER_13_FILL"/>
</g>

<g transform="matrix( 2.815704345703125, 0, 0, 2.832611083984375, 0.15,21.6) ">
<use xlink:href="#BDM_300x600_FR_psd_Asset_6_V8_1_Vous_tentez__d_accro_tre__la_fid_lisation____la_marque__0_Layer0_0_MEMBER_14_FILL"/>
</g>

<g transform="matrix( 2.815704345703125, 0, 0, 2.832611083984375, 0.15,21.6) ">
<use xlink:href="#BDM_300x600_FR_psd_Asset_6_V8_1_Vous_tentez__d_accro_tre__la_fid_lisation____la_marque__0_Layer0_0_MEMBER_15_FILL"/>
</g>

<g transform="matrix( 2.815704345703125, 0, 0, 2.832611083984375, 0.15,21.6) ">
<use xlink:href="#BDM_300x600_FR_psd_Asset_6_V8_1_Vous_tentez__d_accro_tre__la_fid_lisation____la_marque__0_Layer0_0_MEMBER_16_FILL"/>
</g>

<g transform="matrix( 2.815704345703125, 0, 0, 2.832611083984375, 0.15,21.6) ">
<use xlink:href="#BDM_300x600_FR_psd_Asset_6_V8_1_Vous_tentez__d_accro_tre__la_fid_lisation____la_marque__0_Layer0_0_MEMBER_17_FILL"/>
</g>

<g transform="matrix( 2.815704345703125, 0, 0, 2.832611083984375, 0.15,21.6) ">
<use xlink:href="#BDM_300x600_FR_psd_Asset_6_V8_1_Vous_tentez__d_accro_tre__la_fid_lisation____la_marque__0_Layer0_0_MEMBER_18_FILL"/>
</g>

<g transform="matrix( 2.815704345703125, 0, 0, 2.832611083984375, 0.15,21.6) ">
<use xlink:href="#BDM_300x600_FR_psd_Asset_6_V8_1_Vous_tentez__d_accro_tre__la_fid_lisation____la_marque__0_Layer0_0_MEMBER_19_FILL"/>
</g>

<g transform="matrix( 2.815704345703125, 0, 0, 2.832611083984375, 0.15,21.6) ">
<use xlink:href="#BDM_300x600_FR_psd_Asset_6_V8_1_Vous_tentez__d_accro_tre__la_fid_lisation____la_marque__0_Layer0_0_MEMBER_20_FILL"/>
</g>

<g transform="matrix( 2.815704345703125, 0, 0, 2.832611083984375, 0.15,21.6) ">
<use xlink:href="#BDM_300x600_FR_psd_Asset_6_V8_1_Vous_tentez__d_accro_tre__la_fid_lisation____la_marque__0_Layer0_0_MEMBER_21_FILL"/>
</g>

<g transform="matrix( 2.815704345703125, 0, 0, 2.832611083984375, 0.15,21.6) ">
<use xlink:href="#BDM_300x600_FR_psd_Asset_6_V8_1_Vous_tentez__d_accro_tre__la_fid_lisation____la_marque__0_Layer0_0_MEMBER_22_FILL"/>
</g>

<g transform="matrix( 2.815704345703125, 0, 0, 2.832611083984375, 0.15,21.6) ">
<use xlink:href="#BDM_300x600_FR_psd_Asset_6_V8_1_Vous_tentez__d_accro_tre__la_fid_lisation____la_marque__0_Layer0_0_MEMBER_23_FILL"/>
</g>

<g transform="matrix( 2.815704345703125, 0, 0, 2.832611083984375, 0.15,21.6) ">
<use xlink:href="#BDM_300x600_FR_psd_Asset_6_V8_1_Vous_tentez__d_accro_tre__la_fid_lisation____la_marque__0_Layer0_0_MEMBER_24_FILL"/>
</g>

<g transform="matrix( 2.815704345703125, 0, 0, 2.832611083984375, 0.15,21.6) ">
<use xlink:href="#BDM_300x600_FR_psd_Asset_6_V8_1_Vous_tentez__d_accro_tre__la_fid_lisation____la_marque__0_Layer0_0_MEMBER_25_FILL"/>
</g>

<g transform="matrix( 2.815704345703125, 0, 0, 2.832611083984375, 0.15,21.6) ">
<use xlink:href="#BDM_300x600_FR_psd_Asset_6_V8_1_Vous_tentez__d_accro_tre__la_fid_lisation____la_marque__0_Layer0_0_MEMBER_26_FILL"/>
</g>

<g transform="matrix( 2.815704345703125, 0, 0, 2.832611083984375, 0.15,21.6) ">
<use xlink:href="#BDM_300x600_FR_psd_Asset_6_V8_1_Vous_tentez__d_accro_tre__la_fid_lisation____la_marque__0_Layer0_0_MEMBER_27_FILL"/>
</g>

<g transform="matrix( 2.815704345703125, 0, 0, 2.832611083984375, 0.15,21.6) ">
<use xlink:href="#BDM_300x600_FR_psd_Asset_6_V8_1_Vous_tentez__d_accro_tre__la_fid_lisation____la_marque__0_Layer0_0_MEMBER_28_FILL"/>
</g>

<g transform="matrix( 2.815704345703125, 0, 0, 2.832611083984375, 0.15,21.6) ">
<use xlink:href="#BDM_300x600_FR_psd_Asset_6_V8_1_Vous_tentez__d_accro_tre__la_fid_lisation____la_marque__0_Layer0_0_MEMBER_29_FILL"/>
</g>

<g transform="matrix( 2.815704345703125, 0, 0, 2.832611083984375, 0.15,21.6) ">
<use xlink:href="#BDM_300x600_FR_psd_Asset_6_V8_1_Vous_tentez__d_accro_tre__la_fid_lisation____la_marque__0_Layer0_0_MEMBER_30_FILL"/>
</g>

<g transform="matrix( 2.815704345703125, 0, 0, 2.832611083984375, 0.15,21.6) ">
<use xlink:href="#BDM_300x600_FR_psd_Asset_6_V8_1_Vous_tentez__d_accro_tre__la_fid_lisation____la_marque__0_Layer0_0_MEMBER_31_FILL"/>
</g>

<g transform="matrix( 2.815704345703125, 0, 0, 2.832611083984375, 0.15,21.6) ">
<use xlink:href="#BDM_300x600_FR_psd_Asset_6_V8_1_Vous_tentez__d_accro_tre__la_fid_lisation____la_marque__0_Layer0_0_MEMBER_32_FILL"/>
</g>

<g transform="matrix( 2.815704345703125, 0, 0, 2.832611083984375, 0.15,21.6) ">
<use xlink:href="#BDM_300x600_FR_psd_Asset_6_V8_1_Vous_tentez__d_accro_tre__la_fid_lisation____la_marque__0_Layer0_0_MEMBER_33_FILL"/>
</g>

<g transform="matrix( 2.815704345703125, 0, 0, 2.832611083984375, 0.15,21.6) ">
<use xlink:href="#BDM_300x600_FR_psd_Asset_6_V8_1_Vous_tentez__d_accro_tre__la_fid_lisation____la_marque__0_Layer0_0_MEMBER_34_FILL"/>
</g>

<g transform="matrix( 2.815704345703125, 0, 0, 2.832611083984375, 0.15,21.6) ">
<use xlink:href="#BDM_300x600_FR_psd_Asset_6_V8_1_Vous_tentez__d_accro_tre__la_fid_lisation____la_marque__0_Layer0_0_MEMBER_35_FILL"/>
</g>

<g transform="matrix( 2.815704345703125, 0, 0, 2.832611083984375, 0.15,21.6) ">
<use xlink:href="#BDM_300x600_FR_psd_Asset_6_V8_1_Vous_tentez__d_accro_tre__la_fid_lisation____la_marque__0_Layer0_0_MEMBER_36_FILL"/>
</g>

<g transform="matrix( 2.815704345703125, 0, 0, 2.832611083984375, 0.15,21.6) ">
<use xlink:href="#BDM_300x600_FR_psd_Asset_6_V8_1_Vous_tentez__d_accro_tre__la_fid_lisation____la_marque__0_Layer0_0_MEMBER_37_FILL"/>
</g>

<g transform="matrix( 2.815704345703125, 0, 0, 2.832611083984375, 0.15,21.6) ">
<use xlink:href="#BDM_300x600_FR_psd_Asset_6_V8_1_Vous_tentez__d_accro_tre__la_fid_lisation____la_marque__0_Layer0_0_MEMBER_38_FILL"/>
</g>

<g transform="matrix( 2.815704345703125, 0, 0, 2.832611083984375, 0.15,21.6) ">
<use xlink:href="#BDM_300x600_FR_psd_Asset_6_V8_1_Vous_tentez__d_accro_tre__la_fid_lisation____la_marque__0_Layer0_0_MEMBER_39_FILL"/>
</g>

<g transform="matrix( 2.815704345703125, 0, 0, 2.832611083984375, 0.15,21.6) ">
<use xlink:href="#BDM_300x600_FR_psd_Asset_6_V8_1_Vous_tentez__d_accro_tre__la_fid_lisation____la_marque__0_Layer0_0_MEMBER_40_FILL"/>
</g>

<g transform="matrix( 2.815704345703125, 0, 0, 2.832611083984375, 0.15,21.6) ">
<use xlink:href="#BDM_300x600_FR_psd_Asset_6_V8_1_Vous_tentez__d_accro_tre__la_fid_lisation____la_marque__0_Layer0_0_MEMBER_41_FILL"/>
</g>

<g transform="matrix( 2.815704345703125, 0, 0, 2.832611083984375, 0.15,21.6) ">
<use xlink:href="#BDM_300x600_FR_psd_Asset_6_V8_1_Vous_tentez__d_accro_tre__la_fid_lisation____la_marque__0_Layer0_0_MEMBER_42_FILL"/>
</g>

<g transform="matrix( 2.815704345703125, 0, 0, 2.832611083984375, 0.15,21.6) ">
<use xlink:href="#BDM_300x600_FR_psd_Asset_6_V8_1_Vous_tentez__d_accro_tre__la_fid_lisation____la_marque__0_Layer0_0_MEMBER_43_FILL"/>
</g>
</g>
</g>
</g>
</svg>
