
<svg xmlns="http://www.w3.org/2000/svg" version="1.1" xmlns:xlink="http://www.w3.org/1999/xlink" preserveAspectRatio="none" x="0px" y="0px" width="336px" height="280px" viewBox="0 0 336 280">
<defs>
<g id="BDM_336x280_psd_Asset_ManagedWiFi_Awareness_DM7_2_Get_data_analytics_on__everything_from_foot_traffic__0_Layer0_0_MEMBER_0_FILL">
<path fill="#D82C26" stroke="none" d="
M 3.7 -5.7
L 4.75 -5.55 5.65 -5.1 5.8 -5.5
Q 5.55 -5.7 4.85 -6 4.25 -6.15 3.7 -6.15 2.7 -6.15 2.05 -5.75 1.35 -5.35 0.95 -4.65 0.55 -4 0.55 -3 0.55 -2 0.95 -1.4 1.35 -0.6 2.05 -0.25 2.85 0.15 3.7 0.15 4.4 0.15 4.9 0
L 5.9 -0.35 5.9 -3.1 4.05 -3.1 3.95 -2.7 5.4 -2.7 5.4 -0.65
Q 4.7 -0.3 3.75 -0.3 2.85 -0.3 2.3 -0.65 1.7 -1 1.4 -1.65 1.05 -2.2 1.05 -3 1.05 -3.65 1.4 -4.35 1.65 -4.95 2.3 -5.35 2.85 -5.7 3.7 -5.7 Z"/>
</g>

<g id="BDM_336x280_psd_Asset_ManagedWiFi_Awareness_DM7_2_Get_data_analytics_on__everything_from_foot_traffic__0_Layer0_0_MEMBER_1_FILL">
<path fill="#D82C26" stroke="none" d="
M 8.95 -4.1
Q 8.45 -4.1 7.95 -3.85 7.5 -3.55 7.2 -3.1 6.95 -2.5 6.95 -2 6.95 -1.4 7.25 -0.9 7.45 -0.45 7.95 -0.15 8.35 0.1 9 0.1 9.95 0.1 10.6 -0.4
L 10.5 -0.8 9.85 -0.45
Q 9.5 -0.3 9.05 -0.3 8.55 -0.3 8.2 -0.5 7.85 -0.75 7.65 -1.1 7.45 -1.45 7.45 -1.9
L 10.8 -1.9 10.8 -2.15
Q 10.8 -2.7 10.6 -3.1 10.35 -3.55 9.95 -3.85 9.45 -4.1 8.95 -4.1
M 8.95 -3.7
Q 9.55 -3.7 9.95 -3.3 10.35 -2.9 10.35 -2.3
L 7.45 -2.3
Q 7.45 -2.5 7.65 -2.9 7.8 -3.2 8.15 -3.5 8.4 -3.7 8.95 -3.7 Z"/>
</g>

<g id="BDM_336x280_psd_Asset_ManagedWiFi_Awareness_DM7_2_Get_data_analytics_on__everything_from_foot_traffic__0_Layer0_0_MEMBER_2_FILL">
<path fill="#D82C26" stroke="none" d="
M 13.45 -3.6
L 13.55 -3.95 12.4 -3.95 12.4 -5.1 11.9 -4.9 11.9 -3.95 11.25 -3.95 11.15 -3.6 11.9 -3.6 11.9 -0.95
Q 11.9 -0.45 12.15 -0.2 12.45 0.1 12.85 0.1
L 13.3 0.05 13.7 -0.15 13.6 -0.5
Q 13.1 -0.3 13 -0.3 12.75 -0.3 12.55 -0.5 12.4 -0.65 12.4 -1.05
L 12.4 -3.6 13.45 -3.6 Z"/>
</g>

<g id="BDM_336x280_psd_Asset_ManagedWiFi_Awareness_DM7_2_Get_data_analytics_on__everything_from_foot_traffic__0_Layer0_0_MEMBER_3_FILL">
<path fill="#D82C26" stroke="none" d="
M 19.8 -6.5
L 19.3 -6.4 19.3 -3.1
Q 19.1 -3.5 18.65 -3.85 18.15 -4.1 17.7 -4.1 17.1 -4.1 16.65 -3.8 16.15 -3.45 15.95 -3.05 15.7 -2.55 15.7 -2 15.7 -1.5 15.95 -0.9 16.15 -0.45 16.65 -0.15 17.15 0.1 17.7 0.1 18.3 0.1 18.65 -0.15 19.05 -0.35 19.3 -0.85
L 19.35 -0.85 19.4 0 19.85 0 19.8 -6.5
M 17.75 -3.65
Q 18.3 -3.65 18.55 -3.45 18.95 -3.2 19.15 -2.85 19.35 -2.25 19.35 -2 19.35 -1.65 19.15 -1.15 18.95 -0.75 18.55 -0.55 18.2 -0.3 17.75 -0.3 17.3 -0.3 16.95 -0.55 16.55 -0.8 16.4 -1.15 16.2 -1.5 16.2 -2 16.2 -2.45 16.4 -2.85 16.55 -3.2 16.95 -3.45 17.2 -3.65 17.75 -3.65 Z"/>
</g>

<g id="BDM_336x280_psd_Asset_ManagedWiFi_Awareness_DM7_2_Get_data_analytics_on__everything_from_foot_traffic__0_Layer0_0_MEMBER_4_FILL">
<path fill="#D82C26" stroke="none" d="
M 21.75 -3.55
L 22.45 -3.7
Q 22.95 -3.7 23.25 -3.4 23.55 -3.15 23.55 -2.6
L 23.55 -2.4 23.1 -2.4
Q 20.8 -2.4 20.8 -1.05 20.8 -0.5 21.2 -0.2 21.6 0.1 22.05 0.1 22.6 0.1 22.95 -0.1 23.4 -0.3 23.55 -0.75
L 23.6 -0.75 23.6 -0.35 23.65 0 24.1 0 24.05 -2.6
Q 24.05 -3.3 23.65 -3.7 23.15 -4.1 22.5 -4.1 22.1 -4.1 21.7 -3.95 21.2 -3.75 21.05 -3.6
L 21.2 -3.2 21.75 -3.55
M 21.55 -0.45
Q 21.3 -0.65 21.3 -1.1 21.3 -2.05 23.15 -2.05
L 23.55 -2.05 23.55 -1.65
Q 23.55 -1.3 23.4 -1 23.25 -0.65 22.95 -0.45 22.55 -0.25 22.2 -0.25 21.85 -0.25 21.55 -0.45 Z"/>
</g>

<g id="BDM_336x280_psd_Asset_ManagedWiFi_Awareness_DM7_2_Get_data_analytics_on__everything_from_foot_traffic__0_Layer0_0_MEMBER_5_FILL">
<path fill="#D82C26" stroke="none" d="
M 24.75 -3.95
L 24.6 -3.6 25.35 -3.6 25.35 -0.95
Q 25.35 -0.45 25.6 -0.2 25.9 0.1 26.3 0.1
L 26.75 0.05 27.15 -0.15 27.05 -0.5
Q 26.65 -0.3 26.45 -0.3 26.2 -0.3 26 -0.5 25.85 -0.65 25.85 -1.05
L 25.85 -3.6 26.9 -3.6 27 -3.95 25.85 -3.95 25.85 -5.1 25.35 -4.9 25.35 -3.95 24.75 -3.95 Z"/>
</g>

<g id="BDM_336x280_psd_Asset_ManagedWiFi_Awareness_DM7_2_Get_data_analytics_on__everything_from_foot_traffic__0_Layer0_0_MEMBER_6_FILL">
<path fill="#D82C26" stroke="none" d="
M 29.3 -3.7
Q 29.8 -3.7 30.1 -3.4 30.4 -3.15 30.4 -2.6
L 30.4 -2.4 29.9 -2.4
Q 27.65 -2.4 27.65 -1.05 27.65 -0.5 28 -0.2 28.4 0.1 28.9 0.1 29.45 0.1 29.8 -0.1 30.25 -0.3 30.4 -0.75
L 30.5 0 30.95 0 30.85 -0.85 30.85 -2.6
Q 30.85 -3.35 30.45 -3.7 30.05 -4.1 29.35 -4.1 28.95 -4.1 28.55 -3.95
L 27.85 -3.6 28 -3.2
Q 28.2 -3.4 28.6 -3.55
L 29.3 -3.7
M 29.8 -0.45
Q 29.3 -0.25 29 -0.25 28.7 -0.25 28.4 -0.45 28.1 -0.65 28.1 -1.1 28.1 -2.05 30 -2.05
L 30.4 -2.05 30.4 -1.65
Q 30.4 -1.3 30.25 -1 30.1 -0.65 29.8 -0.45 Z"/>
</g>

<g id="BDM_336x280_psd_Asset_ManagedWiFi_Awareness_DM7_2_Get_data_analytics_on__everything_from_foot_traffic__0_Layer0_0_MEMBER_7_FILL">
<path fill="#D82C26" stroke="none" d="
M 33.55 -1.05
Q 33.55 -0.5 33.9 -0.2 34.3 0.1 34.8 0.1 35.3 0.1 35.7 -0.1 36.05 -0.3 36.3 -0.75
L 36.3 -0.35 36.35 0 36.8 0 36.75 -2.6
Q 36.75 -3.3 36.35 -3.7 35.95 -4.1 35.2 -4.1 34.85 -4.1 34.4 -3.95
L 33.75 -3.6 33.9 -3.2
Q 34.1 -3.4 34.5 -3.55 34.8 -3.7 35.15 -3.7 35.7 -3.7 36 -3.4 36.3 -3.15 36.3 -2.6
L 36.3 -2.4 35.8 -2.4
Q 33.55 -2.4 33.55 -1.05
M 34.25 -0.45
Q 34 -0.7 34 -1.1 34 -2.05 35.85 -2.05
L 36.3 -2.05 36.3 -1.65
Q 36.3 -1.3 36.15 -1
L 35.65 -0.45
Q 35.25 -0.25 34.9 -0.25 34.65 -0.25 34.25 -0.45 Z"/>
</g>

<g id="BDM_336x280_psd_Asset_ManagedWiFi_Awareness_DM7_2_Get_data_analytics_on__everything_from_foot_traffic__0_Layer0_0_MEMBER_8_FILL">
<path fill="#D82C26" stroke="none" d="
M 38.45 -3.1
L 38.4 -3.95 37.95 -3.95 38 0 38.5 0 38.5 -2
Q 38.5 -2.5 38.65 -2.9 38.9 -3.35 39.15 -3.45 39.4 -3.65 39.8 -3.65 40.45 -3.65 40.65 -3.25 40.9 -2.85 40.9 -2.3
L 40.9 0 41.4 0 41.4 -2.4
Q 41.4 -3.05 41.05 -3.6 40.7 -4.1 39.9 -4.1 39.45 -4.1 39.05 -3.8 38.65 -3.55 38.5 -3.1
L 38.45 -3.1 Z"/>
</g>

<g id="BDM_336x280_psd_Asset_ManagedWiFi_Awareness_DM7_2_Get_data_analytics_on__everything_from_foot_traffic__0_Layer0_0_MEMBER_9_FILL">
<path fill="#D82C26" stroke="none" d="
M 43.95 -3.7
Q 44.5 -3.7 44.8 -3.4 45.1 -3.15 45.1 -2.6
L 45.1 -2.4 44.6 -2.4
Q 42.35 -2.4 42.35 -1.05 42.35 -0.5 42.7 -0.2 43.1 0.1 43.6 0.1 44.15 0.1 44.5 -0.1 44.8 -0.25 45.1 -0.75
L 45.15 -0.35 45.15 0 45.65 0 45.55 -0.85 45.55 -2.6
Q 45.55 -3.35 45.15 -3.7 44.75 -4.1 44.05 -4.1 43.65 -4.1 43.25 -3.95
L 42.55 -3.6 42.7 -3.2
Q 42.9 -3.4 43.3 -3.55
L 43.95 -3.7
M 44.7 -2.05
L 45.1 -2.05 45.1 -1.65
Q 45.1 -1.3 44.95 -1 44.75 -0.65 44.45 -0.45 44.05 -0.25 43.7 -0.25 43.4 -0.25 43.1 -0.45 42.8 -0.65 42.8 -1.1 42.8 -2.05 44.7 -2.05 Z"/>
</g>

<g id="BDM_336x280_psd_Asset_ManagedWiFi_Awareness_DM7_2_Get_data_analytics_on__everything_from_foot_traffic__0_Layer0_0_MEMBER_10_FILL">
<path fill="#D82C26" stroke="none" d="
M 46.8 -0.9
Q 46.8 -0.45 46.95 -0.25 47.25 0.05 47.45 0.1
L 47.65 -0.3 47.4 -0.55
Q 47.3 -0.65 47.3 -1
L 47.3 -6.45 46.8 -6.35 46.8 -0.9 Z"/>
</g>

<g id="BDM_336x280_psd_Asset_ManagedWiFi_Awareness_DM7_2_Get_data_analytics_on__everything_from_foot_traffic__0_Layer0_0_MEMBER_11_FILL">
<path fill="#D82C26" stroke="none" d="
M 48.6 -3.95
L 48.05 -3.95 49.7 0.05 49.4 0.85
Q 49.25 1.3 49 1.4 48.7 1.6 48.3 1.6
L 48.45 2.05
Q 49.1 1.95 49.35 1.8 49.75 1.4 49.85 1
L 51.7 -3.95 51.2 -3.95 50 -0.55 48.6 -3.95 Z"/>
</g>

<g id="BDM_336x280_psd_Asset_ManagedWiFi_Awareness_DM7_2_Get_data_analytics_on__everything_from_foot_traffic__0_Layer0_0_MEMBER_12_FILL">
<path fill="#D82C26" stroke="none" d="
M 53.3 -3.95
L 53.3 -5.1 52.8 -4.9 52.8 -3.95 52.2 -3.95 52.1 -3.6 52.8 -3.6 52.8 -0.95
Q 52.8 -0.45 53.05 -0.2 53.35 0.1 53.75 0.1
L 54.2 0.05 54.6 -0.15 54.5 -0.5
Q 54.1 -0.3 53.9 -0.3 53.65 -0.3 53.45 -0.5 53.3 -0.65 53.3 -1.05
L 53.3 -3.6 54.35 -3.6 54.45 -3.95 53.3 -3.95 Z"/>
</g>

<g id="BDM_336x280_psd_Asset_ManagedWiFi_Awareness_DM7_2_Get_data_analytics_on__everything_from_foot_traffic__0_Layer0_0_MEMBER_13_FILL">
<path fill="#D82C26" stroke="none" d="
M 55.8 -3.95
L 55.3 -3.95 55.3 0 55.8 0 55.8 -3.95
M 55.55 -5.9
Q 55.4 -5.9 55.3 -5.8
L 55.2 -5.55 55.3 -5.3 55.55 -5.2 55.8 -5.3
Q 55.9 -5.35 55.9 -5.55 55.9 -5.75 55.8 -5.8 55.75 -5.9 55.55 -5.9 Z"/>
</g>

<g id="BDM_336x280_psd_Asset_ManagedWiFi_Awareness_DM7_2_Get_data_analytics_on__everything_from_foot_traffic__0_Layer0_0_MEMBER_14_FILL">
<path fill="#D82C26" stroke="none" d="
M 59.65 -3.95
L 58.9 -4.1
Q 58.3 -4.1 57.85 -3.8 57.35 -3.55 57.1 -3.05 56.8 -2.6 56.8 -2 56.8 -1.35 57.1 -0.9 57.25 -0.5 57.8 -0.15 58.25 0.1 58.9 0.1
L 59.65 0
Q 60.05 -0.15 60.25 -0.35
L 60.15 -0.8
Q 59.85 -0.5 59.6 -0.45 59.3 -0.3 58.95 -0.3 58.5 -0.3 58.1 -0.55 57.7 -0.8 57.55 -1.15 57.35 -1.5 57.35 -2 57.35 -2.45 57.55 -2.85 57.7 -3.2 58.1 -3.45 58.35 -3.65 58.9 -3.65 59.35 -3.65 59.55 -3.55 59.65 -3.55 60.05 -3.25
L 60.25 -3.6
Q 60.05 -3.8 59.65 -3.95 Z"/>
</g>

<g id="BDM_336x280_psd_Asset_ManagedWiFi_Awareness_DM7_2_Get_data_analytics_on__everything_from_foot_traffic__0_Layer0_0_MEMBER_15_FILL">
<path fill="#D82C26" stroke="none" d="
M 63.3 -3.3
L 63.55 -3.65
Q 63.35 -3.85 62.95 -3.95 62.65 -4.1 62.25 -4.1 61.95 -4.1 61.65 -3.95 61.35 -3.85 61.15 -3.6 60.95 -3.4 60.95 -3 60.95 -2.5 61.25 -2.3 61.5 -2.05 62.1 -1.9 62.8 -1.6 62.9 -1.5 63.15 -1.35 63.15 -1.05 63.15 -0.6 62.9 -0.5 62.7 -0.3 62.3 -0.3 61.55 -0.3 60.95 -0.75
L 60.9 -0.35
Q 61.1 -0.15 61.5 0
L 62.3 0.1 62.95 0
Q 63.3 -0.15 63.45 -0.4 63.65 -0.65 63.65 -1.05 63.65 -1.45 63.35 -1.75 62.9 -2.1 62.45 -2.2
L 61.65 -2.55
Q 61.4 -2.7 61.4 -3 61.4 -3.35 61.65 -3.5 61.9 -3.7 62.3 -3.7
L 62.85 -3.6 63.3 -3.3 Z"/>
</g>

<g id="BDM_336x280_psd_Asset_ManagedWiFi_Awareness_DM7_2_Get_data_analytics_on__everything_from_foot_traffic__0_Layer0_0_MEMBER_16_FILL">
<path fill="#D82C26" stroke="none" d="
M 69.95 -3.1
Q 69.65 -3.55 69.2 -3.85 68.6 -4.1 68.1 -4.1 67.6 -4.1 67 -3.85 66.55 -3.55 66.25 -3.1 66 -2.5 66 -2 66 -1.5 66.25 -0.9 66.55 -0.45 67 -0.15 67.45 0.1 68.1 0.1 68.75 0.1 69.2 -0.15 69.65 -0.45 69.95 -0.9 70.2 -1.5 70.2 -2 70.2 -2.5 69.95 -3.1
M 67.25 -3.45
Q 67.6 -3.65 68.1 -3.65 68.6 -3.65 68.95 -3.45 69.35 -3.2 69.5 -2.85 69.7 -2.5 69.7 -2 69.7 -1.5 69.5 -1.15 69.35 -0.8 68.95 -0.55 68.55 -0.3 68.1 -0.3 67.65 -0.3 67.25 -0.55 66.85 -0.8 66.7 -1.15 66.5 -1.5 66.5 -2 66.5 -2.5 66.7 -2.85 66.85 -3.2 67.25 -3.45 Z"/>
</g>

<g id="BDM_336x280_psd_Asset_ManagedWiFi_Awareness_DM7_2_Get_data_analytics_on__everything_from_foot_traffic__0_Layer0_0_MEMBER_17_FILL">
<path fill="#D82C26" stroke="none" d="
M 71.65 -3.95
L 71.2 -3.95 71.25 0 71.75 0 71.75 -2
Q 71.75 -2.5 71.9 -2.9 72.05 -3.25 72.4 -3.45 72.65 -3.65 73.05 -3.65 73.65 -3.65 73.9 -3.25 74.15 -2.85 74.15 -2.3
L 74.15 0 74.65 0 74.65 -2.4
Q 74.65 -3.1 74.25 -3.6 73.95 -4.1 73.15 -4.1 72.7 -4.1 72.3 -3.8 71.95 -3.65 71.7 -3.1
L 71.65 -3.95 Z"/>
</g>

<g id="BDM_336x280_psd_Asset_ManagedWiFi_Awareness_DM7_2_Get_data_analytics_on__everything_from_foot_traffic__0_Layer0_0_MEMBER_18_FILL">
<path fill="#D82C26" stroke="none" d="
M 2.45 5.8
Q 1.95 5.8 1.45 6.05 0.95 6.4 0.75 6.8 0.45 7.25 0.45 7.9 0.45 8.5 0.75 9 0.95 9.45 1.45 9.75 1.95 10 2.5 10 3.45 10 4.1 9.5
L 4 9.1
Q 3.85 9.25 3.35 9.45 3 9.6 2.55 9.6 2.15 9.6 1.75 9.4 1.4 9.2 1.15 8.8 0.95 8.3 0.95 7.95
L 4.3 7.95 4.35 7.75
Q 4.35 7.25 4.1 6.75 3.9 6.35 3.45 6.05 3.05 5.8 2.45 5.8
M 3.45 6.55
Q 3.85 7.05 3.85 7.6
L 0.95 7.6 1.15 6.95
Q 1.3 6.65 1.65 6.4 2 6.2 2.45 6.2 3.1 6.2 3.45 6.55 Z"/>
</g>

<g id="BDM_336x280_psd_Asset_ManagedWiFi_Awareness_DM7_2_Get_data_analytics_on__everything_from_foot_traffic__0_Layer0_0_MEMBER_19_FILL">
<path fill="#D82C26" stroke="none" d="
M 4.65 5.9
L 6.15 9.9 6.75 9.9 8.2 5.9 7.7 5.9 6.45 9.4 5.2 5.9 4.65 5.9 Z"/>
</g>

<g id="BDM_336x280_psd_Asset_ManagedWiFi_Awareness_DM7_2_Get_data_analytics_on__everything_from_foot_traffic__0_Layer0_0_MEMBER_20_FILL">
<path fill="#D82C26" stroke="none" d="
M 11.5 6.05
Q 11.1 5.8 10.5 5.8 10 5.8 9.5 6.05 9 6.4 8.8 6.8 8.55 7.2 8.55 7.9 8.55 8.55 8.8 9 9 9.45 9.5 9.75 10.1 10 10.55 10 11.5 10 12.15 9.5
L 12.05 9.1
Q 11.85 9.3 11.45 9.45 11 9.6 10.6 9.6 10.3 9.6 9.8 9.4 9.4 9.15 9.25 8.8 9.1 8.55 9 7.95
L 12.4 7.95 12.4 7.75
Q 12.4 7.25 12.15 6.75 11.95 6.35 11.5 6.05
M 11.5 6.55
Q 11.9 7.05 11.9 7.6
L 9.05 7.6 9.2 6.95 9.7 6.4
Q 10.05 6.2 10.5 6.2 11.15 6.2 11.5 6.55 Z"/>
</g>

<g id="BDM_336x280_psd_Asset_ManagedWiFi_Awareness_DM7_2_Get_data_analytics_on__everything_from_foot_traffic__0_Layer0_0_MEMBER_21_FILL">
<path fill="#D82C26" stroke="none" d="
M 13.8 5.9
L 13.35 5.9 13.4 9.9 13.9 9.9 13.9 7.9
Q 13.9 7.2 14.2 6.75 14.5 6.25 15 6.25
L 15.35 6.3 15.45 5.85 15.05 5.8
Q 14.75 5.8 14.35 6.05 14 6.4 13.9 6.8
L 13.85 6.8 13.8 5.9 Z"/>
</g>

<g id="BDM_336x280_psd_Asset_ManagedWiFi_Awareness_DM7_2_Get_data_analytics_on__everything_from_foot_traffic__0_Layer0_0_MEMBER_22_FILL">
<path fill="#D82C26" stroke="none" d="
M 19.45 5.9
L 18.95 5.9 17.75 9.35 16.35 5.9 15.8 5.9 17.5 9.9 17.15 10.75
Q 17 11.2 16.75 11.3 16.6 11.4 16.05 11.5
L 16.2 11.9
Q 16.7 11.9 17.1 11.65 17.45 11.4 17.6 10.9
L 19.45 5.9 Z"/>
</g>

<g id="BDM_336x280_psd_Asset_ManagedWiFi_Awareness_DM7_2_Get_data_analytics_on__everything_from_foot_traffic__0_Layer0_0_MEMBER_23_FILL">
<path fill="#D82C26" stroke="none" d="
M 20.55 4.95
L 20.55 5.9 19.95 5.9 19.85 6.3 20.6 6.3 20.6 8.95
Q 20.6 9.45 20.85 9.7 21.05 9.95 21.5 9.95
L 21.95 9.9 22.35 9.75 22.3 9.4 21.65 9.55
Q 21.4 9.55 21.25 9.4 21.05 9.25 21.05 8.85
L 21.05 6.3 22.1 6.3 22.2 5.9 21.05 5.9 21.05 4.8 20.55 4.95 Z"/>
</g>

<g id="BDM_336x280_psd_Asset_ManagedWiFi_Awareness_DM7_2_Get_data_analytics_on__everything_from_foot_traffic__0_Layer0_0_MEMBER_24_FILL">
<path fill="#D82C26" stroke="none" d="
M 23.6 3.4
L 23.1 3.5 23.1 9.9 23.6 9.9 23.6 7.95
Q 23.6 7.4 23.75 7 23.9 6.65 24.2 6.4 24.7 6.2 24.9 6.2 25.45 6.2 25.75 6.6 25.95 6.95 25.95 7.6
L 25.95 9.9 26.45 9.9 26.45 7.45
Q 26.45 6.75 26.1 6.25 25.8 5.8 25 5.8 24.55 5.8 24.15 6.05 23.7 6.4 23.6 6.75
L 23.6 3.4 Z"/>
</g>

<g id="BDM_336x280_psd_Asset_ManagedWiFi_Awareness_DM7_2_Get_data_analytics_on__everything_from_foot_traffic__0_Layer0_0_MEMBER_25_FILL">
<path fill="#D82C26" stroke="none" d="
M 28.2 5.9
L 27.7 5.9 27.7 9.9 28.2 9.9 28.2 5.9
M 27.6 4.35
L 27.7 4.6 27.95 4.7 28.2 4.6
Q 28.3 4.5 28.3 4.35 28.3 4.15 28.2 4.05
L 27.95 3.95
Q 27.85 3.95 27.7 4.1
L 27.6 4.35 Z"/>
</g>

<g id="BDM_336x280_psd_Asset_ManagedWiFi_Awareness_DM7_2_Get_data_analytics_on__everything_from_foot_traffic__0_Layer0_0_MEMBER_26_FILL">
<path fill="#D82C26" stroke="none" d="
M 31.4 5.8
Q 30.95 5.8 30.55 6.05 30.15 6.4 30 6.8
L 29.95 6.8 29.95 5.9 29.45 5.9 29.5 9.9 30 9.9 30 7.85
Q 30 7.4 30.15 7 30.4 6.6 30.65 6.4 31.05 6.2 31.3 6.2 31.9 6.2 32.15 6.6 32.4 7 32.4 7.6
L 32.4 9.9 32.9 9.9 32.9 7.45
Q 32.9 6.85 32.55 6.3 32.2 5.8 31.4 5.8 Z"/>
</g>

<g id="BDM_336x280_psd_Asset_ManagedWiFi_Awareness_DM7_2_Get_data_analytics_on__everything_from_foot_traffic__0_Layer0_0_MEMBER_27_FILL">
<path fill="#D82C26" stroke="none" d="
M 38 5.9
L 37.55 5.9 37.5 6.8
Q 37.15 6.3 36.8 6.05 36.3 5.8 35.85 5.8 35.3 5.8 34.85 6.1 34.45 6.3 34.1 6.85 33.85 7.35 33.85 7.9 33.85 8.45 34.1 8.95 34.45 9.45 34.8 9.7 35.3 9.95 35.85 9.95 36.45 9.95 36.8 9.7 37.2 9.5 37.45 9
L 37.5 9 37.5 9.85
Q 37.5 10.6 37.1 11.1 36.75 11.55 35.85 11.55 35.4 11.55 35 11.4
L 34.2 11.05 34.1 11.5 34.9 11.85
Q 35.25 11.95 35.85 11.95 36.9 11.95 37.45 11.4 38 10.75 38 9.85
L 38 5.9
M 34.55 7.05
Q 34.8 6.65 35.1 6.45 35.5 6.2 35.95 6.2 36.35 6.2 36.75 6.45 37.05 6.65 37.3 7.05 37.5 7.4 37.5 7.9 37.5 8.35 37.3 8.7 37.05 9.15 36.75 9.35 36.4 9.55 35.95 9.55 35.45 9.55 35.1 9.35 34.8 9.1 34.55 8.7 34.35 8.2 34.35 7.9 34.35 7.55 34.55 7.05 Z"/>
</g>

<g id="BDM_336x280_psd_Asset_ManagedWiFi_Awareness_DM7_2_Get_data_analytics_on__everything_from_foot_traffic__0_Layer0_0_MEMBER_28_FILL">
<path fill="#D82C26" stroke="none" d="
M 41.15 4.75
L 41.15 5.9 40.45 5.9 40.35 6.3 41.2 6.3 41.2 9.9 41.65 9.9 41.65 6.3 42.6 6.3 42.7 5.9 41.65 5.9 41.65 4.8
Q 41.65 4.45 41.85 4.05 42 3.8 42.45 3.8
L 43.05 3.85 43.15 3.45 42.4 3.35
Q 41.85 3.35 41.5 3.7 41.15 4.15 41.15 4.75 Z"/>
</g>

<g id="BDM_336x280_psd_Asset_ManagedWiFi_Awareness_DM7_2_Get_data_analytics_on__everything_from_foot_traffic__0_Layer0_0_MEMBER_29_FILL">
<path fill="#D82C26" stroke="none" d="
M 43.85 5.9
L 43.4 5.9 43.45 9.9 43.95 9.9 43.95 7.9
Q 43.95 7.2 44.25 6.75 44.55 6.25 45.05 6.25
L 45.4 6.3 45.5 5.85 45.1 5.8
Q 44.75 5.8 44.4 6.05 44.05 6.4 43.95 6.8
L 43.9 6.8 43.85 5.9 Z"/>
</g>

<g id="BDM_336x280_psd_Asset_ManagedWiFi_Awareness_DM7_2_Get_data_analytics_on__everything_from_foot_traffic__0_Layer0_0_MEMBER_30_FILL">
<path fill="#D82C26" stroke="none" d="
M 48.9 6.05
Q 48.4 5.8 47.85 5.8 47.25 5.8 46.75 6.05 46.3 6.35 46 6.8 45.7 7.25 45.7 7.9 45.7 8.5 46 9 46.3 9.45 46.75 9.75 47.25 10 47.85 10 48.4 10 48.9 9.75 49.45 9.45 49.65 9 49.95 8.5 49.95 7.9 49.95 7.25 49.65 6.8 49.45 6.35 48.9 6.05
M 49.45 7.9
Q 49.45 8.4 49.25 8.75 49 9.15 48.7 9.35 48.3 9.6 47.85 9.6 47.35 9.6 47 9.35 46.65 9.15 46.4 8.75 46.2 8.25 46.2 7.9 46.2 7.55 46.4 7.05 46.65 6.7 47 6.45 47.35 6.2 47.85 6.2 48.3 6.2 48.7 6.45 49 6.65 49.25 7.05 49.45 7.4 49.45 7.9 Z"/>
</g>

<g id="BDM_336x280_psd_Asset_ManagedWiFi_Awareness_DM7_2_Get_data_analytics_on__everything_from_foot_traffic__0_Layer0_0_MEMBER_31_FILL">
<path fill="#D82C26" stroke="none" d="
M 51.4 5.9
L 50.95 5.9 50.95 9.9 51.45 9.9 51.45 7.9
Q 51.45 7.35 51.65 7 51.8 6.65 52.1 6.4 52.4 6.2 52.7 6.2 53.2 6.2 53.45 6.55 53.7 6.85 53.7 7.55
L 53.7 9.9 54.2 9.9 54.2 7.85
Q 54.2 7.2 54.55 6.65 54.95 6.2 55.45 6.2 56 6.2 56.25 6.6 56.5 7 56.5 7.6
L 56.5 9.9 57 9.9 57 7.5
Q 57 6.7 56.65 6.3 56.35 5.8 55.55 5.8 55.1 5.8 54.7 6.05 54.3 6.4 54.15 6.8 54.05 6.45 53.65 6.05 53.3 5.8 52.85 5.8 52.4 5.8 52 6.05 51.6 6.4 51.45 6.8
L 51.4 5.9 Z"/>
</g>

<g id="BDM_336x280_psd_Asset_ManagedWiFi_Awareness_DM7_2_Get_data_analytics_on__everything_from_foot_traffic__0_Layer0_0_MEMBER_32_FILL">
<path fill="#D82C26" stroke="none" d="
M 62.1 3.45
L 61.4 3.35
Q 60.85 3.35 60.5 3.7 60.15 4.05 60.15 4.75
L 60.15 5.9 59.45 5.9 59.35 6.3 60.15 6.3 60.15 9.9 60.65 9.9 60.65 6.3 61.6 6.3 61.7 5.9 60.65 5.9 60.65 4.8
Q 60.65 4.3 60.85 4.05 61 3.8 61.4 3.8
L 62.05 3.85 62.1 3.45 Z"/>
</g>

<g id="BDM_336x280_psd_Asset_ManagedWiFi_Awareness_DM7_2_Get_data_analytics_on__everything_from_foot_traffic__0_Layer0_0_MEMBER_33_FILL">
<path fill="#D82C26" stroke="none" d="
M 65.1 6.05
Q 64.6 5.8 64.05 5.8 63.45 5.8 62.95 6.05 62.5 6.35 62.2 6.8 61.9 7.25 61.9 7.9 61.9 8.5 62.2 9 62.5 9.45 62.95 9.75 63.45 10 64.05 10 64.6 10 65.1 9.75 65.65 9.45 65.85 9 66.15 8.5 66.15 7.9 66.15 7.25 65.85 6.8 65.65 6.35 65.1 6.05
M 65.65 7.9
Q 65.65 8.4 65.45 8.75 65.2 9.15 64.9 9.35 64.5 9.6 64.05 9.6 63.55 9.6 63.2 9.35 62.85 9.15 62.6 8.75 62.4 8.25 62.4 7.9 62.4 7.55 62.6 7.05 62.85 6.7 63.2 6.45 63.55 6.2 64.05 6.2 64.5 6.2 64.9 6.45 65.25 6.7 65.45 7.05 65.65 7.4 65.65 7.9 Z"/>
</g>

<g id="BDM_336x280_psd_Asset_ManagedWiFi_Awareness_DM7_2_Get_data_analytics_on__everything_from_foot_traffic__0_Layer0_0_MEMBER_34_FILL">
<path fill="#D82C26" stroke="none" d="
M 70.1 6.05
Q 69.5 5.8 69 5.8 68.45 5.8 67.95 6.05 67.45 6.35 67.15 6.8 66.9 7.3 66.9 7.9 66.9 8.4 67.15 9 67.45 9.45 67.95 9.75 68.45 10 69 10 69.5 10 70.1 9.75 70.55 9.45 70.85 9 71.15 8.5 71.15 7.9 71.15 7.25 70.85 6.8 70.55 6.35 70.1 6.05
M 70.65 7.9
Q 70.65 8.25 70.45 8.75 70.25 9.15 69.85 9.35 69.45 9.6 69 9.6 68.55 9.6 68.15 9.35 67.75 9.1 67.6 8.75 67.4 8.4 67.4 7.9 67.4 7.4 67.6 7.05 67.75 6.7 68.15 6.45 68.55 6.2 69 6.2 69.45 6.2 69.85 6.45 70.25 6.7 70.45 7.05 70.65 7.55 70.65 7.9 Z"/>
</g>

<g id="BDM_336x280_psd_Asset_ManagedWiFi_Awareness_DM7_2_Get_data_analytics_on__everything_from_foot_traffic__0_Layer0_0_MEMBER_35_FILL">
<path fill="#D82C26" stroke="none" d="
M 72.15 5.9
L 71.5 5.9 71.4 6.3 72.15 6.3 72.15 8.95
Q 72.15 9.35 72.4 9.7 72.65 9.95 73.1 9.95
L 73.55 9.9 73.95 9.75 73.85 9.4
Q 73.55 9.55 73.25 9.55 72.95 9.55 72.8 9.4 72.65 9.25 72.65 8.85
L 72.65 6.3 73.7 6.3 73.8 5.9 72.65 5.9 72.65 4.8 72.15 4.95 72.15 5.9 Z"/>
</g>

<g id="BDM_336x280_psd_Asset_ManagedWiFi_Awareness_DM7_2_Get_data_analytics_on__everything_from_foot_traffic__0_Layer0_0_MEMBER_36_FILL">
<path fill="#D82C26" stroke="none" d="
M 76.3 4.95
L 76.3 5.9 75.7 5.9 75.6 6.3 76.35 6.3 76.35 8.95
Q 76.35 9.45 76.6 9.7 76.8 9.95 77.25 9.95
L 77.7 9.9 78.1 9.75 78.05 9.4 77.4 9.55
Q 77.15 9.55 77 9.4 76.8 9.25 76.8 8.85
L 76.8 6.3 77.85 6.3 77.95 5.9 76.8 5.9 76.8 4.8 76.3 4.95 Z"/>
</g>

<g id="BDM_336x280_psd_Asset_ManagedWiFi_Awareness_DM7_2_Get_data_analytics_on__everything_from_foot_traffic__0_Layer0_0_MEMBER_37_FILL">
<path fill="#D82C26" stroke="none" d="
M 79.25 5.9
L 78.8 5.9 78.85 9.9 79.35 9.9 79.35 7.9
Q 79.35 7.2 79.65 6.75 79.95 6.25 80.45 6.25
L 80.8 6.3 80.9 5.85 80.5 5.8
Q 80.15 5.8 79.8 6.05 79.5 6.35 79.3 6.8
L 79.25 5.9 Z"/>
</g>

<g id="BDM_336x280_psd_Asset_ManagedWiFi_Awareness_DM7_2_Get_data_analytics_on__everything_from_foot_traffic__0_Layer0_0_MEMBER_38_FILL">
<path fill="#D82C26" stroke="none" d="
M 83 5.8
L 82.2 5.9 81.5 6.3 81.65 6.7
Q 81.85 6.5 82.25 6.35
L 82.9 6.2
Q 83.4 6.2 83.75 6.45 84.05 6.75 84.05 7.3
L 84.05 7.5 83.55 7.5
Q 81.3 7.5 81.3 8.8 81.3 9.4 81.65 9.7 82.05 10 82.55 10 83.05 10 83.45 9.75 83.8 9.55 84.05 9.1
L 84.15 9.9 84.6 9.9 84.5 9 84.5 7.3
Q 84.5 6.55 84.1 6.15 83.75 5.8 83 5.8
M 84.05 8.25
L 83.9 8.9
Q 83.7 9.3 83.4 9.4 83.15 9.6 82.65 9.6 82.25 9.6 82.05 9.4 81.75 9.25 81.75 8.8 81.75 7.85 83.65 7.85
L 84.05 7.85 84.05 8.25 Z"/>
</g>

<g id="BDM_336x280_psd_Asset_ManagedWiFi_Awareness_DM7_2_Get_data_analytics_on__everything_from_foot_traffic__0_Layer0_0_MEMBER_39_FILL">
<path fill="#D82C26" stroke="none" d="
M 87.9 3.85
L 87.95 3.45 87.2 3.35
Q 86.75 3.35 86.3 3.7 86 4.1 86 4.75
L 86 5.9 85.25 5.9 85.15 6.3 86 6.3 86 9.9 86.5 9.9 86.5 6.3 88.55 6.3 88.55 9.9 89.05 9.9 89.05 6.3 89.95 6.3 90.05 5.9 89.05 5.9 89.05 4.8
Q 89.05 4.35 89.2 4.05 89.45 3.8 89.8 3.8
L 90.4 3.85 90.45 3.45 89.75 3.35
Q 89.2 3.35 88.85 3.7 88.55 4.1 88.55 4.75
L 88.55 5.9 86.5 5.9 86.5 4.8
Q 86.5 4.35 86.65 4.05 86.9 3.8 87.25 3.8
L 87.9 3.85
M 91.3 4.6
Q 91.45 4.45 91.45 4.35
L 91.3 4.05 91.1 3.95
Q 90.95 3.95 90.85 4.1 90.7 4.2 90.7 4.35 90.7 4.45 90.85 4.6
L 91.1 4.7 91.3 4.6
M 91.3 9.9
L 91.3 5.9 90.85 5.9 90.85 9.9 91.3 9.9 Z"/>
</g>

<g id="BDM_336x280_psd_Asset_ManagedWiFi_Awareness_DM7_2_Get_data_analytics_on__everything_from_foot_traffic__0_Layer0_0_MEMBER_40_FILL">
<path fill="#D82C26" stroke="none" d="
M 94.4 5.8
Q 93.85 5.8 93.35 6.05 92.95 6.3 92.6 6.8 92.3 7.35 92.3 7.9 92.3 8.5 92.6 9 92.85 9.45 93.35 9.75 93.85 10 94.4 10
L 95.15 9.85
Q 95.45 9.8 95.75 9.5
L 95.7 9.1 95.1 9.45
Q 94.9 9.55 94.45 9.55 93.95 9.55 93.6 9.35 93.2 9.1 93.05 8.75 92.85 8.4 92.85 7.9 92.85 7.4 93.05 7.05 93.2 6.7 93.6 6.45 94 6.2 94.4 6.2 94.75 6.2 95.05 6.35 95.3 6.4 95.55 6.65
L 95.75 6.25 95.15 5.9 94.4 5.8 Z"/>
</g>

<g id="BDM_336x280_psd_Asset_ManagedWiFi_Awareness_DM7_2_Get_data_analytics_on__everything_from_foot_traffic__0_Layer0_0_MEMBER_41_FILL">
<path fill="#D82C26" stroke="none" d="
M 99.65 9.85
Q 99.85 9.95 99.95 9.95
L 100.2 9.85 100.3 9.55 100.2 9.3 99.95 9.15
Q 99.8 9.15 99.65 9.3
L 99.55 9.55 99.65 9.85
M 96.8 9.85
L 97.1 9.95 97.35 9.85
Q 97.45 9.75 97.45 9.55 97.45 9.35 97.35 9.3 97.3 9.15 97.1 9.15
L 96.8 9.3 96.7 9.55 96.8 9.85
M 102.5 9.85
L 102.75 9.95 103 9.85 103.15 9.55
Q 103.15 9.4 103 9.3 102.95 9.15 102.75 9.15 102.6 9.15 102.5 9.3 102.4 9.35 102.4 9.55 102.4 9.75 102.5 9.85 Z"/>
</g>
</defs>

<g transform="matrix( 1, 0, 0, 1, -292,-89) ">
<g transform="matrix( 1, 0, 0, 1, 286,110) ">
<g transform="matrix( 1, 0, 0, 1, 26,9) ">
<g transform="matrix( 2.815704345703125, 0, 0, 2.832611083984375, -0.85,18.6) ">
<use xlink:href="#BDM_336x280_psd_Asset_ManagedWiFi_Awareness_DM7_2_Get_data_analytics_on__everything_from_foot_traffic__0_Layer0_0_MEMBER_0_FILL"/>
</g>

<g transform="matrix( 2.815704345703125, 0, 0, 2.832611083984375, -0.85,18.6) ">
<use xlink:href="#BDM_336x280_psd_Asset_ManagedWiFi_Awareness_DM7_2_Get_data_analytics_on__everything_from_foot_traffic__0_Layer0_0_MEMBER_1_FILL"/>
</g>

<g transform="matrix( 2.815704345703125, 0, 0, 2.832611083984375, -0.85,18.6) ">
<use xlink:href="#BDM_336x280_psd_Asset_ManagedWiFi_Awareness_DM7_2_Get_data_analytics_on__everything_from_foot_traffic__0_Layer0_0_MEMBER_2_FILL"/>
</g>

<g transform="matrix( 2.815704345703125, 0, 0, 2.832611083984375, -0.85,18.6) ">
<use xlink:href="#BDM_336x280_psd_Asset_ManagedWiFi_Awareness_DM7_2_Get_data_analytics_on__everything_from_foot_traffic__0_Layer0_0_MEMBER_3_FILL"/>
</g>

<g transform="matrix( 2.815704345703125, 0, 0, 2.832611083984375, -0.85,18.6) ">
<use xlink:href="#BDM_336x280_psd_Asset_ManagedWiFi_Awareness_DM7_2_Get_data_analytics_on__everything_from_foot_traffic__0_Layer0_0_MEMBER_4_FILL"/>
</g>

<g transform="matrix( 2.815704345703125, 0, 0, 2.832611083984375, -0.85,18.6) ">
<use xlink:href="#BDM_336x280_psd_Asset_ManagedWiFi_Awareness_DM7_2_Get_data_analytics_on__everything_from_foot_traffic__0_Layer0_0_MEMBER_5_FILL"/>
</g>

<g transform="matrix( 2.815704345703125, 0, 0, 2.832611083984375, -0.85,18.6) ">
<use xlink:href="#BDM_336x280_psd_Asset_ManagedWiFi_Awareness_DM7_2_Get_data_analytics_on__everything_from_foot_traffic__0_Layer0_0_MEMBER_6_FILL"/>
</g>

<g transform="matrix( 2.815704345703125, 0, 0, 2.832611083984375, -0.85,18.6) ">
<use xlink:href="#BDM_336x280_psd_Asset_ManagedWiFi_Awareness_DM7_2_Get_data_analytics_on__everything_from_foot_traffic__0_Layer0_0_MEMBER_7_FILL"/>
</g>

<g transform="matrix( 2.815704345703125, 0, 0, 2.832611083984375, -0.85,18.6) ">
<use xlink:href="#BDM_336x280_psd_Asset_ManagedWiFi_Awareness_DM7_2_Get_data_analytics_on__everything_from_foot_traffic__0_Layer0_0_MEMBER_8_FILL"/>
</g>

<g transform="matrix( 2.815704345703125, 0, 0, 2.832611083984375, -0.85,18.6) ">
<use xlink:href="#BDM_336x280_psd_Asset_ManagedWiFi_Awareness_DM7_2_Get_data_analytics_on__everything_from_foot_traffic__0_Layer0_0_MEMBER_9_FILL"/>
</g>

<g transform="matrix( 2.815704345703125, 0, 0, 2.832611083984375, -0.85,18.6) ">
<use xlink:href="#BDM_336x280_psd_Asset_ManagedWiFi_Awareness_DM7_2_Get_data_analytics_on__everything_from_foot_traffic__0_Layer0_0_MEMBER_10_FILL"/>
</g>

<g transform="matrix( 2.815704345703125, 0, 0, 2.832611083984375, -0.85,18.6) ">
<use xlink:href="#BDM_336x280_psd_Asset_ManagedWiFi_Awareness_DM7_2_Get_data_analytics_on__everything_from_foot_traffic__0_Layer0_0_MEMBER_11_FILL"/>
</g>

<g transform="matrix( 2.815704345703125, 0, 0, 2.832611083984375, -0.85,18.6) ">
<use xlink:href="#BDM_336x280_psd_Asset_ManagedWiFi_Awareness_DM7_2_Get_data_analytics_on__everything_from_foot_traffic__0_Layer0_0_MEMBER_12_FILL"/>
</g>

<g transform="matrix( 2.815704345703125, 0, 0, 2.832611083984375, -0.85,18.6) ">
<use xlink:href="#BDM_336x280_psd_Asset_ManagedWiFi_Awareness_DM7_2_Get_data_analytics_on__everything_from_foot_traffic__0_Layer0_0_MEMBER_13_FILL"/>
</g>

<g transform="matrix( 2.815704345703125, 0, 0, 2.832611083984375, -0.85,18.6) ">
<use xlink:href="#BDM_336x280_psd_Asset_ManagedWiFi_Awareness_DM7_2_Get_data_analytics_on__everything_from_foot_traffic__0_Layer0_0_MEMBER_14_FILL"/>
</g>

<g transform="matrix( 2.815704345703125, 0, 0, 2.832611083984375, -0.85,18.6) ">
<use xlink:href="#BDM_336x280_psd_Asset_ManagedWiFi_Awareness_DM7_2_Get_data_analytics_on__everything_from_foot_traffic__0_Layer0_0_MEMBER_15_FILL"/>
</g>

<g transform="matrix( 2.815704345703125, 0, 0, 2.832611083984375, -0.85,18.6) ">
<use xlink:href="#BDM_336x280_psd_Asset_ManagedWiFi_Awareness_DM7_2_Get_data_analytics_on__everything_from_foot_traffic__0_Layer0_0_MEMBER_16_FILL"/>
</g>

<g transform="matrix( 2.815704345703125, 0, 0, 2.832611083984375, -0.85,18.6) ">
<use xlink:href="#BDM_336x280_psd_Asset_ManagedWiFi_Awareness_DM7_2_Get_data_analytics_on__everything_from_foot_traffic__0_Layer0_0_MEMBER_17_FILL"/>
</g>

<g transform="matrix( 2.815704345703125, 0, 0, 2.832611083984375, -0.85,18.6) ">
<use xlink:href="#BDM_336x280_psd_Asset_ManagedWiFi_Awareness_DM7_2_Get_data_analytics_on__everything_from_foot_traffic__0_Layer0_0_MEMBER_18_FILL"/>
</g>

<g transform="matrix( 2.815704345703125, 0, 0, 2.832611083984375, -0.85,18.6) ">
<use xlink:href="#BDM_336x280_psd_Asset_ManagedWiFi_Awareness_DM7_2_Get_data_analytics_on__everything_from_foot_traffic__0_Layer0_0_MEMBER_19_FILL"/>
</g>

<g transform="matrix( 2.815704345703125, 0, 0, 2.832611083984375, -0.85,18.6) ">
<use xlink:href="#BDM_336x280_psd_Asset_ManagedWiFi_Awareness_DM7_2_Get_data_analytics_on__everything_from_foot_traffic__0_Layer0_0_MEMBER_20_FILL"/>
</g>

<g transform="matrix( 2.815704345703125, 0, 0, 2.832611083984375, -0.85,18.6) ">
<use xlink:href="#BDM_336x280_psd_Asset_ManagedWiFi_Awareness_DM7_2_Get_data_analytics_on__everything_from_foot_traffic__0_Layer0_0_MEMBER_21_FILL"/>
</g>

<g transform="matrix( 2.815704345703125, 0, 0, 2.832611083984375, -0.85,18.6) ">
<use xlink:href="#BDM_336x280_psd_Asset_ManagedWiFi_Awareness_DM7_2_Get_data_analytics_on__everything_from_foot_traffic__0_Layer0_0_MEMBER_22_FILL"/>
</g>

<g transform="matrix( 2.815704345703125, 0, 0, 2.832611083984375, -0.85,18.6) ">
<use xlink:href="#BDM_336x280_psd_Asset_ManagedWiFi_Awareness_DM7_2_Get_data_analytics_on__everything_from_foot_traffic__0_Layer0_0_MEMBER_23_FILL"/>
</g>

<g transform="matrix( 2.815704345703125, 0, 0, 2.832611083984375, -0.85,18.6) ">
<use xlink:href="#BDM_336x280_psd_Asset_ManagedWiFi_Awareness_DM7_2_Get_data_analytics_on__everything_from_foot_traffic__0_Layer0_0_MEMBER_24_FILL"/>
</g>

<g transform="matrix( 2.815704345703125, 0, 0, 2.832611083984375, -0.85,18.6) ">
<use xlink:href="#BDM_336x280_psd_Asset_ManagedWiFi_Awareness_DM7_2_Get_data_analytics_on__everything_from_foot_traffic__0_Layer0_0_MEMBER_25_FILL"/>
</g>

<g transform="matrix( 2.815704345703125, 0, 0, 2.832611083984375, -0.85,18.6) ">
<use xlink:href="#BDM_336x280_psd_Asset_ManagedWiFi_Awareness_DM7_2_Get_data_analytics_on__everything_from_foot_traffic__0_Layer0_0_MEMBER_26_FILL"/>
</g>

<g transform="matrix( 2.815704345703125, 0, 0, 2.832611083984375, -0.85,18.6) ">
<use xlink:href="#BDM_336x280_psd_Asset_ManagedWiFi_Awareness_DM7_2_Get_data_analytics_on__everything_from_foot_traffic__0_Layer0_0_MEMBER_27_FILL"/>
</g>

<g transform="matrix( 2.815704345703125, 0, 0, 2.832611083984375, -0.85,18.6) ">
<use xlink:href="#BDM_336x280_psd_Asset_ManagedWiFi_Awareness_DM7_2_Get_data_analytics_on__everything_from_foot_traffic__0_Layer0_0_MEMBER_28_FILL"/>
</g>

<g transform="matrix( 2.815704345703125, 0, 0, 2.832611083984375, -0.85,18.6) ">
<use xlink:href="#BDM_336x280_psd_Asset_ManagedWiFi_Awareness_DM7_2_Get_data_analytics_on__everything_from_foot_traffic__0_Layer0_0_MEMBER_29_FILL"/>
</g>

<g transform="matrix( 2.815704345703125, 0, 0, 2.832611083984375, -0.85,18.6) ">
<use xlink:href="#BDM_336x280_psd_Asset_ManagedWiFi_Awareness_DM7_2_Get_data_analytics_on__everything_from_foot_traffic__0_Layer0_0_MEMBER_30_FILL"/>
</g>

<g transform="matrix( 2.815704345703125, 0, 0, 2.832611083984375, -0.85,18.6) ">
<use xlink:href="#BDM_336x280_psd_Asset_ManagedWiFi_Awareness_DM7_2_Get_data_analytics_on__everything_from_foot_traffic__0_Layer0_0_MEMBER_31_FILL"/>
</g>

<g transform="matrix( 2.815704345703125, 0, 0, 2.832611083984375, -0.85,18.6) ">
<use xlink:href="#BDM_336x280_psd_Asset_ManagedWiFi_Awareness_DM7_2_Get_data_analytics_on__everything_from_foot_traffic__0_Layer0_0_MEMBER_32_FILL"/>
</g>

<g transform="matrix( 2.815704345703125, 0, 0, 2.832611083984375, -0.85,18.6) ">
<use xlink:href="#BDM_336x280_psd_Asset_ManagedWiFi_Awareness_DM7_2_Get_data_analytics_on__everything_from_foot_traffic__0_Layer0_0_MEMBER_33_FILL"/>
</g>

<g transform="matrix( 2.815704345703125, 0, 0, 2.832611083984375, -0.85,18.6) ">
<use xlink:href="#BDM_336x280_psd_Asset_ManagedWiFi_Awareness_DM7_2_Get_data_analytics_on__everything_from_foot_traffic__0_Layer0_0_MEMBER_34_FILL"/>
</g>

<g transform="matrix( 2.815704345703125, 0, 0, 2.832611083984375, -0.85,18.6) ">
<use xlink:href="#BDM_336x280_psd_Asset_ManagedWiFi_Awareness_DM7_2_Get_data_analytics_on__everything_from_foot_traffic__0_Layer0_0_MEMBER_35_FILL"/>
</g>

<g transform="matrix( 2.815704345703125, 0, 0, 2.832611083984375, -0.85,18.6) ">
<use xlink:href="#BDM_336x280_psd_Asset_ManagedWiFi_Awareness_DM7_2_Get_data_analytics_on__everything_from_foot_traffic__0_Layer0_0_MEMBER_36_FILL"/>
</g>

<g transform="matrix( 2.815704345703125, 0, 0, 2.832611083984375, -0.85,18.6) ">
<use xlink:href="#BDM_336x280_psd_Asset_ManagedWiFi_Awareness_DM7_2_Get_data_analytics_on__everything_from_foot_traffic__0_Layer0_0_MEMBER_37_FILL"/>
</g>

<g transform="matrix( 2.815704345703125, 0, 0, 2.832611083984375, -0.85,18.6) ">
<use xlink:href="#BDM_336x280_psd_Asset_ManagedWiFi_Awareness_DM7_2_Get_data_analytics_on__everything_from_foot_traffic__0_Layer0_0_MEMBER_38_FILL"/>
</g>

<g transform="matrix( 2.815704345703125, 0, 0, 2.832611083984375, -0.85,18.6) ">
<use xlink:href="#BDM_336x280_psd_Asset_ManagedWiFi_Awareness_DM7_2_Get_data_analytics_on__everything_from_foot_traffic__0_Layer0_0_MEMBER_39_FILL"/>
</g>

<g transform="matrix( 2.815704345703125, 0, 0, 2.832611083984375, -0.85,18.6) ">
<use xlink:href="#BDM_336x280_psd_Asset_ManagedWiFi_Awareness_DM7_2_Get_data_analytics_on__everything_from_foot_traffic__0_Layer0_0_MEMBER_40_FILL"/>
</g>

<g transform="matrix( 2.815704345703125, 0, 0, 2.832611083984375, -0.85,18.6) ">
<use xlink:href="#BDM_336x280_psd_Asset_ManagedWiFi_Awareness_DM7_2_Get_data_analytics_on__everything_from_foot_traffic__0_Layer0_0_MEMBER_41_FILL"/>
</g>
</g>
</g>
</g>
</svg>
