
<svg xmlns="http://www.w3.org/2000/svg" version="1.1" xmlns:xlink="http://www.w3.org/1999/xlink" preserveAspectRatio="none" x="0px" y="0px" width="300px" height="250px" viewBox="0 0 300 250">
<defs>
<g id="IT_300x250_psd_Asset_4_ManagedWiFi_IT_Awareness_DM6_2_IT_administrators_are__supporting_more_devices___hardware__soft_0_Layer0_0_MEMBER_0_FILL">
<path fill="#D82C26" stroke="none" d="
M 1.05 -4.75
L 0.65 -4.75 0.65 0 1.05 0 1.05 -4.75 Z"/>
</g>

<g id="IT_300x250_psd_Asset_4_ManagedWiFi_IT_Awareness_DM6_2_IT_administrators_are__supporting_more_devices___hardware__soft_0_Layer0_0_MEMBER_1_FILL">
<path fill="#D82C26" stroke="none" d="
M 1.7 -4.4
L 3.25 -4.4 3.25 0 3.65 0 3.65 -4.4 5.1 -4.4 5.15 -4.75 1.8 -4.75 1.7 -4.4 Z"/>
</g>

<g id="IT_300x250_psd_Asset_4_ManagedWiFi_IT_Awareness_DM6_2_IT_administrators_are__supporting_more_devices___hardware__soft_0_Layer0_0_MEMBER_2_FILL">
<path fill="#D82C26" stroke="none" d="
M 6.75 -0.85
Q 6.75 -0.4 7 -0.15 7.35 0.1 7.75 0.1 8.1 0.1 8.45 -0.1 8.7 -0.25 8.9 -0.6
L 8.95 -0.3 8.95 0 9.35 0 9.3 -2.05
Q 9.3 -2.6 8.95 -2.95 8.65 -3.25 8.05 -3.25
L 7.45 -3.15 6.9 -2.85 7 -2.55 7.5 -2.8
Q 7.65 -2.9 8 -2.9 8.45 -2.9 8.65 -2.7 8.9 -2.5 8.9 -2.05
L 8.9 -1.9 8.5 -1.9
Q 6.75 -1.9 6.75 -0.85
M 7.3 -0.35
Q 7.1 -0.5 7.1 -0.85 7.1 -1.6 8.6 -1.6
L 8.9 -1.6 8.9 -1.3 8.8 -0.8
Q 8.7 -0.55 8.4 -0.35 8.2 -0.2 7.8 -0.2 7.55 -0.2 7.3 -0.35 Z"/>
</g>

<g id="IT_300x250_psd_Asset_4_ManagedWiFi_IT_Awareness_DM6_2_IT_administrators_are__supporting_more_devices___hardware__soft_0_Layer0_0_MEMBER_3_FILL">
<path fill="#D82C26" stroke="none" d="
M 13.35 -5.15
L 12.95 -5.05 12.95 -2.45
Q 12.8 -2.8 12.4 -3.05 12 -3.25 11.7 -3.25 11.25 -3.25 10.85 -3 10.55 -2.8 10.3 -2.4 10.1 -2.05 10.1 -1.55 10.1 -1.1 10.3 -0.75 10.55 -0.35 10.85 -0.15 11.25 0.1 11.7 0.1 11.95 0.1 12.45 -0.1 12.8 -0.4 12.95 -0.7
L 13 -0.7 13 0 13.4 0 13.35 -5.15
M 11.75 -2.9
Q 12.15 -2.9 12.35 -2.7 12.65 -2.55 12.8 -2.25 13 -2 13 -1.55 13 -1.15 12.8 -0.9 12.65 -0.65 12.35 -0.4 12.15 -0.25 11.75 -0.25 11.35 -0.25 11.1 -0.4 10.8 -0.65 10.65 -0.9 10.5 -1.2 10.5 -1.55 10.5 -1.95 10.65 -2.25 10.8 -2.55 11.1 -2.7 11.3 -2.9 11.75 -2.9 Z"/>
</g>

<g id="IT_300x250_psd_Asset_4_ManagedWiFi_IT_Awareness_DM6_2_IT_administrators_are__supporting_more_devices___hardware__soft_0_Layer0_0_MEMBER_4_FILL">
<path fill="#D82C26" stroke="none" d="
M 14.8 -3.15
L 14.4 -3.15 14.45 0 14.85 0 14.85 -1.55 14.95 -2.3
Q 15.1 -2.6 15.3 -2.75 15.55 -2.9 15.8 -2.9 16.25 -2.9 16.4 -2.65 16.6 -2.4 16.6 -1.85
L 16.6 0 17 0 17 -1.6
Q 17 -2.15 17.3 -2.55 17.5 -2.9 18 -2.9 18.45 -2.9 18.65 -2.6 18.8 -2.2 18.8 -1.8
L 18.8 0 19.2 0 19.2 -1.9
Q 19.2 -2.45 18.95 -2.85 18.65 -3.25 18.1 -3.25 17.75 -3.25 17.4 -3 17.1 -2.85 16.95 -2.45 16.8 -2.9 16.55 -3 16.3 -3.25 15.9 -3.25 15.65 -3.25 15.25 -3.05 14.9 -2.8 14.85 -2.45
L 14.8 -2.45 14.8 -3.15 Z"/>
</g>

<g id="IT_300x250_psd_Asset_4_ManagedWiFi_IT_Awareness_DM6_2_IT_administrators_are__supporting_more_devices___hardware__soft_0_Layer0_0_MEMBER_5_FILL">
<path fill="#D82C26" stroke="none" d="
M 20.65 -3.15
L 20.25 -3.15 20.25 0 20.65 0 20.65 -3.15
M 20.45 -4.1
L 20.65 -4.2 20.75 -4.4 20.65 -4.6 20.45 -4.7 20.25 -4.6 20.15 -4.4 20.25 -4.2 20.45 -4.1 Z"/>
</g>

<g id="IT_300x250_psd_Asset_4_ManagedWiFi_IT_Awareness_DM6_2_IT_administrators_are__supporting_more_devices___hardware__soft_0_Layer0_0_MEMBER_6_FILL">
<path fill="#D82C26" stroke="none" d="
M 22.1 -3.15
L 21.7 -3.15 21.75 0 22.15 0 22.15 -1.6 22.25 -2.3
Q 22.4 -2.55 22.65 -2.75 22.9 -2.9 23.2 -2.9 23.65 -2.9 23.85 -2.6 24.05 -2.2 24.05 -1.8
L 24.05 0 24.45 0 24.45 -1.9
Q 24.45 -2.45 24.15 -2.85 23.85 -3.25 23.25 -3.25 22.95 -3.25 22.55 -3 22.25 -2.85 22.15 -2.45
L 22.1 -2.45 22.1 -3.15 Z"/>
</g>

<g id="IT_300x250_psd_Asset_4_ManagedWiFi_IT_Awareness_DM6_2_IT_administrators_are__supporting_more_devices___hardware__soft_0_Layer0_0_MEMBER_7_FILL">
<path fill="#D82C26" stroke="none" d="
M 25.85 -3.15
L 25.45 -3.15 25.45 0 25.85 0 25.85 -3.15
M 25.65 -4.1
L 25.85 -4.2 25.95 -4.4 25.85 -4.6 25.65 -4.7 25.45 -4.6 25.4 -4.4 25.45 -4.2 25.65 -4.1 Z"/>
</g>

<g id="IT_300x250_psd_Asset_4_ManagedWiFi_IT_Awareness_DM6_2_IT_administrators_are__supporting_more_devices___hardware__soft_0_Layer0_0_MEMBER_8_FILL">
<path fill="#D82C26" stroke="none" d="
M 27.8 -3.25
L 27.3 -3.15
Q 27.05 -3.05 26.9 -2.85 26.75 -2.6 26.75 -2.35 26.75 -2 26.95 -1.85 27.15 -1.65 27.65 -1.5
L 28.3 -1.2
Q 28.5 -1.05 28.5 -0.8 28.5 -0.55 28.3 -0.4 28.1 -0.2 27.8 -0.2 27.25 -0.2 26.75 -0.6
L 26.7 -0.25 27.15 0 27.8 0.1 28.35 0
Q 28.65 -0.2 28.75 -0.35 28.9 -0.5 28.9 -0.85 28.9 -1.15 28.65 -1.4 28.3 -1.65 27.9 -1.75
L 27.3 -2.05
Q 27.1 -2.15 27.1 -2.4 27.1 -2.6 27.3 -2.8 27.45 -2.9 27.8 -2.9
L 28.25 -2.85 28.6 -2.6 28.8 -2.9 28.35 -3.15 27.8 -3.25 Z"/>
</g>

<g id="IT_300x250_psd_Asset_4_ManagedWiFi_IT_Awareness_DM6_2_IT_administrators_are__supporting_more_devices___hardware__soft_0_Layer0_0_MEMBER_9_FILL">
<path fill="#D82C26" stroke="none" d="
M 29.9 -3.15
L 29.4 -3.15 29.3 -2.85 29.9 -2.85 29.9 -0.75
Q 29.9 -0.35 30.1 -0.15 30.3 0.05 30.65 0.05
L 31 0 31.3 -0.1 31.25 -0.4 30.75 -0.25
Q 30.55 -0.25 30.4 -0.4 30.3 -0.6 30.3 -0.8
L 30.3 -2.85 31.1 -2.85 31.2 -3.15 30.3 -3.15 30.3 -4.05 29.9 -3.9 29.9 -3.15 Z"/>
</g>

<g id="IT_300x250_psd_Asset_4_ManagedWiFi_IT_Awareness_DM6_2_IT_administrators_are__supporting_more_devices___hardware__soft_0_Layer0_0_MEMBER_10_FILL">
<path fill="#D82C26" stroke="none" d="
M 33.6 -3.2
L 33.25 -3.25
Q 33.1 -3.25 32.7 -3.05 32.4 -2.75 32.35 -2.45
L 32.3 -2.45 32.3 -3.15 31.9 -3.15 31.95 0 32.35 0 32.35 -1.55
Q 32.35 -2.2 32.6 -2.5 32.85 -2.9 33.25 -2.9
L 33.5 -2.85 33.6 -3.2 Z"/>
</g>

<g id="IT_300x250_psd_Asset_4_ManagedWiFi_IT_Awareness_DM6_2_IT_administrators_are__supporting_more_devices___hardware__soft_0_Layer0_0_MEMBER_11_FILL">
<path fill="#D82C26" stroke="none" d="
M 33.95 -0.85
Q 33.95 -0.35 34.25 -0.15 34.6 0.1 34.95 0.1 35.4 0.1 35.65 -0.1 35.95 -0.2 36.15 -0.6
L 36.15 -0.3 36.2 0 36.55 0 36.5 -2.05
Q 36.5 -2.65 36.2 -2.95 35.85 -3.25 35.3 -3.25
L 34.65 -3.15 34.15 -2.85 34.25 -2.55
Q 34.45 -2.75 34.7 -2.8 34.9 -2.9 35.25 -2.9 35.7 -2.9 35.9 -2.7 36.15 -2.45 36.15 -2.05
L 36.15 -1.9 35.75 -1.9
Q 33.95 -1.9 33.95 -0.85
M 34.55 -0.35
Q 34.35 -0.5 34.35 -0.85 34.35 -1.6 35.8 -1.6
L 36.15 -1.6 36.15 -1.3
Q 36.15 -1 36 -0.8 35.95 -0.65 35.65 -0.35 35.35 -0.2 35.05 -0.2 34.7 -0.2 34.55 -0.35 Z"/>
</g>

<g id="IT_300x250_psd_Asset_4_ManagedWiFi_IT_Awareness_DM6_2_IT_administrators_are__supporting_more_devices___hardware__soft_0_Layer0_0_MEMBER_12_FILL">
<path fill="#D82C26" stroke="none" d="
M 38 -3.15
L 38 -4.05 37.6 -3.9 37.6 -3.15 37.1 -3.15 37.05 -2.85 37.6 -2.85 37.6 -0.75
Q 37.6 -0.45 37.8 -0.15 38 0.05 38.35 0.05
L 38.7 0
Q 38.9 0 39 -0.1
L 38.95 -0.4
Q 38.75 -0.25 38.45 -0.25 38.25 -0.25 38.15 -0.4 38 -0.55 38 -0.8
L 38 -2.85 38.8 -2.85 38.9 -3.15 38 -3.15 Z"/>
</g>

<g id="IT_300x250_psd_Asset_4_ManagedWiFi_IT_Awareness_DM6_2_IT_administrators_are__supporting_more_devices___hardware__soft_0_Layer0_0_MEMBER_13_FILL">
<path fill="#D82C26" stroke="none" d="
M 39.55 -0.7
Q 39.8 -0.3 40.15 -0.1 40.65 0.1 41 0.1 41.35 0.1 41.85 -0.1 42.25 -0.3 42.45 -0.7 42.65 -1.05 42.65 -1.6 42.65 -2.1 42.45 -2.45 42.25 -2.8 41.85 -3.05 41.35 -3.25 41 -3.25 40.65 -3.25 40.15 -3.05 39.8 -2.8 39.55 -2.45 39.35 -2.1 39.35 -1.6 39.35 -1.05 39.55 -0.7
M 39.9 -2.25
Q 40 -2.45 40.3 -2.75 40.6 -2.9 41 -2.9 41.45 -2.9 41.65 -2.75 41.95 -2.5 42.1 -2.25 42.3 -2 42.3 -1.6 42.3 -1.15 42.1 -0.9 42 -0.7 41.7 -0.4 41.4 -0.25 41 -0.25 40.6 -0.25 40.3 -0.4 40 -0.7 39.9 -0.9 39.7 -1.15 39.7 -1.6 39.7 -2 39.9 -2.25 Z"/>
</g>

<g id="IT_300x250_psd_Asset_4_ManagedWiFi_IT_Awareness_DM6_2_IT_administrators_are__supporting_more_devices___hardware__soft_0_Layer0_0_MEMBER_14_FILL">
<path fill="#D82C26" stroke="none" d="
M 43.9 -3.15
L 43.5 -3.15 43.55 0 43.95 0 43.95 -1.55
Q 43.95 -2.15 44.15 -2.5 44.45 -2.9 44.8 -2.9
L 45.1 -2.85 45.2 -3.2 44.85 -3.25
Q 44.6 -3.25 44.3 -3.05 44.05 -2.8 43.9 -2.45
L 43.9 -3.15 Z"/>
</g>

<g id="IT_300x250_psd_Asset_4_ManagedWiFi_IT_Awareness_DM6_2_IT_administrators_are__supporting_more_devices___hardware__soft_0_Layer0_0_MEMBER_15_FILL">
<path fill="#D82C26" stroke="none" d="
M 46.65 -3.25
L 46.15 -3.15
Q 45.9 -3.05 45.75 -2.85 45.6 -2.6 45.6 -2.35 45.6 -2 45.8 -1.85 46 -1.65 46.5 -1.5
L 47.15 -1.2
Q 47.35 -1.05 47.35 -0.8 47.35 -0.55 47.15 -0.4 46.95 -0.2 46.65 -0.2 46.1 -0.2 45.6 -0.6
L 45.55 -0.25 46 0 46.65 0.1 47.2 0 47.6 -0.35
Q 47.75 -0.5 47.75 -0.85 47.75 -1.15 47.5 -1.4 47.15 -1.65 46.75 -1.75
L 46.15 -2.05
Q 45.95 -2.15 45.95 -2.4 45.95 -2.6 46.15 -2.8 46.3 -2.9 46.65 -2.9
L 47.1 -2.85 47.45 -2.6 47.65 -2.9 47.2 -3.15 46.65 -3.25 Z"/>
</g>

<g id="IT_300x250_psd_Asset_4_ManagedWiFi_IT_Awareness_DM6_2_IT_administrators_are__supporting_more_devices___hardware__soft_0_Layer0_0_MEMBER_16_FILL">
<path fill="#D82C26" stroke="none" d="
M 49.6 -0.85
Q 49.6 -0.35 49.9 -0.15 50.25 0.1 50.6 0.1 51.05 0.1 51.3 -0.1 51.65 -0.3 51.75 -0.6
L 51.8 -0.6 51.8 -0.3 51.85 0 52.2 0 52.15 -2.05
Q 52.15 -2.65 51.85 -2.95 51.5 -3.25 50.95 -3.25
L 50.3 -3.15 49.75 -2.85 49.9 -2.55
Q 50.1 -2.75 50.35 -2.8 50.55 -2.9 50.9 -2.9 51.35 -2.9 51.55 -2.7 51.8 -2.45 51.8 -2.05
L 51.8 -1.9 51.4 -1.9
Q 49.6 -1.9 49.6 -0.85
M 50.2 -0.35
Q 49.95 -0.5 49.95 -0.85 49.95 -1.6 51.45 -1.6
L 51.8 -1.6 51.8 -1.3
Q 51.8 -1 51.65 -0.8
L 51.3 -0.35
Q 51 -0.2 50.7 -0.2 50.35 -0.2 50.2 -0.35 Z"/>
</g>

<g id="IT_300x250_psd_Asset_4_ManagedWiFi_IT_Awareness_DM6_2_IT_administrators_are__supporting_more_devices___hardware__soft_0_Layer0_0_MEMBER_17_FILL">
<path fill="#D82C26" stroke="none" d="
M 54.85 -3.2
L 54.5 -3.25
Q 54.35 -3.25 53.95 -3.05 53.65 -2.75 53.6 -2.45
L 53.55 -2.45 53.55 -3.15 53.15 -3.15 53.2 0 53.6 0 53.6 -1.55
Q 53.6 -2.2 53.85 -2.5 54.1 -2.9 54.45 -2.9
L 54.75 -2.85 54.85 -3.2 Z"/>
</g>

<g id="IT_300x250_psd_Asset_4_ManagedWiFi_IT_Awareness_DM6_2_IT_administrators_are__supporting_more_devices___hardware__soft_0_Layer0_0_MEMBER_18_FILL">
<path fill="#D82C26" stroke="none" d="
M 55.05 -1.6
Q 55.05 -1.1 55.3 -0.7 55.45 -0.35 55.85 -0.1 56.35 0.1 56.7 0.1 57.4 0.1 57.95 -0.3
L 57.85 -0.65
Q 57.7 -0.45 57.35 -0.35 57.15 -0.25 56.7 -0.25 56.35 -0.25 56.05 -0.4
L 55.6 -0.85
Q 55.45 -1.15 55.45 -1.5
L 58.1 -1.5 58.15 -1.7
Q 58.15 -2.05 57.95 -2.45 57.8 -2.75 57.45 -3.05 56.95 -3.25 56.65 -3.25 56.35 -3.25 55.85 -3.05 55.45 -2.8 55.3 -2.45 55.05 -2.05 55.05 -1.6
M 55.45 -1.8
Q 55.45 -2.05 55.6 -2.3 55.75 -2.55 56 -2.75 56.4 -2.95 56.65 -2.95 57.15 -2.95 57.45 -2.6 57.75 -2.3 57.75 -1.8
L 55.45 -1.8 Z"/>
</g>

<g id="IT_300x250_psd_Asset_4_ManagedWiFi_IT_Awareness_DM6_2_IT_administrators_are__supporting_more_devices___hardware__soft_0_Layer0_0_MEMBER_19_FILL">
<path fill="#D82C26" stroke="none" d="
M 0.45 5.4
Q 0.45 5.75 0.65 5.95 1.05 6.2 1.3 6.3
L 2 6.55
Q 2.2 6.75 2.2 6.95 2.2 7.2 2 7.4 1.8 7.55 1.5 7.55 0.95 7.55 0.45 7.15
L 0.35 7.5 0.85 7.75 1.5 7.85 2 7.75
Q 2.25 7.7 2.4 7.45 2.55 7.25 2.55 6.95 2.55 6.55 2.35 6.4 1.95 6.1 1.6 6
L 1 5.75
Q 0.8 5.6 0.8 5.35 0.8 5.05 1 5 1.15 4.85 1.5 4.85 1.8 4.85 1.95 4.95
L 2.3 5.15 2.45 4.85 2.05 4.65
Q 1.85 4.55 1.45 4.55
L 0.95 4.6 0.6 4.9
Q 0.45 5.15 0.45 5.4 Z"/>
</g>

<g id="IT_300x250_psd_Asset_4_ManagedWiFi_IT_Awareness_DM6_2_IT_administrators_are__supporting_more_devices___hardware__soft_0_Layer0_0_MEMBER_20_FILL">
<path fill="#D82C26" stroke="none" d="
M 6 4.65
L 5.6 4.65 5.6 6.2
Q 5.6 6.6 5.45 6.9 5.3 7.25 5.1 7.35 4.9 7.55 4.55 7.55 4.05 7.55 3.9 7.2 3.7 6.95 3.7 6.45
L 3.7 4.65 3.3 4.65 3.3 6.55
Q 3.3 7.15 3.6 7.5 3.8 7.85 4.45 7.85 4.9 7.85 5.15 7.65 5.45 7.45 5.6 7.1
L 5.65 7.75 6.05 7.75 6 7.4 6 4.65 Z"/>
</g>

<g id="IT_300x250_psd_Asset_4_ManagedWiFi_IT_Awareness_DM6_2_IT_administrators_are__supporting_more_devices___hardware__soft_0_Layer0_0_MEMBER_21_FILL">
<path fill="#D82C26" stroke="none" d="
M 10.35 6.2
Q 10.35 5.7 10.15 5.35 9.9 4.95 9.6 4.75 9.25 4.55 8.75 4.55 8.35 4.55 8 4.75 7.65 4.95 7.5 5.3
L 7.45 5.3 7.45 4.65 7.05 4.65 7.1 5.2 7.1 9.4 7.5 9.4 7.5 7.1
Q 7.6 7.35 8 7.65 8.35 7.85 8.75 7.85 9.25 7.85 9.6 7.65 9.9 7.45 10.15 7.05 10.35 6.7 10.35 6.2
M 9.35 5.05
Q 9.6 5.2 9.8 5.55 9.95 5.85 9.95 6.2 9.95 6.55 9.8 6.85 9.6 7.2 9.35 7.35 8.95 7.55 8.7 7.55 8.45 7.55 8.05 7.35 7.75 7.05 7.65 6.85 7.45 6.6 7.45 6.2 7.45 5.8 7.65 5.55 7.85 5.2 8.05 5.05 8.3 4.85 8.7 4.85 9.1 4.85 9.35 5.05 Z"/>
</g>

<g id="IT_300x250_psd_Asset_4_ManagedWiFi_IT_Awareness_DM6_2_IT_administrators_are__supporting_more_devices___hardware__soft_0_Layer0_0_MEMBER_22_FILL">
<path fill="#D82C26" stroke="none" d="
M 12.15 4.75
Q 11.85 4.85 11.6 5.3
L 11.55 4.65 11.2 4.65 11.2 9.4 11.6 9.4 11.6 7.1
Q 11.8 7.45 12.15 7.65 12.4 7.85 12.9 7.85 13.35 7.85 13.7 7.65 14.1 7.4 14.25 7.05 14.45 6.7 14.45 6.2 14.45 5.7 14.25 5.35 14.1 5 13.7 4.75 13.35 4.55 12.9 4.55 12.4 4.55 12.15 4.75
M 11.75 5.55
Q 11.95 5.2 12.2 5.05 12.45 4.85 12.85 4.85 13.25 4.85 13.5 5.05 13.75 5.2 13.9 5.55 14.05 5.85 14.05 6.2 14.05 6.55 13.9 6.85 13.75 7.2 13.5 7.35 13.1 7.55 12.85 7.55 12.6 7.55 12.2 7.35 11.9 7.1 11.75 6.85 11.6 6.55 11.6 6.2 11.6 5.85 11.75 5.55 Z"/>
</g>

<g id="IT_300x250_psd_Asset_4_ManagedWiFi_IT_Awareness_DM6_2_IT_administrators_are__supporting_more_devices___hardware__soft_0_Layer0_0_MEMBER_23_FILL">
<path fill="#D82C26" stroke="none" d="
M 18.25 5.35
Q 18.05 5 17.65 4.75 17.3 4.55 16.8 4.55 16.3 4.55 15.95 4.75 15.6 5 15.35 5.35 15.1 5.75 15.1 6.2 15.1 6.65 15.35 7.05 15.6 7.45 15.95 7.65 16.3 7.85 16.8 7.85 17.3 7.85 17.65 7.65 18.05 7.45 18.25 7.05 18.45 6.7 18.45 6.2 18.45 5.7 18.25 5.35
M 17.45 5.05
Q 17.75 5.2 17.9 5.5 18.05 5.8 18.05 6.2 18.05 6.55 17.9 6.85 17.75 7.1 17.45 7.35 17.05 7.55 16.8 7.55 16.5 7.55 16.1 7.35 15.8 7.1 15.65 6.85 15.5 6.55 15.5 6.2 15.5 5.8 15.65 5.5 15.8 5.2 16.1 5.05 16.35 4.85 16.8 4.85 17.2 4.85 17.45 5.05 Z"/>
</g>

<g id="IT_300x250_psd_Asset_4_ManagedWiFi_IT_Awareness_DM6_2_IT_administrators_are__supporting_more_devices___hardware__soft_0_Layer0_0_MEMBER_24_FILL">
<path fill="#D82C26" stroke="none" d="
M 20.6 4.9
L 20.9 4.95 20.95 4.6 20.65 4.55
Q 20.3 4.55 20.1 4.75 19.9 4.85 19.7 5.3
L 19.65 4.65 19.3 4.65 19.3 7.75 19.7 7.75 19.7 6.2
Q 19.7 5.75 19.95 5.25 20.15 4.9 20.6 4.9 Z"/>
</g>

<g id="IT_300x250_psd_Asset_4_ManagedWiFi_IT_Awareness_DM6_2_IT_administrators_are__supporting_more_devices___hardware__soft_0_Layer0_0_MEMBER_25_FILL">
<path fill="#D82C26" stroke="none" d="
M 22.25 4.65
L 22.25 3.7 21.85 3.9 21.85 4.65 21.35 4.65 21.25 4.95 21.85 4.95 21.85 7
Q 21.85 7.45 22.05 7.6 22.2 7.85 22.55 7.85
L 22.9 7.8 23.25 7.65 23.2 7.35 22.7 7.5 22.35 7.4
Q 22.25 7.3 22.25 6.95
L 22.25 4.95 23.05 4.95 23.1 4.65 22.25 4.65 Z"/>
</g>

<g id="IT_300x250_psd_Asset_4_ManagedWiFi_IT_Awareness_DM6_2_IT_administrators_are__supporting_more_devices___hardware__soft_0_Layer0_0_MEMBER_26_FILL">
<path fill="#D82C26" stroke="none" d="
M 24.25 4.65
L 23.85 4.65 23.85 7.75 24.25 7.75 24.25 4.65
M 24.05 3.65
Q 24.2 3.65 24.25 3.55
L 24.35 3.35 24.25 3.15 24.05 3.1 23.85 3.15 23.8 3.35 23.85 3.55
Q 23.9 3.65 24.05 3.65 Z"/>
</g>

<g id="IT_300x250_psd_Asset_4_ManagedWiFi_IT_Awareness_DM6_2_IT_administrators_are__supporting_more_devices___hardware__soft_0_Layer0_0_MEMBER_27_FILL">
<path fill="#D82C26" stroke="none" d="
M 25.7 5.3
L 25.7 4.65 25.3 4.65 25.35 7.75 25.75 7.75 25.75 6.15
Q 25.75 5.75 25.9 5.45 25.95 5.2 26.25 5 26.5 4.85 26.8 4.85 27.25 4.85 27.45 5.15 27.65 5.5 27.65 5.95
L 27.65 7.75 28.05 7.75 28.05 5.85
Q 28.05 5.3 27.75 4.9 27.45 4.55 26.85 4.55 26.45 4.55 26.2 4.75 25.9 4.95 25.75 5.3
L 25.7 5.3 Z"/>
</g>

<g id="IT_300x250_psd_Asset_4_ManagedWiFi_IT_Awareness_DM6_2_IT_administrators_are__supporting_more_devices___hardware__soft_0_Layer0_0_MEMBER_28_FILL">
<path fill="#D82C26" stroke="none" d="
M 32.15 4.65
L 31.75 4.65 31.75 5.3
Q 31.5 4.9 31.2 4.75 30.85 4.55 30.45 4.55 29.9 4.55 29.65 4.75 29.3 5 29.05 5.35 28.85 5.85 28.85 6.2 28.85 6.55 29.05 7.05
L 29.6 7.6
Q 30 7.85 30.45 7.85 30.8 7.85 31.2 7.6 31.55 7.45 31.7 7.05
L 31.75 7.05 31.75 7.75
Q 31.75 8.4 31.4 8.7 31.1 9.1 30.45 9.1 30.15 9.1 29.75 8.95
L 29.15 8.65 29.05 9.05 29.7 9.3
Q 29.95 9.4 30.45 9.4 31.35 9.4 31.7 8.95 32.1 8.55 32.1 7.7
L 32.15 4.65
M 31.15 5.05
Q 31.45 5.2 31.6 5.5 31.75 5.9 31.75 6.2 31.75 6.55 31.6 6.85 31.45 7.1 31.15 7.35 30.85 7.5 30.5 7.5 30.1 7.5 29.85 7.3 29.55 7.15 29.4 6.85 29.25 6.55 29.25 6.2 29.25 5.85 29.4 5.55 29.6 5.2 29.85 5.05 30.1 4.85 30.5 4.85 30.9 4.85 31.15 5.05 Z"/>
</g>

<g id="IT_300x250_psd_Asset_4_ManagedWiFi_IT_Awareness_DM6_2_IT_administrators_are__supporting_more_devices___hardware__soft_0_Layer0_0_MEMBER_29_FILL">
<path fill="#D82C26" stroke="none" d="
M 36.65 4.75
Q 36.4 4.55 36 4.55 35.6 4.55 35.35 4.75 35 5 34.9 5.3
L 34.85 4.65 34.5 4.65 34.5 7.75 34.9 7.75 34.9 6.2
Q 34.9 5.8 35.05 5.5 35.1 5.3 35.4 5 35.65 4.85 35.9 4.85 36.3 4.85 36.5 5.15 36.7 5.45 36.7 5.9
L 36.7 7.75 37.1 7.75 37.1 6.15
Q 37.1 5.5 37.35 5.2 37.7 4.85 38.05 4.85 38.55 4.85 38.7 5.2 38.9 5.45 38.9 6
L 38.9 7.75 39.3 7.75 39.3 5.9
Q 39.3 5.3 39 4.9 38.8 4.55 38.15 4.55 37.7 4.55 37.45 4.75 37.15 5 37 5.35 36.95 5.05 36.65 4.75 Z"/>
</g>

<g id="IT_300x250_psd_Asset_4_ManagedWiFi_IT_Awareness_DM6_2_IT_administrators_are__supporting_more_devices___hardware__soft_0_Layer0_0_MEMBER_30_FILL">
<path fill="#D82C26" stroke="none" d="
M 43.25 5.35
Q 43.05 5 42.65 4.75 42.3 4.55 41.8 4.55 41.3 4.55 40.95 4.75 40.6 5 40.35 5.35 40.1 5.75 40.1 6.2 40.1 6.65 40.35 7.05 40.6 7.45 40.95 7.65 41.3 7.85 41.8 7.85 42.3 7.85 42.65 7.65 43.05 7.45 43.25 7.05 43.45 6.7 43.45 6.2 43.45 5.7 43.25 5.35
M 42.45 5.05
Q 42.75 5.2 42.9 5.5 43.05 5.8 43.05 6.2 43.05 6.55 42.9 6.85 42.75 7.1 42.45 7.35 42.05 7.55 41.8 7.55 41.5 7.55 41.1 7.35 40.8 7.1 40.65 6.85 40.5 6.55 40.5 6.2 40.5 5.8 40.65 5.5 40.8 5.2 41.1 5.05 41.35 4.85 41.8 4.85 42.2 4.85 42.45 5.05 Z"/>
</g>

<g id="IT_300x250_psd_Asset_4_ManagedWiFi_IT_Awareness_DM6_2_IT_administrators_are__supporting_more_devices___hardware__soft_0_Layer0_0_MEMBER_31_FILL">
<path fill="#D82C26" stroke="none" d="
M 45.6 4.9
L 45.9 4.95 45.95 4.6 45.65 4.55
Q 45.3 4.55 45.1 4.75 44.9 4.85 44.7 5.3
L 44.65 4.65 44.3 4.65 44.3 7.75 44.7 7.75 44.7 6.2
Q 44.7 5.75 44.95 5.25 45.15 4.9 45.6 4.9 Z"/>
</g>

<g id="IT_300x250_psd_Asset_4_ManagedWiFi_IT_Awareness_DM6_2_IT_administrators_are__supporting_more_devices___hardware__soft_0_Layer0_0_MEMBER_32_FILL">
<path fill="#D82C26" stroke="none" d="
M 47.75 4.55
Q 47.3 4.55 46.95 4.75 46.55 5.05 46.4 5.35 46.2 5.85 46.2 6.2 46.2 6.55 46.4 7.05 46.65 7.45 47 7.65 47.35 7.85 47.8 7.85 48.6 7.85 49.05 7.45
L 49 7.15 48.5 7.4
Q 48.2 7.55 47.85 7.55 47.45 7.55 47.2 7.35 46.9 7.2 46.75 6.9 46.6 6.6 46.6 6.25
L 49.25 6.25 49.25 6.1
Q 49.25 5.7 49.1 5.3 48.85 4.85 48.55 4.75 48.3 4.55 47.75 4.55
M 46.6 5.95
L 46.75 5.45
Q 46.95 5.15 47.15 5 47.4 4.85 47.75 4.85 48.25 4.85 48.55 5.15 48.9 5.5 48.9 5.95
L 46.6 5.95 Z"/>
</g>

<g id="IT_300x250_psd_Asset_4_ManagedWiFi_IT_Awareness_DM6_2_IT_administrators_are__supporting_more_devices___hardware__soft_0_Layer0_0_MEMBER_33_FILL">
<path fill="#D82C26" stroke="none" d="
M 54.4 2.6
L 54 2.7 54 5.3
Q 53.85 4.9 53.45 4.75 53.2 4.55 52.75 4.55 52.25 4.55 51.9 4.75 51.6 4.95 51.35 5.35 51.15 5.7 51.15 6.2 51.15 6.7 51.35 7.05 51.6 7.45 51.9 7.65 52.25 7.85 52.75 7.85 53.15 7.85 53.5 7.65 53.9 7.35 54 7.1
L 54.05 7.1 54.05 7.75 54.45 7.75 54.4 2.6
M 51.7 5.55
Q 51.9 5.2 52.15 5.05 52.35 4.85 52.8 4.85 53.2 4.85 53.4 5.05 53.65 5.2 53.85 5.55 54.05 5.8 54.05 6.2 54.05 6.6 53.85 6.85 53.7 7.1 53.4 7.35 53.1 7.55 52.8 7.55 52.45 7.55 52.15 7.35 51.9 7.2 51.7 6.85 51.55 6.55 51.55 6.2 51.55 5.85 51.7 5.55 Z"/>
</g>

<g id="IT_300x250_psd_Asset_4_ManagedWiFi_IT_Awareness_DM6_2_IT_administrators_are__supporting_more_devices___hardware__soft_0_Layer0_0_MEMBER_34_FILL">
<path fill="#D82C26" stroke="none" d="
M 56.85 4.55
Q 56.3 4.55 56.05 4.75 55.6 5 55.5 5.35 55.25 5.75 55.25 6.2 55.25 6.65 55.5 7.05 55.65 7.4 56.05 7.65 56.4 7.85 56.9 7.85 57.7 7.85 58.15 7.45
L 58.05 7.15 57.55 7.4
Q 57.25 7.55 56.9 7.55 56.5 7.55 56.25 7.35
L 55.8 6.9
Q 55.65 6.6 55.65 6.25
L 58.3 6.25 58.3 6.1
Q 58.3 5.7 58.15 5.3 58 4.95 57.65 4.75 57.3 4.55 56.85 4.55
M 57.65 5.15
Q 57.95 5.45 57.95 5.95
L 55.65 5.95 55.8 5.45 56.2 5
Q 56.5 4.85 56.85 4.85 57.35 4.85 57.65 5.15 Z"/>
</g>

<g id="IT_300x250_psd_Asset_4_ManagedWiFi_IT_Awareness_DM6_2_IT_administrators_are__supporting_more_devices___hardware__soft_0_Layer0_0_MEMBER_35_FILL">
<path fill="#D82C26" stroke="none" d="
M 58.65 4.65
L 59.85 7.75 60.3 7.75 61.45 4.65 61.05 4.65 60.05 7.35 59.05 4.65 58.65 4.65 Z"/>
</g>

<g id="IT_300x250_psd_Asset_4_ManagedWiFi_IT_Awareness_DM6_2_IT_administrators_are__supporting_more_devices___hardware__soft_0_Layer0_0_MEMBER_36_FILL">
<path fill="#D82C26" stroke="none" d="
M 62.5 4.65
L 62.1 4.65 62.1 7.75 62.5 7.75 62.5 4.65
M 62.3 3.65
Q 62.45 3.65 62.5 3.55
L 62.55 3.35 62.5 3.15 62.3 3.1 62.1 3.15 62 3.35 62.1 3.55
Q 62.15 3.65 62.3 3.65 Z"/>
</g>

<g id="IT_300x250_psd_Asset_4_ManagedWiFi_IT_Awareness_DM6_2_IT_administrators_are__supporting_more_devices___hardware__soft_0_Layer0_0_MEMBER_37_FILL">
<path fill="#D82C26" stroke="none" d="
M 65.9 5.2
L 66.05 4.9
Q 65.85 4.7 65.6 4.65 65.4 4.55 65 4.55 64.5 4.55 64.15 4.75 63.8 5 63.55 5.35 63.35 5.7 63.35 6.2 63.35 6.7 63.55 7.05 63.8 7.45 64.15 7.65 64.5 7.85 64.95 7.85
L 65.6 7.75 66.05 7.5 66 7.15 65.55 7.4
Q 65.4 7.5 65 7.5 64.65 7.5 64.35 7.35 64.05 7.1 63.9 6.85 63.75 6.55 63.75 6.2 63.75 5.85 63.9 5.55 64.1 5.2 64.35 5.05 64.6 4.85 65 4.85
L 65.5 4.95 65.9 5.2 Z"/>
</g>

<g id="IT_300x250_psd_Asset_4_ManagedWiFi_IT_Awareness_DM6_2_IT_administrators_are__supporting_more_devices___hardware__soft_0_Layer0_0_MEMBER_38_FILL">
<path fill="#D82C26" stroke="none" d="
M 68.05 4.55
Q 67.6 4.55 67.25 4.75 66.9 4.95 66.7 5.35 66.5 5.7 66.5 6.2 66.5 6.7 66.7 7.05 66.95 7.45 67.3 7.65 67.55 7.85 68.1 7.85 68.9 7.85 69.35 7.45
L 69.3 7.15 68.8 7.4
Q 68.5 7.55 68.15 7.55 67.75 7.55 67.5 7.35 67.2 7.2 67.05 6.9 66.9 6.6 66.9 6.25
L 69.55 6.25 69.55 6.1
Q 69.55 5.65 69.35 5.3 69.2 4.9 68.85 4.75 68.6 4.55 68.05 4.55
M 66.9 5.95
L 67.05 5.45
Q 67.25 5.15 67.45 5 67.7 4.85 68.05 4.85 68.55 4.85 68.85 5.15 69.15 5.45 69.15 5.95
L 66.9 5.95 Z"/>
</g>

<g id="IT_300x250_psd_Asset_4_ManagedWiFi_IT_Awareness_DM6_2_IT_administrators_are__supporting_more_devices___hardware__soft_0_Layer0_0_MEMBER_39_FILL">
<path fill="#D82C26" stroke="none" d="
M 71.8 4.65
Q 71.65 4.55 71.25 4.55
L 70.75 4.6 70.35 4.9
Q 70.2 5.15 70.2 5.4 70.2 5.7 70.45 5.95 70.85 6.2 71.1 6.3 71.7 6.5 71.75 6.55 71.95 6.7 71.95 6.95 71.95 7.25 71.75 7.4 71.55 7.55 71.25 7.55 70.7 7.55 70.2 7.15
L 70.15 7.5 70.65 7.75 71.3 7.85 71.8 7.75
Q 72.05 7.65 72.2 7.45 72.35 7.25 72.35 6.95 72.35 6.55 72.1 6.4 71.85 6.15 71.4 6
L 70.75 5.75
Q 70.6 5.6 70.6 5.35 70.6 5.1 70.75 5 71 4.85 71.25 4.85 71.55 4.85 71.7 4.95
L 72.1 5.15 72.25 4.85 71.8 4.65 Z"/>
</g>

<g id="IT_300x250_psd_Asset_4_ManagedWiFi_IT_Awareness_DM6_2_IT_administrators_are__supporting_more_devices___hardware__soft_0_Layer0_0_MEMBER_40_FILL">
<path fill="#D82C26" stroke="none" d="
M 73.7 7.15
Q 73.6 7.05 73.45 7.05 73.3 7.05 73.25 7.15
L 73.15 7.35 73.25 7.55 73.45 7.65 73.3 8.1 73 8.45 73.15 8.55
Q 73.75 8.05 73.75 7.4
L 73.7 7.15 Z"/>
</g>

<g id="IT_300x250_psd_Asset_4_ManagedWiFi_IT_Awareness_DM6_2_IT_administrators_are__supporting_more_devices___hardware__soft_0_Layer0_0_MEMBER_41_FILL">
<path fill="#D82C26" stroke="none" d="
M 1 10.4
L 0.6 10.5 0.6 15.55 1 15.55 1 14
Q 1 13.55 1.15 13.25 1.3 12.9 1.55 12.8 1.8 12.65 2.05 12.65 2.55 12.65 2.7 12.95 2.9 13.2 2.9 13.7
L 2.9 15.55 3.3 15.55 3.3 13.6
Q 3.3 13.05 3.05 12.65 2.75 12.3 2.15 12.3 1.8 12.3 1.45 12.5 1.15 12.75 1.05 13.05
L 1 13.05 1 10.4 Z"/>
</g>

<g id="IT_300x250_psd_Asset_4_ManagedWiFi_IT_Awareness_DM6_2_IT_administrators_are__supporting_more_devices___hardware__soft_0_Layer0_0_MEMBER_42_FILL">
<path fill="#D82C26" stroke="none" d="
M 6.7 13.5
Q 6.7 12.95 6.35 12.6 6.05 12.3 5.45 12.3
L 4.85 12.4
Q 4.5 12.5 4.3 12.7
L 4.4 13 4.9 12.7 5.4 12.6
Q 5.8 12.6 6.05 12.85 6.3 13 6.3 13.45
L 6.3 13.65 5.95 13.65
Q 4.15 13.65 4.15 14.7 4.15 15.15 4.4 15.4 4.65 15.6 5.15 15.6 5.5 15.6 5.85 15.45 6.2 15.2 6.3 14.9
L 6.35 15.25 6.35 15.55 6.75 15.55 6.7 13.5
M 6 13.9
L 6.3 13.9 6.3 14.25 6.2 14.75
Q 6 15.05 5.8 15.15 5.5 15.35 5.2 15.35 5 15.35 4.7 15.15 4.5 15 4.5 14.65 4.5 13.9 6 13.9 Z"/>
</g>

<g id="IT_300x250_psd_Asset_4_ManagedWiFi_IT_Awareness_DM6_2_IT_administrators_are__supporting_more_devices___hardware__soft_0_Layer0_0_MEMBER_43_FILL">
<path fill="#D82C26" stroke="none" d="
M 9.35 12.35
L 9.05 12.3
Q 8.7 12.3 8.5 12.5 8.3 12.65 8.1 13.05
L 8.05 12.4 7.7 12.4 7.75 15.55 8.1 15.55 8.1 13.95
Q 8.1 13.45 8.35 13.05 8.6 12.65 9 12.65
L 9.3 12.7 9.35 12.35 Z"/>
</g>

<g id="IT_300x250_psd_Asset_4_ManagedWiFi_IT_Awareness_DM6_2_IT_administrators_are__supporting_more_devices___hardware__soft_0_Layer0_0_MEMBER_44_FILL">
<path fill="#D82C26" stroke="none" d="
M 12.85 10.4
L 12.45 10.45 12.45 13.05
Q 12.3 12.75 11.95 12.5 11.6 12.3 11.2 12.3 10.7 12.3 10.35 12.5 10.05 12.7 9.8 13.1 9.6 13.45 9.6 13.95 9.6 14.45 9.8 14.8 10.05 15.2 10.35 15.4 10.7 15.6 11.2 15.6 11.6 15.6 11.95 15.4 12.3 15.25 12.45 14.85
L 12.5 14.85 12.5 15.55 12.9 15.55 12.85 10.4
M 11.9 12.8
L 12.3 13.3
Q 12.5 13.55 12.5 13.95 12.5 14.4 12.3 14.65 12.15 14.95 11.9 15.1 11.65 15.3 11.25 15.3 10.8 15.3 10.6 15.1 10.3 14.95 10.15 14.65 10 14.35 10 13.95 10 13.6 10.15 13.3 10.3 13.05 10.6 12.8 10.85 12.65 11.25 12.65 11.6 12.65 11.9 12.8 Z"/>
</g>

<g id="IT_300x250_psd_Asset_4_ManagedWiFi_IT_Awareness_DM6_2_IT_administrators_are__supporting_more_devices___hardware__soft_0_Layer0_0_MEMBER_45_FILL">
<path fill="#D82C26" stroke="none" d="
M 15.85 12.85
L 16.75 15.55 17.2 15.55 18.15 12.4 17.75 12.4 16.95 15.1 16.05 12.4 15.65 12.4 14.75 15.1 13.95 12.4 13.55 12.4 14.5 15.55 14.95 15.55 15.85 12.85 Z"/>
</g>

<g id="IT_300x250_psd_Asset_4_ManagedWiFi_IT_Awareness_DM6_2_IT_administrators_are__supporting_more_devices___hardware__soft_0_Layer0_0_MEMBER_46_FILL">
<path fill="#D82C26" stroke="none" d="
M 20.8 13.45
L 20.8 13.65 20.4 13.65
Q 18.6 13.65 18.6 14.7 18.6 15.2 18.9 15.4 19.15 15.6 19.6 15.6 20 15.6 20.3 15.45 20.65 15.25 20.8 14.9
L 20.8 15.25 20.85 15.55 21.2 15.55 21.15 13.5
Q 21.15 12.9 20.85 12.6 20.55 12.3 19.95 12.3
L 19.3 12.4
Q 19.05 12.45 18.8 12.7
L 18.9 13 19.35 12.7 19.9 12.6
Q 20.3 12.6 20.55 12.85 20.8 13 20.8 13.45
M 20.45 13.9
L 20.8 13.9 20.8 14.25 20.65 14.75
Q 20.6 14.95 20.3 15.15 20 15.35 19.7 15.35 19.5 15.35 19.2 15.15 19 15 19 14.65 19 13.9 20.45 13.9 Z"/>
</g>

<g id="IT_300x250_psd_Asset_4_ManagedWiFi_IT_Awareness_DM6_2_IT_administrators_are__supporting_more_devices___hardware__soft_0_Layer0_0_MEMBER_47_FILL">
<path fill="#D82C26" stroke="none" d="
M 23.85 12.35
L 23.5 12.3
Q 23.2 12.3 22.95 12.5
L 22.6 13.05 22.55 12.4 22.15 12.4 22.2 15.55 22.6 15.55 22.6 13.95
Q 22.6 13.45 22.85 13.05 23.1 12.65 23.5 12.65
L 23.75 12.7 23.85 12.35 Z"/>
</g>

<g id="IT_300x250_psd_Asset_4_ManagedWiFi_IT_Awareness_DM6_2_IT_administrators_are__supporting_more_devices___hardware__soft_0_Layer0_0_MEMBER_48_FILL">
<path fill="#D82C26" stroke="none" d="
M 27.15 14
L 27.15 13.85
Q 27.15 13.4 26.95 13.05 26.75 12.7 26.45 12.5 26.1 12.3 25.65 12.3 25.2 12.3 24.85 12.5 24.55 12.7 24.3 13.1 24.1 13.45 24.1 13.95 24.1 14.45 24.3 14.8 24.55 15.2 24.85 15.4 25.25 15.65 25.7 15.65 26.4 15.65 26.95 15.25
L 26.9 14.9 26.35 15.2 25.75 15.3
Q 25.35 15.3 25.1 15.15 24.8 14.9 24.65 14.65 24.45 14.25 24.45 14
L 27.15 14
M 25.65 12.6
Q 26.15 12.6 26.45 12.9 26.75 13.2 26.75 13.75
L 24.5 13.75
Q 24.5 13.5 24.65 13.2 24.75 12.95 25.05 12.8 25.25 12.6 25.65 12.6 Z"/>
</g>

<g id="IT_300x250_psd_Asset_4_ManagedWiFi_IT_Awareness_DM6_2_IT_administrators_are__supporting_more_devices___hardware__soft_0_Layer0_0_MEMBER_49_FILL">
<path fill="#D82C26" stroke="none" d="
M 27.95 15.3
Q 28 15.4 28.15 15.4
L 28 15.85 27.7 16.2 27.85 16.3
Q 28.45 15.8 28.45 15.2
L 28.4 14.9 28.15 14.8 27.95 14.9 27.85 15.1 27.95 15.3 Z"/>
</g>

<g id="IT_300x250_psd_Asset_4_ManagedWiFi_IT_Awareness_DM6_2_IT_administrators_are__supporting_more_devices___hardware__soft_0_Layer0_0_MEMBER_50_FILL">
<path fill="#D82C26" stroke="none" d="
M 32.65 12.65
L 32.2 12.4 31.65 12.3 31.15 12.4
Q 30.9 12.45 30.75 12.7 30.6 12.85 30.6 13.15 30.6 13.55 30.8 13.7 31 13.9 31.5 14.05
L 32.15 14.35
Q 32.35 14.5 32.35 14.7 32.35 15 32.15 15.15 31.95 15.3 31.65 15.3 31 15.3 30.6 14.95
L 30.55 15.25
Q 30.75 15.45 31 15.5 31.2 15.6 31.65 15.6 32 15.6 32.15 15.5 32.4 15.45 32.55 15.2 32.7 15 32.7 14.7 32.7 14.35 32.5 14.15 32.3 13.95 31.75 13.8
L 31.15 13.5
Q 30.95 13.35 30.95 13.15 30.95 12.9 31.15 12.75 31.4 12.6 31.65 12.6
L 32.1 12.7 32.45 12.9 32.65 12.65 Z"/>
</g>

<g id="IT_300x250_psd_Asset_4_ManagedWiFi_IT_Awareness_DM6_2_IT_administrators_are__supporting_more_devices___hardware__soft_0_Layer0_0_MEMBER_51_FILL">
<path fill="#D82C26" stroke="none" d="
M 35.85 15.4
Q 36.25 15.2 36.45 14.8 36.65 14.45 36.65 13.95 36.65 13.45 36.45 13.1 36.25 12.75 35.85 12.5 35.5 12.3 35 12.3 34.5 12.3 34.15 12.5 33.8 12.75 33.55 13.1 33.35 13.45 33.35 13.95 33.35 14.45 33.55 14.8 33.8 15.2 34.15 15.4 34.55 15.65 35 15.65 35.45 15.65 35.85 15.4
M 36.1 14.6
Q 35.95 14.9 35.7 15.1 35.45 15.3 35 15.3 34.55 15.3 34.3 15.1 34.05 14.9 33.9 14.6 33.7 14.35 33.7 13.95 33.7 13.55 33.9 13.3 34 13.1 34.3 12.8 34.6 12.65 35 12.65 35.45 12.65 35.65 12.8 35.95 13.05 36.1 13.3 36.3 13.55 36.3 13.95 36.3 14.35 36.1 14.6 Z"/>
</g>

<g id="IT_300x250_psd_Asset_4_ManagedWiFi_IT_Awareness_DM6_2_IT_administrators_are__supporting_more_devices___hardware__soft_0_Layer0_0_MEMBER_52_FILL">
<path fill="#D82C26" stroke="none" d="
M 37.9 10.65
Q 37.65 11 37.65 11.5
L 37.65 12.4 37.05 12.4 37 12.7 37.65 12.7 37.65 15.55 38.05 15.55 38.05 12.7 38.75 12.7 38.85 12.4 38.05 12.4 38.05 11.5
Q 38.05 11.1 38.2 10.95 38.3 10.7 38.65 10.7
L 39.15 10.75 39.2 10.45 38.95 10.4 38.6 10.4
Q 38.1 10.4 37.9 10.65 Z"/>
</g>

<g id="IT_300x250_psd_Asset_4_ManagedWiFi_IT_Awareness_DM6_2_IT_administrators_are__supporting_more_devices___hardware__soft_0_Layer0_0_MEMBER_53_FILL">
<path fill="#D82C26" stroke="none" d="
M 40.95 12.7
L 41.05 12.4 40.15 12.4 40.15 11.5 39.75 11.65 39.75 12.4 39.25 12.4 39.15 12.7 39.75 12.7 39.75 14.8
Q 39.75 15.2 39.95 15.4 40.1 15.6 40.5 15.6
L 40.85 15.55 41.15 15.45 41.1 15.15 40.6 15.3
Q 40.4 15.3 40.25 15.15
L 40.15 14.7 40.15 12.7 40.95 12.7 Z"/>
</g>

<g id="IT_300x250_psd_Asset_4_ManagedWiFi_IT_Awareness_DM6_2_IT_administrators_are__supporting_more_devices___hardware__soft_0_Layer0_0_MEMBER_54_FILL">
<path fill="#D82C26" stroke="none" d="
M 46.1 12.4
L 45.7 12.4 44.9 15.1 44 12.4 43.55 12.4 42.7 15.1 41.9 12.4 41.5 12.4 42.45 15.55 42.9 15.55 43.8 12.85 44.7 15.55 45.1 15.55 46.1 12.4 Z"/>
</g>

<g id="IT_300x250_psd_Asset_4_ManagedWiFi_IT_Awareness_DM6_2_IT_administrators_are__supporting_more_devices___hardware__soft_0_Layer0_0_MEMBER_55_FILL">
<path fill="#D82C26" stroke="none" d="
M 49.1 13.5
Q 49.1 12.9 48.8 12.6 48.45 12.3 47.9 12.3
L 47.25 12.4
Q 46.9 12.5 46.7 12.7
L 46.85 13 47.3 12.7 47.85 12.6
Q 48.25 12.6 48.5 12.85 48.75 13 48.75 13.45
L 48.75 13.65 48.35 13.65
Q 46.55 13.65 46.55 14.7 46.55 15.2 46.85 15.4 47.1 15.6 47.55 15.6 47.95 15.6 48.25 15.45 48.65 15.15 48.7 14.9
L 48.75 14.9 48.75 15.25 48.8 15.55 49.15 15.55 49.1 13.5
M 48.4 13.9
L 48.75 13.9 48.75 14.25 48.6 14.75 48.25 15.15
Q 47.85 15.35 47.65 15.35 47.35 15.35 47.15 15.15 46.95 15 46.95 14.65 46.95 13.9 48.4 13.9 Z"/>
</g>

<g id="IT_300x250_psd_Asset_4_ManagedWiFi_IT_Awareness_DM6_2_IT_administrators_are__supporting_more_devices___hardware__soft_0_Layer0_0_MEMBER_56_FILL">
<path fill="#D82C26" stroke="none" d="
M 51.8 12.35
L 51.45 12.3
Q 51.15 12.3 50.9 12.5 50.6 12.8 50.55 13.05
L 50.5 13.05 50.5 12.4 50.1 12.4 50.15 15.55 50.55 15.55 50.55 13.95
Q 50.55 13.35 50.8 13.05 51.05 12.65 51.45 12.65
L 51.7 12.7 51.8 12.35 Z"/>
</g>

<g id="IT_300x250_psd_Asset_4_ManagedWiFi_IT_Awareness_DM6_2_IT_administrators_are__supporting_more_devices___hardware__soft_0_Layer0_0_MEMBER_57_FILL">
<path fill="#D82C26" stroke="none" d="
M 54.9 13.05
Q 54.75 12.75 54.4 12.5 54.05 12.3 53.6 12.3 53.15 12.3 52.8 12.5 52.4 12.75 52.25 13.1 52.05 13.45 52.05 13.95 52.05 14.45 52.25 14.8 52.4 15.15 52.8 15.4 53.2 15.65 53.65 15.65 54.35 15.65 54.9 15.25
L 54.8 14.9 54.3 15.2 53.65 15.3
Q 53.3 15.3 53 15.15 52.7 14.85 52.6 14.65 52.4 14.4 52.4 14
L 55.05 14 55.1 13.85
Q 55.1 13.55 54.9 13.05
M 54.4 12.9
Q 54.7 13.2 54.7 13.75
L 52.4 13.75
Q 52.5 13.4 52.55 13.2
L 52.95 12.8
Q 53.2 12.6 53.6 12.6 54.1 12.6 54.4 12.9 Z"/>
</g>

<g id="IT_300x250_psd_Asset_4_ManagedWiFi_IT_Awareness_DM6_2_IT_administrators_are__supporting_more_devices___hardware__soft_0_Layer0_0_MEMBER_58_FILL">
<path fill="#D82C26" stroke="none" d="
M 55.9 15.5
L 56.1 15.6 56.3 15.5 56.4 15.25 56.3 15.05 56.1 14.95 55.9 15.05 55.8 15.25 55.9 15.5 Z"/>
</g>

<g id="IT_300x250_psd_Asset_4_ManagedWiFi_IT_Awareness_DM6_2_IT_administrators_are__supporting_more_devices___hardware__soft_0_Layer0_0_MEMBER_59_FILL">
<path fill="#D82C26" stroke="none" d="
M 57.4 15.5
L 57.6 15.6 57.8 15.5 57.9 15.25 57.8 15.05 57.6 14.95 57.4 15.05 57.3 15.25 57.4 15.5 Z"/>
</g>

<g id="IT_300x250_psd_Asset_4_ManagedWiFi_IT_Awareness_DM6_2_IT_administrators_are__supporting_more_devices___hardware__soft_0_Layer0_0_MEMBER_60_FILL">
<path fill="#D82C26" stroke="none" d="
M 58.9 15.5
L 59.1 15.6 59.3 15.5 59.4 15.25 59.3 15.05 59.1 14.95 58.9 15.05 58.8 15.25 58.9 15.5 Z"/>
</g>
</defs>

<g transform="matrix( 1, 0, 0, 1, -31,7) ">
<g transform="matrix( 1, 0, 0, 1, 26,16) ">
<g transform="matrix( 1, 0, 0, 1, 28,6) ">
<g transform="matrix( 2.815704345703125, 0, 0, 2.832611083984375, -0.85,14.6) ">
<use xlink:href="#IT_300x250_psd_Asset_4_ManagedWiFi_IT_Awareness_DM6_2_IT_administrators_are__supporting_more_devices___hardware__soft_0_Layer0_0_MEMBER_0_FILL"/>
</g>

<g transform="matrix( 2.815704345703125, 0, 0, 2.832611083984375, -0.85,14.6) ">
<use xlink:href="#IT_300x250_psd_Asset_4_ManagedWiFi_IT_Awareness_DM6_2_IT_administrators_are__supporting_more_devices___hardware__soft_0_Layer0_0_MEMBER_1_FILL"/>
</g>

<g transform="matrix( 2.815704345703125, 0, 0, 2.832611083984375, -0.85,14.6) ">
<use xlink:href="#IT_300x250_psd_Asset_4_ManagedWiFi_IT_Awareness_DM6_2_IT_administrators_are__supporting_more_devices___hardware__soft_0_Layer0_0_MEMBER_2_FILL"/>
</g>

<g transform="matrix( 2.815704345703125, 0, 0, 2.832611083984375, -0.85,14.6) ">
<use xlink:href="#IT_300x250_psd_Asset_4_ManagedWiFi_IT_Awareness_DM6_2_IT_administrators_are__supporting_more_devices___hardware__soft_0_Layer0_0_MEMBER_3_FILL"/>
</g>

<g transform="matrix( 2.815704345703125, 0, 0, 2.832611083984375, -0.85,14.6) ">
<use xlink:href="#IT_300x250_psd_Asset_4_ManagedWiFi_IT_Awareness_DM6_2_IT_administrators_are__supporting_more_devices___hardware__soft_0_Layer0_0_MEMBER_4_FILL"/>
</g>

<g transform="matrix( 2.815704345703125, 0, 0, 2.832611083984375, -0.85,14.6) ">
<use xlink:href="#IT_300x250_psd_Asset_4_ManagedWiFi_IT_Awareness_DM6_2_IT_administrators_are__supporting_more_devices___hardware__soft_0_Layer0_0_MEMBER_5_FILL"/>
</g>

<g transform="matrix( 2.815704345703125, 0, 0, 2.832611083984375, -0.85,14.6) ">
<use xlink:href="#IT_300x250_psd_Asset_4_ManagedWiFi_IT_Awareness_DM6_2_IT_administrators_are__supporting_more_devices___hardware__soft_0_Layer0_0_MEMBER_6_FILL"/>
</g>

<g transform="matrix( 2.815704345703125, 0, 0, 2.832611083984375, -0.85,14.6) ">
<use xlink:href="#IT_300x250_psd_Asset_4_ManagedWiFi_IT_Awareness_DM6_2_IT_administrators_are__supporting_more_devices___hardware__soft_0_Layer0_0_MEMBER_7_FILL"/>
</g>

<g transform="matrix( 2.815704345703125, 0, 0, 2.832611083984375, -0.85,14.6) ">
<use xlink:href="#IT_300x250_psd_Asset_4_ManagedWiFi_IT_Awareness_DM6_2_IT_administrators_are__supporting_more_devices___hardware__soft_0_Layer0_0_MEMBER_8_FILL"/>
</g>

<g transform="matrix( 2.815704345703125, 0, 0, 2.832611083984375, -0.85,14.6) ">
<use xlink:href="#IT_300x250_psd_Asset_4_ManagedWiFi_IT_Awareness_DM6_2_IT_administrators_are__supporting_more_devices___hardware__soft_0_Layer0_0_MEMBER_9_FILL"/>
</g>

<g transform="matrix( 2.815704345703125, 0, 0, 2.832611083984375, -0.85,14.6) ">
<use xlink:href="#IT_300x250_psd_Asset_4_ManagedWiFi_IT_Awareness_DM6_2_IT_administrators_are__supporting_more_devices___hardware__soft_0_Layer0_0_MEMBER_10_FILL"/>
</g>

<g transform="matrix( 2.815704345703125, 0, 0, 2.832611083984375, -0.85,14.6) ">
<use xlink:href="#IT_300x250_psd_Asset_4_ManagedWiFi_IT_Awareness_DM6_2_IT_administrators_are__supporting_more_devices___hardware__soft_0_Layer0_0_MEMBER_11_FILL"/>
</g>

<g transform="matrix( 2.815704345703125, 0, 0, 2.832611083984375, -0.85,14.6) ">
<use xlink:href="#IT_300x250_psd_Asset_4_ManagedWiFi_IT_Awareness_DM6_2_IT_administrators_are__supporting_more_devices___hardware__soft_0_Layer0_0_MEMBER_12_FILL"/>
</g>

<g transform="matrix( 2.815704345703125, 0, 0, 2.832611083984375, -0.85,14.6) ">
<use xlink:href="#IT_300x250_psd_Asset_4_ManagedWiFi_IT_Awareness_DM6_2_IT_administrators_are__supporting_more_devices___hardware__soft_0_Layer0_0_MEMBER_13_FILL"/>
</g>

<g transform="matrix( 2.815704345703125, 0, 0, 2.832611083984375, -0.85,14.6) ">
<use xlink:href="#IT_300x250_psd_Asset_4_ManagedWiFi_IT_Awareness_DM6_2_IT_administrators_are__supporting_more_devices___hardware__soft_0_Layer0_0_MEMBER_14_FILL"/>
</g>

<g transform="matrix( 2.815704345703125, 0, 0, 2.832611083984375, -0.85,14.6) ">
<use xlink:href="#IT_300x250_psd_Asset_4_ManagedWiFi_IT_Awareness_DM6_2_IT_administrators_are__supporting_more_devices___hardware__soft_0_Layer0_0_MEMBER_15_FILL"/>
</g>

<g transform="matrix( 2.815704345703125, 0, 0, 2.832611083984375, -0.85,14.6) ">
<use xlink:href="#IT_300x250_psd_Asset_4_ManagedWiFi_IT_Awareness_DM6_2_IT_administrators_are__supporting_more_devices___hardware__soft_0_Layer0_0_MEMBER_16_FILL"/>
</g>

<g transform="matrix( 2.815704345703125, 0, 0, 2.832611083984375, -0.85,14.6) ">
<use xlink:href="#IT_300x250_psd_Asset_4_ManagedWiFi_IT_Awareness_DM6_2_IT_administrators_are__supporting_more_devices___hardware__soft_0_Layer0_0_MEMBER_17_FILL"/>
</g>

<g transform="matrix( 2.815704345703125, 0, 0, 2.832611083984375, -0.85,14.6) ">
<use xlink:href="#IT_300x250_psd_Asset_4_ManagedWiFi_IT_Awareness_DM6_2_IT_administrators_are__supporting_more_devices___hardware__soft_0_Layer0_0_MEMBER_18_FILL"/>
</g>

<g transform="matrix( 2.815704345703125, 0, 0, 2.832611083984375, -0.85,14.6) ">
<use xlink:href="#IT_300x250_psd_Asset_4_ManagedWiFi_IT_Awareness_DM6_2_IT_administrators_are__supporting_more_devices___hardware__soft_0_Layer0_0_MEMBER_19_FILL"/>
</g>

<g transform="matrix( 2.815704345703125, 0, 0, 2.832611083984375, -0.85,14.6) ">
<use xlink:href="#IT_300x250_psd_Asset_4_ManagedWiFi_IT_Awareness_DM6_2_IT_administrators_are__supporting_more_devices___hardware__soft_0_Layer0_0_MEMBER_20_FILL"/>
</g>

<g transform="matrix( 2.815704345703125, 0, 0, 2.832611083984375, -0.85,14.6) ">
<use xlink:href="#IT_300x250_psd_Asset_4_ManagedWiFi_IT_Awareness_DM6_2_IT_administrators_are__supporting_more_devices___hardware__soft_0_Layer0_0_MEMBER_21_FILL"/>
</g>

<g transform="matrix( 2.815704345703125, 0, 0, 2.832611083984375, -0.85,14.6) ">
<use xlink:href="#IT_300x250_psd_Asset_4_ManagedWiFi_IT_Awareness_DM6_2_IT_administrators_are__supporting_more_devices___hardware__soft_0_Layer0_0_MEMBER_22_FILL"/>
</g>

<g transform="matrix( 2.815704345703125, 0, 0, 2.832611083984375, -0.85,14.6) ">
<use xlink:href="#IT_300x250_psd_Asset_4_ManagedWiFi_IT_Awareness_DM6_2_IT_administrators_are__supporting_more_devices___hardware__soft_0_Layer0_0_MEMBER_23_FILL"/>
</g>

<g transform="matrix( 2.815704345703125, 0, 0, 2.832611083984375, -0.85,14.6) ">
<use xlink:href="#IT_300x250_psd_Asset_4_ManagedWiFi_IT_Awareness_DM6_2_IT_administrators_are__supporting_more_devices___hardware__soft_0_Layer0_0_MEMBER_24_FILL"/>
</g>

<g transform="matrix( 2.815704345703125, 0, 0, 2.832611083984375, -0.85,14.6) ">
<use xlink:href="#IT_300x250_psd_Asset_4_ManagedWiFi_IT_Awareness_DM6_2_IT_administrators_are__supporting_more_devices___hardware__soft_0_Layer0_0_MEMBER_25_FILL"/>
</g>

<g transform="matrix( 2.815704345703125, 0, 0, 2.832611083984375, -0.85,14.6) ">
<use xlink:href="#IT_300x250_psd_Asset_4_ManagedWiFi_IT_Awareness_DM6_2_IT_administrators_are__supporting_more_devices___hardware__soft_0_Layer0_0_MEMBER_26_FILL"/>
</g>

<g transform="matrix( 2.815704345703125, 0, 0, 2.832611083984375, -0.85,14.6) ">
<use xlink:href="#IT_300x250_psd_Asset_4_ManagedWiFi_IT_Awareness_DM6_2_IT_administrators_are__supporting_more_devices___hardware__soft_0_Layer0_0_MEMBER_27_FILL"/>
</g>

<g transform="matrix( 2.815704345703125, 0, 0, 2.832611083984375, -0.85,14.6) ">
<use xlink:href="#IT_300x250_psd_Asset_4_ManagedWiFi_IT_Awareness_DM6_2_IT_administrators_are__supporting_more_devices___hardware__soft_0_Layer0_0_MEMBER_28_FILL"/>
</g>

<g transform="matrix( 2.815704345703125, 0, 0, 2.832611083984375, -0.85,14.6) ">
<use xlink:href="#IT_300x250_psd_Asset_4_ManagedWiFi_IT_Awareness_DM6_2_IT_administrators_are__supporting_more_devices___hardware__soft_0_Layer0_0_MEMBER_29_FILL"/>
</g>

<g transform="matrix( 2.815704345703125, 0, 0, 2.832611083984375, -0.85,14.6) ">
<use xlink:href="#IT_300x250_psd_Asset_4_ManagedWiFi_IT_Awareness_DM6_2_IT_administrators_are__supporting_more_devices___hardware__soft_0_Layer0_0_MEMBER_30_FILL"/>
</g>

<g transform="matrix( 2.815704345703125, 0, 0, 2.832611083984375, -0.85,14.6) ">
<use xlink:href="#IT_300x250_psd_Asset_4_ManagedWiFi_IT_Awareness_DM6_2_IT_administrators_are__supporting_more_devices___hardware__soft_0_Layer0_0_MEMBER_31_FILL"/>
</g>

<g transform="matrix( 2.815704345703125, 0, 0, 2.832611083984375, -0.85,14.6) ">
<use xlink:href="#IT_300x250_psd_Asset_4_ManagedWiFi_IT_Awareness_DM6_2_IT_administrators_are__supporting_more_devices___hardware__soft_0_Layer0_0_MEMBER_32_FILL"/>
</g>

<g transform="matrix( 2.815704345703125, 0, 0, 2.832611083984375, -0.85,14.6) ">
<use xlink:href="#IT_300x250_psd_Asset_4_ManagedWiFi_IT_Awareness_DM6_2_IT_administrators_are__supporting_more_devices___hardware__soft_0_Layer0_0_MEMBER_33_FILL"/>
</g>

<g transform="matrix( 2.815704345703125, 0, 0, 2.832611083984375, -0.85,14.6) ">
<use xlink:href="#IT_300x250_psd_Asset_4_ManagedWiFi_IT_Awareness_DM6_2_IT_administrators_are__supporting_more_devices___hardware__soft_0_Layer0_0_MEMBER_34_FILL"/>
</g>

<g transform="matrix( 2.815704345703125, 0, 0, 2.832611083984375, -0.85,14.6) ">
<use xlink:href="#IT_300x250_psd_Asset_4_ManagedWiFi_IT_Awareness_DM6_2_IT_administrators_are__supporting_more_devices___hardware__soft_0_Layer0_0_MEMBER_35_FILL"/>
</g>

<g transform="matrix( 2.815704345703125, 0, 0, 2.832611083984375, -0.85,14.6) ">
<use xlink:href="#IT_300x250_psd_Asset_4_ManagedWiFi_IT_Awareness_DM6_2_IT_administrators_are__supporting_more_devices___hardware__soft_0_Layer0_0_MEMBER_36_FILL"/>
</g>

<g transform="matrix( 2.815704345703125, 0, 0, 2.832611083984375, -0.85,14.6) ">
<use xlink:href="#IT_300x250_psd_Asset_4_ManagedWiFi_IT_Awareness_DM6_2_IT_administrators_are__supporting_more_devices___hardware__soft_0_Layer0_0_MEMBER_37_FILL"/>
</g>

<g transform="matrix( 2.815704345703125, 0, 0, 2.832611083984375, -0.85,14.6) ">
<use xlink:href="#IT_300x250_psd_Asset_4_ManagedWiFi_IT_Awareness_DM6_2_IT_administrators_are__supporting_more_devices___hardware__soft_0_Layer0_0_MEMBER_38_FILL"/>
</g>

<g transform="matrix( 2.815704345703125, 0, 0, 2.832611083984375, -0.85,14.6) ">
<use xlink:href="#IT_300x250_psd_Asset_4_ManagedWiFi_IT_Awareness_DM6_2_IT_administrators_are__supporting_more_devices___hardware__soft_0_Layer0_0_MEMBER_39_FILL"/>
</g>

<g transform="matrix( 2.815704345703125, 0, 0, 2.832611083984375, -0.85,14.6) ">
<use xlink:href="#IT_300x250_psd_Asset_4_ManagedWiFi_IT_Awareness_DM6_2_IT_administrators_are__supporting_more_devices___hardware__soft_0_Layer0_0_MEMBER_40_FILL"/>
</g>

<g transform="matrix( 2.815704345703125, 0, 0, 2.832611083984375, -0.85,14.6) ">
<use xlink:href="#IT_300x250_psd_Asset_4_ManagedWiFi_IT_Awareness_DM6_2_IT_administrators_are__supporting_more_devices___hardware__soft_0_Layer0_0_MEMBER_41_FILL"/>
</g>

<g transform="matrix( 2.815704345703125, 0, 0, 2.832611083984375, -0.85,14.6) ">
<use xlink:href="#IT_300x250_psd_Asset_4_ManagedWiFi_IT_Awareness_DM6_2_IT_administrators_are__supporting_more_devices___hardware__soft_0_Layer0_0_MEMBER_42_FILL"/>
</g>

<g transform="matrix( 2.815704345703125, 0, 0, 2.832611083984375, -0.85,14.6) ">
<use xlink:href="#IT_300x250_psd_Asset_4_ManagedWiFi_IT_Awareness_DM6_2_IT_administrators_are__supporting_more_devices___hardware__soft_0_Layer0_0_MEMBER_43_FILL"/>
</g>

<g transform="matrix( 2.815704345703125, 0, 0, 2.832611083984375, -0.85,14.6) ">
<use xlink:href="#IT_300x250_psd_Asset_4_ManagedWiFi_IT_Awareness_DM6_2_IT_administrators_are__supporting_more_devices___hardware__soft_0_Layer0_0_MEMBER_44_FILL"/>
</g>

<g transform="matrix( 2.815704345703125, 0, 0, 2.832611083984375, -0.85,14.6) ">
<use xlink:href="#IT_300x250_psd_Asset_4_ManagedWiFi_IT_Awareness_DM6_2_IT_administrators_are__supporting_more_devices___hardware__soft_0_Layer0_0_MEMBER_45_FILL"/>
</g>

<g transform="matrix( 2.815704345703125, 0, 0, 2.832611083984375, -0.85,14.6) ">
<use xlink:href="#IT_300x250_psd_Asset_4_ManagedWiFi_IT_Awareness_DM6_2_IT_administrators_are__supporting_more_devices___hardware__soft_0_Layer0_0_MEMBER_46_FILL"/>
</g>

<g transform="matrix( 2.815704345703125, 0, 0, 2.832611083984375, -0.85,14.6) ">
<use xlink:href="#IT_300x250_psd_Asset_4_ManagedWiFi_IT_Awareness_DM6_2_IT_administrators_are__supporting_more_devices___hardware__soft_0_Layer0_0_MEMBER_47_FILL"/>
</g>

<g transform="matrix( 2.815704345703125, 0, 0, 2.832611083984375, -0.85,14.6) ">
<use xlink:href="#IT_300x250_psd_Asset_4_ManagedWiFi_IT_Awareness_DM6_2_IT_administrators_are__supporting_more_devices___hardware__soft_0_Layer0_0_MEMBER_48_FILL"/>
</g>

<g transform="matrix( 2.815704345703125, 0, 0, 2.832611083984375, -0.85,14.6) ">
<use xlink:href="#IT_300x250_psd_Asset_4_ManagedWiFi_IT_Awareness_DM6_2_IT_administrators_are__supporting_more_devices___hardware__soft_0_Layer0_0_MEMBER_49_FILL"/>
</g>

<g transform="matrix( 2.815704345703125, 0, 0, 2.832611083984375, -0.85,14.6) ">
<use xlink:href="#IT_300x250_psd_Asset_4_ManagedWiFi_IT_Awareness_DM6_2_IT_administrators_are__supporting_more_devices___hardware__soft_0_Layer0_0_MEMBER_50_FILL"/>
</g>

<g transform="matrix( 2.815704345703125, 0, 0, 2.832611083984375, -0.85,14.6) ">
<use xlink:href="#IT_300x250_psd_Asset_4_ManagedWiFi_IT_Awareness_DM6_2_IT_administrators_are__supporting_more_devices___hardware__soft_0_Layer0_0_MEMBER_51_FILL"/>
</g>

<g transform="matrix( 2.815704345703125, 0, 0, 2.832611083984375, -0.85,14.6) ">
<use xlink:href="#IT_300x250_psd_Asset_4_ManagedWiFi_IT_Awareness_DM6_2_IT_administrators_are__supporting_more_devices___hardware__soft_0_Layer0_0_MEMBER_52_FILL"/>
</g>

<g transform="matrix( 2.815704345703125, 0, 0, 2.832611083984375, -0.85,14.6) ">
<use xlink:href="#IT_300x250_psd_Asset_4_ManagedWiFi_IT_Awareness_DM6_2_IT_administrators_are__supporting_more_devices___hardware__soft_0_Layer0_0_MEMBER_53_FILL"/>
</g>

<g transform="matrix( 2.815704345703125, 0, 0, 2.832611083984375, -0.85,14.6) ">
<use xlink:href="#IT_300x250_psd_Asset_4_ManagedWiFi_IT_Awareness_DM6_2_IT_administrators_are__supporting_more_devices___hardware__soft_0_Layer0_0_MEMBER_54_FILL"/>
</g>

<g transform="matrix( 2.815704345703125, 0, 0, 2.832611083984375, -0.85,14.6) ">
<use xlink:href="#IT_300x250_psd_Asset_4_ManagedWiFi_IT_Awareness_DM6_2_IT_administrators_are__supporting_more_devices___hardware__soft_0_Layer0_0_MEMBER_55_FILL"/>
</g>

<g transform="matrix( 2.815704345703125, 0, 0, 2.832611083984375, -0.85,14.6) ">
<use xlink:href="#IT_300x250_psd_Asset_4_ManagedWiFi_IT_Awareness_DM6_2_IT_administrators_are__supporting_more_devices___hardware__soft_0_Layer0_0_MEMBER_56_FILL"/>
</g>

<g transform="matrix( 2.815704345703125, 0, 0, 2.832611083984375, -0.85,14.6) ">
<use xlink:href="#IT_300x250_psd_Asset_4_ManagedWiFi_IT_Awareness_DM6_2_IT_administrators_are__supporting_more_devices___hardware__soft_0_Layer0_0_MEMBER_57_FILL"/>
</g>

<g transform="matrix( 2.815704345703125, 0, 0, 2.832611083984375, -0.85,14.6) ">
<use xlink:href="#IT_300x250_psd_Asset_4_ManagedWiFi_IT_Awareness_DM6_2_IT_administrators_are__supporting_more_devices___hardware__soft_0_Layer0_0_MEMBER_58_FILL"/>
</g>

<g transform="matrix( 2.815704345703125, 0, 0, 2.832611083984375, -0.85,14.6) ">
<use xlink:href="#IT_300x250_psd_Asset_4_ManagedWiFi_IT_Awareness_DM6_2_IT_administrators_are__supporting_more_devices___hardware__soft_0_Layer0_0_MEMBER_59_FILL"/>
</g>

<g transform="matrix( 2.815704345703125, 0, 0, 2.832611083984375, -0.85,14.6) ">
<use xlink:href="#IT_300x250_psd_Asset_4_ManagedWiFi_IT_Awareness_DM6_2_IT_administrators_are__supporting_more_devices___hardware__soft_0_Layer0_0_MEMBER_60_FILL"/>
</g>
</g>
</g>
</g>
</svg>
