
<svg xmlns="http://www.w3.org/2000/svg" version="1.1" xmlns:xlink="http://www.w3.org/1999/xlink" preserveAspectRatio="none" x="0px" y="0px" width="160px" height="600px" viewBox="0 0 160 600">
<defs>
<g id="BDM_160x600_FR_psd_Asset_8_V7_2_Tirez_parti_de__toutes_les__analyses__de_donn_es__possibles__de_0_Layer0_0_MEMBER_0_FILL">
<path fill="#D82C26" stroke="none" d="
M 0.05 -5.1
L 1.8 -5.1 1.8 0 2.25 0 2.25 -5.1 3.95 -5.1 4 -5.5 0.1 -5.5 0.05 -5.1 Z"/>
</g>

<g id="BDM_160x600_FR_psd_Asset_8_V7_2_Tirez_parti_de__toutes_les__analyses__de_donn_es__possibles__de_0_Layer0_0_MEMBER_1_FILL">
<path fill="#D82C26" stroke="none" d="
M 5.1 -3.65
L 4.65 -3.65 4.65 0 5.1 0 5.1 -3.65
M 4.85 -5.4
Q 4.7 -5.4 4.65 -5.3 4.55 -5.25 4.55 -5.1 4.55 -4.9 4.65 -4.85
L 4.85 -4.75 5.1 -4.85 5.2 -5.1 5.1 -5.35 4.85 -5.4 Z"/>
</g>

<g id="BDM_160x600_FR_psd_Asset_8_V7_2_Tirez_parti_de__toutes_les__analyses__de_donn_es__possibles__de_0_Layer0_0_MEMBER_2_FILL">
<path fill="#D82C26" stroke="none" d="
M 8.1 -3.7
L 7.75 -3.75
Q 7.45 -3.75 7.1 -3.5 6.8 -3.25 6.65 -2.85
L 6.6 -3.65 6.15 -3.65 6.2 0 6.65 0 6.65 -1.8
Q 6.65 -2.45 6.95 -2.9 7.25 -3.35 7.7 -3.35
L 8 -3.3 8.1 -3.7 Z"/>
</g>

<g id="BDM_160x600_FR_psd_Asset_8_V7_2_Tirez_parti_de__toutes_les__analyses__de_donn_es__possibles__de_0_Layer0_0_MEMBER_3_FILL">
<path fill="#D82C26" stroke="none" d="
M 10.05 -3.75
Q 9.55 -3.75 9.15 -3.5 8.8 -3.3 8.5 -2.85 8.25 -2.35 8.25 -1.85 8.25 -1.35 8.5 -0.85 8.7 -0.4 9.15 -0.15 9.55 0.1 10.1 0.1 10.95 0.1 11.55 -0.35
L 11.5 -0.75
Q 11.3 -0.55 10.9 -0.4
L 10.15 -0.25
Q 9.9 -0.25 9.4 -0.45 9.05 -0.7 8.9 -1 8.7 -1.35 8.7 -1.75
L 11.8 -1.75 11.8 -1.95
Q 11.8 -2.35 11.6 -2.85 11.4 -3.25 11 -3.5 10.6 -3.75 10.05 -3.75
M 9.35 -3.2
Q 9.6 -3.4 10.05 -3.4 10.55 -3.4 11 -3.05 11.35 -2.6 11.35 -2.1
L 8.7 -2.1
Q 8.7 -2.3 8.9 -2.7 9.05 -2.95 9.35 -3.2 Z"/>
</g>

<g id="BDM_160x600_FR_psd_Asset_8_V7_2_Tirez_parti_de__toutes_les__analyses__de_donn_es__possibles__de_0_Layer0_0_MEMBER_4_FILL">
<path fill="#D82C26" stroke="none" d="
M 14.5 -3.3
L 12.25 -0.35 12.25 0 15.1 0 15.15 -0.35 12.8 -0.35 15 -3.3 15 -3.65 12.4 -3.65 12.3 -3.3 14.5 -3.3 Z"/>
</g>

<g id="BDM_160x600_FR_psd_Asset_8_V7_2_Tirez_parti_de__toutes_les__analyses__de_donn_es__possibles__de_0_Layer0_0_MEMBER_5_FILL">
<path fill="#D82C26" stroke="none" d="
M 19.25 -3.75
Q 18.85 -3.75 18.35 -3.5 17.95 -3.25 17.75 -2.85
L 17.7 -3.65 17.25 -3.65 17.3 1.85 17.75 1.85 17.75 -0.8
Q 17.95 -0.35 18.4 -0.15 18.8 0.1 19.25 0.1 19.7 0.1 20.2 -0.15 20.65 -0.4 20.85 -0.85 21.05 -1.25 21.05 -1.8 21.05 -2.4 20.85 -2.8 20.7 -3.1 20.2 -3.5 19.7 -3.75 19.25 -3.75
M 19.2 -3.35
Q 19.6 -3.35 19.95 -3.15 20.25 -2.9 20.45 -2.6 20.6 -2.2 20.6 -1.8
L 20.45 -1.05
Q 20.2 -0.6 19.95 -0.5 19.6 -0.3 19.2 -0.3 18.7 -0.3 18.45 -0.5 18.1 -0.7 17.9 -1.05
L 17.75 -1.8
Q 17.75 -2.2 17.9 -2.6 18.1 -2.95 18.45 -3.15 18.7 -3.35 19.2 -3.35 Z"/>
</g>

<g id="BDM_160x600_FR_psd_Asset_8_V7_2_Tirez_parti_de__toutes_les__analyses__de_donn_es__possibles__de_0_Layer0_0_MEMBER_6_FILL">
<path fill="#D82C26" stroke="none" d="
M 23.15 -3.4
Q 23.65 -3.4 23.9 -3.15 24.2 -2.85 24.2 -2.4
L 24.2 -2.2 23.75 -2.2
Q 21.65 -2.2 21.65 -1 21.65 -0.5 22 -0.15 22.4 0.1 22.85 0.1 23.3 0.1 23.65 -0.1 24.05 -0.35 24.2 -0.7
L 24.25 -0.35 24.25 0 24.7 0 24.65 -2.35
Q 24.65 -3 24.25 -3.4 23.9 -3.75 23.25 -3.75
L 22.5 -3.65
Q 22.1 -3.5 21.9 -3.3
L 22 -2.95 22.55 -3.25
Q 22.85 -3.4 23.15 -3.4
M 22.35 -0.4
Q 22.1 -0.65 22.1 -1 22.1 -1.9 23.8 -1.9
L 24.2 -1.9 24.2 -1.5
Q 24.2 -1.2 24.05 -0.9 23.9 -0.6 23.6 -0.45 23.4 -0.25 22.95 -0.25 22.6 -0.25 22.35 -0.4 Z"/>
</g>

<g id="BDM_160x600_FR_psd_Asset_8_V7_2_Tirez_parti_de__toutes_les__analyses__de_donn_es__possibles__de_0_Layer0_0_MEMBER_7_FILL">
<path fill="#D82C26" stroke="none" d="
M 26.1 -3.65
L 25.65 -3.65 25.7 0 26.15 0 26.15 -1.8
Q 26.15 -2.45 26.45 -2.9 26.7 -3.35 27.2 -3.35
L 27.5 -3.3 27.6 -3.7 27.2 -3.75
Q 26.95 -3.75 26.6 -3.5 26.3 -3.25 26.15 -2.85
L 26.1 -3.65 Z"/>
</g>

<g id="BDM_160x600_FR_psd_Asset_8_V7_2_Tirez_parti_de__toutes_les__analyses__de_donn_es__possibles__de_0_Layer0_0_MEMBER_8_FILL">
<path fill="#D82C26" stroke="none" d="
M 28.5 -3.65
L 27.9 -3.65 27.8 -3.3 28.5 -3.3 28.5 -0.9
Q 28.5 -0.4 28.7 -0.15 28.95 0.1 29.35 0.1
L 30.1 -0.1 30.05 -0.45
Q 29.75 -0.3 29.45 -0.3 29.25 -0.3 29.1 -0.45 28.95 -0.6 28.95 -0.95
L 28.95 -3.3 29.9 -3.3 29.95 -3.65 28.95 -3.65 28.95 -4.7 28.5 -4.5 28.5 -3.65 Z"/>
</g>

<g id="BDM_160x600_FR_psd_Asset_8_V7_2_Tirez_parti_de__toutes_les__analyses__de_donn_es__possibles__de_0_Layer0_0_MEMBER_9_FILL">
<path fill="#D82C26" stroke="none" d="
M 31.15 -3.65
L 30.7 -3.65 30.7 0 31.15 0 31.15 -3.65
M 30.95 -4.75
L 31.15 -4.85
Q 31.25 -4.9 31.25 -5.1 31.25 -5.25 31.15 -5.35
L 30.95 -5.4
Q 30.75 -5.4 30.7 -5.3
L 30.6 -5.1 30.7 -4.85 30.95 -4.75 Z"/>
</g>

<g id="BDM_160x600_FR_psd_Asset_8_V7_2_Tirez_parti_de__toutes_les__analyses__de_donn_es__possibles__de_0_Layer0_0_MEMBER_10_FILL">
<path fill="#D82C26" stroke="none" d="
M 35.3 -3.75
Q 34.8 -3.75 34.3 -3.5 33.9 -3.15 33.7 -2.8 33.45 -2.3 33.45 -1.8 33.45 -1.35 33.7 -0.85 33.95 -0.35 34.3 -0.15 34.8 0.1 35.3 0.1 35.75 0.1 36.15 -0.15 36.55 -0.4 36.75 -0.8
L 36.8 -0.8 36.8 0 37.25 0 37.2 -5.95 36.75 -5.85 36.75 -2.85
Q 36.55 -3.25 36.15 -3.5 35.65 -3.75 35.3 -3.75
M 34.6 -3.15
Q 34.85 -3.35 35.35 -3.35 35.75 -3.35 36.1 -3.15 36.4 -2.9 36.6 -2.6 36.8 -2.1 36.8 -1.8 36.8 -1.55 36.6 -1.05 36.4 -0.75 36.1 -0.5 35.75 -0.3 35.35 -0.3 34.85 -0.3 34.6 -0.5 34.25 -0.65 34.1 -1.05 33.9 -1.4 33.9 -1.8 33.9 -2.25 34.1 -2.6 34.25 -2.95 34.6 -3.15 Z"/>
</g>

<g id="BDM_160x600_FR_psd_Asset_8_V7_2_Tirez_parti_de__toutes_les__analyses__de_donn_es__possibles__de_0_Layer0_0_MEMBER_11_FILL">
<path fill="#D82C26" stroke="none" d="
M 39.9 -3.75
Q 39.45 -3.75 38.95 -3.5 38.7 -3.35 38.3 -2.85 38.1 -2.45 38.1 -1.85 38.1 -1.2 38.35 -0.85 38.6 -0.35 39 -0.15 39.3 0.1 39.95 0.1 40.8 0.1 41.4 -0.35
L 41.3 -0.75 40.75 -0.4 40 -0.25
Q 39.65 -0.25 39.25 -0.45 39 -0.6 38.7 -1
L 38.55 -1.75 41.6 -1.75 41.6 -1.95
Q 41.6 -2.5 41.4 -2.85 41.25 -3.25 40.8 -3.5 40.4 -3.75 39.9 -3.75
M 39.15 -3.2
Q 39.4 -3.4 39.9 -3.4 40.45 -3.4 40.8 -3.05 41.1 -2.75 41.2 -2.1
L 38.55 -2.1
Q 38.55 -2.4 38.7 -2.7 38.85 -2.95 39.15 -3.2 Z"/>
</g>

<g id="BDM_160x600_FR_psd_Asset_8_V7_2_Tirez_parti_de__toutes_les__analyses__de_donn_es__possibles__de_0_Layer0_0_MEMBER_12_FILL">
<path fill="#D82C26" stroke="none" d="
M 0.1 5.9
L 0.8 5.9 0.8 8.3
Q 0.8 8.8 1 9 1.25 9.25 1.6 9.25
L 2.05 9.2 2.4 9.05 2.35 8.7
Q 2 8.9 1.75 8.9 1.5 8.9 1.35 8.75 1.25 8.6 1.25 8.25
L 1.25 5.9 2.15 5.9 2.25 5.55 1.25 5.55 1.25 4.5 0.75 4.65 0.75 5.55 0.2 5.55 0.1 5.9 Z"/>
</g>

<g id="BDM_160x600_FR_psd_Asset_8_V7_2_Tirez_parti_de__toutes_les__analyses__de_donn_es__possibles__de_0_Layer0_0_MEMBER_13_FILL">
<path fill="#D82C26" stroke="none" d="
M 4.55 5.45
Q 3.95 5.45 3.55 5.65 3.15 5.95 2.85 6.35 2.6 6.85 2.6 7.35 2.6 7.85 2.85 8.35 3.15 8.75 3.55 9.05 4.05 9.3 4.55 9.3 5.05 9.3 5.55 9.05 5.95 8.75 6.25 8.35 6.5 7.85 6.5 7.35 6.5 6.85 6.25 6.35 5.95 5.95 5.55 5.65 5.15 5.45 4.55 5.45
M 3.75 6
Q 4.25 5.8 4.55 5.8 4.85 5.8 5.35 6 5.7 6.3 5.85 6.6 6.05 7 6.05 7.35 6.05 7.65 5.85 8.15 5.7 8.45 5.35 8.7 5 8.9 4.55 8.9 4.1 8.9 3.75 8.7 3.4 8.45 3.25 8.15 3.05 7.65 3.05 7.35 3.05 7 3.25 6.6 3.4 6.3 3.75 6 Z"/>
</g>

<g id="BDM_160x600_FR_psd_Asset_8_V7_2_Tirez_parti_de__toutes_les__analyses__de_donn_es__possibles__de_0_Layer0_0_MEMBER_14_FILL">
<path fill="#D82C26" stroke="none" d="
M 10.5 9.2
L 10.4 8.35 10.4 5.55 9.95 5.55 9.95 7.35
Q 9.95 7.85 9.8 8.2 9.6 8.55 9.35 8.7 9.15 8.9 8.75 8.9 8.2 8.9 8 8.55 7.75 8.15 7.75 7.65
L 7.75 5.55 7.3 5.55 7.3 7.75
Q 7.3 8.45 7.65 8.85 7.95 9.3 8.65 9.3 9.05 9.3 9.45 9.05 9.75 8.85 9.95 8.4
L 10.05 9.2 10.5 9.2 Z"/>
</g>

<g id="BDM_160x600_FR_psd_Asset_8_V7_2_Tirez_parti_de__toutes_les__analyses__de_donn_es__possibles__de_0_Layer0_0_MEMBER_15_FILL">
<path fill="#D82C26" stroke="none" d="
M 12.15 5.55
L 12.15 4.5 11.7 4.65 11.7 5.55 11.1 5.55 11.05 5.9 11.7 5.9 11.7 8.3
Q 11.7 8.75 11.95 9 12.2 9.25 12.55 9.25
L 12.95 9.2 13.35 9.05 13.25 8.7
Q 13 8.9 12.7 8.9 12.45 8.9 12.3 8.75 12.15 8.55 12.15 8.25
L 12.15 5.9 13.1 5.9 13.2 5.55 12.15 5.55 Z"/>
</g>

<g id="BDM_160x600_FR_psd_Asset_8_V7_2_Tirez_parti_de__toutes_les__analyses__de_donn_es__possibles__de_0_Layer0_0_MEMBER_16_FILL">
<path fill="#D82C26" stroke="none" d="
M 16.3 5.65
Q 15.95 5.45 15.35 5.45 14.8 5.45 14.45 5.65 14 5.95 13.8 6.35 13.55 6.85 13.55 7.35 13.55 7.85 13.8 8.35 13.95 8.65 14.45 9.05 14.95 9.3 15.45 9.3 16.25 9.3 16.9 8.85
L 16.8 8.45
Q 16.6 8.65 16.2 8.8
L 15.45 8.9
Q 15.05 8.9 14.7 8.7 14.35 8.55 14.2 8.15 14 7.9 14 7.4
L 17.1 7.4 17.1 7.25
Q 17.1 6.7 16.9 6.3 16.7 5.95 16.3 5.65
M 15.35 5.8
Q 15.95 5.8 16.3 6.15 16.65 6.5 16.65 7.1
L 14 7.1
Q 14 6.9 14.2 6.5 14.35 6.25 14.65 6 14.9 5.8 15.35 5.8 Z"/>
</g>

<g id="BDM_160x600_FR_psd_Asset_8_V7_2_Tirez_parti_de__toutes_les__analyses__de_donn_es__possibles__de_0_Layer0_0_MEMBER_17_FILL">
<path fill="#D82C26" stroke="none" d="
M 18.35 5.55
Q 18.1 5.6 17.9 5.9 17.75 6.15 17.75 6.45 17.75 6.85 18 7.05 18.25 7.3 18.75 7.45
L 19.55 7.8
Q 19.75 7.95 19.75 8.25 19.75 8.55 19.5 8.75 19.3 8.9 18.95 8.9 18.25 8.9 17.75 8.5
L 17.65 8.9 18.2 9.15 18.95 9.3
Q 19.35 9.3 19.55 9.15 19.8 9.1 20 8.8 20.2 8.6 20.2 8.2 20.2 7.85 19.95 7.6 19.8 7.45 19.1 7.15
L 18.35 6.85
Q 18.15 6.7 18.15 6.4 18.15 6.1 18.4 5.95 18.65 5.8 18.95 5.8
L 19.45 5.9
Q 19.55 5.95 19.9 6.15
L 20.1 5.8 19.6 5.55
Q 19.4 5.45 18.95 5.45 18.55 5.45 18.35 5.55 Z"/>
</g>

<g id="BDM_160x600_FR_psd_Asset_8_V7_2_Tirez_parti_de__toutes_les__analyses__de_donn_es__possibles__de_0_Layer0_0_MEMBER_18_FILL">
<path fill="#D82C26" stroke="none" d="
M 22.6 8.95
Q 22.75 9.2 23.05 9.25
L 23.25 8.9 22.95 8.65 22.9 8.25 22.9 3.25 22.45 3.35 22.45 8.35
Q 22.45 8.75 22.6 8.95 Z"/>
</g>

<g id="BDM_160x600_FR_psd_Asset_8_V7_2_Tirez_parti_de__toutes_les__analyses__de_donn_es__possibles__de_0_Layer0_0_MEMBER_19_FILL">
<path fill="#D82C26" stroke="none" d="
M 26.5 5.65
Q 26.15 5.45 25.6 5.45 25.05 5.45 24.65 5.65 24.15 6.05 24 6.35 23.8 6.75 23.8 7.35 23.8 7.95 24 8.35 24.3 8.75 24.7 9.05 25.1 9.3 25.65 9.3 26.5 9.3 27.1 8.85
L 27 8.45
Q 26.8 8.65 26.4 8.8
L 25.7 8.9
Q 25.2 8.9 24.95 8.7 24.65 8.6 24.4 8.15 24.2 7.75 24.2 7.4
L 27.3 7.4 27.3 7.25
Q 27.3 6.7 27.1 6.3 26.85 5.9 26.5 5.65
M 25.6 5.8
Q 26.2 5.8 26.5 6.15 26.8 6.45 26.9 7.1
L 24.25 7.1
Q 24.25 6.8 24.4 6.5 24.55 6.25 24.85 6 25.1 5.8 25.6 5.8 Z"/>
</g>

<g id="BDM_160x600_FR_psd_Asset_8_V7_2_Tirez_parti_de__toutes_les__analyses__de_donn_es__possibles__de_0_Layer0_0_MEMBER_20_FILL">
<path fill="#D82C26" stroke="none" d="
M 28.55 5.55
Q 28.4 5.6 28.1 5.9 27.95 6.15 27.95 6.45 27.95 6.8 28.2 7.05 28.45 7.3 29 7.45 29.4 7.55 29.75 7.8 30 7.95 30 8.25 30 8.5 29.75 8.75 29.55 8.9 29.15 8.9 28.5 8.9 27.95 8.5
L 27.85 8.9 28.45 9.15
Q 28.75 9.3 29.2 9.3 29.5 9.3 29.8 9.15 29.95 9.1 30.25 8.8 30.4 8.6 30.4 8.2 30.4 7.85 30.15 7.6 29.95 7.4 29.3 7.15
L 28.6 6.85
Q 28.35 6.7 28.35 6.4 28.35 6.1 28.6 5.95 28.85 5.8 29.15 5.8
L 29.7 5.9 30.1 6.15 30.3 5.8 29.8 5.55
Q 29.6 5.45 29.15 5.45 28.75 5.45 28.55 5.55 Z"/>
</g>

<g id="BDM_160x600_FR_psd_Asset_8_V7_2_Tirez_parti_de__toutes_les__analyses__de_donn_es__possibles__de_0_Layer0_0_MEMBER_21_FILL">
<path fill="#D82C26" stroke="none" d="
M 1.3 15.1
L 1.95 14.95
Q 2.35 14.95 2.7 15.2 2.95 15.45 2.95 15.95
L 2.95 16.2 2.55 16.2
Q 0.45 16.2 0.45 17.4 0.45 17.9 0.8 18.2 1.15 18.45 1.6 18.45 2.1 18.45 2.45 18.25 2.8 18.05 2.95 17.65
L 3 17.65 3 18 3.05 18.35 3.45 18.35 3.4 16
Q 3.4 15.3 3.05 14.95 2.7 14.6 2 14.6
L 1.25 14.75
Q 0.85 14.85 0.65 15.05
L 0.8 15.4 1.3 15.1
M 2.4 17.95
Q 2.1 18.1 1.7 18.1 1.4 18.1 1.1 17.95 0.9 17.75 0.9 17.35 0.9 16.5 2.6 16.5
L 2.95 16.5 2.95 16.85
Q 2.95 17.25 2.85 17.45 2.7 17.7 2.4 17.95 Z"/>
</g>

<g id="BDM_160x600_FR_psd_Asset_8_V7_2_Tirez_parti_de__toutes_les__analyses__de_donn_es__possibles__de_0_Layer0_0_MEMBER_22_FILL">
<path fill="#D82C26" stroke="none" d="
M 6.25 14.6
Q 5.85 14.6 5.45 14.85 5.15 15.05 4.95 15.5
L 4.9 15.5 4.85 14.7 4.45 14.7 4.5 18.35 4.95 18.35 4.95 16.5
Q 4.95 16 5.1 15.7 5.2 15.4 5.55 15.15 5.8 15 6.15 15 6.7 15 6.9 15.35 7.15 15.75 7.15 16.25
L 7.15 18.35 7.6 18.35 7.6 16.15
Q 7.6 15.45 7.25 15.05 6.95 14.6 6.25 14.6 Z"/>
</g>

<g id="BDM_160x600_FR_psd_Asset_8_V7_2_Tirez_parti_de__toutes_les__analyses__de_donn_es__possibles__de_0_Layer0_0_MEMBER_23_FILL">
<path fill="#D82C26" stroke="none" d="
M 9.25 15.1
L 9.9 14.95
Q 10.3 14.95 10.65 15.2 10.9 15.45 10.9 15.95
L 10.9 16.2 10.5 16.2
Q 8.4 16.2 8.4 17.4 8.4 17.9 8.75 18.2 9.1 18.45 9.55 18.45 10 18.45 10.4 18.25 10.75 18.05 10.9 17.65
L 10.95 17.65 10.95 18 11 18.35 11.4 18.35 11.35 16
Q 11.35 15.3 11 14.95 10.65 14.6 9.95 14.6
L 9.2 14.75
Q 8.8 14.85 8.6 15.05
L 8.75 15.4 9.25 15.1
M 9.05 17.95
Q 8.85 17.75 8.85 17.35 8.85 16.5 10.55 16.5
L 10.9 16.5 10.9 16.85
Q 10.9 17.25 10.8 17.45 10.65 17.7 10.35 17.95 10.05 18.1 9.65 18.1 9.35 18.1 9.05 17.95 Z"/>
</g>

<g id="BDM_160x600_FR_psd_Asset_8_V7_2_Tirez_parti_de__toutes_les__analyses__de_donn_es__possibles__de_0_Layer0_0_MEMBER_24_FILL">
<path fill="#D82C26" stroke="none" d="
M 12.6 18.15
Q 12.75 18.35 13 18.45
L 13.2 18.05 12.95 17.85 12.85 17.45 12.85 12.45 12.4 12.5 12.4 17.55
Q 12.4 17.95 12.6 18.15 Z"/>
</g>

<g id="BDM_160x600_FR_psd_Asset_8_V7_2_Tirez_parti_de__toutes_les__analyses__de_donn_es__possibles__de_0_Layer0_0_MEMBER_25_FILL">
<path fill="#D82C26" stroke="none" d="
M 16.85 14.7
L 16.35 14.7 15.25 17.9 14 14.7 13.5 14.7 15.05 18.4 14.75 19.15
Q 14.6 19.55 14.35 19.65 14.15 19.8 13.75 19.8
L 13.85 20.2
Q 14.4 20.2 14.65 20 15 19.8 15.15 19.25
L 16.85 14.7 Z"/>
</g>

<g id="BDM_160x600_FR_psd_Asset_8_V7_2_Tirez_parti_de__toutes_les__analyses__de_donn_es__possibles__de_0_Layer0_0_MEMBER_26_FILL">
<path fill="#D82C26" stroke="none" d="
M 18.45 14.6
L 17.9 14.7
Q 17.6 14.85 17.45 15.05 17.25 15.25 17.25 15.6 17.25 16 17.5 16.25
L 18.3 16.65
Q 18.85 16.8 19.05 17 19.3 17.15 19.3 17.4 19.3 17.75 19.05 17.9 18.85 18.1 18.5 18.1 17.8 18.1 17.25 17.65
L 17.2 18.05 17.75 18.35 18.5 18.45 19.1 18.35
Q 19.45 18.2 19.55 18 19.75 17.75 19.75 17.4 19.75 17 19.45 16.75 19.2 16.5 18.6 16.35
L 17.9 16
Q 17.7 15.85 17.7 15.6 17.7 15.3 17.9 15.15 18.1 14.95 18.5 14.95
L 19 15.05 19.45 15.35 19.65 15 19.1 14.7 18.45 14.6 Z"/>
</g>

<g id="BDM_160x600_FR_psd_Asset_8_V7_2_Tirez_parti_de__toutes_les__analyses__de_donn_es__possibles__de_0_Layer0_0_MEMBER_27_FILL">
<path fill="#D82C26" stroke="none" d="
M 22.1 14.6
Q 21.6 14.6 21.2 14.85 20.8 15.05 20.55 15.55 20.3 15.95 20.3 16.5 20.3 17.05 20.55 17.55 20.8 17.95 21.2 18.2 21.6 18.45 22.15 18.45 23 18.45 23.6 18
L 23.55 17.6
Q 23.35 17.8 22.95 17.95
L 22.2 18.1
Q 21.8 18.1 21.45 17.9 21.05 17.6 20.95 17.35 20.75 17.1 20.75 16.6
L 23.85 16.6 23.85 16.4
Q 23.85 16 23.65 15.5 23.4 15.05 23.05 14.85 22.65 14.6 22.1 14.6
M 21.4 15.15
Q 21.8 14.95 22.1 14.95 22.6 14.95 23.05 15.3 23.4 15.75 23.4 16.25
L 20.75 16.25
Q 20.75 15.95 20.95 15.7 21.1 15.35 21.4 15.15 Z"/>
</g>

<g id="BDM_160x600_FR_psd_Asset_8_V7_2_Tirez_parti_de__toutes_les__analyses__de_donn_es__possibles__de_0_Layer0_0_MEMBER_28_FILL">
<path fill="#D82C26" stroke="none" d="
M 26.3 14.7
L 25.65 14.6 25.1 14.7
Q 24.8 14.85 24.65 15.05 24.45 15.35 24.45 15.6 24.45 16.05 24.75 16.25 24.9 16.4 25.5 16.65 26.05 16.8 26.25 17 26.5 17.15 26.5 17.4 26.5 17.75 26.25 17.9 26.05 18.1 25.7 18.1 24.95 18.1 24.5 17.65
L 24.4 18.05 24.95 18.35 25.7 18.45 26.3 18.35
Q 26.65 18.2 26.75 18 26.95 17.75 26.95 17.4 26.95 17 26.65 16.75 26.4 16.5 25.8 16.35
L 25.1 16
Q 24.9 15.85 24.9 15.6 24.9 15.3 25.1 15.15 25.3 14.95 25.7 14.95
L 26.2 15.05 26.65 15.35 26.85 15 26.3 14.7 Z"/>
</g>

<g id="BDM_160x600_FR_psd_Asset_8_V7_2_Tirez_parti_de__toutes_les__analyses__de_donn_es__possibles__de_0_Layer0_0_MEMBER_29_FILL">
<path fill="#D82C26" stroke="none" d="
M 2.25 23.8
Q 1.8 23.8 1.3 24.05 0.85 24.3 0.65 24.75 0.45 25.15 0.45 25.7 0.45 26.3 0.65 26.7 0.8 27 1.3 27.4 1.8 27.65 2.25 27.65 2.65 27.65 3.15 27.4 3.55 27.15 3.75 26.75
L 3.8 27.55 4.25 27.55 4.2 21.55 3.75 21.65 3.75 24.7
Q 3.55 24.25 3.1 24.05 2.8 23.8 2.25 23.8
M 2.3 24.15
Q 2.7 24.15 3.05 24.4 3.35 24.5 3.6 24.95
L 3.75 25.7
Q 3.75 26.15 3.6 26.5 3.3 26.9 3.05 27.05 2.8 27.25 2.3 27.25 1.9 27.25 1.55 27.05 1.25 26.8 1.05 26.5 0.9 26.15 0.9 25.7
L 1.05 24.95
Q 1.3 24.5 1.55 24.4 1.95 24.15 2.3 24.15 Z"/>
</g>

<g id="BDM_160x600_FR_psd_Asset_8_V7_2_Tirez_parti_de__toutes_les__analyses__de_donn_es__possibles__de_0_Layer0_0_MEMBER_30_FILL">
<path fill="#D82C26" stroke="none" d="
M 5.95 24.05
Q 5.5 24.35 5.3 24.7 5.05 25.2 5.05 25.7 5.05 26.2 5.3 26.7 5.5 27.15 5.95 27.4 6.45 27.65 6.95 27.65 7.8 27.65 8.4 27.2
L 8.3 26.8
Q 8.1 27 7.7 27.15 7.5 27.25 6.95 27.25 6.55 27.25 6.2 27.05 6 26.95 5.7 26.55 5.5 26.05 5.5 25.8
L 8.6 25.8 8.6 25.6
Q 8.6 25.05 8.4 24.7 8.2 24.3 7.8 24.05 7.5 23.8 6.85 23.8 6.35 23.8 5.95 24.05
M 6.85 24.15
Q 7.45 24.15 7.8 24.5 8.15 24.85 8.15 25.45
L 5.5 25.45 5.7 24.85
Q 5.85 24.6 6.15 24.35 6.4 24.15 6.85 24.15 Z"/>
</g>

<g id="BDM_160x600_FR_psd_Asset_8_V7_2_Tirez_parti_de__toutes_les__analyses__de_donn_es__possibles__de_0_Layer0_0_MEMBER_31_FILL">
<path fill="#D82C26" stroke="none" d="
M 12.45 23.8
Q 11.9 23.8 11.5 24.05 11.1 24.25 10.85 24.75 10.6 25.25 10.6 25.7 10.6 26.2 10.85 26.7 11.05 27.1 11.5 27.4 11.9 27.65 12.45 27.65 12.9 27.65 13.3 27.4 13.7 27.15 13.9 26.75
L 13.95 26.75 14 27.55 14.4 27.55 14.35 21.55 13.9 21.65 13.9 24.7
Q 13.7 24.3 13.3 24.05 13 23.8 12.45 23.8
M 12.5 24.15
Q 12.85 24.15 13.25 24.4 13.6 24.6 13.75 24.95 13.95 25.3 13.95 25.7 13.95 26.15 13.75 26.5 13.6 26.8 13.25 27.05 12.9 27.25 12.5 27.25 12 27.25 11.75 27.05 11.4 26.85 11.25 26.5 11.05 26.15 11.05 25.7 11.05 25.3 11.25 24.95 11.4 24.55 11.75 24.4 12.1 24.15 12.5 24.15 Z"/>
</g>

<g id="BDM_160x600_FR_psd_Asset_8_V7_2_Tirez_parti_de__toutes_les__analyses__de_donn_es__possibles__de_0_Layer0_0_MEMBER_32_FILL">
<path fill="#D82C26" stroke="none" d="
M 18.85 24.7
Q 18.65 24.3 18.15 24.05 17.8 23.8 17.15 23.8 16.55 23.8 16.15 24.05 15.7 24.35 15.5 24.7 15.25 25.1 15.25 25.7 15.25 26.35 15.5 26.7 15.7 27.15 16.15 27.4 16.65 27.65 17.15 27.65 17.65 27.65 18.15 27.4 18.6 27.15 18.85 26.7 19.1 26.2 19.1 25.7 19.1 25.2 18.85 24.7
M 17.15 24.15
Q 17.55 24.15 17.95 24.4 18.3 24.6 18.45 24.95 18.65 25.2 18.65 25.7 18.65 26.15 18.45 26.5 18.25 26.85 17.95 27.05 17.6 27.25 17.15 27.25 16.65 27.25 16.4 27.05 16.15 26.9 15.85 26.5 15.7 26.15 15.7 25.7 15.7 25.25 15.85 24.95 16.1 24.5 16.4 24.4 16.75 24.15 17.15 24.15 Z"/>
</g>

<g id="BDM_160x600_FR_psd_Asset_8_V7_2_Tirez_parti_de__toutes_les__analyses__de_donn_es__possibles__de_0_Layer0_0_MEMBER_33_FILL">
<path fill="#D82C26" stroke="none" d="
M 20.4 24.7
L 20.35 23.9 19.95 23.9 19.95 27.55 20.45 27.55 20.45 25.7
Q 20.45 25.25 20.6 24.85 20.8 24.5 21.05 24.35 21.35 24.15 21.65 24.15 22.15 24.15 22.4 24.55 22.65 24.95 22.65 25.45
L 22.65 27.55 23.1 27.55 23.1 25.3
Q 23.1 24.6 22.75 24.25 22.45 23.8 21.75 23.8 21.25 23.8 20.95 24.05 20.65 24.25 20.4 24.7 Z"/>
</g>

<g id="BDM_160x600_FR_psd_Asset_8_V7_2_Tirez_parti_de__toutes_les__analyses__de_donn_es__possibles__de_0_Layer0_0_MEMBER_34_FILL">
<path fill="#D82C26" stroke="none" d="
M 24.55 23.9
L 24.15 23.9 24.15 27.55 24.6 27.55 24.6 25.7
Q 24.6 25.2 24.8 24.85 25 24.5 25.2 24.35 25.6 24.15 25.85 24.15 26.35 24.15 26.6 24.55 26.8 24.9 26.8 25.45
L 26.8 27.55 27.3 27.55 27.3 25.3
Q 27.3 24.7 26.95 24.25 26.6 23.8 25.9 23.8 25.4 23.8 25.15 24.05 24.75 24.3 24.6 24.7
L 24.55 23.9 Z"/>
</g>

<g id="BDM_160x600_FR_psd_Asset_8_V7_2_Tirez_parti_de__toutes_les__analyses__de_donn_es__possibles__de_0_Layer0_0_MEMBER_35_FILL">
<path fill="#D82C26" stroke="none" d="
M 29.6 23.15
L 29.95 23.15 30.9 22.05 30.4 22.05 29.6 23.15
M 29.9 23.8
Q 29.3 23.8 29 24.05 28.55 24.35 28.35 24.7 28.1 25.2 28.1 25.7 28.1 26.2 28.35 26.7 28.55 27.15 29 27.4 29.5 27.65 30 27.65 30.85 27.65 31.45 27.2
L 31.35 26.8
Q 31.15 27 30.75 27.15 30.55 27.25 30 27.25 29.6 27.25 29.25 27.05 29.05 26.95 28.75 26.55 28.55 26.05 28.55 25.8
L 31.65 25.8 31.65 25.6
Q 31.65 25.05 31.45 24.7 31.25 24.3 30.85 24.05 30.55 23.8 29.9 23.8
M 29.2 24.35
Q 29.45 24.15 29.9 24.15 30.5 24.15 30.85 24.5 31.2 24.85 31.2 25.45
L 28.55 25.45 28.75 24.85
Q 28.9 24.6 29.2 24.35 Z"/>
</g>

<g id="BDM_160x600_FR_psd_Asset_8_V7_2_Tirez_parti_de__toutes_les__analyses__de_donn_es__possibles__de_0_Layer0_0_MEMBER_36_FILL">
<path fill="#D82C26" stroke="none" d="
M 33.15 24.05
Q 32.7 24.35 32.5 24.7 32.3 25.1 32.3 25.7 32.3 26.3 32.5 26.7 32.85 27.25 33.2 27.4 33.6 27.65 34.15 27.65 35 27.65 35.6 27.2
L 35.5 26.8 34.95 27.15
Q 34.7 27.25 34.2 27.25 33.7 27.25 33.45 27.05 33.2 26.95 32.9 26.55 32.7 26.05 32.7 25.8
L 35.8 25.8 35.8 25.6
Q 35.8 25.05 35.6 24.7 35.35 24.25 35 24.05 34.7 23.8 34.1 23.8 33.55 23.8 33.15 24.05
M 34.1 24.15
Q 34.7 24.15 35 24.5 35.3 24.8 35.4 25.45
L 32.75 25.45
Q 32.75 25.15 32.9 24.85 33.05 24.6 33.35 24.35 33.6 24.15 34.1 24.15 Z"/>
</g>

<g id="BDM_160x600_FR_psd_Asset_8_V7_2_Tirez_parti_de__toutes_les__analyses__de_donn_es__possibles__de_0_Layer0_0_MEMBER_37_FILL">
<path fill="#D82C26" stroke="none" d="
M 37.05 23.9
Q 36.9 23.95 36.6 24.25 36.45 24.5 36.45 24.8 36.45 25.15 36.7 25.4 36.95 25.65 37.5 25.8
L 38.25 26.15
Q 38.5 26.3 38.5 26.6 38.5 26.95 38.25 27.1 37.95 27.3 37.65 27.3 37 27.3 36.45 26.85
L 36.35 27.25 36.95 27.5
Q 37.25 27.65 37.7 27.65 38 27.65 38.3 27.5 38.45 27.45 38.75 27.15 38.9 26.95 38.9 26.6 38.9 26.2 38.65 25.95 38.3 25.7 37.8 25.5 37.25 25.35 37.1 25.2 36.85 25.05 36.85 24.75 36.85 24.45 37.1 24.3 37.35 24.15 37.65 24.15
L 38.2 24.25 38.6 24.5 38.8 24.15 38.3 23.9
Q 38.1 23.8 37.65 23.8 37.25 23.8 37.05 23.9 Z"/>
</g>

<g id="BDM_160x600_FR_psd_Asset_8_V7_2_Tirez_parti_de__toutes_les__analyses__de_donn_es__possibles__de_0_Layer0_0_MEMBER_38_FILL">
<path fill="#D82C26" stroke="none" d="
M 3.6 33.2
Q 3.2 32.95 2.65 32.95 2.2 32.95 1.8 33.2 1.45 33.4 1.2 33.85
L 1.15 33.85 1.15 33.1 0.7 33.1 0.7 38.6 1.15 38.6 1.15 35.95 1.2 35.95
Q 1.45 36.4 1.8 36.6 2.15 36.8 2.65 36.8 3.3 36.8 3.6 36.55 4 36.35 4.25 35.85 4.5 35.45 4.5 34.9 4.5 34.4 4.25 33.9 4.05 33.5 3.6 33.2
M 2.6 33.35
Q 3.1 33.35 3.35 33.55 3.7 33.8 3.85 34.1 4 34.5 4 34.9 4 35.35 3.85 35.65 3.7 35.95 3.35 36.25 2.95 36.45 2.6 36.45 2.35 36.45 1.85 36.25 1.5 35.95 1.35 35.65 1.15 35.4 1.15 34.9 1.15 34.45 1.35 34.1 1.5 33.8 1.85 33.55 2.2 33.35 2.6 33.35 Z"/>
</g>

<g id="BDM_160x600_FR_psd_Asset_8_V7_2_Tirez_parti_de__toutes_les__analyses__de_donn_es__possibles__de_0_Layer0_0_MEMBER_39_FILL">
<path fill="#D82C26" stroke="none" d="
M 8.75 33.9
Q 8.4 33.4 8.05 33.2 7.55 32.95 7.05 32.95 6.55 32.95 6.05 33.2 5.7 33.4 5.35 33.9 5.1 34.4 5.1 34.9 5.1 35.4 5.35 35.9 5.65 36.3 6.05 36.6 6.45 36.8 7.05 36.8 7.65 36.8 8.05 36.6 8.45 36.3 8.75 35.9 9 35.4 9 34.9 9 34.4 8.75 33.9
M 6.25 33.55
Q 6.6 33.35 7.05 33.35 7.5 33.35 7.85 33.55 8.2 33.8 8.35 34.1 8.55 34.6 8.55 34.9 8.55 35.25 8.35 35.65 8.2 35.95 7.85 36.25 7.35 36.45 7.05 36.45 6.75 36.45 6.25 36.25 5.9 35.95 5.75 35.65 5.55 35.25 5.55 34.9 5.55 34.6 5.75 34.1 5.9 33.8 6.25 33.55 Z"/>
</g>

<g id="BDM_160x600_FR_psd_Asset_8_V7_2_Tirez_parti_de__toutes_les__analyses__de_donn_es__possibles__de_0_Layer0_0_MEMBER_40_FILL">
<path fill="#D82C26" stroke="none" d="
M 10.8 32.95
Q 10.5 32.95 10.25 33.1 9.95 33.2 9.8 33.4 9.6 33.6 9.6 33.95 9.6 34.35 9.85 34.6 10.2 34.9 10.65 35 11.2 35.15 11.4 35.35 11.65 35.5 11.65 35.8 11.65 36.05 11.4 36.3 11.2 36.45 10.85 36.45 10.15 36.45 9.6 36
L 9.55 36.4
Q 9.8 36.65 10.1 36.7 10.35 36.8 10.85 36.8 11.25 36.8 11.45 36.7 11.8 36.55 11.9 36.35 12.1 35.95 12.1 35.75 12.1 35.4 11.8 35.1 11.55 34.85 10.95 34.7
L 10.25 34.35
Q 10.05 34.2 10.05 33.95 10.05 33.65 10.25 33.5 10.5 33.35 10.85 33.35 11.2 33.35 11.35 33.45
L 11.8 33.7 11.95 33.35 11.45 33.1
Q 11.15 32.95 10.8 32.95 Z"/>
</g>

<g id="BDM_160x600_FR_psd_Asset_8_V7_2_Tirez_parti_de__toutes_les__analyses__de_donn_es__possibles__de_0_Layer0_0_MEMBER_41_FILL">
<path fill="#D82C26" stroke="none" d="
M 12.9 33.4
Q 12.7 33.6 12.7 33.95 12.7 34.35 12.95 34.6 13.3 34.9 13.75 35 14.3 35.15 14.5 35.35 14.75 35.5 14.75 35.8 14.75 36.05 14.5 36.3 14.3 36.45 13.95 36.45 13.25 36.45 12.7 36
L 12.65 36.4
Q 12.85 36.6 13.2 36.7 13.45 36.8 13.95 36.8 14.35 36.8 14.55 36.7 14.9 36.55 15 36.35 15.2 36.1 15.2 35.75 15.2 35.4 14.9 35.1 14.65 34.85 14.05 34.7
L 13.35 34.35
Q 13.15 34.2 13.15 33.95 13.15 33.65 13.35 33.5 13.6 33.35 13.95 33.35 14.3 33.35 14.45 33.45
L 14.9 33.7 15.1 33.35 14.55 33.1
Q 14.25 32.95 13.9 32.95 13.6 32.95 13.35 33.1 13.05 33.2 12.9 33.4 Z"/>
</g>

<g id="BDM_160x600_FR_psd_Asset_8_V7_2_Tirez_parti_de__toutes_les__analyses__de_donn_es__possibles__de_0_Layer0_0_MEMBER_42_FILL">
<path fill="#D82C26" stroke="none" d="
M 16.45 33.1
L 15.95 33.1 15.95 36.7 16.45 36.7 16.45 33.1
M 16.2 31.95
L 16.45 31.85 16.5 31.6 16.45 31.4 16.2 31.3 15.95 31.4 15.85 31.6 15.95 31.85 16.2 31.95 Z"/>
</g>

<g id="BDM_160x600_FR_psd_Asset_8_V7_2_Tirez_parti_de__toutes_les__analyses__de_donn_es__possibles__de_0_Layer0_0_MEMBER_43_FILL">
<path fill="#D82C26" stroke="none" d="
M 18 30.75
L 17.55 30.85 17.5 36.7 17.95 36.7 18 35.9
Q 18.2 36.25 18.6 36.6 19 36.8 19.5 36.8 20.1 36.8 20.45 36.55 20.9 36.3 21.1 35.85 21.3 35.5 21.3 34.9 21.3 34.3 21.1 33.9 20.95 33.6 20.45 33.2 19.95 32.95 19.5 32.95 19.05 32.95 18.65 33.2 18.3 33.4 18 33.85
L 18 30.75
M 19.45 33.35
Q 19.85 33.35 20.2 33.55
L 20.7 34.1
Q 20.85 34.5 20.85 34.9 20.85 35.35 20.7 35.65 20.45 36.05 20.2 36.25 19.7 36.45 19.45 36.45 19.1 36.45 18.7 36.25 18.35 36.05 18.2 35.65 18 35.4 18 34.9 18 34.45 18.2 34.1 18.4 33.75 18.7 33.55 18.95 33.35 19.45 33.35 Z"/>
</g>

<g id="BDM_160x600_FR_psd_Asset_8_V7_2_Tirez_parti_de__toutes_les__analyses__de_donn_es__possibles__de_0_Layer0_0_MEMBER_44_FILL">
<path fill="#D82C26" stroke="none" d="
M 22.35 36.5
Q 22.5 36.75 22.8 36.8
L 23 36.4
Q 22.75 36.3 22.7 36.2
L 22.65 35.8 22.65 30.8 22.2 30.9 22.2 35.9
Q 22.2 36.3 22.35 36.5 Z"/>
</g>

<g id="BDM_160x600_FR_psd_Asset_8_V7_2_Tirez_parti_de__toutes_les__analyses__de_donn_es__possibles__de_0_Layer0_0_MEMBER_45_FILL">
<path fill="#D82C26" stroke="none" d="
M 25.3 32.95
Q 24.9 32.95 24.4 33.2 23.95 33.45 23.75 33.9 23.5 34.4 23.5 34.85 23.5 35.4 23.75 35.9 23.95 36.25 24.45 36.6 24.8 36.8 25.4 36.8 26.25 36.8 26.85 36.35
L 26.75 36 26.15 36.3
Q 25.85 36.45 25.45 36.45 24.95 36.45 24.7 36.25 24.35 36.05 24.15 35.7 23.95 35.3 23.95 34.95
L 27.05 34.95 27.05 34.75
Q 27.05 34.25 26.85 33.85 26.6 33.4 26.25 33.2 25.85 32.95 25.3 32.95
M 24.6 33.55
Q 24.95 33.3 25.3 33.3 25.85 33.3 26.25 33.7 26.6 34 26.6 34.65
L 23.95 34.65 24.15 34.05
Q 24.35 33.7 24.6 33.55 Z"/>
</g>

<g id="BDM_160x600_FR_psd_Asset_8_V7_2_Tirez_parti_de__toutes_les__analyses__de_donn_es__possibles__de_0_Layer0_0_MEMBER_46_FILL">
<path fill="#D82C26" stroke="none" d="
M 28.1 33.95
Q 28.1 33.65 28.35 33.5 28.6 33.35 28.9 33.35 29.25 33.35 29.45 33.45
L 29.85 33.7 30.05 33.35 29.55 33.1
Q 29.25 32.95 28.9 32.95 28.6 32.95 28.3 33.1
L 27.85 33.4
Q 27.7 33.65 27.7 33.95 27.7 34.35 27.95 34.6 28.2 34.85 28.7 35 29.35 35.2 29.5 35.35 29.7 35.5 29.7 35.8 29.7 36.1 29.5 36.3 29.2 36.45 28.9 36.45 28.25 36.45 27.7 36
L 27.6 36.4
Q 27.85 36.65 28.2 36.7 28.4 36.8 28.9 36.8 29.35 36.8 29.55 36.7
L 30 36.35
Q 30.15 36.05 30.15 35.75 30.15 35.45 29.9 35.1 29.55 34.85 29.05 34.7
L 28.3 34.35
Q 28.1 34.15 28.1 33.95 Z"/>
</g>

<g id="BDM_160x600_FR_psd_Asset_8_V7_2_Tirez_parti_de__toutes_les__analyses__de_donn_es__possibles__de_0_Layer0_0_MEMBER_47_FILL">
<path fill="#D82C26" stroke="none" d="
M 31.3 36.6
Q 31.3 36.7 31.1 37.1
L 30.8 37.5 30.95 37.65
Q 31.65 37 31.65 36.3 31.65 36.05 31.55 36 31.5 35.9 31.3 35.9 31.15 35.9 31.1 36 31 36.05 31 36.25 31 36.4 31.1 36.45 31.15 36.5 31.3 36.6 Z"/>
</g>

<g id="BDM_160x600_FR_psd_Asset_8_V7_2_Tirez_parti_de__toutes_les__analyses__de_donn_es__possibles__de_0_Layer0_0_MEMBER_48_FILL">
<path fill="#D82C26" stroke="none" d="
M 37.65 30.75
L 37.2 30.85 37.2 33.85
Q 36.9 33.4 36.55 33.2 36.15 32.95 35.7 32.95 35.25 32.95 34.75 33.2 34.3 33.5 34.1 33.9 33.9 34.3 33.9 34.9 33.9 35.5 34.1 35.85 34.35 36.35 34.75 36.55 35.15 36.8 35.7 36.8 36.2 36.8 36.55 36.6 36.95 36.4 37.2 35.9
L 37.25 36.7 37.7 36.7 37.65 30.75
M 34.5 34.1
L 35 33.55
Q 35.25 33.35 35.75 33.35 36.25 33.35 36.5 33.55 36.8 33.75 37 34.1 37.2 34.45 37.2 34.9 37.2 35.4 37 35.65 36.85 36.05 36.5 36.25 36.1 36.45 35.75 36.45 35.4 36.45 35 36.25 34.75 36.05 34.5 35.65 34.35 35.35 34.35 34.9 34.35 34.5 34.5 34.1 Z"/>
</g>

<g id="BDM_160x600_FR_psd_Asset_8_V7_2_Tirez_parti_de__toutes_les__analyses__de_donn_es__possibles__de_0_Layer0_0_MEMBER_49_FILL">
<path fill="#D82C26" stroke="none" d="
M 41.85 33.85
Q 41.6 33.4 41.25 33.2 40.85 32.95 40.3 32.95 39.8 32.95 39.4 33.2 39 33.4 38.75 33.9 38.5 34.4 38.5 34.85 38.5 35.4 38.75 35.9 38.9 36.2 39.4 36.6 39.8 36.8 40.4 36.8 41.2 36.8 41.85 36.35
L 41.75 36 41.15 36.3
Q 40.85 36.45 40.4 36.45 40 36.45 39.65 36.25 39.25 35.95 39.15 35.7 38.95 35.45 38.95 34.95
L 42.05 34.95 42.05 34.75
Q 42.05 34.25 41.85 33.85
M 41.25 33.7
Q 41.6 34 41.6 34.65
L 38.95 34.65
Q 38.95 34.45 39.15 34.05 39.35 33.7 39.6 33.55 39.95 33.3 40.3 33.3 40.85 33.3 41.25 33.7 Z"/>
</g>

<g id="BDM_160x600_FR_psd_Asset_8_V7_2_Tirez_parti_de__toutes_les__analyses__de_donn_es__possibles__de_0_Layer0_0_MEMBER_50_FILL">
<path fill="#D82C26" stroke="none" d="
M 0.9 45.65
L 1.3 46 1.5 45.6 1.25 45.4 1.2 45 1.2 40 0.7 40.05 0.7 45.1
Q 0.7 45.35 0.9 45.65 Z"/>
</g>

<g id="BDM_160x600_FR_psd_Asset_8_V7_2_Tirez_parti_de__toutes_les__analyses__de_donn_es__possibles__de_0_Layer0_0_MEMBER_51_FILL">
<path fill="#D82C26" stroke="none" d="
M 2.35 42.05
L 2.5 42.15
Q 3.2 41.5 3.2 40.85
L 3.15 40.5 2.9 40.4 2.65 40.5
Q 2.55 40.55 2.55 40.75 2.55 40.9 2.65 41
L 2.85 41.1
Q 2.85 41.4 2.7 41.6
L 2.35 42.05 Z"/>
</g>

<g id="BDM_160x600_FR_psd_Asset_8_V7_2_Tirez_parti_de__toutes_les__analyses__de_donn_es__possibles__de_0_Layer0_0_MEMBER_52_FILL">
<path fill="#D82C26" stroke="none" d="
M 4.35 42.65
L 5 42.5
Q 5.4 42.5 5.75 42.75 6 43.1 6 43.5
L 6 43.7 5.55 43.7
Q 3.5 43.7 3.5 44.9 3.5 45.5 3.85 45.7 4.15 46 4.65 46 5.1 46 5.45 45.8 5.85 45.55 6 45.2
L 6.05 45.2 6.05 45.55 6.1 45.9 6.5 45.9 6.45 43.55
Q 6.45 42.9 6.05 42.5 5.75 42.15 5.05 42.15
L 4.3 42.25
Q 3.9 42.4 3.7 42.6
L 3.8 42.95 4.35 42.65
M 4.15 45.45
Q 3.95 45.3 3.95 44.9 3.95 44 5.65 44
L 6 44 6 44.4
Q 6 44.7 5.85 45 5.6 45.4 5.45 45.45 5.2 45.65 4.75 45.65 4.35 45.65 4.15 45.45 Z"/>
</g>

<g id="BDM_160x600_FR_psd_Asset_8_V7_2_Tirez_parti_de__toutes_les__analyses__de_donn_es__possibles__de_0_Layer0_0_MEMBER_53_FILL">
<path fill="#D82C26" stroke="none" d="
M 8.2 42.4
Q 7.85 42.6 7.5 43.1 7.25 43.6 7.25 44.1 7.25 44.65 7.5 45.05 7.75 45.5 8.2 45.75 8.6 46 9.15 46
L 9.85 45.9 10.4 45.55 10.35 45.2
Q 9.95 45.45 9.8 45.5
L 9.2 45.6
Q 8.7 45.6 8.45 45.4 8.1 45.2 7.9 44.85
L 7.75 44.1
Q 7.75 43.7 7.9 43.3 8.1 42.95 8.45 42.75 8.7 42.55 9.2 42.55 9.55 42.55 9.75 42.65 10.05 42.75 10.2 42.95
L 10.4 42.6 9.85 42.25 9.15 42.15
Q 8.7 42.15 8.2 42.4 Z"/>
</g>

<g id="BDM_160x600_FR_psd_Asset_8_V7_2_Tirez_parti_de__toutes_les__analyses__de_donn_es__possibles__de_0_Layer0_0_MEMBER_54_FILL">
<path fill="#D82C26" stroke="none" d="
M 11.55 39.95
L 11.05 40.05 11.05 45.9 11.55 45.9 11.55 44.1
Q 11.55 43.65 11.7 43.25 11.8 42.95 12.15 42.7 12.4 42.55 12.75 42.55 13.3 42.55 13.5 42.9 13.75 43.3 13.75 43.8
L 13.75 45.9 14.2 45.9 14.2 43.65
Q 14.2 42.95 13.85 42.6 13.55 42.15 12.85 42.15 12.45 42.15 12.05 42.4 11.7 42.6 11.55 43.05
L 11.55 39.95 Z"/>
</g>

<g id="BDM_160x600_FR_psd_Asset_8_V7_2_Tirez_parti_de__toutes_les__analyses__de_donn_es__possibles__de_0_Layer0_0_MEMBER_55_FILL">
<path fill="#D82C26" stroke="none" d="
M 16.5 42.5
Q 16.9 42.5 17.25 42.75 17.5 43 17.5 43.5
L 17.5 43.7 17.1 43.7
Q 15 43.7 15 44.9 15 45.5 15.35 45.7 15.65 46 16.15 46 16.6 46 16.95 45.8 17.35 45.55 17.5 45.2
L 17.55 45.2 17.55 45.55 17.6 45.9 18 45.9 17.95 43.55
Q 17.95 42.95 17.6 42.5 17.25 42.15 16.55 42.15
L 15.8 42.25
Q 15.4 42.4 15.2 42.6
L 15.35 42.95 15.85 42.65 16.5 42.5
M 17.5 44
L 17.5 44.4 17.4 45
Q 17.2 45.35 16.95 45.45 16.7 45.65 16.25 45.65 15.9 45.65 15.65 45.45 15.45 45.3 15.45 44.9 15.45 44 17.15 44
L 17.5 44 Z"/>
</g>

<g id="BDM_160x600_FR_psd_Asset_8_V7_2_Tirez_parti_de__toutes_les__analyses__de_donn_es__possibles__de_0_Layer0_0_MEMBER_56_FILL">
<path fill="#D82C26" stroke="none" d="
M 19.15 45.65
L 19.6 46 19.8 45.6 19.55 45.4 19.45 45 19.45 40 19 40.05 19 45.1
Q 19 45.45 19.15 45.65 Z"/>
</g>

<g id="BDM_160x600_FR_psd_Asset_8_V7_2_Tirez_parti_de__toutes_les__analyses__de_donn_es__possibles__de_0_Layer0_0_MEMBER_57_FILL">
<path fill="#D82C26" stroke="none" d="
M 21.85 42.5
Q 22.35 42.5 22.6 42.75 22.9 43.05 22.9 43.5
L 22.9 43.7 22.45 43.7
Q 20.35 43.7 20.35 44.9 20.35 45.5 20.7 45.7 21.1 46 21.5 46 22 46 22.35 45.8 22.65 45.6 22.9 45.2
L 22.9 45.55 22.95 45.9 23.35 45.9 23.3 43.55
Q 23.3 42.85 22.95 42.5 22.6 42.15 21.9 42.15
L 21.2 42.25 20.55 42.6 20.7 42.95 21.25 42.65
Q 21.55 42.5 21.85 42.5
M 22.9 44
L 22.9 44.4
Q 22.9 44.7 22.75 45 22.55 45.35 22.3 45.45 22.05 45.65 21.6 45.65 21.25 45.65 21.05 45.45 20.8 45.35 20.8 44.9 20.8 44 22.5 44
L 22.9 44 Z"/>
</g>

<g id="BDM_160x600_FR_psd_Asset_8_V7_2_Tirez_parti_de__toutes_les__analyses__de_donn_es__possibles__de_0_Layer0_0_MEMBER_58_FILL">
<path fill="#D82C26" stroke="none" d="
M 26.15 42.15
Q 25.75 42.15 25.35 42.4 25 42.6 24.85 43.05
L 24.8 43.05 24.8 42.25 24.35 42.25 24.4 45.9 24.85 45.9 24.85 44.05
Q 24.85 43.55 25 43.25 25.1 42.95 25.45 42.7 25.75 42.55 26.05 42.55 26.6 42.55 26.8 42.9 27.05 43.3 27.05 43.8
L 27.05 45.9 27.5 45.9 27.5 43.65
Q 27.5 43 27.15 42.6 26.85 42.15 26.15 42.15 Z"/>
</g>

<g id="BDM_160x600_FR_psd_Asset_8_V7_2_Tirez_parti_de__toutes_les__analyses__de_donn_es__possibles__de_0_Layer0_0_MEMBER_59_FILL">
<path fill="#D82C26" stroke="none" d="
M 30.15 42.15
Q 29.7 42.15 29.2 42.4 28.75 42.65 28.55 43.1 28.35 43.5 28.35 44.1 28.35 44.65 28.55 45.05 28.7 45.35 29.2 45.75 29.7 46 30.15 46 30.55 46 31.05 45.75 31.45 45.5 31.65 45.1
L 31.7 45.9 32.15 45.9 32.1 39.95 31.65 40 31.65 43.05
Q 31.45 42.65 31.05 42.4 30.55 42.15 30.15 42.15
M 29.45 42.75
Q 29.8 42.55 30.25 42.55 30.7 42.55 30.95 42.75 31.3 42.95 31.5 43.3 31.65 43.7 31.65 44.1
L 31.5 44.85
Q 31.3 45.2 30.95 45.4 30.7 45.6 30.25 45.6 29.8 45.6 29.45 45.4 29.15 45.15 28.95 44.85
L 28.8 44.1
Q 28.8 43.7 28.95 43.3 29.15 43 29.45 42.75 Z"/>
</g>

<g id="BDM_160x600_FR_psd_Asset_8_V7_2_Tirez_parti_de__toutes_les__analyses__de_donn_es__possibles__de_0_Layer0_0_MEMBER_60_FILL">
<path fill="#D82C26" stroke="none" d="
M 34.45 42.5
Q 34.85 42.5 35.2 42.75 35.5 43.05 35.5 43.5
L 35.5 43.7 35.05 43.7
Q 32.95 43.7 32.95 44.9 32.95 45.5 33.3 45.7 33.6 46 34.1 46 34.6 46 34.95 45.8 35.3 45.6 35.45 45.2
L 35.5 45.2 35.5 45.55 35.55 45.9 35.95 45.9 35.9 43.55
Q 35.9 42.85 35.55 42.5 35.2 42.15 34.5 42.15
L 33.75 42.25 33.15 42.6 33.3 42.95 33.85 42.65
Q 34.15 42.5 34.45 42.5
M 33.65 45.45
Q 33.4 45.35 33.4 44.9 33.4 44 35.1 44
L 35.5 44 35.5 44.4
Q 35.5 44.7 35.35 45 35.15 45.35 34.9 45.45 34.65 45.65 34.2 45.65 33.85 45.65 33.65 45.45 Z"/>
</g>

<g id="BDM_160x600_FR_psd_Asset_8_V7_2_Tirez_parti_de__toutes_les__analyses__de_donn_es__possibles__de_0_Layer0_0_MEMBER_61_FILL">
<path fill="#D82C26" stroke="none" d="
M 40.5 45.85
L 40.5 42.25 40.1 42.25 40.05 43.05
Q 39.85 42.6 39.4 42.4 39 42.15 38.55 42.15 38.1 42.15 37.6 42.4 37.1 42.8 36.95 43.1 36.75 43.5 36.75 44.05 36.75 44.65 36.95 45.05 37.2 45.45 37.6 45.7 38 45.95 38.55 45.95 39.05 45.95 39.4 45.75 39.85 45.45 40.05 45.1
L 40.05 45.85
Q 40.05 46.5 39.7 47 39.35 47.4 38.55 47.4
L 37.75 47.3 37.05 46.95 36.95 47.35
Q 37.2 47.55 37.7 47.7
L 38.55 47.8
Q 39.55 47.8 40.05 47.25 40.5 46.75 40.5 45.85
M 37.35 43.3
Q 37.55 43 37.85 42.75 38.2 42.55 38.6 42.55 39.1 42.55 39.35 42.75 39.7 42.9 39.85 43.3 40.05 43.65 40.05 44.05 40.05 44.5 39.85 44.85 39.65 45.2 39.35 45.4 38.95 45.6 38.6 45.6 38.35 45.6 37.85 45.4
L 37.35 44.85
Q 37.2 44.5 37.2 44.05
L 37.35 43.3 Z"/>
</g>

<g id="BDM_160x600_FR_psd_Asset_8_V7_2_Tirez_parti_de__toutes_les__analyses__de_donn_es__possibles__de_0_Layer0_0_MEMBER_62_FILL">
<path fill="#D82C26" stroke="none" d="
M 42.25 42.4
Q 41.9 42.6 41.6 43.05 41.35 43.55 41.35 44.05 41.35 44.55 41.6 45.05 41.85 45.55 42.25 45.75 42.75 46 43.2 46 44.05 46 44.65 45.55
L 44.6 45.15
Q 44.4 45.35 44 45.5
L 43.25 45.65
Q 43 45.65 42.5 45.45 42.15 45.2 42 44.9 41.8 44.55 41.8 44.15
L 44.9 44.15 44.9 43.95
Q 44.9 43.55 44.7 43.05 44.5 42.65 44.1 42.4 43.8 42.15 43.15 42.15 42.55 42.15 42.25 42.4
M 43.15 42.5
Q 43.75 42.5 44.1 42.85 44.45 43.3 44.45 43.8
L 41.8 43.8
Q 41.8 43.45 42 43.2 42.15 42.95 42.45 42.7 42.7 42.5 43.15 42.5 Z"/>
</g>

<g id="BDM_160x600_FR_psd_Asset_8_V7_2_Tirez_parti_de__toutes_les__analyses__de_donn_es__possibles__de_0_Layer0_0_MEMBER_63_FILL">
<path fill="#D82C26" stroke="none" d="
M 3.75 52.2
Q 3.6 51.75 3.15 51.55 2.75 51.3 2.25 51.3 1.8 51.3 1.3 51.55 0.9 51.85 0.65 52.25 0.45 52.65 0.45 53.25 0.45 53.9 0.7 54.25 0.9 54.65 1.35 54.95 1.75 55.2 2.3 55.2 3.2 55.2 3.75 54.7
L 3.65 54.35
Q 3.25 54.6 3.1 54.65
L 2.35 54.8
Q 1.85 54.8 1.6 54.6 1.25 54.4 1.05 54.05 0.9 53.75 0.9 53.3
L 3.95 53.3 3.95 53.1
Q 3.95 52.6 3.75 52.2
M 1.5 51.9
Q 1.75 51.7 2.25 51.7 2.85 51.7 3.15 52.05 3.45 52.3 3.55 53
L 0.9 53
Q 0.9 52.7 1.05 52.4 1.25 52.05 1.5 51.9 Z"/>
</g>

<g id="BDM_160x600_FR_psd_Asset_8_V7_2_Tirez_parti_de__toutes_les__analyses__de_donn_es__possibles__de_0_Layer0_0_MEMBER_64_FILL">
<path fill="#D82C26" stroke="none" d="
M 5.25 52.2
L 5.2 51.45 4.8 51.45 4.85 55.05 5.3 55.05 5.3 53.2
Q 5.3 52.8 5.45 52.4 5.65 52.05 5.9 51.9 6.1 51.7 6.5 51.7 7 51.7 7.25 52.05 7.5 52.45 7.5 52.95
L 7.5 55.05 7.95 55.05 7.95 52.85
Q 7.95 52.15 7.6 51.75 7.35 51.35 6.6 51.35 6.15 51.35 5.8 51.55 5.45 51.85 5.3 52.2
L 5.25 52.2 Z"/>
</g>

<g id="BDM_160x600_FR_psd_Asset_8_V7_2_Tirez_parti_de__toutes_les__analyses__de_donn_es__possibles__de_0_Layer0_0_MEMBER_65_FILL">
<path fill="#D82C26" stroke="none" d="
M 16 52.9
Q 16 52.2 15.7 51.75 15.4 51.35 14.7 51.35 14.15 51.35 13.9 51.55 13.55 51.85 13.4 52.25 13.3 51.9 12.95 51.55 12.7 51.35 12.2 51.35 11.7 51.35 11.45 51.55 11.1 51.85 10.95 52.2
L 10.9 52.2 10.9 51.45 10.45 51.45 10.5 55.05 10.95 55.05 10.95 53.25
Q 10.95 52.75 11.1 52.45 11.25 52.05 11.5 51.9 11.75 51.7 12.1 51.7 12.55 51.7 12.75 52 13 52.4 13 52.9
L 13 55.05 13.45 55.05 13.45 53.2
Q 13.45 52.55 13.75 52.1 14.15 51.7 14.6 51.7 15.1 51.7 15.35 52.1 15.55 52.35 15.55 53
L 15.55 55.05 16 55.05 16 52.9 Z"/>
</g>

<g id="BDM_160x600_FR_psd_Asset_8_V7_2_Tirez_parti_de__toutes_les__analyses__de_donn_es__possibles__de_0_Layer0_0_MEMBER_66_FILL">
<path fill="#D82C26" stroke="none" d="
M 18.3 51.7
Q 18.85 51.7 19.05 51.95 19.35 52.2 19.35 52.7
L 19.35 52.9 18.9 52.9
Q 16.8 52.9 16.8 54.1 16.8 54.55 17.15 54.9 17.45 55.15 18 55.15 18.45 55.15 18.8 54.95 19.2 54.8 19.35 54.35
L 19.4 54.75 19.4 55.05 19.85 55.05 19.75 54.3 19.75 52.7
Q 19.75 52 19.4 51.65 18.95 51.3 18.35 51.3 17.95 51.3 17.65 51.45 17.4 51.5 17 51.8
L 17.15 52.15 17.7 51.8 18.3 51.7
M 17.5 54.65
Q 17.25 54.5 17.25 54.1 17.25 53.2 18.95 53.2
L 19.35 53.2 19.35 53.55
Q 19.35 53.85 19.2 54.15 19.05 54.4 18.75 54.65 18.45 54.85 18.05 54.85 17.8 54.85 17.5 54.65 Z"/>
</g>

<g id="BDM_160x600_FR_psd_Asset_8_V7_2_Tirez_parti_de__toutes_les__analyses__de_donn_es__possibles__de_0_Layer0_0_MEMBER_67_FILL">
<path fill="#D82C26" stroke="none" d="
M 23.9 52.25
Q 23.65 51.75 23.3 51.55 22.9 51.35 22.4 51.35 21.85 51.35 21.45 51.6 21.15 51.8 20.8 52.3 20.6 52.65 20.6 53.25 20.6 53.85 20.8 54.2 21.15 54.7 21.45 54.9 21.95 55.15 22.4 55.15 22.8 55.15 23.3 54.9 23.7 54.65 23.9 54.25
L 23.9 55.05
Q 23.9 55.8 23.55 56.2 23.15 56.6 22.4 56.6 22.05 56.6 21.6 56.45
L 20.9 56.1 20.85 56.55
Q 21.15 56.75 21.55 56.85 22 57 22.45 57 23.45 57 23.9 56.45 24.35 55.95 24.35 55
L 24.4 51.45 23.95 51.45 23.9 52.25
M 23.2 51.9
Q 23.45 52.05 23.75 52.45 23.95 52.95 23.95 53.25 23.95 53.6 23.75 54 23.5 54.45 23.2 54.55 22.95 54.75 22.5 54.75 22 54.75 21.75 54.55 21.4 54.35 21.25 54 21.05 53.65 21.05 53.25 21.05 52.75 21.25 52.5 21.4 52.1 21.75 51.9 22.15 51.7 22.5 51.7 22.8 51.7 23.2 51.9 Z"/>
</g>

<g id="BDM_160x600_FR_psd_Asset_8_V7_2_Tirez_parti_de__toutes_les__analyses__de_donn_es__possibles__de_0_Layer0_0_MEMBER_68_FILL">
<path fill="#D82C26" stroke="none" d="
M 26.7 51.7
Q 27.2 51.7 27.45 51.95 27.7 52.15 27.7 52.7
L 27.7 52.9 27.3 52.9
Q 25.2 52.9 25.2 54.1 25.2 54.6 25.55 54.9 25.8 55.15 26.35 55.15 26.8 55.15 27.2 54.95 27.55 54.8 27.7 54.35
L 27.75 54.35 27.75 54.75 27.8 55.05 28.2 55.05 28.15 52.7
Q 28.15 52 27.8 51.65 27.35 51.3 26.75 51.3
L 26 51.45
Q 25.65 51.55 25.4 51.8
L 25.55 52.15 26.05 51.8 26.7 51.7
M 27.7 53.2
L 27.7 53.55
Q 27.7 53.95 27.6 54.15 27.45 54.4 27.15 54.65 26.75 54.85 26.45 54.85 26.25 54.85 25.85 54.65 25.65 54.5 25.65 54.1 25.65 53.2 27.35 53.2
L 27.7 53.2 Z"/>
</g>

<g id="BDM_160x600_FR_psd_Asset_8_V7_2_Tirez_parti_de__toutes_les__analyses__de_donn_es__possibles__de_0_Layer0_0_MEMBER_69_FILL">
<path fill="#D82C26" stroke="none" d="
M 31.05 54.15
Q 31.05 54.4 30.8 54.65 30.6 54.8 30.2 54.8 29.55 54.8 29 54.35
L 28.9 54.75
Q 29.15 55 29.5 55.05 29.7 55.15 30.25 55.15 30.65 55.15 30.85 55.05
L 31.3 54.7
Q 31.45 54.5 31.45 54.1 31.45 53.8 31.2 53.45 30.85 53.15 30.35 53.05 29.85 52.9 29.65 52.7 29.4 52.55 29.4 52.3 29.4 52 29.65 51.85 29.9 51.7 30.2 51.7 30.55 51.7 30.75 51.8
L 31.15 52.05 31.35 51.7 30.85 51.45
Q 30.55 51.3 30.2 51.3 29.9 51.3 29.6 51.45 29.35 51.55 29.15 51.8 29 52.05 29 52.3 29 52.7 29.25 52.95 29.5 53.2 30.05 53.35 30.45 53.45 30.8 53.7 31.05 53.85 31.05 54.15 Z"/>
</g>

<g id="BDM_160x600_FR_psd_Asset_8_V7_2_Tirez_parti_de__toutes_les__analyses__de_donn_es__possibles__de_0_Layer0_0_MEMBER_70_FILL">
<path fill="#D82C26" stroke="none" d="
M 32.7 51.45
L 32.25 51.45 32.25 55.05 32.7 55.05 32.7 51.45
M 32.5 50.3
Q 32.65 50.3 32.7 50.2
L 32.8 50 32.7 49.75 32.5 49.65 32.25 49.75 32.15 50 32.25 50.2
Q 32.3 50.3 32.5 50.3 Z"/>
</g>

<g id="BDM_160x600_FR_psd_Asset_8_V7_2_Tirez_parti_de__toutes_les__analyses__de_donn_es__possibles__de_0_Layer0_0_MEMBER_71_FILL">
<path fill="#D82C26" stroke="none" d="
M 36.6 51.75
Q 36.35 51.35 35.6 51.35 35.15 51.35 34.8 51.55 34.45 51.85 34.3 52.2
L 34.25 52.2 34.2 51.45 33.8 51.45 33.85 55.05 34.3 55.05 34.3 53.2
Q 34.3 52.8 34.45 52.4 34.65 52.05 34.9 51.9 35.1 51.7 35.5 51.7 36 51.7 36.25 52.05 36.5 52.45 36.5 52.95
L 36.5 55.05 36.95 55.05 36.95 52.85
Q 36.95 52.15 36.6 51.75 Z"/>
</g>
</defs>

<g transform="matrix( 1, 0, 0, 1, -259,52) ">
<g transform="matrix( 1, 0, 0, 1, 253,0) ">
<g transform="matrix( 1, 0, 0, 1, 25,4) ">
<g transform="matrix( 2.815704345703125, 0, 0, 2.832611083984375, 0.15,17.6) ">
<use xlink:href="#BDM_160x600_FR_psd_Asset_8_V7_2_Tirez_parti_de__toutes_les__analyses__de_donn_es__possibles__de_0_Layer0_0_MEMBER_0_FILL"/>
</g>

<g transform="matrix( 2.815704345703125, 0, 0, 2.832611083984375, 0.15,17.6) ">
<use xlink:href="#BDM_160x600_FR_psd_Asset_8_V7_2_Tirez_parti_de__toutes_les__analyses__de_donn_es__possibles__de_0_Layer0_0_MEMBER_1_FILL"/>
</g>

<g transform="matrix( 2.815704345703125, 0, 0, 2.832611083984375, 0.15,17.6) ">
<use xlink:href="#BDM_160x600_FR_psd_Asset_8_V7_2_Tirez_parti_de__toutes_les__analyses__de_donn_es__possibles__de_0_Layer0_0_MEMBER_2_FILL"/>
</g>

<g transform="matrix( 2.815704345703125, 0, 0, 2.832611083984375, 0.15,17.6) ">
<use xlink:href="#BDM_160x600_FR_psd_Asset_8_V7_2_Tirez_parti_de__toutes_les__analyses__de_donn_es__possibles__de_0_Layer0_0_MEMBER_3_FILL"/>
</g>

<g transform="matrix( 2.815704345703125, 0, 0, 2.832611083984375, 0.15,17.6) ">
<use xlink:href="#BDM_160x600_FR_psd_Asset_8_V7_2_Tirez_parti_de__toutes_les__analyses__de_donn_es__possibles__de_0_Layer0_0_MEMBER_4_FILL"/>
</g>

<g transform="matrix( 2.815704345703125, 0, 0, 2.832611083984375, 0.15,17.6) ">
<use xlink:href="#BDM_160x600_FR_psd_Asset_8_V7_2_Tirez_parti_de__toutes_les__analyses__de_donn_es__possibles__de_0_Layer0_0_MEMBER_5_FILL"/>
</g>

<g transform="matrix( 2.815704345703125, 0, 0, 2.832611083984375, 0.15,17.6) ">
<use xlink:href="#BDM_160x600_FR_psd_Asset_8_V7_2_Tirez_parti_de__toutes_les__analyses__de_donn_es__possibles__de_0_Layer0_0_MEMBER_6_FILL"/>
</g>

<g transform="matrix( 2.815704345703125, 0, 0, 2.832611083984375, 0.15,17.6) ">
<use xlink:href="#BDM_160x600_FR_psd_Asset_8_V7_2_Tirez_parti_de__toutes_les__analyses__de_donn_es__possibles__de_0_Layer0_0_MEMBER_7_FILL"/>
</g>

<g transform="matrix( 2.815704345703125, 0, 0, 2.832611083984375, 0.15,17.6) ">
<use xlink:href="#BDM_160x600_FR_psd_Asset_8_V7_2_Tirez_parti_de__toutes_les__analyses__de_donn_es__possibles__de_0_Layer0_0_MEMBER_8_FILL"/>
</g>

<g transform="matrix( 2.815704345703125, 0, 0, 2.832611083984375, 0.15,17.6) ">
<use xlink:href="#BDM_160x600_FR_psd_Asset_8_V7_2_Tirez_parti_de__toutes_les__analyses__de_donn_es__possibles__de_0_Layer0_0_MEMBER_9_FILL"/>
</g>

<g transform="matrix( 2.815704345703125, 0, 0, 2.832611083984375, 0.15,17.6) ">
<use xlink:href="#BDM_160x600_FR_psd_Asset_8_V7_2_Tirez_parti_de__toutes_les__analyses__de_donn_es__possibles__de_0_Layer0_0_MEMBER_10_FILL"/>
</g>

<g transform="matrix( 2.815704345703125, 0, 0, 2.832611083984375, 0.15,17.6) ">
<use xlink:href="#BDM_160x600_FR_psd_Asset_8_V7_2_Tirez_parti_de__toutes_les__analyses__de_donn_es__possibles__de_0_Layer0_0_MEMBER_11_FILL"/>
</g>

<g transform="matrix( 2.815704345703125, 0, 0, 2.832611083984375, 0.15,17.6) ">
<use xlink:href="#BDM_160x600_FR_psd_Asset_8_V7_2_Tirez_parti_de__toutes_les__analyses__de_donn_es__possibles__de_0_Layer0_0_MEMBER_12_FILL"/>
</g>

<g transform="matrix( 2.815704345703125, 0, 0, 2.832611083984375, 0.15,17.6) ">
<use xlink:href="#BDM_160x600_FR_psd_Asset_8_V7_2_Tirez_parti_de__toutes_les__analyses__de_donn_es__possibles__de_0_Layer0_0_MEMBER_13_FILL"/>
</g>

<g transform="matrix( 2.815704345703125, 0, 0, 2.832611083984375, 0.15,17.6) ">
<use xlink:href="#BDM_160x600_FR_psd_Asset_8_V7_2_Tirez_parti_de__toutes_les__analyses__de_donn_es__possibles__de_0_Layer0_0_MEMBER_14_FILL"/>
</g>

<g transform="matrix( 2.815704345703125, 0, 0, 2.832611083984375, 0.15,17.6) ">
<use xlink:href="#BDM_160x600_FR_psd_Asset_8_V7_2_Tirez_parti_de__toutes_les__analyses__de_donn_es__possibles__de_0_Layer0_0_MEMBER_15_FILL"/>
</g>

<g transform="matrix( 2.815704345703125, 0, 0, 2.832611083984375, 0.15,17.6) ">
<use xlink:href="#BDM_160x600_FR_psd_Asset_8_V7_2_Tirez_parti_de__toutes_les__analyses__de_donn_es__possibles__de_0_Layer0_0_MEMBER_16_FILL"/>
</g>

<g transform="matrix( 2.815704345703125, 0, 0, 2.832611083984375, 0.15,17.6) ">
<use xlink:href="#BDM_160x600_FR_psd_Asset_8_V7_2_Tirez_parti_de__toutes_les__analyses__de_donn_es__possibles__de_0_Layer0_0_MEMBER_17_FILL"/>
</g>

<g transform="matrix( 2.815704345703125, 0, 0, 2.832611083984375, 0.15,17.6) ">
<use xlink:href="#BDM_160x600_FR_psd_Asset_8_V7_2_Tirez_parti_de__toutes_les__analyses__de_donn_es__possibles__de_0_Layer0_0_MEMBER_18_FILL"/>
</g>

<g transform="matrix( 2.815704345703125, 0, 0, 2.832611083984375, 0.15,17.6) ">
<use xlink:href="#BDM_160x600_FR_psd_Asset_8_V7_2_Tirez_parti_de__toutes_les__analyses__de_donn_es__possibles__de_0_Layer0_0_MEMBER_19_FILL"/>
</g>

<g transform="matrix( 2.815704345703125, 0, 0, 2.832611083984375, 0.15,17.6) ">
<use xlink:href="#BDM_160x600_FR_psd_Asset_8_V7_2_Tirez_parti_de__toutes_les__analyses__de_donn_es__possibles__de_0_Layer0_0_MEMBER_20_FILL"/>
</g>

<g transform="matrix( 2.815704345703125, 0, 0, 2.832611083984375, 0.15,17.6) ">
<use xlink:href="#BDM_160x600_FR_psd_Asset_8_V7_2_Tirez_parti_de__toutes_les__analyses__de_donn_es__possibles__de_0_Layer0_0_MEMBER_21_FILL"/>
</g>

<g transform="matrix( 2.815704345703125, 0, 0, 2.832611083984375, 0.15,17.6) ">
<use xlink:href="#BDM_160x600_FR_psd_Asset_8_V7_2_Tirez_parti_de__toutes_les__analyses__de_donn_es__possibles__de_0_Layer0_0_MEMBER_22_FILL"/>
</g>

<g transform="matrix( 2.815704345703125, 0, 0, 2.832611083984375, 0.15,17.6) ">
<use xlink:href="#BDM_160x600_FR_psd_Asset_8_V7_2_Tirez_parti_de__toutes_les__analyses__de_donn_es__possibles__de_0_Layer0_0_MEMBER_23_FILL"/>
</g>

<g transform="matrix( 2.815704345703125, 0, 0, 2.832611083984375, 0.15,17.6) ">
<use xlink:href="#BDM_160x600_FR_psd_Asset_8_V7_2_Tirez_parti_de__toutes_les__analyses__de_donn_es__possibles__de_0_Layer0_0_MEMBER_24_FILL"/>
</g>

<g transform="matrix( 2.815704345703125, 0, 0, 2.832611083984375, 0.15,17.6) ">
<use xlink:href="#BDM_160x600_FR_psd_Asset_8_V7_2_Tirez_parti_de__toutes_les__analyses__de_donn_es__possibles__de_0_Layer0_0_MEMBER_25_FILL"/>
</g>

<g transform="matrix( 2.815704345703125, 0, 0, 2.832611083984375, 0.15,17.6) ">
<use xlink:href="#BDM_160x600_FR_psd_Asset_8_V7_2_Tirez_parti_de__toutes_les__analyses__de_donn_es__possibles__de_0_Layer0_0_MEMBER_26_FILL"/>
</g>

<g transform="matrix( 2.815704345703125, 0, 0, 2.832611083984375, 0.15,17.6) ">
<use xlink:href="#BDM_160x600_FR_psd_Asset_8_V7_2_Tirez_parti_de__toutes_les__analyses__de_donn_es__possibles__de_0_Layer0_0_MEMBER_27_FILL"/>
</g>

<g transform="matrix( 2.815704345703125, 0, 0, 2.832611083984375, 0.15,17.6) ">
<use xlink:href="#BDM_160x600_FR_psd_Asset_8_V7_2_Tirez_parti_de__toutes_les__analyses__de_donn_es__possibles__de_0_Layer0_0_MEMBER_28_FILL"/>
</g>

<g transform="matrix( 2.815704345703125, 0, 0, 2.832611083984375, 0.15,17.6) ">
<use xlink:href="#BDM_160x600_FR_psd_Asset_8_V7_2_Tirez_parti_de__toutes_les__analyses__de_donn_es__possibles__de_0_Layer0_0_MEMBER_29_FILL"/>
</g>

<g transform="matrix( 2.815704345703125, 0, 0, 2.832611083984375, 0.15,17.6) ">
<use xlink:href="#BDM_160x600_FR_psd_Asset_8_V7_2_Tirez_parti_de__toutes_les__analyses__de_donn_es__possibles__de_0_Layer0_0_MEMBER_30_FILL"/>
</g>

<g transform="matrix( 2.815704345703125, 0, 0, 2.832611083984375, 0.15,17.6) ">
<use xlink:href="#BDM_160x600_FR_psd_Asset_8_V7_2_Tirez_parti_de__toutes_les__analyses__de_donn_es__possibles__de_0_Layer0_0_MEMBER_31_FILL"/>
</g>

<g transform="matrix( 2.815704345703125, 0, 0, 2.832611083984375, 0.15,17.6) ">
<use xlink:href="#BDM_160x600_FR_psd_Asset_8_V7_2_Tirez_parti_de__toutes_les__analyses__de_donn_es__possibles__de_0_Layer0_0_MEMBER_32_FILL"/>
</g>

<g transform="matrix( 2.815704345703125, 0, 0, 2.832611083984375, 0.15,17.6) ">
<use xlink:href="#BDM_160x600_FR_psd_Asset_8_V7_2_Tirez_parti_de__toutes_les__analyses__de_donn_es__possibles__de_0_Layer0_0_MEMBER_33_FILL"/>
</g>

<g transform="matrix( 2.815704345703125, 0, 0, 2.832611083984375, 0.15,17.6) ">
<use xlink:href="#BDM_160x600_FR_psd_Asset_8_V7_2_Tirez_parti_de__toutes_les__analyses__de_donn_es__possibles__de_0_Layer0_0_MEMBER_34_FILL"/>
</g>

<g transform="matrix( 2.815704345703125, 0, 0, 2.832611083984375, 0.15,17.6) ">
<use xlink:href="#BDM_160x600_FR_psd_Asset_8_V7_2_Tirez_parti_de__toutes_les__analyses__de_donn_es__possibles__de_0_Layer0_0_MEMBER_35_FILL"/>
</g>

<g transform="matrix( 2.815704345703125, 0, 0, 2.832611083984375, 0.15,17.6) ">
<use xlink:href="#BDM_160x600_FR_psd_Asset_8_V7_2_Tirez_parti_de__toutes_les__analyses__de_donn_es__possibles__de_0_Layer0_0_MEMBER_36_FILL"/>
</g>

<g transform="matrix( 2.815704345703125, 0, 0, 2.832611083984375, 0.15,17.6) ">
<use xlink:href="#BDM_160x600_FR_psd_Asset_8_V7_2_Tirez_parti_de__toutes_les__analyses__de_donn_es__possibles__de_0_Layer0_0_MEMBER_37_FILL"/>
</g>

<g transform="matrix( 2.815704345703125, 0, 0, 2.832611083984375, 0.15,17.6) ">
<use xlink:href="#BDM_160x600_FR_psd_Asset_8_V7_2_Tirez_parti_de__toutes_les__analyses__de_donn_es__possibles__de_0_Layer0_0_MEMBER_38_FILL"/>
</g>

<g transform="matrix( 2.815704345703125, 0, 0, 2.832611083984375, 0.15,17.6) ">
<use xlink:href="#BDM_160x600_FR_psd_Asset_8_V7_2_Tirez_parti_de__toutes_les__analyses__de_donn_es__possibles__de_0_Layer0_0_MEMBER_39_FILL"/>
</g>

<g transform="matrix( 2.815704345703125, 0, 0, 2.832611083984375, 0.15,17.6) ">
<use xlink:href="#BDM_160x600_FR_psd_Asset_8_V7_2_Tirez_parti_de__toutes_les__analyses__de_donn_es__possibles__de_0_Layer0_0_MEMBER_40_FILL"/>
</g>

<g transform="matrix( 2.815704345703125, 0, 0, 2.832611083984375, 0.15,17.6) ">
<use xlink:href="#BDM_160x600_FR_psd_Asset_8_V7_2_Tirez_parti_de__toutes_les__analyses__de_donn_es__possibles__de_0_Layer0_0_MEMBER_41_FILL"/>
</g>

<g transform="matrix( 2.815704345703125, 0, 0, 2.832611083984375, 0.15,17.6) ">
<use xlink:href="#BDM_160x600_FR_psd_Asset_8_V7_2_Tirez_parti_de__toutes_les__analyses__de_donn_es__possibles__de_0_Layer0_0_MEMBER_42_FILL"/>
</g>

<g transform="matrix( 2.815704345703125, 0, 0, 2.832611083984375, 0.15,17.6) ">
<use xlink:href="#BDM_160x600_FR_psd_Asset_8_V7_2_Tirez_parti_de__toutes_les__analyses__de_donn_es__possibles__de_0_Layer0_0_MEMBER_43_FILL"/>
</g>

<g transform="matrix( 2.815704345703125, 0, 0, 2.832611083984375, 0.15,17.6) ">
<use xlink:href="#BDM_160x600_FR_psd_Asset_8_V7_2_Tirez_parti_de__toutes_les__analyses__de_donn_es__possibles__de_0_Layer0_0_MEMBER_44_FILL"/>
</g>

<g transform="matrix( 2.815704345703125, 0, 0, 2.832611083984375, 0.15,17.6) ">
<use xlink:href="#BDM_160x600_FR_psd_Asset_8_V7_2_Tirez_parti_de__toutes_les__analyses__de_donn_es__possibles__de_0_Layer0_0_MEMBER_45_FILL"/>
</g>

<g transform="matrix( 2.815704345703125, 0, 0, 2.832611083984375, 0.15,17.6) ">
<use xlink:href="#BDM_160x600_FR_psd_Asset_8_V7_2_Tirez_parti_de__toutes_les__analyses__de_donn_es__possibles__de_0_Layer0_0_MEMBER_46_FILL"/>
</g>

<g transform="matrix( 2.815704345703125, 0, 0, 2.832611083984375, 0.15,17.6) ">
<use xlink:href="#BDM_160x600_FR_psd_Asset_8_V7_2_Tirez_parti_de__toutes_les__analyses__de_donn_es__possibles__de_0_Layer0_0_MEMBER_47_FILL"/>
</g>

<g transform="matrix( 2.815704345703125, 0, 0, 2.832611083984375, 0.15,17.6) ">
<use xlink:href="#BDM_160x600_FR_psd_Asset_8_V7_2_Tirez_parti_de__toutes_les__analyses__de_donn_es__possibles__de_0_Layer0_0_MEMBER_48_FILL"/>
</g>

<g transform="matrix( 2.815704345703125, 0, 0, 2.832611083984375, 0.15,17.6) ">
<use xlink:href="#BDM_160x600_FR_psd_Asset_8_V7_2_Tirez_parti_de__toutes_les__analyses__de_donn_es__possibles__de_0_Layer0_0_MEMBER_49_FILL"/>
</g>

<g transform="matrix( 2.815704345703125, 0, 0, 2.832611083984375, 0.15,17.6) ">
<use xlink:href="#BDM_160x600_FR_psd_Asset_8_V7_2_Tirez_parti_de__toutes_les__analyses__de_donn_es__possibles__de_0_Layer0_0_MEMBER_50_FILL"/>
</g>

<g transform="matrix( 2.815704345703125, 0, 0, 2.832611083984375, 0.15,17.6) ">
<use xlink:href="#BDM_160x600_FR_psd_Asset_8_V7_2_Tirez_parti_de__toutes_les__analyses__de_donn_es__possibles__de_0_Layer0_0_MEMBER_51_FILL"/>
</g>

<g transform="matrix( 2.815704345703125, 0, 0, 2.832611083984375, 0.15,17.6) ">
<use xlink:href="#BDM_160x600_FR_psd_Asset_8_V7_2_Tirez_parti_de__toutes_les__analyses__de_donn_es__possibles__de_0_Layer0_0_MEMBER_52_FILL"/>
</g>

<g transform="matrix( 2.815704345703125, 0, 0, 2.832611083984375, 0.15,17.6) ">
<use xlink:href="#BDM_160x600_FR_psd_Asset_8_V7_2_Tirez_parti_de__toutes_les__analyses__de_donn_es__possibles__de_0_Layer0_0_MEMBER_53_FILL"/>
</g>

<g transform="matrix( 2.815704345703125, 0, 0, 2.832611083984375, 0.15,17.6) ">
<use xlink:href="#BDM_160x600_FR_psd_Asset_8_V7_2_Tirez_parti_de__toutes_les__analyses__de_donn_es__possibles__de_0_Layer0_0_MEMBER_54_FILL"/>
</g>

<g transform="matrix( 2.815704345703125, 0, 0, 2.832611083984375, 0.15,17.6) ">
<use xlink:href="#BDM_160x600_FR_psd_Asset_8_V7_2_Tirez_parti_de__toutes_les__analyses__de_donn_es__possibles__de_0_Layer0_0_MEMBER_55_FILL"/>
</g>

<g transform="matrix( 2.815704345703125, 0, 0, 2.832611083984375, 0.15,17.6) ">
<use xlink:href="#BDM_160x600_FR_psd_Asset_8_V7_2_Tirez_parti_de__toutes_les__analyses__de_donn_es__possibles__de_0_Layer0_0_MEMBER_56_FILL"/>
</g>

<g transform="matrix( 2.815704345703125, 0, 0, 2.832611083984375, 0.15,17.6) ">
<use xlink:href="#BDM_160x600_FR_psd_Asset_8_V7_2_Tirez_parti_de__toutes_les__analyses__de_donn_es__possibles__de_0_Layer0_0_MEMBER_57_FILL"/>
</g>

<g transform="matrix( 2.815704345703125, 0, 0, 2.832611083984375, 0.15,17.6) ">
<use xlink:href="#BDM_160x600_FR_psd_Asset_8_V7_2_Tirez_parti_de__toutes_les__analyses__de_donn_es__possibles__de_0_Layer0_0_MEMBER_58_FILL"/>
</g>

<g transform="matrix( 2.815704345703125, 0, 0, 2.832611083984375, 0.15,17.6) ">
<use xlink:href="#BDM_160x600_FR_psd_Asset_8_V7_2_Tirez_parti_de__toutes_les__analyses__de_donn_es__possibles__de_0_Layer0_0_MEMBER_59_FILL"/>
</g>

<g transform="matrix( 2.815704345703125, 0, 0, 2.832611083984375, 0.15,17.6) ">
<use xlink:href="#BDM_160x600_FR_psd_Asset_8_V7_2_Tirez_parti_de__toutes_les__analyses__de_donn_es__possibles__de_0_Layer0_0_MEMBER_60_FILL"/>
</g>

<g transform="matrix( 2.815704345703125, 0, 0, 2.832611083984375, 0.15,17.6) ">
<use xlink:href="#BDM_160x600_FR_psd_Asset_8_V7_2_Tirez_parti_de__toutes_les__analyses__de_donn_es__possibles__de_0_Layer0_0_MEMBER_61_FILL"/>
</g>

<g transform="matrix( 2.815704345703125, 0, 0, 2.832611083984375, 0.15,17.6) ">
<use xlink:href="#BDM_160x600_FR_psd_Asset_8_V7_2_Tirez_parti_de__toutes_les__analyses__de_donn_es__possibles__de_0_Layer0_0_MEMBER_62_FILL"/>
</g>

<g transform="matrix( 2.815704345703125, 0, 0, 2.832611083984375, 0.15,17.6) ">
<use xlink:href="#BDM_160x600_FR_psd_Asset_8_V7_2_Tirez_parti_de__toutes_les__analyses__de_donn_es__possibles__de_0_Layer0_0_MEMBER_63_FILL"/>
</g>

<g transform="matrix( 2.815704345703125, 0, 0, 2.832611083984375, 0.15,17.6) ">
<use xlink:href="#BDM_160x600_FR_psd_Asset_8_V7_2_Tirez_parti_de__toutes_les__analyses__de_donn_es__possibles__de_0_Layer0_0_MEMBER_64_FILL"/>
</g>

<g transform="matrix( 2.815704345703125, 0, 0, 2.832611083984375, 0.15,17.6) ">
<use xlink:href="#BDM_160x600_FR_psd_Asset_8_V7_2_Tirez_parti_de__toutes_les__analyses__de_donn_es__possibles__de_0_Layer0_0_MEMBER_65_FILL"/>
</g>

<g transform="matrix( 2.815704345703125, 0, 0, 2.832611083984375, 0.15,17.6) ">
<use xlink:href="#BDM_160x600_FR_psd_Asset_8_V7_2_Tirez_parti_de__toutes_les__analyses__de_donn_es__possibles__de_0_Layer0_0_MEMBER_66_FILL"/>
</g>

<g transform="matrix( 2.815704345703125, 0, 0, 2.832611083984375, 0.15,17.6) ">
<use xlink:href="#BDM_160x600_FR_psd_Asset_8_V7_2_Tirez_parti_de__toutes_les__analyses__de_donn_es__possibles__de_0_Layer0_0_MEMBER_67_FILL"/>
</g>

<g transform="matrix( 2.815704345703125, 0, 0, 2.832611083984375, 0.15,17.6) ">
<use xlink:href="#BDM_160x600_FR_psd_Asset_8_V7_2_Tirez_parti_de__toutes_les__analyses__de_donn_es__possibles__de_0_Layer0_0_MEMBER_68_FILL"/>
</g>

<g transform="matrix( 2.815704345703125, 0, 0, 2.832611083984375, 0.15,17.6) ">
<use xlink:href="#BDM_160x600_FR_psd_Asset_8_V7_2_Tirez_parti_de__toutes_les__analyses__de_donn_es__possibles__de_0_Layer0_0_MEMBER_69_FILL"/>
</g>

<g transform="matrix( 2.815704345703125, 0, 0, 2.832611083984375, 0.15,17.6) ">
<use xlink:href="#BDM_160x600_FR_psd_Asset_8_V7_2_Tirez_parti_de__toutes_les__analyses__de_donn_es__possibles__de_0_Layer0_0_MEMBER_70_FILL"/>
</g>

<g transform="matrix( 2.815704345703125, 0, 0, 2.832611083984375, 0.15,17.6) ">
<use xlink:href="#BDM_160x600_FR_psd_Asset_8_V7_2_Tirez_parti_de__toutes_les__analyses__de_donn_es__possibles__de_0_Layer0_0_MEMBER_71_FILL"/>
</g>
</g>
</g>
</g>
</svg>
