
<svg xmlns="http://www.w3.org/2000/svg" version="1.1" xmlns:xlink="http://www.w3.org/1999/xlink" preserveAspectRatio="none" x="0px" y="0px" width="160px" height="600px" viewBox="0 0 160 600">
<defs>
<g id="BDM_160x600_FR_psd_Asset_8_V7_4_Comprenez__mieux_les__besoins_de__vos_clients___0_Layer0_0_MEMBER_0_FILL">
<path fill="#D82C26" stroke="none" d="
M 5 -6.2
Q 4.45 -6.4 3.8 -6.4 2.75 -6.4 2.15 -6 1.4 -5.55 0.95 -4.8 0.55 -4 0.55 -3.1 0.55 -2.25 0.95 -1.45 1.45 -0.65 2.1 -0.25 2.75 0.15 3.8 0.15 4.55 0.15 5.05 -0.1 5.55 -0.3 6 -0.65
L 5.85 -1.15
Q 5.5 -0.75 4.95 -0.55 4.35 -0.3 3.8 -0.3 3.05 -0.3 2.4 -0.7 1.85 -1.05 1.45 -1.7 1.1 -2.5 1.1 -3.1 1.1 -3.75 1.45 -4.55 1.85 -5.2 2.4 -5.55 3.05 -5.95 3.8 -5.95 4.35 -5.95 4.95 -5.7 5.5 -5.45 5.8 -5.15
L 5.95 -5.65
Q 5.75 -5.95 5 -6.2 Z"/>
</g>

<g id="BDM_160x600_FR_psd_Asset_8_V7_4_Comprenez__mieux_les__besoins_de__vos_clients___0_Layer0_0_MEMBER_1_FILL">
<path fill="#D82C26" stroke="none" d="
M 9.75 -4
Q 9.15 -4.25 8.6 -4.25 8 -4.25 7.5 -4 7 -3.7 6.7 -3.2 6.4 -2.75 6.4 -2.05 6.4 -1.45 6.7 -0.95 7 -0.45 7.5 -0.15 7.9 0.1 8.6 0.1 9.3 0.1 9.75 -0.15 10.25 -0.45 10.55 -0.95 10.8 -1.4 10.8 -2.05 10.8 -2.8 10.55 -3.2 10.25 -3.7 9.75 -4
M 8.6 -3.8
Q 9.15 -3.8 9.5 -3.6 9.85 -3.4 10.1 -2.95 10.3 -2.6 10.3 -2.05 10.3 -1.55 10.1 -1.2 9.85 -0.75 9.5 -0.55 9.1 -0.3 8.6 -0.3 8.15 -0.3 7.75 -0.55 7.45 -0.7 7.15 -1.2 6.95 -1.55 6.95 -2.05 6.95 -2.6 7.15 -2.95 7.45 -3.45 7.75 -3.6 8.1 -3.8 8.6 -3.8 Z"/>
</g>

<g id="BDM_160x600_FR_psd_Asset_8_V7_4_Comprenez__mieux_les__besoins_de__vos_clients___0_Layer0_0_MEMBER_2_FILL">
<path fill="#D82C26" stroke="none" d="
M 13.5 -3.8
Q 14 -3.8 14.3 -3.45 14.55 -3.1 14.55 -2.45
L 14.55 0 15.05 0 15.05 -2.15
Q 15.05 -2.85 15.45 -3.35 15.75 -3.8 16.35 -3.8 17 -3.8 17.2 -3.4 17.45 -2.9 17.45 -2.35
L 17.45 0 17.95 0 17.95 -2.5
Q 17.95 -3.25 17.6 -3.75 17.25 -4.25 16.5 -4.25 15.95 -4.25 15.55 -4 15.15 -3.65 15 -3.2 14.8 -3.7 14.5 -4 14.1 -4.25 13.6 -4.25 13.15 -4.25 12.75 -4 12.35 -3.65 12.2 -3.25
L 12.15 -4.15 11.65 -4.15 11.7 0 12.2 0 12.2 -2.05
Q 12.2 -2.65 12.4 -3 12.6 -3.45 12.85 -3.6 13.1 -3.8 13.5 -3.8 Z"/>
</g>

<g id="BDM_160x600_FR_psd_Asset_8_V7_4_Comprenez__mieux_les__besoins_de__vos_clients___0_Layer0_0_MEMBER_3_FILL">
<path fill="#D82C26" stroke="none" d="
M 19.55 -4.15
L 19.05 -4.15 19.05 2.1 19.6 2.1 19.6 -0.9
Q 19.75 -0.5 20.3 -0.15 20.7 0.1 21.25 0.1 21.85 0.1 22.35 -0.15 22.75 -0.4 23.1 -0.95 23.35 -1.55 23.35 -2.05 23.35 -2.6 23.1 -3.2 22.75 -3.75 22.35 -3.95 21.9 -4.25 21.25 -4.25 20.8 -4.25 20.3 -4 19.8 -3.65 19.6 -3.25
L 19.55 -3.25 19.55 -4.15
M 19.55 -2.05
Q 19.55 -2.45 19.75 -2.95 19.95 -3.3 20.35 -3.6 20.7 -3.8 21.2 -3.8 21.7 -3.8 22.05 -3.6 22.5 -3.25 22.6 -2.95 22.8 -2.6 22.8 -2.05 22.8 -1.55 22.6 -1.2 22.45 -0.8 22.05 -0.55 21.65 -0.3 21.2 -0.3 20.75 -0.3 20.35 -0.55 20 -0.75 19.75 -1.2 19.55 -1.7 19.55 -2.05 Z"/>
</g>

<g id="BDM_160x600_FR_psd_Asset_8_V7_4_Comprenez__mieux_les__besoins_de__vos_clients___0_Layer0_0_MEMBER_4_FILL">
<path fill="#D82C26" stroke="none" d="
M 24.75 -2.05
Q 24.75 -2.75 25.05 -3.3 25.35 -3.8 25.9 -3.8
L 26.25 -3.75 26.35 -4.2 25.95 -4.25
Q 25.6 -4.25 25.2 -4 24.95 -3.75 24.7 -3.25
L 24.65 -4.15 24.15 -4.15 24.2 0 24.75 0 24.75 -2.05 Z"/>
</g>

<g id="BDM_160x600_FR_psd_Asset_8_V7_4_Comprenez__mieux_les__besoins_de__vos_clients___0_Layer0_0_MEMBER_5_FILL">
<path fill="#D82C26" stroke="none" d="
M 29.5 -4
Q 29 -4.25 28.45 -4.25 27.9 -4.25 27.4 -4 26.9 -3.65 26.7 -3.2 26.4 -2.75 26.4 -2.1 26.4 -1.45 26.7 -0.95 26.9 -0.45 27.45 -0.15 27.85 0.1 28.5 0.1 29.5 0.1 30.15 -0.4
L 30.1 -0.85
Q 29.7 -0.55 29.4 -0.45 29.05 -0.3 28.55 -0.3 28.1 -0.3 27.7 -0.55 27.3 -0.8 27.15 -1.15 26.9 -1.55 26.9 -2
L 30.4 -2 30.4 -2.2
Q 30.4 -2.85 30.2 -3.25 30 -3.65 29.5 -4
M 28.45 -3.85
Q 29.1 -3.85 29.5 -3.45 29.85 -3.15 29.95 -2.35
L 26.9 -2.35 27.1 -3.05
Q 27.4 -3.45 27.65 -3.6 27.9 -3.85 28.45 -3.85 Z"/>
</g>

<g id="BDM_160x600_FR_psd_Asset_8_V7_4_Comprenez__mieux_les__besoins_de__vos_clients___0_Layer0_0_MEMBER_6_FILL">
<path fill="#D82C26" stroke="none" d="
M 34.45 -3.75
Q 34.1 -4.25 33.3 -4.25 32.85 -4.25 32.35 -4 31.95 -3.65 31.8 -3.25
L 31.75 -3.25 31.7 -4.15 31.25 -4.15 31.25 0 31.8 0 31.8 -2.1
Q 31.8 -2.6 31.95 -3.05 32.2 -3.5 32.45 -3.6 32.8 -3.8 33.15 -3.8 33.8 -3.8 34.05 -3.4 34.3 -3 34.3 -2.4
L 34.3 0 34.8 0 34.8 -2.5
Q 34.8 -3.35 34.45 -3.75 Z"/>
</g>

<g id="BDM_160x600_FR_psd_Asset_8_V7_4_Comprenez__mieux_les__besoins_de__vos_clients___0_Layer0_0_MEMBER_7_FILL">
<path fill="#D82C26" stroke="none" d="
M 39.45 -3.25
Q 39.1 -3.75 38.75 -4 38.25 -4.25 37.7 -4.25 37.15 -4.25 36.65 -4 36.2 -3.7 35.9 -3.2 35.65 -2.7 35.65 -2.1 35.65 -1.55 35.9 -0.95 36.2 -0.45 36.65 -0.15 37.1 0.1 37.75 0.1 38.75 0.1 39.4 -0.4
L 39.3 -0.85 38.65 -0.45
Q 38.3 -0.3 37.8 -0.3 37.35 -0.3 36.95 -0.55 36.6 -0.75 36.35 -1.15 36.15 -1.5 36.15 -2
L 39.65 -2 39.65 -2.2
Q 39.65 -2.85 39.45 -3.25
M 36.9 -3.6
Q 37.15 -3.85 37.7 -3.85 38.35 -3.85 38.75 -3.45 39.15 -3.05 39.15 -2.35
L 36.15 -2.35
Q 36.15 -2.55 36.35 -3.05 36.5 -3.35 36.9 -3.6 Z"/>
</g>

<g id="BDM_160x600_FR_psd_Asset_8_V7_4_Comprenez__mieux_les__besoins_de__vos_clients___0_Layer0_0_MEMBER_8_FILL">
<path fill="#D82C26" stroke="none" d="
M 40.2 -4.15
L 40.1 -3.7 42.6 -3.7 40.05 -0.4 40.05 0 43.3 0 43.35 -0.4 40.65 -0.4 43.2 -3.7 43.2 -4.15 40.2 -4.15 Z"/>
</g>

<g id="BDM_160x600_FR_psd_Asset_8_V7_4_Comprenez__mieux_les__besoins_de__vos_clients___0_Layer0_0_MEMBER_9_FILL">
<path fill="#D82C26" stroke="none" d="
M 1.3 6.1
L 0.8 6.1 0.85 10.25 1.35 10.25 1.35 8.2
Q 1.35 7.65 1.5 7.25 1.7 6.8 2 6.6 2.4 6.4 2.65 6.4 3.15 6.4 3.4 6.75 3.7 7.15 3.7 7.8
L 3.7 10.25 4.2 10.25 4.2 8.1
Q 4.2 7.45 4.55 6.9 4.9 6.4 5.5 6.4 6.15 6.4 6.35 6.85 6.6 7.25 6.6 7.9
L 6.6 10.25 7.1 10.25 7.1 7.75
Q 7.1 6.9 6.75 6.5 6.4 6 5.6 6 5.1 6 4.7 6.25 4.3 6.55 4.1 7.05 3.95 6.55 3.65 6.25 3.25 6 2.75 6 2.3 6 1.9 6.25 1.5 6.6 1.35 7
L 1.3 7 1.3 6.1 Z"/>
</g>

<g id="BDM_160x600_FR_psd_Asset_8_V7_4_Comprenez__mieux_les__besoins_de__vos_clients___0_Layer0_0_MEMBER_10_FILL">
<path fill="#D82C26" stroke="none" d="
M 8.75 6.1
L 8.2 6.1 8.2 10.25 8.75 10.25 8.75 6.1
M 8.85 4.45
Q 8.85 4.3 8.7 4.2 8.65 4.1 8.45 4.1 8.25 4.1 8.2 4.2
L 8.1 4.45 8.2 4.7
Q 8.3 4.85 8.45 4.85 8.65 4.85 8.7 4.7 8.85 4.65 8.85 4.45 Z"/>
</g>

<g id="BDM_160x600_FR_psd_Asset_8_V7_4_Comprenez__mieux_les__besoins_de__vos_clients___0_Layer0_0_MEMBER_11_FILL">
<path fill="#D82C26" stroke="none" d="
M 13.35 7
Q 13.1 6.55 12.7 6.25 12.35 6 11.65 6 11 6 10.6 6.25 10.15 6.5 9.85 7.05 9.6 7.45 9.6 8.15 9.6 8.85 9.85 9.3 10.15 9.8 10.6 10.1 11.2 10.35 11.7 10.35 12.7 10.35 13.35 9.85
L 13.25 9.4 12.6 9.8
Q 12.15 9.95 11.75 9.95 11.3 9.95 10.9 9.7 10.55 9.5 10.3 9.1 10.1 8.75 10.1 8.25
L 13.6 8.25 13.6 8
Q 13.6 7.5 13.35 7
M 12.7 6.8
Q 13.1 7.2 13.1 7.85
L 10.1 7.85
Q 10.1 7.45 10.3 7.2 10.45 6.9 10.8 6.6 11.15 6.4 11.65 6.4 12.3 6.4 12.7 6.8 Z"/>
</g>

<g id="BDM_160x600_FR_psd_Asset_8_V7_4_Comprenez__mieux_les__besoins_de__vos_clients___0_Layer0_0_MEMBER_12_FILL">
<path fill="#D82C26" stroke="none" d="
M 17.9 6.1
L 17.4 6.1 17.4 8.15
Q 17.4 8.75 17.2 9.1 17.05 9.55 16.7 9.7 16.35 9.95 16 9.95 15.4 9.95 15.15 9.5 14.9 9.1 14.9 8.5
L 14.9 6.1 14.35 6.1 14.35 8.6
Q 14.35 9.35 14.75 9.85 15.1 10.35 15.9 10.35 16.3 10.35 16.8 10.1 17.15 9.9 17.4 9.35
L 17.45 10.25 18 10.25 17.9 9.3 17.9 6.1 Z"/>
</g>

<g id="BDM_160x600_FR_psd_Asset_8_V7_4_Comprenez__mieux_les__besoins_de__vos_clients___0_Layer0_0_MEMBER_13_FILL">
<path fill="#D82C26" stroke="none" d="
M 20.5 8.4
L 21.85 10.25 22.5 10.25 20.85 8.05 22.3 6.1 21.7 6.1 20.5 7.7 19.35 6.1 18.7 6.1 20.2 8.05 18.55 10.25 19.15 10.25 20.5 8.4 Z"/>
</g>

<g id="BDM_160x600_FR_psd_Asset_8_V7_4_Comprenez__mieux_les__besoins_de__vos_clients___0_Layer0_0_MEMBER_14_FILL">
<path fill="#D82C26" stroke="none" d="
M 24.8 10
Q 24.9 10.15 25.3 10.35
L 25.5 9.9
Q 25.3 9.85 25.2 9.65
L 25.15 9.2 25.15 3.5 24.6 3.6 24.6 9.3
Q 24.6 9.75 24.8 10 Z"/>
</g>

<g id="BDM_160x600_FR_psd_Asset_8_V7_4_Comprenez__mieux_les__besoins_de__vos_clients___0_Layer0_0_MEMBER_15_FILL">
<path fill="#D82C26" stroke="none" d="
M 29.8 7
Q 29.6 6.6 29.1 6.25 28.75 6 28.05 6 27.4 6 27 6.25 26.55 6.55 26.25 7.05 26 7.55 26 8.15 26 8.7 26.25 9.3 26.55 9.8 27.05 10.1 27.55 10.35 28.1 10.35 29.1 10.35 29.75 9.85
L 29.7 9.4 29 9.8
Q 28.65 9.95 28.15 9.95 27.7 9.95 27.3 9.7 26.95 9.5 26.7 9.1 26.5 8.6 26.5 8.25
L 30 8.25 30 8
Q 30 7.4 29.8 7
M 29.1 6.8
Q 29.5 7.2 29.5 7.85
L 26.5 7.85
Q 26.5 7.6 26.7 7.2 26.95 6.8 27.25 6.6 27.5 6.4 28.05 6.4 28.75 6.4 29.1 6.8 Z"/>
</g>

<g id="BDM_160x600_FR_psd_Asset_8_V7_4_Comprenez__mieux_les__besoins_de__vos_clients___0_Layer0_0_MEMBER_16_FILL">
<path fill="#D82C26" stroke="none" d="
M 31.95 6
Q 31.55 6 31.3 6.1 31 6.25 30.8 6.5 30.6 6.7 30.6 7.1 30.6 7.55 30.9 7.85
L 31.8 8.3
Q 32.1 8.4 32.65 8.65 32.9 8.85 32.9 9.15 32.9 9.55 32.65 9.75 32.4 9.95 32 9.95 31.15 9.95 30.6 9.45
L 30.55 9.9
Q 30.8 10.15 31.15 10.2 31.6 10.35 32 10.35 32.4 10.35 32.7 10.2 33.1 10 33.2 9.8 33.4 9.55 33.4 9.15 33.4 8.7 33.1 8.4 32.8 8.15 32.15 7.95 31.5 7.7 31.35 7.55 31.1 7.45 31.1 7.1 31.1 6.8 31.35 6.55 31.6 6.4 32 6.4
L 32.6 6.5 33.05 6.8 33.3 6.4 32.7 6.1
Q 32.5 6 31.95 6 Z"/>
</g>

<g id="BDM_160x600_FR_psd_Asset_8_V7_4_Comprenez__mieux_les__besoins_de__vos_clients___0_Layer0_0_MEMBER_17_FILL">
<path fill="#D82C26" stroke="none" d="
M 1.35 13.7
L 0.8 13.8 0.8 20.5 1.25 20.5 1.3 19.6 1.35 19.6
Q 1.6 20.1 2.05 20.3 2.5 20.6 3.05 20.6 3.65 20.6 4.1 20.3 4.55 20 4.85 19.5 5.1 19 5.1 18.4 5.1 17.9 4.85 17.3 4.55 16.8 4.1 16.5 3.65 16.2 3.05 16.2 2.5 16.2 2.05 16.5 1.55 16.75 1.35 17.25
L 1.35 13.7
M 1.3 18.4
Q 1.3 17.95 1.55 17.55 1.8 17.1 2.1 16.9 2.5 16.65 2.95 16.65 3.4 16.65 3.8 16.9 4.2 17.15 4.4 17.55 4.6 18.05 4.6 18.4 4.6 18.7 4.4 19.3 4.2 19.7 3.8 19.9 3.5 20.15 2.95 20.15 2.4 20.15 2.1 19.9 1.8 19.7 1.55 19.3 1.3 18.8 1.3 18.4 Z"/>
</g>

<g id="BDM_160x600_FR_psd_Asset_8_V7_4_Comprenez__mieux_les__besoins_de__vos_clients___0_Layer0_0_MEMBER_18_FILL">
<path fill="#D82C26" stroke="none" d="
M 6.7 16.5
Q 6.25 16.8 5.95 17.25 5.7 17.85 5.7 18.4 5.7 19.05 6 19.55 6.25 20.1 6.75 20.3 7.2 20.6 7.8 20.6 8.8 20.6 9.45 20.1
L 9.4 19.65 8.7 20
Q 8.2 20.2 7.85 20.2 7.4 20.2 7 19.95 6.6 19.7 6.45 19.35 6.2 18.95 6.2 18.5
L 9.7 18.5 9.7 18.25
Q 9.7 17.65 9.5 17.25 9.3 16.75 8.8 16.5 8.35 16.2 7.75 16.2 7.15 16.2 6.7 16.5
M 6.4 17.45
Q 6.65 17.05 6.95 16.85 7.3 16.6 7.75 16.6 8.4 16.6 8.8 17 9.15 17.35 9.25 18.1
L 6.2 18.1 6.4 17.45 Z"/>
</g>

<g id="BDM_160x600_FR_psd_Asset_8_V7_4_Comprenez__mieux_les__besoins_de__vos_clients___0_Layer0_0_MEMBER_19_FILL">
<path fill="#D82C26" stroke="none" d="
M 12.4 16.35
Q 12.1 16.2 11.7 16.2 11.4 16.2 11 16.35 10.7 16.5 10.5 16.75 10.3 17.05 10.3 17.35 10.3 17.85 10.6 18.05 10.9 18.35 11.5 18.5
L 12.35 18.9
Q 12.6 19.1 12.6 19.4 12.6 19.8 12.35 20 11.95 20.2 11.7 20.2 10.95 20.2 10.3 19.7
L 10.25 20.15
Q 10.65 20.4 10.85 20.45 11.3 20.6 11.7 20.6 12.1 20.6 12.4 20.45 12.8 20.25 12.9 20.05 13.1 19.8 13.1 19.4 13.1 18.95 12.8 18.65 12.35 18.3 11.85 18.15 11.4 18.05 11.05 17.8 10.8 17.65 10.8 17.3 10.8 16.95 11.05 16.8 11.3 16.65 11.7 16.65 12.1 16.65 12.3 16.75 12.6 16.85 12.75 17.05
L 13 16.65 12.4 16.35 Z"/>
</g>

<g id="BDM_160x600_FR_psd_Asset_8_V7_4_Comprenez__mieux_les__besoins_de__vos_clients___0_Layer0_0_MEMBER_20_FILL">
<path fill="#D82C26" stroke="none" d="
M 18.05 18.4
Q 18.05 17.8 17.75 17.25 17.45 16.8 16.95 16.5 16.5 16.2 15.85 16.2 15.25 16.2 14.7 16.5 14.15 16.85 13.9 17.25 13.65 17.85 13.65 18.4 13.65 18.95 13.9 19.55 14.25 20.1 14.7 20.3 15.25 20.6 15.85 20.6 16.5 20.6 16.95 20.3 17.35 20.1 17.75 19.55 18.05 19.05 18.05 18.4
M 17.3 17.5
Q 17.5 17.9 17.5 18.4 17.5 18.9 17.3 19.3 17.15 19.65 16.75 19.9 16.45 20.15 15.85 20.15 15.25 20.15 14.95 19.9 14.6 19.7 14.35 19.3 14.15 18.7 14.15 18.4 14.15 18.1 14.35 17.5 14.6 17.15 14.95 16.9 15.35 16.65 15.85 16.65 16.3 16.65 16.7 16.9 17.15 17.15 17.3 17.5 Z"/>
</g>

<g id="BDM_160x600_FR_psd_Asset_8_V7_4_Comprenez__mieux_les__besoins_de__vos_clients___0_Layer0_0_MEMBER_21_FILL">
<path fill="#D82C26" stroke="none" d="
M 19.4 16.35
L 18.9 16.35 18.9 20.5 19.4 20.5 19.4 16.35
M 18.9 14.95
Q 18.95 15.05 19.15 15.05 19.35 15.05 19.4 14.95 19.5 14.9 19.5 14.7 19.5 14.5 19.4 14.4
L 19.15 14.3
Q 19 14.3 18.9 14.45 18.75 14.55 18.75 14.7 18.75 14.9 18.9 14.95 Z"/>
</g>

<g id="BDM_160x600_FR_psd_Asset_8_V7_4_Comprenez__mieux_les__besoins_de__vos_clients___0_Layer0_0_MEMBER_22_FILL">
<path fill="#D82C26" stroke="none" d="
M 21 16.35
L 20.5 16.35 20.55 20.5 21.05 20.5 21.05 18.35
Q 21.05 17.95 21.25 17.45 21.4 17.15 21.75 16.85 22 16.65 22.45 16.65 23.05 16.65 23.3 17.05 23.55 17.45 23.55 18.1
L 23.55 20.5 24.1 20.5 24.1 17.95
Q 24.1 17.25 23.7 16.7 23.3 16.2 22.55 16.2 22.05 16.2 21.65 16.5 21.3 16.75 21.05 17.25
L 21 16.35 Z"/>
</g>

<g id="BDM_160x600_FR_psd_Asset_8_V7_4_Comprenez__mieux_les__besoins_de__vos_clients___0_Layer0_0_MEMBER_23_FILL">
<path fill="#D82C26" stroke="none" d="
M 27.6 16.65
L 27.05 16.35 26.3 16.2
Q 25.95 16.2 25.65 16.35 25.25 16.55 25.15 16.75 24.95 16.95 24.95 17.35 24.95 17.8 25.2 18.05 25.5 18.35 26.1 18.5
L 26.95 18.9
Q 27.25 19.15 27.25 19.4 27.25 19.8 26.95 20 26.65 20.2 26.3 20.2 25.55 20.2 24.95 19.7
L 24.85 20.15
Q 25.2 20.4 25.5 20.45 25.9 20.6 26.35 20.6 26.7 20.6 27 20.45 27.35 20.3 27.55 20.05 27.75 19.65 27.75 19.4 27.75 18.95 27.45 18.65 26.85 18.3 26.45 18.15
L 25.65 17.8
Q 25.4 17.65 25.4 17.3 25.4 16.95 25.65 16.8 25.95 16.65 26.3 16.65 26.7 16.65 26.9 16.75 27.15 16.8 27.4 17.05
L 27.6 16.65 Z"/>
</g>

<g id="BDM_160x600_FR_psd_Asset_8_V7_4_Comprenez__mieux_les__besoins_de__vos_clients___0_Layer0_0_MEMBER_24_FILL">
<path fill="#D82C26" stroke="none" d="
M 29.8 18.4
Q 29.8 19 30.05 19.5 30.35 20 30.8 20.3 31.25 20.6 31.9 20.6 32.35 20.6 32.85 20.35 33.35 20.05 33.55 19.6
L 33.6 19.6 33.65 20.5 34.15 20.5 34.1 13.7 33.55 13.8 33.55 17.25
Q 33.35 16.75 32.85 16.5 32.4 16.2 31.9 16.2 31.25 16.2 30.8 16.5 30.35 16.8 30.05 17.3 29.8 17.9 29.8 18.4
M 30.5 17.55
Q 30.7 17.15 31.1 16.9 31.5 16.65 31.95 16.65 32.4 16.65 32.8 16.9 33.2 17.15 33.4 17.55 33.6 18.05 33.6 18.4 33.6 18.7 33.4 19.3 33.2 19.7 32.8 19.9 32.5 20.15 31.95 20.15 31.4 20.15 31.1 19.9 30.75 19.7 30.5 19.3 30.3 18.7 30.3 18.4 30.3 18.05 30.5 17.55 Z"/>
</g>

<g id="BDM_160x600_FR_psd_Asset_8_V7_4_Comprenez__mieux_les__besoins_de__vos_clients___0_Layer0_0_MEMBER_25_FILL">
<path fill="#D82C26" stroke="none" d="
M 37 16.2
Q 36.4 16.2 35.95 16.5 35.5 16.8 35.2 17.25 34.95 17.85 34.95 18.4 34.95 18.95 35.2 19.55 35.6 20.1 35.95 20.3 36.5 20.6 37.05 20.6 38.05 20.6 38.7 20.1
L 38.6 19.65
Q 38.45 19.8 37.95 20 37.45 20.2 37.1 20.2 36.65 20.2 36.25 19.95 35.9 19.75 35.65 19.35 35.45 19 35.45 18.5
L 38.95 18.5 38.95 18.25
Q 38.95 17.65 38.75 17.25 38.45 16.7 38.05 16.5 37.6 16.2 37 16.2
M 35.45 18.1
Q 35.45 17.85 35.65 17.45 35.8 17.1 36.2 16.85 36.55 16.6 37 16.6 37.65 16.6 38.05 17 38.45 17.5 38.45 18.1
L 35.45 18.1 Z"/>
</g>

<g id="BDM_160x600_FR_psd_Asset_8_V7_4_Comprenez__mieux_les__besoins_de__vos_clients___0_Layer0_0_MEMBER_26_FILL">
<path fill="#D82C26" stroke="none" d="
M 0.05 26.6
L 1.65 30.7 2.25 30.7 3.8 26.6 3.25 26.6 1.95 30.2 0.65 26.6 0.05 26.6 Z"/>
</g>

<g id="BDM_160x600_FR_psd_Asset_8_V7_4_Comprenez__mieux_les__besoins_de__vos_clients___0_Layer0_0_MEMBER_27_FILL">
<path fill="#D82C26" stroke="none" d="
M 7.25 26.75
Q 6.75 26.45 6.1 26.45 5.45 26.45 5 26.75 4.5 26.95 4.2 27.5 3.9 28.05 3.9 28.65 3.9 29.3 4.2 29.75 4.5 30.25 5 30.55 5.45 30.85 6.1 30.85 6.75 30.85 7.25 30.55 7.75 30.25 8.05 29.75 8.3 29.25 8.3 28.65 8.3 28.1 8.05 27.5 7.75 26.95 7.25 26.75
M 5.25 27.15
Q 5.55 26.9 6.1 26.9 6.7 26.9 7 27.15 7.4 27.4 7.6 27.75 7.8 28.1 7.8 28.65 7.8 29.15 7.6 29.5 7.4 29.9 7 30.15 6.6 30.4 6.1 30.4 5.65 30.4 5.25 30.15 4.8 29.9 4.65 29.5 4.45 29.15 4.45 28.65 4.45 28.1 4.65 27.75 4.8 27.4 5.25 27.15 Z"/>
</g>

<g id="BDM_160x600_FR_psd_Asset_8_V7_4_Comprenez__mieux_les__besoins_de__vos_clients___0_Layer0_0_MEMBER_28_FILL">
<path fill="#D82C26" stroke="none" d="
M 11 26.6
Q 10.65 26.45 10.25 26.45 9.9 26.45 9.6 26.6 9.4 26.65 9.1 26.95 8.9 27.2 8.9 27.6 8.9 28.1 9.2 28.3 9.35 28.45 10.05 28.75 10.8 29.05 10.95 29.15 11.2 29.3 11.2 29.65 11.2 30.05 10.95 30.2 10.7 30.4 10.3 30.4 9.45 30.4 8.9 29.9
L 8.8 30.35 9.45 30.7
Q 9.85 30.85 10.3 30.85 10.65 30.85 11 30.7 11.35 30.55 11.5 30.3 11.7 30.05 11.7 29.65 11.7 29.2 11.4 28.9 11.15 28.65 10.45 28.4 10.15 28.35 9.6 28.05 9.4 27.9 9.4 27.55 9.4 27.2 9.65 27.05 9.85 26.85 10.3 26.85 10.65 26.85 10.85 27
L 11.35 27.25 11.6 26.9
Q 11.4 26.7 11 26.6 Z"/>
</g>

<g id="BDM_160x600_FR_psd_Asset_8_V7_4_Comprenez__mieux_les__besoins_de__vos_clients___0_Layer0_0_MEMBER_29_FILL">
<path fill="#D82C26" stroke="none" d="
M 16.75 26.6
Q 16.3 26.45 15.95 26.45 15.3 26.45 14.85 26.75 14.45 26.95 14.05 27.5 13.75 28.05 13.75 28.65 13.75 29.3 14.05 29.8 14.35 30.25 14.8 30.55 15.35 30.85 15.95 30.85
L 16.7 30.7
Q 17.2 30.5 17.35 30.35
L 17.25 29.9
Q 16.95 30.2 16.7 30.25 16.35 30.4 15.95 30.4 15.5 30.4 15.1 30.15 14.7 29.9 14.5 29.5 14.3 29 14.3 28.65 14.3 28.35 14.5 27.75 14.75 27.4 15.1 27.15 15.4 26.9 15.95 26.9
L 16.6 27 17.15 27.35 17.35 26.95
Q 17.15 26.75 16.75 26.6 Z"/>
</g>

<g id="BDM_160x600_FR_psd_Asset_8_V7_4_Comprenez__mieux_les__besoins_de__vos_clients___0_Layer0_0_MEMBER_30_FILL">
<path fill="#D82C26" stroke="none" d="
M 18.15 30.45
Q 18.45 30.75 18.65 30.8
L 18.9 30.4 18.6 30.15 18.5 29.7 18.5 24 18 24.1 18 29.8
Q 18 30.25 18.15 30.45 Z"/>
</g>

<g id="BDM_160x600_FR_psd_Asset_8_V7_4_Comprenez__mieux_les__besoins_de__vos_clients___0_Layer0_0_MEMBER_31_FILL">
<path fill="#D82C26" stroke="none" d="
M 19.65 26.6
L 19.65 30.7 20.2 30.7 20.2 26.6 19.65 26.6
M 20.2 24.65
L 19.95 24.55 19.65 24.65 19.55 24.9 19.65 25.2 19.95 25.3 20.2 25.2 20.3 24.9 20.2 24.65 Z"/>
</g>

<g id="BDM_160x600_FR_psd_Asset_8_V7_4_Comprenez__mieux_les__besoins_de__vos_clients___0_Layer0_0_MEMBER_32_FILL">
<path fill="#D82C26" stroke="none" d="
M 24.15 26.7
Q 23.65 26.45 23.1 26.45 22.5 26.45 22.05 26.75 21.6 27 21.3 27.5 21.05 28.1 21.05 28.6 21.05 29.25 21.3 29.75 21.6 30.25 22.1 30.55 22.55 30.85 23.15 30.85 24.1 30.85 24.8 30.3
L 24.75 29.9 24.05 30.25
Q 23.7 30.4 23.2 30.4 22.7 30.4 22.35 30.2 21.95 29.95 21.75 29.55 21.55 29.05 21.55 28.7
L 25.05 28.7 25.05 28.5
Q 25.05 27.9 24.85 27.45 24.65 27.05 24.15 26.7
M 23.1 26.85
Q 23.75 26.85 24.15 27.25 24.55 27.75 24.55 28.35
L 21.55 28.35
Q 21.55 28.15 21.75 27.65 22.05 27.25 22.3 27.1 22.65 26.85 23.1 26.85 Z"/>
</g>

<g id="BDM_160x600_FR_psd_Asset_8_V7_4_Comprenez__mieux_les__besoins_de__vos_clients___0_Layer0_0_MEMBER_33_FILL">
<path fill="#D82C26" stroke="none" d="
M 29.1 26.95
Q 28.75 26.45 27.9 26.45 27.45 26.45 27 26.75 26.6 27 26.45 27.45
L 26.4 27.45 26.35 26.6 25.9 26.6 25.9 30.7 26.45 30.7 26.45 28.6
Q 26.45 28.1 26.6 27.7 26.85 27.3 27.1 27.1 27.45 26.9 27.8 26.9 28.4 26.9 28.7 27.3 28.95 27.8 28.95 28.3
L 28.95 30.7 29.45 30.7 29.45 28.2
Q 29.45 27.45 29.1 26.95 Z"/>
</g>

<g id="BDM_160x600_FR_psd_Asset_8_V7_4_Comprenez__mieux_les__besoins_de__vos_clients___0_Layer0_0_MEMBER_34_FILL">
<path fill="#D82C26" stroke="none" d="
M 30.6 25.6
L 30.6 26.6 29.95 26.6 29.85 27 30.6 27 30.6 29.7
Q 30.6 30.3 30.9 30.5 31.15 30.8 31.6 30.8
L 32.05 30.75 32.45 30.6 32.4 30.2
Q 31.9 30.4 31.75 30.4 31.5 30.4 31.3 30.2 31.15 30.05 31.15 29.65
L 31.15 27 32.2 27 32.3 26.6 31.15 26.6 31.15 25.4 30.6 25.6 Z"/>
</g>

<g id="BDM_160x600_FR_psd_Asset_8_V7_4_Comprenez__mieux_les__besoins_de__vos_clients___0_Layer0_0_MEMBER_35_FILL">
<path fill="#D82C26" stroke="none" d="
M 35.55 30.3
Q 35.75 29.9 35.75 29.65 35.75 29.2 35.45 28.9 35.1 28.6 34.45 28.4
L 33.65 28.05
Q 33.4 27.9 33.4 27.55 33.4 27.2 33.65 27.05 33.9 26.85 34.3 26.85 34.6 26.85 34.9 27
L 35.4 27.25 35.6 26.9
Q 35.4 26.7 35.05 26.6
L 34.3 26.45
Q 33.95 26.45 33.65 26.6 33.35 26.7 33.15 26.95 32.95 27.2 32.95 27.6 32.95 28.05 33.2 28.3 33.4 28.5 34.1 28.75 34.8 29 34.95 29.15 35.25 29.3 35.25 29.65 35.25 30.05 34.95 30.2 34.75 30.4 34.3 30.4 33.45 30.4 32.95 29.9
L 32.85 30.35
Q 33 30.5 33.5 30.7 33.9 30.85 34.35 30.85 34.7 30.85 35 30.7 35.25 30.6 35.55 30.3 Z"/>
</g>

<g id="BDM_160x600_FR_psd_Asset_8_V7_4_Comprenez__mieux_les__besoins_de__vos_clients___0_Layer0_0_MEMBER_36_FILL">
<path fill="#D82C26" stroke="none" d="
M 36.65 30.65
Q 36.75 30.8 36.9 30.8
L 37.2 30.65 37.3 30.35 37.2 30.1 36.9 29.95
Q 36.75 29.95 36.65 30.1 36.5 30.2 36.5 30.35 36.5 30.6 36.65 30.65 Z"/>
</g>

<g id="BDM_160x600_FR_psd_Asset_8_V7_4_CTA_copy_4_Regardez_la_vid_o___0_Layer0_0_MEMBER_0_FILL">
<path fill="#24B9D1" stroke="none" d="
M -21.55 -7.2
Q -21.55 -8.7 -22.55 -9.4 -23.55 -10.05 -25.1 -10.05
L -28.15 -10.05 -28.15 0 -26.75 0 -26.75 -4.15 -25.15 -4.15 -22.65 0 -20.95 0 -23.75 -4.35
Q -22.8 -4.65 -22.2 -5.4 -21.55 -6.1 -21.55 -7.2
M -23.65 -8.5
Q -23 -8.05 -23 -7.2 -23 -6.25 -23.6 -5.75 -24.25 -5.25 -25.25 -5.25
L -26.75 -5.25 -26.75 -8.9 -25.25 -8.9
Q -24.3 -8.9 -23.65 -8.5 Z"/>
</g>

<g id="BDM_160x600_FR_psd_Asset_8_V7_4_CTA_copy_4_Regardez_la_vid_o___0_Layer0_0_MEMBER_1_FILL">
<path fill="#24B9D1" stroke="none" d="
M -17.1 -7
Q -18 -7 -18.85 -6.55 -19.65 -6.1 -20.1 -5.3 -20.55 -4.45 -20.55 -3.4 -20.55 -2.3 -20.1 -1.5 -19.7 -0.75 -18.8 -0.25 -17.95 0.2 -17 0.2 -15.3 0.2 -14.2 -0.6
L -14.4 -1.65
Q -14.8 -1.35 -15.5 -1.1 -16.05 -0.9 -16.8 -0.9 -17.4 -0.9 -18.05 -1.15 -18.55 -1.45 -18.9 -1.95 -19.25 -2.55 -19.25 -3.1
L -13.8 -3.1 -13.8 -3.5
Q -13.8 -4.6 -14.2 -5.35 -14.55 -6.1 -15.35 -6.55 -16.1 -7 -17.1 -7
M -17.05 -6
Q -16.15 -6 -15.65 -5.45 -15.15 -5 -15.05 -4
L -19.25 -4
Q -19.15 -4.5 -18.95 -4.95 -18.65 -5.4 -18.2 -5.7 -17.65 -6 -17.05 -6 Z"/>
</g>

<g id="BDM_160x600_FR_psd_Asset_8_V7_4_CTA_copy_4_Regardez_la_vid_o___0_Layer0_0_MEMBER_2_FILL">
<path fill="#24B9D1" stroke="none" d="
M -12.55 -1.65
Q -12.15 -0.8 -11.4 -0.35 -10.65 0.1 -9.65 0.1 -8.8 0.1 -8.15 -0.25 -7.55 -0.65 -7.15 -1.25
L -7.1 -1.25 -7.1 -0.2
Q -7.1 1 -7.7 1.65 -8.3 2.35 -9.55 2.35 -10.3 2.35 -11 2.05 -11.85 1.8 -12.3 1.4
L -12.55 2.65 -11.1 3.25
Q -10.35 3.45 -9.45 3.45 -7.55 3.45 -6.7 2.45 -5.75 1.5 -5.75 -0.3
L -5.7 -6.8 -7 -6.8 -7.05 -5.55 -7.1 -5.55
Q -7.45 -6.2 -8.15 -6.6 -8.75 -7 -9.65 -7 -10.7 -7 -11.4 -6.5 -12.15 -6.05 -12.55 -5.2 -13 -4.35 -13 -3.4 -13 -2.4 -12.55 -1.65
M -11.35 -4.65
Q -11.1 -5.15 -10.55 -5.55 -10 -5.85 -9.35 -5.85 -8.65 -5.85 -8.15 -5.55 -7.65 -5.2 -7.35 -4.65 -7.05 -4.1 -7.05 -3.45 -7.05 -2.8 -7.35 -2.2 -7.7 -1.6 -8.15 -1.35 -8.65 -1 -9.35 -1 -10.05 -1 -10.55 -1.35 -11.05 -1.65 -11.35 -2.25 -11.6 -2.7 -11.6 -3.45 -11.6 -4.2 -11.35 -4.65 Z"/>
</g>

<g id="BDM_160x600_FR_psd_Asset_8_V7_4_CTA_copy_4_Regardez_la_vid_o___0_Layer0_0_MEMBER_3_FILL">
<path fill="#24B9D1" stroke="none" d="
M 1.3 -4.25
Q 1.3 -5.6 0.6 -6.3 -0.1 -7 -1.45 -7 -3 -7 -4.15 -6.2
L -3.8 -5.2
Q -3.2 -5.6 -2.8 -5.75 -2.25 -5.95 -1.7 -5.95 -0.85 -5.95 -0.5 -5.6 -0.05 -5.2 -0.05 -4.45
L -0.05 -4.15 -0.6 -4.15
Q -2.35 -4.15 -3.4 -3.65 -4.5 -3.2 -4.5 -1.9 -4.5 -0.8 -3.9 -0.35 -3.2 0.2 -2.4 0.2 -1.75 0.2 -0.95 -0.15 -0.35 -0.4 0 -1.1
L 0.15 0 1.4 0
Q 1.3 -0.35 1.3 -1.4
L 1.3 -4.25
M 0 -3.3
L 0 -2.8
Q 0 -2.2 -0.25 -1.85 -0.45 -1.4 -0.95 -1.1 -1.4 -0.8 -2 -0.8 -2.5 -0.8 -2.85 -1.05 -3.2 -1.35 -3.2 -1.9 -3.2 -3.3 -0.55 -3.3
L 0 -3.3 Z"/>
</g>

<g id="BDM_160x600_FR_psd_Asset_8_V7_4_CTA_copy_4_Regardez_la_vid_o___0_Layer0_0_MEMBER_4_FILL">
<path fill="#24B9D1" stroke="none" d="
M 6.8 -6.9
L 6.1 -7
Q 5.55 -7 5 -6.6 4.6 -6.25 4.25 -5.5
L 4.15 -6.8 2.85 -6.8 2.9 0 4.3 0 4.3 -3.4
Q 4.3 -4.35 4.75 -5.1 5.2 -5.8 6 -5.8
L 6.6 -5.7 6.8 -6.9 Z"/>
</g>

<g id="BDM_160x600_FR_psd_Asset_8_V7_4_CTA_copy_4_Regardez_la_vid_o___0_Layer0_0_MEMBER_5_FILL">
<path fill="#24B9D1" stroke="none" d="
M 10 -7
Q 9 -7 8.3 -6.5 7.55 -6.05 7.1 -5.2 6.7 -4.3 6.7 -3.4 6.7 -2.5 7.1 -1.6 7.6 -0.7 8.3 -0.3 9.15 0.2 10.05 0.2 10.85 0.2 11.55 -0.2 12.25 -0.55 12.6 -1.25
L 12.65 -1.25 12.7 0 14 0 13.95 -10.95 12.55 -10.75 12.55 -5.6
Q 12.2 -6.25 11.5 -6.65 10.85 -7 10 -7
M 9.1 -1.3
Q 8.6 -1.6 8.3 -2.2 8.05 -2.8 8.05 -3.4 8.05 -4 8.3 -4.65 8.6 -5.2 9.1 -5.55 9.65 -5.85 10.3 -5.85 11 -5.85 11.5 -5.55 12 -5.2 12.3 -4.65 12.6 -4.05 12.6 -3.4 12.6 -2.7 12.3 -2.2 12 -1.6 11.5 -1.3 10.9 -0.95 10.3 -0.95 9.7 -0.95 9.1 -1.3 Z"/>
</g>

<g id="BDM_160x600_FR_psd_Asset_8_V7_4_CTA_copy_4_Regardez_la_vid_o___0_Layer0_0_MEMBER_6_FILL">
<path fill="#24B9D1" stroke="none" d="
M 18.7 -7
Q 17.75 -7 16.9 -6.55 16.05 -6.05 15.65 -5.3 15.2 -4.45 15.2 -3.4 15.2 -2.3 15.65 -1.5 16.2 -0.65 16.95 -0.25 17.8 0.2 18.8 0.2 20.45 0.2 21.55 -0.6
L 21.35 -1.65
Q 21 -1.35 20.25 -1.1 19.7 -0.9 18.95 -0.9 18.35 -0.9 17.75 -1.15 17.35 -1.35 16.85 -1.95 16.6 -2.4 16.5 -3.1
L 21.95 -3.1 22 -3.5
Q 22 -4.45 21.6 -5.35 21.25 -6.1 20.45 -6.55 19.7 -7 18.7 -7
M 18.7 -6
Q 19.65 -6 20.15 -5.45 20.7 -4.9 20.7 -4
L 16.55 -4
Q 16.55 -4.5 16.85 -4.95 17.05 -5.35 17.55 -5.7 18.1 -6 18.7 -6 Z"/>
</g>

<g id="BDM_160x600_FR_psd_Asset_8_V7_4_CTA_copy_4_Regardez_la_vid_o___0_Layer0_0_MEMBER_7_FILL">
<path fill="#24B9D1" stroke="none" d="
M 26.45 -5.7
L 22.65 -1.1 22.65 0 28.15 0 28.35 -1.1 24.25 -1.1 28.1 -5.75 28.1 -6.8 22.85 -6.8 22.65 -5.7 26.45 -5.7 Z"/>
</g>

<g id="BDM_160x600_FR_psd_Asset_8_V7_4_CTA_copy_4_Regardez_la_vid_o___0_Layer0_0_MEMBER_8_FILL">
<path fill="#24B9D1" stroke="none" d="
M -23.8 14.8
Q -23.8 16.45 -22.4 17.05
L -21.65 16
Q -22.15 15.7 -22.25 15.45 -22.4 15.15 -22.4 14.6
L -22.4 5.95 -23.8 6.15 -23.8 14.8 Z"/>
</g>

<g id="BDM_160x600_FR_psd_Asset_8_V7_4_CTA_copy_4_Regardez_la_vid_o___0_Layer0_0_MEMBER_9_FILL">
<path fill="#24B9D1" stroke="none" d="
M -18.3 10.9
Q -17.5 10.9 -17.1 11.3 -16.65 11.7 -16.65 12.45
L -16.65 12.7 -17.2 12.7
Q -18.75 12.7 -20 13.2 -21.1 13.65 -21.1 14.95 -21.1 16.05 -20.5 16.55 -19.85 17.05 -19 17.05 -18.2 17.05 -17.55 16.7 -16.9 16.4 -16.6 15.75
L -16.45 16.85 -15.2 16.85
Q -15.3 16.5 -15.3 15.45
L -15.3 12.6
Q -15.3 11.25 -16 10.55 -16.8 9.85 -18.05 9.85 -19.6 9.85 -20.75 10.65
L -20.4 11.7
Q -20 11.4 -19.4 11.15 -18.9 10.9 -18.3 10.9
M -16.6 14.05
Q -16.6 14.7 -16.85 15.05 -17.05 15.5 -17.55 15.8 -18.05 16.05 -18.6 16.05 -19.2 16.05 -19.45 15.8 -19.8 15.5 -19.8 14.95 -19.8 13.55 -17.15 13.55
L -16.6 13.55 -16.6 14.05 Z"/>
</g>

<g id="BDM_160x600_FR_psd_Asset_8_V7_4_CTA_copy_4_Regardez_la_vid_o___0_Layer0_0_MEMBER_10_FILL">
<path fill="#24B9D1" stroke="none" d="
M -11.9 10.05
L -9.25 16.85 -7.7 16.85 -5.15 10.05 -6.6 10.05 -8.45 15.45 -10.35 10.05 -11.9 10.05 Z"/>
</g>

<g id="BDM_160x600_FR_psd_Asset_8_V7_4_CTA_copy_4_Regardez_la_vid_o___0_Layer0_0_MEMBER_11_FILL">
<path fill="#24B9D1" stroke="none" d="
M -3.1 10.05
L -4.5 10.05 -4.5 16.85 -3.1 16.85 -3.1 10.05
M -4.4 8.15
Q -4.05 8.4 -3.8 8.4 -3.45 8.4 -3.2 8.15 -2.95 7.95 -2.95 7.55 -2.95 7.15 -3.2 6.95 -3.45 6.7 -3.8 6.7 -4.05 6.7 -4.4 6.95 -4.65 7.2 -4.65 7.55 -4.65 7.9 -4.4 8.15 Z"/>
</g>

<g id="BDM_160x600_FR_psd_Asset_8_V7_4_CTA_copy_4_Regardez_la_vid_o___0_Layer0_0_MEMBER_12_FILL">
<path fill="#24B9D1" stroke="none" d="
M 2.95 10.25
Q 2.25 9.85 1.5 9.85 0.45 9.85 -0.25 10.35 -1 10.8 -1.4 11.65 -1.85 12.5 -1.85 13.45 -1.85 14.35 -1.45 15.25 -1 16.1 -0.25 16.55 0.45 17.05 1.5 17.05 2.3 17.05 3 16.65 3.7 16.3 4.1 15.6
L 4.15 16.85 5.45 16.85 5.4 5.9 4.05 6.15 4.05 11.25 4 11.25
Q 3.65 10.65 2.95 10.25
M 2.95 11.35
Q 3.5 11.65 3.8 12.25 4.05 12.85 4.05 13.45 4.05 14.05 3.8 14.65 3.5 15.25 2.95 15.55 2.45 15.9 1.8 15.9 1 15.9 0.6 15.55 0 15.2 -0.2 14.65 -0.5 14.15 -0.5 13.45 -0.5 12.8 -0.2 12.25 0 11.7 0.6 11.35 1 11 1.8 11 2.45 11 2.95 11.35 Z"/>
</g>

<g id="BDM_160x600_FR_psd_Asset_8_V7_4_CTA_copy_4_Regardez_la_vid_o___0_Layer0_0_MEMBER_13_FILL">
<path fill="#24B9D1" stroke="none" d="
M 11.9 10.3
Q 11.15 9.85 10.15 9.85 9.15 9.85 8.4 10.3 7.65 10.7 7.15 11.55 6.65 12.35 6.65 13.45 6.65 14.55 7.15 15.35 7.55 16.1 8.4 16.6 9.25 17.05 10.25 17.05 11.85 17.05 13.05 16.3
L 12.85 15.2
Q 12.25 15.6 11.75 15.75 11 16 10.4 16 9.75 16 9.2 15.7 8.6 15.35 8.35 14.9 8 14.4 8 13.75
L 13.45 13.75 13.45 13.35
Q 13.45 12.35 13.05 11.55 12.7 10.8 11.9 10.3
M 10.15 10.85
Q 11.05 10.85 11.6 11.4 12.15 12.05 12.15 12.85
L 8 12.85
Q 8 12.45 8.3 11.9 8.55 11.45 9.05 11.15 9.5 10.85 10.15 10.85
M 12.2 6.75
L 10.7 6.75 9.25 8.8 10.35 8.8 12.2 6.75 Z"/>
</g>

<g id="BDM_160x600_FR_psd_Asset_8_V7_4_CTA_copy_4_Regardez_la_vid_o___0_Layer0_0_MEMBER_14_FILL">
<path fill="#24B9D1" stroke="none" d="
M 21.1 15.35
Q 21.6 14.55 21.6 13.45 21.6 12.35 21.1 11.55 20.7 10.8 19.8 10.3 19 9.85 17.95 9.85 16.9 9.85 16.05 10.3 15.15 10.8 14.75 11.55 14.25 12.35 14.25 13.45 14.25 14.5 14.75 15.3 15.15 16.1 16.05 16.6 16.9 17.05 17.95 17.05 19 17.05 19.8 16.6 20.7 16.1 21.1 15.35
M 19.15 11.35
Q 19.75 11.7 19.95 12.2 20.25 12.8 20.25 13.45 20.25 14.15 19.95 14.65 19.75 15.2 19.15 15.55 18.65 15.9 17.95 15.9 17.2 15.9 16.7 15.55 16.1 15.2 15.9 14.65 15.6 14.15 15.6 13.45 15.6 12.8 15.9 12.2 16.1 11.7 16.7 11.35 17.2 11 17.95 11 18.65 11 19.15 11.35 Z"/>
</g>

<g id="BDM_160x600_FR_psd_Asset_8_V7_4_CTA_copy_4_Regardez_la_vid_o___0_Layer0_0_MEMBER_15_FILL">
<path fill="#24B9D1" stroke="none" d="
M 22.8 16.7
Q 23.1 17 23.45 17 23.9 17 24.1 16.7 24.4 16.5 24.4 16.05 24.4 15.7 24.1 15.4 23.9 15.15 23.45 15.15 23.05 15.15 22.8 15.4 22.55 15.75 22.55 16.05 22.55 16.45 22.8 16.7 Z"/>
</g>

<g id="BDM_160x600_FR_psd_Asset_8_V7_4_footer_copy_3_Faites_en_plus_avec_le_Wi_Fi_en__tant_que_service__copy_8_0_Layer0_0_MEMBER_0_FILL">
<path fill="#838282" stroke="none" d="
M -33.65 -9.2
L -38.8 -9.2 -38.8 0 -37.5 0 -37.5 -4.1 -34.1 -4.1 -33.9 -5.2 -37.5 -5.2 -37.5 -8.05 -33.8 -8.05 -33.65 -9.2 Z"/>
</g>

<g id="BDM_160x600_FR_psd_Asset_8_V7_4_footer_copy_3_Faites_en_plus_avec_le_Wi_Fi_en__tant_que_service__copy_8_0_Layer0_0_MEMBER_1_FILL">
<path fill="#838282" stroke="none" d="
M -33.35 -1.75
Q -33.35 -0.75 -32.8 -0.3 -32.2 0.15 -31.4 0.15 -30.7 0.15 -30.1 -0.15 -29.5 -0.45 -29.25 -1
L -29.2 -1 -29.2 -0.55 -29.1 0 -27.95 0 -28.05 -3.9
Q -28.05 -5.15 -28.7 -5.8 -29.35 -6.4 -30.55 -6.4 -31.9 -6.4 -33 -5.7
L -32.7 -4.75
Q -32.4 -5 -31.8 -5.25 -31.35 -5.45 -30.75 -5.45 -30.05 -5.45 -29.65 -5.1 -29.25 -4.7 -29.25 -4.05
L -29.25 -3.8 -29.8 -3.8
Q -31.3 -3.8 -32.35 -3.35 -33.35 -2.9 -33.35 -1.75
M -31.85 -0.95
Q -32.15 -1.25 -32.15 -1.75 -32.15 -3.05 -29.75 -3.05
L -29.2 -3.05 -29.2 -2.55
Q -29.2 -2.1 -29.45 -1.7 -29.7 -1.2 -30.1 -1 -30.4 -0.75 -31.05 -0.75 -31.6 -0.75 -31.85 -0.95 Z"/>
</g>

<g id="BDM_160x600_FR_psd_Asset_8_V7_4_footer_copy_3_Faites_en_plus_avec_le_Wi_Fi_en__tant_que_service__copy_8_0_Layer0_0_MEMBER_2_FILL">
<path fill="#838282" stroke="none" d="
M -24.9 -6.25
L -26.2 -6.25 -26.2 0 -24.9 0 -24.9 -6.25
M -25 -7.95
Q -24.75 -8.3 -24.75 -8.55 -24.75 -8.85 -25 -9.1 -25.2 -9.3 -25.55 -9.3 -25.9 -9.3 -26.1 -9.1 -26.35 -8.85 -26.35 -8.55 -26.35 -8.3 -26.1 -7.95 -25.9 -7.75 -25.55 -7.75 -25.2 -7.75 -25 -7.95 Z"/>
</g>

<g id="BDM_160x600_FR_psd_Asset_8_V7_4_footer_copy_3_Faites_en_plus_avec_le_Wi_Fi_en__tant_que_service__copy_8_0_Layer0_0_MEMBER_3_FILL">
<path fill="#838282" stroke="none" d="
M -22.8 -6.25
L -23.75 -6.25 -23.9 -5.25 -22.8 -5.25 -22.8 -1.7
Q -22.8 -0.85 -22.4 -0.35 -21.95 0.15 -21.15 0.15 -20.35 0.15 -19.65 -0.2
L -19.8 -1.1
Q -20.4 -0.85 -20.75 -0.85 -21.55 -0.85 -21.55 -1.9
L -21.55 -5.25 -20.05 -5.25 -19.85 -6.25 -21.55 -6.25 -21.55 -7.95 -22.8 -7.65 -22.8 -6.25 Z"/>
</g>

<g id="BDM_160x600_FR_psd_Asset_8_V7_4_footer_copy_3_Faites_en_plus_avec_le_Wi_Fi_en__tant_que_service__copy_8_0_Layer0_0_MEMBER_4_FILL">
<path fill="#838282" stroke="none" d="
M -18.65 -4.85
Q -19.05 -4.05 -19.05 -3.15 -19.05 -2.15 -18.6 -1.4 -18.2 -0.65 -17.45 -0.25 -16.7 0.2 -15.75 0.2 -14.3 0.2 -13.2 -0.55
L -13.4 -1.5 -14.4 -1
Q -14.95 -0.8 -15.6 -0.8 -16.15 -0.8 -16.75 -1.05 -17.3 -1.4 -17.5 -1.8 -17.75 -2.2 -17.85 -2.85
L -12.85 -2.85 -12.85 -3.2
Q -12.85 -4.2 -13.2 -4.85 -13.6 -5.65 -14.25 -6 -14.85 -6.4 -15.85 -6.4 -16.85 -6.4 -17.5 -6 -18.2 -5.6 -18.65 -4.85
M -16.9 -5.25
Q -16.4 -5.5 -15.85 -5.5 -15 -5.5 -14.5 -5 -14.1 -4.5 -14 -3.65
L -17.85 -3.65
Q -17.75 -4.15 -17.55 -4.5 -17.35 -4.9 -16.9 -5.25 Z"/>
</g>

<g id="BDM_160x600_FR_psd_Asset_8_V7_4_footer_copy_3_Faites_en_plus_avec_le_Wi_Fi_en__tant_que_service__copy_8_0_Layer0_0_MEMBER_5_FILL">
<path fill="#838282" stroke="none" d="
M -11.6 -1.5
L -11.75 -0.45 -10.75 0
Q -9.95 0.2 -9.45 0.2 -8.9 0.2 -8.3 -0.05 -7.8 -0.2 -7.45 -0.65 -7.1 -1.15 -7.1 -1.75 -7.1 -2.4 -7.6 -2.9 -8 -3.25 -9.05 -3.6 -9.85 -3.8 -10.15 -4.05 -10.45 -4.25 -10.45 -4.65 -10.45 -5.1 -10.15 -5.25 -9.8 -5.5 -9.35 -5.5 -8.9 -5.5 -8.5 -5.3
L -7.8 -4.9 -7.3 -5.75
Q -7.6 -6 -8.2 -6.25 -8.8 -6.4 -9.4 -6.4 -10.05 -6.4 -10.5 -6.2 -11 -6.05 -11.3 -5.6 -11.65 -5.2 -11.65 -4.6 -11.65 -3.8 -11.2 -3.45 -10.7 -3 -9.85 -2.8 -9.1 -2.6 -8.7 -2.3 -8.3 -2.05 -8.3 -1.7 -8.3 -1.25 -8.7 -1 -9.05 -0.75 -9.55 -0.75 -10.6 -0.75 -11.6 -1.5 Z"/>
</g>

<g id="BDM_160x600_FR_psd_Asset_8_V7_4_footer_copy_3_Faites_en_plus_avec_le_Wi_Fi_en__tant_que_service__copy_8_0_Layer0_0_MEMBER_6_FILL">
<path fill="#838282" stroke="none" d="
M -6.15 -3.85
L -6.15 -2.8 -3.25 -2.8 -3.25 -3.85 -6.15 -3.85 Z"/>
</g>

<g id="BDM_160x600_FR_psd_Asset_8_V7_4_footer_copy_3_Faites_en_plus_avec_le_Wi_Fi_en__tant_que_service__copy_8_0_Layer0_0_MEMBER_7_FILL">
<path fill="#838282" stroke="none" d="
M 3.7 -4.85
Q 3.3 -5.65 2.65 -6 2 -6.4 1 -6.4 0.05 -6.4 -0.6 -6 -1.25 -5.65 -1.75 -4.85 -2.15 -4.05 -2.15 -3.15 -2.15 -2.2 -1.75 -1.4 -1.3 -0.6 -0.55 -0.25 0.2 0.2 1.1 0.2 2.6 0.2 3.65 -0.55
L 3.5 -1.5
Q 3.15 -1.25 2.45 -1 2 -0.8 1.25 -0.8 0.75 -0.8 0.15 -1.05 -0.35 -1.35 -0.65 -1.8 -0.95 -2.25 -0.95 -2.85
L 4.05 -2.85 4.05 -3.2
Q 4.05 -4.2 3.7 -4.85
M 0 -5.25
Q 0.5 -5.5 1.05 -5.5 1.9 -5.5 2.35 -5 2.85 -4.5 2.85 -3.65
L -0.95 -3.65
Q -0.95 -4.1 -0.7 -4.5 -0.35 -5 0 -5.25 Z"/>
</g>

<g id="BDM_160x600_FR_psd_Asset_8_V7_4_footer_copy_3_Faites_en_plus_avec_le_Wi_Fi_en__tant_que_service__copy_8_0_Layer0_0_MEMBER_8_FILL">
<path fill="#838282" stroke="none" d="
M 6.75 -6.25
L 5.55 -6.25 5.6 0 6.85 0 6.85 -3.25
Q 6.85 -4.15 7.35 -4.8 7.75 -5.35 8.55 -5.35 9.35 -5.35 9.65 -4.85 10 -4.25 10 -3.5
L 10 0 11.25 0 11.25 -3.8
Q 11.25 -4.85 10.7 -5.65 10.1 -6.4 8.95 -6.4 8.2 -6.4 7.65 -6.05 7.05 -5.65 6.85 -5.05
L 6.8 -5.05 6.75 -6.25 Z"/>
</g>

<g id="BDM_160x600_FR_psd_Asset_8_V7_4_footer_copy_3_Faites_en_plus_avec_le_Wi_Fi_en__tant_que_service__copy_8_0_Layer0_0_MEMBER_9_FILL">
<path fill="#838282" stroke="none" d="
M 17.4 -6.25
L 16.15 -6.25 16.2 3.1 17.45 3.1 17.45 -1.1 17.5 -1.1
Q 17.75 -0.6 18.45 -0.15 19.05 0.15 19.8 0.15 20.6 0.15 21.4 -0.25 22.1 -0.7 22.45 -1.45 22.85 -2.25 22.85 -3.15 22.85 -4 22.45 -4.8 22.05 -5.6 21.4 -5.95 20.65 -6.4 19.8 -6.4 19.05 -6.4 18.4 -6.05 17.8 -5.7 17.45 -5.1
L 17.4 -5.1 17.4 -6.25
M 18.45 -5.05
Q 18.9 -5.35 19.5 -5.35 20.15 -5.35 20.6 -5.05 21.05 -4.8 21.35 -4.25 21.6 -3.65 21.6 -3.15 21.6 -2.6 21.35 -2 21.05 -1.45 20.6 -1.2 20.15 -0.9 19.5 -0.9 18.9 -0.9 18.45 -1.2 17.9 -1.5 17.7 -2 17.4 -2.5 17.4 -3.1 17.4 -3.7 17.7 -4.25 17.95 -4.75 18.45 -5.05 Z"/>
</g>

<g id="BDM_160x600_FR_psd_Asset_8_V7_4_footer_copy_3_Faites_en_plus_avec_le_Wi_Fi_en__tant_que_service__copy_8_0_Layer0_0_MEMBER_10_FILL">
<path fill="#838282" stroke="none" d="
M 24.4 -9.8
L 24.4 -1.9
Q 24.4 -0.4 25.65 0.2
L 26.35 -0.8
Q 25.95 -1 25.8 -1.3 25.65 -1.6 25.65 -2.1
L 25.65 -9.95 24.4 -9.8 Z"/>
</g>

<g id="BDM_160x600_FR_psd_Asset_8_V7_4_footer_copy_3_Faites_en_plus_avec_le_Wi_Fi_en__tant_que_service__copy_8_0_Layer0_0_MEMBER_11_FILL">
<path fill="#838282" stroke="none" d="
M 27.55 -2.4
Q 27.55 -1.3 28.15 -0.55 28.7 0.15 29.85 0.15 30.6 0.15 31.15 -0.2 31.75 -0.6 32 -1.15
L 32.1 0 33.3 0 33.2 -6.25 31.95 -6.25 31.95 -3.05
Q 31.95 -2 31.45 -1.45 31 -0.85 30.25 -0.85 29.45 -0.85 29.15 -1.4 28.85 -1.9 28.85 -2.7
L 28.85 -6.25 27.55 -6.25 27.55 -2.4 Z"/>
</g>

<g id="BDM_160x600_FR_psd_Asset_8_V7_4_footer_copy_3_Faites_en_plus_avec_le_Wi_Fi_en__tant_que_service__copy_8_0_Layer0_0_MEMBER_12_FILL">
<path fill="#838282" stroke="none" d="
M 37.1 -6.4
Q 36.45 -6.4 36 -6.2 35.55 -6.05 35.15 -5.6 34.85 -5.15 34.85 -4.6 34.85 -3.8 35.3 -3.45 35.7 -3.05 36.65 -2.8 37.4 -2.6 37.8 -2.3 38.15 -2.1 38.15 -1.7 38.15 -1.2 37.8 -1 37.4 -0.75 36.95 -0.75 35.9 -0.75 34.9 -1.5
L 34.7 -0.45 35.75 0
Q 36.55 0.2 37.05 0.2 37.55 0.2 38.2 -0.05 38.55 -0.15 39.05 -0.65 39.4 -1.15 39.4 -1.75 39.4 -2.4 38.9 -2.9 38.5 -3.25 37.45 -3.6 36.65 -3.8 36.35 -4.05 36 -4.25 36 -4.65 36 -5.05 36.35 -5.25 36.7 -5.5 37.15 -5.5 37.6 -5.5 37.95 -5.3 38.35 -5.15 38.7 -4.9
L 39.2 -5.75
Q 38.9 -6 38.3 -6.25 37.7 -6.4 37.1 -6.4 Z"/>
</g>

<g id="BDM_160x600_FR_psd_Asset_8_V7_4_footer_copy_3_Faites_en_plus_avec_le_Wi_Fi_en__tant_que_service__copy_8_0_Layer0_0_MEMBER_13_FILL">
<path fill="#838282" stroke="none" d="
M -43.65 11.55
Q -42.9 11.55 -42.55 11.9 -42.15 12.15 -42.15 12.95
L -42.15 13.2 -42.65 13.2
Q -44.15 13.2 -45.2 13.65 -46.25 14.1 -46.25 15.25 -46.25 16.25 -45.65 16.7 -45.05 17.15 -44.3 17.15 -43.6 17.15 -43 16.85 -42.4 16.55 -42.1 16
L -41.95 17 -40.85 17 -40.9 13.1
Q -40.9 11.95 -41.55 11.2 -42.2 10.6 -43.4 10.6 -44.9 10.6 -45.9 11.3
L -45.55 12.25
Q -45.25 12 -44.65 11.75 -44.2 11.55 -43.65 11.55
M -42.1 14.45
Q -42.1 14.95 -42.3 15.3 -42.55 15.8 -42.95 16 -43.3 16.25 -43.95 16.25 -44.45 16.25 -44.7 16 -45.05 15.8 -45.05 15.25 -45.05 13.95 -42.6 13.95
L -42.1 13.95 -42.1 14.45 Z"/>
</g>

<g id="BDM_160x600_FR_psd_Asset_8_V7_4_footer_copy_3_Faites_en_plus_avec_le_Wi_Fi_en__tant_que_service__copy_8_0_Layer0_0_MEMBER_14_FILL">
<path fill="#838282" stroke="none" d="
M -40.05 10.75
L -37.65 17 -36.25 17 -33.9 10.75 -35.2 10.75 -36.95 15.7 -38.7 10.75 -40.05 10.75 Z"/>
</g>

<g id="BDM_160x600_FR_psd_Asset_8_V7_4_footer_copy_3_Faites_en_plus_avec_le_Wi_Fi_en__tant_que_service__copy_8_0_Layer0_0_MEMBER_15_FILL">
<path fill="#838282" stroke="none" d="
M -28.55 11
Q -29.15 10.6 -30.15 10.6 -31.1 10.6 -31.75 11 -32.5 11.4 -32.9 12.15 -33.35 12.9 -33.35 13.85 -33.35 14.85 -32.9 15.6 -32.45 16.35 -31.75 16.75 -31 17.2 -30.05 17.2 -28.55 17.2 -27.5 16.45
L -27.7 15.5 -28.7 16
Q -29.15 16.2 -29.9 16.2 -30.55 16.2 -31 15.9 -31.45 15.7 -31.8 15.2 -32.1 14.75 -32.1 14.15
L -27.15 14.15 -27.1 13.75
Q -27.1 12.9 -27.5 12.1 -27.9 11.35 -28.55 11
M -30.15 11.5
Q -29.3 11.5 -28.8 12 -28.3 12.6 -28.3 13.35
L -32.1 13.35
Q -32.1 12.95 -31.85 12.45 -31.6 12.05 -31.15 11.75 -30.65 11.5 -30.15 11.5 Z"/>
</g>

<g id="BDM_160x600_FR_psd_Asset_8_V7_4_footer_copy_3_Faites_en_plus_avec_le_Wi_Fi_en__tant_que_service__copy_8_0_Layer0_0_MEMBER_16_FILL">
<path fill="#838282" stroke="none" d="
M -24.35 11
Q -25.2 11.4 -25.55 12.15 -26 12.9 -26 13.9 -26 14.85 -25.55 15.6 -25.15 16.35 -24.4 16.75 -23.65 17.2 -22.75 17.2 -22.1 17.2 -21.5 16.95 -20.9 16.8 -20.55 16.45
L -20.7 15.45
Q -21.15 15.8 -21.55 15.95 -22 16.1 -22.55 16.1 -23.15 16.1 -23.7 15.8 -24.15 15.5 -24.45 15 -24.7 14.55 -24.7 13.9 -24.7 13.2 -24.45 12.75 -24.25 12.25 -23.7 11.95 -23.25 11.65 -22.65 11.65 -22.2 11.65 -21.75 11.8 -21.3 11.95 -21 12.25
L -20.55 11.3
Q -20.75 11.05 -21.45 10.75 -22.05 10.6 -22.65 10.6 -23.7 10.6 -24.35 11 Z"/>
</g>

<g id="BDM_160x600_FR_psd_Asset_8_V7_4_footer_copy_3_Faites_en_plus_avec_le_Wi_Fi_en__tant_que_service__copy_8_0_Layer0_0_MEMBER_17_FILL">
<path fill="#838282" stroke="none" d="
M -16.25 15.1
Q -16.25 16.6 -15 17.2
L -14.3 16.2
Q -14.75 15.95 -14.85 15.7 -15 15.4 -15 14.9
L -15 7.05 -16.25 7.2 -16.25 15.1 Z"/>
</g>

<g id="BDM_160x600_FR_psd_Asset_8_V7_4_footer_copy_3_Faites_en_plus_avec_le_Wi_Fi_en__tant_que_service__copy_8_0_Layer0_0_MEMBER_18_FILL">
<path fill="#838282" stroke="none" d="
M -7.55 12.1
Q -7.95 11.35 -8.6 11 -9.2 10.6 -10.2 10.6 -11.2 10.6 -11.85 11 -12.55 11.4 -13 12.15 -13.4 12.95 -13.4 13.85 -13.4 14.8 -13 15.6 -12.55 16.4 -11.8 16.75 -11.05 17.2 -10.1 17.2 -8.65 17.2 -7.6 16.45
L -7.75 15.5 -8.75 16
Q -9.3 16.2 -10 16.2 -10.55 16.2 -11.1 15.9 -11.6 15.65 -11.9 15.2 -12.2 14.6 -12.2 14.15
L -7.2 14.15 -7.2 13.75
Q -7.2 12.8 -7.55 12.1
M -11.25 11.75
Q -10.75 11.5 -10.2 11.5 -9.35 11.5 -8.9 12 -8.4 12.5 -8.4 13.35
L -12.2 13.35
Q -12.1 12.75 -11.9 12.45 -11.65 12 -11.25 11.75 Z"/>
</g>

<g id="BDM_160x600_FR_psd_Asset_8_V7_4_footer_copy_3_Faites_en_plus_avec_le_Wi_Fi_en__tant_que_service__copy_8_0_Layer0_0_MEMBER_19_FILL">
<path fill="#838282" stroke="none" d="
M 3.35 7.8
L 1.9 7.8 -0.2 15.25 -0.25 15.25 -2.25 7.8 -3.65 7.8 -0.95 17 0.4 17 2.6 9.5 2.65 9.5 4.85 17 6.2 17 8.9 7.8 7.55 7.8 5.5 15.25 3.35 7.8 Z"/>
</g>

<g id="BDM_160x600_FR_psd_Asset_8_V7_4_footer_copy_3_Faites_en_plus_avec_le_Wi_Fi_en__tant_que_service__copy_8_0_Layer0_0_MEMBER_20_FILL">
<path fill="#838282" stroke="none" d="
M 10 10.75
L 10 17 11.25 17 11.25 10.75 10 10.75
M 11.15 7.9
Q 10.95 7.7 10.6 7.7 10.25 7.7 10.05 7.9 9.8 8.15 9.8 8.45 9.8 8.75 10.05 9 10.3 9.25 10.6 9.25 10.9 9.25 11.15 9 11.4 8.75 11.4 8.45 11.4 8.15 11.15 7.9 Z"/>
</g>

<g id="BDM_160x600_FR_psd_Asset_8_V7_4_footer_copy_3_Faites_en_plus_avec_le_Wi_Fi_en__tant_que_service__copy_8_0_Layer0_0_MEMBER_21_FILL">
<path fill="#838282" stroke="none" d="
M 12.75 13.15
L 12.75 14.2 15.65 14.2 15.65 13.15 12.75 13.15 Z"/>
</g>

<g id="BDM_160x600_FR_psd_Asset_8_V7_4_footer_copy_3_Faites_en_plus_avec_le_Wi_Fi_en__tant_que_service__copy_8_0_Layer0_0_MEMBER_22_FILL">
<path fill="#838282" stroke="none" d="
M 21.9 12.9
L 22.1 11.8 18.5 11.8 18.5 8.95 22.2 8.95 22.3 7.8 17.2 7.8 17.2 17 18.5 17 18.5 12.9 21.9 12.9 Z"/>
</g>

<g id="BDM_160x600_FR_psd_Asset_8_V7_4_footer_copy_3_Faites_en_plus_avec_le_Wi_Fi_en__tant_que_service__copy_8_0_Layer0_0_MEMBER_23_FILL">
<path fill="#838282" stroke="none" d="
M 24.75 10.75
L 23.5 10.75 23.5 17 24.75 17 24.75 10.75
M 23.6 9
Q 23.85 9.25 24.15 9.25 24.45 9.25 24.7 9 24.9 8.8 24.9 8.45 24.9 8.1 24.7 7.9 24.5 7.7 24.15 7.7 23.8 7.7 23.6 7.9 23.35 8.15 23.35 8.45 23.35 8.75 23.6 9 Z"/>
</g>

<g id="BDM_160x600_FR_psd_Asset_8_V7_4_footer_copy_3_Faites_en_plus_avec_le_Wi_Fi_en__tant_que_service__copy_8_0_Layer0_0_MEMBER_24_FILL">
<path fill="#838282" stroke="none" d="
M 32.55 10.6
Q 31.6 10.6 30.95 11 30.3 11.35 29.8 12.15 29.4 12.8 29.4 13.85 29.4 14.95 29.8 15.6 30.25 16.4 31 16.75 31.75 17.2 32.65 17.2 34.15 17.2 35.2 16.45
L 35 15.5
Q 34.7 15.75 34 16 33.55 16.2 32.8 16.2 32.25 16.2 31.7 15.9 31.25 15.7 30.9 15.2 30.6 14.75 30.6 14.15
L 35.6 14.15 35.6 13.75
Q 35.6 13 35.25 12.1 34.85 11.35 34.2 11 33.55 10.6 32.55 10.6
M 32.6 11.5
Q 33.4 11.5 33.9 12 34.4 12.5 34.4 13.35
L 30.6 13.35
Q 30.6 12.95 30.85 12.45 31.25 11.95 31.55 11.75 32.05 11.5 32.6 11.5 Z"/>
</g>

<g id="BDM_160x600_FR_psd_Asset_8_V7_4_footer_copy_3_Faites_en_plus_avec_le_Wi_Fi_en__tant_que_service__copy_8_0_Layer0_0_MEMBER_25_FILL">
<path fill="#838282" stroke="none" d="
M 42.2 11.35
Q 41.7 10.6 40.5 10.6 39.75 10.6 39.2 10.95 38.6 11.35 38.4 11.95
L 38.35 11.95 38.3 10.75 37.1 10.75 37.15 17 38.4 17 38.4 13.75
Q 38.4 12.75 38.9 12.2 39.3 11.65 40.1 11.65 40.9 11.65 41.2 12.15 41.5 12.7 41.5 13.45
L 41.5 17 42.8 17 42.8 13.2
Q 42.8 12.05 42.2 11.35 Z"/>
</g>

<g id="BDM_160x600_FR_psd_Asset_8_V7_4_footer_copy_3_Faites_en_plus_avec_le_Wi_Fi_en__tant_que_service__copy_8_0_Layer0_0_MEMBER_26_FILL">
<path fill="#838282" stroke="none" d="
M -45.4 28.75
L -43.85 28.75 -43.65 27.75 -45.4 27.75 -45.4 26.05 -46.65 26.35 -46.65 27.75 -47.55 27.75 -47.75 28.75 -46.6 28.75 -46.6 32.3
Q -46.6 33.2 -46.2 33.65 -45.7 34.15 -44.95 34.15 -44.3 34.15 -43.5 33.8
L -43.65 32.9
Q -44.15 33.15 -44.55 33.15 -45.4 33.15 -45.4 32.1
L -45.4 28.75 Z"/>
</g>

<g id="BDM_160x600_FR_psd_Asset_8_V7_4_footer_copy_3_Faites_en_plus_avec_le_Wi_Fi_en__tant_que_service__copy_8_0_Layer0_0_MEMBER_27_FILL">
<path fill="#838282" stroke="none" d="
M -38.8 30.2
L -39.3 30.2
Q -40.8 30.2 -41.85 30.65 -42.9 31.1 -42.9 32.25 -42.9 33.25 -42.3 33.7 -41.7 34.15 -40.95 34.15 -40.25 34.15 -39.65 33.85 -39.05 33.55 -38.75 33
L -38.65 34 -37.5 34 -37.6 30.1
Q -37.6 28.85 -38.25 28.2 -38.9 27.55 -40.05 27.55 -41.5 27.55 -42.55 28.3
L -42.2 29.25
Q -41.9 29 -41.3 28.75 -40.85 28.55 -40.3 28.55 -39.55 28.55 -39.2 28.9 -38.8 29.15 -38.8 29.95
L -38.8 30.2
M -39.25 30.95
L -38.75 30.95 -38.75 31.45
Q -38.75 31.95 -38.95 32.3 -39.1 32.6 -39.6 33 -39.95 33.25 -40.6 33.25 -41.1 33.25 -41.4 33 -41.7 32.8 -41.7 32.25 -41.7 30.95 -39.25 30.95 Z"/>
</g>

<g id="BDM_160x600_FR_psd_Asset_8_V7_4_footer_copy_3_Faites_en_plus_avec_le_Wi_Fi_en__tant_que_service__copy_8_0_Layer0_0_MEMBER_28_FILL">
<path fill="#838282" stroke="none" d="
M -30.05 34
L -30.05 30.15
Q -30.05 29.05 -30.6 28.35 -31.2 27.6 -32.35 27.6 -33.1 27.6 -33.65 27.95 -34.2 28.35 -34.45 28.9
L -34.5 28.9 -34.55 27.75 -35.75 27.75 -35.7 34 -34.45 34 -34.45 30.75
Q -34.45 29.85 -33.95 29.2 -33.55 28.65 -32.75 28.65 -31.95 28.65 -31.65 29.15 -31.3 29.75 -31.3 30.45
L -31.3 34 -30.05 34 Z"/>
</g>

<g id="BDM_160x600_FR_psd_Asset_8_V7_4_footer_copy_3_Faites_en_plus_avec_le_Wi_Fi_en__tant_que_service__copy_8_0_Layer0_0_MEMBER_29_FILL">
<path fill="#838282" stroke="none" d="
M -25.25 28.75
L -25.05 27.75 -26.75 27.75 -26.75 26.05 -28 26.35 -28 27.75 -28.95 27.75 -29.15 28.75 -28 28.75 -28 32.3
Q -28 33.1 -27.6 33.65 -27.1 34.15 -26.35 34.15 -25.7 34.15 -24.85 33.8
L -25 32.9
Q -25.6 33.15 -25.95 33.15 -26.75 33.15 -26.75 32.1
L -26.75 28.75 -25.25 28.75 Z"/>
</g>

<g id="BDM_160x600_FR_psd_Asset_8_V7_4_footer_copy_3_Faites_en_plus_avec_le_Wi_Fi_en__tant_que_service__copy_8_0_Layer0_0_MEMBER_30_FILL">
<path fill="#838282" stroke="none" d="
M -21.2 30.85
Q -21.2 31.65 -20.8 32.55 -20.4 33.35 -19.75 33.7 -19 34.15 -18.15 34.15 -17.4 34.15 -16.8 33.85 -16.1 33.4 -15.85 32.9
L -15.8 32.9 -15.8 34.9
Q -15.8 36.65 -14.35 37.15
L -13.7 36.15
Q -14.2 35.9 -14.35 35.6 -14.55 35.35 -14.55 34.75
L -14.55 27.75 -15.75 27.75 -15.75 28.9 -15.8 28.9
Q -16.25 28.2 -16.75 27.95 -17.4 27.6 -18.15 27.6 -18.95 27.6 -19.75 28 -20.4 28.45 -20.8 29.2 -21.2 30 -21.2 30.85
M -19.95 30.85
Q -19.95 30.35 -19.7 29.75 -19.5 29.3 -19 28.95 -18.45 28.65 -17.85 28.65 -17.25 28.65 -16.8 28.95 -16.25 29.25 -16.05 29.75 -15.8 30.2 -15.8 30.85 -15.8 31.55 -16.05 32 -16.25 32.5 -16.8 32.8 -17.25 33.1 -17.85 33.1 -18.45 33.1 -19 32.8 -19.5 32.45 -19.7 32 -19.95 31.4 -19.95 30.85 Z"/>
</g>

<g id="BDM_160x600_FR_psd_Asset_8_V7_4_footer_copy_3_Faites_en_plus_avec_le_Wi_Fi_en__tant_que_service__copy_8_0_Layer0_0_MEMBER_31_FILL">
<path fill="#838282" stroke="none" d="
M -7.05 27.75
L -8.3 27.75 -8.3 30.95
Q -8.3 32 -8.8 32.55 -9.2 33.1 -10 33.1 -10.8 33.1 -11.1 32.6 -11.4 32.1 -11.4 31.3
L -11.4 27.75 -12.7 27.75 -12.7 31.6
Q -12.7 32.7 -12.15 33.4 -11.55 34.15 -10.4 34.15 -9.65 34.15 -9.15 33.8 -8.5 33.4 -8.3 32.85
L -8.2 34 -6.95 34 -7.05 27.75 Z"/>
</g>

<g id="BDM_160x600_FR_psd_Asset_8_V7_4_footer_copy_3_Faites_en_plus_avec_le_Wi_Fi_en__tant_que_service__copy_8_0_Layer0_0_MEMBER_32_FILL">
<path fill="#838282" stroke="none" d="
M 0.75 30.75
Q 0.75 29.9 0.35 29.1 -0.05 28.35 -0.7 28 -1.35 27.55 -2.3 27.55 -3.2 27.55 -3.9 28 -4.65 28.4 -5.05 29.15 -5.5 29.9 -5.5 30.85 -5.5 31.85 -5.05 32.6 -4.55 33.4 -3.9 33.75 -3.15 34.2 -2.2 34.2 -0.7 34.2 0.35 33.45
L 0.15 32.5 -0.85 33
Q -1.65 33.2 -2.05 33.2 -2.7 33.2 -3.15 32.9 -3.6 32.7 -3.95 32.2 -4.2 31.8 -4.3 31.15
L 0.7 31.15 0.75 30.75
M -4.25 30.35
Q -4.25 29.95 -4 29.45 -3.75 29.05 -3.3 28.75 -2.8 28.5 -2.3 28.5 -1.45 28.5 -0.95 29 -0.45 29.6 -0.45 30.35
L -4.25 30.35 Z"/>
</g>

<g id="BDM_160x600_FR_psd_Asset_8_V7_4_footer_copy_3_Faites_en_plus_avec_le_Wi_Fi_en__tant_que_service__copy_8_0_Layer0_0_MEMBER_33_FILL">
<path fill="#838282" stroke="none" d="
M 7.2 27.55
Q 6.85 27.55 6.15 27.75 5.65 27.95 5.3 28.4 5 28.85 5 29.4 5 30.2 5.45 30.55 6 31 6.75 31.2 7.6 31.4 7.95 31.7 8.3 31.9 8.3 32.3 8.3 32.8 7.95 33 7.55 33.25 7.05 33.25 5.95 33.25 5.05 32.5
L 4.85 33.55 5.85 34
Q 6.75 34.2 7.2 34.2 7.7 34.2 8.3 33.95 8.75 33.8 9.2 33.3 9.5 32.95 9.5 32.25 9.5 31.45 9 31.1 8.55 30.65 7.55 30.4 6.5 29.95 6.45 29.95 6.15 29.75 6.15 29.35 6.15 28.9 6.5 28.7 6.9 28.5 7.3 28.5 7.75 28.5 8.1 28.7 8.5 28.85 8.85 29.1
L 9.35 28.25
Q 9 28 8.4 27.75 7.7 27.55 7.2 27.55 Z"/>
</g>

<g id="BDM_160x600_FR_psd_Asset_8_V7_4_footer_copy_3_Faites_en_plus_avec_le_Wi_Fi_en__tant_que_service__copy_8_0_Layer0_0_MEMBER_34_FILL">
<path fill="#838282" stroke="none" d="
M 16.4 29.1
Q 16 28.35 15.35 28 14.7 27.55 13.75 27.55 12.85 27.55 12.1 28 11.4 28.4 10.95 29.15 10.55 29.95 10.55 30.85 10.55 31.8 10.95 32.6 11.4 33.4 12.15 33.75 12.9 34.2 13.85 34.2 15.3 34.2 16.35 33.45
L 16.2 32.5
Q 15.85 32.75 15.15 33 14.45 33.2 13.95 33.2 13.4 33.2 12.85 32.9 12.35 32.65 12.05 32.2 11.75 31.75 11.75 31.15
L 16.75 31.15 16.75 30.75
Q 16.75 29.8 16.4 29.1
M 13.75 28.5
Q 14.6 28.5 15.05 29 15.55 29.5 15.55 30.35
L 11.75 30.35
Q 11.85 29.75 12.05 29.45 12.3 29 12.7 28.75 13.2 28.5 13.75 28.5 Z"/>
</g>

<g id="BDM_160x600_FR_psd_Asset_8_V7_4_footer_copy_3_Faites_en_plus_avec_le_Wi_Fi_en__tant_que_service__copy_8_0_Layer0_0_MEMBER_35_FILL">
<path fill="#838282" stroke="none" d="
M 18.25 27.75
L 18.3 34 19.55 34 19.55 30.85
Q 19.55 29.95 20 29.35 20.35 28.7 21.15 28.7 21.55 28.7 21.7 28.8
L 21.9 27.7
Q 21.7 27.6 21.2 27.6 20.65 27.6 20.25 27.95 19.8 28.25 19.55 28.95
L 19.5 28.95 19.45 27.75 18.25 27.75 Z"/>
</g>

<g id="BDM_160x600_FR_psd_Asset_8_V7_4_footer_copy_3_Faites_en_plus_avec_le_Wi_Fi_en__tant_que_service__copy_8_0_Layer0_0_MEMBER_36_FILL">
<path fill="#838282" stroke="none" d="
M 21.8 27.75
L 24.25 34 25.6 34 28 27.75 26.65 27.75 24.95 32.7 23.2 27.75 21.8 27.75 Z"/>
</g>

<g id="BDM_160x600_FR_psd_Asset_8_V7_4_footer_copy_3_Faites_en_plus_avec_le_Wi_Fi_en__tant_que_service__copy_8_0_Layer0_0_MEMBER_37_FILL">
<path fill="#838282" stroke="none" d="
M 29.05 26
Q 29.3 26.25 29.6 26.25 29.9 26.25 30.15 26 30.4 25.75 30.4 25.45 30.4 25.15 30.15 24.9 29.95 24.7 29.6 24.7 29.25 24.7 29.05 24.9 28.8 25.15 28.8 25.45 28.8 25.75 29.05 26
M 28.95 27.75
L 28.95 34 30.25 34 30.25 27.75 28.95 27.75 Z"/>
</g>

<g id="BDM_160x600_FR_psd_Asset_8_V7_4_footer_copy_3_Faites_en_plus_avec_le_Wi_Fi_en__tant_que_service__copy_8_0_Layer0_0_MEMBER_38_FILL">
<path fill="#838282" stroke="none" d="
M 37.25 28.25
Q 36.9 28 36.3 27.75 35.6 27.55 35.15 27.55 34.25 27.55 33.4 28 32.65 28.35 32.2 29.15 31.8 29.8 31.8 30.85 31.8 31.95 32.2 32.6 32.65 33.4 33.4 33.75 34.15 34.2 35.05 34.2 35.65 34.2 36.3 33.95 36.75 33.85 37.25 33.45
L 37.1 32.45
Q 36.45 32.9 36.25 32.95 35.8 33.1 35.25 33.1 34.55 33.1 34.1 32.8 33.55 32.5 33.35 32 33.05 31.5 33.05 30.85 33.05 30.3 33.35 29.75 33.55 29.3 34.05 28.95 34.6 28.65 35.15 28.65 35.6 28.65 36.05 28.8
L 36.8 29.2 37.25 28.25 Z"/>
</g>

<g id="BDM_160x600_FR_psd_Asset_8_V7_4_footer_copy_3_Faites_en_plus_avec_le_Wi_Fi_en__tant_que_service__copy_8_0_Layer0_0_MEMBER_39_FILL">
<path fill="#838282" stroke="none" d="
M 44.25 30.75
Q 44.25 29.9 43.85 29.1 43.45 28.35 42.8 28 42.15 27.55 41.2 27.55 40.35 27.55 39.6 28 38.85 28.4 38.45 29.15 38 29.9 38 30.85 38 31.85 38.45 32.6 38.95 33.4 39.6 33.75 40.35 34.2 41.3 34.2 42.8 34.2 43.85 33.45
L 43.65 32.5 42.65 33
Q 41.85 33.2 41.45 33.2 40.8 33.2 40.35 32.9 39.9 32.7 39.55 32.2 39.25 31.75 39.25 31.15
L 44.2 31.15 44.25 30.75
M 42.55 29
Q 43.05 29.6 43.05 30.35
L 39.25 30.35
Q 39.25 29.95 39.5 29.45 39.75 29.05 40.2 28.75 40.7 28.5 41.2 28.5 42.05 28.5 42.55 29 Z"/>
</g>

<g id="BDM_160x600_FR_psd_Asset_8_V7_4_footer_copy_3_Faites_en_plus_avec_le_Wi_Fi_en__tant_que_service__copy_8_0_Layer0_0_MEMBER_40_FILL">
<path fill="#838282" stroke="none" d="
M 45.85 33.85
Q 46.2 34.1 46.45 34.1 46.8 34.1 47.05 33.85 47.3 33.65 47.3 33.25 47.3 32.85 47.05 32.65 46.8 32.4 46.45 32.4 46.2 32.4 45.85 32.65 45.6 33 45.6 33.25 45.6 33.6 45.85 33.85 Z"/>
</g>
</defs>

<g transform="matrix( 1, 0, 0, 1, -259,52) ">
<g transform="matrix( 1, 0, 0, 1, 253,0) ">
<g transform="matrix( 1, 0, 0, 1, 25,3) ">
<g transform="matrix( 2.815704345703125, 0, 0, 2.832611083984375, 0.15,18.6) ">
<use xlink:href="#BDM_160x600_FR_psd_Asset_8_V7_4_Comprenez__mieux_les__besoins_de__vos_clients___0_Layer0_0_MEMBER_0_FILL"/>
</g>

<g transform="matrix( 2.815704345703125, 0, 0, 2.832611083984375, 0.15,18.6) ">
<use xlink:href="#BDM_160x600_FR_psd_Asset_8_V7_4_Comprenez__mieux_les__besoins_de__vos_clients___0_Layer0_0_MEMBER_1_FILL"/>
</g>

<g transform="matrix( 2.815704345703125, 0, 0, 2.832611083984375, 0.15,18.6) ">
<use xlink:href="#BDM_160x600_FR_psd_Asset_8_V7_4_Comprenez__mieux_les__besoins_de__vos_clients___0_Layer0_0_MEMBER_2_FILL"/>
</g>

<g transform="matrix( 2.815704345703125, 0, 0, 2.832611083984375, 0.15,18.6) ">
<use xlink:href="#BDM_160x600_FR_psd_Asset_8_V7_4_Comprenez__mieux_les__besoins_de__vos_clients___0_Layer0_0_MEMBER_3_FILL"/>
</g>

<g transform="matrix( 2.815704345703125, 0, 0, 2.832611083984375, 0.15,18.6) ">
<use xlink:href="#BDM_160x600_FR_psd_Asset_8_V7_4_Comprenez__mieux_les__besoins_de__vos_clients___0_Layer0_0_MEMBER_4_FILL"/>
</g>

<g transform="matrix( 2.815704345703125, 0, 0, 2.832611083984375, 0.15,18.6) ">
<use xlink:href="#BDM_160x600_FR_psd_Asset_8_V7_4_Comprenez__mieux_les__besoins_de__vos_clients___0_Layer0_0_MEMBER_5_FILL"/>
</g>

<g transform="matrix( 2.815704345703125, 0, 0, 2.832611083984375, 0.15,18.6) ">
<use xlink:href="#BDM_160x600_FR_psd_Asset_8_V7_4_Comprenez__mieux_les__besoins_de__vos_clients___0_Layer0_0_MEMBER_6_FILL"/>
</g>

<g transform="matrix( 2.815704345703125, 0, 0, 2.832611083984375, 0.15,18.6) ">
<use xlink:href="#BDM_160x600_FR_psd_Asset_8_V7_4_Comprenez__mieux_les__besoins_de__vos_clients___0_Layer0_0_MEMBER_7_FILL"/>
</g>

<g transform="matrix( 2.815704345703125, 0, 0, 2.832611083984375, 0.15,18.6) ">
<use xlink:href="#BDM_160x600_FR_psd_Asset_8_V7_4_Comprenez__mieux_les__besoins_de__vos_clients___0_Layer0_0_MEMBER_8_FILL"/>
</g>

<g transform="matrix( 2.815704345703125, 0, 0, 2.832611083984375, 0.15,18.6) ">
<use xlink:href="#BDM_160x600_FR_psd_Asset_8_V7_4_Comprenez__mieux_les__besoins_de__vos_clients___0_Layer0_0_MEMBER_9_FILL"/>
</g>

<g transform="matrix( 2.815704345703125, 0, 0, 2.832611083984375, 0.15,18.6) ">
<use xlink:href="#BDM_160x600_FR_psd_Asset_8_V7_4_Comprenez__mieux_les__besoins_de__vos_clients___0_Layer0_0_MEMBER_10_FILL"/>
</g>

<g transform="matrix( 2.815704345703125, 0, 0, 2.832611083984375, 0.15,18.6) ">
<use xlink:href="#BDM_160x600_FR_psd_Asset_8_V7_4_Comprenez__mieux_les__besoins_de__vos_clients___0_Layer0_0_MEMBER_11_FILL"/>
</g>

<g transform="matrix( 2.815704345703125, 0, 0, 2.832611083984375, 0.15,18.6) ">
<use xlink:href="#BDM_160x600_FR_psd_Asset_8_V7_4_Comprenez__mieux_les__besoins_de__vos_clients___0_Layer0_0_MEMBER_12_FILL"/>
</g>

<g transform="matrix( 2.815704345703125, 0, 0, 2.832611083984375, 0.15,18.6) ">
<use xlink:href="#BDM_160x600_FR_psd_Asset_8_V7_4_Comprenez__mieux_les__besoins_de__vos_clients___0_Layer0_0_MEMBER_13_FILL"/>
</g>

<g transform="matrix( 2.815704345703125, 0, 0, 2.832611083984375, 0.15,18.6) ">
<use xlink:href="#BDM_160x600_FR_psd_Asset_8_V7_4_Comprenez__mieux_les__besoins_de__vos_clients___0_Layer0_0_MEMBER_14_FILL"/>
</g>

<g transform="matrix( 2.815704345703125, 0, 0, 2.832611083984375, 0.15,18.6) ">
<use xlink:href="#BDM_160x600_FR_psd_Asset_8_V7_4_Comprenez__mieux_les__besoins_de__vos_clients___0_Layer0_0_MEMBER_15_FILL"/>
</g>

<g transform="matrix( 2.815704345703125, 0, 0, 2.832611083984375, 0.15,18.6) ">
<use xlink:href="#BDM_160x600_FR_psd_Asset_8_V7_4_Comprenez__mieux_les__besoins_de__vos_clients___0_Layer0_0_MEMBER_16_FILL"/>
</g>

<g transform="matrix( 2.815704345703125, 0, 0, 2.832611083984375, 0.15,18.6) ">
<use xlink:href="#BDM_160x600_FR_psd_Asset_8_V7_4_Comprenez__mieux_les__besoins_de__vos_clients___0_Layer0_0_MEMBER_17_FILL"/>
</g>

<g transform="matrix( 2.815704345703125, 0, 0, 2.832611083984375, 0.15,18.6) ">
<use xlink:href="#BDM_160x600_FR_psd_Asset_8_V7_4_Comprenez__mieux_les__besoins_de__vos_clients___0_Layer0_0_MEMBER_18_FILL"/>
</g>

<g transform="matrix( 2.815704345703125, 0, 0, 2.832611083984375, 0.15,18.6) ">
<use xlink:href="#BDM_160x600_FR_psd_Asset_8_V7_4_Comprenez__mieux_les__besoins_de__vos_clients___0_Layer0_0_MEMBER_19_FILL"/>
</g>

<g transform="matrix( 2.815704345703125, 0, 0, 2.832611083984375, 0.15,18.6) ">
<use xlink:href="#BDM_160x600_FR_psd_Asset_8_V7_4_Comprenez__mieux_les__besoins_de__vos_clients___0_Layer0_0_MEMBER_20_FILL"/>
</g>

<g transform="matrix( 2.815704345703125, 0, 0, 2.832611083984375, 0.15,18.6) ">
<use xlink:href="#BDM_160x600_FR_psd_Asset_8_V7_4_Comprenez__mieux_les__besoins_de__vos_clients___0_Layer0_0_MEMBER_21_FILL"/>
</g>

<g transform="matrix( 2.815704345703125, 0, 0, 2.832611083984375, 0.15,18.6) ">
<use xlink:href="#BDM_160x600_FR_psd_Asset_8_V7_4_Comprenez__mieux_les__besoins_de__vos_clients___0_Layer0_0_MEMBER_22_FILL"/>
</g>

<g transform="matrix( 2.815704345703125, 0, 0, 2.832611083984375, 0.15,18.6) ">
<use xlink:href="#BDM_160x600_FR_psd_Asset_8_V7_4_Comprenez__mieux_les__besoins_de__vos_clients___0_Layer0_0_MEMBER_23_FILL"/>
</g>

<g transform="matrix( 2.815704345703125, 0, 0, 2.832611083984375, 0.15,18.6) ">
<use xlink:href="#BDM_160x600_FR_psd_Asset_8_V7_4_Comprenez__mieux_les__besoins_de__vos_clients___0_Layer0_0_MEMBER_24_FILL"/>
</g>

<g transform="matrix( 2.815704345703125, 0, 0, 2.832611083984375, 0.15,18.6) ">
<use xlink:href="#BDM_160x600_FR_psd_Asset_8_V7_4_Comprenez__mieux_les__besoins_de__vos_clients___0_Layer0_0_MEMBER_25_FILL"/>
</g>

<g transform="matrix( 2.815704345703125, 0, 0, 2.832611083984375, 0.15,18.6) ">
<use xlink:href="#BDM_160x600_FR_psd_Asset_8_V7_4_Comprenez__mieux_les__besoins_de__vos_clients___0_Layer0_0_MEMBER_26_FILL"/>
</g>

<g transform="matrix( 2.815704345703125, 0, 0, 2.832611083984375, 0.15,18.6) ">
<use xlink:href="#BDM_160x600_FR_psd_Asset_8_V7_4_Comprenez__mieux_les__besoins_de__vos_clients___0_Layer0_0_MEMBER_27_FILL"/>
</g>

<g transform="matrix( 2.815704345703125, 0, 0, 2.832611083984375, 0.15,18.6) ">
<use xlink:href="#BDM_160x600_FR_psd_Asset_8_V7_4_Comprenez__mieux_les__besoins_de__vos_clients___0_Layer0_0_MEMBER_28_FILL"/>
</g>

<g transform="matrix( 2.815704345703125, 0, 0, 2.832611083984375, 0.15,18.6) ">
<use xlink:href="#BDM_160x600_FR_psd_Asset_8_V7_4_Comprenez__mieux_les__besoins_de__vos_clients___0_Layer0_0_MEMBER_29_FILL"/>
</g>

<g transform="matrix( 2.815704345703125, 0, 0, 2.832611083984375, 0.15,18.6) ">
<use xlink:href="#BDM_160x600_FR_psd_Asset_8_V7_4_Comprenez__mieux_les__besoins_de__vos_clients___0_Layer0_0_MEMBER_30_FILL"/>
</g>

<g transform="matrix( 2.815704345703125, 0, 0, 2.832611083984375, 0.15,18.6) ">
<use xlink:href="#BDM_160x600_FR_psd_Asset_8_V7_4_Comprenez__mieux_les__besoins_de__vos_clients___0_Layer0_0_MEMBER_31_FILL"/>
</g>

<g transform="matrix( 2.815704345703125, 0, 0, 2.832611083984375, 0.15,18.6) ">
<use xlink:href="#BDM_160x600_FR_psd_Asset_8_V7_4_Comprenez__mieux_les__besoins_de__vos_clients___0_Layer0_0_MEMBER_32_FILL"/>
</g>

<g transform="matrix( 2.815704345703125, 0, 0, 2.832611083984375, 0.15,18.6) ">
<use xlink:href="#BDM_160x600_FR_psd_Asset_8_V7_4_Comprenez__mieux_les__besoins_de__vos_clients___0_Layer0_0_MEMBER_33_FILL"/>
</g>

<g transform="matrix( 2.815704345703125, 0, 0, 2.832611083984375, 0.15,18.6) ">
<use xlink:href="#BDM_160x600_FR_psd_Asset_8_V7_4_Comprenez__mieux_les__besoins_de__vos_clients___0_Layer0_0_MEMBER_34_FILL"/>
</g>

<g transform="matrix( 2.815704345703125, 0, 0, 2.832611083984375, 0.15,18.6) ">
<use xlink:href="#BDM_160x600_FR_psd_Asset_8_V7_4_Comprenez__mieux_les__besoins_de__vos_clients___0_Layer0_0_MEMBER_35_FILL"/>
</g>

<g transform="matrix( 2.815704345703125, 0, 0, 2.832611083984375, 0.15,18.6) ">
<use xlink:href="#BDM_160x600_FR_psd_Asset_8_V7_4_Comprenez__mieux_les__besoins_de__vos_clients___0_Layer0_0_MEMBER_36_FILL"/>
</g>
</g>

<g transform="matrix( 1, 0, 0, 1, 13,219) ">
<g transform="matrix( 1, 0, 0, 1, 42,35) ">
<g transform="matrix( 1.1267547607421875, 0, 0, 1.1267547607421875, 31.6,12.6) ">
<use xlink:href="#BDM_160x600_FR_psd_Asset_8_V7_4_CTA_copy_4_Regardez_la_vid_o___0_Layer0_0_MEMBER_0_FILL"/>
</g>

<g transform="matrix( 1.1267547607421875, 0, 0, 1.1267547607421875, 31.6,12.6) ">
<use xlink:href="#BDM_160x600_FR_psd_Asset_8_V7_4_CTA_copy_4_Regardez_la_vid_o___0_Layer0_0_MEMBER_1_FILL"/>
</g>

<g transform="matrix( 1.1267547607421875, 0, 0, 1.1267547607421875, 31.6,12.6) ">
<use xlink:href="#BDM_160x600_FR_psd_Asset_8_V7_4_CTA_copy_4_Regardez_la_vid_o___0_Layer0_0_MEMBER_2_FILL"/>
</g>

<g transform="matrix( 1.1267547607421875, 0, 0, 1.1267547607421875, 31.6,12.6) ">
<use xlink:href="#BDM_160x600_FR_psd_Asset_8_V7_4_CTA_copy_4_Regardez_la_vid_o___0_Layer0_0_MEMBER_3_FILL"/>
</g>

<g transform="matrix( 1.1267547607421875, 0, 0, 1.1267547607421875, 31.6,12.6) ">
<use xlink:href="#BDM_160x600_FR_psd_Asset_8_V7_4_CTA_copy_4_Regardez_la_vid_o___0_Layer0_0_MEMBER_4_FILL"/>
</g>

<g transform="matrix( 1.1267547607421875, 0, 0, 1.1267547607421875, 31.6,12.6) ">
<use xlink:href="#BDM_160x600_FR_psd_Asset_8_V7_4_CTA_copy_4_Regardez_la_vid_o___0_Layer0_0_MEMBER_5_FILL"/>
</g>

<g transform="matrix( 1.1267547607421875, 0, 0, 1.1267547607421875, 31.6,12.6) ">
<use xlink:href="#BDM_160x600_FR_psd_Asset_8_V7_4_CTA_copy_4_Regardez_la_vid_o___0_Layer0_0_MEMBER_6_FILL"/>
</g>

<g transform="matrix( 1.1267547607421875, 0, 0, 1.1267547607421875, 31.6,12.6) ">
<use xlink:href="#BDM_160x600_FR_psd_Asset_8_V7_4_CTA_copy_4_Regardez_la_vid_o___0_Layer0_0_MEMBER_7_FILL"/>
</g>

<g transform="matrix( 1.1267547607421875, 0, 0, 1.1267547607421875, 31.6,12.6) ">
<use xlink:href="#BDM_160x600_FR_psd_Asset_8_V7_4_CTA_copy_4_Regardez_la_vid_o___0_Layer0_0_MEMBER_8_FILL"/>
</g>

<g transform="matrix( 1.1267547607421875, 0, 0, 1.1267547607421875, 31.6,12.6) ">
<use xlink:href="#BDM_160x600_FR_psd_Asset_8_V7_4_CTA_copy_4_Regardez_la_vid_o___0_Layer0_0_MEMBER_9_FILL"/>
</g>

<g transform="matrix( 1.1267547607421875, 0, 0, 1.1267547607421875, 31.6,12.6) ">
<use xlink:href="#BDM_160x600_FR_psd_Asset_8_V7_4_CTA_copy_4_Regardez_la_vid_o___0_Layer0_0_MEMBER_10_FILL"/>
</g>

<g transform="matrix( 1.1267547607421875, 0, 0, 1.1267547607421875, 31.6,12.6) ">
<use xlink:href="#BDM_160x600_FR_psd_Asset_8_V7_4_CTA_copy_4_Regardez_la_vid_o___0_Layer0_0_MEMBER_11_FILL"/>
</g>

<g transform="matrix( 1.1267547607421875, 0, 0, 1.1267547607421875, 31.6,12.6) ">
<use xlink:href="#BDM_160x600_FR_psd_Asset_8_V7_4_CTA_copy_4_Regardez_la_vid_o___0_Layer0_0_MEMBER_12_FILL"/>
</g>

<g transform="matrix( 1.1267547607421875, 0, 0, 1.1267547607421875, 31.6,12.6) ">
<use xlink:href="#BDM_160x600_FR_psd_Asset_8_V7_4_CTA_copy_4_Regardez_la_vid_o___0_Layer0_0_MEMBER_13_FILL"/>
</g>

<g transform="matrix( 1.1267547607421875, 0, 0, 1.1267547607421875, 31.6,12.6) ">
<use xlink:href="#BDM_160x600_FR_psd_Asset_8_V7_4_CTA_copy_4_Regardez_la_vid_o___0_Layer0_0_MEMBER_14_FILL"/>
</g>

<g transform="matrix( 1.1267547607421875, 0, 0, 1.1267547607421875, 31.6,12.6) ">
<use xlink:href="#BDM_160x600_FR_psd_Asset_8_V7_4_CTA_copy_4_Regardez_la_vid_o___0_Layer0_0_MEMBER_15_FILL"/>
</g>
</g>
</g>

<g transform="matrix( 1, 0, 0, 1, 38,406) ">
<g transform="matrix( 1, 0, 0, 1, 0,0) ">
<g transform="matrix( 1.00018310546875, 0, 0, 1.00018310546875, 48.25,10.8) ">
<use xlink:href="#BDM_160x600_FR_psd_Asset_8_V7_4_footer_copy_3_Faites_en_plus_avec_le_Wi_Fi_en__tant_que_service__copy_8_0_Layer0_0_MEMBER_0_FILL"/>
</g>

<g transform="matrix( 1.00018310546875, 0, 0, 1.00018310546875, 48.25,10.8) ">
<use xlink:href="#BDM_160x600_FR_psd_Asset_8_V7_4_footer_copy_3_Faites_en_plus_avec_le_Wi_Fi_en__tant_que_service__copy_8_0_Layer0_0_MEMBER_1_FILL"/>
</g>

<g transform="matrix( 1.00018310546875, 0, 0, 1.00018310546875, 48.25,10.8) ">
<use xlink:href="#BDM_160x600_FR_psd_Asset_8_V7_4_footer_copy_3_Faites_en_plus_avec_le_Wi_Fi_en__tant_que_service__copy_8_0_Layer0_0_MEMBER_2_FILL"/>
</g>

<g transform="matrix( 1.00018310546875, 0, 0, 1.00018310546875, 48.25,10.8) ">
<use xlink:href="#BDM_160x600_FR_psd_Asset_8_V7_4_footer_copy_3_Faites_en_plus_avec_le_Wi_Fi_en__tant_que_service__copy_8_0_Layer0_0_MEMBER_3_FILL"/>
</g>

<g transform="matrix( 1.00018310546875, 0, 0, 1.00018310546875, 48.25,10.8) ">
<use xlink:href="#BDM_160x600_FR_psd_Asset_8_V7_4_footer_copy_3_Faites_en_plus_avec_le_Wi_Fi_en__tant_que_service__copy_8_0_Layer0_0_MEMBER_4_FILL"/>
</g>

<g transform="matrix( 1.00018310546875, 0, 0, 1.00018310546875, 48.25,10.8) ">
<use xlink:href="#BDM_160x600_FR_psd_Asset_8_V7_4_footer_copy_3_Faites_en_plus_avec_le_Wi_Fi_en__tant_que_service__copy_8_0_Layer0_0_MEMBER_5_FILL"/>
</g>

<g transform="matrix( 1.00018310546875, 0, 0, 1.00018310546875, 48.25,10.8) ">
<use xlink:href="#BDM_160x600_FR_psd_Asset_8_V7_4_footer_copy_3_Faites_en_plus_avec_le_Wi_Fi_en__tant_que_service__copy_8_0_Layer0_0_MEMBER_6_FILL"/>
</g>

<g transform="matrix( 1.00018310546875, 0, 0, 1.00018310546875, 48.25,10.8) ">
<use xlink:href="#BDM_160x600_FR_psd_Asset_8_V7_4_footer_copy_3_Faites_en_plus_avec_le_Wi_Fi_en__tant_que_service__copy_8_0_Layer0_0_MEMBER_7_FILL"/>
</g>

<g transform="matrix( 1.00018310546875, 0, 0, 1.00018310546875, 48.25,10.8) ">
<use xlink:href="#BDM_160x600_FR_psd_Asset_8_V7_4_footer_copy_3_Faites_en_plus_avec_le_Wi_Fi_en__tant_que_service__copy_8_0_Layer0_0_MEMBER_8_FILL"/>
</g>

<g transform="matrix( 1.00018310546875, 0, 0, 1.00018310546875, 48.25,10.8) ">
<use xlink:href="#BDM_160x600_FR_psd_Asset_8_V7_4_footer_copy_3_Faites_en_plus_avec_le_Wi_Fi_en__tant_que_service__copy_8_0_Layer0_0_MEMBER_9_FILL"/>
</g>

<g transform="matrix( 1.00018310546875, 0, 0, 1.00018310546875, 48.25,10.8) ">
<use xlink:href="#BDM_160x600_FR_psd_Asset_8_V7_4_footer_copy_3_Faites_en_plus_avec_le_Wi_Fi_en__tant_que_service__copy_8_0_Layer0_0_MEMBER_10_FILL"/>
</g>

<g transform="matrix( 1.00018310546875, 0, 0, 1.00018310546875, 48.25,10.8) ">
<use xlink:href="#BDM_160x600_FR_psd_Asset_8_V7_4_footer_copy_3_Faites_en_plus_avec_le_Wi_Fi_en__tant_que_service__copy_8_0_Layer0_0_MEMBER_11_FILL"/>
</g>

<g transform="matrix( 1.00018310546875, 0, 0, 1.00018310546875, 48.25,10.8) ">
<use xlink:href="#BDM_160x600_FR_psd_Asset_8_V7_4_footer_copy_3_Faites_en_plus_avec_le_Wi_Fi_en__tant_que_service__copy_8_0_Layer0_0_MEMBER_12_FILL"/>
</g>

<g transform="matrix( 1.00018310546875, 0, 0, 1.00018310546875, 48.25,10.8) ">
<use xlink:href="#BDM_160x600_FR_psd_Asset_8_V7_4_footer_copy_3_Faites_en_plus_avec_le_Wi_Fi_en__tant_que_service__copy_8_0_Layer0_0_MEMBER_13_FILL"/>
</g>

<g transform="matrix( 1.00018310546875, 0, 0, 1.00018310546875, 48.25,10.8) ">
<use xlink:href="#BDM_160x600_FR_psd_Asset_8_V7_4_footer_copy_3_Faites_en_plus_avec_le_Wi_Fi_en__tant_que_service__copy_8_0_Layer0_0_MEMBER_14_FILL"/>
</g>

<g transform="matrix( 1.00018310546875, 0, 0, 1.00018310546875, 48.25,10.8) ">
<use xlink:href="#BDM_160x600_FR_psd_Asset_8_V7_4_footer_copy_3_Faites_en_plus_avec_le_Wi_Fi_en__tant_que_service__copy_8_0_Layer0_0_MEMBER_15_FILL"/>
</g>

<g transform="matrix( 1.00018310546875, 0, 0, 1.00018310546875, 48.25,10.8) ">
<use xlink:href="#BDM_160x600_FR_psd_Asset_8_V7_4_footer_copy_3_Faites_en_plus_avec_le_Wi_Fi_en__tant_que_service__copy_8_0_Layer0_0_MEMBER_16_FILL"/>
</g>

<g transform="matrix( 1.00018310546875, 0, 0, 1.00018310546875, 48.25,10.8) ">
<use xlink:href="#BDM_160x600_FR_psd_Asset_8_V7_4_footer_copy_3_Faites_en_plus_avec_le_Wi_Fi_en__tant_que_service__copy_8_0_Layer0_0_MEMBER_17_FILL"/>
</g>

<g transform="matrix( 1.00018310546875, 0, 0, 1.00018310546875, 48.25,10.8) ">
<use xlink:href="#BDM_160x600_FR_psd_Asset_8_V7_4_footer_copy_3_Faites_en_plus_avec_le_Wi_Fi_en__tant_que_service__copy_8_0_Layer0_0_MEMBER_18_FILL"/>
</g>

<g transform="matrix( 1.00018310546875, 0, 0, 1.00018310546875, 48.25,10.8) ">
<use xlink:href="#BDM_160x600_FR_psd_Asset_8_V7_4_footer_copy_3_Faites_en_plus_avec_le_Wi_Fi_en__tant_que_service__copy_8_0_Layer0_0_MEMBER_19_FILL"/>
</g>

<g transform="matrix( 1.00018310546875, 0, 0, 1.00018310546875, 48.25,10.8) ">
<use xlink:href="#BDM_160x600_FR_psd_Asset_8_V7_4_footer_copy_3_Faites_en_plus_avec_le_Wi_Fi_en__tant_que_service__copy_8_0_Layer0_0_MEMBER_20_FILL"/>
</g>

<g transform="matrix( 1.00018310546875, 0, 0, 1.00018310546875, 48.25,10.8) ">
<use xlink:href="#BDM_160x600_FR_psd_Asset_8_V7_4_footer_copy_3_Faites_en_plus_avec_le_Wi_Fi_en__tant_que_service__copy_8_0_Layer0_0_MEMBER_21_FILL"/>
</g>

<g transform="matrix( 1.00018310546875, 0, 0, 1.00018310546875, 48.25,10.8) ">
<use xlink:href="#BDM_160x600_FR_psd_Asset_8_V7_4_footer_copy_3_Faites_en_plus_avec_le_Wi_Fi_en__tant_que_service__copy_8_0_Layer0_0_MEMBER_22_FILL"/>
</g>

<g transform="matrix( 1.00018310546875, 0, 0, 1.00018310546875, 48.25,10.8) ">
<use xlink:href="#BDM_160x600_FR_psd_Asset_8_V7_4_footer_copy_3_Faites_en_plus_avec_le_Wi_Fi_en__tant_que_service__copy_8_0_Layer0_0_MEMBER_23_FILL"/>
</g>

<g transform="matrix( 1.00018310546875, 0, 0, 1.00018310546875, 48.25,10.8) ">
<use xlink:href="#BDM_160x600_FR_psd_Asset_8_V7_4_footer_copy_3_Faites_en_plus_avec_le_Wi_Fi_en__tant_que_service__copy_8_0_Layer0_0_MEMBER_24_FILL"/>
</g>

<g transform="matrix( 1.00018310546875, 0, 0, 1.00018310546875, 48.25,10.8) ">
<use xlink:href="#BDM_160x600_FR_psd_Asset_8_V7_4_footer_copy_3_Faites_en_plus_avec_le_Wi_Fi_en__tant_que_service__copy_8_0_Layer0_0_MEMBER_25_FILL"/>
</g>

<g transform="matrix( 1.00018310546875, 0, 0, 1.00018310546875, 48.25,10.8) ">
<use xlink:href="#BDM_160x600_FR_psd_Asset_8_V7_4_footer_copy_3_Faites_en_plus_avec_le_Wi_Fi_en__tant_que_service__copy_8_0_Layer0_0_MEMBER_26_FILL"/>
</g>

<g transform="matrix( 1.00018310546875, 0, 0, 1.00018310546875, 48.25,10.8) ">
<use xlink:href="#BDM_160x600_FR_psd_Asset_8_V7_4_footer_copy_3_Faites_en_plus_avec_le_Wi_Fi_en__tant_que_service__copy_8_0_Layer0_0_MEMBER_27_FILL"/>
</g>

<g transform="matrix( 1.00018310546875, 0, 0, 1.00018310546875, 48.25,10.8) ">
<use xlink:href="#BDM_160x600_FR_psd_Asset_8_V7_4_footer_copy_3_Faites_en_plus_avec_le_Wi_Fi_en__tant_que_service__copy_8_0_Layer0_0_MEMBER_28_FILL"/>
</g>

<g transform="matrix( 1.00018310546875, 0, 0, 1.00018310546875, 48.25,10.8) ">
<use xlink:href="#BDM_160x600_FR_psd_Asset_8_V7_4_footer_copy_3_Faites_en_plus_avec_le_Wi_Fi_en__tant_que_service__copy_8_0_Layer0_0_MEMBER_29_FILL"/>
</g>

<g transform="matrix( 1.00018310546875, 0, 0, 1.00018310546875, 48.25,10.8) ">
<use xlink:href="#BDM_160x600_FR_psd_Asset_8_V7_4_footer_copy_3_Faites_en_plus_avec_le_Wi_Fi_en__tant_que_service__copy_8_0_Layer0_0_MEMBER_30_FILL"/>
</g>

<g transform="matrix( 1.00018310546875, 0, 0, 1.00018310546875, 48.25,10.8) ">
<use xlink:href="#BDM_160x600_FR_psd_Asset_8_V7_4_footer_copy_3_Faites_en_plus_avec_le_Wi_Fi_en__tant_que_service__copy_8_0_Layer0_0_MEMBER_31_FILL"/>
</g>

<g transform="matrix( 1.00018310546875, 0, 0, 1.00018310546875, 48.25,10.8) ">
<use xlink:href="#BDM_160x600_FR_psd_Asset_8_V7_4_footer_copy_3_Faites_en_plus_avec_le_Wi_Fi_en__tant_que_service__copy_8_0_Layer0_0_MEMBER_32_FILL"/>
</g>

<g transform="matrix( 1.00018310546875, 0, 0, 1.00018310546875, 48.25,10.8) ">
<use xlink:href="#BDM_160x600_FR_psd_Asset_8_V7_4_footer_copy_3_Faites_en_plus_avec_le_Wi_Fi_en__tant_que_service__copy_8_0_Layer0_0_MEMBER_33_FILL"/>
</g>

<g transform="matrix( 1.00018310546875, 0, 0, 1.00018310546875, 48.25,10.8) ">
<use xlink:href="#BDM_160x600_FR_psd_Asset_8_V7_4_footer_copy_3_Faites_en_plus_avec_le_Wi_Fi_en__tant_que_service__copy_8_0_Layer0_0_MEMBER_34_FILL"/>
</g>

<g transform="matrix( 1.00018310546875, 0, 0, 1.00018310546875, 48.25,10.8) ">
<use xlink:href="#BDM_160x600_FR_psd_Asset_8_V7_4_footer_copy_3_Faites_en_plus_avec_le_Wi_Fi_en__tant_que_service__copy_8_0_Layer0_0_MEMBER_35_FILL"/>
</g>

<g transform="matrix( 1.00018310546875, 0, 0, 1.00018310546875, 48.25,10.8) ">
<use xlink:href="#BDM_160x600_FR_psd_Asset_8_V7_4_footer_copy_3_Faites_en_plus_avec_le_Wi_Fi_en__tant_que_service__copy_8_0_Layer0_0_MEMBER_36_FILL"/>
</g>

<g transform="matrix( 1.00018310546875, 0, 0, 1.00018310546875, 48.25,10.8) ">
<use xlink:href="#BDM_160x600_FR_psd_Asset_8_V7_4_footer_copy_3_Faites_en_plus_avec_le_Wi_Fi_en__tant_que_service__copy_8_0_Layer0_0_MEMBER_37_FILL"/>
</g>

<g transform="matrix( 1.00018310546875, 0, 0, 1.00018310546875, 48.25,10.8) ">
<use xlink:href="#BDM_160x600_FR_psd_Asset_8_V7_4_footer_copy_3_Faites_en_plus_avec_le_Wi_Fi_en__tant_que_service__copy_8_0_Layer0_0_MEMBER_38_FILL"/>
</g>

<g transform="matrix( 1.00018310546875, 0, 0, 1.00018310546875, 48.25,10.8) ">
<use xlink:href="#BDM_160x600_FR_psd_Asset_8_V7_4_footer_copy_3_Faites_en_plus_avec_le_Wi_Fi_en__tant_que_service__copy_8_0_Layer0_0_MEMBER_39_FILL"/>
</g>

<g transform="matrix( 1.00018310546875, 0, 0, 1.00018310546875, 48.25,10.8) ">
<use xlink:href="#BDM_160x600_FR_psd_Asset_8_V7_4_footer_copy_3_Faites_en_plus_avec_le_Wi_Fi_en__tant_que_service__copy_8_0_Layer0_0_MEMBER_40_FILL"/>
</g>
</g>
</g>
</g>
</g>
</svg>
