
<svg xmlns="http://www.w3.org/2000/svg" version="1.1" xmlns:xlink="http://www.w3.org/1999/xlink" preserveAspectRatio="none" x="0px" y="0px" width="640px" height="480px" viewBox="0 0 640 480">
<defs>
<g id="IT_640x480_FR_psd_Asset_B___V6_1_Choisir_le_bon_fournisseur_de__Wi_Fi_g_r__pour_votre_entreprise_0_Layer0_0_MEMBER_0_FILL">
<path fill="#D82C26" stroke="none" d="
M 7.25 -8.95
Q 6.35 -9.25 5.45 -9.25 4.1 -9.25 3.05 -8.65 2 -7.95 1.4 -6.95 0.8 -5.8 0.8 -4.5 0.8 -3.15 1.4 -2.05 2 -1.05 3.05 -0.35 4.1 0.25 5.45 0.25 6.25 0.25 7.3 -0.1 8.05 -0.45 8.65 -0.95
L 8.45 -1.65
Q 7.9 -1.1 7.15 -0.8 6.4 -0.45 5.5 -0.45 4.4 -0.45 3.45 -1 2.55 -1.5 2.1 -2.45 1.6 -3.3 1.6 -4.5 1.6 -5.6 2.1 -6.55 2.55 -7.5 3.45 -8 4.4 -8.55 5.5 -8.55 6.4 -8.55 7.1 -8.2 7.9 -7.9 8.35 -7.4
L 8.6 -8.15
Q 8.1 -8.65 7.25 -8.95 Z"/>
</g>

<g id="IT_640x480_FR_psd_Asset_B___V6_1_Choisir_le_bon_fournisseur_de__Wi_Fi_g_r__pour_votre_entreprise_0_Layer0_0_MEMBER_1_FILL">
<path fill="#D82C26" stroke="none" d="
M 14.8 -3.65
Q 14.8 -4.7 14.25 -5.4 13.75 -6.15 12.6 -6.15 11.95 -6.15 11.3 -5.75 10.75 -5.4 10.5 -4.7
L 10.45 -4.7 10.45 -9.7 9.7 -9.6 9.7 0 10.45 0 10.45 -2.9
Q 10.45 -3.65 10.7 -4.3 11 -4.9 11.45 -5.2 11.9 -5.5 12.45 -5.5 13.35 -5.5 13.7 -4.9 14.05 -4.35 14.05 -3.45
L 14.05 0 14.8 0 14.8 -3.65 Z"/>
</g>

<g id="IT_640x480_FR_psd_Asset_B___V6_1_Choisir_le_bon_fournisseur_de__Wi_Fi_g_r__pour_votre_entreprise_0_Layer0_0_MEMBER_2_FILL">
<path fill="#D82C26" stroke="none" d="
M 17.6 -5.75
Q 16.9 -5.3 16.45 -4.6 16.05 -3.9 16.05 -3 16.05 -2.15 16.45 -1.35 17 -0.55 17.6 -0.25 18.3 0.2 19.2 0.2 20.1 0.2 20.85 -0.25 21.55 -0.65 21.95 -1.35 22.4 -2.1 22.4 -3 22.4 -3.9 21.95 -4.6 21.65 -5.2 20.85 -5.75 20.05 -6.15 19.2 -6.15 18.3 -6.15 17.6 -5.75
M 17.95 -5.15
Q 18.45 -5.5 19.2 -5.5 19.95 -5.5 20.5 -5.15 21.05 -4.85 21.35 -4.25 21.65 -3.7 21.65 -3 21.65 -2.3 21.35 -1.7 21.05 -1.2 20.5 -0.8 19.95 -0.45 19.2 -0.45 18.45 -0.45 17.95 -0.8 17.45 -1.1 17.1 -1.7 16.8 -2.3 16.8 -3 16.8 -3.7 17.1 -4.25 17.4 -4.9 17.95 -5.15 Z"/>
</g>

<g id="IT_640x480_FR_psd_Asset_B___V6_1_Choisir_le_bon_fournisseur_de__Wi_Fi_g_r__pour_votre_entreprise_0_Layer0_0_MEMBER_3_FILL">
<path fill="#D82C26" stroke="none" d="
M 24.4 -5.95
L 23.65 -5.95 23.65 0 24.4 0 24.4 -5.95
M 24.05 -7.8
Q 24.25 -7.8 24.4 -7.95 24.55 -8.1 24.55 -8.35 24.55 -8.55 24.4 -8.7 24.25 -8.85 24.05 -8.85 23.8 -8.85 23.65 -8.7 23.5 -8.55 23.5 -8.35 23.5 -8.1 23.65 -7.95 23.8 -7.8 24.05 -7.8 Z"/>
</g>

<g id="IT_640x480_FR_psd_Asset_B___V6_1_Choisir_le_bon_fournisseur_de__Wi_Fi_g_r__pour_votre_entreprise_0_Layer0_0_MEMBER_4_FILL">
<path fill="#D82C26" stroke="none" d="
M 29.6 -5.5
L 28.75 -5.95
Q 28.15 -6.15 27.7 -6.15 27.15 -6.15 26.75 -5.95 26.35 -5.8 26 -5.4 25.75 -5 25.75 -4.5 25.75 -3.85 26.15 -3.45 26.6 -3.1 27.45 -2.8 28.15 -2.6 28.7 -2.25 29.05 -2.05 29.05 -1.55 29.05 -0.95 28.65 -0.7 28.3 -0.4 27.75 -0.4 26.6 -0.4 25.75 -1.15
L 25.6 -0.5
Q 25.95 -0.25 26.55 0 27.1 0.15 27.75 0.15 28.35 0.15 28.75 -0.05 29.15 -0.2 29.5 -0.6 29.8 -1.05 29.8 -1.55 29.8 -2.2 29.35 -2.6 29 -2.95 27.95 -3.3
L 26.75 -3.85
Q 26.45 -4.05 26.45 -4.55 26.45 -5 26.8 -5.3 27.2 -5.55 27.75 -5.55 28.15 -5.55 28.6 -5.4 29.25 -5 29.3 -4.95
L 29.6 -5.5 Z"/>
</g>

<g id="IT_640x480_FR_psd_Asset_B___V6_1_Choisir_le_bon_fournisseur_de__Wi_Fi_g_r__pour_votre_entreprise_0_Layer0_0_MEMBER_5_FILL">
<path fill="#D82C26" stroke="none" d="
M 31.7 -5.95
L 30.95 -5.95 30.95 0 31.7 0 31.7 -5.95
M 31.3 -7.8
Q 31.55 -7.8 31.7 -7.95 31.85 -8.1 31.85 -8.35 31.85 -8.55 31.7 -8.7 31.55 -8.85 31.3 -8.85 31.1 -8.85 30.95 -8.7 30.8 -8.55 30.8 -8.35 30.8 -8.1 30.95 -7.95 31.1 -7.8 31.3 -7.8 Z"/>
</g>

<g id="IT_640x480_FR_psd_Asset_B___V6_1_Choisir_le_bon_fournisseur_de__Wi_Fi_g_r__pour_votre_entreprise_0_Layer0_0_MEMBER_6_FILL">
<path fill="#D82C26" stroke="none" d="
M 34.05 -5.95
L 33.35 -5.95 33.4 0 34.15 0 34.15 -2.95
Q 34.15 -4 34.6 -4.75 35.05 -5.45 35.85 -5.45
L 36.35 -5.4 36.5 -6
Q 36.2 -6.15 35.9 -6.15 35.4 -6.15 34.85 -5.75 34.4 -5.35 34.15 -4.65
L 34.1 -4.65 34.05 -5.95 Z"/>
</g>

<g id="IT_640x480_FR_psd_Asset_B___V6_1_Choisir_le_bon_fournisseur_de__Wi_Fi_g_r__pour_votre_entreprise_0_Layer0_0_MEMBER_7_FILL">
<path fill="#D82C26" stroke="none" d="
M 39.9 -1.3
Q 39.9 -0.75 40.15 -0.35 40.55 0.05 40.85 0.15
L 41.2 -0.5
Q 40.9 -0.65 40.75 -0.85
L 40.65 -1.5 40.65 -9.7 39.9 -9.55 39.9 -1.3 Z"/>
</g>

<g id="IT_640x480_FR_psd_Asset_B___V6_1_Choisir_le_bon_fournisseur_de__Wi_Fi_g_r__pour_votre_entreprise_0_Layer0_0_MEMBER_8_FILL">
<path fill="#D82C26" stroke="none" d="
M 44.9 -6.15
Q 44.1 -6.15 43.4 -5.75 42.7 -5.3 42.35 -4.65 41.95 -3.85 41.95 -3 41.95 -2.15 42.35 -1.35 42.75 -0.65 43.45 -0.25 44.15 0.2 45 0.2 46.45 0.2 47.4 -0.55
L 47.25 -1.2
Q 46.8 -0.85 46.3 -0.65 45.75 -0.45 45.05 -0.45 44.4 -0.45 43.85 -0.75 43.3 -1.15 43 -1.65 42.7 -2.15 42.7 -2.85
L 47.75 -2.85 47.75 -3.2
Q 47.75 -4.05 47.4 -4.7 47.1 -5.35 46.45 -5.75 45.75 -6.15 44.9 -6.15
M 43.75 -5.2
Q 44.15 -5.55 44.9 -5.55 45.85 -5.55 46.45 -4.95 46.95 -4.45 47.05 -3.4
L 42.7 -3.4
Q 42.7 -3.85 43 -4.4 43.25 -4.9 43.75 -5.2 Z"/>
</g>

<g id="IT_640x480_FR_psd_Asset_B___V6_1_Choisir_le_bon_fournisseur_de__Wi_Fi_g_r__pour_votre_entreprise_0_Layer0_0_MEMBER_9_FILL">
<path fill="#D82C26" stroke="none" d="
M 52.55 -9.75
L 51.8 -9.6 51.75 0 52.4 0 52.5 -1.3 52.55 -1.3
Q 52.85 -0.7 53.55 -0.2 54.2 0.15 55 0.15 55.95 0.15 56.55 -0.25 57.2 -0.6 57.6 -1.4 57.95 -2.05 57.95 -2.95 57.95 -3.9 57.6 -4.6 57.2 -5.35 56.55 -5.7 55.9 -6.15 55 -6.15 54.25 -6.15 53.6 -5.75 52.9 -5.35 52.55 -4.65
L 52.55 -9.75
M 53.65 -5.15
Q 54.2 -5.5 54.85 -5.5 55.6 -5.5 56.1 -5.15 56.6 -4.85 56.95 -4.25 57.2 -3.75 57.2 -2.95 57.2 -2.2 56.95 -1.7 56.65 -1.2 56.1 -0.8 55.6 -0.45 54.85 -0.45 54.2 -0.45 53.65 -0.8 53.15 -1.15 52.85 -1.7 52.5 -2.25 52.5 -2.95 52.5 -3.7 52.85 -4.25 53.25 -4.9 53.65 -5.15 Z"/>
</g>

<g id="IT_640x480_FR_psd_Asset_B___V6_1_Choisir_le_bon_fournisseur_de__Wi_Fi_g_r__pour_votre_entreprise_0_Layer0_0_MEMBER_10_FILL">
<path fill="#D82C26" stroke="none" d="
M 59.3 -1.35
Q 59.7 -0.65 60.4 -0.25 61.15 0.2 62.05 0.2 63 0.2 63.65 -0.25 64.4 -0.6 64.8 -1.35 65.2 -2 65.2 -3 65.2 -4 64.8 -4.6 64.45 -5.25 63.65 -5.75 62.95 -6.15 62.05 -6.15 61.2 -6.15 60.4 -5.75 59.6 -5.2 59.3 -4.6 58.9 -4 58.9 -3 58.9 -2 59.3 -1.35
M 59.65 -3
Q 59.65 -3.8 59.9 -4.25 60.2 -4.85 60.75 -5.15 61.3 -5.5 62.05 -5.5 62.8 -5.5 63.3 -5.15 63.85 -4.9 64.15 -4.25 64.45 -3.7 64.45 -3 64.45 -2.35 64.2 -1.7 63.9 -1.2 63.35 -0.8 62.8 -0.45 62.05 -0.45 61.3 -0.45 60.75 -0.8 60.2 -1.2 59.9 -1.7 59.65 -2.2 59.65 -3 Z"/>
</g>

<g id="IT_640x480_FR_psd_Asset_B___V6_1_Choisir_le_bon_fournisseur_de__Wi_Fi_g_r__pour_votre_entreprise_0_Layer0_0_MEMBER_11_FILL">
<path fill="#D82C26" stroke="none" d="
M 70.5 -4.9
Q 70.85 -4.35 70.85 -3.45
L 70.85 0 71.6 0 71.6 -3.65
Q 71.6 -4.75 71.1 -5.4 70.5 -6.15 69.4 -6.15 68.75 -6.15 68.1 -5.75 67.55 -5.35 67.25 -4.65
L 67.15 -5.95 66.45 -5.95 66.5 0 67.25 0 67.25 -3.05
Q 67.25 -3.8 67.55 -4.35 67.75 -4.85 68.25 -5.2 68.7 -5.5 69.25 -5.5 70.15 -5.5 70.5 -4.9 Z"/>
</g>

<g id="IT_640x480_FR_psd_Asset_B___V6_1_Choisir_le_bon_fournisseur_de__Wi_Fi_g_r__pour_votre_entreprise_0_Layer0_0_MEMBER_12_FILL">
<path fill="#D82C26" stroke="none" d="
M 76.85 -9.25
Q 76.35 -8.75 76.35 -7.7
L 76.35 -5.95 75.25 -5.95 75.1 -5.35 76.35 -5.35 76.35 0 77.1 0 77.1 -5.35 78.5 -5.35 78.65 -5.95 77.1 -5.95 77.1 -7.65
Q 77.1 -8.25 77.35 -8.75 77.65 -9.15 78.25 -9.15
L 79.2 -9 79.3 -9.65 78.8 -9.75 78.2 -9.75
Q 77.3 -9.75 76.85 -9.25 Z"/>
</g>

<g id="IT_640x480_FR_psd_Asset_B___V6_1_Choisir_le_bon_fournisseur_de__Wi_Fi_g_r__pour_votre_entreprise_0_Layer0_0_MEMBER_13_FILL">
<path fill="#D82C26" stroke="none" d="
M 79.15 -1.35
Q 79.65 -0.6 80.3 -0.25 81.05 0.2 81.9 0.2 82.8 0.2 83.55 -0.25 84.2 -0.55 84.7 -1.35 85.1 -2.15 85.1 -3 85.1 -3.9 84.7 -4.6 84.25 -5.3 83.55 -5.75 82.75 -6.15 81.9 -6.15 81.1 -6.15 80.3 -5.75 79.55 -5.25 79.15 -4.6 78.75 -3.9 78.75 -3 78.75 -2.15 79.15 -1.35
M 79.8 -4.25
Q 80.1 -4.85 80.65 -5.15 81.15 -5.5 81.9 -5.5 82.7 -5.5 83.2 -5.15 83.75 -4.85 84.05 -4.25 84.35 -3.7 84.35 -3 84.35 -2.3 84.05 -1.7 83.7 -1.1 83.2 -0.8 82.7 -0.45 81.9 -0.45 81.15 -0.45 80.65 -0.8 80.1 -1.2 79.8 -1.7 79.5 -2.3 79.5 -3 79.5 -3.7 79.8 -4.25 Z"/>
</g>

<g id="IT_640x480_FR_psd_Asset_B___V6_1_Choisir_le_bon_fournisseur_de__Wi_Fi_g_r__pour_votre_entreprise_0_Layer0_0_MEMBER_14_FILL">
<path fill="#D82C26" stroke="none" d="
M 87.1 -5.95
L 86.35 -5.95 86.35 -2.35
Q 86.35 -1.2 86.85 -0.55 87.35 0.15 88.5 0.15 89.25 0.15 89.8 -0.25 90.45 -0.65 90.65 -1.3
L 90.8 0 91.55 0 91.4 -1.4 91.4 -5.95 90.65 -5.95 90.65 -3
Q 90.65 -2.1 90.4 -1.6 90.15 -1.05 89.7 -0.75 89.25 -0.45 88.7 -0.45 87.85 -0.45 87.45 -1.05 87.1 -1.6 87.1 -2.5
L 87.1 -5.95 Z"/>
</g>

<g id="IT_640x480_FR_psd_Asset_B___V6_1_Choisir_le_bon_fournisseur_de__Wi_Fi_g_r__pour_votre_entreprise_0_Layer0_0_MEMBER_15_FILL">
<path fill="#D82C26" stroke="none" d="
M 93.85 -4.65
L 93.8 -5.95 93.1 -5.95 93.15 0 93.9 0 93.9 -2.95
Q 93.9 -4 94.35 -4.75 94.8 -5.45 95.55 -5.45
L 96.1 -5.4 96.25 -6
Q 95.95 -6.15 95.6 -6.15 95.15 -6.15 94.6 -5.75 94.15 -5.45 93.9 -4.65
L 93.85 -4.65 Z"/>
</g>

<g id="IT_640x480_FR_psd_Asset_B___V6_1_Choisir_le_bon_fournisseur_de__Wi_Fi_g_r__pour_votre_entreprise_0_Layer0_0_MEMBER_16_FILL">
<path fill="#D82C26" stroke="none" d="
M 99.85 -5.5
Q 100.75 -5.5 101.1 -4.9 101.45 -4.35 101.45 -3.45
L 101.45 0 102.2 0 102.2 -3.65
Q 102.2 -4.7 101.65 -5.4 101.15 -6.15 100 -6.15 99.35 -6.15 98.7 -5.75 98.05 -5.25 97.85 -4.65
L 97.8 -4.65 97.75 -5.95 97.05 -5.95 97.1 0 97.85 0 97.85 -3.05
Q 97.85 -3.75 98.1 -4.35 98.35 -4.85 98.85 -5.2 99.3 -5.5 99.85 -5.5 Z"/>
</g>

<g id="IT_640x480_FR_psd_Asset_B___V6_1_Choisir_le_bon_fournisseur_de__Wi_Fi_g_r__pour_votre_entreprise_0_Layer0_0_MEMBER_17_FILL">
<path fill="#D82C26" stroke="none" d="
M 104.6 -5.95
L 103.85 -5.95 103.85 0 104.6 0 104.6 -5.95
M 104.2 -7.8
Q 104.4 -7.8 104.6 -7.95 104.75 -8.1 104.75 -8.35 104.75 -8.55 104.6 -8.7 104.4 -8.85 104.2 -8.85 104 -8.85 103.85 -8.7 103.65 -8.55 103.65 -8.35 103.65 -8.1 103.85 -7.95 104 -7.8 104.2 -7.8 Z"/>
</g>

<g id="IT_640x480_FR_psd_Asset_B___V6_1_Choisir_le_bon_fournisseur_de__Wi_Fi_g_r__pour_votre_entreprise_0_Layer0_0_MEMBER_18_FILL">
<path fill="#D82C26" stroke="none" d="
M 105.95 -1.15
L 105.8 -0.5
Q 106.1 -0.25 106.7 0 107.3 0.15 107.95 0.15 108.5 0.15 108.9 -0.05 109.4 -0.2 109.65 -0.6 109.95 -1.05 109.95 -1.55 109.95 -2.2 109.5 -2.6 109.1 -3 108.1 -3.3 107.3 -3.6 106.95 -3.85 106.6 -4.05 106.6 -4.55 106.6 -5 107 -5.3 107.4 -5.55 107.9 -5.55 108.4 -5.55 108.75 -5.4 109.4 -5 109.45 -4.95
L 109.8 -5.5 108.95 -5.95
Q 108.25 -6.15 107.9 -6.15 107.35 -6.15 106.95 -5.95 106.55 -5.8 106.2 -5.4 105.9 -5 105.9 -4.5 105.9 -3.8 106.35 -3.45 106.65 -3.15 107.6 -2.8 108.4 -2.6 108.85 -2.25 109.25 -2 109.25 -1.55 109.25 -1 108.85 -0.7 108.5 -0.4 107.9 -0.4 106.8 -0.4 105.95 -1.15 Z"/>
</g>

<g id="IT_640x480_FR_psd_Asset_B___V6_1_Choisir_le_bon_fournisseur_de__Wi_Fi_g_r__pour_votre_entreprise_0_Layer0_0_MEMBER_19_FILL">
<path fill="#D82C26" stroke="none" d="
M 110.9 -1.15
L 110.75 -0.5
Q 111.1 -0.25 111.7 0 112.25 0.15 112.9 0.15 113.45 0.15 113.9 -0.05 114.3 -0.2 114.65 -0.6 114.9 -1.1 114.9 -1.55 114.9 -2.2 114.45 -2.6 114.15 -2.95 113.1 -3.3 112.4 -3.55 111.9 -3.85 111.6 -4.05 111.6 -4.55 111.6 -5 111.95 -5.3 112.35 -5.55 112.85 -5.55 113.35 -5.55 113.7 -5.4 114.2 -5.15 114.4 -4.95
L 114.75 -5.5 113.9 -5.95
Q 113.2 -6.15 112.85 -6.15 112.3 -6.15 111.9 -5.95 111.5 -5.8 111.15 -5.4 110.9 -5.1 110.9 -4.5 110.9 -3.8 111.3 -3.45 111.7 -3.1 112.55 -2.8 113.35 -2.6 113.8 -2.25 114.2 -2.05 114.2 -1.55 114.2 -0.95 113.8 -0.7 113.45 -0.4 112.85 -0.4 111.75 -0.4 110.9 -1.15 Z"/>
</g>

<g id="IT_640x480_FR_psd_Asset_B___V6_1_Choisir_le_bon_fournisseur_de__Wi_Fi_g_r__pour_votre_entreprise_0_Layer0_0_MEMBER_20_FILL">
<path fill="#D82C26" stroke="none" d="
M 115.75 -3
Q 115.75 -2 116.15 -1.35 116.55 -0.6 117.2 -0.25 117.95 0.2 118.8 0.2 120.2 0.2 121.15 -0.55
L 121.05 -1.2
Q 120.45 -0.8 120.05 -0.65 119.6 -0.45 118.85 -0.45 118.2 -0.45 117.6 -0.75 117.1 -1.1 116.8 -1.65 116.45 -2.15 116.45 -2.85
L 121.5 -2.85 121.5 -3.2
Q 121.5 -4 121.2 -4.7 120.8 -5.4 120.2 -5.75 119.55 -6.15 118.7 -6.15 117.9 -6.15 117.2 -5.75 116.55 -5.3 116.1 -4.65 115.75 -3.95 115.75 -3
M 120.2 -4.95
Q 120.8 -4.4 120.8 -3.4
L 116.45 -3.4
Q 116.5 -3.85 116.75 -4.4 117.1 -4.95 117.5 -5.2 118 -5.55 118.7 -5.55 119.7 -5.55 120.2 -4.95 Z"/>
</g>

<g id="IT_640x480_FR_psd_Asset_B___V6_1_Choisir_le_bon_fournisseur_de__Wi_Fi_g_r__pour_votre_entreprise_0_Layer0_0_MEMBER_21_FILL">
<path fill="#D82C26" stroke="none" d="
M 122.7 -2.35
Q 122.7 -1.25 123.25 -0.55 123.75 0.15 124.9 0.15 125.65 0.15 126.2 -0.25 126.85 -0.65 127.05 -1.3
L 127.15 0 127.9 0 127.8 -0.7 127.8 -5.95 127.05 -5.95 127.05 -3
Q 127.05 -2.25 126.8 -1.6 126.45 -1 126.1 -0.75 125.65 -0.45 125.05 -0.45 124.2 -0.45 123.8 -1.05 123.45 -1.6 123.45 -2.5
L 123.45 -5.95 122.7 -5.95 122.7 -2.35 Z"/>
</g>

<g id="IT_640x480_FR_psd_Asset_B___V6_1_Choisir_le_bon_fournisseur_de__Wi_Fi_g_r__pour_votre_entreprise_0_Layer0_0_MEMBER_22_FILL">
<path fill="#D82C26" stroke="none" d="
M 130.15 -5.95
L 129.45 -5.95 129.5 0 130.25 0 130.25 -2.95
Q 130.25 -4 130.7 -4.75 131.15 -5.45 131.95 -5.45
L 132.5 -5.4 132.65 -6
Q 132.35 -6.15 132 -6.15 131.5 -6.15 131 -5.75 130.5 -5.4 130.25 -4.65
L 130.15 -5.95 Z"/>
</g>

<g id="IT_640x480_FR_psd_Asset_B___V6_1_Choisir_le_bon_fournisseur_de__Wi_Fi_g_r__pour_votre_entreprise_0_Layer0_0_MEMBER_23_FILL">
<path fill="#D82C26" stroke="none" d="
M 141.7 -9.75
L 140.95 -9.6 140.95 -4.65
Q 140.6 -5.35 139.95 -5.75 139.25 -6.15 138.55 -6.15 137.7 -6.15 136.95 -5.7 136.3 -5.35 135.9 -4.6 135.55 -3.9 135.55 -2.95 135.55 -2.05 135.9 -1.4 136.3 -0.6 136.95 -0.25 137.6 0.15 138.55 0.15 139.3 0.15 139.95 -0.2 140.65 -0.6 140.95 -1.3
L 141 -1.3 141.05 0 141.75 0 141.7 -9.75
M 136.3 -2.95
Q 136.3 -3.65 136.6 -4.25 136.85 -4.85 137.4 -5.15 137.9 -5.5 138.65 -5.5 139.35 -5.5 139.85 -5.15 140.35 -4.85 140.7 -4.25 141 -3.65 141 -2.95 141 -2.3 140.7 -1.7 140.4 -1.2 139.85 -0.8 139.35 -0.45 138.65 -0.45 137.9 -0.45 137.4 -0.8 136.8 -1.15 136.6 -1.7 136.3 -2.3 136.3 -2.95 Z"/>
</g>

<g id="IT_640x480_FR_psd_Asset_B___V6_1_Choisir_le_bon_fournisseur_de__Wi_Fi_g_r__pour_votre_entreprise_0_Layer0_0_MEMBER_24_FILL">
<path fill="#D82C26" stroke="none" d="
M 145.95 -6.15
Q 145.15 -6.15 144.45 -5.75 143.75 -5.3 143.4 -4.65 143 -3.85 143 -3 143 -2.15 143.4 -1.35 143.8 -0.65 144.5 -0.25 145.2 0.2 146.05 0.2 147.5 0.2 148.45 -0.55
L 148.3 -1.2
Q 147.85 -0.85 147.35 -0.65 146.8 -0.45 146.1 -0.45 145.45 -0.45 144.9 -0.75 144.35 -1.15 144.05 -1.65 143.75 -2.15 143.75 -2.85
L 148.8 -2.85 148.8 -3.2
Q 148.8 -4.05 148.45 -4.7 148.15 -5.35 147.5 -5.75 146.8 -6.15 145.95 -6.15
M 144.8 -5.2
Q 145.2 -5.55 145.95 -5.55 146.9 -5.55 147.5 -4.95 148 -4.45 148.1 -3.4
L 143.75 -3.4
Q 143.75 -3.85 144.05 -4.4 144.3 -4.9 144.8 -5.2 Z"/>
</g>

<g id="IT_640x480_FR_psd_Asset_B___V6_1_Choisir_le_bon_fournisseur_de__Wi_Fi_g_r__pour_votre_entreprise_0_Layer0_0_MEMBER_25_FILL">
<path fill="#D82C26" stroke="none" d="
M 12.1 5.85
L 11.3 5.85 9 13.85 8.95 13.85 6.6 5.85 5.7 5.85 3.4 13.85 3.35 13.85 1.05 5.85 0.25 5.85 2.9 14.85 3.8 14.85 6.15 6.8 6.2 6.8 8.55 14.85 9.45 14.85 12.1 5.85 Z"/>
</g>

<g id="IT_640x480_FR_psd_Asset_B___V6_1_Choisir_le_bon_fournisseur_de__Wi_Fi_g_r__pour_votre_entreprise_0_Layer0_0_MEMBER_26_FILL">
<path fill="#D82C26" stroke="none" d="
M 13.85 8.9
L 13.1 8.9 13.1 14.85 13.85 14.85 13.85 8.9
M 13.85 6.1
Q 13.7 5.95 13.45 5.95 13.25 5.95 13.1 6.1 12.95 6.25 12.95 6.5 12.95 6.7 13.1 6.9 13.25 7.05 13.45 7.05 13.7 7.05 13.85 6.9 14 6.7 14 6.5 14 6.25 13.85 6.1 Z"/>
</g>

<g id="IT_640x480_FR_psd_Asset_B___V6_1_Choisir_le_bon_fournisseur_de__Wi_Fi_g_r__pour_votre_entreprise_0_Layer0_0_MEMBER_27_FILL">
<path fill="#D82C26" stroke="none" d="
M 15.2 11.3
L 15.2 11.95 17.8 11.95 17.8 11.3 15.2 11.3 Z"/>
</g>

<g id="IT_640x480_FR_psd_Asset_B___V6_1_Choisir_le_bon_fournisseur_de__Wi_Fi_g_r__pour_votre_entreprise_0_Layer0_0_MEMBER_28_FILL">
<path fill="#D82C26" stroke="none" d="
M 23.7 10.55
L 23.85 9.9 20.2 9.9 20.2 6.5 24 6.5 24.05 5.85 19.45 5.85 19.45 14.85 20.2 14.85 20.2 10.55 23.7 10.55 Z"/>
</g>

<g id="IT_640x480_FR_psd_Asset_B___V6_1_Choisir_le_bon_fournisseur_de__Wi_Fi_g_r__pour_votre_entreprise_0_Layer0_0_MEMBER_29_FILL">
<path fill="#D82C26" stroke="none" d="
M 26 8.9
L 25.25 8.9 25.25 14.85 26 14.85 26 8.9
M 26 6.1
L 25.65 5.95
Q 25.4 5.95 25.25 6.1 25.1 6.25 25.1 6.5 25.1 6.7 25.25 6.9 25.4 7.05 25.65 7.05
L 26 6.9
Q 26.15 6.7 26.15 6.5 26.15 6.25 26 6.1 Z"/>
</g>

<g id="IT_640x480_FR_psd_Asset_B___V6_1_Choisir_le_bon_fournisseur_de__Wi_Fi_g_r__pour_votre_entreprise_0_Layer0_0_MEMBER_30_FILL">
<path fill="#D82C26" stroke="none" d="
M 34.45 9.1
Q 33.75 8.7 33.05 8.7 32.2 8.7 31.5 9.1 30.85 9.55 30.45 10.25 30.05 11.05 30.05 11.85 30.05 12.7 30.45 13.4 30.8 14.1 31.5 14.55 32.2 14.95 33.05 14.95 33.75 14.95 34.45 14.55 35.15 14.15 35.45 13.5
L 35.5 13.5 35.5 14.75
Q 35.5 15.9 34.9 16.65 34.3 17.3 33 17.3 32.3 17.3 31.75 17.1 31.2 16.9 30.55 16.55
L 30.45 17.25
Q 31.1 17.65 31.65 17.75 32.25 17.95 33.05 17.95 34.7 17.95 35.45 17.1 36.2 16.2 36.2 14.75
L 36.25 8.9 35.55 8.9 35.5 10.2 35.45 10.2
Q 35.15 9.5 34.45 9.1
M 34.35 9.65
Q 34.95 10.05 35.2 10.6 35.5 11.15 35.5 11.85 35.5 12.5 35.2 13.1 34.9 13.6 34.35 14 33.75 14.35 33.15 14.35 32.5 14.35 31.9 14 31.4 13.65 31.1 13.1 30.8 12.5 30.8 11.85 30.8 11.15 31.1 10.6 31.4 10 31.9 9.65 32.5 9.3 33.15 9.3 33.75 9.3 34.35 9.65 Z"/>
</g>

<g id="IT_640x480_FR_psd_Asset_B___V6_1_Choisir_le_bon_fournisseur_de__Wi_Fi_g_r__pour_votre_entreprise_0_Layer0_0_MEMBER_31_FILL">
<path fill="#D82C26" stroke="none" d="
M 42.95 10.15
Q 42.65 9.5 42 9.1 41.4 8.7 40.45 8.7 39.55 8.7 38.95 9.1 38.3 9.45 37.9 10.2 37.5 11 37.5 11.8 37.5 12.75 37.9 13.45 38.3 14.25 39 14.6 39.7 15 40.55 15 41.9 15 42.95 14.25
L 42.8 13.6
Q 42.55 13.85 41.85 14.15 41.2 14.4 40.6 14.4 39.9 14.4 39.4 14.05 38.85 13.75 38.55 13.2 38.3 12.65 38.2 11.95
L 43.25 11.95 43.3 11.65
Q 43.3 10.95 42.95 10.15
M 41.95 9.85
Q 42.55 10.45 42.55 11.4
L 38.25 11.4
Q 38.25 10.95 38.5 10.45 38.75 10 39.3 9.6 39.85 9.25 40.45 9.25 41.45 9.25 41.95 9.85
M 42.1 5.8
L 41.2 5.8 39.95 7.65 40.55 7.65 42.1 5.8 Z"/>
</g>

<g id="IT_640x480_FR_psd_Asset_B___V6_1_Choisir_le_bon_fournisseur_de__Wi_Fi_g_r__pour_votre_entreprise_0_Layer0_0_MEMBER_32_FILL">
<path fill="#D82C26" stroke="none" d="
M 45.2 8.9
L 44.5 8.9 44.55 14.85 45.3 14.85 45.3 11.85
Q 45.3 10.85 45.75 10.1 46.2 9.35 47 9.35
L 47.5 9.45 47.65 8.8 47.05 8.7
Q 46.55 8.7 46 9.1 45.5 9.5 45.3 10.15
L 45.25 10.15 45.2 8.9 Z"/>
</g>

<g id="IT_640x480_FR_psd_Asset_B___V6_1_Choisir_le_bon_fournisseur_de__Wi_Fi_g_r__pour_votre_entreprise_0_Layer0_0_MEMBER_33_FILL">
<path fill="#D82C26" stroke="none" d="
M 52.25 9.1
Q 51.7 8.7 50.75 8.7 49.85 8.7 49.25 9.1 48.55 9.5 48.15 10.2 47.8 10.9 47.8 11.8 47.8 12.8 48.15 13.45 48.65 14.25 49.25 14.6 49.95 15 50.85 15 52.25 15 53.2 14.25
L 53.1 13.6
Q 52.7 13.9 52.1 14.15 51.5 14.4 50.9 14.4 50.15 14.4 49.65 14.05 49.1 13.75 48.8 13.2 48.5 12.6 48.5 11.95
L 53.55 11.95 53.55 11.65
Q 53.55 10.85 53.25 10.15 52.85 9.45 52.25 9.1
M 52.25 9.85
Q 52.85 10.45 52.85 11.4
L 48.5 11.4
Q 48.6 10.9 48.8 10.45 48.95 10.1 49.55 9.6 50.15 9.25 50.75 9.25 51.65 9.25 52.25 9.85
M 52.35 5.8
L 51.5 5.8 50.2 7.65 50.8 7.65 52.35 5.8 Z"/>
</g>

<g id="IT_640x480_FR_psd_Asset_B___V6_1_Choisir_le_bon_fournisseur_de__Wi_Fi_g_r__pour_votre_entreprise_0_Layer0_0_MEMBER_34_FILL">
<path fill="#D82C26" stroke="none" d="
M 63.8 11.85
Q 63.8 10.95 63.4 10.25 63.05 9.6 62.35 9.1 61.65 8.7 60.8 8.7 60.05 8.7 59.35 9.1 58.65 9.55 58.4 10.2
L 58.35 10.2 58.3 8.9 57.55 8.9 57.6 17.9 58.35 17.9 58.35 13.55 58.4 13.55
Q 58.7 14.2 59.35 14.6 60.05 15 60.8 15 61.65 15 62.35 14.6 63.05 14.15 63.4 13.45 63.8 12.65 63.8 11.85
M 61.9 9.65
Q 62.5 10.05 62.75 10.6 63 11.2 63 11.85 63 12.5 62.75 13.1 62.5 13.65 61.9 14.05 61.4 14.35 60.7 14.35 60.05 14.35 59.5 14.05 58.95 13.7 58.65 13.1 58.35 12.6 58.35 11.85 58.35 11.15 58.65 10.6 58.95 10 59.5 9.65 60.1 9.3 60.7 9.3 61.3 9.3 61.9 9.65 Z"/>
</g>

<g id="IT_640x480_FR_psd_Asset_B___V6_1_Choisir_le_bon_fournisseur_de__Wi_Fi_g_r__pour_votre_entreprise_0_Layer0_0_MEMBER_35_FILL">
<path fill="#D82C26" stroke="none" d="
M 65.1 10.2
Q 64.7 11 64.7 11.85 64.7 12.75 65.1 13.45 65.6 14.25 66.25 14.6 66.95 15 67.85 15 68.7 15 69.5 14.6 70.25 14.2 70.6 13.45 71.05 12.8 71.05 11.85 71.05 10.95 70.6 10.2 70.2 9.5 69.5 9.1 68.85 8.7 67.85 8.7 66.85 8.7 66.25 9.1 65.65 9.4 65.1 10.2
M 65.45 11.85
Q 65.45 11.15 65.75 10.55 66.1 10 66.6 9.65 67.2 9.3 67.85 9.3 68.45 9.3 69.15 9.65 69.7 10.05 70 10.55 70.3 11.15 70.3 11.85 70.3 12.5 70 13.1 69.75 13.65 69.15 14.05 68.65 14.35 67.85 14.35 67.15 14.35 66.6 14.05 66.05 13.7 65.75 13.1 65.45 12.5 65.45 11.85 Z"/>
</g>

<g id="IT_640x480_FR_psd_Asset_B___V6_1_Choisir_le_bon_fournisseur_de__Wi_Fi_g_r__pour_votre_entreprise_0_Layer0_0_MEMBER_36_FILL">
<path fill="#D82C26" stroke="none" d="
M 73 8.9
L 72.25 8.9 72.25 12.5
Q 72.25 13.5 72.8 14.3 73.35 15 74.45 15 75.1 15 75.75 14.6 76.4 14.2 76.6 13.55
L 76.7 14.85 77.45 14.85 77.35 8.9 76.6 8.9 76.6 11.85
Q 76.6 12.55 76.35 13.2 76.05 13.85 75.65 14.1 75.2 14.4 74.6 14.4 73.75 14.4 73.35 13.8 73 13.1 73 12.3
L 73 8.9 Z"/>
</g>

<g id="IT_640x480_FR_psd_Asset_B___V6_1_Choisir_le_bon_fournisseur_de__Wi_Fi_g_r__pour_votre_entreprise_0_Layer0_0_MEMBER_37_FILL">
<path fill="#D82C26" stroke="none" d="
M 82.2 8.8
L 81.55 8.7
Q 81.05 8.7 80.55 9.1 80.05 9.5 79.8 10.15
L 79.7 8.9 79 8.9 79.1 14.85 79.85 14.85 79.85 11.85
Q 79.85 10.85 80.3 10.1 80.75 9.35 81.5 9.35
L 82.05 9.45 82.2 8.8 Z"/>
</g>

<g id="IT_640x480_FR_psd_Asset_B___V6_1_Choisir_le_bon_fournisseur_de__Wi_Fi_g_r__pour_votre_entreprise_0_Layer0_0_MEMBER_38_FILL">
<path fill="#D82C26" stroke="none" d="
M 84.5 8.9
L 86.8 14.85 87.65 14.85 89.85 8.9 89.1 8.9 87.2 14.1 85.3 8.9 84.5 8.9 Z"/>
</g>

<g id="IT_640x480_FR_psd_Asset_B___V6_1_Choisir_le_bon_fournisseur_de__Wi_Fi_g_r__pour_votre_entreprise_0_Layer0_0_MEMBER_39_FILL">
<path fill="#D82C26" stroke="none" d="
M 96 10.2
Q 95.6 9.5 94.9 9.1 94.25 8.7 93.25 8.7 92.25 8.7 91.65 9.1 91.05 9.4 90.5 10.2 90.1 11 90.1 11.85 90.1 12.75 90.5 13.45 91 14.25 91.65 14.6 92.35 15 93.25 15 94.1 15 94.9 14.6 95.65 14.2 96 13.45 96.45 12.8 96.45 11.85 96.45 10.95 96 10.2
M 91.15 10.55
Q 91.5 10 92 9.65 92.6 9.3 93.25 9.3 93.85 9.3 94.55 9.65 95.1 10.05 95.4 10.55 95.7 11.15 95.7 11.85 95.7 12.5 95.4 13.1 95.15 13.65 94.55 14.05 94.05 14.35 93.25 14.35 92.55 14.35 92 14.05 91.45 13.7 91.15 13.1 90.85 12.5 90.85 11.85 90.85 11.15 91.15 10.55 Z"/>
</g>

<g id="IT_640x480_FR_psd_Asset_B___V6_1_Choisir_le_bon_fournisseur_de__Wi_Fi_g_r__pour_votre_entreprise_0_Layer0_0_MEMBER_40_FILL">
<path fill="#D82C26" stroke="none" d="
M 97.75 8.9
L 96.8 8.9 96.65 9.45 97.75 9.45 97.75 13.4
Q 97.75 14.15 98.15 14.55 98.55 14.95 99.15 14.95
L 99.8 14.85
Q 100.25 14.75 100.4 14.65
L 100.3 14.1
Q 99.7 14.35 99.35 14.35 99 14.35 98.75 14.1 98.5 13.85 98.5 13.3
L 98.5 9.45 100.05 9.45 100.2 8.9 98.5 8.9 98.5 7.15 97.75 7.45 97.75 8.9 Z"/>
</g>

<g id="IT_640x480_FR_psd_Asset_B___V6_1_Choisir_le_bon_fournisseur_de__Wi_Fi_g_r__pour_votre_entreprise_0_Layer0_0_MEMBER_41_FILL">
<path fill="#D82C26" stroke="none" d="
M 101.95 8.9
L 101.25 8.9 101.3 14.85 102.05 14.85 102.05 11.85
Q 102.05 10.85 102.5 10.1 102.95 9.35 103.7 9.35
L 104.25 9.45 104.4 8.8 103.75 8.7
Q 103.25 8.7 102.75 9.1 102.3 9.45 102.05 10.15
L 102 10.15 101.95 8.9 Z"/>
</g>

<g id="IT_640x480_FR_psd_Asset_B___V6_1_Choisir_le_bon_fournisseur_de__Wi_Fi_g_r__pour_votre_entreprise_0_Layer0_0_MEMBER_42_FILL">
<path fill="#D82C26" stroke="none" d="
M 105.95 9.1
Q 105.3 9.45 104.9 10.2 104.5 11 104.5 11.8 104.5 12.75 104.9 13.45 105.25 14.2 106 14.6 106.7 15 107.55 15 109 15 109.95 14.25
L 109.8 13.6
Q 109.5 13.9 108.85 14.15 108.2 14.4 107.65 14.4 106.9 14.4 106.4 14.05 105.85 13.75 105.55 13.2 105.25 12.6 105.25 11.95
L 110.3 11.95 110.3 11.65
Q 110.3 10.8 109.95 10.15 109.65 9.5 109 9.1 108.4 8.7 107.45 8.7 106.55 8.7 105.95 9.1
M 105.55 10.45
Q 105.75 10 106.3 9.6 106.9 9.25 107.45 9.25 108.4 9.25 109 9.85 109.55 10.45 109.6 11.4
L 105.25 11.4
Q 105.25 10.9 105.55 10.45 Z"/>
</g>

<g id="IT_640x480_FR_psd_Asset_B___V6_1_Choisir_le_bon_fournisseur_de__Wi_Fi_g_r__pour_votre_entreprise_0_Layer0_0_MEMBER_43_FILL">
<path fill="#D82C26" stroke="none" d="
M 115.35 9.1
Q 114.75 9.45 114.25 10.2 113.9 10.9 113.9 11.8 113.9 12.85 114.3 13.45 114.7 14.25 115.35 14.6 116.15 15 116.95 15 118.35 15 119.3 14.25
L 119.2 13.6
Q 118.8 13.9 118.2 14.15 117.6 14.4 117 14.4 116.3 14.4 115.75 14.05 115.3 13.8 114.95 13.2 114.6 12.65 114.6 11.95
L 119.65 11.95 119.65 11.65
Q 119.65 10.85 119.35 10.15 118.95 9.45 118.35 9.1 117.8 8.7 116.85 8.7 115.95 8.7 115.35 9.1
M 114.9 10.45
Q 115.15 10 115.65 9.6 116.25 9.25 116.85 9.25 117.85 9.25 118.35 9.85 118.95 10.45 118.95 11.4
L 114.6 11.4
Q 114.7 10.9 114.9 10.45 Z"/>
</g>

<g id="IT_640x480_FR_psd_Asset_B___V6_1_Choisir_le_bon_fournisseur_de__Wi_Fi_g_r__pour_votre_entreprise_0_Layer0_0_MEMBER_44_FILL">
<path fill="#D82C26" stroke="none" d="
M 123.85 8.7
Q 123.2 8.7 122.55 9.1 121.9 9.5 121.7 10.15
L 121.65 10.15 121.6 8.9 120.9 8.9 120.95 14.85 121.7 14.85 121.7 11.8
Q 121.7 11.1 121.95 10.45 122.25 9.9 122.7 9.6 123.15 9.3 123.7 9.3 124.6 9.3 124.95 9.9 125.3 10.45 125.3 11.4
L 125.3 14.85 126.05 14.85 126.05 11.2
Q 126.05 10.2 125.5 9.4 124.95 8.7 123.85 8.7 Z"/>
</g>

<g id="IT_640x480_FR_psd_Asset_B___V6_1_Choisir_le_bon_fournisseur_de__Wi_Fi_g_r__pour_votre_entreprise_0_Layer0_0_MEMBER_45_FILL">
<path fill="#D82C26" stroke="none" d="
M 127.8 8.9
L 126.85 8.9 126.7 9.45 127.8 9.45 127.8 13.4
Q 127.8 14.2 128.15 14.55 128.55 14.95 129.2 14.95
L 129.85 14.85
Q 130.3 14.75 130.45 14.65
L 130.35 14.1
Q 129.75 14.35 129.4 14.35 129.1 14.35 128.75 14.1 128.55 13.85 128.55 13.3
L 128.55 9.45 130.05 9.45 130.25 8.9 128.55 8.9 128.55 7.15 127.8 7.45 127.8 8.9 Z"/>
</g>

<g id="IT_640x480_FR_psd_Asset_B___V6_1_Choisir_le_bon_fournisseur_de__Wi_Fi_g_r__pour_votre_entreprise_0_Layer0_0_MEMBER_46_FILL">
<path fill="#D82C26" stroke="none" d="
M 132.05 10.15
L 132 8.9 131.25 8.9 131.35 14.85 132.1 14.85 132.1 11.85
Q 132.1 10.85 132.55 10.1 133 9.35 133.75 9.35
L 134.3 9.45 134.45 8.8 133.8 8.7
Q 133.3 8.7 132.8 9.1 132.3 9.5 132.05 10.15 Z"/>
</g>

<g id="IT_640x480_FR_psd_Asset_B___V6_1_Choisir_le_bon_fournisseur_de__Wi_Fi_g_r__pour_votre_entreprise_0_Layer0_0_MEMBER_47_FILL">
<path fill="#D82C26" stroke="none" d="
M 136 9.1
Q 135.35 9.45 134.95 10.2 134.55 11 134.55 11.8 134.55 12.75 134.95 13.45 135.3 14.2 136.05 14.6 136.75 15 137.6 15 138.95 15 140 14.25
L 139.85 13.6
Q 139.6 13.85 138.9 14.15 138.25 14.4 137.65 14.4 136.95 14.4 136.45 14.05 135.9 13.75 135.6 13.2 135.3 12.6 135.3 11.95
L 140.35 11.95 140.35 11.65
Q 140.35 10.8 140 10.15 139.7 9.5 139.05 9.1 138.45 8.7 137.5 8.7 136.6 8.7 136 9.1
M 135.6 10.45
Q 135.8 10 136.35 9.6 136.9 9.25 137.5 9.25 138.45 9.25 139.05 9.85 139.6 10.45 139.65 11.4
L 135.3 11.4
Q 135.3 10.9 135.6 10.45 Z"/>
</g>

<g id="IT_640x480_FR_psd_Asset_B___V6_1_Choisir_le_bon_fournisseur_de__Wi_Fi_g_r__pour_votre_entreprise_0_Layer0_0_MEMBER_48_FILL">
<path fill="#D82C26" stroke="none" d="
M 146.35 9.1
Q 145.65 8.7 144.8 8.7 144.05 8.7 143.35 9.1 142.65 9.55 142.4 10.2
L 142.35 10.2 142.3 8.9 141.55 8.9 141.6 17.9 142.35 17.9 142.35 13.55 142.4 13.55
Q 142.7 14.2 143.4 14.6 144.05 15 144.8 15 145.65 15 146.35 14.6 147.05 14.15 147.4 13.45 147.8 12.65 147.8 11.85 147.8 10.95 147.4 10.25 147.05 9.6 146.35 9.1
M 142.65 10.6
Q 142.95 10 143.5 9.65 144.1 9.3 144.7 9.3 145.3 9.3 145.9 9.65 146.5 10.05 146.75 10.6 147 11.05 147 11.85 147 12.65 146.75 13.1 146.5 13.65 145.9 14.05 145.4 14.35 144.7 14.35 144.05 14.35 143.5 14.05 142.95 13.7 142.65 13.1 142.35 12.6 142.35 11.85 142.35 11.15 142.65 10.6 Z"/>
</g>

<g id="IT_640x480_FR_psd_Asset_B___V6_1_Choisir_le_bon_fournisseur_de__Wi_Fi_g_r__pour_votre_entreprise_0_Layer0_0_MEMBER_49_FILL">
<path fill="#D82C26" stroke="none" d="
M 152.05 9.45
L 152.2 8.8 151.55 8.7
Q 151.05 8.7 150.55 9.1 150.1 9.45 149.85 10.15
L 149.8 10.15 149.75 8.9 149.05 8.9 149.1 14.85 149.85 14.85 149.85 11.85
Q 149.85 10.85 150.3 10.1 150.75 9.35 151.5 9.35
L 152.05 9.45 Z"/>
</g>

<g id="IT_640x480_FR_psd_Asset_B___V6_1_Choisir_le_bon_fournisseur_de__Wi_Fi_g_r__pour_votre_entreprise_0_Layer0_0_MEMBER_50_FILL">
<path fill="#D82C26" stroke="none" d="
M 153.75 8.9
L 153 8.9 153 14.85 153.75 14.85 153.75 8.9
M 153.75 6.1
Q 153.6 5.95 153.4 5.95 153.15 5.95 153 6.1 152.85 6.25 152.85 6.5 152.85 6.7 153 6.9 153.15 7.05 153.4 7.05 153.6 7.05 153.75 6.9 153.9 6.7 153.9 6.5 153.9 6.25 153.75 6.1 Z"/>
</g>

<g id="IT_640x480_FR_psd_Asset_B___V6_1_Choisir_le_bon_fournisseur_de__Wi_Fi_g_r__pour_votre_entreprise_0_Layer0_0_MEMBER_51_FILL">
<path fill="#D82C26" stroke="none" d="
M 155.5 11.35
Q 155.95 11.7 156.8 12
L 158.05 12.55
Q 158.45 12.85 158.45 13.3 158.45 13.8 158.05 14.1 157.6 14.4 157.1 14.4 155.95 14.4 155.1 13.7
L 155 14.35
Q 155.25 14.6 155.9 14.8 156.45 15 157.1 15 157.7 15 158.1 14.8 158.55 14.6 158.85 14.2 159.15 13.85 159.15 13.25 159.15 12.6 158.7 12.2 158.2 11.75 157.3 11.5 156.35 11.15 156.15 11 155.8 10.7 155.8 10.3 155.8 9.75 156.15 9.55 156.45 9.3 157.1 9.3 157.5 9.3 157.95 9.45
L 158.65 9.85 158.95 9.3 158.15 8.9
Q 157.7 8.7 157.05 8.7
L 156.1 8.85
Q 155.6 9.1 155.4 9.45 155.1 9.85 155.1 10.35 155.1 10.95 155.5 11.35 Z"/>
</g>

<g id="IT_640x480_FR_psd_Asset_B___V6_1_Choisir_le_bon_fournisseur_de__Wi_Fi_g_r__pour_votre_entreprise_0_Layer0_0_MEMBER_52_FILL">
<path fill="#D82C26" stroke="none" d="
M 164.45 9.1
Q 163.85 8.7 162.9 8.7 162 8.7 161.4 9.1 160.75 9.45 160.35 10.2 159.95 11 159.95 11.8 159.95 12.75 160.35 13.45 160.75 14.25 161.45 14.6 162.15 15 163 15 164.35 15 165.4 14.25
L 165.25 13.6
Q 165 13.85 164.3 14.15 163.65 14.4 163.05 14.4 162.35 14.4 161.85 14.05 161.3 13.75 161 13.2 160.7 12.6 160.7 11.95
L 165.7 11.95 165.75 11.65
Q 165.75 10.8 165.4 10.15 165.1 9.5 164.45 9.1
M 164.45 9.85
Q 165 10.5 165 11.4
L 160.7 11.4
Q 160.7 10.9 161 10.45 161.2 10 161.75 9.6 162.3 9.25 162.9 9.25 163.85 9.25 164.45 9.85 Z"/>
</g>

<g id="IT_640x480_FR_psd_Asset_B___V6_1_Choisir_le_bon_fournisseur_de__Wi_Fi_g_r__pour_votre_entreprise_0_Layer0_0_MEMBER_53_FILL">
<path fill="#D82C26" stroke="none" d="
M 166.9 14.75
Q 167.05 14.9 167.3 14.9 167.55 14.9 167.7 14.75 167.9 14.55 167.9 14.35 167.9 14.2 167.7 13.9 167.55 13.75 167.3 13.75 167.1 13.75 166.9 13.95 166.75 14.1 166.75 14.35 166.75 14.6 166.9 14.75 Z"/>
</g>
</defs>

<g transform="matrix( 1, 0, 0, 1, -70,29) ">
<g transform="matrix( 1, 0, 0, 1, 64,0) ">
<g transform="matrix( 1, 0, 0, 1, 54,11) ">
<g transform="matrix( 2.815704345703125, 0, 0, 2.832611083984375, -0.85,27.6) ">
<use xlink:href="#IT_640x480_FR_psd_Asset_B___V6_1_Choisir_le_bon_fournisseur_de__Wi_Fi_g_r__pour_votre_entreprise_0_Layer0_0_MEMBER_0_FILL"/>
</g>

<g transform="matrix( 2.815704345703125, 0, 0, 2.832611083984375, -0.85,27.6) ">
<use xlink:href="#IT_640x480_FR_psd_Asset_B___V6_1_Choisir_le_bon_fournisseur_de__Wi_Fi_g_r__pour_votre_entreprise_0_Layer0_0_MEMBER_1_FILL"/>
</g>

<g transform="matrix( 2.815704345703125, 0, 0, 2.832611083984375, -0.85,27.6) ">
<use xlink:href="#IT_640x480_FR_psd_Asset_B___V6_1_Choisir_le_bon_fournisseur_de__Wi_Fi_g_r__pour_votre_entreprise_0_Layer0_0_MEMBER_2_FILL"/>
</g>

<g transform="matrix( 2.815704345703125, 0, 0, 2.832611083984375, -0.85,27.6) ">
<use xlink:href="#IT_640x480_FR_psd_Asset_B___V6_1_Choisir_le_bon_fournisseur_de__Wi_Fi_g_r__pour_votre_entreprise_0_Layer0_0_MEMBER_3_FILL"/>
</g>

<g transform="matrix( 2.815704345703125, 0, 0, 2.832611083984375, -0.85,27.6) ">
<use xlink:href="#IT_640x480_FR_psd_Asset_B___V6_1_Choisir_le_bon_fournisseur_de__Wi_Fi_g_r__pour_votre_entreprise_0_Layer0_0_MEMBER_4_FILL"/>
</g>

<g transform="matrix( 2.815704345703125, 0, 0, 2.832611083984375, -0.85,27.6) ">
<use xlink:href="#IT_640x480_FR_psd_Asset_B___V6_1_Choisir_le_bon_fournisseur_de__Wi_Fi_g_r__pour_votre_entreprise_0_Layer0_0_MEMBER_5_FILL"/>
</g>

<g transform="matrix( 2.815704345703125, 0, 0, 2.832611083984375, -0.85,27.6) ">
<use xlink:href="#IT_640x480_FR_psd_Asset_B___V6_1_Choisir_le_bon_fournisseur_de__Wi_Fi_g_r__pour_votre_entreprise_0_Layer0_0_MEMBER_6_FILL"/>
</g>

<g transform="matrix( 2.815704345703125, 0, 0, 2.832611083984375, -0.85,27.6) ">
<use xlink:href="#IT_640x480_FR_psd_Asset_B___V6_1_Choisir_le_bon_fournisseur_de__Wi_Fi_g_r__pour_votre_entreprise_0_Layer0_0_MEMBER_7_FILL"/>
</g>

<g transform="matrix( 2.815704345703125, 0, 0, 2.832611083984375, -0.85,27.6) ">
<use xlink:href="#IT_640x480_FR_psd_Asset_B___V6_1_Choisir_le_bon_fournisseur_de__Wi_Fi_g_r__pour_votre_entreprise_0_Layer0_0_MEMBER_8_FILL"/>
</g>

<g transform="matrix( 2.815704345703125, 0, 0, 2.832611083984375, -0.85,27.6) ">
<use xlink:href="#IT_640x480_FR_psd_Asset_B___V6_1_Choisir_le_bon_fournisseur_de__Wi_Fi_g_r__pour_votre_entreprise_0_Layer0_0_MEMBER_9_FILL"/>
</g>

<g transform="matrix( 2.815704345703125, 0, 0, 2.832611083984375, -0.85,27.6) ">
<use xlink:href="#IT_640x480_FR_psd_Asset_B___V6_1_Choisir_le_bon_fournisseur_de__Wi_Fi_g_r__pour_votre_entreprise_0_Layer0_0_MEMBER_10_FILL"/>
</g>

<g transform="matrix( 2.815704345703125, 0, 0, 2.832611083984375, -0.85,27.6) ">
<use xlink:href="#IT_640x480_FR_psd_Asset_B___V6_1_Choisir_le_bon_fournisseur_de__Wi_Fi_g_r__pour_votre_entreprise_0_Layer0_0_MEMBER_11_FILL"/>
</g>

<g transform="matrix( 2.815704345703125, 0, 0, 2.832611083984375, -0.85,27.6) ">
<use xlink:href="#IT_640x480_FR_psd_Asset_B___V6_1_Choisir_le_bon_fournisseur_de__Wi_Fi_g_r__pour_votre_entreprise_0_Layer0_0_MEMBER_12_FILL"/>
</g>

<g transform="matrix( 2.815704345703125, 0, 0, 2.832611083984375, -0.85,27.6) ">
<use xlink:href="#IT_640x480_FR_psd_Asset_B___V6_1_Choisir_le_bon_fournisseur_de__Wi_Fi_g_r__pour_votre_entreprise_0_Layer0_0_MEMBER_13_FILL"/>
</g>

<g transform="matrix( 2.815704345703125, 0, 0, 2.832611083984375, -0.85,27.6) ">
<use xlink:href="#IT_640x480_FR_psd_Asset_B___V6_1_Choisir_le_bon_fournisseur_de__Wi_Fi_g_r__pour_votre_entreprise_0_Layer0_0_MEMBER_14_FILL"/>
</g>

<g transform="matrix( 2.815704345703125, 0, 0, 2.832611083984375, -0.85,27.6) ">
<use xlink:href="#IT_640x480_FR_psd_Asset_B___V6_1_Choisir_le_bon_fournisseur_de__Wi_Fi_g_r__pour_votre_entreprise_0_Layer0_0_MEMBER_15_FILL"/>
</g>

<g transform="matrix( 2.815704345703125, 0, 0, 2.832611083984375, -0.85,27.6) ">
<use xlink:href="#IT_640x480_FR_psd_Asset_B___V6_1_Choisir_le_bon_fournisseur_de__Wi_Fi_g_r__pour_votre_entreprise_0_Layer0_0_MEMBER_16_FILL"/>
</g>

<g transform="matrix( 2.815704345703125, 0, 0, 2.832611083984375, -0.85,27.6) ">
<use xlink:href="#IT_640x480_FR_psd_Asset_B___V6_1_Choisir_le_bon_fournisseur_de__Wi_Fi_g_r__pour_votre_entreprise_0_Layer0_0_MEMBER_17_FILL"/>
</g>

<g transform="matrix( 2.815704345703125, 0, 0, 2.832611083984375, -0.85,27.6) ">
<use xlink:href="#IT_640x480_FR_psd_Asset_B___V6_1_Choisir_le_bon_fournisseur_de__Wi_Fi_g_r__pour_votre_entreprise_0_Layer0_0_MEMBER_18_FILL"/>
</g>

<g transform="matrix( 2.815704345703125, 0, 0, 2.832611083984375, -0.85,27.6) ">
<use xlink:href="#IT_640x480_FR_psd_Asset_B___V6_1_Choisir_le_bon_fournisseur_de__Wi_Fi_g_r__pour_votre_entreprise_0_Layer0_0_MEMBER_19_FILL"/>
</g>

<g transform="matrix( 2.815704345703125, 0, 0, 2.832611083984375, -0.85,27.6) ">
<use xlink:href="#IT_640x480_FR_psd_Asset_B___V6_1_Choisir_le_bon_fournisseur_de__Wi_Fi_g_r__pour_votre_entreprise_0_Layer0_0_MEMBER_20_FILL"/>
</g>

<g transform="matrix( 2.815704345703125, 0, 0, 2.832611083984375, -0.85,27.6) ">
<use xlink:href="#IT_640x480_FR_psd_Asset_B___V6_1_Choisir_le_bon_fournisseur_de__Wi_Fi_g_r__pour_votre_entreprise_0_Layer0_0_MEMBER_21_FILL"/>
</g>

<g transform="matrix( 2.815704345703125, 0, 0, 2.832611083984375, -0.85,27.6) ">
<use xlink:href="#IT_640x480_FR_psd_Asset_B___V6_1_Choisir_le_bon_fournisseur_de__Wi_Fi_g_r__pour_votre_entreprise_0_Layer0_0_MEMBER_22_FILL"/>
</g>

<g transform="matrix( 2.815704345703125, 0, 0, 2.832611083984375, -0.85,27.6) ">
<use xlink:href="#IT_640x480_FR_psd_Asset_B___V6_1_Choisir_le_bon_fournisseur_de__Wi_Fi_g_r__pour_votre_entreprise_0_Layer0_0_MEMBER_23_FILL"/>
</g>

<g transform="matrix( 2.815704345703125, 0, 0, 2.832611083984375, -0.85,27.6) ">
<use xlink:href="#IT_640x480_FR_psd_Asset_B___V6_1_Choisir_le_bon_fournisseur_de__Wi_Fi_g_r__pour_votre_entreprise_0_Layer0_0_MEMBER_24_FILL"/>
</g>

<g transform="matrix( 2.815704345703125, 0, 0, 2.832611083984375, -0.85,27.6) ">
<use xlink:href="#IT_640x480_FR_psd_Asset_B___V6_1_Choisir_le_bon_fournisseur_de__Wi_Fi_g_r__pour_votre_entreprise_0_Layer0_0_MEMBER_25_FILL"/>
</g>

<g transform="matrix( 2.815704345703125, 0, 0, 2.832611083984375, -0.85,27.6) ">
<use xlink:href="#IT_640x480_FR_psd_Asset_B___V6_1_Choisir_le_bon_fournisseur_de__Wi_Fi_g_r__pour_votre_entreprise_0_Layer0_0_MEMBER_26_FILL"/>
</g>

<g transform="matrix( 2.815704345703125, 0, 0, 2.832611083984375, -0.85,27.6) ">
<use xlink:href="#IT_640x480_FR_psd_Asset_B___V6_1_Choisir_le_bon_fournisseur_de__Wi_Fi_g_r__pour_votre_entreprise_0_Layer0_0_MEMBER_27_FILL"/>
</g>

<g transform="matrix( 2.815704345703125, 0, 0, 2.832611083984375, -0.85,27.6) ">
<use xlink:href="#IT_640x480_FR_psd_Asset_B___V6_1_Choisir_le_bon_fournisseur_de__Wi_Fi_g_r__pour_votre_entreprise_0_Layer0_0_MEMBER_28_FILL"/>
</g>

<g transform="matrix( 2.815704345703125, 0, 0, 2.832611083984375, -0.85,27.6) ">
<use xlink:href="#IT_640x480_FR_psd_Asset_B___V6_1_Choisir_le_bon_fournisseur_de__Wi_Fi_g_r__pour_votre_entreprise_0_Layer0_0_MEMBER_29_FILL"/>
</g>

<g transform="matrix( 2.815704345703125, 0, 0, 2.832611083984375, -0.85,27.6) ">
<use xlink:href="#IT_640x480_FR_psd_Asset_B___V6_1_Choisir_le_bon_fournisseur_de__Wi_Fi_g_r__pour_votre_entreprise_0_Layer0_0_MEMBER_30_FILL"/>
</g>

<g transform="matrix( 2.815704345703125, 0, 0, 2.832611083984375, -0.85,27.6) ">
<use xlink:href="#IT_640x480_FR_psd_Asset_B___V6_1_Choisir_le_bon_fournisseur_de__Wi_Fi_g_r__pour_votre_entreprise_0_Layer0_0_MEMBER_31_FILL"/>
</g>

<g transform="matrix( 2.815704345703125, 0, 0, 2.832611083984375, -0.85,27.6) ">
<use xlink:href="#IT_640x480_FR_psd_Asset_B___V6_1_Choisir_le_bon_fournisseur_de__Wi_Fi_g_r__pour_votre_entreprise_0_Layer0_0_MEMBER_32_FILL"/>
</g>

<g transform="matrix( 2.815704345703125, 0, 0, 2.832611083984375, -0.85,27.6) ">
<use xlink:href="#IT_640x480_FR_psd_Asset_B___V6_1_Choisir_le_bon_fournisseur_de__Wi_Fi_g_r__pour_votre_entreprise_0_Layer0_0_MEMBER_33_FILL"/>
</g>

<g transform="matrix( 2.815704345703125, 0, 0, 2.832611083984375, -0.85,27.6) ">
<use xlink:href="#IT_640x480_FR_psd_Asset_B___V6_1_Choisir_le_bon_fournisseur_de__Wi_Fi_g_r__pour_votre_entreprise_0_Layer0_0_MEMBER_34_FILL"/>
</g>

<g transform="matrix( 2.815704345703125, 0, 0, 2.832611083984375, -0.85,27.6) ">
<use xlink:href="#IT_640x480_FR_psd_Asset_B___V6_1_Choisir_le_bon_fournisseur_de__Wi_Fi_g_r__pour_votre_entreprise_0_Layer0_0_MEMBER_35_FILL"/>
</g>

<g transform="matrix( 2.815704345703125, 0, 0, 2.832611083984375, -0.85,27.6) ">
<use xlink:href="#IT_640x480_FR_psd_Asset_B___V6_1_Choisir_le_bon_fournisseur_de__Wi_Fi_g_r__pour_votre_entreprise_0_Layer0_0_MEMBER_36_FILL"/>
</g>

<g transform="matrix( 2.815704345703125, 0, 0, 2.832611083984375, -0.85,27.6) ">
<use xlink:href="#IT_640x480_FR_psd_Asset_B___V6_1_Choisir_le_bon_fournisseur_de__Wi_Fi_g_r__pour_votre_entreprise_0_Layer0_0_MEMBER_37_FILL"/>
</g>

<g transform="matrix( 2.815704345703125, 0, 0, 2.832611083984375, -0.85,27.6) ">
<use xlink:href="#IT_640x480_FR_psd_Asset_B___V6_1_Choisir_le_bon_fournisseur_de__Wi_Fi_g_r__pour_votre_entreprise_0_Layer0_0_MEMBER_38_FILL"/>
</g>

<g transform="matrix( 2.815704345703125, 0, 0, 2.832611083984375, -0.85,27.6) ">
<use xlink:href="#IT_640x480_FR_psd_Asset_B___V6_1_Choisir_le_bon_fournisseur_de__Wi_Fi_g_r__pour_votre_entreprise_0_Layer0_0_MEMBER_39_FILL"/>
</g>

<g transform="matrix( 2.815704345703125, 0, 0, 2.832611083984375, -0.85,27.6) ">
<use xlink:href="#IT_640x480_FR_psd_Asset_B___V6_1_Choisir_le_bon_fournisseur_de__Wi_Fi_g_r__pour_votre_entreprise_0_Layer0_0_MEMBER_40_FILL"/>
</g>

<g transform="matrix( 2.815704345703125, 0, 0, 2.832611083984375, -0.85,27.6) ">
<use xlink:href="#IT_640x480_FR_psd_Asset_B___V6_1_Choisir_le_bon_fournisseur_de__Wi_Fi_g_r__pour_votre_entreprise_0_Layer0_0_MEMBER_41_FILL"/>
</g>

<g transform="matrix( 2.815704345703125, 0, 0, 2.832611083984375, -0.85,27.6) ">
<use xlink:href="#IT_640x480_FR_psd_Asset_B___V6_1_Choisir_le_bon_fournisseur_de__Wi_Fi_g_r__pour_votre_entreprise_0_Layer0_0_MEMBER_42_FILL"/>
</g>

<g transform="matrix( 2.815704345703125, 0, 0, 2.832611083984375, -0.85,27.6) ">
<use xlink:href="#IT_640x480_FR_psd_Asset_B___V6_1_Choisir_le_bon_fournisseur_de__Wi_Fi_g_r__pour_votre_entreprise_0_Layer0_0_MEMBER_43_FILL"/>
</g>

<g transform="matrix( 2.815704345703125, 0, 0, 2.832611083984375, -0.85,27.6) ">
<use xlink:href="#IT_640x480_FR_psd_Asset_B___V6_1_Choisir_le_bon_fournisseur_de__Wi_Fi_g_r__pour_votre_entreprise_0_Layer0_0_MEMBER_44_FILL"/>
</g>

<g transform="matrix( 2.815704345703125, 0, 0, 2.832611083984375, -0.85,27.6) ">
<use xlink:href="#IT_640x480_FR_psd_Asset_B___V6_1_Choisir_le_bon_fournisseur_de__Wi_Fi_g_r__pour_votre_entreprise_0_Layer0_0_MEMBER_45_FILL"/>
</g>

<g transform="matrix( 2.815704345703125, 0, 0, 2.832611083984375, -0.85,27.6) ">
<use xlink:href="#IT_640x480_FR_psd_Asset_B___V6_1_Choisir_le_bon_fournisseur_de__Wi_Fi_g_r__pour_votre_entreprise_0_Layer0_0_MEMBER_46_FILL"/>
</g>

<g transform="matrix( 2.815704345703125, 0, 0, 2.832611083984375, -0.85,27.6) ">
<use xlink:href="#IT_640x480_FR_psd_Asset_B___V6_1_Choisir_le_bon_fournisseur_de__Wi_Fi_g_r__pour_votre_entreprise_0_Layer0_0_MEMBER_47_FILL"/>
</g>

<g transform="matrix( 2.815704345703125, 0, 0, 2.832611083984375, -0.85,27.6) ">
<use xlink:href="#IT_640x480_FR_psd_Asset_B___V6_1_Choisir_le_bon_fournisseur_de__Wi_Fi_g_r__pour_votre_entreprise_0_Layer0_0_MEMBER_48_FILL"/>
</g>

<g transform="matrix( 2.815704345703125, 0, 0, 2.832611083984375, -0.85,27.6) ">
<use xlink:href="#IT_640x480_FR_psd_Asset_B___V6_1_Choisir_le_bon_fournisseur_de__Wi_Fi_g_r__pour_votre_entreprise_0_Layer0_0_MEMBER_49_FILL"/>
</g>

<g transform="matrix( 2.815704345703125, 0, 0, 2.832611083984375, -0.85,27.6) ">
<use xlink:href="#IT_640x480_FR_psd_Asset_B___V6_1_Choisir_le_bon_fournisseur_de__Wi_Fi_g_r__pour_votre_entreprise_0_Layer0_0_MEMBER_50_FILL"/>
</g>

<g transform="matrix( 2.815704345703125, 0, 0, 2.832611083984375, -0.85,27.6) ">
<use xlink:href="#IT_640x480_FR_psd_Asset_B___V6_1_Choisir_le_bon_fournisseur_de__Wi_Fi_g_r__pour_votre_entreprise_0_Layer0_0_MEMBER_51_FILL"/>
</g>

<g transform="matrix( 2.815704345703125, 0, 0, 2.832611083984375, -0.85,27.6) ">
<use xlink:href="#IT_640x480_FR_psd_Asset_B___V6_1_Choisir_le_bon_fournisseur_de__Wi_Fi_g_r__pour_votre_entreprise_0_Layer0_0_MEMBER_52_FILL"/>
</g>

<g transform="matrix( 2.815704345703125, 0, 0, 2.832611083984375, -0.85,27.6) ">
<use xlink:href="#IT_640x480_FR_psd_Asset_B___V6_1_Choisir_le_bon_fournisseur_de__Wi_Fi_g_r__pour_votre_entreprise_0_Layer0_0_MEMBER_53_FILL"/>
</g>
</g>
</g>
</g>
</svg>
