
<svg xmlns="http://www.w3.org/2000/svg" version="1.1" xmlns:xlink="http://www.w3.org/1999/xlink" preserveAspectRatio="none" x="0px" y="0px" width="300px" height="600px" viewBox="0 0 300 600">
<defs>
<g id="IT_300x600_FR_psd_Asset_B___V6_2_Le_Wi_Fi_en_tant_que__service_peut_faire___conomiser_du_temps___0_Layer0_0_MEMBER_0_FILL">
<path fill="#D82C26" stroke="none" d="
M 1.55 -7
L 0.95 -7 0.95 0 4.6 0 4.7 -0.55 1.55 -0.55 1.55 -7 Z"/>
</g>

<g id="IT_300x600_FR_psd_Asset_B___V6_2_Le_Wi_Fi_en_tant_que__service_peut_faire___conomiser_du_temps___0_Layer0_0_MEMBER_1_FILL">
<path fill="#D82C26" stroke="none" d="
M 9.3 -3.65
Q 9 -4.15 8.55 -4.45 8.05 -4.75 7.35 -4.75 6.75 -4.75 6.2 -4.45 5.65 -4.15 5.35 -3.6 5.05 -3.05 5.05 -2.35 5.05 -1.65 5.35 -1.05 5.65 -0.5 6.2 -0.2 6.7 0.15 7.45 0.15 8.5 0.15 9.25 -0.45
L 9.2 -0.95
Q 8.8 -0.65 8.4 -0.5 8.05 -0.35 7.5 -0.35 6.9 -0.35 6.5 -0.6 6.05 -0.85 5.85 -1.3 5.6 -1.7 5.6 -2.25
L 9.55 -2.25 9.55 -2.5
Q 9.55 -3.05 9.3 -3.65
M 6.45 -4.05
Q 6.75 -4.3 7.35 -4.3 8.1 -4.3 8.55 -3.85 9 -3.4 9 -2.65
L 5.65 -2.65
Q 5.65 -3.05 5.85 -3.4 6.1 -3.85 6.45 -4.05 Z"/>
</g>

<g id="IT_300x600_FR_psd_Asset_B___V6_2_Le_Wi_Fi_en_tant_que__service_peut_faire___conomiser_du_temps___0_Layer0_0_MEMBER_2_FILL">
<path fill="#D82C26" stroke="none" d="
M 12.4 -7
L 11.8 -7 13.85 0 14.55 0 16.35 -6.25 16.4 -6.25 18.25 0 18.95 0 21 -7 20.4 -7 18.6 -0.75 18.55 -0.75 16.75 -7 16.05 -7 14.25 -0.75 14.2 -0.75 12.4 -7 Z"/>
</g>

<g id="IT_300x600_FR_psd_Asset_B___V6_2_Le_Wi_Fi_en_tant_que__service_peut_faire___conomiser_du_temps___0_Layer0_0_MEMBER_3_FILL">
<path fill="#D82C26" stroke="none" d="
M 22.35 -4.65
L 21.8 -4.65 21.8 0 22.35 0 22.35 -4.65
M 22.35 -6.2
Q 22.5 -6.25 22.5 -6.5
L 22.35 -6.8 22.05 -6.9 21.75 -6.8 21.65 -6.5 21.75 -6.2 22.05 -6.05 22.35 -6.2 Z"/>
</g>

<g id="IT_300x600_FR_psd_Asset_B___V6_2_Le_Wi_Fi_en_tant_que__service_peut_faire___conomiser_du_temps___0_Layer0_0_MEMBER_4_FILL">
<path fill="#D82C26" stroke="none" d="
M 23.45 -2.75
L 23.45 -2.25 25.45 -2.25 25.45 -2.75 23.45 -2.75 Z"/>
</g>

<g id="IT_300x600_FR_psd_Asset_B___V6_2_Le_Wi_Fi_en_tant_que__service_peut_faire___conomiser_du_temps___0_Layer0_0_MEMBER_5_FILL">
<path fill="#D82C26" stroke="none" d="
M 30.3 -7
L 26.7 -7 26.7 0 27.3 0 27.3 -3.35 30 -3.35 30.15 -3.85 27.3 -3.85 27.3 -6.45 30.25 -6.45 30.3 -7 Z"/>
</g>

<g id="IT_300x600_FR_psd_Asset_B___V6_2_Le_Wi_Fi_en_tant_que__service_peut_faire___conomiser_du_temps___0_Layer0_0_MEMBER_6_FILL">
<path fill="#D82C26" stroke="none" d="
M 31.85 -4.65
L 31.25 -4.65 31.25 0 31.85 0 31.85 -4.65
M 31.8 -6.2
Q 31.95 -6.25 31.95 -6.5
L 31.8 -6.8 31.55 -6.9
Q 31.35 -6.9 31.25 -6.8
L 31.1 -6.5
Q 31.1 -6.25 31.25 -6.2 31.35 -6.05 31.55 -6.05 31.75 -6.05 31.8 -6.2 Z"/>
</g>

<g id="IT_300x600_FR_psd_Asset_B___V6_2_Le_Wi_Fi_en_tant_que__service_peut_faire___conomiser_du_temps___0_Layer0_0_MEMBER_7_FILL">
<path fill="#D82C26" stroke="none" d="
M 34.75 -2.35
Q 34.75 -1.75 35.1 -1.05 35.45 -0.45 35.95 -0.2 36.45 0.15 37.15 0.15 38.25 0.15 39 -0.45
L 38.9 -0.95
Q 38.6 -0.65 38.15 -0.5 37.7 -0.35 37.2 -0.35 36.55 -0.35 36.25 -0.6 35.85 -0.8 35.6 -1.3 35.35 -1.7 35.35 -2.25
L 39.25 -2.25 39.25 -2.5
Q 39.25 -3.2 39 -3.65 38.8 -4.15 38.25 -4.45 37.8 -4.75 37.05 -4.75 36.45 -4.75 35.9 -4.45 35.45 -4.2 35.1 -3.6 34.75 -3.1 34.75 -2.35
M 36.15 -4.05
Q 36.45 -4.3 37.05 -4.3 37.8 -4.3 38.25 -3.85 38.7 -3.4 38.7 -2.65
L 35.35 -2.65
Q 35.35 -2.9 35.55 -3.4 35.8 -3.85 36.15 -4.05 Z"/>
</g>

<g id="IT_300x600_FR_psd_Asset_B___V6_2_Le_Wi_Fi_en_tant_que__service_peut_faire___conomiser_du_temps___0_Layer0_0_MEMBER_8_FILL">
<path fill="#D82C26" stroke="none" d="
M 40.85 -3.65
L 40.8 -4.65 40.25 -4.65 40.3 0 40.85 0 40.85 -2.35
Q 40.85 -2.8 41.05 -3.4 41.25 -3.8 41.6 -4.05 42 -4.3 42.4 -4.3 43.15 -4.3 43.35 -3.8 43.65 -3.35 43.65 -2.7
L 43.65 0 44.25 0 44.25 -2.85
Q 44.25 -3.65 43.8 -4.2 43.45 -4.75 42.5 -4.75 41.95 -4.75 41.5 -4.45 41.15 -4.2 40.85 -3.65 Z"/>
</g>

<g id="IT_300x600_FR_psd_Asset_B___V6_2_Le_Wi_Fi_en_tant_que__service_peut_faire___conomiser_du_temps___0_Layer0_0_MEMBER_9_FILL">
<path fill="#D82C26" stroke="none" d="
M 48.15 -4.65
L 48.15 -5.95 47.55 -5.75 47.55 -4.65 46.8 -4.65 46.7 -4.15 47.55 -4.15 47.55 -1.1
Q 47.55 -0.55 47.85 -0.2 48.15 0.1 48.65 0.1
L 49.15 0.05 49.65 -0.15 49.55 -0.6
Q 49.2 -0.4 48.8 -0.4 48.5 -0.4 48.35 -0.55 48.15 -0.75 48.15 -1.2
L 48.15 -4.15 49.35 -4.15 49.45 -4.65 48.15 -4.65 Z"/>
</g>

<g id="IT_300x600_FR_psd_Asset_B___V6_2_Le_Wi_Fi_en_tant_que__service_peut_faire___conomiser_du_temps___0_Layer0_0_MEMBER_10_FILL">
<path fill="#D82C26" stroke="none" d="
M 50.05 -1.25
Q 50.05 -0.55 50.5 -0.2 51.05 0.15 51.55 0.15 52.1 0.15 52.6 -0.15 53.1 -0.4 53.25 -0.9
L 53.3 -0.9 53.35 0 53.9 0 53.8 -1 53.8 -3
Q 53.8 -3.9 53.35 -4.35 52.95 -4.75 52.05 -4.75 51.55 -4.75 51.1 -4.6 50.6 -4.45 50.3 -4.2
L 50.5 -3.75
Q 50.9 -4.05 51.2 -4.15
L 51.95 -4.3
Q 52.6 -4.3 52.95 -4 53.3 -3.55 53.3 -3.05
L 53.3 -2.8 52.7 -2.8
Q 50.05 -2.8 50.05 -1.25
M 52.55 -0.55
Q 52.15 -0.3 51.65 -0.3 51.25 -0.3 50.9 -0.55 50.6 -0.75 50.6 -1.25 50.6 -2.4 52.8 -2.4
L 53.3 -2.4 53.3 -1.95
Q 53.3 -1.65 53.1 -1.15 52.95 -0.8 52.55 -0.55 Z"/>
</g>

<g id="IT_300x600_FR_psd_Asset_B___V6_2_Le_Wi_Fi_en_tant_que__service_peut_faire___conomiser_du_temps___0_Layer0_0_MEMBER_11_FILL">
<path fill="#D82C26" stroke="none" d="
M 55.6 -4.65
L 55.05 -4.65 55.1 0 55.7 0 55.7 -2.35
Q 55.7 -3 55.9 -3.4 56.05 -3.8 56.45 -4.05 56.85 -4.3 57.25 -4.3 57.9 -4.3 58.2 -3.8 58.5 -3.35 58.5 -2.7
L 58.5 0 59.05 0 59.05 -2.85
Q 59.05 -3.75 58.65 -4.2 58.25 -4.75 57.35 -4.75 56.8 -4.75 56.35 -4.45 55.9 -4.15 55.65 -3.65
L 55.6 -4.65 Z"/>
</g>

<g id="IT_300x600_FR_psd_Asset_B___V6_2_Le_Wi_Fi_en_tant_que__service_peut_faire___conomiser_du_temps___0_Layer0_0_MEMBER_12_FILL">
<path fill="#D82C26" stroke="none" d="
M 60.45 -1.1
Q 60.45 -0.6 60.7 -0.2 61 0.1 61.5 0.1
L 62.05 0.05 62.5 -0.15 62.4 -0.6
Q 62.05 -0.4 61.7 -0.4 61.35 -0.4 61.2 -0.55 61 -0.75 61 -1.2
L 61 -4.15 62.2 -4.15 62.3 -4.65 61 -4.65 61 -5.95 60.4 -5.75 60.4 -4.65 59.7 -4.65 59.55 -4.15 60.45 -4.15 60.45 -1.1 Z"/>
</g>

<g id="IT_300x600_FR_psd_Asset_B___V6_2_Le_Wi_Fi_en_tant_que__service_peut_faire___conomiser_du_temps___0_Layer0_0_MEMBER_13_FILL">
<path fill="#D82C26" stroke="none" d="
M 64.95 -1.05
Q 65.3 -0.45 65.8 -0.2 66.4 0.15 67 0.15 67.6 0.15 68.1 -0.15 68.6 -0.45 68.85 -1
L 68.9 -1 68.9 1.1
Q 68.9 2.1 69.85 2.4
L 70.15 1.9 69.6 1.6
Q 69.45 1.4 69.45 0.95
L 69.5 -4.65 68.95 -4.65 68.9 -3.6 68.85 -3.6
Q 68.65 -4.15 68.1 -4.45 67.6 -4.75 67 -4.75 66.35 -4.75 65.8 -4.45 65.25 -4.2 64.95 -3.55 64.65 -3 64.65 -2.3 64.65 -1.65 64.95 -1.05
M 65.25 -2.3
Q 65.25 -2.9 65.45 -3.3 65.65 -3.75 66.1 -4 66.5 -4.3 67.05 -4.3 67.65 -4.3 68 -4 68.4 -3.8 68.65 -3.3 68.9 -2.8 68.9 -2.3 68.9 -1.85 68.65 -1.35 68.4 -0.85 68 -0.6 67.6 -0.35 67.05 -0.35 66.5 -0.35 66.1 -0.6 65.65 -0.95 65.45 -1.35 65.25 -1.75 65.25 -2.3 Z"/>
</g>

<g id="IT_300x600_FR_psd_Asset_B___V6_2_Le_Wi_Fi_en_tant_que__service_peut_faire___conomiser_du_temps___0_Layer0_0_MEMBER_14_FILL">
<path fill="#D82C26" stroke="none" d="
M 70.7 -4.65
L 70.7 -1.8
Q 70.7 -0.95 71.15 -0.45 71.55 0.15 72.4 0.15 72.95 0.15 73.45 -0.2 73.9 -0.5 74.1 -1
L 74.2 0 74.75 0 74.7 -4.65 74.1 -4.65 74.1 -2.3
Q 74.1 -1.65 73.9 -1.25 73.65 -0.8 73.35 -0.6 73.05 -0.35 72.55 -0.35 71.85 -0.35 71.6 -0.8 71.3 -1.25 71.3 -1.95
L 71.3 -4.65 70.7 -4.65 Z"/>
</g>

<g id="IT_300x600_FR_psd_Asset_B___V6_2_Le_Wi_Fi_en_tant_que__service_peut_faire___conomiser_du_temps___0_Layer0_0_MEMBER_15_FILL">
<path fill="#D82C26" stroke="none" d="
M 79.95 -3.65
Q 79.65 -4.15 79.2 -4.45 78.7 -4.75 78 -4.75 77.35 -4.75 76.8 -4.45 76.35 -4.2 76 -3.6 75.7 -3.05 75.7 -2.35 75.7 -1.65 76 -1.05 76.3 -0.5 76.85 -0.2 77.35 0.15 78.05 0.15 79.15 0.15 79.9 -0.45
L 79.8 -0.95
Q 79.5 -0.65 79.05 -0.5 78.6 -0.35 78.1 -0.35 77.55 -0.35 77.15 -0.6 76.7 -0.85 76.5 -1.3 76.25 -1.7 76.25 -2.25
L 80.2 -2.25 80.2 -2.5
Q 80.2 -3.05 79.95 -3.65
M 77.1 -4.05
Q 77.4 -4.3 78 -4.3 78.75 -4.3 79.2 -3.85 79.65 -3.3 79.65 -2.65
L 76.25 -2.65
Q 76.35 -3.15 76.5 -3.4 76.8 -3.9 77.1 -4.05 Z"/>
</g>

<g id="IT_300x600_FR_psd_Asset_B___V6_2_Le_Wi_Fi_en_tant_que__service_peut_faire___conomiser_du_temps___0_Layer0_0_MEMBER_16_FILL">
<path fill="#D82C26" stroke="none" d="
M 3.65 8.45
L 3 8.1
Q 2.65 7.95 2.15 7.95 1.75 7.95 1.45 8.1 1.1 8.15 0.85 8.5 0.65 8.75 0.65 9.2 0.65 9.8 0.95 10 1.3 10.3 1.95 10.5 2.6 10.7 2.9 10.95 3.2 11.2 3.2 11.5 3.2 11.95 2.9 12.15 2.55 12.4 2.2 12.4 1.25 12.4 0.65 11.8
L 0.55 12.3
Q 0.8 12.55 1.25 12.7 1.7 12.85 2.2 12.85 2.65 12.85 2.95 12.7 3.35 12.55 3.55 12.2 3.8 11.85 3.8 11.5 3.8 11.1 3.45 10.65 3.1 10.4 2.35 10.15 1.7 9.95 1.45 9.7 1.2 9.6 1.2 9.2 1.2 8.8 1.45 8.6 1.7 8.4 2.2 8.4 2.55 8.4 2.85 8.55 3.2 8.65 3.4 8.85
L 3.65 8.45 Z"/>
</g>

<g id="IT_300x600_FR_psd_Asset_B___V6_2_Le_Wi_Fi_en_tant_que__service_peut_faire___conomiser_du_temps___0_Layer0_0_MEMBER_17_FILL">
<path fill="#D82C26" stroke="none" d="
M 4.4 10.35
Q 4.4 11.15 4.7 11.65 4.95 12.1 5.55 12.55 6.1 12.85 6.8 12.85 7.85 12.85 8.65 12.25
L 8.55 11.75
Q 8.25 12.05 7.8 12.2 7.35 12.35 6.85 12.35 6.2 12.35 5.9 12.1 5.6 11.95 5.2 11.45 5 11.05 5 10.5
L 8.9 10.5 8.9 10.25
Q 8.9 9.5 8.65 9.05 8.45 8.55 7.9 8.25 7.4 7.95 6.7 7.95 6.1 7.95 5.55 8.25 5 8.55 4.7 9.1 4.4 9.7 4.4 10.35
M 5.8 8.65
Q 6.2 8.4 6.7 8.4 7.45 8.4 7.9 8.85 8.35 9.3 8.35 10.05
L 5 10.05
Q 5 9.65 5.2 9.3 5.4 8.95 5.8 8.65 Z"/>
</g>

<g id="IT_300x600_FR_psd_Asset_B___V6_2_Le_Wi_Fi_en_tant_que__service_peut_faire___conomiser_du_temps___0_Layer0_0_MEMBER_18_FILL">
<path fill="#D82C26" stroke="none" d="
M 10.45 9.1
L 10.4 8.1 9.85 8.1 9.9 12.7 10.5 12.7 10.5 10.4
Q 10.5 9.55 10.85 9.05 11.15 8.45 11.8 8.45
L 12.2 8.55 12.3 8 11.85 7.95
Q 11.45 7.95 11.05 8.25 10.7 8.55 10.45 9.1 Z"/>
</g>

<g id="IT_300x600_FR_psd_Asset_B___V6_2_Le_Wi_Fi_en_tant_que__service_peut_faire___conomiser_du_temps___0_Layer0_0_MEMBER_19_FILL">
<path fill="#D82C26" stroke="none" d="
M 12.5 8.1
L 14.3 12.7 14.95 12.7 16.7 8.1 16.1 8.1 14.65 12.15 13.15 8.1 12.5 8.1 Z"/>
</g>

<g id="IT_300x600_FR_psd_Asset_B___V6_2_Le_Wi_Fi_en_tant_que__service_peut_faire___conomiser_du_temps___0_Layer0_0_MEMBER_20_FILL">
<path fill="#D82C26" stroke="none" d="
M 17.95 8.1
L 17.35 8.1 17.35 12.7 17.95 12.7 17.95 8.1
M 17.95 5.95
L 17.65 5.8
Q 17.5 5.8 17.35 5.95 17.2 6.05 17.2 6.2 17.2 6.4 17.35 6.55 17.55 6.65 17.65 6.65
L 17.95 6.55 18.05 6.2 17.95 5.95 Z"/>
</g>

<g id="IT_300x600_FR_psd_Asset_B___V6_2_Le_Wi_Fi_en_tant_que__service_peut_faire___conomiser_du_temps___0_Layer0_0_MEMBER_21_FILL">
<path fill="#D82C26" stroke="none" d="
M 22.25 8.1
Q 21.8 7.95 21.35 7.95 20.7 7.95 20.1 8.25 19.55 8.55 19.25 9.15 18.95 9.7 18.95 10.4 18.95 11.15 19.25 11.65 19.55 12.25 20.1 12.55 20.65 12.85 21.35 12.85 21.8 12.85 22.25 12.7
L 22.95 12.3 22.85 11.8
Q 22.7 11.95 22.2 12.2 21.85 12.35 21.4 12.35 20.9 12.35 20.4 12.1 19.95 11.75 19.75 11.35 19.55 11 19.55 10.4 19.55 9.8 19.75 9.4 20 8.9 20.4 8.7 20.8 8.45 21.35 8.45 21.85 8.45 22.1 8.55 22.55 8.7 22.7 8.95
L 22.95 8.5
Q 22.7 8.25 22.25 8.1 Z"/>
</g>

<g id="IT_300x600_FR_psd_Asset_B___V6_2_Le_Wi_Fi_en_tant_que__service_peut_faire___conomiser_du_temps___0_Layer0_0_MEMBER_22_FILL">
<path fill="#D82C26" stroke="none" d="
M 23.3 10.35
Q 23.3 11.15 23.65 11.65 23.9 12.15 24.45 12.55 25.05 12.85 25.7 12.85 26.8 12.85 27.55 12.25
L 27.45 11.75
Q 27.15 12.05 26.7 12.2 26.25 12.35 25.75 12.35 25.1 12.35 24.8 12.1 24.45 11.9 24.15 11.45 23.9 11.1 23.9 10.5
L 27.8 10.5 27.8 10.25
Q 27.8 9.5 27.55 9.05 27.35 8.55 26.8 8.25 26.3 7.95 25.6 7.95 25 7.95 24.45 8.25 23.9 8.55 23.6 9.1 23.3 9.7 23.3 10.35
M 24.1 9.3
Q 24.3 8.95 24.7 8.65 25.1 8.4 25.6 8.4 26.35 8.4 26.8 8.85 27.25 9.3 27.25 10.05
L 23.9 10.05
Q 23.9 9.8 24.1 9.3 Z"/>
</g>

<g id="IT_300x600_FR_psd_Asset_B___V6_2_Le_Wi_Fi_en_tant_que__service_peut_faire___conomiser_du_temps___0_Layer0_0_MEMBER_23_FILL">
<path fill="#D82C26" stroke="none" d="
M 34.45 8.25
Q 33.95 7.95 33.25 7.95 32.6 7.95 32.15 8.25 31.7 8.5 31.35 9.1
L 31.3 8.1 30.75 8.1 30.75 15.1 31.35 15.1 31.35 11.7 31.4 11.7
Q 31.65 12.25 32.15 12.55 32.7 12.85 33.25 12.85 33.95 12.85 34.45 12.5 35 12.2 35.3 11.65 35.55 11 35.55 10.4 35.55 9.75 35.3 9.15 35.05 8.7 34.45 8.25
M 33.15 8.45
Q 33.8 8.45 34.1 8.7 34.5 8.9 34.75 9.4 34.95 9.8 34.95 10.4 34.95 11 34.75 11.4 34.55 11.8 34.1 12.1 33.7 12.35 33.15 12.35 32.7 12.35 32.2 12.1 31.75 11.75 31.55 11.35 31.35 11 31.35 10.4 31.35 9.8 31.55 9.4 31.75 8.95 32.2 8.7 32.6 8.45 33.15 8.45 Z"/>
</g>

<g id="IT_300x600_FR_psd_Asset_B___V6_2_Le_Wi_Fi_en_tant_que__service_peut_faire___conomiser_du_temps___0_Layer0_0_MEMBER_24_FILL">
<path fill="#D82C26" stroke="none" d="
M 40.8 10.25
Q 40.8 9.65 40.55 9.05 40.25 8.55 39.8 8.25 39.3 7.95 38.6 7.95 38 7.95 37.45 8.25 36.9 8.55 36.6 9.1 36.3 9.7 36.3 10.35 36.3 11.15 36.6 11.65 36.85 12.1 37.45 12.55 38 12.85 38.65 12.85 39.75 12.85 40.5 12.25
L 40.4 11.75
Q 40.1 12.05 39.65 12.2 39.2 12.35 38.7 12.35 38.15 12.35 37.75 12.1 37.35 11.85 37.1 11.45 36.85 10.95 36.85 10.5
L 40.8 10.5 40.8 10.25
M 38.6 8.4
Q 39.35 8.4 39.8 8.85 40.25 9.3 40.25 10.05
L 36.85 10.05
Q 36.95 9.55 37.1 9.3 37.3 8.95 37.7 8.65 38.1 8.4 38.6 8.4 Z"/>
</g>

<g id="IT_300x600_FR_psd_Asset_B___V6_2_Le_Wi_Fi_en_tant_que__service_peut_faire___conomiser_du_temps___0_Layer0_0_MEMBER_25_FILL">
<path fill="#D82C26" stroke="none" d="
M 42.3 8.1
L 41.7 8.1 41.7 10.9
Q 41.7 11.7 42.15 12.3 42.55 12.85 43.4 12.85 43.95 12.85 44.45 12.55 44.85 12.3 45.1 11.7
L 45.2 12.7 45.75 12.7 45.7 12.2 45.7 8.1 45.1 8.1 45.1 10.4
Q 45.1 11.05 44.9 11.45 44.65 12 44.35 12.15 44 12.35 43.55 12.35 42.9 12.35 42.6 11.9 42.3 11.45 42.3 10.75
L 42.3 8.1 Z"/>
</g>

<g id="IT_300x600_FR_psd_Asset_B___V6_2_Le_Wi_Fi_en_tant_que__service_peut_faire___conomiser_du_temps___0_Layer0_0_MEMBER_26_FILL">
<path fill="#D82C26" stroke="none" d="
M 49 8.55
L 49.15 8.1 47.8 8.1 47.8 6.75 47.25 7 47.25 8.1 46.5 8.1 46.35 8.55 47.25 8.55 47.25 11.6
Q 47.25 12.2 47.55 12.5 47.85 12.8 48.3 12.8
L 48.85 12.75 49.3 12.55 49.25 12.15
Q 48.65 12.35 48.5 12.35 48.2 12.35 48 12.15 47.8 11.85 47.8 11.5
L 47.8 8.55 49 8.55 Z"/>
</g>

<g id="IT_300x600_FR_psd_Asset_B___V6_2_Le_Wi_Fi_en_tant_que__service_peut_faire___conomiser_du_temps___0_Layer0_0_MEMBER_27_FILL">
<path fill="#D82C26" stroke="none" d="
M 54.35 5.2
L 53.5 5.1
Q 52.85 5.1 52.45 5.5 52.05 6 52.05 6.75
L 52.05 8.1 51.2 8.1 51.1 8.55 52.05 8.55 52.05 12.7 52.65 12.7 52.65 8.55 53.7 8.55 53.85 8.1 52.65 8.1 52.65 6.75
Q 52.65 6.25 52.85 5.9 53.1 5.6 53.55 5.6
L 54.25 5.7 54.35 5.2 Z"/>
</g>

<g id="IT_300x600_FR_psd_Asset_B___V6_2_Le_Wi_Fi_en_tant_que__service_peut_faire___conomiser_du_temps___0_Layer0_0_MEMBER_28_FILL">
<path fill="#D82C26" stroke="none" d="
M 55.2 8.1
L 54.4 8.5 54.6 8.95
Q 54.7 8.85 55.3 8.55
L 56.05 8.4
Q 56.7 8.4 57.05 8.7 57.4 9.15 57.4 9.65
L 57.4 9.95 56.8 9.95
Q 54.15 9.95 54.15 11.45 54.15 12.15 54.6 12.5 55.15 12.85 55.65 12.85 56.1 12.85 56.7 12.6 57.2 12.25 57.35 11.8
L 57.4 11.8 57.4 12.3 57.45 12.7 58 12.7 57.9 11.7 57.9 9.7
Q 57.9 8.85 57.45 8.4 57 7.95 56.15 7.95 55.65 7.95 55.2 8.1
M 55 12.15
Q 54.7 11.95 54.7 11.45 54.7 10.3 56.9 10.3
L 57.4 10.3 57.4 10.8
Q 57.4 11.05 57.2 11.55 56.95 11.95 56.65 12.15 56.25 12.4 55.75 12.4 55.25 12.4 55 12.15 Z"/>
</g>

<g id="IT_300x600_FR_psd_Asset_B___V6_2_Le_Wi_Fi_en_tant_que__service_peut_faire___conomiser_du_temps___0_Layer0_0_MEMBER_29_FILL">
<path fill="#D82C26" stroke="none" d="
M 59.8 8.1
L 59.2 8.1 59.2 12.7 59.8 12.7 59.8 8.1
M 59.75 5.95
Q 59.7 5.8 59.5 5.8 59.3 5.8 59.2 5.95 59.05 6.05 59.05 6.2 59.05 6.4 59.2 6.55 59.3 6.65 59.5 6.65
L 59.75 6.55
Q 59.9 6.4 59.9 6.2 59.9 6.05 59.75 5.95 Z"/>
</g>

<g id="IT_300x600_FR_psd_Asset_B___V6_2_Le_Wi_Fi_en_tant_que__service_peut_faire___conomiser_du_temps___0_Layer0_0_MEMBER_30_FILL">
<path fill="#D82C26" stroke="none" d="
M 63.4 8.55
L 63.55 8 63.05 7.95
Q 62.65 7.95 62.25 8.25 61.85 8.55 61.7 9.1
L 61.65 9.1 61.6 8.1 61.05 8.1 61.1 12.7 61.7 12.7 61.7 10.4
Q 61.7 9.55 62.05 9.05 62.45 8.45 63 8.45
L 63.4 8.55 Z"/>
</g>

<g id="IT_300x600_FR_psd_Asset_B___V6_2_Le_Wi_Fi_en_tant_que__service_peut_faire___conomiser_du_temps___0_Layer0_0_MEMBER_31_FILL">
<path fill="#D82C26" stroke="none" d="
M 63.6 10.35
Q 63.6 11.15 63.95 11.65 64.2 12.15 64.75 12.55 65.35 12.85 66 12.85 67.1 12.85 67.85 12.25
L 67.75 11.75
Q 67.45 12.05 67 12.2 66.55 12.35 66.05 12.35 65.4 12.35 65.1 12.1 64.75 11.9 64.45 11.45 64.2 11.1 64.2 10.5
L 68.1 10.5 68.1 10.25
Q 68.1 9.5 67.85 9.05 67.65 8.55 67.1 8.25 66.6 7.95 65.9 7.95 65.3 7.95 64.75 8.25 64.2 8.55 63.9 9.1 63.6 9.7 63.6 10.35
M 64.4 9.3
Q 64.6 8.95 65 8.65 65.4 8.4 65.9 8.4 66.65 8.4 67.1 8.85 67.55 9.3 67.55 10.05
L 64.2 10.05
Q 64.2 9.8 64.4 9.3 Z"/>
</g>

<g id="IT_300x600_FR_psd_Asset_B___V6_2_Le_Wi_Fi_en_tant_que__service_peut_faire___conomiser_du_temps___0_Layer0_0_MEMBER_32_FILL">
<path fill="#D82C26" stroke="none" d="
M 4.05 20.95
Q 3.55 20.65 2.85 20.65 2.25 20.65 1.7 20.95 1.15 21.25 0.85 21.8 0.55 22.4 0.55 23.1 0.55 23.85 0.85 24.35 1.15 24.95 1.7 25.25 2.25 25.55 2.95 25.55 4 25.55 4.75 24.95
L 4.7 24.5 3.9 24.9
Q 3.4 25.1 3 25.1 2.5 25.1 2 24.85 1.55 24.5 1.35 24.15 1.1 23.65 1.1 23.2
L 5.05 23.2 5.05 22.95
Q 5.05 22.4 4.8 21.8 4.5 21.25 4.05 20.95
M 2.85 21.1
Q 3.6 21.1 4.05 21.55 4.5 22 4.5 22.75
L 1.15 22.75
Q 1.15 22.35 1.35 22 1.55 21.65 1.95 21.35 2.35 21.1 2.85 21.1
M 4.1 18.4
L 3.45 18.4 2.45 19.85 2.9 19.85 4.1 18.4 Z"/>
</g>

<g id="IT_300x600_FR_psd_Asset_B___V6_2_Le_Wi_Fi_en_tant_que__service_peut_faire___conomiser_du_temps___0_Layer0_0_MEMBER_33_FILL">
<path fill="#D82C26" stroke="none" d="
M 8.2 21.15
L 8.95 21.25
Q 9.1 21.3 9.55 21.65
L 9.75 21.2 9.1 20.8
Q 8.65 20.65 8.2 20.65 7.5 20.65 6.95 20.95 6.4 21.25 6.1 21.85 5.75 22.35 5.75 23.1 5.75 23.85 6.1 24.4 6.45 25 6.95 25.25 7.5 25.55 8.2 25.55 8.7 25.55 9.05 25.4 9.5 25.25 9.75 25
L 9.7 24.5
Q 9.5 24.7 9 24.9 8.7 25.05 8.25 25.05 7.75 25.05 7.25 24.8 6.8 24.5 6.6 24.1 6.35 23.6 6.35 23.1 6.35 22.6 6.6 22.1 6.8 21.7 7.25 21.4 7.65 21.15 8.2 21.15 Z"/>
</g>

<g id="IT_300x600_FR_psd_Asset_B___V6_2_Le_Wi_Fi_en_tant_que__service_peut_faire___conomiser_du_temps___0_Layer0_0_MEMBER_34_FILL">
<path fill="#D82C26" stroke="none" d="
M 12.6 20.65
Q 11.95 20.65 11.35 20.95 10.8 21.25 10.5 21.85 10.15 22.35 10.15 23.1 10.15 23.85 10.5 24.35 10.8 24.95 11.35 25.25 11.95 25.55 12.6 25.55 13.3 25.55 13.9 25.25 14.45 24.95 14.75 24.35 15.1 23.85 15.1 23.1 15.1 22.35 14.75 21.85 14.45 21.25 13.9 20.95 13.3 20.65 12.6 20.65
M 11.6 21.4
Q 12.1 21.15 12.6 21.15 13.1 21.15 13.6 21.4 14 21.6 14.25 22.1 14.5 22.5 14.5 23.1 14.5 23.7 14.3 24.1 14.15 24.45 13.6 24.8 13.2 25.05 12.6 25.05 12.1 25.05 11.6 24.8 11.1 24.4 10.95 24.1 10.75 23.7 10.75 23.1 10.75 22.5 10.95 22.1 11.15 21.65 11.6 21.4 Z"/>
</g>

<g id="IT_300x600_FR_psd_Asset_B___V6_2_Le_Wi_Fi_en_tant_que__service_peut_faire___conomiser_du_temps___0_Layer0_0_MEMBER_35_FILL">
<path fill="#D82C26" stroke="none" d="
M 18.25 21.15
Q 18.9 21.15 19.2 21.6 19.5 22.05 19.5 22.75
L 19.5 25.4 20.05 25.4 20.05 22.6
Q 20.05 21.75 19.65 21.2 19.2 20.65 18.35 20.65 17.8 20.65 17.35 20.95 16.85 21.3 16.7 21.8
L 16.65 21.8 16.6 20.8 16.05 20.8 16.1 25.4 16.7 25.4 16.7 23.05
Q 16.7 22.4 16.9 22.05 17.15 21.5 17.45 21.35 17.8 21.15 18.25 21.15 Z"/>
</g>

<g id="IT_300x600_FR_psd_Asset_B___V6_2_Le_Wi_Fi_en_tant_que__service_peut_faire___conomiser_du_temps___0_Layer0_0_MEMBER_36_FILL">
<path fill="#D82C26" stroke="none" d="
M 24.75 20.95
Q 24.25 20.65 23.5 20.65 22.8 20.65 22.25 20.95 21.65 21.25 21.35 21.85 21.05 22.4 21.05 23.1 21.05 23.85 21.35 24.35 21.65 24.95 22.25 25.25 22.8 25.55 23.5 25.55 24.25 25.55 24.75 25.25 25.35 24.95 25.65 24.35 25.95 23.85 25.95 23.1 25.95 22.4 25.65 21.85 25.35 21.25 24.75 20.95
M 23.5 21.15
Q 24 21.15 24.5 21.4 24.9 21.6 25.15 22.1 25.4 22.6 25.4 23.1 25.4 23.6 25.15 24.1 24.95 24.5 24.5 24.8 24 25.05 23.5 25.05 23 25.05 22.5 24.8 22.05 24.5 21.85 24.1 21.6 23.6 21.6 23.1 21.6 22.6 21.85 22.1 22.1 21.6 22.5 21.4 23 21.15 23.5 21.15 Z"/>
</g>

<g id="IT_300x600_FR_psd_Asset_B___V6_2_Le_Wi_Fi_en_tant_que__service_peut_faire___conomiser_du_temps___0_Layer0_0_MEMBER_37_FILL">
<path fill="#D82C26" stroke="none" d="
M 29.15 20.65
Q 28.65 20.65 28.2 20.95 27.8 21.2 27.55 21.8
L 27.5 20.8 26.95 20.8 27 25.4 27.55 25.4 27.55 23.1
Q 27.55 22.65 27.75 22.05 27.95 21.6 28.3 21.35 28.55 21.15 29 21.15 29.65 21.15 29.9 21.55 30.2 21.95 30.2 22.7
L 30.2 25.4 30.75 25.4 30.75 23.05
Q 30.75 22.2 31.2 21.65 31.55 21.15 32.25 21.15 32.95 21.15 33.15 21.6 33.45 22.05 33.45 22.8
L 33.45 25.4 34 25.4 34 22.65
Q 34 21.75 33.6 21.2 33.2 20.65 32.35 20.65 31.75 20.65 31.35 20.95 30.85 21.25 30.65 21.85 30.5 21.3 30.1 20.95 29.75 20.65 29.15 20.65 Z"/>
</g>

<g id="IT_300x600_FR_psd_Asset_B___V6_2_Le_Wi_Fi_en_tant_que__service_peut_faire___conomiser_du_temps___0_Layer0_0_MEMBER_38_FILL">
<path fill="#D82C26" stroke="none" d="
M 35.9 20.8
L 35.3 20.8 35.3 25.4 35.9 25.4 35.9 20.8
M 35.3 18.65
Q 35.15 18.75 35.15 18.95
L 35.3 19.25
Q 35.5 19.35 35.6 19.35
L 35.9 19.25 36 18.95 35.9 18.65 35.6 18.5
Q 35.45 18.5 35.3 18.65 Z"/>
</g>

<g id="IT_300x600_FR_psd_Asset_B___V6_2_Le_Wi_Fi_en_tant_que__service_peut_faire___conomiser_du_temps___0_Layer0_0_MEMBER_39_FILL">
<path fill="#D82C26" stroke="none" d="
M 39.3 20.8
Q 38.85 20.65 38.45 20.65
L 37.7 20.8 37.15 21.2
Q 36.9 21.55 36.9 21.9 36.9 22.45 37.25 22.7 37.6 23.05 38.25 23.2 38.9 23.4 39.2 23.65 39.5 23.9 39.5 24.2 39.5 24.65 39.2 24.85 38.85 25.1 38.45 25.1 37.6 25.1 36.95 24.55
L 36.85 25.05
Q 37.05 25.25 37.55 25.4 38 25.55 38.5 25.55
L 39.25 25.4
Q 39.65 25.25 39.85 24.95 40.05 24.7 40.05 24.2 40.05 23.7 39.7 23.4 39.35 23.05 38.65 22.85
L 37.75 22.45
Q 37.45 22.25 37.45 21.9 37.45 21.55 37.75 21.3 38 21.1 38.45 21.1 38.8 21.1 39.15 21.25 39.35 21.3 39.7 21.55
L 39.95 21.15 39.3 20.8 Z"/>
</g>

<g id="IT_300x600_FR_psd_Asset_B___V6_2_Le_Wi_Fi_en_tant_que__service_peut_faire___conomiser_du_temps___0_Layer0_0_MEMBER_40_FILL">
<path fill="#D82C26" stroke="none" d="
M 43 20.65
Q 42.4 20.65 41.85 20.95 41.3 21.25 41 21.8 40.7 22.4 40.7 23.1 40.7 23.85 41 24.35 41.3 24.95 41.85 25.25 42.4 25.55 43.1 25.55 44.15 25.55 44.9 24.95
L 44.8 24.5
Q 44.45 24.75 44.05 24.9 43.55 25.1 43.1 25.1 42.65 25.1 42.15 24.85 41.7 24.5 41.5 24.15 41.25 23.65 41.25 23.2
L 45.2 23.2 45.2 22.95
Q 45.2 22.4 44.95 21.8 44.65 21.25 44.2 20.95 43.7 20.65 43 20.65
M 42.1 21.35
Q 42.5 21.1 43 21.1 43.75 21.1 44.2 21.55 44.65 22 44.65 22.75
L 41.3 22.75
Q 41.3 22.35 41.5 22 41.7 21.65 42.1 21.35 Z"/>
</g>

<g id="IT_300x600_FR_psd_Asset_B___V6_2_Le_Wi_Fi_en_tant_que__service_peut_faire___conomiser_du_temps___0_Layer0_0_MEMBER_41_FILL">
<path fill="#D82C26" stroke="none" d="
M 48.6 20.75
L 48.1 20.65
Q 47.7 20.65 47.3 20.95 47 21.2 46.75 21.8
L 46.7 20.8 46.15 20.8 46.2 25.4 46.75 25.4 46.75 23.1
Q 46.75 22.35 47.1 21.75 47.5 21.15 48.1 21.15
L 48.5 21.25 48.6 20.75 Z"/>
</g>

<g id="IT_300x600_FR_psd_Asset_B___V6_2_Le_Wi_Fi_en_tant_que__service_peut_faire___conomiser_du_temps___0_Layer0_0_MEMBER_42_FILL">
<path fill="#D82C26" stroke="none" d="
M 55.45 17.85
L 54.9 17.95 54.9 21.8
Q 54.55 21.2 54.1 20.95 53.6 20.65 53 20.65 52.35 20.65 51.8 20.95 51.25 21.35 50.95 21.85 50.7 22.35 50.7 23.1 50.7 23.85 50.95 24.35 51.25 24.85 51.8 25.25 52.35 25.55 53 25.55 53.6 25.55 54.1 25.25 54.55 25 54.9 24.4
L 54.95 25.4 55.5 25.4 55.45 17.85
M 52.1 21.4
Q 52.6 21.15 53.1 21.15 53.6 21.15 54 21.4 54.4 21.7 54.7 22.1 54.9 22.5 54.9 23.1 54.9 23.7 54.7 24.1 54.4 24.5 54 24.8 53.6 25.05 53.1 25.05 52.5 25.05 52.1 24.8 51.75 24.6 51.5 24.1 51.25 23.6 51.25 23.1 51.25 22.6 51.5 22.1 51.7 21.75 52.1 21.4 Z"/>
</g>

<g id="IT_300x600_FR_psd_Asset_B___V6_2_Le_Wi_Fi_en_tant_que__service_peut_faire___conomiser_du_temps___0_Layer0_0_MEMBER_43_FILL">
<path fill="#D82C26" stroke="none" d="
M 56.75 20.8
L 56.75 23.6
Q 56.75 24.45 57.15 25 57.55 25.55 58.4 25.55 59 25.55 59.45 25.25 59.95 24.9 60.1 24.4
L 60.2 25.45 60.75 25.4 60.7 24.9 60.7 20.8 60.1 20.8 60.1 23.1
Q 60.1 23.75 59.9 24.15 59.65 24.7 59.35 24.85 59 25.05 58.55 25.05 57.9 25.05 57.6 24.6 57.3 24.15 57.3 23.45
L 57.3 20.8 56.75 20.8 Z"/>
</g>

<g id="IT_300x600_FR_psd_Asset_B___V6_2_Le_Wi_Fi_en_tant_que__service_peut_faire___conomiser_du_temps___0_Layer0_0_MEMBER_44_FILL">
<path fill="#D82C26" stroke="none" d="
M 64.1 21.25
L 64.1 24.3
Q 64.1 24.9 64.4 25.2 64.7 25.5 65.2 25.5
L 65.7 25.45
Q 66.05 25.35 66.15 25.25
L 66.1 24.85
Q 65.5 25.05 65.35 25.05 65.05 25.05 64.85 24.85 64.7 24.65 64.7 24.2
L 64.7 21.25 65.85 21.25 66 20.8 64.7 20.8 64.7 19.45 64.1 19.7 64.1 20.8 63.35 20.8 63.25 21.25 64.1 21.25 Z"/>
</g>

<g id="IT_300x600_FR_psd_Asset_B___V6_2_Le_Wi_Fi_en_tant_que__service_peut_faire___conomiser_du_temps___0_Layer0_0_MEMBER_45_FILL">
<path fill="#D82C26" stroke="none" d="
M 69.85 20.95
Q 69.35 20.65 68.65 20.65 68.05 20.65 67.5 20.95 66.95 21.25 66.65 21.8 66.35 22.4 66.35 23.1 66.35 23.85 66.7 24.35 67 24.95 67.5 25.25 68.1 25.55 68.75 25.55 69.85 25.55 70.6 24.95
L 70.5 24.5
Q 70.15 24.75 69.75 24.9 69.15 25.1 68.8 25.1 68.25 25.1 67.85 24.85 67.45 24.6 67.2 24.15 66.95 23.8 66.95 23.2
L 70.85 23.2 70.85 22.95
Q 70.85 22.25 70.6 21.8 70.35 21.25 69.85 20.95
M 68.65 21.1
Q 69.4 21.1 69.85 21.55 70.3 22 70.3 22.75
L 66.95 22.75
Q 66.95 22.5 67.15 22 67.35 21.65 67.75 21.35 68.15 21.1 68.65 21.1 Z"/>
</g>

<g id="IT_300x600_FR_psd_Asset_B___V6_2_Le_Wi_Fi_en_tant_que__service_peut_faire___conomiser_du_temps___0_Layer0_0_MEMBER_46_FILL">
<path fill="#D82C26" stroke="none" d="
M 73.9 21.15
Q 74.55 21.15 74.75 21.55 75.05 21.95 75.05 22.7
L 75.05 25.4 75.65 25.4 75.65 23.05
Q 75.65 22.2 76.05 21.65 76.5 21.15 77.1 21.15 77.75 21.15 78.05 21.6 78.35 22.05 78.35 22.8
L 78.35 25.4 78.9 25.4 78.9 22.65
Q 78.9 21.85 78.5 21.2 78.1 20.65 77.25 20.65 76.65 20.65 76.2 20.95 75.8 21.25 75.55 21.85 75.4 21.3 75 20.95 74.65 20.65 74.05 20.65 73.5 20.65 73.05 20.95 72.6 21.3 72.45 21.8
L 72.4 21.8 72.35 20.8 71.85 20.8 71.85 25.4 72.45 25.4 72.45 23.1
Q 72.45 22.45 72.65 22.05 72.75 21.75 73.15 21.35 73.5 21.15 73.9 21.15 Z"/>
</g>

<g id="IT_300x600_FR_psd_Asset_B___V6_2_Le_Wi_Fi_en_tant_que__service_peut_faire___conomiser_du_temps___0_Layer0_0_MEMBER_47_FILL">
<path fill="#D82C26" stroke="none" d="
M 82.65 20.65
Q 82.1 20.65 81.55 20.95 81.05 21.25 80.8 21.8
L 80.75 21.8 80.7 20.8 80.15 20.8 80.2 27.8 80.75 27.8 80.75 24.45 80.8 24.45
Q 81 24.95 81.55 25.25 82.1 25.55 82.65 25.55 83.35 25.55 83.85 25.25 84.35 24.95 84.7 24.35 85 23.75 85 23.1 85 22.45 84.7 21.85 84.35 21.3 83.85 20.95 83.35 20.65 82.65 20.65
M 81.65 21.4
Q 82.05 21.15 82.6 21.15 83.05 21.15 83.55 21.4 83.95 21.75 84.15 22.1 84.4 22.6 84.4 23.1 84.4 23.6 84.15 24.1 83.9 24.6 83.55 24.8 83.2 25.05 82.6 25.05 82.05 25.05 81.65 24.8 81.2 24.5 81 24.1 80.75 23.75 80.75 23.1 80.75 22.5 81 22.1 81.2 21.7 81.65 21.4 Z"/>
</g>

<g id="IT_300x600_FR_psd_Asset_B___V6_2_Le_Wi_Fi_en_tant_que__service_peut_faire___conomiser_du_temps___0_Layer0_0_MEMBER_48_FILL">
<path fill="#D82C26" stroke="none" d="
M 85.7 21.9
Q 85.7 22.5 86 22.7 86.5 23.1 87 23.2 87.7 23.45 88 23.65 88.3 23.9 88.3 24.2 88.3 24.65 87.95 24.85 87.6 25.1 87.25 25.1 86.4 25.1 85.7 24.55
L 85.6 25.05 86.3 25.4
Q 86.75 25.55 87.25 25.55 87.7 25.55 88.05 25.4 88.4 25.25 88.6 24.95 88.85 24.6 88.85 24.2 88.85 23.75 88.5 23.4 88.05 23.05 87.4 22.85
L 86.5 22.45
Q 86.25 22.25 86.25 21.9 86.25 21.55 86.5 21.3 86.75 21.1 87.25 21.1 87.6 21.1 87.9 21.25 88.05 21.3 88.45 21.55
L 88.7 21.15 88.05 20.8
Q 87.7 20.65 87.2 20.65 86.8 20.65 86.5 20.8 86.15 20.95 85.9 21.2 85.7 21.45 85.7 21.9 Z"/>
</g>

<g id="IT_300x600_FR_psd_Asset_B___V6_2_Le_Wi_Fi_en_tant_que__service_peut_faire___conomiser_du_temps___0_Layer0_0_MEMBER_49_FILL">
<path fill="#D82C26" stroke="none" d="
M 4.05 33.65
Q 3.55 33.35 2.85 33.35 2.25 33.35 1.7 33.65 1.15 33.95 0.85 34.55 0.55 35.1 0.55 35.8 0.55 36.55 0.85 37.05 1.15 37.65 1.7 37.95 2.25 38.25 2.95 38.25 3.95 38.25 4.75 37.7
L 4.7 37.2 3.9 37.6
Q 3.55 37.8 3 37.8 2.5 37.8 2 37.55 1.5 37.15 1.35 36.85 1.1 36.35 1.1 35.9
L 5.05 35.9 5.05 35.65
Q 5.05 35.1 4.8 34.5 4.5 33.95 4.05 33.65
M 1.35 34.7
Q 1.55 34.35 1.95 34.05 2.35 33.8 2.85 33.8 3.6 33.8 4.05 34.25 4.5 34.7 4.5 35.45
L 1.15 35.45
Q 1.15 35.05 1.35 34.7 Z"/>
</g>

<g id="IT_300x600_FR_psd_Asset_B___V6_2_Le_Wi_Fi_en_tant_que__service_peut_faire___conomiser_du_temps___0_Layer0_0_MEMBER_50_FILL">
<path fill="#D82C26" stroke="none" d="
M 7.9 33.95
L 8.05 33.5 6.75 33.5 6.75 32.15 6.15 32.4 6.15 33.5 5.4 33.5 5.3 33.95 6.15 33.95 6.15 37
Q 6.15 37.6 6.45 37.9 6.8 38.25 7.25 38.25
L 7.75 38.15 8.2 38 8.15 37.55
Q 7.75 37.75 7.4 37.75 7.1 37.75 6.9 37.55 6.75 37.35 6.75 36.95
L 6.75 33.95 7.9 33.95 Z"/>
</g>

<g id="IT_300x600_FR_psd_Asset_B___V6_2_Le_Wi_Fi_en_tant_que__service_peut_faire___conomiser_du_temps___0_Layer0_0_MEMBER_51_FILL">
<path fill="#D82C26" stroke="none" d="
M 13.8 33.65
Q 13.3 33.35 12.7 33.35 12 33.35 11.5 33.7 10.9 34.05 10.7 34.55 10.4 35.15 10.4 35.8 10.4 36.55 10.7 37.05 10.85 37.5 11.5 37.95 12.05 38.25 12.7 38.25 13.3 38.25 13.8 37.95 14.35 37.65 14.6 37.1
L 14.65 37.1 14.65 38.15 15.25 38.15 15.2 30.55 14.6 30.65 14.6 34.5
Q 14.25 33.9 13.8 33.65
M 11.2 34.85
Q 11.45 34.4 11.8 34.1 12.3 33.85 12.8 33.85 13.25 33.85 13.75 34.1 14.2 34.45 14.4 34.85 14.65 35.35 14.65 35.8 14.65 36.3 14.4 36.8 14.2 37.25 13.75 37.5 13.4 37.75 12.8 37.75 12.2 37.75 11.8 37.5 11.45 37.3 11.2 36.8 10.95 36.3 10.95 35.8 10.95 35.35 11.2 34.85 Z"/>
</g>

<g id="IT_300x600_FR_psd_Asset_B___V6_2_Le_Wi_Fi_en_tant_que__service_peut_faire___conomiser_du_temps___0_Layer0_0_MEMBER_52_FILL">
<path fill="#D82C26" stroke="none" d="
M 19.7 33.65
Q 19.2 33.35 18.5 33.35 17.85 33.35 17.3 33.65 16.8 33.95 16.5 34.55 16.2 35.1 16.2 35.8 16.2 36.55 16.5 37.05 16.8 37.65 17.35 37.95 17.9 38.25 18.55 38.25 19.6 38.25 20.4 37.7
L 20.3 37.2
Q 19.95 37.45 19.55 37.6 19.15 37.8 18.6 37.8 18.15 37.8 17.65 37.55 17.15 37.15 17 36.85 16.75 36.35 16.75 35.9
L 20.7 35.9 20.7 35.65
Q 20.7 35.1 20.45 34.5 20.15 33.95 19.7 33.65
M 17 34.7
Q 17.25 34.3 17.6 34.05 18 33.8 18.5 33.8 19.25 33.8 19.7 34.25 20.15 34.8 20.15 35.45
L 16.75 35.45
Q 16.85 34.95 17 34.7 Z"/>
</g>

<g id="IT_300x600_FR_psd_Asset_B___V6_2_Le_Wi_Fi_en_tant_que__service_peut_faire___conomiser_du_temps___0_Layer0_0_MEMBER_53_FILL">
<path fill="#D82C26" stroke="none" d="
M 23.85 37.85
L 24.4 38.25 24.65 37.75
Q 24.4 37.6 24.35 37.45 24.25 37.35 24.25 36.95
L 24.25 30.6 23.65 30.7 23.65 37.1
Q 23.65 37.6 23.85 37.85 Z"/>
</g>

<g id="IT_300x600_FR_psd_Asset_B___V6_2_Le_Wi_Fi_en_tant_que__service_peut_faire___conomiser_du_temps___0_Layer0_0_MEMBER_54_FILL">
<path fill="#D82C26" stroke="none" d="
M 26.75 31.7
Q 26.75 31.5 26.65 31.3 26.5 31.15 26.3 31.15 26.1 31.15 26 31.25 25.9 31.35 25.9 31.55 25.9 31.8 26 31.9
L 26.3 32
Q 26.2 32.45 26.05 32.65
L 25.65 33.2 25.85 33.35
Q 26.75 32.55 26.75 31.7 Z"/>
</g>

<g id="IT_300x600_FR_psd_Asset_B___V6_2_Le_Wi_Fi_en_tant_que__service_peut_faire___conomiser_du_temps___0_Layer0_0_MEMBER_55_FILL">
<path fill="#D82C26" stroke="none" d="
M 28.1 34
Q 28.45 33.8 28.9 33.8 29.5 33.8 29.85 34.15 30.2 34.5 30.2 35.1
L 30.2 35.35 29.65 35.35
Q 27 35.35 27 36.9 27 37.65 27.4 37.9 27.8 38.25 28.45 38.25 28.9 38.25 29.5 38 30 37.7 30.2 37.25
L 30.3 38.15 30.8 38.15 30.75 35.1
Q 30.75 34.25 30.25 33.8 29.8 33.35 28.95 33.35 28.45 33.35 28 33.5 27.55 33.65 27.25 33.95
L 27.4 34.4
Q 27.8 34.1 28.1 34
M 30.2 36.2
Q 30.2 36.6 30 36.95 29.9 37.25 29.45 37.6 29.1 37.8 28.55 37.8 28.1 37.8 27.85 37.6 27.55 37.4 27.55 36.85 27.55 35.75 29.7 35.75
L 30.2 35.75 30.2 36.2 Z"/>
</g>

<g id="IT_300x600_FR_psd_Asset_B___V6_2_Le_Wi_Fi_en_tant_que__service_peut_faire___conomiser_du_temps___0_Layer0_0_MEMBER_56_FILL">
<path fill="#D82C26" stroke="none" d="
M 33.95 33.35
Q 33.55 33.35 33.15 33.65 32.75 33.95 32.6 34.5
L 32.55 34.5 32.5 33.5 31.95 33.5 32 38.15 32.6 38.15 32.6 35.8
Q 32.6 34.95 32.95 34.45 33.3 33.9 33.9 33.9
L 34.3 33.95 34.45 33.45 33.95 33.35 Z"/>
</g>

<g id="IT_300x600_FR_psd_Asset_B___V6_2_Le_Wi_Fi_en_tant_que__service_peut_faire___conomiser_du_temps___0_Layer0_0_MEMBER_57_FILL">
<path fill="#D82C26" stroke="none" d="
M 34.8 34.55
Q 34.5 35.15 34.5 35.8 34.5 36.45 34.8 37.05 35.1 37.6 35.65 37.9 36.2 38.2 36.85 38.2 37.45 38.2 37.95 37.9 38.5 37.6 38.7 37.1
L 38.75 37.1 38.75 38.05
Q 38.75 39.05 38.3 39.55 37.85 40.05 36.85 40.05 36.3 40.05 35.85 39.9 35.35 39.75 34.95 39.45
L 34.8 40 35.75 40.4 36.85 40.55
Q 38.1 40.55 38.7 39.9 39.3 39.15 39.3 38.05
L 39.35 33.5 38.8 33.5 38.75 34.5
Q 38.4 33.9 37.95 33.65 37.45 33.35 36.85 33.35 36.15 33.35 35.65 33.7 35.1 34 34.8 34.55
M 35.1 35.8
Q 35.1 35.25 35.35 34.85 35.6 34.4 35.95 34.1 36.45 33.85 36.95 33.85 37.45 33.85 37.85 34.1 38.25 34.4 38.55 34.8 38.75 35.2 38.75 35.8 38.75 36.4 38.55 36.75 38.2 37.25 37.85 37.5 37.45 37.75 36.95 37.75 36.4 37.75 35.95 37.45 35.6 37.25 35.35 36.75 35.1 36.25 35.1 35.8 Z"/>
</g>

<g id="IT_300x600_FR_psd_Asset_B___V6_2_Le_Wi_Fi_en_tant_que__service_peut_faire___conomiser_du_temps___0_Layer0_0_MEMBER_58_FILL">
<path fill="#D82C26" stroke="none" d="
M 42.6 33.35
Q 42 33.35 41.45 33.65 40.9 33.95 40.6 34.55 40.3 35.1 40.3 35.8 40.3 36.55 40.65 37.05 40.95 37.65 41.45 37.95 42.05 38.25 42.7 38.25 43.75 38.25 44.55 37.7
L 44.45 37.2
Q 44.1 37.45 43.7 37.6 43.3 37.8 42.75 37.8 42.2 37.8 41.8 37.55 41.35 37.25 41.15 36.85 40.9 36.5 40.9 35.9
L 44.8 35.9 44.8 35.65
Q 44.8 34.95 44.55 34.5 44.3 33.95 43.8 33.65 43.3 33.35 42.6 33.35
M 41.1 34.7
Q 41.3 34.35 41.7 34.05 42.1 33.8 42.6 33.8 43.35 33.8 43.8 34.25 44.25 34.7 44.25 35.45
L 40.9 35.45
Q 40.9 35.2 41.1 34.7 Z"/>
</g>

<g id="IT_300x600_FR_psd_Asset_B___V6_2_Le_Wi_Fi_en_tant_que__service_peut_faire___conomiser_du_temps___0_Layer0_0_MEMBER_59_FILL">
<path fill="#D82C26" stroke="none" d="
M 46.35 33.5
L 45.8 33.5 45.8 38.15 46.4 38.15 46.4 35.75
Q 46.4 35.15 46.6 34.75 46.75 34.45 47.15 34.05 47.5 33.85 47.95 33.85 48.7 33.85 48.9 34.3 49.2 34.75 49.2 35.45
L 49.2 38.15 49.8 38.15 49.8 35.3
Q 49.8 34.5 49.35 33.9 48.95 33.35 48.05 33.35 47.5 33.35 47.05 33.65 46.6 34 46.4 34.5
L 46.35 33.5 Z"/>
</g>

<g id="IT_300x600_FR_psd_Asset_B___V6_2_Le_Wi_Fi_en_tant_que__service_peut_faire___conomiser_du_temps___0_Layer0_0_MEMBER_60_FILL">
<path fill="#D82C26" stroke="none" d="
M 51.15 33.95
L 51.15 37
Q 51.15 37.6 51.45 37.9 51.8 38.25 52.25 38.25
L 52.75 38.15 53.2 38 53.15 37.55
Q 52.75 37.75 52.4 37.75 52.1 37.75 51.9 37.55 51.75 37.35 51.75 36.95
L 51.75 33.95 52.95 33.95 53.05 33.5 51.75 33.5 51.75 32.15 51.15 32.4 51.15 33.5 50.4 33.5 50.3 33.95 51.15 33.95 Z"/>
</g>

<g id="IT_300x600_FR_psd_Asset_B___V6_2_Le_Wi_Fi_en_tant_que__service_peut_faire___conomiser_du_temps___0_Layer0_0_MEMBER_61_FILL">
<path fill="#D82C26" stroke="none" d="
M 56.5 34
Q 56.9 33.8 57.3 33.8 57.95 33.8 58.25 34.15 58.6 34.45 58.6 35.1
L 58.6 35.35 58.05 35.35
Q 55.4 35.35 55.4 36.9 55.4 37.6 55.85 37.9 56.25 38.25 56.9 38.25 57.4 38.25 57.9 38 58.35 37.75 58.6 37.25
L 58.65 37.25 58.7 38.15 59.25 38.15 59.15 35.1
Q 59.15 34.25 58.7 33.8 58.25 33.35 57.4 33.35 56.9 33.35 56.45 33.5 56.05 33.65 55.65 33.95
L 55.85 34.4 56.5 34
M 55.95 36.85
Q 55.95 35.75 58.15 35.75
L 58.6 35.75 58.6 36.2 58.45 36.95
Q 58.2 37.35 57.9 37.6 57.55 37.8 57 37.8 56.5 37.8 56.25 37.6 55.95 37.4 55.95 36.85
M 56.3 31.1
L 57.5 32.55 58 32.55 57 31.1 56.3 31.1 Z"/>
</g>

<g id="IT_300x600_FR_psd_Asset_B___V6_2_Le_Wi_Fi_en_tant_que__service_peut_faire___conomiser_du_temps___0_Layer0_0_MEMBER_62_FILL">
<path fill="#D82C26" stroke="none" d="
M 61.6 33.5
L 63.35 38.15 64 38.15 65.75 33.5 65.15 33.5 63.7 37.55 62.2 33.5 61.6 33.5 Z"/>
</g>

<g id="IT_300x600_FR_psd_Asset_B___V6_2_Le_Wi_Fi_en_tant_que__service_peut_faire___conomiser_du_temps___0_Layer0_0_MEMBER_63_FILL">
<path fill="#D82C26" stroke="none" d="
M 69.65 33.65
Q 69.15 33.35 68.4 33.35 67.7 33.35 67.15 33.65 66.55 33.95 66.25 34.55 65.95 35.1 65.95 35.8 65.95 36.55 66.25 37.05 66.55 37.65 67.15 37.95 67.7 38.25 68.4 38.25 69.15 38.25 69.65 37.95 70.25 37.65 70.55 37.05 70.85 36.55 70.85 35.8 70.85 35.1 70.55 34.55 70.25 33.95 69.65 33.65
M 66.75 34.8
Q 66.95 34.4 67.4 34.1 67.9 33.85 68.4 33.85 68.9 33.85 69.4 34.1 69.85 34.4 70.05 34.8 70.3 35.3 70.3 35.8 70.3 36.3 70.05 36.8 69.8 37.3 69.4 37.5 69.05 37.75 68.4 37.75 67.8 37.75 67.4 37.5 67 37.3 66.75 36.8 66.5 36.3 66.5 35.8 66.5 35.3 66.75 34.8 Z"/>
</g>

<g id="IT_300x600_FR_psd_Asset_B___V6_2_Le_Wi_Fi_en_tant_que__service_peut_faire___conomiser_du_temps___0_Layer0_0_MEMBER_64_FILL">
<path fill="#D82C26" stroke="none" d="
M 73.65 33.95
L 73.8 33.5 72.5 33.5 72.5 32.15 71.9 32.4 71.9 33.5 71.15 33.5 71.05 33.95 71.9 33.95 71.9 37
Q 71.9 37.6 72.2 37.9 72.55 38.25 73 38.25
L 73.5 38.15 73.95 38 73.9 37.55
Q 73.5 37.75 73.15 37.75 72.85 37.75 72.65 37.55 72.5 37.35 72.5 36.95
L 72.5 33.95 73.65 33.95 Z"/>
</g>

<g id="IT_300x600_FR_psd_Asset_B___V6_2_Le_Wi_Fi_en_tant_que__service_peut_faire___conomiser_du_temps___0_Layer0_0_MEMBER_65_FILL">
<path fill="#D82C26" stroke="none" d="
M 75.15 33.5
L 74.6 33.5 74.65 38.15 75.25 38.15 75.25 35.8
Q 75.25 34.95 75.6 34.45 75.9 33.9 76.55 33.9
L 76.95 33.95 77.1 33.45 76.6 33.35
Q 76.2 33.35 75.8 33.65 75.4 33.95 75.25 34.5
L 75.2 34.5 75.15 33.5 Z"/>
</g>

<g id="IT_300x600_FR_psd_Asset_B___V6_2_Le_Wi_Fi_en_tant_que__service_peut_faire___conomiser_du_temps___0_Layer0_0_MEMBER_66_FILL">
<path fill="#D82C26" stroke="none" d="
M 81.65 35.65
Q 81.65 34.95 81.4 34.5 81.15 33.95 80.65 33.65 80.15 33.35 79.45 33.35 78.85 33.35 78.3 33.65 77.75 33.95 77.45 34.55 77.15 35.1 77.15 35.8 77.15 36.55 77.45 37.05 77.85 37.7 78.3 37.95 78.9 38.25 79.55 38.25 80.55 38.25 81.4 37.7
L 81.3 37.2
Q 80.95 37.45 80.55 37.6 80.15 37.8 79.6 37.8 79.05 37.8 78.65 37.55 78.2 37.25 78 36.85 77.75 36.5 77.75 35.9
L 81.65 35.9 81.65 35.65
M 77.75 35.45
Q 77.75 35.2 77.95 34.7 78.15 34.35 78.55 34.05 78.95 33.8 79.45 33.8 80.2 33.8 80.65 34.25 81.1 34.7 81.1 35.45
L 77.75 35.45 Z"/>
</g>

<g id="IT_300x600_FR_psd_Asset_B___V6_2_Le_Wi_Fi_en_tant_que__service_peut_faire___conomiser_du_temps___0_Layer0_0_MEMBER_67_FILL">
<path fill="#D82C26" stroke="none" d="
M 4.05 46.35
Q 3.55 46.05 2.85 46.05 2.25 46.05 1.7 46.35 1.1 46.8 0.85 47.25 0.55 47.8 0.55 48.5 0.55 49.2 0.85 49.8 1.15 50.35 1.7 50.65 2.25 50.95 2.95 50.95 4.05 50.95 4.75 50.4
L 4.7 49.9 3.9 50.35
Q 3.55 50.5 3 50.5 2.5 50.5 2 50.25 1.5 49.85 1.35 49.55 1.1 49.05 1.1 48.6
L 5.05 48.6 5.05 48.35
Q 5.05 47.8 4.8 47.2 4.5 46.65 4.05 46.35
M 1.35 47.45
Q 1.55 47.05 1.95 46.8 2.35 46.5 2.85 46.5 3.6 46.5 4.05 46.95 4.5 47.4 4.5 48.2
L 1.15 48.2
Q 1.15 47.8 1.35 47.45 Z"/>
</g>

<g id="IT_300x600_FR_psd_Asset_B___V6_2_Le_Wi_Fi_en_tant_que__service_peut_faire___conomiser_du_temps___0_Layer0_0_MEMBER_68_FILL">
<path fill="#D82C26" stroke="none" d="
M 6.55 46.2
L 6 46.2 6.05 50.85 6.65 50.85 6.65 48.45
Q 6.65 47.85 6.85 47.45 7.1 47 7.4 46.8 7.8 46.55 8.2 46.55 8.85 46.55 9.15 47 9.45 47.45 9.45 48.15
L 9.45 50.85 10 50.85 10 48
Q 10 47.1 9.6 46.65 9.15 46.05 8.3 46.05 7.85 46.05 7.3 46.4 6.8 46.75 6.65 47.2
L 6.6 47.2 6.55 46.2 Z"/>
</g>

<g id="IT_300x600_FR_psd_Asset_B___V6_2_Le_Wi_Fi_en_tant_que__service_peut_faire___conomiser_du_temps___0_Layer0_0_MEMBER_69_FILL">
<path fill="#D82C26" stroke="none" d="
M 11.4 46.2
L 10.65 46.2 10.5 46.65 11.4 46.65 11.4 49.7
Q 11.4 50.3 11.7 50.6 12 50.95 12.45 50.95
L 13 50.85 13.45 50.7 13.4 50.25
Q 13 50.45 12.65 50.45 12.3 50.45 12.15 50.25 11.95 50.05 11.95 49.65
L 11.95 46.65 13.15 46.65 13.3 46.2 11.95 46.2 11.95 44.9 11.4 45.1 11.4 46.2 Z"/>
</g>

<g id="IT_300x600_FR_psd_Asset_B___V6_2_Le_Wi_Fi_en_tant_que__service_peut_faire___conomiser_du_temps___0_Layer0_0_MEMBER_70_FILL">
<path fill="#D82C26" stroke="none" d="
M 14.75 48.55
Q 14.75 47.7 15.1 47.15 15.4 46.6 16.05 46.6
L 16.45 46.65 16.55 46.15 16.05 46.05
Q 15.7 46.05 15.25 46.35 14.95 46.6 14.7 47.2
L 14.65 46.2 14.1 46.2 14.15 50.85 14.75 50.85 14.75 48.55 Z"/>
</g>

<g id="IT_300x600_FR_psd_Asset_B___V6_2_Le_Wi_Fi_en_tant_que__service_peut_faire___conomiser_du_temps___0_Layer0_0_MEMBER_71_FILL">
<path fill="#D82C26" stroke="none" d="
M 20.15 46.35
Q 19.65 46.05 18.95 46.05 18.35 46.05 17.8 46.35 17.2 46.8 16.95 47.25 16.65 47.8 16.65 48.5 16.65 49.2 16.95 49.8 17.25 50.35 17.8 50.65 18.35 50.95 19 50.95 20.15 50.95 20.85 50.4
L 20.75 49.9 20 50.35
Q 19.65 50.5 19.05 50.5 18.6 50.5 18.1 50.25 17.6 49.85 17.45 49.55 17.2 49.05 17.2 48.6
L 21.15 48.6 21.15 48.35
Q 21.15 47.8 20.9 47.2 20.6 46.65 20.15 46.35
M 18.95 46.5
Q 19.7 46.5 20.15 46.95 20.6 47.4 20.6 48.2
L 17.25 48.2
Q 17.25 47.8 17.45 47.45 17.65 47.05 18.05 46.8 18.45 46.5 18.95 46.5 Z"/>
</g>

<g id="IT_300x600_FR_psd_Asset_B___V6_2_Le_Wi_Fi_en_tant_que__service_peut_faire___conomiser_du_temps___0_Layer0_0_MEMBER_72_FILL">
<path fill="#D82C26" stroke="none" d="
M 24.6 46.05
Q 24.05 46.05 23.5 46.35 22.95 46.7 22.75 47.2
L 22.7 47.2 22.65 46.2 22.1 46.2 22.15 53.2 22.7 53.2 22.7 49.85 22.75 49.85
Q 22.95 50.25 23.5 50.65 24.05 50.95 24.6 50.95 25.35 50.95 25.85 50.65 26.35 50.35 26.65 49.75 26.95 49.25 26.95 48.5 26.95 47.85 26.65 47.25 26.3 46.65 25.85 46.4 25.25 46.05 24.6 46.05
M 22.95 47.55
Q 23.2 47.1 23.6 46.8 24.1 46.55 24.55 46.55 25 46.55 25.5 46.8 25.95 47.15 26.15 47.55 26.35 47.95 26.35 48.5 26.35 49.1 26.15 49.5 25.95 49.95 25.5 50.2 25.05 50.5 24.55 50.5 24.05 50.5 23.6 50.2 23.2 50 22.95 49.5 22.7 49 22.7 48.5 22.7 48.05 22.95 47.55 Z"/>
</g>

<g id="IT_300x600_FR_psd_Asset_B___V6_2_Le_Wi_Fi_en_tant_que__service_peut_faire___conomiser_du_temps___0_Layer0_0_MEMBER_73_FILL">
<path fill="#D82C26" stroke="none" d="
M 28.45 46.2
L 27.9 46.2 27.95 50.85 28.55 50.85 28.55 48.55
Q 28.55 47.7 28.9 47.15 29.3 46.6 29.85 46.6
L 30.25 46.65 30.4 46.15 29.9 46.05
Q 29.5 46.05 29.1 46.35 28.7 46.65 28.55 47.2
L 28.5 47.2 28.45 46.2 Z"/>
</g>

<g id="IT_300x600_FR_psd_Asset_B___V6_2_Le_Wi_Fi_en_tant_que__service_peut_faire___conomiser_du_temps___0_Layer0_0_MEMBER_74_FILL">
<path fill="#D82C26" stroke="none" d="
M 31.6 46.2
L 31 46.2 31 50.85 31.6 50.85 31.6 46.2
M 31.3 44.8
L 31.6 44.65
Q 31.7 44.55 31.7 44.35 31.7 44.15 31.6 44.05
L 31.3 43.95 31 44.05 30.9 44.35 31 44.65 31.3 44.8 Z"/>
</g>

<g id="IT_300x600_FR_psd_Asset_B___V6_2_Le_Wi_Fi_en_tant_que__service_peut_faire___conomiser_du_temps___0_Layer0_0_MEMBER_75_FILL">
<path fill="#D82C26" stroke="none" d="
M 35 46.2
Q 34.65 46.05 34.15 46.05 33.75 46.05 33.45 46.2 33.1 46.35 32.85 46.65 32.65 46.9 32.65 47.35 32.65 47.85 32.95 48.15 33.3 48.45 33.95 48.65 34.65 48.9 34.95 49.1 35.25 49.25 35.25 49.65 35.25 50 34.9 50.3 34.65 50.5 34.2 50.5 33.35 50.5 32.65 49.95
L 32.55 50.45
Q 32.95 50.75 33.25 50.8 33.7 50.95 34.2 50.95 34.65 50.95 35 50.8 35.35 50.65 35.55 50.35 35.8 50 35.8 49.6 35.8 49.15 35.45 48.8 35 48.45 34.35 48.25
L 33.45 47.85
Q 33.2 47.65 33.2 47.3 33.2 46.95 33.45 46.7 33.75 46.55 34.2 46.55 34.65 46.55 34.85 46.65
L 35.4 47 35.65 46.55 35 46.2 Z"/>
</g>

<g id="IT_300x600_FR_psd_Asset_B___V6_2_Le_Wi_Fi_en_tant_que__service_peut_faire___conomiser_du_temps___0_Layer0_0_MEMBER_76_FILL">
<path fill="#D82C26" stroke="none" d="
M 40.9 48.35
Q 40.9 47.65 40.65 47.2 40.4 46.65 39.9 46.35 39.4 46.05 38.7 46.05 38.1 46.05 37.55 46.35 36.95 46.8 36.7 47.25 36.4 47.8 36.4 48.5 36.4 49.25 36.75 49.8 37.1 50.4 37.55 50.65 38.15 50.95 38.8 50.95 39.95 50.95 40.65 50.4
L 40.55 49.9 39.8 50.35
Q 39.35 50.5 38.85 50.5 38.3 50.5 37.9 50.25 37.45 49.95 37.25 49.55 37 49.2 37 48.6
L 40.9 48.6 40.9 48.35
M 37.2 47.45
Q 37.4 47.05 37.8 46.8 38.2 46.5 38.7 46.5 39.45 46.5 39.9 46.95 40.35 47.4 40.35 48.2
L 37 48.2
Q 37 47.95 37.2 47.45 Z"/>
</g>

<g id="IT_300x600_FR_psd_Asset_B___V6_2_Le_Wi_Fi_en_tant_que__service_peut_faire___conomiser_du_temps___0_Layer0_0_MEMBER_77_FILL">
<path fill="#D82C26" stroke="none" d="
M 41.85 50.8
L 42.15 50.9
Q 42.4 50.9 42.45 50.75 42.6 50.7 42.6 50.45 42.6 50.25 42.45 50.15 42.4 50 42.15 50
L 41.85 50.15 41.7 50.45
Q 41.7 50.65 41.85 50.8 Z"/>
</g>
</defs>

<g transform="matrix( 1, 0, 0, 1, -118,38) ">
<g transform="matrix( 1, 0, 0, 1, 113,0) ">
<g transform="matrix( 1, 0, 0, 1, 35,6) ">
<g transform="matrix( 2.815704345703125, 0, 0, 2.832611083984375, -0.85,19.6) ">
<use xlink:href="#IT_300x600_FR_psd_Asset_B___V6_2_Le_Wi_Fi_en_tant_que__service_peut_faire___conomiser_du_temps___0_Layer0_0_MEMBER_0_FILL"/>
</g>

<g transform="matrix( 2.815704345703125, 0, 0, 2.832611083984375, -0.85,19.6) ">
<use xlink:href="#IT_300x600_FR_psd_Asset_B___V6_2_Le_Wi_Fi_en_tant_que__service_peut_faire___conomiser_du_temps___0_Layer0_0_MEMBER_1_FILL"/>
</g>

<g transform="matrix( 2.815704345703125, 0, 0, 2.832611083984375, -0.85,19.6) ">
<use xlink:href="#IT_300x600_FR_psd_Asset_B___V6_2_Le_Wi_Fi_en_tant_que__service_peut_faire___conomiser_du_temps___0_Layer0_0_MEMBER_2_FILL"/>
</g>

<g transform="matrix( 2.815704345703125, 0, 0, 2.832611083984375, -0.85,19.6) ">
<use xlink:href="#IT_300x600_FR_psd_Asset_B___V6_2_Le_Wi_Fi_en_tant_que__service_peut_faire___conomiser_du_temps___0_Layer0_0_MEMBER_3_FILL"/>
</g>

<g transform="matrix( 2.815704345703125, 0, 0, 2.832611083984375, -0.85,19.6) ">
<use xlink:href="#IT_300x600_FR_psd_Asset_B___V6_2_Le_Wi_Fi_en_tant_que__service_peut_faire___conomiser_du_temps___0_Layer0_0_MEMBER_4_FILL"/>
</g>

<g transform="matrix( 2.815704345703125, 0, 0, 2.832611083984375, -0.85,19.6) ">
<use xlink:href="#IT_300x600_FR_psd_Asset_B___V6_2_Le_Wi_Fi_en_tant_que__service_peut_faire___conomiser_du_temps___0_Layer0_0_MEMBER_5_FILL"/>
</g>

<g transform="matrix( 2.815704345703125, 0, 0, 2.832611083984375, -0.85,19.6) ">
<use xlink:href="#IT_300x600_FR_psd_Asset_B___V6_2_Le_Wi_Fi_en_tant_que__service_peut_faire___conomiser_du_temps___0_Layer0_0_MEMBER_6_FILL"/>
</g>

<g transform="matrix( 2.815704345703125, 0, 0, 2.832611083984375, -0.85,19.6) ">
<use xlink:href="#IT_300x600_FR_psd_Asset_B___V6_2_Le_Wi_Fi_en_tant_que__service_peut_faire___conomiser_du_temps___0_Layer0_0_MEMBER_7_FILL"/>
</g>

<g transform="matrix( 2.815704345703125, 0, 0, 2.832611083984375, -0.85,19.6) ">
<use xlink:href="#IT_300x600_FR_psd_Asset_B___V6_2_Le_Wi_Fi_en_tant_que__service_peut_faire___conomiser_du_temps___0_Layer0_0_MEMBER_8_FILL"/>
</g>

<g transform="matrix( 2.815704345703125, 0, 0, 2.832611083984375, -0.85,19.6) ">
<use xlink:href="#IT_300x600_FR_psd_Asset_B___V6_2_Le_Wi_Fi_en_tant_que__service_peut_faire___conomiser_du_temps___0_Layer0_0_MEMBER_9_FILL"/>
</g>

<g transform="matrix( 2.815704345703125, 0, 0, 2.832611083984375, -0.85,19.6) ">
<use xlink:href="#IT_300x600_FR_psd_Asset_B___V6_2_Le_Wi_Fi_en_tant_que__service_peut_faire___conomiser_du_temps___0_Layer0_0_MEMBER_10_FILL"/>
</g>

<g transform="matrix( 2.815704345703125, 0, 0, 2.832611083984375, -0.85,19.6) ">
<use xlink:href="#IT_300x600_FR_psd_Asset_B___V6_2_Le_Wi_Fi_en_tant_que__service_peut_faire___conomiser_du_temps___0_Layer0_0_MEMBER_11_FILL"/>
</g>

<g transform="matrix( 2.815704345703125, 0, 0, 2.832611083984375, -0.85,19.6) ">
<use xlink:href="#IT_300x600_FR_psd_Asset_B___V6_2_Le_Wi_Fi_en_tant_que__service_peut_faire___conomiser_du_temps___0_Layer0_0_MEMBER_12_FILL"/>
</g>

<g transform="matrix( 2.815704345703125, 0, 0, 2.832611083984375, -0.85,19.6) ">
<use xlink:href="#IT_300x600_FR_psd_Asset_B___V6_2_Le_Wi_Fi_en_tant_que__service_peut_faire___conomiser_du_temps___0_Layer0_0_MEMBER_13_FILL"/>
</g>

<g transform="matrix( 2.815704345703125, 0, 0, 2.832611083984375, -0.85,19.6) ">
<use xlink:href="#IT_300x600_FR_psd_Asset_B___V6_2_Le_Wi_Fi_en_tant_que__service_peut_faire___conomiser_du_temps___0_Layer0_0_MEMBER_14_FILL"/>
</g>

<g transform="matrix( 2.815704345703125, 0, 0, 2.832611083984375, -0.85,19.6) ">
<use xlink:href="#IT_300x600_FR_psd_Asset_B___V6_2_Le_Wi_Fi_en_tant_que__service_peut_faire___conomiser_du_temps___0_Layer0_0_MEMBER_15_FILL"/>
</g>

<g transform="matrix( 2.815704345703125, 0, 0, 2.832611083984375, -0.85,19.6) ">
<use xlink:href="#IT_300x600_FR_psd_Asset_B___V6_2_Le_Wi_Fi_en_tant_que__service_peut_faire___conomiser_du_temps___0_Layer0_0_MEMBER_16_FILL"/>
</g>

<g transform="matrix( 2.815704345703125, 0, 0, 2.832611083984375, -0.85,19.6) ">
<use xlink:href="#IT_300x600_FR_psd_Asset_B___V6_2_Le_Wi_Fi_en_tant_que__service_peut_faire___conomiser_du_temps___0_Layer0_0_MEMBER_17_FILL"/>
</g>

<g transform="matrix( 2.815704345703125, 0, 0, 2.832611083984375, -0.85,19.6) ">
<use xlink:href="#IT_300x600_FR_psd_Asset_B___V6_2_Le_Wi_Fi_en_tant_que__service_peut_faire___conomiser_du_temps___0_Layer0_0_MEMBER_18_FILL"/>
</g>

<g transform="matrix( 2.815704345703125, 0, 0, 2.832611083984375, -0.85,19.6) ">
<use xlink:href="#IT_300x600_FR_psd_Asset_B___V6_2_Le_Wi_Fi_en_tant_que__service_peut_faire___conomiser_du_temps___0_Layer0_0_MEMBER_19_FILL"/>
</g>

<g transform="matrix( 2.815704345703125, 0, 0, 2.832611083984375, -0.85,19.6) ">
<use xlink:href="#IT_300x600_FR_psd_Asset_B___V6_2_Le_Wi_Fi_en_tant_que__service_peut_faire___conomiser_du_temps___0_Layer0_0_MEMBER_20_FILL"/>
</g>

<g transform="matrix( 2.815704345703125, 0, 0, 2.832611083984375, -0.85,19.6) ">
<use xlink:href="#IT_300x600_FR_psd_Asset_B___V6_2_Le_Wi_Fi_en_tant_que__service_peut_faire___conomiser_du_temps___0_Layer0_0_MEMBER_21_FILL"/>
</g>

<g transform="matrix( 2.815704345703125, 0, 0, 2.832611083984375, -0.85,19.6) ">
<use xlink:href="#IT_300x600_FR_psd_Asset_B___V6_2_Le_Wi_Fi_en_tant_que__service_peut_faire___conomiser_du_temps___0_Layer0_0_MEMBER_22_FILL"/>
</g>

<g transform="matrix( 2.815704345703125, 0, 0, 2.832611083984375, -0.85,19.6) ">
<use xlink:href="#IT_300x600_FR_psd_Asset_B___V6_2_Le_Wi_Fi_en_tant_que__service_peut_faire___conomiser_du_temps___0_Layer0_0_MEMBER_23_FILL"/>
</g>

<g transform="matrix( 2.815704345703125, 0, 0, 2.832611083984375, -0.85,19.6) ">
<use xlink:href="#IT_300x600_FR_psd_Asset_B___V6_2_Le_Wi_Fi_en_tant_que__service_peut_faire___conomiser_du_temps___0_Layer0_0_MEMBER_24_FILL"/>
</g>

<g transform="matrix( 2.815704345703125, 0, 0, 2.832611083984375, -0.85,19.6) ">
<use xlink:href="#IT_300x600_FR_psd_Asset_B___V6_2_Le_Wi_Fi_en_tant_que__service_peut_faire___conomiser_du_temps___0_Layer0_0_MEMBER_25_FILL"/>
</g>

<g transform="matrix( 2.815704345703125, 0, 0, 2.832611083984375, -0.85,19.6) ">
<use xlink:href="#IT_300x600_FR_psd_Asset_B___V6_2_Le_Wi_Fi_en_tant_que__service_peut_faire___conomiser_du_temps___0_Layer0_0_MEMBER_26_FILL"/>
</g>

<g transform="matrix( 2.815704345703125, 0, 0, 2.832611083984375, -0.85,19.6) ">
<use xlink:href="#IT_300x600_FR_psd_Asset_B___V6_2_Le_Wi_Fi_en_tant_que__service_peut_faire___conomiser_du_temps___0_Layer0_0_MEMBER_27_FILL"/>
</g>

<g transform="matrix( 2.815704345703125, 0, 0, 2.832611083984375, -0.85,19.6) ">
<use xlink:href="#IT_300x600_FR_psd_Asset_B___V6_2_Le_Wi_Fi_en_tant_que__service_peut_faire___conomiser_du_temps___0_Layer0_0_MEMBER_28_FILL"/>
</g>

<g transform="matrix( 2.815704345703125, 0, 0, 2.832611083984375, -0.85,19.6) ">
<use xlink:href="#IT_300x600_FR_psd_Asset_B___V6_2_Le_Wi_Fi_en_tant_que__service_peut_faire___conomiser_du_temps___0_Layer0_0_MEMBER_29_FILL"/>
</g>

<g transform="matrix( 2.815704345703125, 0, 0, 2.832611083984375, -0.85,19.6) ">
<use xlink:href="#IT_300x600_FR_psd_Asset_B___V6_2_Le_Wi_Fi_en_tant_que__service_peut_faire___conomiser_du_temps___0_Layer0_0_MEMBER_30_FILL"/>
</g>

<g transform="matrix( 2.815704345703125, 0, 0, 2.832611083984375, -0.85,19.6) ">
<use xlink:href="#IT_300x600_FR_psd_Asset_B___V6_2_Le_Wi_Fi_en_tant_que__service_peut_faire___conomiser_du_temps___0_Layer0_0_MEMBER_31_FILL"/>
</g>

<g transform="matrix( 2.815704345703125, 0, 0, 2.832611083984375, -0.85,19.6) ">
<use xlink:href="#IT_300x600_FR_psd_Asset_B___V6_2_Le_Wi_Fi_en_tant_que__service_peut_faire___conomiser_du_temps___0_Layer0_0_MEMBER_32_FILL"/>
</g>

<g transform="matrix( 2.815704345703125, 0, 0, 2.832611083984375, -0.85,19.6) ">
<use xlink:href="#IT_300x600_FR_psd_Asset_B___V6_2_Le_Wi_Fi_en_tant_que__service_peut_faire___conomiser_du_temps___0_Layer0_0_MEMBER_33_FILL"/>
</g>

<g transform="matrix( 2.815704345703125, 0, 0, 2.832611083984375, -0.85,19.6) ">
<use xlink:href="#IT_300x600_FR_psd_Asset_B___V6_2_Le_Wi_Fi_en_tant_que__service_peut_faire___conomiser_du_temps___0_Layer0_0_MEMBER_34_FILL"/>
</g>

<g transform="matrix( 2.815704345703125, 0, 0, 2.832611083984375, -0.85,19.6) ">
<use xlink:href="#IT_300x600_FR_psd_Asset_B___V6_2_Le_Wi_Fi_en_tant_que__service_peut_faire___conomiser_du_temps___0_Layer0_0_MEMBER_35_FILL"/>
</g>

<g transform="matrix( 2.815704345703125, 0, 0, 2.832611083984375, -0.85,19.6) ">
<use xlink:href="#IT_300x600_FR_psd_Asset_B___V6_2_Le_Wi_Fi_en_tant_que__service_peut_faire___conomiser_du_temps___0_Layer0_0_MEMBER_36_FILL"/>
</g>

<g transform="matrix( 2.815704345703125, 0, 0, 2.832611083984375, -0.85,19.6) ">
<use xlink:href="#IT_300x600_FR_psd_Asset_B___V6_2_Le_Wi_Fi_en_tant_que__service_peut_faire___conomiser_du_temps___0_Layer0_0_MEMBER_37_FILL"/>
</g>

<g transform="matrix( 2.815704345703125, 0, 0, 2.832611083984375, -0.85,19.6) ">
<use xlink:href="#IT_300x600_FR_psd_Asset_B___V6_2_Le_Wi_Fi_en_tant_que__service_peut_faire___conomiser_du_temps___0_Layer0_0_MEMBER_38_FILL"/>
</g>

<g transform="matrix( 2.815704345703125, 0, 0, 2.832611083984375, -0.85,19.6) ">
<use xlink:href="#IT_300x600_FR_psd_Asset_B___V6_2_Le_Wi_Fi_en_tant_que__service_peut_faire___conomiser_du_temps___0_Layer0_0_MEMBER_39_FILL"/>
</g>

<g transform="matrix( 2.815704345703125, 0, 0, 2.832611083984375, -0.85,19.6) ">
<use xlink:href="#IT_300x600_FR_psd_Asset_B___V6_2_Le_Wi_Fi_en_tant_que__service_peut_faire___conomiser_du_temps___0_Layer0_0_MEMBER_40_FILL"/>
</g>

<g transform="matrix( 2.815704345703125, 0, 0, 2.832611083984375, -0.85,19.6) ">
<use xlink:href="#IT_300x600_FR_psd_Asset_B___V6_2_Le_Wi_Fi_en_tant_que__service_peut_faire___conomiser_du_temps___0_Layer0_0_MEMBER_41_FILL"/>
</g>

<g transform="matrix( 2.815704345703125, 0, 0, 2.832611083984375, -0.85,19.6) ">
<use xlink:href="#IT_300x600_FR_psd_Asset_B___V6_2_Le_Wi_Fi_en_tant_que__service_peut_faire___conomiser_du_temps___0_Layer0_0_MEMBER_42_FILL"/>
</g>

<g transform="matrix( 2.815704345703125, 0, 0, 2.832611083984375, -0.85,19.6) ">
<use xlink:href="#IT_300x600_FR_psd_Asset_B___V6_2_Le_Wi_Fi_en_tant_que__service_peut_faire___conomiser_du_temps___0_Layer0_0_MEMBER_43_FILL"/>
</g>

<g transform="matrix( 2.815704345703125, 0, 0, 2.832611083984375, -0.85,19.6) ">
<use xlink:href="#IT_300x600_FR_psd_Asset_B___V6_2_Le_Wi_Fi_en_tant_que__service_peut_faire___conomiser_du_temps___0_Layer0_0_MEMBER_44_FILL"/>
</g>

<g transform="matrix( 2.815704345703125, 0, 0, 2.832611083984375, -0.85,19.6) ">
<use xlink:href="#IT_300x600_FR_psd_Asset_B___V6_2_Le_Wi_Fi_en_tant_que__service_peut_faire___conomiser_du_temps___0_Layer0_0_MEMBER_45_FILL"/>
</g>

<g transform="matrix( 2.815704345703125, 0, 0, 2.832611083984375, -0.85,19.6) ">
<use xlink:href="#IT_300x600_FR_psd_Asset_B___V6_2_Le_Wi_Fi_en_tant_que__service_peut_faire___conomiser_du_temps___0_Layer0_0_MEMBER_46_FILL"/>
</g>

<g transform="matrix( 2.815704345703125, 0, 0, 2.832611083984375, -0.85,19.6) ">
<use xlink:href="#IT_300x600_FR_psd_Asset_B___V6_2_Le_Wi_Fi_en_tant_que__service_peut_faire___conomiser_du_temps___0_Layer0_0_MEMBER_47_FILL"/>
</g>

<g transform="matrix( 2.815704345703125, 0, 0, 2.832611083984375, -0.85,19.6) ">
<use xlink:href="#IT_300x600_FR_psd_Asset_B___V6_2_Le_Wi_Fi_en_tant_que__service_peut_faire___conomiser_du_temps___0_Layer0_0_MEMBER_48_FILL"/>
</g>

<g transform="matrix( 2.815704345703125, 0, 0, 2.832611083984375, -0.85,19.6) ">
<use xlink:href="#IT_300x600_FR_psd_Asset_B___V6_2_Le_Wi_Fi_en_tant_que__service_peut_faire___conomiser_du_temps___0_Layer0_0_MEMBER_49_FILL"/>
</g>

<g transform="matrix( 2.815704345703125, 0, 0, 2.832611083984375, -0.85,19.6) ">
<use xlink:href="#IT_300x600_FR_psd_Asset_B___V6_2_Le_Wi_Fi_en_tant_que__service_peut_faire___conomiser_du_temps___0_Layer0_0_MEMBER_50_FILL"/>
</g>

<g transform="matrix( 2.815704345703125, 0, 0, 2.832611083984375, -0.85,19.6) ">
<use xlink:href="#IT_300x600_FR_psd_Asset_B___V6_2_Le_Wi_Fi_en_tant_que__service_peut_faire___conomiser_du_temps___0_Layer0_0_MEMBER_51_FILL"/>
</g>

<g transform="matrix( 2.815704345703125, 0, 0, 2.832611083984375, -0.85,19.6) ">
<use xlink:href="#IT_300x600_FR_psd_Asset_B___V6_2_Le_Wi_Fi_en_tant_que__service_peut_faire___conomiser_du_temps___0_Layer0_0_MEMBER_52_FILL"/>
</g>

<g transform="matrix( 2.815704345703125, 0, 0, 2.832611083984375, -0.85,19.6) ">
<use xlink:href="#IT_300x600_FR_psd_Asset_B___V6_2_Le_Wi_Fi_en_tant_que__service_peut_faire___conomiser_du_temps___0_Layer0_0_MEMBER_53_FILL"/>
</g>

<g transform="matrix( 2.815704345703125, 0, 0, 2.832611083984375, -0.85,19.6) ">
<use xlink:href="#IT_300x600_FR_psd_Asset_B___V6_2_Le_Wi_Fi_en_tant_que__service_peut_faire___conomiser_du_temps___0_Layer0_0_MEMBER_54_FILL"/>
</g>

<g transform="matrix( 2.815704345703125, 0, 0, 2.832611083984375, -0.85,19.6) ">
<use xlink:href="#IT_300x600_FR_psd_Asset_B___V6_2_Le_Wi_Fi_en_tant_que__service_peut_faire___conomiser_du_temps___0_Layer0_0_MEMBER_55_FILL"/>
</g>

<g transform="matrix( 2.815704345703125, 0, 0, 2.832611083984375, -0.85,19.6) ">
<use xlink:href="#IT_300x600_FR_psd_Asset_B___V6_2_Le_Wi_Fi_en_tant_que__service_peut_faire___conomiser_du_temps___0_Layer0_0_MEMBER_56_FILL"/>
</g>

<g transform="matrix( 2.815704345703125, 0, 0, 2.832611083984375, -0.85,19.6) ">
<use xlink:href="#IT_300x600_FR_psd_Asset_B___V6_2_Le_Wi_Fi_en_tant_que__service_peut_faire___conomiser_du_temps___0_Layer0_0_MEMBER_57_FILL"/>
</g>

<g transform="matrix( 2.815704345703125, 0, 0, 2.832611083984375, -0.85,19.6) ">
<use xlink:href="#IT_300x600_FR_psd_Asset_B___V6_2_Le_Wi_Fi_en_tant_que__service_peut_faire___conomiser_du_temps___0_Layer0_0_MEMBER_58_FILL"/>
</g>

<g transform="matrix( 2.815704345703125, 0, 0, 2.832611083984375, -0.85,19.6) ">
<use xlink:href="#IT_300x600_FR_psd_Asset_B___V6_2_Le_Wi_Fi_en_tant_que__service_peut_faire___conomiser_du_temps___0_Layer0_0_MEMBER_59_FILL"/>
</g>

<g transform="matrix( 2.815704345703125, 0, 0, 2.832611083984375, -0.85,19.6) ">
<use xlink:href="#IT_300x600_FR_psd_Asset_B___V6_2_Le_Wi_Fi_en_tant_que__service_peut_faire___conomiser_du_temps___0_Layer0_0_MEMBER_60_FILL"/>
</g>

<g transform="matrix( 2.815704345703125, 0, 0, 2.832611083984375, -0.85,19.6) ">
<use xlink:href="#IT_300x600_FR_psd_Asset_B___V6_2_Le_Wi_Fi_en_tant_que__service_peut_faire___conomiser_du_temps___0_Layer0_0_MEMBER_61_FILL"/>
</g>

<g transform="matrix( 2.815704345703125, 0, 0, 2.832611083984375, -0.85,19.6) ">
<use xlink:href="#IT_300x600_FR_psd_Asset_B___V6_2_Le_Wi_Fi_en_tant_que__service_peut_faire___conomiser_du_temps___0_Layer0_0_MEMBER_62_FILL"/>
</g>

<g transform="matrix( 2.815704345703125, 0, 0, 2.832611083984375, -0.85,19.6) ">
<use xlink:href="#IT_300x600_FR_psd_Asset_B___V6_2_Le_Wi_Fi_en_tant_que__service_peut_faire___conomiser_du_temps___0_Layer0_0_MEMBER_63_FILL"/>
</g>

<g transform="matrix( 2.815704345703125, 0, 0, 2.832611083984375, -0.85,19.6) ">
<use xlink:href="#IT_300x600_FR_psd_Asset_B___V6_2_Le_Wi_Fi_en_tant_que__service_peut_faire___conomiser_du_temps___0_Layer0_0_MEMBER_64_FILL"/>
</g>

<g transform="matrix( 2.815704345703125, 0, 0, 2.832611083984375, -0.85,19.6) ">
<use xlink:href="#IT_300x600_FR_psd_Asset_B___V6_2_Le_Wi_Fi_en_tant_que__service_peut_faire___conomiser_du_temps___0_Layer0_0_MEMBER_65_FILL"/>
</g>

<g transform="matrix( 2.815704345703125, 0, 0, 2.832611083984375, -0.85,19.6) ">
<use xlink:href="#IT_300x600_FR_psd_Asset_B___V6_2_Le_Wi_Fi_en_tant_que__service_peut_faire___conomiser_du_temps___0_Layer0_0_MEMBER_66_FILL"/>
</g>

<g transform="matrix( 2.815704345703125, 0, 0, 2.832611083984375, -0.85,19.6) ">
<use xlink:href="#IT_300x600_FR_psd_Asset_B___V6_2_Le_Wi_Fi_en_tant_que__service_peut_faire___conomiser_du_temps___0_Layer0_0_MEMBER_67_FILL"/>
</g>

<g transform="matrix( 2.815704345703125, 0, 0, 2.832611083984375, -0.85,19.6) ">
<use xlink:href="#IT_300x600_FR_psd_Asset_B___V6_2_Le_Wi_Fi_en_tant_que__service_peut_faire___conomiser_du_temps___0_Layer0_0_MEMBER_68_FILL"/>
</g>

<g transform="matrix( 2.815704345703125, 0, 0, 2.832611083984375, -0.85,19.6) ">
<use xlink:href="#IT_300x600_FR_psd_Asset_B___V6_2_Le_Wi_Fi_en_tant_que__service_peut_faire___conomiser_du_temps___0_Layer0_0_MEMBER_69_FILL"/>
</g>

<g transform="matrix( 2.815704345703125, 0, 0, 2.832611083984375, -0.85,19.6) ">
<use xlink:href="#IT_300x600_FR_psd_Asset_B___V6_2_Le_Wi_Fi_en_tant_que__service_peut_faire___conomiser_du_temps___0_Layer0_0_MEMBER_70_FILL"/>
</g>

<g transform="matrix( 2.815704345703125, 0, 0, 2.832611083984375, -0.85,19.6) ">
<use xlink:href="#IT_300x600_FR_psd_Asset_B___V6_2_Le_Wi_Fi_en_tant_que__service_peut_faire___conomiser_du_temps___0_Layer0_0_MEMBER_71_FILL"/>
</g>

<g transform="matrix( 2.815704345703125, 0, 0, 2.832611083984375, -0.85,19.6) ">
<use xlink:href="#IT_300x600_FR_psd_Asset_B___V6_2_Le_Wi_Fi_en_tant_que__service_peut_faire___conomiser_du_temps___0_Layer0_0_MEMBER_72_FILL"/>
</g>

<g transform="matrix( 2.815704345703125, 0, 0, 2.832611083984375, -0.85,19.6) ">
<use xlink:href="#IT_300x600_FR_psd_Asset_B___V6_2_Le_Wi_Fi_en_tant_que__service_peut_faire___conomiser_du_temps___0_Layer0_0_MEMBER_73_FILL"/>
</g>

<g transform="matrix( 2.815704345703125, 0, 0, 2.832611083984375, -0.85,19.6) ">
<use xlink:href="#IT_300x600_FR_psd_Asset_B___V6_2_Le_Wi_Fi_en_tant_que__service_peut_faire___conomiser_du_temps___0_Layer0_0_MEMBER_74_FILL"/>
</g>

<g transform="matrix( 2.815704345703125, 0, 0, 2.832611083984375, -0.85,19.6) ">
<use xlink:href="#IT_300x600_FR_psd_Asset_B___V6_2_Le_Wi_Fi_en_tant_que__service_peut_faire___conomiser_du_temps___0_Layer0_0_MEMBER_75_FILL"/>
</g>

<g transform="matrix( 2.815704345703125, 0, 0, 2.832611083984375, -0.85,19.6) ">
<use xlink:href="#IT_300x600_FR_psd_Asset_B___V6_2_Le_Wi_Fi_en_tant_que__service_peut_faire___conomiser_du_temps___0_Layer0_0_MEMBER_76_FILL"/>
</g>

<g transform="matrix( 2.815704345703125, 0, 0, 2.832611083984375, -0.85,19.6) ">
<use xlink:href="#IT_300x600_FR_psd_Asset_B___V6_2_Le_Wi_Fi_en_tant_que__service_peut_faire___conomiser_du_temps___0_Layer0_0_MEMBER_77_FILL"/>
</g>
</g>
</g>
</g>
</svg>
