
<svg xmlns="http://www.w3.org/2000/svg" version="1.1" xmlns:xlink="http://www.w3.org/1999/xlink" preserveAspectRatio="none" x="0px" y="0px" width="300px" height="600px" viewBox="0 0 300 600">
<defs>
<g id="BDM_300x600_psd_Asset_ManagedWiFi_Awareness_DM7_1_Want_to_know__more_about__your_customers__0_Layer0_0_MEMBER_0_FILL">
<path fill="#D82C26" stroke="none" d="
M 0.9 -7.5
L 0.2 -7.5 2.45 0 3.15 0 5.15 -6.7 7.15 0 7.85 0 10.1 -7.5 9.4 -7.5 7.5 -0.85 5.5 -7.5 4.75 -7.5 2.85 -0.85 2.8 -0.85 0.9 -7.5 Z"/>
</g>

<g id="BDM_300x600_psd_Asset_ManagedWiFi_Awareness_DM7_1_Want_to_know__more_about__your_customers__0_Layer0_0_MEMBER_1_FILL">
<path fill="#D82C26" stroke="none" d="
M 13.3 -4.25
Q 13.65 -3.95 13.65 -3.25
L 13.65 -3 13.05 -3
Q 10.2 -3 10.2 -1.35 10.2 -0.65 10.7 -0.25 11.2 0.15 11.8 0.15 12.4 0.15 12.9 -0.15 13.45 -0.45 13.65 -0.95
L 13.7 -0.95 13.75 0 14.35 0
Q 14.25 -0.25 14.25 -1.1
L 14.25 -3.2
Q 14.25 -4.15 13.75 -4.65 13.25 -5.1 12.35 -5.1 11.8 -5.1 11.35 -4.95 10.9 -4.8 10.5 -4.5
L 10.7 -4 11.4 -4.45
Q 11.85 -4.6 12.25 -4.6 12.95 -4.6 13.3 -4.25
M 11.15 -0.6
Q 10.8 -0.8 10.8 -1.35 10.8 -2.55 13.15 -2.55
L 13.65 -2.55 13.65 -2.05
Q 13.65 -1.6 13.45 -1.25 13.3 -0.85 12.9 -0.6 12.55 -0.35 11.95 -0.35 11.4 -0.35 11.15 -0.6 Z"/>
</g>

<g id="BDM_300x600_psd_Asset_ManagedWiFi_Awareness_DM7_1_Want_to_know__more_about__your_customers__0_Layer0_0_MEMBER_2_FILL">
<path fill="#D82C26" stroke="none" d="
M 19.5 -4.5
Q 19.05 -5.1 18.1 -5.1 17.5 -5.1 17 -4.75 16.55 -4.5 16.3 -3.9
L 16.2 -4.95 15.65 -4.95 15.7 0 16.3 0 16.3 -2.55
Q 16.3 -3.05 16.55 -3.65 16.7 -4.1 17.1 -4.35 17.6 -4.6 17.95 -4.6 18.65 -4.6 19 -4.1 19.3 -3.55 19.3 -2.85
L 19.3 0 19.95 0 19.95 -3.05
Q 19.95 -3.9 19.5 -4.5 Z"/>
</g>

<g id="BDM_300x600_psd_Asset_ManagedWiFi_Awareness_DM7_1_Want_to_know__more_about__your_customers__0_Layer0_0_MEMBER_3_FILL">
<path fill="#D82C26" stroke="none" d="
M 23.35 -4.45
L 23.5 -4.95 22.1 -4.95 22.1 -6.4 21.45 -6.15 21.45 -4.95 20.65 -4.95 20.55 -4.45 21.45 -4.45 21.45 -1.2
Q 21.45 -0.55 21.8 -0.25 22.1 0.1 22.6 0.1
L 23.2 0.05 23.7 -0.15 23.6 -0.6
Q 23 -0.4 22.8 -0.4 22.45 -0.4 22.25 -0.6 22.1 -0.8 22.1 -1.3
L 22.1 -4.45 23.35 -4.45 Z"/>
</g>

<g id="BDM_300x600_psd_Asset_ManagedWiFi_Awareness_DM7_1_Want_to_know__more_about__your_customers__0_Layer0_0_MEMBER_4_FILL">
<path fill="#D82C26" stroke="none" d="
M 28.55 -4.45
L 28.7 -4.95 27.3 -4.95 27.3 -6.4 26.65 -6.15 26.65 -4.95 25.85 -4.95 25.75 -4.45 26.65 -4.45 26.65 -1.2
Q 26.65 -0.6 27 -0.25 27.3 0.1 27.85 0.1
L 28.4 0.05 28.9 -0.15 28.8 -0.6
Q 28.2 -0.4 28 -0.4 27.65 -0.4 27.5 -0.6 27.3 -0.8 27.3 -1.3
L 27.3 -4.45 28.55 -4.45 Z"/>
</g>

<g id="BDM_300x600_psd_Asset_ManagedWiFi_Awareness_DM7_1_Want_to_know__more_about__your_customers__0_Layer0_0_MEMBER_5_FILL">
<path fill="#D82C26" stroke="none" d="
M 29.15 -2.5
Q 29.15 -1.7 29.5 -1.15 29.95 -0.45 30.45 -0.2 31 0.15 31.8 0.15 32.6 0.15 33.15 -0.2 33.65 -0.45 34.1 -1.15 34.45 -1.85 34.45 -2.5 34.45 -3.15 34.1 -3.85 33.75 -4.45 33.15 -4.8 32.55 -5.1 31.8 -5.1 31.05 -5.1 30.45 -4.8 29.85 -4.45 29.5 -3.85 29.15 -3.3 29.15 -2.5
M 29.8 -2.5
Q 29.8 -3.15 30 -3.55 30.35 -4.05 30.75 -4.3 31.2 -4.6 31.8 -4.6 32.4 -4.6 32.85 -4.3 33.35 -3.95 33.55 -3.55 33.8 -3.15 33.8 -2.5 33.8 -1.8 33.55 -1.45 33.35 -1 32.85 -0.65 32.35 -0.4 31.8 -0.4 31.25 -0.4 30.75 -0.65 30.3 -0.9 30 -1.45 29.8 -1.85 29.8 -2.5 Z"/>
</g>

<g id="BDM_300x600_psd_Asset_ManagedWiFi_Awareness_DM7_1_Want_to_know__more_about__your_customers__0_Layer0_0_MEMBER_6_FILL">
<path fill="#D82C26" stroke="none" d="
M 38.45 -8.1
L 37.8 -7.95 37.8 0 38.45 0 38.45 -2.6 41 0 41.8 0 39.15 -2.7 41.6 -4.95 40.75 -4.95 38.45 -2.7 38.45 -8.1 Z"/>
</g>

<g id="BDM_300x600_psd_Asset_ManagedWiFi_Awareness_DM7_1_Want_to_know__more_about__your_customers__0_Layer0_0_MEMBER_7_FILL">
<path fill="#D82C26" stroke="none" d="
M 43.2 -4.95
L 42.6 -4.95 42.65 0 43.3 0 43.3 -2.55
Q 43.3 -3.2 43.5 -3.65 43.75 -4.15 44.1 -4.35 44.5 -4.6 44.95 -4.6 45.6 -4.6 45.95 -4.1 46.25 -3.55 46.25 -2.85
L 46.25 0 46.9 0 46.9 -3.05
Q 46.9 -3.9 46.45 -4.5 46 -5.1 45.05 -5.1 44.45 -5.1 43.95 -4.75 43.5 -4.45 43.25 -3.9
L 43.2 -4.95 Z"/>
</g>

<g id="BDM_300x600_psd_Asset_ManagedWiFi_Awareness_DM7_1_Want_to_know__more_about__your_customers__0_Layer0_0_MEMBER_8_FILL">
<path fill="#D82C26" stroke="none" d="
M 48.35 -1.15
Q 48.8 -0.45 49.3 -0.2 49.85 0.15 50.65 0.15 51.45 0.15 52 -0.2 52.5 -0.45 52.95 -1.15 53.3 -1.85 53.3 -2.5 53.3 -3.15 52.95 -3.85 52.6 -4.45 52 -4.8 51.4 -5.1 50.65 -5.1 49.9 -5.1 49.3 -4.8 48.7 -4.45 48.35 -3.85 48 -3.3 48 -2.5 48 -1.7 48.35 -1.15
M 48.85 -3.55
Q 49.2 -4.05 49.55 -4.3 50.1 -4.6 50.65 -4.6 51.25 -4.6 51.7 -4.3 52.2 -3.95 52.4 -3.55 52.65 -3.15 52.65 -2.5 52.65 -1.8 52.4 -1.45 52.2 -1 51.7 -0.65 51.2 -0.4 50.65 -0.4 50.15 -0.4 49.55 -0.65 49.15 -0.9 48.85 -1.45 48.65 -1.85 48.65 -2.5 48.65 -3.15 48.85 -3.55 Z"/>
</g>

<g id="BDM_300x600_psd_Asset_ManagedWiFi_Awareness_DM7_1_Want_to_know__more_about__your_customers__0_Layer0_0_MEMBER_9_FILL">
<path fill="#D82C26" stroke="none" d="
M 54.35 -4.95
L 53.7 -4.95 55.2 0 55.9 0 57.3 -4.25 57.35 -4.25 58.75 0 59.45 0 61 -4.95 60.35 -4.95 59.1 -0.7 57.65 -4.95 57 -4.95 55.6 -0.7 54.35 -4.95 Z"/>
</g>

<g id="BDM_300x600_psd_Asset_ManagedWiFi_Awareness_DM7_1_Want_to_know__more_about__your_customers__0_Layer0_0_MEMBER_10_FILL">
<path fill="#D82C26" stroke="none" d="
M 3.2 8.1
Q 3.8 8.1 4.1 8.55 4.45 9.1 4.45 9.8
L 4.45 12.7 5.05 12.7 5.05 10.15
Q 5.05 9.25 5.5 8.7 5.95 8.1 6.6 8.1 7.3 8.1 7.6 8.65 7.9 9.1 7.9 9.9
L 7.9 12.7 8.55 12.7 8.55 9.75
Q 8.55 8.8 8.1 8.2 7.65 7.6 6.75 7.6 6.05 7.6 5.65 7.95 5.15 8.3 4.95 8.9 4.75 8.25 4.35 7.95 4 7.6 3.35 7.6 2.7 7.6 2.3 7.95 1.85 8.25 1.6 8.8
L 1.55 7.75 0.95 7.75 1 12.7 1.6 12.7 1.6 10.25
Q 1.6 9.6 1.85 9.1 2 8.7 2.4 8.35 2.75 8.1 3.2 8.1 Z"/>
</g>

<g id="BDM_300x600_psd_Asset_ManagedWiFi_Awareness_DM7_1_Want_to_know__more_about__your_customers__0_Layer0_0_MEMBER_11_FILL">
<path fill="#D82C26" stroke="none" d="
M 14.6 8.85
Q 14.2 8.25 13.65 7.95 13.1 7.6 12.3 7.6 11.5 7.6 10.95 7.95 10.3 8.3 10 8.85 9.65 9.4 9.65 10.2 9.65 10.95 10 11.6 10.3 12.15 10.95 12.5 11.5 12.85 12.3 12.85 13.1 12.85 13.65 12.5 14.2 12.2 14.6 11.6 14.95 10.8 14.95 10.2 14.95 9.55 14.6 8.85
M 13.35 8.4
Q 13.85 8.75 14.05 9.15 14.3 9.75 14.3 10.2 14.3 10.75 14.05 11.25 13.85 11.7 13.35 12.05 12.9 12.35 12.3 12.35 11.65 12.35 11.2 12.05 10.7 11.7 10.5 11.25 10.25 10.75 10.25 10.2 10.25 9.75 10.5 9.15 10.7 8.75 11.2 8.4 11.65 8.1 12.3 8.1 12.9 8.1 13.35 8.4 Z"/>
</g>

<g id="BDM_300x600_psd_Asset_ManagedWiFi_Awareness_DM7_1_Want_to_know__more_about__your_customers__0_Layer0_0_MEMBER_12_FILL">
<path fill="#D82C26" stroke="none" d="
M 18.65 7.7
L 18.15 7.6
Q 17.65 7.6 17.3 7.95 16.85 8.25 16.7 8.8
L 16.65 8.8 16.6 7.75 16 7.75 16.05 12.7 16.7 12.7 16.7 10.25
Q 16.7 9.3 17.05 8.75 17.45 8.15 18.1 8.15
L 18.55 8.25 18.65 7.7 Z"/>
</g>

<g id="BDM_300x600_psd_Asset_ManagedWiFi_Awareness_DM7_1_Want_to_know__more_about__your_customers__0_Layer0_0_MEMBER_13_FILL">
<path fill="#D82C26" stroke="none" d="
M 22.55 7.9
Q 22.05 7.6 21.3 7.6 20.55 7.6 20.05 7.95 19.45 8.25 19.15 8.85 18.85 9.45 18.85 10.2 18.85 10.95 19.15 11.6 19.55 12.2 20.05 12.5 20.6 12.85 21.35 12.85 22.55 12.85 23.35 12.25
L 23.25 11.7
Q 23 12 22.45 12.15 22.05 12.35 21.45 12.35 20.85 12.35 20.4 12.05 19.95 11.8 19.7 11.35 19.45 10.85 19.45 10.3
L 23.65 10.3 23.65 10.05
Q 23.65 9.4 23.35 8.8 23.15 8.35 22.55 7.9
M 21.3 8.1
Q 22.1 8.1 22.55 8.55 23.05 9.05 23.05 9.85
L 19.45 9.85
Q 19.45 9.55 19.7 9.05 19.95 8.65 20.3 8.35 20.7 8.1 21.3 8.1 Z"/>
</g>

<g id="BDM_300x600_psd_Asset_ManagedWiFi_Awareness_DM7_1_Want_to_know__more_about__your_customers__0_Layer0_0_MEMBER_14_FILL">
<path fill="#D82C26" stroke="none" d="
M 28.7 8.1
Q 29.35 8.1 29.7 8.45 30.1 8.75 30.1 9.45
L 30.1 9.75 29.5 9.75
Q 26.65 9.75 26.65 11.35 26.65 12.15 27.1 12.5 27.7 12.85 28.25 12.85 28.85 12.85 29.35 12.55 29.85 12.35 30.1 11.75
L 30.2 12.7 30.75 12.7 30.7 9.5
Q 30.7 8.65 30.2 8.05 29.7 7.6 28.8 7.6
L 27.75 7.75
Q 27.25 7.95 26.95 8.2
L 27.1 8.7 27.85 8.25
Q 28.3 8.1 28.7 8.1
M 27.55 12.15
Q 27.25 11.85 27.25 11.35 27.25 10.15 29.6 10.15
L 30.1 10.15 30.1 10.65
Q 30.1 11.1 29.9 11.45 29.65 11.9 29.3 12.1 28.95 12.4 28.35 12.4 27.95 12.4 27.55 12.15 Z"/>
</g>

<g id="BDM_300x600_psd_Asset_ManagedWiFi_Awareness_DM7_1_Want_to_know__more_about__your_customers__0_Layer0_0_MEMBER_15_FILL">
<path fill="#D82C26" stroke="none" d="
M 32.75 4.6
L 32.1 4.7 32.05 12.7 32.65 12.7 32.7 11.65 32.75 11.65
Q 32.95 12.15 33.55 12.5 34.1 12.85 34.8 12.85 35.55 12.85 36.05 12.5 36.65 12.1 36.95 11.55 37.25 10.95 37.25 10.25 37.25 9.5 36.95 8.9 36.65 8.35 36.05 7.95 35.55 7.6 34.8 7.6 34.15 7.6 33.6 7.9 33.05 8.3 32.75 8.8
L 32.75 4.6
M 33 9.2
Q 33.2 8.75 33.7 8.4 34.15 8.1 34.7 8.1 35.25 8.1 35.7 8.4 36.2 8.75 36.4 9.2 36.65 9.7 36.65 10.25 36.65 10.7 36.4 11.3 36.2 11.75 35.7 12.05 35.25 12.35 34.7 12.35 34.15 12.35 33.7 12.05 33.2 11.75 33 11.3 32.7 10.8 32.7 10.25 32.7 9.65 33 9.2 Z"/>
</g>

<g id="BDM_300x600_psd_Asset_ManagedWiFi_Awareness_DM7_1_Want_to_know__more_about__your_customers__0_Layer0_0_MEMBER_16_FILL">
<path fill="#D82C26" stroke="none" d="
M 42.1 7.95
Q 41.55 7.6 40.7 7.6 39.9 7.6 39.35 7.95 38.7 8.3 38.45 8.85 38.1 9.4 38.1 10.2 38.1 10.95 38.45 11.6 38.7 12.15 39.35 12.5 39.9 12.85 40.7 12.85 41.55 12.85 42.1 12.5 42.65 12.2 43.05 11.6 43.35 10.95 43.35 10.2 43.35 9.45 43.05 8.85 42.65 8.25 42.1 7.95
M 41.8 8.4
Q 42.3 8.75 42.5 9.15 42.75 9.75 42.75 10.2 42.75 10.75 42.5 11.25 42.3 11.7 41.8 12.05 41.35 12.35 40.7 12.35 40.1 12.35 39.65 12.05 39.15 11.7 38.95 11.25 38.7 10.75 38.7 10.2 38.7 9.75 38.95 9.15 39.15 8.75 39.65 8.4 40.1 8.1 40.7 8.1 41.35 8.1 41.8 8.4 Z"/>
</g>

<g id="BDM_300x600_psd_Asset_ManagedWiFi_Awareness_DM7_1_Want_to_know__more_about__your_customers__0_Layer0_0_MEMBER_17_FILL">
<path fill="#D82C26" stroke="none" d="
M 44.45 10.75
Q 44.45 11.65 44.9 12.25 45.35 12.85 46.3 12.85 46.95 12.85 47.35 12.5 47.85 12.2 48.1 11.65
L 48.2 12.7 48.8 12.7 48.7 11.55 48.7 7.75 48.1 7.75 48.1 10.2
Q 48.1 10.85 47.85 11.35 47.75 11.75 47.3 12.1 46.9 12.35 46.45 12.35 45.75 12.35 45.4 11.85 45.1 11.35 45.1 10.6
L 45.1 7.75 44.45 7.75 44.45 10.75 Z"/>
</g>

<g id="BDM_300x600_psd_Asset_ManagedWiFi_Awareness_DM7_1_Want_to_know__more_about__your_customers__0_Layer0_0_MEMBER_18_FILL">
<path fill="#D82C26" stroke="none" d="
M 51.05 7.75
L 51.05 6.3 50.45 6.55 50.45 7.75 49.65 7.75 49.5 8.25 50.45 8.25 50.45 11.5
Q 50.45 12.15 50.75 12.5 51.05 12.8 51.6 12.8
L 52.15 12.75 52.65 12.55 52.6 12.1
Q 52.2 12.3 51.8 12.3 51.45 12.3 51.25 12.1 51.05 11.8 51.05 11.45
L 51.05 8.25 52.35 8.25 52.45 7.75 51.05 7.75 Z"/>
</g>

<g id="BDM_300x600_psd_Asset_ManagedWiFi_Awareness_DM7_1_Want_to_know__more_about__your_customers__0_Layer0_0_MEMBER_19_FILL">
<path fill="#D82C26" stroke="none" d="
M 4.75 20.45
L 4.1 20.45 2.6 24.75 0.9 20.45 0.2 20.45 2.3 25.45 1.9 26.5
Q 1.65 27 1.4 27.2 0.9 27.4 0.5 27.4
L 0.65 27.95
Q 1.35 27.95 1.8 27.65 2.25 27.3 2.45 26.65
L 4.75 20.45 Z"/>
</g>

<g id="BDM_300x600_psd_Asset_ManagedWiFi_Awareness_DM7_1_Want_to_know__more_about__your_customers__0_Layer0_0_MEMBER_20_FILL">
<path fill="#D82C26" stroke="none" d="
M 9.1 20.65
Q 8.55 20.3 7.7 20.3 6.9 20.3 6.35 20.65 5.75 20.95 5.45 21.55 5.1 22.1 5.1 22.95 5.1 23.75 5.45 24.3 5.75 24.85 6.35 25.25 6.95 25.55 7.7 25.55 8.5 25.55 9.1 25.25 9.7 24.9 10.05 24.3 10.35 23.7 10.35 22.95 10.35 22.15 10.05 21.55 9.65 20.95 9.1 20.65
M 7.7 20.85
Q 8.3 20.85 8.8 21.1 9.3 21.45 9.5 21.85 9.75 22.45 9.75 22.95 9.75 23.4 9.5 24 9.3 24.45 8.8 24.75 8.35 25.05 7.7 25.05 7.1 25.05 6.65 24.75 6.15 24.45 5.95 24 5.7 23.4 5.7 22.95 5.7 22.45 5.95 21.85 6.15 21.45 6.65 21.1 7.15 20.85 7.7 20.85 Z"/>
</g>

<g id="BDM_300x600_psd_Asset_ManagedWiFi_Awareness_DM7_1_Want_to_know__more_about__your_customers__0_Layer0_0_MEMBER_21_FILL">
<path fill="#D82C26" stroke="none" d="
M 11.45 20.45
L 11.45 23.5
Q 11.45 24.35 11.9 24.95 12.35 25.55 13.3 25.55 13.9 25.55 14.35 25.25 14.9 24.9 15.1 24.35
L 15.2 25.45 15.8 25.4 15.7 24.25 15.7 20.45 15.1 20.45 15.1 22.95
Q 15.1 23.55 14.85 24.05 14.6 24.6 14.3 24.8 13.9 25.05 13.45 25.05 12.7 25.05 12.4 24.55 12.1 24.1 12.1 23.3
L 12.1 20.45 11.45 20.45 Z"/>
</g>

<g id="BDM_300x600_psd_Asset_ManagedWiFi_Awareness_DM7_1_Want_to_know__more_about__your_customers__0_Layer0_0_MEMBER_22_FILL">
<path fill="#D82C26" stroke="none" d="
M 18.45 20.65
Q 18 20.95 17.85 21.55
L 17.8 21.55 17.75 20.45 17.15 20.45 17.2 25.4 17.85 25.4 17.85 22.95
Q 17.85 22.1 18.2 21.45 18.6 20.85 19.25 20.85
L 19.7 20.95 19.8 20.4 19.3 20.3
Q 18.8 20.3 18.45 20.65 Z"/>
</g>

<g id="BDM_300x600_psd_Asset_ManagedWiFi_Awareness_DM7_1_Want_to_know__more_about__your_customers__0_Layer0_0_MEMBER_23_FILL">
<path fill="#D82C26" stroke="none" d="
M 22.25 22.95
Q 22.25 23.7 22.55 24.3 22.9 24.9 23.5 25.25 24.1 25.55 24.8 25.55 25.35 25.55 25.8 25.4 26.25 25.25 26.55 24.95
L 26.45 24.45
Q 26.05 24.8 25.75 24.9 25.4 25.05 24.9 25.05 24.3 25.05 23.85 24.75 23.4 24.5 23.15 24 22.9 23.55 22.9 22.95 22.9 22.3 23.15 21.9 23.35 21.4 23.8 21.1 24.3 20.85 24.85 20.85 25.3 20.85 25.65 21 25.95 21.05 26.25 21.35
L 26.55 20.9
Q 26.4 20.75 25.8 20.45 25.35 20.3 24.85 20.3 24.05 20.3 23.5 20.65 22.95 20.95 22.6 21.6 22.25 22.15 22.25 22.95 Z"/>
</g>

<g id="BDM_300x600_psd_Asset_ManagedWiFi_Awareness_DM7_1_Want_to_know__more_about__your_customers__0_Layer0_0_MEMBER_24_FILL">
<path fill="#D82C26" stroke="none" d="
M 27.4 20.45
L 27.4 23.5
Q 27.4 24.4 27.8 24.95 28.25 25.55 29.2 25.55 29.8 25.55 30.3 25.25 30.8 24.85 31 24.35
L 31.1 25.45 31.7 25.4 31.6 24.25 31.6 20.45 31 20.45 31 22.95
Q 31 23.65 30.8 24.05 30.6 24.6 30.2 24.8 29.8 25.05 29.35 25.05 28.6 25.05 28.3 24.55 28 24.1 28 23.3
L 28 20.45 27.4 20.45 Z"/>
</g>

<g id="BDM_300x600_psd_Asset_ManagedWiFi_Awareness_DM7_1_Want_to_know__more_about__your_customers__0_Layer0_0_MEMBER_25_FILL">
<path fill="#D82C26" stroke="none" d="
M 33.7 21
Q 33.95 20.8 34.5 20.8 34.85 20.8 35.2 20.95
L 35.8 21.3 36.05 20.85
Q 35.65 20.55 35.35 20.45 34.9 20.3 34.45 20.3
L 33.7 20.45
Q 33.25 20.65 33.05 20.9 32.8 21.3 32.8 21.65 32.8 22.2 33.15 22.55 33.5 22.8 34.25 23.05 34.75 23.2 35.3 23.55 35.6 23.8 35.6 24.15 35.6 24.6 35.25 24.8 35 25.05 34.5 25.05 33.55 25.05 32.85 24.45
L 32.75 25
Q 33.1 25.25 33.5 25.4 33.95 25.55 34.5 25.55 34.9 25.55 35.35 25.4 35.65 25.25 35.95 24.9 36.2 24.55 36.2 24.1 36.2 23.55 35.8 23.25 35.4 22.85 34.65 22.65 33.9 22.4 33.7 22.2 33.4 22.05 33.4 21.65 33.4 21.25 33.7 21 Z"/>
</g>

<g id="BDM_300x600_psd_Asset_ManagedWiFi_Awareness_DM7_1_Want_to_know__more_about__your_customers__0_Layer0_0_MEMBER_26_FILL">
<path fill="#D82C26" stroke="none" d="
M 39.5 20.95
L 39.65 20.45 38.25 20.45 38.25 19.05 37.6 19.3 37.6 20.45 36.8 20.45 36.7 20.95 37.6 20.95 37.6 24.2
Q 37.6 24.85 37.95 25.2 38.25 25.5 38.75 25.5
L 39.35 25.45 39.85 25.25 39.75 24.8
Q 39.35 25 38.95 25 38.6 25 38.45 24.8 38.25 24.6 38.25 24.15
L 38.25 20.95 39.5 20.95 Z"/>
</g>

<g id="BDM_300x600_psd_Asset_ManagedWiFi_Awareness_DM7_1_Want_to_know__more_about__your_customers__0_Layer0_0_MEMBER_27_FILL">
<path fill="#D82C26" stroke="none" d="
M 45.05 21.55
Q 44.65 20.95 44.1 20.65 43.55 20.3 42.75 20.3 41.95 20.3 41.4 20.65 40.75 21 40.45 21.55 40.1 22.1 40.1 22.95 40.1 23.75 40.45 24.3 40.7 24.8 41.4 25.25 42 25.55 42.75 25.55 43.5 25.55 44.1 25.25 44.7 24.9 45.05 24.3 45.4 23.6 45.4 22.95 45.4 22.25 45.05 21.55
M 41.65 21.1
Q 42.25 20.85 42.75 20.85 43.3 20.85 43.8 21.1 44.3 21.45 44.5 21.85 44.75 22.45 44.75 22.95 44.75 23.55 44.5 24 44.3 24.45 43.8 24.75 43.35 25.05 42.75 25.05 42.2 25.05 41.65 24.75 41.3 24.5 40.95 24 40.7 23.4 40.7 22.95 40.7 22.45 40.95 21.85 41.3 21.35 41.65 21.1 Z"/>
</g>

<g id="BDM_300x600_psd_Asset_ManagedWiFi_Awareness_DM7_1_Want_to_know__more_about__your_customers__0_Layer0_0_MEMBER_28_FILL">
<path fill="#D82C26" stroke="none" d="
M 49.9 20.65
Q 49.55 20.3 48.85 20.3 48.25 20.3 47.85 20.65 47.4 20.9 47.15 21.55
L 47.1 20.45 46.5 20.45 46.55 25.4 47.15 25.4 47.15 22.95
Q 47.15 22.5 47.35 21.8 47.6 21.3 47.95 21.1 48.2 20.85 48.7 20.85 49.35 20.85 49.65 21.25 49.95 21.7 49.95 22.5
L 49.95 25.4 50.6 25.4 50.6 22.85
Q 50.6 21.95 51.05 21.4 51.4 20.85 52.15 20.85 52.85 20.85 53.15 21.35 53.45 21.8 53.45 22.6
L 53.45 25.4 54.1 25.4 54.1 22.45
Q 54.1 21.5 53.65 20.9 53.2 20.3 52.3 20.3 51.6 20.3 51.2 20.65 50.75 20.95 50.5 21.6 50.25 20.95 49.9 20.65 Z"/>
</g>

<g id="BDM_300x600_psd_Asset_ManagedWiFi_Awareness_DM7_1_Want_to_know__more_about__your_customers__0_Layer0_0_MEMBER_29_FILL">
<path fill="#D82C26" stroke="none" d="
M 55.2 22.9
Q 55.2 23.75 55.55 24.3 55.85 24.85 56.45 25.25 57 25.55 57.75 25.55 58.85 25.55 59.75 24.95
L 59.6 24.4
Q 59.3 24.7 58.8 24.85 58.4 25.05 57.8 25.05 57.3 25.05 56.8 24.8 56.35 24.5 56.05 24.05 55.8 23.55 55.8 23
L 60 23 60 22.75
Q 60 22 59.75 21.5 59.4 20.9 58.95 20.65 58.45 20.3 57.65 20.3 56.95 20.3 56.4 20.65 55.85 20.95 55.55 21.55 55.2 22.1 55.2 22.9
M 56.7 21.05
Q 57.1 20.8 57.65 20.8 58.45 20.8 58.95 21.3 59.35 21.7 59.45 22.55
L 55.8 22.55
Q 55.9 22.05 56.05 21.75 56.3 21.3 56.7 21.05 Z"/>
</g>

<g id="BDM_300x600_psd_Asset_ManagedWiFi_Awareness_DM7_1_Want_to_know__more_about__your_customers__0_Layer0_0_MEMBER_30_FILL">
<path fill="#D82C26" stroke="none" d="
M 63.6 20.95
L 63.75 20.4 63.2 20.3
Q 62.75 20.3 62.35 20.65 62 20.95 61.75 21.55
L 61.7 20.45 61.1 20.45 61.15 25.4 61.8 25.4 61.8 22.95
Q 61.8 22.1 62.15 21.45 62.55 20.85 63.2 20.85
L 63.6 20.95 Z"/>
</g>

<g id="BDM_300x600_psd_Asset_ManagedWiFi_Awareness_DM7_1_Want_to_know__more_about__your_customers__0_Layer0_0_MEMBER_31_FILL">
<path fill="#D82C26" stroke="none" d="
M 64.55 22.55
Q 64.85 22.8 65.6 23.05 66.25 23.25 66.65 23.55 67 23.75 67 24.15 67 24.6 66.65 24.8 66.4 25.05 65.9 25.05 64.95 25.05 64.25 24.45
L 64.1 25
Q 64.45 25.3 64.9 25.4 65.35 25.55 65.9 25.55 66.35 25.55 66.7 25.4 67.05 25.3 67.35 24.9 67.6 24.55 67.6 24.1 67.6 23.55 67.2 23.25 66.8 22.85 66.05 22.65 65.3 22.4 65.1 22.2 64.8 22.05 64.8 21.65 64.8 21.25 65.1 21 65.35 20.8 65.9 20.8
L 66.6 20.95 67.15 21.3 67.45 20.85 66.75 20.45
Q 66.3 20.3 65.85 20.3 65.45 20.3 65.05 20.45 64.7 20.6 64.45 20.9 64.2 21.3 64.2 21.65 64.2 22.2 64.55 22.55 Z"/>
</g>

<g id="BDM_300x600_psd_Asset_ManagedWiFi_Awareness_DM7_1_Want_to_know__more_about__your_customers__0_Layer0_0_MEMBER_32_FILL">
<path fill="#D82C26" stroke="none" d="
M 68.55 18.55
Q 69.05 18.3 69.55 18.3 70.2 18.3 70.6 18.65 71 18.95 71 19.55
L 70.9 20.2 70.6 20.65 70.05 21.2
Q 69.7 21.55 69.4 22.05 69.25 22.45 69.25 22.95
L 69.25 23.25 69.85 23.25 69.85 23.05 69.9 22.45 70.1 22 71.2 20.85
Q 71.45 20.45 71.5 20.3 71.65 20 71.65 19.55 71.65 19 71.4 18.6 71.15 18.2 70.65 17.95 70.2 17.75 69.6 17.75 68.8 17.75 68.35 18 67.9 18.2 67.45 18.65
L 67.8 19.15
Q 68 18.85 68.55 18.55
M 69.6 24.55
Q 69.4 24.55 69.25 24.7 69.1 24.8 69.1 25 69.1 25.2 69.25 25.35 69.4 25.5 69.6 25.5
L 69.9 25.35
Q 70.05 25.2 70.05 25 70.05 24.8 69.9 24.7
L 69.6 24.55 Z"/>
</g>
</defs>

<g transform="matrix( 1, 0, 0, 1, -237,53) ">
<g transform="matrix( 1, 0, 0, 1, 231,0) ">
<g transform="matrix( 1, 0, 0, 1, 33,6) ">
<g transform="matrix( 2.815704345703125, 0, 0, 2.832611083984375, 0.15,22.6) ">
<use xlink:href="#BDM_300x600_psd_Asset_ManagedWiFi_Awareness_DM7_1_Want_to_know__more_about__your_customers__0_Layer0_0_MEMBER_0_FILL"/>
</g>

<g transform="matrix( 2.815704345703125, 0, 0, 2.832611083984375, 0.15,22.6) ">
<use xlink:href="#BDM_300x600_psd_Asset_ManagedWiFi_Awareness_DM7_1_Want_to_know__more_about__your_customers__0_Layer0_0_MEMBER_1_FILL"/>
</g>

<g transform="matrix( 2.815704345703125, 0, 0, 2.832611083984375, 0.15,22.6) ">
<use xlink:href="#BDM_300x600_psd_Asset_ManagedWiFi_Awareness_DM7_1_Want_to_know__more_about__your_customers__0_Layer0_0_MEMBER_2_FILL"/>
</g>

<g transform="matrix( 2.815704345703125, 0, 0, 2.832611083984375, 0.15,22.6) ">
<use xlink:href="#BDM_300x600_psd_Asset_ManagedWiFi_Awareness_DM7_1_Want_to_know__more_about__your_customers__0_Layer0_0_MEMBER_3_FILL"/>
</g>

<g transform="matrix( 2.815704345703125, 0, 0, 2.832611083984375, 0.15,22.6) ">
<use xlink:href="#BDM_300x600_psd_Asset_ManagedWiFi_Awareness_DM7_1_Want_to_know__more_about__your_customers__0_Layer0_0_MEMBER_4_FILL"/>
</g>

<g transform="matrix( 2.815704345703125, 0, 0, 2.832611083984375, 0.15,22.6) ">
<use xlink:href="#BDM_300x600_psd_Asset_ManagedWiFi_Awareness_DM7_1_Want_to_know__more_about__your_customers__0_Layer0_0_MEMBER_5_FILL"/>
</g>

<g transform="matrix( 2.815704345703125, 0, 0, 2.832611083984375, 0.15,22.6) ">
<use xlink:href="#BDM_300x600_psd_Asset_ManagedWiFi_Awareness_DM7_1_Want_to_know__more_about__your_customers__0_Layer0_0_MEMBER_6_FILL"/>
</g>

<g transform="matrix( 2.815704345703125, 0, 0, 2.832611083984375, 0.15,22.6) ">
<use xlink:href="#BDM_300x600_psd_Asset_ManagedWiFi_Awareness_DM7_1_Want_to_know__more_about__your_customers__0_Layer0_0_MEMBER_7_FILL"/>
</g>

<g transform="matrix( 2.815704345703125, 0, 0, 2.832611083984375, 0.15,22.6) ">
<use xlink:href="#BDM_300x600_psd_Asset_ManagedWiFi_Awareness_DM7_1_Want_to_know__more_about__your_customers__0_Layer0_0_MEMBER_8_FILL"/>
</g>

<g transform="matrix( 2.815704345703125, 0, 0, 2.832611083984375, 0.15,22.6) ">
<use xlink:href="#BDM_300x600_psd_Asset_ManagedWiFi_Awareness_DM7_1_Want_to_know__more_about__your_customers__0_Layer0_0_MEMBER_9_FILL"/>
</g>

<g transform="matrix( 2.815704345703125, 0, 0, 2.832611083984375, 0.15,22.6) ">
<use xlink:href="#BDM_300x600_psd_Asset_ManagedWiFi_Awareness_DM7_1_Want_to_know__more_about__your_customers__0_Layer0_0_MEMBER_10_FILL"/>
</g>

<g transform="matrix( 2.815704345703125, 0, 0, 2.832611083984375, 0.15,22.6) ">
<use xlink:href="#BDM_300x600_psd_Asset_ManagedWiFi_Awareness_DM7_1_Want_to_know__more_about__your_customers__0_Layer0_0_MEMBER_11_FILL"/>
</g>

<g transform="matrix( 2.815704345703125, 0, 0, 2.832611083984375, 0.15,22.6) ">
<use xlink:href="#BDM_300x600_psd_Asset_ManagedWiFi_Awareness_DM7_1_Want_to_know__more_about__your_customers__0_Layer0_0_MEMBER_12_FILL"/>
</g>

<g transform="matrix( 2.815704345703125, 0, 0, 2.832611083984375, 0.15,22.6) ">
<use xlink:href="#BDM_300x600_psd_Asset_ManagedWiFi_Awareness_DM7_1_Want_to_know__more_about__your_customers__0_Layer0_0_MEMBER_13_FILL"/>
</g>

<g transform="matrix( 2.815704345703125, 0, 0, 2.832611083984375, 0.15,22.6) ">
<use xlink:href="#BDM_300x600_psd_Asset_ManagedWiFi_Awareness_DM7_1_Want_to_know__more_about__your_customers__0_Layer0_0_MEMBER_14_FILL"/>
</g>

<g transform="matrix( 2.815704345703125, 0, 0, 2.832611083984375, 0.15,22.6) ">
<use xlink:href="#BDM_300x600_psd_Asset_ManagedWiFi_Awareness_DM7_1_Want_to_know__more_about__your_customers__0_Layer0_0_MEMBER_15_FILL"/>
</g>

<g transform="matrix( 2.815704345703125, 0, 0, 2.832611083984375, 0.15,22.6) ">
<use xlink:href="#BDM_300x600_psd_Asset_ManagedWiFi_Awareness_DM7_1_Want_to_know__more_about__your_customers__0_Layer0_0_MEMBER_16_FILL"/>
</g>

<g transform="matrix( 2.815704345703125, 0, 0, 2.832611083984375, 0.15,22.6) ">
<use xlink:href="#BDM_300x600_psd_Asset_ManagedWiFi_Awareness_DM7_1_Want_to_know__more_about__your_customers__0_Layer0_0_MEMBER_17_FILL"/>
</g>

<g transform="matrix( 2.815704345703125, 0, 0, 2.832611083984375, 0.15,22.6) ">
<use xlink:href="#BDM_300x600_psd_Asset_ManagedWiFi_Awareness_DM7_1_Want_to_know__more_about__your_customers__0_Layer0_0_MEMBER_18_FILL"/>
</g>

<g transform="matrix( 2.815704345703125, 0, 0, 2.832611083984375, 0.15,22.6) ">
<use xlink:href="#BDM_300x600_psd_Asset_ManagedWiFi_Awareness_DM7_1_Want_to_know__more_about__your_customers__0_Layer0_0_MEMBER_19_FILL"/>
</g>

<g transform="matrix( 2.815704345703125, 0, 0, 2.832611083984375, 0.15,22.6) ">
<use xlink:href="#BDM_300x600_psd_Asset_ManagedWiFi_Awareness_DM7_1_Want_to_know__more_about__your_customers__0_Layer0_0_MEMBER_20_FILL"/>
</g>

<g transform="matrix( 2.815704345703125, 0, 0, 2.832611083984375, 0.15,22.6) ">
<use xlink:href="#BDM_300x600_psd_Asset_ManagedWiFi_Awareness_DM7_1_Want_to_know__more_about__your_customers__0_Layer0_0_MEMBER_21_FILL"/>
</g>

<g transform="matrix( 2.815704345703125, 0, 0, 2.832611083984375, 0.15,22.6) ">
<use xlink:href="#BDM_300x600_psd_Asset_ManagedWiFi_Awareness_DM7_1_Want_to_know__more_about__your_customers__0_Layer0_0_MEMBER_22_FILL"/>
</g>

<g transform="matrix( 2.815704345703125, 0, 0, 2.832611083984375, 0.15,22.6) ">
<use xlink:href="#BDM_300x600_psd_Asset_ManagedWiFi_Awareness_DM7_1_Want_to_know__more_about__your_customers__0_Layer0_0_MEMBER_23_FILL"/>
</g>

<g transform="matrix( 2.815704345703125, 0, 0, 2.832611083984375, 0.15,22.6) ">
<use xlink:href="#BDM_300x600_psd_Asset_ManagedWiFi_Awareness_DM7_1_Want_to_know__more_about__your_customers__0_Layer0_0_MEMBER_24_FILL"/>
</g>

<g transform="matrix( 2.815704345703125, 0, 0, 2.832611083984375, 0.15,22.6) ">
<use xlink:href="#BDM_300x600_psd_Asset_ManagedWiFi_Awareness_DM7_1_Want_to_know__more_about__your_customers__0_Layer0_0_MEMBER_25_FILL"/>
</g>

<g transform="matrix( 2.815704345703125, 0, 0, 2.832611083984375, 0.15,22.6) ">
<use xlink:href="#BDM_300x600_psd_Asset_ManagedWiFi_Awareness_DM7_1_Want_to_know__more_about__your_customers__0_Layer0_0_MEMBER_26_FILL"/>
</g>

<g transform="matrix( 2.815704345703125, 0, 0, 2.832611083984375, 0.15,22.6) ">
<use xlink:href="#BDM_300x600_psd_Asset_ManagedWiFi_Awareness_DM7_1_Want_to_know__more_about__your_customers__0_Layer0_0_MEMBER_27_FILL"/>
</g>

<g transform="matrix( 2.815704345703125, 0, 0, 2.832611083984375, 0.15,22.6) ">
<use xlink:href="#BDM_300x600_psd_Asset_ManagedWiFi_Awareness_DM7_1_Want_to_know__more_about__your_customers__0_Layer0_0_MEMBER_28_FILL"/>
</g>

<g transform="matrix( 2.815704345703125, 0, 0, 2.832611083984375, 0.15,22.6) ">
<use xlink:href="#BDM_300x600_psd_Asset_ManagedWiFi_Awareness_DM7_1_Want_to_know__more_about__your_customers__0_Layer0_0_MEMBER_29_FILL"/>
</g>

<g transform="matrix( 2.815704345703125, 0, 0, 2.832611083984375, 0.15,22.6) ">
<use xlink:href="#BDM_300x600_psd_Asset_ManagedWiFi_Awareness_DM7_1_Want_to_know__more_about__your_customers__0_Layer0_0_MEMBER_30_FILL"/>
</g>

<g transform="matrix( 2.815704345703125, 0, 0, 2.832611083984375, 0.15,22.6) ">
<use xlink:href="#BDM_300x600_psd_Asset_ManagedWiFi_Awareness_DM7_1_Want_to_know__more_about__your_customers__0_Layer0_0_MEMBER_31_FILL"/>
</g>

<g transform="matrix( 2.815704345703125, 0, 0, 2.832611083984375, 0.15,22.6) ">
<use xlink:href="#BDM_300x600_psd_Asset_ManagedWiFi_Awareness_DM7_1_Want_to_know__more_about__your_customers__0_Layer0_0_MEMBER_32_FILL"/>
</g>
</g>
</g>
</g>
</svg>
