
<svg xmlns="http://www.w3.org/2000/svg" version="1.1" xmlns:xlink="http://www.w3.org/1999/xlink" preserveAspectRatio="none" x="0px" y="0px" width="300px" height="600px" viewBox="0 0 300 600">
<defs>
<g id="BDM_300x600_psd_Asset_ManagedWiFi_Awareness_DM7_3_to_individual__customer__spending_habits__0_Layer0_0_MEMBER_0_FILL">
<path fill="#D82C26" stroke="none" d="
M 2.95 -4.45
L 3.1 -4.95 1.65 -4.95 1.65 -6.4 1.05 -6.15 1.05 -4.95 0.25 -4.95 0.15 -4.45 1.05 -4.45 1.05 -1.2
Q 1.05 -0.55 1.35 -0.25 1.7 0.1 2.2 0.1
L 2.75 0.05 3.25 -0.15 3.2 -0.6
Q 2.6 -0.4 2.4 -0.4 2.05 -0.4 1.85 -0.6 1.65 -0.9 1.65 -1.3
L 1.65 -4.45 2.95 -4.45 Z"/>
</g>

<g id="BDM_300x600_psd_Asset_ManagedWiFi_Awareness_DM7_3_to_individual__customer__spending_habits__0_Layer0_0_MEMBER_1_FILL">
<path fill="#D82C26" stroke="none" d="
M 3.9 -1.15
Q 4.2 -0.5 4.85 -0.2 5.35 0.15 6.2 0.15 7 0.15 7.55 -0.2 8.05 -0.45 8.5 -1.15 8.8 -1.75 8.8 -2.5 8.8 -3.25 8.5 -3.85 8.15 -4.45 7.55 -4.8 6.95 -5.1 6.2 -5.1 5.4 -5.1 4.85 -4.8 4.15 -4.35 3.9 -3.85 3.55 -3.3 3.55 -2.5 3.55 -1.7 3.9 -1.15
M 4.15 -2.5
Q 4.15 -3.05 4.4 -3.55 4.6 -3.95 5.1 -4.3 5.55 -4.6 6.2 -4.6 6.8 -4.6 7.25 -4.3 7.75 -3.95 7.95 -3.55 8.2 -3.05 8.2 -2.5 8.2 -1.95 7.95 -1.45 7.75 -1 7.25 -0.65 6.75 -0.4 6.2 -0.4 5.6 -0.4 5.1 -0.65 4.6 -1 4.4 -1.45 4.15 -1.95 4.15 -2.5 Z"/>
</g>

<g id="BDM_300x600_psd_Asset_ManagedWiFi_Awareness_DM7_3_to_individual__customer__spending_habits__0_Layer0_0_MEMBER_2_FILL">
<path fill="#D82C26" stroke="none" d="
M 12.85 -4.95
L 12.2 -4.95 12.2 0 12.85 0 12.85 -4.95
M 12.5 -6.5
Q 12.7 -6.5 12.8 -6.6 12.95 -6.75 12.95 -6.95 12.95 -7.15 12.8 -7.25 12.75 -7.4 12.5 -7.4
L 12.2 -7.25 12.05 -6.95
Q 12.05 -6.75 12.2 -6.6
L 12.5 -6.5 Z"/>
</g>

<g id="BDM_300x600_psd_Asset_ManagedWiFi_Awareness_DM7_3_to_individual__customer__spending_habits__0_Layer0_0_MEMBER_3_FILL">
<path fill="#D82C26" stroke="none" d="
M 14.85 -4.95
L 14.3 -4.95 14.3 0 14.95 0 14.95 -2.55
Q 14.95 -3.2 15.15 -3.65 15.4 -4.15 15.75 -4.35 16.15 -4.6 16.6 -4.6 17.3 -4.6 17.65 -4.1 17.95 -3.55 17.95 -2.85
L 17.95 0 18.55 0 18.55 -3.05
Q 18.55 -3.9 18.1 -4.5 17.65 -5.1 16.7 -5.1 16.05 -5.1 15.65 -4.75 15.1 -4.45 14.95 -3.9
L 14.9 -3.9 14.85 -4.95 Z"/>
</g>

<g id="BDM_300x600_psd_Asset_ManagedWiFi_Awareness_DM7_3_to_individual__customer__spending_habits__0_Layer0_0_MEMBER_4_FILL">
<path fill="#D82C26" stroke="none" d="
M 19.7 -2.5
Q 19.7 -1.75 20 -1.15 20.3 -0.6 20.9 -0.2 21.5 0.15 22.15 0.15 22.85 0.15 23.35 -0.2 23.9 -0.5 24.2 -1.1
L 24.25 -1.1 24.3 0 24.9 0 24.8 -1.25 24.8 -8.15 24.2 -8 24.2 -3.9
Q 23.9 -4.5 23.35 -4.8 22.85 -5.1 22.15 -5.1 21.4 -5.1 20.9 -4.75 20.35 -4.45 20 -3.8 19.7 -3.2 19.7 -2.5
M 23.25 -4.3
Q 23.7 -4 24 -3.55 24.25 -2.95 24.25 -2.5 24.25 -1.95 24 -1.45 23.7 -0.95 23.25 -0.65 22.75 -0.4 22.25 -0.4 21.55 -0.4 21.25 -0.65 20.75 -0.95 20.55 -1.4 20.3 -2 20.3 -2.5 20.3 -2.95 20.55 -3.55 20.75 -3.95 21.25 -4.3 21.65 -4.6 22.25 -4.6 22.8 -4.6 23.25 -4.3 Z"/>
</g>

<g id="BDM_300x600_psd_Asset_ManagedWiFi_Awareness_DM7_3_to_individual__customer__spending_habits__0_Layer0_0_MEMBER_5_FILL">
<path fill="#D82C26" stroke="none" d="
M 26.95 -4.95
L 26.3 -4.95 26.3 0 26.95 0 26.95 -4.95
M 26.6 -6.5
L 26.95 -6.6 27.05 -6.95 26.95 -7.25
Q 26.8 -7.4 26.6 -7.4
L 26.3 -7.25 26.15 -6.95
Q 26.15 -6.75 26.3 -6.6
L 26.6 -6.5 Z"/>
</g>

<g id="BDM_300x600_psd_Asset_ManagedWiFi_Awareness_DM7_3_to_individual__customer__spending_habits__0_Layer0_0_MEMBER_6_FILL">
<path fill="#D82C26" stroke="none" d="
M 28.35 -4.95
L 27.7 -4.95 29.6 0 30.3 0 32.15 -4.95 31.55 -4.95 29.95 -0.6 28.35 -4.95 Z"/>
</g>

<g id="BDM_300x600_psd_Asset_ManagedWiFi_Awareness_DM7_3_to_individual__customer__spending_habits__0_Layer0_0_MEMBER_7_FILL">
<path fill="#D82C26" stroke="none" d="
M 33.6 -4.95
L 32.95 -4.95 32.95 0 33.6 0 33.6 -4.95
M 33.25 -6.5
L 33.6 -6.6 33.7 -6.95 33.6 -7.25
Q 33.45 -7.4 33.25 -7.4
L 32.95 -7.25 32.8 -6.95
Q 32.8 -6.75 32.95 -6.6
L 33.25 -6.5 Z"/>
</g>

<g id="BDM_300x600_psd_Asset_ManagedWiFi_Awareness_DM7_3_to_individual__customer__spending_habits__0_Layer0_0_MEMBER_8_FILL">
<path fill="#D82C26" stroke="none" d="
M 39.85 -8.15
L 39.25 -8 39.25 -3.9
Q 38.95 -4.5 38.4 -4.8 37.9 -5.1 37.2 -5.1 36.45 -5.1 35.95 -4.75 35.4 -4.45 35.05 -3.8 34.75 -3.2 34.75 -2.5 34.75 -1.75 35.05 -1.15 35.35 -0.6 35.95 -0.2 36.55 0.15 37.2 0.15 37.9 0.15 38.4 -0.2 38.95 -0.5 39.25 -1.1
L 39.3 -1.1 39.35 0 39.9 0 39.85 -8.15
M 38.3 -4.3
Q 38.8 -3.95 39 -3.55 39.3 -3 39.3 -2.5 39.3 -1.9 39 -1.45 38.8 -1 38.3 -0.65 37.8 -0.4 37.3 -0.4 36.65 -0.4 36.25 -0.65 35.8 -1 35.6 -1.4 35.35 -2 35.35 -2.5 35.35 -2.95 35.6 -3.55 35.8 -3.95 36.25 -4.3 36.7 -4.6 37.3 -4.6 37.85 -4.6 38.3 -4.3 Z"/>
</g>

<g id="BDM_300x600_psd_Asset_ManagedWiFi_Awareness_DM7_3_to_individual__customer__spending_habits__0_Layer0_0_MEMBER_9_FILL">
<path fill="#D82C26" stroke="none" d="
M 45.5 -4.95
L 44.9 -4.95 44.9 -2.5
Q 44.9 -1.75 44.7 -1.35 44.5 -0.9 44.1 -0.6 43.7 -0.35 43.25 -0.35 42.55 -0.35 42.2 -0.85 41.9 -1.35 41.9 -2.1
L 41.9 -4.95 41.3 -4.95 41.3 -1.95
Q 41.3 -1.05 41.75 -0.45 42.15 0.15 43.1 0.15 43.7 0.15 44.2 -0.2 44.65 -0.45 44.9 -1.05
L 45 0 45.6 0 45.5 -1.15 45.5 -4.95 Z"/>
</g>

<g id="BDM_300x600_psd_Asset_ManagedWiFi_Awareness_DM7_3_to_individual__customer__spending_habits__0_Layer0_0_MEMBER_10_FILL">
<path fill="#D82C26" stroke="none" d="
M 49.7 -4.25
Q 50.1 -3.95 50.1 -3.25
L 50.1 -3 49.5 -3
Q 46.65 -3 46.65 -1.35 46.65 -0.6 47.1 -0.25 47.65 0.15 48.25 0.15 48.85 0.15 49.35 -0.15 49.9 -0.45 50.1 -0.95
L 50.2 0 50.75 0 50.7 -3.2
Q 50.7 -4.05 50.2 -4.65 49.7 -5.1 48.8 -5.1
L 47.75 -4.95
Q 47.25 -4.75 46.95 -4.5
L 47.1 -4 47.85 -4.45
Q 48.3 -4.6 48.7 -4.6 49.35 -4.6 49.7 -4.25
M 47.55 -0.6
Q 47.25 -0.8 47.25 -1.35 47.25 -2.55 49.6 -2.55
L 50.1 -2.55 50.1 -2.05
Q 50.1 -1.6 49.9 -1.25 49.6 -0.75 49.3 -0.6 49 -0.35 48.35 -0.35 47.85 -0.35 47.55 -0.6 Z"/>
</g>

<g id="BDM_300x600_psd_Asset_ManagedWiFi_Awareness_DM7_3_to_individual__customer__spending_habits__0_Layer0_0_MEMBER_11_FILL">
<path fill="#D82C26" stroke="none" d="
M 52.1 -1.1
Q 52.1 -0.65 52.35 -0.3 52.5 0 52.9 0.1
L 53.2 -0.4
Q 52.95 -0.55 52.85 -0.7 52.75 -0.8 52.75 -1.25
L 52.75 -8.05 52.1 -7.95 52.1 -1.1 Z"/>
</g>

<g id="BDM_300x600_psd_Asset_ManagedWiFi_Awareness_DM7_3_to_individual__customer__spending_habits__0_Layer0_0_MEMBER_12_FILL">
<path fill="#D82C26" stroke="none" d="
M 4.15 7.75
L 3.2 7.6
Q 2.4 7.6 1.85 7.95 1.25 8.25 0.95 8.9 0.6 9.45 0.6 10.25 0.6 11.05 0.95 11.6 1.25 12.2 1.85 12.5 2.4 12.85 3.2 12.85
L 4.15 12.7
Q 4.6 12.55 4.9 12.25
L 4.8 11.75
Q 4.5 12 4.1 12.15 3.75 12.3 3.25 12.3 2.7 12.3 2.2 12.05 1.7 11.75 1.5 11.3 1.25 10.85 1.25 10.25 1.25 9.6 1.5 9.2 1.7 8.75 2.2 8.4 2.65 8.1 3.2 8.1 3.65 8.1 4 8.25
L 4.65 8.65 4.9 8.2
Q 4.6 7.9 4.15 7.75 Z"/>
</g>

<g id="BDM_300x600_psd_Asset_ManagedWiFi_Awareness_DM7_3_to_individual__customer__spending_habits__0_Layer0_0_MEMBER_13_FILL">
<path fill="#D82C26" stroke="none" d="
M 9.95 7.75
L 9.35 7.75 9.35 10.2
Q 9.35 10.95 9.15 11.35 9 11.75 8.55 12.1 8.15 12.35 7.7 12.35 7 12.35 6.65 11.85 6.35 11.35 6.35 10.6
L 6.35 7.75 5.75 7.75 5.75 10.75
Q 5.75 11.6 6.15 12.25 6.6 12.85 7.55 12.85 8.15 12.85 8.65 12.5 9.1 12.2 9.35 11.65
L 9.45 12.7 10.05 12.7 9.95 11.55 9.95 7.75 Z"/>
</g>

<g id="BDM_300x600_psd_Asset_ManagedWiFi_Awareness_DM7_3_to_individual__customer__spending_habits__0_Layer0_0_MEMBER_14_FILL">
<path fill="#D82C26" stroke="none" d="
M 13.7 7.75
Q 13.25 7.6 12.8 7.6
L 12.05 7.75
Q 11.6 7.95 11.4 8.2 11.2 8.45 11.2 8.95 11.2 9.5 11.55 9.8 11.9 10.15 12.6 10.35
L 13.65 10.8
Q 13.95 11.1 13.95 11.45 13.95 11.9 13.6 12.1 13.35 12.35 12.85 12.35 11.9 12.35 11.2 11.75
L 11.1 12.3
Q 11.45 12.55 11.85 12.7 12.3 12.85 12.85 12.85 13.25 12.85 13.7 12.7 14.1 12.45 14.3 12.2 14.55 11.8 14.55 11.4 14.55 10.85 14.15 10.55 13.85 10.2 13 9.95 12.35 9.75 12.05 9.5 11.75 9.3 11.75 8.95 11.75 8.55 12.05 8.3 12.3 8.1 12.85 8.1
L 13.55 8.25
Q 13.75 8.3 14.15 8.6
L 14.4 8.1 13.7 7.75 Z"/>
</g>

<g id="BDM_300x600_psd_Asset_ManagedWiFi_Awareness_DM7_3_to_individual__customer__spending_habits__0_Layer0_0_MEMBER_15_FILL">
<path fill="#D82C26" stroke="none" d="
M 15.15 7.75
L 15.05 8.25 15.95 8.25 15.95 11.5
Q 15.95 12.15 16.3 12.5 16.6 12.8 17.15 12.8
L 17.7 12.75 18.2 12.55 18.1 12.1
Q 17.7 12.3 17.3 12.3 16.95 12.3 16.8 12.1 16.6 11.9 16.6 11.45
L 16.6 8.25 17.85 8.25 18 7.75 16.6 7.75 16.6 6.3 15.95 6.55 15.95 7.75 15.15 7.75 Z"/>
</g>

<g id="BDM_300x600_psd_Asset_ManagedWiFi_Awareness_DM7_3_to_individual__customer__spending_habits__0_Layer0_0_MEMBER_16_FILL">
<path fill="#D82C26" stroke="none" d="
M 22.45 7.95
Q 21.9 7.6 21.1 7.6 20.3 7.6 19.75 7.95 19.1 8.3 18.8 8.85 18.45 9.4 18.45 10.2 18.45 10.95 18.8 11.6 19.1 12.15 19.75 12.5 20.3 12.85 21.1 12.85 21.9 12.85 22.45 12.5 23 12.2 23.4 11.6 23.75 10.8 23.75 10.2 23.75 9.55 23.4 8.85 23 8.25 22.45 7.95
M 21.1 8.1
Q 21.7 8.1 22.15 8.4 22.65 8.75 22.85 9.15 23.1 9.6 23.1 10.2 23.1 10.9 22.85 11.25 22.65 11.7 22.15 12.05 21.7 12.35 21.1 12.35 20.55 12.35 20 12.05 19.6 11.8 19.3 11.25 19.1 10.85 19.1 10.2 19.1 9.6 19.3 9.15 19.65 8.65 20 8.4 20.55 8.1 21.1 8.1 Z"/>
</g>

<g id="BDM_300x600_psd_Asset_ManagedWiFi_Awareness_DM7_3_to_individual__customer__spending_habits__0_Layer0_0_MEMBER_17_FILL">
<path fill="#D82C26" stroke="none" d="
M 32 8.2
Q 31.55 7.6 30.65 7.6 29.95 7.6 29.55 7.95 29.05 8.3 28.85 8.9 28.65 8.25 28.25 7.95 27.9 7.6 27.2 7.6 26.6 7.6 26.2 7.95 25.75 8.25 25.5 8.8
L 25.45 7.75 24.85 7.75 24.9 12.7 25.5 12.7 25.5 10.25
Q 25.5 9.6 25.75 9.1 25.9 8.7 26.3 8.35 26.65 8.1 27.1 8.1 27.7 8.1 28 8.55 28.35 9.1 28.35 9.8
L 28.35 12.7 28.95 12.7 28.95 10.15
Q 28.95 9.25 29.4 8.7 29.8 8.1 30.5 8.1 31.2 8.1 31.5 8.65 31.8 9.1 31.8 9.9
L 31.8 12.7 32.45 12.7 32.45 9.75
Q 32.45 8.8 32 8.2 Z"/>
</g>

<g id="BDM_300x600_psd_Asset_ManagedWiFi_Awareness_DM7_3_to_individual__customer__spending_habits__0_Layer0_0_MEMBER_18_FILL">
<path fill="#D82C26" stroke="none" d="
M 33.55 10.2
Q 33.55 10.95 33.9 11.6 34.2 12.2 34.8 12.5 35.35 12.85 36.1 12.85 37.3 12.85 38.1 12.25
L 37.95 11.7
Q 37.65 12 37.15 12.15 36.75 12.35 36.15 12.35 35.6 12.35 35.15 12.05 34.7 11.8 34.45 11.35 34.15 10.9 34.15 10.3
L 38.35 10.3 38.4 10.05
Q 38.4 9.4 38.1 8.8 37.8 8.25 37.3 7.9 36.8 7.6 36 7.6 35.3 7.6 34.75 7.95 34.2 8.25 33.9 8.85 33.55 9.4 33.55 10.2
M 34.4 9.05
Q 34.65 8.6 35.05 8.35 35.35 8.1 36 8.1 36.8 8.1 37.3 8.55 37.75 9.05 37.8 9.85
L 34.15 9.85
Q 34.25 9.35 34.4 9.05 Z"/>
</g>

<g id="BDM_300x600_psd_Asset_ManagedWiFi_Awareness_DM7_3_to_individual__customer__spending_habits__0_Layer0_0_MEMBER_19_FILL">
<path fill="#D82C26" stroke="none" d="
M 41.55 7.6
Q 41.1 7.6 40.7 7.95 40.35 8.25 40.1 8.8
L 40.05 7.75 39.45 7.75 39.5 12.7 40.15 12.7 40.15 10.25
Q 40.15 9.3 40.5 8.75 40.9 8.15 41.55 8.15
L 41.95 8.25 42.1 7.7 41.55 7.6 Z"/>
</g>

<g id="BDM_300x600_psd_Asset_ManagedWiFi_Awareness_DM7_3_to_individual__customer__spending_habits__0_Layer0_0_MEMBER_20_FILL">
<path fill="#D82C26" stroke="none" d="
M 3.9 20.85
Q 3.5 20.55 3.2 20.45 2.75 20.3 2.3 20.3
L 1.55 20.45
Q 1.1 20.65 0.9 20.9 0.7 21.25 0.7 21.65 0.7 22.25 1.05 22.55 1.3 22.8 2.1 23.05 2.6 23.2 3.15 23.55 3.45 23.8 3.45 24.15 3.45 24.6 3.1 24.8 2.85 25.05 2.35 25.05 1.4 25.05 0.7 24.45
L 0.6 25
Q 0.95 25.25 1.35 25.4 1.8 25.55 2.35 25.55 2.75 25.55 3.2 25.4 3.5 25.25 3.8 24.9 4.05 24.55 4.05 24.1 4.05 23.6 3.7 23.25 3.35 22.9 2.5 22.65 1.85 22.45 1.55 22.2 1.25 22.05 1.25 21.65 1.25 21.25 1.55 21 1.8 20.8 2.35 20.8
L 3.05 20.95 3.65 21.3 3.9 20.85 Z"/>
</g>

<g id="BDM_300x600_psd_Asset_ManagedWiFi_Awareness_DM7_3_to_individual__customer__spending_habits__0_Layer0_0_MEMBER_21_FILL">
<path fill="#D82C26" stroke="none" d="
M 9.95 21.6
Q 9.65 21.05 9.05 20.65 8.45 20.3 7.75 20.3 7.1 20.3 6.6 20.65 6.05 20.9 5.75 21.55
L 5.7 21.55 5.7 20.45 5.05 20.45 5.1 27.95 5.75 27.95 5.75 24.35
Q 6.05 25 6.6 25.25 7.15 25.55 7.75 25.55 8.55 25.55 9.05 25.2 9.6 24.9 9.95 24.25 10.25 23.65 10.25 22.95 10.25 22.2 9.95 21.6
M 7.7 20.85
Q 8.2 20.85 8.7 21.1 9.1 21.35 9.4 21.9 9.6 22.3 9.6 22.95 9.6 23.55 9.4 24 9.05 24.5 8.7 24.75 8.25 25.05 7.7 25.05 7.1 25.05 6.65 24.75 6.3 24.5 5.95 24 5.7 23.4 5.7 22.95 5.7 22.4 5.95 21.9 6.25 21.35 6.65 21.1 7.15 20.85 7.7 20.85 Z"/>
</g>

<g id="BDM_300x600_psd_Asset_ManagedWiFi_Awareness_DM7_3_to_individual__customer__spending_habits__0_Layer0_0_MEMBER_22_FILL">
<path fill="#D82C26" stroke="none" d="
M 14.85 20.65
Q 14.35 20.3 13.55 20.3 12.85 20.3 12.3 20.65 11.75 20.95 11.45 21.55 11.1 22.1 11.1 22.9 11.1 23.75 11.45 24.3 11.75 24.85 12.35 25.25 12.9 25.55 13.65 25.55 14.85 25.55 15.65 24.95
L 15.5 24.4
Q 15.2 24.7 14.7 24.85 14.3 25.05 13.7 25.05 13.2 25.05 12.7 24.8 12.25 24.5 11.95 24.05 11.7 23.55 11.7 23
L 15.9 23 15.9 22.75
Q 15.9 22 15.65 21.5 15.3 20.9 14.85 20.65
M 13.55 20.8
Q 14.35 20.8 14.85 21.3 15.25 21.7 15.35 22.55
L 11.7 22.55
Q 11.8 22.05 11.95 21.75 12.2 21.3 12.6 21.05 13 20.8 13.55 20.8 Z"/>
</g>

<g id="BDM_300x600_psd_Asset_ManagedWiFi_Awareness_DM7_3_to_individual__customer__spending_habits__0_Layer0_0_MEMBER_23_FILL">
<path fill="#D82C26" stroke="none" d="
M 21.3 22.4
Q 21.3 21.5 20.85 20.9 20.4 20.3 19.45 20.3 18.8 20.3 18.4 20.65 17.85 20.95 17.7 21.55
L 17.65 21.55 17.6 20.45 17.05 20.45 17.05 25.4 17.7 25.4 17.7 22.9
Q 17.7 22.2 17.9 21.8 18.1 21.35 18.5 21.1 18.8 20.85 19.35 20.85 20.1 20.85 20.4 21.3 20.7 21.85 20.7 22.55
L 20.7 25.4 21.3 25.4 21.3 22.4 Z"/>
</g>

<g id="BDM_300x600_psd_Asset_ManagedWiFi_Awareness_DM7_3_to_individual__customer__spending_habits__0_Layer0_0_MEMBER_24_FILL">
<path fill="#D82C26" stroke="none" d="
M 27.55 17.3
L 26.95 17.4 26.95 21.55
Q 26.65 20.95 26.1 20.65 25.6 20.3 24.95 20.3 24.25 20.3 23.65 20.65 23.05 21.05 22.75 21.6 22.45 22.2 22.45 22.95 22.45 23.65 22.75 24.25 23.1 24.9 23.65 25.2 24.15 25.55 24.95 25.55 25.6 25.55 26.1 25.25 26.65 24.95 26.95 24.35
L 27 24.35 27.05 25.4 27.65 25.4 27.55 24.15 27.55 17.3
M 24 21.1
Q 24.4 20.85 25 20.85 25.5 20.85 26 21.1 26.45 21.4 26.75 21.9 27 22.4 27 22.95 27 23.4 26.75 24 26.45 24.45 26 24.75 25.55 25.05 25 25.05 24.4 25.05 24 24.75 23.5 24.45 23.3 24 23.05 23.4 23.05 22.95 23.05 22.4 23.3 21.9 23.5 21.45 24 21.1 Z"/>
</g>

<g id="BDM_300x600_psd_Asset_ManagedWiFi_Awareness_DM7_3_to_individual__customer__spending_habits__0_Layer0_0_MEMBER_25_FILL">
<path fill="#D82C26" stroke="none" d="
M 29.7 20.45
L 29.05 20.45 29.05 25.4 29.7 25.4 29.7 20.45
M 29.8 18.45
L 29.7 18.15
Q 29.6 18.05 29.35 18.05 29.15 18.05 29.05 18.15
L 28.9 18.45
Q 28.9 18.65 29.05 18.8
L 29.35 18.95
Q 29.55 18.95 29.7 18.8
L 29.8 18.45 Z"/>
</g>

<g id="BDM_300x600_psd_Asset_ManagedWiFi_Awareness_DM7_3_to_individual__customer__spending_habits__0_Layer0_0_MEMBER_26_FILL">
<path fill="#D82C26" stroke="none" d="
M 33.45 20.85
Q 34.2 20.85 34.5 21.3 34.8 21.85 34.8 22.55
L 34.8 25.4 35.4 25.4 35.4 22.4
Q 35.4 21.5 34.95 20.9 34.5 20.3 33.6 20.3 32.9 20.3 32.5 20.65 32.05 20.9 31.8 21.55
L 31.75 21.55 31.7 20.45 31.15 20.45 31.15 25.4 31.8 25.4 31.8 22.9
Q 31.8 22.2 32 21.8 32.2 21.35 32.6 21.1 32.9 20.85 33.45 20.85 Z"/>
</g>

<g id="BDM_300x600_psd_Asset_ManagedWiFi_Awareness_DM7_3_to_individual__customer__spending_habits__0_Layer0_0_MEMBER_27_FILL">
<path fill="#D82C26" stroke="none" d="
M 41.7 20.45
L 41.1 20.45 41.05 21.55
Q 40.75 20.95 40.2 20.65 39.7 20.3 39 20.3 38.4 20.3 37.7 20.65 37.1 21.05 36.85 21.6 36.5 22.3 36.5 22.95 36.5 23.55 36.85 24.25 37.15 24.85 37.7 25.15 38.25 25.5 39 25.5 39.7 25.5 40.2 25.2 40.75 24.9 41.05 24.3
L 41.05 25.35
Q 41.05 26.4 40.55 26.9 40.1 27.5 39 27.5 38.45 27.5 37.9 27.3 37.4 27.15 36.95 26.85
L 36.85 27.4
Q 37.35 27.7 37.85 27.85 38.4 28 39 28 40.45 28 41 27.3 41.65 26.6 41.65 25.35
L 41.7 20.45
M 40.8 21.9
Q 41.05 22.3 41.05 22.9 41.05 23.6 40.8 23.95 40.6 24.45 40.1 24.7 39.65 25 39.1 25 38.5 25 38.05 24.7 37.65 24.5 37.4 23.95 37.15 23.45 37.15 22.95 37.15 22.4 37.4 21.9 37.6 21.4 38.05 21.1 38.55 20.85 39.1 20.85 39.6 20.85 40.1 21.1 40.6 21.45 40.8 21.9 Z"/>
</g>

<g id="BDM_300x600_psd_Asset_ManagedWiFi_Awareness_DM7_3_to_individual__customer__spending_habits__0_Layer0_0_MEMBER_28_FILL">
<path fill="#D82C26" stroke="none" d="
M 46.85 21.1
Q 47.15 20.85 47.7 20.85 48.45 20.85 48.75 21.3 49.05 21.85 49.05 22.55
L 49.05 25.4 49.65 25.4 49.65 22.4
Q 49.65 21.5 49.2 20.9 48.85 20.3 47.85 20.3 47.25 20.3 46.75 20.65 46.3 20.95 46.05 21.5
L 46.05 17.35 45.4 17.45 45.4 25.4 46.05 25.4 46.05 23
Q 46.05 22.25 46.25 21.85 46.5 21.35 46.85 21.1 Z"/>
</g>

<g id="BDM_300x600_psd_Asset_ManagedWiFi_Awareness_DM7_3_to_individual__customer__spending_habits__0_Layer0_0_MEMBER_29_FILL">
<path fill="#D82C26" stroke="none" d="
M 52.85 20.3
L 51.85 20.45 51 20.95 51.2 21.4
Q 51.55 21.15 51.95 21 52.35 20.8 52.75 20.8 53.45 20.8 53.8 21.15 54.2 21.45 54.2 22.15
L 54.2 22.45 53.6 22.45
Q 50.75 22.45 50.75 24.1 50.75 24.85 51.2 25.2 51.6 25.55 52.3 25.55 52.85 25.55 53.45 25.3 53.9 25.05 54.15 24.45
L 54.2 24.45 54.3 25.4 54.85 25.4 54.75 24.35 54.75 22.2
Q 54.75 21.25 54.25 20.8 53.8 20.3 52.85 20.3
M 54.2 23.35
Q 54.2 23.65 54 24.15 53.8 24.5 53.4 24.85 53 25.1 52.45 25.1 52 25.1 51.65 24.85 51.35 24.65 51.35 24.05 51.35 22.85 53.65 22.85
L 54.2 22.85 54.2 23.35 Z"/>
</g>

<g id="BDM_300x600_psd_Asset_ManagedWiFi_Awareness_DM7_3_to_individual__customer__spending_habits__0_Layer0_0_MEMBER_30_FILL">
<path fill="#D82C26" stroke="none" d="
M 61 24.25
Q 61.35 23.7 61.35 22.95 61.35 22.15 61 21.6 60.75 21.05 60.15 20.65 59.45 20.3 58.85 20.3 58.2 20.3 57.7 20.65 57.15 20.9 56.85 21.55
L 56.8 21.55 56.8 17.3 56.2 17.4 56.15 25.4 56.7 25.4 56.8 24.35
Q 57.15 24.95 57.65 25.25 58.2 25.55 58.85 25.55 59.6 25.55 60.15 25.2 60.7 24.9 61 24.25
M 58.75 20.85
Q 59.3 20.85 59.8 21.1 60.2 21.35 60.5 21.9 60.7 22.3 60.7 22.95 60.7 23.55 60.5 24 60.15 24.5 59.8 24.75 59.35 25.05 58.75 25.05 58.2 25.05 57.75 24.75 57.4 24.5 57.05 24 56.8 23.4 56.8 22.95 56.8 22.4 57.05 21.9 57.35 21.35 57.75 21.1 58.25 20.85 58.75 20.85 Z"/>
</g>

<g id="BDM_300x600_psd_Asset_ManagedWiFi_Awareness_DM7_3_to_individual__customer__spending_habits__0_Layer0_0_MEMBER_31_FILL">
<path fill="#D82C26" stroke="none" d="
M 63.1 20.45
L 62.5 20.45 62.5 25.4 63.1 25.4 63.1 20.45
M 63.25 18.45
L 63.1 18.15
Q 63 18.05 62.8 18.05 62.55 18.05 62.45 18.15
L 62.35 18.45 62.45 18.8
Q 62.6 18.95 62.8 18.95
L 63.1 18.8
Q 63.25 18.65 63.25 18.45 Z"/>
</g>

<g id="BDM_300x600_psd_Asset_ManagedWiFi_Awareness_DM7_3_to_individual__customer__spending_habits__0_Layer0_0_MEMBER_32_FILL">
<path fill="#D82C26" stroke="none" d="
M 64.85 20.95
L 64.85 24.2
Q 64.85 24.85 65.15 25.2 65.45 25.5 66 25.5
L 66.55 25.45 67.05 25.25 66.95 24.8
Q 66.55 25 66.15 25 65.8 25 65.65 24.8 65.45 24.6 65.45 24.15
L 65.45 20.95 66.7 20.95 66.85 20.45 65.45 20.45 65.45 19.05 64.8 19.3 64.8 20.45 64 20.45 63.9 20.95 64.85 20.95 Z"/>
</g>

<g id="BDM_300x600_psd_Asset_ManagedWiFi_Awareness_DM7_3_to_individual__customer__spending_habits__0_Layer0_0_MEMBER_33_FILL">
<path fill="#D82C26" stroke="none" d="
M 69.35 20.3
L 68.6 20.45
Q 68.15 20.65 67.95 20.9 67.75 21.25 67.75 21.65 67.75 22.25 68.1 22.55 68.35 22.8 69.15 23.05 69.65 23.2 70.2 23.55 70.5 23.8 70.5 24.15 70.5 24.6 70.15 24.8 69.9 25.05 69.4 25.05 68.45 25.05 67.75 24.45
L 67.65 25
Q 68 25.25 68.4 25.4 68.85 25.55 69.4 25.55 69.8 25.55 70.25 25.4 70.55 25.25 70.85 24.9 71.1 24.55 71.1 24.1 71.1 23.55 70.7 23.25 70.4 22.9 69.55 22.65 68.9 22.45 68.6 22.2 68.3 22.05 68.3 21.65 68.3 21.25 68.6 21 68.85 20.8 69.4 20.8
L 70.1 20.95 70.7 21.3 70.95 20.85
Q 70.55 20.55 70.25 20.45 69.8 20.3 69.35 20.3 Z"/>
</g>

<g id="BDM_300x600_psd_Asset_ManagedWiFi_Awareness_DM7_3_to_individual__customer__spending_habits__0_Layer0_0_MEMBER_34_FILL">
<path fill="#D82C26" stroke="none" d="
M 72.3 25.35
Q 72.45 25.5 72.65 25.5
L 72.95 25.35
Q 73.1 25.2 73.1 25 73.1 24.8 72.95 24.65 72.85 24.55 72.65 24.55
L 72.3 24.65
Q 72.15 24.8 72.15 25 72.15 25.2 72.3 25.35 Z"/>
</g>
</defs>

<g transform="matrix( 1, 0, 0, 1, -237,53) ">
<g transform="matrix( 1, 0, 0, 1, 231,0) ">
<g transform="matrix( 1, 0, 0, 1, 33,5) ">
<g transform="matrix( 2.815704345703125, 0, 0, 2.832611083984375, 0.15,23.6) ">
<use xlink:href="#BDM_300x600_psd_Asset_ManagedWiFi_Awareness_DM7_3_to_individual__customer__spending_habits__0_Layer0_0_MEMBER_0_FILL"/>
</g>

<g transform="matrix( 2.815704345703125, 0, 0, 2.832611083984375, 0.15,23.6) ">
<use xlink:href="#BDM_300x600_psd_Asset_ManagedWiFi_Awareness_DM7_3_to_individual__customer__spending_habits__0_Layer0_0_MEMBER_1_FILL"/>
</g>

<g transform="matrix( 2.815704345703125, 0, 0, 2.832611083984375, 0.15,23.6) ">
<use xlink:href="#BDM_300x600_psd_Asset_ManagedWiFi_Awareness_DM7_3_to_individual__customer__spending_habits__0_Layer0_0_MEMBER_2_FILL"/>
</g>

<g transform="matrix( 2.815704345703125, 0, 0, 2.832611083984375, 0.15,23.6) ">
<use xlink:href="#BDM_300x600_psd_Asset_ManagedWiFi_Awareness_DM7_3_to_individual__customer__spending_habits__0_Layer0_0_MEMBER_3_FILL"/>
</g>

<g transform="matrix( 2.815704345703125, 0, 0, 2.832611083984375, 0.15,23.6) ">
<use xlink:href="#BDM_300x600_psd_Asset_ManagedWiFi_Awareness_DM7_3_to_individual__customer__spending_habits__0_Layer0_0_MEMBER_4_FILL"/>
</g>

<g transform="matrix( 2.815704345703125, 0, 0, 2.832611083984375, 0.15,23.6) ">
<use xlink:href="#BDM_300x600_psd_Asset_ManagedWiFi_Awareness_DM7_3_to_individual__customer__spending_habits__0_Layer0_0_MEMBER_5_FILL"/>
</g>

<g transform="matrix( 2.815704345703125, 0, 0, 2.832611083984375, 0.15,23.6) ">
<use xlink:href="#BDM_300x600_psd_Asset_ManagedWiFi_Awareness_DM7_3_to_individual__customer__spending_habits__0_Layer0_0_MEMBER_6_FILL"/>
</g>

<g transform="matrix( 2.815704345703125, 0, 0, 2.832611083984375, 0.15,23.6) ">
<use xlink:href="#BDM_300x600_psd_Asset_ManagedWiFi_Awareness_DM7_3_to_individual__customer__spending_habits__0_Layer0_0_MEMBER_7_FILL"/>
</g>

<g transform="matrix( 2.815704345703125, 0, 0, 2.832611083984375, 0.15,23.6) ">
<use xlink:href="#BDM_300x600_psd_Asset_ManagedWiFi_Awareness_DM7_3_to_individual__customer__spending_habits__0_Layer0_0_MEMBER_8_FILL"/>
</g>

<g transform="matrix( 2.815704345703125, 0, 0, 2.832611083984375, 0.15,23.6) ">
<use xlink:href="#BDM_300x600_psd_Asset_ManagedWiFi_Awareness_DM7_3_to_individual__customer__spending_habits__0_Layer0_0_MEMBER_9_FILL"/>
</g>

<g transform="matrix( 2.815704345703125, 0, 0, 2.832611083984375, 0.15,23.6) ">
<use xlink:href="#BDM_300x600_psd_Asset_ManagedWiFi_Awareness_DM7_3_to_individual__customer__spending_habits__0_Layer0_0_MEMBER_10_FILL"/>
</g>

<g transform="matrix( 2.815704345703125, 0, 0, 2.832611083984375, 0.15,23.6) ">
<use xlink:href="#BDM_300x600_psd_Asset_ManagedWiFi_Awareness_DM7_3_to_individual__customer__spending_habits__0_Layer0_0_MEMBER_11_FILL"/>
</g>

<g transform="matrix( 2.815704345703125, 0, 0, 2.832611083984375, 0.15,23.6) ">
<use xlink:href="#BDM_300x600_psd_Asset_ManagedWiFi_Awareness_DM7_3_to_individual__customer__spending_habits__0_Layer0_0_MEMBER_12_FILL"/>
</g>

<g transform="matrix( 2.815704345703125, 0, 0, 2.832611083984375, 0.15,23.6) ">
<use xlink:href="#BDM_300x600_psd_Asset_ManagedWiFi_Awareness_DM7_3_to_individual__customer__spending_habits__0_Layer0_0_MEMBER_13_FILL"/>
</g>

<g transform="matrix( 2.815704345703125, 0, 0, 2.832611083984375, 0.15,23.6) ">
<use xlink:href="#BDM_300x600_psd_Asset_ManagedWiFi_Awareness_DM7_3_to_individual__customer__spending_habits__0_Layer0_0_MEMBER_14_FILL"/>
</g>

<g transform="matrix( 2.815704345703125, 0, 0, 2.832611083984375, 0.15,23.6) ">
<use xlink:href="#BDM_300x600_psd_Asset_ManagedWiFi_Awareness_DM7_3_to_individual__customer__spending_habits__0_Layer0_0_MEMBER_15_FILL"/>
</g>

<g transform="matrix( 2.815704345703125, 0, 0, 2.832611083984375, 0.15,23.6) ">
<use xlink:href="#BDM_300x600_psd_Asset_ManagedWiFi_Awareness_DM7_3_to_individual__customer__spending_habits__0_Layer0_0_MEMBER_16_FILL"/>
</g>

<g transform="matrix( 2.815704345703125, 0, 0, 2.832611083984375, 0.15,23.6) ">
<use xlink:href="#BDM_300x600_psd_Asset_ManagedWiFi_Awareness_DM7_3_to_individual__customer__spending_habits__0_Layer0_0_MEMBER_17_FILL"/>
</g>

<g transform="matrix( 2.815704345703125, 0, 0, 2.832611083984375, 0.15,23.6) ">
<use xlink:href="#BDM_300x600_psd_Asset_ManagedWiFi_Awareness_DM7_3_to_individual__customer__spending_habits__0_Layer0_0_MEMBER_18_FILL"/>
</g>

<g transform="matrix( 2.815704345703125, 0, 0, 2.832611083984375, 0.15,23.6) ">
<use xlink:href="#BDM_300x600_psd_Asset_ManagedWiFi_Awareness_DM7_3_to_individual__customer__spending_habits__0_Layer0_0_MEMBER_19_FILL"/>
</g>

<g transform="matrix( 2.815704345703125, 0, 0, 2.832611083984375, 0.15,23.6) ">
<use xlink:href="#BDM_300x600_psd_Asset_ManagedWiFi_Awareness_DM7_3_to_individual__customer__spending_habits__0_Layer0_0_MEMBER_20_FILL"/>
</g>

<g transform="matrix( 2.815704345703125, 0, 0, 2.832611083984375, 0.15,23.6) ">
<use xlink:href="#BDM_300x600_psd_Asset_ManagedWiFi_Awareness_DM7_3_to_individual__customer__spending_habits__0_Layer0_0_MEMBER_21_FILL"/>
</g>

<g transform="matrix( 2.815704345703125, 0, 0, 2.832611083984375, 0.15,23.6) ">
<use xlink:href="#BDM_300x600_psd_Asset_ManagedWiFi_Awareness_DM7_3_to_individual__customer__spending_habits__0_Layer0_0_MEMBER_22_FILL"/>
</g>

<g transform="matrix( 2.815704345703125, 0, 0, 2.832611083984375, 0.15,23.6) ">
<use xlink:href="#BDM_300x600_psd_Asset_ManagedWiFi_Awareness_DM7_3_to_individual__customer__spending_habits__0_Layer0_0_MEMBER_23_FILL"/>
</g>

<g transform="matrix( 2.815704345703125, 0, 0, 2.832611083984375, 0.15,23.6) ">
<use xlink:href="#BDM_300x600_psd_Asset_ManagedWiFi_Awareness_DM7_3_to_individual__customer__spending_habits__0_Layer0_0_MEMBER_24_FILL"/>
</g>

<g transform="matrix( 2.815704345703125, 0, 0, 2.832611083984375, 0.15,23.6) ">
<use xlink:href="#BDM_300x600_psd_Asset_ManagedWiFi_Awareness_DM7_3_to_individual__customer__spending_habits__0_Layer0_0_MEMBER_25_FILL"/>
</g>

<g transform="matrix( 2.815704345703125, 0, 0, 2.832611083984375, 0.15,23.6) ">
<use xlink:href="#BDM_300x600_psd_Asset_ManagedWiFi_Awareness_DM7_3_to_individual__customer__spending_habits__0_Layer0_0_MEMBER_26_FILL"/>
</g>

<g transform="matrix( 2.815704345703125, 0, 0, 2.832611083984375, 0.15,23.6) ">
<use xlink:href="#BDM_300x600_psd_Asset_ManagedWiFi_Awareness_DM7_3_to_individual__customer__spending_habits__0_Layer0_0_MEMBER_27_FILL"/>
</g>

<g transform="matrix( 2.815704345703125, 0, 0, 2.832611083984375, 0.15,23.6) ">
<use xlink:href="#BDM_300x600_psd_Asset_ManagedWiFi_Awareness_DM7_3_to_individual__customer__spending_habits__0_Layer0_0_MEMBER_28_FILL"/>
</g>

<g transform="matrix( 2.815704345703125, 0, 0, 2.832611083984375, 0.15,23.6) ">
<use xlink:href="#BDM_300x600_psd_Asset_ManagedWiFi_Awareness_DM7_3_to_individual__customer__spending_habits__0_Layer0_0_MEMBER_29_FILL"/>
</g>

<g transform="matrix( 2.815704345703125, 0, 0, 2.832611083984375, 0.15,23.6) ">
<use xlink:href="#BDM_300x600_psd_Asset_ManagedWiFi_Awareness_DM7_3_to_individual__customer__spending_habits__0_Layer0_0_MEMBER_30_FILL"/>
</g>

<g transform="matrix( 2.815704345703125, 0, 0, 2.832611083984375, 0.15,23.6) ">
<use xlink:href="#BDM_300x600_psd_Asset_ManagedWiFi_Awareness_DM7_3_to_individual__customer__spending_habits__0_Layer0_0_MEMBER_31_FILL"/>
</g>

<g transform="matrix( 2.815704345703125, 0, 0, 2.832611083984375, 0.15,23.6) ">
<use xlink:href="#BDM_300x600_psd_Asset_ManagedWiFi_Awareness_DM7_3_to_individual__customer__spending_habits__0_Layer0_0_MEMBER_32_FILL"/>
</g>

<g transform="matrix( 2.815704345703125, 0, 0, 2.832611083984375, 0.15,23.6) ">
<use xlink:href="#BDM_300x600_psd_Asset_ManagedWiFi_Awareness_DM7_3_to_individual__customer__spending_habits__0_Layer0_0_MEMBER_33_FILL"/>
</g>

<g transform="matrix( 2.815704345703125, 0, 0, 2.832611083984375, 0.15,23.6) ">
<use xlink:href="#BDM_300x600_psd_Asset_ManagedWiFi_Awareness_DM7_3_to_individual__customer__spending_habits__0_Layer0_0_MEMBER_34_FILL"/>
</g>
</g>
</g>
</g>
</svg>
