
<svg xmlns="http://www.w3.org/2000/svg" version="1.1" xmlns:xlink="http://www.w3.org/1999/xlink" preserveAspectRatio="none" x="0px" y="0px" width="300px" height="250px" viewBox="0 0 300 250">
<defs>
<g id="IT_300x250_psd_Asset_3_ManagedWiFi_IT_Research_DM11_2_with_a_managed__Wi_Fi_solution__0_Layer0_0_MEMBER_0_FILL">
<path fill="#D82C26" stroke="none" d="
M 0.75 -3.95
L 0.2 -3.95 1.45 0 2 0 3.1 -3.4 3.15 -3.4 4.3 0 4.8 0 6.05 -3.95 5.55 -3.95 4.55 -0.55 3.4 -3.95 2.85 -3.95 1.75 -0.55 0.75 -3.95 Z"/>
</g>

<g id="IT_300x250_psd_Asset_3_ManagedWiFi_IT_Research_DM11_2_with_a_managed__Wi_Fi_solution__0_Layer0_0_MEMBER_1_FILL">
<path fill="#D82C26" stroke="none" d="
M 7.35 -3.95
L 6.85 -3.95 6.85 0 7.35 0 7.35 -3.95
M 7.1 -5.2
L 7.35 -5.3 7.45 -5.55 7.35 -5.8
Q 7.25 -5.9 7.1 -5.9 6.9 -5.9 6.85 -5.8 6.75 -5.75 6.75 -5.55 6.75 -5.35 6.85 -5.3
L 7.1 -5.2 Z"/>
</g>

<g id="IT_300x250_psd_Asset_3_ManagedWiFi_IT_Research_DM11_2_with_a_managed__Wi_Fi_solution__0_Layer0_0_MEMBER_2_FILL">
<path fill="#D82C26" stroke="none" d="
M 8.05 -3.6
L 8.8 -3.6 8.8 -0.95
Q 8.8 -0.45 9.05 -0.2 9.35 0.1 9.75 0.1
L 10.2 0.05 10.6 -0.15 10.5 -0.5
Q 10.1 -0.3 9.9 -0.3 9.65 -0.3 9.45 -0.5 9.3 -0.65 9.3 -1.05
L 9.3 -3.6 10.35 -3.6 10.45 -3.95 9.3 -3.95 9.3 -5.1 8.8 -4.9 8.8 -3.95 8.15 -3.95 8.05 -3.6 Z"/>
</g>

<g id="IT_300x250_psd_Asset_3_ManagedWiFi_IT_Research_DM11_2_with_a_managed__Wi_Fi_solution__0_Layer0_0_MEMBER_3_FILL">
<path fill="#D82C26" stroke="none" d="
M 11.8 -6.45
L 11.3 -6.4 11.3 0 11.8 0 11.8 -1.95
Q 11.8 -2.5 12 -2.85 12.15 -3.3 12.45 -3.45 12.7 -3.65 13.1 -3.65 13.75 -3.65 13.95 -3.25 14.2 -2.85 14.2 -2.3
L 14.2 0 14.7 0 14.7 -2.4
Q 14.7 -3.2 14.35 -3.6 14 -4.1 13.25 -4.1 12.8 -4.1 12.4 -3.85 12.05 -3.6 11.85 -3.15
L 11.8 -3.15 11.8 -6.45 Z"/>
</g>

<g id="IT_300x250_psd_Asset_3_ManagedWiFi_IT_Research_DM11_2_with_a_managed__Wi_Fi_solution__0_Layer0_0_MEMBER_4_FILL">
<path fill="#D82C26" stroke="none" d="
M 19 -3.7
Q 19.55 -3.7 19.85 -3.4 20.15 -3.15 20.15 -2.6
L 20.15 -2.4 19.65 -2.4
Q 17.35 -2.4 17.35 -1.05 17.35 -0.5 17.75 -0.2 18.15 0.1 18.65 0.1 19.15 0.1 19.55 -0.1 19.95 -0.35 20.1 -0.75
L 20.15 -0.75 20.15 -0.35 20.2 0 20.65 0 20.6 -2.6
Q 20.6 -3.3 20.2 -3.7 19.7 -4.1 19.05 -4.1 18.65 -4.1 18.25 -3.95
L 17.6 -3.6 17.75 -3.2
Q 17.95 -3.4 18.35 -3.55 18.65 -3.7 19 -3.7
M 20.15 -2.05
L 20.15 -1.65
Q 20.15 -1.25 19.95 -1 19.8 -0.65 19.5 -0.45 19.1 -0.25 18.75 -0.25 18.5 -0.25 18.1 -0.45 17.85 -0.7 17.85 -1.1 17.85 -2.05 19.7 -2.05
L 20.15 -2.05 Z"/>
</g>

<g id="IT_300x250_psd_Asset_3_ManagedWiFi_IT_Research_DM11_2_with_a_managed__Wi_Fi_solution__0_Layer0_0_MEMBER_5_FILL">
<path fill="#D82C26" stroke="none" d="
M 24 -3.95
L 23.55 -3.95 23.55 0 24.05 0 24.05 -1.95
Q 24.05 -2.5 24.2 -2.9 24.45 -3.3 24.65 -3.45 24.9 -3.65 25.3 -3.65 25.85 -3.65 26.05 -3.35 26.3 -2.95 26.3 -2.35
L 26.3 0 26.8 0 26.8 -2.05
Q 26.8 -2.8 27.15 -3.2 27.55 -3.65 28.05 -3.65 28.65 -3.65 28.85 -3.25 29.1 -2.85 29.1 -2.25
L 29.1 0 29.6 0 29.6 -2.4
Q 29.6 -3.2 29.25 -3.6 28.85 -4.1 28.15 -4.1 27.7 -4.1 27.3 -3.8 26.95 -3.55 26.7 -3.05 26.55 -3.55 26.25 -3.8 25.95 -4.1 25.4 -4.1 25 -4.1 24.6 -3.8 24.2 -3.55 24.05 -3.1
L 24 -3.95 Z"/>
</g>

<g id="IT_300x250_psd_Asset_3_ManagedWiFi_IT_Research_DM11_2_with_a_managed__Wi_Fi_solution__0_Layer0_0_MEMBER_6_FILL">
<path fill="#D82C26" stroke="none" d="
M 31.5 -3.55
L 32.15 -3.7
Q 32.7 -3.7 33 -3.4 33.3 -3.15 33.3 -2.6
L 33.3 -2.4 32.8 -2.4
Q 30.55 -2.4 30.55 -1.05 30.55 -0.5 30.9 -0.2 31.3 0.1 31.8 0.1 32.35 0.1 32.7 -0.1 33 -0.25 33.3 -0.75
L 33.4 0 33.85 0 33.75 -0.85 33.75 -2.6
Q 33.75 -3.35 33.35 -3.7 32.95 -4.1 32.25 -4.1 31.85 -4.1 31.45 -3.95
L 30.75 -3.6 30.9 -3.2
Q 31.1 -3.4 31.5 -3.55
M 32.65 -0.45
Q 32.25 -0.25 31.9 -0.25 31.6 -0.25 31.3 -0.45 31 -0.65 31 -1.1 31 -2.05 32.9 -2.05
L 33.3 -2.05 33.3 -1.65
Q 33.3 -1.3 33.15 -1 32.95 -0.65 32.65 -0.45 Z"/>
</g>

<g id="IT_300x250_psd_Asset_3_ManagedWiFi_IT_Research_DM11_2_with_a_managed__Wi_Fi_solution__0_Layer0_0_MEMBER_7_FILL">
<path fill="#D82C26" stroke="none" d="
M 35.5 -3.1
L 35.45 -3.95 35 -3.95 35 0 35.5 0 35.5 -2
Q 35.5 -2.55 35.7 -2.9 35.85 -3.3 36.15 -3.45 36.4 -3.65 36.85 -3.65 37.45 -3.65 37.65 -3.25 37.9 -2.95 37.9 -2.3
L 37.9 0 38.4 0 38.4 -2.4
Q 38.4 -3.2 38.05 -3.6 37.7 -4.1 36.95 -4.1 36.5 -4.1 36.05 -3.8 35.65 -3.55 35.5 -3.1 Z"/>
</g>

<g id="IT_300x250_psd_Asset_3_ManagedWiFi_IT_Research_DM11_2_with_a_managed__Wi_Fi_solution__0_Layer0_0_MEMBER_8_FILL">
<path fill="#D82C26" stroke="none" d="
M 39.35 -1.05
Q 39.35 -0.5 39.75 -0.2 40.15 0.1 40.6 0.1 41.15 0.1 41.5 -0.1 41.95 -0.3 42.1 -0.75
L 42.15 -0.75 42.15 -0.35 42.2 0 42.65 0 42.6 -2.6
Q 42.6 -3.3 42.2 -3.7 41.7 -4.1 41.05 -4.1 40.65 -4.1 40.25 -3.95 39.75 -3.75 39.6 -3.6
L 39.75 -3.2 40.3 -3.55 41 -3.7
Q 41.5 -3.7 41.8 -3.4 42.1 -3.15 42.1 -2.6
L 42.1 -2.4 41.65 -2.4
Q 39.35 -2.4 39.35 -1.05
M 40.1 -0.45
Q 39.85 -0.65 39.85 -1.1 39.85 -2.05 41.7 -2.05
L 42.1 -2.05 42.1 -1.65
Q 42.1 -1.3 41.95 -1 41.8 -0.65 41.5 -0.45 41.1 -0.25 40.75 -0.25 40.4 -0.25 40.1 -0.45 Z"/>
</g>

<g id="IT_300x250_psd_Asset_3_ManagedWiFi_IT_Research_DM11_2_with_a_managed__Wi_Fi_solution__0_Layer0_0_MEMBER_9_FILL">
<path fill="#D82C26" stroke="none" d="
M 45.55 -4.1
Q 44.95 -4.1 44.5 -3.8 44 -3.45 43.8 -3.05 43.55 -2.55 43.55 -2 43.55 -1.45 43.8 -0.95 43.95 -0.55 44.5 -0.2 44.95 0.1 45.55 0.1 46.05 0.1 46.5 -0.2 46.9 -0.4 47.15 -0.9
L 47.15 -0.05
Q 47.15 0.8 46.8 1.2 46.35 1.65 45.55 1.65 45.1 1.65 44.65 1.5
L 43.9 1.15 43.8 1.6 44.6 1.95
Q 45.05 2.1 45.55 2.1 46.65 2.1 47.15 1.5 47.65 0.95 47.65 -0.05
L 47.7 -3.95 47.2 -3.95 47.2 -3.1 47.15 -3.1
Q 46.9 -3.55 46.5 -3.85 46 -4.1 45.55 -4.1
M 44.8 -0.55
Q 44.4 -0.8 44.25 -1.15 44.05 -1.5 44.05 -2 44.05 -2.5 44.25 -2.85 44.4 -3.2 44.8 -3.45 45.15 -3.65 45.6 -3.65 46.15 -3.65 46.4 -3.45 46.8 -3.2 47 -2.85 47.2 -2.35 47.2 -2 47.2 -1.65 47 -1.15 46.8 -0.75 46.4 -0.55 46.15 -0.35 45.6 -0.35 45.15 -0.35 44.8 -0.55 Z"/>
</g>

<g id="IT_300x250_psd_Asset_3_ManagedWiFi_IT_Research_DM11_2_with_a_managed__Wi_Fi_solution__0_Layer0_0_MEMBER_10_FILL">
<path fill="#D82C26" stroke="none" d="
M 48.95 -0.9
Q 49.15 -0.45 49.65 -0.15 50.05 0.1 50.7 0.1 51.65 0.1 52.3 -0.4
L 52.2 -0.8 51.55 -0.45
Q 51.2 -0.3 50.75 -0.3 50.25 -0.3 49.9 -0.5 49.55 -0.75 49.35 -1.1 49.15 -1.6 49.15 -1.9
L 52.5 -1.9 52.5 -2.15
Q 52.5 -2.7 52.3 -3.1 52.05 -3.55 51.65 -3.85 51.15 -4.1 50.65 -4.1 50.15 -4.1 49.65 -3.85 49.2 -3.55 48.9 -3.1 48.65 -2.5 48.65 -2 48.65 -1.4 48.95 -0.9
M 49.35 -2.9
Q 49.5 -3.2 49.85 -3.5 50.1 -3.7 50.65 -3.7 51.25 -3.7 51.65 -3.3 52.05 -2.9 52.05 -2.3
L 49.15 -2.3
Q 49.15 -2.5 49.35 -2.9 Z"/>
</g>

<g id="IT_300x250_psd_Asset_3_ManagedWiFi_IT_Research_DM11_2_with_a_managed__Wi_Fi_solution__0_Layer0_0_MEMBER_11_FILL">
<path fill="#D82C26" stroke="none" d="
M 57.4 -6.5
L 56.9 -6.4 56.9 -3.1
Q 56.55 -3.6 56.2 -3.85 55.7 -4.1 55.25 -4.1 54.7 -4.1 54.25 -3.8 53.75 -3.45 53.55 -3.05 53.3 -2.65 53.3 -2 53.3 -1.35 53.55 -0.9 53.75 -0.45 54.25 -0.15 54.75 0.1 55.25 0.1 55.85 0.1 56.2 -0.15 56.65 -0.4 56.9 -0.85
L 56.95 0 57.45 0 57.4 -6.5
M 54.5 -3.45
Q 54.85 -3.65 55.35 -3.65 55.8 -3.65 56.15 -3.45 56.55 -3.2 56.7 -2.85 56.9 -2.45 56.9 -2 56.9 -1.5 56.7 -1.15 56.55 -0.8 56.15 -0.55 55.75 -0.3 55.35 -0.3 54.9 -0.3 54.5 -0.55 54.15 -0.8 53.95 -1.15 53.8 -1.5 53.8 -2 53.8 -2.4 53.95 -2.85 54.15 -3.2 54.5 -3.45 Z"/>
</g>

<g id="IT_300x250_psd_Asset_3_ManagedWiFi_IT_Research_DM11_2_with_a_managed__Wi_Fi_solution__0_Layer0_0_MEMBER_12_FILL">
<path fill="#D82C26" stroke="none" d="
M 8.05 3.9
L 7.55 3.9 6 9.2 4.4 3.9 3.8 3.9 2.25 9.2 0.7 3.9 0.15 3.9 1.95 9.9 2.55 9.9 4.1 4.55 5.7 9.9 6.3 9.9 8.05 3.9 Z"/>
</g>

<g id="IT_300x250_psd_Asset_3_ManagedWiFi_IT_Research_DM11_2_with_a_managed__Wi_Fi_solution__0_Layer0_0_MEMBER_13_FILL">
<path fill="#D82C26" stroke="none" d="
M 9.4 5.9
L 8.9 5.9 8.9 9.9 9.4 9.9 9.4 5.9
M 9.35 4.6
Q 9.5 4.45 9.5 4.35
L 9.35 4.05 9.1 3.95 8.85 4.1 8.75 4.35 8.85 4.6 9.1 4.7 9.35 4.6 Z"/>
</g>

<g id="IT_300x250_psd_Asset_3_ManagedWiFi_IT_Research_DM11_2_with_a_managed__Wi_Fi_solution__0_Layer0_0_MEMBER_14_FILL">
<path fill="#D82C26" stroke="none" d="
M 10.45 7.55
L 10.45 7.95 12.15 7.95 12.15 7.55 10.45 7.55 Z"/>
</g>

<g id="IT_300x250_psd_Asset_3_ManagedWiFi_IT_Research_DM11_2_with_a_managed__Wi_Fi_solution__0_Layer0_0_MEMBER_15_FILL">
<path fill="#D82C26" stroke="none" d="
M 16.45 4.35
L 16.45 3.9 13.4 3.9 13.4 9.9 13.9 9.9 13.9 7.05 16.25 7.05 16.35 6.6 13.9 6.6 13.9 4.35 16.45 4.35 Z"/>
</g>

<g id="IT_300x250_psd_Asset_3_ManagedWiFi_IT_Research_DM11_2_with_a_managed__Wi_Fi_solution__0_Layer0_0_MEMBER_16_FILL">
<path fill="#D82C26" stroke="none" d="
M 17.95 5.9
L 17.45 5.9 17.45 9.9 17.95 9.9 17.95 5.9
M 17.4 4.6
L 17.65 4.7 17.9 4.6
Q 18.05 4.45 18.05 4.35
L 17.9 4.05 17.65 3.95 17.4 4.1 17.3 4.35 17.4 4.6 Z"/>
</g>

<g id="IT_300x250_psd_Asset_3_ManagedWiFi_IT_Research_DM11_2_with_a_managed__Wi_Fi_solution__0_Layer0_0_MEMBER_17_FILL">
<path fill="#D82C26" stroke="none" d="
M 22 5.8
L 21.35 5.9
Q 21 6.05 20.9 6.3 20.7 6.5 20.7 6.9 20.7 7.25 20.95 7.6 21.3 7.85 21.8 8 22.5 8.25 22.65 8.4 22.9 8.55 22.9 8.85 22.9 9.15 22.65 9.4 22.4 9.6 22 9.6 21.2 9.6 20.7 9.1
L 20.6 9.55
Q 20.8 9.75 21.25 9.85 21.65 10 22.05 10 22.4 10 22.7 9.85 22.95 9.8 23.2 9.45 23.4 9.15 23.4 8.85 23.4 8.4 23.1 8.15 22.85 7.9 22.15 7.65 21.6 7.5 21.4 7.3 21.15 7.15 21.15 6.85 21.15 6.5 21.4 6.35 21.65 6.2 22 6.2
L 22.6 6.3 23.05 6.6 23.25 6.2 22.7 5.9 22 5.8 Z"/>
</g>

<g id="IT_300x250_psd_Asset_3_ManagedWiFi_IT_Research_DM11_2_with_a_managed__Wi_Fi_solution__0_Layer0_0_MEMBER_18_FILL">
<path fill="#D82C26" stroke="none" d="
M 27.25 6.05
Q 26.75 5.8 26.2 5.8 25.6 5.8 25.1 6.05 24.65 6.35 24.35 6.8 24.1 7.2 24.1 7.9 24.1 8.55 24.35 9 24.65 9.45 25.1 9.75 25.6 10 26.2 10 26.75 10 27.25 9.75 27.75 9.45 28.05 9 28.3 8.4 28.3 7.9 28.3 7.3 28.05 6.8 27.75 6.35 27.25 6.05
M 24.6 7.9
Q 24.6 7.45 24.75 7.05 25 6.7 25.35 6.45 25.75 6.2 26.2 6.2 26.65 6.2 27.05 6.45 27.35 6.65 27.6 7.05 27.8 7.4 27.8 7.9 27.8 8.4 27.6 8.75 27.45 9.1 27.05 9.35 26.65 9.6 26.2 9.6 25.75 9.6 25.35 9.35 25 9.15 24.75 8.75 24.6 8.4 24.6 7.9 Z"/>
</g>

<g id="IT_300x250_psd_Asset_3_ManagedWiFi_IT_Research_DM11_2_with_a_managed__Wi_Fi_solution__0_Layer0_0_MEMBER_19_FILL">
<path fill="#D82C26" stroke="none" d="
M 29.5 9.65
Q 29.65 9.85 29.95 10
L 30.2 9.55
Q 30 9.5 29.9 9.3 29.8 9.2 29.8 8.9
L 29.8 3.45 29.3 3.5 29.3 9
Q 29.3 9.4 29.5 9.65 Z"/>
</g>

<g id="IT_300x250_psd_Asset_3_ManagedWiFi_IT_Research_DM11_2_with_a_managed__Wi_Fi_solution__0_Layer0_0_MEMBER_20_FILL">
<path fill="#D82C26" stroke="none" d="
M 31.55 5.9
L 31.05 5.9 31.05 8.35
Q 31.05 9 31.4 9.5 31.75 10 32.5 10 33 10 33.4 9.75 33.8 9.45 33.95 9.05
L 34.05 9.9 34.55 9.9 34.45 8.95 34.45 5.9 33.95 5.9 33.95 7.9
Q 33.95 8.45 33.8 8.8 33.65 9.1 33.3 9.4 32.9 9.6 32.65 9.6 32.05 9.6 31.8 9.2 31.55 8.8 31.55 8.2
L 31.55 5.9 Z"/>
</g>

<g id="IT_300x250_psd_Asset_3_ManagedWiFi_IT_Research_DM11_2_with_a_managed__Wi_Fi_solution__0_Layer0_0_MEMBER_21_FILL">
<path fill="#D82C26" stroke="none" d="
M 35.95 4.95
L 35.95 5.9 35.3 5.9 35.2 6.3 35.95 6.3 35.95 8.95
Q 35.95 9.35 36.2 9.7 36.4 9.95 36.85 9.95
L 37.3 9.9 37.7 9.75 37.65 9.4 37 9.55
Q 36.75 9.55 36.6 9.4 36.45 9.25 36.45 8.85
L 36.45 6.3 37.45 6.3 37.55 5.9 36.45 5.9 36.45 4.8 35.95 4.95 Z"/>
</g>

<g id="IT_300x250_psd_Asset_3_ManagedWiFi_IT_Research_DM11_2_with_a_managed__Wi_Fi_solution__0_Layer0_0_MEMBER_22_FILL">
<path fill="#D82C26" stroke="none" d="
M 38.95 5.9
L 38.45 5.9 38.45 9.9 38.95 9.9 38.95 5.9
M 38.95 4.6
L 39.05 4.35 38.95 4.05 38.7 3.95
Q 38.55 3.95 38.45 4.1 38.35 4.15 38.35 4.35 38.35 4.5 38.45 4.6
L 38.7 4.7 38.95 4.6 Z"/>
</g>

<g id="IT_300x250_psd_Asset_3_ManagedWiFi_IT_Research_DM11_2_with_a_managed__Wi_Fi_solution__0_Layer0_0_MEMBER_23_FILL">
<path fill="#D82C26" stroke="none" d="
M 43.15 6.05
Q 42.55 5.8 42.05 5.8 41.55 5.8 40.95 6.05 40.5 6.35 40.2 6.8 39.95 7.3 39.95 7.9 39.95 8.4 40.2 9 40.5 9.45 40.95 9.75 41.55 10 42.05 10 42.55 10 43.15 9.75 43.6 9.45 43.9 9 44.15 8.4 44.15 7.9 44.15 7.3 43.9 6.8 43.6 6.35 43.15 6.05
M 43.65 7.9
Q 43.65 8.4 43.45 8.75 43.3 9.1 42.9 9.35 42.5 9.6 42.05 9.6 41.6 9.6 41.2 9.35 40.8 9.1 40.65 8.75 40.45 8.4 40.45 7.9 40.45 7.4 40.65 7.05 40.8 6.7 41.2 6.45 41.6 6.2 42.05 6.2 42.5 6.2 42.9 6.45 43.3 6.7 43.45 7.05 43.65 7.4 43.65 7.9 Z"/>
</g>

<g id="IT_300x250_psd_Asset_3_ManagedWiFi_IT_Research_DM11_2_with_a_managed__Wi_Fi_solution__0_Layer0_0_MEMBER_24_FILL">
<path fill="#D82C26" stroke="none" d="
M 47.1 5.8
Q 46.65 5.8 46.25 6.05 45.9 6.3 45.65 6.8
L 45.6 5.9 45.15 5.9 45.2 9.9 45.7 9.9 45.7 7.85
Q 45.7 7.4 45.85 7 46 6.7 46.35 6.4 46.75 6.2 47 6.2 47.55 6.2 47.85 6.6 48.1 7 48.1 7.6
L 48.1 9.9 48.6 9.9 48.6 7.45
Q 48.6 6.8 48.2 6.3 47.9 5.8 47.1 5.8 Z"/>
</g>

<g id="IT_300x250_psd_Asset_3_ManagedWiFi_IT_Research_DM11_2_with_a_managed__Wi_Fi_solution__0_Layer0_0_MEMBER_25_FILL">
<path fill="#D82C26" stroke="none" d="
M 49.85 9.85
L 50.15 9.95 50.4 9.85
Q 50.5 9.75 50.5 9.55 50.5 9.35 50.4 9.3 50.35 9.15 50.15 9.15
L 49.85 9.3 49.75 9.55 49.85 9.85 Z"/>
</g>
</defs>

<g transform="matrix( 1, 0, 0, 1, -56,1) ">
<g transform="matrix( 1, 0, 0, 1, 51,17) ">
<g transform="matrix( 1, 0, 0, 1, 27,6) ">
<g transform="matrix( 2.815704345703125, 0, 0, 2.832611083984375, 0.15,18.6) ">
<use xlink:href="#IT_300x250_psd_Asset_3_ManagedWiFi_IT_Research_DM11_2_with_a_managed__Wi_Fi_solution__0_Layer0_0_MEMBER_0_FILL"/>
</g>

<g transform="matrix( 2.815704345703125, 0, 0, 2.832611083984375, 0.15,18.6) ">
<use xlink:href="#IT_300x250_psd_Asset_3_ManagedWiFi_IT_Research_DM11_2_with_a_managed__Wi_Fi_solution__0_Layer0_0_MEMBER_1_FILL"/>
</g>

<g transform="matrix( 2.815704345703125, 0, 0, 2.832611083984375, 0.15,18.6) ">
<use xlink:href="#IT_300x250_psd_Asset_3_ManagedWiFi_IT_Research_DM11_2_with_a_managed__Wi_Fi_solution__0_Layer0_0_MEMBER_2_FILL"/>
</g>

<g transform="matrix( 2.815704345703125, 0, 0, 2.832611083984375, 0.15,18.6) ">
<use xlink:href="#IT_300x250_psd_Asset_3_ManagedWiFi_IT_Research_DM11_2_with_a_managed__Wi_Fi_solution__0_Layer0_0_MEMBER_3_FILL"/>
</g>

<g transform="matrix( 2.815704345703125, 0, 0, 2.832611083984375, 0.15,18.6) ">
<use xlink:href="#IT_300x250_psd_Asset_3_ManagedWiFi_IT_Research_DM11_2_with_a_managed__Wi_Fi_solution__0_Layer0_0_MEMBER_4_FILL"/>
</g>

<g transform="matrix( 2.815704345703125, 0, 0, 2.832611083984375, 0.15,18.6) ">
<use xlink:href="#IT_300x250_psd_Asset_3_ManagedWiFi_IT_Research_DM11_2_with_a_managed__Wi_Fi_solution__0_Layer0_0_MEMBER_5_FILL"/>
</g>

<g transform="matrix( 2.815704345703125, 0, 0, 2.832611083984375, 0.15,18.6) ">
<use xlink:href="#IT_300x250_psd_Asset_3_ManagedWiFi_IT_Research_DM11_2_with_a_managed__Wi_Fi_solution__0_Layer0_0_MEMBER_6_FILL"/>
</g>

<g transform="matrix( 2.815704345703125, 0, 0, 2.832611083984375, 0.15,18.6) ">
<use xlink:href="#IT_300x250_psd_Asset_3_ManagedWiFi_IT_Research_DM11_2_with_a_managed__Wi_Fi_solution__0_Layer0_0_MEMBER_7_FILL"/>
</g>

<g transform="matrix( 2.815704345703125, 0, 0, 2.832611083984375, 0.15,18.6) ">
<use xlink:href="#IT_300x250_psd_Asset_3_ManagedWiFi_IT_Research_DM11_2_with_a_managed__Wi_Fi_solution__0_Layer0_0_MEMBER_8_FILL"/>
</g>

<g transform="matrix( 2.815704345703125, 0, 0, 2.832611083984375, 0.15,18.6) ">
<use xlink:href="#IT_300x250_psd_Asset_3_ManagedWiFi_IT_Research_DM11_2_with_a_managed__Wi_Fi_solution__0_Layer0_0_MEMBER_9_FILL"/>
</g>

<g transform="matrix( 2.815704345703125, 0, 0, 2.832611083984375, 0.15,18.6) ">
<use xlink:href="#IT_300x250_psd_Asset_3_ManagedWiFi_IT_Research_DM11_2_with_a_managed__Wi_Fi_solution__0_Layer0_0_MEMBER_10_FILL"/>
</g>

<g transform="matrix( 2.815704345703125, 0, 0, 2.832611083984375, 0.15,18.6) ">
<use xlink:href="#IT_300x250_psd_Asset_3_ManagedWiFi_IT_Research_DM11_2_with_a_managed__Wi_Fi_solution__0_Layer0_0_MEMBER_11_FILL"/>
</g>

<g transform="matrix( 2.815704345703125, 0, 0, 2.832611083984375, 0.15,18.6) ">
<use xlink:href="#IT_300x250_psd_Asset_3_ManagedWiFi_IT_Research_DM11_2_with_a_managed__Wi_Fi_solution__0_Layer0_0_MEMBER_12_FILL"/>
</g>

<g transform="matrix( 2.815704345703125, 0, 0, 2.832611083984375, 0.15,18.6) ">
<use xlink:href="#IT_300x250_psd_Asset_3_ManagedWiFi_IT_Research_DM11_2_with_a_managed__Wi_Fi_solution__0_Layer0_0_MEMBER_13_FILL"/>
</g>

<g transform="matrix( 2.815704345703125, 0, 0, 2.832611083984375, 0.15,18.6) ">
<use xlink:href="#IT_300x250_psd_Asset_3_ManagedWiFi_IT_Research_DM11_2_with_a_managed__Wi_Fi_solution__0_Layer0_0_MEMBER_14_FILL"/>
</g>

<g transform="matrix( 2.815704345703125, 0, 0, 2.832611083984375, 0.15,18.6) ">
<use xlink:href="#IT_300x250_psd_Asset_3_ManagedWiFi_IT_Research_DM11_2_with_a_managed__Wi_Fi_solution__0_Layer0_0_MEMBER_15_FILL"/>
</g>

<g transform="matrix( 2.815704345703125, 0, 0, 2.832611083984375, 0.15,18.6) ">
<use xlink:href="#IT_300x250_psd_Asset_3_ManagedWiFi_IT_Research_DM11_2_with_a_managed__Wi_Fi_solution__0_Layer0_0_MEMBER_16_FILL"/>
</g>

<g transform="matrix( 2.815704345703125, 0, 0, 2.832611083984375, 0.15,18.6) ">
<use xlink:href="#IT_300x250_psd_Asset_3_ManagedWiFi_IT_Research_DM11_2_with_a_managed__Wi_Fi_solution__0_Layer0_0_MEMBER_17_FILL"/>
</g>

<g transform="matrix( 2.815704345703125, 0, 0, 2.832611083984375, 0.15,18.6) ">
<use xlink:href="#IT_300x250_psd_Asset_3_ManagedWiFi_IT_Research_DM11_2_with_a_managed__Wi_Fi_solution__0_Layer0_0_MEMBER_18_FILL"/>
</g>

<g transform="matrix( 2.815704345703125, 0, 0, 2.832611083984375, 0.15,18.6) ">
<use xlink:href="#IT_300x250_psd_Asset_3_ManagedWiFi_IT_Research_DM11_2_with_a_managed__Wi_Fi_solution__0_Layer0_0_MEMBER_19_FILL"/>
</g>

<g transform="matrix( 2.815704345703125, 0, 0, 2.832611083984375, 0.15,18.6) ">
<use xlink:href="#IT_300x250_psd_Asset_3_ManagedWiFi_IT_Research_DM11_2_with_a_managed__Wi_Fi_solution__0_Layer0_0_MEMBER_20_FILL"/>
</g>

<g transform="matrix( 2.815704345703125, 0, 0, 2.832611083984375, 0.15,18.6) ">
<use xlink:href="#IT_300x250_psd_Asset_3_ManagedWiFi_IT_Research_DM11_2_with_a_managed__Wi_Fi_solution__0_Layer0_0_MEMBER_21_FILL"/>
</g>

<g transform="matrix( 2.815704345703125, 0, 0, 2.832611083984375, 0.15,18.6) ">
<use xlink:href="#IT_300x250_psd_Asset_3_ManagedWiFi_IT_Research_DM11_2_with_a_managed__Wi_Fi_solution__0_Layer0_0_MEMBER_22_FILL"/>
</g>

<g transform="matrix( 2.815704345703125, 0, 0, 2.832611083984375, 0.15,18.6) ">
<use xlink:href="#IT_300x250_psd_Asset_3_ManagedWiFi_IT_Research_DM11_2_with_a_managed__Wi_Fi_solution__0_Layer0_0_MEMBER_23_FILL"/>
</g>

<g transform="matrix( 2.815704345703125, 0, 0, 2.832611083984375, 0.15,18.6) ">
<use xlink:href="#IT_300x250_psd_Asset_3_ManagedWiFi_IT_Research_DM11_2_with_a_managed__Wi_Fi_solution__0_Layer0_0_MEMBER_24_FILL"/>
</g>

<g transform="matrix( 2.815704345703125, 0, 0, 2.832611083984375, 0.15,18.6) ">
<use xlink:href="#IT_300x250_psd_Asset_3_ManagedWiFi_IT_Research_DM11_2_with_a_managed__Wi_Fi_solution__0_Layer0_0_MEMBER_25_FILL"/>
</g>
</g>
</g>
</g>
</svg>
