
<svg xmlns="http://www.w3.org/2000/svg" version="1.1" xmlns:xlink="http://www.w3.org/1999/xlink" preserveAspectRatio="none" x="0px" y="0px" width="160px" height="600px" viewBox="0 0 160 600">
<defs>
<g id="BDM_160x600_FR_psd_Asset_9_V8_3_et_personnaliser__davantage__l_exp_rience__client__0_Layer0_0_MEMBER_0_FILL">
<path fill="#D82C26" stroke="none" d="
M 2.35 -3.9
Q 1.7 -3.9 1.4 -3.65 0.95 -3.4 0.7 -2.95 0.45 -2.45 0.45 -1.9 0.45 -1.45 0.7 -0.85 0.95 -0.4 1.4 -0.15 1.8 0.1 2.4 0.1 3.3 0.1 3.9 -0.35
L 3.85 -0.75 3.2 -0.4
Q 3 -0.3 2.45 -0.3 2 -0.3 1.65 -0.5 1.25 -0.8 1.1 -1.05 0.9 -1.55 0.9 -1.85
L 4.15 -1.85 4.15 -2.05
Q 4.15 -2.6 3.95 -3 3.65 -3.45 3.3 -3.65 3 -3.9 2.35 -3.9
M 1.6 -3.35
Q 1.85 -3.55 2.35 -3.55 2.9 -3.55 3.3 -3.15 3.7 -2.85 3.7 -2.2
L 0.95 -2.2
Q 0.95 -2.5 1.1 -2.8 1.25 -3.1 1.6 -3.35 Z"/>
</g>

<g id="BDM_160x600_FR_psd_Asset_9_V8_3_et_personnaliser__davantage__l_exp_rience__client__0_Layer0_0_MEMBER_1_FILL">
<path fill="#D82C26" stroke="none" d="
M 5.05 -3.45
L 5.05 -0.9
Q 5.05 -0.45 5.3 -0.2 5.55 0.1 5.95 0.1
L 6.75 -0.1 6.7 -0.5
Q 6.35 -0.3 6.05 -0.3 5.8 -0.3 5.65 -0.45 5.5 -0.65 5.5 -1
L 5.5 -3.45 6.5 -3.45 6.6 -3.8 5.5 -3.8 5.5 -4.9 5.05 -4.7 5.05 -3.8 4.45 -3.8 4.35 -3.45 5.05 -3.45 Z"/>
</g>

<g id="BDM_160x600_FR_psd_Asset_9_V8_3_et_personnaliser__davantage__l_exp_rience__client__0_Layer0_0_MEMBER_2_FILL">
<path fill="#D82C26" stroke="none" d="
M 9.1 -3.8
L 8.65 -3.8 8.65 1.95 9.15 1.95 9.15 -0.8
Q 9.35 -0.35 9.8 -0.15 10.2 0.1 10.7 0.1 11.2 0.1 11.7 -0.15 12.15 -0.5 12.35 -0.9 12.6 -1.4 12.6 -1.9 12.6 -2.35 12.35 -2.95 12.2 -3.25 11.7 -3.65 11.35 -3.9 10.7 -3.9 10.1 -3.9 9.8 -3.65 9.4 -3.45 9.15 -2.95
L 9.1 -2.95 9.1 -3.8
M 9.1 -1.9
Q 9.1 -2.2 9.3 -2.7 9.55 -3.1 9.85 -3.3 10.2 -3.5 10.6 -3.5 11.15 -3.5 11.4 -3.3 11.7 -3.1 11.95 -2.7 12.1 -2.3 12.1 -1.9 12.1 -1.45 11.95 -1.1 11.7 -0.7 11.4 -0.5 11.15 -0.3 10.6 -0.3 10.2 -0.3 9.85 -0.5 9.55 -0.7 9.3 -1.1 9.1 -1.6 9.1 -1.9 Z"/>
</g>

<g id="BDM_160x600_FR_psd_Asset_9_V8_3_et_personnaliser__davantage__l_exp_rience__client__0_Layer0_0_MEMBER_3_FILL">
<path fill="#D82C26" stroke="none" d="
M 15.05 -3.9
Q 14.5 -3.9 14.1 -3.65 13.65 -3.4 13.45 -2.95 13.2 -2.55 13.2 -1.9 13.2 -1.3 13.45 -0.85 13.7 -0.4 14.15 -0.15 14.55 0.1 15.15 0.1 16.05 0.1 16.65 -0.35
L 16.55 -0.75 15.95 -0.4
Q 15.7 -0.3 15.2 -0.3 14.65 -0.3 14.4 -0.5 14.05 -0.7 13.85 -1.05 13.65 -1.4 13.65 -1.85
L 16.85 -1.85 16.9 -2.05
Q 16.9 -2.5 16.65 -3 16.5 -3.4 16.05 -3.65 15.75 -3.9 15.05 -3.9
M 14.3 -3.35
Q 14.65 -3.55 15.05 -3.55 15.65 -3.55 16.05 -3.15 16.35 -2.9 16.45 -2.2
L 13.65 -2.2
Q 13.65 -2.4 13.85 -2.8 14 -3.15 14.3 -3.35 Z"/>
</g>

<g id="BDM_160x600_FR_psd_Asset_9_V8_3_et_personnaliser__davantage__l_exp_rience__client__0_Layer0_0_MEMBER_4_FILL">
<path fill="#D82C26" stroke="none" d="
M 19.25 -3.9
Q 18.9 -3.9 18.6 -3.65 18.35 -3.45 18.15 -3
L 18.1 -3.8 17.65 -3.8 17.7 0 18.15 0 18.15 -1.9
Q 18.15 -2.55 18.45 -3 18.75 -3.5 19.25 -3.5
L 19.6 -3.45 19.7 -3.85 19.25 -3.9 Z"/>
</g>

<g id="BDM_160x600_FR_psd_Asset_9_V8_3_et_personnaliser__davantage__l_exp_rience__client__0_Layer0_0_MEMBER_5_FILL">
<path fill="#D82C26" stroke="none" d="
M 20 -0.75
L 19.9 -0.3 20.5 0 21.25 0.1 21.9 0
Q 22.2 -0.15 22.35 -0.4 22.55 -0.6 22.55 -1 22.55 -1.4 22.25 -1.65 22.05 -1.95 21.4 -2.1
L 20.65 -2.45
Q 20.4 -2.6 20.4 -2.9 20.4 -3.15 20.65 -3.4 20.9 -3.55 21.25 -3.55
L 21.8 -3.45 22.25 -3.15 22.45 -3.5 21.9 -3.8
Q 21.7 -3.9 21.25 -3.9 20.8 -3.9 20.65 -3.8 20.45 -3.75 20.15 -3.45 19.95 -3.15 19.95 -2.85 19.95 -2.4 20.25 -2.2 20.5 -1.95 21.05 -1.8
L 21.85 -1.45
Q 22.1 -1.3 22.1 -1 22.1 -0.7 21.85 -0.45 21.55 -0.25 21.25 -0.25 20.5 -0.25 20 -0.75 Z"/>
</g>

<g id="BDM_160x600_FR_psd_Asset_9_V8_3_et_personnaliser__davantage__l_exp_rience__client__0_Layer0_0_MEMBER_6_FILL">
<path fill="#D82C26" stroke="none" d="
M 25.1 -3.9
Q 24.45 -3.9 24.05 -3.65 23.6 -3.4 23.35 -2.95 23.05 -2.5 23.05 -1.9 23.05 -1.35 23.35 -0.85 23.6 -0.4 24.05 -0.15 24.45 0.1 25.1 0.1 25.7 0.1 26.15 -0.15 26.6 -0.4 26.85 -0.85 27.1 -1.3 27.1 -1.9 27.1 -2.55 26.85 -2.95 26.6 -3.4 26.15 -3.65 25.7 -3.9 25.1 -3.9
M 24.25 -3.3
Q 24.6 -3.5 25.1 -3.5 25.55 -3.5 25.9 -3.3 26.2 -3.1 26.45 -2.7 26.65 -2.45 26.65 -1.9 26.65 -1.45 26.45 -1.1 26.3 -0.75 25.9 -0.5 25.65 -0.3 25.1 -0.3 24.6 -0.3 24.25 -0.5 23.9 -0.8 23.75 -1.1 23.55 -1.45 23.55 -1.9 23.55 -2.45 23.75 -2.7 23.9 -3 24.25 -3.3 Z"/>
</g>

<g id="BDM_160x600_FR_psd_Asset_9_V8_3_et_personnaliser__davantage__l_exp_rience__client__0_Layer0_0_MEMBER_7_FILL">
<path fill="#D82C26" stroke="none" d="
M 28.35 -3.8
L 27.9 -3.8 27.95 0 28.45 0 28.45 -1.95
Q 28.45 -2.4 28.6 -2.8 28.75 -3.15 29.05 -3.35 29.35 -3.5 29.7 -3.5 30.3 -3.5 30.5 -3.15 30.75 -2.75 30.75 -2.2
L 30.75 0 31.2 0 31.2 -2.3
Q 31.2 -3.05 30.85 -3.45 30.55 -3.9 29.8 -3.9 29.25 -3.9 28.95 -3.65 28.7 -3.5 28.4 -3
L 28.35 -3.8 Z"/>
</g>

<g id="BDM_160x600_FR_psd_Asset_9_V8_3_et_personnaliser__davantage__l_exp_rience__client__0_Layer0_0_MEMBER_8_FILL">
<path fill="#D82C26" stroke="none" d="
M 34.1 -3.9
Q 33.55 -3.9 33.25 -3.65 33 -3.5 32.7 -3
L 32.65 -3.8 32.2 -3.8 32.25 0 32.75 0 32.75 -1.95
Q 32.75 -2.4 32.9 -2.8 33.05 -3.15 33.35 -3.35 33.65 -3.5 34 -3.5 34.6 -3.5 34.8 -3.15 35.05 -2.75 35.05 -2.2
L 35.05 0 35.5 0 35.5 -2.3
Q 35.5 -3.05 35.15 -3.45 34.85 -3.9 34.1 -3.9 Z"/>
</g>

<g id="BDM_160x600_FR_psd_Asset_9_V8_3_et_personnaliser__davantage__l_exp_rience__client__0_Layer0_0_MEMBER_9_FILL">
<path fill="#D82C26" stroke="none" d="
M 37.2 -3.4
Q 37.5 -3.55 37.85 -3.55 38.35 -3.55 38.6 -3.3 38.9 -3 38.9 -2.5
L 38.9 -2.3 38.45 -2.3
Q 36.25 -2.3 36.25 -1 36.25 -0.45 36.65 -0.2 36.95 0.1 37.5 0.1 38 0.1 38.35 -0.1 38.75 -0.35 38.9 -0.75
L 38.95 -0.75 38.95 -0.35 39 0 39.4 0 39.35 -2.45
Q 39.35 -3.2 38.95 -3.55 38.6 -3.9 37.9 -3.9 37.35 -3.9 37.1 -3.8 36.6 -3.55 36.5 -3.45
L 36.6 -3.05
Q 36.8 -3.25 37.2 -3.4
M 36.95 -0.45
Q 36.75 -0.6 36.75 -1.05 36.75 -1.95 38.5 -1.95
L 38.9 -1.95 38.9 -1.6
Q 38.9 -1.25 38.75 -0.95 38.6 -0.7 38.3 -0.45 38.05 -0.25 37.6 -0.25 37.2 -0.25 36.95 -0.45 Z"/>
</g>

<g id="BDM_160x600_FR_psd_Asset_9_V8_3_et_personnaliser__davantage__l_exp_rience__client__0_Layer0_0_MEMBER_10_FILL">
<path fill="#D82C26" stroke="none" d="
M 40.4 -6.1
L 40.4 -0.85
Q 40.4 -0.45 40.55 -0.25 40.7 -0.05 41 0.1
L 41.25 -0.3
Q 41.05 -0.35 40.95 -0.55 40.85 -0.75 40.85 -0.95
L 40.85 -6.2 40.4 -6.1 Z"/>
</g>

<g id="BDM_160x600_FR_psd_Asset_9_V8_3_et_personnaliser__davantage__l_exp_rience__client__0_Layer0_0_MEMBER_11_FILL">
<path fill="#D82C26" stroke="none" d="
M 42.45 -3.8
L 42 -3.8 42 0 42.45 0 42.45 -3.8
M 42.2 -5
Q 42.4 -5 42.45 -5.1 42.55 -5.15 42.55 -5.35 42.55 -5.5 42.45 -5.55 42.4 -5.65 42.2 -5.65 42.05 -5.65 42 -5.55 41.9 -5.5 41.9 -5.35 41.9 -5.15 42 -5.1 42.05 -5 42.2 -5 Z"/>
</g>

<g id="BDM_160x600_FR_psd_Asset_9_V8_3_et_personnaliser__davantage__l_exp_rience__client__0_Layer0_0_MEMBER_12_FILL">
<path fill="#D82C26" stroke="none" d="
M 44.6 -3.55
L 45.15 -3.45 45.6 -3.15 45.8 -3.5 45.25 -3.8
Q 45.05 -3.9 44.55 -3.9 44.15 -3.9 43.95 -3.8 43.7 -3.75 43.5 -3.45 43.3 -3.25 43.3 -2.85 43.3 -2.4 43.6 -2.2 43.85 -1.95 44.4 -1.8
L 45.2 -1.45
Q 45.45 -1.3 45.45 -1 45.45 -0.7 45.2 -0.45 44.8 -0.25 44.6 -0.25 43.8 -0.25 43.3 -0.75
L 43.25 -0.3 43.85 0 44.6 0.1 45.25 0
Q 45.55 -0.15 45.7 -0.4 45.9 -0.6 45.9 -1 45.9 -1.4 45.6 -1.65 45.3 -1.95 44.7 -2.1
L 43.95 -2.45
Q 43.75 -2.65 43.75 -2.9 43.75 -3.15 44 -3.4 44.25 -3.55 44.6 -3.55 Z"/>
</g>

<g id="BDM_160x600_FR_psd_Asset_9_V8_3_et_personnaliser__davantage__l_exp_rience__client__0_Layer0_0_MEMBER_13_FILL">
<path fill="#D82C26" stroke="none" d="
M 49.25 -3.65
Q 48.95 -3.9 48.3 -3.9 47.65 -3.9 47.35 -3.65 46.9 -3.4 46.65 -2.95 46.4 -2.45 46.4 -1.9 46.4 -1.45 46.65 -0.85 47 -0.3 47.35 -0.15 47.75 0.1 48.35 0.1 49.25 0.1 49.85 -0.35
L 49.8 -0.75 49.2 -0.4
Q 48.95 -0.3 48.4 -0.3 47.95 -0.3 47.6 -0.5 47.2 -0.8 47.05 -1.05 46.85 -1.55 46.85 -1.85
L 50.1 -1.85 50.1 -2.05
Q 50.1 -2.6 49.9 -3 49.6 -3.45 49.25 -3.65
M 48.3 -3.55
Q 48.85 -3.55 49.25 -3.15 49.65 -2.85 49.65 -2.2
L 46.9 -2.2
Q 46.9 -2.5 47.05 -2.8 47.2 -3.1 47.55 -3.35 47.8 -3.55 48.3 -3.55 Z"/>
</g>

<g id="BDM_160x600_FR_psd_Asset_9_V8_3_et_personnaliser__davantage__l_exp_rience__client__0_Layer0_0_MEMBER_14_FILL">
<path fill="#D82C26" stroke="none" d="
M 51.3 -3.8
L 50.85 -3.8 50.9 0 51.4 0 51.4 -1.9
Q 51.4 -2.55 51.7 -3 51.9 -3.5 52.45 -3.5
L 52.8 -3.45 52.9 -3.85 52.5 -3.9
Q 52.1 -3.9 51.85 -3.65 51.6 -3.45 51.4 -3
L 51.35 -3 51.3 -3.8 Z"/>
</g>

<g id="BDM_160x600_FR_psd_Asset_9_V8_3_et_personnaliser__davantage__l_exp_rience__client__0_Layer0_0_MEMBER_15_FILL">
<path fill="#D82C26" stroke="none" d="
M 2.35 5.6
Q 1.8 5.6 1.35 5.9 0.9 6.15 0.7 6.6 0.45 7.1 0.45 7.65 0.45 8.15 0.7 8.65 0.9 9.1 1.35 9.35 1.8 9.65 2.35 9.65 2.85 9.65 3.25 9.4 3.65 9.2 3.9 8.7
L 3.95 8.7 4 9.55 4.45 9.55 4.4 3.3 3.9 3.4 3.9 6.55
Q 3.65 6.05 3.25 5.85 2.85 5.6 2.35 5.6
M 3.75 8.45
Q 3.55 8.8 3.2 9 2.8 9.25 2.45 9.25 2 9.25 1.65 9 1.35 8.9 1.1 8.45 0.95 8.1 0.95 7.65 0.95 7.2 1.1 6.8 1.4 6.4 1.65 6.25 2 6 2.45 6 2.8 6 3.2 6.25 3.45 6.4 3.75 6.8 3.95 7.3 3.95 7.65 3.95 7.95 3.75 8.45 Z"/>
</g>

<g id="BDM_160x600_FR_psd_Asset_9_V8_3_et_personnaliser__davantage__l_exp_rience__client__0_Layer0_0_MEMBER_16_FILL">
<path fill="#D82C26" stroke="none" d="
M 6.1 6.15
L 6.75 6
Q 7.2 6 7.55 6.25 7.85 6.55 7.85 7.05
L 7.85 7.25 7.4 7.25
Q 5.2 7.25 5.2 8.5 5.2 9.05 5.55 9.35 5.95 9.65 6.4 9.65 6.85 9.65 7.25 9.4 7.55 9.3 7.85 8.8
L 7.85 9.2 7.9 9.55 8.35 9.55 8.3 7.05
Q 8.3 6.3 7.9 6 7.5 5.6 6.85 5.6 6.45 5.6 6.05 5.75 5.8 5.8 5.4 6.1
L 5.55 6.45
Q 5.95 6.2 6.1 6.15
M 7.85 7.95
Q 7.85 8.25 7.7 8.55 7.6 8.85 7.25 9.1 6.85 9.3 6.5 9.3 6.2 9.3 5.9 9.1 5.65 8.85 5.65 8.5 5.65 7.55 7.45 7.55
L 7.85 7.55 7.85 7.95 Z"/>
</g>

<g id="BDM_160x600_FR_psd_Asset_9_V8_3_et_personnaliser__davantage__l_exp_rience__client__0_Layer0_0_MEMBER_17_FILL">
<path fill="#D82C26" stroke="none" d="
M 8.65 5.75
L 10.1 9.55 10.65 9.55 12.05 5.75 11.6 5.75 10.4 9.05 9.15 5.75 8.65 5.75 Z"/>
</g>

<g id="BDM_160x600_FR_psd_Asset_9_V8_3_et_personnaliser__davantage__l_exp_rience__client__0_Layer0_0_MEMBER_18_FILL">
<path fill="#D82C26" stroke="none" d="
M 13.25 6.15
Q 13.55 6 13.9 6 14.3 6 14.65 6.25 14.95 6.55 14.95 7.05
L 14.95 7.25 14.5 7.25
Q 12.3 7.25 12.3 8.5 12.3 9 12.65 9.35 13.05 9.65 13.55 9.65 13.9 9.65 14.4 9.4 14.75 9.25 14.95 8.8
L 15.05 9.55 15.45 9.55 15.4 7.05
Q 15.4 6.3 15 6 14.6 5.6 13.95 5.6 13.55 5.6 13.15 5.75 12.85 5.8 12.55 6.1
L 12.65 6.45
Q 13.05 6.2 13.25 6.15
M 14.55 7.55
L 14.95 7.55 14.95 7.95
Q 14.95 8.25 14.8 8.55 14.7 8.85 14.35 9.1 13.95 9.3 13.6 9.3 13.4 9.3 13 9.1 12.75 8.85 12.75 8.5 12.75 7.55 14.55 7.55 Z"/>
</g>

<g id="BDM_160x600_FR_psd_Asset_9_V8_3_et_personnaliser__davantage__l_exp_rience__client__0_Layer0_0_MEMBER_19_FILL">
<path fill="#D82C26" stroke="none" d="
M 16.85 5.75
L 16.4 5.75 16.45 9.55 16.9 9.55 16.9 7.6
Q 16.9 7.25 17.1 6.75 17.2 6.45 17.55 6.2 17.95 6 18.2 6 18.75 6 19 6.4 19.2 6.75 19.2 7.35
L 19.2 9.55 19.7 9.55 19.7 7.2
Q 19.7 6.55 19.35 6.05 19.05 5.6 18.3 5.6 17.85 5.6 17.45 5.85 17 6.2 16.9 6.55
L 16.85 5.75 Z"/>
</g>

<g id="BDM_160x600_FR_psd_Asset_9_V8_3_et_personnaliser__davantage__l_exp_rience__client__0_Layer0_0_MEMBER_20_FILL">
<path fill="#D82C26" stroke="none" d="
M 20.8 4.8
L 20.8 5.75 20.2 5.75 20.1 6.1 20.8 6.1 20.8 8.6
Q 20.8 9.1 21.05 9.35 21.25 9.6 21.7 9.6
L 22.15 9.55 22.5 9.4 22.45 9.05 21.85 9.2
Q 21.6 9.2 21.45 9.05 21.3 8.9 21.3 8.55
L 21.3 6.1 22.25 6.1 22.35 5.75 21.3 5.75 21.3 4.65 20.8 4.8 Z"/>
</g>

<g id="BDM_160x600_FR_psd_Asset_9_V8_3_et_personnaliser__davantage__l_exp_rience__client__0_Layer0_0_MEMBER_21_FILL">
<path fill="#D82C26" stroke="none" d="
M 23.75 6.15
L 24.4 6
Q 24.85 6 25.2 6.25 25.5 6.55 25.5 7.05
L 25.5 7.25 25.05 7.25
Q 22.85 7.25 22.85 8.5 22.85 9.05 23.2 9.35 23.6 9.65 24.05 9.65 24.5 9.65 24.9 9.4 25.2 9.3 25.5 8.8
L 25.5 9.2 25.55 9.55 26 9.55 25.95 7.05
Q 25.95 6.3 25.55 6 25.15 5.6 24.5 5.6 24.1 5.6 23.7 5.75 23.45 5.8 23.05 6.1
L 23.2 6.45
Q 23.6 6.2 23.75 6.15
M 24.9 9.1
Q 24.5 9.3 24.15 9.3 23.85 9.3 23.55 9.1 23.3 8.85 23.3 8.5 23.3 7.55 25.1 7.55
L 25.5 7.55 25.5 7.95
Q 25.5 8.25 25.35 8.55 25.25 8.85 24.9 9.1 Z"/>
</g>

<g id="BDM_160x600_FR_psd_Asset_9_V8_3_et_personnaliser__davantage__l_exp_rience__client__0_Layer0_0_MEMBER_22_FILL">
<path fill="#D82C26" stroke="none" d="
M 30.65 9.45
L 30.7 5.75 30.25 5.75 30.2 6.55
Q 30.05 6.25 29.55 5.85 29.05 5.6 28.65 5.6 28.1 5.6 27.65 5.9 27.2 6.15 26.95 6.6 26.7 7.1 26.7 7.6 26.7 8.15 26.95 8.65 27.15 9 27.65 9.35 28.05 9.6 28.65 9.6 29.05 9.6 29.55 9.35 30 9.1 30.15 8.7
L 30.2 8.7 30.2 9.5
Q 30.2 10.2 29.8 10.7 29.45 11.1 28.6 11.1 28.05 11.1 27.8 11
L 27.05 10.65 26.95 11.05 27.75 11.4
Q 28.15 11.55 28.65 11.55 29.7 11.55 30.15 10.95 30.65 10.45 30.65 9.45
M 29.45 9
Q 29.2 9.2 28.7 9.2 28.25 9.2 27.9 9 27.55 8.7 27.4 8.4 27.2 8.05 27.2 7.6 27.2 7.15 27.4 6.8 27.55 6.5 27.9 6.25 28.3 6 28.7 6 29.1 6 29.45 6.25 29.85 6.4 30 6.8 30.2 7.15 30.2 7.6 30.2 8.15 30 8.4 29.85 8.75 29.45 9 Z"/>
</g>

<g id="BDM_160x600_FR_psd_Asset_9_V8_3_et_personnaliser__davantage__l_exp_rience__client__0_Layer0_0_MEMBER_23_FILL">
<path fill="#D82C26" stroke="none" d="
M 33.35 5.6
Q 32.9 5.6 32.4 5.85 31.95 6.15 31.7 6.6 31.45 7.1 31.45 7.6 31.45 8.15 31.7 8.65 32.05 9.15 32.4 9.4 32.9 9.65 33.4 9.65 34.3 9.65 34.95 9.15
L 34.85 8.75
Q 34.65 8.95 34.25 9.1 33.9 9.25 33.45 9.25 32.95 9.25 32.7 9.05 32.3 8.8 32.15 8.5 31.95 8.15 31.95 7.7
L 35.15 7.7 35.15 7.5
Q 35.15 6.95 34.95 6.55 34.75 6.2 34.35 5.85 33.85 5.6 33.35 5.6
M 34.35 6.35
Q 34.7 6.8 34.7 7.35
L 31.95 7.35
Q 31.95 7 32.15 6.75 32.25 6.45 32.6 6.2 32.85 6 33.35 6 34 6 34.35 6.35 Z"/>
</g>

<g id="BDM_160x600_FR_psd_Asset_9_V8_3_et_personnaliser__davantage__l_exp_rience__client__0_Layer0_0_MEMBER_24_FILL">
<path fill="#D82C26" stroke="none" d="
M 0.95 18.8
Q 1.1 19.05 1.35 19.15
L 1.6 18.75
Q 1.4 18.7 1.3 18.5
L 1.25 18.1 1.25 12.9 0.75 12.95 0.75 18.2
Q 0.75 18.6 0.95 18.8 Z"/>
</g>

<g id="BDM_160x600_FR_psd_Asset_9_V8_3_et_personnaliser__davantage__l_exp_rience__client__0_Layer0_0_MEMBER_25_FILL">
<path fill="#D82C26" stroke="none" d="
M 3.2 13.45
Q 3.05 13.3 2.95 13.3
L 2.7 13.4
Q 2.6 13.5 2.6 13.7
L 2.65 13.95 2.9 14.05
Q 2.9 14.2 2.7 14.6
L 2.35 15.05 2.55 15.15
Q 3.3 14.5 3.3 13.75
L 3.2 13.45 Z"/>
</g>

<g id="BDM_160x600_FR_psd_Asset_9_V8_3_et_personnaliser__davantage__l_exp_rience__client__0_Layer0_0_MEMBER_26_FILL">
<path fill="#D82C26" stroke="none" d="
M 6.4 15.4
Q 6 15.15 5.45 15.15 4.9 15.15 4.5 15.4 4.05 15.65 3.8 16.1 3.55 16.6 3.55 17.15 3.55 17.7 3.8 18.2 4.15 18.75 4.5 18.9 4.95 19.2 5.5 19.2 6.3 19.2 7.05 18.7
L 6.95 18.3
Q 6.85 18.4 6.35 18.65 6 18.8 5.55 18.8 5.25 18.8 4.75 18.6 4.4 18.35 4.2 18
L 4 17.25 7.25 17.25 7.25 17.05
Q 7.25 16.45 7.05 16.1 6.8 15.6 6.4 15.4
M 6.4 15.9
Q 6.8 16.3 6.8 16.9
L 4.05 16.9
Q 4.05 16.55 4.2 16.25 4.35 15.9 4.7 15.75 5.05 15.5 5.45 15.5 6 15.5 6.4 15.9 Z"/>
</g>

<g id="BDM_160x600_FR_psd_Asset_9_V8_3_et_personnaliser__davantage__l_exp_rience__client__0_Layer0_0_MEMBER_27_FILL">
<path fill="#D82C26" stroke="none" d="
M 9 17.05
L 7.5 19.05 8.05 19.05 9.3 17.4 10.5 19.05 11.1 19.05 9.6 17.05 10.95 15.25 10.35 15.25 9.3 16.75 8.2 15.25 7.65 15.25 9 17.05 Z"/>
</g>

<g id="BDM_160x600_FR_psd_Asset_9_V8_3_et_personnaliser__davantage__l_exp_rience__client__0_Layer0_0_MEMBER_28_FILL">
<path fill="#D82C26" stroke="none" d="
M 15.4 18.2
Q 15.65 17.7 15.65 17.15 15.65 16.65 15.4 16.15 15.2 15.75 14.7 15.4 14.3 15.15 13.7 15.15 13.3 15.15 12.8 15.4 12.45 15.6 12.2 16.1
L 12.15 16.1 12.1 15.25 11.65 15.25 11.7 15.95 11.7 21 12.15 21 12.15 18.25 12.2 18.25
Q 12.4 18.6 12.8 18.95 13.2 19.15 13.7 19.15 14.4 19.15 14.7 18.9 15.15 18.65 15.4 18.2
M 12.15 17.15
Q 12.15 16.7 12.35 16.35 12.5 16 12.9 15.75 13.15 15.55 13.65 15.55 14.1 15.55 14.45 15.75 14.8 16.05 14.95 16.35 15.15 16.7 15.15 17.15 15.15 17.7 14.95 17.95 14.8 18.25 14.45 18.55 14.1 18.75 13.65 18.75 13.15 18.75 12.9 18.55 12.5 18.3 12.35 17.95 12.15 17.6 12.15 17.15 Z"/>
</g>

<g id="BDM_160x600_FR_psd_Asset_9_V8_3_et_personnaliser__davantage__l_exp_rience__client__0_Layer0_0_MEMBER_29_FILL">
<path fill="#D82C26" stroke="none" d="
M 19.1 15.4
Q 18.6 15.15 18.1 15.15 17.65 15.15 17.15 15.4 16.8 15.6 16.45 16.1 16.2 16.6 16.2 17.15 16.2 17.7 16.45 18.2 16.8 18.75 17.15 18.9 17.6 19.2 18.15 19.2 18.95 19.2 19.7 18.7
L 19.6 18.3
Q 19.4 18.5 19 18.65 18.65 18.8 18.2 18.8 17.85 18.8 17.45 18.6 17.05 18.35 16.9 18 16.7 17.75 16.7 17.25
L 19.9 17.25 19.9 17.05
Q 19.9 16.45 19.7 16.1 19.45 15.6 19.1 15.4
M 16.85 16.25
Q 17.15 15.85 17.35 15.75 17.7 15.5 18.1 15.5 18.7 15.5 19.1 15.9 19.45 16.35 19.45 16.9
L 16.7 16.9
Q 16.7 16.55 16.85 16.25
M 18.6 13.3
L 17.75 14.5 18.15 14.5 19.15 13.3 18.6 13.3 Z"/>
</g>

<g id="BDM_160x600_FR_psd_Asset_9_V8_3_et_personnaliser__davantage__l_exp_rience__client__0_Layer0_0_MEMBER_30_FILL">
<path fill="#D82C26" stroke="none" d="
M 22.3 15.15
Q 22 15.15 21.65 15.4 21.35 15.6 21.2 16.1
L 21.15 15.25 20.7 15.25 20.7 19.05 21.2 19.05 21.2 17.15
Q 21.2 16.5 21.5 16.05 21.85 15.55 22.25 15.55
L 22.6 15.65 22.7 15.2 22.3 15.15 Z"/>
</g>

<g id="BDM_160x600_FR_psd_Asset_9_V8_3_et_personnaliser__davantage__l_exp_rience__client__0_Layer0_0_MEMBER_31_FILL">
<path fill="#D82C26" stroke="none" d="
M 23.7 15.25
L 23.2 15.25 23.2 19.05 23.7 19.05 23.7 15.25
M 23.8 13.75
L 23.7 13.5 23.45 13.4 23.2 13.5 23.1 13.75 23.2 14 23.45 14.1 23.7 14 23.8 13.75 Z"/>
</g>

<g id="BDM_160x600_FR_psd_Asset_9_V8_3_et_personnaliser__davantage__l_exp_rience__client__0_Layer0_0_MEMBER_32_FILL">
<path fill="#D82C26" stroke="none" d="
M 26.4 15.15
Q 25.95 15.15 25.45 15.4 25.1 15.6 24.75 16.1 24.5 16.6 24.5 17.15 24.5 17.75 24.8 18.2 25.05 18.7 25.45 18.9 25.9 19.2 26.45 19.2 27.25 19.2 28 18.7
L 27.9 18.3
Q 27.7 18.5 27.3 18.65 26.95 18.8 26.5 18.8 26.15 18.8 25.75 18.6 25.35 18.35 25.2 18 25 17.75 25 17.25
L 28.2 17.25 28.2 17.05
Q 28.2 16.45 28 16.1 27.75 15.6 27.4 15.4 26.9 15.15 26.4 15.15
M 27.4 15.9
Q 27.75 16.25 27.75 16.9
L 25 16.9
Q 25 16.5 25.2 16.25 25.4 15.9 25.65 15.75 26 15.5 26.4 15.5 27 15.5 27.4 15.9 Z"/>
</g>

<g id="BDM_160x600_FR_psd_Asset_9_V8_3_et_personnaliser__davantage__l_exp_rience__client__0_Layer0_0_MEMBER_33_FILL">
<path fill="#D82C26" stroke="none" d="
M 29.5 17.1
Q 29.5 16.55 29.7 16.3 29.85 15.9 30.15 15.75 30.4 15.55 30.8 15.55 31.35 15.55 31.6 15.95 31.8 16.3 31.8 16.85
L 31.8 19.05 32.3 19.05 32.3 16.75
Q 32.3 16 31.95 15.6 31.6 15.15 30.9 15.15 30.45 15.15 30.05 15.4 29.6 15.75 29.5 16.1
L 29.45 15.25 29 15.25 29.05 19.05 29.5 19.05 29.5 17.1 Z"/>
</g>

<g id="BDM_160x600_FR_psd_Asset_9_V8_3_et_personnaliser__davantage__l_exp_rience__client__0_Layer0_0_MEMBER_34_FILL">
<path fill="#D82C26" stroke="none" d="
M 36.35 15.6
Q 36.25 15.4 35.8 15.25
L 35.1 15.15
Q 34.55 15.15 34.05 15.4 33.6 15.65 33.35 16.1 33.1 16.55 33.1 17.15 33.1 17.85 33.35 18.2 33.6 18.65 34.05 18.9 34.5 19.2 35.05 19.2
L 35.8 19.05 36.35 18.7 36.3 18.3 35.75 18.65
Q 35.55 18.75 35.1 18.75 34.65 18.75 34.3 18.55 34 18.35 33.75 17.95 33.55 17.45 33.55 17.15 33.55 16.85 33.75 16.35 34 15.95 34.3 15.75 34.55 15.55 35.1 15.55
L 35.7 15.65 36.15 15.95 36.35 15.6 Z"/>
</g>

<g id="BDM_160x600_FR_psd_Asset_9_V8_3_et_personnaliser__davantage__l_exp_rience__client__0_Layer0_0_MEMBER_35_FILL">
<path fill="#D82C26" stroke="none" d="
M 39.55 15.4
Q 39.05 15.15 38.55 15.15 38.1 15.15 37.6 15.4 37.2 15.6 36.95 16.1 36.7 16.5 36.7 17.15 36.7 17.85 36.95 18.2 37.2 18.65 37.65 18.9 38.05 19.2 38.65 19.2 39.4 19.2 40.15 18.7
L 40.05 18.3
Q 39.85 18.5 39.45 18.65 39.1 18.8 38.65 18.8 38.3 18.8 37.9 18.6 37.6 18.4 37.35 18 37.15 17.75 37.15 17.25
L 40.35 17.25 40.35 17.05
Q 40.35 16.45 40.15 16.1 39.9 15.6 39.55 15.4
M 37.35 16.25
Q 37.55 15.9 37.8 15.75 38.2 15.5 38.55 15.5 39.15 15.5 39.55 15.9 39.9 16.25 39.9 16.9
L 37.15 16.9
Q 37.15 16.5 37.35 16.25 Z"/>
</g>

<g id="BDM_160x600_FR_psd_Asset_9_V8_3_et_personnaliser__davantage__l_exp_rience__client__0_Layer0_0_MEMBER_36_FILL">
<path fill="#D82C26" stroke="none" d="
M 3.75 25.15
Q 3.55 24.95 3.15 24.8 2.85 24.65 2.45 24.65 1.9 24.65 1.45 24.95 1.05 25.15 0.7 25.65 0.45 26.15 0.45 26.7 0.45 27.25 0.7 27.75 1.05 28.3 1.4 28.45 1.9 28.7 2.45 28.7
L 3.15 28.6
Q 3.55 28.45 3.75 28.25
L 3.65 27.85 3.15 28.2 2.5 28.3
Q 2.15 28.3 1.65 28.1 1.3 27.8 1.15 27.5 0.95 27.15 0.95 26.7 0.95 26.25 1.15 25.9 1.3 25.6 1.65 25.3 2 25.1 2.45 25.1 2.85 25.1 3.05 25.2 3.3 25.25 3.55 25.5
L 3.75 25.15 Z"/>
</g>

<g id="BDM_160x600_FR_psd_Asset_9_V8_3_et_personnaliser__davantage__l_exp_rience__client__0_Layer0_0_MEMBER_37_FILL">
<path fill="#D82C26" stroke="none" d="
M 4.55 28.35
Q 4.7 28.55 5 28.7
L 5.2 28.3 4.9 28.05 4.85 27.65 4.85 22.4 4.35 22.5 4.35 27.75
Q 4.35 28.15 4.55 28.35 Z"/>
</g>

<g id="BDM_160x600_FR_psd_Asset_9_V8_3_et_personnaliser__davantage__l_exp_rience__client__0_Layer0_0_MEMBER_38_FILL">
<path fill="#D82C26" stroke="none" d="
M 5.95 24.8
L 5.95 28.6 6.45 28.6 6.45 24.8 5.95 24.8
M 6.2 23.6
Q 6.35 23.6 6.45 23.5
L 6.55 23.25 6.45 23.05
Q 6.35 22.95 6.2 22.95 6 22.95 5.95 23.05
L 5.85 23.25 5.95 23.5
Q 6 23.6 6.2 23.6 Z"/>
</g>

<g id="BDM_160x600_FR_psd_Asset_9_V8_3_et_personnaliser__davantage__l_exp_rience__client__0_Layer0_0_MEMBER_39_FILL">
<path fill="#D82C26" stroke="none" d="
M 10.95 26.55
Q 10.95 26 10.75 25.6 10.55 25.15 10.1 24.95 9.75 24.65 9.15 24.65 8.6 24.65 8.2 24.95 7.75 25.2 7.5 25.65 7.25 26.15 7.25 26.65 7.25 27.15 7.5 27.75 7.85 28.3 8.2 28.45 8.7 28.7 9.2 28.7 10.1 28.7 10.75 28.25
L 10.65 27.8 10.05 28.2 9.25 28.3
Q 8.8 28.3 8.45 28.1 8.05 27.8 7.95 27.55 7.8 27.3 7.7 26.75
L 10.95 26.75 10.95 26.55
M 9.15 25.05
Q 9.75 25.05 10.1 25.4 10.5 25.8 10.5 26.4
L 7.75 26.4
Q 7.75 26.1 7.9 25.8 8.05 25.5 8.4 25.25 8.65 25.05 9.15 25.05 Z"/>
</g>

<g id="BDM_160x600_FR_psd_Asset_9_V8_3_et_personnaliser__davantage__l_exp_rience__client__0_Layer0_0_MEMBER_40_FILL">
<path fill="#D82C26" stroke="none" d="
M 15.05 26.25
Q 15.05 25.7 14.7 25.15 14.35 24.7 13.6 24.7 13.1 24.7 12.8 24.95 12.4 25.2 12.25 25.6
L 12.2 24.8 11.75 24.8 11.75 28.6 12.25 28.6 12.25 26.65
Q 12.25 26.2 12.4 25.8 12.6 25.5 12.9 25.25 13.15 25.1 13.5 25.1 14.1 25.1 14.3 25.45 14.55 25.85 14.55 26.4
L 14.55 28.6 15.05 28.6 15.05 26.25 Z"/>
</g>

<g id="BDM_160x600_FR_psd_Asset_9_V8_3_et_personnaliser__davantage__l_exp_rience__client__0_Layer0_0_MEMBER_41_FILL">
<path fill="#D82C26" stroke="none" d="
M 16.6 23.7
L 16.15 23.9 16.15 24.8 15.55 24.8 15.45 25.15 16.15 25.15 16.15 27.7
Q 16.15 28.15 16.4 28.4 16.65 28.7 17.05 28.7
L 17.45 28.6
Q 17.7 28.6 17.85 28.45
L 17.8 28.1
Q 17.45 28.3 17.15 28.3 16.9 28.3 16.75 28.1 16.6 27.95 16.6 27.6
L 16.6 25.15 17.6 25.15 17.7 24.8 16.6 24.8 16.6 23.7 Z"/>
</g>

<g id="BDM_160x600_FR_psd_Asset_9_V8_3_et_personnaliser__davantage__l_exp_rience__client__0_Layer0_0_MEMBER_42_FILL">
<path fill="#D82C26" stroke="none" d="
M 18.5 28.55
L 18.75 28.65 19 28.55 19.1 28.3 19 28 18.75 27.9 18.5 28
Q 18.4 28.1 18.4 28.3 18.4 28.5 18.5 28.55 Z"/>
</g>
</defs>

<g transform="matrix( 1, 0, 0, 1, -109,52) ">
<g transform="matrix( 1, 0, 0, 1, 103,0) ">
<g transform="matrix( 1, 0, 0, 1, 26,3) ">
<g transform="matrix( 2.3769683837890625, 0, 0, 2.3912506103515625, -0.85,15.55) ">
<use xlink:href="#BDM_160x600_FR_psd_Asset_9_V8_3_et_personnaliser__davantage__l_exp_rience__client__0_Layer0_0_MEMBER_0_FILL"/>
</g>

<g transform="matrix( 2.3769683837890625, 0, 0, 2.3912506103515625, -0.85,15.55) ">
<use xlink:href="#BDM_160x600_FR_psd_Asset_9_V8_3_et_personnaliser__davantage__l_exp_rience__client__0_Layer0_0_MEMBER_1_FILL"/>
</g>

<g transform="matrix( 2.3769683837890625, 0, 0, 2.3912506103515625, -0.85,15.55) ">
<use xlink:href="#BDM_160x600_FR_psd_Asset_9_V8_3_et_personnaliser__davantage__l_exp_rience__client__0_Layer0_0_MEMBER_2_FILL"/>
</g>

<g transform="matrix( 2.3769683837890625, 0, 0, 2.3912506103515625, -0.85,15.55) ">
<use xlink:href="#BDM_160x600_FR_psd_Asset_9_V8_3_et_personnaliser__davantage__l_exp_rience__client__0_Layer0_0_MEMBER_3_FILL"/>
</g>

<g transform="matrix( 2.3769683837890625, 0, 0, 2.3912506103515625, -0.85,15.55) ">
<use xlink:href="#BDM_160x600_FR_psd_Asset_9_V8_3_et_personnaliser__davantage__l_exp_rience__client__0_Layer0_0_MEMBER_4_FILL"/>
</g>

<g transform="matrix( 2.3769683837890625, 0, 0, 2.3912506103515625, -0.85,15.55) ">
<use xlink:href="#BDM_160x600_FR_psd_Asset_9_V8_3_et_personnaliser__davantage__l_exp_rience__client__0_Layer0_0_MEMBER_5_FILL"/>
</g>

<g transform="matrix( 2.3769683837890625, 0, 0, 2.3912506103515625, -0.85,15.55) ">
<use xlink:href="#BDM_160x600_FR_psd_Asset_9_V8_3_et_personnaliser__davantage__l_exp_rience__client__0_Layer0_0_MEMBER_6_FILL"/>
</g>

<g transform="matrix( 2.3769683837890625, 0, 0, 2.3912506103515625, -0.85,15.55) ">
<use xlink:href="#BDM_160x600_FR_psd_Asset_9_V8_3_et_personnaliser__davantage__l_exp_rience__client__0_Layer0_0_MEMBER_7_FILL"/>
</g>

<g transform="matrix( 2.3769683837890625, 0, 0, 2.3912506103515625, -0.85,15.55) ">
<use xlink:href="#BDM_160x600_FR_psd_Asset_9_V8_3_et_personnaliser__davantage__l_exp_rience__client__0_Layer0_0_MEMBER_8_FILL"/>
</g>

<g transform="matrix( 2.3769683837890625, 0, 0, 2.3912506103515625, -0.85,15.55) ">
<use xlink:href="#BDM_160x600_FR_psd_Asset_9_V8_3_et_personnaliser__davantage__l_exp_rience__client__0_Layer0_0_MEMBER_9_FILL"/>
</g>

<g transform="matrix( 2.3769683837890625, 0, 0, 2.3912506103515625, -0.85,15.55) ">
<use xlink:href="#BDM_160x600_FR_psd_Asset_9_V8_3_et_personnaliser__davantage__l_exp_rience__client__0_Layer0_0_MEMBER_10_FILL"/>
</g>

<g transform="matrix( 2.3769683837890625, 0, 0, 2.3912506103515625, -0.85,15.55) ">
<use xlink:href="#BDM_160x600_FR_psd_Asset_9_V8_3_et_personnaliser__davantage__l_exp_rience__client__0_Layer0_0_MEMBER_11_FILL"/>
</g>

<g transform="matrix( 2.3769683837890625, 0, 0, 2.3912506103515625, -0.85,15.55) ">
<use xlink:href="#BDM_160x600_FR_psd_Asset_9_V8_3_et_personnaliser__davantage__l_exp_rience__client__0_Layer0_0_MEMBER_12_FILL"/>
</g>

<g transform="matrix( 2.3769683837890625, 0, 0, 2.3912506103515625, -0.85,15.55) ">
<use xlink:href="#BDM_160x600_FR_psd_Asset_9_V8_3_et_personnaliser__davantage__l_exp_rience__client__0_Layer0_0_MEMBER_13_FILL"/>
</g>

<g transform="matrix( 2.3769683837890625, 0, 0, 2.3912506103515625, -0.85,15.55) ">
<use xlink:href="#BDM_160x600_FR_psd_Asset_9_V8_3_et_personnaliser__davantage__l_exp_rience__client__0_Layer0_0_MEMBER_14_FILL"/>
</g>

<g transform="matrix( 2.3769683837890625, 0, 0, 2.3912506103515625, -0.85,15.55) ">
<use xlink:href="#BDM_160x600_FR_psd_Asset_9_V8_3_et_personnaliser__davantage__l_exp_rience__client__0_Layer0_0_MEMBER_15_FILL"/>
</g>

<g transform="matrix( 2.3769683837890625, 0, 0, 2.3912506103515625, -0.85,15.55) ">
<use xlink:href="#BDM_160x600_FR_psd_Asset_9_V8_3_et_personnaliser__davantage__l_exp_rience__client__0_Layer0_0_MEMBER_16_FILL"/>
</g>

<g transform="matrix( 2.3769683837890625, 0, 0, 2.3912506103515625, -0.85,15.55) ">
<use xlink:href="#BDM_160x600_FR_psd_Asset_9_V8_3_et_personnaliser__davantage__l_exp_rience__client__0_Layer0_0_MEMBER_17_FILL"/>
</g>

<g transform="matrix( 2.3769683837890625, 0, 0, 2.3912506103515625, -0.85,15.55) ">
<use xlink:href="#BDM_160x600_FR_psd_Asset_9_V8_3_et_personnaliser__davantage__l_exp_rience__client__0_Layer0_0_MEMBER_18_FILL"/>
</g>

<g transform="matrix( 2.3769683837890625, 0, 0, 2.3912506103515625, -0.85,15.55) ">
<use xlink:href="#BDM_160x600_FR_psd_Asset_9_V8_3_et_personnaliser__davantage__l_exp_rience__client__0_Layer0_0_MEMBER_19_FILL"/>
</g>

<g transform="matrix( 2.3769683837890625, 0, 0, 2.3912506103515625, -0.85,15.55) ">
<use xlink:href="#BDM_160x600_FR_psd_Asset_9_V8_3_et_personnaliser__davantage__l_exp_rience__client__0_Layer0_0_MEMBER_20_FILL"/>
</g>

<g transform="matrix( 2.3769683837890625, 0, 0, 2.3912506103515625, -0.85,15.55) ">
<use xlink:href="#BDM_160x600_FR_psd_Asset_9_V8_3_et_personnaliser__davantage__l_exp_rience__client__0_Layer0_0_MEMBER_21_FILL"/>
</g>

<g transform="matrix( 2.3769683837890625, 0, 0, 2.3912506103515625, -0.85,15.55) ">
<use xlink:href="#BDM_160x600_FR_psd_Asset_9_V8_3_et_personnaliser__davantage__l_exp_rience__client__0_Layer0_0_MEMBER_22_FILL"/>
</g>

<g transform="matrix( 2.3769683837890625, 0, 0, 2.3912506103515625, -0.85,15.55) ">
<use xlink:href="#BDM_160x600_FR_psd_Asset_9_V8_3_et_personnaliser__davantage__l_exp_rience__client__0_Layer0_0_MEMBER_23_FILL"/>
</g>

<g transform="matrix( 2.3769683837890625, 0, 0, 2.3912506103515625, -0.85,15.55) ">
<use xlink:href="#BDM_160x600_FR_psd_Asset_9_V8_3_et_personnaliser__davantage__l_exp_rience__client__0_Layer0_0_MEMBER_24_FILL"/>
</g>

<g transform="matrix( 2.3769683837890625, 0, 0, 2.3912506103515625, -0.85,15.55) ">
<use xlink:href="#BDM_160x600_FR_psd_Asset_9_V8_3_et_personnaliser__davantage__l_exp_rience__client__0_Layer0_0_MEMBER_25_FILL"/>
</g>

<g transform="matrix( 2.3769683837890625, 0, 0, 2.3912506103515625, -0.85,15.55) ">
<use xlink:href="#BDM_160x600_FR_psd_Asset_9_V8_3_et_personnaliser__davantage__l_exp_rience__client__0_Layer0_0_MEMBER_26_FILL"/>
</g>

<g transform="matrix( 2.3769683837890625, 0, 0, 2.3912506103515625, -0.85,15.55) ">
<use xlink:href="#BDM_160x600_FR_psd_Asset_9_V8_3_et_personnaliser__davantage__l_exp_rience__client__0_Layer0_0_MEMBER_27_FILL"/>
</g>

<g transform="matrix( 2.3769683837890625, 0, 0, 2.3912506103515625, -0.85,15.55) ">
<use xlink:href="#BDM_160x600_FR_psd_Asset_9_V8_3_et_personnaliser__davantage__l_exp_rience__client__0_Layer0_0_MEMBER_28_FILL"/>
</g>

<g transform="matrix( 2.3769683837890625, 0, 0, 2.3912506103515625, -0.85,15.55) ">
<use xlink:href="#BDM_160x600_FR_psd_Asset_9_V8_3_et_personnaliser__davantage__l_exp_rience__client__0_Layer0_0_MEMBER_29_FILL"/>
</g>

<g transform="matrix( 2.3769683837890625, 0, 0, 2.3912506103515625, -0.85,15.55) ">
<use xlink:href="#BDM_160x600_FR_psd_Asset_9_V8_3_et_personnaliser__davantage__l_exp_rience__client__0_Layer0_0_MEMBER_30_FILL"/>
</g>

<g transform="matrix( 2.3769683837890625, 0, 0, 2.3912506103515625, -0.85,15.55) ">
<use xlink:href="#BDM_160x600_FR_psd_Asset_9_V8_3_et_personnaliser__davantage__l_exp_rience__client__0_Layer0_0_MEMBER_31_FILL"/>
</g>

<g transform="matrix( 2.3769683837890625, 0, 0, 2.3912506103515625, -0.85,15.55) ">
<use xlink:href="#BDM_160x600_FR_psd_Asset_9_V8_3_et_personnaliser__davantage__l_exp_rience__client__0_Layer0_0_MEMBER_32_FILL"/>
</g>

<g transform="matrix( 2.3769683837890625, 0, 0, 2.3912506103515625, -0.85,15.55) ">
<use xlink:href="#BDM_160x600_FR_psd_Asset_9_V8_3_et_personnaliser__davantage__l_exp_rience__client__0_Layer0_0_MEMBER_33_FILL"/>
</g>

<g transform="matrix( 2.3769683837890625, 0, 0, 2.3912506103515625, -0.85,15.55) ">
<use xlink:href="#BDM_160x600_FR_psd_Asset_9_V8_3_et_personnaliser__davantage__l_exp_rience__client__0_Layer0_0_MEMBER_34_FILL"/>
</g>

<g transform="matrix( 2.3769683837890625, 0, 0, 2.3912506103515625, -0.85,15.55) ">
<use xlink:href="#BDM_160x600_FR_psd_Asset_9_V8_3_et_personnaliser__davantage__l_exp_rience__client__0_Layer0_0_MEMBER_35_FILL"/>
</g>

<g transform="matrix( 2.3769683837890625, 0, 0, 2.3912506103515625, -0.85,15.55) ">
<use xlink:href="#BDM_160x600_FR_psd_Asset_9_V8_3_et_personnaliser__davantage__l_exp_rience__client__0_Layer0_0_MEMBER_36_FILL"/>
</g>

<g transform="matrix( 2.3769683837890625, 0, 0, 2.3912506103515625, -0.85,15.55) ">
<use xlink:href="#BDM_160x600_FR_psd_Asset_9_V8_3_et_personnaliser__davantage__l_exp_rience__client__0_Layer0_0_MEMBER_37_FILL"/>
</g>

<g transform="matrix( 2.3769683837890625, 0, 0, 2.3912506103515625, -0.85,15.55) ">
<use xlink:href="#BDM_160x600_FR_psd_Asset_9_V8_3_et_personnaliser__davantage__l_exp_rience__client__0_Layer0_0_MEMBER_38_FILL"/>
</g>

<g transform="matrix( 2.3769683837890625, 0, 0, 2.3912506103515625, -0.85,15.55) ">
<use xlink:href="#BDM_160x600_FR_psd_Asset_9_V8_3_et_personnaliser__davantage__l_exp_rience__client__0_Layer0_0_MEMBER_39_FILL"/>
</g>

<g transform="matrix( 2.3769683837890625, 0, 0, 2.3912506103515625, -0.85,15.55) ">
<use xlink:href="#BDM_160x600_FR_psd_Asset_9_V8_3_et_personnaliser__davantage__l_exp_rience__client__0_Layer0_0_MEMBER_40_FILL"/>
</g>

<g transform="matrix( 2.3769683837890625, 0, 0, 2.3912506103515625, -0.85,15.55) ">
<use xlink:href="#BDM_160x600_FR_psd_Asset_9_V8_3_et_personnaliser__davantage__l_exp_rience__client__0_Layer0_0_MEMBER_41_FILL"/>
</g>

<g transform="matrix( 2.3769683837890625, 0, 0, 2.3912506103515625, -0.85,15.55) ">
<use xlink:href="#BDM_160x600_FR_psd_Asset_9_V8_3_et_personnaliser__davantage__l_exp_rience__client__0_Layer0_0_MEMBER_42_FILL"/>
</g>
</g>
</g>
</g>
</svg>
