
<svg xmlns="http://www.w3.org/2000/svg" version="1.1" xmlns:xlink="http://www.w3.org/1999/xlink" preserveAspectRatio="none" x="0px" y="0px" width="640px" height="480px" viewBox="0 0 640 480">
<defs>
<g id="IT_640x480_FR_psd_Asset_V9_2_Les_solutions_de_r_seau_en_tant__que_service_peuvent_contribuer_0_Layer0_0_MEMBER_0_FILL">
<path fill="#D82C26" stroke="none" d="
M 2 -9
L 1.25 -9 1.25 0 5.9 0 6.05 -0.7 2 -0.7 2 -9 Z"/>
</g>

<g id="IT_640x480_FR_psd_Asset_V9_2_Les_solutions_de_r_seau_en_tant__que_service_peuvent_contribuer_0_Layer0_0_MEMBER_1_FILL">
<path fill="#D82C26" stroke="none" d="
M 9.45 -6.15
Q 8.65 -6.15 7.95 -5.75 7.25 -5.3 6.9 -4.65 6.5 -4 6.5 -3 6.5 -2 6.9 -1.35 7.3 -0.6 7.95 -0.25 8.7 0.2 9.55 0.2 10.95 0.2 11.9 -0.55
L 11.8 -1.2
Q 11.2 -0.8 10.8 -0.65 10.35 -0.45 9.6 -0.45 8.95 -0.45 8.4 -0.75 7.9 -1.05 7.55 -1.65 7.2 -2.25 7.2 -2.85
L 12.25 -2.85 12.25 -3.2
Q 12.25 -4 11.95 -4.7 11.55 -5.4 10.95 -5.75 10.3 -6.15 9.45 -6.15
M 8.25 -5.2
Q 8.75 -5.55 9.45 -5.55 10.45 -5.55 10.95 -4.95 11.55 -4.4 11.55 -3.4
L 7.25 -3.4
Q 7.25 -3.8 7.5 -4.4 7.85 -4.95 8.25 -5.2 Z"/>
</g>

<g id="IT_640x480_FR_psd_Asset_V9_2_Les_solutions_de_r_seau_en_tant__que_service_peuvent_contribuer_0_Layer0_0_MEMBER_2_FILL">
<path fill="#D82C26" stroke="none" d="
M 13.2 -1.15
L 13.05 -0.5
Q 13.4 -0.25 14 0 14.55 0.15 15.2 0.15 15.8 0.15 16.2 -0.05 16.6 -0.2 16.95 -0.6 17.25 -1.05 17.25 -1.55 17.25 -2.2 16.8 -2.6 16.4 -3 15.4 -3.3
L 14.2 -3.85
Q 13.9 -4.05 13.9 -4.55 13.9 -5 14.25 -5.3 14.65 -5.55 15.2 -5.55 15.6 -5.55 16.05 -5.4 16.7 -5 16.75 -4.95
L 17.05 -5.5 16.2 -5.95
Q 15.6 -6.15 15.15 -6.15 14.6 -6.15 14.2 -5.95 13.8 -5.8 13.45 -5.4 13.2 -5 13.2 -4.5 13.2 -3.85 13.6 -3.45 14.05 -3.1 14.9 -2.8 15.6 -2.6 16.15 -2.25 16.5 -2.05 16.5 -1.55 16.5 -0.95 16.1 -0.7 15.75 -0.4 15.2 -0.4 14.05 -0.4 13.2 -1.15 Z"/>
</g>

<g id="IT_640x480_FR_psd_Asset_V9_2_Les_solutions_de_r_seau_en_tant__que_service_peuvent_contribuer_0_Layer0_0_MEMBER_3_FILL">
<path fill="#D82C26" stroke="none" d="
M 23.85 -5.95
Q 23.25 -6.15 22.8 -6.15 22.25 -6.15 21.85 -5.95 21.45 -5.8 21.1 -5.4 20.85 -5 20.85 -4.5 20.85 -3.85 21.25 -3.45 21.7 -3.1 22.55 -2.8 23.25 -2.6 23.8 -2.25 24.15 -2.05 24.15 -1.55 24.15 -0.95 23.75 -0.7 23.4 -0.4 22.85 -0.4 21.7 -0.4 20.85 -1.15
L 20.7 -0.5
Q 21.05 -0.25 21.65 0 22.2 0.15 22.85 0.15 23.45 0.15 23.85 -0.05 24.25 -0.2 24.6 -0.6 24.9 -1.05 24.9 -1.55 24.9 -2.2 24.45 -2.6 24.05 -3 23.05 -3.3
L 21.85 -3.85
Q 21.55 -4.05 21.55 -4.55 21.55 -5 21.9 -5.3 22.3 -5.55 22.85 -5.55 23.25 -5.55 23.7 -5.4 24.35 -5 24.4 -4.95
L 24.7 -5.5 23.85 -5.95 Z"/>
</g>

<g id="IT_640x480_FR_psd_Asset_V9_2_Les_solutions_de_r_seau_en_tant__que_service_peuvent_contribuer_0_Layer0_0_MEMBER_4_FILL">
<path fill="#D82C26" stroke="none" d="
M 27.25 -5.75
Q 26.55 -5.3 26.1 -4.6 25.7 -3.9 25.7 -3 25.7 -2.15 26.1 -1.35 26.65 -0.55 27.25 -0.25 27.95 0.2 28.85 0.2 29.75 0.2 30.5 -0.25 31.2 -0.65 31.6 -1.35 32.05 -2.1 32.05 -3 32.05 -3.9 31.6 -4.6 31.3 -5.2 30.5 -5.75 29.7 -6.15 28.85 -6.15 27.95 -6.15 27.25 -5.75
M 28.85 -5.5
Q 29.6 -5.5 30.15 -5.15 30.7 -4.85 31 -4.25 31.3 -3.7 31.3 -3 31.3 -2.3 31 -1.7 30.7 -1.2 30.15 -0.8 29.65 -0.45 28.85 -0.45 28.1 -0.45 27.6 -0.8 27.1 -1.1 26.75 -1.7 26.45 -2.3 26.45 -3 26.45 -3.7 26.75 -4.25 27.05 -4.9 27.6 -5.15 28.1 -5.5 28.85 -5.5 Z"/>
</g>

<g id="IT_640x480_FR_psd_Asset_V9_2_Les_solutions_de_r_seau_en_tant__que_service_peuvent_contribuer_0_Layer0_0_MEMBER_5_FILL">
<path fill="#D82C26" stroke="none" d="
M 33.35 -1.3
Q 33.35 -0.65 33.6 -0.35 33.85 0 34.3 0.15
L 34.65 -0.5
Q 34.35 -0.65 34.2 -0.85 34.1 -1 34.1 -1.5
L 34.1 -9.7 33.35 -9.55 33.35 -1.3 Z"/>
</g>

<g id="IT_640x480_FR_psd_Asset_V9_2_Les_solutions_de_r_seau_en_tant__que_service_peuvent_contribuer_0_Layer0_0_MEMBER_6_FILL">
<path fill="#D82C26" stroke="none" d="
M 36.5 -5.95
L 35.75 -5.95 35.75 -2.35
Q 35.75 -1.2 36.25 -0.55 36.75 0.15 37.9 0.15 38.65 0.15 39.2 -0.25 39.8 -0.55 40.1 -1.3
L 40.2 0 40.95 0 40.85 -0.7 40.8 -5.95 40.1 -5.95 40.1 -3
Q 40.1 -2.2 39.8 -1.6 39.55 -1.05 39.1 -0.75 38.65 -0.45 38.1 -0.45 37.25 -0.45 36.85 -1.05 36.5 -1.6 36.5 -2.5
L 36.5 -5.95 Z"/>
</g>

<g id="IT_640x480_FR_psd_Asset_V9_2_Les_solutions_de_r_seau_en_tant__que_service_peuvent_contribuer_0_Layer0_0_MEMBER_7_FILL">
<path fill="#D82C26" stroke="none" d="
M 43.55 -7.65
L 42.8 -7.35 42.8 -5.95 41.85 -5.95 41.7 -5.35 42.85 -5.35 42.85 -1.45
Q 42.85 -0.65 43.2 -0.3 43.6 0.15 44.2 0.15
L 44.9 0.05 45.5 -0.2 45.4 -0.75
Q 44.95 -0.5 44.45 -0.5 44 -0.5 43.8 -0.75 43.55 -1 43.55 -1.55
L 43.55 -5.35 45.1 -5.35 45.25 -5.95 43.55 -5.95 43.55 -7.65 Z"/>
</g>

<g id="IT_640x480_FR_psd_Asset_V9_2_Les_solutions_de_r_seau_en_tant__que_service_peuvent_contribuer_0_Layer0_0_MEMBER_8_FILL">
<path fill="#D82C26" stroke="none" d="
M 47.1 -5.95
L 46.35 -5.95 46.35 0 47.1 0 47.1 -5.95
M 46.75 -7.8
Q 46.95 -7.8 47.1 -7.95 47.25 -8.1 47.25 -8.35 47.25 -8.55 47.1 -8.7 46.95 -8.85 46.75 -8.85 46.5 -8.85 46.35 -8.7 46.2 -8.55 46.2 -8.35 46.2 -8.1 46.35 -7.95 46.5 -7.8 46.75 -7.8 Z"/>
</g>

<g id="IT_640x480_FR_psd_Asset_V9_2_Les_solutions_de_r_seau_en_tant__que_service_peuvent_contribuer_0_Layer0_0_MEMBER_9_FILL">
<path fill="#D82C26" stroke="none" d="
M 48.8 -1.35
Q 49.2 -0.65 49.9 -0.25 50.65 0.2 51.55 0.2 52.5 0.2 53.15 -0.25 53.9 -0.6 54.3 -1.35 54.7 -2 54.7 -3 54.7 -4 54.3 -4.6 53.95 -5.25 53.15 -5.75 52.45 -6.15 51.55 -6.15 50.7 -6.15 49.9 -5.75 49.1 -5.2 48.8 -4.6 48.4 -4 48.4 -3 48.4 -2 48.8 -1.35
M 49.4 -4.25
Q 49.7 -4.85 50.25 -5.15 50.8 -5.5 51.55 -5.5 52.3 -5.5 52.8 -5.15 53.35 -4.9 53.65 -4.25 53.95 -3.7 53.95 -3 53.95 -2.35 53.7 -1.7 53.4 -1.2 52.85 -0.8 52.3 -0.45 51.55 -0.45 50.8 -0.45 50.25 -0.8 49.7 -1.2 49.4 -1.7 49.15 -2.35 49.15 -3 49.15 -3.65 49.4 -4.25 Z"/>
</g>

<g id="IT_640x480_FR_psd_Asset_V9_2_Les_solutions_de_r_seau_en_tant__que_service_peuvent_contribuer_0_Layer0_0_MEMBER_10_FILL">
<path fill="#D82C26" stroke="none" d="
M 60.6 -5.4
Q 60 -6.15 58.9 -6.15 58.25 -6.15 57.6 -5.75 57.05 -5.35 56.75 -4.65
L 56.65 -5.95 55.95 -5.95 56 0 56.75 0 56.75 -3.05
Q 56.75 -3.8 57.05 -4.35 57.25 -4.85 57.75 -5.2 58.2 -5.5 58.75 -5.5 59.65 -5.5 60 -4.9 60.35 -4.35 60.35 -3.45
L 60.35 0 61.1 0 61.1 -3.65
Q 61.1 -4.75 60.6 -5.4 Z"/>
</g>

<g id="IT_640x480_FR_psd_Asset_V9_2_Les_solutions_de_r_seau_en_tant__que_service_peuvent_contribuer_0_Layer0_0_MEMBER_11_FILL">
<path fill="#D82C26" stroke="none" d="
M 64.4 -5.55
Q 64.8 -5.55 65.25 -5.4 65.9 -5 65.95 -4.95
L 66.25 -5.5 65.45 -5.95
Q 64.75 -6.15 64.35 -6.15 63.8 -6.15 63.4 -5.95 62.95 -5.8 62.7 -5.4 62.4 -5 62.4 -4.5 62.4 -3.85 62.8 -3.45 63.25 -3.1 64.1 -2.8 64.95 -2.55 65.35 -2.25 65.7 -2.05 65.7 -1.55 65.7 -1 65.35 -0.7 64.9 -0.4 64.4 -0.4 63.25 -0.4 62.4 -1.15
L 62.3 -0.5
Q 62.55 -0.25 63.2 0 63.8 0.15 64.4 0.15 65 0.15 65.4 -0.05 65.8 -0.2 66.15 -0.6 66.45 -1.05 66.45 -1.55 66.45 -2.2 66 -2.6 65.6 -3 64.6 -3.3 63.8 -3.6 63.45 -3.85 63.1 -4.05 63.1 -4.55 63.1 -5 63.45 -5.3 63.85 -5.55 64.4 -5.55 Z"/>
</g>

<g id="IT_640x480_FR_psd_Asset_V9_2_Les_solutions_de_r_seau_en_tant__que_service_peuvent_contribuer_0_Layer0_0_MEMBER_12_FILL">
<path fill="#D82C26" stroke="none" d="
M 69.95 -2.95
Q 69.95 -2.05 70.3 -1.4 70.7 -0.6 71.35 -0.25 72 0.15 72.95 0.15 73.7 0.15 74.35 -0.2 74.9 -0.5 75.35 -1.3
L 75.4 -1.3 75.45 0 76.15 0 76.1 -9.75 75.35 -9.6 75.35 -4.65
Q 75 -5.35 74.35 -5.75 73.65 -6.15 72.95 -6.15 72.1 -6.15 71.35 -5.7 70.7 -5.35 70.3 -4.6 69.95 -3.9 69.95 -2.95
M 74.25 -5.15
Q 74.75 -4.85 75.1 -4.25 75.4 -3.65 75.4 -2.95 75.4 -2.3 75.1 -1.7 74.8 -1.2 74.25 -0.8 73.75 -0.45 73.05 -0.45 72.3 -0.45 71.8 -0.8 71.2 -1.15 71 -1.7 70.7 -2.3 70.7 -2.95 70.7 -3.65 71 -4.25 71.25 -4.85 71.8 -5.15 72.3 -5.5 73.05 -5.5 73.75 -5.5 74.25 -5.15 Z"/>
</g>

<g id="IT_640x480_FR_psd_Asset_V9_2_Les_solutions_de_r_seau_en_tant__que_service_peuvent_contribuer_0_Layer0_0_MEMBER_13_FILL">
<path fill="#D82C26" stroke="none" d="
M 80.35 -6.15
Q 79.55 -6.15 78.85 -5.75 78.15 -5.3 77.8 -4.65 77.4 -3.85 77.4 -3 77.4 -2.15 77.8 -1.35 78.2 -0.65 78.9 -0.25 79.6 0.2 80.45 0.2 81.9 0.2 82.85 -0.55
L 82.7 -1.2
Q 82.25 -0.85 81.75 -0.65 81.2 -0.45 80.5 -0.45 79.85 -0.45 79.3 -0.75 78.75 -1.15 78.45 -1.65 78.15 -2.15 78.15 -2.85
L 83.2 -2.85 83.2 -3.2
Q 83.2 -4.05 82.85 -4.7 82.55 -5.35 81.9 -5.75 81.2 -6.15 80.35 -6.15
M 79.2 -5.2
Q 79.6 -5.55 80.35 -5.55 81.3 -5.55 81.9 -4.95 82.4 -4.45 82.5 -3.4
L 78.15 -3.4
Q 78.15 -3.85 78.45 -4.4 78.7 -4.9 79.2 -5.2 Z"/>
</g>

<g id="IT_640x480_FR_psd_Asset_V9_2_Les_solutions_de_r_seau_en_tant__que_service_peuvent_contribuer_0_Layer0_0_MEMBER_14_FILL">
<path fill="#D82C26" stroke="none" d="
M 89.75 -6.15
Q 89.25 -6.15 88.7 -5.75 88.25 -5.35 88 -4.65
L 87.95 -4.65 87.9 -5.95 87.2 -5.95 87.25 0 88 0 88 -2.95
Q 88 -4 88.45 -4.75 88.9 -5.45 89.7 -5.45
L 90.2 -5.4 90.35 -6
Q 90.05 -6.15 89.75 -6.15 Z"/>
</g>

<g id="IT_640x480_FR_psd_Asset_V9_2_Les_solutions_de_r_seau_en_tant__que_service_peuvent_contribuer_0_Layer0_0_MEMBER_15_FILL">
<path fill="#D82C26" stroke="none" d="
M 94.2 -9
L 92.9 -7.2 93.5 -7.2 95.05 -9 94.2 -9
M 90.5 -3
Q 90.5 -2 90.9 -1.35 91.3 -0.6 91.95 -0.25 92.7 0.2 93.55 0.2 94.95 0.2 95.9 -0.55
L 95.8 -1.2
Q 95.2 -0.8 94.8 -0.65 94.35 -0.45 93.6 -0.45 92.95 -0.45 92.35 -0.75 91.85 -1.1 91.55 -1.65 91.2 -2.15 91.2 -2.85
L 96.25 -2.85 96.25 -3.2
Q 96.25 -4 95.95 -4.7 95.55 -5.4 94.95 -5.75 94.3 -6.15 93.45 -6.15 92.65 -6.15 91.95 -5.75 91.3 -5.3 90.85 -4.65 90.5 -3.95 90.5 -3
M 94.95 -4.95
Q 95.55 -4.4 95.55 -3.4
L 91.2 -3.4
Q 91.25 -3.85 91.5 -4.4 91.85 -4.95 92.25 -5.2 92.75 -5.55 93.45 -5.55 94.45 -5.55 94.95 -4.95 Z"/>
</g>

<g id="IT_640x480_FR_psd_Asset_V9_2_Les_solutions_de_r_seau_en_tant__que_service_peuvent_contribuer_0_Layer0_0_MEMBER_16_FILL">
<path fill="#D82C26" stroke="none" d="
M 100.2 -5.95
Q 99.6 -6.15 99.15 -6.15 98.6 -6.15 98.2 -5.95 97.8 -5.8 97.45 -5.4 97.2 -5 97.2 -4.5 97.2 -3.8 97.6 -3.45 98 -3.1 98.85 -2.8 99.6 -2.6 100.15 -2.25 100.5 -2.05 100.5 -1.55 100.5 -0.95 100.1 -0.7 99.75 -0.4 99.2 -0.4 98.05 -0.4 97.2 -1.15
L 97.05 -0.5
Q 97.4 -0.25 98 0 98.55 0.15 99.2 0.15 99.8 0.15 100.2 -0.05 100.6 -0.2 100.95 -0.6 101.25 -1.05 101.25 -1.55 101.25 -2.2 100.8 -2.6 100.45 -2.95 99.4 -3.3
L 98.2 -3.85
Q 97.9 -4.05 97.9 -4.55 97.9 -5 98.25 -5.3 98.65 -5.55 99.2 -5.55 99.65 -5.55 100 -5.4 100.6 -5.1 100.75 -4.95
L 101.05 -5.5 100.2 -5.95 Z"/>
</g>

<g id="IT_640x480_FR_psd_Asset_V9_2_Les_solutions_de_r_seau_en_tant__que_service_peuvent_contribuer_0_Layer0_0_MEMBER_17_FILL">
<path fill="#D82C26" stroke="none" d="
M 103.5 -5.75
Q 102.8 -5.3 102.45 -4.65 102.05 -4 102.05 -3 102.05 -2 102.45 -1.35 102.85 -0.6 103.5 -0.25 104.25 0.2 105.1 0.2 106.5 0.2 107.45 -0.55
L 107.35 -1.2 106.4 -0.65
Q 105.85 -0.45 105.15 -0.45 104.5 -0.45 103.95 -0.75 103.45 -1.05 103.1 -1.65 102.75 -2.25 102.75 -2.85
L 107.8 -2.85 107.8 -3.2
Q 107.8 -4 107.5 -4.7 107.1 -5.4 106.5 -5.75 105.85 -6.15 105 -6.15 104.2 -6.15 103.5 -5.75
M 103.8 -5.2
Q 104.3 -5.55 105 -5.55 106 -5.55 106.5 -4.95 107.1 -4.4 107.1 -3.4
L 102.8 -3.4
Q 102.8 -3.8 103.05 -4.4 103.4 -4.95 103.8 -5.2 Z"/>
</g>

<g id="IT_640x480_FR_psd_Asset_V9_2_Les_solutions_de_r_seau_en_tant__que_service_peuvent_contribuer_0_Layer0_0_MEMBER_18_FILL">
<path fill="#D82C26" stroke="none" d="
M 108.6 -1.6
Q 108.6 -0.75 109.15 -0.3 109.75 0.15 110.5 0.15 111.2 0.15 111.85 -0.15 112.5 -0.55 112.7 -1.15
L 112.75 -1.15 112.85 0 113.55 0
Q 113.45 -0.3 113.45 -1.3
L 113.45 -3.85
Q 113.45 -5.05 112.8 -5.55 112.2 -6.15 111.15 -6.15 110.65 -6.15 109.95 -5.95 109.25 -5.7 108.95 -5.4
L 109.15 -4.8
Q 109.6 -5.15 110.05 -5.35 110.75 -5.55 111.05 -5.55 111.8 -5.55 112.3 -5.15 112.75 -4.7 112.75 -3.9
L 112.75 -3.55 112 -3.55
Q 108.6 -3.55 108.6 -1.6
M 109.7 -0.7
Q 109.3 -1 109.3 -1.65 109.3 -3.1 112.1 -3.1
L 112.75 -3.1 112.75 -2.5
Q 112.75 -2 112.5 -1.5 112.25 -1 111.8 -0.7 111.3 -0.4 110.65 -0.4 110.1 -0.4 109.7 -0.7 Z"/>
</g>

<g id="IT_640x480_FR_psd_Asset_V9_2_Les_solutions_de_r_seau_en_tant__que_service_peuvent_contribuer_0_Layer0_0_MEMBER_19_FILL">
<path fill="#D82C26" stroke="none" d="
M 114.95 -2.35
Q 114.95 -1.25 115.5 -0.55 116 0.15 117.15 0.15 117.9 0.15 118.45 -0.25 119.1 -0.65 119.3 -1.3
L 119.45 0 120.15 0 120.05 -5.95 119.3 -5.95 119.3 -3
Q 119.3 -2.1 119.05 -1.6 118.8 -1.05 118.35 -0.75 117.9 -0.45 117.35 -0.45 116.4 -0.45 116.1 -1.05 115.7 -1.7 115.7 -2.5
L 115.7 -5.95 114.95 -5.95 114.95 -2.35 Z"/>
</g>

<g id="IT_640x480_FR_psd_Asset_V9_2_Les_solutions_de_r_seau_en_tant__que_service_peuvent_contribuer_0_Layer0_0_MEMBER_20_FILL">
<path fill="#D82C26" stroke="none" d="
M 124.55 -1.35
Q 124.95 -0.6 125.65 -0.25 126.35 0.2 127.2 0.2 128.6 0.2 129.55 -0.55
L 129.45 -1.2
Q 129.05 -0.9 128.5 -0.65 127.95 -0.45 127.25 -0.45 126.6 -0.45 126.05 -0.75 125.55 -1.05 125.2 -1.65 124.95 -2.1 124.85 -2.85
L 129.9 -2.85 129.95 -3.2
Q 129.95 -3.9 129.6 -4.7 129.3 -5.35 128.65 -5.75 127.95 -6.15 127.1 -6.15 126.3 -6.15 125.6 -5.75 124.9 -5.3 124.55 -4.65 124.15 -3.85 124.15 -3 124.15 -2.15 124.55 -1.35
M 125.15 -4.4
Q 125.5 -4.95 125.95 -5.2 126.35 -5.55 127.1 -5.55 128.1 -5.55 128.6 -4.95 129.2 -4.4 129.2 -3.4
L 124.9 -3.4
Q 124.9 -3.8 125.15 -4.4 Z"/>
</g>

<g id="IT_640x480_FR_psd_Asset_V9_2_Les_solutions_de_r_seau_en_tant__que_service_peuvent_contribuer_0_Layer0_0_MEMBER_21_FILL">
<path fill="#D82C26" stroke="none" d="
M 136.3 -3.65
Q 136.3 -4.8 135.75 -5.4 135.25 -6.15 134.1 -6.15 133.45 -6.15 132.8 -5.75 132.15 -5.25 131.95 -4.65
L 131.85 -5.95 131.15 -5.95 131.2 0 131.95 0 131.95 -3.05
Q 131.95 -3.8 132.25 -4.35 132.45 -4.85 132.95 -5.2 133.4 -5.5 133.95 -5.5 134.85 -5.5 135.2 -4.9 135.55 -4.35 135.55 -3.45
L 135.55 0 136.3 0 136.3 -3.65 Z"/>
</g>

<g id="IT_640x480_FR_psd_Asset_V9_2_Les_solutions_de_r_seau_en_tant__que_service_peuvent_contribuer_0_Layer0_0_MEMBER_22_FILL">
<path fill="#D82C26" stroke="none" d="
M 141.6 -7.65
L 140.85 -7.35 140.85 -5.95 139.9 -5.95 139.75 -5.35 140.85 -5.35 140.85 -1.45
Q 140.85 -0.65 141.2 -0.3 141.6 0.15 142.25 0.15
L 142.9 0.05 143.5 -0.2 143.4 -0.75
Q 142.95 -0.5 142.45 -0.5 142.05 -0.5 141.8 -0.75 141.6 -0.95 141.6 -1.55
L 141.6 -5.35 143.1 -5.35 143.3 -5.95 141.6 -5.95 141.6 -7.65 Z"/>
</g>

<g id="IT_640x480_FR_psd_Asset_V9_2_Les_solutions_de_r_seau_en_tant__que_service_peuvent_contribuer_0_Layer0_0_MEMBER_23_FILL">
<path fill="#D82C26" stroke="none" d="
M 144.05 -1.6
Q 144.05 -0.75 144.6 -0.3 145.2 0.15 145.95 0.15 146.7 0.15 147.3 -0.15 147.95 -0.55 148.2 -1.15
L 148.3 0 149 0
Q 148.9 -0.3 148.9 -1.3
L 148.9 -3.85
Q 148.9 -5 148.3 -5.55 147.7 -6.15 146.6 -6.15 146.2 -6.15 145.4 -5.95 144.7 -5.7 144.4 -5.4
L 144.6 -4.8
Q 145.05 -5.15 145.5 -5.35 146.2 -5.55 146.5 -5.55 147.25 -5.55 147.75 -5.15 148.2 -4.7 148.2 -3.9
L 148.2 -3.55 147.45 -3.55
Q 144.05 -3.55 144.05 -1.6
M 145.15 -0.7
Q 144.75 -1 144.75 -1.65 144.75 -3.1 147.55 -3.1
L 148.2 -3.1 148.2 -2.5
Q 148.2 -2 147.95 -1.5 147.7 -1 147.25 -0.7 146.8 -0.4 146.1 -0.4 145.55 -0.4 145.15 -0.7 Z"/>
</g>

<g id="IT_640x480_FR_psd_Asset_V9_2_Les_solutions_de_r_seau_en_tant__que_service_peuvent_contribuer_0_Layer0_0_MEMBER_24_FILL">
<path fill="#D82C26" stroke="none" d="
M 151.15 -5.95
L 150.45 -5.95 150.55 0 151.3 0 151.3 -3.05
Q 151.3 -3.9 151.55 -4.35 151.75 -4.85 152.25 -5.2 152.7 -5.5 153.25 -5.5 154.15 -5.5 154.5 -4.9 154.85 -4.35 154.85 -3.45
L 154.85 0 155.6 0 155.6 -3.65
Q 155.6 -4.75 155.1 -5.4 154.5 -6.15 153.4 -6.15 152.75 -6.15 152.1 -5.75 151.55 -5.35 151.25 -4.65
L 151.15 -5.95 Z"/>
</g>

<g id="IT_640x480_FR_psd_Asset_V9_2_Les_solutions_de_r_seau_en_tant__que_service_peuvent_contribuer_0_Layer0_0_MEMBER_25_FILL">
<path fill="#D82C26" stroke="none" d="
M 158.1 -7.65
L 157.35 -7.35 157.35 -5.95 156.4 -5.95 156.25 -5.35 157.35 -5.35 157.35 -1.45
Q 157.35 -0.7 157.75 -0.3 158.15 0.15 158.75 0.15
L 159.45 0.05 160.05 -0.2 159.95 -0.75
Q 159.45 -0.5 158.95 -0.5 158.55 -0.5 158.35 -0.75 158.1 -1 158.1 -1.55
L 158.1 -5.35 159.65 -5.35 159.8 -5.95 158.1 -5.95 158.1 -7.65 Z"/>
</g>

<g id="IT_640x480_FR_psd_Asset_V9_2_Les_solutions_de_r_seau_en_tant__que_service_peuvent_contribuer_0_Layer0_0_MEMBER_26_FILL">
<path fill="#D82C26" stroke="none" d="
M 3.7 8.7
Q 2.85 8.7 2.15 9.1 1.45 9.6 1.1 10.25 0.7 10.95 0.7 11.85 0.7 12.65 1.1 13.45 1.45 14.15 2.15 14.6 2.85 15 3.7 15 4.45 15 5.1 14.6 5.8 14.2 6.1 13.55
L 6.15 13.55 6.15 16.25
Q 6.15 17.55 7.4 17.9
L 7.75 17.25
Q 7.3 17.1 7.05 16.85 6.9 16.65 6.9 16.05
L 6.9 8.9 6.2 8.9 6.15 10.2 6.1 10.2
Q 5.8 9.5 5.1 9.1 4.45 8.7 3.7 8.7
M 3.8 9.3
Q 4.4 9.3 5 9.65 5.6 10.05 5.85 10.6 6.15 11.15 6.15 11.85 6.15 12.6 5.85 13.1 5.6 13.65 5 14.05 4.5 14.35 3.8 14.35 3.1 14.35 2.55 14.05 2.05 13.7 1.75 13.1 1.45 12.6 1.45 11.85 1.45 11.15 1.75 10.6 2.05 10 2.55 9.65 3.15 9.3 3.8 9.3 Z"/>
</g>

<g id="IT_640x480_FR_psd_Asset_V9_2_Les_solutions_de_r_seau_en_tant__que_service_peuvent_contribuer_0_Layer0_0_MEMBER_27_FILL">
<path fill="#D82C26" stroke="none" d="
M 12.85 8.9
L 12.85 11.85
Q 12.85 12.55 12.6 13.2 12.3 13.8 11.85 14.1 11.4 14.4 10.85 14.4 10 14.4 9.6 13.8 9.25 13.25 9.25 12.3
L 9.25 8.9 8.5 8.9 8.5 12.5
Q 8.5 13.6 9 14.3 9.55 15 10.65 15 11.35 15 12 14.6 12.55 14.25 12.85 13.55
L 12.95 14.85 13.7 14.85 13.6 14.15 13.6 8.9 12.85 8.9 Z"/>
</g>

<g id="IT_640x480_FR_psd_Asset_V9_2_Les_solutions_de_r_seau_en_tant__que_service_peuvent_contribuer_0_Layer0_0_MEMBER_28_FILL">
<path fill="#D82C26" stroke="none" d="
M 20.65 11.65
Q 20.65 10.85 20.35 10.15 19.95 9.45 19.35 9.1 18.8 8.7 17.85 8.7 16.95 8.7 16.35 9.1 15.75 9.45 15.25 10.2 14.9 10.9 14.9 11.8 14.9 12.85 15.3 13.45 15.7 14.25 16.35 14.6 17.15 15 17.95 15 19.35 15 20.3 14.25
L 20.2 13.6
Q 19.8 13.9 19.2 14.15 18.6 14.4 18 14.4 17.3 14.4 16.75 14.05 16.3 13.8 15.95 13.2 15.6 12.65 15.6 11.95
L 20.65 11.95 20.65 11.65
M 15.9 10.45
Q 16.15 10 16.65 9.6 17.25 9.25 17.85 9.25 18.85 9.25 19.35 9.85 19.95 10.45 19.95 11.4
L 15.6 11.4
Q 15.7 10.9 15.9 10.45 Z"/>
</g>

<g id="IT_640x480_FR_psd_Asset_V9_2_Les_solutions_de_r_seau_en_tant__que_service_peuvent_contribuer_0_Layer0_0_MEMBER_29_FILL">
<path fill="#D82C26" stroke="none" d="
M 24.35 10.35
Q 24.35 10.95 24.75 11.35 25.15 11.65 26.05 12
L 27.3 12.55
Q 27.7 12.85 27.7 13.3 27.7 13.8 27.3 14.1 26.95 14.4 26.35 14.4 25.2 14.4 24.35 13.7
L 24.25 14.35
Q 24.65 14.65 25.15 14.8 25.7 15 26.35 15 26.95 15 27.35 14.8 27.8 14.6 28.1 14.2 28.4 13.85 28.4 13.25 28.4 12.6 27.95 12.2 27.45 11.75 26.55 11.5 25.6 11.15 25.4 11 25.05 10.7 25.05 10.3 25.05 9.8 25.4 9.55 25.7 9.3 26.35 9.3 26.85 9.3 27.2 9.45
L 27.9 9.85 28.2 9.3 27.4 8.9
Q 26.95 8.7 26.3 8.7 25.85 8.7 25.4 8.85 24.95 9.1 24.65 9.45 24.35 9.85 24.35 10.35 Z"/>
</g>

<g id="IT_640x480_FR_psd_Asset_V9_2_Les_solutions_de_r_seau_en_tant__que_service_peuvent_contribuer_0_Layer0_0_MEMBER_30_FILL">
<path fill="#D82C26" stroke="none" d="
M 32.15 8.7
Q 31.25 8.7 30.65 9.1 30 9.45 29.6 10.2 29.2 11 29.2 11.8 29.2 12.75 29.6 13.45 29.95 14.2 30.7 14.6 31.4 15 32.25 15 33.7 15 34.65 14.25
L 34.5 13.6
Q 34.2 13.9 33.55 14.15 32.9 14.4 32.3 14.4 31.6 14.4 31.1 14.05 30.55 13.75 30.25 13.2 29.95 12.6 29.95 11.95
L 35 11.95 35 11.65
Q 35 10.8 34.65 10.15 34.35 9.5 33.7 9.1 33.1 8.7 32.15 8.7
M 33.7 9.85
Q 34.25 10.45 34.3 11.4
L 29.95 11.4
Q 29.95 10.9 30.25 10.45 30.45 10 31 9.6 31.55 9.25 32.15 9.25 33.1 9.25 33.7 9.85 Z"/>
</g>

<g id="IT_640x480_FR_psd_Asset_V9_2_Les_solutions_de_r_seau_en_tant__que_service_peuvent_contribuer_0_Layer0_0_MEMBER_31_FILL">
<path fill="#D82C26" stroke="none" d="
M 39.4 8.8
L 38.75 8.7
Q 38.25 8.7 37.7 9.1 37.2 9.5 37 10.15
L 36.95 10.15 36.9 8.9 36.2 8.9 36.25 14.85 37 14.85 37 11.85
Q 37 10.85 37.45 10.1 37.9 9.35 38.7 9.35
L 39.2 9.45 39.4 8.8 Z"/>
</g>

<g id="IT_640x480_FR_psd_Asset_V9_2_Les_solutions_de_r_seau_en_tant__que_service_peuvent_contribuer_0_Layer0_0_MEMBER_32_FILL">
<path fill="#D82C26" stroke="none" d="
M 44.25 8.9
L 42.35 14.1 40.45 8.9 39.65 8.9 41.95 14.85 42.8 14.85 45 8.9 44.25 8.9 Z"/>
</g>

<g id="IT_640x480_FR_psd_Asset_V9_2_Les_solutions_de_r_seau_en_tant__que_service_peuvent_contribuer_0_Layer0_0_MEMBER_33_FILL">
<path fill="#D82C26" stroke="none" d="
M 46.6 8.9
L 45.85 8.9 45.85 14.85 46.6 14.85 46.6 8.9
M 46.6 6.1
Q 46.45 5.95 46.25 5.95 46 5.95 45.85 6.1 45.7 6.25 45.7 6.5 45.7 6.7 45.85 6.9 46 7.05 46.25 7.05 46.45 7.05 46.6 6.9 46.75 6.7 46.75 6.5 46.75 6.25 46.6 6.1 Z"/>
</g>

<g id="IT_640x480_FR_psd_Asset_V9_2_Les_solutions_de_r_seau_en_tant__que_service_peuvent_contribuer_0_Layer0_0_MEMBER_34_FILL">
<path fill="#D82C26" stroke="none" d="
M 52.15 8.9
Q 51.6 8.7 51 8.7 50.05 8.7 49.4 9.1 48.65 9.5 48.3 10.25 47.9 10.85 47.9 11.85 47.9 12.85 48.3 13.5 48.7 14.25 49.4 14.6 50.1 15 51 15 51.6 15 52.15 14.8 52.75 14.55 53.05 14.3
L 52.9 13.65
Q 52.65 13.9 52.05 14.2 51.6 14.35 51.05 14.35 50.3 14.35 49.8 14 49.25 13.75 48.95 13.1 48.65 12.6 48.65 11.85 48.65 11.15 48.95 10.6 49.25 10 49.8 9.65 50.4 9.3 51 9.3 51.35 9.3 51.95 9.5 52.4 9.65 52.7 9.95
L 53.05 9.4
Q 52.6 9 52.15 8.9 Z"/>
</g>

<g id="IT_640x480_FR_psd_Asset_V9_2_Les_solutions_de_r_seau_en_tant__que_service_peuvent_contribuer_0_Layer0_0_MEMBER_35_FILL">
<path fill="#D82C26" stroke="none" d="
M 55 9.1
Q 54.3 9.5 53.9 10.2 53.55 10.9 53.55 11.8 53.55 12.8 53.9 13.45 54.4 14.25 55 14.6 55.7 15 56.6 15 58 15 58.95 14.25
L 58.85 13.6
Q 58.45 13.9 57.85 14.15 57.25 14.4 56.65 14.4 55.95 14.4 55.4 14.05 54.85 13.75 54.55 13.2 54.25 12.6 54.25 11.95
L 59.3 11.95 59.3 11.65
Q 59.3 10.85 59 10.15 58.6 9.45 58 9.1 57.45 8.7 56.5 8.7 55.6 8.7 55 9.1
M 54.55 10.45
Q 54.7 10.1 55.3 9.6 55.9 9.25 56.5 9.25 57.4 9.25 58 9.85 58.6 10.45 58.6 11.4
L 54.25 11.4
Q 54.35 10.9 54.55 10.45 Z"/>
</g>

<g id="IT_640x480_FR_psd_Asset_V9_2_Les_solutions_de_r_seau_en_tant__que_service_peuvent_contribuer_0_Layer0_0_MEMBER_36_FILL">
<path fill="#D82C26" stroke="none" d="
M 65.1 9.1
Q 64.4 9.55 64.15 10.2
L 64.1 10.2 64.05 8.9 63.3 8.9 63.35 17.9 64.1 17.9 64.1 13.55 64.15 13.55
Q 64.45 14.2 65.1 14.6 65.8 15 66.55 15 67.4 15 68.1 14.6 68.8 14.15 69.15 13.45 69.55 12.65 69.55 11.85 69.55 10.95 69.15 10.25 68.8 9.6 68.1 9.1 67.4 8.7 66.55 8.7 65.8 8.7 65.1 9.1
M 64.4 10.6
Q 64.7 10 65.25 9.65 65.85 9.3 66.45 9.3 67.05 9.3 67.65 9.65 68.25 10.05 68.5 10.6 68.75 11.2 68.75 11.85 68.75 12.5 68.5 13.1 68.25 13.65 67.65 14.05 67.15 14.35 66.45 14.35 65.8 14.35 65.25 14.05 64.7 13.7 64.4 13.1 64.1 12.6 64.1 11.85 64.1 11.15 64.4 10.6 Z"/>
</g>

<g id="IT_640x480_FR_psd_Asset_V9_2_Les_solutions_de_r_seau_en_tant__que_service_peuvent_contribuer_0_Layer0_0_MEMBER_37_FILL">
<path fill="#D82C26" stroke="none" d="
M 73.4 8.7
Q 72.5 8.7 71.9 9.1 71.25 9.45 70.85 10.2 70.45 11 70.45 11.8 70.45 12.75 70.85 13.45 71.2 14.2 71.95 14.6 72.65 15 73.5 15 74.95 15 75.9 14.25
L 75.75 13.6
Q 75.45 13.9 74.8 14.15 74.15 14.4 73.6 14.4 72.85 14.4 72.35 14.05 71.8 13.75 71.5 13.2 71.2 12.6 71.2 11.95
L 76.25 11.95 76.25 11.65
Q 76.25 10.8 75.9 10.15 75.6 9.45 74.95 9.1 74.35 8.7 73.4 8.7
M 71.5 10.45
Q 71.7 10 72.25 9.6 72.85 9.25 73.4 9.25 74.35 9.25 74.95 9.85 75.5 10.45 75.55 11.4
L 71.2 11.4
Q 71.2 10.9 71.5 10.45 Z"/>
</g>

<g id="IT_640x480_FR_psd_Asset_V9_2_Les_solutions_de_r_seau_en_tant__que_service_peuvent_contribuer_0_Layer0_0_MEMBER_38_FILL">
<path fill="#D82C26" stroke="none" d="
M 82.55 14.15
L 82.5 8.9 81.8 8.9 81.8 11.85
Q 81.8 12.6 81.5 13.2 81.3 13.8 80.8 14.1 80.35 14.4 79.8 14.4 78.95 14.4 78.55 13.8 78.2 13.25 78.2 12.3
L 78.2 8.9 77.45 8.9 77.45 12.5
Q 77.45 13.6 77.95 14.3 78.5 15 79.6 15 80.25 15 80.95 14.6 81.5 14.25 81.8 13.55
L 81.9 14.85 82.65 14.85 82.55 14.15 Z"/>
</g>

<g id="IT_640x480_FR_psd_Asset_V9_2_Les_solutions_de_r_seau_en_tant__que_service_peuvent_contribuer_0_Layer0_0_MEMBER_39_FILL">
<path fill="#D82C26" stroke="none" d="
M 83.4 8.9
L 85.65 14.85 86.55 14.85 88.75 8.9 88 8.9 86.1 14.1 84.2 8.9 83.4 8.9 Z"/>
</g>

<g id="IT_640x480_FR_psd_Asset_V9_2_Les_solutions_de_r_seau_en_tant__que_service_peuvent_contribuer_0_Layer0_0_MEMBER_40_FILL">
<path fill="#D82C26" stroke="none" d="
M 93.45 9.1
Q 92.9 8.7 91.95 8.7 91.05 8.7 90.45 9.1 89.8 9.45 89.4 10.2 89 10.85 89 11.8 89 12.75 89.4 13.45 89.8 14.25 90.5 14.6 91.2 15 92.05 15 93.45 15 94.4 14.25
L 94.3 13.6
Q 94.05 13.85 93.35 14.15 92.7 14.4 92.1 14.4 91.4 14.4 90.9 14.05 90.4 13.8 90.05 13.2 89.8 12.65 89.7 11.95
L 94.75 11.95 94.8 11.65
Q 94.8 10.95 94.45 10.15 94.15 9.5 93.45 9.1
M 93.45 9.85
Q 94.05 10.45 94.05 11.4
L 89.75 11.4
Q 89.75 10.95 90 10.45 90.25 10 90.75 9.6 91.35 9.25 91.95 9.25 92.95 9.25 93.45 9.85 Z"/>
</g>

<g id="IT_640x480_FR_psd_Asset_V9_2_Les_solutions_de_r_seau_en_tant__que_service_peuvent_contribuer_0_Layer0_0_MEMBER_41_FILL">
<path fill="#D82C26" stroke="none" d="
M 96.8 10.15
L 96.75 10.15 96.7 8.9 96 8.9 96.05 14.85 96.8 14.85 96.8 11.8
Q 96.8 11.1 97.05 10.45 97.35 9.9 97.8 9.6 98.25 9.3 98.8 9.3 99.7 9.3 100.05 9.9 100.4 10.45 100.4 11.4
L 100.4 14.85 101.15 14.85 101.15 11.2
Q 101.15 10.1 100.6 9.4 100.05 8.7 98.95 8.7 98.3 8.7 97.65 9.1 97 9.5 96.8 10.15 Z"/>
</g>

<g id="IT_640x480_FR_psd_Asset_V9_2_Les_solutions_de_r_seau_en_tant__que_service_peuvent_contribuer_0_Layer0_0_MEMBER_42_FILL">
<path fill="#D82C26" stroke="none" d="
M 102.9 8.9
L 101.95 8.9 101.8 9.45 102.9 9.45 102.9 13.4
Q 102.9 14.15 103.3 14.55 103.7 14.95 104.3 14.95
L 104.95 14.85
Q 105.4 14.75 105.55 14.65
L 105.45 14.1
Q 104.85 14.35 104.5 14.35 104.15 14.35 103.9 14.1 103.65 13.85 103.65 13.3
L 103.65 9.45 105.2 9.45 105.35 8.9 103.65 8.9 103.65 7.15 102.9 7.45 102.9 8.9 Z"/>
</g>

<g id="IT_640x480_FR_psd_Asset_V9_2_Les_solutions_de_r_seau_en_tant__que_service_peuvent_contribuer_0_Layer0_0_MEMBER_43_FILL">
<path fill="#D82C26" stroke="none" d="
M 112.85 8.9
Q 112.4 8.7 111.75 8.7 110.75 8.7 110.15 9.1 109.5 9.45 109 10.25 108.6 10.95 108.6 11.85 108.6 12.7 109 13.5 109.4 14.2 110.1 14.6 110.9 15 111.7 15 112.4 15 112.85 14.8 113.45 14.55 113.75 14.3
L 113.65 13.65 112.8 14.2
Q 112.35 14.35 111.75 14.35 111 14.35 110.5 14 109.95 13.7 109.65 13.1 109.4 12.5 109.4 11.85 109.4 11.2 109.65 10.6 109.9 10.05 110.5 9.65 111.1 9.3 111.75 9.3 112 9.3 112.7 9.5 113.15 9.65 113.45 9.95
L 113.75 9.4
Q 113.4 9.05 112.85 8.9 Z"/>
</g>

<g id="IT_640x480_FR_psd_Asset_V9_2_Les_solutions_de_r_seau_en_tant__que_service_peuvent_contribuer_0_Layer0_0_MEMBER_44_FILL">
<path fill="#D82C26" stroke="none" d="
M 115.8 9.1
Q 115.2 9.4 114.65 10.2 114.25 11 114.25 11.85 114.25 12.75 114.65 13.45 115.15 14.25 115.8 14.6 116.5 15 117.4 15 118.25 15 119.05 14.6 119.8 14.2 120.15 13.45 120.6 12.8 120.6 11.85 120.6 10.95 120.15 10.2 119.75 9.5 119.05 9.1 118.4 8.7 117.4 8.7 116.4 8.7 115.8 9.1
M 115 11.85
Q 115 11.15 115.3 10.55 115.65 10 116.15 9.65 116.75 9.3 117.4 9.3 118 9.3 118.7 9.65 119.25 10.05 119.55 10.55 119.85 11.15 119.85 11.85 119.85 12.5 119.55 13.1 119.3 13.65 118.7 14.05 118.2 14.35 117.4 14.35 116.7 14.35 116.15 14.05 115.6 13.7 115.3 13.1 115 12.5 115 11.85 Z"/>
</g>

<g id="IT_640x480_FR_psd_Asset_V9_2_Les_solutions_de_r_seau_en_tant__que_service_peuvent_contribuer_0_Layer0_0_MEMBER_45_FILL">
<path fill="#D82C26" stroke="none" d="
M 122.55 8.9
L 121.85 8.9 121.9 14.85 122.65 14.85 122.65 11.8
Q 122.65 10.95 122.9 10.45 123.15 9.9 123.6 9.6 124.05 9.3 124.6 9.3 125.5 9.3 125.85 9.9 126.25 10.55 126.25 11.4
L 126.25 14.85 127 14.85 127 11.2
Q 127 10.2 126.45 9.4 125.9 8.7 124.75 8.7 124.1 8.7 123.45 9.1 122.9 9.45 122.6 10.15
L 122.55 8.9 Z"/>
</g>

<g id="IT_640x480_FR_psd_Asset_V9_2_Les_solutions_de_r_seau_en_tant__que_service_peuvent_contribuer_0_Layer0_0_MEMBER_46_FILL">
<path fill="#D82C26" stroke="none" d="
M 129.45 8.9
L 129.45 7.15 128.7 7.45 128.7 8.9 127.75 8.9 127.6 9.45 128.75 9.45 128.75 13.4
Q 128.75 14.2 129.1 14.55 129.5 14.95 130.1 14.95
L 130.8 14.85 131.4 14.65 131.3 14.1
Q 130.7 14.35 130.35 14.35 129.95 14.35 129.7 14.1 129.45 13.75 129.45 13.3
L 129.45 9.45 131 9.45 131.15 8.9 129.45 8.9 Z"/>
</g>

<g id="IT_640x480_FR_psd_Asset_V9_2_Les_solutions_de_r_seau_en_tant__que_service_peuvent_contribuer_0_Layer0_0_MEMBER_47_FILL">
<path fill="#D82C26" stroke="none" d="
M 135.4 8.8
L 134.75 8.7
Q 134.25 8.7 133.7 9.1 133.2 9.5 133 10.15
L 132.9 8.9 132.2 8.9 132.25 14.85 133 14.85 133 11.85
Q 133 10.85 133.45 10.1 133.9 9.35 134.7 9.35
L 135.25 9.45 135.4 8.8 Z"/>
</g>

<g id="IT_640x480_FR_psd_Asset_V9_2_Les_solutions_de_r_seau_en_tant__que_service_peuvent_contribuer_0_Layer0_0_MEMBER_48_FILL">
<path fill="#D82C26" stroke="none" d="
M 136.95 8.9
L 136.2 8.9 136.2 14.85 136.95 14.85 136.95 8.9
M 136.55 5.95
Q 136.35 5.95 136.2 6.1 136.05 6.25 136.05 6.5 136.05 6.7 136.2 6.9 136.35 7.05 136.55 7.05 136.8 7.05 136.95 6.9 137.1 6.7 137.1 6.5 137.1 6.25 136.95 6.1 136.8 5.95 136.55 5.95 Z"/>
</g>

<g id="IT_640x480_FR_psd_Asset_V9_2_Les_solutions_de_r_seau_en_tant__que_service_peuvent_contribuer_0_Layer0_0_MEMBER_49_FILL">
<path fill="#D82C26" stroke="none" d="
M 143.4 9.1
Q 142.7 8.7 141.85 8.7 141.1 8.7 140.45 9.1 139.8 9.5 139.4 10.15
L 139.4 5.1 138.65 5.2 138.6 14.85 139.25 14.85 139.35 13.55 139.4 13.55
Q 139.7 14.2 140.4 14.6 141.1 15 141.85 15 142.7 15 143.4 14.6 144.1 14.15 144.45 13.45 144.8 12.75 144.8 11.85 144.8 10.9 144.45 10.25 144.1 9.6 143.4 9.1
M 142.95 9.65
Q 143.55 10.05 143.8 10.6 144.05 11.05 144.05 11.85 144.05 12.65 143.8 13.1 143.55 13.65 142.95 14.05 142.45 14.35 141.7 14.35 141.1 14.35 140.5 14.05 140 13.7 139.7 13.1 139.35 12.6 139.35 11.85 139.35 11.1 139.7 10.6 140 10 140.5 9.65 141.2 9.3 141.7 9.3 142.35 9.3 142.95 9.65 Z"/>
</g>

<g id="IT_640x480_FR_psd_Asset_V9_2_Les_solutions_de_r_seau_en_tant__que_service_peuvent_contribuer_0_Layer0_0_MEMBER_50_FILL">
<path fill="#D82C26" stroke="none" d="
M 146.8 8.9
L 146.05 8.9 146.05 12.5
Q 146.05 13.6 146.55 14.3 147.1 15 148.2 15 148.85 15 149.55 14.6 150.1 14.25 150.4 13.55
L 150.5 14.85 151.25 14.85 151.15 14.15 151.1 8.9 150.4 8.9 150.4 11.85
Q 150.4 12.6 150.1 13.2 149.9 13.8 149.4 14.1 148.95 14.4 148.4 14.4 147.55 14.4 147.15 13.8 146.8 13.25 146.8 12.3
L 146.8 8.9 Z"/>
</g>

<g id="IT_640x480_FR_psd_Asset_V9_2_Les_solutions_de_r_seau_en_tant__que_service_peuvent_contribuer_0_Layer0_0_MEMBER_51_FILL">
<path fill="#D82C26" stroke="none" d="
M 156.9 9.1
Q 156.35 8.7 155.4 8.7 154.5 8.7 153.9 9.1 153.2 9.5 152.8 10.2 152.45 10.9 152.45 11.8 152.45 12.8 152.8 13.45 153.3 14.25 153.9 14.6 154.6 15 155.5 15 156.9 15 157.85 14.25
L 157.75 13.6
Q 157.35 13.9 156.75 14.15 156.15 14.4 155.55 14.4 154.8 14.4 154.3 14.05 153.75 13.75 153.45 13.2 153.15 12.6 153.15 11.95
L 158.2 11.95 158.2 11.65
Q 158.2 10.85 157.9 10.15 157.5 9.45 156.9 9.1
M 155.4 9.25
Q 156.3 9.25 156.9 9.85 157.5 10.45 157.5 11.4
L 153.15 11.4
Q 153.25 10.9 153.45 10.45 153.6 10.1 154.2 9.6 154.8 9.25 155.4 9.25 Z"/>
</g>

<g id="IT_640x480_FR_psd_Asset_V9_2_Les_solutions_de_r_seau_en_tant__que_service_peuvent_contribuer_0_Layer0_0_MEMBER_52_FILL">
<path fill="#D82C26" stroke="none" d="
M 162.45 9.45
L 162.6 8.8 161.95 8.7
Q 161.45 8.7 160.95 9.1 160.45 9.5 160.2 10.15
L 160.15 8.9 159.4 8.9 159.5 14.85 160.25 14.85 160.25 11.85
Q 160.25 10.85 160.7 10.1 161.15 9.35 161.9 9.35
L 162.45 9.45 Z"/>
</g>

<g id="IT_640x480_FR_psd_Asset_V9_2_Les_solutions_de_r_seau_en_tant__que_service_peuvent_contribuer_0_Layer0_0_MEMBER_53_FILL">
<path fill="#D82C26" stroke="none" d="
M 162.8 14.75
Q 163.05 14.9 163.2 14.9 163.45 14.9 163.6 14.75 163.8 14.6 163.8 14.35 163.8 14.1 163.6 13.9 163.45 13.75 163.2 13.75 163 13.75 162.8 13.95 162.65 14.1 162.65 14.35 162.65 14.6 162.8 14.75
M 167.5 14.9
Q 167.7 14.9 167.85 14.75 168.05 14.6 168.05 14.35 168.05 14.1 167.85 13.9 167.7 13.75 167.5 13.75 167.25 13.75 167.05 13.95 166.9 14.1 166.9 14.35 166.9 14.6 167.05 14.75 167.3 14.9 167.5 14.9
M 171.3 14.75
Q 171.55 14.9 171.7 14.9 171.95 14.9 172.1 14.75 172.3 14.55 172.3 14.35 172.3 14.1 172.1 13.9 171.95 13.75 171.7 13.75 171.5 13.75 171.3 13.95 171.15 14.1 171.15 14.35 171.15 14.6 171.3 14.75 Z"/>
</g>
</defs>

<g transform="matrix( 1, 0, 0, 1, -6,-161) ">
<g transform="matrix( 1, 0, 0, 1, 0,190) ">
<g transform="matrix( 1, 0, 0, 1, 55,10) ">
<g transform="matrix( 2.815704345703125, 0, 0, 2.832611083984375, -1.85,27.6) ">
<use xlink:href="#IT_640x480_FR_psd_Asset_V9_2_Les_solutions_de_r_seau_en_tant__que_service_peuvent_contribuer_0_Layer0_0_MEMBER_0_FILL"/>
</g>

<g transform="matrix( 2.815704345703125, 0, 0, 2.832611083984375, -1.85,27.6) ">
<use xlink:href="#IT_640x480_FR_psd_Asset_V9_2_Les_solutions_de_r_seau_en_tant__que_service_peuvent_contribuer_0_Layer0_0_MEMBER_1_FILL"/>
</g>

<g transform="matrix( 2.815704345703125, 0, 0, 2.832611083984375, -1.85,27.6) ">
<use xlink:href="#IT_640x480_FR_psd_Asset_V9_2_Les_solutions_de_r_seau_en_tant__que_service_peuvent_contribuer_0_Layer0_0_MEMBER_2_FILL"/>
</g>

<g transform="matrix( 2.815704345703125, 0, 0, 2.832611083984375, -1.85,27.6) ">
<use xlink:href="#IT_640x480_FR_psd_Asset_V9_2_Les_solutions_de_r_seau_en_tant__que_service_peuvent_contribuer_0_Layer0_0_MEMBER_3_FILL"/>
</g>

<g transform="matrix( 2.815704345703125, 0, 0, 2.832611083984375, -1.85,27.6) ">
<use xlink:href="#IT_640x480_FR_psd_Asset_V9_2_Les_solutions_de_r_seau_en_tant__que_service_peuvent_contribuer_0_Layer0_0_MEMBER_4_FILL"/>
</g>

<g transform="matrix( 2.815704345703125, 0, 0, 2.832611083984375, -1.85,27.6) ">
<use xlink:href="#IT_640x480_FR_psd_Asset_V9_2_Les_solutions_de_r_seau_en_tant__que_service_peuvent_contribuer_0_Layer0_0_MEMBER_5_FILL"/>
</g>

<g transform="matrix( 2.815704345703125, 0, 0, 2.832611083984375, -1.85,27.6) ">
<use xlink:href="#IT_640x480_FR_psd_Asset_V9_2_Les_solutions_de_r_seau_en_tant__que_service_peuvent_contribuer_0_Layer0_0_MEMBER_6_FILL"/>
</g>

<g transform="matrix( 2.815704345703125, 0, 0, 2.832611083984375, -1.85,27.6) ">
<use xlink:href="#IT_640x480_FR_psd_Asset_V9_2_Les_solutions_de_r_seau_en_tant__que_service_peuvent_contribuer_0_Layer0_0_MEMBER_7_FILL"/>
</g>

<g transform="matrix( 2.815704345703125, 0, 0, 2.832611083984375, -1.85,27.6) ">
<use xlink:href="#IT_640x480_FR_psd_Asset_V9_2_Les_solutions_de_r_seau_en_tant__que_service_peuvent_contribuer_0_Layer0_0_MEMBER_8_FILL"/>
</g>

<g transform="matrix( 2.815704345703125, 0, 0, 2.832611083984375, -1.85,27.6) ">
<use xlink:href="#IT_640x480_FR_psd_Asset_V9_2_Les_solutions_de_r_seau_en_tant__que_service_peuvent_contribuer_0_Layer0_0_MEMBER_9_FILL"/>
</g>

<g transform="matrix( 2.815704345703125, 0, 0, 2.832611083984375, -1.85,27.6) ">
<use xlink:href="#IT_640x480_FR_psd_Asset_V9_2_Les_solutions_de_r_seau_en_tant__que_service_peuvent_contribuer_0_Layer0_0_MEMBER_10_FILL"/>
</g>

<g transform="matrix( 2.815704345703125, 0, 0, 2.832611083984375, -1.85,27.6) ">
<use xlink:href="#IT_640x480_FR_psd_Asset_V9_2_Les_solutions_de_r_seau_en_tant__que_service_peuvent_contribuer_0_Layer0_0_MEMBER_11_FILL"/>
</g>

<g transform="matrix( 2.815704345703125, 0, 0, 2.832611083984375, -1.85,27.6) ">
<use xlink:href="#IT_640x480_FR_psd_Asset_V9_2_Les_solutions_de_r_seau_en_tant__que_service_peuvent_contribuer_0_Layer0_0_MEMBER_12_FILL"/>
</g>

<g transform="matrix( 2.815704345703125, 0, 0, 2.832611083984375, -1.85,27.6) ">
<use xlink:href="#IT_640x480_FR_psd_Asset_V9_2_Les_solutions_de_r_seau_en_tant__que_service_peuvent_contribuer_0_Layer0_0_MEMBER_13_FILL"/>
</g>

<g transform="matrix( 2.815704345703125, 0, 0, 2.832611083984375, -1.85,27.6) ">
<use xlink:href="#IT_640x480_FR_psd_Asset_V9_2_Les_solutions_de_r_seau_en_tant__que_service_peuvent_contribuer_0_Layer0_0_MEMBER_14_FILL"/>
</g>

<g transform="matrix( 2.815704345703125, 0, 0, 2.832611083984375, -1.85,27.6) ">
<use xlink:href="#IT_640x480_FR_psd_Asset_V9_2_Les_solutions_de_r_seau_en_tant__que_service_peuvent_contribuer_0_Layer0_0_MEMBER_15_FILL"/>
</g>

<g transform="matrix( 2.815704345703125, 0, 0, 2.832611083984375, -1.85,27.6) ">
<use xlink:href="#IT_640x480_FR_psd_Asset_V9_2_Les_solutions_de_r_seau_en_tant__que_service_peuvent_contribuer_0_Layer0_0_MEMBER_16_FILL"/>
</g>

<g transform="matrix( 2.815704345703125, 0, 0, 2.832611083984375, -1.85,27.6) ">
<use xlink:href="#IT_640x480_FR_psd_Asset_V9_2_Les_solutions_de_r_seau_en_tant__que_service_peuvent_contribuer_0_Layer0_0_MEMBER_17_FILL"/>
</g>

<g transform="matrix( 2.815704345703125, 0, 0, 2.832611083984375, -1.85,27.6) ">
<use xlink:href="#IT_640x480_FR_psd_Asset_V9_2_Les_solutions_de_r_seau_en_tant__que_service_peuvent_contribuer_0_Layer0_0_MEMBER_18_FILL"/>
</g>

<g transform="matrix( 2.815704345703125, 0, 0, 2.832611083984375, -1.85,27.6) ">
<use xlink:href="#IT_640x480_FR_psd_Asset_V9_2_Les_solutions_de_r_seau_en_tant__que_service_peuvent_contribuer_0_Layer0_0_MEMBER_19_FILL"/>
</g>

<g transform="matrix( 2.815704345703125, 0, 0, 2.832611083984375, -1.85,27.6) ">
<use xlink:href="#IT_640x480_FR_psd_Asset_V9_2_Les_solutions_de_r_seau_en_tant__que_service_peuvent_contribuer_0_Layer0_0_MEMBER_20_FILL"/>
</g>

<g transform="matrix( 2.815704345703125, 0, 0, 2.832611083984375, -1.85,27.6) ">
<use xlink:href="#IT_640x480_FR_psd_Asset_V9_2_Les_solutions_de_r_seau_en_tant__que_service_peuvent_contribuer_0_Layer0_0_MEMBER_21_FILL"/>
</g>

<g transform="matrix( 2.815704345703125, 0, 0, 2.832611083984375, -1.85,27.6) ">
<use xlink:href="#IT_640x480_FR_psd_Asset_V9_2_Les_solutions_de_r_seau_en_tant__que_service_peuvent_contribuer_0_Layer0_0_MEMBER_22_FILL"/>
</g>

<g transform="matrix( 2.815704345703125, 0, 0, 2.832611083984375, -1.85,27.6) ">
<use xlink:href="#IT_640x480_FR_psd_Asset_V9_2_Les_solutions_de_r_seau_en_tant__que_service_peuvent_contribuer_0_Layer0_0_MEMBER_23_FILL"/>
</g>

<g transform="matrix( 2.815704345703125, 0, 0, 2.832611083984375, -1.85,27.6) ">
<use xlink:href="#IT_640x480_FR_psd_Asset_V9_2_Les_solutions_de_r_seau_en_tant__que_service_peuvent_contribuer_0_Layer0_0_MEMBER_24_FILL"/>
</g>

<g transform="matrix( 2.815704345703125, 0, 0, 2.832611083984375, -1.85,27.6) ">
<use xlink:href="#IT_640x480_FR_psd_Asset_V9_2_Les_solutions_de_r_seau_en_tant__que_service_peuvent_contribuer_0_Layer0_0_MEMBER_25_FILL"/>
</g>

<g transform="matrix( 2.815704345703125, 0, 0, 2.832611083984375, -1.85,27.6) ">
<use xlink:href="#IT_640x480_FR_psd_Asset_V9_2_Les_solutions_de_r_seau_en_tant__que_service_peuvent_contribuer_0_Layer0_0_MEMBER_26_FILL"/>
</g>

<g transform="matrix( 2.815704345703125, 0, 0, 2.832611083984375, -1.85,27.6) ">
<use xlink:href="#IT_640x480_FR_psd_Asset_V9_2_Les_solutions_de_r_seau_en_tant__que_service_peuvent_contribuer_0_Layer0_0_MEMBER_27_FILL"/>
</g>

<g transform="matrix( 2.815704345703125, 0, 0, 2.832611083984375, -1.85,27.6) ">
<use xlink:href="#IT_640x480_FR_psd_Asset_V9_2_Les_solutions_de_r_seau_en_tant__que_service_peuvent_contribuer_0_Layer0_0_MEMBER_28_FILL"/>
</g>

<g transform="matrix( 2.815704345703125, 0, 0, 2.832611083984375, -1.85,27.6) ">
<use xlink:href="#IT_640x480_FR_psd_Asset_V9_2_Les_solutions_de_r_seau_en_tant__que_service_peuvent_contribuer_0_Layer0_0_MEMBER_29_FILL"/>
</g>

<g transform="matrix( 2.815704345703125, 0, 0, 2.832611083984375, -1.85,27.6) ">
<use xlink:href="#IT_640x480_FR_psd_Asset_V9_2_Les_solutions_de_r_seau_en_tant__que_service_peuvent_contribuer_0_Layer0_0_MEMBER_30_FILL"/>
</g>

<g transform="matrix( 2.815704345703125, 0, 0, 2.832611083984375, -1.85,27.6) ">
<use xlink:href="#IT_640x480_FR_psd_Asset_V9_2_Les_solutions_de_r_seau_en_tant__que_service_peuvent_contribuer_0_Layer0_0_MEMBER_31_FILL"/>
</g>

<g transform="matrix( 2.815704345703125, 0, 0, 2.832611083984375, -1.85,27.6) ">
<use xlink:href="#IT_640x480_FR_psd_Asset_V9_2_Les_solutions_de_r_seau_en_tant__que_service_peuvent_contribuer_0_Layer0_0_MEMBER_32_FILL"/>
</g>

<g transform="matrix( 2.815704345703125, 0, 0, 2.832611083984375, -1.85,27.6) ">
<use xlink:href="#IT_640x480_FR_psd_Asset_V9_2_Les_solutions_de_r_seau_en_tant__que_service_peuvent_contribuer_0_Layer0_0_MEMBER_33_FILL"/>
</g>

<g transform="matrix( 2.815704345703125, 0, 0, 2.832611083984375, -1.85,27.6) ">
<use xlink:href="#IT_640x480_FR_psd_Asset_V9_2_Les_solutions_de_r_seau_en_tant__que_service_peuvent_contribuer_0_Layer0_0_MEMBER_34_FILL"/>
</g>

<g transform="matrix( 2.815704345703125, 0, 0, 2.832611083984375, -1.85,27.6) ">
<use xlink:href="#IT_640x480_FR_psd_Asset_V9_2_Les_solutions_de_r_seau_en_tant__que_service_peuvent_contribuer_0_Layer0_0_MEMBER_35_FILL"/>
</g>

<g transform="matrix( 2.815704345703125, 0, 0, 2.832611083984375, -1.85,27.6) ">
<use xlink:href="#IT_640x480_FR_psd_Asset_V9_2_Les_solutions_de_r_seau_en_tant__que_service_peuvent_contribuer_0_Layer0_0_MEMBER_36_FILL"/>
</g>

<g transform="matrix( 2.815704345703125, 0, 0, 2.832611083984375, -1.85,27.6) ">
<use xlink:href="#IT_640x480_FR_psd_Asset_V9_2_Les_solutions_de_r_seau_en_tant__que_service_peuvent_contribuer_0_Layer0_0_MEMBER_37_FILL"/>
</g>

<g transform="matrix( 2.815704345703125, 0, 0, 2.832611083984375, -1.85,27.6) ">
<use xlink:href="#IT_640x480_FR_psd_Asset_V9_2_Les_solutions_de_r_seau_en_tant__que_service_peuvent_contribuer_0_Layer0_0_MEMBER_38_FILL"/>
</g>

<g transform="matrix( 2.815704345703125, 0, 0, 2.832611083984375, -1.85,27.6) ">
<use xlink:href="#IT_640x480_FR_psd_Asset_V9_2_Les_solutions_de_r_seau_en_tant__que_service_peuvent_contribuer_0_Layer0_0_MEMBER_39_FILL"/>
</g>

<g transform="matrix( 2.815704345703125, 0, 0, 2.832611083984375, -1.85,27.6) ">
<use xlink:href="#IT_640x480_FR_psd_Asset_V9_2_Les_solutions_de_r_seau_en_tant__que_service_peuvent_contribuer_0_Layer0_0_MEMBER_40_FILL"/>
</g>

<g transform="matrix( 2.815704345703125, 0, 0, 2.832611083984375, -1.85,27.6) ">
<use xlink:href="#IT_640x480_FR_psd_Asset_V9_2_Les_solutions_de_r_seau_en_tant__que_service_peuvent_contribuer_0_Layer0_0_MEMBER_41_FILL"/>
</g>

<g transform="matrix( 2.815704345703125, 0, 0, 2.832611083984375, -1.85,27.6) ">
<use xlink:href="#IT_640x480_FR_psd_Asset_V9_2_Les_solutions_de_r_seau_en_tant__que_service_peuvent_contribuer_0_Layer0_0_MEMBER_42_FILL"/>
</g>

<g transform="matrix( 2.815704345703125, 0, 0, 2.832611083984375, -1.85,27.6) ">
<use xlink:href="#IT_640x480_FR_psd_Asset_V9_2_Les_solutions_de_r_seau_en_tant__que_service_peuvent_contribuer_0_Layer0_0_MEMBER_43_FILL"/>
</g>

<g transform="matrix( 2.815704345703125, 0, 0, 2.832611083984375, -1.85,27.6) ">
<use xlink:href="#IT_640x480_FR_psd_Asset_V9_2_Les_solutions_de_r_seau_en_tant__que_service_peuvent_contribuer_0_Layer0_0_MEMBER_44_FILL"/>
</g>

<g transform="matrix( 2.815704345703125, 0, 0, 2.832611083984375, -1.85,27.6) ">
<use xlink:href="#IT_640x480_FR_psd_Asset_V9_2_Les_solutions_de_r_seau_en_tant__que_service_peuvent_contribuer_0_Layer0_0_MEMBER_45_FILL"/>
</g>

<g transform="matrix( 2.815704345703125, 0, 0, 2.832611083984375, -1.85,27.6) ">
<use xlink:href="#IT_640x480_FR_psd_Asset_V9_2_Les_solutions_de_r_seau_en_tant__que_service_peuvent_contribuer_0_Layer0_0_MEMBER_46_FILL"/>
</g>

<g transform="matrix( 2.815704345703125, 0, 0, 2.832611083984375, -1.85,27.6) ">
<use xlink:href="#IT_640x480_FR_psd_Asset_V9_2_Les_solutions_de_r_seau_en_tant__que_service_peuvent_contribuer_0_Layer0_0_MEMBER_47_FILL"/>
</g>

<g transform="matrix( 2.815704345703125, 0, 0, 2.832611083984375, -1.85,27.6) ">
<use xlink:href="#IT_640x480_FR_psd_Asset_V9_2_Les_solutions_de_r_seau_en_tant__que_service_peuvent_contribuer_0_Layer0_0_MEMBER_48_FILL"/>
</g>

<g transform="matrix( 2.815704345703125, 0, 0, 2.832611083984375, -1.85,27.6) ">
<use xlink:href="#IT_640x480_FR_psd_Asset_V9_2_Les_solutions_de_r_seau_en_tant__que_service_peuvent_contribuer_0_Layer0_0_MEMBER_49_FILL"/>
</g>

<g transform="matrix( 2.815704345703125, 0, 0, 2.832611083984375, -1.85,27.6) ">
<use xlink:href="#IT_640x480_FR_psd_Asset_V9_2_Les_solutions_de_r_seau_en_tant__que_service_peuvent_contribuer_0_Layer0_0_MEMBER_50_FILL"/>
</g>

<g transform="matrix( 2.815704345703125, 0, 0, 2.832611083984375, -1.85,27.6) ">
<use xlink:href="#IT_640x480_FR_psd_Asset_V9_2_Les_solutions_de_r_seau_en_tant__que_service_peuvent_contribuer_0_Layer0_0_MEMBER_51_FILL"/>
</g>

<g transform="matrix( 2.815704345703125, 0, 0, 2.832611083984375, -1.85,27.6) ">
<use xlink:href="#IT_640x480_FR_psd_Asset_V9_2_Les_solutions_de_r_seau_en_tant__que_service_peuvent_contribuer_0_Layer0_0_MEMBER_52_FILL"/>
</g>

<g transform="matrix( 2.815704345703125, 0, 0, 2.832611083984375, -1.85,27.6) ">
<use xlink:href="#IT_640x480_FR_psd_Asset_V9_2_Les_solutions_de_r_seau_en_tant__que_service_peuvent_contribuer_0_Layer0_0_MEMBER_53_FILL"/>
</g>
</g>
</g>
</g>
</svg>
