
<svg xmlns="http://www.w3.org/2000/svg" version="1.1" xmlns:xlink="http://www.w3.org/1999/xlink" preserveAspectRatio="none" x="0px" y="0px" width="728px" height="90px" viewBox="0 0 728 90">
<defs>
<g id="IT_728x90_FR_psd_Asset_B___V5_2_Aidez_votre__quipe_des_TI___gagner_du_temps__0_Layer0_0_MEMBER_0_FILL">
<path fill="#D82C26" stroke="none" d="
M 3.4 -6.35
L 2.85 -6.35 0.1 0 0.7 0 1.65 -2.35 4.5 -2.35 5.45 0 6.05 0 3.4 -6.35
M 4.3 -2.8
L 1.85 -2.8 3.1 -5.8 4.3 -2.8 Z"/>
</g>

<g id="IT_728x90_FR_psd_Asset_B___V5_2_Aidez_votre__quipe_des_TI___gagner_du_temps__0_Layer0_0_MEMBER_1_FILL">
<path fill="#D82C26" stroke="none" d="
M 7.65 -4.2
L 7.1 -4.2 7.1 0 7.65 0 7.65 -4.2
M 7.35 -5.5
L 7.65 -5.6 7.75 -5.9 7.65 -6.15
Q 7.55 -6.25 7.35 -6.25 7.15 -6.25 7.1 -6.15 7 -6.1 7 -5.9 7 -5.7 7.1 -5.6
L 7.35 -5.5 Z"/>
</g>

<g id="IT_728x90_FR_psd_Asset_B___V5_2_Aidez_votre__quipe_des_TI___gagner_du_temps__0_Layer0_0_MEMBER_2_FILL">
<path fill="#D82C26" stroke="none" d="
M 9.2 -0.95
Q 9.6 -0.4 9.95 -0.2 10.5 0.1 11.05 0.1 11.7 0.1 12.05 -0.15 12.5 -0.45 12.8 -0.9
L 12.85 0 13.35 0 13.3 -6.9 12.8 -6.8 12.8 -3.3 12.75 -3.3
Q 12.55 -3.8 12.05 -4.05 11.6 -4.35 11.05 -4.35 10.5 -4.35 9.95 -4.05 9.55 -3.8 9.2 -3.25 8.95 -2.65 8.95 -2.1 8.95 -1.55 9.2 -0.95
M 9.5 -2.1
Q 9.5 -2.6 9.7 -3 9.85 -3.4 10.25 -3.65 10.65 -3.9 11.15 -3.9 11.6 -3.9 12 -3.65 12.35 -3.45 12.6 -3 12.8 -2.6 12.8 -2.1 12.8 -1.6 12.6 -1.2 12.4 -0.85 12 -0.55 11.6 -0.3 11.15 -0.3 10.65 -0.3 10.25 -0.55 9.85 -0.8 9.7 -1.2 9.5 -1.6 9.5 -2.1 Z"/>
</g>

<g id="IT_728x90_FR_psd_Asset_B___V5_2_Aidez_votre__quipe_des_TI___gagner_du_temps__0_Layer0_0_MEMBER_3_FILL">
<path fill="#D82C26" stroke="none" d="
M 14.65 -2.15
Q 14.65 -1.55 14.9 -0.95 15.2 -0.45 15.7 -0.15 16.15 0.15 16.8 0.15 17.75 0.15 18.45 -0.4
L 18.4 -0.85 17.7 -0.45
Q 17.35 -0.3 16.85 -0.3 16.35 -0.3 15.95 -0.55 15.6 -0.75 15.35 -1.15 15.15 -1.65 15.15 -2.05
L 18.7 -2.05 18.7 -2.25
Q 18.7 -2.9 18.5 -3.3 18.3 -3.7 17.8 -4.05 17.35 -4.35 16.7 -4.35 16.1 -4.35 15.65 -4.05 15.2 -3.75 14.9 -3.25 14.65 -2.85 14.65 -2.15
M 15.9 -3.7
Q 16.15 -3.9 16.7 -3.9 17.45 -3.9 17.8 -3.5 18.2 -3.1 18.2 -2.4
L 15.15 -2.4
Q 15.15 -2.6 15.35 -3.1 15.6 -3.5 15.9 -3.7 Z"/>
</g>

<g id="IT_728x90_FR_psd_Asset_B___V5_2_Aidez_votre__quipe_des_TI___gagner_du_temps__0_Layer0_0_MEMBER_4_FILL">
<path fill="#D82C26" stroke="none" d="
M 22.15 -3.8
L 19.6 -0.4 19.6 0 22.85 0 22.95 -0.45 20.2 -0.45 22.8 -3.8 22.8 -4.2 19.75 -4.2 19.6 -3.8 22.15 -3.8 Z"/>
</g>

<g id="IT_728x90_FR_psd_Asset_B___V5_2_Aidez_votre__quipe_des_TI___gagner_du_temps__0_Layer0_0_MEMBER_5_FILL">
<path fill="#D82C26" stroke="none" d="
M 25.95 -4.2
L 25.4 -4.2 27 0 27.6 0 29.2 -4.2 28.65 -4.2 27.35 -0.55 25.95 -4.2 Z"/>
</g>

<g id="IT_728x90_FR_psd_Asset_B___V5_2_Aidez_votre__quipe_des_TI___gagner_du_temps__0_Layer0_0_MEMBER_6_FILL">
<path fill="#D82C26" stroke="none" d="
M 29.75 -2.1
Q 29.75 -1.45 30.05 -0.95 30.35 -0.45 30.85 -0.15 31.4 0.15 32 0.15 32.65 0.15 33.15 -0.15 33.65 -0.45 33.95 -0.95 34.25 -1.45 34.25 -2.1 34.25 -2.8 33.95 -3.25 33.65 -3.75 33.15 -4.05 32.65 -4.35 32 -4.35 31.4 -4.35 30.85 -4.05 30.35 -3.75 30.05 -3.25 29.75 -2.8 29.75 -2.1
M 32 -3.9
Q 32.5 -3.9 32.9 -3.65 33.3 -3.4 33.5 -3 33.7 -2.65 33.7 -2.1 33.7 -1.6 33.5 -1.2 33.25 -0.8 32.9 -0.55 32.5 -0.3 32 -0.3 31.5 -0.3 31.1 -0.55 30.7 -0.85 30.5 -1.2 30.3 -1.6 30.3 -2.1 30.3 -2.65 30.5 -3 30.7 -3.4 31.1 -3.65 31.5 -3.9 32 -3.9 Z"/>
</g>

<g id="IT_728x90_FR_psd_Asset_B___V5_2_Aidez_votre__quipe_des_TI___gagner_du_temps__0_Layer0_0_MEMBER_7_FILL">
<path fill="#D82C26" stroke="none" d="
M 34.9 -4.2
L 34.8 -3.8 35.6 -3.8 35.6 -1
Q 35.6 -0.55 35.85 -0.2 36.15 0.1 36.55 0.1
L 37.05 0.05 37.45 -0.15 37.4 -0.55
Q 37.05 -0.35 36.7 -0.35 36.45 -0.35 36.3 -0.5 36.1 -0.7 36.1 -1.1
L 36.1 -3.8 37.2 -3.8 37.3 -4.2 36.1 -4.2 36.1 -5.4 35.6 -5.2 35.6 -4.2 34.9 -4.2 Z"/>
</g>

<g id="IT_728x90_FR_psd_Asset_B___V5_2_Aidez_votre__quipe_des_TI___gagner_du_temps__0_Layer0_0_MEMBER_8_FILL">
<path fill="#D82C26" stroke="none" d="
M 38.95 -4.2
L 38.45 -4.2 38.5 0 39 0 39 -2.1
Q 39 -2.75 39.35 -3.35 39.65 -3.85 40.2 -3.85
L 40.6 -3.8 40.7 -4.25 40.25 -4.35
Q 39.9 -4.35 39.5 -4.05 39.15 -3.65 39 -3.3
L 38.95 -4.2 Z"/>
</g>

<g id="IT_728x90_FR_psd_Asset_B___V5_2_Aidez_votre__quipe_des_TI___gagner_du_temps__0_Layer0_0_MEMBER_9_FILL">
<path fill="#D82C26" stroke="none" d="
M 44.35 -4.05
Q 43.9 -4.35 43.25 -4.35 42.65 -4.35 42.2 -4.05 41.75 -3.75 41.45 -3.25 41.2 -2.85 41.2 -2.15 41.2 -1.4 41.45 -0.95 41.75 -0.45 42.2 -0.15 42.75 0.15 43.35 0.15 44.3 0.15 45 -0.4
L 44.9 -0.85 44.25 -0.45
Q 43.8 -0.3 43.4 -0.3 42.9 -0.3 42.5 -0.55 42.15 -0.75 41.9 -1.15 41.7 -1.5 41.7 -2.05
L 45.25 -2.05 45.25 -2.25
Q 45.25 -2.9 45.05 -3.3 44.85 -3.7 44.35 -4.05
M 43.25 -3.9
Q 43.95 -3.9 44.35 -3.5 44.75 -3.1 44.75 -2.4
L 41.7 -2.4
Q 41.7 -2.6 41.9 -3.1 42.05 -3.45 42.45 -3.7 42.7 -3.9 43.25 -3.9 Z"/>
</g>

<g id="IT_728x90_FR_psd_Asset_B___V5_2_Aidez_votre__quipe_des_TI___gagner_du_temps__0_Layer0_0_MEMBER_10_FILL">
<path fill="#D82C26" stroke="none" d="
M 49.35 -4.05
Q 48.9 -3.75 48.6 -3.25 48.35 -2.75 48.35 -2.15 48.35 -1.55 48.6 -0.95 48.9 -0.45 49.4 -0.15 49.85 0.15 50.5 0.15 51.45 0.15 52.15 -0.4
L 52.1 -0.85 51.4 -0.45
Q 51.05 -0.3 50.55 -0.3 50.05 -0.3 49.65 -0.55 49.3 -0.75 49.05 -1.15 48.85 -1.65 48.85 -2.05
L 52.4 -2.05 52.4 -2.25
Q 52.4 -2.9 52.2 -3.3 52 -3.7 51.5 -4.05 51.05 -4.35 50.4 -4.35 49.9 -4.35 49.35 -4.05
M 49.6 -3.7
Q 49.95 -3.9 50.4 -3.9 51.15 -3.9 51.5 -3.5 51.9 -3.1 51.9 -2.4
L 48.85 -2.4
Q 48.85 -2.6 49.05 -3.1 49.3 -3.5 49.6 -3.7
M 50.05 -5.05
L 50.5 -5.05 51.6 -6.35 50.95 -6.35 50.05 -5.05 Z"/>
</g>

<g id="IT_728x90_FR_psd_Asset_B___V5_2_Aidez_votre__quipe_des_TI___gagner_du_temps__0_Layer0_0_MEMBER_11_FILL">
<path fill="#D82C26" stroke="none" d="
M 54.5 -4.05
Q 53.95 -3.75 53.75 -3.25 53.45 -2.7 53.45 -2.1 53.45 -1.45 53.75 -0.95 54 -0.4 54.5 -0.2 54.95 0.1 55.6 0.1 56.25 0.1 56.6 -0.15 56.95 -0.4 57.3 -0.9
L 57.3 1
Q 57.3 1.95 58.2 2.15
L 58.45 1.7
Q 58.15 1.65 57.95 1.45 57.85 1.3 57.85 0.9
L 57.85 -4.2 57.35 -4.2 57.3 -3.3
Q 57.1 -3.7 56.6 -4.05 56.15 -4.35 55.6 -4.35 54.95 -4.35 54.5 -4.05
M 54.8 -3.65
Q 55.2 -3.9 55.65 -3.9 56.1 -3.9 56.5 -3.65 56.85 -3.45 57.1 -3 57.35 -2.5 57.35 -2.1 57.35 -1.7 57.1 -1.2 56.9 -0.85 56.5 -0.55 56.1 -0.3 55.65 -0.3 55.2 -0.3 54.8 -0.55 54.45 -0.75 54.2 -1.2 54 -1.6 54 -2.1 54 -2.6 54.2 -3 54.45 -3.45 54.8 -3.65 Z"/>
</g>

<g id="IT_728x90_FR_psd_Asset_B___V5_2_Aidez_votre__quipe_des_TI___gagner_du_temps__0_Layer0_0_MEMBER_12_FILL">
<path fill="#D82C26" stroke="none" d="
M 59.4 -1.65
Q 59.4 -0.8 59.75 -0.4 60.1 0.1 60.9 0.1 61.35 0.1 61.85 -0.15 62.3 -0.45 62.45 -0.9
L 62.55 0 63.05 0 62.95 -1 62.95 -4.2 62.45 -4.2 62.45 -2.1
Q 62.45 -1.5 62.25 -1.15 62.1 -0.7 61.75 -0.55 61.4 -0.3 61.05 -0.3 60.45 -0.3 60.15 -0.75 59.9 -1.15 59.9 -1.8
L 59.9 -4.2 59.4 -4.2 59.4 -1.65 Z"/>
</g>

<g id="IT_728x90_FR_psd_Asset_B___V5_2_Aidez_votre__quipe_des_TI___gagner_du_temps__0_Layer0_0_MEMBER_13_FILL">
<path fill="#D82C26" stroke="none" d="
M 65.15 -4.2
L 64.6 -4.2 64.6 0 65.15 0 65.15 -4.2
M 64.85 -5.5
L 65.15 -5.6 65.25 -5.9 65.15 -6.15
Q 65.05 -6.25 64.85 -6.25 64.65 -6.25 64.6 -6.15 64.5 -6.1 64.5 -5.9 64.5 -5.7 64.6 -5.6
L 64.85 -5.5 Z"/>
</g>

<g id="IT_728x90_FR_psd_Asset_B___V5_2_Aidez_votre__quipe_des_TI___gagner_du_temps__0_Layer0_0_MEMBER_14_FILL">
<path fill="#D82C26" stroke="none" d="
M 70.1 -4.05
Q 69.6 -4.35 69 -4.35 68.45 -4.35 68 -4.05 67.5 -3.7 67.3 -3.3
L 67.25 -3.3 67.2 -4.2 66.7 -4.2 66.75 2.15 67.25 2.15 67.25 -0.9 67.3 -0.9
Q 67.5 -0.45 68 -0.15 68.4 0.1 69 0.1 69.6 0.1 70.1 -0.2 70.5 -0.4 70.85 -0.95 71.1 -1.55 71.1 -2.1 71.1 -2.65 70.85 -3.25 70.55 -3.75 70.1 -4.05
M 68.9 -3.9
Q 69.4 -3.9 69.8 -3.65 70.2 -3.4 70.35 -3 70.55 -2.6 70.55 -2.1 70.55 -1.6 70.35 -1.2 70.2 -0.8 69.8 -0.55 69.4 -0.3 68.9 -0.3 68.45 -0.3 68.05 -0.55 67.65 -0.85 67.45 -1.2 67.25 -1.6 67.25 -2.1 67.25 -2.6 67.45 -3 67.7 -3.45 68.05 -3.65 68.45 -3.9 68.9 -3.9 Z"/>
</g>

<g id="IT_728x90_FR_psd_Asset_B___V5_2_Aidez_votre__quipe_des_TI___gagner_du_temps__0_Layer0_0_MEMBER_15_FILL">
<path fill="#D82C26" stroke="none" d="
M 75.35 -4.05
Q 74.9 -4.35 74.25 -4.35 73.65 -4.35 73.2 -4.05 72.65 -3.75 72.45 -3.25 72.15 -2.8 72.15 -2.15 72.15 -1.45 72.45 -0.95 72.75 -0.45 73.2 -0.15 73.75 0.15 74.3 0.15 75.3 0.15 76 -0.4
L 75.9 -0.85 75.25 -0.45
Q 74.8 -0.3 74.35 -0.3 73.9 -0.3 73.5 -0.55 73.15 -0.75 72.9 -1.15 72.7 -1.5 72.7 -2.05
L 76.25 -2.05 76.25 -2.25
Q 76.25 -2.8 76 -3.3 75.75 -3.75 75.35 -4.05
M 74.25 -3.9
Q 74.95 -3.9 75.35 -3.5 75.75 -3.1 75.75 -2.4
L 72.7 -2.4
Q 72.7 -2.75 72.9 -3.1 73.05 -3.4 73.4 -3.7 73.75 -3.9 74.25 -3.9 Z"/>
</g>

<g id="IT_728x90_FR_psd_Asset_B___V5_2_Aidez_votre__quipe_des_TI___gagner_du_temps__0_Layer0_0_MEMBER_16_FILL">
<path fill="#D82C26" stroke="none" d="
M 79.6 -0.95
Q 79.85 -0.4 80.35 -0.2 80.8 0.1 81.45 0.1 82.1 0.1 82.45 -0.15 82.95 -0.45 83.15 -0.9
L 83.2 -0.9 83.2 0 83.7 0 83.7 -6.9 83.15 -6.8 83.15 -3.3
Q 82.85 -3.85 82.45 -4.05 82 -4.35 81.45 -4.35 80.8 -4.35 80.35 -4.05 79.85 -3.75 79.6 -3.25 79.3 -2.7 79.3 -2.1 79.3 -1.45 79.6 -0.95
M 80.05 -3
Q 80.3 -3.45 80.65 -3.65 81.05 -3.9 81.5 -3.9 81.95 -3.9 82.35 -3.65 82.7 -3.45 82.95 -3 83.2 -2.5 83.2 -2.1 83.2 -1.7 82.95 -1.2 82.75 -0.85 82.35 -0.55 81.95 -0.3 81.5 -0.3 81.05 -0.3 80.65 -0.55 80.3 -0.75 80.05 -1.2 79.85 -1.6 79.85 -2.1 79.85 -2.6 80.05 -3 Z"/>
</g>

<g id="IT_728x90_FR_psd_Asset_B___V5_2_Aidez_votre__quipe_des_TI___gagner_du_temps__0_Layer0_0_MEMBER_17_FILL">
<path fill="#D82C26" stroke="none" d="
M 85.3 -0.95
Q 85.5 -0.45 86.05 -0.15 86.6 0.15 87.15 0.15 88.05 0.15 88.85 -0.4
L 88.75 -0.85
Q 88.35 -0.55 88.05 -0.45 87.7 -0.3 87.2 -0.3 86.75 -0.3 86.35 -0.55 86 -0.75 85.75 -1.15 85.5 -1.55 85.5 -2.05
L 89.1 -2.05 89.1 -2.25
Q 89.1 -2.8 88.85 -3.3 88.65 -3.7 88.15 -4.05 87.7 -4.35 87.1 -4.35 86.5 -4.35 86.05 -4.05 85.5 -3.75 85.3 -3.25 85 -2.8 85 -2.15 85 -1.45 85.3 -0.95
M 85.55 -2.4
Q 85.55 -2.75 85.75 -3.1 85.9 -3.4 86.25 -3.7 86.6 -3.9 87.1 -3.9 87.8 -3.9 88.15 -3.5 88.6 -3.1 88.6 -2.4
L 85.55 -2.4 Z"/>
</g>

<g id="IT_728x90_FR_psd_Asset_B___V5_2_Aidez_votre__quipe_des_TI___gagner_du_temps__0_Layer0_0_MEMBER_18_FILL">
<path fill="#D82C26" stroke="none" d="
M 90.15 -0.8
L 90.05 -0.35 90.7 0 91.55 0.1 92.25 0
Q 92.55 -0.1 92.8 -0.45 93 -0.7 93 -1.1 93 -1.55 92.7 -1.85 92.45 -2.1 91.7 -2.35
L 90.9 -2.7
Q 90.65 -2.9 90.65 -3.2 90.65 -3.5 90.9 -3.75 91.15 -3.9 91.55 -3.9 91.95 -3.9 92.15 -3.8
L 92.65 -3.5 92.9 -3.9 92.3 -4.2 91.55 -4.35
Q 91.25 -4.35 90.85 -4.2 90.55 -4.05 90.35 -3.8 90.15 -3.6 90.15 -3.2 90.15 -2.65 90.45 -2.45
L 91.35 -2
Q 92.05 -1.75 92.2 -1.6 92.5 -1.35 92.5 -1.1 92.5 -0.7 92.2 -0.5 92 -0.3 91.55 -0.3 90.7 -0.3 90.15 -0.8 Z"/>
</g>

<g id="IT_728x90_FR_psd_Asset_B___V5_2_Aidez_votre__quipe_des_TI___gagner_du_temps__0_Layer0_0_MEMBER_19_FILL">
<path fill="#D82C26" stroke="none" d="
M 95.55 -5.85
L 97.6 -5.85 97.6 0 98.15 0 98.15 -5.85 100.05 -5.85 100.15 -6.35 95.65 -6.35 95.55 -5.85 Z"/>
</g>

<g id="IT_728x90_FR_psd_Asset_B___V5_2_Aidez_votre__quipe_des_TI___gagner_du_temps__0_Layer0_0_MEMBER_20_FILL">
<path fill="#D82C26" stroke="none" d="
M 101.75 -6.35
L 101.2 -6.35 101.2 0 101.75 0 101.75 -6.35 Z"/>
</g>

<g id="IT_728x90_FR_psd_Asset_B___V5_2_Aidez_votre__quipe_des_TI___gagner_du_temps__0_Layer0_0_MEMBER_21_FILL">
<path fill="#D82C26" stroke="none" d="
M 105.2 -1.15
Q 105.2 -0.5 105.6 -0.2 106.05 0.1 106.55 0.1 107.1 0.1 107.5 -0.1 107.95 -0.4 108.15 -0.8
L 108.2 -0.4 108.2 0 108.7 0 108.65 -2.75
Q 108.65 -3.5 108.2 -3.95 107.8 -4.35 107 -4.35 106.6 -4.35 106.15 -4.2 105.65 -4 105.45 -3.8
L 105.6 -3.4 106.25 -3.75 106.95 -3.9
Q 107.5 -3.9 107.8 -3.6 108.15 -3.4 108.15 -2.75
L 108.15 -2.5 107.65 -2.5
Q 105.2 -2.5 105.2 -1.15
M 106 -0.5
Q 105.75 -0.7 105.75 -1.15 105.75 -2.15 107.7 -2.15
L 108.15 -2.15 108.15 -1.75
Q 108.15 -1.4 108 -1.05
L 107.5 -0.5
Q 107.15 -0.3 106.65 -0.3 106.25 -0.3 106 -0.5
M 107.15 -5.05
L 107.6 -5.05 106.65 -6.35 106.05 -6.35 107.15 -5.05 Z"/>
</g>

<g id="IT_728x90_FR_psd_Asset_B___V5_2_Aidez_votre__quipe_des_TI___gagner_du_temps__0_Layer0_0_MEMBER_22_FILL">
<path fill="#D82C26" stroke="none" d="
M 115.1 -4.05
Q 114.65 -4.35 114.1 -4.35 113.45 -4.35 113 -4.05 112.5 -3.75 112.25 -3.25 112 -2.8 112 -2.1 112 -1.35 112.25 -1 112.45 -0.5 113 -0.2 113.45 0.1 114.1 0.1 114.65 0.1 115.1 -0.2 115.6 -0.5 115.8 -0.95
L 115.8 -0.05
Q 115.8 0.75 115.4 1.3 114.95 1.75 114.05 1.75 113.6 1.75 113.15 1.6
L 112.35 1.2 112.25 1.7
Q 112.75 2 113.1 2.05 113.55 2.2 114.1 2.2 115.3 2.2 115.8 1.6 116.35 0.95 116.35 -0.05
L 116.35 -4.2 115.85 -4.2 115.8 -3.3
Q 115.6 -3.7 115.1 -4.05
M 114.15 -3.9
Q 114.6 -3.9 115 -3.65 115.4 -3.4 115.6 -3 115.85 -2.6 115.85 -2.1 115.85 -1.65 115.6 -1.25 115.4 -0.85 115 -0.6 114.6 -0.35 114.15 -0.35 113.7 -0.35 113.3 -0.6 112.9 -0.85 112.7 -1.25 112.5 -1.75 112.5 -2.1 112.5 -2.5 112.7 -3 112.95 -3.45 113.3 -3.65 113.7 -3.9 114.15 -3.9 Z"/>
</g>

<g id="IT_728x90_FR_psd_Asset_B___V5_2_Aidez_votre__quipe_des_TI___gagner_du_temps__0_Layer0_0_MEMBER_23_FILL">
<path fill="#D82C26" stroke="none" d="
M 119.35 -3.9
Q 119.9 -3.9 120.2 -3.6 120.55 -3.4 120.55 -2.75
L 120.55 -2.5 120.05 -2.5
Q 117.6 -2.5 117.6 -1.15 117.6 -0.5 118 -0.2 118.45 0.1 118.95 0.1 119.5 0.1 119.9 -0.1 120.35 -0.4 120.55 -0.8
L 120.6 -0.4 120.6 0 121.1 0 121.05 -2.75
Q 121.05 -3.5 120.6 -3.95 120.2 -4.35 119.4 -4.35 119 -4.35 118.55 -4.2 118.05 -4 117.85 -3.8
L 118 -3.4 118.65 -3.75
Q 119.05 -3.9 119.35 -3.9
M 118.4 -0.5
Q 118.15 -0.7 118.15 -1.15 118.15 -2.15 120.1 -2.15
L 120.55 -2.15 120.55 -1.75
Q 120.55 -1.4 120.4 -1.05
L 119.9 -0.5
Q 119.55 -0.3 119.05 -0.3 118.65 -0.3 118.4 -0.5 Z"/>
</g>

<g id="IT_728x90_FR_psd_Asset_B___V5_2_Aidez_votre__quipe_des_TI___gagner_du_temps__0_Layer0_0_MEMBER_24_FILL">
<path fill="#D82C26" stroke="none" d="
M 125.4 -4.05
Q 124.95 -4.35 124.4 -4.35 123.8 -4.35 123.35 -4.05 122.85 -3.75 122.6 -3.25 122.3 -2.7 122.3 -2.1 122.3 -1.45 122.6 -1 122.8 -0.55 123.3 -0.2 123.85 0.1 124.4 0.1 124.95 0.1 125.45 -0.2 125.8 -0.45 126.15 -0.95
L 126.15 -0.05
Q 126.15 0.75 125.75 1.3 125.3 1.75 124.4 1.75 123.95 1.75 123.5 1.6
L 122.7 1.2 122.6 1.7
Q 123.1 2 123.45 2.05
L 124.45 2.2
Q 125.6 2.2 126.1 1.6 126.65 1.05 126.65 -0.05
L 126.7 -4.2 126.2 -4.2 126.15 -3.3
Q 125.8 -3.8 125.4 -4.05
M 124.5 -3.9
Q 124.95 -3.9 125.35 -3.65 125.75 -3.4 125.95 -3 126.15 -2.65 126.15 -2.1 126.15 -1.6 125.95 -1.25 125.75 -0.85 125.35 -0.6 124.95 -0.35 124.5 -0.35 124 -0.35 123.6 -0.6 123.3 -0.8 123.05 -1.25 122.85 -1.6 122.85 -2.1 122.85 -2.65 123.05 -3 123.35 -3.5 123.6 -3.65 124 -3.9 124.5 -3.9 Z"/>
</g>

<g id="IT_728x90_FR_psd_Asset_B___V5_2_Aidez_votre__quipe_des_TI___gagner_du_temps__0_Layer0_0_MEMBER_25_FILL">
<path fill="#D82C26" stroke="none" d="
M 130.3 -4.35
Q 129.85 -4.35 129.4 -4.05 128.95 -3.75 128.8 -3.3
L 128.75 -4.2 128.25 -4.2 128.3 0 128.8 0 128.8 -2.15
Q 128.8 -2.7 129 -3.1 129.15 -3.4 129.5 -3.7 129.9 -3.9 130.2 -3.9 130.8 -3.9 131.1 -3.45 131.35 -3.05 131.35 -2.45
L 131.35 0 131.9 0 131.9 -2.55
Q 131.9 -3.3 131.5 -3.85 131.1 -4.35 130.3 -4.35 Z"/>
</g>

<g id="IT_728x90_FR_psd_Asset_B___V5_2_Aidez_votre__quipe_des_TI___gagner_du_temps__0_Layer0_0_MEMBER_26_FILL">
<path fill="#D82C26" stroke="none" d="
M 136.35 -4.05
Q 135.9 -4.35 135.25 -4.35 134.65 -4.35 134.2 -4.05 133.75 -3.75 133.45 -3.25 133.15 -2.8 133.15 -2.15 133.15 -1.45 133.45 -0.95 133.75 -0.45 134.2 -0.15 134.75 0.15 135.35 0.15 136.3 0.15 137 -0.4
L 136.9 -0.85 136.25 -0.45
Q 135.8 -0.3 135.35 -0.3 134.9 -0.3 134.5 -0.55 134.15 -0.75 133.9 -1.15 133.7 -1.5 133.7 -2.05
L 137.25 -2.05 137.25 -2.25
Q 137.25 -2.9 137.05 -3.3 136.7 -3.8 136.35 -4.05
M 135.25 -3.9
Q 135.95 -3.9 136.35 -3.5 136.75 -3.1 136.75 -2.4
L 133.7 -2.4
Q 133.7 -2.75 133.9 -3.1 134.05 -3.45 134.45 -3.7 134.7 -3.9 135.25 -3.9 Z"/>
</g>

<g id="IT_728x90_FR_psd_Asset_B___V5_2_Aidez_votre__quipe_des_TI___gagner_du_temps__0_Layer0_0_MEMBER_27_FILL">
<path fill="#D82C26" stroke="none" d="
M 140.3 -4.35
Q 139.9 -4.35 139.6 -4.05 139.25 -3.8 139.1 -3.3
L 139.05 -3.3 139 -4.2 138.5 -4.2 138.55 0 139.1 0 139.1 -2.1
Q 139.1 -2.8 139.4 -3.35 139.7 -3.85 140.3 -3.85
L 140.65 -3.8 140.75 -4.25 140.3 -4.35 Z"/>
</g>

<g id="IT_728x90_FR_psd_Asset_B___V5_2_Aidez_votre__quipe_des_TI___gagner_du_temps__0_Layer0_0_MEMBER_28_FILL">
<path fill="#D82C26" stroke="none" d="
M 147.7 -6.9
L 147.2 -6.8 147.2 -3.3
Q 146.9 -3.8 146.45 -4.05 146 -4.35 145.45 -4.35 144.9 -4.35 144.35 -4.05 143.95 -3.8 143.6 -3.25 143.35 -2.65 143.35 -2.1 143.35 -1.55 143.6 -0.95 144 -0.4 144.35 -0.2 144.9 0.1 145.45 0.1 146.1 0.1 146.45 -0.15 146.85 -0.4 147.2 -0.9
L 147.25 0 147.75 0 147.7 -6.9
M 145.55 -3.9
Q 146 -3.9 146.4 -3.65 146.75 -3.45 147 -3 147.2 -2.6 147.2 -2.1 147.2 -1.6 147 -1.2 146.8 -0.85 146.4 -0.55 146 -0.3 145.55 -0.3 145.05 -0.3 144.65 -0.55 144.4 -0.7 144.1 -1.2 143.9 -1.6 143.9 -2.1 143.9 -2.6 144.1 -3 144.4 -3.5 144.65 -3.65 145.05 -3.9 145.55 -3.9 Z"/>
</g>

<g id="IT_728x90_FR_psd_Asset_B___V5_2_Aidez_votre__quipe_des_TI___gagner_du_temps__0_Layer0_0_MEMBER_29_FILL">
<path fill="#D82C26" stroke="none" d="
M 149.25 -1.65
Q 149.25 -0.9 149.65 -0.4 150 0.1 150.8 0.1 151.25 0.1 151.75 -0.15 152.15 -0.45 152.35 -0.9
L 152.4 0 152.95 0 152.85 -1 152.85 -4.2 152.35 -4.2 152.35 -2.1
Q 152.35 -1.65 152.15 -1.15 152 -0.75 151.65 -0.55 151.3 -0.3 150.95 -0.3 150.3 -0.3 150.05 -0.75 149.8 -1.15 149.8 -1.8
L 149.8 -4.2 149.25 -4.2 149.25 -1.65 Z"/>
</g>

<g id="IT_728x90_FR_psd_Asset_B___V5_2_Aidez_votre__quipe_des_TI___gagner_du_temps__0_Layer0_0_MEMBER_30_FILL">
<path fill="#D82C26" stroke="none" d="
M 156.7 -3.8
L 156.7 -1
Q 156.7 -0.45 156.95 -0.2 157.2 0.1 157.65 0.1
L 158.15 0.05 158.55 -0.15 158.5 -0.55
Q 158.15 -0.35 157.8 -0.35 157.6 -0.35 157.35 -0.5 157.2 -0.7 157.2 -1.1
L 157.2 -3.8 158.3 -3.8 158.4 -4.2 157.2 -4.2 157.2 -5.4 156.65 -5.2 156.65 -4.2 156 -4.2 155.9 -3.8 156.7 -3.8 Z"/>
</g>

<g id="IT_728x90_FR_psd_Asset_B___V5_2_Aidez_votre__quipe_des_TI___gagner_du_temps__0_Layer0_0_MEMBER_31_FILL">
<path fill="#D82C26" stroke="none" d="
M 161.2 -4.35
Q 160.7 -4.35 160.15 -4.05 159.7 -3.75 159.4 -3.25 159.15 -2.75 159.15 -2.15 159.15 -1.55 159.4 -0.95 159.7 -0.45 160.2 -0.15 160.65 0.15 161.3 0.15 162.25 0.15 162.95 -0.4
L 162.9 -0.85 162.2 -0.45
Q 161.85 -0.3 161.35 -0.3 160.95 -0.3 160.45 -0.55 160.05 -0.8 159.9 -1.15 159.65 -1.55 159.65 -2.05
L 163.2 -2.05 163.25 -2.25
Q 163.25 -2.8 163 -3.3 162.8 -3.7 162.3 -4.05 161.85 -4.35 161.2 -4.35
M 160.4 -3.7
Q 160.75 -3.9 161.2 -3.9 161.95 -3.9 162.3 -3.5 162.7 -3.1 162.7 -2.4
L 159.65 -2.4
Q 159.65 -2.6 159.85 -3.1 160.1 -3.5 160.4 -3.7 Z"/>
</g>

<g id="IT_728x90_FR_psd_Asset_B___V5_2_Aidez_votre__quipe_des_TI___gagner_du_temps__0_Layer0_0_MEMBER_32_FILL">
<path fill="#D82C26" stroke="none" d="
M 165 -4.2
L 164.5 -4.2 164.55 0 165.05 0 165.05 -2.1
Q 165.05 -2.55 165.25 -3.05 165.4 -3.45 165.7 -3.7 166.1 -3.9 166.4 -3.9 166.9 -3.9 167.2 -3.5 167.45 -3.15 167.45 -2.5
L 167.45 0 168 0 168 -2.15
Q 168 -3 168.35 -3.4 168.7 -3.9 169.3 -3.9 169.95 -3.9 170.15 -3.45 170.4 -3.15 170.4 -2.4
L 170.4 0 170.95 0 170.95 -2.5
Q 170.95 -3.3 170.55 -3.8 170.25 -4.35 169.4 -4.35 168.9 -4.35 168.5 -4.05 168.05 -3.75 167.9 -3.25 167.8 -3.65 167.4 -4.05 167.05 -4.35 166.5 -4.35 166.05 -4.35 165.65 -4.05 165.3 -3.8 165.05 -3.3
L 165 -4.2 Z"/>
</g>

<g id="IT_728x90_FR_psd_Asset_B___V5_2_Aidez_votre__quipe_des_TI___gagner_du_temps__0_Layer0_0_MEMBER_33_FILL">
<path fill="#D82C26" stroke="none" d="
M 175.85 -4.05
Q 175.35 -4.35 174.75 -4.35 174.2 -4.35 173.75 -4.05 173.25 -3.7 173.05 -3.3
L 173 -3.3 172.95 -4.2 172.45 -4.2 172.5 2.15 173 2.15 173 -0.9 173.05 -0.9
Q 173.25 -0.45 173.75 -0.15 174.15 0.1 174.75 0.1 175.35 0.1 175.85 -0.2 176.25 -0.4 176.6 -0.95 176.85 -1.55 176.85 -2.1 176.85 -2.65 176.6 -3.25 176.3 -3.75 175.85 -4.05
M 173.8 -3.65
Q 174.2 -3.9 174.65 -3.9 175.15 -3.9 175.55 -3.65 175.95 -3.4 176.1 -3 176.3 -2.6 176.3 -2.1 176.3 -1.6 176.1 -1.2 175.95 -0.8 175.55 -0.55 175.15 -0.3 174.65 -0.3 174.2 -0.3 173.8 -0.55 173.4 -0.85 173.2 -1.2 173 -1.6 173 -2.1 173 -2.6 173.2 -3 173.45 -3.45 173.8 -3.65 Z"/>
</g>

<g id="IT_728x90_FR_psd_Asset_B___V5_2_Aidez_votre__quipe_des_TI___gagner_du_temps__0_Layer0_0_MEMBER_34_FILL">
<path fill="#D82C26" stroke="none" d="
M 180.65 -3.9
L 180.05 -4.2 179.3 -4.35 178.6 -4.2
Q 178.3 -4.05 178.1 -3.8 177.9 -3.6 177.9 -3.2 177.9 -2.65 178.2 -2.45
L 179.1 -2
Q 179.85 -1.7 180 -1.6 180.25 -1.35 180.25 -1.1 180.25 -0.7 179.95 -0.5 179.75 -0.3 179.3 -0.3 178.45 -0.3 177.9 -0.8
L 177.8 -0.35 178.45 0 179.3 0.1 180 0
Q 180.3 -0.1 180.55 -0.45 180.75 -0.7 180.75 -1.1 180.75 -1.55 180.45 -1.85 180.2 -2.1 179.45 -2.35
L 178.65 -2.7
Q 178.4 -2.9 178.4 -3.2 178.4 -3.5 178.65 -3.75 178.9 -3.9 179.3 -3.9 179.7 -3.9 179.9 -3.8
L 180.4 -3.5 180.65 -3.9 Z"/>
</g>

<g id="IT_728x90_FR_psd_Asset_B___V5_2_Aidez_votre__quipe_des_TI___gagner_du_temps__0_Layer0_0_MEMBER_35_FILL">
<path fill="#D82C26" stroke="none" d="
M 182 -0.35
L 182.1 -0.05 182.4 0.05 182.7 -0.05 182.8 -0.35 182.7 -0.65 182.4 -0.75 182.1 -0.65 182 -0.35 Z"/>
</g>
</defs>

<g transform="matrix( 1, 0, 0, 1, -182,-98) ">
<g transform="matrix( 1, 0, 0, 1, 182,111) ">
<g transform="matrix( 1, 0, 0, 1, 24,22) ">
<g transform="matrix( 2.6895904541015625, 0, 0, 2.672393798828125, 0.15,18.55) ">
<use xlink:href="#IT_728x90_FR_psd_Asset_B___V5_2_Aidez_votre__quipe_des_TI___gagner_du_temps__0_Layer0_0_MEMBER_0_FILL"/>
</g>

<g transform="matrix( 2.6895904541015625, 0, 0, 2.672393798828125, 0.15,18.55) ">
<use xlink:href="#IT_728x90_FR_psd_Asset_B___V5_2_Aidez_votre__quipe_des_TI___gagner_du_temps__0_Layer0_0_MEMBER_1_FILL"/>
</g>

<g transform="matrix( 2.6895904541015625, 0, 0, 2.672393798828125, 0.15,18.55) ">
<use xlink:href="#IT_728x90_FR_psd_Asset_B___V5_2_Aidez_votre__quipe_des_TI___gagner_du_temps__0_Layer0_0_MEMBER_2_FILL"/>
</g>

<g transform="matrix( 2.6895904541015625, 0, 0, 2.672393798828125, 0.15,18.55) ">
<use xlink:href="#IT_728x90_FR_psd_Asset_B___V5_2_Aidez_votre__quipe_des_TI___gagner_du_temps__0_Layer0_0_MEMBER_3_FILL"/>
</g>

<g transform="matrix( 2.6895904541015625, 0, 0, 2.672393798828125, 0.15,18.55) ">
<use xlink:href="#IT_728x90_FR_psd_Asset_B___V5_2_Aidez_votre__quipe_des_TI___gagner_du_temps__0_Layer0_0_MEMBER_4_FILL"/>
</g>

<g transform="matrix( 2.6895904541015625, 0, 0, 2.672393798828125, 0.15,18.55) ">
<use xlink:href="#IT_728x90_FR_psd_Asset_B___V5_2_Aidez_votre__quipe_des_TI___gagner_du_temps__0_Layer0_0_MEMBER_5_FILL"/>
</g>

<g transform="matrix( 2.6895904541015625, 0, 0, 2.672393798828125, 0.15,18.55) ">
<use xlink:href="#IT_728x90_FR_psd_Asset_B___V5_2_Aidez_votre__quipe_des_TI___gagner_du_temps__0_Layer0_0_MEMBER_6_FILL"/>
</g>

<g transform="matrix( 2.6895904541015625, 0, 0, 2.672393798828125, 0.15,18.55) ">
<use xlink:href="#IT_728x90_FR_psd_Asset_B___V5_2_Aidez_votre__quipe_des_TI___gagner_du_temps__0_Layer0_0_MEMBER_7_FILL"/>
</g>

<g transform="matrix( 2.6895904541015625, 0, 0, 2.672393798828125, 0.15,18.55) ">
<use xlink:href="#IT_728x90_FR_psd_Asset_B___V5_2_Aidez_votre__quipe_des_TI___gagner_du_temps__0_Layer0_0_MEMBER_8_FILL"/>
</g>

<g transform="matrix( 2.6895904541015625, 0, 0, 2.672393798828125, 0.15,18.55) ">
<use xlink:href="#IT_728x90_FR_psd_Asset_B___V5_2_Aidez_votre__quipe_des_TI___gagner_du_temps__0_Layer0_0_MEMBER_9_FILL"/>
</g>

<g transform="matrix( 2.6895904541015625, 0, 0, 2.672393798828125, 0.15,18.55) ">
<use xlink:href="#IT_728x90_FR_psd_Asset_B___V5_2_Aidez_votre__quipe_des_TI___gagner_du_temps__0_Layer0_0_MEMBER_10_FILL"/>
</g>

<g transform="matrix( 2.6895904541015625, 0, 0, 2.672393798828125, 0.15,18.55) ">
<use xlink:href="#IT_728x90_FR_psd_Asset_B___V5_2_Aidez_votre__quipe_des_TI___gagner_du_temps__0_Layer0_0_MEMBER_11_FILL"/>
</g>

<g transform="matrix( 2.6895904541015625, 0, 0, 2.672393798828125, 0.15,18.55) ">
<use xlink:href="#IT_728x90_FR_psd_Asset_B___V5_2_Aidez_votre__quipe_des_TI___gagner_du_temps__0_Layer0_0_MEMBER_12_FILL"/>
</g>

<g transform="matrix( 2.6895904541015625, 0, 0, 2.672393798828125, 0.15,18.55) ">
<use xlink:href="#IT_728x90_FR_psd_Asset_B___V5_2_Aidez_votre__quipe_des_TI___gagner_du_temps__0_Layer0_0_MEMBER_13_FILL"/>
</g>

<g transform="matrix( 2.6895904541015625, 0, 0, 2.672393798828125, 0.15,18.55) ">
<use xlink:href="#IT_728x90_FR_psd_Asset_B___V5_2_Aidez_votre__quipe_des_TI___gagner_du_temps__0_Layer0_0_MEMBER_14_FILL"/>
</g>

<g transform="matrix( 2.6895904541015625, 0, 0, 2.672393798828125, 0.15,18.55) ">
<use xlink:href="#IT_728x90_FR_psd_Asset_B___V5_2_Aidez_votre__quipe_des_TI___gagner_du_temps__0_Layer0_0_MEMBER_15_FILL"/>
</g>

<g transform="matrix( 2.6895904541015625, 0, 0, 2.672393798828125, 0.15,18.55) ">
<use xlink:href="#IT_728x90_FR_psd_Asset_B___V5_2_Aidez_votre__quipe_des_TI___gagner_du_temps__0_Layer0_0_MEMBER_16_FILL"/>
</g>

<g transform="matrix( 2.6895904541015625, 0, 0, 2.672393798828125, 0.15,18.55) ">
<use xlink:href="#IT_728x90_FR_psd_Asset_B___V5_2_Aidez_votre__quipe_des_TI___gagner_du_temps__0_Layer0_0_MEMBER_17_FILL"/>
</g>

<g transform="matrix( 2.6895904541015625, 0, 0, 2.672393798828125, 0.15,18.55) ">
<use xlink:href="#IT_728x90_FR_psd_Asset_B___V5_2_Aidez_votre__quipe_des_TI___gagner_du_temps__0_Layer0_0_MEMBER_18_FILL"/>
</g>

<g transform="matrix( 2.6895904541015625, 0, 0, 2.672393798828125, 0.15,18.55) ">
<use xlink:href="#IT_728x90_FR_psd_Asset_B___V5_2_Aidez_votre__quipe_des_TI___gagner_du_temps__0_Layer0_0_MEMBER_19_FILL"/>
</g>

<g transform="matrix( 2.6895904541015625, 0, 0, 2.672393798828125, 0.15,18.55) ">
<use xlink:href="#IT_728x90_FR_psd_Asset_B___V5_2_Aidez_votre__quipe_des_TI___gagner_du_temps__0_Layer0_0_MEMBER_20_FILL"/>
</g>

<g transform="matrix( 2.6895904541015625, 0, 0, 2.672393798828125, 0.15,18.55) ">
<use xlink:href="#IT_728x90_FR_psd_Asset_B___V5_2_Aidez_votre__quipe_des_TI___gagner_du_temps__0_Layer0_0_MEMBER_21_FILL"/>
</g>

<g transform="matrix( 2.6895904541015625, 0, 0, 2.672393798828125, 0.15,18.55) ">
<use xlink:href="#IT_728x90_FR_psd_Asset_B___V5_2_Aidez_votre__quipe_des_TI___gagner_du_temps__0_Layer0_0_MEMBER_22_FILL"/>
</g>

<g transform="matrix( 2.6895904541015625, 0, 0, 2.672393798828125, 0.15,18.55) ">
<use xlink:href="#IT_728x90_FR_psd_Asset_B___V5_2_Aidez_votre__quipe_des_TI___gagner_du_temps__0_Layer0_0_MEMBER_23_FILL"/>
</g>

<g transform="matrix( 2.6895904541015625, 0, 0, 2.672393798828125, 0.15,18.55) ">
<use xlink:href="#IT_728x90_FR_psd_Asset_B___V5_2_Aidez_votre__quipe_des_TI___gagner_du_temps__0_Layer0_0_MEMBER_24_FILL"/>
</g>

<g transform="matrix( 2.6895904541015625, 0, 0, 2.672393798828125, 0.15,18.55) ">
<use xlink:href="#IT_728x90_FR_psd_Asset_B___V5_2_Aidez_votre__quipe_des_TI___gagner_du_temps__0_Layer0_0_MEMBER_25_FILL"/>
</g>

<g transform="matrix( 2.6895904541015625, 0, 0, 2.672393798828125, 0.15,18.55) ">
<use xlink:href="#IT_728x90_FR_psd_Asset_B___V5_2_Aidez_votre__quipe_des_TI___gagner_du_temps__0_Layer0_0_MEMBER_26_FILL"/>
</g>

<g transform="matrix( 2.6895904541015625, 0, 0, 2.672393798828125, 0.15,18.55) ">
<use xlink:href="#IT_728x90_FR_psd_Asset_B___V5_2_Aidez_votre__quipe_des_TI___gagner_du_temps__0_Layer0_0_MEMBER_27_FILL"/>
</g>

<g transform="matrix( 2.6895904541015625, 0, 0, 2.672393798828125, 0.15,18.55) ">
<use xlink:href="#IT_728x90_FR_psd_Asset_B___V5_2_Aidez_votre__quipe_des_TI___gagner_du_temps__0_Layer0_0_MEMBER_28_FILL"/>
</g>

<g transform="matrix( 2.6895904541015625, 0, 0, 2.672393798828125, 0.15,18.55) ">
<use xlink:href="#IT_728x90_FR_psd_Asset_B___V5_2_Aidez_votre__quipe_des_TI___gagner_du_temps__0_Layer0_0_MEMBER_29_FILL"/>
</g>

<g transform="matrix( 2.6895904541015625, 0, 0, 2.672393798828125, 0.15,18.55) ">
<use xlink:href="#IT_728x90_FR_psd_Asset_B___V5_2_Aidez_votre__quipe_des_TI___gagner_du_temps__0_Layer0_0_MEMBER_30_FILL"/>
</g>

<g transform="matrix( 2.6895904541015625, 0, 0, 2.672393798828125, 0.15,18.55) ">
<use xlink:href="#IT_728x90_FR_psd_Asset_B___V5_2_Aidez_votre__quipe_des_TI___gagner_du_temps__0_Layer0_0_MEMBER_31_FILL"/>
</g>

<g transform="matrix( 2.6895904541015625, 0, 0, 2.672393798828125, 0.15,18.55) ">
<use xlink:href="#IT_728x90_FR_psd_Asset_B___V5_2_Aidez_votre__quipe_des_TI___gagner_du_temps__0_Layer0_0_MEMBER_32_FILL"/>
</g>

<g transform="matrix( 2.6895904541015625, 0, 0, 2.672393798828125, 0.15,18.55) ">
<use xlink:href="#IT_728x90_FR_psd_Asset_B___V5_2_Aidez_votre__quipe_des_TI___gagner_du_temps__0_Layer0_0_MEMBER_33_FILL"/>
</g>

<g transform="matrix( 2.6895904541015625, 0, 0, 2.672393798828125, 0.15,18.55) ">
<use xlink:href="#IT_728x90_FR_psd_Asset_B___V5_2_Aidez_votre__quipe_des_TI___gagner_du_temps__0_Layer0_0_MEMBER_34_FILL"/>
</g>

<g transform="matrix( 2.6895904541015625, 0, 0, 2.672393798828125, 0.15,18.55) ">
<use xlink:href="#IT_728x90_FR_psd_Asset_B___V5_2_Aidez_votre__quipe_des_TI___gagner_du_temps__0_Layer0_0_MEMBER_35_FILL"/>
</g>
</g>
</g>
</g>
</svg>
