
<svg xmlns="http://www.w3.org/2000/svg" version="1.1" xmlns:xlink="http://www.w3.org/1999/xlink" preserveAspectRatio="none" x="0px" y="0px" width="200px" height="200px" viewBox="0 0 200 200">
<defs>
<g id="BDM_200x200_FR_psd_Asset_5_V6_2_Augmentez_la__satisfaction_des_clients__et_la_mobilisation__des_0_Layer0_0_MEMBER_0_FILL">
<path fill="#D82C26" stroke="none" d="
M 2.25 -4.25
L 1.9 -4.25 0.05 0 0.45 0 1.1 -1.55 3 -1.55 3.65 0 4.05 0 2.25 -4.25
M 2.9 -1.9
L 1.25 -1.9 2.05 -3.9 2.9 -1.9 Z"/>
</g>

<g id="BDM_200x200_FR_psd_Asset_5_V6_2_Augmentez_la__satisfaction_des_clients__et_la_mobilisation__des_0_Layer0_0_MEMBER_1_FILL">
<path fill="#D82C26" stroke="none" d="
M 4.35 -1.1
Q 4.35 -0.6 4.55 -0.25 4.9 0.1 5.35 0.1 5.65 0.1 5.95 -0.1 6.25 -0.35 6.4 -0.6
L 6.45 0 6.8 0 6.75 -0.3 6.75 -2.8 6.4 -2.8 6.4 -1.4
Q 6.4 -1.05 6.25 -0.75
L 5.9 -0.35
Q 5.75 -0.2 5.45 -0.2 5 -0.2 4.85 -0.5 4.7 -0.8 4.7 -1.2
L 4.7 -2.8 4.35 -2.8 4.35 -1.1 Z"/>
</g>

<g id="BDM_200x200_FR_psd_Asset_5_V6_2_Augmentez_la__satisfaction_des_clients__et_la_mobilisation__des_0_Layer0_0_MEMBER_2_FILL">
<path fill="#D82C26" stroke="none" d="
M 7.3 -1.4
Q 7.3 -1.15 7.5 -0.65 7.65 -0.3 8 -0.15 8.25 0.05 8.75 0.05 9.15 0.05 9.4 -0.15 9.7 -0.3 9.85 -0.65
L 9.9 -0.65 9.9 -0.05
Q 9.9 0.55 9.6 0.85 9.25 1.2 8.7 1.2 8.4 1.2 8.1 1.05
L 7.55 0.8 7.5 1.15 8.05 1.4 8.75 1.5
Q 9.5 1.5 9.85 1.05 10.25 0.65 10.25 -0.05
L 10.25 -2.8 9.9 -2.8 9.9 -2.2 9.85 -2.2
Q 9.65 -2.55 9.4 -2.7 9.15 -2.9 8.75 -2.9 8.25 -2.9 8 -2.7 7.6 -2.4 7.5 -2.15 7.3 -1.75 7.3 -1.4
M 9.35 -2.45
Q 9.6 -2.25 9.75 -2 9.9 -1.75 9.9 -1.4 9.9 -1.1 9.75 -0.8
L 9.35 -0.4
Q 9.15 -0.25 8.8 -0.25 8.45 -0.25 8.2 -0.4 7.95 -0.55 7.8 -0.85 7.65 -1.05 7.65 -1.4 7.65 -1.7 7.8 -2 7.95 -2.25 8.2 -2.45 8.45 -2.6 8.8 -2.6 9.15 -2.6 9.35 -2.45 Z"/>
</g>

<g id="BDM_200x200_FR_psd_Asset_5_V6_2_Augmentez_la__satisfaction_des_clients__et_la_mobilisation__des_0_Layer0_0_MEMBER_3_FILL">
<path fill="#D82C26" stroke="none" d="
M 11.3 -2.8
L 11 -2.8 11 0 11.35 0 11.35 -1.4
Q 11.35 -1.75 11.5 -2.05 11.55 -2.3 11.8 -2.45 12.05 -2.6 12.25 -2.6 12.6 -2.6 12.75 -2.35 12.95 -2.15 12.95 -1.65
L 12.95 0 13.3 0 13.3 -1.45
Q 13.3 -1.9 13.55 -2.3 13.8 -2.6 14.2 -2.6 14.6 -2.6 14.75 -2.3 14.95 -2.05 14.95 -1.6
L 14.95 0 15.3 0 15.3 -1.7
Q 15.3 -2.15 15.05 -2.55 14.85 -2.9 14.25 -2.9 13.85 -2.9 13.65 -2.7 13.45 -2.6 13.25 -2.15 13.1 -2.6 12.9 -2.7 12.7 -2.9 12.35 -2.9 11.95 -2.9 11.75 -2.7 11.55 -2.6 11.35 -2.2
L 11.3 -2.8 Z"/>
</g>

<g id="BDM_200x200_FR_psd_Asset_5_V6_2_Augmentez_la__satisfaction_des_clients__et_la_mobilisation__des_0_Layer0_0_MEMBER_4_FILL">
<path fill="#D82C26" stroke="none" d="
M 17.25 -2.9
Q 16.8 -2.9 16.55 -2.7 16.25 -2.55 16.05 -2.2 15.85 -1.85 15.85 -1.4 15.85 -0.9 16.05 -0.65 16.15 -0.4 16.55 -0.1 16.95 0.1 17.3 0.1 17.9 0.1 18.4 -0.25
L 18.35 -0.55 17.9 -0.3 17.3 -0.2
Q 17 -0.2 16.75 -0.35 16.5 -0.45 16.35 -0.8 16.2 -1 16.2 -1.35
L 18.55 -1.35 18.6 -1.5
Q 18.6 -1.95 18.4 -2.2 18.2 -2.55 17.95 -2.7 17.7 -2.9 17.25 -2.9
M 16.7 -2.45
Q 16.95 -2.6 17.25 -2.6 17.75 -2.6 17.95 -2.35 18.25 -2.05 18.25 -1.6
L 16.2 -1.6 16.35 -2.05
Q 16.4 -2.25 16.7 -2.45 Z"/>
</g>

<g id="BDM_200x200_FR_psd_Asset_5_V6_2_Augmentez_la__satisfaction_des_clients__et_la_mobilisation__des_0_Layer0_0_MEMBER_5_FILL">
<path fill="#D82C26" stroke="none" d="
M 19.45 -2.8
L 19.15 -2.8 19.15 0 19.5 0 19.5 -1.45
Q 19.5 -1.8 19.65 -2.05 19.7 -2.2 19.95 -2.45 20.2 -2.6 20.45 -2.6 20.85 -2.6 21.05 -2.3 21.2 -2.05 21.2 -1.65
L 21.2 0 21.55 0 21.55 -1.7
Q 21.55 -2.3 21.3 -2.55 21.1 -2.9 20.5 -2.9 20.15 -2.9 19.9 -2.7 19.7 -2.6 19.5 -2.2
L 19.45 -2.8 Z"/>
</g>

<g id="BDM_200x200_FR_psd_Asset_5_V6_2_Augmentez_la__satisfaction_des_clients__et_la_mobilisation__des_0_Layer0_0_MEMBER_6_FILL">
<path fill="#D82C26" stroke="none" d="
M 22.7 -3.6
L 22.35 -3.5 22.35 -2.8 21.9 -2.8 21.85 -2.55 22.35 -2.55 22.35 -0.7
Q 22.35 -0.35 22.55 -0.15 22.7 0.05 23 0.05
L 23.35 0 23.6 -0.1 23.55 -0.35
Q 23.4 -0.25 23.1 -0.25 22.9 -0.25 22.85 -0.35 22.7 -0.5 22.7 -0.75
L 22.7 -2.55 23.45 -2.55 23.5 -2.8 22.7 -2.8 22.7 -3.6 Z"/>
</g>

<g id="BDM_200x200_FR_psd_Asset_5_V6_2_Augmentez_la__satisfaction_des_clients__et_la_mobilisation__des_0_Layer0_0_MEMBER_7_FILL">
<path fill="#D82C26" stroke="none" d="
M 25.1 -2.9
Q 24.65 -2.9 24.4 -2.7 24.05 -2.55 23.9 -2.2 23.7 -1.7 23.7 -1.4 23.7 -1.05 23.9 -0.65 24.1 -0.35 24.4 -0.1 24.9 0.1 25.15 0.1 25.7 0.1 26.3 -0.25
L 26.2 -0.55 25.75 -0.3 25.2 -0.2
Q 24.9 -0.2 24.6 -0.35 24.35 -0.5 24.2 -0.8 24.05 -1 24.05 -1.35
L 26.45 -1.35 26.45 -1.5
Q 26.45 -1.9 26.3 -2.2 26.1 -2.55 25.85 -2.7 25.6 -2.9 25.1 -2.9
M 24.55 -2.45
Q 24.8 -2.6 25.1 -2.6 25.6 -2.6 25.85 -2.35 26.1 -2 26.1 -1.6
L 24.05 -1.6
Q 24.05 -1.8 24.2 -2.05 24.35 -2.3 24.55 -2.45 Z"/>
</g>

<g id="BDM_200x200_FR_psd_Asset_5_V6_2_Augmentez_la__satisfaction_des_clients__et_la_mobilisation__des_0_Layer0_0_MEMBER_8_FILL">
<path fill="#D82C26" stroke="none" d="
M 28.45 -2.55
L 26.7 -0.3 26.7 0 28.9 0 29 -0.3 27.15 -0.3 28.85 -2.55 28.85 -2.8 26.8 -2.8 26.75 -2.55 28.45 -2.55 Z"/>
</g>

<g id="BDM_200x200_FR_psd_Asset_5_V6_2_Augmentez_la__satisfaction_des_clients__et_la_mobilisation__des_0_Layer0_0_MEMBER_9_FILL">
<path fill="#D82C26" stroke="none" d="
M 30.35 -0.6
L 30.45 -0.2
Q 30.55 -0.05 30.8 0.05
L 30.95 -0.25 30.75 -0.4 30.7 -0.7 30.7 -4.55 30.35 -4.5 30.35 -0.6 Z"/>
</g>

<g id="BDM_200x200_FR_psd_Asset_5_V6_2_Augmentez_la__satisfaction_des_clients__et_la_mobilisation__des_0_Layer0_0_MEMBER_10_FILL">
<path fill="#D82C26" stroke="none" d="
M 32.5 -2.9
L 31.95 -2.8 31.45 -2.55 31.55 -2.25
Q 31.9 -2.45 32 -2.5 32.15 -2.6 32.45 -2.6 32.85 -2.6 33.05 -2.4 33.25 -2.25 33.25 -1.85
L 33.25 -1.7 32.9 -1.7
Q 31.3 -1.7 31.3 -0.75 31.3 -0.3 31.55 -0.15 31.9 0.1 32.2 0.1 32.45 0.1 32.85 -0.1 33.1 -0.2 33.25 -0.55
L 33.3 -0.25 33.3 0 33.65 0 33.6 -1.8
Q 33.6 -2.35 33.3 -2.65 32.95 -2.9 32.5 -2.9
M 32.8 -0.35
Q 32.6 -0.2 32.25 -0.2 32 -0.2 31.85 -0.35 31.65 -0.4 31.65 -0.75 31.65 -1.45 32.95 -1.45
L 33.25 -1.45 33.25 -1.15 33.15 -0.7 32.8 -0.35 Z"/>
</g>

<g id="BDM_200x200_FR_psd_Asset_5_V6_2_Augmentez_la__satisfaction_des_clients__et_la_mobilisation__des_0_Layer0_0_MEMBER_11_FILL">
<path fill="#D82C26" stroke="none" d="
M 1.8 3.9
L 1.3 3.8 0.85 3.9 0.5 4.15 0.4 4.6
Q 0.4 4.9 0.6 5.05 0.75 5.25 1.2 5.4 1.6 5.5 1.75 5.65 1.95 5.8 1.95 6 1.95 6.2 1.75 6.35 1.6 6.5 1.35 6.5 0.75 6.5 0.4 6.15
L 0.35 6.45 0.75 6.7 1.35 6.8 1.8 6.7
Q 2 6.65 2.15 6.4 2.3 6.25 2.3 5.95 2.3 5.75 2.1 5.45
L 0.85 4.9
Q 0.7 4.75 0.7 4.55 0.7 4.35 0.9 4.2
L 1.35 4.1 1.75 4.15 2.05 4.35 2.2 4.1 1.8 3.9 Z"/>
</g>

<g id="BDM_200x200_FR_psd_Asset_5_V6_2_Augmentez_la__satisfaction_des_clients__et_la_mobilisation__des_0_Layer0_0_MEMBER_12_FILL">
<path fill="#D82C26" stroke="none" d="
M 3.85 4.1
Q 4.25 4.1 4.4 4.3 4.65 4.45 4.65 4.85
L 4.65 5 4.3 5
Q 2.7 5 2.7 5.95 2.7 6.4 2.95 6.6 3.25 6.8 3.6 6.8 3.9 6.8 4.2 6.65 4.5 6.4 4.65 6.15
L 4.65 6.45 4.7 6.7 5 6.7 4.95 4.9
Q 4.95 4.35 4.7 4.1 4.4 3.8 3.9 3.8
L 3.3 3.9 2.85 4.15 2.95 4.45 3.35 4.2
Q 3.5 4.1 3.85 4.1
M 4.65 5.55
L 4.5 6
Q 4.4 6.3 4.2 6.35 4 6.5 3.65 6.5
L 3.2 6.4
Q 3 6.2 3 5.95 3 5.25 4.35 5.25
L 4.65 5.25 4.65 5.55 Z"/>
</g>

<g id="BDM_200x200_FR_psd_Asset_5_V6_2_Augmentez_la__satisfaction_des_clients__et_la_mobilisation__des_0_Layer0_0_MEMBER_13_FILL">
<path fill="#D82C26" stroke="none" d="
M 6.85 4.15
L 6.9 3.9 6.1 3.9 6.1 3.1 5.75 3.25 5.75 3.9 5.3 3.9 5.25 4.15 5.75 4.15 5.75 6.05
Q 5.75 6.3 5.95 6.6 6.1 6.75 6.45 6.75
L 6.75 6.75 7.05 6.6 7 6.35 6.55 6.5
Q 6.35 6.5 6.25 6.35 6.1 6.3 6.1 6
L 6.1 4.15 6.85 4.15 Z"/>
</g>

<g id="BDM_200x200_FR_psd_Asset_5_V6_2_Augmentez_la__satisfaction_des_clients__et_la_mobilisation__des_0_Layer0_0_MEMBER_14_FILL">
<path fill="#D82C26" stroke="none" d="
M 7.75 3.9
L 7.4 3.9 7.4 6.7 7.75 6.7 7.75 3.9
M 7.75 2.6
L 7.6 2.5 7.4 2.6 7.35 2.75 7.4 2.95 7.6 3.05 7.75 2.95 7.85 2.75 7.75 2.6 Z"/>
</g>

<g id="BDM_200x200_FR_psd_Asset_5_V6_2_Augmentez_la__satisfaction_des_clients__et_la_mobilisation__des_0_Layer0_0_MEMBER_15_FILL">
<path fill="#D82C26" stroke="none" d="
M 10.15 6.4
Q 10.25 6.3 10.25 5.95 10.25 5.65 10.05 5.45
L 8.85 4.9
Q 8.7 4.75 8.7 4.55 8.7 4.35 8.85 4.2
L 9.3 4.1 9.7 4.15 10.05 4.35 10.2 4.1 9.8 3.9 9.3 3.8 8.85 3.9 8.5 4.15
Q 8.35 4.4 8.35 4.6 8.35 4.85 8.55 5.05 8.75 5.25 9.15 5.4 9.55 5.45 9.75 5.65 9.95 5.85 9.95 6 9.95 6.15 9.75 6.35 9.55 6.5 9.3 6.5 8.75 6.5 8.35 6.15
L 8.3 6.45
Q 8.5 6.65 8.75 6.7
L 9.3 6.8 9.8 6.7
Q 10 6.65 10.15 6.4 Z"/>
</g>

<g id="BDM_200x200_FR_psd_Asset_5_V6_2_Augmentez_la__satisfaction_des_clients__et_la_mobilisation__des_0_Layer0_0_MEMBER_16_FILL">
<path fill="#D82C26" stroke="none" d="
M 11.95 2.1
Q 11.55 2.1 11.3 2.35 11.05 2.6 11.05 3.1
L 11.05 3.9 10.55 3.9 10.5 4.15 11.1 4.15 11.1 6.7 11.45 6.7 11.45 4.15 12.1 4.15 12.15 3.9 11.45 3.9 11.45 3.1
Q 11.45 2.7 11.55 2.6 11.7 2.4 11.95 2.4
L 12.4 2.45 12.45 2.15 12.25 2.1 11.95 2.1 Z"/>
</g>

<g id="BDM_200x200_FR_psd_Asset_5_V6_2_Augmentez_la__satisfaction_des_clients__et_la_mobilisation__des_0_Layer0_0_MEMBER_17_FILL">
<path fill="#D82C26" stroke="none" d="
M 12.45 4.15
L 12.55 4.45
Q 12.9 4.25 13 4.2 13.15 4.1 13.45 4.1 13.85 4.1 14.05 4.3 14.25 4.45 14.25 4.85
L 14.25 5 13.9 5
Q 12.3 5 12.3 5.95 12.3 6.4 12.6 6.6 12.9 6.8 13.2 6.8 13.55 6.8 13.85 6.65 14.2 6.4 14.25 6.15
L 14.3 6.15 14.3 6.7 14.65 6.7 14.6 4.9
Q 14.6 4.35 14.3 4.1 14 3.8 13.5 3.8
L 12.95 3.9 12.45 4.15
M 14.25 5.55
Q 14.25 5.85 14.15 6 14.05 6.25 13.8 6.35 13.6 6.5 13.3 6.5
L 12.85 6.4
Q 12.65 6.25 12.65 5.95 12.65 5.25 13.95 5.25
L 14.25 5.25 14.25 5.55 Z"/>
</g>

<g id="BDM_200x200_FR_psd_Asset_5_V6_2_Augmentez_la__satisfaction_des_clients__et_la_mobilisation__des_0_Layer0_0_MEMBER_18_FILL">
<path fill="#D82C26" stroke="none" d="
M 17.15 3.9
L 16.6 3.8
Q 16.2 3.8 15.85 4 15.45 4.3 15.35 4.55 15.15 4.8 15.15 5.3 15.15 5.8 15.35 6.05 15.5 6.45 15.85 6.6 16.2 6.8 16.6 6.8
L 17.15 6.7
Q 17.25 6.65 17.6 6.45
L 17.55 6.15 17.15 6.4 16.65 6.5
Q 16.3 6.5 16.05 6.35 15.7 6 15.65 5.9 15.5 5.6 15.5 5.3 15.5 5 15.65 4.7 15.7 4.6 16.05 4.25 16.3 4.1 16.65 4.1
L 17.05 4.2 17.45 4.4 17.6 4.15
Q 17.25 3.95 17.15 3.9 Z"/>
</g>

<g id="BDM_200x200_FR_psd_Asset_5_V6_2_Augmentez_la__satisfaction_des_clients__et_la_mobilisation__des_0_Layer0_0_MEMBER_19_FILL">
<path fill="#D82C26" stroke="none" d="
M 19.35 4.15
L 19.4 3.9 18.6 3.9 18.6 3.1 18.25 3.25 18.25 3.9 17.8 3.9 17.75 4.15 18.25 4.15 18.25 6.05
Q 18.25 6.3 18.45 6.6 18.6 6.75 18.95 6.75
L 19.25 6.75 19.55 6.6 19.5 6.35 19.05 6.5
Q 18.85 6.5 18.75 6.35 18.6 6.3 18.6 6
L 18.6 4.15 19.35 4.15 Z"/>
</g>

<g id="BDM_200x200_FR_psd_Asset_5_V6_2_Augmentez_la__satisfaction_des_clients__et_la_mobilisation__des_0_Layer0_0_MEMBER_20_FILL">
<path fill="#D82C26" stroke="none" d="
M 20.25 2.95
L 20.35 2.75 20.25 2.6 20.1 2.5 19.9 2.6 19.85 2.75 19.9 2.95 20.1 3.05 20.25 2.95
M 20.25 6.7
L 20.25 3.9 19.9 3.9 19.9 6.7 20.25 6.7 Z"/>
</g>

<g id="BDM_200x200_FR_psd_Asset_5_V6_2_Augmentez_la__satisfaction_des_clients__et_la_mobilisation__des_0_Layer0_0_MEMBER_21_FILL">
<path fill="#D82C26" stroke="none" d="
M 21.05 4.55
Q 20.85 4.8 20.85 5.3 20.85 5.8 21.05 6.05 21.15 6.3 21.55 6.6 21.9 6.8 22.35 6.8 22.75 6.8 23.1 6.6 23.5 6.3 23.65 6.05 23.85 5.65 23.85 5.3 23.85 4.95 23.65 4.55 23.4 4.15 23.1 4 22.75 3.8 22.35 3.8 21.9 3.8 21.55 4 21.2 4.2 21.05 4.55
M 21.7 4.25
Q 22 4.1 22.35 4.1 22.65 4.1 22.95 4.25 23.2 4.45 23.35 4.7
L 23.45 5.3
Q 23.45 5.7 23.35 5.9 23.3 6 22.95 6.35 22.65 6.5 22.35 6.5 22 6.5 21.7 6.35 21.35 6 21.3 5.9
L 21.2 5.3 21.3 4.7
Q 21.45 4.45 21.7 4.25 Z"/>
</g>

<g id="BDM_200x200_FR_psd_Asset_5_V6_2_Augmentez_la__satisfaction_des_clients__et_la_mobilisation__des_0_Layer0_0_MEMBER_22_FILL">
<path fill="#D82C26" stroke="none" d="
M 26.55 4.15
Q 26.3 3.8 25.75 3.8 25.55 3.8 25.15 4 24.9 4.2 24.75 4.5
L 24.7 3.9 24.4 3.9 24.4 6.7 24.75 6.7 24.75 5.25
Q 24.75 4.95 24.9 4.65 24.95 4.45 25.25 4.25 25.4 4.1 25.7 4.1 26.1 4.1 26.3 4.4 26.45 4.65 26.45 5.1
L 26.45 6.7 26.8 6.7 26.8 5
Q 26.8 4.45 26.55 4.15 Z"/>
</g>

<g id="BDM_200x200_FR_psd_Asset_5_V6_2_Augmentez_la__satisfaction_des_clients__et_la_mobilisation__des_0_Layer0_0_MEMBER_23_FILL">
<path fill="#D82C26" stroke="none" d="
M 31.2 6.7
L 31.2 2.1 30.85 2.15 30.85 4.5
Q 30.55 4.1 30.35 4 30.1 3.8 29.7 3.8 29.35 3.8 28.95 4 28.55 4.3 28.45 4.55
L 28.3 5.3
Q 28.3 5.75 28.45 6.05 28.55 6.3 28.95 6.6 29.35 6.8 29.7 6.8 30.1 6.8 30.35 6.6 30.55 6.5 30.85 6.1
L 30.9 6.7 31.2 6.7
M 30.85 5.3
Q 30.85 5.6 30.7 5.9 30.6 6.15 30.3 6.35 30.1 6.5 29.75 6.5 29.4 6.5 29.15 6.35 28.9 6.2 28.75 5.9 28.65 5.7 28.65 5.3 28.65 4.9 28.75 4.7 28.8 4.6 29.15 4.25 29.4 4.1 29.75 4.1 30.1 4.1 30.3 4.25 30.6 4.45 30.7 4.7 30.85 5 30.85 5.3 Z"/>
</g>

<g id="BDM_200x200_FR_psd_Asset_5_V6_2_Augmentez_la__satisfaction_des_clients__et_la_mobilisation__des_0_Layer0_0_MEMBER_24_FILL">
<path fill="#D82C26" stroke="none" d="
M 31.75 5.3
Q 31.75 5.65 31.95 6.05 32.15 6.35 32.45 6.6 32.8 6.8 33.2 6.8 33.75 6.8 34.35 6.45
L 34.3 6.15 33.8 6.4 33.25 6.5
Q 32.95 6.5 32.65 6.35
L 32.25 5.95
Q 32.1 5.65 32.1 5.35
L 34.5 5.35 34.5 5.2
Q 34.5 4.8 34.35 4.5 34.15 4.15 33.9 4 33.65 3.8 33.15 3.8 32.7 3.8 32.45 4 32.25 4.1 31.95 4.5 31.75 5 31.75 5.3
M 32.25 4.65
L 32.6 4.25
Q 32.85 4.1 33.15 4.1 33.55 4.1 33.9 4.35 34.15 4.7 34.15 5.1
L 32.1 5.1 32.25 4.65 Z"/>
</g>

<g id="BDM_200x200_FR_psd_Asset_5_V6_2_Augmentez_la__satisfaction_des_clients__et_la_mobilisation__des_0_Layer0_0_MEMBER_25_FILL">
<path fill="#D82C26" stroke="none" d="
M 36.35 3.9
L 35.85 3.8 35.4 3.9
Q 35.25 3.95 35.05 4.15 34.9 4.4 34.9 4.6 34.9 4.85 35.1 5.05 35.3 5.25 35.7 5.4 36.1 5.45 36.3 5.65 36.5 5.85 36.5 6 36.5 6.15 36.3 6.35 36.1 6.5 35.85 6.5 35.3 6.5 34.9 6.15
L 34.85 6.45
Q 35.05 6.65 35.3 6.7
L 35.85 6.8 36.35 6.7
Q 36.55 6.65 36.7 6.4
L 36.8 5.95
Q 36.8 5.65 36.6 5.45
L 35.4 4.9
Q 35.25 4.75 35.25 4.55 35.25 4.35 35.4 4.2
L 35.85 4.1 36.25 4.15 36.6 4.35 36.75 4.1 36.35 3.9 Z"/>
</g>

<g id="BDM_200x200_FR_psd_Asset_5_V6_2_Augmentez_la__satisfaction_des_clients__et_la_mobilisation__des_0_Layer0_0_MEMBER_26_FILL">
<path fill="#D82C26" stroke="none" d="
M 40.05 3.9
L 39.55 3.8
Q 39.05 3.8 38.8 4 38.45 4.2 38.25 4.55 38.05 4.8 38.05 5.3 38.05 5.8 38.25 6.05 38.4 6.45 38.75 6.6 39.1 6.8 39.5 6.8
L 40.05 6.7
Q 40.15 6.65 40.5 6.45
L 40.45 6.15 40.05 6.4 39.55 6.5
Q 39.25 6.5 38.95 6.35 38.6 6 38.55 5.9 38.4 5.6 38.4 5.3 38.4 5 38.55 4.7 38.6 4.6 38.95 4.25 39.2 4.1 39.55 4.1
L 40 4.2 40.35 4.4 40.5 4.15
Q 40.3 3.95 40.05 3.9 Z"/>
</g>

<g id="BDM_200x200_FR_psd_Asset_5_V6_2_Augmentez_la__satisfaction_des_clients__et_la_mobilisation__des_0_Layer0_0_MEMBER_27_FILL">
<path fill="#D82C26" stroke="none" d="
M 41.05 6.55
Q 41.25 6.75 41.35 6.75
L 41.55 6.5 41.35 6.3 41.25 6 41.25 2.15 40.9 2.2 40.9 6.1
Q 40.9 6.35 41.05 6.55 Z"/>
</g>

<g id="BDM_200x200_FR_psd_Asset_5_V6_2_Augmentez_la__satisfaction_des_clients__et_la_mobilisation__des_0_Layer0_0_MEMBER_28_FILL">
<path fill="#D82C26" stroke="none" d="
M 42.45 3.9
L 42.05 3.9 42.05 6.7 42.45 6.7 42.45 3.9
M 42.05 2.95
L 42.25 3.05 42.45 2.95 42.5 2.75 42.45 2.6 42.25 2.5 42.05 2.6 42 2.75 42.05 2.95 Z"/>
</g>

<g id="BDM_200x200_FR_psd_Asset_5_V6_2_Augmentez_la__satisfaction_des_clients__et_la_mobilisation__des_0_Layer0_0_MEMBER_29_FILL">
<path fill="#D82C26" stroke="none" d="
M 45.75 5.2
Q 45.75 4.8 45.6 4.5 45.4 4.15 45.15 4 44.9 3.8 44.4 3.8 43.95 3.8 43.7 4 43.35 4.15 43.2 4.5 43 4.85 43 5.3 43 5.8 43.2 6.05 43.3 6.3 43.7 6.6 44.05 6.8 44.45 6.8 45.05 6.8 45.55 6.45
L 45.5 6.15
Q 45.3 6.35 45.05 6.4
L 44.5 6.5
Q 44.15 6.5 43.9 6.35
L 43.5 5.95
Q 43.35 5.65 43.35 5.35
L 45.75 5.35 45.75 5.2
M 44.4 4.1
Q 44.85 4.1 45.1 4.35 45.4 4.65 45.4 5.1
L 43.35 5.1 43.5 4.65
Q 43.7 4.35 43.85 4.25 44.1 4.1 44.4 4.1 Z"/>
</g>

<g id="BDM_200x200_FR_psd_Asset_5_V6_2_Augmentez_la__satisfaction_des_clients__et_la_mobilisation__des_0_Layer0_0_MEMBER_30_FILL">
<path fill="#D82C26" stroke="none" d="
M 46.65 3.9
L 46.3 3.9 46.3 6.7 46.7 6.7 46.7 5.25
Q 46.7 4.85 46.8 4.65 46.95 4.4 47.15 4.25 47.4 4.1 47.6 4.1 48.05 4.1 48.2 4.4 48.4 4.7 48.4 5.1
L 48.4 6.7 48.75 6.7 48.75 5
Q 48.75 4.55 48.5 4.15 48.15 3.8 47.7 3.8 47.45 3.8 47.05 4 46.75 4.3 46.65 4.5
L 46.65 3.9 Z"/>
</g>

<g id="BDM_200x200_FR_psd_Asset_5_V6_2_Augmentez_la__satisfaction_des_clients__et_la_mobilisation__des_0_Layer0_0_MEMBER_31_FILL">
<path fill="#D82C26" stroke="none" d="
M 50.8 6.6
L 50.75 6.35 50.3 6.5
Q 50.1 6.5 50 6.35 49.9 6.3 49.9 6
L 49.9 4.15 50.6 4.15 50.7 3.9 49.9 3.9 49.9 3.1 49.55 3.25 49.55 3.9 49.1 3.9 49 4.15 49.55 4.15 49.55 6.05
Q 49.55 6.4 49.7 6.6 49.95 6.75 50.2 6.75
L 50.5 6.75 50.8 6.6 Z"/>
</g>

<g id="BDM_200x200_FR_psd_Asset_5_V6_2_Augmentez_la__satisfaction_des_clients__et_la_mobilisation__des_0_Layer0_0_MEMBER_32_FILL">
<path fill="#D82C26" stroke="none" d="
M 52.55 3.9
L 52.05 3.8 51.6 3.9
Q 51.35 4 51.25 4.15 51.1 4.4 51.1 4.6 51.1 4.9 51.3 5.05 51.5 5.25 51.9 5.4
L 52.5 5.65
Q 52.65 5.8 52.65 6 52.65 6.2 52.5 6.35 52.3 6.5 52.05 6.5 51.45 6.5 51.1 6.15
L 51.05 6.45
Q 51.25 6.65 51.5 6.7
L 52.05 6.8 52.5 6.7
Q 52.8 6.6 52.85 6.4 53 6.25 53 5.95 53 5.65 52.8 5.45
L 51.6 4.9
Q 51.45 4.75 51.45 4.55 51.45 4.35 51.6 4.2
L 52.05 4.1 52.45 4.15 52.75 4.35 52.9 4.1 52.55 3.9 Z"/>
</g>

<g id="BDM_200x200_FR_psd_Asset_5_V6_2_Augmentez_la__satisfaction_des_clients__et_la_mobilisation__des_0_Layer0_0_MEMBER_33_FILL">
<path fill="#D82C26" stroke="none" d="
M 0.5 11.25
Q 0.35 11.55 0.35 12 0.35 12.45 0.5 12.75 0.75 13.2 1.05 13.3 1.3 13.5 1.8 13.5 2.5 13.5 2.9 13.15
L 2.85 12.85 2.4 13.1
Q 2.2 13.2 1.8 13.2 1.5 13.2 1.25 13.05 0.95 12.9 0.85 12.65 0.7 12.35 0.7 12.05
L 3.05 12.05 3.05 11.9
Q 3.05 11.5 2.9 11.2 2.75 10.95 2.45 10.7 2.05 10.5 1.75 10.5 1.5 10.5 1 10.7 0.7 10.95 0.5 11.25
M 1.75 10.8
Q 2.1 10.8 2.45 11.05 2.65 11.25 2.75 11.8
L 0.7 11.8 0.8 11.35
Q 1 11.05 1.2 10.95 1.45 10.8 1.75 10.8 Z"/>
</g>

<g id="BDM_200x200_FR_psd_Asset_5_V6_2_Augmentez_la__satisfaction_des_clients__et_la_mobilisation__des_0_Layer0_0_MEMBER_34_FILL">
<path fill="#D82C26" stroke="none" d="
M 4.85 10.6
L 4.05 10.6 4.05 9.8 3.7 9.95 3.7 10.6 3.25 10.6 3.2 10.9 3.7 10.9 3.7 12.75
Q 3.7 13.1 3.9 13.3 4.1 13.5 4.35 13.5
L 4.7 13.45 4.95 13.35 4.9 13.05
Q 4.7 13.2 4.45 13.2
L 4.15 13.05 4.05 12.7 4.05 10.9 4.8 10.9 4.85 10.6 Z"/>
</g>

<g id="BDM_200x200_FR_psd_Asset_5_V6_2_Augmentez_la__satisfaction_des_clients__et_la_mobilisation__des_0_Layer0_0_MEMBER_35_FILL">
<path fill="#D82C26" stroke="none" d="
M 6.3 13.25
Q 6.5 13.45 6.65 13.5
L 6.8 13.2 6.6 13 6.55 12.7 6.55 8.85 6.2 8.9 6.2 12.8 6.3 13.25 Z"/>
</g>

<g id="BDM_200x200_FR_psd_Asset_5_V6_2_Augmentez_la__satisfaction_des_clients__et_la_mobilisation__des_0_Layer0_0_MEMBER_36_FILL">
<path fill="#D82C26" stroke="none" d="
M 7.3 10.85
L 7.4 11.15
Q 7.75 10.95 7.85 10.9
L 8.3 10.8
Q 8.7 10.8 8.9 11 9.1 11.15 9.1 11.55
L 9.1 11.75 8.75 11.75
Q 7.15 11.75 7.15 12.65 7.15 13.05 7.4 13.3 7.8 13.5 8.05 13.5 8.4 13.5 8.7 13.35 8.9 13.25 9.1 12.85
L 9.15 13.15 9.15 13.4 9.5 13.4 9.45 11.6
Q 9.45 11.05 9.15 10.8 8.85 10.5 8.35 10.5
L 7.8 10.6 7.3 10.85
M 9.1 11.95
L 9.1 12.25 9 12.7
Q 8.8 13 8.65 13.1 8.45 13.25 8.1 13.25 7.85 13.25 7.7 13.1 7.5 12.95 7.5 12.65 7.5 11.95 8.8 11.95
L 9.1 11.95 Z"/>
</g>

<g id="BDM_200x200_FR_psd_Asset_5_V6_2_Augmentez_la__satisfaction_des_clients__et_la_mobilisation__des_0_Layer0_0_MEMBER_37_FILL">
<path fill="#D82C26" stroke="none" d="
M 11.4 10.6
L 11.1 10.6 11.1 13.4 11.45 13.4 11.45 12
Q 11.45 11.65 11.6 11.35 11.7 11.1 11.9 10.95 12.15 10.8 12.35 10.8 12.65 10.8 12.9 11.05 13.05 11.3 13.05 11.75
L 13.05 13.4 13.4 13.4 13.4 11.95
Q 13.4 11.5 13.65 11.15 13.95 10.8 14.3 10.8 14.7 10.8 14.85 11.1 15.05 11.35 15.05 11.8
L 15.05 13.4 15.4 13.4 15.4 11.75
Q 15.4 11.25 15.15 10.85 14.9 10.5 14.4 10.5 14.15 10.5 13.75 10.7 13.45 11 13.35 11.25 13.3 11 13 10.7 12.7 10.5 12.45 10.5 12.25 10.5 11.85 10.7 11.6 10.9 11.45 11.2
L 11.4 10.6 Z"/>
</g>

<g id="BDM_200x200_FR_psd_Asset_5_V6_2_Augmentez_la__satisfaction_des_clients__et_la_mobilisation__des_0_Layer0_0_MEMBER_38_FILL">
<path fill="#D82C26" stroke="none" d="
M 16.15 11.25
Q 15.95 11.5 15.95 12 15.95 12.5 16.15 12.75 16.3 13.15 16.7 13.3 16.95 13.5 17.45 13.5 17.95 13.5 18.2 13.3 18.5 13.2 18.75 12.75 18.95 12.5 18.95 12 18.95 11.5 18.75 11.25 18.55 10.9 18.2 10.7 17.8 10.5 17.45 10.5 17.1 10.5 16.7 10.7 16.25 10.95 16.15 11.25
M 16.85 11
Q 17.05 10.8 17.45 10.8 17.8 10.8 18.05 11 18.35 11.2 18.45 11.4 18.6 11.7 18.6 12 18.6 12.3 18.45 12.6 18.3 12.9 18.05 13.05 17.85 13.2 17.45 13.2 17.1 13.2 16.85 13.05 16.6 12.95 16.45 12.6 16.3 12.3 16.3 12 16.3 11.7 16.45 11.4 16.6 11.15 16.85 11 Z"/>
</g>

<g id="BDM_200x200_FR_psd_Asset_5_V6_2_Augmentez_la__satisfaction_des_clients__et_la_mobilisation__des_0_Layer0_0_MEMBER_39_FILL">
<path fill="#D82C26" stroke="none" d="
M 21.05 10.5
Q 20.75 10.5 20.35 10.7 20.1 10.85 19.9 11.2
L 19.85 11.2 19.85 8.8 19.5 8.9 19.5 13.4 19.8 13.4 19.85 12.8
Q 20 13.15 20.35 13.3 20.6 13.5 21.05 13.5 21.5 13.5 21.75 13.3 22.15 13 22.25 12.75 22.45 12.35 22.45 12 22.45 11.75 22.25 11.25 22.1 10.95 21.75 10.7 21.35 10.5 21.05 10.5
M 21.95 11.4
Q 22.1 11.7 22.1 12 22.1 12.3 21.95 12.6 21.8 12.95 21.55 13.05 21.35 13.2 20.95 13.2 20.65 13.2 20.4 13.05 20.15 12.9 20 12.6 19.85 12.3 19.85 12 19.85 11.7 20 11.4
L 20.4 11
Q 20.6 10.8 20.95 10.8 21.35 10.8 21.55 11 21.75 11.1 21.95 11.4 Z"/>
</g>

<g id="BDM_200x200_FR_psd_Asset_5_V6_2_Augmentez_la__satisfaction_des_clients__et_la_mobilisation__des_0_Layer0_0_MEMBER_40_FILL">
<path fill="#D82C26" stroke="none" d="
M 23 9.65
L 23.2 9.75 23.35 9.65 23.45 9.5 23.35 9.3 23.2 9.25 23 9.3 22.95 9.5 23 9.65
M 23.35 10.6
L 23 10.6 23 13.4 23.35 13.4 23.35 10.6 Z"/>
</g>

<g id="BDM_200x200_FR_psd_Asset_5_V6_2_Augmentez_la__satisfaction_des_clients__et_la_mobilisation__des_0_Layer0_0_MEMBER_41_FILL">
<path fill="#D82C26" stroke="none" d="
M 24.25 13.25
L 24.6 13.5 24.75 13.2 24.55 13 24.5 12.7 24.5 8.85 24.15 8.9 24.15 12.8
Q 24.15 13.1 24.25 13.25 Z"/>
</g>

<g id="BDM_200x200_FR_psd_Asset_5_V6_2_Augmentez_la__satisfaction_des_clients__et_la_mobilisation__des_0_Layer0_0_MEMBER_42_FILL">
<path fill="#D82C26" stroke="none" d="
M 25.65 10.6
L 25.3 10.6 25.3 13.4 25.65 13.4 25.65 10.6
M 25.3 9.3
L 25.2 9.5 25.3 9.65 25.45 9.75 25.65 9.65 25.7 9.5 25.65 9.3 25.45 9.25 25.3 9.3 Z"/>
</g>

<g id="BDM_200x200_FR_psd_Asset_5_V6_2_Augmentez_la__satisfaction_des_clients__et_la_mobilisation__des_0_Layer0_0_MEMBER_43_FILL">
<path fill="#D82C26" stroke="none" d="
M 27.7 10.6
L 27.15 10.5 26.75 10.6
Q 26.5 10.7 26.4 10.85
L 26.25 11.3
Q 26.25 11.6 26.45 11.8
L 27.65 12.35
Q 27.8 12.5 27.8 12.7 27.8 12.95 27.65 13.1
L 27.2 13.2
Q 26.6 13.2 26.25 12.85
L 26.2 13.2 26.6 13.4 27.2 13.5 27.65 13.4
Q 27.95 13.3 28 13.1 28.15 12.95 28.15 12.7 28.15 12.35 27.95 12.2 27.75 12 27.3 11.85
L 26.75 11.6
Q 26.55 11.4 26.55 11.25 26.55 11.1 26.75 10.9
L 27.2 10.8
Q 27.45 10.8 27.6 10.9
L 27.9 11.05 28.05 10.8 27.7 10.6 Z"/>
</g>

<g id="BDM_200x200_FR_psd_Asset_5_V6_2_Augmentez_la__satisfaction_des_clients__et_la_mobilisation__des_0_Layer0_0_MEMBER_44_FILL">
<path fill="#D82C26" stroke="none" d="
M 30.5 11.55
L 30.5 11.75 30.15 11.75
Q 28.55 11.75 28.55 12.65 28.55 13.05 28.8 13.3 29.2 13.5 29.45 13.5 29.75 13.5 30.05 13.35 30.3 13.2 30.5 12.85
L 30.5 13.15 30.55 13.4 30.85 13.4 30.8 11.6
Q 30.8 11 30.55 10.8 30.25 10.5 29.75 10.5
L 29.15 10.6 28.7 10.85 28.8 11.15 29.2 10.9 29.7 10.8
Q 30.1 10.8 30.3 11 30.5 11.2 30.5 11.55
M 30.5 11.95
L 30.5 12.25 30.4 12.7 30.05 13.1
Q 29.85 13.25 29.5 13.25 29.3 13.25 29.05 13.1 28.9 12.95 28.9 12.65 28.9 11.95 30.2 11.95
L 30.5 11.95 Z"/>
</g>

<g id="BDM_200x200_FR_psd_Asset_5_V6_2_Augmentez_la__satisfaction_des_clients__et_la_mobilisation__des_0_Layer0_0_MEMBER_45_FILL">
<path fill="#D82C26" stroke="none" d="
M 32.8 10.6
L 32 10.6 32 9.8 31.65 9.95 31.65 10.6 31.2 10.6 31.1 10.9 31.65 10.9 31.65 12.75
Q 31.65 13.1 31.8 13.3 32.1 13.5 32.3 13.5
L 32.6 13.45 32.9 13.35 32.85 13.05 32.4 13.2
Q 32.2 13.2 32.1 13.05 32 13 32 12.7
L 32 10.9 32.7 10.9 32.8 10.6 Z"/>
</g>

<g id="BDM_200x200_FR_psd_Asset_5_V6_2_Augmentez_la__satisfaction_des_clients__et_la_mobilisation__des_0_Layer0_0_MEMBER_46_FILL">
<path fill="#D82C26" stroke="none" d="
M 33.25 9.65
L 33.45 9.75 33.6 9.65 33.7 9.5 33.6 9.3 33.45 9.25 33.25 9.3 33.2 9.5 33.25 9.65
M 33.6 10.6
L 33.25 10.6 33.25 13.4 33.6 13.4 33.6 10.6 Z"/>
</g>

<g id="BDM_200x200_FR_psd_Asset_5_V6_2_Augmentez_la__satisfaction_des_clients__et_la_mobilisation__des_0_Layer0_0_MEMBER_47_FILL">
<path fill="#D82C26" stroke="none" d="
M 34.9 10.7
Q 34.5 11 34.4 11.25 34.2 11.5 34.2 12 34.2 12.5 34.4 12.75 34.55 13.15 34.9 13.3 35.25 13.5 35.7 13.5 36.2 13.5 36.45 13.3 36.75 13.2 37 12.75 37.2 12.35 37.2 12 37.2 11.65 37 11.25 36.8 10.9 36.45 10.7 36.05 10.5 35.7 10.5 35.4 10.5 34.9 10.7
M 34.55 12
Q 34.55 11.7 34.7 11.4 34.85 11.15 35.1 11 35.3 10.8 35.7 10.8 36.05 10.8 36.3 11 36.6 11.2 36.7 11.4 36.85 11.7 36.85 12 36.85 12.3 36.7 12.6 36.55 12.9 36.3 13.05 36 13.2 35.7 13.2 35.35 13.2 35.1 13.05 34.85 12.95 34.7 12.6 34.55 12.3 34.55 12 Z"/>
</g>

<g id="BDM_200x200_FR_psd_Asset_5_V6_2_Augmentez_la__satisfaction_des_clients__et_la_mobilisation__des_0_Layer0_0_MEMBER_48_FILL">
<path fill="#D82C26" stroke="none" d="
M 39.15 10.5
Q 38.9 10.5 38.5 10.7 38.2 11 38.1 11.2
L 38.1 10.6 37.75 10.6 37.75 13.4 38.15 13.4 38.15 12
Q 38.15 11.55 38.25 11.35 38.45 11.05 38.6 10.95 38.85 10.8 39.05 10.8 39.5 10.8 39.65 11.1 39.85 11.5 39.85 11.8
L 39.85 13.4 40.2 13.4 40.2 11.7
Q 40.2 11.25 39.95 10.85 39.6 10.5 39.15 10.5 Z"/>
</g>

<g id="BDM_200x200_FR_psd_Asset_5_V6_2_Augmentez_la__satisfaction_des_clients__et_la_mobilisation__des_0_Layer0_0_MEMBER_49_FILL">
<path fill="#D82C26" stroke="none" d="
M 2.4 17.4
Q 2.1 17.25 1.75 17.25 1.35 17.25 1 17.45 0.8 17.55 0.5 17.95
L 0.35 18.7
Q 0.35 19.15 0.5 19.45 0.75 19.9 1 20 1.35 20.2 1.75 20.2 2.15 20.2 2.4 20 2.8 19.8 2.9 19.5
L 2.95 20.1 3.3 20.1 3.25 15.5 2.9 15.6 2.9 17.9 2.4 17.4
M 0.85 18.1
Q 0.9 17.9 1.2 17.7 1.6 17.5 1.8 17.5 2.05 17.5 2.35 17.7 2.55 17.8 2.75 18.1 2.9 18.4 2.9 18.7 2.9 19.1 2.75 19.3 2.6 19.65 2.35 19.75 2.15 19.9 1.8 19.9 1.5 19.9 1.2 19.75 0.9 19.55 0.85 19.3 0.7 19.1 0.7 18.7 0.7 18.4 0.85 18.1 Z"/>
</g>

<g id="BDM_200x200_FR_psd_Asset_5_V6_2_Augmentez_la__satisfaction_des_clients__et_la_mobilisation__des_0_Layer0_0_MEMBER_50_FILL">
<path fill="#D82C26" stroke="none" d="
M 5.95 17.4
Q 5.55 17.2 5.25 17.2 5 17.2 4.5 17.4 4.2 17.65 4 17.95 3.85 18.25 3.85 18.7 3.85 19.15 4 19.5 4.3 19.9 4.55 20 4.8 20.2 5.25 20.2 6 20.2 6.4 19.85
L 6.35 19.55 5.9 19.8
Q 5.7 19.9 5.3 19.9 5 19.9 4.75 19.75 4.45 19.6 4.35 19.35 4.2 19.05 4.2 18.75
L 6.55 18.75 6.55 18.6
Q 6.55 18.3 6.4 17.9 6.25 17.65 5.95 17.4
M 5.95 17.8
Q 6.15 17.95 6.25 18.5
L 4.2 18.5 4.3 18.05
Q 4.5 17.75 4.65 17.65 4.95 17.5 5.25 17.5 5.65 17.5 5.95 17.8 Z"/>
</g>

<g id="BDM_200x200_FR_psd_Asset_5_V6_2_Augmentez_la__satisfaction_des_clients__et_la_mobilisation__des_0_Layer0_0_MEMBER_51_FILL">
<path fill="#D82C26" stroke="none" d="
M 6.95 18
Q 6.95 18.2 7.15 18.5
L 7.75 18.8
Q 8.3 19 8.35 19.05 8.55 19.2 8.55 19.4 8.55 19.65 8.35 19.8 8.25 19.9 7.9 19.9 7.4 19.9 7 19.6
L 6.9 19.9 7.35 20.1 7.95 20.2 8.4 20.1 8.75 19.85 8.9 19.4
Q 8.9 19.05 8.65 18.9 8.55 18.75 8 18.55 7.5 18.35 7.45 18.3 7.3 18.25 7.3 18 7.3 17.7 7.5 17.65 7.65 17.5 7.9 17.5
L 8.3 17.6 8.65 17.8 8.8 17.5 8.4 17.3 7.9 17.2 7.45 17.3
Q 7.25 17.35 7.1 17.6 6.95 17.75 6.95 18 Z"/>
</g>

<g id="BDM_200x200_FR_psd_Asset_5_V6_2_Augmentez_la__satisfaction_des_clients__et_la_mobilisation__des_0_Layer0_0_MEMBER_52_FILL">
<path fill="#D82C26" stroke="none" d="
M 10.85 17.4
Q 10.5 17.6 10.3 17.95 10.1 18.45 10.1 18.7 10.1 19 10.3 19.5 10.6 19.9 10.85 20 11.1 20.2 11.6 20.2
L 12.1 20.1
Q 12.35 20.05 12.55 19.85
L 12.5 19.55 12.1 19.8 11.6 19.9
Q 11.3 19.9 11 19.75 10.75 19.6 10.6 19.3
L 10.5 18.7 10.6 18.1 11 17.7
Q 11.4 17.5 11.6 17.5
L 12.05 17.6
Q 12.2 17.65 12.4 17.85
L 12.55 17.55 12.15 17.3 11.6 17.2
Q 11.25 17.2 10.85 17.4 Z"/>
</g>

<g id="BDM_200x200_FR_psd_Asset_5_V6_2_Augmentez_la__satisfaction_des_clients__et_la_mobilisation__des_0_Layer0_0_MEMBER_53_FILL">
<path fill="#D82C26" stroke="none" d="
M 15 17.4
Q 14.6 17.2 14.25 17.2 13.9 17.2 13.5 17.4 13.05 17.65 12.95 17.95 12.75 18.2 12.75 18.7 12.75 19.15 12.95 19.5 13.15 19.85 13.5 20 13.75 20.2 14.25 20.2 14.75 20.2 15 20 15.25 19.9 15.55 19.5 15.75 19.15 15.75 18.7 15.75 18.2 15.55 17.95 15.35 17.6 15 17.4
M 14.25 17.5
Q 14.45 17.5 14.85 17.7
L 15.25 18.1
Q 15.4 18.4 15.4 18.7 15.4 19.1 15.25 19.3 15.1 19.65 14.85 19.75 14.65 19.9 14.25 19.9 13.9 19.9 13.65 19.75 13.4 19.65 13.25 19.3 13.1 19.1 13.1 18.7 13.1 18.4 13.25 18.1 13.45 17.8 13.65 17.7 13.95 17.5 14.25 17.5 Z"/>
</g>

<g id="BDM_200x200_FR_psd_Asset_5_V6_2_Augmentez_la__satisfaction_des_clients__et_la_mobilisation__des_0_Layer0_0_MEMBER_54_FILL">
<path fill="#D82C26" stroke="none" d="
M 16.65 17.3
L 16.3 17.3 16.35 20.1 16.7 20.1 16.7 18.7 16.8 18.05 17.15 17.65
Q 17.4 17.5 17.6 17.5 18.05 17.5 18.2 17.8 18.4 18.05 18.4 18.5
L 18.4 20.1 18.75 20.1 18.75 18.4
Q 18.75 17.95 18.5 17.55 18.2 17.25 17.7 17.25 17.35 17.25 17.1 17.4 16.75 17.65 16.7 17.9
L 16.65 17.9 16.65 17.3 Z"/>
</g>

<g id="BDM_200x200_FR_psd_Asset_5_V6_2_Augmentez_la__satisfaction_des_clients__et_la_mobilisation__des_0_Layer0_0_MEMBER_55_FILL">
<path fill="#D82C26" stroke="none" d="
M 20.75 17.3
L 20.25 17.2 19.8 17.3
Q 19.6 17.35 19.45 17.6 19.3 17.75 19.3 18 19.3 18.2 19.5 18.5
L 20.1 18.8
Q 20.65 19 20.7 19.05 20.9 19.2 20.9 19.4 20.9 19.65 20.7 19.8 20.6 19.9 20.25 19.9 19.75 19.9 19.3 19.6
L 19.25 19.9
Q 19.35 20 19.7 20.1
L 20.25 20.2 20.75 20.1 21.1 19.85 21.25 19.4
Q 21.25 19.05 21 18.9 20.8 18.7 20.35 18.55 19.85 18.35 19.8 18.3 19.65 18.25 19.65 18 19.65 17.75 19.8 17.65 20.05 17.5 20.25 17.5
L 20.65 17.6 21 17.8 21.15 17.5 20.75 17.3 Z"/>
</g>

<g id="BDM_200x200_FR_psd_Asset_5_V6_2_Augmentez_la__satisfaction_des_clients__et_la_mobilisation__des_0_Layer0_0_MEMBER_56_FILL">
<path fill="#D82C26" stroke="none" d="
M 24.4 17.95
Q 24.25 17.7 23.85 17.4 23.35 17.2 23.05 17.2 22.8 17.2 22.3 17.4 21.9 17.7 21.75 17.95 21.6 18.25 21.6 18.7 21.6 19.15 21.75 19.5 22 19.85 22.3 20 22.65 20.2 23.05 20.2 23.5 20.2 23.85 20 24.15 19.85 24.4 19.5 24.55 19.15 24.55 18.7 24.55 18.25 24.4 17.95
M 23.7 17.7
L 24.1 18.1 24.2 18.7 24.1 19.3
Q 23.95 19.6 23.7 19.75 23.4 19.9 23.05 19.9 22.75 19.9 22.45 19.75 22.2 19.6 22.05 19.3
L 21.95 18.7 22.05 18.1 22.45 17.7
Q 22.85 17.5 23.05 17.5 23.3 17.5 23.7 17.7 Z"/>
</g>

<g id="BDM_200x200_FR_psd_Asset_5_V6_2_Augmentez_la__satisfaction_des_clients__et_la_mobilisation__des_0_Layer0_0_MEMBER_57_FILL">
<path fill="#D82C26" stroke="none" d="
M 25.5 17.9
L 25.45 17.3 25.15 17.3 25.15 20.1 25.5 20.1 25.5 18.7
Q 25.5 18.35 25.65 18.1 25.75 17.8 25.95 17.65 26.2 17.5 26.4 17.5 26.7 17.5 26.95 17.75 27.1 18.05 27.1 18.45
L 27.1 20.1 27.45 20.1 27.45 18.65
Q 27.45 18.2 27.7 17.85 27.95 17.5 28.35 17.5 28.75 17.5 28.9 17.8 29.1 18.05 29.1 18.5
L 29.1 20.1 29.45 20.1 29.45 18.45
Q 29.45 17.95 29.2 17.55 29 17.25 28.4 17.25 28.1 17.25 27.8 17.4 27.55 17.6 27.4 17.95 27.35 17.7 27.05 17.4 26.85 17.25 26.5 17.25 26.15 17.25 25.9 17.4 25.65 17.6 25.5 17.9 Z"/>
</g>

<g id="BDM_200x200_FR_psd_Asset_5_V6_2_Augmentez_la__satisfaction_des_clients__et_la_mobilisation__des_0_Layer0_0_MEMBER_58_FILL">
<path fill="#D82C26" stroke="none" d="
M 30.15 17.3
L 30.2 20.1 30.55 20.1 30.55 18.7 30.65 18.1 30.95 17.65
Q 31.2 17.5 31.4 17.5 31.8 17.5 31.95 17.75 32.15 18.15 32.15 18.45
L 32.15 20.1 32.5 20.1 32.5 18.65
Q 32.5 18.1 32.75 17.85 33 17.5 33.35 17.5 33.75 17.5 33.95 17.8 34.1 18.1 34.1 18.5
L 34.1 20.1 34.45 20.1 34.45 18.45
Q 34.45 17.85 34.2 17.55 34 17.25 33.45 17.25 33.1 17.25 32.8 17.4 32.5 17.7 32.4 17.95 32.35 17.65 32.1 17.4 31.9 17.25 31.5 17.25 31.2 17.25 30.9 17.4 30.6 17.7 30.55 17.9
L 30.5 17.9 30.5 17.3 30.15 17.3 Z"/>
</g>

<g id="BDM_200x200_FR_psd_Asset_5_V6_2_Augmentez_la__satisfaction_des_clients__et_la_mobilisation__des_0_Layer0_0_MEMBER_59_FILL">
<path fill="#D82C26" stroke="none" d="
M 36.95 18.45
L 36.6 18.45
Q 35 18.45 35 19.35 35 19.75 35.25 20 35.5 20.2 35.9 20.2 36.25 20.2 36.55 20.05 36.8 19.9 36.95 19.6
L 37 19.85 37 20.1 37.35 20.1 37.3 18.3
Q 37.3 17.75 37 17.5 36.7 17.2 36.2 17.2
L 35.65 17.3
Q 35.25 17.5 35.15 17.6
L 35.25 17.85 35.7 17.6 36.15 17.5
Q 36.55 17.5 36.75 17.7 36.95 17.9 36.95 18.25
L 36.95 18.45
M 36.95 18.95
L 36.85 19.4 36.5 19.8
Q 36.3 19.95 35.95 19.95 35.75 19.95 35.5 19.8 35.35 19.65 35.35 19.35 35.35 18.65 36.65 18.65
L 36.95 18.65 36.95 18.95 Z"/>
</g>

<g id="BDM_200x200_FR_psd_Asset_5_V6_2_Augmentez_la__satisfaction_des_clients__et_la_mobilisation__des_0_Layer0_0_MEMBER_60_FILL">
<path fill="#D82C26" stroke="none" d="
M 37.65 17.3
L 37.55 17.6 38.1 17.6 38.1 19.45
Q 38.1 19.8 38.25 20 38.55 20.2 38.75 20.2
L 39.05 20.15 39.35 20.05 39.3 19.75
Q 39.1 19.9 38.85 19.9
L 38.55 19.75 38.45 19.4 38.45 17.6 39.15 17.6 39.25 17.3 38.45 17.3 38.45 16.5 38.1 16.65 38.1 17.3 37.65 17.3 Z"/>
</g>

<g id="BDM_200x200_FR_psd_Asset_5_V6_2_Augmentez_la__satisfaction_des_clients__et_la_mobilisation__des_0_Layer0_0_MEMBER_61_FILL">
<path fill="#D82C26" stroke="none" d="
M 42 17.9
Q 41.85 17.65 41.55 17.4 41.15 17.2 40.85 17.2 40.55 17.2 40.15 17.4 39.8 17.6 39.6 17.95 39.45 18.25 39.45 18.7 39.45 19.15 39.65 19.5 39.85 19.9 40.15 20 40.4 20.2 40.9 20.2 41.6 20.2 42 19.85
L 41.95 19.55 41.5 19.8
Q 41.3 19.9 40.9 19.9 40.6 19.9 40.35 19.75 40.15 19.65 39.95 19.35 39.8 19.05 39.8 18.75
L 42.15 18.75 42.15 18.6
Q 42.15 18.3 42 17.9
M 41.55 17.8
Q 41.85 18.05 41.85 18.5
L 39.8 18.5 39.9 18.05 40.3 17.65
Q 40.55 17.5 40.85 17.5 41.25 17.5 41.55 17.8 Z"/>
</g>

<g id="BDM_200x200_FR_psd_Asset_5_V6_2_Augmentez_la__satisfaction_des_clients__et_la_mobilisation__des_0_Layer0_0_MEMBER_62_FILL">
<path fill="#D82C26" stroke="none" d="
M 43.05 17.3
L 42.7 17.3 42.7 19
Q 42.7 19.5 42.95 19.85 43.15 20.2 43.75 20.2 44.1 20.2 44.35 20 44.55 19.9 44.75 19.5
L 44.8 20.15 45.15 20.1 45.1 19.8 45.1 17.3 44.75 17.3 44.75 18.7 44.65 19.35
Q 44.5 19.7 44.3 19.75 44.1 19.9 43.8 19.9 43.4 19.9 43.25 19.65 43.05 19.4 43.05 18.95
L 43.05 17.3 Z"/>
</g>

<g id="BDM_200x200_FR_psd_Asset_5_V6_2_Augmentez_la__satisfaction_des_clients__et_la_mobilisation__des_0_Layer0_0_MEMBER_63_FILL">
<path fill="#D82C26" stroke="none" d="
M 46.2 17.3
L 45.85 17.3 45.9 20.1 46.25 20.1 46.25 18.7
Q 46.25 18.15 46.45 17.9 46.65 17.55 47.05 17.55
L 47.3 17.6 47.35 17.3 47.05 17.25
Q 46.85 17.25 46.6 17.4 46.3 17.7 46.25 17.9
L 46.2 17.3 Z"/>
</g>

<g id="BDM_200x200_FR_psd_Asset_5_V6_2_Augmentez_la__satisfaction_des_clients__et_la_mobilisation__des_0_Layer0_0_MEMBER_64_FILL">
<path fill="#D82C26" stroke="none" d="
M 47.55 18
Q 47.55 18.3 47.75 18.5
L 48.95 19.05
Q 49.15 19.25 49.15 19.4 49.15 19.6 48.95 19.8 48.8 19.9 48.5 19.9 47.95 19.9 47.55 19.6
L 47.5 19.9
Q 47.6 20 47.95 20.1
L 48.5 20.2 48.95 20.1 49.35 19.85 49.45 19.4
Q 49.45 19.05 49.25 18.9 49.05 18.7 48.6 18.55 48.1 18.35 48.05 18.3 47.9 18.25 47.9 18 47.9 17.75 48.05 17.65 48.2 17.5 48.5 17.5
L 48.9 17.6 49.25 17.8 49.4 17.5 49 17.3 48.5 17.2 48.05 17.3
Q 47.85 17.35 47.7 17.6 47.55 17.75 47.55 18 Z"/>
</g>

<g id="BDM_200x200_FR_psd_Asset_5_V6_2_Augmentez_la__satisfaction_des_clients__et_la_mobilisation__des_0_Layer0_0_MEMBER_65_FILL">
<path fill="#D82C26" stroke="none" d="
M 50.1 20.1
L 50.25 20.15 50.45 20.1 50.55 19.9 50.45 19.7 50.25 19.6 50.1 19.7 50 19.9 50.1 20.1 Z"/>
</g>
</defs>

<g transform="matrix( 1, 0, 0, 1, -16,8) ">
<g transform="matrix( 1, 0, 0, 1, 8,4) ">
<g transform="matrix( 1, 0, 0, 1, 24,7) ">
<g transform="matrix( 2.815704345703125, 0, 0, 2.832611083984375, 0.15,13.6) ">
<use xlink:href="#BDM_200x200_FR_psd_Asset_5_V6_2_Augmentez_la__satisfaction_des_clients__et_la_mobilisation__des_0_Layer0_0_MEMBER_0_FILL"/>
</g>

<g transform="matrix( 2.815704345703125, 0, 0, 2.832611083984375, 0.15,13.6) ">
<use xlink:href="#BDM_200x200_FR_psd_Asset_5_V6_2_Augmentez_la__satisfaction_des_clients__et_la_mobilisation__des_0_Layer0_0_MEMBER_1_FILL"/>
</g>

<g transform="matrix( 2.815704345703125, 0, 0, 2.832611083984375, 0.15,13.6) ">
<use xlink:href="#BDM_200x200_FR_psd_Asset_5_V6_2_Augmentez_la__satisfaction_des_clients__et_la_mobilisation__des_0_Layer0_0_MEMBER_2_FILL"/>
</g>

<g transform="matrix( 2.815704345703125, 0, 0, 2.832611083984375, 0.15,13.6) ">
<use xlink:href="#BDM_200x200_FR_psd_Asset_5_V6_2_Augmentez_la__satisfaction_des_clients__et_la_mobilisation__des_0_Layer0_0_MEMBER_3_FILL"/>
</g>

<g transform="matrix( 2.815704345703125, 0, 0, 2.832611083984375, 0.15,13.6) ">
<use xlink:href="#BDM_200x200_FR_psd_Asset_5_V6_2_Augmentez_la__satisfaction_des_clients__et_la_mobilisation__des_0_Layer0_0_MEMBER_4_FILL"/>
</g>

<g transform="matrix( 2.815704345703125, 0, 0, 2.832611083984375, 0.15,13.6) ">
<use xlink:href="#BDM_200x200_FR_psd_Asset_5_V6_2_Augmentez_la__satisfaction_des_clients__et_la_mobilisation__des_0_Layer0_0_MEMBER_5_FILL"/>
</g>

<g transform="matrix( 2.815704345703125, 0, 0, 2.832611083984375, 0.15,13.6) ">
<use xlink:href="#BDM_200x200_FR_psd_Asset_5_V6_2_Augmentez_la__satisfaction_des_clients__et_la_mobilisation__des_0_Layer0_0_MEMBER_6_FILL"/>
</g>

<g transform="matrix( 2.815704345703125, 0, 0, 2.832611083984375, 0.15,13.6) ">
<use xlink:href="#BDM_200x200_FR_psd_Asset_5_V6_2_Augmentez_la__satisfaction_des_clients__et_la_mobilisation__des_0_Layer0_0_MEMBER_7_FILL"/>
</g>

<g transform="matrix( 2.815704345703125, 0, 0, 2.832611083984375, 0.15,13.6) ">
<use xlink:href="#BDM_200x200_FR_psd_Asset_5_V6_2_Augmentez_la__satisfaction_des_clients__et_la_mobilisation__des_0_Layer0_0_MEMBER_8_FILL"/>
</g>

<g transform="matrix( 2.815704345703125, 0, 0, 2.832611083984375, 0.15,13.6) ">
<use xlink:href="#BDM_200x200_FR_psd_Asset_5_V6_2_Augmentez_la__satisfaction_des_clients__et_la_mobilisation__des_0_Layer0_0_MEMBER_9_FILL"/>
</g>

<g transform="matrix( 2.815704345703125, 0, 0, 2.832611083984375, 0.15,13.6) ">
<use xlink:href="#BDM_200x200_FR_psd_Asset_5_V6_2_Augmentez_la__satisfaction_des_clients__et_la_mobilisation__des_0_Layer0_0_MEMBER_10_FILL"/>
</g>

<g transform="matrix( 2.815704345703125, 0, 0, 2.832611083984375, 0.15,13.6) ">
<use xlink:href="#BDM_200x200_FR_psd_Asset_5_V6_2_Augmentez_la__satisfaction_des_clients__et_la_mobilisation__des_0_Layer0_0_MEMBER_11_FILL"/>
</g>

<g transform="matrix( 2.815704345703125, 0, 0, 2.832611083984375, 0.15,13.6) ">
<use xlink:href="#BDM_200x200_FR_psd_Asset_5_V6_2_Augmentez_la__satisfaction_des_clients__et_la_mobilisation__des_0_Layer0_0_MEMBER_12_FILL"/>
</g>

<g transform="matrix( 2.815704345703125, 0, 0, 2.832611083984375, 0.15,13.6) ">
<use xlink:href="#BDM_200x200_FR_psd_Asset_5_V6_2_Augmentez_la__satisfaction_des_clients__et_la_mobilisation__des_0_Layer0_0_MEMBER_13_FILL"/>
</g>

<g transform="matrix( 2.815704345703125, 0, 0, 2.832611083984375, 0.15,13.6) ">
<use xlink:href="#BDM_200x200_FR_psd_Asset_5_V6_2_Augmentez_la__satisfaction_des_clients__et_la_mobilisation__des_0_Layer0_0_MEMBER_14_FILL"/>
</g>

<g transform="matrix( 2.815704345703125, 0, 0, 2.832611083984375, 0.15,13.6) ">
<use xlink:href="#BDM_200x200_FR_psd_Asset_5_V6_2_Augmentez_la__satisfaction_des_clients__et_la_mobilisation__des_0_Layer0_0_MEMBER_15_FILL"/>
</g>

<g transform="matrix( 2.815704345703125, 0, 0, 2.832611083984375, 0.15,13.6) ">
<use xlink:href="#BDM_200x200_FR_psd_Asset_5_V6_2_Augmentez_la__satisfaction_des_clients__et_la_mobilisation__des_0_Layer0_0_MEMBER_16_FILL"/>
</g>

<g transform="matrix( 2.815704345703125, 0, 0, 2.832611083984375, 0.15,13.6) ">
<use xlink:href="#BDM_200x200_FR_psd_Asset_5_V6_2_Augmentez_la__satisfaction_des_clients__et_la_mobilisation__des_0_Layer0_0_MEMBER_17_FILL"/>
</g>

<g transform="matrix( 2.815704345703125, 0, 0, 2.832611083984375, 0.15,13.6) ">
<use xlink:href="#BDM_200x200_FR_psd_Asset_5_V6_2_Augmentez_la__satisfaction_des_clients__et_la_mobilisation__des_0_Layer0_0_MEMBER_18_FILL"/>
</g>

<g transform="matrix( 2.815704345703125, 0, 0, 2.832611083984375, 0.15,13.6) ">
<use xlink:href="#BDM_200x200_FR_psd_Asset_5_V6_2_Augmentez_la__satisfaction_des_clients__et_la_mobilisation__des_0_Layer0_0_MEMBER_19_FILL"/>
</g>

<g transform="matrix( 2.815704345703125, 0, 0, 2.832611083984375, 0.15,13.6) ">
<use xlink:href="#BDM_200x200_FR_psd_Asset_5_V6_2_Augmentez_la__satisfaction_des_clients__et_la_mobilisation__des_0_Layer0_0_MEMBER_20_FILL"/>
</g>

<g transform="matrix( 2.815704345703125, 0, 0, 2.832611083984375, 0.15,13.6) ">
<use xlink:href="#BDM_200x200_FR_psd_Asset_5_V6_2_Augmentez_la__satisfaction_des_clients__et_la_mobilisation__des_0_Layer0_0_MEMBER_21_FILL"/>
</g>

<g transform="matrix( 2.815704345703125, 0, 0, 2.832611083984375, 0.15,13.6) ">
<use xlink:href="#BDM_200x200_FR_psd_Asset_5_V6_2_Augmentez_la__satisfaction_des_clients__et_la_mobilisation__des_0_Layer0_0_MEMBER_22_FILL"/>
</g>

<g transform="matrix( 2.815704345703125, 0, 0, 2.832611083984375, 0.15,13.6) ">
<use xlink:href="#BDM_200x200_FR_psd_Asset_5_V6_2_Augmentez_la__satisfaction_des_clients__et_la_mobilisation__des_0_Layer0_0_MEMBER_23_FILL"/>
</g>

<g transform="matrix( 2.815704345703125, 0, 0, 2.832611083984375, 0.15,13.6) ">
<use xlink:href="#BDM_200x200_FR_psd_Asset_5_V6_2_Augmentez_la__satisfaction_des_clients__et_la_mobilisation__des_0_Layer0_0_MEMBER_24_FILL"/>
</g>

<g transform="matrix( 2.815704345703125, 0, 0, 2.832611083984375, 0.15,13.6) ">
<use xlink:href="#BDM_200x200_FR_psd_Asset_5_V6_2_Augmentez_la__satisfaction_des_clients__et_la_mobilisation__des_0_Layer0_0_MEMBER_25_FILL"/>
</g>

<g transform="matrix( 2.815704345703125, 0, 0, 2.832611083984375, 0.15,13.6) ">
<use xlink:href="#BDM_200x200_FR_psd_Asset_5_V6_2_Augmentez_la__satisfaction_des_clients__et_la_mobilisation__des_0_Layer0_0_MEMBER_26_FILL"/>
</g>

<g transform="matrix( 2.815704345703125, 0, 0, 2.832611083984375, 0.15,13.6) ">
<use xlink:href="#BDM_200x200_FR_psd_Asset_5_V6_2_Augmentez_la__satisfaction_des_clients__et_la_mobilisation__des_0_Layer0_0_MEMBER_27_FILL"/>
</g>

<g transform="matrix( 2.815704345703125, 0, 0, 2.832611083984375, 0.15,13.6) ">
<use xlink:href="#BDM_200x200_FR_psd_Asset_5_V6_2_Augmentez_la__satisfaction_des_clients__et_la_mobilisation__des_0_Layer0_0_MEMBER_28_FILL"/>
</g>

<g transform="matrix( 2.815704345703125, 0, 0, 2.832611083984375, 0.15,13.6) ">
<use xlink:href="#BDM_200x200_FR_psd_Asset_5_V6_2_Augmentez_la__satisfaction_des_clients__et_la_mobilisation__des_0_Layer0_0_MEMBER_29_FILL"/>
</g>

<g transform="matrix( 2.815704345703125, 0, 0, 2.832611083984375, 0.15,13.6) ">
<use xlink:href="#BDM_200x200_FR_psd_Asset_5_V6_2_Augmentez_la__satisfaction_des_clients__et_la_mobilisation__des_0_Layer0_0_MEMBER_30_FILL"/>
</g>

<g transform="matrix( 2.815704345703125, 0, 0, 2.832611083984375, 0.15,13.6) ">
<use xlink:href="#BDM_200x200_FR_psd_Asset_5_V6_2_Augmentez_la__satisfaction_des_clients__et_la_mobilisation__des_0_Layer0_0_MEMBER_31_FILL"/>
</g>

<g transform="matrix( 2.815704345703125, 0, 0, 2.832611083984375, 0.15,13.6) ">
<use xlink:href="#BDM_200x200_FR_psd_Asset_5_V6_2_Augmentez_la__satisfaction_des_clients__et_la_mobilisation__des_0_Layer0_0_MEMBER_32_FILL"/>
</g>

<g transform="matrix( 2.815704345703125, 0, 0, 2.832611083984375, 0.15,13.6) ">
<use xlink:href="#BDM_200x200_FR_psd_Asset_5_V6_2_Augmentez_la__satisfaction_des_clients__et_la_mobilisation__des_0_Layer0_0_MEMBER_33_FILL"/>
</g>

<g transform="matrix( 2.815704345703125, 0, 0, 2.832611083984375, 0.15,13.6) ">
<use xlink:href="#BDM_200x200_FR_psd_Asset_5_V6_2_Augmentez_la__satisfaction_des_clients__et_la_mobilisation__des_0_Layer0_0_MEMBER_34_FILL"/>
</g>

<g transform="matrix( 2.815704345703125, 0, 0, 2.832611083984375, 0.15,13.6) ">
<use xlink:href="#BDM_200x200_FR_psd_Asset_5_V6_2_Augmentez_la__satisfaction_des_clients__et_la_mobilisation__des_0_Layer0_0_MEMBER_35_FILL"/>
</g>

<g transform="matrix( 2.815704345703125, 0, 0, 2.832611083984375, 0.15,13.6) ">
<use xlink:href="#BDM_200x200_FR_psd_Asset_5_V6_2_Augmentez_la__satisfaction_des_clients__et_la_mobilisation__des_0_Layer0_0_MEMBER_36_FILL"/>
</g>

<g transform="matrix( 2.815704345703125, 0, 0, 2.832611083984375, 0.15,13.6) ">
<use xlink:href="#BDM_200x200_FR_psd_Asset_5_V6_2_Augmentez_la__satisfaction_des_clients__et_la_mobilisation__des_0_Layer0_0_MEMBER_37_FILL"/>
</g>

<g transform="matrix( 2.815704345703125, 0, 0, 2.832611083984375, 0.15,13.6) ">
<use xlink:href="#BDM_200x200_FR_psd_Asset_5_V6_2_Augmentez_la__satisfaction_des_clients__et_la_mobilisation__des_0_Layer0_0_MEMBER_38_FILL"/>
</g>

<g transform="matrix( 2.815704345703125, 0, 0, 2.832611083984375, 0.15,13.6) ">
<use xlink:href="#BDM_200x200_FR_psd_Asset_5_V6_2_Augmentez_la__satisfaction_des_clients__et_la_mobilisation__des_0_Layer0_0_MEMBER_39_FILL"/>
</g>

<g transform="matrix( 2.815704345703125, 0, 0, 2.832611083984375, 0.15,13.6) ">
<use xlink:href="#BDM_200x200_FR_psd_Asset_5_V6_2_Augmentez_la__satisfaction_des_clients__et_la_mobilisation__des_0_Layer0_0_MEMBER_40_FILL"/>
</g>

<g transform="matrix( 2.815704345703125, 0, 0, 2.832611083984375, 0.15,13.6) ">
<use xlink:href="#BDM_200x200_FR_psd_Asset_5_V6_2_Augmentez_la__satisfaction_des_clients__et_la_mobilisation__des_0_Layer0_0_MEMBER_41_FILL"/>
</g>

<g transform="matrix( 2.815704345703125, 0, 0, 2.832611083984375, 0.15,13.6) ">
<use xlink:href="#BDM_200x200_FR_psd_Asset_5_V6_2_Augmentez_la__satisfaction_des_clients__et_la_mobilisation__des_0_Layer0_0_MEMBER_42_FILL"/>
</g>

<g transform="matrix( 2.815704345703125, 0, 0, 2.832611083984375, 0.15,13.6) ">
<use xlink:href="#BDM_200x200_FR_psd_Asset_5_V6_2_Augmentez_la__satisfaction_des_clients__et_la_mobilisation__des_0_Layer0_0_MEMBER_43_FILL"/>
</g>

<g transform="matrix( 2.815704345703125, 0, 0, 2.832611083984375, 0.15,13.6) ">
<use xlink:href="#BDM_200x200_FR_psd_Asset_5_V6_2_Augmentez_la__satisfaction_des_clients__et_la_mobilisation__des_0_Layer0_0_MEMBER_44_FILL"/>
</g>

<g transform="matrix( 2.815704345703125, 0, 0, 2.832611083984375, 0.15,13.6) ">
<use xlink:href="#BDM_200x200_FR_psd_Asset_5_V6_2_Augmentez_la__satisfaction_des_clients__et_la_mobilisation__des_0_Layer0_0_MEMBER_45_FILL"/>
</g>

<g transform="matrix( 2.815704345703125, 0, 0, 2.832611083984375, 0.15,13.6) ">
<use xlink:href="#BDM_200x200_FR_psd_Asset_5_V6_2_Augmentez_la__satisfaction_des_clients__et_la_mobilisation__des_0_Layer0_0_MEMBER_46_FILL"/>
</g>

<g transform="matrix( 2.815704345703125, 0, 0, 2.832611083984375, 0.15,13.6) ">
<use xlink:href="#BDM_200x200_FR_psd_Asset_5_V6_2_Augmentez_la__satisfaction_des_clients__et_la_mobilisation__des_0_Layer0_0_MEMBER_47_FILL"/>
</g>

<g transform="matrix( 2.815704345703125, 0, 0, 2.832611083984375, 0.15,13.6) ">
<use xlink:href="#BDM_200x200_FR_psd_Asset_5_V6_2_Augmentez_la__satisfaction_des_clients__et_la_mobilisation__des_0_Layer0_0_MEMBER_48_FILL"/>
</g>

<g transform="matrix( 2.815704345703125, 0, 0, 2.832611083984375, 0.15,13.6) ">
<use xlink:href="#BDM_200x200_FR_psd_Asset_5_V6_2_Augmentez_la__satisfaction_des_clients__et_la_mobilisation__des_0_Layer0_0_MEMBER_49_FILL"/>
</g>

<g transform="matrix( 2.815704345703125, 0, 0, 2.832611083984375, 0.15,13.6) ">
<use xlink:href="#BDM_200x200_FR_psd_Asset_5_V6_2_Augmentez_la__satisfaction_des_clients__et_la_mobilisation__des_0_Layer0_0_MEMBER_50_FILL"/>
</g>

<g transform="matrix( 2.815704345703125, 0, 0, 2.832611083984375, 0.15,13.6) ">
<use xlink:href="#BDM_200x200_FR_psd_Asset_5_V6_2_Augmentez_la__satisfaction_des_clients__et_la_mobilisation__des_0_Layer0_0_MEMBER_51_FILL"/>
</g>

<g transform="matrix( 2.815704345703125, 0, 0, 2.832611083984375, 0.15,13.6) ">
<use xlink:href="#BDM_200x200_FR_psd_Asset_5_V6_2_Augmentez_la__satisfaction_des_clients__et_la_mobilisation__des_0_Layer0_0_MEMBER_52_FILL"/>
</g>

<g transform="matrix( 2.815704345703125, 0, 0, 2.832611083984375, 0.15,13.6) ">
<use xlink:href="#BDM_200x200_FR_psd_Asset_5_V6_2_Augmentez_la__satisfaction_des_clients__et_la_mobilisation__des_0_Layer0_0_MEMBER_53_FILL"/>
</g>

<g transform="matrix( 2.815704345703125, 0, 0, 2.832611083984375, 0.15,13.6) ">
<use xlink:href="#BDM_200x200_FR_psd_Asset_5_V6_2_Augmentez_la__satisfaction_des_clients__et_la_mobilisation__des_0_Layer0_0_MEMBER_54_FILL"/>
</g>

<g transform="matrix( 2.815704345703125, 0, 0, 2.832611083984375, 0.15,13.6) ">
<use xlink:href="#BDM_200x200_FR_psd_Asset_5_V6_2_Augmentez_la__satisfaction_des_clients__et_la_mobilisation__des_0_Layer0_0_MEMBER_55_FILL"/>
</g>

<g transform="matrix( 2.815704345703125, 0, 0, 2.832611083984375, 0.15,13.6) ">
<use xlink:href="#BDM_200x200_FR_psd_Asset_5_V6_2_Augmentez_la__satisfaction_des_clients__et_la_mobilisation__des_0_Layer0_0_MEMBER_56_FILL"/>
</g>

<g transform="matrix( 2.815704345703125, 0, 0, 2.832611083984375, 0.15,13.6) ">
<use xlink:href="#BDM_200x200_FR_psd_Asset_5_V6_2_Augmentez_la__satisfaction_des_clients__et_la_mobilisation__des_0_Layer0_0_MEMBER_57_FILL"/>
</g>

<g transform="matrix( 2.815704345703125, 0, 0, 2.832611083984375, 0.15,13.6) ">
<use xlink:href="#BDM_200x200_FR_psd_Asset_5_V6_2_Augmentez_la__satisfaction_des_clients__et_la_mobilisation__des_0_Layer0_0_MEMBER_58_FILL"/>
</g>

<g transform="matrix( 2.815704345703125, 0, 0, 2.832611083984375, 0.15,13.6) ">
<use xlink:href="#BDM_200x200_FR_psd_Asset_5_V6_2_Augmentez_la__satisfaction_des_clients__et_la_mobilisation__des_0_Layer0_0_MEMBER_59_FILL"/>
</g>

<g transform="matrix( 2.815704345703125, 0, 0, 2.832611083984375, 0.15,13.6) ">
<use xlink:href="#BDM_200x200_FR_psd_Asset_5_V6_2_Augmentez_la__satisfaction_des_clients__et_la_mobilisation__des_0_Layer0_0_MEMBER_60_FILL"/>
</g>

<g transform="matrix( 2.815704345703125, 0, 0, 2.832611083984375, 0.15,13.6) ">
<use xlink:href="#BDM_200x200_FR_psd_Asset_5_V6_2_Augmentez_la__satisfaction_des_clients__et_la_mobilisation__des_0_Layer0_0_MEMBER_61_FILL"/>
</g>

<g transform="matrix( 2.815704345703125, 0, 0, 2.832611083984375, 0.15,13.6) ">
<use xlink:href="#BDM_200x200_FR_psd_Asset_5_V6_2_Augmentez_la__satisfaction_des_clients__et_la_mobilisation__des_0_Layer0_0_MEMBER_62_FILL"/>
</g>

<g transform="matrix( 2.815704345703125, 0, 0, 2.832611083984375, 0.15,13.6) ">
<use xlink:href="#BDM_200x200_FR_psd_Asset_5_V6_2_Augmentez_la__satisfaction_des_clients__et_la_mobilisation__des_0_Layer0_0_MEMBER_63_FILL"/>
</g>

<g transform="matrix( 2.815704345703125, 0, 0, 2.832611083984375, 0.15,13.6) ">
<use xlink:href="#BDM_200x200_FR_psd_Asset_5_V6_2_Augmentez_la__satisfaction_des_clients__et_la_mobilisation__des_0_Layer0_0_MEMBER_64_FILL"/>
</g>

<g transform="matrix( 2.815704345703125, 0, 0, 2.832611083984375, 0.15,13.6) ">
<use xlink:href="#BDM_200x200_FR_psd_Asset_5_V6_2_Augmentez_la__satisfaction_des_clients__et_la_mobilisation__des_0_Layer0_0_MEMBER_65_FILL"/>
</g>
</g>
</g>
</g>
</svg>
