
<svg xmlns="http://www.w3.org/2000/svg" version="1.1" xmlns:xlink="http://www.w3.org/1999/xlink" preserveAspectRatio="none" x="0px" y="0px" width="336px" height="280px" viewBox="0 0 336 280">
<defs>
<g id="BDM_336x280_FR_psd_Asset_6_V7_4_Comprenez_mieux__les_besoins_de_vos_clients___0_Layer0_0_MEMBER_0_FILL">
<path fill="#D82C26" stroke="none" d="
M 3.65 -5.7
Q 4.05 -5.7 4.75 -5.5 5.1 -5.35 5.6 -4.95
L 5.75 -5.45
Q 5.4 -5.7 4.8 -5.95 4.35 -6.15 3.65 -6.15 2.75 -6.15 2.05 -5.75 1.35 -5.4 0.95 -4.65 0.55 -4 0.55 -3 0.55 -2.05 0.9 -1.35 1.45 -0.55 2.05 -0.25 2.65 0.15 3.65 0.15 4.35 0.15 4.85 -0.1 5.5 -0.35 5.75 -0.65
L 5.65 -1.1
Q 5.35 -0.8 4.75 -0.55 4.15 -0.3 3.65 -0.3 2.85 -0.3 2.3 -0.65 1.7 -1 1.4 -1.65 1.1 -2.25 1.1 -3 1.1 -3.75 1.4 -4.35 1.7 -5 2.3 -5.35 3 -5.7 3.65 -5.7 Z"/>
</g>

<g id="BDM_336x280_FR_psd_Asset_6_V7_4_Comprenez_mieux__les_besoins_de_vos_clients___0_Layer0_0_MEMBER_1_FILL">
<path fill="#D82C26" stroke="none" d="
M 9.55 -3.85
Q 9.05 -4.1 8.45 -4.1 7.9 -4.1 7.4 -3.85 6.9 -3.55 6.65 -3.1 6.35 -2.55 6.35 -2 6.35 -1.4 6.65 -0.9 6.9 -0.45 7.4 -0.15 7.8 0.1 8.45 0.1 9.2 0.1 9.55 -0.15 10.1 -0.5 10.3 -0.9 10.6 -1.4 10.6 -2 10.6 -2.55 10.3 -3.1 10.1 -3.45 9.55 -3.85
M 8.45 -3.65
Q 8.95 -3.65 9.3 -3.45 9.7 -3.2 9.9 -2.85 10.1 -2.35 10.1 -2 10.1 -1.65 9.9 -1.15 9.7 -0.8 9.35 -0.55 8.95 -0.3 8.45 -0.3 8 -0.3 7.6 -0.55 7.3 -0.75 7.05 -1.15 6.85 -1.5 6.85 -2 6.85 -2.5 7.05 -2.85 7.3 -3.25 7.6 -3.45 7.95 -3.65 8.45 -3.65 Z"/>
</g>

<g id="BDM_336x280_FR_psd_Asset_6_V7_4_Comprenez_mieux__les_besoins_de_vos_clients___0_Layer0_0_MEMBER_2_FILL">
<path fill="#D82C26" stroke="none" d="
M 13.35 -3.65
Q 13.8 -3.65 14.1 -3.35 14.35 -2.95 14.35 -2.35
L 14.35 0 14.85 0 14.85 -2.05
Q 14.85 -2.8 15.2 -3.2 15.6 -3.65 16.1 -3.65 16.7 -3.65 16.9 -3.25 17.15 -2.85 17.15 -2.25
L 17.15 0 17.65 0 17.65 -2.4
Q 17.65 -3.05 17.3 -3.6 16.9 -4.1 16.2 -4.1 15.75 -4.1 15.35 -3.8 15 -3.6 14.75 -3.05 14.6 -3.55 14.3 -3.8 13.95 -4.1 13.45 -4.1 13.05 -4.1 12.65 -3.8 12.25 -3.55 12.1 -3.1
L 12.05 -3.95 11.55 -3.95 11.6 0 12.1 0 12.1 -1.95
Q 12.1 -2.5 12.25 -2.9 12.5 -3.3 12.7 -3.45 12.95 -3.65 13.35 -3.65 Z"/>
</g>

<g id="BDM_336x280_FR_psd_Asset_6_V7_4_Comprenez_mieux__les_besoins_de_vos_clients___0_Layer0_0_MEMBER_3_FILL">
<path fill="#D82C26" stroke="none" d="
M 20.05 -3.85
Q 19.65 -3.55 19.4 -3.1
L 19.35 -3.1 19.35 -3.95 18.85 -3.95 18.85 2.05 19.35 2.05 19.35 -0.85 19.4 -0.85
Q 19.65 -0.35 20.05 -0.15 20.45 0.1 21 0.1 21.55 0.1 22.05 -0.15 22.4 -0.4 22.75 -0.9 23 -1.5 23 -2 23 -2.55 22.75 -3.05 22.4 -3.55 22.05 -3.8 21.6 -4.1 21 -4.1 20.55 -4.1 20.05 -3.85
M 19.35 -2
Q 19.35 -2.45 19.55 -2.85 19.75 -3.2 20.1 -3.45 20.45 -3.65 20.95 -3.65 21.4 -3.65 21.75 -3.45 22.05 -3.25 22.3 -2.85 22.5 -2.25 22.5 -2 22.5 -1.65 22.3 -1.15 22.05 -0.75 21.75 -0.55 21.35 -0.3 20.95 -0.3 20.5 -0.3 20.1 -0.55 19.75 -0.8 19.55 -1.15 19.35 -1.5 19.35 -2 Z"/>
</g>

<g id="BDM_336x280_FR_psd_Asset_6_V7_4_Comprenez_mieux__les_besoins_de_vos_clients___0_Layer0_0_MEMBER_4_FILL">
<path fill="#D82C26" stroke="none" d="
M 24.5 -1.95
Q 24.5 -2.7 24.8 -3.15 25.1 -3.65 25.65 -3.65
L 26 -3.6 26.1 -4 25.65 -4.1
Q 25.35 -4.1 25 -3.85 24.65 -3.6 24.5 -3.1
L 24.45 -3.95 23.95 -3.95 24 0 24.5 0 24.5 -1.95 Z"/>
</g>

<g id="BDM_336x280_FR_psd_Asset_6_V7_4_Comprenez_mieux__les_besoins_de_vos_clients___0_Layer0_0_MEMBER_5_FILL">
<path fill="#D82C26" stroke="none" d="
M 29.3 -3.85
Q 28.8 -4.1 28.3 -4.1 27.8 -4.1 27.3 -3.85 26.85 -3.55 26.55 -3.1 26.3 -2.5 26.3 -2 26.3 -1.4 26.6 -0.9 26.8 -0.45 27.3 -0.15 27.7 0.1 28.35 0.1 29.3 0.1 29.95 -0.4
L 29.85 -0.8 29.2 -0.45
Q 28.85 -0.3 28.4 -0.3 27.9 -0.3 27.55 -0.5 27.2 -0.75 27 -1.1 26.8 -1.45 26.8 -1.9
L 30.15 -1.9 30.15 -2.15
Q 30.15 -2.7 29.95 -3.1 29.7 -3.55 29.3 -3.85
M 28.3 -3.7
Q 28.9 -3.7 29.3 -3.3 29.7 -2.9 29.7 -2.3
L 26.8 -2.3
Q 26.8 -2.5 27 -2.9 27.15 -3.2 27.5 -3.5 27.75 -3.7 28.3 -3.7 Z"/>
</g>

<g id="BDM_336x280_FR_psd_Asset_6_V7_4_Comprenez_mieux__les_besoins_de_vos_clients___0_Layer0_0_MEMBER_6_FILL">
<path fill="#D82C26" stroke="none" d="
M 34.2 -3.6
Q 33.9 -4.1 33.1 -4.1 32.65 -4.1 32.25 -3.8 31.9 -3.65 31.65 -3.1
L 31.6 -3.95 31.15 -3.95 31.2 0 31.7 0 31.7 -2
Q 31.7 -2.5 31.85 -2.9 32 -3.25 32.35 -3.45 32.6 -3.65 33 -3.65 33.6 -3.65 33.85 -3.25 34.1 -2.85 34.1 -2.3
L 34.1 0 34.6 0 34.6 -2.4
Q 34.6 -3.1 34.2 -3.6 Z"/>
</g>

<g id="BDM_336x280_FR_psd_Asset_6_V7_4_Comprenez_mieux__les_besoins_de_vos_clients___0_Layer0_0_MEMBER_7_FILL">
<path fill="#D82C26" stroke="none" d="
M 39.2 -3.1
Q 38.95 -3.55 38.55 -3.85 38.05 -4.1 37.55 -4.1 37.05 -4.1 36.55 -3.85 36.1 -3.55 35.8 -3.1 35.55 -2.5 35.55 -2 35.55 -1.4 35.85 -0.9 36.05 -0.45 36.55 -0.15 36.95 0.1 37.6 0.1 38.55 0.1 39.2 -0.4
L 39.1 -0.8 38.45 -0.45
Q 38.1 -0.3 37.65 -0.3 37.15 -0.3 36.8 -0.5 36.45 -0.75 36.25 -1.1 36.05 -1.45 36.05 -1.9
L 39.4 -1.9 39.4 -2.15
Q 39.4 -2.7 39.2 -3.1
M 36.75 -3.5
Q 37 -3.7 37.55 -3.7 38.15 -3.7 38.55 -3.3 38.95 -2.9 38.95 -2.3
L 36.05 -2.3
Q 36.05 -2.5 36.25 -2.9 36.4 -3.2 36.75 -3.5 Z"/>
</g>

<g id="BDM_336x280_FR_psd_Asset_6_V7_4_Comprenez_mieux__les_besoins_de_vos_clients___0_Layer0_0_MEMBER_8_FILL">
<path fill="#D82C26" stroke="none" d="
M 40.15 -3.95
L 40.05 -3.6 42.45 -3.6 40 -0.4 40 0 43.1 0 43.2 -0.4 40.6 -0.4 43 -3.6 43 -3.95 40.15 -3.95 Z"/>
</g>

<g id="BDM_336x280_FR_psd_Asset_6_V7_4_Comprenez_mieux__les_besoins_de_vos_clients___0_Layer0_0_MEMBER_9_FILL">
<path fill="#D82C26" stroke="none" d="
M 50.3 -4.1
Q 49.85 -4.1 49.45 -3.8 49.1 -3.55 48.85 -3.05 48.7 -3.55 48.4 -3.8 48.1 -4.1 47.6 -4.1 47.15 -4.1 46.75 -3.8 46.35 -3.55 46.2 -3.1
L 46.15 -3.95 45.7 -3.95 45.7 0 46.2 0 46.2 -1.95
Q 46.2 -2.55 46.4 -2.9 46.55 -3.3 46.85 -3.45 47.05 -3.65 47.45 -3.65 48 -3.65 48.2 -3.35 48.45 -2.95 48.45 -2.35
L 48.45 0 48.95 0 48.95 -2.05
Q 48.95 -2.8 49.3 -3.2 49.7 -3.65 50.2 -3.65 50.8 -3.65 51 -3.25 51.25 -2.85 51.25 -2.25
L 51.25 0 51.75 0 51.75 -2.4
Q 51.75 -3.2 51.4 -3.6 51 -4.1 50.3 -4.1 Z"/>
</g>

<g id="BDM_336x280_FR_psd_Asset_6_V7_4_Comprenez_mieux__les_besoins_de_vos_clients___0_Layer0_0_MEMBER_10_FILL">
<path fill="#D82C26" stroke="none" d="
M 53.5 -3.95
L 53 -3.95 53 0 53.5 0 53.5 -3.95
M 53.5 -5.8
Q 53.4 -5.9 53.25 -5.9 53.05 -5.9 53 -5.8 52.9 -5.75 52.9 -5.55 52.9 -5.35 53 -5.3
L 53.25 -5.2 53.5 -5.3 53.6 -5.55 53.5 -5.8 Z"/>
</g>

<g id="BDM_336x280_FR_psd_Asset_6_V7_4_Comprenez_mieux__les_besoins_de_vos_clients___0_Layer0_0_MEMBER_11_FILL">
<path fill="#D82C26" stroke="none" d="
M 54.75 -0.9
Q 55.05 -0.45 55.5 -0.15 55.9 0.1 56.55 0.1 57.55 0.1 58.1 -0.4
L 58.05 -0.8 57.4 -0.45
Q 57.05 -0.3 56.55 -0.3 56.1 -0.3 55.75 -0.5 55.45 -0.7 55.2 -1.1 55 -1.45 55 -1.9
L 58.35 -1.9 58.35 -2.15
Q 58.35 -2.7 58.15 -3.1 57.95 -3.5 57.5 -3.85 57 -4.1 56.45 -4.1 55.95 -4.1 55.45 -3.85 55.1 -3.6 54.75 -3.1 54.5 -2.5 54.5 -2 54.5 -1.5 54.75 -0.9
M 55 -2.3
Q 55 -2.65 55.2 -2.9 55.35 -3.3 55.7 -3.5 55.95 -3.7 56.45 -3.7 57.1 -3.7 57.5 -3.3 57.8 -3 57.9 -2.3
L 55 -2.3 Z"/>
</g>

<g id="BDM_336x280_FR_psd_Asset_6_V7_4_Comprenez_mieux__les_besoins_de_vos_clients___0_Layer0_0_MEMBER_12_FILL">
<path fill="#D82C26" stroke="none" d="
M 59.3 -1.55
Q 59.3 -0.85 59.65 -0.35 60.05 0.1 60.75 0.1 61.2 0.1 61.6 -0.15 62.05 -0.45 62.2 -0.85
L 62.25 0 62.75 0 62.7 -3.95 62.2 -3.95 62.2 -2
Q 62.2 -1.45 62 -1.1 61.9 -0.75 61.55 -0.5 61.3 -0.3 60.85 -0.3 60.3 -0.3 60.05 -0.7 59.8 -1.1 59.8 -1.7
L 59.8 -3.95 59.3 -3.95 59.3 -1.55 Z"/>
</g>

<g id="BDM_336x280_FR_psd_Asset_6_V7_4_Comprenez_mieux__les_besoins_de_vos_clients___0_Layer0_0_MEMBER_13_FILL">
<path fill="#D82C26" stroke="none" d="
M 63.65 -3.95
L 65.05 -2.1 63.5 0 64.1 0 65.35 -1.75 66.65 0 67.3 0 65.7 -2.1 67.1 -3.95 66.5 -3.95 65.4 -2.4 64.25 -3.95 63.65 -3.95 Z"/>
</g>

<g id="BDM_336x280_FR_psd_Asset_6_V7_4_Comprenez_mieux__les_besoins_de_vos_clients___0_Layer0_0_MEMBER_14_FILL">
<path fill="#D82C26" stroke="none" d="
M 0.95 9.65
L 1.45 10 1.65 9.55
Q 1.45 9.5 1.35 9.3
L 1.3 8.9 1.3 3.45 0.8 3.5 0.8 9
Q 0.8 9.35 0.95 9.65 Z"/>
</g>

<g id="BDM_336x280_FR_psd_Asset_6_V7_4_Comprenez_mieux__les_besoins_de_vos_clients___0_Layer0_0_MEMBER_15_FILL">
<path fill="#D82C26" stroke="none" d="
M 4.3 5.8
Q 3.8 5.8 3.3 6.05 2.85 6.35 2.55 6.8 2.3 7.3 2.3 7.9 2.3 8.5 2.6 9 2.8 9.45 3.3 9.75 3.8 10 4.35 10 5.3 10 5.95 9.5
L 5.85 9.1 5.2 9.45
Q 4.85 9.6 4.4 9.6 4.05 9.6 3.55 9.4 3.2 9.15 3 8.8 2.8 8.45 2.8 7.95
L 6.15 7.95 6.15 7.75
Q 6.15 7.15 5.95 6.75 5.75 6.35 5.3 6.05 4.8 5.8 4.3 5.8
M 3.5 6.4
Q 3.75 6.2 4.3 6.2 4.95 6.2 5.3 6.55 5.7 7.05 5.7 7.6
L 2.8 7.6
Q 2.8 7.45 3 6.95 3.15 6.65 3.5 6.4 Z"/>
</g>

<g id="BDM_336x280_FR_psd_Asset_6_V7_4_Comprenez_mieux__les_besoins_de_vos_clients___0_Layer0_0_MEMBER_16_FILL">
<path fill="#D82C26" stroke="none" d="
M 8.25 5.8
L 7.6 5.9
Q 7.3 6.05 7.1 6.3 6.95 6.55 6.95 6.9 6.95 7.25 7.2 7.6 7.55 7.85 8.05 8 8.7 8.25 8.9 8.4 9.15 8.55 9.15 8.85 9.15 9.15 8.9 9.4 8.65 9.6 8.25 9.6 7.45 9.6 6.95 9.1
L 6.85 9.55
Q 7.1 9.8 7.45 9.85 7.85 10 8.3 10 8.65 10 8.95 9.85 9.2 9.8 9.45 9.45 9.65 9.15 9.65 8.85 9.65 8.4 9.35 8.15 9.1 7.9 8.4 7.65 7.75 7.45 7.6 7.3 7.4 7.15 7.4 6.85 7.4 6.5 7.65 6.35 7.9 6.2 8.25 6.2
L 8.85 6.3 9.3 6.6 9.5 6.2 8.95 5.9 8.25 5.8 Z"/>
</g>

<g id="BDM_336x280_FR_psd_Asset_6_V7_4_Comprenez_mieux__les_besoins_de_vos_clients___0_Layer0_0_MEMBER_17_FILL">
<path fill="#D82C26" stroke="none" d="
M 12.8 3.4
L 12.3 3.5 12.25 9.9 12.7 9.9 12.75 9 12.8 9
Q 12.9 9.4 13.45 9.75 13.95 10 14.4 10 15 10 15.45 9.7 15.85 9.5 16.15 8.95 16.4 8.45 16.4 7.9 16.4 7.35 16.15 6.85 15.85 6.3 15.45 6.1 15 5.8 14.4 5.8 13.95 5.8 13.45 6.05 13 6.3 12.8 6.8
L 12.8 3.4
M 14.35 6.2
Q 14.75 6.2 15.15 6.45 15.55 6.7 15.7 7.05 15.9 7.4 15.9 7.9 15.9 8.4 15.7 8.75 15.55 9.1 15.15 9.35 14.75 9.6 14.35 9.6 13.9 9.6 13.55 9.35 13.2 9.15 12.95 8.75 12.75 8.25 12.75 7.9 12.75 7.55 12.95 7.05 13.2 6.7 13.55 6.45 13.9 6.2 14.35 6.2 Z"/>
</g>

<g id="BDM_336x280_FR_psd_Asset_6_V7_4_Comprenez_mieux__les_besoins_de_vos_clients___0_Layer0_0_MEMBER_18_FILL">
<path fill="#D82C26" stroke="none" d="
M 21 7.75
Q 21 7.15 20.8 6.75 20.6 6.35 20.15 6.05 19.65 5.8 19.1 5.8 18.6 5.8 18.1 6.05 17.75 6.3 17.4 6.8 17.15 7.3 17.15 7.9 17.15 8.4 17.4 9 17.7 9.45 18.15 9.75 18.65 10 19.2 10 20.15 10 20.8 9.5
L 20.7 9.1 20.05 9.45
Q 19.7 9.6 19.25 9.6 18.9 9.6 18.4 9.4 18.05 9.15 17.85 8.8 17.65 8.45 17.65 7.95
L 21 7.95 21 7.75
M 19.1 6.2
Q 19.8 6.2 20.15 6.55 20.55 7.05 20.55 7.6
L 17.65 7.6
Q 17.65 7.3 17.85 6.95 18.05 6.6 18.35 6.4 18.6 6.2 19.1 6.2 Z"/>
</g>

<g id="BDM_336x280_FR_psd_Asset_6_V7_4_Comprenez_mieux__les_besoins_de_vos_clients___0_Layer0_0_MEMBER_19_FILL">
<path fill="#D82C26" stroke="none" d="
M 23.1 5.8
L 22.45 5.9
Q 22.15 6.05 21.95 6.3 21.8 6.55 21.8 6.9 21.8 7.35 22.05 7.6 22.45 7.9 22.9 8 23.55 8.25 23.75 8.4 24 8.55 24 8.85 24 9.15 23.75 9.4 23.5 9.6 23.1 9.6 22.3 9.6 21.8 9.1
L 21.7 9.55
Q 21.95 9.8 22.3 9.85 22.7 10 23.1 10 23.45 10 23.8 9.85 24.05 9.8 24.3 9.45 24.45 9.25 24.45 8.85 24.45 8.4 24.15 8.15 24 7.95 23.25 7.65 22.6 7.45 22.45 7.3 22.25 7.15 22.25 6.85 22.25 6.5 22.5 6.35 22.75 6.2 23.1 6.2
L 23.65 6.3
Q 23.9 6.35 24.15 6.6
L 24.35 6.2 23.8 5.9 23.1 5.8 Z"/>
</g>

<g id="BDM_336x280_FR_psd_Asset_6_V7_4_Comprenez_mieux__les_besoins_de_vos_clients___0_Layer0_0_MEMBER_20_FILL">
<path fill="#D82C26" stroke="none" d="
M 28.35 6.05
Q 27.85 5.8 27.25 5.8 26.7 5.8 26.2 6.05 25.7 6.35 25.45 6.8 25.15 7.25 25.15 7.9 25.15 8.5 25.45 9 25.7 9.45 26.2 9.75 26.7 10 27.25 10 27.85 10 28.35 9.75 28.9 9.45 29.1 9 29.4 8.5 29.4 7.9 29.4 7.25 29.1 6.8 28.9 6.35 28.35 6.05
M 28.9 7.9
Q 28.9 8.25 28.7 8.75 28.45 9.15 28.15 9.35 27.75 9.6 27.25 9.6 26.8 9.6 26.4 9.35 26.1 9.15 25.85 8.75 25.65 8.25 25.65 7.9 25.65 7.55 25.85 7.05 26.1 6.65 26.4 6.45 26.8 6.2 27.25 6.2 27.75 6.2 28.1 6.45 28.5 6.7 28.7 7.05 28.9 7.55 28.9 7.9 Z"/>
</g>

<g id="BDM_336x280_FR_psd_Asset_6_V7_4_Comprenez_mieux__les_besoins_de_vos_clients___0_Layer0_0_MEMBER_21_FILL">
<path fill="#D82C26" stroke="none" d="
M 30.9 5.9
L 30.4 5.9 30.4 9.9 30.9 9.9 30.9 5.9
M 30.65 4.7
L 30.9 4.6 31 4.35 30.9 4.05 30.65 3.95
Q 30.5 3.95 30.4 4.1 30.3 4.15 30.3 4.35 30.3 4.5 30.4 4.6
L 30.65 4.7 Z"/>
</g>

<g id="BDM_336x280_FR_psd_Asset_6_V7_4_Comprenez_mieux__les_besoins_de_vos_clients___0_Layer0_0_MEMBER_22_FILL">
<path fill="#D82C26" stroke="none" d="
M 32.6 5.9
L 32.15 5.9 32.2 9.9 32.7 9.9 32.7 7.85
Q 32.7 7.4 32.85 7 33 6.7 33.35 6.4 33.75 6.2 34 6.2 34.55 6.2 34.85 6.6 35.1 7 35.1 7.6
L 35.1 9.9 35.6 9.9 35.6 7.45
Q 35.6 6.8 35.2 6.3 34.9 5.8 34.1 5.8 33.65 5.8 33.25 6.05 32.9 6.3 32.65 6.8
L 32.6 5.9 Z"/>
</g>

<g id="BDM_336x280_FR_psd_Asset_6_V7_4_Comprenez_mieux__les_besoins_de_vos_clients___0_Layer0_0_MEMBER_23_FILL">
<path fill="#D82C26" stroke="none" d="
M 37.9 5.8
L 37.25 5.9
Q 36.95 6.05 36.75 6.3 36.6 6.55 36.6 6.9 36.6 7.35 36.85 7.6 37.2 7.85 37.7 8 38.35 8.25 38.55 8.4 38.8 8.55 38.8 8.85 38.8 9.15 38.55 9.4 38.3 9.6 37.9 9.6 37.1 9.6 36.6 9.1
L 36.5 9.55
Q 36.75 9.8 37.1 9.85 37.5 10 37.95 10 38.3 10 38.6 9.85 38.85 9.8 39.1 9.45 39.3 9.15 39.3 8.85 39.3 8.4 39 8.15 38.75 7.9 38.05 7.65 37.4 7.45 37.25 7.3 37.05 7.15 37.05 6.85 37.05 6.5 37.3 6.35 37.55 6.2 37.9 6.2
L 38.45 6.3
Q 38.7 6.35 38.95 6.6
L 39.15 6.2 38.6 5.9 37.9 5.8 Z"/>
</g>

<g id="BDM_336x280_FR_psd_Asset_6_V7_4_Comprenez_mieux__les_besoins_de_vos_clients___0_Layer0_0_MEMBER_24_FILL">
<path fill="#D82C26" stroke="none" d="
M 43.6 5.8
Q 43 5.8 42.55 6.1 42.15 6.3 41.85 6.85 41.6 7.35 41.6 7.9 41.6 8.45 41.85 8.95 42.15 9.5 42.55 9.7 43 10 43.6 10 44.05 10 44.55 9.75 45 9.45 45.25 9
L 45.3 9.9 45.75 9.9 45.7 3.4 45.25 3.5 45.25 6.8 45.2 6.8
Q 44.95 6.25 44.55 6.05 44.05 5.8 43.6 5.8
M 45.25 7.9
Q 45.25 8.4 45.05 8.75 44.85 9.1 44.5 9.35 44.1 9.6 43.65 9.6 43.25 9.6 42.85 9.35 42.55 9.15 42.3 8.75 42.1 8.25 42.1 7.9 42.1 7.55 42.3 7.05 42.55 6.65 42.85 6.45 43.25 6.2 43.65 6.2 44.1 6.2 44.5 6.45 44.85 6.7 45.05 7.05 45.25 7.4 45.25 7.9 Z"/>
</g>

<g id="BDM_336x280_FR_psd_Asset_6_V7_4_Comprenez_mieux__les_besoins_de_vos_clients___0_Layer0_0_MEMBER_25_FILL">
<path fill="#D82C26" stroke="none" d="
M 48.7 5.8
Q 48.2 5.8 47.7 6.05 47.2 6.4 47 6.8 46.75 7.3 46.75 7.9 46.75 8.4 47 9 47.35 9.5 47.75 9.75 48.25 10 48.75 10 49.7 10 50.35 9.5
L 50.25 9.1
Q 50.05 9.3 49.65 9.45 49.3 9.6 48.8 9.6 48.5 9.6 48 9.4 47.6 9.15 47.45 8.8 47.3 8.55 47.2 7.95
L 50.6 7.95 50.6 7.75
Q 50.6 7.35 50.4 6.75 50.25 6.45 49.75 6.05 49.25 5.8 48.7 5.8
M 49.7 6.55
Q 50.1 6.95 50.1 7.6
L 47.25 7.6 47.4 6.95
Q 47.7 6.55 47.95 6.4 48.2 6.2 48.7 6.2 49.35 6.2 49.7 6.55 Z"/>
</g>

<g id="BDM_336x280_FR_psd_Asset_6_V7_4_Comprenez_mieux__les_besoins_de_vos_clients___0_Layer0_0_MEMBER_26_FILL">
<path fill="#D82C26" stroke="none" d="
M 52.6 5.9
L 54.1 9.9 54.65 9.9 56.15 5.9 55.65 5.9 54.4 9.4 53.1 5.9 52.6 5.9 Z"/>
</g>

<g id="BDM_336x280_FR_psd_Asset_6_V7_4_Comprenez_mieux__les_besoins_de_vos_clients___0_Layer0_0_MEMBER_27_FILL">
<path fill="#D82C26" stroke="none" d="
M 59.65 6.05
Q 59.15 5.8 58.55 5.8 58 5.8 57.5 6.05 57 6.35 56.75 6.8 56.45 7.25 56.45 7.9 56.45 8.5 56.75 9 57 9.45 57.5 9.75 58 10 58.55 10 59.15 10 59.65 9.75 60.2 9.45 60.4 9 60.7 8.5 60.7 7.9 60.7 7.25 60.4 6.8 60.2 6.35 59.65 6.05
M 60.2 7.9
Q 60.2 8.4 60 8.75 59.75 9.15 59.45 9.35 59.05 9.6 58.55 9.6 58.1 9.6 57.7 9.35 57.35 9.1 57.15 8.75 56.95 8.25 56.95 7.9 56.95 7.55 57.15 7.05 57.35 6.7 57.7 6.45 58.1 6.2 58.55 6.2 59.05 6.2 59.4 6.45 59.8 6.7 60 7.05 60.2 7.55 60.2 7.9 Z"/>
</g>

<g id="BDM_336x280_FR_psd_Asset_6_V7_4_Comprenez_mieux__les_besoins_de_vos_clients___0_Layer0_0_MEMBER_28_FILL">
<path fill="#D82C26" stroke="none" d="
M 62.75 5.8
L 62.1 5.9
Q 61.75 6.05 61.65 6.3 61.45 6.5 61.45 6.9 61.45 7.25 61.7 7.6 62.05 7.85 62.55 8 63.25 8.25 63.4 8.4 63.65 8.55 63.65 8.85 63.65 9.15 63.4 9.4 63.15 9.6 62.75 9.6 61.95 9.6 61.45 9.1
L 61.35 9.55
Q 61.55 9.75 62 9.85 62.4 10 62.8 10 63.15 10 63.45 9.85 63.7 9.8 63.95 9.45 64.15 9.15 64.15 8.85 64.15 8.4 63.85 8.15 63.6 7.9 62.9 7.65 62.35 7.5 62.15 7.3 61.9 7.15 61.9 6.85 61.9 6.5 62.15 6.35 62.4 6.2 62.75 6.2
L 63.35 6.3 63.8 6.6 64 6.2 63.45 5.9 62.75 5.8 Z"/>
</g>

<g id="BDM_336x280_FR_psd_Asset_6_V7_4_Comprenez_mieux__les_besoins_de_vos_clients___0_Layer0_0_MEMBER_29_FILL">
<path fill="#D82C26" stroke="none" d="
M 68.55 5.8
Q 68 5.8 67.5 6.05 67.1 6.3 66.75 6.8 66.45 7.35 66.45 7.9 66.45 8.5 66.75 9 67 9.45 67.5 9.75 68 10 68.55 10
L 69.3 9.85
Q 69.6 9.8 69.9 9.5
L 69.85 9.1 69.25 9.45
Q 69.05 9.55 68.6 9.55 68.1 9.55 67.75 9.35 67.35 9.1 67.2 8.75 67 8.4 67 7.9 67 7.4 67.2 7.05 67.35 6.7 67.75 6.45 68.15 6.2 68.55 6.2 68.9 6.2 69.2 6.35 69.45 6.4 69.7 6.65
L 69.9 6.25 69.3 5.9 68.55 5.8 Z"/>
</g>

<g id="BDM_336x280_FR_psd_Asset_6_V7_4_Comprenez_mieux__les_besoins_de_vos_clients___0_Layer0_0_MEMBER_30_FILL">
<path fill="#D82C26" stroke="none" d="
M 70.9 9.65
Q 71.05 9.85 71.35 10
L 71.6 9.55
Q 71.4 9.5 71.3 9.3 71.2 9.2 71.2 8.9
L 71.2 3.45 70.7 3.5 70.7 9
Q 70.7 9.4 70.9 9.65 Z"/>
</g>

<g id="BDM_336x280_FR_psd_Asset_6_V7_4_Comprenez_mieux__les_besoins_de_vos_clients___0_Layer0_0_MEMBER_31_FILL">
<path fill="#D82C26" stroke="none" d="
M 73 5.9
L 72.5 5.9 72.5 9.9 73 9.9 73 5.9
M 73 4.6
Q 73.15 4.45 73.15 4.35
L 73 4.05 72.75 3.95
Q 72.65 3.95 72.5 4.1
L 72.4 4.35 72.5 4.6 72.75 4.7 73 4.6 Z"/>
</g>

<g id="BDM_336x280_FR_psd_Asset_6_V7_4_Comprenez_mieux__les_besoins_de_vos_clients___0_Layer0_0_MEMBER_32_FILL">
<path fill="#D82C26" stroke="none" d="
M 77 6.05
Q 76.6 5.8 76 5.8 75.5 5.8 75 6.05 74.5 6.4 74.3 6.8 74.05 7.2 74.05 7.9 74.05 8.55 74.3 9 74.5 9.45 75 9.75 75.6 10 76.05 10 77 10 77.65 9.5
L 77.55 9.1
Q 77.35 9.3 76.95 9.45 76.5 9.6 76.1 9.6 75.8 9.6 75.3 9.4 74.9 9.15 74.75 8.8 74.6 8.55 74.5 7.95
L 77.9 7.95 77.9 7.75
Q 77.9 7.25 77.65 6.75 77.45 6.35 77 6.05
M 74.7 6.95
L 75.2 6.4
Q 75.55 6.2 76 6.2 76.65 6.2 77 6.55 77.4 7.05 77.4 7.6
L 74.55 7.6 74.7 6.95 Z"/>
</g>

<g id="BDM_336x280_FR_psd_Asset_6_V7_4_Comprenez_mieux__les_besoins_de_vos_clients___0_Layer0_0_MEMBER_33_FILL">
<path fill="#D82C26" stroke="none" d="
M 82.3 7.45
Q 82.3 6.7 81.95 6.3 81.6 5.8 80.8 5.8 80.35 5.8 79.95 6.05 79.55 6.4 79.4 6.8
L 79.35 6.8 79.35 5.9 78.85 5.9 78.9 9.9 79.4 9.9 79.4 7.85
Q 79.4 7.4 79.55 7 79.8 6.6 80.05 6.4 80.45 6.2 80.7 6.2 81.3 6.2 81.55 6.6 81.8 7 81.8 7.6
L 81.8 9.9 82.3 9.9 82.3 7.45 Z"/>
</g>

<g id="BDM_336x280_FR_psd_Asset_6_V7_4_Comprenez_mieux__les_besoins_de_vos_clients___0_Layer0_0_MEMBER_34_FILL">
<path fill="#D82C26" stroke="none" d="
M 83.6 5.9
L 83 5.9 82.85 6.3 83.6 6.3 83.6 8.95
Q 83.6 9.35 83.85 9.7 84.1 9.95 84.55 9.95
L 85 9.9 85.4 9.75 85.3 9.4
Q 85 9.55 84.7 9.55 84.4 9.55 84.25 9.4 84.1 9.25 84.1 8.85
L 84.1 6.3 85.15 6.3 85.25 5.9 84.1 5.9 84.1 4.8 83.6 4.95 83.6 5.9 Z"/>
</g>

<g id="BDM_336x280_FR_psd_Asset_6_V7_4_Comprenez_mieux__les_besoins_de_vos_clients___0_Layer0_0_MEMBER_35_FILL">
<path fill="#D82C26" stroke="none" d="
M 87.35 5.8
L 86.7 5.9
Q 86.4 6.05 86.2 6.3 86 6.6 86 6.9 86 7.3 86.3 7.6 86.7 7.9 87.15 8 87.8 8.25 88 8.4 88.25 8.55 88.25 8.85 88.25 9.15 88 9.4 87.75 9.6 87.35 9.6 86.55 9.6 86.05 9.1
L 85.95 9.55
Q 86.2 9.8 86.55 9.85 86.95 10 87.35 10
L 88.05 9.85
Q 88.3 9.8 88.55 9.45 88.7 9.25 88.7 8.85 88.7 8.4 88.4 8.15 88.15 7.9 87.5 7.65 86.9 7.5 86.7 7.3 86.5 7.15 86.5 6.85 86.5 6.5 86.75 6.35 87 6.2 87.35 6.2
L 87.9 6.3
Q 88.15 6.35 88.4 6.6
L 88.6 6.2 88.05 5.9 87.35 5.8 Z"/>
</g>

<g id="BDM_336x280_FR_psd_Asset_6_V7_4_Comprenez_mieux__les_besoins_de_vos_clients___0_Layer0_0_MEMBER_36_FILL">
<path fill="#D82C26" stroke="none" d="
M 89.75 9.85
L 90.05 9.95 90.3 9.85
Q 90.4 9.75 90.4 9.55 90.4 9.35 90.3 9.3 90.25 9.15 90.05 9.15 89.9 9.15 89.8 9.3 89.65 9.4 89.65 9.55
L 89.75 9.85 Z"/>
</g>

<g id="BDM_336x280_FR_psd_Asset_6_V7_4_CTA_copy_2_Regardez_la_vid_o__0_Layer0_0_MEMBER_0_FILL">
<path fill="#24B9D1" stroke="none" d="
M 7.55 -7.2
Q 7.55 -8.7 6.55 -9.4 5.55 -10.05 4 -10.05
L 0.95 -10.05 0.95 0 2.35 0 2.35 -4.15 3.95 -4.15 6.5 0 8.15 0 5.35 -4.35
Q 6.4 -4.7 6.9 -5.4 7.55 -6.1 7.55 -7.2
M 5.45 -8.5
Q 6.1 -8.05 6.1 -7.2 6.1 -6.25 5.5 -5.75 4.85 -5.25 3.85 -5.25
L 2.35 -5.25 2.35 -8.9 3.85 -8.9
Q 4.8 -8.9 5.45 -8.5 Z"/>
</g>

<g id="BDM_336x280_FR_psd_Asset_6_V7_4_CTA_copy_2_Regardez_la_vid_o__0_Layer0_0_MEMBER_1_FILL">
<path fill="#24B9D1" stroke="none" d="
M 8.55 -3.4
Q 8.55 -2.3 9 -1.5 9.4 -0.75 10.3 -0.25 11.15 0.2 12.15 0.2 13.8 0.2 14.9 -0.6
L 14.7 -1.65
Q 14.4 -1.4 13.6 -1.1 13.05 -0.9 12.3 -0.9 11.7 -0.9 11.05 -1.15 10.55 -1.45 10.2 -1.95 9.85 -2.55 9.85 -3.1
L 15.3 -3.1 15.3 -3.5
Q 15.3 -4.6 14.9 -5.35 14.5 -6.15 13.75 -6.55 13 -7 12 -7 11.1 -7 10.25 -6.55 9.45 -6.1 9 -5.3 8.55 -4.45 8.55 -3.4
M 13.5 -5.45
Q 13.95 -5 14.05 -4
L 9.85 -4
Q 9.95 -4.5 10.15 -4.95 10.45 -5.4 10.9 -5.7 11.45 -6 12.05 -6 12.95 -6 13.5 -5.45 Z"/>
</g>

<g id="BDM_336x280_FR_psd_Asset_6_V7_4_CTA_copy_2_Regardez_la_vid_o__0_Layer0_0_MEMBER_2_FILL">
<path fill="#24B9D1" stroke="none" d="
M 19.45 -7
Q 18.4 -7 17.7 -6.5 16.95 -6.05 16.55 -5.2 16.1 -4.35 16.1 -3.4 16.1 -2.4 16.55 -1.65 16.95 -0.8 17.7 -0.35 18.45 0.1 19.45 0.1 20.3 0.1 20.95 -0.25 21.55 -0.55 21.95 -1.25
L 22 -1.25 22 -0.2
Q 22 1 21.4 1.65 20.8 2.35 19.55 2.35 18.8 2.35 18.1 2.05 17.25 1.8 16.8 1.4
L 16.55 2.65 18 3.25
Q 18.75 3.45 19.65 3.45 21.55 3.45 22.4 2.45 23.35 1.5 23.35 -0.3
L 23.4 -6.8 22.1 -6.8 22.05 -5.55 22 -5.55
Q 21.65 -6.2 20.95 -6.6 20.35 -7 19.45 -7
M 17.75 -4.65
Q 18 -5.15 18.55 -5.55 19.1 -5.85 19.75 -5.85 20.45 -5.85 20.95 -5.55 21.45 -5.2 21.75 -4.65 22.05 -4.1 22.05 -3.45 22.05 -2.8 21.75 -2.2 21.4 -1.6 20.95 -1.35 20.45 -1 19.75 -1 19.05 -1 18.55 -1.35 18.05 -1.65 17.75 -2.25 17.5 -2.7 17.5 -3.45 17.5 -4.2 17.75 -4.65 Z"/>
</g>

<g id="BDM_336x280_FR_psd_Asset_6_V7_4_CTA_copy_2_Regardez_la_vid_o__0_Layer0_0_MEMBER_3_FILL">
<path fill="#24B9D1" stroke="none" d="
M 29.7 -6.3
Q 29 -7 27.65 -7 26.1 -7 24.95 -6.2
L 25.3 -5.2
Q 25.9 -5.6 26.3 -5.75 26.85 -5.95 27.4 -5.95 28.25 -5.95 28.65 -5.6 29.05 -5.2 29.05 -4.45
L 29.05 -4.15 28.5 -4.15
Q 26.75 -4.15 25.7 -3.65 24.6 -3.2 24.6 -1.9 24.6 -0.8 25.25 -0.35 25.9 0.2 26.7 0.2 27.35 0.2 28.15 -0.15 28.75 -0.4 29.1 -1.1
L 29.25 0 30.5 0
Q 30.4 -0.35 30.4 -1.4
L 30.4 -4.25
Q 30.4 -5.6 29.7 -6.3
M 28.55 -3.3
L 29.1 -3.3 29.1 -2.8
Q 29.1 -2.2 28.85 -1.85 28.6 -1.35 28.15 -1.1 27.7 -0.8 27.1 -0.8 26.6 -0.8 26.25 -1.05 25.9 -1.35 25.9 -1.9 25.9 -3.3 28.55 -3.3 Z"/>
</g>

<g id="BDM_336x280_FR_psd_Asset_6_V7_4_CTA_copy_2_Regardez_la_vid_o__0_Layer0_0_MEMBER_4_FILL">
<path fill="#24B9D1" stroke="none" d="
M 35.2 -7
Q 34.65 -7 34.1 -6.6 33.7 -6.25 33.35 -5.5
L 33.25 -6.8 31.95 -6.8 32 0 33.4 0 33.4 -3.4
Q 33.4 -4.35 33.85 -5.1 34.3 -5.8 35.1 -5.8
L 35.7 -5.7 35.95 -6.9 35.2 -7 Z"/>
</g>

<g id="BDM_336x280_FR_psd_Asset_6_V7_4_CTA_copy_2_Regardez_la_vid_o__0_Layer0_0_MEMBER_5_FILL">
<path fill="#24B9D1" stroke="none" d="
M 39.1 -7
Q 38.1 -7 37.4 -6.5 36.65 -6.05 36.2 -5.2 35.8 -4.3 35.8 -3.4 35.8 -2.5 36.2 -1.6 36.65 -0.75 37.4 -0.3 38.25 0.2 39.15 0.2 39.95 0.2 40.65 -0.2 41.35 -0.55 41.7 -1.25
L 41.75 -1.25 41.8 0 43.1 0 43.05 -10.95 41.65 -10.75 41.65 -5.6
Q 41.3 -6.25 40.6 -6.65 39.95 -7 39.1 -7
M 38.2 -5.55
Q 38.75 -5.85 39.4 -5.85 40.1 -5.85 40.6 -5.55 41.1 -5.2 41.4 -4.65 41.7 -4.05 41.7 -3.4 41.7 -2.7 41.4 -2.2 41.1 -1.6 40.6 -1.3 40 -0.95 39.4 -0.95 38.8 -0.95 38.2 -1.3 37.7 -1.6 37.4 -2.2 37.15 -2.8 37.15 -3.4 37.15 -4 37.4 -4.65 37.7 -5.2 38.2 -5.55 Z"/>
</g>

<g id="BDM_336x280_FR_psd_Asset_6_V7_4_CTA_copy_2_Regardez_la_vid_o__0_Layer0_0_MEMBER_6_FILL">
<path fill="#24B9D1" stroke="none" d="
M 49.55 -6.55
Q 48.8 -7 47.8 -7 46.85 -7 46 -6.55 45.15 -6.05 44.75 -5.3 44.3 -4.45 44.3 -3.4 44.3 -2.3 44.75 -1.5 45.3 -0.65 46.05 -0.25 46.9 0.2 47.9 0.2 49.55 0.2 50.65 -0.6
L 50.45 -1.65
Q 50.1 -1.35 49.35 -1.1 48.8 -0.9 48.05 -0.9 47.45 -0.9 46.85 -1.15 46.45 -1.35 45.95 -1.95 45.7 -2.4 45.6 -3.1
L 51.1 -3.1 51.1 -3.5
Q 51.1 -4.45 50.7 -5.35 50.35 -6.1 49.55 -6.55
M 49.25 -5.45
Q 49.8 -4.9 49.8 -4
L 45.65 -4
Q 45.65 -4.5 45.95 -4.95 46.2 -5.4 46.7 -5.7 47.15 -6 47.8 -6 48.75 -6 49.25 -5.45 Z"/>
</g>

<g id="BDM_336x280_FR_psd_Asset_6_V7_4_CTA_copy_2_Regardez_la_vid_o__0_Layer0_0_MEMBER_7_FILL">
<path fill="#24B9D1" stroke="none" d="
M 55.55 -5.7
L 51.75 -1.1 51.75 0 57.25 0 57.45 -1.1 53.35 -1.1 57.2 -5.75 57.2 -6.8 51.95 -6.8 51.75 -5.7 55.55 -5.7 Z"/>
</g>

<g id="BDM_336x280_FR_psd_Asset_6_V7_4_CTA_copy_2_Regardez_la_vid_o__0_Layer0_0_MEMBER_8_FILL">
<path fill="#24B9D1" stroke="none" d="
M 61.4 -10.7
L 61.4 -2.05
Q 61.4 -0.4 62.75 0.2
L 63.5 -0.9
Q 63.05 -1.15 62.95 -1.4 62.8 -1.7 62.8 -2.25
L 62.8 -10.9 61.4 -10.7 Z"/>
</g>

<g id="BDM_336x280_FR_psd_Asset_6_V7_4_CTA_copy_2_Regardez_la_vid_o__0_Layer0_0_MEMBER_9_FILL">
<path fill="#24B9D1" stroke="none" d="
M 69.15 -6.3
Q 68.5 -7 67.15 -7 65.55 -7 64.45 -6.2
L 64.8 -5.2
Q 65.2 -5.55 65.8 -5.75 66.25 -5.95 66.9 -5.95 67.7 -5.95 68.1 -5.6 68.55 -5.2 68.55 -4.45
L 68.55 -4.15 68 -4.15
Q 66.25 -4.15 65.2 -3.65 64.05 -3.2 64.05 -1.9 64.05 -0.85 64.7 -0.35 65.35 0.2 66.2 0.2 66.8 0.2 67.6 -0.15 68.2 -0.4 68.55 -1.1
L 68.6 -1.1 68.7 0 69.95 0 69.85 -4.25
Q 69.85 -5.65 69.15 -6.3
M 65.7 -1.05
Q 65.35 -1.4 65.35 -1.9 65.35 -3.3 68 -3.3
L 68.6 -3.3 68.6 -2.8
Q 68.6 -2.35 68.35 -1.85 68.15 -1.4 67.65 -1.1 67.2 -0.8 66.55 -0.8 66.1 -0.8 65.7 -1.05 Z"/>
</g>

<g id="BDM_336x280_FR_psd_Asset_6_V7_4_CTA_copy_2_Regardez_la_vid_o__0_Layer0_0_MEMBER_10_FILL">
<path fill="#24B9D1" stroke="none" d="
M 74.8 -6.8
L 73.3 -6.8 75.95 0 77.45 0 80.05 -6.8 78.6 -6.8 76.7 -1.45 74.8 -6.8 Z"/>
</g>

<g id="BDM_336x280_FR_psd_Asset_6_V7_4_CTA_copy_2_Regardez_la_vid_o__0_Layer0_0_MEMBER_11_FILL">
<path fill="#24B9D1" stroke="none" d="
M 82.1 -6.8
L 80.7 -6.8 80.7 0 82.1 0 82.1 -6.8
M 80.55 -9.3
Q 80.55 -8.95 80.8 -8.7 81.05 -8.45 81.4 -8.45 81.65 -8.45 82 -8.7 82.25 -9.05 82.25 -9.3 82.25 -9.65 82 -9.9 81.75 -10.15 81.4 -10.15 81 -10.15 80.8 -9.9 80.55 -9.7 80.55 -9.3 Z"/>
</g>

<g id="BDM_336x280_FR_psd_Asset_6_V7_4_CTA_copy_2_Regardez_la_vid_o__0_Layer0_0_MEMBER_12_FILL">
<path fill="#24B9D1" stroke="none" d="
M 90.6 -10.95
L 89.2 -10.75 89.2 -5.6
Q 88.75 -6.25 88.15 -6.65 87.5 -7 86.65 -7 85.65 -7 84.95 -6.5 84.2 -6.05 83.75 -5.2 83.35 -4.3 83.35 -3.4 83.35 -2.5 83.75 -1.6 84.25 -0.7 84.9 -0.3 85.8 0.2 86.7 0.2 87.4 0.2 88.2 -0.2 88.9 -0.55 89.25 -1.25
L 89.3 -1.25 89.35 0 90.65 0 90.6 -10.95
M 84.95 -4.65
Q 85.25 -5.2 85.75 -5.55 86.3 -5.85 86.95 -5.85 87.65 -5.85 88.15 -5.55 88.65 -5.2 88.95 -4.65 89.25 -4.05 89.25 -3.4 89.25 -2.7 88.95 -2.2 88.65 -1.6 88.15 -1.3 87.55 -0.95 86.95 -0.95 86.35 -0.95 85.75 -1.3 85.25 -1.6 84.95 -2.2 84.7 -2.8 84.7 -3.4 84.7 -4 84.95 -4.65 Z"/>
</g>

<g id="BDM_336x280_FR_psd_Asset_6_V7_4_CTA_copy_2_Regardez_la_vid_o__0_Layer0_0_MEMBER_13_FILL">
<path fill="#24B9D1" stroke="none" d="
M 95.3 -7
Q 94.4 -7 93.55 -6.55 92.7 -6.05 92.3 -5.3 91.85 -4.45 91.85 -3.4 91.85 -2.3 92.3 -1.5 92.85 -0.65 93.6 -0.25 94.45 0.2 95.45 0.2 97.1 0.2 98.2 -0.6
L 98 -1.65
Q 97.7 -1.4 96.9 -1.1 96.35 -0.9 95.6 -0.9 95 -0.9 94.4 -1.15 94 -1.35 93.5 -1.95 93.25 -2.4 93.15 -3.1
L 98.6 -3.1 98.65 -3.5
Q 98.65 -4.45 98.25 -5.35 97.75 -6.15 97.1 -6.55 96.35 -7 95.3 -7
M 94.2 -5.7
Q 94.75 -6 95.35 -6 96.3 -6 96.8 -5.45 97.35 -4.9 97.35 -4
L 93.2 -4
Q 93.2 -4.45 93.45 -4.95 93.75 -5.4 94.2 -5.7
M 95.9 -10.1
L 94.45 -8.05 95.5 -8.05 97.35 -10.1 95.9 -10.1 Z"/>
</g>

<g id="BDM_336x280_FR_psd_Asset_6_V7_4_CTA_copy_2_Regardez_la_vid_o__0_Layer0_0_MEMBER_14_FILL">
<path fill="#24B9D1" stroke="none" d="
M 99.9 -5.3
Q 99.45 -4.45 99.45 -3.4 99.45 -2.35 99.9 -1.55 100.5 -0.65 101.25 -0.25 102.1 0.2 103.1 0.2 104.1 0.2 105 -0.25 105.85 -0.7 106.3 -1.55 106.8 -2.45 106.8 -3.4 106.8 -4.4 106.3 -5.3 105.9 -6.05 105 -6.55 104.1 -7 103.1 -7 102.1 -7 101.25 -6.55 100.45 -6.15 99.9 -5.3
M 100.8 -3.4
Q 100.8 -4 101.05 -4.65 101.35 -5.2 101.85 -5.55 102.4 -5.85 103.1 -5.85 103.85 -5.85 104.35 -5.55 104.85 -5.2 105.15 -4.65 105.45 -4.05 105.45 -3.4 105.45 -2.7 105.15 -2.2 104.85 -1.6 104.35 -1.3 103.75 -0.95 103.1 -0.95 102.45 -0.95 101.85 -1.3 101.35 -1.6 101.05 -2.2 100.8 -2.8 100.8 -3.4 Z"/>
</g>

<g id="BDM_336x280_FR_psd_Asset_6_V7_4_CTA_copy_2_Regardez_la_vid_o__0_Layer0_0_MEMBER_15_FILL">
<path fill="#24B9D1" stroke="none" d="
M 107.7 -0.8
Q 107.7 -0.45 108 -0.15 108.25 0.1 108.65 0.1 109.05 0.1 109.3 -0.15 109.55 -0.35 109.55 -0.8 109.55 -1.25 109.3 -1.45 109 -1.75 108.65 -1.75 108.25 -1.75 108 -1.45 107.7 -1.15 107.7 -0.8 Z"/>
</g>

<g id="BDM_336x280_FR_psd_Asset_6_V7_4_footer_copy_2_Faites_en_plus_avec_le__Wi_Fi_en_tant_que_service__copy_7_0_Layer0_0_MEMBER_0_FILL">
<path fill="#838282" stroke="none" d="
M 6.75 -9.9
L 1.25 -9.9 1.25 0 2.65 0 2.65 -4.4 6.25 -4.4 6.5 -5.6 2.65 -5.6 2.65 -8.7 6.6 -8.7 6.75 -9.9 Z"/>
</g>

<g id="BDM_336x280_FR_psd_Asset_6_V7_4_footer_copy_2_Faites_en_plus_avec_le__Wi_Fi_en_tant_que_service__copy_7_0_Layer0_0_MEMBER_1_FILL">
<path fill="#838282" stroke="none" d="
M 6.85 -1.85
Q 6.85 -0.8 7.5 -0.3 8.15 0.2 8.95 0.2 9.55 0.2 10.35 -0.15 10.95 -0.4 11.3 -1.1
L 11.45 0 12.65 0 12.55 -4.2
Q 12.55 -5.55 11.85 -6.25 11.2 -6.9 9.9 -6.9 8.35 -6.9 7.2 -6.1
L 7.55 -5.1
Q 8.15 -5.5 8.55 -5.65 9.2 -5.9 9.65 -5.9 10.35 -5.9 10.85 -5.5 11.25 -5.1 11.25 -4.35
L 11.25 -4.1 10.7 -4.1
Q 9 -4.1 7.95 -3.6 6.85 -3.15 6.85 -1.85
M 8.5 -1.05
Q 8.15 -1.35 8.15 -1.9 8.15 -3.3 10.75 -3.3
L 11.3 -3.3 11.3 -2.75
Q 11.3 -2.15 11.05 -1.8 10.8 -1.3 10.4 -1.05 9.9 -0.8 9.3 -0.8 8.75 -0.8 8.5 -1.05 Z"/>
</g>

<g id="BDM_336x280_FR_psd_Asset_6_V7_4_footer_copy_2_Faites_en_plus_avec_le__Wi_Fi_en_tant_que_service__copy_7_0_Layer0_0_MEMBER_2_FILL">
<path fill="#838282" stroke="none" d="
M 15.7 -6.7
L 14.35 -6.7 14.35 0 15.7 0 15.7 -6.7
M 15.65 -8.6
Q 15.9 -8.85 15.9 -9.2 15.9 -9.45 15.65 -9.8 15.4 -10 15.05 -10 14.65 -10 14.45 -9.8 14.2 -9.45 14.2 -9.2 14.2 -8.85 14.45 -8.6 14.65 -8.35 15.05 -8.35 15.4 -8.35 15.65 -8.6 Z"/>
</g>

<g id="BDM_336x280_FR_psd_Asset_6_V7_4_footer_copy_2_Faites_en_plus_avec_le__Wi_Fi_en_tant_que_service__copy_7_0_Layer0_0_MEMBER_3_FILL">
<path fill="#838282" stroke="none" d="
M 17.75 -6.7
L 16.8 -6.7 16.55 -5.65 17.8 -5.65 17.8 -1.85
Q 17.8 -0.85 18.25 -0.35 18.7 0.15 19.55 0.15 20.45 0.15 21.15 -0.2
L 21 -1.2
Q 20.5 -0.9 20 -0.9 19.1 -0.9 19.1 -2.05
L 19.1 -5.65 20.75 -5.65 20.95 -6.7 19.1 -6.7 19.1 -8.55 17.75 -8.2 17.75 -6.7 Z"/>
</g>

<g id="BDM_336x280_FR_psd_Asset_6_V7_4_footer_copy_2_Faites_en_plus_avec_le__Wi_Fi_en_tant_que_service__copy_7_0_Layer0_0_MEMBER_4_FILL">
<path fill="#838282" stroke="none" d="
M 25.05 -6.9
Q 24.05 -6.9 23.3 -6.45 22.5 -6 22.05 -5.2 21.6 -4.45 21.6 -3.35 21.6 -2.3 22.05 -1.5 22.45 -0.75 23.35 -0.25 24.1 0.2 25.15 0.2 26.75 0.2 27.85 -0.55
L 27.65 -1.6
Q 27.1 -1.2 26.6 -1.1 25.95 -0.85 25.3 -0.85 24.65 -0.85 24.1 -1.15 23.5 -1.5 23.25 -1.95 22.9 -2.55 22.9 -3.05
L 28.25 -3.05 28.3 -3.45
Q 28.3 -4.45 27.9 -5.25 27.5 -6.1 26.75 -6.45 26 -6.9 25.05 -6.9
M 22.9 -3.95
Q 23 -4.4 23.2 -4.85 23.4 -5.35 23.95 -5.65 24.4 -5.95 25.05 -5.95 25.9 -5.95 26.45 -5.4 27 -4.75 27 -3.95
L 22.9 -3.95 Z"/>
</g>

<g id="BDM_336x280_FR_psd_Asset_6_V7_4_footer_copy_2_Faites_en_plus_avec_le__Wi_Fi_en_tant_que_service__copy_7_0_Layer0_0_MEMBER_5_FILL">
<path fill="#838282" stroke="none" d="
M 29.4 -1.6
L 29.2 -0.5
Q 29.6 -0.25 30.3 0 30.9 0.2 31.7 0.2 32.3 0.2 32.95 -0.05 33.6 -0.35 33.85 -0.7 34.2 -1.2 34.2 -1.9 34.2 -2.7 33.7 -3.15 33.05 -3.6 32.1 -3.9 31.25 -4.15 30.95 -4.35 30.6 -4.55 30.6 -5 30.6 -5.35 30.95 -5.7 31.3 -5.9 31.85 -5.9 32.3 -5.9 32.7 -5.7
L 33.5 -5.3 34.05 -6.2
Q 33.75 -6.45 33.05 -6.7 32.5 -6.9 31.75 -6.9 31.05 -6.9 30.6 -6.7 30.05 -6.45 29.7 -6.05 29.35 -5.55 29.35 -4.95 29.35 -4.15 29.85 -3.7 30.3 -3.3 31.25 -3 32.05 -2.8 32.55 -2.5 32.9 -2.2 32.9 -1.8 32.9 -1.3 32.55 -1.1 32.25 -0.85 31.6 -0.85 30.45 -0.85 29.4 -1.6 Z"/>
</g>

<g id="BDM_336x280_FR_psd_Asset_6_V7_4_footer_copy_2_Faites_en_plus_avec_le__Wi_Fi_en_tant_que_service__copy_7_0_Layer0_0_MEMBER_6_FILL">
<path fill="#838282" stroke="none" d="
M 35.05 -4.15
L 35.05 -3.05 38.15 -3.05 38.15 -4.15 35.05 -4.15 Z"/>
</g>

<g id="BDM_336x280_FR_psd_Asset_6_V7_4_footer_copy_2_Faites_en_plus_avec_le__Wi_Fi_en_tant_que_service__copy_7_0_Layer0_0_MEMBER_7_FILL">
<path fill="#838282" stroke="none" d="
M 39.1 -3.35
Q 39.1 -2.3 39.55 -1.5 40.1 -0.65 40.85 -0.25 41.6 0.2 42.65 0.2 44.2 0.2 45.4 -0.55
L 45.2 -1.6
Q 44.5 -1.2 44.1 -1.1 43.45 -0.85 42.8 -0.85 42.15 -0.85 41.6 -1.15 41 -1.5 40.75 -1.95 40.5 -2.4 40.4 -3.05
L 45.8 -3.05 45.8 -3.45
Q 45.8 -4.45 45.4 -5.25 45 -6.1 44.25 -6.45 43.6 -6.9 42.55 -6.9 41.55 -6.9 40.8 -6.45 39.95 -5.95 39.55 -5.2 39.1 -4.45 39.1 -3.35
M 44 -5.4
Q 44.5 -4.85 44.5 -3.95
L 40.4 -3.95
Q 40.5 -4.4 40.7 -4.85 41 -5.35 41.45 -5.65 41.9 -5.95 42.55 -5.95 43.35 -5.95 44 -5.4 Z"/>
</g>

<g id="BDM_336x280_FR_psd_Asset_6_V7_4_footer_copy_2_Faites_en_plus_avec_le__Wi_Fi_en_tant_que_service__copy_7_0_Layer0_0_MEMBER_8_FILL">
<path fill="#838282" stroke="none" d="
M 48.5 -6.7
L 47.15 -6.7 47.25 0 48.6 0 48.6 -3.5
Q 48.6 -4.5 49.1 -5.15 49.65 -5.8 50.45 -5.8 51.25 -5.8 51.6 -5.2 51.95 -4.7 51.95 -3.8
L 51.95 0 53.3 0 53.3 -4.1
Q 53.3 -5.25 52.7 -6.1 52.1 -6.9 50.85 -6.9 50.15 -6.9 49.45 -6.5 48.8 -6.1 48.6 -5.45
L 48.55 -5.45 48.5 -6.7 Z"/>
</g>

<g id="BDM_336x280_FR_psd_Asset_6_V7_4_footer_copy_2_Faites_en_plus_avec_le__Wi_Fi_en_tant_que_service__copy_7_0_Layer0_0_MEMBER_9_FILL">
<path fill="#838282" stroke="none" d="
M 59.5 -6.7
L 58.15 -6.7 58.2 3.35 59.55 3.35 59.55 -1.2 59.6 -1.2
Q 60 -0.5 60.65 -0.15 61.35 0.2 62.05 0.2 62.95 0.2 63.8 -0.3 64.55 -0.75 64.95 -1.6 65.35 -2.4 65.35 -3.35 65.35 -4.25 64.95 -5.15 64.6 -5.85 63.8 -6.45 63.05 -6.9 62.05 -6.9 61.3 -6.9 60.6 -6.5 59.9 -6.1 59.55 -5.5
L 59.5 -6.7
M 59.8 -4.55
Q 60.05 -5 60.6 -5.45 61.2 -5.8 61.8 -5.8 62.45 -5.8 62.95 -5.45 63.45 -5.15 63.75 -4.55 64 -4.1 64 -3.35 64 -2.65 63.75 -2.15 63.4 -1.55 62.95 -1.3 62.55 -0.95 61.8 -0.95 61.1 -0.95 60.6 -1.3 60.1 -1.65 59.8 -2.15 59.5 -2.75 59.5 -3.35 59.5 -4 59.8 -4.55 Z"/>
</g>

<g id="BDM_336x280_FR_psd_Asset_6_V7_4_footer_copy_2_Faites_en_plus_avec_le__Wi_Fi_en_tant_que_service__copy_7_0_Layer0_0_MEMBER_10_FILL">
<path fill="#838282" stroke="none" d="
M 66.8 -10.55
L 66.8 -2.05
Q 66.8 -0.4 68.15 0.2
L 68.9 -0.85
Q 68.5 -1.1 68.35 -1.4 68.15 -1.65 68.15 -2.25
L 68.15 -10.75 66.8 -10.55 Z"/>
</g>

<g id="BDM_336x280_FR_psd_Asset_6_V7_4_footer_copy_2_Faites_en_plus_avec_le__Wi_Fi_en_tant_que_service__copy_7_0_Layer0_0_MEMBER_11_FILL">
<path fill="#838282" stroke="none" d="
M 70 -2.6
Q 70 -1.4 70.6 -0.6 71.25 0.2 72.45 0.2 73.15 0.2 73.85 -0.2 74.45 -0.55 74.75 -1.25
L 74.85 0 76.2 0
Q 76.1 -0.5 76.1 -1.45
L 76.1 -6.7 74.75 -6.7 74.75 -3.25
Q 74.75 -2.25 74.2 -1.55 73.7 -0.95 72.9 -0.95 72.05 -0.95 71.7 -1.5 71.4 -2 71.4 -2.95
L 71.4 -6.7 70 -6.7 70 -2.6 Z"/>
</g>

<g id="BDM_336x280_FR_psd_Asset_6_V7_4_footer_copy_2_Faites_en_plus_avec_le__Wi_Fi_en_tant_que_service__copy_7_0_Layer0_0_MEMBER_12_FILL">
<path fill="#838282" stroke="none" d="
M 80 -6.9
Q 79.35 -6.9 78.9 -6.7 78.3 -6.5 77.95 -6.05 77.6 -5.45 77.6 -4.95 77.6 -4.2 78.1 -3.7 78.5 -3.35 79.55 -3 80.25 -2.8 80.8 -2.5 81.2 -2.2 81.2 -1.8 81.2 -1.35 80.8 -1.1 80.5 -0.85 79.85 -0.85 78.7 -0.85 77.7 -1.6
L 77.5 -0.5
Q 77.8 -0.25 78.55 0 79.2 0.2 80 0.2 80.6 0.2 81.2 -0.05 81.8 -0.25 82.15 -0.7 82.5 -1.2 82.5 -1.9 82.5 -2.7 81.95 -3.15 81.4 -3.6 80.4 -3.9 79.6 -4.1 79.2 -4.35 78.9 -4.55 78.9 -5 78.9 -5.4 79.25 -5.7 79.5 -5.9 80.1 -5.9 80.6 -5.9 81 -5.7
L 81.8 -5.3 82.3 -6.2
Q 82 -6.45 81.3 -6.7 80.75 -6.9 80 -6.9 Z"/>
</g>

<g id="BDM_336x280_FR_psd_Asset_6_V7_4_footer_copy_2_Faites_en_plus_avec_le__Wi_Fi_en_tant_que_service__copy_7_0_Layer0_0_MEMBER_13_FILL">
<path fill="#838282" stroke="none" d="
M 90.85 -4.1
L 90.3 -4.1
Q 88.6 -4.1 87.55 -3.6 86.45 -3.15 86.45 -1.85 86.45 -0.8 87.05 -0.3 87.8 0.2 88.55 0.2 89.15 0.2 89.95 -0.15 90.6 -0.5 90.85 -1.1
L 90.9 -1.1 91 0 92.25 0 92.15 -4.2
Q 92.15 -5.45 91.45 -6.25 90.8 -6.9 89.45 -6.9 87.9 -6.9 86.8 -6.1
L 87.15 -5.1
Q 87.55 -5.45 88.15 -5.65 88.75 -5.9 89.25 -5.9 90 -5.9 90.4 -5.5 90.85 -5.1 90.85 -4.35
L 90.85 -4.1
M 90.35 -3.3
L 90.9 -3.3 90.9 -2.75
Q 90.9 -2.3 90.65 -1.8 90.45 -1.35 89.95 -1.05 89.45 -0.8 88.9 -0.8 88.35 -0.8 88.05 -1.05 87.7 -1.4 87.7 -1.9 87.7 -3.3 90.35 -3.3 Z"/>
</g>

<g id="BDM_336x280_FR_psd_Asset_6_V7_4_footer_copy_2_Faites_en_plus_avec_le__Wi_Fi_en_tant_que_service__copy_7_0_Layer0_0_MEMBER_14_FILL">
<path fill="#838282" stroke="none" d="
M 94.35 -6.7
L 92.85 -6.7 95.45 0 96.95 0 99.5 -6.7 98.1 -6.7 96.2 -1.4 94.35 -6.7 Z"/>
</g>

<g id="BDM_336x280_FR_psd_Asset_6_V7_4_footer_copy_2_Faites_en_plus_avec_le__Wi_Fi_en_tant_que_service__copy_7_0_Layer0_0_MEMBER_15_FILL">
<path fill="#838282" stroke="none" d="
M 99.9 -3.35
Q 99.9 -2.3 100.35 -1.5 100.75 -0.75 101.6 -0.25 102.45 0.2 103.45 0.2 105.05 0.2 106.15 -0.55
L 105.95 -1.6
Q 105.4 -1.2 104.85 -1.1 104.2 -0.85 103.6 -0.85 102.95 -0.85 102.4 -1.15 101.85 -1.4 101.55 -1.95 101.2 -2.45 101.2 -3.05
L 106.55 -3.05 106.55 -3.45
Q 106.55 -4.55 106.2 -5.25 105.65 -6.15 105.05 -6.45 104.3 -6.9 103.3 -6.9 102.35 -6.9 101.6 -6.45 100.8 -6 100.35 -5.2 99.9 -4.45 99.9 -3.35
M 104.75 -5.4
Q 105.3 -4.75 105.3 -3.95
L 101.2 -3.95
Q 101.2 -4.4 101.5 -4.85 101.7 -5.3 102.2 -5.65 102.75 -5.95 103.35 -5.95 104.2 -5.95 104.75 -5.4 Z"/>
</g>

<g id="BDM_336x280_FR_psd_Asset_6_V7_4_footer_copy_2_Faites_en_plus_avec_le__Wi_Fi_en_tant_que_service__copy_7_0_Layer0_0_MEMBER_16_FILL">
<path fill="#838282" stroke="none" d="
M 111.15 -6.9
Q 110.15 -6.9 109.3 -6.45 108.55 -6.05 108 -5.2 107.55 -4.35 107.55 -3.35 107.55 -2.3 108 -1.5 108.4 -0.75 109.3 -0.25 110.05 0.2 111.05 0.2 111.7 0.2 112.45 -0.05 113.15 -0.3 113.45 -0.6
L 113.25 -1.7
Q 112.9 -1.3 112.35 -1.15 111.95 -0.95 111.3 -0.95 110.6 -0.95 110.05 -1.25 109.45 -1.65 109.25 -2.15 108.95 -2.65 108.95 -3.35 108.95 -3.95 109.2 -4.55 109.5 -5.15 110 -5.45 110.6 -5.8 111.2 -5.8 111.45 -5.8 112.15 -5.6 112.55 -5.45 112.95 -5.15
L 113.45 -6.15
Q 113.15 -6.45 112.45 -6.7 111.85 -6.9 111.15 -6.9 Z"/>
</g>

<g id="BDM_336x280_FR_psd_Asset_6_V7_4_footer_copy_2_Faites_en_plus_avec_le__Wi_Fi_en_tant_que_service__copy_7_0_Layer0_0_MEMBER_17_FILL">
<path fill="#838282" stroke="none" d="
M 117.6 -10.55
L 117.6 -2.05
Q 117.6 -0.4 118.95 0.2
L 119.7 -0.85
Q 119.35 -1.1 119.1 -1.4 118.95 -1.7 118.95 -2.25
L 118.95 -10.75 117.6 -10.55 Z"/>
</g>

<g id="BDM_336x280_FR_psd_Asset_6_V7_4_footer_copy_2_Faites_en_plus_avec_le__Wi_Fi_en_tant_que_service__copy_7_0_Layer0_0_MEMBER_18_FILL">
<path fill="#838282" stroke="none" d="
M 120.45 -3.35
Q 120.45 -2.3 120.9 -1.5 121.3 -0.75 122.15 -0.25 123 0.2 124 0.2 125.6 0.2 126.7 -0.55
L 126.5 -1.6
Q 125.95 -1.2 125.45 -1.1 124.8 -0.85 124.15 -0.85 123.5 -0.85 122.95 -1.15 122.35 -1.5 122.1 -1.95 121.75 -2.55 121.75 -3.05
L 127.1 -3.05 127.15 -3.45
Q 127.15 -4.45 126.75 -5.25 126.35 -6.1 125.6 -6.45 124.85 -6.9 123.9 -6.9 122.9 -6.9 122.15 -6.45 121.35 -6 120.9 -5.2 120.45 -4.45 120.45 -3.35
M 125.3 -5.4
Q 125.85 -4.75 125.85 -3.95
L 121.75 -3.95 122.05 -4.85
Q 122.25 -5.35 122.8 -5.65 123.25 -5.95 123.9 -5.95 124.75 -5.95 125.3 -5.4 Z"/>
</g>

<g id="BDM_336x280_FR_psd_Asset_6_V7_4_footer_copy_2_Faites_en_plus_avec_le__Wi_Fi_en_tant_que_service__copy_7_0_Layer0_0_MEMBER_19_FILL">
<path fill="#838282" stroke="none" d="
M 13.7 7.1
L 12.25 7.1 10.05 15.1 10 15.1 7.7 7.1 6.15 7.1 3.9 15.1 3.85 15.1 1.7 7.1 0.2 7.1 3.05 17 4.55 17 6.9 8.95 6.95 8.95 9.3 17 10.8 17 13.7 7.1 Z"/>
</g>

<g id="BDM_336x280_FR_psd_Asset_6_V7_4_footer_copy_2_Faites_en_plus_avec_le__Wi_Fi_en_tant_que_service__copy_7_0_Layer0_0_MEMBER_20_FILL">
<path fill="#838282" stroke="none" d="
M 16 10.3
L 14.65 10.3 14.65 17 16 17 16 10.3
M 14.7 7.2
Q 14.45 7.55 14.45 7.8 14.45 8.15 14.7 8.4 15.05 8.65 15.3 8.65 15.65 8.65 15.9 8.4 16.15 8.15 16.15 7.8 16.15 7.55 15.9 7.2 15.65 6.95 15.3 6.95 15.05 6.95 14.7 7.2 Z"/>
</g>

<g id="BDM_336x280_FR_psd_Asset_6_V7_4_footer_copy_2_Faites_en_plus_avec_le__Wi_Fi_en_tant_que_service__copy_7_0_Layer0_0_MEMBER_21_FILL">
<path fill="#838282" stroke="none" d="
M 17.35 12.85
L 17.35 13.95 20.5 13.95 20.5 12.85 17.35 12.85 Z"/>
</g>

<g id="BDM_336x280_FR_psd_Asset_6_V7_4_footer_copy_2_Faites_en_plus_avec_le__Wi_Fi_en_tant_que_service__copy_7_0_Layer0_0_MEMBER_22_FILL">
<path fill="#838282" stroke="none" d="
M 27.5 7.1
L 21.95 7.1 21.95 17 23.4 17 23.4 12.6 27 12.6 27.2 11.4 23.4 11.4 23.4 8.3 27.35 8.3 27.5 7.1 Z"/>
</g>

<g id="BDM_336x280_FR_psd_Asset_6_V7_4_footer_copy_2_Faites_en_plus_avec_le__Wi_Fi_en_tant_que_service__copy_7_0_Layer0_0_MEMBER_23_FILL">
<path fill="#838282" stroke="none" d="
M 29.9 10.3
L 28.55 10.3 28.55 17 29.9 17 29.9 10.3
M 28.6 8.4
Q 28.95 8.65 29.2 8.65 29.55 8.65 29.8 8.4 30.05 8.15 30.05 7.8 30.05 7.55 29.8 7.2 29.55 6.95 29.2 6.95 28.95 6.95 28.6 7.2 28.35 7.55 28.35 7.8 28.35 8.15 28.6 8.4 Z"/>
</g>

<g id="BDM_336x280_FR_psd_Asset_6_V7_4_footer_copy_2_Faites_en_plus_avec_le__Wi_Fi_en_tant_que_service__copy_7_0_Layer0_0_MEMBER_24_FILL">
<path fill="#838282" stroke="none" d="
M 41.1 13.55
Q 41.1 12.55 40.7 11.75 40.3 10.95 39.55 10.5 38.85 10.1 37.85 10.1 36.85 10.1 36.1 10.55 35.25 11.05 34.85 11.8 34.4 12.55 34.4 13.6 34.4 14.7 34.85 15.5 35.25 16.25 36.15 16.75 36.9 17.2 37.95 17.2 39.55 17.2 40.7 16.4
L 40.5 15.35
Q 39.9 15.75 39.4 15.9 38.75 16.15 38.1 16.15 37.45 16.15 36.9 15.85 36.3 15.5 36.05 15.05 35.8 14.6 35.7 13.95
L 41.1 13.95 41.1 13.55
M 37.85 11.05
Q 38.65 11.05 39.3 11.6 39.8 12.15 39.8 13.05
L 35.7 13.05 36 12.15
Q 36.3 11.65 36.75 11.35 37.2 11.05 37.85 11.05 Z"/>
</g>

<g id="BDM_336x280_FR_psd_Asset_6_V7_4_footer_copy_2_Faites_en_plus_avec_le__Wi_Fi_en_tant_que_service__copy_7_0_Layer0_0_MEMBER_25_FILL">
<path fill="#838282" stroke="none" d="
M 44.75 10.5
Q 44.1 10.9 43.9 11.55
L 43.85 11.55 43.8 10.3 42.45 10.3 42.55 17 43.9 17 43.9 13.5
Q 43.9 12.5 44.4 11.85 44.9 11.2 45.75 11.2 46.55 11.2 46.9 11.8 47.25 12.3 47.25 13.2
L 47.25 17 48.6 17 48.6 12.9
Q 48.6 11.75 48 10.9 47.4 10.1 46.15 10.1 45.45 10.1 44.75 10.5 Z"/>
</g>

<g id="BDM_336x280_FR_psd_Asset_6_V7_4_footer_copy_2_Faites_en_plus_avec_le__Wi_Fi_en_tant_que_service__copy_7_0_Layer0_0_MEMBER_26_FILL">
<path fill="#838282" stroke="none" d="
M 55 10.3
L 55 8.45 53.65 8.8 53.65 10.3 52.7 10.3 52.5 11.35 53.7 11.35 53.7 15.15
Q 53.7 16.15 54.15 16.65 54.6 17.15 55.45 17.15 56.35 17.15 57.05 16.8
L 56.9 15.8
Q 56.45 16.05 55.9 16.05 55 16.05 55 14.95
L 55 11.35 56.65 11.35 56.85 10.3 55 10.3 Z"/>
</g>

<g id="BDM_336x280_FR_psd_Asset_6_V7_4_footer_copy_2_Faites_en_plus_avec_le__Wi_Fi_en_tant_que_service__copy_7_0_Layer0_0_MEMBER_27_FILL">
<path fill="#838282" stroke="none" d="
M 61.9 12.9
L 61.35 12.9
Q 59.65 12.9 58.6 13.4 57.5 13.85 57.5 15.15 57.5 16.2 58.1 16.65 58.75 17.2 59.6 17.2 60.2 17.2 61 16.85 61.55 16.55 61.9 15.9
L 61.95 15.9 62.05 17 63.3 17 63.2 12.8
Q 63.2 11.55 62.5 10.75 61.85 10.1 60.5 10.1 58.95 10.1 57.85 10.9
L 58.2 11.9
Q 58.45 11.65 59.15 11.35 59.8 11.1 60.25 11.1 60.95 11.1 61.45 11.5 61.9 11.9 61.9 12.65
L 61.9 12.9
M 61.95 14.25
Q 61.95 14.7 61.7 15.2 61.5 15.65 61 15.95 60.5 16.2 59.95 16.2 59.5 16.2 59.1 15.95 58.75 15.65 58.75 15.1 58.75 13.7 61.4 13.7
L 61.95 13.7 61.95 14.25 Z"/>
</g>

<g id="BDM_336x280_FR_psd_Asset_6_V7_4_footer_copy_2_Faites_en_plus_avec_le__Wi_Fi_en_tant_que_service__copy_7_0_Layer0_0_MEMBER_28_FILL">
<path fill="#838282" stroke="none" d="
M 66.85 11.85
Q 67.35 11.2 68.2 11.2 69 11.2 69.35 11.8 69.7 12.3 69.7 13.2
L 69.7 17 71.05 17 71.05 12.9
Q 71.05 11.75 70.45 10.9 69.85 10.1 68.6 10.1 67.9 10.1 67.2 10.5 66.55 10.9 66.35 11.55
L 66.3 11.55 66.25 10.3 64.9 10.3 65 17 66.35 17 66.35 13.5
Q 66.35 12.5 66.85 11.85 Z"/>
</g>

<g id="BDM_336x280_FR_psd_Asset_6_V7_4_footer_copy_2_Faites_en_plus_avec_le__Wi_Fi_en_tant_que_service__copy_7_0_Layer0_0_MEMBER_29_FILL">
<path fill="#838282" stroke="none" d="
M 74.4 10.3
L 74.4 8.45 73.05 8.8 73.05 10.3 72.05 10.3 71.85 11.35 73.05 11.35 73.05 15.15
Q 73.05 16.15 73.5 16.65 73.95 17.15 74.85 17.15 75.75 17.15 76.45 16.8
L 76.25 15.8
Q 75.8 16.05 75.3 16.05 74.4 16.05 74.4 14.95
L 74.4 11.35 76.05 11.35 76.25 10.3 74.4 10.3 Z"/>
</g>

<g id="BDM_336x280_FR_psd_Asset_6_V7_4_footer_copy_2_Faites_en_plus_avec_le__Wi_Fi_en_tant_que_service__copy_7_0_Layer0_0_MEMBER_30_FILL">
<path fill="#838282" stroke="none" d="
M 85.85 10.3
L 85.8 11.5 85.75 11.5
Q 85.45 10.95 84.7 10.45 84.05 10.1 83.25 10.1 82.25 10.1 81.5 10.55 80.8 11.05 80.35 11.85 79.95 12.75 79.95 13.6 79.95 14.5 80.35 15.4 80.85 16.3 81.5 16.7 82.35 17.2 83.25 17.2 84 17.2 84.7 16.8 85.3 16.5 85.7 15.8
L 85.75 15.8 85.75 17.95
Q 85.75 19.8 87.3 20.4
L 88.05 19.3
Q 87.55 19.1 87.3 18.75 87.1 18.5 87.1 17.8
L 87.1 10.3 85.85 10.3
M 82.35 11.55
Q 82.9 11.2 83.5 11.2 84.1 11.2 84.7 11.55 85.2 11.85 85.5 12.45 85.75 12.9 85.75 13.65 85.75 14.35 85.5 14.85 85.15 15.45 84.7 15.7 84.2 16.05 83.5 16.05 82.75 16.05 82.35 15.7 81.9 15.45 81.55 14.85 81.3 14.35 81.3 13.6 81.3 12.9 81.55 12.45 81.85 11.85 82.35 11.55 Z"/>
</g>

<g id="BDM_336x280_FR_psd_Asset_6_V7_4_footer_copy_2_Faites_en_plus_avec_le__Wi_Fi_en_tant_que_service__copy_7_0_Layer0_0_MEMBER_31_FILL">
<path fill="#838282" stroke="none" d="
M 94.95 10.3
L 93.6 10.3 93.6 13.75
Q 93.6 14.85 93.1 15.4 92.6 16.05 91.75 16.05 90.9 16.05 90.6 15.5 90.25 15 90.25 14.05
L 90.25 10.3 88.9 10.3 88.9 14.4
Q 88.9 15.6 89.5 16.4 90.05 17.2 91.35 17.2 92.05 17.2 92.7 16.8 93.35 16.45 93.65 15.75
L 93.75 17 95.05 17 94.95 10.3 Z"/>
</g>

<g id="BDM_336x280_FR_psd_Asset_6_V7_4_footer_copy_2_Faites_en_plus_avec_le__Wi_Fi_en_tant_que_service__copy_7_0_Layer0_0_MEMBER_32_FILL">
<path fill="#838282" stroke="none" d="
M 102.7 11.75
Q 102.3 11 101.6 10.5 100.8 10.1 99.85 10.1 98.95 10.1 98.1 10.55 97.25 11.05 96.85 11.8 96.4 12.55 96.4 13.6 96.4 14.7 96.85 15.5 97.4 16.35 98.15 16.75 99 17.2 99.95 17.2 101.6 17.2 102.7 16.4
L 102.5 15.35
Q 101.9 15.75 101.4 15.9 100.75 16.15 100.1 16.15 99.45 16.15 98.9 15.85 98.3 15.5 98.05 15.05 97.8 14.6 97.7 13.95
L 103.1 13.95 103.1 13.55
Q 103.1 12.55 102.7 11.75
M 101.3 11.6
Q 101.8 12.15 101.85 13.05
L 97.75 13.05
Q 97.75 12.65 98 12.15 98.3 11.65 98.75 11.35 99.2 11.05 99.85 11.05 100.75 11.05 101.3 11.6 Z"/>
</g>

<g id="BDM_336x280_FR_psd_Asset_6_V7_4_footer_copy_2_Faites_en_plus_avec_le__Wi_Fi_en_tant_que_service__copy_7_0_Layer0_0_MEMBER_33_FILL">
<path fill="#838282" stroke="none" d="
M 111.4 11.7
L 111.9 10.8
Q 111.55 10.55 110.95 10.3 110.4 10.1 109.65 10.1 108.95 10.1 108.5 10.3 107.95 10.55 107.6 10.95 107.25 11.35 107.25 12.05 107.25 12.85 107.75 13.3 108.1 13.65 109.15 14 109.95 14.2 110.45 14.5 110.8 14.7 110.8 15.2 110.8 15.7 110.45 15.9 110.1 16.15 109.5 16.15 108.3 16.15 107.3 15.4
L 107.1 16.5
Q 107.5 16.75 108.2 17 108.8 17.2 109.6 17.2 110.2 17.2 110.85 16.95 111.4 16.7 111.75 16.3 112.1 15.8 112.1 15.1 112.1 14.3 111.6 13.85 110.95 13.4 110 13.1 109.15 12.85 108.85 12.65 108.5 12.45 108.5 12 108.5 11.5 108.85 11.3 109.2 11.1 109.7 11.1 110.15 11.1 110.6 11.25
L 111.4 11.7 Z"/>
</g>

<g id="BDM_336x280_FR_psd_Asset_6_V7_4_footer_copy_2_Faites_en_plus_avec_le__Wi_Fi_en_tant_que_service__copy_7_0_Layer0_0_MEMBER_34_FILL">
<path fill="#838282" stroke="none" d="
M 114.7 10.55
Q 113.9 11 113.45 11.8 113 12.55 113 13.6 113 14.7 113.45 15.5 113.85 16.25 114.75 16.75 115.5 17.2 116.55 17.2 118.15 17.2 119.25 16.4
L 119.05 15.35
Q 118.55 15.75 118 15.9 117.35 16.15 116.7 16.15 116.05 16.15 115.5 15.85 114.9 15.5 114.65 15.05 114.3 14.45 114.3 13.95
L 119.7 13.95 119.7 13.55
Q 119.7 12.55 119.3 11.75 118.9 10.95 118.15 10.5 117.35 10.1 116.45 10.1 115.45 10.1 114.7 10.55
M 116.45 11.05
Q 117.3 11.05 117.85 11.6 118.4 12.25 118.4 13.05
L 114.3 13.05 114.6 12.15
Q 114.8 11.65 115.35 11.35 115.8 11.05 116.45 11.05 Z"/>
</g>

<g id="BDM_336x280_FR_psd_Asset_6_V7_4_footer_copy_2_Faites_en_plus_avec_le__Wi_Fi_en_tant_que_service__copy_7_0_Layer0_0_MEMBER_35_FILL">
<path fill="#838282" stroke="none" d="
M 122.45 11.55
L 122.35 10.3 121.05 10.3 121.15 17 122.5 17 122.5 13.6
Q 122.5 12.7 122.95 12 123.35 11.3 124.2 11.3 124.6 11.3 124.8 11.4
L 125 10.2 124.25 10.1
Q 123.75 10.1 123.2 10.5 122.75 10.9 122.45 11.55 Z"/>
</g>

<g id="BDM_336x280_FR_psd_Asset_6_V7_4_footer_copy_2_Faites_en_plus_avec_le__Wi_Fi_en_tant_que_service__copy_7_0_Layer0_0_MEMBER_36_FILL">
<path fill="#838282" stroke="none" d="
M 124.7 10.3
L 127.3 17 128.8 17 131.35 10.3 129.9 10.3 128.05 15.6 126.15 10.3 124.7 10.3 Z"/>
</g>

<g id="BDM_336x280_FR_psd_Asset_6_V7_4_footer_copy_2_Faites_en_plus_avec_le__Wi_Fi_en_tant_que_service__copy_7_0_Layer0_0_MEMBER_37_FILL">
<path fill="#838282" stroke="none" d="
M 133.55 10.3
L 132.2 10.3 132.2 17 133.55 17 133.55 10.3
M 132.25 8.4
Q 132.6 8.65 132.85 8.65 133.2 8.65 133.45 8.4 133.7 8.15 133.7 7.8 133.7 7.55 133.45 7.2 133.2 6.95 132.85 6.95 132.6 6.95 132.25 7.2 132 7.55 132 7.8 132 8.15 132.25 8.4 Z"/>
</g>

<g id="BDM_336x280_FR_psd_Asset_6_V7_4_footer_copy_2_Faites_en_plus_avec_le__Wi_Fi_en_tant_que_service__copy_7_0_Layer0_0_MEMBER_38_FILL">
<path fill="#838282" stroke="none" d="
M 136.75 10.55
Q 135.85 11.05 135.45 11.8 134.95 12.7 134.95 13.65 134.95 14.6 135.45 15.5 135.9 16.3 136.7 16.75 137.55 17.2 138.5 17.2 139.2 17.2 139.85 16.95 140.55 16.7 140.85 16.4
L 140.7 15.3
Q 140.2 15.7 139.8 15.85 139.35 16.05 138.7 16.05 137.95 16.05 137.45 15.7 137 15.45 136.65 14.85 136.35 14.35 136.35 13.65 136.35 13 136.65 12.45 136.95 11.85 137.45 11.55 138 11.2 138.6 11.2 139.15 11.2 139.55 11.4 140.1 11.6 140.35 11.85
L 140.85 10.85
Q 140.55 10.55 139.85 10.3 139.3 10.1 138.6 10.1 137.6 10.1 136.75 10.55 Z"/>
</g>

<g id="BDM_336x280_FR_psd_Asset_6_V7_4_footer_copy_2_Faites_en_plus_avec_le__Wi_Fi_en_tant_que_service__copy_7_0_Layer0_0_MEMBER_39_FILL">
<path fill="#838282" stroke="none" d="
M 143.15 10.55
Q 142.4 11 141.9 11.8 141.45 12.55 141.45 13.6 141.45 14.7 141.95 15.5 142.4 16.3 143.2 16.75 144.05 17.2 145 17.2 146.65 17.2 147.75 16.4
L 147.55 15.35
Q 147.1 15.75 146.45 15.9 145.8 16.15 145.15 16.15 144.55 16.15 143.95 15.85 143.35 15.5 143.1 15.05 142.85 14.6 142.75 13.95
L 148.15 13.95 148.15 13.55
Q 148.15 12.4 147.75 11.75 147.35 10.9 146.65 10.5 145.85 10.1 144.9 10.1 144 10.1 143.15 10.55
M 144.9 11.05
Q 145.8 11.05 146.35 11.6 146.9 12.25 146.9 13.05
L 142.8 13.05
Q 142.8 12.65 143.05 12.15 143.35 11.65 143.8 11.35 144.25 11.05 144.9 11.05 Z"/>
</g>

<g id="BDM_336x280_FR_psd_Asset_6_V7_4_footer_copy_2_Faites_en_plus_avec_le__Wi_Fi_en_tant_que_service__copy_7_0_Layer0_0_MEMBER_40_FILL">
<path fill="#838282" stroke="none" d="
M 149.7 16.85
Q 150.05 17.1 150.35 17.1 150.65 17.1 151 16.85 151.25 16.6 151.25 16.2 151.25 15.9 151 15.55 150.65 15.3 150.35 15.3 150.05 15.3 149.7 15.55 149.45 15.8 149.45 16.2 149.45 16.6 149.7 16.85 Z"/>
</g>
</defs>

<g transform="matrix( 1, 0, 0, 1, -292,-83) ">
<g transform="matrix( 1, 0, 0, 1, 286,104) ">
<g transform="matrix( 1, 0, 0, 1, 26,10) ">
<g transform="matrix( 2.815704345703125, 0, 0, 2.832611083984375, -0.85,17.6) ">
<use xlink:href="#BDM_336x280_FR_psd_Asset_6_V7_4_Comprenez_mieux__les_besoins_de_vos_clients___0_Layer0_0_MEMBER_0_FILL"/>
</g>

<g transform="matrix( 2.815704345703125, 0, 0, 2.832611083984375, -0.85,17.6) ">
<use xlink:href="#BDM_336x280_FR_psd_Asset_6_V7_4_Comprenez_mieux__les_besoins_de_vos_clients___0_Layer0_0_MEMBER_1_FILL"/>
</g>

<g transform="matrix( 2.815704345703125, 0, 0, 2.832611083984375, -0.85,17.6) ">
<use xlink:href="#BDM_336x280_FR_psd_Asset_6_V7_4_Comprenez_mieux__les_besoins_de_vos_clients___0_Layer0_0_MEMBER_2_FILL"/>
</g>

<g transform="matrix( 2.815704345703125, 0, 0, 2.832611083984375, -0.85,17.6) ">
<use xlink:href="#BDM_336x280_FR_psd_Asset_6_V7_4_Comprenez_mieux__les_besoins_de_vos_clients___0_Layer0_0_MEMBER_3_FILL"/>
</g>

<g transform="matrix( 2.815704345703125, 0, 0, 2.832611083984375, -0.85,17.6) ">
<use xlink:href="#BDM_336x280_FR_psd_Asset_6_V7_4_Comprenez_mieux__les_besoins_de_vos_clients___0_Layer0_0_MEMBER_4_FILL"/>
</g>

<g transform="matrix( 2.815704345703125, 0, 0, 2.832611083984375, -0.85,17.6) ">
<use xlink:href="#BDM_336x280_FR_psd_Asset_6_V7_4_Comprenez_mieux__les_besoins_de_vos_clients___0_Layer0_0_MEMBER_5_FILL"/>
</g>

<g transform="matrix( 2.815704345703125, 0, 0, 2.832611083984375, -0.85,17.6) ">
<use xlink:href="#BDM_336x280_FR_psd_Asset_6_V7_4_Comprenez_mieux__les_besoins_de_vos_clients___0_Layer0_0_MEMBER_6_FILL"/>
</g>

<g transform="matrix( 2.815704345703125, 0, 0, 2.832611083984375, -0.85,17.6) ">
<use xlink:href="#BDM_336x280_FR_psd_Asset_6_V7_4_Comprenez_mieux__les_besoins_de_vos_clients___0_Layer0_0_MEMBER_7_FILL"/>
</g>

<g transform="matrix( 2.815704345703125, 0, 0, 2.832611083984375, -0.85,17.6) ">
<use xlink:href="#BDM_336x280_FR_psd_Asset_6_V7_4_Comprenez_mieux__les_besoins_de_vos_clients___0_Layer0_0_MEMBER_8_FILL"/>
</g>

<g transform="matrix( 2.815704345703125, 0, 0, 2.832611083984375, -0.85,17.6) ">
<use xlink:href="#BDM_336x280_FR_psd_Asset_6_V7_4_Comprenez_mieux__les_besoins_de_vos_clients___0_Layer0_0_MEMBER_9_FILL"/>
</g>

<g transform="matrix( 2.815704345703125, 0, 0, 2.832611083984375, -0.85,17.6) ">
<use xlink:href="#BDM_336x280_FR_psd_Asset_6_V7_4_Comprenez_mieux__les_besoins_de_vos_clients___0_Layer0_0_MEMBER_10_FILL"/>
</g>

<g transform="matrix( 2.815704345703125, 0, 0, 2.832611083984375, -0.85,17.6) ">
<use xlink:href="#BDM_336x280_FR_psd_Asset_6_V7_4_Comprenez_mieux__les_besoins_de_vos_clients___0_Layer0_0_MEMBER_11_FILL"/>
</g>

<g transform="matrix( 2.815704345703125, 0, 0, 2.832611083984375, -0.85,17.6) ">
<use xlink:href="#BDM_336x280_FR_psd_Asset_6_V7_4_Comprenez_mieux__les_besoins_de_vos_clients___0_Layer0_0_MEMBER_12_FILL"/>
</g>

<g transform="matrix( 2.815704345703125, 0, 0, 2.832611083984375, -0.85,17.6) ">
<use xlink:href="#BDM_336x280_FR_psd_Asset_6_V7_4_Comprenez_mieux__les_besoins_de_vos_clients___0_Layer0_0_MEMBER_13_FILL"/>
</g>

<g transform="matrix( 2.815704345703125, 0, 0, 2.832611083984375, -0.85,17.6) ">
<use xlink:href="#BDM_336x280_FR_psd_Asset_6_V7_4_Comprenez_mieux__les_besoins_de_vos_clients___0_Layer0_0_MEMBER_14_FILL"/>
</g>

<g transform="matrix( 2.815704345703125, 0, 0, 2.832611083984375, -0.85,17.6) ">
<use xlink:href="#BDM_336x280_FR_psd_Asset_6_V7_4_Comprenez_mieux__les_besoins_de_vos_clients___0_Layer0_0_MEMBER_15_FILL"/>
</g>

<g transform="matrix( 2.815704345703125, 0, 0, 2.832611083984375, -0.85,17.6) ">
<use xlink:href="#BDM_336x280_FR_psd_Asset_6_V7_4_Comprenez_mieux__les_besoins_de_vos_clients___0_Layer0_0_MEMBER_16_FILL"/>
</g>

<g transform="matrix( 2.815704345703125, 0, 0, 2.832611083984375, -0.85,17.6) ">
<use xlink:href="#BDM_336x280_FR_psd_Asset_6_V7_4_Comprenez_mieux__les_besoins_de_vos_clients___0_Layer0_0_MEMBER_17_FILL"/>
</g>

<g transform="matrix( 2.815704345703125, 0, 0, 2.832611083984375, -0.85,17.6) ">
<use xlink:href="#BDM_336x280_FR_psd_Asset_6_V7_4_Comprenez_mieux__les_besoins_de_vos_clients___0_Layer0_0_MEMBER_18_FILL"/>
</g>

<g transform="matrix( 2.815704345703125, 0, 0, 2.832611083984375, -0.85,17.6) ">
<use xlink:href="#BDM_336x280_FR_psd_Asset_6_V7_4_Comprenez_mieux__les_besoins_de_vos_clients___0_Layer0_0_MEMBER_19_FILL"/>
</g>

<g transform="matrix( 2.815704345703125, 0, 0, 2.832611083984375, -0.85,17.6) ">
<use xlink:href="#BDM_336x280_FR_psd_Asset_6_V7_4_Comprenez_mieux__les_besoins_de_vos_clients___0_Layer0_0_MEMBER_20_FILL"/>
</g>

<g transform="matrix( 2.815704345703125, 0, 0, 2.832611083984375, -0.85,17.6) ">
<use xlink:href="#BDM_336x280_FR_psd_Asset_6_V7_4_Comprenez_mieux__les_besoins_de_vos_clients___0_Layer0_0_MEMBER_21_FILL"/>
</g>

<g transform="matrix( 2.815704345703125, 0, 0, 2.832611083984375, -0.85,17.6) ">
<use xlink:href="#BDM_336x280_FR_psd_Asset_6_V7_4_Comprenez_mieux__les_besoins_de_vos_clients___0_Layer0_0_MEMBER_22_FILL"/>
</g>

<g transform="matrix( 2.815704345703125, 0, 0, 2.832611083984375, -0.85,17.6) ">
<use xlink:href="#BDM_336x280_FR_psd_Asset_6_V7_4_Comprenez_mieux__les_besoins_de_vos_clients___0_Layer0_0_MEMBER_23_FILL"/>
</g>

<g transform="matrix( 2.815704345703125, 0, 0, 2.832611083984375, -0.85,17.6) ">
<use xlink:href="#BDM_336x280_FR_psd_Asset_6_V7_4_Comprenez_mieux__les_besoins_de_vos_clients___0_Layer0_0_MEMBER_24_FILL"/>
</g>

<g transform="matrix( 2.815704345703125, 0, 0, 2.832611083984375, -0.85,17.6) ">
<use xlink:href="#BDM_336x280_FR_psd_Asset_6_V7_4_Comprenez_mieux__les_besoins_de_vos_clients___0_Layer0_0_MEMBER_25_FILL"/>
</g>

<g transform="matrix( 2.815704345703125, 0, 0, 2.832611083984375, -0.85,17.6) ">
<use xlink:href="#BDM_336x280_FR_psd_Asset_6_V7_4_Comprenez_mieux__les_besoins_de_vos_clients___0_Layer0_0_MEMBER_26_FILL"/>
</g>

<g transform="matrix( 2.815704345703125, 0, 0, 2.832611083984375, -0.85,17.6) ">
<use xlink:href="#BDM_336x280_FR_psd_Asset_6_V7_4_Comprenez_mieux__les_besoins_de_vos_clients___0_Layer0_0_MEMBER_27_FILL"/>
</g>

<g transform="matrix( 2.815704345703125, 0, 0, 2.832611083984375, -0.85,17.6) ">
<use xlink:href="#BDM_336x280_FR_psd_Asset_6_V7_4_Comprenez_mieux__les_besoins_de_vos_clients___0_Layer0_0_MEMBER_28_FILL"/>
</g>

<g transform="matrix( 2.815704345703125, 0, 0, 2.832611083984375, -0.85,17.6) ">
<use xlink:href="#BDM_336x280_FR_psd_Asset_6_V7_4_Comprenez_mieux__les_besoins_de_vos_clients___0_Layer0_0_MEMBER_29_FILL"/>
</g>

<g transform="matrix( 2.815704345703125, 0, 0, 2.832611083984375, -0.85,17.6) ">
<use xlink:href="#BDM_336x280_FR_psd_Asset_6_V7_4_Comprenez_mieux__les_besoins_de_vos_clients___0_Layer0_0_MEMBER_30_FILL"/>
</g>

<g transform="matrix( 2.815704345703125, 0, 0, 2.832611083984375, -0.85,17.6) ">
<use xlink:href="#BDM_336x280_FR_psd_Asset_6_V7_4_Comprenez_mieux__les_besoins_de_vos_clients___0_Layer0_0_MEMBER_31_FILL"/>
</g>

<g transform="matrix( 2.815704345703125, 0, 0, 2.832611083984375, -0.85,17.6) ">
<use xlink:href="#BDM_336x280_FR_psd_Asset_6_V7_4_Comprenez_mieux__les_besoins_de_vos_clients___0_Layer0_0_MEMBER_32_FILL"/>
</g>

<g transform="matrix( 2.815704345703125, 0, 0, 2.832611083984375, -0.85,17.6) ">
<use xlink:href="#BDM_336x280_FR_psd_Asset_6_V7_4_Comprenez_mieux__les_besoins_de_vos_clients___0_Layer0_0_MEMBER_33_FILL"/>
</g>

<g transform="matrix( 2.815704345703125, 0, 0, 2.832611083984375, -0.85,17.6) ">
<use xlink:href="#BDM_336x280_FR_psd_Asset_6_V7_4_Comprenez_mieux__les_besoins_de_vos_clients___0_Layer0_0_MEMBER_34_FILL"/>
</g>

<g transform="matrix( 2.815704345703125, 0, 0, 2.832611083984375, -0.85,17.6) ">
<use xlink:href="#BDM_336x280_FR_psd_Asset_6_V7_4_Comprenez_mieux__les_besoins_de_vos_clients___0_Layer0_0_MEMBER_35_FILL"/>
</g>

<g transform="matrix( 2.815704345703125, 0, 0, 2.832611083984375, -0.85,17.6) ">
<use xlink:href="#BDM_336x280_FR_psd_Asset_6_V7_4_Comprenez_mieux__les_besoins_de_vos_clients___0_Layer0_0_MEMBER_36_FILL"/>
</g>
</g>

<g transform="matrix( 1, 0, 0, 1, 38,107) ">
<g transform="matrix( 1, 0, 0, 1, 44,10) ">
<g transform="matrix( 1.1267547607421875, 0, 0, 1.1267547607421875, -0.4,12.6) ">
<use xlink:href="#BDM_336x280_FR_psd_Asset_6_V7_4_CTA_copy_2_Regardez_la_vid_o__0_Layer0_0_MEMBER_0_FILL"/>
</g>

<g transform="matrix( 1.1267547607421875, 0, 0, 1.1267547607421875, -0.4,12.6) ">
<use xlink:href="#BDM_336x280_FR_psd_Asset_6_V7_4_CTA_copy_2_Regardez_la_vid_o__0_Layer0_0_MEMBER_1_FILL"/>
</g>

<g transform="matrix( 1.1267547607421875, 0, 0, 1.1267547607421875, -0.4,12.6) ">
<use xlink:href="#BDM_336x280_FR_psd_Asset_6_V7_4_CTA_copy_2_Regardez_la_vid_o__0_Layer0_0_MEMBER_2_FILL"/>
</g>

<g transform="matrix( 1.1267547607421875, 0, 0, 1.1267547607421875, -0.4,12.6) ">
<use xlink:href="#BDM_336x280_FR_psd_Asset_6_V7_4_CTA_copy_2_Regardez_la_vid_o__0_Layer0_0_MEMBER_3_FILL"/>
</g>

<g transform="matrix( 1.1267547607421875, 0, 0, 1.1267547607421875, -0.4,12.6) ">
<use xlink:href="#BDM_336x280_FR_psd_Asset_6_V7_4_CTA_copy_2_Regardez_la_vid_o__0_Layer0_0_MEMBER_4_FILL"/>
</g>

<g transform="matrix( 1.1267547607421875, 0, 0, 1.1267547607421875, -0.4,12.6) ">
<use xlink:href="#BDM_336x280_FR_psd_Asset_6_V7_4_CTA_copy_2_Regardez_la_vid_o__0_Layer0_0_MEMBER_5_FILL"/>
</g>

<g transform="matrix( 1.1267547607421875, 0, 0, 1.1267547607421875, -0.4,12.6) ">
<use xlink:href="#BDM_336x280_FR_psd_Asset_6_V7_4_CTA_copy_2_Regardez_la_vid_o__0_Layer0_0_MEMBER_6_FILL"/>
</g>

<g transform="matrix( 1.1267547607421875, 0, 0, 1.1267547607421875, -0.4,12.6) ">
<use xlink:href="#BDM_336x280_FR_psd_Asset_6_V7_4_CTA_copy_2_Regardez_la_vid_o__0_Layer0_0_MEMBER_7_FILL"/>
</g>

<g transform="matrix( 1.1267547607421875, 0, 0, 1.1267547607421875, -0.4,12.6) ">
<use xlink:href="#BDM_336x280_FR_psd_Asset_6_V7_4_CTA_copy_2_Regardez_la_vid_o__0_Layer0_0_MEMBER_8_FILL"/>
</g>

<g transform="matrix( 1.1267547607421875, 0, 0, 1.1267547607421875, -0.4,12.6) ">
<use xlink:href="#BDM_336x280_FR_psd_Asset_6_V7_4_CTA_copy_2_Regardez_la_vid_o__0_Layer0_0_MEMBER_9_FILL"/>
</g>

<g transform="matrix( 1.1267547607421875, 0, 0, 1.1267547607421875, -0.4,12.6) ">
<use xlink:href="#BDM_336x280_FR_psd_Asset_6_V7_4_CTA_copy_2_Regardez_la_vid_o__0_Layer0_0_MEMBER_10_FILL"/>
</g>

<g transform="matrix( 1.1267547607421875, 0, 0, 1.1267547607421875, -0.4,12.6) ">
<use xlink:href="#BDM_336x280_FR_psd_Asset_6_V7_4_CTA_copy_2_Regardez_la_vid_o__0_Layer0_0_MEMBER_11_FILL"/>
</g>

<g transform="matrix( 1.1267547607421875, 0, 0, 1.1267547607421875, -0.4,12.6) ">
<use xlink:href="#BDM_336x280_FR_psd_Asset_6_V7_4_CTA_copy_2_Regardez_la_vid_o__0_Layer0_0_MEMBER_12_FILL"/>
</g>

<g transform="matrix( 1.1267547607421875, 0, 0, 1.1267547607421875, -0.4,12.6) ">
<use xlink:href="#BDM_336x280_FR_psd_Asset_6_V7_4_CTA_copy_2_Regardez_la_vid_o__0_Layer0_0_MEMBER_13_FILL"/>
</g>

<g transform="matrix( 1.1267547607421875, 0, 0, 1.1267547607421875, -0.4,12.6) ">
<use xlink:href="#BDM_336x280_FR_psd_Asset_6_V7_4_CTA_copy_2_Regardez_la_vid_o__0_Layer0_0_MEMBER_14_FILL"/>
</g>

<g transform="matrix( 1.1267547607421875, 0, 0, 1.1267547607421875, -0.4,12.6) ">
<use xlink:href="#BDM_336x280_FR_psd_Asset_6_V7_4_CTA_copy_2_Regardez_la_vid_o__0_Layer0_0_MEMBER_15_FILL"/>
</g>
</g>
</g>

<g transform="matrix( 1, 0, 0, 1, 26,195) ">
<g transform="matrix( 1, 0, 0, 1, 0,0) ">
<g transform="matrix( 1.00018310546875, 0, 0, 1.00018310546875, 0.25,10.8) ">
<use xlink:href="#BDM_336x280_FR_psd_Asset_6_V7_4_footer_copy_2_Faites_en_plus_avec_le__Wi_Fi_en_tant_que_service__copy_7_0_Layer0_0_MEMBER_0_FILL"/>
</g>

<g transform="matrix( 1.00018310546875, 0, 0, 1.00018310546875, 0.25,10.8) ">
<use xlink:href="#BDM_336x280_FR_psd_Asset_6_V7_4_footer_copy_2_Faites_en_plus_avec_le__Wi_Fi_en_tant_que_service__copy_7_0_Layer0_0_MEMBER_1_FILL"/>
</g>

<g transform="matrix( 1.00018310546875, 0, 0, 1.00018310546875, 0.25,10.8) ">
<use xlink:href="#BDM_336x280_FR_psd_Asset_6_V7_4_footer_copy_2_Faites_en_plus_avec_le__Wi_Fi_en_tant_que_service__copy_7_0_Layer0_0_MEMBER_2_FILL"/>
</g>

<g transform="matrix( 1.00018310546875, 0, 0, 1.00018310546875, 0.25,10.8) ">
<use xlink:href="#BDM_336x280_FR_psd_Asset_6_V7_4_footer_copy_2_Faites_en_plus_avec_le__Wi_Fi_en_tant_que_service__copy_7_0_Layer0_0_MEMBER_3_FILL"/>
</g>

<g transform="matrix( 1.00018310546875, 0, 0, 1.00018310546875, 0.25,10.8) ">
<use xlink:href="#BDM_336x280_FR_psd_Asset_6_V7_4_footer_copy_2_Faites_en_plus_avec_le__Wi_Fi_en_tant_que_service__copy_7_0_Layer0_0_MEMBER_4_FILL"/>
</g>

<g transform="matrix( 1.00018310546875, 0, 0, 1.00018310546875, 0.25,10.8) ">
<use xlink:href="#BDM_336x280_FR_psd_Asset_6_V7_4_footer_copy_2_Faites_en_plus_avec_le__Wi_Fi_en_tant_que_service__copy_7_0_Layer0_0_MEMBER_5_FILL"/>
</g>

<g transform="matrix( 1.00018310546875, 0, 0, 1.00018310546875, 0.25,10.8) ">
<use xlink:href="#BDM_336x280_FR_psd_Asset_6_V7_4_footer_copy_2_Faites_en_plus_avec_le__Wi_Fi_en_tant_que_service__copy_7_0_Layer0_0_MEMBER_6_FILL"/>
</g>

<g transform="matrix( 1.00018310546875, 0, 0, 1.00018310546875, 0.25,10.8) ">
<use xlink:href="#BDM_336x280_FR_psd_Asset_6_V7_4_footer_copy_2_Faites_en_plus_avec_le__Wi_Fi_en_tant_que_service__copy_7_0_Layer0_0_MEMBER_7_FILL"/>
</g>

<g transform="matrix( 1.00018310546875, 0, 0, 1.00018310546875, 0.25,10.8) ">
<use xlink:href="#BDM_336x280_FR_psd_Asset_6_V7_4_footer_copy_2_Faites_en_plus_avec_le__Wi_Fi_en_tant_que_service__copy_7_0_Layer0_0_MEMBER_8_FILL"/>
</g>

<g transform="matrix( 1.00018310546875, 0, 0, 1.00018310546875, 0.25,10.8) ">
<use xlink:href="#BDM_336x280_FR_psd_Asset_6_V7_4_footer_copy_2_Faites_en_plus_avec_le__Wi_Fi_en_tant_que_service__copy_7_0_Layer0_0_MEMBER_9_FILL"/>
</g>

<g transform="matrix( 1.00018310546875, 0, 0, 1.00018310546875, 0.25,10.8) ">
<use xlink:href="#BDM_336x280_FR_psd_Asset_6_V7_4_footer_copy_2_Faites_en_plus_avec_le__Wi_Fi_en_tant_que_service__copy_7_0_Layer0_0_MEMBER_10_FILL"/>
</g>

<g transform="matrix( 1.00018310546875, 0, 0, 1.00018310546875, 0.25,10.8) ">
<use xlink:href="#BDM_336x280_FR_psd_Asset_6_V7_4_footer_copy_2_Faites_en_plus_avec_le__Wi_Fi_en_tant_que_service__copy_7_0_Layer0_0_MEMBER_11_FILL"/>
</g>

<g transform="matrix( 1.00018310546875, 0, 0, 1.00018310546875, 0.25,10.8) ">
<use xlink:href="#BDM_336x280_FR_psd_Asset_6_V7_4_footer_copy_2_Faites_en_plus_avec_le__Wi_Fi_en_tant_que_service__copy_7_0_Layer0_0_MEMBER_12_FILL"/>
</g>

<g transform="matrix( 1.00018310546875, 0, 0, 1.00018310546875, 0.25,10.8) ">
<use xlink:href="#BDM_336x280_FR_psd_Asset_6_V7_4_footer_copy_2_Faites_en_plus_avec_le__Wi_Fi_en_tant_que_service__copy_7_0_Layer0_0_MEMBER_13_FILL"/>
</g>

<g transform="matrix( 1.00018310546875, 0, 0, 1.00018310546875, 0.25,10.8) ">
<use xlink:href="#BDM_336x280_FR_psd_Asset_6_V7_4_footer_copy_2_Faites_en_plus_avec_le__Wi_Fi_en_tant_que_service__copy_7_0_Layer0_0_MEMBER_14_FILL"/>
</g>

<g transform="matrix( 1.00018310546875, 0, 0, 1.00018310546875, 0.25,10.8) ">
<use xlink:href="#BDM_336x280_FR_psd_Asset_6_V7_4_footer_copy_2_Faites_en_plus_avec_le__Wi_Fi_en_tant_que_service__copy_7_0_Layer0_0_MEMBER_15_FILL"/>
</g>

<g transform="matrix( 1.00018310546875, 0, 0, 1.00018310546875, 0.25,10.8) ">
<use xlink:href="#BDM_336x280_FR_psd_Asset_6_V7_4_footer_copy_2_Faites_en_plus_avec_le__Wi_Fi_en_tant_que_service__copy_7_0_Layer0_0_MEMBER_16_FILL"/>
</g>

<g transform="matrix( 1.00018310546875, 0, 0, 1.00018310546875, 0.25,10.8) ">
<use xlink:href="#BDM_336x280_FR_psd_Asset_6_V7_4_footer_copy_2_Faites_en_plus_avec_le__Wi_Fi_en_tant_que_service__copy_7_0_Layer0_0_MEMBER_17_FILL"/>
</g>

<g transform="matrix( 1.00018310546875, 0, 0, 1.00018310546875, 0.25,10.8) ">
<use xlink:href="#BDM_336x280_FR_psd_Asset_6_V7_4_footer_copy_2_Faites_en_plus_avec_le__Wi_Fi_en_tant_que_service__copy_7_0_Layer0_0_MEMBER_18_FILL"/>
</g>

<g transform="matrix( 1.00018310546875, 0, 0, 1.00018310546875, 0.25,10.8) ">
<use xlink:href="#BDM_336x280_FR_psd_Asset_6_V7_4_footer_copy_2_Faites_en_plus_avec_le__Wi_Fi_en_tant_que_service__copy_7_0_Layer0_0_MEMBER_19_FILL"/>
</g>

<g transform="matrix( 1.00018310546875, 0, 0, 1.00018310546875, 0.25,10.8) ">
<use xlink:href="#BDM_336x280_FR_psd_Asset_6_V7_4_footer_copy_2_Faites_en_plus_avec_le__Wi_Fi_en_tant_que_service__copy_7_0_Layer0_0_MEMBER_20_FILL"/>
</g>

<g transform="matrix( 1.00018310546875, 0, 0, 1.00018310546875, 0.25,10.8) ">
<use xlink:href="#BDM_336x280_FR_psd_Asset_6_V7_4_footer_copy_2_Faites_en_plus_avec_le__Wi_Fi_en_tant_que_service__copy_7_0_Layer0_0_MEMBER_21_FILL"/>
</g>

<g transform="matrix( 1.00018310546875, 0, 0, 1.00018310546875, 0.25,10.8) ">
<use xlink:href="#BDM_336x280_FR_psd_Asset_6_V7_4_footer_copy_2_Faites_en_plus_avec_le__Wi_Fi_en_tant_que_service__copy_7_0_Layer0_0_MEMBER_22_FILL"/>
</g>

<g transform="matrix( 1.00018310546875, 0, 0, 1.00018310546875, 0.25,10.8) ">
<use xlink:href="#BDM_336x280_FR_psd_Asset_6_V7_4_footer_copy_2_Faites_en_plus_avec_le__Wi_Fi_en_tant_que_service__copy_7_0_Layer0_0_MEMBER_23_FILL"/>
</g>

<g transform="matrix( 1.00018310546875, 0, 0, 1.00018310546875, 0.25,10.8) ">
<use xlink:href="#BDM_336x280_FR_psd_Asset_6_V7_4_footer_copy_2_Faites_en_plus_avec_le__Wi_Fi_en_tant_que_service__copy_7_0_Layer0_0_MEMBER_24_FILL"/>
</g>

<g transform="matrix( 1.00018310546875, 0, 0, 1.00018310546875, 0.25,10.8) ">
<use xlink:href="#BDM_336x280_FR_psd_Asset_6_V7_4_footer_copy_2_Faites_en_plus_avec_le__Wi_Fi_en_tant_que_service__copy_7_0_Layer0_0_MEMBER_25_FILL"/>
</g>

<g transform="matrix( 1.00018310546875, 0, 0, 1.00018310546875, 0.25,10.8) ">
<use xlink:href="#BDM_336x280_FR_psd_Asset_6_V7_4_footer_copy_2_Faites_en_plus_avec_le__Wi_Fi_en_tant_que_service__copy_7_0_Layer0_0_MEMBER_26_FILL"/>
</g>

<g transform="matrix( 1.00018310546875, 0, 0, 1.00018310546875, 0.25,10.8) ">
<use xlink:href="#BDM_336x280_FR_psd_Asset_6_V7_4_footer_copy_2_Faites_en_plus_avec_le__Wi_Fi_en_tant_que_service__copy_7_0_Layer0_0_MEMBER_27_FILL"/>
</g>

<g transform="matrix( 1.00018310546875, 0, 0, 1.00018310546875, 0.25,10.8) ">
<use xlink:href="#BDM_336x280_FR_psd_Asset_6_V7_4_footer_copy_2_Faites_en_plus_avec_le__Wi_Fi_en_tant_que_service__copy_7_0_Layer0_0_MEMBER_28_FILL"/>
</g>

<g transform="matrix( 1.00018310546875, 0, 0, 1.00018310546875, 0.25,10.8) ">
<use xlink:href="#BDM_336x280_FR_psd_Asset_6_V7_4_footer_copy_2_Faites_en_plus_avec_le__Wi_Fi_en_tant_que_service__copy_7_0_Layer0_0_MEMBER_29_FILL"/>
</g>

<g transform="matrix( 1.00018310546875, 0, 0, 1.00018310546875, 0.25,10.8) ">
<use xlink:href="#BDM_336x280_FR_psd_Asset_6_V7_4_footer_copy_2_Faites_en_plus_avec_le__Wi_Fi_en_tant_que_service__copy_7_0_Layer0_0_MEMBER_30_FILL"/>
</g>

<g transform="matrix( 1.00018310546875, 0, 0, 1.00018310546875, 0.25,10.8) ">
<use xlink:href="#BDM_336x280_FR_psd_Asset_6_V7_4_footer_copy_2_Faites_en_plus_avec_le__Wi_Fi_en_tant_que_service__copy_7_0_Layer0_0_MEMBER_31_FILL"/>
</g>

<g transform="matrix( 1.00018310546875, 0, 0, 1.00018310546875, 0.25,10.8) ">
<use xlink:href="#BDM_336x280_FR_psd_Asset_6_V7_4_footer_copy_2_Faites_en_plus_avec_le__Wi_Fi_en_tant_que_service__copy_7_0_Layer0_0_MEMBER_32_FILL"/>
</g>

<g transform="matrix( 1.00018310546875, 0, 0, 1.00018310546875, 0.25,10.8) ">
<use xlink:href="#BDM_336x280_FR_psd_Asset_6_V7_4_footer_copy_2_Faites_en_plus_avec_le__Wi_Fi_en_tant_que_service__copy_7_0_Layer0_0_MEMBER_33_FILL"/>
</g>

<g transform="matrix( 1.00018310546875, 0, 0, 1.00018310546875, 0.25,10.8) ">
<use xlink:href="#BDM_336x280_FR_psd_Asset_6_V7_4_footer_copy_2_Faites_en_plus_avec_le__Wi_Fi_en_tant_que_service__copy_7_0_Layer0_0_MEMBER_34_FILL"/>
</g>

<g transform="matrix( 1.00018310546875, 0, 0, 1.00018310546875, 0.25,10.8) ">
<use xlink:href="#BDM_336x280_FR_psd_Asset_6_V7_4_footer_copy_2_Faites_en_plus_avec_le__Wi_Fi_en_tant_que_service__copy_7_0_Layer0_0_MEMBER_35_FILL"/>
</g>

<g transform="matrix( 1.00018310546875, 0, 0, 1.00018310546875, 0.25,10.8) ">
<use xlink:href="#BDM_336x280_FR_psd_Asset_6_V7_4_footer_copy_2_Faites_en_plus_avec_le__Wi_Fi_en_tant_que_service__copy_7_0_Layer0_0_MEMBER_36_FILL"/>
</g>

<g transform="matrix( 1.00018310546875, 0, 0, 1.00018310546875, 0.25,10.8) ">
<use xlink:href="#BDM_336x280_FR_psd_Asset_6_V7_4_footer_copy_2_Faites_en_plus_avec_le__Wi_Fi_en_tant_que_service__copy_7_0_Layer0_0_MEMBER_37_FILL"/>
</g>

<g transform="matrix( 1.00018310546875, 0, 0, 1.00018310546875, 0.25,10.8) ">
<use xlink:href="#BDM_336x280_FR_psd_Asset_6_V7_4_footer_copy_2_Faites_en_plus_avec_le__Wi_Fi_en_tant_que_service__copy_7_0_Layer0_0_MEMBER_38_FILL"/>
</g>

<g transform="matrix( 1.00018310546875, 0, 0, 1.00018310546875, 0.25,10.8) ">
<use xlink:href="#BDM_336x280_FR_psd_Asset_6_V7_4_footer_copy_2_Faites_en_plus_avec_le__Wi_Fi_en_tant_que_service__copy_7_0_Layer0_0_MEMBER_39_FILL"/>
</g>

<g transform="matrix( 1.00018310546875, 0, 0, 1.00018310546875, 0.25,10.8) ">
<use xlink:href="#BDM_336x280_FR_psd_Asset_6_V7_4_footer_copy_2_Faites_en_plus_avec_le__Wi_Fi_en_tant_que_service__copy_7_0_Layer0_0_MEMBER_40_FILL"/>
</g>
</g>
</g>
</g>
</g>
</svg>
