
<svg xmlns="http://www.w3.org/2000/svg" version="1.1" xmlns:xlink="http://www.w3.org/1999/xlink" preserveAspectRatio="none" x="0px" y="0px" width="300px" height="250px" viewBox="0 0 300 250">
<defs>
<g id="IT_300x250_psd_Asset_1_ManagedWiFi_IT_Eval_DM6_1_Choosing_the_right_Wi_Fi__vendor_for_your_business____0_Layer0_0_MEMBER_0_FILL">
<path fill="#D82C26" stroke="none" d="
M 3.5 -5.45
Q 4.1 -5.45 4.55 -5.25 5.1 -5 5.35 -4.75
L 5.5 -5.2
Q 5 -5.6 4.6 -5.7 4.15 -5.9 3.5 -5.9 2.65 -5.9 1.95 -5.5 1.3 -5.1 0.9 -4.45 0.5 -3.65 0.5 -2.85 0.5 -2.1 0.9 -1.3 1.3 -0.6 1.95 -0.25 2.65 0.15 3.5 0.15 4.2 0.15 4.65 -0.05 5.15 -0.25 5.5 -0.6
L 5.4 -1.05
Q 4.9 -0.65 4.55 -0.5 4.15 -0.3 3.5 -0.3 2.75 -0.3 2.2 -0.65 1.7 -0.95 1.35 -1.55 1.05 -2.15 1.05 -2.85 1.05 -3.6 1.35 -4.2 1.7 -4.8 2.2 -5.1 2.75 -5.45 3.5 -5.45 Z"/>
</g>

<g id="IT_300x250_psd_Asset_1_ManagedWiFi_IT_Eval_DM6_1_Choosing_the_right_Wi_Fi__vendor_for_your_business____0_Layer0_0_MEMBER_1_FILL">
<path fill="#D82C26" stroke="none" d="
M 9.3 -3.45
Q 8.95 -3.9 8.2 -3.9 7.7 -3.9 7.4 -3.65 7 -3.4 6.85 -3
L 6.85 -6.2 6.35 -6.1 6.35 0 6.85 0 6.85 -1.85
Q 6.85 -2.35 7 -2.75 7.15 -3.15 7.45 -3.3 7.7 -3.5 8.1 -3.5 8.7 -3.5 8.9 -3.15 9.15 -2.75 9.15 -2.2
L 9.15 0 9.6 0 9.6 -2.3
Q 9.6 -3 9.3 -3.45 Z"/>
</g>

<g id="IT_300x250_psd_Asset_1_ManagedWiFi_IT_Eval_DM6_1_Choosing_the_right_Wi_Fi__vendor_for_your_business____0_Layer0_0_MEMBER_2_FILL">
<path fill="#D82C26" stroke="none" d="
M 12.6 -3.9
Q 11.95 -3.9 11.55 -3.65 11.1 -3.4 10.85 -2.95 10.55 -2.5 10.55 -1.9 10.55 -1.35 10.85 -0.85 11.1 -0.4 11.55 -0.15 11.95 0.1 12.6 0.1 13.25 0.1 13.6 -0.15 14 -0.3 14.35 -0.85 14.6 -1.3 14.6 -1.9 14.6 -2.55 14.35 -2.95 14 -3.5 13.6 -3.65 13.25 -3.9 12.6 -3.9
M 11.75 -3.3
Q 12.1 -3.5 12.6 -3.5 13.05 -3.5 13.4 -3.3 13.7 -3.1 13.95 -2.7 14.15 -2.3 14.15 -1.9 14.15 -1.6 13.95 -1.1 13.7 -0.7 13.4 -0.5 13.05 -0.3 12.6 -0.3 12.1 -0.3 11.75 -0.5 11.4 -0.8 11.25 -1.1 11.05 -1.45 11.05 -1.9 11.05 -2.45 11.25 -2.7 11.4 -3 11.75 -3.3 Z"/>
</g>

<g id="IT_300x250_psd_Asset_1_ManagedWiFi_IT_Eval_DM6_1_Choosing_the_right_Wi_Fi__vendor_for_your_business____0_Layer0_0_MEMBER_3_FILL">
<path fill="#D82C26" stroke="none" d="
M 17.35 -3.9
Q 16.75 -3.9 16.35 -3.65 15.95 -3.45 15.6 -2.95 15.35 -2.45 15.35 -1.9 15.35 -1.45 15.6 -0.85 15.95 -0.35 16.35 -0.15 16.75 0.1 17.35 0.1 18.05 0.1 18.4 -0.15 18.85 -0.35 19.15 -0.85 19.4 -1.45 19.4 -1.9 19.4 -2.45 19.15 -2.95 18.85 -3.45 18.4 -3.65 18.05 -3.9 17.35 -3.9
M 16.55 -3.3
Q 16.9 -3.5 17.35 -3.5 17.85 -3.5 18.2 -3.3 18.55 -3.05 18.75 -2.7 18.9 -2.4 18.9 -1.9 18.9 -1.45 18.75 -1.1 18.5 -0.7 18.2 -0.5 17.85 -0.3 17.35 -0.3 16.9 -0.3 16.55 -0.5 16.25 -0.7 16 -1.1 15.85 -1.45 15.85 -1.9 15.85 -2.4 16 -2.7 16.25 -3.1 16.55 -3.3 Z"/>
</g>

<g id="IT_300x250_psd_Asset_1_ManagedWiFi_IT_Eval_DM6_1_Choosing_the_right_Wi_Fi__vendor_for_your_business____0_Layer0_0_MEMBER_4_FILL">
<path fill="#D82C26" stroke="none" d="
M 20.15 -0.75
L 20.05 -0.3 20.65 0 21.45 0.1 22.05 0 22.55 -0.4
Q 22.7 -0.6 22.7 -1 22.7 -1.4 22.45 -1.65 22.15 -1.95 21.55 -2.1
L 20.8 -2.45
Q 20.6 -2.6 20.6 -2.9 20.6 -3.2 20.8 -3.4 21.05 -3.55 21.4 -3.55
L 21.95 -3.45 22.4 -3.15 22.6 -3.5 22.05 -3.8
Q 21.85 -3.9 21.4 -3.9 21 -3.9 20.8 -3.8 20.6 -3.75 20.3 -3.45 20.15 -3.2 20.15 -2.85 20.15 -2.4 20.4 -2.2 20.75 -1.9 21.2 -1.8 21.65 -1.7 22 -1.45 22.25 -1.3 22.25 -1 22.25 -0.65 22 -0.45 21.7 -0.25 21.4 -0.25 20.65 -0.25 20.15 -0.75 Z"/>
</g>

<g id="IT_300x250_psd_Asset_1_ManagedWiFi_IT_Eval_DM6_1_Choosing_the_right_Wi_Fi__vendor_for_your_business____0_Layer0_0_MEMBER_5_FILL">
<path fill="#D82C26" stroke="none" d="
M 24.1 -3.8
L 23.6 -3.8 23.6 0 24.1 0 24.1 -3.8
M 24.1 -5.1
L 24.2 -5.35 24.1 -5.55
Q 24.05 -5.65 23.85 -5.65 23.7 -5.65 23.6 -5.55
L 23.5 -5.35 23.6 -5.1
Q 23.7 -5 23.85 -5 24.05 -5 24.1 -5.1 Z"/>
</g>

<g id="IT_300x250_psd_Asset_1_ManagedWiFi_IT_Eval_DM6_1_Choosing_the_right_Wi_Fi__vendor_for_your_business____0_Layer0_0_MEMBER_6_FILL">
<path fill="#D82C26" stroke="none" d="
M 27.2 -3.9
Q 26.65 -3.9 26.35 -3.65 26.1 -3.5 25.8 -3
L 25.75 -3.8 25.3 -3.8 25.35 0 25.85 0 25.85 -1.95
Q 25.85 -2.4 26 -2.8 26.15 -3.15 26.45 -3.35 26.75 -3.5 27.1 -3.5 27.7 -3.5 27.9 -3.15 28.15 -2.75 28.15 -2.2
L 28.15 0 28.6 0 28.6 -2.3
Q 28.6 -3.05 28.25 -3.45 27.95 -3.9 27.2 -3.9 Z"/>
</g>

<g id="IT_300x250_psd_Asset_1_ManagedWiFi_IT_Eval_DM6_1_Choosing_the_right_Wi_Fi__vendor_for_your_business____0_Layer0_0_MEMBER_7_FILL">
<path fill="#D82C26" stroke="none" d="
M 29.55 -1.9
Q 29.55 -1.4 29.8 -0.9 30 -0.45 30.45 -0.2 30.85 0.05 31.45 0.05 32 0.05 32.35 -0.15 32.8 -0.45 33 -0.85
L 33 -0.05
Q 33 0.75 32.65 1.15 32.3 1.6 31.45 1.6 31.05 1.6 30.6 1.45
L 29.9 1.1 29.8 1.55
Q 30.1 1.8 30.55 1.85 31 2 31.45 2 32.45 2 33 1.45 33.5 0.9 33.5 -0.05
L 33.5 -3.8 33.05 -3.8 33.05 -2.95 33 -2.95
Q 32.75 -3.45 32.35 -3.65 32.05 -3.9 31.45 -3.9 30.95 -3.9 30.45 -3.65 30 -3.3 29.8 -2.9 29.55 -2.4 29.55 -1.9
M 30.05 -1.9
Q 30.05 -2.3 30.2 -2.7 30.45 -3.1 30.75 -3.3 31 -3.5 31.55 -3.5 31.95 -3.5 32.3 -3.3 32.6 -3.1 32.85 -2.7 33.05 -2.2 33.05 -1.9 33.05 -1.6 32.85 -1.1 32.65 -0.75 32.3 -0.55 31.9 -0.3 31.55 -0.3 31.1 -0.3 30.75 -0.55 30.5 -0.7 30.2 -1.1 30.05 -1.45 30.05 -1.9 Z"/>
</g>

<g id="IT_300x250_psd_Asset_1_ManagedWiFi_IT_Eval_DM6_1_Choosing_the_right_Wi_Fi__vendor_for_your_business____0_Layer0_0_MEMBER_8_FILL">
<path fill="#D82C26" stroke="none" d="
M 35.7 -3.45
L 36.45 -3.45 36.45 -0.9
Q 36.45 -0.4 36.65 -0.2 36.95 0.1 37.3 0.1
L 38.15 -0.1 38.05 -0.5
Q 37.8 -0.3 37.45 -0.3 37.2 -0.3 37.05 -0.45 36.9 -0.65 36.9 -1
L 36.9 -3.45 37.9 -3.45 38 -3.8 36.9 -3.8 36.9 -4.9 36.4 -4.7 36.4 -3.8 35.8 -3.8 35.7 -3.45 Z"/>
</g>

<g id="IT_300x250_psd_Asset_1_ManagedWiFi_IT_Eval_DM6_1_Choosing_the_right_Wi_Fi__vendor_for_your_business____0_Layer0_0_MEMBER_9_FILL">
<path fill="#D82C26" stroke="none" d="
M 39.3 -6.2
L 38.85 -6.1 38.85 0 39.3 0 39.3 -1.85
Q 39.3 -2.4 39.5 -2.75 39.65 -3.15 39.95 -3.3 40.2 -3.5 40.55 -3.5 41.1 -3.5 41.4 -3.15 41.6 -2.8 41.6 -2.2
L 41.6 0 42.1 0 42.1 -2.3
Q 42.1 -2.9 41.75 -3.45 41.45 -3.9 40.7 -3.9 40.15 -3.9 39.85 -3.65 39.5 -3.45 39.35 -3
L 39.3 -3 39.3 -6.2 Z"/>
</g>

<g id="IT_300x250_psd_Asset_1_ManagedWiFi_IT_Eval_DM6_1_Choosing_the_right_Wi_Fi__vendor_for_your_business____0_Layer0_0_MEMBER_10_FILL">
<path fill="#D82C26" stroke="none" d="
M 44.95 -3.9
Q 44.3 -3.9 44 -3.65 43.55 -3.4 43.3 -2.95 43.05 -2.45 43.05 -1.9 43.05 -1.45 43.3 -0.85 43.55 -0.4 44 -0.15 44.4 0.1 45 0.1 45.9 0.1 46.5 -0.35
L 46.45 -0.75 45.8 -0.4
Q 45.6 -0.3 45.05 -0.3 44.6 -0.3 44.25 -0.5 43.85 -0.8 43.7 -1.05 43.5 -1.55 43.5 -1.85
L 46.75 -1.85 46.75 -2.05
Q 46.75 -2.4 46.55 -3 46.25 -3.45 45.9 -3.65 45.6 -3.9 44.95 -3.9
M 44.2 -3.35
Q 44.45 -3.55 44.95 -3.55 45.5 -3.55 45.9 -3.15 46.3 -2.85 46.3 -2.2
L 43.5 -2.2 43.7 -2.8
Q 43.85 -3.1 44.2 -3.35 Z"/>
</g>

<g id="IT_300x250_psd_Asset_1_ManagedWiFi_IT_Eval_DM6_1_Choosing_the_right_Wi_Fi__vendor_for_your_business____0_Layer0_0_MEMBER_11_FILL">
<path fill="#D82C26" stroke="none" d="
M 49.75 -3.8
L 49.3 -3.8 49.35 0 49.8 0 49.8 -1.9
Q 49.8 -2.55 50.1 -3 50.4 -3.5 50.9 -3.5
L 51.25 -3.45 51.35 -3.85 50.95 -3.9
Q 50.55 -3.9 50.25 -3.65 50 -3.45 49.8 -3
L 49.75 -3.8 Z"/>
</g>

<g id="IT_300x250_psd_Asset_1_ManagedWiFi_IT_Eval_DM6_1_Choosing_the_right_Wi_Fi__vendor_for_your_business____0_Layer0_0_MEMBER_12_FILL">
<path fill="#D82C26" stroke="none" d="
M 52.5 -3.8
L 52 -3.8 52 0 52.5 0 52.5 -3.8
M 52.25 -5
Q 52.4 -5 52.5 -5.1
L 52.6 -5.35 52.5 -5.55
Q 52.4 -5.65 52.25 -5.65 52.05 -5.65 52 -5.55
L 51.9 -5.35 52 -5.1
Q 52.05 -5 52.25 -5 Z"/>
</g>

<g id="IT_300x250_psd_Asset_1_ManagedWiFi_IT_Eval_DM6_1_Choosing_the_right_Wi_Fi__vendor_for_your_business____0_Layer0_0_MEMBER_13_FILL">
<path fill="#D82C26" stroke="none" d="
M 55.35 -3.9
Q 54.85 -3.9 54.35 -3.65 53.9 -3.3 53.7 -2.9 53.45 -2.4 53.45 -1.9 53.45 -1.4 53.7 -0.9 53.9 -0.45 54.35 -0.2 54.75 0.05 55.35 0.05 55.9 0.05 56.25 -0.15 56.7 -0.45 56.9 -0.85
L 56.9 -0.05
Q 56.9 0.75 56.55 1.15 56.2 1.6 55.35 1.6 54.95 1.6 54.5 1.45
L 53.8 1.1 53.7 1.55
Q 54 1.8 54.45 1.85 54.9 2 55.35 2 56.35 2 56.9 1.45 57.4 0.9 57.4 -0.05
L 57.4 -3.8 56.95 -3.8 56.95 -2.95 56.9 -2.95
Q 56.65 -3.45 56.25 -3.65 55.95 -3.9 55.35 -3.9
M 54.65 -3.3
Q 54.9 -3.5 55.45 -3.5 55.85 -3.5 56.2 -3.3 56.5 -3.1 56.75 -2.7 56.95 -2.2 56.95 -1.9 56.95 -1.6 56.75 -1.1 56.55 -0.75 56.2 -0.55 55.8 -0.3 55.45 -0.3 55 -0.3 54.65 -0.55 54.4 -0.7 54.1 -1.1 53.95 -1.45 53.95 -1.9 53.95 -2.3 54.1 -2.7 54.35 -3.1 54.65 -3.3 Z"/>
</g>

<g id="IT_300x250_psd_Asset_1_ManagedWiFi_IT_Eval_DM6_1_Choosing_the_right_Wi_Fi__vendor_for_your_business____0_Layer0_0_MEMBER_14_FILL">
<path fill="#D82C26" stroke="none" d="
M 59.1 -6.2
L 58.65 -6.1 58.65 0 59.1 0 59.1 -1.85
Q 59.1 -2.35 59.25 -2.75 59.5 -3.2 59.75 -3.3 59.95 -3.5 60.35 -3.5 60.95 -3.5 61.15 -3.15 61.4 -2.85 61.4 -2.2
L 61.4 0 61.9 0 61.9 -2.3
Q 61.9 -2.9 61.55 -3.45 61.2 -3.9 60.5 -3.9 59.95 -3.9 59.65 -3.65 59.35 -3.45 59.1 -3
L 59.1 -6.2 Z"/>
</g>

<g id="IT_300x250_psd_Asset_1_ManagedWiFi_IT_Eval_DM6_1_Choosing_the_right_Wi_Fi__vendor_for_your_business____0_Layer0_0_MEMBER_15_FILL">
<path fill="#D82C26" stroke="none" d="
M 63.65 -3.8
L 63.65 -4.9 63.15 -4.7 63.15 -3.8 62.55 -3.8 62.45 -3.45 63.15 -3.45 63.15 -0.9
Q 63.15 -0.45 63.4 -0.2 63.65 0.1 64.05 0.1
L 64.85 -0.1 64.8 -0.5
Q 64.45 -0.3 64.2 -0.3 63.95 -0.3 63.8 -0.45 63.65 -0.65 63.65 -1
L 63.65 -3.45 64.6 -3.45 64.7 -3.8 63.65 -3.8 Z"/>
</g>

<g id="IT_300x250_psd_Asset_1_ManagedWiFi_IT_Eval_DM6_1_Choosing_the_right_Wi_Fi__vendor_for_your_business____0_Layer0_0_MEMBER_16_FILL">
<path fill="#D82C26" stroke="none" d="
M 67.05 -5.75
L 66.5 -5.75 68.2 0 68.75 0 70.25 -5.1 70.3 -5.1 71.8 0 72.4 0 74.05 -5.75 73.55 -5.75 72.1 -0.65 70.55 -5.75 70 -5.75 68.5 -0.65 67.05 -5.75 Z"/>
</g>

<g id="IT_300x250_psd_Asset_1_ManagedWiFi_IT_Eval_DM6_1_Choosing_the_right_Wi_Fi__vendor_for_your_business____0_Layer0_0_MEMBER_17_FILL">
<path fill="#D82C26" stroke="none" d="
M 75.35 -3.8
L 74.85 -3.8 74.85 0 75.35 0 75.35 -3.8
M 75.1 -5
Q 75.25 -5 75.35 -5.1
L 75.45 -5.35 75.35 -5.55
Q 75.25 -5.65 75.1 -5.65 74.95 -5.65 74.85 -5.55
L 74.75 -5.35 74.85 -5.1
Q 74.95 -5 75.1 -5 Z"/>
</g>

<g id="IT_300x250_psd_Asset_1_ManagedWiFi_IT_Eval_DM6_1_Choosing_the_right_Wi_Fi__vendor_for_your_business____0_Layer0_0_MEMBER_18_FILL">
<path fill="#D82C26" stroke="none" d="
M 76.4 -2.25
L 76.4 -1.85 78.05 -1.85 78.05 -2.25 76.4 -2.25 Z"/>
</g>

<g id="IT_300x250_psd_Asset_1_ManagedWiFi_IT_Eval_DM6_1_Choosing_the_right_Wi_Fi__vendor_for_your_business____0_Layer0_0_MEMBER_19_FILL">
<path fill="#D82C26" stroke="none" d="
M 79.7 -3.15
L 79.7 -5.3 82.15 -5.3 82.15 -5.75 79.2 -5.75 79.2 0 79.7 0 79.7 -2.75 81.95 -2.75 82.05 -3.15 79.7 -3.15 Z"/>
</g>

<g id="IT_300x250_psd_Asset_1_ManagedWiFi_IT_Eval_DM6_1_Choosing_the_right_Wi_Fi__vendor_for_your_business____0_Layer0_0_MEMBER_20_FILL">
<path fill="#D82C26" stroke="none" d="
M 83.6 -3.8
L 83.1 -3.8 83.1 0 83.6 0 83.6 -3.8
M 83.7 -5.35
L 83.6 -5.55
Q 83.5 -5.65 83.35 -5.65 83.15 -5.65 83.1 -5.55
L 83 -5.35 83.1 -5.1
Q 83.15 -5 83.35 -5 83.5 -5 83.6 -5.1
L 83.7 -5.35 Z"/>
</g>

<g id="IT_300x250_psd_Asset_1_ManagedWiFi_IT_Eval_DM6_1_Choosing_the_right_Wi_Fi__vendor_for_your_business____0_Layer0_0_MEMBER_21_FILL">
<path fill="#D82C26" stroke="none" d="
M 0.05 5.75
L 1.55 9.55 2.05 9.55 3.5 5.75 3 5.75 1.8 9.05 0.6 5.75 0.05 5.75 Z"/>
</g>

<g id="IT_300x250_psd_Asset_1_ManagedWiFi_IT_Eval_DM6_1_Choosing_the_right_Wi_Fi__vendor_for_your_business____0_Layer0_0_MEMBER_22_FILL">
<path fill="#D82C26" stroke="none" d="
M 6.65 5.85
Q 6.25 5.6 5.7 5.6 5.15 5.6 4.75 5.85 4.2 6.2 4.05 6.6 3.8 7.1 3.8 7.6 3.8 8.15 4.05 8.65 4.25 9.1 4.75 9.4 5.25 9.65 5.75 9.65 6.7 9.65 7.25 9.15
L 7.2 8.75 6.55 9.1
Q 6.25 9.25 5.8 9.25 5.35 9.25 5 9.05
L 4.45 8.5
Q 4.25 8 4.25 7.7
L 7.5 7.7 7.5 7.5
Q 7.5 6.95 7.3 6.55 7.1 6.15 6.65 5.85
M 4.45 6.75
Q 4.55 6.5 4.95 6.2 5.2 6 5.7 6 6.3 6 6.65 6.35 7.05 6.75 7.05 7.35
L 4.3 7.35
Q 4.3 7.05 4.45 6.75 Z"/>
</g>

<g id="IT_300x250_psd_Asset_1_ManagedWiFi_IT_Eval_DM6_1_Choosing_the_right_Wi_Fi__vendor_for_your_business____0_Layer0_0_MEMBER_23_FILL">
<path fill="#D82C26" stroke="none" d="
M 11.4 6.05
Q 11.05 5.6 10.3 5.6 9.9 5.6 9.5 5.85 9.05 6.2 8.95 6.55
L 8.9 5.75 8.45 5.75 8.5 9.55 8.95 9.55 8.95 7.6
Q 8.95 7.1 9.15 6.75 9.25 6.45 9.6 6.2 10 6 10.25 6 10.75 6 11 6.4 11.25 6.7 11.25 7.35
L 11.25 9.55 11.75 9.55 11.75 7.2
Q 11.75 6.65 11.4 6.05 Z"/>
</g>

<g id="IT_300x250_psd_Asset_1_ManagedWiFi_IT_Eval_DM6_1_Choosing_the_right_Wi_Fi__vendor_for_your_business____0_Layer0_0_MEMBER_24_FILL">
<path fill="#D82C26" stroke="none" d="
M 16.65 3.3
L 16.15 3.4 16.15 6.55
Q 15.9 6.05 15.5 5.85 15.1 5.6 14.6 5.6 14.05 5.6 13.6 5.9 13.2 6.1 12.95 6.6 12.7 7.1 12.7 7.65 12.7 8.15 12.95 8.65 13.2 9.15 13.6 9.35 14.05 9.65 14.6 9.65 15.1 9.65 15.5 9.4 15.9 9.2 16.15 8.7
L 16.2 8.7 16.2 9.55 16.7 9.55 16.65 3.3
M 14.65 9.25
Q 14.25 9.25 13.9 9 13.6 8.9 13.35 8.45 13.2 8.1 13.2 7.65 13.2 7.2 13.35 6.8 13.65 6.4 13.9 6.25 14.25 6 14.65 6 15.05 6 15.45 6.25 15.7 6.4 16 6.8 16.2 7.3 16.2 7.65 16.2 7.95 16 8.45 15.8 8.8 15.45 9 15.05 9.25 14.65 9.25 Z"/>
</g>

<g id="IT_300x250_psd_Asset_1_ManagedWiFi_IT_Eval_DM6_1_Choosing_the_right_Wi_Fi__vendor_for_your_business____0_Layer0_0_MEMBER_25_FILL">
<path fill="#D82C26" stroke="none" d="
M 20.65 9.4
Q 21.05 9.15 21.4 8.65 21.65 8.3 21.65 7.6 21.65 7 21.4 6.6 21.15 6.1 20.65 5.85 20.15 5.6 19.65 5.6 19.1 5.6 18.6 5.85 18.05 6.2 17.9 6.6 17.6 7.05 17.6 7.6 17.6 8.2 17.9 8.65 18.1 9.1 18.6 9.4 19.1 9.65 19.65 9.65 20.15 9.65 20.65 9.4
M 21 8.45
Q 20.8 8.8 20.45 9 20.05 9.25 19.65 9.25 19.2 9.25 18.8 9 18.4 8.7 18.3 8.45 18.1 8.1 18.1 7.6 18.1 7.15 18.3 6.8 18.45 6.45 18.8 6.25 19.2 6 19.65 6 20.05 6 20.45 6.25 20.75 6.35 21 6.8 21.2 7.3 21.2 7.6 21.2 7.95 21 8.45 Z"/>
</g>

<g id="IT_300x250_psd_Asset_1_ManagedWiFi_IT_Eval_DM6_1_Choosing_the_right_Wi_Fi__vendor_for_your_business____0_Layer0_0_MEMBER_26_FILL">
<path fill="#D82C26" stroke="none" d="
M 23.05 5.75
L 22.6 5.75 22.65 9.55 23.15 9.55 23.15 7.65
Q 23.15 6.9 23.4 6.5 23.7 6.05 24.2 6.05
L 24.55 6.1 24.65 5.7 24.25 5.6
Q 23.95 5.6 23.6 5.85 23.25 6.15 23.1 6.55
L 23.05 5.75 Z"/>
</g>

<g id="IT_300x250_psd_Asset_1_ManagedWiFi_IT_Eval_DM6_1_Choosing_the_right_Wi_Fi__vendor_for_your_business____0_Layer0_0_MEMBER_27_FILL">
<path fill="#D82C26" stroke="none" d="
M 26.2 6.1
L 27 6.1 27 9.55 27.45 9.55 27.45 6.1 28.35 6.1 28.45 5.75 27.45 5.75 27.45 4.65
Q 27.45 4.2 27.65 3.95 27.8 3.7 28.2 3.7
L 28.8 3.75 28.85 3.4 28.55 3.3 28.15 3.3
Q 27.6 3.3 27.3 3.6 27 4 27 4.65
L 27 5.75 26.3 5.75 26.2 6.1 Z"/>
</g>

<g id="IT_300x250_psd_Asset_1_ManagedWiFi_IT_Eval_DM6_1_Choosing_the_right_Wi_Fi__vendor_for_your_business____0_Layer0_0_MEMBER_28_FILL">
<path fill="#D82C26" stroke="none" d="
M 31.75 5.85
Q 31.25 5.6 30.7 5.6 30.15 5.6 29.65 5.85 29.1 6.2 28.95 6.6 28.7 7 28.7 7.6 28.7 8.3 28.95 8.65 29.15 9.1 29.65 9.4 30.15 9.65 30.7 9.65 31.25 9.65 31.75 9.4 32.25 9.1 32.45 8.65 32.75 8.2 32.75 7.6 32.75 7.05 32.45 6.6 32.3 6.2 31.75 5.85
M 32.05 6.8
Q 32.25 7.15 32.25 7.6 32.25 8.1 32.05 8.45 31.95 8.7 31.55 9 31.15 9.25 30.7 9.25 30.25 9.25 29.9 9 29.45 8.75 29.35 8.45 29.15 8.1 29.15 7.6 29.15 7.15 29.35 6.8 29.5 6.4 29.9 6.25 30.25 6 30.7 6 31.15 6 31.5 6.25 31.9 6.4 32.05 6.8 Z"/>
</g>

<g id="IT_300x250_psd_Asset_1_ManagedWiFi_IT_Eval_DM6_1_Choosing_the_right_Wi_Fi__vendor_for_your_business____0_Layer0_0_MEMBER_29_FILL">
<path fill="#D82C26" stroke="none" d="
M 35.6 6.1
L 35.7 5.7 35.3 5.6
Q 35 5.6 34.65 5.85 34.35 6.2 34.2 6.55
L 34.15 6.55 34.15 5.75 33.65 5.75 33.7 9.55 34.2 9.55 34.2 7.65
Q 34.2 6.95 34.5 6.5 34.75 6.05 35.25 6.05
L 35.6 6.1 Z"/>
</g>

<g id="IT_300x250_psd_Asset_1_ManagedWiFi_IT_Eval_DM6_1_Choosing_the_right_Wi_Fi__vendor_for_your_business____0_Layer0_0_MEMBER_30_FILL">
<path fill="#D82C26" stroke="none" d="
M 37.8 5.75
L 37.25 5.75 38.85 9.55 38.55 10.35
Q 38.4 10.8 38.15 10.9 37.95 11.05 37.5 11.05
L 37.6 11.5
Q 38.25 11.4 38.5 11.25 38.75 11.05 39 10.5
L 40.75 5.75 40.25 5.75 39.1 9.05 37.8 5.75 Z"/>
</g>

<g id="IT_300x250_psd_Asset_1_ManagedWiFi_IT_Eval_DM6_1_Choosing_the_right_Wi_Fi__vendor_for_your_business____0_Layer0_0_MEMBER_31_FILL">
<path fill="#D82C26" stroke="none" d="
M 44.15 5.85
Q 43.65 5.6 43.15 5.6 42.6 5.6 42.1 5.85 41.6 6.2 41.35 6.6 41.1 7.1 41.1 7.6 41.1 8.15 41.35 8.65 41.65 9.1 42.1 9.4 42.6 9.65 43.15 9.65 43.65 9.65 44.15 9.4 44.55 9.15 44.9 8.65 45.15 8.15 45.15 7.6 45.15 7.1 44.9 6.6 44.65 6.1 44.15 5.85
M 43.95 9
Q 43.55 9.25 43.15 9.25 42.7 9.25 42.3 9 41.9 8.7 41.8 8.45 41.6 8.1 41.6 7.6 41.6 7.15 41.8 6.8 41.95 6.45 42.3 6.25 42.7 6 43.15 6 43.55 6 43.95 6.25 44.25 6.35 44.5 6.8 44.7 7.3 44.7 7.6 44.7 7.95 44.5 8.45 44.3 8.8 43.95 9 Z"/>
</g>

<g id="IT_300x250_psd_Asset_1_ManagedWiFi_IT_Eval_DM6_1_Choosing_the_right_Wi_Fi__vendor_for_your_business____0_Layer0_0_MEMBER_32_FILL">
<path fill="#D82C26" stroke="none" d="
M 46.6 5.75
L 46.1 5.75 46.1 8.05
Q 46.1 8.8 46.45 9.2 46.75 9.65 47.5 9.65 47.85 9.65 48.35 9.4 48.7 9.15 48.9 8.7
L 48.95 9.55 49.4 9.55 49.35 9.1 49.35 5.75 48.9 5.75 48.9 7.6
Q 48.9 8 48.7 8.5 48.55 8.9 48.25 9.05 48 9.25 47.6 9.25 47.05 9.25 46.8 8.85 46.6 8.5 46.6 7.9
L 46.6 5.75 Z"/>
</g>

<g id="IT_300x250_psd_Asset_1_ManagedWiFi_IT_Eval_DM6_1_Choosing_the_right_Wi_Fi__vendor_for_your_business____0_Layer0_0_MEMBER_33_FILL">
<path fill="#D82C26" stroke="none" d="
M 52.15 6.05
L 52.5 6.1 52.6 5.7 52.2 5.6
Q 51.9 5.6 51.55 5.85 51.25 6.2 51.1 6.55
L 51.05 6.55 51.05 5.75 50.6 5.75 50.6 9.55 51.1 9.55 51.1 7.65
Q 51.1 6.95 51.4 6.5 51.7 6.05 52.15 6.05 Z"/>
</g>

<g id="IT_300x250_psd_Asset_1_ManagedWiFi_IT_Eval_DM6_1_Choosing_the_right_Wi_Fi__vendor_for_your_business____0_Layer0_0_MEMBER_34_FILL">
<path fill="#D82C26" stroke="none" d="
M 57.8 5.9
Q 57.35 5.6 56.8 5.6 56.4 5.6 55.9 5.85 55.45 6.1 55.25 6.55
L 55.25 3.3 54.75 3.4 54.75 9.55 55.15 9.55 55.2 8.7 55.25 8.7
Q 55.45 9.1 55.9 9.4 56.3 9.65 56.8 9.65 57.35 9.65 57.8 9.35 58.2 9.15 58.45 8.65 58.7 8.3 58.7 7.65 58.7 7 58.45 6.6 58.2 6.1 57.8 5.9
M 55.25 7.65
Q 55.25 7.15 55.45 6.8 55.6 6.5 55.95 6.25 56.35 6 56.75 6 57.15 6 57.55 6.25 57.9 6.5 58.05 6.8 58.25 7.3 58.25 7.65 58.25 7.95 58.05 8.45 57.95 8.7 57.55 9 57.15 9.25 56.75 9.25 56.35 9.25 55.95 9 55.55 8.7 55.45 8.45 55.25 8.1 55.25 7.65 Z"/>
</g>

<g id="IT_300x250_psd_Asset_1_ManagedWiFi_IT_Eval_DM6_1_Choosing_the_right_Wi_Fi__vendor_for_your_business____0_Layer0_0_MEMBER_35_FILL">
<path fill="#D82C26" stroke="none" d="
M 62.9 5.75
L 62.4 5.75 62.4 7.6
Q 62.4 8.15 62.25 8.5 62.1 8.9 61.8 9.05 61.55 9.25 61.15 9.25 60.6 9.25 60.35 8.85 60.15 8.5 60.15 7.9
L 60.15 5.75 59.65 5.75 59.65 8.05
Q 59.65 8.8 60 9.2 60.3 9.65 61.05 9.65 61.4 9.65 61.9 9.4 62.25 9.1 62.4 8.7
L 62.5 9.55 62.95 9.55 62.9 9.1 62.9 5.75 Z"/>
</g>

<g id="IT_300x250_psd_Asset_1_ManagedWiFi_IT_Eval_DM6_1_Choosing_the_right_Wi_Fi__vendor_for_your_business____0_Layer0_0_MEMBER_36_FILL">
<path fill="#D82C26" stroke="none" d="
M 66.4 6
Q 66.1 5.8 65.85 5.75 65.55 5.6 65.2 5.6 64.85 5.6 64.6 5.75 64.4 5.8 64.1 6.1 63.95 6.35 63.95 6.65 63.95 7.1 64.2 7.3 64.4 7.5 65 7.75 65.6 7.9 65.8 8.1 66.05 8.25 66.05 8.55 66.05 8.9 65.8 9.05 65.6 9.25 65.2 9.25 64.5 9.25 63.95 8.8
L 63.85 9.2
Q 64.1 9.45 64.45 9.5
L 65.2 9.65
Q 65.55 9.65 65.85 9.5 66.05 9.45 66.35 9.15 66.5 8.85 66.5 8.55 66.5 8.2 66.25 7.85
L 64.6 7.1
Q 64.35 6.85 64.35 6.65 64.35 6.3 64.6 6.15 64.85 6 65.2 6
L 65.75 6.1 66.2 6.35 66.4 6 Z"/>
</g>

<g id="IT_300x250_psd_Asset_1_ManagedWiFi_IT_Eval_DM6_1_Choosing_the_right_Wi_Fi__vendor_for_your_business____0_Layer0_0_MEMBER_37_FILL">
<path fill="#D82C26" stroke="none" d="
M 67.9 5.75
L 67.4 5.75 67.4 9.55 67.9 9.55 67.9 5.75
M 67.65 4.55
L 67.9 4.45 68 4.2 67.9 3.95 67.65 3.85 67.4 3.95 67.3 4.2 67.4 4.45 67.65 4.55 Z"/>
</g>

<g id="IT_300x250_psd_Asset_1_ManagedWiFi_IT_Eval_DM6_1_Choosing_the_right_Wi_Fi__vendor_for_your_business____0_Layer0_0_MEMBER_38_FILL">
<path fill="#D82C26" stroke="none" d="
M 72.05 6.05
Q 71.7 5.6 71 5.6 70.55 5.6 70.15 5.85 69.7 6.2 69.6 6.55
L 69.55 5.75 69.1 5.75 69.15 9.55 69.6 9.55 69.6 7.6
Q 69.6 7.25 69.8 6.75 69.9 6.45 70.25 6.2 70.65 6 70.9 6 71.45 6 71.7 6.4 71.9 6.75 71.9 7.35
L 71.9 9.55 72.4 9.55 72.4 7.2
Q 72.4 6.55 72.05 6.05 Z"/>
</g>

<g id="IT_300x250_psd_Asset_1_ManagedWiFi_IT_Eval_DM6_1_Choosing_the_right_Wi_Fi__vendor_for_your_business____0_Layer0_0_MEMBER_39_FILL">
<path fill="#D82C26" stroke="none" d="
M 75.25 5.6
Q 74.7 5.6 74.3 5.85 73.75 6.2 73.6 6.6 73.35 7.1 73.35 7.6 73.35 8.15 73.6 8.65 73.95 9.15 74.3 9.4 74.8 9.65 75.3 9.65 76.2 9.65 76.85 9.15
L 76.75 8.75
Q 76.65 8.85 76.15 9.1 75.8 9.25 75.35 9.25 74.9 9.25 74.55 9.05
L 74 8.5 73.8 7.7 77.05 7.7 77.05 7.5
Q 77.05 6.95 76.85 6.55 76.65 6.15 76.2 5.85 75.8 5.6 75.25 5.6
M 73.85 7.35
Q 73.85 7.05 74 6.75 74.1 6.5 74.5 6.2 74.75 6 75.25 6 75.85 6 76.2 6.35 76.6 6.75 76.6 7.35
L 73.85 7.35 Z"/>
</g>

<g id="IT_300x250_psd_Asset_1_ManagedWiFi_IT_Eval_DM6_1_Choosing_the_right_Wi_Fi__vendor_for_your_business____0_Layer0_0_MEMBER_40_FILL">
<path fill="#D82C26" stroke="none" d="
M 78.45 5.75
Q 78.2 5.8 78 6.1 77.8 6.3 77.8 6.65 77.8 7.05 78.05 7.3 78.4 7.55 78.9 7.75 79.45 7.9 79.7 8.1 79.9 8.25 79.9 8.55 79.9 8.95 79.65 9.05 79.45 9.25 79.05 9.25 78.35 9.25 77.8 8.8
L 77.7 9.2
Q 78.05 9.45 78.3 9.5 78.7 9.65 79.1 9.65 79.4 9.65 79.7 9.5 79.9 9.45 80.2 9.15 80.4 8.75 80.4 8.55 80.4 8.15 80.1 7.85
L 78.45 7.1
Q 78.25 6.9 78.25 6.65 78.25 6.3 78.5 6.15 78.75 6 79.05 6
L 79.6 6.1
Q 79.85 6.15 80.05 6.35
L 80.25 6 79.75 5.75
Q 79.4 5.6 79.05 5.6 78.75 5.6 78.45 5.75 Z"/>
</g>

<g id="IT_300x250_psd_Asset_1_ManagedWiFi_IT_Eval_DM6_1_Choosing_the_right_Wi_Fi__vendor_for_your_business____0_Layer0_0_MEMBER_41_FILL">
<path fill="#D82C26" stroke="none" d="
M 81.8 5.75
Q 81.6 5.8 81.3 6.1 81.1 6.4 81.1 6.65 81.1 7.1 81.4 7.3 81.6 7.5 82.2 7.75 82.85 7.95 83 8.1 83.25 8.25 83.25 8.55 83.25 8.9 83 9.05 82.8 9.25 82.4 9.25 81.7 9.25 81.15 8.8
L 81.05 9.2
Q 81.3 9.45 81.65 9.5
L 82.4 9.65
Q 82.75 9.65 83.05 9.5 83.3 9.45 83.5 9.15 83.7 8.9 83.7 8.55 83.7 8.15 83.4 7.85 83.2 7.65 82.55 7.4
L 81.8 7.1
Q 81.55 6.85 81.55 6.65 81.55 6.3 81.8 6.15 82.05 6 82.4 6
L 82.95 6.1 83.4 6.35 83.6 6 83.05 5.75
Q 82.75 5.6 82.4 5.6 82.05 5.6 81.8 5.75 Z"/>
</g>

<g id="IT_300x250_psd_Asset_1_ManagedWiFi_IT_Eval_DM6_1_Choosing_the_right_Wi_Fi__vendor_for_your_business____0_Layer0_0_MEMBER_42_FILL">
<path fill="#D82C26" stroke="none" d="
M 84.75 9.5
L 85 9.6 85.25 9.5 85.35 9.2 85.25 8.95 85 8.85 84.75 8.95
Q 84.65 9.05 84.65 9.2 84.65 9.4 84.75 9.5 Z"/>
</g>
</defs>

<g transform="matrix( 1, 0, 0, 1, -91,4) ">
<g transform="matrix( 1, 0, 0, 1, 86,14) ">
<g transform="matrix( 1, 0, 0, 1, 27,8) ">
<g transform="matrix( 2.815704345703125, 0, 0, 2.832611083984375, 0.15,17.6) ">
<use xlink:href="#IT_300x250_psd_Asset_1_ManagedWiFi_IT_Eval_DM6_1_Choosing_the_right_Wi_Fi__vendor_for_your_business____0_Layer0_0_MEMBER_0_FILL"/>
</g>

<g transform="matrix( 2.815704345703125, 0, 0, 2.832611083984375, 0.15,17.6) ">
<use xlink:href="#IT_300x250_psd_Asset_1_ManagedWiFi_IT_Eval_DM6_1_Choosing_the_right_Wi_Fi__vendor_for_your_business____0_Layer0_0_MEMBER_1_FILL"/>
</g>

<g transform="matrix( 2.815704345703125, 0, 0, 2.832611083984375, 0.15,17.6) ">
<use xlink:href="#IT_300x250_psd_Asset_1_ManagedWiFi_IT_Eval_DM6_1_Choosing_the_right_Wi_Fi__vendor_for_your_business____0_Layer0_0_MEMBER_2_FILL"/>
</g>

<g transform="matrix( 2.815704345703125, 0, 0, 2.832611083984375, 0.15,17.6) ">
<use xlink:href="#IT_300x250_psd_Asset_1_ManagedWiFi_IT_Eval_DM6_1_Choosing_the_right_Wi_Fi__vendor_for_your_business____0_Layer0_0_MEMBER_3_FILL"/>
</g>

<g transform="matrix( 2.815704345703125, 0, 0, 2.832611083984375, 0.15,17.6) ">
<use xlink:href="#IT_300x250_psd_Asset_1_ManagedWiFi_IT_Eval_DM6_1_Choosing_the_right_Wi_Fi__vendor_for_your_business____0_Layer0_0_MEMBER_4_FILL"/>
</g>

<g transform="matrix( 2.815704345703125, 0, 0, 2.832611083984375, 0.15,17.6) ">
<use xlink:href="#IT_300x250_psd_Asset_1_ManagedWiFi_IT_Eval_DM6_1_Choosing_the_right_Wi_Fi__vendor_for_your_business____0_Layer0_0_MEMBER_5_FILL"/>
</g>

<g transform="matrix( 2.815704345703125, 0, 0, 2.832611083984375, 0.15,17.6) ">
<use xlink:href="#IT_300x250_psd_Asset_1_ManagedWiFi_IT_Eval_DM6_1_Choosing_the_right_Wi_Fi__vendor_for_your_business____0_Layer0_0_MEMBER_6_FILL"/>
</g>

<g transform="matrix( 2.815704345703125, 0, 0, 2.832611083984375, 0.15,17.6) ">
<use xlink:href="#IT_300x250_psd_Asset_1_ManagedWiFi_IT_Eval_DM6_1_Choosing_the_right_Wi_Fi__vendor_for_your_business____0_Layer0_0_MEMBER_7_FILL"/>
</g>

<g transform="matrix( 2.815704345703125, 0, 0, 2.832611083984375, 0.15,17.6) ">
<use xlink:href="#IT_300x250_psd_Asset_1_ManagedWiFi_IT_Eval_DM6_1_Choosing_the_right_Wi_Fi__vendor_for_your_business____0_Layer0_0_MEMBER_8_FILL"/>
</g>

<g transform="matrix( 2.815704345703125, 0, 0, 2.832611083984375, 0.15,17.6) ">
<use xlink:href="#IT_300x250_psd_Asset_1_ManagedWiFi_IT_Eval_DM6_1_Choosing_the_right_Wi_Fi__vendor_for_your_business____0_Layer0_0_MEMBER_9_FILL"/>
</g>

<g transform="matrix( 2.815704345703125, 0, 0, 2.832611083984375, 0.15,17.6) ">
<use xlink:href="#IT_300x250_psd_Asset_1_ManagedWiFi_IT_Eval_DM6_1_Choosing_the_right_Wi_Fi__vendor_for_your_business____0_Layer0_0_MEMBER_10_FILL"/>
</g>

<g transform="matrix( 2.815704345703125, 0, 0, 2.832611083984375, 0.15,17.6) ">
<use xlink:href="#IT_300x250_psd_Asset_1_ManagedWiFi_IT_Eval_DM6_1_Choosing_the_right_Wi_Fi__vendor_for_your_business____0_Layer0_0_MEMBER_11_FILL"/>
</g>

<g transform="matrix( 2.815704345703125, 0, 0, 2.832611083984375, 0.15,17.6) ">
<use xlink:href="#IT_300x250_psd_Asset_1_ManagedWiFi_IT_Eval_DM6_1_Choosing_the_right_Wi_Fi__vendor_for_your_business____0_Layer0_0_MEMBER_12_FILL"/>
</g>

<g transform="matrix( 2.815704345703125, 0, 0, 2.832611083984375, 0.15,17.6) ">
<use xlink:href="#IT_300x250_psd_Asset_1_ManagedWiFi_IT_Eval_DM6_1_Choosing_the_right_Wi_Fi__vendor_for_your_business____0_Layer0_0_MEMBER_13_FILL"/>
</g>

<g transform="matrix( 2.815704345703125, 0, 0, 2.832611083984375, 0.15,17.6) ">
<use xlink:href="#IT_300x250_psd_Asset_1_ManagedWiFi_IT_Eval_DM6_1_Choosing_the_right_Wi_Fi__vendor_for_your_business____0_Layer0_0_MEMBER_14_FILL"/>
</g>

<g transform="matrix( 2.815704345703125, 0, 0, 2.832611083984375, 0.15,17.6) ">
<use xlink:href="#IT_300x250_psd_Asset_1_ManagedWiFi_IT_Eval_DM6_1_Choosing_the_right_Wi_Fi__vendor_for_your_business____0_Layer0_0_MEMBER_15_FILL"/>
</g>

<g transform="matrix( 2.815704345703125, 0, 0, 2.832611083984375, 0.15,17.6) ">
<use xlink:href="#IT_300x250_psd_Asset_1_ManagedWiFi_IT_Eval_DM6_1_Choosing_the_right_Wi_Fi__vendor_for_your_business____0_Layer0_0_MEMBER_16_FILL"/>
</g>

<g transform="matrix( 2.815704345703125, 0, 0, 2.832611083984375, 0.15,17.6) ">
<use xlink:href="#IT_300x250_psd_Asset_1_ManagedWiFi_IT_Eval_DM6_1_Choosing_the_right_Wi_Fi__vendor_for_your_business____0_Layer0_0_MEMBER_17_FILL"/>
</g>

<g transform="matrix( 2.815704345703125, 0, 0, 2.832611083984375, 0.15,17.6) ">
<use xlink:href="#IT_300x250_psd_Asset_1_ManagedWiFi_IT_Eval_DM6_1_Choosing_the_right_Wi_Fi__vendor_for_your_business____0_Layer0_0_MEMBER_18_FILL"/>
</g>

<g transform="matrix( 2.815704345703125, 0, 0, 2.832611083984375, 0.15,17.6) ">
<use xlink:href="#IT_300x250_psd_Asset_1_ManagedWiFi_IT_Eval_DM6_1_Choosing_the_right_Wi_Fi__vendor_for_your_business____0_Layer0_0_MEMBER_19_FILL"/>
</g>

<g transform="matrix( 2.815704345703125, 0, 0, 2.832611083984375, 0.15,17.6) ">
<use xlink:href="#IT_300x250_psd_Asset_1_ManagedWiFi_IT_Eval_DM6_1_Choosing_the_right_Wi_Fi__vendor_for_your_business____0_Layer0_0_MEMBER_20_FILL"/>
</g>

<g transform="matrix( 2.815704345703125, 0, 0, 2.832611083984375, 0.15,17.6) ">
<use xlink:href="#IT_300x250_psd_Asset_1_ManagedWiFi_IT_Eval_DM6_1_Choosing_the_right_Wi_Fi__vendor_for_your_business____0_Layer0_0_MEMBER_21_FILL"/>
</g>

<g transform="matrix( 2.815704345703125, 0, 0, 2.832611083984375, 0.15,17.6) ">
<use xlink:href="#IT_300x250_psd_Asset_1_ManagedWiFi_IT_Eval_DM6_1_Choosing_the_right_Wi_Fi__vendor_for_your_business____0_Layer0_0_MEMBER_22_FILL"/>
</g>

<g transform="matrix( 2.815704345703125, 0, 0, 2.832611083984375, 0.15,17.6) ">
<use xlink:href="#IT_300x250_psd_Asset_1_ManagedWiFi_IT_Eval_DM6_1_Choosing_the_right_Wi_Fi__vendor_for_your_business____0_Layer0_0_MEMBER_23_FILL"/>
</g>

<g transform="matrix( 2.815704345703125, 0, 0, 2.832611083984375, 0.15,17.6) ">
<use xlink:href="#IT_300x250_psd_Asset_1_ManagedWiFi_IT_Eval_DM6_1_Choosing_the_right_Wi_Fi__vendor_for_your_business____0_Layer0_0_MEMBER_24_FILL"/>
</g>

<g transform="matrix( 2.815704345703125, 0, 0, 2.832611083984375, 0.15,17.6) ">
<use xlink:href="#IT_300x250_psd_Asset_1_ManagedWiFi_IT_Eval_DM6_1_Choosing_the_right_Wi_Fi__vendor_for_your_business____0_Layer0_0_MEMBER_25_FILL"/>
</g>

<g transform="matrix( 2.815704345703125, 0, 0, 2.832611083984375, 0.15,17.6) ">
<use xlink:href="#IT_300x250_psd_Asset_1_ManagedWiFi_IT_Eval_DM6_1_Choosing_the_right_Wi_Fi__vendor_for_your_business____0_Layer0_0_MEMBER_26_FILL"/>
</g>

<g transform="matrix( 2.815704345703125, 0, 0, 2.832611083984375, 0.15,17.6) ">
<use xlink:href="#IT_300x250_psd_Asset_1_ManagedWiFi_IT_Eval_DM6_1_Choosing_the_right_Wi_Fi__vendor_for_your_business____0_Layer0_0_MEMBER_27_FILL"/>
</g>

<g transform="matrix( 2.815704345703125, 0, 0, 2.832611083984375, 0.15,17.6) ">
<use xlink:href="#IT_300x250_psd_Asset_1_ManagedWiFi_IT_Eval_DM6_1_Choosing_the_right_Wi_Fi__vendor_for_your_business____0_Layer0_0_MEMBER_28_FILL"/>
</g>

<g transform="matrix( 2.815704345703125, 0, 0, 2.832611083984375, 0.15,17.6) ">
<use xlink:href="#IT_300x250_psd_Asset_1_ManagedWiFi_IT_Eval_DM6_1_Choosing_the_right_Wi_Fi__vendor_for_your_business____0_Layer0_0_MEMBER_29_FILL"/>
</g>

<g transform="matrix( 2.815704345703125, 0, 0, 2.832611083984375, 0.15,17.6) ">
<use xlink:href="#IT_300x250_psd_Asset_1_ManagedWiFi_IT_Eval_DM6_1_Choosing_the_right_Wi_Fi__vendor_for_your_business____0_Layer0_0_MEMBER_30_FILL"/>
</g>

<g transform="matrix( 2.815704345703125, 0, 0, 2.832611083984375, 0.15,17.6) ">
<use xlink:href="#IT_300x250_psd_Asset_1_ManagedWiFi_IT_Eval_DM6_1_Choosing_the_right_Wi_Fi__vendor_for_your_business____0_Layer0_0_MEMBER_31_FILL"/>
</g>

<g transform="matrix( 2.815704345703125, 0, 0, 2.832611083984375, 0.15,17.6) ">
<use xlink:href="#IT_300x250_psd_Asset_1_ManagedWiFi_IT_Eval_DM6_1_Choosing_the_right_Wi_Fi__vendor_for_your_business____0_Layer0_0_MEMBER_32_FILL"/>
</g>

<g transform="matrix( 2.815704345703125, 0, 0, 2.832611083984375, 0.15,17.6) ">
<use xlink:href="#IT_300x250_psd_Asset_1_ManagedWiFi_IT_Eval_DM6_1_Choosing_the_right_Wi_Fi__vendor_for_your_business____0_Layer0_0_MEMBER_33_FILL"/>
</g>

<g transform="matrix( 2.815704345703125, 0, 0, 2.832611083984375, 0.15,17.6) ">
<use xlink:href="#IT_300x250_psd_Asset_1_ManagedWiFi_IT_Eval_DM6_1_Choosing_the_right_Wi_Fi__vendor_for_your_business____0_Layer0_0_MEMBER_34_FILL"/>
</g>

<g transform="matrix( 2.815704345703125, 0, 0, 2.832611083984375, 0.15,17.6) ">
<use xlink:href="#IT_300x250_psd_Asset_1_ManagedWiFi_IT_Eval_DM6_1_Choosing_the_right_Wi_Fi__vendor_for_your_business____0_Layer0_0_MEMBER_35_FILL"/>
</g>

<g transform="matrix( 2.815704345703125, 0, 0, 2.832611083984375, 0.15,17.6) ">
<use xlink:href="#IT_300x250_psd_Asset_1_ManagedWiFi_IT_Eval_DM6_1_Choosing_the_right_Wi_Fi__vendor_for_your_business____0_Layer0_0_MEMBER_36_FILL"/>
</g>

<g transform="matrix( 2.815704345703125, 0, 0, 2.832611083984375, 0.15,17.6) ">
<use xlink:href="#IT_300x250_psd_Asset_1_ManagedWiFi_IT_Eval_DM6_1_Choosing_the_right_Wi_Fi__vendor_for_your_business____0_Layer0_0_MEMBER_37_FILL"/>
</g>

<g transform="matrix( 2.815704345703125, 0, 0, 2.832611083984375, 0.15,17.6) ">
<use xlink:href="#IT_300x250_psd_Asset_1_ManagedWiFi_IT_Eval_DM6_1_Choosing_the_right_Wi_Fi__vendor_for_your_business____0_Layer0_0_MEMBER_38_FILL"/>
</g>

<g transform="matrix( 2.815704345703125, 0, 0, 2.832611083984375, 0.15,17.6) ">
<use xlink:href="#IT_300x250_psd_Asset_1_ManagedWiFi_IT_Eval_DM6_1_Choosing_the_right_Wi_Fi__vendor_for_your_business____0_Layer0_0_MEMBER_39_FILL"/>
</g>

<g transform="matrix( 2.815704345703125, 0, 0, 2.832611083984375, 0.15,17.6) ">
<use xlink:href="#IT_300x250_psd_Asset_1_ManagedWiFi_IT_Eval_DM6_1_Choosing_the_right_Wi_Fi__vendor_for_your_business____0_Layer0_0_MEMBER_40_FILL"/>
</g>

<g transform="matrix( 2.815704345703125, 0, 0, 2.832611083984375, 0.15,17.6) ">
<use xlink:href="#IT_300x250_psd_Asset_1_ManagedWiFi_IT_Eval_DM6_1_Choosing_the_right_Wi_Fi__vendor_for_your_business____0_Layer0_0_MEMBER_41_FILL"/>
</g>

<g transform="matrix( 2.815704345703125, 0, 0, 2.832611083984375, 0.15,17.6) ">
<use xlink:href="#IT_300x250_psd_Asset_1_ManagedWiFi_IT_Eval_DM6_1_Choosing_the_right_Wi_Fi__vendor_for_your_business____0_Layer0_0_MEMBER_42_FILL"/>
</g>
</g>
</g>
</g>
</svg>
