
<svg xmlns="http://www.w3.org/2000/svg" version="1.1" xmlns:xlink="http://www.w3.org/1999/xlink" preserveAspectRatio="none" x="0px" y="0px" width="250px" height="250px" viewBox="0 0 250 250">
<defs>
<g id="BDM_250x250_psd_Asset_ManagedWiFi_Awareness_DM7_4_Get_a_better__understanding_of__your_customer_s_needs__0_Layer0_0_MEMBER_0_FILL">
<path fill="#D82C26" stroke="none" d="
M 3.55 -4.4
L 2.7 -4.5
Q 2.05 -4.5 1.5 -4.2 1.05 -4 0.7 -3.4 0.4 -2.85 0.4 -2.2 0.4 -1.5 0.7 -1 1 -0.5 1.5 -0.2 2.05 0.1 2.7 0.1 3.35 0.1 3.6 0 3.8 -0.05 4.35 -0.25
L 4.35 -2.3 3 -2.3 2.9 -1.95 3.95 -1.95 3.95 -0.5
Q 3.45 -0.2 2.75 -0.2 2.15 -0.2 1.7 -0.5 1.35 -0.65 1 -1.2 0.8 -1.6 0.8 -2.2 0.8 -2.8 1 -3.2 1.35 -3.7 1.7 -3.9 2.15 -4.2 2.7 -4.2 3.15 -4.2 3.5 -4.05
L 4.15 -3.7 4.25 -4.05 3.55 -4.4 Z"/>
</g>

<g id="BDM_250x250_psd_Asset_ManagedWiFi_Awareness_DM7_4_Get_a_better__understanding_of__your_customer_s_needs__0_Layer0_0_MEMBER_1_FILL">
<path fill="#D82C26" stroke="none" d="
M 7.3 -2.8
Q 7.05 -3 6.55 -3 6.15 -3 5.8 -2.8 5.4 -2.5 5.3 -2.25 5.1 -2 5.1 -1.45 5.1 -1 5.3 -0.65 5.45 -0.35 5.85 -0.1 6.25 0.1 6.6 0.1 7.25 0.1 7.75 -0.3
L 7.7 -0.6 7.2 -0.3 6.65 -0.2
Q 6.3 -0.2 6.05 -0.35 5.7 -0.6 5.6 -0.8 5.45 -1.1 5.45 -1.4
L 7.9 -1.4 7.95 -1.55
Q 7.95 -1.95 7.75 -2.3 7.55 -2.65 7.3 -2.8
M 6.55 -2.7
Q 6.95 -2.7 7.3 -2.45 7.5 -2.25 7.6 -1.65
L 5.45 -1.65
Q 5.45 -1.9 5.6 -2.15
L 5.95 -2.55
Q 6.25 -2.7 6.55 -2.7 Z"/>
</g>

<g id="BDM_250x250_psd_Asset_ManagedWiFi_Awareness_DM7_4_Get_a_better__understanding_of__your_customer_s_needs__0_Layer0_0_MEMBER_2_FILL">
<path fill="#D82C26" stroke="none" d="
M 9.1 -3.75
L 8.7 -3.6 8.7 -2.9 8.25 -2.9 8.2 -2.6 8.75 -2.6 8.75 -0.7
Q 8.75 -0.3 8.9 -0.15 9.1 0.05 9.4 0.05
L 9.75 0 10.05 -0.1 10 -0.35 9.5 -0.25 9.2 -0.35
Q 9.1 -0.55 9.1 -0.75
L 9.1 -2.6 9.85 -2.6 9.9 -2.9 9.1 -2.9 9.1 -3.75 Z"/>
</g>

<g id="BDM_250x250_psd_Asset_ManagedWiFi_Awareness_DM7_4_Get_a_better__understanding_of__your_customer_s_needs__0_Layer0_0_MEMBER_3_FILL">
<path fill="#D82C26" stroke="none" d="
M 11.4 -0.8
Q 11.4 -0.35 11.65 -0.15 12 0.1 12.3 0.1 12.7 0.1 12.95 -0.1 13.25 -0.25 13.4 -0.55
L 13.4 -0.25 13.45 0 13.8 0 13.75 -1.9
Q 13.75 -2.45 13.45 -2.7 13.15 -3 12.6 -3
L 12.05 -2.9 11.55 -2.65 11.65 -2.35 12.05 -2.6 12.55 -2.7
Q 13 -2.7 13.15 -2.5 13.4 -2.25 13.4 -1.9
L 13.4 -1.75 13.05 -1.75
Q 11.4 -1.75 11.4 -0.8
M 11.9 -0.35
Q 11.7 -0.55 11.7 -0.8 11.7 -1.5 13.1 -1.5
L 13.4 -1.5 13.4 -1.2 13.3 -0.75 12.95 -0.35
Q 12.75 -0.2 12.4 -0.2 12.15 -0.2 11.9 -0.35 Z"/>
</g>

<g id="BDM_250x250_psd_Asset_ManagedWiFi_Awareness_DM7_4_Get_a_better__understanding_of__your_customer_s_needs__0_Layer0_0_MEMBER_4_FILL">
<path fill="#D82C26" stroke="none" d="
M 16.1 -4.75
L 15.75 -4.7 15.7 0 16.05 0 16.1 -0.65
Q 16.3 -0.35 16.6 -0.1 17.1 0.1 17.3 0.1 17.65 0.1 18.05 -0.1 18.3 -0.25 18.6 -0.65 18.75 -1 18.75 -1.45 18.75 -1.85 18.6 -2.25 18.3 -2.65 18.05 -2.8 17.8 -3 17.3 -3 16.9 -3 16.65 -2.8 16.35 -2.65 16.15 -2.3
L 16.1 -2.3 16.1 -4.75
M 16.65 -2.5
Q 16.9 -2.7 17.25 -2.7 17.65 -2.7 17.85 -2.5 18.2 -2.35 18.25 -2.05 18.4 -1.8 18.4 -1.45 18.4 -1.15 18.25 -0.85 18.2 -0.55 17.85 -0.4 17.55 -0.2 17.25 -0.2 17.05 -0.2 16.65 -0.4 16.4 -0.55 16.25 -0.85 16.1 -1.15 16.1 -1.45 16.1 -1.8 16.25 -2.05 16.4 -2.3 16.65 -2.5 Z"/>
</g>

<g id="BDM_250x250_psd_Asset_ManagedWiFi_Awareness_DM7_4_Get_a_better__understanding_of__your_customer_s_needs__0_Layer0_0_MEMBER_5_FILL">
<path fill="#D82C26" stroke="none" d="
M 19.5 -0.65
L 20.05 -0.1
Q 20.55 0.1 20.8 0.1 21.45 0.1 22 -0.3
L 21.9 -0.6 21.45 -0.3 20.85 -0.2
Q 20.55 -0.2 20.25 -0.35 19.9 -0.7 19.85 -0.8 19.7 -1.1 19.7 -1.4
L 22.15 -1.4 22.15 -1.55 22 -2.3
Q 21.8 -2.65 21.5 -2.8 21.25 -3 20.75 -3 20.3 -3 20.05 -2.8 19.7 -2.6 19.5 -2.25 19.35 -1.95 19.35 -1.45 19.35 -1 19.5 -0.65
M 19.85 -2.15
Q 19.9 -2.35 20.2 -2.55 20.45 -2.7 20.75 -2.7 21.25 -2.7 21.5 -2.45 21.8 -2.15 21.8 -1.65
L 19.7 -1.65
Q 19.7 -1.9 19.85 -2.15 Z"/>
</g>

<g id="BDM_250x250_psd_Asset_ManagedWiFi_Awareness_DM7_4_Get_a_better__understanding_of__your_customer_s_needs__0_Layer0_0_MEMBER_6_FILL">
<path fill="#D82C26" stroke="none" d="
M 23.3 -3.75
L 22.95 -3.6 22.95 -2.9 22.5 -2.9 22.4 -2.6 22.95 -2.6 22.95 -0.7
Q 22.95 -0.3 23.15 -0.15 23.3 0.05 23.65 0.05
L 23.95 0 24.25 -0.1 24.2 -0.35 23.75 -0.25
Q 23.55 -0.25 23.45 -0.35 23.3 -0.5 23.3 -0.75
L 23.3 -2.6 24.05 -2.6 24.15 -2.9 23.3 -2.9 23.3 -3.75 Z"/>
</g>

<g id="BDM_250x250_psd_Asset_ManagedWiFi_Awareness_DM7_4_Get_a_better__understanding_of__your_customer_s_needs__0_Layer0_0_MEMBER_7_FILL">
<path fill="#D82C26" stroke="none" d="
M 25 -0.7
Q 25 -0.3 25.15 -0.15 25.35 0.05 25.65 0.05
L 26 0 26.3 -0.1 26.25 -0.35 25.75 -0.25 25.45 -0.35
Q 25.35 -0.55 25.35 -0.75
L 25.35 -2.6 26.1 -2.6 26.15 -2.9 25.35 -2.9 25.35 -3.75 25 -3.6 25 -2.9 24.5 -2.9 24.45 -2.6 25 -2.6 25 -0.7 Z"/>
</g>

<g id="BDM_250x250_psd_Asset_ManagedWiFi_Awareness_DM7_4_Get_a_better__understanding_of__your_customer_s_needs__0_Layer0_0_MEMBER_8_FILL">
<path fill="#D82C26" stroke="none" d="
M 26.7 -0.65
Q 27 -0.25 27.25 -0.1 27.65 0.1 28 0.1 28.65 0.1 29.15 -0.3
L 29.1 -0.6 28.65 -0.3 28.05 -0.2
Q 27.7 -0.2 27.45 -0.35 27.15 -0.55 27.05 -0.8
L 26.85 -1.4 29.35 -1.4 29.35 -1.55 29.2 -2.3
Q 29.05 -2.65 28.7 -2.8 28.45 -3 27.95 -3 27.5 -3 27.25 -2.8 26.9 -2.6 26.7 -2.25 26.5 -1.85 26.5 -1.45 26.5 -1.15 26.7 -0.65
M 27 -2.15
L 27.4 -2.55
Q 27.65 -2.7 27.95 -2.7 28.35 -2.7 28.7 -2.45 29 -2.15 29 -1.65
L 26.9 -1.65 27 -2.15 Z"/>
</g>

<g id="BDM_250x250_psd_Asset_ManagedWiFi_Awareness_DM7_4_Get_a_better__understanding_of__your_customer_s_needs__0_Layer0_0_MEMBER_9_FILL">
<path fill="#D82C26" stroke="none" d="
M 30.45 -2.3
L 30.4 -2.9 30.05 -2.9 30.1 0 30.45 0 30.45 -1.45
Q 30.45 -2.05 30.65 -2.3 30.85 -2.65 31.25 -2.65
L 31.55 -2.65 31.6 -2.95 31.3 -3
Q 31 -3 30.8 -2.8 30.55 -2.6 30.45 -2.3 Z"/>
</g>

<g id="BDM_250x250_psd_Asset_ManagedWiFi_Awareness_DM7_4_Get_a_better__understanding_of__your_customer_s_needs__0_Layer0_0_MEMBER_10_FILL">
<path fill="#D82C26" stroke="none" d="
M 0.9 4.45
L 0.55 4.45 0.55 6.2
Q 0.55 6.8 0.8 7.1 1.05 7.4 1.6 7.4 1.95 7.4 2.25 7.25 2.6 7 2.65 6.7
L 2.7 7.35 3.1 7.35 3 6.65 3 4.45 2.65 4.45 2.65 5.9 2.55 6.55
Q 2.4 6.9 2.2 7 2 7.15 1.7 7.15 1.25 7.15 1.1 6.85 0.9 6.6 0.9 6.1
L 0.9 4.45 Z"/>
</g>

<g id="BDM_250x250_psd_Asset_ManagedWiFi_Awareness_DM7_4_Get_a_better__understanding_of__your_customer_s_needs__0_Layer0_0_MEMBER_11_FILL">
<path fill="#D82C26" stroke="none" d="
M 6.2 4.7
Q 6 4.35 5.4 4.35 5 4.35 4.75 4.55 4.55 4.65 4.35 5.05
L 4.3 4.45 3.95 4.45 4 7.35 4.35 7.35 4.35 5.85
Q 4.35 5.5 4.5 5.2 4.55 5 4.85 4.8 5.1 4.65 5.3 4.65 5.75 4.65 5.95 4.95 6.1 5.25 6.1 5.65
L 6.1 7.35 6.45 7.35 6.45 5.55
Q 6.45 5 6.2 4.7 Z"/>
</g>

<g id="BDM_250x250_psd_Asset_ManagedWiFi_Awareness_DM7_4_Get_a_better__understanding_of__your_customer_s_needs__0_Layer0_0_MEMBER_12_FILL">
<path fill="#D82C26" stroke="none" d="
M 10.25 7.35
L 10.2 2.55 9.85 2.65 9.85 5.05
Q 9.55 4.65 9.35 4.55 9.1 4.35 8.65 4.35 8.15 4.35 7.9 4.55 7.55 4.75 7.4 5.1 7.2 5.45 7.2 5.9 7.2 6.4 7.4 6.65 7.55 7.05 7.9 7.2 8.15 7.4 8.65 7.4 9.05 7.4 9.35 7.25 9.75 6.95 9.85 6.7
L 9.9 7.35 10.25 7.35
M 9.7 5.25
Q 9.85 5.55 9.85 5.9 9.85 6.2 9.7 6.5 9.55 6.8 9.3 6.95 9 7.1 8.7 7.1 8.35 7.1 8.1 6.95 7.85 6.8 7.7 6.5 7.55 6.2 7.55 5.9 7.55 5.55 7.7 5.25
L 8.1 4.8
Q 8.35 4.65 8.7 4.65 9 4.65 9.3 4.8
L 9.7 5.25 Z"/>
</g>

<g id="BDM_250x250_psd_Asset_ManagedWiFi_Awareness_DM7_4_Get_a_better__understanding_of__your_customer_s_needs__0_Layer0_0_MEMBER_13_FILL">
<path fill="#D82C26" stroke="none" d="
M 12.4 4.35
Q 12 4.35 11.65 4.55 11.3 4.75 11.15 5.1 10.95 5.35 10.95 5.85 10.95 6.35 11.15 6.7 11.3 7 11.7 7.25 12.1 7.45 12.45 7.45 13.1 7.45 13.6 7.05
L 13.55 6.75 13.05 7
Q 12.85 7.15 12.5 7.15 12.1 7.15 11.9 6.95 11.65 6.8 11.45 6.55 11.3 6.25 11.3 5.95
L 13.75 5.95 13.8 5.8
Q 13.8 5.4 13.6 5.05 13.4 4.7 13.15 4.55 12.9 4.35 12.4 4.35
M 11.8 4.8
Q 12.1 4.65 12.4 4.65 12.9 4.65 13.15 4.9 13.35 5.1 13.45 5.65
L 11.3 5.65
Q 11.3 5.45 11.45 5.2
L 11.8 4.8 Z"/>
</g>

<g id="BDM_250x250_psd_Asset_ManagedWiFi_Awareness_DM7_4_Get_a_better__understanding_of__your_customer_s_needs__0_Layer0_0_MEMBER_14_FILL">
<path fill="#D82C26" stroke="none" d="
M 15.7 4.65
L 15.95 4.7 16.05 4.4 15.7 4.35
Q 15.45 4.35 15.2 4.55 15.05 4.65 14.85 5.05
L 14.85 4.45 14.5 4.45 14.5 7.35 14.9 7.35 14.9 5.9
Q 14.9 5.3 15.1 5.05 15.35 4.65 15.7 4.65 Z"/>
</g>

<g id="BDM_250x250_psd_Asset_ManagedWiFi_Awareness_DM7_4_Get_a_better__understanding_of__your_customer_s_needs__0_Layer0_0_MEMBER_15_FILL">
<path fill="#D82C26" stroke="none" d="
M 17.35 4.35
Q 17 4.35 16.85 4.45
L 16.5 4.7
Q 16.35 4.95 16.35 5.15 16.35 5.45 16.55 5.65
L 17.8 6.25
Q 18 6.4 18 6.6 18 6.85 17.8 7 17.6 7.15 17.35 7.15 16.9 7.15 16.35 6.8
L 16.3 7.1 16.75 7.35 17.35 7.4 17.85 7.35 18.2 7.05 18.35 6.6
Q 18.35 6.3 18.1 6.05 17.9 5.85 17.45 5.7 17.15 5.65 16.85 5.45 16.7 5.4 16.7 5.1 16.7 4.9 16.9 4.75
L 17.35 4.65 17.75 4.7 18.1 4.9 18.25 4.65 17.85 4.45
Q 17.7 4.35 17.35 4.35 Z"/>
</g>

<g id="BDM_250x250_psd_Asset_ManagedWiFi_Awareness_DM7_4_Get_a_better__understanding_of__your_customer_s_needs__0_Layer0_0_MEMBER_16_FILL">
<path fill="#D82C26" stroke="none" d="
M 20.25 7.35
L 20.55 7.25 20.5 7 20 7.1 19.7 7 19.6 6.6 19.6 4.7 20.35 4.7 20.4 4.45 19.6 4.45 19.6 3.6 19.2 3.75 19.2 4.45 18.75 4.45 18.7 4.7 19.25 4.7 19.25 6.65
Q 19.25 7 19.4 7.2 19.6 7.4 19.9 7.4
L 20.25 7.35 Z"/>
</g>

<g id="BDM_250x250_psd_Asset_ManagedWiFi_Awareness_DM7_4_Get_a_better__understanding_of__your_customer_s_needs__0_Layer0_0_MEMBER_17_FILL">
<path fill="#D82C26" stroke="none" d="
M 22.15 4.35
Q 21.75 4.35 21.55 4.45
L 21.05 4.7 21.15 5
Q 21.5 4.8 21.6 4.75 21.75 4.65 22.1 4.65 22.5 4.65 22.7 4.85 22.9 5 22.9 5.45
L 22.9 5.6 22.55 5.6
Q 20.9 5.6 20.9 6.55 20.9 6.95 21.15 7.2 21.4 7.4 21.8 7.4 22.2 7.4 22.5 7.25 22.75 7.15 22.9 6.8
L 22.95 6.8 22.95 7.35 23.3 7.35 23.25 5.45
Q 23.25 4.9 22.95 4.6 22.6 4.35 22.15 4.35
M 22.9 5.85
L 22.9 6.15
Q 22.9 6.45 22.8 6.6
L 22.45 7
Q 22.25 7.15 21.9 7.15 21.6 7.15 21.45 7 21.25 6.85 21.25 6.55 21.25 5.85 22.6 5.85
L 22.9 5.85 Z"/>
</g>

<g id="BDM_250x250_psd_Asset_ManagedWiFi_Awareness_DM7_4_Get_a_better__understanding_of__your_customer_s_needs__0_Layer0_0_MEMBER_18_FILL">
<path fill="#D82C26" stroke="none" d="
M 26.4 4.7
Q 26.1 4.35 25.6 4.35 25.2 4.35 24.95 4.55 24.65 4.7 24.55 5.05
L 24.5 5.05 24.5 4.45 24.15 4.45 24.15 7.35 24.55 7.35 24.55 5.85 24.65 5.2 25 4.8
Q 25.25 4.65 25.5 4.65 25.95 4.65 26.1 4.95 26.3 5.2 26.3 5.65
L 26.3 7.35 26.65 7.35 26.65 5.55
Q 26.65 5.1 26.4 4.7 Z"/>
</g>

<g id="BDM_250x250_psd_Asset_ManagedWiFi_Awareness_DM7_4_Get_a_better__understanding_of__your_customer_s_needs__0_Layer0_0_MEMBER_19_FILL">
<path fill="#D82C26" stroke="none" d="
M 30.45 7.35
L 30.4 2.55 30.05 2.65 30.05 5.05 30 5.05
Q 29.8 4.7 29.55 4.55 29.2 4.35 28.85 4.35 28.35 4.35 28.1 4.55 27.75 4.75 27.55 5.1 27.4 5.5 27.4 5.9 27.4 6.35 27.55 6.65 27.8 7.1 28.1 7.2 28.35 7.4 28.85 7.4 29.2 7.4 29.55 7.25 29.85 7 30.05 6.7
L 30.1 7.35 30.45 7.35
M 27.9 5.25
Q 28.1 4.95 28.3 4.8 28.55 4.65 28.9 4.65 29.2 4.65 29.5 4.8
L 29.9 5.25
Q 30.05 5.55 30.05 5.9 30.05 6.2 29.9 6.5 29.75 6.8 29.5 6.95 29.2 7.1 28.9 7.1 28.55 7.1 28.3 6.95 28.05 6.85 27.9 6.5 27.75 6.2 27.75 5.9 27.75 5.55 27.9 5.25 Z"/>
</g>

<g id="BDM_250x250_psd_Asset_ManagedWiFi_Awareness_DM7_4_Get_a_better__understanding_of__your_customer_s_needs__0_Layer0_0_MEMBER_20_FILL">
<path fill="#D82C26" stroke="none" d="
M 31.7 4.45
L 31.35 4.45 31.35 7.35 31.7 7.35 31.7 4.45
M 31.35 3.45
L 31.5 3.55 31.7 3.45 31.8 3.25 31.7 3.1 31.5 3 31.35 3.1 31.25 3.25 31.35 3.45 Z"/>
</g>

<g id="BDM_250x250_psd_Asset_ManagedWiFi_Awareness_DM7_4_Get_a_better__understanding_of__your_customer_s_needs__0_Layer0_0_MEMBER_21_FILL">
<path fill="#D82C26" stroke="none" d="
M 34.05 4.35
Q 33.65 4.35 33.4 4.55 33.2 4.65 33 5.05
L 32.95 4.45 32.6 4.45 32.65 7.35 33 7.35 33 5.85
Q 33 5.5 33.15 5.2 33.2 5 33.5 4.8 33.75 4.65 34 4.65 34.4 4.65 34.6 4.95 34.75 5.25 34.75 5.65
L 34.75 7.35 35.15 7.35 35.15 5.55
Q 35.15 5.1 34.85 4.7 34.65 4.35 34.05 4.35 Z"/>
</g>

<g id="BDM_250x250_psd_Asset_ManagedWiFi_Awareness_DM7_4_Get_a_better__understanding_of__your_customer_s_needs__0_Layer0_0_MEMBER_22_FILL">
<path fill="#D82C26" stroke="none" d="
M 37.3 4.35
Q 36.8 4.35 36.55 4.55 36.2 4.8 36.05 5.1 35.85 5.45 35.85 5.9 35.85 6.4 36.05 6.65 36.2 7 36.55 7.2 36.8 7.4 37.3 7.4 37.75 7.4 38 7.2 38.35 7.05 38.5 6.7
L 38.5 7.3
Q 38.5 7.9 38.2 8.25 37.9 8.55 37.3 8.55 36.85 8.55 36.65 8.45
L 36.1 8.2 36.05 8.5
Q 36.1 8.55 36.6 8.8
L 37.3 8.85
Q 38.15 8.85 38.5 8.45 38.85 8.05 38.85 7.3
L 38.9 4.45 38.55 4.45 38.5 5.1
Q 38.35 4.75 38 4.55 37.75 4.35 37.3 4.35
M 37.35 4.65
Q 37.65 4.65 37.95 4.8 38.15 4.95 38.35 5.25 38.5 5.55 38.5 5.9 38.5 6.2 38.35 6.5 38.2 6.85 37.95 6.95 37.65 7.1 37.35 7.1 37.05 7.1 36.75 6.95
L 36.35 6.5
Q 36.2 6.2 36.2 5.9 36.2 5.55 36.35 5.25
L 36.75 4.8
Q 37.05 4.65 37.35 4.65 Z"/>
</g>

<g id="BDM_250x250_psd_Asset_ManagedWiFi_Awareness_DM7_4_Get_a_better__understanding_of__your_customer_s_needs__0_Layer0_0_MEMBER_23_FILL">
<path fill="#D82C26" stroke="none" d="
M 40.9 5.1
Q 40.7 5.35 40.7 5.9 40.7 6.35 40.9 6.7 41.05 7 41.45 7.25 41.95 7.45 42.25 7.45 42.55 7.45 43.05 7.25
L 43.6 6.7
Q 43.8 6.2 43.8 5.9 43.8 5.5 43.6 5.1 43.35 4.7 43.05 4.55 42.7 4.35 42.25 4.35 41.8 4.35 41.45 4.55 41.05 4.7 40.9 5.1
M 42.25 4.65
Q 42.65 4.65 42.85 4.8
L 43.3 5.25 43.4 5.9 43.3 6.5
Q 43.15 6.8 42.85 6.95 42.65 7.1 42.25 7.1 41.9 7.1 41.6 6.95 41.35 6.8 41.2 6.5 41.05 6.2 41.05 5.9 41.05 5.55 41.2 5.25
L 41.6 4.8
Q 41.9 4.65 42.25 4.65 Z"/>
</g>

<g id="BDM_250x250_psd_Asset_ManagedWiFi_Awareness_DM7_4_Get_a_better__understanding_of__your_customer_s_needs__0_Layer0_0_MEMBER_24_FILL">
<path fill="#D82C26" stroke="none" d="
M 46 2.95
L 46.05 2.65 45.55 2.55
Q 45.2 2.55 44.85 2.8 44.6 3.15 44.6 3.6
L 44.6 4.45 44.1 4.45 44 4.7 44.65 4.7 44.65 7.35 45 7.35 45 4.7 45.65 4.7 45.75 4.45 45 4.45 45 3.6 45.1 3.05
Q 45.3 2.85 45.55 2.85
L 46 2.95 Z"/>
</g>

<g id="BDM_250x250_psd_Asset_ManagedWiFi_Awareness_DM7_4_Get_a_better__understanding_of__your_customer_s_needs__0_Layer0_0_MEMBER_25_FILL">
<path fill="#D82C26" stroke="none" d="
M 0.5 11.8
L 0.1 11.8 1.35 14.7 1.1 15.3
Q 1 15.65 0.8 15.7 0.65 15.85 0.3 15.85
L 0.4 16.2
Q 0.9 16.1 1.05 16 1.35 15.7 1.45 15.4
L 2.8 11.8 2.4 11.8 1.5 14.3 0.5 11.8 Z"/>
</g>

<g id="BDM_250x250_psd_Asset_ManagedWiFi_Awareness_DM7_4_Get_a_better__understanding_of__your_customer_s_needs__0_Layer0_0_MEMBER_26_FILL">
<path fill="#D82C26" stroke="none" d="
M 4.6 11.7
Q 4.15 11.7 3.8 11.9 3.5 12 3.25 12.45 3.05 12.7 3.05 13.25 3.05 13.75 3.25 14 3.5 14.45 3.8 14.55 4.15 14.75 4.6 14.75 5.05 14.75 5.4 14.55 5.7 14.45 5.95 14 6.15 13.75 6.15 13.25 6.15 12.7 5.95 12.45 5.7 12 5.4 11.9 5.05 11.7 4.6 11.7
M 4.6 12
Q 5 12 5.2 12.15 5.5 12.3 5.65 12.6 5.8 12.9 5.8 13.25 5.8 13.55 5.65 13.85 5.5 14.15 5.25 14.3 4.95 14.45 4.6 14.45 4.25 14.45 3.95 14.3 3.7 14.15 3.55 13.85 3.4 13.55 3.4 13.25 3.4 12.9 3.55 12.6 3.7 12.35 3.95 12.15 4.25 12 4.6 12 Z"/>
</g>

<g id="BDM_250x250_psd_Asset_ManagedWiFi_Awareness_DM7_4_Get_a_better__understanding_of__your_customer_s_needs__0_Layer0_0_MEMBER_27_FILL">
<path fill="#D82C26" stroke="none" d="
M 7.2 11.8
L 6.85 11.8 6.85 13.55
Q 6.85 14.05 7.1 14.4 7.4 14.75 7.9 14.75 8.3 14.75 8.55 14.55 8.8 14.4 9 14.05
L 9.05 14.7 9.4 14.7 9.35 14.35 9.35 11.8 9 11.8 9 13.25
Q 9 13.6 8.85 13.9 8.7 14.25 8.5 14.3 8.3 14.45 8 14.45 7.55 14.45 7.4 14.2 7.2 13.8 7.2 13.45
L 7.2 11.8 Z"/>
</g>

<g id="BDM_250x250_psd_Asset_ManagedWiFi_Awareness_DM7_4_Get_a_better__understanding_of__your_customer_s_needs__0_Layer0_0_MEMBER_28_FILL">
<path fill="#D82C26" stroke="none" d="
M 10.6 11.8
L 10.25 11.8 10.3 14.7 10.65 14.7 10.65 13.25
Q 10.65 12.75 10.9 12.35 11.15 12 11.5 12
L 11.75 12.05 11.8 11.75 11.5 11.7
Q 11.2 11.7 11 11.9 10.85 12 10.65 12.4
L 10.6 11.8 Z"/>
</g>

<g id="BDM_250x250_psd_Asset_ManagedWiFi_Awareness_DM7_4_Get_a_better__understanding_of__your_customer_s_needs__0_Layer0_0_MEMBER_29_FILL">
<path fill="#D82C26" stroke="none" d="
M 14.65 11.7
Q 14.2 11.7 13.85 11.9 13.55 12 13.3 12.45 13.1 12.7 13.1 13.25 13.1 13.7 13.3 14.05 13.45 14.35 13.85 14.6 14.15 14.75 14.6 14.75 15 14.75 15.2 14.65
L 15.6 14.4 15.55 14.1
Q 15.45 14.25 15.15 14.35 15 14.45 14.65 14.45 14.3 14.45 14.05 14.3 13.75 14.15 13.6 13.85 13.5 13.65 13.5 13.25 13.5 12.8 13.6 12.6
L 14.05 12.15
Q 14.3 12 14.65 12 14.95 12 15.1 12.1
L 15.45 12.3 15.6 12.05 15.2 11.8
Q 15 11.7 14.65 11.7 Z"/>
</g>

<g id="BDM_250x250_psd_Asset_ManagedWiFi_Awareness_DM7_4_Get_a_better__understanding_of__your_customer_s_needs__0_Layer0_0_MEMBER_30_FILL">
<path fill="#D82C26" stroke="none" d="
M 16.55 11.8
L 16.15 11.8 16.15 13.55
Q 16.15 14.1 16.45 14.4 16.65 14.75 17.25 14.75 17.65 14.75 17.9 14.55 18.1 14.45 18.3 14.05
L 18.35 14.7 18.7 14.7 18.65 14.35 18.65 11.8 18.3 11.8 18.3 13.25
Q 18.3 13.6 18.15 13.9 18.05 14.2 17.8 14.3 17.65 14.45 17.35 14.45 16.95 14.45 16.7 14.2 16.55 13.9 16.55 13.45
L 16.55 11.8 Z"/>
</g>

<g id="BDM_250x250_psd_Asset_ManagedWiFi_Awareness_DM7_4_Get_a_better__understanding_of__your_customer_s_needs__0_Layer0_0_MEMBER_31_FILL">
<path fill="#D82C26" stroke="none" d="
M 20.9 11.8
Q 20.75 11.7 20.4 11.7 20.1 11.7 19.95 11.8 19.7 11.9 19.6 12.05 19.45 12.2 19.45 12.5 19.45 12.8 19.65 13
L 20.9 13.6
Q 21.05 13.7 21.05 13.95 21.05 14.2 20.85 14.35 20.7 14.5 20.4 14.5 19.9 14.5 19.45 14.15
L 19.4 14.45 19.85 14.7 20.45 14.75
Q 20.75 14.75 20.9 14.65 21.15 14.55 21.25 14.4 21.4 14.2 21.4 13.9 21.4 13.6 21.2 13.4
L 20.5 13.05
Q 20 12.85 19.95 12.8 19.8 12.75 19.8 12.45 19.8 12.25 19.95 12.1 20.1 12 20.4 12
L 20.85 12.05 21.15 12.25 21.35 12 20.9 11.8 Z"/>
</g>

<g id="BDM_250x250_psd_Asset_ManagedWiFi_Awareness_DM7_4_Get_a_better__understanding_of__your_customer_s_needs__0_Layer0_0_MEMBER_32_FILL">
<path fill="#D82C26" stroke="none" d="
M 21.75 12.05
L 22.3 12.05 22.3 14
Q 22.3 14.35 22.5 14.55 22.65 14.75 23 14.75
L 23.3 14.7 23.6 14.6 23.55 14.3
Q 23.35 14.45 23.1 14.45 22.9 14.45 22.8 14.35 22.65 14.2 22.65 13.95
L 22.65 12.05 23.4 12.05 23.5 11.8 22.65 11.8 22.65 10.95 22.3 11.1 22.3 11.8 21.85 11.8 21.75 12.05 Z"/>
</g>

<g id="BDM_250x250_psd_Asset_ManagedWiFi_Awareness_DM7_4_Get_a_better__understanding_of__your_customer_s_needs__0_Layer0_0_MEMBER_33_FILL">
<path fill="#D82C26" stroke="none" d="
M 25.35 11.7
Q 24.85 11.7 24.6 11.9 24.2 12.05 24.05 12.45 23.85 12.7 23.85 13.25 23.85 13.75 24.05 14 24.2 14.4 24.6 14.55 24.85 14.75 25.35 14.75 25.9 14.75 26.15 14.55 26.55 14.4 26.7 14 26.95 13.65 26.95 13.25 26.95 12.8 26.7 12.45 26.55 12.05 26.15 11.9 25.9 11.7 25.35 11.7
M 25.35 12
Q 25.7 12 26 12.15 26.25 12.25 26.4 12.6 26.55 12.9 26.55 13.25 26.55 13.55 26.4 13.85 26.25 14.2 26 14.3 25.7 14.45 25.35 14.45 25.05 14.45 24.75 14.3 24.5 14.2 24.35 13.85 24.2 13.55 24.2 13.25 24.2 12.9 24.35 12.6 24.5 12.25 24.75 12.15 25.05 12 25.35 12 Z"/>
</g>

<g id="BDM_250x250_psd_Asset_ManagedWiFi_Awareness_DM7_4_Get_a_better__understanding_of__your_customer_s_needs__0_Layer0_0_MEMBER_34_FILL">
<path fill="#D82C26" stroke="none" d="
M 31.05 11.7
Q 30.65 11.7 30.4 11.9 30.2 12 30 12.45 29.85 12 29.65 11.9 29.45 11.7 29.05 11.7 28.65 11.7 28.45 11.9 28.15 12.05 28.05 12.4
L 28 12.4 28 11.8 27.65 11.8 27.65 14.7 28.05 14.7 28.05 13.25 28.15 12.55 28.5 12.15
Q 28.75 12 28.95 12 29.25 12 29.5 12.25 29.7 12.55 29.7 12.95
L 29.7 14.7 30.05 14.7 30.05 13.2
Q 30.05 12.7 30.3 12.3 30.55 12 30.95 12 31.4 12 31.55 12.3 31.75 12.7 31.75 13.05
L 31.75 14.7 32.1 14.7 32.1 12.95
Q 32.1 12.45 31.85 12.05 31.55 11.7 31.05 11.7 Z"/>
</g>

<g id="BDM_250x250_psd_Asset_ManagedWiFi_Awareness_DM7_4_Get_a_better__understanding_of__your_customer_s_needs__0_Layer0_0_MEMBER_35_FILL">
<path fill="#D82C26" stroke="none" d="
M 34.25 11.7
Q 33.85 11.7 33.5 11.9 33.3 12 33 12.4 32.8 12.9 32.8 13.2 32.8 13.6 33 14 33.25 14.45 33.55 14.55 33.8 14.75 34.3 14.75 35.05 14.75 35.45 14.4
L 35.4 14.1 34.95 14.35
Q 34.75 14.45 34.35 14.45 34 14.45 33.75 14.3 33.55 14.2 33.35 13.9 33.15 13.5 33.15 13.3
L 35.65 13.3 35.65 13.15
Q 35.65 12.7 35.5 12.4 35.2 12 35 11.9 34.75 11.7 34.25 11.7
M 34.25 11.95
Q 34.7 11.95 35 12.25 35.3 12.55 35.3 13
L 33.2 13 33.3 12.55
Q 33.5 12.25 33.7 12.15 34 11.95 34.25 11.95 Z"/>
</g>

<g id="BDM_250x250_psd_Asset_ManagedWiFi_Awareness_DM7_4_Get_a_better__understanding_of__your_customer_s_needs__0_Layer0_0_MEMBER_36_FILL">
<path fill="#D82C26" stroke="none" d="
M 36.7 11.8
L 36.35 11.8 36.35 14.7 36.75 14.7 36.75 13.25
Q 36.75 12.7 36.95 12.35 37.2 12 37.55 12
L 37.8 12.05 37.9 11.75 37.6 11.7
Q 37.3 11.7 37.1 11.9 36.85 12.1 36.75 12.4
L 36.7 12.4 36.7 11.8 Z"/>
</g>

<g id="BDM_250x250_psd_Asset_ManagedWiFi_Awareness_DM7_4_Get_a_better__understanding_of__your_customer_s_needs__0_Layer0_0_MEMBER_37_FILL">
<path fill="#D82C26" stroke="none" d="
M 38.45 10.3
L 38.45 11.75 38.8 11.75 38.8 10.3 38.45 10.3 Z"/>
</g>

<g id="BDM_250x250_psd_Asset_ManagedWiFi_Awareness_DM7_4_Get_a_better__understanding_of__your_customer_s_needs__0_Layer0_0_MEMBER_38_FILL">
<path fill="#D82C26" stroke="none" d="
M 41.05 11.8
Q 40.9 11.7 40.5 11.7 40.2 11.7 40.05 11.8
L 39.7 12.05
Q 39.55 12.2 39.55 12.5 39.55 12.7 39.75 13
L 41 13.6
Q 41.2 13.7 41.2 13.95 41.2 14.15 41 14.35 40.8 14.5 40.55 14.5 40.1 14.5 39.55 14.15
L 39.5 14.45 39.95 14.7 40.55 14.75
Q 40.9 14.75 41.05 14.65
L 41.4 14.4
Q 41.55 14.2 41.55 13.9 41.55 13.65 41.3 13.4 40.9 13.15 40.65 13.05
L 40.05 12.8
Q 39.9 12.75 39.9 12.45 39.9 12.25 40.1 12.1 40.2 12 40.55 12
L 40.95 12.05 41.3 12.25 41.45 12 41.05 11.8 Z"/>
</g>

<g id="BDM_250x250_psd_Asset_ManagedWiFi_Awareness_DM7_4_Get_a_better__understanding_of__your_customer_s_needs__0_Layer0_0_MEMBER_39_FILL">
<path fill="#D82C26" stroke="none" d="
M 43.65 11.8
L 43.3 11.8 43.35 14.7 43.7 14.7 43.7 13.2
Q 43.7 12.85 43.85 12.55 43.9 12.35 44.2 12.15 44.45 12 44.65 12 45.1 12 45.3 12.3 45.45 12.6 45.45 13
L 45.45 14.7 45.85 14.7 45.85 12.9
Q 45.85 12.35 45.55 12.05 45.35 11.7 44.75 11.7 44.35 11.7 44.1 11.9 43.9 12 43.7 12.4
L 43.65 11.8 Z"/>
</g>

<g id="BDM_250x250_psd_Asset_ManagedWiFi_Awareness_DM7_4_Get_a_better__understanding_of__your_customer_s_needs__0_Layer0_0_MEMBER_40_FILL">
<path fill="#D82C26" stroke="none" d="
M 48 11.7
Q 47.6 11.7 47.25 11.9 46.9 12.05 46.75 12.4 46.55 12.75 46.55 13.2 46.55 13.75 46.75 14 46.9 14.4 47.25 14.55 47.6 14.75 48.05 14.75 48.8 14.75 49.2 14.4
L 49.15 14.1 48.65 14.35
Q 48.5 14.45 48.05 14.45 47.75 14.45 47.45 14.3
L 47.05 13.9
Q 46.9 13.6 46.9 13.3
L 49.35 13.3 49.4 13.15
Q 49.4 12.8 49.2 12.4 49 12.05 48.75 11.9 48.5 11.7 48 11.7
M 48 11.95
Q 48.45 11.95 48.75 12.25 49 12.55 49.05 13
L 46.9 13
Q 46.9 12.8 47.05 12.55
L 47.4 12.15
Q 47.8 11.95 48 11.95 Z"/>
</g>

<g id="BDM_250x250_psd_Asset_ManagedWiFi_Awareness_DM7_4_Get_a_better__understanding_of__your_customer_s_needs__0_Layer0_0_MEMBER_41_FILL">
<path fill="#D82C26" stroke="none" d="
M 51.35 11.7
Q 50.9 11.7 50.65 11.9 50.4 12 50.1 12.4 49.95 12.8 49.95 13.2 49.95 13.7 50.1 14 50.35 14.4 50.65 14.55 51 14.75 51.4 14.75 52.1 14.75 52.6 14.4
L 52.5 14.1
Q 52.3 14.3 52.05 14.35 51.85 14.45 51.45 14.45 51.15 14.45 50.85 14.3
L 50.45 13.9
Q 50.3 13.6 50.3 13.3
L 52.75 13.3 52.75 13.15
Q 52.75 12.7 52.6 12.4 52.4 12.05 52.1 11.9 51.85 11.7 51.35 11.7
M 51.35 11.95
Q 51.9 11.95 52.1 12.25 52.4 12.55 52.4 13
L 50.3 13
Q 50.3 12.8 50.45 12.55 50.5 12.35 50.8 12.15 51.1 11.95 51.35 11.95 Z"/>
</g>

<g id="BDM_250x250_psd_Asset_ManagedWiFi_Awareness_DM7_4_Get_a_better__understanding_of__your_customer_s_needs__0_Layer0_0_MEMBER_42_FILL">
<path fill="#D82C26" stroke="none" d="
M 54.75 11.7
Q 54.35 11.7 54 11.9 53.6 12.2 53.5 12.45 53.3 12.8 53.3 13.25 53.3 13.75 53.5 14 53.65 14.4 54 14.55 54.35 14.75 54.75 14.75 55.15 14.75 55.45 14.6 55.8 14.4 55.95 14.05
L 56 14.7 56.35 14.7 56.3 9.9 55.95 10 55.95 12.4
Q 55.8 12.05 55.45 11.9 55.2 11.7 54.75 11.7
M 54.8 12
Q 55.2 12 55.4 12.15
L 55.85 12.6 55.95 13.25 55.85 13.85
Q 55.7 14.15 55.4 14.3 55.2 14.45 54.8 14.45 54.5 14.45 54.2 14.3 53.95 14.15 53.8 13.85 53.7 13.65 53.7 13.25 53.7 12.8 53.8 12.6
L 54.2 12.15
Q 54.5 12 54.8 12 Z"/>
</g>

<g id="BDM_250x250_psd_Asset_ManagedWiFi_Awareness_DM7_4_Get_a_better__understanding_of__your_customer_s_needs__0_Layer0_0_MEMBER_43_FILL">
<path fill="#D82C26" stroke="none" d="
M 57.6 11.8
Q 57.35 11.9 57.25 12.05 57.1 12.2 57.1 12.5 57.1 12.8 57.3 13
L 58.55 13.6
Q 58.7 13.7 58.7 13.95 58.7 14.2 58.5 14.35 58.35 14.5 58.05 14.5 57.55 14.5 57.1 14.15
L 57.05 14.45 57.5 14.7 58.1 14.75
Q 58.4 14.75 58.55 14.65 58.8 14.55 58.9 14.4 59.05 14.2 59.05 13.9 59.05 13.6 58.85 13.4 58.45 13.15 58.15 13.05 57.65 12.85 57.6 12.8 57.45 12.75 57.45 12.45 57.45 12.25 57.6 12.1 57.75 12 58.05 12
L 58.5 12.05 58.8 12.25 59 12 58.55 11.8
Q 58.4 11.7 58.05 11.7 57.75 11.7 57.6 11.8 Z"/>
</g>

<g id="BDM_250x250_psd_Asset_ManagedWiFi_Awareness_DM7_4_Get_a_better__understanding_of__your_customer_s_needs__0_Layer0_0_MEMBER_44_FILL">
<path fill="#D82C26" stroke="none" d="
M 59.85 14.65
L 60.05 14.75 60.25 14.65 60.3 14.45 60.25 14.25 60.05 14.15 59.85 14.25 59.75 14.45 59.85 14.65 Z"/>
</g>

<g id="BDM_250x250_psd_Asset_ManagedWiFi_Awareness_DM7_4_CTA_copy_6_Watch_the_video___0_Layer0_0_MEMBER_0_FILL">
<path fill="#24B9D1" stroke="none" d="
M 2.9 -1.55
L 1.15 -8.05 -0.1 -8.05 2.25 0 3.45 0 5.35 -6.55 5.4 -6.55 7.35 0 8.55 0 10.9 -8.05 9.7 -8.05 7.9 -1.55 6 -8.05 4.75 -8.05 2.95 -1.55 2.9 -1.55 Z"/>
</g>

<g id="BDM_250x250_psd_Asset_ManagedWiFi_Awareness_DM7_4_CTA_copy_6_Watch_the_video___0_Layer0_0_MEMBER_1_FILL">
<path fill="#24B9D1" stroke="none" d="
M 14.25 -3.35
L 13.8 -3.35
Q 12.3 -3.25 11.6 -2.95 10.7 -2.5 10.7 -1.5 10.7 -0.7 11.2 -0.25 11.7 0.15 12.4 0.15 12.9 0.15 13.5 -0.1 14.05 -0.4 14.25 -0.85
L 14.3 -0.85 14.4 0 15.4 0 15.3 -3.4
Q 15.3 -4.5 14.75 -5.05 14.2 -5.6 13.15 -5.6 11.9 -5.6 10.95 -4.95
L 11.25 -4.15 12.05 -4.6
Q 12.5 -4.75 12.95 -4.75 13.55 -4.75 13.9 -4.45 14.25 -4.15 14.25 -3.55
L 14.25 -3.35
M 12 -0.85
Q 11.7 -1.05 11.7 -1.55 11.7 -2.65 13.85 -2.65
L 14.3 -2.65 14.3 -2.25
Q 14.3 -1.8 14.1 -1.45 13.85 -1.05 13.55 -0.85 13.2 -0.65 12.7 -0.65 12.25 -0.65 12 -0.85 Z"/>
</g>

<g id="BDM_250x250_psd_Asset_ManagedWiFi_Awareness_DM7_4_CTA_copy_6_Watch_the_video___0_Layer0_0_MEMBER_2_FILL">
<path fill="#24B9D1" stroke="none" d="
M 17.7 -6.95
L 16.6 -6.65 16.6 -5.45 15.8 -5.45 15.65 -4.6 16.6 -4.6 16.6 -1.5
Q 16.6 -0.8 17 -0.3 17.35 0.1 18.05 0.1 18.85 0.1 19.35 -0.15
L 19.25 -0.95
Q 18.85 -0.75 18.45 -0.75 17.7 -0.75 17.7 -1.65
L 17.7 -4.6 19.05 -4.6 19.2 -5.45 17.7 -5.45 17.7 -6.95 Z"/>
</g>

<g id="BDM_250x250_psd_Asset_ManagedWiFi_Awareness_DM7_4_CTA_copy_6_Watch_the_video___0_Layer0_0_MEMBER_3_FILL">
<path fill="#24B9D1" stroke="none" d="
M 19.55 -2.75
Q 19.55 -1.9 19.95 -1.2 20.35 -0.6 20.95 -0.2 21.6 0.15 22.4 0.15
L 23.5 0
Q 24.1 -0.25 24.35 -0.5
L 24.2 -1.35 23.45 -0.9
Q 23.1 -0.75 22.6 -0.75 22 -0.75 21.6 -1.05 21.15 -1.3 20.9 -1.75 20.7 -2.15 20.7 -2.75 20.7 -3.3 20.9 -3.7 21.1 -4.15 21.55 -4.4 22 -4.7 22.5 -4.7 22.85 -4.7 23.3 -4.55 23.7 -4.4 23.95 -4.15
L 24.35 -5
Q 24.1 -5.25 23.55 -5.45
L 22.5 -5.6
Q 21.65 -5.6 21 -5.25 20.35 -4.9 19.95 -4.25 19.55 -3.55 19.55 -2.75 Z"/>
</g>

<g id="BDM_250x250_psd_Asset_ManagedWiFi_Awareness_DM7_4_CTA_copy_6_Watch_the_video___0_Layer0_0_MEMBER_4_FILL">
<path fill="#24B9D1" stroke="none" d="
M 26.15 -2.75
Q 26.15 -3.6 26.55 -4.15 27 -4.7 27.65 -4.7 28.3 -4.7 28.6 -4.25 28.85 -3.75 28.85 -3.1
L 28.85 0 30 0 30 -3.35
Q 30 -4.2 29.5 -4.95 29 -5.6 28 -5.6 27.35 -5.6 26.9 -5.3 26.4 -5 26.15 -4.45
L 26.15 -8.7 25.05 -8.55 25.05 0 26.15 0 26.15 -2.75 Z"/>
</g>

<g id="BDM_250x250_psd_Asset_ManagedWiFi_Awareness_DM7_4_CTA_copy_6_Watch_the_video___0_Layer0_0_MEMBER_5_FILL">
<path fill="#24B9D1" stroke="none" d="
M 34.85 -6.95
L 33.75 -6.65 33.75 -5.45 32.95 -5.45 32.8 -4.6 33.75 -4.6 33.75 -1.5
Q 33.75 -0.8 34.15 -0.3 34.5 0.1 35.2 0.1 36 0.1 36.5 -0.15
L 36.35 -0.95
Q 36 -0.75 35.55 -0.75 34.85 -0.75 34.85 -1.65
L 34.85 -4.6 36.2 -4.6 36.35 -5.45 34.85 -5.45 34.85 -6.95 Z"/>
</g>

<g id="BDM_250x250_psd_Asset_ManagedWiFi_Awareness_DM7_4_CTA_copy_6_Watch_the_video___0_Layer0_0_MEMBER_6_FILL">
<path fill="#24B9D1" stroke="none" d="
M 38.2 -8.7
L 37.1 -8.55 37.1 0 38.2 0 38.2 -2.75
Q 38.2 -3.7 38.6 -4.15 39.05 -4.7 39.7 -4.7 40.4 -4.7 40.6 -4.25 40.9 -3.8 40.9 -3.1
L 40.9 0 42 0 42 -3.35
Q 42 -4.25 41.55 -4.95 41.05 -5.6 40 -5.6 39.45 -5.6 38.9 -5.3 38.45 -5 38.2 -4.45
L 38.2 -8.7 Z"/>
</g>

<g id="BDM_250x250_psd_Asset_ManagedWiFi_Awareness_DM7_4_CTA_copy_6_Watch_the_video___0_Layer0_0_MEMBER_7_FILL">
<path fill="#24B9D1" stroke="none" d="
M 43.35 -1.2
Q 43.8 -0.5 44.35 -0.2 45 0.15 45.85 0.15 47.15 0.15 48.05 -0.45
L 47.9 -1.3 47 -0.85 45.95 -0.7
Q 45.4 -0.7 45 -0.95 44.5 -1.2 44.3 -1.6 44 -1.95 44 -2.5
L 48.35 -2.5 48.4 -2.8
Q 48.4 -3.7 48.05 -4.25 47.8 -4.85 47.15 -5.25 46.6 -5.6 45.75 -5.6 44.9 -5.6 44.35 -5.25 43.7 -4.9 43.3 -4.25 42.95 -3.6 42.95 -2.75 42.95 -1.9 43.35 -1.2
M 44.25 -3.95
Q 44.5 -4.3 44.85 -4.55 45.15 -4.8 45.75 -4.8 46.45 -4.8 46.9 -4.35 47.35 -3.9 47.35 -3.2
L 44 -3.2
Q 44.1 -3.7 44.25 -3.95 Z"/>
</g>

<g id="BDM_250x250_psd_Asset_ManagedWiFi_Awareness_DM7_4_CTA_copy_6_Watch_the_video___0_Layer0_0_MEMBER_8_FILL">
<path fill="#24B9D1" stroke="none" d="
M 52.05 -5.45
L 50.85 -5.45 52.95 0 54.2 0 56.25 -5.45 55.1 -5.45 53.55 -1.15 52.05 -5.45 Z"/>
</g>

<g id="BDM_250x250_psd_Asset_ManagedWiFi_Awareness_DM7_4_CTA_copy_6_Watch_the_video___0_Layer0_0_MEMBER_9_FILL">
<path fill="#24B9D1" stroke="none" d="
M 57.85 -5.45
L 56.75 -5.45 56.75 0 57.85 0 57.85 -5.45
M 57.3 -6.75
Q 57.5 -6.75 57.8 -6.95 58 -7.15 58 -7.45 58 -7.75 57.8 -7.95 57.5 -8.15 57.3 -8.15 57.05 -8.15 56.85 -7.95 56.65 -7.75 56.65 -7.45 56.65 -7.15 56.85 -6.95 57.05 -6.75 57.3 -6.75 Z"/>
</g>

<g id="BDM_250x250_psd_Asset_ManagedWiFi_Awareness_DM7_4_CTA_copy_6_Watch_the_video___0_Layer0_0_MEMBER_10_FILL">
<path fill="#24B9D1" stroke="none" d="
M 59.2 -1.3
Q 59.6 -0.6 60.15 -0.25 60.8 0.15 61.55 0.15 62.25 0.15 62.75 -0.15 63.25 -0.4 63.6 -1
L 63.65 -1 63.7 0 64.7 0 64.65 -8.75 63.55 -8.6 63.55 -4.5
Q 63.3 -4.95 62.7 -5.3 62.2 -5.6 61.55 -5.6 60.8 -5.6 60.15 -5.2 59.6 -4.85 59.2 -4.15 58.9 -3.55 58.9 -2.75 58.9 -1.9 59.2 -1.3
M 59.95 -2.75
Q 59.95 -3.2 60.2 -3.7 60.45 -4.2 60.8 -4.4 61.25 -4.7 61.8 -4.7 62.35 -4.7 62.7 -4.4 63.1 -4.2 63.35 -3.7 63.6 -3.3 63.6 -2.75 63.6 -2.1 63.35 -1.75 63.1 -1.25 62.7 -1.05 62.35 -0.75 61.8 -0.75 61.25 -0.75 60.8 -1.05 60.45 -1.25 60.2 -1.75 59.95 -2.25 59.95 -2.75 Z"/>
</g>

<g id="BDM_250x250_psd_Asset_ManagedWiFi_Awareness_DM7_4_CTA_copy_6_Watch_the_video___0_Layer0_0_MEMBER_11_FILL">
<path fill="#24B9D1" stroke="none" d="
M 69.85 -5.25
Q 69.3 -5.6 68.45 -5.6 67.7 -5.6 67.05 -5.25 66.45 -4.85 66.05 -4.25 65.7 -3.6 65.7 -2.75 65.7 -1.85 66.05 -1.2 66.45 -0.55 67.1 -0.2 67.65 0.15 68.55 0.15 69.85 0.15 70.75 -0.45
L 70.6 -1.3 69.75 -0.85 68.7 -0.7
Q 68.2 -0.7 67.7 -0.95 67.3 -1.15 67 -1.6 66.75 -2 66.75 -2.5
L 71.1 -2.5 71.1 -2.8
Q 71.1 -3.65 70.8 -4.25 70.5 -4.9 69.85 -5.25
M 69.65 -4.35
Q 70.05 -3.9 70.1 -3.2
L 66.75 -3.2
Q 66.75 -3.55 67 -3.95 67.15 -4.3 67.6 -4.55 67.9 -4.8 68.5 -4.8 69.2 -4.8 69.65 -4.35 Z"/>
</g>

<g id="BDM_250x250_psd_Asset_ManagedWiFi_Awareness_DM7_4_CTA_copy_6_Watch_the_video___0_Layer0_0_MEMBER_12_FILL">
<path fill="#24B9D1" stroke="none" d="
M 73.2 -5.25
Q 72.5 -4.85 72.15 -4.25 71.75 -3.55 71.75 -2.75 71.75 -1.95 72.15 -1.25 72.55 -0.55 73.2 -0.2 73.85 0.15 74.7 0.15 75.55 0.15 76.2 -0.2 76.9 -0.55 77.25 -1.25 77.65 -1.9 77.65 -2.75 77.65 -3.55 77.25 -4.25 76.9 -4.85 76.2 -5.25 75.55 -5.6 74.7 -5.6 73.85 -5.6 73.2 -5.25
M 74.7 -4.7
Q 75.25 -4.7 75.7 -4.4 76.15 -4.15 76.35 -3.7 76.55 -3.3 76.55 -2.75 76.55 -2.15 76.35 -1.75 76.15 -1.3 75.7 -1.05 75.25 -0.75 74.7 -0.75 74.15 -0.75 73.7 -1.05 73.3 -1.25 73.05 -1.75 72.85 -2.15 72.85 -2.75 72.85 -3.3 73.05 -3.7 73.3 -4.2 73.7 -4.4 74.15 -4.7 74.7 -4.7 Z"/>
</g>

<g id="BDM_250x250_psd_Asset_ManagedWiFi_Awareness_DM7_4_CTA_copy_6_Watch_the_video___0_Layer0_0_MEMBER_13_FILL">
<path fill="#24B9D1" stroke="none" d="
M 78.4 -0.65
Q 78.4 -0.3 78.6 -0.1 78.9 0.1 79.1 0.1 79.35 0.1 79.65 -0.1 79.85 -0.3 79.85 -0.65 79.85 -1 79.65 -1.15 79.4 -1.4 79.1 -1.4 78.85 -1.4 78.6 -1.15 78.4 -0.95 78.4 -0.65 Z"/>
</g>

<g id="BDM_250x250_psd_Asset_ManagedWiFi_Awareness_DM7_4_footer_copy_5_Do_more_with_Wi_Fi_as_a_Service__0_Layer0_0_MEMBER_0_FILL">
<path fill="#838282" stroke="none" d="
M 4.95 -6.45
Q 4.2 -6.8 3.1 -6.8
L 0.85 -6.8 0.85 0 3.1 0
Q 4.15 0 5 -0.35 5.8 -0.7 6.35 -1.5 6.85 -2.3 6.85 -3.4 6.85 -4.65 6.35 -5.35 5.85 -6.1 4.95 -6.45
M 3 -0.85
L 1.8 -0.85 1.8 -5.95 3 -5.95
Q 4.35 -5.95 5.05 -5.3 5.85 -4.7 5.85 -3.4 5.85 -2.1 5.05 -1.5 4.35 -0.85 3 -0.85 Z"/>
</g>

<g id="BDM_250x250_psd_Asset_ManagedWiFi_Awareness_DM7_4_footer_copy_5_Do_more_with_Wi_Fi_as_a_Service__0_Layer0_0_MEMBER_1_FILL">
<path fill="#838282" stroke="none" d="
M 8.8 -4.45
Q 8.35 -4.2 7.9 -3.6 7.6 -3 7.6 -2.3 7.6 -1.55 7.9 -1.05 8.25 -0.5 8.8 -0.15 9.4 0.15 10.05 0.15 10.75 0.15 11.35 -0.15 11.95 -0.6 12.25 -1.05 12.55 -1.55 12.55 -2.3 12.55 -3 12.25 -3.6 11.85 -4.15 11.35 -4.45 10.75 -4.75 10.05 -4.75 9.4 -4.75 8.8 -4.45
M 9.25 -3.75
Q 9.5 -3.95 10.05 -3.95 10.55 -3.95 10.9 -3.75 11.2 -3.55 11.45 -3.15 11.65 -2.8 11.65 -2.3 11.65 -1.85 11.45 -1.5 11.2 -1.1 10.9 -0.9 10.5 -0.65 10.05 -0.65 9.6 -0.65 9.25 -0.9 8.85 -1.15 8.7 -1.5 8.5 -1.85 8.5 -2.3 8.5 -2.8 8.7 -3.15 8.85 -3.5 9.25 -3.75 Z"/>
</g>

<g id="BDM_250x250_psd_Asset_ManagedWiFi_Awareness_DM7_4_footer_copy_5_Do_more_with_Wi_Fi_as_a_Service__0_Layer0_0_MEMBER_2_FILL">
<path fill="#838282" stroke="none" d="
M 17.8 -3.95
Q 18.3 -3.95 18.5 -3.65 18.75 -3.25 18.75 -2.7
L 18.75 0 19.7 0 19.7 -2.4
Q 19.7 -3.1 20 -3.55 20.4 -3.95 20.9 -3.95 21.45 -3.95 21.65 -3.6 21.85 -3.2 21.85 -2.6
L 21.85 0 22.8 0 22.8 -2.8
Q 22.8 -3.6 22.4 -4.15 22.05 -4.75 21.15 -4.75 20.6 -4.75 20.2 -4.45 19.8 -4.25 19.55 -3.7 19.4 -4.2 19 -4.45 18.65 -4.75 18.1 -4.75 17.6 -4.75 17.15 -4.45 16.75 -4.2 16.6 -3.75
L 16.55 -3.75 16.5 -4.6 15.6 -4.6 15.65 0 16.6 0 16.6 -2.35
Q 16.6 -3.15 16.95 -3.55 17.25 -3.95 17.8 -3.95 Z"/>
</g>

<g id="BDM_250x250_psd_Asset_ManagedWiFi_Awareness_DM7_4_footer_copy_5_Do_more_with_Wi_Fi_as_a_Service__0_Layer0_0_MEMBER_3_FILL">
<path fill="#838282" stroke="none" d="
M 24.05 -1.05
Q 24.35 -0.6 24.95 -0.15 25.55 0.15 26.25 0.15 26.9 0.15 27.5 -0.15 28.05 -0.5 28.4 -1.05 28.7 -1.55 28.7 -2.3 28.7 -3 28.4 -3.6 27.95 -4.2 27.5 -4.45 26.9 -4.75 26.25 -4.75 25.55 -4.75 24.95 -4.45 24.45 -4.15 24.05 -3.6 23.75 -3 23.75 -2.3 23.75 -1.55 24.05 -1.05
M 24.65 -2.3
Q 24.65 -2.65 24.85 -3.15 25.1 -3.55 25.4 -3.75 25.75 -3.95 26.25 -3.95 26.8 -3.95 27.05 -3.75 27.45 -3.5 27.6 -3.15 27.8 -2.8 27.8 -2.3 27.8 -1.85 27.6 -1.5 27.45 -1.15 27.05 -0.9 26.7 -0.65 26.25 -0.65 25.8 -0.65 25.4 -0.9 25.1 -1.1 24.85 -1.5 24.65 -2 24.65 -2.3 Z"/>
</g>

<g id="BDM_250x250_psd_Asset_ManagedWiFi_Awareness_DM7_4_footer_copy_5_Do_more_with_Wi_Fi_as_a_Service__0_Layer0_0_MEMBER_4_FILL">
<path fill="#838282" stroke="none" d="
M 30.6 -3.7
L 30.55 -4.6 29.65 -4.6 29.7 0 30.65 0 30.65 -2.3
Q 30.65 -2.9 30.95 -3.45 31.25 -3.9 31.8 -3.9
L 32.2 -3.85 32.35 -4.65 31.85 -4.75
Q 31.45 -4.75 31.15 -4.45 30.8 -4.25 30.65 -3.7
L 30.6 -3.7 Z"/>
</g>

<g id="BDM_250x250_psd_Asset_ManagedWiFi_Awareness_DM7_4_footer_copy_5_Do_more_with_Wi_Fi_as_a_Service__0_Layer0_0_MEMBER_5_FILL">
<path fill="#838282" stroke="none" d="
M 34.75 -4.75
Q 34.15 -4.75 33.55 -4.45 33.15 -4.2 32.7 -3.6 32.4 -3 32.4 -2.3 32.4 -1.55 32.75 -1.05 33.05 -0.45 33.6 -0.15 34.15 0.15 34.85 0.15 35.9 0.15 36.7 -0.4
L 36.6 -1.1 35.85 -0.75
Q 35.4 -0.6 34.95 -0.6 34.4 -0.6 34.15 -0.8 33.8 -0.95 33.55 -1.35 33.3 -1.7 33.3 -2.1
L 37 -2.1 37 -2.4
Q 37 -3 36.75 -3.6 36.4 -4.2 35.95 -4.45 35.45 -4.75 34.75 -4.75
M 34 -3.85
Q 34.35 -4.05 34.75 -4.05 35.4 -4.05 35.75 -3.7 36.05 -3.4 36.15 -2.7
L 33.3 -2.7 33.5 -3.35
Q 33.8 -3.75 34 -3.85 Z"/>
</g>

<g id="BDM_250x250_psd_Asset_ManagedWiFi_Awareness_DM7_4_footer_copy_5_Do_more_with_Wi_Fi_as_a_Service__0_Layer0_0_MEMBER_6_FILL">
<path fill="#838282" stroke="none" d="
M 40.45 -4.6
L 39.45 -4.6 40.95 0 41.9 0 43.05 -3.5 43.1 -3.5 44.25 0 45.2 0 46.7 -4.6 45.75 -4.6 44.75 -1.05 44.7 -1.05 43.6 -4.6 42.6 -4.6 41.5 -1.05 41.45 -1.05 40.45 -4.6 Z"/>
</g>

<g id="BDM_250x250_psd_Asset_ManagedWiFi_Awareness_DM7_4_footer_copy_5_Do_more_with_Wi_Fi_as_a_Service__0_Layer0_0_MEMBER_7_FILL">
<path fill="#838282" stroke="none" d="
M 48.3 -4.6
L 47.4 -4.6 47.4 0 48.3 0 48.3 -4.6
M 48.4 -6.3
Q 48.4 -6.55 48.25 -6.7 48.1 -6.85 47.85 -6.85 47.6 -6.85 47.45 -6.7 47.25 -6.55 47.25 -6.3 47.25 -6.05 47.45 -5.9 47.65 -5.7 47.85 -5.7 48.05 -5.7 48.25 -5.9 48.4 -6.05 48.4 -6.3 Z"/>
</g>

<g id="BDM_250x250_psd_Asset_ManagedWiFi_Awareness_DM7_4_footer_copy_5_Do_more_with_Wi_Fi_as_a_Service__0_Layer0_0_MEMBER_8_FILL">
<path fill="#838282" stroke="none" d="
M 49.7 -1.25
Q 49.7 -0.6 50.05 -0.25 50.35 0.1 50.95 0.1 51.45 0.1 52.05 -0.15
L 51.95 -0.8 51.25 -0.65
Q 50.65 -0.65 50.65 -1.4
L 50.65 -3.9 51.75 -3.9 51.9 -4.6 50.65 -4.6 50.65 -5.85 49.7 -5.65 49.7 -4.6 49.05 -4.6 48.9 -3.9 49.7 -3.9 49.7 -1.25 Z"/>
</g>

<g id="BDM_250x250_psd_Asset_ManagedWiFi_Awareness_DM7_4_footer_copy_5_Do_more_with_Wi_Fi_as_a_Service__0_Layer0_0_MEMBER_9_FILL">
<path fill="#838282" stroke="none" d="
M 53.6 -7.35
L 52.65 -7.25 52.65 0 53.6 0 53.6 -2.35
Q 53.6 -3.15 53.95 -3.5 54.35 -3.95 54.85 -3.95 55.45 -3.95 55.65 -3.6 55.9 -3.1 55.9 -2.6
L 55.9 0 56.8 0 56.8 -2.8
Q 56.8 -3.65 56.4 -4.2 56 -4.75 55.15 -4.75 54.65 -4.75 54.2 -4.45 53.85 -4.25 53.6 -3.75
L 53.6 -7.35 Z"/>
</g>

<g id="BDM_250x250_psd_Asset_ManagedWiFi_Awareness_DM7_4_footer_copy_5_Do_more_with_Wi_Fi_as_a_Service__0_Layer0_0_MEMBER_10_FILL">
<path fill="#838282" stroke="none" d="
M 60.45 -6.8
L 59.4 -6.8 61.35 0 62.4 0 64 -5.5 64.05 -5.5 65.65 0 66.7 0 68.65 -6.8 67.65 -6.8 66.15 -1.3 64.55 -6.8 63.5 -6.8 61.95 -1.3 61.9 -1.3 60.45 -6.8 Z"/>
</g>

<g id="BDM_250x250_psd_Asset_ManagedWiFi_Awareness_DM7_4_footer_copy_5_Do_more_with_Wi_Fi_as_a_Service__0_Layer0_0_MEMBER_11_FILL">
<path fill="#838282" stroke="none" d="
M 70.25 -4.6
L 69.3 -4.6 69.3 0 70.25 0 70.25 -4.6
M 70.35 -6.3
Q 70.35 -6.55 70.15 -6.7 70 -6.85 69.75 -6.85 69.5 -6.85 69.35 -6.7 69.2 -6.55 69.2 -6.3 69.2 -6.05 69.35 -5.9 69.55 -5.7 69.75 -5.7 69.95 -5.7 70.15 -5.9 70.35 -6.05 70.35 -6.3 Z"/>
</g>

<g id="BDM_250x250_psd_Asset_ManagedWiFi_Awareness_DM7_4_footer_copy_5_Do_more_with_Wi_Fi_as_a_Service__0_Layer0_0_MEMBER_12_FILL">
<path fill="#838282" stroke="none" d="
M 71.2 -2.85
L 71.2 -2.1 73.3 -2.1 73.3 -2.85 71.2 -2.85 Z"/>
</g>

<g id="BDM_250x250_psd_Asset_ManagedWiFi_Awareness_DM7_4_footer_copy_5_Do_more_with_Wi_Fi_as_a_Service__0_Layer0_0_MEMBER_13_FILL">
<path fill="#838282" stroke="none" d="
M 78.1 -6.8
L 74.35 -6.8 74.35 0 75.3 0 75.3 -3 77.8 -3 77.95 -3.85 75.3 -3.85 75.3 -5.95 78 -5.95 78.1 -6.8 Z"/>
</g>

<g id="BDM_250x250_psd_Asset_ManagedWiFi_Awareness_DM7_4_footer_copy_5_Do_more_with_Wi_Fi_as_a_Service__0_Layer0_0_MEMBER_14_FILL">
<path fill="#838282" stroke="none" d="
M 79.75 -4.6
L 78.85 -4.6 78.85 0 79.75 0 79.75 -4.6
M 79.9 -6.3
Q 79.9 -6.5 79.7 -6.7 79.55 -6.85 79.3 -6.85 79.05 -6.85 78.9 -6.7 78.7 -6.55 78.7 -6.3 78.7 -6.05 78.9 -5.9 79.1 -5.7 79.3 -5.7 79.5 -5.7 79.7 -5.9 79.9 -6.1 79.9 -6.3 Z"/>
</g>

<g id="BDM_250x250_psd_Asset_ManagedWiFi_Awareness_DM7_4_footer_copy_5_Do_more_with_Wi_Fi_as_a_Service__0_Layer0_0_MEMBER_15_FILL">
<path fill="#838282" stroke="none" d="
M 84 -3.9
L 84.75 -4.05
Q 85.3 -4.05 85.6 -3.75 85.85 -3.5 85.85 -3
L 85.85 -2.8 85.5 -2.8
Q 84.35 -2.8 83.6 -2.5 82.85 -2.1 82.85 -1.3 82.85 -0.55 83.3 -0.2 83.7 0.1 84.3 0.1 84.85 0.1 85.25 -0.1 85.7 -0.3 85.9 -0.75
L 86 0 86.85 0 86.75 -0.95 86.75 -2.85
Q 86.75 -3.8 86.3 -4.25 85.8 -4.75 84.9 -4.75 83.9 -4.75 83.1 -4.2
L 83.35 -3.5 84 -3.9
M 85.9 -2.25
L 85.9 -1.9
Q 85.9 -1.55 85.75 -1.25 85.6 -0.9 85.25 -0.75 85 -0.55 84.55 -0.55 84.2 -0.55 83.95 -0.7 83.7 -0.95 83.7 -1.3 83.7 -2.25 85.5 -2.25
L 85.9 -2.25 Z"/>
</g>

<g id="BDM_250x250_psd_Asset_ManagedWiFi_Awareness_DM7_4_footer_copy_5_Do_more_with_Wi_Fi_as_a_Service__0_Layer0_0_MEMBER_16_FILL">
<path fill="#838282" stroke="none" d="
M 89.4 -4.75
Q 89 -4.75 88.6 -4.6 88.25 -4.45 87.95 -4.15 87.75 -3.8 87.75 -3.4 87.75 -2.85 88.05 -2.55 88.35 -2.3 89.05 -2.05 89.55 -1.9 89.9 -1.7 90.2 -1.55 90.2 -1.25 90.2 -0.9 89.9 -0.75 89.7 -0.55 89.25 -0.55 88.55 -0.55 87.75 -1.1
L 87.65 -0.35
Q 87.95 -0.15 88.4 0 88.85 0.15 89.35 0.15 89.85 0.15 90.2 0 90.45 -0.1 90.85 -0.5 91.1 -0.85 91.1 -1.3 91.1 -1.85 90.7 -2.15 90.25 -2.5 89.65 -2.65
L 88.85 -3
Q 88.6 -3.15 88.6 -3.45 88.6 -3.75 88.85 -3.9 89.1 -4.05 89.45 -4.05
L 90.05 -3.95 90.6 -3.6 90.95 -4.25 90.25 -4.6
Q 89.9 -4.75 89.4 -4.75 Z"/>
</g>

<g id="BDM_250x250_psd_Asset_ManagedWiFi_Awareness_DM7_4_footer_copy_5_Do_more_with_Wi_Fi_as_a_Service__0_Layer0_0_MEMBER_17_FILL">
<path fill="#838282" stroke="none" d="
M 93.8 -1.3
Q 93.8 -0.6 94.2 -0.2 94.65 0.1 95.2 0.1 95.8 0.1 96.2 -0.1 96.65 -0.35 96.8 -0.75
L 96.85 -0.75 96.85 -0.4 96.9 0 97.75 0 97.7 -2.85
Q 97.7 -3.8 97.2 -4.25 96.75 -4.75 95.85 -4.75 94.85 -4.75 94.05 -4.2
L 94.25 -3.5
Q 94.65 -3.8 94.95 -3.9
L 95.7 -4.05
Q 96.2 -4.05 96.5 -3.75 96.8 -3.5 96.8 -3
L 96.8 -2.8 96.4 -2.8
Q 95.3 -2.8 94.55 -2.5 93.8 -2.1 93.8 -1.3
M 94.9 -0.7
Q 94.65 -0.95 94.65 -1.3 94.65 -2.25 96.45 -2.25
L 96.85 -2.25 96.85 -1.9
Q 96.85 -1.5 96.65 -1.25 96.45 -0.9 96.2 -0.75 95.95 -0.55 95.45 -0.55 95.15 -0.55 94.9 -0.7 Z"/>
</g>

<g id="BDM_250x250_psd_Asset_ManagedWiFi_Awareness_DM7_4_footer_copy_5_Do_more_with_Wi_Fi_as_a_Service__0_Layer0_0_MEMBER_18_FILL">
<path fill="#838282" stroke="none" d="
M 100.95 -1.4
L 100.8 -0.5
Q 101.1 -0.25 101.8 0 102.6 0.2 103 0.2 103.5 0.2 104.1 -0.05 104.65 -0.3 104.95 -0.75 105.25 -1.2 105.25 -1.9 105.25 -2.55 105 -2.85 104.7 -3.25 104.3 -3.4
L 102.45 -4.15 102 -4.5
Q 101.85 -4.7 101.85 -5.05 101.85 -5.6 102.25 -5.9 102.75 -6.15 103.2 -6.15 103.65 -6.15 104.1 -6 104.5 -5.85 104.85 -5.6
L 105.15 -6.4
Q 104.85 -6.6 104.25 -6.8 103.8 -7 103.2 -7 102.7 -7 102.05 -6.75 101.55 -6.55 101.2 -6.1 100.9 -5.65 100.9 -5 100.9 -4.35 101.15 -4.05 101.4 -3.65 101.75 -3.45
L 103.6 -2.75 104.1 -2.35
Q 104.3 -2.15 104.3 -1.75 104.3 -1.2 103.9 -0.95 103.55 -0.65 102.95 -0.65 102.35 -0.65 101.9 -0.85 101.3 -1.1 100.95 -1.4 Z"/>
</g>

<g id="BDM_250x250_psd_Asset_ManagedWiFi_Awareness_DM7_4_footer_copy_5_Do_more_with_Wi_Fi_as_a_Service__0_Layer0_0_MEMBER_19_FILL">
<path fill="#838282" stroke="none" d="
M 106 -2.3
Q 106 -1.55 106.3 -1.05 106.6 -0.45 107.2 -0.15 107.75 0.15 108.4 0.15 109.45 0.15 110.3 -0.4
L 110.15 -1.1
Q 109.9 -0.9 109.4 -0.75 109.05 -0.6 108.55 -0.6 108.05 -0.6 107.7 -0.8 107.35 -0.95 107.1 -1.35 106.9 -1.75 106.9 -2.1
L 110.55 -2.1 110.6 -2.4
Q 110.6 -3.05 110.3 -3.6 110.1 -4.1 109.55 -4.45 109.05 -4.75 108.35 -4.75 107.7 -4.75 107.15 -4.45 106.6 -4.15 106.3 -3.6 106 -3 106 -2.3
M 107.6 -3.85
Q 107.85 -4.05 108.35 -4.05 109 -4.05 109.35 -3.7 109.7 -3.35 109.7 -2.7
L 106.9 -2.7
Q 106.9 -3.1 107.1 -3.35 107.25 -3.7 107.6 -3.85 Z"/>
</g>

<g id="BDM_250x250_psd_Asset_ManagedWiFi_Awareness_DM7_4_footer_copy_5_Do_more_with_Wi_Fi_as_a_Service__0_Layer0_0_MEMBER_20_FILL">
<path fill="#838282" stroke="none" d="
M 114.05 -3.85
L 114.2 -4.65 113.7 -4.75
Q 113.3 -4.75 113 -4.45 112.65 -4.25 112.5 -3.7
L 112.45 -3.7 112.4 -4.6 111.5 -4.6 111.55 0 112.5 0 112.5 -2.3
Q 112.5 -2.9 112.8 -3.45 113.1 -3.9 113.65 -3.9
L 114.05 -3.85 Z"/>
</g>

<g id="BDM_250x250_psd_Asset_ManagedWiFi_Awareness_DM7_4_footer_copy_5_Do_more_with_Wi_Fi_as_a_Service__0_Layer0_0_MEMBER_21_FILL">
<path fill="#838282" stroke="none" d="
M 115 -4.6
L 114 -4.6 115.8 0 116.8 0 118.55 -4.6 117.6 -4.6 116.3 -0.95 115 -4.6 Z"/>
</g>

<g id="BDM_250x250_psd_Asset_ManagedWiFi_Awareness_DM7_4_footer_copy_5_Do_more_with_Wi_Fi_as_a_Service__0_Layer0_0_MEMBER_22_FILL">
<path fill="#838282" stroke="none" d="
M 120.05 -4.6
L 119.15 -4.6 119.15 0 120.05 0 120.05 -4.6
M 120.2 -6.3
Q 120.2 -6.55 120 -6.7 119.85 -6.85 119.6 -6.85 119.35 -6.85 119.2 -6.7 119.05 -6.55 119.05 -6.3 119.05 -6.05 119.2 -5.9 119.4 -5.7 119.6 -5.7 119.8 -5.7 120 -5.9 120.2 -6.05 120.2 -6.3 Z"/>
</g>

<g id="BDM_250x250_psd_Asset_ManagedWiFi_Awareness_DM7_4_footer_copy_5_Do_more_with_Wi_Fi_as_a_Service__0_Layer0_0_MEMBER_23_FILL">
<path fill="#838282" stroke="none" d="
M 121.05 -2.3
Q 121.05 -1.55 121.4 -1.05 121.65 -0.6 122.25 -0.15 122.8 0.15 123.45 0.15 123.95 0.15 124.4 0 124.7 -0.1 125.1 -0.4
L 125 -1.15
Q 124.65 -0.85 124.35 -0.8 124.05 -0.65 123.6 -0.65 123.25 -0.65 122.75 -0.85 122.45 -1.05 122.2 -1.45 122 -2.05 122 -2.3 122 -2.8 122.2 -3.15 122.45 -3.55 122.75 -3.75 123.1 -3.95 123.55 -3.95
L 124.2 -3.85 124.75 -3.5 125.1 -4.2
Q 124.95 -4.4 124.4 -4.6 123.95 -4.75 123.55 -4.75 122.85 -4.75 122.25 -4.45 121.7 -4.15 121.4 -3.55 121.05 -3.05 121.05 -2.3 Z"/>
</g>

<g id="BDM_250x250_psd_Asset_ManagedWiFi_Awareness_DM7_4_footer_copy_5_Do_more_with_Wi_Fi_as_a_Service__0_Layer0_0_MEMBER_24_FILL">
<path fill="#838282" stroke="none" d="
M 125.5 -2.3
Q 125.5 -1.55 125.85 -1.05 126.15 -0.45 126.7 -0.15 127.25 0.15 127.95 0.15 129 0.15 129.8 -0.4
L 129.7 -1.1 128.95 -0.75
Q 128.5 -0.6 128.05 -0.6 127.5 -0.6 127.25 -0.8 126.9 -0.95 126.65 -1.35 126.4 -1.7 126.4 -2.1
L 130.1 -2.1 130.1 -2.4
Q 130.1 -3 129.85 -3.6 129.5 -4.2 129.05 -4.45 128.55 -4.75 127.85 -4.75 127.25 -4.75 126.7 -4.45 126.2 -4.2 125.85 -3.6 125.5 -3.05 125.5 -2.3
M 127.9 -4.05
Q 128.5 -4.05 128.85 -3.7 129.15 -3.4 129.25 -2.7
L 126.4 -2.7 126.6 -3.35
Q 126.9 -3.75 127.1 -3.85 127.45 -4.05 127.9 -4.05 Z"/>
</g>

<g id="BDM_250x250_psd_Asset_ManagedWiFi_Awareness_DM7_4_footer_copy_5_Do_more_with_Wi_Fi_as_a_Service__0_Layer0_0_MEMBER_25_FILL">
<path fill="#838282" stroke="none" d="
M 131 -0.55
Q 131 -0.3 131.15 -0.1 131.45 0.1 131.6 0.1 131.75 0.1 132.05 -0.1 132.2 -0.25 132.2 -0.55
L 132.05 -1
Q 131.85 -1.15 131.6 -1.15 131.4 -1.15 131.15 -1
L 131 -0.55 Z"/>
</g>
</defs>

<g transform="matrix( 1, 0, 0, 1, -194,-19) ">
<g transform="matrix( 1, 0, 0, 1, 184,34) ">
<g transform="matrix( 1, 0, 0, 1, 30,9) ">
<g transform="matrix( 3.5196380615234375, 0, 0, 3.540771484375, 0.2,17.8) ">
<use xlink:href="#BDM_250x250_psd_Asset_ManagedWiFi_Awareness_DM7_4_Get_a_better__understanding_of__your_customer_s_needs__0_Layer0_0_MEMBER_0_FILL"/>
</g>

<g transform="matrix( 3.5196380615234375, 0, 0, 3.540771484375, 0.2,17.8) ">
<use xlink:href="#BDM_250x250_psd_Asset_ManagedWiFi_Awareness_DM7_4_Get_a_better__understanding_of__your_customer_s_needs__0_Layer0_0_MEMBER_1_FILL"/>
</g>

<g transform="matrix( 3.5196380615234375, 0, 0, 3.540771484375, 0.2,17.8) ">
<use xlink:href="#BDM_250x250_psd_Asset_ManagedWiFi_Awareness_DM7_4_Get_a_better__understanding_of__your_customer_s_needs__0_Layer0_0_MEMBER_2_FILL"/>
</g>

<g transform="matrix( 3.5196380615234375, 0, 0, 3.540771484375, 0.2,17.8) ">
<use xlink:href="#BDM_250x250_psd_Asset_ManagedWiFi_Awareness_DM7_4_Get_a_better__understanding_of__your_customer_s_needs__0_Layer0_0_MEMBER_3_FILL"/>
</g>

<g transform="matrix( 3.5196380615234375, 0, 0, 3.540771484375, 0.2,17.8) ">
<use xlink:href="#BDM_250x250_psd_Asset_ManagedWiFi_Awareness_DM7_4_Get_a_better__understanding_of__your_customer_s_needs__0_Layer0_0_MEMBER_4_FILL"/>
</g>

<g transform="matrix( 3.5196380615234375, 0, 0, 3.540771484375, 0.2,17.8) ">
<use xlink:href="#BDM_250x250_psd_Asset_ManagedWiFi_Awareness_DM7_4_Get_a_better__understanding_of__your_customer_s_needs__0_Layer0_0_MEMBER_5_FILL"/>
</g>

<g transform="matrix( 3.5196380615234375, 0, 0, 3.540771484375, 0.2,17.8) ">
<use xlink:href="#BDM_250x250_psd_Asset_ManagedWiFi_Awareness_DM7_4_Get_a_better__understanding_of__your_customer_s_needs__0_Layer0_0_MEMBER_6_FILL"/>
</g>

<g transform="matrix( 3.5196380615234375, 0, 0, 3.540771484375, 0.2,17.8) ">
<use xlink:href="#BDM_250x250_psd_Asset_ManagedWiFi_Awareness_DM7_4_Get_a_better__understanding_of__your_customer_s_needs__0_Layer0_0_MEMBER_7_FILL"/>
</g>

<g transform="matrix( 3.5196380615234375, 0, 0, 3.540771484375, 0.2,17.8) ">
<use xlink:href="#BDM_250x250_psd_Asset_ManagedWiFi_Awareness_DM7_4_Get_a_better__understanding_of__your_customer_s_needs__0_Layer0_0_MEMBER_8_FILL"/>
</g>

<g transform="matrix( 3.5196380615234375, 0, 0, 3.540771484375, 0.2,17.8) ">
<use xlink:href="#BDM_250x250_psd_Asset_ManagedWiFi_Awareness_DM7_4_Get_a_better__understanding_of__your_customer_s_needs__0_Layer0_0_MEMBER_9_FILL"/>
</g>

<g transform="matrix( 3.5196380615234375, 0, 0, 3.540771484375, 0.2,17.8) ">
<use xlink:href="#BDM_250x250_psd_Asset_ManagedWiFi_Awareness_DM7_4_Get_a_better__understanding_of__your_customer_s_needs__0_Layer0_0_MEMBER_10_FILL"/>
</g>

<g transform="matrix( 3.5196380615234375, 0, 0, 3.540771484375, 0.2,17.8) ">
<use xlink:href="#BDM_250x250_psd_Asset_ManagedWiFi_Awareness_DM7_4_Get_a_better__understanding_of__your_customer_s_needs__0_Layer0_0_MEMBER_11_FILL"/>
</g>

<g transform="matrix( 3.5196380615234375, 0, 0, 3.540771484375, 0.2,17.8) ">
<use xlink:href="#BDM_250x250_psd_Asset_ManagedWiFi_Awareness_DM7_4_Get_a_better__understanding_of__your_customer_s_needs__0_Layer0_0_MEMBER_12_FILL"/>
</g>

<g transform="matrix( 3.5196380615234375, 0, 0, 3.540771484375, 0.2,17.8) ">
<use xlink:href="#BDM_250x250_psd_Asset_ManagedWiFi_Awareness_DM7_4_Get_a_better__understanding_of__your_customer_s_needs__0_Layer0_0_MEMBER_13_FILL"/>
</g>

<g transform="matrix( 3.5196380615234375, 0, 0, 3.540771484375, 0.2,17.8) ">
<use xlink:href="#BDM_250x250_psd_Asset_ManagedWiFi_Awareness_DM7_4_Get_a_better__understanding_of__your_customer_s_needs__0_Layer0_0_MEMBER_14_FILL"/>
</g>

<g transform="matrix( 3.5196380615234375, 0, 0, 3.540771484375, 0.2,17.8) ">
<use xlink:href="#BDM_250x250_psd_Asset_ManagedWiFi_Awareness_DM7_4_Get_a_better__understanding_of__your_customer_s_needs__0_Layer0_0_MEMBER_15_FILL"/>
</g>

<g transform="matrix( 3.5196380615234375, 0, 0, 3.540771484375, 0.2,17.8) ">
<use xlink:href="#BDM_250x250_psd_Asset_ManagedWiFi_Awareness_DM7_4_Get_a_better__understanding_of__your_customer_s_needs__0_Layer0_0_MEMBER_16_FILL"/>
</g>

<g transform="matrix( 3.5196380615234375, 0, 0, 3.540771484375, 0.2,17.8) ">
<use xlink:href="#BDM_250x250_psd_Asset_ManagedWiFi_Awareness_DM7_4_Get_a_better__understanding_of__your_customer_s_needs__0_Layer0_0_MEMBER_17_FILL"/>
</g>

<g transform="matrix( 3.5196380615234375, 0, 0, 3.540771484375, 0.2,17.8) ">
<use xlink:href="#BDM_250x250_psd_Asset_ManagedWiFi_Awareness_DM7_4_Get_a_better__understanding_of__your_customer_s_needs__0_Layer0_0_MEMBER_18_FILL"/>
</g>

<g transform="matrix( 3.5196380615234375, 0, 0, 3.540771484375, 0.2,17.8) ">
<use xlink:href="#BDM_250x250_psd_Asset_ManagedWiFi_Awareness_DM7_4_Get_a_better__understanding_of__your_customer_s_needs__0_Layer0_0_MEMBER_19_FILL"/>
</g>

<g transform="matrix( 3.5196380615234375, 0, 0, 3.540771484375, 0.2,17.8) ">
<use xlink:href="#BDM_250x250_psd_Asset_ManagedWiFi_Awareness_DM7_4_Get_a_better__understanding_of__your_customer_s_needs__0_Layer0_0_MEMBER_20_FILL"/>
</g>

<g transform="matrix( 3.5196380615234375, 0, 0, 3.540771484375, 0.2,17.8) ">
<use xlink:href="#BDM_250x250_psd_Asset_ManagedWiFi_Awareness_DM7_4_Get_a_better__understanding_of__your_customer_s_needs__0_Layer0_0_MEMBER_21_FILL"/>
</g>

<g transform="matrix( 3.5196380615234375, 0, 0, 3.540771484375, 0.2,17.8) ">
<use xlink:href="#BDM_250x250_psd_Asset_ManagedWiFi_Awareness_DM7_4_Get_a_better__understanding_of__your_customer_s_needs__0_Layer0_0_MEMBER_22_FILL"/>
</g>

<g transform="matrix( 3.5196380615234375, 0, 0, 3.540771484375, 0.2,17.8) ">
<use xlink:href="#BDM_250x250_psd_Asset_ManagedWiFi_Awareness_DM7_4_Get_a_better__understanding_of__your_customer_s_needs__0_Layer0_0_MEMBER_23_FILL"/>
</g>

<g transform="matrix( 3.5196380615234375, 0, 0, 3.540771484375, 0.2,17.8) ">
<use xlink:href="#BDM_250x250_psd_Asset_ManagedWiFi_Awareness_DM7_4_Get_a_better__understanding_of__your_customer_s_needs__0_Layer0_0_MEMBER_24_FILL"/>
</g>

<g transform="matrix( 3.5196380615234375, 0, 0, 3.540771484375, 0.2,17.8) ">
<use xlink:href="#BDM_250x250_psd_Asset_ManagedWiFi_Awareness_DM7_4_Get_a_better__understanding_of__your_customer_s_needs__0_Layer0_0_MEMBER_25_FILL"/>
</g>

<g transform="matrix( 3.5196380615234375, 0, 0, 3.540771484375, 0.2,17.8) ">
<use xlink:href="#BDM_250x250_psd_Asset_ManagedWiFi_Awareness_DM7_4_Get_a_better__understanding_of__your_customer_s_needs__0_Layer0_0_MEMBER_26_FILL"/>
</g>

<g transform="matrix( 3.5196380615234375, 0, 0, 3.540771484375, 0.2,17.8) ">
<use xlink:href="#BDM_250x250_psd_Asset_ManagedWiFi_Awareness_DM7_4_Get_a_better__understanding_of__your_customer_s_needs__0_Layer0_0_MEMBER_27_FILL"/>
</g>

<g transform="matrix( 3.5196380615234375, 0, 0, 3.540771484375, 0.2,17.8) ">
<use xlink:href="#BDM_250x250_psd_Asset_ManagedWiFi_Awareness_DM7_4_Get_a_better__understanding_of__your_customer_s_needs__0_Layer0_0_MEMBER_28_FILL"/>
</g>

<g transform="matrix( 3.5196380615234375, 0, 0, 3.540771484375, 0.2,17.8) ">
<use xlink:href="#BDM_250x250_psd_Asset_ManagedWiFi_Awareness_DM7_4_Get_a_better__understanding_of__your_customer_s_needs__0_Layer0_0_MEMBER_29_FILL"/>
</g>

<g transform="matrix( 3.5196380615234375, 0, 0, 3.540771484375, 0.2,17.8) ">
<use xlink:href="#BDM_250x250_psd_Asset_ManagedWiFi_Awareness_DM7_4_Get_a_better__understanding_of__your_customer_s_needs__0_Layer0_0_MEMBER_30_FILL"/>
</g>

<g transform="matrix( 3.5196380615234375, 0, 0, 3.540771484375, 0.2,17.8) ">
<use xlink:href="#BDM_250x250_psd_Asset_ManagedWiFi_Awareness_DM7_4_Get_a_better__understanding_of__your_customer_s_needs__0_Layer0_0_MEMBER_31_FILL"/>
</g>

<g transform="matrix( 3.5196380615234375, 0, 0, 3.540771484375, 0.2,17.8) ">
<use xlink:href="#BDM_250x250_psd_Asset_ManagedWiFi_Awareness_DM7_4_Get_a_better__understanding_of__your_customer_s_needs__0_Layer0_0_MEMBER_32_FILL"/>
</g>

<g transform="matrix( 3.5196380615234375, 0, 0, 3.540771484375, 0.2,17.8) ">
<use xlink:href="#BDM_250x250_psd_Asset_ManagedWiFi_Awareness_DM7_4_Get_a_better__understanding_of__your_customer_s_needs__0_Layer0_0_MEMBER_33_FILL"/>
</g>

<g transform="matrix( 3.5196380615234375, 0, 0, 3.540771484375, 0.2,17.8) ">
<use xlink:href="#BDM_250x250_psd_Asset_ManagedWiFi_Awareness_DM7_4_Get_a_better__understanding_of__your_customer_s_needs__0_Layer0_0_MEMBER_34_FILL"/>
</g>

<g transform="matrix( 3.5196380615234375, 0, 0, 3.540771484375, 0.2,17.8) ">
<use xlink:href="#BDM_250x250_psd_Asset_ManagedWiFi_Awareness_DM7_4_Get_a_better__understanding_of__your_customer_s_needs__0_Layer0_0_MEMBER_35_FILL"/>
</g>

<g transform="matrix( 3.5196380615234375, 0, 0, 3.540771484375, 0.2,17.8) ">
<use xlink:href="#BDM_250x250_psd_Asset_ManagedWiFi_Awareness_DM7_4_Get_a_better__understanding_of__your_customer_s_needs__0_Layer0_0_MEMBER_36_FILL"/>
</g>

<g transform="matrix( 3.5196380615234375, 0, 0, 3.540771484375, 0.2,17.8) ">
<use xlink:href="#BDM_250x250_psd_Asset_ManagedWiFi_Awareness_DM7_4_Get_a_better__understanding_of__your_customer_s_needs__0_Layer0_0_MEMBER_37_FILL"/>
</g>

<g transform="matrix( 3.5196380615234375, 0, 0, 3.540771484375, 0.2,17.8) ">
<use xlink:href="#BDM_250x250_psd_Asset_ManagedWiFi_Awareness_DM7_4_Get_a_better__understanding_of__your_customer_s_needs__0_Layer0_0_MEMBER_38_FILL"/>
</g>

<g transform="matrix( 3.5196380615234375, 0, 0, 3.540771484375, 0.2,17.8) ">
<use xlink:href="#BDM_250x250_psd_Asset_ManagedWiFi_Awareness_DM7_4_Get_a_better__understanding_of__your_customer_s_needs__0_Layer0_0_MEMBER_39_FILL"/>
</g>

<g transform="matrix( 3.5196380615234375, 0, 0, 3.540771484375, 0.2,17.8) ">
<use xlink:href="#BDM_250x250_psd_Asset_ManagedWiFi_Awareness_DM7_4_Get_a_better__understanding_of__your_customer_s_needs__0_Layer0_0_MEMBER_40_FILL"/>
</g>

<g transform="matrix( 3.5196380615234375, 0, 0, 3.540771484375, 0.2,17.8) ">
<use xlink:href="#BDM_250x250_psd_Asset_ManagedWiFi_Awareness_DM7_4_Get_a_better__understanding_of__your_customer_s_needs__0_Layer0_0_MEMBER_41_FILL"/>
</g>

<g transform="matrix( 3.5196380615234375, 0, 0, 3.540771484375, 0.2,17.8) ">
<use xlink:href="#BDM_250x250_psd_Asset_ManagedWiFi_Awareness_DM7_4_Get_a_better__understanding_of__your_customer_s_needs__0_Layer0_0_MEMBER_42_FILL"/>
</g>

<g transform="matrix( 3.5196380615234375, 0, 0, 3.540771484375, 0.2,17.8) ">
<use xlink:href="#BDM_250x250_psd_Asset_ManagedWiFi_Awareness_DM7_4_Get_a_better__understanding_of__your_customer_s_needs__0_Layer0_0_MEMBER_43_FILL"/>
</g>

<g transform="matrix( 3.5196380615234375, 0, 0, 3.540771484375, 0.2,17.8) ">
<use xlink:href="#BDM_250x250_psd_Asset_ManagedWiFi_Awareness_DM7_4_Get_a_better__understanding_of__your_customer_s_needs__0_Layer0_0_MEMBER_44_FILL"/>
</g>
</g>

<g transform="matrix( 1, 0, 0, 1, 46,115) ">
<g transform="matrix( 1, 0, 0, 1, 35,12) ">
<g transform="matrix( 1.408447265625, 0, 0, 1.408447265625, 0.5,13) ">
<use xlink:href="#BDM_250x250_psd_Asset_ManagedWiFi_Awareness_DM7_4_CTA_copy_6_Watch_the_video___0_Layer0_0_MEMBER_0_FILL"/>
</g>

<g transform="matrix( 1.408447265625, 0, 0, 1.408447265625, 0.5,13) ">
<use xlink:href="#BDM_250x250_psd_Asset_ManagedWiFi_Awareness_DM7_4_CTA_copy_6_Watch_the_video___0_Layer0_0_MEMBER_1_FILL"/>
</g>

<g transform="matrix( 1.408447265625, 0, 0, 1.408447265625, 0.5,13) ">
<use xlink:href="#BDM_250x250_psd_Asset_ManagedWiFi_Awareness_DM7_4_CTA_copy_6_Watch_the_video___0_Layer0_0_MEMBER_2_FILL"/>
</g>

<g transform="matrix( 1.408447265625, 0, 0, 1.408447265625, 0.5,13) ">
<use xlink:href="#BDM_250x250_psd_Asset_ManagedWiFi_Awareness_DM7_4_CTA_copy_6_Watch_the_video___0_Layer0_0_MEMBER_3_FILL"/>
</g>

<g transform="matrix( 1.408447265625, 0, 0, 1.408447265625, 0.5,13) ">
<use xlink:href="#BDM_250x250_psd_Asset_ManagedWiFi_Awareness_DM7_4_CTA_copy_6_Watch_the_video___0_Layer0_0_MEMBER_4_FILL"/>
</g>

<g transform="matrix( 1.408447265625, 0, 0, 1.408447265625, 0.5,13) ">
<use xlink:href="#BDM_250x250_psd_Asset_ManagedWiFi_Awareness_DM7_4_CTA_copy_6_Watch_the_video___0_Layer0_0_MEMBER_5_FILL"/>
</g>

<g transform="matrix( 1.408447265625, 0, 0, 1.408447265625, 0.5,13) ">
<use xlink:href="#BDM_250x250_psd_Asset_ManagedWiFi_Awareness_DM7_4_CTA_copy_6_Watch_the_video___0_Layer0_0_MEMBER_6_FILL"/>
</g>

<g transform="matrix( 1.408447265625, 0, 0, 1.408447265625, 0.5,13) ">
<use xlink:href="#BDM_250x250_psd_Asset_ManagedWiFi_Awareness_DM7_4_CTA_copy_6_Watch_the_video___0_Layer0_0_MEMBER_7_FILL"/>
</g>

<g transform="matrix( 1.408447265625, 0, 0, 1.408447265625, 0.5,13) ">
<use xlink:href="#BDM_250x250_psd_Asset_ManagedWiFi_Awareness_DM7_4_CTA_copy_6_Watch_the_video___0_Layer0_0_MEMBER_8_FILL"/>
</g>

<g transform="matrix( 1.408447265625, 0, 0, 1.408447265625, 0.5,13) ">
<use xlink:href="#BDM_250x250_psd_Asset_ManagedWiFi_Awareness_DM7_4_CTA_copy_6_Watch_the_video___0_Layer0_0_MEMBER_9_FILL"/>
</g>

<g transform="matrix( 1.408447265625, 0, 0, 1.408447265625, 0.5,13) ">
<use xlink:href="#BDM_250x250_psd_Asset_ManagedWiFi_Awareness_DM7_4_CTA_copy_6_Watch_the_video___0_Layer0_0_MEMBER_10_FILL"/>
</g>

<g transform="matrix( 1.408447265625, 0, 0, 1.408447265625, 0.5,13) ">
<use xlink:href="#BDM_250x250_psd_Asset_ManagedWiFi_Awareness_DM7_4_CTA_copy_6_Watch_the_video___0_Layer0_0_MEMBER_11_FILL"/>
</g>

<g transform="matrix( 1.408447265625, 0, 0, 1.408447265625, 0.5,13) ">
<use xlink:href="#BDM_250x250_psd_Asset_ManagedWiFi_Awareness_DM7_4_CTA_copy_6_Watch_the_video___0_Layer0_0_MEMBER_12_FILL"/>
</g>

<g transform="matrix( 1.408447265625, 0, 0, 1.408447265625, 0.5,13) ">
<use xlink:href="#BDM_250x250_psd_Asset_ManagedWiFi_Awareness_DM7_4_CTA_copy_6_Watch_the_video___0_Layer0_0_MEMBER_13_FILL"/>
</g>
</g>
</g>

<g transform="matrix( 1, 0, 0, 1, 31,182) ">
<g transform="matrix( 1, 0, 0, 1, 0,0) ">
<g transform="matrix( 1.2502288818359375, 0, 0, 1.2502288818359375, -0.7,10) ">
<use xlink:href="#BDM_250x250_psd_Asset_ManagedWiFi_Awareness_DM7_4_footer_copy_5_Do_more_with_Wi_Fi_as_a_Service__0_Layer0_0_MEMBER_0_FILL"/>
</g>

<g transform="matrix( 1.2502288818359375, 0, 0, 1.2502288818359375, -0.7,10) ">
<use xlink:href="#BDM_250x250_psd_Asset_ManagedWiFi_Awareness_DM7_4_footer_copy_5_Do_more_with_Wi_Fi_as_a_Service__0_Layer0_0_MEMBER_1_FILL"/>
</g>

<g transform="matrix( 1.2502288818359375, 0, 0, 1.2502288818359375, -0.7,10) ">
<use xlink:href="#BDM_250x250_psd_Asset_ManagedWiFi_Awareness_DM7_4_footer_copy_5_Do_more_with_Wi_Fi_as_a_Service__0_Layer0_0_MEMBER_2_FILL"/>
</g>

<g transform="matrix( 1.2502288818359375, 0, 0, 1.2502288818359375, -0.7,10) ">
<use xlink:href="#BDM_250x250_psd_Asset_ManagedWiFi_Awareness_DM7_4_footer_copy_5_Do_more_with_Wi_Fi_as_a_Service__0_Layer0_0_MEMBER_3_FILL"/>
</g>

<g transform="matrix( 1.2502288818359375, 0, 0, 1.2502288818359375, -0.7,10) ">
<use xlink:href="#BDM_250x250_psd_Asset_ManagedWiFi_Awareness_DM7_4_footer_copy_5_Do_more_with_Wi_Fi_as_a_Service__0_Layer0_0_MEMBER_4_FILL"/>
</g>

<g transform="matrix( 1.2502288818359375, 0, 0, 1.2502288818359375, -0.7,10) ">
<use xlink:href="#BDM_250x250_psd_Asset_ManagedWiFi_Awareness_DM7_4_footer_copy_5_Do_more_with_Wi_Fi_as_a_Service__0_Layer0_0_MEMBER_5_FILL"/>
</g>

<g transform="matrix( 1.2502288818359375, 0, 0, 1.2502288818359375, -0.7,10) ">
<use xlink:href="#BDM_250x250_psd_Asset_ManagedWiFi_Awareness_DM7_4_footer_copy_5_Do_more_with_Wi_Fi_as_a_Service__0_Layer0_0_MEMBER_6_FILL"/>
</g>

<g transform="matrix( 1.2502288818359375, 0, 0, 1.2502288818359375, -0.7,10) ">
<use xlink:href="#BDM_250x250_psd_Asset_ManagedWiFi_Awareness_DM7_4_footer_copy_5_Do_more_with_Wi_Fi_as_a_Service__0_Layer0_0_MEMBER_7_FILL"/>
</g>

<g transform="matrix( 1.2502288818359375, 0, 0, 1.2502288818359375, -0.7,10) ">
<use xlink:href="#BDM_250x250_psd_Asset_ManagedWiFi_Awareness_DM7_4_footer_copy_5_Do_more_with_Wi_Fi_as_a_Service__0_Layer0_0_MEMBER_8_FILL"/>
</g>

<g transform="matrix( 1.2502288818359375, 0, 0, 1.2502288818359375, -0.7,10) ">
<use xlink:href="#BDM_250x250_psd_Asset_ManagedWiFi_Awareness_DM7_4_footer_copy_5_Do_more_with_Wi_Fi_as_a_Service__0_Layer0_0_MEMBER_9_FILL"/>
</g>

<g transform="matrix( 1.2502288818359375, 0, 0, 1.2502288818359375, -0.7,10) ">
<use xlink:href="#BDM_250x250_psd_Asset_ManagedWiFi_Awareness_DM7_4_footer_copy_5_Do_more_with_Wi_Fi_as_a_Service__0_Layer0_0_MEMBER_10_FILL"/>
</g>

<g transform="matrix( 1.2502288818359375, 0, 0, 1.2502288818359375, -0.7,10) ">
<use xlink:href="#BDM_250x250_psd_Asset_ManagedWiFi_Awareness_DM7_4_footer_copy_5_Do_more_with_Wi_Fi_as_a_Service__0_Layer0_0_MEMBER_11_FILL"/>
</g>

<g transform="matrix( 1.2502288818359375, 0, 0, 1.2502288818359375, -0.7,10) ">
<use xlink:href="#BDM_250x250_psd_Asset_ManagedWiFi_Awareness_DM7_4_footer_copy_5_Do_more_with_Wi_Fi_as_a_Service__0_Layer0_0_MEMBER_12_FILL"/>
</g>

<g transform="matrix( 1.2502288818359375, 0, 0, 1.2502288818359375, -0.7,10) ">
<use xlink:href="#BDM_250x250_psd_Asset_ManagedWiFi_Awareness_DM7_4_footer_copy_5_Do_more_with_Wi_Fi_as_a_Service__0_Layer0_0_MEMBER_13_FILL"/>
</g>

<g transform="matrix( 1.2502288818359375, 0, 0, 1.2502288818359375, -0.7,10) ">
<use xlink:href="#BDM_250x250_psd_Asset_ManagedWiFi_Awareness_DM7_4_footer_copy_5_Do_more_with_Wi_Fi_as_a_Service__0_Layer0_0_MEMBER_14_FILL"/>
</g>

<g transform="matrix( 1.2502288818359375, 0, 0, 1.2502288818359375, -0.7,10) ">
<use xlink:href="#BDM_250x250_psd_Asset_ManagedWiFi_Awareness_DM7_4_footer_copy_5_Do_more_with_Wi_Fi_as_a_Service__0_Layer0_0_MEMBER_15_FILL"/>
</g>

<g transform="matrix( 1.2502288818359375, 0, 0, 1.2502288818359375, -0.7,10) ">
<use xlink:href="#BDM_250x250_psd_Asset_ManagedWiFi_Awareness_DM7_4_footer_copy_5_Do_more_with_Wi_Fi_as_a_Service__0_Layer0_0_MEMBER_16_FILL"/>
</g>

<g transform="matrix( 1.2502288818359375, 0, 0, 1.2502288818359375, -0.7,10) ">
<use xlink:href="#BDM_250x250_psd_Asset_ManagedWiFi_Awareness_DM7_4_footer_copy_5_Do_more_with_Wi_Fi_as_a_Service__0_Layer0_0_MEMBER_17_FILL"/>
</g>

<g transform="matrix( 1.2502288818359375, 0, 0, 1.2502288818359375, -0.7,10) ">
<use xlink:href="#BDM_250x250_psd_Asset_ManagedWiFi_Awareness_DM7_4_footer_copy_5_Do_more_with_Wi_Fi_as_a_Service__0_Layer0_0_MEMBER_18_FILL"/>
</g>

<g transform="matrix( 1.2502288818359375, 0, 0, 1.2502288818359375, -0.7,10) ">
<use xlink:href="#BDM_250x250_psd_Asset_ManagedWiFi_Awareness_DM7_4_footer_copy_5_Do_more_with_Wi_Fi_as_a_Service__0_Layer0_0_MEMBER_19_FILL"/>
</g>

<g transform="matrix( 1.2502288818359375, 0, 0, 1.2502288818359375, -0.7,10) ">
<use xlink:href="#BDM_250x250_psd_Asset_ManagedWiFi_Awareness_DM7_4_footer_copy_5_Do_more_with_Wi_Fi_as_a_Service__0_Layer0_0_MEMBER_20_FILL"/>
</g>

<g transform="matrix( 1.2502288818359375, 0, 0, 1.2502288818359375, -0.7,10) ">
<use xlink:href="#BDM_250x250_psd_Asset_ManagedWiFi_Awareness_DM7_4_footer_copy_5_Do_more_with_Wi_Fi_as_a_Service__0_Layer0_0_MEMBER_21_FILL"/>
</g>

<g transform="matrix( 1.2502288818359375, 0, 0, 1.2502288818359375, -0.7,10) ">
<use xlink:href="#BDM_250x250_psd_Asset_ManagedWiFi_Awareness_DM7_4_footer_copy_5_Do_more_with_Wi_Fi_as_a_Service__0_Layer0_0_MEMBER_22_FILL"/>
</g>

<g transform="matrix( 1.2502288818359375, 0, 0, 1.2502288818359375, -0.7,10) ">
<use xlink:href="#BDM_250x250_psd_Asset_ManagedWiFi_Awareness_DM7_4_footer_copy_5_Do_more_with_Wi_Fi_as_a_Service__0_Layer0_0_MEMBER_23_FILL"/>
</g>

<g transform="matrix( 1.2502288818359375, 0, 0, 1.2502288818359375, -0.7,10) ">
<use xlink:href="#BDM_250x250_psd_Asset_ManagedWiFi_Awareness_DM7_4_footer_copy_5_Do_more_with_Wi_Fi_as_a_Service__0_Layer0_0_MEMBER_24_FILL"/>
</g>

<g transform="matrix( 1.2502288818359375, 0, 0, 1.2502288818359375, -0.7,10) ">
<use xlink:href="#BDM_250x250_psd_Asset_ManagedWiFi_Awareness_DM7_4_footer_copy_5_Do_more_with_Wi_Fi_as_a_Service__0_Layer0_0_MEMBER_25_FILL"/>
</g>
</g>
</g>
</g>
</g>
</svg>
