
<svg xmlns="http://www.w3.org/2000/svg" version="1.1" xmlns:xlink="http://www.w3.org/1999/xlink" preserveAspectRatio="none" x="0px" y="0px" width="300px" height="600px" viewBox="0 0 300 600">
<defs>
<g id="IT_300x600_FR_psd_Asset_V7_2_Rogers_est_le_seul__0_Layer0_0_MEMBER_0_FILL">
<path fill="#D82C26" stroke="none" d="
M 6.5 -6.45
Q 6.5 -7.7 5.7 -8.2 4.85 -8.75 3.6 -8.75
L 1.2 -8.75 1.2 0 1.95 0 1.95 -3.85 3.75 -3.85 6.1 0 6.95 0 4.5 -4
Q 5.35 -4.15 5.9 -4.8 6.5 -5.45 6.5 -6.45
M 5.15 -7.75
Q 5.8 -7.25 5.8 -6.45 5.8 -5.5 5.15 -5 4.5 -4.45 3.55 -4.45
L 1.95 -4.45 1.95 -8.15 3.45 -8.15
Q 4.45 -8.15 5.15 -7.75 Z"/>
</g>

<g id="IT_300x600_FR_psd_Asset_V7_2_Rogers_est_le_seul__0_Layer0_0_MEMBER_1_FILL">
<path fill="#D82C26" stroke="none" d="
M 7.85 -1.3
Q 8.2 -0.65 8.95 -0.2 9.6 0.15 10.5 0.15 11.4 0.15 12.1 -0.2 12.9 -0.7 13.2 -1.3 13.6 -2.1 13.6 -2.9 13.6 -3.8 13.2 -4.5 12.9 -5.1 12.1 -5.6 11.4 -5.95 10.5 -5.95 9.6 -5.95 8.95 -5.6 8.2 -5.15 7.85 -4.5 7.45 -3.9 7.45 -2.9 7.45 -1.95 7.85 -1.3
M 8.45 -4.15
Q 8.8 -4.75 9.25 -5 9.8 -5.35 10.5 -5.35 11.25 -5.35 11.75 -5 12.3 -4.7 12.6 -4.15 12.85 -3.5 12.85 -2.9 12.85 -2.3 12.6 -1.65 12.3 -1.1 11.75 -0.8 11.25 -0.45 10.5 -0.45 9.8 -0.45 9.25 -0.8 8.8 -1.05 8.45 -1.65 8.15 -2.25 8.15 -2.9 8.15 -3.55 8.45 -4.15 Z"/>
</g>

<g id="IT_300x600_FR_psd_Asset_V7_2_Rogers_est_le_seul__0_Layer0_0_MEMBER_2_FILL">
<path fill="#D82C26" stroke="none" d="
M 14.5 -2.9
Q 14.5 -2 14.85 -1.35 15.25 -0.65 15.9 -0.3 16.45 0.1 17.4 0.1 18.2 0.1 18.75 -0.25 19.35 -0.6 19.75 -1.3
L 19.75 -0.05
Q 19.75 1.05 19.2 1.75 18.6 2.4 17.35 2.4 16.7 2.4 16.1 2.2 15.4 1.95 15 1.65
L 14.85 2.35 16.05 2.85
Q 16.6 3.05 17.4 3.05 19 3.05 19.75 2.2 20.5 1.3 20.5 -0.1
L 20.5 -5.8 19.85 -5.8 19.8 -4.5 19.75 -4.5
Q 19.3 -5.3 18.75 -5.6 18.2 -5.95 17.4 -5.95 16.6 -5.95 15.9 -5.55 15.25 -5.2 14.85 -4.45 14.5 -3.8 14.5 -2.9
M 18.65 -5
Q 19.2 -4.7 19.5 -4.15 19.8 -3.55 19.8 -2.9 19.8 -2.2 19.5 -1.7 19.25 -1.25 18.65 -0.8 18.15 -0.5 17.5 -0.5 16.85 -0.5 16.3 -0.8 15.8 -1.15 15.5 -1.7 15.2 -2.2 15.2 -2.9 15.2 -3.55 15.5 -4.15 15.85 -4.75 16.3 -5 16.8 -5.35 17.5 -5.35 18.15 -5.35 18.65 -5 Z"/>
</g>

<g id="IT_300x600_FR_psd_Asset_V7_2_Rogers_est_le_seul__0_Layer0_0_MEMBER_3_FILL">
<path fill="#D82C26" stroke="none" d="
M 24.6 -5.95
Q 23.7 -5.95 23.15 -5.6 22.45 -5.15 22.1 -4.5 21.75 -3.85 21.75 -2.95 21.75 -2 22.1 -1.3 22.45 -0.65 23.15 -0.2 23.8 0.15 24.7 0.15 26.1 0.15 27 -0.55
L 26.9 -1.15 25.95 -0.65
Q 25.3 -0.4 24.75 -0.4 24.15 -0.4 23.55 -0.75 23.1 -1 22.75 -1.6 22.45 -2.1 22.45 -2.8
L 27.35 -2.8 27.35 -3.1
Q 27.35 -3.85 27.05 -4.55 26.65 -5.25 26.1 -5.6 25.45 -5.95 24.6 -5.95
M 23.45 -5.05
Q 23.95 -5.4 24.6 -5.4 25.45 -5.4 26.1 -4.85 26.65 -4.2 26.65 -3.3
L 22.45 -3.3
Q 22.45 -3.75 22.7 -4.25 23 -4.75 23.45 -5.05 Z"/>
</g>

<g id="IT_300x600_FR_psd_Asset_V7_2_Rogers_est_le_seul__0_Layer0_0_MEMBER_4_FILL">
<path fill="#D82C26" stroke="none" d="
M 29.2 -5.8
L 28.5 -5.8 28.6 0 29.3 0 29.3 -2.9
Q 29.3 -3.9 29.75 -4.6 30.15 -5.3 30.95 -5.3
L 31.45 -5.25 31.6 -5.85 31 -5.95
Q 30.4 -5.95 30 -5.6 29.5 -5.2 29.3 -4.55
L 29.2 -5.8 Z"/>
</g>

<g id="IT_300x600_FR_psd_Asset_V7_2_Rogers_est_le_seul__0_Layer0_0_MEMBER_5_FILL">
<path fill="#D82C26" stroke="none" d="
M 34 -5.4
Q 34.5 -5.4 34.85 -5.25 35.4 -4.9 35.5 -4.8
L 35.85 -5.35 35 -5.8
Q 34.55 -5.95 34 -5.95 33.5 -5.95 33.05 -5.8 32.55 -5.5 32.35 -5.25 32.1 -4.95 32.1 -4.35 32.1 -3.7 32.5 -3.35 33 -2.95 33.7 -2.75 34.65 -2.45 34.95 -2.2 35.3 -1.9 35.3 -1.5 35.3 -1 34.95 -0.7 34.6 -0.4 34 -0.4 32.9 -0.4 32.1 -1.1
L 31.95 -0.5
Q 32.25 -0.25 32.85 0 33.45 0.15 34.05 0.15 34.6 0.15 35 -0.05 35.4 -0.2 35.75 -0.6 36 -1 36 -1.5 36 -2.15 35.55 -2.55 35.1 -3 34.25 -3.2 33.45 -3.5 33.1 -3.75 32.75 -3.95 32.75 -4.4 32.75 -4.9 33.1 -5.15 33.5 -5.4 34 -5.4 Z"/>
</g>

<g id="IT_300x600_FR_psd_Asset_V7_2_Rogers_est_le_seul__0_Layer0_0_MEMBER_6_FILL">
<path fill="#D82C26" stroke="none" d="
M 39.4 -2.95
Q 39.4 -2.1 39.8 -1.3 40.15 -0.65 40.85 -0.2 41.5 0.15 42.4 0.15 43.8 0.15 44.7 -0.55
L 44.55 -1.15
Q 44.25 -0.9 43.65 -0.65 43 -0.4 42.45 -0.4 41.85 -0.4 41.25 -0.75 40.8 -1 40.45 -1.6 40.2 -2.05 40.1 -2.8
L 45.05 -2.8 45.05 -3.1
Q 45.05 -3.9 44.7 -4.55 44.4 -5.25 43.75 -5.6 43.2 -5.95 42.3 -5.95 41.45 -5.95 40.8 -5.6 40.15 -5.1 39.8 -4.5 39.4 -3.8 39.4 -2.95
M 40.15 -3.3
Q 40.15 -3.75 40.4 -4.25 40.7 -4.8 41.15 -5.05 41.55 -5.4 42.3 -5.4 43.2 -5.4 43.75 -4.85 44.35 -4.25 44.35 -3.3
L 40.15 -3.3 Z"/>
</g>

<g id="IT_300x600_FR_psd_Asset_V7_2_Rogers_est_le_seul__0_Layer0_0_MEMBER_7_FILL">
<path fill="#D82C26" stroke="none" d="
M 49.7 -5.35
L 48.9 -5.8 47.85 -5.95
Q 47.35 -5.95 46.9 -5.8 46.4 -5.5 46.2 -5.25 45.95 -4.95 45.95 -4.35 45.95 -3.7 46.35 -3.35 46.85 -2.95 47.55 -2.75 48.5 -2.45 48.8 -2.2 49.15 -1.9 49.15 -1.5 49.15 -1 48.8 -0.7 48.45 -0.4 47.85 -0.4 46.8 -0.4 45.95 -1.1
L 45.8 -0.5
Q 46.1 -0.25 46.7 0 47.3 0.15 47.9 0.15 48.45 0.15 48.85 -0.05 49.25 -0.2 49.6 -0.6 49.85 -1 49.85 -1.5 49.85 -2.15 49.45 -2.55 48.9 -3 48.1 -3.2 47.3 -3.5 46.95 -3.75 46.6 -3.95 46.6 -4.4 46.6 -4.9 46.95 -5.15 47.35 -5.4 47.85 -5.4 48.35 -5.4 48.7 -5.25 49.35 -4.85 49.4 -4.8
L 49.7 -5.35 Z"/>
</g>

<g id="IT_300x600_FR_psd_Asset_V7_2_Rogers_est_le_seul__0_Layer0_0_MEMBER_8_FILL">
<path fill="#D82C26" stroke="none" d="
M 50.5 -5.8
L 50.35 -5.2 51.45 -5.2 51.45 -1.4
Q 51.45 -0.65 51.8 -0.25 52.15 0.1 52.8 0.1
L 53.45 0.05 54.05 -0.2 53.95 -0.75
Q 53.45 -0.45 53 -0.45 52.65 -0.45 52.4 -0.7 52.15 -1.05 52.15 -1.5
L 52.15 -5.2 53.65 -5.2 53.8 -5.8 52.15 -5.8 52.15 -7.45 51.45 -7.15 51.45 -5.8 50.5 -5.8 Z"/>
</g>

<g id="IT_300x600_FR_psd_Asset_V7_2_Rogers_est_le_seul__0_Layer0_0_MEMBER_9_FILL">
<path fill="#D82C26" stroke="none" d="
M 57.45 -1.3
Q 57.45 -0.65 57.7 -0.35 57.95 0 58.35 0.15
L 58.7 -0.45
Q 58.4 -0.6 58.3 -0.8 58.15 -1 58.15 -1.45
L 58.15 -9.4 57.45 -9.3 57.45 -1.3 Z"/>
</g>

<g id="IT_300x600_FR_psd_Asset_V7_2_Rogers_est_le_seul__0_Layer0_0_MEMBER_10_FILL">
<path fill="#D82C26" stroke="none" d="
M 59.45 -2.95
Q 59.45 -1.95 59.85 -1.3 60.2 -0.65 60.9 -0.2 61.55 0.15 62.4 0.15 63.85 0.15 64.7 -0.55
L 64.6 -1.15
Q 64.25 -0.9 63.65 -0.65 63.05 -0.4 62.45 -0.4 61.9 -0.4 61.3 -0.75 60.75 -1.05 60.45 -1.6 60.15 -2.1 60.15 -2.8
L 65.05 -2.8 65.05 -3.1
Q 65.05 -3.85 64.75 -4.55 64.45 -5.2 63.8 -5.6 63.25 -5.95 62.3 -5.95 61.5 -5.95 60.85 -5.6 60.15 -5.15 59.8 -4.5 59.45 -3.85 59.45 -2.95
M 60.15 -3.3
Q 60.25 -3.95 60.45 -4.25 60.65 -4.7 61.15 -5.05 61.65 -5.4 62.3 -5.4 63.15 -5.4 63.8 -4.85 64.35 -4.2 64.35 -3.3
L 60.15 -3.3 Z"/>
</g>

<g id="IT_300x600_FR_psd_Asset_V7_2_Rogers_est_le_seul__0_Layer0_0_MEMBER_11_FILL">
<path fill="#D82C26" stroke="none" d="
M 68.65 -4.35
Q 68.65 -3.75 69.05 -3.35 69.7 -2.9 70.3 -2.75 71.25 -2.4 71.5 -2.2 71.9 -1.9 71.9 -1.5 71.9 -1 71.5 -0.7 71.15 -0.4 70.6 -0.4 69.5 -0.4 68.65 -1.1
L 68.55 -0.5
Q 68.8 -0.25 69.45 0
L 70.6 0.15
Q 71.15 0.15 71.55 -0.05 71.95 -0.2 72.3 -0.6 72.6 -0.95 72.6 -1.5 72.6 -2.15 72.15 -2.55 71.6 -3 70.8 -3.2 70 -3.5 69.65 -3.75 69.35 -3.95 69.35 -4.4 69.35 -4.95 69.7 -5.15 70.1 -5.4 70.6 -5.4 71.05 -5.4 71.4 -5.25 72.05 -4.85 72.1 -4.8
L 72.4 -5.35 71.6 -5.8
Q 71.1 -5.95 70.55 -5.95 70.1 -5.95 69.65 -5.8 69.1 -5.55 68.95 -5.25 68.65 -4.85 68.65 -4.35 Z"/>
</g>

<g id="IT_300x600_FR_psd_Asset_V7_2_Rogers_est_le_seul__0_Layer0_0_MEMBER_12_FILL">
<path fill="#D82C26" stroke="none" d="
M 73.75 -1.3
Q 74.1 -0.65 74.8 -0.2 75.45 0.15 76.35 0.15 77.75 0.15 78.65 -0.55
L 78.5 -1.15
Q 78.2 -0.9 77.6 -0.65 76.95 -0.4 76.4 -0.4 75.8 -0.4 75.2 -0.75 74.75 -1 74.4 -1.6 74.1 -2.1 74.1 -2.8
L 79 -2.8 79 -3.1
Q 79 -3.9 78.65 -4.55 78.35 -5.2 77.75 -5.6 77.1 -5.95 76.25 -5.95 75.35 -5.95 74.8 -5.6 74.1 -5.15 73.75 -4.5 73.35 -3.8 73.35 -2.95 73.35 -2.1 73.75 -1.3
M 74.35 -4.25
Q 74.65 -4.75 75.1 -5.05 75.5 -5.4 76.25 -5.4 77.15 -5.4 77.7 -4.85 78.3 -4.25 78.3 -3.3
L 74.1 -3.3
Q 74.1 -3.75 74.35 -4.25 Z"/>
</g>

<g id="IT_300x600_FR_psd_Asset_V7_2_Rogers_est_le_seul__0_Layer0_0_MEMBER_13_FILL">
<path fill="#D82C26" stroke="none" d="
M 80.15 -2.25
Q 80.15 -1.2 80.65 -0.55 81.15 0.15 82.25 0.15 83 0.15 83.55 -0.2 84.15 -0.65 84.35 -1.25
L 84.5 0 85.2 0 85.1 -0.65 85.1 -5.8 84.35 -5.8 84.35 -2.9
Q 84.35 -2.05 84.1 -1.6 83.9 -1.05 83.45 -0.7 82.95 -0.45 82.45 -0.45 81.55 -0.45 81.25 -1 80.9 -1.55 80.9 -2.45
L 80.9 -5.8 80.15 -5.8 80.15 -2.25 Z"/>
</g>

<g id="IT_300x600_FR_psd_Asset_V7_2_Rogers_est_le_seul__0_Layer0_0_MEMBER_14_FILL">
<path fill="#D82C26" stroke="none" d="
M 86.75 -1.3
Q 86.75 -0.75 87 -0.35 87.4 0.05 87.7 0.15
L 88 -0.45
Q 87.7 -0.6 87.6 -0.8 87.5 -0.95 87.5 -1.45
L 87.5 -9.4 86.75 -9.3 86.75 -1.3 Z"/>
</g>
</defs>

<g transform="matrix( 1, 0, 0, 1, -265,35) ">
<g transform="matrix( 1, 0, 0, 1, 260,0) ">
<g transform="matrix( 1, 0, 0, 1, 35,3) ">
<g transform="matrix( 2.815704345703125, 0, 0, 2.832611083984375, -2.85,26.6) ">
<use xlink:href="#IT_300x600_FR_psd_Asset_V7_2_Rogers_est_le_seul__0_Layer0_0_MEMBER_0_FILL"/>
</g>

<g transform="matrix( 2.815704345703125, 0, 0, 2.832611083984375, -2.85,26.6) ">
<use xlink:href="#IT_300x600_FR_psd_Asset_V7_2_Rogers_est_le_seul__0_Layer0_0_MEMBER_1_FILL"/>
</g>

<g transform="matrix( 2.815704345703125, 0, 0, 2.832611083984375, -2.85,26.6) ">
<use xlink:href="#IT_300x600_FR_psd_Asset_V7_2_Rogers_est_le_seul__0_Layer0_0_MEMBER_2_FILL"/>
</g>

<g transform="matrix( 2.815704345703125, 0, 0, 2.832611083984375, -2.85,26.6) ">
<use xlink:href="#IT_300x600_FR_psd_Asset_V7_2_Rogers_est_le_seul__0_Layer0_0_MEMBER_3_FILL"/>
</g>

<g transform="matrix( 2.815704345703125, 0, 0, 2.832611083984375, -2.85,26.6) ">
<use xlink:href="#IT_300x600_FR_psd_Asset_V7_2_Rogers_est_le_seul__0_Layer0_0_MEMBER_4_FILL"/>
</g>

<g transform="matrix( 2.815704345703125, 0, 0, 2.832611083984375, -2.85,26.6) ">
<use xlink:href="#IT_300x600_FR_psd_Asset_V7_2_Rogers_est_le_seul__0_Layer0_0_MEMBER_5_FILL"/>
</g>

<g transform="matrix( 2.815704345703125, 0, 0, 2.832611083984375, -2.85,26.6) ">
<use xlink:href="#IT_300x600_FR_psd_Asset_V7_2_Rogers_est_le_seul__0_Layer0_0_MEMBER_6_FILL"/>
</g>

<g transform="matrix( 2.815704345703125, 0, 0, 2.832611083984375, -2.85,26.6) ">
<use xlink:href="#IT_300x600_FR_psd_Asset_V7_2_Rogers_est_le_seul__0_Layer0_0_MEMBER_7_FILL"/>
</g>

<g transform="matrix( 2.815704345703125, 0, 0, 2.832611083984375, -2.85,26.6) ">
<use xlink:href="#IT_300x600_FR_psd_Asset_V7_2_Rogers_est_le_seul__0_Layer0_0_MEMBER_8_FILL"/>
</g>

<g transform="matrix( 2.815704345703125, 0, 0, 2.832611083984375, -2.85,26.6) ">
<use xlink:href="#IT_300x600_FR_psd_Asset_V7_2_Rogers_est_le_seul__0_Layer0_0_MEMBER_9_FILL"/>
</g>

<g transform="matrix( 2.815704345703125, 0, 0, 2.832611083984375, -2.85,26.6) ">
<use xlink:href="#IT_300x600_FR_psd_Asset_V7_2_Rogers_est_le_seul__0_Layer0_0_MEMBER_10_FILL"/>
</g>

<g transform="matrix( 2.815704345703125, 0, 0, 2.832611083984375, -2.85,26.6) ">
<use xlink:href="#IT_300x600_FR_psd_Asset_V7_2_Rogers_est_le_seul__0_Layer0_0_MEMBER_11_FILL"/>
</g>

<g transform="matrix( 2.815704345703125, 0, 0, 2.832611083984375, -2.85,26.6) ">
<use xlink:href="#IT_300x600_FR_psd_Asset_V7_2_Rogers_est_le_seul__0_Layer0_0_MEMBER_12_FILL"/>
</g>

<g transform="matrix( 2.815704345703125, 0, 0, 2.832611083984375, -2.85,26.6) ">
<use xlink:href="#IT_300x600_FR_psd_Asset_V7_2_Rogers_est_le_seul__0_Layer0_0_MEMBER_13_FILL"/>
</g>

<g transform="matrix( 2.815704345703125, 0, 0, 2.832611083984375, -2.85,26.6) ">
<use xlink:href="#IT_300x600_FR_psd_Asset_V7_2_Rogers_est_le_seul__0_Layer0_0_MEMBER_14_FILL"/>
</g>
</g>
</g>
</g>
</svg>
