
<svg xmlns="http://www.w3.org/2000/svg" version="1.1" xmlns:xlink="http://www.w3.org/1999/xlink" preserveAspectRatio="none" x="0px" y="0px" width="300px" height="600px" viewBox="0 0 300 600">
<defs>
<g id="IT_300x600_FR_psd_Asset_V10_2_Si_vous_envisagez__de_changer_votre__solution_de__r_seau_d_affa_0_Layer0_0_MEMBER_0_FILL">
<path fill="#D82C26" stroke="none" d="
M 1.9 -6.95
Q 1.3 -6.7 1.05 -6.3 0.75 -5.9 0.75 -5.25 0.75 -4.7 1 -4.3 1.35 -3.9 1.7 -3.7 1.8 -3.65 2.7 -3.3
L 3.65 -2.9
Q 4 -2.75 4.2 -2.45 4.4 -2.25 4.4 -1.75 4.4 -1.05 3.95 -0.7 3.45 -0.35 2.75 -0.35 2.15 -0.35 1.7 -0.55
L 0.75 -1.1 0.65 -0.55
Q 1.1 -0.2 1.6 0 2.4 0.2 2.8 0.2 3.3 0.2 3.9 -0.05 4.4 -0.25 4.7 -0.7 5.05 -1.1 5.05 -1.8 5.05 -2.35 4.75 -2.75 4.45 -3.1 4.05 -3.35
L 3 -3.8
Q 2.35 -3.95 2.1 -4.15
L 1.55 -4.55
Q 1.35 -4.8 1.35 -5.3 1.35 -5.8 1.6 -6.05 1.85 -6.35 2.2 -6.5 2.6 -6.65 3 -6.65 3.5 -6.65 3.95 -6.5
L 4.7 -6.05 4.9 -6.6 4.05 -7
Q 3.6 -7.2 3 -7.2 2.5 -7.2 1.9 -6.95 Z"/>
</g>

<g id="IT_300x600_FR_psd_Asset_V10_2_Si_vous_envisagez__de_changer_votre__solution_de__r_seau_d_affa_0_Layer0_0_MEMBER_1_FILL">
<path fill="#D82C26" stroke="none" d="
M 6.8 -4.65
L 6.2 -4.65 6.2 0 6.8 0 6.8 -4.65
M 6.8 -6.2
L 6.9 -6.5 6.8 -6.8 6.5 -6.9
Q 6.4 -6.9 6.2 -6.8
L 6.05 -6.5
Q 6.05 -6.25 6.2 -6.2 6.35 -6.05 6.5 -6.05
L 6.8 -6.2 Z"/>
</g>

<g id="IT_300x600_FR_psd_Asset_V10_2_Si_vous_envisagez__de_changer_votre__solution_de__r_seau_d_affa_0_Layer0_0_MEMBER_2_FILL">
<path fill="#D82C26" stroke="none" d="
M 10.05 -4.65
L 9.45 -4.65 11.25 0 11.9 0 13.6 -4.65 13 -4.65 11.55 -0.6 10.05 -4.65 Z"/>
</g>

<g id="IT_300x600_FR_psd_Asset_V10_2_Si_vous_envisagez__de_changer_votre__solution_de__r_seau_d_affa_0_Layer0_0_MEMBER_3_FILL">
<path fill="#D82C26" stroke="none" d="
M 14.25 -1.05
Q 14.55 -0.5 15.1 -0.2 15.65 0.15 16.35 0.15 17.1 0.15 17.65 -0.2 18.2 -0.5 18.5 -1.05 18.85 -1.6 18.85 -2.3 18.85 -3.05 18.5 -3.6 18.2 -4.15 17.65 -4.45 17.05 -4.75 16.35 -4.75 15.7 -4.75 15.1 -4.45 14.55 -4.15 14.25 -3.6 13.9 -3.05 13.9 -2.3 13.9 -1.6 14.25 -1.05
M 14.5 -2.3
Q 14.5 -2.9 14.7 -3.3 14.95 -3.75 15.4 -4 15.8 -4.3 16.35 -4.3 17 -4.3 17.35 -4 17.7 -3.8 18.05 -3.3 18.25 -2.9 18.25 -2.3 18.25 -1.75 18.05 -1.35 17.85 -0.95 17.4 -0.6 16.9 -0.35 16.35 -0.35 15.8 -0.35 15.4 -0.6 14.9 -0.9 14.7 -1.35 14.5 -1.75 14.5 -2.3 Z"/>
</g>

<g id="IT_300x600_FR_psd_Asset_V10_2_Si_vous_envisagez__de_changer_votre__solution_de__r_seau_d_affa_0_Layer0_0_MEMBER_4_FILL">
<path fill="#D82C26" stroke="none" d="
M 19.9 -4.65
L 19.9 -1.8
Q 19.9 -1 20.3 -0.45 20.75 0.15 21.6 0.15 22.2 0.15 22.6 -0.2 23.1 -0.55 23.3 -1
L 23.35 0 23.95 0 23.85 -1.1 23.85 -4.65 23.3 -4.65 23.3 -2.3
Q 23.3 -1.85 23.1 -1.25 22.9 -0.85 22.5 -0.6 22.25 -0.35 21.75 -0.35 21.05 -0.35 20.75 -0.8 20.5 -1.3 20.5 -1.95
L 20.5 -4.65 19.9 -4.65 Z"/>
</g>

<g id="IT_300x600_FR_psd_Asset_V10_2_Si_vous_envisagez__de_changer_votre__solution_de__r_seau_d_affa_0_Layer0_0_MEMBER_5_FILL">
<path fill="#D82C26" stroke="none" d="
M 25.05 -0.9
L 24.95 -0.4
Q 25.2 -0.15 25.65 0 26.1 0.15 26.6 0.15
L 27.35 0
Q 27.75 -0.25 27.95 -0.5 28.15 -0.75 28.15 -1.2 28.15 -1.75 27.8 -2.05 27.6 -2.25 26.75 -2.6 26.15 -2.75 25.8 -3 25.55 -3.15 25.55 -3.55 25.55 -3.95 25.85 -4.1 26.1 -4.3 26.55 -4.3
L 27.25 -4.2 27.8 -3.85 28 -4.3 27.4 -4.65 26.55 -4.75
Q 26.05 -4.75 25.8 -4.65 25.45 -4.5 25.25 -4.2 25 -3.85 25 -3.5 25 -3.05 25.35 -2.7 25.6 -2.45 26.35 -2.2 27 -2 27.3 -1.75 27.6 -1.5 27.6 -1.2 27.6 -0.75 27.3 -0.55 27.05 -0.35 26.55 -0.35 25.6 -0.35 25.05 -0.9 Z"/>
</g>

<g id="IT_300x600_FR_psd_Asset_V10_2_Si_vous_envisagez__de_changer_votre__solution_de__r_seau_d_affa_0_Layer0_0_MEMBER_6_FILL">
<path fill="#D82C26" stroke="none" d="
M 34.35 -4.45
Q 33.9 -4.75 33.2 -4.75 32.55 -4.75 32 -4.45 31.55 -4.2 31.2 -3.6 30.9 -3.05 30.9 -2.35 30.9 -1.65 31.2 -1.05 31.5 -0.5 32.05 -0.2 32.55 0.15 33.25 0.15 34.35 0.15 35.1 -0.45
L 35 -0.95
Q 34.7 -0.65 34.25 -0.5 33.8 -0.35 33.3 -0.35 32.75 -0.35 32.35 -0.6 31.9 -0.85 31.7 -1.3 31.45 -1.7 31.45 -2.25
L 35.4 -2.25 35.4 -2.5
Q 35.4 -3.05 35.15 -3.65 34.85 -4.15 34.35 -4.45
M 33.2 -4.3
Q 33.9 -4.3 34.35 -3.85 34.75 -3.45 34.85 -2.65
L 31.45 -2.65
Q 31.55 -3.15 31.7 -3.4 31.85 -3.8 32.25 -4.05 32.65 -4.3 33.2 -4.3 Z"/>
</g>

<g id="IT_300x600_FR_psd_Asset_V10_2_Si_vous_envisagez__de_changer_votre__solution_de__r_seau_d_affa_0_Layer0_0_MEMBER_7_FILL">
<path fill="#D82C26" stroke="none" d="
M 40.05 -4.2
Q 39.65 -4.75 38.75 -4.75 38.25 -4.75 37.7 -4.45 37.35 -4.2 37.05 -3.65
L 37 -4.65 36.45 -4.65 36.5 0 37.1 0 37.1 -2.35
Q 37.1 -3 37.3 -3.4 37.45 -3.8 37.85 -4.05 38.2 -4.3 38.6 -4.3 39.3 -4.3 39.6 -3.8 39.85 -3.4 39.85 -2.7
L 39.85 0 40.45 0 40.45 -2.85
Q 40.45 -3.65 40.05 -4.2 Z"/>
</g>

<g id="IT_300x600_FR_psd_Asset_V10_2_Si_vous_envisagez__de_changer_votre__solution_de__r_seau_d_affa_0_Layer0_0_MEMBER_8_FILL">
<path fill="#D82C26" stroke="none" d="
M 41.6 -4.65
L 41 -4.65 42.75 0 43.45 0 45.15 -4.65 44.55 -4.65 43.1 -0.6 41.6 -4.65 Z"/>
</g>

<g id="IT_300x600_FR_psd_Asset_V10_2_Si_vous_envisagez__de_changer_votre__solution_de__r_seau_d_affa_0_Layer0_0_MEMBER_9_FILL">
<path fill="#D82C26" stroke="none" d="
M 46.5 -4.65
L 45.9 -4.65 45.9 0 46.5 0 46.5 -4.65
M 46.5 -6.2
Q 46.6 -6.25 46.6 -6.5 46.6 -6.7 46.5 -6.8
L 46.2 -6.9 45.9 -6.8 45.8 -6.5 45.9 -6.2 46.2 -6.05 46.5 -6.2 Z"/>
</g>

<g id="IT_300x600_FR_psd_Asset_V10_2_Si_vous_envisagez__de_changer_votre__solution_de__r_seau_d_affa_0_Layer0_0_MEMBER_10_FILL">
<path fill="#D82C26" stroke="none" d="
M 49.15 -4.75
Q 48.65 -4.75 48.45 -4.65 48.1 -4.5 47.85 -4.2 47.65 -3.95 47.65 -3.5 47.65 -3 47.95 -2.7 48.3 -2.4 48.95 -2.2
L 49.95 -1.75
Q 50.25 -1.5 50.25 -1.2 50.25 -0.8 49.9 -0.55 49.65 -0.35 49.2 -0.35 48.2 -0.35 47.65 -0.9
L 47.55 -0.4
Q 47.95 -0.1 48.25 0 48.7 0.15 49.2 0.15 49.65 0.15 49.95 0 50.35 -0.25 50.55 -0.5 50.8 -0.85 50.8 -1.2 50.8 -1.7 50.45 -2.05 50.2 -2.25 49.35 -2.6 48.7 -2.75 48.45 -3 48.2 -3.1 48.2 -3.55 48.2 -3.95 48.45 -4.1 48.7 -4.3 49.2 -4.3
L 49.85 -4.2 50.4 -3.85 50.65 -4.3 50 -4.65 49.15 -4.75 Z"/>
</g>

<g id="IT_300x600_FR_psd_Asset_V10_2_Si_vous_envisagez__de_changer_votre__solution_de__r_seau_d_affa_0_Layer0_0_MEMBER_11_FILL">
<path fill="#D82C26" stroke="none" d="
M 53.45 -4.3
Q 54.1 -4.3 54.45 -4 54.8 -3.55 54.8 -3.05
L 54.8 -2.8 54.2 -2.8
Q 51.55 -2.8 51.55 -1.25 51.55 -0.55 52 -0.2 52.55 0.15 53.05 0.15 53.6 0.15 54.1 -0.15 54.6 -0.4 54.8 -0.9
L 54.9 0 55.4 0 55.35 -3
Q 55.35 -3.85 54.85 -4.35 54.45 -4.75 53.55 -4.75 53.05 -4.75 52.6 -4.6 52.1 -4.4 51.85 -4.2
L 52 -3.75
Q 52.4 -4.05 52.7 -4.15
L 53.45 -4.3
M 52.45 -0.55
Q 52.15 -0.75 52.15 -1.25 52.15 -2.4 54.3 -2.4
L 54.8 -2.4 54.8 -1.95
Q 54.8 -1.5 54.6 -1.15 54.45 -0.8 54.05 -0.55 53.65 -0.3 53.15 -0.3 52.8 -0.3 52.45 -0.55 Z"/>
</g>

<g id="IT_300x600_FR_psd_Asset_V10_2_Si_vous_envisagez__de_changer_votre__solution_de__r_seau_d_affa_0_Layer0_0_MEMBER_12_FILL">
<path fill="#D82C26" stroke="none" d="
M 59.8 -4.45
Q 59.35 -4.75 58.7 -4.75 58.05 -4.75 57.5 -4.45 56.95 -4.05 56.7 -3.55 56.4 -3 56.4 -2.3 56.4 -1.6 56.7 -1.1 57.05 -0.5 57.5 -0.25 58 0.1 58.7 0.1 59.35 0.1 59.8 -0.2 60.25 -0.45 60.6 -1.05
L 60.6 -0.05
Q 60.6 0.9 60.15 1.4 59.7 1.95 58.7 1.95 58.1 1.95 57.7 1.75 57.25 1.6 56.8 1.35
L 56.7 1.85
Q 57.1 2.15 57.6 2.3
L 58.7 2.45
Q 60 2.45 60.6 1.75 61.2 1.1 61.2 -0.05
L 61.2 -4.65 60.65 -4.65 60.6 -3.6
Q 60.35 -4.15 59.8 -4.45
M 59.75 -4
Q 60.2 -3.75 60.4 -3.3 60.65 -2.8 60.65 -2.35 60.65 -1.85 60.4 -1.35 60.2 -0.9 59.75 -0.65 59.4 -0.4 58.8 -0.4 58.15 -0.4 57.85 -0.65 57.4 -0.95 57.2 -1.35 56.95 -1.85 56.95 -2.3 56.95 -2.8 57.2 -3.3 57.45 -3.8 57.85 -4 58.25 -4.3 58.8 -4.3 59.3 -4.3 59.75 -4 Z"/>
</g>

<g id="IT_300x600_FR_psd_Asset_V10_2_Si_vous_envisagez__de_changer_votre__solution_de__r_seau_d_affa_0_Layer0_0_MEMBER_13_FILL">
<path fill="#D82C26" stroke="none" d="
M 65.75 -4.45
Q 65.3 -4.75 64.6 -4.75 63.95 -4.75 63.4 -4.45 62.95 -4.2 62.6 -3.6 62.3 -3.05 62.3 -2.35 62.3 -1.65 62.6 -1.05 62.9 -0.5 63.45 -0.2 63.95 0.15 64.65 0.15 65.75 0.15 66.5 -0.45
L 66.4 -0.95
Q 66.1 -0.65 65.65 -0.5 65.2 -0.35 64.7 -0.35 64.15 -0.35 63.75 -0.6 63.35 -0.8 63.1 -1.3 62.85 -1.7 62.85 -2.25
L 66.75 -2.25 66.8 -2.5
Q 66.8 -3.05 66.55 -3.65 66.25 -4.15 65.75 -4.45
M 64.6 -4.3
Q 65.3 -4.3 65.75 -3.85 66.15 -3.45 66.25 -2.65
L 62.85 -2.65
Q 62.85 -3 63.1 -3.4 63.25 -3.8 63.65 -4.05 64.05 -4.3 64.6 -4.3 Z"/>
</g>

<g id="IT_300x600_FR_psd_Asset_V10_2_Si_vous_envisagez__de_changer_votre__solution_de__r_seau_d_affa_0_Layer0_0_MEMBER_14_FILL">
<path fill="#D82C26" stroke="none" d="
M 70.25 -4.15
L 67.4 -0.45 67.4 0 71 0 71.1 -0.45 68.05 -0.45 70.9 -4.15 70.9 -4.65 67.55 -4.65 67.45 -4.15 70.25 -4.15 Z"/>
</g>

<g id="IT_300x600_FR_psd_Asset_V10_2_Si_vous_envisagez__de_changer_votre__solution_de__r_seau_d_affa_0_Layer0_0_MEMBER_15_FILL">
<path fill="#D82C26" stroke="none" d="
M 3.95 8.25
Q 3.5 7.95 2.9 7.95 2.2 7.95 1.65 8.25 1.1 8.65 0.85 9.15 0.55 9.75 0.55 10.4 0.55 11.05 0.85 11.65 1.2 12.25 1.65 12.5 2.15 12.85 2.9 12.85 3.5 12.85 4 12.55 4.55 12.2 4.75 11.7
L 4.8 11.7 4.85 12.7 5.4 12.7 5.35 5.1 4.75 5.25 4.75 9.1
Q 4.5 8.55 3.95 8.25
M 2.95 8.45
Q 3.55 8.45 3.9 8.7 4.3 8.9 4.55 9.4 4.8 9.9 4.8 10.4 4.8 10.95 4.55 11.35 4.3 11.85 3.9 12.1 3.4 12.35 2.95 12.35 2.4 12.35 2 12.1 1.55 11.8 1.35 11.4 1.15 11 1.15 10.4 1.15 9.8 1.35 9.4 1.6 8.9 2 8.7 2.3 8.45 2.95 8.45 Z"/>
</g>

<g id="IT_300x600_FR_psd_Asset_V10_2_Si_vous_envisagez__de_changer_votre__solution_de__r_seau_d_affa_0_Layer0_0_MEMBER_16_FILL">
<path fill="#D82C26" stroke="none" d="
M 10.95 10.25
Q 10.95 9.5 10.7 9.05 10.5 8.55 9.95 8.25 9.45 7.95 8.75 7.95 8.15 7.95 7.6 8.25 7.05 8.55 6.75 9.1 6.45 9.7 6.45 10.35 6.45 11.15 6.75 11.65 7 12.1 7.6 12.55 8.15 12.85 8.85 12.85 9.9 12.85 10.7 12.25
L 10.6 11.75
Q 10.3 12.05 9.85 12.2
L 8.9 12.35
Q 8.25 12.35 7.95 12.1 7.65 11.95 7.25 11.45 7.05 11.05 7.05 10.5
L 10.95 10.5 10.95 10.25
M 8.75 8.4
Q 9.5 8.4 9.95 8.85 10.4 9.3 10.4 10.05
L 7.05 10.05
Q 7.05 9.65 7.25 9.3 7.45 8.95 7.85 8.65 8.25 8.4 8.75 8.4 Z"/>
</g>

<g id="IT_300x600_FR_psd_Asset_V10_2_Si_vous_envisagez__de_changer_votre__solution_de__r_seau_d_affa_0_Layer0_0_MEMBER_17_FILL">
<path fill="#D82C26" stroke="none" d="
M 13.75 10.4
Q 13.75 11.15 14.05 11.65 14.35 12.25 14.9 12.55 15.5 12.85 16.15 12.85 16.6 12.85 17.05 12.7 17.35 12.6 17.75 12.3
L 17.65 11.8
Q 17.4 12.05 17 12.2 16.65 12.35 16.2 12.35 15.65 12.35 15.25 12.1 14.85 11.85 14.6 11.35 14.35 10.95 14.35 10.4 14.35 9.9 14.6 9.4 14.85 8.9 15.25 8.7 15.55 8.45 16.2 8.45 16.7 8.45 16.9 8.55 17.35 8.7 17.5 8.95
L 17.75 8.5
Q 17.6 8.3 17.05 8.1 16.6 7.95 16.2 7.95 15.5 7.95 14.95 8.25 14.45 8.5 14.05 9.15 13.75 9.7 13.75 10.4 Z"/>
</g>

<g id="IT_300x600_FR_psd_Asset_V10_2_Si_vous_envisagez__de_changer_votre__solution_de__r_seau_d_affa_0_Layer0_0_MEMBER_18_FILL">
<path fill="#D82C26" stroke="none" d="
M 22.15 8.5
Q 21.75 7.95 20.9 7.95 20.3 7.95 19.85 8.25 19.4 8.55 19.2 9.05
L 19.2 5.15 18.6 5.25 18.6 12.7 19.2 12.7 19.2 10.45
Q 19.2 9.75 19.4 9.35 19.65 8.8 19.95 8.65 20.3 8.45 20.75 8.45 21.4 8.45 21.7 8.9 22 9.35 22 10.05
L 22 12.7 22.55 12.7 22.55 9.9
Q 22.55 8.95 22.15 8.5 Z"/>
</g>

<g id="IT_300x600_FR_psd_Asset_V10_2_Si_vous_envisagez__de_changer_votre__solution_de__r_seau_d_affa_0_Layer0_0_MEMBER_19_FILL">
<path fill="#D82C26" stroke="none" d="
M 24.65 8.1
L 23.85 8.5 24.05 8.95
Q 24.15 8.85 24.75 8.55
L 25.5 8.4
Q 26.15 8.4 26.5 8.7 26.85 9.15 26.85 9.65
L 26.85 9.95 26.25 9.95
Q 23.6 9.95 23.6 11.45 23.6 12.15 24.05 12.5 24.6 12.85 25.1 12.85 25.55 12.85 26.15 12.6 26.65 12.25 26.8 11.8
L 26.85 11.8 26.85 12.3 26.9 12.7 27.45 12.7 27.35 11.7 27.35 9.7
Q 27.35 8.85 26.9 8.4 26.45 7.95 25.6 7.95 25.1 7.95 24.65 8.1
M 24.45 12.15
Q 24.15 11.95 24.15 11.45 24.15 10.3 26.35 10.3
L 26.85 10.3 26.85 10.8
Q 26.85 11.05 26.65 11.55 26.4 11.95 26.1 12.15 25.7 12.4 25.2 12.4 24.7 12.4 24.45 12.15 Z"/>
</g>

<g id="IT_300x600_FR_psd_Asset_V10_2_Si_vous_envisagez__de_changer_votre__solution_de__r_seau_d_affa_0_Layer0_0_MEMBER_20_FILL">
<path fill="#D82C26" stroke="none" d="
M 32.3 8.5
Q 31.85 7.95 31 7.95 30.45 7.95 30 8.25 29.55 8.5 29.3 9.1
L 29.25 8.1 28.7 8.1 28.75 12.7 29.35 12.7 29.35 10.35
Q 29.35 9.7 29.55 9.3 29.7 8.9 30.1 8.65 30.45 8.45 30.85 8.45 31.55 8.45 31.85 8.9 32.15 9.35 32.15 10.05
L 32.15 12.7 32.7 12.7 32.7 9.9
Q 32.7 9.05 32.3 8.5 Z"/>
</g>

<g id="IT_300x600_FR_psd_Asset_V10_2_Si_vous_envisagez__de_changer_votre__solution_de__r_seau_d_affa_0_Layer0_0_MEMBER_21_FILL">
<path fill="#D82C26" stroke="none" d="
M 34.9 8.25
Q 34.35 8.65 34.05 9.15 33.8 9.65 33.8 10.4 33.8 11.15 34.05 11.6 34.3 12.05 34.9 12.5 35.45 12.8 36.1 12.8 36.7 12.8 37.2 12.5 37.65 12.25 38 11.65
L 38 12.65
Q 38 13.6 37.55 14.1 37.1 14.65 36.1 14.65 35.55 14.65 35.1 14.5
L 34.2 14.05 34.05 14.6 35 15 36.1 15.15
Q 37.35 15.15 37.95 14.45 38.55 13.8 38.55 12.65
L 38.6 8.1 38.05 8.1 38 9.1
Q 37.65 8.5 37.2 8.25 36.7 7.95 36.1 7.95 35.45 7.95 34.9 8.25
M 34.6 9.4
Q 34.85 8.9 35.2 8.7 35.6 8.45 36.2 8.45 36.8 8.45 37.1 8.7 37.45 8.9 37.8 9.4 38 9.8 38 10.4 38 10.95 37.8 11.35 37.45 11.9 37.1 12.05 36.8 12.3 36.2 12.3 35.6 12.3 35.2 12.05 34.85 11.85 34.6 11.35 34.35 10.85 34.35 10.4 34.35 9.9 34.6 9.4 Z"/>
</g>

<g id="IT_300x600_FR_psd_Asset_V10_2_Si_vous_envisagez__de_changer_votre__solution_de__r_seau_d_affa_0_Layer0_0_MEMBER_22_FILL">
<path fill="#D82C26" stroke="none" d="
M 43.9 9.05
Q 43.7 8.55 43.15 8.25 42.65 7.95 41.95 7.95 41.35 7.95 40.8 8.25 40.25 8.55 39.95 9.1 39.65 9.7 39.65 10.35 39.65 11.15 40 11.65 40.25 12.15 40.8 12.55 41.4 12.85 42.05 12.85 43.15 12.85 43.9 12.25
L 43.8 11.75
Q 43.5 12.05 43.05 12.2 42.6 12.35 42.1 12.35 41.45 12.35 41.15 12.1 40.8 11.9 40.5 11.45 40.25 11.1 40.25 10.5
L 44.15 10.5 44.15 10.25
Q 44.15 9.5 43.9 9.05
M 41.05 8.65
Q 41.45 8.4 41.95 8.4 42.7 8.4 43.15 8.85 43.6 9.3 43.6 10.05
L 40.25 10.05
Q 40.25 9.8 40.45 9.3 40.65 8.95 41.05 8.65 Z"/>
</g>

<g id="IT_300x600_FR_psd_Asset_V10_2_Si_vous_envisagez__de_changer_votre__solution_de__r_seau_d_affa_0_Layer0_0_MEMBER_23_FILL">
<path fill="#D82C26" stroke="none" d="
M 45.8 9.1
L 45.75 8.1 45.2 8.1 45.25 12.7 45.85 12.7 45.85 10.4
Q 45.85 9.55 46.2 9.05 46.5 8.45 47.15 8.45
L 47.55 8.55 47.7 8 47.2 7.95
Q 46.8 7.95 46.4 8.25 46 8.55 45.85 9.1
L 45.8 9.1 Z"/>
</g>

<g id="IT_300x600_FR_psd_Asset_V10_2_Si_vous_envisagez__de_changer_votre__solution_de__r_seau_d_affa_0_Layer0_0_MEMBER_24_FILL">
<path fill="#D82C26" stroke="none" d="
M 49.45 8.1
L 51.25 12.7 51.9 12.7 53.65 8.1 53.05 8.1 51.6 12.15 50.1 8.1 49.45 8.1 Z"/>
</g>

<g id="IT_300x600_FR_psd_Asset_V10_2_Si_vous_envisagez__de_changer_votre__solution_de__r_seau_d_affa_0_Layer0_0_MEMBER_25_FILL">
<path fill="#D82C26" stroke="none" d="
M 55.15 8.25
Q 54.55 8.55 54.25 9.1 53.95 9.7 53.95 10.4 53.95 11.15 54.25 11.65 54.5 12.15 55.15 12.55 55.7 12.85 56.4 12.85 57.15 12.85 57.65 12.55 58.2 12.2 58.55 11.65 58.85 11.15 58.85 10.4 58.85 9.7 58.55 9.1 58.1 8.5 57.65 8.25 57.15 7.95 56.4 7.95 55.7 7.95 55.15 8.25
M 54.75 9.4
Q 55 8.9 55.4 8.7 55.8 8.45 56.4 8.45 57.05 8.45 57.4 8.7 57.85 8.95 58.05 9.4 58.3 9.9 58.3 10.4 58.3 10.85 58.05 11.35 57.8 11.85 57.4 12.1 56.9 12.35 56.4 12.35 55.9 12.35 55.4 12.1 55 11.85 54.75 11.35 54.5 10.85 54.5 10.4 54.5 9.9 54.75 9.4 Z"/>
</g>

<g id="IT_300x600_FR_psd_Asset_V10_2_Si_vous_envisagez__de_changer_votre__solution_de__r_seau_d_affa_0_Layer0_0_MEMBER_26_FILL">
<path fill="#D82C26" stroke="none" d="
M 61.05 12.8
L 61.6 12.75 62.05 12.55 62 12.15
Q 61.4 12.35 61.25 12.35 60.95 12.35 60.75 12.15 60.55 11.85 60.55 11.5
L 60.55 8.55 61.75 8.55 61.9 8.1 60.55 8.1 60.55 6.75 60 7 60 8.1 59.25 8.1 59.1 8.55 60 8.55 60 11.6
Q 60 12.2 60.3 12.5 60.6 12.8 61.05 12.8 Z"/>
</g>

<g id="IT_300x600_FR_psd_Asset_V10_2_Si_vous_envisagez__de_changer_votre__solution_de__r_seau_d_affa_0_Layer0_0_MEMBER_27_FILL">
<path fill="#D82C26" stroke="none" d="
M 63.4 9.1
L 63.35 8.1 62.8 8.1 62.85 12.7 63.45 12.7 63.45 10.4
Q 63.45 9.55 63.8 9.05 64.1 8.45 64.75 8.45
L 65.15 8.55 65.25 8 64.75 7.95
Q 64.4 7.95 64 8.25 63.65 8.45 63.4 9.1 Z"/>
</g>

<g id="IT_300x600_FR_psd_Asset_V10_2_Si_vous_envisagez__de_changer_votre__solution_de__r_seau_d_affa_0_Layer0_0_MEMBER_28_FILL">
<path fill="#D82C26" stroke="none" d="
M 65.45 10.35
Q 65.45 11.15 65.75 11.65 66 12.1 66.6 12.55 67.15 12.85 67.85 12.85 68.9 12.85 69.65 12.25
L 69.6 11.75
Q 69.2 12.05 68.8 12.2 68.45 12.35 67.85 12.35 67.3 12.35 66.9 12.1 66.5 11.85 66.25 11.45 66 10.95 66 10.5
L 69.95 10.5 69.95 10.25
Q 69.95 9.65 69.7 9.05 69.4 8.55 68.95 8.25 68.45 7.95 67.75 7.95 67.15 7.95 66.6 8.25 66.05 8.55 65.75 9.1 65.45 9.7 65.45 10.35
M 66.85 8.65
Q 67.25 8.4 67.75 8.4 68.5 8.4 68.95 8.85 69.4 9.3 69.4 10.05
L 66.05 10.05
Q 66.05 9.65 66.25 9.3 66.45 8.95 66.85 8.65 Z"/>
</g>

<g id="IT_300x600_FR_psd_Asset_V10_2_Si_vous_envisagez__de_changer_votre__solution_de__r_seau_d_affa_0_Layer0_0_MEMBER_29_FILL">
<path fill="#D82C26" stroke="none" d="
M 3.65 21.15
L 3 20.8
Q 2.65 20.65 2.15 20.65 1.75 20.65 1.45 20.8 1.1 20.95 0.85 21.2 0.65 21.45 0.65 21.9 0.65 22.5 0.95 22.7 1.45 23.1 1.95 23.2 2.6 23.4 2.9 23.65 3.2 23.9 3.2 24.2 3.2 24.65 2.9 24.85 2.55 25.1 2.2 25.1 1.3 25.1 0.65 24.55
L 0.55 25.05 1.25 25.4
Q 1.7 25.55 2.2 25.55 2.65 25.55 2.95 25.4 3.35 25.25 3.55 24.95 3.8 24.6 3.8 24.2 3.8 23.75 3.45 23.4 3 23.05 2.35 22.85
L 1.45 22.45
Q 1.2 22.25 1.2 21.9 1.2 21.5 1.45 21.3 1.7 21.1 2.2 21.1 2.55 21.1 2.85 21.25 3 21.3 3.4 21.55
L 3.65 21.15 Z"/>
</g>

<g id="IT_300x600_FR_psd_Asset_V10_2_Si_vous_envisagez__de_changer_votre__solution_de__r_seau_d_affa_0_Layer0_0_MEMBER_30_FILL">
<path fill="#D82C26" stroke="none" d="
M 4.5 23.1
Q 4.5 23.85 4.85 24.35 5.15 24.95 5.7 25.25 6.3 25.55 6.95 25.55 7.65 25.55 8.25 25.25 8.8 24.95 9.1 24.35 9.45 23.85 9.45 23.1 9.45 22.35 9.1 21.85 8.8 21.25 8.25 20.95 7.65 20.65 6.95 20.65 6.3 20.65 5.7 20.95 5.15 21.25 4.85 21.85 4.5 22.35 4.5 23.1
M 6 21.4
Q 6.4 21.15 6.95 21.15 7.55 21.15 7.95 21.4 8.3 21.6 8.65 22.1 8.85 22.5 8.85 23.1 8.85 23.7 8.65 24.1 8.5 24.4 8 24.8 7.5 25.05 6.95 25.05 6.4 25.05 6 24.8 5.5 24.45 5.3 24.1 5.1 23.7 5.1 23.1 5.1 22.5 5.3 22.1 5.55 21.65 6 21.4 Z"/>
</g>

<g id="IT_300x600_FR_psd_Asset_V10_2_Si_vous_envisagez__de_changer_votre__solution_de__r_seau_d_affa_0_Layer0_0_MEMBER_31_FILL">
<path fill="#D82C26" stroke="none" d="
M 10.75 25.15
L 11.3 25.55 11.55 25.05 11.25 24.75
Q 11.15 24.65 11.15 24.25
L 11.15 17.9 10.55 18 10.55 24.4
Q 10.55 24.9 10.75 25.15 Z"/>
</g>

<g id="IT_300x600_FR_psd_Asset_V10_2_Si_vous_envisagez__de_changer_votre__solution_de__r_seau_d_affa_0_Layer0_0_MEMBER_32_FILL">
<path fill="#D82C26" stroke="none" d="
M 12.55 20.8
L 12.55 23.6
Q 12.55 24.45 12.95 25 13.35 25.55 14.2 25.55 14.8 25.55 15.25 25.25 15.75 24.9 15.9 24.4
L 16 25.45 16.55 25.4 16.5 24.9 16.5 20.8 15.9 20.8 15.9 23.1
Q 15.9 23.75 15.7 24.15 15.45 24.7 15.15 24.85 14.8 25.05 14.35 25.05 13.7 25.05 13.4 24.6 13.1 24.15 13.1 23.45
L 13.1 20.8 12.55 20.8 Z"/>
</g>

<g id="IT_300x600_FR_psd_Asset_V10_2_Si_vous_envisagez__de_changer_votre__solution_de__r_seau_d_affa_0_Layer0_0_MEMBER_33_FILL">
<path fill="#D82C26" stroke="none" d="
M 19.9 21.25
L 20.05 20.8 18.7 20.8 18.7 19.45 18.15 19.7 18.15 20.8 17.4 20.8 17.3 21.25 18.15 21.25 18.15 24.3
Q 18.15 24.9 18.45 25.2 18.75 25.5 19.2 25.5
L 19.75 25.45 20.2 25.25 20.15 24.85
Q 19.55 25.05 19.4 25.05 19.1 25.05 18.9 24.85 18.7 24.55 18.7 24.2
L 18.7 21.25 19.9 21.25 Z"/>
</g>

<g id="IT_300x600_FR_psd_Asset_V10_2_Si_vous_envisagez__de_changer_votre__solution_de__r_seau_d_affa_0_Layer0_0_MEMBER_34_FILL">
<path fill="#D82C26" stroke="none" d="
M 21.25 19.35
Q 21.45 19.35 21.55 19.25
L 21.7 18.95
Q 21.7 18.75 21.55 18.65 21.5 18.5 21.25 18.5 21.1 18.5 21 18.65 20.85 18.75 20.85 18.95
L 21 19.25 21.25 19.35
M 21.55 20.8
L 21 20.8 21 25.4 21.55 25.4 21.55 20.8 Z"/>
</g>

<g id="IT_300x600_FR_psd_Asset_V10_2_Si_vous_envisagez__de_changer_votre__solution_de__r_seau_d_affa_0_Layer0_0_MEMBER_35_FILL">
<path fill="#D82C26" stroke="none" d="
M 22.65 23.1
Q 22.65 23.85 23 24.35 23.3 24.95 23.85 25.25 24.45 25.55 25.1 25.55 25.8 25.55 26.4 25.25 26.95 24.95 27.25 24.35 27.6 23.85 27.6 23.1 27.6 22.35 27.25 21.85 26.95 21.25 26.4 20.95 25.8 20.65 25.1 20.65 24.45 20.65 23.85 20.95 23.3 21.25 23 21.85 22.65 22.35 22.65 23.1
M 24.15 21.4
Q 24.55 21.15 25.1 21.15 25.7 21.15 26.1 21.4 26.45 21.6 26.8 22.1 27 22.5 27 23.1 27 23.7 26.8 24.1 26.65 24.4 26.15 24.8 25.65 25.05 25.1 25.05 24.55 25.05 24.15 24.8 23.65 24.45 23.45 24.1 23.25 23.7 23.25 23.1 23.25 22.5 23.45 22.1 23.7 21.65 24.15 21.4 Z"/>
</g>

<g id="IT_300x600_FR_psd_Asset_V10_2_Si_vous_envisagez__de_changer_votre__solution_de__r_seau_d_affa_0_Layer0_0_MEMBER_36_FILL">
<path fill="#D82C26" stroke="none" d="
M 29.2 20.8
L 28.65 20.8 28.7 25.4 29.3 25.4 29.3 23.05
Q 29.3 22.4 29.5 22.05 29.75 21.5 30.05 21.35 30.4 21.15 30.85 21.15 31.5 21.15 31.8 21.6 32.1 22.05 32.1 22.75
L 32.1 25.4 32.65 25.4 32.65 22.6
Q 32.65 21.75 32.25 21.2 31.8 20.65 30.95 20.65 30.4 20.65 29.95 20.95 29.45 21.3 29.3 21.8
L 29.25 21.8 29.2 20.8 Z"/>
</g>

<g id="IT_300x600_FR_psd_Asset_V10_2_Si_vous_envisagez__de_changer_votre__solution_de__r_seau_d_affa_0_Layer0_0_MEMBER_37_FILL">
<path fill="#D82C26" stroke="none" d="
M 40.6 25.4
L 40.55 17.85 40 17.95 40 21.8 39.95 21.8
Q 39.75 21.3 39.2 20.95 38.7 20.65 38.1 20.65 37.45 20.65 36.9 20.95 36.4 21.3 36.05 21.85 35.75 22.45 35.75 23.1 35.75 23.75 36.05 24.35 36.4 24.95 36.9 25.25 37.45 25.55 38.1 25.55 38.7 25.55 39.2 25.25 39.65 25 40 24.4
L 40.05 25.4 40.6 25.4
M 38.15 21.15
Q 38.7 21.15 39.1 21.4 39.55 21.7 39.75 22.1 40 22.6 40 23.1 40 23.6 39.75 24.1 39.55 24.5 39.1 24.8 38.7 25.05 38.15 25.05 37.6 25.05 37.2 24.8 36.75 24.55 36.55 24.1 36.35 23.7 36.35 23.1 36.35 22.5 36.55 22.1 36.7 21.8 37.2 21.4 37.7 21.15 38.15 21.15 Z"/>
</g>

<g id="IT_300x600_FR_psd_Asset_V10_2_Si_vous_envisagez__de_changer_votre__solution_de__r_seau_d_affa_0_Layer0_0_MEMBER_38_FILL">
<path fill="#D82C26" stroke="none" d="
M 45.15 20.95
Q 44.65 20.65 43.95 20.65 43.35 20.65 42.8 20.95 42.4 21.2 41.95 21.8 41.65 22.4 41.65 23.1 41.65 23.75 42 24.35 42.3 24.95 42.8 25.25 43.4 25.55 44.05 25.55 45.15 25.55 45.9 24.95
L 45.8 24.5
Q 45.45 24.75 45.05 24.9 44.45 25.1 44.1 25.1 43.55 25.1 43.15 24.85 42.75 24.6 42.5 24.15 42.25 23.65 42.25 23.2
L 46.15 23.2 46.15 22.95
Q 46.15 22.25 45.9 21.8 45.65 21.25 45.15 20.95
M 43.95 21.1
Q 44.7 21.1 45.15 21.55 45.6 22 45.6 22.75
L 42.25 22.75
Q 42.25 22.5 42.45 22 42.65 21.65 43.05 21.35 43.45 21.1 43.95 21.1 Z"/>
</g>

<g id="IT_300x600_FR_psd_Asset_V10_2_Si_vous_envisagez__de_changer_votre__solution_de__r_seau_d_affa_0_Layer0_0_MEMBER_39_FILL">
<path fill="#D82C26" stroke="none" d="
M 3.35 33.45
L 2.85 33.35
Q 2.45 33.35 2.05 33.65 1.65 33.95 1.5 34.5
L 1.45 33.5 0.9 33.5 0.95 38.15 1.5 38.15 1.5 35.8
Q 1.5 35.05 1.85 34.45 2.2 33.9 2.8 33.9
L 3.25 33.95 3.35 33.45 Z"/>
</g>

<g id="IT_300x600_FR_psd_Asset_V10_2_Si_vous_envisagez__de_changer_votre__solution_de__r_seau_d_affa_0_Layer0_0_MEMBER_40_FILL">
<path fill="#D82C26" stroke="none" d="
M 6.45 31.1
L 5.45 32.55 5.9 32.55 7.1 31.1 6.45 31.1
M 3.55 35.8
Q 3.55 36.55 3.85 37.05 4.15 37.65 4.7 37.95 5.25 38.25 5.9 38.25 6.95 38.25 7.75 37.7
L 7.65 37.2
Q 7.3 37.45 6.9 37.6 6.5 37.8 5.95 37.8 5.5 37.8 5 37.55 4.5 37.15 4.35 36.85 4.1 36.35 4.1 35.9
L 8.05 35.9 8.05 35.65
Q 8.05 35.1 7.8 34.5 7.45 33.9 7 33.65 6.55 33.35 5.85 33.35 5.2 33.35 4.65 33.65 4.15 33.95 3.85 34.55 3.55 35.1 3.55 35.8
M 4.35 34.7
Q 4.5 34.4 4.9 34.05 5.4 33.8 5.85 33.8 6.55 33.8 7 34.25 7.4 34.65 7.5 35.45
L 4.1 35.45
Q 4.2 34.95 4.35 34.7 Z"/>
</g>

<g id="IT_300x600_FR_psd_Asset_V10_2_Si_vous_envisagez__de_changer_votre__solution_de__r_seau_d_affa_0_Layer0_0_MEMBER_41_FILL">
<path fill="#D82C26" stroke="none" d="
M 11.2 33.5
Q 10.85 33.35 10.4 33.35
L 9.65 33.5
Q 9.25 33.65 9.1 33.95 8.85 34.3 8.85 34.65 8.85 35.15 9.2 35.45 9.6 35.75 10.15 35.95 11 36.25 11.15 36.35 11.45 36.6 11.45 36.95 11.45 37.35 11.15 37.55 10.8 37.8 10.4 37.8 9.55 37.8 8.85 37.25
L 8.75 37.75
Q 9 37.95 9.5 38.1 9.9 38.25 10.45 38.25
L 11.2 38.1
Q 11.6 37.95 11.75 37.65 12 37.3 12 36.9 12 36.4 11.65 36.1 11.2 35.75 10.55 35.55
L 9.65 35.15
Q 9.4 34.9 9.4 34.6 9.4 34.25 9.7 34 10.1 33.8 10.4 33.8 10.75 33.8 11.05 33.95
L 11.6 34.25 11.85 33.85
Q 11.7 33.7 11.2 33.5 Z"/>
</g>

<g id="IT_300x600_FR_psd_Asset_V10_2_Si_vous_envisagez__de_changer_votre__solution_de__r_seau_d_affa_0_Layer0_0_MEMBER_42_FILL">
<path fill="#D82C26" stroke="none" d="
M 12.75 35.8
Q 12.75 36.55 13.05 37.05 13.35 37.65 13.9 37.95 14.45 38.25 15.1 38.25 16.15 38.25 16.95 37.7
L 16.85 37.2
Q 16.5 37.45 16.1 37.6 15.7 37.8 15.15 37.8 14.7 37.8 14.2 37.55 13.75 37.25 13.55 36.85 13.3 36.35 13.3 35.9
L 17.2 35.9 17.25 35.65
Q 17.25 35.05 16.95 34.5 16.7 33.95 16.2 33.65 15.75 33.35 15.05 33.35 14.4 33.35 13.85 33.65 13.35 33.95 13.05 34.55 12.75 35.1 12.75 35.8
M 14.1 34.05
Q 14.5 33.8 15.05 33.8 15.75 33.8 16.2 34.25 16.6 34.65 16.7 35.45
L 13.3 35.45
Q 13.3 35.1 13.55 34.7 13.7 34.4 14.1 34.05 Z"/>
</g>

<g id="IT_300x600_FR_psd_Asset_V10_2_Si_vous_envisagez__de_changer_votre__solution_de__r_seau_d_affa_0_Layer0_0_MEMBER_43_FILL">
<path fill="#D82C26" stroke="none" d="
M 19.9 33.35
Q 19.45 33.35 19 33.5 18.5 33.65 18.2 33.95
L 18.35 34.4 19.05 34
Q 19.4 33.8 19.85 33.8 20.45 33.8 20.8 34.15 21.15 34.45 21.15 35.1
L 21.15 35.35 20.6 35.35
Q 17.95 35.35 17.95 36.9 17.95 37.6 18.35 37.9 18.75 38.25 19.4 38.25 19.95 38.25 20.45 38 20.95 37.7 21.15 37.25
L 21.25 38.15 21.75 38.15 21.7 35.1
Q 21.7 34.25 21.2 33.8 20.75 33.35 19.9 33.35
M 19.55 37.8
Q 19.05 37.8 18.8 37.6 18.5 37.4 18.5 36.85 18.5 35.75 20.65 35.75
L 21.15 35.75 21.15 36.2
Q 21.15 36.6 20.95 36.95 20.85 37.25 20.4 37.6 20.05 37.8 19.55 37.8 Z"/>
</g>

<g id="IT_300x600_FR_psd_Asset_V10_2_Si_vous_envisagez__de_changer_votre__solution_de__r_seau_d_affa_0_Layer0_0_MEMBER_44_FILL">
<path fill="#D82C26" stroke="none" d="
M 23 33.5
L 23 36.3
Q 23 37.15 23.4 37.7 23.85 38.25 24.7 38.25 25.25 38.25 25.7 37.95 26.15 37.65 26.4 37.15
L 26.45 38.15 27.05 38.15 26.95 37.05 26.95 33.5 26.4 33.5 26.4 35.8
Q 26.4 36.25 26.2 36.85 25.95 37.35 25.6 37.55 25.25 37.8 24.85 37.8 24.15 37.8 23.85 37.3 23.6 36.8 23.6 36.15
L 23.6 33.5 23 33.5 Z"/>
</g>

<g id="IT_300x600_FR_psd_Asset_V10_2_Si_vous_envisagez__de_changer_votre__solution_de__r_seau_d_affa_0_Layer0_0_MEMBER_45_FILL">
<path fill="#D82C26" stroke="none" d="
M 34.95 30.55
L 34.35 30.65 34.35 34.5
Q 34 33.9 33.55 33.65 33.05 33.35 32.45 33.35 31.75 33.35 31.25 33.7 30.65 34.05 30.45 34.55 30.15 35.15 30.15 35.8 30.15 36.55 30.45 37.05 30.6 37.5 31.25 37.95 31.8 38.25 32.45 38.25 33.05 38.25 33.55 37.95 34.1 37.65 34.35 37.1
L 34.4 37.1 34.45 38.15 35 38.15 34.95 30.55
M 30.95 36.8
Q 30.7 36.3 30.7 35.8 30.7 35.35 30.95 34.85 31.2 34.4 31.55 34.1 32.05 33.85 32.55 33.85 33 33.85 33.5 34.1 33.95 34.45 34.15 34.85 34.4 35.35 34.4 35.8 34.4 36.3 34.15 36.8 33.95 37.25 33.5 37.5 33.15 37.75 32.55 37.75 31.95 37.75 31.55 37.5 31.2 37.3 30.95 36.8 Z"/>
</g>

<g id="IT_300x600_FR_psd_Asset_V10_2_Si_vous_envisagez__de_changer_votre__solution_de__r_seau_d_affa_0_Layer0_0_MEMBER_46_FILL">
<path fill="#D82C26" stroke="none" d="
M 37.25 31.3
Q 37.1 31.15 36.9 31.15 36.7 31.15 36.6 31.25 36.5 31.35 36.5 31.55 36.5 31.8 36.6 31.9
L 36.9 32
Q 36.8 32.45 36.65 32.65
L 36.25 33.2 36.45 33.35
Q 37.35 32.55 37.35 31.7 37.35 31.5 37.25 31.3 Z"/>
</g>

<g id="IT_300x600_FR_psd_Asset_V10_2_Si_vous_envisagez__de_changer_votre__solution_de__r_seau_d_affa_0_Layer0_0_MEMBER_47_FILL">
<path fill="#D82C26" stroke="none" d="
M 40.9 35.1
L 40.9 35.35 40.35 35.35
Q 37.7 35.35 37.7 36.9 37.7 37.65 38.1 37.9 38.5 38.25 39.15 38.25 39.6 38.25 40.2 38 40.7 37.7 40.9 37.25
L 41 38.15 41.5 38.15 41.45 35.1
Q 41.45 34.25 40.95 33.8 40.5 33.35 39.65 33.35 39.15 33.35 38.7 33.5 38.25 33.65 37.95 33.95
L 38.1 34.4
Q 38.5 34.1 38.8 34 39.15 33.8 39.55 33.8 40.2 33.8 40.55 34.15 40.9 34.5 40.9 35.1
M 40.9 36.2
Q 40.9 36.6 40.7 36.95 40.6 37.25 40.15 37.6 39.8 37.8 39.25 37.8 38.8 37.8 38.55 37.6 38.25 37.4 38.25 36.85 38.25 35.75 40.4 35.75
L 40.9 35.75 40.9 36.2 Z"/>
</g>

<g id="IT_300x600_FR_psd_Asset_V10_2_Si_vous_envisagez__de_changer_votre__solution_de__r_seau_d_affa_0_Layer0_0_MEMBER_48_FILL">
<path fill="#D82C26" stroke="none" d="
M 48.35 30.65
L 47.95 30.55 47.5 30.55
Q 46.8 30.55 46.45 30.95 46.05 31.35 46.05 32.15
L 46.05 33.5 43.65 33.5 43.65 32.15
Q 43.65 31.75 43.85 31.35 44.05 31 44.55 31
L 45.3 31.1 45.35 30.65 45 30.55 44.5 30.55
Q 43.8 30.55 43.45 30.95 43.1 31.3 43.1 32.15
L 43.1 33.5 42.25 33.5 42.1 33.95 43.1 33.95 43.1 38.15 43.65 38.15 43.65 33.95 46.05 33.95 46.05 38.15 46.65 38.15 46.65 33.95 47.7 33.95 47.85 33.5 46.65 33.5 46.65 32.15
Q 46.65 31.6 46.85 31.35 47.05 31 47.55 31
L 48.25 31.1 48.35 30.65 Z"/>
</g>

<g id="IT_300x600_FR_psd_Asset_V10_2_Si_vous_envisagez__de_changer_votre__solution_de__r_seau_d_affa_0_Layer0_0_MEMBER_49_FILL">
<path fill="#D82C26" stroke="none" d="
M 51.5 35.35
L 50.95 35.35
Q 48.3 35.35 48.3 36.9 48.3 37.6 48.7 37.9 49.1 38.25 49.75 38.25 50.3 38.25 50.8 38 51.3 37.7 51.5 37.25
L 51.6 38.15 52.1 38.15 52.05 35.1
Q 52.05 34.25 51.55 33.8 51.1 33.35 50.25 33.35
L 49.3 33.5
Q 48.85 33.65 48.55 33.95
L 48.7 34.4
Q 49.1 34.1 49.4 34 49.75 33.8 50.2 33.8 50.8 33.8 51.15 34.15 51.5 34.45 51.5 35.1
L 51.5 35.35
M 51.5 36.2
Q 51.5 36.6 51.3 36.95 51.2 37.25 50.75 37.6 50.4 37.8 49.9 37.8 49.4 37.8 49.15 37.6 48.85 37.4 48.85 36.85 48.85 35.75 51 35.75
L 51.5 35.75 51.5 36.2 Z"/>
</g>

<g id="IT_300x600_FR_psd_Asset_V10_2_Si_vous_envisagez__de_changer_votre__solution_de__r_seau_d_affa_0_Layer0_0_MEMBER_50_FILL">
<path fill="#D82C26" stroke="none" d="
M 54 33.5
L 53.4 33.5 53.4 38.15 54 38.15 54 33.5
M 53.7 32.05
Q 53.9 32.05 54 31.95 54.1 31.85 54.1 31.65 54.1 31.45 54 31.35 53.9 31.25 53.7 31.25 53.5 31.25 53.4 31.35
L 53.3 31.65 53.4 31.95
Q 53.5 32.05 53.7 32.05 Z"/>
</g>

<g id="IT_300x600_FR_psd_Asset_V10_2_Si_vous_envisagez__de_changer_votre__solution_de__r_seau_d_affa_0_Layer0_0_MEMBER_51_FILL">
<path fill="#D82C26" stroke="none" d="
M 56 35.8
Q 56 35.05 56.35 34.45 56.7 33.9 57.3 33.9
L 57.75 33.95 57.85 33.45 57.35 33.35
Q 56.95 33.35 56.55 33.65 56.15 33.95 56 34.5
L 55.95 33.5 55.4 33.5 55.45 38.15 56 38.15 56 35.8 Z"/>
</g>

<g id="IT_300x600_FR_psd_Asset_V10_2_Si_vous_envisagez__de_changer_votre__solution_de__r_seau_d_affa_0_Layer0_0_MEMBER_52_FILL">
<path fill="#D82C26" stroke="none" d="
M 58.85 36.85
Q 58.6 36.35 58.6 35.9
L 62.55 35.9 62.55 35.65
Q 62.55 35.1 62.3 34.5 61.95 33.9 61.5 33.65 61.05 33.35 60.35 33.35 59.7 33.35 59.15 33.65 58.65 33.95 58.35 34.55 58.05 35.1 58.05 35.8 58.05 36.55 58.35 37.05 58.65 37.65 59.2 37.95 59.75 38.25 60.4 38.25 61.45 38.25 62.25 37.7
L 62.15 37.2
Q 61.8 37.45 61.4 37.6 61 37.8 60.45 37.8 60 37.8 59.5 37.55 59 37.15 58.85 36.85
M 59.4 34.05
Q 59.9 33.8 60.35 33.8 61.05 33.8 61.5 34.25 61.9 34.65 62 35.45
L 58.6 35.45
Q 58.7 34.95 58.85 34.7 59 34.4 59.4 34.05 Z"/>
</g>

<g id="IT_300x600_FR_psd_Asset_V10_2_Si_vous_envisagez__de_changer_votre__solution_de__r_seau_d_affa_0_Layer0_0_MEMBER_53_FILL">
<path fill="#D82C26" stroke="none" d="
M 64.9 33.8
Q 65.25 33.8 65.55 33.95
L 66.1 34.25 66.35 33.85
Q 66.2 33.7 65.7 33.5 65.35 33.35 64.9 33.35
L 64.15 33.5
Q 63.75 33.65 63.6 33.95 63.35 34.3 63.35 34.65 63.35 35.15 63.7 35.45 64.1 35.75 64.65 35.95 65.5 36.25 65.65 36.35 65.95 36.6 65.95 36.95 65.95 37.35 65.65 37.55 65.3 37.8 64.9 37.8 64.05 37.8 63.35 37.25
L 63.25 37.75
Q 63.5 37.95 64 38.1 64.45 38.25 64.95 38.25
L 65.7 38.1
Q 66.1 37.95 66.3 37.65 66.5 37.25 66.5 36.9 66.5 36.4 66.15 36.1 65.7 35.75 65.05 35.55
L 64.15 35.15
Q 63.9 34.9 63.9 34.6 63.9 34.25 64.2 34 64.6 33.8 64.9 33.8 Z"/>
</g>

<g id="IT_300x600_FR_psd_Asset_V10_2_Si_vous_envisagez__de_changer_votre__solution_de__r_seau_d_affa_0_Layer0_0_MEMBER_54_FILL">
<path fill="#D82C26" stroke="none" d="
M 67.55 39.3
Q 68.45 38.5 68.45 37.6 68.45 37.35 68.3 37.2
L 68 37.05
Q 67.8 37.05 67.7 37.2 67.55 37.3 67.55 37.5 67.55 37.75 67.7 37.8 67.8 37.95 67.95 37.95 67.95 38.2 67.75 38.6
L 67.3 39.15 67.55 39.3 Z"/>
</g>
</defs>

<g transform="matrix( 1, 0, 0, 1, -377,38) ">
<g transform="matrix( 1, 0, 0, 1, 372,0) ">
<g transform="matrix( 1, 0, 0, 1, 34,5) ">
<g transform="matrix( 2.815704345703125, 0, 0, 2.832611083984375, -0.85,20.6) ">
<use xlink:href="#IT_300x600_FR_psd_Asset_V10_2_Si_vous_envisagez__de_changer_votre__solution_de__r_seau_d_affa_0_Layer0_0_MEMBER_0_FILL"/>
</g>

<g transform="matrix( 2.815704345703125, 0, 0, 2.832611083984375, -0.85,20.6) ">
<use xlink:href="#IT_300x600_FR_psd_Asset_V10_2_Si_vous_envisagez__de_changer_votre__solution_de__r_seau_d_affa_0_Layer0_0_MEMBER_1_FILL"/>
</g>

<g transform="matrix( 2.815704345703125, 0, 0, 2.832611083984375, -0.85,20.6) ">
<use xlink:href="#IT_300x600_FR_psd_Asset_V10_2_Si_vous_envisagez__de_changer_votre__solution_de__r_seau_d_affa_0_Layer0_0_MEMBER_2_FILL"/>
</g>

<g transform="matrix( 2.815704345703125, 0, 0, 2.832611083984375, -0.85,20.6) ">
<use xlink:href="#IT_300x600_FR_psd_Asset_V10_2_Si_vous_envisagez__de_changer_votre__solution_de__r_seau_d_affa_0_Layer0_0_MEMBER_3_FILL"/>
</g>

<g transform="matrix( 2.815704345703125, 0, 0, 2.832611083984375, -0.85,20.6) ">
<use xlink:href="#IT_300x600_FR_psd_Asset_V10_2_Si_vous_envisagez__de_changer_votre__solution_de__r_seau_d_affa_0_Layer0_0_MEMBER_4_FILL"/>
</g>

<g transform="matrix( 2.815704345703125, 0, 0, 2.832611083984375, -0.85,20.6) ">
<use xlink:href="#IT_300x600_FR_psd_Asset_V10_2_Si_vous_envisagez__de_changer_votre__solution_de__r_seau_d_affa_0_Layer0_0_MEMBER_5_FILL"/>
</g>

<g transform="matrix( 2.815704345703125, 0, 0, 2.832611083984375, -0.85,20.6) ">
<use xlink:href="#IT_300x600_FR_psd_Asset_V10_2_Si_vous_envisagez__de_changer_votre__solution_de__r_seau_d_affa_0_Layer0_0_MEMBER_6_FILL"/>
</g>

<g transform="matrix( 2.815704345703125, 0, 0, 2.832611083984375, -0.85,20.6) ">
<use xlink:href="#IT_300x600_FR_psd_Asset_V10_2_Si_vous_envisagez__de_changer_votre__solution_de__r_seau_d_affa_0_Layer0_0_MEMBER_7_FILL"/>
</g>

<g transform="matrix( 2.815704345703125, 0, 0, 2.832611083984375, -0.85,20.6) ">
<use xlink:href="#IT_300x600_FR_psd_Asset_V10_2_Si_vous_envisagez__de_changer_votre__solution_de__r_seau_d_affa_0_Layer0_0_MEMBER_8_FILL"/>
</g>

<g transform="matrix( 2.815704345703125, 0, 0, 2.832611083984375, -0.85,20.6) ">
<use xlink:href="#IT_300x600_FR_psd_Asset_V10_2_Si_vous_envisagez__de_changer_votre__solution_de__r_seau_d_affa_0_Layer0_0_MEMBER_9_FILL"/>
</g>

<g transform="matrix( 2.815704345703125, 0, 0, 2.832611083984375, -0.85,20.6) ">
<use xlink:href="#IT_300x600_FR_psd_Asset_V10_2_Si_vous_envisagez__de_changer_votre__solution_de__r_seau_d_affa_0_Layer0_0_MEMBER_10_FILL"/>
</g>

<g transform="matrix( 2.815704345703125, 0, 0, 2.832611083984375, -0.85,20.6) ">
<use xlink:href="#IT_300x600_FR_psd_Asset_V10_2_Si_vous_envisagez__de_changer_votre__solution_de__r_seau_d_affa_0_Layer0_0_MEMBER_11_FILL"/>
</g>

<g transform="matrix( 2.815704345703125, 0, 0, 2.832611083984375, -0.85,20.6) ">
<use xlink:href="#IT_300x600_FR_psd_Asset_V10_2_Si_vous_envisagez__de_changer_votre__solution_de__r_seau_d_affa_0_Layer0_0_MEMBER_12_FILL"/>
</g>

<g transform="matrix( 2.815704345703125, 0, 0, 2.832611083984375, -0.85,20.6) ">
<use xlink:href="#IT_300x600_FR_psd_Asset_V10_2_Si_vous_envisagez__de_changer_votre__solution_de__r_seau_d_affa_0_Layer0_0_MEMBER_13_FILL"/>
</g>

<g transform="matrix( 2.815704345703125, 0, 0, 2.832611083984375, -0.85,20.6) ">
<use xlink:href="#IT_300x600_FR_psd_Asset_V10_2_Si_vous_envisagez__de_changer_votre__solution_de__r_seau_d_affa_0_Layer0_0_MEMBER_14_FILL"/>
</g>

<g transform="matrix( 2.815704345703125, 0, 0, 2.832611083984375, -0.85,20.6) ">
<use xlink:href="#IT_300x600_FR_psd_Asset_V10_2_Si_vous_envisagez__de_changer_votre__solution_de__r_seau_d_affa_0_Layer0_0_MEMBER_15_FILL"/>
</g>

<g transform="matrix( 2.815704345703125, 0, 0, 2.832611083984375, -0.85,20.6) ">
<use xlink:href="#IT_300x600_FR_psd_Asset_V10_2_Si_vous_envisagez__de_changer_votre__solution_de__r_seau_d_affa_0_Layer0_0_MEMBER_16_FILL"/>
</g>

<g transform="matrix( 2.815704345703125, 0, 0, 2.832611083984375, -0.85,20.6) ">
<use xlink:href="#IT_300x600_FR_psd_Asset_V10_2_Si_vous_envisagez__de_changer_votre__solution_de__r_seau_d_affa_0_Layer0_0_MEMBER_17_FILL"/>
</g>

<g transform="matrix( 2.815704345703125, 0, 0, 2.832611083984375, -0.85,20.6) ">
<use xlink:href="#IT_300x600_FR_psd_Asset_V10_2_Si_vous_envisagez__de_changer_votre__solution_de__r_seau_d_affa_0_Layer0_0_MEMBER_18_FILL"/>
</g>

<g transform="matrix( 2.815704345703125, 0, 0, 2.832611083984375, -0.85,20.6) ">
<use xlink:href="#IT_300x600_FR_psd_Asset_V10_2_Si_vous_envisagez__de_changer_votre__solution_de__r_seau_d_affa_0_Layer0_0_MEMBER_19_FILL"/>
</g>

<g transform="matrix( 2.815704345703125, 0, 0, 2.832611083984375, -0.85,20.6) ">
<use xlink:href="#IT_300x600_FR_psd_Asset_V10_2_Si_vous_envisagez__de_changer_votre__solution_de__r_seau_d_affa_0_Layer0_0_MEMBER_20_FILL"/>
</g>

<g transform="matrix( 2.815704345703125, 0, 0, 2.832611083984375, -0.85,20.6) ">
<use xlink:href="#IT_300x600_FR_psd_Asset_V10_2_Si_vous_envisagez__de_changer_votre__solution_de__r_seau_d_affa_0_Layer0_0_MEMBER_21_FILL"/>
</g>

<g transform="matrix( 2.815704345703125, 0, 0, 2.832611083984375, -0.85,20.6) ">
<use xlink:href="#IT_300x600_FR_psd_Asset_V10_2_Si_vous_envisagez__de_changer_votre__solution_de__r_seau_d_affa_0_Layer0_0_MEMBER_22_FILL"/>
</g>

<g transform="matrix( 2.815704345703125, 0, 0, 2.832611083984375, -0.85,20.6) ">
<use xlink:href="#IT_300x600_FR_psd_Asset_V10_2_Si_vous_envisagez__de_changer_votre__solution_de__r_seau_d_affa_0_Layer0_0_MEMBER_23_FILL"/>
</g>

<g transform="matrix( 2.815704345703125, 0, 0, 2.832611083984375, -0.85,20.6) ">
<use xlink:href="#IT_300x600_FR_psd_Asset_V10_2_Si_vous_envisagez__de_changer_votre__solution_de__r_seau_d_affa_0_Layer0_0_MEMBER_24_FILL"/>
</g>

<g transform="matrix( 2.815704345703125, 0, 0, 2.832611083984375, -0.85,20.6) ">
<use xlink:href="#IT_300x600_FR_psd_Asset_V10_2_Si_vous_envisagez__de_changer_votre__solution_de__r_seau_d_affa_0_Layer0_0_MEMBER_25_FILL"/>
</g>

<g transform="matrix( 2.815704345703125, 0, 0, 2.832611083984375, -0.85,20.6) ">
<use xlink:href="#IT_300x600_FR_psd_Asset_V10_2_Si_vous_envisagez__de_changer_votre__solution_de__r_seau_d_affa_0_Layer0_0_MEMBER_26_FILL"/>
</g>

<g transform="matrix( 2.815704345703125, 0, 0, 2.832611083984375, -0.85,20.6) ">
<use xlink:href="#IT_300x600_FR_psd_Asset_V10_2_Si_vous_envisagez__de_changer_votre__solution_de__r_seau_d_affa_0_Layer0_0_MEMBER_27_FILL"/>
</g>

<g transform="matrix( 2.815704345703125, 0, 0, 2.832611083984375, -0.85,20.6) ">
<use xlink:href="#IT_300x600_FR_psd_Asset_V10_2_Si_vous_envisagez__de_changer_votre__solution_de__r_seau_d_affa_0_Layer0_0_MEMBER_28_FILL"/>
</g>

<g transform="matrix( 2.815704345703125, 0, 0, 2.832611083984375, -0.85,20.6) ">
<use xlink:href="#IT_300x600_FR_psd_Asset_V10_2_Si_vous_envisagez__de_changer_votre__solution_de__r_seau_d_affa_0_Layer0_0_MEMBER_29_FILL"/>
</g>

<g transform="matrix( 2.815704345703125, 0, 0, 2.832611083984375, -0.85,20.6) ">
<use xlink:href="#IT_300x600_FR_psd_Asset_V10_2_Si_vous_envisagez__de_changer_votre__solution_de__r_seau_d_affa_0_Layer0_0_MEMBER_30_FILL"/>
</g>

<g transform="matrix( 2.815704345703125, 0, 0, 2.832611083984375, -0.85,20.6) ">
<use xlink:href="#IT_300x600_FR_psd_Asset_V10_2_Si_vous_envisagez__de_changer_votre__solution_de__r_seau_d_affa_0_Layer0_0_MEMBER_31_FILL"/>
</g>

<g transform="matrix( 2.815704345703125, 0, 0, 2.832611083984375, -0.85,20.6) ">
<use xlink:href="#IT_300x600_FR_psd_Asset_V10_2_Si_vous_envisagez__de_changer_votre__solution_de__r_seau_d_affa_0_Layer0_0_MEMBER_32_FILL"/>
</g>

<g transform="matrix( 2.815704345703125, 0, 0, 2.832611083984375, -0.85,20.6) ">
<use xlink:href="#IT_300x600_FR_psd_Asset_V10_2_Si_vous_envisagez__de_changer_votre__solution_de__r_seau_d_affa_0_Layer0_0_MEMBER_33_FILL"/>
</g>

<g transform="matrix( 2.815704345703125, 0, 0, 2.832611083984375, -0.85,20.6) ">
<use xlink:href="#IT_300x600_FR_psd_Asset_V10_2_Si_vous_envisagez__de_changer_votre__solution_de__r_seau_d_affa_0_Layer0_0_MEMBER_34_FILL"/>
</g>

<g transform="matrix( 2.815704345703125, 0, 0, 2.832611083984375, -0.85,20.6) ">
<use xlink:href="#IT_300x600_FR_psd_Asset_V10_2_Si_vous_envisagez__de_changer_votre__solution_de__r_seau_d_affa_0_Layer0_0_MEMBER_35_FILL"/>
</g>

<g transform="matrix( 2.815704345703125, 0, 0, 2.832611083984375, -0.85,20.6) ">
<use xlink:href="#IT_300x600_FR_psd_Asset_V10_2_Si_vous_envisagez__de_changer_votre__solution_de__r_seau_d_affa_0_Layer0_0_MEMBER_36_FILL"/>
</g>

<g transform="matrix( 2.815704345703125, 0, 0, 2.832611083984375, -0.85,20.6) ">
<use xlink:href="#IT_300x600_FR_psd_Asset_V10_2_Si_vous_envisagez__de_changer_votre__solution_de__r_seau_d_affa_0_Layer0_0_MEMBER_37_FILL"/>
</g>

<g transform="matrix( 2.815704345703125, 0, 0, 2.832611083984375, -0.85,20.6) ">
<use xlink:href="#IT_300x600_FR_psd_Asset_V10_2_Si_vous_envisagez__de_changer_votre__solution_de__r_seau_d_affa_0_Layer0_0_MEMBER_38_FILL"/>
</g>

<g transform="matrix( 2.815704345703125, 0, 0, 2.832611083984375, -0.85,20.6) ">
<use xlink:href="#IT_300x600_FR_psd_Asset_V10_2_Si_vous_envisagez__de_changer_votre__solution_de__r_seau_d_affa_0_Layer0_0_MEMBER_39_FILL"/>
</g>

<g transform="matrix( 2.815704345703125, 0, 0, 2.832611083984375, -0.85,20.6) ">
<use xlink:href="#IT_300x600_FR_psd_Asset_V10_2_Si_vous_envisagez__de_changer_votre__solution_de__r_seau_d_affa_0_Layer0_0_MEMBER_40_FILL"/>
</g>

<g transform="matrix( 2.815704345703125, 0, 0, 2.832611083984375, -0.85,20.6) ">
<use xlink:href="#IT_300x600_FR_psd_Asset_V10_2_Si_vous_envisagez__de_changer_votre__solution_de__r_seau_d_affa_0_Layer0_0_MEMBER_41_FILL"/>
</g>

<g transform="matrix( 2.815704345703125, 0, 0, 2.832611083984375, -0.85,20.6) ">
<use xlink:href="#IT_300x600_FR_psd_Asset_V10_2_Si_vous_envisagez__de_changer_votre__solution_de__r_seau_d_affa_0_Layer0_0_MEMBER_42_FILL"/>
</g>

<g transform="matrix( 2.815704345703125, 0, 0, 2.832611083984375, -0.85,20.6) ">
<use xlink:href="#IT_300x600_FR_psd_Asset_V10_2_Si_vous_envisagez__de_changer_votre__solution_de__r_seau_d_affa_0_Layer0_0_MEMBER_43_FILL"/>
</g>

<g transform="matrix( 2.815704345703125, 0, 0, 2.832611083984375, -0.85,20.6) ">
<use xlink:href="#IT_300x600_FR_psd_Asset_V10_2_Si_vous_envisagez__de_changer_votre__solution_de__r_seau_d_affa_0_Layer0_0_MEMBER_44_FILL"/>
</g>

<g transform="matrix( 2.815704345703125, 0, 0, 2.832611083984375, -0.85,20.6) ">
<use xlink:href="#IT_300x600_FR_psd_Asset_V10_2_Si_vous_envisagez__de_changer_votre__solution_de__r_seau_d_affa_0_Layer0_0_MEMBER_45_FILL"/>
</g>

<g transform="matrix( 2.815704345703125, 0, 0, 2.832611083984375, -0.85,20.6) ">
<use xlink:href="#IT_300x600_FR_psd_Asset_V10_2_Si_vous_envisagez__de_changer_votre__solution_de__r_seau_d_affa_0_Layer0_0_MEMBER_46_FILL"/>
</g>

<g transform="matrix( 2.815704345703125, 0, 0, 2.832611083984375, -0.85,20.6) ">
<use xlink:href="#IT_300x600_FR_psd_Asset_V10_2_Si_vous_envisagez__de_changer_votre__solution_de__r_seau_d_affa_0_Layer0_0_MEMBER_47_FILL"/>
</g>

<g transform="matrix( 2.815704345703125, 0, 0, 2.832611083984375, -0.85,20.6) ">
<use xlink:href="#IT_300x600_FR_psd_Asset_V10_2_Si_vous_envisagez__de_changer_votre__solution_de__r_seau_d_affa_0_Layer0_0_MEMBER_48_FILL"/>
</g>

<g transform="matrix( 2.815704345703125, 0, 0, 2.832611083984375, -0.85,20.6) ">
<use xlink:href="#IT_300x600_FR_psd_Asset_V10_2_Si_vous_envisagez__de_changer_votre__solution_de__r_seau_d_affa_0_Layer0_0_MEMBER_49_FILL"/>
</g>

<g transform="matrix( 2.815704345703125, 0, 0, 2.832611083984375, -0.85,20.6) ">
<use xlink:href="#IT_300x600_FR_psd_Asset_V10_2_Si_vous_envisagez__de_changer_votre__solution_de__r_seau_d_affa_0_Layer0_0_MEMBER_50_FILL"/>
</g>

<g transform="matrix( 2.815704345703125, 0, 0, 2.832611083984375, -0.85,20.6) ">
<use xlink:href="#IT_300x600_FR_psd_Asset_V10_2_Si_vous_envisagez__de_changer_votre__solution_de__r_seau_d_affa_0_Layer0_0_MEMBER_51_FILL"/>
</g>

<g transform="matrix( 2.815704345703125, 0, 0, 2.832611083984375, -0.85,20.6) ">
<use xlink:href="#IT_300x600_FR_psd_Asset_V10_2_Si_vous_envisagez__de_changer_votre__solution_de__r_seau_d_affa_0_Layer0_0_MEMBER_52_FILL"/>
</g>

<g transform="matrix( 2.815704345703125, 0, 0, 2.832611083984375, -0.85,20.6) ">
<use xlink:href="#IT_300x600_FR_psd_Asset_V10_2_Si_vous_envisagez__de_changer_votre__solution_de__r_seau_d_affa_0_Layer0_0_MEMBER_53_FILL"/>
</g>

<g transform="matrix( 2.815704345703125, 0, 0, 2.832611083984375, -0.85,20.6) ">
<use xlink:href="#IT_300x600_FR_psd_Asset_V10_2_Si_vous_envisagez__de_changer_votre__solution_de__r_seau_d_affa_0_Layer0_0_MEMBER_54_FILL"/>
</g>
</g>
</g>
</g>
</svg>
