
<svg xmlns="http://www.w3.org/2000/svg" version="1.1" xmlns:xlink="http://www.w3.org/1999/xlink" preserveAspectRatio="none" x="0px" y="0px" width="160px" height="600px" viewBox="0 0 160 600">
<defs>
<g id="BDM_160x600_FR_psd_Asset_8_V7_1_Vous__souhaitez_en__savoir_plus_sur_votre__client_le__0_Layer0_0_MEMBER_0_FILL">
<path fill="#D82C26" stroke="none" d="
M 0.65 -6
L 0.05 -6 2.35 0 2.9 0 5.2 -6 4.65 -6 2.65 -0.6 0.65 -6 Z"/>
</g>

<g id="BDM_160x600_FR_psd_Asset_8_V7_1_Vous__souhaitez_en__savoir_plus_sur_votre__client_le__0_Layer0_0_MEMBER_1_FILL">
<path fill="#D82C26" stroke="none" d="
M 9.05 -3.1
Q 8.75 -3.55 8.25 -3.85 7.75 -4.1 7.2 -4.1 6.6 -4.1 6.1 -3.85 5.65 -3.55 5.35 -3.1 5.05 -2.55 5.05 -2 5.05 -1.4 5.35 -0.9 5.65 -0.45 6.1 -0.15 6.5 0.1 7.2 0.1 7.9 0.1 8.25 -0.15 8.75 -0.45 9.05 -0.9 9.3 -1.5 9.3 -2 9.3 -2.5 9.05 -3.1
M 6.35 -3.45
Q 6.7 -3.65 7.2 -3.65 7.7 -3.65 8.05 -3.45 8.35 -3.25 8.6 -2.85 8.8 -2.5 8.8 -2 8.8 -1.5 8.6 -1.15 8.45 -0.8 8.05 -0.55 7.65 -0.3 7.2 -0.3 6.75 -0.3 6.35 -0.55 6 -0.75 5.75 -1.15 5.55 -1.65 5.55 -2 5.55 -2.35 5.75 -2.85 6 -3.2 6.35 -3.45 Z"/>
</g>

<g id="BDM_160x600_FR_psd_Asset_8_V7_1_Vous__souhaitez_en__savoir_plus_sur_votre__client_le__0_Layer0_0_MEMBER_2_FILL">
<path fill="#D82C26" stroke="none" d="
M 13.55 -3.95
L 13.05 -3.95 13.05 -2
Q 13.05 -1.45 12.9 -1.1 12.8 -0.8 12.4 -0.5 12.15 -0.3 11.75 -0.3 11.15 -0.3 10.9 -0.7 10.65 -1.1 10.65 -1.7
L 10.65 -3.95 10.15 -3.95 10.15 -1.55
Q 10.15 -0.95 10.5 -0.35 10.9 0.1 11.6 0.1 12 0.1 12.5 -0.15 12.95 -0.5 13.05 -0.85
L 13.15 0 13.65 0 13.55 -0.9 13.55 -3.95 Z"/>
</g>

<g id="BDM_160x600_FR_psd_Asset_8_V7_1_Vous__souhaitez_en__savoir_plus_sur_votre__client_le__0_Layer0_0_MEMBER_3_FILL">
<path fill="#D82C26" stroke="none" d="
M 14.55 -0.75
L 14.45 -0.35
Q 14.65 -0.15 15.05 0
L 15.85 0.1 16.5 0
Q 16.8 -0.15 17 -0.4 17.2 -0.65 17.2 -1.05 17.2 -1.45 16.9 -1.75 16.45 -2.1 16 -2.2
L 15.2 -2.55
Q 15 -2.7 15 -3 15 -3.35 15.25 -3.5 15.45 -3.7 15.85 -3.7
L 16.4 -3.6 16.9 -3.3 17.1 -3.65
Q 16.9 -3.85 16.55 -3.95
L 15.85 -4.1
Q 15.5 -4.1 15.2 -3.95 15 -3.9 14.7 -3.6 14.5 -3.3 14.5 -3 14.5 -2.5 14.8 -2.3 15.2 -2 15.65 -1.9 16.3 -1.65 16.5 -1.5 16.75 -1.35 16.75 -1.05 16.75 -0.65 16.45 -0.5 16.25 -0.3 15.85 -0.3 15.1 -0.3 14.55 -0.75 Z"/>
</g>

<g id="BDM_160x600_FR_psd_Asset_8_V7_1_Vous__souhaitez_en__savoir_plus_sur_votre__client_le__0_Layer0_0_MEMBER_4_FILL">
<path fill="#D82C26" stroke="none" d="
M 1.85 5.8
L 1.2 5.9
Q 0.85 6.05 0.75 6.3 0.55 6.5 0.55 6.9 0.55 7.25 0.8 7.6 1.15 7.85 1.65 8 2.35 8.25 2.5 8.4 2.75 8.55 2.75 8.85 2.75 9.15 2.5 9.4 2.25 9.6 1.85 9.6 1.05 9.6 0.55 9.1
L 0.45 9.55
Q 0.65 9.75 1.1 9.85 1.5 10 1.9 10 2.25 10 2.55 9.85 2.8 9.8 3.05 9.45 3.25 9.15 3.25 8.85 3.25 8.4 2.95 8.15 2.7 7.9 2 7.65 1.45 7.5 1.25 7.3 1 7.15 1 6.85 1 6.5 1.25 6.35 1.5 6.2 1.85 6.2
L 2.45 6.3 2.9 6.6 3.1 6.2 2.55 5.9 1.85 5.8 Z"/>
</g>

<g id="BDM_160x600_FR_psd_Asset_8_V7_1_Vous__souhaitez_en__savoir_plus_sur_votre__client_le__0_Layer0_0_MEMBER_5_FILL">
<path fill="#D82C26" stroke="none" d="
M 7 6.05
Q 6.5 5.8 5.95 5.8 5.35 5.8 4.85 6.05 4.4 6.35 4.1 6.8 3.85 7.2 3.85 7.9 3.85 8.55 4.1 9 4.4 9.45 4.85 9.75 5.35 10 5.95 10 6.5 10 7 9.75 7.5 9.45 7.8 9 8.05 8.4 8.05 7.9 8.05 7.3 7.8 6.8 7.5 6.35 7 6.05
M 4.35 7.9
Q 4.35 7.45 4.5 7.05 4.75 6.7 5.1 6.45 5.5 6.2 5.95 6.2 6.4 6.2 6.8 6.45 7.1 6.65 7.35 7.05 7.55 7.4 7.55 7.9 7.55 8.4 7.35 8.75 7.2 9.1 6.8 9.35 6.4 9.6 5.95 9.6 5.5 9.6 5.1 9.35 4.75 9.15 4.5 8.75 4.35 8.4 4.35 7.9 Z"/>
</g>

<g id="BDM_160x600_FR_psd_Asset_8_V7_1_Vous__souhaitez_en__savoir_plus_sur_votre__client_le__0_Layer0_0_MEMBER_6_FILL">
<path fill="#D82C26" stroke="none" d="
M 12.3 5.9
L 11.8 5.9 11.8 7.9
Q 11.8 8.45 11.65 8.8 11.5 9.1 11.15 9.4 10.75 9.6 10.5 9.6 9.9 9.6 9.65 9.2 9.4 8.8 9.4 8.2
L 9.4 5.9 8.9 5.9 8.9 8.35
Q 8.9 9 9.25 9.5 9.6 10 10.35 10 10.85 10 11.25 9.75 11.65 9.45 11.8 9.05
L 11.9 9.9 12.4 9.9 12.3 8.95 12.3 5.9 Z"/>
</g>

<g id="BDM_160x600_FR_psd_Asset_8_V7_1_Vous__souhaitez_en__savoir_plus_sur_votre__client_le__0_Layer0_0_MEMBER_7_FILL">
<path fill="#D82C26" stroke="none" d="
M 14 3.4
L 13.5 3.5 13.5 9.9 14 9.9 14 7.95
Q 14 7.35 14.2 7 14.35 6.65 14.65 6.4 15.05 6.2 15.35 6.2 15.9 6.2 16.15 6.6 16.4 6.9 16.4 7.6
L 16.4 9.9 16.9 9.9 16.9 7.45
Q 16.9 6.75 16.55 6.25 16.2 5.8 15.45 5.8 15 5.8 14.6 6.05 14.2 6.3 14.05 6.75
L 14 6.75 14 3.4 Z"/>
</g>

<g id="BDM_160x600_FR_psd_Asset_8_V7_1_Vous__souhaitez_en__savoir_plus_sur_votre__client_le__0_Layer0_0_MEMBER_8_FILL">
<path fill="#D82C26" stroke="none" d="
M 20.5 9.1
L 20.55 9.1 20.55 9.5 20.6 9.9 21.05 9.9 21 7.3
Q 21 6.65 20.6 6.15 20.2 5.8 19.45 5.8
L 18.65 5.9 18 6.3 18.15 6.7 18.7 6.35 19.4 6.2
Q 19.85 6.2 20.2 6.45 20.5 6.75 20.5 7.3
L 20.5 7.5 20.05 7.5
Q 17.75 7.5 17.75 8.8 17.75 9.4 18.15 9.7 18.55 10 19 10 19.5 10 19.9 9.75 20.35 9.5 20.5 9.1
M 20.5 7.85
L 20.5 8.25 20.35 8.9
Q 20.15 9.25 19.9 9.4 19.65 9.6 19.15 9.6 18.7 9.6 18.5 9.4 18.25 9.3 18.25 8.8 18.25 7.85 20.1 7.85
L 20.5 7.85 Z"/>
</g>

<g id="BDM_160x600_FR_psd_Asset_8_V7_1_Vous__souhaitez_en__savoir_plus_sur_votre__client_le__0_Layer0_0_MEMBER_9_FILL">
<path fill="#D82C26" stroke="none" d="
M 22.6 5.9
L 22.1 5.9 22.1 9.9 22.6 9.9 22.6 5.9
M 22.6 4.6
Q 22.7 4.5 22.7 4.35 22.7 4.15 22.6 4.05
L 22.35 3.95 22.1 4.1 22 4.35 22.1 4.6 22.35 4.7 22.6 4.6 Z"/>
</g>

<g id="BDM_160x600_FR_psd_Asset_8_V7_1_Vous__souhaitez_en__savoir_plus_sur_votre__client_le__0_Layer0_0_MEMBER_10_FILL">
<path fill="#D82C26" stroke="none" d="
M 24 5.9
L 23.35 5.9 23.25 6.3 24 6.3 24 8.95
Q 24 9.45 24.25 9.7 24.45 9.95 24.9 9.95
L 25.35 9.9 25.75 9.75 25.7 9.4 25.05 9.55
Q 24.8 9.55 24.65 9.4 24.5 9.25 24.5 8.85
L 24.5 6.3 25.5 6.3 25.6 5.9 24.5 5.9 24.5 4.8 24 4.95 24 5.9 Z"/>
</g>

<g id="BDM_160x600_FR_psd_Asset_8_V7_1_Vous__souhaitez_en__savoir_plus_sur_votre__client_le__0_Layer0_0_MEMBER_11_FILL">
<path fill="#D82C26" stroke="none" d="
M 27.95 5.8
Q 27.45 5.8 26.95 6.05 26.45 6.4 26.25 6.8 25.95 7.25 25.95 7.9 25.95 8.5 26.25 9 26.45 9.45 26.95 9.75 27.45 10 28 10 28.95 10 29.6 9.5
L 29.5 9.1
Q 29.35 9.25 28.85 9.45 28.5 9.6 28.05 9.6 27.65 9.6 27.25 9.4 26.9 9.2 26.65 8.8 26.45 8.3 26.45 7.95
L 29.8 7.95 29.85 7.75
Q 29.85 7.25 29.6 6.75 29.4 6.35 28.95 6.05 28.45 5.8 27.95 5.8
M 28.95 6.55
Q 29.35 7.05 29.35 7.6
L 26.45 7.6
Q 26.45 7.45 26.65 6.95 26.8 6.65 27.15 6.4 27.5 6.2 27.95 6.2 28.6 6.2 28.95 6.55 Z"/>
</g>

<g id="BDM_160x600_FR_psd_Asset_8_V7_1_Vous__souhaitez_en__savoir_plus_sur_votre__client_le__0_Layer0_0_MEMBER_12_FILL">
<path fill="#D82C26" stroke="none" d="
M 33.3 5.9
L 30.45 5.9 30.35 6.3 32.75 6.3 30.3 9.5 30.3 9.9 33.4 9.9 33.5 9.5 30.9 9.5 33.3 6.3 33.3 5.9 Z"/>
</g>

<g id="BDM_160x600_FR_psd_Asset_8_V7_1_Vous__souhaitez_en__savoir_plus_sur_votre__client_le__0_Layer0_0_MEMBER_13_FILL">
<path fill="#D82C26" stroke="none" d="
M 37.45 5.8
Q 36.95 5.8 36.45 6.05 35.95 6.4 35.75 6.8 35.5 7.3 35.5 7.9 35.5 8.4 35.75 9 36.1 9.5 36.5 9.75 37 10 37.55 10 38.45 10 39.1 9.5
L 39.05 9.1 38.4 9.45
Q 38.05 9.6 37.55 9.6 37.25 9.6 36.75 9.4 36.35 9.15 36.2 8.8 36 8.45 36 7.95
L 39.35 7.95 39.35 7.75
Q 39.35 7.35 39.15 6.75 39 6.45 38.5 6.05 38 5.8 37.45 5.8
M 38.5 6.55
Q 38.85 6.95 38.85 7.6
L 36 7.6
Q 36 7.3 36.2 6.95 36.4 6.6 36.7 6.4 36.95 6.2 37.45 6.2 38.1 6.2 38.5 6.55 Z"/>
</g>

<g id="BDM_160x600_FR_psd_Asset_8_V7_1_Vous__souhaitez_en__savoir_plus_sur_votre__client_le__0_Layer0_0_MEMBER_14_FILL">
<path fill="#D82C26" stroke="none" d="
M 42.2 5.8
Q 41.7 5.8 41.3 6.05 40.9 6.4 40.75 6.8
L 40.7 5.9 40.2 5.9 40.25 9.9 40.75 9.9 40.75 7.85
Q 40.75 7.35 40.95 7 41.1 6.65 41.4 6.4 41.8 6.2 42.1 6.2 42.65 6.2 42.9 6.6 43.15 7 43.15 7.6
L 43.15 9.9 43.65 9.9 43.65 7.45
Q 43.65 6.7 43.3 6.3 42.95 5.8 42.2 5.8 Z"/>
</g>

<g id="BDM_160x600_FR_psd_Asset_8_V7_1_Vous__souhaitez_en__savoir_plus_sur_votre__client_le__0_Layer0_0_MEMBER_15_FILL">
<path fill="#D82C26" stroke="none" d="
M 1.85 16.1
Q 2.25 16.1 2.45 16.2
L 2.9 16.45 3.1 16.1 2.55 15.8
Q 2.35 15.7 1.85 15.7 1.4 15.7 1.2 15.8 0.9 15.95 0.75 16.15 0.55 16.4 0.55 16.75 0.55 17.2 0.8 17.45
L 1.65 17.9
Q 2.15 18.05 2.5 18.25 2.75 18.45 2.75 18.75 2.75 19.05 2.5 19.3 2.1 19.5 1.85 19.5 1.05 19.5 0.55 19
L 0.45 19.45
Q 0.8 19.7 1.1 19.75 1.5 19.9 1.9 19.9 2.25 19.9 2.55 19.75 2.85 19.6 3.05 19.35 3.25 19.05 3.25 18.75 3.25 18.3 2.95 18 2.65 17.75 2 17.55 1.6 17.45 1.25 17.2 1 17.05 1 16.75 1 16.4 1.25 16.25 1.5 16.1 1.85 16.1 Z"/>
</g>

<g id="BDM_160x600_FR_psd_Asset_8_V7_1_Vous__souhaitez_en__savoir_plus_sur_votre__client_le__0_Layer0_0_MEMBER_16_FILL">
<path fill="#D82C26" stroke="none" d="
M 6.65 17.4
L 6.15 17.4
Q 3.9 17.4 3.9 18.7 3.9 19.3 4.25 19.6 4.65 19.9 5.15 19.9 5.55 19.9 6.05 19.65 6.45 19.4 6.6 19
L 6.65 19 6.65 19.4 6.7 19.75 7.15 19.75 7.1 17.2
Q 7.1 16.45 6.7 16.05 6.3 15.7 5.55 15.7 5 15.7 4.75 15.8 4.35 15.95 4.1 16.2
L 4.25 16.55 4.85 16.2
Q 5.05 16.1 5.5 16.1 6.1 16.1 6.35 16.35 6.65 16.65 6.65 17.15
L 6.65 17.4
M 6.65 17.7
L 6.65 18.1
Q 6.65 18.5 6.45 18.75 6.35 19.05 6 19.3 5.75 19.5 5.25 19.5 4.85 19.5 4.6 19.3 4.35 19.15 4.35 18.7 4.35 17.7 6.2 17.7
L 6.65 17.7 Z"/>
</g>

<g id="BDM_160x600_FR_psd_Asset_8_V7_1_Vous__souhaitez_en__savoir_plus_sur_votre__client_le__0_Layer0_0_MEMBER_17_FILL">
<path fill="#D82C26" stroke="none" d="
M 7.5 15.8
L 9.05 19.75 9.6 19.75 11.1 15.8 10.6 15.8 9.35 19.25 8.05 15.8 7.5 15.8 Z"/>
</g>

<g id="BDM_160x600_FR_psd_Asset_8_V7_1_Vous__souhaitez_en__savoir_plus_sur_votre__client_le__0_Layer0_0_MEMBER_18_FILL">
<path fill="#D82C26" stroke="none" d="
M 15.55 17.8
Q 15.55 17.15 15.25 16.7 14.95 16.2 14.5 15.95 14.15 15.7 13.4 15.7 12.75 15.7 12.35 15.95 11.85 16.2 11.6 16.7 11.3 17.15 11.3 17.8 11.3 18.4 11.6 18.85 11.85 19.4 12.35 19.6 12.8 19.9 13.4 19.9 14.05 19.9 14.5 19.6 14.95 19.4 15.25 18.85 15.55 18.4 15.55 17.8
M 11.8 17.8
Q 11.8 17.3 12 16.95 12.25 16.55 12.55 16.35 12.95 16.1 13.4 16.1 13.85 16.1 14.25 16.35 14.65 16.6 14.85 16.95 15.05 17.45 15.05 17.8 15.05 18.1 14.85 18.6 14.65 19 14.3 19.25 13.95 19.45 13.4 19.45 12.9 19.45 12.55 19.25 12.25 19.05 12 18.6 11.8 18.25 11.8 17.8 Z"/>
</g>

<g id="BDM_160x600_FR_psd_Asset_8_V7_1_Vous__souhaitez_en__savoir_plus_sur_votre__client_le__0_Layer0_0_MEMBER_19_FILL">
<path fill="#D82C26" stroke="none" d="
M 16.95 15.8
L 16.45 15.8 16.45 19.75 16.95 19.75 16.95 15.8
M 16.45 14.45
Q 16.55 14.6 16.7 14.6 16.8 14.6 16.95 14.45
L 17.05 14.2 16.95 13.95 16.7 13.85 16.45 13.95
Q 16.35 14.05 16.35 14.2 16.35 14.4 16.45 14.45 Z"/>
</g>

<g id="BDM_160x600_FR_psd_Asset_8_V7_1_Vous__souhaitez_en__savoir_plus_sur_votre__client_le__0_Layer0_0_MEMBER_20_FILL">
<path fill="#D82C26" stroke="none" d="
M 19.75 16.15
L 20.1 16.2 20.2 15.75 19.8 15.7
Q 19.35 15.7 19.1 15.95 18.75 16.2 18.6 16.65
L 18.55 15.8 18.1 15.8 18.15 19.75 18.65 19.75 18.65 17.8
Q 18.65 17.15 18.95 16.6 19.25 16.15 19.75 16.15 Z"/>
</g>

<g id="BDM_160x600_FR_psd_Asset_8_V7_1_Vous__souhaitez_en__savoir_plus_sur_votre__client_le__0_Layer0_0_MEMBER_21_FILL">
<path fill="#D82C26" stroke="none" d="
M 26.35 17.8
Q 26.35 17.15 26.1 16.7 25.9 16.3 25.4 15.95 24.9 15.7 24.35 15.7 23.8 15.7 23.4 15.95 22.95 16.2 22.75 16.65
L 22.7 15.8 22.2 15.8 22.25 21.8 22.75 21.8 22.75 18.9
Q 22.95 19.3 23.4 19.65 23.9 19.9 24.35 19.9 24.95 19.9 25.4 19.6 25.9 19.3 26.1 18.85 26.35 18.5 26.35 17.8
M 25.65 16.95
Q 25.85 17.3 25.85 17.8 25.85 18.25 25.65 18.65 25.5 19 25.1 19.25 24.85 19.45 24.3 19.45 23.85 19.45 23.5 19.25 23.1 19 22.95 18.65 22.75 18.25 22.75 17.8 22.75 17.3 22.95 16.95 23.1 16.6 23.5 16.35 23.9 16.1 24.3 16.1 24.75 16.1 25.1 16.35 25.5 16.6 25.65 16.95 Z"/>
</g>

<g id="BDM_160x600_FR_psd_Asset_8_V7_1_Vous__souhaitez_en__savoir_plus_sur_votre__client_le__0_Layer0_0_MEMBER_22_FILL">
<path fill="#D82C26" stroke="none" d="
M 27.45 19.5
Q 27.6 19.75 27.9 19.85
L 28.15 19.45
Q 27.95 19.4 27.85 19.2
L 27.75 18.8 27.75 13.3 27.25 13.4 27.25 18.9
Q 27.25 19.2 27.45 19.5 Z"/>
</g>

<g id="BDM_160x600_FR_psd_Asset_8_V7_1_Vous__souhaitez_en__savoir_plus_sur_votre__client_le__0_Layer0_0_MEMBER_23_FILL">
<path fill="#D82C26" stroke="none" d="
M 29.3 19.4
Q 29.65 19.9 30.35 19.9 30.9 19.9 31.25 19.6 31.65 19.35 31.8 18.9
L 31.9 19.8 32.4 19.75 32.3 18.85 32.3 15.8 31.8 15.8 31.8 17.8
Q 31.8 18.35 31.65 18.7 31.5 19.1 31.15 19.25 30.9 19.45 30.5 19.45 29.95 19.45 29.65 19.1 29.4 18.6 29.4 18.1
L 29.4 15.8 28.9 15.8 28.9 18.2
Q 28.9 18.9 29.3 19.4 Z"/>
</g>

<g id="BDM_160x600_FR_psd_Asset_8_V7_1_Vous__souhaitez_en__savoir_plus_sur_votre__client_le__0_Layer0_0_MEMBER_24_FILL">
<path fill="#D82C26" stroke="none" d="
M 35.65 16.45
L 35.85 16.1 35.3 15.8
Q 35.05 15.7 34.6 15.7 34.15 15.7 33.95 15.8
L 33.45 16.15
Q 33.25 16.55 33.25 16.75 33.25 17.25 33.55 17.45 33.9 17.7 34.4 17.9 34.7 18 35.25 18.25 35.5 18.5 35.5 18.75 35.5 19.05 35.25 19.3 34.85 19.5 34.6 19.5 33.8 19.5 33.3 19
L 33.2 19.45
Q 33.6 19.7 33.8 19.75 34.2 19.9 34.6 19.9 34.95 19.9 35.3 19.75 35.6 19.6 35.8 19.35 35.95 19.15 35.95 18.75 35.95 18.3 35.65 18
L 34.75 17.55
Q 34.3 17.45 33.95 17.2 33.75 17.05 33.75 16.75 33.75 16.4 34 16.25 34.25 16.1 34.6 16.1 35 16.1 35.15 16.2
L 35.65 16.45 Z"/>
</g>

<g id="BDM_160x600_FR_psd_Asset_8_V7_1_Vous__souhaitez_en__savoir_plus_sur_votre__client_le__0_Layer0_0_MEMBER_25_FILL">
<path fill="#D82C26" stroke="none" d="
M 3.1 26
Q 2.85 25.75 2.55 25.7 2.25 25.55 1.85 25.55 1.5 25.55 1.2 25.7 0.95 25.75 0.75 26.05 0.55 26.25 0.55 26.65 0.55 27.1 0.8 27.35 1.15 27.6 1.65 27.75 2.35 28 2.5 28.15 2.75 28.3 2.75 28.65 2.75 28.95 2.5 29.2 2.2 29.35 1.85 29.35 1.1 29.35 0.55 28.9
L 0.45 29.3
Q 0.6 29.45 1.1 29.65
L 1.9 29.75 2.55 29.65 3.05 29.25
Q 3.25 28.85 3.25 28.6 3.25 28.2 2.95 27.9 2.65 27.65 2 27.45
L 1.25 27.1
Q 1 26.95 1 26.65 1 26.3 1.25 26.15 1.45 25.95 1.85 25.95
L 2.45 26.05 2.9 26.35 3.1 26 Z"/>
</g>

<g id="BDM_160x600_FR_psd_Asset_8_V7_1_Vous__souhaitez_en__savoir_plus_sur_votre__client_le__0_Layer0_0_MEMBER_26_FILL">
<path fill="#D82C26" stroke="none" d="
M 6.9 25.7
L 6.9 27.65
Q 6.9 28.2 6.7 28.55 6.55 29 6.25 29.15 6 29.35 5.6 29.35 4.95 29.35 4.75 28.95 4.5 28.55 4.5 28
L 4.5 25.7 4 25.7 4 28.1
Q 4 28.8 4.35 29.3 4.75 29.75 5.45 29.75 6 29.75 6.35 29.5 6.75 29.25 6.9 28.8
L 6.95 29.65 7.45 29.65 7.4 25.7 6.9 25.7 Z"/>
</g>

<g id="BDM_160x600_FR_psd_Asset_8_V7_1_Vous__souhaitez_en__savoir_plus_sur_votre__client_le__0_Layer0_0_MEMBER_27_FILL">
<path fill="#D82C26" stroke="none" d="
M 10.65 25.65
L 10.25 25.55
Q 9.95 25.55 9.55 25.85 9.25 26.05 9.1 26.55
L 9.05 26.55 9.05 25.7 8.55 25.7 8.6 29.65 9.1 29.65 9.1 27.7
Q 9.1 26.95 9.4 26.5 9.7 26 10.2 26
L 10.55 26.05 10.65 25.65 Z"/>
</g>

<g id="BDM_160x600_FR_psd_Asset_8_V7_1_Vous__souhaitez_en__savoir_plus_sur_votre__client_le__0_Layer0_0_MEMBER_28_FILL">
<path fill="#D82C26" stroke="none" d="
M 12 25.7
L 13.55 29.65 14.1 29.65 15.55 25.7 15.05 25.7 13.8 29.15 12.55 25.7 12 25.7 Z"/>
</g>

<g id="BDM_160x600_FR_psd_Asset_8_V7_1_Vous__souhaitez_en__savoir_plus_sur_votre__client_le__0_Layer0_0_MEMBER_29_FILL">
<path fill="#D82C26" stroke="none" d="
M 19 25.85
Q 18.5 25.55 17.9 25.55 17.35 25.55 16.8 25.85 16.4 26.05 16.05 26.55 15.8 27.15 15.8 27.65 15.8 28.25 16.05 28.75 16.35 29.2 16.8 29.5 17.25 29.75 17.9 29.75 18.55 29.75 19 29.5 19.45 29.2 19.75 28.75 20 28.25 20 27.65 20 27.15 19.75 26.55 19.45 26.05 19 25.85
M 19.3 26.8
Q 19.5 27.15 19.5 27.65 19.5 28.15 19.3 28.5 19.15 28.85 18.75 29.1 18.35 29.35 17.9 29.35 17.45 29.35 17.05 29.1 16.65 28.85 16.5 28.5 16.3 28.15 16.3 27.65 16.3 27.15 16.5 26.8 16.65 26.45 17.05 26.2 17.4 26 17.9 26 18.4 26 18.75 26.2 19.15 26.45 19.3 26.8 Z"/>
</g>

<g id="BDM_160x600_FR_psd_Asset_8_V7_1_Vous__souhaitez_en__savoir_plus_sur_votre__client_le__0_Layer0_0_MEMBER_30_FILL">
<path fill="#D82C26" stroke="none" d="
M 20.95 25.7
L 20.3 25.7 20.2 26.1 20.95 26.1 20.95 28.7
Q 20.95 29.2 21.2 29.45 21.45 29.75 21.85 29.75
L 22.3 29.7 22.7 29.55 22.65 29.15
Q 22.15 29.35 22 29.35 21.75 29.35 21.6 29.15 21.45 29 21.45 28.65
L 21.45 26.1 22.45 26.1 22.55 25.7 21.45 25.7 21.45 24.55 20.95 24.75 20.95 25.7 Z"/>
</g>

<g id="BDM_160x600_FR_psd_Asset_8_V7_1_Vous__souhaitez_en__savoir_plus_sur_votre__client_le__0_Layer0_0_MEMBER_31_FILL">
<path fill="#D82C26" stroke="none" d="
M 24.95 26
L 25.3 26.05 25.4 25.65 25 25.55
Q 24.7 25.55 24.3 25.85 24 26.05 23.85 26.55
L 23.8 26.55 23.8 25.7 23.3 25.7 23.35 29.65 23.85 29.65 23.85 27.7
Q 23.85 26.95 24.15 26.5 24.45 26 24.95 26 Z"/>
</g>

<g id="BDM_160x600_FR_psd_Asset_8_V7_1_Vous__souhaitez_en__savoir_plus_sur_votre__client_le__0_Layer0_0_MEMBER_32_FILL">
<path fill="#D82C26" stroke="none" d="
M 29.2 26.55
Q 29 26.15 28.55 25.8 28.05 25.55 27.5 25.55 26.95 25.55 26.5 25.85 26.15 26.05 25.8 26.55 25.55 27.15 25.55 27.65 25.55 28.25 25.8 28.75 26.1 29.2 26.55 29.5 26.95 29.75 27.6 29.75 28.5 29.75 29.15 29.25
L 29.1 28.85 28.45 29.2
Q 28.1 29.35 27.6 29.35 27.15 29.35 26.8 29.15 26.5 28.95 26.25 28.55 26.05 28.2 26.05 27.75
L 29.4 27.75 29.4 27.55
Q 29.4 26.95 29.2 26.55
M 28.55 26.35
Q 28.85 26.65 28.95 27.4
L 26.05 27.4
Q 26.05 27 26.25 26.75 26.4 26.4 26.75 26.2 27.1 25.95 27.5 25.95 28.15 25.95 28.55 26.35 Z"/>
</g>

<g id="BDM_160x600_FR_psd_Asset_8_V7_1_Vous__souhaitez_en__savoir_plus_sur_votre__client_le__0_Layer0_0_MEMBER_33_FILL">
<path fill="#D82C26" stroke="none" d="
M 1.5 35.7
Q 1.1 35.95 0.75 36.45 0.45 37 0.45 37.55 0.45 38.2 0.75 38.65 1 39.1 1.5 39.4 2 39.65 2.55 39.65
L 3.3 39.5
Q 3.6 39.45 3.9 39.15
L 3.85 38.75
Q 3.45 39.05 3.25 39.1 2.95 39.25 2.6 39.25 2.15 39.25 1.75 39 1.35 38.75 1.2 38.4 1 38.05 1 37.55 1 37.05 1.2 36.7 1.35 36.35 1.75 36.1 2.15 35.85 2.55 35.85 2.9 35.85 3.2 36 3.45 36.05 3.7 36.3
L 3.9 35.9
Q 3.5 35.65 3.3 35.6
L 2.55 35.45
Q 2 35.45 1.5 35.7 Z"/>
</g>

<g id="BDM_160x600_FR_psd_Asset_8_V7_1_Vous__souhaitez_en__savoir_plus_sur_votre__client_le__0_Layer0_0_MEMBER_34_FILL">
<path fill="#D82C26" stroke="none" d="
M 4.8 39.3
Q 4.95 39.5 5.25 39.65
L 5.5 39.2 5.2 39 5.1 38.55 5.1 33.1 4.6 33.2 4.6 38.65
Q 4.6 39.1 4.8 39.3 Z"/>
</g>

<g id="BDM_160x600_FR_psd_Asset_8_V7_1_Vous__souhaitez_en__savoir_plus_sur_votre__client_le__0_Layer0_0_MEMBER_35_FILL">
<path fill="#D82C26" stroke="none" d="
M 6.8 35.55
L 6.3 35.55 6.3 39.55 6.8 39.55 6.8 35.55
M 6.3 33.75
L 6.2 34 6.3 34.25 6.55 34.35 6.8 34.25
Q 6.9 34.15 6.9 34 6.9 33.8 6.8 33.75 6.75 33.65 6.55 33.65 6.4 33.65 6.3 33.75 Z"/>
</g>

<g id="BDM_160x600_FR_psd_Asset_8_V7_1_Vous__souhaitez_en__savoir_plus_sur_votre__client_le__0_Layer0_0_MEMBER_36_FILL">
<path fill="#D82C26" stroke="none" d="
M 11.35 36.4
Q 11.15 36 10.7 35.7 10.3 35.45 9.7 35.45 9.2 35.45 8.7 35.7 8.2 36.05 8 36.45 7.75 36.85 7.75 37.55 7.75 38.2 8 38.65 8.2 39.1 8.7 39.4 9.3 39.65 9.75 39.65 10.7 39.65 11.35 39.15
L 11.25 38.75
Q 11.05 38.95 10.6 39.1 10.25 39.25 9.8 39.25 9.35 39.25 9 39.05 8.6 38.8 8.45 38.45 8.2 38.05 8.2 37.6
L 11.6 37.6 11.6 37.4
Q 11.6 36.9 11.35 36.4
M 8.9 36.05
Q 9.25 35.85 9.7 35.85 10.35 35.85 10.7 36.25 11.1 36.65 11.1 37.25
L 8.2 37.25 8.4 36.6 8.9 36.05 Z"/>
</g>

<g id="BDM_160x600_FR_psd_Asset_8_V7_1_Vous__souhaitez_en__savoir_plus_sur_votre__client_le__0_Layer0_0_MEMBER_37_FILL">
<path fill="#D82C26" stroke="none" d="
M 12.95 36.45
L 12.95 35.55 12.45 35.55 12.5 39.55 13 39.55 13 37.5
Q 13 37.05 13.15 36.65 13.4 36.25 13.65 36.05 14.05 35.85 14.3 35.85 14.9 35.85 15.15 36.25 15.4 36.75 15.4 37.25
L 15.4 39.55 15.9 39.55 15.9 37.1
Q 15.9 36.5 15.55 35.95 15.2 35.45 14.4 35.45 13.95 35.45 13.55 35.7 13.15 36.05 13 36.45
L 12.95 36.45 Z"/>
</g>

<g id="BDM_160x600_FR_psd_Asset_8_V7_1_Vous__souhaitez_en__savoir_plus_sur_votre__client_le__0_Layer0_0_MEMBER_38_FILL">
<path fill="#D82C26" stroke="none" d="
M 16.35 35.95
L 17.1 35.95 17.1 38.6
Q 17.1 39 17.35 39.35 17.6 39.6 18.05 39.6
L 18.5 39.55
Q 18.65 39.55 18.9 39.4
L 18.8 39.05
Q 18.5 39.2 18.2 39.2 17.9 39.2 17.75 39.05 17.6 38.9 17.6 38.5
L 17.6 35.95 18.65 35.95 18.75 35.55 17.6 35.55 17.6 34.45 17.1 34.65 17.1 35.55 16.45 35.55 16.35 35.95 Z"/>
</g>

<g id="BDM_160x600_FR_psd_Asset_8_V7_1_Vous__souhaitez_en__savoir_plus_sur_votre__client_le__0_Layer0_0_MEMBER_39_FILL">
<path fill="#D82C26" stroke="none" d="
M 21.5 34.75
L 20.6 33.55 20.05 33.55 21.05 34.75 21.5 34.75
M 19.35 38.65
Q 19.65 39.1 20.1 39.4 20.6 39.65 21.15 39.65 22.15 39.65 22.7 39.15
L 22.65 38.75 22 39.1
Q 21.65 39.25 21.2 39.25 20.7 39.25 20.35 39.05 20.05 38.85 19.8 38.45 19.6 38.1 19.6 37.6
L 22.95 37.6 22.95 37.4
Q 22.95 36.8 22.75 36.4 22.6 36.1 22.1 35.7 21.6 35.45 21.05 35.45 20.55 35.45 20.05 35.7 19.7 35.95 19.35 36.45 19.1 36.95 19.1 37.55 19.1 38.05 19.35 38.65
M 19.6 37.25
Q 19.6 36.95 19.8 36.6 20 36.25 20.3 36.05 20.55 35.85 21.05 35.85 21.75 35.85 22.1 36.25 22.4 36.55 22.5 37.25
L 19.6 37.25 Z"/>
</g>

<g id="BDM_160x600_FR_psd_Asset_8_V7_1_Vous__souhaitez_en__savoir_plus_sur_votre__client_le__0_Layer0_0_MEMBER_40_FILL">
<path fill="#D82C26" stroke="none" d="
M 24.05 39.3
Q 24.2 39.5 24.5 39.65
L 24.75 39.2 24.45 39 24.35 38.55 24.35 33.1 23.85 33.2 23.85 38.65
Q 23.85 39.1 24.05 39.3 Z"/>
</g>

<g id="BDM_160x600_FR_psd_Asset_8_V7_1_Vous__souhaitez_en__savoir_plus_sur_votre__client_le__0_Layer0_0_MEMBER_41_FILL">
<path fill="#D82C26" stroke="none" d="
M 26.25 35.7
Q 25.75 36.05 25.55 36.45 25.3 36.85 25.3 37.55 25.3 38.2 25.55 38.65 25.75 39.1 26.25 39.4 26.85 39.65 27.3 39.65 28.25 39.65 28.9 39.15
L 28.8 38.75
Q 28.65 38.9 28.15 39.1 27.8 39.25 27.35 39.25 26.9 39.25 26.55 39.05 26.15 38.8 26 38.45 25.75 38.05 25.75 37.6
L 29.15 37.6 29.15 37.4
Q 29.15 36.9 28.9 36.4 28.7 36 28.25 35.7 27.85 35.45 27.25 35.45 26.75 35.45 26.25 35.7
M 27.25 35.85
Q 27.9 35.85 28.25 36.25 28.65 36.65 28.65 37.25
L 25.75 37.25 25.95 36.6 26.45 36.05
Q 26.8 35.85 27.25 35.85 Z"/>
</g>

<g id="BDM_160x600_FR_psd_Asset_8_V7_1_Vous__souhaitez_en__savoir_plus_sur_votre__client_le__0_Layer0_0_MEMBER_42_FILL">
<path fill="#D82C26" stroke="none" d="
M 31.65 33.55
Q 31.3 33.4 30.8 33.4 30.2 33.4 29.8 33.6
L 29.1 34.1 29.35 34.5
Q 29.6 34.2 29.95 34.05 30.3 33.85 30.75 33.85 31.25 33.85 31.6 34.1 31.95 34.4 31.95 34.85
L 31.85 35.35 30.65 36.85
Q 30.5 37.15 30.5 37.55
L 30.5 37.8 31 37.8 31 37.65 31.05 37.15 31.25 36.8
Q 31.3 36.6 31.65 36.35
L 32.1 35.85 32.35 35.45 32.45 34.85
Q 32.45 34.4 32.25 34.05 32.05 33.8 31.65 33.55
M 30.55 39.5
L 30.8 39.6 31.05 39.5 31.15 39.2 31.05 38.95
Q 31 38.85 30.8 38.85 30.6 38.85 30.5 38.95
L 30.4 39.2 30.55 39.5 Z"/>
</g>
</defs>

<g transform="matrix( 1, 0, 0, 1, -259,52) ">
<g transform="matrix( 1, 0, 0, 1, 253,0) ">
<g transform="matrix( 1, 0, 0, 1, 25,4) ">
<g transform="matrix( 2.815704345703125, 0, 0, 2.832611083984375, 0.15,17.6) ">
<use xlink:href="#BDM_160x600_FR_psd_Asset_8_V7_1_Vous__souhaitez_en__savoir_plus_sur_votre__client_le__0_Layer0_0_MEMBER_0_FILL"/>
</g>

<g transform="matrix( 2.815704345703125, 0, 0, 2.832611083984375, 0.15,17.6) ">
<use xlink:href="#BDM_160x600_FR_psd_Asset_8_V7_1_Vous__souhaitez_en__savoir_plus_sur_votre__client_le__0_Layer0_0_MEMBER_1_FILL"/>
</g>

<g transform="matrix( 2.815704345703125, 0, 0, 2.832611083984375, 0.15,17.6) ">
<use xlink:href="#BDM_160x600_FR_psd_Asset_8_V7_1_Vous__souhaitez_en__savoir_plus_sur_votre__client_le__0_Layer0_0_MEMBER_2_FILL"/>
</g>

<g transform="matrix( 2.815704345703125, 0, 0, 2.832611083984375, 0.15,17.6) ">
<use xlink:href="#BDM_160x600_FR_psd_Asset_8_V7_1_Vous__souhaitez_en__savoir_plus_sur_votre__client_le__0_Layer0_0_MEMBER_3_FILL"/>
</g>

<g transform="matrix( 2.815704345703125, 0, 0, 2.832611083984375, 0.15,17.6) ">
<use xlink:href="#BDM_160x600_FR_psd_Asset_8_V7_1_Vous__souhaitez_en__savoir_plus_sur_votre__client_le__0_Layer0_0_MEMBER_4_FILL"/>
</g>

<g transform="matrix( 2.815704345703125, 0, 0, 2.832611083984375, 0.15,17.6) ">
<use xlink:href="#BDM_160x600_FR_psd_Asset_8_V7_1_Vous__souhaitez_en__savoir_plus_sur_votre__client_le__0_Layer0_0_MEMBER_5_FILL"/>
</g>

<g transform="matrix( 2.815704345703125, 0, 0, 2.832611083984375, 0.15,17.6) ">
<use xlink:href="#BDM_160x600_FR_psd_Asset_8_V7_1_Vous__souhaitez_en__savoir_plus_sur_votre__client_le__0_Layer0_0_MEMBER_6_FILL"/>
</g>

<g transform="matrix( 2.815704345703125, 0, 0, 2.832611083984375, 0.15,17.6) ">
<use xlink:href="#BDM_160x600_FR_psd_Asset_8_V7_1_Vous__souhaitez_en__savoir_plus_sur_votre__client_le__0_Layer0_0_MEMBER_7_FILL"/>
</g>

<g transform="matrix( 2.815704345703125, 0, 0, 2.832611083984375, 0.15,17.6) ">
<use xlink:href="#BDM_160x600_FR_psd_Asset_8_V7_1_Vous__souhaitez_en__savoir_plus_sur_votre__client_le__0_Layer0_0_MEMBER_8_FILL"/>
</g>

<g transform="matrix( 2.815704345703125, 0, 0, 2.832611083984375, 0.15,17.6) ">
<use xlink:href="#BDM_160x600_FR_psd_Asset_8_V7_1_Vous__souhaitez_en__savoir_plus_sur_votre__client_le__0_Layer0_0_MEMBER_9_FILL"/>
</g>

<g transform="matrix( 2.815704345703125, 0, 0, 2.832611083984375, 0.15,17.6) ">
<use xlink:href="#BDM_160x600_FR_psd_Asset_8_V7_1_Vous__souhaitez_en__savoir_plus_sur_votre__client_le__0_Layer0_0_MEMBER_10_FILL"/>
</g>

<g transform="matrix( 2.815704345703125, 0, 0, 2.832611083984375, 0.15,17.6) ">
<use xlink:href="#BDM_160x600_FR_psd_Asset_8_V7_1_Vous__souhaitez_en__savoir_plus_sur_votre__client_le__0_Layer0_0_MEMBER_11_FILL"/>
</g>

<g transform="matrix( 2.815704345703125, 0, 0, 2.832611083984375, 0.15,17.6) ">
<use xlink:href="#BDM_160x600_FR_psd_Asset_8_V7_1_Vous__souhaitez_en__savoir_plus_sur_votre__client_le__0_Layer0_0_MEMBER_12_FILL"/>
</g>

<g transform="matrix( 2.815704345703125, 0, 0, 2.832611083984375, 0.15,17.6) ">
<use xlink:href="#BDM_160x600_FR_psd_Asset_8_V7_1_Vous__souhaitez_en__savoir_plus_sur_votre__client_le__0_Layer0_0_MEMBER_13_FILL"/>
</g>

<g transform="matrix( 2.815704345703125, 0, 0, 2.832611083984375, 0.15,17.6) ">
<use xlink:href="#BDM_160x600_FR_psd_Asset_8_V7_1_Vous__souhaitez_en__savoir_plus_sur_votre__client_le__0_Layer0_0_MEMBER_14_FILL"/>
</g>

<g transform="matrix( 2.815704345703125, 0, 0, 2.832611083984375, 0.15,17.6) ">
<use xlink:href="#BDM_160x600_FR_psd_Asset_8_V7_1_Vous__souhaitez_en__savoir_plus_sur_votre__client_le__0_Layer0_0_MEMBER_15_FILL"/>
</g>

<g transform="matrix( 2.815704345703125, 0, 0, 2.832611083984375, 0.15,17.6) ">
<use xlink:href="#BDM_160x600_FR_psd_Asset_8_V7_1_Vous__souhaitez_en__savoir_plus_sur_votre__client_le__0_Layer0_0_MEMBER_16_FILL"/>
</g>

<g transform="matrix( 2.815704345703125, 0, 0, 2.832611083984375, 0.15,17.6) ">
<use xlink:href="#BDM_160x600_FR_psd_Asset_8_V7_1_Vous__souhaitez_en__savoir_plus_sur_votre__client_le__0_Layer0_0_MEMBER_17_FILL"/>
</g>

<g transform="matrix( 2.815704345703125, 0, 0, 2.832611083984375, 0.15,17.6) ">
<use xlink:href="#BDM_160x600_FR_psd_Asset_8_V7_1_Vous__souhaitez_en__savoir_plus_sur_votre__client_le__0_Layer0_0_MEMBER_18_FILL"/>
</g>

<g transform="matrix( 2.815704345703125, 0, 0, 2.832611083984375, 0.15,17.6) ">
<use xlink:href="#BDM_160x600_FR_psd_Asset_8_V7_1_Vous__souhaitez_en__savoir_plus_sur_votre__client_le__0_Layer0_0_MEMBER_19_FILL"/>
</g>

<g transform="matrix( 2.815704345703125, 0, 0, 2.832611083984375, 0.15,17.6) ">
<use xlink:href="#BDM_160x600_FR_psd_Asset_8_V7_1_Vous__souhaitez_en__savoir_plus_sur_votre__client_le__0_Layer0_0_MEMBER_20_FILL"/>
</g>

<g transform="matrix( 2.815704345703125, 0, 0, 2.832611083984375, 0.15,17.6) ">
<use xlink:href="#BDM_160x600_FR_psd_Asset_8_V7_1_Vous__souhaitez_en__savoir_plus_sur_votre__client_le__0_Layer0_0_MEMBER_21_FILL"/>
</g>

<g transform="matrix( 2.815704345703125, 0, 0, 2.832611083984375, 0.15,17.6) ">
<use xlink:href="#BDM_160x600_FR_psd_Asset_8_V7_1_Vous__souhaitez_en__savoir_plus_sur_votre__client_le__0_Layer0_0_MEMBER_22_FILL"/>
</g>

<g transform="matrix( 2.815704345703125, 0, 0, 2.832611083984375, 0.15,17.6) ">
<use xlink:href="#BDM_160x600_FR_psd_Asset_8_V7_1_Vous__souhaitez_en__savoir_plus_sur_votre__client_le__0_Layer0_0_MEMBER_23_FILL"/>
</g>

<g transform="matrix( 2.815704345703125, 0, 0, 2.832611083984375, 0.15,17.6) ">
<use xlink:href="#BDM_160x600_FR_psd_Asset_8_V7_1_Vous__souhaitez_en__savoir_plus_sur_votre__client_le__0_Layer0_0_MEMBER_24_FILL"/>
</g>

<g transform="matrix( 2.815704345703125, 0, 0, 2.832611083984375, 0.15,17.6) ">
<use xlink:href="#BDM_160x600_FR_psd_Asset_8_V7_1_Vous__souhaitez_en__savoir_plus_sur_votre__client_le__0_Layer0_0_MEMBER_25_FILL"/>
</g>

<g transform="matrix( 2.815704345703125, 0, 0, 2.832611083984375, 0.15,17.6) ">
<use xlink:href="#BDM_160x600_FR_psd_Asset_8_V7_1_Vous__souhaitez_en__savoir_plus_sur_votre__client_le__0_Layer0_0_MEMBER_26_FILL"/>
</g>

<g transform="matrix( 2.815704345703125, 0, 0, 2.832611083984375, 0.15,17.6) ">
<use xlink:href="#BDM_160x600_FR_psd_Asset_8_V7_1_Vous__souhaitez_en__savoir_plus_sur_votre__client_le__0_Layer0_0_MEMBER_27_FILL"/>
</g>

<g transform="matrix( 2.815704345703125, 0, 0, 2.832611083984375, 0.15,17.6) ">
<use xlink:href="#BDM_160x600_FR_psd_Asset_8_V7_1_Vous__souhaitez_en__savoir_plus_sur_votre__client_le__0_Layer0_0_MEMBER_28_FILL"/>
</g>

<g transform="matrix( 2.815704345703125, 0, 0, 2.832611083984375, 0.15,17.6) ">
<use xlink:href="#BDM_160x600_FR_psd_Asset_8_V7_1_Vous__souhaitez_en__savoir_plus_sur_votre__client_le__0_Layer0_0_MEMBER_29_FILL"/>
</g>

<g transform="matrix( 2.815704345703125, 0, 0, 2.832611083984375, 0.15,17.6) ">
<use xlink:href="#BDM_160x600_FR_psd_Asset_8_V7_1_Vous__souhaitez_en__savoir_plus_sur_votre__client_le__0_Layer0_0_MEMBER_30_FILL"/>
</g>

<g transform="matrix( 2.815704345703125, 0, 0, 2.832611083984375, 0.15,17.6) ">
<use xlink:href="#BDM_160x600_FR_psd_Asset_8_V7_1_Vous__souhaitez_en__savoir_plus_sur_votre__client_le__0_Layer0_0_MEMBER_31_FILL"/>
</g>

<g transform="matrix( 2.815704345703125, 0, 0, 2.832611083984375, 0.15,17.6) ">
<use xlink:href="#BDM_160x600_FR_psd_Asset_8_V7_1_Vous__souhaitez_en__savoir_plus_sur_votre__client_le__0_Layer0_0_MEMBER_32_FILL"/>
</g>

<g transform="matrix( 2.815704345703125, 0, 0, 2.832611083984375, 0.15,17.6) ">
<use xlink:href="#BDM_160x600_FR_psd_Asset_8_V7_1_Vous__souhaitez_en__savoir_plus_sur_votre__client_le__0_Layer0_0_MEMBER_33_FILL"/>
</g>

<g transform="matrix( 2.815704345703125, 0, 0, 2.832611083984375, 0.15,17.6) ">
<use xlink:href="#BDM_160x600_FR_psd_Asset_8_V7_1_Vous__souhaitez_en__savoir_plus_sur_votre__client_le__0_Layer0_0_MEMBER_34_FILL"/>
</g>

<g transform="matrix( 2.815704345703125, 0, 0, 2.832611083984375, 0.15,17.6) ">
<use xlink:href="#BDM_160x600_FR_psd_Asset_8_V7_1_Vous__souhaitez_en__savoir_plus_sur_votre__client_le__0_Layer0_0_MEMBER_35_FILL"/>
</g>

<g transform="matrix( 2.815704345703125, 0, 0, 2.832611083984375, 0.15,17.6) ">
<use xlink:href="#BDM_160x600_FR_psd_Asset_8_V7_1_Vous__souhaitez_en__savoir_plus_sur_votre__client_le__0_Layer0_0_MEMBER_36_FILL"/>
</g>

<g transform="matrix( 2.815704345703125, 0, 0, 2.832611083984375, 0.15,17.6) ">
<use xlink:href="#BDM_160x600_FR_psd_Asset_8_V7_1_Vous__souhaitez_en__savoir_plus_sur_votre__client_le__0_Layer0_0_MEMBER_37_FILL"/>
</g>

<g transform="matrix( 2.815704345703125, 0, 0, 2.832611083984375, 0.15,17.6) ">
<use xlink:href="#BDM_160x600_FR_psd_Asset_8_V7_1_Vous__souhaitez_en__savoir_plus_sur_votre__client_le__0_Layer0_0_MEMBER_38_FILL"/>
</g>

<g transform="matrix( 2.815704345703125, 0, 0, 2.832611083984375, 0.15,17.6) ">
<use xlink:href="#BDM_160x600_FR_psd_Asset_8_V7_1_Vous__souhaitez_en__savoir_plus_sur_votre__client_le__0_Layer0_0_MEMBER_39_FILL"/>
</g>

<g transform="matrix( 2.815704345703125, 0, 0, 2.832611083984375, 0.15,17.6) ">
<use xlink:href="#BDM_160x600_FR_psd_Asset_8_V7_1_Vous__souhaitez_en__savoir_plus_sur_votre__client_le__0_Layer0_0_MEMBER_40_FILL"/>
</g>

<g transform="matrix( 2.815704345703125, 0, 0, 2.832611083984375, 0.15,17.6) ">
<use xlink:href="#BDM_160x600_FR_psd_Asset_8_V7_1_Vous__souhaitez_en__savoir_plus_sur_votre__client_le__0_Layer0_0_MEMBER_41_FILL"/>
</g>

<g transform="matrix( 2.815704345703125, 0, 0, 2.832611083984375, 0.15,17.6) ">
<use xlink:href="#BDM_160x600_FR_psd_Asset_8_V7_1_Vous__souhaitez_en__savoir_plus_sur_votre__client_le__0_Layer0_0_MEMBER_42_FILL"/>
</g>
</g>
</g>
</g>
</svg>
