
<svg xmlns="http://www.w3.org/2000/svg" version="1.1" xmlns:xlink="http://www.w3.org/1999/xlink" preserveAspectRatio="none" x="0px" y="0px" width="300px" height="600px" viewBox="0 0 300 600">
<defs>
<g id="IT_300x600_psd_Asset_3_ManagedWiFi_IT_Research_DM10_1_Is_Wi_Fi_as_a_Service_right_for__your_organization__0_Layer0_0_MEMBER_0_FILL">
<path fill="#D82C26" stroke="none" d="
M 1.55 -7
L 0.95 -7 0.95 0 1.55 0 1.55 -7 Z"/>
</g>

<g id="IT_300x600_psd_Asset_3_ManagedWiFi_IT_Research_DM10_1_Is_Wi_Fi_as_a_Service_right_for__your_organization__0_Layer0_0_MEMBER_1_FILL">
<path fill="#D82C26" stroke="none" d="
M 4.4 -4.3
L 5.05 -4.2 5.6 -3.85 5.85 -4.3 5.2 -4.65 4.35 -4.75
Q 3.85 -4.75 3.6 -4.65 3.25 -4.5 3.05 -4.2 2.85 -3.95 2.85 -3.5 2.85 -3 3.15 -2.7 3.4 -2.45 4.15 -2.2 4.8 -2 5.1 -1.75 5.4 -1.5 5.4 -1.2 5.4 -0.75 5.1 -0.55 4.85 -0.35 4.4 -0.35 3.4 -0.35 2.85 -0.9
L 2.75 -0.4
Q 3 -0.15 3.45 0 3.9 0.15 4.4 0.15 4.85 0.15 5.15 0 5.55 -0.25 5.75 -0.5 5.95 -0.75 5.95 -1.2 5.95 -1.75 5.65 -2.05 5.4 -2.25 4.55 -2.6 3.9 -2.75 3.65 -3 3.35 -3.15 3.35 -3.55 3.35 -3.95 3.65 -4.1 3.9 -4.3 4.4 -4.3 Z"/>
</g>

<g id="IT_300x600_psd_Asset_3_ManagedWiFi_IT_Research_DM10_1_Is_Wi_Fi_as_a_Service_right_for__your_organization__0_Layer0_0_MEMBER_2_FILL">
<path fill="#D82C26" stroke="none" d="
M 9 -7
L 8.35 -7 10.4 0 11.1 0 12.95 -6.25 14.8 0 15.5 0 17.55 -7 16.95 -7 15.15 -0.75 15.1 -0.75 13.3 -7 12.6 -7 10.8 -0.75 10.75 -0.75 9 -7 Z"/>
</g>

<g id="IT_300x600_psd_Asset_3_ManagedWiFi_IT_Research_DM10_1_Is_Wi_Fi_as_a_Service_right_for__your_organization__0_Layer0_0_MEMBER_3_FILL">
<path fill="#D82C26" stroke="none" d="
M 19 -4.65
L 18.45 -4.65 18.45 0 19 0 19 -4.65
M 19 -6.2
Q 19.15 -6.25 19.15 -6.5
L 19 -6.8
Q 18.9 -6.9 18.7 -6.9
L 18.45 -6.8 18.3 -6.5
Q 18.3 -6.25 18.45 -6.2 18.55 -6.05 18.7 -6.05 18.95 -6.05 19 -6.2 Z"/>
</g>

<g id="IT_300x600_psd_Asset_3_ManagedWiFi_IT_Research_DM10_1_Is_Wi_Fi_as_a_Service_right_for__your_organization__0_Layer0_0_MEMBER_4_FILL">
<path fill="#D82C26" stroke="none" d="
M 20.2 -2.75
L 20.2 -2.25 22.2 -2.25 22.2 -2.75 20.2 -2.75 Z"/>
</g>

<g id="IT_300x600_psd_Asset_3_ManagedWiFi_IT_Research_DM10_1_Is_Wi_Fi_as_a_Service_right_for__your_organization__0_Layer0_0_MEMBER_5_FILL">
<path fill="#D82C26" stroke="none" d="
M 27.15 -7
L 23.55 -7 23.55 0 24.15 0 24.15 -3.35 26.85 -3.35 27 -3.85 24.15 -3.85 24.15 -6.45 27.1 -6.45 27.15 -7 Z"/>
</g>

<g id="IT_300x600_psd_Asset_3_ManagedWiFi_IT_Research_DM10_1_Is_Wi_Fi_as_a_Service_right_for__your_organization__0_Layer0_0_MEMBER_6_FILL">
<path fill="#D82C26" stroke="none" d="
M 28.8 -4.65
L 28.2 -4.65 28.2 0 28.8 0 28.8 -4.65
M 28.8 -6.2
L 28.9 -6.5 28.8 -6.8 28.5 -6.9
Q 28.4 -6.9 28.2 -6.8
L 28.05 -6.5
Q 28.05 -6.25 28.2 -6.2 28.35 -6.05 28.5 -6.05
L 28.8 -6.2 Z"/>
</g>

<g id="IT_300x600_psd_Asset_3_ManagedWiFi_IT_Research_DM10_1_Is_Wi_Fi_as_a_Service_right_for__your_organization__0_Layer0_0_MEMBER_7_FILL">
<path fill="#D82C26" stroke="none" d="
M 33.85 -4.3
Q 34.45 -4.3 34.8 -4 35.15 -3.65 35.15 -3.05
L 35.15 -2.8 34.6 -2.8
Q 31.95 -2.8 31.95 -1.25 31.95 -0.55 32.4 -0.2 32.85 0.15 33.4 0.15 34 0.15 34.45 -0.15 34.9 -0.35 35.15 -0.9
L 35.2 -0.9 35.25 0 35.8 0 35.7 -1 35.7 -3
Q 35.7 -3.9 35.25 -4.35 34.8 -4.75 33.9 -4.75 33.45 -4.75 33 -4.6 32.4 -4.4 32.2 -4.2
L 32.35 -3.75 33.05 -4.15
Q 33.5 -4.3 33.85 -4.3
M 32.8 -0.55
Q 32.5 -0.75 32.5 -1.25 32.5 -2.4 34.65 -2.4
L 35.15 -2.4 35.15 -1.95
Q 35.15 -1.5 34.95 -1.15 34.8 -0.85 34.45 -0.55 34.05 -0.3 33.55 -0.3 33.15 -0.3 32.8 -0.55 Z"/>
</g>

<g id="IT_300x600_psd_Asset_3_ManagedWiFi_IT_Research_DM10_1_Is_Wi_Fi_as_a_Service_right_for__your_organization__0_Layer0_0_MEMBER_8_FILL">
<path fill="#D82C26" stroke="none" d="
M 39.15 -4.65
L 38.3 -4.75
Q 37.8 -4.75 37.6 -4.65 37.25 -4.5 37 -4.2 36.8 -3.95 36.8 -3.5 36.8 -3 37.1 -2.7 37.45 -2.4 38.1 -2.2 38.8 -1.95 39.1 -1.75 39.4 -1.5 39.4 -1.2 39.4 -0.75 39.05 -0.55 38.8 -0.35 38.35 -0.35 37.4 -0.35 36.8 -0.9
L 36.7 -0.4
Q 37.1 -0.1 37.4 0 37.85 0.15 38.35 0.15 38.8 0.15 39.15 0
L 39.7 -0.5
Q 39.95 -0.85 39.95 -1.2 39.95 -1.7 39.6 -2.05 39.35 -2.25 38.5 -2.6 37.85 -2.75 37.6 -3 37.35 -3.1 37.35 -3.55 37.35 -3.95 37.6 -4.1 37.85 -4.3 38.35 -4.3
L 39 -4.2 39.55 -3.85 39.8 -4.3 39.15 -4.65 Z"/>
</g>

<g id="IT_300x600_psd_Asset_3_ManagedWiFi_IT_Research_DM10_1_Is_Wi_Fi_as_a_Service_right_for__your_organization__0_Layer0_0_MEMBER_9_FILL">
<path fill="#D82C26" stroke="none" d="
M 43.1 -3.75
Q 43.5 -4.05 43.8 -4.15 44.2 -4.3 44.6 -4.3 45.2 -4.3 45.55 -4 45.9 -3.65 45.9 -3.05
L 45.9 -2.8 45.35 -2.8
Q 42.7 -2.8 42.7 -1.25 42.7 -0.55 43.1 -0.2 43.65 0.15 44.15 0.15 44.75 0.15 45.2 -0.15 45.7 -0.4 45.9 -0.9
L 46 0 46.5 0 46.45 -3
Q 46.45 -3.9 45.95 -4.35 45.55 -4.75 44.65 -4.75 44.15 -4.75 43.7 -4.6 43.2 -4.4 42.95 -4.2
L 43.1 -3.75
M 45.15 -0.55
Q 44.75 -0.3 44.25 -0.3 43.9 -0.3 43.55 -0.55 43.25 -0.75 43.25 -1.25 43.25 -2.4 45.4 -2.4
L 45.9 -2.4 45.9 -1.95
Q 45.9 -1.5 45.7 -1.15 45.55 -0.8 45.15 -0.55 Z"/>
</g>

<g id="IT_300x600_psd_Asset_3_ManagedWiFi_IT_Research_DM10_1_Is_Wi_Fi_as_a_Service_right_for__your_organization__0_Layer0_0_MEMBER_10_FILL">
<path fill="#D82C26" stroke="none" d="
M 3 5.5
Q 2.5 5.5 1.9 5.75 1.3 6 1.05 6.4 0.75 6.85 0.75 7.45 0.75 8 1 8.4 1.35 8.8 1.7 9
L 3.65 9.8
Q 4 9.95 4.2 10.25 4.4 10.5 4.4 10.95 4.4 11.65 3.95 12 3.45 12.35 2.75 12.35 2.15 12.35 1.7 12.15 1.1 11.9 0.75 11.6
L 0.65 12.15
Q 0.95 12.45 1.6 12.7 2.15 12.9 2.8 12.9 3.3 12.9 3.9 12.65 4.4 12.45 4.7 12 5.05 11.6 5.05 10.9 5.05 10.35 4.75 9.95 4.45 9.6 4.05 9.35
L 2.1 8.6
Q 1.6 8.25 1.55 8.15 1.35 7.9 1.35 7.4 1.35 6.9 1.6 6.65 1.85 6.35 2.2 6.2 2.6 6.05 3 6.05 3.5 6.05 3.95 6.2
L 4.7 6.65 4.9 6.1 4.05 5.7
Q 3.35 5.5 3 5.5 Z"/>
</g>

<g id="IT_300x600_psd_Asset_3_ManagedWiFi_IT_Research_DM10_1_Is_Wi_Fi_as_a_Service_right_for__your_organization__0_Layer0_0_MEMBER_11_FILL">
<path fill="#D82C26" stroke="none" d="
M 10.4 10.25
Q 10.4 9.65 10.15 9.05 9.95 8.55 9.4 8.25 8.9 7.95 8.2 7.95 7.6 7.95 7.05 8.25 6.5 8.55 6.2 9.1 5.9 9.7 5.9 10.35 5.9 11.15 6.2 11.65 6.45 12.1 7.05 12.55 7.6 12.85 8.3 12.85 9.35 12.85 10.15 12.25
L 10.05 11.75
Q 9.75 12.05 9.3 12.2 8.85 12.35 8.35 12.35 7.7 12.35 7.4 12.1 7.1 11.95 6.7 11.45 6.55 11.2 6.45 10.5
L 10.4 10.5 10.4 10.25
M 8.2 8.4
Q 8.95 8.4 9.4 8.85 9.85 9.3 9.85 10.05
L 6.5 10.05
Q 6.5 9.65 6.7 9.3 6.9 8.95 7.3 8.65 7.7 8.4 8.2 8.4 Z"/>
</g>

<g id="IT_300x600_psd_Asset_3_ManagedWiFi_IT_Research_DM10_1_Is_Wi_Fi_as_a_Service_right_for__your_organization__0_Layer0_0_MEMBER_12_FILL">
<path fill="#D82C26" stroke="none" d="
M 13.9 8
L 13.4 7.95
Q 13.05 7.95 12.65 8.25 12.3 8.45 12.05 9.1
L 12 8.1 11.45 8.1 11.5 12.7 12.1 12.7 12.1 10.4
Q 12.1 9.55 12.45 9.05 12.75 8.45 13.4 8.45
L 13.8 8.55 13.9 8 Z"/>
</g>

<g id="IT_300x600_psd_Asset_3_ManagedWiFi_IT_Research_DM10_1_Is_Wi_Fi_as_a_Service_right_for__your_organization__0_Layer0_0_MEMBER_13_FILL">
<path fill="#D82C26" stroke="none" d="
M 14.2 8.1
L 16 12.7 16.65 12.7 18.35 8.1 17.8 8.1 16.3 12.15 14.85 8.1 14.2 8.1 Z"/>
</g>

<g id="IT_300x600_psd_Asset_3_ManagedWiFi_IT_Research_DM10_1_Is_Wi_Fi_as_a_Service_right_for__your_organization__0_Layer0_0_MEMBER_14_FILL">
<path fill="#D82C26" stroke="none" d="
M 19.75 8.1
L 19.15 8.1 19.15 12.7 19.75 12.7 19.75 8.1
M 19.7 5.95
Q 19.65 5.8 19.45 5.8 19.25 5.8 19.15 5.95 19 6.05 19 6.2 19 6.4 19.15 6.55 19.25 6.65 19.45 6.65
L 19.7 6.55
Q 19.85 6.4 19.85 6.2 19.85 6.05 19.7 5.95 Z"/>
</g>

<g id="IT_300x600_psd_Asset_3_ManagedWiFi_IT_Research_DM10_1_Is_Wi_Fi_as_a_Service_right_for__your_organization__0_Layer0_0_MEMBER_15_FILL">
<path fill="#D82C26" stroke="none" d="
M 24.15 8.1
Q 23.7 7.95 23.25 7.95 22.55 7.95 22 8.25 21.45 8.55 21.15 9.15 20.8 9.65 20.8 10.4 20.8 11.15 21.15 11.65 21.45 12.3 22 12.55 22.55 12.85 23.25 12.85 23.75 12.85 24.1 12.7 24.55 12.55 24.8 12.3
L 24.75 11.8
Q 24.55 12 24.05 12.2 23.75 12.35 23.3 12.35 22.8 12.35 22.3 12.1 21.9 11.85 21.65 11.35 21.4 10.95 21.4 10.4 21.4 9.9 21.65 9.4 21.9 8.9 22.3 8.7 22.7 8.45 23.25 8.45 23.75 8.45 24 8.55 24.45 8.7 24.6 8.95
L 24.8 8.5
Q 24.65 8.3 24.15 8.1 Z"/>
</g>

<g id="IT_300x600_psd_Asset_3_ManagedWiFi_IT_Research_DM10_1_Is_Wi_Fi_as_a_Service_right_for__your_organization__0_Layer0_0_MEMBER_16_FILL">
<path fill="#D82C26" stroke="none" d="
M 29.55 9.05
Q 29.35 8.55 28.8 8.25 28.3 7.95 27.6 7.95 27 7.95 26.45 8.25 25.9 8.55 25.6 9.1 25.3 9.7 25.3 10.35 25.3 11.15 25.6 11.65 25.85 12.1 26.45 12.55 27 12.85 27.7 12.85 28.75 12.85 29.55 12.25
L 29.45 11.75
Q 29.15 12.05 28.7 12.2 28.25 12.35 27.75 12.35 27.1 12.35 26.8 12.1 26.5 11.95 26.1 11.45 25.95 11.2 25.85 10.5
L 29.8 10.5 29.8 10.25
Q 29.8 9.65 29.55 9.05
M 26.7 8.65
Q 27.1 8.4 27.6 8.4 28.35 8.4 28.8 8.85 29.25 9.3 29.25 10.05
L 25.9 10.05
Q 25.9 9.65 26.1 9.3 26.3 8.95 26.7 8.65 Z"/>
</g>

<g id="IT_300x600_psd_Asset_3_ManagedWiFi_IT_Research_DM10_1_Is_Wi_Fi_as_a_Service_right_for__your_organization__0_Layer0_0_MEMBER_17_FILL">
<path fill="#D82C26" stroke="none" d="
M 33.55 9.1
L 33.5 8.1 32.9 8.1 32.95 12.7 33.55 12.7 33.55 10.4
Q 33.55 9.55 33.9 9.05 34.3 8.45 34.85 8.45
L 35.3 8.55 35.4 8 34.9 7.95
Q 34.5 7.95 34.1 8.25 33.7 8.55 33.55 9.1 Z"/>
</g>

<g id="IT_300x600_psd_Asset_3_ManagedWiFi_IT_Research_DM10_1_Is_Wi_Fi_as_a_Service_right_for__your_organization__0_Layer0_0_MEMBER_18_FILL">
<path fill="#D82C26" stroke="none" d="
M 36.7 8.1
L 36.15 8.1 36.15 12.7 36.7 12.7 36.7 8.1
M 36.7 5.95
L 36.4 5.8 36.1 5.95 36 6.2 36.1 6.55 36.4 6.65 36.7 6.55
Q 36.85 6.4 36.85 6.2 36.85 6.05 36.7 5.95 Z"/>
</g>

<g id="IT_300x600_psd_Asset_3_ManagedWiFi_IT_Research_DM10_1_Is_Wi_Fi_as_a_Service_right_for__your_organization__0_Layer0_0_MEMBER_19_FILL">
<path fill="#D82C26" stroke="none" d="
M 42 9.1
Q 41.8 8.6 41.25 8.25 40.75 7.95 40.1 7.95 39.45 7.95 38.9 8.25 38.4 8.6 38.1 9.15 37.8 9.75 37.8 10.4 37.8 11.1 38.1 11.6 38.35 12.1 38.9 12.5 39.45 12.8 40.1 12.8 40.75 12.8 41.25 12.5 41.8 12.15 42 11.65
L 42 12.65
Q 42 13.6 41.55 14.1 41.1 14.65 40.1 14.65
L 39.1 14.5 38.2 14.05 38.1 14.6 39.05 15 40.15 15.15
Q 41.4 15.15 42 14.45 42.6 13.8 42.6 12.65
L 42.6 8.1 42.1 8.1 42.05 9.1 42 9.1
M 41.8 11.35
Q 41.55 11.85 41.15 12.05 40.8 12.3 40.2 12.3 39.55 12.3 39.25 12.05 38.85 11.85 38.6 11.35 38.4 10.95 38.4 10.4 38.4 9.8 38.6 9.4 38.85 8.9 39.25 8.7 39.55 8.45 40.2 8.45 40.8 8.45 41.15 8.7 41.55 8.9 41.8 9.4 42.05 9.9 42.05 10.4 42.05 10.85 41.8 11.35 Z"/>
</g>

<g id="IT_300x600_psd_Asset_3_ManagedWiFi_IT_Research_DM10_1_Is_Wi_Fi_as_a_Service_right_for__your_organization__0_Layer0_0_MEMBER_20_FILL">
<path fill="#D82C26" stroke="none" d="
M 44.6 5.15
L 44 5.25 44 12.7 44.6 12.7 44.6 10.45
Q 44.6 9.75 44.8 9.35 45.05 8.8 45.35 8.65 45.7 8.45 46.15 8.45 46.8 8.45 47.1 8.9 47.4 9.35 47.4 10.05
L 47.4 12.7 47.95 12.7 47.95 9.9
Q 47.95 8.95 47.55 8.5 47.15 7.95 46.25 7.95 45.7 7.95 45.25 8.25 44.8 8.55 44.6 9.05
L 44.6 5.15 Z"/>
</g>

<g id="IT_300x600_psd_Asset_3_ManagedWiFi_IT_Research_DM10_1_Is_Wi_Fi_as_a_Service_right_for__your_organization__0_Layer0_0_MEMBER_21_FILL">
<path fill="#D82C26" stroke="none" d="
M 51.2 8.55
L 51.35 8.1 50 8.1 50 6.75 49.45 7 49.45 8.1 48.7 8.1 48.55 8.55 49.45 8.55 49.45 11.6
Q 49.45 12.2 49.75 12.5 50 12.8 50.5 12.8
L 51.05 12.75 51.5 12.55 51.45 12.15
Q 50.85 12.35 50.7 12.35 50.4 12.35 50.2 12.15 50 11.95 50 11.5
L 50 8.55 51.2 8.55 Z"/>
</g>

<g id="IT_300x600_psd_Asset_3_ManagedWiFi_IT_Research_DM10_1_Is_Wi_Fi_as_a_Service_right_for__your_organization__0_Layer0_0_MEMBER_22_FILL">
<path fill="#D82C26" stroke="none" d="
M 56.75 5.2
L 55.9 5.1
Q 55.25 5.1 54.85 5.5 54.45 6 54.45 6.75
L 54.45 8.1 53.6 8.1 53.5 8.55 54.45 8.55 54.45 12.7 55.05 12.7 55.05 8.55 56.1 8.55 56.25 8.1 55.05 8.1 55.05 6.75
Q 55.05 6.25 55.25 5.9 55.5 5.6 55.95 5.6
L 56.65 5.7 56.75 5.2 Z"/>
</g>

<g id="IT_300x600_psd_Asset_3_ManagedWiFi_IT_Research_DM10_1_Is_Wi_Fi_as_a_Service_right_for__your_organization__0_Layer0_0_MEMBER_23_FILL">
<path fill="#D82C26" stroke="none" d="
M 61.05 11.65
Q 61.35 11.15 61.35 10.4 61.35 9.7 61.05 9.1 60.75 8.55 60.15 8.25 59.65 7.95 58.9 7.95 58.2 7.95 57.65 8.25 57.05 8.55 56.75 9.1 56.45 9.7 56.45 10.4 56.45 11.15 56.75 11.65 57 12.15 57.65 12.55 58.2 12.85 58.9 12.85 59.65 12.85 60.15 12.55 60.8 12.15 61.05 11.65
M 58.9 8.45
Q 59.55 8.45 59.9 8.7 60.3 8.9 60.55 9.4 60.8 9.9 60.8 10.4 60.8 10.85 60.55 11.35 60.3 11.85 59.9 12.1 59.4 12.35 58.9 12.35 58.4 12.35 57.9 12.1 57.5 11.85 57.25 11.35 57 10.85 57 10.4 57 9.9 57.25 9.4 57.5 8.9 57.9 8.7 58.3 8.45 58.9 8.45 Z"/>
</g>

<g id="IT_300x600_psd_Asset_3_ManagedWiFi_IT_Research_DM10_1_Is_Wi_Fi_as_a_Service_right_for__your_organization__0_Layer0_0_MEMBER_24_FILL">
<path fill="#D82C26" stroke="none" d="
M 64.4 7.95
Q 64 7.95 63.6 8.25 63.2 8.55 63.05 9.1
L 63 8.1 62.4 8.1 62.45 12.7 63.05 12.7 63.05 10.4
Q 63.05 9.55 63.4 9.05 63.8 8.45 64.35 8.45
L 64.8 8.55 64.9 8 64.4 7.95 Z"/>
</g>

<g id="IT_300x600_psd_Asset_3_ManagedWiFi_IT_Research_DM10_1_Is_Wi_Fi_as_a_Service_right_for__your_organization__0_Layer0_0_MEMBER_25_FILL">
<path fill="#D82C26" stroke="none" d="
M 4.45 20.8
L 3.85 20.8 2.4 24.8 0.8 20.8 0.2 20.8 2.15 25.45 1.75 26.45
Q 1.6 26.9 1.3 27.05 1.1 27.2 0.45 27.3
L 0.6 27.8
Q 1.3 27.8 1.65 27.5 2.05 27.2 2.3 26.6
L 4.45 20.8 Z"/>
</g>

<g id="IT_300x600_psd_Asset_3_ManagedWiFi_IT_Research_DM10_1_Is_Wi_Fi_as_a_Service_right_for__your_organization__0_Layer0_0_MEMBER_26_FILL">
<path fill="#D82C26" stroke="none" d="
M 7.25 20.65
Q 6.55 20.65 6 20.95 5.4 21.25 5.1 21.85 4.8 22.4 4.8 23.1 4.8 23.85 5.1 24.35 5.4 24.95 6 25.25 6.55 25.55 7.25 25.55 8 25.55 8.5 25.25 9.1 24.95 9.4 24.35 9.7 23.85 9.7 23.1 9.7 22.4 9.4 21.85 9.1 21.25 8.5 20.95 8 20.65 7.25 20.65
M 6.25 21.4
Q 6.75 21.15 7.25 21.15 7.75 21.15 8.25 21.4 8.65 21.6 8.9 22.1 9.15 22.6 9.15 23.1 9.15 23.6 8.9 24.1 8.7 24.5 8.25 24.8 7.75 25.05 7.25 25.05 6.75 25.05 6.25 24.8 5.8 24.5 5.6 24.1 5.35 23.6 5.35 23.1 5.35 22.6 5.6 22.1 5.85 21.6 6.25 21.4 Z"/>
</g>

<g id="IT_300x600_psd_Asset_3_ManagedWiFi_IT_Research_DM10_1_Is_Wi_Fi_as_a_Service_right_for__your_organization__0_Layer0_0_MEMBER_27_FILL">
<path fill="#D82C26" stroke="none" d="
M 10.75 20.8
L 10.75 23.6
Q 10.75 24.4 11.2 25 11.6 25.55 12.45 25.55 13 25.55 13.5 25.25 13.9 25 14.15 24.4
L 14.25 25.45 14.8 25.4 14.75 24.9 14.75 20.8 14.15 20.8 14.15 23.1
Q 14.15 23.75 13.95 24.15 13.7 24.7 13.4 24.85 13.05 25.05 12.6 25.05 11.95 25.05 11.65 24.6 11.35 24.15 11.35 23.45
L 11.35 20.8 10.75 20.8 Z"/>
</g>

<g id="IT_300x600_psd_Asset_3_ManagedWiFi_IT_Research_DM10_1_Is_Wi_Fi_as_a_Service_right_for__your_organization__0_Layer0_0_MEMBER_28_FILL">
<path fill="#D82C26" stroke="none" d="
M 18.6 20.75
L 18.1 20.65
Q 17.7 20.65 17.3 20.95 16.9 21.25 16.75 21.8
L 16.7 20.8 16.15 20.8 16.2 25.4 16.75 25.4 16.75 23.1
Q 16.75 22.35 17.1 21.75 17.5 21.15 18.05 21.15
L 18.5 21.25 18.6 20.75 Z"/>
</g>

<g id="IT_300x600_psd_Asset_3_ManagedWiFi_IT_Research_DM10_1_Is_Wi_Fi_as_a_Service_right_for__your_organization__0_Layer0_0_MEMBER_29_FILL">
<path fill="#D82C26" stroke="none" d="
M 24.6 20.95
Q 24 20.65 23.35 20.65 22.65 20.65 22.05 20.95 21.5 21.25 21.2 21.85 20.85 22.35 20.85 23.1 20.85 23.85 21.2 24.35 21.5 24.95 22.05 25.25 22.65 25.55 23.35 25.55 24 25.55 24.6 25.25 25.15 24.95 25.5 24.35 25.8 23.85 25.8 23.1 25.8 22.4 25.5 21.85 25.15 21.25 24.6 20.95
M 23.35 21.15
Q 23.9 21.15 24.3 21.4 24.75 21.65 25 22.1 25.2 22.5 25.2 23.1 25.2 23.7 25 24.1 24.85 24.4 24.35 24.8 23.85 25.05 23.35 25.05 22.75 25.05 22.35 24.8 21.9 24.5 21.7 24.1 21.45 23.75 21.45 23.1 21.45 22.5 21.7 22.1 21.95 21.6 22.35 21.4 22.75 21.15 23.35 21.15 Z"/>
</g>

<g id="IT_300x600_psd_Asset_3_ManagedWiFi_IT_Research_DM10_1_Is_Wi_Fi_as_a_Service_right_for__your_organization__0_Layer0_0_MEMBER_30_FILL">
<path fill="#D82C26" stroke="none" d="
M 28.85 20.65
Q 28.45 20.65 28.05 20.95 27.7 21.25 27.45 21.8
L 27.4 20.8 26.85 20.8 26.9 25.4 27.5 25.4 27.5 23.1
Q 27.5 22.25 27.85 21.75 28.15 21.15 28.8 21.15
L 29.2 21.25 29.3 20.75 28.85 20.65 Z"/>
</g>

<g id="IT_300x600_psd_Asset_3_ManagedWiFi_IT_Research_DM10_1_Is_Wi_Fi_as_a_Service_right_for__your_organization__0_Layer0_0_MEMBER_31_FILL">
<path fill="#D82C26" stroke="none" d="
M 29.5 23.1
Q 29.5 23.75 29.8 24.35 30.15 24.95 30.6 25.2 31.15 25.5 31.85 25.5 32.45 25.5 32.95 25.2 33.5 24.9 33.7 24.4
L 33.7 25.35
Q 33.7 26.3 33.25 26.8 32.85 27.35 31.8 27.35
L 30.8 27.2 29.9 26.75 29.8 27.3 30.75 27.7 31.85 27.85
Q 33.1 27.85 33.7 27.15 34.3 26.5 34.3 25.35
L 34.35 20.8 33.8 20.8 33.75 21.8 33.7 21.8
Q 33.5 21.3 32.95 20.95 32.45 20.65 31.85 20.65 31.15 20.65 30.6 21 30.15 21.25 29.8 21.85 29.5 22.45 29.5 23.1
M 30.1 23.1
Q 30.1 22.5 30.3 22.1 30.5 21.7 30.95 21.4 31.35 21.15 31.9 21.15 32.35 21.15 32.85 21.4 33.25 21.6 33.5 22.1 33.75 22.6 33.75 23.1 33.75 23.55 33.5 24.05 33.25 24.55 32.85 24.75 32.4 25.05 31.9 25.05 31.35 25.05 30.95 24.75 30.55 24.55 30.3 24.05 30.1 23.65 30.1 23.1 Z"/>
</g>

<g id="IT_300x600_psd_Asset_3_ManagedWiFi_IT_Research_DM10_1_Is_Wi_Fi_as_a_Service_right_for__your_organization__0_Layer0_0_MEMBER_32_FILL">
<path fill="#D82C26" stroke="none" d="
M 37.35 20.65
Q 36.85 20.65 36.4 20.8 35.95 20.95 35.65 21.25
L 35.8 21.7
Q 36.05 21.45 36.5 21.3 36.85 21.1 37.3 21.1 37.9 21.1 38.25 21.45 38.6 21.8 38.6 22.35
L 38.6 22.65 38.05 22.65
Q 35.4 22.65 35.4 24.15 35.4 24.85 35.8 25.2 36.2 25.55 36.85 25.55 37.3 25.55 37.9 25.3 38.4 24.95 38.6 24.5
L 38.7 25.4 39.2 25.4 39.15 22.4
Q 39.15 21.55 38.65 21.1 38.2 20.65 37.35 20.65
M 38.6 23.5
Q 38.6 23.9 38.4 24.25 38.25 24.6 37.85 24.85 37.55 25.1 36.95 25.1 36.5 25.1 36.25 24.9 35.95 24.6 35.95 24.15 35.95 23.05 38.1 23.05
L 38.6 23.05 38.6 23.5 Z"/>
</g>

<g id="IT_300x600_psd_Asset_3_ManagedWiFi_IT_Research_DM10_1_Is_Wi_Fi_as_a_Service_right_for__your_organization__0_Layer0_0_MEMBER_33_FILL">
<path fill="#D82C26" stroke="none" d="
M 41.85 21.35
Q 42.2 21.15 42.65 21.15 43.3 21.15 43.6 21.6 43.9 22.05 43.9 22.75
L 43.9 25.4 44.5 25.4 44.5 22.6
Q 44.5 21.8 44.05 21.2 43.6 20.65 42.75 20.65 42.2 20.65 41.75 20.95 41.25 21.3 41.1 21.8
L 41.05 21.8 41 20.8 40.45 20.8 40.5 25.4 41.1 25.4 41.1 23.05
Q 41.1 22.4 41.3 22.05 41.55 21.5 41.85 21.35 Z"/>
</g>

<g id="IT_300x600_psd_Asset_3_ManagedWiFi_IT_Research_DM10_1_Is_Wi_Fi_as_a_Service_right_for__your_organization__0_Layer0_0_MEMBER_34_FILL">
<path fill="#D82C26" stroke="none" d="
M 46.15 19.35
L 46.45 19.25 46.55 18.95 46.45 18.65 46.15 18.5 45.85 18.65
Q 45.7 18.75 45.7 18.95
L 45.85 19.25 46.15 19.35
M 46.45 20.8
L 45.85 20.8 45.85 25.4 46.45 25.4 46.45 20.8 Z"/>
</g>

<g id="IT_300x600_psd_Asset_3_ManagedWiFi_IT_Research_DM10_1_Is_Wi_Fi_as_a_Service_right_for__your_organization__0_Layer0_0_MEMBER_35_FILL">
<path fill="#D82C26" stroke="none" d="
M 50.9 21.25
L 50.9 20.8 47.5 20.8 47.4 21.25 50.2 21.25 47.35 24.95 47.35 25.4 50.95 25.4 51.05 24.95 48.05 24.95 50.9 21.25 Z"/>
</g>

<g id="IT_300x600_psd_Asset_3_ManagedWiFi_IT_Research_DM10_1_Is_Wi_Fi_as_a_Service_right_for__your_organization__0_Layer0_0_MEMBER_36_FILL">
<path fill="#D82C26" stroke="none" d="
M 55 21.1
Q 54.55 20.65 53.7 20.65 53.2 20.65 52.75 20.8 52.3 20.95 52 21.25
L 52.15 21.7
Q 52.4 21.45 52.85 21.3 53.2 21.1 53.6 21.1 54.25 21.1 54.6 21.45 54.95 21.8 54.95 22.35
L 54.95 22.65 54.4 22.65
Q 51.75 22.65 51.75 24.15 51.75 24.85 52.15 25.2 52.55 25.55 53.2 25.55 53.65 25.55 54.25 25.3 54.75 24.95 54.95 24.5
L 55.05 25.4 55.55 25.4 55.5 22.4
Q 55.5 21.55 55 21.1
M 54.95 23.5
Q 54.95 23.9 54.75 24.25 54.6 24.6 54.2 24.85 53.9 25.1 53.3 25.1 52.85 25.1 52.6 24.9 52.3 24.6 52.3 24.15 52.3 23.05 54.45 23.05
L 54.95 23.05 54.95 23.5 Z"/>
</g>

<g id="IT_300x600_psd_Asset_3_ManagedWiFi_IT_Research_DM10_1_Is_Wi_Fi_as_a_Service_right_for__your_organization__0_Layer0_0_MEMBER_37_FILL">
<path fill="#D82C26" stroke="none" d="
M 58.75 21.25
L 58.85 20.8 57.55 20.8 57.55 19.45 56.95 19.7 56.95 20.8 56.2 20.8 56.1 21.25 56.95 21.25 56.95 24.3
Q 56.95 24.9 57.25 25.2 57.55 25.5 58.05 25.5
L 58.55 25.45 59.05 25.25 58.95 24.85
Q 58.45 25.05 58.2 25.05 57.9 25.05 57.75 24.85 57.55 24.65 57.55 24.2
L 57.55 21.25 58.75 21.25 Z"/>
</g>

<g id="IT_300x600_psd_Asset_3_ManagedWiFi_IT_Research_DM10_1_Is_Wi_Fi_as_a_Service_right_for__your_organization__0_Layer0_0_MEMBER_38_FILL">
<path fill="#D82C26" stroke="none" d="
M 60.1 19.35
L 60.4 19.25
Q 60.5 19.15 60.5 18.95 60.5 18.7 60.4 18.65
L 60.1 18.5 59.8 18.65 59.7 18.95 59.8 19.25 60.1 19.35
M 60.4 20.8
L 59.8 20.8 59.8 25.4 60.4 25.4 60.4 20.8 Z"/>
</g>

<g id="IT_300x600_psd_Asset_3_ManagedWiFi_IT_Research_DM10_1_Is_Wi_Fi_as_a_Service_right_for__your_organization__0_Layer0_0_MEMBER_39_FILL">
<path fill="#D82C26" stroke="none" d="
M 65.2 20.95
Q 64.7 20.65 63.95 20.65 63.25 20.65 62.7 20.95 62.2 21.2 61.8 21.85 61.5 22.4 61.5 23.1 61.5 23.85 61.8 24.35 62.2 25 62.7 25.25 63.25 25.55 63.95 25.55 64.7 25.55 65.2 25.25 65.8 24.95 66.1 24.35 66.4 23.85 66.4 23.1 66.4 22.4 66.1 21.85 65.8 21.25 65.2 20.95
M 63.95 21.15
Q 64.45 21.15 64.95 21.4 65.35 21.6 65.6 22.1 65.85 22.6 65.85 23.1 65.85 23.6 65.6 24.1 65.4 24.5 64.95 24.8 64.45 25.05 63.95 25.05 63.45 25.05 62.95 24.8 62.5 24.5 62.3 24.1 62.05 23.6 62.05 23.1 62.05 22.6 62.3 22.1 62.55 21.6 62.95 21.4 63.45 21.15 63.95 21.15 Z"/>
</g>

<g id="IT_300x600_psd_Asset_3_ManagedWiFi_IT_Research_DM10_1_Is_Wi_Fi_as_a_Service_right_for__your_organization__0_Layer0_0_MEMBER_40_FILL">
<path fill="#D82C26" stroke="none" d="
M 69.65 21.15
Q 70.35 21.15 70.65 21.6 70.9 22.1 70.9 22.75
L 70.9 25.4 71.5 25.4 71.5 22.6
Q 71.5 21.85 71.1 21.2 70.65 20.65 69.8 20.65 69.2 20.65 68.75 20.95 68.35 21.2 68.1 21.8
L 68.05 20.8 67.5 20.8 67.55 25.4 68.1 25.4 68.1 23.05
Q 68.1 22.55 68.3 22.05 68.55 21.55 68.9 21.35 69.15 21.15 69.65 21.15 Z"/>
</g>

<g id="IT_300x600_psd_Asset_3_ManagedWiFi_IT_Research_DM10_1_Is_Wi_Fi_as_a_Service_right_for__your_organization__0_Layer0_0_MEMBER_41_FILL">
<path fill="#D82C26" stroke="none" d="
M 73.8 18.25
Q 73.2 18.25 72.6 18.5 72.05 18.75 71.8 19.1
L 72.05 19.55
Q 72.4 19.2 72.8 19 73.15 18.8 73.75 18.8 74.35 18.8 74.7 19.1 75.1 19.4 75.1 19.95 75.1 20.25 74.95 20.55
L 74.7 20.95 74.2 21.5
Q 73.75 21.95 73.6 22.3 73.45 22.7 73.45 23.1
L 73.45 23.4 74 23.4 74 23.2 74.05 22.65 74.25 22.2 75.25 21.15
Q 75.5 20.9 75.55 20.65 75.7 20.35 75.7 19.95 75.7 19.45 75.45 19.05 75.1 18.65 74.75 18.45 74.35 18.25 73.8 18.25
M 73.45 25.35
L 73.75 25.5 74.05 25.35
Q 74.15 25.25 74.15 25.05 74.15 24.8 74.05 24.75
L 73.75 24.6
Q 73.55 24.6 73.45 24.75 73.3 24.85 73.3 25.05
L 73.45 25.35 Z"/>
</g>
</defs>

<g transform="matrix( 1, 0, 0, 1, -377,38) ">
<g transform="matrix( 1, 0, 0, 1, 372,0) ">
<g transform="matrix( 1, 0, 0, 1, 33,6) ">
<g transform="matrix( 2.815704345703125, 0, 0, 2.832611083984375, 0.15,19.6) ">
<use xlink:href="#IT_300x600_psd_Asset_3_ManagedWiFi_IT_Research_DM10_1_Is_Wi_Fi_as_a_Service_right_for__your_organization__0_Layer0_0_MEMBER_0_FILL"/>
</g>

<g transform="matrix( 2.815704345703125, 0, 0, 2.832611083984375, 0.15,19.6) ">
<use xlink:href="#IT_300x600_psd_Asset_3_ManagedWiFi_IT_Research_DM10_1_Is_Wi_Fi_as_a_Service_right_for__your_organization__0_Layer0_0_MEMBER_1_FILL"/>
</g>

<g transform="matrix( 2.815704345703125, 0, 0, 2.832611083984375, 0.15,19.6) ">
<use xlink:href="#IT_300x600_psd_Asset_3_ManagedWiFi_IT_Research_DM10_1_Is_Wi_Fi_as_a_Service_right_for__your_organization__0_Layer0_0_MEMBER_2_FILL"/>
</g>

<g transform="matrix( 2.815704345703125, 0, 0, 2.832611083984375, 0.15,19.6) ">
<use xlink:href="#IT_300x600_psd_Asset_3_ManagedWiFi_IT_Research_DM10_1_Is_Wi_Fi_as_a_Service_right_for__your_organization__0_Layer0_0_MEMBER_3_FILL"/>
</g>

<g transform="matrix( 2.815704345703125, 0, 0, 2.832611083984375, 0.15,19.6) ">
<use xlink:href="#IT_300x600_psd_Asset_3_ManagedWiFi_IT_Research_DM10_1_Is_Wi_Fi_as_a_Service_right_for__your_organization__0_Layer0_0_MEMBER_4_FILL"/>
</g>

<g transform="matrix( 2.815704345703125, 0, 0, 2.832611083984375, 0.15,19.6) ">
<use xlink:href="#IT_300x600_psd_Asset_3_ManagedWiFi_IT_Research_DM10_1_Is_Wi_Fi_as_a_Service_right_for__your_organization__0_Layer0_0_MEMBER_5_FILL"/>
</g>

<g transform="matrix( 2.815704345703125, 0, 0, 2.832611083984375, 0.15,19.6) ">
<use xlink:href="#IT_300x600_psd_Asset_3_ManagedWiFi_IT_Research_DM10_1_Is_Wi_Fi_as_a_Service_right_for__your_organization__0_Layer0_0_MEMBER_6_FILL"/>
</g>

<g transform="matrix( 2.815704345703125, 0, 0, 2.832611083984375, 0.15,19.6) ">
<use xlink:href="#IT_300x600_psd_Asset_3_ManagedWiFi_IT_Research_DM10_1_Is_Wi_Fi_as_a_Service_right_for__your_organization__0_Layer0_0_MEMBER_7_FILL"/>
</g>

<g transform="matrix( 2.815704345703125, 0, 0, 2.832611083984375, 0.15,19.6) ">
<use xlink:href="#IT_300x600_psd_Asset_3_ManagedWiFi_IT_Research_DM10_1_Is_Wi_Fi_as_a_Service_right_for__your_organization__0_Layer0_0_MEMBER_8_FILL"/>
</g>

<g transform="matrix( 2.815704345703125, 0, 0, 2.832611083984375, 0.15,19.6) ">
<use xlink:href="#IT_300x600_psd_Asset_3_ManagedWiFi_IT_Research_DM10_1_Is_Wi_Fi_as_a_Service_right_for__your_organization__0_Layer0_0_MEMBER_9_FILL"/>
</g>

<g transform="matrix( 2.815704345703125, 0, 0, 2.832611083984375, 0.15,19.6) ">
<use xlink:href="#IT_300x600_psd_Asset_3_ManagedWiFi_IT_Research_DM10_1_Is_Wi_Fi_as_a_Service_right_for__your_organization__0_Layer0_0_MEMBER_10_FILL"/>
</g>

<g transform="matrix( 2.815704345703125, 0, 0, 2.832611083984375, 0.15,19.6) ">
<use xlink:href="#IT_300x600_psd_Asset_3_ManagedWiFi_IT_Research_DM10_1_Is_Wi_Fi_as_a_Service_right_for__your_organization__0_Layer0_0_MEMBER_11_FILL"/>
</g>

<g transform="matrix( 2.815704345703125, 0, 0, 2.832611083984375, 0.15,19.6) ">
<use xlink:href="#IT_300x600_psd_Asset_3_ManagedWiFi_IT_Research_DM10_1_Is_Wi_Fi_as_a_Service_right_for__your_organization__0_Layer0_0_MEMBER_12_FILL"/>
</g>

<g transform="matrix( 2.815704345703125, 0, 0, 2.832611083984375, 0.15,19.6) ">
<use xlink:href="#IT_300x600_psd_Asset_3_ManagedWiFi_IT_Research_DM10_1_Is_Wi_Fi_as_a_Service_right_for__your_organization__0_Layer0_0_MEMBER_13_FILL"/>
</g>

<g transform="matrix( 2.815704345703125, 0, 0, 2.832611083984375, 0.15,19.6) ">
<use xlink:href="#IT_300x600_psd_Asset_3_ManagedWiFi_IT_Research_DM10_1_Is_Wi_Fi_as_a_Service_right_for__your_organization__0_Layer0_0_MEMBER_14_FILL"/>
</g>

<g transform="matrix( 2.815704345703125, 0, 0, 2.832611083984375, 0.15,19.6) ">
<use xlink:href="#IT_300x600_psd_Asset_3_ManagedWiFi_IT_Research_DM10_1_Is_Wi_Fi_as_a_Service_right_for__your_organization__0_Layer0_0_MEMBER_15_FILL"/>
</g>

<g transform="matrix( 2.815704345703125, 0, 0, 2.832611083984375, 0.15,19.6) ">
<use xlink:href="#IT_300x600_psd_Asset_3_ManagedWiFi_IT_Research_DM10_1_Is_Wi_Fi_as_a_Service_right_for__your_organization__0_Layer0_0_MEMBER_16_FILL"/>
</g>

<g transform="matrix( 2.815704345703125, 0, 0, 2.832611083984375, 0.15,19.6) ">
<use xlink:href="#IT_300x600_psd_Asset_3_ManagedWiFi_IT_Research_DM10_1_Is_Wi_Fi_as_a_Service_right_for__your_organization__0_Layer0_0_MEMBER_17_FILL"/>
</g>

<g transform="matrix( 2.815704345703125, 0, 0, 2.832611083984375, 0.15,19.6) ">
<use xlink:href="#IT_300x600_psd_Asset_3_ManagedWiFi_IT_Research_DM10_1_Is_Wi_Fi_as_a_Service_right_for__your_organization__0_Layer0_0_MEMBER_18_FILL"/>
</g>

<g transform="matrix( 2.815704345703125, 0, 0, 2.832611083984375, 0.15,19.6) ">
<use xlink:href="#IT_300x600_psd_Asset_3_ManagedWiFi_IT_Research_DM10_1_Is_Wi_Fi_as_a_Service_right_for__your_organization__0_Layer0_0_MEMBER_19_FILL"/>
</g>

<g transform="matrix( 2.815704345703125, 0, 0, 2.832611083984375, 0.15,19.6) ">
<use xlink:href="#IT_300x600_psd_Asset_3_ManagedWiFi_IT_Research_DM10_1_Is_Wi_Fi_as_a_Service_right_for__your_organization__0_Layer0_0_MEMBER_20_FILL"/>
</g>

<g transform="matrix( 2.815704345703125, 0, 0, 2.832611083984375, 0.15,19.6) ">
<use xlink:href="#IT_300x600_psd_Asset_3_ManagedWiFi_IT_Research_DM10_1_Is_Wi_Fi_as_a_Service_right_for__your_organization__0_Layer0_0_MEMBER_21_FILL"/>
</g>

<g transform="matrix( 2.815704345703125, 0, 0, 2.832611083984375, 0.15,19.6) ">
<use xlink:href="#IT_300x600_psd_Asset_3_ManagedWiFi_IT_Research_DM10_1_Is_Wi_Fi_as_a_Service_right_for__your_organization__0_Layer0_0_MEMBER_22_FILL"/>
</g>

<g transform="matrix( 2.815704345703125, 0, 0, 2.832611083984375, 0.15,19.6) ">
<use xlink:href="#IT_300x600_psd_Asset_3_ManagedWiFi_IT_Research_DM10_1_Is_Wi_Fi_as_a_Service_right_for__your_organization__0_Layer0_0_MEMBER_23_FILL"/>
</g>

<g transform="matrix( 2.815704345703125, 0, 0, 2.832611083984375, 0.15,19.6) ">
<use xlink:href="#IT_300x600_psd_Asset_3_ManagedWiFi_IT_Research_DM10_1_Is_Wi_Fi_as_a_Service_right_for__your_organization__0_Layer0_0_MEMBER_24_FILL"/>
</g>

<g transform="matrix( 2.815704345703125, 0, 0, 2.832611083984375, 0.15,19.6) ">
<use xlink:href="#IT_300x600_psd_Asset_3_ManagedWiFi_IT_Research_DM10_1_Is_Wi_Fi_as_a_Service_right_for__your_organization__0_Layer0_0_MEMBER_25_FILL"/>
</g>

<g transform="matrix( 2.815704345703125, 0, 0, 2.832611083984375, 0.15,19.6) ">
<use xlink:href="#IT_300x600_psd_Asset_3_ManagedWiFi_IT_Research_DM10_1_Is_Wi_Fi_as_a_Service_right_for__your_organization__0_Layer0_0_MEMBER_26_FILL"/>
</g>

<g transform="matrix( 2.815704345703125, 0, 0, 2.832611083984375, 0.15,19.6) ">
<use xlink:href="#IT_300x600_psd_Asset_3_ManagedWiFi_IT_Research_DM10_1_Is_Wi_Fi_as_a_Service_right_for__your_organization__0_Layer0_0_MEMBER_27_FILL"/>
</g>

<g transform="matrix( 2.815704345703125, 0, 0, 2.832611083984375, 0.15,19.6) ">
<use xlink:href="#IT_300x600_psd_Asset_3_ManagedWiFi_IT_Research_DM10_1_Is_Wi_Fi_as_a_Service_right_for__your_organization__0_Layer0_0_MEMBER_28_FILL"/>
</g>

<g transform="matrix( 2.815704345703125, 0, 0, 2.832611083984375, 0.15,19.6) ">
<use xlink:href="#IT_300x600_psd_Asset_3_ManagedWiFi_IT_Research_DM10_1_Is_Wi_Fi_as_a_Service_right_for__your_organization__0_Layer0_0_MEMBER_29_FILL"/>
</g>

<g transform="matrix( 2.815704345703125, 0, 0, 2.832611083984375, 0.15,19.6) ">
<use xlink:href="#IT_300x600_psd_Asset_3_ManagedWiFi_IT_Research_DM10_1_Is_Wi_Fi_as_a_Service_right_for__your_organization__0_Layer0_0_MEMBER_30_FILL"/>
</g>

<g transform="matrix( 2.815704345703125, 0, 0, 2.832611083984375, 0.15,19.6) ">
<use xlink:href="#IT_300x600_psd_Asset_3_ManagedWiFi_IT_Research_DM10_1_Is_Wi_Fi_as_a_Service_right_for__your_organization__0_Layer0_0_MEMBER_31_FILL"/>
</g>

<g transform="matrix( 2.815704345703125, 0, 0, 2.832611083984375, 0.15,19.6) ">
<use xlink:href="#IT_300x600_psd_Asset_3_ManagedWiFi_IT_Research_DM10_1_Is_Wi_Fi_as_a_Service_right_for__your_organization__0_Layer0_0_MEMBER_32_FILL"/>
</g>

<g transform="matrix( 2.815704345703125, 0, 0, 2.832611083984375, 0.15,19.6) ">
<use xlink:href="#IT_300x600_psd_Asset_3_ManagedWiFi_IT_Research_DM10_1_Is_Wi_Fi_as_a_Service_right_for__your_organization__0_Layer0_0_MEMBER_33_FILL"/>
</g>

<g transform="matrix( 2.815704345703125, 0, 0, 2.832611083984375, 0.15,19.6) ">
<use xlink:href="#IT_300x600_psd_Asset_3_ManagedWiFi_IT_Research_DM10_1_Is_Wi_Fi_as_a_Service_right_for__your_organization__0_Layer0_0_MEMBER_34_FILL"/>
</g>

<g transform="matrix( 2.815704345703125, 0, 0, 2.832611083984375, 0.15,19.6) ">
<use xlink:href="#IT_300x600_psd_Asset_3_ManagedWiFi_IT_Research_DM10_1_Is_Wi_Fi_as_a_Service_right_for__your_organization__0_Layer0_0_MEMBER_35_FILL"/>
</g>

<g transform="matrix( 2.815704345703125, 0, 0, 2.832611083984375, 0.15,19.6) ">
<use xlink:href="#IT_300x600_psd_Asset_3_ManagedWiFi_IT_Research_DM10_1_Is_Wi_Fi_as_a_Service_right_for__your_organization__0_Layer0_0_MEMBER_36_FILL"/>
</g>

<g transform="matrix( 2.815704345703125, 0, 0, 2.832611083984375, 0.15,19.6) ">
<use xlink:href="#IT_300x600_psd_Asset_3_ManagedWiFi_IT_Research_DM10_1_Is_Wi_Fi_as_a_Service_right_for__your_organization__0_Layer0_0_MEMBER_37_FILL"/>
</g>

<g transform="matrix( 2.815704345703125, 0, 0, 2.832611083984375, 0.15,19.6) ">
<use xlink:href="#IT_300x600_psd_Asset_3_ManagedWiFi_IT_Research_DM10_1_Is_Wi_Fi_as_a_Service_right_for__your_organization__0_Layer0_0_MEMBER_38_FILL"/>
</g>

<g transform="matrix( 2.815704345703125, 0, 0, 2.832611083984375, 0.15,19.6) ">
<use xlink:href="#IT_300x600_psd_Asset_3_ManagedWiFi_IT_Research_DM10_1_Is_Wi_Fi_as_a_Service_right_for__your_organization__0_Layer0_0_MEMBER_39_FILL"/>
</g>

<g transform="matrix( 2.815704345703125, 0, 0, 2.832611083984375, 0.15,19.6) ">
<use xlink:href="#IT_300x600_psd_Asset_3_ManagedWiFi_IT_Research_DM10_1_Is_Wi_Fi_as_a_Service_right_for__your_organization__0_Layer0_0_MEMBER_40_FILL"/>
</g>

<g transform="matrix( 2.815704345703125, 0, 0, 2.832611083984375, 0.15,19.6) ">
<use xlink:href="#IT_300x600_psd_Asset_3_ManagedWiFi_IT_Research_DM10_1_Is_Wi_Fi_as_a_Service_right_for__your_organization__0_Layer0_0_MEMBER_41_FILL"/>
</g>
</g>
</g>
</g>
</svg>
