
<svg xmlns="http://www.w3.org/2000/svg" version="1.1" xmlns:xlink="http://www.w3.org/1999/xlink" preserveAspectRatio="none" x="0px" y="0px" width="300px" height="600px" viewBox="0 0 300 600">
<defs>
<g id="IT_300x600_psd_Asset_3_ManagedWiFi_IT_Research_DM8_1_Want_a_more_cost__effective__efficient__and_agile_network__0_Layer0_0_MEMBER_0_FILL">
<path fill="#D82C26" stroke="none" d="
M 0.9 -7.5
L 0.2 -7.5 2.45 0 3.15 0 5.15 -6.7 7.15 0 7.85 0 10.1 -7.5 9.4 -7.5 7.5 -0.85 5.5 -7.5 4.75 -7.5 2.85 -0.85 2.8 -0.85 0.9 -7.5 Z"/>
</g>

<g id="IT_300x600_psd_Asset_3_ManagedWiFi_IT_Research_DM8_1_Want_a_more_cost__effective__efficient__and_agile_network__0_Layer0_0_MEMBER_1_FILL">
<path fill="#D82C26" stroke="none" d="
M 13.3 -4.25
Q 13.65 -3.95 13.65 -3.25
L 13.65 -3 13.05 -3
Q 10.2 -3 10.2 -1.35 10.2 -0.65 10.7 -0.25 11.2 0.15 11.8 0.15 12.4 0.15 12.9 -0.15 13.45 -0.45 13.65 -0.95
L 13.7 -0.95 13.75 0 14.35 0
Q 14.25 -0.25 14.25 -1.1
L 14.25 -3.2
Q 14.25 -4.15 13.75 -4.65 13.25 -5.1 12.35 -5.1 11.8 -5.1 11.35 -4.95 10.9 -4.8 10.5 -4.5
L 10.7 -4 11.4 -4.45
Q 11.85 -4.6 12.25 -4.6 12.95 -4.6 13.3 -4.25
M 11.15 -0.6
Q 10.8 -0.8 10.8 -1.35 10.8 -2.55 13.15 -2.55
L 13.65 -2.55 13.65 -2.05
Q 13.65 -1.6 13.45 -1.25 13.3 -0.85 12.9 -0.6 12.55 -0.35 11.95 -0.35 11.4 -0.35 11.15 -0.6 Z"/>
</g>

<g id="IT_300x600_psd_Asset_3_ManagedWiFi_IT_Research_DM8_1_Want_a_more_cost__effective__efficient__and_agile_network__0_Layer0_0_MEMBER_2_FILL">
<path fill="#D82C26" stroke="none" d="
M 19.5 -4.5
Q 19.05 -5.1 18.1 -5.1 17.5 -5.1 17 -4.75 16.55 -4.5 16.3 -3.9
L 16.2 -4.95 15.65 -4.95 15.7 0 16.3 0 16.3 -2.55
Q 16.3 -3.05 16.55 -3.65 16.7 -4.1 17.1 -4.35 17.6 -4.6 17.95 -4.6 18.65 -4.6 19 -4.1 19.3 -3.55 19.3 -2.85
L 19.3 0 19.95 0 19.95 -3.05
Q 19.95 -3.9 19.5 -4.5 Z"/>
</g>

<g id="IT_300x600_psd_Asset_3_ManagedWiFi_IT_Research_DM8_1_Want_a_more_cost__effective__efficient__and_agile_network__0_Layer0_0_MEMBER_3_FILL">
<path fill="#D82C26" stroke="none" d="
M 23.35 -4.45
L 23.5 -4.95 22.1 -4.95 22.1 -6.4 21.45 -6.15 21.45 -4.95 20.65 -4.95 20.55 -4.45 21.45 -4.45 21.45 -1.2
Q 21.45 -0.55 21.8 -0.25 22.1 0.1 22.6 0.1
L 23.2 0.05 23.7 -0.15 23.6 -0.6
Q 23 -0.4 22.8 -0.4 22.45 -0.4 22.25 -0.6 22.1 -0.8 22.1 -1.3
L 22.1 -4.45 23.35 -4.45 Z"/>
</g>

<g id="IT_300x600_psd_Asset_3_ManagedWiFi_IT_Research_DM8_1_Want_a_more_cost__effective__efficient__and_agile_network__0_Layer0_0_MEMBER_4_FILL">
<path fill="#D82C26" stroke="none" d="
M 29.3 -4.25
Q 29.65 -3.95 29.65 -3.25
L 29.65 -3 29.05 -3
Q 26.25 -3 26.25 -1.35 26.25 -0.6 26.7 -0.25 27.2 0.15 27.8 0.15 28.45 0.15 28.9 -0.15 29.45 -0.45 29.65 -0.95
L 29.7 -0.95 29.75 0 30.35 0 30.25 -3.2
Q 30.25 -4.15 29.75 -4.65 29.25 -5.1 28.35 -5.1 27.8 -5.1 27.35 -4.95 26.9 -4.8 26.5 -4.5
L 26.7 -4 27.4 -4.45 28.25 -4.6
Q 28.95 -4.6 29.3 -4.25
M 27.15 -0.6
Q 26.8 -0.85 26.8 -1.35 26.8 -2.55 29.15 -2.55
L 29.65 -2.55 29.65 -2.05
Q 29.65 -1.6 29.45 -1.25 29.3 -0.85 28.9 -0.6 28.6 -0.35 27.95 -0.35 27.4 -0.35 27.15 -0.6 Z"/>
</g>

<g id="IT_300x600_psd_Asset_3_ManagedWiFi_IT_Research_DM8_1_Want_a_more_cost__effective__efficient__and_agile_network__0_Layer0_0_MEMBER_5_FILL">
<path fill="#D82C26" stroke="none" d="
M 34.5 -4.95
L 33.9 -4.95 33.95 0 34.6 0 34.6 -2.45
Q 34.6 -3.2 34.8 -3.6 35 -4.05 35.35 -4.35 35.75 -4.6 36.15 -4.6 36.75 -4.6 37.05 -4.15 37.4 -3.75 37.4 -2.95
L 37.4 0 38 0 38 -2.55
Q 38 -3.45 38.45 -4 38.9 -4.6 39.6 -4.6 40.25 -4.6 40.6 -4.1 40.9 -3.55 40.9 -2.85
L 40.9 0 41.5 0 41.5 -3
Q 41.5 -3.9 41.05 -4.5 40.7 -5.1 39.7 -5.1 39.1 -5.1 38.6 -4.75 38.1 -4.45 37.9 -3.85 37.75 -4.45 37.3 -4.75 36.95 -5.1 36.3 -5.1 35.7 -5.1 35.25 -4.8 34.75 -4.4 34.55 -3.9
L 34.5 -4.95 Z"/>
</g>

<g id="IT_300x600_psd_Asset_3_ManagedWiFi_IT_Research_DM8_1_Want_a_more_cost__effective__efficient__and_agile_network__0_Layer0_0_MEMBER_6_FILL">
<path fill="#D82C26" stroke="none" d="
M 45.25 -5.1
Q 44.5 -5.1 43.9 -4.8 43.3 -4.45 42.95 -3.85 42.6 -3.3 42.6 -2.5 42.6 -1.7 42.95 -1.15 43.4 -0.45 43.9 -0.2 44.45 0.15 45.25 0.15 46.05 0.15 46.6 -0.2 47.1 -0.45 47.55 -1.15 47.9 -1.7 47.9 -2.5 47.9 -3.3 47.55 -3.85 47.2 -4.45 46.6 -4.8 46 -5.1 45.25 -5.1
M 44.2 -4.3
Q 44.65 -4.6 45.25 -4.6 45.85 -4.6 46.3 -4.3 46.8 -3.95 47 -3.55 47.25 -3.15 47.25 -2.5 47.25 -1.8 47 -1.45 46.8 -1 46.3 -0.65 45.8 -0.4 45.25 -0.4 44.7 -0.4 44.2 -0.65 43.75 -0.9 43.45 -1.45 43.25 -1.85 43.25 -2.5 43.25 -3.15 43.45 -3.55 43.8 -4.05 44.2 -4.3 Z"/>
</g>

<g id="IT_300x600_psd_Asset_3_ManagedWiFi_IT_Research_DM8_1_Want_a_more_cost__effective__efficient__and_agile_network__0_Layer0_0_MEMBER_7_FILL">
<path fill="#D82C26" stroke="none" d="
M 49.6 -4.95
L 49 -4.95 49.05 0 49.65 0 49.65 -2.45
Q 49.65 -3.3 50.05 -3.95 50.45 -4.55 51.05 -4.55
L 51.5 -4.5 51.65 -5
Q 51.45 -5.1 51.1 -5.1 50.65 -5.1 50.25 -4.8 49.9 -4.4 49.65 -3.9
L 49.6 -4.95 Z"/>
</g>

<g id="IT_300x600_psd_Asset_3_ManagedWiFi_IT_Research_DM8_1_Want_a_more_cost__effective__efficient__and_agile_network__0_Layer0_0_MEMBER_8_FILL">
<path fill="#D82C26" stroke="none" d="
M 55.55 -4.8
Q 54.95 -5.1 54.25 -5.1 53.6 -5.1 53 -4.8 52.45 -4.4 52.1 -3.85 51.8 -3.25 51.8 -2.5 51.8 -1.75 52.1 -1.15 52.55 -0.45 53.05 -0.2 53.55 0.15 54.35 0.15 55.5 0.15 56.3 -0.5
L 56.2 -1
Q 55.9 -0.7 55.4 -0.55 55 -0.35 54.4 -0.35 53.8 -0.35 53.35 -0.65 53 -0.8 52.65 -1.35 52.4 -1.95 52.4 -2.4
L 56.6 -2.4 56.6 -2.65
Q 56.6 -3.25 56.35 -3.9 56.05 -4.45 55.55 -4.8
M 54.25 -4.65
Q 55 -4.65 55.5 -4.15 56 -3.65 56 -2.85
L 52.4 -2.85
Q 52.4 -3.25 52.65 -3.65 52.85 -4.05 53.3 -4.35 53.7 -4.65 54.25 -4.65 Z"/>
</g>

<g id="IT_300x600_psd_Asset_3_ManagedWiFi_IT_Research_DM8_1_Want_a_more_cost__effective__efficient__and_agile_network__0_Layer0_0_MEMBER_9_FILL">
<path fill="#D82C26" stroke="none" d="
M 59.6 -2.5
Q 59.6 -1.65 59.95 -1.1 60.25 -0.5 60.85 -0.2 61.4 0.15 62.2 0.15 62.7 0.15 63.15 0
L 63.9 -0.45 63.8 -0.95 63.1 -0.55
Q 62.75 -0.4 62.25 -0.4 61.7 -0.4 61.2 -0.65 60.7 -1 60.5 -1.45 60.25 -1.95 60.25 -2.5 60.25 -2.95 60.5 -3.55 60.7 -3.95 61.2 -4.3 61.65 -4.6 62.2 -4.6 62.65 -4.6 63 -4.45
L 63.65 -4.05 63.9 -4.5
Q 63.6 -4.8 63.15 -4.95 62.7 -5.1 62.2 -5.1 61.45 -5.1 60.85 -4.8 60.2 -4.35 59.95 -3.85 59.6 -3.3 59.6 -2.5 Z"/>
</g>

<g id="IT_300x600_psd_Asset_3_ManagedWiFi_IT_Research_DM8_1_Want_a_more_cost__effective__efficient__and_agile_network__0_Layer0_0_MEMBER_10_FILL">
<path fill="#D82C26" stroke="none" d="
M 64.7 -1.15
Q 65.15 -0.45 65.65 -0.2 66.2 0.15 67 0.15 67.8 0.15 68.35 -0.2 69 -0.5 69.3 -1.15 69.65 -1.7 69.65 -2.5 69.65 -3.3 69.3 -3.85 69.05 -4.35 68.35 -4.8 67.75 -5.1 67 -5.1 66.25 -5.1 65.65 -4.8 65.05 -4.45 64.7 -3.85 64.35 -3.15 64.35 -2.5 64.35 -1.85 64.7 -1.15
M 65 -2.5
Q 65 -3.05 65.25 -3.55 65.45 -3.95 65.95 -4.3 66.4 -4.6 67 -4.6 67.6 -4.6 68.05 -4.3 68.45 -4.05 68.8 -3.55 69.05 -3.05 69.05 -2.5 69.05 -1.95 68.8 -1.45 68.6 -1 68.1 -0.65 67.6 -0.4 67 -0.4 66.45 -0.4 65.95 -0.65 65.45 -1 65.25 -1.45 65 -1.95 65 -2.5 Z"/>
</g>

<g id="IT_300x600_psd_Asset_3_ManagedWiFi_IT_Research_DM8_1_Want_a_more_cost__effective__efficient__and_agile_network__0_Layer0_0_MEMBER_11_FILL">
<path fill="#D82C26" stroke="none" d="
M 70.5 -0.95
L 70.4 -0.4
Q 70.75 -0.15 71.15 0 71.6 0.15 72.15 0.15 72.65 0.15 73 -0.05 73.4 -0.2 73.6 -0.5 73.85 -0.9 73.85 -1.3 73.85 -1.75 73.5 -2.2 73.1 -2.55 72.3 -2.75 71.65 -2.95 71.35 -3.2 71.05 -3.4 71.05 -3.8 71.05 -4.15 71.35 -4.4 71.6 -4.6 72.15 -4.6
L 72.85 -4.5 73.45 -4.15 73.7 -4.6 73 -4.95
Q 72.65 -5.1 72.1 -5.1
L 71.35 -4.95
Q 71 -4.8 70.7 -4.5 70.5 -4.25 70.5 -3.75 70.5 -3.2 70.85 -2.9 71.2 -2.55 71.9 -2.35
L 72.95 -1.9
Q 73.25 -1.65 73.25 -1.3 73.25 -0.8 72.95 -0.6 72.55 -0.35 72.15 -0.35 71.2 -0.35 70.5 -0.95 Z"/>
</g>

<g id="IT_300x600_psd_Asset_3_ManagedWiFi_IT_Research_DM8_1_Want_a_more_cost__effective__efficient__and_agile_network__0_Layer0_0_MEMBER_12_FILL">
<path fill="#D82C26" stroke="none" d="
M 75.25 -1.2
Q 75.25 -0.6 75.6 -0.25 75.9 0.1 76.45 0.1
L 77 0.05 77.5 -0.15 77.4 -0.6
Q 76.8 -0.4 76.6 -0.4 76.25 -0.4 76.1 -0.6 75.9 -0.8 75.9 -1.3
L 75.9 -4.45 77.15 -4.45 77.3 -4.95 75.9 -4.95 75.9 -6.4 75.25 -6.15 75.25 -4.95 74.45 -4.95 74.35 -4.45 75.25 -4.45 75.25 -1.2 Z"/>
</g>

<g id="IT_300x600_psd_Asset_3_ManagedWiFi_IT_Research_DM8_1_Want_a_more_cost__effective__efficient__and_agile_network__0_Layer0_0_MEMBER_13_FILL">
<path fill="#D82C26" stroke="none" d="
M 77.5 -2.95
L 77.5 -2.4 79.65 -2.4 79.65 -2.95 77.5 -2.95 Z"/>
</g>

<g id="IT_300x600_psd_Asset_3_ManagedWiFi_IT_Research_DM8_1_Want_a_more_cost__effective__efficient__and_agile_network__0_Layer0_0_MEMBER_14_FILL">
<path fill="#D82C26" stroke="none" d="
M 4.35 8.65
Q 3.8 8.3 3.05 8.3 2.3 8.3 1.8 8.65 1.3 8.95 0.9 9.55 0.6 10.15 0.6 10.9 0.6 11.7 0.9 12.3 1.3 12.9 1.85 13.2 2.35 13.55 3.15 13.55 4.3 13.55 5.1 12.95
L 5 12.4
Q 4.75 12.7 4.2 12.85 3.8 13.05 3.2 13.05 2.65 13.05 2.15 12.8 1.8 12.55 1.45 12.05 1.2 11.55 1.2 11
L 5.4 11 5.4 10.75
Q 5.4 10.15 5.15 9.5 4.8 8.9 4.35 8.65
M 3.05 8.8
Q 3.85 8.8 4.3 9.25 4.8 9.75 4.8 10.55
L 1.2 10.55
Q 1.2 10.25 1.45 9.75 1.7 9.3 2.1 9.05 2.5 8.8 3.05 8.8 Z"/>
</g>

<g id="IT_300x600_psd_Asset_3_ManagedWiFi_IT_Research_DM8_1_Want_a_more_cost__effective__efficient__and_agile_network__0_Layer0_0_MEMBER_15_FILL">
<path fill="#D82C26" stroke="none" d="
M 10.85 6.15
Q 11.05 5.8 11.6 5.8
L 12.4 5.9 12.45 5.4 12.05 5.3 11.55 5.25
Q 10.85 5.25 10.45 5.7 10 6.15 10 7
L 10 8.45 7.45 8.45 7.45 7.05
Q 7.45 6.4 7.65 6.15 7.85 5.8 8.4 5.8
L 9.2 5.9 9.25 5.4
Q 9.05 5.3 8.85 5.3
L 8.35 5.25
Q 7.65 5.25 7.25 5.7 6.85 6.1 6.85 7
L 6.85 8.45 5.95 8.45 5.8 8.95 6.85 8.95 6.85 13.4 7.45 13.4 7.45 8.95 10 8.95 10 13.4 10.65 13.4 10.65 8.95 11.8 8.95 11.95 8.45 10.65 8.45 10.65 7.05
Q 10.65 6.4 10.85 6.15 Z"/>
</g>

<g id="IT_300x600_psd_Asset_3_ManagedWiFi_IT_Research_DM8_1_Want_a_more_cost__effective__efficient__and_agile_network__0_Layer0_0_MEMBER_16_FILL">
<path fill="#D82C26" stroke="none" d="
M 12.15 10.9
Q 12.15 11.75 12.5 12.3 12.8 12.9 13.4 13.2 13.9 13.55 14.7 13.55 15.9 13.55 16.7 12.95
L 16.55 12.4
Q 16.25 12.7 15.75 12.85 15.35 13.05 14.75 13.05 14.25 13.05 13.75 12.8 13.3 12.5 13 12.05 12.75 11.55 12.75 11
L 16.95 11 16.95 10.75
Q 16.95 10 16.7 9.5 16.35 8.9 15.9 8.65 15.4 8.3 14.6 8.3 13.9 8.3 13.35 8.65 12.8 8.95 12.5 9.55 12.15 10.1 12.15 10.9
M 13.65 9.05
Q 14.05 8.8 14.6 8.8 15.4 8.8 15.9 9.25 16.3 9.75 16.4 10.55
L 12.75 10.55
Q 12.85 10.05 13 9.75 13.25 9.3 13.65 9.05 Z"/>
</g>

<g id="IT_300x600_psd_Asset_3_ManagedWiFi_IT_Research_DM8_1_Want_a_more_cost__effective__efficient__and_agile_network__0_Layer0_0_MEMBER_17_FILL">
<path fill="#D82C26" stroke="none" d="
M 21.35 8.45
Q 20.9 8.3 20.4 8.3 19.65 8.3 19.1 8.65 18.45 8.95 18.15 9.6 17.8 10.15 17.8 10.95 17.8 11.75 18.15 12.3 18.45 12.85 19.05 13.25 19.65 13.55 20.4 13.55 20.9 13.55 21.35 13.4 21.8 13.25 22.1 12.95
L 22 12.45
Q 21.7 12.8 21.3 12.85 20.95 13 20.45 13 19.8 13 19.4 12.75 18.9 12.45 18.7 12 18.45 11.4 18.45 10.95 18.45 10.4 18.7 9.9 18.9 9.45 19.4 9.1 19.8 8.85 20.45 8.85
L 21.2 8.95 21.85 9.35 22.1 8.9
Q 21.8 8.6 21.35 8.45 Z"/>
</g>

<g id="IT_300x600_psd_Asset_3_ManagedWiFi_IT_Research_DM8_1_Want_a_more_cost__effective__efficient__and_agile_network__0_Layer0_0_MEMBER_18_FILL">
<path fill="#D82C26" stroke="none" d="
M 23.5 8.95
L 23.5 12.2
Q 23.5 12.85 23.8 13.2 24.1 13.5 24.65 13.5
L 25.2 13.45 25.7 13.25 25.6 12.8
Q 25.2 13 24.8 13 24.45 13 24.3 12.8 24.1 12.6 24.1 12.15
L 24.1 8.95 25.35 8.95 25.5 8.45 24.1 8.45 24.1 7.05 23.45 7.25 23.45 8.45 22.65 8.45 22.55 8.95 23.5 8.95 Z"/>
</g>

<g id="IT_300x600_psd_Asset_3_ManagedWiFi_IT_Research_DM8_1_Want_a_more_cost__effective__efficient__and_agile_network__0_Layer0_0_MEMBER_19_FILL">
<path fill="#D82C26" stroke="none" d="
M 27.1 8.45
L 26.5 8.45 26.5 13.4 27.1 13.4 27.1 8.45
M 27.1 6.15
L 26.8 6
Q 26.6 6 26.5 6.15
L 26.35 6.45
Q 26.35 6.65 26.5 6.8 26.55 6.9 26.8 6.9 27 6.9 27.1 6.8 27.25 6.65 27.25 6.45
L 27.1 6.15 Z"/>
</g>

<g id="IT_300x600_psd_Asset_3_ManagedWiFi_IT_Research_DM8_1_Want_a_more_cost__effective__efficient__and_agile_network__0_Layer0_0_MEMBER_20_FILL">
<path fill="#D82C26" stroke="none" d="
M 27.9 8.45
L 29.8 13.4 30.5 13.4 32.35 8.45 31.7 8.45 30.15 12.8 28.55 8.45 27.9 8.45 Z"/>
</g>

<g id="IT_300x600_psd_Asset_3_ManagedWiFi_IT_Research_DM8_1_Want_a_more_cost__effective__efficient__and_agile_network__0_Layer0_0_MEMBER_21_FILL">
<path fill="#D82C26" stroke="none" d="
M 32.65 10.9
Q 32.65 11.7 32.95 12.3 33.35 12.9 33.85 13.2 34.4 13.55 35.15 13.55 36.35 13.55 37.15 12.95
L 37.05 12.4
Q 36.8 12.7 36.25 12.85 35.8 13.05 35.2 13.05 34.7 13.05 34.2 12.8 33.7 12.5 33.5 12.05 33.25 11.55 33.25 11
L 37.45 11 37.45 10.75
Q 37.45 10.1 37.15 9.5 36.95 9 36.35 8.65 35.85 8.3 35.1 8.3 34.35 8.3 33.85 8.65 33.25 8.95 32.95 9.55 32.65 10.15 32.65 10.9
M 34.1 9.05
Q 34.6 8.8 35.1 8.8 35.9 8.8 36.35 9.25 36.85 9.85 36.85 10.55
L 33.25 10.55
Q 33.25 10.25 33.5 9.75 33.75 9.35 34.1 9.05 Z"/>
</g>

<g id="IT_300x600_psd_Asset_3_ManagedWiFi_IT_Research_DM8_1_Want_a_more_cost__effective__efficient__and_agile_network__0_Layer0_0_MEMBER_22_FILL">
<path fill="#D82C26" stroke="none" d="
M 38.35 14.65
Q 39.35 13.75 39.35 12.85 39.35 12.65 39.2 12.4 39.05 12.25 38.85 12.25 38.65 12.25 38.5 12.4
L 38.4 12.75 38.5 13.1 38.85 13.2 38.6 13.9
Q 38.35 14.3 38.1 14.5
L 38.35 14.65 Z"/>
</g>

<g id="IT_300x600_psd_Asset_3_ManagedWiFi_IT_Research_DM8_1_Want_a_more_cost__effective__efficient__and_agile_network__0_Layer0_0_MEMBER_23_FILL">
<path fill="#D82C26" stroke="none" d="
M 42.6 10.9
Q 42.6 11.7 42.9 12.3 43.3 12.9 43.8 13.2 44.35 13.55 45.15 13.55 46.3 13.55 47.1 12.95
L 47 12.4
Q 46.75 12.7 46.2 12.85 45.8 13.05 45.2 13.05 44.65 13.05 44.15 12.8 43.8 12.55 43.45 12.05 43.2 11.55 43.2 11
L 47.4 11 47.4 10.75
Q 47.4 10.15 47.15 9.5 46.8 8.9 46.3 8.65 45.8 8.3 45.05 8.3 44.3 8.3 43.8 8.65 43.3 8.9 42.9 9.55 42.6 10.15 42.6 10.9
M 44.05 9.05
Q 44.55 8.8 45.05 8.8 45.85 8.8 46.3 9.25 46.8 9.75 46.8 10.55
L 43.2 10.55
Q 43.2 10.25 43.45 9.75 43.7 9.35 44.05 9.05 Z"/>
</g>

<g id="IT_300x600_psd_Asset_3_ManagedWiFi_IT_Research_DM8_1_Want_a_more_cost__effective__efficient__and_agile_network__0_Layer0_0_MEMBER_24_FILL">
<path fill="#D82C26" stroke="none" d="
M 55.5 8.45
L 54.9 8.45 54.9 13.4 55.5 13.4 55.5 8.45
M 55.2 6
Q 55 6 54.85 6.15
L 54.75 6.45 54.85 6.8
Q 54.95 6.9 55.2 6.9 55.4 6.9 55.5 6.8 55.6 6.7 55.6 6.45 55.6 6.25 55.5 6.15
L 55.2 6
M 51.25 5.4
Q 51.05 5.3 50.85 5.3
L 50.35 5.25
Q 49.65 5.25 49.25 5.7 48.8 6.15 48.8 7
L 48.8 8.45 47.9 8.45 47.8 8.95 48.85 8.95 48.85 13.4 49.45 13.4 49.45 8.95 52 8.95 52 13.4 52.65 13.4 52.65 8.95 53.75 8.95 53.9 8.45 52.65 8.45 52.65 7.05
Q 52.65 6.4 52.85 6.15 53.05 5.8 53.6 5.8
L 54.35 5.9 54.4 5.4
Q 54.2 5.3 54 5.3
L 53.5 5.25
Q 52.85 5.25 52.4 5.7 52 6.2 52 7
L 52 8.45 49.45 8.45 49.45 7.05
Q 49.45 6.4 49.65 6.15 49.85 5.8 50.4 5.8
L 51.2 5.9 51.25 5.4 Z"/>
</g>

<g id="IT_300x600_psd_Asset_3_ManagedWiFi_IT_Research_DM8_1_Want_a_more_cost__effective__efficient__and_agile_network__0_Layer0_0_MEMBER_25_FILL">
<path fill="#D82C26" stroke="none" d="
M 60.9 12.95
L 60.8 12.45
Q 60.5 12.8 60.1 12.85 59.75 13 59.25 13 58.6 13 58.2 12.75 57.85 12.5 57.5 12 57.3 11.55 57.3 10.95 57.3 10.3 57.5 9.9 57.8 9.35 58.2 9.1 58.6 8.85 59.25 8.85
L 60 8.95
Q 60.4 9.1 60.65 9.35
L 60.9 8.9
Q 60.7 8.6 60.2 8.45
L 59.25 8.3
Q 58.45 8.3 57.9 8.65 57.4 8.9 56.95 9.6 56.65 10.2 56.65 10.95 56.65 11.7 56.95 12.3 57.3 12.9 57.9 13.25 58.5 13.55 59.2 13.55 59.7 13.55 60.15 13.4 60.6 13.25 60.9 12.95 Z"/>
</g>

<g id="IT_300x600_psd_Asset_3_ManagedWiFi_IT_Research_DM8_1_Want_a_more_cost__effective__efficient__and_agile_network__0_Layer0_0_MEMBER_26_FILL">
<path fill="#D82C26" stroke="none" d="
M 62.45 8.45
L 61.8 8.45 61.8 13.4 62.45 13.4 62.45 8.45
M 62.4 6.15
Q 62.35 6 62.1 6
L 61.8 6.15 61.65 6.45
Q 61.65 6.65 61.8 6.8 61.9 6.9 62.1 6.9 62.35 6.9 62.4 6.8 62.55 6.65 62.55 6.45
L 62.4 6.15 Z"/>
</g>

<g id="IT_300x600_psd_Asset_3_ManagedWiFi_IT_Research_DM8_1_Want_a_more_cost__effective__efficient__and_agile_network__0_Layer0_0_MEMBER_27_FILL">
<path fill="#D82C26" stroke="none" d="
M 63.6 10.9
Q 63.6 11.7 63.9 12.3 64.3 12.9 64.8 13.2 65.35 13.55 66.1 13.55 67.3 13.55 68.1 12.95
L 68 12.4
Q 67.75 12.7 67.2 12.85 66.75 13.05 66.15 13.05 65.65 13.05 65.15 12.8 64.65 12.5 64.45 12.05 64.2 11.55 64.2 11
L 68.4 11 68.4 10.75
Q 68.4 10.1 68.1 9.5 67.9 9 67.3 8.65 66.8 8.3 66.05 8.3 65.3 8.3 64.8 8.65 64.2 8.95 63.9 9.55 63.6 10.15 63.6 10.9
M 64.45 9.75
Q 64.7 9.35 65.05 9.05 65.55 8.8 66.05 8.8 66.85 8.8 67.3 9.25 67.8 9.75 67.8 10.55
L 64.2 10.55
Q 64.2 10.25 64.45 9.75 Z"/>
</g>

<g id="IT_300x600_psd_Asset_3_ManagedWiFi_IT_Research_DM8_1_Want_a_more_cost__effective__efficient__and_agile_network__0_Layer0_0_MEMBER_28_FILL">
<path fill="#D82C26" stroke="none" d="
M 73.35 8.9
Q 72.9 8.3 71.95 8.3 71.35 8.3 70.85 8.65 70.35 8.95 70.15 9.55
L 70.1 8.45 69.5 8.45 69.55 13.4 70.15 13.4 70.15 10.9
Q 70.15 10.3 70.4 9.8 70.6 9.4 71 9.05 71.35 8.85 71.8 8.85 72.55 8.85 72.85 9.3 73.15 9.85 73.15 10.55
L 73.15 13.4 73.8 13.4 73.8 10.4
Q 73.8 9.5 73.35 8.9 Z"/>
</g>

<g id="IT_300x600_psd_Asset_3_ManagedWiFi_IT_Research_DM8_1_Want_a_more_cost__effective__efficient__and_agile_network__0_Layer0_0_MEMBER_29_FILL">
<path fill="#D82C26" stroke="none" d="
M 75.35 8.95
L 75.35 12.2
Q 75.35 12.85 75.65 13.2 75.95 13.5 76.5 13.5
L 77.05 13.45 77.55 13.25 77.45 12.8
Q 77.05 13 76.65 13 76.3 13 76.15 12.8 75.95 12.6 75.95 12.15
L 75.95 8.95 77.2 8.95 77.35 8.45 75.95 8.45 75.95 7.05 75.3 7.25 75.3 8.45 74.5 8.45 74.4 8.95 75.35 8.95 Z"/>
</g>

<g id="IT_300x600_psd_Asset_3_ManagedWiFi_IT_Research_DM8_1_Want_a_more_cost__effective__efficient__and_agile_network__0_Layer0_0_MEMBER_30_FILL">
<path fill="#D82C26" stroke="none" d="
M 1.75 21.9
Q 1.2 22.05 0.9 22.35
L 1.05 22.85
Q 1.35 22.55 1.8 22.4 2.2 22.2 2.65 22.2 3.25 22.2 3.7 22.55 4.05 22.9 4.05 23.55
L 4.05 23.85 3.45 23.85
Q 0.6 23.85 0.6 25.5 0.6 26.25 1.1 26.6 1.5 26.95 2.2 26.95 2.7 26.95 3.3 26.7 3.85 26.4 4.05 25.85
L 4.1 25.85 4.15 26.85 4.7 26.85 4.65 23.6
Q 4.65 22.7 4.15 22.2 3.65 21.7 2.75 21.7 2.15 21.7 1.75 21.9
M 3.55 24.25
L 4.05 24.25 4.05 24.75
Q 4.05 25.2 3.85 25.6 3.7 25.95 3.25 26.25 2.85 26.5 2.3 26.5 1.9 26.5 1.55 26.25 1.2 26.05 1.2 25.45 1.2 24.25 3.55 24.25 Z"/>
</g>

<g id="IT_300x600_psd_Asset_3_ManagedWiFi_IT_Research_DM8_1_Want_a_more_cost__effective__efficient__and_agile_network__0_Layer0_0_MEMBER_31_FILL">
<path fill="#D82C26" stroke="none" d="
M 6.6 21.85
L 6.05 21.85 6.1 26.85 6.7 26.85 6.7 24.3
Q 6.7 23.6 6.9 23.2 7.15 22.7 7.5 22.5 7.9 22.25 8.35 22.25 9.1 22.25 9.4 22.75 9.7 23.2 9.7 23.95
L 9.7 26.85 10.3 26.85 10.3 23.8
Q 10.3 22.9 9.85 22.3 9.45 21.75 8.5 21.75 7.85 21.75 7.4 22.05 6.95 22.4 6.7 22.95
L 6.65 22.95 6.6 21.85 Z"/>
</g>

<g id="IT_300x600_psd_Asset_3_ManagedWiFi_IT_Research_DM8_1_Want_a_more_cost__effective__efficient__and_agile_network__0_Layer0_0_MEMBER_32_FILL">
<path fill="#D82C26" stroke="none" d="
M 11.75 23
Q 11.45 23.6 11.45 24.35 11.45 25.1 11.75 25.7 12.05 26.3 12.65 26.6 13.15 26.95 13.95 26.95 14.6 26.95 15.1 26.65 15.65 26.4 15.95 25.75
L 16 25.75 16.05 26.85 16.65 26.85 16.6 18.7 15.95 18.8 15.95 22.95
Q 15.65 22.35 15.1 22.05 14.6 21.75 13.95 21.75 13.2 21.75 12.65 22.05 12.05 22.45 11.75 23
M 14 22.25
Q 14.6 22.25 15.05 22.55 15.35 22.7 15.75 23.3 16 23.8 16 24.35 16 24.9 15.75 25.4 15.4 25.9 15.05 26.15 14.6 26.45 14 26.45 13.45 26.45 13 26.15 12.5 25.9 12.3 25.4 12.05 24.9 12.05 24.35 12.05 23.8 12.3 23.3 12.55 22.75 13 22.55 13.45 22.25 14 22.25 Z"/>
</g>

<g id="IT_300x600_psd_Asset_3_ManagedWiFi_IT_Research_DM8_1_Want_a_more_cost__effective__efficient__and_agile_network__0_Layer0_0_MEMBER_33_FILL">
<path fill="#D82C26" stroke="none" d="
M 22.1 21.7
Q 21.5 21.7 21.1 21.9 20.65 22.05 20.25 22.35
L 20.45 22.85
Q 20.75 22.55 21.15 22.4 21.55 22.2 22 22.2 22.6 22.2 23.05 22.55 23.4 22.9 23.4 23.55
L 23.4 23.85 22.8 23.85
Q 20 23.85 20 25.5 20 26.25 20.45 26.6 20.85 26.95 21.55 26.95 22.1 26.95 22.7 26.7 23.2 26.35 23.4 25.85
L 23.45 25.85 23.5 26.85 24.1 26.85 24 23.6
Q 24 22.65 23.5 22.2 23 21.7 22.1 21.7
M 22.9 24.25
L 23.4 24.25 23.4 24.75
Q 23.4 25.15 23.25 25.6 23.05 25.95 22.65 26.25 22.25 26.5 21.7 26.5 21.25 26.5 20.9 26.25 20.55 26 20.55 25.45 20.55 24.25 22.9 24.25 Z"/>
</g>

<g id="IT_300x600_psd_Asset_3_ManagedWiFi_IT_Research_DM8_1_Want_a_more_cost__effective__efficient__and_agile_network__0_Layer0_0_MEMBER_34_FILL">
<path fill="#D82C26" stroke="none" d="
M 27.6 21.75
Q 26.9 21.75 26.3 22.05 25.7 22.45 25.4 23 25.1 23.6 25.1 24.35 25.1 25.05 25.4 25.65 25.7 26.2 26.3 26.6 26.9 26.95 27.6 26.95 28.1 26.95 28.8 26.6 29.3 26.3 29.6 25.7
L 29.65 25.7 29.65 26.75
Q 29.65 27.7 29.15 28.35 28.6 28.9 27.55 28.9
L 26.5 28.75 25.55 28.25 25.4 28.85 26.4 29.25
Q 26.95 29.45 27.6 29.45 28.95 29.45 29.6 28.7 30.25 28 30.25 26.75
L 30.25 21.85 29.7 21.85 29.65 22.95 29.6 22.95
Q 29.3 22.3 28.75 22.05 28.25 21.75 27.6 21.75
M 26.65 22.55
Q 27.1 22.25 27.7 22.25 28.25 22.25 28.7 22.55 29.1 22.75 29.4 23.3 29.65 23.8 29.65 24.35 29.65 24.8 29.4 25.4 29.05 25.9 28.7 26.15 28.2 26.4 27.7 26.4 27.15 26.4 26.65 26.15 26.25 25.9 25.95 25.35 25.75 24.95 25.75 24.35 25.75 23.7 25.95 23.3 26.35 22.7 26.65 22.55 Z"/>
</g>

<g id="IT_300x600_psd_Asset_3_ManagedWiFi_IT_Research_DM8_1_Want_a_more_cost__effective__efficient__and_agile_network__0_Layer0_0_MEMBER_35_FILL">
<path fill="#D82C26" stroke="none" d="
M 32.35 21.85
L 31.7 21.85 31.7 26.85 32.35 26.85 32.35 21.85
M 31.7 20.2
Q 31.85 20.35 32.05 20.35
L 32.35 20.2 32.5 19.9
Q 32.5 19.7 32.35 19.55
L 32.05 19.45 31.7 19.55 31.6 19.9 31.7 20.2 Z"/>
</g>

<g id="IT_300x600_psd_Asset_3_ManagedWiFi_IT_Research_DM8_1_Want_a_more_cost__effective__efficient__and_agile_network__0_Layer0_0_MEMBER_36_FILL">
<path fill="#D82C26" stroke="none" d="
M 34.05 26.5
Q 34.3 26.8 34.65 26.95
L 34.9 26.45 34.55 26.15 34.45 25.6 34.45 18.75 33.85 18.9 33.85 25.75
Q 33.85 26.25 34.05 26.5 Z"/>
</g>

<g id="IT_300x600_psd_Asset_3_ManagedWiFi_IT_Research_DM8_1_Want_a_more_cost__effective__efficient__and_agile_network__0_Layer0_0_MEMBER_37_FILL">
<path fill="#D82C26" stroke="none" d="
M 36.85 22.05
Q 36.3 22.35 35.95 23 35.6 23.6 35.6 24.3 35.6 25 35.95 25.7 36.25 26.25 36.85 26.65 37.55 27 38.15 27 39.25 27 40.15 26.35
L 40.05 25.8 39.25 26.3
Q 38.75 26.45 38.2 26.45 37.6 26.45 37.2 26.2 36.7 25.9 36.5 25.45 36.3 25.15 36.2 24.45
L 40.45 24.45 40.45 24.15
Q 40.45 23.5 40.15 22.95 39.95 22.4 39.35 22.05 38.85 21.7 38.1 21.7 37.45 21.7 36.85 22.05
M 36.45 23.2
Q 36.65 22.75 37.1 22.5 37.55 22.2 38.1 22.2 38.9 22.2 39.35 22.7 39.85 23.2 39.85 24
L 36.25 24
Q 36.25 23.7 36.45 23.2 Z"/>
</g>

<g id="IT_300x600_psd_Asset_3_ManagedWiFi_IT_Research_DM8_1_Want_a_more_cost__effective__efficient__and_agile_network__0_Layer0_0_MEMBER_38_FILL">
<path fill="#D82C26" stroke="none" d="
M 44.35 21.85
L 43.8 21.85 43.85 26.85 44.45 26.85 44.45 24.3
Q 44.45 23.8 44.65 23.2 44.9 22.7 45.25 22.5 45.65 22.25 46.1 22.25 46.85 22.25 47.15 22.75 47.45 23.2 47.45 23.95
L 47.45 26.85 48.1 26.85 48.1 23.8
Q 48.1 22.9 47.65 22.3 47.15 21.75 46.25 21.75 45.7 21.75 45.15 22.05 44.7 22.4 44.45 22.95
L 44.4 22.95 44.35 21.85 Z"/>
</g>

<g id="IT_300x600_psd_Asset_3_ManagedWiFi_IT_Research_DM8_1_Want_a_more_cost__effective__efficient__and_agile_network__0_Layer0_0_MEMBER_39_FILL">
<path fill="#D82C26" stroke="none" d="
M 50.4 22.05
Q 49.95 22.3 49.5 23 49.2 23.55 49.2 24.3 49.2 25.1 49.5 25.7 49.85 26.3 50.45 26.65 51.05 27 51.75 27 52.8 27 53.7 26.35
L 53.6 25.8
Q 53.35 26.1 52.8 26.3 52.35 26.45 51.8 26.45 51.15 26.45 50.75 26.2 50.4 25.95 50.05 25.45 49.8 24.95 49.8 24.45
L 54 24.45 54 24.15
Q 54 23.55 53.75 22.95 53.45 22.35 52.95 22.05 52.4 21.7 51.65 21.7 51.1 21.7 50.4 22.05
M 49.8 24
Q 49.8 23.6 50.05 23.2 50.3 22.7 50.7 22.5 51.1 22.2 51.65 22.2 52.45 22.2 52.9 22.7 53.4 23.15 53.4 24
L 49.8 24 Z"/>
</g>

<g id="IT_300x600_psd_Asset_3_ManagedWiFi_IT_Research_DM8_1_Want_a_more_cost__effective__efficient__and_agile_network__0_Layer0_0_MEMBER_40_FILL">
<path fill="#D82C26" stroke="none" d="
M 54.35 22.35
L 55.25 22.35 55.25 25.65
Q 55.25 26.25 55.6 26.6 55.95 26.95 56.4 26.95
L 57 26.85 57.5 26.65 57.4 26.2
Q 56.9 26.45 56.6 26.45 56.25 26.45 56.1 26.2 55.9 26 55.9 25.55
L 55.9 22.35 57.15 22.35 57.3 21.85 55.9 21.85 55.9 20.45 55.25 20.7 55.25 21.85 54.45 21.85 54.35 22.35 Z"/>
</g>

<g id="IT_300x600_psd_Asset_3_ManagedWiFi_IT_Research_DM8_1_Want_a_more_cost__effective__efficient__and_agile_network__0_Layer0_0_MEMBER_41_FILL">
<path fill="#D82C26" stroke="none" d="
M 61.8 21.85
L 61.1 21.85 59.75 26.1 59.7 26.1 58.5 21.85 57.8 21.85 59.35 26.85 60.05 26.85 61.45 22.6 62.9 26.85 63.55 26.85 65.1 21.85 64.45 21.85 63.25 26.1 63.2 26.1 61.8 21.85 Z"/>
</g>

<g id="IT_300x600_psd_Asset_3_ManagedWiFi_IT_Research_DM8_1_Want_a_more_cost__effective__efficient__and_agile_network__0_Layer0_0_MEMBER_42_FILL">
<path fill="#D82C26" stroke="none" d="
M 66.8 22.05
Q 66.3 22.3 65.85 23 65.5 23.7 65.5 24.35 65.5 25 65.85 25.7 66.2 26.3 66.8 26.65 67.5 27 68.15 27 68.8 27 69.5 26.65 70.2 26.2 70.45 25.7 70.8 25.15 70.8 24.35 70.8 23.55 70.45 23 70.15 22.35 69.5 22.05 68.8 21.7 68.15 21.7 67.5 21.7 66.8 22.05
M 66.15 24.35
Q 66.15 23.7 66.4 23.3 66.6 22.8 67.1 22.55 67.55 22.25 68.15 22.25 68.75 22.25 69.2 22.55 69.65 22.75 69.95 23.3 70.2 23.8 70.2 24.35 70.2 24.8 69.95 25.4 69.6 25.9 69.25 26.15 68.75 26.45 68.15 26.45 67.55 26.45 67.1 26.15 66.6 25.85 66.4 25.4 66.15 24.95 66.15 24.35 Z"/>
</g>

<g id="IT_300x600_psd_Asset_3_ManagedWiFi_IT_Research_DM8_1_Want_a_more_cost__effective__efficient__and_agile_network__0_Layer0_0_MEMBER_43_FILL">
<path fill="#D82C26" stroke="none" d="
M 73.15 22.05
Q 72.8 22.35 72.55 22.95
L 72.5 21.85 71.9 21.85 71.95 26.85 72.55 26.85 72.55 24.35
Q 72.55 23.55 72.95 22.9 73.35 22.3 73.95 22.3
L 74.4 22.35 74.55 21.8 74 21.75
Q 73.6 21.75 73.15 22.05 Z"/>
</g>

<g id="IT_300x600_psd_Asset_3_ManagedWiFi_IT_Research_DM8_1_Want_a_more_cost__effective__efficient__and_agile_network__0_Layer0_0_MEMBER_44_FILL">
<path fill="#D82C26" stroke="none" d="
M 75.9 18.75
L 75.3 18.85 75.3 26.85 75.9 26.85 75.9 24.25 75.95 24.25 78.5 26.85 79.3 26.85 76.6 24.15 79.05 21.85 78.25 21.85 75.95 24.1 75.9 24.1 75.9 18.75 Z"/>
</g>

<g id="IT_300x600_psd_Asset_3_ManagedWiFi_IT_Research_DM8_1_Want_a_more_cost__effective__efficient__and_agile_network__0_Layer0_0_MEMBER_45_FILL">
<path fill="#D82C26" stroke="none" d="
M 82.6 21
L 82.5 21.6 82.2 22.05 81 23.45
Q 80.85 23.9 80.85 24.35
L 80.85 24.7 81.45 24.7 81.5 23.85 81.7 23.4 82.8 22.25
Q 83.05 21.85 83.1 21.7 83.25 21.4 83.25 20.95 83.25 20.4 82.95 20 82.75 19.6 82.25 19.35 81.8 19.15 81.2 19.15 80.55 19.15 79.95 19.4 79.35 19.75 79.05 20.05
L 79.35 20.55
Q 79.65 20.15 80.15 19.95 80.65 19.7 81.15 19.7 81.7 19.7 82.2 20.05 82.6 20.45 82.6 21
M 81.5 26.1
Q 81.35 25.95 81.15 25.95
L 80.85 26.1
Q 80.7 26.25 80.7 26.45
L 80.85 26.75 81.15 26.9
Q 81.35 26.9 81.5 26.75
L 81.65 26.45
Q 81.65 26.25 81.5 26.1 Z"/>
</g>
</defs>

<g transform="matrix( 1, 0, 0, 1, -118,42) ">
<g transform="matrix( 1, 0, 0, 1, 113,0) ">
<g transform="matrix( 1, 0, 0, 1, 35,7) ">
<g transform="matrix( 2.815704345703125, 0, 0, 2.832611083984375, -0.85,21.6) ">
<use xlink:href="#IT_300x600_psd_Asset_3_ManagedWiFi_IT_Research_DM8_1_Want_a_more_cost__effective__efficient__and_agile_network__0_Layer0_0_MEMBER_0_FILL"/>
</g>

<g transform="matrix( 2.815704345703125, 0, 0, 2.832611083984375, -0.85,21.6) ">
<use xlink:href="#IT_300x600_psd_Asset_3_ManagedWiFi_IT_Research_DM8_1_Want_a_more_cost__effective__efficient__and_agile_network__0_Layer0_0_MEMBER_1_FILL"/>
</g>

<g transform="matrix( 2.815704345703125, 0, 0, 2.832611083984375, -0.85,21.6) ">
<use xlink:href="#IT_300x600_psd_Asset_3_ManagedWiFi_IT_Research_DM8_1_Want_a_more_cost__effective__efficient__and_agile_network__0_Layer0_0_MEMBER_2_FILL"/>
</g>

<g transform="matrix( 2.815704345703125, 0, 0, 2.832611083984375, -0.85,21.6) ">
<use xlink:href="#IT_300x600_psd_Asset_3_ManagedWiFi_IT_Research_DM8_1_Want_a_more_cost__effective__efficient__and_agile_network__0_Layer0_0_MEMBER_3_FILL"/>
</g>

<g transform="matrix( 2.815704345703125, 0, 0, 2.832611083984375, -0.85,21.6) ">
<use xlink:href="#IT_300x600_psd_Asset_3_ManagedWiFi_IT_Research_DM8_1_Want_a_more_cost__effective__efficient__and_agile_network__0_Layer0_0_MEMBER_4_FILL"/>
</g>

<g transform="matrix( 2.815704345703125, 0, 0, 2.832611083984375, -0.85,21.6) ">
<use xlink:href="#IT_300x600_psd_Asset_3_ManagedWiFi_IT_Research_DM8_1_Want_a_more_cost__effective__efficient__and_agile_network__0_Layer0_0_MEMBER_5_FILL"/>
</g>

<g transform="matrix( 2.815704345703125, 0, 0, 2.832611083984375, -0.85,21.6) ">
<use xlink:href="#IT_300x600_psd_Asset_3_ManagedWiFi_IT_Research_DM8_1_Want_a_more_cost__effective__efficient__and_agile_network__0_Layer0_0_MEMBER_6_FILL"/>
</g>

<g transform="matrix( 2.815704345703125, 0, 0, 2.832611083984375, -0.85,21.6) ">
<use xlink:href="#IT_300x600_psd_Asset_3_ManagedWiFi_IT_Research_DM8_1_Want_a_more_cost__effective__efficient__and_agile_network__0_Layer0_0_MEMBER_7_FILL"/>
</g>

<g transform="matrix( 2.815704345703125, 0, 0, 2.832611083984375, -0.85,21.6) ">
<use xlink:href="#IT_300x600_psd_Asset_3_ManagedWiFi_IT_Research_DM8_1_Want_a_more_cost__effective__efficient__and_agile_network__0_Layer0_0_MEMBER_8_FILL"/>
</g>

<g transform="matrix( 2.815704345703125, 0, 0, 2.832611083984375, -0.85,21.6) ">
<use xlink:href="#IT_300x600_psd_Asset_3_ManagedWiFi_IT_Research_DM8_1_Want_a_more_cost__effective__efficient__and_agile_network__0_Layer0_0_MEMBER_9_FILL"/>
</g>

<g transform="matrix( 2.815704345703125, 0, 0, 2.832611083984375, -0.85,21.6) ">
<use xlink:href="#IT_300x600_psd_Asset_3_ManagedWiFi_IT_Research_DM8_1_Want_a_more_cost__effective__efficient__and_agile_network__0_Layer0_0_MEMBER_10_FILL"/>
</g>

<g transform="matrix( 2.815704345703125, 0, 0, 2.832611083984375, -0.85,21.6) ">
<use xlink:href="#IT_300x600_psd_Asset_3_ManagedWiFi_IT_Research_DM8_1_Want_a_more_cost__effective__efficient__and_agile_network__0_Layer0_0_MEMBER_11_FILL"/>
</g>

<g transform="matrix( 2.815704345703125, 0, 0, 2.832611083984375, -0.85,21.6) ">
<use xlink:href="#IT_300x600_psd_Asset_3_ManagedWiFi_IT_Research_DM8_1_Want_a_more_cost__effective__efficient__and_agile_network__0_Layer0_0_MEMBER_12_FILL"/>
</g>

<g transform="matrix( 2.815704345703125, 0, 0, 2.832611083984375, -0.85,21.6) ">
<use xlink:href="#IT_300x600_psd_Asset_3_ManagedWiFi_IT_Research_DM8_1_Want_a_more_cost__effective__efficient__and_agile_network__0_Layer0_0_MEMBER_13_FILL"/>
</g>

<g transform="matrix( 2.815704345703125, 0, 0, 2.832611083984375, -0.85,21.6) ">
<use xlink:href="#IT_300x600_psd_Asset_3_ManagedWiFi_IT_Research_DM8_1_Want_a_more_cost__effective__efficient__and_agile_network__0_Layer0_0_MEMBER_14_FILL"/>
</g>

<g transform="matrix( 2.815704345703125, 0, 0, 2.832611083984375, -0.85,21.6) ">
<use xlink:href="#IT_300x600_psd_Asset_3_ManagedWiFi_IT_Research_DM8_1_Want_a_more_cost__effective__efficient__and_agile_network__0_Layer0_0_MEMBER_15_FILL"/>
</g>

<g transform="matrix( 2.815704345703125, 0, 0, 2.832611083984375, -0.85,21.6) ">
<use xlink:href="#IT_300x600_psd_Asset_3_ManagedWiFi_IT_Research_DM8_1_Want_a_more_cost__effective__efficient__and_agile_network__0_Layer0_0_MEMBER_16_FILL"/>
</g>

<g transform="matrix( 2.815704345703125, 0, 0, 2.832611083984375, -0.85,21.6) ">
<use xlink:href="#IT_300x600_psd_Asset_3_ManagedWiFi_IT_Research_DM8_1_Want_a_more_cost__effective__efficient__and_agile_network__0_Layer0_0_MEMBER_17_FILL"/>
</g>

<g transform="matrix( 2.815704345703125, 0, 0, 2.832611083984375, -0.85,21.6) ">
<use xlink:href="#IT_300x600_psd_Asset_3_ManagedWiFi_IT_Research_DM8_1_Want_a_more_cost__effective__efficient__and_agile_network__0_Layer0_0_MEMBER_18_FILL"/>
</g>

<g transform="matrix( 2.815704345703125, 0, 0, 2.832611083984375, -0.85,21.6) ">
<use xlink:href="#IT_300x600_psd_Asset_3_ManagedWiFi_IT_Research_DM8_1_Want_a_more_cost__effective__efficient__and_agile_network__0_Layer0_0_MEMBER_19_FILL"/>
</g>

<g transform="matrix( 2.815704345703125, 0, 0, 2.832611083984375, -0.85,21.6) ">
<use xlink:href="#IT_300x600_psd_Asset_3_ManagedWiFi_IT_Research_DM8_1_Want_a_more_cost__effective__efficient__and_agile_network__0_Layer0_0_MEMBER_20_FILL"/>
</g>

<g transform="matrix( 2.815704345703125, 0, 0, 2.832611083984375, -0.85,21.6) ">
<use xlink:href="#IT_300x600_psd_Asset_3_ManagedWiFi_IT_Research_DM8_1_Want_a_more_cost__effective__efficient__and_agile_network__0_Layer0_0_MEMBER_21_FILL"/>
</g>

<g transform="matrix( 2.815704345703125, 0, 0, 2.832611083984375, -0.85,21.6) ">
<use xlink:href="#IT_300x600_psd_Asset_3_ManagedWiFi_IT_Research_DM8_1_Want_a_more_cost__effective__efficient__and_agile_network__0_Layer0_0_MEMBER_22_FILL"/>
</g>

<g transform="matrix( 2.815704345703125, 0, 0, 2.832611083984375, -0.85,21.6) ">
<use xlink:href="#IT_300x600_psd_Asset_3_ManagedWiFi_IT_Research_DM8_1_Want_a_more_cost__effective__efficient__and_agile_network__0_Layer0_0_MEMBER_23_FILL"/>
</g>

<g transform="matrix( 2.815704345703125, 0, 0, 2.832611083984375, -0.85,21.6) ">
<use xlink:href="#IT_300x600_psd_Asset_3_ManagedWiFi_IT_Research_DM8_1_Want_a_more_cost__effective__efficient__and_agile_network__0_Layer0_0_MEMBER_24_FILL"/>
</g>

<g transform="matrix( 2.815704345703125, 0, 0, 2.832611083984375, -0.85,21.6) ">
<use xlink:href="#IT_300x600_psd_Asset_3_ManagedWiFi_IT_Research_DM8_1_Want_a_more_cost__effective__efficient__and_agile_network__0_Layer0_0_MEMBER_25_FILL"/>
</g>

<g transform="matrix( 2.815704345703125, 0, 0, 2.832611083984375, -0.85,21.6) ">
<use xlink:href="#IT_300x600_psd_Asset_3_ManagedWiFi_IT_Research_DM8_1_Want_a_more_cost__effective__efficient__and_agile_network__0_Layer0_0_MEMBER_26_FILL"/>
</g>

<g transform="matrix( 2.815704345703125, 0, 0, 2.832611083984375, -0.85,21.6) ">
<use xlink:href="#IT_300x600_psd_Asset_3_ManagedWiFi_IT_Research_DM8_1_Want_a_more_cost__effective__efficient__and_agile_network__0_Layer0_0_MEMBER_27_FILL"/>
</g>

<g transform="matrix( 2.815704345703125, 0, 0, 2.832611083984375, -0.85,21.6) ">
<use xlink:href="#IT_300x600_psd_Asset_3_ManagedWiFi_IT_Research_DM8_1_Want_a_more_cost__effective__efficient__and_agile_network__0_Layer0_0_MEMBER_28_FILL"/>
</g>

<g transform="matrix( 2.815704345703125, 0, 0, 2.832611083984375, -0.85,21.6) ">
<use xlink:href="#IT_300x600_psd_Asset_3_ManagedWiFi_IT_Research_DM8_1_Want_a_more_cost__effective__efficient__and_agile_network__0_Layer0_0_MEMBER_29_FILL"/>
</g>

<g transform="matrix( 2.815704345703125, 0, 0, 2.832611083984375, -0.85,21.6) ">
<use xlink:href="#IT_300x600_psd_Asset_3_ManagedWiFi_IT_Research_DM8_1_Want_a_more_cost__effective__efficient__and_agile_network__0_Layer0_0_MEMBER_30_FILL"/>
</g>

<g transform="matrix( 2.815704345703125, 0, 0, 2.832611083984375, -0.85,21.6) ">
<use xlink:href="#IT_300x600_psd_Asset_3_ManagedWiFi_IT_Research_DM8_1_Want_a_more_cost__effective__efficient__and_agile_network__0_Layer0_0_MEMBER_31_FILL"/>
</g>

<g transform="matrix( 2.815704345703125, 0, 0, 2.832611083984375, -0.85,21.6) ">
<use xlink:href="#IT_300x600_psd_Asset_3_ManagedWiFi_IT_Research_DM8_1_Want_a_more_cost__effective__efficient__and_agile_network__0_Layer0_0_MEMBER_32_FILL"/>
</g>

<g transform="matrix( 2.815704345703125, 0, 0, 2.832611083984375, -0.85,21.6) ">
<use xlink:href="#IT_300x600_psd_Asset_3_ManagedWiFi_IT_Research_DM8_1_Want_a_more_cost__effective__efficient__and_agile_network__0_Layer0_0_MEMBER_33_FILL"/>
</g>

<g transform="matrix( 2.815704345703125, 0, 0, 2.832611083984375, -0.85,21.6) ">
<use xlink:href="#IT_300x600_psd_Asset_3_ManagedWiFi_IT_Research_DM8_1_Want_a_more_cost__effective__efficient__and_agile_network__0_Layer0_0_MEMBER_34_FILL"/>
</g>

<g transform="matrix( 2.815704345703125, 0, 0, 2.832611083984375, -0.85,21.6) ">
<use xlink:href="#IT_300x600_psd_Asset_3_ManagedWiFi_IT_Research_DM8_1_Want_a_more_cost__effective__efficient__and_agile_network__0_Layer0_0_MEMBER_35_FILL"/>
</g>

<g transform="matrix( 2.815704345703125, 0, 0, 2.832611083984375, -0.85,21.6) ">
<use xlink:href="#IT_300x600_psd_Asset_3_ManagedWiFi_IT_Research_DM8_1_Want_a_more_cost__effective__efficient__and_agile_network__0_Layer0_0_MEMBER_36_FILL"/>
</g>

<g transform="matrix( 2.815704345703125, 0, 0, 2.832611083984375, -0.85,21.6) ">
<use xlink:href="#IT_300x600_psd_Asset_3_ManagedWiFi_IT_Research_DM8_1_Want_a_more_cost__effective__efficient__and_agile_network__0_Layer0_0_MEMBER_37_FILL"/>
</g>

<g transform="matrix( 2.815704345703125, 0, 0, 2.832611083984375, -0.85,21.6) ">
<use xlink:href="#IT_300x600_psd_Asset_3_ManagedWiFi_IT_Research_DM8_1_Want_a_more_cost__effective__efficient__and_agile_network__0_Layer0_0_MEMBER_38_FILL"/>
</g>

<g transform="matrix( 2.815704345703125, 0, 0, 2.832611083984375, -0.85,21.6) ">
<use xlink:href="#IT_300x600_psd_Asset_3_ManagedWiFi_IT_Research_DM8_1_Want_a_more_cost__effective__efficient__and_agile_network__0_Layer0_0_MEMBER_39_FILL"/>
</g>

<g transform="matrix( 2.815704345703125, 0, 0, 2.832611083984375, -0.85,21.6) ">
<use xlink:href="#IT_300x600_psd_Asset_3_ManagedWiFi_IT_Research_DM8_1_Want_a_more_cost__effective__efficient__and_agile_network__0_Layer0_0_MEMBER_40_FILL"/>
</g>

<g transform="matrix( 2.815704345703125, 0, 0, 2.832611083984375, -0.85,21.6) ">
<use xlink:href="#IT_300x600_psd_Asset_3_ManagedWiFi_IT_Research_DM8_1_Want_a_more_cost__effective__efficient__and_agile_network__0_Layer0_0_MEMBER_41_FILL"/>
</g>

<g transform="matrix( 2.815704345703125, 0, 0, 2.832611083984375, -0.85,21.6) ">
<use xlink:href="#IT_300x600_psd_Asset_3_ManagedWiFi_IT_Research_DM8_1_Want_a_more_cost__effective__efficient__and_agile_network__0_Layer0_0_MEMBER_42_FILL"/>
</g>

<g transform="matrix( 2.815704345703125, 0, 0, 2.832611083984375, -0.85,21.6) ">
<use xlink:href="#IT_300x600_psd_Asset_3_ManagedWiFi_IT_Research_DM8_1_Want_a_more_cost__effective__efficient__and_agile_network__0_Layer0_0_MEMBER_43_FILL"/>
</g>

<g transform="matrix( 2.815704345703125, 0, 0, 2.832611083984375, -0.85,21.6) ">
<use xlink:href="#IT_300x600_psd_Asset_3_ManagedWiFi_IT_Research_DM8_1_Want_a_more_cost__effective__efficient__and_agile_network__0_Layer0_0_MEMBER_44_FILL"/>
</g>

<g transform="matrix( 2.815704345703125, 0, 0, 2.832611083984375, -0.85,21.6) ">
<use xlink:href="#IT_300x600_psd_Asset_3_ManagedWiFi_IT_Research_DM8_1_Want_a_more_cost__effective__efficient__and_agile_network__0_Layer0_0_MEMBER_45_FILL"/>
</g>
</g>
</g>
</g>
</svg>
