
<svg xmlns="http://www.w3.org/2000/svg" version="1.1" xmlns:xlink="http://www.w3.org/1999/xlink" preserveAspectRatio="none" x="0px" y="0px" width="300px" height="600px" viewBox="0 0 300 600">
<defs>
<g id="IT_300x600_psd_Asset_3_ManagedWiFi_IT_Research_DM8_2_Network_as_a__Service_solutions__can_help___0_Layer0_0_MEMBER_0_FILL">
<path fill="#D82C26" stroke="none" d="
M 1.8 -7.5
L 1.05 -7.5 1.05 0 1.65 0 1.65 -6.6 1.7 -6.6 6.4 0 7.2 0 7.2 -7.5 6.55 -7.5 6.55 -0.9 1.8 -7.5 Z"/>
</g>

<g id="IT_300x600_psd_Asset_3_ManagedWiFi_IT_Research_DM8_2_Network_as_a__Service_solutions__can_help___0_Layer0_0_MEMBER_1_FILL">
<path fill="#D82C26" stroke="none" d="
M 8.8 -1.15
Q 9.1 -0.55 9.7 -0.2 10.25 0.15 11 0.15 12.2 0.15 13 -0.5
L 12.9 -1
Q 12.5 -0.7 12.1 -0.55 11.65 -0.35 11.05 -0.35 10.5 -0.35 10.05 -0.65 9.6 -0.9 9.35 -1.35 9.1 -1.95 9.1 -2.4
L 13.3 -2.4 13.3 -2.65
Q 13.3 -3.3 13 -3.9 12.8 -4.35 12.2 -4.8 11.7 -5.1 10.95 -5.1 10.25 -5.1 9.7 -4.8 9.1 -4.4 8.8 -3.85 8.5 -3.25 8.5 -2.5 8.5 -1.75 8.8 -1.15
M 9.35 -3.65
Q 9.45 -3.95 9.95 -4.35 10.4 -4.65 10.95 -4.65 11.7 -4.65 12.2 -4.15 12.7 -3.55 12.7 -2.85
L 9.1 -2.85
Q 9.1 -3.25 9.35 -3.65 Z"/>
</g>

<g id="IT_300x600_psd_Asset_3_ManagedWiFi_IT_Research_DM8_2_Network_as_a__Service_solutions__can_help___0_Layer0_0_MEMBER_2_FILL">
<path fill="#D82C26" stroke="none" d="
M 14.55 -1.2
Q 14.55 -0.55 14.85 -0.25 15.15 0.1 15.7 0.1
L 16.25 0.05 16.75 -0.15 16.65 -0.6
Q 16.15 -0.4 15.9 -0.4 15.55 -0.4 15.35 -0.6 15.15 -0.8 15.15 -1.3
L 15.15 -4.45 16.45 -4.45 16.55 -4.95 15.15 -4.95 15.15 -6.4 14.55 -6.15 14.55 -4.95 13.75 -4.95 13.6 -4.45 14.55 -4.45 14.55 -1.2 Z"/>
</g>

<g id="IT_300x600_psd_Asset_3_ManagedWiFi_IT_Research_DM8_2_Network_as_a__Service_solutions__can_help___0_Layer0_0_MEMBER_3_FILL">
<path fill="#D82C26" stroke="none" d="
M 17.75 -4.95
L 17.1 -4.95 18.65 0 19.3 0 20.7 -4.25 20.75 -4.25 22.15 0 22.85 0 24.4 -4.95 23.75 -4.95 22.5 -0.7 21.1 -4.95 20.4 -4.95 19 -0.7 17.75 -4.95 Z"/>
</g>

<g id="IT_300x600_psd_Asset_3_ManagedWiFi_IT_Research_DM8_2_Network_as_a__Service_solutions__can_help___0_Layer0_0_MEMBER_4_FILL">
<path fill="#D82C26" stroke="none" d="
M 25.15 -3.85
Q 24.8 -3.3 24.8 -2.5 24.8 -1.7 25.15 -1.15 25.45 -0.5 26.1 -0.2 26.65 0.15 27.45 0.15 28.25 0.15 28.8 -0.2 29.3 -0.45 29.75 -1.15 30.1 -1.85 30.1 -2.5 30.1 -3.15 29.75 -3.85 29.4 -4.45 28.8 -4.8 28.2 -5.1 27.45 -5.1 26.7 -5.1 26.1 -4.8 25.4 -4.35 25.15 -3.85
M 28.5 -4.3
Q 29 -3.95 29.2 -3.55 29.45 -3.05 29.45 -2.5 29.45 -1.8 29.2 -1.45 29 -1 28.5 -0.65 28 -0.4 27.45 -0.4 26.95 -0.4 26.35 -0.65 25.95 -0.9 25.65 -1.45 25.4 -1.95 25.4 -2.5 25.4 -3.05 25.65 -3.55 26 -4.05 26.35 -4.3 26.9 -4.6 27.45 -4.6 28.05 -4.6 28.5 -4.3 Z"/>
</g>

<g id="IT_300x600_psd_Asset_3_ManagedWiFi_IT_Research_DM8_2_Network_as_a__Service_solutions__can_help___0_Layer0_0_MEMBER_5_FILL">
<path fill="#D82C26" stroke="none" d="
M 33.8 -5
Q 33.65 -5.1 33.3 -5.1 32.85 -5.1 32.45 -4.8 32 -4.4 31.85 -3.9
L 31.8 -3.9 31.75 -4.95 31.15 -4.95 31.25 -3.75 31.25 0 31.85 0 31.85 -2.45
Q 31.85 -3.3 32.25 -3.95 32.65 -4.55 33.25 -4.55
L 33.7 -4.5 33.8 -5 Z"/>
</g>

<g id="IT_300x600_psd_Asset_3_ManagedWiFi_IT_Research_DM8_2_Network_as_a__Service_solutions__can_help___0_Layer0_0_MEMBER_6_FILL">
<path fill="#D82C26" stroke="none" d="
M 35.2 -8.1
L 34.55 -7.95 34.55 0 35.2 0 35.2 -2.6 37.75 0 38.55 0 35.9 -2.7 38.35 -4.95 37.55 -4.95 35.2 -2.7 35.2 -8.1 Z"/>
</g>

<g id="IT_300x600_psd_Asset_3_ManagedWiFi_IT_Research_DM8_2_Network_as_a__Service_solutions__can_help___0_Layer0_0_MEMBER_7_FILL">
<path fill="#D82C26" stroke="none" d="
M 44.25 -4.25
Q 44.6 -3.95 44.6 -3.25
L 44.6 -3 44 -3
Q 41.15 -3 41.15 -1.35 41.15 -0.6 41.65 -0.25 42.15 0.15 42.75 0.15 43.35 0.15 43.85 -0.15 44.4 -0.45 44.6 -0.95
L 44.65 -0.95 44.7 0 45.3 0
Q 45.2 -0.25 45.2 -1.1
L 45.2 -3.2
Q 45.2 -4.15 44.7 -4.65 44.2 -5.1 43.3 -5.1 42.75 -5.1 42.3 -4.95 41.85 -4.8 41.45 -4.5
L 41.6 -4 42.35 -4.45
Q 42.8 -4.6 43.2 -4.6 43.9 -4.6 44.25 -4.25
M 42.1 -0.6
Q 41.75 -0.8 41.75 -1.35 41.75 -2.55 44.1 -2.55
L 44.6 -2.55 44.6 -2.05
Q 44.6 -1.6 44.4 -1.25 44.25 -0.85 43.85 -0.6 43.5 -0.35 42.85 -0.35 42.35 -0.35 42.1 -0.6 Z"/>
</g>

<g id="IT_300x600_psd_Asset_3_ManagedWiFi_IT_Research_DM8_2_Network_as_a__Service_solutions__can_help___0_Layer0_0_MEMBER_8_FILL">
<path fill="#D82C26" stroke="none" d="
M 49.55 -4.6
L 48.85 -4.95
Q 48.4 -5.1 47.95 -5.1 47.55 -5.1 47.15 -4.95 46.8 -4.8 46.55 -4.5 46.3 -4.15 46.3 -3.75 46.3 -3.25 46.65 -2.9 47.1 -2.55 47.75 -2.35 48.45 -2.1 48.75 -1.9 49.1 -1.7 49.1 -1.3 49.1 -0.8 48.75 -0.6 48.4 -0.35 48 -0.35 47.05 -0.35 46.35 -0.95
L 46.2 -0.4 47 0
Q 47.45 0.15 48 0.15 48.45 0.15 48.8 -0.05 49.2 -0.2 49.45 -0.5 49.7 -0.9 49.7 -1.3 49.7 -1.8 49.3 -2.2 48.85 -2.55 48.15 -2.75 47.4 -3 47.2 -3.2 46.9 -3.4 46.9 -3.8 46.9 -4.15 47.2 -4.4 47.45 -4.6 48 -4.6
L 48.7 -4.5 49.25 -4.15 49.55 -4.6 Z"/>
</g>

<g id="IT_300x600_psd_Asset_3_ManagedWiFi_IT_Research_DM8_2_Network_as_a__Service_solutions__can_help___0_Layer0_0_MEMBER_9_FILL">
<path fill="#D82C26" stroke="none" d="
M 54.75 -5.1
Q 54.2 -5.1 53.75 -4.95 53.3 -4.8 52.9 -4.5
L 53.1 -4 53.8 -4.45 54.65 -4.6
Q 55.35 -4.6 55.7 -4.25 56.05 -3.95 56.05 -3.25
L 56.05 -3 55.45 -3
Q 52.65 -3 52.65 -1.35 52.65 -0.6 53.1 -0.25 53.6 0.15 54.2 0.15 54.85 0.15 55.35 -0.15 55.85 -0.5 56.05 -0.95
L 56.1 -0.95 56.15 0 56.75 0 56.65 -3.2
Q 56.65 -4.15 56.15 -4.65 55.65 -5.1 54.75 -5.1
M 55.3 -0.6
Q 55 -0.35 54.35 -0.35 53.8 -0.35 53.55 -0.6 53.2 -0.85 53.2 -1.35 53.2 -2.55 55.55 -2.55
L 56.05 -2.55 56.05 -2.05
Q 56.05 -1.6 55.9 -1.25 55.65 -0.8 55.3 -0.6 Z"/>
</g>

<g id="IT_300x600_psd_Asset_3_ManagedWiFi_IT_Research_DM8_2_Network_as_a__Service_solutions__can_help___0_Layer0_0_MEMBER_10_FILL">
<path fill="#D82C26" stroke="none" d="
M 3.2 5.7
Q 2.65 5.7 2 5.95 1.45 6.2 1.15 6.65 0.8 7.05 0.8 7.75 0.8 8.45 1.1 8.8 1.4 9.25 1.8 9.45
L 3.9 10.3
Q 4.3 10.45 4.5 10.75 4.75 11.1 4.75 11.55 4.75 12.25 4.2 12.65 3.65 13.05 2.95 13.05 2.35 13.05 1.8 12.85 1.3 12.65 0.85 12.2
L 0.7 12.85
Q 1.1 13.2 1.7 13.4 2.3 13.6 3 13.6 3.7 13.6 4.15 13.35 4.75 13.15 5.05 12.65 5.4 12.25 5.4 11.5 5.4 10.85 5.1 10.45 4.7 9.95 4.35 9.85
L 2.25 9
Q 1.95 8.85 1.65 8.5 1.45 8.25 1.45 7.75 1.45 7.2 1.7 6.95 1.9 6.65 2.35 6.45 2.75 6.25 3.2 6.25 3.6 6.25 4.2 6.45
L 5.05 6.9 5.25 6.35
Q 4.85 6.05 4.3 5.9 3.85 5.7 3.2 5.7 Z"/>
</g>

<g id="IT_300x600_psd_Asset_3_ManagedWiFi_IT_Research_DM8_2_Network_as_a__Service_solutions__can_help___0_Layer0_0_MEMBER_11_FILL">
<path fill="#D82C26" stroke="none" d="
M 11.1 10.75
Q 11.1 10.15 10.85 9.5 10.5 8.9 10.05 8.65 9.5 8.3 8.75 8.3 8.05 8.3 7.5 8.65 7 8.95 6.6 9.55 6.3 10.15 6.3 10.9 6.3 11.7 6.6 12.3 7 12.9 7.55 13.2 8.05 13.55 8.85 13.55 10 13.55 10.8 12.95
L 10.7 12.4
Q 10.45 12.7 9.9 12.85 9.5 13.05 8.9 13.05 8.35 13.05 7.85 12.8 7.5 12.55 7.15 12.05 6.9 11.55 6.9 11
L 11.1 11 11.1 10.75
M 8.75 8.8
Q 9.55 8.8 10 9.25 10.5 9.75 10.5 10.55
L 6.9 10.55
Q 6.9 10.25 7.15 9.75 7.4 9.3 7.8 9.05 8.2 8.8 8.75 8.8 Z"/>
</g>

<g id="IT_300x600_psd_Asset_3_ManagedWiFi_IT_Research_DM8_2_Network_as_a__Service_solutions__can_help___0_Layer0_0_MEMBER_12_FILL">
<path fill="#D82C26" stroke="none" d="
M 14.3 8.3
Q 13.85 8.3 13.45 8.65 13.1 8.95 12.85 9.55
L 12.8 8.45 12.2 8.45 12.25 13.4 12.85 13.4 12.85 10.95
Q 12.85 10.15 13.25 9.45 13.65 8.85 14.25 8.85
L 14.7 8.95 14.85 8.4 14.3 8.3 Z"/>
</g>

<g id="IT_300x600_psd_Asset_3_ManagedWiFi_IT_Research_DM8_2_Network_as_a__Service_solutions__can_help___0_Layer0_0_MEMBER_13_FILL">
<path fill="#D82C26" stroke="none" d="
M 15.1 8.45
L 17.05 13.4 17.75 13.4 19.6 8.45 18.95 8.45 17.4 12.8 15.8 8.45 15.1 8.45 Z"/>
</g>

<g id="IT_300x600_psd_Asset_3_ManagedWiFi_IT_Research_DM8_2_Network_as_a__Service_solutions__can_help___0_Layer0_0_MEMBER_14_FILL">
<path fill="#D82C26" stroke="none" d="
M 21 8.45
L 20.4 8.45 20.4 13.4 21 13.4 21 8.45
M 21 6.15
L 20.7 6
Q 20.5 6 20.35 6.15
L 20.25 6.45 20.35 6.8
Q 20.45 6.9 20.7 6.9 20.9 6.9 21 6.8 21.15 6.65 21.15 6.45
L 21 6.15 Z"/>
</g>

<g id="IT_300x600_psd_Asset_3_ManagedWiFi_IT_Research_DM8_2_Network_as_a__Service_solutions__can_help___0_Layer0_0_MEMBER_15_FILL">
<path fill="#D82C26" stroke="none" d="
M 22.15 10.95
Q 22.15 11.7 22.45 12.3 22.8 12.9 23.4 13.25 24 13.55 24.7 13.55 25.2 13.55 25.65 13.4 26.1 13.25 26.4 12.95
L 26.35 12.45
Q 25.95 12.8 25.6 12.85 25.25 13 24.75 13 24.1 13 23.7 12.75 23.35 12.5 23 12 22.8 11.55 22.8 10.95 22.8 10.3 23 9.9 23.3 9.35 23.7 9.1 24.1 8.85 24.75 8.85
L 25.55 8.95
Q 25.9 9.1 26.15 9.35
L 26.4 8.9
Q 26.2 8.6 25.7 8.45
L 24.75 8.3
Q 23.95 8.3 23.4 8.65 22.9 8.9 22.45 9.6 22.15 10.2 22.15 10.95 Z"/>
</g>

<g id="IT_300x600_psd_Asset_3_ManagedWiFi_IT_Research_DM8_2_Network_as_a__Service_solutions__can_help___0_Layer0_0_MEMBER_16_FILL">
<path fill="#D82C26" stroke="none" d="
M 31.45 9.5
Q 31.1 8.9 30.65 8.65 30.15 8.3 29.35 8.3 28.65 8.3 28.1 8.65 27.55 8.95 27.25 9.55 26.9 10.1 26.9 10.9 26.9 11.75 27.25 12.3 27.55 12.9 28.15 13.2 28.7 13.55 29.45 13.55 30.65 13.55 31.45 12.95
L 31.3 12.4
Q 31 12.7 30.5 12.85 30.1 13.05 29.5 13.05 29 13.05 28.5 12.8 28 12.5 27.8 12.05 27.5 11.6 27.5 11
L 31.7 11 31.75 10.75
Q 31.75 10.1 31.45 9.5
M 30.65 9.25
Q 31.05 9.75 31.15 10.55
L 27.5 10.55
Q 27.6 10.05 27.75 9.75 28 9.3 28.4 9.05 28.8 8.8 29.35 8.8 30.15 8.8 30.65 9.25 Z"/>
</g>

<g id="IT_300x600_psd_Asset_3_ManagedWiFi_IT_Research_DM8_2_Network_as_a__Service_solutions__can_help___0_Layer0_0_MEMBER_17_FILL">
<path fill="#D82C26" stroke="none" d="
M 34.8 9.65
Q 34.8 10.25 35.15 10.55 35.45 10.8 36.2 11.05 37 11.3 37.25 11.55 37.55 11.8 37.55 12.15 37.55 12.6 37.25 12.8 37 13.05 36.45 13.05 35.5 13.05 34.8 12.45
L 34.7 13
Q 35.05 13.25 35.45 13.4 36 13.55 36.5 13.55 36.95 13.55 37.3 13.4 37.55 13.3 37.95 12.9 38.15 12.65 38.15 12.1 38.15 11.55 37.8 11.25 37.45 10.9 36.65 10.65 36 10.45 35.65 10.2 35.4 10 35.4 9.65 35.4 9.25 35.7 9 35.95 8.8 36.45 8.8 36.85 8.8 37.15 8.95 37.55 9.1 37.75 9.3
L 38 8.85
Q 37.75 8.6 37.3 8.45 36.95 8.3 36.45 8.3 36.05 8.3 35.65 8.45 35.3 8.6 35.05 8.9 34.8 9.3 34.8 9.65 Z"/>
</g>

<g id="IT_300x600_psd_Asset_3_ManagedWiFi_IT_Research_DM8_2_Network_as_a__Service_solutions__can_help___0_Layer0_0_MEMBER_18_FILL">
<path fill="#D82C26" stroke="none" d="
M 42.9 8.65
Q 42.35 8.3 41.55 8.3 40.75 8.3 40.2 8.65 39.65 8.95 39.25 9.55 38.9 10.25 38.9 10.95 38.9 11.6 39.25 12.3 39.65 12.9 40.2 13.2 40.75 13.55 41.55 13.55 42.35 13.55 42.9 13.2 43.55 12.85 43.85 12.3 44.2 11.75 44.2 10.95 44.2 10.1 43.85 9.55 43.55 9 42.9 8.65
M 41.55 8.85
Q 42.25 8.85 42.6 9.1 43 9.35 43.35 9.85 43.6 10.45 43.6 10.95 43.6 11.4 43.35 12 43 12.5 42.65 12.75 42.15 13.05 41.55 13.05 40.95 13.05 40.5 12.75 40 12.45 39.8 12 39.55 11.55 39.55 10.95 39.55 10.3 39.8 9.85 40 9.45 40.5 9.1 40.9 8.85 41.55 8.85 Z"/>
</g>

<g id="IT_300x600_psd_Asset_3_ManagedWiFi_IT_Research_DM8_2_Network_as_a__Service_solutions__can_help___0_Layer0_0_MEMBER_19_FILL">
<path fill="#D82C26" stroke="none" d="
M 45.55 13.1
Q 45.8 13.4 46.15 13.55
L 46.45 13
Q 46.2 12.95 46.1 12.7 46 12.6 46 12.2
L 46 5.35 45.35 5.45 45.35 12.3
Q 45.35 12.7 45.55 13.1 Z"/>
</g>

<g id="IT_300x600_psd_Asset_3_ManagedWiFi_IT_Research_DM8_2_Network_as_a__Service_solutions__can_help___0_Layer0_0_MEMBER_20_FILL">
<path fill="#D82C26" stroke="none" d="
M 51.05 10.95
Q 51.05 11.65 50.85 12.05 50.65 12.6 50.25 12.8 49.85 13.05 49.4 13.05 48.65 13.05 48.35 12.55 48.05 12.05 48.05 11.3
L 48.05 8.45 47.45 8.45 47.45 11.5
Q 47.45 12.3 47.85 12.95 48.3 13.55 49.25 13.55 49.85 13.55 50.35 13.2 50.8 12.9 51.05 12.35
L 51.15 13.45 51.75 13.4 51.65 12.25 51.65 8.45 51.05 8.45 51.05 10.95 Z"/>
</g>

<g id="IT_300x600_psd_Asset_3_ManagedWiFi_IT_Research_DM8_2_Network_as_a__Service_solutions__can_help___0_Layer0_0_MEMBER_21_FILL">
<path fill="#D82C26" stroke="none" d="
M 53.4 7.25
L 53.4 8.45 52.6 8.45 52.5 8.95 53.4 8.95 53.4 12.2
Q 53.4 12.85 53.75 13.2 54.05 13.5 54.55 13.5
L 55.15 13.45 55.65 13.25 55.55 12.8
Q 55.15 13 54.75 13 54.4 13 54.2 12.8 54.05 12.6 54.05 12.15
L 54.05 8.95 55.3 8.95 55.45 8.45 54.05 8.45 54.05 7.05 53.4 7.25 Z"/>
</g>

<g id="IT_300x600_psd_Asset_3_ManagedWiFi_IT_Research_DM8_2_Network_as_a__Service_solutions__can_help___0_Layer0_0_MEMBER_22_FILL">
<path fill="#D82C26" stroke="none" d="
M 57.05 8.45
L 56.4 8.45 56.4 13.4 57.05 13.4 57.05 8.45
M 57.05 6.15
L 56.75 6
Q 56.55 6 56.4 6.15
L 56.3 6.45 56.4 6.8
Q 56.5 6.9 56.75 6.9 56.95 6.9 57.05 6.8 57.2 6.65 57.2 6.45
L 57.05 6.15 Z"/>
</g>

<g id="IT_300x600_psd_Asset_3_ManagedWiFi_IT_Research_DM8_2_Network_as_a__Service_solutions__can_help___0_Layer0_0_MEMBER_23_FILL">
<path fill="#D82C26" stroke="none" d="
M 62.15 8.65
Q 61.6 8.3 60.8 8.3 60 8.3 59.45 8.65 58.9 8.95 58.5 9.55 58.2 10.15 58.2 10.95 58.2 11.7 58.5 12.3 58.9 12.9 59.45 13.2 60 13.55 60.8 13.55 61.6 13.55 62.15 13.2 62.8 12.9 63.1 12.3 63.45 11.75 63.45 10.95 63.45 10.1 63.1 9.55 62.8 8.95 62.15 8.65
M 62.85 10.95
Q 62.85 11.4 62.6 12 62.4 12.45 61.9 12.75 61.45 13.05 60.8 13.05 60.2 13.05 59.75 12.75 59.25 12.45 59.05 12 58.8 11.4 58.8 10.95 58.8 10.45 59.05 9.85 59.25 9.45 59.75 9.1 60.15 8.85 60.8 8.85 61.55 8.85 61.9 9.1 62.4 9.45 62.6 9.85 62.85 10.45 62.85 10.95 Z"/>
</g>

<g id="IT_300x600_psd_Asset_3_ManagedWiFi_IT_Research_DM8_2_Network_as_a__Service_solutions__can_help___0_Layer0_0_MEMBER_24_FILL">
<path fill="#D82C26" stroke="none" d="
M 65.15 8.45
L 64.6 8.45 64.6 13.4 65.25 13.4 65.25 10.9
Q 65.25 10.2 65.45 9.8 65.65 9.4 66.05 9.05 66.4 8.85 66.9 8.85 67.65 8.85 67.95 9.3 68.25 9.85 68.25 10.55
L 68.25 13.4 68.85 13.4 68.85 10.4
Q 68.85 9.5 68.4 8.9 67.95 8.3 67.05 8.3 66.35 8.3 65.95 8.65 65.5 8.9 65.25 9.55
L 65.2 9.55 65.15 8.45 Z"/>
</g>

<g id="IT_300x600_psd_Asset_3_ManagedWiFi_IT_Research_DM8_2_Network_as_a__Service_solutions__can_help___0_Layer0_0_MEMBER_25_FILL">
<path fill="#D82C26" stroke="none" d="
M 72.55 8.45
Q 72.1 8.3 71.65 8.3 71.25 8.3 70.85 8.45 70.5 8.6 70.25 8.9 70 9.3 70 9.65 70 10.25 70.35 10.55 70.65 10.8 71.4 11.05 72.2 11.3 72.45 11.55 72.8 11.75 72.8 12.15 72.8 12.55 72.45 12.8 72.2 13.05 71.65 13.05 70.75 13.05 70 12.45
L 69.9 13
Q 70.25 13.3 70.7 13.4 71.15 13.55 71.7 13.55 72.15 13.55 72.5 13.4 72.9 13.25 73.15 12.9 73.4 12.55 73.4 12.1 73.4 11.55 73 11.25 72.65 10.9 71.85 10.65 71.15 10.4 70.85 10.2 70.6 9.95 70.6 9.65 70.6 9.25 70.9 9 71.15 8.8 71.65 8.8
L 72.4 8.95 72.95 9.3 73.25 8.85 72.55 8.45 Z"/>
</g>

<g id="IT_300x600_psd_Asset_3_ManagedWiFi_IT_Research_DM8_2_Network_as_a__Service_solutions__can_help___0_Layer0_0_MEMBER_26_FILL">
<path fill="#D82C26" stroke="none" d="
M 0.95 23
Q 0.6 23.55 0.6 24.35 0.6 25.15 0.95 25.7 1.25 26.25 1.85 26.65 2.55 27 3.2 27 3.55 27 4.15 26.8 4.6 26.65 4.9 26.35
L 4.8 25.85
Q 4.4 26.2 4.1 26.3 3.75 26.45 3.25 26.45 2.65 26.45 2.2 26.15 1.7 25.85 1.5 25.4 1.25 25.05 1.25 24.35 1.25 23.7 1.5 23.3 1.75 22.75 2.2 22.55 2.65 22.25 3.2 22.25 3.65 22.25 4 22.4 4.4 22.55 4.65 22.8
L 4.9 22.3
Q 4.55 22.05 4.15 21.9 3.75 21.7 3.2 21.7 2.55 21.7 1.85 22.05 1.25 22.45 0.95 23 Z"/>
</g>

<g id="IT_300x600_psd_Asset_3_ManagedWiFi_IT_Research_DM8_2_Network_as_a__Service_solutions__can_help___0_Layer0_0_MEMBER_27_FILL">
<path fill="#D82C26" stroke="none" d="
M 6.65 21.9
Q 6.2 22.05 5.8 22.35
L 6 22.85
Q 6.3 22.55 6.75 22.4 7.1 22.2 7.55 22.2 8.15 22.2 8.6 22.55 9 22.95 9 23.55
L 9 23.85 8.35 23.85
Q 5.55 23.85 5.55 25.5 5.55 26.25 6 26.6 6.4 26.95 7.1 26.95 7.65 26.95 8.25 26.7 8.75 26.35 8.95 25.85
L 9 25.85 9.05 26.85 9.65 26.85 9.55 23.6
Q 9.55 22.65 9.05 22.2 8.55 21.7 7.65 21.7 7.05 21.7 6.65 21.9
M 8.45 24.25
L 9 24.25 9 24.75
Q 9 25 8.8 25.6 8.6 25.95 8.2 26.25 7.8 26.5 7.25 26.5 6.8 26.5 6.45 26.25 6.15 26.05 6.15 25.45 6.15 24.25 8.45 24.25 Z"/>
</g>

<g id="IT_300x600_psd_Asset_3_ManagedWiFi_IT_Research_DM8_2_Network_as_a__Service_solutions__can_help___0_Layer0_0_MEMBER_28_FILL">
<path fill="#D82C26" stroke="none" d="
M 11.55 21.85
L 10.95 21.85 11 26.85 11.6 26.85 11.6 24.3
Q 11.6 23.7 11.85 23.2 12.1 22.7 12.45 22.5 12.85 22.25 13.25 22.25 14 22.25 14.3 22.75 14.6 23.2 14.6 23.95
L 14.6 26.85 15.25 26.85 15.25 23.8
Q 15.25 22.9 14.8 22.3 14.4 21.75 13.4 21.75 12.85 21.75 12.3 22.05 11.8 22.45 11.6 22.95
L 11.55 21.85 Z"/>
</g>

<g id="IT_300x600_psd_Asset_3_ManagedWiFi_IT_Research_DM8_2_Network_as_a__Service_solutions__can_help___0_Layer0_0_MEMBER_29_FILL">
<path fill="#D82C26" stroke="none" d="
M 21.4 21.75
Q 20.75 21.75 20.3 22.05 19.85 22.3 19.6 22.9
L 19.6 18.75 18.95 18.85 18.95 26.85 19.6 26.85 19.6 24.4
Q 19.6 23.65 19.8 23.25 20.05 22.75 20.4 22.5 20.8 22.25 21.2 22.25 21.95 22.25 22.25 22.75 22.55 23.2 22.55 23.95
L 22.55 26.85 23.2 26.85 23.2 23.8
Q 23.2 22.9 22.75 22.3 22.35 21.75 21.4 21.75 Z"/>
</g>

<g id="IT_300x600_psd_Asset_3_ManagedWiFi_IT_Research_DM8_2_Network_as_a__Service_solutions__can_help___0_Layer0_0_MEMBER_30_FILL">
<path fill="#D82C26" stroke="none" d="
M 24.65 23
Q 24.3 23.5 24.3 24.3 24.3 25.15 24.65 25.7 24.95 26.25 25.55 26.65 26.25 27 26.85 27 27.95 27 28.85 26.35
L 28.75 25.8 27.95 26.3 26.9 26.45
Q 26.3 26.45 25.9 26.2 25.4 25.9 25.2 25.45 24.9 25 24.9 24.45
L 29.1 24.45 29.15 24.15
Q 29.15 23.5 28.85 22.95 28.55 22.35 28.05 22.05 27.55 21.7 26.75 21.7 26.2 21.7 25.5 22.05 25 22.35 24.65 23
M 24.95 24
Q 24.95 23.55 25.15 23.2 25.4 22.7 25.8 22.5 26.2 22.2 26.75 22.2 27.55 22.2 28.05 22.7 28.55 23.2 28.55 24
L 24.95 24 Z"/>
</g>

<g id="IT_300x600_psd_Asset_3_ManagedWiFi_IT_Research_DM8_2_Network_as_a__Service_solutions__can_help___0_Layer0_0_MEMBER_31_FILL">
<path fill="#D82C26" stroke="none" d="
M 30.5 26.5
Q 30.75 26.8 31.1 26.95
L 31.35 26.45 31 26.15 30.9 25.6 30.9 18.75 30.25 18.9 30.25 25.75
Q 30.25 26.15 30.5 26.5 Z"/>
</g>

<g id="IT_300x600_psd_Asset_3_ManagedWiFi_IT_Research_DM8_2_Network_as_a__Service_solutions__can_help___0_Layer0_0_MEMBER_32_FILL">
<path fill="#D82C26" stroke="none" d="
M 35.1 21.75
Q 34.45 21.75 33.9 22.05 33.4 22.35 33.1 22.95
L 33.05 22.95 33 21.85 32.4 21.85 32.45 29.35 33.05 29.35 33.05 25.75 33.1 25.75
Q 33.4 26.35 33.9 26.65 34.5 26.95 35.1 26.95 35.85 26.95 36.4 26.6 36.95 26.3 37.3 25.7 37.6 25.1 37.6 24.35 37.6 23.6 37.3 23 36.95 22.45 36.4 22.05 35.8 21.75 35.1 21.75
M 33.05 24.35
Q 33.05 23.8 33.3 23.3 33.55 22.75 34 22.55 34.45 22.25 35 22.25 35.6 22.25 36.05 22.55 36.4 22.75 36.7 23.3 36.95 23.8 36.95 24.35 36.95 24.9 36.7 25.4 36.45 25.95 36.05 26.15 35.6 26.45 35 26.45 34.45 26.45 34 26.15 33.5 25.85 33.3 25.4 33.05 24.9 33.05 24.35 Z"/>
</g>

<g id="IT_300x600_psd_Asset_3_ManagedWiFi_IT_Research_DM8_2_Network_as_a__Service_solutions__can_help___0_Layer0_0_MEMBER_33_FILL">
<path fill="#D82C26" stroke="none" d="
M 38.65 26.75
L 38.95 26.9
Q 39.15 26.9 39.3 26.75 39.45 26.6 39.45 26.4 39.45 26.2 39.3 26.1 39.15 25.95 38.95 25.95
L 38.65 26.1 38.5 26.4
Q 38.5 26.7 38.65 26.75 Z"/>
</g>
</defs>

<g transform="matrix( 1, 0, 0, 1, -118,42) ">
<g transform="matrix( 1, 0, 0, 1, 113,0) ">
<g transform="matrix( 1, 0, 0, 1, 35,6) ">
<g transform="matrix( 2.815704345703125, 0, 0, 2.832611083984375, -1.85,22.6) ">
<use xlink:href="#IT_300x600_psd_Asset_3_ManagedWiFi_IT_Research_DM8_2_Network_as_a__Service_solutions__can_help___0_Layer0_0_MEMBER_0_FILL"/>
</g>

<g transform="matrix( 2.815704345703125, 0, 0, 2.832611083984375, -1.85,22.6) ">
<use xlink:href="#IT_300x600_psd_Asset_3_ManagedWiFi_IT_Research_DM8_2_Network_as_a__Service_solutions__can_help___0_Layer0_0_MEMBER_1_FILL"/>
</g>

<g transform="matrix( 2.815704345703125, 0, 0, 2.832611083984375, -1.85,22.6) ">
<use xlink:href="#IT_300x600_psd_Asset_3_ManagedWiFi_IT_Research_DM8_2_Network_as_a__Service_solutions__can_help___0_Layer0_0_MEMBER_2_FILL"/>
</g>

<g transform="matrix( 2.815704345703125, 0, 0, 2.832611083984375, -1.85,22.6) ">
<use xlink:href="#IT_300x600_psd_Asset_3_ManagedWiFi_IT_Research_DM8_2_Network_as_a__Service_solutions__can_help___0_Layer0_0_MEMBER_3_FILL"/>
</g>

<g transform="matrix( 2.815704345703125, 0, 0, 2.832611083984375, -1.85,22.6) ">
<use xlink:href="#IT_300x600_psd_Asset_3_ManagedWiFi_IT_Research_DM8_2_Network_as_a__Service_solutions__can_help___0_Layer0_0_MEMBER_4_FILL"/>
</g>

<g transform="matrix( 2.815704345703125, 0, 0, 2.832611083984375, -1.85,22.6) ">
<use xlink:href="#IT_300x600_psd_Asset_3_ManagedWiFi_IT_Research_DM8_2_Network_as_a__Service_solutions__can_help___0_Layer0_0_MEMBER_5_FILL"/>
</g>

<g transform="matrix( 2.815704345703125, 0, 0, 2.832611083984375, -1.85,22.6) ">
<use xlink:href="#IT_300x600_psd_Asset_3_ManagedWiFi_IT_Research_DM8_2_Network_as_a__Service_solutions__can_help___0_Layer0_0_MEMBER_6_FILL"/>
</g>

<g transform="matrix( 2.815704345703125, 0, 0, 2.832611083984375, -1.85,22.6) ">
<use xlink:href="#IT_300x600_psd_Asset_3_ManagedWiFi_IT_Research_DM8_2_Network_as_a__Service_solutions__can_help___0_Layer0_0_MEMBER_7_FILL"/>
</g>

<g transform="matrix( 2.815704345703125, 0, 0, 2.832611083984375, -1.85,22.6) ">
<use xlink:href="#IT_300x600_psd_Asset_3_ManagedWiFi_IT_Research_DM8_2_Network_as_a__Service_solutions__can_help___0_Layer0_0_MEMBER_8_FILL"/>
</g>

<g transform="matrix( 2.815704345703125, 0, 0, 2.832611083984375, -1.85,22.6) ">
<use xlink:href="#IT_300x600_psd_Asset_3_ManagedWiFi_IT_Research_DM8_2_Network_as_a__Service_solutions__can_help___0_Layer0_0_MEMBER_9_FILL"/>
</g>

<g transform="matrix( 2.815704345703125, 0, 0, 2.832611083984375, -1.85,22.6) ">
<use xlink:href="#IT_300x600_psd_Asset_3_ManagedWiFi_IT_Research_DM8_2_Network_as_a__Service_solutions__can_help___0_Layer0_0_MEMBER_10_FILL"/>
</g>

<g transform="matrix( 2.815704345703125, 0, 0, 2.832611083984375, -1.85,22.6) ">
<use xlink:href="#IT_300x600_psd_Asset_3_ManagedWiFi_IT_Research_DM8_2_Network_as_a__Service_solutions__can_help___0_Layer0_0_MEMBER_11_FILL"/>
</g>

<g transform="matrix( 2.815704345703125, 0, 0, 2.832611083984375, -1.85,22.6) ">
<use xlink:href="#IT_300x600_psd_Asset_3_ManagedWiFi_IT_Research_DM8_2_Network_as_a__Service_solutions__can_help___0_Layer0_0_MEMBER_12_FILL"/>
</g>

<g transform="matrix( 2.815704345703125, 0, 0, 2.832611083984375, -1.85,22.6) ">
<use xlink:href="#IT_300x600_psd_Asset_3_ManagedWiFi_IT_Research_DM8_2_Network_as_a__Service_solutions__can_help___0_Layer0_0_MEMBER_13_FILL"/>
</g>

<g transform="matrix( 2.815704345703125, 0, 0, 2.832611083984375, -1.85,22.6) ">
<use xlink:href="#IT_300x600_psd_Asset_3_ManagedWiFi_IT_Research_DM8_2_Network_as_a__Service_solutions__can_help___0_Layer0_0_MEMBER_14_FILL"/>
</g>

<g transform="matrix( 2.815704345703125, 0, 0, 2.832611083984375, -1.85,22.6) ">
<use xlink:href="#IT_300x600_psd_Asset_3_ManagedWiFi_IT_Research_DM8_2_Network_as_a__Service_solutions__can_help___0_Layer0_0_MEMBER_15_FILL"/>
</g>

<g transform="matrix( 2.815704345703125, 0, 0, 2.832611083984375, -1.85,22.6) ">
<use xlink:href="#IT_300x600_psd_Asset_3_ManagedWiFi_IT_Research_DM8_2_Network_as_a__Service_solutions__can_help___0_Layer0_0_MEMBER_16_FILL"/>
</g>

<g transform="matrix( 2.815704345703125, 0, 0, 2.832611083984375, -1.85,22.6) ">
<use xlink:href="#IT_300x600_psd_Asset_3_ManagedWiFi_IT_Research_DM8_2_Network_as_a__Service_solutions__can_help___0_Layer0_0_MEMBER_17_FILL"/>
</g>

<g transform="matrix( 2.815704345703125, 0, 0, 2.832611083984375, -1.85,22.6) ">
<use xlink:href="#IT_300x600_psd_Asset_3_ManagedWiFi_IT_Research_DM8_2_Network_as_a__Service_solutions__can_help___0_Layer0_0_MEMBER_18_FILL"/>
</g>

<g transform="matrix( 2.815704345703125, 0, 0, 2.832611083984375, -1.85,22.6) ">
<use xlink:href="#IT_300x600_psd_Asset_3_ManagedWiFi_IT_Research_DM8_2_Network_as_a__Service_solutions__can_help___0_Layer0_0_MEMBER_19_FILL"/>
</g>

<g transform="matrix( 2.815704345703125, 0, 0, 2.832611083984375, -1.85,22.6) ">
<use xlink:href="#IT_300x600_psd_Asset_3_ManagedWiFi_IT_Research_DM8_2_Network_as_a__Service_solutions__can_help___0_Layer0_0_MEMBER_20_FILL"/>
</g>

<g transform="matrix( 2.815704345703125, 0, 0, 2.832611083984375, -1.85,22.6) ">
<use xlink:href="#IT_300x600_psd_Asset_3_ManagedWiFi_IT_Research_DM8_2_Network_as_a__Service_solutions__can_help___0_Layer0_0_MEMBER_21_FILL"/>
</g>

<g transform="matrix( 2.815704345703125, 0, 0, 2.832611083984375, -1.85,22.6) ">
<use xlink:href="#IT_300x600_psd_Asset_3_ManagedWiFi_IT_Research_DM8_2_Network_as_a__Service_solutions__can_help___0_Layer0_0_MEMBER_22_FILL"/>
</g>

<g transform="matrix( 2.815704345703125, 0, 0, 2.832611083984375, -1.85,22.6) ">
<use xlink:href="#IT_300x600_psd_Asset_3_ManagedWiFi_IT_Research_DM8_2_Network_as_a__Service_solutions__can_help___0_Layer0_0_MEMBER_23_FILL"/>
</g>

<g transform="matrix( 2.815704345703125, 0, 0, 2.832611083984375, -1.85,22.6) ">
<use xlink:href="#IT_300x600_psd_Asset_3_ManagedWiFi_IT_Research_DM8_2_Network_as_a__Service_solutions__can_help___0_Layer0_0_MEMBER_24_FILL"/>
</g>

<g transform="matrix( 2.815704345703125, 0, 0, 2.832611083984375, -1.85,22.6) ">
<use xlink:href="#IT_300x600_psd_Asset_3_ManagedWiFi_IT_Research_DM8_2_Network_as_a__Service_solutions__can_help___0_Layer0_0_MEMBER_25_FILL"/>
</g>

<g transform="matrix( 2.815704345703125, 0, 0, 2.832611083984375, -1.85,22.6) ">
<use xlink:href="#IT_300x600_psd_Asset_3_ManagedWiFi_IT_Research_DM8_2_Network_as_a__Service_solutions__can_help___0_Layer0_0_MEMBER_26_FILL"/>
</g>

<g transform="matrix( 2.815704345703125, 0, 0, 2.832611083984375, -1.85,22.6) ">
<use xlink:href="#IT_300x600_psd_Asset_3_ManagedWiFi_IT_Research_DM8_2_Network_as_a__Service_solutions__can_help___0_Layer0_0_MEMBER_27_FILL"/>
</g>

<g transform="matrix( 2.815704345703125, 0, 0, 2.832611083984375, -1.85,22.6) ">
<use xlink:href="#IT_300x600_psd_Asset_3_ManagedWiFi_IT_Research_DM8_2_Network_as_a__Service_solutions__can_help___0_Layer0_0_MEMBER_28_FILL"/>
</g>

<g transform="matrix( 2.815704345703125, 0, 0, 2.832611083984375, -1.85,22.6) ">
<use xlink:href="#IT_300x600_psd_Asset_3_ManagedWiFi_IT_Research_DM8_2_Network_as_a__Service_solutions__can_help___0_Layer0_0_MEMBER_29_FILL"/>
</g>

<g transform="matrix( 2.815704345703125, 0, 0, 2.832611083984375, -1.85,22.6) ">
<use xlink:href="#IT_300x600_psd_Asset_3_ManagedWiFi_IT_Research_DM8_2_Network_as_a__Service_solutions__can_help___0_Layer0_0_MEMBER_30_FILL"/>
</g>

<g transform="matrix( 2.815704345703125, 0, 0, 2.832611083984375, -1.85,22.6) ">
<use xlink:href="#IT_300x600_psd_Asset_3_ManagedWiFi_IT_Research_DM8_2_Network_as_a__Service_solutions__can_help___0_Layer0_0_MEMBER_31_FILL"/>
</g>

<g transform="matrix( 2.815704345703125, 0, 0, 2.832611083984375, -1.85,22.6) ">
<use xlink:href="#IT_300x600_psd_Asset_3_ManagedWiFi_IT_Research_DM8_2_Network_as_a__Service_solutions__can_help___0_Layer0_0_MEMBER_32_FILL"/>
</g>

<g transform="matrix( 2.815704345703125, 0, 0, 2.832611083984375, -1.85,22.6) ">
<use xlink:href="#IT_300x600_psd_Asset_3_ManagedWiFi_IT_Research_DM8_2_Network_as_a__Service_solutions__can_help___0_Layer0_0_MEMBER_33_FILL"/>
</g>
</g>
</g>
</g>
</svg>
