
<svg xmlns="http://www.w3.org/2000/svg" version="1.1" xmlns:xlink="http://www.w3.org/1999/xlink" preserveAspectRatio="none" x="0px" y="0px" width="200px" height="200px" viewBox="0 0 200 200">
<defs>
<g id="BDM_200x200_psd_Asset_ManagedWiFi_Awareness_DM7_3_to_individual__customer__spending_habits__0_Layer0_0_MEMBER_0_FILL">
<path fill="#D82C26" stroke="none" d="
M 1.15 -3.45
L 1.15 -4.45 0.75 -4.3 0.75 -3.45 0.2 -3.45 0.1 -3.15 0.75 -3.15 0.75 -0.85
Q 0.75 -0.35 0.95 -0.15 1.15 0.05 1.55 0.05
L 1.95 0 2.3 -0.1 2.25 -0.45 1.7 -0.3
Q 1.45 -0.3 1.3 -0.45 1.15 -0.6 1.15 -0.9
L 1.15 -3.15 2.05 -3.15 2.15 -3.45 1.15 -3.45 Z"/>
</g>

<g id="BDM_200x200_psd_Asset_ManagedWiFi_Awareness_DM7_3_to_individual__customer__spending_habits__0_Layer0_0_MEMBER_1_FILL">
<path fill="#D82C26" stroke="none" d="
M 4.45 -3.6
Q 4 -3.6 3.5 -3.35 3.15 -3.15 2.85 -2.7 2.6 -2.2 2.6 -1.75 2.6 -1.2 2.85 -0.8 3.05 -0.35 3.5 -0.15 4 0.1 4.45 0.1 4.9 0.1 5.4 -0.15 5.85 -0.45 6.05 -0.8 6.3 -1.2 6.3 -1.75 6.3 -2.2 6.05 -2.7 5.8 -3.1 5.4 -3.35 4.9 -3.6 4.45 -3.6
M 3.2 -2.5
Q 3.35 -2.85 3.7 -3 3.95 -3.2 4.45 -3.2 4.85 -3.2 5.2 -3 5.4 -2.9 5.7 -2.5
L 5.85 -1.75 5.7 -1
Q 5.55 -0.7 5.2 -0.45 4.8 -0.25 4.45 -0.25 4.1 -0.25 3.7 -0.45 3.35 -0.7 3.2 -1
L 3.05 -1.75 3.2 -2.5 Z"/>
</g>

<g id="BDM_200x200_psd_Asset_ManagedWiFi_Awareness_DM7_3_to_individual__customer__spending_habits__0_Layer0_0_MEMBER_2_FILL">
<path fill="#D82C26" stroke="none" d="
M 9.1 -3.45
L 8.65 -3.45 8.65 0 9.1 0 9.1 -3.45
M 9.1 -4.65
L 9.2 -4.85 9.1 -5.1 8.9 -5.15 8.65 -5.1 8.55 -4.85 8.65 -4.65 8.9 -4.55 9.1 -4.65 Z"/>
</g>

<g id="BDM_200x200_psd_Asset_ManagedWiFi_Awareness_DM7_3_to_individual__customer__spending_habits__0_Layer0_0_MEMBER_3_FILL">
<path fill="#D82C26" stroke="none" d="
M 10.65 -3.45
L 10.25 -3.45 10.25 0 10.7 0 10.7 -1.75
Q 10.7 -2.25 10.85 -2.55 11.05 -2.9 11.25 -3.05 11.55 -3.2 11.85 -3.2 12.4 -3.2 12.6 -2.85 12.8 -2.6 12.8 -2
L 12.8 0 13.25 0 13.25 -2.1
Q 13.25 -2.8 12.9 -3.15 12.65 -3.55 11.95 -3.55 11.45 -3.55 11.2 -3.35 10.85 -3.15 10.7 -2.7
L 10.65 -3.45 Z"/>
</g>

<g id="BDM_200x200_psd_Asset_ManagedWiFi_Awareness_DM7_3_to_individual__customer__spending_habits__0_Layer0_0_MEMBER_4_FILL">
<path fill="#D82C26" stroke="none" d="
M 14.35 -0.8
Q 14.6 -0.35 14.95 -0.15 15.45 0.1 15.9 0.1 16.3 0.1 16.7 -0.15 17 -0.25 17.3 -0.75
L 17.35 0 17.75 0 17.75 -5.7 17.3 -5.6 17.3 -2.7
Q 17.1 -3.1 16.7 -3.35 16.35 -3.55 15.9 -3.55 15.35 -3.55 14.95 -3.35 14.55 -3 14.35 -2.65 14.15 -2.3 14.15 -1.75 14.15 -1.2 14.35 -0.8
M 14.6 -1.75
Q 14.6 -2.15 14.75 -2.45 14.9 -2.85 15.2 -3 15.45 -3.2 15.95 -3.2 16.4 -3.2 16.65 -3 16.9 -2.9 17.15 -2.45 17.3 -2.15 17.3 -1.75 17.3 -1.3 17.15 -1
L 16.65 -0.45
Q 16.25 -0.25 15.95 -0.25 15.6 -0.25 15.2 -0.45 14.85 -0.7 14.75 -1 14.6 -1.3 14.6 -1.75 Z"/>
</g>

<g id="BDM_200x200_psd_Asset_ManagedWiFi_Awareness_DM7_3_to_individual__customer__spending_habits__0_Layer0_0_MEMBER_5_FILL">
<path fill="#D82C26" stroke="none" d="
M 19.35 -3.45
L 18.9 -3.45 18.9 0 19.35 0 19.35 -3.45
M 19.35 -4.65
L 19.4 -4.85 19.35 -5.1 19.1 -5.15 18.9 -5.1 18.8 -4.85 18.9 -4.65 19.1 -4.55 19.35 -4.65 Z"/>
</g>

<g id="BDM_200x200_psd_Asset_ManagedWiFi_Awareness_DM7_3_to_individual__customer__spending_habits__0_Layer0_0_MEMBER_6_FILL">
<path fill="#D82C26" stroke="none" d="
M 20.45 -3.45
L 20 -3.45 21.3 0 21.8 0 23.1 -3.45 22.65 -3.45 21.6 -0.45 20.45 -3.45 Z"/>
</g>

<g id="BDM_200x200_psd_Asset_ManagedWiFi_Awareness_DM7_3_to_individual__customer__spending_habits__0_Layer0_0_MEMBER_7_FILL">
<path fill="#D82C26" stroke="none" d="
M 24.2 -3.45
L 23.8 -3.45 23.8 0 24.2 0 24.2 -3.45
M 24.2 -4.65
L 24.3 -4.85 24.2 -5.1 24 -5.15 23.8 -5.1
Q 23.7 -5 23.7 -4.85 23.7 -4.7 23.8 -4.65
L 24 -4.55 24.2 -4.65 Z"/>
</g>

<g id="BDM_200x200_psd_Asset_ManagedWiFi_Awareness_DM7_3_to_individual__customer__spending_habits__0_Layer0_0_MEMBER_8_FILL">
<path fill="#D82C26" stroke="none" d="
M 28.75 -5.7
L 28.3 -5.6 28.3 -2.7
Q 28.1 -3.1 27.7 -3.35 27.35 -3.55 26.9 -3.55 26.35 -3.55 26 -3.35 25.55 -3.05 25.35 -2.65 25.15 -2.3 25.15 -1.75 25.15 -1.2 25.35 -0.8 25.65 -0.35 26 -0.15 26.4 0.1 26.9 0.1 27.3 0.1 27.7 -0.15 28 -0.25 28.3 -0.75
L 28.35 0 28.75 0 28.75 -5.7
M 27.65 -0.45
Q 27.25 -0.25 26.95 -0.25 26.7 -0.25 26.2 -0.45 25.85 -0.7 25.75 -1 25.6 -1.3 25.6 -1.75 25.6 -2.15 25.75 -2.45 25.9 -2.85 26.2 -3 26.55 -3.2 26.95 -3.2 27.4 -3.2 27.65 -3 28 -2.8 28.15 -2.45 28.3 -2.15 28.3 -1.75 28.3 -1.3 28.15 -1 28 -0.7 27.65 -0.45 Z"/>
</g>

<g id="BDM_200x200_psd_Asset_ManagedWiFi_Awareness_DM7_3_to_individual__customer__spending_habits__0_Layer0_0_MEMBER_9_FILL">
<path fill="#D82C26" stroke="none" d="
M 29.85 -1.35
Q 29.85 -0.75 30.15 -0.3 30.45 0.1 31.1 0.1 31.5 0.1 31.9 -0.15 32.25 -0.45 32.4 -0.75
L 32.45 0 32.9 0 32.8 -0.8 32.8 -3.45 32.4 -3.45 32.4 -1.75
Q 32.4 -1.25 32.25 -0.95 32.1 -0.6 31.8 -0.45 31.6 -0.25 31.25 -0.25 30.7 -0.25 30.5 -0.6 30.3 -0.95 30.3 -1.45
L 30.3 -3.45 29.85 -3.45 29.85 -1.35 Z"/>
</g>

<g id="BDM_200x200_psd_Asset_ManagedWiFi_Awareness_DM7_3_to_individual__customer__spending_habits__0_Layer0_0_MEMBER_10_FILL">
<path fill="#D82C26" stroke="none" d="
M 33.75 -0.95
Q 33.75 -0.45 34.05 -0.15 34.45 0.1 34.85 0.1 35.35 0.1 35.6 -0.1 36.05 -0.35 36.15 -0.65
L 36.15 -0.3 36.2 0 36.6 0 36.55 -2.25
Q 36.55 -2.9 36.2 -3.25 35.75 -3.6 35.2 -3.6 34.9 -3.6 34.5 -3.45
L 33.9 -3.15 34.05 -2.8 34.55 -3.1
Q 34.85 -3.25 35.15 -3.25 35.55 -3.25 35.9 -3 36.15 -2.75 36.15 -2.3
L 36.15 -2.1 35.7 -2.1
Q 33.75 -2.1 33.75 -0.95
M 34.35 -0.4
Q 34.15 -0.55 34.15 -0.95 34.15 -1.8 35.8 -1.8
L 36.15 -1.8 36.15 -1.45
Q 36.15 -1.15 36 -0.85 35.8 -0.55 35.6 -0.4 35.3 -0.25 34.95 -0.25 34.6 -0.25 34.35 -0.4 Z"/>
</g>

<g id="BDM_200x200_psd_Asset_ManagedWiFi_Awareness_DM7_3_to_individual__customer__spending_habits__0_Layer0_0_MEMBER_11_FILL">
<path fill="#D82C26" stroke="none" d="
M 37.65 -0.75
Q 37.65 -0.4 37.8 -0.2
L 38.25 0.1 38.45 -0.3
Q 38.2 -0.4 38.15 -0.5
L 38.1 -0.85 38.1 -5.65 37.65 -5.55 37.65 -0.75 Z"/>
</g>

<g id="BDM_200x200_psd_Asset_ManagedWiFi_Awareness_DM7_3_to_individual__customer__spending_habits__0_Layer0_0_MEMBER_12_FILL">
<path fill="#D82C26" stroke="none" d="
M 1.3 5.5
Q 0.85 5.8 0.65 6.15 0.4 6.55 0.4 7.1 0.4 7.55 0.65 8.05 0.95 8.5 1.3 8.7 1.7 8.95 2.2 8.95 2.6 8.95 2.9 8.8 3.25 8.7 3.4 8.5
L 3.35 8.15
Q 3.1 8.4 2.85 8.45
L 2.25 8.55
Q 1.8 8.55 1.55 8.35 1.2 8.15 1.05 7.8 0.85 7.55 0.85 7.1 0.85 6.7 1.05 6.35 1.2 6 1.5 5.8 2 5.6 2.25 5.6
L 2.8 5.7 3.25 6 3.4 5.65 2.9 5.35 2.25 5.25
Q 1.7 5.25 1.3 5.5 Z"/>
</g>

<g id="BDM_200x200_psd_Asset_ManagedWiFi_Awareness_DM7_3_to_individual__customer__spending_habits__0_Layer0_0_MEMBER_13_FILL">
<path fill="#D82C26" stroke="none" d="
M 7.1 5.35
L 6.65 5.35 6.65 7.1
Q 6.65 7.55 6.5 7.9 6.35 8.25 6.1 8.4 5.8 8.55 5.5 8.55 4.95 8.55 4.8 8.2 4.55 7.85 4.55 7.35
L 4.55 5.35 4.15 5.35 4.15 7.45
Q 4.15 8.15 4.45 8.5 4.7 8.9 5.4 8.9 5.9 8.9 6.15 8.7 6.5 8.5 6.65 8.1
L 6.75 8.85 7.15 8.85 7.1 8.45 7.1 5.35 Z"/>
</g>

<g id="BDM_200x200_psd_Asset_ManagedWiFi_Awareness_DM7_3_to_individual__customer__spending_habits__0_Layer0_0_MEMBER_14_FILL">
<path fill="#D82C26" stroke="none" d="
M 10.15 5.95
L 10.3 5.6 9.85 5.35 9.2 5.25 8.65 5.35
Q 8.45 5.4 8.25 5.7 8.05 5.85 8.05 6.2 8.05 6.55 8.3 6.8 8.45 6.95 9.05 7.2
L 9.8 7.5
Q 10 7.65 10 7.95 10 8.3 9.75 8.4 9.45 8.6 9.25 8.6 8.6 8.6 8.05 8.15
L 8 8.55
Q 8.3 8.75 8.55 8.8 8.75 8.9 9.25 8.9 9.65 8.9 9.8 8.8 10.05 8.75 10.25 8.45 10.4 8.25 10.4 7.9 10.4 7.5 10.15 7.3 9.9 7.05 9.35 6.9
L 8.65 6.6
Q 8.45 6.4 8.45 6.2 8.45 5.9 8.7 5.75 8.95 5.6 9.25 5.6
L 9.7 5.7 10.15 5.95 Z"/>
</g>

<g id="BDM_200x200_psd_Asset_ManagedWiFi_Awareness_DM7_3_to_individual__customer__spending_habits__0_Layer0_0_MEMBER_15_FILL">
<path fill="#D82C26" stroke="none" d="
M 11.95 5.35
L 11.95 4.35 11.5 4.55 11.5 5.35 10.95 5.35 10.85 5.7 11.55 5.7 11.55 8
Q 11.55 8.45 11.75 8.65 12 8.9 12.35 8.9
L 12.75 8.85 13.1 8.7 13 8.4 12.45 8.55
Q 12.25 8.55 12.1 8.4 11.95 8.25 11.95 7.95
L 11.95 5.7 12.85 5.7 12.95 5.35 11.95 5.35 Z"/>
</g>

<g id="BDM_200x200_psd_Asset_ManagedWiFi_Awareness_DM7_3_to_individual__customer__spending_habits__0_Layer0_0_MEMBER_16_FILL">
<path fill="#D82C26" stroke="none" d="
M 16.85 6.15
Q 16.65 5.8 16.2 5.5 15.85 5.25 15.25 5.25 14.6 5.25 14.3 5.5 13.9 5.7 13.6 6.15 13.4 6.5 13.4 7.1 13.4 7.65 13.6 8.05 14 8.55 14.3 8.7 14.7 8.95 15.25 8.95 15.7 8.95 16.2 8.7 16.6 8.45 16.85 8.05 17.1 7.55 17.1 7.1 17.1 6.55 16.85 6.15
M 15.25 5.6
Q 15.55 5.6 15.95 5.8 16.3 6 16.45 6.35 16.65 6.6 16.65 7.1 16.65 7.55 16.45 7.8 16.3 8.2 16 8.35 15.65 8.55 15.25 8.55 14.75 8.55 14.5 8.35 14.15 8.2 14 7.8 13.8 7.4 13.8 7.1 13.8 6.75 14 6.35 14.15 6 14.5 5.8 14.9 5.6 15.25 5.6 Z"/>
</g>

<g id="BDM_200x200_psd_Asset_ManagedWiFi_Awareness_DM7_3_to_individual__customer__spending_habits__0_Layer0_0_MEMBER_17_FILL">
<path fill="#D82C26" stroke="none" d="
M 20.8 6.15
Q 20.65 5.75 20.35 5.5 20 5.25 19.65 5.25 19.3 5.25 18.9 5.5 18.6 5.75 18.45 6.1
L 18.4 5.35 18 5.35 18 8.85 18.45 8.85 18.45 7.1
Q 18.45 6.7 18.6 6.3 18.8 5.9 19 5.8 19.2 5.6 19.55 5.6 20 5.6 20.2 5.9 20.4 6.15 20.4 6.75
L 20.4 8.85 20.85 8.85 20.85 7.05
Q 20.85 6.4 21.15 6 21.45 5.6 21.95 5.6 22.4 5.6 22.65 5.95 22.85 6.3 22.85 6.85
L 22.85 8.85 23.3 8.85 23.3 6.75
Q 23.3 6.1 23 5.65 22.7 5.25 22.05 5.25 21.65 5.25 21.25 5.5 20.95 5.75 20.8 6.15 Z"/>
</g>

<g id="BDM_200x200_psd_Asset_ManagedWiFi_Awareness_DM7_3_to_individual__customer__spending_habits__0_Layer0_0_MEMBER_18_FILL">
<path fill="#D82C26" stroke="none" d="
M 26.8 5.45
Q 26.45 5.25 25.9 5.25 25.35 5.25 25.05 5.5 24.6 5.8 24.4 6.15 24.2 6.5 24.2 7.05 24.2 7.65 24.4 8.05 24.8 8.55 25.05 8.7 25.55 8.95 25.95 8.95 26.75 8.95 27.35 8.5
L 27.3 8.1
Q 27.1 8.3 26.7 8.45 26.5 8.55 26 8.55 25.6 8.55 25.3 8.4 24.9 8.1 24.8 7.85 24.6 7.45 24.6 7.15
L 27.55 7.15 27.55 6.95
Q 27.55 6.45 27.35 6.1 27.25 5.8 26.8 5.45
M 25.9 5.6
Q 26.5 5.6 26.8 5.95 27.15 6.25 27.15 6.85
L 24.6 6.85 24.8 6.25
Q 25.05 5.9 25.25 5.8 25.45 5.6 25.9 5.6 Z"/>
</g>

<g id="BDM_200x200_psd_Asset_ManagedWiFi_Awareness_DM7_3_to_individual__customer__spending_habits__0_Layer0_0_MEMBER_19_FILL">
<path fill="#D82C26" stroke="none" d="
M 28.85 5.35
L 28.45 5.35 28.5 8.85 28.9 8.85 28.9 7.1
Q 28.9 6.5 29.2 6.05 29.45 5.65 29.9 5.65
L 30.2 5.7 30.3 5.3 29.9 5.25
Q 29.6 5.25 29.35 5.5 29.05 5.75 28.9 6.1
L 28.85 5.35 Z"/>
</g>

<g id="BDM_200x200_psd_Asset_ManagedWiFi_Awareness_DM7_3_to_individual__customer__spending_habits__0_Layer0_0_MEMBER_20_FILL">
<path fill="#D82C26" stroke="none" d="
M 2.55 14.75
L 2.75 14.45 2.25 14.2
Q 1.95 14.05 1.6 14.05
L 1.05 14.2
Q 0.8 14.3 0.65 14.5 0.45 14.8 0.45 15.05 0.45 15.4 0.7 15.65
L 1.45 16
Q 2 16.15 2.2 16.35 2.4 16.5 2.4 16.75 2.4 17.05 2.2 17.25 2 17.4 1.65 17.4 1 17.4 0.5 17
L 0.4 17.35
Q 0.45 17.4 0.95 17.65
L 1.65 17.75 2.25 17.65
Q 2.55 17.45 2.65 17.3 2.85 17.1 2.85 16.75 2.85 16.4 2.55 16.1 2.4 15.95 1.75 15.7
L 1.1 15.4
Q 0.9 15.25 0.9 15 0.9 14.7 1.1 14.55 1.35 14.4 1.65 14.4
L 2.15 14.5 2.55 14.75 Z"/>
</g>

<g id="BDM_200x200_psd_Asset_ManagedWiFi_Awareness_DM7_3_to_individual__customer__spending_habits__0_Layer0_0_MEMBER_21_FILL">
<path fill="#D82C26" stroke="none" d="
M 7.1 15
Q 6.9 14.6 6.45 14.3 6.1 14.1 5.55 14.1 5.1 14.1 4.7 14.3 4.4 14.5 4.15 14.95
L 4.1 14.95 4.1 14.2 3.65 14.2 3.7 14.8 3.7 19.45 4.15 19.45 4.15 16.9
Q 4.45 17.4 4.75 17.55 5.25 17.75 5.55 17.75 6.05 17.75 6.45 17.5 6.9 17.3 7.1 16.85 7.3 16.25 7.3 15.9 7.3 15.5 7.1 15
M 5.5 14.45
Q 5.95 14.45 6.2 14.65 6.45 14.75 6.7 15.2 6.85 15.5 6.85 15.9 6.85 16.35 6.7 16.65 6.5 16.95 6.2 17.2 5.8 17.4 5.5 17.4 5.2 17.4 4.8 17.2 4.45 16.95 4.3 16.65 4.1 16.4 4.1 15.9 4.1 15.45 4.3 15.2 4.45 14.85 4.8 14.65 5.05 14.45 5.5 14.45 Z"/>
</g>

<g id="BDM_200x200_psd_Asset_ManagedWiFi_Awareness_DM7_3_to_individual__customer__spending_habits__0_Layer0_0_MEMBER_22_FILL">
<path fill="#D82C26" stroke="none" d="
M 8.85 14.3
Q 8.5 14.5 8.25 14.95 8 15.45 8 15.9 8 16.45 8.25 16.85 8.45 17.25 8.85 17.5 9.25 17.75 9.8 17.75 10.65 17.75 11.15 17.3
L 11.1 16.95
Q 10.9 17.15 10.55 17.25 10.2 17.4 9.85 17.4 9.35 17.4 9.1 17.2 8.9 17.1 8.6 16.7 8.45 16.4 8.45 16
L 11.35 16 11.4 15.8
Q 11.4 15.5 11.2 14.9 11 14.55 10.6 14.3 10.2 14.05 9.75 14.05 9.25 14.05 8.85 14.3
M 9.05 14.6
Q 9.45 14.4 9.75 14.4 10.25 14.4 10.6 14.75 10.95 15.1 10.95 15.65
L 8.45 15.65
Q 8.45 15.4 8.6 15.1 8.75 14.85 9.05 14.6 Z"/>
</g>

<g id="BDM_200x200_psd_Asset_ManagedWiFi_Awareness_DM7_3_to_individual__customer__spending_habits__0_Layer0_0_MEMBER_23_FILL">
<path fill="#D82C26" stroke="none" d="
M 15.3 17.65
L 15.3 15.55
Q 15.3 14.95 14.95 14.5 14.7 14.1 14 14.1 13.5 14.1 13.25 14.3 12.9 14.5 12.75 14.95
L 12.7 14.95 12.7 14.2 12.25 14.2 12.3 17.65 12.75 17.65 12.75 15.9
Q 12.75 15.5 12.9 15.1 13 14.9 13.3 14.6 13.6 14.45 13.9 14.45 14.45 14.45 14.6 14.8 14.85 15.15 14.85 15.65
L 14.85 17.65 15.3 17.65 Z"/>
</g>

<g id="BDM_200x200_psd_Asset_ManagedWiFi_Awareness_DM7_3_to_individual__customer__spending_habits__0_Layer0_0_MEMBER_24_FILL">
<path fill="#D82C26" stroke="none" d="
M 19.8 11.95
L 19.35 12.05 19.35 14.95
Q 19.15 14.55 18.75 14.3 18.4 14.1 17.9 14.1 17.4 14.1 17 14.3 16.6 14.65 16.4 15 16.2 15.35 16.2 15.9 16.2 16.45 16.4 16.85 16.6 17.25 17 17.5 17.5 17.75 17.9 17.75 18.25 17.75 18.75 17.55 19.1 17.35 19.35 16.9
L 19.4 17.65 19.8 17.65 19.8 11.95
M 18.7 14.65
Q 18.95 14.75 19.2 15.2 19.35 15.5 19.35 15.9 19.35 16.35 19.2 16.65
L 18.7 17.2
Q 18.3 17.4 18 17.4 17.65 17.4 17.25 17.2 16.9 16.95 16.8 16.65 16.6 16.4 16.6 15.9 16.6 15.45 16.8 15.2 16.95 14.8 17.25 14.65 17.5 14.45 18 14.45 18.45 14.45 18.7 14.65 Z"/>
</g>

<g id="BDM_200x200_psd_Asset_ManagedWiFi_Awareness_DM7_3_to_individual__customer__spending_habits__0_Layer0_0_MEMBER_25_FILL">
<path fill="#D82C26" stroke="none" d="
M 21.4 14.2
L 20.95 14.2 20.95 17.65 21.4 17.65 21.4 14.2
M 21.15 13.1
Q 21.3 13.1 21.35 13 21.45 12.95 21.45 12.8 21.45 12.65 21.35 12.55
L 21.15 12.5 20.95 12.55
Q 20.85 12.65 20.85 12.8 20.85 12.95 20.95 13 21 13.1 21.15 13.1 Z"/>
</g>

<g id="BDM_200x200_psd_Asset_ManagedWiFi_Awareness_DM7_3_to_individual__customer__spending_habits__0_Layer0_0_MEMBER_26_FILL">
<path fill="#D82C26" stroke="none" d="
M 25.5 17.65
L 25.5 15.55
Q 25.5 14.9 25.2 14.5 24.95 14.1 24.2 14.1 23.8 14.1 23.45 14.3 23.05 14.6 22.95 14.95
L 22.9 14.2 22.5 14.2 22.55 17.65 22.95 17.65 22.95 15.9
Q 22.95 15.6 23.15 15.1 23.3 14.8 23.55 14.6 23.8 14.45 24.15 14.45 24.65 14.45 24.85 14.8 25.05 15.05 25.05 15.65
L 25.05 17.65 25.5 17.65 Z"/>
</g>

<g id="BDM_200x200_psd_Asset_ManagedWiFi_Awareness_DM7_3_to_individual__customer__spending_habits__0_Layer0_0_MEMBER_27_FILL">
<path fill="#D82C26" stroke="none" d="
M 28.95 14.3
Q 28.6 14.1 28.15 14.1 27.6 14.1 27.25 14.3 26.8 14.6 26.6 15 26.4 15.5 26.4 15.9 26.4 16.25 26.6 16.85 26.8 17.2 27.25 17.5 27.6 17.7 28.15 17.7 28.6 17.7 28.95 17.5 29.3 17.3 29.55 16.85
L 29.55 17.6
Q 29.55 18.35 29.2 18.7 28.9 19.1 28.15 19.1
L 27.4 19 26.7 18.65 26.6 19.05
Q 27 19.3 27.35 19.35 27.75 19.5 28.15 19.5 29.1 19.5 29.55 18.95 30 18.45 30 17.6
L 30 14.2 29.6 14.2 29.6 14.95 29.55 14.95
Q 29.3 14.5 28.95 14.3
M 28.9 14.65
Q 29.25 14.8 29.4 15.15 29.6 15.65 29.6 15.9 29.6 16.15 29.4 16.65 29.25 17 28.9 17.15 28.65 17.35 28.2 17.35 27.75 17.35 27.5 17.15 27.15 17 27 16.65
L 26.85 15.9
Q 26.85 15.5 27 15.2 27.15 14.85 27.5 14.65 27.75 14.45 28.2 14.45 28.65 14.45 28.9 14.65 Z"/>
</g>

<g id="BDM_200x200_psd_Asset_ManagedWiFi_Awareness_DM7_3_to_individual__customer__spending_habits__0_Layer0_0_MEMBER_28_FILL">
<path fill="#D82C26" stroke="none" d="
M 33.05 12
L 32.65 12.05 32.65 17.65 33.05 17.65 33.05 15.95
Q 33.05 15.45 33.2 15.15 33.3 14.85 33.65 14.6 33.9 14.45 34.2 14.45 34.75 14.45 34.95 14.8 35.15 15.05 35.15 15.65
L 35.15 17.65 35.6 17.65 35.6 15.55
Q 35.6 14.9 35.3 14.5 35.05 14.1 34.35 14.1 33.9 14.1 33.55 14.3 33.25 14.55 33.1 14.9
L 33.05 14.9 33.05 12 Z"/>
</g>

<g id="BDM_200x200_psd_Asset_ManagedWiFi_Awareness_DM7_3_to_individual__customer__spending_habits__0_Layer0_0_MEMBER_29_FILL">
<path fill="#D82C26" stroke="none" d="
M 38.6 14.65
Q 38.9 14.9 38.9 15.35
L 38.9 15.55 38.45 15.55
Q 36.45 15.55 36.45 16.7 36.45 17.15 36.8 17.5 37.15 17.75 37.6 17.75 38 17.75 38.35 17.55 38.7 17.35 38.9 17
L 38.9 17.35 38.95 17.65 39.35 17.65 39.3 15.4
Q 39.3 14.85 38.95 14.4 38.5 14.05 37.95 14.05 37.65 14.05 37.25 14.2
L 36.65 14.5 36.8 14.85 37.3 14.55
Q 37.6 14.4 37.9 14.4 38.35 14.4 38.6 14.65
M 37.1 17.25
Q 36.9 17.1 36.9 16.7 36.9 15.85 38.5 15.85
L 38.9 15.85 38.9 16.2
Q 38.9 16.5 38.75 16.8
L 38.35 17.25
Q 38.05 17.4 37.65 17.4 37.35 17.4 37.1 17.25 Z"/>
</g>

<g id="BDM_200x200_psd_Asset_ManagedWiFi_Awareness_DM7_3_to_individual__customer__spending_habits__0_Layer0_0_MEMBER_30_FILL">
<path fill="#D82C26" stroke="none" d="
M 43.8 15
Q 43.6 14.65 43.2 14.3 42.8 14.1 42.3 14.1 41.8 14.1 41.45 14.3 41.05 14.55 40.85 14.95
L 40.85 11.95 40.4 12.05 40.4 17.65 40.8 17.65 40.85 16.9
Q 41.1 17.35 41.45 17.5 41.85 17.75 42.3 17.75 42.7 17.75 43.2 17.5 43.6 17.25 43.8 16.85 44 16.45 44 15.9 44 15.35 43.8 15
M 42.2 14.45
Q 42.7 14.45 42.95 14.65 43.25 14.8 43.4 15.2 43.6 15.45 43.6 15.9 43.6 16.4 43.4 16.65 43.25 17 42.95 17.2 42.55 17.4 42.2 17.4 41.9 17.4 41.5 17.2
L 41 16.65
Q 40.85 16.35 40.85 15.9 40.85 15.5 41 15.2 41.25 14.75 41.5 14.65 41.75 14.45 42.2 14.45 Z"/>
</g>

<g id="BDM_200x200_psd_Asset_ManagedWiFi_Awareness_DM7_3_to_individual__customer__spending_habits__0_Layer0_0_MEMBER_31_FILL">
<path fill="#D82C26" stroke="none" d="
M 45.35 14.2
L 44.95 14.2 44.95 17.65 45.35 17.65 45.35 14.2
M 45.15 13.1
Q 45.3 13.1 45.35 13 45.45 12.95 45.45 12.8 45.45 12.65 45.35 12.55
L 45.15 12.5 44.95 12.55
Q 44.85 12.65 44.85 12.8 44.85 12.95 44.95 13 45 13.1 45.15 13.1 Z"/>
</g>

<g id="BDM_200x200_psd_Asset_ManagedWiFi_Awareness_DM7_3_to_individual__customer__spending_habits__0_Layer0_0_MEMBER_32_FILL">
<path fill="#D82C26" stroke="none" d="
M 46.05 14.5
L 46.7 14.5 46.7 16.8
Q 46.7 17.3 46.9 17.5 47.15 17.75 47.5 17.75
L 48.25 17.55 48.2 17.2
Q 47.85 17.35 47.6 17.35 47.4 17.35 47.25 17.2 47.1 17.05 47.1 16.75
L 47.1 14.5 48 14.5 48.1 14.2 47.1 14.2 47.1 13.2 46.7 13.35 46.7 14.2 46.15 14.2 46.05 14.5 Z"/>
</g>

<g id="BDM_200x200_psd_Asset_ManagedWiFi_Awareness_DM7_3_to_individual__customer__spending_habits__0_Layer0_0_MEMBER_33_FILL">
<path fill="#D82C26" stroke="none" d="
M 49 14.5
Q 48.85 14.75 48.85 15.05 48.85 15.45 49.05 15.65
L 49.8 16
Q 50.35 16.15 50.55 16.35 50.75 16.5 50.75 16.75 50.75 17.05 50.55 17.25 50.35 17.4 50 17.4 49.35 17.4 48.85 17
L 48.75 17.35
Q 48.8 17.4 49.3 17.65
L 50 17.75 50.6 17.65
Q 50.9 17.45 51 17.3 51.2 17.1 51.2 16.75 51.2 16.45 50.95 16.1 50.75 15.95 50.1 15.7 49.6 15.55 49.45 15.4 49.25 15.25 49.25 15 49.25 14.7 49.45 14.55 49.7 14.4 50 14.4
L 50.5 14.5 50.9 14.75 51.1 14.45 50.6 14.2
Q 50.3 14.05 50 14.05 49.7 14.05 49.45 14.2 49.15 14.3 49 14.5 Z"/>
</g>

<g id="BDM_200x200_psd_Asset_ManagedWiFi_Awareness_DM7_3_to_individual__customer__spending_habits__0_Layer0_0_MEMBER_34_FILL">
<path fill="#D82C26" stroke="none" d="
M 52.15 17.6
L 52.4 17.7 52.6 17.6
Q 52.7 17.55 52.7 17.35 52.7 17.2 52.6 17.15 52.55 17.05 52.4 17.05 52.2 17.05 52.15 17.15
L 52.05 17.35 52.15 17.6 Z"/>
</g>
</defs>

<g transform="matrix( 1, 0, 0, 1, -155,-10) ">
<g transform="matrix( 1, 0, 0, 1, 147,22) ">
<g transform="matrix( 1, 0, 0, 1, 24,4) ">
<g transform="matrix( 2.815704345703125, 0, 0, 2.832611083984375, 0.15,16.6) ">
<use xlink:href="#BDM_200x200_psd_Asset_ManagedWiFi_Awareness_DM7_3_to_individual__customer__spending_habits__0_Layer0_0_MEMBER_0_FILL"/>
</g>

<g transform="matrix( 2.815704345703125, 0, 0, 2.832611083984375, 0.15,16.6) ">
<use xlink:href="#BDM_200x200_psd_Asset_ManagedWiFi_Awareness_DM7_3_to_individual__customer__spending_habits__0_Layer0_0_MEMBER_1_FILL"/>
</g>

<g transform="matrix( 2.815704345703125, 0, 0, 2.832611083984375, 0.15,16.6) ">
<use xlink:href="#BDM_200x200_psd_Asset_ManagedWiFi_Awareness_DM7_3_to_individual__customer__spending_habits__0_Layer0_0_MEMBER_2_FILL"/>
</g>

<g transform="matrix( 2.815704345703125, 0, 0, 2.832611083984375, 0.15,16.6) ">
<use xlink:href="#BDM_200x200_psd_Asset_ManagedWiFi_Awareness_DM7_3_to_individual__customer__spending_habits__0_Layer0_0_MEMBER_3_FILL"/>
</g>

<g transform="matrix( 2.815704345703125, 0, 0, 2.832611083984375, 0.15,16.6) ">
<use xlink:href="#BDM_200x200_psd_Asset_ManagedWiFi_Awareness_DM7_3_to_individual__customer__spending_habits__0_Layer0_0_MEMBER_4_FILL"/>
</g>

<g transform="matrix( 2.815704345703125, 0, 0, 2.832611083984375, 0.15,16.6) ">
<use xlink:href="#BDM_200x200_psd_Asset_ManagedWiFi_Awareness_DM7_3_to_individual__customer__spending_habits__0_Layer0_0_MEMBER_5_FILL"/>
</g>

<g transform="matrix( 2.815704345703125, 0, 0, 2.832611083984375, 0.15,16.6) ">
<use xlink:href="#BDM_200x200_psd_Asset_ManagedWiFi_Awareness_DM7_3_to_individual__customer__spending_habits__0_Layer0_0_MEMBER_6_FILL"/>
</g>

<g transform="matrix( 2.815704345703125, 0, 0, 2.832611083984375, 0.15,16.6) ">
<use xlink:href="#BDM_200x200_psd_Asset_ManagedWiFi_Awareness_DM7_3_to_individual__customer__spending_habits__0_Layer0_0_MEMBER_7_FILL"/>
</g>

<g transform="matrix( 2.815704345703125, 0, 0, 2.832611083984375, 0.15,16.6) ">
<use xlink:href="#BDM_200x200_psd_Asset_ManagedWiFi_Awareness_DM7_3_to_individual__customer__spending_habits__0_Layer0_0_MEMBER_8_FILL"/>
</g>

<g transform="matrix( 2.815704345703125, 0, 0, 2.832611083984375, 0.15,16.6) ">
<use xlink:href="#BDM_200x200_psd_Asset_ManagedWiFi_Awareness_DM7_3_to_individual__customer__spending_habits__0_Layer0_0_MEMBER_9_FILL"/>
</g>

<g transform="matrix( 2.815704345703125, 0, 0, 2.832611083984375, 0.15,16.6) ">
<use xlink:href="#BDM_200x200_psd_Asset_ManagedWiFi_Awareness_DM7_3_to_individual__customer__spending_habits__0_Layer0_0_MEMBER_10_FILL"/>
</g>

<g transform="matrix( 2.815704345703125, 0, 0, 2.832611083984375, 0.15,16.6) ">
<use xlink:href="#BDM_200x200_psd_Asset_ManagedWiFi_Awareness_DM7_3_to_individual__customer__spending_habits__0_Layer0_0_MEMBER_11_FILL"/>
</g>

<g transform="matrix( 2.815704345703125, 0, 0, 2.832611083984375, 0.15,16.6) ">
<use xlink:href="#BDM_200x200_psd_Asset_ManagedWiFi_Awareness_DM7_3_to_individual__customer__spending_habits__0_Layer0_0_MEMBER_12_FILL"/>
</g>

<g transform="matrix( 2.815704345703125, 0, 0, 2.832611083984375, 0.15,16.6) ">
<use xlink:href="#BDM_200x200_psd_Asset_ManagedWiFi_Awareness_DM7_3_to_individual__customer__spending_habits__0_Layer0_0_MEMBER_13_FILL"/>
</g>

<g transform="matrix( 2.815704345703125, 0, 0, 2.832611083984375, 0.15,16.6) ">
<use xlink:href="#BDM_200x200_psd_Asset_ManagedWiFi_Awareness_DM7_3_to_individual__customer__spending_habits__0_Layer0_0_MEMBER_14_FILL"/>
</g>

<g transform="matrix( 2.815704345703125, 0, 0, 2.832611083984375, 0.15,16.6) ">
<use xlink:href="#BDM_200x200_psd_Asset_ManagedWiFi_Awareness_DM7_3_to_individual__customer__spending_habits__0_Layer0_0_MEMBER_15_FILL"/>
</g>

<g transform="matrix( 2.815704345703125, 0, 0, 2.832611083984375, 0.15,16.6) ">
<use xlink:href="#BDM_200x200_psd_Asset_ManagedWiFi_Awareness_DM7_3_to_individual__customer__spending_habits__0_Layer0_0_MEMBER_16_FILL"/>
</g>

<g transform="matrix( 2.815704345703125, 0, 0, 2.832611083984375, 0.15,16.6) ">
<use xlink:href="#BDM_200x200_psd_Asset_ManagedWiFi_Awareness_DM7_3_to_individual__customer__spending_habits__0_Layer0_0_MEMBER_17_FILL"/>
</g>

<g transform="matrix( 2.815704345703125, 0, 0, 2.832611083984375, 0.15,16.6) ">
<use xlink:href="#BDM_200x200_psd_Asset_ManagedWiFi_Awareness_DM7_3_to_individual__customer__spending_habits__0_Layer0_0_MEMBER_18_FILL"/>
</g>

<g transform="matrix( 2.815704345703125, 0, 0, 2.832611083984375, 0.15,16.6) ">
<use xlink:href="#BDM_200x200_psd_Asset_ManagedWiFi_Awareness_DM7_3_to_individual__customer__spending_habits__0_Layer0_0_MEMBER_19_FILL"/>
</g>

<g transform="matrix( 2.815704345703125, 0, 0, 2.832611083984375, 0.15,16.6) ">
<use xlink:href="#BDM_200x200_psd_Asset_ManagedWiFi_Awareness_DM7_3_to_individual__customer__spending_habits__0_Layer0_0_MEMBER_20_FILL"/>
</g>

<g transform="matrix( 2.815704345703125, 0, 0, 2.832611083984375, 0.15,16.6) ">
<use xlink:href="#BDM_200x200_psd_Asset_ManagedWiFi_Awareness_DM7_3_to_individual__customer__spending_habits__0_Layer0_0_MEMBER_21_FILL"/>
</g>

<g transform="matrix( 2.815704345703125, 0, 0, 2.832611083984375, 0.15,16.6) ">
<use xlink:href="#BDM_200x200_psd_Asset_ManagedWiFi_Awareness_DM7_3_to_individual__customer__spending_habits__0_Layer0_0_MEMBER_22_FILL"/>
</g>

<g transform="matrix( 2.815704345703125, 0, 0, 2.832611083984375, 0.15,16.6) ">
<use xlink:href="#BDM_200x200_psd_Asset_ManagedWiFi_Awareness_DM7_3_to_individual__customer__spending_habits__0_Layer0_0_MEMBER_23_FILL"/>
</g>

<g transform="matrix( 2.815704345703125, 0, 0, 2.832611083984375, 0.15,16.6) ">
<use xlink:href="#BDM_200x200_psd_Asset_ManagedWiFi_Awareness_DM7_3_to_individual__customer__spending_habits__0_Layer0_0_MEMBER_24_FILL"/>
</g>

<g transform="matrix( 2.815704345703125, 0, 0, 2.832611083984375, 0.15,16.6) ">
<use xlink:href="#BDM_200x200_psd_Asset_ManagedWiFi_Awareness_DM7_3_to_individual__customer__spending_habits__0_Layer0_0_MEMBER_25_FILL"/>
</g>

<g transform="matrix( 2.815704345703125, 0, 0, 2.832611083984375, 0.15,16.6) ">
<use xlink:href="#BDM_200x200_psd_Asset_ManagedWiFi_Awareness_DM7_3_to_individual__customer__spending_habits__0_Layer0_0_MEMBER_26_FILL"/>
</g>

<g transform="matrix( 2.815704345703125, 0, 0, 2.832611083984375, 0.15,16.6) ">
<use xlink:href="#BDM_200x200_psd_Asset_ManagedWiFi_Awareness_DM7_3_to_individual__customer__spending_habits__0_Layer0_0_MEMBER_27_FILL"/>
</g>

<g transform="matrix( 2.815704345703125, 0, 0, 2.832611083984375, 0.15,16.6) ">
<use xlink:href="#BDM_200x200_psd_Asset_ManagedWiFi_Awareness_DM7_3_to_individual__customer__spending_habits__0_Layer0_0_MEMBER_28_FILL"/>
</g>

<g transform="matrix( 2.815704345703125, 0, 0, 2.832611083984375, 0.15,16.6) ">
<use xlink:href="#BDM_200x200_psd_Asset_ManagedWiFi_Awareness_DM7_3_to_individual__customer__spending_habits__0_Layer0_0_MEMBER_29_FILL"/>
</g>

<g transform="matrix( 2.815704345703125, 0, 0, 2.832611083984375, 0.15,16.6) ">
<use xlink:href="#BDM_200x200_psd_Asset_ManagedWiFi_Awareness_DM7_3_to_individual__customer__spending_habits__0_Layer0_0_MEMBER_30_FILL"/>
</g>

<g transform="matrix( 2.815704345703125, 0, 0, 2.832611083984375, 0.15,16.6) ">
<use xlink:href="#BDM_200x200_psd_Asset_ManagedWiFi_Awareness_DM7_3_to_individual__customer__spending_habits__0_Layer0_0_MEMBER_31_FILL"/>
</g>

<g transform="matrix( 2.815704345703125, 0, 0, 2.832611083984375, 0.15,16.6) ">
<use xlink:href="#BDM_200x200_psd_Asset_ManagedWiFi_Awareness_DM7_3_to_individual__customer__spending_habits__0_Layer0_0_MEMBER_32_FILL"/>
</g>

<g transform="matrix( 2.815704345703125, 0, 0, 2.832611083984375, 0.15,16.6) ">
<use xlink:href="#BDM_200x200_psd_Asset_ManagedWiFi_Awareness_DM7_3_to_individual__customer__spending_habits__0_Layer0_0_MEMBER_33_FILL"/>
</g>

<g transform="matrix( 2.815704345703125, 0, 0, 2.832611083984375, 0.15,16.6) ">
<use xlink:href="#BDM_200x200_psd_Asset_ManagedWiFi_Awareness_DM7_3_to_individual__customer__spending_habits__0_Layer0_0_MEMBER_34_FILL"/>
</g>
</g>
</g>
</g>
</svg>
