
<svg xmlns="http://www.w3.org/2000/svg" version="1.1" xmlns:xlink="http://www.w3.org/1999/xlink" preserveAspectRatio="none" x="0px" y="0px" width="300px" height="600px" viewBox="0 0 300 600">
<defs>
<g id="IT_300x600_psd_Asset_3_ManagedWiFi_IT_Research_DM11_1_Advance_your__business_through__technology__0_Layer0_0_MEMBER_0_FILL">
<path fill="#D82C26" stroke="none" d="
M 3.75 -7
L 3.1 -7 0.1 0 0.75 0 1.85 -2.6 4.95 -2.6 6 0 6.65 0 3.75 -7
M 4.75 -3.1
L 2.05 -3.1 3.4 -6.4 4.75 -3.1 Z"/>
</g>

<g id="IT_300x600_psd_Asset_3_ManagedWiFi_IT_Research_DM11_1_Advance_your__business_through__technology__0_Layer0_0_MEMBER_1_FILL">
<path fill="#D82C26" stroke="none" d="
M 9.35 -4.75
Q 8.7 -4.75 8.15 -4.45 7.6 -4.15 7.3 -3.55 7 -3 7 -2.3 7 -1.65 7.3 -1.05 7.6 -0.5 8.15 -0.2 8.75 0.15 9.35 0.15 9.95 0.15 10.45 -0.15 10.9 -0.4 11.25 -1
L 11.3 0 11.85 0 11.8 -7.6 11.25 -7.45 11.25 -3.65 11.2 -3.65
Q 11 -4.15 10.45 -4.45 9.95 -4.75 9.35 -4.75
M 8.45 -4
Q 8.9 -4.3 9.4 -4.3 10 -4.3 10.35 -4 10.7 -3.8 11.05 -3.3 11.25 -2.9 11.25 -2.3 11.25 -1.75 11.05 -1.35 10.7 -0.85 10.35 -0.6 9.95 -0.35 9.4 -0.35 8.95 -0.35 8.45 -0.6 8.1 -0.9 7.85 -1.35 7.6 -1.85 7.6 -2.3 7.6 -2.8 7.85 -3.3 8.1 -3.8 8.45 -4 Z"/>
</g>

<g id="IT_300x600_psd_Asset_3_ManagedWiFi_IT_Research_DM11_1_Advance_your__business_through__technology__0_Layer0_0_MEMBER_2_FILL">
<path fill="#D82C26" stroke="none" d="
M 13.2 -4.65
L 12.55 -4.65 14.35 0 15 0 16.75 -4.65 16.15 -4.65 14.7 -0.6 13.2 -4.65 Z"/>
</g>

<g id="IT_300x600_psd_Asset_3_ManagedWiFi_IT_Research_DM11_1_Advance_your__business_through__technology__0_Layer0_0_MEMBER_3_FILL">
<path fill="#D82C26" stroke="none" d="
M 19.15 -4.75
Q 18.65 -4.75 18.2 -4.6 17.6 -4.4 17.4 -4.2
L 17.55 -3.75 18.25 -4.15
Q 18.7 -4.3 19.05 -4.3 19.7 -4.3 20 -4 20.35 -3.65 20.35 -3.05
L 20.35 -2.8 19.8 -2.8
Q 17.15 -2.8 17.15 -1.25 17.15 -0.55 17.6 -0.2 18.05 0.15 18.6 0.15 19.2 0.15 19.65 -0.15 20.1 -0.35 20.35 -0.9
L 20.4 -0.9 20.45 0 21 0 20.9 -1 20.9 -3
Q 20.9 -3.9 20.45 -4.35 20 -4.75 19.15 -4.75
M 19.65 -0.55
Q 19.25 -0.3 18.75 -0.3 18.35 -0.3 18 -0.55 17.7 -0.75 17.7 -1.25 17.7 -2.4 19.9 -2.4
L 20.35 -2.4 20.35 -1.95
Q 20.35 -1.5 20.2 -1.15 20 -0.8 19.65 -0.55 Z"/>
</g>

<g id="IT_300x600_psd_Asset_3_ManagedWiFi_IT_Research_DM11_1_Advance_your__business_through__technology__0_Layer0_0_MEMBER_4_FILL">
<path fill="#D82C26" stroke="none" d="
M 22.8 -4.65
L 22.25 -4.65 22.3 0 22.85 0 22.85 -2.35
Q 22.85 -2.8 23.05 -3.4 23.25 -3.8 23.65 -4.05 24 -4.3 24.4 -4.3 25.1 -4.3 25.4 -3.8 25.65 -3.3 25.65 -2.7
L 25.65 0 26.25 0 26.25 -2.85
Q 26.25 -3.65 25.85 -4.2 25.45 -4.75 24.55 -4.75 23.95 -4.75 23.5 -4.45 23.15 -4.2 22.85 -3.65
L 22.8 -4.65 Z"/>
</g>

<g id="IT_300x600_psd_Asset_3_ManagedWiFi_IT_Research_DM11_1_Advance_your__business_through__technology__0_Layer0_0_MEMBER_5_FILL">
<path fill="#D82C26" stroke="none" d="
M 29.75 -4.75
Q 29.05 -4.75 28.5 -4.45 27.95 -4.15 27.65 -3.6 27.3 -3.05 27.3 -2.3 27.3 -1.55 27.6 -1.05 27.95 -0.5 28.5 -0.15 29.05 0.15 29.7 0.15 30.25 0.15 30.6 0 31.2 -0.3 31.3 -0.45
L 31.25 -0.9 30.55 -0.5
Q 30.25 -0.35 29.75 -0.35 29.25 -0.35 28.8 -0.65 28.4 -0.85 28.15 -1.35 27.9 -1.85 27.9 -2.3 27.9 -2.8 28.15 -3.3 28.4 -3.8 28.8 -4 29.2 -4.3 29.75 -4.3
L 30.5 -4.15 31.1 -3.8 31.3 -4.2
Q 31.15 -4.4 30.6 -4.6 30.25 -4.75 29.75 -4.75 Z"/>
</g>

<g id="IT_300x600_psd_Asset_3_ManagedWiFi_IT_Research_DM11_1_Advance_your__business_through__technology__0_Layer0_0_MEMBER_6_FILL">
<path fill="#D82C26" stroke="none" d="
M 35.3 -4.45
Q 34.8 -4.75 34.1 -4.75 33.5 -4.75 32.95 -4.45 32.4 -4.15 32.1 -3.6 31.8 -3.05 31.8 -2.35 31.8 -1.65 32.1 -1.05 32.4 -0.5 32.95 -0.2 33.45 0.15 34.2 0.15 35.25 0.15 36.05 -0.45
L 35.95 -0.95 35.2 -0.5 34.25 -0.35
Q 33.65 -0.35 33.25 -0.6 32.8 -0.85 32.6 -1.3 32.35 -1.7 32.35 -2.25
L 36.3 -2.25 36.3 -2.5
Q 36.3 -3.05 36.05 -3.65 35.75 -4.15 35.3 -4.45
M 34.1 -4.3
Q 34.85 -4.3 35.3 -3.85 35.75 -3.4 35.75 -2.65
L 32.4 -2.65
Q 32.4 -3.05 32.6 -3.4 32.85 -3.85 33.2 -4.05 33.5 -4.3 34.1 -4.3 Z"/>
</g>

<g id="IT_300x600_psd_Asset_3_ManagedWiFi_IT_Research_DM11_1_Advance_your__business_through__technology__0_Layer0_0_MEMBER_7_FILL">
<path fill="#D82C26" stroke="none" d="
M 39.35 -4.65
L 38.7 -4.65 40.65 0.05 40.3 1
Q 40.15 1.5 39.85 1.65 39.6 1.85 39 1.85
L 39.15 2.35
Q 39.85 2.35 40.2 2.05 40.65 1.8 40.85 1.15
L 43 -4.65 42.35 -4.65 40.95 -0.6 39.35 -4.65 Z"/>
</g>

<g id="IT_300x600_psd_Asset_3_ManagedWiFi_IT_Research_DM11_1_Advance_your__business_through__technology__0_Layer0_0_MEMBER_8_FILL">
<path fill="#D82C26" stroke="none" d="
M 43.65 -1.05
Q 43.95 -0.5 44.5 -0.2 45.05 0.15 45.8 0.15 46.5 0.15 47.05 -0.2 47.55 -0.5 47.95 -1.05 48.25 -1.65 48.25 -2.3 48.25 -3 47.95 -3.6 47.55 -4.15 47.05 -4.45 46.45 -4.75 45.8 -4.75 45.1 -4.75 44.5 -4.45 43.95 -4.15 43.65 -3.6 43.3 -2.9 43.3 -2.3 43.3 -1.75 43.65 -1.05
M 44.15 -3.3
Q 44.4 -3.8 44.8 -4 45.2 -4.3 45.8 -4.3 46.35 -4.3 46.8 -4 47.25 -3.75 47.45 -3.3 47.65 -2.9 47.65 -2.3 47.65 -1.75 47.45 -1.35 47.25 -0.95 46.8 -0.6 46.3 -0.35 45.8 -0.35 45.2 -0.35 44.8 -0.6 44.4 -0.85 44.15 -1.35 43.9 -1.85 43.9 -2.3 43.9 -2.8 44.15 -3.3 Z"/>
</g>

<g id="IT_300x600_psd_Asset_3_ManagedWiFi_IT_Research_DM11_1_Advance_your__business_through__technology__0_Layer0_0_MEMBER_9_FILL">
<path fill="#D82C26" stroke="none" d="
M 49.3 -1.8
Q 49.3 -1 49.7 -0.45 50.15 0.15 51 0.15 51.6 0.15 52 -0.2 52.45 -0.45 52.7 -1
L 52.8 0 53.35 0 53.25 -1.1 53.25 -4.65 52.7 -4.65 52.7 -2.3
Q 52.7 -1.85 52.5 -1.25 52.3 -0.85 51.95 -0.6 51.65 -0.35 51.15 -0.35 50.45 -0.35 50.15 -0.8 49.9 -1.3 49.9 -1.95
L 49.9 -4.65 49.3 -4.65 49.3 -1.8 Z"/>
</g>

<g id="IT_300x600_psd_Asset_3_ManagedWiFi_IT_Research_DM11_1_Advance_your__business_through__technology__0_Layer0_0_MEMBER_10_FILL">
<path fill="#D82C26" stroke="none" d="
M 55.2 -4.65
L 54.65 -4.65 54.7 0 55.3 0 55.3 -2.3
Q 55.3 -3.15 55.65 -3.7 56.05 -4.25 56.6 -4.25
L 57 -4.2 57.15 -4.7 56.65 -4.75
Q 56.25 -4.75 55.85 -4.45 55.45 -4.1 55.3 -3.65
L 55.25 -3.65 55.2 -4.65 Z"/>
</g>

<g id="IT_300x600_psd_Asset_3_ManagedWiFi_IT_Research_DM11_1_Advance_your__business_through__technology__0_Layer0_0_MEMBER_11_FILL">
<path fill="#D82C26" stroke="none" d="
M 1.5 5.15
L 0.9 5.25 0.85 12.7 1.4 12.7 1.45 11.7 1.5 11.7
Q 1.75 12.25 2.25 12.55 2.8 12.85 3.4 12.85 4.1 12.85 4.6 12.5 5.2 12.15 5.4 11.65 5.7 11.05 5.7 10.4 5.7 9.7 5.4 9.15 5.25 8.7 4.6 8.25 4.1 7.95 3.4 7.95 2.85 7.95 2.3 8.25 1.8 8.55 1.5 9.1
L 1.5 5.15
M 3.3 8.45
Q 3.95 8.45 4.3 8.7 4.65 8.9 4.9 9.4 5.15 9.9 5.15 10.4 5.15 10.95 4.9 11.35 4.7 11.8 4.3 12.1 3.8 12.35 3.3 12.35 2.8 12.35 2.4 12.1 2.05 11.85 1.7 11.35 1.5 11 1.5 10.4 1.5 9.8 1.7 9.4 2.05 8.9 2.4 8.7 2.7 8.45 3.3 8.45 Z"/>
</g>

<g id="IT_300x600_psd_Asset_3_ManagedWiFi_IT_Research_DM11_1_Advance_your__business_through__technology__0_Layer0_0_MEMBER_12_FILL">
<path fill="#D82C26" stroke="none" d="
M 10.15 8.1
L 10.15 10.4
Q 10.15 11.05 9.95 11.45 9.7 12 9.4 12.15 9.05 12.35 8.6 12.35 7.9 12.35 7.65 11.9 7.35 11.45 7.35 10.75
L 7.35 8.1 6.75 8.1 6.75 10.9
Q 6.75 11.7 7.2 12.3 7.6 12.85 8.45 12.85 9 12.85 9.5 12.55 9.9 12.3 10.15 11.7
L 10.25 12.7 10.8 12.7 10.7 11.65 10.7 8.1 10.15 8.1 Z"/>
</g>

<g id="IT_300x600_psd_Asset_3_ManagedWiFi_IT_Research_DM11_1_Advance_your__business_through__technology__0_Layer0_0_MEMBER_13_FILL">
<path fill="#D82C26" stroke="none" d="
M 13.4 7.95
Q 13 7.95 12.7 8.1 12.35 8.15 12.1 8.5 11.9 8.75 11.9 9.2 11.9 9.8 12.2 10 12.55 10.3 13.2 10.5 13.9 10.75 14.2 10.95 14.5 11.2 14.5 11.5 14.5 11.95 14.15 12.15 13.8 12.4 13.45 12.4 12.6 12.4 11.9 11.8
L 11.8 12.3
Q 12.05 12.55 12.5 12.7 12.95 12.85 13.45 12.85 13.9 12.85 14.25 12.7 14.6 12.5 14.8 12.2 15.05 11.85 15.05 11.5 15.05 11.1 14.7 10.65 14.35 10.4 13.6 10.15 12.95 9.95 12.7 9.7 12.45 9.6 12.45 9.2 12.45 8.85 12.7 8.6 12.95 8.4 13.45 8.4 13.8 8.4 14.1 8.55 14.45 8.65 14.65 8.85
L 14.9 8.45 14.25 8.1
Q 13.9 7.95 13.4 7.95 Z"/>
</g>

<g id="IT_300x600_psd_Asset_3_ManagedWiFi_IT_Research_DM11_1_Advance_your__business_through__technology__0_Layer0_0_MEMBER_14_FILL">
<path fill="#D82C26" stroke="none" d="
M 16.65 8.1
L 16.05 8.1 16.05 12.7 16.65 12.7 16.65 8.1
M 16.65 5.95
L 16.35 5.8 16.05 5.95
Q 15.9 6.05 15.9 6.2 15.9 6.4 16.05 6.55
L 16.35 6.65 16.65 6.55 16.75 6.2 16.65 5.95 Z"/>
</g>

<g id="IT_300x600_psd_Asset_3_ManagedWiFi_IT_Research_DM11_1_Advance_your__business_through__technology__0_Layer0_0_MEMBER_15_FILL">
<path fill="#D82C26" stroke="none" d="
M 21.6 8.5
Q 21.15 7.95 20.3 7.95 19.75 7.95 19.3 8.25 18.8 8.6 18.65 9.1
L 18.6 9.1 18.55 8.1 18 8.1 18.05 12.7 18.65 12.7 18.65 10.35
Q 18.65 9.7 18.85 9.3 19.15 8.8 19.4 8.65 19.75 8.45 20.2 8.45 20.85 8.45 21.15 8.9 21.45 9.35 21.45 10.05
L 21.45 12.7 22 12.7 22 9.9
Q 22 8.95 21.6 8.5 Z"/>
</g>

<g id="IT_300x600_psd_Asset_3_ManagedWiFi_IT_Research_DM11_1_Advance_your__business_through__technology__0_Layer0_0_MEMBER_16_FILL">
<path fill="#D82C26" stroke="none" d="
M 23.1 10.35
Q 23.1 11.15 23.4 11.65 23.65 12.1 24.25 12.55 24.8 12.85 25.5 12.85 26.55 12.85 27.35 12.25
L 27.25 11.75 26.5 12.2
Q 26.05 12.35 25.55 12.35 24.95 12.35 24.55 12.1 24.15 11.85 23.9 11.45 23.75 11.2 23.65 10.5
L 27.6 10.5 27.6 10.25
Q 27.6 9.65 27.35 9.05 27.05 8.55 26.6 8.25 26.1 7.95 25.4 7.95 24.8 7.95 24.25 8.25 23.7 8.55 23.4 9.1 23.1 9.7 23.1 10.35
M 23.9 9.3
Q 24.1 8.95 24.5 8.65 24.9 8.4 25.4 8.4 26.15 8.4 26.6 8.85 27.05 9.3 27.05 10.05
L 23.7 10.05
Q 23.7 9.65 23.9 9.3 Z"/>
</g>

<g id="IT_300x600_psd_Asset_3_ManagedWiFi_IT_Research_DM11_1_Advance_your__business_through__technology__0_Layer0_0_MEMBER_17_FILL">
<path fill="#D82C26" stroke="none" d="
M 31 11.5
Q 31 11.95 30.7 12.15 30.35 12.4 29.95 12.4 29.05 12.4 28.45 11.8
L 28.35 12.3
Q 28.5 12.5 29.05 12.7 29.5 12.85 30 12.85
L 30.75 12.7
Q 31.15 12.55 31.35 12.2 31.55 11.95 31.55 11.5 31.55 11 31.2 10.65 30.95 10.4 30.15 10.15 29.5 9.95 29.25 9.7 28.95 9.55 28.95 9.2 28.95 8.85 29.25 8.6 29.5 8.4 29.95 8.4
L 30.65 8.55
Q 30.9 8.6 31.2 8.85
L 31.45 8.45 30.8 8.1
Q 30.35 7.95 29.95 7.95
L 29.2 8.1
Q 28.9 8.2 28.65 8.5 28.4 8.85 28.4 9.2 28.4 9.75 28.75 10 29 10.25 29.75 10.5 30.4 10.7 30.7 10.95 31 11.2 31 11.5 Z"/>
</g>

<g id="IT_300x600_psd_Asset_3_ManagedWiFi_IT_Research_DM11_1_Advance_your__business_through__technology__0_Layer0_0_MEMBER_18_FILL">
<path fill="#D82C26" stroke="none" d="
M 33.9 7.95
Q 33.5 7.95 33.2 8.1 32.85 8.15 32.6 8.5 32.4 8.75 32.4 9.2 32.4 9.8 32.7 10 33.05 10.3 33.7 10.5 34.35 10.7 34.65 10.95 34.95 11.2 34.95 11.5 34.95 11.95 34.65 12.15 34.3 12.4 33.95 12.4 33 12.4 32.4 11.8
L 32.3 12.3
Q 32.55 12.55 33 12.7 33.45 12.85 33.95 12.85 34.4 12.85 34.7 12.7 35.1 12.55 35.3 12.2 35.55 11.85 35.55 11.5 35.55 11.1 35.2 10.65 34.85 10.4 34.1 10.15 33.45 9.95 33.2 9.7 32.95 9.6 32.95 9.2 32.95 8.8 33.2 8.6 33.45 8.4 33.95 8.4 34.3 8.4 34.6 8.55 34.95 8.65 35.15 8.85
L 35.4 8.45 34.75 8.1
Q 34.4 7.95 33.9 7.95 Z"/>
</g>

<g id="IT_300x600_psd_Asset_3_ManagedWiFi_IT_Research_DM11_1_Advance_your__business_through__technology__0_Layer0_0_MEMBER_19_FILL">
<path fill="#D82C26" stroke="none" d="
M 40.75 12.55
L 40.7 12.15
Q 40.1 12.35 39.95 12.35 39.65 12.35 39.45 12.15 39.25 11.95 39.25 11.5
L 39.25 8.55 40.45 8.55 40.6 8.1 39.25 8.1 39.25 6.75 38.7 7 38.7 8.1 37.95 8.1 37.8 8.55 38.7 8.55 38.7 11.6
Q 38.7 12.2 39 12.5 39.3 12.8 39.75 12.8
L 40.3 12.75 40.75 12.55 Z"/>
</g>

<g id="IT_300x600_psd_Asset_3_ManagedWiFi_IT_Research_DM11_1_Advance_your__business_through__technology__0_Layer0_0_MEMBER_20_FILL">
<path fill="#D82C26" stroke="none" d="
M 42.1 5.15
L 41.55 5.25 41.55 12.7 42.1 12.7 42.1 10.45
Q 42.1 9.95 42.3 9.35 42.55 8.9 42.85 8.65 43.2 8.45 43.65 8.45 44.35 8.45 44.65 8.9 44.9 9.4 44.9 10.05
L 44.9 12.7 45.5 12.7 45.5 9.9
Q 45.5 9.05 45.1 8.5 44.65 7.95 43.8 7.95 43.25 7.95 42.8 8.25 42.3 8.6 42.15 9.05
L 42.1 9.05 42.1 5.15 Z"/>
</g>

<g id="IT_300x600_psd_Asset_3_ManagedWiFi_IT_Research_DM11_1_Advance_your__business_through__technology__0_Layer0_0_MEMBER_21_FILL">
<path fill="#D82C26" stroke="none" d="
M 49.3 8
L 48.8 7.95
Q 48.4 7.95 48 8.25 47.6 8.55 47.45 9.1
L 47.4 8.1 46.85 8.1 46.9 12.7 47.45 12.7 47.45 10.4
Q 47.45 9.65 47.8 9.05 48.2 8.45 48.75 8.45
L 49.2 8.55 49.3 8 Z"/>
</g>

<g id="IT_300x600_psd_Asset_3_ManagedWiFi_IT_Research_DM11_1_Advance_your__business_through__technology__0_Layer0_0_MEMBER_22_FILL">
<path fill="#D82C26" stroke="none" d="
M 54.1 9.1
Q 53.7 8.55 53.2 8.25 52.6 7.95 51.95 7.95 51.25 7.95 50.65 8.25 50.1 8.55 49.8 9.1 49.45 9.8 49.45 10.4 49.45 11.05 49.8 11.65 50.05 12.1 50.65 12.55 51.25 12.85 51.95 12.85 52.6 12.85 53.2 12.55 53.8 12.1 54.1 11.65 54.4 11.15 54.4 10.4 54.4 9.7 54.1 9.1
M 51.95 8.45
Q 52.6 8.45 52.95 8.7 53.4 8.95 53.6 9.4 53.8 9.8 53.8 10.4 53.8 10.95 53.6 11.35 53.4 11.75 52.95 12.1 52.45 12.35 51.95 12.35 51.35 12.35 50.95 12.1 50.55 11.85 50.3 11.35 50.05 10.85 50.05 10.4 50.05 9.9 50.3 9.4 50.55 8.9 50.95 8.7 51.25 8.45 51.95 8.45 Z"/>
</g>

<g id="IT_300x600_psd_Asset_3_ManagedWiFi_IT_Research_DM11_1_Advance_your__business_through__technology__0_Layer0_0_MEMBER_23_FILL">
<path fill="#D82C26" stroke="none" d="
M 55.45 8.1
L 55.45 10.9
Q 55.45 11.65 55.85 12.3 56.3 12.85 57.15 12.85 57.7 12.85 58.15 12.55 58.6 12.3 58.85 11.7
L 58.95 12.7 59.5 12.7 59.4 11.65 59.4 8.1 58.85 8.1 58.85 10.4
Q 58.85 10.85 58.65 11.45 58.4 11.9 58.1 12.15 57.75 12.35 57.3 12.35 56.6 12.35 56.3 11.9 56.05 11.4 56.05 10.75
L 56.05 8.1 55.45 8.1 Z"/>
</g>

<g id="IT_300x600_psd_Asset_3_ManagedWiFi_IT_Research_DM11_1_Advance_your__business_through__technology__0_Layer0_0_MEMBER_24_FILL">
<path fill="#D82C26" stroke="none" d="
M 64.75 9.1
Q 64.4 8.5 63.95 8.25 63.45 7.95 62.85 7.95 62.2 7.95 61.65 8.25 61.1 8.65 60.8 9.15 60.55 9.8 60.55 10.4 60.55 11 60.8 11.6 61.05 12.05 61.65 12.5 62.2 12.8 62.85 12.8 63.45 12.8 63.95 12.5 64.4 12.25 64.75 11.65
L 64.75 12.65
Q 64.75 13.6 64.3 14.1 63.85 14.65 62.85 14.65 62.3 14.65 61.85 14.5
L 60.95 14.05 60.85 14.6
Q 61.3 14.85 61.75 15
L 62.85 15.15
Q 64.15 15.15 64.75 14.45 65.35 13.8 65.35 12.65
L 65.35 8.1 64.8 8.1 64.75 9.1
M 62 8.7
Q 62.3 8.45 62.95 8.45 63.55 8.45 63.9 8.7 64.35 8.95 64.55 9.4 64.75 9.8 64.75 10.4 64.75 10.95 64.55 11.35 64.35 11.8 63.9 12.05 63.55 12.3 62.95 12.3 62.3 12.3 62 12.05 61.6 11.85 61.35 11.35 61.1 10.85 61.1 10.4 61.1 9.9 61.35 9.4 61.6 8.9 62 8.7 Z"/>
</g>

<g id="IT_300x600_psd_Asset_3_ManagedWiFi_IT_Research_DM11_1_Advance_your__business_through__technology__0_Layer0_0_MEMBER_25_FILL">
<path fill="#D82C26" stroke="none" d="
M 67.35 5.15
L 66.75 5.25 66.75 12.7 67.35 12.7 67.35 10.45
Q 67.35 9.75 67.55 9.35 67.7 8.9 68.1 8.65 68.35 8.45 68.85 8.45 69.55 8.45 69.85 8.9 70.1 9.3 70.1 10.05
L 70.1 12.7 70.7 12.7 70.7 9.9
Q 70.7 9.05 70.3 8.5 69.85 7.95 69 7.95 68.45 7.95 68 8.25 67.5 8.6 67.35 9.05
L 67.35 5.15 Z"/>
</g>

<g id="IT_300x600_psd_Asset_3_ManagedWiFi_IT_Research_DM11_1_Advance_your__business_through__technology__0_Layer0_0_MEMBER_26_FILL">
<path fill="#D82C26" stroke="none" d="
M 2.75 21.25
L 2.9 20.8 1.55 20.8 1.55 19.45 1 19.7 1 20.8 0.25 20.8 0.1 21.25 1 21.25 1 24.3
Q 1 24.9 1.3 25.2 1.55 25.5 2.05 25.5
L 2.6 25.45 3.05 25.25 3 24.85
Q 2.4 25.05 2.25 25.05 1.9 25.05 1.75 24.85 1.55 24.65 1.55 24.2
L 1.55 21.25 2.75 21.25 Z"/>
</g>

<g id="IT_300x600_psd_Asset_3_ManagedWiFi_IT_Research_DM11_1_Advance_your__business_through__technology__0_Layer0_0_MEMBER_27_FILL">
<path fill="#D82C26" stroke="none" d="
M 3.35 23.1
Q 3.35 23.85 3.65 24.35 3.95 24.95 4.5 25.25 5.05 25.55 5.75 25.55 6.8 25.55 7.55 24.95
L 7.45 24.5
Q 7.1 24.75 6.7 24.9 6.2 25.1 5.75 25.1 5.3 25.1 4.8 24.85 4.35 24.5 4.15 24.15 3.9 23.65 3.9 23.2
L 7.85 23.2 7.85 22.95
Q 7.85 22.4 7.6 21.8 7.3 21.25 6.85 20.95 6.35 20.65 5.65 20.65 5.05 20.65 4.5 20.95 3.95 21.25 3.65 21.8 3.35 22.4 3.35 23.1
M 4.15 22
Q 4.35 21.65 4.75 21.35 5.15 21.1 5.65 21.1 6.4 21.1 6.85 21.55 7.3 22 7.3 22.75
L 3.95 22.75
Q 3.95 22.35 4.15 22 Z"/>
</g>

<g id="IT_300x600_psd_Asset_3_ManagedWiFi_IT_Research_DM11_1_Advance_your__business_through__technology__0_Layer0_0_MEMBER_28_FILL">
<path fill="#D82C26" stroke="none" d="
M 8.65 23.1
Q 8.65 23.85 9 24.4 9.35 25 9.85 25.25 10.4 25.55 11.1 25.55 11.6 25.55 11.95 25.4 12.4 25.25 12.65 25
L 12.6 24.5
Q 12.3 24.75 11.9 24.9 11.6 25.05 11.15 25.05 10.65 25.05 10.15 24.8 9.7 24.5 9.5 24.1 9.25 23.6 9.25 23.1 9.25 22.6 9.5 22.1 9.7 21.7 10.15 21.4 10.55 21.15 11.1 21.15
L 11.85 21.25 12.45 21.65 12.65 21.2 12 20.8
Q 11.55 20.65 11.1 20.65 10.4 20.65 9.85 20.95 9.3 21.25 9 21.85 8.65 22.35 8.65 23.1 Z"/>
</g>

<g id="IT_300x600_psd_Asset_3_ManagedWiFi_IT_Research_DM11_1_Advance_your__business_through__technology__0_Layer0_0_MEMBER_29_FILL">
<path fill="#D82C26" stroke="none" d="
M 14.1 17.9
L 13.55 17.95 13.55 25.4 14.1 25.4 14.1 23.15
Q 14.1 22.65 14.3 22.05 14.5 21.65 14.85 21.4 15.15 21.15 15.65 21.15 16.4 21.15 16.6 21.6 16.9 22.05 16.9 22.75
L 16.9 25.4 17.5 25.4 17.5 22.6
Q 17.5 21.75 17.1 21.2 16.65 20.65 15.8 20.65 15.25 20.65 14.8 20.95 14.35 21.2 14.15 21.75
L 14.1 21.75 14.1 17.9 Z"/>
</g>

<g id="IT_300x600_psd_Asset_3_ManagedWiFi_IT_Research_DM11_1_Advance_your__business_through__technology__0_Layer0_0_MEMBER_30_FILL">
<path fill="#D82C26" stroke="none" d="
M 22.4 21.2
Q 22 20.65 21.1 20.65 20.55 20.65 20.1 20.95 19.6 21.3 19.45 21.8
L 19.4 21.8 19.35 20.8 18.85 20.8 18.85 25.4 19.45 25.4 19.45 23.05
Q 19.45 22.4 19.65 22.05 19.9 21.5 20.2 21.35 20.55 21.15 21 21.15 21.65 21.15 21.95 21.6 22.25 22.05 22.25 22.75
L 22.25 25.4 22.85 25.4 22.85 22.6
Q 22.85 21.8 22.4 21.2 Z"/>
</g>

<g id="IT_300x600_psd_Asset_3_ManagedWiFi_IT_Research_DM11_1_Advance_your__business_through__technology__0_Layer0_0_MEMBER_31_FILL">
<path fill="#D82C26" stroke="none" d="
M 23.9 23.1
Q 23.9 23.85 24.2 24.35 24.6 25 25.1 25.25 25.65 25.55 26.35 25.55 27.1 25.55 27.6 25.25 28.2 24.95 28.5 24.35 28.85 23.75 28.85 23.1 28.85 22.45 28.5 21.85 28.2 21.25 27.6 20.95 27.1 20.65 26.35 20.65 25.65 20.65 25.1 20.95 24.6 21.2 24.2 21.85 23.9 22.4 23.9 23.1
M 24.5 23.1
Q 24.5 22.5 24.7 22.1 24.9 21.65 25.35 21.4 25.85 21.15 26.35 21.15 26.85 21.15 27.35 21.4 27.75 21.6 28 22.1 28.25 22.6 28.25 23.1 28.25 23.6 28 24.1 27.8 24.5 27.35 24.8 26.85 25.05 26.35 25.05 25.85 25.05 25.35 24.8 24.85 24.4 24.7 24.1 24.5 23.7 24.5 23.1 Z"/>
</g>

<g id="IT_300x600_psd_Asset_3_ManagedWiFi_IT_Research_DM11_1_Advance_your__business_through__technology__0_Layer0_0_MEMBER_32_FILL">
<path fill="#D82C26" stroke="none" d="
M 30.15 25.15
Q 30.45 25.45 30.7 25.55
L 30.95 25.05 30.6 24.75 30.5 24.25 30.5 17.9 29.95 18 29.95 24.4
Q 29.95 24.9 30.15 25.15 Z"/>
</g>

<g id="IT_300x600_psd_Asset_3_ManagedWiFi_IT_Research_DM11_1_Advance_your__business_through__technology__0_Layer0_0_MEMBER_33_FILL">
<path fill="#D82C26" stroke="none" d="
M 35.35 20.95
Q 34.85 20.65 34.1 20.65 33.4 20.65 32.85 20.95 32.35 21.2 31.95 21.85 31.65 22.4 31.65 23.1 31.65 23.85 31.95 24.35 32.35 25 32.85 25.25 33.4 25.55 34.1 25.55 34.85 25.55 35.35 25.25 35.95 24.95 36.25 24.35 36.6 23.75 36.6 23.1 36.6 22.45 36.25 21.85 35.95 21.25 35.35 20.95
M 34.1 21.15
Q 34.6 21.15 35.1 21.4 35.5 21.6 35.75 22.1 36 22.6 36 23.1 36 23.6 35.75 24.1 35.55 24.5 35.1 24.8 34.6 25.05 34.1 25.05 33.6 25.05 33.1 24.8 32.6 24.4 32.45 24.1 32.25 23.7 32.25 23.1 32.25 22.5 32.45 22.1 32.65 21.65 33.1 21.4 33.6 21.15 34.1 21.15 Z"/>
</g>

<g id="IT_300x600_psd_Asset_3_ManagedWiFi_IT_Research_DM11_1_Advance_your__business_through__technology__0_Layer0_0_MEMBER_34_FILL">
<path fill="#D82C26" stroke="none" d="
M 42.2 20.8
L 41.65 20.8 41.6 21.8
Q 41.25 21.2 40.8 20.95 40.3 20.65 39.7 20.65 39 20.65 38.5 21 37.9 21.35 37.7 21.85 37.4 22.45 37.4 23.1 37.4 23.75 37.7 24.35 37.9 24.85 38.5 25.2 39.05 25.5 39.7 25.5 40.3 25.5 40.8 25.2 41.3 24.9 41.6 24.4
L 41.6 25.35
Q 41.6 26.3 41.15 26.8 40.75 27.35 39.7 27.35 39.15 27.35 38.7 27.2 38.2 27.05 37.8 26.75
L 37.7 27.3
Q 38.15 27.55 38.6 27.7
L 39.7 27.85
Q 41 27.85 41.6 27.15 42.2 26.5 42.2 25.35
L 42.2 20.8
M 41.65 23.1
Q 41.65 23.55 41.4 24.05 41.2 24.5 40.75 24.75 40.3 25.05 39.8 25.05 39.25 25.05 38.85 24.75 38.45 24.55 38.2 24.05 37.95 23.55 37.95 23.1 37.95 22.6 38.2 22.1 38.4 21.7 38.85 21.4 39.25 21.15 39.8 21.15 40.25 21.15 40.75 21.4 41.2 21.65 41.4 22.1 41.65 22.6 41.65 23.1 Z"/>
</g>

<g id="IT_300x600_psd_Asset_3_ManagedWiFi_IT_Research_DM11_1_Advance_your__business_through__technology__0_Layer0_0_MEMBER_35_FILL">
<path fill="#D82C26" stroke="none" d="
M 47.25 20.8
L 46.65 20.8 45.25 24.8 43.65 20.8 43 20.8 44.95 25.45 44.6 26.45
Q 44.35 26.9 44.1 27.05 43.9 27.2 43.3 27.3
L 43.45 27.8
Q 44.05 27.8 44.5 27.5 44.9 27.2 45.1 26.6
L 47.25 20.8 Z"/>
</g>

<g id="IT_300x600_psd_Asset_3_ManagedWiFi_IT_Research_DM11_1_Advance_your__business_through__technology__0_Layer0_0_MEMBER_36_FILL">
<path fill="#D82C26" stroke="none" d="
M 48.5 24.7
L 48.15 24.6 47.85 24.7
Q 47.7 24.85 47.7 25.05
L 47.85 25.35 48.15 25.5
Q 48.35 25.5 48.5 25.35
L 48.6 25.05 48.5 24.7
M 51.5 24.6
L 51.15 24.7
Q 51.05 24.8 51.05 25.05 51.05 25.25 51.15 25.35 51.3 25.5 51.5 25.5
L 51.8 25.35 51.9 25.05 51.8 24.7 51.5 24.6
M 54.75 24.6
L 54.45 24.7
Q 54.35 24.8 54.35 25.05 54.35 25.25 54.45 25.35
L 54.75 25.5
Q 54.95 25.5 55.1 25.35
L 55.2 25.05 55.1 24.7 54.75 24.6 Z"/>
</g>
</defs>

<g transform="matrix( 1, 0, 0, 1, -260,37) ">
<g transform="matrix( 1, 0, 0, 1, 255,0) ">
<g transform="matrix( 1, 0, 0, 1, 34,4) ">
<g transform="matrix( 2.815704345703125, 0, 0, 2.832611083984375, 0.15,21.6) ">
<use xlink:href="#IT_300x600_psd_Asset_3_ManagedWiFi_IT_Research_DM11_1_Advance_your__business_through__technology__0_Layer0_0_MEMBER_0_FILL"/>
</g>

<g transform="matrix( 2.815704345703125, 0, 0, 2.832611083984375, 0.15,21.6) ">
<use xlink:href="#IT_300x600_psd_Asset_3_ManagedWiFi_IT_Research_DM11_1_Advance_your__business_through__technology__0_Layer0_0_MEMBER_1_FILL"/>
</g>

<g transform="matrix( 2.815704345703125, 0, 0, 2.832611083984375, 0.15,21.6) ">
<use xlink:href="#IT_300x600_psd_Asset_3_ManagedWiFi_IT_Research_DM11_1_Advance_your__business_through__technology__0_Layer0_0_MEMBER_2_FILL"/>
</g>

<g transform="matrix( 2.815704345703125, 0, 0, 2.832611083984375, 0.15,21.6) ">
<use xlink:href="#IT_300x600_psd_Asset_3_ManagedWiFi_IT_Research_DM11_1_Advance_your__business_through__technology__0_Layer0_0_MEMBER_3_FILL"/>
</g>

<g transform="matrix( 2.815704345703125, 0, 0, 2.832611083984375, 0.15,21.6) ">
<use xlink:href="#IT_300x600_psd_Asset_3_ManagedWiFi_IT_Research_DM11_1_Advance_your__business_through__technology__0_Layer0_0_MEMBER_4_FILL"/>
</g>

<g transform="matrix( 2.815704345703125, 0, 0, 2.832611083984375, 0.15,21.6) ">
<use xlink:href="#IT_300x600_psd_Asset_3_ManagedWiFi_IT_Research_DM11_1_Advance_your__business_through__technology__0_Layer0_0_MEMBER_5_FILL"/>
</g>

<g transform="matrix( 2.815704345703125, 0, 0, 2.832611083984375, 0.15,21.6) ">
<use xlink:href="#IT_300x600_psd_Asset_3_ManagedWiFi_IT_Research_DM11_1_Advance_your__business_through__technology__0_Layer0_0_MEMBER_6_FILL"/>
</g>

<g transform="matrix( 2.815704345703125, 0, 0, 2.832611083984375, 0.15,21.6) ">
<use xlink:href="#IT_300x600_psd_Asset_3_ManagedWiFi_IT_Research_DM11_1_Advance_your__business_through__technology__0_Layer0_0_MEMBER_7_FILL"/>
</g>

<g transform="matrix( 2.815704345703125, 0, 0, 2.832611083984375, 0.15,21.6) ">
<use xlink:href="#IT_300x600_psd_Asset_3_ManagedWiFi_IT_Research_DM11_1_Advance_your__business_through__technology__0_Layer0_0_MEMBER_8_FILL"/>
</g>

<g transform="matrix( 2.815704345703125, 0, 0, 2.832611083984375, 0.15,21.6) ">
<use xlink:href="#IT_300x600_psd_Asset_3_ManagedWiFi_IT_Research_DM11_1_Advance_your__business_through__technology__0_Layer0_0_MEMBER_9_FILL"/>
</g>

<g transform="matrix( 2.815704345703125, 0, 0, 2.832611083984375, 0.15,21.6) ">
<use xlink:href="#IT_300x600_psd_Asset_3_ManagedWiFi_IT_Research_DM11_1_Advance_your__business_through__technology__0_Layer0_0_MEMBER_10_FILL"/>
</g>

<g transform="matrix( 2.815704345703125, 0, 0, 2.832611083984375, 0.15,21.6) ">
<use xlink:href="#IT_300x600_psd_Asset_3_ManagedWiFi_IT_Research_DM11_1_Advance_your__business_through__technology__0_Layer0_0_MEMBER_11_FILL"/>
</g>

<g transform="matrix( 2.815704345703125, 0, 0, 2.832611083984375, 0.15,21.6) ">
<use xlink:href="#IT_300x600_psd_Asset_3_ManagedWiFi_IT_Research_DM11_1_Advance_your__business_through__technology__0_Layer0_0_MEMBER_12_FILL"/>
</g>

<g transform="matrix( 2.815704345703125, 0, 0, 2.832611083984375, 0.15,21.6) ">
<use xlink:href="#IT_300x600_psd_Asset_3_ManagedWiFi_IT_Research_DM11_1_Advance_your__business_through__technology__0_Layer0_0_MEMBER_13_FILL"/>
</g>

<g transform="matrix( 2.815704345703125, 0, 0, 2.832611083984375, 0.15,21.6) ">
<use xlink:href="#IT_300x600_psd_Asset_3_ManagedWiFi_IT_Research_DM11_1_Advance_your__business_through__technology__0_Layer0_0_MEMBER_14_FILL"/>
</g>

<g transform="matrix( 2.815704345703125, 0, 0, 2.832611083984375, 0.15,21.6) ">
<use xlink:href="#IT_300x600_psd_Asset_3_ManagedWiFi_IT_Research_DM11_1_Advance_your__business_through__technology__0_Layer0_0_MEMBER_15_FILL"/>
</g>

<g transform="matrix( 2.815704345703125, 0, 0, 2.832611083984375, 0.15,21.6) ">
<use xlink:href="#IT_300x600_psd_Asset_3_ManagedWiFi_IT_Research_DM11_1_Advance_your__business_through__technology__0_Layer0_0_MEMBER_16_FILL"/>
</g>

<g transform="matrix( 2.815704345703125, 0, 0, 2.832611083984375, 0.15,21.6) ">
<use xlink:href="#IT_300x600_psd_Asset_3_ManagedWiFi_IT_Research_DM11_1_Advance_your__business_through__technology__0_Layer0_0_MEMBER_17_FILL"/>
</g>

<g transform="matrix( 2.815704345703125, 0, 0, 2.832611083984375, 0.15,21.6) ">
<use xlink:href="#IT_300x600_psd_Asset_3_ManagedWiFi_IT_Research_DM11_1_Advance_your__business_through__technology__0_Layer0_0_MEMBER_18_FILL"/>
</g>

<g transform="matrix( 2.815704345703125, 0, 0, 2.832611083984375, 0.15,21.6) ">
<use xlink:href="#IT_300x600_psd_Asset_3_ManagedWiFi_IT_Research_DM11_1_Advance_your__business_through__technology__0_Layer0_0_MEMBER_19_FILL"/>
</g>

<g transform="matrix( 2.815704345703125, 0, 0, 2.832611083984375, 0.15,21.6) ">
<use xlink:href="#IT_300x600_psd_Asset_3_ManagedWiFi_IT_Research_DM11_1_Advance_your__business_through__technology__0_Layer0_0_MEMBER_20_FILL"/>
</g>

<g transform="matrix( 2.815704345703125, 0, 0, 2.832611083984375, 0.15,21.6) ">
<use xlink:href="#IT_300x600_psd_Asset_3_ManagedWiFi_IT_Research_DM11_1_Advance_your__business_through__technology__0_Layer0_0_MEMBER_21_FILL"/>
</g>

<g transform="matrix( 2.815704345703125, 0, 0, 2.832611083984375, 0.15,21.6) ">
<use xlink:href="#IT_300x600_psd_Asset_3_ManagedWiFi_IT_Research_DM11_1_Advance_your__business_through__technology__0_Layer0_0_MEMBER_22_FILL"/>
</g>

<g transform="matrix( 2.815704345703125, 0, 0, 2.832611083984375, 0.15,21.6) ">
<use xlink:href="#IT_300x600_psd_Asset_3_ManagedWiFi_IT_Research_DM11_1_Advance_your__business_through__technology__0_Layer0_0_MEMBER_23_FILL"/>
</g>

<g transform="matrix( 2.815704345703125, 0, 0, 2.832611083984375, 0.15,21.6) ">
<use xlink:href="#IT_300x600_psd_Asset_3_ManagedWiFi_IT_Research_DM11_1_Advance_your__business_through__technology__0_Layer0_0_MEMBER_24_FILL"/>
</g>

<g transform="matrix( 2.815704345703125, 0, 0, 2.832611083984375, 0.15,21.6) ">
<use xlink:href="#IT_300x600_psd_Asset_3_ManagedWiFi_IT_Research_DM11_1_Advance_your__business_through__technology__0_Layer0_0_MEMBER_25_FILL"/>
</g>

<g transform="matrix( 2.815704345703125, 0, 0, 2.832611083984375, 0.15,21.6) ">
<use xlink:href="#IT_300x600_psd_Asset_3_ManagedWiFi_IT_Research_DM11_1_Advance_your__business_through__technology__0_Layer0_0_MEMBER_26_FILL"/>
</g>

<g transform="matrix( 2.815704345703125, 0, 0, 2.832611083984375, 0.15,21.6) ">
<use xlink:href="#IT_300x600_psd_Asset_3_ManagedWiFi_IT_Research_DM11_1_Advance_your__business_through__technology__0_Layer0_0_MEMBER_27_FILL"/>
</g>

<g transform="matrix( 2.815704345703125, 0, 0, 2.832611083984375, 0.15,21.6) ">
<use xlink:href="#IT_300x600_psd_Asset_3_ManagedWiFi_IT_Research_DM11_1_Advance_your__business_through__technology__0_Layer0_0_MEMBER_28_FILL"/>
</g>

<g transform="matrix( 2.815704345703125, 0, 0, 2.832611083984375, 0.15,21.6) ">
<use xlink:href="#IT_300x600_psd_Asset_3_ManagedWiFi_IT_Research_DM11_1_Advance_your__business_through__technology__0_Layer0_0_MEMBER_29_FILL"/>
</g>

<g transform="matrix( 2.815704345703125, 0, 0, 2.832611083984375, 0.15,21.6) ">
<use xlink:href="#IT_300x600_psd_Asset_3_ManagedWiFi_IT_Research_DM11_1_Advance_your__business_through__technology__0_Layer0_0_MEMBER_30_FILL"/>
</g>

<g transform="matrix( 2.815704345703125, 0, 0, 2.832611083984375, 0.15,21.6) ">
<use xlink:href="#IT_300x600_psd_Asset_3_ManagedWiFi_IT_Research_DM11_1_Advance_your__business_through__technology__0_Layer0_0_MEMBER_31_FILL"/>
</g>

<g transform="matrix( 2.815704345703125, 0, 0, 2.832611083984375, 0.15,21.6) ">
<use xlink:href="#IT_300x600_psd_Asset_3_ManagedWiFi_IT_Research_DM11_1_Advance_your__business_through__technology__0_Layer0_0_MEMBER_32_FILL"/>
</g>

<g transform="matrix( 2.815704345703125, 0, 0, 2.832611083984375, 0.15,21.6) ">
<use xlink:href="#IT_300x600_psd_Asset_3_ManagedWiFi_IT_Research_DM11_1_Advance_your__business_through__technology__0_Layer0_0_MEMBER_33_FILL"/>
</g>

<g transform="matrix( 2.815704345703125, 0, 0, 2.832611083984375, 0.15,21.6) ">
<use xlink:href="#IT_300x600_psd_Asset_3_ManagedWiFi_IT_Research_DM11_1_Advance_your__business_through__technology__0_Layer0_0_MEMBER_34_FILL"/>
</g>

<g transform="matrix( 2.815704345703125, 0, 0, 2.832611083984375, 0.15,21.6) ">
<use xlink:href="#IT_300x600_psd_Asset_3_ManagedWiFi_IT_Research_DM11_1_Advance_your__business_through__technology__0_Layer0_0_MEMBER_35_FILL"/>
</g>

<g transform="matrix( 2.815704345703125, 0, 0, 2.832611083984375, 0.15,21.6) ">
<use xlink:href="#IT_300x600_psd_Asset_3_ManagedWiFi_IT_Research_DM11_1_Advance_your__business_through__technology__0_Layer0_0_MEMBER_36_FILL"/>
</g>
</g>
</g>
</g>
</svg>
