
<svg xmlns="http://www.w3.org/2000/svg" version="1.1" xmlns:xlink="http://www.w3.org/1999/xlink" preserveAspectRatio="none" x="0px" y="0px" width="250px" height="250px" viewBox="0 0 250 250">
<defs>
<g id="BDM_250x250_FR_psd_Asset_4_V7_2_Tirez_parti_de_toutes__les_analyses_de_donn_es__possibles__de_l_0_Layer0_0_MEMBER_0_FILL">
<path fill="#D82C26" stroke="none" d="
M 0 -3.7
L 1.3 -3.7 1.3 0 1.65 0 1.65 -3.7 2.85 -3.7 2.9 -4 0.1 -4 0 -3.7 Z"/>
</g>

<g id="BDM_250x250_FR_psd_Asset_4_V7_2_Tirez_parti_de_toutes__les_analyses_de_donn_es__possibles__de_l_0_Layer0_0_MEMBER_1_FILL">
<path fill="#D82C26" stroke="none" d="
M 3.65 -2.65
L 3.3 -2.65 3.3 0 3.65 0 3.65 -2.65
M 3.3 -3.55
L 3.45 -3.45 3.6 -3.55 3.7 -3.7 3.6 -3.85 3.45 -3.95 3.3 -3.85 3.2 -3.7 3.3 -3.55 Z"/>
</g>

<g id="BDM_250x250_FR_psd_Asset_4_V7_2_Tirez_parti_de_toutes__les_analyses_de_donn_es__possibles__de_l_0_Layer0_0_MEMBER_2_FILL">
<path fill="#D82C26" stroke="none" d="
M 4.7 -1.3
Q 4.7 -1.85 4.9 -2.1 5.15 -2.45 5.45 -2.45
L 5.7 -2.4 5.75 -2.7 5.45 -2.7
Q 5.25 -2.7 5 -2.55 4.75 -2.4 4.7 -2.05
L 4.65 -2.65 4.35 -2.65 4.35 0 4.7 0 4.7 -1.3 Z"/>
</g>

<g id="BDM_250x250_FR_psd_Asset_4_V7_2_Tirez_parti_de_toutes__les_analyses_de_donn_es__possibles__de_l_0_Layer0_0_MEMBER_3_FILL">
<path fill="#D82C26" stroke="none" d="
M 7.1 -2.75
Q 6.8 -2.75 6.4 -2.55 6.15 -2.4 5.95 -2.05 5.75 -1.65 5.75 -1.35 5.75 -1 5.95 -0.6 6.15 -0.2 6.45 -0.1 6.85 0.1 7.15 0.1 7.7 0.1 8.2 -0.25
L 8.15 -0.55 7.7 -0.3
Q 7.55 -0.2 7.15 -0.2 6.85 -0.2 6.6 -0.35 6.3 -0.55 6.25 -0.75 6.1 -0.95 6.1 -1.3
L 8.35 -1.3 8.35 -1.4
Q 8.35 -1.8 8.2 -2.1 8.05 -2.4 7.75 -2.55 7.35 -2.75 7.1 -2.75
M 6.55 -2.3
Q 6.8 -2.45 7.1 -2.45 7.55 -2.45 7.75 -2.2 8 -2 8 -1.5
L 6.1 -1.5
Q 6.1 -1.7 6.25 -1.95 6.3 -2.15 6.55 -2.3 Z"/>
</g>

<g id="BDM_250x250_FR_psd_Asset_4_V7_2_Tirez_parti_de_toutes__les_analyses_de_donn_es__possibles__de_l_0_Layer0_0_MEMBER_4_FILL">
<path fill="#D82C26" stroke="none" d="
M 10.25 -2.4
L 8.6 -0.25 8.6 0 10.65 0 10.7 -0.25 9 -0.25 10.6 -2.4 10.6 -2.65 8.7 -2.65 8.65 -2.4 10.25 -2.4 Z"/>
</g>

<g id="BDM_250x250_FR_psd_Asset_4_V7_2_Tirez_parti_de_toutes__les_analyses_de_donn_es__possibles__de_l_0_Layer0_0_MEMBER_5_FILL">
<path fill="#D82C26" stroke="none" d="
M 12.3 -2.65
L 12 -2.65 12 1.35 12.35 1.35 12.35 -0.55
Q 12.5 -0.25 12.8 -0.1 13.1 0.05 13.4 0.05 13.8 0.05 14.1 -0.1
L 14.6 -0.6
Q 14.75 -0.95 14.75 -1.3 14.75 -1.65 14.6 -2.05
L 14.1 -2.55
Q 13.8 -2.7 13.4 -2.7 13.1 -2.7 12.8 -2.55 12.55 -2.4 12.35 -2.05
L 12.3 -2.65
M 12.35 -1.3
Q 12.35 -1.7 12.45 -1.9
L 12.85 -2.3
Q 13.1 -2.45 13.4 -2.45 13.7 -2.45 13.9 -2.3 14.1 -2.2 14.3 -1.9
L 14.4 -1.3 14.3 -0.75
Q 14.1 -0.45 13.9 -0.35 13.7 -0.2 13.4 -0.2 13.1 -0.2 12.85 -0.35
L 12.45 -0.75
Q 12.35 -0.95 12.35 -1.3 Z"/>
</g>

<g id="BDM_250x250_FR_psd_Asset_4_V7_2_Tirez_parti_de_toutes__les_analyses_de_donn_es__possibles__de_l_0_Layer0_0_MEMBER_6_FILL">
<path fill="#D82C26" stroke="none" d="
M 16.95 -1.6
L 16.65 -1.6
Q 15.1 -1.6 15.1 -0.7 15.1 -0.35 15.35 -0.1 15.65 0.05 15.95 0.05 16.25 0.05 16.55 -0.1 16.8 -0.25 16.95 -0.5
L 16.95 -0.25 17 0 17.3 0 17.25 -1.7
Q 17.25 -2.2 17 -2.45 16.7 -2.75 16.25 -2.75
L 15.7 -2.65 15.25 -2.4 15.35 -2.15 15.75 -2.35
Q 15.9 -2.45 16.2 -2.45 16.55 -2.45 16.75 -2.3 16.95 -2.1 16.95 -1.75
L 16.95 -1.6
M 15.6 -0.3
Q 15.45 -0.45 15.45 -0.7 15.45 -1.35 16.65 -1.35
L 16.95 -1.35 16.95 -1.1 16.85 -0.65
Q 16.85 -0.55 16.55 -0.3 16.4 -0.2 16 -0.2 15.7 -0.2 15.6 -0.3 Z"/>
</g>

<g id="BDM_250x250_FR_psd_Asset_4_V7_2_Tirez_parti_de_toutes__les_analyses_de_donn_es__possibles__de_l_0_Layer0_0_MEMBER_7_FILL">
<path fill="#D82C26" stroke="none" d="
M 19.05 -2.45
L 19.3 -2.4 19.35 -2.7 19.05 -2.7
Q 18.85 -2.7 18.6 -2.55 18.35 -2.4 18.3 -2.05
L 18.25 -2.65 17.95 -2.65 17.95 0 18.3 0 18.3 -1.3
Q 18.3 -1.85 18.5 -2.1 18.75 -2.45 19.05 -2.45 Z"/>
</g>

<g id="BDM_250x250_FR_psd_Asset_4_V7_2_Tirez_parti_de_toutes__les_analyses_de_donn_es__possibles__de_l_0_Layer0_0_MEMBER_8_FILL">
<path fill="#D82C26" stroke="none" d="
M 19.9 -0.65
Q 19.9 -0.3 20.05 -0.1 20.3 0.05 20.5 0.05
L 20.8 0 21.1 -0.1 21.05 -0.35
Q 20.85 -0.2 20.6 -0.2 20.45 -0.2 20.35 -0.35 20.25 -0.4 20.25 -0.7
L 20.25 -2.4 20.9 -2.4 21 -2.65 20.25 -2.65 20.25 -3.4 19.9 -3.3 19.9 -2.65 19.45 -2.65 19.4 -2.4 19.9 -2.4 19.9 -0.65 Z"/>
</g>

<g id="BDM_250x250_FR_psd_Asset_4_V7_2_Tirez_parti_de_toutes__les_analyses_de_donn_es__possibles__de_l_0_Layer0_0_MEMBER_9_FILL">
<path fill="#D82C26" stroke="none" d="
M 21.75 -2.65
L 21.45 -2.65 21.45 0 21.75 0 21.75 -2.65
M 21.45 -3.55
L 21.6 -3.45 21.75 -3.55 21.85 -3.7 21.75 -3.85 21.6 -3.95 21.45 -3.85 21.35 -3.7 21.45 -3.55 Z"/>
</g>

<g id="BDM_250x250_FR_psd_Asset_4_V7_2_Tirez_parti_de_toutes__les_analyses_de_donn_es__possibles__de_l_0_Layer0_0_MEMBER_10_FILL">
<path fill="#D82C26" stroke="none" d="
M 25.15 -2.55
Q 24.85 -2.7 24.5 -2.7 24.1 -2.7 23.8 -2.55 23.5 -2.3 23.35 -2.05 23.2 -1.65 23.2 -1.3 23.2 -0.95 23.35 -0.6 23.5 -0.35 23.8 -0.1 24.1 0.05 24.5 0.05 24.85 0.05 25.15 -0.1 25.45 -0.25 25.6 -0.6
L 25.65 0 25.95 0 25.9 -0.65 25.9 -4.35 25.6 -4.25 25.6 -2.05
Q 25.4 -2.4 25.15 -2.55
M 24.55 -2.45
Q 24.9 -2.45 25.1 -2.3 25.25 -2.2 25.45 -1.9 25.6 -1.6 25.6 -1.3 25.6 -1.05 25.45 -0.75 25.25 -0.45 25.1 -0.35 24.9 -0.2 24.55 -0.2 24.25 -0.2 24 -0.35 23.7 -0.55 23.65 -0.75 23.5 -1.05 23.5 -1.3 23.5 -1.6 23.65 -1.9 23.7 -2.1 24 -2.3 24.25 -2.45 24.55 -2.45 Z"/>
</g>

<g id="BDM_250x250_FR_psd_Asset_4_V7_2_Tirez_parti_de_toutes__les_analyses_de_donn_es__possibles__de_l_0_Layer0_0_MEMBER_11_FILL">
<path fill="#D82C26" stroke="none" d="
M 27.8 -2.75
Q 27.5 -2.75 27.1 -2.55 26.85 -2.4 26.65 -2.05 26.45 -1.8 26.45 -1.35 26.45 -1 26.65 -0.6 26.85 -0.2 27.15 -0.1 27.55 0.1 27.8 0.1 28.4 0.1 28.9 -0.25
L 28.8 -0.55 28.4 -0.3
Q 28.2 -0.2 27.85 -0.2 27.55 -0.2 27.3 -0.35 27 -0.55 26.95 -0.75 26.8 -0.95 26.8 -1.3
L 29.05 -1.3 29.05 -1.4
Q 29.05 -1.8 28.9 -2.1 28.75 -2.4 28.45 -2.55 28.05 -2.75 27.8 -2.75
M 27.25 -2.3
Q 27.5 -2.45 27.8 -2.45 28.25 -2.45 28.45 -2.2 28.7 -2 28.7 -1.5
L 26.8 -1.5 26.9 -1.95 27.25 -2.3 Z"/>
</g>

<g id="BDM_250x250_FR_psd_Asset_4_V7_2_Tirez_parti_de_toutes__les_analyses_de_donn_es__possibles__de_l_0_Layer0_0_MEMBER_12_FILL">
<path fill="#D82C26" stroke="none" d="
M 30.05 -2.65
L 30 -2.4 30.5 -2.4 30.5 -0.65
Q 30.5 -0.3 30.65 -0.1 30.8 0.05 31.1 0.05
L 31.4 0 31.65 -0.1 31.6 -0.35 31.2 -0.2 30.9 -0.35
Q 30.8 -0.45 30.8 -0.7
L 30.8 -2.4 31.5 -2.4 31.55 -2.65 30.8 -2.65 30.8 -3.4 30.5 -3.3 30.5 -2.65 30.05 -2.65 Z"/>
</g>

<g id="BDM_250x250_FR_psd_Asset_4_V7_2_Tirez_parti_de_toutes__les_analyses_de_donn_es__possibles__de_l_0_Layer0_0_MEMBER_13_FILL">
<path fill="#D82C26" stroke="none" d="
M 31.95 -0.6
Q 32.15 -0.2 32.45 -0.1 32.85 0.1 33.15 0.1 33.45 0.1 33.85 -0.1 34.1 -0.2 34.4 -0.6 34.55 -0.9 34.55 -1.35 34.55 -1.75 34.4 -2.05 34.1 -2.45 33.85 -2.55 33.45 -2.75 33.15 -2.75 32.85 -2.75 32.45 -2.55 32.15 -2.4 31.95 -2.05 31.75 -1.8 31.75 -1.35 31.75 -0.85 31.95 -0.6
M 32.2 -1.9
Q 32.4 -2.2 32.6 -2.3 32.85 -2.45 33.15 -2.45 33.5 -2.45 33.7 -2.3 33.9 -2.2 34.1 -1.9 34.25 -1.6 34.25 -1.35 34.25 -1.05 34.1 -0.75 33.9 -0.45 33.7 -0.35 33.5 -0.2 33.15 -0.2 32.85 -0.2 32.6 -0.35 32.4 -0.45 32.2 -0.75 32.1 -0.95 32.1 -1.35 32.1 -1.7 32.2 -1.9 Z"/>
</g>

<g id="BDM_250x250_FR_psd_Asset_4_V7_2_Tirez_parti_de_toutes__les_analyses_de_donn_es__possibles__de_l_0_Layer0_0_MEMBER_14_FILL">
<path fill="#D82C26" stroke="none" d="
M 35.1 -1.05
Q 35.1 -0.5 35.3 -0.25 35.55 0.05 36.05 0.05 36.35 0.05 36.65 -0.1 36.95 -0.3 37 -0.55
L 37.05 0 37.4 0 37.35 -0.3 37.35 -2.65 37 -2.65 37 -1.35 36.9 -0.7 36.6 -0.35
Q 36.4 -0.2 36.15 -0.2 35.8 -0.2 35.55 -0.45 35.4 -0.75 35.4 -1.1
L 35.4 -2.65 35.1 -2.65 35.1 -1.05 Z"/>
</g>

<g id="BDM_250x250_FR_psd_Asset_4_V7_2_Tirez_parti_de_toutes__les_analyses_de_donn_es__possibles__de_l_0_Layer0_0_MEMBER_15_FILL">
<path fill="#D82C26" stroke="none" d="
M 38.55 -3.4
L 38.2 -3.3 38.2 -2.65 37.75 -2.65 37.7 -2.4 38.2 -2.4 38.2 -0.65
Q 38.2 -0.3 38.35 -0.1 38.6 0.05 38.8 0.05
L 39.1 0 39.4 -0.1 39.35 -0.35
Q 39.15 -0.2 38.9 -0.2 38.75 -0.2 38.65 -0.35 38.55 -0.4 38.55 -0.7
L 38.55 -2.4 39.2 -2.4 39.3 -2.65 38.55 -2.65 38.55 -3.4 Z"/>
</g>

<g id="BDM_250x250_FR_psd_Asset_4_V7_2_Tirez_parti_de_toutes__les_analyses_de_donn_es__possibles__de_l_0_Layer0_0_MEMBER_16_FILL">
<path fill="#D82C26" stroke="none" d="
M 39.65 -0.6
Q 39.85 -0.2 40.15 -0.1 40.55 0.1 40.85 0.1 41.4 0.1 41.9 -0.25
L 41.85 -0.55 41.4 -0.3
Q 41.25 -0.2 40.85 -0.2 40.55 -0.2 40.3 -0.35 40 -0.55 39.95 -0.75 39.8 -0.95 39.8 -1.3
L 42.05 -1.3 42.05 -1.4
Q 42.05 -1.8 41.9 -2.1 41.75 -2.4 41.45 -2.55 41.05 -2.75 40.8 -2.75 40.5 -2.75 40.1 -2.55 39.85 -2.4 39.65 -2.05 39.45 -1.65 39.45 -1.35 39.45 -1 39.65 -0.6
M 39.9 -1.95
L 40.25 -2.3
Q 40.5 -2.45 40.8 -2.45 41.25 -2.45 41.45 -2.2 41.7 -2 41.7 -1.5
L 39.8 -1.5 39.9 -1.95 Z"/>
</g>

<g id="BDM_250x250_FR_psd_Asset_4_V7_2_Tirez_parti_de_toutes__les_analyses_de_donn_es__possibles__de_l_0_Layer0_0_MEMBER_17_FILL">
<path fill="#D82C26" stroke="none" d="
M 42.45 -0.5
L 42.35 -0.2 42.8 0 43.3 0.05 43.75 0
Q 43.95 -0.05 44.1 -0.3 44.2 -0.4 44.2 -0.7 44.2 -1 44 -1.15 43.85 -1.35 43.4 -1.45
L 42.9 -1.7 42.75 -2
Q 42.75 -2.2 42.9 -2.35 43 -2.45 43.3 -2.45
L 43.7 -2.4 44 -2.2 44.15 -2.45 43.75 -2.65 43.3 -2.75 42.9 -2.65
Q 42.75 -2.6 42.55 -2.4 42.4 -2.25 42.4 -2 42.4 -1.75 42.6 -1.55
L 43.75 -1 43.9 -0.7
Q 43.9 -0.45 43.75 -0.3
L 43.3 -0.2
Q 42.75 -0.2 42.45 -0.5 Z"/>
</g>

<g id="BDM_250x250_FR_psd_Asset_4_V7_2_Tirez_parti_de_toutes__les_analyses_de_donn_es__possibles__de_l_0_Layer0_0_MEMBER_18_FILL">
<path fill="#D82C26" stroke="none" d="
M 0.65 6.35
Q 0.7 6.4 0.95 6.55
L 1.1 6.3 0.9 6.1 0.85 5.85 0.85 2.2 0.55 2.25 0.55 5.9
Q 0.55 6.2 0.65 6.35 Z"/>
</g>

<g id="BDM_250x250_FR_psd_Asset_4_V7_2_Tirez_parti_de_toutes__les_analyses_de_donn_es__possibles__de_l_0_Layer0_0_MEMBER_19_FILL">
<path fill="#D82C26" stroke="none" d="
M 1.4 5.15
Q 1.4 5.5 1.6 5.9 1.75 6.2 2.1 6.4 2.4 6.55 2.75 6.55 3.4 6.55 3.85 6.25
L 3.75 5.95 3.35 6.2 2.8 6.3
Q 2.5 6.3 2.25 6.15 1.95 5.95 1.9 5.75 1.75 5.55 1.75 5.2
L 4 5.2 4 5.1
Q 4 4.7 3.85 4.4 3.7 4.1 3.4 3.95 3 3.75 2.75 3.75 2.45 3.75 2.05 3.95 1.8 4.1 1.6 4.45 1.4 4.7 1.4 5.15
M 1.85 4.55
L 2.2 4.2
Q 2.45 4.05 2.75 4.05 3.2 4.05 3.4 4.3 3.65 4.55 3.65 5
L 1.75 5 1.85 4.55 Z"/>
</g>

<g id="BDM_250x250_FR_psd_Asset_4_V7_2_Tirez_parti_de_toutes__les_analyses_de_donn_es__possibles__de_l_0_Layer0_0_MEMBER_20_FILL">
<path fill="#D82C26" stroke="none" d="
M 5.7 3.85
L 5.25 3.75 4.8 3.85 4.5 4.1
Q 4.35 4.25 4.35 4.5 4.35 4.75 4.55 4.95
L 5.1 5.25
Q 5.4 5.3 5.7 5.5 5.85 5.6 5.85 5.8 5.85 6.05 5.65 6.2
L 5.25 6.3
Q 4.7 6.3 4.4 6
L 4.3 6.3 4.75 6.5 5.25 6.55 5.7 6.5
Q 5.95 6.3 6.05 6.2
L 6.15 5.8
Q 6.15 5.5 5.95 5.35 5.8 5.15 5.35 5 5.2 4.95 4.85 4.8
L 4.7 4.5
Q 4.7 4.25 4.85 4.15 4.95 4.05 5.25 4.05
L 5.65 4.1 5.95 4.3 6.1 4.05 5.7 3.85 Z"/>
</g>

<g id="BDM_250x250_FR_psd_Asset_4_V7_2_Tirez_parti_de_toutes__les_analyses_de_donn_es__possibles__de_l_0_Layer0_0_MEMBER_21_FILL">
<path fill="#D82C26" stroke="none" d="
M 8 4.15
Q 8.15 4.05 8.45 4.05 8.8 4.05 9 4.2 9.2 4.5 9.2 4.75
L 9.2 4.9 8.85 4.9
Q 7.35 4.9 7.35 5.8 7.35 6.25 7.6 6.35 7.8 6.55 8.2 6.55 8.5 6.55 8.8 6.4 9.1 6.2 9.15 6
L 9.2 6 9.2 6.25 9.25 6.5 9.55 6.5 9.5 4.8
Q 9.5 4.3 9.2 4 8.95 3.75 8.45 3.75
L 7.95 3.85
Q 7.7 3.9 7.5 4.1
L 7.6 4.35 8 4.15
M 9.2 5.4
L 9.05 5.85
Q 8.95 6.1 8.75 6.2
L 8.25 6.3
Q 7.95 6.3 7.85 6.2 7.65 6.05 7.65 5.75 7.65 5.15 8.9 5.15
L 9.2 5.15 9.2 5.4 Z"/>
</g>

<g id="BDM_250x250_FR_psd_Asset_4_V7_2_Tirez_parti_de_toutes__les_analyses_de_donn_es__possibles__de_l_0_Layer0_0_MEMBER_22_FILL">
<path fill="#D82C26" stroke="none" d="
M 12.2 4.1
Q 11.95 3.75 11.45 3.75 11.2 3.75 10.9 3.95 10.75 4.05 10.5 4.4
L 10.5 3.85 10.15 3.85 10.2 4.45 10.2 6.5 10.5 6.5 10.5 5.15
Q 10.5 4.8 10.65 4.55 10.75 4.25 10.95 4.2 11.2 4.05 11.4 4.05 11.8 4.05 11.95 4.3 12.1 4.6 12.1 4.95
L 12.1 6.5 12.45 6.5 12.45 4.9
Q 12.45 4.35 12.2 4.1 Z"/>
</g>

<g id="BDM_250x250_FR_psd_Asset_4_V7_2_Tirez_parti_de_toutes__les_analyses_de_donn_es__possibles__de_l_0_Layer0_0_MEMBER_23_FILL">
<path fill="#D82C26" stroke="none" d="
M 14.05 4.05
Q 14.4 4.05 14.6 4.2 14.8 4.4 14.8 4.75
L 14.8 4.9 14.5 4.9
Q 12.95 4.9 12.95 5.8 12.95 6.2 13.2 6.35 13.45 6.55 13.8 6.55 14.1 6.55 14.4 6.4 14.6 6.3 14.8 6
L 14.85 6.25 14.85 6.5 15.15 6.5 15.1 4.8
Q 15.1 4.35 14.85 4 14.5 3.75 14.1 3.75
L 13.55 3.85 13.1 4.1 13.2 4.35 13.6 4.15
Q 13.75 4.05 14.05 4.05
M 14.8 5.4
L 14.7 5.85 14.4 6.2 13.9 6.3
Q 13.55 6.3 13.45 6.2 13.3 6.05 13.3 5.75 13.3 5.15 14.55 5.15
L 14.8 5.15 14.8 5.4 Z"/>
</g>

<g id="BDM_250x250_FR_psd_Asset_4_V7_2_Tirez_parti_de_toutes__les_analyses_de_donn_es__possibles__de_l_0_Layer0_0_MEMBER_24_FILL">
<path fill="#D82C26" stroke="none" d="
M 15.95 6.35
Q 16 6.45 16.25 6.55
L 16.4 6.3 16.2 6.1 16.15 5.85 16.15 2.2 15.8 2.25 15.8 5.9
Q 15.8 6.15 15.95 6.35 Z"/>
</g>

<g id="BDM_250x250_FR_psd_Asset_4_V7_2_Tirez_parti_de_toutes__les_analyses_de_donn_es__possibles__de_l_0_Layer0_0_MEMBER_25_FILL">
<path fill="#D82C26" stroke="none" d="
M 18.95 3.85
L 18.6 3.85 17.8 6.15 16.9 3.85 16.5 3.85 17.65 6.5 17.45 7.05 17.15 7.45 16.7 7.55 16.8 7.85
Q 17.15 7.85 17.35 7.7 17.65 7.4 17.75 7.15
L 18.95 3.85 Z"/>
</g>

<g id="BDM_250x250_FR_psd_Asset_4_V7_2_Tirez_parti_de_toutes__les_analyses_de_donn_es__possibles__de_l_0_Layer0_0_MEMBER_26_FILL">
<path fill="#D82C26" stroke="none" d="
M 20.65 5.8
Q 20.65 6.05 20.5 6.2
L 20.05 6.3
Q 19.6 6.3 19.2 6
L 19.15 6.3 19.55 6.5 20.1 6.55 20.5 6.5
Q 20.75 6.3 20.85 6.2 21 6.05 21 5.8 21 5.55 20.8 5.35 20.6 5.15 20.15 5
L 19.65 4.8 19.5 4.5
Q 19.5 4.25 19.65 4.15 19.75 4.05 20.05 4.05
L 20.45 4.1 20.75 4.3 20.9 4.05 20.55 3.85 20.05 3.75 19.65 3.85 19.3 4.1
Q 19.2 4.2 19.2 4.5 19.2 4.8 19.35 4.95
L 19.95 5.25
Q 20.2 5.3 20.5 5.5 20.65 5.6 20.65 5.8 Z"/>
</g>

<g id="BDM_250x250_FR_psd_Asset_4_V7_2_Tirez_parti_de_toutes__les_analyses_de_donn_es__possibles__de_l_0_Layer0_0_MEMBER_27_FILL">
<path fill="#D82C26" stroke="none" d="
M 22.6 3.75
Q 22.35 3.75 21.95 3.95 21.7 4.1 21.5 4.45 21.3 4.7 21.3 5.15 21.3 5.65 21.5 5.9 21.65 6.15 21.95 6.4 22.25 6.55 22.65 6.55 23.35 6.55 23.7 6.25
L 23.65 5.95 23.25 6.2 22.7 6.3
Q 22.4 6.3 22.15 6.15 21.85 5.95 21.75 5.75
L 21.65 5.2 23.85 5.2 23.9 5.1
Q 23.9 4.7 23.75 4.4 23.6 4.1 23.3 3.95 22.9 3.75 22.6 3.75
M 21.75 4.55
L 22.1 4.2
Q 22.35 4.05 22.6 4.05 23.1 4.05 23.3 4.3 23.55 4.55 23.55 5
L 21.65 5 21.75 4.55 Z"/>
</g>

<g id="BDM_250x250_FR_psd_Asset_4_V7_2_Tirez_parti_de_toutes__les_analyses_de_donn_es__possibles__de_l_0_Layer0_0_MEMBER_28_FILL">
<path fill="#D82C26" stroke="none" d="
M 25.55 5.5
Q 25.75 5.55 25.75 5.8 25.75 6.05 25.55 6.2
L 25.15 6.3
Q 24.65 6.3 24.25 6
L 24.2 6.3 24.6 6.5 25.15 6.55 25.6 6.5
Q 25.85 6.3 25.95 6.2
L 26.05 5.8
Q 26.05 5.5 25.85 5.35 25.75 5.2 25.25 5
L 24.7 4.8 24.55 4.5
Q 24.55 4.25 24.75 4.15 24.85 4.05 25.15 4.05
L 25.55 4.1 25.85 4.3 26 4.05 25.6 3.85 25.15 3.75 24.7 3.85 24.4 4.1
Q 24.25 4.25 24.25 4.5 24.25 4.75 24.45 4.95
L 25 5.25
Q 25.4 5.35 25.55 5.5 Z"/>
</g>

<g id="BDM_250x250_FR_psd_Asset_4_V7_2_Tirez_parti_de_toutes__les_analyses_de_donn_es__possibles__de_l_0_Layer0_0_MEMBER_29_FILL">
<path fill="#D82C26" stroke="none" d="
M 29.95 2.15
L 29.65 2.25 29.65 4.4 29.6 4.4
Q 29.45 4.15 29.2 3.95 28.8 3.75 28.55 3.75 28.25 3.75 27.85 3.95 27.55 4.2 27.4 4.45 27.2 4.95 27.2 5.15 27.2 5.4 27.4 5.9 27.55 6.15 27.85 6.4 28.15 6.55 28.55 6.55 28.9 6.55 29.2 6.4 29.55 6.15 29.65 5.9
L 29.65 6.5 30 6.5 29.95 2.15
M 27.55 5.15
Q 27.55 4.9 27.7 4.6 27.75 4.4 28.05 4.2 28.3 4.05 28.6 4.05 28.95 4.05 29.15 4.2
L 29.5 4.6
Q 29.65 4.9 29.65 5.15 29.65 5.45 29.5 5.75
L 29.15 6.15
Q 28.95 6.3 28.6 6.3 28.3 6.3 28.05 6.15 27.75 5.95 27.7 5.75 27.55 5.45 27.55 5.15 Z"/>
</g>

<g id="BDM_250x250_FR_psd_Asset_4_V7_2_Tirez_parti_de_toutes__les_analyses_de_donn_es__possibles__de_l_0_Layer0_0_MEMBER_30_FILL">
<path fill="#D82C26" stroke="none" d="
M 32.5 3.95
Q 32.1 3.75 31.85 3.75 31.55 3.75 31.15 3.95 30.9 4.1 30.7 4.45 30.5 4.7 30.5 5.15 30.5 5.65 30.7 5.9 30.85 6.15 31.15 6.4
L 31.85 6.55
Q 32.5 6.55 32.95 6.25
L 32.85 5.95 32.45 6.2 31.9 6.3
Q 31.6 6.3 31.35 6.15 31.05 5.95 31 5.75 30.85 5.55 30.85 5.2
L 33.1 5.2 33.1 5.1
Q 33.1 4.7 32.95 4.4 32.8 4.1 32.5 3.95
M 31.85 4.05
Q 32.3 4.05 32.5 4.3 32.75 4.55 32.75 5
L 30.85 5 30.95 4.55 31.3 4.2
Q 31.55 4.05 31.85 4.05 Z"/>
</g>

<g id="BDM_250x250_FR_psd_Asset_4_V7_2_Tirez_parti_de_toutes__les_analyses_de_donn_es__possibles__de_l_0_Layer0_0_MEMBER_31_FILL">
<path fill="#D82C26" stroke="none" d="
M 37 2.15
L 36.7 2.25 36.7 4.4
Q 36.55 4.1 36.25 3.95 35.85 3.75 35.6 3.75 35.3 3.75 34.9 3.95 34.6 4.2 34.45 4.45 34.3 4.85 34.3 5.15 34.3 5.55 34.45 5.9 34.6 6.15 34.9 6.4 35.2 6.55 35.6 6.55 35.95 6.55 36.25 6.4 36.55 6.25 36.7 5.9
L 36.75 6.5 37.05 6.5 37 2.15
M 36.55 5.75
Q 36.5 5.95 36.2 6.15 36 6.3 35.65 6.3 35.35 6.3 35.1 6.15 34.95 6.05 34.75 5.75 34.6 5.45 34.6 5.15 34.6 4.9 34.75 4.6 34.95 4.3 35.1 4.2 35.35 4.05 35.65 4.05 36 4.05 36.2 4.2 36.5 4.4 36.55 4.6 36.7 4.9 36.7 5.15 36.7 5.45 36.55 5.75 Z"/>
</g>

<g id="BDM_250x250_FR_psd_Asset_4_V7_2_Tirez_parti_de_toutes__les_analyses_de_donn_es__possibles__de_l_0_Layer0_0_MEMBER_32_FILL">
<path fill="#D82C26" stroke="none" d="
M 37.75 4.45
Q 37.55 4.85 37.55 5.15 37.55 5.5 37.75 5.9 37.85 6.1 38.25 6.4 38.55 6.55 38.95 6.55 39.4 6.55 39.7 6.4 40.1 6.1 40.2 5.9 40.4 5.5 40.4 5.15 40.4 4.85 40.2 4.45 40.05 4.1 39.7 3.95 39.3 3.75 38.95 3.75 38.65 3.75 38.25 3.95 37.9 4.1 37.75 4.45
M 39.55 4.2
Q 39.85 4.4 39.9 4.6 40.05 4.85 40.05 5.15 40.05 5.45 39.9 5.75 39.85 5.95 39.55 6.15 39.35 6.3 38.95 6.3 38.65 6.3 38.4 6.15 38.1 5.95 38.05 5.75 37.9 5.45 37.9 5.15 37.9 4.85 38.05 4.6 38.1 4.4 38.4 4.2 38.65 4.05 38.95 4.05 39.35 4.05 39.55 4.2 Z"/>
</g>

<g id="BDM_250x250_FR_psd_Asset_4_V7_2_Tirez_parti_de_toutes__les_analyses_de_donn_es__possibles__de_l_0_Layer0_0_MEMBER_33_FILL">
<path fill="#D82C26" stroke="none" d="
M 42.95 4.1
Q 42.7 3.75 42.2 3.75 41.95 3.75 41.65 3.95 41.5 4.05 41.25 4.4
L 41.2 3.85 40.9 3.85 40.95 4.45 40.95 6.5 41.25 6.5 41.25 5.15
Q 41.25 4.8 41.4 4.55 41.5 4.25 41.7 4.2 41.95 4.05 42.15 4.05 42.55 4.05 42.7 4.3 42.85 4.6 42.85 4.95
L 42.85 6.5 43.2 6.5 43.2 4.9
Q 43.2 4.45 42.95 4.1 Z"/>
</g>

<g id="BDM_250x250_FR_psd_Asset_4_V7_2_Tirez_parti_de_toutes__les_analyses_de_donn_es__possibles__de_l_0_Layer0_0_MEMBER_34_FILL">
<path fill="#D82C26" stroke="none" d="
M 46.15 4.9
Q 46.15 4.35 45.95 4.1 45.6 3.75 45.2 3.75 45 3.75 44.6 3.95 44.35 4.1 44.25 4.4
L 44.2 4.4 44.2 3.85 43.9 3.85 43.9 6.5 44.25 6.5 44.25 5.15 44.35 4.55 44.65 4.2
Q 44.9 4.05 45.1 4.05 45.5 4.05 45.65 4.3 45.85 4.55 45.85 4.95
L 45.85 6.5 46.15 6.5 46.15 4.9 Z"/>
</g>

<g id="BDM_250x250_FR_psd_Asset_4_V7_2_Tirez_parti_de_toutes__les_analyses_de_donn_es__possibles__de_l_0_Layer0_0_MEMBER_35_FILL">
<path fill="#D82C26" stroke="none" d="
M 47.35 3.95
Q 47.15 4.05 46.85 4.45 46.7 4.75 46.7 5.15 46.7 5.65 46.9 5.9 47.05 6.15 47.35 6.4 47.65 6.55 48.05 6.55 48.65 6.55 49.1 6.25
L 49.05 5.95 48.65 6.2 48.1 6.3
Q 47.8 6.3 47.55 6.15 47.25 5.95 47.15 5.75 47.15 5.7 47 5.2
L 49.25 5.2 49.25 5.1 49.15 4.4
Q 49 4.1 48.7 3.95 48.3 3.75 48 3.75 47.75 3.75 47.35 3.95
M 47.15 4.55
L 47.5 4.2
Q 47.75 4.05 48 4.05 48.45 4.05 48.7 4.3 48.95 4.55 48.95 5
L 47.05 5 47.15 4.55
M 48.75 2.5
L 48.35 2.5 47.8 3.3 48.05 3.3 48.75 2.5 Z"/>
</g>

<g id="BDM_250x250_FR_psd_Asset_4_V7_2_Tirez_parti_de_toutes__les_analyses_de_donn_es__possibles__de_l_0_Layer0_0_MEMBER_36_FILL">
<path fill="#D82C26" stroke="none" d="
M 52.2 5.2
L 52.2 5.1
Q 52.2 4.7 52.05 4.4 52 4.1 51.65 3.95 51.25 3.75 50.95 3.75 50.7 3.75 50.3 3.95 50.1 4.05 49.8 4.45 49.65 4.75 49.65 5.15 49.65 5.6 49.8 5.9
L 50.3 6.4
Q 50.6 6.55 51 6.55 51.6 6.55 52.05 6.25
L 52 5.95 51.6 6.2 51.05 6.3
Q 50.75 6.3 50.5 6.15 50.2 5.95 50.1 5.75 50.1 5.7 49.95 5.2
L 52.2 5.2
M 51.65 4.3
Q 51.9 4.55 51.9 5
L 50 5 50.1 4.55 50.45 4.2
Q 50.7 4.05 50.95 4.05 51.4 4.05 51.65 4.3 Z"/>
</g>

<g id="BDM_250x250_FR_psd_Asset_4_V7_2_Tirez_parti_de_toutes__les_analyses_de_donn_es__possibles__de_l_0_Layer0_0_MEMBER_37_FILL">
<path fill="#D82C26" stroke="none" d="
M 52.6 4.5
Q 52.6 4.8 52.8 4.95
L 53.35 5.25
Q 53.75 5.35 53.9 5.5 54.1 5.55 54.1 5.8 54.1 6 53.9 6.2
L 53.5 6.3
Q 53 6.3 52.6 6
L 52.55 6.3 52.95 6.5 53.5 6.55 53.95 6.5
Q 54.2 6.35 54.25 6.2 54.4 6.05 54.4 5.8 54.4 5.5 54.2 5.35 54 5.15 53.6 5
L 53.05 4.8 52.9 4.5
Q 52.9 4.2 53.1 4.15 53.2 4.05 53.5 4.05
L 53.85 4.1 54.2 4.3 54.3 4.05 53.95 3.85 53.5 3.75 53.05 3.85
Q 52.85 3.9 52.75 4.1 52.6 4.25 52.6 4.5 Z"/>
</g>

<g id="BDM_250x250_FR_psd_Asset_4_V7_2_Tirez_parti_de_toutes__les_analyses_de_donn_es__possibles__de_l_0_Layer0_0_MEMBER_38_FILL">
<path fill="#D82C26" stroke="none" d="
M 1.95 10.25
Q 1.7 10.25 1.3 10.45 1 10.6 0.85 10.9
L 0.8 10.35 0.5 10.35 0.5 14.35 0.85 14.35 0.85 12.45
Q 1 12.75 1.3 12.9 1.6 13.05 1.95 13.05 2.35 13.05 2.65 12.9 2.95 12.65 3.1 12.4 3.25 12.05 3.25 11.65 3.25 11.25 3.1 10.95 2.9 10.6 2.65 10.45 2.25 10.25 1.95 10.25
M 1.9 10.55
Q 2.25 10.55 2.45 10.7
L 2.8 11.1
Q 2.95 11.4 2.95 11.65 2.95 11.95 2.8 12.25
L 2.45 12.65
Q 2.25 12.8 1.9 12.8 1.6 12.8 1.35 12.65 1.05 12.45 1 12.25 0.85 11.95 0.85 11.65 0.85 11.4 1 11.1 1.05 10.9 1.35 10.7 1.6 10.55 1.9 10.55 Z"/>
</g>

<g id="BDM_250x250_FR_psd_Asset_4_V7_2_Tirez_parti_de_toutes__les_analyses_de_donn_es__possibles__de_l_0_Layer0_0_MEMBER_39_FILL">
<path fill="#D82C26" stroke="none" d="
M 5.05 10.25
Q 4.6 10.25 4.35 10.45 4.1 10.55 3.8 10.95 3.65 11.25 3.65 11.65 3.65 12.05 3.8 12.4 4.05 12.7 4.35 12.9 4.65 13.05 5.05 13.05 5.45 13.05 5.75 12.9 6.05 12.7 6.3 12.4 6.45 12.05 6.45 11.65 6.45 11.25 6.3 10.95 6 10.55 5.75 10.45 5.5 10.25 5.05 10.25
M 4.5 10.7
Q 4.75 10.55 5.05 10.55 5.4 10.55 5.6 10.7 5.8 10.8 6 11.1 6.15 11.35 6.15 11.65 6.15 11.95 6 12.25 5.8 12.55 5.6 12.65 5.4 12.8 5.05 12.8 4.75 12.8 4.5 12.65 4.3 12.55 4.1 12.25 3.95 11.95 3.95 11.65 3.95 11.35 4.1 11.1 4.3 10.8 4.5 10.7 Z"/>
</g>

<g id="BDM_250x250_FR_psd_Asset_4_V7_2_Tirez_parti_de_toutes__les_analyses_de_donn_es__possibles__de_l_0_Layer0_0_MEMBER_40_FILL">
<path fill="#D82C26" stroke="none" d="
M 6.85 11
Q 6.85 11.3 7 11.45
L 7.6 11.75
Q 8 11.85 8.15 12 8.3 12.1 8.3 12.3 8.3 12.6 8.15 12.65 7.95 12.8 7.7 12.8 7.25 12.8 6.85 12.5
L 6.8 12.75 7.2 13 7.75 13.05 8.15 13
Q 8.4 12.8 8.5 12.7 8.65 12.55 8.65 12.3 8.65 12.05 8.45 11.85 8.25 11.65 7.8 11.5
L 7.3 11.3
Q 7.15 11.15 7.15 10.95 7.15 10.75 7.3 10.65 7.4 10.55 7.7 10.55
L 8.1 10.6 8.4 10.8 8.55 10.55 8.2 10.35 7.7 10.25 7.3 10.35
Q 7.15 10.4 6.95 10.6
L 6.85 11 Z"/>
</g>

<g id="BDM_250x250_FR_psd_Asset_4_V7_2_Tirez_parti_de_toutes__les_analyses_de_donn_es__possibles__de_l_0_Layer0_0_MEMBER_41_FILL">
<path fill="#D82C26" stroke="none" d="
M 10.3 12
Q 10.5 12.05 10.5 12.3 10.5 12.6 10.3 12.65 10.15 12.8 9.9 12.8 9.4 12.8 9 12.5
L 8.95 12.75 9.35 13 9.9 13.05 10.35 13 10.7 12.7 10.8 12.3
Q 10.8 12 10.6 11.85 10.5 11.7 10 11.5
L 9.45 11.3
Q 9.3 11.15 9.3 10.95 9.3 10.75 9.5 10.65 9.6 10.55 9.9 10.55
L 10.25 10.6 10.6 10.8 10.75 10.55 10.35 10.35 9.9 10.25 9.45 10.35 9.15 10.6
Q 9 10.75 9 11 9 11.3 9.2 11.45
L 9.75 11.75
Q 10.15 11.85 10.3 12 Z"/>
</g>

<g id="BDM_250x250_FR_psd_Asset_4_V7_2_Tirez_parti_de_toutes__les_analyses_de_donn_es__possibles__de_l_0_Layer0_0_MEMBER_42_FILL">
<path fill="#D82C26" stroke="none" d="
M 11.65 10.35
L 11.3 10.35 11.3 13 11.65 13 11.65 10.35
M 11.45 9.05
L 11.3 9.1 11.25 9.3 11.3 9.45 11.45 9.55 11.65 9.45 11.7 9.3 11.65 9.1 11.45 9.05 Z"/>
</g>

<g id="BDM_250x250_FR_psd_Asset_4_V7_2_Tirez_parti_de_toutes__les_analyses_de_donn_es__possibles__de_l_0_Layer0_0_MEMBER_43_FILL">
<path fill="#D82C26" stroke="none" d="
M 13.8 10.25
Q 13.55 10.25 13.15 10.45 12.85 10.6 12.7 10.9
L 12.7 8.65 12.35 8.7 12.35 13 12.65 13 12.7 12.4
Q 12.9 12.75 13.15 12.9 13.45 13.05 13.8 13.05 14.15 13.05 14.45 12.9 14.85 12.6 14.95 12.4 15.1 12.05 15.1 11.65 15.1 11.25 14.95 10.95 14.75 10.6 14.5 10.45 14.1 10.25 13.8 10.25
M 13.2 10.7
Q 13.45 10.55 13.75 10.55 14.1 10.55 14.3 10.7
L 14.65 11.1
Q 14.8 11.4 14.8 11.65 14.8 11.95 14.65 12.25
L 14.3 12.65
Q 14.1 12.8 13.75 12.8 13.45 12.8 13.2 12.65 12.9 12.45 12.85 12.25 12.7 11.95 12.7 11.65 12.7 11.4 12.85 11.1 12.9 10.9 13.2 10.7 Z"/>
</g>

<g id="BDM_250x250_FR_psd_Asset_4_V7_2_Tirez_parti_de_toutes__les_analyses_de_donn_es__possibles__de_l_0_Layer0_0_MEMBER_44_FILL">
<path fill="#D82C26" stroke="none" d="
M 15.8 12.8
Q 15.85 12.95 16.1 13.05
L 16.25 12.8 16.05 12.6 16 12.35 16 8.7 15.65 8.75 15.65 12.4
Q 15.65 12.65 15.8 12.8 Z"/>
</g>

<g id="BDM_250x250_FR_psd_Asset_4_V7_2_Tirez_parti_de_toutes__les_analyses_de_donn_es__possibles__de_l_0_Layer0_0_MEMBER_45_FILL">
<path fill="#D82C26" stroke="none" d="
M 16.75 10.95
Q 16.55 11.2 16.55 11.65 16.55 12.05 16.75 12.4 16.9 12.65 17.2 12.9 17.5 13.05 17.9 13.05 18.6 13.05 18.95 12.75
L 18.9 12.45 18.5 12.7 17.95 12.8
Q 17.65 12.8 17.4 12.65
L 17 12.25 16.9 11.7 19.1 11.7 19.15 11.55
Q 19.15 11.2 19 10.9 18.85 10.6 18.55 10.45 18.3 10.25 17.85 10.25 17.45 10.25 17.2 10.45 16.9 10.6 16.75 10.95
M 17 11.05
L 17.35 10.65
Q 17.6 10.5 17.85 10.5 18.35 10.5 18.55 10.8 18.8 11.05 18.8 11.45
L 16.9 11.45 17 11.05 Z"/>
</g>

<g id="BDM_250x250_FR_psd_Asset_4_V7_2_Tirez_parti_de_toutes__les_analyses_de_donn_es__possibles__de_l_0_Layer0_0_MEMBER_46_FILL">
<path fill="#D82C26" stroke="none" d="
M 21.25 10.55
L 20.85 10.35 20.4 10.25 19.95 10.35 19.65 10.6
Q 19.5 10.75 19.5 11 19.5 11.25 19.7 11.45
L 20.25 11.75
Q 20.65 11.85 20.8 12 21 12.05 21 12.3 21 12.6 20.8 12.65 20.65 12.8 20.4 12.8 19.9 12.8 19.5 12.5
L 19.45 12.75 19.85 13 20.4 13.05 20.85 13 21.2 12.7 21.3 12.3
Q 21.3 12 21.1 11.85 21 11.7 20.5 11.5
L 19.95 11.3
Q 19.8 11.15 19.8 10.95 19.8 10.75 20 10.65 20.1 10.55 20.4 10.55
L 20.8 10.6 21.1 10.8 21.25 10.55 Z"/>
</g>

<g id="BDM_250x250_FR_psd_Asset_4_V7_2_Tirez_parti_de_toutes__les_analyses_de_donn_es__possibles__de_l_0_Layer0_0_MEMBER_47_FILL">
<path fill="#D82C26" stroke="none" d="
M 22.35 12.7
L 22.25 12.45 22.1 12.4 21.9 12.45 21.85 12.65 21.9 12.8 22.05 12.9 21.95 13.25 21.7 13.55 21.8 13.65
Q 22.35 13.2 22.35 12.7 Z"/>
</g>

<g id="BDM_250x250_FR_psd_Asset_4_V7_2_Tirez_parti_de_toutes__les_analyses_de_donn_es__possibles__de_l_0_Layer0_0_MEMBER_48_FILL">
<path fill="#D82C26" stroke="none" d="
M 25 10.25
Q 24.7 10.25 24.3 10.45 24.05 10.6 23.85 10.95 23.65 11.35 23.65 11.65 23.65 11.9 23.85 12.4 24 12.65 24.3 12.9 24.6 13.05 25 13.05 25.35 13.05 25.65 12.9 25.9 12.75 26.1 12.4
L 26.15 13 26.45 13 26.4 8.65 26.1 8.7 26.1 10.9 25.65 10.45
Q 25.25 10.25 25 10.25
M 24.5 10.7
Q 24.75 10.55 25.05 10.55 25.4 10.55 25.6 10.7
L 25.95 11.1
Q 26.1 11.4 26.1 11.65 26.1 11.95 25.95 12.25
L 25.6 12.65
Q 25.4 12.8 25.05 12.8 24.75 12.8 24.5 12.65 24.2 12.45 24.15 12.25 24 11.95 24 11.65 24 11.4 24.15 11.1 24.2 10.9 24.5 10.7 Z"/>
</g>

<g id="BDM_250x250_FR_psd_Asset_4_V7_2_Tirez_parti_de_toutes__les_analyses_de_donn_es__possibles__de_l_0_Layer0_0_MEMBER_49_FILL">
<path fill="#D82C26" stroke="none" d="
M 27.15 10.95
Q 26.95 11.2 26.95 11.65 26.95 11.9 27.15 12.4 27.3 12.7 27.65 12.9 27.95 13.05 28.3 13.05 28.95 13.05 29.4 12.75
L 29.3 12.45 28.9 12.7 28.35 12.8
Q 28.05 12.8 27.8 12.65 27.5 12.45 27.45 12.25 27.3 12.05 27.3 11.7
L 29.55 11.7 29.55 11.55
Q 29.55 11.2 29.4 10.9 29.25 10.6 28.95 10.45 28.7 10.25 28.3 10.25 27.85 10.25 27.6 10.45 27.3 10.6 27.15 10.95
M 27.4 11.05
Q 27.6 10.75 27.75 10.65 28 10.5 28.3 10.5 28.75 10.5 28.95 10.8 29.2 11 29.2 11.45
L 27.3 11.45 27.4 11.05 Z"/>
</g>

<g id="BDM_250x250_FR_psd_Asset_4_V7_2_Tirez_parti_de_toutes__les_analyses_de_donn_es__possibles__de_l_0_Layer0_0_MEMBER_50_FILL">
<path fill="#D82C26" stroke="none" d="
M 31.05 12.8
Q 31.15 12.95 31.35 13.05
L 31.55 12.8
Q 31.35 12.7 31.35 12.6
L 31.3 12.35 31.3 8.7 30.95 8.75 30.95 12.4
Q 30.95 12.6 31.05 12.8 Z"/>
</g>

<g id="BDM_250x250_FR_psd_Asset_4_V7_2_Tirez_parti_de_toutes__les_analyses_de_donn_es__possibles__de_l_0_Layer0_0_MEMBER_51_FILL">
<path fill="#D82C26" stroke="none" d="
M 32.6 9.1
Q 32.55 9 32.45 9
L 32.25 9.05 32.2 9.25
Q 32.2 9.4 32.25 9.4
L 32.4 9.5 32.3 9.85 32.05 10.2 32.15 10.25
Q 32.7 9.8 32.7 9.3
L 32.6 9.1 Z"/>
</g>

<g id="BDM_250x250_FR_psd_Asset_4_V7_2_Tirez_parti_de_toutes__les_analyses_de_donn_es__possibles__de_l_0_Layer0_0_MEMBER_52_FILL">
<path fill="#D82C26" stroke="none" d="
M 33.95 10.25
L 33.4 10.35 32.95 10.6 33.05 10.85 33.45 10.6 33.9 10.55
Q 34.25 10.55 34.45 10.7 34.65 10.9 34.65 11.25
L 34.65 11.4 34.3 11.4
Q 32.8 11.4 32.8 12.3 32.8 12.7 33.05 12.85 33.25 13.05 33.65 13.05 33.95 13.05 34.25 12.9 34.45 12.8 34.65 12.5
L 34.65 12.75 34.7 13 35 13 34.95 11.25
Q 34.95 10.85 34.7 10.5 34.35 10.25 33.95 10.25
M 34.65 11.9
L 34.55 12.3 34.25 12.7 33.7 12.8 33.3 12.7
Q 33.15 12.55 33.15 12.25 33.15 11.6 34.35 11.6
L 34.65 11.6 34.65 11.9 Z"/>
</g>

<g id="BDM_250x250_FR_psd_Asset_4_V7_2_Tirez_parti_de_toutes__les_analyses_de_donn_es__possibles__de_l_0_Layer0_0_MEMBER_53_FILL">
<path fill="#D82C26" stroke="none" d="
M 36.85 10.55
L 37.3 10.6 37.65 10.85 37.75 10.6
Q 37.55 10.4 37.35 10.35
L 36.85 10.25
Q 36.4 10.25 36.15 10.45 35.95 10.55 35.65 10.95 35.5 11.25 35.5 11.65 35.5 12.1 35.65 12.4 35.75 12.6 36.15 12.9 36.45 13.05 36.85 13.05
L 37.35 13 37.75 12.75 37.7 12.45 37.35 12.7 36.9 12.8
Q 36.6 12.8 36.3 12.65
L 35.95 12.25
Q 35.8 11.95 35.8 11.65 35.8 11.4 35.95 11.1
L 36.3 10.7
Q 36.6 10.55 36.85 10.55 Z"/>
</g>

<g id="BDM_250x250_FR_psd_Asset_4_V7_2_Tirez_parti_de_toutes__les_analyses_de_donn_es__possibles__de_l_0_Layer0_0_MEMBER_54_FILL">
<path fill="#D82C26" stroke="none" d="
M 38.5 8.7
L 38.15 8.75 38.15 13 38.5 13 38.5 11.7 38.6 11.1
Q 38.75 10.75 38.95 10.7 39.1 10.55 39.35 10.55 39.7 10.55 39.95 10.8 40.1 11.1 40.1 11.45
L 40.1 13 40.4 13 40.4 11.4
Q 40.4 10.85 40.2 10.6 40 10.25 39.45 10.25 39.2 10.25 38.9 10.45 38.65 10.55 38.5 10.9
L 38.5 8.7 Z"/>
</g>

<g id="BDM_250x250_FR_psd_Asset_4_V7_2_Tirez_parti_de_toutes__les_analyses_de_donn_es__possibles__de_l_0_Layer0_0_MEMBER_55_FILL">
<path fill="#D82C26" stroke="none" d="
M 42.8 10.5
Q 42.55 10.25 42.05 10.25
L 41.55 10.35
Q 41.3 10.4 41.1 10.6
L 41.2 10.85 41.55 10.6 42 10.55
Q 42.4 10.55 42.55 10.7 42.75 10.9 42.75 11.25
L 42.75 11.4 42.45 11.4
Q 40.95 11.4 40.95 12.3 40.95 12.75 41.2 12.85 41.4 13.05 41.8 13.05 42.1 13.05 42.4 12.9 42.7 12.7 42.75 12.5
L 42.8 12.5 42.8 12.75 42.85 13 43.15 13 43.1 11.25
Q 43.1 10.8 42.8 10.5
M 42.75 11.9
Q 42.75 12.2 42.65 12.3 42.55 12.55 42.35 12.7
L 41.85 12.8 41.45 12.7
Q 41.25 12.55 41.25 12.25 41.25 11.6 42.5 11.6
L 42.75 11.6 42.75 11.9 Z"/>
</g>

<g id="BDM_250x250_FR_psd_Asset_4_V7_2_Tirez_parti_de_toutes__les_analyses_de_donn_es__possibles__de_l_0_Layer0_0_MEMBER_56_FILL">
<path fill="#D82C26" stroke="none" d="
M 43.9 12.8
Q 44 12.95 44.2 13.05
L 44.35 12.8 44.15 12.6 44.1 12.35 44.1 8.7 43.8 8.75 43.8 12.4
Q 43.8 12.7 43.9 12.8 Z"/>
</g>

<g id="BDM_250x250_FR_psd_Asset_4_V7_2_Tirez_parti_de_toutes__les_analyses_de_donn_es__possibles__de_l_0_Layer0_0_MEMBER_57_FILL">
<path fill="#D82C26" stroke="none" d="
M 45.3 10.35
Q 45.05 10.4 44.85 10.6
L 44.95 10.85 45.3 10.6 45.75 10.55
Q 46.15 10.55 46.3 10.7 46.5 10.9 46.5 11.25
L 46.5 11.4 46.2 11.4
Q 44.7 11.4 44.7 12.3 44.7 12.75 44.95 12.85 45.15 13.05 45.55 13.05 45.9 13.05 46.1 12.9 46.4 12.75 46.5 12.5
L 46.55 12.5 46.55 13 46.9 13 46.85 11.25
Q 46.85 10.8 46.55 10.5 46.3 10.25 45.8 10.25
L 45.3 10.35
M 46.5 11.9
Q 46.5 12.2 46.4 12.3 46.3 12.55 46.1 12.7
L 45.6 12.8 45.15 12.7
Q 45 12.55 45 12.25 45 11.6 46.25 11.6
L 46.5 11.6 46.5 11.9 Z"/>
</g>

<g id="BDM_250x250_FR_psd_Asset_4_V7_2_Tirez_parti_de_toutes__les_analyses_de_donn_es__possibles__de_l_0_Layer0_0_MEMBER_58_FILL">
<path fill="#D82C26" stroke="none" d="
M 47.5 10.35
L 47.55 10.95 47.55 13 47.85 13 47.85 11.65
Q 47.85 11.3 48 11.05 48.1 10.75 48.3 10.7 48.55 10.55 48.75 10.55 49.15 10.55 49.3 10.8 49.45 11.1 49.45 11.45
L 49.45 13 49.8 13 49.8 11.4
Q 49.8 10.95 49.55 10.6 49.35 10.25 48.8 10.25 48.55 10.25 48.25 10.45 48 10.55 47.85 10.9
L 47.8 10.35 47.5 10.35 Z"/>
</g>

<g id="BDM_250x250_FR_psd_Asset_4_V7_2_Tirez_parti_de_toutes__les_analyses_de_donn_es__possibles__de_l_0_Layer0_0_MEMBER_59_FILL">
<path fill="#D82C26" stroke="none" d="
M 53.05 8.65
L 52.75 8.7 52.75 10.9
Q 52.6 10.6 52.3 10.45 51.9 10.25 51.65 10.25 51.35 10.25 50.95 10.45 50.7 10.6 50.5 10.95 50.35 11.25 50.35 11.65 50.35 12.05 50.5 12.4 50.65 12.65 50.95 12.9 51.25 13.05 51.65 13.05 52 13.05 52.3 12.9 52.55 12.75 52.75 12.4
L 52.8 13 53.1 13 53.05 8.65
M 51.15 10.7
Q 51.4 10.55 51.7 10.55 52.05 10.55 52.25 10.7 52.55 10.9 52.6 11.1 52.75 11.4 52.75 11.65 52.75 11.95 52.6 12.25 52.55 12.45 52.25 12.65 52.05 12.8 51.7 12.8 51.4 12.8 51.15 12.65
L 50.8 12.25
Q 50.65 11.95 50.65 11.65 50.65 11.4 50.8 11.1
L 51.15 10.7 Z"/>
</g>

<g id="BDM_250x250_FR_psd_Asset_4_V7_2_Tirez_parti_de_toutes__les_analyses_de_donn_es__possibles__de_l_0_Layer0_0_MEMBER_60_FILL">
<path fill="#D82C26" stroke="none" d="
M 55.5 10.5
Q 55.15 10.25 54.75 10.25
L 54.2 10.35 53.75 10.6 53.85 10.85 54.25 10.6 54.7 10.55
Q 55.05 10.55 55.25 10.7 55.45 10.9 55.45 11.25
L 55.45 11.4 55.15 11.4
Q 53.6 11.4 53.6 12.3 53.6 12.7 53.85 12.85 54.1 13.05 54.45 13.05 54.75 13.05 55.05 12.9 55.25 12.8 55.45 12.5
L 55.45 12.75 55.5 13 55.8 13 55.75 11.25
Q 55.75 10.85 55.5 10.5
M 55.45 11.9
L 55.35 12.3 55.05 12.7 54.5 12.8 54.1 12.7
Q 53.95 12.55 53.95 12.25 53.95 11.6 55.15 11.6
L 55.45 11.6 55.45 11.9 Z"/>
</g>

<g id="BDM_250x250_FR_psd_Asset_4_V7_2_Tirez_parti_de_toutes__les_analyses_de_donn_es__possibles__de_l_0_Layer0_0_MEMBER_61_FILL">
<path fill="#D82C26" stroke="none" d="
M 56.45 10.95
Q 56.3 11.25 56.3 11.65 56.3 12.05 56.45 12.35 56.6 12.7 56.9 12.85 57.15 13.05 57.6 13.05 58 13.05 58.25 12.85 58.55 12.7 58.7 12.4
L 58.7 12.95
Q 58.7 13.45 58.45 13.8 58.15 14.1 57.6 14.1
L 57.05 14 56.5 13.75 56.45 14.05 57 14.3 57.6 14.4
Q 58.3 14.4 58.7 14 59 13.65 59 12.95
L 59 10.95 59.05 10.35 58.75 10.35 58.7 10.95
Q 58.55 10.6 58.25 10.45 57.85 10.25 57.6 10.25 57.3 10.25 56.9 10.45 56.6 10.7 56.45 10.95
M 57.1 10.7
Q 57.35 10.55 57.65 10.55 58 10.55 58.2 10.7 58.5 10.9 58.55 11.1 58.7 11.35 58.7 11.65 58.7 12 58.55 12.2 58.5 12.4 58.2 12.6 58 12.75 57.65 12.75 57.35 12.75 57.1 12.6 56.8 12.4 56.75 12.2 56.6 12 56.6 11.65 56.6 11.35 56.75 11.1 56.8 10.9 57.1 10.7 Z"/>
</g>

<g id="BDM_250x250_FR_psd_Asset_4_V7_2_Tirez_parti_de_toutes__les_analyses_de_donn_es__possibles__de_l_0_Layer0_0_MEMBER_62_FILL">
<path fill="#D82C26" stroke="none" d="
M 62.15 11.7
L 62.15 11.55
Q 62.15 11.2 62 10.9 61.85 10.6 61.55 10.45 61.3 10.25 60.85 10.25 60.45 10.25 60.2 10.45 59.9 10.6 59.75 10.95 59.55 11.2 59.55 11.65 59.55 12.05 59.75 12.4 59.9 12.65 60.2 12.9 60.6 13.05 60.9 13.05 61.55 13.05 62 12.75
L 61.9 12.45 61.5 12.7 60.95 12.8
Q 60.65 12.8 60.4 12.65 60.1 12.45 60.05 12.25 59.9 12.05 59.9 11.7
L 62.15 11.7
M 61.55 10.8
Q 61.8 11.05 61.8 11.45
L 59.9 11.45 60 11.05 60.35 10.65
Q 60.6 10.5 60.85 10.5 61.35 10.5 61.55 10.8 Z"/>
</g>

<g id="BDM_250x250_FR_psd_Asset_4_V7_2_Tirez_parti_de_toutes__les_analyses_de_donn_es__possibles__de_l_0_Layer0_0_MEMBER_63_FILL">
<path fill="#D82C26" stroke="none" d="
M 2.3 16.95
Q 2.05 16.75 1.65 16.75 1.2 16.75 0.95 16.95 0.65 17.1 0.5 17.45 0.3 17.7 0.3 18.15 0.3 18.55 0.5 18.9 0.65 19.15 0.95 19.4 1.35 19.55 1.65 19.55 2.3 19.55 2.75 19.25
L 2.65 18.95 2.25 19.2 1.7 19.3
Q 1.4 19.3 1.15 19.15 0.85 18.95 0.8 18.75 0.65 18.55 0.65 18.2
L 2.9 18.2 2.9 18.05
Q 2.9 17.7 2.75 17.4 2.6 17.1 2.3 16.95
M 1.65 17
Q 2.1 17 2.3 17.3 2.55 17.55 2.55 17.95
L 0.65 17.95 0.75 17.55 1.1 17.15
Q 1.35 17 1.65 17 Z"/>
</g>

<g id="BDM_250x250_FR_psd_Asset_4_V7_2_Tirez_parti_de_toutes__les_analyses_de_donn_es__possibles__de_l_0_Layer0_0_MEMBER_64_FILL">
<path fill="#D82C26" stroke="none" d="
M 5.7 17.85
Q 5.7 17.45 5.45 17.1 5.25 16.75 4.7 16.75 4.35 16.75 4.15 16.95 3.9 17.05 3.75 17.4
L 3.7 16.85 3.4 16.85 3.45 17.45 3.45 19.5 3.75 19.5 3.75 18.15
Q 3.75 17.8 3.9 17.55 4 17.3 4.2 17.15
L 4.65 17.05
Q 5.05 17.05 5.2 17.3 5.35 17.6 5.35 17.95
L 5.35 19.5 5.7 19.5 5.7 17.85 Z"/>
</g>

<g id="BDM_250x250_FR_psd_Asset_4_V7_2_Tirez_parti_de_toutes__les_analyses_de_donn_es__possibles__de_l_0_Layer0_0_MEMBER_65_FILL">
<path fill="#D82C26" stroke="none" d="
M 7.25 16.85
L 7.3 17.45 7.3 19.5 7.6 19.5 7.6 18.15
Q 7.6 17.85 7.75 17.55 7.85 17.3 8.05 17.15
L 8.45 17.05
Q 8.8 17.05 8.95 17.25 9.1 17.5 9.1 17.9
L 9.1 19.5 9.45 19.5 9.45 18.1
Q 9.45 17.7 9.7 17.35 9.95 17.05 10.3 17.05 10.65 17.05 10.8 17.3 11 17.55 11 18
L 11 19.5 11.3 19.5 11.3 17.9
Q 11.3 17.35 11.1 17.1 10.9 16.75 10.35 16.75 10 16.75 9.75 16.95 9.5 17.15 9.4 17.45
L 9.1 16.95
Q 8.9 16.75 8.55 16.75 8.2 16.75 7.95 16.95 7.75 17.1 7.6 17.4
L 7.55 16.85 7.25 16.85 Z"/>
</g>

<g id="BDM_250x250_FR_psd_Asset_4_V7_2_Tirez_parti_de_toutes__les_analyses_de_donn_es__possibles__de_l_0_Layer0_0_MEMBER_66_FILL">
<path fill="#D82C26" stroke="none" d="
M 12.4 16.85
L 11.95 17.1 12.05 17.35 12.45 17.1 12.9 17
Q 13.15 17 13.45 17.2 13.65 17.4 13.65 17.75
L 13.65 17.9 13.35 17.9
Q 11.8 17.9 11.8 18.8 11.8 19.2 12.05 19.35 12.3 19.55 12.65 19.55 12.95 19.55 13.25 19.4 13.5 19.3 13.65 18.95
L 13.7 19.25 13.7 19.5 14 19.5 13.95 17.75
Q 13.95 17.25 13.7 17 13.35 16.75 12.95 16.75
L 12.4 16.85
M 13.65 18.1
L 13.65 18.4 13.55 18.8
Q 13.45 19.1 13.25 19.15 13.05 19.3 12.75 19.3
L 12.3 19.2
Q 12.15 19.05 12.15 18.75 12.15 18.1 13.4 18.1
L 13.65 18.1 Z"/>
</g>

<g id="BDM_250x250_FR_psd_Asset_4_V7_2_Tirez_parti_de_toutes__les_analyses_de_donn_es__possibles__de_l_0_Layer0_0_MEMBER_67_FILL">
<path fill="#D82C26" stroke="none" d="
M 17.25 16.85
L 16.95 16.85 16.9 17.45
Q 16.75 17.1 16.45 16.95 16.2 16.75 15.8 16.75 15.6 16.75 15.1 16.95 14.8 17.2 14.65 17.45 14.5 17.75 14.5 18.15 14.5 18.55 14.65 18.85 14.85 19.2 15.1 19.35 15.35 19.55 15.8 19.55 16.2 19.55 16.45 19.35 16.75 19.2 16.9 18.9
L 16.9 19.45
Q 16.9 19.95 16.65 20.3 16.35 20.6 15.8 20.6
L 15.25 20.5 14.7 20.25 14.65 20.55 15.2 20.8 15.8 20.9
Q 16.5 20.9 16.9 20.5 17.2 20.15 17.2 19.45
L 17.2 17.45 17.25 16.85
M 15.85 17.05
Q 16.2 17.05 16.4 17.2 16.7 17.4 16.75 17.6 16.9 17.85 16.9 18.15 16.9 18.5 16.75 18.7 16.7 18.9 16.4 19.1 16.2 19.25 15.85 19.25 15.55 19.25 15.3 19.1 15.1 18.95 14.95 18.7 14.8 18.5 14.8 18.15 14.8 17.85 14.95 17.6
L 15.3 17.2
Q 15.55 17.05 15.85 17.05 Z"/>
</g>

<g id="BDM_250x250_FR_psd_Asset_4_V7_2_Tirez_parti_de_toutes__les_analyses_de_donn_es__possibles__de_l_0_Layer0_0_MEMBER_68_FILL">
<path fill="#D82C26" stroke="none" d="
M 18.9 16.75
L 18.35 16.85 17.9 17.1 18 17.35 18.4 17.1 18.85 17
Q 19.1 17 19.4 17.2 19.6 17.4 19.6 17.75
L 19.6 17.9 19.25 17.9
Q 17.75 17.9 17.75 18.8 17.75 19.2 18 19.35 18.2 19.55 18.6 19.55 18.9 19.55 19.2 19.4 19.45 19.3 19.6 18.95
L 19.6 19.25 19.65 19.5 19.95 19.5 19.9 17.75
Q 19.9 17.35 19.65 17 19.3 16.75 18.9 16.75
M 19.6 18.1
L 19.6 18.4 19.5 18.8
Q 19.3 19.1 19.15 19.15 19 19.3 18.65 19.3
L 18.25 19.2
Q 18.05 19 18.05 18.75 18.05 18.1 19.3 18.1
L 19.6 18.1 Z"/>
</g>

<g id="BDM_250x250_FR_psd_Asset_4_V7_2_Tirez_parti_de_toutes__les_analyses_de_donn_es__possibles__de_l_0_Layer0_0_MEMBER_69_FILL">
<path fill="#D82C26" stroke="none" d="
M 21.3 16.75
L 20.9 16.85
Q 20.75 16.9 20.55 17.1
L 20.45 17.5
Q 20.45 17.8 20.6 17.95
L 21.2 18.25
Q 21.6 18.35 21.75 18.5 21.9 18.6 21.9 18.8 21.9 19.1 21.75 19.15 21.55 19.3 21.3 19.3 20.85 19.3 20.45 19
L 20.4 19.25 20.8 19.5 21.35 19.55
Q 21.65 19.55 21.75 19.45 22 19.35 22.1 19.2 22.25 19.05 22.25 18.8 22.25 18.6 22.05 18.3
L 20.9 17.8
Q 20.75 17.65 20.75 17.45 20.75 17.25 20.9 17.15 21.05 17 21.3 17
L 21.7 17.1 22 17.3 22.15 17.05 21.8 16.85 21.3 16.75 Z"/>
</g>

<g id="BDM_250x250_FR_psd_Asset_4_V7_2_Tirez_parti_de_toutes__les_analyses_de_donn_es__possibles__de_l_0_Layer0_0_MEMBER_70_FILL">
<path fill="#D82C26" stroke="none" d="
M 23.05 16.85
L 22.7 16.85 22.7 19.5 23.05 19.5 23.05 16.85
M 22.65 15.8
L 22.7 15.95 22.9 16 23.05 15.95 23.1 15.8 23.05 15.6 22.9 15.55 22.7 15.6 22.65 15.8 Z"/>
</g>

<g id="BDM_250x250_FR_psd_Asset_4_V7_2_Tirez_parti_de_toutes__les_analyses_de_donn_es__possibles__de_l_0_Layer0_0_MEMBER_71_FILL">
<path fill="#D82C26" stroke="none" d="
M 26.05 17.85
Q 26.05 17.35 25.8 17.1 25.6 16.75 25.05 16.75 24.7 16.75 24.5 16.95 24.25 17.05 24.1 17.4
L 24.1 16.85 23.75 16.85 23.8 17.45 23.8 19.5 24.15 19.5 24.15 18.15
Q 24.15 17.7 24.25 17.55 24.3 17.4 24.55 17.15
L 25 17.05
Q 25.4 17.05 25.55 17.3 25.7 17.6 25.7 17.95
L 25.7 19.5 26.05 19.5 26.05 17.85 Z"/>
</g>
</defs>

<g transform="matrix( 1, 0, 0, 1, -194,-10) ">
<g transform="matrix( 1, 0, 0, 1, 184,25) ">
<g transform="matrix( 1, 0, 0, 1, 30,11) ">
<g transform="matrix( 3.5196380615234375, 0, 0, 3.540771484375, 0.2,15.8) ">
<use xlink:href="#BDM_250x250_FR_psd_Asset_4_V7_2_Tirez_parti_de_toutes__les_analyses_de_donn_es__possibles__de_l_0_Layer0_0_MEMBER_0_FILL"/>
</g>

<g transform="matrix( 3.5196380615234375, 0, 0, 3.540771484375, 0.2,15.8) ">
<use xlink:href="#BDM_250x250_FR_psd_Asset_4_V7_2_Tirez_parti_de_toutes__les_analyses_de_donn_es__possibles__de_l_0_Layer0_0_MEMBER_1_FILL"/>
</g>

<g transform="matrix( 3.5196380615234375, 0, 0, 3.540771484375, 0.2,15.8) ">
<use xlink:href="#BDM_250x250_FR_psd_Asset_4_V7_2_Tirez_parti_de_toutes__les_analyses_de_donn_es__possibles__de_l_0_Layer0_0_MEMBER_2_FILL"/>
</g>

<g transform="matrix( 3.5196380615234375, 0, 0, 3.540771484375, 0.2,15.8) ">
<use xlink:href="#BDM_250x250_FR_psd_Asset_4_V7_2_Tirez_parti_de_toutes__les_analyses_de_donn_es__possibles__de_l_0_Layer0_0_MEMBER_3_FILL"/>
</g>

<g transform="matrix( 3.5196380615234375, 0, 0, 3.540771484375, 0.2,15.8) ">
<use xlink:href="#BDM_250x250_FR_psd_Asset_4_V7_2_Tirez_parti_de_toutes__les_analyses_de_donn_es__possibles__de_l_0_Layer0_0_MEMBER_4_FILL"/>
</g>

<g transform="matrix( 3.5196380615234375, 0, 0, 3.540771484375, 0.2,15.8) ">
<use xlink:href="#BDM_250x250_FR_psd_Asset_4_V7_2_Tirez_parti_de_toutes__les_analyses_de_donn_es__possibles__de_l_0_Layer0_0_MEMBER_5_FILL"/>
</g>

<g transform="matrix( 3.5196380615234375, 0, 0, 3.540771484375, 0.2,15.8) ">
<use xlink:href="#BDM_250x250_FR_psd_Asset_4_V7_2_Tirez_parti_de_toutes__les_analyses_de_donn_es__possibles__de_l_0_Layer0_0_MEMBER_6_FILL"/>
</g>

<g transform="matrix( 3.5196380615234375, 0, 0, 3.540771484375, 0.2,15.8) ">
<use xlink:href="#BDM_250x250_FR_psd_Asset_4_V7_2_Tirez_parti_de_toutes__les_analyses_de_donn_es__possibles__de_l_0_Layer0_0_MEMBER_7_FILL"/>
</g>

<g transform="matrix( 3.5196380615234375, 0, 0, 3.540771484375, 0.2,15.8) ">
<use xlink:href="#BDM_250x250_FR_psd_Asset_4_V7_2_Tirez_parti_de_toutes__les_analyses_de_donn_es__possibles__de_l_0_Layer0_0_MEMBER_8_FILL"/>
</g>

<g transform="matrix( 3.5196380615234375, 0, 0, 3.540771484375, 0.2,15.8) ">
<use xlink:href="#BDM_250x250_FR_psd_Asset_4_V7_2_Tirez_parti_de_toutes__les_analyses_de_donn_es__possibles__de_l_0_Layer0_0_MEMBER_9_FILL"/>
</g>

<g transform="matrix( 3.5196380615234375, 0, 0, 3.540771484375, 0.2,15.8) ">
<use xlink:href="#BDM_250x250_FR_psd_Asset_4_V7_2_Tirez_parti_de_toutes__les_analyses_de_donn_es__possibles__de_l_0_Layer0_0_MEMBER_10_FILL"/>
</g>

<g transform="matrix( 3.5196380615234375, 0, 0, 3.540771484375, 0.2,15.8) ">
<use xlink:href="#BDM_250x250_FR_psd_Asset_4_V7_2_Tirez_parti_de_toutes__les_analyses_de_donn_es__possibles__de_l_0_Layer0_0_MEMBER_11_FILL"/>
</g>

<g transform="matrix( 3.5196380615234375, 0, 0, 3.540771484375, 0.2,15.8) ">
<use xlink:href="#BDM_250x250_FR_psd_Asset_4_V7_2_Tirez_parti_de_toutes__les_analyses_de_donn_es__possibles__de_l_0_Layer0_0_MEMBER_12_FILL"/>
</g>

<g transform="matrix( 3.5196380615234375, 0, 0, 3.540771484375, 0.2,15.8) ">
<use xlink:href="#BDM_250x250_FR_psd_Asset_4_V7_2_Tirez_parti_de_toutes__les_analyses_de_donn_es__possibles__de_l_0_Layer0_0_MEMBER_13_FILL"/>
</g>

<g transform="matrix( 3.5196380615234375, 0, 0, 3.540771484375, 0.2,15.8) ">
<use xlink:href="#BDM_250x250_FR_psd_Asset_4_V7_2_Tirez_parti_de_toutes__les_analyses_de_donn_es__possibles__de_l_0_Layer0_0_MEMBER_14_FILL"/>
</g>

<g transform="matrix( 3.5196380615234375, 0, 0, 3.540771484375, 0.2,15.8) ">
<use xlink:href="#BDM_250x250_FR_psd_Asset_4_V7_2_Tirez_parti_de_toutes__les_analyses_de_donn_es__possibles__de_l_0_Layer0_0_MEMBER_15_FILL"/>
</g>

<g transform="matrix( 3.5196380615234375, 0, 0, 3.540771484375, 0.2,15.8) ">
<use xlink:href="#BDM_250x250_FR_psd_Asset_4_V7_2_Tirez_parti_de_toutes__les_analyses_de_donn_es__possibles__de_l_0_Layer0_0_MEMBER_16_FILL"/>
</g>

<g transform="matrix( 3.5196380615234375, 0, 0, 3.540771484375, 0.2,15.8) ">
<use xlink:href="#BDM_250x250_FR_psd_Asset_4_V7_2_Tirez_parti_de_toutes__les_analyses_de_donn_es__possibles__de_l_0_Layer0_0_MEMBER_17_FILL"/>
</g>

<g transform="matrix( 3.5196380615234375, 0, 0, 3.540771484375, 0.2,15.8) ">
<use xlink:href="#BDM_250x250_FR_psd_Asset_4_V7_2_Tirez_parti_de_toutes__les_analyses_de_donn_es__possibles__de_l_0_Layer0_0_MEMBER_18_FILL"/>
</g>

<g transform="matrix( 3.5196380615234375, 0, 0, 3.540771484375, 0.2,15.8) ">
<use xlink:href="#BDM_250x250_FR_psd_Asset_4_V7_2_Tirez_parti_de_toutes__les_analyses_de_donn_es__possibles__de_l_0_Layer0_0_MEMBER_19_FILL"/>
</g>

<g transform="matrix( 3.5196380615234375, 0, 0, 3.540771484375, 0.2,15.8) ">
<use xlink:href="#BDM_250x250_FR_psd_Asset_4_V7_2_Tirez_parti_de_toutes__les_analyses_de_donn_es__possibles__de_l_0_Layer0_0_MEMBER_20_FILL"/>
</g>

<g transform="matrix( 3.5196380615234375, 0, 0, 3.540771484375, 0.2,15.8) ">
<use xlink:href="#BDM_250x250_FR_psd_Asset_4_V7_2_Tirez_parti_de_toutes__les_analyses_de_donn_es__possibles__de_l_0_Layer0_0_MEMBER_21_FILL"/>
</g>

<g transform="matrix( 3.5196380615234375, 0, 0, 3.540771484375, 0.2,15.8) ">
<use xlink:href="#BDM_250x250_FR_psd_Asset_4_V7_2_Tirez_parti_de_toutes__les_analyses_de_donn_es__possibles__de_l_0_Layer0_0_MEMBER_22_FILL"/>
</g>

<g transform="matrix( 3.5196380615234375, 0, 0, 3.540771484375, 0.2,15.8) ">
<use xlink:href="#BDM_250x250_FR_psd_Asset_4_V7_2_Tirez_parti_de_toutes__les_analyses_de_donn_es__possibles__de_l_0_Layer0_0_MEMBER_23_FILL"/>
</g>

<g transform="matrix( 3.5196380615234375, 0, 0, 3.540771484375, 0.2,15.8) ">
<use xlink:href="#BDM_250x250_FR_psd_Asset_4_V7_2_Tirez_parti_de_toutes__les_analyses_de_donn_es__possibles__de_l_0_Layer0_0_MEMBER_24_FILL"/>
</g>

<g transform="matrix( 3.5196380615234375, 0, 0, 3.540771484375, 0.2,15.8) ">
<use xlink:href="#BDM_250x250_FR_psd_Asset_4_V7_2_Tirez_parti_de_toutes__les_analyses_de_donn_es__possibles__de_l_0_Layer0_0_MEMBER_25_FILL"/>
</g>

<g transform="matrix( 3.5196380615234375, 0, 0, 3.540771484375, 0.2,15.8) ">
<use xlink:href="#BDM_250x250_FR_psd_Asset_4_V7_2_Tirez_parti_de_toutes__les_analyses_de_donn_es__possibles__de_l_0_Layer0_0_MEMBER_26_FILL"/>
</g>

<g transform="matrix( 3.5196380615234375, 0, 0, 3.540771484375, 0.2,15.8) ">
<use xlink:href="#BDM_250x250_FR_psd_Asset_4_V7_2_Tirez_parti_de_toutes__les_analyses_de_donn_es__possibles__de_l_0_Layer0_0_MEMBER_27_FILL"/>
</g>

<g transform="matrix( 3.5196380615234375, 0, 0, 3.540771484375, 0.2,15.8) ">
<use xlink:href="#BDM_250x250_FR_psd_Asset_4_V7_2_Tirez_parti_de_toutes__les_analyses_de_donn_es__possibles__de_l_0_Layer0_0_MEMBER_28_FILL"/>
</g>

<g transform="matrix( 3.5196380615234375, 0, 0, 3.540771484375, 0.2,15.8) ">
<use xlink:href="#BDM_250x250_FR_psd_Asset_4_V7_2_Tirez_parti_de_toutes__les_analyses_de_donn_es__possibles__de_l_0_Layer0_0_MEMBER_29_FILL"/>
</g>

<g transform="matrix( 3.5196380615234375, 0, 0, 3.540771484375, 0.2,15.8) ">
<use xlink:href="#BDM_250x250_FR_psd_Asset_4_V7_2_Tirez_parti_de_toutes__les_analyses_de_donn_es__possibles__de_l_0_Layer0_0_MEMBER_30_FILL"/>
</g>

<g transform="matrix( 3.5196380615234375, 0, 0, 3.540771484375, 0.2,15.8) ">
<use xlink:href="#BDM_250x250_FR_psd_Asset_4_V7_2_Tirez_parti_de_toutes__les_analyses_de_donn_es__possibles__de_l_0_Layer0_0_MEMBER_31_FILL"/>
</g>

<g transform="matrix( 3.5196380615234375, 0, 0, 3.540771484375, 0.2,15.8) ">
<use xlink:href="#BDM_250x250_FR_psd_Asset_4_V7_2_Tirez_parti_de_toutes__les_analyses_de_donn_es__possibles__de_l_0_Layer0_0_MEMBER_32_FILL"/>
</g>

<g transform="matrix( 3.5196380615234375, 0, 0, 3.540771484375, 0.2,15.8) ">
<use xlink:href="#BDM_250x250_FR_psd_Asset_4_V7_2_Tirez_parti_de_toutes__les_analyses_de_donn_es__possibles__de_l_0_Layer0_0_MEMBER_33_FILL"/>
</g>

<g transform="matrix( 3.5196380615234375, 0, 0, 3.540771484375, 0.2,15.8) ">
<use xlink:href="#BDM_250x250_FR_psd_Asset_4_V7_2_Tirez_parti_de_toutes__les_analyses_de_donn_es__possibles__de_l_0_Layer0_0_MEMBER_34_FILL"/>
</g>

<g transform="matrix( 3.5196380615234375, 0, 0, 3.540771484375, 0.2,15.8) ">
<use xlink:href="#BDM_250x250_FR_psd_Asset_4_V7_2_Tirez_parti_de_toutes__les_analyses_de_donn_es__possibles__de_l_0_Layer0_0_MEMBER_35_FILL"/>
</g>

<g transform="matrix( 3.5196380615234375, 0, 0, 3.540771484375, 0.2,15.8) ">
<use xlink:href="#BDM_250x250_FR_psd_Asset_4_V7_2_Tirez_parti_de_toutes__les_analyses_de_donn_es__possibles__de_l_0_Layer0_0_MEMBER_36_FILL"/>
</g>

<g transform="matrix( 3.5196380615234375, 0, 0, 3.540771484375, 0.2,15.8) ">
<use xlink:href="#BDM_250x250_FR_psd_Asset_4_V7_2_Tirez_parti_de_toutes__les_analyses_de_donn_es__possibles__de_l_0_Layer0_0_MEMBER_37_FILL"/>
</g>

<g transform="matrix( 3.5196380615234375, 0, 0, 3.540771484375, 0.2,15.8) ">
<use xlink:href="#BDM_250x250_FR_psd_Asset_4_V7_2_Tirez_parti_de_toutes__les_analyses_de_donn_es__possibles__de_l_0_Layer0_0_MEMBER_38_FILL"/>
</g>

<g transform="matrix( 3.5196380615234375, 0, 0, 3.540771484375, 0.2,15.8) ">
<use xlink:href="#BDM_250x250_FR_psd_Asset_4_V7_2_Tirez_parti_de_toutes__les_analyses_de_donn_es__possibles__de_l_0_Layer0_0_MEMBER_39_FILL"/>
</g>

<g transform="matrix( 3.5196380615234375, 0, 0, 3.540771484375, 0.2,15.8) ">
<use xlink:href="#BDM_250x250_FR_psd_Asset_4_V7_2_Tirez_parti_de_toutes__les_analyses_de_donn_es__possibles__de_l_0_Layer0_0_MEMBER_40_FILL"/>
</g>

<g transform="matrix( 3.5196380615234375, 0, 0, 3.540771484375, 0.2,15.8) ">
<use xlink:href="#BDM_250x250_FR_psd_Asset_4_V7_2_Tirez_parti_de_toutes__les_analyses_de_donn_es__possibles__de_l_0_Layer0_0_MEMBER_41_FILL"/>
</g>

<g transform="matrix( 3.5196380615234375, 0, 0, 3.540771484375, 0.2,15.8) ">
<use xlink:href="#BDM_250x250_FR_psd_Asset_4_V7_2_Tirez_parti_de_toutes__les_analyses_de_donn_es__possibles__de_l_0_Layer0_0_MEMBER_42_FILL"/>
</g>

<g transform="matrix( 3.5196380615234375, 0, 0, 3.540771484375, 0.2,15.8) ">
<use xlink:href="#BDM_250x250_FR_psd_Asset_4_V7_2_Tirez_parti_de_toutes__les_analyses_de_donn_es__possibles__de_l_0_Layer0_0_MEMBER_43_FILL"/>
</g>

<g transform="matrix( 3.5196380615234375, 0, 0, 3.540771484375, 0.2,15.8) ">
<use xlink:href="#BDM_250x250_FR_psd_Asset_4_V7_2_Tirez_parti_de_toutes__les_analyses_de_donn_es__possibles__de_l_0_Layer0_0_MEMBER_44_FILL"/>
</g>

<g transform="matrix( 3.5196380615234375, 0, 0, 3.540771484375, 0.2,15.8) ">
<use xlink:href="#BDM_250x250_FR_psd_Asset_4_V7_2_Tirez_parti_de_toutes__les_analyses_de_donn_es__possibles__de_l_0_Layer0_0_MEMBER_45_FILL"/>
</g>

<g transform="matrix( 3.5196380615234375, 0, 0, 3.540771484375, 0.2,15.8) ">
<use xlink:href="#BDM_250x250_FR_psd_Asset_4_V7_2_Tirez_parti_de_toutes__les_analyses_de_donn_es__possibles__de_l_0_Layer0_0_MEMBER_46_FILL"/>
</g>

<g transform="matrix( 3.5196380615234375, 0, 0, 3.540771484375, 0.2,15.8) ">
<use xlink:href="#BDM_250x250_FR_psd_Asset_4_V7_2_Tirez_parti_de_toutes__les_analyses_de_donn_es__possibles__de_l_0_Layer0_0_MEMBER_47_FILL"/>
</g>

<g transform="matrix( 3.5196380615234375, 0, 0, 3.540771484375, 0.2,15.8) ">
<use xlink:href="#BDM_250x250_FR_psd_Asset_4_V7_2_Tirez_parti_de_toutes__les_analyses_de_donn_es__possibles__de_l_0_Layer0_0_MEMBER_48_FILL"/>
</g>

<g transform="matrix( 3.5196380615234375, 0, 0, 3.540771484375, 0.2,15.8) ">
<use xlink:href="#BDM_250x250_FR_psd_Asset_4_V7_2_Tirez_parti_de_toutes__les_analyses_de_donn_es__possibles__de_l_0_Layer0_0_MEMBER_49_FILL"/>
</g>

<g transform="matrix( 3.5196380615234375, 0, 0, 3.540771484375, 0.2,15.8) ">
<use xlink:href="#BDM_250x250_FR_psd_Asset_4_V7_2_Tirez_parti_de_toutes__les_analyses_de_donn_es__possibles__de_l_0_Layer0_0_MEMBER_50_FILL"/>
</g>

<g transform="matrix( 3.5196380615234375, 0, 0, 3.540771484375, 0.2,15.8) ">
<use xlink:href="#BDM_250x250_FR_psd_Asset_4_V7_2_Tirez_parti_de_toutes__les_analyses_de_donn_es__possibles__de_l_0_Layer0_0_MEMBER_51_FILL"/>
</g>

<g transform="matrix( 3.5196380615234375, 0, 0, 3.540771484375, 0.2,15.8) ">
<use xlink:href="#BDM_250x250_FR_psd_Asset_4_V7_2_Tirez_parti_de_toutes__les_analyses_de_donn_es__possibles__de_l_0_Layer0_0_MEMBER_52_FILL"/>
</g>

<g transform="matrix( 3.5196380615234375, 0, 0, 3.540771484375, 0.2,15.8) ">
<use xlink:href="#BDM_250x250_FR_psd_Asset_4_V7_2_Tirez_parti_de_toutes__les_analyses_de_donn_es__possibles__de_l_0_Layer0_0_MEMBER_53_FILL"/>
</g>

<g transform="matrix( 3.5196380615234375, 0, 0, 3.540771484375, 0.2,15.8) ">
<use xlink:href="#BDM_250x250_FR_psd_Asset_4_V7_2_Tirez_parti_de_toutes__les_analyses_de_donn_es__possibles__de_l_0_Layer0_0_MEMBER_54_FILL"/>
</g>

<g transform="matrix( 3.5196380615234375, 0, 0, 3.540771484375, 0.2,15.8) ">
<use xlink:href="#BDM_250x250_FR_psd_Asset_4_V7_2_Tirez_parti_de_toutes__les_analyses_de_donn_es__possibles__de_l_0_Layer0_0_MEMBER_55_FILL"/>
</g>

<g transform="matrix( 3.5196380615234375, 0, 0, 3.540771484375, 0.2,15.8) ">
<use xlink:href="#BDM_250x250_FR_psd_Asset_4_V7_2_Tirez_parti_de_toutes__les_analyses_de_donn_es__possibles__de_l_0_Layer0_0_MEMBER_56_FILL"/>
</g>

<g transform="matrix( 3.5196380615234375, 0, 0, 3.540771484375, 0.2,15.8) ">
<use xlink:href="#BDM_250x250_FR_psd_Asset_4_V7_2_Tirez_parti_de_toutes__les_analyses_de_donn_es__possibles__de_l_0_Layer0_0_MEMBER_57_FILL"/>
</g>

<g transform="matrix( 3.5196380615234375, 0, 0, 3.540771484375, 0.2,15.8) ">
<use xlink:href="#BDM_250x250_FR_psd_Asset_4_V7_2_Tirez_parti_de_toutes__les_analyses_de_donn_es__possibles__de_l_0_Layer0_0_MEMBER_58_FILL"/>
</g>

<g transform="matrix( 3.5196380615234375, 0, 0, 3.540771484375, 0.2,15.8) ">
<use xlink:href="#BDM_250x250_FR_psd_Asset_4_V7_2_Tirez_parti_de_toutes__les_analyses_de_donn_es__possibles__de_l_0_Layer0_0_MEMBER_59_FILL"/>
</g>

<g transform="matrix( 3.5196380615234375, 0, 0, 3.540771484375, 0.2,15.8) ">
<use xlink:href="#BDM_250x250_FR_psd_Asset_4_V7_2_Tirez_parti_de_toutes__les_analyses_de_donn_es__possibles__de_l_0_Layer0_0_MEMBER_60_FILL"/>
</g>

<g transform="matrix( 3.5196380615234375, 0, 0, 3.540771484375, 0.2,15.8) ">
<use xlink:href="#BDM_250x250_FR_psd_Asset_4_V7_2_Tirez_parti_de_toutes__les_analyses_de_donn_es__possibles__de_l_0_Layer0_0_MEMBER_61_FILL"/>
</g>

<g transform="matrix( 3.5196380615234375, 0, 0, 3.540771484375, 0.2,15.8) ">
<use xlink:href="#BDM_250x250_FR_psd_Asset_4_V7_2_Tirez_parti_de_toutes__les_analyses_de_donn_es__possibles__de_l_0_Layer0_0_MEMBER_62_FILL"/>
</g>

<g transform="matrix( 3.5196380615234375, 0, 0, 3.540771484375, 0.2,15.8) ">
<use xlink:href="#BDM_250x250_FR_psd_Asset_4_V7_2_Tirez_parti_de_toutes__les_analyses_de_donn_es__possibles__de_l_0_Layer0_0_MEMBER_63_FILL"/>
</g>

<g transform="matrix( 3.5196380615234375, 0, 0, 3.540771484375, 0.2,15.8) ">
<use xlink:href="#BDM_250x250_FR_psd_Asset_4_V7_2_Tirez_parti_de_toutes__les_analyses_de_donn_es__possibles__de_l_0_Layer0_0_MEMBER_64_FILL"/>
</g>

<g transform="matrix( 3.5196380615234375, 0, 0, 3.540771484375, 0.2,15.8) ">
<use xlink:href="#BDM_250x250_FR_psd_Asset_4_V7_2_Tirez_parti_de_toutes__les_analyses_de_donn_es__possibles__de_l_0_Layer0_0_MEMBER_65_FILL"/>
</g>

<g transform="matrix( 3.5196380615234375, 0, 0, 3.540771484375, 0.2,15.8) ">
<use xlink:href="#BDM_250x250_FR_psd_Asset_4_V7_2_Tirez_parti_de_toutes__les_analyses_de_donn_es__possibles__de_l_0_Layer0_0_MEMBER_66_FILL"/>
</g>

<g transform="matrix( 3.5196380615234375, 0, 0, 3.540771484375, 0.2,15.8) ">
<use xlink:href="#BDM_250x250_FR_psd_Asset_4_V7_2_Tirez_parti_de_toutes__les_analyses_de_donn_es__possibles__de_l_0_Layer0_0_MEMBER_67_FILL"/>
</g>

<g transform="matrix( 3.5196380615234375, 0, 0, 3.540771484375, 0.2,15.8) ">
<use xlink:href="#BDM_250x250_FR_psd_Asset_4_V7_2_Tirez_parti_de_toutes__les_analyses_de_donn_es__possibles__de_l_0_Layer0_0_MEMBER_68_FILL"/>
</g>

<g transform="matrix( 3.5196380615234375, 0, 0, 3.540771484375, 0.2,15.8) ">
<use xlink:href="#BDM_250x250_FR_psd_Asset_4_V7_2_Tirez_parti_de_toutes__les_analyses_de_donn_es__possibles__de_l_0_Layer0_0_MEMBER_69_FILL"/>
</g>

<g transform="matrix( 3.5196380615234375, 0, 0, 3.540771484375, 0.2,15.8) ">
<use xlink:href="#BDM_250x250_FR_psd_Asset_4_V7_2_Tirez_parti_de_toutes__les_analyses_de_donn_es__possibles__de_l_0_Layer0_0_MEMBER_70_FILL"/>
</g>

<g transform="matrix( 3.5196380615234375, 0, 0, 3.540771484375, 0.2,15.8) ">
<use xlink:href="#BDM_250x250_FR_psd_Asset_4_V7_2_Tirez_parti_de_toutes__les_analyses_de_donn_es__possibles__de_l_0_Layer0_0_MEMBER_71_FILL"/>
</g>
</g>
</g>
</g>
</svg>
