
<svg xmlns="http://www.w3.org/2000/svg" version="1.1" xmlns:xlink="http://www.w3.org/1999/xlink" preserveAspectRatio="none" x="0px" y="0px" width="300px" height="250px" viewBox="0 0 300 250">
<defs>
<g id="BDM_300x250_FR_psd_Asset_7_V8_3_et_personnaliser_davantage__l_exp_rience_client__0_Layer0_0_MEMBER_0_FILL">
<path fill="#D82C26" stroke="none" d="
M 2.35 -3.9
Q 1.7 -3.9 1.4 -3.65 0.95 -3.4 0.7 -2.95 0.45 -2.45 0.45 -1.9 0.45 -1.45 0.7 -0.85 0.95 -0.4 1.4 -0.15 1.8 0.1 2.4 0.1 3.3 0.1 3.9 -0.35
L 3.85 -0.75 3.2 -0.4
Q 3 -0.3 2.45 -0.3 2 -0.3 1.65 -0.5 1.25 -0.8 1.1 -1.05 0.9 -1.55 0.9 -1.85
L 4.15 -1.85 4.15 -2.05
Q 4.15 -2.6 3.95 -3 3.65 -3.45 3.3 -3.65 3 -3.9 2.35 -3.9
M 1.6 -3.35
Q 1.85 -3.55 2.35 -3.55 2.9 -3.55 3.3 -3.15 3.7 -2.85 3.7 -2.2
L 0.95 -2.2
Q 0.95 -2.5 1.1 -2.8 1.25 -3.1 1.6 -3.35 Z"/>
</g>

<g id="BDM_300x250_FR_psd_Asset_7_V8_3_et_personnaliser_davantage__l_exp_rience_client__0_Layer0_0_MEMBER_1_FILL">
<path fill="#D82C26" stroke="none" d="
M 4.55 -3.8
L 4.45 -3.45 5.15 -3.45 5.15 -0.9
Q 5.15 -0.45 5.4 -0.2 5.65 0.1 6.05 0.1
L 6.85 -0.1 6.8 -0.5
Q 6.45 -0.3 6.2 -0.3 5.95 -0.3 5.8 -0.45 5.65 -0.65 5.65 -1
L 5.65 -3.45 6.6 -3.45 6.7 -3.8 5.65 -3.8 5.65 -4.9 5.15 -4.7 5.15 -3.8 4.55 -3.8 Z"/>
</g>

<g id="BDM_300x250_FR_psd_Asset_7_V8_3_et_personnaliser_davantage__l_exp_rience_client__0_Layer0_0_MEMBER_2_FILL">
<path fill="#D82C26" stroke="none" d="
M 9.45 -3.8
L 9 -3.8 9 1.95 9.5 1.95 9.5 -0.8
Q 9.7 -0.35 10.15 -0.15 10.65 0.1 11.05 0.1 11.55 0.1 12.05 -0.15 12.45 -0.4 12.7 -0.9 12.95 -1.25 12.95 -1.9 12.95 -2.5 12.7 -2.95 12.5 -3.35 12.05 -3.65 11.7 -3.9 11.05 -3.9 10.45 -3.9 10.15 -3.65 9.75 -3.45 9.5 -2.95
L 9.45 -3.8
M 9.5 -1.9
Q 9.5 -2.3 9.65 -2.7 9.85 -3.05 10.2 -3.3 10.55 -3.5 11 -3.5 11.5 -3.5 11.75 -3.3 12.05 -3.1 12.3 -2.7 12.5 -2.2 12.5 -1.9 12.5 -1.6 12.3 -1.1 12.05 -0.7 11.75 -0.5 11.5 -0.3 11 -0.3 10.55 -0.3 10.2 -0.5 9.85 -0.75 9.65 -1.1 9.5 -1.45 9.5 -1.9 Z"/>
</g>

<g id="BDM_300x250_FR_psd_Asset_7_V8_3_et_personnaliser_davantage__l_exp_rience_client__0_Layer0_0_MEMBER_3_FILL">
<path fill="#D82C26" stroke="none" d="
M 13.95 -0.85
Q 14.15 -0.4 14.6 -0.15 15 0.1 15.6 0.1 16.5 0.1 17.15 -0.35
L 17.05 -0.75 16.45 -0.4
Q 16.2 -0.3 15.65 -0.3 15.15 -0.3 14.9 -0.5 14.45 -0.75 14.35 -1.05 14.15 -1.4 14.15 -1.85
L 17.35 -1.85 17.35 -2.05
Q 17.35 -2.6 17.15 -3 16.9 -3.45 16.55 -3.65 16.2 -3.9 15.55 -3.9 15 -3.9 14.6 -3.65 14.25 -3.45 13.9 -2.95 13.65 -2.45 13.65 -1.9 13.65 -1.35 13.95 -0.85
M 14.35 -2.8
Q 14.5 -3.15 14.8 -3.35 15.05 -3.55 15.55 -3.55 16.15 -3.55 16.55 -3.15 16.9 -2.85 16.9 -2.2
L 14.15 -2.2
Q 14.15 -2.55 14.35 -2.8 Z"/>
</g>

<g id="BDM_300x250_FR_psd_Asset_7_V8_3_et_personnaliser_davantage__l_exp_rience_client__0_Layer0_0_MEMBER_4_FILL">
<path fill="#D82C26" stroke="none" d="
M 18.8 -1.9
Q 18.8 -2.6 19.05 -3 19.35 -3.5 19.85 -3.5
L 20.2 -3.45 20.3 -3.85 19.9 -3.9
Q 19.5 -3.9 19.25 -3.65 18.95 -3.45 18.75 -3
L 18.7 -3.8 18.25 -3.8 18.3 0 18.8 0 18.8 -1.9 Z"/>
</g>

<g id="BDM_300x250_FR_psd_Asset_7_V8_3_et_personnaliser_davantage__l_exp_rience_client__0_Layer0_0_MEMBER_5_FILL">
<path fill="#D82C26" stroke="none" d="
M 22.95 -3.15
L 23.15 -3.5 22.65 -3.8
Q 22.45 -3.9 21.95 -3.9 21.55 -3.9 21.35 -3.8 21.1 -3.75 20.9 -3.45 20.7 -3.25 20.7 -2.85 20.7 -2.45 20.95 -2.2 21.35 -1.9 21.8 -1.8
L 22.6 -1.45
Q 22.85 -1.3 22.85 -1 22.85 -0.7 22.6 -0.45 22.2 -0.25 22 -0.25 21.2 -0.25 20.7 -0.75
L 20.65 -0.3 21.2 0 22 0.1 22.6 0
Q 22.95 -0.15 23.1 -0.4 23.3 -0.6 23.3 -1 23.3 -1.4 23 -1.65 22.7 -1.95 22.1 -2.1
L 21.35 -2.45
Q 21.15 -2.6 21.15 -2.9 21.15 -3.15 21.4 -3.4 21.65 -3.55 22 -3.55
L 22.5 -3.45 22.95 -3.15 Z"/>
</g>

<g id="BDM_300x250_FR_psd_Asset_7_V8_3_et_personnaliser_davantage__l_exp_rience_client__0_Layer0_0_MEMBER_6_FILL">
<path fill="#D82C26" stroke="none" d="
M 24.2 -0.85
Q 24.45 -0.4 24.9 -0.15 25.3 0.1 25.95 0.1 26.55 0.1 27 -0.15 27.45 -0.4 27.7 -0.85 27.95 -1.3 27.95 -1.9 27.95 -2.55 27.7 -2.95 27.45 -3.4 27 -3.65 26.55 -3.9 25.95 -3.9 25.3 -3.9 24.9 -3.65 24.45 -3.4 24.2 -2.95 23.9 -2.5 23.9 -1.9 23.9 -1.35 24.2 -0.85
M 24.6 -2.7
Q 24.75 -3.05 25.15 -3.3 25.4 -3.5 25.95 -3.5 26.4 -3.5 26.75 -3.3 27.15 -3.05 27.3 -2.7 27.5 -2.45 27.5 -1.9 27.5 -1.45 27.3 -1.1 27.15 -0.75 26.75 -0.5 26.5 -0.3 25.95 -0.3 25.4 -0.3 25.15 -0.5 24.75 -0.75 24.6 -1.1 24.4 -1.45 24.4 -1.9 24.4 -2.45 24.6 -2.7 Z"/>
</g>

<g id="BDM_300x250_FR_psd_Asset_7_V8_3_et_personnaliser_davantage__l_exp_rience_client__0_Layer0_0_MEMBER_7_FILL">
<path fill="#D82C26" stroke="none" d="
M 29.35 -3.8
L 28.9 -3.8 28.9 0 29.4 0 29.4 -1.95
Q 29.4 -2.4 29.55 -2.8 29.85 -3.2 30.05 -3.35 30.3 -3.5 30.65 -3.5 31.25 -3.5 31.45 -3.15 31.7 -2.75 31.7 -2.2
L 31.7 0 32.2 0 32.2 -2.3
Q 32.2 -2.9 31.85 -3.45 31.5 -3.9 30.75 -3.9 30.25 -3.9 29.95 -3.65 29.55 -3.4 29.4 -3
L 29.35 -3.8 Z"/>
</g>

<g id="BDM_300x250_FR_psd_Asset_7_V8_3_et_personnaliser_davantage__l_exp_rience_client__0_Layer0_0_MEMBER_8_FILL">
<path fill="#D82C26" stroke="none" d="
M 33.75 -3.8
L 33.3 -3.8 33.35 0 33.8 0 33.8 -1.95
Q 33.8 -2.3 34 -2.8 34.15 -3.15 34.45 -3.35 34.75 -3.5 35.1 -3.5 35.7 -3.5 35.9 -3.15 36.1 -2.8 36.1 -2.2
L 36.1 0 36.6 0 36.6 -2.3
Q 36.6 -3.05 36.25 -3.45 35.95 -3.9 35.2 -3.9 34.65 -3.9 34.35 -3.65 33.95 -3.4 33.8 -3
L 33.75 -3.8 Z"/>
</g>

<g id="BDM_300x250_FR_psd_Asset_7_V8_3_et_personnaliser_davantage__l_exp_rience_client__0_Layer0_0_MEMBER_9_FILL">
<path fill="#D82C26" stroke="none" d="
M 39.05 -3.55
Q 39.5 -3.55 39.85 -3.3 40.15 -3 40.15 -2.5
L 40.15 -2.3 39.65 -2.3
Q 37.5 -2.3 37.5 -1 37.5 -0.4 37.85 -0.2 38.25 0.1 38.7 0.1 39.2 0.1 39.55 -0.1 39.95 -0.35 40.1 -0.75
L 40.15 -0.75 40.15 -0.35 40.2 0 40.65 0 40.6 -2.45
Q 40.6 -3.15 40.2 -3.55 39.85 -3.9 39.1 -3.9 38.6 -3.9 38.35 -3.8
L 37.7 -3.45 37.85 -3.05 38.4 -3.4 39.05 -3.55
M 39.75 -1.95
L 40.15 -1.95 40.15 -1.6
Q 40.15 -1.25 40 -0.95 39.85 -0.7 39.55 -0.45 39.3 -0.25 38.8 -0.25 38.4 -0.25 38.2 -0.45 37.95 -0.6 37.95 -1.05 37.95 -1.95 39.75 -1.95 Z"/>
</g>

<g id="BDM_300x250_FR_psd_Asset_7_V8_3_et_personnaliser_davantage__l_exp_rience_client__0_Layer0_0_MEMBER_10_FILL">
<path fill="#D82C26" stroke="none" d="
M 41.75 -0.85
Q 41.75 -0.45 41.9 -0.25 42.05 -0.05 42.35 0.1
L 42.55 -0.3 42.3 -0.55
Q 42.2 -0.75 42.2 -0.95
L 42.2 -6.2 41.75 -6.1 41.75 -0.85 Z"/>
</g>

<g id="BDM_300x250_FR_psd_Asset_7_V8_3_et_personnaliser_davantage__l_exp_rience_client__0_Layer0_0_MEMBER_11_FILL">
<path fill="#D82C26" stroke="none" d="
M 43.95 -3.8
L 43.45 -3.8 43.45 0 43.95 0 43.95 -3.8
M 43.7 -5
Q 43.85 -5 43.9 -5.1 44.05 -5.15 44.05 -5.35 44.05 -5.45 43.9 -5.55 43.85 -5.65 43.7 -5.65 43.5 -5.65 43.45 -5.55
L 43.35 -5.35 43.45 -5.1
Q 43.5 -5 43.7 -5 Z"/>
</g>

<g id="BDM_300x250_FR_psd_Asset_7_V8_3_et_personnaliser_davantage__l_exp_rience_client__0_Layer0_0_MEMBER_12_FILL">
<path fill="#D82C26" stroke="none" d="
M 44.9 -0.75
L 44.8 -0.3 45.4 0 46.2 0.1 46.8 0 47.3 -0.4
Q 47.5 -0.7 47.5 -1 47.5 -1.4 47.2 -1.65 46.9 -1.95 46.3 -2.1
L 45.55 -2.45
Q 45.35 -2.6 45.35 -2.9 45.35 -3.2 45.6 -3.4 45.85 -3.55 46.15 -3.55
L 46.7 -3.45 47.15 -3.15 47.35 -3.5 46.85 -3.8
Q 46.6 -3.9 46.15 -3.9 45.75 -3.9 45.55 -3.8 45.3 -3.75 45.1 -3.45 44.9 -3.25 44.9 -2.85 44.9 -2.45 45.15 -2.2 45.5 -1.9 45.95 -1.8 46.4 -1.7 46.75 -1.45 47 -1.3 47 -1 47 -0.65 46.75 -0.45 46.45 -0.25 46.15 -0.25 45.4 -0.25 44.9 -0.75 Z"/>
</g>

<g id="BDM_300x250_FR_psd_Asset_7_V8_3_et_personnaliser_davantage__l_exp_rience_client__0_Layer0_0_MEMBER_13_FILL">
<path fill="#D82C26" stroke="none" d="
M 50 -3.9
Q 49.35 -3.9 49.05 -3.65 48.6 -3.4 48.35 -2.95 48.1 -2.45 48.1 -1.9 48.1 -1.45 48.35 -0.85 48.7 -0.3 49.05 -0.15 49.45 0.1 50.05 0.1 50.95 0.1 51.6 -0.35
L 51.5 -0.75 50.9 -0.4
Q 50.65 -0.3 50.1 -0.3 49.65 -0.3 49.3 -0.5 48.9 -0.8 48.8 -1.05 48.65 -1.3 48.55 -1.85
L 51.8 -1.85 51.8 -2.05
Q 51.8 -2.6 51.6 -3 51.3 -3.45 50.95 -3.65 50.65 -3.9 50 -3.9
M 49.25 -3.35
Q 49.5 -3.55 50 -3.55 50.65 -3.55 50.95 -3.15 51.35 -2.85 51.35 -2.2
L 48.6 -2.2
Q 48.6 -2.5 48.75 -2.8
L 49.25 -3.35 Z"/>
</g>

<g id="BDM_300x250_FR_psd_Asset_7_V8_3_et_personnaliser_davantage__l_exp_rience_client__0_Layer0_0_MEMBER_14_FILL">
<path fill="#D82C26" stroke="none" d="
M 54.3 -3.9
Q 53.9 -3.9 53.65 -3.65 53.4 -3.45 53.2 -3
L 53.15 -3.8 52.7 -3.8 52.75 0 53.2 0 53.2 -1.9
Q 53.2 -2.55 53.5 -3 53.8 -3.5 54.3 -3.5
L 54.65 -3.45 54.75 -3.85 54.3 -3.9 Z"/>
</g>

<g id="BDM_300x250_FR_psd_Asset_7_V8_3_et_personnaliser_davantage__l_exp_rience_client__0_Layer0_0_MEMBER_15_FILL">
<path fill="#D82C26" stroke="none" d="
M 59.3 -3.65
Q 59 -3.9 58.4 -3.9 57.8 -3.9 57.4 -3.65 56.9 -3.25 56.75 -2.9 56.5 -2.4 56.5 -1.9 56.5 -1.4 56.75 -0.9 56.95 -0.5 57.4 -0.15 57.9 0.1 58.4 0.1 58.9 0.1 59.3 -0.15 59.7 -0.35 59.95 -0.85
L 60 -0.85 60.05 0 60.5 0 60.45 -6.25 59.95 -6.15 59.95 -3
Q 59.75 -3.45 59.3 -3.65
M 58.5 -3.5
Q 58.9 -3.5 59.25 -3.3 59.55 -3.1 59.8 -2.7 60 -2.2 60 -1.9 60 -1.6 59.8 -1.1 59.55 -0.7 59.25 -0.5 58.9 -0.3 58.5 -0.3 57.95 -0.3 57.7 -0.5 57.4 -0.7 57.15 -1.1 57 -1.45 57 -1.9 57 -2.3 57.15 -2.7 57.4 -3.1 57.7 -3.3 57.95 -3.5 58.5 -3.5 Z"/>
</g>

<g id="BDM_300x250_FR_psd_Asset_7_V8_3_et_personnaliser_davantage__l_exp_rience_client__0_Layer0_0_MEMBER_16_FILL">
<path fill="#D82C26" stroke="none" d="
M 62.3 -3.4
Q 62.6 -3.55 62.95 -3.55 63.45 -3.55 63.7 -3.3 64 -3 64 -2.5
L 64 -2.3 63.55 -2.3
Q 61.35 -2.3 61.35 -1 61.35 -0.45 61.75 -0.2 62.05 0.1 62.6 0.1 63.1 0.1 63.45 -0.1 63.85 -0.35 64 -0.75
L 64.05 -0.75 64.05 -0.35 64.1 0 64.5 0 64.45 -2.45
Q 64.45 -3.2 64.05 -3.55 63.7 -3.9 63 -3.9 62.45 -3.9 62.25 -3.8 61.75 -3.6 61.6 -3.45
L 61.7 -3.05
Q 61.9 -3.25 62.3 -3.4
M 62.05 -0.45
Q 61.85 -0.6 61.85 -1.05 61.85 -1.95 63.6 -1.95
L 64 -1.95 64 -1.6
Q 64 -1.25 63.85 -0.95 63.7 -0.7 63.4 -0.45 63.15 -0.25 62.7 -0.25 62.3 -0.25 62.05 -0.45 Z"/>
</g>

<g id="BDM_300x250_FR_psd_Asset_7_V8_3_et_personnaliser_davantage__l_exp_rience_client__0_Layer0_0_MEMBER_17_FILL">
<path fill="#D82C26" stroke="none" d="
M 65.45 -3.8
L 64.95 -3.8 66.4 0 66.95 0 68.35 -3.8 67.85 -3.8 66.7 -0.5 65.45 -3.8 Z"/>
</g>

<g id="BDM_300x250_FR_psd_Asset_7_V8_3_et_personnaliser_davantage__l_exp_rience_client__0_Layer0_0_MEMBER_18_FILL">
<path fill="#D82C26" stroke="none" d="
M 69.65 -3.4
Q 69.95 -3.55 70.3 -3.55 70.75 -3.55 71.1 -3.3 71.35 -2.95 71.35 -2.5
L 71.35 -2.3 70.9 -2.3
Q 68.75 -2.3 68.75 -1 68.75 -0.4 69.1 -0.2 69.5 0.1 69.95 0.1 70.45 0.1 70.8 -0.1 71.2 -0.35 71.35 -0.75
L 71.4 -0.75 71.4 -0.35 71.45 0 71.9 0 71.8 -0.85 71.8 -2.45
Q 71.8 -3.2 71.45 -3.55 71.05 -3.9 70.35 -3.9 69.85 -3.9 69.6 -3.8 69.1 -3.6 68.95 -3.45
L 69.1 -3.05 69.65 -3.4
M 70.75 -0.45
Q 70.5 -0.25 70.05 -0.25 69.65 -0.25 69.45 -0.45 69.2 -0.55 69.2 -1.05 69.2 -1.95 70.95 -1.95
L 71.35 -1.95 71.35 -1.6
Q 71.35 -1.25 71.2 -0.95 71.05 -0.7 70.75 -0.45 Z"/>
</g>

<g id="BDM_300x250_FR_psd_Asset_7_V8_3_et_personnaliser_davantage__l_exp_rience_client__0_Layer0_0_MEMBER_19_FILL">
<path fill="#D82C26" stroke="none" d="
M 74.8 -3.9
Q 74.3 -3.9 74 -3.65 73.6 -3.4 73.45 -3
L 73.4 -3.8 72.95 -3.8 73 0 73.45 0 73.45 -1.95
Q 73.45 -2.45 73.65 -2.8 73.8 -3.15 74.1 -3.35 74.4 -3.5 74.75 -3.5 75.3 -3.5 75.5 -3.15 75.75 -2.85 75.75 -2.2
L 75.75 0 76.25 0 76.25 -2.3
Q 76.25 -2.9 75.9 -3.45 75.55 -3.9 74.8 -3.9 Z"/>
</g>

<g id="BDM_300x250_FR_psd_Asset_7_V8_3_et_personnaliser_davantage__l_exp_rience_client__0_Layer0_0_MEMBER_20_FILL">
<path fill="#D82C26" stroke="none" d="
M 78.95 -3.45
L 79 -3.8 77.95 -3.8 77.95 -4.9 77.45 -4.7 77.45 -3.8 76.85 -3.8 76.75 -3.45 77.45 -3.45 77.45 -0.9
Q 77.45 -0.45 77.7 -0.2 77.95 0.1 78.35 0.1
L 79.15 -0.1 79.1 -0.5
Q 78.85 -0.3 78.5 -0.3 78.25 -0.3 78.1 -0.45 77.95 -0.65 77.95 -1
L 77.95 -3.45 78.95 -3.45 Z"/>
</g>

<g id="BDM_300x250_FR_psd_Asset_7_V8_3_et_personnaliser_davantage__l_exp_rience_client__0_Layer0_0_MEMBER_21_FILL">
<path fill="#D82C26" stroke="none" d="
M 79.65 -1
Q 79.65 -0.4 80 -0.2 80.4 0.1 80.85 0.1 81.35 0.1 81.7 -0.1 82.1 -0.35 82.25 -0.75
L 82.3 -0.75 82.3 -0.35 82.35 0 82.8 0 82.7 -0.85 82.7 -2.45
Q 82.7 -3.2 82.35 -3.55 81.95 -3.9 81.25 -3.9 80.75 -3.9 80.5 -3.8 80 -3.6 79.85 -3.45
L 80 -3.05 80.55 -3.4
Q 80.85 -3.55 81.2 -3.55 81.65 -3.55 82 -3.3 82.25 -3.05 82.25 -2.5
L 82.25 -2.3 81.8 -2.3
Q 79.65 -2.3 79.65 -1
M 80.35 -0.45
Q 80.1 -0.55 80.1 -1.05 80.1 -1.95 81.85 -1.95
L 82.25 -1.95 82.25 -1.6
Q 82.25 -1.25 82.1 -0.95 81.95 -0.7 81.65 -0.45 81.4 -0.25 80.95 -0.25 80.55 -0.25 80.35 -0.45 Z"/>
</g>

<g id="BDM_300x250_FR_psd_Asset_7_V8_3_et_personnaliser_davantage__l_exp_rience_client__0_Layer0_0_MEMBER_22_FILL">
<path fill="#D82C26" stroke="none" d="
M 85.55 -3.9
Q 85.05 -3.9 84.55 -3.65 84.05 -3.3 83.85 -2.9 83.6 -2.4 83.6 -1.9 83.6 -1.4 83.85 -0.9 84.1 -0.45 84.55 -0.2 84.85 0.05 85.55 0.05 86.05 0.05 86.45 -0.15 86.95 -0.55 87.05 -0.85
L 87.1 -0.85 87.1 -0.05
Q 87.1 0.65 86.7 1.15 86.35 1.6 85.5 1.6 85.1 1.6 84.7 1.45
L 83.95 1.1 83.85 1.55
Q 84.25 1.8 84.65 1.85 85.05 2 85.55 2 86.6 2 87.05 1.45 87.55 0.9 87.55 -0.05
L 87.6 -3.8 87.15 -3.8 87.1 -2.95
Q 86.9 -3.4 86.45 -3.65 86.1 -3.9 85.55 -3.9
M 84.8 -3.3
Q 85.15 -3.5 85.6 -3.5 86.1 -3.5 86.35 -3.3 86.75 -3.05 86.9 -2.7 87.1 -2.35 87.1 -1.9 87.1 -1.45 86.9 -1.1 86.8 -0.8 86.35 -0.55 86 -0.3 85.6 -0.3 85.2 -0.3 84.8 -0.55 84.45 -0.8 84.3 -1.1 84.1 -1.45 84.1 -1.9 84.1 -2.35 84.3 -2.7 84.45 -3 84.8 -3.3 Z"/>
</g>

<g id="BDM_300x250_FR_psd_Asset_7_V8_3_et_personnaliser_davantage__l_exp_rience_client__0_Layer0_0_MEMBER_23_FILL">
<path fill="#D82C26" stroke="none" d="
M 90.4 -3.9
Q 89.8 -3.9 89.4 -3.65 88.95 -3.4 88.75 -2.95 88.5 -2.45 88.5 -1.9 88.5 -1.45 88.75 -0.85 89 -0.4 89.45 -0.15 89.85 0.1 90.45 0.1 91.35 0.1 91.95 -0.35
L 91.9 -0.75 91.25 -0.4
Q 91 -0.3 90.5 -0.3 90.05 -0.3 89.7 -0.5 89.35 -0.7 89.15 -1.05 88.95 -1.55 88.95 -1.85
L 92.2 -1.85 92.2 -2.05
Q 92.2 -2.4 92 -3 91.7 -3.45 91.35 -3.65 91.05 -3.9 90.4 -3.9
M 89.65 -3.35
Q 89.9 -3.55 90.4 -3.55 90.95 -3.55 91.35 -3.15 91.65 -2.9 91.75 -2.2
L 88.95 -2.2 89.15 -2.8
Q 89.35 -3.15 89.65 -3.35 Z"/>
</g>

<g id="BDM_300x250_FR_psd_Asset_7_V8_3_et_personnaliser_davantage__l_exp_rience_client__0_Layer0_0_MEMBER_24_FILL">
<path fill="#D82C26" stroke="none" d="
M 0.95 8.95
Q 1.1 9.15 1.35 9.25
L 1.6 8.85
Q 1.35 8.75 1.3 8.65
L 1.25 8.25 1.25 3 0.75 3.1 0.75 8.35
Q 0.75 8.75 0.95 8.95 Z"/>
</g>

<g id="BDM_300x250_FR_psd_Asset_7_V8_3_et_personnaliser_davantage__l_exp_rience_client__0_Layer0_0_MEMBER_25_FILL">
<path fill="#D82C26" stroke="none" d="
M 3.3 3.55
Q 3.25 3.45 3.05 3.45 2.85 3.45 2.8 3.55
L 2.7 3.8 2.8 4.05 3.05 4.15 2.85 4.7 2.5 5.15 2.7 5.25
Q 3.4 4.55 3.4 3.9 3.4 3.65 3.3 3.55 Z"/>
</g>

<g id="BDM_300x250_FR_psd_Asset_7_V8_3_et_personnaliser_davantage__l_exp_rience_client__0_Layer0_0_MEMBER_26_FILL">
<path fill="#D82C26" stroke="none" d="
M 6.65 5.5
Q 6.25 5.25 5.7 5.25 5.15 5.25 4.75 5.5 4.25 5.85 4.05 6.2 3.8 6.8 3.8 7.25 3.8 7.8 4.05 8.3 4.25 8.75 4.75 9.05 5.25 9.3 5.75 9.3 6.7 9.3 7.25 8.8
L 7.2 8.4 6.55 8.75
Q 6.25 8.9 5.8 8.9 5.35 8.9 5 8.7
L 4.45 8.15
Q 4.25 7.65 4.25 7.35
L 7.5 7.35 7.5 7.15
Q 7.5 6.6 7.3 6.2 7.1 5.8 6.65 5.5
M 5.7 5.65
Q 6.3 5.65 6.65 6 7.05 6.4 7.05 7
L 4.25 7 4.45 6.4
Q 4.55 6.15 4.95 5.85 5.2 5.65 5.7 5.65 Z"/>
</g>

<g id="BDM_300x250_FR_psd_Asset_7_V8_3_et_personnaliser_davantage__l_exp_rience_client__0_Layer0_0_MEMBER_27_FILL">
<path fill="#D82C26" stroke="none" d="
M 11.3 5.4
L 10.75 5.4 9.65 6.85 8.6 5.4 8 5.4 9.35 7.2 7.85 9.2 8.4 9.2 9.65 7.5 10.9 9.2 11.5 9.2 9.95 7.15 11.3 5.4 Z"/>
</g>

<g id="BDM_300x250_FR_psd_Asset_7_V8_3_et_personnaliser_davantage__l_exp_rience_client__0_Layer0_0_MEMBER_28_FILL">
<path fill="#D82C26" stroke="none" d="
M 12.6 5.4
L 12.15 5.4 12.15 11.15 12.65 11.15 12.65 8.35 12.7 8.35
Q 12.85 8.8 13.3 9.05 13.8 9.3 14.2 9.3 14.75 9.3 15.2 9 15.55 8.85 15.9 8.3 16.1 7.9 16.1 7.3 16.1 6.65 15.9 6.25 15.55 5.75 15.2 5.55 14.75 5.25 14.2 5.25 13.8 5.25 13.3 5.5 12.85 5.8 12.65 6.2
L 12.6 5.4
M 14.15 5.65
Q 14.55 5.65 14.95 5.9 15.35 6.2 15.45 6.45 15.65 6.95 15.65 7.3 15.65 7.6 15.45 8.1 15.3 8.5 14.95 8.65 14.55 8.9 14.15 8.9 13.75 8.9 13.35 8.65 12.95 8.35 12.85 8.1 12.65 7.75 12.65 7.3 12.65 6.8 12.85 6.45 12.95 6.2 13.35 5.9 13.75 5.65 14.15 5.65 Z"/>
</g>

<g id="BDM_300x250_FR_psd_Asset_7_V8_3_et_personnaliser_davantage__l_exp_rience_client__0_Layer0_0_MEMBER_29_FILL">
<path fill="#D82C26" stroke="none" d="
M 19.2 3.4
L 18.4 4.6 18.75 4.6 19.75 3.4 19.2 3.4
M 20.5 7.15
Q 20.5 6.6 20.3 6.2 20.1 5.85 19.7 5.5 19.2 5.25 18.7 5.25 18.25 5.25 17.75 5.5 17.3 5.8 17.1 6.2 16.85 6.65 16.85 7.25 16.85 7.95 17.1 8.3 17.3 8.75 17.8 9.05 18.2 9.3 18.8 9.3 19.65 9.3 20.3 8.8
L 20.2 8.4
Q 20 8.6 19.6 8.75 19.25 8.9 18.8 8.9 18.3 8.9 18.05 8.7 17.8 8.55 17.5 8.15 17.3 7.8 17.3 7.35
L 20.5 7.35 20.5 7.15
M 18.7 5.65
Q 19.35 5.65 19.7 6 20.05 6.35 20.05 7
L 17.3 7
Q 17.3 6.65 17.5 6.4 17.6 6.1 17.95 5.85 18.3 5.65 18.7 5.65 Z"/>
</g>

<g id="BDM_300x250_FR_psd_Asset_7_V8_3_et_personnaliser_davantage__l_exp_rience_client__0_Layer0_0_MEMBER_30_FILL">
<path fill="#D82C26" stroke="none" d="
M 21.85 5.4
L 21.4 5.4 21.45 9.2 21.95 9.2 21.95 7.3
Q 21.95 6.65 22.2 6.15 22.5 5.7 23 5.7
L 23.35 5.75 23.45 5.35 23.05 5.25
Q 22.75 5.25 22.4 5.5 22 5.9 21.95 6.2
L 21.9 6.2 21.85 5.4 Z"/>
</g>

<g id="BDM_300x250_FR_psd_Asset_7_V8_3_et_personnaliser_davantage__l_exp_rience_client__0_Layer0_0_MEMBER_31_FILL">
<path fill="#D82C26" stroke="none" d="
M 24.55 5.4
L 24.05 5.4 24.05 9.2 24.55 9.2 24.55 5.4
M 24.3 4.2
L 24.55 4.1 24.65 3.85 24.55 3.6 24.3 3.5 24.05 3.6 23.95 3.85 24.05 4.1 24.3 4.2 Z"/>
</g>

<g id="BDM_300x250_FR_psd_Asset_7_V8_3_et_personnaliser_davantage__l_exp_rience_client__0_Layer0_0_MEMBER_32_FILL">
<path fill="#D82C26" stroke="none" d="
M 27.4 5.25
Q 26.9 5.25 26.4 5.5 25.9 5.9 25.75 6.2 25.5 6.8 25.5 7.25 25.5 7.8 25.75 8.3 25.95 8.75 26.45 9.05 26.95 9.3 27.45 9.3 28.4 9.3 28.95 8.8
L 28.9 8.4 28.25 8.75 27.5 8.9
Q 27.05 8.9 26.7 8.7 26.45 8.55 26.15 8.15 25.95 7.65 25.95 7.35
L 29.2 7.35 29.2 7.15
Q 29.2 6.8 29 6.2 28.8 5.8 28.35 5.5 27.95 5.25 27.4 5.25
M 27.4 5.65
Q 28 5.65 28.35 6 28.75 6.4 28.75 7
L 25.95 7 26.15 6.4
Q 26.3 6.05 26.65 5.85 26.9 5.65 27.4 5.65 Z"/>
</g>

<g id="BDM_300x250_FR_psd_Asset_7_V8_3_et_personnaliser_davantage__l_exp_rience_client__0_Layer0_0_MEMBER_33_FILL">
<path fill="#D82C26" stroke="none" d="
M 32 5.25
Q 31.55 5.25 31.15 5.5 30.7 5.85 30.6 6.2
L 30.55 5.4 30.1 5.4 30.15 9.2 30.6 9.2 30.6 7.25
Q 30.6 6.75 30.8 6.4 30.95 6 31.25 5.85 31.65 5.65 31.9 5.65 32.4 5.65 32.65 6.05 32.9 6.35 32.9 7
L 32.9 9.2 33.4 9.2 33.4 6.85
Q 33.4 6.25 33.05 5.7 32.7 5.25 32 5.25 Z"/>
</g>

<g id="BDM_300x250_FR_psd_Asset_7_V8_3_et_personnaliser_davantage__l_exp_rience_client__0_Layer0_0_MEMBER_34_FILL">
<path fill="#D82C26" stroke="none" d="
M 37 5.4
Q 36.7 5.25 36.3 5.25 35.75 5.25 35.25 5.5 34.9 5.75 34.55 6.25 34.3 6.75 34.3 7.3 34.3 7.8 34.55 8.3 34.7 8.7 35.25 9.05 35.75 9.3 36.3 9.3 36.7 9.3 37 9.15 37.2 9.1 37.6 8.85
L 37.5 8.45
Q 37.3 8.65 36.95 8.75 36.75 8.9 36.3 8.9 35.9 8.9 35.5 8.65 35.1 8.35 35 8.1 34.8 7.75 34.8 7.3 34.8 6.8 35 6.45 35.1 6.2 35.5 5.9 35.9 5.65 36.3 5.65
L 36.9 5.75 37.4 6.1 37.6 5.7
Q 37.2 5.45 37 5.4 Z"/>
</g>

<g id="BDM_300x250_FR_psd_Asset_7_V8_3_et_personnaliser_davantage__l_exp_rience_client__0_Layer0_0_MEMBER_35_FILL">
<path fill="#D82C26" stroke="none" d="
M 41.5 6.2
Q 41.3 5.85 40.9 5.5 40.4 5.25 39.9 5.25 39.45 5.25 38.95 5.5 38.55 5.8 38.25 6.2 38 6.8 38 7.25 38 7.8 38.25 8.3 38.6 8.8 38.95 9.05 39.45 9.3 39.95 9.3 40.85 9.3 41.5 8.8
L 41.4 8.4
Q 41.2 8.6 40.8 8.75 40.45 8.9 40 8.9 39.5 8.9 39.25 8.7 38.85 8.45 38.7 8.15 38.5 7.8 38.5 7.35
L 41.7 7.35 41.7 7.15
Q 41.7 6.6 41.5 6.2
M 40.9 6
Q 41.25 6.45 41.25 7
L 38.5 7
Q 38.5 6.7 38.65 6.4 38.85 6.1 39.15 5.85 39.4 5.65 39.9 5.65 40.55 5.65 40.9 6 Z"/>
</g>

<g id="BDM_300x250_FR_psd_Asset_7_V8_3_et_personnaliser_davantage__l_exp_rience_client__0_Layer0_0_MEMBER_36_FILL">
<path fill="#D82C26" stroke="none" d="
M 46.65 5.4
L 45.9 5.25
Q 45.4 5.25 44.9 5.5 44.4 5.85 44.2 6.25 43.9 6.7 43.9 7.3 43.9 7.85 44.2 8.3 44.35 8.7 44.9 9.05 45.4 9.3 45.9 9.3
L 46.65 9.15
Q 46.8 9.1 47.2 8.85
L 47.15 8.45
Q 46.85 8.7 46.6 8.75 46.3 8.9 45.95 8.9 45.5 8.9 45.15 8.65 44.8 8.45 44.6 8.1 44.4 7.6 44.4 7.3 44.4 6.95 44.6 6.45 44.8 6.1 45.15 5.9 45.5 5.65 45.95 5.65
L 46.5 5.75
Q 46.9 5.95 47 6.1
L 47.2 5.7
Q 46.8 5.45 46.65 5.4 Z"/>
</g>

<g id="BDM_300x250_FR_psd_Asset_7_V8_3_et_personnaliser_davantage__l_exp_rience_client__0_Layer0_0_MEMBER_37_FILL">
<path fill="#D82C26" stroke="none" d="
M 48.1 8.95
L 48.55 9.25 48.8 8.85
Q 48.55 8.75 48.5 8.65
L 48.45 8.25 48.45 3 47.95 3.1 47.95 8.35
Q 47.95 8.75 48.1 8.95 Z"/>
</g>

<g id="BDM_300x250_FR_psd_Asset_7_V8_3_et_personnaliser_davantage__l_exp_rience_client__0_Layer0_0_MEMBER_38_FILL">
<path fill="#D82C26" stroke="none" d="
M 50.15 5.4
L 49.65 5.4 49.65 9.2 50.15 9.2 50.15 5.4
M 49.9 4.2
L 50.15 4.1 50.25 3.85 50.15 3.6 49.9 3.5 49.65 3.6 49.55 3.85 49.65 4.1 49.9 4.2 Z"/>
</g>

<g id="BDM_300x250_FR_psd_Asset_7_V8_3_et_personnaliser_davantage__l_exp_rience_client__0_Layer0_0_MEMBER_39_FILL">
<path fill="#D82C26" stroke="none" d="
M 53 5.25
Q 52.5 5.25 52 5.5 51.5 5.9 51.35 6.2 51.1 6.65 51.1 7.25 51.1 7.8 51.35 8.3 51.55 8.75 52.05 9.05 52.55 9.3 53.05 9.3 54 9.3 54.55 8.8
L 54.5 8.4 53.85 8.75 53.1 8.9
Q 52.65 8.9 52.3 8.7 52.05 8.55 51.75 8.15 51.55 7.65 51.55 7.35
L 54.8 7.35 54.8 7.15
Q 54.8 6.8 54.6 6.2 54.4 5.8 53.95 5.5 53.55 5.25 53 5.25
M 53 5.65
Q 53.6 5.65 53.95 6 54.25 6.3 54.35 7
L 51.55 7
Q 51.55 6.8 51.75 6.4 51.9 6.05 52.25 5.85 52.5 5.65 53 5.65 Z"/>
</g>

<g id="BDM_300x250_FR_psd_Asset_7_V8_3_et_personnaliser_davantage__l_exp_rience_client__0_Layer0_0_MEMBER_40_FILL">
<path fill="#D82C26" stroke="none" d="
M 56.15 5.4
L 55.7 5.4 55.75 9.2 56.2 9.2 56.2 7.25
Q 56.2 6.8 56.35 6.4 56.6 5.95 56.85 5.85 57.25 5.65 57.45 5.65 58 5.65 58.25 6.05 58.5 6.35 58.5 7
L 58.5 9.2 59 9.2 59 6.85
Q 59 6.25 58.65 5.7 58.3 5.25 57.55 5.25 57.15 5.25 56.75 5.5 56.3 5.85 56.2 6.2
L 56.15 5.4 Z"/>
</g>

<g id="BDM_300x250_FR_psd_Asset_7_V8_3_et_personnaliser_davantage__l_exp_rience_client__0_Layer0_0_MEMBER_41_FILL">
<path fill="#D82C26" stroke="none" d="
M 61.1 9.25
L 61.55 9.2 61.9 9.05 61.85 8.7
Q 61.55 8.85 61.25 8.85 61 8.85 60.85 8.7 60.7 8.55 60.7 8.2
L 60.7 5.75 61.7 5.75 61.75 5.4 60.7 5.4 60.7 4.3 60.2 4.45 60.2 5.4 59.6 5.4 59.5 5.75 60.2 5.75 60.2 8.25
Q 60.2 8.75 60.45 9 60.7 9.25 61.1 9.25 Z"/>
</g>

<g id="BDM_300x250_FR_psd_Asset_7_V8_3_et_personnaliser_davantage__l_exp_rience_client__0_Layer0_0_MEMBER_42_FILL">
<path fill="#D82C26" stroke="none" d="
M 62.7 9.15
L 62.95 9.25 63.2 9.15 63.3 8.85 63.2 8.6 62.95 8.5 62.7 8.6
Q 62.6 8.7 62.6 8.85 62.6 9.05 62.7 9.15 Z"/>
</g>
</defs>

<g transform="matrix( 1, 0, 0, 1, -5,-31) ">
<g transform="matrix( 1, 0, 0, 1, 0,48) ">
<g transform="matrix( 1, 0, 0, 1, 26,12) ">
<g transform="matrix( 2.815704345703125, 0, 0, 2.832611083984375, -0.85,17.6) ">
<use xlink:href="#BDM_300x250_FR_psd_Asset_7_V8_3_et_personnaliser_davantage__l_exp_rience_client__0_Layer0_0_MEMBER_0_FILL"/>
</g>

<g transform="matrix( 2.815704345703125, 0, 0, 2.832611083984375, -0.85,17.6) ">
<use xlink:href="#BDM_300x250_FR_psd_Asset_7_V8_3_et_personnaliser_davantage__l_exp_rience_client__0_Layer0_0_MEMBER_1_FILL"/>
</g>

<g transform="matrix( 2.815704345703125, 0, 0, 2.832611083984375, -0.85,17.6) ">
<use xlink:href="#BDM_300x250_FR_psd_Asset_7_V8_3_et_personnaliser_davantage__l_exp_rience_client__0_Layer0_0_MEMBER_2_FILL"/>
</g>

<g transform="matrix( 2.815704345703125, 0, 0, 2.832611083984375, -0.85,17.6) ">
<use xlink:href="#BDM_300x250_FR_psd_Asset_7_V8_3_et_personnaliser_davantage__l_exp_rience_client__0_Layer0_0_MEMBER_3_FILL"/>
</g>

<g transform="matrix( 2.815704345703125, 0, 0, 2.832611083984375, -0.85,17.6) ">
<use xlink:href="#BDM_300x250_FR_psd_Asset_7_V8_3_et_personnaliser_davantage__l_exp_rience_client__0_Layer0_0_MEMBER_4_FILL"/>
</g>

<g transform="matrix( 2.815704345703125, 0, 0, 2.832611083984375, -0.85,17.6) ">
<use xlink:href="#BDM_300x250_FR_psd_Asset_7_V8_3_et_personnaliser_davantage__l_exp_rience_client__0_Layer0_0_MEMBER_5_FILL"/>
</g>

<g transform="matrix( 2.815704345703125, 0, 0, 2.832611083984375, -0.85,17.6) ">
<use xlink:href="#BDM_300x250_FR_psd_Asset_7_V8_3_et_personnaliser_davantage__l_exp_rience_client__0_Layer0_0_MEMBER_6_FILL"/>
</g>

<g transform="matrix( 2.815704345703125, 0, 0, 2.832611083984375, -0.85,17.6) ">
<use xlink:href="#BDM_300x250_FR_psd_Asset_7_V8_3_et_personnaliser_davantage__l_exp_rience_client__0_Layer0_0_MEMBER_7_FILL"/>
</g>

<g transform="matrix( 2.815704345703125, 0, 0, 2.832611083984375, -0.85,17.6) ">
<use xlink:href="#BDM_300x250_FR_psd_Asset_7_V8_3_et_personnaliser_davantage__l_exp_rience_client__0_Layer0_0_MEMBER_8_FILL"/>
</g>

<g transform="matrix( 2.815704345703125, 0, 0, 2.832611083984375, -0.85,17.6) ">
<use xlink:href="#BDM_300x250_FR_psd_Asset_7_V8_3_et_personnaliser_davantage__l_exp_rience_client__0_Layer0_0_MEMBER_9_FILL"/>
</g>

<g transform="matrix( 2.815704345703125, 0, 0, 2.832611083984375, -0.85,17.6) ">
<use xlink:href="#BDM_300x250_FR_psd_Asset_7_V8_3_et_personnaliser_davantage__l_exp_rience_client__0_Layer0_0_MEMBER_10_FILL"/>
</g>

<g transform="matrix( 2.815704345703125, 0, 0, 2.832611083984375, -0.85,17.6) ">
<use xlink:href="#BDM_300x250_FR_psd_Asset_7_V8_3_et_personnaliser_davantage__l_exp_rience_client__0_Layer0_0_MEMBER_11_FILL"/>
</g>

<g transform="matrix( 2.815704345703125, 0, 0, 2.832611083984375, -0.85,17.6) ">
<use xlink:href="#BDM_300x250_FR_psd_Asset_7_V8_3_et_personnaliser_davantage__l_exp_rience_client__0_Layer0_0_MEMBER_12_FILL"/>
</g>

<g transform="matrix( 2.815704345703125, 0, 0, 2.832611083984375, -0.85,17.6) ">
<use xlink:href="#BDM_300x250_FR_psd_Asset_7_V8_3_et_personnaliser_davantage__l_exp_rience_client__0_Layer0_0_MEMBER_13_FILL"/>
</g>

<g transform="matrix( 2.815704345703125, 0, 0, 2.832611083984375, -0.85,17.6) ">
<use xlink:href="#BDM_300x250_FR_psd_Asset_7_V8_3_et_personnaliser_davantage__l_exp_rience_client__0_Layer0_0_MEMBER_14_FILL"/>
</g>

<g transform="matrix( 2.815704345703125, 0, 0, 2.832611083984375, -0.85,17.6) ">
<use xlink:href="#BDM_300x250_FR_psd_Asset_7_V8_3_et_personnaliser_davantage__l_exp_rience_client__0_Layer0_0_MEMBER_15_FILL"/>
</g>

<g transform="matrix( 2.815704345703125, 0, 0, 2.832611083984375, -0.85,17.6) ">
<use xlink:href="#BDM_300x250_FR_psd_Asset_7_V8_3_et_personnaliser_davantage__l_exp_rience_client__0_Layer0_0_MEMBER_16_FILL"/>
</g>

<g transform="matrix( 2.815704345703125, 0, 0, 2.832611083984375, -0.85,17.6) ">
<use xlink:href="#BDM_300x250_FR_psd_Asset_7_V8_3_et_personnaliser_davantage__l_exp_rience_client__0_Layer0_0_MEMBER_17_FILL"/>
</g>

<g transform="matrix( 2.815704345703125, 0, 0, 2.832611083984375, -0.85,17.6) ">
<use xlink:href="#BDM_300x250_FR_psd_Asset_7_V8_3_et_personnaliser_davantage__l_exp_rience_client__0_Layer0_0_MEMBER_18_FILL"/>
</g>

<g transform="matrix( 2.815704345703125, 0, 0, 2.832611083984375, -0.85,17.6) ">
<use xlink:href="#BDM_300x250_FR_psd_Asset_7_V8_3_et_personnaliser_davantage__l_exp_rience_client__0_Layer0_0_MEMBER_19_FILL"/>
</g>

<g transform="matrix( 2.815704345703125, 0, 0, 2.832611083984375, -0.85,17.6) ">
<use xlink:href="#BDM_300x250_FR_psd_Asset_7_V8_3_et_personnaliser_davantage__l_exp_rience_client__0_Layer0_0_MEMBER_20_FILL"/>
</g>

<g transform="matrix( 2.815704345703125, 0, 0, 2.832611083984375, -0.85,17.6) ">
<use xlink:href="#BDM_300x250_FR_psd_Asset_7_V8_3_et_personnaliser_davantage__l_exp_rience_client__0_Layer0_0_MEMBER_21_FILL"/>
</g>

<g transform="matrix( 2.815704345703125, 0, 0, 2.832611083984375, -0.85,17.6) ">
<use xlink:href="#BDM_300x250_FR_psd_Asset_7_V8_3_et_personnaliser_davantage__l_exp_rience_client__0_Layer0_0_MEMBER_22_FILL"/>
</g>

<g transform="matrix( 2.815704345703125, 0, 0, 2.832611083984375, -0.85,17.6) ">
<use xlink:href="#BDM_300x250_FR_psd_Asset_7_V8_3_et_personnaliser_davantage__l_exp_rience_client__0_Layer0_0_MEMBER_23_FILL"/>
</g>

<g transform="matrix( 2.815704345703125, 0, 0, 2.832611083984375, -0.85,17.6) ">
<use xlink:href="#BDM_300x250_FR_psd_Asset_7_V8_3_et_personnaliser_davantage__l_exp_rience_client__0_Layer0_0_MEMBER_24_FILL"/>
</g>

<g transform="matrix( 2.815704345703125, 0, 0, 2.832611083984375, -0.85,17.6) ">
<use xlink:href="#BDM_300x250_FR_psd_Asset_7_V8_3_et_personnaliser_davantage__l_exp_rience_client__0_Layer0_0_MEMBER_25_FILL"/>
</g>

<g transform="matrix( 2.815704345703125, 0, 0, 2.832611083984375, -0.85,17.6) ">
<use xlink:href="#BDM_300x250_FR_psd_Asset_7_V8_3_et_personnaliser_davantage__l_exp_rience_client__0_Layer0_0_MEMBER_26_FILL"/>
</g>

<g transform="matrix( 2.815704345703125, 0, 0, 2.832611083984375, -0.85,17.6) ">
<use xlink:href="#BDM_300x250_FR_psd_Asset_7_V8_3_et_personnaliser_davantage__l_exp_rience_client__0_Layer0_0_MEMBER_27_FILL"/>
</g>

<g transform="matrix( 2.815704345703125, 0, 0, 2.832611083984375, -0.85,17.6) ">
<use xlink:href="#BDM_300x250_FR_psd_Asset_7_V8_3_et_personnaliser_davantage__l_exp_rience_client__0_Layer0_0_MEMBER_28_FILL"/>
</g>

<g transform="matrix( 2.815704345703125, 0, 0, 2.832611083984375, -0.85,17.6) ">
<use xlink:href="#BDM_300x250_FR_psd_Asset_7_V8_3_et_personnaliser_davantage__l_exp_rience_client__0_Layer0_0_MEMBER_29_FILL"/>
</g>

<g transform="matrix( 2.815704345703125, 0, 0, 2.832611083984375, -0.85,17.6) ">
<use xlink:href="#BDM_300x250_FR_psd_Asset_7_V8_3_et_personnaliser_davantage__l_exp_rience_client__0_Layer0_0_MEMBER_30_FILL"/>
</g>

<g transform="matrix( 2.815704345703125, 0, 0, 2.832611083984375, -0.85,17.6) ">
<use xlink:href="#BDM_300x250_FR_psd_Asset_7_V8_3_et_personnaliser_davantage__l_exp_rience_client__0_Layer0_0_MEMBER_31_FILL"/>
</g>

<g transform="matrix( 2.815704345703125, 0, 0, 2.832611083984375, -0.85,17.6) ">
<use xlink:href="#BDM_300x250_FR_psd_Asset_7_V8_3_et_personnaliser_davantage__l_exp_rience_client__0_Layer0_0_MEMBER_32_FILL"/>
</g>

<g transform="matrix( 2.815704345703125, 0, 0, 2.832611083984375, -0.85,17.6) ">
<use xlink:href="#BDM_300x250_FR_psd_Asset_7_V8_3_et_personnaliser_davantage__l_exp_rience_client__0_Layer0_0_MEMBER_33_FILL"/>
</g>

<g transform="matrix( 2.815704345703125, 0, 0, 2.832611083984375, -0.85,17.6) ">
<use xlink:href="#BDM_300x250_FR_psd_Asset_7_V8_3_et_personnaliser_davantage__l_exp_rience_client__0_Layer0_0_MEMBER_34_FILL"/>
</g>

<g transform="matrix( 2.815704345703125, 0, 0, 2.832611083984375, -0.85,17.6) ">
<use xlink:href="#BDM_300x250_FR_psd_Asset_7_V8_3_et_personnaliser_davantage__l_exp_rience_client__0_Layer0_0_MEMBER_35_FILL"/>
</g>

<g transform="matrix( 2.815704345703125, 0, 0, 2.832611083984375, -0.85,17.6) ">
<use xlink:href="#BDM_300x250_FR_psd_Asset_7_V8_3_et_personnaliser_davantage__l_exp_rience_client__0_Layer0_0_MEMBER_36_FILL"/>
</g>

<g transform="matrix( 2.815704345703125, 0, 0, 2.832611083984375, -0.85,17.6) ">
<use xlink:href="#BDM_300x250_FR_psd_Asset_7_V8_3_et_personnaliser_davantage__l_exp_rience_client__0_Layer0_0_MEMBER_37_FILL"/>
</g>

<g transform="matrix( 2.815704345703125, 0, 0, 2.832611083984375, -0.85,17.6) ">
<use xlink:href="#BDM_300x250_FR_psd_Asset_7_V8_3_et_personnaliser_davantage__l_exp_rience_client__0_Layer0_0_MEMBER_38_FILL"/>
</g>

<g transform="matrix( 2.815704345703125, 0, 0, 2.832611083984375, -0.85,17.6) ">
<use xlink:href="#BDM_300x250_FR_psd_Asset_7_V8_3_et_personnaliser_davantage__l_exp_rience_client__0_Layer0_0_MEMBER_39_FILL"/>
</g>

<g transform="matrix( 2.815704345703125, 0, 0, 2.832611083984375, -0.85,17.6) ">
<use xlink:href="#BDM_300x250_FR_psd_Asset_7_V8_3_et_personnaliser_davantage__l_exp_rience_client__0_Layer0_0_MEMBER_40_FILL"/>
</g>

<g transform="matrix( 2.815704345703125, 0, 0, 2.832611083984375, -0.85,17.6) ">
<use xlink:href="#BDM_300x250_FR_psd_Asset_7_V8_3_et_personnaliser_davantage__l_exp_rience_client__0_Layer0_0_MEMBER_41_FILL"/>
</g>

<g transform="matrix( 2.815704345703125, 0, 0, 2.832611083984375, -0.85,17.6) ">
<use xlink:href="#BDM_300x250_FR_psd_Asset_7_V8_3_et_personnaliser_davantage__l_exp_rience_client__0_Layer0_0_MEMBER_42_FILL"/>
</g>
</g>
</g>
</g>
</svg>
