
<svg xmlns="http://www.w3.org/2000/svg" version="1.1" xmlns:xlink="http://www.w3.org/1999/xlink" preserveAspectRatio="none" x="0px" y="0px" width="640px" height="480px" viewBox="0 0 640 480">
<defs>
<g id="IT_640x480_psd_Asset_1_ManagedWiFi_IT_Eval_DM6_1_Choosing_the_right_Wi_Fi_vendor__for_your_business____0_Layer0_0_MEMBER_0_FILL">
<path fill="#D82C26" stroke="none" d="
M 7.25 -8.95
Q 6.35 -9.25 5.45 -9.25 4.1 -9.25 3.05 -8.65 2 -7.95 1.4 -6.95 0.8 -5.8 0.8 -4.5 0.8 -3.15 1.4 -2.05 2 -1.05 3.05 -0.35 4.1 0.25 5.45 0.25 6.25 0.25 7.3 -0.1 8.05 -0.45 8.65 -0.95
L 8.45 -1.65
Q 7.9 -1.1 7.15 -0.8 6.4 -0.45 5.5 -0.45 4.4 -0.45 3.45 -1 2.55 -1.5 2.1 -2.45 1.6 -3.3 1.6 -4.5 1.6 -5.6 2.1 -6.55 2.55 -7.5 3.45 -8 4.4 -8.55 5.5 -8.55 6.4 -8.55 7.1 -8.2 7.9 -7.9 8.35 -7.4
L 8.6 -8.15
Q 8.1 -8.65 7.25 -8.95 Z"/>
</g>

<g id="IT_640x480_psd_Asset_1_ManagedWiFi_IT_Eval_DM6_1_Choosing_the_right_Wi_Fi_vendor__for_your_business____0_Layer0_0_MEMBER_1_FILL">
<path fill="#D82C26" stroke="none" d="
M 14.8 -3.65
Q 14.8 -4.7 14.25 -5.4 13.75 -6.15 12.6 -6.15 11.95 -6.15 11.3 -5.75 10.75 -5.4 10.5 -4.7
L 10.45 -4.7 10.45 -9.7 9.7 -9.6 9.7 0 10.45 0 10.45 -2.9
Q 10.45 -3.65 10.7 -4.3 11 -4.9 11.45 -5.2 11.9 -5.5 12.45 -5.5 13.35 -5.5 13.7 -4.9 14.05 -4.35 14.05 -3.45
L 14.05 0 14.8 0 14.8 -3.65 Z"/>
</g>

<g id="IT_640x480_psd_Asset_1_ManagedWiFi_IT_Eval_DM6_1_Choosing_the_right_Wi_Fi_vendor__for_your_business____0_Layer0_0_MEMBER_2_FILL">
<path fill="#D82C26" stroke="none" d="
M 17.6 -5.75
Q 16.9 -5.3 16.45 -4.6 16.05 -3.9 16.05 -3 16.05 -2.15 16.45 -1.35 17 -0.55 17.6 -0.25 18.3 0.2 19.2 0.2 20.1 0.2 20.85 -0.25 21.55 -0.65 21.95 -1.35 22.4 -2.1 22.4 -3 22.4 -3.9 21.95 -4.6 21.65 -5.2 20.85 -5.75 20.05 -6.15 19.2 -6.15 18.3 -6.15 17.6 -5.75
M 17.95 -5.15
Q 18.45 -5.5 19.2 -5.5 19.95 -5.5 20.5 -5.15 21.05 -4.85 21.35 -4.25 21.65 -3.7 21.65 -3 21.65 -2.3 21.35 -1.7 21.05 -1.2 20.5 -0.8 19.95 -0.45 19.2 -0.45 18.45 -0.45 17.95 -0.8 17.45 -1.1 17.1 -1.7 16.8 -2.3 16.8 -3 16.8 -3.7 17.1 -4.25 17.4 -4.9 17.95 -5.15 Z"/>
</g>

<g id="IT_640x480_psd_Asset_1_ManagedWiFi_IT_Eval_DM6_1_Choosing_the_right_Wi_Fi_vendor__for_your_business____0_Layer0_0_MEMBER_3_FILL">
<path fill="#D82C26" stroke="none" d="
M 23.7 -1.35
Q 24.25 -0.55 24.85 -0.25 25.55 0.2 26.45 0.2 27.35 0.2 28.1 -0.25 28.8 -0.65 29.2 -1.35 29.65 -2.1 29.65 -3 29.65 -3.9 29.2 -4.6 28.9 -5.2 28.1 -5.75 27.3 -6.15 26.45 -6.15 25.55 -6.15 24.85 -5.75 24.15 -5.3 23.7 -4.6 23.3 -3.9 23.3 -3 23.3 -2.15 23.7 -1.35
M 24.35 -4.25
Q 24.65 -4.9 25.2 -5.15 25.7 -5.5 26.45 -5.5 27.2 -5.5 27.75 -5.15 28.3 -4.85 28.6 -4.25 28.9 -3.7 28.9 -3 28.9 -2.3 28.6 -1.7 28.3 -1.2 27.75 -0.8 27.25 -0.45 26.45 -0.45 25.7 -0.45 25.2 -0.8 24.7 -1.1 24.35 -1.7 24.05 -2.3 24.05 -3 24.05 -3.7 24.35 -4.25 Z"/>
</g>

<g id="IT_640x480_psd_Asset_1_ManagedWiFi_IT_Eval_DM6_1_Choosing_the_right_Wi_Fi_vendor__for_your_business____0_Layer0_0_MEMBER_4_FILL">
<path fill="#D82C26" stroke="none" d="
M 34.4 -5.5
L 33.55 -5.95
Q 32.95 -6.15 32.5 -6.15 31.95 -6.15 31.55 -5.95 31.15 -5.8 30.8 -5.4 30.55 -5 30.55 -4.5 30.55 -3.85 30.95 -3.45 31.4 -3.1 32.25 -2.8 32.95 -2.6 33.5 -2.25 33.85 -2.05 33.85 -1.55 33.85 -0.95 33.45 -0.7 33.1 -0.4 32.55 -0.4 31.4 -0.4 30.55 -1.15
L 30.4 -0.5
Q 30.75 -0.25 31.35 0 31.9 0.15 32.55 0.15 33.15 0.15 33.55 -0.05 33.95 -0.2 34.3 -0.6 34.6 -1.05 34.6 -1.55 34.6 -2.2 34.15 -2.6 33.8 -2.95 32.75 -3.3
L 31.55 -3.85
Q 31.25 -4.05 31.25 -4.55 31.25 -5 31.6 -5.3 32 -5.55 32.55 -5.55 32.95 -5.55 33.4 -5.4 34.05 -5 34.1 -4.95
L 34.4 -5.5 Z"/>
</g>

<g id="IT_640x480_psd_Asset_1_ManagedWiFi_IT_Eval_DM6_1_Choosing_the_right_Wi_Fi_vendor__for_your_business____0_Layer0_0_MEMBER_5_FILL">
<path fill="#D82C26" stroke="none" d="
M 36.5 -5.95
L 35.75 -5.95 35.75 0 36.5 0 36.5 -5.95
M 36.1 -7.8
Q 36.35 -7.8 36.5 -7.95 36.65 -8.1 36.65 -8.35 36.65 -8.55 36.5 -8.7 36.35 -8.85 36.1 -8.85 35.9 -8.85 35.75 -8.7 35.6 -8.55 35.6 -8.35 35.6 -8.1 35.75 -7.95 35.9 -7.8 36.1 -7.8 Z"/>
</g>

<g id="IT_640x480_psd_Asset_1_ManagedWiFi_IT_Eval_DM6_1_Choosing_the_right_Wi_Fi_vendor__for_your_business____0_Layer0_0_MEMBER_6_FILL">
<path fill="#D82C26" stroke="none" d="
M 38.85 -5.95
L 38.15 -5.95 38.2 0 38.95 0 38.95 -3.05
Q 38.95 -3.75 39.2 -4.35 39.5 -4.9 39.9 -5.2 40.45 -5.5 40.9 -5.5 41.8 -5.5 42.15 -4.9 42.55 -4.25 42.55 -3.45
L 42.55 0 43.3 0 43.3 -3.65
Q 43.3 -4.7 42.75 -5.4 42.25 -6.15 41.1 -6.15 40.4 -6.15 39.75 -5.75 39.15 -5.25 38.95 -4.65
L 38.9 -4.65 38.85 -5.95 Z"/>
</g>

<g id="IT_640x480_psd_Asset_1_ManagedWiFi_IT_Eval_DM6_1_Choosing_the_right_Wi_Fi_vendor__for_your_business____0_Layer0_0_MEMBER_7_FILL">
<path fill="#D82C26" stroke="none" d="
M 44.9 -4.55
Q 44.55 -3.9 44.55 -3 44.55 -2.05 44.9 -1.4 45.3 -0.65 45.95 -0.3 46.55 0.1 47.5 0.1 48.3 0.1 48.95 -0.25 49.55 -0.65 49.95 -1.35
L 49.95 -0.1
Q 49.95 1.15 49.35 1.8 48.75 2.5 47.5 2.5 46.95 2.5 46.2 2.25 45.6 2.1 45.05 1.7
L 44.9 2.4
Q 45.55 2.75 46.1 2.95 47 3.15 47.55 3.15 49.15 3.15 49.9 2.25 50.7 1.4 50.7 -0.1
L 50.75 -5.95 50.05 -5.95 49.95 -4.65
Q 49.55 -5.4 48.95 -5.75 48.25 -6.15 47.5 -6.15 46.65 -6.15 45.95 -5.7 45.3 -5.35 44.9 -4.55
M 45.3 -3
Q 45.3 -3.75 45.55 -4.25 45.85 -4.85 46.4 -5.15 46.9 -5.5 47.6 -5.5 48.3 -5.5 48.85 -5.15 49.3 -4.9 49.7 -4.25 50 -3.65 50 -3 50 -2.25 49.7 -1.75 49.3 -1.1 48.85 -0.85 48.3 -0.5 47.6 -0.5 46.9 -0.5 46.4 -0.85 45.85 -1.15 45.55 -1.75 45.3 -2.2 45.3 -3 Z"/>
</g>

<g id="IT_640x480_psd_Asset_1_ManagedWiFi_IT_Eval_DM6_1_Choosing_the_right_Wi_Fi_vendor__for_your_business____0_Layer0_0_MEMBER_8_FILL">
<path fill="#D82C26" stroke="none" d="
M 55.3 -1.45
Q 55.3 -0.65 55.65 -0.3 56.05 0.15 56.7 0.15
L 57.35 0.05 57.95 -0.2 57.85 -0.75
Q 57.4 -0.5 56.9 -0.5 56.45 -0.5 56.25 -0.75 56.05 -0.95 56.05 -1.55
L 56.05 -5.35 57.55 -5.35 57.7 -5.95 56.05 -5.95 56.05 -7.65 55.3 -7.35 55.3 -5.95 54.35 -5.95 54.15 -5.35 55.3 -5.35 55.3 -1.45 Z"/>
</g>

<g id="IT_640x480_psd_Asset_1_ManagedWiFi_IT_Eval_DM6_1_Choosing_the_right_Wi_Fi_vendor__for_your_business____0_Layer0_0_MEMBER_9_FILL">
<path fill="#D82C26" stroke="none" d="
M 59.55 -9.7
L 58.8 -9.6 58.8 0 59.55 0 59.55 -2.9
Q 59.55 -3.7 59.85 -4.3 60.05 -4.9 60.55 -5.2 61 -5.5 61.55 -5.5 62.45 -5.5 62.8 -4.9 63.15 -4.35 63.15 -3.45
L 63.15 0 63.9 0 63.9 -3.65
Q 63.9 -4.75 63.4 -5.4 62.9 -6.15 61.75 -6.15 61 -6.15 60.45 -5.75 59.8 -5.35 59.6 -4.7
L 59.55 -4.7 59.55 -9.7 Z"/>
</g>

<g id="IT_640x480_psd_Asset_1_ManagedWiFi_IT_Eval_DM6_1_Choosing_the_right_Wi_Fi_vendor__for_your_business____0_Layer0_0_MEMBER_10_FILL">
<path fill="#D82C26" stroke="none" d="
M 65.15 -3
Q 65.15 -2.15 65.55 -1.35 66.05 -0.55 66.65 -0.25 67.35 0.2 68.2 0.2 69.65 0.2 70.6 -0.55
L 70.45 -1.2
Q 70 -0.85 69.5 -0.65 68.95 -0.45 68.3 -0.45 67.6 -0.45 67.05 -0.75 66.5 -1.15 66.2 -1.65 65.9 -2.15 65.9 -2.85
L 70.95 -2.85 70.95 -3.2
Q 70.95 -4.05 70.6 -4.7 70.3 -5.4 69.65 -5.75 68.95 -6.15 68.1 -6.15 67.3 -6.15 66.6 -5.75 65.9 -5.3 65.55 -4.65 65.15 -3.85 65.15 -3
M 69.65 -4.95
Q 70.15 -4.5 70.25 -3.4
L 65.9 -3.4
Q 65.9 -3.85 66.2 -4.4 66.45 -4.9 66.95 -5.2 67.45 -5.55 68.1 -5.55 69.05 -5.55 69.65 -4.95 Z"/>
</g>

<g id="IT_640x480_psd_Asset_1_ManagedWiFi_IT_Eval_DM6_1_Choosing_the_right_Wi_Fi_vendor__for_your_business____0_Layer0_0_MEMBER_11_FILL">
<path fill="#D82C26" stroke="none" d="
M 75.75 -4.65
L 75.65 -5.95 74.95 -5.95 75 0 75.75 0 75.75 -2.95
Q 75.75 -4 76.2 -4.75 76.65 -5.45 77.45 -5.45
L 78 -5.4 78.15 -6
Q 77.85 -6.15 77.5 -6.15 77 -6.15 76.5 -5.75 76 -5.4 75.75 -4.65 Z"/>
</g>

<g id="IT_640x480_psd_Asset_1_ManagedWiFi_IT_Eval_DM6_1_Choosing_the_right_Wi_Fi_vendor__for_your_business____0_Layer0_0_MEMBER_12_FILL">
<path fill="#D82C26" stroke="none" d="
M 79.7 -5.95
L 78.95 -5.95 78.95 0 79.7 0 79.7 -5.95
M 79.3 -7.8
Q 79.55 -7.8 79.7 -7.95 79.85 -8.1 79.85 -8.35 79.85 -8.55 79.7 -8.7 79.55 -8.85 79.3 -8.85 79.1 -8.85 78.95 -8.7 78.8 -8.55 78.8 -8.35 78.8 -8.1 78.95 -7.95 79.1 -7.8 79.3 -7.8 Z"/>
</g>

<g id="IT_640x480_psd_Asset_1_ManagedWiFi_IT_Eval_DM6_1_Choosing_the_right_Wi_Fi_vendor__for_your_business____0_Layer0_0_MEMBER_13_FILL">
<path fill="#D82C26" stroke="none" d="
M 85.35 -5.75
Q 84.7 -6.15 83.95 -6.15 83.1 -6.15 82.4 -5.7 81.75 -5.35 81.35 -4.55 80.95 -3.85 80.95 -3 80.95 -2.1 81.35 -1.4 81.75 -0.65 82.4 -0.3 83 0.1 83.95 0.1 84.75 0.1 85.4 -0.25 86.1 -0.75 86.35 -1.35
L 86.4 -1.35 86.4 -0.1
Q 86.4 1.15 85.8 1.8 85.2 2.5 83.95 2.5 83.3 2.5 82.65 2.25 82.1 2.15 81.5 1.7
L 81.35 2.4
Q 82 2.75 82.55 2.95 83.45 3.15 83.95 3.15 85.6 3.15 86.35 2.25 87.15 1.4 87.15 -0.1
L 87.15 -5.95 86.45 -5.95 86.4 -4.65
Q 86 -5.4 85.35 -5.75
M 84.05 -5.5
Q 84.75 -5.5 85.25 -5.15 85.8 -4.9 86.1 -4.25 86.4 -3.65 86.4 -3 86.4 -2.25 86.1 -1.75 85.8 -1.1 85.25 -0.85 84.75 -0.5 84.05 -0.5 83.35 -0.5 82.8 -0.85 82.3 -1.15 82 -1.75 81.7 -2.25 81.7 -3 81.7 -3.65 82 -4.25 82.3 -4.85 82.8 -5.15 83.35 -5.5 84.05 -5.5 Z"/>
</g>

<g id="IT_640x480_psd_Asset_1_ManagedWiFi_IT_Eval_DM6_1_Choosing_the_right_Wi_Fi_vendor__for_your_business____0_Layer0_0_MEMBER_14_FILL">
<path fill="#D82C26" stroke="none" d="
M 89.55 -9.7
L 88.8 -9.6 88.8 0 89.55 0 89.55 -2.9
Q 89.55 -3.7 89.85 -4.3 90.05 -4.9 90.55 -5.2 91 -5.5 91.55 -5.5 92.45 -5.5 92.8 -4.9 93.15 -4.35 93.15 -3.45
L 93.15 0 93.9 0 93.9 -3.65
Q 93.9 -4.75 93.4 -5.4 92.9 -6.15 91.75 -6.15 91 -6.15 90.45 -5.75 89.8 -5.35 89.6 -4.7
L 89.55 -4.7 89.55 -9.7 Z"/>
</g>

<g id="IT_640x480_psd_Asset_1_ManagedWiFi_IT_Eval_DM6_1_Choosing_the_right_Wi_Fi_vendor__for_your_business____0_Layer0_0_MEMBER_15_FILL">
<path fill="#D82C26" stroke="none" d="
M 95.65 -1.45
Q 95.65 -0.7 96.05 -0.3 96.45 0.15 97.05 0.15
L 97.7 0.05 98.3 -0.2 98.2 -0.75
Q 97.75 -0.5 97.25 -0.5 96.85 -0.5 96.65 -0.75 96.4 -1 96.4 -1.55
L 96.4 -5.35 97.95 -5.35 98.1 -5.95 96.4 -5.95 96.4 -7.65 95.65 -7.35 95.65 -5.95 94.7 -5.95 94.55 -5.35 95.65 -5.35 95.65 -1.45 Z"/>
</g>

<g id="IT_640x480_psd_Asset_1_ManagedWiFi_IT_Eval_DM6_1_Choosing_the_right_Wi_Fi_vendor__for_your_business____0_Layer0_0_MEMBER_16_FILL">
<path fill="#D82C26" stroke="none" d="
M 112.75 -9
L 111.95 -9 109.65 -1 109.6 -1 107.25 -9 106.35 -9 104.05 -1 104 -1 101.7 -9 100.9 -9 103.55 0 104.45 0 106.8 -8 109.2 0 110.1 0 112.75 -9 Z"/>
</g>

<g id="IT_640x480_psd_Asset_1_ManagedWiFi_IT_Eval_DM6_1_Choosing_the_right_Wi_Fi_vendor__for_your_business____0_Layer0_0_MEMBER_17_FILL">
<path fill="#D82C26" stroke="none" d="
M 114.5 -5.95
L 113.75 -5.95 113.75 0 114.5 0 114.5 -5.95
M 114.1 -7.8
Q 114.35 -7.8 114.5 -7.95 114.65 -8.1 114.65 -8.35 114.65 -8.55 114.5 -8.7 114.35 -8.85 114.1 -8.85 113.9 -8.85 113.75 -8.7 113.6 -8.55 113.6 -8.35 113.6 -8.1 113.75 -7.95 113.9 -7.8 114.1 -7.8 Z"/>
</g>

<g id="IT_640x480_psd_Asset_1_ManagedWiFi_IT_Eval_DM6_1_Choosing_the_right_Wi_Fi_vendor__for_your_business____0_Layer0_0_MEMBER_18_FILL">
<path fill="#D82C26" stroke="none" d="
M 115.85 -3.5
L 115.85 -2.9 118.45 -2.9 118.45 -3.5 115.85 -3.5 Z"/>
</g>

<g id="IT_640x480_psd_Asset_1_ManagedWiFi_IT_Eval_DM6_1_Choosing_the_right_Wi_Fi_vendor__for_your_business____0_Layer0_0_MEMBER_19_FILL">
<path fill="#D82C26" stroke="none" d="
M 120.85 -4.95
L 120.85 -8.3 124.65 -8.3 124.7 -9 120.05 -9 120.05 0 120.85 0 120.85 -4.3 124.35 -4.3 124.5 -4.95 120.85 -4.95 Z"/>
</g>

<g id="IT_640x480_psd_Asset_1_ManagedWiFi_IT_Eval_DM6_1_Choosing_the_right_Wi_Fi_vendor__for_your_business____0_Layer0_0_MEMBER_20_FILL">
<path fill="#D82C26" stroke="none" d="
M 126.65 -5.95
L 125.9 -5.95 125.9 0 126.65 0 126.65 -5.95
M 126.65 -7.95
Q 126.8 -8.1 126.8 -8.35 126.8 -8.55 126.65 -8.7 126.5 -8.85 126.25 -8.85 126.05 -8.85 125.9 -8.7 125.75 -8.55 125.75 -8.35 125.75 -8.1 125.9 -7.95 126.05 -7.8 126.25 -7.8 126.5 -7.8 126.65 -7.95 Z"/>
</g>

<g id="IT_640x480_psd_Asset_1_ManagedWiFi_IT_Eval_DM6_1_Choosing_the_right_Wi_Fi_vendor__for_your_business____0_Layer0_0_MEMBER_21_FILL">
<path fill="#D82C26" stroke="none" d="
M 130.9 -5.95
L 130.1 -5.95 132.35 0 133.25 0 135.45 -5.95 134.7 -5.95 132.8 -0.75 130.9 -5.95 Z"/>
</g>

<g id="IT_640x480_psd_Asset_1_ManagedWiFi_IT_Eval_DM6_1_Choosing_the_right_Wi_Fi_vendor__for_your_business____0_Layer0_0_MEMBER_22_FILL">
<path fill="#D82C26" stroke="none" d="
M 135.7 -3
Q 135.7 -2.15 136.1 -1.35 136.5 -0.6 137.2 -0.25 137.9 0.2 138.75 0.2 140.15 0.2 141.1 -0.55
L 141 -1.2
Q 140.6 -0.9 140.05 -0.65 139.5 -0.45 138.8 -0.45 138.15 -0.45 137.6 -0.75 137.1 -1.05 136.75 -1.65 136.5 -2.1 136.4 -2.85
L 141.45 -2.85 141.5 -3.2
Q 141.5 -3.9 141.15 -4.7 140.85 -5.35 140.15 -5.75 139.5 -6.15 138.65 -6.15 137.85 -6.15 137.15 -5.75 136.45 -5.3 136.1 -4.65 135.7 -4 135.7 -3
M 140.15 -4.95
Q 140.75 -4.4 140.75 -3.4
L 136.45 -3.4
Q 136.45 -3.8 136.7 -4.4 137.05 -4.95 137.45 -5.2 137.95 -5.55 138.65 -5.55 139.65 -5.55 140.15 -4.95 Z"/>
</g>

<g id="IT_640x480_psd_Asset_1_ManagedWiFi_IT_Eval_DM6_1_Choosing_the_right_Wi_Fi_vendor__for_your_business____0_Layer0_0_MEMBER_23_FILL">
<path fill="#D82C26" stroke="none" d="
M 145.65 -6.15
Q 145 -6.15 144.35 -5.75 143.7 -5.25 143.5 -4.65
L 143.45 -4.65 143.4 -5.95 142.7 -5.95 142.75 0 143.5 0 143.5 -3.05
Q 143.5 -3.75 143.75 -4.35 144 -4.85 144.5 -5.2 144.95 -5.5 145.5 -5.5 146.4 -5.5 146.75 -4.9 147.1 -4.35 147.1 -3.45
L 147.1 0 147.85 0 147.85 -3.65
Q 147.85 -4.8 147.3 -5.4 146.8 -6.15 145.65 -6.15 Z"/>
</g>

<g id="IT_640x480_psd_Asset_1_ManagedWiFi_IT_Eval_DM6_1_Choosing_the_right_Wi_Fi_vendor__for_your_business____0_Layer0_0_MEMBER_24_FILL">
<path fill="#D82C26" stroke="none" d="
M 149.5 -1.4
Q 149.9 -0.6 150.55 -0.25 151.15 0.15 152.1 0.15 152.95 0.15 153.5 -0.2 154.15 -0.55 154.55 -1.3
L 154.65 0 155.35 0 155.3 -9.75 154.55 -9.6 154.55 -4.65 154.5 -4.65
Q 154.2 -5.35 153.5 -5.75 152.85 -6.15 152.1 -6.15 151.25 -6.15 150.55 -5.7 149.9 -5.35 149.5 -4.6 149.1 -3.8 149.1 -2.95 149.1 -2.1 149.5 -1.4
M 150.15 -4.25
Q 150.55 -4.9 150.95 -5.15 151.45 -5.5 152.2 -5.5 152.9 -5.5 153.4 -5.15 153.85 -4.9 154.25 -4.25 154.55 -3.65 154.55 -2.95 154.55 -2.3 154.25 -1.7 153.9 -1.1 153.4 -0.8 152.9 -0.45 152.2 -0.45 151.45 -0.45 150.95 -0.8 150.45 -1.1 150.15 -1.7 149.85 -2.3 149.85 -2.95 149.85 -3.65 150.15 -4.25 Z"/>
</g>

<g id="IT_640x480_psd_Asset_1_ManagedWiFi_IT_Eval_DM6_1_Choosing_the_right_Wi_Fi_vendor__for_your_business____0_Layer0_0_MEMBER_25_FILL">
<path fill="#D82C26" stroke="none" d="
M 161.35 -5.75
Q 160.55 -6.15 159.75 -6.15 158.9 -6.15 158.1 -5.75 157.3 -5.2 157 -4.6 156.55 -3.9 156.55 -3 156.55 -2.1 157 -1.35 157.4 -0.65 158.1 -0.25 158.85 0.2 159.75 0.2 160.6 0.2 161.35 -0.25 162 -0.55 162.5 -1.35 162.9 -2.15 162.9 -3 162.9 -3.9 162.5 -4.6 162.05 -5.3 161.35 -5.75
M 161 -5.15
Q 161.55 -4.85 161.85 -4.25 162.15 -3.7 162.15 -3 162.15 -2.3 161.85 -1.7 161.5 -1.1 161 -0.8 160.5 -0.45 159.75 -0.45 158.95 -0.45 158.45 -0.8 157.9 -1.2 157.6 -1.7 157.3 -2.3 157.3 -3 157.3 -3.7 157.6 -4.25 157.9 -4.85 158.45 -5.15 158.95 -5.5 159.75 -5.5 160.5 -5.5 161 -5.15 Z"/>
</g>

<g id="IT_640x480_psd_Asset_1_ManagedWiFi_IT_Eval_DM6_1_Choosing_the_right_Wi_Fi_vendor__for_your_business____0_Layer0_0_MEMBER_26_FILL">
<path fill="#D82C26" stroke="none" d="
M 164.85 -5.95
L 164.15 -5.95 164.2 0 164.95 0 164.95 -2.95
Q 164.95 -4 165.4 -4.75 165.85 -5.45 166.6 -5.45
L 167.15 -5.4 167.3 -6
Q 167 -6.15 166.65 -6.15 166.15 -6.15 165.65 -5.75 165.2 -5.45 164.95 -4.65
L 164.9 -4.65 164.85 -5.95 Z"/>
</g>

<g id="IT_640x480_psd_Asset_1_ManagedWiFi_IT_Eval_DM6_1_Choosing_the_right_Wi_Fi_vendor__for_your_business____0_Layer0_0_MEMBER_27_FILL">
<path fill="#D82C26" stroke="none" d="
M 4.4 5.2
L 3.3 5.05
Q 2.5 5.05 1.95 5.6 1.45 6.2 1.45 7.15
L 1.45 8.9 0.4 8.9 0.25 9.45 1.45 9.45 1.45 14.85 2.2 14.85 2.2 9.45 3.6 9.45 3.75 8.9 2.2 8.9 2.2 7.15
Q 2.2 6.55 2.5 6.1 2.7 5.7 3.35 5.7 4 5.7 4.3 5.8
L 4.4 5.2 Z"/>
</g>

<g id="IT_640x480_psd_Asset_1_ManagedWiFi_IT_Eval_DM6_1_Choosing_the_right_Wi_Fi_vendor__for_your_business____0_Layer0_0_MEMBER_28_FILL">
<path fill="#D82C26" stroke="none" d="
M 4.3 10.2
Q 3.9 10.85 3.9 11.85 3.9 12.85 4.3 13.45 4.65 14.2 5.4 14.6 6.2 15 7.05 15 7.95 15 8.65 14.6 9.4 14.2 9.8 13.45 10.2 12.85 10.2 11.85 10.2 10.85 9.8 10.2 9.4 9.45 8.65 9.1 8.05 8.7 7.05 8.7 6.05 8.7 5.4 9.1 4.7 9.5 4.3 10.2
M 4.65 11.85
Q 4.65 11.05 4.9 10.55 5.2 10.05 5.75 9.65 6.45 9.3 7.05 9.3 7.7 9.3 8.3 9.65 8.8 10 9.15 10.55 9.45 11.15 9.45 11.85 9.45 12.45 9.2 13.1 8.95 13.65 8.35 14.05 7.75 14.35 7.05 14.35 6.35 14.35 5.75 14.05 5.15 13.65 4.9 13.1 4.65 12.6 4.65 11.85 Z"/>
</g>

<g id="IT_640x480_psd_Asset_1_ManagedWiFi_IT_Eval_DM6_1_Choosing_the_right_Wi_Fi_vendor__for_your_business____0_Layer0_0_MEMBER_29_FILL">
<path fill="#D82C26" stroke="none" d="
M 14 8.7
Q 13.5 8.7 12.95 9.1 12.45 9.5 12.25 10.15
L 12.2 10.15 12.15 8.9 11.45 8.9 11.5 14.85 12.25 14.85 12.25 11.85
Q 12.25 10.85 12.7 10.1 13.15 9.35 13.95 9.35
L 14.45 9.45 14.6 8.8 14 8.7 Z"/>
</g>

<g id="IT_640x480_psd_Asset_1_ManagedWiFi_IT_Eval_DM6_1_Choosing_the_right_Wi_Fi_vendor__for_your_business____0_Layer0_0_MEMBER_30_FILL">
<path fill="#D82C26" stroke="none" d="
M 22.55 8.9
L 21.75 8.9 19.95 14.05 17.85 8.9 17.05 8.9 19.55 14.9 19.1 16.1
Q 18.85 16.75 18.5 16.95 18 17.2 17.4 17.2
L 17.6 17.9
Q 18.5 17.8 18.95 17.5 19.45 17.15 19.75 16.35
L 22.55 8.9 Z"/>
</g>

<g id="IT_640x480_psd_Asset_1_ManagedWiFi_IT_Eval_DM6_1_Choosing_the_right_Wi_Fi_vendor__for_your_business____0_Layer0_0_MEMBER_31_FILL">
<path fill="#D82C26" stroke="none" d="
M 24.4 9.1
Q 23.65 9.45 23.25 10.2 22.85 10.85 22.85 11.85 22.85 12.85 23.25 13.45 23.65 14.2 24.4 14.6 25.1 15 26 15 26.9 15 27.6 14.6 28.35 14.2 28.75 13.45 29.15 12.85 29.15 11.85 29.15 10.85 28.75 10.2 28.35 9.45 27.6 9.1 27 8.7 26 8.7 25 8.7 24.4 9.1
M 23.6 11.85
Q 23.6 11.2 23.85 10.55 24.15 10.05 24.7 9.65 25.4 9.3 26 9.3 26.65 9.3 27.25 9.65 27.9 10.05 28.1 10.55 28.4 11.15 28.4 11.85 28.4 12.6 28.15 13.1 27.9 13.65 27.3 14.05 26.7 14.35 26 14.35 25.3 14.35 24.7 14.05 24.1 13.65 23.85 13.1 23.6 12.45 23.6 11.85 Z"/>
</g>

<g id="IT_640x480_psd_Asset_1_ManagedWiFi_IT_Eval_DM6_1_Choosing_the_right_Wi_Fi_vendor__for_your_business____0_Layer0_0_MEMBER_32_FILL">
<path fill="#D82C26" stroke="none" d="
M 31.15 8.9
L 30.4 8.9 30.4 12.5
Q 30.4 13.5 30.95 14.3 31.5 15 32.55 15 33.25 15 33.9 14.6 34.55 14.2 34.75 13.55
L 34.85 14.85 35.6 14.85 35.5 14.15 35.5 8.9 34.75 8.9 34.75 11.85
Q 34.75 12.55 34.5 13.2 34.2 13.8 33.75 14.1 33.3 14.4 32.75 14.4 31.9 14.4 31.5 13.8 31.15 13.25 31.15 12.3
L 31.15 8.9 Z"/>
</g>

<g id="IT_640x480_psd_Asset_1_ManagedWiFi_IT_Eval_DM6_1_Choosing_the_right_Wi_Fi_vendor__for_your_business____0_Layer0_0_MEMBER_33_FILL">
<path fill="#D82C26" stroke="none" d="
M 39.7 8.7
Q 39.2 8.7 38.65 9.1 38.15 9.5 37.95 10.15
L 37.85 8.9 37.15 8.9 37.2 14.85 37.95 14.85 37.95 11.85
Q 37.95 10.85 38.4 10.1 38.85 9.35 39.65 9.35
L 40.2 9.45 40.35 8.8 39.7 8.7 Z"/>
</g>

<g id="IT_640x480_psd_Asset_1_ManagedWiFi_IT_Eval_DM6_1_Choosing_the_right_Wi_Fi_vendor__for_your_business____0_Layer0_0_MEMBER_34_FILL">
<path fill="#D82C26" stroke="none" d="
M 44.45 5.1
L 43.7 5.2 43.65 14.85 44.35 14.85 44.4 13.55 44.45 13.55
Q 44.75 14.2 45.45 14.6 46.15 15 46.9 15 47.75 15 48.45 14.6 49.15 14.15 49.5 13.45 49.85 12.75 49.85 11.85 49.85 10.9 49.5 10.25 49.15 9.6 48.45 9.1 47.75 8.7 46.9 8.7 46.15 8.7 45.5 9.1 44.8 9.5 44.5 10.15
L 44.45 10.15 44.45 5.1
M 44.45 11.85
Q 44.45 11.15 44.75 10.6 45.05 10 45.6 9.65 46.2 9.3 46.8 9.3 47.35 9.3 48.05 9.65 48.55 10 48.85 10.6 49.15 11.15 49.15 11.85 49.15 12.6 48.85 13.1 48.55 13.7 48.05 14.05 47.45 14.35 46.8 14.35 46.15 14.35 45.6 14.05 45.05 13.7 44.75 13.1 44.45 12.6 44.45 11.85 Z"/>
</g>

<g id="IT_640x480_psd_Asset_1_ManagedWiFi_IT_Eval_DM6_1_Choosing_the_right_Wi_Fi_vendor__for_your_business____0_Layer0_0_MEMBER_35_FILL">
<path fill="#D82C26" stroke="none" d="
M 51.85 8.9
L 51.1 8.9 51.1 12.5
Q 51.1 13.5 51.65 14.3 52.2 15 53.25 15 53.95 15 54.6 14.6 55.25 14.2 55.45 13.55
L 55.55 14.85 56.3 14.85 56.2 14.15 56.2 8.9 55.45 8.9 55.45 11.85
Q 55.45 12.55 55.2 13.2 54.9 13.8 54.45 14.1 54 14.4 53.45 14.4 52.6 14.4 52.2 13.8 51.85 13.25 51.85 12.3
L 51.85 8.9 Z"/>
</g>

<g id="IT_640x480_psd_Asset_1_ManagedWiFi_IT_Eval_DM6_1_Choosing_the_right_Wi_Fi_vendor__for_your_business____0_Layer0_0_MEMBER_36_FILL">
<path fill="#D82C26" stroke="none" d="
M 61.1 9.85
L 61.4 9.3 60.6 8.9
Q 60.15 8.7 59.5 8.7 59 8.7 58.55 8.85 58.05 9.1 57.85 9.45 57.55 9.85 57.55 10.35 57.55 10.95 57.95 11.35 58.4 11.7 59.25 12
L 60.5 12.55
Q 60.9 12.85 60.9 13.3 60.9 13.8 60.5 14.1 60.05 14.4 59.55 14.4 58.4 14.4 57.55 13.7
L 57.45 14.35
Q 57.7 14.6 58.35 14.8 58.9 15 59.55 15 60.15 15 60.55 14.8 61 14.6 61.3 14.2 61.6 13.85 61.6 13.25 61.6 12.6 61.15 12.2 60.65 11.75 59.75 11.5 58.8 11.15 58.6 11 58.25 10.7 58.25 10.3 58.25 9.75 58.6 9.55 58.9 9.3 59.55 9.3 59.95 9.3 60.4 9.45
L 61.1 9.85 Z"/>
</g>

<g id="IT_640x480_psd_Asset_1_ManagedWiFi_IT_Eval_DM6_1_Choosing_the_right_Wi_Fi_vendor__for_your_business____0_Layer0_0_MEMBER_37_FILL">
<path fill="#D82C26" stroke="none" d="
M 63.5 8.9
L 62.75 8.9 62.75 14.85 63.5 14.85 63.5 8.9
M 63.5 6.1
L 63.15 5.95
Q 62.9 5.95 62.75 6.1 62.6 6.25 62.6 6.5 62.6 6.7 62.75 6.9 62.9 7.05 63.15 7.05
L 63.5 6.9
Q 63.65 6.7 63.65 6.5 63.65 6.25 63.5 6.1 Z"/>
</g>

<g id="IT_640x480_psd_Asset_1_ManagedWiFi_IT_Eval_DM6_1_Choosing_the_right_Wi_Fi_vendor__for_your_business____0_Layer0_0_MEMBER_38_FILL">
<path fill="#D82C26" stroke="none" d="
M 68.1 8.7
Q 67.45 8.7 66.8 9.1 66.15 9.5 65.95 10.15
L 65.9 10.15 65.85 8.9 65.15 8.9 65.2 14.85 65.95 14.85 65.95 11.8
Q 65.95 11.1 66.2 10.45 66.5 9.9 66.95 9.6 67.4 9.3 67.95 9.3 68.85 9.3 69.2 9.9 69.55 10.45 69.55 11.4
L 69.55 14.85 70.3 14.85 70.3 11.2
Q 70.3 10.2 69.75 9.4 69.2 8.7 68.1 8.7 Z"/>
</g>

<g id="IT_640x480_psd_Asset_1_ManagedWiFi_IT_Eval_DM6_1_Choosing_the_right_Wi_Fi_vendor__for_your_business____0_Layer0_0_MEMBER_39_FILL">
<path fill="#D82C26" stroke="none" d="
M 74.5 8.7
Q 73.6 8.7 73 9.1 72.35 9.45 71.95 10.2 71.55 11 71.55 11.8 71.55 12.75 71.95 13.45 72.3 14.2 73.05 14.6 73.75 15 74.6 15 76.05 15 77 14.25
L 76.85 13.6
Q 76.55 13.9 75.9 14.15 75.25 14.4 74.65 14.4 73.95 14.4 73.45 14.05 72.9 13.75 72.6 13.2 72.3 12.6 72.3 11.95
L 77.35 11.95 77.35 11.65
Q 77.35 10.8 77 10.15 76.7 9.5 76.05 9.1 75.45 8.7 74.5 8.7
M 73.35 9.6
Q 73.9 9.25 74.5 9.25 75.45 9.25 76.05 9.85 76.6 10.45 76.65 11.4
L 72.3 11.4
Q 72.3 10.9 72.6 10.45 72.8 10 73.35 9.6 Z"/>
</g>

<g id="IT_640x480_psd_Asset_1_ManagedWiFi_IT_Eval_DM6_1_Choosing_the_right_Wi_Fi_vendor__for_your_business____0_Layer0_0_MEMBER_40_FILL">
<path fill="#D82C26" stroke="none" d="
M 81.6 13.3
Q 81.6 13.8 81.2 14.1 80.85 14.4 80.25 14.4 79.1 14.4 78.25 13.7
L 78.15 14.35
Q 78.55 14.65 79.05 14.8 79.6 15 80.3 15 80.85 15 81.25 14.8 81.8 14.6 82 14.2 82.3 13.85 82.3 13.25 82.3 12.6 81.85 12.2 81.35 11.75 80.45 11.5 79.5 11.15 79.3 11 78.95 10.7 78.95 10.3 78.95 9.8 79.35 9.55 79.6 9.3 80.25 9.3 80.75 9.3 81.1 9.45
L 81.8 9.85 82.1 9.3
Q 81.75 9 81.3 8.9 80.85 8.7 80.25 8.7 79.75 8.7 79.3 8.85 78.85 9.1 78.55 9.45 78.25 9.85 78.25 10.35 78.25 11 78.7 11.35 79 11.65 79.95 12 80.7 12.25 81.2 12.55 81.6 12.85 81.6 13.3 Z"/>
</g>

<g id="IT_640x480_psd_Asset_1_ManagedWiFi_IT_Eval_DM6_1_Choosing_the_right_Wi_Fi_vendor__for_your_business____0_Layer0_0_MEMBER_41_FILL">
<path fill="#D82C26" stroke="none" d="
M 85.2 8.7
Q 84.7 8.7 84.25 8.85 83.8 9.1 83.5 9.45 83.25 9.75 83.25 10.35 83.25 11 83.65 11.35 83.95 11.65 84.9 12 85.65 12.25 86.15 12.55 86.55 12.8 86.55 13.3 86.55 13.8 86.15 14.1 85.8 14.4 85.2 14.4 84.1 14.4 83.25 13.7
L 83.1 14.35
Q 83.5 14.65 84.05 14.8 84.5 15 85.25 15 85.8 15 86.25 14.8 86.7 14.6 87 14.2 87.25 13.8 87.25 13.25 87.25 12.6 86.8 12.2 86.45 11.85 85.45 11.5
L 84.25 11
Q 83.9 10.65 83.9 10.3 83.9 9.8 84.3 9.55 84.6 9.3 85.2 9.3 85.7 9.3 86.05 9.45 86.35 9.55 86.75 9.85
L 87.1 9.3
Q 86.6 9 86.25 8.9 85.8 8.7 85.2 8.7 Z"/>
</g>

<g id="IT_640x480_psd_Asset_1_ManagedWiFi_IT_Eval_DM6_1_Choosing_the_right_Wi_Fi_vendor__for_your_business____0_Layer0_0_MEMBER_42_FILL">
<path fill="#D82C26" stroke="none" d="
M 88.65 14.75
Q 88.8 14.9 89.05 14.9 89.25 14.9 89.45 14.75 89.6 14.6 89.6 14.35 89.6 14.15 89.45 13.9 89.25 13.75 89.05 13.75 88.8 13.75 88.65 13.95 88.45 14.1 88.45 14.35 88.45 14.6 88.65 14.75 Z"/>
</g>
</defs>

<g transform="matrix( 1, 0, 0, 1, -70,29) ">
<g transform="matrix( 1, 0, 0, 1, 64,0) ">
<g transform="matrix( 1, 0, 0, 1, 54,11) ">
<g transform="matrix( 2.815704345703125, 0, 0, 2.832611083984375, -0.85,27.6) ">
<use xlink:href="#IT_640x480_psd_Asset_1_ManagedWiFi_IT_Eval_DM6_1_Choosing_the_right_Wi_Fi_vendor__for_your_business____0_Layer0_0_MEMBER_0_FILL"/>
</g>

<g transform="matrix( 2.815704345703125, 0, 0, 2.832611083984375, -0.85,27.6) ">
<use xlink:href="#IT_640x480_psd_Asset_1_ManagedWiFi_IT_Eval_DM6_1_Choosing_the_right_Wi_Fi_vendor__for_your_business____0_Layer0_0_MEMBER_1_FILL"/>
</g>

<g transform="matrix( 2.815704345703125, 0, 0, 2.832611083984375, -0.85,27.6) ">
<use xlink:href="#IT_640x480_psd_Asset_1_ManagedWiFi_IT_Eval_DM6_1_Choosing_the_right_Wi_Fi_vendor__for_your_business____0_Layer0_0_MEMBER_2_FILL"/>
</g>

<g transform="matrix( 2.815704345703125, 0, 0, 2.832611083984375, -0.85,27.6) ">
<use xlink:href="#IT_640x480_psd_Asset_1_ManagedWiFi_IT_Eval_DM6_1_Choosing_the_right_Wi_Fi_vendor__for_your_business____0_Layer0_0_MEMBER_3_FILL"/>
</g>

<g transform="matrix( 2.815704345703125, 0, 0, 2.832611083984375, -0.85,27.6) ">
<use xlink:href="#IT_640x480_psd_Asset_1_ManagedWiFi_IT_Eval_DM6_1_Choosing_the_right_Wi_Fi_vendor__for_your_business____0_Layer0_0_MEMBER_4_FILL"/>
</g>

<g transform="matrix( 2.815704345703125, 0, 0, 2.832611083984375, -0.85,27.6) ">
<use xlink:href="#IT_640x480_psd_Asset_1_ManagedWiFi_IT_Eval_DM6_1_Choosing_the_right_Wi_Fi_vendor__for_your_business____0_Layer0_0_MEMBER_5_FILL"/>
</g>

<g transform="matrix( 2.815704345703125, 0, 0, 2.832611083984375, -0.85,27.6) ">
<use xlink:href="#IT_640x480_psd_Asset_1_ManagedWiFi_IT_Eval_DM6_1_Choosing_the_right_Wi_Fi_vendor__for_your_business____0_Layer0_0_MEMBER_6_FILL"/>
</g>

<g transform="matrix( 2.815704345703125, 0, 0, 2.832611083984375, -0.85,27.6) ">
<use xlink:href="#IT_640x480_psd_Asset_1_ManagedWiFi_IT_Eval_DM6_1_Choosing_the_right_Wi_Fi_vendor__for_your_business____0_Layer0_0_MEMBER_7_FILL"/>
</g>

<g transform="matrix( 2.815704345703125, 0, 0, 2.832611083984375, -0.85,27.6) ">
<use xlink:href="#IT_640x480_psd_Asset_1_ManagedWiFi_IT_Eval_DM6_1_Choosing_the_right_Wi_Fi_vendor__for_your_business____0_Layer0_0_MEMBER_8_FILL"/>
</g>

<g transform="matrix( 2.815704345703125, 0, 0, 2.832611083984375, -0.85,27.6) ">
<use xlink:href="#IT_640x480_psd_Asset_1_ManagedWiFi_IT_Eval_DM6_1_Choosing_the_right_Wi_Fi_vendor__for_your_business____0_Layer0_0_MEMBER_9_FILL"/>
</g>

<g transform="matrix( 2.815704345703125, 0, 0, 2.832611083984375, -0.85,27.6) ">
<use xlink:href="#IT_640x480_psd_Asset_1_ManagedWiFi_IT_Eval_DM6_1_Choosing_the_right_Wi_Fi_vendor__for_your_business____0_Layer0_0_MEMBER_10_FILL"/>
</g>

<g transform="matrix( 2.815704345703125, 0, 0, 2.832611083984375, -0.85,27.6) ">
<use xlink:href="#IT_640x480_psd_Asset_1_ManagedWiFi_IT_Eval_DM6_1_Choosing_the_right_Wi_Fi_vendor__for_your_business____0_Layer0_0_MEMBER_11_FILL"/>
</g>

<g transform="matrix( 2.815704345703125, 0, 0, 2.832611083984375, -0.85,27.6) ">
<use xlink:href="#IT_640x480_psd_Asset_1_ManagedWiFi_IT_Eval_DM6_1_Choosing_the_right_Wi_Fi_vendor__for_your_business____0_Layer0_0_MEMBER_12_FILL"/>
</g>

<g transform="matrix( 2.815704345703125, 0, 0, 2.832611083984375, -0.85,27.6) ">
<use xlink:href="#IT_640x480_psd_Asset_1_ManagedWiFi_IT_Eval_DM6_1_Choosing_the_right_Wi_Fi_vendor__for_your_business____0_Layer0_0_MEMBER_13_FILL"/>
</g>

<g transform="matrix( 2.815704345703125, 0, 0, 2.832611083984375, -0.85,27.6) ">
<use xlink:href="#IT_640x480_psd_Asset_1_ManagedWiFi_IT_Eval_DM6_1_Choosing_the_right_Wi_Fi_vendor__for_your_business____0_Layer0_0_MEMBER_14_FILL"/>
</g>

<g transform="matrix( 2.815704345703125, 0, 0, 2.832611083984375, -0.85,27.6) ">
<use xlink:href="#IT_640x480_psd_Asset_1_ManagedWiFi_IT_Eval_DM6_1_Choosing_the_right_Wi_Fi_vendor__for_your_business____0_Layer0_0_MEMBER_15_FILL"/>
</g>

<g transform="matrix( 2.815704345703125, 0, 0, 2.832611083984375, -0.85,27.6) ">
<use xlink:href="#IT_640x480_psd_Asset_1_ManagedWiFi_IT_Eval_DM6_1_Choosing_the_right_Wi_Fi_vendor__for_your_business____0_Layer0_0_MEMBER_16_FILL"/>
</g>

<g transform="matrix( 2.815704345703125, 0, 0, 2.832611083984375, -0.85,27.6) ">
<use xlink:href="#IT_640x480_psd_Asset_1_ManagedWiFi_IT_Eval_DM6_1_Choosing_the_right_Wi_Fi_vendor__for_your_business____0_Layer0_0_MEMBER_17_FILL"/>
</g>

<g transform="matrix( 2.815704345703125, 0, 0, 2.832611083984375, -0.85,27.6) ">
<use xlink:href="#IT_640x480_psd_Asset_1_ManagedWiFi_IT_Eval_DM6_1_Choosing_the_right_Wi_Fi_vendor__for_your_business____0_Layer0_0_MEMBER_18_FILL"/>
</g>

<g transform="matrix( 2.815704345703125, 0, 0, 2.832611083984375, -0.85,27.6) ">
<use xlink:href="#IT_640x480_psd_Asset_1_ManagedWiFi_IT_Eval_DM6_1_Choosing_the_right_Wi_Fi_vendor__for_your_business____0_Layer0_0_MEMBER_19_FILL"/>
</g>

<g transform="matrix( 2.815704345703125, 0, 0, 2.832611083984375, -0.85,27.6) ">
<use xlink:href="#IT_640x480_psd_Asset_1_ManagedWiFi_IT_Eval_DM6_1_Choosing_the_right_Wi_Fi_vendor__for_your_business____0_Layer0_0_MEMBER_20_FILL"/>
</g>

<g transform="matrix( 2.815704345703125, 0, 0, 2.832611083984375, -0.85,27.6) ">
<use xlink:href="#IT_640x480_psd_Asset_1_ManagedWiFi_IT_Eval_DM6_1_Choosing_the_right_Wi_Fi_vendor__for_your_business____0_Layer0_0_MEMBER_21_FILL"/>
</g>

<g transform="matrix( 2.815704345703125, 0, 0, 2.832611083984375, -0.85,27.6) ">
<use xlink:href="#IT_640x480_psd_Asset_1_ManagedWiFi_IT_Eval_DM6_1_Choosing_the_right_Wi_Fi_vendor__for_your_business____0_Layer0_0_MEMBER_22_FILL"/>
</g>

<g transform="matrix( 2.815704345703125, 0, 0, 2.832611083984375, -0.85,27.6) ">
<use xlink:href="#IT_640x480_psd_Asset_1_ManagedWiFi_IT_Eval_DM6_1_Choosing_the_right_Wi_Fi_vendor__for_your_business____0_Layer0_0_MEMBER_23_FILL"/>
</g>

<g transform="matrix( 2.815704345703125, 0, 0, 2.832611083984375, -0.85,27.6) ">
<use xlink:href="#IT_640x480_psd_Asset_1_ManagedWiFi_IT_Eval_DM6_1_Choosing_the_right_Wi_Fi_vendor__for_your_business____0_Layer0_0_MEMBER_24_FILL"/>
</g>

<g transform="matrix( 2.815704345703125, 0, 0, 2.832611083984375, -0.85,27.6) ">
<use xlink:href="#IT_640x480_psd_Asset_1_ManagedWiFi_IT_Eval_DM6_1_Choosing_the_right_Wi_Fi_vendor__for_your_business____0_Layer0_0_MEMBER_25_FILL"/>
</g>

<g transform="matrix( 2.815704345703125, 0, 0, 2.832611083984375, -0.85,27.6) ">
<use xlink:href="#IT_640x480_psd_Asset_1_ManagedWiFi_IT_Eval_DM6_1_Choosing_the_right_Wi_Fi_vendor__for_your_business____0_Layer0_0_MEMBER_26_FILL"/>
</g>

<g transform="matrix( 2.815704345703125, 0, 0, 2.832611083984375, -0.85,27.6) ">
<use xlink:href="#IT_640x480_psd_Asset_1_ManagedWiFi_IT_Eval_DM6_1_Choosing_the_right_Wi_Fi_vendor__for_your_business____0_Layer0_0_MEMBER_27_FILL"/>
</g>

<g transform="matrix( 2.815704345703125, 0, 0, 2.832611083984375, -0.85,27.6) ">
<use xlink:href="#IT_640x480_psd_Asset_1_ManagedWiFi_IT_Eval_DM6_1_Choosing_the_right_Wi_Fi_vendor__for_your_business____0_Layer0_0_MEMBER_28_FILL"/>
</g>

<g transform="matrix( 2.815704345703125, 0, 0, 2.832611083984375, -0.85,27.6) ">
<use xlink:href="#IT_640x480_psd_Asset_1_ManagedWiFi_IT_Eval_DM6_1_Choosing_the_right_Wi_Fi_vendor__for_your_business____0_Layer0_0_MEMBER_29_FILL"/>
</g>

<g transform="matrix( 2.815704345703125, 0, 0, 2.832611083984375, -0.85,27.6) ">
<use xlink:href="#IT_640x480_psd_Asset_1_ManagedWiFi_IT_Eval_DM6_1_Choosing_the_right_Wi_Fi_vendor__for_your_business____0_Layer0_0_MEMBER_30_FILL"/>
</g>

<g transform="matrix( 2.815704345703125, 0, 0, 2.832611083984375, -0.85,27.6) ">
<use xlink:href="#IT_640x480_psd_Asset_1_ManagedWiFi_IT_Eval_DM6_1_Choosing_the_right_Wi_Fi_vendor__for_your_business____0_Layer0_0_MEMBER_31_FILL"/>
</g>

<g transform="matrix( 2.815704345703125, 0, 0, 2.832611083984375, -0.85,27.6) ">
<use xlink:href="#IT_640x480_psd_Asset_1_ManagedWiFi_IT_Eval_DM6_1_Choosing_the_right_Wi_Fi_vendor__for_your_business____0_Layer0_0_MEMBER_32_FILL"/>
</g>

<g transform="matrix( 2.815704345703125, 0, 0, 2.832611083984375, -0.85,27.6) ">
<use xlink:href="#IT_640x480_psd_Asset_1_ManagedWiFi_IT_Eval_DM6_1_Choosing_the_right_Wi_Fi_vendor__for_your_business____0_Layer0_0_MEMBER_33_FILL"/>
</g>

<g transform="matrix( 2.815704345703125, 0, 0, 2.832611083984375, -0.85,27.6) ">
<use xlink:href="#IT_640x480_psd_Asset_1_ManagedWiFi_IT_Eval_DM6_1_Choosing_the_right_Wi_Fi_vendor__for_your_business____0_Layer0_0_MEMBER_34_FILL"/>
</g>

<g transform="matrix( 2.815704345703125, 0, 0, 2.832611083984375, -0.85,27.6) ">
<use xlink:href="#IT_640x480_psd_Asset_1_ManagedWiFi_IT_Eval_DM6_1_Choosing_the_right_Wi_Fi_vendor__for_your_business____0_Layer0_0_MEMBER_35_FILL"/>
</g>

<g transform="matrix( 2.815704345703125, 0, 0, 2.832611083984375, -0.85,27.6) ">
<use xlink:href="#IT_640x480_psd_Asset_1_ManagedWiFi_IT_Eval_DM6_1_Choosing_the_right_Wi_Fi_vendor__for_your_business____0_Layer0_0_MEMBER_36_FILL"/>
</g>

<g transform="matrix( 2.815704345703125, 0, 0, 2.832611083984375, -0.85,27.6) ">
<use xlink:href="#IT_640x480_psd_Asset_1_ManagedWiFi_IT_Eval_DM6_1_Choosing_the_right_Wi_Fi_vendor__for_your_business____0_Layer0_0_MEMBER_37_FILL"/>
</g>

<g transform="matrix( 2.815704345703125, 0, 0, 2.832611083984375, -0.85,27.6) ">
<use xlink:href="#IT_640x480_psd_Asset_1_ManagedWiFi_IT_Eval_DM6_1_Choosing_the_right_Wi_Fi_vendor__for_your_business____0_Layer0_0_MEMBER_38_FILL"/>
</g>

<g transform="matrix( 2.815704345703125, 0, 0, 2.832611083984375, -0.85,27.6) ">
<use xlink:href="#IT_640x480_psd_Asset_1_ManagedWiFi_IT_Eval_DM6_1_Choosing_the_right_Wi_Fi_vendor__for_your_business____0_Layer0_0_MEMBER_39_FILL"/>
</g>

<g transform="matrix( 2.815704345703125, 0, 0, 2.832611083984375, -0.85,27.6) ">
<use xlink:href="#IT_640x480_psd_Asset_1_ManagedWiFi_IT_Eval_DM6_1_Choosing_the_right_Wi_Fi_vendor__for_your_business____0_Layer0_0_MEMBER_40_FILL"/>
</g>

<g transform="matrix( 2.815704345703125, 0, 0, 2.832611083984375, -0.85,27.6) ">
<use xlink:href="#IT_640x480_psd_Asset_1_ManagedWiFi_IT_Eval_DM6_1_Choosing_the_right_Wi_Fi_vendor__for_your_business____0_Layer0_0_MEMBER_41_FILL"/>
</g>

<g transform="matrix( 2.815704345703125, 0, 0, 2.832611083984375, -0.85,27.6) ">
<use xlink:href="#IT_640x480_psd_Asset_1_ManagedWiFi_IT_Eval_DM6_1_Choosing_the_right_Wi_Fi_vendor__for_your_business____0_Layer0_0_MEMBER_42_FILL"/>
</g>
</g>
</g>
</g>
</svg>
