
<svg xmlns="http://www.w3.org/2000/svg" version="1.1" xmlns:xlink="http://www.w3.org/1999/xlink" preserveAspectRatio="none" x="0px" y="0px" width="300px" height="250px" viewBox="0 0 300 250">
<defs>
<g id="IT_300x250_FR_psd_Asset_RogersQ1ManagedWiFi_IT_Research_ConsumerGoods_V6_1_Choisir_le_bon_fournisseur_de__Wi_Fi_g_r__pour_votre_entreprise_0_Layer0_0_MEMBER_0_FILL">
<path fill="#D82C26" stroke="none" d="
M 4.2 -5.2
Q 3.8 -5.4 3.2 -5.4 2.5 -5.4 1.8 -5.05 1.25 -4.75 0.8 -4.05 0.45 -3.35 0.45 -2.6 0.45 -1.9 0.8 -1.2 1.25 -0.5 1.8 -0.2 2.5 0.15 3.2 0.15 3.55 0.15 4.25 -0.05 4.8 -0.25 5.05 -0.55
L 4.95 -0.95 4.15 -0.45
Q 3.55 -0.25 3.2 -0.25 2.5 -0.25 2 -0.6 1.5 -0.95 1.2 -1.45 0.95 -2.05 0.95 -2.6 0.95 -3.2 1.2 -3.8 1.5 -4.3 2 -4.65 2.5 -5 3.2 -5 3.55 -5 4.15 -4.8 4.65 -4.55 4.9 -4.3
L 5 -4.75
Q 4.7 -5.05 4.2 -5.2 Z"/>
</g>

<g id="IT_300x250_FR_psd_Asset_RogersQ1ManagedWiFi_IT_Research_ConsumerGoods_V6_1_Choisir_le_bon_fournisseur_de__Wi_Fi_g_r__pour_votre_entreprise_0_Layer0_0_MEMBER_1_FILL">
<path fill="#D82C26" stroke="none" d="
M 6 -5.65
L 5.6 -5.6 5.6 0 6 0 6 -1.7
Q 6 -2.2 6.15 -2.5 6.25 -2.8 6.6 -3.05 6.85 -3.2 7.15 -3.2 7.7 -3.2 7.9 -2.85 8.1 -2.6 8.1 -2
L 8.1 0 8.55 0 8.55 -2.1
Q 8.55 -2.75 8.25 -3.15 8 -3.55 7.3 -3.55 6.85 -3.55 6.5 -3.35 6.1 -3.05 6.05 -2.75
L 6 -2.75 6 -5.65 Z"/>
</g>

<g id="IT_300x250_FR_psd_Asset_RogersQ1ManagedWiFi_IT_Research_ConsumerGoods_V6_1_Choisir_le_bon_fournisseur_de__Wi_Fi_g_r__pour_votre_entreprise_0_Layer0_0_MEMBER_2_FILL">
<path fill="#D82C26" stroke="none" d="
M 9.4 -0.8
Q 9.7 -0.35 10.1 -0.15 10.5 0.1 11 0.1 11.55 0.1 11.95 -0.15 12.45 -0.4 12.65 -0.8 12.9 -1.2 12.9 -1.75 12.9 -2.2 12.65 -2.7 12.4 -3.15 11.95 -3.35 11.55 -3.6 11 -3.6 10.5 -3.6 10.1 -3.35 9.8 -3.2 9.4 -2.7 9.2 -2.3 9.2 -1.75 9.2 -1.15 9.4 -0.8
M 9.6 -1.75
Q 9.6 -2.15 9.8 -2.5 10 -2.85 10.3 -3 10.55 -3.2 11 -3.2 11.5 -3.2 11.75 -3 12.05 -2.85 12.25 -2.5 12.45 -2.15 12.45 -1.75 12.45 -1.35 12.25 -1 12.1 -0.65 11.8 -0.45 11.3 -0.25 11 -0.25 10.7 -0.25 10.3 -0.45 10 -0.65 9.8 -1 9.6 -1.35 9.6 -1.75 Z"/>
</g>

<g id="IT_300x250_FR_psd_Asset_RogersQ1ManagedWiFi_IT_Research_ConsumerGoods_V6_1_Choisir_le_bon_fournisseur_de__Wi_Fi_g_r__pour_votre_entreprise_0_Layer0_0_MEMBER_3_FILL">
<path fill="#D82C26" stroke="none" d="
M 13.95 -3.45
L 13.55 -3.45 13.55 0 13.95 0 13.95 -3.45
M 13.95 -4.65
Q 14.05 -4.7 14.05 -4.85 14.05 -5.05 13.95 -5.1
L 13.75 -5.15 13.55 -5.1
Q 13.45 -5 13.45 -4.85 13.45 -4.7 13.55 -4.65
L 13.75 -4.55 13.95 -4.65 Z"/>
</g>

<g id="IT_300x250_FR_psd_Asset_RogersQ1ManagedWiFi_IT_Research_ConsumerGoods_V6_1_Choisir_le_bon_fournisseur_de__Wi_Fi_g_r__pour_votre_entreprise_0_Layer0_0_MEMBER_4_FILL">
<path fill="#D82C26" stroke="none" d="
M 14.65 -0.65
L 14.6 -0.3 15.15 0 15.85 0.1 16.4 0
Q 16.75 -0.15 16.85 -0.35 17 -0.55 17 -0.9 17 -1.3 16.75 -1.55 16.65 -1.65 15.95 -1.95
L 15.25 -2.25
Q 15.05 -2.45 15.05 -2.65 15.05 -2.95 15.3 -3.1 15.55 -3.25 15.8 -3.25
L 16.3 -3.15 16.75 -2.9 16.9 -3.2 16.45 -3.45
Q 16.15 -3.6 15.8 -3.6 15.55 -3.6 15.25 -3.45 15 -3.35 14.85 -3.15 14.65 -2.95 14.65 -2.6 14.65 -2.25 14.9 -2 15.25 -1.75 15.65 -1.65 16.2 -1.5 16.4 -1.3 16.6 -1.15 16.6 -0.9 16.6 -0.6 16.35 -0.4 16.15 -0.25 15.8 -0.25 15.2 -0.25 14.65 -0.65 Z"/>
</g>

<g id="IT_300x250_FR_psd_Asset_RogersQ1ManagedWiFi_IT_Research_ConsumerGoods_V6_1_Choisir_le_bon_fournisseur_de__Wi_Fi_g_r__pour_votre_entreprise_0_Layer0_0_MEMBER_5_FILL">
<path fill="#D82C26" stroke="none" d="
M 18.05 -3.45
L 17.6 -3.45 17.6 0 18.05 0 18.05 -3.45
M 18.05 -5.1
L 17.8 -5.15 17.6 -5.1 17.5 -4.85 17.6 -4.65 17.8 -4.55 18.05 -4.65 18.15 -4.85 18.05 -5.1 Z"/>
</g>

<g id="IT_300x250_FR_psd_Asset_RogersQ1ManagedWiFi_IT_Research_ConsumerGoods_V6_1_Choisir_le_bon_fournisseur_de__Wi_Fi_g_r__pour_votre_entreprise_0_Layer0_0_MEMBER_6_FILL">
<path fill="#D82C26" stroke="none" d="
M 19.35 -3.45
L 18.9 -3.45 18.95 0 19.4 0 19.4 -1.75
Q 19.4 -2.35 19.65 -2.75 19.95 -3.2 20.35 -3.2
L 20.7 -3.15 20.75 -3.5 20.4 -3.55
Q 20.05 -3.55 19.8 -3.35 19.45 -3.1 19.4 -2.7
L 19.35 -2.7 19.35 -3.45 Z"/>
</g>

<g id="IT_300x250_FR_psd_Asset_RogersQ1ManagedWiFi_IT_Research_ConsumerGoods_V6_1_Choisir_le_bon_fournisseur_de__Wi_Fi_g_r__pour_votre_entreprise_0_Layer0_0_MEMBER_7_FILL">
<path fill="#D82C26" stroke="none" d="
M 22.2 -0.75
Q 22.2 -0.5 22.4 -0.2
L 22.8 0.1 23 -0.3
Q 22.8 -0.35 22.75 -0.5
L 22.65 -0.85 22.65 -5.65 22.2 -5.55 22.2 -0.75 Z"/>
</g>

<g id="IT_300x250_FR_psd_Asset_RogersQ1ManagedWiFi_IT_Research_ConsumerGoods_V6_1_Choisir_le_bon_fournisseur_de__Wi_Fi_g_r__pour_votre_entreprise_0_Layer0_0_MEMBER_8_FILL">
<path fill="#D82C26" stroke="none" d="
M 25.05 -3.6
Q 24.6 -3.6 24.2 -3.35 23.75 -3.15 23.55 -2.7 23.35 -2.3 23.35 -1.75 23.35 -1.15 23.55 -0.8 23.75 -0.45 24.2 -0.15 24.6 0.1 25.1 0.1 25.9 0.1 26.5 -0.35
L 26.45 -0.7
Q 26.05 -0.45 25.85 -0.4 25.55 -0.25 25.15 -0.25 24.7 -0.25 24.45 -0.45 24.1 -0.6 23.95 -0.95 23.75 -1.45 23.75 -1.7
L 26.7 -1.7 26.7 -1.85
Q 26.7 -2.35 26.5 -2.75 26.35 -3.1 25.95 -3.35 25.55 -3.6 25.05 -3.6
M 23.95 -2.55
Q 24.1 -2.8 24.4 -3.05 24.7 -3.25 25.05 -3.25 25.65 -3.25 25.95 -2.9 26.3 -2.45 26.3 -2
L 23.75 -2 23.95 -2.55 Z"/>
</g>

<g id="IT_300x250_FR_psd_Asset_RogersQ1ManagedWiFi_IT_Research_ConsumerGoods_V6_1_Choisir_le_bon_fournisseur_de__Wi_Fi_g_r__pour_votre_entreprise_0_Layer0_0_MEMBER_9_FILL">
<path fill="#D82C26" stroke="none" d="
M 29 -5.7
L 28.55 -5.6 28.5 0 28.9 0 28.95 -0.75 29 -0.75
Q 29.15 -0.4 29.55 -0.15 30.05 0.1 30.4 0.1 30.9 0.1 31.3 -0.15 31.65 -0.35 31.95 -0.8 32.15 -1.2 32.15 -1.75 32.15 -2.3 31.95 -2.65 31.75 -3.05 31.3 -3.35 30.95 -3.55 30.4 -3.55 29.95 -3.55 29.6 -3.35 29.2 -3.1 29 -2.7
L 29 -5.7
M 29.15 -2.45
Q 29.4 -2.9 29.65 -3 29.9 -3.2 30.35 -3.2 30.75 -3.2 31.1 -3 31.4 -2.85 31.55 -2.45 31.7 -2.15 31.7 -1.75 31.7 -1.3 31.55 -1 31.4 -0.65 31.1 -0.45 30.6 -0.25 30.35 -0.25 30.05 -0.25 29.65 -0.45
L 29.15 -1
Q 29 -1.3 29 -1.75 29 -2.15 29.15 -2.45 Z"/>
</g>

<g id="IT_300x250_FR_psd_Asset_RogersQ1ManagedWiFi_IT_Research_ConsumerGoods_V6_1_Choisir_le_bon_fournisseur_de__Wi_Fi_g_r__pour_votre_entreprise_0_Layer0_0_MEMBER_10_FILL">
<path fill="#D82C26" stroke="none" d="
M 34.45 -3.6
Q 33.9 -3.6 33.5 -3.35 33.15 -3.15 32.85 -2.7 32.6 -2.3 32.6 -1.75 32.6 -1.1 32.85 -0.8 33.05 -0.35 33.5 -0.15 33.9 0.1 34.45 0.1 34.9 0.1 35.4 -0.15 35.85 -0.45 36.05 -0.8 36.3 -1.2 36.3 -1.75 36.3 -2.2 36.05 -2.7 35.8 -3.1 35.4 -3.35 34.9 -3.6 34.45 -3.6
M 35.2 -0.45
Q 34.8 -0.25 34.45 -0.25 34.1 -0.25 33.7 -0.45 33.35 -0.7 33.2 -1
L 33.05 -1.75 33.2 -2.5
Q 33.35 -2.85 33.7 -3 33.95 -3.2 34.45 -3.2 34.85 -3.2 35.2 -3 35.4 -2.9 35.7 -2.5
L 35.85 -1.75 35.7 -1 35.2 -0.45 Z"/>
</g>

<g id="IT_300x250_FR_psd_Asset_RogersQ1ManagedWiFi_IT_Research_ConsumerGoods_V6_1_Choisir_le_bon_fournisseur_de__Wi_Fi_g_r__pour_votre_entreprise_0_Layer0_0_MEMBER_11_FILL">
<path fill="#D82C26" stroke="none" d="
M 39.6 -3.15
Q 39.35 -3.55 38.65 -3.55 38.15 -3.55 37.9 -3.35 37.55 -3.15 37.4 -2.7
L 37.35 -3.45 36.95 -3.45 36.95 0 37.4 0 37.4 -1.75
Q 37.4 -2.25 37.55 -2.55 37.75 -2.9 37.95 -3.05 38.25 -3.2 38.55 -3.2 39.1 -3.2 39.3 -2.85 39.5 -2.6 39.5 -2
L 39.5 0 39.95 0 39.95 -2.1
Q 39.95 -2.8 39.6 -3.15 Z"/>
</g>

<g id="IT_300x250_FR_psd_Asset_RogersQ1ManagedWiFi_IT_Research_ConsumerGoods_V6_1_Choisir_le_bon_fournisseur_de__Wi_Fi_g_r__pour_votre_entreprise_0_Layer0_0_MEMBER_12_FILL">
<path fill="#D82C26" stroke="none" d="
M 43.6 -5.7
L 43.25 -5.7
Q 42.75 -5.7 42.45 -5.4 42.2 -5.15 42.2 -4.5
L 42.2 -3.45 41.55 -3.45 41.45 -3.15 42.2 -3.15 42.2 0 42.6 0 42.6 -3.15 43.4 -3.15 43.5 -3.45 42.6 -3.45 42.6 -4.45
Q 42.6 -4.85 42.75 -5.1 42.9 -5.35 43.3 -5.35
L 43.85 -5.25 43.9 -5.6 43.6 -5.7 Z"/>
</g>

<g id="IT_300x250_FR_psd_Asset_RogersQ1ManagedWiFi_IT_Research_ConsumerGoods_V6_1_Choisir_le_bon_fournisseur_de__Wi_Fi_g_r__pour_votre_entreprise_0_Layer0_0_MEMBER_13_FILL">
<path fill="#D82C26" stroke="none" d="
M 45.35 -3.6
Q 44.9 -3.6 44.4 -3.35 44.05 -3.15 43.75 -2.7 43.5 -2.2 43.5 -1.75 43.5 -1.2 43.75 -0.8 43.95 -0.35 44.4 -0.15 44.9 0.1 45.35 0.1 45.8 0.1 46.3 -0.15 46.75 -0.35 46.95 -0.8 47.2 -1.2 47.2 -1.75 47.2 -2.2 46.95 -2.7 46.65 -3.15 46.3 -3.35 45.8 -3.6 45.35 -3.6
M 44.1 -2.5
Q 44.25 -2.85 44.6 -3 44.85 -3.2 45.35 -3.2 45.85 -3.2 46.1 -3 46.3 -2.9 46.6 -2.5
L 46.75 -1.75 46.6 -1
Q 46.45 -0.7 46.1 -0.45 45.7 -0.25 45.35 -0.25 45 -0.25 44.6 -0.45 44.25 -0.7 44.1 -1
L 43.95 -1.75 44.1 -2.5 Z"/>
</g>

<g id="IT_300x250_FR_psd_Asset_RogersQ1ManagedWiFi_IT_Research_ConsumerGoods_V6_1_Choisir_le_bon_fournisseur_de__Wi_Fi_g_r__pour_votre_entreprise_0_Layer0_0_MEMBER_14_FILL">
<path fill="#D82C26" stroke="none" d="
M 48.45 -0.6
Q 48.25 -1.1 48.25 -1.45
L 48.25 -3.45 47.8 -3.45 47.8 -1.35
Q 47.8 -0.8 48.15 -0.3 48.45 0.1 49.1 0.1 49.5 0.1 49.85 -0.15 50.2 -0.35 50.35 -0.75
L 50.45 0 50.85 0 50.8 -0.4 50.8 -3.45 50.35 -3.45 50.35 -1.75
Q 50.35 -1.25 50.2 -0.95 50.05 -0.65 49.8 -0.45 49.55 -0.25 49.2 -0.25 48.65 -0.25 48.45 -0.6 Z"/>
</g>

<g id="IT_300x250_FR_psd_Asset_RogersQ1ManagedWiFi_IT_Research_ConsumerGoods_V6_1_Choisir_le_bon_fournisseur_de__Wi_Fi_g_r__pour_votre_entreprise_0_Layer0_0_MEMBER_15_FILL">
<path fill="#D82C26" stroke="none" d="
M 53.45 -3.15
L 53.55 -3.5 53.15 -3.55
Q 52.8 -3.55 52.55 -3.35 52.3 -3.15 52.15 -2.7
L 52.1 -3.45 51.7 -3.45 51.7 0 52.15 0 52.15 -1.75
Q 52.15 -2.35 52.4 -2.75 52.7 -3.2 53.15 -3.2
L 53.45 -3.15 Z"/>
</g>

<g id="IT_300x250_FR_psd_Asset_RogersQ1ManagedWiFi_IT_Research_ConsumerGoods_V6_1_Choisir_le_bon_fournisseur_de__Wi_Fi_g_r__pour_votre_entreprise_0_Layer0_0_MEMBER_16_FILL">
<path fill="#D82C26" stroke="none" d="
M 54.3 -3.45
L 53.9 -3.45 53.95 0 54.35 0 54.35 -1.75
Q 54.35 -2.25 54.5 -2.55 54.7 -2.9 54.95 -3.05 55.2 -3.2 55.5 -3.2 56.05 -3.2 56.25 -2.85 56.45 -2.6 56.45 -2
L 56.45 0 56.9 0 56.9 -2.1
Q 56.9 -2.75 56.6 -3.15 56.35 -3.55 55.6 -3.55 55.2 -3.55 54.85 -3.35 54.5 -3.15 54.35 -2.7
L 54.3 -3.45 Z"/>
</g>

<g id="IT_300x250_FR_psd_Asset_RogersQ1ManagedWiFi_IT_Research_ConsumerGoods_V6_1_Choisir_le_bon_fournisseur_de__Wi_Fi_g_r__pour_votre_entreprise_0_Layer0_0_MEMBER_17_FILL">
<path fill="#D82C26" stroke="none" d="
M 57.75 -4.65
L 58 -4.55 58.2 -4.65 58.3 -4.85 58.2 -5.1 58 -5.15 57.75 -5.1 57.65 -4.85 57.75 -4.65
M 58.2 -3.45
L 57.75 -3.45 57.75 0 58.2 0 58.2 -3.45 Z"/>
</g>

<g id="IT_300x250_FR_psd_Asset_RogersQ1ManagedWiFi_IT_Research_ConsumerGoods_V6_1_Choisir_le_bon_fournisseur_de__Wi_Fi_g_r__pour_votre_entreprise_0_Layer0_0_MEMBER_18_FILL">
<path fill="#D82C26" stroke="none" d="
M 60.05 -3.25
L 60.55 -3.15 60.95 -2.9 61.15 -3.2 60.65 -3.45
Q 60.35 -3.6 60.05 -3.6 59.75 -3.6 59.5 -3.45 59.2 -3.35 59.05 -3.15 58.9 -2.9 58.9 -2.6 58.9 -2.2 59.15 -2 59.5 -1.75 59.9 -1.65 60.45 -1.45 60.6 -1.3 60.85 -1.15 60.85 -0.9 60.85 -0.65 60.6 -0.4 60.4 -0.25 60.05 -0.25 59.4 -0.25 58.9 -0.65
L 58.85 -0.3 59.35 0 60.05 0.1 60.65 0 61.1 -0.35
Q 61.25 -0.55 61.25 -0.9 61.25 -1.2 61 -1.55
L 59.5 -2.25
Q 59.3 -2.4 59.3 -2.65 59.3 -2.95 59.5 -3.1 59.75 -3.25 60.05 -3.25 Z"/>
</g>

<g id="IT_300x250_FR_psd_Asset_RogersQ1ManagedWiFi_IT_Research_ConsumerGoods_V6_1_Choisir_le_bon_fournisseur_de__Wi_Fi_g_r__pour_votre_entreprise_0_Layer0_0_MEMBER_19_FILL">
<path fill="#D82C26" stroke="none" d="
M 63.95 -3.2
L 63.45 -3.45
Q 63.15 -3.6 62.85 -3.6 62.55 -3.6 62.3 -3.45 62 -3.35 61.85 -3.15 61.7 -2.9 61.7 -2.6 61.7 -2.25 61.95 -2 62.3 -1.75 62.7 -1.65 63.25 -1.45 63.4 -1.3 63.65 -1.15 63.65 -0.9 63.65 -0.65 63.4 -0.4 63.2 -0.25 62.85 -0.25 62.25 -0.25 61.7 -0.65
L 61.65 -0.3 62.15 0 62.9 0.1 63.45 0
Q 63.8 -0.15 63.9 -0.35 64.05 -0.55 64.05 -0.9 64.05 -1.2 63.8 -1.55
L 62.3 -2.25
Q 62.1 -2.4 62.1 -2.65 62.1 -2.9 62.3 -3.1 62.55 -3.25 62.85 -3.25
L 63.35 -3.15 63.75 -2.9 63.95 -3.2 Z"/>
</g>

<g id="IT_300x250_FR_psd_Asset_RogersQ1ManagedWiFi_IT_Research_ConsumerGoods_V6_1_Choisir_le_bon_fournisseur_de__Wi_Fi_g_r__pour_votre_entreprise_0_Layer0_0_MEMBER_20_FILL">
<path fill="#D82C26" stroke="none" d="
M 64.65 -0.8
Q 64.85 -0.45 65.3 -0.15 65.7 0.1 66.2 0.1 67 0.1 67.6 -0.35
L 67.55 -0.7
Q 67.15 -0.45 66.95 -0.4 66.65 -0.25 66.25 -0.25 65.8 -0.25 65.55 -0.45 65.2 -0.6 65.05 -0.95 64.85 -1.45 64.85 -1.7
L 67.8 -1.7 67.8 -1.85
Q 67.8 -2.35 67.6 -2.75 67.45 -3.1 67.05 -3.35 66.65 -3.6 66.15 -3.6 65.7 -3.6 65.3 -3.35 64.85 -3.05 64.65 -2.7 64.45 -2.3 64.45 -1.75 64.45 -1.15 64.65 -0.8
M 65.05 -2.55
Q 65.2 -2.8 65.5 -3.05 65.8 -3.25 66.15 -3.25 66.75 -3.25 67.05 -2.9 67.4 -2.45 67.4 -2
L 64.85 -2 65.05 -2.55 Z"/>
</g>

<g id="IT_300x250_FR_psd_Asset_RogersQ1ManagedWiFi_IT_Research_ConsumerGoods_V6_1_Choisir_le_bon_fournisseur_de__Wi_Fi_g_r__pour_votre_entreprise_0_Layer0_0_MEMBER_21_FILL">
<path fill="#D82C26" stroke="none" d="
M 68.4 -1.35
Q 68.4 -0.7 68.75 -0.3 69.05 0.1 69.7 0.1 70.05 0.1 70.45 -0.15 70.8 -0.35 70.95 -0.75
L 71 0 71.45 0 71.4 -0.4 71.4 -3.45 70.95 -3.45 70.95 -1.75
Q 70.95 -1.25 70.8 -0.95 70.65 -0.65 70.4 -0.45 70.15 -0.25 69.8 -0.25 69.25 -0.25 69.05 -0.6 68.85 -1.1 68.85 -1.45
L 68.85 -3.45 68.4 -3.45 68.4 -1.35 Z"/>
</g>

<g id="IT_300x250_FR_psd_Asset_RogersQ1ManagedWiFi_IT_Research_ConsumerGoods_V6_1_Choisir_le_bon_fournisseur_de__Wi_Fi_g_r__pour_votre_entreprise_0_Layer0_0_MEMBER_22_FILL">
<path fill="#D82C26" stroke="none" d="
M 74.15 -3.5
L 73.75 -3.55
Q 73.4 -3.55 73.15 -3.35 72.9 -3.15 72.75 -2.7
L 72.7 -3.45 72.25 -3.45 72.3 0 72.75 0 72.75 -1.75
Q 72.75 -2.35 73 -2.75 73.3 -3.2 73.75 -3.2
L 74.05 -3.15 74.15 -3.5 Z"/>
</g>

<g id="IT_300x250_FR_psd_Asset_RogersQ1ManagedWiFi_IT_Research_ConsumerGoods_V6_1_Choisir_le_bon_fournisseur_de__Wi_Fi_g_r__pour_votre_entreprise_0_Layer0_0_MEMBER_23_FILL">
<path fill="#D82C26" stroke="none" d="
M 75.3 -1.75
Q 75.3 -1.4 75.5 -0.8 75.75 -0.4 76.15 -0.15 76.55 0.1 77.05 0.1 77.45 0.1 77.85 -0.15 78.25 -0.3 78.45 -0.75
L 78.5 -0.75 78.5 0 78.95 0 78.9 -5.7 78.45 -5.6 78.45 -2.7
Q 78.25 -3.1 77.85 -3.35 77.5 -3.55 77.05 -3.55 76.5 -3.55 76.15 -3.35 75.65 -2.95 75.5 -2.65 75.3 -2.15 75.3 -1.75
M 75.75 -1.75
Q 75.75 -2.15 75.9 -2.45 76.05 -2.8 76.4 -3 76.65 -3.2 77.1 -3.2 77.55 -3.2 77.8 -3 78.15 -2.85 78.3 -2.45 78.5 -2.2 78.5 -1.75 78.5 -1.25 78.3 -1 78.1 -0.65 77.8 -0.45 77.4 -0.25 77.1 -0.25 76.8 -0.25 76.4 -0.45 76 -0.75 75.9 -1 75.75 -1.3 75.75 -1.75 Z"/>
</g>

<g id="IT_300x250_FR_psd_Asset_RogersQ1ManagedWiFi_IT_Research_ConsumerGoods_V6_1_Choisir_le_bon_fournisseur_de__Wi_Fi_g_r__pour_votre_entreprise_0_Layer0_0_MEMBER_24_FILL">
<path fill="#D82C26" stroke="none" d="
M 79.8 -0.8
Q 80 -0.35 80.45 -0.15 80.85 0.1 81.35 0.1 82.15 0.1 82.75 -0.35
L 82.65 -0.7
Q 82.25 -0.45 82.1 -0.4 81.8 -0.25 81.4 -0.25 81 -0.25 80.65 -0.45 80.4 -0.6 80.2 -0.95 80 -1.3 80 -1.7
L 82.95 -1.7 82.95 -1.85
Q 82.95 -2.35 82.75 -2.75 82.5 -3.15 82.2 -3.35 81.8 -3.6 81.3 -3.6 80.9 -3.6 80.4 -3.35 80 -3.1 79.8 -2.7 79.55 -2.2 79.55 -1.75 79.55 -1.2 79.8 -0.8
M 80.15 -2.55
Q 80.3 -2.8 80.6 -3.05 81 -3.25 81.3 -3.25 81.85 -3.25 82.2 -2.9 82.45 -2.55 82.55 -2
L 80 -2
Q 80 -2.25 80.15 -2.55 Z"/>
</g>

<g id="IT_300x250_FR_psd_Asset_RogersQ1ManagedWiFi_IT_Research_ConsumerGoods_V6_1_Choisir_le_bon_fournisseur_de__Wi_Fi_g_r__pour_votre_entreprise_0_Layer0_0_MEMBER_25_FILL">
<path fill="#D82C26" stroke="none" d="
M 7.05 3.2
L 6.6 3.2 5.25 7.9 3.85 3.2 3.35 3.2 2 7.9 1.95 7.9 0.6 3.2 0.15 3.2 1.7 8.45 2.2 8.45 3.6 3.8 5 8.45 5.5 8.45 7.05 3.2 Z"/>
</g>

<g id="IT_300x250_FR_psd_Asset_RogersQ1ManagedWiFi_IT_Research_ConsumerGoods_V6_1_Choisir_le_bon_fournisseur_de__Wi_Fi_g_r__pour_votre_entreprise_0_Layer0_0_MEMBER_26_FILL">
<path fill="#D82C26" stroke="none" d="
M 8 5
L 7.55 5 7.55 8.45 8 8.45 8 5
M 7.45 3.6
L 7.55 3.85 7.75 3.95 8 3.85 8.05 3.6 8 3.4 7.75 3.3 7.55 3.4 7.45 3.6 Z"/>
</g>

<g id="IT_300x250_FR_psd_Asset_RogersQ1ManagedWiFi_IT_Research_ConsumerGoods_V6_1_Choisir_le_bon_fournisseur_de__Wi_Fi_g_r__pour_votre_entreprise_0_Layer0_0_MEMBER_27_FILL">
<path fill="#D82C26" stroke="none" d="
M 8.7 6.4
L 8.7 6.8 10.2 6.8 10.2 6.4 8.7 6.4 Z"/>
</g>

<g id="IT_300x250_FR_psd_Asset_RogersQ1ManagedWiFi_IT_Research_ConsumerGoods_V6_1_Choisir_le_bon_fournisseur_de__Wi_Fi_g_r__pour_votre_entreprise_0_Layer0_0_MEMBER_28_FILL">
<path fill="#D82C26" stroke="none" d="
M 11.5 5.95
L 13.55 5.95 13.6 5.6 11.5 5.6 11.5 3.6 13.7 3.6 13.75 3.2 11.05 3.2 11.05 8.45 11.5 8.45 11.5 5.95 Z"/>
</g>

<g id="IT_300x250_FR_psd_Asset_RogersQ1ManagedWiFi_IT_Research_ConsumerGoods_V6_1_Choisir_le_bon_fournisseur_de__Wi_Fi_g_r__pour_votre_entreprise_0_Layer0_0_MEMBER_29_FILL">
<path fill="#D82C26" stroke="none" d="
M 14.8 5
L 14.35 5 14.35 8.45 14.8 8.45 14.8 5
M 14.6 3.95
L 14.8 3.85 14.9 3.6 14.8 3.4 14.6 3.3 14.35 3.4 14.25 3.6 14.35 3.85 14.6 3.95 Z"/>
</g>

<g id="IT_300x250_FR_psd_Asset_RogersQ1ManagedWiFi_IT_Research_ConsumerGoods_V6_1_Choisir_le_bon_fournisseur_de__Wi_Fi_g_r__pour_votre_entreprise_0_Layer0_0_MEMBER_30_FILL">
<path fill="#D82C26" stroke="none" d="
M 20.25 8.4
L 20.25 5 19.85 5 19.8 5.75
Q 19.6 5.4 19.2 5.15 18.9 4.9 18.4 4.9 17.9 4.9 17.5 5.15 17.15 5.35 16.85 5.8 16.65 6.2 16.65 6.75 16.65 7.3 16.85 7.65 17.05 8.1 17.5 8.3 17.9 8.55 18.4 8.55 18.8 8.55 19.2 8.3 19.6 8.1 19.8 7.7
L 19.8 8.45
Q 19.8 9.15 19.45 9.55 19.15 9.95 18.35 9.95
L 17.6 9.8 16.95 9.45 16.85 9.85 17.55 10.2 18.4 10.3
Q 19.35 10.3 19.8 9.8 20.25 9.3 20.25 8.4
M 17.75 5.45
Q 18.15 5.25 18.45 5.25 18.75 5.25 19.15 5.45 19.55 5.75 19.65 6 19.8 6.3 19.8 6.7 19.8 7.15 19.65 7.45 19.55 7.7 19.15 8 18.75 8.2 18.45 8.2 18.15 8.2 17.75 8 17.45 7.8 17.25 7.45 17.1 7.15 17.1 6.75 17.1 6.3 17.25 6 17.4 5.65 17.75 5.45 Z"/>
</g>

<g id="IT_300x250_FR_psd_Asset_RogersQ1ManagedWiFi_IT_Research_ConsumerGoods_V6_1_Choisir_le_bon_fournisseur_de__Wi_Fi_g_r__pour_votre_entreprise_0_Layer0_0_MEMBER_31_FILL">
<path fill="#D82C26" stroke="none" d="
M 22.3 4.3
L 22.65 4.3 23.55 3.2 23.05 3.2 22.3 4.3
M 22.6 4.9
Q 22.05 4.9 21.75 5.15 21.4 5.35 21.1 5.75 20.9 6.15 20.9 6.7 20.9 7.2 21.15 7.7 21.4 8.15 21.75 8.35 22.25 8.6 22.7 8.6 23.55 8.6 24.05 8.15
L 24 7.75 23.45 8.1
Q 23.2 8.2 22.7 8.2 22.3 8.2 22 8.05 21.6 7.75 21.5 7.5
L 21.3 6.8 24.25 6.8 24.25 6.6
Q 24.25 6.15 24.1 5.75 23.9 5.4 23.5 5.1 23.15 4.9 22.6 4.9
M 21.5 5.9
Q 21.65 5.6 21.95 5.45 22.2 5.25 22.6 5.25 23.2 5.25 23.5 5.55 23.85 5.9 23.85 6.5
L 21.35 6.5
Q 21.35 6.2 21.5 5.9 Z"/>
</g>

<g id="IT_300x250_FR_psd_Asset_RogersQ1ManagedWiFi_IT_Research_ConsumerGoods_V6_1_Choisir_le_bon_fournisseur_de__Wi_Fi_g_r__pour_votre_entreprise_0_Layer0_0_MEMBER_32_FILL">
<path fill="#D82C26" stroke="none" d="
M 25.65 5.7
Q 25.9 5.3 26.35 5.3
L 26.65 5.35 26.75 4.95 26.35 4.9
Q 26 4.9 25.75 5.15 25.5 5.4 25.35 5.75
L 25.3 5 24.9 5 24.9 8.45 25.35 8.45 25.35 6.75
Q 25.35 6.15 25.65 5.7 Z"/>
</g>

<g id="IT_300x250_FR_psd_Asset_RogersQ1ManagedWiFi_IT_Research_ConsumerGoods_V6_1_Choisir_le_bon_fournisseur_de__Wi_Fi_g_r__pour_votre_entreprise_0_Layer0_0_MEMBER_33_FILL">
<path fill="#D82C26" stroke="none" d="
M 28.9 3.2
L 28.15 4.3 28.5 4.3 29.4 3.2 28.9 3.2
M 27.55 5.15
Q 27.2 5.4 26.95 5.75 26.7 6.25 26.7 6.7 26.7 7.2 26.95 7.7 27.25 8.15 27.6 8.35 28 8.6 28.5 8.6 29.3 8.6 29.9 8.15
L 29.8 7.75 29.25 8.1
Q 29.05 8.2 28.55 8.2 28.2 8.2 27.8 8.05 27.45 7.8 27.35 7.5 27.15 7.25 27.15 6.8
L 30.1 6.8 30.1 6.6
Q 30.1 6.1 29.9 5.75 29.65 5.35 29.35 5.1 29 4.9 28.45 4.9 27.95 4.9 27.55 5.15
M 27.3 5.9
Q 27.45 5.6 27.75 5.45 28 5.25 28.45 5.25 29 5.25 29.35 5.55 29.65 5.9 29.7 6.5
L 27.15 6.5
Q 27.15 6.2 27.3 5.9 Z"/>
</g>

<g id="IT_300x250_FR_psd_Asset_RogersQ1ManagedWiFi_IT_Research_ConsumerGoods_V6_1_Choisir_le_bon_fournisseur_de__Wi_Fi_g_r__pour_votre_entreprise_0_Layer0_0_MEMBER_34_FILL">
<path fill="#D82C26" stroke="none" d="
M 32.4 5.75
L 32.35 5.75 32.35 5 31.9 5 31.95 5.65 31.95 10.25 32.35 10.25 32.35 7.75 32.4 7.75
Q 32.55 8.1 32.95 8.35 33.3 8.55 33.8 8.55 34.35 8.55 34.7 8.35 35.1 8 35.3 7.65 35.55 7.25 35.55 6.75 35.55 6.3 35.3 5.8 35.1 5.4 34.7 5.15 34.3 4.9 33.8 4.9 33.25 4.9 32.95 5.15 32.55 5.4 32.4 5.75
M 34.45 5.45
Q 34.75 5.65 34.9 6 35.1 6.35 35.1 6.75 35.1 7.15 34.9 7.5 34.7 7.85 34.45 8 34.2 8.2 33.75 8.2 33.35 8.2 33 8 32.65 7.75 32.55 7.45 32.35 7.2 32.35 6.75 32.35 6.35 32.55 6 32.7 5.65 33 5.45 33.5 5.25 33.75 5.25 34.05 5.25 34.45 5.45 Z"/>
</g>

<g id="IT_300x250_FR_psd_Asset_RogersQ1ManagedWiFi_IT_Research_ConsumerGoods_V6_1_Choisir_le_bon_fournisseur_de__Wi_Fi_g_r__pour_votre_entreprise_0_Layer0_0_MEMBER_35_FILL">
<path fill="#D82C26" stroke="none" d="
M 39.45 5.8
Q 39.15 5.35 38.75 5.15 38.45 4.9 37.8 4.9 37.25 4.9 36.85 5.15 36.4 5.45 36.2 5.8 35.95 6.2 35.95 6.75 35.95 7.2 36.2 7.7 36.45 8.1 36.85 8.35 37.35 8.6 37.8 8.6 38.35 8.6 38.75 8.35 39.05 8.2 39.45 7.7 39.65 7.3 39.65 6.75 39.65 6.15 39.45 5.8
M 38.55 5.45
Q 38.9 5.65 39.05 6 39.25 6.25 39.25 6.75 39.25 7.2 39.05 7.45 38.9 7.8 38.55 8 38.3 8.2 37.8 8.2 37.4 8.2 37.05 8 36.7 7.75 36.6 7.45 36.4 7.2 36.4 6.75 36.4 6.25 36.6 6 36.7 5.7 37.05 5.45 37.55 5.25 37.8 5.25 38.15 5.25 38.55 5.45 Z"/>
</g>

<g id="IT_300x250_FR_psd_Asset_RogersQ1ManagedWiFi_IT_Research_ConsumerGoods_V6_1_Choisir_le_bon_fournisseur_de__Wi_Fi_g_r__pour_votre_entreprise_0_Layer0_0_MEMBER_36_FILL">
<path fill="#D82C26" stroke="none" d="
M 43.25 5
L 42.85 5 42.85 6.75
Q 42.85 7.2 42.7 7.55 42.55 7.8 42.25 8.05 42.05 8.2 41.7 8.2 41.15 8.2 40.95 7.85 40.75 7.6 40.75 7
L 40.75 5 40.3 5 40.3 7.1
Q 40.3 7.8 40.6 8.15 40.85 8.55 41.55 8.55 42 8.55 42.35 8.35 42.75 8.05 42.85 7.7
L 42.9 8.5 43.35 8.45 43.25 7.65 43.25 5 Z"/>
</g>

<g id="IT_300x250_FR_psd_Asset_RogersQ1ManagedWiFi_IT_Research_ConsumerGoods_V6_1_Choisir_le_bon_fournisseur_de__Wi_Fi_g_r__pour_votre_entreprise_0_Layer0_0_MEMBER_37_FILL">
<path fill="#D82C26" stroke="none" d="
M 45.6 5.3
L 45.9 5.35 46 4.95 45.65 4.9
Q 45.3 4.9 45.05 5.15 44.75 5.4 44.6 5.75
L 44.55 5 44.15 5 44.2 8.45 44.65 8.45 44.65 6.75
Q 44.65 6.1 44.9 5.7 45.15 5.3 45.6 5.3 Z"/>
</g>

<g id="IT_300x250_FR_psd_Asset_RogersQ1ManagedWiFi_IT_Research_ConsumerGoods_V6_1_Choisir_le_bon_fournisseur_de__Wi_Fi_g_r__pour_votre_entreprise_0_Layer0_0_MEMBER_38_FILL">
<path fill="#D82C26" stroke="none" d="
M 46.85 5
L 48.15 8.45 48.65 8.45 49.95 5 49.5 5 48.4 8.05 47.3 5 46.85 5 Z"/>
</g>

<g id="IT_300x250_FR_psd_Asset_RogersQ1ManagedWiFi_IT_Research_ConsumerGoods_V6_1_Choisir_le_bon_fournisseur_de__Wi_Fi_g_r__pour_votre_entreprise_0_Layer0_0_MEMBER_39_FILL">
<path fill="#D82C26" stroke="none" d="
M 53.45 5.8
Q 53.25 5.35 52.8 5.15 52.45 4.9 51.85 4.9 51.3 4.9 50.9 5.15 50.45 5.45 50.25 5.8 50 6.2 50 6.75 50 7.2 50.25 7.7 50.5 8.1 50.9 8.35 51.4 8.6 51.85 8.6 52.3 8.6 52.8 8.35 53.15 8.15 53.45 7.7 53.7 7.2 53.7 6.75 53.7 6.2 53.45 5.8
M 52.6 5.45
Q 53 5.75 53.1 6 53.25 6.3 53.25 6.75 53.25 7.15 53.1 7.45 53 7.7 52.6 8 52.35 8.2 51.85 8.2 51.35 8.2 51.1 8 50.8 7.75 50.6 7.45 50.45 7.15 50.45 6.75 50.45 6.3 50.6 6 50.8 5.7 51.1 5.45 51.5 5.25 51.85 5.25 52.2 5.25 52.6 5.45 Z"/>
</g>

<g id="IT_300x250_FR_psd_Asset_RogersQ1ManagedWiFi_IT_Research_ConsumerGoods_V6_1_Choisir_le_bon_fournisseur_de__Wi_Fi_g_r__pour_votre_entreprise_0_Layer0_0_MEMBER_40_FILL">
<path fill="#D82C26" stroke="none" d="
M 55.7 5.35
L 55.8 5 54.8 5 54.8 4 54.4 4.15 54.4 5 53.85 5 53.75 5.35 54.4 5.35 54.4 7.65
Q 54.4 8.1 54.6 8.3 54.85 8.55 55.2 8.55
L 55.6 8.5 55.95 8.35 55.9 8.05 55.35 8.2
Q 55.1 8.2 54.95 8.05 54.8 7.9 54.8 7.6
L 54.8 5.35 55.7 5.35 Z"/>
</g>

<g id="IT_300x250_FR_psd_Asset_RogersQ1ManagedWiFi_IT_Research_ConsumerGoods_V6_1_Choisir_le_bon_fournisseur_de__Wi_Fi_g_r__pour_votre_entreprise_0_Layer0_0_MEMBER_41_FILL">
<path fill="#D82C26" stroke="none" d="
M 56.75 5
L 56.3 5 56.35 8.45 56.8 8.45 56.8 6.75
Q 56.8 6.2 57.05 5.7 57.35 5.3 57.8 5.3
L 58.1 5.35 58.2 4.95 57.8 4.9
Q 57.45 4.9 57.2 5.15 56.95 5.3 56.8 5.75
L 56.75 5 Z"/>
</g>

<g id="IT_300x250_FR_psd_Asset_RogersQ1ManagedWiFi_IT_Research_ConsumerGoods_V6_1_Choisir_le_bon_fournisseur_de__Wi_Fi_g_r__pour_votre_entreprise_0_Layer0_0_MEMBER_42_FILL">
<path fill="#D82C26" stroke="none" d="
M 61.35 5.75
Q 61.15 5.4 60.75 5.1 60.4 4.9 59.85 4.9 59.3 4.9 59 5.15 58.65 5.4 58.4 5.75 58.15 6.25 58.15 6.7 58.15 7.2 58.4 7.7 58.65 8.15 59 8.35 59.5 8.6 59.95 8.6 60.8 8.6 61.3 8.15
L 61.25 7.75 60.7 8.1
Q 60.45 8.2 59.95 8.2 59.55 8.2 59.25 8.05 58.95 7.8 58.75 7.5 58.6 7.2 58.6 6.8
L 61.5 6.8 61.55 6.6
Q 61.55 6.25 61.35 5.75
M 60.75 5.55
Q 61.1 5.9 61.1 6.5
L 58.6 6.5
Q 58.6 6.2 58.75 5.9 58.9 5.6 59.2 5.45 59.45 5.25 59.85 5.25 60.45 5.25 60.75 5.55 Z"/>
</g>

<g id="IT_300x250_FR_psd_Asset_RogersQ1ManagedWiFi_IT_Research_ConsumerGoods_V6_1_Choisir_le_bon_fournisseur_de__Wi_Fi_g_r__pour_votre_entreprise_0_Layer0_0_MEMBER_43_FILL">
<path fill="#D82C26" stroke="none" d="
M 63.95 5.15
Q 63.5 5.4 63.3 5.75 63.1 6.15 63.1 6.7 63.1 7.35 63.35 7.7 63.6 8.15 63.95 8.35 64.45 8.6 64.9 8.6 65.75 8.6 66.25 8.15
L 66.2 7.75 65.65 8.1
Q 65.4 8.2 64.9 8.2 64.5 8.2 64.2 8.05 63.8 7.75 63.7 7.5
L 63.5 6.8 66.45 6.8 66.45 6.6
Q 66.45 6.15 66.3 5.75 66.1 5.4 65.7 5.1 65.35 4.9 64.8 4.9 64.25 4.9 63.95 5.15
M 64.8 5.25
Q 65.4 5.25 65.7 5.55 66.05 5.9 66.05 6.5
L 63.55 6.5
Q 63.55 6.2 63.7 5.9 63.85 5.6 64.15 5.45 64.4 5.25 64.8 5.25 Z"/>
</g>

<g id="IT_300x250_FR_psd_Asset_RogersQ1ManagedWiFi_IT_Research_ConsumerGoods_V6_1_Choisir_le_bon_fournisseur_de__Wi_Fi_g_r__pour_votre_entreprise_0_Layer0_0_MEMBER_44_FILL">
<path fill="#D82C26" stroke="none" d="
M 67.7 5.95
Q 67.85 5.6 68.15 5.45 68.35 5.25 68.75 5.25 69.2 5.25 69.45 5.6 69.65 5.95 69.65 6.45
L 69.65 8.45 70.1 8.45 70.1 6.35
Q 70.1 5.75 69.8 5.3 69.5 4.9 68.8 4.9 68.45 4.9 68.05 5.15 67.7 5.45 67.55 5.75
L 67.5 5 67.1 5 67.15 8.45 67.55 8.45 67.55 6.7
Q 67.55 6.25 67.7 5.95 Z"/>
</g>

<g id="IT_300x250_FR_psd_Asset_RogersQ1ManagedWiFi_IT_Research_ConsumerGoods_V6_1_Choisir_le_bon_fournisseur_de__Wi_Fi_g_r__pour_votre_entreprise_0_Layer0_0_MEMBER_45_FILL">
<path fill="#D82C26" stroke="none" d="
M 71.05 4.15
L 71.05 5 70.5 5 70.4 5.35 71.05 5.35 71.05 7.65
Q 71.05 8.1 71.25 8.3 71.5 8.55 71.85 8.55
L 72.25 8.5 72.6 8.35 72.55 8.05
Q 72.25 8.2 72 8.2 71.75 8.2 71.6 8.05 71.45 7.9 71.45 7.6
L 71.45 5.35 72.35 5.35 72.45 5 71.45 5 71.45 4 71.05 4.15 Z"/>
</g>

<g id="IT_300x250_FR_psd_Asset_RogersQ1ManagedWiFi_IT_Research_ConsumerGoods_V6_1_Choisir_le_bon_fournisseur_de__Wi_Fi_g_r__pour_votre_entreprise_0_Layer0_0_MEMBER_46_FILL">
<path fill="#D82C26" stroke="none" d="
M 73.4 5
L 72.95 5 73 8.45 73.45 8.45 73.45 6.75
Q 73.45 6.2 73.7 5.7 74 5.3 74.45 5.3
L 74.75 5.35 74.85 4.95 74.45 4.9
Q 74.1 4.9 73.85 5.15 73.6 5.3 73.45 5.75
L 73.4 5 Z"/>
</g>

<g id="IT_300x250_FR_psd_Asset_RogersQ1ManagedWiFi_IT_Research_ConsumerGoods_V6_1_Choisir_le_bon_fournisseur_de__Wi_Fi_g_r__pour_votre_entreprise_0_Layer0_0_MEMBER_47_FILL">
<path fill="#D82C26" stroke="none" d="
M 77.4 5.1
Q 77.05 4.9 76.55 4.9 75.95 4.9 75.65 5.15 75.3 5.4 75.05 5.75 74.8 6.25 74.8 6.7 74.8 7.2 75.05 7.7 75.3 8.15 75.65 8.35 76.15 8.6 76.6 8.6 77.45 8.6 77.95 8.15
L 77.9 7.75 77.35 8.1
Q 77.1 8.2 76.6 8.2 76.2 8.2 75.9 8.05 75.6 7.8 75.4 7.5 75.25 7.2 75.25 6.8
L 78.15 6.8 78.2 6.6
Q 78.2 6.25 78 5.75 77.8 5.4 77.4 5.1
M 76.55 5.25
Q 77.1 5.25 77.4 5.55 77.75 5.9 77.75 6.5
L 75.25 6.5
Q 75.25 6.2 75.4 5.9 75.55 5.6 75.85 5.45 76.1 5.25 76.55 5.25 Z"/>
</g>

<g id="IT_300x250_FR_psd_Asset_RogersQ1ManagedWiFi_IT_Research_ConsumerGoods_V6_1_Choisir_le_bon_fournisseur_de__Wi_Fi_g_r__pour_votre_entreprise_0_Layer0_0_MEMBER_48_FILL">
<path fill="#D82C26" stroke="none" d="
M 82.2 5.8
Q 82 5.4 81.6 5.15 81.2 4.9 80.7 4.9 80.15 4.9 79.85 5.15 79.45 5.4 79.3 5.75
L 79.25 5.75 79.25 5 78.8 5 78.85 5.65 78.85 10.25 79.25 10.25 79.25 7.75 79.3 7.75
Q 79.45 8.1 79.85 8.35 80.2 8.55 80.7 8.55 81.25 8.55 81.6 8.35 82 8 82.2 7.65 82.45 7.25 82.45 6.75 82.45 6.3 82.2 5.8
M 81.8 7.5
Q 81.6 7.85 81.35 8 81.1 8.2 80.65 8.2 80.25 8.2 79.9 8 79.55 7.75 79.45 7.45 79.25 7.2 79.25 6.75 79.25 6.35 79.45 6 79.6 5.65 79.9 5.45 80.4 5.25 80.65 5.25 80.95 5.25 81.35 5.45 81.65 5.65 81.8 6 82 6.35 82 6.75 82 7.15 81.8 7.5 Z"/>
</g>

<g id="IT_300x250_FR_psd_Asset_RogersQ1ManagedWiFi_IT_Research_ConsumerGoods_V6_1_Choisir_le_bon_fournisseur_de__Wi_Fi_g_r__pour_votre_entreprise_0_Layer0_0_MEMBER_49_FILL">
<path fill="#D82C26" stroke="none" d="
M 83.5 5.75
L 83.5 5 83.05 5 83.1 8.45 83.55 8.45 83.55 6.75
Q 83.55 6.2 83.8 5.7 84.1 5.3 84.5 5.3
L 84.85 5.35 84.9 4.95 84.55 4.9
Q 84.2 4.9 83.95 5.15 83.7 5.3 83.55 5.75
L 83.5 5.75 Z"/>
</g>

<g id="IT_300x250_FR_psd_Asset_RogersQ1ManagedWiFi_IT_Research_ConsumerGoods_V6_1_Choisir_le_bon_fournisseur_de__Wi_Fi_g_r__pour_votre_entreprise_0_Layer0_0_MEMBER_50_FILL">
<path fill="#D82C26" stroke="none" d="
M 85.75 5
L 85.3 5 85.3 8.45 85.75 8.45 85.75 5
M 85.5 3.95
L 85.75 3.85 85.85 3.6 85.75 3.4 85.5 3.3 85.3 3.4 85.2 3.6 85.3 3.85 85.5 3.95 Z"/>
</g>

<g id="IT_300x250_FR_psd_Asset_RogersQ1ManagedWiFi_IT_Research_ConsumerGoods_V6_1_Choisir_le_bon_fournisseur_de__Wi_Fi_g_r__pour_votre_entreprise_0_Layer0_0_MEMBER_51_FILL">
<path fill="#D82C26" stroke="none" d="
M 86.6 5.35
Q 86.4 5.55 86.4 5.85 86.4 6.2 86.65 6.45
L 88.15 7.15
Q 88.35 7.3 88.35 7.6 88.35 7.9 88.15 8.05 87.85 8.25 87.6 8.25 86.9 8.25 86.45 7.8
L 86.35 8.2 86.9 8.45
Q 87.1 8.55 87.6 8.55 88 8.55 88.2 8.45 88.4 8.4 88.6 8.1 88.8 7.9 88.8 7.55 88.8 7.2 88.5 6.95 88.25 6.7 87.7 6.55
L 87.05 6.25
Q 86.85 6.1 86.85 5.85 86.85 5.55 87.05 5.4 87.3 5.25 87.6 5.25 87.95 5.25 88.1 5.35
L 88.5 5.6 88.7 5.25 88.2 5 87.55 4.9 87 5
Q 86.8 5.05 86.6 5.35 Z"/>
</g>

<g id="IT_300x250_FR_psd_Asset_RogersQ1ManagedWiFi_IT_Research_ConsumerGoods_V6_1_Choisir_le_bon_fournisseur_de__Wi_Fi_g_r__pour_votre_entreprise_0_Layer0_0_MEMBER_52_FILL">
<path fill="#D82C26" stroke="none" d="
M 92.35 5.75
Q 92.1 5.35 91.8 5.1 91.45 4.9 90.9 4.9 90.3 4.9 90 5.15 89.65 5.4 89.4 5.75 89.15 6.25 89.15 6.7 89.15 7.2 89.4 7.7 89.7 8.15 90.05 8.35 90.45 8.6 90.95 8.6 91.75 8.6 92.35 8.15
L 92.25 7.75 91.7 8.1
Q 91.45 8.2 91 8.2 90.65 8.2 90.25 8.05 89.95 7.8 89.75 7.5 89.6 7.2 89.6 6.8
L 92.55 6.8 92.55 6.6
Q 92.55 6.1 92.35 5.75
M 91.8 5.55
Q 92.1 5.95 92.1 6.5
L 89.6 6.5
Q 89.6 6.2 89.75 5.9 89.9 5.6 90.2 5.45 90.45 5.25 90.9 5.25 91.45 5.25 91.8 5.55 Z"/>
</g>

<g id="IT_300x250_FR_psd_Asset_RogersQ1ManagedWiFi_IT_Research_ConsumerGoods_V6_1_Choisir_le_bon_fournisseur_de__Wi_Fi_g_r__pour_votre_entreprise_0_Layer0_0_MEMBER_53_FILL">
<path fill="#D82C26" stroke="none" d="
M 93.15 8.45
L 93.4 8.5
Q 93.55 8.5 93.6 8.4 93.7 8.35 93.7 8.2 93.7 8 93.6 7.95
L 93.4 7.85 93.15 7.95 93.05 8.2 93.15 8.45 Z"/>
</g>
</defs>

<g transform="matrix( 1, 0, 0, 1, -65,8) ">
<g transform="matrix( 1, 0, 0, 1, 60,9) ">
<g transform="matrix( 1, 0, 0, 1, 27,8) ">
<g transform="matrix( 2.815704345703125, 0, 0, 2.832611083984375, 0.15,16.6) ">
<use xlink:href="#IT_300x250_FR_psd_Asset_RogersQ1ManagedWiFi_IT_Research_ConsumerGoods_V6_1_Choisir_le_bon_fournisseur_de__Wi_Fi_g_r__pour_votre_entreprise_0_Layer0_0_MEMBER_0_FILL"/>
</g>

<g transform="matrix( 2.815704345703125, 0, 0, 2.832611083984375, 0.15,16.6) ">
<use xlink:href="#IT_300x250_FR_psd_Asset_RogersQ1ManagedWiFi_IT_Research_ConsumerGoods_V6_1_Choisir_le_bon_fournisseur_de__Wi_Fi_g_r__pour_votre_entreprise_0_Layer0_0_MEMBER_1_FILL"/>
</g>

<g transform="matrix( 2.815704345703125, 0, 0, 2.832611083984375, 0.15,16.6) ">
<use xlink:href="#IT_300x250_FR_psd_Asset_RogersQ1ManagedWiFi_IT_Research_ConsumerGoods_V6_1_Choisir_le_bon_fournisseur_de__Wi_Fi_g_r__pour_votre_entreprise_0_Layer0_0_MEMBER_2_FILL"/>
</g>

<g transform="matrix( 2.815704345703125, 0, 0, 2.832611083984375, 0.15,16.6) ">
<use xlink:href="#IT_300x250_FR_psd_Asset_RogersQ1ManagedWiFi_IT_Research_ConsumerGoods_V6_1_Choisir_le_bon_fournisseur_de__Wi_Fi_g_r__pour_votre_entreprise_0_Layer0_0_MEMBER_3_FILL"/>
</g>

<g transform="matrix( 2.815704345703125, 0, 0, 2.832611083984375, 0.15,16.6) ">
<use xlink:href="#IT_300x250_FR_psd_Asset_RogersQ1ManagedWiFi_IT_Research_ConsumerGoods_V6_1_Choisir_le_bon_fournisseur_de__Wi_Fi_g_r__pour_votre_entreprise_0_Layer0_0_MEMBER_4_FILL"/>
</g>

<g transform="matrix( 2.815704345703125, 0, 0, 2.832611083984375, 0.15,16.6) ">
<use xlink:href="#IT_300x250_FR_psd_Asset_RogersQ1ManagedWiFi_IT_Research_ConsumerGoods_V6_1_Choisir_le_bon_fournisseur_de__Wi_Fi_g_r__pour_votre_entreprise_0_Layer0_0_MEMBER_5_FILL"/>
</g>

<g transform="matrix( 2.815704345703125, 0, 0, 2.832611083984375, 0.15,16.6) ">
<use xlink:href="#IT_300x250_FR_psd_Asset_RogersQ1ManagedWiFi_IT_Research_ConsumerGoods_V6_1_Choisir_le_bon_fournisseur_de__Wi_Fi_g_r__pour_votre_entreprise_0_Layer0_0_MEMBER_6_FILL"/>
</g>

<g transform="matrix( 2.815704345703125, 0, 0, 2.832611083984375, 0.15,16.6) ">
<use xlink:href="#IT_300x250_FR_psd_Asset_RogersQ1ManagedWiFi_IT_Research_ConsumerGoods_V6_1_Choisir_le_bon_fournisseur_de__Wi_Fi_g_r__pour_votre_entreprise_0_Layer0_0_MEMBER_7_FILL"/>
</g>

<g transform="matrix( 2.815704345703125, 0, 0, 2.832611083984375, 0.15,16.6) ">
<use xlink:href="#IT_300x250_FR_psd_Asset_RogersQ1ManagedWiFi_IT_Research_ConsumerGoods_V6_1_Choisir_le_bon_fournisseur_de__Wi_Fi_g_r__pour_votre_entreprise_0_Layer0_0_MEMBER_8_FILL"/>
</g>

<g transform="matrix( 2.815704345703125, 0, 0, 2.832611083984375, 0.15,16.6) ">
<use xlink:href="#IT_300x250_FR_psd_Asset_RogersQ1ManagedWiFi_IT_Research_ConsumerGoods_V6_1_Choisir_le_bon_fournisseur_de__Wi_Fi_g_r__pour_votre_entreprise_0_Layer0_0_MEMBER_9_FILL"/>
</g>

<g transform="matrix( 2.815704345703125, 0, 0, 2.832611083984375, 0.15,16.6) ">
<use xlink:href="#IT_300x250_FR_psd_Asset_RogersQ1ManagedWiFi_IT_Research_ConsumerGoods_V6_1_Choisir_le_bon_fournisseur_de__Wi_Fi_g_r__pour_votre_entreprise_0_Layer0_0_MEMBER_10_FILL"/>
</g>

<g transform="matrix( 2.815704345703125, 0, 0, 2.832611083984375, 0.15,16.6) ">
<use xlink:href="#IT_300x250_FR_psd_Asset_RogersQ1ManagedWiFi_IT_Research_ConsumerGoods_V6_1_Choisir_le_bon_fournisseur_de__Wi_Fi_g_r__pour_votre_entreprise_0_Layer0_0_MEMBER_11_FILL"/>
</g>

<g transform="matrix( 2.815704345703125, 0, 0, 2.832611083984375, 0.15,16.6) ">
<use xlink:href="#IT_300x250_FR_psd_Asset_RogersQ1ManagedWiFi_IT_Research_ConsumerGoods_V6_1_Choisir_le_bon_fournisseur_de__Wi_Fi_g_r__pour_votre_entreprise_0_Layer0_0_MEMBER_12_FILL"/>
</g>

<g transform="matrix( 2.815704345703125, 0, 0, 2.832611083984375, 0.15,16.6) ">
<use xlink:href="#IT_300x250_FR_psd_Asset_RogersQ1ManagedWiFi_IT_Research_ConsumerGoods_V6_1_Choisir_le_bon_fournisseur_de__Wi_Fi_g_r__pour_votre_entreprise_0_Layer0_0_MEMBER_13_FILL"/>
</g>

<g transform="matrix( 2.815704345703125, 0, 0, 2.832611083984375, 0.15,16.6) ">
<use xlink:href="#IT_300x250_FR_psd_Asset_RogersQ1ManagedWiFi_IT_Research_ConsumerGoods_V6_1_Choisir_le_bon_fournisseur_de__Wi_Fi_g_r__pour_votre_entreprise_0_Layer0_0_MEMBER_14_FILL"/>
</g>

<g transform="matrix( 2.815704345703125, 0, 0, 2.832611083984375, 0.15,16.6) ">
<use xlink:href="#IT_300x250_FR_psd_Asset_RogersQ1ManagedWiFi_IT_Research_ConsumerGoods_V6_1_Choisir_le_bon_fournisseur_de__Wi_Fi_g_r__pour_votre_entreprise_0_Layer0_0_MEMBER_15_FILL"/>
</g>

<g transform="matrix( 2.815704345703125, 0, 0, 2.832611083984375, 0.15,16.6) ">
<use xlink:href="#IT_300x250_FR_psd_Asset_RogersQ1ManagedWiFi_IT_Research_ConsumerGoods_V6_1_Choisir_le_bon_fournisseur_de__Wi_Fi_g_r__pour_votre_entreprise_0_Layer0_0_MEMBER_16_FILL"/>
</g>

<g transform="matrix( 2.815704345703125, 0, 0, 2.832611083984375, 0.15,16.6) ">
<use xlink:href="#IT_300x250_FR_psd_Asset_RogersQ1ManagedWiFi_IT_Research_ConsumerGoods_V6_1_Choisir_le_bon_fournisseur_de__Wi_Fi_g_r__pour_votre_entreprise_0_Layer0_0_MEMBER_17_FILL"/>
</g>

<g transform="matrix( 2.815704345703125, 0, 0, 2.832611083984375, 0.15,16.6) ">
<use xlink:href="#IT_300x250_FR_psd_Asset_RogersQ1ManagedWiFi_IT_Research_ConsumerGoods_V6_1_Choisir_le_bon_fournisseur_de__Wi_Fi_g_r__pour_votre_entreprise_0_Layer0_0_MEMBER_18_FILL"/>
</g>

<g transform="matrix( 2.815704345703125, 0, 0, 2.832611083984375, 0.15,16.6) ">
<use xlink:href="#IT_300x250_FR_psd_Asset_RogersQ1ManagedWiFi_IT_Research_ConsumerGoods_V6_1_Choisir_le_bon_fournisseur_de__Wi_Fi_g_r__pour_votre_entreprise_0_Layer0_0_MEMBER_19_FILL"/>
</g>

<g transform="matrix( 2.815704345703125, 0, 0, 2.832611083984375, 0.15,16.6) ">
<use xlink:href="#IT_300x250_FR_psd_Asset_RogersQ1ManagedWiFi_IT_Research_ConsumerGoods_V6_1_Choisir_le_bon_fournisseur_de__Wi_Fi_g_r__pour_votre_entreprise_0_Layer0_0_MEMBER_20_FILL"/>
</g>

<g transform="matrix( 2.815704345703125, 0, 0, 2.832611083984375, 0.15,16.6) ">
<use xlink:href="#IT_300x250_FR_psd_Asset_RogersQ1ManagedWiFi_IT_Research_ConsumerGoods_V6_1_Choisir_le_bon_fournisseur_de__Wi_Fi_g_r__pour_votre_entreprise_0_Layer0_0_MEMBER_21_FILL"/>
</g>

<g transform="matrix( 2.815704345703125, 0, 0, 2.832611083984375, 0.15,16.6) ">
<use xlink:href="#IT_300x250_FR_psd_Asset_RogersQ1ManagedWiFi_IT_Research_ConsumerGoods_V6_1_Choisir_le_bon_fournisseur_de__Wi_Fi_g_r__pour_votre_entreprise_0_Layer0_0_MEMBER_22_FILL"/>
</g>

<g transform="matrix( 2.815704345703125, 0, 0, 2.832611083984375, 0.15,16.6) ">
<use xlink:href="#IT_300x250_FR_psd_Asset_RogersQ1ManagedWiFi_IT_Research_ConsumerGoods_V6_1_Choisir_le_bon_fournisseur_de__Wi_Fi_g_r__pour_votre_entreprise_0_Layer0_0_MEMBER_23_FILL"/>
</g>

<g transform="matrix( 2.815704345703125, 0, 0, 2.832611083984375, 0.15,16.6) ">
<use xlink:href="#IT_300x250_FR_psd_Asset_RogersQ1ManagedWiFi_IT_Research_ConsumerGoods_V6_1_Choisir_le_bon_fournisseur_de__Wi_Fi_g_r__pour_votre_entreprise_0_Layer0_0_MEMBER_24_FILL"/>
</g>

<g transform="matrix( 2.815704345703125, 0, 0, 2.832611083984375, 0.15,16.6) ">
<use xlink:href="#IT_300x250_FR_psd_Asset_RogersQ1ManagedWiFi_IT_Research_ConsumerGoods_V6_1_Choisir_le_bon_fournisseur_de__Wi_Fi_g_r__pour_votre_entreprise_0_Layer0_0_MEMBER_25_FILL"/>
</g>

<g transform="matrix( 2.815704345703125, 0, 0, 2.832611083984375, 0.15,16.6) ">
<use xlink:href="#IT_300x250_FR_psd_Asset_RogersQ1ManagedWiFi_IT_Research_ConsumerGoods_V6_1_Choisir_le_bon_fournisseur_de__Wi_Fi_g_r__pour_votre_entreprise_0_Layer0_0_MEMBER_26_FILL"/>
</g>

<g transform="matrix( 2.815704345703125, 0, 0, 2.832611083984375, 0.15,16.6) ">
<use xlink:href="#IT_300x250_FR_psd_Asset_RogersQ1ManagedWiFi_IT_Research_ConsumerGoods_V6_1_Choisir_le_bon_fournisseur_de__Wi_Fi_g_r__pour_votre_entreprise_0_Layer0_0_MEMBER_27_FILL"/>
</g>

<g transform="matrix( 2.815704345703125, 0, 0, 2.832611083984375, 0.15,16.6) ">
<use xlink:href="#IT_300x250_FR_psd_Asset_RogersQ1ManagedWiFi_IT_Research_ConsumerGoods_V6_1_Choisir_le_bon_fournisseur_de__Wi_Fi_g_r__pour_votre_entreprise_0_Layer0_0_MEMBER_28_FILL"/>
</g>

<g transform="matrix( 2.815704345703125, 0, 0, 2.832611083984375, 0.15,16.6) ">
<use xlink:href="#IT_300x250_FR_psd_Asset_RogersQ1ManagedWiFi_IT_Research_ConsumerGoods_V6_1_Choisir_le_bon_fournisseur_de__Wi_Fi_g_r__pour_votre_entreprise_0_Layer0_0_MEMBER_29_FILL"/>
</g>

<g transform="matrix( 2.815704345703125, 0, 0, 2.832611083984375, 0.15,16.6) ">
<use xlink:href="#IT_300x250_FR_psd_Asset_RogersQ1ManagedWiFi_IT_Research_ConsumerGoods_V6_1_Choisir_le_bon_fournisseur_de__Wi_Fi_g_r__pour_votre_entreprise_0_Layer0_0_MEMBER_30_FILL"/>
</g>

<g transform="matrix( 2.815704345703125, 0, 0, 2.832611083984375, 0.15,16.6) ">
<use xlink:href="#IT_300x250_FR_psd_Asset_RogersQ1ManagedWiFi_IT_Research_ConsumerGoods_V6_1_Choisir_le_bon_fournisseur_de__Wi_Fi_g_r__pour_votre_entreprise_0_Layer0_0_MEMBER_31_FILL"/>
</g>

<g transform="matrix( 2.815704345703125, 0, 0, 2.832611083984375, 0.15,16.6) ">
<use xlink:href="#IT_300x250_FR_psd_Asset_RogersQ1ManagedWiFi_IT_Research_ConsumerGoods_V6_1_Choisir_le_bon_fournisseur_de__Wi_Fi_g_r__pour_votre_entreprise_0_Layer0_0_MEMBER_32_FILL"/>
</g>

<g transform="matrix( 2.815704345703125, 0, 0, 2.832611083984375, 0.15,16.6) ">
<use xlink:href="#IT_300x250_FR_psd_Asset_RogersQ1ManagedWiFi_IT_Research_ConsumerGoods_V6_1_Choisir_le_bon_fournisseur_de__Wi_Fi_g_r__pour_votre_entreprise_0_Layer0_0_MEMBER_33_FILL"/>
</g>

<g transform="matrix( 2.815704345703125, 0, 0, 2.832611083984375, 0.15,16.6) ">
<use xlink:href="#IT_300x250_FR_psd_Asset_RogersQ1ManagedWiFi_IT_Research_ConsumerGoods_V6_1_Choisir_le_bon_fournisseur_de__Wi_Fi_g_r__pour_votre_entreprise_0_Layer0_0_MEMBER_34_FILL"/>
</g>

<g transform="matrix( 2.815704345703125, 0, 0, 2.832611083984375, 0.15,16.6) ">
<use xlink:href="#IT_300x250_FR_psd_Asset_RogersQ1ManagedWiFi_IT_Research_ConsumerGoods_V6_1_Choisir_le_bon_fournisseur_de__Wi_Fi_g_r__pour_votre_entreprise_0_Layer0_0_MEMBER_35_FILL"/>
</g>

<g transform="matrix( 2.815704345703125, 0, 0, 2.832611083984375, 0.15,16.6) ">
<use xlink:href="#IT_300x250_FR_psd_Asset_RogersQ1ManagedWiFi_IT_Research_ConsumerGoods_V6_1_Choisir_le_bon_fournisseur_de__Wi_Fi_g_r__pour_votre_entreprise_0_Layer0_0_MEMBER_36_FILL"/>
</g>

<g transform="matrix( 2.815704345703125, 0, 0, 2.832611083984375, 0.15,16.6) ">
<use xlink:href="#IT_300x250_FR_psd_Asset_RogersQ1ManagedWiFi_IT_Research_ConsumerGoods_V6_1_Choisir_le_bon_fournisseur_de__Wi_Fi_g_r__pour_votre_entreprise_0_Layer0_0_MEMBER_37_FILL"/>
</g>

<g transform="matrix( 2.815704345703125, 0, 0, 2.832611083984375, 0.15,16.6) ">
<use xlink:href="#IT_300x250_FR_psd_Asset_RogersQ1ManagedWiFi_IT_Research_ConsumerGoods_V6_1_Choisir_le_bon_fournisseur_de__Wi_Fi_g_r__pour_votre_entreprise_0_Layer0_0_MEMBER_38_FILL"/>
</g>

<g transform="matrix( 2.815704345703125, 0, 0, 2.832611083984375, 0.15,16.6) ">
<use xlink:href="#IT_300x250_FR_psd_Asset_RogersQ1ManagedWiFi_IT_Research_ConsumerGoods_V6_1_Choisir_le_bon_fournisseur_de__Wi_Fi_g_r__pour_votre_entreprise_0_Layer0_0_MEMBER_39_FILL"/>
</g>

<g transform="matrix( 2.815704345703125, 0, 0, 2.832611083984375, 0.15,16.6) ">
<use xlink:href="#IT_300x250_FR_psd_Asset_RogersQ1ManagedWiFi_IT_Research_ConsumerGoods_V6_1_Choisir_le_bon_fournisseur_de__Wi_Fi_g_r__pour_votre_entreprise_0_Layer0_0_MEMBER_40_FILL"/>
</g>

<g transform="matrix( 2.815704345703125, 0, 0, 2.832611083984375, 0.15,16.6) ">
<use xlink:href="#IT_300x250_FR_psd_Asset_RogersQ1ManagedWiFi_IT_Research_ConsumerGoods_V6_1_Choisir_le_bon_fournisseur_de__Wi_Fi_g_r__pour_votre_entreprise_0_Layer0_0_MEMBER_41_FILL"/>
</g>

<g transform="matrix( 2.815704345703125, 0, 0, 2.832611083984375, 0.15,16.6) ">
<use xlink:href="#IT_300x250_FR_psd_Asset_RogersQ1ManagedWiFi_IT_Research_ConsumerGoods_V6_1_Choisir_le_bon_fournisseur_de__Wi_Fi_g_r__pour_votre_entreprise_0_Layer0_0_MEMBER_42_FILL"/>
</g>

<g transform="matrix( 2.815704345703125, 0, 0, 2.832611083984375, 0.15,16.6) ">
<use xlink:href="#IT_300x250_FR_psd_Asset_RogersQ1ManagedWiFi_IT_Research_ConsumerGoods_V6_1_Choisir_le_bon_fournisseur_de__Wi_Fi_g_r__pour_votre_entreprise_0_Layer0_0_MEMBER_43_FILL"/>
</g>

<g transform="matrix( 2.815704345703125, 0, 0, 2.832611083984375, 0.15,16.6) ">
<use xlink:href="#IT_300x250_FR_psd_Asset_RogersQ1ManagedWiFi_IT_Research_ConsumerGoods_V6_1_Choisir_le_bon_fournisseur_de__Wi_Fi_g_r__pour_votre_entreprise_0_Layer0_0_MEMBER_44_FILL"/>
</g>

<g transform="matrix( 2.815704345703125, 0, 0, 2.832611083984375, 0.15,16.6) ">
<use xlink:href="#IT_300x250_FR_psd_Asset_RogersQ1ManagedWiFi_IT_Research_ConsumerGoods_V6_1_Choisir_le_bon_fournisseur_de__Wi_Fi_g_r__pour_votre_entreprise_0_Layer0_0_MEMBER_45_FILL"/>
</g>

<g transform="matrix( 2.815704345703125, 0, 0, 2.832611083984375, 0.15,16.6) ">
<use xlink:href="#IT_300x250_FR_psd_Asset_RogersQ1ManagedWiFi_IT_Research_ConsumerGoods_V6_1_Choisir_le_bon_fournisseur_de__Wi_Fi_g_r__pour_votre_entreprise_0_Layer0_0_MEMBER_46_FILL"/>
</g>

<g transform="matrix( 2.815704345703125, 0, 0, 2.832611083984375, 0.15,16.6) ">
<use xlink:href="#IT_300x250_FR_psd_Asset_RogersQ1ManagedWiFi_IT_Research_ConsumerGoods_V6_1_Choisir_le_bon_fournisseur_de__Wi_Fi_g_r__pour_votre_entreprise_0_Layer0_0_MEMBER_47_FILL"/>
</g>

<g transform="matrix( 2.815704345703125, 0, 0, 2.832611083984375, 0.15,16.6) ">
<use xlink:href="#IT_300x250_FR_psd_Asset_RogersQ1ManagedWiFi_IT_Research_ConsumerGoods_V6_1_Choisir_le_bon_fournisseur_de__Wi_Fi_g_r__pour_votre_entreprise_0_Layer0_0_MEMBER_48_FILL"/>
</g>

<g transform="matrix( 2.815704345703125, 0, 0, 2.832611083984375, 0.15,16.6) ">
<use xlink:href="#IT_300x250_FR_psd_Asset_RogersQ1ManagedWiFi_IT_Research_ConsumerGoods_V6_1_Choisir_le_bon_fournisseur_de__Wi_Fi_g_r__pour_votre_entreprise_0_Layer0_0_MEMBER_49_FILL"/>
</g>

<g transform="matrix( 2.815704345703125, 0, 0, 2.832611083984375, 0.15,16.6) ">
<use xlink:href="#IT_300x250_FR_psd_Asset_RogersQ1ManagedWiFi_IT_Research_ConsumerGoods_V6_1_Choisir_le_bon_fournisseur_de__Wi_Fi_g_r__pour_votre_entreprise_0_Layer0_0_MEMBER_50_FILL"/>
</g>

<g transform="matrix( 2.815704345703125, 0, 0, 2.832611083984375, 0.15,16.6) ">
<use xlink:href="#IT_300x250_FR_psd_Asset_RogersQ1ManagedWiFi_IT_Research_ConsumerGoods_V6_1_Choisir_le_bon_fournisseur_de__Wi_Fi_g_r__pour_votre_entreprise_0_Layer0_0_MEMBER_51_FILL"/>
</g>

<g transform="matrix( 2.815704345703125, 0, 0, 2.832611083984375, 0.15,16.6) ">
<use xlink:href="#IT_300x250_FR_psd_Asset_RogersQ1ManagedWiFi_IT_Research_ConsumerGoods_V6_1_Choisir_le_bon_fournisseur_de__Wi_Fi_g_r__pour_votre_entreprise_0_Layer0_0_MEMBER_52_FILL"/>
</g>

<g transform="matrix( 2.815704345703125, 0, 0, 2.832611083984375, 0.15,16.6) ">
<use xlink:href="#IT_300x250_FR_psd_Asset_RogersQ1ManagedWiFi_IT_Research_ConsumerGoods_V6_1_Choisir_le_bon_fournisseur_de__Wi_Fi_g_r__pour_votre_entreprise_0_Layer0_0_MEMBER_53_FILL"/>
</g>
</g>
</g>
</g>
</svg>
