
<svg xmlns="http://www.w3.org/2000/svg" version="1.1" xmlns:xlink="http://www.w3.org/1999/xlink" preserveAspectRatio="none" x="0px" y="0px" width="728px" height="90px" viewBox="0 0 728 90">
<defs>
<g id="BDM_728x90_psd_Asset_1_ManagedWiFi_Awareness_DM8_1_Looking_to_increase_brand_loyalty__0_Layer0_0_MEMBER_0_FILL">
<path fill="#D82C26" stroke="none" d="
M 1.5 -6.6
L 0.9 -6.6 0.9 0 4.35 0 4.45 -0.5 1.5 -0.5 1.5 -6.6 Z"/>
</g>

<g id="BDM_728x90_psd_Asset_1_ManagedWiFi_Awareness_DM8_1_Looking_to_increase_brand_loyalty__0_Layer0_0_MEMBER_1_FILL">
<path fill="#D82C26" stroke="none" d="
M 9.55 -3.4
Q 9.2 -4 8.7 -4.2 8.2 -4.5 7.5 -4.5 6.85 -4.5 6.3 -4.2 5.9 -4.05 5.45 -3.4 5.15 -2.85 5.15 -2.2 5.15 -1.5 5.45 -1 5.9 -0.4 6.3 -0.15 6.85 0.15 7.5 0.15 8.2 0.15 8.7 -0.15 9.25 -0.45 9.55 -1 9.85 -1.5 9.85 -2.2 9.85 -2.85 9.55 -3.4
M 8.45 -3.8
Q 8.8 -3.6 9.05 -3.15 9.3 -2.65 9.3 -2.2 9.3 -1.75 9.05 -1.25 8.9 -0.85 8.45 -0.6 8.15 -0.35 7.5 -0.35 6.95 -0.35 6.55 -0.6 6.2 -0.8 5.95 -1.25 5.7 -1.75 5.7 -2.2 5.7 -2.65 5.95 -3.15 6.2 -3.6 6.55 -3.8 7.05 -4.05 7.5 -4.05 7.95 -4.05 8.45 -3.8 Z"/>
</g>

<g id="BDM_728x90_psd_Asset_1_ManagedWiFi_Awareness_DM8_1_Looking_to_increase_brand_loyalty__0_Layer0_0_MEMBER_2_FILL">
<path fill="#D82C26" stroke="none" d="
M 14.45 -4.2
Q 13.95 -4.5 13.25 -4.5 12.6 -4.5 12.05 -4.2 11.55 -4 11.2 -3.4 10.9 -2.85 10.9 -2.2 10.9 -1.5 11.2 -1 11.5 -0.45 12.05 -0.15 12.6 0.15 13.25 0.15 13.95 0.15 14.45 -0.15 14.9 -0.4 15.25 -1 15.6 -1.5 15.6 -2.2 15.6 -2.9 15.25 -3.4 14.9 -4 14.45 -4.2
M 14.2 -3.8
Q 14.55 -3.6 14.8 -3.15 15.05 -2.65 15.05 -2.2 15.05 -1.75 14.8 -1.25 14.55 -0.8 14.2 -0.6 13.85 -0.35 13.25 -0.35 12.6 -0.35 12.3 -0.6 11.85 -0.85 11.7 -1.25 11.45 -1.75 11.45 -2.2 11.45 -2.65 11.7 -3.15 11.85 -3.55 12.3 -3.8 12.7 -4.05 13.25 -4.05 13.7 -4.05 14.2 -3.8 Z"/>
</g>

<g id="BDM_728x90_psd_Asset_1_ManagedWiFi_Awareness_DM8_1_Looking_to_increase_brand_loyalty__0_Layer0_0_MEMBER_3_FILL">
<path fill="#D82C26" stroke="none" d="
M 17.5 -7.15
L 16.95 -7.05 16.95 0 17.5 0 17.5 -2.3 19.75 0 20.5 0 18.1 -2.35 20.3 -4.4 19.55 -4.4 17.5 -2.4 17.5 -7.15 Z"/>
</g>

<g id="BDM_728x90_psd_Asset_1_ManagedWiFi_Awareness_DM8_1_Looking_to_increase_brand_loyalty__0_Layer0_0_MEMBER_4_FILL">
<path fill="#D82C26" stroke="none" d="
M 22.1 -4.4
L 21.55 -4.4 21.55 0 22.1 0 22.1 -4.4
M 22.1 -6.4
Q 21.95 -6.55 21.8 -6.55 21.65 -6.55 21.55 -6.4 21.45 -6.35 21.45 -6.15 21.45 -5.95 21.55 -5.85 21.6 -5.75 21.8 -5.75 22 -5.75 22.1 -5.85
L 22.2 -6.15 22.1 -6.4 Z"/>
</g>

<g id="BDM_728x90_psd_Asset_1_ManagedWiFi_Awareness_DM8_1_Looking_to_increase_brand_loyalty__0_Layer0_0_MEMBER_5_FILL">
<path fill="#D82C26" stroke="none" d="
M 24.25 -4.4
L 23.7 -4.4 23.75 0 24.3 0 24.3 -2.25
Q 24.3 -2.85 24.5 -3.2 24.75 -3.65 25.05 -3.85 25.3 -4.05 25.75 -4.05 26.4 -4.05 26.7 -3.6 26.95 -3.2 26.95 -2.55
L 26.95 0 27.5 0 27.5 -2.7
Q 27.5 -3.55 27.1 -4 26.75 -4.5 25.9 -4.5 25.35 -4.5 24.9 -4.2 24.55 -3.9 24.3 -3.45
L 24.25 -4.4 Z"/>
</g>

<g id="BDM_728x90_psd_Asset_1_ManagedWiFi_Awareness_DM8_1_Looking_to_increase_brand_loyalty__0_Layer0_0_MEMBER_6_FILL">
<path fill="#D82C26" stroke="none" d="
M 29.1 -1.05
Q 29.45 -0.45 29.9 -0.2 30.35 0.1 31 0.1 31.6 0.1 32.05 -0.2 32.6 -0.5 32.8 -1
L 32.8 -0.05
Q 32.8 0.9 32.4 1.35 31.9 1.85 31 1.85 30.45 1.85 30.05 1.65 29.45 1.45 29.2 1.25
L 29.1 1.75
Q 29.4 1.95 30 2.15 30.45 2.3 31.05 2.3 32.2 2.3 32.8 1.65 33.35 1 33.35 -0.05
L 33.4 -4.4 32.9 -4.4 32.85 -3.4 32.8 -3.4
Q 32.55 -4 32.05 -4.2 31.6 -4.5 31 -4.5 30.35 -4.5 29.9 -4.2 29.45 -3.95 29.1 -3.35 28.85 -2.9 28.85 -2.2 28.85 -1.5 29.1 -1.05
M 29.6 -3.1
Q 29.85 -3.6 30.2 -3.8 30.6 -4.05 31.1 -4.05 31.6 -4.05 32 -3.8 32.35 -3.6 32.6 -3.15 32.85 -2.65 32.85 -2.2 32.85 -1.7 32.6 -1.3 32.4 -0.95 32 -0.6 31.6 -0.35 31.1 -0.35 30.6 -0.35 30.2 -0.6 29.8 -0.95 29.6 -1.3 29.4 -1.65 29.4 -2.2 29.4 -2.75 29.6 -3.1 Z"/>
</g>

<g id="BDM_728x90_psd_Asset_1_ManagedWiFi_Awareness_DM8_1_Looking_to_increase_brand_loyalty__0_Layer0_0_MEMBER_7_FILL">
<path fill="#D82C26" stroke="none" d="
M 39 -3.95
L 39.1 -4.4 37.85 -4.4 37.85 -5.65 37.3 -5.45 37.3 -4.4 36.6 -4.4 36.5 -3.95 37.3 -3.95 37.3 -1.05
Q 37.3 -0.5 37.6 -0.2 37.85 0.1 38.35 0.1
L 38.85 0.05 39.25 -0.15 39.2 -0.55
Q 38.85 -0.35 38.5 -0.35 38.2 -0.35 38.05 -0.55 37.85 -0.7 37.85 -1.15
L 37.85 -3.95 39 -3.95 Z"/>
</g>

<g id="BDM_728x90_psd_Asset_1_ManagedWiFi_Awareness_DM8_1_Looking_to_increase_brand_loyalty__0_Layer0_0_MEMBER_8_FILL">
<path fill="#D82C26" stroke="none" d="
M 39.85 -2.2
Q 39.85 -1.5 40.15 -1 40.45 -0.45 41 -0.15 41.55 0.15 42.15 0.15 42.85 0.15 43.35 -0.15 43.9 -0.45 44.2 -1 44.5 -1.5 44.5 -2.2 44.5 -2.85 44.2 -3.4 43.85 -4 43.35 -4.2 42.85 -4.5 42.15 -4.5 41.55 -4.5 41 -4.2 40.5 -4 40.15 -3.4 39.85 -2.85 39.85 -2.2
M 43.1 -3.8
Q 43.45 -3.6 43.75 -3.15 43.95 -2.75 43.95 -2.2 43.95 -1.65 43.75 -1.25 43.45 -0.8 43.1 -0.6 42.8 -0.35 42.15 -0.35 41.55 -0.35 41.25 -0.6 40.9 -0.8 40.6 -1.25 40.4 -1.65 40.4 -2.2 40.4 -2.75 40.6 -3.15 40.9 -3.6 41.25 -3.8 41.65 -4.05 42.15 -4.05 42.7 -4.05 43.1 -3.8 Z"/>
</g>

<g id="BDM_728x90_psd_Asset_1_ManagedWiFi_Awareness_DM8_1_Looking_to_increase_brand_loyalty__0_Layer0_0_MEMBER_9_FILL">
<path fill="#D82C26" stroke="none" d="
M 48.6 -4.4
L 48.05 -4.4 48.05 0 48.6 0 48.6 -4.4
M 48.6 -6.4
Q 48.45 -6.55 48.35 -6.55 48.2 -6.55 48.05 -6.4 47.95 -6.35 47.95 -6.15 47.95 -5.95 48.05 -5.85 48.15 -5.75 48.35 -5.75 48.5 -5.75 48.6 -5.85 48.7 -5.95 48.7 -6.15 48.7 -6.35 48.6 -6.4 Z"/>
</g>

<g id="BDM_728x90_psd_Asset_1_ManagedWiFi_Awareness_DM8_1_Looking_to_increase_brand_loyalty__0_Layer0_0_MEMBER_10_FILL">
<path fill="#D82C26" stroke="none" d="
M 50.8 -3.45
L 50.75 -4.4 50.25 -4.4 50.25 0 50.8 0 50.8 -2.25
Q 50.8 -2.7 51 -3.2 51.25 -3.65 51.55 -3.85 51.8 -4.05 52.3 -4.05 52.9 -4.05 53.2 -3.6 53.45 -3.2 53.45 -2.55
L 53.45 0 54 0 54 -2.7
Q 54 -3.55 53.6 -4 53.25 -4.5 52.4 -4.5 51.85 -4.5 51.45 -4.2 51.05 -3.9 50.8 -3.45 Z"/>
</g>

<g id="BDM_728x90_psd_Asset_1_ManagedWiFi_Awareness_DM8_1_Looking_to_increase_brand_loyalty__0_Layer0_0_MEMBER_11_FILL">
<path fill="#D82C26" stroke="none" d="
M 55.35 -2.2
Q 55.35 -1.5 55.65 -1 55.85 -0.5 56.45 -0.15 57 0.15 57.6 0.15 58.1 0.15 58.45 0
L 59.1 -0.4 59.05 -0.85
Q 58.65 -0.55 58.4 -0.5 58.1 -0.35 57.65 -0.35 57.15 -0.35 56.75 -0.6 56.4 -0.8 56.1 -1.25 55.9 -1.65 55.9 -2.2 55.9 -2.75 56.1 -3.1 56.35 -3.6 56.75 -3.8 57.15 -4.05 57.65 -4.05
L 58.35 -3.9
Q 58.6 -3.85 58.9 -3.55
L 59.1 -4
Q 58.8 -4.3 58.45 -4.35 58.1 -4.5 57.65 -4.5 57 -4.5 56.45 -4.2 55.95 -3.9 55.65 -3.4 55.35 -2.85 55.35 -2.2 Z"/>
</g>

<g id="BDM_728x90_psd_Asset_1_ManagedWiFi_Awareness_DM8_1_Looking_to_increase_brand_loyalty__0_Layer0_0_MEMBER_12_FILL">
<path fill="#D82C26" stroke="none" d="
M 60.8 -2.2
Q 60.8 -3 61.15 -3.5 61.45 -4 62.05 -4
L 62.45 -3.95 62.55 -4.45 62.1 -4.5
Q 61.65 -4.5 61.35 -4.2 61 -3.95 60.8 -3.45
L 60.75 -4.4 60.2 -4.4 60.25 0 60.8 0 60.8 -2.2 Z"/>
</g>

<g id="BDM_728x90_psd_Asset_1_ManagedWiFi_Awareness_DM8_1_Looking_to_increase_brand_loyalty__0_Layer0_0_MEMBER_13_FILL">
<path fill="#D82C26" stroke="none" d="
M 65.2 -4.5
Q 64.65 -4.5 64.1 -4.2 63.65 -4 63.3 -3.4 63.05 -2.8 63.05 -2.2 63.05 -1.5 63.35 -1 63.55 -0.5 64.15 -0.15 64.6 0.15 65.3 0.15 66.25 0.15 67.05 -0.4
L 66.95 -0.9 66.25 -0.5
Q 65.85 -0.3 65.35 -0.3 64.85 -0.3 64.45 -0.55 64.1 -0.75 63.8 -1.2 63.65 -1.5 63.55 -2.1
L 67.3 -2.1 67.3 -2.35
Q 67.3 -2.85 67.05 -3.45 66.8 -3.95 66.35 -4.25 65.75 -4.5 65.2 -4.5
M 64.35 -3.85
Q 64.75 -4.1 65.2 -4.1 65.9 -4.1 66.35 -3.65 66.75 -3.15 66.75 -2.5
L 63.6 -2.5
Q 63.6 -2.9 63.8 -3.25 63.95 -3.5 64.35 -3.85 Z"/>
</g>

<g id="BDM_728x90_psd_Asset_1_ManagedWiFi_Awareness_DM8_1_Looking_to_increase_brand_loyalty__0_Layer0_0_MEMBER_14_FILL">
<path fill="#D82C26" stroke="none" d="
M 69.3 -3.9
Q 69.7 -4.1 70.05 -4.1 70.65 -4.1 71 -3.75 71.3 -3.45 71.3 -2.9
L 71.3 -2.65 70.8 -2.65
Q 68.25 -2.65 68.25 -1.2 68.25 -0.5 68.7 -0.2 69.1 0.1 69.65 0.1 70.3 0.1 70.65 -0.15 71.05 -0.35 71.3 -0.85
L 71.35 -0.85 71.35 -0.4 71.4 0 71.9 0 71.8 -0.95 71.8 -2.85
Q 71.8 -3.6 71.4 -4.1 71 -4.5 70.15 -4.5 69.7 -4.5 69.25 -4.35 68.85 -4.3 68.5 -3.95
L 68.65 -3.55 69.3 -3.9
M 70.6 -0.5
Q 70.35 -0.3 69.75 -0.3 69.3 -0.3 69.1 -0.5 68.8 -0.7 68.8 -1.2 68.8 -2.25 70.85 -2.25
L 71.3 -2.25 71.3 -1.8 71.15 -1.1
Q 70.9 -0.7 70.6 -0.5 Z"/>
</g>

<g id="BDM_728x90_psd_Asset_1_ManagedWiFi_Awareness_DM8_1_Looking_to_increase_brand_loyalty__0_Layer0_0_MEMBER_15_FILL">
<path fill="#D82C26" stroke="none" d="
M 75.25 -3.95
Q 75.35 -3.95 75.75 -3.65
L 76 -4.05
Q 75.8 -4.25 75.4 -4.4
L 74.6 -4.5 73.9 -4.4
Q 73.55 -4.25 73.35 -3.95 73.15 -3.65 73.15 -3.3 73.15 -2.85 73.45 -2.55 73.75 -2.25 74.4 -2.1 75.1 -1.85 75.3 -1.65 75.6 -1.5 75.6 -1.15 75.6 -0.75 75.3 -0.55 74.95 -0.3 74.65 -0.3 73.8 -0.3 73.15 -0.85
L 73.05 -0.35 73.75 0
Q 74.05 0.1 74.65 0.1
L 75.35 0
Q 75.75 -0.15 75.9 -0.45 76.15 -0.8 76.15 -1.15 76.15 -1.6 75.8 -1.95 75.4 -2.25 74.8 -2.45 74.15 -2.65 73.9 -2.85 73.65 -3 73.65 -3.35 73.65 -3.65 73.95 -3.9 74.25 -4.1 74.65 -4.1 74.95 -4.1 75.25 -3.95 Z"/>
</g>

<g id="BDM_728x90_psd_Asset_1_ManagedWiFi_Awareness_DM8_1_Looking_to_increase_brand_loyalty__0_Layer0_0_MEMBER_16_FILL">
<path fill="#D82C26" stroke="none" d="
M 80.45 -4.25
Q 79.85 -4.5 79.3 -4.5 78.75 -4.5 78.2 -4.2 77.75 -4 77.4 -3.4 77.15 -2.8 77.15 -2.2 77.15 -1.6 77.4 -1 77.7 -0.5 78.2 -0.15 78.75 0.15 79.4 0.15 80.35 0.15 81.15 -0.4
L 81.05 -0.9
Q 80.7 -0.65 80.3 -0.5 79.95 -0.3 79.45 -0.3 79 -0.3 78.5 -0.55 78.15 -0.75 77.9 -1.2 77.65 -1.7 77.65 -2.1
L 81.4 -2.1 81.4 -2.35
Q 81.4 -2.85 81.15 -3.45 80.9 -3.95 80.45 -4.25
M 79.3 -4.1
Q 80 -4.1 80.45 -3.65 80.85 -3.15 80.85 -2.5
L 77.7 -2.5
Q 77.7 -2.9 77.9 -3.25 78.05 -3.5 78.45 -3.85 78.85 -4.1 79.3 -4.1 Z"/>
</g>

<g id="BDM_728x90_psd_Asset_1_ManagedWiFi_Awareness_DM8_1_Looking_to_increase_brand_loyalty__0_Layer0_0_MEMBER_17_FILL">
<path fill="#D82C26" stroke="none" d="
M 85.5 -7.2
L 84.95 -7.05 84.9 0 85.4 0 85.45 -0.95 85.5 -0.95
Q 85.7 -0.5 86.2 -0.15 86.65 0.1 87.3 0.1 87.95 0.1 88.4 -0.2 88.9 -0.5 89.2 -1 89.45 -1.45 89.45 -2.2 89.45 -2.9 89.2 -3.35 88.85 -3.95 88.4 -4.2 87.95 -4.5 87.3 -4.5 86.75 -4.5 86.25 -4.25 85.8 -3.95 85.5 -3.45
L 85.5 -7.2
M 85.45 -2.2
Q 85.45 -2.7 85.7 -3.1 85.95 -3.6 86.3 -3.8 86.8 -4.05 87.2 -4.05 87.7 -4.05 88.1 -3.8 88.55 -3.6 88.7 -3.1 88.95 -2.7 88.95 -2.2 88.95 -1.75 88.7 -1.25 88.55 -0.8 88.1 -0.6 87.8 -0.35 87.2 -0.35 86.7 -0.35 86.3 -0.6 85.95 -0.8 85.7 -1.25 85.45 -1.75 85.45 -2.2 Z"/>
</g>

<g id="BDM_728x90_psd_Asset_1_ManagedWiFi_Awareness_DM8_1_Looking_to_increase_brand_loyalty__0_Layer0_0_MEMBER_18_FILL">
<path fill="#D82C26" stroke="none" d="
M 91.35 -3.45
L 91.3 -4.4 90.8 -4.4 90.85 0 91.4 0 91.4 -2.2
Q 91.4 -2.95 91.7 -3.5 92.05 -4 92.65 -4
L 93 -3.95 93.15 -4.45 92.65 -4.5
Q 92.3 -4.5 91.9 -4.2 91.6 -4 91.4 -3.45
L 91.35 -3.45 Z"/>
</g>

<g id="BDM_728x90_psd_Asset_1_ManagedWiFi_Awareness_DM8_1_Looking_to_increase_brand_loyalty__0_Layer0_0_MEMBER_19_FILL">
<path fill="#D82C26" stroke="none" d="
M 94.2 -3.55
L 94.85 -3.9
Q 95.2 -4.1 95.6 -4.1 96.2 -4.1 96.5 -3.75 96.85 -3.45 96.85 -2.9
L 96.85 -2.65 96.3 -2.65
Q 93.8 -2.65 93.8 -1.2 93.8 -0.5 94.2 -0.2 94.65 0.1 95.2 0.1 95.85 0.1 96.2 -0.15 96.6 -0.35 96.85 -0.85
L 96.95 0 97.45 0 97.35 -0.95 97.35 -2.85
Q 97.35 -3.65 96.9 -4.1 96.5 -4.5 95.65 -4.5 95.2 -4.5 94.8 -4.35 94.4 -4.3 94.05 -3.95
L 94.2 -3.55
M 95.3 -0.3
Q 94.85 -0.3 94.6 -0.5 94.35 -0.7 94.35 -1.2 94.35 -2.25 96.4 -2.25
L 96.85 -2.25 96.85 -1.8
Q 96.85 -1.45 96.65 -1.1 96.5 -0.7 96.15 -0.5 95.8 -0.3 95.3 -0.3 Z"/>
</g>

<g id="BDM_728x90_psd_Asset_1_ManagedWiFi_Awareness_DM8_1_Looking_to_increase_brand_loyalty__0_Layer0_0_MEMBER_20_FILL">
<path fill="#D82C26" stroke="none" d="
M 99.45 -4.4
L 98.95 -4.4 98.95 0 99.5 0 99.5 -2.25
Q 99.5 -2.7 99.7 -3.2 99.95 -3.65 100.25 -3.85 100.5 -4.05 101 -4.05 101.6 -4.05 101.9 -3.6 102.15 -3.3 102.15 -2.55
L 102.15 0 102.7 0 102.7 -2.7
Q 102.7 -3.55 102.3 -4 101.95 -4.5 101.1 -4.5 100.55 -4.5 100.15 -4.2 99.75 -3.9 99.5 -3.45
L 99.45 -4.4 Z"/>
</g>

<g id="BDM_728x90_psd_Asset_1_ManagedWiFi_Awareness_DM8_1_Looking_to_increase_brand_loyalty__0_Layer0_0_MEMBER_21_FILL">
<path fill="#D82C26" stroke="none" d="
M 108.6 -7.2
L 108.05 -7.05 108.05 -3.45 108 -3.45
Q 107.8 -3.9 107.3 -4.25 106.7 -4.5 106.25 -4.5 105.65 -4.5 105.1 -4.2 104.65 -3.95 104.3 -3.35 104.05 -2.75 104.05 -2.2 104.05 -1.6 104.3 -1 104.6 -0.5 105.1 -0.2 105.65 0.1 106.25 0.1 106.85 0.1 107.3 -0.15 107.75 -0.45 108.05 -0.95
L 108.1 0 108.65 0 108.6 -7.2
M 105.4 -3.8
Q 105.8 -4.05 106.3 -4.05 106.8 -4.05 107.2 -3.8 107.6 -3.6 107.85 -3.1 108.05 -2.75 108.05 -2.2 108.05 -1.65 107.85 -1.25 107.55 -0.8 107.2 -0.6 106.9 -0.35 106.3 -0.35 105.7 -0.35 105.4 -0.6 105 -0.85 104.8 -1.25 104.6 -1.65 104.6 -2.2 104.6 -2.75 104.8 -3.1 105.05 -3.6 105.4 -3.8 Z"/>
</g>

<g id="BDM_728x90_psd_Asset_1_ManagedWiFi_Awareness_DM8_1_Looking_to_increase_brand_loyalty__0_Layer0_0_MEMBER_22_FILL">
<path fill="#D82C26" stroke="none" d="
M 112.5 -0.95
Q 112.5 -0.5 112.65 -0.3 112.9 0 113.2 0.1
L 113.45 -0.35 113.1 -0.6 113.05 -1.1 113.05 -7.15 112.5 -7.05 112.5 -0.95 Z"/>
</g>

<g id="BDM_728x90_psd_Asset_1_ManagedWiFi_Awareness_DM8_1_Looking_to_increase_brand_loyalty__0_Layer0_0_MEMBER_23_FILL">
<path fill="#D82C26" stroke="none" d="
M 114.7 -1
Q 115 -0.45 115.55 -0.15 116.1 0.15 116.75 0.15 117.35 0.15 117.95 -0.15 118.4 -0.4 118.75 -1 119.05 -1.5 119.05 -2.2 119.05 -2.85 118.75 -3.4 118.4 -4 117.95 -4.2 117.35 -4.5 116.75 -4.5 116.1 -4.5 115.55 -4.2 115.05 -4 114.7 -3.4 114.4 -2.85 114.4 -2.2 114.4 -1.5 114.7 -1
M 115.15 -3.15
Q 115.45 -3.6 115.8 -3.8 116.2 -4.05 116.75 -4.05 117.25 -4.05 117.65 -3.8 118 -3.6 118.3 -3.15 118.5 -2.75 118.5 -2.2 118.5 -1.65 118.3 -1.25 118.05 -0.8 117.7 -0.6 117.35 -0.35 116.75 -0.35 116.1 -0.35 115.8 -0.6 115.45 -0.8 115.15 -1.25 114.95 -1.65 114.95 -2.2 114.95 -2.75 115.15 -3.15 Z"/>
</g>

<g id="BDM_728x90_psd_Asset_1_ManagedWiFi_Awareness_DM8_1_Looking_to_increase_brand_loyalty__0_Layer0_0_MEMBER_24_FILL">
<path fill="#D82C26" stroke="none" d="
M 120.3 -4.4
L 119.65 -4.4 121.5 0.05 121.15 0.95
Q 121 1.4 120.7 1.55 120.5 1.75 119.95 1.75
L 120.1 2.25
Q 120.65 2.25 121.1 1.95 121.5 1.7 121.65 1.1
L 123.7 -4.4 123.1 -4.4 121.8 -0.6 120.3 -4.4 Z"/>
</g>

<g id="BDM_728x90_psd_Asset_1_ManagedWiFi_Awareness_DM8_1_Looking_to_increase_brand_loyalty__0_Layer0_0_MEMBER_25_FILL">
<path fill="#D82C26" stroke="none" d="
M 124.45 -1.2
Q 124.45 -0.5 124.85 -0.2 125.3 0.1 125.85 0.1 126.45 0.1 126.8 -0.15 127.3 -0.35 127.45 -0.85
L 127.5 -0.85 127.5 -0.4 127.55 0 128.05 0 128 -2.85
Q 128 -3.65 127.55 -4.1 127.15 -4.5 126.3 -4.5 125.85 -4.5 125.45 -4.35 125.05 -4.3 124.7 -3.95
L 124.85 -3.55
Q 125 -3.7 125.5 -3.9 125.85 -4.1 126.25 -4.1 126.85 -4.1 127.15 -3.75 127.5 -3.4 127.5 -2.9
L 127.5 -2.65 126.95 -2.65
Q 124.45 -2.65 124.45 -1.2
M 125.25 -0.5
Q 124.95 -0.7 124.95 -1.2 124.95 -2.25 127.05 -2.25
L 127.5 -2.25 127.5 -1.8
Q 127.5 -1.45 127.3 -1.1 127.15 -0.8 126.8 -0.5 126.45 -0.3 125.95 -0.3 125.5 -0.3 125.25 -0.5 Z"/>
</g>

<g id="BDM_728x90_psd_Asset_1_ManagedWiFi_Awareness_DM8_1_Looking_to_increase_brand_loyalty__0_Layer0_0_MEMBER_26_FILL">
<path fill="#D82C26" stroke="none" d="
M 129.6 -0.95
Q 129.6 -0.5 129.8 -0.3 129.95 0 130.3 0.1
L 130.55 -0.35 130.25 -0.6 130.15 -1.1 130.15 -7.15 129.6 -7.05 129.6 -0.95 Z"/>
</g>

<g id="BDM_728x90_psd_Asset_1_ManagedWiFi_Awareness_DM8_1_Looking_to_increase_brand_loyalty__0_Layer0_0_MEMBER_27_FILL">
<path fill="#D82C26" stroke="none" d="
M 131.3 -4.4
L 131.2 -3.95 132 -3.95 132 -1.05
Q 132 -0.5 132.3 -0.2 132.6 0.1 133.05 0.1
L 133.55 0.05 133.95 -0.15 133.9 -0.55
Q 133.55 -0.35 133.2 -0.35 132.9 -0.35 132.75 -0.55 132.55 -0.7 132.55 -1.15
L 132.55 -3.95 133.7 -3.95 133.8 -4.4 132.55 -4.4 132.55 -5.65 132 -5.45 132 -4.4 131.3 -4.4 Z"/>
</g>

<g id="BDM_728x90_psd_Asset_1_ManagedWiFi_Awareness_DM8_1_Looking_to_increase_brand_loyalty__0_Layer0_0_MEMBER_28_FILL">
<path fill="#D82C26" stroke="none" d="
M 135.2 -4.4
L 134.55 -4.4 136.4 0.05 136.1 0.95
Q 135.85 1.4 135.6 1.55 135.4 1.75 134.85 1.75
L 135 2.25
Q 135.55 2.25 136 1.95 136.4 1.7 136.55 1.1
L 138.6 -4.4 138 -4.4 136.7 -0.6 135.2 -4.4 Z"/>
</g>

<g id="BDM_728x90_psd_Asset_1_ManagedWiFi_Awareness_DM8_1_Looking_to_increase_brand_loyalty__0_Layer0_0_MEMBER_29_FILL">
<path fill="#D82C26" stroke="none" d="
M 140.35 -6.8
Q 139.75 -6.8 139.25 -6.55
L 138.45 -6 138.75 -5.55
Q 138.95 -5.85 139.4 -6.1 140 -6.3 140.3 -6.3 140.9 -6.3 141.25 -6 141.6 -5.65 141.6 -5.15
L 141.5 -4.65 141.25 -4.2 140.75 -3.7
Q 140.35 -3.3 140.2 -2.95 140.05 -2.65 140.05 -2.2
L 140.05 -1.9 140.55 -1.9 140.55 -2.1 140.6 -2.6 140.8 -3.05 141.75 -4.05 142.05 -4.55 142.15 -5.15
Q 142.15 -5.75 141.9 -6.05 141.7 -6.35 141.25 -6.6 140.75 -6.8 140.35 -6.8
M 139.9 -0.35
L 140.05 -0.05
Q 140.15 0.05 140.35 0.05
L 140.6 -0.05 140.75 -0.35 140.6 -0.65
Q 140.55 -0.8 140.35 -0.8 140.15 -0.8 140.05 -0.65
L 139.9 -0.35 Z"/>
</g>
</defs>

<g transform="matrix( 1, 0, 0, 1, -205,-135) ">
<g transform="matrix( 1, 0, 0, 1, 204,149) ">
<g transform="matrix( 1, 0, 0, 1, 26,21) ">
<g transform="matrix( 2.6895904541015625, 0, 0, 2.672393798828125, -1.85,19.55) ">
<use xlink:href="#BDM_728x90_psd_Asset_1_ManagedWiFi_Awareness_DM8_1_Looking_to_increase_brand_loyalty__0_Layer0_0_MEMBER_0_FILL"/>
</g>

<g transform="matrix( 2.6895904541015625, 0, 0, 2.672393798828125, -1.85,19.55) ">
<use xlink:href="#BDM_728x90_psd_Asset_1_ManagedWiFi_Awareness_DM8_1_Looking_to_increase_brand_loyalty__0_Layer0_0_MEMBER_1_FILL"/>
</g>

<g transform="matrix( 2.6895904541015625, 0, 0, 2.672393798828125, -1.85,19.55) ">
<use xlink:href="#BDM_728x90_psd_Asset_1_ManagedWiFi_Awareness_DM8_1_Looking_to_increase_brand_loyalty__0_Layer0_0_MEMBER_2_FILL"/>
</g>

<g transform="matrix( 2.6895904541015625, 0, 0, 2.672393798828125, -1.85,19.55) ">
<use xlink:href="#BDM_728x90_psd_Asset_1_ManagedWiFi_Awareness_DM8_1_Looking_to_increase_brand_loyalty__0_Layer0_0_MEMBER_3_FILL"/>
</g>

<g transform="matrix( 2.6895904541015625, 0, 0, 2.672393798828125, -1.85,19.55) ">
<use xlink:href="#BDM_728x90_psd_Asset_1_ManagedWiFi_Awareness_DM8_1_Looking_to_increase_brand_loyalty__0_Layer0_0_MEMBER_4_FILL"/>
</g>

<g transform="matrix( 2.6895904541015625, 0, 0, 2.672393798828125, -1.85,19.55) ">
<use xlink:href="#BDM_728x90_psd_Asset_1_ManagedWiFi_Awareness_DM8_1_Looking_to_increase_brand_loyalty__0_Layer0_0_MEMBER_5_FILL"/>
</g>

<g transform="matrix( 2.6895904541015625, 0, 0, 2.672393798828125, -1.85,19.55) ">
<use xlink:href="#BDM_728x90_psd_Asset_1_ManagedWiFi_Awareness_DM8_1_Looking_to_increase_brand_loyalty__0_Layer0_0_MEMBER_6_FILL"/>
</g>

<g transform="matrix( 2.6895904541015625, 0, 0, 2.672393798828125, -1.85,19.55) ">
<use xlink:href="#BDM_728x90_psd_Asset_1_ManagedWiFi_Awareness_DM8_1_Looking_to_increase_brand_loyalty__0_Layer0_0_MEMBER_7_FILL"/>
</g>

<g transform="matrix( 2.6895904541015625, 0, 0, 2.672393798828125, -1.85,19.55) ">
<use xlink:href="#BDM_728x90_psd_Asset_1_ManagedWiFi_Awareness_DM8_1_Looking_to_increase_brand_loyalty__0_Layer0_0_MEMBER_8_FILL"/>
</g>

<g transform="matrix( 2.6895904541015625, 0, 0, 2.672393798828125, -1.85,19.55) ">
<use xlink:href="#BDM_728x90_psd_Asset_1_ManagedWiFi_Awareness_DM8_1_Looking_to_increase_brand_loyalty__0_Layer0_0_MEMBER_9_FILL"/>
</g>

<g transform="matrix( 2.6895904541015625, 0, 0, 2.672393798828125, -1.85,19.55) ">
<use xlink:href="#BDM_728x90_psd_Asset_1_ManagedWiFi_Awareness_DM8_1_Looking_to_increase_brand_loyalty__0_Layer0_0_MEMBER_10_FILL"/>
</g>

<g transform="matrix( 2.6895904541015625, 0, 0, 2.672393798828125, -1.85,19.55) ">
<use xlink:href="#BDM_728x90_psd_Asset_1_ManagedWiFi_Awareness_DM8_1_Looking_to_increase_brand_loyalty__0_Layer0_0_MEMBER_11_FILL"/>
</g>

<g transform="matrix( 2.6895904541015625, 0, 0, 2.672393798828125, -1.85,19.55) ">
<use xlink:href="#BDM_728x90_psd_Asset_1_ManagedWiFi_Awareness_DM8_1_Looking_to_increase_brand_loyalty__0_Layer0_0_MEMBER_12_FILL"/>
</g>

<g transform="matrix( 2.6895904541015625, 0, 0, 2.672393798828125, -1.85,19.55) ">
<use xlink:href="#BDM_728x90_psd_Asset_1_ManagedWiFi_Awareness_DM8_1_Looking_to_increase_brand_loyalty__0_Layer0_0_MEMBER_13_FILL"/>
</g>

<g transform="matrix( 2.6895904541015625, 0, 0, 2.672393798828125, -1.85,19.55) ">
<use xlink:href="#BDM_728x90_psd_Asset_1_ManagedWiFi_Awareness_DM8_1_Looking_to_increase_brand_loyalty__0_Layer0_0_MEMBER_14_FILL"/>
</g>

<g transform="matrix( 2.6895904541015625, 0, 0, 2.672393798828125, -1.85,19.55) ">
<use xlink:href="#BDM_728x90_psd_Asset_1_ManagedWiFi_Awareness_DM8_1_Looking_to_increase_brand_loyalty__0_Layer0_0_MEMBER_15_FILL"/>
</g>

<g transform="matrix( 2.6895904541015625, 0, 0, 2.672393798828125, -1.85,19.55) ">
<use xlink:href="#BDM_728x90_psd_Asset_1_ManagedWiFi_Awareness_DM8_1_Looking_to_increase_brand_loyalty__0_Layer0_0_MEMBER_16_FILL"/>
</g>

<g transform="matrix( 2.6895904541015625, 0, 0, 2.672393798828125, -1.85,19.55) ">
<use xlink:href="#BDM_728x90_psd_Asset_1_ManagedWiFi_Awareness_DM8_1_Looking_to_increase_brand_loyalty__0_Layer0_0_MEMBER_17_FILL"/>
</g>

<g transform="matrix( 2.6895904541015625, 0, 0, 2.672393798828125, -1.85,19.55) ">
<use xlink:href="#BDM_728x90_psd_Asset_1_ManagedWiFi_Awareness_DM8_1_Looking_to_increase_brand_loyalty__0_Layer0_0_MEMBER_18_FILL"/>
</g>

<g transform="matrix( 2.6895904541015625, 0, 0, 2.672393798828125, -1.85,19.55) ">
<use xlink:href="#BDM_728x90_psd_Asset_1_ManagedWiFi_Awareness_DM8_1_Looking_to_increase_brand_loyalty__0_Layer0_0_MEMBER_19_FILL"/>
</g>

<g transform="matrix( 2.6895904541015625, 0, 0, 2.672393798828125, -1.85,19.55) ">
<use xlink:href="#BDM_728x90_psd_Asset_1_ManagedWiFi_Awareness_DM8_1_Looking_to_increase_brand_loyalty__0_Layer0_0_MEMBER_20_FILL"/>
</g>

<g transform="matrix( 2.6895904541015625, 0, 0, 2.672393798828125, -1.85,19.55) ">
<use xlink:href="#BDM_728x90_psd_Asset_1_ManagedWiFi_Awareness_DM8_1_Looking_to_increase_brand_loyalty__0_Layer0_0_MEMBER_21_FILL"/>
</g>

<g transform="matrix( 2.6895904541015625, 0, 0, 2.672393798828125, -1.85,19.55) ">
<use xlink:href="#BDM_728x90_psd_Asset_1_ManagedWiFi_Awareness_DM8_1_Looking_to_increase_brand_loyalty__0_Layer0_0_MEMBER_22_FILL"/>
</g>

<g transform="matrix( 2.6895904541015625, 0, 0, 2.672393798828125, -1.85,19.55) ">
<use xlink:href="#BDM_728x90_psd_Asset_1_ManagedWiFi_Awareness_DM8_1_Looking_to_increase_brand_loyalty__0_Layer0_0_MEMBER_23_FILL"/>
</g>

<g transform="matrix( 2.6895904541015625, 0, 0, 2.672393798828125, -1.85,19.55) ">
<use xlink:href="#BDM_728x90_psd_Asset_1_ManagedWiFi_Awareness_DM8_1_Looking_to_increase_brand_loyalty__0_Layer0_0_MEMBER_24_FILL"/>
</g>

<g transform="matrix( 2.6895904541015625, 0, 0, 2.672393798828125, -1.85,19.55) ">
<use xlink:href="#BDM_728x90_psd_Asset_1_ManagedWiFi_Awareness_DM8_1_Looking_to_increase_brand_loyalty__0_Layer0_0_MEMBER_25_FILL"/>
</g>

<g transform="matrix( 2.6895904541015625, 0, 0, 2.672393798828125, -1.85,19.55) ">
<use xlink:href="#BDM_728x90_psd_Asset_1_ManagedWiFi_Awareness_DM8_1_Looking_to_increase_brand_loyalty__0_Layer0_0_MEMBER_26_FILL"/>
</g>

<g transform="matrix( 2.6895904541015625, 0, 0, 2.672393798828125, -1.85,19.55) ">
<use xlink:href="#BDM_728x90_psd_Asset_1_ManagedWiFi_Awareness_DM8_1_Looking_to_increase_brand_loyalty__0_Layer0_0_MEMBER_27_FILL"/>
</g>

<g transform="matrix( 2.6895904541015625, 0, 0, 2.672393798828125, -1.85,19.55) ">
<use xlink:href="#BDM_728x90_psd_Asset_1_ManagedWiFi_Awareness_DM8_1_Looking_to_increase_brand_loyalty__0_Layer0_0_MEMBER_28_FILL"/>
</g>

<g transform="matrix( 2.6895904541015625, 0, 0, 2.672393798828125, -1.85,19.55) ">
<use xlink:href="#BDM_728x90_psd_Asset_1_ManagedWiFi_Awareness_DM8_1_Looking_to_increase_brand_loyalty__0_Layer0_0_MEMBER_29_FILL"/>
</g>
</g>
</g>
</g>
</svg>
