
<svg xmlns="http://www.w3.org/2000/svg" version="1.1" xmlns:xlink="http://www.w3.org/1999/xlink" preserveAspectRatio="none" x="0px" y="0px" width="160px" height="600px" viewBox="0 0 160 600">
<defs>
<g id="BDM_160x600_psd_Asset_ManagedWiFi_Awareness_DM7_2_Get_data__analytics_on__everything__from_foot__traffic__0_Layer0_0_MEMBER_0_FILL">
<path fill="#D82C26" stroke="none" d="
M 5.05 -6.25
Q 4.45 -6.4 3.85 -6.4 2.8 -6.4 2.15 -6 1.35 -5.5 0.95 -4.85 0.55 -4.05 0.55 -3.15 0.55 -2.25 0.95 -1.45 1.4 -0.7 2.15 -0.25 2.95 0.15 3.85 0.15 4.6 0.15 5.1 0 5.8 -0.2 6.15 -0.4
L 6.15 -3.25 4.25 -3.25 4.15 -2.8 5.65 -2.8 5.65 -0.7
Q 4.75 -0.3 3.9 -0.3 3.1 -0.3 2.4 -0.7 1.75 -1.1 1.45 -1.7 1.1 -2.35 1.1 -3.15 1.1 -3.75 1.45 -4.55 1.8 -5.15 2.4 -5.55 3.1 -5.95 3.85 -5.95 4.5 -5.95 4.95 -5.75 5.5 -5.6 5.85 -5.3
L 6.05 -5.75 5.05 -6.25 Z"/>
</g>

<g id="BDM_160x600_psd_Asset_ManagedWiFi_Awareness_DM7_2_Get_data__analytics_on__everything__from_foot__traffic__0_Layer0_0_MEMBER_1_FILL">
<path fill="#D82C26" stroke="none" d="
M 9.2 -4.25
Q 8.65 -4.25 8.15 -4 7.7 -3.7 7.4 -3.2 7.15 -2.8 7.15 -2.1 7.15 -1.4 7.4 -0.95 7.7 -0.45 8.15 -0.15 8.6 0.1 9.25 0.1 10.25 0.1 10.9 -0.4
L 10.8 -0.85 10.15 -0.45
Q 9.8 -0.3 9.3 -0.3 8.85 -0.3 8.45 -0.55 8.1 -0.75 7.85 -1.15 7.65 -1.5 7.65 -2
L 11.15 -2 11.15 -2.2
Q 11.15 -2.75 10.9 -3.25 10.65 -3.7 10.25 -4 9.75 -4.25 9.2 -4.25
M 8.35 -3.6
Q 8.65 -3.85 9.2 -3.85 9.75 -3.85 10.25 -3.45 10.65 -3.05 10.65 -2.35
L 7.65 -2.35
Q 7.65 -2.7 7.85 -3.05 8 -3.35 8.35 -3.6 Z"/>
</g>

<g id="BDM_160x600_psd_Asset_ManagedWiFi_Awareness_DM7_2_Get_data__analytics_on__everything__from_foot__traffic__0_Layer0_0_MEMBER_2_FILL">
<path fill="#D82C26" stroke="none" d="
M 13.75 -3.7
L 13.85 -4.15 12.65 -4.15 12.65 -5.3 12.15 -5.1 12.15 -4.15 11.5 -4.15 11.4 -3.7 12.15 -3.7 12.15 -1
Q 12.15 -0.55 12.4 -0.2 12.7 0.1 13.1 0.1
L 13.6 0.05 14 -0.15 13.95 -0.5 13.25 -0.35
Q 13 -0.35 12.85 -0.5 12.65 -0.8 12.65 -1.05
L 12.65 -3.7 13.75 -3.7 Z"/>
</g>

<g id="BDM_160x600_psd_Asset_ManagedWiFi_Awareness_DM7_2_Get_data__analytics_on__everything__from_foot__traffic__0_Layer0_0_MEMBER_3_FILL">
<path fill="#D82C26" stroke="none" d="
M 20.2 -6.8
L 19.65 -6.65 19.65 -3.25
Q 19.45 -3.65 18.95 -4 18.45 -4.25 18 -4.25 17.35 -4.25 16.9 -3.95 16.55 -3.75 16.15 -3.2 15.9 -2.6 15.9 -2.05 15.9 -1.55 16.15 -0.95 16.5 -0.4 16.9 -0.15 17.4 0.1 18 0.1 18.6 0.1 18.95 -0.15 19.45 -0.45 19.65 -0.9
L 19.7 -0.9 19.75 0 20.25 0 20.2 -6.8
M 18.05 -3.8
Q 18.55 -3.8 18.9 -3.6 19.3 -3.3 19.5 -2.95 19.7 -2.45 19.7 -2.05 19.7 -1.7 19.5 -1.2 19.25 -0.75 18.9 -0.55 18.5 -0.3 18.05 -0.3 17.6 -0.3 17.2 -0.55 16.8 -0.8 16.6 -1.2 16.45 -1.55 16.45 -2.05 16.45 -2.55 16.6 -2.95 16.8 -3.3 17.2 -3.6 17.55 -3.8 18.05 -3.8 Z"/>
</g>

<g id="BDM_160x600_psd_Asset_ManagedWiFi_Awareness_DM7_2_Get_data__analytics_on__everything__from_foot__traffic__0_Layer0_0_MEMBER_4_FILL">
<path fill="#D82C26" stroke="none" d="
M 22.8 -3.85
Q 23.35 -3.85 23.65 -3.55 23.95 -3.25 23.95 -2.7
L 23.95 -2.5 23.45 -2.5
Q 21.1 -2.5 21.1 -1.1 21.1 -0.5 21.5 -0.2 21.9 0.1 22.4 0.1 22.95 0.1 23.35 -0.1 23.8 -0.3 23.95 -0.8
L 24 -0.8 24 -0.4 24.05 0 24.55 0 24.45 -0.9 24.45 -2.7
Q 24.45 -3.45 24.05 -3.85 23.65 -4.25 22.85 -4.25
L 22.05 -4.15
Q 21.75 -4.05 21.35 -3.75
L 21.5 -3.35
Q 21.7 -3.55 22.1 -3.7
L 22.8 -3.85
M 21.85 -0.5
Q 21.6 -0.65 21.6 -1.15 21.6 -2.15 23.55 -2.15
L 23.95 -2.15 23.95 -1.7
Q 23.95 -1.35 23.8 -1.05 23.65 -0.7 23.3 -0.5 22.95 -0.25 22.5 -0.25 22.2 -0.25 21.85 -0.5 Z"/>
</g>

<g id="BDM_160x600_psd_Asset_ManagedWiFi_Awareness_DM7_2_Get_data__analytics_on__everything__from_foot__traffic__0_Layer0_0_MEMBER_5_FILL">
<path fill="#D82C26" stroke="none" d="
M 25.05 -4.15
L 24.95 -3.7 25.75 -3.7 25.75 -1
Q 25.75 -0.45 26 -0.2 26.25 0.1 26.7 0.1
L 27.15 0.05 27.55 -0.15 27.5 -0.5 26.85 -0.35
Q 26.55 -0.35 26.4 -0.5 26.25 -0.7 26.25 -1.05
L 26.25 -3.7 27.3 -3.7 27.4 -4.15 26.25 -4.15 26.25 -5.3 25.7 -5.1 25.7 -4.15 25.05 -4.15 Z"/>
</g>

<g id="BDM_160x600_psd_Asset_ManagedWiFi_Awareness_DM7_2_Get_data__analytics_on__everything__from_foot__traffic__0_Layer0_0_MEMBER_6_FILL">
<path fill="#D82C26" stroke="none" d="
M 29 -3.7
Q 29.3 -3.85 29.7 -3.85 30.25 -3.85 30.55 -3.55 30.85 -3.25 30.85 -2.7
L 30.85 -2.5 30.35 -2.5
Q 28 -2.5 28 -1.1 28 -0.5 28.35 -0.2 28.8 0.1 29.3 0.1 29.85 0.1 30.25 -0.1 30.6 -0.3 30.85 -0.8
L 30.95 0 31.4 0 31.35 -2.7
Q 31.35 -3.45 30.9 -3.85 30.55 -4.25 29.75 -4.25
L 28.9 -4.15 28.2 -3.75 28.35 -3.35 29 -3.7
M 30.2 -0.5
Q 29.85 -0.25 29.4 -0.25 29.1 -0.25 28.75 -0.5 28.5 -0.6 28.5 -1.15 28.5 -2.15 30.4 -2.15
L 30.85 -2.15 30.85 -1.7
Q 30.85 -1.35 30.7 -1.05 30.6 -0.8 30.2 -0.5 Z"/>
</g>

<g id="BDM_160x600_psd_Asset_ManagedWiFi_Awareness_DM7_2_Get_data__analytics_on__everything__from_foot__traffic__0_Layer0_0_MEMBER_7_FILL">
<path fill="#D82C26" stroke="none" d="
M 2.3 6
Q 1.7 6 1.45 6.1 1.15 6.2 0.75 6.5
L 0.9 6.9
Q 1.1 6.7 1.5 6.55
L 2.2 6.4
Q 2.75 6.4 3.05 6.7 3.4 6.9 3.4 7.5
L 3.4 7.75 2.9 7.75
Q 0.5 7.75 0.5 9.15 0.5 9.75 0.9 10.05 1.3 10.35 1.85 10.35 2.25 10.35 2.75 10.1 3.2 9.85 3.35 9.45
L 3.4 9.45 3.4 9.85 3.45 10.25 3.95 10.25 3.85 9.35 3.85 7.55
Q 3.85 6.75 3.45 6.35 3.05 6 2.3 6
M 3.4 8.5
Q 3.4 8.85 3.2 9.2 3.05 9.55 2.75 9.75 2.4 9.95 1.95 9.95 1.5 9.95 1.3 9.75 1 9.55 1 9.1 1 8.1 2.95 8.1
L 3.4 8.1 3.4 8.5 Z"/>
</g>

<g id="BDM_160x600_psd_Asset_ManagedWiFi_Awareness_DM7_2_Get_data__analytics_on__everything__from_foot__traffic__0_Layer0_0_MEMBER_8_FILL">
<path fill="#D82C26" stroke="none" d="
M 8.6 7.7
Q 8.6 7 8.2 6.5 7.85 6 7.05 6 6.55 6 6.15 6.25 5.7 6.55 5.55 7
L 5.5 6.1 5 6.1 5.05 10.25 5.55 10.25 5.55 8.15
Q 5.55 7.55 5.75 7.2 5.9 6.9 6.25 6.6 6.65 6.4 6.95 6.4 7.6 6.4 7.8 6.85 8.05 7.25 8.05 7.85
L 8.05 10.25 8.6 10.25 8.6 7.7 Z"/>
</g>

<g id="BDM_160x600_psd_Asset_ManagedWiFi_Awareness_DM7_2_Get_data__analytics_on__everything__from_foot__traffic__0_Layer0_0_MEMBER_9_FILL">
<path fill="#D82C26" stroke="none" d="
M 11.2 6
Q 10.65 6 10.4 6.1 9.95 6.25 9.7 6.5
L 9.85 6.9
Q 10.05 6.7 10.45 6.55 10.85 6.4 11.15 6.4 11.7 6.4 12 6.7 12.3 6.95 12.3 7.5
L 12.3 7.75 11.8 7.75
Q 9.45 7.75 9.45 9.15 9.45 9.75 9.85 10.05 10.25 10.35 10.75 10.35 11.2 10.35 11.7 10.1 12.15 9.85 12.3 9.45
L 12.35 9.45 12.35 9.85 12.4 10.25 12.85 10.25 12.8 7.55
Q 12.8 6.85 12.4 6.35 12 6 11.2 6
M 12.3 8.5
Q 12.3 8.85 12.15 9.2 11.95 9.55 11.65 9.75 11.4 9.95 10.85 9.95 10.45 9.95 10.2 9.75 9.95 9.5 9.95 9.1 9.95 8.1 11.9 8.1
L 12.3 8.1 12.3 8.5 Z"/>
</g>

<g id="BDM_160x600_psd_Asset_ManagedWiFi_Awareness_DM7_2_Get_data__analytics_on__everything__from_foot__traffic__0_Layer0_0_MEMBER_10_FILL">
<path fill="#D82C26" stroke="none" d="
M 14.15 10
Q 14.25 10.15 14.65 10.35
L 14.85 9.9 14.55 9.65 14.5 9.2 14.5 3.5 13.95 3.6 13.95 9.3
Q 13.95 9.6 14.15 10 Z"/>
</g>

<g id="BDM_160x600_psd_Asset_ManagedWiFi_Awareness_DM7_2_Get_data__analytics_on__everything__from_foot__traffic__0_Layer0_0_MEMBER_11_FILL">
<path fill="#D82C26" stroke="none" d="
M 18.95 6.1
L 18.4 6.1 17.15 9.7 15.75 6.1 15.15 6.1 16.9 10.25 16.6 11.15
Q 16.3 11.6 16.15 11.7 15.75 11.9 15.4 11.9
L 15.55 12.35
Q 16.1 12.35 16.5 12.1 16.85 11.75 17.05 11.3
L 18.95 6.1 Z"/>
</g>

<g id="BDM_160x600_psd_Asset_ManagedWiFi_Awareness_DM7_2_Get_data__analytics_on__everything__from_foot__traffic__0_Layer0_0_MEMBER_12_FILL">
<path fill="#D82C26" stroke="none" d="
M 20.5 6.1
L 20.5 4.9 20 5.1 20 6.1 19.35 6.1 19.25 6.5 20 6.5 20 9.25
Q 20 9.7 20.25 10.05 20.55 10.35 20.95 10.35
L 21.45 10.25 21.85 10.1 21.8 9.7
Q 21.45 9.9 21.1 9.9 20.85 9.9 20.7 9.75 20.5 9.55 20.5 9.15
L 20.5 6.5 21.6 6.5 21.7 6.1 20.5 6.1 Z"/>
</g>

<g id="BDM_160x600_psd_Asset_ManagedWiFi_Awareness_DM7_2_Get_data__analytics_on__everything__from_foot__traffic__0_Layer0_0_MEMBER_13_FILL">
<path fill="#D82C26" stroke="none" d="
M 23 6.1
L 22.5 6.1 22.5 10.25 23 10.25 23 6.1
M 22.5 4.7
Q 22.6 4.85 22.75 4.85 22.95 4.85 23 4.7
L 23.1 4.45 23 4.2
Q 22.95 4.1 22.75 4.1 22.55 4.1 22.5 4.2 22.35 4.3 22.35 4.45 22.35 4.65 22.5 4.7 Z"/>
</g>

<g id="BDM_160x600_psd_Asset_ManagedWiFi_Awareness_DM7_2_Get_data__analytics_on__everything__from_foot__traffic__0_Layer0_0_MEMBER_14_FILL">
<path fill="#D82C26" stroke="none" d="
M 26.9 6.1
Q 26.6 6 26.1 6 25.4 6 25 6.25 24.5 6.55 24.2 7.05 23.9 7.6 23.9 8.15 23.9 8.8 24.2 9.3 24.5 9.8 24.95 10.1 25.55 10.35 26.05 10.35 26.5 10.35 26.85 10.2 27.25 10.15 27.5 9.85
L 27.4 9.45 26.85 9.8 26.1 9.9
Q 25.6 9.9 25.25 9.7 24.85 9.4 24.65 9.05 24.45 8.55 24.45 8.15 24.45 7.8 24.65 7.3 24.9 6.85 25.25 6.65 25.65 6.4 26.1 6.4 26.45 6.4 26.75 6.55 26.9 6.6 27.3 6.85
L 27.5 6.45
Q 27.3 6.25 26.9 6.1 Z"/>
</g>

<g id="BDM_160x600_psd_Asset_ManagedWiFi_Awareness_DM7_2_Get_data__analytics_on__everything__from_foot__traffic__0_Layer0_0_MEMBER_15_FILL">
<path fill="#D82C26" stroke="none" d="
M 30.55 6.8
L 30.8 6.4 30.2 6.1
Q 30 6 29.5 6 29.05 6 28.8 6.1 28.5 6.25 28.3 6.5 28.1 6.7 28.1 7.1 28.1 7.55 28.4 7.85
L 29.3 8.3
Q 29.6 8.4 30.15 8.65 30.4 8.85 30.4 9.15 30.4 9.55 30.15 9.75 29.9 9.95 29.5 9.95 28.65 9.95 28.1 9.45
L 28.05 9.9
Q 28.3 10.15 28.65 10.2 29.1 10.35 29.5 10.35 29.9 10.35 30.2 10.2 30.6 10 30.7 9.8 30.9 9.55 30.9 9.15 30.9 8.7 30.6 8.4 30.3 8.15 29.65 7.95 29 7.7 28.85 7.55 28.6 7.45 28.6 7.1 28.6 6.8 28.85 6.55 29.1 6.4 29.5 6.4
L 30.1 6.5 30.55 6.8 Z"/>
</g>

<g id="BDM_160x600_psd_Asset_ManagedWiFi_Awareness_DM7_2_Get_data__analytics_on__everything__from_foot__traffic__0_Layer0_0_MEMBER_16_FILL">
<path fill="#D82C26" stroke="none" d="
M 33.45 7.05
Q 33.15 7.5 33.15 8.15 33.15 8.8 33.45 9.3 33.65 9.7 34.2 10.1 34.8 10.35 35.35 10.35 35.95 10.35 36.45 10.1 36.95 9.8 37.25 9.3 37.55 8.8 37.55 8.15 37.55 7.5 37.25 7.05 36.95 6.55 36.45 6.25 36.1 6 35.35 6 34.65 6 34.2 6.25 33.65 6.65 33.45 7.05
M 34.45 6.65
Q 34.85 6.4 35.35 6.4 35.8 6.4 36.2 6.65 36.65 6.9 36.8 7.3 37 7.65 37 8.15 37 8.65 36.8 9.05 36.7 9.35 36.25 9.7 35.9 9.9 35.35 9.9 34.8 9.9 34.45 9.7 34.05 9.4 33.85 9.05 33.65 8.45 33.65 8.15 33.65 7.8 33.85 7.3 34.05 6.9 34.45 6.65 Z"/>
</g>

<g id="BDM_160x600_psd_Asset_ManagedWiFi_Awareness_DM7_2_Get_data__analytics_on__everything__from_foot__traffic__0_Layer0_0_MEMBER_17_FILL">
<path fill="#D82C26" stroke="none" d="
M 41.65 6.5
Q 41.3 6 40.5 6 40 6 39.6 6.25 39.15 6.55 39 7
L 38.95 6.1 38.45 6.1 38.5 10.25 39 10.25 39 8.15
Q 39 7.55 39.2 7.2 39.35 6.8 39.7 6.6 40.1 6.4 40.4 6.4 40.95 6.4 41.25 6.85 41.5 7.25 41.5 7.85
L 41.5 10.25 42 10.25 42 7.7
Q 42 6.9 41.65 6.5 Z"/>
</g>

<g id="BDM_160x600_psd_Asset_ManagedWiFi_Awareness_DM7_2_Get_data__analytics_on__everything__from_foot__traffic__0_Layer0_0_MEMBER_18_FILL">
<path fill="#D82C26" stroke="none" d="
M 1.5 16.5
Q 1.05 16.8 0.75 17.25 0.5 17.85 0.5 18.4 0.5 18.95 0.75 19.55 1.15 20.1 1.5 20.3 2.05 20.6 2.6 20.6 3.6 20.6 4.25 20.1
L 4.15 19.65
Q 4 19.8 3.5 20 3 20.2 2.65 20.2 2.2 20.2 1.8 19.95 1.45 19.75 1.2 19.35 1 18.85 1 18.5
L 4.5 18.5 4.5 18.25
Q 4.5 17.65 4.3 17.25 4.1 16.75 3.6 16.5 3.15 16.2 2.55 16.2 1.95 16.2 1.5 16.5
M 1.2 17.45
Q 1.45 17.05 1.75 16.85 2.1 16.6 2.55 16.6 3.2 16.6 3.6 17 4 17.5 4 18.1
L 1 18.1
Q 1 17.85 1.2 17.45 Z"/>
</g>

<g id="BDM_160x600_psd_Asset_ManagedWiFi_Awareness_DM7_2_Get_data__analytics_on__everything__from_foot__traffic__0_Layer0_0_MEMBER_19_FILL">
<path fill="#D82C26" stroke="none" d="
M 4.7 16.35
L 6.3 20.5 6.9 20.5 8.45 16.35 7.9 16.35 6.6 19.95 5.3 16.35 4.7 16.35 Z"/>
</g>

<g id="BDM_160x600_psd_Asset_ManagedWiFi_Awareness_DM7_2_Get_data__analytics_on__everything__from_foot__traffic__0_Layer0_0_MEMBER_20_FILL">
<path fill="#D82C26" stroke="none" d="
M 8.9 19.55
Q 9.3 20.1 9.7 20.3 10.15 20.6 10.75 20.6 11.75 20.6 12.4 20.1
L 12.35 19.65 11.65 20
Q 11.15 20.2 10.8 20.2 10.35 20.2 9.95 19.95 9.6 19.75 9.35 19.35 9.15 18.85 9.15 18.5
L 12.65 18.5 12.65 18.25
Q 12.65 17.65 12.45 17.25 12.25 16.75 11.75 16.5 11.3 16.2 10.7 16.2 10.1 16.2 9.65 16.5 9.2 16.8 8.9 17.25 8.65 17.85 8.65 18.4 8.65 18.95 8.9 19.55
M 9.35 17.45
Q 9.6 17.05 9.9 16.85 10.25 16.6 10.7 16.6 11.35 16.6 11.75 17 12.15 17.5 12.15 18.1
L 9.15 18.1
Q 9.15 17.85 9.35 17.45 Z"/>
</g>

<g id="BDM_160x600_psd_Asset_ManagedWiFi_Awareness_DM7_2_Get_data__analytics_on__everything__from_foot__traffic__0_Layer0_0_MEMBER_21_FILL">
<path fill="#D82C26" stroke="none" d="
M 15.25 16.7
L 15.65 16.75 15.75 16.3 15.3 16.2
Q 14.9 16.2 14.6 16.5 14.25 16.7 14.1 17.25
L 14.05 16.35 13.55 16.35 13.6 20.5 14.1 20.5 14.1 18.4
Q 14.1 17.75 14.4 17.2 14.75 16.7 15.25 16.7 Z"/>
</g>

<g id="BDM_160x600_psd_Asset_ManagedWiFi_Awareness_DM7_2_Get_data__analytics_on__everything__from_foot__traffic__0_Layer0_0_MEMBER_22_FILL">
<path fill="#D82C26" stroke="none" d="
M 19.8 16.35
L 19.25 16.35 18 19.95 16.55 16.35 16 16.35 17.75 20.5 17.4 21.4
Q 17.25 21.8 17 21.95 16.8 22.05 16.25 22.15
L 16.4 22.6
Q 17 22.6 17.3 22.3 17.7 22.05 17.9 21.5
L 19.8 16.35 Z"/>
</g>

<g id="BDM_160x600_psd_Asset_ManagedWiFi_Awareness_DM7_2_Get_data__analytics_on__everything__from_foot__traffic__0_Layer0_0_MEMBER_23_FILL">
<path fill="#D82C26" stroke="none" d="
M 20.85 15.35
L 20.85 16.35 20.15 16.35 20.05 16.75 20.85 16.75 20.85 19.5
Q 20.85 20.05 21.1 20.3 21.35 20.55 21.8 20.55
L 22.25 20.5 22.7 20.35 22.6 19.95
Q 22.25 20.15 21.95 20.15 21.65 20.15 21.5 19.95 21.35 19.8 21.35 19.4
L 21.35 16.75 22.4 16.75 22.5 16.35 21.35 16.35 21.35 15.15 20.85 15.35 Z"/>
</g>

<g id="BDM_160x600_psd_Asset_ManagedWiFi_Awareness_DM7_2_Get_data__analytics_on__everything__from_foot__traffic__0_Layer0_0_MEMBER_24_FILL">
<path fill="#D82C26" stroke="none" d="
M 26.5 16.7
Q 26.1 16.2 25.35 16.2 24.85 16.2 24.45 16.5 24 16.7 23.85 17.2
L 23.85 13.75 23.3 13.8 23.3 20.5 23.85 20.5 23.85 18.45
Q 23.85 17.9 24 17.5 24.2 17.05 24.5 16.85 24.75 16.65 25.2 16.65 25.8 16.65 26.1 17.05 26.35 17.55 26.35 18.1
L 26.35 20.5 26.85 20.5 26.85 17.95
Q 26.85 17.2 26.5 16.7 Z"/>
</g>

<g id="BDM_160x600_psd_Asset_ManagedWiFi_Awareness_DM7_2_Get_data__analytics_on__everything__from_foot__traffic__0_Layer0_0_MEMBER_25_FILL">
<path fill="#D82C26" stroke="none" d="
M 28.55 16.35
L 28 16.35 28 20.5 28.55 20.5 28.55 16.35
M 28 14.95
Q 28.1 15.05 28.3 15.05 28.45 15.05 28.55 14.95
L 28.65 14.7 28.55 14.4 28.3 14.3 28 14.45 27.9 14.7 28 14.95 Z"/>
</g>

<g id="BDM_160x600_psd_Asset_ManagedWiFi_Awareness_DM7_2_Get_data__analytics_on__everything__from_foot__traffic__0_Layer0_0_MEMBER_26_FILL">
<path fill="#D82C26" stroke="none" d="
M 29.75 16.35
L 29.75 20.5 30.3 20.5 30.3 18.35
Q 30.3 17.85 30.45 17.45 30.7 17.05 30.95 16.85 31.2 16.65 31.65 16.65 32.25 16.65 32.5 17.05 32.8 17.5 32.8 18.1
L 32.8 20.5 33.3 20.5 33.3 17.95
Q 33.3 17.25 32.9 16.7 32.5 16.2 31.75 16.2 31.3 16.2 30.85 16.5 30.5 16.8 30.25 17.25
L 30.2 16.35 29.75 16.35 Z"/>
</g>

<g id="BDM_160x600_psd_Asset_ManagedWiFi_Awareness_DM7_2_Get_data__analytics_on__everything__from_foot__traffic__0_Layer0_0_MEMBER_27_FILL">
<path fill="#D82C26" stroke="none" d="
M 37.25 16.5
Q 36.8 16.2 36.25 16.2 35.65 16.2 35.2 16.5 34.75 16.75 34.45 17.3 34.2 17.9 34.2 18.4 34.2 18.9 34.45 19.5 34.8 20.05 35.2 20.25 35.65 20.55 36.25 20.55 36.75 20.55 37.25 20.3 37.75 20 37.95 19.55
L 37.95 20.4
Q 37.95 21.3 37.55 21.75 37.2 22.2 36.25 22.2 35.8 22.2 35.35 22.05 34.85 21.9 34.55 21.65
L 34.45 22.15 35.3 22.5
Q 35.75 22.65 36.3 22.65 37.45 22.65 37.95 22.05 38.45 21.5 38.45 20.4
L 38.5 16.35 38 16.35 37.95 17.25
Q 37.75 16.75 37.25 16.5
M 35.5 16.9
Q 35.9 16.65 36.35 16.65 36.8 16.65 37.2 16.9 37.6 17.15 37.75 17.5 38 18 38 18.4 38 18.85 37.75 19.25 37.6 19.65 37.2 19.9 36.8 20.15 36.35 20.15 35.9 20.15 35.5 19.9 35.15 19.7 34.9 19.25 34.7 18.75 34.7 18.4 34.7 18.05 34.9 17.55 35.1 17.15 35.5 16.9 Z"/>
</g>

<g id="BDM_160x600_psd_Asset_ManagedWiFi_Awareness_DM7_2_Get_data__analytics_on__everything__from_foot__traffic__0_Layer0_0_MEMBER_28_FILL">
<path fill="#D82C26" stroke="none" d="
M 2.3 23.95
Q 1.7 23.95 1.35 24.3 1 24.75 1 25.4
L 1 26.6 0.25 26.6 0.15 27 1 27 1 30.7 1.55 30.7 1.55 27 2.5 27 2.6 26.6 1.55 26.6 1.55 25.4
Q 1.55 24.95 1.7 24.65 1.95 24.35 2.35 24.35
L 3 24.45 3.05 24 2.7 23.95 2.3 23.95 Z"/>
</g>

<g id="BDM_160x600_psd_Asset_ManagedWiFi_Awareness_DM7_2_Get_data__analytics_on__everything__from_foot__traffic__0_Layer0_0_MEMBER_29_FILL">
<path fill="#D82C26" stroke="none" d="
M 5.3 27
L 5.4 26.55 4.95 26.45
Q 4.65 26.45 4.25 26.75 3.9 27 3.75 27.45
L 3.7 26.6 3.2 26.6 3.25 30.7 3.75 30.7 3.75 28.65
Q 3.75 28 4.1 27.45 4.4 26.9 4.95 26.9
L 5.3 27 Z"/>
</g>

<g id="BDM_160x600_psd_Asset_ManagedWiFi_Awareness_DM7_2_Get_data__analytics_on__everything__from_foot__traffic__0_Layer0_0_MEMBER_30_FILL">
<path fill="#D82C26" stroke="none" d="
M 8.85 26.75
Q 8.35 26.45 7.7 26.45 7.05 26.45 6.6 26.75 6.1 26.95 5.8 27.5 5.5 28.05 5.5 28.65 5.5 29.3 5.8 29.75 6.1 30.25 6.6 30.55 7.05 30.85 7.7 30.85 8.35 30.85 8.85 30.55 9.4 30.2 9.65 29.75 9.9 29.25 9.9 28.65 9.9 28.1 9.65 27.5 9.35 27 8.85 26.75
M 8.6 27.15
Q 9 27.4 9.2 27.75 9.4 28.25 9.4 28.65 9.4 29.15 9.2 29.5 9 29.9 8.6 30.15 8.2 30.4 7.7 30.4 7.3 30.4 6.8 30.15 6.4 29.9 6.25 29.5 6.05 29.15 6.05 28.65 6.05 28.1 6.25 27.75 6.4 27.4 6.8 27.15 7.2 26.9 7.7 26.9 8.3 26.9 8.6 27.15 Z"/>
</g>

<g id="BDM_160x600_psd_Asset_ManagedWiFi_Awareness_DM7_2_Get_data__analytics_on__everything__from_foot__traffic__0_Layer0_0_MEMBER_31_FILL">
<path fill="#D82C26" stroke="none" d="
M 16.8 26.95
Q 16.4 26.45 15.65 26.45 15.15 26.45 14.75 26.75 14.35 26.95 14.15 27.5 14 27 13.65 26.75 13.35 26.45 12.8 26.45 12.35 26.45 11.95 26.75 11.6 26.9 11.35 27.45
L 11.3 26.6 10.8 26.6 10.85 30.7 11.35 30.7 11.35 28.65
Q 11.35 28.3 11.55 27.7 11.7 27.35 12 27.1 12.25 26.9 12.65 26.9 13.15 26.9 13.45 27.25 13.7 27.65 13.7 28.25
L 13.7 30.7 14.25 30.7 14.25 28.6
Q 14.25 27.75 14.6 27.35 15 26.9 15.55 26.9 16.1 26.9 16.35 27.3 16.6 27.7 16.6 28.35
L 16.6 30.7 17.15 30.7 17.15 28.25
Q 17.15 27.55 16.8 26.95 Z"/>
</g>

<g id="BDM_160x600_psd_Asset_ManagedWiFi_Awareness_DM7_2_Get_data__analytics_on__everything__from_foot__traffic__0_Layer0_0_MEMBER_32_FILL">
<path fill="#D82C26" stroke="none" d="
M 21.5 23.95
Q 20.9 23.95 20.55 24.3 20.2 24.65 20.2 25.4
L 20.2 26.6 19.45 26.6 19.35 27 20.2 27 20.2 30.7 20.75 30.7 20.75 27 21.7 27 21.8 26.6 20.75 26.6 20.75 25.4
Q 20.75 24.95 20.9 24.65 21.15 24.35 21.55 24.35
L 22.2 24.45 22.25 24 21.9 23.95 21.5 23.95 Z"/>
</g>

<g id="BDM_160x600_psd_Asset_ManagedWiFi_Awareness_DM7_2_Get_data__analytics_on__everything__from_foot__traffic__0_Layer0_0_MEMBER_33_FILL">
<path fill="#D82C26" stroke="none" d="
M 26.05 29.75
Q 26.35 29.3 26.35 28.65 26.35 28.05 26.05 27.5 25.75 26.95 25.25 26.75 24.75 26.45 24.1 26.45 23.55 26.45 23 26.75 22.5 26.95 22.2 27.5 21.95 27.95 21.95 28.65 21.95 29.4 22.2 29.75 22.5 30.25 23 30.55 23.55 30.85 24.1 30.85 24.75 30.85 25.25 30.55 25.75 30.25 26.05 29.75
M 25.8 28.65
Q 25.8 29.15 25.6 29.5 25.4 29.9 25 30.15 24.6 30.4 24.1 30.4 23.65 30.4 23.25 30.15 22.85 29.9 22.65 29.5 22.45 29.15 22.45 28.65 22.45 28.1 22.65 27.75 22.9 27.4 23.25 27.15 23.55 26.9 24.1 26.9 24.7 26.9 25 27.15 25.4 27.4 25.6 27.75 25.8 28.1 25.8 28.65 Z"/>
</g>

<g id="BDM_160x600_psd_Asset_ManagedWiFi_Awareness_DM7_2_Get_data__analytics_on__everything__from_foot__traffic__0_Layer0_0_MEMBER_34_FILL">
<path fill="#D82C26" stroke="none" d="
M 31.4 28.65
Q 31.4 28.05 31.1 27.5 30.8 26.95 30.3 26.75 29.85 26.45 29.2 26.45 28.6 26.45 28.05 26.75 27.5 27 27.3 27.5 27 28.05 27 28.65 27 29.3 27.3 29.75 27.5 30.15 28.05 30.55 28.6 30.85 29.2 30.85 29.85 30.85 30.3 30.55 30.8 30.25 31.1 29.75 31.4 29.3 31.4 28.65
M 30.9 28.65
Q 30.9 29.1 30.65 29.5 30.5 29.9 30.1 30.15 29.7 30.4 29.2 30.4 28.7 30.4 28.3 30.15 27.9 29.9 27.7 29.5 27.5 29 27.5 28.65 27.5 28.25 27.7 27.75 27.95 27.4 28.3 27.15 28.6 26.9 29.2 26.9 29.75 26.9 30.1 27.15 30.5 27.4 30.65 27.75 30.9 28.15 30.9 28.65 Z"/>
</g>

<g id="BDM_160x600_psd_Asset_ManagedWiFi_Awareness_DM7_2_Get_data__analytics_on__everything__from_foot__traffic__0_Layer0_0_MEMBER_35_FILL">
<path fill="#D82C26" stroke="none" d="
M 33.95 27
L 34.05 26.6 32.85 26.6 32.85 25.4 32.35 25.6 32.35 26.6 31.7 26.6 31.6 27 32.35 27 32.35 29.7
Q 32.35 30.25 32.6 30.5 32.9 30.8 33.3 30.8
L 33.8 30.75 34.2 30.6 34.15 30.2
Q 33.65 30.4 33.45 30.4 33.25 30.4 33.05 30.2 32.85 30.05 32.85 29.65
L 32.85 27 33.95 27 Z"/>
</g>

<g id="BDM_160x600_psd_Asset_ManagedWiFi_Awareness_DM7_2_Get_data__analytics_on__everything__from_foot__traffic__0_Layer0_0_MEMBER_36_FILL">
<path fill="#D82C26" stroke="none" d="
M 0.85 36.8
L 0.2 36.8 0.1 37.25 0.9 37.25 0.9 39.95
Q 0.9 40.5 1.15 40.75 1.4 41.05 1.85 41.05
L 2.3 41 2.75 40.8 2.65 40.45 2 40.6
Q 1.7 40.6 1.55 40.45 1.4 40.25 1.4 39.9
L 1.4 37.25 2.45 37.25 2.55 36.8 1.4 36.8 1.4 35.65 0.85 35.85 0.85 36.8 Z"/>
</g>

<g id="BDM_160x600_psd_Asset_ManagedWiFi_Awareness_DM7_2_Get_data__analytics_on__everything__from_foot__traffic__0_Layer0_0_MEMBER_37_FILL">
<path fill="#D82C26" stroke="none" d="
M 3.8 36.8
L 3.3 36.8 3.35 40.95 3.9 40.95 3.9 38.9
Q 3.9 38.2 4.2 37.65 4.55 37.15 5.05 37.15
L 5.4 37.2 5.55 36.75 5.1 36.7
Q 4.75 36.7 4.4 36.95 4.05 37.2 3.9 37.7
L 3.85 37.7 3.8 36.8 Z"/>
</g>

<g id="BDM_160x600_psd_Asset_ManagedWiFi_Awareness_DM7_2_Get_data__analytics_on__everything__from_foot__traffic__0_Layer0_0_MEMBER_38_FILL">
<path fill="#D82C26" stroke="none" d="
M 7.6 36.7
Q 7.15 36.7 6.75 36.85 6.45 36.9 6.05 37.2
L 6.2 37.6
Q 6.4 37.4 6.8 37.25
L 7.5 37.1
Q 8.05 37.1 8.35 37.4 8.7 37.7 8.7 38.25
L 8.7 38.45 8.2 38.45
Q 5.8 38.45 5.8 39.85 5.8 40.45 6.2 40.75 6.6 41.05 7.15 41.05 7.7 41.05 8.05 40.85 8.5 40.65 8.65 40.15
L 8.7 40.15 8.7 40.55 8.75 40.95 9.25 40.95 9.15 40.05 9.15 38.25
Q 9.15 37.45 8.75 37.1 8.35 36.7 7.6 36.7
M 8.7 39.25
Q 8.7 39.65 8.5 39.9 8.4 40.2 8.05 40.45 7.65 40.7 7.25 40.7 6.85 40.7 6.6 40.45 6.3 40.3 6.3 39.8 6.3 38.8 8.25 38.8
L 8.7 38.8 8.7 39.25 Z"/>
</g>

<g id="BDM_160x600_psd_Asset_ManagedWiFi_Awareness_DM7_2_Get_data__analytics_on__everything__from_foot__traffic__0_Layer0_0_MEMBER_39_FILL">
<path fill="#D82C26" stroke="none" d="
M 12.6 34.25
L 11.85 34.15
Q 11.3 34.15 10.9 34.55 10.6 34.85 10.6 35.6
L 10.6 36.8 9.85 36.8 9.7 37.25 10.6 37.25 10.6 40.95 11.1 40.95 11.1 37.25 13.25 37.25 13.25 40.95 13.75 40.95 13.75 37.25 14.7 37.25 14.8 36.8 13.75 36.8 13.75 35.65
Q 13.75 35.15 13.95 34.9 14.1 34.6 14.55 34.6
L 15.2 34.7 15.25 34.25 14.5 34.15
Q 13.95 34.15 13.55 34.55 13.25 34.85 13.25 35.6
L 13.25 36.8 11.1 36.8 11.1 35.65
Q 11.1 35.15 11.3 34.9 11.45 34.6 11.9 34.6
L 12.55 34.7 12.6 34.25
M 16.15 36.8
L 15.65 36.8 15.65 40.95 16.15 40.95 16.15 36.8
M 15.6 34.9
L 15.5 35.15 15.6 35.45 15.9 35.55 16.15 35.45 16.25 35.15 16.15 34.9 15.9 34.8 15.6 34.9 Z"/>
</g>

<g id="BDM_160x600_psd_Asset_ManagedWiFi_Awareness_DM7_2_Get_data__analytics_on__everything__from_foot__traffic__0_Layer0_0_MEMBER_40_FILL">
<path fill="#D82C26" stroke="none" d="
M 19.25 36.7
Q 18.7 36.7 18.1 36.95 17.65 37.25 17.35 37.75 17.05 38.3 17.05 38.9 17.05 39.55 17.35 40 17.55 40.4 18.1 40.8 18.65 41.1 19.2 41.1 19.65 41.1 20 40.95
L 20.65 40.55 20.55 40.15 19.95 40.5
Q 19.75 40.6 19.25 40.6 18.75 40.6 18.4 40.4 18.05 40.2 17.8 39.75 17.6 39.4 17.6 38.9 17.6 38.4 17.8 38 18 37.65 18.4 37.35 18.75 37.15 19.25 37.15 19.65 37.15 19.9 37.25 20.3 37.45 20.4 37.6
L 20.65 37.2
Q 20.4 36.95 20 36.85
L 19.25 36.7 Z"/>
</g>

<g id="BDM_160x600_psd_Asset_ManagedWiFi_Awareness_DM7_2_Get_data__analytics_on__everything__from_foot__traffic__0_Layer0_0_MEMBER_41_FILL">
<path fill="#D82C26" stroke="none" d="
M 24.55 40.9
L 24.85 41 25.15 40.9 25.25 40.6 25.15 40.3 24.85 40.2 24.55 40.35 24.45 40.6 24.55 40.9
M 21.6 40.9
L 21.9 41 22.2 40.9 22.3 40.6 22.2 40.3 21.9 40.2 21.6 40.35 21.5 40.6 21.6 40.9
M 27.5 40.9
L 27.8 41 28.05 40.9 28.2 40.6 28.1 40.3 27.8 40.2 27.5 40.35 27.4 40.6 27.5 40.9 Z"/>
</g>
</defs>

<g transform="matrix( 1, 0, 0, 1, -259,52) ">
<g transform="matrix( 1, 0, 0, 1, 253,0) ">
<g transform="matrix( 1, 0, 0, 1, 25,2) ">
<g transform="matrix( 2.815704345703125, 0, 0, 2.832611083984375, 0.15,19.6) ">
<use xlink:href="#BDM_160x600_psd_Asset_ManagedWiFi_Awareness_DM7_2_Get_data__analytics_on__everything__from_foot__traffic__0_Layer0_0_MEMBER_0_FILL"/>
</g>

<g transform="matrix( 2.815704345703125, 0, 0, 2.832611083984375, 0.15,19.6) ">
<use xlink:href="#BDM_160x600_psd_Asset_ManagedWiFi_Awareness_DM7_2_Get_data__analytics_on__everything__from_foot__traffic__0_Layer0_0_MEMBER_1_FILL"/>
</g>

<g transform="matrix( 2.815704345703125, 0, 0, 2.832611083984375, 0.15,19.6) ">
<use xlink:href="#BDM_160x600_psd_Asset_ManagedWiFi_Awareness_DM7_2_Get_data__analytics_on__everything__from_foot__traffic__0_Layer0_0_MEMBER_2_FILL"/>
</g>

<g transform="matrix( 2.815704345703125, 0, 0, 2.832611083984375, 0.15,19.6) ">
<use xlink:href="#BDM_160x600_psd_Asset_ManagedWiFi_Awareness_DM7_2_Get_data__analytics_on__everything__from_foot__traffic__0_Layer0_0_MEMBER_3_FILL"/>
</g>

<g transform="matrix( 2.815704345703125, 0, 0, 2.832611083984375, 0.15,19.6) ">
<use xlink:href="#BDM_160x600_psd_Asset_ManagedWiFi_Awareness_DM7_2_Get_data__analytics_on__everything__from_foot__traffic__0_Layer0_0_MEMBER_4_FILL"/>
</g>

<g transform="matrix( 2.815704345703125, 0, 0, 2.832611083984375, 0.15,19.6) ">
<use xlink:href="#BDM_160x600_psd_Asset_ManagedWiFi_Awareness_DM7_2_Get_data__analytics_on__everything__from_foot__traffic__0_Layer0_0_MEMBER_5_FILL"/>
</g>

<g transform="matrix( 2.815704345703125, 0, 0, 2.832611083984375, 0.15,19.6) ">
<use xlink:href="#BDM_160x600_psd_Asset_ManagedWiFi_Awareness_DM7_2_Get_data__analytics_on__everything__from_foot__traffic__0_Layer0_0_MEMBER_6_FILL"/>
</g>

<g transform="matrix( 2.815704345703125, 0, 0, 2.832611083984375, 0.15,19.6) ">
<use xlink:href="#BDM_160x600_psd_Asset_ManagedWiFi_Awareness_DM7_2_Get_data__analytics_on__everything__from_foot__traffic__0_Layer0_0_MEMBER_7_FILL"/>
</g>

<g transform="matrix( 2.815704345703125, 0, 0, 2.832611083984375, 0.15,19.6) ">
<use xlink:href="#BDM_160x600_psd_Asset_ManagedWiFi_Awareness_DM7_2_Get_data__analytics_on__everything__from_foot__traffic__0_Layer0_0_MEMBER_8_FILL"/>
</g>

<g transform="matrix( 2.815704345703125, 0, 0, 2.832611083984375, 0.15,19.6) ">
<use xlink:href="#BDM_160x600_psd_Asset_ManagedWiFi_Awareness_DM7_2_Get_data__analytics_on__everything__from_foot__traffic__0_Layer0_0_MEMBER_9_FILL"/>
</g>

<g transform="matrix( 2.815704345703125, 0, 0, 2.832611083984375, 0.15,19.6) ">
<use xlink:href="#BDM_160x600_psd_Asset_ManagedWiFi_Awareness_DM7_2_Get_data__analytics_on__everything__from_foot__traffic__0_Layer0_0_MEMBER_10_FILL"/>
</g>

<g transform="matrix( 2.815704345703125, 0, 0, 2.832611083984375, 0.15,19.6) ">
<use xlink:href="#BDM_160x600_psd_Asset_ManagedWiFi_Awareness_DM7_2_Get_data__analytics_on__everything__from_foot__traffic__0_Layer0_0_MEMBER_11_FILL"/>
</g>

<g transform="matrix( 2.815704345703125, 0, 0, 2.832611083984375, 0.15,19.6) ">
<use xlink:href="#BDM_160x600_psd_Asset_ManagedWiFi_Awareness_DM7_2_Get_data__analytics_on__everything__from_foot__traffic__0_Layer0_0_MEMBER_12_FILL"/>
</g>

<g transform="matrix( 2.815704345703125, 0, 0, 2.832611083984375, 0.15,19.6) ">
<use xlink:href="#BDM_160x600_psd_Asset_ManagedWiFi_Awareness_DM7_2_Get_data__analytics_on__everything__from_foot__traffic__0_Layer0_0_MEMBER_13_FILL"/>
</g>

<g transform="matrix( 2.815704345703125, 0, 0, 2.832611083984375, 0.15,19.6) ">
<use xlink:href="#BDM_160x600_psd_Asset_ManagedWiFi_Awareness_DM7_2_Get_data__analytics_on__everything__from_foot__traffic__0_Layer0_0_MEMBER_14_FILL"/>
</g>

<g transform="matrix( 2.815704345703125, 0, 0, 2.832611083984375, 0.15,19.6) ">
<use xlink:href="#BDM_160x600_psd_Asset_ManagedWiFi_Awareness_DM7_2_Get_data__analytics_on__everything__from_foot__traffic__0_Layer0_0_MEMBER_15_FILL"/>
</g>

<g transform="matrix( 2.815704345703125, 0, 0, 2.832611083984375, 0.15,19.6) ">
<use xlink:href="#BDM_160x600_psd_Asset_ManagedWiFi_Awareness_DM7_2_Get_data__analytics_on__everything__from_foot__traffic__0_Layer0_0_MEMBER_16_FILL"/>
</g>

<g transform="matrix( 2.815704345703125, 0, 0, 2.832611083984375, 0.15,19.6) ">
<use xlink:href="#BDM_160x600_psd_Asset_ManagedWiFi_Awareness_DM7_2_Get_data__analytics_on__everything__from_foot__traffic__0_Layer0_0_MEMBER_17_FILL"/>
</g>

<g transform="matrix( 2.815704345703125, 0, 0, 2.832611083984375, 0.15,19.6) ">
<use xlink:href="#BDM_160x600_psd_Asset_ManagedWiFi_Awareness_DM7_2_Get_data__analytics_on__everything__from_foot__traffic__0_Layer0_0_MEMBER_18_FILL"/>
</g>

<g transform="matrix( 2.815704345703125, 0, 0, 2.832611083984375, 0.15,19.6) ">
<use xlink:href="#BDM_160x600_psd_Asset_ManagedWiFi_Awareness_DM7_2_Get_data__analytics_on__everything__from_foot__traffic__0_Layer0_0_MEMBER_19_FILL"/>
</g>

<g transform="matrix( 2.815704345703125, 0, 0, 2.832611083984375, 0.15,19.6) ">
<use xlink:href="#BDM_160x600_psd_Asset_ManagedWiFi_Awareness_DM7_2_Get_data__analytics_on__everything__from_foot__traffic__0_Layer0_0_MEMBER_20_FILL"/>
</g>

<g transform="matrix( 2.815704345703125, 0, 0, 2.832611083984375, 0.15,19.6) ">
<use xlink:href="#BDM_160x600_psd_Asset_ManagedWiFi_Awareness_DM7_2_Get_data__analytics_on__everything__from_foot__traffic__0_Layer0_0_MEMBER_21_FILL"/>
</g>

<g transform="matrix( 2.815704345703125, 0, 0, 2.832611083984375, 0.15,19.6) ">
<use xlink:href="#BDM_160x600_psd_Asset_ManagedWiFi_Awareness_DM7_2_Get_data__analytics_on__everything__from_foot__traffic__0_Layer0_0_MEMBER_22_FILL"/>
</g>

<g transform="matrix( 2.815704345703125, 0, 0, 2.832611083984375, 0.15,19.6) ">
<use xlink:href="#BDM_160x600_psd_Asset_ManagedWiFi_Awareness_DM7_2_Get_data__analytics_on__everything__from_foot__traffic__0_Layer0_0_MEMBER_23_FILL"/>
</g>

<g transform="matrix( 2.815704345703125, 0, 0, 2.832611083984375, 0.15,19.6) ">
<use xlink:href="#BDM_160x600_psd_Asset_ManagedWiFi_Awareness_DM7_2_Get_data__analytics_on__everything__from_foot__traffic__0_Layer0_0_MEMBER_24_FILL"/>
</g>

<g transform="matrix( 2.815704345703125, 0, 0, 2.832611083984375, 0.15,19.6) ">
<use xlink:href="#BDM_160x600_psd_Asset_ManagedWiFi_Awareness_DM7_2_Get_data__analytics_on__everything__from_foot__traffic__0_Layer0_0_MEMBER_25_FILL"/>
</g>

<g transform="matrix( 2.815704345703125, 0, 0, 2.832611083984375, 0.15,19.6) ">
<use xlink:href="#BDM_160x600_psd_Asset_ManagedWiFi_Awareness_DM7_2_Get_data__analytics_on__everything__from_foot__traffic__0_Layer0_0_MEMBER_26_FILL"/>
</g>

<g transform="matrix( 2.815704345703125, 0, 0, 2.832611083984375, 0.15,19.6) ">
<use xlink:href="#BDM_160x600_psd_Asset_ManagedWiFi_Awareness_DM7_2_Get_data__analytics_on__everything__from_foot__traffic__0_Layer0_0_MEMBER_27_FILL"/>
</g>

<g transform="matrix( 2.815704345703125, 0, 0, 2.832611083984375, 0.15,19.6) ">
<use xlink:href="#BDM_160x600_psd_Asset_ManagedWiFi_Awareness_DM7_2_Get_data__analytics_on__everything__from_foot__traffic__0_Layer0_0_MEMBER_28_FILL"/>
</g>

<g transform="matrix( 2.815704345703125, 0, 0, 2.832611083984375, 0.15,19.6) ">
<use xlink:href="#BDM_160x600_psd_Asset_ManagedWiFi_Awareness_DM7_2_Get_data__analytics_on__everything__from_foot__traffic__0_Layer0_0_MEMBER_29_FILL"/>
</g>

<g transform="matrix( 2.815704345703125, 0, 0, 2.832611083984375, 0.15,19.6) ">
<use xlink:href="#BDM_160x600_psd_Asset_ManagedWiFi_Awareness_DM7_2_Get_data__analytics_on__everything__from_foot__traffic__0_Layer0_0_MEMBER_30_FILL"/>
</g>

<g transform="matrix( 2.815704345703125, 0, 0, 2.832611083984375, 0.15,19.6) ">
<use xlink:href="#BDM_160x600_psd_Asset_ManagedWiFi_Awareness_DM7_2_Get_data__analytics_on__everything__from_foot__traffic__0_Layer0_0_MEMBER_31_FILL"/>
</g>

<g transform="matrix( 2.815704345703125, 0, 0, 2.832611083984375, 0.15,19.6) ">
<use xlink:href="#BDM_160x600_psd_Asset_ManagedWiFi_Awareness_DM7_2_Get_data__analytics_on__everything__from_foot__traffic__0_Layer0_0_MEMBER_32_FILL"/>
</g>

<g transform="matrix( 2.815704345703125, 0, 0, 2.832611083984375, 0.15,19.6) ">
<use xlink:href="#BDM_160x600_psd_Asset_ManagedWiFi_Awareness_DM7_2_Get_data__analytics_on__everything__from_foot__traffic__0_Layer0_0_MEMBER_33_FILL"/>
</g>

<g transform="matrix( 2.815704345703125, 0, 0, 2.832611083984375, 0.15,19.6) ">
<use xlink:href="#BDM_160x600_psd_Asset_ManagedWiFi_Awareness_DM7_2_Get_data__analytics_on__everything__from_foot__traffic__0_Layer0_0_MEMBER_34_FILL"/>
</g>

<g transform="matrix( 2.815704345703125, 0, 0, 2.832611083984375, 0.15,19.6) ">
<use xlink:href="#BDM_160x600_psd_Asset_ManagedWiFi_Awareness_DM7_2_Get_data__analytics_on__everything__from_foot__traffic__0_Layer0_0_MEMBER_35_FILL"/>
</g>

<g transform="matrix( 2.815704345703125, 0, 0, 2.832611083984375, 0.15,19.6) ">
<use xlink:href="#BDM_160x600_psd_Asset_ManagedWiFi_Awareness_DM7_2_Get_data__analytics_on__everything__from_foot__traffic__0_Layer0_0_MEMBER_36_FILL"/>
</g>

<g transform="matrix( 2.815704345703125, 0, 0, 2.832611083984375, 0.15,19.6) ">
<use xlink:href="#BDM_160x600_psd_Asset_ManagedWiFi_Awareness_DM7_2_Get_data__analytics_on__everything__from_foot__traffic__0_Layer0_0_MEMBER_37_FILL"/>
</g>

<g transform="matrix( 2.815704345703125, 0, 0, 2.832611083984375, 0.15,19.6) ">
<use xlink:href="#BDM_160x600_psd_Asset_ManagedWiFi_Awareness_DM7_2_Get_data__analytics_on__everything__from_foot__traffic__0_Layer0_0_MEMBER_38_FILL"/>
</g>

<g transform="matrix( 2.815704345703125, 0, 0, 2.832611083984375, 0.15,19.6) ">
<use xlink:href="#BDM_160x600_psd_Asset_ManagedWiFi_Awareness_DM7_2_Get_data__analytics_on__everything__from_foot__traffic__0_Layer0_0_MEMBER_39_FILL"/>
</g>

<g transform="matrix( 2.815704345703125, 0, 0, 2.832611083984375, 0.15,19.6) ">
<use xlink:href="#BDM_160x600_psd_Asset_ManagedWiFi_Awareness_DM7_2_Get_data__analytics_on__everything__from_foot__traffic__0_Layer0_0_MEMBER_40_FILL"/>
</g>

<g transform="matrix( 2.815704345703125, 0, 0, 2.832611083984375, 0.15,19.6) ">
<use xlink:href="#BDM_160x600_psd_Asset_ManagedWiFi_Awareness_DM7_2_Get_data__analytics_on__everything__from_foot__traffic__0_Layer0_0_MEMBER_41_FILL"/>
</g>
</g>
</g>
</g>
</svg>
