
<svg xmlns="http://www.w3.org/2000/svg" version="1.1" xmlns:xlink="http://www.w3.org/1999/xlink" preserveAspectRatio="none" x="0px" y="0px" width="640px" height="480px" viewBox="0 0 640 480">
<defs>
<g id="IT_640x480_psd_Asset_3_ManagedWiFi_IT_Research_DM8_2_Network_as_a_Service_solutions__can_help___0_Layer0_0_MEMBER_0_FILL">
<path fill="#D82C26" stroke="none" d="
M 2.2 -9
L 1.25 -9 1.25 0 2 0 2 -7.95 7.7 0 8.65 0 8.65 -9 7.85 -9 7.85 -1.1 2.2 -9 Z"/>
</g>

<g id="IT_640x480_psd_Asset_3_ManagedWiFi_IT_Research_DM8_2_Network_as_a_Service_solutions__can_help___0_Layer0_0_MEMBER_1_FILL">
<path fill="#D82C26" stroke="none" d="
M 14.55 -5.75
Q 13.9 -6.15 13.05 -6.15 12.25 -6.15 11.55 -5.75 10.9 -5.3 10.45 -4.65 10.1 -3.95 10.1 -3 10.1 -2 10.5 -1.35 10.9 -0.6 11.55 -0.25 12.3 0.2 13.15 0.2 14.55 0.2 15.5 -0.55
L 15.4 -1.2
Q 14.8 -0.8 14.4 -0.65 13.95 -0.45 13.2 -0.45 12.55 -0.45 11.95 -0.75 11.45 -1.1 11.15 -1.65 10.8 -2.15 10.8 -2.85
L 15.85 -2.85 15.85 -3.2
Q 15.85 -4 15.55 -4.7 15.15 -5.4 14.55 -5.75
M 14.55 -4.95
Q 15.15 -4.4 15.15 -3.4
L 10.8 -3.4
Q 10.85 -3.85 11.1 -4.4 11.45 -4.95 11.85 -5.2 12.35 -5.55 13.05 -5.55 14.05 -5.55 14.55 -4.95 Z"/>
</g>

<g id="IT_640x480_psd_Asset_3_ManagedWiFi_IT_Research_DM8_2_Network_as_a_Service_solutions__can_help___0_Layer0_0_MEMBER_2_FILL">
<path fill="#D82C26" stroke="none" d="
M 18 -7.65
L 17.25 -7.35 17.25 -5.95 16.3 -5.95 16.15 -5.35 17.3 -5.35 17.3 -1.45
Q 17.3 -0.65 17.65 -0.3 18.05 0.15 18.65 0.15
L 19.35 0.05 19.95 -0.2 19.85 -0.75
Q 19.4 -0.5 18.9 -0.5 18.45 -0.5 18.25 -0.75 18 -1 18 -1.55
L 18 -5.35 19.55 -5.35 19.7 -5.95 18 -5.95 18 -7.65 Z"/>
</g>

<g id="IT_640x480_psd_Asset_3_ManagedWiFi_IT_Research_DM8_2_Network_as_a_Service_solutions__can_help___0_Layer0_0_MEMBER_3_FILL">
<path fill="#D82C26" stroke="none" d="
M 21.05 -5.95
L 20.25 -5.95 22.1 0 22.95 0 24.6 -5.05 24.65 -5.05 26.35 0 27.15 0 29 -5.95 28.25 -5.95 26.75 -0.85 25.05 -5.95 24.25 -5.95 22.55 -0.85 21.05 -5.95 Z"/>
</g>

<g id="IT_640x480_psd_Asset_3_ManagedWiFi_IT_Research_DM8_2_Network_as_a_Service_solutions__can_help___0_Layer0_0_MEMBER_4_FILL">
<path fill="#D82C26" stroke="none" d="
M 29.4 -3
Q 29.4 -2.1 29.85 -1.35 30.25 -0.65 30.95 -0.25 31.7 0.2 32.6 0.2 33.55 0.2 34.2 -0.25 34.85 -0.55 35.35 -1.35 35.75 -2.15 35.75 -3 35.75 -3.9 35.35 -4.6 34.9 -5.3 34.2 -5.75 33.5 -6.15 32.6 -6.15 31.75 -6.15 30.95 -5.75 30.15 -5.2 29.85 -4.6 29.4 -3.9 29.4 -3
M 33.85 -5.15
Q 34.4 -4.9 34.7 -4.25 35 -3.7 35 -3 35 -2.3 34.7 -1.7 34.35 -1.1 33.85 -0.8 33.35 -0.45 32.6 -0.45 31.8 -0.45 31.3 -0.8 30.75 -1.2 30.45 -1.7 30.15 -2.3 30.15 -3 30.15 -3.7 30.45 -4.25 30.75 -4.85 31.3 -5.15 31.8 -5.5 32.6 -5.5 33.35 -5.5 33.85 -5.15 Z"/>
</g>

<g id="IT_640x480_psd_Asset_3_ManagedWiFi_IT_Research_DM8_2_Network_as_a_Service_solutions__can_help___0_Layer0_0_MEMBER_5_FILL">
<path fill="#D82C26" stroke="none" d="
M 39.5 -6.15
Q 39.05 -6.15 38.5 -5.75 38.05 -5.45 37.8 -4.65
L 37.75 -4.65 37.7 -5.95 37 -5.95 37.05 0 37.8 0 37.8 -2.95
Q 37.8 -4 38.25 -4.75 38.7 -5.45 39.45 -5.45
L 40 -5.4 40.15 -6
Q 39.85 -6.15 39.5 -6.15 Z"/>
</g>

<g id="IT_640x480_psd_Asset_3_ManagedWiFi_IT_Research_DM8_2_Network_as_a_Service_solutions__can_help___0_Layer0_0_MEMBER_6_FILL">
<path fill="#D82C26" stroke="none" d="
M 41.7 -9.7
L 40.95 -9.55 40.95 0 41.7 0 41.7 -3.1 41.75 -3.1 44.8 0 45.8 0 42.55 -3.2 45.5 -5.95 44.5 -5.95 41.75 -3.25 41.7 -3.25 41.7 -9.7 Z"/>
</g>

<g id="IT_640x480_psd_Asset_3_ManagedWiFi_IT_Research_DM8_2_Network_as_a_Service_solutions__can_help___0_Layer0_0_MEMBER_7_FILL">
<path fill="#D82C26" stroke="none" d="
M 48.9 -1.6
Q 48.9 -0.75 49.45 -0.3 50 0.15 50.8 0.15 51.5 0.15 52.15 -0.15 52.8 -0.55 53 -1.15
L 53.05 -1.15 53.05 -0.55 53.15 0 53.8 0 53.7 -3.85
Q 53.7 -5 53.1 -5.55 52.5 -6.15 51.45 -6.15 50.95 -6.15 50.25 -5.95 49.55 -5.7 49.2 -5.4
L 49.45 -4.8
Q 49.95 -5.2 50.3 -5.35 51 -5.55 51.35 -5.55 52.05 -5.55 52.55 -5.15 53 -4.7 53 -3.9
L 53 -3.55 52.3 -3.55
Q 48.9 -3.55 48.9 -1.6
M 50 -0.7
Q 49.6 -1 49.6 -1.65 49.6 -3.1 52.4 -3.1
L 53 -3.1 53 -2.5
Q 53 -1.9 52.8 -1.5 52.55 -1 52.1 -0.7 51.6 -0.4 50.95 -0.4 50.4 -0.4 50 -0.7 Z"/>
</g>

<g id="IT_640x480_psd_Asset_3_ManagedWiFi_IT_Research_DM8_2_Network_as_a_Service_solutions__can_help___0_Layer0_0_MEMBER_8_FILL">
<path fill="#D82C26" stroke="none" d="
M 55 -1.15
L 54.85 -0.5
Q 55.2 -0.25 55.8 0 56.35 0.15 57 0.15 57.6 0.15 58 -0.05 58.4 -0.2 58.75 -0.6 59 -0.95 59 -1.55 59 -2.25 58.6 -2.6 58.25 -2.95 57.2 -3.3
L 56 -3.85
Q 55.7 -4.05 55.7 -4.55 55.7 -5 56.05 -5.3 56.45 -5.55 57 -5.55 57.45 -5.55 57.8 -5.4
L 58.55 -4.95 58.85 -5.5 58 -5.95
Q 57.4 -6.15 56.95 -6.15 56.4 -6.15 56 -5.95 55.6 -5.8 55.25 -5.4 55 -5 55 -4.5 55 -3.8 55.4 -3.45 55.8 -3.1 56.65 -2.8 57.45 -2.6 57.9 -2.25 58.3 -2.05 58.3 -1.55 58.3 -0.95 57.9 -0.7 57.55 -0.4 57 -0.4 55.85 -0.4 55 -1.15 Z"/>
</g>

<g id="IT_640x480_psd_Asset_3_ManagedWiFi_IT_Research_DM8_2_Network_as_a_Service_solutions__can_help___0_Layer0_0_MEMBER_9_FILL">
<path fill="#D82C26" stroke="none" d="
M 65.1 -6.15
Q 64.7 -6.15 63.9 -5.95 63.2 -5.7 62.9 -5.4
L 63.1 -4.8
Q 63.55 -5.15 64 -5.35 64.7 -5.55 65 -5.55 65.75 -5.55 66.25 -5.15 66.7 -4.7 66.7 -3.9
L 66.7 -3.55 65.95 -3.55
Q 62.55 -3.55 62.55 -1.6 62.55 -0.75 63.1 -0.3 63.7 0.15 64.45 0.15 65.2 0.15 65.8 -0.15 66.45 -0.55 66.65 -1.15
L 66.7 -1.15 66.8 0 67.5 0
Q 67.4 -0.3 67.4 -1.3
L 67.4 -3.85
Q 67.4 -5 66.8 -5.55 66.2 -6.15 65.1 -6.15
M 64.6 -0.4
Q 64.05 -0.4 63.65 -0.7 63.25 -1 63.25 -1.65 63.25 -3.1 66.05 -3.1
L 66.7 -3.1 66.7 -2.5
Q 66.7 -2 66.45 -1.5 66.2 -1 65.75 -0.7 65.3 -0.4 64.6 -0.4 Z"/>
</g>

<g id="IT_640x480_psd_Asset_3_ManagedWiFi_IT_Research_DM8_2_Network_as_a_Service_solutions__can_help___0_Layer0_0_MEMBER_10_FILL">
<path fill="#D82C26" stroke="none" d="
M 76.7 -7.8
L 76.95 -8.5
Q 76.45 -8.85 75.8 -9.05 75 -9.25 74.5 -9.25 73.75 -9.25 73.05 -8.95 72.3 -8.55 72 -8.1 71.6 -7.55 71.6 -6.75 71.6 -5.95 71.95 -5.55 72.35 -5 72.8 -4.75
L 74.1 -4.2
Q 74.95 -3.95 75.3 -3.75 75.75 -3.5 76.05 -3.15 76.3 -2.9 76.3 -2.25 76.3 -1.4 75.7 -0.9 75.1 -0.45 74.2 -0.45 73.45 -0.45 72.8 -0.7 72.1 -1 71.65 -1.45
L 71.45 -0.7
Q 72.1 -0.2 72.7 -0.05 73.45 0.25 74.2 0.25 75 0.25 75.65 -0.05 76.3 -0.35 76.7 -0.9 77.1 -1.45 77.1 -2.3 77.1 -3.15 76.75 -3.55 76.4 -4.05 75.85 -4.3 75.5 -4.5 74.45 -4.85
L 73.35 -5.3
Q 72.85 -5.55 72.65 -5.9 72.35 -6.2 72.35 -6.8 72.35 -7.35 72.65 -7.8 72.9 -8.15 73.45 -8.4 74.15 -8.6 74.5 -8.6 75.05 -8.6 75.7 -8.35 76.3 -8.15 76.7 -7.8 Z"/>
</g>

<g id="IT_640x480_psd_Asset_3_ManagedWiFi_IT_Research_DM8_2_Network_as_a_Service_solutions__can_help___0_Layer0_0_MEMBER_11_FILL">
<path fill="#D82C26" stroke="none" d="
M 78.5 -1.35
Q 78.9 -0.6 79.6 -0.25 80.3 0.2 81.15 0.2 82.5 0.2 83.55 -0.55
L 83.4 -1.2 82.45 -0.65
Q 81.9 -0.45 81.2 -0.45 80.55 -0.45 80 -0.75 79.45 -1.15 79.15 -1.65 78.85 -2.15 78.85 -2.85
L 83.9 -2.85 83.9 -3.2
Q 83.9 -4.05 83.55 -4.7 83.25 -5.35 82.6 -5.75 81.9 -6.15 81.05 -6.15 80.25 -6.15 79.55 -5.75 78.85 -5.3 78.5 -4.65 78.1 -3.85 78.1 -3 78.1 -2.15 78.5 -1.35
M 79.15 -4.4
Q 79.4 -4.9 79.9 -5.2 80.3 -5.55 81.05 -5.55 82 -5.55 82.6 -4.95 83.1 -4.45 83.2 -3.4
L 78.85 -3.4
Q 78.85 -3.85 79.15 -4.4 Z"/>
</g>

<g id="IT_640x480_psd_Asset_3_ManagedWiFi_IT_Research_DM8_2_Network_as_a_Service_solutions__can_help___0_Layer0_0_MEMBER_12_FILL">
<path fill="#D82C26" stroke="none" d="
M 85.8 -5.95
L 85.1 -5.95 85.15 0 85.9 0 85.9 -2.95
Q 85.9 -4 86.35 -4.75 86.8 -5.45 87.6 -5.45
L 88.1 -5.4 88.25 -6
Q 87.95 -6.15 87.65 -6.15 87.15 -6.15 86.6 -5.75 86.15 -5.35 85.9 -4.65
L 85.85 -4.65 85.8 -5.95 Z"/>
</g>

<g id="IT_640x480_psd_Asset_3_ManagedWiFi_IT_Research_DM8_2_Network_as_a_Service_solutions__can_help___0_Layer0_0_MEMBER_13_FILL">
<path fill="#D82C26" stroke="none" d="
M 89.35 -5.95
L 88.55 -5.95 90.85 0 91.7 0 93.9 -5.95 93.15 -5.95 91.25 -0.75 89.35 -5.95 Z"/>
</g>

<g id="IT_640x480_psd_Asset_3_ManagedWiFi_IT_Research_DM8_2_Network_as_a_Service_solutions__can_help___0_Layer0_0_MEMBER_14_FILL">
<path fill="#D82C26" stroke="none" d="
M 95.5 -5.95
L 94.75 -5.95 94.75 0 95.5 0 95.5 -5.95
M 95.15 -7.8
Q 95.35 -7.8 95.5 -7.95 95.65 -8.1 95.65 -8.35 95.65 -8.55 95.5 -8.7 95.35 -8.85 95.15 -8.85 94.9 -8.85 94.75 -8.7 94.6 -8.55 94.6 -8.35 94.6 -8.1 94.75 -7.95 94.9 -7.8 95.15 -7.8 Z"/>
</g>

<g id="IT_640x480_psd_Asset_3_ManagedWiFi_IT_Research_DM8_2_Network_as_a_Service_solutions__can_help___0_Layer0_0_MEMBER_15_FILL">
<path fill="#D82C26" stroke="none" d="
M 99.9 -5.5
Q 100.4 -5.5 100.85 -5.35 101.35 -5.1 101.6 -4.85
L 101.9 -5.45
Q 101.65 -5.7 101.05 -5.95 100.25 -6.15 99.9 -6.15 99.1 -6.15 98.3 -5.75 97.5 -5.2 97.2 -4.6 96.8 -3.95 96.8 -2.95 96.8 -1.95 97.2 -1.35 97.55 -0.65 98.3 -0.2 99 0.2 99.9 0.2 100.4 0.2 101.05 -0.05 101.55 -0.2 101.9 -0.55
L 101.8 -1.15
Q 101.35 -0.8 100.95 -0.65 100.35 -0.45 99.95 -0.45 99.3 -0.45 98.7 -0.8 98.2 -1.1 97.85 -1.7 97.55 -2.3 97.55 -2.95 97.55 -3.65 97.85 -4.25 98.25 -4.9 98.7 -5.15 99.2 -5.5 99.9 -5.5 Z"/>
</g>

<g id="IT_640x480_psd_Asset_3_ManagedWiFi_IT_Research_DM8_2_Network_as_a_Service_solutions__can_help___0_Layer0_0_MEMBER_16_FILL">
<path fill="#D82C26" stroke="none" d="
M 105.35 -6.15
Q 104.55 -6.15 103.85 -5.75 103.15 -5.3 102.8 -4.65 102.4 -3.85 102.4 -3 102.4 -2.15 102.8 -1.35 103.3 -0.55 103.9 -0.25 104.6 0.2 105.45 0.2 106.9 0.2 107.85 -0.55
L 107.7 -1.2
Q 107.25 -0.85 106.75 -0.65 106.3 -0.45 105.55 -0.45 104.85 -0.45 104.3 -0.75 103.75 -1.15 103.45 -1.65 103.15 -2.15 103.15 -2.85
L 108.2 -2.85 108.2 -3.2
Q 108.2 -4 107.9 -4.7 107.5 -5.4 106.9 -5.75 106.2 -6.15 105.35 -6.15
M 104.2 -5.2
Q 104.7 -5.55 105.35 -5.55 106.3 -5.55 106.9 -4.95 107.5 -4.4 107.5 -3.4
L 103.15 -3.4
Q 103.25 -4.05 103.45 -4.4 103.7 -4.9 104.2 -5.2 Z"/>
</g>

<g id="IT_640x480_psd_Asset_3_ManagedWiFi_IT_Research_DM8_2_Network_as_a_Service_solutions__can_help___0_Layer0_0_MEMBER_17_FILL">
<path fill="#D82C26" stroke="none" d="
M 115.75 -5.5
L 114.9 -5.95
Q 114.3 -6.15 113.85 -6.15 113.3 -6.15 112.9 -5.95 112.45 -5.8 112.2 -5.4 111.9 -5 111.9 -4.5 111.9 -3.85 112.3 -3.45 112.75 -3.1 113.6 -2.8 114.3 -2.6 114.85 -2.25 115.2 -2.05 115.2 -1.55 115.2 -1 114.85 -0.7 114.4 -0.4 113.9 -0.4 112.75 -0.4 111.9 -1.15
L 111.8 -0.5
Q 112.05 -0.25 112.7 0 113.25 0.15 113.9 0.15 114.5 0.15 114.9 -0.05 115.3 -0.2 115.65 -0.6 115.95 -1.05 115.95 -1.55 115.95 -2.2 115.5 -2.6 115.1 -3 114.1 -3.3 113.3 -3.6 112.95 -3.85 112.6 -4.05 112.6 -4.55 112.6 -5 112.95 -5.3 113.35 -5.55 113.9 -5.55 114.3 -5.55 114.75 -5.4 115.4 -5 115.45 -4.95
L 115.75 -5.5 Z"/>
</g>

<g id="IT_640x480_psd_Asset_3_ManagedWiFi_IT_Research_DM8_2_Network_as_a_Service_solutions__can_help___0_Layer0_0_MEMBER_18_FILL">
<path fill="#D82C26" stroke="none" d="
M 118.3 -5.75
Q 117.6 -5.3 117.15 -4.6 116.75 -3.9 116.75 -3 116.75 -2.15 117.15 -1.35 117.7 -0.55 118.3 -0.25 119 0.2 119.9 0.2 120.8 0.2 121.55 -0.25 122.2 -0.6 122.7 -1.35 123.1 -2.15 123.1 -3 123.1 -3.9 122.7 -4.6 122.3 -5.25 121.55 -5.75 120.75 -6.15 119.9 -6.15 119 -6.15 118.3 -5.75
M 119.9 -5.5
Q 120.65 -5.5 121.2 -5.15 121.75 -4.85 122.05 -4.25 122.35 -3.7 122.35 -3 122.35 -2.3 122.05 -1.7 121.75 -1.2 121.2 -0.8 120.7 -0.45 119.9 -0.45 119.15 -0.45 118.65 -0.8 118.15 -1.1 117.8 -1.7 117.5 -2.3 117.5 -3 117.5 -3.7 117.8 -4.25 118.1 -4.9 118.65 -5.15 119.15 -5.5 119.9 -5.5 Z"/>
</g>

<g id="IT_640x480_psd_Asset_3_ManagedWiFi_IT_Research_DM8_2_Network_as_a_Service_solutions__can_help___0_Layer0_0_MEMBER_19_FILL">
<path fill="#D82C26" stroke="none" d="
M 124.4 -1.3
Q 124.4 -0.65 124.65 -0.35 125.05 0.05 125.35 0.15
L 125.7 -0.5
Q 125.4 -0.65 125.25 -0.85 125.15 -1 125.15 -1.5
L 125.15 -9.7 124.4 -9.55 124.4 -1.3 Z"/>
</g>

<g id="IT_640x480_psd_Asset_3_ManagedWiFi_IT_Research_DM8_2_Network_as_a_Service_solutions__can_help___0_Layer0_0_MEMBER_20_FILL">
<path fill="#D82C26" stroke="none" d="
M 127.55 -5.95
L 126.8 -5.95 126.8 -2.35
Q 126.8 -1.2 127.3 -0.55 127.8 0.15 128.95 0.15 129.7 0.15 130.3 -0.25 130.85 -0.6 131.15 -1.3
L 131.25 0 132 0 131.85 -1.4 131.85 -5.95 131.15 -5.95 131.15 -3
Q 131.15 -2.2 130.85 -1.6 130.6 -1.05 130.15 -0.75 129.7 -0.45 129.15 -0.45 128.3 -0.45 127.9 -1.05 127.55 -1.6 127.55 -2.5
L 127.55 -5.95 Z"/>
</g>

<g id="IT_640x480_psd_Asset_3_ManagedWiFi_IT_Research_DM8_2_Network_as_a_Service_solutions__can_help___0_Layer0_0_MEMBER_21_FILL">
<path fill="#D82C26" stroke="none" d="
M 134.6 -7.65
L 133.85 -7.35 133.85 -5.95 132.9 -5.95 132.75 -5.35 133.9 -5.35 133.9 -1.45
Q 133.9 -0.65 134.25 -0.3 134.65 0.15 135.25 0.15
L 135.95 0.05 136.55 -0.2 136.45 -0.75
Q 136 -0.5 135.5 -0.5 135.05 -0.5 134.85 -0.75 134.6 -1 134.6 -1.55
L 134.6 -5.35 136.15 -5.35 136.3 -5.95 134.6 -5.95 134.6 -7.65 Z"/>
</g>

<g id="IT_640x480_psd_Asset_3_ManagedWiFi_IT_Research_DM8_2_Network_as_a_Service_solutions__can_help___0_Layer0_0_MEMBER_22_FILL">
<path fill="#D82C26" stroke="none" d="
M 138.15 -5.95
L 137.4 -5.95 137.4 0 138.15 0 138.15 -5.95
M 137.8 -7.8
Q 138 -7.8 138.15 -7.95 138.3 -8.1 138.3 -8.35 138.3 -8.55 138.15 -8.7 138 -8.85 137.8 -8.85 137.55 -8.85 137.4 -8.7 137.25 -8.55 137.25 -8.35 137.25 -8.1 137.4 -7.95 137.55 -7.8 137.8 -7.8 Z"/>
</g>

<g id="IT_640x480_psd_Asset_3_ManagedWiFi_IT_Research_DM8_2_Network_as_a_Service_solutions__can_help___0_Layer0_0_MEMBER_23_FILL">
<path fill="#D82C26" stroke="none" d="
M 139.85 -1.35
Q 140.25 -0.65 140.95 -0.25 141.7 0.2 142.6 0.2 143.55 0.2 144.2 -0.25 144.95 -0.6 145.35 -1.35 145.75 -2 145.75 -3 145.75 -4 145.35 -4.6 145 -5.25 144.2 -5.75 143.5 -6.15 142.6 -6.15 141.75 -6.15 140.95 -5.75 140.15 -5.2 139.85 -4.6 139.45 -4 139.45 -3 139.45 -2 139.85 -1.35
M 140.45 -4.25
Q 140.75 -4.85 141.3 -5.15 141.85 -5.5 142.6 -5.5 143.35 -5.5 143.85 -5.15 144.4 -4.9 144.7 -4.25 145 -3.7 145 -3 145 -2.2 144.75 -1.7 144.45 -1.2 143.9 -0.8 143.35 -0.45 142.6 -0.45 141.85 -0.45 141.3 -0.8 140.75 -1.2 140.45 -1.7 140.2 -2.35 140.2 -3 140.2 -3.65 140.45 -4.25 Z"/>
</g>

<g id="IT_640x480_psd_Asset_3_ManagedWiFi_IT_Research_DM8_2_Network_as_a_Service_solutions__can_help___0_Layer0_0_MEMBER_24_FILL">
<path fill="#D82C26" stroke="none" d="
M 151.65 -5.4
Q 151.05 -6.15 149.95 -6.15 149.3 -6.15 148.65 -5.75 148.1 -5.35 147.8 -4.65
L 147.7 -5.95 147 -5.95 147.1 0 147.8 0 147.8 -3.05
Q 147.8 -3.8 148.1 -4.35 148.3 -4.85 148.8 -5.2 149.25 -5.5 149.8 -5.5 150.7 -5.5 151.05 -4.9 151.4 -4.35 151.4 -3.45
L 151.4 0 152.15 0 152.15 -3.65
Q 152.15 -4.75 151.65 -5.4 Z"/>
</g>

<g id="IT_640x480_psd_Asset_3_ManagedWiFi_IT_Research_DM8_2_Network_as_a_Service_solutions__can_help___0_Layer0_0_MEMBER_25_FILL">
<path fill="#D82C26" stroke="none" d="
M 155.45 -5.55
Q 155.85 -5.55 156.3 -5.4 156.95 -5 157 -4.95
L 157.3 -5.5 156.5 -5.95
Q 155.8 -6.15 155.4 -6.15 154.85 -6.15 154.45 -5.95 154 -5.8 153.75 -5.4 153.45 -5 153.45 -4.5 153.45 -3.85 153.85 -3.45 154.3 -3.1 155.15 -2.8 156 -2.55 156.4 -2.25 156.8 -2 156.8 -1.55 156.8 -1 156.4 -0.7 155.95 -0.4 155.45 -0.4 154.3 -0.4 153.45 -1.15
L 153.35 -0.5
Q 153.55 -0.3 154.25 0 154.85 0.15 155.45 0.15 156.05 0.15 156.45 -0.05 156.85 -0.2 157.2 -0.6 157.5 -1.05 157.5 -1.55 157.5 -2.2 157.05 -2.6 156.65 -3 155.65 -3.3 154.85 -3.6 154.5 -3.85 154.15 -4.05 154.15 -4.55 154.15 -5 154.5 -5.3 154.9 -5.55 155.45 -5.55 Z"/>
</g>

<g id="IT_640x480_psd_Asset_3_ManagedWiFi_IT_Research_DM8_2_Network_as_a_Service_solutions__can_help___0_Layer0_0_MEMBER_26_FILL">
<path fill="#D82C26" stroke="none" d="
M 1.1 10.25
Q 0.7 10.95 0.7 11.85 0.7 12.7 1.1 13.5 1.6 14.3 2.2 14.6 3 15 3.8 15 4.5 15 4.95 14.8 5.55 14.55 5.85 14.3
L 5.75 13.65
Q 5.5 13.9 4.9 14.2 4.45 14.35 3.9 14.35 3.15 14.35 2.6 14 2 13.65 1.8 13.1 1.5 12.6 1.5 11.85 1.5 11.15 1.8 10.6 2 10.1 2.6 9.65 3.2 9.3 3.85 9.3 4.2 9.3 4.8 9.5 5.25 9.65 5.55 9.95
L 5.85 9.4
Q 5.5 9.05 4.95 8.9 4.5 8.7 3.85 8.7 2.85 8.7 2.25 9.1 1.6 9.45 1.1 10.25 Z"/>
</g>

<g id="IT_640x480_psd_Asset_3_ManagedWiFi_IT_Research_DM8_2_Network_as_a_Service_solutions__can_help___0_Layer0_0_MEMBER_27_FILL">
<path fill="#D82C26" stroke="none" d="
M 10.7 10.9
L 10.7 11.25 9.95 11.25
Q 6.55 11.25 6.55 13.25 6.55 14.1 7.1 14.55 7.7 15 8.45 15 9.25 15 9.8 14.65 10.4 14.35 10.7 13.65
L 10.8 14.85 11.5 14.85
Q 11.4 14.5 11.4 13.55
L 11.4 10.95
Q 11.4 9.85 10.8 9.25 10.15 8.7 9.1 8.7 8.45 8.7 7.9 8.9 7.3 9.05 6.9 9.45
L 7.1 10
Q 7.4 9.75 8 9.5 8.45 9.3 9 9.3 9.85 9.3 10.25 9.7 10.7 10.1 10.7 10.9
M 10.7 11.75
L 10.7 12.35
Q 10.7 12.75 10.45 13.35 10.25 13.8 9.75 14.1 9.35 14.45 8.6 14.45 8.05 14.45 7.65 14.15 7.25 13.85 7.25 13.2 7.25 11.75 10.05 11.75
L 10.7 11.75 Z"/>
</g>

<g id="IT_640x480_psd_Asset_3_ManagedWiFi_IT_Research_DM8_2_Network_as_a_Service_solutions__can_help___0_Layer0_0_MEMBER_28_FILL">
<path fill="#D82C26" stroke="none" d="
M 13.65 8.9
L 12.95 8.9 13.05 14.85 13.8 14.85 13.8 11.8
Q 13.8 10.95 14.05 10.45 14.3 9.9 14.75 9.6 15.2 9.3 15.75 9.3 16.65 9.3 17 9.9 17.35 10.45 17.35 11.4
L 17.35 14.85 18.1 14.85 18.1 11.2
Q 18.1 10.1 17.6 9.4 17 8.7 15.9 8.7 15.25 8.7 14.6 9.1 14.05 9.45 13.75 10.15
L 13.65 8.9 Z"/>
</g>

<g id="IT_640x480_psd_Asset_3_ManagedWiFi_IT_Research_DM8_2_Network_as_a_Service_solutions__can_help___0_Layer0_0_MEMBER_29_FILL">
<path fill="#D82C26" stroke="none" d="
M 23.3 5.15
L 22.55 5.25 22.55 14.85 23.3 14.85 23.3 11.95
Q 23.3 11.1 23.6 10.5 23.85 9.95 24.3 9.65 24.85 9.3 25.3 9.3 26.2 9.3 26.55 9.9 26.9 10.45 26.9 11.4
L 26.9 14.85 27.65 14.85 27.65 11.2
Q 27.65 10.1 27.15 9.4 26.6 8.7 25.5 8.7 24.75 8.7 24.2 9.1 23.55 9.5 23.35 10.15
L 23.3 10.15 23.3 5.15 Z"/>
</g>

<g id="IT_640x480_psd_Asset_3_ManagedWiFi_IT_Research_DM8_2_Network_as_a_Service_solutions__can_help___0_Layer0_0_MEMBER_30_FILL">
<path fill="#D82C26" stroke="none" d="
M 33.4 9.1
Q 32.8 8.7 31.85 8.7 30.95 8.7 30.35 9.1 29.7 9.45 29.3 10.2 28.9 11 28.9 11.8 28.9 12.75 29.3 13.45 29.8 14.25 30.4 14.6 31.1 15 31.95 15 33.4 15 34.35 14.25
L 34.2 13.6
Q 33.9 13.9 33.25 14.15 32.6 14.4 32.05 14.4 31.3 14.4 30.8 14.05 30.25 13.75 29.95 13.2 29.65 12.6 29.65 11.95
L 34.7 11.95 34.7 11.65
Q 34.7 10.8 34.35 10.15 34.05 9.45 33.4 9.1
M 33.4 9.85
Q 33.95 10.45 34 11.4
L 29.65 11.4
Q 29.65 10.9 29.95 10.45 30.15 10 30.7 9.6 31.3 9.25 31.85 9.25 32.8 9.25 33.4 9.85 Z"/>
</g>

<g id="IT_640x480_psd_Asset_3_ManagedWiFi_IT_Research_DM8_2_Network_as_a_Service_solutions__can_help___0_Layer0_0_MEMBER_31_FILL">
<path fill="#D82C26" stroke="none" d="
M 36.25 14.45
Q 36.45 14.8 36.95 14.95
L 37.3 14.35 36.85 14
Q 36.75 13.85 36.75 13.35
L 36.75 5.15 36 5.3 36 13.5
Q 36 14.15 36.25 14.45 Z"/>
</g>

<g id="IT_640x480_psd_Asset_3_ManagedWiFi_IT_Research_DM8_2_Network_as_a_Service_solutions__can_help___0_Layer0_0_MEMBER_32_FILL">
<path fill="#D82C26" stroke="none" d="
M 43.25 9.1
Q 42.55 8.7 41.7 8.7 40.95 8.7 40.25 9.1 39.6 9.5 39.25 10.2
L 39.2 8.9 38.45 8.9 38.5 17.9 39.25 17.9 39.25 13.55 39.3 13.55
Q 39.6 14.2 40.25 14.6 40.95 15 41.7 15 42.55 15 43.25 14.6 43.95 14.15 44.3 13.45 44.65 12.75 44.65 11.85 44.65 10.9 44.3 10.25 43.95 9.6 43.25 9.1
M 43.6 10.6
Q 43.9 11.15 43.9 11.85 43.9 12.6 43.6 13.1 43.4 13.6 42.8 14.05 42.3 14.35 41.6 14.35 40.95 14.35 40.35 14.05 39.9 13.7 39.5 13.1 39.2 12.6 39.2 11.85 39.2 11.15 39.5 10.6 39.9 10 40.35 9.65 41.05 9.3 41.6 9.3 42.2 9.3 42.8 9.65 43.4 10.1 43.6 10.6 Z"/>
</g>

<g id="IT_640x480_psd_Asset_3_ManagedWiFi_IT_Research_DM8_2_Network_as_a_Service_solutions__can_help___0_Layer0_0_MEMBER_33_FILL">
<path fill="#D82C26" stroke="none" d="
M 45.85 14.75
Q 46 14.9 46.25 14.9 46.45 14.9 46.65 14.75 46.8 14.6 46.8 14.35 46.8 14.15 46.65 13.9 46.45 13.75 46.25 13.75 46 13.75 45.85 13.95 45.7 14.1 45.7 14.35 45.7 14.6 45.85 14.75 Z"/>
</g>
</defs>

<g transform="matrix( 1, 0, 0, 1, -70,29) ">
<g transform="matrix( 1, 0, 0, 1, 64,0) ">
<g transform="matrix( 1, 0, 0, 1, 55,10) ">
<g transform="matrix( 2.815704345703125, 0, 0, 2.832611083984375, -1.85,27.6) ">
<use xlink:href="#IT_640x480_psd_Asset_3_ManagedWiFi_IT_Research_DM8_2_Network_as_a_Service_solutions__can_help___0_Layer0_0_MEMBER_0_FILL"/>
</g>

<g transform="matrix( 2.815704345703125, 0, 0, 2.832611083984375, -1.85,27.6) ">
<use xlink:href="#IT_640x480_psd_Asset_3_ManagedWiFi_IT_Research_DM8_2_Network_as_a_Service_solutions__can_help___0_Layer0_0_MEMBER_1_FILL"/>
</g>

<g transform="matrix( 2.815704345703125, 0, 0, 2.832611083984375, -1.85,27.6) ">
<use xlink:href="#IT_640x480_psd_Asset_3_ManagedWiFi_IT_Research_DM8_2_Network_as_a_Service_solutions__can_help___0_Layer0_0_MEMBER_2_FILL"/>
</g>

<g transform="matrix( 2.815704345703125, 0, 0, 2.832611083984375, -1.85,27.6) ">
<use xlink:href="#IT_640x480_psd_Asset_3_ManagedWiFi_IT_Research_DM8_2_Network_as_a_Service_solutions__can_help___0_Layer0_0_MEMBER_3_FILL"/>
</g>

<g transform="matrix( 2.815704345703125, 0, 0, 2.832611083984375, -1.85,27.6) ">
<use xlink:href="#IT_640x480_psd_Asset_3_ManagedWiFi_IT_Research_DM8_2_Network_as_a_Service_solutions__can_help___0_Layer0_0_MEMBER_4_FILL"/>
</g>

<g transform="matrix( 2.815704345703125, 0, 0, 2.832611083984375, -1.85,27.6) ">
<use xlink:href="#IT_640x480_psd_Asset_3_ManagedWiFi_IT_Research_DM8_2_Network_as_a_Service_solutions__can_help___0_Layer0_0_MEMBER_5_FILL"/>
</g>

<g transform="matrix( 2.815704345703125, 0, 0, 2.832611083984375, -1.85,27.6) ">
<use xlink:href="#IT_640x480_psd_Asset_3_ManagedWiFi_IT_Research_DM8_2_Network_as_a_Service_solutions__can_help___0_Layer0_0_MEMBER_6_FILL"/>
</g>

<g transform="matrix( 2.815704345703125, 0, 0, 2.832611083984375, -1.85,27.6) ">
<use xlink:href="#IT_640x480_psd_Asset_3_ManagedWiFi_IT_Research_DM8_2_Network_as_a_Service_solutions__can_help___0_Layer0_0_MEMBER_7_FILL"/>
</g>

<g transform="matrix( 2.815704345703125, 0, 0, 2.832611083984375, -1.85,27.6) ">
<use xlink:href="#IT_640x480_psd_Asset_3_ManagedWiFi_IT_Research_DM8_2_Network_as_a_Service_solutions__can_help___0_Layer0_0_MEMBER_8_FILL"/>
</g>

<g transform="matrix( 2.815704345703125, 0, 0, 2.832611083984375, -1.85,27.6) ">
<use xlink:href="#IT_640x480_psd_Asset_3_ManagedWiFi_IT_Research_DM8_2_Network_as_a_Service_solutions__can_help___0_Layer0_0_MEMBER_9_FILL"/>
</g>

<g transform="matrix( 2.815704345703125, 0, 0, 2.832611083984375, -1.85,27.6) ">
<use xlink:href="#IT_640x480_psd_Asset_3_ManagedWiFi_IT_Research_DM8_2_Network_as_a_Service_solutions__can_help___0_Layer0_0_MEMBER_10_FILL"/>
</g>

<g transform="matrix( 2.815704345703125, 0, 0, 2.832611083984375, -1.85,27.6) ">
<use xlink:href="#IT_640x480_psd_Asset_3_ManagedWiFi_IT_Research_DM8_2_Network_as_a_Service_solutions__can_help___0_Layer0_0_MEMBER_11_FILL"/>
</g>

<g transform="matrix( 2.815704345703125, 0, 0, 2.832611083984375, -1.85,27.6) ">
<use xlink:href="#IT_640x480_psd_Asset_3_ManagedWiFi_IT_Research_DM8_2_Network_as_a_Service_solutions__can_help___0_Layer0_0_MEMBER_12_FILL"/>
</g>

<g transform="matrix( 2.815704345703125, 0, 0, 2.832611083984375, -1.85,27.6) ">
<use xlink:href="#IT_640x480_psd_Asset_3_ManagedWiFi_IT_Research_DM8_2_Network_as_a_Service_solutions__can_help___0_Layer0_0_MEMBER_13_FILL"/>
</g>

<g transform="matrix( 2.815704345703125, 0, 0, 2.832611083984375, -1.85,27.6) ">
<use xlink:href="#IT_640x480_psd_Asset_3_ManagedWiFi_IT_Research_DM8_2_Network_as_a_Service_solutions__can_help___0_Layer0_0_MEMBER_14_FILL"/>
</g>

<g transform="matrix( 2.815704345703125, 0, 0, 2.832611083984375, -1.85,27.6) ">
<use xlink:href="#IT_640x480_psd_Asset_3_ManagedWiFi_IT_Research_DM8_2_Network_as_a_Service_solutions__can_help___0_Layer0_0_MEMBER_15_FILL"/>
</g>

<g transform="matrix( 2.815704345703125, 0, 0, 2.832611083984375, -1.85,27.6) ">
<use xlink:href="#IT_640x480_psd_Asset_3_ManagedWiFi_IT_Research_DM8_2_Network_as_a_Service_solutions__can_help___0_Layer0_0_MEMBER_16_FILL"/>
</g>

<g transform="matrix( 2.815704345703125, 0, 0, 2.832611083984375, -1.85,27.6) ">
<use xlink:href="#IT_640x480_psd_Asset_3_ManagedWiFi_IT_Research_DM8_2_Network_as_a_Service_solutions__can_help___0_Layer0_0_MEMBER_17_FILL"/>
</g>

<g transform="matrix( 2.815704345703125, 0, 0, 2.832611083984375, -1.85,27.6) ">
<use xlink:href="#IT_640x480_psd_Asset_3_ManagedWiFi_IT_Research_DM8_2_Network_as_a_Service_solutions__can_help___0_Layer0_0_MEMBER_18_FILL"/>
</g>

<g transform="matrix( 2.815704345703125, 0, 0, 2.832611083984375, -1.85,27.6) ">
<use xlink:href="#IT_640x480_psd_Asset_3_ManagedWiFi_IT_Research_DM8_2_Network_as_a_Service_solutions__can_help___0_Layer0_0_MEMBER_19_FILL"/>
</g>

<g transform="matrix( 2.815704345703125, 0, 0, 2.832611083984375, -1.85,27.6) ">
<use xlink:href="#IT_640x480_psd_Asset_3_ManagedWiFi_IT_Research_DM8_2_Network_as_a_Service_solutions__can_help___0_Layer0_0_MEMBER_20_FILL"/>
</g>

<g transform="matrix( 2.815704345703125, 0, 0, 2.832611083984375, -1.85,27.6) ">
<use xlink:href="#IT_640x480_psd_Asset_3_ManagedWiFi_IT_Research_DM8_2_Network_as_a_Service_solutions__can_help___0_Layer0_0_MEMBER_21_FILL"/>
</g>

<g transform="matrix( 2.815704345703125, 0, 0, 2.832611083984375, -1.85,27.6) ">
<use xlink:href="#IT_640x480_psd_Asset_3_ManagedWiFi_IT_Research_DM8_2_Network_as_a_Service_solutions__can_help___0_Layer0_0_MEMBER_22_FILL"/>
</g>

<g transform="matrix( 2.815704345703125, 0, 0, 2.832611083984375, -1.85,27.6) ">
<use xlink:href="#IT_640x480_psd_Asset_3_ManagedWiFi_IT_Research_DM8_2_Network_as_a_Service_solutions__can_help___0_Layer0_0_MEMBER_23_FILL"/>
</g>

<g transform="matrix( 2.815704345703125, 0, 0, 2.832611083984375, -1.85,27.6) ">
<use xlink:href="#IT_640x480_psd_Asset_3_ManagedWiFi_IT_Research_DM8_2_Network_as_a_Service_solutions__can_help___0_Layer0_0_MEMBER_24_FILL"/>
</g>

<g transform="matrix( 2.815704345703125, 0, 0, 2.832611083984375, -1.85,27.6) ">
<use xlink:href="#IT_640x480_psd_Asset_3_ManagedWiFi_IT_Research_DM8_2_Network_as_a_Service_solutions__can_help___0_Layer0_0_MEMBER_25_FILL"/>
</g>

<g transform="matrix( 2.815704345703125, 0, 0, 2.832611083984375, -1.85,27.6) ">
<use xlink:href="#IT_640x480_psd_Asset_3_ManagedWiFi_IT_Research_DM8_2_Network_as_a_Service_solutions__can_help___0_Layer0_0_MEMBER_26_FILL"/>
</g>

<g transform="matrix( 2.815704345703125, 0, 0, 2.832611083984375, -1.85,27.6) ">
<use xlink:href="#IT_640x480_psd_Asset_3_ManagedWiFi_IT_Research_DM8_2_Network_as_a_Service_solutions__can_help___0_Layer0_0_MEMBER_27_FILL"/>
</g>

<g transform="matrix( 2.815704345703125, 0, 0, 2.832611083984375, -1.85,27.6) ">
<use xlink:href="#IT_640x480_psd_Asset_3_ManagedWiFi_IT_Research_DM8_2_Network_as_a_Service_solutions__can_help___0_Layer0_0_MEMBER_28_FILL"/>
</g>

<g transform="matrix( 2.815704345703125, 0, 0, 2.832611083984375, -1.85,27.6) ">
<use xlink:href="#IT_640x480_psd_Asset_3_ManagedWiFi_IT_Research_DM8_2_Network_as_a_Service_solutions__can_help___0_Layer0_0_MEMBER_29_FILL"/>
</g>

<g transform="matrix( 2.815704345703125, 0, 0, 2.832611083984375, -1.85,27.6) ">
<use xlink:href="#IT_640x480_psd_Asset_3_ManagedWiFi_IT_Research_DM8_2_Network_as_a_Service_solutions__can_help___0_Layer0_0_MEMBER_30_FILL"/>
</g>

<g transform="matrix( 2.815704345703125, 0, 0, 2.832611083984375, -1.85,27.6) ">
<use xlink:href="#IT_640x480_psd_Asset_3_ManagedWiFi_IT_Research_DM8_2_Network_as_a_Service_solutions__can_help___0_Layer0_0_MEMBER_31_FILL"/>
</g>

<g transform="matrix( 2.815704345703125, 0, 0, 2.832611083984375, -1.85,27.6) ">
<use xlink:href="#IT_640x480_psd_Asset_3_ManagedWiFi_IT_Research_DM8_2_Network_as_a_Service_solutions__can_help___0_Layer0_0_MEMBER_32_FILL"/>
</g>

<g transform="matrix( 2.815704345703125, 0, 0, 2.832611083984375, -1.85,27.6) ">
<use xlink:href="#IT_640x480_psd_Asset_3_ManagedWiFi_IT_Research_DM8_2_Network_as_a_Service_solutions__can_help___0_Layer0_0_MEMBER_33_FILL"/>
</g>
</g>
</g>
</g>
</svg>
