
<svg xmlns="http://www.w3.org/2000/svg" version="1.1" xmlns:xlink="http://www.w3.org/1999/xlink" preserveAspectRatio="none" x="0px" y="0px" width="160px" height="600px" viewBox="0 0 160 600">
<defs>
<g id="IT_160x600_FR_psd_Asset_9_V10_2_Si_vous__envisagez__de_changer__votre_solution__de_r_seau__d_af_0_Layer0_0_MEMBER_0_FILL">
<path fill="#D82C26" stroke="none" d="
M 3.65 -4.95
Q 3.4 -5.2 3 -5.25
L 2.25 -5.4
Q 1.8 -5.4 1.4 -5.25 1 -5 0.8 -4.75 0.55 -4.35 0.55 -3.95 0.55 -3.45 0.75 -3.2
L 1.25 -2.8 2.75 -2.2 3.15 -1.85
Q 3.3 -1.6 3.3 -1.3 3.3 -0.75 2.95 -0.55 2.6 -0.25 2.1 -0.25 1.7 -0.25 1.25 -0.4 0.8 -0.6 0.6 -0.85
L 0.5 -0.4
Q 0.75 -0.15 1.2 0 1.65 0.15 2.1 0.15 2.55 0.15 2.9 -0.05 3.35 -0.2 3.55 -0.55 3.75 -0.8 3.75 -1.35 3.75 -1.85 3.55 -2.1
L 3.05 -2.5 1.55 -3.1
Q 1.25 -3.3 1.15 -3.45 1 -3.6 1 -3.95 1 -4.35 1.2 -4.55 1.35 -4.75 1.65 -4.9
L 2.25 -5
Q 2.6 -5 2.95 -4.85 3.15 -4.8 3.55 -4.55
L 3.65 -4.95 Z"/>
</g>

<g id="IT_160x600_FR_psd_Asset_9_V10_2_Si_vous__envisagez__de_changer__votre_solution__de_r_seau__d_af_0_Layer0_0_MEMBER_1_FILL">
<path fill="#D82C26" stroke="none" d="
M 5.1 -3.45
L 4.65 -3.45 4.65 0 5.1 0 5.1 -3.45
M 4.85 -5.15
L 4.65 -5.1 4.55 -4.85 4.65 -4.65 4.85 -4.55 5.1 -4.65 5.2 -4.85 5.1 -5.1 4.85 -5.15 Z"/>
</g>

<g id="IT_160x600_FR_psd_Asset_9_V10_2_Si_vous__envisagez__de_changer__votre_solution__de_r_seau__d_af_0_Layer0_0_MEMBER_2_FILL">
<path fill="#D82C26" stroke="none" d="
M 7.4 -3.45
L 6.9 -3.45 8.25 0 8.75 0 10.05 -3.45 9.6 -3.45 8.5 -0.45 7.4 -3.45 Z"/>
</g>

<g id="IT_160x600_FR_psd_Asset_9_V10_2_Si_vous__envisagez__de_changer__votre_solution__de_r_seau__d_af_0_Layer0_0_MEMBER_3_FILL">
<path fill="#D82C26" stroke="none" d="
M 12.1 -3.6
Q 11.65 -3.6 11.15 -3.35 10.75 -3.1 10.5 -2.7 10.25 -2.2 10.25 -1.75 10.25 -1.2 10.5 -0.8 10.7 -0.45 11.15 -0.15 11.65 0.1 12.1 0.1 12.65 0.1 13.05 -0.15 13.5 -0.35 13.7 -0.8 13.95 -1.1 13.95 -1.75 13.95 -2.3 13.7 -2.7 13.4 -3.15 13.05 -3.35 12.65 -3.6 12.1 -3.6
M 10.85 -2.5
Q 11.15 -2.9 11.35 -3 11.7 -3.2 12.1 -3.2 12.6 -3.2 12.85 -3 13.2 -2.85 13.35 -2.5 13.55 -2 13.55 -1.75 13.55 -1.5 13.35 -1 13.15 -0.65 12.85 -0.45 12.45 -0.25 12.1 -0.25 11.85 -0.25 11.35 -0.45
L 10.85 -1 10.7 -1.75 10.85 -2.5 Z"/>
</g>

<g id="IT_160x600_FR_psd_Asset_9_V10_2_Si_vous__envisagez__de_changer__votre_solution__de_r_seau__d_af_0_Layer0_0_MEMBER_4_FILL">
<path fill="#D82C26" stroke="none" d="
M 14.75 -1.35
Q 14.75 -0.75 15.05 -0.3 15.35 0.1 16.05 0.1 16.4 0.1 16.8 -0.15 17.15 -0.35 17.3 -0.75
L 17.35 0 17.8 0 17.75 -0.4 17.75 -3.45 17.3 -3.45 17.3 -1.75
Q 17.3 -1.25 17.15 -0.95 17 -0.65 16.75 -0.45 16.5 -0.25 16.15 -0.25 15.6 -0.25 15.4 -0.6 15.2 -0.95 15.2 -1.45
L 15.2 -3.45 14.75 -3.45 14.75 -1.35 Z"/>
</g>

<g id="IT_160x600_FR_psd_Asset_9_V10_2_Si_vous__envisagez__de_changer__votre_solution__de_r_seau__d_af_0_Layer0_0_MEMBER_5_FILL">
<path fill="#D82C26" stroke="none" d="
M 19.25 -3.1
Q 19.4 -3.25 19.75 -3.25
L 20.25 -3.15 20.65 -2.9 20.85 -3.2 20.35 -3.45
Q 20.15 -3.6 19.75 -3.6 19.5 -3.6 19.2 -3.45
L 18.75 -3.15
Q 18.6 -2.9 18.6 -2.6 18.6 -2.25 18.85 -2 19.2 -1.75 19.6 -1.65 20.1 -1.5 20.3 -1.3 20.55 -1.15 20.55 -0.9 20.55 -0.65 20.3 -0.4 20.1 -0.25 19.75 -0.25 19.15 -0.25 18.6 -0.65
L 18.55 -0.3 19.1 0 19.8 0.1 20.35 0
Q 20.7 -0.15 20.8 -0.35 20.95 -0.55 20.95 -0.9 20.95 -1.3 20.7 -1.55 20.6 -1.65 19.9 -1.95
L 19.2 -2.25
Q 19 -2.45 19 -2.65 19 -2.95 19.25 -3.1 Z"/>
</g>

<g id="IT_160x600_FR_psd_Asset_9_V10_2_Si_vous__envisagez__de_changer__votre_solution__de_r_seau__d_af_0_Layer0_0_MEMBER_6_FILL">
<path fill="#D82C26" stroke="none" d="
M 2.15 5.6
Q 1.65 5.6 1.25 5.85 0.85 6.1 0.65 6.5 0.4 6.9 0.4 7.4 0.4 7.9 0.65 8.4 0.95 8.85 1.3 9.05 1.7 9.3 2.2 9.3 3 9.3 3.6 8.85
L 3.5 8.45 2.95 8.8
Q 2.6 8.95 2.25 8.95 2 8.95 1.5 8.75 1.2 8.5 1 8.2 0.85 7.9 0.85 7.5
L 3.8 7.5 3.8 7.3
Q 3.8 6.95 3.6 6.45 3.35 6.05 3.05 5.85 2.75 5.6 2.15 5.6
M 1.45 6.15
Q 1.7 5.95 2.15 5.95 2.7 5.95 3 6.3 3.35 6.6 3.35 7.2
L 0.85 7.2
Q 0.85 6.9 1 6.6 1.25 6.25 1.45 6.15 Z"/>
</g>

<g id="IT_160x600_FR_psd_Asset_9_V10_2_Si_vous__envisagez__de_changer__votre_solution__de_r_seau__d_af_0_Layer0_0_MEMBER_7_FILL">
<path fill="#D82C26" stroke="none" d="
M 6.3 5.6
Q 5.9 5.6 5.55 5.85 5.2 6.05 5.05 6.45
L 5 5.7 4.6 5.7 4.6 9.2 5.05 9.2 5.05 7.4
Q 5.05 6.95 5.2 6.65 5.35 6.3 5.65 6.15 5.95 5.95 6.2 5.95 6.7 5.95 6.95 6.3 7.15 6.65 7.15 7.15
L 7.15 9.2 7.6 9.2 7.6 7.05
Q 7.6 6.45 7.3 6 6.9 5.6 6.3 5.6 Z"/>
</g>

<g id="IT_160x600_FR_psd_Asset_9_V10_2_Si_vous__envisagez__de_changer__votre_solution__de_r_seau__d_af_0_Layer0_0_MEMBER_8_FILL">
<path fill="#D82C26" stroke="none" d="
M 8 5.7
L 9.35 9.2 9.85 9.2 11.1 5.7 10.65 5.7 9.6 8.75 8.45 5.7 8 5.7 Z"/>
</g>

<g id="IT_160x600_FR_psd_Asset_9_V10_2_Si_vous__envisagez__de_changer__votre_solution__de_r_seau__d_af_0_Layer0_0_MEMBER_9_FILL">
<path fill="#D82C26" stroke="none" d="
M 12.15 5.7
L 11.7 5.7 11.7 9.2 12.15 9.2 12.15 5.7
M 12.15 4.55
L 12.2 4.3 12.15 4.1 11.9 4 11.7 4.1 11.6 4.3 11.7 4.55 11.9 4.65 12.15 4.55 Z"/>
</g>

<g id="IT_160x600_FR_psd_Asset_9_V10_2_Si_vous__envisagez__de_changer__votre_solution__de_r_seau__d_af_0_Layer0_0_MEMBER_10_FILL">
<path fill="#D82C26" stroke="none" d="
M 13.6 5.7
Q 13.3 5.85 13.15 6.05 13 6.3 13 6.55 13 6.95 13.25 7.15 13.4 7.3 14 7.55
L 14.7 7.85
Q 14.95 8 14.95 8.3 14.95 8.6 14.7 8.75 14.5 8.95 14.15 8.95 13.45 8.95 13 8.5
L 12.95 8.9 13.45 9.15 14.15 9.3
Q 14.45 9.3 14.75 9.15 14.9 9.1 15.2 8.8 15.35 8.6 15.35 8.25 15.35 7.9 15.1 7.65 14.75 7.35 14.3 7.25
L 13.6 6.95
Q 13.4 6.8 13.4 6.55 13.4 6.25 13.6 6.1 13.85 5.95 14.15 5.95
L 14.65 6.05 15.05 6.3 15.25 5.95 14.75 5.7 14.15 5.6 13.6 5.7 Z"/>
</g>

<g id="IT_160x600_FR_psd_Asset_9_V10_2_Si_vous__envisagez__de_changer__votre_solution__de_r_seau__d_af_0_Layer0_0_MEMBER_11_FILL">
<path fill="#D82C26" stroke="none" d="
M 16.8 6.05
L 17.35 5.95
Q 17.75 5.95 18.1 6.2 18.35 6.45 18.35 6.9
L 18.35 7.1 17.95 7.1
Q 15.95 7.1 15.95 8.25 15.95 8.8 16.25 9 16.65 9.3 17.05 9.3 17.35 9.3 17.85 9.1 18.2 8.8 18.35 8.5
L 18.4 8.85 18.4 9.2 18.8 9.2 18.75 6.95
Q 18.75 6.25 18.4 5.95 18.1 5.6 17.45 5.6
L 16.7 5.7 16.15 6.05 16.25 6.4 16.8 6.05
M 18 7.4
L 18.35 7.4 18.35 7.75
Q 18.35 8 18.2 8.3 18.15 8.6 17.8 8.75 17.55 8.95 17.15 8.95 16.8 8.95 16.6 8.75 16.35 8.6 16.35 8.25 16.35 7.4 18 7.4 Z"/>
</g>

<g id="IT_160x600_FR_psd_Asset_9_V10_2_Si_vous__envisagez__de_changer__votre_solution__de_r_seau__d_af_0_Layer0_0_MEMBER_12_FILL">
<path fill="#D82C26" stroke="none" d="
M 21.3 5.6
Q 20.8 5.6 20.4 5.85 20.05 6.05 19.8 6.5 19.55 7 19.55 7.45 19.55 7.95 19.8 8.35 20 8.75 20.4 9 20.8 9.25 21.3 9.25 21.75 9.25 22.15 9 22.55 8.75 22.7 8.4
L 22.75 8.4 22.75 9.15
Q 22.75 9.75 22.4 10.25 22 10.65 21.3 10.65
L 20.55 10.5 19.85 10.2 19.8 10.6 20.5 10.9 21.3 11
Q 22.25 11 22.7 10.5 23.15 10 23.15 9.15
L 23.2 5.7 22.75 5.7 22.75 6.45 22.7 6.45
Q 22.55 6.1 22.15 5.85 21.75 5.6 21.3 5.6
M 21.35 5.95
Q 21.65 5.95 22.05 6.15 22.4 6.35 22.55 6.7 22.75 6.95 22.75 7.45 22.75 7.9 22.55 8.15 22.4 8.5 22.05 8.7 21.65 8.9 21.35 8.9 21.05 8.9 20.65 8.7 20.35 8.45 20.15 8.15 20 7.85 20 7.45 20 7.1 20.15 6.7
L 20.65 6.15
Q 21.05 5.95 21.35 5.95 Z"/>
</g>

<g id="IT_160x600_FR_psd_Asset_9_V10_2_Si_vous__envisagez__de_changer__votre_solution__de_r_seau__d_af_0_Layer0_0_MEMBER_13_FILL">
<path fill="#D82C26" stroke="none" d="
M 26.6 5.85
Q 26.3 5.6 25.7 5.6 25.25 5.6 24.85 5.85 24.4 6.05 24.2 6.5 24 6.85 24 7.4 24 8 24.2 8.4 24.45 8.8 24.85 9.05 25.25 9.3 25.75 9.3 26.55 9.3 27.15 8.85
L 27.1 8.45
Q 26.9 8.65 26.5 8.8 26.2 8.95 25.8 8.95 25.5 8.95 25.1 8.75 24.7 8.45 24.6 8.2 24.4 7.8 24.4 7.5
L 27.35 7.5 27.35 7.3
Q 27.35 6.8 27.15 6.45 27 6.1 26.6 5.85
M 24.4 7.2
L 24.6 6.6
Q 24.85 6.25 25.05 6.15 25.25 5.95 25.7 5.95 26.25 5.95 26.6 6.3 26.95 6.65 26.95 7.2
L 24.4 7.2 Z"/>
</g>

<g id="IT_160x600_FR_psd_Asset_9_V10_2_Si_vous__envisagez__de_changer__votre_solution__de_r_seau__d_af_0_Layer0_0_MEMBER_14_FILL">
<path fill="#D82C26" stroke="none" d="
M 30.45 6.05
L 30.45 5.7 27.95 5.7 27.85 6.05 29.95 6.05 27.8 8.85 27.8 9.2 30.55 9.2 30.6 8.8 28.35 8.8 30.45 6.05 Z"/>
</g>

<g id="IT_160x600_FR_psd_Asset_9_V10_2_Si_vous__envisagez__de_changer__votre_solution__de_r_seau__d_af_0_Layer0_0_MEMBER_15_FILL">
<path fill="#D82C26" stroke="none" d="
M 4 12.65
L 3.6 12.75 3.6 15.65 3.55 15.65
Q 3.4 15.25 3 15 2.65 14.8 2.15 14.8 1.55 14.8 1.25 15.05 0.85 15.3 0.65 15.7 0.4 16.1 0.4 16.6 0.4 17.05 0.65 17.55 0.85 17.95 1.25 18.2 1.65 18.45 2.15 18.45 2.65 18.45 3 18.25 3.35 18.05 3.6 17.6
L 3.65 18.35 4.05 18.35 4 12.65
M 1.5 15.35
Q 1.75 15.15 2.2 15.15 2.65 15.15 2.9 15.35 3.25 15.55 3.4 15.9 3.6 16.15 3.6 16.6 3.6 17.1 3.4 17.35 3.25 17.7 2.9 17.9 2.5 18.1 2.2 18.1 1.75 18.1 1.5 17.9 1.2 17.65 1 17.35 0.85 17.05 0.85 16.6 0.85 16.2 1 15.9 1.2 15.6 1.5 15.35 Z"/>
</g>

<g id="IT_160x600_FR_psd_Asset_9_V10_2_Si_vous__envisagez__de_changer__votre_solution__de_r_seau__d_af_0_Layer0_0_MEMBER_16_FILL">
<path fill="#D82C26" stroke="none" d="
M 6.55 14.8
Q 6.05 14.8 5.7 15 5.35 15.2 5.1 15.65 4.85 16.15 4.85 16.6 4.85 17.15 5.1 17.55 5.3 17.95 5.7 18.2 6.1 18.45 6.65 18.45 7.5 18.45 8 18
L 7.95 17.65 7.4 18 6.65 18.1
Q 6.2 18.1 5.95 17.9 5.75 17.8 5.45 17.4
L 5.25 16.7 8.2 16.7 8.2 16.5
Q 8.2 16.05 8.05 15.65 7.85 15.25 7.45 15 7.1 14.8 6.55 14.8
M 6.55 15.1
Q 7.1 15.1 7.45 15.45 7.8 15.8 7.8 16.35
L 5.3 16.35 5.45 15.8
Q 5.6 15.55 5.9 15.3 6.3 15.1 6.55 15.1 Z"/>
</g>

<g id="IT_160x600_FR_psd_Asset_9_V10_2_Si_vous__envisagez__de_changer__votre_solution__de_r_seau__d_af_0_Layer0_0_MEMBER_17_FILL">
<path fill="#D82C26" stroke="none" d="
M 11.95 14.8
Q 11.4 14.8 11.05 15 10.75 15.15 10.35 15.65 10.15 16.05 10.15 16.6 10.15 17.2 10.35 17.6
L 11 18.25
Q 11.4 18.45 11.95 18.45
L 12.6 18.35 13.15 18.05 13.05 17.7 12.6 18 12 18.1
Q 11.65 18.1 11.25 17.9 10.85 17.6 10.75 17.35 10.6 17.05 10.6 16.6 10.6 16.2 10.75 15.9 10.85 15.65 11.25 15.35 11.5 15.15 11.95 15.15
L 12.5 15.25
Q 12.8 15.35 12.95 15.55
L 13.15 15.2
Q 12.9 14.95 12.6 14.9 12.4 14.8 11.95 14.8 Z"/>
</g>

<g id="IT_160x600_FR_psd_Asset_9_V10_2_Si_vous__envisagez__de_changer__votre_solution__de_r_seau__d_af_0_Layer0_0_MEMBER_18_FILL">
<path fill="#D82C26" stroke="none" d="
M 16.45 15.2
Q 16.2 14.8 15.5 14.8 15 14.8 14.75 15 14.4 15.2 14.25 15.6
L 14.25 12.7 13.8 12.75 13.8 18.35 14.25 18.35 14.25 16.65
Q 14.25 16.15 14.4 15.85 14.55 15.5 14.8 15.35 15 15.15 15.35 15.15 15.9 15.15 16.1 15.5 16.3 15.75 16.3 16.35
L 16.3 18.35 16.75 18.35 16.75 16.25
Q 16.75 15.6 16.45 15.2 Z"/>
</g>

<g id="IT_160x600_FR_psd_Asset_9_V10_2_Si_vous__envisagez__de_changer__votre_solution__de_r_seau__d_af_0_Layer0_0_MEMBER_19_FILL">
<path fill="#D82C26" stroke="none" d="
M 20.4 18.35
L 20.35 16.1
Q 20.35 15.45 20 15.1 19.7 14.8 19.05 14.8 18.55 14.8 18.3 14.9 18.15 14.95 17.75 15.2
L 17.85 15.55 18.4 15.25
Q 18.6 15.15 18.95 15.15 19.45 15.15 19.7 15.35 19.95 15.7 19.95 16.05
L 19.95 16.25 19.55 16.25
Q 17.55 16.25 17.55 17.4 17.55 17.9 17.85 18.2 18.25 18.45 18.65 18.45 19.1 18.45 19.45 18.25 19.8 18.1 19.95 17.7
L 20 18.05 20 18.35 20.4 18.35
M 19.95 16.55
L 19.95 16.9
Q 19.95 17.2 19.8 17.5 19.7 17.8 19.4 17.95 19 18.15 18.75 18.15 18.5 18.15 18.2 17.95 17.95 17.8 17.95 17.4 17.95 16.55 19.6 16.55
L 19.95 16.55 Z"/>
</g>

<g id="IT_160x600_FR_psd_Asset_9_V10_2_Si_vous__envisagez__de_changer__votre_solution__de_r_seau__d_af_0_Layer0_0_MEMBER_20_FILL">
<path fill="#D82C26" stroke="none" d="
M 24.05 15.2
Q 23.8 14.8 23.1 14.8 22.65 14.8 22.3 15 22.05 15.2 21.85 15.65
L 21.8 15.65 21.8 14.9 21.35 14.9 21.4 18.35 21.85 18.35 21.85 16.6
Q 21.85 16.2 22 15.8
L 22.4 15.3
Q 22.7 15.15 23 15.15 23.55 15.15 23.7 15.5 23.95 15.85 23.95 16.35
L 23.95 18.35 24.35 18.35 24.35 16.25
Q 24.35 15.65 24.05 15.2 Z"/>
</g>

<g id="IT_160x600_FR_psd_Asset_9_V10_2_Si_vous__envisagez__de_changer__votre_solution__de_r_seau__d_af_0_Layer0_0_MEMBER_21_FILL">
<path fill="#D82C26" stroke="none" d="
M 28.8 14.9
L 28.4 14.9 28.35 15.65
Q 28.15 15.25 27.75 15 27.4 14.8 26.9 14.8 26.4 14.8 26 15.05 25.6 15.3 25.4 15.7 25.2 16.05 25.2 16.6 25.2 17.15 25.4 17.55 25.65 18 26 18.2 26.35 18.4 26.9 18.4 27.4 18.4 27.75 18.2 28.15 18 28.35 17.6
L 28.35 18.3
Q 28.35 19.05 28 19.4 27.65 19.8 26.9 19.8
L 26.15 19.7 25.5 19.35 25.4 19.75
Q 25.7 19.95 26.1 20.05 26.5 20.2 26.95 20.2 27.85 20.2 28.3 19.65 28.75 19.2 28.75 18.3
L 28.8 14.9
M 27 15.15
Q 27.35 15.15 27.7 15.35 27.95 15.45 28.2 15.9 28.35 16.2 28.35 16.6
L 28.2 17.35
Q 27.9 17.75 27.7 17.85 27.35 18.05 27 18.05 26.5 18.05 26.25 17.85 26 17.7 25.8 17.35 25.6 17 25.6 16.6 25.6 16.15 25.8 15.9 25.9 15.6 26.25 15.35 26.5 15.15 27 15.15 Z"/>
</g>

<g id="IT_160x600_FR_psd_Asset_9_V10_2_Si_vous__envisagez__de_changer__votre_solution__de_r_seau__d_af_0_Layer0_0_MEMBER_22_FILL">
<path fill="#D82C26" stroke="none" d="
M 29.6 16.6
Q 29.6 17.15 29.85 17.55 30.05 17.95 30.45 18.2 30.85 18.45 31.4 18.45 32.25 18.45 32.75 18
L 32.7 17.65 32.15 18 31.4 18.1
Q 30.95 18.1 30.7 17.9 30.5 17.8 30.2 17.4
L 30 16.7 32.95 16.7 32.95 16.5
Q 32.95 16.05 32.8 15.65 32.6 15.25 32.2 15 31.85 14.8 31.3 14.8 30.8 14.8 30.45 15 30.1 15.2 29.85 15.65 29.6 16.15 29.6 16.6
M 30.05 16.35
L 30.2 15.8
Q 30.35 15.55 30.65 15.3 31.05 15.1 31.3 15.1 31.85 15.1 32.2 15.45 32.55 15.8 32.55 16.35
L 30.05 16.35 Z"/>
</g>

<g id="IT_160x600_FR_psd_Asset_9_V10_2_Si_vous__envisagez__de_changer__votre_solution__de_r_seau__d_af_0_Layer0_0_MEMBER_23_FILL">
<path fill="#D82C26" stroke="none" d="
M 35.55 15.2
L 35.6 14.85 35.25 14.8
Q 34.9 14.8 34.65 15 34.3 15.25 34.25 15.65
L 34.2 15.65 34.2 14.9 33.75 14.9 33.8 18.35 34.25 18.35 34.25 16.65
Q 34.25 16 34.5 15.6 34.75 15.15 35.2 15.15
L 35.55 15.2 Z"/>
</g>

<g id="IT_160x600_FR_psd_Asset_9_V10_2_Si_vous__envisagez__de_changer__votre_solution__de_r_seau__d_af_0_Layer0_0_MEMBER_24_FILL">
<path fill="#D82C26" stroke="none" d="
M 0.05 24.05
L 1.4 27.55 1.9 27.55 3.2 24.05 2.75 24.05 1.65 27.1 0.55 24.05 0.05 24.05 Z"/>
</g>

<g id="IT_160x600_FR_psd_Asset_9_V10_2_Si_vous__envisagez__de_changer__votre_solution__de_r_seau__d_af_0_Layer0_0_MEMBER_25_FILL">
<path fill="#D82C26" stroke="none" d="
M 6.2 24.2
Q 5.7 23.95 5.25 23.95 4.8 23.95 4.3 24.2 3.85 24.5 3.65 24.85 3.4 25.25 3.4 25.8 3.4 26.25 3.65 26.75 3.9 27.15 4.3 27.4 4.8 27.65 5.25 27.65 5.7 27.65 6.2 27.4 6.55 27.2 6.85 26.75 7.1 26.4 7.1 25.8 7.1 25.15 6.85 24.85 6.65 24.4 6.2 24.2
M 5.25 24.35
Q 5.7 24.35 6 24.5 6.35 24.75 6.5 25.05 6.65 25.45 6.65 25.8
L 6.5 26.55
Q 6.35 26.9 6 27.05 5.75 27.25 5.25 27.25 4.75 27.25 4.5 27.05 4.3 26.95 4 26.55
L 3.85 25.8
Q 3.85 25.45 4 25.05
L 4.5 24.5
Q 4.8 24.35 5.25 24.35 Z"/>
</g>

<g id="IT_160x600_FR_psd_Asset_9_V10_2_Si_vous__envisagez__de_changer__votre_solution__de_r_seau__d_af_0_Layer0_0_MEMBER_26_FILL">
<path fill="#D82C26" stroke="none" d="
M 7.4 24.05
L 7.3 24.4 7.95 24.4 7.95 26.7
Q 7.95 27.1 8.2 27.35 8.4 27.6 8.75 27.6
L 9.15 27.55 9.5 27.45 9.45 27.1 8.9 27.25
Q 8.65 27.25 8.55 27.1 8.4 26.95 8.4 26.65
L 8.4 24.4 9.3 24.4 9.4 24.05 8.4 24.05 8.4 23.05 7.95 23.25 7.95 24.05 7.4 24.05 Z"/>
</g>

<g id="IT_160x600_FR_psd_Asset_9_V10_2_Si_vous__envisagez__de_changer__votre_solution__de_r_seau__d_af_0_Layer0_0_MEMBER_27_FILL">
<path fill="#D82C26" stroke="none" d="
M 10.5 24.05
L 10.05 24.05 10.1 27.55 10.55 27.55 10.55 25.8
Q 10.55 25.25 10.8 24.75 11.1 24.35 11.5 24.35
L 11.85 24.4 11.9 24 11.55 23.95
Q 11.3 23.95 10.95 24.2 10.6 24.45 10.55 24.8
L 10.5 24.8 10.5 24.05 Z"/>
</g>

<g id="IT_160x600_FR_psd_Asset_9_V10_2_Si_vous__envisagez__de_changer__votre_solution__de_r_seau__d_af_0_Layer0_0_MEMBER_28_FILL">
<path fill="#D82C26" stroke="none" d="
M 13.8 23.95
Q 13.3 23.95 12.9 24.2 12.5 24.45 12.3 24.85 12.05 25.25 12.05 25.8 12.05 26.25 12.3 26.75 12.6 27.2 12.95 27.4 13.35 27.65 13.85 27.65 14.65 27.65 15.25 27.2
L 15.15 26.85 14.6 27.15 13.9 27.3
Q 13.65 27.3 13.15 27.1
L 12.65 26.6 12.5 25.85 15.45 25.85 15.45 25.7
Q 15.45 25.15 15.25 24.8 15 24.4 14.7 24.2 14.3 23.95 13.8 23.95
M 13.8 24.3
Q 14.35 24.3 14.7 24.65 15 24.95 15 25.55
L 12.5 25.55
Q 12.5 25.25 12.65 25 12.85 24.65 13.1 24.5 13.35 24.3 13.8 24.3 Z"/>
</g>

<g id="IT_160x600_FR_psd_Asset_9_V10_2_Si_vous__envisagez__de_changer__votre_solution__de_r_seau__d_af_0_Layer0_0_MEMBER_29_FILL">
<path fill="#D82C26" stroke="none" d="
M 18 24.05
Q 17.7 24.25 17.6 24.4 17.4 24.6 17.4 24.9 17.4 25.35 17.65 25.5 17.9 25.75 18.4 25.9
L 19.15 26.2
Q 19.35 26.4 19.35 26.65 19.35 27 19.1 27.1 18.9 27.3 18.6 27.3 17.95 27.3 17.4 26.85
L 17.35 27.25 17.9 27.55 18.6 27.65
Q 18.95 27.65 19.15 27.5 19.45 27.4 19.6 27.15 19.75 26.95 19.75 26.6 19.75 26.2 19.5 26 19.25 25.75 18.7 25.6
L 18 25.3
Q 17.8 25.1 17.8 24.9 17.8 24.6 18.05 24.45 18.3 24.3 18.6 24.3
L 19.05 24.4 19.5 24.65 19.65 24.35 19.2 24.05 18.55 23.95 18 24.05 Z"/>
</g>

<g id="IT_160x600_FR_psd_Asset_9_V10_2_Si_vous__envisagez__de_changer__votre_solution__de_r_seau__d_af_0_Layer0_0_MEMBER_30_FILL">
<path fill="#D82C26" stroke="none" d="
M 23.1 24.2
Q 22.7 23.95 22.15 23.95 21.7 23.95 21.2 24.2 20.85 24.4 20.55 24.85 20.3 25.25 20.3 25.8 20.3 26.25 20.55 26.75 20.95 27.25 21.2 27.4 21.7 27.65 22.15 27.65 22.7 27.65 23.1 27.4 23.4 27.25 23.8 26.75 24 26.35 24 25.8 24 25.2 23.8 24.85 23.5 24.4 23.1 24.2
M 22.15 24.35
Q 22.6 24.35 22.9 24.5 23.2 24.7 23.4 25.05 23.6 25.4 23.6 25.8 23.6 26.2 23.4 26.55 23.2 26.95 22.9 27.05 22.65 27.25 22.15 27.25 21.75 27.25 21.4 27.05 21.15 26.9 20.95 26.55 20.75 26.2 20.75 25.8 20.75 25.4 20.95 25.05 21.1 24.7 21.4 24.5
L 22.15 24.35 Z"/>
</g>

<g id="IT_160x600_FR_psd_Asset_9_V10_2_Si_vous__envisagez__de_changer__votre_solution__de_r_seau__d_af_0_Layer0_0_MEMBER_31_FILL">
<path fill="#D82C26" stroke="none" d="
M 25 27.3
Q 25.15 27.5 25.4 27.6
L 25.6 27.25 25.35 27.05 25.3 26.65 25.3 21.9 24.85 21.95 24.85 26.75
Q 24.85 27.15 25 27.3 Z"/>
</g>

<g id="IT_160x600_FR_psd_Asset_9_V10_2_Si_vous__envisagez__de_changer__votre_solution__de_r_seau__d_af_0_Layer0_0_MEMBER_32_FILL">
<path fill="#D82C26" stroke="none" d="
M 26.8 24.05
L 26.35 24.05 26.35 26.2
Q 26.35 26.85 26.65 27.2 26.95 27.65 27.6 27.65 28 27.65 28.4 27.4 28.75 27.1 28.9 26.8
L 28.95 27.55 29.4 27.55 29.3 26.75 29.3 24.05 28.9 24.05 28.9 25.8
Q 28.9 26.25 28.75 26.6 28.55 26.95 28.3 27.1 28 27.3 27.7 27.3 27.25 27.3 27 26.95 26.8 26.6 26.8 26.05
L 26.8 24.05 Z"/>
</g>

<g id="IT_160x600_FR_psd_Asset_9_V10_2_Si_vous__envisagez__de_changer__votre_solution__de_r_seau__d_af_0_Layer0_0_MEMBER_33_FILL">
<path fill="#D82C26" stroke="none" d="
M 30 24.05
L 29.9 24.4 30.55 24.4 30.55 26.7
Q 30.55 27.1 30.8 27.35 30.95 27.6 31.35 27.6
L 31.75 27.55 32.1 27.45 32.05 27.1
Q 31.75 27.25 31.5 27.25 31.25 27.25 31.15 27.1 31 26.95 31 26.65
L 31 24.4 31.9 24.4 32 24.05 31 24.05 31 23.05 30.55 23.25 30.55 24.05 30 24.05 Z"/>
</g>

<g id="IT_160x600_FR_psd_Asset_9_V10_2_Si_vous__envisagez__de_changer__votre_solution__de_r_seau__d_af_0_Layer0_0_MEMBER_34_FILL">
<path fill="#D82C26" stroke="none" d="
M 33.15 24.05
L 32.7 24.05 32.7 27.55 33.15 27.55 33.15 24.05
M 32.7 22.9
L 32.9 23 33.1 22.9
Q 33.2 22.85 33.2 22.65 33.2 22.5 33.1 22.45
L 32.9 22.35 32.7 22.45 32.6 22.65 32.7 22.9 Z"/>
</g>

<g id="IT_160x600_FR_psd_Asset_9_V10_2_Si_vous__envisagez__de_changer__votre_solution__de_r_seau__d_af_0_Layer0_0_MEMBER_35_FILL">
<path fill="#D82C26" stroke="none" d="
M 36.75 24.2
Q 36.25 23.95 35.8 23.95 35.35 23.95 34.85 24.2 34.4 24.4 34.2 24.85 33.95 25.25 33.95 25.8 33.95 26.25 34.2 26.75 34.5 27.2 34.85 27.4 35.35 27.65 35.8 27.65 36.25 27.65 36.75 27.4 37.1 27.2 37.4 26.75 37.65 26.25 37.65 25.8 37.65 25.25 37.4 24.85 37.2 24.4 36.75 24.2
M 35.8 24.35
Q 36.25 24.35 36.55 24.5
L 37.05 25.05
Q 37.2 25.45 37.2 25.8
L 37.05 26.55
Q 36.9 26.9 36.55 27.05 36.3 27.25 35.8 27.25 35.3 27.25 35.05 27.05 34.7 26.9 34.55 26.55
L 34.4 25.8
Q 34.4 25.45 34.55 25.05 34.7 24.75 35.05 24.5 35.35 24.35 35.8 24.35 Z"/>
</g>

<g id="IT_160x600_FR_psd_Asset_9_V10_2_Si_vous__envisagez__de_changer__votre_solution__de_r_seau__d_af_0_Layer0_0_MEMBER_36_FILL">
<path fill="#D82C26" stroke="none" d="
M 41.45 25.4
Q 41.45 24.8 41.15 24.4 40.85 23.95 40.15 23.95 39.8 23.95 39.4 24.2 39.05 24.5 38.9 24.8
L 38.85 24.05 38.45 24.05 38.5 27.55 38.95 27.55 38.95 25.75
Q 38.95 25.3 39.1 25 39.3 24.6 39.5 24.5 39.75 24.35 40.1 24.35 40.6 24.35 40.8 24.65 41 25 41 25.55
L 41 27.55 41.45 27.55 41.45 25.4 Z"/>
</g>

<g id="IT_160x600_FR_psd_Asset_9_V10_2_Si_vous__envisagez__de_changer__votre_solution__de_r_seau__d_af_0_Layer0_0_MEMBER_37_FILL">
<path fill="#D82C26" stroke="none" d="
M 3.55 34
Q 3.4 33.6 3 33.35 2.65 33.15 2.15 33.15 1.55 33.15 1.25 33.4 0.85 33.65 0.65 34.05 0.4 34.55 0.4 35 0.4 35.5 0.65 35.9 0.85 36.3 1.25 36.55 1.55 36.8 2.15 36.8 2.65 36.8 3 36.6 3.4 36.35 3.6 35.95
L 3.65 36.7 4.05 36.7 4 31 3.6 31.1 3.6 34 3.55 34
M 1.5 33.7
Q 1.75 33.5 2.2 33.5 2.65 33.5 2.9 33.7 3.25 33.9 3.4 34.25 3.6 34.5 3.6 35 3.6 35.45 3.4 35.7 3.25 36.05 2.9 36.25 2.65 36.45 2.2 36.45 1.75 36.45 1.5 36.25 1.2 36 1 35.7 0.85 35.4 0.85 35 0.85 34.55 1 34.25 1.2 33.95 1.5 33.7 Z"/>
</g>

<g id="IT_160x600_FR_psd_Asset_9_V10_2_Si_vous__envisagez__de_changer__votre_solution__de_r_seau__d_af_0_Layer0_0_MEMBER_38_FILL">
<path fill="#D82C26" stroke="none" d="
M 5.7 33.35
Q 5.35 33.55 5.1 34 4.85 34.5 4.85 34.95 4.85 35.5 5.1 35.9 5.3 36.25 5.7 36.6 6.1 36.8 6.65 36.8 7.45 36.8 8 36.4
L 7.95 36 7.4 36.35 6.65 36.45
Q 6.2 36.45 5.95 36.25 5.75 36.15 5.45 35.75
L 5.25 35.05 8.2 35.05 8.2 34.85
Q 8.2 34.4 8.05 34 7.85 33.6 7.45 33.35 7.1 33.15 6.55 33.15 6.05 33.15 5.7 33.35
M 6.55 33.5
Q 7.15 33.5 7.45 33.8 7.8 34.15 7.8 34.7
L 5.3 34.7 5.45 34.15
Q 5.6 33.9 5.9 33.65 6.2 33.5 6.55 33.5 Z"/>
</g>

<g id="IT_160x600_FR_psd_Asset_9_V10_2_Si_vous__envisagez__de_changer__votre_solution__de_r_seau__d_af_0_Layer0_0_MEMBER_39_FILL">
<path fill="#D82C26" stroke="none" d="
M 10.8 33.25
L 10.4 33.25 10.4 36.7 10.85 36.7 10.85 35
Q 10.85 34.45 11.1 33.95 11.35 33.55 11.85 33.55
L 12.15 33.6 12.25 33.2 11.85 33.15
Q 11.5 33.15 11.25 33.35
L 10.85 34 10.8 33.25 Z"/>
</g>

<g id="IT_160x600_FR_psd_Asset_9_V10_2_Si_vous__envisagez__de_changer__votre_solution__de_r_seau__d_af_0_Layer0_0_MEMBER_40_FILL">
<path fill="#D82C26" stroke="none" d="
M 15 33.35
Q 14.65 33.15 14.1 33.15 13.6 33.15 13.25 33.35 12.9 33.55 12.6 34 12.4 34.4 12.4 34.95 12.4 35.55 12.6 35.9 12.75 36.2 13.25 36.6 13.6 36.8 14.15 36.8 14.9 36.8 15.55 36.4
L 15.45 36
Q 15.25 36.2 14.9 36.35
L 14.2 36.45
Q 13.75 36.45 13.5 36.25 13.2 36.15 13 35.75 12.8 35.5 12.8 35.05
L 15.75 35.05 15.75 34.85
Q 15.75 34.35 15.55 34 15.4 33.6 15 33.35
M 14.1 33.5
Q 14.65 33.5 15 33.8 15.35 34.25 15.35 34.7
L 12.8 34.7
Q 12.8 34.55 13 34.15
L 13.4 33.65
Q 13.7 33.5 14.1 33.5
M 14.55 31.45
L 13.8 32.55 14.15 32.55 15.05 31.45 14.55 31.45 Z"/>
</g>

<g id="IT_160x600_FR_psd_Asset_9_V10_2_Si_vous__envisagez__de_changer__votre_solution__de_r_seau__d_af_0_Layer0_0_MEMBER_41_FILL">
<path fill="#D82C26" stroke="none" d="
M 18.65 33.5
L 18.15 33.25
Q 17.95 33.15 17.5 33.15 17.15 33.15 16.95 33.25 16.7 33.35 16.55 33.55 16.35 33.85 16.35 34.1 16.35 34.45 16.6 34.7 16.85 34.9 17.35 35.05
L 18.1 35.4
Q 18.3 35.55 18.3 35.8 18.3 36.15 18.1 36.3 17.9 36.45 17.55 36.45 16.8 36.45 16.4 36.05
L 16.3 36.45
Q 16.6 36.65 16.85 36.7 17.05 36.8 17.55 36.8
L 18.15 36.7 18.55 36.35
Q 18.75 36.05 18.75 35.8 18.75 35.45 18.45 35.2 18.2 34.95 17.65 34.8
L 17 34.45
Q 16.8 34.4 16.8 34.05 16.8 33.8 17 33.65 17.25 33.5 17.55 33.5 17.85 33.5 18.05 33.6
L 18.45 33.8 18.65 33.5 Z"/>
</g>

<g id="IT_160x600_FR_psd_Asset_9_V10_2_Si_vous__envisagez__de_changer__votre_solution__de_r_seau__d_af_0_Layer0_0_MEMBER_42_FILL">
<path fill="#D82C26" stroke="none" d="
M 19.5 35.9
Q 19.65 36.2 20.15 36.6 20.5 36.8 21.05 36.8 21.8 36.8 22.45 36.4
L 22.4 36 21.8 36.35 21.1 36.45
Q 20.65 36.45 20.4 36.25 20.05 36.1 19.9 35.75 19.7 35.5 19.7 35.05
L 22.65 35.05 22.65 34.85
Q 22.65 34.35 22.45 34 22.3 33.6 21.9 33.35 21.55 33.15 21 33.15 20.5 33.15 20.15 33.35 19.8 33.55 19.5 34 19.3 34.4 19.3 34.95 19.3 35.55 19.5 35.9
M 19.7 34.7
Q 19.7 34.55 19.9 34.15 20 33.95 20.3 33.65 20.6 33.5 21 33.5 21.55 33.5 21.9 33.8 22.25 34.25 22.25 34.7
L 19.7 34.7 Z"/>
</g>

<g id="IT_160x600_FR_psd_Asset_9_V10_2_Si_vous__envisagez__de_changer__votre_solution__de_r_seau__d_af_0_Layer0_0_MEMBER_43_FILL">
<path fill="#D82C26" stroke="none" d="
M 24.7 33.15
Q 24.2 33.15 23.95 33.25
L 23.4 33.55 23.5 33.9 24.05 33.6
Q 24.25 33.5 24.6 33.5 25.1 33.5 25.35 33.7 25.6 34.05 25.6 34.45
L 25.6 34.65 25.2 34.65
Q 23.2 34.65 23.2 35.8 23.2 36.35 23.5 36.55 23.9 36.8 24.3 36.8 24.75 36.8 25.1 36.6 25.45 36.45 25.6 36.05
L 25.65 36.4 25.65 36.7 26.05 36.7 26 34.45
Q 26 33.8 25.65 33.45 25.3 33.15 24.7 33.15
M 25.05 36.3
Q 24.65 36.5 24.4 36.5 24.05 36.5 23.85 36.3 23.6 36.15 23.6 35.75 23.6 34.9 25.25 34.9
L 25.6 34.9 25.6 35.25
Q 25.6 35.55 25.45 35.85 25.3 36.2 25.05 36.3 Z"/>
</g>

<g id="IT_160x600_FR_psd_Asset_9_V10_2_Si_vous__envisagez__de_changer__votre_solution__de_r_seau__d_af_0_Layer0_0_MEMBER_44_FILL">
<path fill="#D82C26" stroke="none" d="
M 29.95 33.25
L 29.55 33.25 29.55 34.95
Q 29.55 35.45 29.4 35.75 29.3 36.05 28.95 36.3 28.75 36.45 28.35 36.45 27.85 36.45 27.65 36.1 27.45 35.85 27.45 35.25
L 27.45 33.25 27 33.25 27 35.35
Q 27 35.95 27.3 36.4 27.6 36.8 28.25 36.8 28.7 36.8 29.05 36.6 29.4 36.35 29.55 35.95
L 29.6 36.7 30.05 36.7 29.95 35.9 29.95 33.25 Z"/>
</g>

<g id="IT_160x600_FR_psd_Asset_9_V10_2_Si_vous__envisagez__de_changer__votre_solution__de_r_seau__d_af_0_Layer0_0_MEMBER_45_FILL">
<path fill="#D82C26" stroke="none" d="
M 2.15 42.3
Q 1.65 42.3 1.25 42.55 0.9 42.75 0.65 43.2 0.4 43.7 0.4 44.15 0.4 44.6 0.65 45.1 0.9 45.55 1.25 45.75 1.65 46 2.15 46 2.6 46 3 45.75 3.4 45.55 3.6 45.15
L 3.65 45.9 4.05 45.9 4 40.2 3.6 40.3 3.6 43.15 3.55 43.15
Q 3.4 42.8 3 42.55 2.6 42.3 2.15 42.3
M 1.5 42.9
Q 1.75 42.7 2.2 42.7 2.65 42.7 2.9 42.9 3.2 43.05 3.4 43.4 3.6 43.75 3.6 44.15 3.6 44.55 3.4 44.9 3.2 45.25 2.9 45.45 2.5 45.65 2.2 45.65 1.9 45.65 1.5 45.45
L 1 44.9
Q 0.85 44.55 0.85 44.15
L 1 43.4
Q 1.3 43 1.5 42.9 Z"/>
</g>

<g id="IT_160x600_FR_psd_Asset_9_V10_2_Si_vous__envisagez__de_changer__votre_solution__de_r_seau__d_af_0_Layer0_0_MEMBER_46_FILL">
<path fill="#D82C26" stroke="none" d="
M 5.75 40.75
L 5.5 40.65 5.25 40.75 5.2 41 5.25 41.2 5.5 41.3 5.3 41.8 5 42.2 5.15 42.3
Q 5.85 41.7 5.85 41.05
L 5.75 40.75 Z"/>
</g>

<g id="IT_160x600_FR_psd_Asset_9_V10_2_Si_vous__envisagez__de_changer__votre_solution__de_r_seau__d_af_0_Layer0_0_MEMBER_47_FILL">
<path fill="#D82C26" stroke="none" d="
M 7.55 42.65
Q 7.9 42.65 8.25 42.9 8.5 43.15 8.5 43.6
L 8.5 43.8 8.1 43.8
Q 6.1 43.8 6.1 44.95 6.1 45.45 6.45 45.75 6.8 46 7.2 46 7.5 46 8 45.8 8.35 45.6 8.5 45.2
L 8.55 45.2 8.55 45.6 8.6 45.9 9 45.9 8.9 45.15 8.9 43.65
Q 8.9 42.95 8.55 42.65 8.25 42.3 7.6 42.3 7.2 42.3 6.9 42.45 6.55 42.55 6.3 42.75
L 6.4 43.1
Q 6.6 42.9 6.95 42.8 7.25 42.65 7.55 42.65
M 8.5 44.1
L 8.5 44.45
Q 8.5 44.8 8.35 45 8.3 45.25 7.95 45.5 7.75 45.65 7.3 45.65 7 45.65 6.75 45.5 6.5 45.25 6.5 44.95 6.5 44.1 8.15 44.1
L 8.5 44.1 Z"/>
</g>

<g id="IT_160x600_FR_psd_Asset_9_V10_2_Si_vous__envisagez__de_changer__votre_solution__de_r_seau__d_af_0_Layer0_0_MEMBER_48_FILL">
<path fill="#D82C26" stroke="none" d="
M 9.55 42.4
L 9.45 42.75 10.15 42.75 10.15 45.9 10.6 45.9 10.6 42.75 12.4 42.75 12.4 45.9 12.85 45.9 12.85 42.75 13.65 42.75 13.75 42.4 12.85 42.4 12.85 41.4
Q 12.85 41.05 13 40.8 13.15 40.55 13.5 40.55
L 14.05 40.65 14.1 40.25 13.8 40.2 13.45 40.2
Q 12.95 40.2 12.7 40.5 12.4 40.8 12.4 41.4
L 12.4 42.4 10.6 42.4 10.6 41.4
Q 10.6 41.05 10.75 40.8 10.9 40.55 11.25 40.55
L 11.8 40.65 11.85 40.25 11.6 40.2 11.25 40.2
Q 10.75 40.2 10.45 40.5 10.15 40.8 10.15 41.4
L 10.15 42.4 9.55 42.4 Z"/>
</g>

<g id="IT_160x600_FR_psd_Asset_9_V10_2_Si_vous__envisagez__de_changer__votre_solution__de_r_seau__d_af_0_Layer0_0_MEMBER_49_FILL">
<path fill="#D82C26" stroke="none" d="
M 15.5 42.65
Q 15.95 42.65 16.2 42.9 16.45 43.1 16.45 43.6
L 16.45 43.8 16.05 43.8
Q 14.05 43.8 14.05 44.95 14.05 45.45 14.4 45.75 14.75 46 15.15 46 15.45 46 15.95 45.8 16.3 45.6 16.45 45.2
L 16.5 45.2 16.5 45.6 16.55 45.9 16.95 45.9 16.9 43.65
Q 16.9 43 16.55 42.65 16.2 42.3 15.55 42.3 15.15 42.3 14.85 42.45 14.5 42.55 14.25 42.75
L 14.4 43.1
Q 14.55 42.9 14.9 42.8 15.2 42.65 15.5 42.65
M 14.7 45.5
Q 14.5 45.3 14.5 44.95 14.5 44.1 16.1 44.1
L 16.45 44.1 16.45 44.45
Q 16.45 44.85 16.35 45 16.25 45.2 15.95 45.5 15.65 45.65 15.25 45.65 14.95 45.65 14.7 45.5 Z"/>
</g>

<g id="IT_160x600_FR_psd_Asset_9_V10_2_Si_vous__envisagez__de_changer__votre_solution__de_r_seau__d_af_0_Layer0_0_MEMBER_50_FILL">
<path fill="#D82C26" stroke="none" d="
M 18.35 42.4
L 17.9 42.4 17.9 45.9 18.35 45.9 18.35 42.4
M 18.15 41.35
L 18.35 41.25 18.45 41.05 18.35 40.8 18.15 40.7 17.9 40.8 17.8 41.05 17.9 41.25 18.15 41.35 Z"/>
</g>

<g id="IT_160x600_FR_psd_Asset_9_V10_2_Si_vous__envisagez__de_changer__votre_solution__de_r_seau__d_af_0_Layer0_0_MEMBER_51_FILL">
<path fill="#D82C26" stroke="none" d="
M 19.4 42.4
L 19.45 45.9 19.85 45.9 19.85 44.15
Q 19.85 43.55 20.15 43.15 20.4 42.7 20.85 42.7
L 21.15 42.75 21.25 42.4 20.9 42.3
Q 20.55 42.3 20.3 42.55 20 42.8 19.85 43.15
L 19.8 42.4 19.4 42.4 Z"/>
</g>

<g id="IT_160x600_FR_psd_Asset_9_V10_2_Si_vous__envisagez__de_changer__votre_solution__de_r_seau__d_af_0_Layer0_0_MEMBER_52_FILL">
<path fill="#D82C26" stroke="none" d="
M 22.25 42.55
Q 21.85 42.8 21.65 43.2 21.4 43.5 21.4 44.15 21.4 44.6 21.65 45.1 21.85 45.5 22.25 45.75 22.75 46 23.2 46 24.05 46 24.55 45.55
L 24.5 45.2
Q 24.1 45.45 23.95 45.5
L 23.2 45.65
Q 22.75 45.65 22.5 45.45
L 22 44.95 21.8 44.2 24.75 44.2 24.75 44.05
Q 24.75 43.6 24.6 43.15 24.4 42.8 24 42.55 23.6 42.3 23.1 42.3 22.65 42.3 22.25 42.55
M 23.1 42.65
Q 23.7 42.65 24 43 24.35 43.3 24.35 43.9
L 21.85 43.9
Q 21.85 43.65 22 43.35 22.15 43.1 22.45 42.85 22.7 42.65 23.1 42.65 Z"/>
</g>

<g id="IT_160x600_FR_psd_Asset_9_V10_2_Si_vous__envisagez__de_changer__votre_solution__de_r_seau__d_af_0_Layer0_0_MEMBER_53_FILL">
<path fill="#D82C26" stroke="none" d="
M 25.55 42.75
Q 25.4 43 25.4 43.25 25.4 43.75 25.65 43.85 25.9 44.1 26.4 44.25
L 27.1 44.55
Q 27.35 44.8 27.35 45 27.35 45.3 27.1 45.45 26.9 45.65 26.55 45.65 25.9 45.65 25.4 45.25
L 25.3 45.6 25.85 45.9 26.55 46 27.15 45.9 27.6 45.55
Q 27.75 45.35 27.75 45 27.75 44.6 27.5 44.35
L 26.7 43.95
Q 26.15 43.8 26 43.65 25.8 43.5 25.8 43.25 25.8 42.95 26 42.8 26.25 42.65 26.55 42.65
L 27.05 42.75 27.45 43 27.65 42.7 27.15 42.4 26.55 42.3 26 42.4
Q 25.7 42.55 25.55 42.75 Z"/>
</g>

<g id="IT_160x600_FR_psd_Asset_9_V10_2_Si_vous__envisagez__de_changer__votre_solution__de_r_seau__d_af_0_Layer0_0_MEMBER_54_FILL">
<path fill="#D82C26" stroke="none" d="
M 28.85 45.75
Q 28.85 45.8 28.7 46.25
L 28.35 46.65 28.55 46.75
Q 29.2 46.15 29.2 45.5
L 29.1 45.2 28.85 45.1 28.65 45.2
Q 28.55 45.25 28.55 45.45 28.55 45.6 28.65 45.65
L 28.85 45.75 Z"/>
</g>
</defs>

<g transform="matrix( 1, 0, 0, 1, -374,41) ">
<g transform="matrix( 1, 0, 0, 1, 369,0) ">
<g transform="matrix( 1, 0, 0, 1, 25,11) ">
<g transform="matrix( 2.815704345703125, 0, 0, 2.832611083984375, 0.15,15.6) ">
<use xlink:href="#IT_160x600_FR_psd_Asset_9_V10_2_Si_vous__envisagez__de_changer__votre_solution__de_r_seau__d_af_0_Layer0_0_MEMBER_0_FILL"/>
</g>

<g transform="matrix( 2.815704345703125, 0, 0, 2.832611083984375, 0.15,15.6) ">
<use xlink:href="#IT_160x600_FR_psd_Asset_9_V10_2_Si_vous__envisagez__de_changer__votre_solution__de_r_seau__d_af_0_Layer0_0_MEMBER_1_FILL"/>
</g>

<g transform="matrix( 2.815704345703125, 0, 0, 2.832611083984375, 0.15,15.6) ">
<use xlink:href="#IT_160x600_FR_psd_Asset_9_V10_2_Si_vous__envisagez__de_changer__votre_solution__de_r_seau__d_af_0_Layer0_0_MEMBER_2_FILL"/>
</g>

<g transform="matrix( 2.815704345703125, 0, 0, 2.832611083984375, 0.15,15.6) ">
<use xlink:href="#IT_160x600_FR_psd_Asset_9_V10_2_Si_vous__envisagez__de_changer__votre_solution__de_r_seau__d_af_0_Layer0_0_MEMBER_3_FILL"/>
</g>

<g transform="matrix( 2.815704345703125, 0, 0, 2.832611083984375, 0.15,15.6) ">
<use xlink:href="#IT_160x600_FR_psd_Asset_9_V10_2_Si_vous__envisagez__de_changer__votre_solution__de_r_seau__d_af_0_Layer0_0_MEMBER_4_FILL"/>
</g>

<g transform="matrix( 2.815704345703125, 0, 0, 2.832611083984375, 0.15,15.6) ">
<use xlink:href="#IT_160x600_FR_psd_Asset_9_V10_2_Si_vous__envisagez__de_changer__votre_solution__de_r_seau__d_af_0_Layer0_0_MEMBER_5_FILL"/>
</g>

<g transform="matrix( 2.815704345703125, 0, 0, 2.832611083984375, 0.15,15.6) ">
<use xlink:href="#IT_160x600_FR_psd_Asset_9_V10_2_Si_vous__envisagez__de_changer__votre_solution__de_r_seau__d_af_0_Layer0_0_MEMBER_6_FILL"/>
</g>

<g transform="matrix( 2.815704345703125, 0, 0, 2.832611083984375, 0.15,15.6) ">
<use xlink:href="#IT_160x600_FR_psd_Asset_9_V10_2_Si_vous__envisagez__de_changer__votre_solution__de_r_seau__d_af_0_Layer0_0_MEMBER_7_FILL"/>
</g>

<g transform="matrix( 2.815704345703125, 0, 0, 2.832611083984375, 0.15,15.6) ">
<use xlink:href="#IT_160x600_FR_psd_Asset_9_V10_2_Si_vous__envisagez__de_changer__votre_solution__de_r_seau__d_af_0_Layer0_0_MEMBER_8_FILL"/>
</g>

<g transform="matrix( 2.815704345703125, 0, 0, 2.832611083984375, 0.15,15.6) ">
<use xlink:href="#IT_160x600_FR_psd_Asset_9_V10_2_Si_vous__envisagez__de_changer__votre_solution__de_r_seau__d_af_0_Layer0_0_MEMBER_9_FILL"/>
</g>

<g transform="matrix( 2.815704345703125, 0, 0, 2.832611083984375, 0.15,15.6) ">
<use xlink:href="#IT_160x600_FR_psd_Asset_9_V10_2_Si_vous__envisagez__de_changer__votre_solution__de_r_seau__d_af_0_Layer0_0_MEMBER_10_FILL"/>
</g>

<g transform="matrix( 2.815704345703125, 0, 0, 2.832611083984375, 0.15,15.6) ">
<use xlink:href="#IT_160x600_FR_psd_Asset_9_V10_2_Si_vous__envisagez__de_changer__votre_solution__de_r_seau__d_af_0_Layer0_0_MEMBER_11_FILL"/>
</g>

<g transform="matrix( 2.815704345703125, 0, 0, 2.832611083984375, 0.15,15.6) ">
<use xlink:href="#IT_160x600_FR_psd_Asset_9_V10_2_Si_vous__envisagez__de_changer__votre_solution__de_r_seau__d_af_0_Layer0_0_MEMBER_12_FILL"/>
</g>

<g transform="matrix( 2.815704345703125, 0, 0, 2.832611083984375, 0.15,15.6) ">
<use xlink:href="#IT_160x600_FR_psd_Asset_9_V10_2_Si_vous__envisagez__de_changer__votre_solution__de_r_seau__d_af_0_Layer0_0_MEMBER_13_FILL"/>
</g>

<g transform="matrix( 2.815704345703125, 0, 0, 2.832611083984375, 0.15,15.6) ">
<use xlink:href="#IT_160x600_FR_psd_Asset_9_V10_2_Si_vous__envisagez__de_changer__votre_solution__de_r_seau__d_af_0_Layer0_0_MEMBER_14_FILL"/>
</g>

<g transform="matrix( 2.815704345703125, 0, 0, 2.832611083984375, 0.15,15.6) ">
<use xlink:href="#IT_160x600_FR_psd_Asset_9_V10_2_Si_vous__envisagez__de_changer__votre_solution__de_r_seau__d_af_0_Layer0_0_MEMBER_15_FILL"/>
</g>

<g transform="matrix( 2.815704345703125, 0, 0, 2.832611083984375, 0.15,15.6) ">
<use xlink:href="#IT_160x600_FR_psd_Asset_9_V10_2_Si_vous__envisagez__de_changer__votre_solution__de_r_seau__d_af_0_Layer0_0_MEMBER_16_FILL"/>
</g>

<g transform="matrix( 2.815704345703125, 0, 0, 2.832611083984375, 0.15,15.6) ">
<use xlink:href="#IT_160x600_FR_psd_Asset_9_V10_2_Si_vous__envisagez__de_changer__votre_solution__de_r_seau__d_af_0_Layer0_0_MEMBER_17_FILL"/>
</g>

<g transform="matrix( 2.815704345703125, 0, 0, 2.832611083984375, 0.15,15.6) ">
<use xlink:href="#IT_160x600_FR_psd_Asset_9_V10_2_Si_vous__envisagez__de_changer__votre_solution__de_r_seau__d_af_0_Layer0_0_MEMBER_18_FILL"/>
</g>

<g transform="matrix( 2.815704345703125, 0, 0, 2.832611083984375, 0.15,15.6) ">
<use xlink:href="#IT_160x600_FR_psd_Asset_9_V10_2_Si_vous__envisagez__de_changer__votre_solution__de_r_seau__d_af_0_Layer0_0_MEMBER_19_FILL"/>
</g>

<g transform="matrix( 2.815704345703125, 0, 0, 2.832611083984375, 0.15,15.6) ">
<use xlink:href="#IT_160x600_FR_psd_Asset_9_V10_2_Si_vous__envisagez__de_changer__votre_solution__de_r_seau__d_af_0_Layer0_0_MEMBER_20_FILL"/>
</g>

<g transform="matrix( 2.815704345703125, 0, 0, 2.832611083984375, 0.15,15.6) ">
<use xlink:href="#IT_160x600_FR_psd_Asset_9_V10_2_Si_vous__envisagez__de_changer__votre_solution__de_r_seau__d_af_0_Layer0_0_MEMBER_21_FILL"/>
</g>

<g transform="matrix( 2.815704345703125, 0, 0, 2.832611083984375, 0.15,15.6) ">
<use xlink:href="#IT_160x600_FR_psd_Asset_9_V10_2_Si_vous__envisagez__de_changer__votre_solution__de_r_seau__d_af_0_Layer0_0_MEMBER_22_FILL"/>
</g>

<g transform="matrix( 2.815704345703125, 0, 0, 2.832611083984375, 0.15,15.6) ">
<use xlink:href="#IT_160x600_FR_psd_Asset_9_V10_2_Si_vous__envisagez__de_changer__votre_solution__de_r_seau__d_af_0_Layer0_0_MEMBER_23_FILL"/>
</g>

<g transform="matrix( 2.815704345703125, 0, 0, 2.832611083984375, 0.15,15.6) ">
<use xlink:href="#IT_160x600_FR_psd_Asset_9_V10_2_Si_vous__envisagez__de_changer__votre_solution__de_r_seau__d_af_0_Layer0_0_MEMBER_24_FILL"/>
</g>

<g transform="matrix( 2.815704345703125, 0, 0, 2.832611083984375, 0.15,15.6) ">
<use xlink:href="#IT_160x600_FR_psd_Asset_9_V10_2_Si_vous__envisagez__de_changer__votre_solution__de_r_seau__d_af_0_Layer0_0_MEMBER_25_FILL"/>
</g>

<g transform="matrix( 2.815704345703125, 0, 0, 2.832611083984375, 0.15,15.6) ">
<use xlink:href="#IT_160x600_FR_psd_Asset_9_V10_2_Si_vous__envisagez__de_changer__votre_solution__de_r_seau__d_af_0_Layer0_0_MEMBER_26_FILL"/>
</g>

<g transform="matrix( 2.815704345703125, 0, 0, 2.832611083984375, 0.15,15.6) ">
<use xlink:href="#IT_160x600_FR_psd_Asset_9_V10_2_Si_vous__envisagez__de_changer__votre_solution__de_r_seau__d_af_0_Layer0_0_MEMBER_27_FILL"/>
</g>

<g transform="matrix( 2.815704345703125, 0, 0, 2.832611083984375, 0.15,15.6) ">
<use xlink:href="#IT_160x600_FR_psd_Asset_9_V10_2_Si_vous__envisagez__de_changer__votre_solution__de_r_seau__d_af_0_Layer0_0_MEMBER_28_FILL"/>
</g>

<g transform="matrix( 2.815704345703125, 0, 0, 2.832611083984375, 0.15,15.6) ">
<use xlink:href="#IT_160x600_FR_psd_Asset_9_V10_2_Si_vous__envisagez__de_changer__votre_solution__de_r_seau__d_af_0_Layer0_0_MEMBER_29_FILL"/>
</g>

<g transform="matrix( 2.815704345703125, 0, 0, 2.832611083984375, 0.15,15.6) ">
<use xlink:href="#IT_160x600_FR_psd_Asset_9_V10_2_Si_vous__envisagez__de_changer__votre_solution__de_r_seau__d_af_0_Layer0_0_MEMBER_30_FILL"/>
</g>

<g transform="matrix( 2.815704345703125, 0, 0, 2.832611083984375, 0.15,15.6) ">
<use xlink:href="#IT_160x600_FR_psd_Asset_9_V10_2_Si_vous__envisagez__de_changer__votre_solution__de_r_seau__d_af_0_Layer0_0_MEMBER_31_FILL"/>
</g>

<g transform="matrix( 2.815704345703125, 0, 0, 2.832611083984375, 0.15,15.6) ">
<use xlink:href="#IT_160x600_FR_psd_Asset_9_V10_2_Si_vous__envisagez__de_changer__votre_solution__de_r_seau__d_af_0_Layer0_0_MEMBER_32_FILL"/>
</g>

<g transform="matrix( 2.815704345703125, 0, 0, 2.832611083984375, 0.15,15.6) ">
<use xlink:href="#IT_160x600_FR_psd_Asset_9_V10_2_Si_vous__envisagez__de_changer__votre_solution__de_r_seau__d_af_0_Layer0_0_MEMBER_33_FILL"/>
</g>

<g transform="matrix( 2.815704345703125, 0, 0, 2.832611083984375, 0.15,15.6) ">
<use xlink:href="#IT_160x600_FR_psd_Asset_9_V10_2_Si_vous__envisagez__de_changer__votre_solution__de_r_seau__d_af_0_Layer0_0_MEMBER_34_FILL"/>
</g>

<g transform="matrix( 2.815704345703125, 0, 0, 2.832611083984375, 0.15,15.6) ">
<use xlink:href="#IT_160x600_FR_psd_Asset_9_V10_2_Si_vous__envisagez__de_changer__votre_solution__de_r_seau__d_af_0_Layer0_0_MEMBER_35_FILL"/>
</g>

<g transform="matrix( 2.815704345703125, 0, 0, 2.832611083984375, 0.15,15.6) ">
<use xlink:href="#IT_160x600_FR_psd_Asset_9_V10_2_Si_vous__envisagez__de_changer__votre_solution__de_r_seau__d_af_0_Layer0_0_MEMBER_36_FILL"/>
</g>

<g transform="matrix( 2.815704345703125, 0, 0, 2.832611083984375, 0.15,15.6) ">
<use xlink:href="#IT_160x600_FR_psd_Asset_9_V10_2_Si_vous__envisagez__de_changer__votre_solution__de_r_seau__d_af_0_Layer0_0_MEMBER_37_FILL"/>
</g>

<g transform="matrix( 2.815704345703125, 0, 0, 2.832611083984375, 0.15,15.6) ">
<use xlink:href="#IT_160x600_FR_psd_Asset_9_V10_2_Si_vous__envisagez__de_changer__votre_solution__de_r_seau__d_af_0_Layer0_0_MEMBER_38_FILL"/>
</g>

<g transform="matrix( 2.815704345703125, 0, 0, 2.832611083984375, 0.15,15.6) ">
<use xlink:href="#IT_160x600_FR_psd_Asset_9_V10_2_Si_vous__envisagez__de_changer__votre_solution__de_r_seau__d_af_0_Layer0_0_MEMBER_39_FILL"/>
</g>

<g transform="matrix( 2.815704345703125, 0, 0, 2.832611083984375, 0.15,15.6) ">
<use xlink:href="#IT_160x600_FR_psd_Asset_9_V10_2_Si_vous__envisagez__de_changer__votre_solution__de_r_seau__d_af_0_Layer0_0_MEMBER_40_FILL"/>
</g>

<g transform="matrix( 2.815704345703125, 0, 0, 2.832611083984375, 0.15,15.6) ">
<use xlink:href="#IT_160x600_FR_psd_Asset_9_V10_2_Si_vous__envisagez__de_changer__votre_solution__de_r_seau__d_af_0_Layer0_0_MEMBER_41_FILL"/>
</g>

<g transform="matrix( 2.815704345703125, 0, 0, 2.832611083984375, 0.15,15.6) ">
<use xlink:href="#IT_160x600_FR_psd_Asset_9_V10_2_Si_vous__envisagez__de_changer__votre_solution__de_r_seau__d_af_0_Layer0_0_MEMBER_42_FILL"/>
</g>

<g transform="matrix( 2.815704345703125, 0, 0, 2.832611083984375, 0.15,15.6) ">
<use xlink:href="#IT_160x600_FR_psd_Asset_9_V10_2_Si_vous__envisagez__de_changer__votre_solution__de_r_seau__d_af_0_Layer0_0_MEMBER_43_FILL"/>
</g>

<g transform="matrix( 2.815704345703125, 0, 0, 2.832611083984375, 0.15,15.6) ">
<use xlink:href="#IT_160x600_FR_psd_Asset_9_V10_2_Si_vous__envisagez__de_changer__votre_solution__de_r_seau__d_af_0_Layer0_0_MEMBER_44_FILL"/>
</g>

<g transform="matrix( 2.815704345703125, 0, 0, 2.832611083984375, 0.15,15.6) ">
<use xlink:href="#IT_160x600_FR_psd_Asset_9_V10_2_Si_vous__envisagez__de_changer__votre_solution__de_r_seau__d_af_0_Layer0_0_MEMBER_45_FILL"/>
</g>

<g transform="matrix( 2.815704345703125, 0, 0, 2.832611083984375, 0.15,15.6) ">
<use xlink:href="#IT_160x600_FR_psd_Asset_9_V10_2_Si_vous__envisagez__de_changer__votre_solution__de_r_seau__d_af_0_Layer0_0_MEMBER_46_FILL"/>
</g>

<g transform="matrix( 2.815704345703125, 0, 0, 2.832611083984375, 0.15,15.6) ">
<use xlink:href="#IT_160x600_FR_psd_Asset_9_V10_2_Si_vous__envisagez__de_changer__votre_solution__de_r_seau__d_af_0_Layer0_0_MEMBER_47_FILL"/>
</g>

<g transform="matrix( 2.815704345703125, 0, 0, 2.832611083984375, 0.15,15.6) ">
<use xlink:href="#IT_160x600_FR_psd_Asset_9_V10_2_Si_vous__envisagez__de_changer__votre_solution__de_r_seau__d_af_0_Layer0_0_MEMBER_48_FILL"/>
</g>

<g transform="matrix( 2.815704345703125, 0, 0, 2.832611083984375, 0.15,15.6) ">
<use xlink:href="#IT_160x600_FR_psd_Asset_9_V10_2_Si_vous__envisagez__de_changer__votre_solution__de_r_seau__d_af_0_Layer0_0_MEMBER_49_FILL"/>
</g>

<g transform="matrix( 2.815704345703125, 0, 0, 2.832611083984375, 0.15,15.6) ">
<use xlink:href="#IT_160x600_FR_psd_Asset_9_V10_2_Si_vous__envisagez__de_changer__votre_solution__de_r_seau__d_af_0_Layer0_0_MEMBER_50_FILL"/>
</g>

<g transform="matrix( 2.815704345703125, 0, 0, 2.832611083984375, 0.15,15.6) ">
<use xlink:href="#IT_160x600_FR_psd_Asset_9_V10_2_Si_vous__envisagez__de_changer__votre_solution__de_r_seau__d_af_0_Layer0_0_MEMBER_51_FILL"/>
</g>

<g transform="matrix( 2.815704345703125, 0, 0, 2.832611083984375, 0.15,15.6) ">
<use xlink:href="#IT_160x600_FR_psd_Asset_9_V10_2_Si_vous__envisagez__de_changer__votre_solution__de_r_seau__d_af_0_Layer0_0_MEMBER_52_FILL"/>
</g>

<g transform="matrix( 2.815704345703125, 0, 0, 2.832611083984375, 0.15,15.6) ">
<use xlink:href="#IT_160x600_FR_psd_Asset_9_V10_2_Si_vous__envisagez__de_changer__votre_solution__de_r_seau__d_af_0_Layer0_0_MEMBER_53_FILL"/>
</g>

<g transform="matrix( 2.815704345703125, 0, 0, 2.832611083984375, 0.15,15.6) ">
<use xlink:href="#IT_160x600_FR_psd_Asset_9_V10_2_Si_vous__envisagez__de_changer__votre_solution__de_r_seau__d_af_0_Layer0_0_MEMBER_54_FILL"/>
</g>
</g>
</g>
</g>
</svg>
