
<svg xmlns="http://www.w3.org/2000/svg" version="1.1" xmlns:xlink="http://www.w3.org/1999/xlink" preserveAspectRatio="none" x="0px" y="0px" width="250px" height="250px" viewBox="0 0 250 250">
<defs>
<g id="BDM_250x250_FR_psd_Asset_5_V8_1_Vous_tentez_d_accro_tre__la_fid_lisation____la_marque__0_Layer0_0_MEMBER_0_FILL">
<path fill="#D82C26" stroke="none" d="
M 0.45 -4.4
L 0.05 -4.4 1.7 0 2.15 0 3.8 -4.4 3.4 -4.4 1.95 -0.45 0.45 -4.4 Z"/>
</g>

<g id="BDM_250x250_FR_psd_Asset_5_V8_1_Vous_tentez_d_accro_tre__la_fid_lisation____la_marque__0_Layer0_0_MEMBER_1_FILL">
<path fill="#D82C26" stroke="none" d="
M 4 -0.65
Q 4.15 -0.35 4.55 -0.1 5.05 0.1 5.35 0.1 5.65 0.1 6.15 -0.1
L 6.7 -0.65
Q 6.9 -1.15 6.9 -1.45 6.9 -1.75 6.7 -2.25 6.55 -2.5 6.15 -2.8 5.8 -3 5.35 -3 4.9 -3 4.55 -2.8 4.1 -2.55 4 -2.25 3.8 -1.9 3.8 -1.45 3.8 -1 4 -0.65
M 4.3 -2.1
L 4.7 -2.55
Q 5 -2.7 5.35 -2.7 5.75 -2.7 5.95 -2.55 6.3 -2.3 6.35 -2.1 6.5 -1.8 6.5 -1.45
L 6.4 -0.85
Q 6.25 -0.55 5.95 -0.4 5.65 -0.2 5.35 -0.2 5.1 -0.2 4.7 -0.4 4.45 -0.55 4.3 -0.85 4.15 -1.15 4.15 -1.45 4.15 -1.8 4.3 -2.1 Z"/>
</g>

<g id="BDM_250x250_FR_psd_Asset_5_V8_1_Vous_tentez_d_accro_tre__la_fid_lisation____la_marque__0_Layer0_0_MEMBER_2_FILL">
<path fill="#D82C26" stroke="none" d="
M 7.55 -2.9
L 7.55 -1.15
Q 7.55 -0.6 7.85 -0.25 8.1 0.1 8.65 0.1 8.9 0.1 9.3 -0.1 9.55 -0.3 9.7 -0.65
L 9.75 0 10.1 0 10.1 -0.35 10.05 -0.7 10.05 -2.9 9.7 -2.9 9.7 -1.45
Q 9.7 -1.1 9.55 -0.8 9.5 -0.55 9.2 -0.35 9.05 -0.2 8.75 -0.2 8.35 -0.2 8.1 -0.5 7.95 -0.8 7.95 -1.25
L 7.95 -2.9 7.55 -2.9 Z"/>
</g>

<g id="BDM_250x250_FR_psd_Asset_5_V8_1_Vous_tentez_d_accro_tre__la_fid_lisation____la_marque__0_Layer0_0_MEMBER_3_FILL">
<path fill="#D82C26" stroke="none" d="
M 11.8 -2.7
L 12.2 -2.65 12.55 -2.4 12.7 -2.7 12.3 -2.9 11.8 -3 11.3 -2.9
Q 11.15 -2.85 10.95 -2.65
L 10.8 -2.2
Q 10.8 -1.9 11 -1.7 11.4 -1.45 11.65 -1.4
L 12.25 -1.1
Q 12.45 -0.95 12.45 -0.75 12.45 -0.5 12.25 -0.35 12.1 -0.2 11.8 -0.2 11.2 -0.2 10.85 -0.55
L 10.75 -0.25 11.2 0 11.8 0.1 12.3 0 12.65 -0.3 12.8 -0.75
Q 12.8 -1 12.6 -1.3
L 11.35 -1.9
Q 11.15 -1.95 11.15 -2.2 11.15 -2.45 11.35 -2.6
L 11.8 -2.7 Z"/>
</g>

<g id="BDM_250x250_FR_psd_Asset_5_V8_1_Vous_tentez_d_accro_tre__la_fid_lisation____la_marque__0_Layer0_0_MEMBER_4_FILL">
<path fill="#D82C26" stroke="none" d="
M 14.95 -3.75
L 14.6 -3.6 14.6 -2.9 14.15 -2.9 14.05 -2.6 14.6 -2.6 14.6 -0.7
Q 14.6 -0.3 14.8 -0.15 14.95 0.05 15.25 0.05
L 15.6 0 15.9 -0.1 15.85 -0.35 15.4 -0.25 15.05 -0.35
Q 14.95 -0.55 14.95 -0.75
L 14.95 -2.6 15.7 -2.6 15.8 -2.9 14.95 -2.9 14.95 -3.75 Z"/>
</g>

<g id="BDM_250x250_FR_psd_Asset_5_V8_1_Vous_tentez_d_accro_tre__la_fid_lisation____la_marque__0_Layer0_0_MEMBER_5_FILL">
<path fill="#D82C26" stroke="none" d="
M 17.55 -3
Q 17.15 -3 16.8 -2.8 16.4 -2.5 16.3 -2.25 16.1 -2 16.1 -1.45 16.1 -1 16.3 -0.65 16.6 -0.25 16.85 -0.1 17.25 0.1 17.6 0.1 18.25 0.1 18.75 -0.3
L 18.7 -0.6 18.25 -0.3 17.65 -0.2
Q 17.3 -0.2 17.05 -0.35 16.7 -0.6 16.6 -0.8 16.45 -1.1 16.45 -1.4
L 18.95 -1.4 18.95 -1.55
Q 18.95 -1.95 18.75 -2.3 18.55 -2.65 18.3 -2.8 18.05 -3 17.55 -3
M 17 -2.55
Q 17.25 -2.7 17.55 -2.7 17.95 -2.7 18.3 -2.45 18.6 -2.15 18.6 -1.65
L 16.45 -1.65
Q 16.5 -1.8 16.6 -2.15 16.8 -2.45 17 -2.55 Z"/>
</g>

<g id="BDM_250x250_FR_psd_Asset_5_V8_1_Vous_tentez_d_accro_tre__la_fid_lisation____la_marque__0_Layer0_0_MEMBER_6_FILL">
<path fill="#D82C26" stroke="none" d="
M 19.95 -2.9
L 19.65 -2.9 19.65 0 20 0 20 -1.5
Q 20 -1.85 20.15 -2.15
L 20.5 -2.55
Q 20.75 -2.7 21 -2.7 21.45 -2.7 21.6 -2.4 21.8 -2 21.8 -1.7
L 21.8 0 22.15 0 22.15 -1.8
Q 22.15 -2.25 21.9 -2.65 21.6 -3 21.05 -3 20.65 -3 20.45 -2.8 20.15 -2.55 20 -2.3
L 19.95 -2.9 Z"/>
</g>

<g id="BDM_250x250_FR_psd_Asset_5_V8_1_Vous_tentez_d_accro_tre__la_fid_lisation____la_marque__0_Layer0_0_MEMBER_7_FILL">
<path fill="#D82C26" stroke="none" d="
M 23.45 -3.75
L 23.1 -3.6 23.1 -2.9 22.6 -2.9 22.55 -2.6 23.1 -2.6 23.1 -0.7
Q 23.1 -0.3 23.25 -0.15 23.45 0.05 23.75 0.05
L 24.1 0 24.4 -0.1 24.35 -0.35 23.85 -0.25 23.55 -0.35
Q 23.45 -0.55 23.45 -0.75
L 23.45 -2.6 24.2 -2.6 24.3 -2.9 23.45 -2.9 23.45 -3.75 Z"/>
</g>

<g id="BDM_250x250_FR_psd_Asset_5_V8_1_Vous_tentez_d_accro_tre__la_fid_lisation____la_marque__0_Layer0_0_MEMBER_8_FILL">
<path fill="#D82C26" stroke="none" d="
M 24.6 -1.45
Q 24.6 -1 24.8 -0.65 24.95 -0.35 25.35 -0.1 25.75 0.1 26.1 0.1 26.75 0.1 27.25 -0.3
L 27.2 -0.6 26.7 -0.3 26.1 -0.2
Q 25.8 -0.2 25.5 -0.35 25.15 -0.7 25.1 -0.8 24.95 -1.1 24.95 -1.4
L 27.4 -1.4 27.45 -1.55
Q 27.45 -1.8 27.25 -2.3 27.05 -2.65 26.8 -2.8 26.55 -3 26.05 -3 25.65 -3 25.3 -2.8 24.9 -2.5 24.8 -2.25 24.6 -2 24.6 -1.45
M 24.95 -1.65
Q 24.95 -1.9 25.1 -2.15
L 25.45 -2.55
Q 25.75 -2.7 26.05 -2.7 26.45 -2.7 26.8 -2.45 27 -2.25 27.1 -1.65
L 24.95 -1.65 Z"/>
</g>

<g id="BDM_250x250_FR_psd_Asset_5_V8_1_Vous_tentez_d_accro_tre__la_fid_lisation____la_marque__0_Layer0_0_MEMBER_9_FILL">
<path fill="#D82C26" stroke="none" d="
M 29.6 -2.6
L 27.85 -0.3 27.85 0 30.1 0 30.15 -0.3 28.25 -0.3 30.05 -2.6 30.05 -2.9 27.95 -2.9 27.85 -2.6 29.6 -2.6 Z"/>
</g>

<g id="BDM_250x250_FR_psd_Asset_5_V8_1_Vous_tentez_d_accro_tre__la_fid_lisation____la_marque__0_Layer0_0_MEMBER_10_FILL">
<path fill="#D82C26" stroke="none" d="
M 34.6 -4.75
L 34.25 -4.7 34.25 -2.3
Q 34.1 -2.65 33.75 -2.8 33.5 -3 33.05 -3 32.55 -3 32.3 -2.8 31.95 -2.55 31.8 -2.25 31.6 -1.9 31.6 -1.45 31.6 -1 31.8 -0.65 31.95 -0.35 32.3 -0.1 32.7 0.1 33.05 0.1 33.35 0.1 33.75 -0.1 34.15 -0.4 34.25 -0.65
L 34.3 0 34.65 0 34.6 -4.75
M 32.1 -2.05
Q 32.25 -2.3 32.5 -2.5 32.75 -2.7 33.1 -2.7 33.5 -2.7 33.7 -2.5 33.95 -2.4 34.1 -2.05 34.25 -1.8 34.25 -1.45 34.25 -1.15 34.1 -0.85 33.95 -0.5 33.7 -0.4 33.4 -0.2 33.1 -0.2 32.9 -0.2 32.5 -0.4 32.25 -0.55 32.1 -0.85 31.95 -1.05 31.95 -1.45 31.95 -1.8 32.1 -2.05 Z"/>
</g>

<g id="BDM_250x250_FR_psd_Asset_5_V8_1_Vous_tentez_d_accro_tre__la_fid_lisation____la_marque__0_Layer0_0_MEMBER_11_FILL">
<path fill="#D82C26" stroke="none" d="
M 36.1 -4.3
L 35.9 -4.4 35.7 -4.3 35.6 -4.1 35.7 -3.9 35.85 -3.85
Q 35.85 -3.6 35.7 -3.45
L 35.45 -3.1 35.6 -3
Q 36.15 -3.55 36.15 -4.05
L 36.1 -4.3 Z"/>
</g>

<g id="BDM_250x250_FR_psd_Asset_5_V8_1_Vous_tentez_d_accro_tre__la_fid_lisation____la_marque__0_Layer0_0_MEMBER_12_FILL">
<path fill="#D82C26" stroke="none" d="
M 36.4 -0.8
Q 36.4 -0.35 36.7 -0.15 36.95 0.1 37.35 0.1 37.75 0.1 38 -0.1 38.3 -0.25 38.45 -0.55
L 38.45 -0.25 38.5 0 38.85 0 38.8 -1.9
Q 38.8 -2.45 38.5 -2.7 38.2 -3 37.65 -3
L 37.05 -2.9 36.6 -2.65 36.7 -2.35 37.1 -2.6 37.6 -2.7
Q 38 -2.7 38.2 -2.5 38.45 -2.25 38.45 -1.9
L 38.45 -1.75 38.1 -1.75
Q 36.4 -1.75 36.4 -0.8
M 36.95 -0.35
Q 36.75 -0.55 36.75 -0.8 36.75 -1.5 38.15 -1.5
L 38.45 -1.5 38.45 -1.2 38.3 -0.75
Q 38.2 -0.5 38 -0.35 37.7 -0.2 37.4 -0.2 37.2 -0.2 36.95 -0.35 Z"/>
</g>

<g id="BDM_250x250_FR_psd_Asset_5_V8_1_Vous_tentez_d_accro_tre__la_fid_lisation____la_marque__0_Layer0_0_MEMBER_13_FILL">
<path fill="#D82C26" stroke="none" d="
M 39.65 -0.65
Q 39.8 -0.4 40.2 -0.1 40.7 0.1 41 0.1
L 41.55 0 42 -0.25 41.95 -0.55 41.5 -0.3 41 -0.25
Q 40.7 -0.25 40.4 -0.4 40.15 -0.5 40 -0.85 39.85 -1.15 39.85 -1.45 39.85 -1.8 40 -2.05 40.15 -2.4 40.4 -2.5 40.6 -2.7 41 -2.7
L 41.45 -2.6 41.85 -2.35 42 -2.65
Q 41.8 -2.85 41.55 -2.9
L 41 -3
Q 40.55 -3 40.2 -2.8 39.8 -2.5 39.65 -2.25 39.45 -1.75 39.45 -1.45 39.45 -1.15 39.65 -0.65 Z"/>
</g>

<g id="BDM_250x250_FR_psd_Asset_5_V8_1_Vous_tentez_d_accro_tre__la_fid_lisation____la_marque__0_Layer0_0_MEMBER_14_FILL">
<path fill="#D82C26" stroke="none" d="
M 42.3 -1.45
Q 42.3 -1.15 42.5 -0.65 42.7 -0.3 43.05 -0.1 43.55 0.1 43.85 0.1
L 44.4 0 44.85 -0.25 44.8 -0.55 44.35 -0.3 43.85 -0.25
Q 43.55 -0.25 43.25 -0.4 43 -0.5 42.85 -0.85 42.7 -1.15 42.7 -1.45 42.7 -1.8 42.85 -2.05 43 -2.4 43.25 -2.5 43.45 -2.7 43.85 -2.7
L 44.3 -2.6 44.7 -2.35 44.85 -2.65
Q 44.65 -2.85 44.4 -2.9
L 43.85 -3
Q 43.4 -3 43.05 -2.8 42.65 -2.5 42.5 -2.25 42.3 -1.75 42.3 -1.45 Z"/>
</g>

<g id="BDM_250x250_FR_psd_Asset_5_V8_1_Vous_tentez_d_accro_tre__la_fid_lisation____la_marque__0_Layer0_0_MEMBER_15_FILL">
<path fill="#D82C26" stroke="none" d="
M 45.8 -1.45
Q 45.8 -2.05 46 -2.3 46.2 -2.65 46.6 -2.65
L 46.85 -2.65 46.95 -2.95 46.6 -3
Q 46.35 -3 46.1 -2.8 45.95 -2.7 45.75 -2.3
L 45.75 -2.9 45.4 -2.9 45.4 0 45.8 0 45.8 -1.45 Z"/>
</g>

<g id="BDM_250x250_FR_psd_Asset_5_V8_1_Vous_tentez_d_accro_tre__la_fid_lisation____la_marque__0_Layer0_0_MEMBER_16_FILL">
<path fill="#D82C26" stroke="none" d="
M 47.25 -0.65
L 47.8 -0.1
Q 48.3 0.1 48.6 0.1 48.9 0.1 49.4 -0.1 49.8 -0.35 49.95 -0.65 50.15 -1 50.15 -1.45 50.15 -1.9 49.95 -2.25 49.85 -2.55 49.4 -2.8 49.05 -3 48.6 -3 48.15 -3 47.8 -2.8 47.4 -2.5 47.25 -2.25 47.05 -1.75 47.05 -1.45 47.05 -1.15 47.25 -0.65
M 47.6 -2.1
Q 47.65 -2.3 48 -2.55 48.25 -2.7 48.6 -2.7 48.95 -2.7 49.25 -2.55
L 49.65 -2.1
Q 49.8 -1.8 49.8 -1.45 49.8 -1.15 49.65 -0.85 49.5 -0.55 49.25 -0.4 48.85 -0.2 48.6 -0.2 48.3 -0.2 48 -0.4 47.65 -0.55 47.6 -0.85 47.45 -1.15 47.45 -1.45 47.45 -1.8 47.6 -2.1 Z"/>
</g>

<g id="BDM_250x250_FR_psd_Asset_5_V8_1_Vous_tentez_d_accro_tre__la_fid_lisation____la_marque__0_Layer0_0_MEMBER_17_FILL">
<path fill="#D82C26" stroke="none" d="
M 51.25 -2.9
L 50.9 -2.9 50.9 0 51.25 0 51.25 -2.9
M 50.9 -4.4
L 50.2 -3.5 50.55 -3.5 51.05 -4.25 51.6 -3.5 51.95 -3.5 51.25 -4.4 50.9 -4.4 Z"/>
</g>

<g id="BDM_250x250_FR_psd_Asset_5_V8_1_Vous_tentez_d_accro_tre__la_fid_lisation____la_marque__0_Layer0_0_MEMBER_18_FILL">
<path fill="#D82C26" stroke="none" d="
M 52.75 -3.75
L 52.35 -3.6 52.35 -2.9 51.9 -2.9 51.8 -2.6 52.35 -2.6 52.35 -0.7
Q 52.35 -0.35 52.55 -0.15 52.7 0.05 53.05 0.05
L 53.35 0
Q 53.55 0 53.65 -0.1
L 53.6 -0.35 53.15 -0.25
Q 52.95 -0.25 52.85 -0.35 52.75 -0.45 52.75 -0.75
L 52.75 -2.6 53.5 -2.6 53.55 -2.9 52.75 -2.9 52.75 -3.75 Z"/>
</g>

<g id="BDM_250x250_FR_psd_Asset_5_V8_1_Vous_tentez_d_accro_tre__la_fid_lisation____la_marque__0_Layer0_0_MEMBER_19_FILL">
<path fill="#D82C26" stroke="none" d="
M 54.55 -1.45
Q 54.55 -2.05 54.75 -2.3 54.95 -2.65 55.35 -2.65
L 55.65 -2.65 55.7 -2.95 55.4 -3
Q 55.1 -3 54.9 -2.8 54.65 -2.6 54.55 -2.3
L 54.5 -2.9 54.15 -2.9 54.2 0 54.55 0 54.55 -1.45 Z"/>
</g>

<g id="BDM_250x250_FR_psd_Asset_5_V8_1_Vous_tentez_d_accro_tre__la_fid_lisation____la_marque__0_Layer0_0_MEMBER_20_FILL">
<path fill="#D82C26" stroke="none" d="
M 58.05 -2.8
Q 57.8 -3 57.3 -3 56.9 -3 56.55 -2.8 56.15 -2.5 56.05 -2.25 55.85 -2 55.85 -1.45 55.85 -1 56.05 -0.65 56.2 -0.35 56.55 -0.1 57.05 0.1 57.35 0.1 58 0.1 58.5 -0.3
L 58.45 -0.6 57.95 -0.3 57.35 -0.2
Q 57.05 -0.2 56.75 -0.35 56.4 -0.7 56.35 -0.8 56.2 -1.1 56.2 -1.4
L 58.65 -1.4 58.65 -1.55 58.5 -2.3
Q 58.3 -2.65 58.05 -2.8
M 57.3 -2.7
Q 57.7 -2.7 58.05 -2.45 58.3 -2.15 58.35 -1.65
L 56.2 -1.65
Q 56.2 -1.9 56.35 -2.15
L 56.7 -2.55
Q 57 -2.7 57.3 -2.7 Z"/>
</g>

<g id="BDM_250x250_FR_psd_Asset_5_V8_1_Vous_tentez_d_accro_tre__la_fid_lisation____la_marque__0_Layer0_0_MEMBER_21_FILL">
<path fill="#D82C26" stroke="none" d="
M 0.7 7.15
Q 0.8 7.3 1.05 7.4
L 1.2 7.1 1 6.95 0.95 6.6 0.95 2.6 0.6 2.7 0.6 6.7
Q 0.6 7.05 0.7 7.15 Z"/>
</g>

<g id="BDM_250x250_FR_psd_Asset_5_V8_1_Vous_tentez_d_accro_tre__la_fid_lisation____la_marque__0_Layer0_0_MEMBER_22_FILL">
<path fill="#D82C26" stroke="none" d="
M 2.35 4.45
L 1.85 4.7 1.95 5
Q 2.15 4.8 2.4 4.75 2.55 4.65 2.9 4.65 3.3 4.65 3.5 4.85 3.7 5 3.7 5.45
L 3.7 5.6 3.35 5.6
Q 1.7 5.6 1.7 6.55 1.7 6.95 1.95 7.2 2.2 7.4 2.6 7.4 2.95 7.4 3.25 7.25 3.55 7.1 3.7 6.8
L 3.75 7.1 3.75 7.35 4.1 7.35 4.05 5.45
Q 4.05 4.9 3.75 4.6 3.4 4.35 2.95 4.35 2.55 4.35 2.35 4.45
M 3.7 5.85
L 3.7 6.15 3.6 6.6 3.25 7
Q 3.05 7.15 2.7 7.15 2.4 7.15 2.25 7 2.05 6.85 2.05 6.55 2.05 5.85 3.4 5.85
L 3.7 5.85 Z"/>
</g>

<g id="BDM_250x250_FR_psd_Asset_5_V8_1_Vous_tentez_d_accro_tre__la_fid_lisation____la_marque__0_Layer0_0_MEMBER_23_FILL">
<path fill="#D82C26" stroke="none" d="
M 7.05 2.55
Q 6.65 2.55 6.4 2.8 6.15 3.15 6.15 3.6
L 6.15 4.45 5.65 4.45 5.55 4.7 6.2 4.7 6.2 7.35 6.55 7.35 6.55 4.7 7.2 4.7 7.3 4.45 6.55 4.45 6.55 3.6 6.65 3.05
Q 6.85 2.85 7.1 2.85
L 7.55 2.95 7.6 2.65 7.05 2.55
M 7.85 3.45
L 8.05 3.55 8.2 3.45 8.3 3.25 8.2 3.1 8.05 3 7.85 3.1 7.75 3.25 7.85 3.45
M 8.2 4.45
L 7.85 4.45 7.85 7.35 8.2 7.35 8.2 4.45 Z"/>
</g>

<g id="BDM_250x250_FR_psd_Asset_5_V8_1_Vous_tentez_d_accro_tre__la_fid_lisation____la_marque__0_Layer0_0_MEMBER_24_FILL">
<path fill="#D82C26" stroke="none" d="
M 11.1 4.55
Q 10.85 4.35 10.4 4.35 9.9 4.35 9.65 4.55 9.25 4.85 9.15 5.1 8.95 5.45 8.95 5.9 8.95 6.4 9.15 6.65 9.3 7.05 9.65 7.2 9.9 7.4 10.4 7.4 10.8 7.4 11.1 7.25 11.5 6.95 11.6 6.7
L 11.65 7.35 12 7.35 11.95 2.55 11.6 2.65 11.6 5.05
Q 11.3 4.65 11.1 4.55
M 11.45 5.25
Q 11.6 5.55 11.6 5.9 11.6 6.2 11.45 6.5 11.3 6.85 11.05 6.95 10.85 7.1 10.45 7.1 10.15 7.1 9.85 6.95 9.6 6.8 9.45 6.5 9.3 6.2 9.3 5.9 9.3 5.55 9.45 5.25
L 9.85 4.8
Q 10.15 4.65 10.45 4.65 10.85 4.65 11.05 4.8 11.25 4.95 11.45 5.25 Z"/>
</g>

<g id="BDM_250x250_FR_psd_Asset_5_V8_1_Vous_tentez_d_accro_tre__la_fid_lisation____la_marque__0_Layer0_0_MEMBER_25_FILL">
<path fill="#D82C26" stroke="none" d="
M 14.95 2.95
L 14.5 2.95 13.9 3.85 14.15 3.85 14.95 2.95
M 15.5 5.8
Q 15.5 5.45 15.35 5.05 15.15 4.7 14.9 4.55 14.55 4.35 14.15 4.35 13.65 4.35 13.4 4.55 13.05 4.75 12.9 5.1 12.7 5.35 12.7 5.85 12.7 6.35 12.9 6.7 13.05 7 13.4 7.25 13.9 7.45 14.2 7.45 14.8 7.45 15.35 7.05
L 15.3 6.75 14.8 7
Q 14.5 7.15 14.2 7.15 13.85 7.15 13.6 6.95
L 13.2 6.55
Q 13.05 6.25 13.05 5.95
L 15.5 5.95 15.5 5.8
M 13.2 5.2
Q 13.25 5 13.55 4.8 13.8 4.65 14.15 4.65 14.65 4.65 14.9 4.9 15.15 5.25 15.15 5.65
L 13.05 5.65 13.2 5.2 Z"/>
</g>

<g id="BDM_250x250_FR_psd_Asset_5_V8_1_Vous_tentez_d_accro_tre__la_fid_lisation____la_marque__0_Layer0_0_MEMBER_26_FILL">
<path fill="#D82C26" stroke="none" d="
M 16.35 7.15
Q 16.45 7.3 16.7 7.4
L 16.85 7.1 16.65 6.95 16.6 6.6 16.6 2.6 16.25 2.7 16.25 6.7
Q 16.25 7.05 16.35 7.15 Z"/>
</g>

<g id="BDM_250x250_FR_psd_Asset_5_V8_1_Vous_tentez_d_accro_tre__la_fid_lisation____la_marque__0_Layer0_0_MEMBER_27_FILL">
<path fill="#D82C26" stroke="none" d="
M 17.9 4.45
L 17.55 4.45 17.55 7.35 17.9 7.35 17.9 4.45
M 17.45 3.25
L 17.55 3.45 17.75 3.55 17.9 3.45 18 3.25 17.9 3.1 17.75 3 17.55 3.1 17.45 3.25 Z"/>
</g>

<g id="BDM_250x250_FR_psd_Asset_5_V8_1_Vous_tentez_d_accro_tre__la_fid_lisation____la_marque__0_Layer0_0_MEMBER_28_FILL">
<path fill="#D82C26" stroke="none" d="
M 20.4 4.9
L 20.55 4.65 20.15 4.45
Q 19.95 4.35 19.6 4.35 19.3 4.35 19.15 4.45 19 4.5 18.8 4.7 18.65 4.95 18.65 5.15 18.65 5.5 18.85 5.65
L 20.1 6.25
Q 20.3 6.45 20.3 6.6 20.3 6.8 20.1 7 19.9 7.15 19.65 7.15 19.2 7.15 18.65 6.8
L 18.6 7.1 19.05 7.35 19.65 7.4 20.1 7.35 20.5 7.05 20.65 6.6
Q 20.65 6.3 20.4 6.05 20 5.8 19.75 5.7 19.35 5.65 19.15 5.45 19 5.4 19 5.1 19 4.9 19.2 4.75
L 19.65 4.65 20.05 4.7 20.4 4.9 Z"/>
</g>

<g id="BDM_250x250_FR_psd_Asset_5_V8_1_Vous_tentez_d_accro_tre__la_fid_lisation____la_marque__0_Layer0_0_MEMBER_29_FILL">
<path fill="#D82C26" stroke="none" d="
M 22.4 4.35
Q 22 4.35 21.8 4.45
L 21.3 4.7 21.4 5 21.85 4.75
Q 22 4.65 22.35 4.65 22.75 4.65 22.95 4.85 23.15 5 23.15 5.45
L 23.15 5.6 22.8 5.6
Q 21.15 5.6 21.15 6.55 21.15 6.95 21.4 7.2 21.65 7.4 22.1 7.4 22.45 7.4 22.75 7.25 23.1 7.1 23.15 6.8
L 23.2 6.8 23.2 7.1 23.25 7.35 23.55 7.35 23.5 5.45
Q 23.5 4.9 23.2 4.6 22.85 4.35 22.4 4.35
M 23.15 5.85
L 23.15 6.15
Q 23.15 6.45 23.05 6.6 23 6.8 22.7 7 22.5 7.15 22.15 7.15 21.85 7.15 21.7 7 21.5 6.85 21.5 6.55 21.5 5.85 22.85 5.85
L 23.15 5.85 Z"/>
</g>

<g id="BDM_250x250_FR_psd_Asset_5_V8_1_Vous_tentez_d_accro_tre__la_fid_lisation____la_marque__0_Layer0_0_MEMBER_30_FILL">
<path fill="#D82C26" stroke="none" d="
M 25.6 4.7
L 25.65 4.45 24.85 4.45 24.85 3.6 24.45 3.75 24.45 4.45 24 4.45 23.9 4.7 24.45 4.7 24.45 6.65
Q 24.45 6.9 24.65 7.2 24.85 7.4 25.15 7.4
L 25.5 7.35 25.75 7.25 25.7 7 25.25 7.1 24.95 7
Q 24.85 6.9 24.85 6.6
L 24.85 4.7 25.6 4.7 Z"/>
</g>

<g id="BDM_250x250_FR_psd_Asset_5_V8_1_Vous_tentez_d_accro_tre__la_fid_lisation____la_marque__0_Layer0_0_MEMBER_31_FILL">
<path fill="#D82C26" stroke="none" d="
M 26.65 4.45
L 26.3 4.45 26.3 7.35 26.65 7.35 26.65 4.45
M 26.3 3.45
L 26.45 3.55 26.65 3.45 26.7 3.25 26.65 3.1 26.45 3 26.3 3.1 26.2 3.25 26.3 3.45 Z"/>
</g>

<g id="BDM_250x250_FR_psd_Asset_5_V8_1_Vous_tentez_d_accro_tre__la_fid_lisation____la_marque__0_Layer0_0_MEMBER_32_FILL">
<path fill="#D82C26" stroke="none" d="
M 27.55 5.1
Q 27.35 5.5 27.35 5.9 27.35 6.2 27.55 6.7
L 28.1 7.25
Q 28.6 7.45 28.9 7.45 29.2 7.45 29.7 7.25 29.95 7.1 30.25 6.7 30.45 6.35 30.45 5.9 30.45 5.35 30.25 5.1 30 4.65 29.7 4.55 29.35 4.35 28.9 4.35 28.45 4.35 28.1 4.55 27.8 4.7 27.55 5.1
M 29.95 5.25
Q 30.1 5.55 30.1 5.9 30.1 6.2 29.95 6.5 29.8 6.8 29.55 6.95 29.25 7.1 28.9 7.1 28.55 7.1 28.3 6.95 28 6.8 27.85 6.5 27.75 6.3 27.75 5.9 27.75 5.45 27.85 5.25
L 28.3 4.8
Q 28.55 4.65 28.9 4.65 29.25 4.65 29.55 4.8
L 29.95 5.25 Z"/>
</g>

<g id="BDM_250x250_FR_psd_Asset_5_V8_1_Vous_tentez_d_accro_tre__la_fid_lisation____la_marque__0_Layer0_0_MEMBER_33_FILL">
<path fill="#D82C26" stroke="none" d="
M 31.5 4.45
L 31.15 4.45 31.2 7.35 31.55 7.35 31.55 5.85
Q 31.55 5.5 31.7 5.2 31.75 5 32.05 4.8 32.3 4.65 32.5 4.65 32.95 4.65 33.15 4.95 33.3 5.25 33.3 5.65
L 33.3 7.35 33.65 7.35 33.65 5.55
Q 33.65 5 33.4 4.7 33.2 4.35 32.6 4.35 32.2 4.35 31.95 4.55 31.75 4.65 31.55 5.05
L 31.5 4.45 Z"/>
</g>

<g id="BDM_250x250_FR_psd_Asset_5_V8_1_Vous_tentez_d_accro_tre__la_fid_lisation____la_marque__0_Layer0_0_MEMBER_34_FILL">
<path fill="#D82C26" stroke="none" d="
M 1 11.8
L 0.5 12.05 0.65 12.35 1.05 12.1
Q 1.25 12 1.55 12 1.95 12 2.15 12.2 2.4 12.35 2.4 12.75
L 2.4 12.95 2.05 12.95
Q 0.35 12.95 0.35 13.9 0.35 14.35 0.65 14.55 0.85 14.75 1.3 14.75 1.65 14.75 1.95 14.6 2.3 14.45 2.35 14.1
L 2.4 14.1 2.4 14.4 2.45 14.7 2.75 14.7 2.7 12.8
Q 2.7 12.3 2.45 11.95 2.1 11.7 1.6 11.7 1.2 11.7 1 11.8
M 2.4 13.2
L 2.4 13.45
Q 2.4 13.75 2.25 13.95 2.2 14.15 1.9 14.35 1.7 14.5 1.35 14.5 1.05 14.5 0.9 14.35 0.7 14.2 0.7 13.9 0.7 13.2 2.1 13.2
L 2.4 13.2
M 1.7 11.2
L 2 11.2 1.35 10.3 0.95 10.3 1.7 11.2 Z"/>
</g>

<g id="BDM_250x250_FR_psd_Asset_5_V8_1_Vous_tentez_d_accro_tre__la_fid_lisation____la_marque__0_Layer0_0_MEMBER_35_FILL">
<path fill="#D82C26" stroke="none" d="
M 4.85 14.5
Q 4.95 14.65 5.2 14.75
L 5.35 14.45
Q 5.15 14.35 5.15 14.25 5.05 14.15 5.05 13.95
L 5.05 9.95 4.7 10 4.7 14.05
Q 4.7 14.35 4.85 14.5 Z"/>
</g>

<g id="BDM_250x250_FR_psd_Asset_5_V8_1_Vous_tentez_d_accro_tre__la_fid_lisation____la_marque__0_Layer0_0_MEMBER_36_FILL">
<path fill="#D82C26" stroke="none" d="
M 7 12
Q 7.4 12 7.6 12.2 7.85 12.35 7.85 12.75
L 7.85 12.95 7.5 12.95
Q 5.8 12.95 5.8 13.9 5.8 14.35 6.1 14.55 6.3 14.75 6.75 14.75 7.1 14.75 7.4 14.6 7.7 14.45 7.85 14.1
L 7.85 14.4 7.9 14.7 8.25 14.7 8.2 12.8
Q 8.2 12.25 7.9 11.95 7.55 11.7 7.05 11.7 6.65 11.7 6.45 11.8
L 6 12.05 6.1 12.35 6.5 12.1
Q 6.7 12 7 12
M 7.85 13.45
Q 7.85 13.75 7.7 13.95 7.6 14.2 7.4 14.35 7.1 14.5 6.8 14.5 6.6 14.5 6.35 14.35 6.15 14.15 6.15 13.9 6.15 13.2 7.55 13.2
L 7.85 13.2 7.85 13.45 Z"/>
</g>

<g id="BDM_250x250_FR_psd_Asset_5_V8_1_Vous_tentez_d_accro_tre__la_fid_lisation____la_marque__0_Layer0_0_MEMBER_37_FILL">
<path fill="#D82C26" stroke="none" d="
M 10.5 11.8
L 10.15 11.8 10.15 14.7 10.55 14.7 10.55 13.25
Q 10.55 12.75 10.65 12.55
L 11 12.15
Q 11.15 12 11.45 12 11.75 12 12 12.25 12.2 12.55 12.2 12.95
L 12.2 14.7 12.55 14.7 12.55 13.2
Q 12.55 12.7 12.8 12.3 13.05 12 13.45 12 13.9 12 14.05 12.3 14.25 12.7 14.25 13.05
L 14.25 14.7 14.6 14.7 14.6 12.95
Q 14.6 12.45 14.35 12.05 14.05 11.7 13.55 11.7 13.15 11.7 12.9 11.9 12.6 12.05 12.5 12.45 12.35 12 12.15 11.9 11.95 11.7 11.55 11.7 11.15 11.7 10.9 11.9 10.65 12.1 10.55 12.4
L 10.5 12.4 10.5 11.8 Z"/>
</g>

<g id="BDM_250x250_FR_psd_Asset_5_V8_1_Vous_tentez_d_accro_tre__la_fid_lisation____la_marque__0_Layer0_0_MEMBER_38_FILL">
<path fill="#D82C26" stroke="none" d="
M 16.45 12
Q 16.85 12 17.05 12.2 17.3 12.35 17.3 12.75
L 17.3 12.95 16.95 12.95
Q 15.25 12.95 15.25 13.9 15.25 14.35 15.55 14.55 15.8 14.75 16.2 14.75 16.55 14.75 16.85 14.6 17.15 14.45 17.3 14.1
L 17.3 14.4 17.35 14.7 17.7 14.7 17.65 12.8
Q 17.65 12.25 17.35 11.95 17 11.7 16.5 11.7 16.1 11.7 15.9 11.8
L 15.45 12.05 15.55 12.35 15.95 12.1
Q 16.15 12 16.45 12
M 17.3 13.2
L 17.3 13.45
Q 17.3 13.75 17.15 13.95 17.05 14.2 16.85 14.35 16.65 14.5 16.25 14.5 16.05 14.5 15.8 14.35 15.6 14.15 15.6 13.9 15.6 13.2 17 13.2
L 17.3 13.2 Z"/>
</g>

<g id="BDM_250x250_FR_psd_Asset_5_V8_1_Vous_tentez_d_accro_tre__la_fid_lisation____la_marque__0_Layer0_0_MEMBER_39_FILL">
<path fill="#D82C26" stroke="none" d="
M 18.85 11.8
L 18.5 11.8 18.55 14.7 18.9 14.7 18.9 13.25
Q 18.9 12.7 19.1 12.35 19.35 12 19.7 12
L 20 12.05 20.05 11.75 19.75 11.7
Q 19.45 11.7 19.25 11.9 19 12.1 18.9 12.4
L 18.85 11.8 Z"/>
</g>

<g id="BDM_250x250_FR_psd_Asset_5_V8_1_Vous_tentez_d_accro_tre__la_fid_lisation____la_marque__0_Layer0_0_MEMBER_40_FILL">
<path fill="#D82C26" stroke="none" d="
M 21.65 11.7
Q 21.15 11.7 20.9 11.9 20.5 12.2 20.4 12.45 20.2 12.8 20.2 13.25 20.2 13.75 20.4 14 20.55 14.4 20.9 14.55 21.15 14.75 21.65 14.75 22.05 14.75 22.35 14.6 22.75 14.3 22.85 14.05
L 22.85 15.35
Q 22.85 16 23.45 16.2
L 23.65 15.85 23.3 15.7 23.2 15.3 23.2 12.3 23.25 11.8 22.9 11.8 22.85 12.4
Q 22.7 12.05 22.35 11.9 22.1 11.7 21.65 11.7
M 21.7 12
Q 22.1 12 22.3 12.15 22.5 12.3 22.7 12.6 22.85 12.9 22.85 13.25 22.85 13.55 22.7 13.85 22.55 14.2 22.3 14.3 22.1 14.45 21.7 14.45 21.35 14.45 21.1 14.3 20.85 14.15 20.7 13.85 20.55 13.55 20.55 13.25 20.55 12.9 20.7 12.6
L 21.1 12.15
Q 21.35 12 21.7 12 Z"/>
</g>

<g id="BDM_250x250_FR_psd_Asset_5_V8_1_Vous_tentez_d_accro_tre__la_fid_lisation____la_marque__0_Layer0_0_MEMBER_41_FILL">
<path fill="#D82C26" stroke="none" d="
M 24.45 11.8
L 24.1 11.8 24.1 13.55
Q 24.1 14.05 24.35 14.4 24.65 14.75 25.15 14.75 25.55 14.75 25.8 14.55 26.1 14.4 26.2 14.05
L 26.3 14.7 26.65 14.7 26.6 14.35 26.6 11.8 26.2 11.8 26.2 13.25
Q 26.2 13.7 26.1 13.9 25.95 14.25 25.75 14.3 25.55 14.45 25.25 14.45 24.8 14.45 24.65 14.2 24.45 13.95 24.45 13.45
L 24.45 11.8 Z"/>
</g>

<g id="BDM_250x250_FR_psd_Asset_5_V8_1_Vous_tentez_d_accro_tre__la_fid_lisation____la_marque__0_Layer0_0_MEMBER_42_FILL">
<path fill="#D82C26" stroke="none" d="
M 28.75 11.7
Q 28.35 11.7 28 11.9 27.8 12 27.5 12.4 27.3 12.75 27.3 13.2 27.3 13.6 27.5 14 27.75 14.45 28.05 14.55 28.3 14.75 28.8 14.75 29.55 14.75 29.95 14.4
L 29.9 14.1 29.45 14.35
Q 29.25 14.45 28.85 14.45 28.5 14.45 28.25 14.3 28 14.15 27.8 13.9 27.65 13.6 27.65 13.3
L 30.15 13.3 30.15 13.15
Q 30.15 12.7 30 12.4 29.7 12 29.5 11.9 29.25 11.7 28.75 11.7
M 28.75 11.95
Q 29.2 11.95 29.5 12.25 29.8 12.55 29.8 13
L 27.65 13 27.8 12.55
Q 28 12.25 28.2 12.15 28.5 11.95 28.75 11.95 Z"/>
</g>

<g id="BDM_250x250_FR_psd_Asset_5_V8_1_Vous_tentez_d_accro_tre__la_fid_lisation____la_marque__0_Layer0_0_MEMBER_43_FILL">
<path fill="#D82C26" stroke="none" d="
M 32.5 10.65
L 32.05 10.3
Q 31.85 10.2 31.45 10.2 31 10.2 30.7 10.35
L 30.2 10.7 30.35 11 30.8 10.65
Q 31.1 10.5 31.4 10.5 31.7 10.5 32 10.7 32.25 10.9 32.25 11.25
L 32.2 11.6 32 11.9 31.7 12.2
Q 31.45 12.5 31.35 12.7 31.2 12.95 31.2 13.25
L 31.2 13.4 31.6 13.4 31.6 12.95 31.75 12.65 32.35 12 32.55 11.7 32.65 11.25
Q 32.65 10.95 32.5 10.65
M 31.25 14.65
L 31.4 14.75 31.6 14.65 31.7 14.45 31.6 14.25 31.4 14.15 31.25 14.25
Q 31.15 14.3 31.15 14.45
L 31.25 14.65 Z"/>
</g>
</defs>

<g transform="matrix( 1, 0, 0, 1, -69,-10) ">
<g transform="matrix( 1, 0, 0, 1, 59,25) ">
<g transform="matrix( 1, 0, 0, 1, 33,10) ">
<g transform="matrix( 3.5196380615234375, 0, 0, 3.540771484375, 0.2,17.8) ">
<use xlink:href="#BDM_250x250_FR_psd_Asset_5_V8_1_Vous_tentez_d_accro_tre__la_fid_lisation____la_marque__0_Layer0_0_MEMBER_0_FILL"/>
</g>

<g transform="matrix( 3.5196380615234375, 0, 0, 3.540771484375, 0.2,17.8) ">
<use xlink:href="#BDM_250x250_FR_psd_Asset_5_V8_1_Vous_tentez_d_accro_tre__la_fid_lisation____la_marque__0_Layer0_0_MEMBER_1_FILL"/>
</g>

<g transform="matrix( 3.5196380615234375, 0, 0, 3.540771484375, 0.2,17.8) ">
<use xlink:href="#BDM_250x250_FR_psd_Asset_5_V8_1_Vous_tentez_d_accro_tre__la_fid_lisation____la_marque__0_Layer0_0_MEMBER_2_FILL"/>
</g>

<g transform="matrix( 3.5196380615234375, 0, 0, 3.540771484375, 0.2,17.8) ">
<use xlink:href="#BDM_250x250_FR_psd_Asset_5_V8_1_Vous_tentez_d_accro_tre__la_fid_lisation____la_marque__0_Layer0_0_MEMBER_3_FILL"/>
</g>

<g transform="matrix( 3.5196380615234375, 0, 0, 3.540771484375, 0.2,17.8) ">
<use xlink:href="#BDM_250x250_FR_psd_Asset_5_V8_1_Vous_tentez_d_accro_tre__la_fid_lisation____la_marque__0_Layer0_0_MEMBER_4_FILL"/>
</g>

<g transform="matrix( 3.5196380615234375, 0, 0, 3.540771484375, 0.2,17.8) ">
<use xlink:href="#BDM_250x250_FR_psd_Asset_5_V8_1_Vous_tentez_d_accro_tre__la_fid_lisation____la_marque__0_Layer0_0_MEMBER_5_FILL"/>
</g>

<g transform="matrix( 3.5196380615234375, 0, 0, 3.540771484375, 0.2,17.8) ">
<use xlink:href="#BDM_250x250_FR_psd_Asset_5_V8_1_Vous_tentez_d_accro_tre__la_fid_lisation____la_marque__0_Layer0_0_MEMBER_6_FILL"/>
</g>

<g transform="matrix( 3.5196380615234375, 0, 0, 3.540771484375, 0.2,17.8) ">
<use xlink:href="#BDM_250x250_FR_psd_Asset_5_V8_1_Vous_tentez_d_accro_tre__la_fid_lisation____la_marque__0_Layer0_0_MEMBER_7_FILL"/>
</g>

<g transform="matrix( 3.5196380615234375, 0, 0, 3.540771484375, 0.2,17.8) ">
<use xlink:href="#BDM_250x250_FR_psd_Asset_5_V8_1_Vous_tentez_d_accro_tre__la_fid_lisation____la_marque__0_Layer0_0_MEMBER_8_FILL"/>
</g>

<g transform="matrix( 3.5196380615234375, 0, 0, 3.540771484375, 0.2,17.8) ">
<use xlink:href="#BDM_250x250_FR_psd_Asset_5_V8_1_Vous_tentez_d_accro_tre__la_fid_lisation____la_marque__0_Layer0_0_MEMBER_9_FILL"/>
</g>

<g transform="matrix( 3.5196380615234375, 0, 0, 3.540771484375, 0.2,17.8) ">
<use xlink:href="#BDM_250x250_FR_psd_Asset_5_V8_1_Vous_tentez_d_accro_tre__la_fid_lisation____la_marque__0_Layer0_0_MEMBER_10_FILL"/>
</g>

<g transform="matrix( 3.5196380615234375, 0, 0, 3.540771484375, 0.2,17.8) ">
<use xlink:href="#BDM_250x250_FR_psd_Asset_5_V8_1_Vous_tentez_d_accro_tre__la_fid_lisation____la_marque__0_Layer0_0_MEMBER_11_FILL"/>
</g>

<g transform="matrix( 3.5196380615234375, 0, 0, 3.540771484375, 0.2,17.8) ">
<use xlink:href="#BDM_250x250_FR_psd_Asset_5_V8_1_Vous_tentez_d_accro_tre__la_fid_lisation____la_marque__0_Layer0_0_MEMBER_12_FILL"/>
</g>

<g transform="matrix( 3.5196380615234375, 0, 0, 3.540771484375, 0.2,17.8) ">
<use xlink:href="#BDM_250x250_FR_psd_Asset_5_V8_1_Vous_tentez_d_accro_tre__la_fid_lisation____la_marque__0_Layer0_0_MEMBER_13_FILL"/>
</g>

<g transform="matrix( 3.5196380615234375, 0, 0, 3.540771484375, 0.2,17.8) ">
<use xlink:href="#BDM_250x250_FR_psd_Asset_5_V8_1_Vous_tentez_d_accro_tre__la_fid_lisation____la_marque__0_Layer0_0_MEMBER_14_FILL"/>
</g>

<g transform="matrix( 3.5196380615234375, 0, 0, 3.540771484375, 0.2,17.8) ">
<use xlink:href="#BDM_250x250_FR_psd_Asset_5_V8_1_Vous_tentez_d_accro_tre__la_fid_lisation____la_marque__0_Layer0_0_MEMBER_15_FILL"/>
</g>

<g transform="matrix( 3.5196380615234375, 0, 0, 3.540771484375, 0.2,17.8) ">
<use xlink:href="#BDM_250x250_FR_psd_Asset_5_V8_1_Vous_tentez_d_accro_tre__la_fid_lisation____la_marque__0_Layer0_0_MEMBER_16_FILL"/>
</g>

<g transform="matrix( 3.5196380615234375, 0, 0, 3.540771484375, 0.2,17.8) ">
<use xlink:href="#BDM_250x250_FR_psd_Asset_5_V8_1_Vous_tentez_d_accro_tre__la_fid_lisation____la_marque__0_Layer0_0_MEMBER_17_FILL"/>
</g>

<g transform="matrix( 3.5196380615234375, 0, 0, 3.540771484375, 0.2,17.8) ">
<use xlink:href="#BDM_250x250_FR_psd_Asset_5_V8_1_Vous_tentez_d_accro_tre__la_fid_lisation____la_marque__0_Layer0_0_MEMBER_18_FILL"/>
</g>

<g transform="matrix( 3.5196380615234375, 0, 0, 3.540771484375, 0.2,17.8) ">
<use xlink:href="#BDM_250x250_FR_psd_Asset_5_V8_1_Vous_tentez_d_accro_tre__la_fid_lisation____la_marque__0_Layer0_0_MEMBER_19_FILL"/>
</g>

<g transform="matrix( 3.5196380615234375, 0, 0, 3.540771484375, 0.2,17.8) ">
<use xlink:href="#BDM_250x250_FR_psd_Asset_5_V8_1_Vous_tentez_d_accro_tre__la_fid_lisation____la_marque__0_Layer0_0_MEMBER_20_FILL"/>
</g>

<g transform="matrix( 3.5196380615234375, 0, 0, 3.540771484375, 0.2,17.8) ">
<use xlink:href="#BDM_250x250_FR_psd_Asset_5_V8_1_Vous_tentez_d_accro_tre__la_fid_lisation____la_marque__0_Layer0_0_MEMBER_21_FILL"/>
</g>

<g transform="matrix( 3.5196380615234375, 0, 0, 3.540771484375, 0.2,17.8) ">
<use xlink:href="#BDM_250x250_FR_psd_Asset_5_V8_1_Vous_tentez_d_accro_tre__la_fid_lisation____la_marque__0_Layer0_0_MEMBER_22_FILL"/>
</g>

<g transform="matrix( 3.5196380615234375, 0, 0, 3.540771484375, 0.2,17.8) ">
<use xlink:href="#BDM_250x250_FR_psd_Asset_5_V8_1_Vous_tentez_d_accro_tre__la_fid_lisation____la_marque__0_Layer0_0_MEMBER_23_FILL"/>
</g>

<g transform="matrix( 3.5196380615234375, 0, 0, 3.540771484375, 0.2,17.8) ">
<use xlink:href="#BDM_250x250_FR_psd_Asset_5_V8_1_Vous_tentez_d_accro_tre__la_fid_lisation____la_marque__0_Layer0_0_MEMBER_24_FILL"/>
</g>

<g transform="matrix( 3.5196380615234375, 0, 0, 3.540771484375, 0.2,17.8) ">
<use xlink:href="#BDM_250x250_FR_psd_Asset_5_V8_1_Vous_tentez_d_accro_tre__la_fid_lisation____la_marque__0_Layer0_0_MEMBER_25_FILL"/>
</g>

<g transform="matrix( 3.5196380615234375, 0, 0, 3.540771484375, 0.2,17.8) ">
<use xlink:href="#BDM_250x250_FR_psd_Asset_5_V8_1_Vous_tentez_d_accro_tre__la_fid_lisation____la_marque__0_Layer0_0_MEMBER_26_FILL"/>
</g>

<g transform="matrix( 3.5196380615234375, 0, 0, 3.540771484375, 0.2,17.8) ">
<use xlink:href="#BDM_250x250_FR_psd_Asset_5_V8_1_Vous_tentez_d_accro_tre__la_fid_lisation____la_marque__0_Layer0_0_MEMBER_27_FILL"/>
</g>

<g transform="matrix( 3.5196380615234375, 0, 0, 3.540771484375, 0.2,17.8) ">
<use xlink:href="#BDM_250x250_FR_psd_Asset_5_V8_1_Vous_tentez_d_accro_tre__la_fid_lisation____la_marque__0_Layer0_0_MEMBER_28_FILL"/>
</g>

<g transform="matrix( 3.5196380615234375, 0, 0, 3.540771484375, 0.2,17.8) ">
<use xlink:href="#BDM_250x250_FR_psd_Asset_5_V8_1_Vous_tentez_d_accro_tre__la_fid_lisation____la_marque__0_Layer0_0_MEMBER_29_FILL"/>
</g>

<g transform="matrix( 3.5196380615234375, 0, 0, 3.540771484375, 0.2,17.8) ">
<use xlink:href="#BDM_250x250_FR_psd_Asset_5_V8_1_Vous_tentez_d_accro_tre__la_fid_lisation____la_marque__0_Layer0_0_MEMBER_30_FILL"/>
</g>

<g transform="matrix( 3.5196380615234375, 0, 0, 3.540771484375, 0.2,17.8) ">
<use xlink:href="#BDM_250x250_FR_psd_Asset_5_V8_1_Vous_tentez_d_accro_tre__la_fid_lisation____la_marque__0_Layer0_0_MEMBER_31_FILL"/>
</g>

<g transform="matrix( 3.5196380615234375, 0, 0, 3.540771484375, 0.2,17.8) ">
<use xlink:href="#BDM_250x250_FR_psd_Asset_5_V8_1_Vous_tentez_d_accro_tre__la_fid_lisation____la_marque__0_Layer0_0_MEMBER_32_FILL"/>
</g>

<g transform="matrix( 3.5196380615234375, 0, 0, 3.540771484375, 0.2,17.8) ">
<use xlink:href="#BDM_250x250_FR_psd_Asset_5_V8_1_Vous_tentez_d_accro_tre__la_fid_lisation____la_marque__0_Layer0_0_MEMBER_33_FILL"/>
</g>

<g transform="matrix( 3.5196380615234375, 0, 0, 3.540771484375, 0.2,17.8) ">
<use xlink:href="#BDM_250x250_FR_psd_Asset_5_V8_1_Vous_tentez_d_accro_tre__la_fid_lisation____la_marque__0_Layer0_0_MEMBER_34_FILL"/>
</g>

<g transform="matrix( 3.5196380615234375, 0, 0, 3.540771484375, 0.2,17.8) ">
<use xlink:href="#BDM_250x250_FR_psd_Asset_5_V8_1_Vous_tentez_d_accro_tre__la_fid_lisation____la_marque__0_Layer0_0_MEMBER_35_FILL"/>
</g>

<g transform="matrix( 3.5196380615234375, 0, 0, 3.540771484375, 0.2,17.8) ">
<use xlink:href="#BDM_250x250_FR_psd_Asset_5_V8_1_Vous_tentez_d_accro_tre__la_fid_lisation____la_marque__0_Layer0_0_MEMBER_36_FILL"/>
</g>

<g transform="matrix( 3.5196380615234375, 0, 0, 3.540771484375, 0.2,17.8) ">
<use xlink:href="#BDM_250x250_FR_psd_Asset_5_V8_1_Vous_tentez_d_accro_tre__la_fid_lisation____la_marque__0_Layer0_0_MEMBER_37_FILL"/>
</g>

<g transform="matrix( 3.5196380615234375, 0, 0, 3.540771484375, 0.2,17.8) ">
<use xlink:href="#BDM_250x250_FR_psd_Asset_5_V8_1_Vous_tentez_d_accro_tre__la_fid_lisation____la_marque__0_Layer0_0_MEMBER_38_FILL"/>
</g>

<g transform="matrix( 3.5196380615234375, 0, 0, 3.540771484375, 0.2,17.8) ">
<use xlink:href="#BDM_250x250_FR_psd_Asset_5_V8_1_Vous_tentez_d_accro_tre__la_fid_lisation____la_marque__0_Layer0_0_MEMBER_39_FILL"/>
</g>

<g transform="matrix( 3.5196380615234375, 0, 0, 3.540771484375, 0.2,17.8) ">
<use xlink:href="#BDM_250x250_FR_psd_Asset_5_V8_1_Vous_tentez_d_accro_tre__la_fid_lisation____la_marque__0_Layer0_0_MEMBER_40_FILL"/>
</g>

<g transform="matrix( 3.5196380615234375, 0, 0, 3.540771484375, 0.2,17.8) ">
<use xlink:href="#BDM_250x250_FR_psd_Asset_5_V8_1_Vous_tentez_d_accro_tre__la_fid_lisation____la_marque__0_Layer0_0_MEMBER_41_FILL"/>
</g>

<g transform="matrix( 3.5196380615234375, 0, 0, 3.540771484375, 0.2,17.8) ">
<use xlink:href="#BDM_250x250_FR_psd_Asset_5_V8_1_Vous_tentez_d_accro_tre__la_fid_lisation____la_marque__0_Layer0_0_MEMBER_42_FILL"/>
</g>

<g transform="matrix( 3.5196380615234375, 0, 0, 3.540771484375, 0.2,17.8) ">
<use xlink:href="#BDM_250x250_FR_psd_Asset_5_V8_1_Vous_tentez_d_accro_tre__la_fid_lisation____la_marque__0_Layer0_0_MEMBER_43_FILL"/>
</g>
</g>
</g>
</g>
</svg>
