
<svg xmlns="http://www.w3.org/2000/svg" version="1.1" xmlns:xlink="http://www.w3.org/1999/xlink" preserveAspectRatio="none" x="0px" y="0px" width="250px" height="250px" viewBox="0 0 250 250">
<defs>
<g id="BDM_250x250_FR_psd_Asset_5_V8_2_Exploitez_la_puissance_du__r_seau_Wi_Fi_pour_favoriser__des_pro_0_Layer0_0_MEMBER_0_FILL">
<path fill="#D82C26" stroke="none" d="
M 2.6 -3.7
L 2.7 -4 0.55 -4 0.55 0 2.7 0 2.75 -0.3 0.9 -0.3 0.9 -1.95 2.5 -1.95 2.55 -2.2 0.9 -2.2 0.9 -3.7 2.6 -3.7 Z"/>
</g>

<g id="BDM_250x250_FR_psd_Asset_5_V8_2_Exploitez_la_puissance_du__r_seau_Wi_Fi_pour_favoriser__des_pro_0_Layer0_0_MEMBER_1_FILL">
<path fill="#D82C26" stroke="none" d="
M 3.15 -2.65
L 4.1 -1.4 3.05 0 3.45 0 4.3 -1.15 5.15 0 5.55 0 4.5 -1.4 5.45 -2.65 5.05 -2.65 4.3 -1.6 3.55 -2.65 3.15 -2.65 Z"/>
</g>

<g id="BDM_250x250_FR_psd_Asset_5_V8_2_Exploitez_la_puissance_du__r_seau_Wi_Fi_pour_favoriser__des_pro_0_Layer0_0_MEMBER_2_FILL">
<path fill="#D82C26" stroke="none" d="
M 7.35 -2.7
Q 7 -2.7 6.7 -2.55 6.6 -2.5 6.25 -2.05
L 6.25 -2.65 5.9 -2.65 5.95 -2.15 5.95 1.35 6.25 1.35 6.25 -0.55 6.3 -0.55
Q 6.45 -0.2 6.7 -0.1 7 0.05 7.35 0.05 7.75 0.05 8.05 -0.1 8.35 -0.35 8.5 -0.6 8.7 -1.1 8.7 -1.3 8.7 -1.55 8.5 -2.05 8.35 -2.3 8.05 -2.55 7.75 -2.7 7.35 -2.7
M 6.75 -2.3
Q 7 -2.45 7.3 -2.45 7.65 -2.45 7.85 -2.3
L 8.2 -1.9
Q 8.35 -1.6 8.35 -1.3 8.35 -1.05 8.2 -0.75
L 7.85 -0.35
Q 7.65 -0.2 7.3 -0.2 7 -0.2 6.75 -0.35 6.6 -0.45 6.4 -0.75 6.25 -1.05 6.25 -1.3 6.25 -1.6 6.4 -1.9 6.6 -2.2 6.75 -2.3 Z"/>
</g>

<g id="BDM_250x250_FR_psd_Asset_5_V8_2_Exploitez_la_puissance_du__r_seau_Wi_Fi_pour_favoriser__des_pro_0_Layer0_0_MEMBER_3_FILL">
<path fill="#D82C26" stroke="none" d="
M 9.2 -0.6
Q 9.2 -0.3 9.35 -0.15 9.4 -0.1 9.65 0.05
L 9.8 -0.2 9.6 -0.4 9.55 -0.65 9.55 -4.3 9.2 -4.25 9.2 -0.6 Z"/>
</g>

<g id="BDM_250x250_FR_psd_Asset_5_V8_2_Exploitez_la_puissance_du__r_seau_Wi_Fi_pour_favoriser__des_pro_0_Layer0_0_MEMBER_4_FILL">
<path fill="#D82C26" stroke="none" d="
M 12.25 -2.55
Q 11.85 -2.75 11.5 -2.75 11.2 -2.75 10.8 -2.55 10.45 -2.4 10.3 -2.05 10.1 -1.8 10.1 -1.35 10.1 -0.85 10.3 -0.6 10.45 -0.25 10.8 -0.1 11.2 0.1 11.5 0.1 11.85 0.1 12.25 -0.1 12.45 -0.2 12.75 -0.6 12.95 -1 12.95 -1.35 12.95 -1.65 12.75 -2.05 12.45 -2.45 12.25 -2.55
M 12.1 -2.3
Q 12.4 -2.1 12.45 -1.9 12.6 -1.6 12.6 -1.35 12.6 -1.05 12.45 -0.75 12.4 -0.55 12.1 -0.35 11.9 -0.2 11.5 -0.2 11.2 -0.2 10.95 -0.35
L 10.55 -0.75 10.45 -1.35 10.55 -1.9 10.95 -2.3
Q 11.2 -2.45 11.5 -2.45 11.8 -2.45 12.1 -2.3 Z"/>
</g>

<g id="BDM_250x250_FR_psd_Asset_5_V8_2_Exploitez_la_puissance_du__r_seau_Wi_Fi_pour_favoriser__des_pro_0_Layer0_0_MEMBER_5_FILL">
<path fill="#D82C26" stroke="none" d="
M 13.8 -2.65
L 13.5 -2.65 13.5 0 13.8 0 13.8 -2.65
M 13.5 -3.55
L 13.65 -3.45 13.8 -3.55 13.9 -3.7 13.8 -3.85 13.65 -3.95 13.5 -3.85 13.4 -3.7 13.5 -3.55 Z"/>
</g>

<g id="BDM_250x250_FR_psd_Asset_5_V8_2_Exploitez_la_puissance_du__r_seau_Wi_Fi_pour_favoriser__des_pro_0_Layer0_0_MEMBER_6_FILL">
<path fill="#D82C26" stroke="none" d="
M 15 -3.4
L 14.65 -3.3 14.65 -2.65 14.25 -2.65 14.15 -2.4 14.65 -2.4 14.65 -0.65
Q 14.65 -0.3 14.85 -0.1 15 0.05 15.3 0.05
L 15.6 0 15.85 -0.1 15.8 -0.35
Q 15.6 -0.2 15.35 -0.2 15.2 -0.2 15.1 -0.35 15 -0.4 15 -0.7
L 15 -2.4 15.65 -2.4 15.75 -2.65 15 -2.65 15 -3.4 Z"/>
</g>

<g id="BDM_250x250_FR_psd_Asset_5_V8_2_Exploitez_la_puissance_du__r_seau_Wi_Fi_pour_favoriser__des_pro_0_Layer0_0_MEMBER_7_FILL">
<path fill="#D82C26" stroke="none" d="
M 17.25 -2.75
Q 16.95 -2.75 16.55 -2.55 16.3 -2.4 16.1 -2.05 15.95 -1.75 15.95 -1.35 15.95 -0.9 16.1 -0.6 16.25 -0.25 16.6 -0.1 17 0.1 17.3 0.1 17.85 0.1 18.35 -0.25
L 18.3 -0.55 17.85 -0.3
Q 17.7 -0.2 17.3 -0.2 17.05 -0.2 16.75 -0.35 16.55 -0.5 16.4 -0.75 16.25 -0.95 16.25 -1.3
L 18.5 -1.3 18.5 -1.4
Q 18.5 -1.8 18.35 -2.1 18.2 -2.4 17.9 -2.55 17.6 -2.75 17.25 -2.75
M 16.7 -2.3
Q 16.95 -2.45 17.25 -2.45 17.7 -2.45 17.9 -2.2 18.2 -1.95 18.2 -1.5
L 16.25 -1.5
Q 16.25 -1.7 16.4 -1.95 16.45 -2.15 16.7 -2.3 Z"/>
</g>

<g id="BDM_250x250_FR_psd_Asset_5_V8_2_Exploitez_la_puissance_du__r_seau_Wi_Fi_pour_favoriser__des_pro_0_Layer0_0_MEMBER_8_FILL">
<path fill="#D82C26" stroke="none" d="
M 20.4 -2.4
L 18.75 -0.25 18.75 0 20.8 0 20.9 -0.25 19.15 -0.25 20.75 -2.4 20.75 -2.65 18.85 -2.65 18.8 -2.4 20.4 -2.4 Z"/>
</g>

<g id="BDM_250x250_FR_psd_Asset_5_V8_2_Exploitez_la_puissance_du__r_seau_Wi_Fi_pour_favoriser__des_pro_0_Layer0_0_MEMBER_9_FILL">
<path fill="#D82C26" stroke="none" d="
M 22.15 -0.6
Q 22.15 -0.3 22.3 -0.15 22.35 -0.05 22.6 0.05
L 22.75 -0.2 22.55 -0.4 22.5 -0.65 22.5 -4.3 22.15 -4.25 22.15 -0.6 Z"/>
</g>

<g id="BDM_250x250_FR_psd_Asset_5_V8_2_Exploitez_la_puissance_du__r_seau_Wi_Fi_pour_favoriser__des_pro_0_Layer0_0_MEMBER_10_FILL">
<path fill="#D82C26" stroke="none" d="
M 24.9 -1.6
L 24.6 -1.6
Q 23.05 -1.6 23.05 -0.7 23.05 -0.35 23.3 -0.1 23.6 0.05 23.9 0.05 24.3 0.05 24.5 -0.1 24.75 -0.25 24.9 -0.5
L 24.95 -0.25 24.95 0 25.25 0 25.2 -1.7
Q 25.2 -2.25 24.95 -2.45 24.65 -2.75 24.2 -2.75
L 23.65 -2.65 23.2 -2.4 23.3 -2.15 23.7 -2.35
Q 23.85 -2.45 24.15 -2.45 24.5 -2.45 24.7 -2.3 24.9 -2.1 24.9 -1.75
L 24.9 -1.6
M 23.55 -0.3
Q 23.4 -0.45 23.4 -0.7 23.4 -1.35 24.65 -1.35
L 24.9 -1.35 24.9 -1.1 24.8 -0.65
Q 24.75 -0.45 24.5 -0.3 24.35 -0.2 24 -0.2 23.7 -0.2 23.55 -0.3 Z"/>
</g>

<g id="BDM_250x250_FR_psd_Asset_5_V8_2_Exploitez_la_puissance_du__r_seau_Wi_Fi_pour_favoriser__des_pro_0_Layer0_0_MEMBER_11_FILL">
<path fill="#D82C26" stroke="none" d="
M 27.6 -2.55
Q 27.35 -2.4 27.15 -2.05
L 27.1 -2.05 27.1 -2.65 26.75 -2.65 26.8 -2.15 26.8 1.35 27.1 1.35 27.1 -0.55 27.15 -0.55
Q 27.3 -0.25 27.6 -0.1 27.85 0.05 28.2 0.05 28.6 0.05 28.9 -0.1 29.2 -0.35 29.35 -0.6 29.55 -0.95 29.55 -1.3 29.55 -1.7 29.35 -2.05 29.2 -2.3 28.9 -2.55 28.6 -2.7 28.2 -2.7 27.85 -2.7 27.6 -2.55
M 27.25 -1.9
L 27.6 -2.3
Q 27.9 -2.45 28.15 -2.45 28.5 -2.45 28.7 -2.3 29 -2.1 29.05 -1.9 29.2 -1.6 29.2 -1.3 29.2 -1.05 29.05 -0.75 29 -0.55 28.7 -0.35 28.5 -0.2 28.15 -0.2 27.9 -0.2 27.6 -0.35
L 27.25 -0.75
Q 27.1 -1.05 27.1 -1.3 27.1 -1.6 27.25 -1.9 Z"/>
</g>

<g id="BDM_250x250_FR_psd_Asset_5_V8_2_Exploitez_la_puissance_du__r_seau_Wi_Fi_pour_favoriser__des_pro_0_Layer0_0_MEMBER_12_FILL">
<path fill="#D82C26" stroke="none" d="
M 30.05 -1.05
Q 30.05 -0.6 30.3 -0.25 30.55 0.05 31 0.05 31.4 0.05 31.6 -0.1 31.85 -0.2 32 -0.55
L 32.05 0 32.35 0 32.35 -0.3 32.3 -0.6 32.3 -2.65 32 -2.65 32 -1.35
Q 32 -1 31.85 -0.7 31.75 -0.4 31.55 -0.35 31.35 -0.2 31.1 -0.2 30.7 -0.2 30.55 -0.45 30.4 -0.75 30.4 -1.1
L 30.4 -2.65 30.05 -2.65 30.05 -1.05 Z"/>
</g>

<g id="BDM_250x250_FR_psd_Asset_5_V8_2_Exploitez_la_puissance_du__r_seau_Wi_Fi_pour_favoriser__des_pro_0_Layer0_0_MEMBER_13_FILL">
<path fill="#D82C26" stroke="none" d="
M 33.4 -2.65
L 33.05 -2.65 33.05 0 33.4 0 33.4 -2.65
M 33.05 -3.55
L 33.2 -3.45 33.4 -3.55 33.45 -3.7 33.4 -3.85 33.2 -3.95 33.05 -3.85 33 -3.7 33.05 -3.55 Z"/>
</g>

<g id="BDM_250x250_FR_psd_Asset_5_V8_2_Exploitez_la_puissance_du__r_seau_Wi_Fi_pour_favoriser__des_pro_0_Layer0_0_MEMBER_14_FILL">
<path fill="#D82C26" stroke="none" d="
M 34.85 -2.75
L 34.4 -2.65 34.1 -2.4
Q 33.95 -2.25 33.95 -2 33.95 -1.7 34.15 -1.55
L 34.7 -1.25
Q 35.2 -1.05 35.25 -1 35.45 -0.85 35.45 -0.7 35.45 -0.45 35.25 -0.3
L 34.85 -0.2
Q 34.35 -0.2 33.95 -0.5
L 33.9 -0.2 34.3 0 34.85 0.05 35.3 0
Q 35.5 -0.05 35.65 -0.3
L 35.75 -0.7
Q 35.75 -1 35.55 -1.15 35.35 -1.35 34.95 -1.45
L 34.4 -1.7 34.25 -2
Q 34.25 -2.2 34.45 -2.35 34.55 -2.45 34.85 -2.45
L 35.2 -2.4 35.55 -2.2 35.7 -2.45 35.3 -2.65 34.85 -2.75 Z"/>
</g>

<g id="BDM_250x250_FR_psd_Asset_5_V8_2_Exploitez_la_puissance_du__r_seau_Wi_Fi_pour_favoriser__des_pro_0_Layer0_0_MEMBER_15_FILL">
<path fill="#D82C26" stroke="none" d="
M 37.5 -2.65
L 37 -2.75 36.6 -2.65 36.25 -2.4 36.15 -2
Q 36.15 -1.7 36.3 -1.55
L 36.9 -1.25
Q 37.4 -1.05 37.45 -1
L 37.6 -0.7
Q 37.6 -0.45 37.45 -0.3
L 37 -0.2
Q 36.55 -0.2 36.15 -0.5
L 36.1 -0.2 36.5 0 37.05 0.05 37.45 0
Q 37.65 -0.05 37.8 -0.3 37.95 -0.45 37.95 -0.7 37.95 -0.95 37.75 -1.15 37.5 -1.4 37.1 -1.45
L 36.6 -1.7 36.45 -2
Q 36.45 -2.2 36.6 -2.35 36.7 -2.45 37 -2.45
L 37.4 -2.4 37.7 -2.2 37.85 -2.45 37.5 -2.65 Z"/>
</g>

<g id="BDM_250x250_FR_psd_Asset_5_V8_2_Exploitez_la_puissance_du__r_seau_Wi_Fi_pour_favoriser__des_pro_0_Layer0_0_MEMBER_16_FILL">
<path fill="#D82C26" stroke="none" d="
M 40.15 -1.6
L 39.8 -1.6
Q 38.3 -1.6 38.3 -0.7 38.3 -0.35 38.55 -0.1 38.8 0.05 39.15 0.05 39.45 0.05 39.75 -0.1 40.05 -0.3 40.15 -0.5
L 40.15 -0.25 40.2 0 40.5 0 40.45 -1.7
Q 40.45 -2.2 40.2 -2.45 39.9 -2.75 39.45 -2.75
L 38.9 -2.65
Q 38.65 -2.6 38.45 -2.4
L 38.55 -2.15 38.95 -2.35
Q 39.1 -2.45 39.4 -2.45 39.75 -2.45 39.95 -2.3 40.15 -2 40.15 -1.75
L 40.15 -1.6
M 38.8 -0.3
Q 38.6 -0.45 38.6 -0.7 38.6 -1.35 39.85 -1.35
L 40.15 -1.35 40.15 -1.1 40.05 -0.65 39.7 -0.3
Q 39.6 -0.2 39.2 -0.2 38.9 -0.2 38.8 -0.3 Z"/>
</g>

<g id="BDM_250x250_FR_psd_Asset_5_V8_2_Exploitez_la_puissance_du__r_seau_Wi_Fi_pour_favoriser__des_pro_0_Layer0_0_MEMBER_17_FILL">
<path fill="#D82C26" stroke="none" d="
M 41.9 -2.3
Q 42.15 -2.45 42.35 -2.45 42.75 -2.45 42.9 -2.2 43.1 -1.95 43.1 -1.55
L 43.1 0 43.4 0 43.4 -1.6
Q 43.4 -2.15 43.15 -2.4 42.95 -2.7 42.45 -2.7 42.15 -2.7 41.85 -2.55 41.6 -2.35 41.5 -2.05
L 41.45 -2.05 41.45 -2.65 41.15 -2.65 41.15 0 41.5 0 41.5 -1.35
Q 41.5 -1.75 41.6 -1.95 41.7 -2.2 41.9 -2.3 Z"/>
</g>

<g id="BDM_250x250_FR_psd_Asset_5_V8_2_Exploitez_la_puissance_du__r_seau_Wi_Fi_pour_favoriser__des_pro_0_Layer0_0_MEMBER_18_FILL">
<path fill="#D82C26" stroke="none" d="
M 45.35 -2.75
Q 45.1 -2.75 44.6 -2.55 44.4 -2.45 44.1 -2.05 43.95 -1.75 43.95 -1.3 43.95 -0.9 44.1 -0.6 44.4 -0.2 44.6 -0.1 45 0.1 45.3 0.1
L 45.85 0
Q 46 -0.05 46.2 -0.25
L 46.15 -0.5 45.8 -0.3 45.35 -0.2
Q 45.05 -0.2 44.8 -0.35 44.6 -0.45 44.4 -0.75 44.3 -0.95 44.3 -1.3 44.3 -1.7 44.4 -1.9 44.6 -2.2 44.8 -2.3 45.05 -2.45 45.35 -2.45
L 45.75 -2.35 46.1 -2.15 46.2 -2.4
Q 46.1 -2.55 45.85 -2.65
L 45.35 -2.75 Z"/>
</g>

<g id="BDM_250x250_FR_psd_Asset_5_V8_2_Exploitez_la_puissance_du__r_seau_Wi_Fi_pour_favoriser__des_pro_0_Layer0_0_MEMBER_19_FILL">
<path fill="#D82C26" stroke="none" d="
M 47.75 -2.75
Q 47.45 -2.75 47.05 -2.55 46.8 -2.4 46.6 -2.05 46.4 -1.8 46.4 -1.35 46.4 -0.85 46.6 -0.6 46.8 -0.25 47.05 -0.1 47.55 0.1 47.75 0.1 48.35 0.1 48.85 -0.25
L 48.75 -0.55 48.35 -0.3
Q 48.15 -0.2 47.8 -0.2 47.5 -0.2 47.25 -0.35 46.95 -0.55 46.9 -0.75 46.75 -0.95 46.75 -1.3
L 49 -1.3 49 -1.4
Q 49 -1.8 48.85 -2.1 48.7 -2.4 48.4 -2.55 48 -2.75 47.75 -2.75
M 47.2 -2.3
Q 47.45 -2.45 47.75 -2.45 48.2 -2.45 48.4 -2.2 48.65 -1.95 48.65 -1.5
L 46.75 -1.5 46.85 -1.95 47.2 -2.3 Z"/>
</g>

<g id="BDM_250x250_FR_psd_Asset_5_V8_2_Exploitez_la_puissance_du__r_seau_Wi_Fi_pour_favoriser__des_pro_0_Layer0_0_MEMBER_20_FILL">
<path fill="#D82C26" stroke="none" d="
M 50.2 -1.3
Q 50.2 -0.95 50.35 -0.6 50.5 -0.35 50.8 -0.1 51.1 0.05 51.5 0.05 51.85 0.05 52.15 -0.1 52.45 -0.25 52.6 -0.6
L 52.65 0 52.95 0 52.9 -0.65 52.9 -4.35 52.6 -4.25 52.6 -2.05
Q 52.45 -2.4 52.15 -2.55 51.85 -2.7 51.5 -2.7 51.1 -2.7 50.8 -2.55 50.5 -2.3 50.35 -2.05 50.2 -1.65 50.2 -1.3
M 52.1 -2.3
Q 52.4 -2.1 52.45 -1.9 52.6 -1.6 52.6 -1.3 52.6 -1.05 52.45 -0.75 52.4 -0.55 52.1 -0.35 51.9 -0.2 51.55 -0.2 51.25 -0.2 51 -0.35
L 50.65 -0.75
Q 50.5 -1.05 50.5 -1.3 50.5 -1.6 50.65 -1.9
L 51 -2.3
Q 51.25 -2.45 51.55 -2.45 51.9 -2.45 52.1 -2.3 Z"/>
</g>

<g id="BDM_250x250_FR_psd_Asset_5_V8_2_Exploitez_la_puissance_du__r_seau_Wi_Fi_pour_favoriser__des_pro_0_Layer0_0_MEMBER_21_FILL">
<path fill="#D82C26" stroke="none" d="
M 53.95 -2.65
L 53.6 -2.65 53.6 -1.05
Q 53.6 -0.6 53.85 -0.25 54.1 0.05 54.6 0.05 54.95 0.05 55.15 -0.1 55.4 -0.2 55.55 -0.55
L 55.6 0 55.95 0 55.9 -0.3 55.9 -2.65 55.55 -2.65 55.55 -1.35 55.45 -0.7
Q 55.25 -0.4 55.1 -0.35 54.95 -0.2 54.65 -0.2 54.25 -0.2 54.1 -0.45 53.95 -0.75 53.95 -1.1
L 53.95 -2.65 Z"/>
</g>

<g id="BDM_250x250_FR_psd_Asset_5_V8_2_Exploitez_la_puissance_du__r_seau_Wi_Fi_pour_favoriser__des_pro_0_Layer0_0_MEMBER_22_FILL">
<path fill="#D82C26" stroke="none" d="
M 1.6 4.05
L 1.85 4.1 1.9 3.8 1.65 3.75
Q 1.4 3.75 1.2 3.95 1 4.1 0.85 4.4
L 0.8 3.85 0.5 3.85 0.55 6.5 0.85 6.5 0.85 5.2
Q 0.85 4.8 1.05 4.4 1.3 4.05 1.6 4.05 Z"/>
</g>

<g id="BDM_250x250_FR_psd_Asset_5_V8_2_Exploitez_la_puissance_du__r_seau_Wi_Fi_pour_favoriser__des_pro_0_Layer0_0_MEMBER_23_FILL">
<path fill="#D82C26" stroke="none" d="
M 1.95 5.15
Q 1.95 5.6 2.1 5.9
L 2.6 6.4
Q 2.9 6.55 3.3 6.55 3.9 6.55 4.35 6.25
L 4.3 5.95
Q 4.1 6.15 3.85 6.2
L 3.3 6.3
Q 3.05 6.3 2.8 6.15 2.55 6 2.4 5.75 2.25 5.55 2.25 5.2
L 4.5 5.2 4.5 5.1
Q 4.5 4.7 4.35 4.4 4.2 4.15 3.95 3.95 3.55 3.75 3.25 3.75 3 3.75 2.6 3.95 2.4 4.05 2.1 4.45 1.95 4.75 1.95 5.15
M 2.25 5
L 2.4 4.55
Q 2.45 4.4 2.75 4.2 3 4.05 3.25 4.05 3.7 4.05 3.95 4.3 4.2 4.55 4.2 5
L 2.25 5
M 4 2.5
L 3.6 2.5 3 3.3 3.3 3.3 4 2.5 Z"/>
</g>

<g id="BDM_250x250_FR_psd_Asset_5_V8_2_Exploitez_la_puissance_du__r_seau_Wi_Fi_pour_favoriser__des_pro_0_Layer0_0_MEMBER_24_FILL">
<path fill="#D82C26" stroke="none" d="
M 6.45 4.3
L 6.6 4.05 6.25 3.85 5.75 3.75 5.35 3.85 5 4.1 4.9 4.5
Q 4.9 4.8 5.1 4.95
L 5.65 5.25
Q 6.05 5.35 6.2 5.5 6.35 5.6 6.35 5.8 6.35 6.05 6.2 6.2
L 5.8 6.3
Q 5.3 6.3 4.9 6
L 4.85 6.3 5.25 6.5 5.8 6.55 6.25 6.5 6.55 6.2
Q 6.7 6.05 6.7 5.8 6.7 5.55 6.5 5.35 6.3 5.15 5.9 5
L 5.35 4.8 5.2 4.5
Q 5.2 4.25 5.35 4.15 5.5 4.05 5.8 4.05
L 6.15 4.1
Q 6.4 4.25 6.45 4.3 Z"/>
</g>

<g id="BDM_250x250_FR_psd_Asset_5_V8_2_Exploitez_la_puissance_du__r_seau_Wi_Fi_pour_favoriser__des_pro_0_Layer0_0_MEMBER_25_FILL">
<path fill="#D82C26" stroke="none" d="
M 7 5.15
Q 7 5.5 7.2 5.9 7.3 6.1 7.7 6.4 8 6.55 8.4 6.55 9 6.55 9.45 6.25
L 9.4 5.95 8.95 6.2 8.4 6.3
Q 8.1 6.3 7.85 6.15 7.65 6 7.5 5.75 7.35 5.55 7.35 5.2
L 9.6 5.2 9.6 5.1
Q 9.6 4.7 9.45 4.4 9.3 4.1 9 3.95 8.6 3.75 8.35 3.75 8.05 3.75 7.65 3.95 7.4 4.1 7.2 4.45 7 4.85 7 5.15
M 7.35 5
L 7.5 4.55
Q 7.55 4.35 7.8 4.2 8.05 4.05 8.35 4.05 8.8 4.05 9 4.3 9.2 4.45 9.3 5
L 7.35 5 Z"/>
</g>

<g id="BDM_250x250_FR_psd_Asset_5_V8_2_Exploitez_la_puissance_du__r_seau_Wi_Fi_pour_favoriser__des_pro_0_Layer0_0_MEMBER_26_FILL">
<path fill="#D82C26" stroke="none" d="
M 10.55 4.15
Q 10.7 4.05 11 4.05 11.35 4.05 11.55 4.2 11.75 4.4 11.75 4.75
L 11.75 4.9 11.45 4.9
Q 9.9 4.9 9.9 5.8 9.9 6.2 10.15 6.35 10.4 6.55 10.75 6.55 11.05 6.55 11.35 6.4 11.55 6.3 11.75 6
L 11.75 6.25 11.8 6.5 12.1 6.5 12.05 4.8
Q 12.05 4.35 11.8 4 11.45 3.75 11.05 3.75
L 10.5 3.85 10.05 4.1 10.15 4.35 10.55 4.15
M 11.75 5.4
L 11.65 5.85 11.35 6.2 10.8 6.3
Q 10.5 6.3 10.4 6.2 10.25 6.05 10.25 5.75 10.25 5.15 11.45 5.15
L 11.75 5.15 11.75 5.4 Z"/>
</g>

<g id="BDM_250x250_FR_psd_Asset_5_V8_2_Exploitez_la_puissance_du__r_seau_Wi_Fi_pour_favoriser__des_pro_0_Layer0_0_MEMBER_27_FILL">
<path fill="#D82C26" stroke="none" d="
M 15 3.85
L 14.65 3.85 14.65 5.15 14.55 5.8
Q 14.35 6.1 14.2 6.15 14.05 6.3 13.75 6.3 13.45 6.3 13.2 6.05 13.05 5.75 13.05 5.4
L 13.05 3.85 12.7 3.85 12.7 5.45
Q 12.7 5.9 12.95 6.25 13.2 6.55 13.7 6.55 14.05 6.55 14.25 6.4 14.55 6.25 14.65 5.95
L 14.7 6.5 15.05 6.5 15 6.2 15 3.85 Z"/>
</g>

<g id="BDM_250x250_FR_psd_Asset_5_V8_2_Exploitez_la_puissance_du__r_seau_Wi_Fi_pour_favoriser__des_pro_0_Layer0_0_MEMBER_28_FILL">
<path fill="#D82C26" stroke="none" d="
M 20.3 6.5
L 21.45 2.5 21.1 2.5 20.1 6.05 19.05 2.5 18.65 2.5 17.6 6.05 16.55 2.5 16.2 2.5 17.4 6.5 17.8 6.5 18.8 2.95 18.85 2.95 19.9 6.5 20.3 6.5 Z"/>
</g>

<g id="BDM_250x250_FR_psd_Asset_5_V8_2_Exploitez_la_puissance_du__r_seau_Wi_Fi_pour_favoriser__des_pro_0_Layer0_0_MEMBER_29_FILL">
<path fill="#D82C26" stroke="none" d="
M 22.2 3.85
L 21.9 3.85 21.9 6.5 22.2 6.5 22.2 3.85
M 21.9 2.95
L 22.05 3.05 22.2 2.95 22.3 2.8 22.2 2.6 22.05 2.55 21.9 2.6 21.8 2.8 21.9 2.95 Z"/>
</g>

<g id="BDM_250x250_FR_psd_Asset_5_V8_2_Exploitez_la_puissance_du__r_seau_Wi_Fi_pour_favoriser__des_pro_0_Layer0_0_MEMBER_30_FILL">
<path fill="#D82C26" stroke="none" d="
M 22.8 4.95
L 22.8 5.2 23.95 5.2 23.95 4.95 22.8 4.95 Z"/>
</g>

<g id="BDM_250x250_FR_psd_Asset_5_V8_2_Exploitez_la_puissance_du__r_seau_Wi_Fi_pour_favoriser__des_pro_0_Layer0_0_MEMBER_31_FILL">
<path fill="#D82C26" stroke="none" d="
M 26.55 4.6
L 26.6 4.3 25 4.3 25 2.8 26.65 2.8 26.7 2.5 24.65 2.5 24.65 6.5 25 6.5 25 4.6 26.55 4.6 Z"/>
</g>

<g id="BDM_250x250_FR_psd_Asset_5_V8_2_Exploitez_la_puissance_du__r_seau_Wi_Fi_pour_favoriser__des_pro_0_Layer0_0_MEMBER_32_FILL">
<path fill="#D82C26" stroke="none" d="
M 27.55 3.85
L 27.2 3.85 27.2 6.5 27.55 6.5 27.55 3.85
M 27.2 2.95
L 27.35 3.05 27.55 2.95 27.6 2.8 27.55 2.6 27.35 2.55 27.2 2.6 27.15 2.8 27.2 2.95 Z"/>
</g>

<g id="BDM_250x250_FR_psd_Asset_5_V8_2_Exploitez_la_puissance_du__r_seau_Wi_Fi_pour_favoriser__des_pro_0_Layer0_0_MEMBER_33_FILL">
<path fill="#D82C26" stroke="none" d="
M 31.25 3.95
Q 30.85 3.75 30.55 3.75 30.25 3.75 29.95 3.95 29.65 4.1 29.5 4.45
L 29.45 4.45 29.45 3.85 29.15 3.85 29.15 7.85 29.5 7.85 29.5 5.95
Q 29.65 6.25 29.95 6.4 30.2 6.55 30.55 6.55 30.95 6.55 31.25 6.4 31.55 6.15 31.7 5.9 31.9 5.55 31.9 5.15 31.9 4.7 31.7 4.45 31.55 4.2 31.25 3.95
M 30.5 4.05
Q 30.85 4.05 31.05 4.2 31.35 4.4 31.4 4.6 31.55 4.9 31.55 5.15 31.55 5.45 31.4 5.75 31.35 5.95 31.05 6.15 30.85 6.3 30.5 6.3 30.25 6.3 30 6.15 29.8 6.05 29.6 5.75 29.45 5.45 29.45 5.15 29.45 4.9 29.6 4.6 29.8 4.3 30 4.2 30.25 4.05 30.5 4.05 Z"/>
</g>

<g id="BDM_250x250_FR_psd_Asset_5_V8_2_Exploitez_la_puissance_du__r_seau_Wi_Fi_pour_favoriser__des_pro_0_Layer0_0_MEMBER_34_FILL">
<path fill="#D82C26" stroke="none" d="
M 32.45 4.45
Q 32.25 4.7 32.25 5.15 32.25 5.65 32.45 5.9 32.55 6.1 32.95 6.4 33.25 6.55 33.65 6.55 34.1 6.55 34.4 6.4 34.8 6.1 34.9 5.9 35.1 5.5 35.1 5.15 35.1 4.85 34.9 4.45 34.75 4.1 34.4 3.95 34 3.75 33.65 3.75 33.35 3.75 32.95 3.95 32.6 4.1 32.45 4.45
M 32.6 5.15
Q 32.6 4.85 32.75 4.6 32.8 4.4 33.1 4.2 33.35 4.05 33.65 4.05 33.95 4.05 34.25 4.2 34.55 4.4 34.6 4.6 34.75 4.85 34.75 5.15 34.75 5.45 34.6 5.75 34.55 5.95 34.25 6.15 34.05 6.3 33.65 6.3 33.35 6.3 33.1 6.15 32.8 5.95 32.75 5.75 32.6 5.45 32.6 5.15 Z"/>
</g>

<g id="BDM_250x250_FR_psd_Asset_5_V8_2_Exploitez_la_puissance_du__r_seau_Wi_Fi_pour_favoriser__des_pro_0_Layer0_0_MEMBER_35_FILL">
<path fill="#D82C26" stroke="none" d="
M 37.85 3.85
L 37.55 3.85 37.55 5.15
Q 37.55 5.5 37.4 5.8 37.3 6.1 37.1 6.15 36.9 6.3 36.65 6.3 36.25 6.3 36.1 6.05 35.95 5.75 35.95 5.4
L 35.95 3.85 35.6 3.85 35.6 5.45
Q 35.6 5.9 35.85 6.25 36.1 6.55 36.55 6.55 36.85 6.55 37.15 6.4 37.3 6.35 37.55 5.95
L 37.6 6.5 37.9 6.5 37.85 6.2 37.85 3.85 Z"/>
</g>

<g id="BDM_250x250_FR_psd_Asset_5_V8_2_Exploitez_la_puissance_du__r_seau_Wi_Fi_pour_favoriser__des_pro_0_Layer0_0_MEMBER_36_FILL">
<path fill="#D82C26" stroke="none" d="
M 39.7 4.05
L 39.9 4.1 40 3.8 39.7 3.75
Q 39.55 3.75 39.25 3.95 39.05 4.1 38.95 4.4
L 38.9 4.4 38.9 3.85 38.6 3.85 38.6 6.5 38.95 6.5 38.95 5.2
Q 38.95 4.65 39.15 4.4 39.35 4.05 39.7 4.05 Z"/>
</g>

<g id="BDM_250x250_FR_psd_Asset_5_V8_2_Exploitez_la_puissance_du__r_seau_Wi_Fi_pour_favoriser__des_pro_0_Layer0_0_MEMBER_37_FILL">
<path fill="#D82C26" stroke="none" d="
M 42.05 2.15
Q 41.7 2.15 41.45 2.4 41.2 2.65 41.2 3.1
L 41.2 3.85 40.75 3.85 40.65 4.1 41.25 4.1 41.25 6.5 41.55 6.5 41.55 4.1 42.15 4.1 42.25 3.85 41.55 3.85 41.55 3.1 41.65 2.6
Q 41.8 2.45 42.05 2.45
L 42.5 2.5 42.55 2.2 42.3 2.15 42.05 2.15 Z"/>
</g>

<g id="BDM_250x250_FR_psd_Asset_5_V8_2_Exploitez_la_puissance_du__r_seau_Wi_Fi_pour_favoriser__des_pro_0_Layer0_0_MEMBER_38_FILL">
<path fill="#D82C26" stroke="none" d="
M 43 3.85
Q 42.75 3.9 42.55 4.1
L 42.65 4.35 43.05 4.15
Q 43.2 4.05 43.5 4.05 43.85 4.05 44.05 4.2 44.25 4.5 44.25 4.75
L 44.25 4.9 43.9 4.9
Q 42.4 4.9 42.4 5.8 42.4 6.2 42.65 6.35 42.85 6.55 43.25 6.55 43.55 6.55 43.85 6.4 44.15 6.2 44.2 6
L 44.25 6 44.25 6.25 44.3 6.5 44.6 6.5 44.55 4.8
Q 44.55 4.3 44.25 4 44 3.75 43.5 3.75
L 43 3.85
M 44.25 5.4
L 44.1 5.85
Q 44 6.1 43.8 6.2
L 43.3 6.3
Q 43 6.3 42.9 6.2 42.7 6.05 42.7 5.75 42.7 5.15 43.95 5.15
L 44.25 5.15 44.25 5.4 Z"/>
</g>

<g id="BDM_250x250_FR_psd_Asset_5_V8_2_Exploitez_la_puissance_du__r_seau_Wi_Fi_pour_favoriser__des_pro_0_Layer0_0_MEMBER_39_FILL">
<path fill="#D82C26" stroke="none" d="
M 44.75 3.85
L 45.8 6.5 46.15 6.5 47.15 3.85 46.8 3.85 46 6.15 45.1 3.85 44.75 3.85 Z"/>
</g>

<g id="BDM_250x250_FR_psd_Asset_5_V8_2_Exploitez_la_puissance_du__r_seau_Wi_Fi_pour_favoriser__des_pro_0_Layer0_0_MEMBER_40_FILL">
<path fill="#D82C26" stroke="none" d="
M 47.4 4.45
Q 47.25 4.75 47.25 5.15 47.25 5.6 47.4 5.9
L 47.9 6.4
Q 48.3 6.55 48.65 6.55 49.05 6.55 49.35 6.4 49.7 6.2 49.85 5.9 50.05 5.65 50.05 5.15 50.05 4.7 49.85 4.45 49.65 4.1 49.35 3.95 48.95 3.75 48.65 3.75 48.4 3.75 47.9 3.95 47.7 4.05 47.4 4.45
M 47.7 4.6
Q 47.9 4.3 48.05 4.2 48.35 4.05 48.65 4.05 49 4.05 49.2 4.2
L 49.6 4.6 49.7 5.15 49.6 5.75
Q 49.4 6.05 49.2 6.15 49 6.3 48.65 6.3 48.35 6.3 48.05 6.15 47.9 6.05 47.7 5.75 47.55 5.45 47.55 5.15 47.55 4.85 47.7 4.6 Z"/>
</g>

<g id="BDM_250x250_FR_psd_Asset_5_V8_2_Exploitez_la_puissance_du__r_seau_Wi_Fi_pour_favoriser__des_pro_0_Layer0_0_MEMBER_41_FILL">
<path fill="#D82C26" stroke="none" d="
M 50.95 5.2
Q 50.95 4.65 51.15 4.4 51.35 4.05 51.7 4.05
L 51.9 4.1 52 3.8 51.7 3.75
Q 51.55 3.75 51.25 3.95 51.05 4.1 50.9 4.4
L 50.9 3.85 50.55 3.85 50.6 6.5 50.95 6.5 50.95 5.2 Z"/>
</g>

<g id="BDM_250x250_FR_psd_Asset_5_V8_2_Exploitez_la_puissance_du__r_seau_Wi_Fi_pour_favoriser__des_pro_0_Layer0_0_MEMBER_42_FILL">
<path fill="#D82C26" stroke="none" d="
M 52.65 3.85
L 52.3 3.85 52.3 6.5 52.65 6.5 52.65 3.85
M 52.3 2.95
L 52.45 3.05 52.65 2.95 52.7 2.8 52.65 2.6 52.45 2.55 52.3 2.6 52.25 2.8 52.3 2.95 Z"/>
</g>

<g id="BDM_250x250_FR_psd_Asset_5_V8_2_Exploitez_la_puissance_du__r_seau_Wi_Fi_pour_favoriser__des_pro_0_Layer0_0_MEMBER_43_FILL">
<path fill="#D82C26" stroke="none" d="
M 54.95 4.05
L 54.55 3.85 54.1 3.75 53.65 3.85
Q 53.4 3.95 53.35 4.1 53.2 4.25 53.2 4.5 53.2 4.8 53.4 4.95
L 53.95 5.25
Q 54.35 5.35 54.5 5.5 54.7 5.55 54.7 5.8 54.7 6.05 54.5 6.2
L 54.1 6.3
Q 53.6 6.3 53.2 6
L 53.15 6.3 53.55 6.5 54.1 6.55 54.55 6.5
Q 54.8 6.3 54.9 6.2
L 55 5.8
Q 55 5.5 54.8 5.35 54.7 5.2 54.2 5
L 53.65 4.8 53.5 4.5
Q 53.5 4.2 53.7 4.15 53.8 4.05 54.1 4.05
L 54.45 4.1 54.8 4.3 54.95 4.05 Z"/>
</g>

<g id="BDM_250x250_FR_psd_Asset_5_V8_2_Exploitez_la_puissance_du__r_seau_Wi_Fi_pour_favoriser__des_pro_0_Layer0_0_MEMBER_44_FILL">
<path fill="#D82C26" stroke="none" d="
M 57.75 4.4
Q 57.6 4.15 57.35 3.95 56.95 3.75 56.65 3.75 56.4 3.75 56 3.95 55.8 4.05 55.5 4.45 55.35 4.75 55.35 5.15 55.35 5.6 55.5 5.9
L 56 6.4
Q 56.3 6.55 56.7 6.55 57.3 6.55 57.75 6.25
L 57.7 5.95
Q 57.5 6.15 57.25 6.2
L 56.7 6.3
Q 56.45 6.3 56.2 6.15 55.95 6 55.8 5.75 55.65 5.55 55.65 5.2
L 57.9 5.2 57.9 5.1
Q 57.9 4.7 57.75 4.4
M 56.15 4.2
Q 56.4 4.05 56.65 4.05 57.1 4.05 57.35 4.3 57.6 4.55 57.6 5
L 55.65 5 55.8 4.55
Q 55.85 4.4 56.15 4.2 Z"/>
</g>

<g id="BDM_250x250_FR_psd_Asset_5_V8_2_Exploitez_la_puissance_du__r_seau_Wi_Fi_pour_favoriser__des_pro_0_Layer0_0_MEMBER_45_FILL">
<path fill="#D82C26" stroke="none" d="
M 59.55 4.05
L 59.75 4.1 59.85 3.8 59.55 3.75
Q 59.4 3.75 59.1 3.95 58.9 4.1 58.8 4.4
L 58.75 4.4 58.75 3.85 58.4 3.85 58.45 6.5 58.8 6.5 58.8 5.2
Q 58.8 4.65 59 4.4 59.2 4.05 59.55 4.05 Z"/>
</g>

<g id="BDM_250x250_FR_psd_Asset_5_V8_2_Exploitez_la_puissance_du__r_seau_Wi_Fi_pour_favoriser__des_pro_0_Layer0_0_MEMBER_46_FILL">
<path fill="#D82C26" stroke="none" d="
M 3.05 8.65
L 2.75 8.7 2.75 10.9 2.7 10.9
Q 2.55 10.6 2.25 10.45 1.95 10.25 1.65 10.25 1.35 10.25 0.95 10.45 0.7 10.6 0.5 10.95 0.3 11.2 0.3 11.65 0.3 12.05 0.5 12.4 0.65 12.65 0.95 12.9 1.25 13.05 1.65 13.05 2.05 13.05 2.25 12.9 2.45 12.8 2.75 12.4
L 2.75 13 3.1 13 3.05 8.65
M 1.7 10.55
Q 1.95 10.55 2.25 10.7
L 2.6 11.1
Q 2.75 11.4 2.75 11.65 2.75 11.95 2.6 12.25
L 2.25 12.65
Q 1.95 12.8 1.7 12.8 1.4 12.8 1.15 12.65 0.85 12.45 0.8 12.25 0.65 11.95 0.65 11.65 0.65 11.4 0.8 11.1 0.85 10.9 1.15 10.7 1.4 10.55 1.7 10.55 Z"/>
</g>

<g id="BDM_250x250_FR_psd_Asset_5_V8_2_Exploitez_la_puissance_du__r_seau_Wi_Fi_pour_favoriser__des_pro_0_Layer0_0_MEMBER_47_FILL">
<path fill="#D82C26" stroke="none" d="
M 4.05 12.25
L 3.95 11.7 6.15 11.7 6.2 11.55
Q 6.2 11.2 6.05 10.9 5.9 10.6 5.6 10.45 5.35 10.25 4.9 10.25 4.5 10.25 4.25 10.45 3.95 10.6 3.8 10.95 3.6 11.2 3.6 11.65 3.6 12.05 3.8 12.4 3.95 12.65 4.25 12.9 4.55 13.05 4.95 13.05 5.65 13.05 6 12.75
L 5.95 12.45 5.55 12.7 5 12.8
Q 4.7 12.8 4.45 12.65
L 4.05 12.25
M 4.4 10.65
Q 4.65 10.5 4.9 10.5 5.4 10.5 5.6 10.8 5.85 11.05 5.85 11.45
L 3.95 11.45 4.05 11.05 4.4 10.65 Z"/>
</g>

<g id="BDM_250x250_FR_psd_Asset_5_V8_2_Exploitez_la_puissance_du__r_seau_Wi_Fi_pour_favoriser__des_pro_0_Layer0_0_MEMBER_48_FILL">
<path fill="#D82C26" stroke="none" d="
M 7.05 10.65
Q 7.15 10.55 7.45 10.55
L 7.8 10.6 8.15 10.8 8.3 10.55 7.9 10.35 7.45 10.25 7 10.35 6.7 10.6
Q 6.55 10.75 6.55 11 6.55 11.3 6.75 11.45
L 7.3 11.75
Q 7.7 11.85 7.85 12 8.05 12.05 8.05 12.3 8.05 12.6 7.85 12.65 7.7 12.8 7.45 12.8 6.95 12.8 6.55 12.5
L 6.5 12.75 6.9 13 7.45 13.05 7.9 13
Q 8.15 12.8 8.25 12.7
L 8.35 12.3
Q 8.35 12 8.15 11.85 8.05 11.7 7.55 11.5
L 7 11.3
Q 6.85 11.15 6.85 10.95 6.85 10.75 7.05 10.65 Z"/>
</g>

<g id="BDM_250x250_FR_psd_Asset_5_V8_2_Exploitez_la_puissance_du__r_seau_Wi_Fi_pour_favoriser__des_pro_0_Layer0_0_MEMBER_49_FILL">
<path fill="#D82C26" stroke="none" d="
M 11.15 10.25
Q 10.9 10.25 10.5 10.45 10.2 10.6 10.05 10.9
L 10.05 10.35 9.7 10.35 9.7 14.35 10.05 14.35 10.05 12.45
Q 10.2 12.75 10.5 12.9 10.8 13.05 11.15 13.05 11.55 13.05 11.85 12.9 12.15 12.65 12.3 12.4 12.45 12.05 12.45 11.65 12.45 11.25 12.3 10.95 12.1 10.6 11.85 10.45 11.45 10.25 11.15 10.25
M 10.55 10.7
Q 10.8 10.55 11.1 10.55 11.45 10.55 11.65 10.7
L 12 11.1
Q 12.15 11.4 12.15 11.65 12.15 11.95 12 12.25
L 11.65 12.65
Q 11.45 12.8 11.1 12.8 10.8 12.8 10.55 12.65 10.25 12.45 10.2 12.25 10.05 11.95 10.05 11.65 10.05 11.4 10.2 11.1 10.25 10.9 10.55 10.7 Z"/>
</g>

<g id="BDM_250x250_FR_psd_Asset_5_V8_2_Exploitez_la_puissance_du__r_seau_Wi_Fi_pour_favoriser__des_pro_0_Layer0_0_MEMBER_50_FILL">
<path fill="#D82C26" stroke="none" d="
M 14.1 10.55
L 14.35 10.6 14.4 10.3 14.15 10.25
Q 13.95 10.25 13.65 10.45 13.4 10.7 13.35 10.9
L 13.3 10.35 13 10.35 13.05 13 13.35 13 13.35 11.7
Q 13.35 11.3 13.55 10.9 13.75 10.55 14.1 10.55 Z"/>
</g>

<g id="BDM_250x250_FR_psd_Asset_5_V8_2_Exploitez_la_puissance_du__r_seau_Wi_Fi_pour_favoriser__des_pro_0_Layer0_0_MEMBER_51_FILL">
<path fill="#D82C26" stroke="none" d="
M 15.1 10.45
Q 14.9 10.55 14.6 10.95 14.4 11.35 14.4 11.65 14.4 11.9 14.6 12.4
L 15.1 12.9
Q 15.4 13.05 15.85 13.05 16.25 13.05 16.55 12.9 16.95 12.6 17.05 12.4 17.25 12.05 17.25 11.65 17.25 11.2 17.05 10.95 16.9 10.6 16.55 10.45 16.3 10.25 15.85 10.25 15.35 10.25 15.1 10.45
M 14.9 12.25
Q 14.75 11.95 14.75 11.65 14.75 11.35 14.9 11.1 14.95 10.9 15.25 10.7 15.55 10.55 15.85 10.55 16.2 10.55 16.4 10.7
L 16.8 11.1 16.9 11.65 16.8 12.25 16.4 12.65
Q 16.2 12.8 15.85 12.8 15.55 12.8 15.25 12.65 14.95 12.45 14.9 12.25 Z"/>
</g>

<g id="BDM_250x250_FR_psd_Asset_5_V8_2_Exploitez_la_puissance_du__r_seau_Wi_Fi_pour_favoriser__des_pro_0_Layer0_0_MEMBER_52_FILL">
<path fill="#D82C26" stroke="none" d="
M 20.85 10.25
Q 20.6 10.25 20.3 10.45 20.1 10.55 19.9 10.95 19.8 10.6 19.6 10.45 19.3 10.25 19.05 10.25 18.8 10.25 18.5 10.45 18.25 10.55 18.1 10.9
L 18.1 10.35 17.75 10.35 17.8 10.95 17.8 13 18.15 13 18.15 11.7
Q 18.15 11.25 18.25 11.05 18.35 10.75 18.55 10.7 18.7 10.55 18.95 10.55 19.3 10.55 19.45 10.75 19.65 11.15 19.65 11.45
L 19.65 13 19.95 13 19.95 11.6
Q 19.95 11.2 20.2 10.85 20.45 10.55 20.8 10.55 21.1 10.55 21.35 10.8 21.5 11.1 21.5 11.5
L 21.5 13 21.8 13 21.8 11.4
Q 21.8 10.85 21.6 10.6 21.35 10.25 20.85 10.25 Z"/>
</g>

<g id="BDM_250x250_FR_psd_Asset_5_V8_2_Exploitez_la_puissance_du__r_seau_Wi_Fi_pour_favoriser__des_pro_0_Layer0_0_MEMBER_53_FILL">
<path fill="#D82C26" stroke="none" d="
M 22.55 10.95
Q 22.35 11.2 22.35 11.65 22.35 12.05 22.55 12.4 22.7 12.7 23.05 12.9 23.35 13.05 23.75 13.05 24.15 13.05 24.45 12.9 24.75 12.7 25 12.4 25.15 12.05 25.15 11.65 25.15 11.25 25 10.95 24.7 10.55 24.45 10.45 24.2 10.25 23.75 10.25 23.3 10.25 23.05 10.45 22.75 10.6 22.55 10.95
M 23.2 10.7
Q 23.45 10.55 23.75 10.55 24.1 10.55 24.3 10.7 24.5 10.8 24.7 11.1 24.85 11.35 24.85 11.65 24.85 11.95 24.7 12.25 24.5 12.55 24.3 12.65 24.1 12.8 23.75 12.8 23.45 12.8 23.2 12.65 23 12.55 22.8 12.25 22.7 12.05 22.7 11.65 22.7 11.25 22.8 11.1 23 10.8 23.2 10.7 Z"/>
</g>

<g id="BDM_250x250_FR_psd_Asset_5_V8_2_Exploitez_la_puissance_du__r_seau_Wi_Fi_pour_favoriser__des_pro_0_Layer0_0_MEMBER_54_FILL">
<path fill="#D82C26" stroke="none" d="
M 25.3 10.35
L 25.25 10.6 25.75 10.6 25.75 12.35
Q 25.75 12.7 25.9 12.85 26.05 13.05 26.35 13.05
L 26.65 13 26.9 12.9 26.85 12.65 26.45 12.8
Q 26.3 12.8 26.15 12.65
L 26.05 12.3 26.05 10.6 26.75 10.6 26.8 10.35 26.05 10.35 26.05 9.6 25.7 9.7 25.7 10.35 25.3 10.35 Z"/>
</g>

<g id="BDM_250x250_FR_psd_Asset_5_V8_2_Exploitez_la_puissance_du__r_seau_Wi_Fi_pour_favoriser__des_pro_0_Layer0_0_MEMBER_55_FILL">
<path fill="#D82C26" stroke="none" d="
M 27.6 10.35
L 27.25 10.35 27.25 13 27.6 13 27.6 10.35
M 27.45 9.05
L 27.25 9.1 27.2 9.3 27.25 9.45 27.45 9.55 27.6 9.45 27.65 9.3 27.6 9.1 27.45 9.05 Z"/>
</g>

<g id="BDM_250x250_FR_psd_Asset_5_V8_2_Exploitez_la_puissance_du__r_seau_Wi_Fi_pour_favoriser__des_pro_0_Layer0_0_MEMBER_56_FILL">
<path fill="#D82C26" stroke="none" d="
M 30.95 11.65
Q 30.95 11.2 30.75 10.95 30.55 10.6 30.25 10.45 30 10.25 29.55 10.25 29.15 10.25 28.8 10.45 28.6 10.55 28.3 10.95 28.15 11.25 28.15 11.65 28.15 12.05 28.3 12.4
L 28.8 12.9 29.55 13.05
Q 29.95 13.05 30.25 12.9 30.6 12.7 30.75 12.4 30.95 12.05 30.95 11.65
M 30.6 11.65
Q 30.6 12.05 30.5 12.25 30.3 12.55 30.1 12.65 29.9 12.8 29.55 12.8 29.25 12.8 29 12.65 28.8 12.55 28.6 12.25 28.45 11.95 28.45 11.65 28.45 11.35 28.6 11.1 28.8 10.8 29 10.7 29.25 10.55 29.55 10.55 29.9 10.55 30.1 10.7 30.3 10.8 30.5 11.1 30.6 11.25 30.6 11.65 Z"/>
</g>

<g id="BDM_250x250_FR_psd_Asset_5_V8_2_Exploitez_la_puissance_du__r_seau_Wi_Fi_pour_favoriser__des_pro_0_Layer0_0_MEMBER_57_FILL">
<path fill="#D82C26" stroke="none" d="
M 32.25 10.7
Q 32.5 10.55 32.7 10.55 33.1 10.55 33.25 10.8 33.45 11.05 33.45 11.45
L 33.45 13 33.75 13 33.75 11.4
Q 33.75 10.85 33.55 10.6 33.25 10.25 32.8 10.25 32.6 10.25 32.2 10.45 31.9 10.65 31.85 10.9
L 31.8 10.9 31.8 10.35 31.5 10.35 31.5 13 31.85 13 31.85 11.65 31.95 11.05 32.25 10.7 Z"/>
</g>

<g id="BDM_250x250_FR_psd_Asset_5_V8_2_Exploitez_la_puissance_du__r_seau_Wi_Fi_pour_favoriser__des_pro_0_Layer0_0_MEMBER_58_FILL">
<path fill="#D82C26" stroke="none" d="
M 34.75 10.35
L 34.45 10.6
Q 34.3 10.75 34.3 11 34.3 11.25 34.5 11.45
L 35.05 11.75
Q 35.45 11.85 35.6 12 35.8 12.05 35.8 12.3 35.8 12.6 35.6 12.65 35.45 12.8 35.2 12.8 34.7 12.8 34.3 12.5
L 34.25 12.75 34.65 13 35.2 13.05 35.65 13
Q 35.9 12.8 36 12.7
L 36.1 12.3
Q 36.1 12 35.9 11.85 35.75 11.65 35.3 11.5
L 34.8 11.3
Q 34.65 11.15 34.65 10.95 34.65 10.75 34.8 10.65 34.9 10.55 35.2 10.55
L 35.6 10.6 35.9 10.8 36.05 10.55 35.65 10.35 35.2 10.25 34.75 10.35 Z"/>
</g>

<g id="BDM_250x250_FR_psd_Asset_5_V8_2_Exploitez_la_puissance_du__r_seau_Wi_Fi_pour_favoriser__des_pro_0_Layer0_0_MEMBER_59_FILL">
<path fill="#D82C26" stroke="none" d="
M 37.8 8.65
L 37.5 8.7 37.5 12.35 37.45 13 37.75 13 37.8 12.4
Q 38 12.75 38.25 12.9 38.55 13.05 38.9 13.05 39.3 13.05 39.6 12.9 39.9 12.65 40.05 12.4 40.2 12.05 40.2 11.65 40.2 11.25 40.05 10.95 39.85 10.6 39.6 10.45 39.2 10.25 38.9 10.25 38.65 10.25 38.25 10.45 38 10.65 37.85 10.9
L 37.8 10.9 37.8 8.65
M 37.8 11.65
Q 37.8 11.4 37.95 11.1
L 38.3 10.7
Q 38.6 10.55 38.85 10.55 39.2 10.55 39.4 10.7 39.7 10.9 39.75 11.1 39.9 11.4 39.9 11.65 39.9 11.95 39.75 12.25 39.7 12.45 39.4 12.65 39.2 12.8 38.85 12.8 38.6 12.8 38.3 12.65
L 37.95 12.25
Q 37.8 11.95 37.8 11.65 Z"/>
</g>

<g id="BDM_250x250_FR_psd_Asset_5_V8_2_Exploitez_la_puissance_du__r_seau_Wi_Fi_pour_favoriser__des_pro_0_Layer0_0_MEMBER_60_FILL">
<path fill="#D82C26" stroke="none" d="
M 41.7 10.25
L 41.2 10.35
Q 40.95 10.4 40.75 10.6
L 40.85 10.85 41.2 10.6 41.65 10.55
Q 42.05 10.55 42.2 10.7 42.4 10.9 42.4 11.25
L 42.4 11.4 42.1 11.4
Q 40.6 11.4 40.6 12.3 40.6 12.75 40.85 12.85 41.05 13.05 41.45 13.05 41.8 13.05 42 12.9 42.3 12.75 42.4 12.5
L 42.45 12.5 42.45 13 42.8 13 42.75 11.25
Q 42.75 10.8 42.45 10.5 42.2 10.25 41.7 10.25
M 42.4 11.9
Q 42.4 12.2 42.3 12.3 42.2 12.55 42 12.7
L 41.5 12.8 41.1 12.7
Q 40.9 12.55 40.9 12.25 40.9 11.6 42.15 11.6
L 42.4 11.6 42.4 11.9 Z"/>
</g>

<g id="BDM_250x250_FR_psd_Asset_5_V8_2_Exploitez_la_puissance_du__r_seau_Wi_Fi_pour_favoriser__des_pro_0_Layer0_0_MEMBER_61_FILL">
<path fill="#D82C26" stroke="none" d="
M 45 10.55
L 44.6 10.35 44.15 10.25 43.75 10.35 43.4 10.6
Q 43.25 10.75 43.25 11 43.25 11.25 43.45 11.45
L 44 11.75
Q 44.3 11.8 44.6 12 44.75 12.1 44.75 12.3 44.75 12.6 44.6 12.65 44.4 12.8 44.15 12.8 43.6 12.8 43.3 12.5
L 43.2 12.75
Q 43.4 12.95 43.65 13
L 44.15 13.05 44.6 13
Q 44.85 12.8 44.95 12.7
L 45.05 12.3
Q 45.05 12 44.85 11.85 44.7 11.65 44.25 11.5 44.1 11.45 43.75 11.3 43.6 11.15 43.6 10.95 43.6 10.75 43.75 10.65 43.85 10.55 44.15 10.55
L 44.55 10.6 44.85 10.8 45 10.55 Z"/>
</g>

<g id="BDM_250x250_FR_psd_Asset_5_V8_2_Exploitez_la_puissance_du__r_seau_Wi_Fi_pour_favoriser__des_pro_0_Layer0_0_MEMBER_62_FILL">
<path fill="#D82C26" stroke="none" d="
M 47.45 9
L 47.05 9 46.5 9.8 46.75 9.8 47.45 9
M 45.55 10.95
Q 45.4 11.25 45.4 11.65 45.4 12.05 45.6 12.4 45.75 12.65 46.05 12.9 46.35 13.05 46.75 13.05 47.35 13.05 47.8 12.75
L 47.75 12.45 47.35 12.7 46.8 12.8
Q 46.5 12.8 46.25 12.65
L 45.85 12.25
Q 45.85 12.2 45.7 11.7
L 47.95 11.7 47.95 11.55
Q 47.95 11.2 47.8 10.9 47.75 10.6 47.4 10.45 47.15 10.25 46.7 10.25 46.3 10.25 46.05 10.45 45.75 10.6 45.55 10.95
M 46.2 10.65
Q 46.45 10.5 46.7 10.5 47.1 10.5 47.4 10.8 47.65 11.05 47.65 11.45
L 45.75 11.45 45.85 11.05 46.2 10.65 Z"/>
</g>

<g id="BDM_250x250_FR_psd_Asset_5_V8_2_Exploitez_la_puissance_du__r_seau_Wi_Fi_pour_favoriser__des_pro_0_Layer0_0_MEMBER_63_FILL">
<path fill="#D82C26" stroke="none" d="
M 50.9 11.55
Q 50.9 11.2 50.75 10.9 50.6 10.55 50.35 10.45 50.1 10.25 49.65 10.25 49.25 10.25 49 10.45 48.7 10.6 48.5 10.95 48.35 11.25 48.35 11.65 48.35 12.05 48.5 12.4
L 49 12.9
Q 49.3 13.05 49.7 13.05 50.3 13.05 50.75 12.75
L 50.7 12.45
Q 50.5 12.65 50.25 12.7
L 49.75 12.8
Q 49.45 12.8 49.2 12.65
L 48.8 12.25
Q 48.65 12.05 48.65 11.7
L 50.9 11.7 50.9 11.55
M 49.65 10.5
Q 50.05 10.5 50.35 10.8 50.6 11.05 50.6 11.45
L 48.7 11.45 48.8 11.05 49.15 10.65
Q 49.4 10.5 49.65 10.5 Z"/>
</g>

<g id="BDM_250x250_FR_psd_Asset_5_V8_2_Exploitez_la_puissance_du__r_seau_Wi_Fi_pour_favoriser__des_pro_0_Layer0_0_MEMBER_64_FILL">
<path fill="#D82C26" stroke="none" d="
M 52.65 10.35
L 52.2 10.25 51.75 10.35
Q 51.55 10.4 51.45 10.6 51.3 10.75 51.3 11 51.3 11.3 51.5 11.45
L 52.05 11.75
Q 52.45 11.85 52.6 12 52.8 12.1 52.8 12.3 52.8 12.55 52.6 12.65 52.45 12.8 52.2 12.8 51.7 12.8 51.3 12.5
L 51.25 12.75 51.65 13 52.2 13.05 52.65 13 52.95 12.7
Q 53.1 12.55 53.1 12.3 53.1 12 52.9 11.85 52.7 11.65 52.3 11.5
L 51.75 11.3
Q 51.6 11.15 51.6 10.95 51.6 10.7 51.8 10.65 51.9 10.55 52.2 10.55
L 52.55 10.6 52.9 10.8 53 10.55 52.65 10.35 Z"/>
</g>

<g id="BDM_250x250_FR_psd_Asset_5_V8_2_Exploitez_la_puissance_du__r_seau_Wi_Fi_pour_favoriser__des_pro_0_Layer0_0_MEMBER_65_FILL">
<path fill="#D82C26" stroke="none" d="
M 1.25 16.75
L 0.8 16.85 0.5 17.1
Q 0.35 17.25 0.35 17.5 0.35 17.8 0.55 17.95
L 1.1 18.25
Q 1.5 18.35 1.65 18.5 1.85 18.55 1.85 18.8 1.85 19.1 1.65 19.15 1.5 19.3 1.25 19.3 0.75 19.3 0.35 19
L 0.3 19.25 0.7 19.5 1.25 19.55
Q 1.55 19.55 1.7 19.45 1.95 19.35 2.05 19.2
L 2.15 18.8
Q 2.15 18.5 1.95 18.3
L 0.8 17.8
Q 0.65 17.65 0.65 17.45 0.65 17.25 0.85 17.15 1 17 1.25 17
L 1.6 17.1 1.95 17.3 2.1 17.05 1.7 16.85 1.25 16.75 Z"/>
</g>

<g id="BDM_250x250_FR_psd_Asset_5_V8_2_Exploitez_la_puissance_du__r_seau_Wi_Fi_pour_favoriser__des_pro_0_Layer0_0_MEMBER_66_FILL">
<path fill="#D82C26" stroke="none" d="
M 2.6 16.85
L 2.6 18.45
Q 2.6 18.9 2.85 19.25 3.1 19.55 3.6 19.55 3.95 19.55 4.15 19.4 4.4 19.2 4.55 18.9
L 4.6 19.5 4.9 19.5 4.9 19.2 4.85 18.85 4.85 16.85 4.55 16.85 4.55 18.15 4.45 18.75
Q 4.35 19 4.1 19.15 3.95 19.3 3.65 19.3 3.25 19.3 3.1 19.05 2.95 18.75 2.95 18.35
L 2.95 16.85 2.6 16.85 Z"/>
</g>

<g id="BDM_250x250_FR_psd_Asset_5_V8_2_Exploitez_la_puissance_du__r_seau_Wi_Fi_pour_favoriser__des_pro_0_Layer0_0_MEMBER_67_FILL">
<path fill="#D82C26" stroke="none" d="
M 7 16.8
L 6.7 16.75
Q 6.45 16.75 6.25 16.95 6.05 17.1 5.95 17.4
L 5.9 16.85 5.6 16.85 5.6 19.5 5.95 19.5 5.95 18.15
Q 5.95 17.65 6.15 17.4 6.35 17.05 6.7 17.05
L 6.95 17.1 7 16.8 Z"/>
</g>

<g id="BDM_250x250_FR_psd_Asset_5_V8_2_Exploitez_la_puissance_du__r_seau_Wi_Fi_pour_favoriser__des_pro_0_Layer0_0_MEMBER_68_FILL">
<path fill="#D82C26" stroke="none" d="
M 8.25 19.3
Q 8.3 19.45 8.55 19.55
L 8.7 19.25
Q 8.65 19.25 8.5 19.1
L 8.45 18.85 8.45 15.2 8.1 15.25 8.1 18.9
Q 8.1 19.15 8.25 19.3 Z"/>
</g>

<g id="BDM_250x250_FR_psd_Asset_5_V8_2_Exploitez_la_puissance_du__r_seau_Wi_Fi_pour_favoriser__des_pro_0_Layer0_0_MEMBER_69_FILL">
<path fill="#D82C26" stroke="none" d="
M 9.75 15.55
Q 9.75 15.5 9.6 15.5
L 9.4 15.55 9.35 15.75 9.4 15.9 9.6 16 9.45 16.35 9.2 16.7 9.35 16.75
Q 9.85 16.25 9.85 15.8
L 9.75 15.55 Z"/>
</g>

<g id="BDM_250x250_FR_psd_Asset_5_V8_2_Exploitez_la_puissance_du__r_seau_Wi_Fi_pour_favoriser__des_pro_0_Layer0_0_MEMBER_70_FILL">
<path fill="#D82C26" stroke="none" d="
M 11.35 16.75
Q 10.9 16.75 10.65 16.95 10.35 17.1 10.2 17.45 10 17.85 10 18.15 10 18.4 10.2 18.9 10.35 19.2 10.7 19.4 11 19.55 11.4 19.55 12 19.55 12.45 19.25
L 12.4 18.95 11.95 19.2 11.4 19.3
Q 11.1 19.3 10.85 19.15 10.55 18.95 10.5 18.75 10.35 18.55 10.35 18.2
L 12.6 18.2 12.6 18.05
Q 12.6 17.7 12.45 17.4 12.3 17.1 12 16.95 11.75 16.75 11.35 16.75
M 10.5 17.55
Q 10.6 17.3 10.8 17.15 11.05 17 11.35 17 11.8 17 12 17.3 12.25 17.5 12.25 17.95
L 10.35 17.95 10.5 17.55 Z"/>
</g>

<g id="BDM_250x250_FR_psd_Asset_5_V8_2_Exploitez_la_puissance_du__r_seau_Wi_Fi_pour_favoriser__des_pro_0_Layer0_0_MEMBER_71_FILL">
<path fill="#D82C26" stroke="none" d="
M 15.6 16.95
Q 15.45 17.05 15.25 17.45 15.2 17.2 14.95 16.95 14.75 16.75 14.4 16.75 14.05 16.75 13.85 16.95 13.6 17.05 13.45 17.4
L 13.45 16.85 13.1 16.85 13.15 17.45 13.15 19.5 13.45 19.5 13.45 18.15
Q 13.45 17.85 13.6 17.55 13.7 17.3 13.9 17.15
L 14.3 17.05
Q 14.65 17.05 14.8 17.25 14.95 17.5 14.95 17.9
L 14.95 19.5 15.3 19.5 15.3 18.1
Q 15.3 17.7 15.55 17.35 15.8 17.05 16.15 17.05 16.5 17.05 16.65 17.3 16.85 17.55 16.85 18
L 16.85 19.5 17.15 19.5 17.15 17.9
Q 17.15 17.35 16.95 17.1 16.75 16.75 16.2 16.75 15.85 16.75 15.6 16.95 Z"/>
</g>

<g id="BDM_250x250_FR_psd_Asset_5_V8_2_Exploitez_la_puissance_du__r_seau_Wi_Fi_pour_favoriser__des_pro_0_Layer0_0_MEMBER_72_FILL">
<path fill="#D82C26" stroke="none" d="
M 20.45 18.85
Q 20.6 18.55 20.6 18.15 20.6 17.75 20.45 17.45 20.3 17.1 19.95 16.95 19.55 16.75 19.3 16.75 18.9 16.75 18.65 16.95 18.35 17.1 18.2 17.4
L 18.15 16.85 17.85 16.85 17.85 20.85 18.2 20.85 18.2 18.9
Q 18.4 19.25 18.65 19.4 18.95 19.55 19.3 19.55 19.65 19.55 19.95 19.4 20.35 19.1 20.45 18.85
M 18.3 17.6
L 18.7 17.2
Q 18.95 17.05 19.25 17.05 19.5 17.05 19.8 17.2
L 20.15 17.6 20.25 18.15 20.15 18.75 19.8 19.15
Q 19.5 19.3 19.25 19.3 18.95 19.3 18.7 19.15 18.45 19 18.3 18.7
L 18.2 18.15 18.3 17.6 Z"/>
</g>

<g id="BDM_250x250_FR_psd_Asset_5_V8_2_Exploitez_la_puissance_du__r_seau_Wi_Fi_pour_favoriser__des_pro_0_Layer0_0_MEMBER_73_FILL">
<path fill="#D82C26" stroke="none" d="
M 21.25 19.3
Q 21.35 19.45 21.6 19.55
L 21.75 19.25
Q 21.7 19.25 21.55 19.1
L 21.5 18.85 21.5 15.2 21.15 15.25 21.15 18.9 21.25 19.3 Z"/>
</g>

<g id="BDM_250x250_FR_psd_Asset_5_V8_2_Exploitez_la_puissance_du__r_seau_Wi_Fi_pour_favoriser__des_pro_0_Layer0_0_MEMBER_74_FILL">
<path fill="#D82C26" stroke="none" d="
M 22.65 16.85
L 22.2 17.1 22.3 17.35 22.7 17.1 23.15 17
Q 23.4 17 23.7 17.2 23.9 17.4 23.9 17.75
L 23.9 17.9 23.55 17.9
Q 22.05 17.9 22.05 18.8 22.05 19.2 22.3 19.35 22.5 19.55 22.9 19.55 23.2 19.55 23.5 19.4 23.75 19.3 23.9 18.95
L 23.9 19.25 23.95 19.5 24.25 19.5 24.2 17.75
Q 24.2 17.35 23.95 17 23.6 16.75 23.2 16.75
L 22.65 16.85
M 23.9 18.1
L 23.9 18.4 23.8 18.8 23.5 19.15
Q 23.3 19.3 22.95 19.3
L 22.55 19.2
Q 22.35 19 22.35 18.75 22.35 18.1 23.6 18.1
L 23.9 18.1 Z"/>
</g>

<g id="BDM_250x250_FR_psd_Asset_5_V8_2_Exploitez_la_puissance_du__r_seau_Wi_Fi_pour_favoriser__des_pro_0_Layer0_0_MEMBER_75_FILL">
<path fill="#D82C26" stroke="none" d="
M 26.1 16.75
Q 25.65 16.75 25.4 16.95 25.2 17.05 24.9 17.45 24.7 17.85 24.7 18.15 24.7 18.5 24.9 18.9 25 19.1 25.4 19.4 25.7 19.55 26.1 19.55
L 26.6 19.5 27 19.25 26.95 18.95 26.6 19.2 26.15 19.3
Q 25.85 19.3 25.55 19.15 25.35 19.05 25.2 18.7 25.05 18.5 25.05 18.15 25.05 17.85 25.2 17.6
L 25.55 17.2
Q 25.85 17.05 26.1 17.05
L 26.55 17.1 26.9 17.35 27 17.1
Q 26.8 16.9 26.6 16.85
L 26.1 16.75 Z"/>
</g>

<g id="BDM_250x250_FR_psd_Asset_5_V8_2_Exploitez_la_puissance_du__r_seau_Wi_Fi_pour_favoriser__des_pro_0_Layer0_0_MEMBER_76_FILL">
<path fill="#D82C26" stroke="none" d="
M 27.4 17.45
Q 27.2 17.7 27.2 18.15 27.2 18.55 27.4 18.9 27.55 19.15 27.85 19.4 28.15 19.55 28.55 19.55 29.15 19.55 29.6 19.25
L 29.55 18.95 29.15 19.2 28.6 19.3
Q 28.3 19.3 28.05 19.15
L 27.65 18.75 27.55 18.2 29.75 18.2 29.75 18.05
Q 29.75 17.6 29.65 17.4 29.5 17.1 29.2 16.95 28.95 16.75 28.5 16.75 28.1 16.75 27.85 16.95 27.55 17.1 27.4 17.45
M 27.55 17.95
L 27.65 17.55 28 17.15
Q 28.25 17 28.5 17 28.9 17 29.2 17.3 29.45 17.55 29.45 17.95
L 27.55 17.95 Z"/>
</g>

<g id="BDM_250x250_FR_psd_Asset_5_V8_2_Exploitez_la_puissance_du__r_seau_Wi_Fi_pour_favoriser__des_pro_0_Layer0_0_MEMBER_77_FILL">
<path fill="#D82C26" stroke="none" d="
M 30.3 16.85
L 30.3 19.5 30.65 19.5 30.65 18.15 30.75 17.55 31.05 17.15 31.5 17.05
Q 31.8 17.05 32 17.25 32.15 17.5 32.15 17.9
L 32.15 19.5 32.5 19.5 32.5 18.1
Q 32.5 17.6 32.7 17.35 32.95 17.05 33.3 17.05 33.7 17.05 33.85 17.3 34 17.6 34 18
L 34 19.5 34.35 19.5 34.35 17.9
Q 34.35 17.45 34.1 17.1 33.9 16.75 33.4 16.75 33 16.75 32.8 16.95 32.55 17.15 32.45 17.45 32.25 17.05 32.1 16.95 31.9 16.75 31.55 16.75 31.25 16.75 31 16.95 30.7 17.15 30.65 17.4
L 30.6 16.85 30.3 16.85 Z"/>
</g>

<g id="BDM_250x250_FR_psd_Asset_5_V8_2_Exploitez_la_puissance_du__r_seau_Wi_Fi_pour_favoriser__des_pro_0_Layer0_0_MEMBER_78_FILL">
<path fill="#D82C26" stroke="none" d="
M 36.2 16.75
Q 35.75 16.75 35.5 16.95 35.2 17.1 35.05 17.45 34.9 17.75 34.9 18.15
L 35.05 18.9
Q 35.15 19.1 35.55 19.4 35.85 19.55 36.25 19.55 36.85 19.55 37.3 19.25
L 37.25 18.95 36.8 19.2 36.25 19.3
Q 35.95 19.3 35.7 19.15
L 35.35 18.75
Q 35.2 18.55 35.2 18.2
L 37.45 18.2 37.45 18.05
Q 37.45 17.7 37.3 17.4 37.15 17.1 36.85 16.95 36.65 16.75 36.2 16.75
M 36.85 17.3
Q 37.05 17.45 37.15 17.95
L 35.2 17.95 35.35 17.55
Q 35.45 17.3 35.65 17.15 35.9 17 36.2 17 36.65 17 36.85 17.3 Z"/>
</g>

<g id="BDM_250x250_FR_psd_Asset_5_V8_2_Exploitez_la_puissance_du__r_seau_Wi_Fi_pour_favoriser__des_pro_0_Layer0_0_MEMBER_79_FILL">
<path fill="#D82C26" stroke="none" d="
M 38.35 18.15
Q 38.35 17.7 38.45 17.55 38.5 17.4 38.75 17.15
L 39.2 17.05
Q 39.6 17.05 39.75 17.3 39.9 17.6 39.9 17.95
L 39.9 19.5 40.25 19.5 40.25 17.85
Q 40.25 17.35 40 17.1 39.8 16.75 39.25 16.75 38.9 16.75 38.7 16.95 38.45 17.05 38.3 17.4
L 38.3 16.85 37.95 16.85 38 17.45 38 19.5 38.35 19.5 38.35 18.15 Z"/>
</g>

<g id="BDM_250x250_FR_psd_Asset_5_V8_2_Exploitez_la_puissance_du__r_seau_Wi_Fi_pour_favoriser__des_pro_0_Layer0_0_MEMBER_80_FILL">
<path fill="#D82C26" stroke="none" d="
M 41 16.85
L 40.6 16.85 40.5 17.1 41 17.1 41 18.85
Q 41 19.2 41.2 19.35 41.35 19.55 41.65 19.55
L 41.95 19.5 42.2 19.4 42.15 19.15
Q 42 19.25 41.7 19.25 41.5 19.25 41.45 19.15
L 41.35 18.8 41.35 17.1 42 17.1 42.1 16.85 41.35 16.85 41.35 16.1 41 16.2 41 16.85 Z"/>
</g>
</defs>

<g transform="matrix( 1, 0, 0, 1, -69,-10) ">
<g transform="matrix( 1, 0, 0, 1, 59,25) ">
<g transform="matrix( 1, 0, 0, 1, 34,8) ">
<g transform="matrix( 3.5196380615234375, 0, 0, 3.540771484375, -0.8,15.55) ">
<use xlink:href="#BDM_250x250_FR_psd_Asset_5_V8_2_Exploitez_la_puissance_du__r_seau_Wi_Fi_pour_favoriser__des_pro_0_Layer0_0_MEMBER_0_FILL"/>
</g>

<g transform="matrix( 3.5196380615234375, 0, 0, 3.540771484375, -0.8,15.55) ">
<use xlink:href="#BDM_250x250_FR_psd_Asset_5_V8_2_Exploitez_la_puissance_du__r_seau_Wi_Fi_pour_favoriser__des_pro_0_Layer0_0_MEMBER_1_FILL"/>
</g>

<g transform="matrix( 3.5196380615234375, 0, 0, 3.540771484375, -0.8,15.55) ">
<use xlink:href="#BDM_250x250_FR_psd_Asset_5_V8_2_Exploitez_la_puissance_du__r_seau_Wi_Fi_pour_favoriser__des_pro_0_Layer0_0_MEMBER_2_FILL"/>
</g>

<g transform="matrix( 3.5196380615234375, 0, 0, 3.540771484375, -0.8,15.55) ">
<use xlink:href="#BDM_250x250_FR_psd_Asset_5_V8_2_Exploitez_la_puissance_du__r_seau_Wi_Fi_pour_favoriser__des_pro_0_Layer0_0_MEMBER_3_FILL"/>
</g>

<g transform="matrix( 3.5196380615234375, 0, 0, 3.540771484375, -0.8,15.55) ">
<use xlink:href="#BDM_250x250_FR_psd_Asset_5_V8_2_Exploitez_la_puissance_du__r_seau_Wi_Fi_pour_favoriser__des_pro_0_Layer0_0_MEMBER_4_FILL"/>
</g>

<g transform="matrix( 3.5196380615234375, 0, 0, 3.540771484375, -0.8,15.55) ">
<use xlink:href="#BDM_250x250_FR_psd_Asset_5_V8_2_Exploitez_la_puissance_du__r_seau_Wi_Fi_pour_favoriser__des_pro_0_Layer0_0_MEMBER_5_FILL"/>
</g>

<g transform="matrix( 3.5196380615234375, 0, 0, 3.540771484375, -0.8,15.55) ">
<use xlink:href="#BDM_250x250_FR_psd_Asset_5_V8_2_Exploitez_la_puissance_du__r_seau_Wi_Fi_pour_favoriser__des_pro_0_Layer0_0_MEMBER_6_FILL"/>
</g>

<g transform="matrix( 3.5196380615234375, 0, 0, 3.540771484375, -0.8,15.55) ">
<use xlink:href="#BDM_250x250_FR_psd_Asset_5_V8_2_Exploitez_la_puissance_du__r_seau_Wi_Fi_pour_favoriser__des_pro_0_Layer0_0_MEMBER_7_FILL"/>
</g>

<g transform="matrix( 3.5196380615234375, 0, 0, 3.540771484375, -0.8,15.55) ">
<use xlink:href="#BDM_250x250_FR_psd_Asset_5_V8_2_Exploitez_la_puissance_du__r_seau_Wi_Fi_pour_favoriser__des_pro_0_Layer0_0_MEMBER_8_FILL"/>
</g>

<g transform="matrix( 3.5196380615234375, 0, 0, 3.540771484375, -0.8,15.55) ">
<use xlink:href="#BDM_250x250_FR_psd_Asset_5_V8_2_Exploitez_la_puissance_du__r_seau_Wi_Fi_pour_favoriser__des_pro_0_Layer0_0_MEMBER_9_FILL"/>
</g>

<g transform="matrix( 3.5196380615234375, 0, 0, 3.540771484375, -0.8,15.55) ">
<use xlink:href="#BDM_250x250_FR_psd_Asset_5_V8_2_Exploitez_la_puissance_du__r_seau_Wi_Fi_pour_favoriser__des_pro_0_Layer0_0_MEMBER_10_FILL"/>
</g>

<g transform="matrix( 3.5196380615234375, 0, 0, 3.540771484375, -0.8,15.55) ">
<use xlink:href="#BDM_250x250_FR_psd_Asset_5_V8_2_Exploitez_la_puissance_du__r_seau_Wi_Fi_pour_favoriser__des_pro_0_Layer0_0_MEMBER_11_FILL"/>
</g>

<g transform="matrix( 3.5196380615234375, 0, 0, 3.540771484375, -0.8,15.55) ">
<use xlink:href="#BDM_250x250_FR_psd_Asset_5_V8_2_Exploitez_la_puissance_du__r_seau_Wi_Fi_pour_favoriser__des_pro_0_Layer0_0_MEMBER_12_FILL"/>
</g>

<g transform="matrix( 3.5196380615234375, 0, 0, 3.540771484375, -0.8,15.55) ">
<use xlink:href="#BDM_250x250_FR_psd_Asset_5_V8_2_Exploitez_la_puissance_du__r_seau_Wi_Fi_pour_favoriser__des_pro_0_Layer0_0_MEMBER_13_FILL"/>
</g>

<g transform="matrix( 3.5196380615234375, 0, 0, 3.540771484375, -0.8,15.55) ">
<use xlink:href="#BDM_250x250_FR_psd_Asset_5_V8_2_Exploitez_la_puissance_du__r_seau_Wi_Fi_pour_favoriser__des_pro_0_Layer0_0_MEMBER_14_FILL"/>
</g>

<g transform="matrix( 3.5196380615234375, 0, 0, 3.540771484375, -0.8,15.55) ">
<use xlink:href="#BDM_250x250_FR_psd_Asset_5_V8_2_Exploitez_la_puissance_du__r_seau_Wi_Fi_pour_favoriser__des_pro_0_Layer0_0_MEMBER_15_FILL"/>
</g>

<g transform="matrix( 3.5196380615234375, 0, 0, 3.540771484375, -0.8,15.55) ">
<use xlink:href="#BDM_250x250_FR_psd_Asset_5_V8_2_Exploitez_la_puissance_du__r_seau_Wi_Fi_pour_favoriser__des_pro_0_Layer0_0_MEMBER_16_FILL"/>
</g>

<g transform="matrix( 3.5196380615234375, 0, 0, 3.540771484375, -0.8,15.55) ">
<use xlink:href="#BDM_250x250_FR_psd_Asset_5_V8_2_Exploitez_la_puissance_du__r_seau_Wi_Fi_pour_favoriser__des_pro_0_Layer0_0_MEMBER_17_FILL"/>
</g>

<g transform="matrix( 3.5196380615234375, 0, 0, 3.540771484375, -0.8,15.55) ">
<use xlink:href="#BDM_250x250_FR_psd_Asset_5_V8_2_Exploitez_la_puissance_du__r_seau_Wi_Fi_pour_favoriser__des_pro_0_Layer0_0_MEMBER_18_FILL"/>
</g>

<g transform="matrix( 3.5196380615234375, 0, 0, 3.540771484375, -0.8,15.55) ">
<use xlink:href="#BDM_250x250_FR_psd_Asset_5_V8_2_Exploitez_la_puissance_du__r_seau_Wi_Fi_pour_favoriser__des_pro_0_Layer0_0_MEMBER_19_FILL"/>
</g>

<g transform="matrix( 3.5196380615234375, 0, 0, 3.540771484375, -0.8,15.55) ">
<use xlink:href="#BDM_250x250_FR_psd_Asset_5_V8_2_Exploitez_la_puissance_du__r_seau_Wi_Fi_pour_favoriser__des_pro_0_Layer0_0_MEMBER_20_FILL"/>
</g>

<g transform="matrix( 3.5196380615234375, 0, 0, 3.540771484375, -0.8,15.55) ">
<use xlink:href="#BDM_250x250_FR_psd_Asset_5_V8_2_Exploitez_la_puissance_du__r_seau_Wi_Fi_pour_favoriser__des_pro_0_Layer0_0_MEMBER_21_FILL"/>
</g>

<g transform="matrix( 3.5196380615234375, 0, 0, 3.540771484375, -0.8,15.55) ">
<use xlink:href="#BDM_250x250_FR_psd_Asset_5_V8_2_Exploitez_la_puissance_du__r_seau_Wi_Fi_pour_favoriser__des_pro_0_Layer0_0_MEMBER_22_FILL"/>
</g>

<g transform="matrix( 3.5196380615234375, 0, 0, 3.540771484375, -0.8,15.55) ">
<use xlink:href="#BDM_250x250_FR_psd_Asset_5_V8_2_Exploitez_la_puissance_du__r_seau_Wi_Fi_pour_favoriser__des_pro_0_Layer0_0_MEMBER_23_FILL"/>
</g>

<g transform="matrix( 3.5196380615234375, 0, 0, 3.540771484375, -0.8,15.55) ">
<use xlink:href="#BDM_250x250_FR_psd_Asset_5_V8_2_Exploitez_la_puissance_du__r_seau_Wi_Fi_pour_favoriser__des_pro_0_Layer0_0_MEMBER_24_FILL"/>
</g>

<g transform="matrix( 3.5196380615234375, 0, 0, 3.540771484375, -0.8,15.55) ">
<use xlink:href="#BDM_250x250_FR_psd_Asset_5_V8_2_Exploitez_la_puissance_du__r_seau_Wi_Fi_pour_favoriser__des_pro_0_Layer0_0_MEMBER_25_FILL"/>
</g>

<g transform="matrix( 3.5196380615234375, 0, 0, 3.540771484375, -0.8,15.55) ">
<use xlink:href="#BDM_250x250_FR_psd_Asset_5_V8_2_Exploitez_la_puissance_du__r_seau_Wi_Fi_pour_favoriser__des_pro_0_Layer0_0_MEMBER_26_FILL"/>
</g>

<g transform="matrix( 3.5196380615234375, 0, 0, 3.540771484375, -0.8,15.55) ">
<use xlink:href="#BDM_250x250_FR_psd_Asset_5_V8_2_Exploitez_la_puissance_du__r_seau_Wi_Fi_pour_favoriser__des_pro_0_Layer0_0_MEMBER_27_FILL"/>
</g>

<g transform="matrix( 3.5196380615234375, 0, 0, 3.540771484375, -0.8,15.55) ">
<use xlink:href="#BDM_250x250_FR_psd_Asset_5_V8_2_Exploitez_la_puissance_du__r_seau_Wi_Fi_pour_favoriser__des_pro_0_Layer0_0_MEMBER_28_FILL"/>
</g>

<g transform="matrix( 3.5196380615234375, 0, 0, 3.540771484375, -0.8,15.55) ">
<use xlink:href="#BDM_250x250_FR_psd_Asset_5_V8_2_Exploitez_la_puissance_du__r_seau_Wi_Fi_pour_favoriser__des_pro_0_Layer0_0_MEMBER_29_FILL"/>
</g>

<g transform="matrix( 3.5196380615234375, 0, 0, 3.540771484375, -0.8,15.55) ">
<use xlink:href="#BDM_250x250_FR_psd_Asset_5_V8_2_Exploitez_la_puissance_du__r_seau_Wi_Fi_pour_favoriser__des_pro_0_Layer0_0_MEMBER_30_FILL"/>
</g>

<g transform="matrix( 3.5196380615234375, 0, 0, 3.540771484375, -0.8,15.55) ">
<use xlink:href="#BDM_250x250_FR_psd_Asset_5_V8_2_Exploitez_la_puissance_du__r_seau_Wi_Fi_pour_favoriser__des_pro_0_Layer0_0_MEMBER_31_FILL"/>
</g>

<g transform="matrix( 3.5196380615234375, 0, 0, 3.540771484375, -0.8,15.55) ">
<use xlink:href="#BDM_250x250_FR_psd_Asset_5_V8_2_Exploitez_la_puissance_du__r_seau_Wi_Fi_pour_favoriser__des_pro_0_Layer0_0_MEMBER_32_FILL"/>
</g>

<g transform="matrix( 3.5196380615234375, 0, 0, 3.540771484375, -0.8,15.55) ">
<use xlink:href="#BDM_250x250_FR_psd_Asset_5_V8_2_Exploitez_la_puissance_du__r_seau_Wi_Fi_pour_favoriser__des_pro_0_Layer0_0_MEMBER_33_FILL"/>
</g>

<g transform="matrix( 3.5196380615234375, 0, 0, 3.540771484375, -0.8,15.55) ">
<use xlink:href="#BDM_250x250_FR_psd_Asset_5_V8_2_Exploitez_la_puissance_du__r_seau_Wi_Fi_pour_favoriser__des_pro_0_Layer0_0_MEMBER_34_FILL"/>
</g>

<g transform="matrix( 3.5196380615234375, 0, 0, 3.540771484375, -0.8,15.55) ">
<use xlink:href="#BDM_250x250_FR_psd_Asset_5_V8_2_Exploitez_la_puissance_du__r_seau_Wi_Fi_pour_favoriser__des_pro_0_Layer0_0_MEMBER_35_FILL"/>
</g>

<g transform="matrix( 3.5196380615234375, 0, 0, 3.540771484375, -0.8,15.55) ">
<use xlink:href="#BDM_250x250_FR_psd_Asset_5_V8_2_Exploitez_la_puissance_du__r_seau_Wi_Fi_pour_favoriser__des_pro_0_Layer0_0_MEMBER_36_FILL"/>
</g>

<g transform="matrix( 3.5196380615234375, 0, 0, 3.540771484375, -0.8,15.55) ">
<use xlink:href="#BDM_250x250_FR_psd_Asset_5_V8_2_Exploitez_la_puissance_du__r_seau_Wi_Fi_pour_favoriser__des_pro_0_Layer0_0_MEMBER_37_FILL"/>
</g>

<g transform="matrix( 3.5196380615234375, 0, 0, 3.540771484375, -0.8,15.55) ">
<use xlink:href="#BDM_250x250_FR_psd_Asset_5_V8_2_Exploitez_la_puissance_du__r_seau_Wi_Fi_pour_favoriser__des_pro_0_Layer0_0_MEMBER_38_FILL"/>
</g>

<g transform="matrix( 3.5196380615234375, 0, 0, 3.540771484375, -0.8,15.55) ">
<use xlink:href="#BDM_250x250_FR_psd_Asset_5_V8_2_Exploitez_la_puissance_du__r_seau_Wi_Fi_pour_favoriser__des_pro_0_Layer0_0_MEMBER_39_FILL"/>
</g>

<g transform="matrix( 3.5196380615234375, 0, 0, 3.540771484375, -0.8,15.55) ">
<use xlink:href="#BDM_250x250_FR_psd_Asset_5_V8_2_Exploitez_la_puissance_du__r_seau_Wi_Fi_pour_favoriser__des_pro_0_Layer0_0_MEMBER_40_FILL"/>
</g>

<g transform="matrix( 3.5196380615234375, 0, 0, 3.540771484375, -0.8,15.55) ">
<use xlink:href="#BDM_250x250_FR_psd_Asset_5_V8_2_Exploitez_la_puissance_du__r_seau_Wi_Fi_pour_favoriser__des_pro_0_Layer0_0_MEMBER_41_FILL"/>
</g>

<g transform="matrix( 3.5196380615234375, 0, 0, 3.540771484375, -0.8,15.55) ">
<use xlink:href="#BDM_250x250_FR_psd_Asset_5_V8_2_Exploitez_la_puissance_du__r_seau_Wi_Fi_pour_favoriser__des_pro_0_Layer0_0_MEMBER_42_FILL"/>
</g>

<g transform="matrix( 3.5196380615234375, 0, 0, 3.540771484375, -0.8,15.55) ">
<use xlink:href="#BDM_250x250_FR_psd_Asset_5_V8_2_Exploitez_la_puissance_du__r_seau_Wi_Fi_pour_favoriser__des_pro_0_Layer0_0_MEMBER_43_FILL"/>
</g>

<g transform="matrix( 3.5196380615234375, 0, 0, 3.540771484375, -0.8,15.55) ">
<use xlink:href="#BDM_250x250_FR_psd_Asset_5_V8_2_Exploitez_la_puissance_du__r_seau_Wi_Fi_pour_favoriser__des_pro_0_Layer0_0_MEMBER_44_FILL"/>
</g>

<g transform="matrix( 3.5196380615234375, 0, 0, 3.540771484375, -0.8,15.55) ">
<use xlink:href="#BDM_250x250_FR_psd_Asset_5_V8_2_Exploitez_la_puissance_du__r_seau_Wi_Fi_pour_favoriser__des_pro_0_Layer0_0_MEMBER_45_FILL"/>
</g>

<g transform="matrix( 3.5196380615234375, 0, 0, 3.540771484375, -0.8,15.55) ">
<use xlink:href="#BDM_250x250_FR_psd_Asset_5_V8_2_Exploitez_la_puissance_du__r_seau_Wi_Fi_pour_favoriser__des_pro_0_Layer0_0_MEMBER_46_FILL"/>
</g>

<g transform="matrix( 3.5196380615234375, 0, 0, 3.540771484375, -0.8,15.55) ">
<use xlink:href="#BDM_250x250_FR_psd_Asset_5_V8_2_Exploitez_la_puissance_du__r_seau_Wi_Fi_pour_favoriser__des_pro_0_Layer0_0_MEMBER_47_FILL"/>
</g>

<g transform="matrix( 3.5196380615234375, 0, 0, 3.540771484375, -0.8,15.55) ">
<use xlink:href="#BDM_250x250_FR_psd_Asset_5_V8_2_Exploitez_la_puissance_du__r_seau_Wi_Fi_pour_favoriser__des_pro_0_Layer0_0_MEMBER_48_FILL"/>
</g>

<g transform="matrix( 3.5196380615234375, 0, 0, 3.540771484375, -0.8,15.55) ">
<use xlink:href="#BDM_250x250_FR_psd_Asset_5_V8_2_Exploitez_la_puissance_du__r_seau_Wi_Fi_pour_favoriser__des_pro_0_Layer0_0_MEMBER_49_FILL"/>
</g>

<g transform="matrix( 3.5196380615234375, 0, 0, 3.540771484375, -0.8,15.55) ">
<use xlink:href="#BDM_250x250_FR_psd_Asset_5_V8_2_Exploitez_la_puissance_du__r_seau_Wi_Fi_pour_favoriser__des_pro_0_Layer0_0_MEMBER_50_FILL"/>
</g>

<g transform="matrix( 3.5196380615234375, 0, 0, 3.540771484375, -0.8,15.55) ">
<use xlink:href="#BDM_250x250_FR_psd_Asset_5_V8_2_Exploitez_la_puissance_du__r_seau_Wi_Fi_pour_favoriser__des_pro_0_Layer0_0_MEMBER_51_FILL"/>
</g>

<g transform="matrix( 3.5196380615234375, 0, 0, 3.540771484375, -0.8,15.55) ">
<use xlink:href="#BDM_250x250_FR_psd_Asset_5_V8_2_Exploitez_la_puissance_du__r_seau_Wi_Fi_pour_favoriser__des_pro_0_Layer0_0_MEMBER_52_FILL"/>
</g>

<g transform="matrix( 3.5196380615234375, 0, 0, 3.540771484375, -0.8,15.55) ">
<use xlink:href="#BDM_250x250_FR_psd_Asset_5_V8_2_Exploitez_la_puissance_du__r_seau_Wi_Fi_pour_favoriser__des_pro_0_Layer0_0_MEMBER_53_FILL"/>
</g>

<g transform="matrix( 3.5196380615234375, 0, 0, 3.540771484375, -0.8,15.55) ">
<use xlink:href="#BDM_250x250_FR_psd_Asset_5_V8_2_Exploitez_la_puissance_du__r_seau_Wi_Fi_pour_favoriser__des_pro_0_Layer0_0_MEMBER_54_FILL"/>
</g>

<g transform="matrix( 3.5196380615234375, 0, 0, 3.540771484375, -0.8,15.55) ">
<use xlink:href="#BDM_250x250_FR_psd_Asset_5_V8_2_Exploitez_la_puissance_du__r_seau_Wi_Fi_pour_favoriser__des_pro_0_Layer0_0_MEMBER_55_FILL"/>
</g>

<g transform="matrix( 3.5196380615234375, 0, 0, 3.540771484375, -0.8,15.55) ">
<use xlink:href="#BDM_250x250_FR_psd_Asset_5_V8_2_Exploitez_la_puissance_du__r_seau_Wi_Fi_pour_favoriser__des_pro_0_Layer0_0_MEMBER_56_FILL"/>
</g>

<g transform="matrix( 3.5196380615234375, 0, 0, 3.540771484375, -0.8,15.55) ">
<use xlink:href="#BDM_250x250_FR_psd_Asset_5_V8_2_Exploitez_la_puissance_du__r_seau_Wi_Fi_pour_favoriser__des_pro_0_Layer0_0_MEMBER_57_FILL"/>
</g>

<g transform="matrix( 3.5196380615234375, 0, 0, 3.540771484375, -0.8,15.55) ">
<use xlink:href="#BDM_250x250_FR_psd_Asset_5_V8_2_Exploitez_la_puissance_du__r_seau_Wi_Fi_pour_favoriser__des_pro_0_Layer0_0_MEMBER_58_FILL"/>
</g>

<g transform="matrix( 3.5196380615234375, 0, 0, 3.540771484375, -0.8,15.55) ">
<use xlink:href="#BDM_250x250_FR_psd_Asset_5_V8_2_Exploitez_la_puissance_du__r_seau_Wi_Fi_pour_favoriser__des_pro_0_Layer0_0_MEMBER_59_FILL"/>
</g>

<g transform="matrix( 3.5196380615234375, 0, 0, 3.540771484375, -0.8,15.55) ">
<use xlink:href="#BDM_250x250_FR_psd_Asset_5_V8_2_Exploitez_la_puissance_du__r_seau_Wi_Fi_pour_favoriser__des_pro_0_Layer0_0_MEMBER_60_FILL"/>
</g>

<g transform="matrix( 3.5196380615234375, 0, 0, 3.540771484375, -0.8,15.55) ">
<use xlink:href="#BDM_250x250_FR_psd_Asset_5_V8_2_Exploitez_la_puissance_du__r_seau_Wi_Fi_pour_favoriser__des_pro_0_Layer0_0_MEMBER_61_FILL"/>
</g>

<g transform="matrix( 3.5196380615234375, 0, 0, 3.540771484375, -0.8,15.55) ">
<use xlink:href="#BDM_250x250_FR_psd_Asset_5_V8_2_Exploitez_la_puissance_du__r_seau_Wi_Fi_pour_favoriser__des_pro_0_Layer0_0_MEMBER_62_FILL"/>
</g>

<g transform="matrix( 3.5196380615234375, 0, 0, 3.540771484375, -0.8,15.55) ">
<use xlink:href="#BDM_250x250_FR_psd_Asset_5_V8_2_Exploitez_la_puissance_du__r_seau_Wi_Fi_pour_favoriser__des_pro_0_Layer0_0_MEMBER_63_FILL"/>
</g>

<g transform="matrix( 3.5196380615234375, 0, 0, 3.540771484375, -0.8,15.55) ">
<use xlink:href="#BDM_250x250_FR_psd_Asset_5_V8_2_Exploitez_la_puissance_du__r_seau_Wi_Fi_pour_favoriser__des_pro_0_Layer0_0_MEMBER_64_FILL"/>
</g>

<g transform="matrix( 3.5196380615234375, 0, 0, 3.540771484375, -0.8,15.55) ">
<use xlink:href="#BDM_250x250_FR_psd_Asset_5_V8_2_Exploitez_la_puissance_du__r_seau_Wi_Fi_pour_favoriser__des_pro_0_Layer0_0_MEMBER_65_FILL"/>
</g>

<g transform="matrix( 3.5196380615234375, 0, 0, 3.540771484375, -0.8,15.55) ">
<use xlink:href="#BDM_250x250_FR_psd_Asset_5_V8_2_Exploitez_la_puissance_du__r_seau_Wi_Fi_pour_favoriser__des_pro_0_Layer0_0_MEMBER_66_FILL"/>
</g>

<g transform="matrix( 3.5196380615234375, 0, 0, 3.540771484375, -0.8,15.55) ">
<use xlink:href="#BDM_250x250_FR_psd_Asset_5_V8_2_Exploitez_la_puissance_du__r_seau_Wi_Fi_pour_favoriser__des_pro_0_Layer0_0_MEMBER_67_FILL"/>
</g>

<g transform="matrix( 3.5196380615234375, 0, 0, 3.540771484375, -0.8,15.55) ">
<use xlink:href="#BDM_250x250_FR_psd_Asset_5_V8_2_Exploitez_la_puissance_du__r_seau_Wi_Fi_pour_favoriser__des_pro_0_Layer0_0_MEMBER_68_FILL"/>
</g>

<g transform="matrix( 3.5196380615234375, 0, 0, 3.540771484375, -0.8,15.55) ">
<use xlink:href="#BDM_250x250_FR_psd_Asset_5_V8_2_Exploitez_la_puissance_du__r_seau_Wi_Fi_pour_favoriser__des_pro_0_Layer0_0_MEMBER_69_FILL"/>
</g>

<g transform="matrix( 3.5196380615234375, 0, 0, 3.540771484375, -0.8,15.55) ">
<use xlink:href="#BDM_250x250_FR_psd_Asset_5_V8_2_Exploitez_la_puissance_du__r_seau_Wi_Fi_pour_favoriser__des_pro_0_Layer0_0_MEMBER_70_FILL"/>
</g>

<g transform="matrix( 3.5196380615234375, 0, 0, 3.540771484375, -0.8,15.55) ">
<use xlink:href="#BDM_250x250_FR_psd_Asset_5_V8_2_Exploitez_la_puissance_du__r_seau_Wi_Fi_pour_favoriser__des_pro_0_Layer0_0_MEMBER_71_FILL"/>
</g>

<g transform="matrix( 3.5196380615234375, 0, 0, 3.540771484375, -0.8,15.55) ">
<use xlink:href="#BDM_250x250_FR_psd_Asset_5_V8_2_Exploitez_la_puissance_du__r_seau_Wi_Fi_pour_favoriser__des_pro_0_Layer0_0_MEMBER_72_FILL"/>
</g>

<g transform="matrix( 3.5196380615234375, 0, 0, 3.540771484375, -0.8,15.55) ">
<use xlink:href="#BDM_250x250_FR_psd_Asset_5_V8_2_Exploitez_la_puissance_du__r_seau_Wi_Fi_pour_favoriser__des_pro_0_Layer0_0_MEMBER_73_FILL"/>
</g>

<g transform="matrix( 3.5196380615234375, 0, 0, 3.540771484375, -0.8,15.55) ">
<use xlink:href="#BDM_250x250_FR_psd_Asset_5_V8_2_Exploitez_la_puissance_du__r_seau_Wi_Fi_pour_favoriser__des_pro_0_Layer0_0_MEMBER_74_FILL"/>
</g>

<g transform="matrix( 3.5196380615234375, 0, 0, 3.540771484375, -0.8,15.55) ">
<use xlink:href="#BDM_250x250_FR_psd_Asset_5_V8_2_Exploitez_la_puissance_du__r_seau_Wi_Fi_pour_favoriser__des_pro_0_Layer0_0_MEMBER_75_FILL"/>
</g>

<g transform="matrix( 3.5196380615234375, 0, 0, 3.540771484375, -0.8,15.55) ">
<use xlink:href="#BDM_250x250_FR_psd_Asset_5_V8_2_Exploitez_la_puissance_du__r_seau_Wi_Fi_pour_favoriser__des_pro_0_Layer0_0_MEMBER_76_FILL"/>
</g>

<g transform="matrix( 3.5196380615234375, 0, 0, 3.540771484375, -0.8,15.55) ">
<use xlink:href="#BDM_250x250_FR_psd_Asset_5_V8_2_Exploitez_la_puissance_du__r_seau_Wi_Fi_pour_favoriser__des_pro_0_Layer0_0_MEMBER_77_FILL"/>
</g>

<g transform="matrix( 3.5196380615234375, 0, 0, 3.540771484375, -0.8,15.55) ">
<use xlink:href="#BDM_250x250_FR_psd_Asset_5_V8_2_Exploitez_la_puissance_du__r_seau_Wi_Fi_pour_favoriser__des_pro_0_Layer0_0_MEMBER_78_FILL"/>
</g>

<g transform="matrix( 3.5196380615234375, 0, 0, 3.540771484375, -0.8,15.55) ">
<use xlink:href="#BDM_250x250_FR_psd_Asset_5_V8_2_Exploitez_la_puissance_du__r_seau_Wi_Fi_pour_favoriser__des_pro_0_Layer0_0_MEMBER_79_FILL"/>
</g>

<g transform="matrix( 3.5196380615234375, 0, 0, 3.540771484375, -0.8,15.55) ">
<use xlink:href="#BDM_250x250_FR_psd_Asset_5_V8_2_Exploitez_la_puissance_du__r_seau_Wi_Fi_pour_favoriser__des_pro_0_Layer0_0_MEMBER_80_FILL"/>
</g>
</g>
</g>
</g>
</svg>
