
<svg xmlns="http://www.w3.org/2000/svg" version="1.1" xmlns:xlink="http://www.w3.org/1999/xlink" preserveAspectRatio="none" x="0px" y="0px" width="728px" height="90px" viewBox="0 0 728 90">
<defs>
<g id="IT_728x90_FR_psd_Asset_V11_2_qui_fait_appel___une_solution_de_Wi_Fi_g_r___0_Layer0_0_MEMBER_0_FILL">
<path fill="#D82C26" stroke="none" d="
M 3.6 -4.05
Q 3.15 -4.35 2.6 -4.35 2.05 -4.35 1.5 -4.05 1.05 -3.75 0.75 -3.25 0.5 -2.65 0.5 -2.1 0.5 -1.55 0.75 -0.95 1.15 -0.4 1.5 -0.2 2.05 0.1 2.6 0.1 3.25 0.1 3.6 -0.15 4.1 -0.45 4.3 -0.9
L 4.35 -0.9 4.35 1
Q 4.35 1.95 5.25 2.15
L 5.5 1.7
Q 5.2 1.65 5 1.45 4.85 1.25 4.85 0.9
L 4.9 -4.2 4.4 -4.2 4.35 -3.3 4.3 -3.3
Q 4.1 -3.7 3.6 -4.05
M 2.7 -3.9
Q 3.15 -3.9 3.55 -3.65 3.9 -3.45 4.15 -3 4.35 -2.6 4.35 -2.1 4.35 -1.6 4.15 -1.2 3.95 -0.85 3.55 -0.55 3.15 -0.3 2.7 -0.3 2.2 -0.3 1.8 -0.55 1.4 -0.8 1.25 -1.2 1.05 -1.6 1.05 -2.1 1.05 -2.6 1.25 -3 1.4 -3.4 1.8 -3.65 2.2 -3.9 2.7 -3.9 Z"/>
</g>

<g id="IT_728x90_FR_psd_Asset_V11_2_qui_fait_appel___une_solution_de_Wi_Fi_g_r___0_Layer0_0_MEMBER_1_FILL">
<path fill="#D82C26" stroke="none" d="
M 10 -4.2
L 9.5 -4.2 9.5 -2.1
Q 9.5 -1.65 9.3 -1.15 9.05 -0.7 8.8 -0.55 8.45 -0.3 8.1 -0.3 7.45 -0.3 7.2 -0.75 6.95 -1.15 6.95 -1.8
L 6.95 -4.2 6.4 -4.2 6.4 -1.65
Q 6.4 -0.9 6.8 -0.4 7.15 0.1 7.95 0.1 8.4 0.1 8.9 -0.15 9.3 -0.45 9.5 -0.9
L 9.55 0 10.1 0 10 -1 10 -4.2 Z"/>
</g>

<g id="IT_728x90_FR_psd_Asset_V11_2_qui_fait_appel___une_solution_de_Wi_Fi_g_r___0_Layer0_0_MEMBER_2_FILL">
<path fill="#D82C26" stroke="none" d="
M 12.15 -4.2
L 11.65 -4.2 11.65 0 12.15 0 12.15 -4.2
M 11.9 -5.5
L 12.15 -5.6
Q 12.25 -5.7 12.25 -5.9 12.25 -6.1 12.15 -6.15 12.1 -6.25 11.9 -6.25 11.7 -6.25 11.65 -6.15 11.5 -6.05 11.5 -5.9
L 11.65 -5.6 11.9 -5.5 Z"/>
</g>

<g id="IT_728x90_FR_psd_Asset_V11_2_qui_fait_appel___une_solution_de_Wi_Fi_g_r___0_Layer0_0_MEMBER_3_FILL">
<path fill="#D82C26" stroke="none" d="
M 17.4 -6.9
Q 16.75 -6.9 16.45 -6.55 16.1 -6.2 16.1 -5.4
L 16.1 -4.2 15.3 -4.2 15.2 -3.8 16.1 -3.8 16.1 0 16.6 0 16.6 -3.8 17.6 -3.8 17.7 -4.2 16.6 -4.2 16.6 -5.4
Q 16.6 -5.75 16.8 -6.15 17.05 -6.45 17.45 -6.45
L 18.1 -6.4 18.15 -6.8 17.8 -6.9 17.4 -6.9 Z"/>
</g>

<g id="IT_728x90_FR_psd_Asset_V11_2_qui_fait_appel___une_solution_de_Wi_Fi_g_r___0_Layer0_0_MEMBER_4_FILL">
<path fill="#D82C26" stroke="none" d="
M 18.4 -1.15
Q 18.4 -0.5 18.8 -0.2 19.2 0.1 19.75 0.1 20.3 0.1 20.7 -0.1 21.15 -0.4 21.3 -0.8
L 21.35 -0.8 21.35 -0.4 21.4 0 21.9 0 21.8 -0.9 21.8 -2.75
Q 21.8 -3.45 21.4 -3.95 20.9 -4.35 20.2 -4.35 19.75 -4.35 19.35 -4.2 18.9 -4.05 18.65 -3.8
L 18.8 -3.4
Q 19 -3.6 19.4 -3.75
L 20.15 -3.9
Q 20.7 -3.9 21 -3.6 21.3 -3.35 21.3 -2.75
L 21.3 -2.5 20.8 -2.5
Q 18.4 -2.5 18.4 -1.15
M 19.2 -0.5
Q 18.9 -0.7 18.9 -1.15 18.9 -2.15 20.9 -2.15
L 21.3 -2.15 21.3 -1.75
Q 21.3 -1.4 21.15 -1.05 20.95 -0.7 20.65 -0.5 20.4 -0.3 19.85 -0.3 19.4 -0.3 19.2 -0.5 Z"/>
</g>

<g id="IT_728x90_FR_psd_Asset_V11_2_qui_fait_appel___une_solution_de_Wi_Fi_g_r___0_Layer0_0_MEMBER_5_FILL">
<path fill="#D82C26" stroke="none" d="
M 23.9 -4.2
L 23.4 -4.2 23.4 0 23.9 0 23.9 -4.2
M 23.65 -5.5
L 23.9 -5.6
Q 24 -5.7 24 -5.9 24 -6.1 23.9 -6.15 23.85 -6.25 23.65 -6.25 23.45 -6.25 23.35 -6.15
L 23.25 -5.9 23.35 -5.6 23.65 -5.5 Z"/>
</g>

<g id="IT_728x90_FR_psd_Asset_V11_2_qui_fait_appel___une_solution_de_Wi_Fi_g_r___0_Layer0_0_MEMBER_6_FILL">
<path fill="#D82C26" stroke="none" d="
M 25.05 -4.2
L 24.9 -3.8 25.7 -3.8 25.7 -1
Q 25.7 -0.5 26 -0.2 26.25 0.1 26.7 0.1
L 27.15 0.05 27.6 -0.15 27.5 -0.55
Q 27.15 -0.35 26.85 -0.35 26.55 -0.35 26.4 -0.5 26.25 -0.7 26.25 -1.1
L 26.25 -3.8 27.3 -3.8 27.45 -4.2 26.25 -4.2 26.25 -5.4 25.7 -5.2 25.7 -4.2 25.05 -4.2 Z"/>
</g>

<g id="IT_728x90_FR_psd_Asset_V11_2_qui_fait_appel___une_solution_de_Wi_Fi_g_r___0_Layer0_0_MEMBER_7_FILL">
<path fill="#D82C26" stroke="none" d="
M 32 -3.9
Q 32.6 -3.9 32.9 -3.6 33.2 -3.35 33.2 -2.75
L 33.2 -2.5 32.7 -2.5
Q 30.3 -2.5 30.3 -1.15 30.3 -0.45 30.7 -0.2 31.1 0.1 31.65 0.1 32.2 0.1 32.6 -0.1 33 -0.45 33.2 -0.8
L 33.25 -0.8 33.25 -0.4 33.3 0 33.75 0 33.7 -2.75
Q 33.7 -3.45 33.3 -3.95 32.8 -4.35 32.1 -4.35 31.65 -4.35 31.25 -4.2 30.75 -4 30.5 -3.8
L 30.7 -3.4
Q 30.9 -3.6 31.3 -3.75
L 32 -3.9
M 32.55 -0.5
Q 32.2 -0.3 31.75 -0.3 31.3 -0.3 31.05 -0.5 30.8 -0.75 30.8 -1.15 30.8 -2.15 32.75 -2.15
L 33.2 -2.15 33.2 -1.75
Q 33.2 -1.4 33.05 -1.05 32.9 -0.75 32.55 -0.5 Z"/>
</g>

<g id="IT_728x90_FR_psd_Asset_V11_2_qui_fait_appel___une_solution_de_Wi_Fi_g_r___0_Layer0_0_MEMBER_8_FILL">
<path fill="#D82C26" stroke="none" d="
M 39.35 -3.25
Q 39.15 -3.75 38.6 -4.05 38.15 -4.35 37.5 -4.35 36.95 -4.35 36.5 -4.05 36 -3.7 35.8 -3.3
L 35.75 -4.2 35.25 -4.2 35.25 2.15 35.8 2.15 35.8 -0.9
Q 36 -0.45 36.5 -0.15 36.9 0.1 37.5 0.1 38.15 0.1 38.6 -0.2 39.1 -0.4 39.35 -0.95 39.65 -1.45 39.65 -2.1 39.65 -2.7 39.35 -3.25
M 36.6 -3.65
Q 37 -3.9 37.45 -3.9 37.9 -3.9 38.3 -3.65 38.65 -3.45 38.9 -3 39.1 -2.4 39.1 -2.1 39.1 -1.8 38.9 -1.2 38.65 -0.75 38.3 -0.55 37.9 -0.3 37.45 -0.3 37 -0.3 36.6 -0.55 36.2 -0.85 36 -1.2 35.75 -1.7 35.75 -2.1 35.75 -2.5 36 -3 36.25 -3.45 36.6 -3.65 Z"/>
</g>

<g id="IT_728x90_FR_psd_Asset_V11_2_qui_fait_appel___une_solution_de_Wi_Fi_g_r___0_Layer0_0_MEMBER_9_FILL">
<path fill="#D82C26" stroke="none" d="
M 44.3 -4.05
Q 43.8 -4.35 43.2 -4.35 42.65 -4.35 42.2 -4.05 41.7 -3.7 41.5 -3.3
L 41.45 -3.3 41.4 -4.2 40.9 -4.2 40.95 2.15 41.45 2.15 41.45 -0.9 41.5 -0.9
Q 41.7 -0.45 42.2 -0.15 42.6 0.1 43.2 0.1 43.8 0.1 44.3 -0.2 44.7 -0.4 45.05 -0.95 45.3 -1.55 45.3 -2.1 45.3 -2.65 45.05 -3.25 44.75 -3.75 44.3 -4.05
M 43.1 -3.9
Q 43.6 -3.9 44 -3.65 44.4 -3.4 44.55 -3 44.75 -2.6 44.75 -2.1 44.75 -1.6 44.55 -1.2 44.4 -0.8 44 -0.55 43.6 -0.3 43.1 -0.3 42.65 -0.3 42.25 -0.55 41.85 -0.85 41.65 -1.2 41.45 -1.6 41.45 -2.1 41.45 -2.6 41.65 -3 41.9 -3.45 42.25 -3.65 42.65 -3.9 43.1 -3.9 Z"/>
</g>

<g id="IT_728x90_FR_psd_Asset_V11_2_qui_fait_appel___une_solution_de_Wi_Fi_g_r___0_Layer0_0_MEMBER_10_FILL">
<path fill="#D82C26" stroke="none" d="
M 49.55 -4.05
Q 49.1 -4.35 48.45 -4.35 47.85 -4.35 47.4 -4.05 46.85 -3.75 46.65 -3.25 46.35 -2.8 46.35 -2.15 46.35 -1.45 46.65 -0.95 46.95 -0.45 47.4 -0.15 47.95 0.15 48.5 0.15 49.5 0.15 50.2 -0.4
L 50.1 -0.85 49.45 -0.45
Q 49 -0.3 48.55 -0.3 48.1 -0.3 47.7 -0.55 47.35 -0.75 47.1 -1.15 46.9 -1.5 46.9 -2.05
L 50.45 -2.05 50.45 -2.25
Q 50.45 -2.9 50.2 -3.3 49.95 -3.75 49.55 -4.05
M 48.45 -3.9
Q 49.15 -3.9 49.55 -3.5 49.95 -3.1 49.95 -2.4
L 46.9 -2.4
Q 46.9 -2.75 47.1 -3.1 47.25 -3.45 47.65 -3.7 47.9 -3.9 48.45 -3.9 Z"/>
</g>

<g id="IT_728x90_FR_psd_Asset_V11_2_qui_fait_appel___une_solution_de_Wi_Fi_g_r___0_Layer0_0_MEMBER_11_FILL">
<path fill="#D82C26" stroke="none" d="
M 51.75 -0.95
Q 51.75 -0.65 51.95 -0.25 52.25 0.05 52.45 0.1
L 52.7 -0.35
Q 52.5 -0.4 52.4 -0.6 52.3 -0.7 52.3 -1.05
L 52.3 -6.85 51.75 -6.75 51.75 -0.95 Z"/>
</g>

<g id="IT_728x90_FR_psd_Asset_V11_2_qui_fait_appel___une_solution_de_Wi_Fi_g_r___0_Layer0_0_MEMBER_12_FILL">
<path fill="#D82C26" stroke="none" d="
M 56.75 -3.75
L 57.45 -3.9
Q 58 -3.9 58.3 -3.6 58.65 -3.4 58.65 -2.75
L 58.65 -2.5 58.15 -2.5
Q 55.7 -2.5 55.7 -1.15 55.7 -0.5 56.1 -0.2 56.55 0.1 57.05 0.1 57.6 0.1 58 -0.1 58.45 -0.4 58.65 -0.8
L 58.7 -0.4 58.7 0 59.2 0 59.15 -2.75
Q 59.15 -3.5 58.7 -3.95 58.2 -4.35 57.5 -4.35 57.1 -4.35 56.65 -4.2 56.15 -4 55.95 -3.8
L 56.1 -3.4 56.75 -3.75
M 58 -0.5
Q 57.65 -0.3 57.15 -0.3 56.75 -0.3 56.5 -0.5 56.25 -0.7 56.25 -1.15 56.25 -2.15 58.2 -2.15
L 58.65 -2.15 58.65 -1.75
Q 58.65 -1.4 58.5 -1.05
L 58 -0.5
M 57.15 -6.35
L 56.55 -6.35 57.65 -5.05 58.1 -5.05 57.15 -6.35 Z"/>
</g>

<g id="IT_728x90_FR_psd_Asset_V11_2_qui_fait_appel___une_solution_de_Wi_Fi_g_r___0_Layer0_0_MEMBER_13_FILL">
<path fill="#D82C26" stroke="none" d="
M 62.75 -1.65
Q 62.75 -0.8 63.1 -0.4 63.45 0.1 64.3 0.1 64.8 0.1 65.2 -0.15 65.65 -0.45 65.8 -0.9
L 65.9 0 66.4 0 66.35 -4.2 65.8 -4.2 65.8 -2.1
Q 65.8 -1.5 65.65 -1.15 65.4 -0.7 65.15 -0.55 64.75 -0.3 64.4 -0.3 63.8 -0.3 63.55 -0.75 63.3 -1.05 63.3 -1.8
L 63.3 -4.2 62.75 -4.2 62.75 -1.65 Z"/>
</g>

<g id="IT_728x90_FR_psd_Asset_V11_2_qui_fait_appel___une_solution_de_Wi_Fi_g_r___0_Layer0_0_MEMBER_14_FILL">
<path fill="#D82C26" stroke="none" d="
M 68.5 -3.3
L 68.45 -4.2 67.95 -4.2 68 0 68.5 0 68.5 -2.15
Q 68.5 -2.7 68.7 -3.1 68.85 -3.4 69.2 -3.7 69.6 -3.9 69.9 -3.9 70.5 -3.9 70.8 -3.45 71.05 -3.05 71.05 -2.45
L 71.05 0 71.6 0 71.6 -2.55
Q 71.6 -3.3 71.2 -3.85 70.8 -4.35 70 -4.35 69.5 -4.35 69.1 -4.05 68.65 -3.75 68.5 -3.3 Z"/>
</g>

<g id="IT_728x90_FR_psd_Asset_V11_2_qui_fait_appel___une_solution_de_Wi_Fi_g_r___0_Layer0_0_MEMBER_15_FILL">
<path fill="#D82C26" stroke="none" d="
M 74.95 -4.35
Q 74.35 -4.35 73.9 -4.05 73.45 -3.75 73.15 -3.25 72.85 -2.8 72.85 -2.15 72.85 -1.45 73.15 -0.95 73.45 -0.45 73.9 -0.15 74.45 0.15 75.05 0.15 76 0.15 76.7 -0.4
L 76.6 -0.85 75.95 -0.45
Q 75.5 -0.3 75.05 -0.3 74.6 -0.3 74.2 -0.55 73.85 -0.75 73.6 -1.15 73.4 -1.5 73.4 -2.05
L 76.95 -2.05 76.95 -2.25
Q 76.95 -2.9 76.7 -3.3 76.45 -3.75 76.05 -4.05 75.6 -4.35 74.95 -4.35
M 74.15 -3.7
Q 74.4 -3.9 74.95 -3.9 75.65 -3.9 76.05 -3.5 76.45 -3.1 76.45 -2.4
L 73.4 -2.4
Q 73.4 -2.75 73.6 -3.1 73.75 -3.45 74.15 -3.7 Z"/>
</g>

<g id="IT_728x90_FR_psd_Asset_V11_2_qui_fait_appel___une_solution_de_Wi_Fi_g_r___0_Layer0_0_MEMBER_16_FILL">
<path fill="#D82C26" stroke="none" d="
M 80.1 -0.8
L 80 -0.35 80.65 0 81.55 0.1 82.2 0
Q 82.5 -0.1 82.75 -0.45 82.95 -0.7 82.95 -1.1 82.95 -1.55 82.65 -1.85 82.4 -2.1 81.65 -2.35
L 80.85 -2.7
Q 80.6 -2.9 80.6 -3.2 80.6 -3.5 80.85 -3.75 81.15 -3.9 81.5 -3.9 81.9 -3.9 82.1 -3.8
L 82.6 -3.5 82.85 -3.9 82.25 -4.2 81.5 -4.35 80.8 -4.2
Q 80.5 -4.05 80.3 -3.8 80.1 -3.6 80.1 -3.2 80.1 -2.65 80.4 -2.45
L 81.3 -2
Q 82.05 -1.7 82.2 -1.6 82.45 -1.35 82.45 -1.1 82.45 -0.75 82.2 -0.5 81.95 -0.3 81.5 -0.3 80.65 -0.3 80.1 -0.8 Z"/>
</g>

<g id="IT_728x90_FR_psd_Asset_V11_2_qui_fait_appel___une_solution_de_Wi_Fi_g_r___0_Layer0_0_MEMBER_17_FILL">
<path fill="#D82C26" stroke="none" d="
M 84.25 -0.95
Q 84.45 -0.5 85.05 -0.15 85.5 0.15 86.15 0.15 86.85 0.15 87.3 -0.15 87.9 -0.5 88.15 -0.95 88.4 -1.55 88.4 -2.1 88.4 -2.75 88.15 -3.25 87.9 -3.7 87.3 -4.05 86.85 -4.35 86.15 -4.35 85.5 -4.35 85.05 -4.05 84.45 -3.7 84.25 -3.25 83.95 -2.8 83.95 -2.1 83.95 -1.45 84.25 -0.95
M 84.65 -3
Q 84.85 -3.4 85.25 -3.65 85.75 -3.9 86.15 -3.9 86.6 -3.9 87.1 -3.65 87.5 -3.4 87.7 -3 87.9 -2.5 87.9 -2.1 87.9 -1.8 87.7 -1.2 87.5 -0.85 87.1 -0.55 86.6 -0.3 86.15 -0.3 85.75 -0.3 85.25 -0.55 84.85 -0.85 84.65 -1.2 84.45 -1.8 84.45 -2.1 84.45 -2.5 84.65 -3 Z"/>
</g>

<g id="IT_728x90_FR_psd_Asset_V11_2_qui_fait_appel___une_solution_de_Wi_Fi_g_r___0_Layer0_0_MEMBER_18_FILL">
<path fill="#D82C26" stroke="none" d="
M 89.75 -0.95
Q 89.75 -0.5 89.95 -0.25 90.15 0.05 90.4 0.1
L 90.65 -0.35
Q 90.45 -0.4 90.35 -0.6
L 90.25 -1.05 90.25 -6.85 89.75 -6.75 89.75 -0.95 Z"/>
</g>

<g id="IT_728x90_FR_psd_Asset_V11_2_qui_fait_appel___une_solution_de_Wi_Fi_g_r___0_Layer0_0_MEMBER_19_FILL">
<path fill="#D82C26" stroke="none" d="
M 95.45 -4.2
L 94.9 -4.2 94.9 -2.1
Q 94.9 -1.5 94.75 -1.15 94.5 -0.7 94.25 -0.55 93.85 -0.3 93.5 -0.3 92.9 -0.3 92.65 -0.75 92.35 -1.1 92.35 -1.8
L 92.35 -4.2 91.85 -4.2 91.85 -1.65
Q 91.85 -0.8 92.2 -0.4 92.55 0.1 93.4 0.1 93.8 0.1 94.3 -0.15 94.75 -0.45 94.9 -0.9
L 95 0 95.5 0 95.45 -4.2 Z"/>
</g>

<g id="IT_728x90_FR_psd_Asset_V11_2_qui_fait_appel___une_solution_de_Wi_Fi_g_r___0_Layer0_0_MEMBER_20_FILL">
<path fill="#D82C26" stroke="none" d="
M 98.85 -3.8
L 98.95 -4.2 97.8 -4.2 97.8 -5.4 97.25 -5.2 97.25 -4.2 96.6 -4.2 96.45 -3.8 97.25 -3.8 97.25 -1
Q 97.25 -0.55 97.5 -0.2 97.8 0.1 98.25 0.1
L 98.7 0.05 99.15 -0.15 99.05 -0.55
Q 98.7 -0.35 98.4 -0.35 98.1 -0.35 97.95 -0.5 97.8 -0.7 97.8 -1.1
L 97.8 -3.8 98.85 -3.8 Z"/>
</g>

<g id="IT_728x90_FR_psd_Asset_V11_2_qui_fait_appel___une_solution_de_Wi_Fi_g_r___0_Layer0_0_MEMBER_21_FILL">
<path fill="#D82C26" stroke="none" d="
M 100.7 -4.2
L 100.15 -4.2 100.15 0 100.7 0 100.7 -4.2
M 100.4 -5.5
L 100.65 -5.6 100.8 -5.9
Q 100.8 -6.05 100.65 -6.15 100.6 -6.25 100.4 -6.25 100.2 -6.25 100.15 -6.15 100.05 -6.1 100.05 -5.9 100.05 -5.7 100.15 -5.6
L 100.4 -5.5 Z"/>
</g>

<g id="IT_728x90_FR_psd_Asset_V11_2_qui_fait_appel___une_solution_de_Wi_Fi_g_r___0_Layer0_0_MEMBER_22_FILL">
<path fill="#D82C26" stroke="none" d="
M 105.35 -4.05
Q 104.9 -4.35 104.2 -4.35 103.6 -4.35 103.05 -4.05 102.5 -3.7 102.25 -3.25 102 -2.75 102 -2.1 102 -1.55 102.25 -0.95 102.5 -0.5 103.05 -0.15 103.6 0.15 104.2 0.15 104.9 0.15 105.35 -0.15 105.95 -0.5 106.15 -0.95 106.45 -1.45 106.45 -2.1 106.45 -2.8 106.15 -3.25 105.95 -3.7 105.35 -4.05
M 104.2 -3.9
Q 104.7 -3.9 105.1 -3.65 105.55 -3.4 105.7 -3 105.95 -2.6 105.95 -2.1 105.95 -1.8 105.75 -1.2 105.55 -0.85 105.15 -0.55 104.65 -0.3 104.2 -0.3 103.8 -0.3 103.3 -0.55 102.9 -0.85 102.7 -1.2 102.5 -1.8 102.5 -2.1 102.5 -2.5 102.7 -3 102.9 -3.4 103.3 -3.65 103.8 -3.9 104.2 -3.9 Z"/>
</g>

<g id="IT_728x90_FR_psd_Asset_V11_2_qui_fait_appel___une_solution_de_Wi_Fi_g_r___0_Layer0_0_MEMBER_23_FILL">
<path fill="#D82C26" stroke="none" d="
M 109.85 -4.35
Q 109.35 -4.35 108.9 -4.05 108.55 -3.75 108.3 -3.3
L 108.25 -4.2 107.75 -4.2 107.8 0 108.3 0 108.3 -2.15
Q 108.3 -2.5 108.5 -3.1 108.75 -3.5 109 -3.7 109.5 -3.9 109.7 -3.9 110.4 -3.9 110.6 -3.45 110.85 -3.05 110.85 -2.45
L 110.85 0 111.4 0 111.4 -2.55
Q 111.4 -3.3 111 -3.85 110.6 -4.35 109.85 -4.35 Z"/>
</g>

<g id="IT_728x90_FR_psd_Asset_V11_2_qui_fait_appel___une_solution_de_Wi_Fi_g_r___0_Layer0_0_MEMBER_24_FILL">
<path fill="#D82C26" stroke="none" d="
M 119.1 -6.9
L 118.55 -6.8 118.55 -3.3
Q 118.35 -3.8 117.85 -4.05 117.4 -4.35 116.85 -4.35 116.2 -4.35 115.75 -4.05 115.35 -3.8 115 -3.25 114.75 -2.65 114.75 -2.1 114.75 -1.55 115 -0.95 115.4 -0.4 115.75 -0.2 116.2 0.1 116.85 0.1 117.5 0.1 117.85 -0.15 118.35 -0.45 118.55 -0.9
L 118.6 -0.9 118.65 0 119.15 0 119.1 -6.9
M 115.45 -3
Q 115.7 -3.45 116.05 -3.65 116.45 -3.9 116.9 -3.9 117.4 -3.9 117.8 -3.65 118.15 -3.45 118.4 -3 118.6 -2.4 118.6 -2.1 118.6 -1.8 118.4 -1.2 118.2 -0.85 117.8 -0.55 117.4 -0.3 116.9 -0.3 116.45 -0.3 116.05 -0.55 115.7 -0.75 115.45 -1.2 115.25 -1.8 115.25 -2.1 115.25 -2.4 115.45 -3 Z"/>
</g>

<g id="IT_728x90_FR_psd_Asset_V11_2_qui_fait_appel___une_solution_de_Wi_Fi_g_r___0_Layer0_0_MEMBER_25_FILL">
<path fill="#D82C26" stroke="none" d="
M 120.7 -0.95
Q 121 -0.45 121.45 -0.15 122 0.15 122.6 0.15 123.55 0.15 124.25 -0.4
L 124.15 -0.85 123.5 -0.45
Q 123.05 -0.3 122.6 -0.3 122.15 -0.3 121.75 -0.55 121.4 -0.75 121.15 -1.15 120.95 -1.5 120.95 -2.05
L 124.5 -2.05 124.5 -2.25
Q 124.5 -2.9 124.25 -3.3 124 -3.75 123.6 -4.05 123.15 -4.35 122.5 -4.35 121.9 -4.35 121.45 -4.05 121 -3.75 120.7 -3.25 120.4 -2.8 120.4 -2.15 120.4 -1.45 120.7 -0.95
M 120.95 -2.4
Q 120.95 -2.75 121.15 -3.1 121.3 -3.45 121.7 -3.7 121.95 -3.9 122.5 -3.9 123.2 -3.9 123.6 -3.5 124 -3.1 124 -2.4
L 120.95 -2.4 Z"/>
</g>

<g id="IT_728x90_FR_psd_Asset_V11_2_qui_fait_appel___une_solution_de_Wi_Fi_g_r___0_Layer0_0_MEMBER_26_FILL">
<path fill="#D82C26" stroke="none" d="
M 127.85 -6.35
L 127.25 -6.35 129.15 0 129.75 0 131.4 -5.65 131.45 -5.65 133.1 0 133.75 0 135.65 -6.35 135.05 -6.35 133.45 -0.7 133.4 -0.7 131.75 -6.35 131.1 -6.35 129.5 -0.7 129.45 -0.7 127.85 -6.35 Z"/>
</g>

<g id="IT_728x90_FR_psd_Asset_V11_2_qui_fait_appel___une_solution_de_Wi_Fi_g_r___0_Layer0_0_MEMBER_27_FILL">
<path fill="#D82C26" stroke="none" d="
M 137.25 -4.2
L 136.75 -4.2 136.75 0 137.25 0 137.25 -4.2
M 137 -5.5
L 137.25 -5.6
Q 137.35 -5.7 137.35 -5.9 137.35 -6.1 137.25 -6.15 137.2 -6.25 137 -6.25 136.8 -6.25 136.75 -6.15 136.6 -6.05 136.6 -5.9
L 136.75 -5.6 137 -5.5 Z"/>
</g>

<g id="IT_728x90_FR_psd_Asset_V11_2_qui_fait_appel___une_solution_de_Wi_Fi_g_r___0_Layer0_0_MEMBER_28_FILL">
<path fill="#D82C26" stroke="none" d="
M 138.65 -2.5
L 138.65 -2.05 140.45 -2.05 140.45 -2.5 138.65 -2.5 Z"/>
</g>

<g id="IT_728x90_FR_psd_Asset_V11_2_qui_fait_appel___une_solution_de_Wi_Fi_g_r___0_Layer0_0_MEMBER_29_FILL">
<path fill="#D82C26" stroke="none" d="
M 145.25 -6.35
L 142 -6.35 142 0 142.55 0 142.55 -3.05 145 -3.05 145.1 -3.5 142.55 -3.5 142.55 -5.85 145.25 -5.85 145.25 -6.35 Z"/>
</g>

<g id="IT_728x90_FR_psd_Asset_V11_2_qui_fait_appel___une_solution_de_Wi_Fi_g_r___0_Layer0_0_MEMBER_30_FILL">
<path fill="#D82C26" stroke="none" d="
M 147.05 -4.2
L 146.55 -4.2 146.55 0 147.05 0 147.05 -4.2
M 146.55 -6.15
Q 146.4 -6.05 146.4 -5.9
L 146.55 -5.6 146.8 -5.5 147.05 -5.6 147.2 -5.9
Q 147.2 -6.05 147.05 -6.15 147 -6.25 146.8 -6.25 146.6 -6.25 146.55 -6.15 Z"/>
</g>

<g id="IT_728x90_FR_psd_Asset_V11_2_qui_fait_appel___une_solution_de_Wi_Fi_g_r___0_Layer0_0_MEMBER_31_FILL">
<path fill="#D82C26" stroke="none" d="
M 150.75 -1
Q 150.95 -0.55 151.45 -0.2 152 0.1 152.55 0.1 153.1 0.1 153.6 -0.2 153.95 -0.45 154.3 -0.95
L 154.3 -0.05
Q 154.3 0.75 153.9 1.3 153.45 1.75 152.55 1.75 152.1 1.75 151.65 1.6
L 150.85 1.2 150.75 1.7
Q 151.25 2 151.6 2.05 152.05 2.2 152.6 2.2 153.7 2.2 154.3 1.6 154.8 1.05 154.8 -0.05
L 154.85 -4.2 154.35 -4.2 154.3 -3.3
Q 153.95 -3.8 153.55 -4.05 153.1 -4.35 152.55 -4.35 151.95 -4.35 151.5 -4.05 151 -3.75 150.75 -3.25 150.45 -2.7 150.45 -2.1 150.45 -1.45 150.75 -1
M 151.2 -3
Q 151.5 -3.5 151.75 -3.65 152.25 -3.9 152.65 -3.9 153.1 -3.9 153.5 -3.65 153.9 -3.4 154.1 -3 154.3 -2.65 154.3 -2.1 154.3 -1.6 154.1 -1.25 153.9 -0.85 153.5 -0.6 153.1 -0.35 152.65 -0.35 152.25 -0.35 151.75 -0.6 151.45 -0.8 151.2 -1.25 151 -1.6 151 -2.1 151 -2.65 151.2 -3 Z"/>
</g>

<g id="IT_728x90_FR_psd_Asset_V11_2_qui_fait_appel___une_solution_de_Wi_Fi_g_r___0_Layer0_0_MEMBER_32_FILL">
<path fill="#D82C26" stroke="none" d="
M 156.15 -2.15
Q 156.15 -1.4 156.4 -0.95 156.7 -0.45 157.2 -0.15 157.65 0.15 158.3 0.15 159.25 0.15 159.95 -0.4
L 159.9 -0.85 159.2 -0.45
Q 158.75 -0.3 158.35 -0.3 157.85 -0.3 157.45 -0.55 157.1 -0.75 156.85 -1.15 156.65 -1.5 156.65 -2.05
L 160.2 -2.05 160.2 -2.25
Q 160.2 -2.9 160 -3.3 159.8 -3.7 159.3 -4.05 158.85 -4.35 158.2 -4.35 157.6 -4.35 157.15 -4.05 156.7 -3.75 156.4 -3.25 156.15 -2.85 156.15 -2.15
M 156.65 -2.4
Q 156.65 -2.6 156.85 -3.1 157.1 -3.5 157.4 -3.7 157.65 -3.9 158.2 -3.9 158.9 -3.9 159.3 -3.5 159.7 -3.1 159.7 -2.4
L 156.65 -2.4
M 159.35 -6.35
L 158.75 -6.35 157.85 -5.05 158.3 -5.05 159.35 -6.35 Z"/>
</g>

<g id="IT_728x90_FR_psd_Asset_V11_2_qui_fait_appel___une_solution_de_Wi_Fi_g_r___0_Layer0_0_MEMBER_33_FILL">
<path fill="#D82C26" stroke="none" d="
M 162 -3.3
L 162 -4.2 161.5 -4.2 161.5 0 162.05 0 162.05 -2.1
Q 162.05 -2.8 162.35 -3.35 162.7 -3.85 163.25 -3.85
L 163.6 -3.8 163.7 -4.25 163.25 -4.35
Q 162.95 -4.35 162.55 -4.05 162.2 -3.8 162.05 -3.3
L 162 -3.3 Z"/>
</g>

<g id="IT_728x90_FR_psd_Asset_V11_2_qui_fait_appel___une_solution_de_Wi_Fi_g_r___0_Layer0_0_MEMBER_34_FILL">
<path fill="#D82C26" stroke="none" d="
M 166.3 -4.35
Q 165.7 -4.35 165.25 -4.05 164.7 -3.75 164.5 -3.25 164.2 -2.8 164.2 -2.15 164.2 -1.45 164.5 -0.95 164.7 -0.55 165.25 -0.15 165.8 0.15 166.35 0.15 167.25 0.15 168.05 -0.4
L 167.95 -0.85
Q 167.55 -0.55 167.25 -0.45 166.9 -0.3 166.4 -0.3 165.95 -0.3 165.55 -0.55 165.2 -0.75 164.95 -1.15 164.7 -1.55 164.7 -2.05
L 168.3 -2.05 168.3 -2.25
Q 168.3 -2.8 168.05 -3.3 167.85 -3.7 167.35 -4.05 166.9 -4.35 166.3 -4.35
M 165.45 -3.7
Q 165.8 -3.9 166.3 -3.9 167 -3.9 167.35 -3.5 167.8 -3.1 167.8 -2.4
L 164.75 -2.4
Q 164.75 -2.75 164.95 -3.1 165.1 -3.4 165.45 -3.7
M 165.9 -5.05
L 166.35 -5.05 167.45 -6.35 166.85 -6.35 165.9 -5.05 Z"/>
</g>

<g id="IT_728x90_FR_psd_Asset_V11_2_qui_fait_appel___une_solution_de_Wi_Fi_g_r___0_Layer0_0_MEMBER_35_FILL">
<path fill="#D82C26" stroke="none" d="
M 169.4 -0.35
L 169.55 -0.05 169.8 0.05
Q 169.9 0.05 170.1 -0.05 170.2 -0.15 170.2 -0.35 170.2 -0.55 170.1 -0.65 169.9 -0.75 169.8 -0.75
L 169.55 -0.65 169.4 -0.35 Z"/>
</g>
</defs>

<g transform="matrix( 1, 0, 0, 1, -185,-76) ">
<g transform="matrix( 1, 0, 0, 1, 185,89) ">
<g transform="matrix( 1, 0, 0, 1, 25,22) ">
<g transform="matrix( 2.6895904541015625, 0, 0, 2.672393798828125, -0.85,18.55) ">
<use xlink:href="#IT_728x90_FR_psd_Asset_V11_2_qui_fait_appel___une_solution_de_Wi_Fi_g_r___0_Layer0_0_MEMBER_0_FILL"/>
</g>

<g transform="matrix( 2.6895904541015625, 0, 0, 2.672393798828125, -0.85,18.55) ">
<use xlink:href="#IT_728x90_FR_psd_Asset_V11_2_qui_fait_appel___une_solution_de_Wi_Fi_g_r___0_Layer0_0_MEMBER_1_FILL"/>
</g>

<g transform="matrix( 2.6895904541015625, 0, 0, 2.672393798828125, -0.85,18.55) ">
<use xlink:href="#IT_728x90_FR_psd_Asset_V11_2_qui_fait_appel___une_solution_de_Wi_Fi_g_r___0_Layer0_0_MEMBER_2_FILL"/>
</g>

<g transform="matrix( 2.6895904541015625, 0, 0, 2.672393798828125, -0.85,18.55) ">
<use xlink:href="#IT_728x90_FR_psd_Asset_V11_2_qui_fait_appel___une_solution_de_Wi_Fi_g_r___0_Layer0_0_MEMBER_3_FILL"/>
</g>

<g transform="matrix( 2.6895904541015625, 0, 0, 2.672393798828125, -0.85,18.55) ">
<use xlink:href="#IT_728x90_FR_psd_Asset_V11_2_qui_fait_appel___une_solution_de_Wi_Fi_g_r___0_Layer0_0_MEMBER_4_FILL"/>
</g>

<g transform="matrix( 2.6895904541015625, 0, 0, 2.672393798828125, -0.85,18.55) ">
<use xlink:href="#IT_728x90_FR_psd_Asset_V11_2_qui_fait_appel___une_solution_de_Wi_Fi_g_r___0_Layer0_0_MEMBER_5_FILL"/>
</g>

<g transform="matrix( 2.6895904541015625, 0, 0, 2.672393798828125, -0.85,18.55) ">
<use xlink:href="#IT_728x90_FR_psd_Asset_V11_2_qui_fait_appel___une_solution_de_Wi_Fi_g_r___0_Layer0_0_MEMBER_6_FILL"/>
</g>

<g transform="matrix( 2.6895904541015625, 0, 0, 2.672393798828125, -0.85,18.55) ">
<use xlink:href="#IT_728x90_FR_psd_Asset_V11_2_qui_fait_appel___une_solution_de_Wi_Fi_g_r___0_Layer0_0_MEMBER_7_FILL"/>
</g>

<g transform="matrix( 2.6895904541015625, 0, 0, 2.672393798828125, -0.85,18.55) ">
<use xlink:href="#IT_728x90_FR_psd_Asset_V11_2_qui_fait_appel___une_solution_de_Wi_Fi_g_r___0_Layer0_0_MEMBER_8_FILL"/>
</g>

<g transform="matrix( 2.6895904541015625, 0, 0, 2.672393798828125, -0.85,18.55) ">
<use xlink:href="#IT_728x90_FR_psd_Asset_V11_2_qui_fait_appel___une_solution_de_Wi_Fi_g_r___0_Layer0_0_MEMBER_9_FILL"/>
</g>

<g transform="matrix( 2.6895904541015625, 0, 0, 2.672393798828125, -0.85,18.55) ">
<use xlink:href="#IT_728x90_FR_psd_Asset_V11_2_qui_fait_appel___une_solution_de_Wi_Fi_g_r___0_Layer0_0_MEMBER_10_FILL"/>
</g>

<g transform="matrix( 2.6895904541015625, 0, 0, 2.672393798828125, -0.85,18.55) ">
<use xlink:href="#IT_728x90_FR_psd_Asset_V11_2_qui_fait_appel___une_solution_de_Wi_Fi_g_r___0_Layer0_0_MEMBER_11_FILL"/>
</g>

<g transform="matrix( 2.6895904541015625, 0, 0, 2.672393798828125, -0.85,18.55) ">
<use xlink:href="#IT_728x90_FR_psd_Asset_V11_2_qui_fait_appel___une_solution_de_Wi_Fi_g_r___0_Layer0_0_MEMBER_12_FILL"/>
</g>

<g transform="matrix( 2.6895904541015625, 0, 0, 2.672393798828125, -0.85,18.55) ">
<use xlink:href="#IT_728x90_FR_psd_Asset_V11_2_qui_fait_appel___une_solution_de_Wi_Fi_g_r___0_Layer0_0_MEMBER_13_FILL"/>
</g>

<g transform="matrix( 2.6895904541015625, 0, 0, 2.672393798828125, -0.85,18.55) ">
<use xlink:href="#IT_728x90_FR_psd_Asset_V11_2_qui_fait_appel___une_solution_de_Wi_Fi_g_r___0_Layer0_0_MEMBER_14_FILL"/>
</g>

<g transform="matrix( 2.6895904541015625, 0, 0, 2.672393798828125, -0.85,18.55) ">
<use xlink:href="#IT_728x90_FR_psd_Asset_V11_2_qui_fait_appel___une_solution_de_Wi_Fi_g_r___0_Layer0_0_MEMBER_15_FILL"/>
</g>

<g transform="matrix( 2.6895904541015625, 0, 0, 2.672393798828125, -0.85,18.55) ">
<use xlink:href="#IT_728x90_FR_psd_Asset_V11_2_qui_fait_appel___une_solution_de_Wi_Fi_g_r___0_Layer0_0_MEMBER_16_FILL"/>
</g>

<g transform="matrix( 2.6895904541015625, 0, 0, 2.672393798828125, -0.85,18.55) ">
<use xlink:href="#IT_728x90_FR_psd_Asset_V11_2_qui_fait_appel___une_solution_de_Wi_Fi_g_r___0_Layer0_0_MEMBER_17_FILL"/>
</g>

<g transform="matrix( 2.6895904541015625, 0, 0, 2.672393798828125, -0.85,18.55) ">
<use xlink:href="#IT_728x90_FR_psd_Asset_V11_2_qui_fait_appel___une_solution_de_Wi_Fi_g_r___0_Layer0_0_MEMBER_18_FILL"/>
</g>

<g transform="matrix( 2.6895904541015625, 0, 0, 2.672393798828125, -0.85,18.55) ">
<use xlink:href="#IT_728x90_FR_psd_Asset_V11_2_qui_fait_appel___une_solution_de_Wi_Fi_g_r___0_Layer0_0_MEMBER_19_FILL"/>
</g>

<g transform="matrix( 2.6895904541015625, 0, 0, 2.672393798828125, -0.85,18.55) ">
<use xlink:href="#IT_728x90_FR_psd_Asset_V11_2_qui_fait_appel___une_solution_de_Wi_Fi_g_r___0_Layer0_0_MEMBER_20_FILL"/>
</g>

<g transform="matrix( 2.6895904541015625, 0, 0, 2.672393798828125, -0.85,18.55) ">
<use xlink:href="#IT_728x90_FR_psd_Asset_V11_2_qui_fait_appel___une_solution_de_Wi_Fi_g_r___0_Layer0_0_MEMBER_21_FILL"/>
</g>

<g transform="matrix( 2.6895904541015625, 0, 0, 2.672393798828125, -0.85,18.55) ">
<use xlink:href="#IT_728x90_FR_psd_Asset_V11_2_qui_fait_appel___une_solution_de_Wi_Fi_g_r___0_Layer0_0_MEMBER_22_FILL"/>
</g>

<g transform="matrix( 2.6895904541015625, 0, 0, 2.672393798828125, -0.85,18.55) ">
<use xlink:href="#IT_728x90_FR_psd_Asset_V11_2_qui_fait_appel___une_solution_de_Wi_Fi_g_r___0_Layer0_0_MEMBER_23_FILL"/>
</g>

<g transform="matrix( 2.6895904541015625, 0, 0, 2.672393798828125, -0.85,18.55) ">
<use xlink:href="#IT_728x90_FR_psd_Asset_V11_2_qui_fait_appel___une_solution_de_Wi_Fi_g_r___0_Layer0_0_MEMBER_24_FILL"/>
</g>

<g transform="matrix( 2.6895904541015625, 0, 0, 2.672393798828125, -0.85,18.55) ">
<use xlink:href="#IT_728x90_FR_psd_Asset_V11_2_qui_fait_appel___une_solution_de_Wi_Fi_g_r___0_Layer0_0_MEMBER_25_FILL"/>
</g>

<g transform="matrix( 2.6895904541015625, 0, 0, 2.672393798828125, -0.85,18.55) ">
<use xlink:href="#IT_728x90_FR_psd_Asset_V11_2_qui_fait_appel___une_solution_de_Wi_Fi_g_r___0_Layer0_0_MEMBER_26_FILL"/>
</g>

<g transform="matrix( 2.6895904541015625, 0, 0, 2.672393798828125, -0.85,18.55) ">
<use xlink:href="#IT_728x90_FR_psd_Asset_V11_2_qui_fait_appel___une_solution_de_Wi_Fi_g_r___0_Layer0_0_MEMBER_27_FILL"/>
</g>

<g transform="matrix( 2.6895904541015625, 0, 0, 2.672393798828125, -0.85,18.55) ">
<use xlink:href="#IT_728x90_FR_psd_Asset_V11_2_qui_fait_appel___une_solution_de_Wi_Fi_g_r___0_Layer0_0_MEMBER_28_FILL"/>
</g>

<g transform="matrix( 2.6895904541015625, 0, 0, 2.672393798828125, -0.85,18.55) ">
<use xlink:href="#IT_728x90_FR_psd_Asset_V11_2_qui_fait_appel___une_solution_de_Wi_Fi_g_r___0_Layer0_0_MEMBER_29_FILL"/>
</g>

<g transform="matrix( 2.6895904541015625, 0, 0, 2.672393798828125, -0.85,18.55) ">
<use xlink:href="#IT_728x90_FR_psd_Asset_V11_2_qui_fait_appel___une_solution_de_Wi_Fi_g_r___0_Layer0_0_MEMBER_30_FILL"/>
</g>

<g transform="matrix( 2.6895904541015625, 0, 0, 2.672393798828125, -0.85,18.55) ">
<use xlink:href="#IT_728x90_FR_psd_Asset_V11_2_qui_fait_appel___une_solution_de_Wi_Fi_g_r___0_Layer0_0_MEMBER_31_FILL"/>
</g>

<g transform="matrix( 2.6895904541015625, 0, 0, 2.672393798828125, -0.85,18.55) ">
<use xlink:href="#IT_728x90_FR_psd_Asset_V11_2_qui_fait_appel___une_solution_de_Wi_Fi_g_r___0_Layer0_0_MEMBER_32_FILL"/>
</g>

<g transform="matrix( 2.6895904541015625, 0, 0, 2.672393798828125, -0.85,18.55) ">
<use xlink:href="#IT_728x90_FR_psd_Asset_V11_2_qui_fait_appel___une_solution_de_Wi_Fi_g_r___0_Layer0_0_MEMBER_33_FILL"/>
</g>

<g transform="matrix( 2.6895904541015625, 0, 0, 2.672393798828125, -0.85,18.55) ">
<use xlink:href="#IT_728x90_FR_psd_Asset_V11_2_qui_fait_appel___une_solution_de_Wi_Fi_g_r___0_Layer0_0_MEMBER_34_FILL"/>
</g>

<g transform="matrix( 2.6895904541015625, 0, 0, 2.672393798828125, -0.85,18.55) ">
<use xlink:href="#IT_728x90_FR_psd_Asset_V11_2_qui_fait_appel___une_solution_de_Wi_Fi_g_r___0_Layer0_0_MEMBER_35_FILL"/>
</g>
</g>
</g>
</g>
</svg>
