
<svg xmlns="http://www.w3.org/2000/svg" version="1.1" xmlns:xlink="http://www.w3.org/1999/xlink" preserveAspectRatio="none" x="0px" y="0px" width="640px" height="480px" viewBox="0 0 640 480">
<defs>
<g id="IT_640x480_psd_Asset_3_ManagedWiFi_IT_Research_DM9_1_Looking_to_evaluate_your_network__for_a_better_management_solut_0_Layer0_0_MEMBER_0_FILL">
<path fill="#D82C26" stroke="none" d="
M 2 -9
L 1.25 -9 1.25 0 5.9 0 6.05 -0.7 2 -0.7 2 -9 Z"/>
</g>

<g id="IT_640x480_psd_Asset_3_ManagedWiFi_IT_Research_DM9_1_Looking_to_evaluate_your_network__for_a_better_management_solut_0_Layer0_0_MEMBER_1_FILL">
<path fill="#D82C26" stroke="none" d="
M 9.65 -6.15
Q 8.8 -6.15 8 -5.75 7.2 -5.2 6.9 -4.6 6.45 -3.9 6.45 -3 6.45 -2.1 6.9 -1.35 7.3 -0.65 8 -0.25 8.75 0.2 9.65 0.2 10.6 0.2 11.25 -0.25 11.9 -0.55 12.4 -1.35 12.8 -2.15 12.8 -3 12.8 -3.9 12.4 -4.6 11.95 -5.3 11.25 -5.75 10.55 -6.15 9.65 -6.15
M 8.35 -5.15
Q 8.85 -5.5 9.65 -5.5 10.4 -5.5 10.9 -5.15 11.45 -4.9 11.75 -4.25 12.05 -3.7 12.05 -3 12.05 -2.3 11.75 -1.7 11.4 -1.1 10.9 -0.8 10.4 -0.45 9.65 -0.45 8.85 -0.45 8.35 -0.8 7.8 -1.2 7.5 -1.7 7.2 -2.3 7.2 -3 7.2 -3.7 7.5 -4.25 7.8 -4.85 8.35 -5.15 Z"/>
</g>

<g id="IT_640x480_psd_Asset_3_ManagedWiFi_IT_Research_DM9_1_Looking_to_evaluate_your_network__for_a_better_management_solut_0_Layer0_0_MEMBER_2_FILL">
<path fill="#D82C26" stroke="none" d="
M 14.15 -4.6
Q 13.75 -4 13.75 -3 13.75 -2 14.15 -1.35 14.55 -0.65 15.25 -0.25 16 0.2 16.9 0.2 17.85 0.2 18.5 -0.25 19.25 -0.6 19.65 -1.35 20.05 -2 20.05 -3 20.05 -4 19.65 -4.6 19.3 -5.25 18.5 -5.75 17.8 -6.15 16.9 -6.15 16.05 -6.15 15.25 -5.75 14.45 -5.2 14.15 -4.6
M 14.5 -3
Q 14.5 -3.8 14.75 -4.25 15.05 -4.85 15.6 -5.15 16.15 -5.5 16.9 -5.5 17.65 -5.5 18.15 -5.15 18.7 -4.9 19 -4.25 19.3 -3.7 19.3 -3 19.3 -2.35 19.05 -1.7 18.75 -1.2 18.2 -0.8 17.65 -0.45 16.9 -0.45 16.15 -0.45 15.6 -0.8 15.05 -1.2 14.75 -1.7 14.5 -2.2 14.5 -3 Z"/>
</g>

<g id="IT_640x480_psd_Asset_3_ManagedWiFi_IT_Research_DM9_1_Looking_to_evaluate_your_network__for_a_better_management_solut_0_Layer0_0_MEMBER_3_FILL">
<path fill="#D82C26" stroke="none" d="
M 22.15 -9.7
L 21.4 -9.55 21.4 0 22.15 0 22.15 -3.1 25.2 0 26.2 0 22.95 -3.2 25.9 -5.95 24.9 -5.95 22.15 -3.25 22.15 -9.7 Z"/>
</g>

<g id="IT_640x480_psd_Asset_3_ManagedWiFi_IT_Research_DM9_1_Looking_to_evaluate_your_network__for_a_better_management_solut_0_Layer0_0_MEMBER_4_FILL">
<path fill="#D82C26" stroke="none" d="
M 27.85 -5.95
L 27.1 -5.95 27.1 0 27.85 0 27.85 -5.95
M 27.45 -7.8
Q 27.7 -7.8 27.85 -7.95 28 -8.1 28 -8.35 28 -8.55 27.85 -8.7 27.7 -8.85 27.45 -8.85 27.25 -8.85 27.1 -8.7 26.9 -8.5 26.9 -8.35 26.9 -8.15 27.1 -7.95 27.25 -7.8 27.45 -7.8 Z"/>
</g>

<g id="IT_640x480_psd_Asset_3_ManagedWiFi_IT_Research_DM9_1_Looking_to_evaluate_your_network__for_a_better_management_solut_0_Layer0_0_MEMBER_5_FILL">
<path fill="#D82C26" stroke="none" d="
M 30.2 -5.95
L 29.5 -5.95 29.55 0 30.3 0 30.3 -3.05
Q 30.3 -3.9 30.55 -4.35 30.75 -4.85 31.25 -5.2 31.7 -5.5 32.25 -5.5 33.15 -5.5 33.5 -4.9 33.9 -4.25 33.9 -3.45
L 33.9 0 34.65 0 34.65 -3.65
Q 34.65 -4.7 34.1 -5.4 33.6 -6.15 32.4 -6.15 31.75 -6.15 31.1 -5.75 30.55 -5.35 30.25 -4.65
L 30.2 -5.95 Z"/>
</g>

<g id="IT_640x480_psd_Asset_3_ManagedWiFi_IT_Research_DM9_1_Looking_to_evaluate_your_network__for_a_better_management_solut_0_Layer0_0_MEMBER_6_FILL">
<path fill="#D82C26" stroke="none" d="
M 40.25 -5.75
Q 39.6 -6.15 38.85 -6.15 38 -6.15 37.3 -5.7 36.65 -5.35 36.25 -4.55 35.85 -3.85 35.85 -3 35.85 -2.1 36.25 -1.4 36.65 -0.65 37.3 -0.3 37.9 0.1 38.85 0.1 39.65 0.1 40.3 -0.25 41 -0.75 41.25 -1.35
L 41.3 -1.35 41.3 -0.1
Q 41.3 1.15 40.7 1.8 40.1 2.5 38.85 2.5 38.2 2.5 37.55 2.25 37 2.15 36.4 1.7
L 36.25 2.4
Q 36.9 2.75 37.45 2.95 38.35 3.15 38.85 3.15 40.5 3.15 41.25 2.25 42.05 1.4 42.05 -0.1
L 42.05 -5.95 41.35 -5.95 41.3 -4.65
Q 40.9 -5.4 40.25 -5.75
M 38.95 -5.5
Q 39.65 -5.5 40.15 -5.15 40.7 -4.9 41 -4.25 41.3 -3.65 41.3 -3 41.3 -2.25 41 -1.75 40.7 -1.1 40.15 -0.85 39.65 -0.5 38.95 -0.5 38.25 -0.5 37.75 -0.85 37.2 -1.1 36.9 -1.75 36.6 -2.25 36.6 -3 36.6 -3.65 36.9 -4.25 37.2 -4.9 37.75 -5.15 38.25 -5.5 38.95 -5.5 Z"/>
</g>

<g id="IT_640x480_psd_Asset_3_ManagedWiFi_IT_Research_DM9_1_Looking_to_evaluate_your_network__for_a_better_management_solut_0_Layer0_0_MEMBER_7_FILL">
<path fill="#D82C26" stroke="none" d="
M 47.35 -7.65
L 46.6 -7.35 46.6 -5.95 45.65 -5.95 45.5 -5.35 46.65 -5.35 46.65 -1.45
Q 46.65 -0.65 47 -0.3 47.4 0.15 48 0.15
L 48.7 0.05 49.3 -0.2 49.2 -0.75
Q 48.75 -0.5 48.25 -0.5 47.8 -0.5 47.6 -0.75 47.35 -1 47.35 -1.55
L 47.35 -5.35 48.9 -5.35 49.05 -5.95 47.35 -5.95 47.35 -7.65 Z"/>
</g>

<g id="IT_640x480_psd_Asset_3_ManagedWiFi_IT_Research_DM9_1_Looking_to_evaluate_your_network__for_a_better_management_solut_0_Layer0_0_MEMBER_8_FILL">
<path fill="#D82C26" stroke="none" d="
M 49.5 -3
Q 49.5 -2.1 49.95 -1.35 50.35 -0.65 51.05 -0.25 51.8 0.2 52.7 0.2 53.65 0.2 54.3 -0.25 55.05 -0.6 55.45 -1.35 55.85 -2 55.85 -3 55.85 -4 55.45 -4.6 55.1 -5.25 54.3 -5.75 53.6 -6.15 52.7 -6.15 51.85 -6.15 51.05 -5.75 50.25 -5.2 49.95 -4.6 49.5 -3.9 49.5 -3
M 50.25 -3
Q 50.25 -3.7 50.55 -4.25 50.85 -4.85 51.4 -5.15 51.95 -5.5 52.7 -5.5 53.45 -5.5 53.95 -5.15 54.5 -4.9 54.8 -4.25 55.1 -3.7 55.1 -3 55.1 -2.3 54.8 -1.7 54.6 -1.2 54 -0.8 53.45 -0.45 52.7 -0.45 51.95 -0.45 51.4 -0.8 50.85 -1.2 50.55 -1.7 50.25 -2.3 50.25 -3 Z"/>
</g>

<g id="IT_640x480_psd_Asset_3_ManagedWiFi_IT_Research_DM9_1_Looking_to_evaluate_your_network__for_a_better_management_solut_0_Layer0_0_MEMBER_9_FILL">
<path fill="#D82C26" stroke="none" d="
M 59.45 -3
Q 59.45 -2.15 59.85 -1.35 60.25 -0.6 60.95 -0.25 61.65 0.2 62.5 0.2 63.9 0.2 64.85 -0.55
L 64.75 -1.2
Q 64.35 -0.9 63.8 -0.65 63.25 -0.45 62.55 -0.45 61.9 -0.45 61.35 -0.75 60.8 -1.15 60.5 -1.65 60.25 -2.1 60.15 -2.85
L 65.2 -2.85 65.25 -3.2
Q 65.25 -3.9 64.9 -4.7 64.6 -5.35 63.95 -5.75 63.25 -6.15 62.4 -6.15 61.6 -6.15 60.9 -5.75 60.2 -5.3 59.85 -4.65 59.45 -3.85 59.45 -3
M 60.2 -3.4
Q 60.2 -3.8 60.45 -4.4 60.8 -4.95 61.25 -5.2 61.65 -5.55 62.4 -5.55 63.4 -5.55 63.9 -4.95 64.5 -4.4 64.5 -3.4
L 60.2 -3.4 Z"/>
</g>

<g id="IT_640x480_psd_Asset_3_ManagedWiFi_IT_Research_DM9_1_Looking_to_evaluate_your_network__for_a_better_management_solut_0_Layer0_0_MEMBER_10_FILL">
<path fill="#D82C26" stroke="none" d="
M 66.3 -5.95
L 65.5 -5.95 67.8 0 68.65 0 70.85 -5.95 70.1 -5.95 68.2 -0.75 66.3 -5.95 Z"/>
</g>

<g id="IT_640x480_psd_Asset_3_ManagedWiFi_IT_Research_DM9_1_Looking_to_evaluate_your_network__for_a_better_management_solut_0_Layer0_0_MEMBER_11_FILL">
<path fill="#D82C26" stroke="none" d="
M 75.4 -3.55
L 74.65 -3.55
Q 71.25 -3.55 71.25 -1.6 71.25 -0.75 71.8 -0.3 72.4 0.15 73.15 0.15 73.85 0.15 74.5 -0.15 75.15 -0.55 75.35 -1.15
L 75.4 -1.15 75.5 0 76.2 0
Q 76.1 -0.3 76.1 -1.3
L 76.1 -3.85
Q 76.1 -5.05 75.45 -5.55 74.85 -6.15 73.8 -6.15 73.3 -6.15 72.6 -5.95 71.9 -5.7 71.6 -5.4
L 71.8 -4.8
Q 72.25 -5.15 72.7 -5.35 73.4 -5.55 73.7 -5.55 74.45 -5.55 74.95 -5.15 75.4 -4.7 75.4 -3.9
L 75.4 -3.55
M 74.75 -3.1
L 75.4 -3.1 75.4 -2.5
Q 75.4 -2 75.15 -1.5 74.9 -1 74.45 -0.7 73.95 -0.4 73.3 -0.4 72.75 -0.4 72.35 -0.7 71.95 -1 71.95 -1.65 71.95 -3.1 74.75 -3.1 Z"/>
</g>

<g id="IT_640x480_psd_Asset_3_ManagedWiFi_IT_Research_DM9_1_Looking_to_evaluate_your_network__for_a_better_management_solut_0_Layer0_0_MEMBER_12_FILL">
<path fill="#D82C26" stroke="none" d="
M 77.7 -1.3
Q 77.7 -0.75 77.95 -0.35 78.35 0.05 78.65 0.15
L 79 -0.5
Q 78.7 -0.65 78.55 -0.85
L 78.45 -1.5 78.45 -9.7 77.7 -9.55 77.7 -1.3 Z"/>
</g>

<g id="IT_640x480_psd_Asset_3_ManagedWiFi_IT_Research_DM9_1_Looking_to_evaluate_your_network__for_a_better_management_solut_0_Layer0_0_MEMBER_13_FILL">
<path fill="#D82C26" stroke="none" d="
M 80.1 -2.35
Q 80.1 -1.25 80.65 -0.55 81.15 0.15 82.25 0.15 83.05 0.15 83.6 -0.25 84.25 -0.65 84.45 -1.3
L 84.55 0 85.3 0 85.2 -0.7 85.2 -5.95 84.45 -5.95 84.45 -3
Q 84.45 -2.25 84.2 -1.6 83.85 -1 83.5 -0.75 83 -0.45 82.45 -0.45 81.6 -0.45 81.2 -1.05 80.85 -1.6 80.85 -2.5
L 80.85 -5.95 80.1 -5.95 80.1 -2.35 Z"/>
</g>

<g id="IT_640x480_psd_Asset_3_ManagedWiFi_IT_Research_DM9_1_Looking_to_evaluate_your_network__for_a_better_management_solut_0_Layer0_0_MEMBER_14_FILL">
<path fill="#D82C26" stroke="none" d="
M 90.6 -3.55
L 89.85 -3.55
Q 86.45 -3.55 86.45 -1.6 86.45 -0.75 87 -0.3 87.6 0.15 88.35 0.15 89.1 0.15 89.7 -0.15 90.35 -0.55 90.55 -1.15
L 90.6 -1.15 90.7 0 91.4 0
Q 91.3 -0.3 91.3 -1.3
L 91.3 -3.85
Q 91.3 -5 90.7 -5.55 90.1 -6.15 89 -6.15 88.6 -6.15 87.8 -5.95 87.1 -5.7 86.8 -5.4
L 87 -4.8
Q 87.45 -5.15 87.9 -5.35 88.6 -5.55 88.9 -5.55 89.65 -5.55 90.15 -5.15 90.6 -4.7 90.6 -3.9
L 90.6 -3.55
M 89.95 -3.1
L 90.6 -3.1 90.6 -2.5
Q 90.6 -2 90.35 -1.5 90.1 -1 89.65 -0.7 89.2 -0.4 88.5 -0.4 87.95 -0.4 87.55 -0.7 87.15 -1 87.15 -1.65 87.15 -3.1 89.95 -3.1 Z"/>
</g>

<g id="IT_640x480_psd_Asset_3_ManagedWiFi_IT_Research_DM9_1_Looking_to_evaluate_your_network__for_a_better_management_solut_0_Layer0_0_MEMBER_15_FILL">
<path fill="#D82C26" stroke="none" d="
M 93.8 -7.65
L 93.05 -7.35 93.05 -5.95 92.1 -5.95 91.95 -5.35 93.05 -5.35 93.05 -1.45
Q 93.05 -0.7 93.45 -0.3 93.85 0.15 94.45 0.15
L 95.1 0.05
Q 95.4 0 95.7 -0.2
L 95.6 -0.75
Q 95.15 -0.5 94.65 -0.5 94.25 -0.5 94.05 -0.75 93.8 -1 93.8 -1.55
L 93.8 -5.35 95.35 -5.35 95.5 -5.95 93.8 -5.95 93.8 -7.65 Z"/>
</g>

<g id="IT_640x480_psd_Asset_3_ManagedWiFi_IT_Research_DM9_1_Looking_to_evaluate_your_network__for_a_better_management_solut_0_Layer0_0_MEMBER_16_FILL">
<path fill="#D82C26" stroke="none" d="
M 100.45 -5.75
Q 99.75 -6.15 98.9 -6.15 98.1 -6.15 97.4 -5.75 96.7 -5.3 96.35 -4.65 95.95 -3.85 95.95 -3 95.95 -2.15 96.35 -1.35 96.85 -0.55 97.45 -0.25 98.15 0.2 99 0.2 100.45 0.2 101.4 -0.55
L 101.25 -1.2
Q 100.8 -0.85 100.3 -0.65 99.75 -0.45 99.1 -0.45 98.4 -0.45 97.85 -0.75 97.3 -1.15 97 -1.65 96.7 -2.15 96.7 -2.85
L 101.75 -2.85 101.75 -3.2
Q 101.75 -4.05 101.4 -4.7 101.1 -5.4 100.45 -5.75
M 100.45 -4.95
Q 101.05 -4.4 101.05 -3.4
L 96.7 -3.4
Q 96.8 -4.05 97 -4.4 97.25 -4.9 97.75 -5.2 98.25 -5.55 98.9 -5.55 99.85 -5.55 100.45 -4.95 Z"/>
</g>

<g id="IT_640x480_psd_Asset_3_ManagedWiFi_IT_Research_DM9_1_Looking_to_evaluate_your_network__for_a_better_management_solut_0_Layer0_0_MEMBER_17_FILL">
<path fill="#D82C26" stroke="none" d="
M 105.7 -5.95
L 104.85 -5.95 107.35 0.05 106.9 1.3
Q 106.7 1.85 106.3 2.1 106.05 2.3 105.2 2.4
L 105.45 3.05
Q 106.2 3.05 106.75 2.65 107.35 2.2 107.55 1.5
L 110.35 -5.95 109.55 -5.95 107.75 -0.8 105.7 -5.95 Z"/>
</g>

<g id="IT_640x480_psd_Asset_3_ManagedWiFi_IT_Research_DM9_1_Looking_to_evaluate_your_network__for_a_better_management_solut_0_Layer0_0_MEMBER_18_FILL">
<path fill="#D82C26" stroke="none" d="
M 110.65 -3
Q 110.65 -2.15 111.05 -1.35 111.6 -0.55 112.2 -0.25 112.9 0.2 113.8 0.2 114.7 0.2 115.45 -0.25 116.15 -0.65 116.55 -1.35 117 -2.1 117 -3 117 -3.9 116.55 -4.6 116.25 -5.2 115.45 -5.75 114.65 -6.15 113.8 -6.15 112.9 -6.15 112.2 -5.75 111.5 -5.3 111.05 -4.6 110.65 -3.9 110.65 -3
M 115.1 -5.15
Q 115.65 -4.85 115.95 -4.25 116.25 -3.7 116.25 -3 116.25 -2.3 115.95 -1.7 115.65 -1.2 115.1 -0.8 114.6 -0.45 113.8 -0.45 113.05 -0.45 112.55 -0.8 112.05 -1.1 111.7 -1.7 111.4 -2.3 111.4 -3 111.4 -3.7 111.7 -4.25 112 -4.9 112.55 -5.15 113.05 -5.5 113.8 -5.5 114.55 -5.5 115.1 -5.15 Z"/>
</g>

<g id="IT_640x480_psd_Asset_3_ManagedWiFi_IT_Research_DM9_1_Looking_to_evaluate_your_network__for_a_better_management_solut_0_Layer0_0_MEMBER_19_FILL">
<path fill="#D82C26" stroke="none" d="
M 118.2 -2.35
Q 118.2 -1.25 118.75 -0.55 119.25 0.15 120.4 0.15 121.15 0.15 121.7 -0.25 122.35 -0.65 122.55 -1.3
L 122.65 0 123.4 0 123.3 -0.7 123.3 -5.95 122.55 -5.95 122.55 -3
Q 122.55 -2.25 122.3 -1.6 121.95 -1 121.6 -0.75 121.15 -0.45 120.55 -0.45 119.7 -0.45 119.3 -1.05 118.95 -1.75 118.95 -2.5
L 118.95 -5.95 118.2 -5.95 118.2 -2.35 Z"/>
</g>

<g id="IT_640x480_psd_Asset_3_ManagedWiFi_IT_Research_DM9_1_Looking_to_evaluate_your_network__for_a_better_management_solut_0_Layer0_0_MEMBER_20_FILL">
<path fill="#D82C26" stroke="none" d="
M 125.75 -2.95
Q 125.75 -4 126.2 -4.75 126.75 -5.45 127.45 -5.45
L 128 -5.4 128.15 -6
Q 127.85 -6.15 127.5 -6.15 127 -6.15 126.5 -5.75 126 -5.4 125.75 -4.65
L 125.65 -5.95 124.95 -5.95 125 0 125.75 0 125.75 -2.95 Z"/>
</g>

<g id="IT_640x480_psd_Asset_3_ManagedWiFi_IT_Research_DM9_1_Looking_to_evaluate_your_network__for_a_better_management_solut_0_Layer0_0_MEMBER_21_FILL">
<path fill="#D82C26" stroke="none" d="
M 136.1 -5.4
Q 135.6 -6.15 134.4 -6.15 133.75 -6.15 133.1 -5.75 132.55 -5.35 132.25 -4.65
L 132.2 -5.95 131.5 -5.95 131.55 0 132.3 0 132.3 -3.05
Q 132.3 -3.9 132.55 -4.35 132.75 -4.85 133.25 -5.2 133.7 -5.5 134.25 -5.5 135.15 -5.5 135.5 -4.9 135.9 -4.25 135.9 -3.45
L 135.9 0 136.65 0 136.65 -3.65
Q 136.65 -4.7 136.1 -5.4 Z"/>
</g>

<g id="IT_640x480_psd_Asset_3_ManagedWiFi_IT_Research_DM9_1_Looking_to_evaluate_your_network__for_a_better_management_solut_0_Layer0_0_MEMBER_22_FILL">
<path fill="#D82C26" stroke="none" d="
M 140.85 -6.15
Q 140.05 -6.15 139.35 -5.75 138.7 -5.3 138.25 -4.65 137.9 -3.95 137.9 -3 137.9 -2 138.3 -1.35 138.7 -0.6 139.35 -0.25 140.1 0.2 140.95 0.2 142.35 0.2 143.3 -0.55
L 143.2 -1.2
Q 142.6 -0.8 142.2 -0.65 141.75 -0.45 141 -0.45 140.35 -0.45 139.75 -0.75 139.25 -1.1 138.95 -1.65 138.6 -2.25 138.6 -2.85
L 143.65 -2.85 143.65 -3.2
Q 143.65 -4 143.35 -4.7 142.95 -5.4 142.35 -5.75 141.7 -6.15 140.85 -6.15
M 139.65 -5.2
Q 140.15 -5.55 140.85 -5.55 141.85 -5.55 142.35 -4.95 142.95 -4.4 142.95 -3.4
L 138.6 -3.4
Q 138.65 -3.85 138.9 -4.4 139.25 -4.95 139.65 -5.2 Z"/>
</g>

<g id="IT_640x480_psd_Asset_3_ManagedWiFi_IT_Research_DM9_1_Looking_to_evaluate_your_network__for_a_better_management_solut_0_Layer0_0_MEMBER_23_FILL">
<path fill="#D82C26" stroke="none" d="
M 145.8 -7.65
L 145.05 -7.35 145.05 -5.95 144.1 -5.95 143.95 -5.35 145.1 -5.35 145.1 -1.45
Q 145.1 -0.65 145.45 -0.3 145.85 0.15 146.45 0.15
L 147.15 0.05 147.75 -0.2 147.65 -0.75
Q 147.2 -0.5 146.7 -0.5 146.25 -0.5 146.05 -0.75 145.8 -1 145.8 -1.55
L 145.8 -5.35 147.35 -5.35 147.5 -5.95 145.8 -5.95 145.8 -7.65 Z"/>
</g>

<g id="IT_640x480_psd_Asset_3_ManagedWiFi_IT_Research_DM9_1_Looking_to_evaluate_your_network__for_a_better_management_solut_0_Layer0_0_MEMBER_24_FILL">
<path fill="#D82C26" stroke="none" d="
M 148.85 -5.95
L 148.05 -5.95 149.9 0 150.75 0 152.4 -5.05 152.45 -5.05 154.15 0 154.95 0 156.8 -5.95 156.05 -5.95 154.55 -0.85 152.85 -5.95 152.05 -5.95 150.35 -0.85 148.85 -5.95 Z"/>
</g>

<g id="IT_640x480_psd_Asset_3_ManagedWiFi_IT_Research_DM9_1_Looking_to_evaluate_your_network__for_a_better_management_solut_0_Layer0_0_MEMBER_25_FILL">
<path fill="#D82C26" stroke="none" d="
M 158.75 -5.75
Q 157.95 -5.2 157.65 -4.6 157.2 -3.9 157.2 -3 157.2 -2.1 157.65 -1.35 158.05 -0.65 158.75 -0.25 159.5 0.2 160.4 0.2 161.35 0.2 162 -0.25 162.65 -0.55 163.15 -1.35 163.55 -2.15 163.55 -3 163.55 -3.9 163.15 -4.6 162.7 -5.3 162 -5.75 161.3 -6.15 160.4 -6.15 159.55 -6.15 158.75 -5.75
M 160.4 -5.5
Q 161.15 -5.5 161.65 -5.15 162.2 -4.9 162.5 -4.25 162.8 -3.7 162.8 -3 162.8 -2.3 162.5 -1.7 162.15 -1.1 161.65 -0.8 161.15 -0.45 160.4 -0.45 159.6 -0.45 159.1 -0.8 158.55 -1.2 158.25 -1.7 157.95 -2.3 157.95 -3 157.95 -3.7 158.25 -4.25 158.55 -4.85 159.1 -5.15 159.6 -5.5 160.4 -5.5 Z"/>
</g>

<g id="IT_640x480_psd_Asset_3_ManagedWiFi_IT_Research_DM9_1_Looking_to_evaluate_your_network__for_a_better_management_solut_0_Layer0_0_MEMBER_26_FILL">
<path fill="#D82C26" stroke="none" d="
M 165.5 -5.95
L 164.8 -5.95 164.85 0 165.6 0 165.6 -2.95
Q 165.6 -4 166.05 -4.75 166.5 -5.45 167.25 -5.45
L 167.8 -5.4 167.95 -6
Q 167.65 -6.15 167.3 -6.15 166.85 -6.15 166.3 -5.75 165.85 -5.45 165.6 -4.65
L 165.55 -4.65 165.5 -5.95 Z"/>
</g>

<g id="IT_640x480_psd_Asset_3_ManagedWiFi_IT_Research_DM9_1_Looking_to_evaluate_your_network__for_a_better_management_solut_0_Layer0_0_MEMBER_27_FILL">
<path fill="#D82C26" stroke="none" d="
M 169.55 -9.7
L 168.8 -9.55 168.8 0 169.55 0 169.55 -3.1 172.6 0 173.6 0 170.35 -3.2 173.3 -5.95 172.3 -5.95 169.55 -3.25 169.55 -9.7 Z"/>
</g>

<g id="IT_640x480_psd_Asset_3_ManagedWiFi_IT_Research_DM9_1_Looking_to_evaluate_your_network__for_a_better_management_solut_0_Layer0_0_MEMBER_28_FILL">
<path fill="#D82C26" stroke="none" d="
M 4.4 5.2
L 3.3 5.05
Q 2.5 5.05 1.95 5.6 1.45 6.2 1.45 7.15
L 1.45 8.9 0.4 8.9 0.25 9.45 1.45 9.45 1.45 14.85 2.2 14.85 2.2 9.45 3.6 9.45 3.75 8.9 2.2 8.9 2.2 7.15
Q 2.2 6.55 2.5 6.1 2.7 5.7 3.35 5.7 4 5.7 4.3 5.8
L 4.4 5.2 Z"/>
</g>

<g id="IT_640x480_psd_Asset_3_ManagedWiFi_IT_Research_DM9_1_Looking_to_evaluate_your_network__for_a_better_management_solut_0_Layer0_0_MEMBER_29_FILL">
<path fill="#D82C26" stroke="none" d="
M 4.3 10.2
Q 3.9 10.85 3.9 11.85 3.9 12.85 4.3 13.45 4.65 14.2 5.4 14.6 6.2 15 7.05 15 7.95 15 8.65 14.6 9.4 14.2 9.8 13.45 10.2 12.85 10.2 11.85 10.2 10.85 9.8 10.2 9.4 9.45 8.65 9.1 8.05 8.7 7.05 8.7 6.05 8.7 5.4 9.1 4.7 9.5 4.3 10.2
M 4.65 11.85
Q 4.65 11.05 4.9 10.55 5.2 10.05 5.75 9.65 6.45 9.3 7.05 9.3 7.7 9.3 8.3 9.65 8.8 10 9.15 10.55 9.45 11.15 9.45 11.85 9.45 12.45 9.2 13.1 8.95 13.65 8.35 14.05 7.75 14.35 7.05 14.35 6.35 14.35 5.75 14.05 5.15 13.65 4.9 13.1 4.65 12.6 4.65 11.85 Z"/>
</g>

<g id="IT_640x480_psd_Asset_3_ManagedWiFi_IT_Research_DM9_1_Looking_to_evaluate_your_network__for_a_better_management_solut_0_Layer0_0_MEMBER_30_FILL">
<path fill="#D82C26" stroke="none" d="
M 14 8.7
Q 13.5 8.7 12.95 9.1 12.45 9.5 12.25 10.15
L 12.2 10.15 12.15 8.9 11.45 8.9 11.5 14.85 12.25 14.85 12.25 11.85
Q 12.25 10.85 12.7 10.1 13.15 9.35 13.95 9.35
L 14.45 9.45 14.6 8.8 14 8.7 Z"/>
</g>

<g id="IT_640x480_psd_Asset_3_ManagedWiFi_IT_Research_DM9_1_Looking_to_evaluate_your_network__for_a_better_management_solut_0_Layer0_0_MEMBER_31_FILL">
<path fill="#D82C26" stroke="none" d="
M 21.7 11.25
L 20.95 11.25
Q 17.55 11.25 17.55 13.25 17.55 14.1 18.1 14.55 18.7 15 19.45 15 20.25 15 20.8 14.65 21.4 14.35 21.65 13.65
L 21.7 13.65 21.8 14.85 22.5 14.85
Q 22.4 14.5 22.4 13.55
L 22.4 10.95
Q 22.4 9.85 21.8 9.25 21.15 8.7 20.1 8.7 19.45 8.7 18.9 8.9 18.3 9.05 17.9 9.45
L 18.1 10
Q 18.4 9.75 19 9.5 19.45 9.3 20 9.3 20.85 9.3 21.25 9.7 21.7 10.1 21.7 10.9
L 21.7 11.25
M 21.7 11.75
L 21.7 12.35
Q 21.7 12.75 21.45 13.35 21.25 13.8 20.75 14.1 20.35 14.45 19.6 14.45 19.05 14.45 18.65 14.15 18.25 13.85 18.25 13.2 18.25 11.75 21.05 11.75
L 21.7 11.75 Z"/>
</g>

<g id="IT_640x480_psd_Asset_3_ManagedWiFi_IT_Research_DM9_1_Looking_to_evaluate_your_network__for_a_better_management_solut_0_Layer0_0_MEMBER_32_FILL">
<path fill="#D82C26" stroke="none" d="
M 32.6 10.25
Q 32.25 9.6 31.55 9.1 30.85 8.7 30 8.7 29.3 8.7 28.6 9.1 28 9.45 27.6 10.15
L 27.55 10.15 27.55 5.1 26.8 5.2 26.75 14.85 27.45 14.85 27.55 13.55
Q 27.95 14.25 28.55 14.6 29.25 15 30 15 30.85 15 31.55 14.6 32.25 14.15 32.6 13.45 33 12.65 33 11.85 33 10.95 32.6 10.25
M 31.95 10.6
Q 32.25 11.15 32.25 11.85 32.25 12.6 31.95 13.1 31.65 13.7 31.15 14.05 30.65 14.35 29.9 14.35 29.25 14.35 28.7 14.05 28.1 13.65 27.85 13.1 27.55 12.6 27.55 11.85 27.55 11.15 27.85 10.6 28.1 10.05 28.7 9.65 29.3 9.3 29.9 9.3 30.55 9.3 31.15 9.65 31.65 10 31.95 10.6 Z"/>
</g>

<g id="IT_640x480_psd_Asset_3_ManagedWiFi_IT_Research_DM9_1_Looking_to_evaluate_your_network__for_a_better_management_solut_0_Layer0_0_MEMBER_33_FILL">
<path fill="#D82C26" stroke="none" d="
M 35.35 9.1
Q 34.7 9.45 34.3 10.2 33.9 11 33.9 11.8 33.9 12.75 34.3 13.45 34.8 14.25 35.4 14.6 36.1 15 36.95 15 38.4 15 39.35 14.25
L 39.2 13.6
Q 38.9 13.9 38.25 14.15 37.6 14.4 37.05 14.4 36.3 14.4 35.8 14.05 35.25 13.75 34.95 13.2 34.65 12.6 34.65 11.95
L 39.7 11.95 39.7 11.65
Q 39.7 10.8 39.35 10.15 39.05 9.45 38.4 9.1 37.8 8.7 36.85 8.7 35.95 8.7 35.35 9.1
M 34.65 11.4
Q 34.75 10.75 34.95 10.45 35.15 10 35.7 9.6 36.3 9.25 36.85 9.25 37.8 9.25 38.4 9.85 39 10.45 39 11.4
L 34.65 11.4 Z"/>
</g>

<g id="IT_640x480_psd_Asset_3_ManagedWiFi_IT_Research_DM9_1_Looking_to_evaluate_your_network__for_a_better_management_solut_0_Layer0_0_MEMBER_34_FILL">
<path fill="#D82C26" stroke="none" d="
M 41.1 7.45
L 41.1 8.9 40.15 8.9 40 9.45 41.1 9.45 41.1 13.4
Q 41.1 14.15 41.5 14.55 41.9 14.95 42.5 14.95
L 43.2 14.85 43.75 14.65 43.65 14.1
Q 43.05 14.35 42.7 14.35 42.35 14.35 42.1 14.1 41.85 13.75 41.85 13.3
L 41.85 9.45 43.4 9.45 43.55 8.9 41.85 8.9 41.85 7.15 41.1 7.45 Z"/>
</g>

<g id="IT_640x480_psd_Asset_3_ManagedWiFi_IT_Research_DM9_1_Looking_to_evaluate_your_network__for_a_better_management_solut_0_Layer0_0_MEMBER_35_FILL">
<path fill="#D82C26" stroke="none" d="
M 45.1 7.45
L 45.1 8.9 44.15 8.9 44 9.45 45.1 9.45 45.1 13.4
Q 45.1 14.2 45.45 14.55 45.85 14.95 46.5 14.95
L 47.15 14.85
Q 47.6 14.75 47.75 14.65
L 47.65 14.1
Q 47.05 14.35 46.7 14.35 46.4 14.35 46.05 14.1 45.85 13.85 45.85 13.3
L 45.85 9.45 47.35 9.45 47.55 8.9 45.85 8.9 45.85 7.15 45.1 7.45 Z"/>
</g>

<g id="IT_640x480_psd_Asset_3_ManagedWiFi_IT_Research_DM9_1_Looking_to_evaluate_your_network__for_a_better_management_solut_0_Layer0_0_MEMBER_36_FILL">
<path fill="#D82C26" stroke="none" d="
M 52.5 9.1
Q 51.9 8.7 50.95 8.7 50.05 8.7 49.45 9.1 48.8 9.45 48.4 10.2 48 11 48 11.8 48 12.75 48.4 13.45 48.8 14.25 49.5 14.6 50.2 15 51.05 15 52.4 15 53.45 14.25
L 53.3 13.6
Q 53.05 13.85 52.35 14.15 51.7 14.4 51.1 14.4 50.4 14.4 49.9 14.05 49.35 13.75 49.05 13.2 48.75 12.6 48.75 11.95
L 53.75 11.95 53.8 11.65
Q 53.8 10.8 53.45 10.15 53.15 9.5 52.5 9.1
M 52.5 9.85
Q 53.05 10.45 53.1 11.4
L 48.75 11.4
Q 48.75 10.9 49.05 10.45 49.25 10 49.8 9.6 50.35 9.25 50.95 9.25 51.9 9.25 52.5 9.85 Z"/>
</g>

<g id="IT_640x480_psd_Asset_3_ManagedWiFi_IT_Research_DM9_1_Looking_to_evaluate_your_network__for_a_better_management_solut_0_Layer0_0_MEMBER_37_FILL">
<path fill="#D82C26" stroke="none" d="
M 57.55 8.7
Q 57.05 8.7 56.5 9.1 56 9.5 55.8 10.15
L 55.75 10.15 55.7 8.9 55 8.9 55.05 14.85 55.8 14.85 55.8 11.85
Q 55.8 10.85 56.25 10.1 56.7 9.35 57.5 9.35
L 58 9.45 58.15 8.8 57.55 8.7 Z"/>
</g>

<g id="IT_640x480_psd_Asset_3_ManagedWiFi_IT_Research_DM9_1_Looking_to_evaluate_your_network__for_a_better_management_solut_0_Layer0_0_MEMBER_38_FILL">
<path fill="#D82C26" stroke="none" d="
M 65.6 9.1
Q 65.05 8.7 64.35 8.7 63.75 8.7 63.1 9.1 62.5 9.5 62.3 10.15
L 62.2 8.9 61.5 8.9 61.55 14.85 62.3 14.85 62.3 11.85
Q 62.3 11.15 62.55 10.5 62.9 9.85 63.25 9.6 63.65 9.3 64.2 9.3 64.9 9.3 65.3 9.85 65.7 10.4 65.7 11.3
L 65.7 14.85 66.45 14.85 66.45 11.75
Q 66.45 10.65 66.95 10 67.5 9.3 68.3 9.3 69.1 9.3 69.5 9.95 69.9 10.6 69.9 11.45
L 69.9 14.85 70.6 14.85 70.6 11.25
Q 70.6 10.1 70.1 9.45 69.6 8.7 68.45 8.7 67.8 8.7 67.15 9.1 66.65 9.45 66.3 10.25 66.05 9.5 65.6 9.1 Z"/>
</g>

<g id="IT_640x480_psd_Asset_3_ManagedWiFi_IT_Research_DM9_1_Looking_to_evaluate_your_network__for_a_better_management_solut_0_Layer0_0_MEMBER_39_FILL">
<path fill="#D82C26" stroke="none" d="
M 74.35 8.7
Q 73.7 8.7 73.15 8.9 72.65 9 72.15 9.45
L 72.35 10
Q 72.65 9.75 73.25 9.5 73.7 9.3 74.25 9.3 75.1 9.3 75.5 9.7 75.95 10.1 75.95 10.9
L 75.95 11.25 75.2 11.25
Q 71.8 11.25 71.8 13.25 71.8 14.1 72.4 14.55 72.95 15 73.7 15 74.5 15 75.05 14.65 75.65 14.35 75.95 13.65
L 76.05 14.85 76.75 14.85 76.65 10.95
Q 76.65 9.85 76.05 9.25 75.4 8.7 74.35 8.7
M 75.95 11.75
L 75.95 12.35
Q 75.95 12.75 75.7 13.35 75.5 13.8 75 14.1 74.6 14.45 73.85 14.45 73.35 14.45 72.9 14.15 72.55 13.85 72.55 13.2 72.55 11.75 75.35 11.75
L 75.95 11.75 Z"/>
</g>

<g id="IT_640x480_psd_Asset_3_ManagedWiFi_IT_Research_DM9_1_Looking_to_evaluate_your_network__for_a_better_management_solut_0_Layer0_0_MEMBER_40_FILL">
<path fill="#D82C26" stroke="none" d="
M 82.85 9.4
Q 82.3 8.7 81.15 8.7 80.5 8.7 79.85 9.1 79.3 9.45 79 10.15
L 78.95 8.9 78.25 8.9 78.3 14.85 79.05 14.85 79.05 11.8
Q 79.05 10.95 79.3 10.45 79.55 9.9 80 9.6 80.45 9.3 81 9.3 81.9 9.3 82.25 9.9 82.65 10.55 82.65 11.4
L 82.65 14.85 83.4 14.85 83.4 11.2
Q 83.4 10.2 82.85 9.4 Z"/>
</g>

<g id="IT_640x480_psd_Asset_3_ManagedWiFi_IT_Research_DM9_1_Looking_to_evaluate_your_network__for_a_better_management_solut_0_Layer0_0_MEMBER_41_FILL">
<path fill="#D82C26" stroke="none" d="
M 85.9 8.9
Q 85.4 9.05 84.9 9.45
L 85.15 10
Q 85.4 9.75 86 9.5 86.45 9.3 87.05 9.3 87.85 9.3 88.25 9.7 88.7 10.1 88.7 10.9
L 88.7 11.25 88 11.25
Q 84.6 11.25 84.6 13.25 84.6 14.15 85.15 14.55 85.7 15 86.5 15 87.25 15 87.8 14.65 88.45 14.35 88.7 13.65
L 88.75 13.65 88.75 14.3 88.85 14.85 89.5 14.85 89.4 10.95
Q 89.4 9.85 88.8 9.25 88.15 8.7 87.15 8.7 86.45 8.7 85.9 8.9
M 88.7 11.75
L 88.7 12.35
Q 88.7 12.9 88.5 13.35 88.15 13.85 87.8 14.1 87.3 14.45 86.65 14.45 86.1 14.45 85.7 14.15 85.3 13.85 85.3 13.2 85.3 11.75 88.1 11.75
L 88.7 11.75 Z"/>
</g>

<g id="IT_640x480_psd_Asset_3_ManagedWiFi_IT_Research_DM9_1_Looking_to_evaluate_your_network__for_a_better_management_solut_0_Layer0_0_MEMBER_42_FILL">
<path fill="#D82C26" stroke="none" d="
M 93.65 8.7
Q 92.8 8.7 92.1 9.1 91.35 9.6 91 10.25 90.65 10.95 90.65 11.85 90.65 12.75 91 13.4 91.35 14.1 92.1 14.55 92.8 14.95 93.65 14.95 94.35 14.95 95.05 14.55 95.75 14.15 96.05 13.5
L 96.05 14.75
Q 96.05 15.95 95.5 16.65 94.9 17.3 93.6 17.3 92.9 17.3 92.3 17.1
L 91.15 16.55 91.05 17.25
Q 91.7 17.65 92.25 17.75 92.85 17.95 93.65 17.95 95.3 17.95 96.05 17.1 96.8 16.2 96.8 14.75
L 96.85 8.9 96.15 8.9 96.1 10.2 96.05 10.2
Q 95.65 9.45 95.05 9.1 94.35 8.7 93.65 8.7
M 91.7 10.6
Q 91.9 10.1 92.5 9.65 93.1 9.3 93.75 9.3 94.35 9.3 94.95 9.65 95.55 10.05 95.8 10.6 96.1 11.15 96.1 11.85 96.1 12.5 95.8 13.1 95.5 13.6 94.95 14 94.35 14.35 93.75 14.35 93.1 14.35 92.5 14 91.9 13.6 91.7 13.1 91.4 12.5 91.4 11.85 91.4 11.15 91.7 10.6 Z"/>
</g>

<g id="IT_640x480_psd_Asset_3_ManagedWiFi_IT_Research_DM9_1_Looking_to_evaluate_your_network__for_a_better_management_solut_0_Layer0_0_MEMBER_43_FILL">
<path fill="#D82C26" stroke="none" d="
M 103.55 10.15
Q 103.25 9.5 102.55 9.1 102 8.7 101.05 8.7 100.15 8.7 99.55 9.1 98.9 9.45 98.5 10.2 98.1 10.85 98.1 11.8 98.1 12.75 98.5 13.45 98.9 14.25 99.55 14.6 100.35 15 101.15 15 102.55 15 103.5 14.25
L 103.4 13.6
Q 103.15 13.85 102.45 14.15 101.8 14.4 101.2 14.4 100.5 14.4 100 14.05 99.5 13.8 99.15 13.2 98.9 12.65 98.8 11.95
L 103.85 11.95 103.9 11.65
Q 103.9 10.95 103.55 10.15
M 102.55 9.85
Q 103.15 10.45 103.15 11.4
L 98.85 11.4
Q 98.85 10.95 99.1 10.45 99.35 10 99.85 9.6 100.45 9.25 101.05 9.25 102.05 9.25 102.55 9.85 Z"/>
</g>

<g id="IT_640x480_psd_Asset_3_ManagedWiFi_IT_Research_DM9_1_Looking_to_evaluate_your_network__for_a_better_management_solut_0_Layer0_0_MEMBER_44_FILL">
<path fill="#D82C26" stroke="none" d="
M 113.7 9.45
Q 113.2 8.7 112.05 8.7 111.4 8.7 110.75 9.1 110.25 9.45 109.9 10.25 109.65 9.5 109.2 9.1 108.65 8.7 107.95 8.7 107.35 8.7 106.7 9.1 106.1 9.5 105.9 10.15
L 105.85 10.15 105.8 8.9 105.1 8.9 105.15 14.85 105.9 14.85 105.9 11.85
Q 105.9 11.15 106.15 10.5 106.5 9.85 106.85 9.6 107.25 9.3 107.8 9.3 108.5 9.3 108.9 9.85 109.3 10.4 109.3 11.3
L 109.3 14.85 110.05 14.85 110.05 11.75
Q 110.05 10.65 110.55 10 111.1 9.3 111.9 9.3 112.7 9.3 113.1 9.95 113.45 10.5 113.45 11.45
L 113.45 14.85 114.2 14.85 114.2 11.25
Q 114.2 10.1 113.7 9.45 Z"/>
</g>

<g id="IT_640x480_psd_Asset_3_ManagedWiFi_IT_Research_DM9_1_Looking_to_evaluate_your_network__for_a_better_management_solut_0_Layer0_0_MEMBER_45_FILL">
<path fill="#D82C26" stroke="none" d="
M 115.85 10.2
Q 115.45 11 115.45 11.8 115.45 12.75 115.85 13.45 116.35 14.25 116.95 14.6 117.65 15 118.5 15 119.95 15 120.9 14.25
L 120.75 13.6
Q 120.45 13.9 119.8 14.15 119.15 14.4 118.6 14.4 117.85 14.4 117.35 14.05 116.8 13.75 116.5 13.2 116.2 12.6 116.2 11.95
L 121.25 11.95 121.25 11.65
Q 121.25 10.8 120.9 10.15 120.6 9.45 119.95 9.1 119.35 8.7 118.4 8.7 117.5 8.7 116.9 9.1 116.25 9.45 115.85 10.2
M 116.5 10.45
Q 116.7 10 117.25 9.6 117.85 9.25 118.4 9.25 119.35 9.25 119.95 9.85 120.45 10.35 120.55 11.4
L 116.2 11.4
Q 116.2 10.9 116.5 10.45 Z"/>
</g>

<g id="IT_640x480_psd_Asset_3_ManagedWiFi_IT_Research_DM9_1_Looking_to_evaluate_your_network__for_a_better_management_solut_0_Layer0_0_MEMBER_46_FILL">
<path fill="#D82C26" stroke="none" d="
M 125.4 8.7
Q 124.75 8.7 124.1 9.1 123.5 9.5 123.3 10.15
L 123.25 10.15 123.2 8.9 122.5 8.9 122.55 14.85 123.3 14.85 123.3 11.8
Q 123.3 11.1 123.55 10.45 123.8 9.9 124.25 9.6 124.7 9.3 125.25 9.3 126.15 9.3 126.5 9.9 126.9 10.55 126.9 11.4
L 126.9 14.85 127.65 14.85 127.65 11.2
Q 127.65 10.2 127.1 9.4 126.55 8.7 125.4 8.7 Z"/>
</g>

<g id="IT_640x480_psd_Asset_3_ManagedWiFi_IT_Research_DM9_1_Looking_to_evaluate_your_network__for_a_better_management_solut_0_Layer0_0_MEMBER_47_FILL">
<path fill="#D82C26" stroke="none" d="
M 131.65 9.45
L 131.8 8.9 130.1 8.9 130.1 7.15 129.35 7.45 129.35 8.9 128.4 8.9 128.25 9.45 129.4 9.45 129.4 13.4
Q 129.4 14.2 129.75 14.55 130.15 14.95 130.75 14.95
L 131.45 14.85 132.05 14.65 131.95 14.1
Q 131.35 14.35 131 14.35 130.6 14.35 130.35 14.1 130.1 13.75 130.1 13.3
L 130.1 9.45 131.65 9.45 Z"/>
</g>

<g id="IT_640x480_psd_Asset_3_ManagedWiFi_IT_Research_DM9_1_Looking_to_evaluate_your_network__for_a_better_management_solut_0_Layer0_0_MEMBER_48_FILL">
<path fill="#D82C26" stroke="none" d="
M 135.2 10.35
Q 135.2 11 135.6 11.35 136 11.7 136.85 12 137.6 12.25 138.1 12.55 138.5 12.8 138.5 13.3 138.5 13.85 138.1 14.1 137.75 14.4 137.2 14.4 136.05 14.4 135.2 13.7
L 135.05 14.35
Q 135.45 14.65 136 14.8 136.45 15 137.2 15 137.8 15 138.2 14.8 138.65 14.6 138.95 14.2 139.2 13.9 139.2 13.25 139.2 12.6 138.8 12.2 138.35 11.8 137.4 11.5
L 136.2 11
Q 135.9 10.7 135.9 10.3 135.9 9.75 136.25 9.55 136.55 9.3 137.2 9.3 137.65 9.3 138 9.45 138.2 9.5 138.75 9.85
L 139.05 9.3
Q 138.55 9 138.2 8.9 137.8 8.7 137.15 8.7 136.65 8.7 136.2 8.85 135.75 9.1 135.45 9.45 135.2 9.85 135.2 10.35 Z"/>
</g>

<g id="IT_640x480_psd_Asset_3_ManagedWiFi_IT_Research_DM9_1_Looking_to_evaluate_your_network__for_a_better_management_solut_0_Layer0_0_MEMBER_49_FILL">
<path fill="#D82C26" stroke="none" d="
M 144.85 9.1
Q 144.2 8.7 143.2 8.7 142.2 8.7 141.6 9.1 141 9.4 140.45 10.2 140.05 11 140.05 11.85 140.05 12.75 140.45 13.45 140.95 14.25 141.6 14.6 142.3 15 143.2 15 144.05 15 144.85 14.6 145.6 14.2 145.95 13.45 146.4 12.8 146.4 11.85 146.4 10.95 145.95 10.2 145.55 9.5 144.85 9.1
M 145.35 10.55
Q 145.65 11.15 145.65 11.85 145.65 12.5 145.35 13.1 145.1 13.65 144.5 14.05 143.9 14.35 143.2 14.35 142.5 14.35 141.95 14.05 141.4 13.7 141.1 13.1 140.8 12.5 140.8 11.85 140.8 11.15 141.1 10.55 141.45 10 141.95 9.65 142.55 9.3 143.2 9.3 143.8 9.3 144.5 9.65 145.05 10.05 145.35 10.55 Z"/>
</g>

<g id="IT_640x480_psd_Asset_3_ManagedWiFi_IT_Research_DM9_1_Looking_to_evaluate_your_network__for_a_better_management_solut_0_Layer0_0_MEMBER_50_FILL">
<path fill="#D82C26" stroke="none" d="
M 147.95 14.45
Q 148.15 14.8 148.65 14.95
L 149 14.35
Q 148.65 14.2 148.55 14 148.4 13.8 148.4 13.35
L 148.4 5.15 147.65 5.3 147.65 13.5
Q 147.65 14.1 147.95 14.45 Z"/>
</g>

<g id="IT_640x480_psd_Asset_3_ManagedWiFi_IT_Research_DM9_1_Looking_to_evaluate_your_network__for_a_better_management_solut_0_Layer0_0_MEMBER_51_FILL">
<path fill="#D82C26" stroke="none" d="
M 154.4 8.9
L 154.4 11.85
Q 154.4 12.7 154.15 13.2 153.95 13.8 153.45 14.1 153 14.4 152.45 14.4 151.6 14.4 151.2 13.8 150.85 13.25 150.85 12.3
L 150.85 8.9 150.1 8.9 150.1 12.5
Q 150.1 13.6 150.6 14.3 151.15 15 152.25 15 152.9 15 153.55 14.6 154.2 14.2 154.4 13.55
L 154.55 14.85 155.3 14.85 155.15 13.45 155.15 8.9 154.4 8.9 Z"/>
</g>

<g id="IT_640x480_psd_Asset_3_ManagedWiFi_IT_Research_DM9_1_Looking_to_evaluate_your_network__for_a_better_management_solut_0_Layer0_0_MEMBER_52_FILL">
<path fill="#D82C26" stroke="none" d="
M 156.2 8.9
L 156.05 9.45 157.15 9.45 157.15 13.4
Q 157.15 14.15 157.55 14.55 157.95 14.95 158.55 14.95
L 159.25 14.85 159.85 14.65 159.75 14.1
Q 159.1 14.35 158.75 14.35 158.4 14.35 158.15 14.1 157.9 13.75 157.9 13.3
L 157.9 9.45 159.45 9.45 159.6 8.9 157.9 8.9 157.9 7.15 157.15 7.45 157.15 8.9 156.2 8.9 Z"/>
</g>

<g id="IT_640x480_psd_Asset_3_ManagedWiFi_IT_Research_DM9_1_Looking_to_evaluate_your_network__for_a_better_management_solut_0_Layer0_0_MEMBER_53_FILL">
<path fill="#D82C26" stroke="none" d="
M 161.45 8.9
L 160.7 8.9 160.7 14.85 161.45 14.85 161.45 8.9
M 161.45 6.1
Q 161.3 5.95 161.05 5.95 160.85 5.95 160.7 6.1 160.55 6.25 160.55 6.5 160.55 6.7 160.7 6.9 160.85 7.05 161.05 7.05 161.3 7.05 161.45 6.9 161.6 6.7 161.6 6.5 161.6 6.25 161.45 6.1 Z"/>
</g>

<g id="IT_640x480_psd_Asset_3_ManagedWiFi_IT_Research_DM9_1_Looking_to_evaluate_your_network__for_a_better_management_solut_0_Layer0_0_MEMBER_54_FILL">
<path fill="#D82C26" stroke="none" d="
M 165.9 8.7
Q 164.9 8.7 164.25 9.1 163.55 9.5 163.15 10.2 162.7 10.95 162.7 11.85 162.7 12.8 163.15 13.45 163.5 14.2 164.25 14.6 165.05 15 165.9 15 166.8 15 167.5 14.6 168.15 14.25 168.65 13.45 169.05 12.75 169.05 11.85 169.05 11 168.65 10.2 168.15 9.4 167.5 9.1 166.9 8.7 165.9 8.7
M 163.45 11.85
Q 163.45 11.15 163.75 10.55 164.05 10.05 164.6 9.65 165.3 9.3 165.9 9.3 166.55 9.3 167.15 9.65 167.65 10 168 10.55 168.3 11.15 168.3 11.85 168.3 12.5 168 13.1 167.8 13.6 167.2 14.05 166.6 14.35 165.9 14.35 165.2 14.35 164.6 14.05 164 13.65 163.75 13.1 163.45 12.5 163.45 11.85 Z"/>
</g>

<g id="IT_640x480_psd_Asset_3_ManagedWiFi_IT_Research_DM9_1_Looking_to_evaluate_your_network__for_a_better_management_solut_0_Layer0_0_MEMBER_55_FILL">
<path fill="#D82C26" stroke="none" d="
M 174.9 9.4
Q 174.35 8.7 173.25 8.7 172.6 8.7 171.95 9.1 171.3 9.5 171.1 10.15
L 171 8.9 170.3 8.9 170.35 14.85 171.1 14.85 171.1 11.8
Q 171.1 11.05 171.4 10.45 171.65 9.9 172.1 9.6 172.55 9.3 173.1 9.3 174 9.3 174.35 9.9 174.7 10.45 174.7 11.4
L 174.7 14.85 175.45 14.85 175.45 11.2
Q 175.45 10.1 174.9 9.4 Z"/>
</g>

<g id="IT_640x480_psd_Asset_3_ManagedWiFi_IT_Research_DM9_1_Looking_to_evaluate_your_network__for_a_better_management_solut_0_Layer0_0_MEMBER_56_FILL">
<path fill="#D82C26" stroke="none" d="
M 179.45 5.85
Q 178.85 5.6 178.25 5.6 177.35 5.6 176.75 5.9 176.2 6.15 175.65 6.7
L 176.05 7.3
Q 176.35 6.85 176.95 6.55 177.55 6.3 178.15 6.3 179 6.3 179.4 6.7 179.9 7.15 179.9 7.8 179.9 8.2 179.75 8.55
L 179.4 9.1 178.75 9.8
Q 178.25 10.3 178 10.8 177.8 11.2 177.8 11.85
L 177.8 12.25 178.5 12.25 178.5 12 178.6 11.25
Q 178.75 10.85 178.85 10.7
L 180.15 9.35 180.5 8.7
Q 180.7 8.3 180.7 7.8 180.7 7.2 180.35 6.6 180.05 6.15 179.45 5.85
M 177.8 14.75
Q 177.95 14.9 178.2 14.9 178.4 14.9 178.6 14.75 178.75 14.6 178.75 14.35 178.75 14.1 178.6 13.95 178.3 13.75 178.2 13.75 178 13.75 177.8 13.95 177.65 14.1 177.65 14.35 177.65 14.6 177.8 14.75 Z"/>
</g>
</defs>

<g transform="matrix( 1, 0, 0, 1, -6,-161) ">
<g transform="matrix( 1, 0, 0, 1, 0,190) ">
<g transform="matrix( 1, 0, 0, 1, 54,10) ">
<g transform="matrix( 2.815704345703125, 0, 0, 2.832611083984375, -0.85,27.6) ">
<use xlink:href="#IT_640x480_psd_Asset_3_ManagedWiFi_IT_Research_DM9_1_Looking_to_evaluate_your_network__for_a_better_management_solut_0_Layer0_0_MEMBER_0_FILL"/>
</g>

<g transform="matrix( 2.815704345703125, 0, 0, 2.832611083984375, -0.85,27.6) ">
<use xlink:href="#IT_640x480_psd_Asset_3_ManagedWiFi_IT_Research_DM9_1_Looking_to_evaluate_your_network__for_a_better_management_solut_0_Layer0_0_MEMBER_1_FILL"/>
</g>

<g transform="matrix( 2.815704345703125, 0, 0, 2.832611083984375, -0.85,27.6) ">
<use xlink:href="#IT_640x480_psd_Asset_3_ManagedWiFi_IT_Research_DM9_1_Looking_to_evaluate_your_network__for_a_better_management_solut_0_Layer0_0_MEMBER_2_FILL"/>
</g>

<g transform="matrix( 2.815704345703125, 0, 0, 2.832611083984375, -0.85,27.6) ">
<use xlink:href="#IT_640x480_psd_Asset_3_ManagedWiFi_IT_Research_DM9_1_Looking_to_evaluate_your_network__for_a_better_management_solut_0_Layer0_0_MEMBER_3_FILL"/>
</g>

<g transform="matrix( 2.815704345703125, 0, 0, 2.832611083984375, -0.85,27.6) ">
<use xlink:href="#IT_640x480_psd_Asset_3_ManagedWiFi_IT_Research_DM9_1_Looking_to_evaluate_your_network__for_a_better_management_solut_0_Layer0_0_MEMBER_4_FILL"/>
</g>

<g transform="matrix( 2.815704345703125, 0, 0, 2.832611083984375, -0.85,27.6) ">
<use xlink:href="#IT_640x480_psd_Asset_3_ManagedWiFi_IT_Research_DM9_1_Looking_to_evaluate_your_network__for_a_better_management_solut_0_Layer0_0_MEMBER_5_FILL"/>
</g>

<g transform="matrix( 2.815704345703125, 0, 0, 2.832611083984375, -0.85,27.6) ">
<use xlink:href="#IT_640x480_psd_Asset_3_ManagedWiFi_IT_Research_DM9_1_Looking_to_evaluate_your_network__for_a_better_management_solut_0_Layer0_0_MEMBER_6_FILL"/>
</g>

<g transform="matrix( 2.815704345703125, 0, 0, 2.832611083984375, -0.85,27.6) ">
<use xlink:href="#IT_640x480_psd_Asset_3_ManagedWiFi_IT_Research_DM9_1_Looking_to_evaluate_your_network__for_a_better_management_solut_0_Layer0_0_MEMBER_7_FILL"/>
</g>

<g transform="matrix( 2.815704345703125, 0, 0, 2.832611083984375, -0.85,27.6) ">
<use xlink:href="#IT_640x480_psd_Asset_3_ManagedWiFi_IT_Research_DM9_1_Looking_to_evaluate_your_network__for_a_better_management_solut_0_Layer0_0_MEMBER_8_FILL"/>
</g>

<g transform="matrix( 2.815704345703125, 0, 0, 2.832611083984375, -0.85,27.6) ">
<use xlink:href="#IT_640x480_psd_Asset_3_ManagedWiFi_IT_Research_DM9_1_Looking_to_evaluate_your_network__for_a_better_management_solut_0_Layer0_0_MEMBER_9_FILL"/>
</g>

<g transform="matrix( 2.815704345703125, 0, 0, 2.832611083984375, -0.85,27.6) ">
<use xlink:href="#IT_640x480_psd_Asset_3_ManagedWiFi_IT_Research_DM9_1_Looking_to_evaluate_your_network__for_a_better_management_solut_0_Layer0_0_MEMBER_10_FILL"/>
</g>

<g transform="matrix( 2.815704345703125, 0, 0, 2.832611083984375, -0.85,27.6) ">
<use xlink:href="#IT_640x480_psd_Asset_3_ManagedWiFi_IT_Research_DM9_1_Looking_to_evaluate_your_network__for_a_better_management_solut_0_Layer0_0_MEMBER_11_FILL"/>
</g>

<g transform="matrix( 2.815704345703125, 0, 0, 2.832611083984375, -0.85,27.6) ">
<use xlink:href="#IT_640x480_psd_Asset_3_ManagedWiFi_IT_Research_DM9_1_Looking_to_evaluate_your_network__for_a_better_management_solut_0_Layer0_0_MEMBER_12_FILL"/>
</g>

<g transform="matrix( 2.815704345703125, 0, 0, 2.832611083984375, -0.85,27.6) ">
<use xlink:href="#IT_640x480_psd_Asset_3_ManagedWiFi_IT_Research_DM9_1_Looking_to_evaluate_your_network__for_a_better_management_solut_0_Layer0_0_MEMBER_13_FILL"/>
</g>

<g transform="matrix( 2.815704345703125, 0, 0, 2.832611083984375, -0.85,27.6) ">
<use xlink:href="#IT_640x480_psd_Asset_3_ManagedWiFi_IT_Research_DM9_1_Looking_to_evaluate_your_network__for_a_better_management_solut_0_Layer0_0_MEMBER_14_FILL"/>
</g>

<g transform="matrix( 2.815704345703125, 0, 0, 2.832611083984375, -0.85,27.6) ">
<use xlink:href="#IT_640x480_psd_Asset_3_ManagedWiFi_IT_Research_DM9_1_Looking_to_evaluate_your_network__for_a_better_management_solut_0_Layer0_0_MEMBER_15_FILL"/>
</g>

<g transform="matrix( 2.815704345703125, 0, 0, 2.832611083984375, -0.85,27.6) ">
<use xlink:href="#IT_640x480_psd_Asset_3_ManagedWiFi_IT_Research_DM9_1_Looking_to_evaluate_your_network__for_a_better_management_solut_0_Layer0_0_MEMBER_16_FILL"/>
</g>

<g transform="matrix( 2.815704345703125, 0, 0, 2.832611083984375, -0.85,27.6) ">
<use xlink:href="#IT_640x480_psd_Asset_3_ManagedWiFi_IT_Research_DM9_1_Looking_to_evaluate_your_network__for_a_better_management_solut_0_Layer0_0_MEMBER_17_FILL"/>
</g>

<g transform="matrix( 2.815704345703125, 0, 0, 2.832611083984375, -0.85,27.6) ">
<use xlink:href="#IT_640x480_psd_Asset_3_ManagedWiFi_IT_Research_DM9_1_Looking_to_evaluate_your_network__for_a_better_management_solut_0_Layer0_0_MEMBER_18_FILL"/>
</g>

<g transform="matrix( 2.815704345703125, 0, 0, 2.832611083984375, -0.85,27.6) ">
<use xlink:href="#IT_640x480_psd_Asset_3_ManagedWiFi_IT_Research_DM9_1_Looking_to_evaluate_your_network__for_a_better_management_solut_0_Layer0_0_MEMBER_19_FILL"/>
</g>

<g transform="matrix( 2.815704345703125, 0, 0, 2.832611083984375, -0.85,27.6) ">
<use xlink:href="#IT_640x480_psd_Asset_3_ManagedWiFi_IT_Research_DM9_1_Looking_to_evaluate_your_network__for_a_better_management_solut_0_Layer0_0_MEMBER_20_FILL"/>
</g>

<g transform="matrix( 2.815704345703125, 0, 0, 2.832611083984375, -0.85,27.6) ">
<use xlink:href="#IT_640x480_psd_Asset_3_ManagedWiFi_IT_Research_DM9_1_Looking_to_evaluate_your_network__for_a_better_management_solut_0_Layer0_0_MEMBER_21_FILL"/>
</g>

<g transform="matrix( 2.815704345703125, 0, 0, 2.832611083984375, -0.85,27.6) ">
<use xlink:href="#IT_640x480_psd_Asset_3_ManagedWiFi_IT_Research_DM9_1_Looking_to_evaluate_your_network__for_a_better_management_solut_0_Layer0_0_MEMBER_22_FILL"/>
</g>

<g transform="matrix( 2.815704345703125, 0, 0, 2.832611083984375, -0.85,27.6) ">
<use xlink:href="#IT_640x480_psd_Asset_3_ManagedWiFi_IT_Research_DM9_1_Looking_to_evaluate_your_network__for_a_better_management_solut_0_Layer0_0_MEMBER_23_FILL"/>
</g>

<g transform="matrix( 2.815704345703125, 0, 0, 2.832611083984375, -0.85,27.6) ">
<use xlink:href="#IT_640x480_psd_Asset_3_ManagedWiFi_IT_Research_DM9_1_Looking_to_evaluate_your_network__for_a_better_management_solut_0_Layer0_0_MEMBER_24_FILL"/>
</g>

<g transform="matrix( 2.815704345703125, 0, 0, 2.832611083984375, -0.85,27.6) ">
<use xlink:href="#IT_640x480_psd_Asset_3_ManagedWiFi_IT_Research_DM9_1_Looking_to_evaluate_your_network__for_a_better_management_solut_0_Layer0_0_MEMBER_25_FILL"/>
</g>

<g transform="matrix( 2.815704345703125, 0, 0, 2.832611083984375, -0.85,27.6) ">
<use xlink:href="#IT_640x480_psd_Asset_3_ManagedWiFi_IT_Research_DM9_1_Looking_to_evaluate_your_network__for_a_better_management_solut_0_Layer0_0_MEMBER_26_FILL"/>
</g>

<g transform="matrix( 2.815704345703125, 0, 0, 2.832611083984375, -0.85,27.6) ">
<use xlink:href="#IT_640x480_psd_Asset_3_ManagedWiFi_IT_Research_DM9_1_Looking_to_evaluate_your_network__for_a_better_management_solut_0_Layer0_0_MEMBER_27_FILL"/>
</g>

<g transform="matrix( 2.815704345703125, 0, 0, 2.832611083984375, -0.85,27.6) ">
<use xlink:href="#IT_640x480_psd_Asset_3_ManagedWiFi_IT_Research_DM9_1_Looking_to_evaluate_your_network__for_a_better_management_solut_0_Layer0_0_MEMBER_28_FILL"/>
</g>

<g transform="matrix( 2.815704345703125, 0, 0, 2.832611083984375, -0.85,27.6) ">
<use xlink:href="#IT_640x480_psd_Asset_3_ManagedWiFi_IT_Research_DM9_1_Looking_to_evaluate_your_network__for_a_better_management_solut_0_Layer0_0_MEMBER_29_FILL"/>
</g>

<g transform="matrix( 2.815704345703125, 0, 0, 2.832611083984375, -0.85,27.6) ">
<use xlink:href="#IT_640x480_psd_Asset_3_ManagedWiFi_IT_Research_DM9_1_Looking_to_evaluate_your_network__for_a_better_management_solut_0_Layer0_0_MEMBER_30_FILL"/>
</g>

<g transform="matrix( 2.815704345703125, 0, 0, 2.832611083984375, -0.85,27.6) ">
<use xlink:href="#IT_640x480_psd_Asset_3_ManagedWiFi_IT_Research_DM9_1_Looking_to_evaluate_your_network__for_a_better_management_solut_0_Layer0_0_MEMBER_31_FILL"/>
</g>

<g transform="matrix( 2.815704345703125, 0, 0, 2.832611083984375, -0.85,27.6) ">
<use xlink:href="#IT_640x480_psd_Asset_3_ManagedWiFi_IT_Research_DM9_1_Looking_to_evaluate_your_network__for_a_better_management_solut_0_Layer0_0_MEMBER_32_FILL"/>
</g>

<g transform="matrix( 2.815704345703125, 0, 0, 2.832611083984375, -0.85,27.6) ">
<use xlink:href="#IT_640x480_psd_Asset_3_ManagedWiFi_IT_Research_DM9_1_Looking_to_evaluate_your_network__for_a_better_management_solut_0_Layer0_0_MEMBER_33_FILL"/>
</g>

<g transform="matrix( 2.815704345703125, 0, 0, 2.832611083984375, -0.85,27.6) ">
<use xlink:href="#IT_640x480_psd_Asset_3_ManagedWiFi_IT_Research_DM9_1_Looking_to_evaluate_your_network__for_a_better_management_solut_0_Layer0_0_MEMBER_34_FILL"/>
</g>

<g transform="matrix( 2.815704345703125, 0, 0, 2.832611083984375, -0.85,27.6) ">
<use xlink:href="#IT_640x480_psd_Asset_3_ManagedWiFi_IT_Research_DM9_1_Looking_to_evaluate_your_network__for_a_better_management_solut_0_Layer0_0_MEMBER_35_FILL"/>
</g>

<g transform="matrix( 2.815704345703125, 0, 0, 2.832611083984375, -0.85,27.6) ">
<use xlink:href="#IT_640x480_psd_Asset_3_ManagedWiFi_IT_Research_DM9_1_Looking_to_evaluate_your_network__for_a_better_management_solut_0_Layer0_0_MEMBER_36_FILL"/>
</g>

<g transform="matrix( 2.815704345703125, 0, 0, 2.832611083984375, -0.85,27.6) ">
<use xlink:href="#IT_640x480_psd_Asset_3_ManagedWiFi_IT_Research_DM9_1_Looking_to_evaluate_your_network__for_a_better_management_solut_0_Layer0_0_MEMBER_37_FILL"/>
</g>

<g transform="matrix( 2.815704345703125, 0, 0, 2.832611083984375, -0.85,27.6) ">
<use xlink:href="#IT_640x480_psd_Asset_3_ManagedWiFi_IT_Research_DM9_1_Looking_to_evaluate_your_network__for_a_better_management_solut_0_Layer0_0_MEMBER_38_FILL"/>
</g>

<g transform="matrix( 2.815704345703125, 0, 0, 2.832611083984375, -0.85,27.6) ">
<use xlink:href="#IT_640x480_psd_Asset_3_ManagedWiFi_IT_Research_DM9_1_Looking_to_evaluate_your_network__for_a_better_management_solut_0_Layer0_0_MEMBER_39_FILL"/>
</g>

<g transform="matrix( 2.815704345703125, 0, 0, 2.832611083984375, -0.85,27.6) ">
<use xlink:href="#IT_640x480_psd_Asset_3_ManagedWiFi_IT_Research_DM9_1_Looking_to_evaluate_your_network__for_a_better_management_solut_0_Layer0_0_MEMBER_40_FILL"/>
</g>

<g transform="matrix( 2.815704345703125, 0, 0, 2.832611083984375, -0.85,27.6) ">
<use xlink:href="#IT_640x480_psd_Asset_3_ManagedWiFi_IT_Research_DM9_1_Looking_to_evaluate_your_network__for_a_better_management_solut_0_Layer0_0_MEMBER_41_FILL"/>
</g>

<g transform="matrix( 2.815704345703125, 0, 0, 2.832611083984375, -0.85,27.6) ">
<use xlink:href="#IT_640x480_psd_Asset_3_ManagedWiFi_IT_Research_DM9_1_Looking_to_evaluate_your_network__for_a_better_management_solut_0_Layer0_0_MEMBER_42_FILL"/>
</g>

<g transform="matrix( 2.815704345703125, 0, 0, 2.832611083984375, -0.85,27.6) ">
<use xlink:href="#IT_640x480_psd_Asset_3_ManagedWiFi_IT_Research_DM9_1_Looking_to_evaluate_your_network__for_a_better_management_solut_0_Layer0_0_MEMBER_43_FILL"/>
</g>

<g transform="matrix( 2.815704345703125, 0, 0, 2.832611083984375, -0.85,27.6) ">
<use xlink:href="#IT_640x480_psd_Asset_3_ManagedWiFi_IT_Research_DM9_1_Looking_to_evaluate_your_network__for_a_better_management_solut_0_Layer0_0_MEMBER_44_FILL"/>
</g>

<g transform="matrix( 2.815704345703125, 0, 0, 2.832611083984375, -0.85,27.6) ">
<use xlink:href="#IT_640x480_psd_Asset_3_ManagedWiFi_IT_Research_DM9_1_Looking_to_evaluate_your_network__for_a_better_management_solut_0_Layer0_0_MEMBER_45_FILL"/>
</g>

<g transform="matrix( 2.815704345703125, 0, 0, 2.832611083984375, -0.85,27.6) ">
<use xlink:href="#IT_640x480_psd_Asset_3_ManagedWiFi_IT_Research_DM9_1_Looking_to_evaluate_your_network__for_a_better_management_solut_0_Layer0_0_MEMBER_46_FILL"/>
</g>

<g transform="matrix( 2.815704345703125, 0, 0, 2.832611083984375, -0.85,27.6) ">
<use xlink:href="#IT_640x480_psd_Asset_3_ManagedWiFi_IT_Research_DM9_1_Looking_to_evaluate_your_network__for_a_better_management_solut_0_Layer0_0_MEMBER_47_FILL"/>
</g>

<g transform="matrix( 2.815704345703125, 0, 0, 2.832611083984375, -0.85,27.6) ">
<use xlink:href="#IT_640x480_psd_Asset_3_ManagedWiFi_IT_Research_DM9_1_Looking_to_evaluate_your_network__for_a_better_management_solut_0_Layer0_0_MEMBER_48_FILL"/>
</g>

<g transform="matrix( 2.815704345703125, 0, 0, 2.832611083984375, -0.85,27.6) ">
<use xlink:href="#IT_640x480_psd_Asset_3_ManagedWiFi_IT_Research_DM9_1_Looking_to_evaluate_your_network__for_a_better_management_solut_0_Layer0_0_MEMBER_49_FILL"/>
</g>

<g transform="matrix( 2.815704345703125, 0, 0, 2.832611083984375, -0.85,27.6) ">
<use xlink:href="#IT_640x480_psd_Asset_3_ManagedWiFi_IT_Research_DM9_1_Looking_to_evaluate_your_network__for_a_better_management_solut_0_Layer0_0_MEMBER_50_FILL"/>
</g>

<g transform="matrix( 2.815704345703125, 0, 0, 2.832611083984375, -0.85,27.6) ">
<use xlink:href="#IT_640x480_psd_Asset_3_ManagedWiFi_IT_Research_DM9_1_Looking_to_evaluate_your_network__for_a_better_management_solut_0_Layer0_0_MEMBER_51_FILL"/>
</g>

<g transform="matrix( 2.815704345703125, 0, 0, 2.832611083984375, -0.85,27.6) ">
<use xlink:href="#IT_640x480_psd_Asset_3_ManagedWiFi_IT_Research_DM9_1_Looking_to_evaluate_your_network__for_a_better_management_solut_0_Layer0_0_MEMBER_52_FILL"/>
</g>

<g transform="matrix( 2.815704345703125, 0, 0, 2.832611083984375, -0.85,27.6) ">
<use xlink:href="#IT_640x480_psd_Asset_3_ManagedWiFi_IT_Research_DM9_1_Looking_to_evaluate_your_network__for_a_better_management_solut_0_Layer0_0_MEMBER_53_FILL"/>
</g>

<g transform="matrix( 2.815704345703125, 0, 0, 2.832611083984375, -0.85,27.6) ">
<use xlink:href="#IT_640x480_psd_Asset_3_ManagedWiFi_IT_Research_DM9_1_Looking_to_evaluate_your_network__for_a_better_management_solut_0_Layer0_0_MEMBER_54_FILL"/>
</g>

<g transform="matrix( 2.815704345703125, 0, 0, 2.832611083984375, -0.85,27.6) ">
<use xlink:href="#IT_640x480_psd_Asset_3_ManagedWiFi_IT_Research_DM9_1_Looking_to_evaluate_your_network__for_a_better_management_solut_0_Layer0_0_MEMBER_55_FILL"/>
</g>

<g transform="matrix( 2.815704345703125, 0, 0, 2.832611083984375, -0.85,27.6) ">
<use xlink:href="#IT_640x480_psd_Asset_3_ManagedWiFi_IT_Research_DM9_1_Looking_to_evaluate_your_network__for_a_better_management_solut_0_Layer0_0_MEMBER_56_FILL"/>
</g>
</g>
</g>
</g>
</svg>
