
<svg xmlns="http://www.w3.org/2000/svg" version="1.1" xmlns:xlink="http://www.w3.org/1999/xlink" preserveAspectRatio="none" x="0px" y="0px" width="300px" height="250px" viewBox="0 0 300 250">
<defs>
<g id="IT_300x250_FR_psd_Asset_Awareness_Phase_IT_Decisions_Makers__V6_1_Lib_rez_votre__quipe_des_TI__pour_qu_elle_puisse_consacrer__plu_0_Layer0_0_MEMBER_0_FILL">
<path fill="#D82C26" stroke="none" d="
M 1.05 -4.75
L 0.65 -4.75 0.65 0 3.1 0 3.2 -0.35 1.05 -0.35 1.05 -4.75 Z"/>
</g>

<g id="IT_300x250_FR_psd_Asset_Awareness_Phase_IT_Decisions_Makers__V6_1_Lib_rez_votre__quipe_des_TI__pour_qu_elle_puisse_consacrer__plu_0_Layer0_0_MEMBER_1_FILL">
<path fill="#D82C26" stroke="none" d="
M 4.3 -3.15
L 3.9 -3.15 3.9 0 4.3 0 4.3 -3.15
M 4.1 -4.1
L 4.3 -4.2 4.4 -4.4 4.3 -4.6 4.1 -4.7 3.9 -4.6 3.85 -4.4 3.9 -4.2 4.1 -4.1 Z"/>
</g>

<g id="IT_300x250_FR_psd_Asset_Awareness_Phase_IT_Decisions_Makers__V6_1_Lib_rez_votre__quipe_des_TI__pour_qu_elle_puisse_consacrer__plu_0_Layer0_0_MEMBER_2_FILL">
<path fill="#D82C26" stroke="none" d="
M 5.8 -5.15
L 5.4 -5.05 5.35 0 5.7 0 5.75 -0.7 5.8 -0.7
Q 5.95 -0.3 6.3 -0.1 6.8 0.1 7.05 0.1 7.5 0.1 7.9 -0.15 8.2 -0.35 8.45 -0.75 8.65 -1.25 8.65 -1.55 8.65 -1.9 8.45 -2.4 8.2 -2.8 7.9 -3 7.5 -3.25 7.05 -3.25 6.75 -3.25 6.35 -3.05 5.95 -2.8 5.8 -2.45
L 5.8 -5.15
M 6.4 -2.7
Q 6.6 -2.9 7 -2.9 7.45 -2.9 7.65 -2.7 7.95 -2.55 8.1 -2.25 8.25 -1.95 8.25 -1.55 8.25 -1.2 8.1 -0.9 7.95 -0.65 7.65 -0.4 7.45 -0.25 7 -0.25 6.65 -0.25 6.4 -0.4 6.1 -0.65 5.95 -0.9 5.75 -1.15 5.75 -1.55 5.75 -2 5.95 -2.25 6.1 -2.55 6.4 -2.7 Z"/>
</g>

<g id="IT_300x250_FR_psd_Asset_Awareness_Phase_IT_Decisions_Makers__V6_1_Lib_rez_votre__quipe_des_TI__pour_qu_elle_puisse_consacrer__plu_0_Layer0_0_MEMBER_3_FILL">
<path fill="#D82C26" stroke="none" d="
M 11.3 -4.75
L 10.6 -3.8 10.9 -3.8 11.75 -4.75 11.3 -4.75
M 9.5 -0.7
Q 9.75 -0.3 10.1 -0.1 10.6 0.1 10.9 0.1 11.65 0.1 12.15 -0.3
L 12.1 -0.65
Q 11.85 -0.4 11.6 -0.35 11.4 -0.25 10.95 -0.25 10.6 -0.25 10.3 -0.4 10 -0.55 9.85 -0.85 9.7 -1.15 9.7 -1.5
L 12.35 -1.5 12.35 -1.7
Q 12.35 -2.15 12.2 -2.45 11.95 -2.85 11.65 -3.05 11.25 -3.25 10.85 -3.25 10.55 -3.25 10.05 -3.05 9.7 -2.8 9.5 -2.45 9.3 -1.95 9.3 -1.6 9.3 -1.2 9.5 -0.7
M 9.7 -1.8
Q 9.7 -2.05 9.85 -2.3 10 -2.65 10.25 -2.75 10.55 -2.95 10.85 -2.95 11.35 -2.95 11.65 -2.6 12 -2.25 12 -1.8
L 9.7 -1.8 Z"/>
</g>

<g id="IT_300x250_FR_psd_Asset_Awareness_Phase_IT_Decisions_Makers__V6_1_Lib_rez_votre__quipe_des_TI__pour_qu_elle_puisse_consacrer__plu_0_Layer0_0_MEMBER_4_FILL">
<path fill="#D82C26" stroke="none" d="
M 13.55 -3.15
L 13.2 -3.15 13.2 0 13.6 0 13.6 -1.55
Q 13.6 -2.1 13.85 -2.5 14.1 -2.9 14.5 -2.9
L 14.8 -2.85 14.85 -3.2 14.5 -3.25
Q 14.3 -3.25 14 -3.05 13.75 -2.9 13.6 -2.45
L 13.55 -3.15 Z"/>
</g>

<g id="IT_300x250_FR_psd_Asset_Awareness_Phase_IT_Decisions_Makers__V6_1_Lib_rez_votre__quipe_des_TI__pour_qu_elle_puisse_consacrer__plu_0_Layer0_0_MEMBER_5_FILL">
<path fill="#D82C26" stroke="none" d="
M 15.85 -3.05
Q 15.55 -2.85 15.3 -2.45 15.1 -2.1 15.1 -1.6 15.1 -1.05 15.3 -0.7 15.55 -0.3 15.9 -0.1 16.3 0.1 16.7 0.1 17.4 0.1 17.95 -0.3
L 17.9 -0.65
Q 17.65 -0.4 17.4 -0.35 17.2 -0.25 16.75 -0.25 16.4 -0.25 16.1 -0.4 15.8 -0.55 15.65 -0.85 15.5 -1.15 15.5 -1.5
L 18.15 -1.5 18.15 -1.7
Q 18.15 -2.2 17.95 -2.45 17.8 -2.85 17.45 -3.05 17.05 -3.25 16.65 -3.25 16.35 -3.25 15.85 -3.05
M 16.65 -2.95
Q 17.15 -2.95 17.45 -2.6 17.75 -2.3 17.75 -1.8
L 15.5 -1.8
Q 15.5 -2.05 15.65 -2.3 15.8 -2.65 16.05 -2.75 16.35 -2.95 16.65 -2.95 Z"/>
</g>

<g id="IT_300x250_FR_psd_Asset_Awareness_Phase_IT_Decisions_Makers__V6_1_Lib_rez_votre__quipe_des_TI__pour_qu_elle_puisse_consacrer__plu_0_Layer0_0_MEMBER_6_FILL">
<path fill="#D82C26" stroke="none" d="
M 20.6 -2.85
L 18.65 -0.3 18.65 0 21.1 0 21.2 -0.3 19.15 -0.3 21.05 -2.85 21.05 -3.15 18.8 -3.15 18.7 -2.85 20.6 -2.85 Z"/>
</g>

<g id="IT_300x250_FR_psd_Asset_Awareness_Phase_IT_Decisions_Makers__V6_1_Lib_rez_votre__quipe_des_TI__pour_qu_elle_puisse_consacrer__plu_0_Layer0_0_MEMBER_7_FILL">
<path fill="#D82C26" stroke="none" d="
M 23.05 -3.15
L 22.6 -3.15 23.8 0 24.25 0 25.45 -3.15 25.05 -3.15 24.05 -0.4 23.05 -3.15 Z"/>
</g>

<g id="IT_300x250_FR_psd_Asset_Awareness_Phase_IT_Decisions_Makers__V6_1_Lib_rez_votre__quipe_des_TI__pour_qu_elle_puisse_consacrer__plu_0_Layer0_0_MEMBER_8_FILL">
<path fill="#D82C26" stroke="none" d="
M 26.55 -3.05
Q 26.2 -2.8 25.95 -2.45 25.75 -2.1 25.75 -1.6 25.75 -1.05 25.95 -0.7 26.2 -0.3 26.55 -0.1 27.05 0.1 27.4 0.1 27.7 0.1 28.3 -0.1 28.7 -0.3 28.9 -0.7 29.1 -1.2 29.1 -1.6 29.1 -1.95 28.9 -2.45 28.7 -2.8 28.3 -3.05 27.7 -3.25 27.4 -3.25 27.05 -3.25 26.55 -3.05
M 26.75 -2.75
Q 27.05 -2.9 27.4 -2.9 27.8 -2.9 28.1 -2.75 28.4 -2.5 28.55 -2.25 28.7 -1.95 28.7 -1.6 28.7 -1.2 28.55 -0.9 28.4 -0.65 28.1 -0.4 27.8 -0.25 27.4 -0.25 27.05 -0.25 26.75 -0.4 26.45 -0.65 26.3 -0.9 26.15 -1.2 26.15 -1.6 26.15 -1.95 26.3 -2.25 26.45 -2.5 26.75 -2.75 Z"/>
</g>

<g id="IT_300x250_FR_psd_Asset_Awareness_Phase_IT_Decisions_Makers__V6_1_Lib_rez_votre__quipe_des_TI__pour_qu_elle_puisse_consacrer__plu_0_Layer0_0_MEMBER_9_FILL">
<path fill="#D82C26" stroke="none" d="
M 29.95 -3.15
L 29.45 -3.15 29.4 -2.85 30 -2.85 30 -0.75
Q 30 -0.35 30.2 -0.15 30.35 0.05 30.7 0.05
L 31.05 0 31.4 -0.1 31.35 -0.4 30.8 -0.25
Q 30.6 -0.25 30.5 -0.4 30.35 -0.55 30.35 -0.8
L 30.35 -2.85 31.2 -2.85 31.25 -3.15 30.35 -3.15 30.35 -4.05 29.95 -3.9 29.95 -3.15 Z"/>
</g>

<g id="IT_300x250_FR_psd_Asset_Awareness_Phase_IT_Decisions_Makers__V6_1_Lib_rez_votre__quipe_des_TI__pour_qu_elle_puisse_consacrer__plu_0_Layer0_0_MEMBER_10_FILL">
<path fill="#D82C26" stroke="none" d="
M 33.65 -3.2
L 33.35 -3.25
Q 33.1 -3.25 32.8 -3.05 32.55 -2.9 32.4 -2.45
L 32.35 -3.15 32 -3.15 32 0 32.4 0 32.4 -1.55
Q 32.4 -2.1 32.65 -2.5 32.9 -2.9 33.3 -2.9
L 33.6 -2.85 33.65 -3.2 Z"/>
</g>

<g id="IT_300x250_FR_psd_Asset_Awareness_Phase_IT_Decisions_Makers__V6_1_Lib_rez_votre__quipe_des_TI__pour_qu_elle_puisse_consacrer__plu_0_Layer0_0_MEMBER_11_FILL">
<path fill="#D82C26" stroke="none" d="
M 34.1 -0.7
Q 34.35 -0.3 34.7 -0.1 35.2 0.1 35.5 0.1 36.2 0.1 36.75 -0.3
L 36.7 -0.65
Q 36.45 -0.4 36.2 -0.35 36 -0.25 35.55 -0.25 35.2 -0.25 34.9 -0.4 34.6 -0.55 34.45 -0.85 34.3 -1.15 34.3 -1.5
L 36.95 -1.5 36.95 -1.7
Q 36.95 -2.15 36.8 -2.45 36.55 -2.85 36.25 -3.05 35.85 -3.25 35.45 -3.25 35.15 -3.25 34.65 -3.05 34.3 -2.8 34.1 -2.45 33.9 -2.1 33.9 -1.6 33.9 -1.05 34.1 -0.7
M 34.45 -2.3
Q 34.6 -2.65 34.85 -2.75 35.15 -2.95 35.45 -2.95 35.95 -2.95 36.25 -2.6 36.55 -2.3 36.6 -1.8
L 34.3 -1.8
Q 34.3 -2.05 34.45 -2.3 Z"/>
</g>

<g id="IT_300x250_FR_psd_Asset_Awareness_Phase_IT_Decisions_Makers__V6_1_Lib_rez_votre__quipe_des_TI__pour_qu_elle_puisse_consacrer__plu_0_Layer0_0_MEMBER_12_FILL">
<path fill="#D82C26" stroke="none" d="
M 39.05 -2.45
Q 38.85 -2.1 38.85 -1.6 38.85 -1.05 39.05 -0.7 39.3 -0.3 39.65 -0.1 40.05 0.1 40.45 0.1 41.15 0.1 41.7 -0.3
L 41.65 -0.65
Q 41.4 -0.4 41.15 -0.35 40.95 -0.25 40.5 -0.25 40.15 -0.25 39.85 -0.4 39.55 -0.55 39.4 -0.85 39.25 -1.15 39.25 -1.5
L 41.9 -1.5 41.9 -1.7
Q 41.9 -2.2 41.7 -2.45 41.55 -2.85 41.2 -3.05 40.8 -3.25 40.4 -3.25 40.1 -3.25 39.6 -3.05 39.3 -2.85 39.05 -2.45
M 39.25 -1.8
Q 39.25 -2.05 39.4 -2.3 39.55 -2.65 39.8 -2.75 40.1 -2.95 40.4 -2.95 40.9 -2.95 41.2 -2.6 41.5 -2.3 41.5 -1.8
L 39.25 -1.8
M 40.15 -3.8
L 40.45 -3.8 41.25 -4.75 40.8 -4.75 40.15 -3.8 Z"/>
</g>

<g id="IT_300x250_FR_psd_Asset_Awareness_Phase_IT_Decisions_Makers__V6_1_Lib_rez_votre__quipe_des_TI__pour_qu_elle_puisse_consacrer__plu_0_Layer0_0_MEMBER_13_FILL">
<path fill="#D82C26" stroke="none" d="
M 42.75 -2.4
Q 42.55 -2.05 42.55 -1.55 42.55 -1.1 42.75 -0.75 43 -0.35 43.3 -0.15 43.7 0.1 44.15 0.1 44.4 0.1 44.9 -0.1 45.25 -0.35 45.4 -0.65
L 45.4 0.75
Q 45.4 1.45 46.1 1.6
L 46.25 1.3 45.9 1.05
Q 45.8 0.95 45.8 0.65
L 45.8 -2.55 45.85 -3.15 45.45 -3.15 45.45 -2.45 45.4 -2.45
Q 45.25 -2.75 44.9 -3.05 44.4 -3.25 44.15 -3.25 43.7 -3.25 43.3 -3 43 -2.8 42.75 -2.4
M 45.25 -2.25
Q 45.45 -2 45.45 -1.55 45.45 -1.15 45.25 -0.9
L 44.85 -0.4
Q 44.55 -0.25 44.2 -0.25 43.8 -0.25 43.55 -0.4 43.25 -0.65 43.1 -0.9 42.95 -1.2 42.95 -1.55 42.95 -1.95 43.1 -2.25 43.25 -2.55 43.55 -2.7 43.75 -2.9 44.2 -2.9 44.6 -2.9 44.85 -2.7 45.1 -2.5 45.25 -2.25 Z"/>
</g>

<g id="IT_300x250_FR_psd_Asset_Awareness_Phase_IT_Decisions_Makers__V6_1_Lib_rez_votre__quipe_des_TI__pour_qu_elle_puisse_consacrer__plu_0_Layer0_0_MEMBER_14_FILL">
<path fill="#D82C26" stroke="none" d="
M 49.55 -3.15
L 49.15 -3.15 49.15 -1.6
Q 49.15 -1.15 49 -0.85 48.85 -0.5 48.65 -0.4 48.35 -0.25 48.1 -0.25 47.6 -0.25 47.45 -0.55 47.25 -0.8 47.25 -1.35
L 47.25 -3.15 46.85 -3.15 46.85 -1.25
Q 46.85 -0.7 47.1 -0.3 47.4 0.1 48 0.1 48.3 0.1 48.7 -0.1 49 -0.3 49.15 -0.7
L 49.2 0 49.6 0 49.55 -0.35 49.55 -3.15 Z"/>
</g>

<g id="IT_300x250_FR_psd_Asset_Awareness_Phase_IT_Decisions_Makers__V6_1_Lib_rez_votre__quipe_des_TI__pour_qu_elle_puisse_consacrer__plu_0_Layer0_0_MEMBER_15_FILL">
<path fill="#D82C26" stroke="none" d="
M 51 -3.15
L 50.6 -3.15 50.6 0 51 0 51 -3.15
M 50.55 -4.4
L 50.6 -4.2 50.8 -4.1 51 -4.2 51.1 -4.4 51 -4.6 50.8 -4.7 50.6 -4.6 50.55 -4.4 Z"/>
</g>

<g id="IT_300x250_FR_psd_Asset_Awareness_Phase_IT_Decisions_Makers__V6_1_Lib_rez_votre__quipe_des_TI__pour_qu_elle_puisse_consacrer__plu_0_Layer0_0_MEMBER_16_FILL">
<path fill="#D82C26" stroke="none" d="
M 52.45 -3.15
L 52.1 -3.15 52.1 1.6 52.5 1.6 52.5 -0.65
Q 52.8 -0.25 53.05 -0.1 53.45 0.1 53.8 0.1 54.2 0.1 54.6 -0.15 55 -0.4 55.15 -0.75 55.35 -1.1 55.35 -1.55 55.35 -2.05 55.15 -2.4 55 -2.75 54.6 -3 54.2 -3.25 53.8 -3.25 53.45 -3.25 53.05 -3.05 52.75 -2.85 52.5 -2.45
L 52.45 -3.15
M 52.65 -2.25
Q 52.8 -2.55 53.1 -2.7 53.35 -2.9 53.75 -2.9 54.15 -2.9 54.35 -2.7 54.65 -2.55 54.8 -2.25 54.95 -1.95 54.95 -1.55 54.95 -1.2 54.8 -0.9 54.65 -0.65 54.35 -0.4 54.15 -0.25 53.75 -0.25 53.4 -0.25 53.1 -0.4 52.8 -0.65 52.65 -0.9 52.5 -1.2 52.5 -1.55 52.5 -1.95 52.65 -2.25 Z"/>
</g>

<g id="IT_300x250_FR_psd_Asset_Awareness_Phase_IT_Decisions_Makers__V6_1_Lib_rez_votre__quipe_des_TI__pour_qu_elle_puisse_consacrer__plu_0_Layer0_0_MEMBER_17_FILL">
<path fill="#D82C26" stroke="none" d="
M 56.8 -3.05
Q 56.4 -2.8 56.25 -2.45 56.05 -2.1 56.05 -1.6 56.05 -1.05 56.25 -0.7 56.4 -0.35 56.8 -0.1 57.3 0.1 57.65 0.1 58.35 0.1 58.9 -0.3
L 58.8 -0.65
Q 58.65 -0.45 58.3 -0.35 58.1 -0.25 57.65 -0.25 57.3 -0.25 57 -0.4 56.75 -0.55 56.6 -0.85 56.4 -1.1 56.4 -1.5
L 59.05 -1.5 59.1 -1.7
Q 59.1 -2.05 58.9 -2.45 58.75 -2.75 58.4 -3.05 57.9 -3.25 57.6 -3.25 57.3 -3.25 56.8 -3.05
M 56.4 -1.8
Q 56.4 -2.05 56.55 -2.3 56.7 -2.55 56.95 -2.75 57.35 -2.95 57.6 -2.95 58.1 -2.95 58.4 -2.6 58.7 -2.3 58.7 -1.8
L 56.4 -1.8 Z"/>
</g>

<g id="IT_300x250_FR_psd_Asset_Awareness_Phase_IT_Decisions_Makers__V6_1_Lib_rez_votre__quipe_des_TI__pour_qu_elle_puisse_consacrer__plu_0_Layer0_0_MEMBER_18_FILL">
<path fill="#D82C26" stroke="none" d="
M 64.2 -5.15
L 63.85 -5.05 63.85 -2.45 63.8 -2.45
Q 63.65 -2.75 63.3 -3.05 62.8 -3.25 62.55 -3.25 62.1 -3.25 61.7 -3 61.35 -2.75 61.15 -2.4 60.95 -1.9 60.95 -1.55 60.95 -1.25 61.15 -0.75 61.35 -0.4 61.7 -0.15 62.1 0.1 62.55 0.1 62.8 0.1 63.3 -0.1 63.65 -0.35 63.85 -0.7
L 63.9 0 64.25 0 64.2 -5.15
M 62.6 -2.9
Q 63 -2.9 63.25 -2.7 63.55 -2.55 63.7 -2.25 63.85 -1.95 63.85 -1.55 63.85 -1.2 63.7 -0.9 63.55 -0.65 63.25 -0.4 62.95 -0.25 62.6 -0.25 62.25 -0.25 61.95 -0.4 61.65 -0.65 61.5 -0.9 61.35 -1.2 61.35 -1.55 61.35 -1.95 61.5 -2.25 61.65 -2.55 61.95 -2.7 62.2 -2.9 62.6 -2.9 Z"/>
</g>

<g id="IT_300x250_FR_psd_Asset_Awareness_Phase_IT_Decisions_Makers__V6_1_Lib_rez_votre__quipe_des_TI__pour_qu_elle_puisse_consacrer__plu_0_Layer0_0_MEMBER_19_FILL">
<path fill="#D82C26" stroke="none" d="
M 65.1 -1.6
Q 65.1 -1.05 65.3 -0.7 65.5 -0.35 65.85 -0.1 66.35 0.1 66.7 0.1 67.4 0.1 67.95 -0.3
L 67.9 -0.65
Q 67.65 -0.4 67.4 -0.35 67.15 -0.25 66.75 -0.25 66.35 -0.25 66.1 -0.4 65.8 -0.55 65.65 -0.85
L 65.45 -1.5 68.15 -1.5 68.15 -1.7
Q 68.15 -2.2 67.95 -2.45 67.8 -2.85 67.45 -3.05 67.05 -3.25 66.65 -3.25 66.35 -3.25 65.85 -3.05 65.55 -2.85 65.3 -2.45 65.1 -2.1 65.1 -1.6
M 65.5 -1.8
Q 65.5 -2.05 65.65 -2.3 65.7 -2.6 66.05 -2.75 66.35 -2.95 66.65 -2.95 67.15 -2.95 67.45 -2.6 67.75 -2.3 67.75 -1.8
L 65.5 -1.8 Z"/>
</g>

<g id="IT_300x250_FR_psd_Asset_Awareness_Phase_IT_Decisions_Makers__V6_1_Lib_rez_votre__quipe_des_TI__pour_qu_elle_puisse_consacrer__plu_0_Layer0_0_MEMBER_20_FILL">
<path fill="#D82C26" stroke="none" d="
M 69.85 -3.25
L 69.35 -3.15
Q 69.1 -3.05 68.95 -2.85 68.8 -2.6 68.8 -2.35 68.8 -2 69.05 -1.85 69.15 -1.7 69.7 -1.5
L 70.35 -1.2
Q 70.55 -1.05 70.55 -0.8 70.55 -0.55 70.35 -0.4 70.15 -0.2 69.85 -0.2 69.3 -0.2 68.8 -0.6
L 68.75 -0.25 69.25 0 69.85 0.1 70.4 0
Q 70.7 -0.2 70.8 -0.35 70.95 -0.5 70.95 -0.85 70.95 -1.15 70.7 -1.4 70.35 -1.65 69.95 -1.75
L 69.35 -2.05
Q 69.15 -2.15 69.15 -2.4 69.15 -2.6 69.35 -2.8 69.5 -2.9 69.85 -2.9
L 70.3 -2.85 70.7 -2.6 70.85 -2.9 70.4 -3.15 69.85 -3.25 Z"/>
</g>

<g id="IT_300x250_FR_psd_Asset_Awareness_Phase_IT_Decisions_Makers__V6_1_Lib_rez_votre__quipe_des_TI__pour_qu_elle_puisse_consacrer__plu_0_Layer0_0_MEMBER_21_FILL">
<path fill="#D82C26" stroke="none" d="
M 72.45 -4.4
L 73.95 -4.4 73.95 0 74.35 0 74.35 -4.4 75.8 -4.4 75.9 -4.75 72.5 -4.75 72.45 -4.4 Z"/>
</g>

<g id="IT_300x250_FR_psd_Asset_Awareness_Phase_IT_Decisions_Makers__V6_1_Lib_rez_votre__quipe_des_TI__pour_qu_elle_puisse_consacrer__plu_0_Layer0_0_MEMBER_22_FILL">
<path fill="#D82C26" stroke="none" d="
M 76.95 -4.75
L 76.55 -4.75 76.55 0 76.95 0 76.95 -4.75 Z"/>
</g>

<g id="IT_300x250_FR_psd_Asset_Awareness_Phase_IT_Decisions_Makers__V6_1_Lib_rez_votre__quipe_des_TI__pour_qu_elle_puisse_consacrer__plu_0_Layer0_0_MEMBER_23_FILL">
<path fill="#D82C26" stroke="none" d="
M 2.3 4.55
Q 1.9 4.55 1.55 4.75 1.2 4.9 1.05 5.3
L 1 5.3 1 4.65 0.6 4.65 0.6 9.4 1 9.4 1 7.1 1.05 7.1
Q 1.2 7.45 1.55 7.65 1.9 7.85 2.3 7.85 2.85 7.85 3.1 7.65 3.5 7.45 3.7 7.05 3.9 6.55 3.9 6.2 3.9 5.85 3.7 5.35 3.5 5 3.1 4.75 2.85 4.55 2.3 4.55
M 1.6 5.05
Q 1.85 4.85 2.25 4.85 2.65 4.85 2.9 5.05 3.1 5.15 3.3 5.55 3.45 5.85 3.45 6.2 3.45 6.55 3.3 6.85 3.1 7.25 2.9 7.35 2.5 7.55 2.25 7.55 2 7.55 1.6 7.35 1.3 7.1 1.15 6.85 1 6.55 1 6.2 1 5.85 1.15 5.55 1.35 5.2 1.6 5.05 Z"/>
</g>

<g id="IT_300x250_FR_psd_Asset_Awareness_Phase_IT_Decisions_Makers__V6_1_Lib_rez_votre__quipe_des_TI__pour_qu_elle_puisse_consacrer__plu_0_Layer0_0_MEMBER_24_FILL">
<path fill="#D82C26" stroke="none" d="
M 7.65 5.35
Q 7.45 5 7.05 4.75 6.7 4.55 6.2 4.55 5.7 4.55 5.35 4.75 5 5 4.75 5.35 4.55 5.7 4.55 6.2 4.55 6.7 4.75 7.05 5 7.45 5.35 7.65 5.7 7.85 6.2 7.85 6.7 7.85 7.05 7.65 7.45 7.45 7.65 7.05 7.9 6.65 7.9 6.2 7.9 5.75 7.65 5.35
M 6.9 5.05
L 7.35 5.5
Q 7.5 5.8 7.5 6.2 7.5 6.55 7.35 6.85 7.2 7.1 6.9 7.35 6.5 7.55 6.2 7.55 5.85 7.55 5.55 7.35 5.25 7.1 5.1 6.85 4.95 6.55 4.95 6.2 4.95 5.8 5.1 5.5 5.25 5.2 5.55 5.05 5.75 4.85 6.2 4.85 6.65 4.85 6.9 5.05 Z"/>
</g>

<g id="IT_300x250_FR_psd_Asset_Awareness_Phase_IT_Decisions_Makers__V6_1_Lib_rez_votre__quipe_des_TI__pour_qu_elle_puisse_consacrer__plu_0_Layer0_0_MEMBER_25_FILL">
<path fill="#D82C26" stroke="none" d="
M 11.4 4.65
L 11 4.65 11 6.2
Q 11 6.6 10.85 6.9 10.7 7.25 10.5 7.35 10.3 7.55 9.95 7.55 9.45 7.55 9.3 7.2 9.1 6.95 9.1 6.45
L 9.1 4.65 8.7 4.65 8.7 6.55
Q 8.7 7.15 9 7.5 9.2 7.85 9.85 7.85 10.3 7.85 10.55 7.65 10.85 7.45 11 7.1
L 11.05 7.75 11.45 7.75 11.4 7.4 11.4 4.65 Z"/>
</g>

<g id="IT_300x250_FR_psd_Asset_Awareness_Phase_IT_Decisions_Makers__V6_1_Lib_rez_votre__quipe_des_TI__pour_qu_elle_puisse_consacrer__plu_0_Layer0_0_MEMBER_26_FILL">
<path fill="#D82C26" stroke="none" d="
M 13.25 4.75
Q 13 4.9 12.85 5.3
L 12.85 4.65 12.45 4.65 12.5 7.75 12.9 7.75 12.9 6.2
Q 12.9 5.65 13.1 5.25 13.4 4.9 13.75 4.9
L 14.05 4.95 14.15 4.6 13.8 4.55
Q 13.5 4.55 13.25 4.75 Z"/>
</g>

<g id="IT_300x250_FR_psd_Asset_Awareness_Phase_IT_Decisions_Makers__V6_1_Lib_rez_votre__quipe_des_TI__pour_qu_elle_puisse_consacrer__plu_0_Layer0_0_MEMBER_27_FILL">
<path fill="#D82C26" stroke="none" d="
M 17.25 4.55
Q 16.75 4.55 16.4 4.75 16.05 5 15.85 5.35 15.65 5.85 15.65 6.2 15.65 6.55 15.85 7.05 16.05 7.4 16.4 7.65 16.75 7.85 17.25 7.85 17.65 7.85 18 7.65 18.4 7.35 18.5 7.1
L 18.55 7.1 18.55 8.5
Q 18.55 9.2 19.2 9.4
L 19.4 9.05 19 8.85 18.9 8.4 18.9 5.2 18.95 4.65 18.55 4.65 18.55 5.3 18.5 5.3
Q 18.35 4.95 18 4.75 17.65 4.55 17.25 4.55
M 16.65 5.05
Q 16.9 4.85 17.3 4.85 17.7 4.85 17.95 5.05 18.05 5.1 18.4 5.55 18.55 5.85 18.55 6.2 18.55 6.55 18.4 6.85 18.1 7.2 17.95 7.35 17.55 7.55 17.3 7.55 17.05 7.55 16.65 7.35 16.4 7.2 16.2 6.85 16.05 6.55 16.05 6.2 16.05 5.85 16.2 5.55 16.4 5.2 16.65 5.05 Z"/>
</g>

<g id="IT_300x250_FR_psd_Asset_Awareness_Phase_IT_Decisions_Makers__V6_1_Lib_rez_votre__quipe_des_TI__pour_qu_elle_puisse_consacrer__plu_0_Layer0_0_MEMBER_28_FILL">
<path fill="#D82C26" stroke="none" d="
M 22.65 4.65
L 22.25 4.65 22.25 6.2
Q 22.25 6.6 22.1 6.9 21.95 7.25 21.75 7.35 21.55 7.55 21.2 7.55 20.7 7.55 20.55 7.2 20.35 6.95 20.35 6.45
L 20.35 4.65 19.95 4.65 19.95 6.55
Q 19.95 7.15 20.25 7.5 20.45 7.85 21.1 7.85 21.55 7.85 21.8 7.65 22.1 7.45 22.25 7.1
L 22.3 7.75 22.7 7.75 22.65 7.4 22.65 4.65 Z"/>
</g>

<g id="IT_300x250_FR_psd_Asset_Awareness_Phase_IT_Decisions_Makers__V6_1_Lib_rez_votre__quipe_des_TI__pour_qu_elle_puisse_consacrer__plu_0_Layer0_0_MEMBER_29_FILL">
<path fill="#D82C26" stroke="none" d="
M 24.2 3.4
L 24.15 3.1 23.95 3 23.7 3.1 23.65 3.3 23.7 3.55 23.9 3.6 23.75 4.05 23.45 4.45 23.6 4.55
Q 24.2 3.95 24.2 3.4 Z"/>
</g>

<g id="IT_300x250_FR_psd_Asset_Awareness_Phase_IT_Decisions_Makers__V6_1_Lib_rez_votre__quipe_des_TI__pour_qu_elle_puisse_consacrer__plu_0_Layer0_0_MEMBER_30_FILL">
<path fill="#D82C26" stroke="none" d="
M 26.2 4.55
Q 25.75 4.55 25.4 4.75 25.05 4.95 24.85 5.35 24.65 5.7 24.65 6.2 24.65 6.7 24.85 7.05 25.05 7.4 25.4 7.65 25.75 7.85 26.25 7.85 27.05 7.85 27.5 7.45
L 27.45 7.15 26.95 7.4 26.3 7.55
Q 25.85 7.55 25.65 7.35 25.35 7.2 25.2 6.9
L 25 6.25 27.7 6.25 27.7 6.1
Q 27.7 5.65 27.5 5.3 27.35 4.9 27 4.75 26.75 4.55 26.2 4.55
M 27 5.15
Q 27.3 5.45 27.3 5.95
L 25.05 5.95 25.2 5.45
Q 25.25 5.25 25.6 5 25.85 4.85 26.2 4.85 26.7 4.85 27 5.15 Z"/>
</g>

<g id="IT_300x250_FR_psd_Asset_Awareness_Phase_IT_Decisions_Makers__V6_1_Lib_rez_votre__quipe_des_TI__pour_qu_elle_puisse_consacrer__plu_0_Layer0_0_MEMBER_31_FILL">
<path fill="#D82C26" stroke="none" d="
M 28.7 7.55
Q 28.85 7.8 29.05 7.85
L 29.25 7.5
Q 29.05 7.45 29 7.3
L 28.95 7 28.95 2.65 28.55 2.75 28.55 7.05
Q 28.55 7.4 28.7 7.55 Z"/>
</g>

<g id="IT_300x250_FR_psd_Asset_Awareness_Phase_IT_Decisions_Makers__V6_1_Lib_rez_votre__quipe_des_TI__pour_qu_elle_puisse_consacrer__plu_0_Layer0_0_MEMBER_32_FILL">
<path fill="#D82C26" stroke="none" d="
M 30.15 7.55
Q 30.3 7.75 30.55 7.85
L 30.7 7.5 30.5 7.3 30.45 7 30.45 2.65 30.05 2.75 30.05 7.05 30.15 7.55 Z"/>
</g>

<g id="IT_300x250_FR_psd_Asset_Awareness_Phase_IT_Decisions_Makers__V6_1_Lib_rez_votre__quipe_des_TI__pour_qu_elle_puisse_consacrer__plu_0_Layer0_0_MEMBER_33_FILL">
<path fill="#D82C26" stroke="none" d="
M 32.85 4.55
Q 32.4 4.55 32.05 4.75 31.65 5.05 31.5 5.35 31.3 5.7 31.3 6.2 31.3 6.7 31.5 7.05 31.75 7.45 32.1 7.65 32.45 7.85 32.9 7.85 33.7 7.85 34.15 7.45
L 34.1 7.15 33.6 7.4
Q 33.3 7.55 32.95 7.55 32.55 7.55 32.3 7.35 32 7.2 31.85 6.9 31.7 6.6 31.7 6.25
L 34.35 6.25 34.35 6.1
Q 34.35 5.7 34.2 5.3 33.95 4.85 33.65 4.75 33.4 4.55 32.85 4.55
M 31.7 5.95
L 31.85 5.45
Q 32.05 5.15 32.25 5 32.5 4.85 32.85 4.85 33.35 4.85 33.65 5.15 33.95 5.45 34 5.95
L 31.7 5.95 Z"/>
</g>

<g id="IT_300x250_FR_psd_Asset_Awareness_Phase_IT_Decisions_Makers__V6_1_Lib_rez_votre__quipe_des_TI__pour_qu_elle_puisse_consacrer__plu_0_Layer0_0_MEMBER_34_FILL">
<path fill="#D82C26" stroke="none" d="
M 37.4 4.75
Q 37.05 4.95 36.9 5.3
L 36.85 4.65 36.45 4.65 36.5 5.2 36.5 9.4 36.9 9.4 36.9 7.1
Q 37 7.35 37.4 7.65 37.75 7.85 38.15 7.85 38.65 7.85 39 7.65 39.3 7.45 39.55 7.05 39.75 6.7 39.75 6.2 39.75 5.7 39.55 5.35 39.3 4.95 39 4.75 38.65 4.55 38.15 4.55 37.75 4.55 37.4 4.75
M 37.05 5.55
Q 37.25 5.2 37.5 5.05 37.7 4.85 38.1 4.85 38.55 4.85 38.75 5.05 39 5.2 39.2 5.55 39.35 5.85 39.35 6.2 39.35 6.55 39.2 6.85 39 7.2 38.75 7.35 38.45 7.55 38.1 7.55 37.8 7.55 37.5 7.35 37.2 7.1 37.05 6.85 36.85 6.6 36.85 6.2 36.85 5.8 37.05 5.55 Z"/>
</g>

<g id="IT_300x250_FR_psd_Asset_Awareness_Phase_IT_Decisions_Makers__V6_1_Lib_rez_votre__quipe_des_TI__pour_qu_elle_puisse_consacrer__plu_0_Layer0_0_MEMBER_35_FILL">
<path fill="#D82C26" stroke="none" d="
M 40.95 4.65
L 40.55 4.65 40.55 6.55
Q 40.55 7.15 40.85 7.5 41.15 7.85 41.7 7.85 42.15 7.85 42.4 7.65 42.75 7.45 42.85 7.1
L 42.95 7.75 43.3 7.75 43.25 7.4 43.25 4.65 42.85 4.65 42.85 6.2 42.75 6.9
Q 42.6 7.2 42.35 7.35 42.15 7.55 41.8 7.55 41.35 7.55 41.15 7.2 40.95 6.8 40.95 6.45
L 40.95 4.65 Z"/>
</g>

<g id="IT_300x250_FR_psd_Asset_Awareness_Phase_IT_Decisions_Makers__V6_1_Lib_rez_votre__quipe_des_TI__pour_qu_elle_puisse_consacrer__plu_0_Layer0_0_MEMBER_36_FILL">
<path fill="#D82C26" stroke="none" d="
M 44.75 4.65
L 44.35 4.65 44.35 7.75 44.75 7.75 44.75 4.65
M 44.55 3.65
Q 44.7 3.65 44.75 3.55
L 44.85 3.35 44.75 3.15 44.55 3.1 44.35 3.15 44.25 3.35 44.35 3.55
Q 44.4 3.65 44.55 3.65 Z"/>
</g>

<g id="IT_300x250_FR_psd_Asset_Awareness_Phase_IT_Decisions_Makers__V6_1_Lib_rez_votre__quipe_des_TI__pour_qu_elle_puisse_consacrer__plu_0_Layer0_0_MEMBER_37_FILL">
<path fill="#D82C26" stroke="none" d="
M 46.65 4.55
L 46.15 4.6 45.8 4.9
Q 45.65 5.15 45.65 5.4 45.65 5.75 45.85 5.95 46.25 6.2 46.5 6.3
L 47.2 6.55
Q 47.4 6.75 47.4 6.95 47.4 7.2 47.2 7.4 47 7.55 46.7 7.55 46.05 7.55 45.65 7.15
L 45.55 7.5 46.05 7.75 46.7 7.85 47.2 7.75
Q 47.45 7.7 47.6 7.45 47.75 7.25 47.75 6.95 47.75 6.55 47.55 6.4 47.15 6.1 46.8 6
L 46.15 5.75
Q 46 5.6 46 5.35 46 5.05 46.2 5 46.35 4.85 46.7 4.85 47 4.85 47.15 4.95
L 47.5 5.15 47.65 4.85 47.25 4.65
Q 47.05 4.55 46.65 4.55 Z"/>
</g>

<g id="IT_300x250_FR_psd_Asset_Awareness_Phase_IT_Decisions_Makers__V6_1_Lib_rez_votre__quipe_des_TI__pour_qu_elle_puisse_consacrer__plu_0_Layer0_0_MEMBER_38_FILL">
<path fill="#D82C26" stroke="none" d="
M 48.4 5.4
Q 48.4 5.7 48.65 5.95 49.05 6.2 49.3 6.3
L 50 6.55
Q 50.2 6.75 50.2 6.95 50.2 7.25 49.95 7.4 49.8 7.55 49.5 7.55 48.85 7.55 48.45 7.15
L 48.35 7.5 48.85 7.75 49.5 7.85 50 7.75
Q 50.25 7.65 50.4 7.45 50.55 7.25 50.55 6.95 50.55 6.55 50.3 6.4 50.05 6.15 49.6 6
L 48.95 5.75
Q 48.8 5.6 48.8 5.35 48.8 5.05 49 5 49.15 4.85 49.5 4.85 49.8 4.85 49.9 4.95
L 50.3 5.15 50.45 4.85
Q 50.35 4.75 50 4.65 49.85 4.55 49.45 4.55
L 48.95 4.6 48.55 4.9
Q 48.4 5.15 48.4 5.4 Z"/>
</g>

<g id="IT_300x250_FR_psd_Asset_Awareness_Phase_IT_Decisions_Makers__V6_1_Lib_rez_votre__quipe_des_TI__pour_qu_elle_puisse_consacrer__plu_0_Layer0_0_MEMBER_39_FILL">
<path fill="#D82C26" stroke="none" d="
M 52.7 4.55
Q 52.2 4.55 51.95 4.75 51.5 5 51.35 5.35 51.15 5.85 51.15 6.2 51.15 6.55 51.35 7.05 51.6 7.45 51.95 7.65 52.3 7.85 52.8 7.85 53.6 7.85 54.05 7.45
L 53.95 7.15 53.45 7.4
Q 53.15 7.55 52.8 7.55 52.4 7.55 52.15 7.35 51.85 7.2 51.7 6.9 51.55 6.6 51.55 6.25
L 54.2 6.25 54.2 6.1
Q 54.2 5.7 54.05 5.3 53.9 4.95 53.55 4.75 53.2 4.55 52.7 4.55
M 51.55 5.95
L 51.7 5.45 52.1 5
Q 52.4 4.85 52.7 4.85 53.25 4.85 53.55 5.15 53.85 5.45 53.85 5.95
L 51.55 5.95 Z"/>
</g>

<g id="IT_300x250_FR_psd_Asset_Awareness_Phase_IT_Decisions_Makers__V6_1_Lib_rez_votre__quipe_des_TI__pour_qu_elle_puisse_consacrer__plu_0_Layer0_0_MEMBER_40_FILL">
<path fill="#D82C26" stroke="none" d="
M 56.65 5.55
Q 57 5.1 57.1 5.05 57.35 4.85 57.75 4.85
L 58.25 4.95 58.65 5.2 58.85 4.9 58.35 4.65
Q 58.15 4.55 57.75 4.55 57.25 4.55 56.9 4.75 56.55 5 56.3 5.35 56.1 5.85 56.1 6.2 56.1 6.55 56.3 7.05 56.55 7.45 56.9 7.65 57.25 7.85 57.75 7.85
L 58.35 7.75 58.85 7.5 58.75 7.15
Q 58.55 7.35 58.3 7.4 58.15 7.5 57.8 7.5 57.4 7.5 57.1 7.35
L 56.65 6.85
Q 56.5 6.55 56.5 6.2 56.5 5.85 56.65 5.55 Z"/>
</g>

<g id="IT_300x250_FR_psd_Asset_Awareness_Phase_IT_Decisions_Makers__V6_1_Lib_rez_votre__quipe_des_TI__pour_qu_elle_puisse_consacrer__plu_0_Layer0_0_MEMBER_41_FILL">
<path fill="#D82C26" stroke="none" d="
M 62.4 5.35
Q 62.2 5 61.8 4.75 61.45 4.55 60.95 4.55 60.45 4.55 60.1 4.75 59.75 5 59.5 5.35 59.25 5.75 59.25 6.2 59.25 6.65 59.5 7.05 59.75 7.45 60.1 7.65 60.45 7.85 60.95 7.85 61.45 7.85 61.8 7.65 62.2 7.45 62.4 7.05 62.6 6.7 62.6 6.2 62.6 5.7 62.4 5.35
M 61.6 5.05
Q 61.9 5.2 62.05 5.5 62.2 5.8 62.2 6.2 62.2 6.55 62.05 6.85 61.9 7.1 61.6 7.35 61.2 7.55 60.95 7.55 60.65 7.55 60.25 7.35 59.95 7.1 59.8 6.85 59.65 6.55 59.65 6.2 59.65 5.8 59.8 5.5 59.95 5.2 60.25 5.05 60.5 4.85 60.95 4.85 61.35 4.85 61.6 5.05 Z"/>
</g>

<g id="IT_300x250_FR_psd_Asset_Awareness_Phase_IT_Decisions_Makers__V6_1_Lib_rez_votre__quipe_des_TI__pour_qu_elle_puisse_consacrer__plu_0_Layer0_0_MEMBER_42_FILL">
<path fill="#D82C26" stroke="none" d="
M 66.15 5.85
Q 66.15 5.3 65.9 4.9 65.6 4.55 65 4.55 64.55 4.55 64.3 4.75 63.95 5 63.85 5.3
L 63.8 4.65 63.45 4.65 63.5 7.75 63.85 7.75 63.85 6.15
Q 63.85 5.75 64 5.45 64.15 5.2 64.4 5 64.65 4.85 64.9 4.85 65.4 4.85 65.6 5.15 65.75 5.55 65.75 5.95
L 65.75 7.75 66.15 7.75 66.15 5.85 Z"/>
</g>

<g id="IT_300x250_FR_psd_Asset_Awareness_Phase_IT_Decisions_Makers__V6_1_Lib_rez_votre__quipe_des_TI__pour_qu_elle_puisse_consacrer__plu_0_Layer0_0_MEMBER_43_FILL">
<path fill="#D82C26" stroke="none" d="
M 67 5.4
Q 67 5.7 67.25 5.95 67.65 6.2 67.9 6.3
L 68.6 6.55
Q 68.8 6.75 68.8 6.95 68.8 7.25 68.55 7.4 68.4 7.55 68.1 7.55 67.45 7.55 67.05 7.15
L 66.95 7.5 67.45 7.75 68.1 7.85 68.6 7.75
Q 68.85 7.65 69 7.45 69.15 7.25 69.15 6.95 69.15 6.55 68.9 6.4 68.65 6.15 68.2 6
L 67.55 5.75
Q 67.4 5.6 67.4 5.35 67.4 5.05 67.6 5 67.75 4.85 68.1 4.85 68.4 4.85 68.5 4.95
L 68.9 5.15 69.05 4.85
Q 68.95 4.75 68.6 4.65 68.45 4.55 68.05 4.55
L 67.55 4.6 67.15 4.9
Q 67 5.15 67 5.4 Z"/>
</g>

<g id="IT_300x250_FR_psd_Asset_Awareness_Phase_IT_Decisions_Makers__V6_1_Lib_rez_votre__quipe_des_TI__pour_qu_elle_puisse_consacrer__plu_0_Layer0_0_MEMBER_44_FILL">
<path fill="#D82C26" stroke="none" d="
M 72 5.9
L 71.6 5.9
Q 69.8 5.9 69.8 6.9 69.8 7.4 70.1 7.6 70.35 7.85 70.8 7.85 71.2 7.85 71.5 7.7 71.9 7.4 71.95 7.15
L 72 7.15 72 7.5 72.05 7.75 72.4 7.75 72.35 5.75
Q 72.35 5.15 72.05 4.85 71.7 4.55 71.15 4.55 70.7 4.55 70.5 4.65
L 69.95 4.9 70.1 5.25
Q 70.2 5.15 70.55 4.95
L 71.1 4.85
Q 71.55 4.85 71.75 5.05 72 5.3 72 5.7
L 72 5.9
M 71.65 6.15
L 72 6.15 72 6.45
Q 72 6.7 71.85 7 71.65 7.3 71.5 7.4 71.2 7.55 70.9 7.55 70.55 7.55 70.4 7.4 70.2 7.25 70.2 6.9 70.2 6.15 71.65 6.15 Z"/>
</g>

<g id="IT_300x250_FR_psd_Asset_Awareness_Phase_IT_Decisions_Makers__V6_1_Lib_rez_votre__quipe_des_TI__pour_qu_elle_puisse_consacrer__plu_0_Layer0_0_MEMBER_45_FILL">
<path fill="#D82C26" stroke="none" d="
M 73.75 5.55
Q 73.95 5.2 74.2 5.05 74.4 4.85 74.85 4.85
L 75.35 4.95 75.75 5.2 75.9 4.9 75.4 4.65
Q 75.25 4.55 74.85 4.55 74.35 4.55 74 4.75 73.65 5 73.4 5.35 73.2 5.7 73.2 6.2 73.2 6.7 73.4 7.05 73.65 7.45 73.95 7.65 74.3 7.85 74.8 7.85
L 75.4 7.75 75.9 7.5 75.85 7.15 75.4 7.4
Q 75.25 7.5 74.85 7.5 74.45 7.5 74.2 7.35 73.9 7.1 73.75 6.85 73.6 6.55 73.6 6.2 73.6 5.85 73.75 5.55 Z"/>
</g>

<g id="IT_300x250_FR_psd_Asset_Awareness_Phase_IT_Decisions_Makers__V6_1_Lib_rez_votre__quipe_des_TI__pour_qu_elle_puisse_consacrer__plu_0_Layer0_0_MEMBER_46_FILL">
<path fill="#D82C26" stroke="none" d="
M 78.25 4.6
L 77.9 4.55
Q 77.6 4.55 77.35 4.75 77.05 4.95 77 5.3
L 76.95 5.3 76.95 4.65 76.55 4.65 76.6 7.75 77 7.75 77 6.2
Q 77 5.65 77.25 5.25 77.45 4.9 77.9 4.9
L 78.15 4.95 78.25 4.6 Z"/>
</g>

<g id="IT_300x250_FR_psd_Asset_Awareness_Phase_IT_Decisions_Makers__V6_1_Lib_rez_votre__quipe_des_TI__pour_qu_elle_puisse_consacrer__plu_0_Layer0_0_MEMBER_47_FILL">
<path fill="#D82C26" stroke="none" d="
M 81.55 6.1
Q 81.55 5.65 81.35 5.3 81.2 4.95 80.85 4.75 80.5 4.55 80.05 4.55 79.6 4.55 79.25 4.75 78.8 5 78.7 5.35 78.5 5.7 78.5 6.2 78.5 6.7 78.7 7.05 78.95 7.45 79.25 7.65 79.6 7.85 80.1 7.85 80.9 7.85 81.35 7.45
L 81.3 7.15 80.75 7.4
Q 80.45 7.55 80.1 7.55 79.7 7.55 79.5 7.35 79.2 7.2 79.05 6.9 78.85 6.65 78.85 6.25
L 81.55 6.25 81.55 6.1
M 80.05 4.85
Q 80.55 4.85 80.85 5.15 81.15 5.45 81.15 5.95
L 78.85 5.95 79 5.45 79.4 5
Q 79.7 4.85 80.05 4.85 Z"/>
</g>

<g id="IT_300x250_FR_psd_Asset_Awareness_Phase_IT_Decisions_Makers__V6_1_Lib_rez_votre__quipe_des_TI__pour_qu_elle_puisse_consacrer__plu_0_Layer0_0_MEMBER_48_FILL">
<path fill="#D82C26" stroke="none" d="
M 83.15 4.75
Q 82.9 4.9 82.75 5.3
L 82.75 4.65 82.35 4.65 82.4 7.75 82.8 7.75 82.8 6.2
Q 82.8 5.65 83 5.25 83.3 4.9 83.65 4.9
L 83.95 4.95 84.05 4.6 83.7 4.55
Q 83.35 4.55 83.15 4.75 Z"/>
</g>

<g id="IT_300x250_FR_psd_Asset_Awareness_Phase_IT_Decisions_Makers__V6_1_Lib_rez_votre__quipe_des_TI__pour_qu_elle_puisse_consacrer__plu_0_Layer0_0_MEMBER_49_FILL">
<path fill="#D82C26" stroke="none" d="
M 3.7 13.1
Q 3.5 12.75 3.1 12.5 2.85 12.3 2.3 12.3 1.9 12.3 1.55 12.5 1.2 12.7 1.05 13.1
L 1 13.1 1 12.4 0.6 12.4 0.6 17.15 1 17.15 1 14.85 1.05 14.85
Q 1.2 15.25 1.55 15.4 1.9 15.6 2.3 15.6 2.85 15.6 3.1 15.4 3.5 15.2 3.7 14.8 3.9 14.3 3.9 13.95 3.9 13.6 3.7 13.1
M 3.3 14.65
Q 3.15 15 2.9 15.1 2.65 15.3 2.25 15.3 1.85 15.3 1.6 15.1 1.3 14.95 1.15 14.65 1 14.35 1 13.95 1 13.6 1.15 13.3 1.3 13.05 1.6 12.8 1.9 12.65 2.25 12.65 2.6 12.65 2.9 12.8 3.15 13 3.3 13.3 3.45 13.6 3.45 13.95 3.45 14.35 3.3 14.65 Z"/>
</g>

<g id="IT_300x250_FR_psd_Asset_Awareness_Phase_IT_Decisions_Makers__V6_1_Lib_rez_votre__quipe_des_TI__pour_qu_elle_puisse_consacrer__plu_0_Layer0_0_MEMBER_50_FILL">
<path fill="#D82C26" stroke="none" d="
M 4.9 15.35
Q 5 15.5 5.25 15.6
L 5.45 15.3 5.2 15.1 5.15 14.75 5.15 10.4 4.75 10.5 4.75 14.85
Q 4.75 15.15 4.9 15.35 Z"/>
</g>

<g id="IT_300x250_FR_psd_Asset_Awareness_Phase_IT_Decisions_Makers__V6_1_Lib_rez_votre__quipe_des_TI__pour_qu_elle_puisse_consacrer__plu_0_Layer0_0_MEMBER_51_FILL">
<path fill="#D82C26" stroke="none" d="
M 8.35 14.7
Q 8.2 15.05 7.95 15.15 7.75 15.3 7.45 15.3 6.95 15.3 6.8 15 6.6 14.75 6.6 14.2
L 6.6 12.4 6.2 12.4 6.2 14.3
Q 6.2 14.85 6.45 15.25 6.75 15.6 7.35 15.6 7.7 15.6 8.05 15.4 8.4 15.15 8.5 14.85
L 8.55 15.55 8.95 15.55 8.85 14.8 8.85 12.4 8.5 12.4 8.5 13.95
Q 8.5 14.35 8.35 14.7 Z"/>
</g>

<g id="IT_300x250_FR_psd_Asset_Awareness_Phase_IT_Decisions_Makers__V6_1_Lib_rez_votre__quipe_des_TI__pour_qu_elle_puisse_consacrer__plu_0_Layer0_0_MEMBER_52_FILL">
<path fill="#D82C26" stroke="none" d="
M 9.8 14.95
L 9.7 15.25 10.2 15.5
Q 10.4 15.6 10.85 15.6 11.2 15.6 11.35 15.5 11.6 15.4 11.75 15.2 11.9 15 11.9 14.7 11.9 14.35 11.65 14.15 11.5 14 10.95 13.8
L 10.3 13.5
Q 10.15 13.35 10.15 13.15 10.15 12.9 10.35 12.75 10.5 12.6 10.85 12.6
L 11.25 12.7 11.65 12.9 11.8 12.65 11.4 12.4 10.8 12.3 10.3 12.4
Q 10.1 12.45 9.95 12.7 9.8 12.85 9.8 13.15 9.8 13.55 10 13.7 10.2 13.9 10.65 14.05
L 11.35 14.35
Q 11.55 14.55 11.55 14.7 11.55 15 11.3 15.15 11.15 15.3 10.85 15.3 10.15 15.3 9.8 14.95 Z"/>
</g>

<g id="IT_300x250_FR_psd_Asset_Awareness_Phase_IT_Decisions_Makers__V6_1_Lib_rez_votre__quipe_des_TI__pour_qu_elle_puisse_consacrer__plu_0_Layer0_0_MEMBER_53_FILL">
<path fill="#D82C26" stroke="none" d="
M 17 10.4
L 16.6 10.45 16.6 13.05
Q 16.45 12.75 16.1 12.5 15.75 12.3 15.35 12.3 14.85 12.3 14.5 12.5 14.2 12.7 13.95 13.1 13.75 13.6 13.75 13.95 13.75 14.3 13.95 14.8 14.2 15.2 14.5 15.4 14.85 15.6 15.35 15.6 15.75 15.6 16.1 15.4 16.45 15.25 16.6 14.85
L 16.65 14.85 16.65 15.55 17.05 15.55 17 10.4
M 15.4 12.65
Q 15.75 12.65 16.05 12.8
L 16.5 13.3
Q 16.65 13.6 16.65 13.95 16.65 14.35 16.5 14.65
L 16.05 15.1
Q 15.8 15.3 15.4 15.3 14.95 15.3 14.75 15.1 14.45 14.95 14.3 14.65 14.15 14.35 14.15 13.95 14.15 13.6 14.3 13.3 14.45 13.05 14.75 12.8 15 12.65 15.4 12.65 Z"/>
</g>

<g id="IT_300x250_FR_psd_Asset_Awareness_Phase_IT_Decisions_Makers__V6_1_Lib_rez_votre__quipe_des_TI__pour_qu_elle_puisse_consacrer__plu_0_Layer0_0_MEMBER_54_FILL">
<path fill="#D82C26" stroke="none" d="
M 20.75 13.05
Q 20.6 12.75 20.25 12.5 19.9 12.3 19.45 12.3 19 12.3 18.65 12.5 18.25 12.75 18.1 13.1 17.9 13.45 17.9 13.95 17.9 14.45 18.1 14.8 18.35 15.2 18.65 15.4 19.05 15.65 19.5 15.65 20.2 15.65 20.75 15.25
L 20.7 14.9 20.15 15.2 19.5 15.3
Q 19.15 15.3 18.9 15.15 18.6 14.9 18.45 14.65 18.25 14.4 18.25 14
L 20.9 14 20.95 13.85
Q 20.95 13.55 20.75 13.05
M 20.25 12.9
Q 20.55 13.2 20.55 13.75
L 18.25 13.75 18.4 13.2 18.8 12.8
Q 19.05 12.6 19.45 12.6 19.95 12.6 20.25 12.9 Z"/>
</g>

<g id="IT_300x250_FR_psd_Asset_Awareness_Phase_IT_Decisions_Makers__V6_1_Lib_rez_votre__quipe_des_TI__pour_qu_elle_puisse_consacrer__plu_0_Layer0_0_MEMBER_55_FILL">
<path fill="#D82C26" stroke="none" d="
M 23.5 11.5
L 23.1 11.65 23.1 12.4 22.6 12.4 22.55 12.7 23.1 12.7 23.1 14.8
Q 23.1 15.1 23.3 15.4 23.5 15.6 23.85 15.6
L 24.2 15.55 24.5 15.45 24.45 15.15
Q 24.25 15.3 23.95 15.3 23.75 15.3 23.65 15.15 23.5 15 23.5 14.7
L 23.5 12.7 24.3 12.7 24.4 12.4 23.5 12.4 23.5 11.5 Z"/>
</g>

<g id="IT_300x250_FR_psd_Asset_Awareness_Phase_IT_Decisions_Makers__V6_1_Lib_rez_votre__quipe_des_TI__pour_qu_elle_puisse_consacrer__plu_0_Layer0_0_MEMBER_56_FILL">
<path fill="#D82C26" stroke="none" d="
M 27.9 14
L 27.9 13.85
Q 27.9 13.4 27.7 13.05 27.55 12.75 27.2 12.5 26.85 12.3 26.4 12.3 25.95 12.3 25.6 12.5 25.2 12.75 25.05 13.1 24.85 13.45 24.85 13.95 24.85 14.45 25.05 14.8 25.3 15.2 25.6 15.4 26 15.65 26.45 15.65 27.15 15.65 27.7 15.25
L 27.65 14.9 27.1 15.2 26.5 15.3
Q 26.1 15.3 25.85 15.15 25.55 14.9 25.4 14.65 25.2 14.4 25.2 14
L 27.9 14
M 27.2 12.9
Q 27.5 13.2 27.5 13.75
L 25.2 13.75 25.35 13.2 25.75 12.8
Q 26 12.6 26.4 12.6 26.9 12.6 27.2 12.9 Z"/>
</g>

<g id="IT_300x250_FR_psd_Asset_Awareness_Phase_IT_Decisions_Makers__V6_1_Lib_rez_votre__quipe_des_TI__pour_qu_elle_puisse_consacrer__plu_0_Layer0_0_MEMBER_57_FILL">
<path fill="#D82C26" stroke="none" d="
M 29.1 12.4
L 28.7 12.4 28.75 15.55 29.15 15.55 29.15 13.95 29.25 13.25
Q 29.4 12.95 29.6 12.8 29.85 12.65 30.1 12.65 30.6 12.65 30.7 12.9 30.9 13.15 30.9 13.7
L 30.9 15.55 31.3 15.55 31.3 13.9
Q 31.3 13.3 31.6 13 31.8 12.65 32.3 12.65 32.75 12.65 32.95 12.95 33.15 13.35 33.15 13.75
L 33.15 15.55 33.5 15.55 33.5 13.65
Q 33.5 13 33.25 12.7 32.95 12.3 32.4 12.3 31.95 12.3 31.7 12.5 31.4 12.75 31.25 13.1 31.1 12.65 30.85 12.5 30.65 12.3 30.2 12.3 29.8 12.3 29.55 12.5 29.25 12.75 29.15 13.05
L 29.1 13.05 29.1 12.4 Z"/>
</g>

<g id="IT_300x250_FR_psd_Asset_Awareness_Phase_IT_Decisions_Makers__V6_1_Lib_rez_votre__quipe_des_TI__pour_qu_elle_puisse_consacrer__plu_0_Layer0_0_MEMBER_58_FILL">
<path fill="#D82C26" stroke="none" d="
M 37.6 13.1
Q 37.45 12.75 37.05 12.5 36.7 12.3 36.25 12.3 35.75 12.3 35.5 12.5 35.2 12.7 34.95 13.1
L 34.9 12.4 34.55 12.4 34.55 17.15 34.95 17.15 34.95 14.85
Q 35.2 15.3 35.5 15.4 35.75 15.6 36.25 15.6 36.7 15.6 37.05 15.4 37.45 15.15 37.6 14.8 37.8 14.45 37.8 13.95 37.8 13.45 37.6 13.1
M 36.85 12.8
L 37.25 13.3
Q 37.4 13.6 37.4 13.95 37.4 14.35 37.25 14.65 37.1 14.95 36.85 15.1 36.6 15.3 36.2 15.3 35.8 15.3 35.55 15.1 35.25 14.95 35.1 14.65 34.95 14.35 34.95 13.95 34.95 13.6 35.1 13.3 35.25 13.05 35.55 12.8 35.85 12.65 36.2 12.65 36.55 12.65 36.85 12.8 Z"/>
</g>

<g id="IT_300x250_FR_psd_Asset_Awareness_Phase_IT_Decisions_Makers__V6_1_Lib_rez_votre__quipe_des_TI__pour_qu_elle_puisse_consacrer__plu_0_Layer0_0_MEMBER_59_FILL">
<path fill="#D82C26" stroke="none" d="
M 39.5 12.6
L 39.95 12.7 40.35 12.9 40.5 12.65
Q 40.3 12.45 40.05 12.4
L 39.5 12.3 39 12.4
Q 38.75 12.5 38.6 12.7 38.45 12.85 38.45 13.15 38.45 13.55 38.7 13.7 38.9 13.9 39.35 14.05
L 40 14.35
Q 40.25 14.5 40.25 14.7 40.25 15 40 15.15 39.85 15.3 39.5 15.3 38.85 15.3 38.5 14.95
L 38.4 15.25 38.9 15.5
Q 39.1 15.6 39.55 15.6 39.9 15.6 40.05 15.5 40.3 15.4 40.45 15.2 40.6 15 40.6 14.7 40.6 14.35 40.35 14.15 40.2 14 39.65 13.8
L 39 13.5
Q 38.85 13.35 38.85 13.15 38.85 12.9 39.05 12.75 39.2 12.6 39.5 12.6 Z"/>
</g>

<g id="IT_300x250_FR_psd_Asset_Awareness_Phase_IT_Decisions_Makers__V6_1_Lib_rez_votre__quipe_des_TI__pour_qu_elle_puisse_consacrer__plu_0_Layer0_0_MEMBER_60_FILL">
<path fill="#D82C26" stroke="none" d="
M 45 13.5
Q 45 12.9 44.7 12.6 44.4 12.3 43.8 12.3
L 43.15 12.4
Q 42.9 12.45 42.65 12.7
L 42.75 13 43.2 12.7 43.75 12.6
Q 44.15 12.6 44.4 12.85 44.65 13 44.65 13.45
L 44.65 13.65 44.25 13.65
Q 42.45 13.65 42.45 14.7 42.45 15.2 42.75 15.4 43 15.6 43.45 15.6
L 44.2 15.45
Q 44.55 15.2 44.65 14.9
L 44.7 15.25 44.7 15.55 45.05 15.55 45 13.5
M 44.3 13.9
L 44.65 13.9 44.65 14.25 44.5 14.75
Q 44.45 14.95 44.15 15.15 43.85 15.35 43.55 15.35 43.35 15.35 43.05 15.15 42.85 15 42.85 14.65 42.85 13.9 44.3 13.9
M 43.1 10.8
L 43.9 11.75 44.25 11.75 43.55 10.8 43.1 10.8 Z"/>
</g>

<g id="IT_300x250_FR_psd_Asset_Awareness_Phase_IT_Decisions_Makers__V6_1_Lib_rez_votre__quipe_des_TI__pour_qu_elle_puisse_consacrer__plu_0_Layer0_0_MEMBER_61_FILL">
<path fill="#D82C26" stroke="none" d="
M 47.5 15.35
L 47.85 15.6 48.05 15.3 47.8 15.1 47.75 14.75 47.75 10.4 47.35 10.5 47.35 14.85
Q 47.35 15.15 47.5 15.35 Z"/>
</g>

<g id="IT_300x250_FR_psd_Asset_Awareness_Phase_IT_Decisions_Makers__V6_1_Lib_rez_votre__quipe_des_TI__pour_qu_elle_puisse_consacrer__plu_0_Layer0_0_MEMBER_62_FILL">
<path fill="#D82C26" stroke="none" d="
M 49.1 10.85
L 49.05 11.1 49.1 11.3 49.3 11.4 49.15 11.85
Q 49.05 12.1 48.85 12.2
L 49.05 12.3
Q 49.65 11.7 49.65 11.15
L 49.55 10.9
Q 49.5 10.8 49.35 10.8
L 49.1 10.85 Z"/>
</g>

<g id="IT_300x250_FR_psd_Asset_Awareness_Phase_IT_Decisions_Makers__V6_1_Lib_rez_votre__quipe_des_TI__pour_qu_elle_puisse_consacrer__plu_0_Layer0_0_MEMBER_63_FILL">
<path fill="#D82C26" stroke="none" d="
M 50.75 12.4
L 50.75 15.55 51.15 15.55 51.15 12.4 50.75 12.4
M 50.75 11.35
L 50.95 11.4 51.15 11.35 51.2 11.15 51.15 10.95 50.95 10.85 50.75 10.95 50.65 11.15 50.75 11.35 Z"/>
</g>

<g id="IT_300x250_FR_psd_Asset_Awareness_Phase_IT_Decisions_Makers__V6_1_Lib_rez_votre__quipe_des_TI__pour_qu_elle_puisse_consacrer__plu_0_Layer0_0_MEMBER_64_FILL">
<path fill="#D82C26" stroke="none" d="
M 54.9 13.6
Q 54.9 13.1 54.6 12.7 54.3 12.3 53.75 12.3 53.3 12.3 53.05 12.5 52.75 12.7 52.6 13.05
L 52.55 12.4 52.2 12.4 52.2 15.55 52.6 15.55 52.6 13.95
Q 52.6 13.55 52.75 13.25 52.9 12.95 53.1 12.8
L 53.65 12.65
Q 54.15 12.65 54.3 12.95 54.5 13.2 54.5 13.7
L 54.5 15.55 54.9 15.55 54.9 13.6 Z"/>
</g>

<g id="IT_300x250_FR_psd_Asset_Awareness_Phase_IT_Decisions_Makers__V6_1_Lib_rez_votre__quipe_des_TI__pour_qu_elle_puisse_consacrer__plu_0_Layer0_0_MEMBER_65_FILL">
<path fill="#D82C26" stroke="none" d="
M 58.65 13.6
Q 58.65 13.1 58.35 12.7 58.05 12.3 57.45 12.3 57.05 12.3 56.8 12.5 56.45 12.7 56.35 13.05
L 56.3 13.05 56.3 12.4 55.9 12.4 55.95 15.55 56.35 15.55 56.35 13.95
Q 56.35 13.55 56.5 13.25 56.55 13 56.85 12.8 57.1 12.65 57.4 12.65 57.85 12.65 58.05 12.95 58.25 13.35 58.25 13.7
L 58.25 15.55 58.65 15.55 58.65 13.6 Z"/>
</g>

<g id="IT_300x250_FR_psd_Asset_Awareness_Phase_IT_Decisions_Makers__V6_1_Lib_rez_votre__quipe_des_TI__pour_qu_elle_puisse_consacrer__plu_0_Layer0_0_MEMBER_66_FILL">
<path fill="#D82C26" stroke="none" d="
M 62.6 14.8
Q 62.8 14.45 62.8 13.95 62.8 13.45 62.6 13.1 62.4 12.75 62 12.5 61.65 12.3 61.15 12.3 60.65 12.3 60.3 12.5 59.95 12.75 59.7 13.1 59.45 13.5 59.45 13.95 59.45 14.4 59.7 14.8 59.95 15.2 60.3 15.4 60.7 15.65 61.15 15.65 61.6 15.65 62 15.4 62.4 15.2 62.6 14.8
M 61.15 12.65
Q 61.5 12.65 61.8 12.8 62.1 13.05 62.25 13.3 62.4 13.6 62.4 13.95 62.4 14.3 62.25 14.6 62.1 14.95 61.8 15.1 61.55 15.3 61.15 15.3 60.7 15.3 60.45 15.1 60.15 14.95 60 14.6 59.85 14.3 59.85 13.95 59.85 13.6 60 13.3 60.15 13.05 60.45 12.8 60.75 12.65 61.15 12.65 Z"/>
</g>

<g id="IT_300x250_FR_psd_Asset_Awareness_Phase_IT_Decisions_Makers__V6_1_Lib_rez_votre__quipe_des_TI__pour_qu_elle_puisse_consacrer__plu_0_Layer0_0_MEMBER_67_FILL">
<path fill="#D82C26" stroke="none" d="
M 63.1 12.4
L 64.3 15.55 64.75 15.55 65.95 12.4 65.55 12.4 64.55 15.15 63.55 12.4 63.1 12.4 Z"/>
</g>

<g id="IT_300x250_FR_psd_Asset_Awareness_Phase_IT_Decisions_Makers__V6_1_Lib_rez_votre__quipe_des_TI__pour_qu_elle_puisse_consacrer__plu_0_Layer0_0_MEMBER_68_FILL">
<path fill="#D82C26" stroke="none" d="
M 68.5 13.45
L 68.5 13.65 68.1 13.65
Q 66.3 13.65 66.3 14.7 66.3 15.2 66.6 15.4 66.85 15.6 67.3 15.6 67.7 15.6 68.05 15.45 68.4 15.2 68.5 14.9
L 68.55 15.25 68.55 15.55 68.9 15.55 68.85 13.5
Q 68.85 12.9 68.55 12.6 68.25 12.3 67.65 12.3
L 67.05 12.4
Q 66.75 12.45 66.5 12.7
L 66.6 13 67.1 12.7 67.6 12.6
Q 68 12.6 68.25 12.85 68.5 13 68.5 13.45
M 68.5 14.25
L 68.4 14.75 68 15.15
Q 67.7 15.35 67.4 15.35 67.2 15.35 66.9 15.15 66.7 15 66.7 14.65 66.7 13.9 68.15 13.9
L 68.5 13.9 68.5 14.25 Z"/>
</g>

<g id="IT_300x250_FR_psd_Asset_Awareness_Phase_IT_Decisions_Makers__V6_1_Lib_rez_votre__quipe_des_TI__pour_qu_elle_puisse_consacrer__plu_0_Layer0_0_MEMBER_69_FILL">
<path fill="#D82C26" stroke="none" d="
M 70.4 11.5
L 70 11.65 70 12.4 69.5 12.4 69.4 12.7 70 12.7 70 14.8
Q 70 15.2 70.2 15.4 70.35 15.6 70.7 15.6
L 71.1 15.55 71.4 15.45 71.35 15.15 70.85 15.3
Q 70.65 15.3 70.5 15.15 70.4 15.05 70.4 14.7
L 70.4 12.7 71.2 12.7 71.25 12.4 70.4 12.4 70.4 11.5 Z"/>
</g>

<g id="IT_300x250_FR_psd_Asset_Awareness_Phase_IT_Decisions_Makers__V6_1_Lib_rez_votre__quipe_des_TI__pour_qu_elle_puisse_consacrer__plu_0_Layer0_0_MEMBER_70_FILL">
<path fill="#D82C26" stroke="none" d="
M 72.05 12.4
L 72.05 15.55 72.4 15.55 72.4 12.4 72.05 12.4
M 72 11.35
L 72.2 11.4 72.4 11.35 72.5 11.15 72.4 10.95 72.2 10.85 72 10.95 71.95 11.15 72 11.35 Z"/>
</g>

<g id="IT_300x250_FR_psd_Asset_Awareness_Phase_IT_Decisions_Makers__V6_1_Lib_rez_votre__quipe_des_TI__pour_qu_elle_puisse_consacrer__plu_0_Layer0_0_MEMBER_71_FILL">
<path fill="#D82C26" stroke="none" d="
M 76.4 14.8
Q 76.6 14.45 76.6 13.95 76.6 13.45 76.4 13.1 76.2 12.75 75.8 12.5 75.45 12.3 74.95 12.3 74.45 12.3 74.1 12.5 73.75 12.75 73.5 13.1 73.25 13.5 73.25 13.95 73.25 14.4 73.5 14.8 73.75 15.2 74.1 15.4 74.5 15.65 74.95 15.65 75.4 15.65 75.8 15.4 76.2 15.2 76.4 14.8
M 76.2 13.95
Q 76.2 14.3 76.05 14.6 75.9 14.95 75.6 15.1 75.4 15.3 74.95 15.3 74.5 15.3 74.25 15.1 73.95 14.95 73.8 14.6 73.65 14.3 73.65 13.95 73.65 13.6 73.8 13.3 73.95 13.05 74.25 12.8 74.55 12.65 74.95 12.65 75.3 12.65 75.6 12.8 75.9 13.05 76.05 13.3 76.2 13.6 76.2 13.95 Z"/>
</g>

<g id="IT_300x250_FR_psd_Asset_Awareness_Phase_IT_Decisions_Makers__V6_1_Lib_rez_votre__quipe_des_TI__pour_qu_elle_puisse_consacrer__plu_0_Layer0_0_MEMBER_72_FILL">
<path fill="#D82C26" stroke="none" d="
M 80.15 13.6
Q 80.15 13 79.9 12.7 79.6 12.3 79 12.3 78.55 12.3 78.3 12.5 78 12.7 77.85 13.05
L 77.8 12.4 77.45 12.4 77.5 15.55 77.9 15.55 77.9 13.95
Q 77.9 13.45 78 13.25 78.15 13 78.4 12.8 78.65 12.65 78.9 12.65 79.4 12.65 79.6 12.95 79.8 13.35 79.8 13.7
L 79.8 15.55 80.15 15.55 80.15 13.6 Z"/>
</g>

<g id="IT_300x250_FR_psd_Asset_Awareness_Phase_IT_Decisions_Makers__V6_1_Lib_rez_votre__quipe_des_TI__pour_qu_elle_puisse_consacrer__plu_0_Layer0_0_MEMBER_73_FILL">
<path fill="#D82C26" stroke="none" d="
M 81.25 15.5
L 81.45 15.6 81.7 15.5 81.75 15.25 81.7 15.05 81.45 14.95 81.25 15.05 81.2 15.25 81.25 15.5 Z"/>
</g>
</defs>

<g transform="matrix( 1, 0, 0, 1, -5,23) ">
<g transform="matrix( 1, 0, 0, 1, 0,0) ">
<g transform="matrix( 1, 0, 0, 1, 29,6) ">
<g transform="matrix( 2.815704345703125, 0, 0, 2.832611083984375, -1.85,14.6) ">
<use xlink:href="#IT_300x250_FR_psd_Asset_Awareness_Phase_IT_Decisions_Makers__V6_1_Lib_rez_votre__quipe_des_TI__pour_qu_elle_puisse_consacrer__plu_0_Layer0_0_MEMBER_0_FILL"/>
</g>

<g transform="matrix( 2.815704345703125, 0, 0, 2.832611083984375, -1.85,14.6) ">
<use xlink:href="#IT_300x250_FR_psd_Asset_Awareness_Phase_IT_Decisions_Makers__V6_1_Lib_rez_votre__quipe_des_TI__pour_qu_elle_puisse_consacrer__plu_0_Layer0_0_MEMBER_1_FILL"/>
</g>

<g transform="matrix( 2.815704345703125, 0, 0, 2.832611083984375, -1.85,14.6) ">
<use xlink:href="#IT_300x250_FR_psd_Asset_Awareness_Phase_IT_Decisions_Makers__V6_1_Lib_rez_votre__quipe_des_TI__pour_qu_elle_puisse_consacrer__plu_0_Layer0_0_MEMBER_2_FILL"/>
</g>

<g transform="matrix( 2.815704345703125, 0, 0, 2.832611083984375, -1.85,14.6) ">
<use xlink:href="#IT_300x250_FR_psd_Asset_Awareness_Phase_IT_Decisions_Makers__V6_1_Lib_rez_votre__quipe_des_TI__pour_qu_elle_puisse_consacrer__plu_0_Layer0_0_MEMBER_3_FILL"/>
</g>

<g transform="matrix( 2.815704345703125, 0, 0, 2.832611083984375, -1.85,14.6) ">
<use xlink:href="#IT_300x250_FR_psd_Asset_Awareness_Phase_IT_Decisions_Makers__V6_1_Lib_rez_votre__quipe_des_TI__pour_qu_elle_puisse_consacrer__plu_0_Layer0_0_MEMBER_4_FILL"/>
</g>

<g transform="matrix( 2.815704345703125, 0, 0, 2.832611083984375, -1.85,14.6) ">
<use xlink:href="#IT_300x250_FR_psd_Asset_Awareness_Phase_IT_Decisions_Makers__V6_1_Lib_rez_votre__quipe_des_TI__pour_qu_elle_puisse_consacrer__plu_0_Layer0_0_MEMBER_5_FILL"/>
</g>

<g transform="matrix( 2.815704345703125, 0, 0, 2.832611083984375, -1.85,14.6) ">
<use xlink:href="#IT_300x250_FR_psd_Asset_Awareness_Phase_IT_Decisions_Makers__V6_1_Lib_rez_votre__quipe_des_TI__pour_qu_elle_puisse_consacrer__plu_0_Layer0_0_MEMBER_6_FILL"/>
</g>

<g transform="matrix( 2.815704345703125, 0, 0, 2.832611083984375, -1.85,14.6) ">
<use xlink:href="#IT_300x250_FR_psd_Asset_Awareness_Phase_IT_Decisions_Makers__V6_1_Lib_rez_votre__quipe_des_TI__pour_qu_elle_puisse_consacrer__plu_0_Layer0_0_MEMBER_7_FILL"/>
</g>

<g transform="matrix( 2.815704345703125, 0, 0, 2.832611083984375, -1.85,14.6) ">
<use xlink:href="#IT_300x250_FR_psd_Asset_Awareness_Phase_IT_Decisions_Makers__V6_1_Lib_rez_votre__quipe_des_TI__pour_qu_elle_puisse_consacrer__plu_0_Layer0_0_MEMBER_8_FILL"/>
</g>

<g transform="matrix( 2.815704345703125, 0, 0, 2.832611083984375, -1.85,14.6) ">
<use xlink:href="#IT_300x250_FR_psd_Asset_Awareness_Phase_IT_Decisions_Makers__V6_1_Lib_rez_votre__quipe_des_TI__pour_qu_elle_puisse_consacrer__plu_0_Layer0_0_MEMBER_9_FILL"/>
</g>

<g transform="matrix( 2.815704345703125, 0, 0, 2.832611083984375, -1.85,14.6) ">
<use xlink:href="#IT_300x250_FR_psd_Asset_Awareness_Phase_IT_Decisions_Makers__V6_1_Lib_rez_votre__quipe_des_TI__pour_qu_elle_puisse_consacrer__plu_0_Layer0_0_MEMBER_10_FILL"/>
</g>

<g transform="matrix( 2.815704345703125, 0, 0, 2.832611083984375, -1.85,14.6) ">
<use xlink:href="#IT_300x250_FR_psd_Asset_Awareness_Phase_IT_Decisions_Makers__V6_1_Lib_rez_votre__quipe_des_TI__pour_qu_elle_puisse_consacrer__plu_0_Layer0_0_MEMBER_11_FILL"/>
</g>

<g transform="matrix( 2.815704345703125, 0, 0, 2.832611083984375, -1.85,14.6) ">
<use xlink:href="#IT_300x250_FR_psd_Asset_Awareness_Phase_IT_Decisions_Makers__V6_1_Lib_rez_votre__quipe_des_TI__pour_qu_elle_puisse_consacrer__plu_0_Layer0_0_MEMBER_12_FILL"/>
</g>

<g transform="matrix( 2.815704345703125, 0, 0, 2.832611083984375, -1.85,14.6) ">
<use xlink:href="#IT_300x250_FR_psd_Asset_Awareness_Phase_IT_Decisions_Makers__V6_1_Lib_rez_votre__quipe_des_TI__pour_qu_elle_puisse_consacrer__plu_0_Layer0_0_MEMBER_13_FILL"/>
</g>

<g transform="matrix( 2.815704345703125, 0, 0, 2.832611083984375, -1.85,14.6) ">
<use xlink:href="#IT_300x250_FR_psd_Asset_Awareness_Phase_IT_Decisions_Makers__V6_1_Lib_rez_votre__quipe_des_TI__pour_qu_elle_puisse_consacrer__plu_0_Layer0_0_MEMBER_14_FILL"/>
</g>

<g transform="matrix( 2.815704345703125, 0, 0, 2.832611083984375, -1.85,14.6) ">
<use xlink:href="#IT_300x250_FR_psd_Asset_Awareness_Phase_IT_Decisions_Makers__V6_1_Lib_rez_votre__quipe_des_TI__pour_qu_elle_puisse_consacrer__plu_0_Layer0_0_MEMBER_15_FILL"/>
</g>

<g transform="matrix( 2.815704345703125, 0, 0, 2.832611083984375, -1.85,14.6) ">
<use xlink:href="#IT_300x250_FR_psd_Asset_Awareness_Phase_IT_Decisions_Makers__V6_1_Lib_rez_votre__quipe_des_TI__pour_qu_elle_puisse_consacrer__plu_0_Layer0_0_MEMBER_16_FILL"/>
</g>

<g transform="matrix( 2.815704345703125, 0, 0, 2.832611083984375, -1.85,14.6) ">
<use xlink:href="#IT_300x250_FR_psd_Asset_Awareness_Phase_IT_Decisions_Makers__V6_1_Lib_rez_votre__quipe_des_TI__pour_qu_elle_puisse_consacrer__plu_0_Layer0_0_MEMBER_17_FILL"/>
</g>

<g transform="matrix( 2.815704345703125, 0, 0, 2.832611083984375, -1.85,14.6) ">
<use xlink:href="#IT_300x250_FR_psd_Asset_Awareness_Phase_IT_Decisions_Makers__V6_1_Lib_rez_votre__quipe_des_TI__pour_qu_elle_puisse_consacrer__plu_0_Layer0_0_MEMBER_18_FILL"/>
</g>

<g transform="matrix( 2.815704345703125, 0, 0, 2.832611083984375, -1.85,14.6) ">
<use xlink:href="#IT_300x250_FR_psd_Asset_Awareness_Phase_IT_Decisions_Makers__V6_1_Lib_rez_votre__quipe_des_TI__pour_qu_elle_puisse_consacrer__plu_0_Layer0_0_MEMBER_19_FILL"/>
</g>

<g transform="matrix( 2.815704345703125, 0, 0, 2.832611083984375, -1.85,14.6) ">
<use xlink:href="#IT_300x250_FR_psd_Asset_Awareness_Phase_IT_Decisions_Makers__V6_1_Lib_rez_votre__quipe_des_TI__pour_qu_elle_puisse_consacrer__plu_0_Layer0_0_MEMBER_20_FILL"/>
</g>

<g transform="matrix( 2.815704345703125, 0, 0, 2.832611083984375, -1.85,14.6) ">
<use xlink:href="#IT_300x250_FR_psd_Asset_Awareness_Phase_IT_Decisions_Makers__V6_1_Lib_rez_votre__quipe_des_TI__pour_qu_elle_puisse_consacrer__plu_0_Layer0_0_MEMBER_21_FILL"/>
</g>

<g transform="matrix( 2.815704345703125, 0, 0, 2.832611083984375, -1.85,14.6) ">
<use xlink:href="#IT_300x250_FR_psd_Asset_Awareness_Phase_IT_Decisions_Makers__V6_1_Lib_rez_votre__quipe_des_TI__pour_qu_elle_puisse_consacrer__plu_0_Layer0_0_MEMBER_22_FILL"/>
</g>

<g transform="matrix( 2.815704345703125, 0, 0, 2.832611083984375, -1.85,14.6) ">
<use xlink:href="#IT_300x250_FR_psd_Asset_Awareness_Phase_IT_Decisions_Makers__V6_1_Lib_rez_votre__quipe_des_TI__pour_qu_elle_puisse_consacrer__plu_0_Layer0_0_MEMBER_23_FILL"/>
</g>

<g transform="matrix( 2.815704345703125, 0, 0, 2.832611083984375, -1.85,14.6) ">
<use xlink:href="#IT_300x250_FR_psd_Asset_Awareness_Phase_IT_Decisions_Makers__V6_1_Lib_rez_votre__quipe_des_TI__pour_qu_elle_puisse_consacrer__plu_0_Layer0_0_MEMBER_24_FILL"/>
</g>

<g transform="matrix( 2.815704345703125, 0, 0, 2.832611083984375, -1.85,14.6) ">
<use xlink:href="#IT_300x250_FR_psd_Asset_Awareness_Phase_IT_Decisions_Makers__V6_1_Lib_rez_votre__quipe_des_TI__pour_qu_elle_puisse_consacrer__plu_0_Layer0_0_MEMBER_25_FILL"/>
</g>

<g transform="matrix( 2.815704345703125, 0, 0, 2.832611083984375, -1.85,14.6) ">
<use xlink:href="#IT_300x250_FR_psd_Asset_Awareness_Phase_IT_Decisions_Makers__V6_1_Lib_rez_votre__quipe_des_TI__pour_qu_elle_puisse_consacrer__plu_0_Layer0_0_MEMBER_26_FILL"/>
</g>

<g transform="matrix( 2.815704345703125, 0, 0, 2.832611083984375, -1.85,14.6) ">
<use xlink:href="#IT_300x250_FR_psd_Asset_Awareness_Phase_IT_Decisions_Makers__V6_1_Lib_rez_votre__quipe_des_TI__pour_qu_elle_puisse_consacrer__plu_0_Layer0_0_MEMBER_27_FILL"/>
</g>

<g transform="matrix( 2.815704345703125, 0, 0, 2.832611083984375, -1.85,14.6) ">
<use xlink:href="#IT_300x250_FR_psd_Asset_Awareness_Phase_IT_Decisions_Makers__V6_1_Lib_rez_votre__quipe_des_TI__pour_qu_elle_puisse_consacrer__plu_0_Layer0_0_MEMBER_28_FILL"/>
</g>

<g transform="matrix( 2.815704345703125, 0, 0, 2.832611083984375, -1.85,14.6) ">
<use xlink:href="#IT_300x250_FR_psd_Asset_Awareness_Phase_IT_Decisions_Makers__V6_1_Lib_rez_votre__quipe_des_TI__pour_qu_elle_puisse_consacrer__plu_0_Layer0_0_MEMBER_29_FILL"/>
</g>

<g transform="matrix( 2.815704345703125, 0, 0, 2.832611083984375, -1.85,14.6) ">
<use xlink:href="#IT_300x250_FR_psd_Asset_Awareness_Phase_IT_Decisions_Makers__V6_1_Lib_rez_votre__quipe_des_TI__pour_qu_elle_puisse_consacrer__plu_0_Layer0_0_MEMBER_30_FILL"/>
</g>

<g transform="matrix( 2.815704345703125, 0, 0, 2.832611083984375, -1.85,14.6) ">
<use xlink:href="#IT_300x250_FR_psd_Asset_Awareness_Phase_IT_Decisions_Makers__V6_1_Lib_rez_votre__quipe_des_TI__pour_qu_elle_puisse_consacrer__plu_0_Layer0_0_MEMBER_31_FILL"/>
</g>

<g transform="matrix( 2.815704345703125, 0, 0, 2.832611083984375, -1.85,14.6) ">
<use xlink:href="#IT_300x250_FR_psd_Asset_Awareness_Phase_IT_Decisions_Makers__V6_1_Lib_rez_votre__quipe_des_TI__pour_qu_elle_puisse_consacrer__plu_0_Layer0_0_MEMBER_32_FILL"/>
</g>

<g transform="matrix( 2.815704345703125, 0, 0, 2.832611083984375, -1.85,14.6) ">
<use xlink:href="#IT_300x250_FR_psd_Asset_Awareness_Phase_IT_Decisions_Makers__V6_1_Lib_rez_votre__quipe_des_TI__pour_qu_elle_puisse_consacrer__plu_0_Layer0_0_MEMBER_33_FILL"/>
</g>

<g transform="matrix( 2.815704345703125, 0, 0, 2.832611083984375, -1.85,14.6) ">
<use xlink:href="#IT_300x250_FR_psd_Asset_Awareness_Phase_IT_Decisions_Makers__V6_1_Lib_rez_votre__quipe_des_TI__pour_qu_elle_puisse_consacrer__plu_0_Layer0_0_MEMBER_34_FILL"/>
</g>

<g transform="matrix( 2.815704345703125, 0, 0, 2.832611083984375, -1.85,14.6) ">
<use xlink:href="#IT_300x250_FR_psd_Asset_Awareness_Phase_IT_Decisions_Makers__V6_1_Lib_rez_votre__quipe_des_TI__pour_qu_elle_puisse_consacrer__plu_0_Layer0_0_MEMBER_35_FILL"/>
</g>

<g transform="matrix( 2.815704345703125, 0, 0, 2.832611083984375, -1.85,14.6) ">
<use xlink:href="#IT_300x250_FR_psd_Asset_Awareness_Phase_IT_Decisions_Makers__V6_1_Lib_rez_votre__quipe_des_TI__pour_qu_elle_puisse_consacrer__plu_0_Layer0_0_MEMBER_36_FILL"/>
</g>

<g transform="matrix( 2.815704345703125, 0, 0, 2.832611083984375, -1.85,14.6) ">
<use xlink:href="#IT_300x250_FR_psd_Asset_Awareness_Phase_IT_Decisions_Makers__V6_1_Lib_rez_votre__quipe_des_TI__pour_qu_elle_puisse_consacrer__plu_0_Layer0_0_MEMBER_37_FILL"/>
</g>

<g transform="matrix( 2.815704345703125, 0, 0, 2.832611083984375, -1.85,14.6) ">
<use xlink:href="#IT_300x250_FR_psd_Asset_Awareness_Phase_IT_Decisions_Makers__V6_1_Lib_rez_votre__quipe_des_TI__pour_qu_elle_puisse_consacrer__plu_0_Layer0_0_MEMBER_38_FILL"/>
</g>

<g transform="matrix( 2.815704345703125, 0, 0, 2.832611083984375, -1.85,14.6) ">
<use xlink:href="#IT_300x250_FR_psd_Asset_Awareness_Phase_IT_Decisions_Makers__V6_1_Lib_rez_votre__quipe_des_TI__pour_qu_elle_puisse_consacrer__plu_0_Layer0_0_MEMBER_39_FILL"/>
</g>

<g transform="matrix( 2.815704345703125, 0, 0, 2.832611083984375, -1.85,14.6) ">
<use xlink:href="#IT_300x250_FR_psd_Asset_Awareness_Phase_IT_Decisions_Makers__V6_1_Lib_rez_votre__quipe_des_TI__pour_qu_elle_puisse_consacrer__plu_0_Layer0_0_MEMBER_40_FILL"/>
</g>

<g transform="matrix( 2.815704345703125, 0, 0, 2.832611083984375, -1.85,14.6) ">
<use xlink:href="#IT_300x250_FR_psd_Asset_Awareness_Phase_IT_Decisions_Makers__V6_1_Lib_rez_votre__quipe_des_TI__pour_qu_elle_puisse_consacrer__plu_0_Layer0_0_MEMBER_41_FILL"/>
</g>

<g transform="matrix( 2.815704345703125, 0, 0, 2.832611083984375, -1.85,14.6) ">
<use xlink:href="#IT_300x250_FR_psd_Asset_Awareness_Phase_IT_Decisions_Makers__V6_1_Lib_rez_votre__quipe_des_TI__pour_qu_elle_puisse_consacrer__plu_0_Layer0_0_MEMBER_42_FILL"/>
</g>

<g transform="matrix( 2.815704345703125, 0, 0, 2.832611083984375, -1.85,14.6) ">
<use xlink:href="#IT_300x250_FR_psd_Asset_Awareness_Phase_IT_Decisions_Makers__V6_1_Lib_rez_votre__quipe_des_TI__pour_qu_elle_puisse_consacrer__plu_0_Layer0_0_MEMBER_43_FILL"/>
</g>

<g transform="matrix( 2.815704345703125, 0, 0, 2.832611083984375, -1.85,14.6) ">
<use xlink:href="#IT_300x250_FR_psd_Asset_Awareness_Phase_IT_Decisions_Makers__V6_1_Lib_rez_votre__quipe_des_TI__pour_qu_elle_puisse_consacrer__plu_0_Layer0_0_MEMBER_44_FILL"/>
</g>

<g transform="matrix( 2.815704345703125, 0, 0, 2.832611083984375, -1.85,14.6) ">
<use xlink:href="#IT_300x250_FR_psd_Asset_Awareness_Phase_IT_Decisions_Makers__V6_1_Lib_rez_votre__quipe_des_TI__pour_qu_elle_puisse_consacrer__plu_0_Layer0_0_MEMBER_45_FILL"/>
</g>

<g transform="matrix( 2.815704345703125, 0, 0, 2.832611083984375, -1.85,14.6) ">
<use xlink:href="#IT_300x250_FR_psd_Asset_Awareness_Phase_IT_Decisions_Makers__V6_1_Lib_rez_votre__quipe_des_TI__pour_qu_elle_puisse_consacrer__plu_0_Layer0_0_MEMBER_46_FILL"/>
</g>

<g transform="matrix( 2.815704345703125, 0, 0, 2.832611083984375, -1.85,14.6) ">
<use xlink:href="#IT_300x250_FR_psd_Asset_Awareness_Phase_IT_Decisions_Makers__V6_1_Lib_rez_votre__quipe_des_TI__pour_qu_elle_puisse_consacrer__plu_0_Layer0_0_MEMBER_47_FILL"/>
</g>

<g transform="matrix( 2.815704345703125, 0, 0, 2.832611083984375, -1.85,14.6) ">
<use xlink:href="#IT_300x250_FR_psd_Asset_Awareness_Phase_IT_Decisions_Makers__V6_1_Lib_rez_votre__quipe_des_TI__pour_qu_elle_puisse_consacrer__plu_0_Layer0_0_MEMBER_48_FILL"/>
</g>

<g transform="matrix( 2.815704345703125, 0, 0, 2.832611083984375, -1.85,14.6) ">
<use xlink:href="#IT_300x250_FR_psd_Asset_Awareness_Phase_IT_Decisions_Makers__V6_1_Lib_rez_votre__quipe_des_TI__pour_qu_elle_puisse_consacrer__plu_0_Layer0_0_MEMBER_49_FILL"/>
</g>

<g transform="matrix( 2.815704345703125, 0, 0, 2.832611083984375, -1.85,14.6) ">
<use xlink:href="#IT_300x250_FR_psd_Asset_Awareness_Phase_IT_Decisions_Makers__V6_1_Lib_rez_votre__quipe_des_TI__pour_qu_elle_puisse_consacrer__plu_0_Layer0_0_MEMBER_50_FILL"/>
</g>

<g transform="matrix( 2.815704345703125, 0, 0, 2.832611083984375, -1.85,14.6) ">
<use xlink:href="#IT_300x250_FR_psd_Asset_Awareness_Phase_IT_Decisions_Makers__V6_1_Lib_rez_votre__quipe_des_TI__pour_qu_elle_puisse_consacrer__plu_0_Layer0_0_MEMBER_51_FILL"/>
</g>

<g transform="matrix( 2.815704345703125, 0, 0, 2.832611083984375, -1.85,14.6) ">
<use xlink:href="#IT_300x250_FR_psd_Asset_Awareness_Phase_IT_Decisions_Makers__V6_1_Lib_rez_votre__quipe_des_TI__pour_qu_elle_puisse_consacrer__plu_0_Layer0_0_MEMBER_52_FILL"/>
</g>

<g transform="matrix( 2.815704345703125, 0, 0, 2.832611083984375, -1.85,14.6) ">
<use xlink:href="#IT_300x250_FR_psd_Asset_Awareness_Phase_IT_Decisions_Makers__V6_1_Lib_rez_votre__quipe_des_TI__pour_qu_elle_puisse_consacrer__plu_0_Layer0_0_MEMBER_53_FILL"/>
</g>

<g transform="matrix( 2.815704345703125, 0, 0, 2.832611083984375, -1.85,14.6) ">
<use xlink:href="#IT_300x250_FR_psd_Asset_Awareness_Phase_IT_Decisions_Makers__V6_1_Lib_rez_votre__quipe_des_TI__pour_qu_elle_puisse_consacrer__plu_0_Layer0_0_MEMBER_54_FILL"/>
</g>

<g transform="matrix( 2.815704345703125, 0, 0, 2.832611083984375, -1.85,14.6) ">
<use xlink:href="#IT_300x250_FR_psd_Asset_Awareness_Phase_IT_Decisions_Makers__V6_1_Lib_rez_votre__quipe_des_TI__pour_qu_elle_puisse_consacrer__plu_0_Layer0_0_MEMBER_55_FILL"/>
</g>

<g transform="matrix( 2.815704345703125, 0, 0, 2.832611083984375, -1.85,14.6) ">
<use xlink:href="#IT_300x250_FR_psd_Asset_Awareness_Phase_IT_Decisions_Makers__V6_1_Lib_rez_votre__quipe_des_TI__pour_qu_elle_puisse_consacrer__plu_0_Layer0_0_MEMBER_56_FILL"/>
</g>

<g transform="matrix( 2.815704345703125, 0, 0, 2.832611083984375, -1.85,14.6) ">
<use xlink:href="#IT_300x250_FR_psd_Asset_Awareness_Phase_IT_Decisions_Makers__V6_1_Lib_rez_votre__quipe_des_TI__pour_qu_elle_puisse_consacrer__plu_0_Layer0_0_MEMBER_57_FILL"/>
</g>

<g transform="matrix( 2.815704345703125, 0, 0, 2.832611083984375, -1.85,14.6) ">
<use xlink:href="#IT_300x250_FR_psd_Asset_Awareness_Phase_IT_Decisions_Makers__V6_1_Lib_rez_votre__quipe_des_TI__pour_qu_elle_puisse_consacrer__plu_0_Layer0_0_MEMBER_58_FILL"/>
</g>

<g transform="matrix( 2.815704345703125, 0, 0, 2.832611083984375, -1.85,14.6) ">
<use xlink:href="#IT_300x250_FR_psd_Asset_Awareness_Phase_IT_Decisions_Makers__V6_1_Lib_rez_votre__quipe_des_TI__pour_qu_elle_puisse_consacrer__plu_0_Layer0_0_MEMBER_59_FILL"/>
</g>

<g transform="matrix( 2.815704345703125, 0, 0, 2.832611083984375, -1.85,14.6) ">
<use xlink:href="#IT_300x250_FR_psd_Asset_Awareness_Phase_IT_Decisions_Makers__V6_1_Lib_rez_votre__quipe_des_TI__pour_qu_elle_puisse_consacrer__plu_0_Layer0_0_MEMBER_60_FILL"/>
</g>

<g transform="matrix( 2.815704345703125, 0, 0, 2.832611083984375, -1.85,14.6) ">
<use xlink:href="#IT_300x250_FR_psd_Asset_Awareness_Phase_IT_Decisions_Makers__V6_1_Lib_rez_votre__quipe_des_TI__pour_qu_elle_puisse_consacrer__plu_0_Layer0_0_MEMBER_61_FILL"/>
</g>

<g transform="matrix( 2.815704345703125, 0, 0, 2.832611083984375, -1.85,14.6) ">
<use xlink:href="#IT_300x250_FR_psd_Asset_Awareness_Phase_IT_Decisions_Makers__V6_1_Lib_rez_votre__quipe_des_TI__pour_qu_elle_puisse_consacrer__plu_0_Layer0_0_MEMBER_62_FILL"/>
</g>

<g transform="matrix( 2.815704345703125, 0, 0, 2.832611083984375, -1.85,14.6) ">
<use xlink:href="#IT_300x250_FR_psd_Asset_Awareness_Phase_IT_Decisions_Makers__V6_1_Lib_rez_votre__quipe_des_TI__pour_qu_elle_puisse_consacrer__plu_0_Layer0_0_MEMBER_63_FILL"/>
</g>

<g transform="matrix( 2.815704345703125, 0, 0, 2.832611083984375, -1.85,14.6) ">
<use xlink:href="#IT_300x250_FR_psd_Asset_Awareness_Phase_IT_Decisions_Makers__V6_1_Lib_rez_votre__quipe_des_TI__pour_qu_elle_puisse_consacrer__plu_0_Layer0_0_MEMBER_64_FILL"/>
</g>

<g transform="matrix( 2.815704345703125, 0, 0, 2.832611083984375, -1.85,14.6) ">
<use xlink:href="#IT_300x250_FR_psd_Asset_Awareness_Phase_IT_Decisions_Makers__V6_1_Lib_rez_votre__quipe_des_TI__pour_qu_elle_puisse_consacrer__plu_0_Layer0_0_MEMBER_65_FILL"/>
</g>

<g transform="matrix( 2.815704345703125, 0, 0, 2.832611083984375, -1.85,14.6) ">
<use xlink:href="#IT_300x250_FR_psd_Asset_Awareness_Phase_IT_Decisions_Makers__V6_1_Lib_rez_votre__quipe_des_TI__pour_qu_elle_puisse_consacrer__plu_0_Layer0_0_MEMBER_66_FILL"/>
</g>

<g transform="matrix( 2.815704345703125, 0, 0, 2.832611083984375, -1.85,14.6) ">
<use xlink:href="#IT_300x250_FR_psd_Asset_Awareness_Phase_IT_Decisions_Makers__V6_1_Lib_rez_votre__quipe_des_TI__pour_qu_elle_puisse_consacrer__plu_0_Layer0_0_MEMBER_67_FILL"/>
</g>

<g transform="matrix( 2.815704345703125, 0, 0, 2.832611083984375, -1.85,14.6) ">
<use xlink:href="#IT_300x250_FR_psd_Asset_Awareness_Phase_IT_Decisions_Makers__V6_1_Lib_rez_votre__quipe_des_TI__pour_qu_elle_puisse_consacrer__plu_0_Layer0_0_MEMBER_68_FILL"/>
</g>

<g transform="matrix( 2.815704345703125, 0, 0, 2.832611083984375, -1.85,14.6) ">
<use xlink:href="#IT_300x250_FR_psd_Asset_Awareness_Phase_IT_Decisions_Makers__V6_1_Lib_rez_votre__quipe_des_TI__pour_qu_elle_puisse_consacrer__plu_0_Layer0_0_MEMBER_69_FILL"/>
</g>

<g transform="matrix( 2.815704345703125, 0, 0, 2.832611083984375, -1.85,14.6) ">
<use xlink:href="#IT_300x250_FR_psd_Asset_Awareness_Phase_IT_Decisions_Makers__V6_1_Lib_rez_votre__quipe_des_TI__pour_qu_elle_puisse_consacrer__plu_0_Layer0_0_MEMBER_70_FILL"/>
</g>

<g transform="matrix( 2.815704345703125, 0, 0, 2.832611083984375, -1.85,14.6) ">
<use xlink:href="#IT_300x250_FR_psd_Asset_Awareness_Phase_IT_Decisions_Makers__V6_1_Lib_rez_votre__quipe_des_TI__pour_qu_elle_puisse_consacrer__plu_0_Layer0_0_MEMBER_71_FILL"/>
</g>

<g transform="matrix( 2.815704345703125, 0, 0, 2.832611083984375, -1.85,14.6) ">
<use xlink:href="#IT_300x250_FR_psd_Asset_Awareness_Phase_IT_Decisions_Makers__V6_1_Lib_rez_votre__quipe_des_TI__pour_qu_elle_puisse_consacrer__plu_0_Layer0_0_MEMBER_72_FILL"/>
</g>

<g transform="matrix( 2.815704345703125, 0, 0, 2.832611083984375, -1.85,14.6) ">
<use xlink:href="#IT_300x250_FR_psd_Asset_Awareness_Phase_IT_Decisions_Makers__V6_1_Lib_rez_votre__quipe_des_TI__pour_qu_elle_puisse_consacrer__plu_0_Layer0_0_MEMBER_73_FILL"/>
</g>
</g>
</g>
</g>
</svg>
