
<svg xmlns="http://www.w3.org/2000/svg" version="1.1" xmlns:xlink="http://www.w3.org/1999/xlink" preserveAspectRatio="none" x="0px" y="0px" width="200px" height="200px" viewBox="0 0 200 200">
<defs>
<g id="BDM_200x200_FR_psd_Asset_5_V6_1_Vous_cherchez_des__fa_ons_plus_novatrices__de_communiquer_avec__0_Layer0_0_MEMBER_0_FILL">
<path fill="#D82C26" stroke="none" d="
M 0.45 -4.25
L 0.05 -4.25 1.65 0 2.05 0 3.7 -4.25 3.3 -4.25 1.85 -0.45 0.45 -4.25 Z"/>
</g>

<g id="BDM_200x200_FR_psd_Asset_5_V6_1_Vous_cherchez_des__fa_ons_plus_novatrices__de_communiquer_avec__0_Layer0_0_MEMBER_1_FILL">
<path fill="#D82C26" stroke="none" d="
M 5.05 -2.9
Q 4.6 -2.9 4.25 -2.7 3.9 -2.55 3.75 -2.2 3.55 -1.85 3.55 -1.4 3.55 -0.9 3.75 -0.65 3.85 -0.4 4.25 -0.1 4.75 0.1 5.05 0.1 5.4 0.1 5.8 -0.1 6.15 -0.3 6.35 -0.65 6.55 -1.05 6.55 -1.4 6.55 -1.7 6.35 -2.2 6.05 -2.6 5.8 -2.7 5.55 -2.9 5.05 -2.9
M 4.45 -2.45
Q 4.7 -2.6 5.05 -2.6 5.35 -2.6 5.65 -2.45 5.9 -2.25 6.05 -2 6.2 -1.75 6.2 -1.4 6.2 -1.1 6.05 -0.8
L 5.65 -0.4
Q 5.4 -0.2 5.05 -0.2 4.65 -0.2 4.45 -0.4 4.25 -0.5 4.05 -0.8 3.9 -1.1 3.9 -1.4 3.9 -1.75 4.05 -2 4.2 -2.35 4.45 -2.45 Z"/>
</g>

<g id="BDM_200x200_FR_psd_Asset_5_V6_1_Vous_cherchez_des__fa_ons_plus_novatrices__de_communiquer_avec__0_Layer0_0_MEMBER_2_FILL">
<path fill="#D82C26" stroke="none" d="
M 7.1 -1.1
Q 7.1 -0.55 7.35 -0.25 7.6 0.1 8.1 0.1 8.35 0.1 8.75 -0.1 9 -0.3 9.15 -0.6
L 9.2 0 9.55 0 9.5 -0.3 9.5 -2.8 9.15 -2.8 9.15 -1.4
Q 9.15 -1.05 9 -0.75 8.9 -0.5 8.7 -0.35 8.5 -0.2 8.2 -0.2 7.85 -0.2 7.6 -0.5 7.45 -0.8 7.45 -1.2
L 7.45 -2.8 7.1 -2.8 7.1 -1.1 Z"/>
</g>

<g id="BDM_200x200_FR_psd_Asset_5_V6_1_Vous_cherchez_des__fa_ons_plus_novatrices__de_communiquer_avec__0_Layer0_0_MEMBER_3_FILL">
<path fill="#D82C26" stroke="none" d="
M 10.1 -0.55
L 10.05 -0.25
Q 10.25 -0.05 10.5 0
L 11.05 0.1 11.55 0 11.9 -0.3 12 -0.75
Q 12 -1.05 11.8 -1.25
L 10.6 -1.8
Q 10.45 -1.95 10.45 -2.15 10.45 -2.35 10.6 -2.5 10.75 -2.6 11.05 -2.6
L 11.45 -2.55 11.8 -2.35 11.95 -2.6 11.55 -2.8 11.05 -2.9 10.6 -2.8 10.25 -2.55
Q 10.1 -2.4 10.1 -2.1 10.1 -1.85 10.3 -1.65 10.55 -1.4 10.9 -1.35
L 11.5 -1.05
Q 11.7 -0.95 11.7 -0.75 11.7 -0.55 11.5 -0.35 11.3 -0.2 11.05 -0.2 10.5 -0.2 10.1 -0.55 Z"/>
</g>

<g id="BDM_200x200_FR_psd_Asset_5_V6_1_Vous_cherchez_des__fa_ons_plus_novatrices__de_communiquer_avec__0_Layer0_0_MEMBER_4_FILL">
<path fill="#D82C26" stroke="none" d="
M 14.75 -2.9
Q 14.25 -2.9 14 -2.7 13.7 -2.6 13.45 -2.15 13.25 -1.9 13.25 -1.4 13.25 -0.9 13.45 -0.65 13.55 -0.4 13.95 -0.1 14.45 0.1 14.7 0.1
L 15.25 0 15.7 -0.25 15.65 -0.55 15.25 -0.3 14.75 -0.2
Q 14.55 -0.2 14.15 -0.4
L 13.75 -0.8
Q 13.6 -1.1 13.6 -1.4 13.6 -1.7 13.75 -2 13.9 -2.25 14.15 -2.45 14.4 -2.6 14.75 -2.6
L 15.2 -2.5 15.55 -2.3 15.7 -2.55
Q 15.5 -2.75 15.25 -2.8
L 14.75 -2.9 Z"/>
</g>

<g id="BDM_200x200_FR_psd_Asset_5_V6_1_Vous_cherchez_des__fa_ons_plus_novatrices__de_communiquer_avec__0_Layer0_0_MEMBER_5_FILL">
<path fill="#D82C26" stroke="none" d="
M 16.45 -4.6
L 16.1 -4.55 16.1 0 16.45 0 16.45 -1.35
Q 16.45 -1.75 16.6 -2.05
L 16.95 -2.45
Q 17.1 -2.6 17.4 -2.6 17.85 -2.6 18 -2.3 18.15 -2.05 18.15 -1.65
L 18.15 0 18.5 0 18.5 -1.7
Q 18.5 -2.3 18.25 -2.55 18.05 -2.9 17.5 -2.9 17.1 -2.9 16.9 -2.7 16.6 -2.55 16.5 -2.2
L 16.45 -2.2 16.45 -4.6 Z"/>
</g>

<g id="BDM_200x200_FR_psd_Asset_5_V6_1_Vous_cherchez_des__fa_ons_plus_novatrices__de_communiquer_avec__0_Layer0_0_MEMBER_6_FILL">
<path fill="#D82C26" stroke="none" d="
M 19.25 -0.65
Q 19.45 -0.3 19.8 -0.1 20.2 0.1 20.55 0.1 21.15 0.1 21.65 -0.25
L 21.6 -0.55 21.15 -0.3 20.55 -0.2
Q 20.25 -0.2 20 -0.35 19.75 -0.45 19.6 -0.8 19.45 -1 19.45 -1.35
L 21.8 -1.35 21.8 -1.5
Q 21.8 -1.9 21.65 -2.2 21.45 -2.55 21.2 -2.7 20.95 -2.9 20.5 -2.9 20.1 -2.9 19.75 -2.7 19.55 -2.6 19.25 -2.2 19.1 -1.8 19.1 -1.4 19.1 -0.95 19.25 -0.65
M 19.55 -2.05
Q 19.7 -2.3 19.95 -2.45 20.2 -2.6 20.5 -2.6 20.95 -2.6 21.2 -2.35 21.4 -2.15 21.5 -1.6
L 19.45 -1.6 19.55 -2.05 Z"/>
</g>

<g id="BDM_200x200_FR_psd_Asset_5_V6_1_Vous_cherchez_des__fa_ons_plus_novatrices__de_communiquer_avec__0_Layer0_0_MEMBER_7_FILL">
<path fill="#D82C26" stroke="none" d="
M 22.7 -2.8
L 22.35 -2.8 22.4 0 22.75 0 22.75 -1.4
Q 22.75 -1.9 22.95 -2.25 23.2 -2.6 23.55 -2.6
L 23.8 -2.55 23.85 -2.85 23.55 -2.9
Q 23.3 -2.9 23.1 -2.7 22.85 -2.5 22.75 -2.2
L 22.7 -2.8 Z"/>
</g>

<g id="BDM_200x200_FR_psd_Asset_5_V6_1_Vous_cherchez_des__fa_ons_plus_novatrices__de_communiquer_avec__0_Layer0_0_MEMBER_8_FILL">
<path fill="#D82C26" stroke="none" d="
M 24.05 -0.65
Q 24.25 -0.3 24.6 -0.1 25 0.1 25.35 0.1
L 25.9 0 26.3 -0.25 26.25 -0.55 25.85 -0.3 25.35 -0.2
Q 25.1 -0.2 24.8 -0.4 24.5 -0.55 24.4 -0.8 24.25 -1.1 24.25 -1.4 24.25 -1.7 24.4 -2 24.45 -2.3 24.8 -2.45 25.05 -2.6 25.35 -2.6
L 25.8 -2.5 26.15 -2.3 26.3 -2.55 25.9 -2.8 25.35 -2.9
Q 24.85 -2.9 24.6 -2.7 24.3 -2.6 24.05 -2.15 23.9 -1.85 23.9 -1.4 23.9 -0.95 24.05 -0.65 Z"/>
</g>

<g id="BDM_200x200_FR_psd_Asset_5_V6_1_Vous_cherchez_des__fa_ons_plus_novatrices__de_communiquer_avec__0_Layer0_0_MEMBER_9_FILL">
<path fill="#D82C26" stroke="none" d="
M 27.1 -4.6
L 26.75 -4.55 26.75 0 27.1 0 27.1 -1.35 27.2 -2.05 27.55 -2.45
Q 27.8 -2.6 28.05 -2.6 28.45 -2.6 28.6 -2.3 28.8 -2.1 28.8 -1.65
L 28.8 0 29.15 0 29.15 -1.7
Q 29.15 -2.2 28.9 -2.55 28.7 -2.9 28.1 -2.9 27.75 -2.9 27.5 -2.7 27.3 -2.6 27.1 -2.2
L 27.1 -4.6 Z"/>
</g>

<g id="BDM_200x200_FR_psd_Asset_5_V6_1_Vous_cherchez_des__fa_ons_plus_novatrices__de_communiquer_avec__0_Layer0_0_MEMBER_10_FILL">
<path fill="#D82C26" stroke="none" d="
M 29.7 -1.4
Q 29.7 -0.9 29.9 -0.65 30 -0.4 30.4 -0.1 30.9 0.1 31.15 0.1 31.75 0.1 32.25 -0.25
L 32.2 -0.55 31.75 -0.3 31.2 -0.2
Q 30.85 -0.2 30.6 -0.35 30.35 -0.5 30.2 -0.8 30.05 -1 30.05 -1.35
L 32.45 -1.35 32.45 -1.5
Q 32.45 -1.9 32.3 -2.2 32.1 -2.55 31.85 -2.7 31.5 -2.9 31.1 -2.9 30.65 -2.9 30.4 -2.7 30.05 -2.55 29.9 -2.2 29.7 -1.85 29.7 -1.4
M 30.05 -1.6
Q 30.05 -1.8 30.2 -2.05 30.35 -2.3 30.55 -2.45 30.8 -2.6 31.1 -2.6 31.6 -2.6 31.8 -2.35 32.1 -2.05 32.1 -1.6
L 30.05 -1.6 Z"/>
</g>

<g id="BDM_200x200_FR_psd_Asset_5_V6_1_Vous_cherchez_des__fa_ons_plus_novatrices__de_communiquer_avec__0_Layer0_0_MEMBER_11_FILL">
<path fill="#D82C26" stroke="none" d="
M 34.45 -2.55
L 32.7 -0.3 32.7 0 34.9 0 34.95 -0.3 33.15 -0.3 34.85 -2.55 34.85 -2.8 32.8 -2.8 32.75 -2.55 34.45 -2.55 Z"/>
</g>

<g id="BDM_200x200_FR_psd_Asset_5_V6_1_Vous_cherchez_des__fa_ons_plus_novatrices__de_communiquer_avec__0_Layer0_0_MEMBER_12_FILL">
<path fill="#D82C26" stroke="none" d="
M 39.05 -4.6
L 38.7 -4.55 38.7 -2.2 38.65 -2.2
Q 38.45 -2.55 38.2 -2.7 37.95 -2.9 37.55 -2.9 37.05 -2.9 36.8 -2.7 36.4 -2.4 36.3 -2.15 36.1 -1.75 36.1 -1.4 36.1 -1.15 36.3 -0.65 36.45 -0.35 36.8 -0.1 37.2 0.1 37.55 0.1 37.8 0.1 38.2 -0.1 38.4 -0.2 38.7 -0.6
L 38.7 0 39.05 0 39.05 -4.6
M 37 -2.45
Q 37.25 -2.6 37.6 -2.6 37.95 -2.6 38.15 -2.45 38.4 -2.25 38.55 -2 38.7 -1.7 38.7 -1.4 38.7 -1.1 38.55 -0.8
L 38.15 -0.4
Q 37.95 -0.2 37.6 -0.2 37.2 -0.2 37 -0.4
L 36.6 -0.8
Q 36.45 -1.1 36.45 -1.4 36.45 -1.7 36.6 -2 36.75 -2.25 37 -2.45 Z"/>
</g>

<g id="BDM_200x200_FR_psd_Asset_5_V6_1_Vous_cherchez_des__fa_ons_plus_novatrices__de_communiquer_avec__0_Layer0_0_MEMBER_13_FILL">
<path fill="#D82C26" stroke="none" d="
M 39.8 -0.65
Q 40 -0.35 40.3 -0.1 40.8 0.1 41.05 0.1 41.6 0.1 42.2 -0.25
L 42.1 -0.55 41.65 -0.3 41.1 -0.2
Q 40.8 -0.2 40.5 -0.35 40.25 -0.5 40.1 -0.8 39.95 -1 39.95 -1.35
L 42.35 -1.35 42.35 -1.5
Q 42.35 -1.9 42.2 -2.2 42 -2.55 41.75 -2.7 41.5 -2.9 41 -2.9 40.55 -2.9 40.3 -2.7 39.95 -2.55 39.8 -2.2 39.6 -1.7 39.6 -1.4 39.6 -1.05 39.8 -0.65
M 40.1 -2.05
Q 40.25 -2.3 40.45 -2.45 40.7 -2.6 41 -2.6 41.5 -2.6 41.75 -2.35 42 -2 42 -1.6
L 39.95 -1.6
Q 39.95 -1.8 40.1 -2.05 Z"/>
</g>

<g id="BDM_200x200_FR_psd_Asset_5_V6_1_Vous_cherchez_des__fa_ons_plus_novatrices__de_communiquer_avec__0_Layer0_0_MEMBER_14_FILL">
<path fill="#D82C26" stroke="none" d="
M 42.75 -0.55
L 42.7 -0.25
Q 42.9 -0.05 43.15 0
L 43.7 0.1 44.15 0
Q 44.5 -0.25 44.55 -0.3
L 44.65 -0.75
Q 44.65 -1.05 44.45 -1.25
L 43.25 -1.8
Q 43.1 -1.95 43.1 -2.15 43.1 -2.35 43.25 -2.5 43.35 -2.6 43.7 -2.6
L 44.1 -2.55 44.45 -2.35 44.6 -2.6 44.2 -2.8 43.7 -2.9 43.25 -2.8 42.9 -2.55
Q 42.75 -2.4 42.75 -2.1 42.75 -1.8 42.95 -1.65 43.2 -1.4 43.55 -1.35
L 44.15 -1.05
Q 44.35 -0.95 44.35 -0.75 44.35 -0.55 44.15 -0.35 43.95 -0.2 43.7 -0.2 43.1 -0.2 42.75 -0.55 Z"/>
</g>

<g id="BDM_200x200_FR_psd_Asset_5_V6_1_Vous_cherchez_des__fa_ons_plus_novatrices__de_communiquer_avec__0_Layer0_0_MEMBER_15_FILL">
<path fill="#D82C26" stroke="none" d="
M 1.55 2.1
Q 1.25 2.1 0.9 2.35 0.7 2.55 0.7 3.1
L 0.7 3.9 0.2 3.9 0.1 4.15 0.7 4.15 0.7 6.7 1.05 6.7 1.05 4.15 1.7 4.15 1.8 3.9 1.05 3.9 1.05 3.1 1.15 2.6
Q 1.3 2.4 1.6 2.4
L 2.05 2.45 2.1 2.15 1.85 2.1 1.55 2.1 Z"/>
</g>

<g id="BDM_200x200_FR_psd_Asset_5_V6_1_Vous_cherchez_des__fa_ons_plus_novatrices__de_communiquer_avec__0_Layer0_0_MEMBER_16_FILL">
<path fill="#D82C26" stroke="none" d="
M 2.1 4.15
L 2.2 4.45 2.6 4.2
Q 2.8 4.1 3.1 4.1 3.5 4.1 3.65 4.3 3.9 4.45 3.9 4.85
L 3.9 5 3.55 5
Q 1.95 5 1.95 5.95 1.95 6.4 2.2 6.6 2.5 6.8 2.85 6.8 3.15 6.8 3.45 6.65 3.75 6.4 3.9 6.15
L 3.9 6.45 3.95 6.7 4.25 6.7 4.2 4.9
Q 4.2 4.35 3.95 4.1 3.65 3.8 3.15 3.8
L 2.55 3.9 2.1 4.15
M 3.9 5.25
L 3.9 5.55 3.75 6
Q 3.65 6.3 3.45 6.35 3.25 6.5 2.9 6.5
L 2.45 6.4
Q 2.25 6.2 2.25 5.95 2.25 5.25 3.6 5.25
L 3.9 5.25 Z"/>
</g>

<g id="BDM_200x200_FR_psd_Asset_5_V6_1_Vous_cherchez_des__fa_ons_plus_novatrices__de_communiquer_avec__0_Layer0_0_MEMBER_17_FILL">
<path fill="#D82C26" stroke="none" d="
M 7.2 4.15
L 6.8 3.9 6.25 3.8
Q 5.75 3.8 5.5 4 5.15 4.2 4.95 4.55 4.75 4.95 4.75 5.3 4.75 5.75 4.95 6
L 5.35 6.55
Q 5.75 6.75 6 6.75
L 5.65 7.3 5.75 7.4 6.1 7.3 6.35 7.35
Q 6.45 7.4 6.45 7.55 6.45 7.75 6.35 7.8
L 6 7.9 5.5 7.8 5.45 7.95 5.75 8.05 6.05 8.1
Q 6.35 8.1 6.55 7.95 6.75 7.85 6.75 7.55 6.75 7.35 6.6 7.25
L 6.2 7.15 5.95 7.2 6.25 6.8 6.75 6.7
Q 7 6.65 7.2 6.45
L 7.15 6.15 6.75 6.4 6.25 6.5
Q 5.95 6.5 5.65 6.35 5.3 6 5.25 5.9
L 5.15 5.3 5.25 4.7
Q 5.3 4.6 5.65 4.25 5.95 4.1 6.25 4.1
L 6.7 4.2 7.05 4.4 7.2 4.15 Z"/>
</g>

<g id="BDM_200x200_FR_psd_Asset_5_V6_1_Vous_cherchez_des__fa_ons_plus_novatrices__de_communiquer_avec__0_Layer0_0_MEMBER_18_FILL">
<path fill="#D82C26" stroke="none" d="
M 10.4 5.3
Q 10.4 4.8 10.2 4.55 9.95 4.1 9.65 4 9.4 3.8 8.9 3.8 8.4 3.8 8.15 4 7.85 4.1 7.6 4.55 7.4 4.8 7.4 5.3 7.4 5.8 7.6 6.05 7.8 6.4 8.15 6.6 8.4 6.8 8.9 6.8 9.4 6.8 9.65 6.6 10 6.4 10.2 6.05 10.4 5.8 10.4 5.3
M 8.9 4.1
Q 9.3 4.1 9.5 4.25 9.75 4.45 9.9 4.7 10.05 5 10.05 5.3 10.05 5.6 9.9 5.9 9.8 6.15 9.5 6.35 9.3 6.5 8.9 6.5 8.55 6.5 8.3 6.35 8 6.15 7.9 5.9 7.75 5.6 7.75 5.3 7.75 5 7.9 4.7 8.05 4.35 8.3 4.25 8.55 4.1 8.9 4.1 Z"/>
</g>

<g id="BDM_200x200_FR_psd_Asset_5_V6_1_Vous_cherchez_des__fa_ons_plus_novatrices__de_communiquer_avec__0_Layer0_0_MEMBER_19_FILL">
<path fill="#D82C26" stroke="none" d="
M 12.35 3.8
Q 12.05 3.8 11.75 4 11.4 4.25 11.35 4.5
L 11.3 4.5 11.3 3.9 10.95 3.9 11 6.7 11.35 6.7 11.35 5.25 11.45 4.65
Q 11.6 4.4 11.8 4.25 12.05 4.1 12.3 4.1 12.7 4.1 12.85 4.4 13.05 4.6 13.05 5.1
L 13.05 6.7 13.4 6.7 13.4 5
Q 13.4 4.55 13.15 4.15 12.8 3.8 12.35 3.8 Z"/>
</g>

<g id="BDM_200x200_FR_psd_Asset_5_V6_1_Vous_cherchez_des__fa_ons_plus_novatrices__de_communiquer_avec__0_Layer0_0_MEMBER_20_FILL">
<path fill="#D82C26" stroke="none" d="
M 15.35 5.65
Q 15.55 5.8 15.55 6 15.55 6.2 15.35 6.35 15.2 6.5 14.9 6.5 14.35 6.5 14 6.15
L 13.9 6.45
Q 14.25 6.65 14.35 6.7
L 14.9 6.8 15.4 6.7
Q 15.6 6.65 15.75 6.4 15.9 6.25 15.9 5.95 15.9 5.7 15.65 5.45 15.55 5.35 15 5.15
L 14.45 4.9
Q 14.3 4.75 14.3 4.55 14.3 4.35 14.45 4.2
L 14.9 4.1 15.3 4.15 15.65 4.35 15.8 4.1 15.4 3.9 14.9 3.8 14.45 3.9
Q 14.3 3.95 14.1 4.15 13.95 4.4 13.95 4.6 13.95 4.85 14.15 5.05 14.35 5.25 14.75 5.4 15.15 5.45 15.35 5.65 Z"/>
</g>

<g id="BDM_200x200_FR_psd_Asset_5_V6_1_Vous_cherchez_des__fa_ons_plus_novatrices__de_communiquer_avec__0_Layer0_0_MEMBER_21_FILL">
<path fill="#D82C26" stroke="none" d="
M 17.7 4.5
L 17.65 3.9 17.3 3.9 17.35 4.4 17.35 8.15 17.7 8.15 17.7 6.1
Q 17.9 6.45 18.15 6.6 18.4 6.8 18.85 6.8 19.15 6.8 19.55 6.6 19.9 6.4 20.05 6.05 20.25 5.8 20.25 5.3 20.25 4.8 20.05 4.55 19.9 4.2 19.55 4 19.15 3.8 18.85 3.8 18.55 3.8 18.15 4 17.9 4.15 17.7 4.5
M 18.2 4.25
Q 18.5 4.1 18.8 4.1 19.15 4.1 19.35 4.25 19.65 4.45 19.75 4.7 19.9 5 19.9 5.3 19.9 5.6 19.75 5.9 19.6 6.25 19.35 6.35 19.15 6.5 18.8 6.5 18.5 6.5 18.2 6.35 17.85 6 17.8 5.9 17.65 5.6 17.65 5.3 17.65 5 17.8 4.7 17.85 4.6 18.2 4.25 Z"/>
</g>

<g id="BDM_200x200_FR_psd_Asset_5_V6_1_Vous_cherchez_des__fa_ons_plus_novatrices__de_communiquer_avec__0_Layer0_0_MEMBER_22_FILL">
<path fill="#D82C26" stroke="none" d="
M 20.95 6.55
Q 21.15 6.75 21.3 6.75
L 21.45 6.5 21.25 6.3 21.2 6 21.2 2.15 20.85 2.2 20.85 6.1
Q 20.85 6.4 20.95 6.55 Z"/>
</g>

<g id="BDM_200x200_FR_psd_Asset_5_V6_1_Vous_cherchez_des__fa_ons_plus_novatrices__de_communiquer_avec__0_Layer0_0_MEMBER_23_FILL">
<path fill="#D82C26" stroke="none" d="
M 21.95 3.9
L 21.95 5.6
Q 21.95 6.2 22.2 6.45 22.45 6.8 22.95 6.8 23.2 6.8 23.6 6.6 23.8 6.5 24 6.1
L 24.05 6.7 24.4 6.7 24.35 6.4 24.35 3.9 24 3.9 24 5.3
Q 24 5.65 23.85 5.95 23.75 6.2 23.55 6.35 23.35 6.5 23.05 6.5 22.7 6.5 22.45 6.2 22.3 6 22.3 5.5
L 22.3 3.9 21.95 3.9 Z"/>
</g>

<g id="BDM_200x200_FR_psd_Asset_5_V6_1_Vous_cherchez_des__fa_ons_plus_novatrices__de_communiquer_avec__0_Layer0_0_MEMBER_24_FILL">
<path fill="#D82C26" stroke="none" d="
M 26.65 4.35
L 26.8 4.1 26.4 3.9 25.9 3.8 25.45 3.9 25.1 4.15
Q 24.95 4.4 24.95 4.6 24.95 4.85 25.15 5.05 25.35 5.25 25.75 5.4 26.15 5.45 26.35 5.65 26.55 5.85 26.55 6 26.55 6.15 26.35 6.35 26.15 6.5 25.9 6.5 25.35 6.5 24.95 6.15
L 24.9 6.45
Q 25.1 6.65 25.35 6.7
L 25.9 6.8 26.4 6.7
Q 26.6 6.65 26.75 6.4
L 26.85 5.95
Q 26.85 5.65 26.65 5.45
L 25.45 4.9
Q 25.3 4.75 25.3 4.55 25.3 4.35 25.45 4.2
L 25.9 4.1 26.3 4.15 26.65 4.35 Z"/>
</g>

<g id="BDM_200x200_FR_psd_Asset_5_V6_1_Vous_cherchez_des__fa_ons_plus_novatrices__de_communiquer_avec__0_Layer0_0_MEMBER_25_FILL">
<path fill="#D82C26" stroke="none" d="
M 30.75 5
Q 30.75 4.55 30.5 4.15 30.15 3.8 29.7 3.8 29.4 3.8 29.1 4 28.75 4.25 28.7 4.5
L 28.65 4.5 28.65 3.9 28.3 3.9 28.35 6.7 28.7 6.7 28.7 5.25 28.8 4.65
Q 28.95 4.4 29.15 4.25 29.4 4.1 29.6 4.1 30.05 4.1 30.2 4.4 30.4 4.6 30.4 5.1
L 30.4 6.7 30.75 6.7 30.75 5 Z"/>
</g>

<g id="BDM_200x200_FR_psd_Asset_5_V6_1_Vous_cherchez_des__fa_ons_plus_novatrices__de_communiquer_avec__0_Layer0_0_MEMBER_26_FILL">
<path fill="#D82C26" stroke="none" d="
M 31.5 4.55
Q 31.3 4.8 31.3 5.3 31.3 5.8 31.5 6.05 31.6 6.35 32.05 6.6 32.3 6.8 32.8 6.8 33.3 6.8 33.55 6.6 33.9 6.4 34.1 6.05 34.3 5.8 34.3 5.3 34.3 4.8 34.1 4.55 33.85 4.1 33.55 4 33.3 3.8 32.8 3.8 32.3 3.8 32.05 4 31.65 4.15 31.5 4.55
M 32.2 4.25
Q 32.45 4.1 32.8 4.1 33.1 4.1 33.4 4.25 33.65 4.45 33.8 4.7 33.95 5 33.95 5.3 33.95 5.6 33.8 5.9 33.75 6 33.4 6.35 33.2 6.5 32.8 6.5 32.45 6.5 32.2 6.35 31.9 6.15 31.8 5.9 31.65 5.6 31.65 5.3 31.65 5 31.8 4.7 31.95 4.35 32.2 4.25 Z"/>
</g>

<g id="BDM_200x200_FR_psd_Asset_5_V6_1_Vous_cherchez_des__fa_ons_plus_novatrices__de_communiquer_avec__0_Layer0_0_MEMBER_27_FILL">
<path fill="#D82C26" stroke="none" d="
M 34.35 3.9
L 35.45 6.7 35.85 6.7 36.9 3.9 36.55 3.9 35.65 6.35 34.75 3.9 34.35 3.9 Z"/>
</g>

<g id="BDM_200x200_FR_psd_Asset_5_V6_1_Vous_cherchez_des__fa_ons_plus_novatrices__de_communiquer_avec__0_Layer0_0_MEMBER_28_FILL">
<path fill="#D82C26" stroke="none" d="
M 37.7 3.9
L 37.2 4.15 37.3 4.45
Q 37.5 4.25 37.75 4.2 37.9 4.1 38.2 4.1 38.6 4.1 38.8 4.3 39 4.45 39 4.85
L 39 5 38.65 5
Q 37.05 5 37.05 5.95 37.05 6.35 37.3 6.6 37.7 6.8 37.95 6.8 38.3 6.8 38.6 6.65
L 39 6.15 39.05 6.45 39.05 6.7 39.4 6.7 39.35 4.9
Q 39.35 4.35 39.05 4.1 38.75 3.8 38.25 3.8
L 37.7 3.9
M 39 5.55
L 38.9 6
Q 38.7 6.3 38.55 6.35 38.35 6.5 38 6.5
L 37.55 6.4
Q 37.4 6.25 37.4 5.95 37.4 5.25 38.7 5.25
L 39 5.25 39 5.55 Z"/>
</g>

<g id="BDM_200x200_FR_psd_Asset_5_V6_1_Vous_cherchez_des__fa_ons_plus_novatrices__de_communiquer_avec__0_Layer0_0_MEMBER_29_FILL">
<path fill="#D82C26" stroke="none" d="
M 40.5 3.9
L 40.5 3.1 40.15 3.25 40.15 3.9 39.7 3.9 39.6 4.15 40.15 4.15 40.15 6.05
Q 40.15 6.4 40.3 6.6 40.55 6.75 40.8 6.75
L 41.1 6.75 41.4 6.6 41.35 6.35
Q 41.15 6.5 40.9 6.5
L 40.6 6.35 40.5 6 40.5 4.15 41.2 4.15 41.3 3.9 40.5 3.9 Z"/>
</g>

<g id="BDM_200x200_FR_psd_Asset_5_V6_1_Vous_cherchez_des__fa_ons_plus_novatrices__de_communiquer_avec__0_Layer0_0_MEMBER_30_FILL">
<path fill="#D82C26" stroke="none" d="
M 42.1 3.9
L 41.75 3.9 41.8 6.7 42.15 6.7 42.15 5.3
Q 42.15 4.8 42.35 4.45 42.6 4.15 42.95 4.15
L 43.2 4.15 43.25 3.85 42.95 3.8
Q 42.75 3.8 42.45 4 42.25 4.15 42.15 4.5
L 42.1 4.5 42.1 3.9 Z"/>
</g>

<g id="BDM_200x200_FR_psd_Asset_5_V6_1_Vous_cherchez_des__fa_ons_plus_novatrices__de_communiquer_avec__0_Layer0_0_MEMBER_31_FILL">
<path fill="#D82C26" stroke="none" d="
M 43.95 3.9
L 43.6 3.9 43.6 6.7 43.95 6.7 43.95 3.9
M 43.6 2.95
L 43.8 3.05 43.95 2.95 44.05 2.75 43.95 2.6 43.8 2.5 43.6 2.6 43.5 2.75 43.6 2.95 Z"/>
</g>

<g id="BDM_200x200_FR_psd_Asset_5_V6_1_Vous_cherchez_des__fa_ons_plus_novatrices__de_communiquer_avec__0_Layer0_0_MEMBER_32_FILL">
<path fill="#D82C26" stroke="none" d="
M 46.55 3.9
L 46 3.8
Q 45.5 3.8 45.25 4 44.85 4.3 44.7 4.55 44.55 4.85 44.55 5.3 44.55 5.75 44.7 6.05 44.95 6.5 45.25 6.6 45.5 6.8 46 6.8
L 46.55 6.7 46.95 6.45 46.9 6.15 46.5 6.4 46 6.5
Q 45.7 6.5 45.45 6.35 45.15 6.15 45.05 5.9 44.9 5.6 44.9 5.3 44.9 5 45.05 4.7 45.15 4.45 45.45 4.25 45.7 4.1 46 4.1
L 46.45 4.2 46.8 4.4 46.95 4.15 46.55 3.9 Z"/>
</g>

<g id="BDM_200x200_FR_psd_Asset_5_V6_1_Vous_cherchez_des__fa_ons_plus_novatrices__de_communiquer_avec__0_Layer0_0_MEMBER_33_FILL">
<path fill="#D82C26" stroke="none" d="
M 47.15 5.3
Q 47.15 5.65 47.35 6.05 47.55 6.35 47.85 6.6 48.2 6.8 48.6 6.8 49.15 6.8 49.75 6.45
L 49.65 6.15
Q 49.45 6.35 49.2 6.4
L 48.65 6.5
Q 48.35 6.5 48.05 6.35
L 47.65 5.95
Q 47.5 5.65 47.5 5.35
L 49.9 5.35 49.9 5.2
Q 49.9 4.8 49.75 4.5 49.55 4.15 49.3 4 49.05 3.8 48.55 3.8 48.1 3.8 47.85 4 47.5 4.15 47.35 4.5 47.15 5 47.15 5.3
M 47.65 4.65
L 48 4.25
Q 48.25 4.1 48.55 4.1 48.95 4.1 49.3 4.35 49.55 4.7 49.55 5.1
L 47.5 5.1
Q 47.5 4.9 47.65 4.65 Z"/>
</g>

<g id="BDM_200x200_FR_psd_Asset_5_V6_1_Vous_cherchez_des__fa_ons_plus_novatrices__de_communiquer_avec__0_Layer0_0_MEMBER_34_FILL">
<path fill="#D82C26" stroke="none" d="
M 52 4.35
L 52.15 4.1 51.75 3.9 51.25 3.8 50.8 3.9 50.45 4.15
Q 50.3 4.4 50.3 4.6 50.3 4.9 50.5 5.05 50.7 5.25 51.1 5.4 51.4 5.45 51.7 5.65 51.9 5.85 51.9 6 51.9 6.15 51.7 6.35 51.5 6.5 51.25 6.5 50.65 6.5 50.3 6.15
L 50.25 6.45
Q 50.45 6.65 50.7 6.7
L 51.25 6.8 51.7 6.7
Q 51.95 6.6 52.1 6.4
L 52.2 5.95
Q 52.2 5.65 52 5.45
L 50.8 4.9
Q 50.65 4.75 50.65 4.55 50.65 4.35 50.8 4.2
L 51.25 4.1 51.65 4.15 52 4.35 Z"/>
</g>

<g id="BDM_200x200_FR_psd_Asset_5_V6_1_Vous_cherchez_des__fa_ons_plus_novatrices__de_communiquer_avec__0_Layer0_0_MEMBER_35_FILL">
<path fill="#D82C26" stroke="none" d="
M 3.25 8.8
L 2.9 8.9 2.9 11.2
Q 2.6 10.8 2.4 10.7 2 10.5 1.75 10.5 1.5 10.5 1 10.7
L 0.5 11.25 0.35 12
Q 0.35 12.45 0.5 12.75 0.7 13.05 1 13.3 1.35 13.5 1.75 13.5 2.15 13.5 2.4 13.3 2.75 13.15 2.9 12.8
L 2.95 13.4 3.3 13.4 3.25 8.8
M 1.8 10.8
Q 2.15 10.8 2.35 11 2.55 11.1 2.75 11.4 2.9 11.7 2.9 12 2.9 12.3 2.75 12.6 2.6 12.95 2.35 13.05 2.15 13.2 1.8 13.2 1.5 13.2 1.2 13.05 0.9 12.85 0.85 12.6 0.7 12.4 0.7 12 0.7 11.7 0.85 11.4 0.9 11.2 1.2 11 1.45 10.8 1.8 10.8 Z"/>
</g>

<g id="BDM_200x200_FR_psd_Asset_5_V6_1_Vous_cherchez_des__fa_ons_plus_novatrices__de_communiquer_avec__0_Layer0_0_MEMBER_36_FILL">
<path fill="#D82C26" stroke="none" d="
M 4.5 10.7
Q 4.2 10.95 4 11.25 3.85 11.55 3.85 12 3.85 12.45 4 12.75 4.25 13.2 4.55 13.3 4.8 13.5 5.25 13.5 6 13.5 6.4 13.15
L 6.35 12.85 5.9 13.1
Q 5.7 13.2 5.3 13.2 5 13.2 4.75 13.05 4.45 12.9 4.35 12.65 4.2 12.35 4.2 12.05
L 6.55 12.05 6.55 11.9
Q 6.55 11.5 6.4 11.2 6.25 10.95 5.95 10.7 5.55 10.5 5.25 10.5 5 10.5 4.5 10.7
M 4.3 11.35
Q 4.5 11.05 4.65 10.95 4.95 10.8 5.25 10.8 5.6 10.8 5.95 11.05 6.15 11.25 6.25 11.8
L 4.2 11.8 4.3 11.35 Z"/>
</g>

<g id="BDM_200x200_FR_psd_Asset_5_V6_1_Vous_cherchez_des__fa_ons_plus_novatrices__de_communiquer_avec__0_Layer0_0_MEMBER_37_FILL">
<path fill="#D82C26" stroke="none" d="
M 9.85 10.6
L 9.3 10.5
Q 9.05 10.5 8.55 10.7 8.15 11 8.05 11.25 7.85 11.5 7.85 12 7.85 12.45 8.05 12.8 8.2 13.15 8.55 13.3 8.8 13.5 9.3 13.5
L 9.85 13.4 10.25 13.15 10.2 12.85 9.8 13.1 9.35 13.2
Q 9 13.2 8.75 13.05 8.5 12.95 8.35 12.6 8.2 12.3 8.2 12 8.2 11.7 8.35 11.4 8.55 11.1 8.75 11 8.95 10.8 9.3 10.8
L 9.75 10.9 10.1 11.1 10.25 10.85 9.85 10.6 Z"/>
</g>

<g id="BDM_200x200_FR_psd_Asset_5_V6_1_Vous_cherchez_des__fa_ons_plus_novatrices__de_communiquer_avec__0_Layer0_0_MEMBER_38_FILL">
<path fill="#D82C26" stroke="none" d="
M 10.65 11.25
Q 10.45 11.65 10.45 12 10.45 12.35 10.65 12.75 10.9 13.2 11.2 13.3 11.55 13.5 11.95 13.5 12.4 13.5 12.75 13.3 13.1 13.15 13.25 12.75 13.45 12.5 13.45 12 13.45 11.5 13.25 11.25 13.15 11 12.75 10.7 12.25 10.5 11.95 10.5 11.7 10.5 11.2 10.7 10.85 10.9 10.65 11.25
M 11.95 10.8
Q 12.35 10.8 12.55 11 12.9 11.15 12.95 11.4 13.1 11.7 13.1 12 13.1 12.3 12.95 12.6 12.9 12.9 12.55 13.05 12.35 13.2 11.95 13.2 11.65 13.2 11.35 13.05 11.1 12.9 10.95 12.6 10.85 12.4 10.85 12 10.85 11.6 10.95 11.4 11.05 11.2 11.35 11 11.6 10.8 11.95 10.8 Z"/>
</g>

<g id="BDM_200x200_FR_psd_Asset_5_V6_1_Vous_cherchez_des__fa_ons_plus_novatrices__de_communiquer_avec__0_Layer0_0_MEMBER_39_FILL">
<path fill="#D82C26" stroke="none" d="
M 14.35 10.6
L 14.05 10.6 14.05 13.4 14.4 13.4 14.4 12
Q 14.4 11.65 14.55 11.35 14.65 11.1 14.85 10.95 15.1 10.8 15.3 10.8 15.65 10.8 15.8 11.05 16 11.25 16 11.75
L 16 13.4 16.35 13.4 16.35 11.95
Q 16.35 11.5 16.6 11.15 16.8 10.8 17.25 10.8 17.65 10.8 17.8 11.1 18 11.5 18 11.8
L 18 13.4 18.35 13.4 18.35 11.75
Q 18.35 11.25 18.1 10.85 17.75 10.5 17.3 10.5 17 10.5 16.7 10.7 16.45 10.9 16.3 11.25
L 15.95 10.7
Q 15.65 10.5 15.35 10.5 15.1 10.5 14.8 10.7 14.55 10.9 14.4 11.2
L 14.35 10.6 Z"/>
</g>

<g id="BDM_200x200_FR_psd_Asset_5_V6_1_Vous_cherchez_des__fa_ons_plus_novatrices__de_communiquer_avec__0_Layer0_0_MEMBER_40_FILL">
<path fill="#D82C26" stroke="none" d="
M 21 10.7
Q 20.7 10.5 20.4 10.5 20.2 10.5 19.8 10.7 19.5 11 19.4 11.2
L 19.4 10.6 19.05 10.6 19.1 13.4 19.45 13.4 19.45 12
Q 19.45 11.55 19.55 11.35
L 19.85 10.95
Q 20.1 10.8 20.3 10.8 20.6 10.8 20.85 11.05 21 11.3 21 11.75
L 21 13.4 21.35 13.4 21.35 11.95
Q 21.35 11.5 21.6 11.15 21.9 10.8 22.25 10.8 22.65 10.8 22.85 11.1 23 11.4 23 11.8
L 23 13.4 23.35 13.4 23.35 11.75
Q 23.35 11.25 23.1 10.85 22.85 10.5 22.35 10.5 22.1 10.5 21.7 10.7 21.4 11 21.3 11.25 21.25 10.95 21 10.7 Z"/>
</g>

<g id="BDM_200x200_FR_psd_Asset_5_V6_1_Vous_cherchez_des__fa_ons_plus_novatrices__de_communiquer_avec__0_Layer0_0_MEMBER_41_FILL">
<path fill="#D82C26" stroke="none" d="
M 24.05 10.6
L 24.05 12.3
Q 24.05 12.8 24.3 13.15 24.6 13.5 25.1 13.5 25.45 13.5 25.7 13.3 26 13.15 26.1 12.8
L 26.15 13.4 26.5 13.4 26.5 13.1 26.45 12.75 26.45 10.6 26.1 10.6 26.1 12 26 12.65
Q 25.9 12.9 25.65 13.05 25.45 13.2 25.2 13.2 24.75 13.2 24.6 12.95 24.4 12.7 24.4 12.25
L 24.4 10.6 24.05 10.6 Z"/>
</g>

<g id="BDM_200x200_FR_psd_Asset_5_V6_1_Vous_cherchez_des__fa_ons_plus_novatrices__de_communiquer_avec__0_Layer0_0_MEMBER_42_FILL">
<path fill="#D82C26" stroke="none" d="
M 27.55 10.6
L 27.25 10.6 27.25 13.4 27.6 13.4 27.6 12
Q 27.6 11.65 27.75 11.35 27.8 11.15 28.1 10.95 28.25 10.8 28.55 10.8 28.95 10.8 29.15 11.1 29.3 11.4 29.3 11.8
L 29.3 13.4 29.65 13.4 29.65 11.7
Q 29.65 11.15 29.4 10.85 29.15 10.5 28.6 10.5 28.4 10.5 28 10.7 27.75 10.9 27.6 11.2
L 27.55 10.6 Z"/>
</g>

<g id="BDM_200x200_FR_psd_Asset_5_V6_1_Vous_cherchez_des__fa_ons_plus_novatrices__de_communiquer_avec__0_Layer0_0_MEMBER_43_FILL">
<path fill="#D82C26" stroke="none" d="
M 30.4 9.65
L 30.6 9.75 30.75 9.65 30.85 9.5 30.75 9.3 30.6 9.25 30.4 9.3 30.35 9.5 30.4 9.65
M 30.75 10.6
L 30.4 10.6 30.4 13.4 30.75 13.4 30.75 10.6 Z"/>
</g>

<g id="BDM_200x200_FR_psd_Asset_5_V6_1_Vous_cherchez_des__fa_ons_plus_novatrices__de_communiquer_avec__0_Layer0_0_MEMBER_44_FILL">
<path fill="#D82C26" stroke="none" d="
M 31.55 11.25
Q 31.35 11.6 31.35 12 31.35 12.5 31.55 12.75 31.7 13.1 32.05 13.3 32.3 13.5 32.75 13.5 33.1 13.5 33.45 13.3 33.75 13.15 33.9 12.8
L 33.9 14.1
Q 33.9 14.7 34.5 14.85
L 34.65 14.55
Q 34.4 14.45 34.35 14.35
L 34.25 14 34.25 11.1 34.3 10.6 33.95 10.6 33.9 11.2
Q 33.75 10.95 33.45 10.7 33.05 10.5 32.75 10.5 32.45 10.5 32.05 10.7 31.75 10.9 31.55 11.25
M 32.2 11
Q 32.45 10.8 32.8 10.8 33.15 10.8 33.4 11
L 33.8 11.4
Q 33.9 11.6 33.9 12 33.9 12.4 33.8 12.6 33.65 12.9 33.4 13.05 33.1 13.2 32.8 13.2 32.5 13.2 32.2 13.05 32 12.95 31.85 12.6 31.7 12.4 31.7 12 31.7 11.7 31.85 11.4
L 32.2 11 Z"/>
</g>

<g id="BDM_200x200_FR_psd_Asset_5_V6_1_Vous_cherchez_des__fa_ons_plus_novatrices__de_communiquer_avec__0_Layer0_0_MEMBER_45_FILL">
<path fill="#D82C26" stroke="none" d="
M 35 10.6
L 35 12.3
Q 35 12.8 35.25 13.15 35.45 13.5 36.05 13.5 36.4 13.5 36.65 13.3 36.85 13.2 37.05 12.8
L 37.1 13.4 37.45 13.4 37.4 13.1 37.4 10.6 37.05 10.6 37.05 12 36.95 12.65
Q 36.85 12.9 36.6 13.05 36.4 13.2 36.1 13.2 35.7 13.2 35.55 12.95 35.35 12.7 35.35 12.25
L 35.35 10.6 35 10.6 Z"/>
</g>

<g id="BDM_200x200_FR_psd_Asset_5_V6_1_Vous_cherchez_des__fa_ons_plus_novatrices__de_communiquer_avec__0_Layer0_0_MEMBER_46_FILL">
<path fill="#D82C26" stroke="none" d="
M 40.7 11.9
Q 40.7 11.5 40.55 11.2 40.4 10.95 40.1 10.7 39.7 10.5 39.4 10.5 39.1 10.5 38.7 10.7 38.35 10.9 38.2 11.25 38 11.5 38 12 38 12.5 38.2 12.75 38.35 13.15 38.7 13.3 38.95 13.5 39.45 13.5 40.15 13.5 40.55 13.15
L 40.5 12.85 40.05 13.1
Q 39.85 13.2 39.45 13.2 39.15 13.2 38.9 13.05 38.7 12.95 38.5 12.65 38.35 12.35 38.35 12.05
L 40.7 12.05 40.7 11.9
M 38.35 11.8
Q 38.35 11.6 38.5 11.35 38.55 11.15 38.85 10.95 39.1 10.8 39.4 10.8 39.75 10.8 40.1 11.05 40.4 11.35 40.4 11.8
L 38.35 11.8 Z"/>
</g>

<g id="BDM_200x200_FR_psd_Asset_5_V6_1_Vous_cherchez_des__fa_ons_plus_novatrices__de_communiquer_avec__0_Layer0_0_MEMBER_47_FILL">
<path fill="#D82C26" stroke="none" d="
M 42.75 10.55
L 42.45 10.5
Q 42.3 10.5 42 10.7 41.7 11 41.65 11.2
L 41.6 10.6 41.25 10.6 41.3 13.4 41.65 13.4 41.65 12
Q 41.65 11.45 41.85 11.2 42.05 10.85 42.45 10.85
L 42.7 10.9 42.75 10.55 Z"/>
</g>

<g id="BDM_200x200_FR_psd_Asset_5_V6_1_Vous_cherchez_des__fa_ons_plus_novatrices__de_communiquer_avec__0_Layer0_0_MEMBER_48_FILL">
<path fill="#D82C26" stroke="none" d="
M 44.95 10.5
L 44.35 10.6 43.9 10.85 44 11.15 44.4 10.9 44.9 10.8
Q 45.3 10.8 45.45 11 45.7 11.15 45.7 11.55
L 45.7 11.75 45.35 11.75
Q 43.75 11.75 43.75 12.65 43.75 13.1 44 13.3 44.3 13.5 44.65 13.5 44.95 13.5 45.25 13.35 45.5 13.2 45.7 12.85
L 45.7 13.15 45.75 13.4 46.05 13.4 46 11.6
Q 46 11.05 45.75 10.8 45.45 10.5 44.95 10.5
M 45.7 11.95
L 45.7 12.25 45.55 12.7
Q 45.45 12.95 45.25 13.1 45.05 13.25 44.7 13.25 44.4 13.25 44.25 13.1 44.05 12.9 44.05 12.65 44.05 11.95 45.4 11.95
L 45.7 11.95 Z"/>
</g>

<g id="BDM_200x200_FR_psd_Asset_5_V6_1_Vous_cherchez_des__fa_ons_plus_novatrices__de_communiquer_avec__0_Layer0_0_MEMBER_49_FILL">
<path fill="#D82C26" stroke="none" d="
M 46.25 10.6
L 47.35 13.4 47.75 13.4 48.8 10.6 48.4 10.6 47.55 13.05 46.65 10.6 46.25 10.6 Z"/>
</g>

<g id="BDM_200x200_FR_psd_Asset_5_V6_1_Vous_cherchez_des__fa_ons_plus_novatrices__de_communiquer_avec__0_Layer0_0_MEMBER_50_FILL">
<path fill="#D82C26" stroke="none" d="
M 51.45 11.2
Q 51.3 10.95 51 10.7 50.6 10.5 50.25 10.5 49.95 10.5 49.55 10.7 49.25 10.95 49.05 11.25 48.9 11.55 48.9 12 48.9 12.45 49.05 12.75 49.3 13.2 49.6 13.3 49.85 13.5 50.3 13.5 51.05 13.5 51.45 13.15
L 51.4 12.85 50.9 13.1
Q 50.75 13.2 50.35 13.2 50.05 13.2 49.75 13.05
L 49.35 12.65
Q 49.2 12.35 49.2 12.05
L 51.6 12.05 51.6 11.9
Q 51.6 11.5 51.45 11.2
M 51 11.05
Q 51.25 11.4 51.25 11.8
L 49.2 11.8 49.35 11.35 49.7 10.95
Q 49.95 10.8 50.25 10.8 50.65 10.8 51 11.05 Z"/>
</g>

<g id="BDM_200x200_FR_psd_Asset_5_V6_1_Vous_cherchez_des__fa_ons_plus_novatrices__de_communiquer_avec__0_Layer0_0_MEMBER_51_FILL">
<path fill="#D82C26" stroke="none" d="
M 52.2 11.25
Q 52 11.5 52 12 52 12.45 52.2 12.8 52.35 13.15 52.7 13.3 53.05 13.5 53.45 13.5
L 54 13.4
Q 54.25 13.35 54.45 13.15
L 54.4 12.85 54 13.1 53.5 13.2
Q 53.2 13.2 52.9 13.05 52.65 12.9 52.5 12.6 52.35 12.3 52.35 12 52.35 11.7 52.5 11.4
L 52.9 11
Q 53.15 10.8 53.5 10.8
L 53.95 10.9 54.3 11.1 54.45 10.85
Q 54.25 10.65 54 10.6
L 53.5 10.5
Q 53.15 10.5 52.75 10.7 52.4 10.9 52.2 11.25 Z"/>
</g>

<g id="BDM_200x200_FR_psd_Asset_5_V6_1_Vous_cherchez_des__fa_ons_plus_novatrices__de_communiquer_avec__0_Layer0_0_MEMBER_52_FILL">
<path fill="#D82C26" stroke="none" d="
M 0.7 19.95
L 1 20.2 1.2 19.9 0.95 19.7 0.9 19.4 0.9 15.55 0.55 15.6 0.55 19.5
Q 0.55 19.8 0.7 19.95 Z"/>
</g>

<g id="BDM_200x200_FR_psd_Asset_5_V6_1_Vous_cherchez_des__fa_ons_plus_novatrices__de_communiquer_avec__0_Layer0_0_MEMBER_53_FILL">
<path fill="#D82C26" stroke="none" d="
M 2.2 17.4
Q 1.8 17.7 1.7 17.95 1.5 18.2 1.5 18.7 1.5 19.15 1.7 19.5 1.85 19.85 2.2 20 2.45 20.2 2.95 20.2 3.65 20.2 4.05 19.85
L 4 19.55
Q 3.8 19.75 3.55 19.8 3.35 19.9 3 19.9 2.65 19.9 2.4 19.75
L 2 19.35
Q 1.85 19.05 1.85 18.75
L 4.25 18.75 4.25 18.6
Q 4.25 18.3 4.1 17.9 4 17.7 3.6 17.4 3.2 17.2 2.9 17.2 2.6 17.2 2.2 17.4
M 1.85 18.5
Q 1.85 18.3 2 18.05 2.05 17.85 2.35 17.65 2.6 17.5 2.9 17.5 3.4 17.5 3.6 17.8 3.9 18.05 3.9 18.5
L 1.85 18.5 Z"/>
</g>

<g id="BDM_200x200_FR_psd_Asset_5_V6_1_Vous_cherchez_des__fa_ons_plus_novatrices__de_communiquer_avec__0_Layer0_0_MEMBER_54_FILL">
<path fill="#D82C26" stroke="none" d="
M 5.55 17.2
L 5.15 17.3
Q 4.85 17.4 4.8 17.6 4.65 17.75 4.65 18 4.65 18.3 4.85 18.5
L 6.05 19.05
Q 6.2 19.2 6.2 19.4 6.2 19.65 6.05 19.8 5.9 19.9 5.6 19.9 5.05 19.9 4.65 19.6
L 4.6 19.9 5 20.1 5.6 20.2 6.05 20.1
Q 6.3 20 6.4 19.85
L 6.55 19.4
Q 6.55 19.05 6.35 18.9 6.15 18.7 5.7 18.55 5.25 18.4 5.15 18.3 4.95 18.2 4.95 18 4.95 17.75 5.15 17.65 5.3 17.5 5.6 17.5
L 6 17.6 6.3 17.8 6.45 17.5 6.05 17.3 5.55 17.2 Z"/>
</g>

<g id="BDM_200x200_FR_psd_Asset_5_V6_1_Vous_cherchez_des__fa_ons_plus_novatrices__de_communiquer_avec__0_Layer0_0_MEMBER_55_FILL">
<path fill="#D82C26" stroke="none" d="
M 8.5 17.4
Q 8.1 17.7 8 17.95 7.8 18.3 7.8 18.7 7.8 19.15 8 19.5 8.15 19.85 8.5 20 8.75 20.2 9.25 20.2
L 9.8 20.1 10.2 19.85 10.15 19.55
Q 10.05 19.7 9.75 19.8
L 9.3 19.9
Q 8.95 19.9 8.7 19.75 8.45 19.65 8.3 19.3 8.15 19.1 8.15 18.7 8.15 18.4 8.3 18.1 8.5 17.8 8.7 17.7 9 17.5 9.25 17.5
L 9.7 17.6
Q 9.95 17.7 10.05 17.85
L 10.2 17.55 9.8 17.3 9.25 17.2
Q 9 17.2 8.5 17.4 Z"/>
</g>

<g id="BDM_200x200_FR_psd_Asset_5_V6_1_Vous_cherchez_des__fa_ons_plus_novatrices__de_communiquer_avec__0_Layer0_0_MEMBER_56_FILL">
<path fill="#D82C26" stroke="none" d="
M 10.8 19.95
Q 10.9 20.15 11.1 20.2
L 11.25 19.9 11.05 19.7 11 19.4 11 15.55 10.65 15.6 10.65 19.5
Q 10.65 19.8 10.8 19.95 Z"/>
</g>

<g id="BDM_200x200_FR_psd_Asset_5_V6_1_Vous_cherchez_des__fa_ons_plus_novatrices__de_communiquer_avec__0_Layer0_0_MEMBER_57_FILL">
<path fill="#D82C26" stroke="none" d="
M 12.15 17.3
L 11.8 17.3 11.8 20.1 12.15 20.1 12.15 17.3
M 12 16.45
L 12.15 16.35 12.25 16.2 12.15 16 12 15.95 11.8 16 11.75 16.2 11.8 16.35 12 16.45 Z"/>
</g>

<g id="BDM_200x200_FR_psd_Asset_5_V6_1_Vous_cherchez_des__fa_ons_plus_novatrices__de_communiquer_avec__0_Layer0_0_MEMBER_58_FILL">
<path fill="#D82C26" stroke="none" d="
M 13.45 17.4
Q 13.1 17.6 12.95 17.95 12.75 18.2 12.75 18.7 12.75 19.15 12.95 19.5 13.15 19.9 13.45 20 13.7 20.2 14.2 20.2 14.9 20.2 15.3 19.85
L 15.25 19.55 14.8 19.8
Q 14.6 19.9 14.2 19.9 13.9 19.9 13.65 19.75 13.45 19.65 13.25 19.35 13.1 19.05 13.1 18.75
L 15.45 18.75 15.45 18.6
Q 15.45 18.3 15.3 17.9 15.15 17.65 14.85 17.4 14.45 17.2 14.15 17.2 13.85 17.2 13.45 17.4
M 13.25 18.05
Q 13.3 17.85 13.6 17.65 13.85 17.5 14.15 17.5 14.65 17.5 14.85 17.8 15.15 18.05 15.15 18.5
L 13.1 18.5
Q 13.1 18.3 13.25 18.05 Z"/>
</g>

<g id="BDM_200x200_FR_psd_Asset_5_V6_1_Vous_cherchez_des__fa_ons_plus_novatrices__de_communiquer_avec__0_Layer0_0_MEMBER_59_FILL">
<path fill="#D82C26" stroke="none" d="
M 16.35 17.3
L 16.05 17.3 16.05 20.1 16.4 20.1 16.4 18.7
Q 16.4 18.35 16.55 18.05 16.6 17.9 16.85 17.65 17.1 17.5 17.35 17.5 17.75 17.5 17.95 17.8 18.1 18.1 18.1 18.5
L 18.1 20.1 18.45 20.1 18.45 18.4
Q 18.45 17.85 18.2 17.55 18 17.25 17.4 17.25 17.1 17.25 16.8 17.4 16.55 17.6 16.4 17.9
L 16.35 17.3 Z"/>
</g>

<g id="BDM_200x200_FR_psd_Asset_5_V6_1_Vous_cherchez_des__fa_ons_plus_novatrices__de_communiquer_avec__0_Layer0_0_MEMBER_60_FILL">
<path fill="#D82C26" stroke="none" d="
M 20.25 20.15
L 20.5 20.05 20.45 19.75
Q 20.25 19.9 20 19.9
L 19.7 19.75 19.6 19.4 19.6 17.6 20.35 17.6 20.4 17.3 19.6 17.3 19.6 16.5 19.25 16.65 19.25 17.3 18.8 17.3 18.75 17.6 19.25 17.6 19.25 19.45
Q 19.25 19.8 19.45 20 19.65 20.2 19.9 20.2
L 20.25 20.15 Z"/>
</g>

<g id="BDM_200x200_FR_psd_Asset_5_V6_1_Vous_cherchez_des__fa_ons_plus_novatrices__de_communiquer_avec__0_Layer0_0_MEMBER_61_FILL">
<path fill="#D82C26" stroke="none" d="
M 20.85 18
Q 20.85 18.3 21 18.5
L 21.65 18.8
Q 22.15 19 22.2 19.05 22.4 19.2 22.4 19.4 22.4 19.65 22.2 19.8 22.1 19.9 21.75 19.9 21.25 19.9 20.85 19.6
L 20.75 19.9 21.2 20.1 21.8 20.2 22.25 20.1 22.6 19.85 22.75 19.4
Q 22.75 19.1 22.55 18.9 22.4 18.75 21.85 18.55 21.35 18.35 21.3 18.3 21.15 18.25 21.15 18 21.15 17.7 21.35 17.65 21.5 17.5 21.75 17.5
L 22.15 17.6 22.5 17.8 22.65 17.5 22.25 17.3 21.75 17.2 21.3 17.3
Q 21.1 17.35 20.95 17.6 20.85 17.7 20.85 18 Z"/>
</g>

<g id="BDM_200x200_FR_psd_Asset_5_V6_1_Vous_cherchez_des__fa_ons_plus_novatrices__de_communiquer_avec__0_Layer0_0_MEMBER_62_FILL">
<path fill="#D82C26" stroke="none" d="
M 24.4 16.3
Q 24.65 16.45 24.65 16.8
L 24.55 17.15
Q 24.55 17.25 24.4 17.4
L 24.1 17.75
Q 23.85 17.95 23.75 18.2 23.65 18.35 23.65 18.7
L 23.65 18.9 24 18.9 24 18.45
Q 24.1 18.2 24.15 18.2
L 24.4 17.85 24.75 17.55 24.95 17.2 25 16.8
Q 25 16.5 24.85 16.25 24.65 15.95 24.45 15.9 24.15 15.75 23.85 15.75 23.45 15.75 23.15 15.9 22.8 16.1 22.65 16.3
L 22.8 16.55 23.25 16.2 23.8 16.1
Q 24.2 16.1 24.4 16.3
M 23.55 19.9
L 23.65 20.1 23.85 20.15 24 20.1 24.1 19.9 24 19.7 23.85 19.6 23.65 19.7 23.55 19.9 Z"/>
</g>
</defs>

<g transform="matrix( 1, 0, 0, 1, -16,8) ">
<g transform="matrix( 1, 0, 0, 1, 8,4) ">
<g transform="matrix( 1, 0, 0, 1, 24,7) ">
<g transform="matrix( 2.815704345703125, 0, 0, 2.832611083984375, 0.15,13.6) ">
<use xlink:href="#BDM_200x200_FR_psd_Asset_5_V6_1_Vous_cherchez_des__fa_ons_plus_novatrices__de_communiquer_avec__0_Layer0_0_MEMBER_0_FILL"/>
</g>

<g transform="matrix( 2.815704345703125, 0, 0, 2.832611083984375, 0.15,13.6) ">
<use xlink:href="#BDM_200x200_FR_psd_Asset_5_V6_1_Vous_cherchez_des__fa_ons_plus_novatrices__de_communiquer_avec__0_Layer0_0_MEMBER_1_FILL"/>
</g>

<g transform="matrix( 2.815704345703125, 0, 0, 2.832611083984375, 0.15,13.6) ">
<use xlink:href="#BDM_200x200_FR_psd_Asset_5_V6_1_Vous_cherchez_des__fa_ons_plus_novatrices__de_communiquer_avec__0_Layer0_0_MEMBER_2_FILL"/>
</g>

<g transform="matrix( 2.815704345703125, 0, 0, 2.832611083984375, 0.15,13.6) ">
<use xlink:href="#BDM_200x200_FR_psd_Asset_5_V6_1_Vous_cherchez_des__fa_ons_plus_novatrices__de_communiquer_avec__0_Layer0_0_MEMBER_3_FILL"/>
</g>

<g transform="matrix( 2.815704345703125, 0, 0, 2.832611083984375, 0.15,13.6) ">
<use xlink:href="#BDM_200x200_FR_psd_Asset_5_V6_1_Vous_cherchez_des__fa_ons_plus_novatrices__de_communiquer_avec__0_Layer0_0_MEMBER_4_FILL"/>
</g>

<g transform="matrix( 2.815704345703125, 0, 0, 2.832611083984375, 0.15,13.6) ">
<use xlink:href="#BDM_200x200_FR_psd_Asset_5_V6_1_Vous_cherchez_des__fa_ons_plus_novatrices__de_communiquer_avec__0_Layer0_0_MEMBER_5_FILL"/>
</g>

<g transform="matrix( 2.815704345703125, 0, 0, 2.832611083984375, 0.15,13.6) ">
<use xlink:href="#BDM_200x200_FR_psd_Asset_5_V6_1_Vous_cherchez_des__fa_ons_plus_novatrices__de_communiquer_avec__0_Layer0_0_MEMBER_6_FILL"/>
</g>

<g transform="matrix( 2.815704345703125, 0, 0, 2.832611083984375, 0.15,13.6) ">
<use xlink:href="#BDM_200x200_FR_psd_Asset_5_V6_1_Vous_cherchez_des__fa_ons_plus_novatrices__de_communiquer_avec__0_Layer0_0_MEMBER_7_FILL"/>
</g>

<g transform="matrix( 2.815704345703125, 0, 0, 2.832611083984375, 0.15,13.6) ">
<use xlink:href="#BDM_200x200_FR_psd_Asset_5_V6_1_Vous_cherchez_des__fa_ons_plus_novatrices__de_communiquer_avec__0_Layer0_0_MEMBER_8_FILL"/>
</g>

<g transform="matrix( 2.815704345703125, 0, 0, 2.832611083984375, 0.15,13.6) ">
<use xlink:href="#BDM_200x200_FR_psd_Asset_5_V6_1_Vous_cherchez_des__fa_ons_plus_novatrices__de_communiquer_avec__0_Layer0_0_MEMBER_9_FILL"/>
</g>

<g transform="matrix( 2.815704345703125, 0, 0, 2.832611083984375, 0.15,13.6) ">
<use xlink:href="#BDM_200x200_FR_psd_Asset_5_V6_1_Vous_cherchez_des__fa_ons_plus_novatrices__de_communiquer_avec__0_Layer0_0_MEMBER_10_FILL"/>
</g>

<g transform="matrix( 2.815704345703125, 0, 0, 2.832611083984375, 0.15,13.6) ">
<use xlink:href="#BDM_200x200_FR_psd_Asset_5_V6_1_Vous_cherchez_des__fa_ons_plus_novatrices__de_communiquer_avec__0_Layer0_0_MEMBER_11_FILL"/>
</g>

<g transform="matrix( 2.815704345703125, 0, 0, 2.832611083984375, 0.15,13.6) ">
<use xlink:href="#BDM_200x200_FR_psd_Asset_5_V6_1_Vous_cherchez_des__fa_ons_plus_novatrices__de_communiquer_avec__0_Layer0_0_MEMBER_12_FILL"/>
</g>

<g transform="matrix( 2.815704345703125, 0, 0, 2.832611083984375, 0.15,13.6) ">
<use xlink:href="#BDM_200x200_FR_psd_Asset_5_V6_1_Vous_cherchez_des__fa_ons_plus_novatrices__de_communiquer_avec__0_Layer0_0_MEMBER_13_FILL"/>
</g>

<g transform="matrix( 2.815704345703125, 0, 0, 2.832611083984375, 0.15,13.6) ">
<use xlink:href="#BDM_200x200_FR_psd_Asset_5_V6_1_Vous_cherchez_des__fa_ons_plus_novatrices__de_communiquer_avec__0_Layer0_0_MEMBER_14_FILL"/>
</g>

<g transform="matrix( 2.815704345703125, 0, 0, 2.832611083984375, 0.15,13.6) ">
<use xlink:href="#BDM_200x200_FR_psd_Asset_5_V6_1_Vous_cherchez_des__fa_ons_plus_novatrices__de_communiquer_avec__0_Layer0_0_MEMBER_15_FILL"/>
</g>

<g transform="matrix( 2.815704345703125, 0, 0, 2.832611083984375, 0.15,13.6) ">
<use xlink:href="#BDM_200x200_FR_psd_Asset_5_V6_1_Vous_cherchez_des__fa_ons_plus_novatrices__de_communiquer_avec__0_Layer0_0_MEMBER_16_FILL"/>
</g>

<g transform="matrix( 2.815704345703125, 0, 0, 2.832611083984375, 0.15,13.6) ">
<use xlink:href="#BDM_200x200_FR_psd_Asset_5_V6_1_Vous_cherchez_des__fa_ons_plus_novatrices__de_communiquer_avec__0_Layer0_0_MEMBER_17_FILL"/>
</g>

<g transform="matrix( 2.815704345703125, 0, 0, 2.832611083984375, 0.15,13.6) ">
<use xlink:href="#BDM_200x200_FR_psd_Asset_5_V6_1_Vous_cherchez_des__fa_ons_plus_novatrices__de_communiquer_avec__0_Layer0_0_MEMBER_18_FILL"/>
</g>

<g transform="matrix( 2.815704345703125, 0, 0, 2.832611083984375, 0.15,13.6) ">
<use xlink:href="#BDM_200x200_FR_psd_Asset_5_V6_1_Vous_cherchez_des__fa_ons_plus_novatrices__de_communiquer_avec__0_Layer0_0_MEMBER_19_FILL"/>
</g>

<g transform="matrix( 2.815704345703125, 0, 0, 2.832611083984375, 0.15,13.6) ">
<use xlink:href="#BDM_200x200_FR_psd_Asset_5_V6_1_Vous_cherchez_des__fa_ons_plus_novatrices__de_communiquer_avec__0_Layer0_0_MEMBER_20_FILL"/>
</g>

<g transform="matrix( 2.815704345703125, 0, 0, 2.832611083984375, 0.15,13.6) ">
<use xlink:href="#BDM_200x200_FR_psd_Asset_5_V6_1_Vous_cherchez_des__fa_ons_plus_novatrices__de_communiquer_avec__0_Layer0_0_MEMBER_21_FILL"/>
</g>

<g transform="matrix( 2.815704345703125, 0, 0, 2.832611083984375, 0.15,13.6) ">
<use xlink:href="#BDM_200x200_FR_psd_Asset_5_V6_1_Vous_cherchez_des__fa_ons_plus_novatrices__de_communiquer_avec__0_Layer0_0_MEMBER_22_FILL"/>
</g>

<g transform="matrix( 2.815704345703125, 0, 0, 2.832611083984375, 0.15,13.6) ">
<use xlink:href="#BDM_200x200_FR_psd_Asset_5_V6_1_Vous_cherchez_des__fa_ons_plus_novatrices__de_communiquer_avec__0_Layer0_0_MEMBER_23_FILL"/>
</g>

<g transform="matrix( 2.815704345703125, 0, 0, 2.832611083984375, 0.15,13.6) ">
<use xlink:href="#BDM_200x200_FR_psd_Asset_5_V6_1_Vous_cherchez_des__fa_ons_plus_novatrices__de_communiquer_avec__0_Layer0_0_MEMBER_24_FILL"/>
</g>

<g transform="matrix( 2.815704345703125, 0, 0, 2.832611083984375, 0.15,13.6) ">
<use xlink:href="#BDM_200x200_FR_psd_Asset_5_V6_1_Vous_cherchez_des__fa_ons_plus_novatrices__de_communiquer_avec__0_Layer0_0_MEMBER_25_FILL"/>
</g>

<g transform="matrix( 2.815704345703125, 0, 0, 2.832611083984375, 0.15,13.6) ">
<use xlink:href="#BDM_200x200_FR_psd_Asset_5_V6_1_Vous_cherchez_des__fa_ons_plus_novatrices__de_communiquer_avec__0_Layer0_0_MEMBER_26_FILL"/>
</g>

<g transform="matrix( 2.815704345703125, 0, 0, 2.832611083984375, 0.15,13.6) ">
<use xlink:href="#BDM_200x200_FR_psd_Asset_5_V6_1_Vous_cherchez_des__fa_ons_plus_novatrices__de_communiquer_avec__0_Layer0_0_MEMBER_27_FILL"/>
</g>

<g transform="matrix( 2.815704345703125, 0, 0, 2.832611083984375, 0.15,13.6) ">
<use xlink:href="#BDM_200x200_FR_psd_Asset_5_V6_1_Vous_cherchez_des__fa_ons_plus_novatrices__de_communiquer_avec__0_Layer0_0_MEMBER_28_FILL"/>
</g>

<g transform="matrix( 2.815704345703125, 0, 0, 2.832611083984375, 0.15,13.6) ">
<use xlink:href="#BDM_200x200_FR_psd_Asset_5_V6_1_Vous_cherchez_des__fa_ons_plus_novatrices__de_communiquer_avec__0_Layer0_0_MEMBER_29_FILL"/>
</g>

<g transform="matrix( 2.815704345703125, 0, 0, 2.832611083984375, 0.15,13.6) ">
<use xlink:href="#BDM_200x200_FR_psd_Asset_5_V6_1_Vous_cherchez_des__fa_ons_plus_novatrices__de_communiquer_avec__0_Layer0_0_MEMBER_30_FILL"/>
</g>

<g transform="matrix( 2.815704345703125, 0, 0, 2.832611083984375, 0.15,13.6) ">
<use xlink:href="#BDM_200x200_FR_psd_Asset_5_V6_1_Vous_cherchez_des__fa_ons_plus_novatrices__de_communiquer_avec__0_Layer0_0_MEMBER_31_FILL"/>
</g>

<g transform="matrix( 2.815704345703125, 0, 0, 2.832611083984375, 0.15,13.6) ">
<use xlink:href="#BDM_200x200_FR_psd_Asset_5_V6_1_Vous_cherchez_des__fa_ons_plus_novatrices__de_communiquer_avec__0_Layer0_0_MEMBER_32_FILL"/>
</g>

<g transform="matrix( 2.815704345703125, 0, 0, 2.832611083984375, 0.15,13.6) ">
<use xlink:href="#BDM_200x200_FR_psd_Asset_5_V6_1_Vous_cherchez_des__fa_ons_plus_novatrices__de_communiquer_avec__0_Layer0_0_MEMBER_33_FILL"/>
</g>

<g transform="matrix( 2.815704345703125, 0, 0, 2.832611083984375, 0.15,13.6) ">
<use xlink:href="#BDM_200x200_FR_psd_Asset_5_V6_1_Vous_cherchez_des__fa_ons_plus_novatrices__de_communiquer_avec__0_Layer0_0_MEMBER_34_FILL"/>
</g>

<g transform="matrix( 2.815704345703125, 0, 0, 2.832611083984375, 0.15,13.6) ">
<use xlink:href="#BDM_200x200_FR_psd_Asset_5_V6_1_Vous_cherchez_des__fa_ons_plus_novatrices__de_communiquer_avec__0_Layer0_0_MEMBER_35_FILL"/>
</g>

<g transform="matrix( 2.815704345703125, 0, 0, 2.832611083984375, 0.15,13.6) ">
<use xlink:href="#BDM_200x200_FR_psd_Asset_5_V6_1_Vous_cherchez_des__fa_ons_plus_novatrices__de_communiquer_avec__0_Layer0_0_MEMBER_36_FILL"/>
</g>

<g transform="matrix( 2.815704345703125, 0, 0, 2.832611083984375, 0.15,13.6) ">
<use xlink:href="#BDM_200x200_FR_psd_Asset_5_V6_1_Vous_cherchez_des__fa_ons_plus_novatrices__de_communiquer_avec__0_Layer0_0_MEMBER_37_FILL"/>
</g>

<g transform="matrix( 2.815704345703125, 0, 0, 2.832611083984375, 0.15,13.6) ">
<use xlink:href="#BDM_200x200_FR_psd_Asset_5_V6_1_Vous_cherchez_des__fa_ons_plus_novatrices__de_communiquer_avec__0_Layer0_0_MEMBER_38_FILL"/>
</g>

<g transform="matrix( 2.815704345703125, 0, 0, 2.832611083984375, 0.15,13.6) ">
<use xlink:href="#BDM_200x200_FR_psd_Asset_5_V6_1_Vous_cherchez_des__fa_ons_plus_novatrices__de_communiquer_avec__0_Layer0_0_MEMBER_39_FILL"/>
</g>

<g transform="matrix( 2.815704345703125, 0, 0, 2.832611083984375, 0.15,13.6) ">
<use xlink:href="#BDM_200x200_FR_psd_Asset_5_V6_1_Vous_cherchez_des__fa_ons_plus_novatrices__de_communiquer_avec__0_Layer0_0_MEMBER_40_FILL"/>
</g>

<g transform="matrix( 2.815704345703125, 0, 0, 2.832611083984375, 0.15,13.6) ">
<use xlink:href="#BDM_200x200_FR_psd_Asset_5_V6_1_Vous_cherchez_des__fa_ons_plus_novatrices__de_communiquer_avec__0_Layer0_0_MEMBER_41_FILL"/>
</g>

<g transform="matrix( 2.815704345703125, 0, 0, 2.832611083984375, 0.15,13.6) ">
<use xlink:href="#BDM_200x200_FR_psd_Asset_5_V6_1_Vous_cherchez_des__fa_ons_plus_novatrices__de_communiquer_avec__0_Layer0_0_MEMBER_42_FILL"/>
</g>

<g transform="matrix( 2.815704345703125, 0, 0, 2.832611083984375, 0.15,13.6) ">
<use xlink:href="#BDM_200x200_FR_psd_Asset_5_V6_1_Vous_cherchez_des__fa_ons_plus_novatrices__de_communiquer_avec__0_Layer0_0_MEMBER_43_FILL"/>
</g>

<g transform="matrix( 2.815704345703125, 0, 0, 2.832611083984375, 0.15,13.6) ">
<use xlink:href="#BDM_200x200_FR_psd_Asset_5_V6_1_Vous_cherchez_des__fa_ons_plus_novatrices__de_communiquer_avec__0_Layer0_0_MEMBER_44_FILL"/>
</g>

<g transform="matrix( 2.815704345703125, 0, 0, 2.832611083984375, 0.15,13.6) ">
<use xlink:href="#BDM_200x200_FR_psd_Asset_5_V6_1_Vous_cherchez_des__fa_ons_plus_novatrices__de_communiquer_avec__0_Layer0_0_MEMBER_45_FILL"/>
</g>

<g transform="matrix( 2.815704345703125, 0, 0, 2.832611083984375, 0.15,13.6) ">
<use xlink:href="#BDM_200x200_FR_psd_Asset_5_V6_1_Vous_cherchez_des__fa_ons_plus_novatrices__de_communiquer_avec__0_Layer0_0_MEMBER_46_FILL"/>
</g>

<g transform="matrix( 2.815704345703125, 0, 0, 2.832611083984375, 0.15,13.6) ">
<use xlink:href="#BDM_200x200_FR_psd_Asset_5_V6_1_Vous_cherchez_des__fa_ons_plus_novatrices__de_communiquer_avec__0_Layer0_0_MEMBER_47_FILL"/>
</g>

<g transform="matrix( 2.815704345703125, 0, 0, 2.832611083984375, 0.15,13.6) ">
<use xlink:href="#BDM_200x200_FR_psd_Asset_5_V6_1_Vous_cherchez_des__fa_ons_plus_novatrices__de_communiquer_avec__0_Layer0_0_MEMBER_48_FILL"/>
</g>

<g transform="matrix( 2.815704345703125, 0, 0, 2.832611083984375, 0.15,13.6) ">
<use xlink:href="#BDM_200x200_FR_psd_Asset_5_V6_1_Vous_cherchez_des__fa_ons_plus_novatrices__de_communiquer_avec__0_Layer0_0_MEMBER_49_FILL"/>
</g>

<g transform="matrix( 2.815704345703125, 0, 0, 2.832611083984375, 0.15,13.6) ">
<use xlink:href="#BDM_200x200_FR_psd_Asset_5_V6_1_Vous_cherchez_des__fa_ons_plus_novatrices__de_communiquer_avec__0_Layer0_0_MEMBER_50_FILL"/>
</g>

<g transform="matrix( 2.815704345703125, 0, 0, 2.832611083984375, 0.15,13.6) ">
<use xlink:href="#BDM_200x200_FR_psd_Asset_5_V6_1_Vous_cherchez_des__fa_ons_plus_novatrices__de_communiquer_avec__0_Layer0_0_MEMBER_51_FILL"/>
</g>

<g transform="matrix( 2.815704345703125, 0, 0, 2.832611083984375, 0.15,13.6) ">
<use xlink:href="#BDM_200x200_FR_psd_Asset_5_V6_1_Vous_cherchez_des__fa_ons_plus_novatrices__de_communiquer_avec__0_Layer0_0_MEMBER_52_FILL"/>
</g>

<g transform="matrix( 2.815704345703125, 0, 0, 2.832611083984375, 0.15,13.6) ">
<use xlink:href="#BDM_200x200_FR_psd_Asset_5_V6_1_Vous_cherchez_des__fa_ons_plus_novatrices__de_communiquer_avec__0_Layer0_0_MEMBER_53_FILL"/>
</g>

<g transform="matrix( 2.815704345703125, 0, 0, 2.832611083984375, 0.15,13.6) ">
<use xlink:href="#BDM_200x200_FR_psd_Asset_5_V6_1_Vous_cherchez_des__fa_ons_plus_novatrices__de_communiquer_avec__0_Layer0_0_MEMBER_54_FILL"/>
</g>

<g transform="matrix( 2.815704345703125, 0, 0, 2.832611083984375, 0.15,13.6) ">
<use xlink:href="#BDM_200x200_FR_psd_Asset_5_V6_1_Vous_cherchez_des__fa_ons_plus_novatrices__de_communiquer_avec__0_Layer0_0_MEMBER_55_FILL"/>
</g>

<g transform="matrix( 2.815704345703125, 0, 0, 2.832611083984375, 0.15,13.6) ">
<use xlink:href="#BDM_200x200_FR_psd_Asset_5_V6_1_Vous_cherchez_des__fa_ons_plus_novatrices__de_communiquer_avec__0_Layer0_0_MEMBER_56_FILL"/>
</g>

<g transform="matrix( 2.815704345703125, 0, 0, 2.832611083984375, 0.15,13.6) ">
<use xlink:href="#BDM_200x200_FR_psd_Asset_5_V6_1_Vous_cherchez_des__fa_ons_plus_novatrices__de_communiquer_avec__0_Layer0_0_MEMBER_57_FILL"/>
</g>

<g transform="matrix( 2.815704345703125, 0, 0, 2.832611083984375, 0.15,13.6) ">
<use xlink:href="#BDM_200x200_FR_psd_Asset_5_V6_1_Vous_cherchez_des__fa_ons_plus_novatrices__de_communiquer_avec__0_Layer0_0_MEMBER_58_FILL"/>
</g>

<g transform="matrix( 2.815704345703125, 0, 0, 2.832611083984375, 0.15,13.6) ">
<use xlink:href="#BDM_200x200_FR_psd_Asset_5_V6_1_Vous_cherchez_des__fa_ons_plus_novatrices__de_communiquer_avec__0_Layer0_0_MEMBER_59_FILL"/>
</g>

<g transform="matrix( 2.815704345703125, 0, 0, 2.832611083984375, 0.15,13.6) ">
<use xlink:href="#BDM_200x200_FR_psd_Asset_5_V6_1_Vous_cherchez_des__fa_ons_plus_novatrices__de_communiquer_avec__0_Layer0_0_MEMBER_60_FILL"/>
</g>

<g transform="matrix( 2.815704345703125, 0, 0, 2.832611083984375, 0.15,13.6) ">
<use xlink:href="#BDM_200x200_FR_psd_Asset_5_V6_1_Vous_cherchez_des__fa_ons_plus_novatrices__de_communiquer_avec__0_Layer0_0_MEMBER_61_FILL"/>
</g>

<g transform="matrix( 2.815704345703125, 0, 0, 2.832611083984375, 0.15,13.6) ">
<use xlink:href="#BDM_200x200_FR_psd_Asset_5_V6_1_Vous_cherchez_des__fa_ons_plus_novatrices__de_communiquer_avec__0_Layer0_0_MEMBER_62_FILL"/>
</g>
</g>
</g>
</g>
</svg>
