
<svg xmlns="http://www.w3.org/2000/svg" version="1.1" xmlns:xlink="http://www.w3.org/1999/xlink" preserveAspectRatio="none" x="0px" y="0px" width="336px" height="280px" viewBox="0 0 336 280">
<defs>
<g id="BDM_336x280_psd_Asset_ManagedWiFi_Awareness_DM7_3_to_individual_customer__spending_habits__0_Layer0_0_MEMBER_0_FILL">
<path fill="#D82C26" stroke="none" d="
M 0.85 -3.95
L 0.2 -3.95 0.1 -3.6 0.85 -3.6 0.85 -0.95
Q 0.85 -0.45 1.1 -0.2 1.35 0.1 1.75 0.1
L 2.2 0.05 2.6 -0.15 2.55 -0.5
Q 2.05 -0.3 1.9 -0.3 1.7 -0.3 1.5 -0.5 1.35 -0.65 1.35 -1.05
L 1.35 -3.6 2.35 -3.6 2.45 -3.95 1.35 -3.95 1.35 -5.1 0.85 -4.9 0.85 -3.95 Z"/>
</g>

<g id="BDM_336x280_psd_Asset_ManagedWiFi_Awareness_DM7_3_to_individual_customer__spending_habits__0_Layer0_0_MEMBER_1_FILL">
<path fill="#D82C26" stroke="none" d="
M 3.95 -3.85
Q 3.5 -3.55 3.2 -3.1 2.9 -2.55 2.9 -2 2.9 -1.4 3.2 -0.9 3.5 -0.45 3.95 -0.15 4.35 0.1 5.05 0.1 5.75 0.1 6.1 -0.15 6.6 -0.45 6.9 -0.9 7.15 -1.5 7.15 -2 7.15 -2.5 6.9 -3.1 6.6 -3.55 6.1 -3.85 5.6 -4.1 5.05 -4.1 4.45 -4.1 3.95 -3.85
M 4.2 -3.45
Q 4.55 -3.65 5.05 -3.65 5.55 -3.65 5.9 -3.45 6.2 -3.25 6.45 -2.85 6.65 -2.5 6.65 -2 6.65 -1.5 6.45 -1.15 6.3 -0.8 5.9 -0.55 5.5 -0.3 5.05 -0.3 4.6 -0.3 4.2 -0.55 3.85 -0.75 3.6 -1.15 3.4 -1.65 3.4 -2 3.4 -2.35 3.6 -2.85 3.85 -3.2 4.2 -3.45 Z"/>
</g>

<g id="BDM_336x280_psd_Asset_ManagedWiFi_Awareness_DM7_3_to_individual_customer__spending_habits__0_Layer0_0_MEMBER_2_FILL">
<path fill="#D82C26" stroke="none" d="
M 10.35 -3.95
L 9.85 -3.95 9.85 0 10.35 0 10.35 -3.95
M 9.85 -5.3
L 10.1 -5.2 10.35 -5.3 10.45 -5.55 10.35 -5.8
Q 10.3 -5.9 10.1 -5.9 9.9 -5.9 9.85 -5.8
L 9.75 -5.55 9.85 -5.3 Z"/>
</g>

<g id="BDM_336x280_psd_Asset_ManagedWiFi_Awareness_DM7_3_to_individual_customer__spending_habits__0_Layer0_0_MEMBER_3_FILL">
<path fill="#D82C26" stroke="none" d="
M 13.55 -4.1
Q 13.1 -4.1 12.7 -3.8 12.3 -3.55 12.15 -3.1
L 12.1 -3.1 12.05 -3.95 11.6 -3.95 11.65 0 12.15 0 12.15 -2
Q 12.15 -2.5 12.3 -2.9 12.55 -3.35 12.8 -3.45 13.05 -3.65 13.45 -3.65 14.1 -3.65 14.3 -3.25 14.55 -2.85 14.55 -2.3
L 14.55 0 15.05 0 15.05 -2.4
Q 15.05 -3.05 14.7 -3.6 14.35 -4.1 13.55 -4.1 Z"/>
</g>

<g id="BDM_336x280_psd_Asset_ManagedWiFi_Awareness_DM7_3_to_individual_customer__spending_habits__0_Layer0_0_MEMBER_4_FILL">
<path fill="#D82C26" stroke="none" d="
M 20.15 -6.5
L 19.65 -6.4 19.65 -3.1
Q 19.3 -3.6 18.95 -3.85 18.45 -4.1 18 -4.1 17.45 -4.1 17 -3.8 16.55 -3.5 16.25 -3.05 16 -2.55 16 -2 16 -1.5 16.25 -0.9 16.55 -0.45 17 -0.15 17.5 0.1 18 0.1 18.6 0.1 18.95 -0.15 19.4 -0.4 19.65 -0.85
L 19.7 0 20.2 0 20.15 -6.5
M 18.1 -3.65
Q 18.55 -3.65 18.9 -3.45 19.2 -3.25 19.45 -2.85 19.65 -2.45 19.65 -2 19.65 -1.5 19.45 -1.15 19.2 -0.75 18.9 -0.55 18.5 -0.3 18.1 -0.3 17.65 -0.3 17.25 -0.55 16.95 -0.75 16.7 -1.15 16.5 -1.65 16.5 -2 16.5 -2.25 16.7 -2.85 16.95 -3.25 17.25 -3.45 17.6 -3.65 18.1 -3.65 Z"/>
</g>

<g id="BDM_336x280_psd_Asset_ManagedWiFi_Awareness_DM7_3_to_individual_customer__spending_habits__0_Layer0_0_MEMBER_5_FILL">
<path fill="#D82C26" stroke="none" d="
M 21.9 -3.95
L 21.4 -3.95 21.4 0 21.9 0 21.9 -3.95
M 21.65 -5.2
L 21.9 -5.3
Q 22 -5.35 22 -5.55 22 -5.75 21.9 -5.8 21.85 -5.9 21.65 -5.9 21.5 -5.9 21.4 -5.8
L 21.3 -5.55 21.4 -5.3 21.65 -5.2 Z"/>
</g>

<g id="BDM_336x280_psd_Asset_ManagedWiFi_Awareness_DM7_3_to_individual_customer__spending_habits__0_Layer0_0_MEMBER_6_FILL">
<path fill="#D82C26" stroke="none" d="
M 23.15 -3.95
L 22.6 -3.95 24.15 0 24.7 0 26.2 -3.95 25.7 -3.95 24.45 -0.5 23.15 -3.95 Z"/>
</g>

<g id="BDM_336x280_psd_Asset_ManagedWiFi_Awareness_DM7_3_to_individual_customer__spending_habits__0_Layer0_0_MEMBER_7_FILL">
<path fill="#D82C26" stroke="none" d="
M 27.4 -3.95
L 26.9 -3.95 26.9 0 27.4 0 27.4 -3.95
M 27.15 -5.2
L 27.4 -5.3
Q 27.5 -5.35 27.5 -5.55 27.5 -5.75 27.4 -5.8 27.35 -5.9 27.15 -5.9 27 -5.9 26.9 -5.8
L 26.8 -5.55 26.9 -5.3 27.15 -5.2 Z"/>
</g>

<g id="BDM_336x280_psd_Asset_ManagedWiFi_Awareness_DM7_3_to_individual_customer__spending_habits__0_Layer0_0_MEMBER_8_FILL">
<path fill="#D82C26" stroke="none" d="
M 28.65 -0.9
Q 29 -0.4 29.4 -0.15 29.9 0.1 30.4 0.1 31 0.1 31.35 -0.15 31.8 -0.4 32.05 -0.85
L 32.1 0 32.6 0 32.55 -6.5 32.05 -6.4 32.05 -3.1 32 -3.1
Q 31.75 -3.55 31.35 -3.85 30.85 -4.1 30.4 -4.1 29.85 -4.1 29.4 -3.8 29 -3.55 28.65 -3.05 28.4 -2.55 28.4 -2 28.4 -1.5 28.65 -0.9
M 29.1 -2.85
Q 29.35 -3.25 29.65 -3.45 30 -3.65 30.5 -3.65 30.95 -3.65 31.3 -3.45 31.6 -3.25 31.85 -2.85 32.05 -2.45 32.05 -2 32.05 -1.5 31.85 -1.15 31.6 -0.75 31.3 -0.55 30.9 -0.3 30.5 -0.3 30.05 -0.3 29.65 -0.55 29.35 -0.75 29.1 -1.15 28.9 -1.65 28.9 -2 28.9 -2.25 29.1 -2.85 Z"/>
</g>

<g id="BDM_336x280_psd_Asset_ManagedWiFi_Awareness_DM7_3_to_individual_customer__spending_habits__0_Layer0_0_MEMBER_9_FILL">
<path fill="#D82C26" stroke="none" d="
M 33.75 -1.55
Q 33.75 -0.95 34.1 -0.35 34.5 0.1 35.2 0.1 35.6 0.1 36.1 -0.15 36.55 -0.5 36.65 -0.85
L 36.75 0 37.25 0 37.15 -0.45 37.15 -3.95 36.65 -3.95 36.65 -2
Q 36.65 -1.45 36.5 -1.1 36.3 -0.75 36 -0.5 35.75 -0.3 35.35 -0.3 34.75 -0.3 34.5 -0.7 34.25 -1.1 34.25 -1.7
L 34.25 -3.95 33.75 -3.95 33.75 -1.55 Z"/>
</g>

<g id="BDM_336x280_psd_Asset_ManagedWiFi_Awareness_DM7_3_to_individual_customer__spending_habits__0_Layer0_0_MEMBER_10_FILL">
<path fill="#D82C26" stroke="none" d="
M 39.1 -3.55
L 39.75 -3.7
Q 40.3 -3.7 40.6 -3.4 40.9 -3.15 40.9 -2.6
L 40.9 -2.4 40.4 -2.4
Q 38.15 -2.4 38.15 -1.05 38.15 -0.5 38.5 -0.2 38.9 0.1 39.4 0.1 39.95 0.1 40.3 -0.1 40.6 -0.25 40.9 -0.75
L 41 0 41.45 0 41.35 -0.85 41.35 -2.6
Q 41.35 -3.35 40.95 -3.7 40.55 -4.1 39.85 -4.1 39.45 -4.1 39.05 -3.95
L 38.35 -3.6 38.5 -3.2
Q 38.7 -3.4 39.1 -3.55
M 40.25 -0.45
Q 39.85 -0.25 39.5 -0.25 39.2 -0.25 38.9 -0.45 38.6 -0.65 38.6 -1.1 38.6 -2.05 40.5 -2.05
L 40.9 -2.05 40.9 -1.65
Q 40.9 -1.3 40.75 -1 40.55 -0.65 40.25 -0.45 Z"/>
</g>

<g id="BDM_336x280_psd_Asset_ManagedWiFi_Awareness_DM7_3_to_individual_customer__spending_habits__0_Layer0_0_MEMBER_11_FILL">
<path fill="#D82C26" stroke="none" d="
M 42.6 -0.9
Q 42.6 -0.45 42.8 -0.25 43 0.05 43.25 0.1
L 43.45 -0.3 43.2 -0.55 43.1 -1 43.1 -6.45 42.6 -6.35 42.6 -0.9 Z"/>
</g>

<g id="BDM_336x280_psd_Asset_ManagedWiFi_Awareness_DM7_3_to_individual_customer__spending_habits__0_Layer0_0_MEMBER_12_FILL">
<path fill="#D82C26" stroke="none" d="
M 49.25 -3.6
Q 49.05 -3.8 48.65 -3.95
L 47.9 -4.1
Q 47.3 -4.1 46.85 -3.8 46.35 -3.55 46.1 -3.05 45.8 -2.6 45.8 -2 45.8 -1.35 46.1 -0.9 46.25 -0.5 46.8 -0.15 47.25 0.1 47.9 0.1
L 48.65 0
Q 49.05 -0.15 49.25 -0.35
L 49.15 -0.8
Q 48.85 -0.5 48.6 -0.45 48.3 -0.3 47.9 -0.3 47.45 -0.3 47.1 -0.55 46.75 -0.75 46.5 -1.15 46.35 -1.5 46.35 -2 46.35 -2.4 46.5 -2.85 46.75 -3.2 47.1 -3.45 47.35 -3.65 47.9 -3.65 48.3 -3.65 48.55 -3.55 48.65 -3.55 49.05 -3.25
L 49.25 -3.6 Z"/>
</g>

<g id="BDM_336x280_psd_Asset_ManagedWiFi_Awareness_DM7_3_to_individual_customer__spending_habits__0_Layer0_0_MEMBER_13_FILL">
<path fill="#D82C26" stroke="none" d="
M 50 -1.55
Q 50 -0.95 50.35 -0.35 50.75 0.1 51.45 0.1 51.85 0.1 52.35 -0.15 52.8 -0.5 52.9 -0.85
L 53 0 53.45 0 53.4 -3.95 52.9 -3.95 52.9 -2
Q 52.9 -1.45 52.75 -1.1 52.55 -0.75 52.25 -0.5 52 -0.3 51.6 -0.3 51 -0.3 50.75 -0.7 50.5 -1.1 50.5 -1.7
L 50.5 -3.95 50 -3.95 50 -1.55 Z"/>
</g>

<g id="BDM_336x280_psd_Asset_ManagedWiFi_Awareness_DM7_3_to_individual_customer__spending_habits__0_Layer0_0_MEMBER_14_FILL">
<path fill="#D82C26" stroke="none" d="
M 54.45 -0.75
L 54.4 -0.35
Q 54.6 -0.15 55 0
L 55.8 0.1 56.45 0
Q 56.8 -0.15 56.95 -0.4 57.15 -0.65 57.15 -1.05 57.15 -1.45 56.85 -1.75 56.4 -2.1 55.95 -2.2
L 55.15 -2.55
Q 54.95 -2.7 54.95 -3 54.95 -3.35 55.15 -3.5 55.4 -3.7 55.8 -3.7
L 56.35 -3.6 56.8 -3.3 57.05 -3.65
Q 56.85 -3.85 56.5 -3.95
L 55.75 -4.1
Q 55.45 -4.1 55.15 -3.95 54.95 -3.9 54.65 -3.6 54.45 -3.4 54.45 -3 54.45 -2.5 54.75 -2.3 55.15 -2 55.6 -1.9 56.3 -1.6 56.4 -1.5 56.7 -1.35 56.7 -1.05 56.7 -0.65 56.4 -0.5 56.2 -0.3 55.8 -0.3 55.05 -0.3 54.45 -0.75 Z"/>
</g>

<g id="BDM_336x280_psd_Asset_ManagedWiFi_Awareness_DM7_3_to_individual_customer__spending_habits__0_Layer0_0_MEMBER_15_FILL">
<path fill="#D82C26" stroke="none" d="
M 58.35 -4.9
L 58.35 -3.95 57.75 -3.95 57.65 -3.6 58.4 -3.6 58.4 -0.95
Q 58.4 -0.4 58.65 -0.2 58.9 0.1 59.3 0.1
L 59.75 0.05 60.15 -0.15 60.1 -0.5
Q 59.6 -0.3 59.45 -0.3 59.25 -0.3 59.05 -0.5 58.85 -0.65 58.85 -1.05
L 58.85 -3.6 59.9 -3.6 60 -3.95 58.85 -3.95 58.85 -5.1 58.35 -4.9 Z"/>
</g>

<g id="BDM_336x280_psd_Asset_ManagedWiFi_Awareness_DM7_3_to_individual_customer__spending_habits__0_Layer0_0_MEMBER_16_FILL">
<path fill="#D82C26" stroke="none" d="
M 64.4 -3.1
Q 64.1 -3.55 63.65 -3.85 63.15 -4.1 62.55 -4.1 62 -4.1 61.5 -3.85 61 -3.55 60.75 -3.1 60.45 -2.55 60.45 -2 60.45 -1.4 60.75 -0.9 61 -0.45 61.5 -0.15 61.9 0.1 62.55 0.1 63.3 0.1 63.65 -0.15 64.1 -0.45 64.4 -0.9 64.7 -1.4 64.7 -2 64.7 -2.55 64.4 -3.1
M 61.7 -3.45
Q 62.05 -3.65 62.55 -3.65 63.05 -3.65 63.4 -3.45 63.8 -3.2 64 -2.85 64.2 -2.35 64.2 -2 64.2 -1.65 64 -1.15 63.8 -0.75 63.4 -0.55 63.05 -0.3 62.55 -0.3 62.1 -0.3 61.7 -0.55 61.4 -0.75 61.15 -1.15 60.95 -1.5 60.95 -2 60.95 -2.5 61.15 -2.85 61.4 -3.25 61.7 -3.45 Z"/>
</g>

<g id="BDM_336x280_psd_Asset_ManagedWiFi_Awareness_DM7_3_to_individual_customer__spending_habits__0_Layer0_0_MEMBER_17_FILL">
<path fill="#D82C26" stroke="none" d="
M 70.3 -4.1
Q 69.8 -4.1 69.4 -3.8 69.1 -3.6 68.85 -3.05 68.7 -3.55 68.4 -3.8 68.05 -4.1 67.55 -4.1 67.15 -4.1 66.75 -3.8 66.35 -3.55 66.2 -3.1
L 66.15 -3.1 66.15 -3.95 65.65 -3.95 65.7 0 66.2 0 66.2 -1.95
Q 66.2 -2.5 66.35 -2.9 66.65 -3.35 66.8 -3.45 67.05 -3.65 67.45 -3.65 67.9 -3.65 68.2 -3.35 68.45 -2.95 68.45 -2.35
L 68.45 0 68.95 0 68.95 -2.05
Q 68.95 -2.8 69.3 -3.2 69.6 -3.65 70.2 -3.65 70.8 -3.65 71 -3.25 71.25 -2.85 71.25 -2.25
L 71.25 0 71.75 0 71.75 -2.4
Q 71.75 -3.05 71.4 -3.6 71 -4.1 70.3 -4.1 Z"/>
</g>

<g id="BDM_336x280_psd_Asset_ManagedWiFi_Awareness_DM7_3_to_individual_customer__spending_habits__0_Layer0_0_MEMBER_18_FILL">
<path fill="#D82C26" stroke="none" d="
M 75.7 -3.85
Q 75.2 -4.1 74.7 -4.1 74.2 -4.1 73.7 -3.85 73.2 -3.5 73 -3.1 72.7 -2.55 72.7 -2 72.7 -1.4 73 -0.9 73.2 -0.45 73.7 -0.15 74.1 0.1 74.75 0.1 75.7 0.1 76.35 -0.4
L 76.25 -0.8
Q 76.1 -0.65 75.6 -0.45 75.25 -0.3 74.8 -0.3 74.25 -0.3 74 -0.5 73.65 -0.7 73.4 -1.1 73.2 -1.6 73.2 -1.9
L 76.55 -1.9 76.6 -2.15
Q 76.6 -2.6 76.35 -3.1 76.1 -3.55 75.7 -3.85
M 74.7 -3.7
Q 75.3 -3.7 75.7 -3.3 76.1 -2.9 76.1 -2.3
L 73.2 -2.3
Q 73.2 -2.5 73.4 -2.9 73.55 -3.2 73.9 -3.5 74.25 -3.7 74.7 -3.7 Z"/>
</g>

<g id="BDM_336x280_psd_Asset_ManagedWiFi_Awareness_DM7_3_to_individual_customer__spending_habits__0_Layer0_0_MEMBER_19_FILL">
<path fill="#D82C26" stroke="none" d="
M 79.2 -4.1
Q 78.9 -4.1 78.55 -3.85 78.2 -3.45 78.05 -3.1
L 78 -3.95 77.55 -3.95 77.55 0 78.05 0 78.05 -1.95
Q 78.05 -2.7 78.35 -3.15 78.65 -3.65 79.2 -3.65
L 79.55 -3.6 79.65 -4 79.2 -4.1 Z"/>
</g>

<g id="BDM_336x280_psd_Asset_ManagedWiFi_Awareness_DM7_3_to_individual_customer__spending_habits__0_Layer0_0_MEMBER_20_FILL">
<path fill="#D82C26" stroke="none" d="
M 1.85 5.8
L 1.2 5.9
Q 0.85 6.05 0.75 6.3 0.55 6.5 0.55 6.9 0.55 7.25 0.8 7.6 1.15 7.85 1.65 8 2.35 8.25 2.5 8.4 2.75 8.55 2.75 8.85 2.75 9.15 2.5 9.4 2.25 9.6 1.85 9.6 1.05 9.6 0.55 9.1
L 0.45 9.55
Q 0.65 9.75 1.1 9.85 1.5 10 1.9 10 2.25 10 2.55 9.85 2.8 9.8 3.05 9.45 3.25 9.15 3.25 8.85 3.25 8.4 2.95 8.15 2.7 7.9 2 7.65 1.45 7.5 1.25 7.3 1 7.15 1 6.85 1 6.5 1.25 6.35 1.5 6.2 1.85 6.2
L 2.45 6.3 2.9 6.6 3.1 6.2 2.55 5.9 1.85 5.8 Z"/>
</g>

<g id="BDM_336x280_psd_Asset_ManagedWiFi_Awareness_DM7_3_to_individual_customer__spending_habits__0_Layer0_0_MEMBER_21_FILL">
<path fill="#D82C26" stroke="none" d="
M 6.3 5.8
Q 5.85 5.8 5.35 6.05 4.9 6.35 4.7 6.8
L 4.65 6.8 4.65 5.9 4.15 5.9 4.2 11.9 4.7 11.9 4.7 9.05
Q 4.9 9.45 5.35 9.75 5.85 10 6.3 10 6.9 10 7.35 9.7 7.85 9.45 8.05 8.95 8.3 8.45 8.3 7.9 8.3 7.35 8.05 6.85 7.85 6.35 7.35 6.1 6.9 5.8 6.3 5.8
M 4.65 7.9
Q 4.65 7.55 4.85 7.05 5.1 6.7 5.45 6.45 5.8 6.2 6.25 6.2 6.65 6.2 7.05 6.45 7.35 6.65 7.6 7.05 7.8 7.55 7.8 7.9 7.8 8.25 7.6 8.75 7.35 9.15 7.05 9.35 6.65 9.6 6.25 9.6 5.8 9.6 5.45 9.35 5.1 9.15 4.85 8.75 4.65 8.25 4.65 7.9 Z"/>
</g>

<g id="BDM_336x280_psd_Asset_ManagedWiFi_Awareness_DM7_3_to_individual_customer__spending_habits__0_Layer0_0_MEMBER_22_FILL">
<path fill="#D82C26" stroke="none" d="
M 12.05 6.05
Q 11.55 5.8 11.05 5.8 10.55 5.8 10.05 6.05 9.6 6.35 9.3 6.8 9.05 7.3 9.05 7.9 9.05 8.5 9.35 9 9.55 9.45 10.05 9.75 10.55 10 11.1 10 12.05 10 12.7 9.5
L 12.6 9.1 11.95 9.45
Q 11.6 9.6 11.15 9.6 10.8 9.6 10.3 9.4 9.95 9.15 9.75 8.8 9.55 8.45 9.55 7.95
L 12.9 7.95 12.9 7.75
Q 12.9 7.15 12.7 6.75 12.5 6.35 12.05 6.05
M 12.05 6.55
Q 12.45 7.05 12.45 7.6
L 9.55 7.6
Q 9.55 7.45 9.75 6.95 9.9 6.65 10.25 6.4 10.5 6.2 11.05 6.2 11.7 6.2 12.05 6.55 Z"/>
</g>

<g id="BDM_336x280_psd_Asset_ManagedWiFi_Awareness_DM7_3_to_individual_customer__spending_habits__0_Layer0_0_MEMBER_23_FILL">
<path fill="#D82C26" stroke="none" d="
M 14.35 5.9
L 13.9 5.9 13.95 9.9 14.45 9.9 14.45 7.85
Q 14.45 7.4 14.6 7 14.75 6.7 15.1 6.4 15.5 6.2 15.75 6.2 16.3 6.2 16.6 6.6 16.8 6.95 16.8 7.6
L 16.8 9.9 17.3 9.9 17.3 7.45
Q 17.3 6.7 16.95 6.3 16.6 5.8 15.85 5.8 15.4 5.8 15 6.05 14.65 6.3 14.4 6.8
L 14.35 5.9 Z"/>
</g>

<g id="BDM_336x280_psd_Asset_ManagedWiFi_Awareness_DM7_3_to_individual_customer__spending_habits__0_Layer0_0_MEMBER_24_FILL">
<path fill="#D82C26" stroke="none" d="
M 21.25 6.05
Q 20.75 5.8 20.3 5.8 19.7 5.8 19.25 6.1 18.85 6.3 18.55 6.85 18.3 7.35 18.3 7.9 18.3 8.45 18.55 8.95 18.85 9.5 19.25 9.7 19.7 10 20.3 10 20.75 10 21.25 9.75 21.7 9.45 21.95 9
L 22 9.9 22.45 9.9 22.4 3.4 21.95 3.5 21.95 6.8 21.9 6.8
Q 21.65 6.25 21.25 6.05
M 21.95 7.9
Q 21.95 8.4 21.75 8.75 21.55 9.1 21.2 9.35 20.8 9.6 20.35 9.6 19.95 9.6 19.55 9.35 19.25 9.15 19 8.75 18.8 8.25 18.8 7.9 18.8 7.55 19 7.05 19.25 6.65 19.55 6.45 19.95 6.2 20.35 6.2 20.8 6.2 21.2 6.45 21.55 6.7 21.75 7.05 21.95 7.4 21.95 7.9 Z"/>
</g>

<g id="BDM_336x280_psd_Asset_ManagedWiFi_Awareness_DM7_3_to_individual_customer__spending_habits__0_Layer0_0_MEMBER_25_FILL">
<path fill="#D82C26" stroke="none" d="
M 24.2 5.9
L 23.7 5.9 23.7 9.9 24.2 9.9 24.2 5.9
M 24.2 4.6
L 24.3 4.35 24.2 4.05 23.95 3.95
Q 23.8 3.95 23.7 4.1
L 23.6 4.35 23.7 4.6 23.95 4.7 24.2 4.6 Z"/>
</g>

<g id="BDM_336x280_psd_Asset_ManagedWiFi_Awareness_DM7_3_to_individual_customer__spending_habits__0_Layer0_0_MEMBER_26_FILL">
<path fill="#D82C26" stroke="none" d="
M 25.9 5.9
L 25.45 5.9 25.5 9.9 26 9.9 26 7.85
Q 26 7.4 26.15 7 26.4 6.6 26.65 6.4 27.05 6.2 27.3 6.2 27.9 6.2 28.15 6.6 28.4 7 28.4 7.6
L 28.4 9.9 28.9 9.9 28.9 7.45
Q 28.9 6.85 28.55 6.3 28.2 5.8 27.4 5.8 26.95 5.8 26.55 6.05 26.15 6.4 26 6.8
L 25.95 6.8 25.9 5.9 Z"/>
</g>

<g id="BDM_336x280_psd_Asset_ManagedWiFi_Awareness_DM7_3_to_individual_customer__spending_habits__0_Layer0_0_MEMBER_27_FILL">
<path fill="#D82C26" stroke="none" d="
M 31.85 5.8
Q 31.25 5.8 30.8 6.1 30.4 6.3 30.1 6.85 29.85 7.35 29.85 7.9 29.85 8.45 30.1 8.95 30.45 9.45 30.8 9.7 31.3 9.95 31.85 9.95 32.45 9.95 32.8 9.7 33.2 9.5 33.45 9
L 33.5 9 33.5 9.85
Q 33.5 10.6 33.1 11.1 32.65 11.55 31.85 11.55 31.4 11.55 31 11.4
L 30.2 11.05 30.1 11.5 30.9 11.85
Q 31.2 11.95 31.85 11.95 32.9 11.95 33.45 11.4 33.95 10.85 33.95 9.85
L 34 5.9 33.55 5.9 33.5 6.8 33.45 6.8
Q 33.2 6.35 32.8 6.05 32.3 5.8 31.85 5.8
M 33.5 7.9
Q 33.5 8.35 33.3 8.7 33.1 9.1 32.75 9.35 32.4 9.55 31.9 9.55 31.45 9.55 31.1 9.35 30.8 9.1 30.55 8.7 30.35 8.35 30.35 7.9 30.35 7.4 30.55 7.05 30.8 6.65 31.1 6.45 31.5 6.2 31.9 6.2 32.35 6.2 32.75 6.45 33.1 6.7 33.3 7.05 33.5 7.4 33.5 7.9 Z"/>
</g>

<g id="BDM_336x280_psd_Asset_ManagedWiFi_Awareness_DM7_3_to_individual_customer__spending_habits__0_Layer0_0_MEMBER_28_FILL">
<path fill="#D82C26" stroke="none" d="
M 37.5 3.4
L 37 3.5 37 9.9 37.5 9.9 37.5 7.95
Q 37.5 7.4 37.65 7 37.8 6.7 38.15 6.4 38.55 6.2 38.8 6.2 39.35 6.2 39.65 6.6 39.9 7 39.9 7.6
L 39.9 9.9 40.35 9.9 40.35 7.45
Q 40.35 6.75 40 6.25 39.7 5.8 38.9 5.8 38.45 5.8 38.05 6.05 37.6 6.4 37.5 6.75
L 37.5 3.4 Z"/>
</g>

<g id="BDM_336x280_psd_Asset_ManagedWiFi_Awareness_DM7_3_to_individual_customer__spending_habits__0_Layer0_0_MEMBER_29_FILL">
<path fill="#D82C26" stroke="none" d="
M 43 5.8
L 42.2 5.9 41.55 6.3 41.7 6.7
Q 41.9 6.5 42.3 6.35 42.6 6.2 42.95 6.2 43.45 6.2 43.8 6.45 44.1 6.75 44.1 7.3
L 44.1 7.5 43.6 7.5
Q 41.35 7.5 41.35 8.8 41.35 9.4 41.7 9.7 42.1 10 42.6 10 43 10 43.5 9.75 43.9 9.5 44.05 9.1
L 44.1 9.1 44.1 9.5 44.15 9.9 44.6 9.9 44.55 7.3
Q 44.55 6.65 44.15 6.15 43.8 5.8 43 5.8
M 44.1 8.25
Q 44.1 8.55 43.9 8.9 43.7 9.25 43.45 9.4 43.2 9.6 42.7 9.6 42.3 9.6 42.05 9.4 41.8 9.25 41.8 8.8 41.8 7.85 43.65 7.85
L 44.1 7.85 44.1 8.25 Z"/>
</g>

<g id="BDM_336x280_psd_Asset_ManagedWiFi_Awareness_DM7_3_to_individual_customer__spending_habits__0_Layer0_0_MEMBER_30_FILL">
<path fill="#D82C26" stroke="none" d="
M 46.3 3.4
L 45.8 3.5 45.75 9.9 46.2 9.9 46.25 9 46.3 9
Q 46.5 9.45 46.95 9.75 47.45 10 47.9 10 48.5 10 48.95 9.7 49.45 9.45 49.65 8.95 49.9 8.45 49.9 7.9 49.9 7.35 49.65 6.85 49.45 6.35 48.95 6.1 48.5 5.8 47.9 5.8 47.45 5.8 46.95 6.05 46.5 6.3 46.3 6.8
L 46.3 3.4
M 49.4 7.9
Q 49.4 8.4 49.2 8.75 49.05 9.1 48.65 9.35 48.3 9.6 47.85 9.6 47.45 9.6 47.05 9.35 46.7 9.15 46.45 8.75 46.25 8.25 46.25 7.9 46.25 7.55 46.45 7.05 46.7 6.7 47.05 6.45 47.45 6.2 47.85 6.2 48.3 6.2 48.65 6.45 49.05 6.7 49.2 7.05 49.4 7.4 49.4 7.9 Z"/>
</g>

<g id="BDM_336x280_psd_Asset_ManagedWiFi_Awareness_DM7_3_to_individual_customer__spending_habits__0_Layer0_0_MEMBER_31_FILL">
<path fill="#D82C26" stroke="none" d="
M 51.4 5.9
L 50.9 5.9 50.9 9.9 51.4 9.9 51.4 5.9
M 51.4 4.6
L 51.5 4.35 51.4 4.05 51.15 3.95
Q 51 3.95 50.9 4.1
L 50.8 4.35 50.9 4.6 51.15 4.7 51.4 4.6 Z"/>
</g>

<g id="BDM_336x280_psd_Asset_ManagedWiFi_Awareness_DM7_3_to_individual_customer__spending_habits__0_Layer0_0_MEMBER_32_FILL">
<path fill="#D82C26" stroke="none" d="
M 52.85 5.9
L 52.2 5.9 52.1 6.3 52.85 6.3 52.85 8.95
Q 52.85 9.35 53.1 9.7 53.35 9.95 53.8 9.95
L 54.25 9.9 54.65 9.75 54.55 9.4
Q 54.25 9.55 53.95 9.55 53.65 9.55 53.5 9.4 53.35 9.25 53.35 8.85
L 53.35 6.3 54.4 6.3 54.5 5.9 53.35 5.9 53.35 4.8 52.85 4.95 52.85 5.9 Z"/>
</g>

<g id="BDM_336x280_psd_Asset_ManagedWiFi_Awareness_DM7_3_to_individual_customer__spending_habits__0_Layer0_0_MEMBER_33_FILL">
<path fill="#D82C26" stroke="none" d="
M 56.6 5.8
L 55.95 5.9
Q 55.65 6.05 55.45 6.3 55.25 6.6 55.25 6.9 55.25 7.3 55.55 7.6 55.95 7.9 56.4 8 57.05 8.25 57.25 8.4 57.5 8.55 57.5 8.85 57.5 9.15 57.25 9.4 57 9.6 56.6 9.6 55.8 9.6 55.3 9.1
L 55.2 9.55
Q 55.45 9.8 55.8 9.85 56.2 10 56.6 10 56.95 10 57.3 9.85 57.55 9.8 57.8 9.45 57.95 9.25 57.95 8.85 57.95 8.4 57.65 8.15 57.4 7.9 56.75 7.65 56.15 7.5 55.95 7.3 55.75 7.15 55.75 6.85 55.75 6.5 56 6.35 56.25 6.2 56.6 6.2
L 57.15 6.3
Q 57.4 6.35 57.65 6.6
L 57.85 6.2 57.3 5.9 56.6 5.8 Z"/>
</g>

<g id="BDM_336x280_psd_Asset_ManagedWiFi_Awareness_DM7_3_to_individual_customer__spending_habits__0_Layer0_0_MEMBER_34_FILL">
<path fill="#D82C26" stroke="none" d="
M 59 9.85
L 59.3 9.95 59.55 9.85
Q 59.65 9.75 59.65 9.55 59.65 9.35 59.55 9.3 59.5 9.15 59.3 9.15 59.15 9.15 59.05 9.3 58.9 9.4 58.9 9.55
L 59 9.85 Z"/>
</g>
</defs>

<g transform="matrix( 1, 0, 0, 1, -292,-89) ">
<g transform="matrix( 1, 0, 0, 1, 286,110) ">
<g transform="matrix( 1, 0, 0, 1, 25,9) ">
<g transform="matrix( 2.815704345703125, 0, 0, 2.832611083984375, 0.15,18.6) ">
<use xlink:href="#BDM_336x280_psd_Asset_ManagedWiFi_Awareness_DM7_3_to_individual_customer__spending_habits__0_Layer0_0_MEMBER_0_FILL"/>
</g>

<g transform="matrix( 2.815704345703125, 0, 0, 2.832611083984375, 0.15,18.6) ">
<use xlink:href="#BDM_336x280_psd_Asset_ManagedWiFi_Awareness_DM7_3_to_individual_customer__spending_habits__0_Layer0_0_MEMBER_1_FILL"/>
</g>

<g transform="matrix( 2.815704345703125, 0, 0, 2.832611083984375, 0.15,18.6) ">
<use xlink:href="#BDM_336x280_psd_Asset_ManagedWiFi_Awareness_DM7_3_to_individual_customer__spending_habits__0_Layer0_0_MEMBER_2_FILL"/>
</g>

<g transform="matrix( 2.815704345703125, 0, 0, 2.832611083984375, 0.15,18.6) ">
<use xlink:href="#BDM_336x280_psd_Asset_ManagedWiFi_Awareness_DM7_3_to_individual_customer__spending_habits__0_Layer0_0_MEMBER_3_FILL"/>
</g>

<g transform="matrix( 2.815704345703125, 0, 0, 2.832611083984375, 0.15,18.6) ">
<use xlink:href="#BDM_336x280_psd_Asset_ManagedWiFi_Awareness_DM7_3_to_individual_customer__spending_habits__0_Layer0_0_MEMBER_4_FILL"/>
</g>

<g transform="matrix( 2.815704345703125, 0, 0, 2.832611083984375, 0.15,18.6) ">
<use xlink:href="#BDM_336x280_psd_Asset_ManagedWiFi_Awareness_DM7_3_to_individual_customer__spending_habits__0_Layer0_0_MEMBER_5_FILL"/>
</g>

<g transform="matrix( 2.815704345703125, 0, 0, 2.832611083984375, 0.15,18.6) ">
<use xlink:href="#BDM_336x280_psd_Asset_ManagedWiFi_Awareness_DM7_3_to_individual_customer__spending_habits__0_Layer0_0_MEMBER_6_FILL"/>
</g>

<g transform="matrix( 2.815704345703125, 0, 0, 2.832611083984375, 0.15,18.6) ">
<use xlink:href="#BDM_336x280_psd_Asset_ManagedWiFi_Awareness_DM7_3_to_individual_customer__spending_habits__0_Layer0_0_MEMBER_7_FILL"/>
</g>

<g transform="matrix( 2.815704345703125, 0, 0, 2.832611083984375, 0.15,18.6) ">
<use xlink:href="#BDM_336x280_psd_Asset_ManagedWiFi_Awareness_DM7_3_to_individual_customer__spending_habits__0_Layer0_0_MEMBER_8_FILL"/>
</g>

<g transform="matrix( 2.815704345703125, 0, 0, 2.832611083984375, 0.15,18.6) ">
<use xlink:href="#BDM_336x280_psd_Asset_ManagedWiFi_Awareness_DM7_3_to_individual_customer__spending_habits__0_Layer0_0_MEMBER_9_FILL"/>
</g>

<g transform="matrix( 2.815704345703125, 0, 0, 2.832611083984375, 0.15,18.6) ">
<use xlink:href="#BDM_336x280_psd_Asset_ManagedWiFi_Awareness_DM7_3_to_individual_customer__spending_habits__0_Layer0_0_MEMBER_10_FILL"/>
</g>

<g transform="matrix( 2.815704345703125, 0, 0, 2.832611083984375, 0.15,18.6) ">
<use xlink:href="#BDM_336x280_psd_Asset_ManagedWiFi_Awareness_DM7_3_to_individual_customer__spending_habits__0_Layer0_0_MEMBER_11_FILL"/>
</g>

<g transform="matrix( 2.815704345703125, 0, 0, 2.832611083984375, 0.15,18.6) ">
<use xlink:href="#BDM_336x280_psd_Asset_ManagedWiFi_Awareness_DM7_3_to_individual_customer__spending_habits__0_Layer0_0_MEMBER_12_FILL"/>
</g>

<g transform="matrix( 2.815704345703125, 0, 0, 2.832611083984375, 0.15,18.6) ">
<use xlink:href="#BDM_336x280_psd_Asset_ManagedWiFi_Awareness_DM7_3_to_individual_customer__spending_habits__0_Layer0_0_MEMBER_13_FILL"/>
</g>

<g transform="matrix( 2.815704345703125, 0, 0, 2.832611083984375, 0.15,18.6) ">
<use xlink:href="#BDM_336x280_psd_Asset_ManagedWiFi_Awareness_DM7_3_to_individual_customer__spending_habits__0_Layer0_0_MEMBER_14_FILL"/>
</g>

<g transform="matrix( 2.815704345703125, 0, 0, 2.832611083984375, 0.15,18.6) ">
<use xlink:href="#BDM_336x280_psd_Asset_ManagedWiFi_Awareness_DM7_3_to_individual_customer__spending_habits__0_Layer0_0_MEMBER_15_FILL"/>
</g>

<g transform="matrix( 2.815704345703125, 0, 0, 2.832611083984375, 0.15,18.6) ">
<use xlink:href="#BDM_336x280_psd_Asset_ManagedWiFi_Awareness_DM7_3_to_individual_customer__spending_habits__0_Layer0_0_MEMBER_16_FILL"/>
</g>

<g transform="matrix( 2.815704345703125, 0, 0, 2.832611083984375, 0.15,18.6) ">
<use xlink:href="#BDM_336x280_psd_Asset_ManagedWiFi_Awareness_DM7_3_to_individual_customer__spending_habits__0_Layer0_0_MEMBER_17_FILL"/>
</g>

<g transform="matrix( 2.815704345703125, 0, 0, 2.832611083984375, 0.15,18.6) ">
<use xlink:href="#BDM_336x280_psd_Asset_ManagedWiFi_Awareness_DM7_3_to_individual_customer__spending_habits__0_Layer0_0_MEMBER_18_FILL"/>
</g>

<g transform="matrix( 2.815704345703125, 0, 0, 2.832611083984375, 0.15,18.6) ">
<use xlink:href="#BDM_336x280_psd_Asset_ManagedWiFi_Awareness_DM7_3_to_individual_customer__spending_habits__0_Layer0_0_MEMBER_19_FILL"/>
</g>

<g transform="matrix( 2.815704345703125, 0, 0, 2.832611083984375, 0.15,18.6) ">
<use xlink:href="#BDM_336x280_psd_Asset_ManagedWiFi_Awareness_DM7_3_to_individual_customer__spending_habits__0_Layer0_0_MEMBER_20_FILL"/>
</g>

<g transform="matrix( 2.815704345703125, 0, 0, 2.832611083984375, 0.15,18.6) ">
<use xlink:href="#BDM_336x280_psd_Asset_ManagedWiFi_Awareness_DM7_3_to_individual_customer__spending_habits__0_Layer0_0_MEMBER_21_FILL"/>
</g>

<g transform="matrix( 2.815704345703125, 0, 0, 2.832611083984375, 0.15,18.6) ">
<use xlink:href="#BDM_336x280_psd_Asset_ManagedWiFi_Awareness_DM7_3_to_individual_customer__spending_habits__0_Layer0_0_MEMBER_22_FILL"/>
</g>

<g transform="matrix( 2.815704345703125, 0, 0, 2.832611083984375, 0.15,18.6) ">
<use xlink:href="#BDM_336x280_psd_Asset_ManagedWiFi_Awareness_DM7_3_to_individual_customer__spending_habits__0_Layer0_0_MEMBER_23_FILL"/>
</g>

<g transform="matrix( 2.815704345703125, 0, 0, 2.832611083984375, 0.15,18.6) ">
<use xlink:href="#BDM_336x280_psd_Asset_ManagedWiFi_Awareness_DM7_3_to_individual_customer__spending_habits__0_Layer0_0_MEMBER_24_FILL"/>
</g>

<g transform="matrix( 2.815704345703125, 0, 0, 2.832611083984375, 0.15,18.6) ">
<use xlink:href="#BDM_336x280_psd_Asset_ManagedWiFi_Awareness_DM7_3_to_individual_customer__spending_habits__0_Layer0_0_MEMBER_25_FILL"/>
</g>

<g transform="matrix( 2.815704345703125, 0, 0, 2.832611083984375, 0.15,18.6) ">
<use xlink:href="#BDM_336x280_psd_Asset_ManagedWiFi_Awareness_DM7_3_to_individual_customer__spending_habits__0_Layer0_0_MEMBER_26_FILL"/>
</g>

<g transform="matrix( 2.815704345703125, 0, 0, 2.832611083984375, 0.15,18.6) ">
<use xlink:href="#BDM_336x280_psd_Asset_ManagedWiFi_Awareness_DM7_3_to_individual_customer__spending_habits__0_Layer0_0_MEMBER_27_FILL"/>
</g>

<g transform="matrix( 2.815704345703125, 0, 0, 2.832611083984375, 0.15,18.6) ">
<use xlink:href="#BDM_336x280_psd_Asset_ManagedWiFi_Awareness_DM7_3_to_individual_customer__spending_habits__0_Layer0_0_MEMBER_28_FILL"/>
</g>

<g transform="matrix( 2.815704345703125, 0, 0, 2.832611083984375, 0.15,18.6) ">
<use xlink:href="#BDM_336x280_psd_Asset_ManagedWiFi_Awareness_DM7_3_to_individual_customer__spending_habits__0_Layer0_0_MEMBER_29_FILL"/>
</g>

<g transform="matrix( 2.815704345703125, 0, 0, 2.832611083984375, 0.15,18.6) ">
<use xlink:href="#BDM_336x280_psd_Asset_ManagedWiFi_Awareness_DM7_3_to_individual_customer__spending_habits__0_Layer0_0_MEMBER_30_FILL"/>
</g>

<g transform="matrix( 2.815704345703125, 0, 0, 2.832611083984375, 0.15,18.6) ">
<use xlink:href="#BDM_336x280_psd_Asset_ManagedWiFi_Awareness_DM7_3_to_individual_customer__spending_habits__0_Layer0_0_MEMBER_31_FILL"/>
</g>

<g transform="matrix( 2.815704345703125, 0, 0, 2.832611083984375, 0.15,18.6) ">
<use xlink:href="#BDM_336x280_psd_Asset_ManagedWiFi_Awareness_DM7_3_to_individual_customer__spending_habits__0_Layer0_0_MEMBER_32_FILL"/>
</g>

<g transform="matrix( 2.815704345703125, 0, 0, 2.832611083984375, 0.15,18.6) ">
<use xlink:href="#BDM_336x280_psd_Asset_ManagedWiFi_Awareness_DM7_3_to_individual_customer__spending_habits__0_Layer0_0_MEMBER_33_FILL"/>
</g>

<g transform="matrix( 2.815704345703125, 0, 0, 2.832611083984375, 0.15,18.6) ">
<use xlink:href="#BDM_336x280_psd_Asset_ManagedWiFi_Awareness_DM7_3_to_individual_customer__spending_habits__0_Layer0_0_MEMBER_34_FILL"/>
</g>
</g>
</g>
</g>
</svg>
