
<svg xmlns="http://www.w3.org/2000/svg" version="1.1" xmlns:xlink="http://www.w3.org/1999/xlink" preserveAspectRatio="none" x="0px" y="0px" width="336px" height="280px" viewBox="0 0 336 280">
<defs>
<g id="BDM_336x280_psd_Asset_1_ManagedWiFi_Awareness_DM8_1_Looking_to_increase__brand_loyalty__0_Layer0_0_MEMBER_0_FILL">
<path fill="#D82C26" stroke="none" d="
M 1.35 -6
L 0.8 -6 0.8 0 3.95 0 4.05 -0.45 1.35 -0.45 1.35 -6 Z"/>
</g>

<g id="BDM_336x280_psd_Asset_1_ManagedWiFi_Awareness_DM8_1_Looking_to_increase__brand_loyalty__0_Layer0_0_MEMBER_1_FILL">
<path fill="#D82C26" stroke="none" d="
M 4.75 -3.1
Q 4.45 -2.55 4.45 -2 4.45 -1.4 4.75 -0.9 5.05 -0.45 5.5 -0.15 5.9 0.1 6.6 0.1 7.3 0.1 7.65 -0.15 8.2 -0.45 8.4 -0.9 8.7 -1.4 8.7 -2 8.7 -2.55 8.4 -3.1 8.2 -3.55 7.65 -3.85 7.15 -4.1 6.6 -4.1 6 -4.1 5.5 -3.85 5.05 -3.55 4.75 -3.1
M 6.6 -3.65
Q 7.1 -3.65 7.45 -3.45 7.8 -3.2 8 -2.85 8.2 -2.5 8.2 -2 8.2 -1.5 8 -1.15 7.75 -0.75 7.45 -0.55 7.05 -0.3 6.6 -0.3 6.1 -0.3 5.75 -0.55 5.4 -0.75 5.15 -1.15 4.95 -1.65 4.95 -2 4.95 -2.35 5.15 -2.85 5.4 -3.2 5.75 -3.45 6 -3.65 6.6 -3.65 Z"/>
</g>

<g id="BDM_336x280_psd_Asset_1_ManagedWiFi_Awareness_DM8_1_Looking_to_increase__brand_loyalty__0_Layer0_0_MEMBER_2_FILL">
<path fill="#D82C26" stroke="none" d="
M 9.45 -2
Q 9.45 -1.5 9.7 -0.9 10 -0.45 10.5 -0.15 10.9 0.1 11.55 0.1 12.2 0.1 12.65 -0.15 13.1 -0.45 13.4 -0.9 13.7 -1.4 13.7 -2 13.7 -2.55 13.4 -3.1 13.1 -3.55 12.65 -3.85 12.05 -4.1 11.55 -4.1 11 -4.1 10.5 -3.85 10 -3.55 9.7 -3.1 9.45 -2.5 9.45 -2
M 11.55 -3.65
Q 12.05 -3.65 12.4 -3.45 12.8 -3.2 13 -2.85 13.2 -2.35 13.2 -2 13.2 -1.65 13 -1.15 12.8 -0.75 12.4 -0.55 12 -0.3 11.55 -0.3 11.1 -0.3 10.7 -0.55 10.3 -0.8 10.15 -1.15 9.95 -1.5 9.95 -2 9.95 -2.5 10.15 -2.85 10.3 -3.2 10.7 -3.45 11.05 -3.65 11.55 -3.65 Z"/>
</g>

<g id="BDM_336x280_psd_Asset_1_ManagedWiFi_Awareness_DM8_1_Looking_to_increase__brand_loyalty__0_Layer0_0_MEMBER_3_FILL">
<path fill="#D82C26" stroke="none" d="
M 15.2 -6.45
L 14.7 -6.4 14.7 0 15.2 0 15.2 -2.05 17.25 0 17.9 0 15.75 -2.15 17.7 -3.95 17.05 -3.95 15.2 -2.15 15.2 -6.45 Z"/>
</g>

<g id="BDM_336x280_psd_Asset_1_ManagedWiFi_Awareness_DM8_1_Looking_to_increase__brand_loyalty__0_Layer0_0_MEMBER_4_FILL">
<path fill="#D82C26" stroke="none" d="
M 19.15 -3.95
L 18.65 -3.95 18.65 0 19.15 0 19.15 -3.95
M 19.15 -5.3
L 19.25 -5.55 19.15 -5.8
Q 19.1 -5.9 18.9 -5.9 18.7 -5.9 18.65 -5.8
L 18.55 -5.55 18.65 -5.3 18.9 -5.2 19.15 -5.3 Z"/>
</g>

<g id="BDM_336x280_psd_Asset_1_ManagedWiFi_Awareness_DM8_1_Looking_to_increase__brand_loyalty__0_Layer0_0_MEMBER_5_FILL">
<path fill="#D82C26" stroke="none" d="
M 20.85 -3.95
L 20.4 -3.95 20.45 0 20.95 0 20.95 -2
Q 20.95 -2.5 21.1 -2.9 21.35 -3.35 21.6 -3.45 21.85 -3.65 22.25 -3.65 22.9 -3.65 23.1 -3.25 23.35 -2.85 23.35 -2.3
L 23.35 0 23.85 0 23.85 -2.4
Q 23.85 -3.1 23.45 -3.6 23.15 -4.1 22.35 -4.1 21.9 -4.1 21.5 -3.8 21.1 -3.55 20.95 -3.1
L 20.9 -3.1 20.85 -3.95 Z"/>
</g>

<g id="BDM_336x280_psd_Asset_1_ManagedWiFi_Awareness_DM8_1_Looking_to_increase__brand_loyalty__0_Layer0_0_MEMBER_6_FILL">
<path fill="#D82C26" stroke="none" d="
M 24.8 -2
Q 24.8 -1.45 25.05 -0.95 25.3 -0.5 25.75 -0.2 26.2 0.1 26.8 0.1 27.3 0.1 27.75 -0.2 28.15 -0.4 28.4 -0.9
L 28.45 -0.9 28.45 -0.05
Q 28.45 0.7 28.05 1.2 27.6 1.65 26.8 1.65 26.35 1.65 25.95 1.5
L 25.15 1.15 25.05 1.6 25.85 1.95
Q 26.3 2.1 26.8 2.1 27.9 2.1 28.4 1.5 28.9 0.95 28.9 -0.05
L 28.95 -3.95 28.5 -3.95 28.45 -3.1 28.4 -3.1
Q 28.15 -3.55 27.75 -3.85 27.25 -4.1 26.8 -4.1 26.2 -4.1 25.75 -3.8 25.4 -3.55 25.05 -3.05 24.8 -2.55 24.8 -2
M 26.85 -3.65
Q 27.35 -3.65 27.7 -3.45 28.05 -3.2 28.25 -2.85 28.45 -2.5 28.45 -2 28.45 -1.5 28.25 -1.15 28.05 -0.8 27.7 -0.55 27.35 -0.35 26.85 -0.35 26.4 -0.35 26.05 -0.55 25.75 -0.75 25.5 -1.15 25.3 -1.5 25.3 -2 25.3 -2.5 25.5 -2.85 25.75 -3.25 26.05 -3.45 26.4 -3.65 26.85 -3.65 Z"/>
</g>

<g id="BDM_336x280_psd_Asset_1_ManagedWiFi_Awareness_DM8_1_Looking_to_increase__brand_loyalty__0_Layer0_0_MEMBER_7_FILL">
<path fill="#D82C26" stroke="none" d="
M 33.5 -3.6
L 33.6 -3.95 32.5 -3.95 32.5 -5.1 32 -4.9 32 -3.95 31.35 -3.95 31.25 -3.6 32 -3.6 32 -0.95
Q 32 -0.4 32.25 -0.2 32.5 0.1 32.9 0.1
L 33.35 0.05 33.75 -0.15 33.7 -0.5
Q 33.2 -0.3 33.05 -0.3 32.85 -0.3 32.65 -0.5 32.5 -0.65 32.5 -1.05
L 32.5 -3.6 33.5 -3.6 Z"/>
</g>

<g id="BDM_336x280_psd_Asset_1_ManagedWiFi_Awareness_DM8_1_Looking_to_increase__brand_loyalty__0_Layer0_0_MEMBER_8_FILL">
<path fill="#D82C26" stroke="none" d="
M 34.35 -0.9
Q 34.6 -0.45 35.1 -0.15 35.5 0.1 36.15 0.1 36.9 0.1 37.25 -0.15 37.8 -0.45 38 -0.9 38.3 -1.4 38.3 -2 38.3 -2.55 38 -3.1 37.8 -3.55 37.25 -3.85 36.75 -4.1 36.15 -4.1 35.6 -4.1 35.1 -3.85 34.6 -3.55 34.35 -3.1 34.05 -2.55 34.05 -2 34.05 -1.4 34.35 -0.9
M 34.75 -2.85
Q 34.95 -3.2 35.3 -3.45 35.65 -3.65 36.15 -3.65 36.75 -3.65 37 -3.45 37.4 -3.2 37.6 -2.85 37.8 -2.35 37.8 -2 37.8 -1.5 37.6 -1.15 37.35 -0.75 37.05 -0.55 36.65 -0.3 36.15 -0.3 35.7 -0.3 35.3 -0.55 34.95 -0.8 34.75 -1.15 34.55 -1.65 34.55 -2 34.55 -2.35 34.75 -2.85 Z"/>
</g>

<g id="BDM_336x280_psd_Asset_1_ManagedWiFi_Awareness_DM8_1_Looking_to_increase__brand_loyalty__0_Layer0_0_MEMBER_9_FILL">
<path fill="#D82C26" stroke="none" d="
M 41.5 -3.95
L 41 -3.95 41 0 41.5 0 41.5 -3.95
M 41.25 -5.2
L 41.5 -5.3 41.6 -5.55 41.5 -5.8
Q 41.4 -5.9 41.25 -5.9 41.05 -5.9 41 -5.8 40.9 -5.75 40.9 -5.55 40.9 -5.35 41 -5.3
L 41.25 -5.2 Z"/>
</g>

<g id="BDM_336x280_psd_Asset_1_ManagedWiFi_Awareness_DM8_1_Looking_to_increase__brand_loyalty__0_Layer0_0_MEMBER_10_FILL">
<path fill="#D82C26" stroke="none" d="
M 43.85 -3.8
Q 43.5 -3.65 43.25 -3.1
L 43.2 -3.95 42.75 -3.95 42.8 0 43.3 0 43.3 -2
Q 43.3 -2.5 43.45 -2.9 43.6 -3.25 43.95 -3.45 44.2 -3.65 44.6 -3.65 45.2 -3.65 45.45 -3.25 45.7 -2.85 45.7 -2.3
L 45.7 0 46.2 0 46.2 -2.4
Q 46.2 -3.1 45.8 -3.6 45.5 -4.1 44.7 -4.1 44.25 -4.1 43.85 -3.8 Z"/>
</g>

<g id="BDM_336x280_psd_Asset_1_ManagedWiFi_Awareness_DM8_1_Looking_to_increase__brand_loyalty__0_Layer0_0_MEMBER_11_FILL">
<path fill="#D82C26" stroke="none" d="
M 49.25 -4.1
Q 48.7 -4.1 48.15 -3.8 47.7 -3.55 47.4 -3.05 47.15 -2.55 47.15 -2 47.15 -1.4 47.4 -0.9 47.65 -0.5 48.15 -0.15 48.55 0.1 49.2 0.1
L 50 0 50.6 -0.35 50.5 -0.8
Q 50.2 -0.5 49.95 -0.45 49.65 -0.3 49.25 -0.3 48.8 -0.3 48.4 -0.55 48.05 -0.8 47.85 -1.15 47.65 -1.65 47.65 -2 47.65 -2.25 47.85 -2.85 48.05 -3.2 48.4 -3.45 48.75 -3.65 49.25 -3.65 49.65 -3.65 49.85 -3.55 50 -3.5 50.4 -3.25
L 50.6 -3.6
Q 50.4 -3.8 50 -3.95
L 49.25 -4.1 Z"/>
</g>

<g id="BDM_336x280_psd_Asset_1_ManagedWiFi_Awareness_DM8_1_Looking_to_increase__brand_loyalty__0_Layer0_0_MEMBER_12_FILL">
<path fill="#D82C26" stroke="none" d="
M 53.35 -3.6
L 53.45 -4 53.05 -4.1
Q 52.75 -4.1 52.35 -3.85 52.05 -3.55 51.9 -3.1
L 51.85 -3.1 51.85 -3.95 51.35 -3.95 51.4 0 51.9 0 51.9 -1.95
Q 51.9 -2.7 52.2 -3.15 52.5 -3.65 53 -3.65
L 53.35 -3.6 Z"/>
</g>

<g id="BDM_336x280_psd_Asset_1_ManagedWiFi_Awareness_DM8_1_Looking_to_increase__brand_loyalty__0_Layer0_0_MEMBER_13_FILL">
<path fill="#D82C26" stroke="none" d="
M 55.65 -4.1
Q 55.15 -4.1 54.65 -3.85 54.3 -3.6 53.95 -3.1 53.7 -2.5 53.7 -2 53.7 -1.5 53.95 -0.9 54.25 -0.45 54.7 -0.15 55.1 0.1 55.75 0.1 56.75 0.1 57.3 -0.4
L 57.25 -0.8 56.6 -0.45
Q 56.25 -0.3 55.75 -0.3 55.3 -0.3 54.95 -0.5 54.65 -0.7 54.4 -1.1 54.2 -1.45 54.2 -1.9
L 57.55 -1.9 57.55 -2.15
Q 57.55 -2.7 57.35 -3.1 57.15 -3.5 56.7 -3.85 56.2 -4.1 55.65 -4.1
M 54.9 -3.5
Q 55.15 -3.7 55.65 -3.7 56.3 -3.7 56.7 -3.3 57 -3 57.1 -2.3
L 54.2 -2.3
Q 54.2 -2.65 54.4 -2.9 54.55 -3.3 54.9 -3.5 Z"/>
</g>

<g id="BDM_336x280_psd_Asset_1_ManagedWiFi_Awareness_DM8_1_Looking_to_increase__brand_loyalty__0_Layer0_0_MEMBER_14_FILL">
<path fill="#D82C26" stroke="none" d="
M 58.45 -3.6
L 58.6 -3.2
Q 58.8 -3.4 59.2 -3.55 59.5 -3.7 59.85 -3.7 60.35 -3.7 60.7 -3.4 61 -3.15 61 -2.6
L 61 -2.4 60.5 -2.4
Q 58.2 -2.4 58.2 -1.05 58.2 -0.5 58.6 -0.2 59 0.1 59.5 0.1 60 0.1 60.4 -0.1 60.8 -0.35 60.95 -0.75
L 61 -0.75 61 -0.35 61.05 0 61.5 0 61.45 -2.6
Q 61.45 -3.3 61.05 -3.7 60.55 -4.1 59.9 -4.1 59.5 -4.1 59.1 -3.95
L 58.45 -3.6
M 60.35 -0.45
Q 59.95 -0.25 59.6 -0.25 59.35 -0.25 58.95 -0.45 58.7 -0.7 58.7 -1.1 58.7 -2.05 60.55 -2.05
L 61 -2.05 61 -1.65
Q 61 -1.4 60.8 -1 60.65 -0.65 60.35 -0.45 Z"/>
</g>

<g id="BDM_336x280_psd_Asset_1_ManagedWiFi_Awareness_DM8_1_Looking_to_increase__brand_loyalty__0_Layer0_0_MEMBER_15_FILL">
<path fill="#D82C26" stroke="none" d="
M 64.45 -3.95
Q 64.15 -4.1 63.75 -4.1 63.4 -4.1 63.1 -3.95 62.9 -3.9 62.6 -3.6 62.45 -3.35 62.45 -3 62.45 -2.55 62.7 -2.3 63.05 -2.05 63.55 -1.9 64.2 -1.65 64.4 -1.5 64.65 -1.35 64.65 -1.05 64.65 -0.65 64.4 -0.5 64.15 -0.3 63.75 -0.3 63 -0.3 62.45 -0.75
L 62.35 -0.35
Q 62.55 -0.15 62.95 0
L 63.8 0.1 64.45 0 64.95 -0.4
Q 65.15 -0.8 65.15 -1.05 65.15 -1.45 64.85 -1.75 64.4 -2.1 63.9 -2.2
L 63.1 -2.55
Q 62.9 -2.75 62.9 -3 62.9 -3.35 63.15 -3.5 63.35 -3.7 63.75 -3.7
L 64.35 -3.6 64.8 -3.3 65 -3.65
Q 64.75 -3.9 64.45 -3.95 Z"/>
</g>

<g id="BDM_336x280_psd_Asset_1_ManagedWiFi_Awareness_DM8_1_Looking_to_increase__brand_loyalty__0_Layer0_0_MEMBER_16_FILL">
<path fill="#D82C26" stroke="none" d="
M 69.45 -3.1
Q 69.2 -3.55 68.8 -3.85 68.3 -4.1 67.8 -4.1 67.3 -4.1 66.8 -3.85 66.3 -3.5 66.1 -3.1 65.8 -2.55 65.8 -2 65.8 -1.4 66.1 -0.9 66.3 -0.45 66.8 -0.15 67.2 0.1 67.85 0.1 68.8 0.1 69.45 -0.4
L 69.35 -0.8
Q 69.2 -0.65 68.7 -0.45 68.35 -0.3 67.9 -0.3 67.35 -0.3 67.1 -0.5 66.75 -0.7 66.5 -1.1 66.3 -1.6 66.3 -1.9
L 69.65 -1.9 69.65 -2.15
Q 69.65 -2.7 69.45 -3.1
M 67 -3.5
Q 67.35 -3.7 67.8 -3.7 68.4 -3.7 68.8 -3.3 69.2 -2.9 69.2 -2.3
L 66.3 -2.3
Q 66.3 -2.5 66.5 -2.9 66.65 -3.2 67 -3.5 Z"/>
</g>

<g id="BDM_336x280_psd_Asset_1_ManagedWiFi_Awareness_DM8_1_Looking_to_increase__brand_loyalty__0_Layer0_0_MEMBER_17_FILL">
<path fill="#D82C26" stroke="none" d="
M 1.3 3.4
L 0.8 3.5 0.75 9.9 1.2 9.9 1.25 9 1.3 9
Q 1.5 9.45 1.95 9.75 2.45 10 2.9 10 3.5 10 3.95 9.7 4.45 9.45 4.65 8.95 4.9 8.45 4.9 7.9 4.9 7.35 4.65 6.85 4.45 6.35 3.95 6.1 3.5 5.8 2.9 5.8 2.45 5.8 1.95 6.05 1.5 6.3 1.3 6.8
L 1.3 3.4
M 4.4 7.9
Q 4.4 8.4 4.2 8.75 4.05 9.1 3.65 9.35 3.3 9.6 2.85 9.6 2.45 9.6 2.05 9.35 1.7 9.15 1.45 8.75 1.25 8.25 1.25 7.9 1.25 7.55 1.45 7.05 1.7 6.7 2.05 6.45 2.45 6.2 2.85 6.2 3.3 6.2 3.65 6.45 4.05 6.7 4.2 7.05 4.4 7.4 4.4 7.9 Z"/>
</g>

<g id="BDM_336x280_psd_Asset_1_ManagedWiFi_Awareness_DM8_1_Looking_to_increase__brand_loyalty__0_Layer0_0_MEMBER_18_FILL">
<path fill="#D82C26" stroke="none" d="
M 6.35 5.9
L 5.9 5.9 5.9 9.9 6.4 9.9 6.4 7.9
Q 6.4 7.2 6.7 6.75 7 6.25 7.55 6.25
L 7.9 6.3 8 5.85 7.55 5.8
Q 7.25 5.8 6.9 6.05 6.55 6.35 6.4 6.8
L 6.35 5.9 Z"/>
</g>

<g id="BDM_336x280_psd_Asset_1_ManagedWiFi_Awareness_DM8_1_Looking_to_increase__brand_loyalty__0_Layer0_0_MEMBER_19_FILL">
<path fill="#D82C26" stroke="none" d="
M 11.15 7.3
L 11.15 7.5 10.65 7.5
Q 8.4 7.5 8.4 8.8 8.4 9.4 8.75 9.7 9.15 10 9.65 10 10.05 10 10.55 9.75 10.95 9.5 11.15 9.1
L 11.15 9.5 11.2 9.9 11.65 9.9 11.6 7.3
Q 11.6 6.65 11.2 6.15 10.85 5.8 10.1 5.8
L 9.25 5.9 8.6 6.3 8.75 6.7
Q 8.95 6.5 9.35 6.35 9.65 6.2 10 6.2 10.5 6.2 10.85 6.45 11.15 6.75 11.15 7.3
M 11.15 8.25
L 11 8.9
Q 10.85 9.25 10.5 9.4 10.25 9.6 9.75 9.6 9.35 9.6 9.1 9.4 8.85 9.25 8.85 8.8 8.85 7.85 10.7 7.85
L 11.15 7.85 11.15 8.25 Z"/>
</g>

<g id="BDM_336x280_psd_Asset_1_ManagedWiFi_Awareness_DM8_1_Looking_to_increase__brand_loyalty__0_Layer0_0_MEMBER_20_FILL">
<path fill="#D82C26" stroke="none" d="
M 13.3 5.9
L 12.8 5.9 12.85 9.9 13.35 9.9 13.35 7.85
Q 13.35 7.4 13.5 7 13.75 6.6 14 6.4 14.4 6.2 14.65 6.2 15.25 6.2 15.5 6.6 15.75 7 15.75 7.6
L 15.75 9.9 16.25 9.9 16.25 7.45
Q 16.25 6.7 15.9 6.3 15.55 5.8 14.75 5.8 14.3 5.8 13.9 6.05 13.5 6.4 13.35 6.8
L 13.3 6.8 13.3 5.9 Z"/>
</g>

<g id="BDM_336x280_psd_Asset_1_ManagedWiFi_Awareness_DM8_1_Looking_to_increase__brand_loyalty__0_Layer0_0_MEMBER_21_FILL">
<path fill="#D82C26" stroke="none" d="
M 21.4 9.9
L 21.35 3.4 20.85 3.5 20.85 6.8
Q 20.65 6.3 20.15 6.05 19.75 5.8 19.2 5.8 18.65 5.8 18.2 6.1 17.7 6.35 17.5 6.85 17.25 7.25 17.25 7.9 17.25 8.6 17.5 8.95 17.7 9.45 18.2 9.7 18.65 10 19.2 10 19.75 10 20.15 9.75 20.7 9.4 20.85 9
L 20.9 9.9 21.4 9.9
M 20.85 7.9
Q 20.85 8.4 20.65 8.75 20.5 9.1 20.1 9.35 19.7 9.6 19.3 9.6 18.85 9.6 18.45 9.35 18.1 9.1 17.9 8.75 17.75 8.4 17.75 7.9 17.75 7.45 17.9 7.05 18.1 6.7 18.45 6.45 18.85 6.2 19.3 6.2 19.7 6.2 20.1 6.45 20.5 6.7 20.65 7.05 20.85 7.4 20.85 7.9 Z"/>
</g>

<g id="BDM_336x280_psd_Asset_1_ManagedWiFi_Awareness_DM8_1_Looking_to_increase__brand_loyalty__0_Layer0_0_MEMBER_22_FILL">
<path fill="#D82C26" stroke="none" d="
M 24.55 9.65
Q 24.7 9.85 25 10
L 25.25 9.55
Q 25.05 9.5 24.95 9.3 24.85 9.2 24.85 8.9
L 24.85 3.45 24.35 3.5 24.35 9
Q 24.35 9.4 24.55 9.65 Z"/>
</g>

<g id="BDM_336x280_psd_Asset_1_ManagedWiFi_Awareness_DM8_1_Looking_to_increase__brand_loyalty__0_Layer0_0_MEMBER_23_FILL">
<path fill="#D82C26" stroke="none" d="
M 29.1 6.05
Q 28.5 5.8 28 5.8 27.5 5.8 26.9 6.05 26.45 6.35 26.15 6.8 25.9 7.3 25.9 7.9 25.9 8.4 26.15 9 26.45 9.45 26.9 9.75 27.5 10 28 10 28.5 10 29.1 9.75 29.55 9.45 29.85 9 30.1 8.4 30.1 7.9 30.1 7.3 29.85 6.8 29.55 6.35 29.1 6.05
M 29.6 7.9
Q 29.6 8.4 29.4 8.75 29.25 9.1 28.85 9.35 28.45 9.6 28 9.6 27.55 9.6 27.15 9.35 26.75 9.1 26.6 8.75 26.4 8.4 26.4 7.9 26.4 7.4 26.6 7.05 26.75 6.7 27.15 6.45 27.55 6.2 28 6.2 28.45 6.2 28.85 6.45 29.25 6.7 29.4 7.05 29.6 7.4 29.6 7.9 Z"/>
</g>

<g id="BDM_336x280_psd_Asset_1_ManagedWiFi_Awareness_DM8_1_Looking_to_increase__brand_loyalty__0_Layer0_0_MEMBER_24_FILL">
<path fill="#D82C26" stroke="none" d="
M 34.1 5.9
L 33.55 5.9 32.35 9.35 31 5.9 30.45 5.9 32.1 9.9 31.8 10.75
Q 31.65 11.15 31.4 11.3
L 30.7 11.5 30.8 11.9
Q 31.35 11.9 31.7 11.65 32 11.45 32.25 10.9
L 34.1 5.9 Z"/>
</g>

<g id="BDM_336x280_psd_Asset_1_ManagedWiFi_Awareness_DM8_1_Looking_to_increase__brand_loyalty__0_Layer0_0_MEMBER_25_FILL">
<path fill="#D82C26" stroke="none" d="
M 36.25 5.8
L 35.45 5.9 34.75 6.3 34.9 6.7
Q 35.1 6.5 35.5 6.35
L 36.15 6.2
Q 36.65 6.2 37 6.45 37.3 6.75 37.3 7.3
L 37.3 7.5 36.8 7.5
Q 34.55 7.5 34.55 8.8 34.55 9.4 34.9 9.7 35.3 10 35.8 10 36.3 10 36.7 9.75 37.05 9.55 37.3 9.1
L 37.4 9.9 37.85 9.9 37.75 9 37.75 7.3
Q 37.75 6.55 37.35 6.15 37 5.8 36.25 5.8
M 35.3 9.4
Q 35 9.25 35 8.8 35 7.85 36.9 7.85
L 37.3 7.85 37.3 8.25 37.15 8.9
Q 36.95 9.3 36.65 9.4 36.4 9.6 35.9 9.6 35.5 9.6 35.3 9.4 Z"/>
</g>

<g id="BDM_336x280_psd_Asset_1_ManagedWiFi_Awareness_DM8_1_Looking_to_increase__brand_loyalty__0_Layer0_0_MEMBER_26_FILL">
<path fill="#D82C26" stroke="none" d="
M 39.2 9.65
Q 39.35 9.85 39.65 10
L 39.85 9.55 39.6 9.3
Q 39.5 9.25 39.5 8.9
L 39.5 3.45 39 3.5 39 9
Q 39 9.4 39.2 9.65 Z"/>
</g>

<g id="BDM_336x280_psd_Asset_1_ManagedWiFi_Awareness_DM8_1_Looking_to_increase__brand_loyalty__0_Layer0_0_MEMBER_27_FILL">
<path fill="#D82C26" stroke="none" d="
M 40.95 4.95
L 40.95 5.9 40.35 5.9 40.25 6.3 40.95 6.3 40.95 8.95
Q 40.95 9.35 41.2 9.7 41.45 9.95 41.9 9.95
L 42.35 9.9 42.75 9.75 42.7 9.4 42.05 9.55
Q 41.85 9.55 41.6 9.4 41.45 9.25 41.45 8.85
L 41.45 6.3 42.5 6.3 42.6 5.9 41.45 5.9 41.45 4.8 40.95 4.95 Z"/>
</g>

<g id="BDM_336x280_psd_Asset_1_ManagedWiFi_Awareness_DM8_1_Looking_to_increase__brand_loyalty__0_Layer0_0_MEMBER_28_FILL">
<path fill="#D82C26" stroke="none" d="
M 46.7 5.9
L 46.2 5.9 45 9.35 43.6 5.9 43.05 5.9 44.75 9.9 44.45 10.75
Q 44.3 11.15 44 11.3 43.85 11.4 43.3 11.5
L 43.45 11.9
Q 43.95 11.9 44.35 11.65 44.7 11.4 44.9 10.9
L 46.7 5.9 Z"/>
</g>

<g id="BDM_336x280_psd_Asset_1_ManagedWiFi_Awareness_DM8_1_Looking_to_increase__brand_loyalty__0_Layer0_0_MEMBER_29_FILL">
<path fill="#D82C26" stroke="none" d="
M 47.1 3.95
Q 46.7 4.15 46.4 4.45
L 46.65 4.85
Q 46.9 4.55 47.25 4.4 47.6 4.2 48.05 4.2 48.5 4.2 48.9 4.45 49.2 4.75 49.2 5.2 49.2 5.55 49.1 5.7
L 48.9 6.05 48.45 6.5
Q 48.15 6.8 47.95 7.2 47.8 7.5 47.8 7.9
L 47.8 8.15 48.3 8.15 48.3 8 48.35 7.5
Q 48.35 7.3 48.5 7.15
L 49.65 5.8 49.75 5.2
Q 49.75 4.8 49.5 4.4 49.2 4.05 48.9 3.9 48.55 3.75 48.1 3.75 47.5 3.75 47.1 3.95
M 47.8 9.85
L 48.05 9.95 48.35 9.85 48.45 9.55 48.35 9.3
Q 48.25 9.2 48.05 9.2 47.85 9.2 47.8 9.3
L 47.7 9.55 47.8 9.85 Z"/>
</g>
</defs>

<g transform="matrix( 1, 0, 0, 1, -18,-42) ">
<g transform="matrix( 1, 0, 0, 1, 12,64) ">
<g transform="matrix( 1, 0, 0, 1, 27,8) ">
<g transform="matrix( 2.815704345703125, 0, 0, 2.832611083984375, -1.85,18.6) ">
<use xlink:href="#BDM_336x280_psd_Asset_1_ManagedWiFi_Awareness_DM8_1_Looking_to_increase__brand_loyalty__0_Layer0_0_MEMBER_0_FILL"/>
</g>

<g transform="matrix( 2.815704345703125, 0, 0, 2.832611083984375, -1.85,18.6) ">
<use xlink:href="#BDM_336x280_psd_Asset_1_ManagedWiFi_Awareness_DM8_1_Looking_to_increase__brand_loyalty__0_Layer0_0_MEMBER_1_FILL"/>
</g>

<g transform="matrix( 2.815704345703125, 0, 0, 2.832611083984375, -1.85,18.6) ">
<use xlink:href="#BDM_336x280_psd_Asset_1_ManagedWiFi_Awareness_DM8_1_Looking_to_increase__brand_loyalty__0_Layer0_0_MEMBER_2_FILL"/>
</g>

<g transform="matrix( 2.815704345703125, 0, 0, 2.832611083984375, -1.85,18.6) ">
<use xlink:href="#BDM_336x280_psd_Asset_1_ManagedWiFi_Awareness_DM8_1_Looking_to_increase__brand_loyalty__0_Layer0_0_MEMBER_3_FILL"/>
</g>

<g transform="matrix( 2.815704345703125, 0, 0, 2.832611083984375, -1.85,18.6) ">
<use xlink:href="#BDM_336x280_psd_Asset_1_ManagedWiFi_Awareness_DM8_1_Looking_to_increase__brand_loyalty__0_Layer0_0_MEMBER_4_FILL"/>
</g>

<g transform="matrix( 2.815704345703125, 0, 0, 2.832611083984375, -1.85,18.6) ">
<use xlink:href="#BDM_336x280_psd_Asset_1_ManagedWiFi_Awareness_DM8_1_Looking_to_increase__brand_loyalty__0_Layer0_0_MEMBER_5_FILL"/>
</g>

<g transform="matrix( 2.815704345703125, 0, 0, 2.832611083984375, -1.85,18.6) ">
<use xlink:href="#BDM_336x280_psd_Asset_1_ManagedWiFi_Awareness_DM8_1_Looking_to_increase__brand_loyalty__0_Layer0_0_MEMBER_6_FILL"/>
</g>

<g transform="matrix( 2.815704345703125, 0, 0, 2.832611083984375, -1.85,18.6) ">
<use xlink:href="#BDM_336x280_psd_Asset_1_ManagedWiFi_Awareness_DM8_1_Looking_to_increase__brand_loyalty__0_Layer0_0_MEMBER_7_FILL"/>
</g>

<g transform="matrix( 2.815704345703125, 0, 0, 2.832611083984375, -1.85,18.6) ">
<use xlink:href="#BDM_336x280_psd_Asset_1_ManagedWiFi_Awareness_DM8_1_Looking_to_increase__brand_loyalty__0_Layer0_0_MEMBER_8_FILL"/>
</g>

<g transform="matrix( 2.815704345703125, 0, 0, 2.832611083984375, -1.85,18.6) ">
<use xlink:href="#BDM_336x280_psd_Asset_1_ManagedWiFi_Awareness_DM8_1_Looking_to_increase__brand_loyalty__0_Layer0_0_MEMBER_9_FILL"/>
</g>

<g transform="matrix( 2.815704345703125, 0, 0, 2.832611083984375, -1.85,18.6) ">
<use xlink:href="#BDM_336x280_psd_Asset_1_ManagedWiFi_Awareness_DM8_1_Looking_to_increase__brand_loyalty__0_Layer0_0_MEMBER_10_FILL"/>
</g>

<g transform="matrix( 2.815704345703125, 0, 0, 2.832611083984375, -1.85,18.6) ">
<use xlink:href="#BDM_336x280_psd_Asset_1_ManagedWiFi_Awareness_DM8_1_Looking_to_increase__brand_loyalty__0_Layer0_0_MEMBER_11_FILL"/>
</g>

<g transform="matrix( 2.815704345703125, 0, 0, 2.832611083984375, -1.85,18.6) ">
<use xlink:href="#BDM_336x280_psd_Asset_1_ManagedWiFi_Awareness_DM8_1_Looking_to_increase__brand_loyalty__0_Layer0_0_MEMBER_12_FILL"/>
</g>

<g transform="matrix( 2.815704345703125, 0, 0, 2.832611083984375, -1.85,18.6) ">
<use xlink:href="#BDM_336x280_psd_Asset_1_ManagedWiFi_Awareness_DM8_1_Looking_to_increase__brand_loyalty__0_Layer0_0_MEMBER_13_FILL"/>
</g>

<g transform="matrix( 2.815704345703125, 0, 0, 2.832611083984375, -1.85,18.6) ">
<use xlink:href="#BDM_336x280_psd_Asset_1_ManagedWiFi_Awareness_DM8_1_Looking_to_increase__brand_loyalty__0_Layer0_0_MEMBER_14_FILL"/>
</g>

<g transform="matrix( 2.815704345703125, 0, 0, 2.832611083984375, -1.85,18.6) ">
<use xlink:href="#BDM_336x280_psd_Asset_1_ManagedWiFi_Awareness_DM8_1_Looking_to_increase__brand_loyalty__0_Layer0_0_MEMBER_15_FILL"/>
</g>

<g transform="matrix( 2.815704345703125, 0, 0, 2.832611083984375, -1.85,18.6) ">
<use xlink:href="#BDM_336x280_psd_Asset_1_ManagedWiFi_Awareness_DM8_1_Looking_to_increase__brand_loyalty__0_Layer0_0_MEMBER_16_FILL"/>
</g>

<g transform="matrix( 2.815704345703125, 0, 0, 2.832611083984375, -1.85,18.6) ">
<use xlink:href="#BDM_336x280_psd_Asset_1_ManagedWiFi_Awareness_DM8_1_Looking_to_increase__brand_loyalty__0_Layer0_0_MEMBER_17_FILL"/>
</g>

<g transform="matrix( 2.815704345703125, 0, 0, 2.832611083984375, -1.85,18.6) ">
<use xlink:href="#BDM_336x280_psd_Asset_1_ManagedWiFi_Awareness_DM8_1_Looking_to_increase__brand_loyalty__0_Layer0_0_MEMBER_18_FILL"/>
</g>

<g transform="matrix( 2.815704345703125, 0, 0, 2.832611083984375, -1.85,18.6) ">
<use xlink:href="#BDM_336x280_psd_Asset_1_ManagedWiFi_Awareness_DM8_1_Looking_to_increase__brand_loyalty__0_Layer0_0_MEMBER_19_FILL"/>
</g>

<g transform="matrix( 2.815704345703125, 0, 0, 2.832611083984375, -1.85,18.6) ">
<use xlink:href="#BDM_336x280_psd_Asset_1_ManagedWiFi_Awareness_DM8_1_Looking_to_increase__brand_loyalty__0_Layer0_0_MEMBER_20_FILL"/>
</g>

<g transform="matrix( 2.815704345703125, 0, 0, 2.832611083984375, -1.85,18.6) ">
<use xlink:href="#BDM_336x280_psd_Asset_1_ManagedWiFi_Awareness_DM8_1_Looking_to_increase__brand_loyalty__0_Layer0_0_MEMBER_21_FILL"/>
</g>

<g transform="matrix( 2.815704345703125, 0, 0, 2.832611083984375, -1.85,18.6) ">
<use xlink:href="#BDM_336x280_psd_Asset_1_ManagedWiFi_Awareness_DM8_1_Looking_to_increase__brand_loyalty__0_Layer0_0_MEMBER_22_FILL"/>
</g>

<g transform="matrix( 2.815704345703125, 0, 0, 2.832611083984375, -1.85,18.6) ">
<use xlink:href="#BDM_336x280_psd_Asset_1_ManagedWiFi_Awareness_DM8_1_Looking_to_increase__brand_loyalty__0_Layer0_0_MEMBER_23_FILL"/>
</g>

<g transform="matrix( 2.815704345703125, 0, 0, 2.832611083984375, -1.85,18.6) ">
<use xlink:href="#BDM_336x280_psd_Asset_1_ManagedWiFi_Awareness_DM8_1_Looking_to_increase__brand_loyalty__0_Layer0_0_MEMBER_24_FILL"/>
</g>

<g transform="matrix( 2.815704345703125, 0, 0, 2.832611083984375, -1.85,18.6) ">
<use xlink:href="#BDM_336x280_psd_Asset_1_ManagedWiFi_Awareness_DM8_1_Looking_to_increase__brand_loyalty__0_Layer0_0_MEMBER_25_FILL"/>
</g>

<g transform="matrix( 2.815704345703125, 0, 0, 2.832611083984375, -1.85,18.6) ">
<use xlink:href="#BDM_336x280_psd_Asset_1_ManagedWiFi_Awareness_DM8_1_Looking_to_increase__brand_loyalty__0_Layer0_0_MEMBER_26_FILL"/>
</g>

<g transform="matrix( 2.815704345703125, 0, 0, 2.832611083984375, -1.85,18.6) ">
<use xlink:href="#BDM_336x280_psd_Asset_1_ManagedWiFi_Awareness_DM8_1_Looking_to_increase__brand_loyalty__0_Layer0_0_MEMBER_27_FILL"/>
</g>

<g transform="matrix( 2.815704345703125, 0, 0, 2.832611083984375, -1.85,18.6) ">
<use xlink:href="#BDM_336x280_psd_Asset_1_ManagedWiFi_Awareness_DM8_1_Looking_to_increase__brand_loyalty__0_Layer0_0_MEMBER_28_FILL"/>
</g>

<g transform="matrix( 2.815704345703125, 0, 0, 2.832611083984375, -1.85,18.6) ">
<use xlink:href="#BDM_336x280_psd_Asset_1_ManagedWiFi_Awareness_DM8_1_Looking_to_increase__brand_loyalty__0_Layer0_0_MEMBER_29_FILL"/>
</g>
</g>
</g>
</g>
</svg>
