
<svg xmlns="http://www.w3.org/2000/svg" version="1.1" xmlns:xlink="http://www.w3.org/1999/xlink" preserveAspectRatio="none" x="0px" y="0px" width="336px" height="280px" viewBox="0 0 336 280">
<defs>
<g id="BDM_336x280_psd_Asset_1_ManagedWiFi_Awareness_DM8_3_for_a_more_personalized__customer_experience__0_Layer0_0_MEMBER_0_FILL">
<path fill="#D82C26" stroke="none" d="
M 2.6 -6.5
L 2.2 -6.5
Q 1.65 -6.5 1.3 -6.15 0.95 -5.8 0.95 -5.1
L 0.95 -3.95 0.25 -3.95 0.15 -3.6 1 -3.6 1 0 1.45 0 1.45 -3.6 2.4 -3.6 2.5 -3.95 1.45 -3.95 1.45 -5.1
Q 1.45 -5.5 1.65 -5.8 1.8 -6.1 2.25 -6.1
L 2.85 -6 2.95 -6.4 2.6 -6.5 Z"/>
</g>

<g id="BDM_336x280_psd_Asset_1_ManagedWiFi_Awareness_DM8_3_for_a_more_personalized__customer_experience__0_Layer0_0_MEMBER_1_FILL">
<path fill="#D82C26" stroke="none" d="
M 3.75 -3.85
Q 3.3 -3.55 3 -3.1 2.75 -2.5 2.75 -2 2.75 -1.5 3 -0.9 3.3 -0.45 3.75 -0.15 4.2 0.1 4.85 0.1 5.5 0.1 5.95 -0.15 6.4 -0.45 6.7 -0.9 6.95 -1.35 6.95 -2 6.95 -2.65 6.7 -3.1 6.4 -3.55 5.95 -3.85 5.35 -4.1 4.85 -4.1 4.35 -4.1 3.75 -3.85
M 4 -3.45
Q 4.35 -3.65 4.85 -3.65 5.35 -3.65 5.7 -3.45 6.1 -3.2 6.25 -2.85 6.45 -2.5 6.45 -2 6.45 -1.5 6.25 -1.15 6.1 -0.8 5.7 -0.55 5.3 -0.3 4.85 -0.3 4.4 -0.3 4 -0.55 3.6 -0.8 3.45 -1.15 3.25 -1.5 3.25 -2 3.25 -2.5 3.45 -2.85 3.6 -3.2 4 -3.45 Z"/>
</g>

<g id="BDM_336x280_psd_Asset_1_ManagedWiFi_Awareness_DM8_3_for_a_more_personalized__customer_experience__0_Layer0_0_MEMBER_2_FILL">
<path fill="#D82C26" stroke="none" d="
M 8.4 -3.95
L 7.95 -3.95 8 0 8.5 0 8.5 -1.95
Q 8.5 -2.7 8.8 -3.15 9.1 -3.65 9.6 -3.65
L 9.95 -3.6 10.05 -4 9.65 -4.1
Q 9.3 -4.1 8.95 -3.85 8.6 -3.45 8.45 -3.1
L 8.4 -3.95 Z"/>
</g>

<g id="BDM_336x280_psd_Asset_1_ManagedWiFi_Awareness_DM8_3_for_a_more_personalized__customer_experience__0_Layer0_0_MEMBER_3_FILL">
<path fill="#D82C26" stroke="none" d="
M 13.65 -3.7
Q 14.15 -3.7 14.45 -3.4 14.75 -3.15 14.75 -2.6
L 14.75 -2.4 14.3 -2.4
Q 12 -2.4 12 -1.05 12 -0.5 12.4 -0.2 12.8 0.1 13.25 0.1 13.8 0.1 14.15 -0.1 14.6 -0.3 14.75 -0.75
L 14.8 -0.75 14.8 -0.35 14.85 0 15.3 0 15.25 -2.6
Q 15.25 -3.3 14.85 -3.7 14.35 -4.1 13.7 -4.1 13.3 -4.1 12.9 -3.95 12.4 -3.75 12.25 -3.6
L 12.35 -3.2 12.95 -3.55
Q 13.35 -3.7 13.65 -3.7
M 14.35 -2.05
L 14.75 -2.05 14.75 -1.65
Q 14.75 -1.3 14.6 -1 14.45 -0.65 14.15 -0.45 13.75 -0.25 13.35 -0.25 13.05 -0.25 12.75 -0.45 12.5 -0.65 12.5 -1.1 12.5 -2.05 14.35 -2.05 Z"/>
</g>

<g id="BDM_336x280_psd_Asset_1_ManagedWiFi_Awareness_DM8_3_for_a_more_personalized__customer_experience__0_Layer0_0_MEMBER_4_FILL">
<path fill="#D82C26" stroke="none" d="
M 19.3 -3.45
Q 19.55 -3.65 19.95 -3.65 20.4 -3.65 20.7 -3.35 20.95 -2.95 20.95 -2.35
L 20.95 0 21.45 0 21.45 -2.05
Q 21.45 -2.8 21.8 -3.2 22.1 -3.65 22.7 -3.65 23.3 -3.65 23.5 -3.25 23.75 -2.85 23.75 -2.25
L 23.75 0 24.25 0 24.25 -2.4
Q 24.25 -3.05 23.9 -3.6 23.5 -4.1 22.8 -4.1 22.3 -4.1 21.9 -3.8 21.6 -3.6 21.35 -3.05 21.2 -3.55 20.9 -3.8 20.55 -4.1 20.05 -4.1 19.65 -4.1 19.25 -3.8 18.85 -3.55 18.7 -3.1
L 18.65 -3.1 18.65 -3.95 18.15 -3.95 18.2 0 18.7 0 18.7 -1.95
Q 18.7 -2.5 18.85 -2.9 19 -3.3 19.3 -3.45 Z"/>
</g>

<g id="BDM_336x280_psd_Asset_1_ManagedWiFi_Awareness_DM8_3_for_a_more_personalized__customer_experience__0_Layer0_0_MEMBER_5_FILL">
<path fill="#D82C26" stroke="none" d="
M 29.15 -3.1
Q 28.85 -3.55 28.4 -3.85 27.8 -4.1 27.3 -4.1 26.75 -4.1 26.25 -3.85 25.75 -3.55 25.5 -3.1 25.2 -2.55 25.2 -2 25.2 -1.4 25.5 -0.9 25.75 -0.45 26.25 -0.15 26.65 0.1 27.3 0.1 27.95 0.1 28.4 -0.15 28.85 -0.45 29.15 -0.9 29.45 -1.4 29.45 -2 29.45 -2.55 29.15 -3.1
M 26.45 -3.45
Q 26.8 -3.65 27.3 -3.65 27.8 -3.65 28.15 -3.45 28.55 -3.2 28.75 -2.85 28.95 -2.35 28.95 -2 28.95 -1.65 28.75 -1.15 28.55 -0.75 28.15 -0.55 27.8 -0.3 27.3 -0.3 26.85 -0.3 26.45 -0.55 26.15 -0.75 25.9 -1.15 25.7 -1.5 25.7 -2 25.7 -2.5 25.9 -2.85 26.15 -3.25 26.45 -3.45 Z"/>
</g>

<g id="BDM_336x280_psd_Asset_1_ManagedWiFi_Awareness_DM8_3_for_a_more_personalized__customer_experience__0_Layer0_0_MEMBER_6_FILL">
<path fill="#D82C26" stroke="none" d="
M 31.4 -3.85
Q 31.1 -3.55 30.95 -3.1
L 30.9 -3.1 30.85 -3.95 30.4 -3.95 30.45 0 30.95 0 30.95 -1.95
Q 30.95 -2.7 31.25 -3.15 31.55 -3.65 32.05 -3.65
L 32.4 -3.6 32.5 -4 32.1 -4.1
Q 31.8 -4.1 31.4 -3.85 Z"/>
</g>

<g id="BDM_336x280_psd_Asset_1_ManagedWiFi_Awareness_DM8_3_for_a_more_personalized__customer_experience__0_Layer0_0_MEMBER_7_FILL">
<path fill="#D82C26" stroke="none" d="
M 34.7 -4.1
Q 34.2 -4.1 33.7 -3.85 33.2 -3.5 33 -3.1 32.75 -2.65 32.75 -2 32.75 -1.5 33 -0.9 33.35 -0.4 33.75 -0.15 34.15 0.1 34.75 0.1 35.7 0.1 36.35 -0.4
L 36.25 -0.8
Q 36.05 -0.6 35.65 -0.45 35.2 -0.3 34.8 -0.3 34.35 -0.3 34 -0.5 33.6 -0.75 33.45 -1.1 33.3 -1.35 33.2 -1.9
L 36.6 -1.9 36.6 -2.15
Q 36.6 -2.6 36.35 -3.1 36.25 -3.45 35.75 -3.85 35.25 -4.1 34.7 -4.1
M 33.95 -3.5
Q 34.2 -3.7 34.7 -3.7 35.3 -3.7 35.7 -3.3 36.1 -2.95 36.1 -2.3
L 33.25 -2.3
Q 33.25 -2.6 33.4 -2.9 33.65 -3.3 33.95 -3.5 Z"/>
</g>

<g id="BDM_336x280_psd_Asset_1_ManagedWiFi_Awareness_DM8_3_for_a_more_personalized__customer_experience__0_Layer0_0_MEMBER_8_FILL">
<path fill="#D82C26" stroke="none" d="
M 39.25 -3.95
L 39.3 -3.25 39.3 2.05 39.8 2.05 39.8 -0.85
Q 40 -0.4 40.45 -0.15 40.85 0.1 41.4 0.1 41.95 0.1 42.45 -0.15 42.95 -0.45 43.15 -0.9 43.4 -1.5 43.4 -2 43.4 -2.55 43.15 -3.05 42.95 -3.45 42.45 -3.8 42 -4.1 41.4 -4.1 40.95 -4.1 40.45 -3.85 40 -3.5 39.8 -3.1
L 39.75 -3.95 39.25 -3.95
M 39.75 -2
Q 39.75 -2.25 39.95 -2.85 40.2 -3.2 40.55 -3.45 40.9 -3.65 41.35 -3.65 41.9 -3.65 42.15 -3.45 42.55 -3.2 42.7 -2.85 42.9 -2.45 42.9 -2 42.9 -1.5 42.7 -1.15 42.55 -0.8 42.15 -0.55 41.8 -0.3 41.35 -0.3 40.95 -0.3 40.55 -0.55 40.2 -0.75 39.95 -1.15 39.75 -1.65 39.75 -2 Z"/>
</g>

<g id="BDM_336x280_psd_Asset_1_ManagedWiFi_Awareness_DM8_3_for_a_more_personalized__customer_experience__0_Layer0_0_MEMBER_9_FILL">
<path fill="#D82C26" stroke="none" d="
M 44.45 -0.9
Q 44.65 -0.45 45.15 -0.15 45.55 0.1 46.2 0.1 47.15 0.1 47.8 -0.4
L 47.7 -0.8
Q 47.55 -0.65 47.05 -0.45 46.7 -0.3 46.25 -0.3 45.8 -0.3 45.45 -0.5 45.1 -0.7 44.85 -1.1 44.65 -1.6 44.65 -1.9
L 48 -1.9 48.05 -2.15
Q 48.05 -2.6 47.8 -3.1 47.55 -3.55 47.15 -3.85 46.75 -4.1 46.15 -4.1 45.65 -4.1 45.15 -3.85 44.65 -3.5 44.45 -3.1 44.2 -2.65 44.2 -2 44.2 -1.35 44.45 -0.9
M 44.85 -2.9
Q 45 -3.2 45.35 -3.5 45.7 -3.7 46.15 -3.7 46.75 -3.7 47.15 -3.3 47.55 -2.9 47.55 -2.3
L 44.65 -2.3 44.85 -2.9 Z"/>
</g>

<g id="BDM_336x280_psd_Asset_1_ManagedWiFi_Awareness_DM8_3_for_a_more_personalized__customer_experience__0_Layer0_0_MEMBER_10_FILL">
<path fill="#D82C26" stroke="none" d="
M 49.45 -3.95
L 49 -3.95 49.05 0 49.55 0 49.55 -1.95
Q 49.55 -2.7 49.85 -3.15 50.15 -3.65 50.65 -3.65
L 51 -3.6 51.1 -4 50.7 -4.1
Q 50.35 -4.1 50 -3.85 49.65 -3.45 49.5 -3.1
L 49.45 -3.95 Z"/>
</g>

<g id="BDM_336x280_psd_Asset_1_ManagedWiFi_Awareness_DM8_3_for_a_more_personalized__customer_experience__0_Layer0_0_MEMBER_11_FILL">
<path fill="#D82C26" stroke="none" d="
M 54.15 -3.65
Q 53.95 -3.85 53.6 -3.95 53.25 -4.1 52.9 -4.1 52.55 -4.1 52.25 -3.95 52.05 -3.9 51.75 -3.6 51.55 -3.3 51.55 -3 51.55 -2.5 51.85 -2.3 52.25 -2 52.7 -1.9 53.35 -1.65 53.55 -1.5 53.8 -1.35 53.8 -1.05 53.8 -0.65 53.5 -0.5 53.3 -0.3 52.9 -0.3 52.15 -0.3 51.55 -0.75
L 51.5 -0.35
Q 51.7 -0.15 52.1 0
L 52.9 0.1 53.55 0
Q 53.85 -0.15 54.05 -0.4 54.25 -0.65 54.25 -1.05 54.25 -1.45 53.95 -1.75 53.5 -2.1 53.05 -2.2
L 52.25 -2.55
Q 52.05 -2.7 52.05 -3 52.05 -3.35 52.3 -3.5 52.5 -3.7 52.9 -3.7
L 53.45 -3.6 53.95 -3.3 54.15 -3.65 Z"/>
</g>

<g id="BDM_336x280_psd_Asset_1_ManagedWiFi_Awareness_DM8_3_for_a_more_personalized__customer_experience__0_Layer0_0_MEMBER_12_FILL">
<path fill="#D82C26" stroke="none" d="
M 55.25 -3.1
Q 54.95 -2.55 54.95 -2 54.95 -1.4 55.25 -0.9 55.5 -0.45 56 -0.15 56.4 0.1 57.05 0.1 57.7 0.1 58.15 -0.15 58.6 -0.45 58.9 -0.9 59.2 -1.4 59.2 -2 59.2 -2.55 58.9 -3.1 58.6 -3.55 58.15 -3.85 57.55 -4.1 57.05 -4.1 56.5 -4.1 56 -3.85 55.5 -3.55 55.25 -3.1
M 55.45 -2
Q 55.45 -2.5 55.65 -2.85 55.9 -3.25 56.2 -3.45 56.55 -3.65 57.05 -3.65 57.55 -3.65 57.9 -3.45 58.3 -3.2 58.5 -2.85 58.7 -2.35 58.7 -2 58.7 -1.65 58.5 -1.15 58.3 -0.75 57.9 -0.55 57.55 -0.3 57.05 -0.3 56.6 -0.3 56.2 -0.55 55.9 -0.75 55.65 -1.15 55.45 -1.5 55.45 -2 Z"/>
</g>

<g id="BDM_336x280_psd_Asset_1_ManagedWiFi_Awareness_DM8_3_for_a_more_personalized__customer_experience__0_Layer0_0_MEMBER_13_FILL">
<path fill="#D82C26" stroke="none" d="
M 60.65 -3.95
L 60.15 -3.95 60.2 0 60.7 0 60.7 -2
Q 60.7 -2.5 60.85 -2.9 61.1 -3.35 61.35 -3.45 61.6 -3.65 62 -3.65 62.65 -3.65 62.85 -3.25 63.1 -2.85 63.1 -2.3
L 63.1 0 63.6 0 63.6 -2.4
Q 63.6 -3.2 63.25 -3.6 62.9 -4.1 62.1 -4.1 61.65 -4.1 61.25 -3.8 60.85 -3.55 60.7 -3.1
L 60.65 -3.1 60.65 -3.95 Z"/>
</g>

<g id="BDM_336x280_psd_Asset_1_ManagedWiFi_Awareness_DM8_3_for_a_more_personalized__customer_experience__0_Layer0_0_MEMBER_14_FILL">
<path fill="#D82C26" stroke="none" d="
M 64.55 -1.05
Q 64.55 -0.5 64.9 -0.2 65.3 0.1 65.8 0.1 66.35 0.1 66.7 -0.1 67.15 -0.3 67.3 -0.75
L 67.4 0 67.85 0 67.75 -0.85 67.75 -2.6
Q 67.75 -3.35 67.35 -3.7 66.95 -4.1 66.25 -4.1 65.85 -4.1 65.45 -3.95
L 64.75 -3.6 64.9 -3.2
Q 65.1 -3.4 65.5 -3.55
L 66.2 -3.7
Q 66.7 -3.7 67 -3.4 67.3 -3.15 67.3 -2.6
L 67.3 -2.4 66.8 -2.4
Q 64.55 -2.4 64.55 -1.05
M 65.3 -0.45
Q 65 -0.65 65 -1.1 65 -2.05 66.9 -2.05
L 67.3 -2.05 67.3 -1.65
Q 67.3 -1.3 67.15 -1 67 -0.65 66.7 -0.45 66.2 -0.25 65.9 -0.25 65.6 -0.25 65.3 -0.45 Z"/>
</g>

<g id="BDM_336x280_psd_Asset_1_ManagedWiFi_Awareness_DM8_3_for_a_more_personalized__customer_experience__0_Layer0_0_MEMBER_15_FILL">
<path fill="#D82C26" stroke="none" d="
M 69 -0.9
Q 69 -0.45 69.2 -0.25 69.4 0.05 69.65 0.1
L 69.85 -0.3 69.6 -0.55 69.5 -1 69.5 -6.45 69 -6.35 69 -0.9 Z"/>
</g>

<g id="BDM_336x280_psd_Asset_1_ManagedWiFi_Awareness_DM8_3_for_a_more_personalized__customer_experience__0_Layer0_0_MEMBER_16_FILL">
<path fill="#D82C26" stroke="none" d="
M 71.3 -3.95
L 70.8 -3.95 70.8 0 71.3 0 71.3 -3.95
M 70.7 -5.55
L 70.8 -5.3 71.05 -5.2 71.3 -5.3
Q 71.4 -5.35 71.4 -5.55 71.4 -5.75 71.3 -5.8 71.25 -5.9 71.05 -5.9 70.9 -5.9 70.8 -5.8
L 70.7 -5.55 Z"/>
</g>

<g id="BDM_336x280_psd_Asset_1_ManagedWiFi_Awareness_DM8_3_for_a_more_personalized__customer_experience__0_Layer0_0_MEMBER_17_FILL">
<path fill="#D82C26" stroke="none" d="
M 74.6 -3.6
L 72.15 -0.4 72.15 0 75.3 0 75.35 -0.4 72.75 -0.4 75.2 -3.6 75.2 -3.95 72.3 -3.95 72.2 -3.6 74.6 -3.6 Z"/>
</g>

<g id="BDM_336x280_psd_Asset_1_ManagedWiFi_Awareness_DM8_3_for_a_more_personalized__customer_experience__0_Layer0_0_MEMBER_18_FILL">
<path fill="#D82C26" stroke="none" d="
M 79.4 -3.1
Q 79.15 -3.55 78.75 -3.85 78.25 -4.1 77.75 -4.1 77.25 -4.1 76.75 -3.85 76.25 -3.5 76.05 -3.1 75.75 -2.55 75.75 -2 75.75 -1.4 76.05 -0.9 76.25 -0.45 76.75 -0.15 77.15 0.1 77.8 0.1 78.75 0.1 79.4 -0.4
L 79.3 -0.8
Q 79.15 -0.65 78.65 -0.45 78.3 -0.3 77.85 -0.3 77.3 -0.3 77.05 -0.5 76.7 -0.7 76.45 -1.1 76.25 -1.6 76.25 -1.9
L 79.6 -1.9 79.6 -2.15
Q 79.6 -2.7 79.4 -3.1
M 76.95 -3.5
Q 77.3 -3.7 77.75 -3.7 78.35 -3.7 78.75 -3.3 79.15 -2.9 79.15 -2.3
L 76.25 -2.3
Q 76.25 -2.5 76.45 -2.9 76.6 -3.2 76.95 -3.5 Z"/>
</g>

<g id="BDM_336x280_psd_Asset_1_ManagedWiFi_Awareness_DM8_3_for_a_more_personalized__customer_experience__0_Layer0_0_MEMBER_19_FILL">
<path fill="#D82C26" stroke="none" d="
M 80.4 -2
Q 80.4 -1.35 80.65 -0.9 80.85 -0.45 81.35 -0.15 81.85 0.1 82.35 0.1 83 0.1 83.3 -0.15 83.75 -0.4 84 -0.85
L 84.05 0 84.55 0 84.5 -6.5 84 -6.4 84 -3.1
Q 83.65 -3.6 83.3 -3.85 82.9 -4.1 82.35 -4.1 81.8 -4.1 81.35 -3.8 80.85 -3.45 80.65 -3.05 80.4 -2.65 80.4 -2
M 81.6 -3.45
Q 81.95 -3.65 82.45 -3.65 82.9 -3.65 83.25 -3.45 83.65 -3.2 83.8 -2.85 84 -2.45 84 -2 84 -1.5 83.8 -1.15 83.65 -0.8 83.25 -0.55 82.85 -0.3 82.45 -0.3 82 -0.3 81.6 -0.55 81.25 -0.8 81.05 -1.15 80.9 -1.5 80.9 -2 80.9 -2.4 81.05 -2.85 81.25 -3.2 81.6 -3.45 Z"/>
</g>

<g id="BDM_336x280_psd_Asset_1_ManagedWiFi_Awareness_DM8_3_for_a_more_personalized__customer_experience__0_Layer0_0_MEMBER_20_FILL">
<path fill="#D82C26" stroke="none" d="
M 2.55 5.8
Q 2 5.8 1.5 6.05 1.1 6.3 0.75 6.8 0.45 7.35 0.45 7.9 0.45 8.5 0.75 9 1 9.45 1.5 9.75 2 10 2.55 10
L 3.3 9.85
Q 3.6 9.8 3.9 9.5
L 3.85 9.1 3.25 9.45
Q 3.05 9.55 2.6 9.55 2.1 9.55 1.75 9.35 1.35 9.1 1.2 8.75 1 8.4 1 7.9 1 7.4 1.2 7.05 1.35 6.7 1.75 6.45 2.15 6.2 2.55 6.2 2.9 6.2 3.2 6.35 3.45 6.4 3.7 6.65
L 3.9 6.25 3.3 5.9 2.55 5.8 Z"/>
</g>

<g id="BDM_336x280_psd_Asset_1_ManagedWiFi_Awareness_DM8_3_for_a_more_personalized__customer_experience__0_Layer0_0_MEMBER_21_FILL">
<path fill="#D82C26" stroke="none" d="
M 8.05 5.9
L 7.55 5.9 7.55 7.9
Q 7.55 8.45 7.4 8.8 7.25 9.1 6.9 9.4 6.5 9.6 6.25 9.6 5.7 9.6 5.4 9.2 5.15 8.8 5.15 8.2
L 5.15 5.9 4.65 5.9 4.65 8.35
Q 4.65 9 5 9.5 5.35 10 6.1 10 6.6 10 7 9.75 7.4 9.45 7.55 9.05
L 7.65 9.9 8.15 9.9 8.05 8.95 8.05 5.9 Z"/>
</g>

<g id="BDM_336x280_psd_Asset_1_ManagedWiFi_Awareness_DM8_3_for_a_more_personalized__customer_experience__0_Layer0_0_MEMBER_22_FILL">
<path fill="#D82C26" stroke="none" d="
M 11.15 5.9
L 10.45 5.8 9.8 5.9
Q 9.5 6.05 9.3 6.3 9.1 6.6 9.1 6.9 9.1 7.3 9.4 7.6 9.8 7.9 10.25 8 10.9 8.25 11.1 8.4 11.35 8.55 11.35 8.85 11.35 9.15 11.1 9.4 10.85 9.6 10.45 9.6 9.65 9.6 9.15 9.1
L 9.05 9.55
Q 9.3 9.8 9.65 9.85 10.05 10 10.45 10
L 11.15 9.85
Q 11.4 9.8 11.65 9.45 11.8 9.25 11.8 8.85 11.8 8.4 11.5 8.15 11.25 7.9 10.6 7.65 9.95 7.45 9.8 7.3 9.6 7.15 9.6 6.85 9.6 6.5 9.85 6.35 10.1 6.2 10.45 6.2
L 11 6.3
Q 11.25 6.35 11.5 6.6
L 11.7 6.2 11.15 5.9 Z"/>
</g>

<g id="BDM_336x280_psd_Asset_1_ManagedWiFi_Awareness_DM8_3_for_a_more_personalized__customer_experience__0_Layer0_0_MEMBER_23_FILL">
<path fill="#D82C26" stroke="none" d="
M 13.05 5.9
L 12.4 5.9 12.3 6.3 13.05 6.3 13.05 8.95
Q 13.05 9.35 13.3 9.7 13.5 9.95 13.95 9.95
L 14.4 9.9 14.8 9.75 14.75 9.4 14.1 9.55
Q 13.85 9.55 13.7 9.4 13.55 9.25 13.55 8.85
L 13.55 6.3 14.55 6.3 14.65 5.9 13.55 5.9 13.55 4.8 13.05 4.95 13.05 5.9 Z"/>
</g>

<g id="BDM_336x280_psd_Asset_1_ManagedWiFi_Awareness_DM8_3_for_a_more_personalized__customer_experience__0_Layer0_0_MEMBER_24_FILL">
<path fill="#D82C26" stroke="none" d="
M 18.3 6.05
Q 17.8 5.8 17.25 5.8 16.65 5.8 16.15 6.05 15.7 6.35 15.4 6.8 15.1 7.25 15.1 7.9 15.1 8.5 15.4 9 15.7 9.45 16.15 9.75 16.65 10 17.25 10 17.8 10 18.3 9.75 18.85 9.45 19.05 9 19.35 8.5 19.35 7.9 19.35 7.25 19.05 6.8 18.85 6.35 18.3 6.05
M 18.85 7.9
Q 18.85 8.4 18.65 8.75 18.4 9.15 18.1 9.35 17.7 9.6 17.25 9.6 16.75 9.6 16.4 9.35 16.05 9.15 15.8 8.75 15.6 8.25 15.6 7.9 15.6 7.55 15.8 7.05 16.05 6.7 16.4 6.45 16.75 6.2 17.25 6.2 17.7 6.2 18.1 6.45 18.4 6.65 18.65 7.05 18.85 7.4 18.85 7.9 Z"/>
</g>

<g id="BDM_336x280_psd_Asset_1_ManagedWiFi_Awareness_DM8_3_for_a_more_personalized__customer_experience__0_Layer0_0_MEMBER_25_FILL">
<path fill="#D82C26" stroke="none" d="
M 20.8 5.9
L 20.35 5.9 20.35 9.9 20.85 9.9 20.85 7.9
Q 20.85 7.35 21.05 7 21.2 6.65 21.5 6.4 21.8 6.2 22.1 6.2 22.6 6.2 22.85 6.55 23.1 6.85 23.1 7.55
L 23.1 9.9 23.6 9.9 23.6 7.85
Q 23.6 7.2 23.95 6.65 24.35 6.2 24.85 6.2 25.4 6.2 25.65 6.6 25.9 7 25.9 7.6
L 25.9 9.9 26.4 9.9 26.4 7.5
Q 26.4 6.7 26.05 6.3 25.75 5.8 24.95 5.8 24.5 5.8 24.1 6.05 23.75 6.35 23.5 6.8 23.35 6.35 23.05 6.05 22.7 5.8 22.25 5.8 21.8 5.8 21.4 6.05 21 6.4 20.85 6.8
L 20.8 5.9 Z"/>
</g>

<g id="BDM_336x280_psd_Asset_1_ManagedWiFi_Awareness_DM8_3_for_a_more_personalized__customer_experience__0_Layer0_0_MEMBER_26_FILL">
<path fill="#D82C26" stroke="none" d="
M 31.25 7.75
Q 31.25 7.25 31 6.75 30.8 6.35 30.35 6.05 29.95 5.8 29.35 5.8 28.85 5.8 28.35 6.05 27.85 6.4 27.65 6.8 27.4 7.2 27.4 7.9 27.4 8.55 27.65 9 27.85 9.45 28.35 9.75 28.95 10 29.4 10 30.35 10 31 9.5
L 30.9 9.1
Q 30.7 9.3 30.25 9.45 29.9 9.6 29.45 9.6 29.15 9.6 28.65 9.4 28.25 9.15 28.1 8.8 27.85 8.4 27.85 7.95
L 31.25 7.95 31.25 7.75
M 29.35 6.2
Q 30 6.2 30.35 6.55 30.75 7.05 30.75 7.6
L 27.9 7.6 28.05 6.95 28.55 6.4
Q 28.9 6.2 29.35 6.2 Z"/>
</g>

<g id="BDM_336x280_psd_Asset_1_ManagedWiFi_Awareness_DM8_3_for_a_more_personalized__customer_experience__0_Layer0_0_MEMBER_27_FILL">
<path fill="#D82C26" stroke="none" d="
M 32.65 5.9
L 32.2 5.9 32.25 9.9 32.75 9.9 32.75 7.9
Q 32.75 7.2 33.05 6.75 33.35 6.25 33.85 6.25
L 34.2 6.3 34.3 5.85 33.9 5.8
Q 33.55 5.8 33.2 6.05 32.85 6.4 32.75 6.8
L 32.7 6.8 32.65 5.9 Z"/>
</g>

<g id="BDM_336x280_psd_Asset_1_ManagedWiFi_Awareness_DM8_3_for_a_more_personalized__customer_experience__0_Layer0_0_MEMBER_28_FILL">
<path fill="#D82C26" stroke="none" d="
M 38.2 5.8
Q 37.7 5.8 37.2 6.05 36.85 6.3 36.5 6.8 36.25 7.3 36.25 7.9 36.25 8.4 36.5 9 36.8 9.45 37.25 9.75 37.75 10 38.3 10 39.3 10 39.85 9.5
L 39.8 9.1 39.15 9.45
Q 38.8 9.6 38.35 9.6 38 9.6 37.5 9.4 37.2 9.2 36.95 8.8 36.75 8.45 36.75 7.95
L 40.1 7.95 40.1 7.75
Q 40.1 7.15 39.9 6.75 39.7 6.35 39.25 6.05 38.75 5.8 38.2 5.8
M 39.25 6.55
Q 39.55 6.95 39.65 7.6
L 36.75 7.6
Q 36.75 7.3 36.95 6.95 37.15 6.6 37.45 6.4 37.7 6.2 38.2 6.2 38.9 6.2 39.25 6.55 Z"/>
</g>

<g id="BDM_336x280_psd_Asset_1_ManagedWiFi_Awareness_DM8_3_for_a_more_personalized__customer_experience__0_Layer0_0_MEMBER_29_FILL">
<path fill="#D82C26" stroke="none" d="
M 41.25 5.9
L 40.65 5.9 42.1 7.8 40.5 9.9 41.1 9.9 42.4 8.15 43.65 9.9 44.3 9.9 42.7 7.8 44.1 5.9 43.5 5.9 42.4 7.45 41.25 5.9 Z"/>
</g>

<g id="BDM_336x280_psd_Asset_1_ManagedWiFi_Awareness_DM8_3_for_a_more_personalized__customer_experience__0_Layer0_0_MEMBER_30_FILL">
<path fill="#D82C26" stroke="none" d="
M 47.15 5.8
Q 46.7 5.8 46.2 6.05 45.7 6.45 45.55 6.8
L 45.5 5.9 45 5.9 45.05 11.9 45.55 11.9 45.55 9.05
Q 45.7 9.35 46.2 9.75 46.7 10 47.15 10 47.75 10 48.2 9.7 48.7 9.45 48.9 8.95 49.15 8.6 49.15 7.9 49.15 7.25 48.9 6.85 48.7 6.35 48.2 6.1 47.75 5.8 47.15 5.8
M 48.65 7.9
Q 48.65 8.4 48.45 8.75 48.3 9.1 47.9 9.35 47.55 9.6 47.1 9.6 46.7 9.6 46.3 9.35 45.9 9.1 45.75 8.75 45.55 8.4 45.55 7.9 45.55 7.4 45.75 7.05 45.9 6.7 46.3 6.45 46.7 6.2 47.1 6.2 47.55 6.2 47.9 6.45 48.3 6.7 48.45 7.05 48.65 7.4 48.65 7.9 Z"/>
</g>

<g id="BDM_336x280_psd_Asset_1_ManagedWiFi_Awareness_DM8_3_for_a_more_personalized__customer_experience__0_Layer0_0_MEMBER_31_FILL">
<path fill="#D82C26" stroke="none" d="
M 51.9 5.8
Q 51.4 5.8 50.9 6.05 50.4 6.4 50.2 6.8 49.95 7.2 49.95 7.9 49.95 8.55 50.2 9 50.4 9.45 50.9 9.75 51.5 10 51.95 10 52.9 10 53.55 9.5
L 53.45 9.1
Q 53.3 9.25 52.8 9.45 52.45 9.6 52 9.6 51.7 9.6 51.2 9.4 50.8 9.15 50.65 8.8 50.4 8.4 50.4 7.95
L 53.8 7.95 53.8 7.75
Q 53.8 7.25 53.55 6.75 53.35 6.35 52.9 6.05 52.5 5.8 51.9 5.8
M 51.9 6.2
Q 52.55 6.2 52.9 6.55 53.3 7.05 53.3 7.6
L 50.4 7.6 50.6 6.95 51.1 6.4
Q 51.45 6.2 51.9 6.2 Z"/>
</g>

<g id="BDM_336x280_psd_Asset_1_ManagedWiFi_Awareness_DM8_3_for_a_more_personalized__customer_experience__0_Layer0_0_MEMBER_32_FILL">
<path fill="#D82C26" stroke="none" d="
M 56.85 5.85
L 56.45 5.8
Q 56.1 5.8 55.75 6.05 55.45 6.35 55.25 6.8
L 55.2 5.9 54.75 5.9 54.8 9.9 55.3 9.9 55.3 7.9
Q 55.3 7.2 55.6 6.75 55.9 6.25 56.4 6.25
L 56.75 6.3 56.85 5.85 Z"/>
</g>

<g id="BDM_336x280_psd_Asset_1_ManagedWiFi_Awareness_DM8_3_for_a_more_personalized__customer_experience__0_Layer0_0_MEMBER_33_FILL">
<path fill="#D82C26" stroke="none" d="
M 58.05 5.9
L 57.55 5.9 57.55 9.9 58.05 9.9 58.05 5.9
M 58.05 4.6
L 58.15 4.35 58.05 4.05 57.8 3.95
Q 57.65 3.95 57.55 4.1 57.45 4.15 57.45 4.35 57.45 4.5 57.55 4.6
L 57.8 4.7 58.05 4.6 Z"/>
</g>

<g id="BDM_336x280_psd_Asset_1_ManagedWiFi_Awareness_DM8_3_for_a_more_personalized__customer_experience__0_Layer0_0_MEMBER_34_FILL">
<path fill="#D82C26" stroke="none" d="
M 62.05 6.05
Q 61.55 5.8 61 5.8 60.5 5.8 60 6.05 59.65 6.3 59.3 6.8 59.05 7.3 59.05 7.9 59.05 8.4 59.3 9 59.6 9.45 60.05 9.75 60.55 10 61.1 10 62.05 10 62.7 9.5
L 62.6 9.1 61.95 9.45
Q 61.6 9.6 61.15 9.6 60.8 9.6 60.3 9.4 59.95 9.15 59.75 8.8 59.55 8.45 59.55 7.95
L 62.9 7.95 62.9 7.75
Q 62.9 7.15 62.7 6.75 62.5 6.35 62.05 6.05
M 62.05 6.55
Q 62.45 7.05 62.45 7.6
L 59.55 7.6
Q 59.55 7.3 59.75 6.95 59.95 6.6 60.25 6.4 60.5 6.2 61 6.2 61.7 6.2 62.05 6.55 Z"/>
</g>

<g id="BDM_336x280_psd_Asset_1_ManagedWiFi_Awareness_DM8_3_for_a_more_personalized__customer_experience__0_Layer0_0_MEMBER_35_FILL">
<path fill="#D82C26" stroke="none" d="
M 64.35 5.9
L 63.9 5.9 63.9 9.9 64.4 9.9 64.4 7.85
Q 64.4 7.5 64.6 7 64.75 6.65 65.05 6.4 65.55 6.2 65.75 6.2 66.3 6.2 66.55 6.6 66.8 6.9 66.8 7.6
L 66.8 9.9 67.3 9.9 67.3 7.45
Q 67.3 6.7 66.95 6.3 66.6 5.8 65.85 5.8 65.4 5.8 65 6.05 64.65 6.3 64.4 6.8
L 64.35 5.9 Z"/>
</g>

<g id="BDM_336x280_psd_Asset_1_ManagedWiFi_Awareness_DM8_3_for_a_more_personalized__customer_experience__0_Layer0_0_MEMBER_36_FILL">
<path fill="#D82C26" stroke="none" d="
M 71.75 6.25
L 71.15 5.9 70.4 5.8
Q 69.9 5.8 69.3 6.05 68.85 6.35 68.55 6.8 68.3 7.4 68.3 7.9 68.3 8.4 68.55 9 68.85 9.45 69.3 9.75 69.8 10 70.35 10 70.8 10 71.15 9.85 71.35 9.8 71.75 9.5
L 71.65 9.1 71.1 9.45
Q 70.9 9.55 70.4 9.55 69.9 9.55 69.55 9.35 69.25 9.15 69 8.75 68.8 8.25 68.8 7.9 68.8 7.55 69 7.05 69.25 6.65 69.55 6.45 69.95 6.2 70.4 6.2 70.7 6.2 71 6.35 71.35 6.45 71.5 6.65
L 71.75 6.25 Z"/>
</g>

<g id="BDM_336x280_psd_Asset_1_ManagedWiFi_Awareness_DM8_3_for_a_more_personalized__customer_experience__0_Layer0_0_MEMBER_37_FILL">
<path fill="#D82C26" stroke="none" d="
M 74.15 5.8
Q 73.65 5.8 73.15 6.05 72.8 6.3 72.45 6.8 72.2 7.3 72.2 7.9 72.2 8.4 72.45 9 72.75 9.45 73.2 9.75 73.7 10 74.25 10 75.25 10 75.8 9.5
L 75.75 9.1 75.1 9.45
Q 74.75 9.6 74.3 9.6 73.95 9.6 73.45 9.4 73.15 9.2 72.9 8.8 72.7 8.45 72.7 7.95
L 76.05 7.95 76.05 7.75
Q 76.05 7.15 75.85 6.75 75.65 6.35 75.2 6.05 74.7 5.8 74.15 5.8
M 75.2 6.55
Q 75.6 7.05 75.6 7.6
L 72.7 7.6
Q 72.7 7.3 72.9 6.95 73.1 6.6 73.4 6.4 73.65 6.2 74.15 6.2 74.85 6.2 75.2 6.55 Z"/>
</g>

<g id="BDM_336x280_psd_Asset_1_ManagedWiFi_Awareness_DM8_3_for_a_more_personalized__customer_experience__0_Layer0_0_MEMBER_38_FILL">
<path fill="#D82C26" stroke="none" d="
M 77 9.85
L 77.25 9.95 77.55 9.85 77.65 9.55 77.55 9.3 77.25 9.15 77 9.3 76.9 9.55 77 9.85 Z"/>
</g>
</defs>

<g transform="matrix( 1, 0, 0, 1, -18,-42) ">
<g transform="matrix( 1, 0, 0, 1, 12,64) ">
<g transform="matrix( 1, 0, 0, 1, 25,9) ">
<g transform="matrix( 2.815704345703125, 0, 0, 2.832611083984375, 0.15,18.6) ">
<use xlink:href="#BDM_336x280_psd_Asset_1_ManagedWiFi_Awareness_DM8_3_for_a_more_personalized__customer_experience__0_Layer0_0_MEMBER_0_FILL"/>
</g>

<g transform="matrix( 2.815704345703125, 0, 0, 2.832611083984375, 0.15,18.6) ">
<use xlink:href="#BDM_336x280_psd_Asset_1_ManagedWiFi_Awareness_DM8_3_for_a_more_personalized__customer_experience__0_Layer0_0_MEMBER_1_FILL"/>
</g>

<g transform="matrix( 2.815704345703125, 0, 0, 2.832611083984375, 0.15,18.6) ">
<use xlink:href="#BDM_336x280_psd_Asset_1_ManagedWiFi_Awareness_DM8_3_for_a_more_personalized__customer_experience__0_Layer0_0_MEMBER_2_FILL"/>
</g>

<g transform="matrix( 2.815704345703125, 0, 0, 2.832611083984375, 0.15,18.6) ">
<use xlink:href="#BDM_336x280_psd_Asset_1_ManagedWiFi_Awareness_DM8_3_for_a_more_personalized__customer_experience__0_Layer0_0_MEMBER_3_FILL"/>
</g>

<g transform="matrix( 2.815704345703125, 0, 0, 2.832611083984375, 0.15,18.6) ">
<use xlink:href="#BDM_336x280_psd_Asset_1_ManagedWiFi_Awareness_DM8_3_for_a_more_personalized__customer_experience__0_Layer0_0_MEMBER_4_FILL"/>
</g>

<g transform="matrix( 2.815704345703125, 0, 0, 2.832611083984375, 0.15,18.6) ">
<use xlink:href="#BDM_336x280_psd_Asset_1_ManagedWiFi_Awareness_DM8_3_for_a_more_personalized__customer_experience__0_Layer0_0_MEMBER_5_FILL"/>
</g>

<g transform="matrix( 2.815704345703125, 0, 0, 2.832611083984375, 0.15,18.6) ">
<use xlink:href="#BDM_336x280_psd_Asset_1_ManagedWiFi_Awareness_DM8_3_for_a_more_personalized__customer_experience__0_Layer0_0_MEMBER_6_FILL"/>
</g>

<g transform="matrix( 2.815704345703125, 0, 0, 2.832611083984375, 0.15,18.6) ">
<use xlink:href="#BDM_336x280_psd_Asset_1_ManagedWiFi_Awareness_DM8_3_for_a_more_personalized__customer_experience__0_Layer0_0_MEMBER_7_FILL"/>
</g>

<g transform="matrix( 2.815704345703125, 0, 0, 2.832611083984375, 0.15,18.6) ">
<use xlink:href="#BDM_336x280_psd_Asset_1_ManagedWiFi_Awareness_DM8_3_for_a_more_personalized__customer_experience__0_Layer0_0_MEMBER_8_FILL"/>
</g>

<g transform="matrix( 2.815704345703125, 0, 0, 2.832611083984375, 0.15,18.6) ">
<use xlink:href="#BDM_336x280_psd_Asset_1_ManagedWiFi_Awareness_DM8_3_for_a_more_personalized__customer_experience__0_Layer0_0_MEMBER_9_FILL"/>
</g>

<g transform="matrix( 2.815704345703125, 0, 0, 2.832611083984375, 0.15,18.6) ">
<use xlink:href="#BDM_336x280_psd_Asset_1_ManagedWiFi_Awareness_DM8_3_for_a_more_personalized__customer_experience__0_Layer0_0_MEMBER_10_FILL"/>
</g>

<g transform="matrix( 2.815704345703125, 0, 0, 2.832611083984375, 0.15,18.6) ">
<use xlink:href="#BDM_336x280_psd_Asset_1_ManagedWiFi_Awareness_DM8_3_for_a_more_personalized__customer_experience__0_Layer0_0_MEMBER_11_FILL"/>
</g>

<g transform="matrix( 2.815704345703125, 0, 0, 2.832611083984375, 0.15,18.6) ">
<use xlink:href="#BDM_336x280_psd_Asset_1_ManagedWiFi_Awareness_DM8_3_for_a_more_personalized__customer_experience__0_Layer0_0_MEMBER_12_FILL"/>
</g>

<g transform="matrix( 2.815704345703125, 0, 0, 2.832611083984375, 0.15,18.6) ">
<use xlink:href="#BDM_336x280_psd_Asset_1_ManagedWiFi_Awareness_DM8_3_for_a_more_personalized__customer_experience__0_Layer0_0_MEMBER_13_FILL"/>
</g>

<g transform="matrix( 2.815704345703125, 0, 0, 2.832611083984375, 0.15,18.6) ">
<use xlink:href="#BDM_336x280_psd_Asset_1_ManagedWiFi_Awareness_DM8_3_for_a_more_personalized__customer_experience__0_Layer0_0_MEMBER_14_FILL"/>
</g>

<g transform="matrix( 2.815704345703125, 0, 0, 2.832611083984375, 0.15,18.6) ">
<use xlink:href="#BDM_336x280_psd_Asset_1_ManagedWiFi_Awareness_DM8_3_for_a_more_personalized__customer_experience__0_Layer0_0_MEMBER_15_FILL"/>
</g>

<g transform="matrix( 2.815704345703125, 0, 0, 2.832611083984375, 0.15,18.6) ">
<use xlink:href="#BDM_336x280_psd_Asset_1_ManagedWiFi_Awareness_DM8_3_for_a_more_personalized__customer_experience__0_Layer0_0_MEMBER_16_FILL"/>
</g>

<g transform="matrix( 2.815704345703125, 0, 0, 2.832611083984375, 0.15,18.6) ">
<use xlink:href="#BDM_336x280_psd_Asset_1_ManagedWiFi_Awareness_DM8_3_for_a_more_personalized__customer_experience__0_Layer0_0_MEMBER_17_FILL"/>
</g>

<g transform="matrix( 2.815704345703125, 0, 0, 2.832611083984375, 0.15,18.6) ">
<use xlink:href="#BDM_336x280_psd_Asset_1_ManagedWiFi_Awareness_DM8_3_for_a_more_personalized__customer_experience__0_Layer0_0_MEMBER_18_FILL"/>
</g>

<g transform="matrix( 2.815704345703125, 0, 0, 2.832611083984375, 0.15,18.6) ">
<use xlink:href="#BDM_336x280_psd_Asset_1_ManagedWiFi_Awareness_DM8_3_for_a_more_personalized__customer_experience__0_Layer0_0_MEMBER_19_FILL"/>
</g>

<g transform="matrix( 2.815704345703125, 0, 0, 2.832611083984375, 0.15,18.6) ">
<use xlink:href="#BDM_336x280_psd_Asset_1_ManagedWiFi_Awareness_DM8_3_for_a_more_personalized__customer_experience__0_Layer0_0_MEMBER_20_FILL"/>
</g>

<g transform="matrix( 2.815704345703125, 0, 0, 2.832611083984375, 0.15,18.6) ">
<use xlink:href="#BDM_336x280_psd_Asset_1_ManagedWiFi_Awareness_DM8_3_for_a_more_personalized__customer_experience__0_Layer0_0_MEMBER_21_FILL"/>
</g>

<g transform="matrix( 2.815704345703125, 0, 0, 2.832611083984375, 0.15,18.6) ">
<use xlink:href="#BDM_336x280_psd_Asset_1_ManagedWiFi_Awareness_DM8_3_for_a_more_personalized__customer_experience__0_Layer0_0_MEMBER_22_FILL"/>
</g>

<g transform="matrix( 2.815704345703125, 0, 0, 2.832611083984375, 0.15,18.6) ">
<use xlink:href="#BDM_336x280_psd_Asset_1_ManagedWiFi_Awareness_DM8_3_for_a_more_personalized__customer_experience__0_Layer0_0_MEMBER_23_FILL"/>
</g>

<g transform="matrix( 2.815704345703125, 0, 0, 2.832611083984375, 0.15,18.6) ">
<use xlink:href="#BDM_336x280_psd_Asset_1_ManagedWiFi_Awareness_DM8_3_for_a_more_personalized__customer_experience__0_Layer0_0_MEMBER_24_FILL"/>
</g>

<g transform="matrix( 2.815704345703125, 0, 0, 2.832611083984375, 0.15,18.6) ">
<use xlink:href="#BDM_336x280_psd_Asset_1_ManagedWiFi_Awareness_DM8_3_for_a_more_personalized__customer_experience__0_Layer0_0_MEMBER_25_FILL"/>
</g>

<g transform="matrix( 2.815704345703125, 0, 0, 2.832611083984375, 0.15,18.6) ">
<use xlink:href="#BDM_336x280_psd_Asset_1_ManagedWiFi_Awareness_DM8_3_for_a_more_personalized__customer_experience__0_Layer0_0_MEMBER_26_FILL"/>
</g>

<g transform="matrix( 2.815704345703125, 0, 0, 2.832611083984375, 0.15,18.6) ">
<use xlink:href="#BDM_336x280_psd_Asset_1_ManagedWiFi_Awareness_DM8_3_for_a_more_personalized__customer_experience__0_Layer0_0_MEMBER_27_FILL"/>
</g>

<g transform="matrix( 2.815704345703125, 0, 0, 2.832611083984375, 0.15,18.6) ">
<use xlink:href="#BDM_336x280_psd_Asset_1_ManagedWiFi_Awareness_DM8_3_for_a_more_personalized__customer_experience__0_Layer0_0_MEMBER_28_FILL"/>
</g>

<g transform="matrix( 2.815704345703125, 0, 0, 2.832611083984375, 0.15,18.6) ">
<use xlink:href="#BDM_336x280_psd_Asset_1_ManagedWiFi_Awareness_DM8_3_for_a_more_personalized__customer_experience__0_Layer0_0_MEMBER_29_FILL"/>
</g>

<g transform="matrix( 2.815704345703125, 0, 0, 2.832611083984375, 0.15,18.6) ">
<use xlink:href="#BDM_336x280_psd_Asset_1_ManagedWiFi_Awareness_DM8_3_for_a_more_personalized__customer_experience__0_Layer0_0_MEMBER_30_FILL"/>
</g>

<g transform="matrix( 2.815704345703125, 0, 0, 2.832611083984375, 0.15,18.6) ">
<use xlink:href="#BDM_336x280_psd_Asset_1_ManagedWiFi_Awareness_DM8_3_for_a_more_personalized__customer_experience__0_Layer0_0_MEMBER_31_FILL"/>
</g>

<g transform="matrix( 2.815704345703125, 0, 0, 2.832611083984375, 0.15,18.6) ">
<use xlink:href="#BDM_336x280_psd_Asset_1_ManagedWiFi_Awareness_DM8_3_for_a_more_personalized__customer_experience__0_Layer0_0_MEMBER_32_FILL"/>
</g>

<g transform="matrix( 2.815704345703125, 0, 0, 2.832611083984375, 0.15,18.6) ">
<use xlink:href="#BDM_336x280_psd_Asset_1_ManagedWiFi_Awareness_DM8_3_for_a_more_personalized__customer_experience__0_Layer0_0_MEMBER_33_FILL"/>
</g>

<g transform="matrix( 2.815704345703125, 0, 0, 2.832611083984375, 0.15,18.6) ">
<use xlink:href="#BDM_336x280_psd_Asset_1_ManagedWiFi_Awareness_DM8_3_for_a_more_personalized__customer_experience__0_Layer0_0_MEMBER_34_FILL"/>
</g>

<g transform="matrix( 2.815704345703125, 0, 0, 2.832611083984375, 0.15,18.6) ">
<use xlink:href="#BDM_336x280_psd_Asset_1_ManagedWiFi_Awareness_DM8_3_for_a_more_personalized__customer_experience__0_Layer0_0_MEMBER_35_FILL"/>
</g>

<g transform="matrix( 2.815704345703125, 0, 0, 2.832611083984375, 0.15,18.6) ">
<use xlink:href="#BDM_336x280_psd_Asset_1_ManagedWiFi_Awareness_DM8_3_for_a_more_personalized__customer_experience__0_Layer0_0_MEMBER_36_FILL"/>
</g>

<g transform="matrix( 2.815704345703125, 0, 0, 2.832611083984375, 0.15,18.6) ">
<use xlink:href="#BDM_336x280_psd_Asset_1_ManagedWiFi_Awareness_DM8_3_for_a_more_personalized__customer_experience__0_Layer0_0_MEMBER_37_FILL"/>
</g>

<g transform="matrix( 2.815704345703125, 0, 0, 2.832611083984375, 0.15,18.6) ">
<use xlink:href="#BDM_336x280_psd_Asset_1_ManagedWiFi_Awareness_DM8_3_for_a_more_personalized__customer_experience__0_Layer0_0_MEMBER_38_FILL"/>
</g>
</g>
</g>
</g>
</svg>
