
<svg xmlns="http://www.w3.org/2000/svg" version="1.1" xmlns:xlink="http://www.w3.org/1999/xlink" preserveAspectRatio="none" x="0px" y="0px" width="728px" height="90px" viewBox="0 0 728 90">
<defs>
<g id="IT_728x90_psd_Asset_5_ManagedWiFi_IT_Awareness_DM6_1_Free_up_your_IT_team_so_they_can__spend_more_time_innovating__0_Layer0_0_MEMBER_0_FILL">
<path fill="#D82C26" stroke="none" d="
M 4.3 -6.6
L 0.9 -6.6 0.9 0 1.5 0 1.5 -3.15 4.05 -3.15 4.15 -3.65 1.5 -3.65 1.5 -6.1 4.3 -6.1 4.3 -6.6 Z"/>
</g>

<g id="IT_728x90_psd_Asset_5_ManagedWiFi_IT_Awareness_DM6_1_Free_up_your_IT_team_so_they_can__spend_more_time_innovating__0_Layer0_0_MEMBER_1_FILL">
<path fill="#D82C26" stroke="none" d="
M 7.7 -3.95
L 7.8 -4.45 7.3 -4.5
Q 6.95 -4.5 6.55 -4.2 6.2 -3.95 6.05 -3.45
L 6 -3.45 5.95 -4.4 5.45 -4.4 5.5 0 6.05 0 6.05 -2.2
Q 6.05 -3 6.4 -3.5 6.7 -4 7.3 -4
L 7.7 -3.95 Z"/>
</g>

<g id="IT_728x90_psd_Asset_5_ManagedWiFi_IT_Awareness_DM6_1_Free_up_your_IT_team_so_they_can__spend_more_time_innovating__0_Layer0_0_MEMBER_2_FILL">
<path fill="#D82C26" stroke="none" d="
M 8.55 -1
Q 8.9 -0.4 9.35 -0.15 9.9 0.15 10.5 0.15 11.55 0.15 12.25 -0.4
L 12.2 -0.9
Q 11.85 -0.65 11.45 -0.5 11.1 -0.3 10.55 -0.3 10.15 -0.3 9.65 -0.55 9.3 -0.75 9.05 -1.2 8.8 -1.7 8.8 -2.1
L 12.5 -2.1 12.55 -2.35
Q 12.55 -2.85 12.3 -3.45 12.05 -3.95 11.55 -4.25 11.05 -4.5 10.45 -4.5 9.8 -4.5 9.35 -4.2 8.9 -4 8.55 -3.4 8.25 -2.85 8.25 -2.2 8.25 -1.5 8.55 -1
M 9.05 -3.25
Q 9.2 -3.5 9.6 -3.85 10 -4.1 10.45 -4.1 11.2 -4.1 11.55 -3.65 12 -3.2 12 -2.5
L 8.8 -2.5
Q 8.9 -3 9.05 -3.25 Z"/>
</g>

<g id="IT_728x90_psd_Asset_5_ManagedWiFi_IT_Awareness_DM6_1_Free_up_your_IT_team_so_they_can__spend_more_time_innovating__0_Layer0_0_MEMBER_3_FILL">
<path fill="#D82C26" stroke="none" d="
M 13.9 -1
Q 14.25 -0.4 14.7 -0.15 15.25 0.15 15.85 0.15 16.8 0.15 17.6 -0.4
L 17.5 -0.9
Q 17.1 -0.6 16.8 -0.5 16.4 -0.3 15.9 -0.3 15.4 -0.3 15 -0.55 14.6 -0.8 14.35 -1.2 14.15 -1.6 14.15 -2.1
L 17.85 -2.1 17.85 -2.35
Q 17.85 -3 17.6 -3.45 17.35 -3.95 16.9 -4.25 16.4 -4.5 15.8 -4.5 15.2 -4.5 14.65 -4.2 14.25 -4 13.9 -3.4 13.6 -2.85 13.6 -2.2 13.6 -1.5 13.9 -1
M 14.35 -3.25
L 14.9 -3.85
Q 15.3 -4.1 15.8 -4.1 16.45 -4.1 16.9 -3.65 17.35 -3.2 17.35 -2.5
L 14.15 -2.5
Q 14.15 -2.75 14.35 -3.25 Z"/>
</g>

<g id="IT_728x90_psd_Asset_5_ManagedWiFi_IT_Awareness_DM6_1_Free_up_your_IT_team_so_they_can__spend_more_time_innovating__0_Layer0_0_MEMBER_4_FILL">
<path fill="#D82C26" stroke="none" d="
M 25.1 -4.4
L 24.55 -4.4 24.55 -2.2
Q 24.55 -1.6 24.35 -1.2 24.15 -0.75 23.85 -0.55 23.5 -0.35 23.1 -0.35 22.4 -0.35 22.15 -0.75 21.9 -1.25 21.9 -1.85
L 21.9 -4.4 21.35 -4.4 21.35 -1.7
Q 21.35 -0.85 21.75 -0.4 22.1 0.1 22.95 0.1 23.4 0.1 23.9 -0.15 24.35 -0.45 24.55 -0.95
L 24.65 0 25.15 0 25.1 -4.4 Z"/>
</g>

<g id="IT_728x90_psd_Asset_5_ManagedWiFi_IT_Awareness_DM6_1_Free_up_your_IT_team_so_they_can__spend_more_time_innovating__0_Layer0_0_MEMBER_5_FILL">
<path fill="#D82C26" stroke="none" d="
M 29.1 -4.5
Q 28.6 -4.5 28.05 -4.2 27.6 -3.95 27.35 -3.4
L 27.3 -3.4 27.25 -4.4 26.75 -4.4 26.75 2.25 27.3 2.25 27.3 -0.95 27.35 -0.95
Q 27.55 -0.5 28.05 -0.15 28.5 0.1 29.1 0.1 29.75 0.1 30.25 -0.2 30.75 -0.5 31.05 -1 31.3 -1.6 31.3 -2.2 31.3 -2.75 31.05 -3.35 30.7 -3.95 30.25 -4.2 29.75 -4.5 29.1 -4.5
M 29.05 -4.05
Q 29.55 -4.05 29.95 -3.8 30.3 -3.6 30.55 -3.1 30.75 -2.6 30.75 -2.2 30.75 -1.85 30.55 -1.25 30.35 -0.85 29.95 -0.6 29.65 -0.35 29.05 -0.35 28.45 -0.35 28.15 -0.6 27.8 -0.8 27.5 -1.25 27.3 -1.65 27.3 -2.2 27.3 -2.75 27.5 -3.1 27.75 -3.6 28.15 -3.8 28.55 -4.05 29.05 -4.05 Z"/>
</g>

<g id="IT_728x90_psd_Asset_5_ManagedWiFi_IT_Awareness_DM6_1_Free_up_your_IT_team_so_they_can__spend_more_time_innovating__0_Layer0_0_MEMBER_6_FILL">
<path fill="#D82C26" stroke="none" d="
M 34.75 -4.4
L 34.15 -4.4 36 0.05 35.65 0.95
Q 35.5 1.4 35.2 1.55 34.95 1.75 34.4 1.75
L 34.55 2.25
Q 35.2 2.25 35.55 1.95 35.9 1.75 36.15 1.1
L 38.2 -4.4 37.6 -4.4 36.25 -0.6 34.75 -4.4 Z"/>
</g>

<g id="IT_728x90_psd_Asset_5_ManagedWiFi_IT_Awareness_DM6_1_Free_up_your_IT_team_so_they_can__spend_more_time_innovating__0_Layer0_0_MEMBER_7_FILL">
<path fill="#D82C26" stroke="none" d="
M 39.1 -1
Q 39.4 -0.45 39.95 -0.15 40.5 0.15 41.15 0.15 41.85 0.15 42.35 -0.15 42.75 -0.4 43.2 -1 43.5 -1.5 43.5 -2.2 43.5 -2.85 43.2 -3.4 42.75 -4.05 42.35 -4.2 41.85 -4.5 41.15 -4.5 40.5 -4.5 39.95 -4.2 39.45 -4 39.1 -3.4 38.8 -2.85 38.8 -2.2 38.8 -1.5 39.1 -1
M 39.6 -3.15
Q 39.75 -3.55 40.2 -3.8 40.6 -4.05 41.15 -4.05 41.6 -4.05 42.1 -3.8 42.45 -3.6 42.7 -3.15 42.95 -2.65 42.95 -2.2 42.95 -1.75 42.7 -1.25 42.45 -0.8 42.1 -0.6 41.75 -0.35 41.15 -0.35 40.5 -0.35 40.2 -0.6 39.75 -0.85 39.6 -1.25 39.35 -1.75 39.35 -2.2 39.35 -2.65 39.6 -3.15 Z"/>
</g>

<g id="IT_728x90_psd_Asset_5_ManagedWiFi_IT_Awareness_DM6_1_Free_up_your_IT_team_so_they_can__spend_more_time_innovating__0_Layer0_0_MEMBER_8_FILL">
<path fill="#D82C26" stroke="none" d="
M 44.8 -1.7
Q 44.8 -0.9 45.15 -0.4 45.6 0.1 46.4 0.1 46.85 0.1 47.35 -0.15 47.8 -0.45 48 -0.95
L 48.05 0 48.6 0 48.55 -4.4 48 -4.4 48 -2.2
Q 48 -1.8 47.8 -1.2 47.55 -0.75 47.25 -0.55 47 -0.35 46.55 -0.35 45.85 -0.35 45.6 -0.75 45.35 -1.25 45.35 -1.85
L 45.35 -4.4 44.8 -4.4 44.8 -1.7 Z"/>
</g>

<g id="IT_728x90_psd_Asset_5_ManagedWiFi_IT_Awareness_DM6_1_Free_up_your_IT_team_so_they_can__spend_more_time_innovating__0_Layer0_0_MEMBER_9_FILL">
<path fill="#D82C26" stroke="none" d="
M 50.75 -3.45
L 50.7 -4.4 50.15 -4.4 50.2 0 50.75 0 50.75 -2.2
Q 50.75 -3 51.1 -3.5 51.4 -4 52 -4
L 52.4 -3.95 52.5 -4.45 52.05 -4.5
Q 51.6 -4.5 51.3 -4.2 50.95 -3.95 50.75 -3.45 Z"/>
</g>

<g id="IT_728x90_psd_Asset_5_ManagedWiFi_IT_Awareness_DM6_1_Free_up_your_IT_team_so_they_can__spend_more_time_innovating__0_Layer0_0_MEMBER_10_FILL">
<path fill="#D82C26" stroke="none" d="
M 56.15 -6.6
L 55.6 -6.6 55.6 0 56.15 0 56.15 -6.6 Z"/>
</g>

<g id="IT_728x90_psd_Asset_5_ManagedWiFi_IT_Awareness_DM6_1_Free_up_your_IT_team_so_they_can__spend_more_time_innovating__0_Layer0_0_MEMBER_11_FILL">
<path fill="#D82C26" stroke="none" d="
M 57.25 -6.1
L 59.35 -6.1 59.35 0 59.95 0 59.95 -6.1 61.95 -6.1 62.05 -6.6 57.35 -6.6 57.25 -6.1 Z"/>
</g>

<g id="IT_728x90_psd_Asset_5_ManagedWiFi_IT_Awareness_DM6_1_Free_up_your_IT_team_so_they_can__spend_more_time_innovating__0_Layer0_0_MEMBER_12_FILL">
<path fill="#D82C26" stroke="none" d="
M 65.7 -4.4
L 65.7 -5.65 65.15 -5.45 65.15 -4.4 64.45 -4.4 64.35 -3.95 65.2 -3.95 65.2 -1.05
Q 65.2 -0.45 65.45 -0.2 65.75 0.1 66.2 0.1
L 66.7 0.05 67.15 -0.15 67.05 -0.55
Q 66.7 -0.35 66.35 -0.35 66.05 -0.35 65.9 -0.55 65.7 -0.75 65.7 -1.15
L 65.7 -3.95 66.85 -3.95 66.95 -4.4 65.7 -4.4 Z"/>
</g>

<g id="IT_728x90_psd_Asset_5_ManagedWiFi_IT_Awareness_DM6_1_Free_up_your_IT_team_so_they_can__spend_more_time_innovating__0_Layer0_0_MEMBER_13_FILL">
<path fill="#D82C26" stroke="none" d="
M 69.9 -4.5
Q 69.25 -4.5 68.8 -4.2 68.35 -4 68 -3.4 67.7 -2.85 67.7 -2.2 67.7 -1.5 68 -1 68.35 -0.4 68.8 -0.15 69.35 0.15 69.95 0.15 71 0.15 71.7 -0.4
L 71.6 -0.9
Q 71.35 -0.65 70.9 -0.5 70.55 -0.3 70 -0.3 69.5 -0.3 69.1 -0.55 68.75 -0.75 68.5 -1.2 68.25 -1.7 68.25 -2.1
L 71.95 -2.1 72 -2.35
Q 72 -2.85 71.75 -3.45 71.35 -4.05 71 -4.25 70.5 -4.5 69.9 -4.5
M 69.05 -3.85
Q 69.4 -4.1 69.9 -4.1 70.65 -4.1 71 -3.65 71.45 -3.2 71.45 -2.5
L 68.25 -2.5 68.45 -3.25 69.05 -3.85 Z"/>
</g>

<g id="IT_728x90_psd_Asset_5_ManagedWiFi_IT_Awareness_DM6_1_Free_up_your_IT_team_so_they_can__spend_more_time_innovating__0_Layer0_0_MEMBER_14_FILL">
<path fill="#D82C26" stroke="none" d="
M 74.8 -4.5
Q 74.35 -4.5 73.95 -4.35 73.55 -4.3 73.2 -3.95
L 73.35 -3.55 74 -3.9
Q 74.35 -4.1 74.75 -4.1 75.35 -4.1 75.65 -3.75 76 -3.45 76 -2.9
L 76 -2.65 75.45 -2.65
Q 72.95 -2.65 72.95 -1.2 72.95 -0.5 73.35 -0.2 73.8 0.1 74.35 0.1 75 0.1 75.35 -0.15 75.75 -0.35 76 -0.85
L 76.05 0 76.6 0 76.5 -0.95 76.5 -2.85
Q 76.5 -3.65 76.05 -4.1 75.65 -4.5 74.8 -4.5
M 75.3 -0.5
Q 74.95 -0.3 74.45 -0.3 74 -0.3 73.75 -0.5 73.45 -0.7 73.45 -1.2 73.45 -2.25 75.55 -2.25
L 76 -2.25 76 -1.8
Q 76 -1.45 75.8 -1.1 75.65 -0.7 75.3 -0.5 Z"/>
</g>

<g id="IT_728x90_psd_Asset_5_ManagedWiFi_IT_Awareness_DM6_1_Free_up_your_IT_team_so_they_can__spend_more_time_innovating__0_Layer0_0_MEMBER_15_FILL">
<path fill="#D82C26" stroke="none" d="
M 78.65 -3.45
L 78.6 -4.4 78.1 -4.4 78.1 0 78.65 0 78.65 -2.2
Q 78.65 -2.6 78.85 -3.2 79 -3.6 79.35 -3.85 79.6 -4.05 80.05 -4.05 80.6 -4.05 80.85 -3.65 81.15 -3.25 81.15 -2.6
L 81.15 0 81.7 0 81.7 -2.25
Q 81.7 -3 82.1 -3.55 82.45 -4.05 83.1 -4.05 83.75 -4.05 83.95 -3.6 84.25 -3.15 84.25 -2.5
L 84.25 0 84.8 0 84.8 -2.65
Q 84.8 -3.35 84.4 -4 84.05 -4.5 83.2 -4.5 82.65 -4.5 82.25 -4.2 81.8 -3.9 81.6 -3.4 81.5 -3.8 81.1 -4.2 80.75 -4.5 80.15 -4.5 79.7 -4.5 79.25 -4.2 78.95 -4 78.65 -3.45 Z"/>
</g>

<g id="IT_728x90_psd_Asset_5_ManagedWiFi_IT_Awareness_DM6_1_Free_up_your_IT_team_so_they_can__spend_more_time_innovating__0_Layer0_0_MEMBER_16_FILL">
<path fill="#D82C26" stroke="none" d="
M 89.8 -4.5
L 89.1 -4.4
Q 88.8 -4.3 88.55 -3.95 88.35 -3.75 88.35 -3.3 88.35 -2.85 88.65 -2.55 88.95 -2.25 89.6 -2.1
L 90.5 -1.65
Q 90.8 -1.5 90.8 -1.15 90.8 -0.75 90.5 -0.55 90.15 -0.3 89.8 -0.3 89 -0.3 88.35 -0.85
L 88.25 -0.35 88.95 0
Q 89.2 0.1 89.85 0.1
L 90.55 0
Q 90.85 -0.1 91.1 -0.45 91.3 -0.7 91.3 -1.15 91.3 -1.65 91 -1.95 90.4 -2.3 89.95 -2.45 89.25 -2.7 89.1 -2.85 88.85 -3 88.85 -3.35 88.85 -3.65 89.15 -3.9 89.45 -4.1 89.8 -4.1 90.15 -4.1 90.45 -3.95 90.55 -3.95 90.95 -3.65
L 91.2 -4.05 90.55 -4.4 89.8 -4.5 Z"/>
</g>

<g id="IT_728x90_psd_Asset_5_ManagedWiFi_IT_Awareness_DM6_1_Free_up_your_IT_team_so_they_can__spend_more_time_innovating__0_Layer0_0_MEMBER_17_FILL">
<path fill="#D82C26" stroke="none" d="
M 95.85 -4.2
Q 95.35 -4.5 94.65 -4.5 94 -4.5 93.45 -4.2 92.95 -4 92.6 -3.4 92.3 -2.85 92.3 -2.2 92.3 -1.5 92.6 -1 92.9 -0.45 93.45 -0.15 94 0.15 94.65 0.15 95.35 0.15 95.85 -0.15 96.4 -0.45 96.7 -1 97 -1.5 97 -2.2 97 -2.85 96.7 -3.4 96.35 -4 95.85 -4.2
M 94.65 -4.05
Q 95.1 -4.05 95.6 -3.8 95.95 -3.6 96.2 -3.15 96.45 -2.65 96.45 -2.2 96.45 -1.75 96.2 -1.25 95.95 -0.8 95.6 -0.6 95.25 -0.35 94.65 -0.35 94.1 -0.35 93.7 -0.6 93.35 -0.8 93.1 -1.25 92.85 -1.75 92.85 -2.2 92.85 -2.65 93.1 -3.15 93.35 -3.6 93.7 -3.8 94.2 -4.05 94.65 -4.05 Z"/>
</g>

<g id="IT_728x90_psd_Asset_5_ManagedWiFi_IT_Awareness_DM6_1_Free_up_your_IT_team_so_they_can__spend_more_time_innovating__0_Layer0_0_MEMBER_18_FILL">
<path fill="#D82C26" stroke="none" d="
M 101.15 -4.4
L 101.15 -5.65 100.6 -5.45 100.6 -4.4 99.9 -4.4 99.75 -3.95 100.6 -3.95 100.6 -1.05
Q 100.6 -0.55 100.85 -0.2 101.15 0.1 101.6 0.1
L 102.1 0.05 102.55 -0.15 102.5 -0.55
Q 102.1 -0.35 101.75 -0.35 101.5 -0.35 101.3 -0.55 101.15 -0.7 101.15 -1.15
L 101.15 -3.95 102.25 -3.95 102.4 -4.4 101.15 -4.4 Z"/>
</g>

<g id="IT_728x90_psd_Asset_5_ManagedWiFi_IT_Awareness_DM6_1_Free_up_your_IT_team_so_they_can__spend_more_time_innovating__0_Layer0_0_MEMBER_19_FILL">
<path fill="#D82C26" stroke="none" d="
M 104.15 -7.15
L 103.6 -7.05 103.6 0 104.15 0 104.15 -2.15
Q 104.15 -2.8 104.35 -3.15 104.5 -3.6 104.85 -3.85 105.2 -4.05 105.6 -4.05 106.3 -4.05 106.5 -3.6 106.8 -3.2 106.8 -2.55
L 106.8 0 107.35 0 107.35 -2.7
Q 107.35 -3.45 106.95 -4 106.6 -4.5 105.75 -4.5 105.2 -4.5 104.8 -4.2 104.4 -4 104.15 -3.45
L 104.15 -7.15 Z"/>
</g>

<g id="IT_728x90_psd_Asset_5_ManagedWiFi_IT_Awareness_DM6_1_Free_up_your_IT_team_so_they_can__spend_more_time_innovating__0_Layer0_0_MEMBER_20_FILL">
<path fill="#D82C26" stroke="none" d="
M 109.75 -4.2
Q 109.3 -4 108.95 -3.4 108.65 -2.85 108.65 -2.2 108.65 -1.5 108.95 -1 109.3 -0.4 109.75 -0.15 110.3 0.15 110.9 0.15 111.95 0.15 112.65 -0.4
L 112.55 -0.9
Q 112.3 -0.65 111.85 -0.5 111.5 -0.3 110.95 -0.3 110.45 -0.3 110.05 -0.55 109.7 -0.75 109.45 -1.2 109.2 -1.7 109.2 -2.1
L 112.9 -2.1 112.95 -2.35
Q 112.95 -2.85 112.7 -3.45 112.3 -4.05 111.95 -4.25 111.45 -4.5 110.85 -4.5 110.2 -4.5 109.75 -4.2
M 110 -3.85
Q 110.35 -4.1 110.85 -4.1 111.6 -4.1 111.95 -3.65 112.4 -3.2 112.4 -2.5
L 109.2 -2.5 109.4 -3.25 110 -3.85 Z"/>
</g>

<g id="IT_728x90_psd_Asset_5_ManagedWiFi_IT_Awareness_DM6_1_Free_up_your_IT_team_so_they_can__spend_more_time_innovating__0_Layer0_0_MEMBER_21_FILL">
<path fill="#D82C26" stroke="none" d="
M 114.15 -4.4
L 113.55 -4.4 115.4 0.05 115.05 0.95
Q 114.9 1.4 114.6 1.55 114.35 1.75 113.8 1.75
L 113.95 2.25
Q 114.6 2.25 114.95 1.95 115.3 1.75 115.55 1.1
L 117.6 -4.4 117 -4.4 115.7 -0.6 114.15 -4.4 Z"/>
</g>

<g id="IT_728x90_psd_Asset_5_ManagedWiFi_IT_Awareness_DM6_1_Free_up_your_IT_team_so_they_can__spend_more_time_innovating__0_Layer0_0_MEMBER_22_FILL">
<path fill="#D82C26" stroke="none" d="
M 120.45 -2.2
Q 120.45 -1.5 120.75 -1 121.1 -0.4 121.55 -0.15 122.1 0.15 122.7 0.15 123.2 0.15 123.55 0 123.85 -0.1 124.25 -0.4
L 124.15 -0.85
Q 123.75 -0.55 123.5 -0.5 123.2 -0.35 122.75 -0.35 122.25 -0.35 121.85 -0.6 121.5 -0.8 121.2 -1.25 121 -1.85 121 -2.2 121 -2.6 121.2 -3.1 121.45 -3.6 121.85 -3.8 122.25 -4.05 122.75 -4.05 123.1 -4.05 123.45 -3.9 123.7 -3.85 124 -3.55
L 124.25 -4
Q 123.85 -4.3 123.55 -4.35 123.2 -4.5 122.75 -4.5 122.1 -4.5 121.55 -4.2 121.05 -3.9 120.75 -3.4 120.45 -2.85 120.45 -2.2 Z"/>
</g>

<g id="IT_728x90_psd_Asset_5_ManagedWiFi_IT_Awareness_DM6_1_Free_up_your_IT_team_so_they_can__spend_more_time_innovating__0_Layer0_0_MEMBER_23_FILL">
<path fill="#D82C26" stroke="none" d="
M 125.15 -1.2
Q 125.15 -0.5 125.55 -0.2 126 0.1 126.55 0.1 127.15 0.1 127.5 -0.15 128 -0.4 128.15 -0.85
L 128.2 -0.85 128.2 -0.4 128.25 0 128.75 0 128.7 -2.85
Q 128.7 -3.65 128.25 -4.1 127.85 -4.5 127 -4.5 126.55 -4.5 126.1 -4.35 125.75 -4.25 125.4 -3.95
L 125.55 -3.55
Q 125.7 -3.7 126.2 -3.9 126.55 -4.1 126.95 -4.1 127.55 -4.1 127.85 -3.75 128.2 -3.4 128.2 -2.9
L 128.2 -2.65 127.65 -2.65
Q 125.15 -2.65 125.15 -1.2
M 125.95 -0.5
Q 125.65 -0.7 125.65 -1.2 125.65 -2.25 127.7 -2.25
L 128.2 -2.25 128.2 -1.8
Q 128.2 -1.6 128 -1.1 127.85 -0.8 127.5 -0.5 127.15 -0.3 126.65 -0.3 126.2 -0.3 125.95 -0.5 Z"/>
</g>

<g id="IT_728x90_psd_Asset_5_ManagedWiFi_IT_Awareness_DM6_1_Free_up_your_IT_team_so_they_can__spend_more_time_innovating__0_Layer0_0_MEMBER_24_FILL">
<path fill="#D82C26" stroke="none" d="
M 130.8 -4.4
L 130.25 -4.4 130.3 0 130.85 0 130.85 -2.25
Q 130.85 -2.85 131.05 -3.2 131.3 -3.65 131.6 -3.85 131.85 -4.05 132.3 -4.05 132.95 -4.05 133.25 -3.6 133.5 -3.2 133.5 -2.55
L 133.5 0 134.05 0 134.05 -2.7
Q 134.05 -3.45 133.65 -4 133.3 -4.5 132.45 -4.5 131.9 -4.5 131.45 -4.2 130.95 -3.8 130.85 -3.45
L 130.8 -4.4 Z"/>
</g>

<g id="IT_728x90_psd_Asset_5_ManagedWiFi_IT_Awareness_DM6_1_Free_up_your_IT_team_so_they_can__spend_more_time_innovating__0_Layer0_0_MEMBER_25_FILL">
<path fill="#D82C26" stroke="none" d="
M 2.05 5.95
Q 1.65 5.95 1.35 6.1 0.95 6.3 0.8 6.5 0.6 6.75 0.6 7.15 0.6 7.65 0.9 7.95 1.15 8.15 1.85 8.4
L 2.75 8.8
Q 3.05 9.05 3.05 9.35 3.05 9.75 2.75 9.95 2.5 10.15 2.05 10.15 1.15 10.15 0.6 9.65
L 0.5 10.1 1.2 10.45
Q 1.6 10.6 2.1 10.6 2.5 10.6 2.8 10.45 3.1 10.35 3.35 10 3.55 9.8 3.55 9.35 3.55 8.85 3.25 8.55 3 8.3 2.25 8.05
L 1.35 7.65
Q 1.1 7.5 1.1 7.15 1.1 6.75 1.4 6.6 1.6 6.4 2.05 6.4
L 2.7 6.5 3.2 6.85 3.45 6.45
Q 3.25 6.25 2.85 6.1 2.5 5.95 2.05 5.95 Z"/>
</g>

<g id="IT_728x90_psd_Asset_5_ManagedWiFi_IT_Awareness_DM6_1_Free_up_your_IT_team_so_they_can__spend_more_time_innovating__0_Layer0_0_MEMBER_26_FILL">
<path fill="#D82C26" stroke="none" d="
M 9.1 7.1
Q 8.9 6.65 8.35 6.25 7.85 5.95 7.2 5.95 6.6 5.95 6.15 6.25 5.7 6.55 5.4 7.05
L 5.35 6.1 4.8 6.1 4.85 12.7 5.4 12.7 5.4 9.55 5.45 9.55
Q 5.7 10.1 6.15 10.3 6.6 10.6 7.2 10.6 7.85 10.6 8.35 10.3 8.85 10 9.1 9.45 9.4 8.95 9.4 8.3 9.4 7.65 9.1 7.1
M 8.85 8.3
Q 8.85 8.8 8.6 9.2 8.45 9.7 8 9.9 7.6 10.15 7.1 10.15 6.65 10.15 6.25 9.9 5.8 9.6 5.6 9.2 5.4 8.85 5.4 8.3 5.4 7.75 5.6 7.35 5.8 6.9 6.25 6.7 6.55 6.45 7.1 6.45 7.7 6.45 8 6.7 8.45 6.95 8.6 7.35 8.85 7.85 8.85 8.3 Z"/>
</g>

<g id="IT_728x90_psd_Asset_5_ManagedWiFi_IT_Awareness_DM6_1_Free_up_your_IT_team_so_they_can__spend_more_time_innovating__0_Layer0_0_MEMBER_27_FILL">
<path fill="#D82C26" stroke="none" d="
M 14.5 7.05
Q 14.3 6.6 13.8 6.25 13.3 5.95 12.65 5.95 12.1 5.95 11.55 6.25 11.05 6.55 10.75 7.05 10.5 7.65 10.5 8.25 10.5 8.9 10.8 9.5 11 9.95 11.6 10.3 12.05 10.6 12.75 10.6 13.7 10.6 14.5 10.05
L 14.4 9.6 13.7 10
Q 13.25 10.15 12.8 10.15 12.25 10.15 11.85 9.9 11.45 9.65 11.25 9.25 11.1 9 11 8.35
L 14.75 8.35 14.75 8.15
Q 14.75 7.55 14.5 7.05
M 13.8 6.8
Q 14.2 7.3 14.2 7.95
L 11.05 7.95
Q 11.05 7.6 11.25 7.25 11.4 6.9 11.8 6.65 12.1 6.4 12.65 6.4 13.3 6.4 13.8 6.8 Z"/>
</g>

<g id="IT_728x90_psd_Asset_5_ManagedWiFi_IT_Awareness_DM6_1_Free_up_your_IT_team_so_they_can__spend_more_time_innovating__0_Layer0_0_MEMBER_28_FILL">
<path fill="#D82C26" stroke="none" d="
M 16.55 6.1
L 16.05 6.1 16.1 10.5 16.65 10.5 16.65 8.25
Q 16.65 7.65 16.85 7.25 17 6.95 17.35 6.65 17.7 6.45 18.1 6.45 18.8 6.45 19 6.85 19.3 7.3 19.3 7.95
L 19.3 10.5 19.85 10.5 19.85 7.8
Q 19.85 7.05 19.45 6.5 19.05 5.95 18.2 5.95 17.7 5.95 17.25 6.25 16.8 6.55 16.65 7.05
L 16.6 7.05 16.55 6.1 Z"/>
</g>

<g id="IT_728x90_psd_Asset_5_ManagedWiFi_IT_Awareness_DM6_1_Free_up_your_IT_team_so_they_can__spend_more_time_innovating__0_Layer0_0_MEMBER_29_FILL">
<path fill="#D82C26" stroke="none" d="
M 25.15 7.05
Q 24.95 6.55 24.4 6.25 23.95 5.95 23.35 5.95 22.7 5.95 22.25 6.25 21.7 6.65 21.45 7.1 21.15 7.65 21.15 8.3 21.15 8.95 21.45 9.45 21.8 10.05 22.25 10.3 22.7 10.6 23.35 10.6 23.95 10.6 24.4 10.3 24.9 10.1 25.15 9.5
L 25.2 9.5 25.25 10.5 25.75 10.5 25.7 3.3 25.15 3.4 25.15 7.05
M 25.2 8.3
Q 25.2 8.8 24.95 9.2 24.75 9.55 24.35 9.9 23.95 10.15 23.45 10.15 22.95 10.15 22.55 9.9 22.2 9.7 21.95 9.2 21.75 8.85 21.75 8.3 21.75 7.75 21.95 7.35 22.15 6.95 22.55 6.7 22.85 6.45 23.45 6.45 24.05 6.45 24.35 6.7 24.75 6.95 24.95 7.35 25.2 7.85 25.2 8.3 Z"/>
</g>

<g id="IT_728x90_psd_Asset_5_ManagedWiFi_IT_Awareness_DM6_1_Free_up_your_IT_team_so_they_can__spend_more_time_innovating__0_Layer0_0_MEMBER_30_FILL">
<path fill="#D82C26" stroke="none" d="
M 33.6 6.9
Q 34 6.45 34.6 6.45 35.2 6.45 35.45 6.85 35.75 7.3 35.75 8
L 35.75 10.5 36.25 10.5 36.25 7.85
Q 36.25 7 35.9 6.5 35.5 5.95 34.7 5.95 34.15 5.95 33.7 6.25 33.35 6.55 33.1 7.1 32.95 6.6 32.6 6.25 32.25 5.95 31.65 5.95 31.2 5.95 30.75 6.25 30.35 6.55 30.15 7.05
L 30.1 6.1 29.55 6.1 29.6 10.5 30.15 10.5 30.15 8.3
Q 30.15 7.9 30.35 7.3 30.45 6.95 30.85 6.65 31.1 6.45 31.55 6.45 32.15 6.45 32.35 6.8 32.65 7.2 32.65 7.9
L 32.65 10.5 33.2 10.5 33.2 8.2
Q 33.2 7.35 33.6 6.9 Z"/>
</g>

<g id="IT_728x90_psd_Asset_5_ManagedWiFi_IT_Awareness_DM6_1_Free_up_your_IT_team_so_they_can__spend_more_time_innovating__0_Layer0_0_MEMBER_31_FILL">
<path fill="#D82C26" stroke="none" d="
M 41.95 7.1
Q 41.7 6.6 41.1 6.25 40.6 5.95 39.9 5.95 39.3 5.95 38.7 6.25 38.2 6.55 37.9 7.1 37.6 7.65 37.6 8.3 37.6 8.9 37.9 9.5 38.2 10 38.7 10.3 39.3 10.6 39.9 10.6 40.6 10.6 41.1 10.3 41.7 9.95 41.95 9.5 42.25 8.9 42.25 8.3 42.25 7.65 41.95 7.1
M 41.5 9.2
Q 41.3 9.6 40.85 9.9 40.45 10.15 39.9 10.15 39.4 10.15 39 9.9 38.55 9.6 38.35 9.2 38.15 8.85 38.15 8.3 38.15 7.7 38.35 7.35 38.55 6.95 39 6.65 39.35 6.45 39.9 6.45 40.5 6.45 40.85 6.65 41.3 6.95 41.5 7.35 41.7 7.7 41.7 8.3 41.7 8.85 41.5 9.2 Z"/>
</g>

<g id="IT_728x90_psd_Asset_5_ManagedWiFi_IT_Awareness_DM6_1_Free_up_your_IT_team_so_they_can__spend_more_time_innovating__0_Layer0_0_MEMBER_32_FILL">
<path fill="#D82C26" stroke="none" d="
M 44.1 6.1
L 43.55 6.1 43.6 10.5 44.15 10.5 44.15 8.3
Q 44.15 7.5 44.5 7 44.8 6.45 45.4 6.45
L 45.8 6.5 45.9 6.05 45.45 5.95
Q 45 5.95 44.7 6.25 44.3 6.6 44.15 7.05
L 44.1 6.1 Z"/>
</g>

<g id="IT_728x90_psd_Asset_5_ManagedWiFi_IT_Awareness_DM6_1_Free_up_your_IT_team_so_they_can__spend_more_time_innovating__0_Layer0_0_MEMBER_33_FILL">
<path fill="#D82C26" stroke="none" d="
M 50.65 8.35
L 50.65 8.15
Q 50.65 7.55 50.4 7.05 50.2 6.6 49.7 6.25 49.2 5.95 48.55 5.95 48 5.95 47.45 6.25 46.95 6.55 46.65 7.05 46.4 7.65 46.4 8.25 46.4 8.9 46.7 9.5 46.9 9.95 47.5 10.3 47.95 10.6 48.65 10.6 49.6 10.6 50.4 10.05
L 50.3 9.6 49.6 10
Q 49.15 10.15 48.7 10.15 48.15 10.15 47.75 9.9 47.35 9.65 47.15 9.25 46.9 8.85 46.9 8.35
L 50.65 8.35
M 49.7 6.8
Q 50.1 7.3 50.1 7.95
L 46.95 7.95
Q 46.95 7.6 47.15 7.25 47.3 6.9 47.7 6.65 48 6.4 48.55 6.4 49.2 6.4 49.7 6.8 Z"/>
</g>

<g id="IT_728x90_psd_Asset_5_ManagedWiFi_IT_Awareness_DM6_1_Free_up_your_IT_team_so_they_can__spend_more_time_innovating__0_Layer0_0_MEMBER_34_FILL">
<path fill="#D82C26" stroke="none" d="
M 54.25 6.1
L 53.55 6.1 53.45 6.55 54.25 6.55 54.25 9.4
Q 54.25 9.95 54.55 10.25 54.8 10.55 55.25 10.55
L 55.75 10.5 56.2 10.35 56.15 9.95 55.45 10.1
Q 55.2 10.1 54.95 9.95 54.8 9.75 54.8 9.35
L 54.8 6.55 55.95 6.55 56.05 6.1 54.8 6.1 54.8 4.85 54.25 5.05 54.25 6.1 Z"/>
</g>

<g id="IT_728x90_psd_Asset_5_ManagedWiFi_IT_Awareness_DM6_1_Free_up_your_IT_team_so_they_can__spend_more_time_innovating__0_Layer0_0_MEMBER_35_FILL">
<path fill="#D82C26" stroke="none" d="
M 57.8 6.1
L 57.25 6.1 57.25 10.5 57.8 10.5 57.8 6.1
M 57.9 4.35
Q 57.9 4.15 57.8 4.05 57.6 3.95 57.5 3.95
L 57.25 4.05
Q 57.15 4.15 57.15 4.35 57.15 4.55 57.25 4.65
L 57.5 4.75
Q 57.6 4.75 57.8 4.65 57.9 4.55 57.9 4.35 Z"/>
</g>

<g id="IT_728x90_psd_Asset_5_ManagedWiFi_IT_Awareness_DM6_1_Free_up_your_IT_team_so_they_can__spend_more_time_innovating__0_Layer0_0_MEMBER_36_FILL">
<path fill="#D82C26" stroke="none" d="
M 63.45 6.9
Q 63.85 6.45 64.45 6.45 65.05 6.45 65.3 6.85 65.6 7.3 65.6 8
L 65.6 10.5 66.1 10.5 66.1 7.85
Q 66.1 7 65.75 6.5 65.35 5.95 64.55 5.95 64 5.95 63.55 6.25 63.2 6.55 62.95 7.1 62.8 6.6 62.45 6.25 62.1 5.95 61.5 5.95 61.05 5.95 60.6 6.25 60.2 6.55 60 7.05
L 59.95 6.1 59.4 6.1 59.45 10.5 60 10.5 60 8.3
Q 60 7.7 60.2 7.3 60.3 6.95 60.7 6.65 60.95 6.45 61.4 6.45 61.9 6.45 62.2 6.8 62.5 7.2 62.5 7.9
L 62.5 10.5 63.05 10.5 63.05 8.2
Q 63.05 7.35 63.45 6.9 Z"/>
</g>

<g id="IT_728x90_psd_Asset_5_ManagedWiFi_IT_Awareness_DM6_1_Free_up_your_IT_team_so_they_can__spend_more_time_innovating__0_Layer0_0_MEMBER_37_FILL">
<path fill="#D82C26" stroke="none" d="
M 71.7 8.15
Q 71.7 7.45 71.45 7.05 71.25 6.6 70.75 6.25 70.3 5.95 69.6 5.95 69.05 5.95 68.5 6.25 68.05 6.55 67.75 7.05 67.45 7.6 67.45 8.25 67.45 8.9 67.75 9.5 68.05 10 68.55 10.3 69.1 10.6 69.7 10.6 70.65 10.6 71.45 10.05
L 71.35 9.6 70.65 10
Q 70.2 10.15 69.75 10.15 69.15 10.15 68.85 9.9 68.4 9.6 68.2 9.25 68 8.9 68 8.35
L 71.7 8.35 71.7 8.15
M 69.6 6.4
Q 70.25 6.4 70.75 6.8 71.1 7.25 71.2 7.95
L 68 7.95
Q 68 7.75 68.2 7.25 68.45 6.85 68.75 6.65 69.05 6.4 69.6 6.4 Z"/>
</g>

<g id="IT_728x90_psd_Asset_5_ManagedWiFi_IT_Awareness_DM6_1_Free_up_your_IT_team_so_they_can__spend_more_time_innovating__0_Layer0_0_MEMBER_38_FILL">
<path fill="#D82C26" stroke="none" d="
M 75.8 6.1
L 75.25 6.1 75.25 10.5 75.8 10.5 75.8 6.1
M 75.9 4.35
Q 75.9 4.15 75.8 4.05 75.6 3.95 75.5 3.95
L 75.25 4.05
Q 75.15 4.15 75.15 4.35 75.15 4.55 75.25 4.65
L 75.5 4.75
Q 75.6 4.75 75.8 4.65 75.9 4.55 75.9 4.35 Z"/>
</g>

<g id="IT_728x90_psd_Asset_5_ManagedWiFi_IT_Awareness_DM6_1_Free_up_your_IT_team_so_they_can__spend_more_time_innovating__0_Layer0_0_MEMBER_39_FILL">
<path fill="#D82C26" stroke="none" d="
M 81.2 10.5
L 81.2 7.8
Q 81.2 6.95 80.8 6.5 80.4 5.95 79.6 5.95 79.05 5.95 78.65 6.25 78.2 6.55 78 7.05
L 77.95 6.1 77.45 6.1 77.45 10.5 78 10.5 78 8.25
Q 78 7.85 78.2 7.25 78.45 6.85 78.75 6.65 79 6.45 79.45 6.45 80.15 6.45 80.4 6.85 80.65 7.35 80.65 7.95
L 80.65 10.5 81.2 10.5 Z"/>
</g>

<g id="IT_728x90_psd_Asset_5_ManagedWiFi_IT_Awareness_DM6_1_Free_up_your_IT_team_so_they_can__spend_more_time_innovating__0_Layer0_0_MEMBER_40_FILL">
<path fill="#D82C26" stroke="none" d="
M 83.3 6.1
L 82.8 6.1 82.8 10.5 83.4 10.5 83.4 8.25
Q 83.4 7.7 83.55 7.25 83.8 6.85 84.1 6.65 84.35 6.45 84.85 6.45 85.5 6.45 85.75 6.85 86 7.25 86 7.95
L 86 10.5 86.6 10.5 86.6 7.8
Q 86.6 7.05 86.2 6.5 85.75 5.95 84.95 5.95 84.45 5.95 84 6.25 83.55 6.55 83.35 7.05
L 83.3 6.1 Z"/>
</g>

<g id="IT_728x90_psd_Asset_5_ManagedWiFi_IT_Awareness_DM6_1_Free_up_your_IT_team_so_they_can__spend_more_time_innovating__0_Layer0_0_MEMBER_41_FILL">
<path fill="#D82C26" stroke="none" d="
M 92.25 7.1
Q 92 6.6 91.4 6.25 90.9 5.95 90.2 5.95 89.6 5.95 89.05 6.25 88.45 6.6 88.2 7.1 87.9 7.65 87.9 8.3 87.9 8.9 88.2 9.5 88.45 9.95 89.05 10.3 89.6 10.6 90.2 10.6 90.9 10.6 91.4 10.3 92 9.95 92.25 9.5 92.55 8.9 92.55 8.3 92.55 7.65 92.25 7.1
M 91.8 9.2
Q 91.6 9.6 91.15 9.9 90.75 10.15 90.2 10.15 89.7 10.15 89.3 9.9 88.85 9.6 88.65 9.2 88.45 8.85 88.45 8.3 88.45 7.7 88.65 7.35 88.85 6.95 89.3 6.65 89.65 6.45 90.2 6.45 90.8 6.45 91.15 6.65 91.6 6.95 91.8 7.35 92 7.7 92 8.3 92 8.85 91.8 9.2 Z"/>
</g>

<g id="IT_728x90_psd_Asset_5_ManagedWiFi_IT_Awareness_DM6_1_Free_up_your_IT_team_so_they_can__spend_more_time_innovating__0_Layer0_0_MEMBER_42_FILL">
<path fill="#D82C26" stroke="none" d="
M 93.1 6.1
L 94.8 10.5 95.45 10.5 97.05 6.1 96.5 6.1 95.15 9.95 93.7 6.1 93.1 6.1 Z"/>
</g>

<g id="IT_728x90_psd_Asset_5_ManagedWiFi_IT_Awareness_DM6_1_Free_up_your_IT_team_so_they_can__spend_more_time_innovating__0_Layer0_0_MEMBER_43_FILL">
<path fill="#D82C26" stroke="none" d="
M 101.4 10.5
L 101.3 9.5 101.3 7.65
Q 101.3 6.8 100.85 6.4 100.5 5.95 99.65 5.95 99.2 5.95 98.75 6.1 98.35 6.25 98 6.5
L 98.15 6.95 98.8 6.55 99.55 6.4
Q 100.15 6.4 100.45 6.7 100.8 7 100.8 7.6
L 100.8 7.85 100.25 7.85
Q 97.75 7.85 97.75 9.3 97.75 9.95 98.15 10.25 98.55 10.6 99.15 10.6 99.65 10.6 100.15 10.35 100.55 10.15 100.8 9.65
L 100.9 10.5 101.4 10.5
M 100.8 8.2
L 100.8 8.65
Q 100.8 9.05 100.65 9.35 100.4 9.75 100.1 9.95 99.75 10.2 99.25 10.2 98.9 10.2 98.55 9.95 98.3 9.7 98.3 9.3 98.3 8.2 100.35 8.2
L 100.8 8.2 Z"/>
</g>

<g id="IT_728x90_psd_Asset_5_ManagedWiFi_IT_Awareness_DM6_1_Free_up_your_IT_team_so_they_can__spend_more_time_innovating__0_Layer0_0_MEMBER_44_FILL">
<path fill="#D82C26" stroke="none" d="
M 103 6.1
L 102.3 6.1 102.2 6.55 103.05 6.55 103.05 9.4
Q 103.05 10 103.3 10.25 103.6 10.55 104.05 10.55
L 104.55 10.5 105 10.35 104.9 9.95 104.2 10.1
Q 103.9 10.1 103.75 9.95 103.55 9.65 103.55 9.35
L 103.55 6.55 104.7 6.55 104.8 6.1 103.55 6.1 103.55 4.85 103 5.05 103 6.1 Z"/>
</g>

<g id="IT_728x90_psd_Asset_5_ManagedWiFi_IT_Awareness_DM6_1_Free_up_your_IT_team_so_they_can__spend_more_time_innovating__0_Layer0_0_MEMBER_45_FILL">
<path fill="#D82C26" stroke="none" d="
M 106.05 6.1
L 106.05 10.5 106.6 10.5 106.6 6.1 106.05 6.1
M 106.6 4.65
L 106.7 4.35 106.6 4.05 106.3 3.95 106.05 4.05 105.9 4.35 106.05 4.65 106.3 4.75 106.6 4.65 Z"/>
</g>

<g id="IT_728x90_psd_Asset_5_ManagedWiFi_IT_Awareness_DM6_1_Free_up_your_IT_team_so_they_can__spend_more_time_innovating__0_Layer0_0_MEMBER_46_FILL">
<path fill="#D82C26" stroke="none" d="
M 112 7.8
Q 112 7.05 111.6 6.5 111.2 5.95 110.35 5.95 109.85 5.95 109.4 6.25 108.95 6.55 108.8 7.05
L 108.75 7.05 108.7 6.1 108.2 6.1 108.25 10.5 108.8 10.5 108.8 8.25
Q 108.8 7.65 109 7.25 109.15 6.95 109.5 6.65 109.85 6.45 110.25 6.45 110.95 6.45 111.15 6.85 111.45 7.3 111.45 7.95
L 111.45 10.5 112 10.5 112 7.8 Z"/>
</g>

<g id="IT_728x90_psd_Asset_5_ManagedWiFi_IT_Awareness_DM6_1_Free_up_your_IT_team_so_they_can__spend_more_time_innovating__0_Layer0_0_MEMBER_47_FILL">
<path fill="#D82C26" stroke="none" d="
M 117.85 6.1
L 117.35 6.1 117.3 7.05
Q 117 6.55 116.55 6.25 116.1 5.95 115.5 5.95 114.85 5.95 114.35 6.3 113.8 6.7 113.6 7.1 113.3 7.65 113.3 8.3 113.3 8.95 113.6 9.45 113.8 9.95 114.35 10.25 114.9 10.55 115.5 10.55 116.05 10.55 116.55 10.3 117 10.05 117.3 9.5
L 117.3 10.4
Q 117.3 11.3 116.85 11.8 116.5 12.3 115.5 12.3 115 12.3 114.55 12.15
L 113.7 11.75 113.6 12.25 114.45 12.65 115.5 12.8
Q 116.65 12.8 117.3 12.15 117.85 11.45 117.85 10.4
L 117.85 6.1
M 114.65 6.7
Q 115.05 6.45 115.6 6.45 116.1 6.45 116.45 6.65 116.9 6.95 117.1 7.35 117.3 7.75 117.3 8.25 117.3 8.8 117.1 9.2 116.9 9.65 116.45 9.85 116.15 10.1 115.6 10.1 115.05 10.1 114.65 9.85 114.3 9.65 114.05 9.2 113.85 8.6 113.85 8.3 113.85 7.95 114.05 7.35 114.25 6.95 114.65 6.7 Z"/>
</g>

<g id="IT_728x90_psd_Asset_5_ManagedWiFi_IT_Awareness_DM6_1_Free_up_your_IT_team_so_they_can__spend_more_time_innovating__0_Layer0_0_MEMBER_48_FILL">
<path fill="#D82C26" stroke="none" d="
M 119.55 10.4
Q 119.65 10.55 119.85 10.55 120.05 10.55 120.1 10.4 120.25 10.35 120.25 10.1
L 120.1 9.8 119.85 9.7
Q 119.65 9.7 119.55 9.8
L 119.4 10.1
Q 119.4 10.35 119.55 10.4 Z"/>
</g>
</defs>

<g transform="matrix( 1, 0, 0, 1, -261,-42) ">
<g transform="matrix( 1, 0, 0, 1, 261,55) ">
<g transform="matrix( 1, 0, 0, 1, 25,6) ">
<g transform="matrix( 2.6895904541015625, 0, 0, 2.672393798828125, -0.85,19.55) ">
<use xlink:href="#IT_728x90_psd_Asset_5_ManagedWiFi_IT_Awareness_DM6_1_Free_up_your_IT_team_so_they_can__spend_more_time_innovating__0_Layer0_0_MEMBER_0_FILL"/>
</g>

<g transform="matrix( 2.6895904541015625, 0, 0, 2.672393798828125, -0.85,19.55) ">
<use xlink:href="#IT_728x90_psd_Asset_5_ManagedWiFi_IT_Awareness_DM6_1_Free_up_your_IT_team_so_they_can__spend_more_time_innovating__0_Layer0_0_MEMBER_1_FILL"/>
</g>

<g transform="matrix( 2.6895904541015625, 0, 0, 2.672393798828125, -0.85,19.55) ">
<use xlink:href="#IT_728x90_psd_Asset_5_ManagedWiFi_IT_Awareness_DM6_1_Free_up_your_IT_team_so_they_can__spend_more_time_innovating__0_Layer0_0_MEMBER_2_FILL"/>
</g>

<g transform="matrix( 2.6895904541015625, 0, 0, 2.672393798828125, -0.85,19.55) ">
<use xlink:href="#IT_728x90_psd_Asset_5_ManagedWiFi_IT_Awareness_DM6_1_Free_up_your_IT_team_so_they_can__spend_more_time_innovating__0_Layer0_0_MEMBER_3_FILL"/>
</g>

<g transform="matrix( 2.6895904541015625, 0, 0, 2.672393798828125, -0.85,19.55) ">
<use xlink:href="#IT_728x90_psd_Asset_5_ManagedWiFi_IT_Awareness_DM6_1_Free_up_your_IT_team_so_they_can__spend_more_time_innovating__0_Layer0_0_MEMBER_4_FILL"/>
</g>

<g transform="matrix( 2.6895904541015625, 0, 0, 2.672393798828125, -0.85,19.55) ">
<use xlink:href="#IT_728x90_psd_Asset_5_ManagedWiFi_IT_Awareness_DM6_1_Free_up_your_IT_team_so_they_can__spend_more_time_innovating__0_Layer0_0_MEMBER_5_FILL"/>
</g>

<g transform="matrix( 2.6895904541015625, 0, 0, 2.672393798828125, -0.85,19.55) ">
<use xlink:href="#IT_728x90_psd_Asset_5_ManagedWiFi_IT_Awareness_DM6_1_Free_up_your_IT_team_so_they_can__spend_more_time_innovating__0_Layer0_0_MEMBER_6_FILL"/>
</g>

<g transform="matrix( 2.6895904541015625, 0, 0, 2.672393798828125, -0.85,19.55) ">
<use xlink:href="#IT_728x90_psd_Asset_5_ManagedWiFi_IT_Awareness_DM6_1_Free_up_your_IT_team_so_they_can__spend_more_time_innovating__0_Layer0_0_MEMBER_7_FILL"/>
</g>

<g transform="matrix( 2.6895904541015625, 0, 0, 2.672393798828125, -0.85,19.55) ">
<use xlink:href="#IT_728x90_psd_Asset_5_ManagedWiFi_IT_Awareness_DM6_1_Free_up_your_IT_team_so_they_can__spend_more_time_innovating__0_Layer0_0_MEMBER_8_FILL"/>
</g>

<g transform="matrix( 2.6895904541015625, 0, 0, 2.672393798828125, -0.85,19.55) ">
<use xlink:href="#IT_728x90_psd_Asset_5_ManagedWiFi_IT_Awareness_DM6_1_Free_up_your_IT_team_so_they_can__spend_more_time_innovating__0_Layer0_0_MEMBER_9_FILL"/>
</g>

<g transform="matrix( 2.6895904541015625, 0, 0, 2.672393798828125, -0.85,19.55) ">
<use xlink:href="#IT_728x90_psd_Asset_5_ManagedWiFi_IT_Awareness_DM6_1_Free_up_your_IT_team_so_they_can__spend_more_time_innovating__0_Layer0_0_MEMBER_10_FILL"/>
</g>

<g transform="matrix( 2.6895904541015625, 0, 0, 2.672393798828125, -0.85,19.55) ">
<use xlink:href="#IT_728x90_psd_Asset_5_ManagedWiFi_IT_Awareness_DM6_1_Free_up_your_IT_team_so_they_can__spend_more_time_innovating__0_Layer0_0_MEMBER_11_FILL"/>
</g>

<g transform="matrix( 2.6895904541015625, 0, 0, 2.672393798828125, -0.85,19.55) ">
<use xlink:href="#IT_728x90_psd_Asset_5_ManagedWiFi_IT_Awareness_DM6_1_Free_up_your_IT_team_so_they_can__spend_more_time_innovating__0_Layer0_0_MEMBER_12_FILL"/>
</g>

<g transform="matrix( 2.6895904541015625, 0, 0, 2.672393798828125, -0.85,19.55) ">
<use xlink:href="#IT_728x90_psd_Asset_5_ManagedWiFi_IT_Awareness_DM6_1_Free_up_your_IT_team_so_they_can__spend_more_time_innovating__0_Layer0_0_MEMBER_13_FILL"/>
</g>

<g transform="matrix( 2.6895904541015625, 0, 0, 2.672393798828125, -0.85,19.55) ">
<use xlink:href="#IT_728x90_psd_Asset_5_ManagedWiFi_IT_Awareness_DM6_1_Free_up_your_IT_team_so_they_can__spend_more_time_innovating__0_Layer0_0_MEMBER_14_FILL"/>
</g>

<g transform="matrix( 2.6895904541015625, 0, 0, 2.672393798828125, -0.85,19.55) ">
<use xlink:href="#IT_728x90_psd_Asset_5_ManagedWiFi_IT_Awareness_DM6_1_Free_up_your_IT_team_so_they_can__spend_more_time_innovating__0_Layer0_0_MEMBER_15_FILL"/>
</g>

<g transform="matrix( 2.6895904541015625, 0, 0, 2.672393798828125, -0.85,19.55) ">
<use xlink:href="#IT_728x90_psd_Asset_5_ManagedWiFi_IT_Awareness_DM6_1_Free_up_your_IT_team_so_they_can__spend_more_time_innovating__0_Layer0_0_MEMBER_16_FILL"/>
</g>

<g transform="matrix( 2.6895904541015625, 0, 0, 2.672393798828125, -0.85,19.55) ">
<use xlink:href="#IT_728x90_psd_Asset_5_ManagedWiFi_IT_Awareness_DM6_1_Free_up_your_IT_team_so_they_can__spend_more_time_innovating__0_Layer0_0_MEMBER_17_FILL"/>
</g>

<g transform="matrix( 2.6895904541015625, 0, 0, 2.672393798828125, -0.85,19.55) ">
<use xlink:href="#IT_728x90_psd_Asset_5_ManagedWiFi_IT_Awareness_DM6_1_Free_up_your_IT_team_so_they_can__spend_more_time_innovating__0_Layer0_0_MEMBER_18_FILL"/>
</g>

<g transform="matrix( 2.6895904541015625, 0, 0, 2.672393798828125, -0.85,19.55) ">
<use xlink:href="#IT_728x90_psd_Asset_5_ManagedWiFi_IT_Awareness_DM6_1_Free_up_your_IT_team_so_they_can__spend_more_time_innovating__0_Layer0_0_MEMBER_19_FILL"/>
</g>

<g transform="matrix( 2.6895904541015625, 0, 0, 2.672393798828125, -0.85,19.55) ">
<use xlink:href="#IT_728x90_psd_Asset_5_ManagedWiFi_IT_Awareness_DM6_1_Free_up_your_IT_team_so_they_can__spend_more_time_innovating__0_Layer0_0_MEMBER_20_FILL"/>
</g>

<g transform="matrix( 2.6895904541015625, 0, 0, 2.672393798828125, -0.85,19.55) ">
<use xlink:href="#IT_728x90_psd_Asset_5_ManagedWiFi_IT_Awareness_DM6_1_Free_up_your_IT_team_so_they_can__spend_more_time_innovating__0_Layer0_0_MEMBER_21_FILL"/>
</g>

<g transform="matrix( 2.6895904541015625, 0, 0, 2.672393798828125, -0.85,19.55) ">
<use xlink:href="#IT_728x90_psd_Asset_5_ManagedWiFi_IT_Awareness_DM6_1_Free_up_your_IT_team_so_they_can__spend_more_time_innovating__0_Layer0_0_MEMBER_22_FILL"/>
</g>

<g transform="matrix( 2.6895904541015625, 0, 0, 2.672393798828125, -0.85,19.55) ">
<use xlink:href="#IT_728x90_psd_Asset_5_ManagedWiFi_IT_Awareness_DM6_1_Free_up_your_IT_team_so_they_can__spend_more_time_innovating__0_Layer0_0_MEMBER_23_FILL"/>
</g>

<g transform="matrix( 2.6895904541015625, 0, 0, 2.672393798828125, -0.85,19.55) ">
<use xlink:href="#IT_728x90_psd_Asset_5_ManagedWiFi_IT_Awareness_DM6_1_Free_up_your_IT_team_so_they_can__spend_more_time_innovating__0_Layer0_0_MEMBER_24_FILL"/>
</g>

<g transform="matrix( 2.6895904541015625, 0, 0, 2.672393798828125, -0.85,19.55) ">
<use xlink:href="#IT_728x90_psd_Asset_5_ManagedWiFi_IT_Awareness_DM6_1_Free_up_your_IT_team_so_they_can__spend_more_time_innovating__0_Layer0_0_MEMBER_25_FILL"/>
</g>

<g transform="matrix( 2.6895904541015625, 0, 0, 2.672393798828125, -0.85,19.55) ">
<use xlink:href="#IT_728x90_psd_Asset_5_ManagedWiFi_IT_Awareness_DM6_1_Free_up_your_IT_team_so_they_can__spend_more_time_innovating__0_Layer0_0_MEMBER_26_FILL"/>
</g>

<g transform="matrix( 2.6895904541015625, 0, 0, 2.672393798828125, -0.85,19.55) ">
<use xlink:href="#IT_728x90_psd_Asset_5_ManagedWiFi_IT_Awareness_DM6_1_Free_up_your_IT_team_so_they_can__spend_more_time_innovating__0_Layer0_0_MEMBER_27_FILL"/>
</g>

<g transform="matrix( 2.6895904541015625, 0, 0, 2.672393798828125, -0.85,19.55) ">
<use xlink:href="#IT_728x90_psd_Asset_5_ManagedWiFi_IT_Awareness_DM6_1_Free_up_your_IT_team_so_they_can__spend_more_time_innovating__0_Layer0_0_MEMBER_28_FILL"/>
</g>

<g transform="matrix( 2.6895904541015625, 0, 0, 2.672393798828125, -0.85,19.55) ">
<use xlink:href="#IT_728x90_psd_Asset_5_ManagedWiFi_IT_Awareness_DM6_1_Free_up_your_IT_team_so_they_can__spend_more_time_innovating__0_Layer0_0_MEMBER_29_FILL"/>
</g>

<g transform="matrix( 2.6895904541015625, 0, 0, 2.672393798828125, -0.85,19.55) ">
<use xlink:href="#IT_728x90_psd_Asset_5_ManagedWiFi_IT_Awareness_DM6_1_Free_up_your_IT_team_so_they_can__spend_more_time_innovating__0_Layer0_0_MEMBER_30_FILL"/>
</g>

<g transform="matrix( 2.6895904541015625, 0, 0, 2.672393798828125, -0.85,19.55) ">
<use xlink:href="#IT_728x90_psd_Asset_5_ManagedWiFi_IT_Awareness_DM6_1_Free_up_your_IT_team_so_they_can__spend_more_time_innovating__0_Layer0_0_MEMBER_31_FILL"/>
</g>

<g transform="matrix( 2.6895904541015625, 0, 0, 2.672393798828125, -0.85,19.55) ">
<use xlink:href="#IT_728x90_psd_Asset_5_ManagedWiFi_IT_Awareness_DM6_1_Free_up_your_IT_team_so_they_can__spend_more_time_innovating__0_Layer0_0_MEMBER_32_FILL"/>
</g>

<g transform="matrix( 2.6895904541015625, 0, 0, 2.672393798828125, -0.85,19.55) ">
<use xlink:href="#IT_728x90_psd_Asset_5_ManagedWiFi_IT_Awareness_DM6_1_Free_up_your_IT_team_so_they_can__spend_more_time_innovating__0_Layer0_0_MEMBER_33_FILL"/>
</g>

<g transform="matrix( 2.6895904541015625, 0, 0, 2.672393798828125, -0.85,19.55) ">
<use xlink:href="#IT_728x90_psd_Asset_5_ManagedWiFi_IT_Awareness_DM6_1_Free_up_your_IT_team_so_they_can__spend_more_time_innovating__0_Layer0_0_MEMBER_34_FILL"/>
</g>

<g transform="matrix( 2.6895904541015625, 0, 0, 2.672393798828125, -0.85,19.55) ">
<use xlink:href="#IT_728x90_psd_Asset_5_ManagedWiFi_IT_Awareness_DM6_1_Free_up_your_IT_team_so_they_can__spend_more_time_innovating__0_Layer0_0_MEMBER_35_FILL"/>
</g>

<g transform="matrix( 2.6895904541015625, 0, 0, 2.672393798828125, -0.85,19.55) ">
<use xlink:href="#IT_728x90_psd_Asset_5_ManagedWiFi_IT_Awareness_DM6_1_Free_up_your_IT_team_so_they_can__spend_more_time_innovating__0_Layer0_0_MEMBER_36_FILL"/>
</g>

<g transform="matrix( 2.6895904541015625, 0, 0, 2.672393798828125, -0.85,19.55) ">
<use xlink:href="#IT_728x90_psd_Asset_5_ManagedWiFi_IT_Awareness_DM6_1_Free_up_your_IT_team_so_they_can__spend_more_time_innovating__0_Layer0_0_MEMBER_37_FILL"/>
</g>

<g transform="matrix( 2.6895904541015625, 0, 0, 2.672393798828125, -0.85,19.55) ">
<use xlink:href="#IT_728x90_psd_Asset_5_ManagedWiFi_IT_Awareness_DM6_1_Free_up_your_IT_team_so_they_can__spend_more_time_innovating__0_Layer0_0_MEMBER_38_FILL"/>
</g>

<g transform="matrix( 2.6895904541015625, 0, 0, 2.672393798828125, -0.85,19.55) ">
<use xlink:href="#IT_728x90_psd_Asset_5_ManagedWiFi_IT_Awareness_DM6_1_Free_up_your_IT_team_so_they_can__spend_more_time_innovating__0_Layer0_0_MEMBER_39_FILL"/>
</g>

<g transform="matrix( 2.6895904541015625, 0, 0, 2.672393798828125, -0.85,19.55) ">
<use xlink:href="#IT_728x90_psd_Asset_5_ManagedWiFi_IT_Awareness_DM6_1_Free_up_your_IT_team_so_they_can__spend_more_time_innovating__0_Layer0_0_MEMBER_40_FILL"/>
</g>

<g transform="matrix( 2.6895904541015625, 0, 0, 2.672393798828125, -0.85,19.55) ">
<use xlink:href="#IT_728x90_psd_Asset_5_ManagedWiFi_IT_Awareness_DM6_1_Free_up_your_IT_team_so_they_can__spend_more_time_innovating__0_Layer0_0_MEMBER_41_FILL"/>
</g>

<g transform="matrix( 2.6895904541015625, 0, 0, 2.672393798828125, -0.85,19.55) ">
<use xlink:href="#IT_728x90_psd_Asset_5_ManagedWiFi_IT_Awareness_DM6_1_Free_up_your_IT_team_so_they_can__spend_more_time_innovating__0_Layer0_0_MEMBER_42_FILL"/>
</g>

<g transform="matrix( 2.6895904541015625, 0, 0, 2.672393798828125, -0.85,19.55) ">
<use xlink:href="#IT_728x90_psd_Asset_5_ManagedWiFi_IT_Awareness_DM6_1_Free_up_your_IT_team_so_they_can__spend_more_time_innovating__0_Layer0_0_MEMBER_43_FILL"/>
</g>

<g transform="matrix( 2.6895904541015625, 0, 0, 2.672393798828125, -0.85,19.55) ">
<use xlink:href="#IT_728x90_psd_Asset_5_ManagedWiFi_IT_Awareness_DM6_1_Free_up_your_IT_team_so_they_can__spend_more_time_innovating__0_Layer0_0_MEMBER_44_FILL"/>
</g>

<g transform="matrix( 2.6895904541015625, 0, 0, 2.672393798828125, -0.85,19.55) ">
<use xlink:href="#IT_728x90_psd_Asset_5_ManagedWiFi_IT_Awareness_DM6_1_Free_up_your_IT_team_so_they_can__spend_more_time_innovating__0_Layer0_0_MEMBER_45_FILL"/>
</g>

<g transform="matrix( 2.6895904541015625, 0, 0, 2.672393798828125, -0.85,19.55) ">
<use xlink:href="#IT_728x90_psd_Asset_5_ManagedWiFi_IT_Awareness_DM6_1_Free_up_your_IT_team_so_they_can__spend_more_time_innovating__0_Layer0_0_MEMBER_46_FILL"/>
</g>

<g transform="matrix( 2.6895904541015625, 0, 0, 2.672393798828125, -0.85,19.55) ">
<use xlink:href="#IT_728x90_psd_Asset_5_ManagedWiFi_IT_Awareness_DM6_1_Free_up_your_IT_team_so_they_can__spend_more_time_innovating__0_Layer0_0_MEMBER_47_FILL"/>
</g>

<g transform="matrix( 2.6895904541015625, 0, 0, 2.672393798828125, -0.85,19.55) ">
<use xlink:href="#IT_728x90_psd_Asset_5_ManagedWiFi_IT_Awareness_DM6_1_Free_up_your_IT_team_so_they_can__spend_more_time_innovating__0_Layer0_0_MEMBER_48_FILL"/>
</g>
</g>
</g>
</g>
</svg>
