
<svg xmlns="http://www.w3.org/2000/svg" version="1.1" xmlns:xlink="http://www.w3.org/1999/xlink" preserveAspectRatio="none" x="0px" y="0px" width="200px" height="200px" viewBox="0 0 200 200">
<defs>
<g id="BDM_200x200_psd_Asset_ManagedWiFi_Awareness_DM7_2_Get_data_analytics__on_everything_from__foot_traffic__0_Layer0_0_MEMBER_0_FILL">
<path fill="#D82C26" stroke="none" d="
M 4.25 -5.25
L 3.2 -5.4
Q 2.5 -5.4 1.8 -5.05 1.1 -4.6 0.8 -4.05 0.45 -3.35 0.45 -2.65 0.45 -2 0.8 -1.2 1.2 -0.6 1.8 -0.2 2.5 0.15 3.25 0.15
L 4.3 0
Q 4.65 -0.05 5.15 -0.35
L 5.15 -2.7 3.55 -2.7 3.5 -2.35 4.75 -2.35 4.75 -0.6
Q 4.1 -0.25 3.25 -0.25 2.5 -0.25 2 -0.6 1.55 -0.85 1.2 -1.45 0.95 -2.05 0.95 -2.65 0.95 -3.2 1.2 -3.8 1.45 -4.3 2.05 -4.65 2.55 -5 3.2 -5 3.7 -5 4.15 -4.85 4.55 -4.7 4.9 -4.45
L 5.05 -4.85 4.25 -5.25 Z"/>
</g>

<g id="BDM_200x200_psd_Asset_ManagedWiFi_Awareness_DM7_2_Get_data_analytics__on_everything_from__foot_traffic__0_Layer0_0_MEMBER_1_FILL">
<path fill="#D82C26" stroke="none" d="
M 8.75 -3.35
Q 8.35 -3.6 7.85 -3.6 7.4 -3.6 7 -3.35 6.55 -3.15 6.35 -2.7 6.15 -2.3 6.15 -1.75 6.15 -1.15 6.35 -0.8 6.55 -0.45 7 -0.15 7.4 0.1 7.9 0.1 8.7 0.1 9.3 -0.35
L 9.2 -0.7
Q 8.8 -0.45 8.65 -0.4 8.35 -0.25 7.95 -0.25 7.5 -0.25 7.25 -0.45 6.95 -0.55 6.75 -0.95 6.55 -1.3 6.55 -1.7
L 9.5 -1.7 9.5 -1.85
Q 9.5 -2.35 9.3 -2.75 9.15 -3.1 8.75 -3.35
M 6.75 -2.55
L 7.15 -3.05
Q 7.55 -3.25 7.85 -3.25 8.4 -3.25 8.75 -2.9 9.1 -2.45 9.1 -2
L 6.55 -2
Q 6.55 -2.15 6.75 -2.55 Z"/>
</g>

<g id="BDM_200x200_psd_Asset_ManagedWiFi_Awareness_DM7_2_Get_data_analytics__on_everything_from__foot_traffic__0_Layer0_0_MEMBER_2_FILL">
<path fill="#D82C26" stroke="none" d="
M 9.95 -3.45
L 9.85 -3.15 10.5 -3.15 10.5 -0.85
Q 10.5 -0.35 10.7 -0.15 10.9 0.05 11.3 0.05
L 11.7 0 12.05 -0.1 12 -0.45 11.45 -0.3
Q 11.2 -0.3 11.05 -0.45 10.95 -0.55 10.95 -0.9
L 10.95 -3.15 11.85 -3.15 11.9 -3.45 10.95 -3.45 10.95 -4.45 10.5 -4.3 10.5 -3.45 9.95 -3.45 Z"/>
</g>

<g id="BDM_200x200_psd_Asset_ManagedWiFi_Awareness_DM7_2_Get_data_analytics__on_everything_from__foot_traffic__0_Layer0_0_MEMBER_3_FILL">
<path fill="#D82C26" stroke="none" d="
M 14.05 -0.8
Q 14.3 -0.35 14.65 -0.15 15.05 0.1 15.55 0.1 16 0.1 16.4 -0.15 16.7 -0.25 17 -0.75
L 17.05 0 17.45 0 17.4 -5.7 17 -5.6 17 -2.7 16.95 -2.7
Q 16.8 -3.1 16.4 -3.35 16.05 -3.55 15.55 -3.55 15 -3.55 14.65 -3.35 14.25 -3 14.05 -2.65 13.8 -2.25 13.8 -1.75 13.8 -1.3 14.05 -0.8
M 14.4 -2.45
Q 14.65 -2.9 14.9 -3 15.15 -3.2 15.6 -3.2 16 -3.2 16.35 -3 16.65 -2.85 16.8 -2.45 17 -2.2 17 -1.75 17 -1.25 16.8 -1 16.65 -0.65 16.35 -0.45 15.85 -0.25 15.6 -0.25 15.3 -0.25 14.9 -0.45 14.6 -0.7 14.4 -1 14.25 -1.3 14.25 -1.75 14.25 -2.15 14.4 -2.45 Z"/>
</g>

<g id="BDM_200x200_psd_Asset_ManagedWiFi_Awareness_DM7_2_Get_data_analytics__on_everything_from__foot_traffic__0_Layer0_0_MEMBER_4_FILL">
<path fill="#D82C26" stroke="none" d="
M 19.1 -3.45
L 18.5 -3.15 18.65 -2.8 19.15 -3.1
Q 19.45 -3.25 19.75 -3.25 20.15 -3.25 20.5 -3 20.75 -2.75 20.75 -2.3
L 20.75 -2.1 20.3 -2.1
Q 18.35 -2.1 18.35 -0.95 18.35 -0.45 18.65 -0.15 19 0.1 19.45 0.1 19.95 0.1 20.2 -0.1 20.65 -0.35 20.75 -0.65
L 20.75 -0.3 20.8 0 21.2 0 21.15 -2.25
Q 21.15 -2.9 20.8 -3.25 20.35 -3.6 19.8 -3.6 19.5 -3.6 19.1 -3.45
M 19.5 -0.25
Q 19.2 -0.25 18.95 -0.4 18.75 -0.55 18.75 -0.95 18.75 -1.8 20.4 -1.8
L 20.75 -1.8 20.75 -1.45
Q 20.75 -1.15 20.6 -0.85
L 20.2 -0.4
Q 19.9 -0.25 19.5 -0.25 Z"/>
</g>

<g id="BDM_200x200_psd_Asset_ManagedWiFi_Awareness_DM7_2_Get_data_analytics__on_everything_from__foot_traffic__0_Layer0_0_MEMBER_5_FILL">
<path fill="#D82C26" stroke="none" d="
M 22.8 -3.45
L 22.8 -4.45 22.35 -4.3 22.35 -3.45 21.8 -3.45 21.7 -3.15 22.35 -3.15 22.35 -0.85
Q 22.35 -0.45 22.55 -0.15 22.75 0.05 23.15 0.05
L 23.55 0 23.9 -0.1 23.85 -0.45 23.3 -0.3
Q 23.05 -0.3 22.9 -0.45
L 22.8 -0.9 22.8 -3.15 23.7 -3.15 23.75 -3.45 22.8 -3.45 Z"/>
</g>

<g id="BDM_200x200_psd_Asset_ManagedWiFi_Awareness_DM7_2_Get_data_analytics__on_everything_from__foot_traffic__0_Layer0_0_MEMBER_6_FILL">
<path fill="#D82C26" stroke="none" d="
M 24.4 -0.95
Q 24.4 -0.45 24.7 -0.15 25.1 0.1 25.5 0.1 26 0.1 26.25 -0.1 26.7 -0.35 26.8 -0.65
L 26.85 -0.3 26.85 0 27.25 0 27.2 -2.25
Q 27.2 -2.9 26.85 -3.25 26.4 -3.6 25.85 -3.6
L 25.15 -3.45
Q 24.8 -3.35 24.6 -3.15
L 24.7 -2.8 25.2 -3.1
Q 25.6 -3.25 25.8 -3.25 26.2 -3.25 26.55 -3 26.8 -2.75 26.8 -2.3
L 26.8 -2.1 26.35 -2.1
Q 24.4 -2.1 24.4 -0.95
M 25.05 -0.4
Q 24.8 -0.55 24.8 -0.95 24.8 -1.8 26.45 -1.8
L 26.8 -1.8 26.8 -1.45
Q 26.8 -1.15 26.65 -0.85 26.45 -0.55 26.25 -0.4 25.95 -0.25 25.6 -0.25 25.3 -0.25 25.05 -0.4 Z"/>
</g>

<g id="BDM_200x200_psd_Asset_ManagedWiFi_Awareness_DM7_2_Get_data_analytics__on_everything_from__foot_traffic__0_Layer0_0_MEMBER_7_FILL">
<path fill="#D82C26" stroke="none" d="
M 29.55 -0.95
Q 29.55 -0.45 29.85 -0.15 30.25 0.1 30.65 0.1 31.15 0.1 31.4 -0.1 31.85 -0.35 31.95 -0.65
L 31.95 -0.3 32 0 32.4 0 32.35 -2.25
Q 32.35 -2.9 32 -3.25 31.55 -3.6 31 -3.6 30.7 -3.6 30.3 -3.45 29.95 -3.35 29.75 -3.15
L 29.85 -2.8 30.35 -3.1
Q 30.65 -3.25 30.95 -3.25 31.35 -3.25 31.7 -3 31.95 -2.75 31.95 -2.3
L 31.95 -2.1 31.5 -2.1
Q 29.55 -2.1 29.55 -0.95
M 30.15 -0.4
Q 29.95 -0.55 29.95 -0.95 29.95 -1.8 31.6 -1.8
L 31.95 -1.8 31.95 -1.45
Q 31.95 -1.15 31.8 -0.85 31.6 -0.55 31.4 -0.4 31.1 -0.25 30.75 -0.25 30.45 -0.25 30.15 -0.4 Z"/>
</g>

<g id="BDM_200x200_psd_Asset_ManagedWiFi_Awareness_DM7_2_Get_data_analytics__on_everything_from__foot_traffic__0_Layer0_0_MEMBER_8_FILL">
<path fill="#D82C26" stroke="none" d="
M 33.85 -3.45
L 33.45 -3.45 33.5 0 33.9 0 33.9 -1.75
Q 33.9 -2.25 34.05 -2.55 34.25 -2.9 34.5 -3.05 34.75 -3.2 35.05 -3.2 35.6 -3.2 35.8 -2.85 36 -2.6 36 -2
L 36 0 36.45 0 36.45 -2.1
Q 36.45 -2.75 36.15 -3.15 35.8 -3.55 35.15 -3.55 34.75 -3.55 34.4 -3.35 34.05 -3.15 33.9 -2.7
L 33.85 -3.45 Z"/>
</g>

<g id="BDM_200x200_psd_Asset_ManagedWiFi_Awareness_DM7_2_Get_data_analytics__on_everything_from__foot_traffic__0_Layer0_0_MEMBER_9_FILL">
<path fill="#D82C26" stroke="none" d="
M 38.15 -3.1
Q 38.45 -3.25 38.75 -3.25 39.2 -3.25 39.45 -3 39.75 -2.75 39.75 -2.3
L 39.75 -2.1 39.3 -2.1
Q 37.35 -2.1 37.35 -0.95 37.35 -0.45 37.65 -0.15 38 0.1 38.45 0.1 38.85 0.1 39.2 -0.1 39.55 -0.3 39.75 -0.65
L 39.75 -0.3 39.8 0 40.2 0 40.15 -2.25
Q 40.15 -2.8 39.8 -3.25 39.35 -3.6 38.8 -3.6
L 38.1 -3.45 37.5 -3.15 37.65 -2.8 38.15 -3.1
M 37.95 -0.4
Q 37.75 -0.55 37.75 -0.95 37.75 -1.8 39.35 -1.8
L 39.75 -1.8 39.75 -1.45
Q 39.75 -1.15 39.6 -0.85
L 39.2 -0.4
Q 38.9 -0.25 38.5 -0.25 38.2 -0.25 37.95 -0.4 Z"/>
</g>

<g id="BDM_200x200_psd_Asset_ManagedWiFi_Awareness_DM7_2_Get_data_analytics__on_everything_from__foot_traffic__0_Layer0_0_MEMBER_10_FILL">
<path fill="#D82C26" stroke="none" d="
M 41.25 -0.75
Q 41.25 -0.4 41.4 -0.2
L 41.8 0.1 42 -0.3 41.75 -0.5 41.7 -0.85 41.7 -5.65 41.25 -5.55 41.25 -0.75 Z"/>
</g>

<g id="BDM_200x200_psd_Asset_ManagedWiFi_Awareness_DM7_2_Get_data_analytics__on_everything_from__foot_traffic__0_Layer0_0_MEMBER_11_FILL">
<path fill="#D82C26" stroke="none" d="
M 42.9 -3.45
L 42.4 -3.45 43.85 0.05 43.6 0.75
Q 43.45 1.1 43.25 1.25 43.05 1.4 42.6 1.4
L 42.75 1.8
Q 43.3 1.7 43.5 1.55 43.8 1.35 44 0.85
L 45.6 -3.45 45.15 -3.45 44.1 -0.45 42.9 -3.45 Z"/>
</g>

<g id="BDM_200x200_psd_Asset_ManagedWiFi_Awareness_DM7_2_Get_data_analytics__on_everything_from__foot_traffic__0_Layer0_0_MEMBER_12_FILL">
<path fill="#D82C26" stroke="none" d="
M 46.6 -4.3
L 46.6 -3.45 46.05 -3.45 45.95 -3.15 46.6 -3.15 46.6 -0.85
Q 46.6 -0.45 46.8 -0.15 47 0.05 47.4 0.05
L 47.8 0 48.15 -0.1 48.1 -0.45
Q 47.8 -0.3 47.55 -0.3 47.3 -0.3 47.15 -0.45
L 47.05 -0.9 47.05 -3.15 47.95 -3.15 48 -3.45 47.05 -3.45 47.05 -4.45 46.6 -4.3 Z"/>
</g>

<g id="BDM_200x200_psd_Asset_ManagedWiFi_Awareness_DM7_2_Get_data_analytics__on_everything_from__foot_traffic__0_Layer0_0_MEMBER_13_FILL">
<path fill="#D82C26" stroke="none" d="
M 49.25 -3.45
L 48.85 -3.45 48.85 0 49.25 0 49.25 -3.45
M 49.25 -4.65
L 49.35 -4.85 49.25 -5.1 49.05 -5.15 48.8 -5.1 48.75 -4.85 48.8 -4.65 49.05 -4.55 49.25 -4.65 Z"/>
</g>

<g id="BDM_200x200_psd_Asset_ManagedWiFi_Awareness_DM7_2_Get_data_analytics__on_everything_from__foot_traffic__0_Layer0_0_MEMBER_14_FILL">
<path fill="#D82C26" stroke="none" d="
M 50.2 -1.75
Q 50.2 -1.15 50.4 -0.8 50.6 -0.45 51.05 -0.15 51.45 0.1 52 0.1
L 52.65 0 53.2 -0.3 53.1 -0.7
Q 52.85 -0.45 52.6 -0.4 52.4 -0.25 52 -0.25 51.7 -0.25 51.3 -0.45 50.95 -0.7 50.8 -1 50.65 -1.3 50.65 -1.75 50.65 -2.15 50.8 -2.45 50.95 -2.8 51.3 -3 51.55 -3.2 52 -3.2 52.35 -3.2 52.55 -3.1 52.8 -3.05 53 -2.85
L 53.2 -3.15
Q 52.95 -3.4 52.65 -3.45 52.35 -3.6 52 -3.6 51.55 -3.6 51.05 -3.35 50.65 -3.1 50.4 -2.7 50.2 -2.3 50.2 -1.75 Z"/>
</g>

<g id="BDM_200x200_psd_Asset_ManagedWiFi_Awareness_DM7_2_Get_data_analytics__on_everything_from__foot_traffic__0_Layer0_0_MEMBER_15_FILL">
<path fill="#D82C26" stroke="none" d="
M 55 -3.25
L 55.5 -3.15 55.9 -2.9 56.1 -3.2 55.6 -3.45
Q 55.3 -3.6 55 -3.6 54.7 -3.6 54.45 -3.45 54.15 -3.35 54 -3.15 53.85 -2.9 53.85 -2.6 53.85 -2.2 54.1 -2
L 54.8 -1.65
Q 55.35 -1.5 55.55 -1.3 55.8 -1.15 55.8 -0.9 55.8 -0.65 55.55 -0.4 55.35 -0.25 55 -0.25 54.35 -0.25 53.85 -0.65
L 53.75 -0.3 54.3 0 55 0.1 55.6 0 56 -0.35
Q 56.2 -0.55 56.2 -0.9 56.2 -1.2 55.95 -1.55 55.75 -1.7 55.1 -1.95
L 54.45 -2.25
Q 54.25 -2.4 54.25 -2.65 54.25 -2.95 54.45 -3.1 54.7 -3.25 55 -3.25 Z"/>
</g>

<g id="BDM_200x200_psd_Asset_ManagedWiFi_Awareness_DM7_2_Get_data_analytics__on_everything_from__foot_traffic__0_Layer0_0_MEMBER_16_FILL">
<path fill="#D82C26" stroke="none" d="
M 3.85 6.15
Q 3.65 5.7 3.2 5.5 2.9 5.25 2.25 5.25 1.7 5.25 1.3 5.5 0.85 5.8 0.65 6.15 0.4 6.55 0.4 7.1 0.4 7.55 0.65 8.05 0.9 8.45 1.3 8.7 1.8 8.95 2.25 8.95 2.8 8.95 3.2 8.7 3.55 8.5 3.85 8.05 4.1 7.7 4.1 7.1 4.1 6.45 3.85 6.15
M 2.25 5.6
Q 2.6 5.6 3 5.8 3.4 6.1 3.5 6.35 3.7 6.75 3.7 7.1 3.7 7.4 3.5 7.8 3.35 8.2 3 8.35 2.75 8.55 2.25 8.55 1.85 8.55 1.5 8.35 1.25 8.25 1 7.8 0.85 7.5 0.85 7.1 0.85 6.65 1 6.35 1.2 6.05 1.5 5.8 2 5.6 2.25 5.6 Z"/>
</g>

<g id="BDM_200x200_psd_Asset_ManagedWiFi_Awareness_DM7_2_Get_data_analytics__on_everything_from__foot_traffic__0_Layer0_0_MEMBER_17_FILL">
<path fill="#D82C26" stroke="none" d="
M 5.45 6.1
L 5.4 5.35 5 5.35 5.05 8.85 5.5 8.85 5.5 7.05
Q 5.5 6.6 5.65 6.3 5.8 6 6.05 5.8 6.3 5.6 6.65 5.6 7.1 5.6 7.35 5.95 7.6 6.35 7.6 6.8
L 7.6 8.85 8 8.85 8 6.7
Q 8 6.1 7.7 5.65 7.4 5.25 6.75 5.25 6.35 5.25 5.95 5.5 5.6 5.8 5.45 6.1 Z"/>
</g>

<g id="BDM_200x200_psd_Asset_ManagedWiFi_Awareness_DM7_2_Get_data_analytics__on_everything_from__foot_traffic__0_Layer0_0_MEMBER_18_FILL">
<path fill="#D82C26" stroke="none" d="
M 11.2 5.5
Q 10.75 5.7 10.55 6.15 10.35 6.5 10.35 7.05 10.35 7.65 10.55 8.05 10.8 8.45 11.2 8.7 11.6 8.95 12.1 8.95 12.9 8.95 13.5 8.5
L 13.45 8.1
Q 13.25 8.3 12.85 8.45 12.65 8.55 12.15 8.55 11.75 8.55 11.45 8.4 11.05 8.1 10.95 7.85 10.75 7.45 10.75 7.15
L 13.7 7.15 13.7 6.95
Q 13.7 6.45 13.5 6.1 13.4 5.8 12.95 5.45 12.6 5.25 12.05 5.25 11.5 5.25 11.2 5.5
M 12.05 5.6
Q 12.65 5.6 12.95 5.95 13.3 6.3 13.3 6.85
L 10.75 6.85 10.95 6.25
Q 11.2 5.9 11.4 5.8 11.6 5.6 12.05 5.6 Z"/>
</g>

<g id="BDM_200x200_psd_Asset_ManagedWiFi_Awareness_DM7_2_Get_data_analytics__on_everything_from__foot_traffic__0_Layer0_0_MEMBER_19_FILL">
<path fill="#D82C26" stroke="none" d="
M 14.05 5.35
L 15.35 8.85 15.85 8.85 17.15 5.35 16.7 5.35 15.6 8.4 14.5 5.35 14.05 5.35 Z"/>
</g>

<g id="BDM_200x200_psd_Asset_ManagedWiFi_Awareness_DM7_2_Get_data_analytics__on_everything_from__foot_traffic__0_Layer0_0_MEMBER_20_FILL">
<path fill="#D82C26" stroke="none" d="
M 20.85 6.95
Q 20.85 6.45 20.65 6.1 20.4 5.7 20.1 5.45 19.75 5.25 19.2 5.25 18.7 5.25 18.3 5.5 17.9 5.75 17.7 6.15 17.45 6.55 17.45 7.05 17.45 7.55 17.7 8.05 18 8.5 18.35 8.7 18.75 8.95 19.25 8.95 20.05 8.95 20.65 8.5
L 20.55 8.1 20 8.45
Q 19.8 8.55 19.3 8.55 18.95 8.55 18.55 8.4 18.2 8.15 18.1 7.85 17.9 7.6 17.9 7.15
L 20.85 7.15 20.85 6.95
M 19.2 5.6
Q 19.75 5.6 20.1 5.95 20.35 6.2 20.45 6.85
L 17.9 6.85
Q 17.9 6.55 18.05 6.25 18.3 5.9 18.5 5.8 18.75 5.6 19.2 5.6 Z"/>
</g>

<g id="BDM_200x200_psd_Asset_ManagedWiFi_Awareness_DM7_2_Get_data_analytics__on_everything_from__foot_traffic__0_Layer0_0_MEMBER_21_FILL">
<path fill="#D82C26" stroke="none" d="
M 22.6 5.5
Q 22.35 5.65 22.2 6.1
L 22.15 6.1 22.15 5.35 21.7 5.35 21.75 8.85 22.2 8.85 22.2 7.1
Q 22.2 6.55 22.45 6.05 22.75 5.65 23.15 5.65
L 23.5 5.7 23.55 5.3 23.2 5.25
Q 22.95 5.25 22.6 5.5 Z"/>
</g>

<g id="BDM_200x200_psd_Asset_ManagedWiFi_Awareness_DM7_2_Get_data_analytics__on_everything_from__foot_traffic__0_Layer0_0_MEMBER_22_FILL">
<path fill="#D82C26" stroke="none" d="
M 27.1 5.35
L 26.65 5.35 25.6 8.35 24.4 5.35 23.9 5.35 25.35 8.85 25.1 9.6
Q 24.95 9.95 24.75 10.05 24.55 10.2 24.1 10.2
L 24.25 10.6
Q 24.6 10.6 25 10.4 25.35 10.15 25.5 9.7
L 27.1 5.35 Z"/>
</g>

<g id="BDM_200x200_psd_Asset_ManagedWiFi_Awareness_DM7_2_Get_data_analytics__on_everything_from__foot_traffic__0_Layer0_0_MEMBER_23_FILL">
<path fill="#D82C26" stroke="none" d="
M 27.55 5.35
L 27.45 5.7 28.1 5.7 28.1 8
Q 28.1 8.4 28.35 8.65 28.6 8.9 28.9 8.9
L 29.3 8.85 29.65 8.7 29.6 8.4
Q 29.3 8.55 29.05 8.55 28.8 8.55 28.7 8.4 28.55 8.25 28.55 7.95
L 28.55 5.7 29.45 5.7 29.55 5.35 28.55 5.35 28.55 4.35 28.1 4.55 28.1 5.35 27.55 5.35 Z"/>
</g>

<g id="BDM_200x200_psd_Asset_ManagedWiFi_Awareness_DM7_2_Get_data_analytics__on_everything_from__foot_traffic__0_Layer0_0_MEMBER_24_FILL">
<path fill="#D82C26" stroke="none" d="
M 30.75 6.1
L 30.75 3.15 30.35 3.25 30.35 8.85 30.75 8.85 30.75 7.15
Q 30.75 6.8 30.95 6.3 31.15 5.9 31.35 5.8 31.55 5.6 31.9 5.6 32.4 5.6 32.65 5.95 32.85 6.3 32.85 6.8
L 32.85 8.85 33.3 8.85 33.3 6.7
Q 33.3 6.1 33 5.65 32.7 5.25 32.05 5.25 31.65 5.25 31.3 5.5 30.95 5.7 30.8 6.1
L 30.75 6.1 Z"/>
</g>

<g id="BDM_200x200_psd_Asset_ManagedWiFi_Awareness_DM7_2_Get_data_analytics__on_everything_from__foot_traffic__0_Layer0_0_MEMBER_25_FILL">
<path fill="#D82C26" stroke="none" d="
M 34.85 5.35
L 34.45 5.35 34.45 8.85 34.85 8.85 34.85 5.35
M 34.65 4.3
L 34.85 4.2
Q 34.95 4.15 34.95 3.95 34.95 3.8 34.85 3.75
L 34.65 3.65 34.45 3.75
Q 34.35 3.8 34.35 3.95 34.35 4.15 34.45 4.2
L 34.65 4.3 Z"/>
</g>

<g id="BDM_200x200_psd_Asset_ManagedWiFi_Awareness_DM7_2_Get_data_analytics__on_everything_from__foot_traffic__0_Layer0_0_MEMBER_26_FILL">
<path fill="#D82C26" stroke="none" d="
M 36.4 5.35
L 36 5.35 36.05 8.85 36.45 8.85 36.45 7.05
Q 36.45 6.6 36.6 6.3 36.85 5.9 37.05 5.8 37.25 5.6 37.65 5.6 38.1 5.6 38.35 5.95 38.55 6.3 38.55 6.8
L 38.55 8.85 39 8.85 39 6.7
Q 39 6.1 38.7 5.65 38.4 5.25 37.7 5.25 37.35 5.25 36.95 5.5 36.6 5.8 36.45 6.1
L 36.4 5.35 Z"/>
</g>

<g id="BDM_200x200_psd_Asset_ManagedWiFi_Awareness_DM7_2_Get_data_analytics__on_everything_from__foot_traffic__0_Layer0_0_MEMBER_27_FILL">
<path fill="#D82C26" stroke="none" d="
M 43.5 5.35
L 43.1 5.35 43.05 6.1
Q 42.85 5.75 42.45 5.5 42.05 5.25 41.65 5.25 41.15 5.25 40.75 5.5 40.4 5.7 40.1 6.15 39.9 6.55 39.9 7.1 39.9 7.65 40.1 8 40.3 8.45 40.75 8.65 41.15 8.9 41.65 8.9 42.05 8.9 42.45 8.65 42.8 8.5 43.05 8.05
L 43.05 8.8
Q 43.05 9.5 42.7 9.9 42.4 10.3 41.65 10.3
L 40.9 10.15 40.2 9.85 40.1 10.25 40.8 10.55 41.65 10.65
Q 42.6 10.65 43.05 10.15 43.5 9.65 43.5 8.75
L 43.5 5.35
M 41.7 5.6
Q 42 5.6 42.4 5.8 42.8 6.1 42.9 6.35 43.1 6.75 43.1 7.1 43.1 7.4 42.9 7.8 42.8 8.05 42.4 8.35 42 8.55 41.7 8.55 41.4 8.55 41 8.35 40.65 8.15 40.5 7.8 40.35 7.5 40.35 7.1 40.35 6.65 40.5 6.35 40.7 6 41 5.8 41.4 5.6 41.7 5.6 Z"/>
</g>

<g id="BDM_200x200_psd_Asset_ManagedWiFi_Awareness_DM7_2_Get_data_analytics__on_everything_from__foot_traffic__0_Layer0_0_MEMBER_28_FILL">
<path fill="#D82C26" stroke="none" d="
M 48 3.2
L 47.35 3.1
Q 46.85 3.1 46.6 3.45 46.3 3.75 46.3 4.35
L 46.3 5.35 45.65 5.35 45.55 5.7 46.3 5.7 46.3 8.85 46.75 8.85 46.75 5.7 47.55 5.7 47.65 5.35 46.75 5.35 46.75 4.35
Q 46.75 4 46.9 3.75 47.05 3.5 47.4 3.5
L 47.95 3.55 48 3.2 Z"/>
</g>

<g id="BDM_200x200_psd_Asset_ManagedWiFi_Awareness_DM7_2_Get_data_analytics__on_everything_from__foot_traffic__0_Layer0_0_MEMBER_29_FILL">
<path fill="#D82C26" stroke="none" d="
M 48.7 5.35
L 48.25 5.35 48.3 8.85 48.75 8.85 48.75 7.1
Q 48.75 6.55 49 6.05 49.3 5.65 49.7 5.65
L 50.05 5.7 50.1 5.3 49.75 5.25
Q 49.5 5.25 49.15 5.5 48.9 5.65 48.75 6.1
L 48.7 6.1 48.7 5.35 Z"/>
</g>

<g id="BDM_200x200_psd_Asset_ManagedWiFi_Awareness_DM7_2_Get_data_analytics__on_everything_from__foot_traffic__0_Layer0_0_MEMBER_30_FILL">
<path fill="#D82C26" stroke="none" d="
M 53.8 6.15
Q 53.6 5.8 53.15 5.5 52.8 5.25 52.2 5.25 51.65 5.25 51.25 5.5 50.8 5.7 50.6 6.15 50.35 6.55 50.35 7.1 50.35 7.55 50.6 8.05 50.9 8.5 51.25 8.7 51.75 8.95 52.2 8.95 52.65 8.95 53.15 8.7 53.55 8.45 53.8 8.05 54.05 7.55 54.05 7.1 54.05 6.55 53.8 6.15
M 52.2 5.6
Q 52.45 5.6 52.95 5.8 53.25 6.05 53.45 6.35 53.6 6.65 53.6 7.1 53.6 7.5 53.45 7.8 53.2 8.25 52.95 8.35 52.7 8.55 52.2 8.55 51.7 8.55 51.45 8.35 51.1 8.2 50.95 7.8 50.8 7.5 50.8 7.1 50.8 6.65 50.95 6.35 51.05 6.1 51.45 5.8 51.85 5.6 52.2 5.6 Z"/>
</g>

<g id="BDM_200x200_psd_Asset_ManagedWiFi_Awareness_DM7_2_Get_data_analytics__on_everything_from__foot_traffic__0_Layer0_0_MEMBER_31_FILL">
<path fill="#D82C26" stroke="none" d="
M 56.6 5.25
Q 56.25 5.25 55.9 5.5 55.55 5.7 55.4 6.1
L 55.35 5.35 54.95 5.35 55 8.85 55.4 8.85 55.4 7.1
Q 55.4 6.7 55.55 6.3 55.75 5.95 55.95 5.8 56.15 5.6 56.5 5.6 56.95 5.6 57.15 5.9 57.4 6.25 57.4 6.75
L 57.4 8.85 57.8 8.85 57.8 7.05
Q 57.8 6.4 58.1 6 58.4 5.6 58.9 5.6 59.35 5.6 59.6 5.95 59.85 6.35 59.85 6.85
L 59.85 8.85 60.25 8.85 60.25 6.75
Q 60.25 6.1 59.95 5.65 59.65 5.25 59 5.25 58.6 5.25 58.25 5.5 57.9 5.7 57.75 6.15 57.65 5.8 57.35 5.5 57 5.25 56.6 5.25 Z"/>
</g>

<g id="BDM_200x200_psd_Asset_ManagedWiFi_Awareness_DM7_2_Get_data_analytics__on_everything_from__foot_traffic__0_Layer0_0_MEMBER_32_FILL">
<path fill="#D82C26" stroke="none" d="
M 1.95 11.95
Q 1.45 11.95 1.15 12.25 0.85 12.55 0.85 13.15
L 0.85 14.2 0.2 14.2 0.15 14.5 0.85 14.5 0.85 17.65 1.3 17.65 1.3 14.5 2.1 14.5 2.2 14.2 1.3 14.2 1.3 13.2
Q 1.3 12.8 1.45 12.55 1.6 12.3 1.95 12.3
L 2.5 12.4 2.55 12.05 2.3 11.95 1.95 11.95 Z"/>
</g>

<g id="BDM_200x200_psd_Asset_ManagedWiFi_Awareness_DM7_2_Get_data_analytics__on_everything_from__foot_traffic__0_Layer0_0_MEMBER_33_FILL">
<path fill="#D82C26" stroke="none" d="
M 5.25 17.5
Q 5.7 17.2 5.9 16.85 6.15 16.45 6.15 15.9 6.15 15.45 5.9 14.95 5.65 14.55 5.25 14.3 4.75 14.05 4.3 14.05 3.75 14.05 3.35 14.3 3 14.5 2.7 14.95 2.45 15.35 2.45 15.9 2.45 16.55 2.7 16.85 2.9 17.3 3.35 17.5 3.65 17.75 4.3 17.75 4.9 17.75 5.25 17.5
M 5.7 15.9
Q 5.7 16.3 5.55 16.65
L 5.05 17.2
Q 4.55 17.4 4.3 17.4 3.95 17.4 3.55 17.2 3.25 17 3.05 16.65 2.85 16.15 2.85 15.9 2.85 15.65 3.05 15.15 3.25 14.8 3.55 14.65 3.8 14.45 4.3 14.45 4.7 14.45 5.05 14.65 5.25 14.75 5.55 15.15
L 5.7 15.9 Z"/>
</g>

<g id="BDM_200x200_psd_Asset_ManagedWiFi_Awareness_DM7_2_Get_data_analytics__on_everything_from__foot_traffic__0_Layer0_0_MEMBER_34_FILL">
<path fill="#D82C26" stroke="none" d="
M 8.7 14.05
Q 8.15 14.05 7.75 14.3 7.4 14.5 7.1 14.95 6.85 15.35 6.85 15.9 6.85 16.55 7.1 16.85 7.3 17.3 7.75 17.5 8.05 17.75 8.7 17.75 9.3 17.75 9.65 17.5 10.1 17.2 10.3 16.85 10.55 16.45 10.55 15.9 10.55 15.45 10.3 14.95 10.05 14.55 9.65 14.3 9.15 14.05 8.7 14.05
M 9.45 14.65
Q 9.7 14.8 9.9 15.15 10.1 15.5 10.1 15.9 10.1 16.3 9.95 16.65
L 9.45 17.2
Q 8.95 17.4 8.7 17.4 8.35 17.4 7.95 17.2 7.65 17 7.45 16.65 7.25 16.15 7.25 15.9 7.25 15.65 7.45 15.15 7.65 14.8 7.95 14.65 8.2 14.45 8.7 14.45 9.1 14.45 9.45 14.65 Z"/>
</g>

<g id="BDM_200x200_psd_Asset_ManagedWiFi_Awareness_DM7_2_Get_data_analytics__on_everything_from__foot_traffic__0_Layer0_0_MEMBER_35_FILL">
<path fill="#D82C26" stroke="none" d="
M 12.8 14.5
L 12.9 14.2 11.9 14.2 11.9 13.2 11.45 13.35 11.45 14.2 10.9 14.2 10.85 14.5 11.5 14.5 11.5 16.8
Q 11.5 17.3 11.7 17.5 11.95 17.75 12.3 17.75
L 13.05 17.55 12.95 17.2
Q 12.65 17.35 12.4 17.35 12.2 17.35 12.05 17.2 11.9 17.05 11.9 16.75
L 11.9 14.5 12.8 14.5 Z"/>
</g>

<g id="BDM_200x200_psd_Asset_ManagedWiFi_Awareness_DM7_2_Get_data_analytics__on_everything_from__foot_traffic__0_Layer0_0_MEMBER_36_FILL">
<path fill="#D82C26" stroke="none" d="
M 15.55 14.2
L 15.55 13.2 15.1 13.35 15.1 14.2 14.55 14.2 14.5 14.5 15.15 14.5 15.15 16.8
Q 15.15 17.3 15.35 17.5 15.6 17.75 15.95 17.75
L 16.7 17.55 16.6 17.2
Q 16.3 17.35 16.05 17.35 15.85 17.35 15.7 17.2 15.55 17.05 15.55 16.75
L 15.55 14.5 16.45 14.5 16.55 14.2 15.55 14.2 Z"/>
</g>

<g id="BDM_200x200_psd_Asset_ManagedWiFi_Awareness_DM7_2_Get_data_analytics__on_everything_from__foot_traffic__0_Layer0_0_MEMBER_37_FILL">
<path fill="#D82C26" stroke="none" d="
M 17.75 14.95
L 17.75 14.2 17.3 14.2 17.35 17.65 17.8 17.65 17.8 15.9
Q 17.8 15.3 18.05 14.9 18.35 14.45 18.75 14.45
L 19.1 14.5 19.15 14.15 18.8 14.1
Q 18.45 14.1 18.2 14.3 17.85 14.55 17.8 14.95
L 17.75 14.95 Z"/>
</g>

<g id="BDM_200x200_psd_Asset_ManagedWiFi_Awareness_DM7_2_Get_data_analytics__on_everything_from__foot_traffic__0_Layer0_0_MEMBER_38_FILL">
<path fill="#D82C26" stroke="none" d="
M 21.7 14.65
Q 21.95 14.9 21.95 15.35
L 21.95 15.55 21.55 15.55
Q 19.55 15.55 19.55 16.7 19.55 17.2 19.9 17.5 20.25 17.75 20.65 17.75 21.1 17.75 21.45 17.55 21.8 17.35 21.95 17
L 22.05 17.65 22.45 17.65 22.35 16.9 22.35 15.4
Q 22.35 14.75 22 14.4 21.65 14.05 21.05 14.05 20.65 14.05 20.35 14.2 20 14.3 19.75 14.5
L 19.85 14.85 20.4 14.55 20.95 14.4
Q 21.35 14.4 21.7 14.65
M 21.95 16.2
Q 21.95 16.5 21.8 16.8 21.75 17 21.4 17.25 21.2 17.4 20.75 17.4 20.45 17.4 20.2 17.25 19.95 17.1 19.95 16.7 19.95 15.85 21.6 15.85
L 21.95 15.85 21.95 16.2 Z"/>
</g>

<g id="BDM_200x200_psd_Asset_ManagedWiFi_Awareness_DM7_2_Get_data_analytics__on_everything_from__foot_traffic__0_Layer0_0_MEMBER_39_FILL">
<path fill="#D82C26" stroke="none" d="
M 28.35 14.2
L 27.95 14.2 27.95 17.65 28.35 17.65 28.35 14.2
M 28.45 12.8
L 28.35 12.55 28.15 12.5 27.95 12.55
Q 27.85 12.65 27.85 12.8 27.85 12.95 27.95 13 28 13.1 28.15 13.1 28.3 13.1 28.35 13
L 28.45 12.8
M 27 11.95
Q 26.5 11.95 26.2 12.25 25.9 12.55 25.9 13.15
L 25.9 14.2 24.15 14.2 24.15 13.2
Q 24.15 12.8 24.3 12.55 24.45 12.3 24.8 12.3
L 25.35 12.4 25.4 12.05 25.1 11.95 24.8 11.95
Q 24.3 11.95 24 12.25 23.7 12.55 23.7 13.15
L 23.7 14.2 23.05 14.2 22.95 14.5 23.7 14.5 23.7 17.65 24.15 17.65 24.15 14.5 25.9 14.5 25.9 17.65 26.35 17.65 26.35 14.5 27.15 14.5 27.25 14.2 26.35 14.2 26.35 13.2
Q 26.35 12.8 26.5 12.55 26.65 12.3 27 12.3
L 27.55 12.4 27.6 12.05 27.35 11.95 27 11.95 Z"/>
</g>

<g id="BDM_200x200_psd_Asset_ManagedWiFi_Awareness_DM7_2_Get_data_analytics__on_everything_from__foot_traffic__0_Layer0_0_MEMBER_40_FILL">
<path fill="#D82C26" stroke="none" d="
M 29.5 16.85
Q 29.7 17.2 30.15 17.5 30.55 17.75 31.1 17.75
L 31.75 17.65 32.3 17.35 32.2 16.95
Q 31.95 17.2 31.7 17.25 31.5 17.4 31.1 17.4 30.8 17.4 30.4 17.2 30.05 16.95 29.9 16.65 29.75 16.35 29.75 15.9 29.75 15.5 29.9 15.2 30.05 14.85 30.4 14.65 30.65 14.45 31.1 14.45 31.45 14.45 31.65 14.55 31.9 14.6 32.1 14.8
L 32.3 14.5
Q 32.05 14.25 31.75 14.2 31.45 14.05 31.1 14.05 30.65 14.05 30.15 14.3 29.75 14.55 29.5 14.95 29.3 15.35 29.3 15.9 29.3 16.5 29.5 16.85 Z"/>
</g>

<g id="BDM_200x200_psd_Asset_ManagedWiFi_Awareness_DM7_2_Get_data_analytics__on_everything_from__foot_traffic__0_Layer0_0_MEMBER_41_FILL">
<path fill="#D82C26" stroke="none" d="
M 33.5 17.7
L 33.7 17.6
Q 33.8 17.55 33.8 17.35 33.8 17.2 33.7 17.15 33.65 17.05 33.5 17.05 33.3 17.05 33.25 17.15
L 33.15 17.35 33.25 17.6 33.5 17.7
M 38.2 17.6
L 38.45 17.7 38.7 17.6 38.8 17.35 38.7 17.15
Q 38.6 17.05 38.45 17.05 38.3 17.05 38.2 17.15
L 38.1 17.35 38.2 17.6
M 35.95 17.7
L 36.2 17.6 36.3 17.35 36.2 17.15
Q 36.15 17.05 35.95 17.05 35.8 17.05 35.75 17.15 35.65 17.2 35.65 17.35 35.65 17.55 35.75 17.6
L 35.95 17.7 Z"/>
</g>
</defs>

<g transform="matrix( 1, 0, 0, 1, -155,-10) ">
<g transform="matrix( 1, 0, 0, 1, 147,22) ">
<g transform="matrix( 1, 0, 0, 1, 24,4) ">
<g transform="matrix( 2.815704345703125, 0, 0, 2.832611083984375, 0.15,16.6) ">
<use xlink:href="#BDM_200x200_psd_Asset_ManagedWiFi_Awareness_DM7_2_Get_data_analytics__on_everything_from__foot_traffic__0_Layer0_0_MEMBER_0_FILL"/>
</g>

<g transform="matrix( 2.815704345703125, 0, 0, 2.832611083984375, 0.15,16.6) ">
<use xlink:href="#BDM_200x200_psd_Asset_ManagedWiFi_Awareness_DM7_2_Get_data_analytics__on_everything_from__foot_traffic__0_Layer0_0_MEMBER_1_FILL"/>
</g>

<g transform="matrix( 2.815704345703125, 0, 0, 2.832611083984375, 0.15,16.6) ">
<use xlink:href="#BDM_200x200_psd_Asset_ManagedWiFi_Awareness_DM7_2_Get_data_analytics__on_everything_from__foot_traffic__0_Layer0_0_MEMBER_2_FILL"/>
</g>

<g transform="matrix( 2.815704345703125, 0, 0, 2.832611083984375, 0.15,16.6) ">
<use xlink:href="#BDM_200x200_psd_Asset_ManagedWiFi_Awareness_DM7_2_Get_data_analytics__on_everything_from__foot_traffic__0_Layer0_0_MEMBER_3_FILL"/>
</g>

<g transform="matrix( 2.815704345703125, 0, 0, 2.832611083984375, 0.15,16.6) ">
<use xlink:href="#BDM_200x200_psd_Asset_ManagedWiFi_Awareness_DM7_2_Get_data_analytics__on_everything_from__foot_traffic__0_Layer0_0_MEMBER_4_FILL"/>
</g>

<g transform="matrix( 2.815704345703125, 0, 0, 2.832611083984375, 0.15,16.6) ">
<use xlink:href="#BDM_200x200_psd_Asset_ManagedWiFi_Awareness_DM7_2_Get_data_analytics__on_everything_from__foot_traffic__0_Layer0_0_MEMBER_5_FILL"/>
</g>

<g transform="matrix( 2.815704345703125, 0, 0, 2.832611083984375, 0.15,16.6) ">
<use xlink:href="#BDM_200x200_psd_Asset_ManagedWiFi_Awareness_DM7_2_Get_data_analytics__on_everything_from__foot_traffic__0_Layer0_0_MEMBER_6_FILL"/>
</g>

<g transform="matrix( 2.815704345703125, 0, 0, 2.832611083984375, 0.15,16.6) ">
<use xlink:href="#BDM_200x200_psd_Asset_ManagedWiFi_Awareness_DM7_2_Get_data_analytics__on_everything_from__foot_traffic__0_Layer0_0_MEMBER_7_FILL"/>
</g>

<g transform="matrix( 2.815704345703125, 0, 0, 2.832611083984375, 0.15,16.6) ">
<use xlink:href="#BDM_200x200_psd_Asset_ManagedWiFi_Awareness_DM7_2_Get_data_analytics__on_everything_from__foot_traffic__0_Layer0_0_MEMBER_8_FILL"/>
</g>

<g transform="matrix( 2.815704345703125, 0, 0, 2.832611083984375, 0.15,16.6) ">
<use xlink:href="#BDM_200x200_psd_Asset_ManagedWiFi_Awareness_DM7_2_Get_data_analytics__on_everything_from__foot_traffic__0_Layer0_0_MEMBER_9_FILL"/>
</g>

<g transform="matrix( 2.815704345703125, 0, 0, 2.832611083984375, 0.15,16.6) ">
<use xlink:href="#BDM_200x200_psd_Asset_ManagedWiFi_Awareness_DM7_2_Get_data_analytics__on_everything_from__foot_traffic__0_Layer0_0_MEMBER_10_FILL"/>
</g>

<g transform="matrix( 2.815704345703125, 0, 0, 2.832611083984375, 0.15,16.6) ">
<use xlink:href="#BDM_200x200_psd_Asset_ManagedWiFi_Awareness_DM7_2_Get_data_analytics__on_everything_from__foot_traffic__0_Layer0_0_MEMBER_11_FILL"/>
</g>

<g transform="matrix( 2.815704345703125, 0, 0, 2.832611083984375, 0.15,16.6) ">
<use xlink:href="#BDM_200x200_psd_Asset_ManagedWiFi_Awareness_DM7_2_Get_data_analytics__on_everything_from__foot_traffic__0_Layer0_0_MEMBER_12_FILL"/>
</g>

<g transform="matrix( 2.815704345703125, 0, 0, 2.832611083984375, 0.15,16.6) ">
<use xlink:href="#BDM_200x200_psd_Asset_ManagedWiFi_Awareness_DM7_2_Get_data_analytics__on_everything_from__foot_traffic__0_Layer0_0_MEMBER_13_FILL"/>
</g>

<g transform="matrix( 2.815704345703125, 0, 0, 2.832611083984375, 0.15,16.6) ">
<use xlink:href="#BDM_200x200_psd_Asset_ManagedWiFi_Awareness_DM7_2_Get_data_analytics__on_everything_from__foot_traffic__0_Layer0_0_MEMBER_14_FILL"/>
</g>

<g transform="matrix( 2.815704345703125, 0, 0, 2.832611083984375, 0.15,16.6) ">
<use xlink:href="#BDM_200x200_psd_Asset_ManagedWiFi_Awareness_DM7_2_Get_data_analytics__on_everything_from__foot_traffic__0_Layer0_0_MEMBER_15_FILL"/>
</g>

<g transform="matrix( 2.815704345703125, 0, 0, 2.832611083984375, 0.15,16.6) ">
<use xlink:href="#BDM_200x200_psd_Asset_ManagedWiFi_Awareness_DM7_2_Get_data_analytics__on_everything_from__foot_traffic__0_Layer0_0_MEMBER_16_FILL"/>
</g>

<g transform="matrix( 2.815704345703125, 0, 0, 2.832611083984375, 0.15,16.6) ">
<use xlink:href="#BDM_200x200_psd_Asset_ManagedWiFi_Awareness_DM7_2_Get_data_analytics__on_everything_from__foot_traffic__0_Layer0_0_MEMBER_17_FILL"/>
</g>

<g transform="matrix( 2.815704345703125, 0, 0, 2.832611083984375, 0.15,16.6) ">
<use xlink:href="#BDM_200x200_psd_Asset_ManagedWiFi_Awareness_DM7_2_Get_data_analytics__on_everything_from__foot_traffic__0_Layer0_0_MEMBER_18_FILL"/>
</g>

<g transform="matrix( 2.815704345703125, 0, 0, 2.832611083984375, 0.15,16.6) ">
<use xlink:href="#BDM_200x200_psd_Asset_ManagedWiFi_Awareness_DM7_2_Get_data_analytics__on_everything_from__foot_traffic__0_Layer0_0_MEMBER_19_FILL"/>
</g>

<g transform="matrix( 2.815704345703125, 0, 0, 2.832611083984375, 0.15,16.6) ">
<use xlink:href="#BDM_200x200_psd_Asset_ManagedWiFi_Awareness_DM7_2_Get_data_analytics__on_everything_from__foot_traffic__0_Layer0_0_MEMBER_20_FILL"/>
</g>

<g transform="matrix( 2.815704345703125, 0, 0, 2.832611083984375, 0.15,16.6) ">
<use xlink:href="#BDM_200x200_psd_Asset_ManagedWiFi_Awareness_DM7_2_Get_data_analytics__on_everything_from__foot_traffic__0_Layer0_0_MEMBER_21_FILL"/>
</g>

<g transform="matrix( 2.815704345703125, 0, 0, 2.832611083984375, 0.15,16.6) ">
<use xlink:href="#BDM_200x200_psd_Asset_ManagedWiFi_Awareness_DM7_2_Get_data_analytics__on_everything_from__foot_traffic__0_Layer0_0_MEMBER_22_FILL"/>
</g>

<g transform="matrix( 2.815704345703125, 0, 0, 2.832611083984375, 0.15,16.6) ">
<use xlink:href="#BDM_200x200_psd_Asset_ManagedWiFi_Awareness_DM7_2_Get_data_analytics__on_everything_from__foot_traffic__0_Layer0_0_MEMBER_23_FILL"/>
</g>

<g transform="matrix( 2.815704345703125, 0, 0, 2.832611083984375, 0.15,16.6) ">
<use xlink:href="#BDM_200x200_psd_Asset_ManagedWiFi_Awareness_DM7_2_Get_data_analytics__on_everything_from__foot_traffic__0_Layer0_0_MEMBER_24_FILL"/>
</g>

<g transform="matrix( 2.815704345703125, 0, 0, 2.832611083984375, 0.15,16.6) ">
<use xlink:href="#BDM_200x200_psd_Asset_ManagedWiFi_Awareness_DM7_2_Get_data_analytics__on_everything_from__foot_traffic__0_Layer0_0_MEMBER_25_FILL"/>
</g>

<g transform="matrix( 2.815704345703125, 0, 0, 2.832611083984375, 0.15,16.6) ">
<use xlink:href="#BDM_200x200_psd_Asset_ManagedWiFi_Awareness_DM7_2_Get_data_analytics__on_everything_from__foot_traffic__0_Layer0_0_MEMBER_26_FILL"/>
</g>

<g transform="matrix( 2.815704345703125, 0, 0, 2.832611083984375, 0.15,16.6) ">
<use xlink:href="#BDM_200x200_psd_Asset_ManagedWiFi_Awareness_DM7_2_Get_data_analytics__on_everything_from__foot_traffic__0_Layer0_0_MEMBER_27_FILL"/>
</g>

<g transform="matrix( 2.815704345703125, 0, 0, 2.832611083984375, 0.15,16.6) ">
<use xlink:href="#BDM_200x200_psd_Asset_ManagedWiFi_Awareness_DM7_2_Get_data_analytics__on_everything_from__foot_traffic__0_Layer0_0_MEMBER_28_FILL"/>
</g>

<g transform="matrix( 2.815704345703125, 0, 0, 2.832611083984375, 0.15,16.6) ">
<use xlink:href="#BDM_200x200_psd_Asset_ManagedWiFi_Awareness_DM7_2_Get_data_analytics__on_everything_from__foot_traffic__0_Layer0_0_MEMBER_29_FILL"/>
</g>

<g transform="matrix( 2.815704345703125, 0, 0, 2.832611083984375, 0.15,16.6) ">
<use xlink:href="#BDM_200x200_psd_Asset_ManagedWiFi_Awareness_DM7_2_Get_data_analytics__on_everything_from__foot_traffic__0_Layer0_0_MEMBER_30_FILL"/>
</g>

<g transform="matrix( 2.815704345703125, 0, 0, 2.832611083984375, 0.15,16.6) ">
<use xlink:href="#BDM_200x200_psd_Asset_ManagedWiFi_Awareness_DM7_2_Get_data_analytics__on_everything_from__foot_traffic__0_Layer0_0_MEMBER_31_FILL"/>
</g>

<g transform="matrix( 2.815704345703125, 0, 0, 2.832611083984375, 0.15,16.6) ">
<use xlink:href="#BDM_200x200_psd_Asset_ManagedWiFi_Awareness_DM7_2_Get_data_analytics__on_everything_from__foot_traffic__0_Layer0_0_MEMBER_32_FILL"/>
</g>

<g transform="matrix( 2.815704345703125, 0, 0, 2.832611083984375, 0.15,16.6) ">
<use xlink:href="#BDM_200x200_psd_Asset_ManagedWiFi_Awareness_DM7_2_Get_data_analytics__on_everything_from__foot_traffic__0_Layer0_0_MEMBER_33_FILL"/>
</g>

<g transform="matrix( 2.815704345703125, 0, 0, 2.832611083984375, 0.15,16.6) ">
<use xlink:href="#BDM_200x200_psd_Asset_ManagedWiFi_Awareness_DM7_2_Get_data_analytics__on_everything_from__foot_traffic__0_Layer0_0_MEMBER_34_FILL"/>
</g>

<g transform="matrix( 2.815704345703125, 0, 0, 2.832611083984375, 0.15,16.6) ">
<use xlink:href="#BDM_200x200_psd_Asset_ManagedWiFi_Awareness_DM7_2_Get_data_analytics__on_everything_from__foot_traffic__0_Layer0_0_MEMBER_35_FILL"/>
</g>

<g transform="matrix( 2.815704345703125, 0, 0, 2.832611083984375, 0.15,16.6) ">
<use xlink:href="#BDM_200x200_psd_Asset_ManagedWiFi_Awareness_DM7_2_Get_data_analytics__on_everything_from__foot_traffic__0_Layer0_0_MEMBER_36_FILL"/>
</g>

<g transform="matrix( 2.815704345703125, 0, 0, 2.832611083984375, 0.15,16.6) ">
<use xlink:href="#BDM_200x200_psd_Asset_ManagedWiFi_Awareness_DM7_2_Get_data_analytics__on_everything_from__foot_traffic__0_Layer0_0_MEMBER_37_FILL"/>
</g>

<g transform="matrix( 2.815704345703125, 0, 0, 2.832611083984375, 0.15,16.6) ">
<use xlink:href="#BDM_200x200_psd_Asset_ManagedWiFi_Awareness_DM7_2_Get_data_analytics__on_everything_from__foot_traffic__0_Layer0_0_MEMBER_38_FILL"/>
</g>

<g transform="matrix( 2.815704345703125, 0, 0, 2.832611083984375, 0.15,16.6) ">
<use xlink:href="#BDM_200x200_psd_Asset_ManagedWiFi_Awareness_DM7_2_Get_data_analytics__on_everything_from__foot_traffic__0_Layer0_0_MEMBER_39_FILL"/>
</g>

<g transform="matrix( 2.815704345703125, 0, 0, 2.832611083984375, 0.15,16.6) ">
<use xlink:href="#BDM_200x200_psd_Asset_ManagedWiFi_Awareness_DM7_2_Get_data_analytics__on_everything_from__foot_traffic__0_Layer0_0_MEMBER_40_FILL"/>
</g>

<g transform="matrix( 2.815704345703125, 0, 0, 2.832611083984375, 0.15,16.6) ">
<use xlink:href="#BDM_200x200_psd_Asset_ManagedWiFi_Awareness_DM7_2_Get_data_analytics__on_everything_from__foot_traffic__0_Layer0_0_MEMBER_41_FILL"/>
</g>
</g>
</g>
</g>
</svg>
