
<svg xmlns="http://www.w3.org/2000/svg" version="1.1" xmlns:xlink="http://www.w3.org/1999/xlink" preserveAspectRatio="none" x="0px" y="0px" width="300px" height="600px" viewBox="0 0 300 600">
<defs>
<g id="IT_300x600_FR_psd_Asset_V9_1_Vous_cherchez_____valuer_votre_r_seau__pour_une_meilleure__solu_0_Layer0_0_MEMBER_0_FILL">
<path fill="#D82C26" stroke="none" d="
M 0.75 -7
L 0.1 -7 2.75 0 3.4 0 6.1 -7 5.45 -7 3.1 -0.7 3.05 -0.7 0.75 -7 Z"/>
</g>

<g id="IT_300x600_FR_psd_Asset_V9_1_Vous_cherchez_____valuer_votre_r_seau__pour_une_meilleure__solu_0_Layer0_0_MEMBER_1_FILL">
<path fill="#D82C26" stroke="none" d="
M 9.7 -4.45
Q 9.1 -4.75 8.4 -4.75 7.75 -4.75 7.15 -4.45 6.6 -4.15 6.3 -3.6 5.95 -3.05 5.95 -2.3 5.95 -1.6 6.3 -1.05 6.6 -0.5 7.15 -0.2 7.7 0.15 8.4 0.15 9.15 0.15 9.7 -0.2 10.25 -0.5 10.55 -1.05 10.9 -1.6 10.9 -2.3 10.9 -3.05 10.55 -3.6 10.25 -4.15 9.7 -4.45
M 9.4 -4
Q 9.8 -3.8 10.05 -3.3 10.3 -2.9 10.3 -2.3 10.3 -1.75 10.1 -1.35 9.9 -0.9 9.4 -0.6 9 -0.35 8.4 -0.35 7.9 -0.35 7.4 -0.6 6.95 -0.95 6.75 -1.35 6.55 -1.75 6.55 -2.3 6.55 -2.9 6.75 -3.3 6.95 -3.75 7.4 -4 7.85 -4.3 8.4 -4.3 8.95 -4.3 9.4 -4 Z"/>
</g>

<g id="IT_300x600_FR_psd_Asset_V9_1_Vous_cherchez_____valuer_votre_r_seau__pour_une_meilleure__solu_0_Layer0_0_MEMBER_2_FILL">
<path fill="#D82C26" stroke="none" d="
M 11.95 -1.8
Q 11.95 -1 12.35 -0.45 12.8 0.15 13.65 0.15 14.25 0.15 14.65 -0.2 15.15 -0.55 15.35 -1
L 15.4 0 16 0 15.9 -0.55 15.9 -4.65 15.35 -4.65 15.35 -2.3
Q 15.35 -1.75 15.1 -1.25 14.95 -0.85 14.55 -0.6 14.3 -0.35 13.8 -0.35 13.1 -0.35 12.8 -0.8 12.55 -1.15 12.55 -1.95
L 12.55 -4.65 11.95 -4.65 11.95 -1.8 Z"/>
</g>

<g id="IT_300x600_FR_psd_Asset_V9_1_Vous_cherchez_____valuer_votre_r_seau__pour_une_meilleure__solu_0_Layer0_0_MEMBER_3_FILL">
<path fill="#D82C26" stroke="none" d="
M 18.6 -4.75
Q 18.1 -4.75 17.85 -4.65 17.5 -4.5 17.3 -4.2 17.05 -3.85 17.05 -3.5 17.05 -3 17.4 -2.7 17.65 -2.45 18.4 -2.2 19.05 -2 19.35 -1.75 19.65 -1.5 19.65 -1.2 19.65 -0.75 19.35 -0.55 19.1 -0.35 18.6 -0.35 17.65 -0.35 17.05 -0.9
L 17 -0.4
Q 17.25 -0.15 17.7 0 18.15 0.15 18.65 0.15
L 19.4 0
Q 19.8 -0.25 20 -0.5 20.2 -0.75 20.2 -1.2 20.2 -1.75 19.85 -2.05 19.7 -2.2 18.8 -2.6 18.2 -2.75 17.85 -3 17.6 -3.15 17.6 -3.55 17.6 -3.95 17.9 -4.1 18.15 -4.3 18.6 -4.3
L 19.25 -4.2 19.8 -3.85 20.05 -4.3
Q 19.65 -4.55 19.4 -4.65
L 18.6 -4.75 Z"/>
</g>

<g id="IT_300x600_FR_psd_Asset_V9_1_Vous_cherchez_____valuer_votre_r_seau__pour_une_meilleure__solu_0_Layer0_0_MEMBER_4_FILL">
<path fill="#D82C26" stroke="none" d="
M 23.25 -1.05
Q 23.5 -0.6 24.1 -0.15 24.65 0.15 25.35 0.15 25.8 0.15 26.25 0 26.9 -0.35 26.95 -0.45
L 26.85 -0.9 26.2 -0.5
Q 25.85 -0.35 25.4 -0.35 24.85 -0.35 24.4 -0.65 23.95 -0.9 23.75 -1.35 23.55 -1.75 23.55 -2.3 23.55 -2.9 23.75 -3.3 23.95 -3.75 24.4 -4 24.85 -4.3 25.4 -4.3
L 26.1 -4.15
Q 26.5 -4 26.7 -3.8
L 26.95 -4.2
Q 26.7 -4.45 26.25 -4.6 25.8 -4.75 25.35 -4.75 24.7 -4.75 24.1 -4.45 23.55 -4.15 23.25 -3.6 22.95 -3 22.95 -2.3 22.95 -1.55 23.25 -1.05 Z"/>
</g>

<g id="IT_300x600_FR_psd_Asset_V9_1_Vous_cherchez_____valuer_votre_r_seau__pour_une_meilleure__solu_0_Layer0_0_MEMBER_5_FILL">
<path fill="#D82C26" stroke="none" d="
M 28.4 -7.55
L 27.8 -7.45 27.8 0 28.4 0 28.4 -2.25
Q 28.4 -2.95 28.6 -3.35 28.75 -3.8 29.15 -4.05 29.5 -4.3 29.9 -4.3 30.6 -4.3 30.9 -3.8 31.2 -3.35 31.2 -2.7
L 31.2 0 31.75 0 31.75 -2.85
Q 31.75 -3.65 31.35 -4.2 31 -4.75 30.05 -4.75 29.5 -4.75 29.05 -4.45 28.6 -4.15 28.4 -3.65
L 28.4 -7.55 Z"/>
</g>

<g id="IT_300x600_FR_psd_Asset_V9_1_Vous_cherchez_____valuer_votre_r_seau__pour_une_meilleure__solu_0_Layer0_0_MEMBER_6_FILL">
<path fill="#D82C26" stroke="none" d="
M 35.15 -4.75
Q 34.5 -4.75 33.95 -4.45 33.5 -4.2 33.15 -3.6 32.85 -3.05 32.85 -2.35 32.85 -1.65 33.15 -1.05 33.45 -0.5 34 -0.2 34.5 0.15 35.2 0.15 36.3 0.15 37.05 -0.45
L 36.95 -0.95
Q 36.65 -0.65 36.2 -0.5 35.75 -0.35 35.25 -0.35 34.7 -0.35 34.3 -0.6 33.85 -0.85 33.65 -1.3 33.4 -1.7 33.4 -2.25
L 37.35 -2.25 37.35 -2.5
Q 37.35 -3.05 37.1 -3.65 36.8 -4.15 36.35 -4.45 35.85 -4.75 35.15 -4.75
M 34.2 -4.05
Q 34.6 -4.3 35.15 -4.3 35.85 -4.3 36.3 -3.85 36.7 -3.45 36.8 -2.65
L 33.4 -2.65
Q 33.5 -3.15 33.65 -3.4 33.8 -3.8 34.2 -4.05 Z"/>
</g>

<g id="IT_300x600_FR_psd_Asset_V9_1_Vous_cherchez_____valuer_votre_r_seau__pour_une_meilleure__solu_0_Layer0_0_MEMBER_7_FILL">
<path fill="#D82C26" stroke="none" d="
M 38.95 -4.65
L 38.4 -4.65 38.45 0 39 0 39 -2.3
Q 39 -3 39.35 -3.7 39.75 -4.25 40.3 -4.25
L 40.75 -4.2 40.85 -4.7 40.35 -4.75
Q 39.95 -4.75 39.55 -4.45 39.15 -4.1 39 -3.65
L 38.95 -4.65 Z"/>
</g>

<g id="IT_300x600_FR_psd_Asset_V9_1_Vous_cherchez_____valuer_votre_r_seau__pour_une_meilleure__solu_0_Layer0_0_MEMBER_8_FILL">
<path fill="#D82C26" stroke="none" d="
M 44.35 -4.6
Q 43.9 -4.75 43.45 -4.75 42.75 -4.75 42.2 -4.45 41.65 -4.15 41.35 -3.6 41 -3.05 41 -2.3 41 -1.55 41.35 -1.05 41.6 -0.5 42.2 -0.15 42.75 0.15 43.45 0.15 43.9 0.15 44.35 0 44.9 -0.35 45 -0.45
L 44.95 -0.9 44.3 -0.5
Q 43.95 -0.35 43.5 -0.35 42.95 -0.35 42.5 -0.65 42.1 -0.85 41.85 -1.35 41.6 -1.85 41.6 -2.3 41.6 -2.8 41.85 -3.3 42.1 -3.8 42.5 -4 42.95 -4.3 43.45 -4.3
L 44.2 -4.15
Q 44.6 -4 44.8 -3.8
L 45 -4.2
Q 44.85 -4.4 44.35 -4.6 Z"/>
</g>

<g id="IT_300x600_FR_psd_Asset_V9_1_Vous_cherchez_____valuer_votre_r_seau__pour_une_meilleure__solu_0_Layer0_0_MEMBER_9_FILL">
<path fill="#D82C26" stroke="none" d="
M 46.45 -7.55
L 45.9 -7.45 45.9 0 46.45 0 46.45 -2.25
Q 46.45 -2.75 46.65 -3.35 46.9 -3.8 47.2 -4.05 47.6 -4.3 48 -4.3 48.7 -4.3 49 -3.8 49.25 -3.3 49.25 -2.7
L 49.25 0 49.85 0 49.85 -2.85
Q 49.85 -3.65 49.45 -4.2 49.05 -4.75 48.15 -4.75 47.6 -4.75 47.15 -4.45 46.65 -4.1 46.5 -3.65
L 46.45 -3.65 46.45 -7.55 Z"/>
</g>

<g id="IT_300x600_FR_psd_Asset_V9_1_Vous_cherchez_____valuer_votre_r_seau__pour_une_meilleure__solu_0_Layer0_0_MEMBER_10_FILL">
<path fill="#D82C26" stroke="none" d="
M 54.4 -4.45
Q 53.95 -4.75 53.2 -4.75 52.6 -4.75 52.05 -4.45 51.6 -4.2 51.25 -3.6 50.9 -3.1 50.9 -2.35 50.9 -1.75 51.25 -1.05 51.6 -0.45 52.1 -0.2 52.6 0.15 53.3 0.15 54.4 0.15 55.15 -0.45
L 55.05 -0.95
Q 54.75 -0.65 54.3 -0.5 53.85 -0.35 53.35 -0.35 52.7 -0.35 52.4 -0.6 52 -0.8 51.75 -1.3 51.5 -1.7 51.5 -2.25
L 55.4 -2.25 55.4 -2.5
Q 55.4 -3.2 55.15 -3.65 54.95 -4.15 54.4 -4.45
M 53.2 -4.3
Q 53.95 -4.3 54.4 -3.85 54.85 -3.4 54.85 -2.65
L 51.5 -2.65
Q 51.5 -2.9 51.7 -3.4 51.95 -3.85 52.3 -4.05 52.6 -4.3 53.2 -4.3 Z"/>
</g>

<g id="IT_300x600_FR_psd_Asset_V9_1_Vous_cherchez_____valuer_votre_r_seau__pour_une_meilleure__solu_0_Layer0_0_MEMBER_11_FILL">
<path fill="#D82C26" stroke="none" d="
M 58.85 -4.15
L 56 -0.45 56 0 59.65 0 59.75 -0.45 56.7 -0.45 59.55 -4.15 59.55 -4.65 56.2 -4.65 56.05 -4.15 58.85 -4.15 Z"/>
</g>

<g id="IT_300x600_FR_psd_Asset_V9_1_Vous_cherchez_____valuer_votre_r_seau__pour_une_meilleure__solu_0_Layer0_0_MEMBER_12_FILL">
<path fill="#D82C26" stroke="none" d="
M 64.3 -4.75
L 63.35 -4.6
Q 62.85 -4.4 62.6 -4.2
L 62.75 -3.75 63.45 -4.15
Q 63.85 -4.3 64.25 -4.3 64.85 -4.3 65.2 -4 65.55 -3.65 65.55 -3.05
L 65.55 -2.8 65 -2.8
Q 62.35 -2.8 62.35 -1.25 62.35 -0.6 62.75 -0.2 63.3 0.15 63.8 0.15 64.4 0.15 64.85 -0.15 65.35 -0.4 65.55 -0.9
L 65.65 0 66.15 0 66.1 -3
Q 66.1 -3.9 65.6 -4.35 65.2 -4.75 64.3 -4.75
M 63.2 -0.55
Q 62.9 -0.75 62.9 -1.25 62.9 -2.4 65.05 -2.4
L 65.55 -2.4 65.55 -1.95
Q 65.55 -1.5 65.35 -1.15 65.2 -0.8 64.8 -0.55 64.4 -0.3 63.95 -0.3 63.55 -0.3 63.2 -0.55
M 63.9 -7
L 63.25 -7 64.45 -5.6 64.95 -5.6 63.9 -7 Z"/>
</g>

<g id="IT_300x600_FR_psd_Asset_V9_1_Vous_cherchez_____valuer_votre_r_seau__pour_une_meilleure__solu_0_Layer0_0_MEMBER_13_FILL">
<path fill="#D82C26" stroke="none" d="
M 4.05 8.25
Q 3.55 7.95 2.85 7.95 2.25 7.95 1.7 8.25 1.15 8.55 0.85 9.1 0.55 9.7 0.55 10.35 0.55 11.15 0.85 11.65 1.1 12.1 1.7 12.55 2.25 12.85 2.95 12.85 4 12.85 4.75 12.25
L 4.7 11.75
Q 4.3 12.05 3.9 12.2 3.55 12.35 3 12.35 2.4 12.35 2 12.1 1.6 11.85 1.35 11.45 1.1 10.95 1.1 10.5
L 5.05 10.5 5.05 10.25
Q 5.05 9.65 4.8 9.05 4.5 8.55 4.05 8.25
M 2.85 8.4
Q 3.6 8.4 4.05 8.85 4.5 9.3 4.5 10.05
L 1.15 10.05
Q 1.15 9.65 1.35 9.3 1.55 8.95 1.95 8.65 2.35 8.4 2.85 8.4
M 4.1 5.7
L 3.45 5.7 2.45 7.1 2.9 7.1 4.1 5.7 Z"/>
</g>

<g id="IT_300x600_FR_psd_Asset_V9_1_Vous_cherchez_____valuer_votre_r_seau__pour_une_meilleure__solu_0_Layer0_0_MEMBER_14_FILL">
<path fill="#D82C26" stroke="none" d="
M 5.35 8.1
L 7.15 12.7 7.8 12.7 9.5 8.1 8.9 8.1 7.45 12.15 6 8.1 5.35 8.1 Z"/>
</g>

<g id="IT_300x600_FR_psd_Asset_V9_1_Vous_cherchez_____valuer_votre_r_seau__pour_une_meilleure__solu_0_Layer0_0_MEMBER_15_FILL">
<path fill="#D82C26" stroke="none" d="
M 11.05 8.55
Q 11.45 8.4 11.85 8.4 12.45 8.4 12.8 8.7 13.15 9.05 13.15 9.65
L 13.15 9.95 12.6 9.95
Q 9.95 9.95 9.95 11.45 9.95 12.1 10.35 12.5 10.9 12.85 11.4 12.85 11.95 12.85 12.45 12.6 12.95 12.25 13.15 11.8
L 13.25 12.7 13.75 12.7 13.7 9.7
Q 13.7 8.85 13.2 8.4 12.75 7.95 11.9 7.95 11.4 7.95 10.95 8.1 10.55 8.25 10.2 8.5
L 10.35 8.95 11.05 8.55
M 10.5 11.45
Q 10.5 10.3 12.65 10.3
L 13.15 10.3 13.15 10.8
Q 13.15 11.2 12.95 11.55 12.8 11.9 12.4 12.15 12 12.4 11.5 12.4 11.05 12.4 10.8 12.15 10.5 11.95 10.5 11.45 Z"/>
</g>

<g id="IT_300x600_FR_psd_Asset_V9_1_Vous_cherchez_____valuer_votre_r_seau__pour_une_meilleure__solu_0_Layer0_0_MEMBER_16_FILL">
<path fill="#D82C26" stroke="none" d="
M 15.25 12.4
Q 15.5 12.7 15.8 12.8
L 16.05 12.35 15.75 12.05
Q 15.65 11.95 15.65 11.55
L 15.65 5.2 15.05 5.3 15.05 11.7
Q 15.05 12.2 15.25 12.4 Z"/>
</g>

<g id="IT_300x600_FR_psd_Asset_V9_1_Vous_cherchez_____valuer_votre_r_seau__pour_une_meilleure__solu_0_Layer0_0_MEMBER_17_FILL">
<path fill="#D82C26" stroke="none" d="
M 21.05 12.7
L 21 8.1 20.4 8.1 20.4 10.4
Q 20.4 11.05 20.2 11.45 19.95 12 19.65 12.15 19.3 12.35 18.85 12.35 18.2 12.35 17.9 11.9 17.6 11.45 17.6 10.75
L 17.6 8.1 17.05 8.1 17.05 10.9
Q 17.05 11.75 17.45 12.3 17.85 12.85 18.7 12.85 19.3 12.85 19.75 12.55 20.25 12.2 20.4 11.7
L 20.5 12.7 21.05 12.7 Z"/>
</g>

<g id="IT_300x600_FR_psd_Asset_V9_1_Vous_cherchez_____valuer_votre_r_seau__pour_une_meilleure__solu_0_Layer0_0_MEMBER_18_FILL">
<path fill="#D82C26" stroke="none" d="
M 24.4 7.95
Q 23.75 7.95 23.2 8.25 22.75 8.5 22.4 9.1 22.1 9.7 22.1 10.35 22.1 11.15 22.4 11.65 22.65 12.1 23.25 12.55 23.8 12.85 24.45 12.85 25.55 12.85 26.3 12.25
L 26.2 11.75
Q 25.9 12.05 25.45 12.2 25 12.35 24.5 12.35 23.95 12.35 23.55 12.1 23.15 11.85 22.9 11.45 22.65 10.95 22.65 10.5
L 26.6 10.5 26.6 10.25
Q 26.6 9.65 26.35 9.05 26.05 8.55 25.6 8.25 25.1 7.95 24.4 7.95
M 23.5 8.65
Q 23.9 8.4 24.4 8.4 25.15 8.4 25.6 8.85 26.05 9.4 26.05 10.05
L 22.65 10.05
Q 22.75 9.55 22.9 9.3 23.15 8.9 23.5 8.65 Z"/>
</g>

<g id="IT_300x600_FR_psd_Asset_V9_1_Vous_cherchez_____valuer_votre_r_seau__pour_une_meilleure__solu_0_Layer0_0_MEMBER_19_FILL">
<path fill="#D82C26" stroke="none" d="
M 28.25 9.1
L 28.2 8.1 27.65 8.1 27.7 12.7 28.25 12.7 28.25 10.4
Q 28.25 9.65 28.6 9.05 29 8.45 29.55 8.45
L 30 8.55 30.1 8 29.6 7.95
Q 29.2 7.95 28.8 8.25 28.4 8.55 28.25 9.1 Z"/>
</g>

<g id="IT_300x600_FR_psd_Asset_V9_1_Vous_cherchez_____valuer_votre_r_seau__pour_une_meilleure__solu_0_Layer0_0_MEMBER_20_FILL">
<path fill="#D82C26" stroke="none" d="
M 31.9 8.1
L 33.65 12.7 34.35 12.7 36.05 8.1 35.45 8.1 34 12.15 32.5 8.1 31.9 8.1 Z"/>
</g>

<g id="IT_300x600_FR_psd_Asset_V9_1_Vous_cherchez_____valuer_votre_r_seau__pour_une_meilleure__solu_0_Layer0_0_MEMBER_21_FILL">
<path fill="#D82C26" stroke="none" d="
M 41.3 10.4
Q 41.3 9.65 40.95 9.1 40.65 8.55 40.1 8.25 39.5 7.95 38.8 7.95 38.15 7.95 37.55 8.25 37.05 8.55 36.65 9.1 36.35 9.7 36.35 10.4 36.35 11.15 36.65 11.65 36.95 12.1 37.55 12.55 38.15 12.85 38.8 12.85 39.5 12.85 40.1 12.55 40.7 12.1 40.95 11.65 41.3 11.15 41.3 10.4
M 38.8 8.45
Q 39.45 8.45 39.8 8.7 40.2 8.9 40.45 9.4 40.7 9.9 40.7 10.4 40.7 11 40.45 11.35 40.2 11.85 39.8 12.1 39.4 12.35 38.8 12.35 38.3 12.35 37.8 12.1 37.35 11.75 37.15 11.35 36.95 10.95 36.95 10.4 36.95 9.8 37.15 9.4 37.35 8.95 37.8 8.7 38.2 8.45 38.8 8.45 Z"/>
</g>

<g id="IT_300x600_FR_psd_Asset_V9_1_Vous_cherchez_____valuer_votre_r_seau__pour_une_meilleure__solu_0_Layer0_0_MEMBER_22_FILL">
<path fill="#D82C26" stroke="none" d="
M 44.2 8.55
L 44.3 8.1 43 8.1 43 6.75 42.4 7 42.4 8.1 41.65 8.1 41.55 8.55 42.4 8.55 42.4 11.6
Q 42.4 12.2 42.7 12.5 43 12.8 43.5 12.8
L 44 12.75 44.5 12.55 44.4 12.15
Q 43.9 12.35 43.65 12.35 43.4 12.35 43.2 12.15 43 11.95 43 11.5
L 43 8.55 44.2 8.55 Z"/>
</g>

<g id="IT_300x600_FR_psd_Asset_V9_1_Vous_cherchez_____valuer_votre_r_seau__pour_une_meilleure__solu_0_Layer0_0_MEMBER_23_FILL">
<path fill="#D82C26" stroke="none" d="
M 45.8 9.1
L 45.75 8.1 45.2 8.1 45.25 12.7 45.85 12.7 45.85 10.4
Q 45.85 9.55 46.2 9.05 46.6 8.45 47.15 8.45
L 47.55 8.55 47.7 8 47.2 7.95
Q 46.8 7.95 46.4 8.25 46 8.55 45.85 9.1
L 45.8 9.1 Z"/>
</g>

<g id="IT_300x600_FR_psd_Asset_V9_1_Vous_cherchez_____valuer_votre_r_seau__pour_une_meilleure__solu_0_Layer0_0_MEMBER_24_FILL">
<path fill="#D82C26" stroke="none" d="
M 52.1 9.05
Q 51.9 8.55 51.35 8.25 50.9 7.95 50.15 7.95 49.55 7.95 49 8.25 48.55 8.5 48.2 9.1 47.9 9.7 47.9 10.35 47.9 11.15 48.2 11.65 48.45 12.2 49.05 12.55 49.6 12.85 50.25 12.85 51.35 12.85 52.1 12.25
L 52 11.75
Q 51.7 12.05 51.25 12.2 50.8 12.35 50.3 12.35 49.75 12.35 49.35 12.1 49 11.9 48.7 11.45 48.45 10.95 48.45 10.5
L 52.35 10.5 52.4 10.25
Q 52.4 9.6 52.1 9.05
M 51.35 8.85
Q 51.8 9.3 51.8 10.05
L 48.45 10.05
Q 48.45 9.8 48.65 9.3 48.85 8.95 49.25 8.65 49.65 8.4 50.15 8.4 50.9 8.4 51.35 8.85 Z"/>
</g>

<g id="IT_300x600_FR_psd_Asset_V9_1_Vous_cherchez_____valuer_votre_r_seau__pour_une_meilleure__solu_0_Layer0_0_MEMBER_25_FILL">
<path fill="#D82C26" stroke="none" d="
M 56.1 10.4
Q 56.1 9.65 56.45 9.05 56.85 8.45 57.45 8.45
L 57.85 8.55 57.95 8 57.45 7.95
Q 57.05 7.95 56.65 8.25 56.35 8.5 56.1 9.1
L 56.05 8.1 55.5 8.1 55.55 12.7 56.1 12.7 56.1 10.4 Z"/>
</g>

<g id="IT_300x600_FR_psd_Asset_V9_1_Vous_cherchez_____valuer_votre_r_seau__pour_une_meilleure__solu_0_Layer0_0_MEMBER_26_FILL">
<path fill="#D82C26" stroke="none" d="
M 62.4 9.05
Q 62.1 8.55 61.65 8.25 61.15 7.95 60.45 7.95 59.85 7.95 59.3 8.25 58.75 8.55 58.45 9.1 58.15 9.7 58.15 10.35 58.15 11.15 58.45 11.65 58.7 12.1 59.3 12.55 59.85 12.85 60.5 12.85 61.6 12.85 62.35 12.25
L 62.25 11.75
Q 61.95 12.05 61.5 12.2 61.05 12.35 60.55 12.35 60 12.35 59.6 12.1 59.2 11.85 58.95 11.45 58.7 10.95 58.7 10.5
L 62.65 10.5 62.65 10.25
Q 62.65 9.65 62.4 9.05
M 61.65 8.85
Q 62.1 9.3 62.1 10.05
L 58.7 10.05
Q 58.8 9.55 58.95 9.3 59.15 8.95 59.55 8.65 59.95 8.4 60.45 8.4 61.2 8.4 61.65 8.85
M 61.7 5.7
L 61.05 5.7 60.05 7.1 60.5 7.1 61.7 5.7 Z"/>
</g>

<g id="IT_300x600_FR_psd_Asset_V9_1_Vous_cherchez_____valuer_votre_r_seau__pour_une_meilleure__solu_0_Layer0_0_MEMBER_27_FILL">
<path fill="#D82C26" stroke="none" d="
M 65 8.4
Q 65.35 8.4 65.65 8.55 65.95 8.6 66.2 8.85
L 66.45 8.45
Q 66.25 8.25 65.8 8.1 65.45 7.95 65 7.95
L 64.25 8.1
Q 63.95 8.2 63.7 8.5 63.45 8.85 63.45 9.2 63.45 9.8 63.8 10 64.05 10.25 64.8 10.5 65.45 10.7 65.75 10.95 66.05 11.2 66.05 11.5 66.05 11.95 65.75 12.15 65.4 12.4 65 12.4 64.15 12.4 63.45 11.8
L 63.35 12.3
Q 63.6 12.55 64.1 12.7 64.55 12.85 65.05 12.85
L 65.8 12.7
Q 66.2 12.55 66.4 12.2 66.6 11.95 66.6 11.5 66.6 11 66.25 10.65 66.05 10.45 65.2 10.15 64.55 9.95 64.25 9.7 64 9.55 64 9.2 64 8.85 64.3 8.6 64.55 8.4 65 8.4 Z"/>
</g>

<g id="IT_300x600_FR_psd_Asset_V9_1_Vous_cherchez_____valuer_votre_r_seau__pour_une_meilleure__solu_0_Layer0_0_MEMBER_28_FILL">
<path fill="#D82C26" stroke="none" d="
M 71.85 10.25
Q 71.85 9.65 71.6 9.05 71.3 8.55 70.85 8.25 70.35 7.95 69.65 7.95 69 7.95 68.45 8.25 68 8.5 67.65 9.1 67.35 9.7 67.35 10.35 67.35 11.15 67.65 11.65 67.9 12.1 68.5 12.55 69.05 12.85 69.7 12.85 70.8 12.85 71.55 12.25
L 71.45 11.75
Q 71.15 12.05 70.7 12.2 70.25 12.35 69.75 12.35 69.2 12.35 68.8 12.1 68.4 11.85 68.15 11.45 67.9 10.95 67.9 10.5
L 71.85 10.5 71.85 10.25
M 69.65 8.4
Q 70.45 8.4 70.8 8.85 71.2 9.25 71.3 10.05
L 67.9 10.05
Q 68 9.55 68.15 9.3 68.3 8.95 68.75 8.65 69.15 8.4 69.65 8.4 Z"/>
</g>

<g id="IT_300x600_FR_psd_Asset_V9_1_Vous_cherchez_____valuer_votre_r_seau__pour_une_meilleure__solu_0_Layer0_0_MEMBER_29_FILL">
<path fill="#D82C26" stroke="none" d="
M 74.5 7.95
Q 74.05 7.95 73.6 8.1
L 72.8 8.5 72.95 8.95 73.65 8.55
Q 74.1 8.4 74.45 8.4 75.1 8.4 75.4 8.7 75.75 9.05 75.75 9.65
L 75.75 9.95 75.2 9.95
Q 72.55 9.95 72.55 11.45 72.55 12.15 73 12.5 73.45 12.85 74 12.85 74.55 12.85 75.05 12.6 75.5 12.35 75.75 11.8
L 75.8 11.8 75.8 12.3 75.85 12.7 76.4 12.7 76.3 11.7 76.3 9.7
Q 76.3 8.85 75.85 8.4 75.35 7.95 74.5 7.95
M 73.4 12.15
Q 73.1 11.95 73.1 11.45 73.1 10.3 75.3 10.3
L 75.75 10.3 75.75 10.8 75.6 11.55
Q 75.4 11.9 75.05 12.15 74.65 12.4 74.15 12.4 73.65 12.4 73.4 12.15 Z"/>
</g>

<g id="IT_300x600_FR_psd_Asset_V9_1_Vous_cherchez_____valuer_votre_r_seau__pour_une_meilleure__solu_0_Layer0_0_MEMBER_30_FILL">
<path fill="#D82C26" stroke="none" d="
M 81.65 12.7
L 81.55 11.65 81.55 8.1 81 8.1 81 10.4
Q 81 10.85 80.8 11.45 80.55 11.9 80.25 12.15 79.9 12.35 79.45 12.35 78.75 12.35 78.45 11.9 78.2 11.4 78.2 10.75
L 78.2 8.1 77.6 8.1 77.6 10.9
Q 77.6 11.65 78 12.3 78.45 12.85 79.3 12.85 79.85 12.85 80.3 12.55 80.75 12.3 81 11.7
L 81.1 12.7 81.65 12.7 Z"/>
</g>

<g id="IT_300x600_FR_psd_Asset_V9_1_Vous_cherchez_____valuer_votre_r_seau__pour_une_meilleure__solu_0_Layer0_0_MEMBER_31_FILL">
<path fill="#D82C26" stroke="none" d="
M 4.6 20.95
Q 4.1 20.65 3.4 20.65 2.75 20.65 2.3 20.95 1.85 21.2 1.5 21.8
L 1.45 20.8 0.9 20.8 0.9 27.8 1.5 27.8 1.5 24.45
Q 1.8 24.95 2.3 25.25 2.85 25.55 3.4 25.55 4.1 25.55 4.6 25.25 5.2 24.85 5.4 24.35 5.7 23.75 5.7 23.1 5.7 22.45 5.4 21.85 5.2 21.4 4.6 20.95
M 3.3 21.15
Q 3.85 21.15 4.25 21.4 4.7 21.7 4.9 22.1 5.1 22.5 5.1 23.1 5.1 23.7 4.9 24.1 4.65 24.6 4.25 24.8 3.95 25.05 3.3 25.05 2.85 25.05 2.35 24.8 1.85 24.4 1.7 24.1 1.45 23.6 1.45 23.1 1.45 22.6 1.7 22.1 1.85 21.8 2.35 21.4 2.85 21.15 3.3 21.15 Z"/>
</g>

<g id="IT_300x600_FR_psd_Asset_V9_1_Vous_cherchez_____valuer_votre_r_seau__pour_une_meilleure__solu_0_Layer0_0_MEMBER_32_FILL">
<path fill="#D82C26" stroke="none" d="
M 9 20.65
Q 8.3 20.65 7.7 20.95 7.15 21.25 6.85 21.85 6.5 22.45 6.5 23.1 6.5 23.75 6.85 24.35 7.15 24.95 7.7 25.25 8.3 25.55 9 25.55 9.65 25.55 10.25 25.25 10.75 25 11.15 24.35 11.45 23.85 11.45 23.1 11.45 22.4 11.15 21.85 10.75 21.2 10.25 20.95 9.65 20.65 9 20.65
M 9 21.15
Q 9.5 21.15 10 21.4 10.45 21.65 10.65 22.1 10.85 22.5 10.85 23.1 10.85 23.7 10.65 24.1 10.5 24.4 10 24.8 9.5 25.05 9 25.05 8.5 25.05 8 24.8 7.55 24.5 7.35 24.1 7.1 23.6 7.1 23.1 7.1 22.6 7.35 22.1 7.6 21.6 8 21.4 8.5 21.15 9 21.15 Z"/>
</g>

<g id="IT_300x600_FR_psd_Asset_V9_1_Vous_cherchez_____valuer_votre_r_seau__pour_une_meilleure__solu_0_Layer0_0_MEMBER_33_FILL">
<path fill="#D82C26" stroke="none" d="
M 12.5 20.8
L 12.5 23.6
Q 12.5 24.35 12.9 25 13.35 25.55 14.2 25.55 14.75 25.55 15.2 25.25 15.65 25 15.9 24.4
L 16 25.45 16.55 25.4 16.45 24.35 16.45 20.8 15.9 20.8 15.9 23.1
Q 15.9 23.55 15.7 24.15 15.45 24.6 15.15 24.85 14.8 25.05 14.35 25.05 13.65 25.05 13.4 24.6 13.1 24.15 13.1 23.45
L 13.1 20.8 12.5 20.8 Z"/>
</g>

<g id="IT_300x600_FR_psd_Asset_V9_1_Vous_cherchez_____valuer_votre_r_seau__pour_une_meilleure__solu_0_Layer0_0_MEMBER_34_FILL">
<path fill="#D82C26" stroke="none" d="
M 19.85 20.65
Q 19.45 20.65 19.05 20.95 18.65 21.25 18.5 21.8
L 18.45 21.8 18.4 20.8 17.85 20.8 17.9 25.4 18.5 25.4 18.5 23.1
Q 18.5 22.25 18.85 21.75 19.25 21.15 19.8 21.15
L 20.2 21.25 20.35 20.75 19.85 20.65 Z"/>
</g>

<g id="IT_300x600_FR_psd_Asset_V9_1_Vous_cherchez_____valuer_votre_r_seau__pour_une_meilleure__solu_0_Layer0_0_MEMBER_35_FILL">
<path fill="#D82C26" stroke="none" d="
M 22.9 20.8
L 22.9 23.6
Q 22.9 24.35 23.3 25 23.75 25.55 24.6 25.55 25.15 25.55 25.6 25.25 26.05 25 26.3 24.4
L 26.35 25.45 26.95 25.4 26.85 24.35 26.85 20.8 26.3 20.8 26.3 23.1
Q 26.3 23.55 26.1 24.15 25.85 24.65 25.5 24.85 25.25 25.05 24.75 25.05 24.05 25.05 23.75 24.6 23.5 24.1 23.5 23.45
L 23.5 20.8 22.9 20.8 Z"/>
</g>

<g id="IT_300x600_FR_psd_Asset_V9_1_Vous_cherchez_____valuer_votre_r_seau__pour_une_meilleure__solu_0_Layer0_0_MEMBER_36_FILL">
<path fill="#D82C26" stroke="none" d="
M 28.8 20.8
L 28.25 20.8 28.3 25.4 28.9 25.4 28.9 23.05
Q 28.9 22.4 29.1 22.05 29.35 21.5 29.65 21.35 30 21.15 30.45 21.15 31.1 21.15 31.4 21.6 31.7 22.05 31.7 22.75
L 31.7 25.4 32.3 25.4 32.3 22.6
Q 32.3 21.8 31.85 21.2 31.45 20.65 30.55 20.65 30 20.65 29.55 20.95 29.05 21.3 28.9 21.8
L 28.85 21.8 28.8 20.8 Z"/>
</g>

<g id="IT_300x600_FR_psd_Asset_V9_1_Vous_cherchez_____valuer_votre_r_seau__pour_une_meilleure__solu_0_Layer0_0_MEMBER_37_FILL">
<path fill="#D82C26" stroke="none" d="
M 33.35 23.1
Q 33.35 23.85 33.65 24.35 33.95 24.95 34.5 25.25 35.05 25.55 35.75 25.55 36.8 25.55 37.6 24.95
L 37.5 24.5 36.75 24.9
Q 36.15 25.1 35.8 25.1 35.3 25.1 34.8 24.85 34.55 24.65 34.15 24.15 34 23.85 33.9 23.2
L 37.85 23.2 37.85 22.95
Q 37.85 22.4 37.6 21.8 37.4 21.3 36.85 20.95 36.35 20.65 35.65 20.65 35.05 20.65 34.5 20.95 33.95 21.25 33.65 21.8 33.35 22.4 33.35 23.1
M 34.15 22
Q 34.35 21.65 34.75 21.35 35.15 21.1 35.65 21.1 36.4 21.1 36.85 21.55 37.3 22 37.3 22.75
L 33.95 22.75
Q 33.95 22.35 34.15 22 Z"/>
</g>

<g id="IT_300x600_FR_psd_Asset_V9_1_Vous_cherchez_____valuer_votre_r_seau__pour_une_meilleure__solu_0_Layer0_0_MEMBER_38_FILL">
<path fill="#D82C26" stroke="none" d="
M 43.05 21.15
Q 43.7 21.15 43.9 21.55 44.2 21.95 44.2 22.7
L 44.2 25.4 44.8 25.4 44.8 23.05
Q 44.8 22.2 45.2 21.65 45.65 21.15 46.25 21.15 46.9 21.15 47.2 21.6 47.5 22.05 47.5 22.8
L 47.5 25.4 48.05 25.4 48.05 22.65
Q 48.05 21.85 47.65 21.2 47.25 20.65 46.4 20.65 45.8 20.65 45.35 20.95 44.95 21.25 44.7 21.85 44.55 21.3 44.15 20.95 43.8 20.65 43.2 20.65 42.65 20.65 42.2 20.95 41.75 21.3 41.6 21.8
L 41.55 21.8 41.5 20.8 41 20.8 41 25.4 41.6 25.4 41.6 23.1
Q 41.6 22.45 41.8 22.05 41.9 21.75 42.3 21.35 42.65 21.15 43.05 21.15 Z"/>
</g>

<g id="IT_300x600_FR_psd_Asset_V9_1_Vous_cherchez_____valuer_votre_r_seau__pour_une_meilleure__solu_0_Layer0_0_MEMBER_39_FILL">
<path fill="#D82C26" stroke="none" d="
M 49.15 23.1
Q 49.15 23.85 49.45 24.35 49.75 24.95 50.3 25.25 50.85 25.55 51.5 25.55 52.6 25.55 53.35 24.95
L 53.25 24.5
Q 52.9 24.75 52.5 24.9 51.9 25.1 51.55 25.1 51.1 25.1 50.6 24.85 50.2 24.6 49.95 24.15 49.7 23.65 49.7 23.2
L 53.6 23.2 53.65 22.95
Q 53.65 22.4 53.4 21.8 53.05 21.2 52.6 20.95 52.15 20.65 51.45 20.65 50.8 20.65 50.25 20.95 49.8 21.2 49.45 21.8 49.15 22.4 49.15 23.1
M 49.95 22
Q 50.1 21.7 50.5 21.35 51 21.1 51.45 21.1 52.15 21.1 52.6 21.55 53 21.95 53.1 22.75
L 49.7 22.75
Q 49.7 22.4 49.95 22 Z"/>
</g>

<g id="IT_300x600_FR_psd_Asset_V9_1_Vous_cherchez_____valuer_votre_r_seau__pour_une_meilleure__solu_0_Layer0_0_MEMBER_40_FILL">
<path fill="#D82C26" stroke="none" d="
M 55 19.35
L 55.3 19.25
Q 55.4 19.15 55.4 18.95 55.4 18.7 55.3 18.65
L 55 18.5 54.7 18.65 54.6 18.95 54.7 19.25 55 19.35
M 55.3 20.8
L 54.7 20.8 54.7 25.4 55.3 25.4 55.3 20.8 Z"/>
</g>

<g id="IT_300x600_FR_psd_Asset_V9_1_Vous_cherchez_____valuer_votre_r_seau__pour_une_meilleure__solu_0_Layer0_0_MEMBER_41_FILL">
<path fill="#D82C26" stroke="none" d="
M 56.9 25.15
L 57.45 25.55 57.75 25.05
Q 57.5 24.9 57.4 24.75
L 57.3 24.25 57.3 17.9 56.7 18 56.7 24.4
Q 56.7 24.75 56.9 25.15 Z"/>
</g>

<g id="IT_300x600_FR_psd_Asset_V9_1_Vous_cherchez_____valuer_votre_r_seau__pour_une_meilleure__solu_0_Layer0_0_MEMBER_42_FILL">
<path fill="#D82C26" stroke="none" d="
M 58.95 25.15
L 59.5 25.55 59.75 25.05 59.45 24.75
Q 59.35 24.65 59.35 24.25
L 59.35 17.9 58.75 18 58.75 24.4
Q 58.75 24.9 58.95 25.15 Z"/>
</g>

<g id="IT_300x600_FR_psd_Asset_V9_1_Vous_cherchez_____valuer_votre_r_seau__pour_une_meilleure__solu_0_Layer0_0_MEMBER_43_FILL">
<path fill="#D82C26" stroke="none" d="
M 62.75 20.65
Q 62.15 20.65 61.6 20.95 61.05 21.25 60.75 21.8 60.45 22.4 60.45 23.1 60.45 23.85 60.75 24.35 61.05 24.95 61.6 25.25 62.15 25.55 62.85 25.55 63.9 25.55 64.7 24.95
L 64.6 24.5
Q 64.25 24.75 63.85 24.9 63.25 25.1 62.9 25.1 62.35 25.1 61.95 24.85 61.65 24.65 61.25 24.15 61.05 23.75 61.05 23.2
L 64.95 23.2 64.95 22.95
Q 64.95 22.4 64.7 21.8 64.45 21.25 63.95 20.95 63.45 20.65 62.75 20.65
M 61.85 21.35
Q 62.25 21.1 62.75 21.1 63.5 21.1 63.95 21.55 64.4 22 64.4 22.75
L 61.05 22.75
Q 61.05 22.35 61.25 22 61.45 21.65 61.85 21.35 Z"/>
</g>

<g id="IT_300x600_FR_psd_Asset_V9_1_Vous_cherchez_____valuer_votre_r_seau__pour_une_meilleure__solu_0_Layer0_0_MEMBER_44_FILL">
<path fill="#D82C26" stroke="none" d="
M 66 20.8
L 66 23.6
Q 66 24.45 66.4 25 66.8 25.55 67.7 25.55 68.25 25.55 68.7 25.25 69.2 24.9 69.35 24.4
L 69.45 25.45 70.05 25.4 69.95 24.9 69.95 20.8 69.35 20.8 69.35 23.1
Q 69.35 23.75 69.15 24.15 69 24.6 68.6 24.85 68.35 25.05 67.85 25.05 67.15 25.05 66.85 24.6 66.55 24.15 66.55 23.45
L 66.55 20.8 66 20.8 Z"/>
</g>

<g id="IT_300x600_FR_psd_Asset_V9_1_Vous_cherchez_____valuer_votre_r_seau__pour_une_meilleure__solu_0_Layer0_0_MEMBER_45_FILL">
<path fill="#D82C26" stroke="none" d="
M 73.7 21.25
L 73.8 20.75 73.3 20.65
Q 72.95 20.65 72.55 20.95 72.2 21.15 71.95 21.8
L 71.9 20.8 71.35 20.8 71.4 25.4 72 25.4 72 23.1
Q 72 22.25 72.35 21.75 72.65 21.15 73.3 21.15
L 73.7 21.25 Z"/>
</g>

<g id="IT_300x600_FR_psd_Asset_V9_1_Vous_cherchez_____valuer_votre_r_seau__pour_une_meilleure__solu_0_Layer0_0_MEMBER_46_FILL">
<path fill="#D82C26" stroke="none" d="
M 74 23.1
Q 74 23.85 74.3 24.35 74.6 24.95 75.15 25.25 75.7 25.55 76.4 25.55 77.45 25.55 78.2 24.95
L 78.1 24.5
Q 77.75 24.75 77.35 24.9 76.85 25.1 76.4 25.1 75.95 25.1 75.45 24.85 75 24.5 74.8 24.15 74.55 23.65 74.55 23.2
L 78.5 23.2 78.5 22.95
Q 78.5 22.4 78.25 21.8 77.95 21.25 77.5 20.95 77 20.65 76.3 20.65 75.7 20.65 75.15 20.95 74.6 21.25 74.3 21.8 74 22.4 74 23.1
M 74.8 22
Q 75 21.65 75.4 21.35 75.8 21.1 76.3 21.1 77.05 21.1 77.5 21.55 77.95 22 77.95 22.75
L 74.6 22.75
Q 74.6 22.35 74.8 22 Z"/>
</g>

<g id="IT_300x600_FR_psd_Asset_V9_1_Vous_cherchez_____valuer_votre_r_seau__pour_une_meilleure__solu_0_Layer0_0_MEMBER_47_FILL">
<path fill="#D82C26" stroke="none" d="
M 3.65 33.85
L 3 33.5
Q 2.65 33.35 2.15 33.35 1.75 33.35 1.45 33.5 1.1 33.65 0.85 33.95 0.65 34.2 0.65 34.65 0.65 35.15 0.95 35.45 1.6 35.85 1.95 35.95 2.7 36.2 2.9 36.35 3.2 36.6 3.2 36.95 3.2 37.35 2.9 37.55 2.55 37.8 2.2 37.8 1.3 37.8 0.65 37.25
L 0.55 37.75 1.25 38.1
Q 1.7 38.25 2.2 38.25 2.65 38.25 2.95 38.1 3.35 37.95 3.55 37.65 3.8 37.3 3.8 36.9 3.8 36.45 3.45 36.1 3 35.75 2.35 35.55
L 1.45 35.15
Q 1.2 34.95 1.2 34.6 1.2 34.2 1.45 34 1.85 33.8 2.2 33.8 2.55 33.8 2.85 33.95
L 3.4 34.25 3.65 33.85 Z"/>
</g>

<g id="IT_300x600_FR_psd_Asset_V9_1_Vous_cherchez_____valuer_votre_r_seau__pour_une_meilleure__solu_0_Layer0_0_MEMBER_48_FILL">
<path fill="#D82C26" stroke="none" d="
M 4.85 34.55
Q 4.5 35.05 4.5 35.8 4.5 36.55 4.85 37.05 5.15 37.65 5.7 37.95 6.3 38.25 6.95 38.25 7.65 38.25 8.25 37.95 8.8 37.65 9.1 37.05 9.45 36.55 9.45 35.8 9.45 35.05 9.1 34.55 8.8 33.95 8.25 33.65 7.65 33.35 6.95 33.35 6.3 33.35 5.7 33.65 5.15 33.95 4.85 34.55
M 5.3 36.8
Q 5.1 36.4 5.1 35.8 5.1 35.2 5.3 34.8 5.5 34.45 6 34.1 6.4 33.85 6.95 33.85 7.55 33.85 7.95 34.1 8.35 34.4 8.65 34.8 8.85 35.2 8.85 35.8 8.85 36.4 8.65 36.8 8.45 37.25 8 37.5 7.65 37.75 6.95 37.75 6.3 37.75 6 37.5 5.55 37.25 5.3 36.8 Z"/>
</g>

<g id="IT_300x600_FR_psd_Asset_V9_1_Vous_cherchez_____valuer_votre_r_seau__pour_une_meilleure__solu_0_Layer0_0_MEMBER_49_FILL">
<path fill="#D82C26" stroke="none" d="
M 10.75 37.85
L 11.3 38.25 11.55 37.75
Q 11.3 37.6 11.25 37.45 11.15 37.35 11.15 36.95
L 11.15 30.6 10.55 30.7 10.55 37.1
Q 10.55 37.6 10.75 37.85 Z"/>
</g>

<g id="IT_300x600_FR_psd_Asset_V9_1_Vous_cherchez_____valuer_votre_r_seau__pour_une_meilleure__solu_0_Layer0_0_MEMBER_50_FILL">
<path fill="#D82C26" stroke="none" d="
M 12.55 33.5
L 12.55 36.3
Q 12.55 37.25 12.95 37.7 13.35 38.25 14.2 38.25 14.8 38.25 15.25 37.95 15.75 37.6 15.9 37.15
L 16 38.15 16.55 38.15 16.5 37.6 16.5 33.5 15.9 33.5 15.9 35.8
Q 15.9 36.45 15.7 36.85 15.45 37.4 15.15 37.55 14.75 37.8 14.35 37.8 13.7 37.8 13.4 37.3 13.1 36.85 13.1 36.15
L 13.1 33.5 12.55 33.5 Z"/>
</g>

<g id="IT_300x600_FR_psd_Asset_V9_1_Vous_cherchez_____valuer_votre_r_seau__pour_une_meilleure__solu_0_Layer0_0_MEMBER_51_FILL">
<path fill="#D82C26" stroke="none" d="
M 18.15 32.4
L 18.15 33.5 17.4 33.5 17.3 33.95 18.15 33.95 18.15 37
Q 18.15 37.6 18.45 37.9 18.8 38.25 19.2 38.25
L 19.75 38.15 20.2 38 20.15 37.55
Q 19.75 37.75 19.4 37.75 19.1 37.75 18.9 37.55 18.7 37.25 18.7 36.95
L 18.7 33.95 19.9 33.95 20.05 33.5 18.7 33.5 18.7 32.15 18.15 32.4 Z"/>
</g>

<g id="IT_300x600_FR_psd_Asset_V9_1_Vous_cherchez_____valuer_votre_r_seau__pour_une_meilleure__solu_0_Layer0_0_MEMBER_52_FILL">
<path fill="#D82C26" stroke="none" d="
M 21.55 33.5
L 21 33.5 21 38.15 21.55 38.15 21.55 33.5
M 21.55 31.95
L 21.7 31.65
Q 21.7 31.5 21.55 31.35 21.5 31.25 21.25 31.25 21.05 31.25 21 31.35
L 20.85 31.65 21 31.95
Q 21.05 32.05 21.25 32.05 21.5 32.05 21.55 31.95 Z"/>
</g>

<g id="IT_300x600_FR_psd_Asset_V9_1_Vous_cherchez_____valuer_votre_r_seau__pour_une_meilleure__solu_0_Layer0_0_MEMBER_53_FILL">
<path fill="#D82C26" stroke="none" d="
M 25.1 33.35
Q 24.45 33.35 23.85 33.65 23.3 33.95 23 34.55 22.65 35.05 22.65 35.8 22.65 36.55 23 37.05 23.3 37.65 23.85 37.95 24.45 38.25 25.1 38.25 25.8 38.25 26.4 37.95 26.95 37.65 27.25 37.05 27.6 36.55 27.6 35.8 27.6 35.05 27.25 34.55 26.95 33.95 26.4 33.65 25.8 33.35 25.1 33.35
M 24.15 34.1
Q 24.55 33.85 25.1 33.85 25.7 33.85 26.1 34.1 26.5 34.4 26.8 34.8 27 35.2 27 35.8 27 36.4 26.8 36.8 26.6 37.25 26.15 37.5 25.8 37.75 25.1 37.75 24.45 37.75 24.15 37.5 23.7 37.25 23.45 36.8 23.25 36.4 23.25 35.8 23.25 35.2 23.45 34.8 23.65 34.45 24.15 34.1 Z"/>
</g>

<g id="IT_300x600_FR_psd_Asset_V9_1_Vous_cherchez_____valuer_votre_r_seau__pour_une_meilleure__solu_0_Layer0_0_MEMBER_54_FILL">
<path fill="#D82C26" stroke="none" d="
M 32.25 33.9
Q 31.8 33.35 30.95 33.35 30.4 33.35 29.95 33.65 29.4 34.1 29.3 34.5
L 29.25 34.5 29.2 33.5 28.65 33.5 28.7 38.15 29.3 38.15 29.3 35.75
Q 29.3 35.15 29.5 34.75 29.7 34.3 30.05 34.05 30.4 33.85 30.85 33.85 31.5 33.85 31.8 34.3 32.1 34.75 32.1 35.45
L 32.1 38.15 32.65 38.15 32.65 35.3
Q 32.65 34.45 32.25 33.9 Z"/>
</g>

<g id="IT_300x600_FR_psd_Asset_V9_1_Vous_cherchez_____valuer_votre_r_seau__pour_une_meilleure__solu_0_Layer0_0_MEMBER_55_FILL">
<path fill="#D82C26" stroke="none" d="
M 40.6 38.15
L 40.55 30.55 40 30.65 40 34.5 39.95 34.5
Q 39.75 34 39.2 33.65 38.7 33.35 38.1 33.35 37.4 33.35 36.9 33.7 36.4 33.95 36.05 34.55 35.75 35.15 35.75 35.8 35.75 36.55 36.05 37.05 36.3 37.6 36.9 37.95 37.45 38.25 38.1 38.25 38.7 38.25 39.2 37.95 39.75 37.65 40 37.1
L 40.05 38.15 40.6 38.15
M 36.55 34.85
Q 36.75 34.45 37.2 34.1 37.7 33.85 38.15 33.85 38.7 33.85 39.1 34.1 39.5 34.4 39.75 34.85 40 35.35 40 35.8 40 36.3 39.75 36.8 39.5 37.3 39.1 37.5 38.8 37.75 38.15 37.75 37.6 37.75 37.2 37.5 36.75 37.25 36.55 36.8 36.35 36.4 36.35 35.8 36.35 35.25 36.55 34.85 Z"/>
</g>

<g id="IT_300x600_FR_psd_Asset_V9_1_Vous_cherchez_____valuer_votre_r_seau__pour_une_meilleure__solu_0_Layer0_0_MEMBER_56_FILL">
<path fill="#D82C26" stroke="none" d="
M 45.15 33.65
Q 44.65 33.35 43.95 33.35 43.35 33.35 42.8 33.65 42.35 33.9 41.95 34.55 41.65 35.1 41.65 35.8 41.65 36.45 42 37.05 42.3 37.65 42.8 37.95 43.4 38.25 44.05 38.25 45.1 38.25 45.9 37.7
L 45.8 37.2
Q 45.45 37.45 45.05 37.6 44.65 37.8 44.1 37.8 43.55 37.8 43.15 37.55 42.7 37.25 42.5 36.85 42.25 36.35 42.25 35.9
L 46.15 35.9 46.15 35.65
Q 46.15 34.95 45.9 34.5 45.65 33.95 45.15 33.65
M 42.25 35.45
Q 42.25 35.2 42.45 34.7 42.65 34.35 43.05 34.05 43.45 33.8 43.95 33.8 44.7 33.8 45.15 34.25 45.6 34.7 45.6 35.45
L 42.25 35.45 Z"/>
</g>

<g id="IT_300x600_FR_psd_Asset_V9_1_Vous_cherchez_____valuer_votre_r_seau__pour_une_meilleure__solu_0_Layer0_0_MEMBER_57_FILL">
<path fill="#D82C26" stroke="none" d="
M 53.8 33.5
L 53.25 33.5 53.2 34.5 53.15 34.5
Q 52.95 34 52.4 33.65 51.9 33.35 51.3 33.35 50.6 33.35 50.1 33.7 49.6 33.95 49.25 34.55 48.95 35.15 48.95 35.8 48.95 36.45 49.25 37.05 49.6 37.65 50.05 37.9 50.6 38.2 51.3 38.2 51.9 38.2 52.4 37.9 52.95 37.6 53.15 37.1
L 53.2 37.1 53.2 38.05
Q 53.2 39.05 52.7 39.55 52.25 40.05 51.25 40.05
L 50.25 39.9 49.35 39.45 49.25 40 50.2 40.4 51.3 40.55
Q 52.55 40.55 53.15 39.9 53.75 39.15 53.75 38.05
L 53.8 33.5
M 52.3 34.1
Q 52.75 34.4 52.95 34.8 53.2 35.3 53.2 35.8 53.2 36.35 52.95 36.75 52.7 37.25 52.3 37.5 51.8 37.75 51.35 37.75 50.85 37.75 50.4 37.45 50 37.25 49.75 36.75 49.55 36.35 49.55 35.8 49.55 35.2 49.75 34.85 50 34.4 50.4 34.1 50.9 33.85 51.35 33.85 51.8 33.85 52.3 34.1 Z"/>
</g>

<g id="IT_300x600_FR_psd_Asset_V9_1_Vous_cherchez_____valuer_votre_r_seau__pour_une_meilleure__solu_0_Layer0_0_MEMBER_58_FILL">
<path fill="#D82C26" stroke="none" d="
M 54.85 35.8
Q 54.85 36.55 55.15 37.05 55.45 37.65 56 37.95 56.55 38.25 57.25 38.25 58.25 38.25 59.05 37.7
L 59 37.2 58.2 37.6
Q 57.85 37.8 57.3 37.8 56.8 37.8 56.3 37.55 55.8 37.15 55.65 36.85 55.4 36.35 55.4 35.9
L 59.35 35.9 59.35 35.65
Q 59.35 35.1 59.1 34.5 58.8 33.95 58.35 33.65 57.85 33.35 57.15 33.35 56.55 33.35 56 33.65 55.45 33.95 55.15 34.55 54.85 35.1 54.85 35.8
M 55.45 35.45
Q 55.45 35.05 55.65 34.7 55.85 34.35 56.25 34.05 56.65 33.8 57.15 33.8 57.9 33.8 58.35 34.25 58.8 34.7 58.8 35.45
L 55.45 35.45 Z"/>
</g>

<g id="IT_300x600_FR_psd_Asset_V9_1_Vous_cherchez_____valuer_votre_r_seau__pour_une_meilleure__solu_0_Layer0_0_MEMBER_59_FILL">
<path fill="#D82C26" stroke="none" d="
M 60.2 37.25
L 60.1 37.75
Q 60.3 37.95 60.8 38.1 61.25 38.25 61.75 38.25
L 62.5 38.1
Q 62.9 37.95 63.1 37.65 63.3 37.4 63.3 36.9 63.3 36.4 62.95 36.1 62.6 35.75 61.9 35.55
L 60.95 35.15
Q 60.7 34.9 60.7 34.6 60.7 34.25 61 34 61.4 33.8 61.7 33.8
L 62.4 33.95 62.95 34.25 63.15 33.85
Q 62.95 33.65 62.55 33.5 62.1 33.35 61.7 33.35
L 60.95 33.5
Q 60.6 33.65 60.4 33.95 60.15 34.3 60.15 34.65 60.15 35.1 60.5 35.45 60.9 35.75 61.5 35.95 62.25 36.2 62.45 36.35 62.75 36.6 62.75 36.95 62.75 37.35 62.45 37.55 62.1 37.8 61.7 37.8 60.85 37.8 60.2 37.25 Z"/>
</g>

<g id="IT_300x600_FR_psd_Asset_V9_1_Vous_cherchez_____valuer_votre_r_seau__pour_une_meilleure__solu_0_Layer0_0_MEMBER_60_FILL">
<path fill="#D82C26" stroke="none" d="
M 64.65 33.95
L 64.65 37
Q 64.65 37.6 64.95 37.9 65.3 38.25 65.75 38.25
L 66.75 38 66.65 37.55
Q 66.3 37.75 65.9 37.75 65.6 37.75 65.45 37.55 65.25 37.35 65.25 36.95
L 65.25 33.95 66.45 33.95 66.55 33.5 65.25 33.5 65.25 32.15 64.65 32.4 64.65 33.5 63.9 33.5 63.8 33.95 64.65 33.95 Z"/>
</g>

<g id="IT_300x600_FR_psd_Asset_V9_1_Vous_cherchez_____valuer_votre_r_seau__pour_une_meilleure__solu_0_Layer0_0_MEMBER_61_FILL">
<path fill="#D82C26" stroke="none" d="
M 68.1 33.5
L 67.5 33.5 67.5 38.15 68.1 38.15 68.1 33.5
M 67.8 32.05
Q 68 32.05 68.1 31.95 68.2 31.85 68.2 31.65 68.2 31.45 68.1 31.35 68 31.25 67.8 31.25 67.6 31.25 67.5 31.35
L 67.4 31.65 67.5 31.95
Q 67.6 32.05 67.8 32.05 Z"/>
</g>

<g id="IT_300x600_FR_psd_Asset_V9_1_Vous_cherchez_____valuer_votre_r_seau__pour_une_meilleure__solu_0_Layer0_0_MEMBER_62_FILL">
<path fill="#D82C26" stroke="none" d="
M 72.9 33.65
Q 72.4 33.35 71.65 33.35 70.95 33.35 70.4 33.65 69.9 33.9 69.5 34.55 69.2 35.1 69.2 35.8 69.2 36.55 69.5 37.05 69.9 37.7 70.4 37.95 70.95 38.25 71.65 38.25 72.4 38.25 72.9 37.95 73.5 37.65 73.8 37.05 74.1 36.55 74.1 35.8 74.1 35.1 73.8 34.55 73.5 33.95 72.9 33.65
M 73.55 35.8
Q 73.55 36.3 73.3 36.8 73.05 37.3 72.65 37.5 72.3 37.75 71.65 37.75 71.05 37.75 70.65 37.5 70.25 37.3 70 36.8 69.8 36.4 69.8 35.8 69.8 35.2 70 34.8 70.2 34.4 70.65 34.1 71.15 33.85 71.65 33.85 72.15 33.85 72.65 34.1 73.1 34.4 73.3 34.8 73.55 35.3 73.55 35.8 Z"/>
</g>

<g id="IT_300x600_FR_psd_Asset_V9_1_Vous_cherchez_____valuer_votre_r_seau__pour_une_meilleure__solu_0_Layer0_0_MEMBER_63_FILL">
<path fill="#D82C26" stroke="none" d="
M 75.75 33.5
L 75.2 33.5 75.25 38.15 75.8 38.15 75.8 35.75
Q 75.8 35.35 76 34.75 76.2 34.4 76.6 34.05 76.85 33.85 77.35 33.85 78.05 33.85 78.35 34.3 78.6 34.8 78.6 35.45
L 78.6 38.15 79.2 38.15 79.2 35.3
Q 79.2 34.55 78.8 33.9 78.35 33.35 77.5 33.35 76.9 33.35 76.45 33.65 76 34 75.8 34.5
L 75.75 33.5 Z"/>
</g>

<g id="IT_300x600_FR_psd_Asset_V9_1_Vous_cherchez_____valuer_votre_r_seau__pour_une_meilleure__solu_0_Layer0_0_MEMBER_64_FILL">
<path fill="#D82C26" stroke="none" d="
M 83.15 31.75
Q 82.8 31.35 82.45 31.15 81.85 30.95 81.5 30.95 80.9 30.95 80.3 31.2 79.75 31.45 79.5 31.8
L 79.75 32.25
Q 80.1 31.9 80.5 31.7 80.85 31.5 81.45 31.5 82.05 31.5 82.4 31.8 82.8 32.1 82.8 32.65
L 82.7 33.25 81.9 34.2
Q 81.45 34.65 81.3 35 81.15 35.4 81.15 35.8
L 81.15 36.1 81.7 36.1 81.7 35.9 81.75 35.35 81.95 34.9 82.95 33.85
Q 83.2 33.6 83.25 33.35 83.4 33.05 83.4 32.65 83.4 32.15 83.15 31.75
M 81.15 38.05
L 81.45 38.2 81.75 38.05 81.9 37.75
Q 81.9 37.55 81.75 37.45
L 81.45 37.3
Q 81.25 37.3 81.15 37.45 81 37.55 81 37.75
L 81.15 38.05 Z"/>
</g>
</defs>

<g transform="matrix( 1, 0, 0, 1, -102,3) ">
<g transform="matrix( 1, 0, 0, 1, 97,26) ">
<g transform="matrix( 1, 0, 0, 1, 33,4) ">
<g transform="matrix( 2.815704345703125, 0, 0, 2.832611083984375, 0.15,21.6) ">
<use xlink:href="#IT_300x600_FR_psd_Asset_V9_1_Vous_cherchez_____valuer_votre_r_seau__pour_une_meilleure__solu_0_Layer0_0_MEMBER_0_FILL"/>
</g>

<g transform="matrix( 2.815704345703125, 0, 0, 2.832611083984375, 0.15,21.6) ">
<use xlink:href="#IT_300x600_FR_psd_Asset_V9_1_Vous_cherchez_____valuer_votre_r_seau__pour_une_meilleure__solu_0_Layer0_0_MEMBER_1_FILL"/>
</g>

<g transform="matrix( 2.815704345703125, 0, 0, 2.832611083984375, 0.15,21.6) ">
<use xlink:href="#IT_300x600_FR_psd_Asset_V9_1_Vous_cherchez_____valuer_votre_r_seau__pour_une_meilleure__solu_0_Layer0_0_MEMBER_2_FILL"/>
</g>

<g transform="matrix( 2.815704345703125, 0, 0, 2.832611083984375, 0.15,21.6) ">
<use xlink:href="#IT_300x600_FR_psd_Asset_V9_1_Vous_cherchez_____valuer_votre_r_seau__pour_une_meilleure__solu_0_Layer0_0_MEMBER_3_FILL"/>
</g>

<g transform="matrix( 2.815704345703125, 0, 0, 2.832611083984375, 0.15,21.6) ">
<use xlink:href="#IT_300x600_FR_psd_Asset_V9_1_Vous_cherchez_____valuer_votre_r_seau__pour_une_meilleure__solu_0_Layer0_0_MEMBER_4_FILL"/>
</g>

<g transform="matrix( 2.815704345703125, 0, 0, 2.832611083984375, 0.15,21.6) ">
<use xlink:href="#IT_300x600_FR_psd_Asset_V9_1_Vous_cherchez_____valuer_votre_r_seau__pour_une_meilleure__solu_0_Layer0_0_MEMBER_5_FILL"/>
</g>

<g transform="matrix( 2.815704345703125, 0, 0, 2.832611083984375, 0.15,21.6) ">
<use xlink:href="#IT_300x600_FR_psd_Asset_V9_1_Vous_cherchez_____valuer_votre_r_seau__pour_une_meilleure__solu_0_Layer0_0_MEMBER_6_FILL"/>
</g>

<g transform="matrix( 2.815704345703125, 0, 0, 2.832611083984375, 0.15,21.6) ">
<use xlink:href="#IT_300x600_FR_psd_Asset_V9_1_Vous_cherchez_____valuer_votre_r_seau__pour_une_meilleure__solu_0_Layer0_0_MEMBER_7_FILL"/>
</g>

<g transform="matrix( 2.815704345703125, 0, 0, 2.832611083984375, 0.15,21.6) ">
<use xlink:href="#IT_300x600_FR_psd_Asset_V9_1_Vous_cherchez_____valuer_votre_r_seau__pour_une_meilleure__solu_0_Layer0_0_MEMBER_8_FILL"/>
</g>

<g transform="matrix( 2.815704345703125, 0, 0, 2.832611083984375, 0.15,21.6) ">
<use xlink:href="#IT_300x600_FR_psd_Asset_V9_1_Vous_cherchez_____valuer_votre_r_seau__pour_une_meilleure__solu_0_Layer0_0_MEMBER_9_FILL"/>
</g>

<g transform="matrix( 2.815704345703125, 0, 0, 2.832611083984375, 0.15,21.6) ">
<use xlink:href="#IT_300x600_FR_psd_Asset_V9_1_Vous_cherchez_____valuer_votre_r_seau__pour_une_meilleure__solu_0_Layer0_0_MEMBER_10_FILL"/>
</g>

<g transform="matrix( 2.815704345703125, 0, 0, 2.832611083984375, 0.15,21.6) ">
<use xlink:href="#IT_300x600_FR_psd_Asset_V9_1_Vous_cherchez_____valuer_votre_r_seau__pour_une_meilleure__solu_0_Layer0_0_MEMBER_11_FILL"/>
</g>

<g transform="matrix( 2.815704345703125, 0, 0, 2.832611083984375, 0.15,21.6) ">
<use xlink:href="#IT_300x600_FR_psd_Asset_V9_1_Vous_cherchez_____valuer_votre_r_seau__pour_une_meilleure__solu_0_Layer0_0_MEMBER_12_FILL"/>
</g>

<g transform="matrix( 2.815704345703125, 0, 0, 2.832611083984375, 0.15,21.6) ">
<use xlink:href="#IT_300x600_FR_psd_Asset_V9_1_Vous_cherchez_____valuer_votre_r_seau__pour_une_meilleure__solu_0_Layer0_0_MEMBER_13_FILL"/>
</g>

<g transform="matrix( 2.815704345703125, 0, 0, 2.832611083984375, 0.15,21.6) ">
<use xlink:href="#IT_300x600_FR_psd_Asset_V9_1_Vous_cherchez_____valuer_votre_r_seau__pour_une_meilleure__solu_0_Layer0_0_MEMBER_14_FILL"/>
</g>

<g transform="matrix( 2.815704345703125, 0, 0, 2.832611083984375, 0.15,21.6) ">
<use xlink:href="#IT_300x600_FR_psd_Asset_V9_1_Vous_cherchez_____valuer_votre_r_seau__pour_une_meilleure__solu_0_Layer0_0_MEMBER_15_FILL"/>
</g>

<g transform="matrix( 2.815704345703125, 0, 0, 2.832611083984375, 0.15,21.6) ">
<use xlink:href="#IT_300x600_FR_psd_Asset_V9_1_Vous_cherchez_____valuer_votre_r_seau__pour_une_meilleure__solu_0_Layer0_0_MEMBER_16_FILL"/>
</g>

<g transform="matrix( 2.815704345703125, 0, 0, 2.832611083984375, 0.15,21.6) ">
<use xlink:href="#IT_300x600_FR_psd_Asset_V9_1_Vous_cherchez_____valuer_votre_r_seau__pour_une_meilleure__solu_0_Layer0_0_MEMBER_17_FILL"/>
</g>

<g transform="matrix( 2.815704345703125, 0, 0, 2.832611083984375, 0.15,21.6) ">
<use xlink:href="#IT_300x600_FR_psd_Asset_V9_1_Vous_cherchez_____valuer_votre_r_seau__pour_une_meilleure__solu_0_Layer0_0_MEMBER_18_FILL"/>
</g>

<g transform="matrix( 2.815704345703125, 0, 0, 2.832611083984375, 0.15,21.6) ">
<use xlink:href="#IT_300x600_FR_psd_Asset_V9_1_Vous_cherchez_____valuer_votre_r_seau__pour_une_meilleure__solu_0_Layer0_0_MEMBER_19_FILL"/>
</g>

<g transform="matrix( 2.815704345703125, 0, 0, 2.832611083984375, 0.15,21.6) ">
<use xlink:href="#IT_300x600_FR_psd_Asset_V9_1_Vous_cherchez_____valuer_votre_r_seau__pour_une_meilleure__solu_0_Layer0_0_MEMBER_20_FILL"/>
</g>

<g transform="matrix( 2.815704345703125, 0, 0, 2.832611083984375, 0.15,21.6) ">
<use xlink:href="#IT_300x600_FR_psd_Asset_V9_1_Vous_cherchez_____valuer_votre_r_seau__pour_une_meilleure__solu_0_Layer0_0_MEMBER_21_FILL"/>
</g>

<g transform="matrix( 2.815704345703125, 0, 0, 2.832611083984375, 0.15,21.6) ">
<use xlink:href="#IT_300x600_FR_psd_Asset_V9_1_Vous_cherchez_____valuer_votre_r_seau__pour_une_meilleure__solu_0_Layer0_0_MEMBER_22_FILL"/>
</g>

<g transform="matrix( 2.815704345703125, 0, 0, 2.832611083984375, 0.15,21.6) ">
<use xlink:href="#IT_300x600_FR_psd_Asset_V9_1_Vous_cherchez_____valuer_votre_r_seau__pour_une_meilleure__solu_0_Layer0_0_MEMBER_23_FILL"/>
</g>

<g transform="matrix( 2.815704345703125, 0, 0, 2.832611083984375, 0.15,21.6) ">
<use xlink:href="#IT_300x600_FR_psd_Asset_V9_1_Vous_cherchez_____valuer_votre_r_seau__pour_une_meilleure__solu_0_Layer0_0_MEMBER_24_FILL"/>
</g>

<g transform="matrix( 2.815704345703125, 0, 0, 2.832611083984375, 0.15,21.6) ">
<use xlink:href="#IT_300x600_FR_psd_Asset_V9_1_Vous_cherchez_____valuer_votre_r_seau__pour_une_meilleure__solu_0_Layer0_0_MEMBER_25_FILL"/>
</g>

<g transform="matrix( 2.815704345703125, 0, 0, 2.832611083984375, 0.15,21.6) ">
<use xlink:href="#IT_300x600_FR_psd_Asset_V9_1_Vous_cherchez_____valuer_votre_r_seau__pour_une_meilleure__solu_0_Layer0_0_MEMBER_26_FILL"/>
</g>

<g transform="matrix( 2.815704345703125, 0, 0, 2.832611083984375, 0.15,21.6) ">
<use xlink:href="#IT_300x600_FR_psd_Asset_V9_1_Vous_cherchez_____valuer_votre_r_seau__pour_une_meilleure__solu_0_Layer0_0_MEMBER_27_FILL"/>
</g>

<g transform="matrix( 2.815704345703125, 0, 0, 2.832611083984375, 0.15,21.6) ">
<use xlink:href="#IT_300x600_FR_psd_Asset_V9_1_Vous_cherchez_____valuer_votre_r_seau__pour_une_meilleure__solu_0_Layer0_0_MEMBER_28_FILL"/>
</g>

<g transform="matrix( 2.815704345703125, 0, 0, 2.832611083984375, 0.15,21.6) ">
<use xlink:href="#IT_300x600_FR_psd_Asset_V9_1_Vous_cherchez_____valuer_votre_r_seau__pour_une_meilleure__solu_0_Layer0_0_MEMBER_29_FILL"/>
</g>

<g transform="matrix( 2.815704345703125, 0, 0, 2.832611083984375, 0.15,21.6) ">
<use xlink:href="#IT_300x600_FR_psd_Asset_V9_1_Vous_cherchez_____valuer_votre_r_seau__pour_une_meilleure__solu_0_Layer0_0_MEMBER_30_FILL"/>
</g>

<g transform="matrix( 2.815704345703125, 0, 0, 2.832611083984375, 0.15,21.6) ">
<use xlink:href="#IT_300x600_FR_psd_Asset_V9_1_Vous_cherchez_____valuer_votre_r_seau__pour_une_meilleure__solu_0_Layer0_0_MEMBER_31_FILL"/>
</g>

<g transform="matrix( 2.815704345703125, 0, 0, 2.832611083984375, 0.15,21.6) ">
<use xlink:href="#IT_300x600_FR_psd_Asset_V9_1_Vous_cherchez_____valuer_votre_r_seau__pour_une_meilleure__solu_0_Layer0_0_MEMBER_32_FILL"/>
</g>

<g transform="matrix( 2.815704345703125, 0, 0, 2.832611083984375, 0.15,21.6) ">
<use xlink:href="#IT_300x600_FR_psd_Asset_V9_1_Vous_cherchez_____valuer_votre_r_seau__pour_une_meilleure__solu_0_Layer0_0_MEMBER_33_FILL"/>
</g>

<g transform="matrix( 2.815704345703125, 0, 0, 2.832611083984375, 0.15,21.6) ">
<use xlink:href="#IT_300x600_FR_psd_Asset_V9_1_Vous_cherchez_____valuer_votre_r_seau__pour_une_meilleure__solu_0_Layer0_0_MEMBER_34_FILL"/>
</g>

<g transform="matrix( 2.815704345703125, 0, 0, 2.832611083984375, 0.15,21.6) ">
<use xlink:href="#IT_300x600_FR_psd_Asset_V9_1_Vous_cherchez_____valuer_votre_r_seau__pour_une_meilleure__solu_0_Layer0_0_MEMBER_35_FILL"/>
</g>

<g transform="matrix( 2.815704345703125, 0, 0, 2.832611083984375, 0.15,21.6) ">
<use xlink:href="#IT_300x600_FR_psd_Asset_V9_1_Vous_cherchez_____valuer_votre_r_seau__pour_une_meilleure__solu_0_Layer0_0_MEMBER_36_FILL"/>
</g>

<g transform="matrix( 2.815704345703125, 0, 0, 2.832611083984375, 0.15,21.6) ">
<use xlink:href="#IT_300x600_FR_psd_Asset_V9_1_Vous_cherchez_____valuer_votre_r_seau__pour_une_meilleure__solu_0_Layer0_0_MEMBER_37_FILL"/>
</g>

<g transform="matrix( 2.815704345703125, 0, 0, 2.832611083984375, 0.15,21.6) ">
<use xlink:href="#IT_300x600_FR_psd_Asset_V9_1_Vous_cherchez_____valuer_votre_r_seau__pour_une_meilleure__solu_0_Layer0_0_MEMBER_38_FILL"/>
</g>

<g transform="matrix( 2.815704345703125, 0, 0, 2.832611083984375, 0.15,21.6) ">
<use xlink:href="#IT_300x600_FR_psd_Asset_V9_1_Vous_cherchez_____valuer_votre_r_seau__pour_une_meilleure__solu_0_Layer0_0_MEMBER_39_FILL"/>
</g>

<g transform="matrix( 2.815704345703125, 0, 0, 2.832611083984375, 0.15,21.6) ">
<use xlink:href="#IT_300x600_FR_psd_Asset_V9_1_Vous_cherchez_____valuer_votre_r_seau__pour_une_meilleure__solu_0_Layer0_0_MEMBER_40_FILL"/>
</g>

<g transform="matrix( 2.815704345703125, 0, 0, 2.832611083984375, 0.15,21.6) ">
<use xlink:href="#IT_300x600_FR_psd_Asset_V9_1_Vous_cherchez_____valuer_votre_r_seau__pour_une_meilleure__solu_0_Layer0_0_MEMBER_41_FILL"/>
</g>

<g transform="matrix( 2.815704345703125, 0, 0, 2.832611083984375, 0.15,21.6) ">
<use xlink:href="#IT_300x600_FR_psd_Asset_V9_1_Vous_cherchez_____valuer_votre_r_seau__pour_une_meilleure__solu_0_Layer0_0_MEMBER_42_FILL"/>
</g>

<g transform="matrix( 2.815704345703125, 0, 0, 2.832611083984375, 0.15,21.6) ">
<use xlink:href="#IT_300x600_FR_psd_Asset_V9_1_Vous_cherchez_____valuer_votre_r_seau__pour_une_meilleure__solu_0_Layer0_0_MEMBER_43_FILL"/>
</g>

<g transform="matrix( 2.815704345703125, 0, 0, 2.832611083984375, 0.15,21.6) ">
<use xlink:href="#IT_300x600_FR_psd_Asset_V9_1_Vous_cherchez_____valuer_votre_r_seau__pour_une_meilleure__solu_0_Layer0_0_MEMBER_44_FILL"/>
</g>

<g transform="matrix( 2.815704345703125, 0, 0, 2.832611083984375, 0.15,21.6) ">
<use xlink:href="#IT_300x600_FR_psd_Asset_V9_1_Vous_cherchez_____valuer_votre_r_seau__pour_une_meilleure__solu_0_Layer0_0_MEMBER_45_FILL"/>
</g>

<g transform="matrix( 2.815704345703125, 0, 0, 2.832611083984375, 0.15,21.6) ">
<use xlink:href="#IT_300x600_FR_psd_Asset_V9_1_Vous_cherchez_____valuer_votre_r_seau__pour_une_meilleure__solu_0_Layer0_0_MEMBER_46_FILL"/>
</g>

<g transform="matrix( 2.815704345703125, 0, 0, 2.832611083984375, 0.15,21.6) ">
<use xlink:href="#IT_300x600_FR_psd_Asset_V9_1_Vous_cherchez_____valuer_votre_r_seau__pour_une_meilleure__solu_0_Layer0_0_MEMBER_47_FILL"/>
</g>

<g transform="matrix( 2.815704345703125, 0, 0, 2.832611083984375, 0.15,21.6) ">
<use xlink:href="#IT_300x600_FR_psd_Asset_V9_1_Vous_cherchez_____valuer_votre_r_seau__pour_une_meilleure__solu_0_Layer0_0_MEMBER_48_FILL"/>
</g>

<g transform="matrix( 2.815704345703125, 0, 0, 2.832611083984375, 0.15,21.6) ">
<use xlink:href="#IT_300x600_FR_psd_Asset_V9_1_Vous_cherchez_____valuer_votre_r_seau__pour_une_meilleure__solu_0_Layer0_0_MEMBER_49_FILL"/>
</g>

<g transform="matrix( 2.815704345703125, 0, 0, 2.832611083984375, 0.15,21.6) ">
<use xlink:href="#IT_300x600_FR_psd_Asset_V9_1_Vous_cherchez_____valuer_votre_r_seau__pour_une_meilleure__solu_0_Layer0_0_MEMBER_50_FILL"/>
</g>

<g transform="matrix( 2.815704345703125, 0, 0, 2.832611083984375, 0.15,21.6) ">
<use xlink:href="#IT_300x600_FR_psd_Asset_V9_1_Vous_cherchez_____valuer_votre_r_seau__pour_une_meilleure__solu_0_Layer0_0_MEMBER_51_FILL"/>
</g>

<g transform="matrix( 2.815704345703125, 0, 0, 2.832611083984375, 0.15,21.6) ">
<use xlink:href="#IT_300x600_FR_psd_Asset_V9_1_Vous_cherchez_____valuer_votre_r_seau__pour_une_meilleure__solu_0_Layer0_0_MEMBER_52_FILL"/>
</g>

<g transform="matrix( 2.815704345703125, 0, 0, 2.832611083984375, 0.15,21.6) ">
<use xlink:href="#IT_300x600_FR_psd_Asset_V9_1_Vous_cherchez_____valuer_votre_r_seau__pour_une_meilleure__solu_0_Layer0_0_MEMBER_53_FILL"/>
</g>

<g transform="matrix( 2.815704345703125, 0, 0, 2.832611083984375, 0.15,21.6) ">
<use xlink:href="#IT_300x600_FR_psd_Asset_V9_1_Vous_cherchez_____valuer_votre_r_seau__pour_une_meilleure__solu_0_Layer0_0_MEMBER_54_FILL"/>
</g>

<g transform="matrix( 2.815704345703125, 0, 0, 2.832611083984375, 0.15,21.6) ">
<use xlink:href="#IT_300x600_FR_psd_Asset_V9_1_Vous_cherchez_____valuer_votre_r_seau__pour_une_meilleure__solu_0_Layer0_0_MEMBER_55_FILL"/>
</g>

<g transform="matrix( 2.815704345703125, 0, 0, 2.832611083984375, 0.15,21.6) ">
<use xlink:href="#IT_300x600_FR_psd_Asset_V9_1_Vous_cherchez_____valuer_votre_r_seau__pour_une_meilleure__solu_0_Layer0_0_MEMBER_56_FILL"/>
</g>

<g transform="matrix( 2.815704345703125, 0, 0, 2.832611083984375, 0.15,21.6) ">
<use xlink:href="#IT_300x600_FR_psd_Asset_V9_1_Vous_cherchez_____valuer_votre_r_seau__pour_une_meilleure__solu_0_Layer0_0_MEMBER_57_FILL"/>
</g>

<g transform="matrix( 2.815704345703125, 0, 0, 2.832611083984375, 0.15,21.6) ">
<use xlink:href="#IT_300x600_FR_psd_Asset_V9_1_Vous_cherchez_____valuer_votre_r_seau__pour_une_meilleure__solu_0_Layer0_0_MEMBER_58_FILL"/>
</g>

<g transform="matrix( 2.815704345703125, 0, 0, 2.832611083984375, 0.15,21.6) ">
<use xlink:href="#IT_300x600_FR_psd_Asset_V9_1_Vous_cherchez_____valuer_votre_r_seau__pour_une_meilleure__solu_0_Layer0_0_MEMBER_59_FILL"/>
</g>

<g transform="matrix( 2.815704345703125, 0, 0, 2.832611083984375, 0.15,21.6) ">
<use xlink:href="#IT_300x600_FR_psd_Asset_V9_1_Vous_cherchez_____valuer_votre_r_seau__pour_une_meilleure__solu_0_Layer0_0_MEMBER_60_FILL"/>
</g>

<g transform="matrix( 2.815704345703125, 0, 0, 2.832611083984375, 0.15,21.6) ">
<use xlink:href="#IT_300x600_FR_psd_Asset_V9_1_Vous_cherchez_____valuer_votre_r_seau__pour_une_meilleure__solu_0_Layer0_0_MEMBER_61_FILL"/>
</g>

<g transform="matrix( 2.815704345703125, 0, 0, 2.832611083984375, 0.15,21.6) ">
<use xlink:href="#IT_300x600_FR_psd_Asset_V9_1_Vous_cherchez_____valuer_votre_r_seau__pour_une_meilleure__solu_0_Layer0_0_MEMBER_62_FILL"/>
</g>

<g transform="matrix( 2.815704345703125, 0, 0, 2.832611083984375, 0.15,21.6) ">
<use xlink:href="#IT_300x600_FR_psd_Asset_V9_1_Vous_cherchez_____valuer_votre_r_seau__pour_une_meilleure__solu_0_Layer0_0_MEMBER_63_FILL"/>
</g>

<g transform="matrix( 2.815704345703125, 0, 0, 2.832611083984375, 0.15,21.6) ">
<use xlink:href="#IT_300x600_FR_psd_Asset_V9_1_Vous_cherchez_____valuer_votre_r_seau__pour_une_meilleure__solu_0_Layer0_0_MEMBER_64_FILL"/>
</g>
</g>
</g>
</g>
</svg>
