
<svg xmlns="http://www.w3.org/2000/svg" version="1.1" xmlns:xlink="http://www.w3.org/1999/xlink" preserveAspectRatio="none" x="0px" y="0px" width="728px" height="90px" viewBox="0 0 728 90">
<defs>
<g id="BDM_728x90_psd_Asset_1_ManagedWiFi_Awareness_DM8_2_Harness_the_power_of_Wi_Fi_to_push__out_location_based_promotio_0_Layer0_0_MEMBER_0_FILL">
<path fill="#D82C26" stroke="none" d="
M 1.5 -6.6
L 0.9 -6.6 0.9 0 1.5 0 1.5 -3.2 5.6 -3.2 5.6 0 6.15 0 6.15 -6.6 5.6 -6.6 5.6 -3.7 1.5 -3.7 1.5 -6.6 Z"/>
</g>

<g id="BDM_728x90_psd_Asset_1_ManagedWiFi_Awareness_DM8_2_Harness_the_power_of_Wi_Fi_to_push__out_location_based_promotio_0_Layer0_0_MEMBER_1_FILL">
<path fill="#D82C26" stroke="none" d="
M 8.65 -3.9
Q 9.05 -4.1 9.4 -4.1 10 -4.1 10.3 -3.75 10.65 -3.45 10.65 -2.9
L 10.65 -2.65 10.1 -2.65
Q 7.6 -2.65 7.6 -1.2 7.6 -0.5 8.05 -0.2 8.45 0.1 9 0.1 9.65 0.1 10 -0.15 10.4 -0.35 10.65 -0.85
L 10.75 0 11.25 0 11.15 -0.95 11.15 -2.85
Q 11.15 -3.6 10.75 -4.1 10.35 -4.5 9.5 -4.5 9.05 -4.5 8.6 -4.35 8.2 -4.3 7.85 -3.95
L 8 -3.55 8.65 -3.9
M 9.95 -0.5
Q 9.7 -0.3 9.1 -0.3 8.65 -0.3 8.4 -0.5 8.15 -0.75 8.15 -1.2 8.15 -2.25 10.2 -2.25
L 10.65 -2.25 10.65 -1.8 10.5 -1.1
Q 10.25 -0.7 9.95 -0.5 Z"/>
</g>

<g id="BDM_728x90_psd_Asset_1_ManagedWiFi_Awareness_DM8_2_Harness_the_power_of_Wi_Fi_to_push__out_location_based_promotio_0_Layer0_0_MEMBER_2_FILL">
<path fill="#D82C26" stroke="none" d="
M 13.85 -4.2
Q 13.55 -4 13.35 -3.45
L 13.3 -3.45 13.25 -4.4 12.75 -4.4 12.8 0 13.35 0 13.35 -2.2
Q 13.35 -2.95 13.65 -3.5 14 -4 14.55 -4
L 14.95 -3.95 15.1 -4.45 14.6 -4.5
Q 14.25 -4.5 13.85 -4.2 Z"/>
</g>

<g id="BDM_728x90_psd_Asset_1_ManagedWiFi_Awareness_DM8_2_Harness_the_power_of_Wi_Fi_to_push__out_location_based_promotio_0_Layer0_0_MEMBER_3_FILL">
<path fill="#D82C26" stroke="none" d="
M 19.45 -4
Q 19.1 -4.5 18.2 -4.5 17.7 -4.5 17.25 -4.2 16.8 -3.9 16.65 -3.45
L 16.6 -3.45 16.6 -4.4 16.05 -4.4 16.1 0 16.65 0 16.65 -2.25
Q 16.65 -2.85 16.85 -3.2 16.95 -3.55 17.35 -3.85 17.7 -4.05 18.1 -4.05 18.75 -4.05 19.05 -3.6 19.3 -3.2 19.3 -2.55
L 19.3 0 19.85 0 19.85 -2.7
Q 19.85 -3.45 19.45 -4 Z"/>
</g>

<g id="BDM_728x90_psd_Asset_1_ManagedWiFi_Awareness_DM8_2_Harness_the_power_of_Wi_Fi_to_push__out_location_based_promotio_0_Layer0_0_MEMBER_4_FILL">
<path fill="#D82C26" stroke="none" d="
M 25.2 -3.45
Q 24.95 -3.95 24.5 -4.25 23.9 -4.5 23.35 -4.5 22.8 -4.5 22.25 -4.2 21.8 -4 21.45 -3.4 21.2 -2.8 21.2 -2.2 21.2 -1.6 21.45 -1 21.75 -0.5 22.25 -0.15 22.8 0.15 23.45 0.15 24.45 0.15 25.15 -0.4
L 25.1 -0.9
Q 24.75 -0.65 24.35 -0.5 24 -0.3 23.45 -0.3 23.05 -0.3 22.55 -0.55 22.2 -0.75 21.95 -1.2 21.7 -1.7 21.7 -2.1
L 25.45 -2.1 25.45 -2.35
Q 25.45 -2.85 25.2 -3.45
M 23.35 -4.1
Q 24.1 -4.1 24.45 -3.65 24.9 -3.2 24.9 -2.5
L 21.7 -2.5
Q 21.8 -3 21.95 -3.25 22.1 -3.5 22.5 -3.85 22.9 -4.1 23.35 -4.1 Z"/>
</g>

<g id="BDM_728x90_psd_Asset_1_ManagedWiFi_Awareness_DM8_2_Harness_the_power_of_Wi_Fi_to_push__out_location_based_promotio_0_Layer0_0_MEMBER_5_FILL">
<path fill="#D82C26" stroke="none" d="
M 28.75 -4.4
L 27.95 -4.5 27.25 -4.4
Q 26.9 -4.2 26.75 -3.95 26.5 -3.7 26.5 -3.3 26.5 -2.85 26.85 -2.55 27.15 -2.25 27.75 -2.1 28.4 -1.9 28.7 -1.65 28.95 -1.5 28.95 -1.15 28.95 -0.8 28.7 -0.55 28.35 -0.3 28 -0.3 27.2 -0.3 26.55 -0.85
L 26.45 -0.35
Q 26.6 -0.2 27.1 0 27.4 0.1 28 0.1
L 28.75 0
Q 29.1 -0.15 29.3 -0.45 29.5 -0.85 29.5 -1.15 29.5 -1.65 29.15 -1.95 28.75 -2.25 28.15 -2.45 27.45 -2.7 27.3 -2.85 27.05 -2.95 27.05 -3.35 27.05 -3.7 27.3 -3.9 27.7 -4.1 28 -4.1 28.3 -4.1 28.6 -3.95 28.75 -3.9 29.15 -3.65
L 29.35 -4.05
Q 29.15 -4.25 28.75 -4.4 Z"/>
</g>

<g id="BDM_728x90_psd_Asset_1_ManagedWiFi_Awareness_DM8_2_Harness_the_power_of_Wi_Fi_to_push__out_location_based_promotio_0_Layer0_0_MEMBER_6_FILL">
<path fill="#D82C26" stroke="none" d="
M 33.2 -3.65
L 33.4 -4.05
Q 33.2 -4.25 32.8 -4.4
L 32 -4.5 31.35 -4.4
Q 30.95 -4.25 30.8 -3.95 30.55 -3.7 30.55 -3.3 30.55 -2.9 30.9 -2.55 31.2 -2.25 31.8 -2.1 32.45 -1.9 32.75 -1.65 33 -1.5 33 -1.15 33 -0.75 32.75 -0.55 32.4 -0.3 32.05 -0.3 31.25 -0.3 30.6 -0.85
L 30.5 -0.35
Q 30.65 -0.2 31.15 0 31.45 0.1 32.05 0.1
L 32.8 0
Q 33.15 -0.15 33.35 -0.45 33.55 -0.7 33.55 -1.15 33.55 -1.65 33.2 -1.95 32.8 -2.25 32.2 -2.45 31.5 -2.7 31.35 -2.85 31.1 -2.95 31.1 -3.35 31.1 -3.65 31.35 -3.9 31.75 -4.1 32.05 -4.1 32.35 -4.1 32.65 -3.95 32.8 -3.9 33.2 -3.65 Z"/>
</g>

<g id="BDM_728x90_psd_Asset_1_ManagedWiFi_Awareness_DM8_2_Harness_the_power_of_Wi_Fi_to_push__out_location_based_promotio_0_Layer0_0_MEMBER_7_FILL">
<path fill="#D82C26" stroke="none" d="
M 38.8 -3.95
L 38.9 -4.4 37.65 -4.4 37.65 -5.65 37.1 -5.45 37.1 -4.4 36.4 -4.4 36.3 -3.95 37.1 -3.95 37.1 -1.05
Q 37.1 -0.5 37.4 -0.2 37.65 0.1 38.1 0.1
L 38.6 0.05
Q 38.95 -0.05 39.05 -0.15
L 39 -0.55
Q 38.6 -0.35 38.3 -0.35 38 -0.35 37.8 -0.55 37.65 -0.7 37.65 -1.15
L 37.65 -3.95 38.8 -3.95 Z"/>
</g>

<g id="BDM_728x90_psd_Asset_1_ManagedWiFi_Awareness_DM8_2_Harness_the_power_of_Wi_Fi_to_push__out_location_based_promotio_0_Layer0_0_MEMBER_8_FILL">
<path fill="#D82C26" stroke="none" d="
M 41.3 -4.2
Q 40.9 -4 40.65 -3.45
L 40.65 -7.15 40.1 -7.05 40.1 0 40.65 0 40.65 -2.15
Q 40.65 -2.8 40.85 -3.15 41 -3.6 41.35 -3.85 41.7 -4.05 42.1 -4.05 42.75 -4.05 43.05 -3.6 43.3 -3.2 43.3 -2.55
L 43.3 0 43.85 0 43.85 -2.7
Q 43.85 -3.45 43.45 -4 43.1 -4.5 42.25 -4.5 41.7 -4.5 41.3 -4.2 Z"/>
</g>

<g id="BDM_728x90_psd_Asset_1_ManagedWiFi_Awareness_DM8_2_Harness_the_power_of_Wi_Fi_to_push__out_location_based_promotio_0_Layer0_0_MEMBER_9_FILL">
<path fill="#D82C26" stroke="none" d="
M 45.2 -2.2
Q 45.2 -1.45 45.45 -1 45.75 -0.5 46.25 -0.15 46.8 0.15 47.4 0.15 48.45 0.15 49.15 -0.4
L 49.1 -0.9
Q 48.75 -0.65 48.35 -0.5 48 -0.3 47.45 -0.3 47.05 -0.3 46.55 -0.55 46.2 -0.75 45.95 -1.2 45.7 -1.7 45.7 -2.1
L 49.4 -2.1 49.45 -2.35
Q 49.45 -2.85 49.2 -3.45 48.95 -3.95 48.5 -4.25 47.9 -4.5 47.35 -4.5 46.7 -4.5 46.25 -4.2 45.8 -4 45.45 -3.4 45.2 -2.95 45.2 -2.2
M 46.5 -3.85
Q 46.9 -4.1 47.35 -4.1 48.1 -4.1 48.45 -3.65 48.9 -3.2 48.9 -2.5
L 45.7 -2.5
Q 45.8 -3 45.95 -3.25 46.1 -3.5 46.5 -3.85 Z"/>
</g>

<g id="BDM_728x90_psd_Asset_1_ManagedWiFi_Awareness_DM8_2_Harness_the_power_of_Wi_Fi_to_push__out_location_based_promotio_0_Layer0_0_MEMBER_10_FILL">
<path fill="#D82C26" stroke="none" d="
M 54.25 -4.2
Q 53.8 -3.95 53.55 -3.4
L 53.5 -3.4 53.5 -4.4 52.95 -4.4 52.95 2.25 53.5 2.25 53.5 -0.95 53.55 -0.95
Q 53.75 -0.45 54.3 -0.15 54.7 0.1 55.3 0.1 56 0.1 56.45 -0.2 56.95 -0.5 57.25 -1 57.5 -1.6 57.5 -2.2 57.5 -2.75 57.25 -3.35 56.9 -3.95 56.45 -4.2 56 -4.5 55.3 -4.5 54.8 -4.5 54.25 -4.2
M 54.35 -3.8
Q 54.75 -4.05 55.25 -4.05 55.75 -4.05 56.15 -3.8 56.5 -3.6 56.75 -3.1 56.95 -2.75 56.95 -2.2 56.95 -1.65 56.75 -1.25 56.55 -0.85 56.15 -0.6 55.85 -0.35 55.25 -0.35 54.65 -0.35 54.35 -0.6 54 -0.8 53.75 -1.25 53.5 -1.75 53.5 -2.2 53.5 -2.7 53.75 -3.1 54 -3.6 54.35 -3.8 Z"/>
</g>

<g id="BDM_728x90_psd_Asset_1_ManagedWiFi_Awareness_DM8_2_Harness_the_power_of_Wi_Fi_to_push__out_location_based_promotio_0_Layer0_0_MEMBER_11_FILL">
<path fill="#D82C26" stroke="none" d="
M 58.9 -1
Q 59.25 -0.4 59.75 -0.15 60.3 0.15 60.9 0.15 61.6 0.15 62.1 -0.15 62.65 -0.45 62.95 -1 63.25 -1.5 63.25 -2.2 63.25 -2.85 62.95 -3.4 62.6 -4 62.1 -4.2 61.6 -4.5 60.9 -4.5 60.3 -4.5 59.75 -4.2 59.25 -4 58.9 -3.4 58.6 -2.85 58.6 -2.2 58.6 -1.5 58.9 -1
M 59.35 -3.15
Q 59.65 -3.6 60 -3.8 60.4 -4.05 60.9 -4.05 61.45 -4.05 61.85 -3.8 62.2 -3.6 62.5 -3.15 62.7 -2.75 62.7 -2.2 62.7 -1.65 62.5 -1.25 62.2 -0.8 61.85 -0.6 61.55 -0.35 60.9 -0.35 60.3 -0.35 60 -0.6 59.65 -0.8 59.35 -1.25 59.15 -1.65 59.15 -2.2 59.15 -2.75 59.35 -3.15 Z"/>
</g>

<g id="BDM_728x90_psd_Asset_1_ManagedWiFi_Awareness_DM8_2_Harness_the_power_of_Wi_Fi_to_push__out_location_based_promotio_0_Layer0_0_MEMBER_12_FILL">
<path fill="#D82C26" stroke="none" d="
M 65.65 -0.65
L 65.6 -0.65 64.55 -4.4 63.95 -4.4 65.3 0 65.9 0 67.15 -3.75 68.45 0 69.05 0 70.4 -4.4 69.8 -4.4 68.75 -0.65 68.7 -0.65 67.45 -4.4 66.85 -4.4 65.65 -0.65 Z"/>
</g>

<g id="BDM_728x90_psd_Asset_1_ManagedWiFi_Awareness_DM8_2_Harness_the_power_of_Wi_Fi_to_push__out_location_based_promotio_0_Layer0_0_MEMBER_13_FILL">
<path fill="#D82C26" stroke="none" d="
M 75.1 -3.45
Q 74.85 -3.95 74.4 -4.25 73.9 -4.5 73.3 -4.5 72.65 -4.5 72.2 -4.2 71.75 -4 71.4 -3.4 71.1 -2.85 71.1 -2.2 71.1 -1.5 71.4 -1 71.75 -0.4 72.2 -0.15 72.75 0.15 73.35 0.15 74.3 0.15 75.1 -0.4
L 75 -0.9
Q 74.6 -0.6 74.3 -0.5 73.9 -0.3 73.4 -0.3 72.9 -0.3 72.5 -0.55 72.15 -0.75 71.9 -1.2 71.65 -1.7 71.65 -2.1
L 75.35 -2.1 75.35 -2.35
Q 75.35 -3 75.1 -3.45
M 72.4 -3.85
Q 72.8 -4.1 73.3 -4.1 73.95 -4.1 74.4 -3.65 74.85 -3.2 74.85 -2.5
L 71.65 -2.5
Q 71.65 -2.75 71.85 -3.25
L 72.4 -3.85 Z"/>
</g>

<g id="BDM_728x90_psd_Asset_1_ManagedWiFi_Awareness_DM8_2_Harness_the_power_of_Wi_Fi_to_push__out_location_based_promotio_0_Layer0_0_MEMBER_14_FILL">
<path fill="#D82C26" stroke="none" d="
M 79 -4.45
L 78.55 -4.5
Q 78.1 -4.5 77.8 -4.2 77.45 -3.95 77.25 -3.45
L 77.2 -4.4 76.65 -4.4 76.7 0 77.25 0 77.25 -2.2
Q 77.25 -3 77.6 -3.5 77.9 -4 78.5 -4
L 78.9 -3.95 79 -4.45 Z"/>
</g>

<g id="BDM_728x90_psd_Asset_1_ManagedWiFi_Awareness_DM8_2_Harness_the_power_of_Wi_Fi_to_push__out_location_based_promotio_0_Layer0_0_MEMBER_15_FILL">
<path fill="#D82C26" stroke="none" d="
M 85.25 -4.2
Q 84.65 -4.5 84.05 -4.5 83.4 -4.5 82.85 -4.2 82.35 -4 82 -3.4 81.7 -2.85 81.7 -2.2 81.7 -1.5 82 -1 82.3 -0.45 82.85 -0.15 83.4 0.15 84.05 0.15 84.65 0.15 85.25 -0.15 85.7 -0.4 86.05 -1 86.35 -1.5 86.35 -2.2 86.35 -2.85 86.05 -3.4 85.7 -4 85.25 -4.2
M 84.95 -3.8
Q 85.3 -3.6 85.6 -3.15 85.8 -2.75 85.8 -2.2 85.8 -1.65 85.6 -1.25 85.35 -0.8 85 -0.6 84.65 -0.35 84.05 -0.35 83.4 -0.35 83.1 -0.6 82.75 -0.8 82.45 -1.25 82.25 -1.85 82.25 -2.2 82.25 -2.55 82.45 -3.15 82.75 -3.6 83.1 -3.8 83.5 -4.05 84.05 -4.05 84.55 -4.05 84.95 -3.8 Z"/>
</g>

<g id="BDM_728x90_psd_Asset_1_ManagedWiFi_Awareness_DM8_2_Harness_the_power_of_Wi_Fi_to_push__out_location_based_promotio_0_Layer0_0_MEMBER_16_FILL">
<path fill="#D82C26" stroke="none" d="
M 90.05 -7.1
L 89.25 -7.2
Q 88.55 -7.2 88.25 -6.8 87.85 -6.4 87.85 -5.65
L 87.85 -4.4 87.05 -4.4 86.95 -3.95 87.85 -3.95 87.85 0 88.4 0 88.4 -3.95 89.45 -3.95 89.55 -4.4 88.4 -4.4 88.4 -5.65
Q 88.4 -5.95 88.6 -6.45 88.85 -6.75 89.25 -6.75
L 89.95 -6.65 90.05 -7.1 Z"/>
</g>

<g id="BDM_728x90_psd_Asset_1_ManagedWiFi_Awareness_DM8_2_Harness_the_power_of_Wi_Fi_to_push__out_location_based_promotio_0_Layer0_0_MEMBER_17_FILL">
<path fill="#D82C26" stroke="none" d="
M 100.7 -6.6
L 100.1 -6.6 98.4 -0.75 96.65 -6.6 96 -6.6 94.3 -0.75 94.25 -0.75 92.55 -6.6 91.95 -6.6 93.95 0 94.6 0 96.3 -5.9 96.35 -5.9 98.1 0 98.75 0 100.7 -6.6 Z"/>
</g>

<g id="BDM_728x90_psd_Asset_1_ManagedWiFi_Awareness_DM8_2_Harness_the_power_of_Wi_Fi_to_push__out_location_based_promotio_0_Layer0_0_MEMBER_18_FILL">
<path fill="#D82C26" stroke="none" d="
M 102.4 -4.4
L 101.85 -4.4 101.85 0 102.4 0 102.4 -4.4
M 102.35 -6.4
Q 102.3 -6.55 102.1 -6.55
L 101.8 -6.4 101.7 -6.15 101.8 -5.85
Q 101.9 -5.75 102.1 -5.75 102.3 -5.75 102.35 -5.85 102.5 -6 102.5 -6.15 102.5 -6.3 102.35 -6.4 Z"/>
</g>

<g id="BDM_728x90_psd_Asset_1_ManagedWiFi_Awareness_DM8_2_Harness_the_power_of_Wi_Fi_to_push__out_location_based_promotio_0_Layer0_0_MEMBER_19_FILL">
<path fill="#D82C26" stroke="none" d="
M 103.8 -2.6
L 103.8 -2.15 105.7 -2.15 105.7 -2.6 103.8 -2.6 Z"/>
</g>

<g id="BDM_728x90_psd_Asset_1_ManagedWiFi_Awareness_DM8_2_Harness_the_power_of_Wi_Fi_to_push__out_location_based_promotio_0_Layer0_0_MEMBER_20_FILL">
<path fill="#D82C26" stroke="none" d="
M 110.7 -6.6
L 107.3 -6.6 107.3 0 107.85 0 107.85 -3.15 110.4 -3.15 110.55 -3.65 107.85 -3.65 107.85 -6.1 110.65 -6.1 110.7 -6.6 Z"/>
</g>

<g id="BDM_728x90_psd_Asset_1_ManagedWiFi_Awareness_DM8_2_Harness_the_power_of_Wi_Fi_to_push__out_location_based_promotio_0_Layer0_0_MEMBER_21_FILL">
<path fill="#D82C26" stroke="none" d="
M 112.55 -4.4
L 112 -4.4 112 0 112.55 0 112.55 -4.4
M 112.55 -6.4
L 112.25 -6.55
Q 112.1 -6.55 112 -6.4 111.85 -6.3 111.85 -6.15 111.85 -6 112 -5.85 112.05 -5.75 112.25 -5.75 112.45 -5.75 112.55 -5.85
L 112.65 -6.15 112.55 -6.4 Z"/>
</g>

<g id="BDM_728x90_psd_Asset_1_ManagedWiFi_Awareness_DM8_2_Harness_the_power_of_Wi_Fi_to_push__out_location_based_promotio_0_Layer0_0_MEMBER_22_FILL">
<path fill="#D82C26" stroke="none" d="
M 115.75 -4.4
L 115.65 -3.95 116.5 -3.95 116.5 -1.05
Q 116.5 -0.55 116.75 -0.2 117.05 0.1 117.5 0.1
L 118 0.05 118.45 -0.15 118.35 -0.55
Q 118 -0.35 117.65 -0.35 117.35 -0.35 117.2 -0.55 117.05 -0.7 117.05 -1.15
L 117.05 -3.95 118.15 -3.95 118.25 -4.4 117.05 -4.4 117.05 -5.65 116.5 -5.45 116.5 -4.4 115.75 -4.4 Z"/>
</g>

<g id="BDM_728x90_psd_Asset_1_ManagedWiFi_Awareness_DM8_2_Harness_the_power_of_Wi_Fi_to_push__out_location_based_promotio_0_Layer0_0_MEMBER_23_FILL">
<path fill="#D82C26" stroke="none" d="
M 120.15 -4.2
Q 119.65 -4 119.3 -3.4 119 -2.85 119 -2.2 119 -1.5 119.3 -1 119.6 -0.45 120.15 -0.15 120.7 0.15 121.35 0.15 122.05 0.15 122.55 -0.15 123.1 -0.45 123.4 -1 123.7 -1.5 123.7 -2.2 123.7 -2.85 123.4 -3.4 123.05 -4 122.55 -4.2 122.05 -4.5 121.35 -4.5 120.7 -4.5 120.15 -4.2
M 120.4 -3.8
Q 120.9 -4.05 121.35 -4.05 121.8 -4.05 122.3 -3.8 122.65 -3.6 122.9 -3.15 123.15 -2.65 123.15 -2.2 123.15 -1.75 122.9 -1.25 122.65 -0.8 122.3 -0.6 121.95 -0.35 121.35 -0.35 120.8 -0.35 120.4 -0.6 120.05 -0.8 119.8 -1.25 119.55 -1.75 119.55 -2.2 119.55 -2.65 119.8 -3.15 120.05 -3.6 120.4 -3.8 Z"/>
</g>

<g id="BDM_728x90_psd_Asset_1_ManagedWiFi_Awareness_DM8_2_Harness_the_power_of_Wi_Fi_to_push__out_location_based_promotio_0_Layer0_0_MEMBER_24_FILL">
<path fill="#D82C26" stroke="none" d="
M 130.7 -4.2
Q 130.25 -4.5 129.55 -4.5 129.05 -4.5 128.5 -4.2 128.05 -3.95 127.8 -3.4
L 127.75 -3.4 127.75 -4.4 127.2 -4.4 127.2 2.25 127.75 2.25 127.75 -0.95 127.8 -0.95
Q 128 -0.45 128.55 -0.15 128.95 0.1 129.55 0.1 130.25 0.1 130.7 -0.2 131.2 -0.5 131.5 -1 131.75 -1.6 131.75 -2.2 131.75 -2.75 131.5 -3.35 131.15 -3.95 130.7 -4.2
M 130.4 -3.8
Q 130.75 -3.6 131 -3.1 131.2 -2.75 131.2 -2.2 131.2 -1.65 131 -1.25 130.8 -0.85 130.4 -0.6 130.1 -0.35 129.5 -0.35 128.9 -0.35 128.6 -0.6 128.25 -0.8 128 -1.25 127.75 -1.75 127.75 -2.2 127.75 -2.7 128 -3.1 128.25 -3.6 128.6 -3.8 129 -4.05 129.5 -4.05 130 -4.05 130.4 -3.8 Z"/>
</g>

<g id="BDM_728x90_psd_Asset_1_ManagedWiFi_Awareness_DM8_2_Harness_the_power_of_Wi_Fi_to_push__out_location_based_promotio_0_Layer0_0_MEMBER_25_FILL">
<path fill="#D82C26" stroke="none" d="
M 133.6 -4.4
L 133.05 -4.4 133.05 -1.7
Q 133.05 -0.95 133.45 -0.4 133.8 0.1 134.65 0.1 135.15 0.1 135.65 -0.15 136.1 -0.45 136.25 -0.95
L 136.35 0 136.9 0 136.8 -1 136.8 -4.4 136.25 -4.4 136.25 -2.2
Q 136.25 -1.65 136.1 -1.2 135.85 -0.75 135.55 -0.55 135.3 -0.35 134.8 -0.35 134.1 -0.35 133.9 -0.75 133.6 -1.2 133.6 -1.85
L 133.6 -4.4 Z"/>
</g>

<g id="BDM_728x90_psd_Asset_1_ManagedWiFi_Awareness_DM8_2_Harness_the_power_of_Wi_Fi_to_push__out_location_based_promotio_0_Layer0_0_MEMBER_26_FILL">
<path fill="#D82C26" stroke="none" d="
M 140.45 -4.4
L 139.7 -4.5 139 -4.4
Q 138.7 -4.3 138.45 -3.95 138.25 -3.75 138.25 -3.3 138.25 -2.85 138.55 -2.55 138.85 -2.25 139.45 -2.1 140.1 -1.9 140.4 -1.65 140.7 -1.5 140.7 -1.15 140.7 -0.75 140.4 -0.55 140.05 -0.3 139.7 -0.3 138.9 -0.3 138.25 -0.85
L 138.15 -0.35
Q 138.3 -0.2 138.8 0 139.1 0.1 139.7 0.1
L 140.45 0
Q 140.8 -0.15 141 -0.45 141.2 -0.7 141.2 -1.15 141.2 -1.65 140.85 -1.95 140.45 -2.25 139.85 -2.45 139.15 -2.7 139 -2.85 138.75 -2.95 138.75 -3.35 138.75 -3.65 139 -3.9 139.4 -4.1 139.7 -4.1 140 -4.1 140.3 -3.95 140.45 -3.9 140.85 -3.65
L 141.05 -4.05
Q 140.85 -4.25 140.45 -4.4 Z"/>
</g>

<g id="BDM_728x90_psd_Asset_1_ManagedWiFi_Awareness_DM8_2_Harness_the_power_of_Wi_Fi_to_push__out_location_based_promotio_0_Layer0_0_MEMBER_27_FILL">
<path fill="#D82C26" stroke="none" d="
M 143.05 -7.15
L 142.5 -7.05 142.5 0 143.05 0 143.05 -2.15
Q 143.05 -2.8 143.25 -3.15 143.4 -3.6 143.75 -3.85 144 -4.05 144.5 -4.05 145.2 -4.05 145.4 -3.6 145.7 -3.2 145.7 -2.55
L 145.7 0 146.25 0 146.25 -2.7
Q 146.25 -3.45 145.85 -4 145.5 -4.5 144.65 -4.5 144.1 -4.5 143.65 -4.2 143.2 -3.9 143.05 -3.45
L 143.05 -7.15 Z"/>
</g>

<g id="BDM_728x90_psd_Asset_1_ManagedWiFi_Awareness_DM8_2_Harness_the_power_of_Wi_Fi_to_push__out_location_based_promotio_0_Layer0_0_MEMBER_28_FILL">
<path fill="#D82C26" stroke="none" d="
M 4.05 6.65
Q 3.55 6.35 2.85 6.35 2.2 6.35 1.65 6.65 1.2 6.85 0.85 7.45 0.5 8.05 0.5 8.65 0.5 9.25 0.85 9.85 1.2 10.45 1.65 10.7 2.2 11 2.85 11 3.55 11 4.05 10.7 4.6 10.4 4.9 9.85 5.2 9.35 5.2 8.65 5.2 8 4.9 7.45 4.55 6.85 4.05 6.65
M 4.4 7.7
Q 4.65 8.2 4.65 8.65 4.65 9.1 4.4 9.6 4.25 10 3.8 10.25 3.5 10.5 2.85 10.5 2.3 10.5 1.9 10.25 1.55 10.05 1.3 9.6 1.1 9.2 1.1 8.65 1.1 8.1 1.3 7.7 1.55 7.25 1.9 7.05 2.4 6.8 2.85 6.8 3.3 6.8 3.8 7.05 4.15 7.25 4.4 7.7 Z"/>
</g>

<g id="BDM_728x90_psd_Asset_1_ManagedWiFi_Awareness_DM8_2_Harness_the_power_of_Wi_Fi_to_push__out_location_based_promotio_0_Layer0_0_MEMBER_29_FILL">
<path fill="#D82C26" stroke="none" d="
M 10.3 10.85
L 10.25 6.45 9.7 6.45 9.7 8.65
Q 9.7 9.3 9.5 9.65 9.4 10 9 10.3 8.65 10.5 8.25 10.5 7.55 10.5 7.3 10.1 7.05 9.6 7.05 9
L 7.05 6.45 6.5 6.45 6.5 9.15
Q 6.5 9.9 6.9 10.45 7.25 10.95 8.1 10.95 8.7 10.95 9.05 10.7 9.5 10.4 9.7 9.9
L 9.8 10.85 10.3 10.85 Z"/>
</g>

<g id="BDM_728x90_psd_Asset_1_ManagedWiFi_Awareness_DM8_2_Harness_the_power_of_Wi_Fi_to_push__out_location_based_promotio_0_Layer0_0_MEMBER_30_FILL">
<path fill="#D82C26" stroke="none" d="
M 12.65 5.2
L 12.1 5.45 12.1 6.45 11.4 6.45 11.3 6.9 12.1 6.9 12.1 9.8
Q 12.1 10.35 12.4 10.65 12.7 10.95 13.15 10.95
L 13.65 10.9 14.1 10.7 14 10.3
Q 13.65 10.5 13.3 10.5 13 10.5 12.85 10.3 12.65 10.15 12.65 9.7
L 12.65 6.9 13.8 6.9 13.9 6.45 12.65 6.45 12.65 5.2 Z"/>
</g>

<g id="BDM_728x90_psd_Asset_1_ManagedWiFi_Awareness_DM8_2_Harness_the_power_of_Wi_Fi_to_push__out_location_based_promotio_0_Layer0_0_MEMBER_31_FILL">
<path fill="#D82C26" stroke="none" d="
M 17.4 10.6
Q 17.7 10.9 17.95 10.95
L 18.2 10.5
Q 17.85 10.3 17.85 10.25
L 17.75 9.75 17.75 3.7 17.2 3.85 17.2 9.9
Q 17.2 10.2 17.4 10.6 Z"/>
</g>

<g id="BDM_728x90_psd_Asset_1_ManagedWiFi_Awareness_DM8_2_Harness_the_power_of_Wi_Fi_to_push__out_location_based_promotio_0_Layer0_0_MEMBER_32_FILL">
<path fill="#D82C26" stroke="none" d="
M 23.8 8.65
Q 23.8 8 23.5 7.45 23.15 6.85 22.65 6.65 22.15 6.35 21.45 6.35 20.85 6.35 20.3 6.65 19.8 6.85 19.45 7.45 19.15 8 19.15 8.65 19.15 9.35 19.45 9.85 19.75 10.4 20.3 10.7 20.85 11 21.45 11 22.15 11 22.65 10.7 23.2 10.4 23.5 9.85 23.8 9.35 23.8 8.65
M 23.05 7.7
Q 23.25 8.1 23.25 8.65 23.25 9.2 23.05 9.6 22.75 10.05 22.4 10.25 22.1 10.5 21.45 10.5 20.85 10.5 20.55 10.25 20.2 10.05 19.9 9.6 19.7 9.2 19.7 8.65 19.7 8.1 19.9 7.7 20.2 7.25 20.55 7.05 20.95 6.8 21.45 6.8 22 6.8 22.4 7.05 22.75 7.25 23.05 7.7 Z"/>
</g>

<g id="BDM_728x90_psd_Asset_1_ManagedWiFi_Awareness_DM8_2_Harness_the_power_of_Wi_Fi_to_push__out_location_based_promotio_0_Layer0_0_MEMBER_33_FILL">
<path fill="#D82C26" stroke="none" d="
M 24.9 8.65
Q 24.9 9.35 25.2 9.85 25.4 10.35 26 10.7 26.55 11 27.15 11 27.65 11 28 10.85 28.4 10.75 28.65 10.45
L 28.6 10
Q 28.2 10.3 27.95 10.35 27.65 10.5 27.2 10.5 26.7 10.5 26.3 10.25 25.95 10.05 25.65 9.6 25.45 9.2 25.45 8.65 25.45 8.1 25.65 7.75 25.9 7.25 26.3 7.05 26.7 6.8 27.2 6.8
L 27.9 6.95
Q 28.15 7 28.45 7.3
L 28.65 6.85
Q 28.45 6.65 28 6.5 27.65 6.35 27.2 6.35 26.55 6.35 26 6.65 25.5 6.95 25.2 7.45 24.9 8 24.9 8.65 Z"/>
</g>

<g id="BDM_728x90_psd_Asset_1_ManagedWiFi_Awareness_DM8_2_Harness_the_power_of_Wi_Fi_to_push__out_location_based_promotio_0_Layer0_0_MEMBER_34_FILL">
<path fill="#D82C26" stroke="none" d="
M 31.45 6.35
Q 31 6.35 30.55 6.5 30.05 6.7 29.85 6.9
L 30 7.3
Q 30.15 7.15 30.65 6.95 31.15 6.75 31.4 6.75 31.95 6.75 32.3 7.1 32.65 7.45 32.65 7.95
L 32.65 8.2 32.1 8.2
Q 29.6 8.2 29.6 9.65 29.6 10.4 30 10.65 30.4 10.95 31 10.95 31.55 10.95 31.95 10.75 32.45 10.4 32.6 10
L 32.65 10 32.65 10.45 32.7 10.85 33.2 10.85 33.15 8
Q 33.15 7.2 32.7 6.75 32.3 6.35 31.45 6.35
M 32.15 8.6
L 32.65 8.6 32.65 9.05
Q 32.65 9.25 32.45 9.75 32.3 10.05 31.95 10.35 31.6 10.55 31.1 10.55 30.65 10.55 30.4 10.35 30.1 10.15 30.1 9.65 30.1 8.6 32.15 8.6 Z"/>
</g>

<g id="BDM_728x90_psd_Asset_1_ManagedWiFi_Awareness_DM8_2_Harness_the_power_of_Wi_Fi_to_push__out_location_based_promotio_0_Layer0_0_MEMBER_35_FILL">
<path fill="#D82C26" stroke="none" d="
M 35.4 5.2
L 34.85 5.45 34.85 6.45 34.15 6.45 34.05 6.9 34.85 6.9 34.85 9.8
Q 34.85 10.35 35.15 10.65 35.4 10.95 35.85 10.95
L 36.35 10.9
Q 36.7 10.8 36.8 10.7
L 36.75 10.3
Q 36.35 10.5 36.05 10.5 35.75 10.5 35.55 10.3 35.4 10.15 35.4 9.7
L 35.4 6.9 36.55 6.9 36.65 6.45 35.4 6.45 35.4 5.2 Z"/>
</g>

<g id="BDM_728x90_psd_Asset_1_ManagedWiFi_Awareness_DM8_2_Harness_the_power_of_Wi_Fi_to_push__out_location_based_promotio_0_Layer0_0_MEMBER_36_FILL">
<path fill="#D82C26" stroke="none" d="
M 37.85 6.45
L 37.85 10.85 38.4 10.85 38.4 6.45 37.85 6.45
M 38.1 5.1
Q 38.3 5.1 38.4 5 38.5 4.9 38.5 4.7 38.5 4.5 38.4 4.45 38.25 4.3 38.1 4.3
L 37.85 4.45
Q 37.75 4.5 37.75 4.7 37.75 4.9 37.85 5 37.95 5.1 38.1 5.1 Z"/>
</g>

<g id="BDM_728x90_psd_Asset_1_ManagedWiFi_Awareness_DM8_2_Harness_the_power_of_Wi_Fi_to_push__out_location_based_promotio_0_Layer0_0_MEMBER_37_FILL">
<path fill="#D82C26" stroke="none" d="
M 44.1 7.45
Q 43.75 6.85 43.25 6.65 42.75 6.35 42.05 6.35 41.45 6.35 40.9 6.65 40.4 6.85 40.05 7.45 39.75 8 39.75 8.65 39.75 9.35 40.05 9.85 40.35 10.4 40.9 10.7 41.45 11 42.05 11 42.75 11 43.25 10.7 43.75 10.45 44.1 9.85 44.4 9.35 44.4 8.65 44.4 8 44.1 7.45
M 43.65 7.7
Q 43.85 8.1 43.85 8.65 43.85 9.2 43.65 9.6 43.35 10.05 43 10.25 42.7 10.5 42.05 10.5 41.45 10.5 41.15 10.25 40.8 10.05 40.5 9.6 40.3 9.2 40.3 8.65 40.3 8.1 40.5 7.7 40.8 7.25 41.15 7.05 41.55 6.8 42.05 6.8 42.6 6.8 43 7.05 43.35 7.25 43.65 7.7 Z"/>
</g>

<g id="BDM_728x90_psd_Asset_1_ManagedWiFi_Awareness_DM8_2_Harness_the_power_of_Wi_Fi_to_push__out_location_based_promotio_0_Layer0_0_MEMBER_38_FILL">
<path fill="#D82C26" stroke="none" d="
M 49.5 8.2
Q 49.5 7.3 49.1 6.85 48.75 6.35 47.9 6.35 47.35 6.35 46.95 6.65 46.55 6.95 46.3 7.4
L 46.25 6.45 45.75 6.45 45.75 10.85 46.3 10.85 46.3 8.6
Q 46.3 8.15 46.5 7.65 46.75 7.2 47.05 7 47.3 6.8 47.8 6.8 48.4 6.8 48.7 7.25 48.95 7.65 48.95 8.3
L 48.95 10.85 49.5 10.85 49.5 8.2 Z"/>
</g>

<g id="BDM_728x90_psd_Asset_1_ManagedWiFi_Awareness_DM8_2_Harness_the_power_of_Wi_Fi_to_push__out_location_based_promotio_0_Layer0_0_MEMBER_39_FILL">
<path fill="#D82C26" stroke="none" d="
M 50.9 8.25
L 50.9 8.7 52.8 8.7 52.8 8.25 50.9 8.25 Z"/>
</g>

<g id="BDM_728x90_psd_Asset_1_ManagedWiFi_Awareness_DM8_2_Harness_the_power_of_Wi_Fi_to_push__out_location_based_promotio_0_Layer0_0_MEMBER_40_FILL">
<path fill="#D82C26" stroke="none" d="
M 54.8 3.7
L 54.25 3.8 54.2 10.85 54.7 10.85 54.75 9.9 54.8 9.9
Q 55 10.35 55.5 10.7 55.95 10.95 56.6 10.95 57.25 10.95 57.7 10.65 58.2 10.35 58.5 9.85 58.75 9.4 58.75 8.65 58.75 7.95 58.5 7.5 58.15 6.9 57.7 6.65 57.25 6.35 56.6 6.35 56.05 6.35 55.55 6.6 55.2 6.8 54.8 7.4
L 54.8 3.7
M 55 7.75
Q 55.25 7.25 55.6 7.05 56.1 6.8 56.5 6.8 57 6.8 57.4 7.05 57.85 7.25 58 7.75 58.25 8.15 58.25 8.65 58.25 9.1 58 9.6 57.85 10.05 57.4 10.25 57.1 10.5 56.5 10.5 56 10.5 55.6 10.25 55.25 10.05 55 9.6 54.75 9.1 54.75 8.65 54.75 8.15 55 7.75 Z"/>
</g>

<g id="BDM_728x90_psd_Asset_1_ManagedWiFi_Awareness_DM8_2_Harness_the_power_of_Wi_Fi_to_push__out_location_based_promotio_0_Layer0_0_MEMBER_41_FILL">
<path fill="#D82C26" stroke="none" d="
M 61.7 6.35
Q 61.25 6.35 60.8 6.5 60.3 6.7 60.05 6.9
L 60.2 7.3 60.85 6.95
Q 61.45 6.75 61.6 6.75 62.2 6.75 62.55 7.1 62.85 7.4 62.85 7.95
L 62.85 8.2 62.35 8.2
Q 59.8 8.2 59.8 9.65 59.8 10.35 60.25 10.65 60.65 10.95 61.2 10.95 61.8 10.95 62.2 10.75 62.6 10.5 62.85 10
L 62.9 10 62.9 10.45 62.95 10.85 63.45 10.85 63.4 8
Q 63.4 7.2 62.95 6.75 62.55 6.35 61.7 6.35
M 62.4 8.6
L 62.85 8.6 62.85 9.05 62.7 9.75
Q 62.45 10.15 62.15 10.35 61.9 10.55 61.35 10.55 60.85 10.55 60.65 10.35 60.35 10.15 60.35 9.65 60.35 8.6 62.4 8.6 Z"/>
</g>

<g id="BDM_728x90_psd_Asset_1_ManagedWiFi_Awareness_DM8_2_Harness_the_power_of_Wi_Fi_to_push__out_location_based_promotio_0_Layer0_0_MEMBER_42_FILL">
<path fill="#D82C26" stroke="none" d="
M 64.65 10.5
Q 64.8 10.65 65.3 10.85 65.6 10.95 66.2 10.95
L 66.9 10.85
Q 67.3 10.7 67.45 10.4 67.7 10.05 67.7 9.7 67.7 9.25 67.35 8.9 66.95 8.6 66.35 8.4 65.6 8.15 65.45 8 65.2 7.85 65.2 7.5 65.2 7.2 65.5 6.95 65.9 6.75 66.2 6.75 66.5 6.75 66.8 6.9
L 67.3 7.2 67.55 6.8 66.95 6.45 66.15 6.35 65.45 6.45
Q 65.1 6.6 64.9 6.9 64.7 7.2 64.7 7.55 64.7 8 65 8.3 65.3 8.6 65.95 8.75 66.65 9 66.85 9.2 67.15 9.35 67.15 9.7 67.15 10.15 66.85 10.3 66.6 10.55 66.2 10.55 65.35 10.55 64.7 10
L 64.65 10.5 Z"/>
</g>

<g id="BDM_728x90_psd_Asset_1_ManagedWiFi_Awareness_DM8_2_Harness_the_power_of_Wi_Fi_to_push__out_location_based_promotio_0_Layer0_0_MEMBER_43_FILL">
<path fill="#D82C26" stroke="none" d="
M 72.7 7.4
Q 72.45 6.9 72 6.6 71.4 6.35 70.85 6.35 70.3 6.35 69.75 6.65 69.3 6.85 68.95 7.45 68.7 8.05 68.7 8.65 68.7 9.35 69 9.85 69.2 10.35 69.8 10.7 70.25 11 70.95 11 71.9 11 72.7 10.45
L 72.6 9.95
Q 72.4 10.15 71.9 10.35 71.5 10.55 71 10.55 70.5 10.55 70.1 10.3 69.75 10.1 69.45 9.65 69.3 9.35 69.2 8.75
L 72.95 8.75 72.95 8.5
Q 72.95 8 72.7 7.4
M 72 7.2
Q 72.4 7.7 72.4 8.35
L 69.25 8.35
Q 69.25 7.95 69.45 7.6 69.6 7.35 70 7 70.4 6.75 70.85 6.75 71.55 6.75 72 7.2 Z"/>
</g>

<g id="BDM_728x90_psd_Asset_1_ManagedWiFi_Awareness_DM8_2_Harness_the_power_of_Wi_Fi_to_push__out_location_based_promotio_0_Layer0_0_MEMBER_44_FILL">
<path fill="#D82C26" stroke="none" d="
M 78.55 3.65
L 78 3.8 78 7.4
Q 77.65 6.85 77.25 6.6 76.75 6.35 76.2 6.35 75.6 6.35 75.05 6.65 74.6 6.95 74.3 7.5 74 8.05 74 8.65 74 9.35 74.3 9.85 74.6 10.35 75.05 10.65 75.6 10.95 76.2 10.95 76.9 10.95 77.25 10.7 77.8 10.4 78 9.9
L 78.05 9.9 78.1 10.85 78.6 10.85 78.55 3.65
M 74.8 7.75
Q 74.95 7.25 75.4 7.05 75.8 6.8 76.3 6.8 76.7 6.8 77.2 7.05 77.55 7.25 77.8 7.75 78.05 8.15 78.05 8.65 78.05 9.1 77.8 9.6 77.55 10.05 77.2 10.25 76.85 10.5 76.3 10.5 75.7 10.5 75.4 10.25 74.95 10 74.8 9.6 74.55 9.1 74.55 8.65 74.55 8.15 74.8 7.75 Z"/>
</g>

<g id="BDM_728x90_psd_Asset_1_ManagedWiFi_Awareness_DM8_2_Harness_the_power_of_Wi_Fi_to_push__out_location_based_promotio_0_Layer0_0_MEMBER_45_FILL">
<path fill="#D82C26" stroke="none" d="
M 84.8 6.35
Q 84.2 6.35 83.75 6.65 83.35 6.8 83 7.45
L 82.95 6.45 82.4 6.45 82.45 13.1 83 13.1 83 9.9
Q 83.3 10.45 83.75 10.7 84.15 10.95 84.8 10.95 85.45 10.95 85.95 10.65 86.4 10.35 86.7 9.85 87 9.35 87 8.65 87 8.05 86.7 7.5 86.4 6.95 85.95 6.65 85.45 6.35 84.8 6.35
M 84.7 6.8
Q 85.2 6.8 85.6 7.05 85.95 7.25 86.2 7.75 86.4 8.1 86.4 8.65 86.4 9.2 86.2 9.6 86 10 85.6 10.25 85.3 10.5 84.7 10.5 84.2 10.5 83.8 10.25 83.45 10.05 83.2 9.6 82.95 9.1 82.95 8.65 82.95 8.15 83.2 7.75 83.45 7.25 83.8 7.05 84.3 6.8 84.7 6.8 Z"/>
</g>

<g id="BDM_728x90_psd_Asset_1_ManagedWiFi_Awareness_DM8_2_Harness_the_power_of_Wi_Fi_to_push__out_location_based_promotio_0_Layer0_0_MEMBER_46_FILL">
<path fill="#D82C26" stroke="none" d="
M 88.9 7.4
L 88.85 6.45 88.3 6.45 88.35 10.85 88.9 10.85 88.9 8.65
Q 88.9 7.9 89.25 7.35 89.55 6.85 90.15 6.85
L 90.55 6.9 90.65 6.4 90.2 6.35
Q 89.8 6.35 89.4 6.65 89.05 6.9 88.9 7.4 Z"/>
</g>

<g id="BDM_728x90_psd_Asset_1_ManagedWiFi_Awareness_DM8_2_Harness_the_power_of_Wi_Fi_to_push__out_location_based_promotio_0_Layer0_0_MEMBER_47_FILL">
<path fill="#D82C26" stroke="none" d="
M 95.5 7.45
Q 95.05 6.8 94.65 6.65 94.15 6.35 93.45 6.35 92.8 6.35 92.25 6.65 91.75 6.85 91.4 7.45 91.1 8 91.1 8.65 91.1 9.35 91.4 9.85 91.7 10.4 92.25 10.7 92.8 11 93.45 11 94.15 11 94.65 10.7 95.05 10.45 95.5 9.85 95.8 9.35 95.8 8.65 95.8 8 95.5 7.45
M 95 7.7
Q 95.25 8.2 95.25 8.65 95.25 9.1 95 9.6 94.75 10.05 94.4 10.25 94.05 10.5 93.45 10.5 92.8 10.5 92.5 10.25 92.05 10 91.9 9.6 91.65 9.1 91.65 8.65 91.65 8.2 91.9 7.7 92.05 7.3 92.5 7.05 92.9 6.8 93.45 6.8 93.9 6.8 94.4 7.05 94.75 7.25 95 7.7 Z"/>
</g>

<g id="BDM_728x90_psd_Asset_1_ManagedWiFi_Awareness_DM8_2_Harness_the_power_of_Wi_Fi_to_push__out_location_based_promotio_0_Layer0_0_MEMBER_48_FILL">
<path fill="#D82C26" stroke="none" d="
M 102.2 6.35
Q 101.7 6.35 101.25 6.65 100.75 7.05 100.65 7.45 100.4 6.9 100.1 6.65 99.75 6.35 99.2 6.35 98.7 6.35 98.3 6.65 97.85 6.95 97.7 7.4
L 97.65 7.4 97.6 6.45 97.1 6.45 97.15 10.85 97.7 10.85 97.7 8.65
Q 97.7 8.05 97.9 7.65 98.1 7.2 98.35 7 98.7 6.8 99.05 6.8 99.6 6.8 99.9 7.2 100.15 7.5 100.15 8.25
L 100.15 10.85 100.7 10.85 100.7 8.6
Q 100.7 7.85 101.1 7.3 101.45 6.8 102.1 6.8 102.7 6.8 103 7.25 103.25 7.75 103.25 8.35
L 103.25 10.85 103.8 10.85 103.8 8.2
Q 103.8 7.35 103.4 6.9 103.05 6.35 102.2 6.35 Z"/>
</g>

<g id="BDM_728x90_psd_Asset_1_ManagedWiFi_Awareness_DM8_2_Harness_the_power_of_Wi_Fi_to_push__out_location_based_promotio_0_Layer0_0_MEMBER_49_FILL">
<path fill="#D82C26" stroke="none" d="
M 105.4 9.85
Q 105.7 10.4 106.25 10.7 106.8 11 107.45 11 108.15 11 108.65 10.7 109.2 10.4 109.5 9.85 109.8 9.35 109.8 8.65 109.8 8 109.5 7.45 109.15 6.85 108.65 6.65 108.15 6.35 107.45 6.35 106.8 6.35 106.25 6.65 105.75 6.85 105.4 7.45 105.1 8 105.1 8.65 105.1 9.35 105.4 9.85
M 105.65 8.65
Q 105.65 8.2 105.9 7.7 106.15 7.25 106.5 7.05 107 6.8 107.45 6.8 107.9 6.8 108.4 7.05 108.75 7.25 109 7.7 109.25 8.2 109.25 8.65 109.25 9.1 109 9.6 108.85 10 108.4 10.25 108.1 10.5 107.45 10.5 106.9 10.5 106.5 10.25 106.15 10.05 105.9 9.6 105.65 9.1 105.65 8.65 Z"/>
</g>

<g id="BDM_728x90_psd_Asset_1_ManagedWiFi_Awareness_DM8_2_Harness_the_power_of_Wi_Fi_to_push__out_location_based_promotio_0_Layer0_0_MEMBER_50_FILL">
<path fill="#D82C26" stroke="none" d="
M 112.95 6.45
L 111.7 6.45 111.7 5.2 111.15 5.45 111.15 6.45 110.45 6.45 110.35 6.9 111.15 6.9 111.15 9.8
Q 111.15 10.35 111.45 10.65 111.75 10.95 112.2 10.95
L 112.7 10.9 113.1 10.7 113.05 10.3
Q 112.7 10.5 112.35 10.5 112.05 10.5 111.9 10.3 111.7 10.15 111.7 9.7
L 111.7 6.9 112.85 6.9 112.95 6.45 Z"/>
</g>

<g id="BDM_728x90_psd_Asset_1_ManagedWiFi_Awareness_DM8_2_Harness_the_power_of_Wi_Fi_to_push__out_location_based_promotio_0_Layer0_0_MEMBER_51_FILL">
<path fill="#D82C26" stroke="none" d="
M 114.15 6.45
L 114.15 10.85 114.7 10.85 114.7 6.45 114.15 6.45
M 114.45 5.1
Q 114.65 5.1 114.7 5 114.85 4.85 114.85 4.7 114.85 4.55 114.7 4.45 114.65 4.3 114.45 4.3
L 114.15 4.45 114.05 4.7 114.15 5
Q 114.25 5.1 114.45 5.1 Z"/>
</g>

<g id="BDM_728x90_psd_Asset_1_ManagedWiFi_Awareness_DM8_2_Harness_the_power_of_Wi_Fi_to_push__out_location_based_promotio_0_Layer0_0_MEMBER_52_FILL">
<path fill="#D82C26" stroke="none" d="
M 116.05 8.65
Q 116.05 9.35 116.35 9.85 116.65 10.4 117.2 10.7 117.75 11 118.4 11 119.1 11 119.6 10.7 120.05 10.45 120.4 9.85 120.7 9.35 120.7 8.65 120.7 8 120.4 7.45 120.05 6.85 119.6 6.65 119.1 6.35 118.4 6.35 117.75 6.35 117.2 6.65 116.7 6.85 116.35 7.45 116.05 8 116.05 8.65
M 119.95 7.7
Q 120.15 8.1 120.15 8.65 120.15 9.2 119.95 9.6 119.7 10.05 119.35 10.25 119 10.5 118.4 10.5 117.75 10.5 117.45 10.25 117.1 10.05 116.8 9.6 116.6 9 116.6 8.65 116.6 8.3 116.8 7.7 117.1 7.25 117.45 7.05 117.85 6.8 118.4 6.8 118.9 6.8 119.3 7.05 119.65 7.25 119.95 7.7 Z"/>
</g>

<g id="BDM_728x90_psd_Asset_1_ManagedWiFi_Awareness_DM8_2_Harness_the_power_of_Wi_Fi_to_push__out_location_based_promotio_0_Layer0_0_MEMBER_53_FILL">
<path fill="#D82C26" stroke="none" d="
M 125.45 6.85
Q 125 6.35 124.2 6.35 123.7 6.35 123.25 6.65 122.85 6.95 122.6 7.4
L 122.55 6.45 122.05 6.45 122.1 10.85 122.65 10.85 122.65 8.6
Q 122.65 8.05 122.8 7.65 123 7.25 123.35 7 123.7 6.8 124.1 6.8 124.8 6.8 125 7.25 125.3 7.7 125.3 8.3
L 125.3 10.85 125.85 10.85 125.85 8.2
Q 125.85 7.4 125.45 6.85 Z"/>
</g>

<g id="BDM_728x90_psd_Asset_1_ManagedWiFi_Awareness_DM8_2_Harness_the_power_of_Wi_Fi_to_push__out_location_based_promotio_0_Layer0_0_MEMBER_54_FILL">
<path fill="#D82C26" stroke="none" d="
M 130 6.8
L 129.4 6.45 128.65 6.35 127.95 6.45
Q 127.65 6.55 127.4 6.9 127.2 7.1 127.2 7.55 127.2 8 127.5 8.3 127.8 8.6 128.4 8.75 129.05 8.95 129.35 9.2 129.65 9.35 129.65 9.7 129.65 10.15 129.35 10.3 129 10.55 128.65 10.55 127.85 10.55 127.2 10
L 127.1 10.5
Q 127.25 10.65 127.75 10.85 128.05 10.95 128.65 10.95
L 129.4 10.85
Q 129.75 10.7 129.95 10.4 130.15 10.15 130.15 9.7 130.15 9.2 129.8 8.9 129.4 8.6 128.8 8.4 128.1 8.15 127.95 8 127.7 7.9 127.7 7.5 127.7 7.2 127.95 6.95 128.35 6.75 128.65 6.75 128.95 6.75 129.25 6.9
L 129.8 7.2 130 6.8 Z"/>
</g>

<g id="BDM_728x90_psd_Asset_1_ManagedWiFi_Awareness_DM8_2_Harness_the_power_of_Wi_Fi_to_push__out_location_based_promotio_0_Layer0_0_MEMBER_55_FILL">
<path fill="#D82C26" stroke="none" d="
M 138 10.8
Q 138.1 10.9 138.3 10.9 138.5 10.9 138.6 10.8
L 138.7 10.5
Q 138.7 10.3 138.6 10.2
L 138.3 10.05 138 10.2
Q 137.9 10.3 137.9 10.5 137.9 10.7 138 10.8
M 134.85 10.8
Q 134.95 10.9 135.15 10.9 135.4 10.9 135.45 10.8
L 135.6 10.5
Q 135.6 10.3 135.45 10.2 135.4 10.05 135.15 10.05
L 134.85 10.2 134.75 10.5 134.85 10.8
M 131.75 10.8
Q 131.85 10.9 132.05 10.9 132.25 10.9 132.35 10.8
L 132.45 10.5 132.35 10.2 132.05 10.05 131.75 10.2
Q 131.6 10.35 131.6 10.5
L 131.75 10.8 Z"/>
</g>
</defs>

<g transform="matrix( 1, 0, 0, 1, -205,-135) ">
<g transform="matrix( 1, 0, 0, 1, 204,149) ">
<g transform="matrix( 1, 0, 0, 1, 25,6) ">
<g transform="matrix( 2.6895904541015625, 0, 0, 2.672393798828125, -0.85,19.55) ">
<use xlink:href="#BDM_728x90_psd_Asset_1_ManagedWiFi_Awareness_DM8_2_Harness_the_power_of_Wi_Fi_to_push__out_location_based_promotio_0_Layer0_0_MEMBER_0_FILL"/>
</g>

<g transform="matrix( 2.6895904541015625, 0, 0, 2.672393798828125, -0.85,19.55) ">
<use xlink:href="#BDM_728x90_psd_Asset_1_ManagedWiFi_Awareness_DM8_2_Harness_the_power_of_Wi_Fi_to_push__out_location_based_promotio_0_Layer0_0_MEMBER_1_FILL"/>
</g>

<g transform="matrix( 2.6895904541015625, 0, 0, 2.672393798828125, -0.85,19.55) ">
<use xlink:href="#BDM_728x90_psd_Asset_1_ManagedWiFi_Awareness_DM8_2_Harness_the_power_of_Wi_Fi_to_push__out_location_based_promotio_0_Layer0_0_MEMBER_2_FILL"/>
</g>

<g transform="matrix( 2.6895904541015625, 0, 0, 2.672393798828125, -0.85,19.55) ">
<use xlink:href="#BDM_728x90_psd_Asset_1_ManagedWiFi_Awareness_DM8_2_Harness_the_power_of_Wi_Fi_to_push__out_location_based_promotio_0_Layer0_0_MEMBER_3_FILL"/>
</g>

<g transform="matrix( 2.6895904541015625, 0, 0, 2.672393798828125, -0.85,19.55) ">
<use xlink:href="#BDM_728x90_psd_Asset_1_ManagedWiFi_Awareness_DM8_2_Harness_the_power_of_Wi_Fi_to_push__out_location_based_promotio_0_Layer0_0_MEMBER_4_FILL"/>
</g>

<g transform="matrix( 2.6895904541015625, 0, 0, 2.672393798828125, -0.85,19.55) ">
<use xlink:href="#BDM_728x90_psd_Asset_1_ManagedWiFi_Awareness_DM8_2_Harness_the_power_of_Wi_Fi_to_push__out_location_based_promotio_0_Layer0_0_MEMBER_5_FILL"/>
</g>

<g transform="matrix( 2.6895904541015625, 0, 0, 2.672393798828125, -0.85,19.55) ">
<use xlink:href="#BDM_728x90_psd_Asset_1_ManagedWiFi_Awareness_DM8_2_Harness_the_power_of_Wi_Fi_to_push__out_location_based_promotio_0_Layer0_0_MEMBER_6_FILL"/>
</g>

<g transform="matrix( 2.6895904541015625, 0, 0, 2.672393798828125, -0.85,19.55) ">
<use xlink:href="#BDM_728x90_psd_Asset_1_ManagedWiFi_Awareness_DM8_2_Harness_the_power_of_Wi_Fi_to_push__out_location_based_promotio_0_Layer0_0_MEMBER_7_FILL"/>
</g>

<g transform="matrix( 2.6895904541015625, 0, 0, 2.672393798828125, -0.85,19.55) ">
<use xlink:href="#BDM_728x90_psd_Asset_1_ManagedWiFi_Awareness_DM8_2_Harness_the_power_of_Wi_Fi_to_push__out_location_based_promotio_0_Layer0_0_MEMBER_8_FILL"/>
</g>

<g transform="matrix( 2.6895904541015625, 0, 0, 2.672393798828125, -0.85,19.55) ">
<use xlink:href="#BDM_728x90_psd_Asset_1_ManagedWiFi_Awareness_DM8_2_Harness_the_power_of_Wi_Fi_to_push__out_location_based_promotio_0_Layer0_0_MEMBER_9_FILL"/>
</g>

<g transform="matrix( 2.6895904541015625, 0, 0, 2.672393798828125, -0.85,19.55) ">
<use xlink:href="#BDM_728x90_psd_Asset_1_ManagedWiFi_Awareness_DM8_2_Harness_the_power_of_Wi_Fi_to_push__out_location_based_promotio_0_Layer0_0_MEMBER_10_FILL"/>
</g>

<g transform="matrix( 2.6895904541015625, 0, 0, 2.672393798828125, -0.85,19.55) ">
<use xlink:href="#BDM_728x90_psd_Asset_1_ManagedWiFi_Awareness_DM8_2_Harness_the_power_of_Wi_Fi_to_push__out_location_based_promotio_0_Layer0_0_MEMBER_11_FILL"/>
</g>

<g transform="matrix( 2.6895904541015625, 0, 0, 2.672393798828125, -0.85,19.55) ">
<use xlink:href="#BDM_728x90_psd_Asset_1_ManagedWiFi_Awareness_DM8_2_Harness_the_power_of_Wi_Fi_to_push__out_location_based_promotio_0_Layer0_0_MEMBER_12_FILL"/>
</g>

<g transform="matrix( 2.6895904541015625, 0, 0, 2.672393798828125, -0.85,19.55) ">
<use xlink:href="#BDM_728x90_psd_Asset_1_ManagedWiFi_Awareness_DM8_2_Harness_the_power_of_Wi_Fi_to_push__out_location_based_promotio_0_Layer0_0_MEMBER_13_FILL"/>
</g>

<g transform="matrix( 2.6895904541015625, 0, 0, 2.672393798828125, -0.85,19.55) ">
<use xlink:href="#BDM_728x90_psd_Asset_1_ManagedWiFi_Awareness_DM8_2_Harness_the_power_of_Wi_Fi_to_push__out_location_based_promotio_0_Layer0_0_MEMBER_14_FILL"/>
</g>

<g transform="matrix( 2.6895904541015625, 0, 0, 2.672393798828125, -0.85,19.55) ">
<use xlink:href="#BDM_728x90_psd_Asset_1_ManagedWiFi_Awareness_DM8_2_Harness_the_power_of_Wi_Fi_to_push__out_location_based_promotio_0_Layer0_0_MEMBER_15_FILL"/>
</g>

<g transform="matrix( 2.6895904541015625, 0, 0, 2.672393798828125, -0.85,19.55) ">
<use xlink:href="#BDM_728x90_psd_Asset_1_ManagedWiFi_Awareness_DM8_2_Harness_the_power_of_Wi_Fi_to_push__out_location_based_promotio_0_Layer0_0_MEMBER_16_FILL"/>
</g>

<g transform="matrix( 2.6895904541015625, 0, 0, 2.672393798828125, -0.85,19.55) ">
<use xlink:href="#BDM_728x90_psd_Asset_1_ManagedWiFi_Awareness_DM8_2_Harness_the_power_of_Wi_Fi_to_push__out_location_based_promotio_0_Layer0_0_MEMBER_17_FILL"/>
</g>

<g transform="matrix( 2.6895904541015625, 0, 0, 2.672393798828125, -0.85,19.55) ">
<use xlink:href="#BDM_728x90_psd_Asset_1_ManagedWiFi_Awareness_DM8_2_Harness_the_power_of_Wi_Fi_to_push__out_location_based_promotio_0_Layer0_0_MEMBER_18_FILL"/>
</g>

<g transform="matrix( 2.6895904541015625, 0, 0, 2.672393798828125, -0.85,19.55) ">
<use xlink:href="#BDM_728x90_psd_Asset_1_ManagedWiFi_Awareness_DM8_2_Harness_the_power_of_Wi_Fi_to_push__out_location_based_promotio_0_Layer0_0_MEMBER_19_FILL"/>
</g>

<g transform="matrix( 2.6895904541015625, 0, 0, 2.672393798828125, -0.85,19.55) ">
<use xlink:href="#BDM_728x90_psd_Asset_1_ManagedWiFi_Awareness_DM8_2_Harness_the_power_of_Wi_Fi_to_push__out_location_based_promotio_0_Layer0_0_MEMBER_20_FILL"/>
</g>

<g transform="matrix( 2.6895904541015625, 0, 0, 2.672393798828125, -0.85,19.55) ">
<use xlink:href="#BDM_728x90_psd_Asset_1_ManagedWiFi_Awareness_DM8_2_Harness_the_power_of_Wi_Fi_to_push__out_location_based_promotio_0_Layer0_0_MEMBER_21_FILL"/>
</g>

<g transform="matrix( 2.6895904541015625, 0, 0, 2.672393798828125, -0.85,19.55) ">
<use xlink:href="#BDM_728x90_psd_Asset_1_ManagedWiFi_Awareness_DM8_2_Harness_the_power_of_Wi_Fi_to_push__out_location_based_promotio_0_Layer0_0_MEMBER_22_FILL"/>
</g>

<g transform="matrix( 2.6895904541015625, 0, 0, 2.672393798828125, -0.85,19.55) ">
<use xlink:href="#BDM_728x90_psd_Asset_1_ManagedWiFi_Awareness_DM8_2_Harness_the_power_of_Wi_Fi_to_push__out_location_based_promotio_0_Layer0_0_MEMBER_23_FILL"/>
</g>

<g transform="matrix( 2.6895904541015625, 0, 0, 2.672393798828125, -0.85,19.55) ">
<use xlink:href="#BDM_728x90_psd_Asset_1_ManagedWiFi_Awareness_DM8_2_Harness_the_power_of_Wi_Fi_to_push__out_location_based_promotio_0_Layer0_0_MEMBER_24_FILL"/>
</g>

<g transform="matrix( 2.6895904541015625, 0, 0, 2.672393798828125, -0.85,19.55) ">
<use xlink:href="#BDM_728x90_psd_Asset_1_ManagedWiFi_Awareness_DM8_2_Harness_the_power_of_Wi_Fi_to_push__out_location_based_promotio_0_Layer0_0_MEMBER_25_FILL"/>
</g>

<g transform="matrix( 2.6895904541015625, 0, 0, 2.672393798828125, -0.85,19.55) ">
<use xlink:href="#BDM_728x90_psd_Asset_1_ManagedWiFi_Awareness_DM8_2_Harness_the_power_of_Wi_Fi_to_push__out_location_based_promotio_0_Layer0_0_MEMBER_26_FILL"/>
</g>

<g transform="matrix( 2.6895904541015625, 0, 0, 2.672393798828125, -0.85,19.55) ">
<use xlink:href="#BDM_728x90_psd_Asset_1_ManagedWiFi_Awareness_DM8_2_Harness_the_power_of_Wi_Fi_to_push__out_location_based_promotio_0_Layer0_0_MEMBER_27_FILL"/>
</g>

<g transform="matrix( 2.6895904541015625, 0, 0, 2.672393798828125, -0.85,19.55) ">
<use xlink:href="#BDM_728x90_psd_Asset_1_ManagedWiFi_Awareness_DM8_2_Harness_the_power_of_Wi_Fi_to_push__out_location_based_promotio_0_Layer0_0_MEMBER_28_FILL"/>
</g>

<g transform="matrix( 2.6895904541015625, 0, 0, 2.672393798828125, -0.85,19.55) ">
<use xlink:href="#BDM_728x90_psd_Asset_1_ManagedWiFi_Awareness_DM8_2_Harness_the_power_of_Wi_Fi_to_push__out_location_based_promotio_0_Layer0_0_MEMBER_29_FILL"/>
</g>

<g transform="matrix( 2.6895904541015625, 0, 0, 2.672393798828125, -0.85,19.55) ">
<use xlink:href="#BDM_728x90_psd_Asset_1_ManagedWiFi_Awareness_DM8_2_Harness_the_power_of_Wi_Fi_to_push__out_location_based_promotio_0_Layer0_0_MEMBER_30_FILL"/>
</g>

<g transform="matrix( 2.6895904541015625, 0, 0, 2.672393798828125, -0.85,19.55) ">
<use xlink:href="#BDM_728x90_psd_Asset_1_ManagedWiFi_Awareness_DM8_2_Harness_the_power_of_Wi_Fi_to_push__out_location_based_promotio_0_Layer0_0_MEMBER_31_FILL"/>
</g>

<g transform="matrix( 2.6895904541015625, 0, 0, 2.672393798828125, -0.85,19.55) ">
<use xlink:href="#BDM_728x90_psd_Asset_1_ManagedWiFi_Awareness_DM8_2_Harness_the_power_of_Wi_Fi_to_push__out_location_based_promotio_0_Layer0_0_MEMBER_32_FILL"/>
</g>

<g transform="matrix( 2.6895904541015625, 0, 0, 2.672393798828125, -0.85,19.55) ">
<use xlink:href="#BDM_728x90_psd_Asset_1_ManagedWiFi_Awareness_DM8_2_Harness_the_power_of_Wi_Fi_to_push__out_location_based_promotio_0_Layer0_0_MEMBER_33_FILL"/>
</g>

<g transform="matrix( 2.6895904541015625, 0, 0, 2.672393798828125, -0.85,19.55) ">
<use xlink:href="#BDM_728x90_psd_Asset_1_ManagedWiFi_Awareness_DM8_2_Harness_the_power_of_Wi_Fi_to_push__out_location_based_promotio_0_Layer0_0_MEMBER_34_FILL"/>
</g>

<g transform="matrix( 2.6895904541015625, 0, 0, 2.672393798828125, -0.85,19.55) ">
<use xlink:href="#BDM_728x90_psd_Asset_1_ManagedWiFi_Awareness_DM8_2_Harness_the_power_of_Wi_Fi_to_push__out_location_based_promotio_0_Layer0_0_MEMBER_35_FILL"/>
</g>

<g transform="matrix( 2.6895904541015625, 0, 0, 2.672393798828125, -0.85,19.55) ">
<use xlink:href="#BDM_728x90_psd_Asset_1_ManagedWiFi_Awareness_DM8_2_Harness_the_power_of_Wi_Fi_to_push__out_location_based_promotio_0_Layer0_0_MEMBER_36_FILL"/>
</g>

<g transform="matrix( 2.6895904541015625, 0, 0, 2.672393798828125, -0.85,19.55) ">
<use xlink:href="#BDM_728x90_psd_Asset_1_ManagedWiFi_Awareness_DM8_2_Harness_the_power_of_Wi_Fi_to_push__out_location_based_promotio_0_Layer0_0_MEMBER_37_FILL"/>
</g>

<g transform="matrix( 2.6895904541015625, 0, 0, 2.672393798828125, -0.85,19.55) ">
<use xlink:href="#BDM_728x90_psd_Asset_1_ManagedWiFi_Awareness_DM8_2_Harness_the_power_of_Wi_Fi_to_push__out_location_based_promotio_0_Layer0_0_MEMBER_38_FILL"/>
</g>

<g transform="matrix( 2.6895904541015625, 0, 0, 2.672393798828125, -0.85,19.55) ">
<use xlink:href="#BDM_728x90_psd_Asset_1_ManagedWiFi_Awareness_DM8_2_Harness_the_power_of_Wi_Fi_to_push__out_location_based_promotio_0_Layer0_0_MEMBER_39_FILL"/>
</g>

<g transform="matrix( 2.6895904541015625, 0, 0, 2.672393798828125, -0.85,19.55) ">
<use xlink:href="#BDM_728x90_psd_Asset_1_ManagedWiFi_Awareness_DM8_2_Harness_the_power_of_Wi_Fi_to_push__out_location_based_promotio_0_Layer0_0_MEMBER_40_FILL"/>
</g>

<g transform="matrix( 2.6895904541015625, 0, 0, 2.672393798828125, -0.85,19.55) ">
<use xlink:href="#BDM_728x90_psd_Asset_1_ManagedWiFi_Awareness_DM8_2_Harness_the_power_of_Wi_Fi_to_push__out_location_based_promotio_0_Layer0_0_MEMBER_41_FILL"/>
</g>

<g transform="matrix( 2.6895904541015625, 0, 0, 2.672393798828125, -0.85,19.55) ">
<use xlink:href="#BDM_728x90_psd_Asset_1_ManagedWiFi_Awareness_DM8_2_Harness_the_power_of_Wi_Fi_to_push__out_location_based_promotio_0_Layer0_0_MEMBER_42_FILL"/>
</g>

<g transform="matrix( 2.6895904541015625, 0, 0, 2.672393798828125, -0.85,19.55) ">
<use xlink:href="#BDM_728x90_psd_Asset_1_ManagedWiFi_Awareness_DM8_2_Harness_the_power_of_Wi_Fi_to_push__out_location_based_promotio_0_Layer0_0_MEMBER_43_FILL"/>
</g>

<g transform="matrix( 2.6895904541015625, 0, 0, 2.672393798828125, -0.85,19.55) ">
<use xlink:href="#BDM_728x90_psd_Asset_1_ManagedWiFi_Awareness_DM8_2_Harness_the_power_of_Wi_Fi_to_push__out_location_based_promotio_0_Layer0_0_MEMBER_44_FILL"/>
</g>

<g transform="matrix( 2.6895904541015625, 0, 0, 2.672393798828125, -0.85,19.55) ">
<use xlink:href="#BDM_728x90_psd_Asset_1_ManagedWiFi_Awareness_DM8_2_Harness_the_power_of_Wi_Fi_to_push__out_location_based_promotio_0_Layer0_0_MEMBER_45_FILL"/>
</g>

<g transform="matrix( 2.6895904541015625, 0, 0, 2.672393798828125, -0.85,19.55) ">
<use xlink:href="#BDM_728x90_psd_Asset_1_ManagedWiFi_Awareness_DM8_2_Harness_the_power_of_Wi_Fi_to_push__out_location_based_promotio_0_Layer0_0_MEMBER_46_FILL"/>
</g>

<g transform="matrix( 2.6895904541015625, 0, 0, 2.672393798828125, -0.85,19.55) ">
<use xlink:href="#BDM_728x90_psd_Asset_1_ManagedWiFi_Awareness_DM8_2_Harness_the_power_of_Wi_Fi_to_push__out_location_based_promotio_0_Layer0_0_MEMBER_47_FILL"/>
</g>

<g transform="matrix( 2.6895904541015625, 0, 0, 2.672393798828125, -0.85,19.55) ">
<use xlink:href="#BDM_728x90_psd_Asset_1_ManagedWiFi_Awareness_DM8_2_Harness_the_power_of_Wi_Fi_to_push__out_location_based_promotio_0_Layer0_0_MEMBER_48_FILL"/>
</g>

<g transform="matrix( 2.6895904541015625, 0, 0, 2.672393798828125, -0.85,19.55) ">
<use xlink:href="#BDM_728x90_psd_Asset_1_ManagedWiFi_Awareness_DM8_2_Harness_the_power_of_Wi_Fi_to_push__out_location_based_promotio_0_Layer0_0_MEMBER_49_FILL"/>
</g>

<g transform="matrix( 2.6895904541015625, 0, 0, 2.672393798828125, -0.85,19.55) ">
<use xlink:href="#BDM_728x90_psd_Asset_1_ManagedWiFi_Awareness_DM8_2_Harness_the_power_of_Wi_Fi_to_push__out_location_based_promotio_0_Layer0_0_MEMBER_50_FILL"/>
</g>

<g transform="matrix( 2.6895904541015625, 0, 0, 2.672393798828125, -0.85,19.55) ">
<use xlink:href="#BDM_728x90_psd_Asset_1_ManagedWiFi_Awareness_DM8_2_Harness_the_power_of_Wi_Fi_to_push__out_location_based_promotio_0_Layer0_0_MEMBER_51_FILL"/>
</g>

<g transform="matrix( 2.6895904541015625, 0, 0, 2.672393798828125, -0.85,19.55) ">
<use xlink:href="#BDM_728x90_psd_Asset_1_ManagedWiFi_Awareness_DM8_2_Harness_the_power_of_Wi_Fi_to_push__out_location_based_promotio_0_Layer0_0_MEMBER_52_FILL"/>
</g>

<g transform="matrix( 2.6895904541015625, 0, 0, 2.672393798828125, -0.85,19.55) ">
<use xlink:href="#BDM_728x90_psd_Asset_1_ManagedWiFi_Awareness_DM8_2_Harness_the_power_of_Wi_Fi_to_push__out_location_based_promotio_0_Layer0_0_MEMBER_53_FILL"/>
</g>

<g transform="matrix( 2.6895904541015625, 0, 0, 2.672393798828125, -0.85,19.55) ">
<use xlink:href="#BDM_728x90_psd_Asset_1_ManagedWiFi_Awareness_DM8_2_Harness_the_power_of_Wi_Fi_to_push__out_location_based_promotio_0_Layer0_0_MEMBER_54_FILL"/>
</g>

<g transform="matrix( 2.6895904541015625, 0, 0, 2.672393798828125, -0.85,19.55) ">
<use xlink:href="#BDM_728x90_psd_Asset_1_ManagedWiFi_Awareness_DM8_2_Harness_the_power_of_Wi_Fi_to_push__out_location_based_promotio_0_Layer0_0_MEMBER_55_FILL"/>
</g>
</g>
</g>
</g>
</svg>
