
<svg xmlns="http://www.w3.org/2000/svg" version="1.1" xmlns:xlink="http://www.w3.org/1999/xlink" preserveAspectRatio="none" x="0px" y="0px" width="300px" height="250px" viewBox="0 0 300 250">
<defs>
<g id="IT_300x250_FR_psd_Asset_Research_Phase_IT_Decisions_Makers__V11_2_qui_fait_appel___une__solution_de_Wi_Fi_g_r___0_Layer0_0_MEMBER_0_FILL">
<path fill="#D82C26" stroke="none" d="
M 4.25 -3.65
L 3.8 -3.65 3.75 -2.85
Q 3.55 -3.25 3.15 -3.5 2.65 -3.75 2.25 -3.75 1.8 -3.75 1.3 -3.5 0.8 -3.1 0.65 -2.8 0.45 -2.4 0.45 -1.8 0.45 -1.25 0.65 -0.85 0.85 -0.4 1.3 -0.15 1.8 0.1 2.25 0.1 2.65 0.1 3.15 -0.15 3.55 -0.4 3.75 -0.8
L 3.75 0.85
Q 3.75 1.7 4.55 1.85
L 4.75 1.5 4.3 1.25 4.2 0.75 4.25 -3.65
M 1.55 -3.15
Q 1.9 -3.35 2.3 -3.35 2.8 -3.35 3.05 -3.15 3.4 -2.95 3.6 -2.6 3.75 -2.2 3.75 -1.8
L 3.6 -1.05
Q 3.4 -0.7 3.05 -0.5 2.8 -0.3 2.3 -0.3 1.9 -0.3 1.55 -0.5 1.3 -0.6 1.05 -1.05
L 0.9 -1.8
Q 0.9 -2.2 1.05 -2.6 1.25 -2.9 1.55 -3.15 Z"/>
</g>

<g id="IT_300x250_FR_psd_Asset_Research_Phase_IT_Decisions_Makers__V11_2_qui_fait_appel___une__solution_de_Wi_Fi_g_r___0_Layer0_0_MEMBER_1_FILL">
<path fill="#D82C26" stroke="none" d="
M 8.45 -3.65
L 8 -3.65 8 -1.85
Q 8 -1.35 7.85 -1 7.75 -0.7 7.4 -0.45 7.1 -0.25 6.8 -0.25 6.3 -0.25 6.05 -0.65 5.8 -1 5.8 -1.55
L 5.8 -3.65 5.35 -3.65 5.35 -1.4
Q 5.35 -0.7 5.7 -0.35 6 0.1 6.7 0.1 7.1 0.1 7.5 -0.15 7.85 -0.35 8 -0.8
L 8.1 0 8.55 0 8.45 -0.85 8.45 -3.65 Z"/>
</g>

<g id="IT_300x250_FR_psd_Asset_Research_Phase_IT_Decisions_Makers__V11_2_qui_fait_appel___une__solution_de_Wi_Fi_g_r___0_Layer0_0_MEMBER_2_FILL">
<path fill="#D82C26" stroke="none" d="
M 10.15 -3.65
L 9.7 -3.65 9.7 0 10.15 0 10.15 -3.65
M 9.7 -4.85
L 9.9 -4.75 10.15 -4.85 10.25 -5.1 10.15 -5.35 9.9 -5.4
Q 9.75 -5.4 9.7 -5.3 9.6 -5.25 9.6 -5.1 9.6 -4.9 9.7 -4.85 Z"/>
</g>

<g id="IT_300x250_FR_psd_Asset_Research_Phase_IT_Decisions_Makers__V11_2_qui_fait_appel___une__solution_de_Wi_Fi_g_r___0_Layer0_0_MEMBER_3_FILL">
<path fill="#D82C26" stroke="none" d="
M 14.55 -5.95
L 14.2 -5.95
Q 13.7 -5.95 13.4 -5.65 13.1 -5.35 13.1 -4.7
L 13.1 -3.65 12.4 -3.65 12.3 -3.3 13.1 -3.3 13.1 0 13.55 0 13.55 -3.3 14.4 -3.3 14.5 -3.65 13.55 -3.65 13.55 -4.7
Q 13.55 -5.05 13.7 -5.35 13.85 -5.6 14.25 -5.6
L 14.8 -5.5 14.85 -5.9 14.55 -5.95 Z"/>
</g>

<g id="IT_300x250_FR_psd_Asset_Research_Phase_IT_Decisions_Makers__V11_2_qui_fait_appel___une__solution_de_Wi_Fi_g_r___0_Layer0_0_MEMBER_4_FILL">
<path fill="#D82C26" stroke="none" d="
M 16.4 -3.4
Q 16.8 -3.4 17.15 -3.15 17.4 -2.8 17.4 -2.4
L 17.4 -2.2 16.95 -2.2
Q 14.9 -2.2 14.9 -1 14.9 -0.45 15.25 -0.15 15.6 0.1 16.05 0.1 16.5 0.1 16.85 -0.1 17.25 -0.35 17.4 -0.7
L 17.45 -0.7 17.45 -0.35 17.5 0 17.9 0 17.85 -2.35
Q 17.85 -3 17.45 -3.4 17.15 -3.75 16.45 -3.75
L 15.7 -3.65
Q 15.3 -3.5 15.1 -3.3
L 15.2 -2.95 15.75 -3.25 16.4 -3.4
M 17.05 -1.9
L 17.4 -1.9 17.4 -1.5
Q 17.4 -1.2 17.25 -0.9 17.2 -0.6 16.85 -0.45 16.6 -0.25 16.15 -0.25 15.8 -0.25 15.55 -0.4 15.35 -0.6 15.35 -1 15.35 -1.9 17.05 -1.9 Z"/>
</g>

<g id="IT_300x250_FR_psd_Asset_Research_Phase_IT_Decisions_Makers__V11_2_qui_fait_appel___une__solution_de_Wi_Fi_g_r___0_Layer0_0_MEMBER_5_FILL">
<path fill="#D82C26" stroke="none" d="
M 19.45 -3.65
L 19 -3.65 19 0 19.45 0 19.45 -3.65
M 19.25 -4.75
L 19.45 -4.85
Q 19.55 -4.9 19.55 -5.1 19.55 -5.25 19.45 -5.35
L 19.25 -5.4
Q 19.05 -5.4 19 -5.3
L 18.9 -5.1 19 -4.85 19.25 -4.75 Z"/>
</g>

<g id="IT_300x250_FR_psd_Asset_Research_Phase_IT_Decisions_Makers__V11_2_qui_fait_appel___une__solution_de_Wi_Fi_g_r___0_Layer0_0_MEMBER_6_FILL">
<path fill="#D82C26" stroke="none" d="
M 20.85 -3.65
L 20.25 -3.65 20.15 -3.3 20.85 -3.3 20.85 -0.9
Q 20.85 -0.4 21.05 -0.15 21.3 0.1 21.7 0.1
L 22.45 -0.1 22.4 -0.45
Q 22.1 -0.3 21.8 -0.3 21.6 -0.3 21.45 -0.45 21.3 -0.6 21.3 -0.95
L 21.3 -3.3 22.25 -3.3 22.3 -3.65 21.3 -3.65 21.3 -4.7 20.85 -4.5 20.85 -3.65 Z"/>
</g>

<g id="IT_300x250_FR_psd_Asset_Research_Phase_IT_Decisions_Makers__V11_2_qui_fait_appel___une__solution_de_Wi_Fi_g_r___0_Layer0_0_MEMBER_7_FILL">
<path fill="#D82C26" stroke="none" d="
M 24.35 -1
Q 24.35 -0.45 24.65 -0.15 25.05 0.1 25.5 0.1 25.95 0.1 26.3 -0.1 26.7 -0.35 26.85 -0.7
L 26.95 0 27.35 0 27.3 -2.35
Q 27.3 -3 26.9 -3.4 26.55 -3.75 25.9 -3.75
L 25.15 -3.65
Q 24.75 -3.5 24.55 -3.3
L 24.65 -2.95 25.2 -3.25
Q 25.5 -3.4 25.8 -3.4 26.25 -3.4 26.6 -3.15 26.85 -2.8 26.85 -2.4
L 26.85 -2.2 26.4 -2.2
Q 24.35 -2.2 24.35 -1
M 25 -0.4
Q 24.75 -0.65 24.75 -1 24.75 -1.9 26.5 -1.9
L 26.85 -1.9 26.85 -1.5
Q 26.85 -1.2 26.7 -0.9 26.55 -0.6 26.3 -0.45 26.05 -0.25 25.6 -0.25 25.25 -0.25 25 -0.4 Z"/>
</g>

<g id="IT_300x250_FR_psd_Asset_Research_Phase_IT_Decisions_Makers__V11_2_qui_fait_appel___une__solution_de_Wi_Fi_g_r___0_Layer0_0_MEMBER_8_FILL">
<path fill="#D82C26" stroke="none" d="
M 28.85 -3.65
L 28.4 -3.65 28.45 1.85 28.9 1.85 28.9 -0.8 28.95 -0.8
Q 29.1 -0.4 29.55 -0.15 29.95 0.1 30.4 0.1 30.85 0.1 31.35 -0.15 31.75 -0.35 32 -0.85 32.2 -1.25 32.2 -1.8 32.2 -2.4 32 -2.8 31.8 -3.2 31.35 -3.5 30.85 -3.75 30.4 -3.75 29.95 -3.75 29.55 -3.5 29.1 -3.3 28.9 -2.85
L 28.85 -3.65
M 29.6 -3.15
Q 29.85 -3.35 30.35 -3.35 30.75 -3.35 31.1 -3.15 31.4 -2.9 31.6 -2.6 31.75 -2.2 31.75 -1.8
L 31.6 -1.05
Q 31.35 -0.6 31.1 -0.5 30.75 -0.3 30.35 -0.3 29.85 -0.3 29.6 -0.5 29.25 -0.7 29.1 -1.05 28.9 -1.4 28.9 -1.8 28.9 -2.25 29.1 -2.6 29.25 -2.95 29.6 -3.15 Z"/>
</g>

<g id="IT_300x250_FR_psd_Asset_Research_Phase_IT_Decisions_Makers__V11_2_qui_fait_appel___une__solution_de_Wi_Fi_g_r___0_Layer0_0_MEMBER_9_FILL">
<path fill="#D82C26" stroke="none" d="
M 35.1 -3.75
Q 34.65 -3.75 34.25 -3.5 33.85 -3.25 33.65 -2.85
L 33.6 -2.85 33.6 -3.65 33.15 -3.65 33.15 1.85 33.65 1.85 33.65 -0.8
Q 33.85 -0.4 34.25 -0.15 34.65 0.1 35.1 0.1 35.65 0.1 36.05 -0.15 36.45 -0.35 36.7 -0.85 36.95 -1.35 36.95 -1.8 36.95 -2.3 36.7 -2.8 36.5 -3.2 36.05 -3.5 35.65 -3.75 35.1 -3.75
M 34.3 -3.15
Q 34.65 -3.35 35.05 -3.35 35.55 -3.35 35.8 -3.15 36.2 -2.85 36.3 -2.6 36.5 -2.1 36.5 -1.8 36.5 -1.55 36.3 -1.05 36.15 -0.65 35.8 -0.5 35.55 -0.3 35.05 -0.3 34.65 -0.3 34.3 -0.5 33.9 -0.8 33.8 -1.05 33.6 -1.55 33.6 -1.8 33.6 -2.1 33.8 -2.6 33.9 -2.85 34.3 -3.15 Z"/>
</g>

<g id="IT_300x250_FR_psd_Asset_Research_Phase_IT_Decisions_Makers__V11_2_qui_fait_appel___une__solution_de_Wi_Fi_g_r___0_Layer0_0_MEMBER_10_FILL">
<path fill="#D82C26" stroke="none" d="
M 39.5 -3.75
Q 39.05 -3.75 38.55 -3.5 38.15 -3.25 37.9 -2.85 37.7 -2.45 37.7 -1.85 37.7 -1.25 37.9 -0.85 38.25 -0.3 38.6 -0.15 38.9 0.1 39.55 0.1 40.4 0.1 41 -0.35
L 40.9 -0.75 40.35 -0.4 39.6 -0.25
Q 39.25 -0.25 38.85 -0.45 38.6 -0.6 38.3 -1
L 38.1 -1.75 41.2 -1.75 41.2 -1.95
Q 41.2 -2.5 41 -2.85 40.85 -3.25 40.4 -3.5 40 -3.75 39.5 -3.75
M 38.75 -3.2
Q 39 -3.4 39.5 -3.4 40.05 -3.4 40.4 -3.05 40.7 -2.75 40.8 -2.1
L 38.15 -2.1
Q 38.15 -2.4 38.3 -2.7 38.45 -2.95 38.75 -3.2 Z"/>
</g>

<g id="IT_300x250_FR_psd_Asset_Research_Phase_IT_Decisions_Makers__V11_2_qui_fait_appel___une__solution_de_Wi_Fi_g_r___0_Layer0_0_MEMBER_11_FILL">
<path fill="#D82C26" stroke="none" d="
M 42.15 -0.8
Q 42.15 -0.45 42.3 -0.25
L 42.75 0.1 42.95 -0.3 42.7 -0.5 42.6 -0.9 42.6 -5.9 42.15 -5.85 42.15 -0.8 Z"/>
</g>

<g id="IT_300x250_FR_psd_Asset_Research_Phase_IT_Decisions_Makers__V11_2_qui_fait_appel___une__solution_de_Wi_Fi_g_r___0_Layer0_0_MEMBER_12_FILL">
<path fill="#D82C26" stroke="none" d="
M 45.85 -5.5
L 46.8 -4.4 47.15 -4.4 46.35 -5.5 45.85 -5.5
M 45.1 -1
Q 45.1 -0.5 45.45 -0.15 45.85 0.1 46.3 0.1 46.75 0.1 47.1 -0.1 47.5 -0.35 47.65 -0.7
L 47.65 -0.35 47.7 0 48.15 0 48.05 -0.8 48.05 -2.35
Q 48.05 -3.05 47.7 -3.4 47.35 -3.75 46.65 -3.75
L 45.95 -3.65 45.3 -3.3 45.45 -2.95 46 -3.25
Q 46.3 -3.4 46.6 -3.4 47.1 -3.4 47.35 -3.15 47.65 -2.85 47.65 -2.4
L 47.65 -2.2 47.2 -2.2
Q 45.1 -2.2 45.1 -1
M 47.25 -1.9
L 47.65 -1.9 47.65 -1.5
Q 47.65 -1.2 47.5 -0.9 47.35 -0.6 47.05 -0.45 46.85 -0.25 46.35 -0.25 46.05 -0.25 45.8 -0.4 45.55 -0.65 45.55 -1 45.55 -1.9 47.25 -1.9 Z"/>
</g>

<g id="IT_300x250_FR_psd_Asset_Research_Phase_IT_Decisions_Makers__V11_2_qui_fait_appel___une__solution_de_Wi_Fi_g_r___0_Layer0_0_MEMBER_13_FILL">
<path fill="#D82C26" stroke="none" d="
M 53.85 -3.65
L 53.4 -3.65 53.4 -1.85
Q 53.4 -1.35 53.2 -1 53.1 -0.75 52.8 -0.45 52.4 -0.25 52.15 -0.25 51.65 -0.25 51.4 -0.65 51.2 -0.9 51.2 -1.55
L 51.2 -3.65 50.75 -3.65 50.75 -1.4
Q 50.75 -0.7 51.05 -0.35 51.35 0.1 52.05 0.1 52.45 0.1 52.85 -0.15 53.25 -0.4 53.4 -0.8
L 53.45 0 53.9 0 53.85 -0.4 53.85 -3.65 Z"/>
</g>

<g id="IT_300x250_FR_psd_Asset_Research_Phase_IT_Decisions_Makers__V11_2_qui_fait_appel___une__solution_de_Wi_Fi_g_r___0_Layer0_0_MEMBER_14_FILL">
<path fill="#D82C26" stroke="none" d="
M 55.45 -3.65
L 55.05 -3.65 55.05 0 55.5 0 55.5 -1.85
Q 55.5 -2.4 55.7 -2.65 55.8 -2.9 56.1 -3.2 56.4 -3.35 56.75 -3.35 57.3 -3.35 57.5 -3 57.7 -2.65 57.7 -2.1
L 57.7 0 58.2 0 58.2 -2.2
Q 58.2 -2.75 57.85 -3.3 57.55 -3.75 56.85 -3.75 56.4 -3.75 56.05 -3.5 55.65 -3.25 55.5 -2.85
L 55.45 -3.65 Z"/>
</g>

<g id="IT_300x250_FR_psd_Asset_Research_Phase_IT_Decisions_Makers__V11_2_qui_fait_appel___une__solution_de_Wi_Fi_g_r___0_Layer0_0_MEMBER_15_FILL">
<path fill="#D82C26" stroke="none" d="
M 59.35 -0.85
Q 59.55 -0.4 60 -0.15 60.4 0.1 60.95 0.1 61.8 0.1 62.45 -0.35
L 62.35 -0.75
Q 62.15 -0.55 61.75 -0.4 61.45 -0.25 61 -0.25 60.75 -0.25 60.25 -0.45 59.9 -0.7 59.75 -1 59.55 -1.35 59.55 -1.75
L 62.65 -1.75 62.65 -1.95
Q 62.65 -2.5 62.45 -2.85 62.25 -3.25 61.85 -3.5 61.45 -3.75 60.9 -3.75 60.4 -3.75 60 -3.5 59.65 -3.3 59.35 -2.85 59.1 -2.35 59.1 -1.85 59.1 -1.35 59.35 -0.85
M 59.75 -2.7
Q 59.9 -2.95 60.2 -3.2 60.45 -3.4 60.9 -3.4 61.4 -3.4 61.85 -3.05 62.2 -2.7 62.2 -2.1
L 59.55 -2.1
Q 59.55 -2.3 59.75 -2.7 Z"/>
</g>

<g id="IT_300x250_FR_psd_Asset_Research_Phase_IT_Decisions_Makers__V11_2_qui_fait_appel___une__solution_de_Wi_Fi_g_r___0_Layer0_0_MEMBER_16_FILL">
<path fill="#D82C26" stroke="none" d="
M 1.1 5.55
Q 0.95 5.6 0.65 5.9 0.5 6.15 0.5 6.45 0.5 6.8 0.75 7.05 1 7.3 1.55 7.45 1.95 7.55 2.3 7.8 2.55 7.95 2.55 8.25 2.55 8.5 2.3 8.75 2.1 8.9 1.7 8.9 1.05 8.9 0.5 8.5
L 0.45 8.9
Q 0.65 9.1 1 9.15 1.3 9.3 1.75 9.3 2.05 9.3 2.35 9.15 2.65 9.05 2.8 8.8 2.95 8.6 2.95 8.2 2.95 7.8 2.7 7.6 2.5 7.4 1.85 7.15 1.3 7 1.15 6.85 0.9 6.7 0.9 6.4 0.9 6.1 1.15 5.95 1.4 5.8 1.7 5.8
L 2.25 5.9 2.65 6.15 2.85 5.8 2.35 5.55
Q 2.15 5.45 1.7 5.45 1.3 5.45 1.1 5.55 Z"/>
</g>

<g id="IT_300x250_FR_psd_Asset_Research_Phase_IT_Decisions_Makers__V11_2_qui_fait_appel___une__solution_de_Wi_Fi_g_r___0_Layer0_0_MEMBER_17_FILL">
<path fill="#D82C26" stroke="none" d="
M 6.55 5.65
Q 6.15 5.45 5.55 5.45 4.95 5.45 4.55 5.65 4.05 6.05 3.9 6.35 3.65 6.75 3.65 7.35 3.65 8 3.9 8.35 4.05 8.65 4.55 9.05 5.05 9.3 5.55 9.3 6.05 9.3 6.55 9.05 7.1 8.7 7.25 8.35 7.5 7.85 7.5 7.35 7.5 6.85 7.25 6.35 7.1 6 6.55 5.65
M 5.55 5.8
Q 5.85 5.8 6.35 6 6.7 6.3 6.85 6.6 7.05 6.85 7.05 7.35 7.05 7.8 6.85 8.15 6.65 8.5 6.35 8.7 6 8.9 5.55 8.9 5.05 8.9 4.8 8.7 4.55 8.55 4.25 8.15 4.1 7.8 4.1 7.35 4.1 6.9 4.25 6.6 4.5 6.2 4.8 6 5.2 5.8 5.55 5.8 Z"/>
</g>

<g id="IT_300x250_FR_psd_Asset_Research_Phase_IT_Decisions_Makers__V11_2_qui_fait_appel___une__solution_de_Wi_Fi_g_r___0_Layer0_0_MEMBER_18_FILL">
<path fill="#D82C26" stroke="none" d="
M 8.6 8.95
Q 8.85 9.2 9.05 9.25
L 9.25 8.9 9 8.65
Q 8.9 8.55 8.9 8.25
L 8.9 3.25 8.45 3.35 8.45 8.35
Q 8.45 8.75 8.6 8.95 Z"/>
</g>

<g id="IT_300x250_FR_psd_Asset_Research_Phase_IT_Decisions_Makers__V11_2_qui_fait_appel___une__solution_de_Wi_Fi_g_r___0_Layer0_0_MEMBER_19_FILL">
<path fill="#D82C26" stroke="none" d="
M 13.2 5.55
L 12.75 5.55 12.75 7.35
Q 12.75 7.85 12.6 8.2 12.4 8.55 12.15 8.7 11.9 8.9 11.55 8.9 10.95 8.9 10.75 8.55 10.55 8.05 10.55 7.65
L 10.55 5.55 10.1 5.55 10.1 7.75
Q 10.1 8.4 10.4 8.85 10.8 9.3 11.4 9.3 11.85 9.3 12.25 9.05 12.6 8.8 12.75 8.4
L 12.8 9.2 13.25 9.2 13.2 8.75 13.2 5.55 Z"/>
</g>

<g id="IT_300x250_FR_psd_Asset_Research_Phase_IT_Decisions_Makers__V11_2_qui_fait_appel___une__solution_de_Wi_Fi_g_r___0_Layer0_0_MEMBER_20_FILL">
<path fill="#D82C26" stroke="none" d="
M 16 5.9
L 16.05 5.55 15.05 5.55 15.05 4.5 14.6 4.65 14.6 5.55 14 5.55 13.9 5.9 14.6 5.9 14.6 8.3
Q 14.6 8.8 14.8 9 15.05 9.25 15.45 9.25
L 15.85 9.2 16.2 9.05 16.15 8.7
Q 15.9 8.9 15.55 8.9 15.35 8.9 15.2 8.75 15.05 8.55 15.05 8.25
L 15.05 5.9 16 5.9 Z"/>
</g>

<g id="IT_300x250_FR_psd_Asset_Research_Phase_IT_Decisions_Makers__V11_2_qui_fait_appel___une__solution_de_Wi_Fi_g_r___0_Layer0_0_MEMBER_21_FILL">
<path fill="#D82C26" stroke="none" d="
M 17.35 5.55
L 16.9 5.55 16.9 9.2 17.35 9.2 17.35 5.55
M 17.15 4.4
Q 17.3 4.4 17.35 4.3
L 17.45 4.1 17.35 3.85 17.15 3.75 16.9 3.85 16.8 4.1 16.9 4.3
Q 16.95 4.4 17.15 4.4 Z"/>
</g>

<g id="IT_300x250_FR_psd_Asset_Research_Phase_IT_Decisions_Makers__V11_2_qui_fait_appel___une__solution_de_Wi_Fi_g_r___0_Layer0_0_MEMBER_22_FILL">
<path fill="#D82C26" stroke="none" d="
M 21.25 5.65
Q 20.85 5.45 20.25 5.45 19.65 5.45 19.25 5.65 18.75 6 18.55 6.35 18.3 6.85 18.3 7.35 18.3 7.85 18.55 8.35 18.75 8.7 19.25 9.05 19.75 9.3 20.25 9.3 20.75 9.3 21.25 9.05 21.65 8.75 21.95 8.35 22.2 7.85 22.2 7.35 22.2 6.85 21.95 6.35 21.65 5.95 21.25 5.65
M 20.25 5.8
Q 20.6 5.8 21 6 21.3 6.2 21.55 6.6 21.7 6.9 21.7 7.35 21.7 7.8 21.55 8.15 21.25 8.55 21 8.7 20.75 8.9 20.25 8.9 19.8 8.9 19.45 8.7 19.1 8.45 18.95 8.15 18.75 7.8 18.75 7.35 18.75 6.85 18.95 6.6 19.1 6.3 19.45 6 19.95 5.8 20.25 5.8 Z"/>
</g>

<g id="IT_300x250_FR_psd_Asset_Research_Phase_IT_Decisions_Makers__V11_2_qui_fait_appel___une__solution_de_Wi_Fi_g_r___0_Layer0_0_MEMBER_23_FILL">
<path fill="#D82C26" stroke="none" d="
M 23.55 5.55
L 23.1 5.55 23.15 9.2 23.6 9.2 23.6 7.3
Q 23.6 6.9 23.75 6.5 23.95 6.15 24.2 6 24.6 5.8 24.8 5.8 25.3 5.8 25.55 6.2 25.8 6.55 25.8 7.05
L 25.8 9.2 26.25 9.2 26.25 6.95
Q 26.25 6.25 25.9 5.85 25.6 5.45 24.9 5.45 24.4 5.45 24.1 5.7 23.75 5.9 23.6 6.35
L 23.55 6.35 23.55 5.55 Z"/>
</g>

<g id="IT_300x250_FR_psd_Asset_Research_Phase_IT_Decisions_Makers__V11_2_qui_fait_appel___une__solution_de_Wi_Fi_g_r___0_Layer0_0_MEMBER_24_FILL">
<path fill="#D82C26" stroke="none" d="
M 31.35 5.65
Q 31 5.45 30.5 5.45 29.95 5.45 29.55 5.7 29.1 5.95 28.9 6.4 28.7 6.8 28.7 7.35 28.7 7.95 28.9 8.35 29.05 8.65 29.55 9.05 30.05 9.3 30.5 9.3 30.95 9.3 31.35 9.05 31.7 8.85 32 8.4
L 32.05 9.2 32.5 9.2 32.45 3.2 32 3.3 32 6.35
Q 31.75 5.85 31.35 5.65
M 30.55 5.8
Q 30.95 5.8 31.3 6.05 31.6 6.15 31.85 6.6 32 6.9 32 7.35 32 7.8 31.85 8.15 31.55 8.55 31.3 8.7 31.05 8.9 30.55 8.9 30.05 8.9 29.8 8.7
L 29.3 8.15
Q 29.15 7.8 29.15 7.35 29.15 6.9 29.3 6.6 29.55 6.15 29.8 6.05 30.15 5.8 30.55 5.8 Z"/>
</g>

<g id="IT_300x250_FR_psd_Asset_Research_Phase_IT_Decisions_Makers__V11_2_qui_fait_appel___une__solution_de_Wi_Fi_g_r___0_Layer0_0_MEMBER_25_FILL">
<path fill="#D82C26" stroke="none" d="
M 35.2 5.45
Q 34.65 5.45 34.3 5.65 33.85 5.95 33.65 6.35 33.4 6.85 33.4 7.35 33.4 7.85 33.65 8.35 33.8 8.65 34.3 9.05 34.8 9.3 35.25 9.3 36.1 9.3 36.7 8.85
L 36.65 8.45
Q 36.45 8.65 36.05 8.8
L 35.3 8.9
Q 34.9 8.9 34.55 8.7 34.2 8.55 34.05 8.15 33.85 7.9 33.85 7.4
L 36.95 7.4 36.95 7.25
Q 36.95 6.9 36.75 6.3 36.55 5.95 36.15 5.65 35.8 5.45 35.2 5.45
M 34.5 6
Q 34.75 5.8 35.2 5.8 35.8 5.8 36.15 6.15 36.5 6.6 36.5 7.1
L 33.85 7.1
Q 33.85 6.9 34.05 6.5 34.2 6.25 34.5 6 Z"/>
</g>

<g id="IT_300x250_FR_psd_Asset_Research_Phase_IT_Decisions_Makers__V11_2_qui_fait_appel___une__solution_de_Wi_Fi_g_r___0_Layer0_0_MEMBER_26_FILL">
<path fill="#D82C26" stroke="none" d="
M 46.1 3.7
L 45.6 3.7 44.2 8.55 42.75 3.7 42.2 3.7 40.8 8.55 40.75 8.55 39.35 3.7 38.85 3.7 40.45 9.2 41 9.2 42.45 4.3 43.9 9.2 44.45 9.2 46.1 3.7 Z"/>
</g>

<g id="IT_300x250_FR_psd_Asset_Research_Phase_IT_Decisions_Makers__V11_2_qui_fait_appel___une__solution_de_Wi_Fi_g_r___0_Layer0_0_MEMBER_27_FILL">
<path fill="#D82C26" stroke="none" d="
M 47.3 5.55
L 46.85 5.55 46.85 9.2 47.3 9.2 47.3 5.55
M 47.1 4.4
Q 47.25 4.4 47.3 4.3 47.4 4.25 47.4 4.1 47.4 3.9 47.3 3.85
L 47.1 3.75 46.85 3.85 46.75 4.1 46.85 4.3
Q 46.9 4.4 47.1 4.4 Z"/>
</g>

<g id="IT_300x250_FR_psd_Asset_Research_Phase_IT_Decisions_Makers__V11_2_qui_fait_appel___une__solution_de_Wi_Fi_g_r___0_Layer0_0_MEMBER_28_FILL">
<path fill="#D82C26" stroke="none" d="
M 48.3 7.05
L 48.3 7.4 49.9 7.4 49.9 7.05 48.3 7.05 Z"/>
</g>

<g id="IT_300x250_FR_psd_Asset_Research_Phase_IT_Decisions_Makers__V11_2_qui_fait_appel___une__solution_de_Wi_Fi_g_r___0_Layer0_0_MEMBER_29_FILL">
<path fill="#D82C26" stroke="none" d="
M 53.75 6.15
L 51.5 6.15 51.5 4.1 53.85 4.1 53.85 3.7 51.05 3.7 51.05 9.2 51.5 9.2 51.5 6.55 53.65 6.55 53.75 6.15 Z"/>
</g>

<g id="IT_300x250_FR_psd_Asset_Research_Phase_IT_Decisions_Makers__V11_2_qui_fait_appel___une__solution_de_Wi_Fi_g_r___0_Layer0_0_MEMBER_30_FILL">
<path fill="#D82C26" stroke="none" d="
M 55.25 5.55
L 54.8 5.55 54.8 9.2 55.25 9.2 55.25 5.55
M 55 4.4
Q 55.15 4.4 55.25 4.3
L 55.35 4.1 55.25 3.85 55 3.75 54.8 3.85
Q 54.7 3.9 54.7 4.1 54.7 4.25 54.8 4.3 54.85 4.4 55 4.4 Z"/>
</g>

<g id="IT_300x250_FR_psd_Asset_Research_Phase_IT_Decisions_Makers__V11_2_qui_fait_appel___une__solution_de_Wi_Fi_g_r___0_Layer0_0_MEMBER_31_FILL">
<path fill="#D82C26" stroke="none" d="
M 61.5 5.55
L 61.05 5.55 61.05 6.35 61 6.35
Q 60.8 6 60.4 5.65 60.05 5.45 59.55 5.45 58.9 5.45 58.6 5.7 58.2 5.9 57.95 6.4 57.7 6.9 57.7 7.35 57.7 7.9 57.95 8.3 58.2 8.8 58.6 9 59 9.25 59.55 9.25 60 9.25 60.4 9 60.9 8.7 61 8.35
L 61.05 8.35 61.05 9.15
Q 61.05 9.8 60.65 10.3 60.25 10.7 59.5 10.7
L 58.75 10.55
Q 58.6 10.5 58.05 10.25
L 57.95 10.65
Q 58.25 10.9 58.7 10.95 59.1 11.1 59.55 11.1 60.55 11.1 61 10.55 61.5 9.95 61.5 9.1
L 61.5 5.55
M 61.05 7.35
Q 61.05 7.85 60.85 8.1 60.7 8.5 60.35 8.65 59.95 8.9 59.6 8.9 59.2 8.9 58.85 8.65 58.5 8.5 58.35 8.1 58.15 7.7 58.15 7.35 58.15 7 58.35 6.6 58.5 6.25 58.85 6.05 59.2 5.8 59.6 5.8 59.85 5.8 60.35 6 60.7 6.3 60.85 6.6 61.05 6.85 61.05 7.35 Z"/>
</g>

<g id="IT_300x250_FR_psd_Asset_Research_Phase_IT_Decisions_Makers__V11_2_qui_fait_appel___une__solution_de_Wi_Fi_g_r___0_Layer0_0_MEMBER_32_FILL">
<path fill="#D82C26" stroke="none" d="
M 64.25 5.45
Q 63.7 5.45 63.3 5.65 62.8 6.05 62.65 6.35 62.45 6.75 62.45 7.35 62.45 7.95 62.65 8.35 62.95 8.75 63.35 9.05 63.75 9.3 64.3 9.3 65.15 9.3 65.75 8.85
L 65.65 8.45
Q 65.45 8.65 65.05 8.8
L 64.35 8.9
Q 63.85 8.9 63.6 8.7 63.3 8.6 63.05 8.15 62.85 7.75 62.85 7.4
L 65.95 7.4 65.95 7.25
Q 65.95 6.7 65.75 6.3 65.5 5.9 65.15 5.65 64.8 5.45 64.25 5.45
M 64.25 5.8
Q 64.85 5.8 65.15 6.15 65.5 6.5 65.5 7.1
L 62.9 7.1
Q 62.9 6.8 63.05 6.5 63.2 6.25 63.5 6 63.75 5.8 64.25 5.8
M 64.7 3.65
L 63.9 4.8 64.3 4.8 65.25 3.65 64.7 3.65 Z"/>
</g>

<g id="IT_300x250_FR_psd_Asset_Research_Phase_IT_Decisions_Makers__V11_2_qui_fait_appel___une__solution_de_Wi_Fi_g_r___0_Layer0_0_MEMBER_33_FILL">
<path fill="#D82C26" stroke="none" d="
M 67.3 5.55
L 66.85 5.55 66.9 9.2 67.35 9.2 67.35 7.35
Q 67.35 6.75 67.65 6.3 67.9 5.85 68.4 5.85
L 68.7 5.9 68.8 5.5 68.4 5.45
Q 68.05 5.45 67.8 5.65 67.5 6 67.35 6.35
L 67.3 5.55 Z"/>
</g>

<g id="IT_300x250_FR_psd_Asset_Research_Phase_IT_Decisions_Makers__V11_2_qui_fait_appel___une__solution_de_Wi_Fi_g_r___0_Layer0_0_MEMBER_34_FILL">
<path fill="#D82C26" stroke="none" d="
M 70.9 9.3
Q 71.75 9.3 72.35 8.85
L 72.3 8.45 71.7 8.8 70.95 8.9
Q 70.45 8.9 70.2 8.7 69.85 8.55 69.7 8.15 69.5 7.9 69.5 7.4
L 72.55 7.4 72.55 7.25
Q 72.55 6.7 72.35 6.3 72.25 6 71.8 5.65 71.4 5.45 70.85 5.45 70.3 5.45 69.95 5.65 69.5 5.95 69.3 6.35 69.05 6.75 69.05 7.35 69.05 8 69.3 8.35 69.5 8.75 69.95 9.05 70.45 9.3 70.9 9.3
M 71.75 6.15
Q 72.15 6.55 72.15 7.1
L 69.5 7.1
Q 69.5 6.8 69.65 6.5 69.75 6.3 70.15 6 70.4 5.8 70.85 5.8 71.45 5.8 71.75 6.15
M 71.85 3.65
L 71.3 3.65 70.5 4.8 70.9 4.8 71.85 3.65 Z"/>
</g>

<g id="IT_300x250_FR_psd_Asset_Research_Phase_IT_Decisions_Makers__V11_2_qui_fait_appel___une__solution_de_Wi_Fi_g_r___0_Layer0_0_MEMBER_35_FILL">
<path fill="#D82C26" stroke="none" d="
M 73.45 9.15
L 73.7 9.25 73.95 9.15
Q 74.05 9.05 74.05 8.9 74.05 8.7 73.95 8.65 73.9 8.55 73.7 8.55 73.55 8.55 73.45 8.65
L 73.35 8.9 73.45 9.15 Z"/>
</g>
</defs>

<g transform="matrix( 1, 0, 0, 1, -56,1) ">
<g transform="matrix( 1, 0, 0, 1, 51,17) ">
<g transform="matrix( 1, 0, 0, 1, 28,7) ">
<g transform="matrix( 2.815704345703125, 0, 0, 2.832611083984375, -0.85,17.6) ">
<use xlink:href="#IT_300x250_FR_psd_Asset_Research_Phase_IT_Decisions_Makers__V11_2_qui_fait_appel___une__solution_de_Wi_Fi_g_r___0_Layer0_0_MEMBER_0_FILL"/>
</g>

<g transform="matrix( 2.815704345703125, 0, 0, 2.832611083984375, -0.85,17.6) ">
<use xlink:href="#IT_300x250_FR_psd_Asset_Research_Phase_IT_Decisions_Makers__V11_2_qui_fait_appel___une__solution_de_Wi_Fi_g_r___0_Layer0_0_MEMBER_1_FILL"/>
</g>

<g transform="matrix( 2.815704345703125, 0, 0, 2.832611083984375, -0.85,17.6) ">
<use xlink:href="#IT_300x250_FR_psd_Asset_Research_Phase_IT_Decisions_Makers__V11_2_qui_fait_appel___une__solution_de_Wi_Fi_g_r___0_Layer0_0_MEMBER_2_FILL"/>
</g>

<g transform="matrix( 2.815704345703125, 0, 0, 2.832611083984375, -0.85,17.6) ">
<use xlink:href="#IT_300x250_FR_psd_Asset_Research_Phase_IT_Decisions_Makers__V11_2_qui_fait_appel___une__solution_de_Wi_Fi_g_r___0_Layer0_0_MEMBER_3_FILL"/>
</g>

<g transform="matrix( 2.815704345703125, 0, 0, 2.832611083984375, -0.85,17.6) ">
<use xlink:href="#IT_300x250_FR_psd_Asset_Research_Phase_IT_Decisions_Makers__V11_2_qui_fait_appel___une__solution_de_Wi_Fi_g_r___0_Layer0_0_MEMBER_4_FILL"/>
</g>

<g transform="matrix( 2.815704345703125, 0, 0, 2.832611083984375, -0.85,17.6) ">
<use xlink:href="#IT_300x250_FR_psd_Asset_Research_Phase_IT_Decisions_Makers__V11_2_qui_fait_appel___une__solution_de_Wi_Fi_g_r___0_Layer0_0_MEMBER_5_FILL"/>
</g>

<g transform="matrix( 2.815704345703125, 0, 0, 2.832611083984375, -0.85,17.6) ">
<use xlink:href="#IT_300x250_FR_psd_Asset_Research_Phase_IT_Decisions_Makers__V11_2_qui_fait_appel___une__solution_de_Wi_Fi_g_r___0_Layer0_0_MEMBER_6_FILL"/>
</g>

<g transform="matrix( 2.815704345703125, 0, 0, 2.832611083984375, -0.85,17.6) ">
<use xlink:href="#IT_300x250_FR_psd_Asset_Research_Phase_IT_Decisions_Makers__V11_2_qui_fait_appel___une__solution_de_Wi_Fi_g_r___0_Layer0_0_MEMBER_7_FILL"/>
</g>

<g transform="matrix( 2.815704345703125, 0, 0, 2.832611083984375, -0.85,17.6) ">
<use xlink:href="#IT_300x250_FR_psd_Asset_Research_Phase_IT_Decisions_Makers__V11_2_qui_fait_appel___une__solution_de_Wi_Fi_g_r___0_Layer0_0_MEMBER_8_FILL"/>
</g>

<g transform="matrix( 2.815704345703125, 0, 0, 2.832611083984375, -0.85,17.6) ">
<use xlink:href="#IT_300x250_FR_psd_Asset_Research_Phase_IT_Decisions_Makers__V11_2_qui_fait_appel___une__solution_de_Wi_Fi_g_r___0_Layer0_0_MEMBER_9_FILL"/>
</g>

<g transform="matrix( 2.815704345703125, 0, 0, 2.832611083984375, -0.85,17.6) ">
<use xlink:href="#IT_300x250_FR_psd_Asset_Research_Phase_IT_Decisions_Makers__V11_2_qui_fait_appel___une__solution_de_Wi_Fi_g_r___0_Layer0_0_MEMBER_10_FILL"/>
</g>

<g transform="matrix( 2.815704345703125, 0, 0, 2.832611083984375, -0.85,17.6) ">
<use xlink:href="#IT_300x250_FR_psd_Asset_Research_Phase_IT_Decisions_Makers__V11_2_qui_fait_appel___une__solution_de_Wi_Fi_g_r___0_Layer0_0_MEMBER_11_FILL"/>
</g>

<g transform="matrix( 2.815704345703125, 0, 0, 2.832611083984375, -0.85,17.6) ">
<use xlink:href="#IT_300x250_FR_psd_Asset_Research_Phase_IT_Decisions_Makers__V11_2_qui_fait_appel___une__solution_de_Wi_Fi_g_r___0_Layer0_0_MEMBER_12_FILL"/>
</g>

<g transform="matrix( 2.815704345703125, 0, 0, 2.832611083984375, -0.85,17.6) ">
<use xlink:href="#IT_300x250_FR_psd_Asset_Research_Phase_IT_Decisions_Makers__V11_2_qui_fait_appel___une__solution_de_Wi_Fi_g_r___0_Layer0_0_MEMBER_13_FILL"/>
</g>

<g transform="matrix( 2.815704345703125, 0, 0, 2.832611083984375, -0.85,17.6) ">
<use xlink:href="#IT_300x250_FR_psd_Asset_Research_Phase_IT_Decisions_Makers__V11_2_qui_fait_appel___une__solution_de_Wi_Fi_g_r___0_Layer0_0_MEMBER_14_FILL"/>
</g>

<g transform="matrix( 2.815704345703125, 0, 0, 2.832611083984375, -0.85,17.6) ">
<use xlink:href="#IT_300x250_FR_psd_Asset_Research_Phase_IT_Decisions_Makers__V11_2_qui_fait_appel___une__solution_de_Wi_Fi_g_r___0_Layer0_0_MEMBER_15_FILL"/>
</g>

<g transform="matrix( 2.815704345703125, 0, 0, 2.832611083984375, -0.85,17.6) ">
<use xlink:href="#IT_300x250_FR_psd_Asset_Research_Phase_IT_Decisions_Makers__V11_2_qui_fait_appel___une__solution_de_Wi_Fi_g_r___0_Layer0_0_MEMBER_16_FILL"/>
</g>

<g transform="matrix( 2.815704345703125, 0, 0, 2.832611083984375, -0.85,17.6) ">
<use xlink:href="#IT_300x250_FR_psd_Asset_Research_Phase_IT_Decisions_Makers__V11_2_qui_fait_appel___une__solution_de_Wi_Fi_g_r___0_Layer0_0_MEMBER_17_FILL"/>
</g>

<g transform="matrix( 2.815704345703125, 0, 0, 2.832611083984375, -0.85,17.6) ">
<use xlink:href="#IT_300x250_FR_psd_Asset_Research_Phase_IT_Decisions_Makers__V11_2_qui_fait_appel___une__solution_de_Wi_Fi_g_r___0_Layer0_0_MEMBER_18_FILL"/>
</g>

<g transform="matrix( 2.815704345703125, 0, 0, 2.832611083984375, -0.85,17.6) ">
<use xlink:href="#IT_300x250_FR_psd_Asset_Research_Phase_IT_Decisions_Makers__V11_2_qui_fait_appel___une__solution_de_Wi_Fi_g_r___0_Layer0_0_MEMBER_19_FILL"/>
</g>

<g transform="matrix( 2.815704345703125, 0, 0, 2.832611083984375, -0.85,17.6) ">
<use xlink:href="#IT_300x250_FR_psd_Asset_Research_Phase_IT_Decisions_Makers__V11_2_qui_fait_appel___une__solution_de_Wi_Fi_g_r___0_Layer0_0_MEMBER_20_FILL"/>
</g>

<g transform="matrix( 2.815704345703125, 0, 0, 2.832611083984375, -0.85,17.6) ">
<use xlink:href="#IT_300x250_FR_psd_Asset_Research_Phase_IT_Decisions_Makers__V11_2_qui_fait_appel___une__solution_de_Wi_Fi_g_r___0_Layer0_0_MEMBER_21_FILL"/>
</g>

<g transform="matrix( 2.815704345703125, 0, 0, 2.832611083984375, -0.85,17.6) ">
<use xlink:href="#IT_300x250_FR_psd_Asset_Research_Phase_IT_Decisions_Makers__V11_2_qui_fait_appel___une__solution_de_Wi_Fi_g_r___0_Layer0_0_MEMBER_22_FILL"/>
</g>

<g transform="matrix( 2.815704345703125, 0, 0, 2.832611083984375, -0.85,17.6) ">
<use xlink:href="#IT_300x250_FR_psd_Asset_Research_Phase_IT_Decisions_Makers__V11_2_qui_fait_appel___une__solution_de_Wi_Fi_g_r___0_Layer0_0_MEMBER_23_FILL"/>
</g>

<g transform="matrix( 2.815704345703125, 0, 0, 2.832611083984375, -0.85,17.6) ">
<use xlink:href="#IT_300x250_FR_psd_Asset_Research_Phase_IT_Decisions_Makers__V11_2_qui_fait_appel___une__solution_de_Wi_Fi_g_r___0_Layer0_0_MEMBER_24_FILL"/>
</g>

<g transform="matrix( 2.815704345703125, 0, 0, 2.832611083984375, -0.85,17.6) ">
<use xlink:href="#IT_300x250_FR_psd_Asset_Research_Phase_IT_Decisions_Makers__V11_2_qui_fait_appel___une__solution_de_Wi_Fi_g_r___0_Layer0_0_MEMBER_25_FILL"/>
</g>

<g transform="matrix( 2.815704345703125, 0, 0, 2.832611083984375, -0.85,17.6) ">
<use xlink:href="#IT_300x250_FR_psd_Asset_Research_Phase_IT_Decisions_Makers__V11_2_qui_fait_appel___une__solution_de_Wi_Fi_g_r___0_Layer0_0_MEMBER_26_FILL"/>
</g>

<g transform="matrix( 2.815704345703125, 0, 0, 2.832611083984375, -0.85,17.6) ">
<use xlink:href="#IT_300x250_FR_psd_Asset_Research_Phase_IT_Decisions_Makers__V11_2_qui_fait_appel___une__solution_de_Wi_Fi_g_r___0_Layer0_0_MEMBER_27_FILL"/>
</g>

<g transform="matrix( 2.815704345703125, 0, 0, 2.832611083984375, -0.85,17.6) ">
<use xlink:href="#IT_300x250_FR_psd_Asset_Research_Phase_IT_Decisions_Makers__V11_2_qui_fait_appel___une__solution_de_Wi_Fi_g_r___0_Layer0_0_MEMBER_28_FILL"/>
</g>

<g transform="matrix( 2.815704345703125, 0, 0, 2.832611083984375, -0.85,17.6) ">
<use xlink:href="#IT_300x250_FR_psd_Asset_Research_Phase_IT_Decisions_Makers__V11_2_qui_fait_appel___une__solution_de_Wi_Fi_g_r___0_Layer0_0_MEMBER_29_FILL"/>
</g>

<g transform="matrix( 2.815704345703125, 0, 0, 2.832611083984375, -0.85,17.6) ">
<use xlink:href="#IT_300x250_FR_psd_Asset_Research_Phase_IT_Decisions_Makers__V11_2_qui_fait_appel___une__solution_de_Wi_Fi_g_r___0_Layer0_0_MEMBER_30_FILL"/>
</g>

<g transform="matrix( 2.815704345703125, 0, 0, 2.832611083984375, -0.85,17.6) ">
<use xlink:href="#IT_300x250_FR_psd_Asset_Research_Phase_IT_Decisions_Makers__V11_2_qui_fait_appel___une__solution_de_Wi_Fi_g_r___0_Layer0_0_MEMBER_31_FILL"/>
</g>

<g transform="matrix( 2.815704345703125, 0, 0, 2.832611083984375, -0.85,17.6) ">
<use xlink:href="#IT_300x250_FR_psd_Asset_Research_Phase_IT_Decisions_Makers__V11_2_qui_fait_appel___une__solution_de_Wi_Fi_g_r___0_Layer0_0_MEMBER_32_FILL"/>
</g>

<g transform="matrix( 2.815704345703125, 0, 0, 2.832611083984375, -0.85,17.6) ">
<use xlink:href="#IT_300x250_FR_psd_Asset_Research_Phase_IT_Decisions_Makers__V11_2_qui_fait_appel___une__solution_de_Wi_Fi_g_r___0_Layer0_0_MEMBER_33_FILL"/>
</g>

<g transform="matrix( 2.815704345703125, 0, 0, 2.832611083984375, -0.85,17.6) ">
<use xlink:href="#IT_300x250_FR_psd_Asset_Research_Phase_IT_Decisions_Makers__V11_2_qui_fait_appel___une__solution_de_Wi_Fi_g_r___0_Layer0_0_MEMBER_34_FILL"/>
</g>

<g transform="matrix( 2.815704345703125, 0, 0, 2.832611083984375, -0.85,17.6) ">
<use xlink:href="#IT_300x250_FR_psd_Asset_Research_Phase_IT_Decisions_Makers__V11_2_qui_fait_appel___une__solution_de_Wi_Fi_g_r___0_Layer0_0_MEMBER_35_FILL"/>
</g>
</g>
</g>
</g>
</svg>
