
<svg xmlns="http://www.w3.org/2000/svg" version="1.1" xmlns:xlink="http://www.w3.org/1999/xlink" preserveAspectRatio="none" x="0px" y="0px" width="250px" height="250px" viewBox="0 0 250 250">
<defs>
<g id="BDM_250x250_FR_psd_Asset_3_V6_2_Augmentez__la_satisfaction_des_clients__et_la_mobilisation__des_0_Layer0_0_MEMBER_0_FILL">
<path fill="#D82C26" stroke="none" d="
M 2.15 -4
L 1.8 -4 0.05 0 0.45 0 1.05 -1.5 2.8 -1.5 3.45 0 3.8 0 2.15 -4
M 2.7 -1.75
L 1.15 -1.75 1.95 -3.65 2.7 -1.75 Z"/>
</g>

<g id="BDM_250x250_FR_psd_Asset_3_V6_2_Augmentez__la_satisfaction_des_clients__et_la_mobilisation__des_0_Layer0_0_MEMBER_1_FILL">
<path fill="#D82C26" stroke="none" d="
M 4.15 -1.05
Q 4.15 -0.6 4.4 -0.25 4.65 0.05 5.1 0.05 5.5 0.05 5.7 -0.1 5.95 -0.2 6.1 -0.55
L 6.15 0 6.45 0 6.45 -0.3 6.4 -0.6 6.4 -2.65 6.1 -2.65 6.1 -1.35
Q 6.1 -1 5.95 -0.7 5.85 -0.4 5.65 -0.35 5.45 -0.2 5.2 -0.2 4.8 -0.2 4.65 -0.45 4.5 -0.75 4.5 -1.1
L 4.5 -2.65 4.15 -2.65 4.15 -1.05 Z"/>
</g>

<g id="BDM_250x250_FR_psd_Asset_3_V6_2_Augmentez__la_satisfaction_des_clients__et_la_mobilisation__des_0_Layer0_0_MEMBER_2_FILL">
<path fill="#D82C26" stroke="none" d="
M 7.05 -1.35
Q 7.05 -0.95 7.2 -0.6 7.45 -0.3 7.7 -0.15 7.95 0.05 8.4 0.05 8.7 0.05 9 -0.1 9.3 -0.35 9.45 -0.6
L 9.45 -0.05
Q 9.45 0.55 9.2 0.8 9 1.1 8.35 1.1 8 1.1 7.8 1
L 7.3 0.75 7.25 1.05 7.75 1.3 8.4 1.4
Q 9.15 1.4 9.45 1 9.8 0.65 9.8 -0.05
L 9.8 -2.65 9.5 -2.65 9.45 -2.05
Q 9.25 -2.4 9 -2.55 8.7 -2.7 8.4 -2.7 8 -2.7 7.7 -2.55
L 7.2 -2.05
Q 7.05 -1.65 7.05 -1.35
M 7.4 -1.35
L 7.5 -1.9
Q 7.7 -2.2 7.9 -2.3 8.15 -2.45 8.45 -2.45 8.75 -2.45 8.95 -2.3 9.15 -2.2 9.35 -1.9 9.5 -1.6 9.5 -1.35 9.5 -1.05 9.35 -0.75 9.15 -0.45 8.95 -0.35 8.75 -0.2 8.45 -0.2 8.15 -0.2 7.9 -0.35 7.65 -0.45 7.5 -0.8
L 7.4 -1.35 Z"/>
</g>

<g id="BDM_250x250_FR_psd_Asset_3_V6_2_Augmentez__la_satisfaction_des_clients__et_la_mobilisation__des_0_Layer0_0_MEMBER_3_FILL">
<path fill="#D82C26" stroke="none" d="
M 11.8 -2.45
Q 12.05 -2.45 12.3 -2.2 12.45 -1.95 12.45 -1.55
L 12.45 0 12.8 0 12.8 -1.35
Q 12.8 -1.9 13 -2.15 13.25 -2.45 13.6 -2.45 14 -2.45 14.15 -2.2 14.3 -1.9 14.3 -1.5
L 14.3 0 14.65 0 14.65 -1.6
Q 14.65 -2.05 14.4 -2.4 14.2 -2.7 13.7 -2.7 13.35 -2.7 13.1 -2.55 12.9 -2.4 12.7 -2.05 12.6 -2.4 12.4 -2.55 12.2 -2.7 11.85 -2.7 11.55 -2.7 11.3 -2.55 11.05 -2.35 10.95 -2.05
L 10.9 -2.65 10.6 -2.65 10.6 0 10.95 0 10.95 -1.3 11.05 -1.9 11.35 -2.3
Q 11.6 -2.45 11.8 -2.45 Z"/>
</g>

<g id="BDM_250x250_FR_psd_Asset_3_V6_2_Augmentez__la_satisfaction_des_clients__et_la_mobilisation__des_0_Layer0_0_MEMBER_4_FILL">
<path fill="#D82C26" stroke="none" d="
M 17.7 -2.1
Q 17.55 -2.4 17.25 -2.55 16.85 -2.75 16.55 -2.75 16.3 -2.75 15.9 -2.55 15.65 -2.4 15.45 -2.05 15.25 -1.8 15.25 -1.35 15.25 -0.85 15.45 -0.6 15.65 -0.25 15.9 -0.1 16.3 0.1 16.6 0.1 17.15 0.1 17.65 -0.25
L 17.6 -0.55 17.2 -0.3
Q 17 -0.2 16.65 -0.2 16.35 -0.2 16.1 -0.35 15.8 -0.55 15.7 -0.75
L 15.6 -1.3 17.8 -1.3 17.8 -1.4 17.7 -2.1
M 16.55 -2.45
Q 17 -2.45 17.25 -2.2 17.5 -1.95 17.5 -1.5
L 15.6 -1.5 15.7 -1.95 16.05 -2.3
Q 16.3 -2.45 16.55 -2.45 Z"/>
</g>

<g id="BDM_250x250_FR_psd_Asset_3_V6_2_Augmentez__la_satisfaction_des_clients__et_la_mobilisation__des_0_Layer0_0_MEMBER_5_FILL">
<path fill="#D82C26" stroke="none" d="
M 19.2 -2.3
Q 19.45 -2.45 19.65 -2.45 20.05 -2.45 20.2 -2.2 20.4 -1.95 20.4 -1.55
L 20.4 0 20.7 0 20.7 -1.6
Q 20.7 -2.15 20.5 -2.4 20.2 -2.7 19.75 -2.7 19.45 -2.7 19.15 -2.55 18.9 -2.35 18.8 -2.05
L 18.75 -2.05 18.75 -2.65 18.45 -2.65 18.45 0 18.8 0 18.8 -1.35 18.9 -1.95 19.2 -2.3 Z"/>
</g>

<g id="BDM_250x250_FR_psd_Asset_3_V6_2_Augmentez__la_satisfaction_des_clients__et_la_mobilisation__des_0_Layer0_0_MEMBER_6_FILL">
<path fill="#D82C26" stroke="none" d="
M 21.9 -3.4
L 21.55 -3.3 21.55 -2.65 21.15 -2.65 21.05 -2.4 21.55 -2.4 21.55 -0.65
Q 21.55 -0.3 21.75 -0.1 21.9 0.05 22.2 0.05
L 22.5 0 22.75 -0.1 22.7 -0.35
Q 22.5 -0.2 22.25 -0.2 22.1 -0.2 22 -0.35 21.9 -0.4 21.9 -0.7
L 21.9 -2.4 22.55 -2.4 22.65 -2.65 21.9 -2.65 21.9 -3.4 Z"/>
</g>

<g id="BDM_250x250_FR_psd_Asset_3_V6_2_Augmentez__la_satisfaction_des_clients__et_la_mobilisation__des_0_Layer0_0_MEMBER_7_FILL">
<path fill="#D82C26" stroke="none" d="
M 24.9 -2.55
Q 24.5 -2.75 24.25 -2.75 23.95 -2.75 23.55 -2.55 23.3 -2.4 23.1 -2.05 22.9 -1.8 22.9 -1.35 22.9 -0.85 23.1 -0.6 23.3 -0.25 23.55 -0.1 24.05 0.1 24.25 0.1 24.85 0.1 25.35 -0.25
L 25.25 -0.55 24.85 -0.3
Q 24.65 -0.2 24.3 -0.2 24 -0.2 23.75 -0.35 23.45 -0.55 23.4 -0.75 23.25 -0.95 23.25 -1.3
L 25.5 -1.3 25.5 -1.4
Q 25.5 -1.8 25.35 -2.1 25.2 -2.4 24.9 -2.55
M 24.25 -2.45
Q 24.7 -2.45 24.9 -2.2 25.15 -1.95 25.15 -1.5
L 23.25 -1.5 23.35 -1.95 23.7 -2.3
Q 23.95 -2.45 24.25 -2.45 Z"/>
</g>

<g id="BDM_250x250_FR_psd_Asset_3_V6_2_Augmentez__la_satisfaction_des_clients__et_la_mobilisation__des_0_Layer0_0_MEMBER_8_FILL">
<path fill="#D82C26" stroke="none" d="
M 27.45 -2.4
L 25.85 -0.25 25.85 0 27.9 0 27.95 -0.25 26.2 -0.25 27.85 -2.4 27.85 -2.65 25.9 -2.65 25.85 -2.4 27.45 -2.4 Z"/>
</g>

<g id="BDM_250x250_FR_psd_Asset_3_V6_2_Augmentez__la_satisfaction_des_clients__et_la_mobilisation__des_0_Layer0_0_MEMBER_9_FILL">
<path fill="#D82C26" stroke="none" d="
M 0.65 6.05
L 0.95 6.3 1.1 6 0.9 5.85 0.85 5.55 0.85 1.9 0.55 1.95 0.55 5.65
Q 0.55 5.95 0.65 6.05 Z"/>
</g>

<g id="BDM_250x250_FR_psd_Asset_3_V6_2_Augmentez__la_satisfaction_des_clients__et_la_mobilisation__des_0_Layer0_0_MEMBER_10_FILL">
<path fill="#D82C26" stroke="none" d="
M 1.5 5.5
Q 1.5 5.85 1.75 6.1 2.15 6.3 2.35 6.3 2.65 6.3 2.95 6.15 3.2 6.05 3.35 5.7
L 3.35 5.95 3.4 6.2 3.7 6.2 3.65 4.5
Q 3.65 4 3.4 3.75 3.15 3.5 2.65 3.5
L 2.1 3.55 1.65 3.8 1.75 4.1 2.15 3.85 2.6 3.75
Q 2.95 3.75 3.15 3.95 3.35 4.1 3.35 4.45
L 3.35 4.65 3.05 4.65
Q 1.5 4.65 1.5 5.5
M 2 5.9
Q 1.85 5.75 1.85 5.5 1.85 4.85 3.05 4.85
L 3.35 4.85 3.35 5.1 3.25 5.55
Q 3.25 5.65 2.95 5.9 2.75 6.05 2.4 6.05 2.15 6.05 2 5.9 Z"/>
</g>

<g id="BDM_250x250_FR_psd_Asset_3_V6_2_Augmentez__la_satisfaction_des_clients__et_la_mobilisation__des_0_Layer0_0_MEMBER_11_FILL">
<path fill="#D82C26" stroke="none" d="
M 6.95 3.75
L 6.6 3.55 6.1 3.5 5.7 3.55
Q 5.55 3.6 5.35 3.8
L 5.25 4.2
Q 5.25 4.5 5.45 4.65 5.6 4.85 6 4.95
L 6.55 5.2
Q 6.7 5.35 6.7 5.55 6.7 5.75 6.55 5.9 6.4 6.05 6.15 6.05 5.7 6.05 5.25 5.7
L 5.2 6 5.6 6.2 6.15 6.3 6.6 6.2 6.9 5.95
Q 7.05 5.75 7.05 5.5 7.05 5.25 6.85 5.05
L 5.7 4.5
Q 5.55 4.45 5.55 4.2 5.55 4 5.7 3.85
L 6.15 3.75 6.5 3.8 6.8 4 6.95 3.75 Z"/>
</g>

<g id="BDM_250x250_FR_psd_Asset_3_V6_2_Augmentez__la_satisfaction_des_clients__et_la_mobilisation__des_0_Layer0_0_MEMBER_12_FILL">
<path fill="#D82C26" stroke="none" d="
M 9.1 3.95
Q 9.3 4.1 9.3 4.45
L 9.3 4.65 9 4.65
Q 7.5 4.65 7.5 5.5 7.5 5.9 7.75 6.1 8.05 6.3 8.35 6.3 8.65 6.3 8.95 6.15 9.25 5.95 9.3 5.7
L 9.35 5.7 9.35 5.95 9.4 6.2 9.7 6.2 9.65 4.5
Q 9.65 4 9.35 3.75 9.15 3.5 8.6 3.5
L 8.1 3.55 7.65 3.8 7.75 4.1 8.1 3.85 8.55 3.75
Q 8.95 3.75 9.1 3.95
M 8 5.9
Q 7.8 5.75 7.8 5.5 7.8 4.85 9.05 4.85
L 9.3 4.85 9.3 5.1
Q 9.3 5.4 9.2 5.55 9.15 5.75 8.9 5.9 8.7 6.05 8.4 6.05 8.15 6.05 8 5.9 Z"/>
</g>

<g id="BDM_250x250_FR_psd_Asset_3_V6_2_Augmentez__la_satisfaction_des_clients__et_la_mobilisation__des_0_Layer0_0_MEMBER_13_FILL">
<path fill="#D82C26" stroke="none" d="
M 10.8 2.8
L 10.5 2.95 10.5 3.55 10.05 3.55 10 3.85 10.5 3.85 10.5 5.6
Q 10.5 5.9 10.65 6.1 10.8 6.25 11.1 6.25
L 11.4 6.25 11.65 6.15 11.6 5.9 11.2 6 10.9 5.9 10.8 5.55 10.8 3.85 11.5 3.85 11.55 3.55 10.8 3.55 10.8 2.8 Z"/>
</g>

<g id="BDM_250x250_FR_psd_Asset_3_V6_2_Augmentez__la_satisfaction_des_clients__et_la_mobilisation__des_0_Layer0_0_MEMBER_14_FILL">
<path fill="#D82C26" stroke="none" d="
M 12.45 3.55
L 12.1 3.55 12.1 6.2 12.45 6.2 12.45 3.55
M 12.1 2.7
L 12.25 2.75 12.45 2.7 12.5 2.5 12.45 2.35 12.25 2.25 12.1 2.35 12.05 2.5 12.1 2.7 Z"/>
</g>

<g id="BDM_250x250_FR_psd_Asset_3_V6_2_Augmentez__la_satisfaction_des_clients__et_la_mobilisation__des_0_Layer0_0_MEMBER_15_FILL">
<path fill="#D82C26" stroke="none" d="
M 14.45 3.55
L 13.95 3.5 13.55 3.55
Q 13.4 3.6 13.2 3.8
L 13.1 4.2
Q 13.1 4.5 13.3 4.65 13.45 4.85 13.85 4.95
L 14.4 5.2
Q 14.55 5.35 14.55 5.55 14.55 5.75 14.4 5.9 14.25 6.05 14 6.05 13.55 6.05 13.1 5.7
L 13.05 6 13.45 6.2 14 6.3 14.45 6.2 14.75 5.95
Q 14.9 5.75 14.9 5.5 14.9 5.25 14.7 5.05
L 13.55 4.5
Q 13.4 4.45 13.4 4.2 13.4 4 13.55 3.85
L 14 3.75 14.35 3.8 14.65 4 14.8 3.75 14.45 3.55 Z"/>
</g>

<g id="BDM_250x250_FR_psd_Asset_3_V6_2_Augmentez__la_satisfaction_des_clients__et_la_mobilisation__des_0_Layer0_0_MEMBER_16_FILL">
<path fill="#D82C26" stroke="none" d="
M 17.05 1.95
L 16.55 1.85
Q 16.2 1.85 15.95 2.1 15.75 2.3 15.75 2.8
L 15.75 3.55 15.25 3.55 15.2 3.85 15.75 3.85 15.75 6.2 16.05 6.2 16.05 3.85 16.65 3.85 16.75 3.55 16.05 3.55 16.05 2.8
Q 16.05 2.5 16.2 2.35 16.25 2.15 16.55 2.15
L 17 2.2 17.05 1.95 Z"/>
</g>

<g id="BDM_250x250_FR_psd_Asset_3_V6_2_Augmentez__la_satisfaction_des_clients__et_la_mobilisation__des_0_Layer0_0_MEMBER_17_FILL">
<path fill="#D82C26" stroke="none" d="
M 17 5.5
Q 17 5.9 17.25 6.1 17.55 6.3 17.8 6.3 18.2 6.3 18.4 6.15 18.75 6 18.8 5.7
L 18.85 5.7 18.85 6.2 19.15 6.2 19.15 4.5
Q 19.15 4 18.85 3.75 18.65 3.5 18.1 3.5
L 17.55 3.55 17.15 3.8 17.2 4.1 17.6 3.85 18.05 3.75
Q 18.45 3.75 18.6 3.95 18.8 4.1 18.8 4.45
L 18.8 4.65 18.5 4.65
Q 17 4.65 17 5.5
M 17.45 5.9
Q 17.3 5.75 17.3 5.5 17.3 4.85 18.55 4.85
L 18.8 4.85 18.8 5.1
Q 18.8 5.4 18.7 5.55 18.65 5.75 18.4 5.9 18.2 6.05 17.9 6.05 17.7 6.05 17.45 5.9 Z"/>
</g>

<g id="BDM_250x250_FR_psd_Asset_3_V6_2_Augmentez__la_satisfaction_des_clients__et_la_mobilisation__des_0_Layer0_0_MEMBER_18_FILL">
<path fill="#D82C26" stroke="none" d="
M 22 3.8
L 21.6 3.55 21.1 3.5
Q 20.7 3.5 20.4 3.65
L 19.9 4.15
Q 19.75 4.55 19.75 4.9 19.75 5.3 19.9 5.6 20.1 5.95 20.4 6.1 20.65 6.3 21.1 6.3
L 21.6 6.2
Q 21.8 6.15 22 5.95
L 21.95 5.7 21.6 5.95 21.15 6
Q 20.85 6 20.6 5.85 20.4 5.75 20.2 5.45 20.1 5.3 20.1 4.9 20.1 4.5 20.2 4.35 20.35 4 20.6 3.9 20.85 3.75 21.15 3.75
L 21.55 3.85 21.9 4.05 22 3.8 Z"/>
</g>

<g id="BDM_250x250_FR_psd_Asset_3_V6_2_Augmentez__la_satisfaction_des_clients__et_la_mobilisation__des_0_Layer0_0_MEMBER_19_FILL">
<path fill="#D82C26" stroke="none" d="
M 22.75 3.85
L 22.75 5.6
Q 22.75 5.9 22.9 6.1 23.15 6.25 23.35 6.25
L 23.65 6.25 23.95 6.15 23.9 5.9 23.45 6 23.2 5.9
Q 23.1 5.8 23.1 5.55
L 23.1 3.85 23.75 3.85 23.85 3.55 23.1 3.55 23.1 2.8 22.75 2.95 22.75 3.55 22.35 3.55 22.25 3.85 22.75 3.85 Z"/>
</g>

<g id="BDM_250x250_FR_psd_Asset_3_V6_2_Augmentez__la_satisfaction_des_clients__et_la_mobilisation__des_0_Layer0_0_MEMBER_20_FILL">
<path fill="#D82C26" stroke="none" d="
M 24.7 3.55
L 24.4 3.55 24.4 6.2 24.7 6.2 24.7 3.55
M 24.4 2.7
Q 24.4 2.75 24.55 2.75
L 24.7 2.7 24.8 2.5 24.7 2.35 24.55 2.25 24.4 2.35 24.3 2.5 24.4 2.7 Z"/>
</g>

<g id="BDM_250x250_FR_psd_Asset_3_V6_2_Augmentez__la_satisfaction_des_clients__et_la_mobilisation__des_0_Layer0_0_MEMBER_21_FILL">
<path fill="#D82C26" stroke="none" d="
M 27.45 3.65
Q 27.15 3.5 26.75 3.5 26.4 3.5 26 3.65
L 25.5 4.15
Q 25.35 4.45 25.35 4.9 25.35 5.3 25.5 5.6 25.8 6 26 6.1 26.35 6.3 26.75 6.3 27.2 6.3 27.45 6.1 27.75 6 27.95 5.6 28.15 5.35 28.15 4.9 28.15 4.4 27.95 4.15 27.8 3.85 27.45 3.65
M 27.3 3.9
L 27.7 4.3
Q 27.8 4.5 27.8 4.9 27.8 5.3 27.7 5.45 27.5 5.75 27.3 5.85 27.1 6 26.75 6 26.45 6 26.15 5.85
L 25.8 5.45
Q 25.65 5.25 25.65 4.9 25.65 4.6 25.8 4.3
L 26.15 3.9
Q 26.45 3.75 26.75 3.75 27.1 3.75 27.3 3.9 Z"/>
</g>

<g id="BDM_250x250_FR_psd_Asset_3_V6_2_Augmentez__la_satisfaction_des_clients__et_la_mobilisation__des_0_Layer0_0_MEMBER_22_FILL">
<path fill="#D82C26" stroke="none" d="
M 31.05 4.6
Q 31.05 4.15 30.8 3.8 30.6 3.5 30.05 3.5 29.75 3.5 29.5 3.65 29.25 3.85 29.1 4.15
L 29.1 3.55 28.75 3.55 28.8 6.2 29.1 6.2 29.1 4.85
Q 29.1 4.55 29.25 4.3 29.3 4.05 29.55 3.9 29.8 3.75 30 3.75 30.4 3.75 30.55 4.05 30.7 4.3 30.7 4.7
L 30.7 6.2 31.05 6.2 31.05 4.6 Z"/>
</g>

<g id="BDM_250x250_FR_psd_Asset_3_V6_2_Augmentez__la_satisfaction_des_clients__et_la_mobilisation__des_0_Layer0_0_MEMBER_23_FILL">
<path fill="#D82C26" stroke="none" d="
M 35.35 1.9
L 35 1.95 35 4.15
Q 34.8 3.8 34.55 3.65 34.25 3.5 33.9 3.5 33.55 3.5 33.25 3.65 32.85 3.95 32.75 4.2 32.6 4.5 32.6 4.9 32.6 5.3 32.75 5.6 32.9 5.95 33.25 6.1 33.5 6.3 33.9 6.3 34.3 6.3 34.55 6.1 34.85 5.95 35 5.65
L 35.05 6.2 35.35 6.2 35.35 1.9
M 34.5 3.9
Q 34.75 4.1 34.9 4.35
L 35 4.9 34.9 5.45 34.5 5.85
Q 34.3 6 33.95 6 33.65 6 33.4 5.85
L 33.05 5.45
Q 32.95 5.3 32.95 4.9 32.95 4.5 33.05 4.35 33.2 4.05 33.4 3.9 33.65 3.75 33.95 3.75 34.3 3.75 34.5 3.9 Z"/>
</g>

<g id="BDM_250x250_FR_psd_Asset_3_V6_2_Augmentez__la_satisfaction_des_clients__et_la_mobilisation__des_0_Layer0_0_MEMBER_24_FILL">
<path fill="#D82C26" stroke="none" d="
M 37.95 3.65
Q 37.65 3.5 37.3 3.5 36.9 3.5 36.6 3.65 36.3 3.9 36.15 4.15 35.95 4.55 35.95 4.85 35.95 5.2 36.15 5.6 36.3 5.95 36.65 6.1 36.9 6.3 37.35 6.3 38 6.3 38.4 5.95
L 38.35 5.7 37.9 5.9
Q 37.75 6 37.35 6 37.05 6 36.8 5.85 36.65 5.8 36.45 5.5 36.3 5.2 36.3 4.95
L 38.55 4.95 38.55 4.8
Q 38.55 4.45 38.4 4.15 38.25 3.9 37.95 3.65
M 37.3 3.75
Q 37.7 3.75 37.95 4 38.15 4.2 38.25 4.7
L 36.3 4.7 36.45 4.25
Q 36.5 4.05 36.75 3.9 37 3.75 37.3 3.75 Z"/>
</g>

<g id="BDM_250x250_FR_psd_Asset_3_V6_2_Augmentez__la_satisfaction_des_clients__et_la_mobilisation__des_0_Layer0_0_MEMBER_25_FILL">
<path fill="#D82C26" stroke="none" d="
M 40.6 4
L 40.75 3.75 40.35 3.55 39.9 3.5 39.45 3.55 39.15 3.8
Q 39 4.05 39 4.2 39 4.5 39.2 4.65 39.35 4.85 39.75 4.95
L 40.3 5.2
Q 40.5 5.35 40.5 5.55 40.5 5.75 40.3 5.9 40.15 6.05 39.9 6.05 39.45 6.05 39 5.7
L 38.95 6 39.35 6.2 39.9 6.3 40.35 6.2
Q 40.5 6.15 40.7 5.95
L 40.8 5.5
Q 40.8 5.2 40.6 5.05
L 39.45 4.5
Q 39.3 4.45 39.3 4.2 39.3 4.05 39.5 3.85
L 39.9 3.75 40.25 3.8 40.6 4 Z"/>
</g>

<g id="BDM_250x250_FR_psd_Asset_3_V6_2_Augmentez__la_satisfaction_des_clients__et_la_mobilisation__des_0_Layer0_0_MEMBER_26_FILL">
<path fill="#D82C26" stroke="none" d="
M 42.3 5.6
Q 42.5 5.95 42.8 6.1 43.05 6.3 43.5 6.3
L 44.05 6.2 44.45 5.95 44.4 5.7 44 5.95 43.55 6
Q 43.25 6 43 5.85
L 42.6 5.45 42.5 4.9 42.6 4.35
Q 42.75 4 43 3.9 43.25 3.75 43.55 3.75
L 43.95 3.85 44.3 4.05 44.45 3.8 44.05 3.55 43.55 3.5
Q 43.2 3.5 42.8 3.65
L 42.3 4.15
Q 42.15 4.55 42.15 4.9 42.15 5.3 42.3 5.6 Z"/>
</g>

<g id="BDM_250x250_FR_psd_Asset_3_V6_2_Augmentez__la_satisfaction_des_clients__et_la_mobilisation__des_0_Layer0_0_MEMBER_27_FILL">
<path fill="#D82C26" stroke="none" d="
M 45.05 6.05
Q 45.15 6.25 45.35 6.3
L 45.5 6 45.3 5.85 45.25 5.55 45.25 1.9 44.9 1.95 44.9 5.65
Q 44.9 5.9 45.05 6.05 Z"/>
</g>

<g id="BDM_250x250_FR_psd_Asset_3_V6_2_Augmentez__la_satisfaction_des_clients__et_la_mobilisation__des_0_Layer0_0_MEMBER_28_FILL">
<path fill="#D82C26" stroke="none" d="
M 46.45 3.55
L 46.1 3.55 46.1 6.2 46.45 6.2 46.45 3.55
M 46.1 2.7
L 46.25 2.75
Q 46.4 2.75 46.4 2.7
L 46.5 2.5 46.4 2.35 46.25 2.25 46.1 2.35 46 2.5 46.1 2.7 Z"/>
</g>

<g id="BDM_250x250_FR_psd_Asset_3_V6_2_Augmentez__la_satisfaction_des_clients__et_la_mobilisation__des_0_Layer0_0_MEMBER_29_FILL">
<path fill="#D82C26" stroke="none" d="
M 47.25 5.6
Q 47.45 5.95 47.7 6.1 47.95 6.3 48.4 6.3 49.1 6.3 49.45 5.95
L 49.4 5.7 49 5.9
Q 48.8 6 48.45 6 48.15 6 47.9 5.85 47.7 5.8 47.5 5.5
L 47.4 4.95 49.6 4.95 49.65 4.8
Q 49.65 4.45 49.5 4.15 49.35 3.9 49.05 3.65 48.75 3.5 48.35 3.5 48 3.5 47.7 3.65 47.4 3.9 47.25 4.15 47.05 4.4 47.05 4.85 47.05 5.35 47.25 5.6
M 47.5 4.25
L 47.85 3.9
Q 48.1 3.75 48.35 3.75 48.8 3.75 49.05 4 49.3 4.35 49.3 4.7
L 47.4 4.7 47.5 4.25 Z"/>
</g>

<g id="BDM_250x250_FR_psd_Asset_3_V6_2_Augmentez__la_satisfaction_des_clients__et_la_mobilisation__des_0_Layer0_0_MEMBER_30_FILL">
<path fill="#D82C26" stroke="none" d="
M 51.55 3.5
Q 51.25 3.5 50.95 3.65 50.65 3.95 50.6 4.15
L 50.55 3.55 50.25 3.55 50.25 6.2 50.6 6.2 50.6 4.85 50.7 4.3
Q 50.85 4.05 51.05 3.9 51.2 3.75 51.5 3.75 51.85 3.75 52.05 4.05 52.2 4.3 52.2 4.7
L 52.2 6.2 52.55 6.2 52.55 4.6
Q 52.55 4.15 52.3 3.8 52.1 3.5 51.55 3.5 Z"/>
</g>

<g id="BDM_250x250_FR_psd_Asset_3_V6_2_Augmentez__la_satisfaction_des_clients__et_la_mobilisation__des_0_Layer0_0_MEMBER_31_FILL">
<path fill="#D82C26" stroke="none" d="
M 53.7 2.8
L 53.35 2.95 53.35 3.55 52.95 3.55 52.85 3.85 53.35 3.85 53.35 5.6
Q 53.35 5.9 53.55 6.1 53.7 6.25 54 6.25
L 54.3 6.25 54.55 6.15 54.5 5.9 54.1 6
Q 53.9 6 53.8 5.9
L 53.7 5.55 53.7 3.85 54.4 3.85 54.45 3.55 53.7 3.55 53.7 2.8 Z"/>
</g>

<g id="BDM_250x250_FR_psd_Asset_3_V6_2_Augmentez__la_satisfaction_des_clients__et_la_mobilisation__des_0_Layer0_0_MEMBER_32_FILL">
<path fill="#D82C26" stroke="none" d="
M 56.25 3.55
L 55.8 3.5 55.4 3.55 55.05 3.8
Q 54.9 4.05 54.9 4.2 54.9 4.45 55.1 4.65 55.35 4.9 55.65 4.95
L 56.25 5.2
Q 56.4 5.35 56.4 5.55 56.4 5.75 56.25 5.9 56.05 6.05 55.8 6.05 55.3 6.05 54.95 5.7
L 54.85 6 55.3 6.2 55.8 6.3 56.25 6.2
Q 56.4 6.15 56.6 5.95 56.7 5.8 56.7 5.5 56.7 5.2 56.5 5.05
L 55.4 4.5
Q 55.25 4.45 55.25 4.2 55.25 4 55.4 3.85
L 55.8 3.75 56.2 3.8 56.5 4 56.65 3.75 56.25 3.55 Z"/>
</g>

<g id="BDM_250x250_FR_psd_Asset_3_V6_2_Augmentez__la_satisfaction_des_clients__et_la_mobilisation__des_0_Layer0_0_MEMBER_33_FILL">
<path fill="#D82C26" stroke="none" d="
M 2.3 9.85
Q 2 9.7 1.65 9.7 1.2 9.7 0.95 9.9 0.65 10.05 0.5 10.35 0.3 10.7 0.3 11.1 0.3 11.55 0.5 11.8 0.65 12.15 0.95 12.3 1.3 12.5 1.65 12.5 2.35 12.5 2.75 12.15
L 2.65 11.9 2.25 12.15 1.7 12.25
Q 1.4 12.25 1.15 12.1 0.85 11.9 0.8 11.7 0.65 11.5 0.65 11.15
L 2.9 11.15 2.9 11
Q 2.9 10.65 2.75 10.35 2.6 10.1 2.3 9.85
M 1.65 9.95
Q 2.05 9.95 2.3 10.2 2.55 10.55 2.55 10.9
L 0.65 10.9 0.75 10.5 1.1 10.1
Q 1.35 9.95 1.65 9.95 Z"/>
</g>

<g id="BDM_250x250_FR_psd_Asset_3_V6_2_Augmentez__la_satisfaction_des_clients__et_la_mobilisation__des_0_Layer0_0_MEMBER_34_FILL">
<path fill="#D82C26" stroke="none" d="
M 3.9 9
L 3.55 9.15 3.55 9.8 3.15 9.8 3.05 10.05 3.55 10.05 3.55 11.8
Q 3.55 12.1 3.75 12.3 3.95 12.5 4.2 12.5
L 4.5 12.45 4.75 12.35 4.7 12.1 4.3 12.2
Q 4.1 12.2 4 12.1
L 3.9 11.75 3.9 10.05 4.6 10.05 4.65 9.8 3.9 9.8 3.9 9 Z"/>
</g>

<g id="BDM_250x250_FR_psd_Asset_3_V6_2_Augmentez__la_satisfaction_des_clients__et_la_mobilisation__des_0_Layer0_0_MEMBER_35_FILL">
<path fill="#D82C26" stroke="none" d="
M 6.2 12.25
L 6.5 12.5 6.65 12.2 6.45 12.05 6.4 11.75 6.4 8.1 6.1 8.2 6.1 11.85 6.2 12.25 Z"/>
</g>

<g id="BDM_250x250_FR_psd_Asset_3_V6_2_Augmentez__la_satisfaction_des_clients__et_la_mobilisation__des_0_Layer0_0_MEMBER_36_FILL">
<path fill="#D82C26" stroke="none" d="
M 7.05 11.7
Q 7.05 12.05 7.3 12.3 7.55 12.5 7.9 12.5 8.3 12.5 8.5 12.35 8.85 12.2 8.9 11.9
L 8.95 12.2 8.95 12.45 9.25 12.45 9.2 10.7
Q 9.2 10.15 8.95 9.95 8.6 9.7 8.2 9.7
L 7.65 9.8 7.2 10.05 7.3 10.3 7.7 10.05 8.15 9.95
Q 8.5 9.95 8.7 10.15 8.9 10.3 8.9 10.7
L 8.9 10.85 8.6 10.85
Q 7.05 10.85 7.05 11.7
M 7.55 12.1
Q 7.4 12.05 7.4 11.7 7.4 11.05 8.65 11.05
L 8.9 11.05 8.9 11.35
Q 8.9 11.6 8.8 11.75 8.75 11.95 8.5 12.1 8.3 12.25 8 12.25 7.8 12.25 7.55 12.1 Z"/>
</g>

<g id="BDM_250x250_FR_psd_Asset_3_V6_2_Augmentez__la_satisfaction_des_clients__et_la_mobilisation__des_0_Layer0_0_MEMBER_37_FILL">
<path fill="#D82C26" stroke="none" d="
M 11.4 10.5
L 11.7 10.1 12.15 10
Q 12.45 10 12.65 10.2 12.8 10.45 12.8 10.85
L 12.8 12.45 13.15 12.45 13.15 11.05
Q 13.15 10.55 13.35 10.3 13.6 10 13.95 10 14.4 10 14.5 10.25 14.65 10.55 14.65 10.9
L 14.65 12.45 15 12.45 15 10.85
Q 15 10.4 14.75 10.05 14.55 9.7 14.05 9.7 13.65 9.7 13.45 9.9 13.15 10.1 13.1 10.4 12.95 10.05 12.75 9.9 12.55 9.7 12.2 9.7 11.9 9.7 11.65 9.9 11.35 10.1 11.3 10.35
L 11.25 9.8 10.95 9.8 10.95 12.45 11.3 12.45 11.3 11.1 11.4 10.5 Z"/>
</g>

<g id="BDM_250x250_FR_psd_Asset_3_V6_2_Augmentez__la_satisfaction_des_clients__et_la_mobilisation__des_0_Layer0_0_MEMBER_38_FILL">
<path fill="#D82C26" stroke="none" d="
M 16.3 9.9
Q 15.95 10.1 15.8 10.35 15.6 10.7 15.6 11.1 15.6 11.55 15.8 11.8 15.95 12.1 16.3 12.3 16.55 12.5 17 12.5 17.4 12.5 17.75 12.3 18.05 12.15 18.25 11.8 18.4 11.5 18.4 11.1
L 18.25 10.35
Q 18 10.05 17.75 9.9 17.4 9.7 17 9.7 16.55 9.7 16.3 9.9
M 17 10
Q 17.3 10 17.6 10.15 17.85 10.3 17.95 10.55 18.1 10.8 18.1 11.1 18.1 11.45 17.95 11.65 17.85 11.9 17.6 12.05 17.3 12.2 17 12.2 16.7 12.2 16.45 12.05 16.15 11.85 16.05 11.65
L 15.95 11.1 16.05 10.55
Q 16.15 10.35 16.45 10.15 16.7 10 17 10 Z"/>
</g>

<g id="BDM_250x250_FR_psd_Asset_3_V6_2_Augmentez__la_satisfaction_des_clients__et_la_mobilisation__des_0_Layer0_0_MEMBER_39_FILL">
<path fill="#D82C26" stroke="none" d="
M 21.15 9.9
Q 20.9 9.7 20.45 9.7 20.15 9.7 19.85 9.85 19.55 10.1 19.4 10.35
L 19.4 8.1 19.05 8.15 19 12.45 19.35 12.45 19.35 11.85 19.4 11.85
Q 19.55 12.15 19.8 12.35 20.1 12.5 20.45 12.5 20.9 12.5 21.15 12.3 21.45 12.15 21.6 11.8 21.8 11.55 21.8 11.1 21.8 10.65 21.6 10.4 21.4 10.05 21.15 9.9
M 20.95 10.15
Q 21.2 10.3 21.35 10.55
L 21.45 11.1 21.35 11.65
Q 21.2 11.9 20.95 12.05 20.75 12.2 20.4 12.2 20.15 12.2 19.9 12.05 19.65 11.9 19.5 11.65 19.35 11.45 19.35 11.1 19.35 10.8 19.5 10.55 19.65 10.3 19.9 10.15 20.15 10 20.4 10 20.75 10 20.95 10.15 Z"/>
</g>

<g id="BDM_250x250_FR_psd_Asset_3_V6_2_Augmentez__la_satisfaction_des_clients__et_la_mobilisation__des_0_Layer0_0_MEMBER_40_FILL">
<path fill="#D82C26" stroke="none" d="
M 22.75 9.8
L 22.4 9.8 22.4 12.45 22.75 12.45 22.75 9.8
M 22.4 8.9
L 22.6 8.95 22.75 8.9 22.8 8.7 22.75 8.55 22.6 8.5 22.4 8.55 22.35 8.7 22.4 8.9 Z"/>
</g>

<g id="BDM_250x250_FR_psd_Asset_3_V6_2_Augmentez__la_satisfaction_des_clients__et_la_mobilisation__des_0_Layer0_0_MEMBER_41_FILL">
<path fill="#D82C26" stroke="none" d="
M 23.7 12.25
Q 23.8 12.45 24 12.5
L 24.15 12.2 23.95 12.05 23.9 11.75 23.9 8.1 23.55 8.2 23.55 11.85
Q 23.55 12.1 23.7 12.25 Z"/>
</g>

<g id="BDM_250x250_FR_psd_Asset_3_V6_2_Augmentez__la_satisfaction_des_clients__et_la_mobilisation__des_0_Layer0_0_MEMBER_42_FILL">
<path fill="#D82C26" stroke="none" d="
M 25.05 9.8
L 24.75 9.8 24.75 12.45 25.05 12.45 25.05 9.8
M 24.75 8.9
L 24.9 8.95 25.05 8.9 25.15 8.7 25.05 8.55 24.9 8.5 24.75 8.55 24.65 8.7 24.75 8.9 Z"/>
</g>

<g id="BDM_250x250_FR_psd_Asset_3_V6_2_Augmentez__la_satisfaction_des_clients__et_la_mobilisation__des_0_Layer0_0_MEMBER_43_FILL">
<path fill="#D82C26" stroke="none" d="
M 27.05 9.8
L 26.6 9.7 26.15 9.8
Q 25.95 9.9 25.85 10.05 25.7 10.2 25.7 10.45 25.7 10.7 25.9 10.9 26.2 11.1 26.45 11.15
L 27 11.4
Q 27.2 11.55 27.2 11.75 27.2 11.95 27 12.1 26.85 12.25 26.6 12.25 26.05 12.25 25.7 11.9
L 25.65 12.2
Q 25.75 12.3 26.1 12.4
L 26.6 12.5 27.05 12.4 27.4 12.15 27.5 11.75
Q 27.5 11.45 27.3 11.25
L 26.2 10.7
Q 26.05 10.65 26.05 10.4 26.05 10.2 26.2 10.1 26.35 9.95 26.6 9.95
L 27 10.05 27.3 10.2 27.45 10 27.05 9.8 Z"/>
</g>

<g id="BDM_250x250_FR_psd_Asset_3_V6_2_Augmentez__la_satisfaction_des_clients__et_la_mobilisation__des_0_Layer0_0_MEMBER_44_FILL">
<path fill="#D82C26" stroke="none" d="
M 29.6 10.15
Q 29.8 10.3 29.8 10.7
L 29.8 10.85 29.5 10.85
Q 27.95 10.85 27.95 11.7 27.95 12.05 28.2 12.3 28.45 12.5 28.8 12.5 29.1 12.5 29.4 12.35 29.65 12.25 29.8 11.9
L 29.8 12.2 29.85 12.45 30.15 12.45 30.1 10.7
Q 30.1 10.2 29.85 9.95 29.5 9.7 29.1 9.7
L 28.55 9.8 28.1 10.05 28.2 10.3 28.6 10.05 29.05 9.95
Q 29.3 9.95 29.6 10.15
M 28.45 12.1
Q 28.3 12.05 28.3 11.7 28.3 11.05 29.5 11.05
L 29.8 11.05 29.8 11.35 29.7 11.75
Q 29.7 11.85 29.4 12.1 29.2 12.25 28.85 12.25 28.6 12.25 28.45 12.1 Z"/>
</g>

<g id="BDM_250x250_FR_psd_Asset_3_V6_2_Augmentez__la_satisfaction_des_clients__et_la_mobilisation__des_0_Layer0_0_MEMBER_45_FILL">
<path fill="#D82C26" stroke="none" d="
M 31.3 9
L 30.95 9.15 30.95 9.8 30.55 9.8 30.45 10.05 30.95 10.05 30.95 11.8
Q 30.95 12.15 31.15 12.3 31.35 12.5 31.6 12.5
L 31.9 12.45 32.15 12.35 32.1 12.1 31.65 12.2 31.4 12.1
Q 31.3 12 31.3 11.75
L 31.3 10.05 31.95 10.05 32.05 9.8 31.3 9.8 31.3 9 Z"/>
</g>

<g id="BDM_250x250_FR_psd_Asset_3_V6_2_Augmentez__la_satisfaction_des_clients__et_la_mobilisation__des_0_Layer0_0_MEMBER_46_FILL">
<path fill="#D82C26" stroke="none" d="
M 32.9 9.8
L 32.6 9.8 32.6 12.45 32.9 12.45 32.9 9.8
M 32.6 8.9
L 32.75 8.95 32.9 8.9 33 8.7 32.9 8.55 32.75 8.5 32.6 8.55 32.5 8.7 32.6 8.9 Z"/>
</g>

<g id="BDM_250x250_FR_psd_Asset_3_V6_2_Augmentez__la_satisfaction_des_clients__et_la_mobilisation__des_0_Layer0_0_MEMBER_47_FILL">
<path fill="#D82C26" stroke="none" d="
M 34.95 9.7
Q 34.5 9.7 34.25 9.9 33.95 10 33.7 10.35
L 33.55 11.1
Q 33.55 11.5 33.7 11.8 33.9 12.15 34.25 12.3 34.5 12.5 34.95 12.5 35.4 12.5 35.65 12.3 36 12.15 36.2 11.8 36.35 11.5 36.35 11.1
L 36.2 10.35
Q 35.95 10 35.65 9.9 35.4 9.7 34.95 9.7
M 34.4 10.15
Q 34.65 10 34.95 10 35.3 10 35.5 10.15 35.75 10.3 35.9 10.55 36.05 10.8 36.05 11.1 36.05 11.45 35.9 11.65 35.75 11.9 35.5 12.05 35.3 12.2 34.95 12.2 34.65 12.2 34.4 12.05 34.15 11.9 34 11.65 33.85 11.45 33.85 11.1 33.85 10.8 34 10.55 34.15 10.3 34.4 10.15 Z"/>
</g>

<g id="BDM_250x250_FR_psd_Asset_3_V6_2_Augmentez__la_satisfaction_des_clients__et_la_mobilisation__des_0_Layer0_0_MEMBER_48_FILL">
<path fill="#D82C26" stroke="none" d="
M 36.95 9.8
L 37 10.4 37 12.45 37.35 12.45 37.35 11.1
Q 37.35 10.65 37.45 10.5 37.5 10.35 37.75 10.1 37.9 10 38.2 10 38.65 10 38.75 10.25 38.95 10.55 38.95 10.9
L 38.95 12.45 39.25 12.45 39.25 10.8
Q 39.25 10.3 39 10 38.8 9.7 38.3 9.7 37.9 9.7 37.7 9.9 37.45 10 37.3 10.35
L 37.3 9.8 36.95 9.8 Z"/>
</g>

<g id="BDM_250x250_FR_psd_Asset_3_V6_2_Augmentez__la_satisfaction_des_clients__et_la_mobilisation__des_0_Layer0_0_MEMBER_49_FILL">
<path fill="#D82C26" stroke="none" d="
M 3.05 14.3
L 2.75 14.35 2.75 16.55 2.7 16.55
Q 2.55 16.25 2.25 16.1 2.05 15.9 1.65 15.9 1.35 15.9 0.95 16.1 0.7 16.25 0.5 16.6 0.3 16.85 0.3 17.3 0.3 17.7 0.5 18.05 0.65 18.3 0.95 18.55 1.25 18.7 1.65 18.7 2.05 18.7 2.25 18.55 2.45 18.45 2.75 18.05
L 2.75 18.65 3.1 18.65 3.05 14.3
M 1.7 16.2
Q 1.95 16.2 2.25 16.35
L 2.6 16.75
Q 2.75 17.05 2.75 17.3 2.75 17.6 2.6 17.9
L 2.25 18.3
Q 1.95 18.45 1.7 18.45 1.4 18.45 1.15 18.3 0.85 18.1 0.8 17.9 0.65 17.6 0.65 17.3 0.65 17.05 0.8 16.75 0.85 16.55 1.15 16.35 1.4 16.2 1.7 16.2 Z"/>
</g>

<g id="BDM_250x250_FR_psd_Asset_3_V6_2_Augmentez__la_satisfaction_des_clients__et_la_mobilisation__des_0_Layer0_0_MEMBER_50_FILL">
<path fill="#D82C26" stroke="none" d="
M 6.1 16.55
Q 5.95 16.3 5.7 16.1 5.45 15.9 5 15.9 4.6 15.9 4.35 16.1 4.05 16.25 3.85 16.6 3.7 16.9 3.7 17.3 3.7 17.7 3.85 18.05
L 4.35 18.55
Q 4.65 18.7 5.05 18.7 5.65 18.7 6.1 18.4
L 6.05 18.1
Q 5.85 18.3 5.6 18.35
L 5.1 18.45
Q 4.8 18.45 4.55 18.3 4.35 18.2 4.15 17.9 4 17.7 4 17.35
L 6.25 17.35 6.25 17.2
Q 6.25 16.85 6.1 16.55
M 5.7 16.45
Q 5.95 16.7 5.95 17.1
L 4 17.1 4.15 16.7 4.5 16.3
Q 4.75 16.15 5 16.15 5.4 16.15 5.7 16.45 Z"/>
</g>

<g id="BDM_250x250_FR_psd_Asset_3_V6_2_Augmentez__la_satisfaction_des_clients__et_la_mobilisation__des_0_Layer0_0_MEMBER_51_FILL">
<path fill="#D82C26" stroke="none" d="
M 6.75 18.15
L 6.7 18.4
Q 6.9 18.6 7.1 18.65
L 7.65 18.7 8.05 18.65
Q 8.3 18.45 8.4 18.35 8.55 18.2 8.55 17.95 8.55 17.7 8.35 17.5 8.15 17.3 7.7 17.15 7.55 17.1 7.2 16.95 7.05 16.8 7.05 16.6 7.05 16.4 7.2 16.3 7.3 16.2 7.6 16.2
L 8 16.25 8.3 16.45 8.45 16.2 8.1 16 7.6 15.9 7.2 16
Q 7.05 16.05 6.85 16.25 6.75 16.35 6.75 16.65 6.75 16.95 6.9 17.1
L 7.5 17.4
Q 7.75 17.45 8.05 17.65 8.2 17.75 8.2 17.95 8.2 18.25 8.05 18.3 7.85 18.45 7.6 18.45 7.15 18.45 6.75 18.15 Z"/>
</g>

<g id="BDM_250x250_FR_psd_Asset_3_V6_2_Augmentez__la_satisfaction_des_clients__et_la_mobilisation__des_0_Layer0_0_MEMBER_52_FILL">
<path fill="#D82C26" stroke="none" d="
M 9.85 17.3
Q 9.85 17.8 10.05 18.05 10.2 18.35 10.55 18.55 10.85 18.7 11.25 18.7
L 11.75 18.65 12.15 18.4 12.1 18.1 11.7 18.35 11.25 18.45
Q 10.95 18.45 10.7 18.3 10.4 18.1 10.35 17.9 10.2 17.6 10.2 17.3 10.2 17.05 10.35 16.75 10.4 16.55 10.7 16.35 10.95 16.2 11.25 16.2
L 11.65 16.25 12 16.5 12.15 16.25 11.75 16 11.25 15.9
Q 10.8 15.9 10.55 16.1 10.2 16.25 10.05 16.6 9.85 16.85 9.85 17.3 Z"/>
</g>

<g id="BDM_250x250_FR_psd_Asset_3_V6_2_Augmentez__la_satisfaction_des_clients__et_la_mobilisation__des_0_Layer0_0_MEMBER_53_FILL">
<path fill="#D82C26" stroke="none" d="
M 12.6 16.6
Q 12.4 17 12.4 17.3 12.4 17.55 12.6 18.05
L 13.1 18.55
Q 13.4 18.7 13.85 18.7 14.25 18.7 14.55 18.55 14.95 18.25 15.05 18.05 15.25 17.7 15.25 17.3 15.25 16.85 15.05 16.6 14.95 16.3 14.55 16.1 14.3 15.9 13.85 15.9 13.35 15.9 13.1 16.1 12.8 16.25 12.6 16.6
M 14.4 16.35
L 14.8 16.75 14.9 17.3 14.8 17.85
Q 14.65 18.15 14.4 18.3 14.2 18.45 13.85 18.45 13.55 18.45 13.25 18.3 12.95 18.1 12.9 17.85 12.75 17.65 12.75 17.3 12.75 17 12.9 16.75 12.95 16.55 13.25 16.35 13.55 16.2 13.85 16.2 14.2 16.2 14.4 16.35 Z"/>
</g>

<g id="BDM_250x250_FR_psd_Asset_3_V6_2_Augmentez__la_satisfaction_des_clients__et_la_mobilisation__des_0_Layer0_0_MEMBER_54_FILL">
<path fill="#D82C26" stroke="none" d="
M 17.15 15.9
Q 16.9 15.9 16.6 16.1 16.35 16.2 16.2 16.55
L 16.15 16 15.85 16 15.9 16.6 15.9 18.65 16.2 18.65 16.2 17.3
Q 16.2 16.95 16.35 16.7 16.45 16.45 16.65 16.3
L 17.1 16.2
Q 17.5 16.2 17.65 16.45 17.8 16.75 17.8 17.1
L 17.8 18.65 18.15 18.65 18.15 17
Q 18.15 16.6 17.9 16.25 17.7 15.9 17.15 15.9 Z"/>
</g>

<g id="BDM_250x250_FR_psd_Asset_3_V6_2_Augmentez__la_satisfaction_des_clients__et_la_mobilisation__des_0_Layer0_0_MEMBER_55_FILL">
<path fill="#D82C26" stroke="none" d="
M 20.35 16.45
L 20.5 16.2 20.1 16 19.65 15.9 19.25 16 18.9 16.25
Q 18.75 16.4 18.75 16.65 18.75 16.9 18.95 17.1
L 19.55 17.4
Q 19.8 17.45 20.1 17.65 20.25 17.75 20.25 17.95 20.25 18.25 20.1 18.3 19.9 18.45 19.65 18.45 19.1 18.45 18.8 18.15
L 18.7 18.4
Q 19.05 18.6 19.15 18.65
L 19.65 18.7 20.1 18.65 20.45 18.35
Q 20.55 18.25 20.55 17.95 20.55 17.65 20.35 17.5 20.2 17.3 19.75 17.15 19.6 17.1 19.25 16.95 19.1 16.8 19.1 16.6 19.1 16.4 19.25 16.3 19.35 16.2 19.65 16.2
L 20.05 16.25 20.35 16.45 Z"/>
</g>

<g id="BDM_250x250_FR_psd_Asset_3_V6_2_Augmentez__la_satisfaction_des_clients__et_la_mobilisation__des_0_Layer0_0_MEMBER_56_FILL">
<path fill="#D82C26" stroke="none" d="
M 22.4 15.9
Q 21.95 15.9 21.7 16.1 21.35 16.25 21.15 16.6 21 16.9 21 17.3 21 17.7 21.15 18.05 21.4 18.35 21.7 18.55 22 18.7 22.4 18.7 22.8 18.7 23.1 18.55 23.45 18.35 23.6 18.05 23.8 17.7 23.8 17.3 23.8 16.85 23.6 16.6 23.45 16.25 23.1 16.1 22.85 15.9 22.4 15.9
M 21.85 16.35
Q 22.1 16.2 22.4 16.2 22.75 16.2 22.95 16.35 23.15 16.45 23.35 16.75 23.45 16.9 23.45 17.3 23.45 17.7 23.35 17.85 23.2 18.2 22.95 18.3 22.75 18.45 22.4 18.45 22.1 18.45 21.85 18.3 21.6 18.2 21.45 17.85 21.3 17.65 21.3 17.3 21.3 17 21.45 16.75 21.65 16.45 21.85 16.35 Z"/>
</g>

<g id="BDM_250x250_FR_psd_Asset_3_V6_2_Augmentez__la_satisfaction_des_clients__et_la_mobilisation__des_0_Layer0_0_MEMBER_57_FILL">
<path fill="#D82C26" stroke="none" d="
M 26.25 16.1
Q 25.95 15.9 25.7 15.9 25.45 15.9 25.15 16.1 24.9 16.2 24.75 16.55
L 24.75 16 24.4 16 24.45 16.6 24.45 18.65 24.8 18.65 24.8 17.3
Q 24.8 16.9 24.9 16.7 25 16.4 25.2 16.35 25.35 16.2 25.6 16.2 25.95 16.2 26.1 16.4 26.3 16.8 26.3 17.1
L 26.3 18.65 26.6 18.65 26.6 17.25
Q 26.6 16.85 26.85 16.5 27.1 16.2 27.45 16.2 27.75 16.2 28 16.45 28.15 16.75 28.15 17.15
L 28.15 18.65 28.45 18.65 28.45 17.05
Q 28.45 16.5 28.25 16.25 28.05 15.9 27.5 15.9 27.25 15.9 26.95 16.1 26.75 16.2 26.55 16.6 26.45 16.25 26.25 16.1 Z"/>
</g>

<g id="BDM_250x250_FR_psd_Asset_3_V6_2_Augmentez__la_satisfaction_des_clients__et_la_mobilisation__des_0_Layer0_0_MEMBER_58_FILL">
<path fill="#D82C26" stroke="none" d="
M 29.6 17.3
L 29.7 16.7
Q 29.8 16.4 30 16.35 30.25 16.2 30.4 16.2 30.75 16.2 30.9 16.4 31.1 16.65 31.1 17.1
L 31.1 18.65 31.4 18.65 31.4 17.25
Q 31.4 16.85 31.65 16.5 31.9 16.2 32.25 16.2 32.65 16.2 32.8 16.45 32.95 16.75 32.95 17.15
L 32.95 18.65 33.3 18.65 33.3 17.05
Q 33.3 16.6 33.05 16.25 32.85 15.9 32.3 15.9 32.05 15.9 31.75 16.1 31.55 16.2 31.35 16.6 31.25 16.25 31.05 16.1 30.75 15.9 30.5 15.9 30.25 15.9 29.95 16.1 29.65 16.3 29.6 16.55
L 29.55 16.55 29.55 16 29.25 16 29.25 18.65 29.6 18.65 29.6 17.3 Z"/>
</g>

<g id="BDM_250x250_FR_psd_Asset_3_V6_2_Augmentez__la_satisfaction_des_clients__et_la_mobilisation__des_0_Layer0_0_MEMBER_59_FILL">
<path fill="#D82C26" stroke="none" d="
M 35.7 16.9
L 35.7 17.05 35.4 17.05
Q 33.9 17.05 33.9 17.95 33.9 18.35 34.1 18.5 34.35 18.7 34.7 18.7 35.1 18.7 35.3 18.55 35.6 18.4 35.7 18.15
L 35.75 18.4 35.75 18.65 36.05 18.65 36 16.9
Q 36 16.4 35.75 16.15 35.4 15.9 35 15.9
L 34.45 16 34 16.25 34.1 16.5 34.5 16.25 34.95 16.2
Q 35.35 16.2 35.5 16.35 35.7 16.55 35.7 16.9
M 35.7 17.55
Q 35.7 17.85 35.6 17.95 35.5 18.2 35.3 18.35
L 34.8 18.45 34.35 18.35
Q 34.2 18.2 34.2 17.9 34.2 17.25 35.45 17.25
L 35.7 17.25 35.7 17.55 Z"/>
</g>

<g id="BDM_250x250_FR_psd_Asset_3_V6_2_Augmentez__la_satisfaction_des_clients__et_la_mobilisation__des_0_Layer0_0_MEMBER_60_FILL">
<path fill="#D82C26" stroke="none" d="
M 37.2 15.25
L 36.85 15.35 36.85 16 36.45 16 36.4 16.25 36.85 16.25 36.85 18
Q 36.85 18.3 37.05 18.5 37.2 18.7 37.5 18.7
L 37.8 18.65 38.05 18.55 38 18.3 37.6 18.45
Q 37.4 18.45 37.3 18.3
L 37.2 17.95 37.2 16.25 37.9 16.25 37.95 16 37.2 16 37.2 15.25 Z"/>
</g>

<g id="BDM_250x250_FR_psd_Asset_3_V6_2_Augmentez__la_satisfaction_des_clients__et_la_mobilisation__des_0_Layer0_0_MEMBER_61_FILL">
<path fill="#D82C26" stroke="none" d="
M 40.8 17.2
Q 40.8 16.85 40.65 16.55 40.5 16.25 40.2 16.1 40 15.9 39.55 15.9 39.1 15.9 38.85 16.1 38.55 16.25 38.4 16.6 38.2 17 38.2 17.3 38.2 17.55 38.4 18.05 38.5 18.25 38.9 18.55 39.2 18.7 39.6 18.7 40.2 18.7 40.65 18.4
L 40.6 18.1 40.15 18.35 39.6 18.45
Q 39.3 18.45 39.05 18.3
L 38.7 17.9
Q 38.55 17.7 38.55 17.35
L 40.8 17.35 40.8 17.2
M 39.55 16.15
Q 40 16.15 40.2 16.45 40.4 16.6 40.5 17.1
L 38.55 17.1 38.7 16.7
Q 38.8 16.45 39 16.3 39.25 16.15 39.55 16.15 Z"/>
</g>

<g id="BDM_250x250_FR_psd_Asset_3_V6_2_Augmentez__la_satisfaction_des_clients__et_la_mobilisation__des_0_Layer0_0_MEMBER_62_FILL">
<path fill="#D82C26" stroke="none" d="
M 41.4 17.6
Q 41.4 18.15 41.6 18.4 41.85 18.7 42.35 18.7 42.65 18.7 42.95 18.55 43.25 18.25 43.3 18.05
L 43.35 18.65 43.7 18.65 43.65 18.35 43.65 16 43.3 16 43.3 17.3 43.2 17.9 42.9 18.3
Q 42.7 18.45 42.45 18.45 42.1 18.45 41.85 18.2 41.7 17.9 41.7 17.5
L 41.7 16 41.4 16 41.4 17.6 Z"/>
</g>

<g id="BDM_250x250_FR_psd_Asset_3_V6_2_Augmentez__la_satisfaction_des_clients__et_la_mobilisation__des_0_Layer0_0_MEMBER_63_FILL">
<path fill="#D82C26" stroke="none" d="
M 45.8 16.25
L 45.85 15.95 45.55 15.9
Q 45.3 15.9 45.1 16.1 44.9 16.25 44.8 16.55
L 44.75 16 44.45 16 44.45 18.65 44.8 18.65 44.8 17.3
Q 44.8 16.8 45 16.55 45.2 16.2 45.55 16.2
L 45.8 16.25 Z"/>
</g>

<g id="BDM_250x250_FR_psd_Asset_3_V6_2_Augmentez__la_satisfaction_des_clients__et_la_mobilisation__des_0_Layer0_0_MEMBER_64_FILL">
<path fill="#D82C26" stroke="none" d="
M 47.45 16
L 47 15.9 46.55 16 46.25 16.25
Q 46.1 16.4 46.1 16.65 46.1 16.9 46.3 17.1
L 46.85 17.4
Q 47.25 17.5 47.4 17.65 47.6 17.7 47.6 17.95 47.6 18.25 47.4 18.3 47.25 18.45 47 18.45 46.5 18.45 46.1 18.15
L 46.05 18.4
Q 46.25 18.6 46.5 18.65
L 47 18.7 47.45 18.65
Q 47.7 18.45 47.8 18.35
L 47.9 17.95
Q 47.9 17.65 47.7 17.5 47.55 17.3 47.1 17.15 46.95 17.1 46.6 16.95 46.45 16.8 46.45 16.6 46.45 16.4 46.6 16.3 46.7 16.2 47 16.2
L 47.4 16.25 47.7 16.45 47.85 16.2 47.45 16 Z"/>
</g>

<g id="BDM_250x250_FR_psd_Asset_3_V6_2_Augmentez__la_satisfaction_des_clients__et_la_mobilisation__des_0_Layer0_0_MEMBER_65_FILL">
<path fill="#D82C26" stroke="none" d="
M 48.6 18.6
L 48.75 18.7 48.95 18.6 49 18.4 48.95 18.25 48.75 18.15 48.6 18.25 48.5 18.4 48.6 18.6 Z"/>
</g>
</defs>

<g transform="matrix( 1, 0, 0, 1, -20,15) ">
<g transform="matrix( 1, 0, 0, 1, 10,0) ">
<g transform="matrix( 1, 0, 0, 1, 30,13) ">
<g transform="matrix( 3.5196380615234375, 0, 0, 3.540771484375, 0.2,14.8) ">
<use xlink:href="#BDM_250x250_FR_psd_Asset_3_V6_2_Augmentez__la_satisfaction_des_clients__et_la_mobilisation__des_0_Layer0_0_MEMBER_0_FILL"/>
</g>

<g transform="matrix( 3.5196380615234375, 0, 0, 3.540771484375, 0.2,14.8) ">
<use xlink:href="#BDM_250x250_FR_psd_Asset_3_V6_2_Augmentez__la_satisfaction_des_clients__et_la_mobilisation__des_0_Layer0_0_MEMBER_1_FILL"/>
</g>

<g transform="matrix( 3.5196380615234375, 0, 0, 3.540771484375, 0.2,14.8) ">
<use xlink:href="#BDM_250x250_FR_psd_Asset_3_V6_2_Augmentez__la_satisfaction_des_clients__et_la_mobilisation__des_0_Layer0_0_MEMBER_2_FILL"/>
</g>

<g transform="matrix( 3.5196380615234375, 0, 0, 3.540771484375, 0.2,14.8) ">
<use xlink:href="#BDM_250x250_FR_psd_Asset_3_V6_2_Augmentez__la_satisfaction_des_clients__et_la_mobilisation__des_0_Layer0_0_MEMBER_3_FILL"/>
</g>

<g transform="matrix( 3.5196380615234375, 0, 0, 3.540771484375, 0.2,14.8) ">
<use xlink:href="#BDM_250x250_FR_psd_Asset_3_V6_2_Augmentez__la_satisfaction_des_clients__et_la_mobilisation__des_0_Layer0_0_MEMBER_4_FILL"/>
</g>

<g transform="matrix( 3.5196380615234375, 0, 0, 3.540771484375, 0.2,14.8) ">
<use xlink:href="#BDM_250x250_FR_psd_Asset_3_V6_2_Augmentez__la_satisfaction_des_clients__et_la_mobilisation__des_0_Layer0_0_MEMBER_5_FILL"/>
</g>

<g transform="matrix( 3.5196380615234375, 0, 0, 3.540771484375, 0.2,14.8) ">
<use xlink:href="#BDM_250x250_FR_psd_Asset_3_V6_2_Augmentez__la_satisfaction_des_clients__et_la_mobilisation__des_0_Layer0_0_MEMBER_6_FILL"/>
</g>

<g transform="matrix( 3.5196380615234375, 0, 0, 3.540771484375, 0.2,14.8) ">
<use xlink:href="#BDM_250x250_FR_psd_Asset_3_V6_2_Augmentez__la_satisfaction_des_clients__et_la_mobilisation__des_0_Layer0_0_MEMBER_7_FILL"/>
</g>

<g transform="matrix( 3.5196380615234375, 0, 0, 3.540771484375, 0.2,14.8) ">
<use xlink:href="#BDM_250x250_FR_psd_Asset_3_V6_2_Augmentez__la_satisfaction_des_clients__et_la_mobilisation__des_0_Layer0_0_MEMBER_8_FILL"/>
</g>

<g transform="matrix( 3.5196380615234375, 0, 0, 3.540771484375, 0.2,14.8) ">
<use xlink:href="#BDM_250x250_FR_psd_Asset_3_V6_2_Augmentez__la_satisfaction_des_clients__et_la_mobilisation__des_0_Layer0_0_MEMBER_9_FILL"/>
</g>

<g transform="matrix( 3.5196380615234375, 0, 0, 3.540771484375, 0.2,14.8) ">
<use xlink:href="#BDM_250x250_FR_psd_Asset_3_V6_2_Augmentez__la_satisfaction_des_clients__et_la_mobilisation__des_0_Layer0_0_MEMBER_10_FILL"/>
</g>

<g transform="matrix( 3.5196380615234375, 0, 0, 3.540771484375, 0.2,14.8) ">
<use xlink:href="#BDM_250x250_FR_psd_Asset_3_V6_2_Augmentez__la_satisfaction_des_clients__et_la_mobilisation__des_0_Layer0_0_MEMBER_11_FILL"/>
</g>

<g transform="matrix( 3.5196380615234375, 0, 0, 3.540771484375, 0.2,14.8) ">
<use xlink:href="#BDM_250x250_FR_psd_Asset_3_V6_2_Augmentez__la_satisfaction_des_clients__et_la_mobilisation__des_0_Layer0_0_MEMBER_12_FILL"/>
</g>

<g transform="matrix( 3.5196380615234375, 0, 0, 3.540771484375, 0.2,14.8) ">
<use xlink:href="#BDM_250x250_FR_psd_Asset_3_V6_2_Augmentez__la_satisfaction_des_clients__et_la_mobilisation__des_0_Layer0_0_MEMBER_13_FILL"/>
</g>

<g transform="matrix( 3.5196380615234375, 0, 0, 3.540771484375, 0.2,14.8) ">
<use xlink:href="#BDM_250x250_FR_psd_Asset_3_V6_2_Augmentez__la_satisfaction_des_clients__et_la_mobilisation__des_0_Layer0_0_MEMBER_14_FILL"/>
</g>

<g transform="matrix( 3.5196380615234375, 0, 0, 3.540771484375, 0.2,14.8) ">
<use xlink:href="#BDM_250x250_FR_psd_Asset_3_V6_2_Augmentez__la_satisfaction_des_clients__et_la_mobilisation__des_0_Layer0_0_MEMBER_15_FILL"/>
</g>

<g transform="matrix( 3.5196380615234375, 0, 0, 3.540771484375, 0.2,14.8) ">
<use xlink:href="#BDM_250x250_FR_psd_Asset_3_V6_2_Augmentez__la_satisfaction_des_clients__et_la_mobilisation__des_0_Layer0_0_MEMBER_16_FILL"/>
</g>

<g transform="matrix( 3.5196380615234375, 0, 0, 3.540771484375, 0.2,14.8) ">
<use xlink:href="#BDM_250x250_FR_psd_Asset_3_V6_2_Augmentez__la_satisfaction_des_clients__et_la_mobilisation__des_0_Layer0_0_MEMBER_17_FILL"/>
</g>

<g transform="matrix( 3.5196380615234375, 0, 0, 3.540771484375, 0.2,14.8) ">
<use xlink:href="#BDM_250x250_FR_psd_Asset_3_V6_2_Augmentez__la_satisfaction_des_clients__et_la_mobilisation__des_0_Layer0_0_MEMBER_18_FILL"/>
</g>

<g transform="matrix( 3.5196380615234375, 0, 0, 3.540771484375, 0.2,14.8) ">
<use xlink:href="#BDM_250x250_FR_psd_Asset_3_V6_2_Augmentez__la_satisfaction_des_clients__et_la_mobilisation__des_0_Layer0_0_MEMBER_19_FILL"/>
</g>

<g transform="matrix( 3.5196380615234375, 0, 0, 3.540771484375, 0.2,14.8) ">
<use xlink:href="#BDM_250x250_FR_psd_Asset_3_V6_2_Augmentez__la_satisfaction_des_clients__et_la_mobilisation__des_0_Layer0_0_MEMBER_20_FILL"/>
</g>

<g transform="matrix( 3.5196380615234375, 0, 0, 3.540771484375, 0.2,14.8) ">
<use xlink:href="#BDM_250x250_FR_psd_Asset_3_V6_2_Augmentez__la_satisfaction_des_clients__et_la_mobilisation__des_0_Layer0_0_MEMBER_21_FILL"/>
</g>

<g transform="matrix( 3.5196380615234375, 0, 0, 3.540771484375, 0.2,14.8) ">
<use xlink:href="#BDM_250x250_FR_psd_Asset_3_V6_2_Augmentez__la_satisfaction_des_clients__et_la_mobilisation__des_0_Layer0_0_MEMBER_22_FILL"/>
</g>

<g transform="matrix( 3.5196380615234375, 0, 0, 3.540771484375, 0.2,14.8) ">
<use xlink:href="#BDM_250x250_FR_psd_Asset_3_V6_2_Augmentez__la_satisfaction_des_clients__et_la_mobilisation__des_0_Layer0_0_MEMBER_23_FILL"/>
</g>

<g transform="matrix( 3.5196380615234375, 0, 0, 3.540771484375, 0.2,14.8) ">
<use xlink:href="#BDM_250x250_FR_psd_Asset_3_V6_2_Augmentez__la_satisfaction_des_clients__et_la_mobilisation__des_0_Layer0_0_MEMBER_24_FILL"/>
</g>

<g transform="matrix( 3.5196380615234375, 0, 0, 3.540771484375, 0.2,14.8) ">
<use xlink:href="#BDM_250x250_FR_psd_Asset_3_V6_2_Augmentez__la_satisfaction_des_clients__et_la_mobilisation__des_0_Layer0_0_MEMBER_25_FILL"/>
</g>

<g transform="matrix( 3.5196380615234375, 0, 0, 3.540771484375, 0.2,14.8) ">
<use xlink:href="#BDM_250x250_FR_psd_Asset_3_V6_2_Augmentez__la_satisfaction_des_clients__et_la_mobilisation__des_0_Layer0_0_MEMBER_26_FILL"/>
</g>

<g transform="matrix( 3.5196380615234375, 0, 0, 3.540771484375, 0.2,14.8) ">
<use xlink:href="#BDM_250x250_FR_psd_Asset_3_V6_2_Augmentez__la_satisfaction_des_clients__et_la_mobilisation__des_0_Layer0_0_MEMBER_27_FILL"/>
</g>

<g transform="matrix( 3.5196380615234375, 0, 0, 3.540771484375, 0.2,14.8) ">
<use xlink:href="#BDM_250x250_FR_psd_Asset_3_V6_2_Augmentez__la_satisfaction_des_clients__et_la_mobilisation__des_0_Layer0_0_MEMBER_28_FILL"/>
</g>

<g transform="matrix( 3.5196380615234375, 0, 0, 3.540771484375, 0.2,14.8) ">
<use xlink:href="#BDM_250x250_FR_psd_Asset_3_V6_2_Augmentez__la_satisfaction_des_clients__et_la_mobilisation__des_0_Layer0_0_MEMBER_29_FILL"/>
</g>

<g transform="matrix( 3.5196380615234375, 0, 0, 3.540771484375, 0.2,14.8) ">
<use xlink:href="#BDM_250x250_FR_psd_Asset_3_V6_2_Augmentez__la_satisfaction_des_clients__et_la_mobilisation__des_0_Layer0_0_MEMBER_30_FILL"/>
</g>

<g transform="matrix( 3.5196380615234375, 0, 0, 3.540771484375, 0.2,14.8) ">
<use xlink:href="#BDM_250x250_FR_psd_Asset_3_V6_2_Augmentez__la_satisfaction_des_clients__et_la_mobilisation__des_0_Layer0_0_MEMBER_31_FILL"/>
</g>

<g transform="matrix( 3.5196380615234375, 0, 0, 3.540771484375, 0.2,14.8) ">
<use xlink:href="#BDM_250x250_FR_psd_Asset_3_V6_2_Augmentez__la_satisfaction_des_clients__et_la_mobilisation__des_0_Layer0_0_MEMBER_32_FILL"/>
</g>

<g transform="matrix( 3.5196380615234375, 0, 0, 3.540771484375, 0.2,14.8) ">
<use xlink:href="#BDM_250x250_FR_psd_Asset_3_V6_2_Augmentez__la_satisfaction_des_clients__et_la_mobilisation__des_0_Layer0_0_MEMBER_33_FILL"/>
</g>

<g transform="matrix( 3.5196380615234375, 0, 0, 3.540771484375, 0.2,14.8) ">
<use xlink:href="#BDM_250x250_FR_psd_Asset_3_V6_2_Augmentez__la_satisfaction_des_clients__et_la_mobilisation__des_0_Layer0_0_MEMBER_34_FILL"/>
</g>

<g transform="matrix( 3.5196380615234375, 0, 0, 3.540771484375, 0.2,14.8) ">
<use xlink:href="#BDM_250x250_FR_psd_Asset_3_V6_2_Augmentez__la_satisfaction_des_clients__et_la_mobilisation__des_0_Layer0_0_MEMBER_35_FILL"/>
</g>

<g transform="matrix( 3.5196380615234375, 0, 0, 3.540771484375, 0.2,14.8) ">
<use xlink:href="#BDM_250x250_FR_psd_Asset_3_V6_2_Augmentez__la_satisfaction_des_clients__et_la_mobilisation__des_0_Layer0_0_MEMBER_36_FILL"/>
</g>

<g transform="matrix( 3.5196380615234375, 0, 0, 3.540771484375, 0.2,14.8) ">
<use xlink:href="#BDM_250x250_FR_psd_Asset_3_V6_2_Augmentez__la_satisfaction_des_clients__et_la_mobilisation__des_0_Layer0_0_MEMBER_37_FILL"/>
</g>

<g transform="matrix( 3.5196380615234375, 0, 0, 3.540771484375, 0.2,14.8) ">
<use xlink:href="#BDM_250x250_FR_psd_Asset_3_V6_2_Augmentez__la_satisfaction_des_clients__et_la_mobilisation__des_0_Layer0_0_MEMBER_38_FILL"/>
</g>

<g transform="matrix( 3.5196380615234375, 0, 0, 3.540771484375, 0.2,14.8) ">
<use xlink:href="#BDM_250x250_FR_psd_Asset_3_V6_2_Augmentez__la_satisfaction_des_clients__et_la_mobilisation__des_0_Layer0_0_MEMBER_39_FILL"/>
</g>

<g transform="matrix( 3.5196380615234375, 0, 0, 3.540771484375, 0.2,14.8) ">
<use xlink:href="#BDM_250x250_FR_psd_Asset_3_V6_2_Augmentez__la_satisfaction_des_clients__et_la_mobilisation__des_0_Layer0_0_MEMBER_40_FILL"/>
</g>

<g transform="matrix( 3.5196380615234375, 0, 0, 3.540771484375, 0.2,14.8) ">
<use xlink:href="#BDM_250x250_FR_psd_Asset_3_V6_2_Augmentez__la_satisfaction_des_clients__et_la_mobilisation__des_0_Layer0_0_MEMBER_41_FILL"/>
</g>

<g transform="matrix( 3.5196380615234375, 0, 0, 3.540771484375, 0.2,14.8) ">
<use xlink:href="#BDM_250x250_FR_psd_Asset_3_V6_2_Augmentez__la_satisfaction_des_clients__et_la_mobilisation__des_0_Layer0_0_MEMBER_42_FILL"/>
</g>

<g transform="matrix( 3.5196380615234375, 0, 0, 3.540771484375, 0.2,14.8) ">
<use xlink:href="#BDM_250x250_FR_psd_Asset_3_V6_2_Augmentez__la_satisfaction_des_clients__et_la_mobilisation__des_0_Layer0_0_MEMBER_43_FILL"/>
</g>

<g transform="matrix( 3.5196380615234375, 0, 0, 3.540771484375, 0.2,14.8) ">
<use xlink:href="#BDM_250x250_FR_psd_Asset_3_V6_2_Augmentez__la_satisfaction_des_clients__et_la_mobilisation__des_0_Layer0_0_MEMBER_44_FILL"/>
</g>

<g transform="matrix( 3.5196380615234375, 0, 0, 3.540771484375, 0.2,14.8) ">
<use xlink:href="#BDM_250x250_FR_psd_Asset_3_V6_2_Augmentez__la_satisfaction_des_clients__et_la_mobilisation__des_0_Layer0_0_MEMBER_45_FILL"/>
</g>

<g transform="matrix( 3.5196380615234375, 0, 0, 3.540771484375, 0.2,14.8) ">
<use xlink:href="#BDM_250x250_FR_psd_Asset_3_V6_2_Augmentez__la_satisfaction_des_clients__et_la_mobilisation__des_0_Layer0_0_MEMBER_46_FILL"/>
</g>

<g transform="matrix( 3.5196380615234375, 0, 0, 3.540771484375, 0.2,14.8) ">
<use xlink:href="#BDM_250x250_FR_psd_Asset_3_V6_2_Augmentez__la_satisfaction_des_clients__et_la_mobilisation__des_0_Layer0_0_MEMBER_47_FILL"/>
</g>

<g transform="matrix( 3.5196380615234375, 0, 0, 3.540771484375, 0.2,14.8) ">
<use xlink:href="#BDM_250x250_FR_psd_Asset_3_V6_2_Augmentez__la_satisfaction_des_clients__et_la_mobilisation__des_0_Layer0_0_MEMBER_48_FILL"/>
</g>

<g transform="matrix( 3.5196380615234375, 0, 0, 3.540771484375, 0.2,14.8) ">
<use xlink:href="#BDM_250x250_FR_psd_Asset_3_V6_2_Augmentez__la_satisfaction_des_clients__et_la_mobilisation__des_0_Layer0_0_MEMBER_49_FILL"/>
</g>

<g transform="matrix( 3.5196380615234375, 0, 0, 3.540771484375, 0.2,14.8) ">
<use xlink:href="#BDM_250x250_FR_psd_Asset_3_V6_2_Augmentez__la_satisfaction_des_clients__et_la_mobilisation__des_0_Layer0_0_MEMBER_50_FILL"/>
</g>

<g transform="matrix( 3.5196380615234375, 0, 0, 3.540771484375, 0.2,14.8) ">
<use xlink:href="#BDM_250x250_FR_psd_Asset_3_V6_2_Augmentez__la_satisfaction_des_clients__et_la_mobilisation__des_0_Layer0_0_MEMBER_51_FILL"/>
</g>

<g transform="matrix( 3.5196380615234375, 0, 0, 3.540771484375, 0.2,14.8) ">
<use xlink:href="#BDM_250x250_FR_psd_Asset_3_V6_2_Augmentez__la_satisfaction_des_clients__et_la_mobilisation__des_0_Layer0_0_MEMBER_52_FILL"/>
</g>

<g transform="matrix( 3.5196380615234375, 0, 0, 3.540771484375, 0.2,14.8) ">
<use xlink:href="#BDM_250x250_FR_psd_Asset_3_V6_2_Augmentez__la_satisfaction_des_clients__et_la_mobilisation__des_0_Layer0_0_MEMBER_53_FILL"/>
</g>

<g transform="matrix( 3.5196380615234375, 0, 0, 3.540771484375, 0.2,14.8) ">
<use xlink:href="#BDM_250x250_FR_psd_Asset_3_V6_2_Augmentez__la_satisfaction_des_clients__et_la_mobilisation__des_0_Layer0_0_MEMBER_54_FILL"/>
</g>

<g transform="matrix( 3.5196380615234375, 0, 0, 3.540771484375, 0.2,14.8) ">
<use xlink:href="#BDM_250x250_FR_psd_Asset_3_V6_2_Augmentez__la_satisfaction_des_clients__et_la_mobilisation__des_0_Layer0_0_MEMBER_55_FILL"/>
</g>

<g transform="matrix( 3.5196380615234375, 0, 0, 3.540771484375, 0.2,14.8) ">
<use xlink:href="#BDM_250x250_FR_psd_Asset_3_V6_2_Augmentez__la_satisfaction_des_clients__et_la_mobilisation__des_0_Layer0_0_MEMBER_56_FILL"/>
</g>

<g transform="matrix( 3.5196380615234375, 0, 0, 3.540771484375, 0.2,14.8) ">
<use xlink:href="#BDM_250x250_FR_psd_Asset_3_V6_2_Augmentez__la_satisfaction_des_clients__et_la_mobilisation__des_0_Layer0_0_MEMBER_57_FILL"/>
</g>

<g transform="matrix( 3.5196380615234375, 0, 0, 3.540771484375, 0.2,14.8) ">
<use xlink:href="#BDM_250x250_FR_psd_Asset_3_V6_2_Augmentez__la_satisfaction_des_clients__et_la_mobilisation__des_0_Layer0_0_MEMBER_58_FILL"/>
</g>

<g transform="matrix( 3.5196380615234375, 0, 0, 3.540771484375, 0.2,14.8) ">
<use xlink:href="#BDM_250x250_FR_psd_Asset_3_V6_2_Augmentez__la_satisfaction_des_clients__et_la_mobilisation__des_0_Layer0_0_MEMBER_59_FILL"/>
</g>

<g transform="matrix( 3.5196380615234375, 0, 0, 3.540771484375, 0.2,14.8) ">
<use xlink:href="#BDM_250x250_FR_psd_Asset_3_V6_2_Augmentez__la_satisfaction_des_clients__et_la_mobilisation__des_0_Layer0_0_MEMBER_60_FILL"/>
</g>

<g transform="matrix( 3.5196380615234375, 0, 0, 3.540771484375, 0.2,14.8) ">
<use xlink:href="#BDM_250x250_FR_psd_Asset_3_V6_2_Augmentez__la_satisfaction_des_clients__et_la_mobilisation__des_0_Layer0_0_MEMBER_61_FILL"/>
</g>

<g transform="matrix( 3.5196380615234375, 0, 0, 3.540771484375, 0.2,14.8) ">
<use xlink:href="#BDM_250x250_FR_psd_Asset_3_V6_2_Augmentez__la_satisfaction_des_clients__et_la_mobilisation__des_0_Layer0_0_MEMBER_62_FILL"/>
</g>

<g transform="matrix( 3.5196380615234375, 0, 0, 3.540771484375, 0.2,14.8) ">
<use xlink:href="#BDM_250x250_FR_psd_Asset_3_V6_2_Augmentez__la_satisfaction_des_clients__et_la_mobilisation__des_0_Layer0_0_MEMBER_63_FILL"/>
</g>

<g transform="matrix( 3.5196380615234375, 0, 0, 3.540771484375, 0.2,14.8) ">
<use xlink:href="#BDM_250x250_FR_psd_Asset_3_V6_2_Augmentez__la_satisfaction_des_clients__et_la_mobilisation__des_0_Layer0_0_MEMBER_64_FILL"/>
</g>

<g transform="matrix( 3.5196380615234375, 0, 0, 3.540771484375, 0.2,14.8) ">
<use xlink:href="#BDM_250x250_FR_psd_Asset_3_V6_2_Augmentez__la_satisfaction_des_clients__et_la_mobilisation__des_0_Layer0_0_MEMBER_65_FILL"/>
</g>
</g>
</g>
</g>
</svg>
