
<svg xmlns="http://www.w3.org/2000/svg" version="1.1" xmlns:xlink="http://www.w3.org/1999/xlink" preserveAspectRatio="none" x="0px" y="0px" width="728px" height="90px" viewBox="0 0 728 90">
<defs>
<g id="IT_728x90_psd_Asset_ManagedWiFi_IT_Eval_DM5_2_Help_your_IT_team_save_time__0_Layer0_0_MEMBER_0_FILL">
<path fill="#D82C26" stroke="none" d="
M 1.4 -6.35
L 0.85 -6.35 0.85 0 1.4 0 1.4 -3.05 5.35 -3.05 5.35 0 5.9 0 5.9 -6.35 5.35 -6.35 5.35 -3.55 1.4 -3.55 1.4 -6.35 Z"/>
</g>

<g id="IT_728x90_psd_Asset_ManagedWiFi_IT_Eval_DM5_2_Help_your_IT_team_save_time__0_Layer0_0_MEMBER_1_FILL">
<path fill="#D82C26" stroke="none" d="
M 8.35 -4.05
Q 7.9 -3.75 7.6 -3.25 7.35 -2.75 7.35 -2.15 7.35 -1.55 7.6 -0.95 7.9 -0.45 8.4 -0.15 8.85 0.15 9.5 0.15 10.4 0.15 11.2 -0.4
L 11.1 -0.85
Q 10.7 -0.55 10.4 -0.45 10.05 -0.3 9.55 -0.3 9.1 -0.3 8.7 -0.55 8.35 -0.75 8.1 -1.15 7.85 -1.55 7.85 -2.05
L 11.4 -2.05 11.45 -2.25
Q 11.45 -2.8 11.2 -3.3 11 -3.7 10.5 -4.05 10.05 -4.35 9.45 -4.35 8.9 -4.35 8.35 -4.05
M 8.6 -3.7
Q 8.95 -3.9 9.45 -3.9 10.15 -3.9 10.5 -3.5 10.85 -3.2 10.95 -2.4
L 7.85 -2.4 8.05 -3.1
Q 8.3 -3.5 8.6 -3.7 Z"/>
</g>

<g id="IT_728x90_psd_Asset_ManagedWiFi_IT_Eval_DM5_2_Help_your_IT_team_save_time__0_Layer0_0_MEMBER_2_FILL">
<path fill="#D82C26" stroke="none" d="
M 12.75 -0.95
Q 12.75 -0.5 12.95 -0.25 13.15 0.05 13.4 0.1
L 13.65 -0.35
Q 13.45 -0.4 13.35 -0.6
L 13.25 -1.05 13.25 -6.85 12.75 -6.75 12.75 -0.95 Z"/>
</g>

<g id="IT_728x90_psd_Asset_ManagedWiFi_IT_Eval_DM5_2_Help_your_IT_team_save_time__0_Layer0_0_MEMBER_3_FILL">
<path fill="#D82C26" stroke="none" d="
M 19 -3.25
Q 18.8 -3.7 18.3 -4.05 17.8 -4.35 17.2 -4.35 16.7 -4.35 16.15 -4.05 15.8 -3.8 15.45 -3.3
L 15.4 -4.2 14.9 -4.2 14.9 2.15 15.45 2.15 15.45 -0.9 15.5 -0.9
Q 15.75 -0.4 16.2 -0.15 16.6 0.1 17.2 0.1 17.8 0.1 18.3 -0.2 18.75 -0.4 19 -0.95 19.3 -1.45 19.3 -2.1 19.3 -2.7 19 -3.25
M 16.25 -3.65
Q 16.65 -3.9 17.1 -3.9 17.55 -3.9 17.95 -3.65 18.3 -3.45 18.55 -3 18.75 -2.6 18.75 -2.1 18.75 -1.6 18.55 -1.2 18.3 -0.75 17.95 -0.55 17.55 -0.3 17.1 -0.3 16.65 -0.3 16.25 -0.55 15.85 -0.85 15.65 -1.2 15.45 -1.6 15.45 -2.1 15.45 -2.6 15.65 -3 15.9 -3.45 16.25 -3.65 Z"/>
</g>

<g id="IT_728x90_psd_Asset_ManagedWiFi_IT_Eval_DM5_2_Help_your_IT_team_save_time__0_Layer0_0_MEMBER_4_FILL">
<path fill="#D82C26" stroke="none" d="
M 22.6 -4.2
L 22 -4.2 23.8 0.05 23.45 0.9
Q 23.3 1.35 23.05 1.5 22.65 1.7 22.3 1.7
L 22.4 2.15
Q 23 2.15 23.35 1.9 23.75 1.6 23.95 1.05
L 25.9 -4.2 25.35 -4.2 24.05 -0.55 22.6 -4.2 Z"/>
</g>

<g id="IT_728x90_psd_Asset_ManagedWiFi_IT_Eval_DM5_2_Help_your_IT_team_save_time__0_Layer0_0_MEMBER_5_FILL">
<path fill="#D82C26" stroke="none" d="
M 29.9 -4.05
Q 29.4 -4.35 28.75 -4.35 28.15 -4.35 27.6 -4.05 27.1 -3.75 26.8 -3.25 26.5 -2.8 26.5 -2.1 26.5 -1.45 26.8 -0.95 27.1 -0.45 27.6 -0.15 28.15 0.15 28.75 0.15 29.4 0.15 29.9 -0.15 30.4 -0.45 30.7 -0.95 31 -1.45 31 -2.1 31 -2.8 30.7 -3.25 30.4 -3.75 29.9 -4.05
M 28.75 -3.9
Q 29.25 -3.9 29.65 -3.65 30.05 -3.4 30.25 -3 30.45 -2.65 30.45 -2.1 30.45 -1.6 30.25 -1.2 30.05 -0.85 29.65 -0.55 29.25 -0.3 28.75 -0.3 28.25 -0.3 27.85 -0.55 27.45 -0.85 27.25 -1.2 27.05 -1.6 27.05 -2.1 27.05 -2.65 27.25 -3 27.45 -3.4 27.85 -3.65 28.25 -3.9 28.75 -3.9 Z"/>
</g>

<g id="IT_728x90_psd_Asset_ManagedWiFi_IT_Eval_DM5_2_Help_your_IT_team_save_time__0_Layer0_0_MEMBER_6_FILL">
<path fill="#D82C26" stroke="none" d="
M 32.8 -4.2
L 32.25 -4.2 32.25 -1.65
Q 32.25 -0.9 32.65 -0.4 33 0.1 33.8 0.1 34.25 0.1 34.75 -0.15 35.15 -0.45 35.35 -0.9
L 35.4 0 35.95 0 35.85 -1 35.85 -4.2 35.35 -4.2 35.35 -2.1
Q 35.35 -1.5 35.15 -1.15 35 -0.75 34.65 -0.55 34.3 -0.3 33.95 -0.3 33.35 -0.3 33.05 -0.75 32.8 -1.15 32.8 -1.8
L 32.8 -4.2 Z"/>
</g>

<g id="IT_728x90_psd_Asset_ManagedWiFi_IT_Eval_DM5_2_Help_your_IT_team_save_time__0_Layer0_0_MEMBER_7_FILL">
<path fill="#D82C26" stroke="none" d="
M 38.5 -4.05
Q 38.15 -3.65 38 -3.3
L 37.95 -4.2 37.45 -4.2 37.5 0 38 0 38 -2.1
Q 38 -2.75 38.35 -3.35 38.65 -3.85 39.2 -3.85
L 39.6 -3.8 39.7 -4.25 39.25 -4.35
Q 38.9 -4.35 38.5 -4.05 Z"/>
</g>

<g id="IT_728x90_psd_Asset_ManagedWiFi_IT_Eval_DM5_2_Help_your_IT_team_save_time__0_Layer0_0_MEMBER_8_FILL">
<path fill="#D82C26" stroke="none" d="
M 43.2 -6.35
L 42.65 -6.35 42.65 0 43.2 0 43.2 -6.35 Z"/>
</g>

<g id="IT_728x90_psd_Asset_ManagedWiFi_IT_Eval_DM5_2_Help_your_IT_team_save_time__0_Layer0_0_MEMBER_9_FILL">
<path fill="#D82C26" stroke="none" d="
M 44.25 -5.85
L 46.3 -5.85 46.3 0 46.85 0 46.85 -5.85 48.75 -5.85 48.85 -6.35 44.35 -6.35 44.25 -5.85 Z"/>
</g>

<g id="IT_728x90_psd_Asset_ManagedWiFi_IT_Eval_DM5_2_Help_your_IT_team_save_time__0_Layer0_0_MEMBER_10_FILL">
<path fill="#D82C26" stroke="none" d="
M 53.5 -3.8
L 53.6 -4.2 52.4 -4.2 52.4 -5.4 51.85 -5.2 51.85 -4.2 51.2 -4.2 51.1 -3.8 51.9 -3.8 51.9 -1
Q 51.9 -0.45 52.15 -0.2 52.4 0.1 52.85 0.1
L 53.35 0.05 53.75 -0.15 53.7 -0.55
Q 53.35 -0.35 53 -0.35 52.8 -0.35 52.55 -0.5 52.4 -0.7 52.4 -1.1
L 52.4 -3.8 53.5 -3.8 Z"/>
</g>

<g id="IT_728x90_psd_Asset_ManagedWiFi_IT_Eval_DM5_2_Help_your_IT_team_save_time__0_Layer0_0_MEMBER_11_FILL">
<path fill="#D82C26" stroke="none" d="
M 54.6 -0.95
Q 54.9 -0.45 55.4 -0.15 55.85 0.15 56.5 0.15 57.45 0.15 58.15 -0.4
L 58.1 -0.85 57.4 -0.45
Q 57.05 -0.3 56.55 -0.3 56.15 -0.3 55.65 -0.55 55.3 -0.75 55.05 -1.15 54.85 -1.65 54.85 -2.05
L 58.4 -2.05 58.4 -2.25
Q 58.4 -2.9 58.2 -3.3 58 -3.7 57.5 -4.05 57.05 -4.35 56.4 -4.35 55.9 -4.35 55.35 -4.05 54.9 -3.75 54.6 -3.25 54.35 -2.75 54.35 -2.15 54.35 -1.55 54.6 -0.95
M 55.05 -3.1
Q 55.3 -3.5 55.6 -3.7 55.95 -3.9 56.4 -3.9 57.15 -3.9 57.5 -3.5 57.9 -3.1 57.9 -2.4
L 54.85 -2.4
Q 54.85 -2.6 55.05 -3.1 Z"/>
</g>

<g id="IT_728x90_psd_Asset_ManagedWiFi_IT_Eval_DM5_2_Help_your_IT_team_save_time__0_Layer0_0_MEMBER_12_FILL">
<path fill="#D82C26" stroke="none" d="
M 59.4 -1.15
Q 59.4 -0.45 59.8 -0.2 60.2 0.1 60.7 0.1 61.3 0.1 61.65 -0.1 62.1 -0.4 62.3 -0.8
L 62.4 0 62.85 0 62.8 -2.75
Q 62.8 -3.5 62.35 -3.95 61.95 -4.35 61.2 -4.35 60.75 -4.35 60.3 -4.2 59.8 -4 59.6 -3.8
L 59.75 -3.4 60.4 -3.75 61.1 -3.9
Q 61.65 -3.9 62 -3.6 62.3 -3.35 62.3 -2.75
L 62.3 -2.5 61.8 -2.5
Q 59.4 -2.5 59.4 -1.15
M 60.15 -0.5
Q 59.9 -0.7 59.9 -1.15 59.9 -2.15 61.85 -2.15
L 62.3 -2.15 62.3 -1.75
Q 62.3 -1.4 62.15 -1.05
L 61.65 -0.5
Q 61.3 -0.3 60.85 -0.3 60.4 -0.3 60.15 -0.5 Z"/>
</g>

<g id="IT_728x90_psd_Asset_ManagedWiFi_IT_Eval_DM5_2_Help_your_IT_team_save_time__0_Layer0_0_MEMBER_13_FILL">
<path fill="#D82C26" stroke="none" d="
M 64.8 -4.2
L 64.3 -4.2 64.35 0 64.9 0 64.9 -2.1
Q 64.9 -2.65 65.05 -3.05 65.25 -3.5 65.55 -3.7 65.95 -3.9 66.2 -3.9 66.7 -3.9 67 -3.5 67.25 -3.25 67.25 -2.5
L 67.25 0 67.8 0 67.8 -2.15
Q 67.8 -3 68.15 -3.4 68.5 -3.9 69.1 -3.9 69.75 -3.9 69.95 -3.45 70.25 -3.05 70.25 -2.4
L 70.25 0 70.75 0 70.75 -2.5
Q 70.75 -3.4 70.4 -3.8 70 -4.35 69.25 -4.35 68.7 -4.35 68.3 -4.05 67.9 -3.75 67.7 -3.25 67.55 -3.75 67.2 -4.05 66.85 -4.35 66.35 -4.35 65.85 -4.35 65.45 -4.05 65.05 -3.7 64.9 -3.3
L 64.85 -3.3 64.8 -4.2 Z"/>
</g>

<g id="IT_728x90_psd_Asset_ManagedWiFi_IT_Eval_DM5_2_Help_your_IT_team_save_time__0_Layer0_0_MEMBER_14_FILL">
<path fill="#D82C26" stroke="none" d="
M 74.95 -3.75
Q 75.2 -3.9 75.6 -3.9 76 -3.9 76.2 -3.8
L 76.7 -3.5 76.9 -3.9 76.3 -4.2
Q 76 -4.35 75.55 -4.35 75.2 -4.35 74.9 -4.2 74.5 -4 74.35 -3.8 74.15 -3.5 74.15 -3.2 74.15 -2.65 74.45 -2.45
L 75.35 -2
Q 76.1 -1.7 76.25 -1.6 76.5 -1.4 76.5 -1.1 76.5 -0.7 76.25 -0.5 76 -0.3 75.6 -0.3 74.7 -0.3 74.2 -0.8
L 74.1 -0.35
Q 74.3 -0.15 74.75 0
L 75.6 0.1 76.3 0
Q 76.65 -0.2 76.8 -0.45 77.05 -0.8 77.05 -1.1 77.05 -1.5 76.7 -1.85 76.45 -2.1 75.75 -2.35
L 74.9 -2.7
Q 74.65 -2.95 74.65 -3.2 74.65 -3.5 74.95 -3.75 Z"/>
</g>

<g id="IT_728x90_psd_Asset_ManagedWiFi_IT_Eval_DM5_2_Help_your_IT_team_save_time__0_Layer0_0_MEMBER_15_FILL">
<path fill="#D82C26" stroke="none" d="
M 79.8 -3.9
Q 80.35 -3.9 80.65 -3.6 81 -3.35 81 -2.75
L 81 -2.5 80.45 -2.5
Q 78.05 -2.5 78.05 -1.15 78.05 -0.5 78.45 -0.2 78.85 0.1 79.4 0.1 79.95 0.1 80.35 -0.1 80.8 -0.4 80.95 -0.8
L 81 -0.8 81 -0.4 81.05 0 81.55 0 81.45 -0.9 81.45 -2.75
Q 81.45 -3.55 81.05 -3.95 80.55 -4.35 79.85 -4.35 79.45 -4.35 79 -4.2 78.5 -4 78.3 -3.8
L 78.45 -3.4
Q 78.65 -3.6 79.05 -3.75
L 79.8 -3.9
M 80.3 -0.5
Q 80.05 -0.3 79.5 -0.3 79.05 -0.3 78.85 -0.5 78.55 -0.7 78.55 -1.15 78.55 -2.15 80.55 -2.15
L 81 -2.15 81 -1.75
Q 81 -1.55 80.8 -1.05 80.6 -0.7 80.3 -0.5 Z"/>
</g>

<g id="IT_728x90_psd_Asset_ManagedWiFi_IT_Eval_DM5_2_Help_your_IT_team_save_time__0_Layer0_0_MEMBER_16_FILL">
<path fill="#D82C26" stroke="none" d="
M 82.85 -4.2
L 82.3 -4.2 83.9 0 84.5 0 86.05 -4.2 85.5 -4.2 84.2 -0.55 82.85 -4.2 Z"/>
</g>

<g id="IT_728x90_psd_Asset_ManagedWiFi_IT_Eval_DM5_2_Help_your_IT_team_save_time__0_Layer0_0_MEMBER_17_FILL">
<path fill="#D82C26" stroke="none" d="
M 89.8 -4.05
Q 89.35 -4.35 88.75 -4.35 88.2 -4.35 87.65 -4.05 87.2 -3.75 86.9 -3.25 86.65 -2.75 86.65 -2.15 86.65 -1.45 86.95 -0.95 87.15 -0.45 87.7 -0.15 88.15 0.15 88.8 0.15 89.7 0.15 90.5 -0.4
L 90.4 -0.85
Q 90 -0.55 89.7 -0.45 89.35 -0.3 88.85 -0.3 88.4 -0.3 88 -0.55 87.65 -0.75 87.4 -1.15 87.15 -1.55 87.15 -2.05
L 90.7 -2.05 90.75 -2.25
Q 90.75 -2.8 90.5 -3.3 90.3 -3.7 89.8 -4.05
M 88.75 -3.9
Q 89.45 -3.9 89.8 -3.5 90.15 -3.2 90.25 -2.4
L 87.15 -2.4 87.35 -3.1
Q 87.6 -3.5 87.9 -3.7 88.25 -3.9 88.75 -3.9 Z"/>
</g>

<g id="IT_728x90_psd_Asset_ManagedWiFi_IT_Eval_DM5_2_Help_your_IT_team_save_time__0_Layer0_0_MEMBER_18_FILL">
<path fill="#D82C26" stroke="none" d="
M 94.2 -5.2
L 94.2 -4.2 93.5 -4.2 93.4 -3.8 94.2 -3.8 94.2 -1
Q 94.2 -0.55 94.45 -0.2 94.75 0.1 95.2 0.1
L 95.65 0.05 96.1 -0.15 96 -0.55
Q 95.65 -0.35 95.35 -0.35 95.05 -0.35 94.9 -0.5 94.7 -0.8 94.7 -1.1
L 94.7 -3.8 95.8 -3.8 95.9 -4.2 94.7 -4.2 94.7 -5.4 94.2 -5.2 Z"/>
</g>

<g id="IT_728x90_psd_Asset_ManagedWiFi_IT_Eval_DM5_2_Help_your_IT_team_save_time__0_Layer0_0_MEMBER_19_FILL">
<path fill="#D82C26" stroke="none" d="
M 97.65 -4.2
L 97.1 -4.2 97.1 0 97.65 0 97.65 -4.2
M 97.35 -5.5
L 97.6 -5.6 97.75 -5.9
Q 97.75 -6.05 97.6 -6.15 97.55 -6.25 97.35 -6.25 97.15 -6.25 97.1 -6.15 97 -6.1 97 -5.9 97 -5.7 97.1 -5.6
L 97.35 -5.5 Z"/>
</g>

<g id="IT_728x90_psd_Asset_ManagedWiFi_IT_Eval_DM5_2_Help_your_IT_team_save_time__0_Layer0_0_MEMBER_20_FILL">
<path fill="#D82C26" stroke="none" d="
M 99.7 -4.2
L 99.2 -4.2 99.25 0 99.75 0 99.75 -2.1
Q 99.75 -2.7 99.95 -3.05 100.1 -3.45 100.4 -3.7 100.8 -3.9 101.1 -3.9 101.6 -3.9 101.85 -3.5 102.15 -3.2 102.15 -2.5
L 102.15 0 102.65 0 102.65 -2.15
Q 102.65 -2.9 103.05 -3.4 103.4 -3.9 104 -3.9 104.65 -3.9 104.85 -3.45 105.1 -3.05 105.1 -2.4
L 105.1 0 105.65 0 105.65 -2.5
Q 105.65 -3.3 105.25 -3.8 104.85 -4.35 104.1 -4.35 103.6 -4.35 103.2 -4.05 102.75 -3.75 102.6 -3.25 102.5 -3.65 102.1 -4.05 101.75 -4.35 101.2 -4.35 100.75 -4.35 100.35 -4.05 99.9 -3.75 99.75 -3.3
L 99.7 -4.2 Z"/>
</g>

<g id="IT_728x90_psd_Asset_ManagedWiFi_IT_Eval_DM5_2_Help_your_IT_team_save_time__0_Layer0_0_MEMBER_21_FILL">
<path fill="#D82C26" stroke="none" d="
M 110.1 -4.05
Q 109.65 -4.35 109 -4.35 108.4 -4.35 107.95 -4.05 107.5 -3.75 107.2 -3.25 106.9 -2.8 106.9 -2.15 106.9 -1.45 107.2 -0.95 107.5 -0.45 107.95 -0.15 108.5 0.15 109.1 0.15 110.05 0.15 110.75 -0.4
L 110.65 -0.85 110 -0.45
Q 109.55 -0.3 109.1 -0.3 108.65 -0.3 108.25 -0.55 107.9 -0.75 107.65 -1.15 107.45 -1.5 107.45 -2.05
L 111 -2.05 111 -2.25
Q 111 -2.9 110.75 -3.3 110.5 -3.75 110.1 -4.05
M 109 -3.9
Q 109.7 -3.9 110.1 -3.5 110.5 -3.1 110.5 -2.4
L 107.45 -2.4
Q 107.45 -2.75 107.65 -3.1 107.8 -3.45 108.2 -3.7 108.45 -3.9 109 -3.9 Z"/>
</g>

<g id="IT_728x90_psd_Asset_ManagedWiFi_IT_Eval_DM5_2_Help_your_IT_team_save_time__0_Layer0_0_MEMBER_22_FILL">
<path fill="#D82C26" stroke="none" d="
M 112.15 -0.35
L 112.25 -0.05
Q 112.45 0.05 112.55 0.05
L 112.8 -0.05 112.95 -0.35 112.8 -0.65 112.55 -0.75 112.25 -0.65 112.15 -0.35 Z"/>
</g>
</defs>

<g transform="matrix( 1, 0, 0, 1, -253,-98) ">
<g transform="matrix( 1, 0, 0, 1, 253,111) ">
<g transform="matrix( 1, 0, 0, 1, 26,22) ">
<g transform="matrix( 2.6895904541015625, 0, 0, 2.672393798828125, -1.85,18.55) ">
<use xlink:href="#IT_728x90_psd_Asset_ManagedWiFi_IT_Eval_DM5_2_Help_your_IT_team_save_time__0_Layer0_0_MEMBER_0_FILL"/>
</g>

<g transform="matrix( 2.6895904541015625, 0, 0, 2.672393798828125, -1.85,18.55) ">
<use xlink:href="#IT_728x90_psd_Asset_ManagedWiFi_IT_Eval_DM5_2_Help_your_IT_team_save_time__0_Layer0_0_MEMBER_1_FILL"/>
</g>

<g transform="matrix( 2.6895904541015625, 0, 0, 2.672393798828125, -1.85,18.55) ">
<use xlink:href="#IT_728x90_psd_Asset_ManagedWiFi_IT_Eval_DM5_2_Help_your_IT_team_save_time__0_Layer0_0_MEMBER_2_FILL"/>
</g>

<g transform="matrix( 2.6895904541015625, 0, 0, 2.672393798828125, -1.85,18.55) ">
<use xlink:href="#IT_728x90_psd_Asset_ManagedWiFi_IT_Eval_DM5_2_Help_your_IT_team_save_time__0_Layer0_0_MEMBER_3_FILL"/>
</g>

<g transform="matrix( 2.6895904541015625, 0, 0, 2.672393798828125, -1.85,18.55) ">
<use xlink:href="#IT_728x90_psd_Asset_ManagedWiFi_IT_Eval_DM5_2_Help_your_IT_team_save_time__0_Layer0_0_MEMBER_4_FILL"/>
</g>

<g transform="matrix( 2.6895904541015625, 0, 0, 2.672393798828125, -1.85,18.55) ">
<use xlink:href="#IT_728x90_psd_Asset_ManagedWiFi_IT_Eval_DM5_2_Help_your_IT_team_save_time__0_Layer0_0_MEMBER_5_FILL"/>
</g>

<g transform="matrix( 2.6895904541015625, 0, 0, 2.672393798828125, -1.85,18.55) ">
<use xlink:href="#IT_728x90_psd_Asset_ManagedWiFi_IT_Eval_DM5_2_Help_your_IT_team_save_time__0_Layer0_0_MEMBER_6_FILL"/>
</g>

<g transform="matrix( 2.6895904541015625, 0, 0, 2.672393798828125, -1.85,18.55) ">
<use xlink:href="#IT_728x90_psd_Asset_ManagedWiFi_IT_Eval_DM5_2_Help_your_IT_team_save_time__0_Layer0_0_MEMBER_7_FILL"/>
</g>

<g transform="matrix( 2.6895904541015625, 0, 0, 2.672393798828125, -1.85,18.55) ">
<use xlink:href="#IT_728x90_psd_Asset_ManagedWiFi_IT_Eval_DM5_2_Help_your_IT_team_save_time__0_Layer0_0_MEMBER_8_FILL"/>
</g>

<g transform="matrix( 2.6895904541015625, 0, 0, 2.672393798828125, -1.85,18.55) ">
<use xlink:href="#IT_728x90_psd_Asset_ManagedWiFi_IT_Eval_DM5_2_Help_your_IT_team_save_time__0_Layer0_0_MEMBER_9_FILL"/>
</g>

<g transform="matrix( 2.6895904541015625, 0, 0, 2.672393798828125, -1.85,18.55) ">
<use xlink:href="#IT_728x90_psd_Asset_ManagedWiFi_IT_Eval_DM5_2_Help_your_IT_team_save_time__0_Layer0_0_MEMBER_10_FILL"/>
</g>

<g transform="matrix( 2.6895904541015625, 0, 0, 2.672393798828125, -1.85,18.55) ">
<use xlink:href="#IT_728x90_psd_Asset_ManagedWiFi_IT_Eval_DM5_2_Help_your_IT_team_save_time__0_Layer0_0_MEMBER_11_FILL"/>
</g>

<g transform="matrix( 2.6895904541015625, 0, 0, 2.672393798828125, -1.85,18.55) ">
<use xlink:href="#IT_728x90_psd_Asset_ManagedWiFi_IT_Eval_DM5_2_Help_your_IT_team_save_time__0_Layer0_0_MEMBER_12_FILL"/>
</g>

<g transform="matrix( 2.6895904541015625, 0, 0, 2.672393798828125, -1.85,18.55) ">
<use xlink:href="#IT_728x90_psd_Asset_ManagedWiFi_IT_Eval_DM5_2_Help_your_IT_team_save_time__0_Layer0_0_MEMBER_13_FILL"/>
</g>

<g transform="matrix( 2.6895904541015625, 0, 0, 2.672393798828125, -1.85,18.55) ">
<use xlink:href="#IT_728x90_psd_Asset_ManagedWiFi_IT_Eval_DM5_2_Help_your_IT_team_save_time__0_Layer0_0_MEMBER_14_FILL"/>
</g>

<g transform="matrix( 2.6895904541015625, 0, 0, 2.672393798828125, -1.85,18.55) ">
<use xlink:href="#IT_728x90_psd_Asset_ManagedWiFi_IT_Eval_DM5_2_Help_your_IT_team_save_time__0_Layer0_0_MEMBER_15_FILL"/>
</g>

<g transform="matrix( 2.6895904541015625, 0, 0, 2.672393798828125, -1.85,18.55) ">
<use xlink:href="#IT_728x90_psd_Asset_ManagedWiFi_IT_Eval_DM5_2_Help_your_IT_team_save_time__0_Layer0_0_MEMBER_16_FILL"/>
</g>

<g transform="matrix( 2.6895904541015625, 0, 0, 2.672393798828125, -1.85,18.55) ">
<use xlink:href="#IT_728x90_psd_Asset_ManagedWiFi_IT_Eval_DM5_2_Help_your_IT_team_save_time__0_Layer0_0_MEMBER_17_FILL"/>
</g>

<g transform="matrix( 2.6895904541015625, 0, 0, 2.672393798828125, -1.85,18.55) ">
<use xlink:href="#IT_728x90_psd_Asset_ManagedWiFi_IT_Eval_DM5_2_Help_your_IT_team_save_time__0_Layer0_0_MEMBER_18_FILL"/>
</g>

<g transform="matrix( 2.6895904541015625, 0, 0, 2.672393798828125, -1.85,18.55) ">
<use xlink:href="#IT_728x90_psd_Asset_ManagedWiFi_IT_Eval_DM5_2_Help_your_IT_team_save_time__0_Layer0_0_MEMBER_19_FILL"/>
</g>

<g transform="matrix( 2.6895904541015625, 0, 0, 2.672393798828125, -1.85,18.55) ">
<use xlink:href="#IT_728x90_psd_Asset_ManagedWiFi_IT_Eval_DM5_2_Help_your_IT_team_save_time__0_Layer0_0_MEMBER_20_FILL"/>
</g>

<g transform="matrix( 2.6895904541015625, 0, 0, 2.672393798828125, -1.85,18.55) ">
<use xlink:href="#IT_728x90_psd_Asset_ManagedWiFi_IT_Eval_DM5_2_Help_your_IT_team_save_time__0_Layer0_0_MEMBER_21_FILL"/>
</g>

<g transform="matrix( 2.6895904541015625, 0, 0, 2.672393798828125, -1.85,18.55) ">
<use xlink:href="#IT_728x90_psd_Asset_ManagedWiFi_IT_Eval_DM5_2_Help_your_IT_team_save_time__0_Layer0_0_MEMBER_22_FILL"/>
</g>
</g>
</g>
</g>
</svg>
