
<svg xmlns="http://www.w3.org/2000/svg" version="1.1" xmlns:xlink="http://www.w3.org/1999/xlink" preserveAspectRatio="none" x="0px" y="0px" width="300px" height="600px" viewBox="0 0 300 600">
<defs>
<g id="IT_300x600_FR_psd_Asset_V11_2_qui_fait_appel____une_solution_de__Wi_Fi_g_r___0_Layer0_0_MEMBER_0_FILL">
<path fill="#D82C26" stroke="none" d="
M 4 -4.45
Q 3.5 -4.75 2.9 -4.75 2.2 -4.75 1.65 -4.45 1.15 -4.15 0.85 -3.55 0.55 -3 0.55 -2.3 0.55 -1.65 0.85 -1.05 1.2 -0.45 1.65 -0.2 2.25 0.15 2.9 0.15 3.5 0.15 4 -0.15 4.45 -0.45 4.75 -1
L 4.75 1.1
Q 4.75 2.1 5.75 2.4
L 6.05 1.9 5.5 1.6
Q 5.35 1.4 5.35 0.95
L 5.4 -4.65 4.8 -4.65 4.8 -3.6 4.75 -3.6
Q 4.6 -4.05 4 -4.45
M 3.9 -4
Q 4.3 -3.8 4.55 -3.3 4.8 -2.8 4.8 -2.3 4.8 -1.85 4.55 -1.35 4.3 -0.85 3.9 -0.6 3.4 -0.35 2.95 -0.35 2.4 -0.35 2 -0.6 1.6 -0.85 1.35 -1.35 1.15 -1.75 1.15 -2.3 1.15 -2.9 1.35 -3.3 1.6 -3.8 2 -4 2.4 -4.3 2.95 -4.3 3.45 -4.3 3.9 -4 Z"/>
</g>

<g id="IT_300x600_FR_psd_Asset_V11_2_qui_fait_appel____une_solution_de__Wi_Fi_g_r___0_Layer0_0_MEMBER_1_FILL">
<path fill="#D82C26" stroke="none" d="
M 7.3 -4.65
L 6.7 -4.65 6.7 -1.8
Q 6.7 -1 7.1 -0.45 7.55 0.15 8.4 0.15 8.95 0.15 9.45 -0.2 9.9 -0.5 10.1 -1
L 10.2 0 10.75 0 10.65 -1.1 10.65 -4.65 10.1 -4.65 10.1 -2.3
Q 10.1 -1.85 9.9 -1.25 9.7 -0.85 9.35 -0.6 9.05 -0.35 8.55 -0.35 7.85 -0.35 7.6 -0.8 7.3 -1.25 7.3 -1.95
L 7.3 -4.65 Z"/>
</g>

<g id="IT_300x600_FR_psd_Asset_V11_2_qui_fait_appel____une_solution_de__Wi_Fi_g_r___0_Layer0_0_MEMBER_2_FILL">
<path fill="#D82C26" stroke="none" d="
M 12.7 -4.65
L 12.1 -4.65 12.1 0 12.7 0 12.7 -4.65
M 12.7 -6.2
Q 12.8 -6.25 12.8 -6.5 12.8 -6.7 12.7 -6.8
L 12.4 -6.9 12.1 -6.8 12 -6.5 12.1 -6.2 12.4 -6.05 12.7 -6.2 Z"/>
</g>

<g id="IT_300x600_FR_psd_Asset_V11_2_qui_fait_appel____une_solution_de__Wi_Fi_g_r___0_Layer0_0_MEMBER_3_FILL">
<path fill="#D82C26" stroke="none" d="
M 18.7 -7.5
L 17.85 -7.6
Q 17.2 -7.6 16.8 -7.2 16.45 -6.8 16.45 -5.95
L 16.45 -4.65 15.6 -4.65 15.45 -4.15 16.45 -4.15 16.45 0 17 0 17 -4.15 18.1 -4.15 18.2 -4.65 17 -4.65 17 -5.95
Q 17 -6.3 17.2 -6.8 17.45 -7.1 17.9 -7.1 18.4 -7.1 18.65 -7
L 18.7 -7.5 Z"/>
</g>

<g id="IT_300x600_FR_psd_Asset_V11_2_qui_fait_appel____une_solution_de__Wi_Fi_g_r___0_Layer0_0_MEMBER_4_FILL">
<path fill="#D82C26" stroke="none" d="
M 18.65 -1.25
Q 18.65 -0.6 19.05 -0.2 19.6 0.15 20.1 0.15 20.7 0.15 21.15 -0.15 21.65 -0.4 21.85 -0.9
L 21.95 0 22.45 0 22.4 -3
Q 22.4 -3.9 21.9 -4.35 21.5 -4.75 20.6 -4.75 20.1 -4.75 19.65 -4.6 19.15 -4.4 18.9 -4.2
L 19.05 -3.75
Q 19.45 -4.05 19.75 -4.15 20.15 -4.3 20.55 -4.3 21.15 -4.3 21.5 -4 21.85 -3.65 21.85 -3.05
L 21.85 -2.8 21.3 -2.8
Q 18.65 -2.8 18.65 -1.25
M 19.5 -0.55
Q 19.2 -0.75 19.2 -1.25 19.2 -2.4 21.35 -2.4
L 21.85 -2.4 21.85 -1.95
Q 21.85 -1.5 21.65 -1.15 21.5 -0.8 21.1 -0.55 20.7 -0.3 20.2 -0.3 19.85 -0.3 19.5 -0.55 Z"/>
</g>

<g id="IT_300x600_FR_psd_Asset_V11_2_qui_fait_appel____une_solution_de__Wi_Fi_g_r___0_Layer0_0_MEMBER_5_FILL">
<path fill="#D82C26" stroke="none" d="
M 24.35 -4.65
L 23.75 -4.65 23.75 0 24.35 0 24.35 -4.65
M 24.35 -6.2
L 24.45 -6.5 24.35 -6.8 24.05 -6.9 23.75 -6.8 23.65 -6.5
Q 23.65 -6.3 23.75 -6.2
L 24.05 -6.05 24.35 -6.2 Z"/>
</g>

<g id="IT_300x600_FR_psd_Asset_V11_2_qui_fait_appel____une_solution_de__Wi_Fi_g_r___0_Layer0_0_MEMBER_6_FILL">
<path fill="#D82C26" stroke="none" d="
M 25.25 -4.65
L 25.1 -4.15 26 -4.15 26 -1.1
Q 26 -0.55 26.3 -0.2 26.6 0.1 27.05 0.1
L 27.6 0.05 28.05 -0.15 28 -0.6
Q 27.6 -0.4 27.25 -0.4 26.9 -0.4 26.75 -0.55 26.55 -0.75 26.55 -1.2
L 26.55 -4.15 27.75 -4.15 27.9 -4.65 26.55 -4.65 26.55 -5.95 26 -5.75 26 -4.65 25.25 -4.65 Z"/>
</g>

<g id="IT_300x600_FR_psd_Asset_V11_2_qui_fait_appel____une_solution_de__Wi_Fi_g_r___0_Layer0_0_MEMBER_7_FILL">
<path fill="#D82C26" stroke="none" d="
M 31.55 -4.15
Q 31.95 -4.3 32.35 -4.3 32.95 -4.3 33.3 -4 33.65 -3.65 33.65 -3.05
L 33.65 -2.8 33.1 -2.8
Q 30.45 -2.8 30.45 -1.25 30.45 -0.6 30.85 -0.2 31.4 0.15 31.9 0.15 32.5 0.15 32.95 -0.15 33.45 -0.4 33.65 -0.9
L 33.75 0 34.25 0 34.2 -3
Q 34.2 -3.9 33.7 -4.35 33.3 -4.75 32.4 -4.75 31.95 -4.75 31.5 -4.6 30.95 -4.45 30.7 -4.2
L 30.85 -3.75 31.55 -4.15
M 32.9 -0.55
Q 32.5 -0.3 32.05 -0.3 31.65 -0.3 31.3 -0.55 31 -0.75 31 -1.25 31 -2.4 33.15 -2.4
L 33.65 -2.4 33.65 -1.95
Q 33.65 -1.5 33.45 -1.15 33.3 -0.8 32.9 -0.55 Z"/>
</g>

<g id="IT_300x600_FR_psd_Asset_V11_2_qui_fait_appel____une_solution_de__Wi_Fi_g_r___0_Layer0_0_MEMBER_8_FILL">
<path fill="#D82C26" stroke="none" d="
M 39.25 -4.45
Q 38.75 -4.75 38.05 -4.75 37.5 -4.75 36.95 -4.45 36.45 -4.15 36.15 -3.6
L 36.1 -4.65 35.55 -4.65 35.55 2.35 36.15 2.35 36.15 -1 36.2 -1
Q 36.45 -0.45 36.95 -0.15 37.5 0.15 38.05 0.15 38.65 0.15 39.25 -0.2 39.8 -0.5 40.1 -1.05 40.35 -1.7 40.35 -2.3 40.35 -2.95 40.1 -3.55 39.8 -4.15 39.25 -4.45
M 38.9 -4
Q 39.3 -3.8 39.55 -3.3 39.8 -2.8 39.8 -2.3 39.8 -1.85 39.55 -1.35 39.3 -0.85 38.9 -0.6 38.5 -0.35 37.95 -0.35 37.5 -0.35 37 -0.6 36.7 -0.85 36.35 -1.35 36.15 -1.75 36.15 -2.3 36.15 -2.9 36.35 -3.3 36.7 -3.8 37 -4 37.45 -4.3 37.95 -4.3 38.55 -4.3 38.9 -4 Z"/>
</g>

<g id="IT_300x600_FR_psd_Asset_V11_2_qui_fait_appel____une_solution_de__Wi_Fi_g_r___0_Layer0_0_MEMBER_9_FILL">
<path fill="#D82C26" stroke="none" d="
M 45.15 -4.45
Q 44.65 -4.75 43.95 -4.75 43.4 -4.75 42.85 -4.45 42.35 -4.15 42.05 -3.6
L 42 -4.65 41.45 -4.65 41.45 2.35 42.05 2.35 42.05 -1 42.1 -1
Q 42.35 -0.45 42.85 -0.15 43.4 0.15 43.95 0.15 44.55 0.15 45.15 -0.2 45.7 -0.5 46 -1.05 46.3 -1.65 46.3 -2.3 46.3 -3 46 -3.55 45.7 -4.15 45.15 -4.45
M 44.85 -4
Q 45.2 -3.8 45.45 -3.3 45.7 -2.8 45.7 -2.3 45.7 -1.85 45.45 -1.35 45.25 -0.9 44.85 -0.6 44.35 -0.35 43.85 -0.35 43.35 -0.35 42.95 -0.6 42.6 -0.85 42.25 -1.35 42.05 -1.75 42.05 -2.3 42.05 -2.9 42.25 -3.3 42.6 -3.8 42.95 -4 43.35 -4.3 43.85 -4.3 44.4 -4.3 44.85 -4 Z"/>
</g>

<g id="IT_300x600_FR_psd_Asset_V11_2_qui_fait_appel____une_solution_de__Wi_Fi_g_r___0_Layer0_0_MEMBER_10_FILL">
<path fill="#D82C26" stroke="none" d="
M 49.4 -4.75
Q 48.8 -4.75 48.25 -4.45 47.7 -4.15 47.4 -3.6 47.1 -3.05 47.1 -2.35 47.1 -1.65 47.4 -1.05 47.7 -0.5 48.25 -0.2 48.75 0.15 49.5 0.15 50.55 0.15 51.35 -0.45
L 51.25 -0.95 50.5 -0.5 49.55 -0.35
Q 48.95 -0.35 48.55 -0.6 48.1 -0.85 47.9 -1.3 47.75 -1.55 47.65 -2.25
L 51.6 -2.25 51.6 -2.5
Q 51.6 -3.05 51.35 -3.65 51.05 -4.15 50.6 -4.45 50.1 -4.75 49.4 -4.75
M 49.4 -4.3
Q 50.15 -4.3 50.6 -3.85 51.05 -3.4 51.05 -2.65
L 47.7 -2.65
Q 47.7 -3.05 47.9 -3.4 48.15 -3.85 48.5 -4.05 48.8 -4.3 49.4 -4.3 Z"/>
</g>

<g id="IT_300x600_FR_psd_Asset_V11_2_qui_fait_appel____une_solution_de__Wi_Fi_g_r___0_Layer0_0_MEMBER_11_FILL">
<path fill="#D82C26" stroke="none" d="
M 52.7 -1.05
Q 52.7 -0.55 52.9 -0.3 53.15 0 53.45 0.1
L 53.7 -0.4
Q 53.5 -0.45 53.4 -0.65 53.3 -0.75 53.3 -1.15
L 53.3 -7.55 52.7 -7.4 52.7 -1.05 Z"/>
</g>

<g id="IT_300x600_FR_psd_Asset_V11_2_qui_fait_appel____une_solution_de__Wi_Fi_g_r___0_Layer0_0_MEMBER_12_FILL">
<path fill="#D82C26" stroke="none" d="
M 58.35 -4.3
Q 59 -4.3 59.35 -4 59.7 -3.55 59.7 -3.05
L 59.7 -2.8 59.1 -2.8
Q 56.45 -2.8 56.45 -1.25 56.45 -0.55 56.9 -0.2 57.45 0.15 57.95 0.15 58.5 0.15 59 -0.15 59.5 -0.4 59.65 -0.9
L 59.7 -0.9 59.75 0 60.3 0 60.2 -1 60.2 -3
Q 60.2 -3.9 59.75 -4.35 59.35 -4.75 58.45 -4.75 57.95 -4.75 57.5 -4.6 57 -4.45 56.7 -4.2
L 56.9 -3.75
Q 57.15 -4 57.6 -4.15
L 58.35 -4.3
M 57.3 -0.55
Q 57 -0.75 57 -1.25 57 -2.4 59.2 -2.4
L 59.7 -2.4 59.7 -1.95
Q 59.7 -1.65 59.5 -1.15 59.25 -0.75 58.95 -0.55 58.55 -0.3 58.05 -0.3 57.65 -0.3 57.3 -0.55
M 58.05 -7
L 57.35 -7 58.6 -5.6 59.05 -5.6 58.05 -7 Z"/>
</g>

<g id="IT_300x600_FR_psd_Asset_V11_2_qui_fait_appel____une_solution_de__Wi_Fi_g_r___0_Layer0_0_MEMBER_13_FILL">
<path fill="#D82C26" stroke="none" d="
M 4.8 8.1
L 4.25 8.1 4.25 10.4
Q 4.25 10.85 4.05 11.45 3.8 11.95 3.45 12.15 3.2 12.35 2.7 12.35 2 12.35 1.7 11.9 1.45 11.4 1.45 10.75
L 1.45 8.1 0.85 8.1 0.85 10.9
Q 0.85 11.65 1.25 12.3 1.7 12.85 2.55 12.85 3.1 12.85 3.55 12.55 4 12.3 4.25 11.7
L 4.3 12.7 4.9 12.7 4.8 11.65 4.8 8.1 Z"/>
</g>

<g id="IT_300x600_FR_psd_Asset_V11_2_qui_fait_appel____une_solution_de__Wi_Fi_g_r___0_Layer0_0_MEMBER_14_FILL">
<path fill="#D82C26" stroke="none" d="
M 9.8 8.5
Q 9.4 7.95 8.5 7.95 7.95 7.95 7.5 8.25 7 8.6 6.85 9.1
L 6.8 9.1 6.75 8.1 6.2 8.1 6.25 12.7 6.85 12.7 6.85 10.35
Q 6.85 9.7 7.05 9.3 7.35 8.8 7.6 8.65 7.95 8.45 8.4 8.45 9.05 8.45 9.35 8.9 9.65 9.35 9.65 10.05
L 9.65 12.7 10.25 12.7 10.25 9.9
Q 10.25 9.05 9.8 8.5 Z"/>
</g>

<g id="IT_300x600_FR_psd_Asset_V11_2_qui_fait_appel____une_solution_de__Wi_Fi_g_r___0_Layer0_0_MEMBER_15_FILL">
<path fill="#D82C26" stroke="none" d="
M 14.8 8.25
Q 14.3 7.95 13.6 7.95 13 7.95 12.45 8.25 11.9 8.55 11.6 9.1 11.3 9.7 11.3 10.35 11.3 11.15 11.6 11.65 11.85 12.1 12.45 12.55 13 12.85 13.7 12.85 14.75 12.85 15.55 12.25
L 15.45 11.75 14.7 12.2
Q 14.25 12.35 13.75 12.35 13.15 12.35 12.75 12.1 12.5 11.95 12.1 11.45 11.95 11.2 11.85 10.5
L 15.8 10.5 15.8 10.25
Q 15.8 9.65 15.55 9.05 15.35 8.65 14.8 8.25
M 13.6 8.4
Q 14.35 8.4 14.8 8.85 15.25 9.3 15.25 10.05
L 11.9 10.05
Q 11.9 9.65 12.1 9.3 12.3 8.95 12.7 8.65 13.1 8.4 13.6 8.4 Z"/>
</g>

<g id="IT_300x600_FR_psd_Asset_V11_2_qui_fait_appel____une_solution_de__Wi_Fi_g_r___0_Layer0_0_MEMBER_16_FILL">
<path fill="#D82C26" stroke="none" d="
M 21.25 11.5
Q 21.25 11.95 20.95 12.15 20.6 12.4 20.2 12.4 19.3 12.4 18.7 11.8
L 18.6 12.3
Q 18.75 12.5 19.3 12.7 19.75 12.85 20.25 12.85
L 21 12.7
Q 21.4 12.55 21.6 12.2 21.8 11.95 21.8 11.5 21.8 11 21.45 10.65 21.2 10.4 20.4 10.15 19.75 9.95 19.5 9.7 19.2 9.55 19.2 9.2 19.2 8.85 19.5 8.6 19.75 8.4 20.2 8.4
L 20.9 8.55
Q 21.15 8.6 21.45 8.85
L 21.7 8.45 21.05 8.1
Q 20.6 7.95 20.2 7.95
L 19.45 8.1
Q 19.15 8.2 18.9 8.5 18.65 8.85 18.65 9.2 18.65 9.75 19 10 19.25 10.25 20 10.5 20.65 10.7 20.95 10.95 21.25 11.2 21.25 11.5 Z"/>
</g>

<g id="IT_300x600_FR_psd_Asset_V11_2_qui_fait_appel____une_solution_de__Wi_Fi_g_r___0_Layer0_0_MEMBER_17_FILL">
<path fill="#D82C26" stroke="none" d="
M 23.75 8.25
Q 23.25 8.55 22.85 9.1 22.55 9.7 22.55 10.4 22.55 11.15 22.85 11.65 23.15 12.1 23.75 12.55 24.3 12.85 25 12.85 25.7 12.85 26.3 12.55 26.9 12.1 27.15 11.65 27.5 11.15 27.5 10.4 27.5 9.65 27.15 9.1 26.85 8.55 26.3 8.25 25.7 7.95 25 7.95 24.3 7.95 23.75 8.25
M 24 8.7
Q 24.4 8.45 25 8.45 25.65 8.45 26 8.7 26.4 8.9 26.65 9.4 26.9 9.9 26.9 10.4 26.9 10.85 26.65 11.35 26.4 11.85 26 12.1 25.6 12.35 25 12.35 24.5 12.35 24 12.1 23.55 11.75 23.35 11.35 23.15 10.95 23.15 10.4 23.15 9.8 23.35 9.4 23.55 8.95 24 8.7 Z"/>
</g>

<g id="IT_300x600_FR_psd_Asset_V11_2_qui_fait_appel____une_solution_de__Wi_Fi_g_r___0_Layer0_0_MEMBER_18_FILL">
<path fill="#D82C26" stroke="none" d="
M 28.8 12.4
Q 29.05 12.75 29.35 12.8
L 29.6 12.35 29.25 12.05 29.15 11.55 29.15 5.2 28.6 5.3 28.6 11.7
Q 28.6 12.2 28.8 12.4 Z"/>
</g>

<g id="IT_300x600_FR_psd_Asset_V11_2_qui_fait_appel____une_solution_de__Wi_Fi_g_r___0_Layer0_0_MEMBER_19_FILL">
<path fill="#D82C26" stroke="none" d="
M 34.5 8.1
L 33.95 8.1 33.95 10.4
Q 33.95 11.05 33.75 11.45 33.5 12 33.2 12.15 32.85 12.35 32.4 12.35 31.7 12.35 31.45 11.9 31.15 11.45 31.15 10.75
L 31.15 8.1 30.55 8.1 30.55 10.9
Q 30.55 11.7 31 12.3 31.4 12.85 32.25 12.85 32.8 12.85 33.3 12.55 33.7 12.3 33.95 11.7
L 34.05 12.7 34.6 12.7 34.5 11.65 34.5 8.1 Z"/>
</g>

<g id="IT_300x600_FR_psd_Asset_V11_2_qui_fait_appel____une_solution_de__Wi_Fi_g_r___0_Layer0_0_MEMBER_20_FILL">
<path fill="#D82C26" stroke="none" d="
M 36.2 8.1
L 35.45 8.1 35.3 8.55 36.2 8.55 36.2 11.6
Q 36.2 12.2 36.5 12.5 36.75 12.8 37.25 12.8
L 37.8 12.75 38.25 12.55 38.15 12.15
Q 37.65 12.35 37.45 12.35 37.15 12.35 36.95 12.15 36.75 11.95 36.75 11.5
L 36.75 8.55 37.95 8.55 38.05 8.1 36.75 8.1 36.75 6.75 36.2 7 36.2 8.1 Z"/>
</g>

<g id="IT_300x600_FR_psd_Asset_V11_2_qui_fait_appel____une_solution_de__Wi_Fi_g_r___0_Layer0_0_MEMBER_21_FILL">
<path fill="#D82C26" stroke="none" d="
M 39.6 8.1
L 39.05 8.1 39.05 12.7 39.6 12.7 39.6 8.1
M 39.6 5.95
L 39.3 5.8 39 5.95 38.9 6.2 39 6.55 39.3 6.65 39.6 6.55
Q 39.75 6.4 39.75 6.2 39.75 6.05 39.6 5.95 Z"/>
</g>

<g id="IT_300x600_FR_psd_Asset_V11_2_qui_fait_appel____une_solution_de__Wi_Fi_g_r___0_Layer0_0_MEMBER_22_FILL">
<path fill="#D82C26" stroke="none" d="
M 44.45 8.25
Q 43.85 7.95 43.15 7.95 42.45 7.95 41.9 8.25 41.4 8.55 41 9.1 40.7 9.7 40.7 10.4 40.7 11.15 41 11.65 41.3 12.1 41.9 12.55 42.45 12.85 43.15 12.85 43.85 12.85 44.45 12.55 45.05 12.1 45.3 11.65 45.65 11.15 45.65 10.4 45.65 9.65 45.3 9.1 45 8.55 44.45 8.25
M 43.15 8.45
Q 43.8 8.45 44.15 8.7 44.55 8.9 44.8 9.4 45.05 9.9 45.05 10.4 45.05 10.85 44.8 11.35 44.55 11.85 44.15 12.1 43.75 12.35 43.15 12.35 42.65 12.35 42.15 12.1 41.7 11.75 41.5 11.35 41.3 10.95 41.3 10.4 41.3 9.8 41.5 9.4 41.7 8.95 42.15 8.7 42.55 8.45 43.15 8.45 Z"/>
</g>

<g id="IT_300x600_FR_psd_Asset_V11_2_qui_fait_appel____une_solution_de__Wi_Fi_g_r___0_Layer0_0_MEMBER_23_FILL">
<path fill="#D82C26" stroke="none" d="
M 50.3 8.5
Q 49.85 7.95 49 7.95 48.5 7.95 47.95 8.25 47.55 8.5 47.3 9.1
L 47.25 8.1 46.7 8.1 46.75 12.7 47.35 12.7 47.35 10.35
Q 47.35 9.7 47.55 9.3 47.7 8.9 48.1 8.65 48.45 8.45 48.85 8.45 49.55 8.45 49.85 8.9 50.1 9.3 50.1 10.05
L 50.1 12.7 50.7 12.7 50.7 9.9
Q 50.7 9.05 50.3 8.5 Z"/>
</g>

<g id="IT_300x600_FR_psd_Asset_V11_2_qui_fait_appel____une_solution_de__Wi_Fi_g_r___0_Layer0_0_MEMBER_24_FILL">
<path fill="#D82C26" stroke="none" d="
M 58.6 5.1
L 58 5.25 58 9.1
Q 57.75 8.55 57.2 8.25 56.75 7.95 56.1 7.95 55.45 7.95 54.9 8.25 54.35 8.65 54.1 9.15 53.8 9.75 53.8 10.4 53.8 11.05 54.1 11.65 54.45 12.25 54.9 12.5 55.4 12.85 56.1 12.85 56.75 12.85 57.25 12.55 57.8 12.2 58 11.7
L 58.05 11.7 58.1 12.7 58.65 12.7 58.6 5.1
M 54.6 9.4
Q 54.85 8.9 55.25 8.7 55.55 8.45 56.2 8.45 56.8 8.45 57.15 8.7 57.55 8.9 57.8 9.4 58.05 9.9 58.05 10.4 58.05 10.95 57.8 11.35 57.55 11.85 57.15 12.1 56.65 12.35 56.2 12.35 55.65 12.35 55.25 12.1 54.8 11.8 54.6 11.4 54.4 11 54.4 10.4 54.4 9.8 54.6 9.4 Z"/>
</g>

<g id="IT_300x600_FR_psd_Asset_V11_2_qui_fait_appel____une_solution_de__Wi_Fi_g_r___0_Layer0_0_MEMBER_25_FILL">
<path fill="#D82C26" stroke="none" d="
M 62 7.95
Q 61.4 7.95 60.85 8.25 60.3 8.55 60 9.1 59.7 9.7 59.7 10.35 59.7 11.15 60 11.65 60.25 12.1 60.85 12.55 61.4 12.85 62.1 12.85 63.15 12.85 63.95 12.25
L 63.85 11.75
Q 63.55 12.05 63.1 12.2 62.65 12.35 62.15 12.35 61.5 12.35 61.2 12.1 60.9 11.95 60.5 11.45 60.3 11.05 60.3 10.5
L 64.2 10.5 64.2 10.25
Q 64.2 9.65 63.95 9.05 63.75 8.55 63.2 8.25 62.7 7.95 62 7.95
M 62 8.4
Q 62.75 8.4 63.2 8.85 63.65 9.3 63.65 10.05
L 60.3 10.05
Q 60.3 9.65 60.5 9.3 60.7 8.95 61.1 8.65 61.5 8.4 62 8.4 Z"/>
</g>

<g id="IT_300x600_FR_psd_Asset_V11_2_qui_fait_appel____une_solution_de__Wi_Fi_g_r___0_Layer0_0_MEMBER_26_FILL">
<path fill="#D82C26" stroke="none" d="
M 0.85 18.4
L 0.2 18.4 2.25 25.4 2.95 25.4 4.8 19.2 6.65 25.4 7.35 25.4 9.4 18.4 8.8 18.4 7 24.65 5.15 18.4 4.45 18.4 2.65 24.65 2.6 24.65 0.85 18.4 Z"/>
</g>

<g id="IT_300x600_FR_psd_Asset_V11_2_qui_fait_appel____une_solution_de__Wi_Fi_g_r___0_Layer0_0_MEMBER_27_FILL">
<path fill="#D82C26" stroke="none" d="
M 10.55 19.35
Q 10.75 19.35 10.85 19.25
L 11 18.95
Q 11 18.75 10.85 18.65 10.8 18.5 10.55 18.5 10.4 18.5 10.3 18.65 10.15 18.75 10.15 18.95
L 10.3 19.25 10.55 19.35
M 10.85 20.8
L 10.3 20.8 10.3 25.4 10.85 25.4 10.85 20.8 Z"/>
</g>

<g id="IT_300x600_FR_psd_Asset_V11_2_qui_fait_appel____une_solution_de__Wi_Fi_g_r___0_Layer0_0_MEMBER_28_FILL">
<path fill="#D82C26" stroke="none" d="
M 12.05 22.7
L 12.05 23.15 14.05 23.15 14.05 22.7 12.05 22.7 Z"/>
</g>

<g id="IT_300x600_FR_psd_Asset_V11_2_qui_fait_appel____une_solution_de__Wi_Fi_g_r___0_Layer0_0_MEMBER_29_FILL">
<path fill="#D82C26" stroke="none" d="
M 16 22.1
L 18.7 22.1 18.85 21.55 16 21.55 16 18.95 18.95 18.95 19 18.4 15.4 18.4 15.4 25.4 16 25.4 16 22.1 Z"/>
</g>

<g id="IT_300x600_FR_psd_Asset_V11_2_qui_fait_appel____une_solution_de__Wi_Fi_g_r___0_Layer0_0_MEMBER_30_FILL">
<path fill="#D82C26" stroke="none" d="
M 20.05 20.8
L 20.05 25.4 20.65 25.4 20.65 20.8 20.05 20.8
M 20.35 19.35
L 20.65 19.25 20.75 18.95 20.65 18.65 20.35 18.5 20.05 18.65
Q 19.9 18.75 19.9 18.95
L 20.05 19.25 20.35 19.35 Z"/>
</g>

<g id="IT_300x600_FR_psd_Asset_V11_2_qui_fait_appel____une_solution_de__Wi_Fi_g_r___0_Layer0_0_MEMBER_31_FILL">
<path fill="#D82C26" stroke="none" d="
M 23.8 23.1
Q 23.8 23.7 24.05 24.35 24.35 24.9 24.9 25.2 25.45 25.5 26.1 25.5 26.7 25.5 27.2 25.2 27.7 24.9 28 24.4
L 28 25.35
Q 28 26.3 27.55 26.8 27.15 27.35 26.1 27.35 25.55 27.35 25.1 27.2 24.6 27.05 24.2 26.75
L 24.1 27.3
Q 24.55 27.55 25 27.7
L 26.1 27.85
Q 27.4 27.85 28 27.15 28.55 26.45 28.55 25.35
L 28.6 20.8 28.05 20.8 28 21.8
Q 27.65 21.2 27.2 20.95 26.7 20.65 26.1 20.65 25.4 20.65 24.9 21 24.35 21.3 24.05 21.85 23.8 22.5 23.8 23.1
M 24.6 22.1
Q 24.8 21.75 25.2 21.4 25.7 21.15 26.2 21.15 26.65 21.15 27.15 21.4 27.45 21.6 27.8 22.1 28 22.5 28 23.1 28 23.65 27.8 24.05 27.45 24.55 27.15 24.75 26.7 25.05 26.2 25.05 25.65 25.05 25.2 24.75 24.85 24.55 24.6 24.05 24.35 23.55 24.35 23.1 24.35 22.6 24.6 22.1 Z"/>
</g>

<g id="IT_300x600_FR_psd_Asset_V11_2_qui_fait_appel____une_solution_de__Wi_Fi_g_r___0_Layer0_0_MEMBER_32_FILL">
<path fill="#D82C26" stroke="none" d="
M 33.25 18.4
L 32.55 18.4 31.55 19.85 32.05 19.85 33.25 18.4
M 29.65 23.1
Q 29.65 23.75 30 24.35 30.3 25 30.85 25.25 31.4 25.55 32.05 25.55 33.15 25.55 33.9 24.95
L 33.8 24.5
Q 33.45 24.75 33.05 24.9 32.45 25.1 32.1 25.1 31.55 25.1 31.15 24.85 30.75 24.6 30.5 24.15 30.25 23.65 30.25 23.2
L 34.15 23.2 34.15 22.95
Q 34.15 22.25 33.9 21.8 33.65 21.25 33.15 20.95 32.7 20.65 31.95 20.65 31.35 20.65 30.8 20.95 30.35 21.2 30 21.8 29.65 22.35 29.65 23.1
M 31.05 21.35
Q 31.45 21.1 31.95 21.1 32.7 21.1 33.15 21.55 33.6 22 33.6 22.75
L 30.25 22.75
Q 30.25 22.5 30.45 22 30.65 21.65 31.05 21.35 Z"/>
</g>

<g id="IT_300x600_FR_psd_Asset_V11_2_qui_fait_appel____une_solution_de__Wi_Fi_g_r___0_Layer0_0_MEMBER_33_FILL">
<path fill="#D82C26" stroke="none" d="
M 37.2 20.65
Q 36.8 20.65 36.4 20.95 36 21.25 35.85 21.8
L 35.8 21.8 35.75 20.8 35.2 20.8 35.25 25.4 35.85 25.4 35.85 23.1
Q 35.85 22.25 36.2 21.75 36.6 21.15 37.15 21.15
L 37.55 21.25 37.7 20.75 37.2 20.65 Z"/>
</g>

<g id="IT_300x600_FR_psd_Asset_V11_2_qui_fait_appel____une_solution_de__Wi_Fi_g_r___0_Layer0_0_MEMBER_34_FILL">
<path fill="#D82C26" stroke="none" d="
M 42.1 21.8
Q 41.85 21.25 41.35 20.95 40.85 20.65 40.15 20.65 39.55 20.65 39 20.95 38.45 21.25 38.15 21.8 37.85 22.4 37.85 23.1 37.85 23.85 38.2 24.35 38.5 24.95 39 25.25 39.6 25.55 40.25 25.55 41.35 25.55 42.1 24.95
L 42 24.5
Q 41.65 24.75 41.25 24.9 40.65 25.1 40.3 25.1 39.75 25.1 39.35 24.85 38.95 24.6 38.7 24.15 38.45 23.8 38.45 23.2
L 42.35 23.2 42.35 22.95
Q 42.35 22.25 42.1 21.8
M 41.35 21.55
Q 41.8 22 41.8 22.75
L 38.45 22.75
Q 38.45 22.5 38.65 22 38.85 21.65 39.25 21.35 39.65 21.1 40.15 21.1 40.9 21.1 41.35 21.55
M 41.45 18.4
L 40.75 18.4 39.75 19.85 40.25 19.85 41.45 18.4 Z"/>
</g>

<g id="IT_300x600_FR_psd_Asset_V11_2_qui_fait_appel____une_solution_de__Wi_Fi_g_r___0_Layer0_0_MEMBER_35_FILL">
<path fill="#D82C26" stroke="none" d="
M 43.4 25.35
Q 43.5 25.5 43.7 25.5
L 44 25.35 44.15 25.05
Q 44.15 24.85 44 24.7
L 43.7 24.6 43.4 24.7
Q 43.25 24.85 43.25 25.05
L 43.4 25.35 Z"/>
</g>
</defs>

<g transform="matrix( 1, 0, 0, 1, -260,37) ">
<g transform="matrix( 1, 0, 0, 1, 255,0) ">
<g transform="matrix( 1, 0, 0, 1, 34,4) ">
<g transform="matrix( 2.815704345703125, 0, 0, 2.832611083984375, 0.15,21.6) ">
<use xlink:href="#IT_300x600_FR_psd_Asset_V11_2_qui_fait_appel____une_solution_de__Wi_Fi_g_r___0_Layer0_0_MEMBER_0_FILL"/>
</g>

<g transform="matrix( 2.815704345703125, 0, 0, 2.832611083984375, 0.15,21.6) ">
<use xlink:href="#IT_300x600_FR_psd_Asset_V11_2_qui_fait_appel____une_solution_de__Wi_Fi_g_r___0_Layer0_0_MEMBER_1_FILL"/>
</g>

<g transform="matrix( 2.815704345703125, 0, 0, 2.832611083984375, 0.15,21.6) ">
<use xlink:href="#IT_300x600_FR_psd_Asset_V11_2_qui_fait_appel____une_solution_de__Wi_Fi_g_r___0_Layer0_0_MEMBER_2_FILL"/>
</g>

<g transform="matrix( 2.815704345703125, 0, 0, 2.832611083984375, 0.15,21.6) ">
<use xlink:href="#IT_300x600_FR_psd_Asset_V11_2_qui_fait_appel____une_solution_de__Wi_Fi_g_r___0_Layer0_0_MEMBER_3_FILL"/>
</g>

<g transform="matrix( 2.815704345703125, 0, 0, 2.832611083984375, 0.15,21.6) ">
<use xlink:href="#IT_300x600_FR_psd_Asset_V11_2_qui_fait_appel____une_solution_de__Wi_Fi_g_r___0_Layer0_0_MEMBER_4_FILL"/>
</g>

<g transform="matrix( 2.815704345703125, 0, 0, 2.832611083984375, 0.15,21.6) ">
<use xlink:href="#IT_300x600_FR_psd_Asset_V11_2_qui_fait_appel____une_solution_de__Wi_Fi_g_r___0_Layer0_0_MEMBER_5_FILL"/>
</g>

<g transform="matrix( 2.815704345703125, 0, 0, 2.832611083984375, 0.15,21.6) ">
<use xlink:href="#IT_300x600_FR_psd_Asset_V11_2_qui_fait_appel____une_solution_de__Wi_Fi_g_r___0_Layer0_0_MEMBER_6_FILL"/>
</g>

<g transform="matrix( 2.815704345703125, 0, 0, 2.832611083984375, 0.15,21.6) ">
<use xlink:href="#IT_300x600_FR_psd_Asset_V11_2_qui_fait_appel____une_solution_de__Wi_Fi_g_r___0_Layer0_0_MEMBER_7_FILL"/>
</g>

<g transform="matrix( 2.815704345703125, 0, 0, 2.832611083984375, 0.15,21.6) ">
<use xlink:href="#IT_300x600_FR_psd_Asset_V11_2_qui_fait_appel____une_solution_de__Wi_Fi_g_r___0_Layer0_0_MEMBER_8_FILL"/>
</g>

<g transform="matrix( 2.815704345703125, 0, 0, 2.832611083984375, 0.15,21.6) ">
<use xlink:href="#IT_300x600_FR_psd_Asset_V11_2_qui_fait_appel____une_solution_de__Wi_Fi_g_r___0_Layer0_0_MEMBER_9_FILL"/>
</g>

<g transform="matrix( 2.815704345703125, 0, 0, 2.832611083984375, 0.15,21.6) ">
<use xlink:href="#IT_300x600_FR_psd_Asset_V11_2_qui_fait_appel____une_solution_de__Wi_Fi_g_r___0_Layer0_0_MEMBER_10_FILL"/>
</g>

<g transform="matrix( 2.815704345703125, 0, 0, 2.832611083984375, 0.15,21.6) ">
<use xlink:href="#IT_300x600_FR_psd_Asset_V11_2_qui_fait_appel____une_solution_de__Wi_Fi_g_r___0_Layer0_0_MEMBER_11_FILL"/>
</g>

<g transform="matrix( 2.815704345703125, 0, 0, 2.832611083984375, 0.15,21.6) ">
<use xlink:href="#IT_300x600_FR_psd_Asset_V11_2_qui_fait_appel____une_solution_de__Wi_Fi_g_r___0_Layer0_0_MEMBER_12_FILL"/>
</g>

<g transform="matrix( 2.815704345703125, 0, 0, 2.832611083984375, 0.15,21.6) ">
<use xlink:href="#IT_300x600_FR_psd_Asset_V11_2_qui_fait_appel____une_solution_de__Wi_Fi_g_r___0_Layer0_0_MEMBER_13_FILL"/>
</g>

<g transform="matrix( 2.815704345703125, 0, 0, 2.832611083984375, 0.15,21.6) ">
<use xlink:href="#IT_300x600_FR_psd_Asset_V11_2_qui_fait_appel____une_solution_de__Wi_Fi_g_r___0_Layer0_0_MEMBER_14_FILL"/>
</g>

<g transform="matrix( 2.815704345703125, 0, 0, 2.832611083984375, 0.15,21.6) ">
<use xlink:href="#IT_300x600_FR_psd_Asset_V11_2_qui_fait_appel____une_solution_de__Wi_Fi_g_r___0_Layer0_0_MEMBER_15_FILL"/>
</g>

<g transform="matrix( 2.815704345703125, 0, 0, 2.832611083984375, 0.15,21.6) ">
<use xlink:href="#IT_300x600_FR_psd_Asset_V11_2_qui_fait_appel____une_solution_de__Wi_Fi_g_r___0_Layer0_0_MEMBER_16_FILL"/>
</g>

<g transform="matrix( 2.815704345703125, 0, 0, 2.832611083984375, 0.15,21.6) ">
<use xlink:href="#IT_300x600_FR_psd_Asset_V11_2_qui_fait_appel____une_solution_de__Wi_Fi_g_r___0_Layer0_0_MEMBER_17_FILL"/>
</g>

<g transform="matrix( 2.815704345703125, 0, 0, 2.832611083984375, 0.15,21.6) ">
<use xlink:href="#IT_300x600_FR_psd_Asset_V11_2_qui_fait_appel____une_solution_de__Wi_Fi_g_r___0_Layer0_0_MEMBER_18_FILL"/>
</g>

<g transform="matrix( 2.815704345703125, 0, 0, 2.832611083984375, 0.15,21.6) ">
<use xlink:href="#IT_300x600_FR_psd_Asset_V11_2_qui_fait_appel____une_solution_de__Wi_Fi_g_r___0_Layer0_0_MEMBER_19_FILL"/>
</g>

<g transform="matrix( 2.815704345703125, 0, 0, 2.832611083984375, 0.15,21.6) ">
<use xlink:href="#IT_300x600_FR_psd_Asset_V11_2_qui_fait_appel____une_solution_de__Wi_Fi_g_r___0_Layer0_0_MEMBER_20_FILL"/>
</g>

<g transform="matrix( 2.815704345703125, 0, 0, 2.832611083984375, 0.15,21.6) ">
<use xlink:href="#IT_300x600_FR_psd_Asset_V11_2_qui_fait_appel____une_solution_de__Wi_Fi_g_r___0_Layer0_0_MEMBER_21_FILL"/>
</g>

<g transform="matrix( 2.815704345703125, 0, 0, 2.832611083984375, 0.15,21.6) ">
<use xlink:href="#IT_300x600_FR_psd_Asset_V11_2_qui_fait_appel____une_solution_de__Wi_Fi_g_r___0_Layer0_0_MEMBER_22_FILL"/>
</g>

<g transform="matrix( 2.815704345703125, 0, 0, 2.832611083984375, 0.15,21.6) ">
<use xlink:href="#IT_300x600_FR_psd_Asset_V11_2_qui_fait_appel____une_solution_de__Wi_Fi_g_r___0_Layer0_0_MEMBER_23_FILL"/>
</g>

<g transform="matrix( 2.815704345703125, 0, 0, 2.832611083984375, 0.15,21.6) ">
<use xlink:href="#IT_300x600_FR_psd_Asset_V11_2_qui_fait_appel____une_solution_de__Wi_Fi_g_r___0_Layer0_0_MEMBER_24_FILL"/>
</g>

<g transform="matrix( 2.815704345703125, 0, 0, 2.832611083984375, 0.15,21.6) ">
<use xlink:href="#IT_300x600_FR_psd_Asset_V11_2_qui_fait_appel____une_solution_de__Wi_Fi_g_r___0_Layer0_0_MEMBER_25_FILL"/>
</g>

<g transform="matrix( 2.815704345703125, 0, 0, 2.832611083984375, 0.15,21.6) ">
<use xlink:href="#IT_300x600_FR_psd_Asset_V11_2_qui_fait_appel____une_solution_de__Wi_Fi_g_r___0_Layer0_0_MEMBER_26_FILL"/>
</g>

<g transform="matrix( 2.815704345703125, 0, 0, 2.832611083984375, 0.15,21.6) ">
<use xlink:href="#IT_300x600_FR_psd_Asset_V11_2_qui_fait_appel____une_solution_de__Wi_Fi_g_r___0_Layer0_0_MEMBER_27_FILL"/>
</g>

<g transform="matrix( 2.815704345703125, 0, 0, 2.832611083984375, 0.15,21.6) ">
<use xlink:href="#IT_300x600_FR_psd_Asset_V11_2_qui_fait_appel____une_solution_de__Wi_Fi_g_r___0_Layer0_0_MEMBER_28_FILL"/>
</g>

<g transform="matrix( 2.815704345703125, 0, 0, 2.832611083984375, 0.15,21.6) ">
<use xlink:href="#IT_300x600_FR_psd_Asset_V11_2_qui_fait_appel____une_solution_de__Wi_Fi_g_r___0_Layer0_0_MEMBER_29_FILL"/>
</g>

<g transform="matrix( 2.815704345703125, 0, 0, 2.832611083984375, 0.15,21.6) ">
<use xlink:href="#IT_300x600_FR_psd_Asset_V11_2_qui_fait_appel____une_solution_de__Wi_Fi_g_r___0_Layer0_0_MEMBER_30_FILL"/>
</g>

<g transform="matrix( 2.815704345703125, 0, 0, 2.832611083984375, 0.15,21.6) ">
<use xlink:href="#IT_300x600_FR_psd_Asset_V11_2_qui_fait_appel____une_solution_de__Wi_Fi_g_r___0_Layer0_0_MEMBER_31_FILL"/>
</g>

<g transform="matrix( 2.815704345703125, 0, 0, 2.832611083984375, 0.15,21.6) ">
<use xlink:href="#IT_300x600_FR_psd_Asset_V11_2_qui_fait_appel____une_solution_de__Wi_Fi_g_r___0_Layer0_0_MEMBER_32_FILL"/>
</g>

<g transform="matrix( 2.815704345703125, 0, 0, 2.832611083984375, 0.15,21.6) ">
<use xlink:href="#IT_300x600_FR_psd_Asset_V11_2_qui_fait_appel____une_solution_de__Wi_Fi_g_r___0_Layer0_0_MEMBER_33_FILL"/>
</g>

<g transform="matrix( 2.815704345703125, 0, 0, 2.832611083984375, 0.15,21.6) ">
<use xlink:href="#IT_300x600_FR_psd_Asset_V11_2_qui_fait_appel____une_solution_de__Wi_Fi_g_r___0_Layer0_0_MEMBER_34_FILL"/>
</g>

<g transform="matrix( 2.815704345703125, 0, 0, 2.832611083984375, 0.15,21.6) ">
<use xlink:href="#IT_300x600_FR_psd_Asset_V11_2_qui_fait_appel____une_solution_de__Wi_Fi_g_r___0_Layer0_0_MEMBER_35_FILL"/>
</g>
</g>
</g>
</g>
</svg>
