
<svg xmlns="http://www.w3.org/2000/svg" version="1.1" xmlns:xlink="http://www.w3.org/1999/xlink" preserveAspectRatio="none" x="0px" y="0px" width="640px" height="480px" viewBox="0 0 640 480">
<defs>
<g id="IT_640x480_FR_psd_Asset_B___V5_2_Aidez_votre__quipe_des_TI____gagner_du_temps__0_Layer0_0_MEMBER_0_FILL">
<path fill="#D82C26" stroke="none" d="
M 4.8 -9
L 4 -9 0.15 0 1 0 2.35 -3.35 6.35 -3.35 7.75 0 8.6 0 4.8 -9
M 6.1 -4
L 2.6 -4 4.4 -8.2 6.1 -4 Z"/>
</g>

<g id="IT_640x480_FR_psd_Asset_B___V5_2_Aidez_votre__quipe_des_TI____gagner_du_temps__0_Layer0_0_MEMBER_1_FILL">
<path fill="#D82C26" stroke="none" d="
M 10.25 -5.95
L 9.5 -5.95 9.5 0 10.25 0 10.25 -5.95
M 9.45 -7.95
Q 9.7 -7.8 9.85 -7.8 10.05 -7.8 10.2 -7.95 10.4 -8.1 10.4 -8.35 10.4 -8.55 10.2 -8.7 10.05 -8.85 9.85 -8.85 9.7 -8.85 9.45 -8.7 9.3 -8.55 9.3 -8.35 9.3 -8.1 9.45 -7.95 Z"/>
</g>

<g id="IT_640x480_FR_psd_Asset_B___V5_2_Aidez_votre__quipe_des_TI____gagner_du_temps__0_Layer0_0_MEMBER_2_FILL">
<path fill="#D82C26" stroke="none" d="
M 17.7 -9.75
L 16.95 -9.6 16.95 -4.65
Q 16.6 -5.35 15.9 -5.75 15.25 -6.15 14.5 -6.15 13.65 -6.15 12.95 -5.7 12.3 -5.35 11.9 -4.6 11.55 -3.9 11.55 -2.95 11.55 -2.05 11.9 -1.4 12.3 -0.6 12.95 -0.25 13.55 0.15 14.5 0.15 15.3 0.15 15.95 -0.2 16.55 -0.55 16.95 -1.3
L 17 -1.3 17.05 0 17.75 0 17.7 -9.75
M 13.35 -5.15
Q 13.9 -5.5 14.6 -5.5 15.3 -5.5 15.85 -5.15 16.3 -4.9 16.65 -4.25 17 -3.7 17 -2.95 17 -2.25 16.65 -1.7 16.35 -1.15 15.85 -0.8 15.3 -0.45 14.6 -0.45 13.9 -0.45 13.35 -0.8 12.85 -1.1 12.55 -1.7 12.3 -2.2 12.3 -2.95 12.3 -3.75 12.55 -4.25 12.95 -4.9 13.35 -5.15 Z"/>
</g>

<g id="IT_640x480_FR_psd_Asset_B___V5_2_Aidez_votre__quipe_des_TI____gagner_du_temps__0_Layer0_0_MEMBER_3_FILL">
<path fill="#D82C26" stroke="none" d="
M 19 -3
Q 19 -2 19.4 -1.35 19.8 -0.6 20.45 -0.25 21.2 0.2 22.05 0.2 23.45 0.2 24.4 -0.55
L 24.3 -1.2
Q 23.9 -0.9 23.35 -0.65 22.8 -0.45 22.1 -0.45 21.45 -0.45 20.9 -0.75 20.4 -1.05 20.05 -1.65 19.7 -2.25 19.7 -2.85
L 24.75 -2.85 24.75 -3.2
Q 24.75 -4 24.45 -4.7 24.05 -5.4 23.45 -5.75 22.8 -6.15 21.95 -6.15 21.15 -6.15 20.45 -5.75 19.75 -5.3 19.4 -4.65 19 -4 19 -3
M 19.75 -3.4
Q 19.75 -3.8 20 -4.4 20.35 -4.95 20.75 -5.2 21.25 -5.55 21.95 -5.55 22.95 -5.55 23.45 -4.95 24.05 -4.4 24.05 -3.4
L 19.75 -3.4 Z"/>
</g>

<g id="IT_640x480_FR_psd_Asset_B___V5_2_Aidez_votre__quipe_des_TI____gagner_du_temps__0_Layer0_0_MEMBER_4_FILL">
<path fill="#D82C26" stroke="none" d="
M 29.1 -5.35
L 25.4 -0.6 25.4 0 30.05 0 30.2 -0.6 26.3 -0.6 29.95 -5.35 29.95 -5.95 25.65 -5.95 25.5 -5.35 29.1 -5.35 Z"/>
</g>

<g id="IT_640x480_FR_psd_Asset_B___V5_2_Aidez_votre__quipe_des_TI____gagner_du_temps__0_Layer0_0_MEMBER_5_FILL">
<path fill="#D82C26" stroke="none" d="
M 33.7 -5.95
L 32.9 -5.95 35.2 0 36.05 0 38.25 -5.95 37.5 -5.95 35.6 -0.75 33.7 -5.95 Z"/>
</g>

<g id="IT_640x480_FR_psd_Asset_B___V5_2_Aidez_votre__quipe_des_TI____gagner_du_temps__0_Layer0_0_MEMBER_6_FILL">
<path fill="#D82C26" stroke="none" d="
M 38.9 -1.35
Q 39.45 -0.55 40.05 -0.25 40.8 0.2 41.65 0.2 42.55 0.2 43.3 -0.25 43.95 -0.55 44.45 -1.35 44.85 -2.15 44.85 -3 44.85 -3.9 44.45 -4.6 44 -5.3 43.3 -5.75 42.5 -6.15 41.65 -6.15 40.85 -6.15 40.05 -5.75 39.35 -5.3 38.9 -4.6 38.5 -3.9 38.5 -3 38.5 -2.15 38.9 -1.35
M 39.55 -4.25
Q 39.85 -4.9 40.4 -5.15 40.9 -5.5 41.65 -5.5 42.45 -5.5 42.95 -5.15 43.5 -4.85 43.8 -4.25 44.1 -3.7 44.1 -3 44.1 -2.3 43.8 -1.7 43.45 -1.1 42.95 -0.8 42.45 -0.45 41.65 -0.45 40.9 -0.45 40.4 -0.8 39.9 -1.1 39.55 -1.7 39.25 -2.3 39.25 -3 39.25 -3.7 39.55 -4.25 Z"/>
</g>

<g id="IT_640x480_FR_psd_Asset_B___V5_2_Aidez_votre__quipe_des_TI____gagner_du_temps__0_Layer0_0_MEMBER_7_FILL">
<path fill="#D82C26" stroke="none" d="
M 46.9 -7.65
L 46.15 -7.35 46.15 -5.95 45.2 -5.95 45.05 -5.35 46.15 -5.35 46.15 -1.45
Q 46.15 -0.7 46.55 -0.3 46.95 0.15 47.55 0.15
L 48.25 0.05 48.8 -0.2 48.7 -0.75
Q 48.25 -0.5 47.75 -0.5 47.35 -0.5 47.15 -0.75 46.9 -1 46.9 -1.55
L 46.9 -5.35 48.45 -5.35 48.6 -5.95 46.9 -5.95 46.9 -7.65 Z"/>
</g>

<g id="IT_640x480_FR_psd_Asset_B___V5_2_Aidez_votre__quipe_des_TI____gagner_du_temps__0_Layer0_0_MEMBER_8_FILL">
<path fill="#D82C26" stroke="none" d="
M 50.35 -5.95
L 49.65 -5.95 49.7 0 50.45 0 50.45 -2.95
Q 50.45 -4 50.9 -4.75 51.35 -5.45 52.15 -5.45
L 52.65 -5.4 52.8 -6
Q 52.5 -6.15 52.2 -6.15 51.7 -6.15 51.15 -5.75 50.7 -5.35 50.45 -4.65
L 50.4 -4.65 50.35 -5.95 Z"/>
</g>

<g id="IT_640x480_FR_psd_Asset_B___V5_2_Aidez_votre__quipe_des_TI____gagner_du_temps__0_Layer0_0_MEMBER_9_FILL">
<path fill="#D82C26" stroke="none" d="
M 53.3 -1.35
Q 53.8 -0.55 54.4 -0.25 55.1 0.2 56 0.2 57.4 0.2 58.35 -0.55
L 58.25 -1.2
Q 57.65 -0.8 57.25 -0.65 56.8 -0.45 56.05 -0.45 55.4 -0.45 54.8 -0.75 54.25 -1.15 53.95 -1.65 53.65 -2.15 53.65 -2.85
L 58.7 -2.85 58.7 -3.2
Q 58.7 -4 58.4 -4.7 58 -5.4 57.4 -5.75 56.75 -6.15 55.9 -6.15 55.1 -6.15 54.4 -5.75 53.65 -5.25 53.3 -4.65 52.95 -3.95 52.95 -3 52.95 -2.05 53.3 -1.35
M 53.95 -4.4
Q 54.2 -4.85 54.7 -5.2 55.2 -5.55 55.9 -5.55 56.8 -5.55 57.4 -4.95 58 -4.4 58 -3.4
L 53.65 -3.4
Q 53.7 -3.85 53.95 -4.4 Z"/>
</g>

<g id="IT_640x480_FR_psd_Asset_B___V5_2_Aidez_votre__quipe_des_TI____gagner_du_temps__0_Layer0_0_MEMBER_10_FILL">
<path fill="#D82C26" stroke="none" d="
M 65.25 -6.15
Q 64.45 -6.15 63.75 -5.75 63.05 -5.3 62.7 -4.65 62.3 -4 62.3 -3 62.3 -2.15 62.7 -1.35 63.1 -0.6 63.8 -0.25 64.5 0.2 65.35 0.2 66.75 0.2 67.7 -0.55
L 67.6 -1.2 66.65 -0.65
Q 66.1 -0.45 65.4 -0.45 64.75 -0.45 64.2 -0.75 63.7 -1.05 63.35 -1.65 63.1 -2.1 63 -2.85
L 68.05 -2.85 68.1 -3.2
Q 68.1 -3.9 67.75 -4.7 67.45 -5.35 66.75 -5.75 66.1 -6.15 65.25 -6.15
M 64.05 -5.2
Q 64.55 -5.55 65.25 -5.55 66.25 -5.55 66.75 -4.95 67.35 -4.4 67.35 -3.4
L 63.05 -3.4
Q 63.05 -3.8 63.3 -4.4 63.65 -4.95 64.05 -5.2
M 66.9 -9
L 66 -9 64.7 -7.2 65.35 -7.2 66.9 -9 Z"/>
</g>

<g id="IT_640x480_FR_psd_Asset_B___V5_2_Aidez_votre__quipe_des_TI____gagner_du_temps__0_Layer0_0_MEMBER_11_FILL">
<path fill="#D82C26" stroke="none" d="
M 69.35 -1.4
Q 69.75 -0.6 70.4 -0.25 71.05 0.15 72 0.15 72.75 0.15 73.4 -0.2 74 -0.55 74.4 -1.25
L 74.4 1.4
Q 74.4 2.75 75.7 3.05
L 76.05 2.45
Q 75.65 2.35 75.35 2.05 75.15 1.8 75.15 1.25
L 75.2 -5.95 74.5 -5.95 74.45 -4.65 74.4 -4.65
Q 73.95 -5.45 73.4 -5.75 72.7 -6.15 72 -6.15 71.15 -6.15 70.4 -5.7 69.75 -5.35 69.35 -4.6 69 -3.9 69 -2.95 69 -2.05 69.35 -1.4
M 70.05 -4.25
Q 70.3 -4.85 70.85 -5.15 71.35 -5.5 72.1 -5.5 72.8 -5.5 73.3 -5.15 73.8 -4.85 74.15 -4.25 74.45 -3.65 74.45 -2.95 74.45 -2.3 74.15 -1.7 73.85 -1.2 73.3 -0.8 72.8 -0.45 72.1 -0.45 71.35 -0.45 70.85 -0.8 70.25 -1.15 70.05 -1.7 69.75 -2.3 69.75 -2.95 69.75 -3.65 70.05 -4.25 Z"/>
</g>

<g id="IT_640x480_FR_psd_Asset_B___V5_2_Aidez_votre__quipe_des_TI____gagner_du_temps__0_Layer0_0_MEMBER_12_FILL">
<path fill="#D82C26" stroke="none" d="
M 76.8 -2.35
Q 76.8 -1.2 77.3 -0.55 77.8 0.15 78.95 0.15 79.7 0.15 80.25 -0.25 80.9 -0.65 81.1 -1.3
L 81.25 0 81.95 0 81.85 -5.95 81.1 -5.95 81.1 -3
Q 81.1 -2.1 80.85 -1.6 80.6 -1.05 80.15 -0.75 79.7 -0.45 79.15 -0.45 78.3 -0.45 77.9 -1.05 77.5 -1.7 77.5 -2.5
L 77.5 -5.95 76.8 -5.95 76.8 -2.35 Z"/>
</g>

<g id="IT_640x480_FR_psd_Asset_B___V5_2_Aidez_votre__quipe_des_TI____gagner_du_temps__0_Layer0_0_MEMBER_13_FILL">
<path fill="#D82C26" stroke="none" d="
M 84.35 -5.95
L 83.6 -5.95 83.6 0 84.35 0 84.35 -5.95
M 83.95 -7.8
Q 84.2 -7.8 84.35 -7.95 84.5 -8.1 84.5 -8.35 84.5 -8.55 84.35 -8.7 84.2 -8.85 83.95 -8.85 83.75 -8.85 83.6 -8.7 83.4 -8.5 83.4 -8.35 83.4 -8.15 83.6 -7.95 83.75 -7.8 83.95 -7.8 Z"/>
</g>

<g id="IT_640x480_FR_psd_Asset_B___V5_2_Aidez_votre__quipe_des_TI____gagner_du_temps__0_Layer0_0_MEMBER_14_FILL">
<path fill="#D82C26" stroke="none" d="
M 90.8 -5.7
Q 90.15 -6.15 89.2 -6.15 88.5 -6.15 87.8 -5.75 87.25 -5.45 86.8 -4.65
L 86.75 -4.65 86.7 -5.95 86 -5.95 86.05 3.05 86.8 3.05 86.8 -1.25
Q 87.2 -0.55 87.8 -0.2 88.45 0.15 89.2 0.15 90.2 0.15 90.8 -0.25 91.45 -0.6 91.85 -1.4 92.2 -2.05 92.2 -2.95 92.2 -3.9 91.85 -4.6 91.45 -5.35 90.8 -5.7
M 89.1 -5.5
Q 89.85 -5.5 90.35 -5.15 90.8 -4.9 91.15 -4.25 91.45 -3.65 91.45 -2.95 91.45 -2.3 91.15 -1.7 90.85 -1.1 90.35 -0.8 89.85 -0.45 89.1 -0.45 88.4 -0.45 87.9 -0.8 87.35 -1.2 87.05 -1.7 86.75 -2.3 86.75 -2.95 86.75 -3.65 87.05 -4.25 87.4 -4.85 87.9 -5.15 88.4 -5.5 89.1 -5.5 Z"/>
</g>

<g id="IT_640x480_FR_psd_Asset_B___V5_2_Aidez_votre__quipe_des_TI____gagner_du_temps__0_Layer0_0_MEMBER_15_FILL">
<path fill="#D82C26" stroke="none" d="
M 96.1 -6.15
Q 95.3 -6.15 94.6 -5.75 93.9 -5.3 93.55 -4.65 93.15 -3.85 93.15 -3 93.15 -2.15 93.55 -1.35 93.95 -0.6 94.65 -0.25 95.35 0.2 96.2 0.2 97.55 0.2 98.6 -0.55
L 98.45 -1.2
Q 98.05 -0.9 97.5 -0.65 96.95 -0.45 96.25 -0.45 95.6 -0.45 95.05 -0.75 94.5 -1.15 94.2 -1.65 93.95 -2.1 93.85 -2.85
L 98.9 -2.85 98.95 -3.2
Q 98.95 -3.9 98.6 -4.7 98.3 -5.35 97.65 -5.75 96.95 -6.15 96.1 -6.15
M 94.95 -5.2
Q 95.35 -5.55 96.1 -5.55 97.1 -5.55 97.6 -4.95 98.2 -4.4 98.2 -3.4
L 93.9 -3.4
Q 93.9 -3.8 94.15 -4.4 94.5 -4.95 94.95 -5.2 Z"/>
</g>

<g id="IT_640x480_FR_psd_Asset_B___V5_2_Aidez_votre__quipe_des_TI____gagner_du_temps__0_Layer0_0_MEMBER_16_FILL">
<path fill="#D82C26" stroke="none" d="
M 108.7 -9.75
L 107.95 -9.6 107.95 -4.65 107.9 -4.65
Q 107.6 -5.35 106.9 -5.75 106.25 -6.15 105.5 -6.15 104.65 -6.15 103.95 -5.7 103.3 -5.35 102.9 -4.6 102.5 -3.8 102.5 -2.95 102.5 -2.1 102.9 -1.4 103.3 -0.6 103.95 -0.25 104.55 0.15 105.5 0.15 106.35 0.15 106.9 -0.2 107.55 -0.55 107.95 -1.3
L 108.05 0 108.75 0 108.7 -9.75
M 104.35 -5.15
Q 104.85 -5.5 105.6 -5.5 106.3 -5.5 106.8 -5.15 107.25 -4.9 107.65 -4.25 107.95 -3.65 107.95 -2.95 107.95 -2.3 107.65 -1.7 107.3 -1.1 106.8 -0.8 106.3 -0.45 105.6 -0.45 104.85 -0.45 104.35 -0.8 103.85 -1.1 103.55 -1.7 103.25 -2.3 103.25 -2.95 103.25 -3.65 103.55 -4.25 103.95 -4.9 104.35 -5.15 Z"/>
</g>

<g id="IT_640x480_FR_psd_Asset_B___V5_2_Aidez_votre__quipe_des_TI____gagner_du_temps__0_Layer0_0_MEMBER_17_FILL">
<path fill="#D82C26" stroke="none" d="
M 110 -3
Q 110 -2 110.4 -1.35 110.8 -0.6 111.45 -0.25 112.15 0.2 113.05 0.2 114.45 0.2 115.4 -0.55
L 115.3 -1.2
Q 114.7 -0.8 114.3 -0.65 113.85 -0.45 113.1 -0.45 112.45 -0.45 111.85 -0.75 111.45 -1.05 111 -1.65 110.7 -2.15 110.7 -2.85
L 115.75 -2.85 115.75 -3.2
Q 115.75 -4 115.45 -4.7 115.05 -5.4 114.45 -5.75 113.8 -6.15 112.95 -6.15 112.15 -6.15 111.45 -5.75 110.8 -5.3 110.35 -4.65 110 -3.95 110 -3
M 110.7 -3.4
Q 110.75 -3.85 111 -4.4 111.35 -4.95 111.75 -5.2 112.25 -5.55 112.95 -5.55 113.85 -5.55 114.45 -4.95 115.05 -4.4 115.05 -3.4
L 110.7 -3.4 Z"/>
</g>

<g id="IT_640x480_FR_psd_Asset_B___V5_2_Aidez_votre__quipe_des_TI____gagner_du_temps__0_Layer0_0_MEMBER_18_FILL">
<path fill="#D82C26" stroke="none" d="
M 120.55 -5.5
L 119.7 -5.95
Q 119.1 -6.15 118.65 -6.15 118.1 -6.15 117.7 -5.95 117.3 -5.8 116.95 -5.4 116.7 -5 116.7 -4.5 116.7 -3.8 117.1 -3.45 117.5 -3.1 118.35 -2.8 119.15 -2.6 119.6 -2.25 120 -2.05 120 -1.55 120 -0.95 119.6 -0.7 119.25 -0.4 118.7 -0.4 117.55 -0.4 116.7 -1.15
L 116.55 -0.5
Q 116.9 -0.25 117.5 0 118.05 0.15 118.7 0.15 119.3 0.15 119.7 -0.05 120.1 -0.2 120.45 -0.6 120.7 -0.95 120.7 -1.55 120.7 -2.2 120.3 -2.6 119.95 -2.95 118.9 -3.3
L 117.7 -3.85
Q 117.4 -4.05 117.4 -4.55 117.4 -5 117.75 -5.3 118.15 -5.55 118.7 -5.55 119.15 -5.55 119.5 -5.4
L 120.25 -4.95 120.55 -5.5 Z"/>
</g>

<g id="IT_640x480_FR_psd_Asset_B___V5_2_Aidez_votre__quipe_des_TI____gagner_du_temps__0_Layer0_0_MEMBER_19_FILL">
<path fill="#D82C26" stroke="none" d="
M 123.55 -8.3
L 126.45 -8.3 126.45 0 127.2 0 127.2 -8.3 129.95 -8.3 130.1 -9 123.7 -9 123.55 -8.3 Z"/>
</g>

<g id="IT_640x480_FR_psd_Asset_B___V5_2_Aidez_votre__quipe_des_TI____gagner_du_temps__0_Layer0_0_MEMBER_20_FILL">
<path fill="#D82C26" stroke="none" d="
M 131.8 -9
L 131 -9 131 0 131.8 0 131.8 -9 Z"/>
</g>

<g id="IT_640x480_FR_psd_Asset_B___V5_2_Aidez_votre__quipe_des_TI____gagner_du_temps__0_Layer0_0_MEMBER_21_FILL">
<path fill="#D82C26" stroke="none" d="
M 4.95 9.25
Q 4.3 8.7 3.3 8.7 2.6 8.7 2.05 8.9 1.55 9.05 1.05 9.45
L 1.3 10
Q 1.55 9.75 2.15 9.5 2.6 9.3 3.2 9.3 4 9.3 4.4 9.7 4.85 10.1 4.85 10.9
L 4.85 11.25 4.15 11.25
Q 0.75 11.25 0.75 13.25 0.75 14.15 1.3 14.55 1.85 15 2.65 15 3.4 15 3.95 14.65 4.6 14.35 4.85 13.65
L 4.9 13.65 4.9 14.3 5 14.85 5.65 14.85 5.55 10.95
Q 5.55 9.85 4.95 9.25
M 4.85 11.75
L 4.85 12.35
Q 4.85 12.9 4.65 13.35 4.45 13.8 3.95 14.1 3.45 14.45 2.8 14.45 2.25 14.45 1.85 14.15 1.45 13.85 1.45 13.2 1.45 11.75 4.25 11.75
L 4.85 11.75
M 2.75 5.8
L 1.9 5.8 3.45 7.65 4.05 7.65 2.75 5.8 Z"/>
</g>

<g id="IT_640x480_FR_psd_Asset_B___V5_2_Aidez_votre__quipe_des_TI____gagner_du_temps__0_Layer0_0_MEMBER_22_FILL">
<path fill="#D82C26" stroke="none" d="
M 12.5 8.7
Q 11.75 8.7 10.95 9.1 10.3 9.55 9.9 10.25 9.55 10.95 9.55 11.85 9.55 12.75 9.9 13.4 10.25 14.1 10.95 14.55 11.65 14.95 12.5 14.95 13.25 14.95 13.95 14.55 14.55 14.2 14.95 13.5
L 14.95 14.75
Q 14.95 15.9 14.35 16.65 13.75 17.3 12.5 17.3 11.8 17.3 11.2 17.1
L 10.05 16.55 9.9 17.25
Q 10.55 17.65 11.1 17.75 11.7 17.95 12.55 17.95 14.1 17.95 14.95 17.1 15.7 16.2 15.7 14.75
L 15.75 8.9 15.05 8.9 14.95 10.2
Q 14.6 9.5 13.95 9.1 13.25 8.7 12.5 8.7
M 11.4 9.65
Q 12 9.3 12.6 9.3 13.15 9.3 13.85 9.65 14.45 10.05 14.7 10.6 15 11.15 15 11.85 15 12.5 14.7 13.1 14.4 13.6 13.85 14 13.15 14.35 12.6 14.35 12 14.35 11.4 14 10.85 13.6 10.55 13.1 10.3 12.45 10.3 11.85 10.3 11.2 10.55 10.6 10.8 10.05 11.4 9.65 Z"/>
</g>

<g id="IT_640x480_FR_psd_Asset_B___V5_2_Aidez_votre__quipe_des_TI____gagner_du_temps__0_Layer0_0_MEMBER_23_FILL">
<path fill="#D82C26" stroke="none" d="
M 21.1 11.25
L 20.35 11.25
Q 16.95 11.25 16.95 13.25 16.95 14.1 17.5 14.55 18.1 15 18.85 15 19.55 15 20.2 14.65 20.8 14.35 21.05 13.65
L 21.1 13.65 21.2 14.85 21.9 14.85
Q 21.8 14.5 21.8 13.55
L 21.8 10.95
Q 21.8 9.9 21.15 9.25 20.5 8.7 19.5 8.7 18.75 8.7 18.3 8.9 17.7 9.05 17.3 9.45
L 17.5 10
Q 17.9 9.7 18.4 9.5 18.85 9.3 19.4 9.3 20.2 9.3 20.65 9.7 21.1 10.1 21.1 10.9
L 21.1 11.25
M 21.1 11.75
L 21.1 12.35
Q 21.1 12.75 20.85 13.35 20.65 13.8 20.15 14.1 19.65 14.45 19 14.45 18.45 14.45 18.05 14.15 17.65 13.85 17.65 13.2 17.65 11.75 20.45 11.75
L 21.1 11.75 Z"/>
</g>

<g id="IT_640x480_FR_psd_Asset_B___V5_2_Aidez_votre__quipe_des_TI____gagner_du_temps__0_Layer0_0_MEMBER_24_FILL">
<path fill="#D82C26" stroke="none" d="
M 24.45 9.1
Q 23.8 9.55 23.4 10.25 23 11.05 23 11.85 23 12.7 23.4 13.4 23.75 14.1 24.45 14.55 25.15 14.95 26 14.95 26.75 14.95 27.4 14.55 28.1 14.15 28.4 13.5
L 28.45 13.5 28.45 14.75
Q 28.45 15.9 27.85 16.65 27.25 17.3 25.95 17.3 25.25 17.3 24.7 17.1 24.25 16.95 23.55 16.55
L 23.4 17.25
Q 24.05 17.65 24.6 17.75 25.2 17.95 26 17.95 27.65 17.95 28.4 17.1 29.15 16.2 29.15 14.75
L 29.2 8.9 28.5 8.9 28.45 10.2 28.4 10.2
Q 28.1 9.5 27.4 9.1 26.7 8.7 26 8.7 25.15 8.7 24.45 9.1
M 24.05 10.6
Q 24.35 10 24.85 9.65 25.45 9.3 26.1 9.3 26.7 9.3 27.3 9.65 27.9 10.05 28.15 10.6 28.45 11.15 28.45 11.85 28.45 12.5 28.15 13.1 27.85 13.6 27.3 14 26.7 14.35 26.1 14.35 25.45 14.35 24.85 14 24.35 13.65 24.05 13.1 23.75 12.5 23.75 11.85 23.75 11.15 24.05 10.6 Z"/>
</g>

<g id="IT_640x480_FR_psd_Asset_B___V5_2_Aidez_votre__quipe_des_TI____gagner_du_temps__0_Layer0_0_MEMBER_25_FILL">
<path fill="#D82C26" stroke="none" d="
M 31.5 8.9
L 30.8 8.9 30.85 14.85 31.6 14.85 31.6 11.8
Q 31.6 11.05 31.9 10.45 32.15 9.9 32.6 9.6 33.05 9.3 33.6 9.3 34.5 9.3 34.85 9.9 35.2 10.45 35.2 11.4
L 35.2 14.85 35.95 14.85 35.95 11.2
Q 35.95 10.1 35.45 9.4 34.85 8.7 33.75 8.7 33.1 8.7 32.45 9.1 31.9 9.45 31.6 10.15
L 31.5 8.9 Z"/>
</g>

<g id="IT_640x480_FR_psd_Asset_B___V5_2_Aidez_votre__quipe_des_TI____gagner_du_temps__0_Layer0_0_MEMBER_26_FILL">
<path fill="#D82C26" stroke="none" d="
M 42.7 10.15
Q 42.3 9.45 41.7 9.1 41.15 8.7 40.2 8.7 39.3 8.7 38.7 9.1 38 9.5 37.6 10.2 37.25 10.9 37.25 11.8 37.25 12.8 37.6 13.45 38.1 14.25 38.7 14.6 39.4 15 40.3 15 41.7 15 42.65 14.25
L 42.55 13.6
Q 42.15 13.9 41.55 14.15 40.95 14.4 40.35 14.4 39.65 14.4 39.1 14.05 38.55 13.75 38.25 13.2 37.95 12.6 37.95 11.95
L 43 11.95 43 11.65
Q 43 10.85 42.7 10.15
M 41.7 9.85
Q 42.3 10.45 42.3 11.4
L 37.95 11.4
Q 38.05 10.9 38.25 10.45 38.4 10.1 39 9.6 39.6 9.25 40.2 9.25 41.1 9.25 41.7 9.85 Z"/>
</g>

<g id="IT_640x480_FR_psd_Asset_B___V5_2_Aidez_votre__quipe_des_TI____gagner_du_temps__0_Layer0_0_MEMBER_27_FILL">
<path fill="#D82C26" stroke="none" d="
M 45.05 11.85
Q 45.05 10.85 45.5 10.1 45.95 9.35 46.7 9.35
L 47.25 9.45 47.4 8.8 46.75 8.7
Q 46.25 8.7 45.75 9.1 45.25 9.5 45 10.15
L 44.95 8.9 44.2 8.9 44.3 14.85 45.05 14.85 45.05 11.85 Z"/>
</g>

<g id="IT_640x480_FR_psd_Asset_B___V5_2_Aidez_votre__quipe_des_TI____gagner_du_temps__0_Layer0_0_MEMBER_28_FILL">
<path fill="#D82C26" stroke="none" d="
M 56.45 5.05
L 55.75 5.2 55.75 10.15 55.7 10.15
Q 55.3 9.45 54.7 9.1 54 8.7 53.3 8.7 52.45 8.7 51.75 9.1 51.05 9.6 50.7 10.25 50.3 11.05 50.3 11.85 50.3 12.65 50.7 13.45 51.05 14.15 51.75 14.6 52.45 15 53.3 15 54 15 54.7 14.6 55.4 14.25 55.75 13.55
L 55.8 14.85 56.55 14.85 56.45 5.05
M 54.6 9.65
Q 55.2 10.05 55.45 10.6 55.75 11.15 55.75 11.85 55.75 12.6 55.45 13.1 55.2 13.65 54.6 14.05 54.1 14.35 53.4 14.35 52.7 14.35 52.15 14.05 51.65 13.7 51.35 13.1 51.05 12.6 51.05 11.85 51.05 11.15 51.35 10.6 51.65 10 52.15 9.65 52.75 9.3 53.4 9.3 54 9.3 54.6 9.65 Z"/>
</g>

<g id="IT_640x480_FR_psd_Asset_B___V5_2_Aidez_votre__quipe_des_TI____gagner_du_temps__0_Layer0_0_MEMBER_29_FILL">
<path fill="#D82C26" stroke="none" d="
M 62.45 8.9
L 62.45 11.85
Q 62.45 12.6 62.15 13.2 61.95 13.8 61.45 14.1 61 14.4 60.45 14.4 59.6 14.4 59.2 13.8 58.85 13.25 58.85 12.3
L 58.85 8.9 58.1 8.9 58.1 12.5
Q 58.1 13.6 58.6 14.3 59.15 15 60.25 15 60.9 15 61.55 14.6 62.15 14.25 62.45 13.55
L 62.55 14.85 63.3 14.85 63.2 14.15 63.15 8.9 62.45 8.9 Z"/>
</g>

<g id="IT_640x480_FR_psd_Asset_B___V5_2_Aidez_votre__quipe_des_TI____gagner_du_temps__0_Layer0_0_MEMBER_30_FILL">
<path fill="#D82C26" stroke="none" d="
M 68.55 8.9
L 68.55 7.15 67.8 7.45 67.8 8.9 66.85 8.9 66.7 9.45 67.8 9.45 67.8 13.4
Q 67.8 14.15 68.2 14.55 68.6 14.95 69.2 14.95
L 69.85 14.85
Q 70.3 14.75 70.45 14.65
L 70.35 14.1
Q 69.75 14.35 69.4 14.35 69.05 14.35 68.8 14.1 68.55 13.75 68.55 13.3
L 68.55 9.45 70.1 9.45 70.25 8.9 68.55 8.9 Z"/>
</g>

<g id="IT_640x480_FR_psd_Asset_B___V5_2_Aidez_votre__quipe_des_TI____gagner_du_temps__0_Layer0_0_MEMBER_31_FILL">
<path fill="#D82C26" stroke="none" d="
M 75.2 9.1
Q 74.6 8.7 73.65 8.7 72.75 8.7 72.15 9.1 71.5 9.45 71.1 10.2 70.7 11 70.7 11.8 70.7 12.75 71.1 13.45 71.6 14.25 72.2 14.6 72.9 15 73.75 15 75.2 15 76.15 14.25
L 76 13.6
Q 75.7 13.9 75.05 14.15 74.4 14.4 73.85 14.4 73.1 14.4 72.6 14.05 72.05 13.75 71.75 13.2 71.45 12.6 71.45 11.95
L 76.5 11.95 76.5 11.65
Q 76.5 10.8 76.15 10.15 75.85 9.45 75.2 9.1
M 71.75 10.45
Q 71.95 10 72.5 9.6 73.1 9.25 73.65 9.25 74.6 9.25 75.2 9.85 75.7 10.35 75.8 11.4
L 71.45 11.4
Q 71.45 10.9 71.75 10.45 Z"/>
</g>

<g id="IT_640x480_FR_psd_Asset_B___V5_2_Aidez_votre__quipe_des_TI____gagner_du_temps__0_Layer0_0_MEMBER_32_FILL">
<path fill="#D82C26" stroke="none" d="
M 82.55 10.25
Q 82.3 9.45 81.8 9.1 81.3 8.7 80.6 8.7 79.9 8.7 79.35 9.1 78.8 9.45 78.55 10.15
L 78.5 10.15 78.45 8.9 77.75 8.9 77.8 14.85 78.55 14.85 78.55 11.85
Q 78.55 11 78.8 10.5 79 9.95 79.45 9.6 79.9 9.3 80.4 9.3 81.1 9.3 81.55 9.85 81.9 10.35 81.9 11.3
L 81.9 14.85 82.65 14.85 82.65 11.75
Q 82.65 10.7 83.2 10 83.75 9.3 84.55 9.3 85.35 9.3 85.75 9.95 86.1 10.5 86.1 11.45
L 86.1 14.85 86.85 14.85 86.85 11.25
Q 86.85 10.15 86.3 9.45 85.85 8.7 84.7 8.7 83.95 8.7 83.4 9.1 82.8 9.5 82.55 10.25 Z"/>
</g>

<g id="IT_640x480_FR_psd_Asset_B___V5_2_Aidez_votre__quipe_des_TI____gagner_du_temps__0_Layer0_0_MEMBER_33_FILL">
<path fill="#D82C26" stroke="none" d="
M 93.2 9.1
Q 92.5 8.7 91.65 8.7 90.9 8.7 90.25 9.1 89.55 9.5 89.25 10.2
L 89.2 10.2 89.15 8.9 88.45 8.9 88.45 17.9 89.2 17.9 89.2 13.55 89.25 13.55
Q 89.55 14.2 90.25 14.6 90.95 15 91.65 15 92.5 15 93.2 14.6 93.9 14.15 94.25 13.45 94.65 12.65 94.65 11.85 94.65 10.95 94.25 10.25 93.9 9.6 93.2 9.1
M 93.6 10.6
Q 93.9 11.15 93.9 11.85 93.9 12.6 93.6 13.1 93.3 13.7 92.8 14.05 92.3 14.35 91.55 14.35 90.9 14.35 90.35 14.05 89.75 13.65 89.5 13.1 89.2 12.6 89.2 11.85 89.2 11.15 89.5 10.6 89.75 10.05 90.35 9.65 90.95 9.3 91.55 9.3 92.2 9.3 92.8 9.65 93.3 10 93.6 10.6 Z"/>
</g>

<g id="IT_640x480_FR_psd_Asset_B___V5_2_Aidez_votre__quipe_des_TI____gagner_du_temps__0_Layer0_0_MEMBER_34_FILL">
<path fill="#D82C26" stroke="none" d="
M 95.55 10.35
Q 95.55 10.95 95.95 11.35 96.4 11.7 97.25 12
L 98.5 12.55
Q 98.85 12.85 98.85 13.3 98.85 13.8 98.5 14.1 98.05 14.4 97.55 14.4 96.4 14.4 95.55 13.7
L 95.45 14.35
Q 95.75 14.65 96.35 14.8 96.9 15 97.55 15 98.15 15 98.55 14.8 99 14.6 99.3 14.2 99.6 13.85 99.6 13.25 99.6 12.6 99.15 12.2 98.65 11.75 97.75 11.5 96.8 11.15 96.6 11 96.25 10.7 96.25 10.3 96.25 9.75 96.6 9.55 96.9 9.3 97.55 9.3 97.95 9.3 98.4 9.45
L 99.1 9.85 99.4 9.3
Q 99.05 9.05 98.55 8.9 98.15 8.7 97.5 8.7 97 8.7 96.55 8.85 96.05 9.1 95.85 9.45 95.55 9.85 95.55 10.35 Z"/>
</g>

<g id="IT_640x480_FR_psd_Asset_B___V5_2_Aidez_votre__quipe_des_TI____gagner_du_temps__0_Layer0_0_MEMBER_35_FILL">
<path fill="#D82C26" stroke="none" d="
M 100.95 14.75
Q 101.1 14.9 101.35 14.9 101.6 14.9 101.75 14.75 101.9 14.6 101.9 14.35 101.9 14.15 101.75 13.9 101.6 13.75 101.35 13.75 101.1 13.75 100.95 13.95 100.8 14.1 100.8 14.35 100.8 14.6 100.95 14.75 Z"/>
</g>
</defs>

<g transform="matrix( 1, 0, 0, 1, -6,-18) ">
<g transform="matrix( 1, 0, 0, 1, 0,47) ">
<g transform="matrix( 1, 0, 0, 1, 53,10) ">
<g transform="matrix( 2.815704345703125, 0, 0, 2.832611083984375, 0.15,27.6) ">
<use xlink:href="#IT_640x480_FR_psd_Asset_B___V5_2_Aidez_votre__quipe_des_TI____gagner_du_temps__0_Layer0_0_MEMBER_0_FILL"/>
</g>

<g transform="matrix( 2.815704345703125, 0, 0, 2.832611083984375, 0.15,27.6) ">
<use xlink:href="#IT_640x480_FR_psd_Asset_B___V5_2_Aidez_votre__quipe_des_TI____gagner_du_temps__0_Layer0_0_MEMBER_1_FILL"/>
</g>

<g transform="matrix( 2.815704345703125, 0, 0, 2.832611083984375, 0.15,27.6) ">
<use xlink:href="#IT_640x480_FR_psd_Asset_B___V5_2_Aidez_votre__quipe_des_TI____gagner_du_temps__0_Layer0_0_MEMBER_2_FILL"/>
</g>

<g transform="matrix( 2.815704345703125, 0, 0, 2.832611083984375, 0.15,27.6) ">
<use xlink:href="#IT_640x480_FR_psd_Asset_B___V5_2_Aidez_votre__quipe_des_TI____gagner_du_temps__0_Layer0_0_MEMBER_3_FILL"/>
</g>

<g transform="matrix( 2.815704345703125, 0, 0, 2.832611083984375, 0.15,27.6) ">
<use xlink:href="#IT_640x480_FR_psd_Asset_B___V5_2_Aidez_votre__quipe_des_TI____gagner_du_temps__0_Layer0_0_MEMBER_4_FILL"/>
</g>

<g transform="matrix( 2.815704345703125, 0, 0, 2.832611083984375, 0.15,27.6) ">
<use xlink:href="#IT_640x480_FR_psd_Asset_B___V5_2_Aidez_votre__quipe_des_TI____gagner_du_temps__0_Layer0_0_MEMBER_5_FILL"/>
</g>

<g transform="matrix( 2.815704345703125, 0, 0, 2.832611083984375, 0.15,27.6) ">
<use xlink:href="#IT_640x480_FR_psd_Asset_B___V5_2_Aidez_votre__quipe_des_TI____gagner_du_temps__0_Layer0_0_MEMBER_6_FILL"/>
</g>

<g transform="matrix( 2.815704345703125, 0, 0, 2.832611083984375, 0.15,27.6) ">
<use xlink:href="#IT_640x480_FR_psd_Asset_B___V5_2_Aidez_votre__quipe_des_TI____gagner_du_temps__0_Layer0_0_MEMBER_7_FILL"/>
</g>

<g transform="matrix( 2.815704345703125, 0, 0, 2.832611083984375, 0.15,27.6) ">
<use xlink:href="#IT_640x480_FR_psd_Asset_B___V5_2_Aidez_votre__quipe_des_TI____gagner_du_temps__0_Layer0_0_MEMBER_8_FILL"/>
</g>

<g transform="matrix( 2.815704345703125, 0, 0, 2.832611083984375, 0.15,27.6) ">
<use xlink:href="#IT_640x480_FR_psd_Asset_B___V5_2_Aidez_votre__quipe_des_TI____gagner_du_temps__0_Layer0_0_MEMBER_9_FILL"/>
</g>

<g transform="matrix( 2.815704345703125, 0, 0, 2.832611083984375, 0.15,27.6) ">
<use xlink:href="#IT_640x480_FR_psd_Asset_B___V5_2_Aidez_votre__quipe_des_TI____gagner_du_temps__0_Layer0_0_MEMBER_10_FILL"/>
</g>

<g transform="matrix( 2.815704345703125, 0, 0, 2.832611083984375, 0.15,27.6) ">
<use xlink:href="#IT_640x480_FR_psd_Asset_B___V5_2_Aidez_votre__quipe_des_TI____gagner_du_temps__0_Layer0_0_MEMBER_11_FILL"/>
</g>

<g transform="matrix( 2.815704345703125, 0, 0, 2.832611083984375, 0.15,27.6) ">
<use xlink:href="#IT_640x480_FR_psd_Asset_B___V5_2_Aidez_votre__quipe_des_TI____gagner_du_temps__0_Layer0_0_MEMBER_12_FILL"/>
</g>

<g transform="matrix( 2.815704345703125, 0, 0, 2.832611083984375, 0.15,27.6) ">
<use xlink:href="#IT_640x480_FR_psd_Asset_B___V5_2_Aidez_votre__quipe_des_TI____gagner_du_temps__0_Layer0_0_MEMBER_13_FILL"/>
</g>

<g transform="matrix( 2.815704345703125, 0, 0, 2.832611083984375, 0.15,27.6) ">
<use xlink:href="#IT_640x480_FR_psd_Asset_B___V5_2_Aidez_votre__quipe_des_TI____gagner_du_temps__0_Layer0_0_MEMBER_14_FILL"/>
</g>

<g transform="matrix( 2.815704345703125, 0, 0, 2.832611083984375, 0.15,27.6) ">
<use xlink:href="#IT_640x480_FR_psd_Asset_B___V5_2_Aidez_votre__quipe_des_TI____gagner_du_temps__0_Layer0_0_MEMBER_15_FILL"/>
</g>

<g transform="matrix( 2.815704345703125, 0, 0, 2.832611083984375, 0.15,27.6) ">
<use xlink:href="#IT_640x480_FR_psd_Asset_B___V5_2_Aidez_votre__quipe_des_TI____gagner_du_temps__0_Layer0_0_MEMBER_16_FILL"/>
</g>

<g transform="matrix( 2.815704345703125, 0, 0, 2.832611083984375, 0.15,27.6) ">
<use xlink:href="#IT_640x480_FR_psd_Asset_B___V5_2_Aidez_votre__quipe_des_TI____gagner_du_temps__0_Layer0_0_MEMBER_17_FILL"/>
</g>

<g transform="matrix( 2.815704345703125, 0, 0, 2.832611083984375, 0.15,27.6) ">
<use xlink:href="#IT_640x480_FR_psd_Asset_B___V5_2_Aidez_votre__quipe_des_TI____gagner_du_temps__0_Layer0_0_MEMBER_18_FILL"/>
</g>

<g transform="matrix( 2.815704345703125, 0, 0, 2.832611083984375, 0.15,27.6) ">
<use xlink:href="#IT_640x480_FR_psd_Asset_B___V5_2_Aidez_votre__quipe_des_TI____gagner_du_temps__0_Layer0_0_MEMBER_19_FILL"/>
</g>

<g transform="matrix( 2.815704345703125, 0, 0, 2.832611083984375, 0.15,27.6) ">
<use xlink:href="#IT_640x480_FR_psd_Asset_B___V5_2_Aidez_votre__quipe_des_TI____gagner_du_temps__0_Layer0_0_MEMBER_20_FILL"/>
</g>

<g transform="matrix( 2.815704345703125, 0, 0, 2.832611083984375, 0.15,27.6) ">
<use xlink:href="#IT_640x480_FR_psd_Asset_B___V5_2_Aidez_votre__quipe_des_TI____gagner_du_temps__0_Layer0_0_MEMBER_21_FILL"/>
</g>

<g transform="matrix( 2.815704345703125, 0, 0, 2.832611083984375, 0.15,27.6) ">
<use xlink:href="#IT_640x480_FR_psd_Asset_B___V5_2_Aidez_votre__quipe_des_TI____gagner_du_temps__0_Layer0_0_MEMBER_22_FILL"/>
</g>

<g transform="matrix( 2.815704345703125, 0, 0, 2.832611083984375, 0.15,27.6) ">
<use xlink:href="#IT_640x480_FR_psd_Asset_B___V5_2_Aidez_votre__quipe_des_TI____gagner_du_temps__0_Layer0_0_MEMBER_23_FILL"/>
</g>

<g transform="matrix( 2.815704345703125, 0, 0, 2.832611083984375, 0.15,27.6) ">
<use xlink:href="#IT_640x480_FR_psd_Asset_B___V5_2_Aidez_votre__quipe_des_TI____gagner_du_temps__0_Layer0_0_MEMBER_24_FILL"/>
</g>

<g transform="matrix( 2.815704345703125, 0, 0, 2.832611083984375, 0.15,27.6) ">
<use xlink:href="#IT_640x480_FR_psd_Asset_B___V5_2_Aidez_votre__quipe_des_TI____gagner_du_temps__0_Layer0_0_MEMBER_25_FILL"/>
</g>

<g transform="matrix( 2.815704345703125, 0, 0, 2.832611083984375, 0.15,27.6) ">
<use xlink:href="#IT_640x480_FR_psd_Asset_B___V5_2_Aidez_votre__quipe_des_TI____gagner_du_temps__0_Layer0_0_MEMBER_26_FILL"/>
</g>

<g transform="matrix( 2.815704345703125, 0, 0, 2.832611083984375, 0.15,27.6) ">
<use xlink:href="#IT_640x480_FR_psd_Asset_B___V5_2_Aidez_votre__quipe_des_TI____gagner_du_temps__0_Layer0_0_MEMBER_27_FILL"/>
</g>

<g transform="matrix( 2.815704345703125, 0, 0, 2.832611083984375, 0.15,27.6) ">
<use xlink:href="#IT_640x480_FR_psd_Asset_B___V5_2_Aidez_votre__quipe_des_TI____gagner_du_temps__0_Layer0_0_MEMBER_28_FILL"/>
</g>

<g transform="matrix( 2.815704345703125, 0, 0, 2.832611083984375, 0.15,27.6) ">
<use xlink:href="#IT_640x480_FR_psd_Asset_B___V5_2_Aidez_votre__quipe_des_TI____gagner_du_temps__0_Layer0_0_MEMBER_29_FILL"/>
</g>

<g transform="matrix( 2.815704345703125, 0, 0, 2.832611083984375, 0.15,27.6) ">
<use xlink:href="#IT_640x480_FR_psd_Asset_B___V5_2_Aidez_votre__quipe_des_TI____gagner_du_temps__0_Layer0_0_MEMBER_30_FILL"/>
</g>

<g transform="matrix( 2.815704345703125, 0, 0, 2.832611083984375, 0.15,27.6) ">
<use xlink:href="#IT_640x480_FR_psd_Asset_B___V5_2_Aidez_votre__quipe_des_TI____gagner_du_temps__0_Layer0_0_MEMBER_31_FILL"/>
</g>

<g transform="matrix( 2.815704345703125, 0, 0, 2.832611083984375, 0.15,27.6) ">
<use xlink:href="#IT_640x480_FR_psd_Asset_B___V5_2_Aidez_votre__quipe_des_TI____gagner_du_temps__0_Layer0_0_MEMBER_32_FILL"/>
</g>

<g transform="matrix( 2.815704345703125, 0, 0, 2.832611083984375, 0.15,27.6) ">
<use xlink:href="#IT_640x480_FR_psd_Asset_B___V5_2_Aidez_votre__quipe_des_TI____gagner_du_temps__0_Layer0_0_MEMBER_33_FILL"/>
</g>

<g transform="matrix( 2.815704345703125, 0, 0, 2.832611083984375, 0.15,27.6) ">
<use xlink:href="#IT_640x480_FR_psd_Asset_B___V5_2_Aidez_votre__quipe_des_TI____gagner_du_temps__0_Layer0_0_MEMBER_34_FILL"/>
</g>

<g transform="matrix( 2.815704345703125, 0, 0, 2.832611083984375, 0.15,27.6) ">
<use xlink:href="#IT_640x480_FR_psd_Asset_B___V5_2_Aidez_votre__quipe_des_TI____gagner_du_temps__0_Layer0_0_MEMBER_35_FILL"/>
</g>
</g>
</g>
</g>
</svg>
