
<svg xmlns="http://www.w3.org/2000/svg" version="1.1" xmlns:xlink="http://www.w3.org/1999/xlink" preserveAspectRatio="none" x="0px" y="0px" width="728px" height="90px" viewBox="0 0 728 90">
<defs>
<g id="IT_728x90_psd_Asset_2_ManagedWiFi_IT_Eval_DM7_2_A_new_solution_from_Rogers_can_help__0_Layer0_0_MEMBER_0_FILL">
<path fill="#D82C26" stroke="none" d="
M 3.4 -6.35
L 2.85 -6.35 0.1 0 0.7 0 1.65 -2.35 4.5 -2.35 5.45 0 6.05 0 3.4 -6.35
M 4.3 -2.8
L 1.85 -2.8 3.1 -5.8 4.3 -2.8 Z"/>
</g>

<g id="IT_728x90_psd_Asset_2_ManagedWiFi_IT_Eval_DM7_2_A_new_solution_from_Rogers_can_help__0_Layer0_0_MEMBER_1_FILL">
<path fill="#D82C26" stroke="none" d="
M 9.55 -4.2
L 9.05 -4.2 9.05 0 9.6 0 9.6 -2.15
Q 9.6 -2.7 9.8 -3.1 9.95 -3.4 10.3 -3.7 10.7 -3.9 11 -3.9 11.6 -3.9 11.9 -3.45 12.15 -3.05 12.15 -2.45
L 12.15 0 12.65 0 12.65 -2.55
Q 12.65 -3.35 12.3 -3.85 11.9 -4.35 11.1 -4.35 10.6 -4.35 10.2 -4.05 9.75 -3.75 9.6 -3.3
L 9.55 -3.3 9.55 -4.2 Z"/>
</g>

<g id="IT_728x90_psd_Asset_2_ManagedWiFi_IT_Eval_DM7_2_A_new_solution_from_Rogers_can_help__0_Layer0_0_MEMBER_2_FILL">
<path fill="#D82C26" stroke="none" d="
M 14.25 -0.95
Q 14.55 -0.45 15 -0.15 15.55 0.15 16.1 0.15 17.1 0.15 17.8 -0.4
L 17.7 -0.85 17.05 -0.45
Q 16.6 -0.3 16.15 -0.3 15.7 -0.3 15.3 -0.55 14.95 -0.75 14.7 -1.15 14.5 -1.5 14.5 -2.05
L 18.05 -2.05 18.05 -2.25
Q 18.05 -2.8 17.8 -3.3 17.55 -3.75 17.15 -4.05 16.7 -4.35 16.05 -4.35 15.45 -4.35 15 -4.05 14.45 -3.75 14.25 -3.25 13.95 -2.8 13.95 -2.15 13.95 -1.45 14.25 -0.95
M 14.5 -2.4
Q 14.5 -2.75 14.7 -3.1 14.85 -3.4 15.2 -3.7 15.55 -3.9 16.05 -3.9 16.75 -3.9 17.15 -3.5 17.55 -3.1 17.55 -2.4
L 14.5 -2.4 Z"/>
</g>

<g id="IT_728x90_psd_Asset_2_ManagedWiFi_IT_Eval_DM7_2_A_new_solution_from_Rogers_can_help__0_Layer0_0_MEMBER_3_FILL">
<path fill="#D82C26" stroke="none" d="
M 19.3 -4.2
L 18.75 -4.2 20.05 0 20.65 0 21.85 -3.6 23.05 0 23.65 0 24.95 -4.2 24.4 -4.2 23.35 -0.6 22.15 -4.2 21.55 -4.2 20.4 -0.6 20.35 -0.6 19.3 -4.2 Z"/>
</g>

<g id="IT_728x90_psd_Asset_2_ManagedWiFi_IT_Eval_DM7_2_A_new_solution_from_Rogers_can_help__0_Layer0_0_MEMBER_4_FILL">
<path fill="#D82C26" stroke="none" d="
M 28.55 -4.2
Q 28.15 -4 28 -3.8 27.8 -3.5 27.8 -3.2 27.8 -2.65 28.1 -2.45
L 29 -2
Q 29.75 -1.7 29.9 -1.6 30.15 -1.4 30.15 -1.1 30.15 -0.7 29.9 -0.5 29.65 -0.3 29.25 -0.3 28.35 -0.3 27.85 -0.8
L 27.75 -0.35
Q 27.95 -0.15 28.4 0
L 29.25 0.1 29.95 0
Q 30.3 -0.2 30.45 -0.45 30.65 -0.7 30.65 -1.1 30.65 -1.55 30.35 -1.85 30.1 -2.1 29.4 -2.35
L 28.55 -2.7
Q 28.3 -2.95 28.3 -3.2 28.3 -3.5 28.55 -3.75 28.85 -3.9 29.25 -3.9 29.65 -3.9 29.85 -3.8
L 30.3 -3.5 30.55 -3.9 29.95 -4.2 29.2 -4.35
Q 28.85 -4.35 28.55 -4.2 Z"/>
</g>

<g id="IT_728x90_psd_Asset_2_ManagedWiFi_IT_Eval_DM7_2_A_new_solution_from_Rogers_can_help__0_Layer0_0_MEMBER_5_FILL">
<path fill="#D82C26" stroke="none" d="
M 35.05 -4.05
Q 34.55 -4.35 33.9 -4.35 33.3 -4.35 32.75 -4.05 32.25 -3.75 31.95 -3.25 31.65 -2.8 31.65 -2.1 31.65 -1.45 31.95 -0.95 32.25 -0.45 32.75 -0.15 33.3 0.15 33.9 0.15 34.55 0.15 35.05 -0.15 35.55 -0.45 35.85 -0.95 36.15 -1.45 36.15 -2.1 36.15 -2.8 35.85 -3.25 35.55 -3.75 35.05 -4.05
M 33.9 -3.9
Q 34.4 -3.9 34.8 -3.65 35.2 -3.4 35.4 -3 35.6 -2.65 35.6 -2.1 35.6 -1.6 35.4 -1.2 35.2 -0.85 34.8 -0.55 34.4 -0.3 33.9 -0.3 33.4 -0.3 33 -0.55 32.6 -0.85 32.4 -1.2 32.2 -1.6 32.2 -2.1 32.2 -2.65 32.4 -3 32.6 -3.4 33 -3.65 33.4 -3.9 33.9 -3.9 Z"/>
</g>

<g id="IT_728x90_psd_Asset_2_ManagedWiFi_IT_Eval_DM7_2_A_new_solution_from_Rogers_can_help__0_Layer0_0_MEMBER_6_FILL">
<path fill="#D82C26" stroke="none" d="
M 37.45 -0.95
Q 37.45 -0.5 37.65 -0.25 37.85 0 38.15 0.1
L 38.4 -0.35
Q 38.25 -0.4 38.05 -0.6
L 38 -1.05 38 -6.85 37.45 -6.75 37.45 -0.95 Z"/>
</g>

<g id="IT_728x90_psd_Asset_2_ManagedWiFi_IT_Eval_DM7_2_A_new_solution_from_Rogers_can_help__0_Layer0_0_MEMBER_7_FILL">
<path fill="#D82C26" stroke="none" d="
M 39.55 -1.65
Q 39.55 -0.9 39.95 -0.4 40.3 0.1 41.1 0.1 41.55 0.1 42.05 -0.15 42.45 -0.45 42.65 -0.9
L 42.7 0 43.25 0 43.15 -1 43.15 -4.2 42.65 -4.2 42.65 -2.1
Q 42.65 -1.65 42.45 -1.15 42.3 -0.75 41.95 -0.55 41.6 -0.3 41.25 -0.3 40.6 -0.3 40.35 -0.75 40.1 -1.15 40.1 -1.8
L 40.1 -4.2 39.55 -4.2 39.55 -1.65 Z"/>
</g>

<g id="IT_728x90_psd_Asset_2_ManagedWiFi_IT_Eval_DM7_2_A_new_solution_from_Rogers_can_help__0_Layer0_0_MEMBER_8_FILL">
<path fill="#D82C26" stroke="none" d="
M 45.5 -4.2
L 45.5 -5.4 44.95 -5.2 44.95 -4.2 44.3 -4.2 44.2 -3.8 45 -3.8 45 -1
Q 45 -0.45 45.25 -0.2 45.5 0.1 45.95 0.1
L 46.45 0.05 46.85 -0.15 46.8 -0.55
Q 46.45 -0.35 46.1 -0.35 45.8 -0.35 45.65 -0.5 45.5 -0.7 45.5 -1.1
L 45.5 -3.8 46.6 -3.8 46.7 -4.2 45.5 -4.2 Z"/>
</g>

<g id="IT_728x90_psd_Asset_2_ManagedWiFi_IT_Eval_DM7_2_A_new_solution_from_Rogers_can_help__0_Layer0_0_MEMBER_9_FILL">
<path fill="#D82C26" stroke="none" d="
M 48.4 -4.2
L 47.85 -4.2 47.85 0 48.4 0 48.4 -4.2
M 48.15 -5.5
L 48.4 -5.6 48.5 -5.9 48.4 -6.15
Q 48.3 -6.25 48.15 -6.25 47.95 -6.25 47.85 -6.15
L 47.75 -5.9 47.85 -5.6
Q 48.05 -5.5 48.15 -5.5 Z"/>
</g>

<g id="IT_728x90_psd_Asset_2_ManagedWiFi_IT_Eval_DM7_2_A_new_solution_from_Rogers_can_help__0_Layer0_0_MEMBER_10_FILL">
<path fill="#D82C26" stroke="none" d="
M 49.7 -2.1
Q 49.7 -1.45 50 -0.95 50.3 -0.45 50.8 -0.15 51.35 0.15 51.95 0.15 52.6 0.15 53.1 -0.15 53.6 -0.45 53.9 -0.95 54.2 -1.45 54.2 -2.1 54.2 -2.8 53.9 -3.25 53.6 -3.75 53.1 -4.05 52.6 -4.35 51.95 -4.35 51.35 -4.35 50.8 -4.05 50.3 -3.75 50 -3.25 49.7 -2.8 49.7 -2.1
M 50.25 -2.1
Q 50.25 -2.65 50.45 -3 50.6 -3.4 51.05 -3.65 51.45 -3.9 51.95 -3.9 52.45 -3.9 52.85 -3.65 53.25 -3.4 53.45 -3 53.65 -2.65 53.65 -2.1 53.65 -1.6 53.45 -1.2 53.25 -0.85 52.85 -0.55 52.45 -0.3 51.95 -0.3 51.45 -0.3 51.05 -0.55 50.6 -0.85 50.45 -1.2 50.25 -1.6 50.25 -2.1 Z"/>
</g>

<g id="IT_728x90_psd_Asset_2_ManagedWiFi_IT_Eval_DM7_2_A_new_solution_from_Rogers_can_help__0_Layer0_0_MEMBER_11_FILL">
<path fill="#D82C26" stroke="none" d="
M 56 -3.3
L 55.95 -4.2 55.45 -4.2 55.5 0 56.05 0 56.05 -2.15
Q 56.05 -2.65 56.2 -3.1 56.45 -3.5 56.75 -3.7 57.15 -3.9 57.45 -3.9 58.1 -3.9 58.3 -3.45 58.6 -3.05 58.6 -2.45
L 58.6 0 59.1 0 59.1 -2.55
Q 59.1 -3.35 58.75 -3.85 58.25 -4.35 57.55 -4.35 57.05 -4.35 56.6 -4.05 56.2 -3.7 56.05 -3.3
L 56 -3.3 Z"/>
</g>

<g id="IT_728x90_psd_Asset_2_ManagedWiFi_IT_Eval_DM7_2_A_new_solution_from_Rogers_can_help__0_Layer0_0_MEMBER_12_FILL">
<path fill="#D82C26" stroke="none" d="
M 64.3 -6.9
Q 63.65 -6.9 63.35 -6.55 63 -6.2 63 -5.4
L 63 -4.2 62.2 -4.2 62.1 -3.8 63 -3.8 63 0 63.5 0 63.5 -3.8 64.5 -3.8 64.6 -4.2 63.5 -4.2 63.5 -5.4
Q 63.5 -5.75 63.7 -6.15 63.95 -6.45 64.35 -6.45
L 65 -6.4 65.05 -6.8 64.7 -6.9 64.3 -6.9 Z"/>
</g>

<g id="IT_728x90_psd_Asset_2_ManagedWiFi_IT_Eval_DM7_2_A_new_solution_from_Rogers_can_help__0_Layer0_0_MEMBER_13_FILL">
<path fill="#D82C26" stroke="none" d="
M 66.15 -2.1
Q 66.15 -2.85 66.5 -3.35 66.8 -3.85 67.35 -3.85
L 67.75 -3.8 67.85 -4.25 67.4 -4.35
Q 67.05 -4.35 66.65 -4.05 66.3 -3.65 66.15 -3.3
L 66.1 -4.2 65.6 -4.2 65.65 0 66.15 0 66.15 -2.1 Z"/>
</g>

<g id="IT_728x90_psd_Asset_2_ManagedWiFi_IT_Eval_DM7_2_A_new_solution_from_Rogers_can_help__0_Layer0_0_MEMBER_14_FILL">
<path fill="#D82C26" stroke="none" d="
M 69.4 -4.05
Q 68.9 -3.75 68.6 -3.25 68.3 -2.8 68.3 -2.1 68.3 -1.45 68.6 -0.95 68.9 -0.45 69.4 -0.15 69.95 0.15 70.55 0.15 71.2 0.15 71.7 -0.15 72.2 -0.45 72.5 -0.95 72.8 -1.45 72.8 -2.1 72.8 -2.8 72.5 -3.25 72.2 -3.75 71.7 -4.05 71.2 -4.35 70.55 -4.35 69.95 -4.35 69.4 -4.05
M 69.65 -3.65
Q 70.05 -3.9 70.55 -3.9 71.05 -3.9 71.45 -3.65 71.85 -3.4 72.05 -3 72.25 -2.65 72.25 -2.1 72.25 -1.6 72.05 -1.2 71.85 -0.85 71.45 -0.55 71.05 -0.3 70.55 -0.3 70.05 -0.3 69.65 -0.55 69.25 -0.85 69.05 -1.2 68.85 -1.6 68.85 -2.1 68.85 -2.65 69.05 -3 69.25 -3.4 69.65 -3.65 Z"/>
</g>

<g id="IT_728x90_psd_Asset_2_ManagedWiFi_IT_Eval_DM7_2_A_new_solution_from_Rogers_can_help__0_Layer0_0_MEMBER_15_FILL">
<path fill="#D82C26" stroke="none" d="
M 74.55 -4.2
L 74.05 -4.2 74.1 0 74.65 0 74.65 -2.1
Q 74.65 -2.65 74.8 -3.05 75 -3.5 75.3 -3.7 75.7 -3.9 75.95 -3.9 76.45 -3.9 76.75 -3.5 77 -3.25 77 -2.5
L 77 0 77.55 0 77.55 -2.15
Q 77.55 -3 77.9 -3.4 78.25 -3.9 78.9 -3.9 79.45 -3.9 79.75 -3.45 80 -3.05 80 -2.4
L 80 0 80.5 0 80.5 -2.5
Q 80.5 -3.4 80.15 -3.8 79.75 -4.35 79 -4.35 78.45 -4.35 78.05 -4.05 77.65 -3.75 77.45 -3.25 77.3 -3.75 76.95 -4.05 76.65 -4.35 76.1 -4.35 75.6 -4.35 75.2 -4.05 74.8 -3.7 74.65 -3.3
L 74.6 -3.3 74.55 -4.2 Z"/>
</g>

<g id="IT_728x90_psd_Asset_2_ManagedWiFi_IT_Eval_DM7_2_A_new_solution_from_Rogers_can_help__0_Layer0_0_MEMBER_16_FILL">
<path fill="#D82C26" stroke="none" d="
M 85.95 -6.35
L 84.2 -6.35 84.2 0 84.75 0 84.75 -2.8 86.1 -2.8 87.75 0 88.4 0 86.6 -2.9
Q 87.2 -3.05 87.65 -3.5 88.1 -3.95 88.1 -4.7 88.1 -5.55 87.5 -6 86.95 -6.35 85.95 -6.35
M 85.95 -3.25
L 84.75 -3.25 84.75 -5.9 85.9 -5.9
Q 86.65 -5.9 87.1 -5.6 87.55 -5.35 87.55 -4.7 87.55 -4 87.1 -3.65 86.7 -3.25 85.95 -3.25 Z"/>
</g>

<g id="IT_728x90_psd_Asset_2_ManagedWiFi_IT_Eval_DM7_2_A_new_solution_from_Rogers_can_help__0_Layer0_0_MEMBER_17_FILL">
<path fill="#D82C26" stroke="none" d="
M 89.45 -0.95
Q 89.75 -0.45 90.25 -0.15 90.8 0.15 91.4 0.15 92.05 0.15 92.55 -0.15 93.05 -0.45 93.35 -0.95 93.65 -1.45 93.65 -2.1 93.65 -2.8 93.35 -3.25 93.05 -3.75 92.55 -4.05 92.05 -4.35 91.4 -4.35 90.8 -4.35 90.25 -4.05 89.75 -3.75 89.45 -3.25 89.15 -2.8 89.15 -2.1 89.15 -1.45 89.45 -0.95
M 89.9 -3
Q 90.1 -3.4 90.5 -3.65 90.9 -3.9 91.4 -3.9 91.9 -3.9 92.3 -3.65 92.7 -3.4 92.9 -3 93.1 -2.65 93.1 -2.1 93.1 -1.6 92.9 -1.2 92.75 -0.85 92.3 -0.55 91.9 -0.3 91.4 -0.3 90.9 -0.3 90.5 -0.55 90.1 -0.85 89.9 -1.2 89.7 -1.6 89.7 -2.1 89.7 -2.65 89.9 -3 Z"/>
</g>

<g id="IT_728x90_psd_Asset_2_ManagedWiFi_IT_Eval_DM7_2_A_new_solution_from_Rogers_can_help__0_Layer0_0_MEMBER_18_FILL">
<path fill="#D82C26" stroke="none" d="
M 94.95 -1
Q 95.25 -0.5 95.7 -0.2 96.25 0.1 96.8 0.1 97.35 0.1 97.8 -0.2 98.3 -0.5 98.5 -0.95
L 98.55 -0.95 98.55 -0.05
Q 98.55 0.8 98.1 1.3 97.75 1.75 96.8 1.75 96.35 1.75 95.9 1.6
L 95.05 1.2 94.95 1.7
Q 95.45 2 95.8 2.05
L 96.8 2.2
Q 98 2.2 98.5 1.6 99.05 0.95 99.05 -0.05
L 99.1 -4.2 98.6 -4.2 98.55 -3.3 98.5 -3.3
Q 98.3 -3.7 97.8 -4.05 97.35 -4.35 96.8 -4.35 96.25 -4.35 95.7 -4.05 95.3 -3.8 94.95 -3.25 94.7 -2.65 94.7 -2.1 94.7 -1.5 94.95 -1
M 95.45 -3
Q 95.6 -3.4 96 -3.65 96.4 -3.9 96.9 -3.9 97.35 -3.9 97.75 -3.65 98.15 -3.4 98.35 -3 98.55 -2.65 98.55 -2.1 98.55 -1.6 98.35 -1.25 98.15 -0.85 97.75 -0.6 97.35 -0.35 96.9 -0.35 96.4 -0.35 96 -0.6 95.6 -0.85 95.45 -1.25 95.25 -1.6 95.25 -2.1 95.25 -2.65 95.45 -3 Z"/>
</g>

<g id="IT_728x90_psd_Asset_2_ManagedWiFi_IT_Eval_DM7_2_A_new_solution_from_Rogers_can_help__0_Layer0_0_MEMBER_19_FILL">
<path fill="#D82C26" stroke="none" d="
M 100.35 -2.15
Q 100.35 -1.45 100.65 -0.95 100.95 -0.45 101.4 -0.15 101.95 0.15 102.5 0.15 103.5 0.15 104.2 -0.4
L 104.1 -0.85 103.45 -0.45
Q 103 -0.3 102.55 -0.3 102.1 -0.3 101.7 -0.55 101.35 -0.75 101.1 -1.15 100.9 -1.5 100.9 -2.05
L 104.45 -2.05 104.45 -2.25
Q 104.45 -2.8 104.2 -3.3 103.95 -3.75 103.55 -4.05 103.1 -4.35 102.45 -4.35 101.85 -4.35 101.4 -4.05 100.85 -3.75 100.65 -3.25 100.35 -2.8 100.35 -2.15
M 100.9 -2.4
Q 100.9 -2.75 101.1 -3.1 101.25 -3.4 101.6 -3.7 101.95 -3.9 102.45 -3.9 103.15 -3.9 103.55 -3.5 103.95 -3.1 103.95 -2.4
L 100.9 -2.4 Z"/>
</g>

<g id="IT_728x90_psd_Asset_2_ManagedWiFi_IT_Eval_DM7_2_A_new_solution_from_Rogers_can_help__0_Layer0_0_MEMBER_20_FILL">
<path fill="#D82C26" stroke="none" d="
M 106.2 -4.2
L 105.7 -4.2 105.75 0 106.3 0 106.3 -2.1
Q 106.3 -2.8 106.6 -3.35 106.9 -3.85 107.45 -3.85
L 107.85 -3.8 107.95 -4.25 107.5 -4.35
Q 107.1 -4.35 106.8 -4.05 106.45 -3.8 106.3 -3.3
L 106.25 -3.3 106.2 -4.2 Z"/>
</g>

<g id="IT_728x90_psd_Asset_2_ManagedWiFi_IT_Eval_DM7_2_A_new_solution_from_Rogers_can_help__0_Layer0_0_MEMBER_21_FILL">
<path fill="#D82C26" stroke="none" d="
M 109.4 -4.2
Q 109.1 -4.05 108.9 -3.8 108.7 -3.6 108.7 -3.2 108.7 -2.65 109 -2.45
L 109.9 -2
Q 110.6 -1.75 110.75 -1.6 111.05 -1.35 111.05 -1.1 111.05 -0.7 110.75 -0.5 110.55 -0.3 110.1 -0.3 109.25 -0.3 108.7 -0.8
L 108.6 -0.35 109.25 0 110.1 0.1 110.8 0
Q 111.1 -0.1 111.35 -0.45 111.55 -0.7 111.55 -1.1 111.55 -1.55 111.25 -1.85 110.9 -2.15 110.25 -2.35
L 109.4 -2.7
Q 109.2 -2.9 109.2 -3.2 109.2 -3.55 109.45 -3.75 109.7 -3.9 110.1 -3.9 110.5 -3.9 110.7 -3.8
L 111.2 -3.5 111.4 -3.9 110.85 -4.2 110.1 -4.35 109.4 -4.2 Z"/>
</g>

<g id="IT_728x90_psd_Asset_2_ManagedWiFi_IT_Eval_DM7_2_A_new_solution_from_Rogers_can_help__0_Layer0_0_MEMBER_22_FILL">
<path fill="#D82C26" stroke="none" d="
M 114.85 -0.95
Q 115.15 -0.45 115.65 -0.15 116.1 0.15 116.75 0.15 117.2 0.15 117.55 0
L 118.2 -0.4 118.1 -0.85
Q 117.95 -0.6 117.5 -0.45 117.3 -0.35 116.8 -0.35 116.25 -0.35 115.9 -0.55 115.5 -0.85 115.3 -1.2 115.1 -1.8 115.1 -2.1 115.1 -2.4 115.3 -3 115.55 -3.45 115.9 -3.65 116.3 -3.9 116.8 -3.9
L 117.45 -3.75
Q 117.6 -3.7 118 -3.45
L 118.2 -3.85
Q 118 -4.05 117.55 -4.2 117.2 -4.35 116.75 -4.35 116.2 -4.35 115.65 -4.05 115.15 -3.75 114.85 -3.25 114.55 -2.7 114.55 -2.1 114.55 -1.45 114.85 -0.95 Z"/>
</g>

<g id="IT_728x90_psd_Asset_2_ManagedWiFi_IT_Eval_DM7_2_A_new_solution_from_Rogers_can_help__0_Layer0_0_MEMBER_23_FILL">
<path fill="#D82C26" stroke="none" d="
M 120.1 -3.75
L 120.8 -3.9
Q 121.4 -3.9 121.7 -3.6 122 -3.35 122 -2.75
L 122 -2.5 121.5 -2.5
Q 119.1 -2.5 119.1 -1.15 119.1 -0.5 119.5 -0.2 119.9 0.1 120.45 0.1 121 0.1 121.4 -0.1 121.9 -0.5 122 -0.8
L 122.05 -0.8 122.05 -0.4 122.1 0 122.6 0 122.5 -0.9 122.5 -2.75
Q 122.5 -3.45 122.1 -3.95 121.6 -4.35 120.9 -4.35 120.45 -4.35 120.05 -4.2 119.6 -4.05 119.35 -3.8
L 119.5 -3.4
Q 119.7 -3.6 120.1 -3.75
M 121.35 -0.5
Q 121.1 -0.3 120.55 -0.3 120.1 -0.3 119.85 -0.5 119.6 -0.75 119.6 -1.15 119.6 -2.15 121.6 -2.15
L 122 -2.15 122 -1.75
Q 122 -1.4 121.85 -1.05 121.7 -0.75 121.35 -0.5 Z"/>
</g>

<g id="IT_728x90_psd_Asset_2_ManagedWiFi_IT_Eval_DM7_2_A_new_solution_from_Rogers_can_help__0_Layer0_0_MEMBER_24_FILL">
<path fill="#D82C26" stroke="none" d="
M 125.2 -4.05
Q 124.75 -3.75 124.6 -3.3
L 124.55 -3.3 124.55 -4.2 124.05 -4.2 124.05 0 124.6 0 124.6 -2.15
Q 124.6 -2.7 124.8 -3.1 124.95 -3.4 125.3 -3.7 125.7 -3.9 126 -3.9 126.6 -3.9 126.9 -3.45 127.15 -3.05 127.15 -2.45
L 127.15 0 127.65 0 127.65 -2.55
Q 127.65 -3.35 127.3 -3.85 126.9 -4.35 126.1 -4.35 125.6 -4.35 125.2 -4.05 Z"/>
</g>

<g id="IT_728x90_psd_Asset_2_ManagedWiFi_IT_Eval_DM7_2_A_new_solution_from_Rogers_can_help__0_Layer0_0_MEMBER_25_FILL">
<path fill="#D82C26" stroke="none" d="
M 132.5 -4.05
Q 132.05 -3.75 131.9 -3.3
L 131.9 -6.85 131.35 -6.75 131.35 0 131.9 0 131.9 -2.05
Q 131.9 -2.6 132.05 -3.05 132.35 -3.55 132.55 -3.65 132.95 -3.9 133.3 -3.9 133.95 -3.9 134.15 -3.45 134.45 -3.05 134.45 -2.45
L 134.45 0 134.95 0 134.95 -2.55
Q 134.95 -3.25 134.6 -3.85 134.2 -4.35 133.4 -4.35 132.9 -4.35 132.5 -4.05 Z"/>
</g>

<g id="IT_728x90_psd_Asset_2_ManagedWiFi_IT_Eval_DM7_2_A_new_solution_from_Rogers_can_help__0_Layer0_0_MEMBER_26_FILL">
<path fill="#D82C26" stroke="none" d="
M 136.25 -2.15
Q 136.25 -1.55 136.5 -0.95 136.8 -0.45 137.3 -0.15 137.75 0.15 138.4 0.15 139.3 0.15 140.1 -0.4
L 140 -0.85
Q 139.6 -0.55 139.3 -0.45 138.95 -0.3 138.45 -0.3 138 -0.3 137.6 -0.55 137.25 -0.7 137 -1.15 136.75 -1.55 136.75 -2.05
L 140.3 -2.05 140.35 -2.25
Q 140.35 -2.8 140.1 -3.3 139.9 -3.7 139.4 -4.05 138.95 -4.35 138.35 -4.35 137.8 -4.35 137.25 -4.05 136.8 -3.75 136.5 -3.25 136.25 -2.75 136.25 -2.15
M 137.5 -3.7
Q 137.85 -3.9 138.35 -3.9 139.05 -3.9 139.4 -3.5 139.75 -3.2 139.85 -2.4
L 136.75 -2.4 136.95 -3.1
Q 137.2 -3.5 137.5 -3.7 Z"/>
</g>

<g id="IT_728x90_psd_Asset_2_ManagedWiFi_IT_Eval_DM7_2_A_new_solution_from_Rogers_can_help__0_Layer0_0_MEMBER_27_FILL">
<path fill="#D82C26" stroke="none" d="
M 141.65 -0.95
Q 141.65 -0.5 141.85 -0.25 142.05 0.05 142.3 0.1
L 142.55 -0.35
Q 142.35 -0.4 142.25 -0.6
L 142.15 -1.05 142.15 -6.85 141.65 -6.75 141.65 -0.95 Z"/>
</g>

<g id="IT_728x90_psd_Asset_2_ManagedWiFi_IT_Eval_DM7_2_A_new_solution_from_Rogers_can_help__0_Layer0_0_MEMBER_28_FILL">
<path fill="#D82C26" stroke="none" d="
M 145.05 -4.05
Q 144.7 -3.8 144.35 -3.3
L 144.3 -4.2 143.8 -4.2 143.8 2.15 144.35 2.15 144.35 -0.9 144.4 -0.9
Q 144.65 -0.4 145.1 -0.15 145.5 0.1 146.1 0.1 146.7 0.1 147.2 -0.2 147.65 -0.4 147.9 -0.95 148.2 -1.45 148.2 -2.1 148.2 -2.7 147.9 -3.25 147.7 -3.7 147.2 -4.05 146.7 -4.35 146.1 -4.35 145.6 -4.35 145.05 -4.05
M 145.15 -3.65
Q 145.55 -3.9 146 -3.9 146.45 -3.9 146.85 -3.65 147.2 -3.45 147.45 -3 147.65 -2.6 147.65 -2.1 147.65 -1.6 147.45 -1.2 147.2 -0.75 146.85 -0.55 146.45 -0.3 146 -0.3 145.55 -0.3 145.15 -0.55 144.75 -0.85 144.55 -1.2 144.35 -1.6 144.35 -2.1 144.35 -2.6 144.55 -3 144.8 -3.45 145.15 -3.65 Z"/>
</g>

<g id="IT_728x90_psd_Asset_2_ManagedWiFi_IT_Eval_DM7_2_A_new_solution_from_Rogers_can_help__0_Layer0_0_MEMBER_29_FILL">
<path fill="#D82C26" stroke="none" d="
M 149.3 -0.35
L 149.45 -0.05 149.7 0.05 150 -0.05 150.1 -0.35 150 -0.65 149.7 -0.75 149.45 -0.65 149.3 -0.35 Z"/>
</g>
</defs>

<g transform="matrix( 1, 0, 0, 1, -217,-59) ">
<g transform="matrix( 1, 0, 0, 1, 217,72) ">
<g transform="matrix( 1, 0, 0, 1, 24,22) ">
<g transform="matrix( 2.6895904541015625, 0, 0, 2.672393798828125, 0.15,18.55) ">
<use xlink:href="#IT_728x90_psd_Asset_2_ManagedWiFi_IT_Eval_DM7_2_A_new_solution_from_Rogers_can_help__0_Layer0_0_MEMBER_0_FILL"/>
</g>

<g transform="matrix( 2.6895904541015625, 0, 0, 2.672393798828125, 0.15,18.55) ">
<use xlink:href="#IT_728x90_psd_Asset_2_ManagedWiFi_IT_Eval_DM7_2_A_new_solution_from_Rogers_can_help__0_Layer0_0_MEMBER_1_FILL"/>
</g>

<g transform="matrix( 2.6895904541015625, 0, 0, 2.672393798828125, 0.15,18.55) ">
<use xlink:href="#IT_728x90_psd_Asset_2_ManagedWiFi_IT_Eval_DM7_2_A_new_solution_from_Rogers_can_help__0_Layer0_0_MEMBER_2_FILL"/>
</g>

<g transform="matrix( 2.6895904541015625, 0, 0, 2.672393798828125, 0.15,18.55) ">
<use xlink:href="#IT_728x90_psd_Asset_2_ManagedWiFi_IT_Eval_DM7_2_A_new_solution_from_Rogers_can_help__0_Layer0_0_MEMBER_3_FILL"/>
</g>

<g transform="matrix( 2.6895904541015625, 0, 0, 2.672393798828125, 0.15,18.55) ">
<use xlink:href="#IT_728x90_psd_Asset_2_ManagedWiFi_IT_Eval_DM7_2_A_new_solution_from_Rogers_can_help__0_Layer0_0_MEMBER_4_FILL"/>
</g>

<g transform="matrix( 2.6895904541015625, 0, 0, 2.672393798828125, 0.15,18.55) ">
<use xlink:href="#IT_728x90_psd_Asset_2_ManagedWiFi_IT_Eval_DM7_2_A_new_solution_from_Rogers_can_help__0_Layer0_0_MEMBER_5_FILL"/>
</g>

<g transform="matrix( 2.6895904541015625, 0, 0, 2.672393798828125, 0.15,18.55) ">
<use xlink:href="#IT_728x90_psd_Asset_2_ManagedWiFi_IT_Eval_DM7_2_A_new_solution_from_Rogers_can_help__0_Layer0_0_MEMBER_6_FILL"/>
</g>

<g transform="matrix( 2.6895904541015625, 0, 0, 2.672393798828125, 0.15,18.55) ">
<use xlink:href="#IT_728x90_psd_Asset_2_ManagedWiFi_IT_Eval_DM7_2_A_new_solution_from_Rogers_can_help__0_Layer0_0_MEMBER_7_FILL"/>
</g>

<g transform="matrix( 2.6895904541015625, 0, 0, 2.672393798828125, 0.15,18.55) ">
<use xlink:href="#IT_728x90_psd_Asset_2_ManagedWiFi_IT_Eval_DM7_2_A_new_solution_from_Rogers_can_help__0_Layer0_0_MEMBER_8_FILL"/>
</g>

<g transform="matrix( 2.6895904541015625, 0, 0, 2.672393798828125, 0.15,18.55) ">
<use xlink:href="#IT_728x90_psd_Asset_2_ManagedWiFi_IT_Eval_DM7_2_A_new_solution_from_Rogers_can_help__0_Layer0_0_MEMBER_9_FILL"/>
</g>

<g transform="matrix( 2.6895904541015625, 0, 0, 2.672393798828125, 0.15,18.55) ">
<use xlink:href="#IT_728x90_psd_Asset_2_ManagedWiFi_IT_Eval_DM7_2_A_new_solution_from_Rogers_can_help__0_Layer0_0_MEMBER_10_FILL"/>
</g>

<g transform="matrix( 2.6895904541015625, 0, 0, 2.672393798828125, 0.15,18.55) ">
<use xlink:href="#IT_728x90_psd_Asset_2_ManagedWiFi_IT_Eval_DM7_2_A_new_solution_from_Rogers_can_help__0_Layer0_0_MEMBER_11_FILL"/>
</g>

<g transform="matrix( 2.6895904541015625, 0, 0, 2.672393798828125, 0.15,18.55) ">
<use xlink:href="#IT_728x90_psd_Asset_2_ManagedWiFi_IT_Eval_DM7_2_A_new_solution_from_Rogers_can_help__0_Layer0_0_MEMBER_12_FILL"/>
</g>

<g transform="matrix( 2.6895904541015625, 0, 0, 2.672393798828125, 0.15,18.55) ">
<use xlink:href="#IT_728x90_psd_Asset_2_ManagedWiFi_IT_Eval_DM7_2_A_new_solution_from_Rogers_can_help__0_Layer0_0_MEMBER_13_FILL"/>
</g>

<g transform="matrix( 2.6895904541015625, 0, 0, 2.672393798828125, 0.15,18.55) ">
<use xlink:href="#IT_728x90_psd_Asset_2_ManagedWiFi_IT_Eval_DM7_2_A_new_solution_from_Rogers_can_help__0_Layer0_0_MEMBER_14_FILL"/>
</g>

<g transform="matrix( 2.6895904541015625, 0, 0, 2.672393798828125, 0.15,18.55) ">
<use xlink:href="#IT_728x90_psd_Asset_2_ManagedWiFi_IT_Eval_DM7_2_A_new_solution_from_Rogers_can_help__0_Layer0_0_MEMBER_15_FILL"/>
</g>

<g transform="matrix( 2.6895904541015625, 0, 0, 2.672393798828125, 0.15,18.55) ">
<use xlink:href="#IT_728x90_psd_Asset_2_ManagedWiFi_IT_Eval_DM7_2_A_new_solution_from_Rogers_can_help__0_Layer0_0_MEMBER_16_FILL"/>
</g>

<g transform="matrix( 2.6895904541015625, 0, 0, 2.672393798828125, 0.15,18.55) ">
<use xlink:href="#IT_728x90_psd_Asset_2_ManagedWiFi_IT_Eval_DM7_2_A_new_solution_from_Rogers_can_help__0_Layer0_0_MEMBER_17_FILL"/>
</g>

<g transform="matrix( 2.6895904541015625, 0, 0, 2.672393798828125, 0.15,18.55) ">
<use xlink:href="#IT_728x90_psd_Asset_2_ManagedWiFi_IT_Eval_DM7_2_A_new_solution_from_Rogers_can_help__0_Layer0_0_MEMBER_18_FILL"/>
</g>

<g transform="matrix( 2.6895904541015625, 0, 0, 2.672393798828125, 0.15,18.55) ">
<use xlink:href="#IT_728x90_psd_Asset_2_ManagedWiFi_IT_Eval_DM7_2_A_new_solution_from_Rogers_can_help__0_Layer0_0_MEMBER_19_FILL"/>
</g>

<g transform="matrix( 2.6895904541015625, 0, 0, 2.672393798828125, 0.15,18.55) ">
<use xlink:href="#IT_728x90_psd_Asset_2_ManagedWiFi_IT_Eval_DM7_2_A_new_solution_from_Rogers_can_help__0_Layer0_0_MEMBER_20_FILL"/>
</g>

<g transform="matrix( 2.6895904541015625, 0, 0, 2.672393798828125, 0.15,18.55) ">
<use xlink:href="#IT_728x90_psd_Asset_2_ManagedWiFi_IT_Eval_DM7_2_A_new_solution_from_Rogers_can_help__0_Layer0_0_MEMBER_21_FILL"/>
</g>

<g transform="matrix( 2.6895904541015625, 0, 0, 2.672393798828125, 0.15,18.55) ">
<use xlink:href="#IT_728x90_psd_Asset_2_ManagedWiFi_IT_Eval_DM7_2_A_new_solution_from_Rogers_can_help__0_Layer0_0_MEMBER_22_FILL"/>
</g>

<g transform="matrix( 2.6895904541015625, 0, 0, 2.672393798828125, 0.15,18.55) ">
<use xlink:href="#IT_728x90_psd_Asset_2_ManagedWiFi_IT_Eval_DM7_2_A_new_solution_from_Rogers_can_help__0_Layer0_0_MEMBER_23_FILL"/>
</g>

<g transform="matrix( 2.6895904541015625, 0, 0, 2.672393798828125, 0.15,18.55) ">
<use xlink:href="#IT_728x90_psd_Asset_2_ManagedWiFi_IT_Eval_DM7_2_A_new_solution_from_Rogers_can_help__0_Layer0_0_MEMBER_24_FILL"/>
</g>

<g transform="matrix( 2.6895904541015625, 0, 0, 2.672393798828125, 0.15,18.55) ">
<use xlink:href="#IT_728x90_psd_Asset_2_ManagedWiFi_IT_Eval_DM7_2_A_new_solution_from_Rogers_can_help__0_Layer0_0_MEMBER_25_FILL"/>
</g>

<g transform="matrix( 2.6895904541015625, 0, 0, 2.672393798828125, 0.15,18.55) ">
<use xlink:href="#IT_728x90_psd_Asset_2_ManagedWiFi_IT_Eval_DM7_2_A_new_solution_from_Rogers_can_help__0_Layer0_0_MEMBER_26_FILL"/>
</g>

<g transform="matrix( 2.6895904541015625, 0, 0, 2.672393798828125, 0.15,18.55) ">
<use xlink:href="#IT_728x90_psd_Asset_2_ManagedWiFi_IT_Eval_DM7_2_A_new_solution_from_Rogers_can_help__0_Layer0_0_MEMBER_27_FILL"/>
</g>

<g transform="matrix( 2.6895904541015625, 0, 0, 2.672393798828125, 0.15,18.55) ">
<use xlink:href="#IT_728x90_psd_Asset_2_ManagedWiFi_IT_Eval_DM7_2_A_new_solution_from_Rogers_can_help__0_Layer0_0_MEMBER_28_FILL"/>
</g>

<g transform="matrix( 2.6895904541015625, 0, 0, 2.672393798828125, 0.15,18.55) ">
<use xlink:href="#IT_728x90_psd_Asset_2_ManagedWiFi_IT_Eval_DM7_2_A_new_solution_from_Rogers_can_help__0_Layer0_0_MEMBER_29_FILL"/>
</g>
</g>
</g>
</g>
</svg>
