
<svg xmlns="http://www.w3.org/2000/svg" version="1.1" xmlns:xlink="http://www.w3.org/1999/xlink" preserveAspectRatio="none" x="0px" y="0px" width="300px" height="250px" viewBox="0 0 300 250">
<defs>
<g id="IT_300x250_psd_Asset_5_ManagedWiFi_IT_Awareness_DM7_1_Does_your_business_struggle__with_network_security__0_Layer0_0_MEMBER_0_FILL">
<path fill="#D82C26" stroke="none" d="
M 4.85 -4.1
Q 4.45 -4.75 3.8 -4.95 3.15 -5.25 2.35 -5.25
L 0.7 -5.25 0.7 0 2.35 0
Q 3.15 0 3.8 -0.3 4.5 -0.6 4.85 -1.15 5.25 -1.8 5.25 -2.6 5.25 -3.45 4.85 -4.1
M 3.55 -4.6
Q 4.15 -4.35 4.45 -3.85 4.75 -3.3 4.75 -2.6 4.75 -1.9 4.45 -1.4 4.15 -0.85 3.55 -0.65 2.95 -0.4 2.3 -0.4
L 1.15 -0.4 1.15 -4.85 2.3 -4.85
Q 2.95 -4.85 3.55 -4.6 Z"/>
</g>

<g id="IT_300x250_psd_Asset_5_ManagedWiFi_IT_Awareness_DM7_1_Does_your_business_struggle__with_network_security__0_Layer0_0_MEMBER_1_FILL">
<path fill="#D82C26" stroke="none" d="
M 8.75 -3.35
Q 8.35 -3.6 7.8 -3.6 7.35 -3.6 6.85 -3.35 6.45 -3.1 6.2 -2.7 5.95 -2.2 5.95 -1.75 5.95 -1.2 6.2 -0.8 6.4 -0.45 6.85 -0.15 7.35 0.1 7.8 0.1 8.35 0.1 8.75 -0.15 9.15 -0.35 9.45 -0.8 9.65 -1.15 9.65 -1.75 9.65 -2.3 9.45 -2.7 9.05 -3.2 8.75 -3.35
M 6.6 -2.5
Q 6.8 -2.85 7.05 -3 7.4 -3.2 7.8 -3.2 8.3 -3.2 8.55 -3 8.85 -2.85 9.05 -2.5 9.25 -2.15 9.25 -1.75 9.25 -1.35 9.05 -1 8.85 -0.65 8.55 -0.45 8.15 -0.25 7.8 -0.25 7.55 -0.25 7.05 -0.45 6.75 -0.65 6.6 -1 6.4 -1.35 6.4 -1.75 6.4 -2.15 6.6 -2.5 Z"/>
</g>

<g id="IT_300x250_psd_Asset_5_ManagedWiFi_IT_Awareness_DM7_1_Does_your_business_struggle__with_network_security__0_Layer0_0_MEMBER_2_FILL">
<path fill="#D82C26" stroke="none" d="
M 12.1 -3.6
Q 11.7 -3.6 11.2 -3.35 10.8 -3.1 10.6 -2.7 10.35 -2.2 10.35 -1.75 10.35 -1.2 10.6 -0.8 10.8 -0.35 11.25 -0.15 11.65 0.1 12.15 0.1 12.95 0.1 13.55 -0.35
L 13.45 -0.7
Q 13.05 -0.45 12.9 -0.4 12.6 -0.25 12.2 -0.25 11.8 -0.25 11.45 -0.45 11.2 -0.6 11 -0.95 10.8 -1.3 10.8 -1.7
L 13.75 -1.7 13.75 -1.85
Q 13.75 -2.35 13.55 -2.75 13.3 -3.15 13 -3.35 12.6 -3.6 12.1 -3.6
M 10.95 -2.55
Q 11.1 -2.8 11.4 -3.05 11.8 -3.25 12.1 -3.25 12.65 -3.25 13 -2.9 13.25 -2.55 13.35 -2
L 10.8 -2
Q 10.8 -2.25 10.95 -2.55 Z"/>
</g>

<g id="IT_300x250_psd_Asset_5_ManagedWiFi_IT_Awareness_DM7_1_Does_your_business_struggle__with_network_security__0_Layer0_0_MEMBER_3_FILL">
<path fill="#D82C26" stroke="none" d="
M 14.45 -0.65
L 14.4 -0.3 14.9 0 15.65 0.1 16.2 0
Q 16.55 -0.15 16.65 -0.35 16.8 -0.55 16.8 -0.9 16.8 -1.2 16.55 -1.55 16.45 -1.65 15.75 -1.95
L 15.05 -2.25
Q 14.85 -2.4 14.85 -2.65 14.85 -2.9 15.05 -3.1 15.3 -3.25 15.6 -3.25
L 16.1 -3.15 16.5 -2.9 16.7 -3.2 16.2 -3.45
Q 15.9 -3.6 15.6 -3.6 15.3 -3.6 15.05 -3.45 14.85 -3.4 14.6 -3.15 14.45 -2.9 14.45 -2.6 14.45 -2.25 14.7 -2 15.05 -1.75 15.45 -1.65 16 -1.45 16.15 -1.3 16.4 -1.15 16.4 -0.9 16.4 -0.65 16.15 -0.4 15.95 -0.25 15.6 -0.25 15 -0.25 14.45 -0.65 Z"/>
</g>

<g id="IT_300x250_psd_Asset_5_ManagedWiFi_IT_Awareness_DM7_1_Does_your_business_struggle__with_network_security__0_Layer0_0_MEMBER_4_FILL">
<path fill="#D82C26" stroke="none" d="
M 19.05 -3.45
L 18.55 -3.45 20.05 0.05 19.75 0.75
Q 19.7 1.05 19.4 1.25 19.2 1.4 18.8 1.4
L 18.9 1.8
Q 19.5 1.7 19.7 1.55 20 1.3 20.15 0.85
L 21.8 -3.45 21.3 -3.45 20.25 -0.45 19.05 -3.45 Z"/>
</g>

<g id="IT_300x250_psd_Asset_5_ManagedWiFi_IT_Awareness_DM7_1_Does_your_business_struggle__with_network_security__0_Layer0_0_MEMBER_5_FILL">
<path fill="#D82C26" stroke="none" d="
M 23.95 -3.6
Q 23.5 -3.6 23 -3.35 22.6 -3.1 22.35 -2.7 22.1 -2.2 22.1 -1.75 22.1 -1.2 22.35 -0.8 22.55 -0.45 23 -0.15 23.5 0.1 23.95 0.1 24.5 0.1 24.9 -0.15 25.3 -0.35 25.6 -0.8 25.8 -1.15 25.8 -1.75 25.8 -2.3 25.6 -2.7 25.2 -3.2 24.9 -3.35 24.5 -3.6 23.95 -3.6
M 22.55 -1.75
Q 22.55 -2.15 22.75 -2.5 22.95 -2.85 23.2 -3 23.55 -3.2 23.95 -3.2 24.45 -3.2 24.7 -3 25 -2.85 25.2 -2.5 25.4 -2 25.4 -1.75 25.4 -1.5 25.2 -1 25 -0.65 24.7 -0.45 24.3 -0.25 23.95 -0.25 23.7 -0.25 23.2 -0.45 22.9 -0.65 22.75 -1 22.55 -1.35 22.55 -1.75 Z"/>
</g>

<g id="IT_300x250_psd_Asset_5_ManagedWiFi_IT_Awareness_DM7_1_Does_your_business_struggle__with_network_security__0_Layer0_0_MEMBER_6_FILL">
<path fill="#D82C26" stroke="none" d="
M 29.65 -3.45
L 29.25 -3.45 29.25 -1.75
Q 29.25 -1.25 29.1 -0.95 28.95 -0.6 28.65 -0.45 28.45 -0.25 28.1 -0.25 27.55 -0.25 27.35 -0.6 27.15 -0.95 27.15 -1.45
L 27.15 -3.45 26.7 -3.45 26.7 -1.35
Q 26.7 -0.75 27 -0.3 27.3 0.1 27.95 0.1 28.35 0.1 28.75 -0.15 29.1 -0.45 29.25 -0.75
L 29.3 0 29.75 0 29.65 -0.8 29.65 -3.45 Z"/>
</g>

<g id="IT_300x250_psd_Asset_5_ManagedWiFi_IT_Awareness_DM7_1_Does_your_business_struggle__with_network_security__0_Layer0_0_MEMBER_7_FILL">
<path fill="#D82C26" stroke="none" d="
M 31.25 -3.45
L 30.8 -3.45 30.85 0 31.3 0 31.3 -1.75
Q 31.3 -2.35 31.55 -2.75 31.85 -3.2 32.25 -3.2
L 32.6 -3.15 32.65 -3.5 32.3 -3.55
Q 31.95 -3.55 31.7 -3.35 31.35 -3.1 31.3 -2.7
L 31.25 -2.7 31.25 -3.45 Z"/>
</g>

<g id="IT_300x250_psd_Asset_5_ManagedWiFi_IT_Awareness_DM7_1_Does_your_business_struggle__with_network_security__0_Layer0_0_MEMBER_8_FILL">
<path fill="#D82C26" stroke="none" d="
M 35.05 -0.75
L 35.1 -0.75
Q 35.25 -0.4 35.65 -0.15 36.05 0.1 36.5 0.1 37 0.1 37.4 -0.15 37.75 -0.35 38 -0.8 38.25 -1.3 38.25 -1.75 38.25 -2.25 38 -2.65 37.8 -3 37.4 -3.35 37.05 -3.55 36.5 -3.55 36.05 -3.55 35.7 -3.35 35.3 -3.1 35.1 -2.7
L 35.1 -5.7 34.65 -5.6 34.6 0 35 0 35.05 -0.75
M 35.05 -1.75
Q 35.05 -2.2 35.25 -2.45 35.4 -2.8 35.75 -3 36 -3.2 36.45 -3.2 36.9 -3.2 37.15 -3 37.5 -2.8 37.65 -2.45 37.8 -2.15 37.8 -1.75 37.8 -1.3 37.65 -1 37.5 -0.7 37.15 -0.45 36.75 -0.25 36.45 -0.25 36.15 -0.25 35.75 -0.45 35.4 -0.7 35.25 -1 35.05 -1.25 35.05 -1.75 Z"/>
</g>

<g id="IT_300x250_psd_Asset_5_ManagedWiFi_IT_Awareness_DM7_1_Does_your_business_struggle__with_network_security__0_Layer0_0_MEMBER_9_FILL">
<path fill="#D82C26" stroke="none" d="
M 39.1 -1.35
Q 39.1 -0.8 39.45 -0.3 39.75 0.1 40.4 0.1 40.75 0.1 41.15 -0.15 41.5 -0.35 41.65 -0.75
L 41.7 0 42.15 0 42.1 -0.4 42.1 -3.45 41.65 -3.45 41.65 -1.75
Q 41.65 -1.25 41.5 -0.95 41.35 -0.65 41.1 -0.45 40.85 -0.25 40.5 -0.25 39.95 -0.25 39.75 -0.6 39.55 -1.1 39.55 -1.45
L 39.55 -3.45 39.1 -3.45 39.1 -1.35 Z"/>
</g>

<g id="IT_300x250_psd_Asset_5_ManagedWiFi_IT_Awareness_DM7_1_Does_your_business_struggle__with_network_security__0_Layer0_0_MEMBER_10_FILL">
<path fill="#D82C26" stroke="none" d="
M 43.65 -3.45
L 43.2 -3.15
Q 43.05 -2.9 43.05 -2.6 43.05 -2.25 43.3 -2 43.65 -1.75 44.05 -1.65 44.55 -1.5 44.75 -1.3 45 -1.15 45 -0.9 45 -0.65 44.75 -0.4 44.55 -0.25 44.2 -0.25 43.6 -0.25 43.05 -0.65
L 43 -0.3 43.55 0 44.25 0.1 44.8 0
Q 45.15 -0.15 45.25 -0.35 45.4 -0.55 45.4 -0.9 45.4 -1.3 45.15 -1.55 45.05 -1.65 44.35 -1.95
L 43.65 -2.25
Q 43.45 -2.45 43.45 -2.65 43.45 -2.95 43.7 -3.1 43.85 -3.25 44.2 -3.25
L 44.7 -3.15 45.15 -2.9 45.3 -3.2 44.85 -3.45
Q 44.55 -3.6 44.2 -3.6
L 43.65 -3.45 Z"/>
</g>

<g id="IT_300x250_psd_Asset_5_ManagedWiFi_IT_Awareness_DM7_1_Does_your_business_struggle__with_network_security__0_Layer0_0_MEMBER_11_FILL">
<path fill="#D82C26" stroke="none" d="
M 46.7 -3.45
L 46.25 -3.45 46.25 0 46.7 0 46.7 -3.45
M 46.7 -4.65
L 46.8 -4.85 46.7 -5.1 46.5 -5.15 46.25 -5.1 46.15 -4.85 46.25 -4.65 46.5 -4.55 46.7 -4.65 Z"/>
</g>

<g id="IT_300x250_psd_Asset_5_ManagedWiFi_IT_Awareness_DM7_1_Does_your_business_struggle__with_network_security__0_Layer0_0_MEMBER_12_FILL">
<path fill="#D82C26" stroke="none" d="
M 49.55 -3.55
Q 49.05 -3.55 48.8 -3.35 48.45 -3.15 48.3 -2.7
L 48.25 -3.45 47.85 -3.45 47.85 0 48.3 0 48.3 -1.75
Q 48.3 -2.25 48.45 -2.55 48.65 -2.9 48.9 -3.05 49.15 -3.2 49.45 -3.2 50 -3.2 50.2 -2.85 50.4 -2.6 50.4 -2
L 50.4 0 50.85 0 50.85 -2.1
Q 50.85 -2.75 50.55 -3.15 50.2 -3.55 49.55 -3.55 Z"/>
</g>

<g id="IT_300x250_psd_Asset_5_ManagedWiFi_IT_Awareness_DM7_1_Does_your_business_struggle__with_network_security__0_Layer0_0_MEMBER_13_FILL">
<path fill="#D82C26" stroke="none" d="
M 54.35 -3.35
Q 53.95 -3.6 53.45 -3.6 53 -3.6 52.6 -3.35 52.15 -3.05 51.95 -2.7 51.75 -2.3 51.75 -1.75 51.75 -1.1 52 -0.8 52.2 -0.4 52.6 -0.15 53.1 0.1 53.55 0.1 54.4 0.1 54.9 -0.35
L 54.85 -0.7
Q 54.45 -0.45 54.25 -0.4 53.95 -0.25 53.55 -0.25 53.1 -0.25 52.85 -0.45 52.5 -0.6 52.35 -0.95 52.15 -1.45 52.15 -1.7
L 55.1 -1.7 55.1 -1.85
Q 55.1 -2.3 54.95 -2.75 54.75 -3.1 54.35 -3.35
M 52.35 -2.55
Q 52.5 -2.8 52.8 -3.05 53.2 -3.25 53.45 -3.25 54.05 -3.25 54.35 -2.9 54.7 -2.55 54.7 -2
L 52.2 -2
Q 52.2 -2.25 52.35 -2.55 Z"/>
</g>

<g id="IT_300x250_psd_Asset_5_ManagedWiFi_IT_Awareness_DM7_1_Does_your_business_struggle__with_network_security__0_Layer0_0_MEMBER_14_FILL">
<path fill="#D82C26" stroke="none" d="
M 56.4 -3.45
Q 56.15 -3.35 56 -3.15 55.85 -2.9 55.85 -2.6 55.85 -2.2 56.05 -2
L 56.8 -1.65
Q 57.35 -1.5 57.55 -1.3 57.75 -1.15 57.75 -0.9 57.75 -0.6 57.55 -0.4 57.35 -0.25 57 -0.25 56.35 -0.25 55.85 -0.65
L 55.75 -0.3 56.3 0 57 0.1 57.6 0
Q 57.9 -0.2 58 -0.35 58.2 -0.55 58.2 -0.9 58.2 -1.25 57.9 -1.55 57.75 -1.7 57.1 -1.95
L 56.45 -2.25
Q 56.25 -2.4 56.25 -2.65 56.25 -2.95 56.45 -3.1 56.7 -3.25 57 -3.25
L 57.5 -3.15 57.9 -2.9 58.1 -3.2 57.6 -3.45
Q 57.3 -3.6 56.95 -3.6
L 56.4 -3.45 Z"/>
</g>

<g id="IT_300x250_psd_Asset_5_ManagedWiFi_IT_Awareness_DM7_1_Does_your_business_struggle__with_network_security__0_Layer0_0_MEMBER_15_FILL">
<path fill="#D82C26" stroke="none" d="
M 60.05 -3.25
L 60.55 -3.15 60.95 -2.9 61.15 -3.2 60.65 -3.45
Q 60.35 -3.6 60.05 -3.6 59.75 -3.6 59.5 -3.45 59.2 -3.35 59.05 -3.15 58.9 -2.9 58.9 -2.6 58.9 -2.2 59.15 -2 59.5 -1.75 59.9 -1.65 60.45 -1.45 60.6 -1.3 60.85 -1.15 60.85 -0.9 60.85 -0.65 60.6 -0.4 60.4 -0.25 60.05 -0.25 59.4 -0.25 58.9 -0.65
L 58.8 -0.3 59.35 0 60.05 0.1 60.65 0 61.1 -0.35
Q 61.25 -0.55 61.25 -0.9 61.25 -1.2 61 -1.55
L 60.2 -1.95
Q 59.65 -2.1 59.5 -2.25 59.3 -2.4 59.3 -2.65 59.3 -2.95 59.5 -3.1 59.75 -3.25 60.05 -3.25 Z"/>
</g>

<g id="IT_300x250_psd_Asset_5_ManagedWiFi_IT_Awareness_DM7_1_Does_your_business_struggle__with_network_security__0_Layer0_0_MEMBER_16_FILL">
<path fill="#D82C26" stroke="none" d="
M 63.95 -3.45
Q 63.75 -3.4 63.5 -3.15 63.35 -2.9 63.35 -2.6 63.35 -2.25 63.6 -2 63.95 -1.75 64.35 -1.65 64.9 -1.45 65.05 -1.3 65.3 -1.15 65.3 -0.9 65.3 -0.65 65.05 -0.4 64.85 -0.25 64.5 -0.25 63.9 -0.25 63.35 -0.65
L 63.3 -0.3 63.8 0 64.55 0.1 65.1 0
Q 65.45 -0.15 65.55 -0.35 65.7 -0.55 65.7 -0.9 65.7 -1.2 65.45 -1.55 65.35 -1.65 64.65 -1.95
L 63.95 -2.25
Q 63.75 -2.45 63.75 -2.65 63.75 -2.95 64 -3.1 64.15 -3.25 64.5 -3.25
L 65 -3.15 65.4 -2.9 65.6 -3.2 65.1 -3.45
Q 64.9 -3.6 64.5 -3.6 64.2 -3.6 63.95 -3.45 Z"/>
</g>

<g id="IT_300x250_psd_Asset_5_ManagedWiFi_IT_Awareness_DM7_1_Does_your_business_struggle__with_network_security__0_Layer0_0_MEMBER_17_FILL">
<path fill="#D82C26" stroke="none" d="
M 66.8 -4.3
L 66.8 -3.45 66.25 -3.45 66.15 -3.15 66.8 -3.15 66.8 -0.85
Q 66.8 -0.4 67.05 -0.15 67.25 0.05 67.6 0.05
L 68 0 68.35 -0.1 68.3 -0.45
Q 68 -0.3 67.75 -0.3 67.5 -0.3 67.4 -0.45 67.25 -0.6 67.25 -0.9
L 67.25 -3.15 68.15 -3.15 68.25 -3.45 67.25 -3.45 67.25 -4.45 66.8 -4.3 Z"/>
</g>

<g id="IT_300x250_psd_Asset_5_ManagedWiFi_IT_Awareness_DM7_1_Does_your_business_struggle__with_network_security__0_Layer0_0_MEMBER_18_FILL">
<path fill="#D82C26" stroke="none" d="
M 69.4 -3.45
L 69 -3.45 69.05 0 69.5 0 69.5 -1.75
Q 69.5 -2.45 69.75 -2.75 70 -3.2 70.45 -3.2
L 70.75 -3.15 70.85 -3.5 70.5 -3.55
Q 70.15 -3.55 69.9 -3.35 69.6 -3.1 69.45 -2.7
L 69.4 -3.45 Z"/>
</g>

<g id="IT_300x250_psd_Asset_5_ManagedWiFi_IT_Awareness_DM7_1_Does_your_business_struggle__with_network_security__0_Layer0_0_MEMBER_19_FILL">
<path fill="#D82C26" stroke="none" d="
M 74.45 -3.45
L 74 -3.45 74 -1.75
Q 74 -1.25 73.85 -0.95 73.7 -0.65 73.45 -0.45 73.2 -0.25 72.85 -0.25 72.3 -0.25 72.1 -0.6 71.9 -0.95 71.9 -1.45
L 71.9 -3.45 71.45 -3.45 71.45 -1.35
Q 71.45 -0.75 71.75 -0.3 72.15 0.1 72.75 0.1 73.1 0.1 73.5 -0.15 73.85 -0.35 74 -0.75
L 74.05 0 74.5 0 74.45 -0.4 74.45 -3.45 Z"/>
</g>

<g id="IT_300x250_psd_Asset_5_ManagedWiFi_IT_Awareness_DM7_1_Does_your_business_struggle__with_network_security__0_Layer0_0_MEMBER_20_FILL">
<path fill="#D82C26" stroke="none" d="
M 75.35 -1.75
Q 75.35 -1.3 75.6 -0.8 75.8 -0.45 76.2 -0.15 76.55 0.05 77.1 0.05 77.6 0.05 77.95 -0.15 78.35 -0.4 78.5 -0.8
L 78.55 -0.8 78.55 -0.05
Q 78.55 0.6 78.2 1.05 77.8 1.45 77.1 1.45
L 76.35 1.35 75.65 1 75.6 1.4
Q 75.9 1.65 76.3 1.7 76.55 1.8 77.1 1.8 78.05 1.8 78.5 1.3 78.95 0.8 78.95 -0.05
L 79 -3.45 78.6 -3.45 78.55 -2.7 78.5 -2.7
Q 78.35 -3.1 77.95 -3.35 77.6 -3.55 77.1 -3.55 76.55 -3.55 76.2 -3.35 75.8 -3 75.6 -2.65 75.35 -2.25 75.35 -1.75
M 77.9 -0.5
Q 77.55 -0.3 77.15 -0.3 76.7 -0.3 76.45 -0.5 76.25 -0.6 75.95 -1
L 75.8 -1.75 75.95 -2.5
Q 76.25 -2.9 76.45 -3 76.7 -3.2 77.15 -3.2 77.55 -3.2 77.9 -3 78.15 -2.85 78.35 -2.5 78.55 -2.15 78.55 -1.75 78.55 -1.35 78.35 -1 78.15 -0.65 77.9 -0.5 Z"/>
</g>

<g id="IT_300x250_psd_Asset_5_ManagedWiFi_IT_Awareness_DM7_1_Does_your_business_struggle__with_network_security__0_Layer0_0_MEMBER_21_FILL">
<path fill="#D82C26" stroke="none" d="
M 80.1 -0.8
Q 80.3 -0.45 80.7 -0.15 81.1 0.05 81.6 0.05 82.1 0.05 82.45 -0.15 82.85 -0.4 83.05 -0.8
L 83.05 -0.05
Q 83.05 0.7 82.7 1.05 82.3 1.45 81.6 1.45
L 80.85 1.35 80.2 1 80.1 1.4
Q 80.4 1.6 80.8 1.7 81.05 1.8 81.65 1.8 82.6 1.8 83.05 1.3 83.5 0.8 83.5 -0.05
L 83.5 -3.45 83.1 -3.45 83.05 -2.7
Q 82.85 -3.1 82.45 -3.35 82.1 -3.55 81.6 -3.55 81.1 -3.55 80.7 -3.35 80.3 -3 80.1 -2.65 79.9 -2.3 79.9 -1.75 79.9 -1.2 80.1 -0.8
M 80.5 -2.5
Q 80.7 -2.85 80.95 -3 81.2 -3.2 81.7 -3.2 82.15 -3.2 82.4 -3 82.6 -2.9 82.9 -2.5
L 83.05 -1.75 82.9 -1
Q 82.6 -0.6 82.4 -0.5 82.15 -0.3 81.7 -0.3 81.2 -0.3 80.95 -0.5 80.7 -0.65 80.5 -1 80.3 -1.35 80.3 -1.75 80.3 -2.15 80.5 -2.5 Z"/>
</g>

<g id="IT_300x250_psd_Asset_5_ManagedWiFi_IT_Awareness_DM7_1_Does_your_business_struggle__with_network_security__0_Layer0_0_MEMBER_22_FILL">
<path fill="#D82C26" stroke="none" d="
M 84.65 -0.75
Q 84.65 -0.4 84.8 -0.2
L 85.2 0.1 85.4 -0.3
Q 85.2 -0.35 85.15 -0.5
L 85.05 -0.85 85.05 -5.65 84.65 -5.55 84.65 -0.75 Z"/>
</g>

<g id="IT_300x250_psd_Asset_5_ManagedWiFi_IT_Awareness_DM7_1_Does_your_business_struggle__with_network_security__0_Layer0_0_MEMBER_23_FILL">
<path fill="#D82C26" stroke="none" d="
M 87.75 -3.6
Q 87.25 -3.6 86.85 -3.35 86.45 -3.1 86.25 -2.7 86 -2.2 86 -1.75 86 -1.2 86.25 -0.8 86.45 -0.4 86.85 -0.15 87.35 0.1 87.8 0.1 88.65 0.1 89.15 -0.35
L 89.1 -0.7
Q 88.7 -0.45 88.55 -0.4
L 87.8 -0.25
Q 87.35 -0.25 87.1 -0.45 86.9 -0.55 86.6 -0.95 86.45 -1.3 86.45 -1.7
L 89.35 -1.7 89.4 -1.85
Q 89.4 -2.15 89.2 -2.75 89 -3.1 88.6 -3.35 88.2 -3.6 87.75 -3.6
M 86.6 -2.55
Q 86.75 -2.8 87.05 -3.05 87.45 -3.25 87.75 -3.25 88.3 -3.25 88.6 -2.9 88.95 -2.55 88.95 -2
L 86.45 -2
Q 86.45 -2.25 86.6 -2.55 Z"/>
</g>

<g id="IT_300x250_psd_Asset_5_ManagedWiFi_IT_Awareness_DM7_1_Does_your_business_struggle__with_network_security__0_Layer0_0_MEMBER_24_FILL">
<path fill="#D82C26" stroke="none" d="
M 0.65 5
L 0.2 5 1.25 8.45 1.75 8.45 2.75 5.5 3.75 8.45 4.2 8.45 5.3 5 4.85 5 4 8 3.95 8 3 5 2.5 5 1.55 8 1.5 8 0.65 5 Z"/>
</g>

<g id="IT_300x250_psd_Asset_5_ManagedWiFi_IT_Awareness_DM7_1_Does_your_business_struggle__with_network_security__0_Layer0_0_MEMBER_25_FILL">
<path fill="#D82C26" stroke="none" d="
M 6.45 5
L 6.05 5 6.05 8.45 6.45 8.45 6.45 5
M 6.45 3.85
L 6.55 3.6 6.45 3.4 6.25 3.3 6 3.4 5.95 3.6 6 3.85 6.25 3.95 6.45 3.85 Z"/>
</g>

<g id="IT_300x250_psd_Asset_5_ManagedWiFi_IT_Awareness_DM7_1_Does_your_business_struggle__with_network_security__0_Layer0_0_MEMBER_26_FILL">
<path fill="#D82C26" stroke="none" d="
M 7.2 5
L 7.15 5.35 7.8 5.35 7.8 7.65
Q 7.8 8.1 8 8.3 8.25 8.55 8.6 8.55
L 9 8.5 9.35 8.35 9.3 8.05
Q 8.95 8.2 8.7 8.2 8.5 8.2 8.35 8.05 8.2 7.9 8.2 7.6
L 8.2 5.35 9.1 5.35 9.2 5 8.2 5 8.2 4 7.8 4.15 7.8 5 7.2 5 Z"/>
</g>

<g id="IT_300x250_psd_Asset_5_ManagedWiFi_IT_Awareness_DM7_1_Does_your_business_struggle__with_network_security__0_Layer0_0_MEMBER_27_FILL">
<path fill="#D82C26" stroke="none" d="
M 10.45 5.75
L 10.45 2.8 10 2.9 10 8.45 10.45 8.45 10.45 6.8
Q 10.45 6.35 10.6 5.95 10.8 5.6 11 5.45 11.25 5.25 11.6 5.25 12.1 5.25 12.35 5.6 12.55 6.1 12.55 6.45
L 12.55 8.45 13 8.45 13 6.35
Q 13 5.85 12.65 5.3 12.35 4.9 11.7 4.9 11.25 4.9 10.95 5.15 10.6 5.35 10.45 5.75 Z"/>
</g>

<g id="IT_300x250_psd_Asset_5_ManagedWiFi_IT_Awareness_DM7_1_Does_your_business_struggle__with_network_security__0_Layer0_0_MEMBER_28_FILL">
<path fill="#D82C26" stroke="none" d="
M 16.6 5.45
Q 16.8 5.25 17.2 5.25 17.65 5.25 17.9 5.6 18.1 5.95 18.1 6.45
L 18.1 8.45 18.55 8.45 18.55 6.35
Q 18.55 5.75 18.25 5.3 17.95 4.9 17.25 4.9 16.9 4.9 16.5 5.15 16.15 5.45 16 5.75
L 15.95 5 15.55 5 15.6 8.45 16 8.45 16 6.7
Q 16 6.25 16.15 5.95 16.4 5.55 16.6 5.45 Z"/>
</g>

<g id="IT_300x250_psd_Asset_5_ManagedWiFi_IT_Awareness_DM7_1_Does_your_business_struggle__with_network_security__0_Layer0_0_MEMBER_29_FILL">
<path fill="#D82C26" stroke="none" d="
M 21.2 4.9
Q 20.6 4.9 20.3 5.15 19.95 5.4 19.7 5.75 19.45 6.25 19.45 6.7 19.45 7.2 19.7 7.7 19.95 8.15 20.3 8.35 20.8 8.6 21.25 8.6 22.05 8.6 22.65 8.15
L 22.55 7.75 22 8.1
Q 21.75 8.2 21.3 8.2 20.85 8.2 20.55 8.05 20.25 7.8 20.05 7.5 19.9 7.2 19.9 6.8
L 22.85 6.8 22.85 6.6
Q 22.85 6.25 22.65 5.75 22.45 5.4 22.05 5.1 21.7 4.9 21.2 4.9
M 21.2 5.25
Q 21.75 5.25 22.05 5.55 22.4 5.9 22.4 6.5
L 19.9 6.5
Q 19.9 6.2 20.05 5.9 20.2 5.6 20.5 5.45 20.75 5.25 21.2 5.25 Z"/>
</g>

<g id="IT_300x250_psd_Asset_5_ManagedWiFi_IT_Awareness_DM7_1_Does_your_business_struggle__with_network_security__0_Layer0_0_MEMBER_30_FILL">
<path fill="#D82C26" stroke="none" d="
M 23.2 5.35
L 23.85 5.35 23.85 7.65
Q 23.85 8.1 24.05 8.3 24.3 8.55 24.65 8.55
L 25.05 8.5 25.4 8.35 25.3 8.05
Q 25 8.2 24.75 8.2 24.55 8.2 24.4 8.05 24.25 7.9 24.25 7.6
L 24.25 5.35 25.15 5.35 25.25 5 24.25 5 24.25 4 23.8 4.15 23.8 5 23.25 5 23.2 5.35 Z"/>
</g>

<g id="IT_300x250_psd_Asset_5_ManagedWiFi_IT_Awareness_DM7_1_Does_your_business_struggle__with_network_security__0_Layer0_0_MEMBER_31_FILL">
<path fill="#D82C26" stroke="none" d="
M 26.2 5
L 25.7 5 26.8 8.45 27.25 8.45 28.25 5.5 29.25 8.45 29.75 8.45 30.8 5 30.35 5 29.5 8 28.5 5 28.05 5 27.05 8 26.2 5 Z"/>
</g>

<g id="IT_300x250_psd_Asset_5_ManagedWiFi_IT_Awareness_DM7_1_Does_your_business_struggle__with_network_security__0_Layer0_0_MEMBER_32_FILL">
<path fill="#D82C26" stroke="none" d="
M 34.7 5.8
Q 34.5 5.45 34.05 5.15 33.7 4.9 33.1 4.9 32.45 4.9 32.15 5.15 31.75 5.35 31.45 5.8 31.25 6.15 31.25 6.75 31.25 7.3 31.45 7.7 31.85 8.2 32.15 8.35 32.55 8.6 33.1 8.6 33.55 8.6 34.05 8.35 34.45 8.1 34.7 7.7 34.95 7.2 34.95 6.75 34.95 6.2 34.7 5.8
M 33.8 5.45
Q 34.15 5.65 34.3 6 34.5 6.25 34.5 6.75 34.5 7.2 34.3 7.45 34.2 7.75 33.85 8 33.5 8.2 33.1 8.2 32.6 8.2 32.35 8 32 7.8 31.85 7.45 31.65 7.05 31.65 6.75 31.65 6.4 31.85 6 32 5.65 32.35 5.45 32.75 5.25 33.1 5.25 33.4 5.25 33.8 5.45 Z"/>
</g>

<g id="IT_300x250_psd_Asset_5_ManagedWiFi_IT_Awareness_DM7_1_Does_your_business_struggle__with_network_security__0_Layer0_0_MEMBER_33_FILL">
<path fill="#D82C26" stroke="none" d="
M 36.25 5
L 35.8 5 35.85 8.45 36.3 8.45 36.3 6.75
Q 36.3 6.2 36.55 5.7 36.85 5.3 37.25 5.3
L 37.6 5.35 37.65 4.95 37.3 4.9
Q 36.95 4.9 36.7 5.15 36.35 5.4 36.3 5.75
L 36.25 5.75 36.25 5 Z"/>
</g>

<g id="IT_300x250_psd_Asset_5_ManagedWiFi_IT_Awareness_DM7_1_Does_your_business_struggle__with_network_security__0_Layer0_0_MEMBER_34_FILL">
<path fill="#D82C26" stroke="none" d="
M 40.55 8.45
L 41.1 8.45 39.25 6.6 40.95 5 40.4 5 38.75 6.55 38.75 2.8 38.3 2.9 38.3 8.45 38.75 8.45 38.75 6.65 40.55 8.45 Z"/>
</g>

<g id="IT_300x250_psd_Asset_5_ManagedWiFi_IT_Awareness_DM7_1_Does_your_business_struggle__with_network_security__0_Layer0_0_MEMBER_35_FILL">
<path fill="#D82C26" stroke="none" d="
M 43.55 5
Q 43.35 5.05 43.15 5.35 42.95 5.55 42.95 5.85 42.95 6.2 43.2 6.45
L 44.7 7.15
Q 44.9 7.3 44.9 7.6 44.9 7.9 44.7 8.05 44.4 8.25 44.15 8.25 43.45 8.25 43 7.8
L 42.9 8.2
Q 43.2 8.4 43.45 8.45 43.65 8.55 44.15 8.55 44.55 8.55 44.7 8.45 44.95 8.4 45.15 8.1 45.35 7.8 45.35 7.55 45.35 7.2 45.05 6.95 44.8 6.7 44.25 6.55
L 43.55 6.25
Q 43.4 6.1 43.4 5.85 43.4 5.55 43.6 5.4 43.85 5.25 44.15 5.25 44.45 5.25 44.65 5.35
L 45.05 5.6 45.2 5.25 44.75 5 44.1 4.9 43.55 5 Z"/>
</g>

<g id="IT_300x250_psd_Asset_5_ManagedWiFi_IT_Awareness_DM7_1_Does_your_business_struggle__with_network_security__0_Layer0_0_MEMBER_36_FILL">
<path fill="#D82C26" stroke="none" d="
M 46.8 5.15
Q 46.45 5.4 46.2 5.75 45.95 6.25 45.95 6.7 45.95 7.2 46.2 7.7 46.5 8.15 46.85 8.35 47.25 8.6 47.75 8.6 48.55 8.6 49.15 8.15
L 49.05 7.75 48.5 8.1
Q 48.3 8.2 47.8 8.2 47.45 8.2 47.05 8.05 46.7 7.8 46.6 7.5 46.4 7.25 46.4 6.8
L 49.35 6.8 49.35 6.6
Q 49.35 6.1 49.15 5.75 48.9 5.35 48.6 5.1 48.25 4.9 47.7 4.9 47.2 4.9 46.8 5.15
M 47.7 5.25
Q 48.25 5.25 48.6 5.55 48.9 5.9 48.95 6.5
L 46.4 6.5
Q 46.4 6.2 46.55 5.9 46.7 5.6 47 5.45 47.25 5.25 47.7 5.25 Z"/>
</g>

<g id="IT_300x250_psd_Asset_5_ManagedWiFi_IT_Awareness_DM7_1_Does_your_business_struggle__with_network_security__0_Layer0_0_MEMBER_37_FILL">
<path fill="#D82C26" stroke="none" d="
M 51.85 4.9
Q 51.25 4.9 50.95 5.15 50.5 5.35 50.3 5.8 50.05 6.2 50.05 6.75 50.05 7.35 50.3 7.7 50.55 8.15 50.9 8.35 51.4 8.6 51.85 8.6 52.2 8.6 52.55 8.45 52.8 8.4 53.05 8.15
L 53 7.8 52.5 8.1 51.9 8.2
Q 51.4 8.2 51.15 8 50.85 7.75 50.65 7.45 50.5 7.15 50.5 6.75 50.5 6.4 50.65 6
L 51.15 5.45
Q 51.55 5.25 51.9 5.25
L 52.4 5.35
Q 52.8 5.55 52.85 5.65
L 53.05 5.3 52.55 5 51.85 4.9 Z"/>
</g>

<g id="IT_300x250_psd_Asset_5_ManagedWiFi_IT_Awareness_DM7_1_Does_your_business_struggle__with_network_security__0_Layer0_0_MEMBER_38_FILL">
<path fill="#D82C26" stroke="none" d="
M 56.7 5
L 56.3 5 56.3 6.75
Q 56.3 7.2 56.15 7.55 56.05 7.75 55.75 8.05 55.45 8.2 55.15 8.2 54.6 8.2 54.4 7.85 54.2 7.6 54.2 7
L 54.2 5 53.75 5 53.75 7.1
Q 53.75 7.8 54.05 8.15 54.3 8.55 55.05 8.55 55.45 8.55 55.8 8.35 56.15 8.15 56.3 7.7
L 56.35 8.5 56.8 8.45 56.7 7.65 56.7 5 Z"/>
</g>

<g id="IT_300x250_psd_Asset_5_ManagedWiFi_IT_Awareness_DM7_1_Does_your_business_struggle__with_network_security__0_Layer0_0_MEMBER_39_FILL">
<path fill="#D82C26" stroke="none" d="
M 58.75 5.15
Q 58.5 5.3 58.35 5.75
L 58.3 5.75 58.3 5 57.85 5 57.9 8.45 58.35 8.45 58.35 6.75
Q 58.35 6.2 58.6 5.7 58.9 5.3 59.3 5.3
L 59.65 5.35 59.75 4.95 59.35 4.9
Q 59 4.9 58.75 5.15 Z"/>
</g>

<g id="IT_300x250_psd_Asset_5_ManagedWiFi_IT_Awareness_DM7_1_Does_your_business_struggle__with_network_security__0_Layer0_0_MEMBER_40_FILL">
<path fill="#D82C26" stroke="none" d="
M 60.8 3.85
L 60.9 3.6 60.8 3.4 60.6 3.3 60.35 3.4 60.25 3.6 60.35 3.85 60.6 3.95 60.8 3.85
M 60.8 8.45
L 60.8 5 60.35 5 60.35 8.45 60.8 8.45 Z"/>
</g>

<g id="IT_300x250_psd_Asset_5_ManagedWiFi_IT_Awareness_DM7_1_Does_your_business_struggle__with_network_security__0_Layer0_0_MEMBER_41_FILL">
<path fill="#D82C26" stroke="none" d="
M 62.55 5
L 62.55 4 62.1 4.15 62.1 5 61.55 5 61.45 5.35 62.1 5.35 62.1 7.65
Q 62.1 8.05 62.35 8.3 62.6 8.55 62.95 8.55
L 63.3 8.5 63.65 8.35 63.6 8.05 63.05 8.2
Q 62.85 8.2 62.7 8.05 62.55 7.9 62.55 7.6
L 62.55 5.35 63.45 5.35 63.55 5 62.55 5 Z"/>
</g>

<g id="IT_300x250_psd_Asset_5_ManagedWiFi_IT_Awareness_DM7_1_Does_your_business_struggle__with_network_security__0_Layer0_0_MEMBER_42_FILL">
<path fill="#D82C26" stroke="none" d="
M 67.2 5
L 66.7 5 65.65 8 64.45 5 64 5 65.45 8.5 65.2 9.25
Q 65.05 9.55 64.8 9.7 64.6 9.85 64.2 9.85
L 64.3 10.25
Q 64.7 10.25 65.1 10.05 65.4 9.85 65.55 9.35
L 67.2 5 Z"/>
</g>

<g id="IT_300x250_psd_Asset_5_ManagedWiFi_IT_Awareness_DM7_1_Does_your_business_struggle__with_network_security__0_Layer0_0_MEMBER_43_FILL">
<path fill="#D82C26" stroke="none" d="
M 67.15 4.1
Q 67.4 3.75 67.7 3.65 68 3.5 68.4 3.5 68.9 3.5 69.15 3.75 69.4 4 69.4 4.4
L 69.35 4.8 69.15 5.15 68.3 6.1
Q 68.2 6.3 68.2 6.75
L 68.2 6.95 68.6 6.95 68.6 6.8 68.65 6.4 68.8 6.05 69.55 5.25 69.8 4.9 69.85 4.35
Q 69.85 4 69.7 3.7 69.5 3.4 69.15 3.25 68.85 3.1 68.45 3.1 67.9 3.1 67.55 3.3 67.2 3.45 66.95 3.75
L 67.15 4.1
M 68.4 8.5
Q 68.6 8.5 68.65 8.4
L 68.75 8.2 68.65 7.95 68.4 7.85 68.2 7.95
Q 68.1 8 68.1 8.2 68.1 8.35 68.2 8.4 68.25 8.5 68.4 8.5 Z"/>
</g>
</defs>

<g transform="matrix( 1, 0, 0, 1, -66,7) ">
<g transform="matrix( 1, 0, 0, 1, 61,16) ">
<g transform="matrix( 1, 0, 0, 1, 27,4) ">
<g transform="matrix( 2.815704345703125, 0, 0, 2.832611083984375, 0.15,16.6) ">
<use xlink:href="#IT_300x250_psd_Asset_5_ManagedWiFi_IT_Awareness_DM7_1_Does_your_business_struggle__with_network_security__0_Layer0_0_MEMBER_0_FILL"/>
</g>

<g transform="matrix( 2.815704345703125, 0, 0, 2.832611083984375, 0.15,16.6) ">
<use xlink:href="#IT_300x250_psd_Asset_5_ManagedWiFi_IT_Awareness_DM7_1_Does_your_business_struggle__with_network_security__0_Layer0_0_MEMBER_1_FILL"/>
</g>

<g transform="matrix( 2.815704345703125, 0, 0, 2.832611083984375, 0.15,16.6) ">
<use xlink:href="#IT_300x250_psd_Asset_5_ManagedWiFi_IT_Awareness_DM7_1_Does_your_business_struggle__with_network_security__0_Layer0_0_MEMBER_2_FILL"/>
</g>

<g transform="matrix( 2.815704345703125, 0, 0, 2.832611083984375, 0.15,16.6) ">
<use xlink:href="#IT_300x250_psd_Asset_5_ManagedWiFi_IT_Awareness_DM7_1_Does_your_business_struggle__with_network_security__0_Layer0_0_MEMBER_3_FILL"/>
</g>

<g transform="matrix( 2.815704345703125, 0, 0, 2.832611083984375, 0.15,16.6) ">
<use xlink:href="#IT_300x250_psd_Asset_5_ManagedWiFi_IT_Awareness_DM7_1_Does_your_business_struggle__with_network_security__0_Layer0_0_MEMBER_4_FILL"/>
</g>

<g transform="matrix( 2.815704345703125, 0, 0, 2.832611083984375, 0.15,16.6) ">
<use xlink:href="#IT_300x250_psd_Asset_5_ManagedWiFi_IT_Awareness_DM7_1_Does_your_business_struggle__with_network_security__0_Layer0_0_MEMBER_5_FILL"/>
</g>

<g transform="matrix( 2.815704345703125, 0, 0, 2.832611083984375, 0.15,16.6) ">
<use xlink:href="#IT_300x250_psd_Asset_5_ManagedWiFi_IT_Awareness_DM7_1_Does_your_business_struggle__with_network_security__0_Layer0_0_MEMBER_6_FILL"/>
</g>

<g transform="matrix( 2.815704345703125, 0, 0, 2.832611083984375, 0.15,16.6) ">
<use xlink:href="#IT_300x250_psd_Asset_5_ManagedWiFi_IT_Awareness_DM7_1_Does_your_business_struggle__with_network_security__0_Layer0_0_MEMBER_7_FILL"/>
</g>

<g transform="matrix( 2.815704345703125, 0, 0, 2.832611083984375, 0.15,16.6) ">
<use xlink:href="#IT_300x250_psd_Asset_5_ManagedWiFi_IT_Awareness_DM7_1_Does_your_business_struggle__with_network_security__0_Layer0_0_MEMBER_8_FILL"/>
</g>

<g transform="matrix( 2.815704345703125, 0, 0, 2.832611083984375, 0.15,16.6) ">
<use xlink:href="#IT_300x250_psd_Asset_5_ManagedWiFi_IT_Awareness_DM7_1_Does_your_business_struggle__with_network_security__0_Layer0_0_MEMBER_9_FILL"/>
</g>

<g transform="matrix( 2.815704345703125, 0, 0, 2.832611083984375, 0.15,16.6) ">
<use xlink:href="#IT_300x250_psd_Asset_5_ManagedWiFi_IT_Awareness_DM7_1_Does_your_business_struggle__with_network_security__0_Layer0_0_MEMBER_10_FILL"/>
</g>

<g transform="matrix( 2.815704345703125, 0, 0, 2.832611083984375, 0.15,16.6) ">
<use xlink:href="#IT_300x250_psd_Asset_5_ManagedWiFi_IT_Awareness_DM7_1_Does_your_business_struggle__with_network_security__0_Layer0_0_MEMBER_11_FILL"/>
</g>

<g transform="matrix( 2.815704345703125, 0, 0, 2.832611083984375, 0.15,16.6) ">
<use xlink:href="#IT_300x250_psd_Asset_5_ManagedWiFi_IT_Awareness_DM7_1_Does_your_business_struggle__with_network_security__0_Layer0_0_MEMBER_12_FILL"/>
</g>

<g transform="matrix( 2.815704345703125, 0, 0, 2.832611083984375, 0.15,16.6) ">
<use xlink:href="#IT_300x250_psd_Asset_5_ManagedWiFi_IT_Awareness_DM7_1_Does_your_business_struggle__with_network_security__0_Layer0_0_MEMBER_13_FILL"/>
</g>

<g transform="matrix( 2.815704345703125, 0, 0, 2.832611083984375, 0.15,16.6) ">
<use xlink:href="#IT_300x250_psd_Asset_5_ManagedWiFi_IT_Awareness_DM7_1_Does_your_business_struggle__with_network_security__0_Layer0_0_MEMBER_14_FILL"/>
</g>

<g transform="matrix( 2.815704345703125, 0, 0, 2.832611083984375, 0.15,16.6) ">
<use xlink:href="#IT_300x250_psd_Asset_5_ManagedWiFi_IT_Awareness_DM7_1_Does_your_business_struggle__with_network_security__0_Layer0_0_MEMBER_15_FILL"/>
</g>

<g transform="matrix( 2.815704345703125, 0, 0, 2.832611083984375, 0.15,16.6) ">
<use xlink:href="#IT_300x250_psd_Asset_5_ManagedWiFi_IT_Awareness_DM7_1_Does_your_business_struggle__with_network_security__0_Layer0_0_MEMBER_16_FILL"/>
</g>

<g transform="matrix( 2.815704345703125, 0, 0, 2.832611083984375, 0.15,16.6) ">
<use xlink:href="#IT_300x250_psd_Asset_5_ManagedWiFi_IT_Awareness_DM7_1_Does_your_business_struggle__with_network_security__0_Layer0_0_MEMBER_17_FILL"/>
</g>

<g transform="matrix( 2.815704345703125, 0, 0, 2.832611083984375, 0.15,16.6) ">
<use xlink:href="#IT_300x250_psd_Asset_5_ManagedWiFi_IT_Awareness_DM7_1_Does_your_business_struggle__with_network_security__0_Layer0_0_MEMBER_18_FILL"/>
</g>

<g transform="matrix( 2.815704345703125, 0, 0, 2.832611083984375, 0.15,16.6) ">
<use xlink:href="#IT_300x250_psd_Asset_5_ManagedWiFi_IT_Awareness_DM7_1_Does_your_business_struggle__with_network_security__0_Layer0_0_MEMBER_19_FILL"/>
</g>

<g transform="matrix( 2.815704345703125, 0, 0, 2.832611083984375, 0.15,16.6) ">
<use xlink:href="#IT_300x250_psd_Asset_5_ManagedWiFi_IT_Awareness_DM7_1_Does_your_business_struggle__with_network_security__0_Layer0_0_MEMBER_20_FILL"/>
</g>

<g transform="matrix( 2.815704345703125, 0, 0, 2.832611083984375, 0.15,16.6) ">
<use xlink:href="#IT_300x250_psd_Asset_5_ManagedWiFi_IT_Awareness_DM7_1_Does_your_business_struggle__with_network_security__0_Layer0_0_MEMBER_21_FILL"/>
</g>

<g transform="matrix( 2.815704345703125, 0, 0, 2.832611083984375, 0.15,16.6) ">
<use xlink:href="#IT_300x250_psd_Asset_5_ManagedWiFi_IT_Awareness_DM7_1_Does_your_business_struggle__with_network_security__0_Layer0_0_MEMBER_22_FILL"/>
</g>

<g transform="matrix( 2.815704345703125, 0, 0, 2.832611083984375, 0.15,16.6) ">
<use xlink:href="#IT_300x250_psd_Asset_5_ManagedWiFi_IT_Awareness_DM7_1_Does_your_business_struggle__with_network_security__0_Layer0_0_MEMBER_23_FILL"/>
</g>

<g transform="matrix( 2.815704345703125, 0, 0, 2.832611083984375, 0.15,16.6) ">
<use xlink:href="#IT_300x250_psd_Asset_5_ManagedWiFi_IT_Awareness_DM7_1_Does_your_business_struggle__with_network_security__0_Layer0_0_MEMBER_24_FILL"/>
</g>

<g transform="matrix( 2.815704345703125, 0, 0, 2.832611083984375, 0.15,16.6) ">
<use xlink:href="#IT_300x250_psd_Asset_5_ManagedWiFi_IT_Awareness_DM7_1_Does_your_business_struggle__with_network_security__0_Layer0_0_MEMBER_25_FILL"/>
</g>

<g transform="matrix( 2.815704345703125, 0, 0, 2.832611083984375, 0.15,16.6) ">
<use xlink:href="#IT_300x250_psd_Asset_5_ManagedWiFi_IT_Awareness_DM7_1_Does_your_business_struggle__with_network_security__0_Layer0_0_MEMBER_26_FILL"/>
</g>

<g transform="matrix( 2.815704345703125, 0, 0, 2.832611083984375, 0.15,16.6) ">
<use xlink:href="#IT_300x250_psd_Asset_5_ManagedWiFi_IT_Awareness_DM7_1_Does_your_business_struggle__with_network_security__0_Layer0_0_MEMBER_27_FILL"/>
</g>

<g transform="matrix( 2.815704345703125, 0, 0, 2.832611083984375, 0.15,16.6) ">
<use xlink:href="#IT_300x250_psd_Asset_5_ManagedWiFi_IT_Awareness_DM7_1_Does_your_business_struggle__with_network_security__0_Layer0_0_MEMBER_28_FILL"/>
</g>

<g transform="matrix( 2.815704345703125, 0, 0, 2.832611083984375, 0.15,16.6) ">
<use xlink:href="#IT_300x250_psd_Asset_5_ManagedWiFi_IT_Awareness_DM7_1_Does_your_business_struggle__with_network_security__0_Layer0_0_MEMBER_29_FILL"/>
</g>

<g transform="matrix( 2.815704345703125, 0, 0, 2.832611083984375, 0.15,16.6) ">
<use xlink:href="#IT_300x250_psd_Asset_5_ManagedWiFi_IT_Awareness_DM7_1_Does_your_business_struggle__with_network_security__0_Layer0_0_MEMBER_30_FILL"/>
</g>

<g transform="matrix( 2.815704345703125, 0, 0, 2.832611083984375, 0.15,16.6) ">
<use xlink:href="#IT_300x250_psd_Asset_5_ManagedWiFi_IT_Awareness_DM7_1_Does_your_business_struggle__with_network_security__0_Layer0_0_MEMBER_31_FILL"/>
</g>

<g transform="matrix( 2.815704345703125, 0, 0, 2.832611083984375, 0.15,16.6) ">
<use xlink:href="#IT_300x250_psd_Asset_5_ManagedWiFi_IT_Awareness_DM7_1_Does_your_business_struggle__with_network_security__0_Layer0_0_MEMBER_32_FILL"/>
</g>

<g transform="matrix( 2.815704345703125, 0, 0, 2.832611083984375, 0.15,16.6) ">
<use xlink:href="#IT_300x250_psd_Asset_5_ManagedWiFi_IT_Awareness_DM7_1_Does_your_business_struggle__with_network_security__0_Layer0_0_MEMBER_33_FILL"/>
</g>

<g transform="matrix( 2.815704345703125, 0, 0, 2.832611083984375, 0.15,16.6) ">
<use xlink:href="#IT_300x250_psd_Asset_5_ManagedWiFi_IT_Awareness_DM7_1_Does_your_business_struggle__with_network_security__0_Layer0_0_MEMBER_34_FILL"/>
</g>

<g transform="matrix( 2.815704345703125, 0, 0, 2.832611083984375, 0.15,16.6) ">
<use xlink:href="#IT_300x250_psd_Asset_5_ManagedWiFi_IT_Awareness_DM7_1_Does_your_business_struggle__with_network_security__0_Layer0_0_MEMBER_35_FILL"/>
</g>

<g transform="matrix( 2.815704345703125, 0, 0, 2.832611083984375, 0.15,16.6) ">
<use xlink:href="#IT_300x250_psd_Asset_5_ManagedWiFi_IT_Awareness_DM7_1_Does_your_business_struggle__with_network_security__0_Layer0_0_MEMBER_36_FILL"/>
</g>

<g transform="matrix( 2.815704345703125, 0, 0, 2.832611083984375, 0.15,16.6) ">
<use xlink:href="#IT_300x250_psd_Asset_5_ManagedWiFi_IT_Awareness_DM7_1_Does_your_business_struggle__with_network_security__0_Layer0_0_MEMBER_37_FILL"/>
</g>

<g transform="matrix( 2.815704345703125, 0, 0, 2.832611083984375, 0.15,16.6) ">
<use xlink:href="#IT_300x250_psd_Asset_5_ManagedWiFi_IT_Awareness_DM7_1_Does_your_business_struggle__with_network_security__0_Layer0_0_MEMBER_38_FILL"/>
</g>

<g transform="matrix( 2.815704345703125, 0, 0, 2.832611083984375, 0.15,16.6) ">
<use xlink:href="#IT_300x250_psd_Asset_5_ManagedWiFi_IT_Awareness_DM7_1_Does_your_business_struggle__with_network_security__0_Layer0_0_MEMBER_39_FILL"/>
</g>

<g transform="matrix( 2.815704345703125, 0, 0, 2.832611083984375, 0.15,16.6) ">
<use xlink:href="#IT_300x250_psd_Asset_5_ManagedWiFi_IT_Awareness_DM7_1_Does_your_business_struggle__with_network_security__0_Layer0_0_MEMBER_40_FILL"/>
</g>

<g transform="matrix( 2.815704345703125, 0, 0, 2.832611083984375, 0.15,16.6) ">
<use xlink:href="#IT_300x250_psd_Asset_5_ManagedWiFi_IT_Awareness_DM7_1_Does_your_business_struggle__with_network_security__0_Layer0_0_MEMBER_41_FILL"/>
</g>

<g transform="matrix( 2.815704345703125, 0, 0, 2.832611083984375, 0.15,16.6) ">
<use xlink:href="#IT_300x250_psd_Asset_5_ManagedWiFi_IT_Awareness_DM7_1_Does_your_business_struggle__with_network_security__0_Layer0_0_MEMBER_42_FILL"/>
</g>

<g transform="matrix( 2.815704345703125, 0, 0, 2.832611083984375, 0.15,16.6) ">
<use xlink:href="#IT_300x250_psd_Asset_5_ManagedWiFi_IT_Awareness_DM7_1_Does_your_business_struggle__with_network_security__0_Layer0_0_MEMBER_43_FILL"/>
</g>
</g>
</g>
</g>
</svg>
