
<svg xmlns="http://www.w3.org/2000/svg" version="1.1" xmlns:xlink="http://www.w3.org/1999/xlink" preserveAspectRatio="none" x="0px" y="0px" width="728px" height="90px" viewBox="0 0 728 90">
<defs>
<g id="Business_DM_Banners___728x90_psd_Asset_Evaluation___Consumer_Goods_fr1_With_Managed_Wi_Fi_as_a_Service_from_Rogers_0_Layer0_0_MEMBER_0_FILL">
<path fill="#DA291C" stroke="none" d="
M 0.8 -6.85
L 0.2 -6.85 2.2 0 2.9 0 4.7 -6.1 6.5 0 7.2 0 9.2 -6.85 8.6 -6.85 6.85 -0.75 5.05 -6.85 4.35 -6.85 2.6 -0.75 2.55 -0.75 0.8 -6.85 Z"/>
</g>

<g id="Business_DM_Banners___728x90_psd_Asset_Evaluation___Consumer_Goods_fr1_With_Managed_Wi_Fi_as_a_Service_from_Rogers_0_Layer0_0_MEMBER_1_FILL">
<path fill="#DA291C" stroke="none" d="
M 10.15 -6.05
L 10.4 -5.95 10.7 -6.05
Q 10.8 -6.15 10.8 -6.35 10.8 -6.55 10.7 -6.65
L 10.4 -6.75 10.15 -6.65 10 -6.35 10.15 -6.05
M 10.7 -4.55
L 10.15 -4.55 10.15 0 10.7 0 10.7 -4.55 Z"/>
</g>

<g id="Business_DM_Banners___728x90_psd_Asset_Evaluation___Consumer_Goods_fr1_With_Managed_Wi_Fi_as_a_Service_from_Rogers_0_Layer0_0_MEMBER_2_FILL">
<path fill="#DA291C" stroke="none" d="
M 12.95 -4.55
L 12.95 -5.85 12.35 -5.6 12.35 -4.55 11.65 -4.55 11.5 -4.1 12.35 -4.1 12.35 -1.1
Q 12.35 -0.5 12.65 -0.2 12.95 0.1 13.45 0.1
L 13.95 0.05 14.4 -0.15 14.3 -0.55
Q 13.8 -0.35 13.6 -0.35 13.4 -0.35 13.1 -0.55 12.95 -0.75 12.95 -1.15
L 12.95 -4.1 14.1 -4.1 14.2 -4.55 12.95 -4.55 Z"/>
</g>

<g id="Business_DM_Banners___728x90_psd_Asset_Evaluation___Consumer_Goods_fr1_With_Managed_Wi_Fi_as_a_Service_from_Rogers_0_Layer0_0_MEMBER_3_FILL">
<path fill="#DA291C" stroke="none" d="
M 15.8 -7.4
L 15.2 -7.3 15.2 0 15.8 0 15.8 -2.2
Q 15.8 -2.9 16 -3.3 16.15 -3.7 16.55 -3.95 16.9 -4.2 17.3 -4.2 17.95 -4.2 18.25 -3.75 18.55 -3.3 18.55 -2.6
L 18.55 0 19.1 0 19.1 -2.75
Q 19.1 -3.5 18.7 -4.15 18.35 -4.65 17.45 -4.65 16.9 -4.65 16.45 -4.35 16 -4.05 15.8 -3.55
L 15.8 -7.4 Z"/>
</g>

<g id="Business_DM_Banners___728x90_psd_Asset_Evaluation___Consumer_Goods_fr1_With_Managed_Wi_Fi_as_a_Service_from_Rogers_0_Layer0_0_MEMBER_4_FILL">
<path fill="#DA291C" stroke="none" d="
M 23.5 -6.85
L 22.6 -6.85 22.6 0 23.2 0 23.2 -6.2 25.9 0 26.25 0 29 -6.2 28.95 0 29.55 0 29.55 -6.85 28.65 -6.85 26.1 -0.9 23.5 -6.85 Z"/>
</g>

<g id="Business_DM_Banners___728x90_psd_Asset_Evaluation___Consumer_Goods_fr1_With_Managed_Wi_Fi_as_a_Service_from_Rogers_0_Layer0_0_MEMBER_5_FILL">
<path fill="#DA291C" stroke="none" d="
M 31.9 -4.05
L 32.65 -4.2
Q 33.3 -4.2 33.6 -3.9 33.95 -3.6 33.95 -3
L 33.95 -2.7 33.4 -2.7
Q 30.8 -2.7 30.8 -1.2 30.8 -0.55 31.25 -0.2 31.7 0.15 32.25 0.15 32.8 0.15 33.25 -0.15 33.7 -0.35 33.95 -0.9
L 34.05 0 34.55 0 34.5 -2.95
Q 34.5 -3.8 34 -4.25 33.55 -4.7 32.75 -4.7 32.25 -4.7 31.8 -4.55 31.35 -4.4 31.05 -4.1
L 31.2 -3.65
Q 31.6 -3.95 31.9 -4.05
M 31.65 -0.55
Q 31.35 -0.75 31.35 -1.25 31.35 -2.35 33.5 -2.35
L 33.95 -2.35 33.95 -1.9
Q 33.95 -1.5 33.75 -1.15 33.6 -0.85 33.25 -0.55 32.85 -0.3 32.35 -0.3 32 -0.3 31.65 -0.55 Z"/>
</g>

<g id="Business_DM_Banners___728x90_psd_Asset_Evaluation___Consumer_Goods_fr1_With_Managed_Wi_Fi_as_a_Service_from_Rogers_0_Layer0_0_MEMBER_6_FILL">
<path fill="#DA291C" stroke="none" d="
M 39.35 -4.1
Q 39 -4.65 38.1 -4.65 37.55 -4.65 37.1 -4.35 36.65 -4.05 36.45 -3.55
L 36.4 -4.55 35.85 -4.55 35.9 0 36.45 0 36.45 -2.3
Q 36.45 -2.95 36.65 -3.3 36.9 -3.75 37.2 -3.95 37.6 -4.2 37.95 -4.2 38.7 -4.2 38.9 -3.75 39.2 -3.3 39.2 -2.6
L 39.2 0 39.75 0 39.75 -2.75
Q 39.75 -3.65 39.35 -4.1 Z"/>
</g>

<g id="Business_DM_Banners___728x90_psd_Asset_Evaluation___Consumer_Goods_fr1_With_Managed_Wi_Fi_as_a_Service_from_Rogers_0_Layer0_0_MEMBER_7_FILL">
<path fill="#DA291C" stroke="none" d="
M 41.95 -4.05
L 42.7 -4.2
Q 43.3 -4.2 43.65 -3.9 44 -3.6 44 -3
L 44 -2.7 43.45 -2.7
Q 40.85 -2.7 40.85 -1.2 40.85 -0.6 41.25 -0.2 41.8 0.15 42.3 0.15 42.85 0.15 43.3 -0.15 43.8 -0.4 44 -0.9
L 44.1 0 44.6 0 44.55 -2.95
Q 44.55 -3.75 44.05 -4.25 43.6 -4.7 42.8 -4.7 42.3 -4.7 41.85 -4.55 41.4 -4.4 41.1 -4.1
L 41.25 -3.65
Q 41.65 -3.95 41.95 -4.05
M 41.7 -0.55
Q 41.4 -0.75 41.4 -1.25 41.4 -2.35 43.5 -2.35
L 44 -2.35 44 -1.9
Q 44 -1.5 43.8 -1.15 43.65 -0.85 43.3 -0.55 42.9 -0.3 42.4 -0.3 42.05 -0.3 41.7 -0.55 Z"/>
</g>

<g id="Business_DM_Banners___728x90_psd_Asset_Evaluation___Consumer_Goods_fr1_With_Managed_Wi_Fi_as_a_Service_from_Rogers_0_Layer0_0_MEMBER_8_FILL">
<path fill="#DA291C" stroke="none" d="
M 49.75 -3.55
Q 49.45 -4.05 49 -4.35 48.5 -4.65 47.9 -4.65 47.25 -4.65 46.7 -4.35 46.25 -4.1 45.9 -3.5 45.6 -2.9 45.6 -2.3 45.6 -1.65 45.9 -1.05 46.15 -0.6 46.7 -0.2 47.25 0.1 47.9 0.1 48.5 0.1 49 -0.2 49.45 -0.5 49.75 -1
L 49.75 -0.05
Q 49.75 0.9 49.3 1.35 48.85 1.9 47.9 1.9 47.35 1.9 46.9 1.75
L 46 1.3 45.9 1.85 46.85 2.25
Q 47.3 2.4 47.9 2.4 49.15 2.4 49.75 1.7 50.3 1 50.3 -0.05
L 50.35 -4.55 49.8 -4.55 49.75 -3.55
M 48.9 -3.95
Q 49.4 -3.55 49.55 -3.25 49.8 -2.75 49.8 -2.3 49.8 -1.75 49.55 -1.35 49.35 -0.9 48.9 -0.65 48.6 -0.4 48 -0.4 47.35 -0.4 47.05 -0.65 46.65 -0.85 46.4 -1.35 46.2 -1.7 46.2 -2.3 46.2 -2.85 46.4 -3.25 46.65 -3.7 47.05 -3.95 47.45 -4.2 48 -4.2 48.5 -4.2 48.9 -3.95 Z"/>
</g>

<g id="Business_DM_Banners___728x90_psd_Asset_Evaluation___Consumer_Goods_fr1_With_Managed_Wi_Fi_as_a_Service_from_Rogers_0_Layer0_0_MEMBER_9_FILL">
<path fill="#DA291C" stroke="none" d="
M 55.6 -3.55
Q 55.35 -4.1 54.85 -4.4 54.4 -4.7 53.7 -4.7 53.15 -4.7 52.55 -4.35 52.05 -4.05 51.75 -3.5 51.45 -2.95 51.45 -2.3 51.45 -1.55 51.75 -1.05 52 -0.6 52.6 -0.15 53.15 0.15 53.8 0.15 54.85 0.15 55.6 -0.45
L 55.5 -0.9
Q 55.15 -0.65 54.75 -0.5 54.3 -0.35 53.85 -0.35 53.2 -0.35 52.9 -0.6 52.45 -0.8 52.25 -1.25 52 -1.75 52 -2.2
L 55.85 -2.2 55.85 -2.45
Q 55.85 -3.1 55.6 -3.55
M 53.7 -4.25
Q 54.4 -4.25 54.85 -3.8 55.3 -3.35 55.3 -2.6
L 52 -2.6
Q 52.1 -3.1 52.25 -3.35 52.4 -3.7 52.8 -3.95 53.2 -4.25 53.7 -4.25 Z"/>
</g>

<g id="Business_DM_Banners___728x90_psd_Asset_Evaluation___Consumer_Goods_fr1_With_Managed_Wi_Fi_as_a_Service_from_Rogers_0_Layer0_0_MEMBER_10_FILL">
<path fill="#DA291C" stroke="none" d="
M 60.05 -4.4
Q 59.55 -4.65 59 -4.65 58.35 -4.65 57.8 -4.35 57.35 -4.1 57 -3.5 56.7 -2.9 56.7 -2.25 56.7 -1.55 57 -1.05 57.35 -0.45 57.8 -0.2 58.4 0.15 59 0.15 59.6 0.15 60.05 -0.15 60.5 -0.4 60.85 -1
L 60.9 0 61.45 0 61.4 -7.45 60.85 -7.3 60.85 -3.55
Q 60.5 -4.15 60.05 -4.4
M 60 -3.95
Q 60.45 -3.6 60.65 -3.25 60.85 -2.85 60.85 -2.25 60.85 -1.7 60.65 -1.3 60.5 -1 60 -0.6 59.5 -0.35 59.05 -0.35 58.55 -0.35 58.15 -0.6 57.7 -0.9 57.5 -1.3 57.3 -1.7 57.3 -2.25 57.3 -2.85 57.5 -3.25 57.75 -3.7 58.15 -3.95 58.55 -4.2 59.05 -4.2 59.5 -4.2 60 -3.95 Z"/>
</g>

<g id="Business_DM_Banners___728x90_psd_Asset_Evaluation___Consumer_Goods_fr1_With_Managed_Wi_Fi_as_a_Service_from_Rogers_0_Layer0_0_MEMBER_11_FILL">
<path fill="#DA291C" stroke="none" d="
M 64.85 -6.85
L 64.25 -6.85 66.25 0 66.95 0 68.75 -6.1 70.55 0 71.25 0 73.25 -6.85 72.65 -6.85 70.9 -0.75 69.1 -6.85 68.4 -6.85 66.65 -0.75 66.6 -0.75 64.85 -6.85 Z"/>
</g>

<g id="Business_DM_Banners___728x90_psd_Asset_Evaluation___Consumer_Goods_fr1_With_Managed_Wi_Fi_as_a_Service_from_Rogers_0_Layer0_0_MEMBER_12_FILL">
<path fill="#DA291C" stroke="none" d="
M 74.75 -4.55
L 74.2 -4.55 74.2 0 74.75 0 74.75 -4.55
M 74.9 -6.35
L 74.75 -6.65
Q 74.65 -6.75 74.45 -6.75
L 74.2 -6.65 74.05 -6.35 74.2 -6.05 74.45 -5.95
Q 74.65 -5.95 74.75 -6.05
L 74.9 -6.35 Z"/>
</g>

<g id="Business_DM_Banners___728x90_psd_Asset_Evaluation___Consumer_Goods_fr1_With_Managed_Wi_Fi_as_a_Service_from_Rogers_0_Layer0_0_MEMBER_13_FILL">
<path fill="#DA291C" stroke="none" d="
M 75.95 -2.7
L 75.95 -2.2 77.95 -2.2 77.95 -2.7 75.95 -2.7 Z"/>
</g>

<g id="Business_DM_Banners___728x90_psd_Asset_Evaluation___Consumer_Goods_fr1_With_Managed_Wi_Fi_as_a_Service_from_Rogers_0_Layer0_0_MEMBER_14_FILL">
<path fill="#DA291C" stroke="none" d="
M 79.9 -3.75
L 79.9 -6.35 82.8 -6.35 82.85 -6.85 79.3 -6.85 79.3 0 79.9 0 79.9 -3.25 82.55 -3.25 82.7 -3.75 79.9 -3.75 Z"/>
</g>

<g id="Business_DM_Banners___728x90_psd_Asset_Evaluation___Consumer_Goods_fr1_With_Managed_Wi_Fi_as_a_Service_from_Rogers_0_Layer0_0_MEMBER_15_FILL">
<path fill="#DA291C" stroke="none" d="
M 84.5 -4.55
L 83.95 -4.55 83.95 0 84.5 0 84.5 -4.55
M 84.6 -6.35
Q 84.6 -6.55 84.5 -6.65
L 84.2 -6.75 83.9 -6.65 83.8 -6.35 83.9 -6.05 84.2 -5.95 84.5 -6.05
Q 84.6 -6.15 84.6 -6.35 Z"/>
</g>

<g id="Business_DM_Banners___728x90_psd_Asset_Evaluation___Consumer_Goods_fr1_With_Managed_Wi_Fi_as_a_Service_from_Rogers_0_Layer0_0_MEMBER_16_FILL">
<path fill="#DA291C" stroke="none" d="
M 89.55 -4.2
Q 90.15 -4.2 90.5 -3.9 90.85 -3.6 90.85 -3
L 90.85 -2.7 90.3 -2.7
Q 87.7 -2.7 87.7 -1.2 87.7 -0.6 88.1 -0.2 88.65 0.15 89.15 0.15 89.7 0.15 90.15 -0.15 90.65 -0.4 90.85 -0.9
L 90.95 0 91.45 0 91.35 -1 91.35 -2.95
Q 91.35 -3.8 90.9 -4.25 90.45 -4.7 89.65 -4.7 89.15 -4.7 88.7 -4.55 88.25 -4.4 87.95 -4.1
L 88.1 -3.65
Q 88.5 -3.95 88.8 -4.05
L 89.55 -4.2
M 88.55 -0.55
Q 88.25 -0.75 88.25 -1.25 88.25 -2.35 90.35 -2.35
L 90.85 -2.35 90.85 -1.9
Q 90.85 -1.5 90.65 -1.15 90.5 -0.85 90.15 -0.55 89.75 -0.3 89.25 -0.3 88.9 -0.3 88.55 -0.55 Z"/>
</g>

<g id="Business_DM_Banners___728x90_psd_Asset_Evaluation___Consumer_Goods_fr1_With_Managed_Wi_Fi_as_a_Service_from_Rogers_0_Layer0_0_MEMBER_17_FILL">
<path fill="#DA291C" stroke="none" d="
M 94.8 -4.55
Q 94.45 -4.7 94 -4.7
L 93.25 -4.55
Q 92.9 -4.4 92.7 -4.1 92.5 -3.85 92.5 -3.45 92.5 -2.85 92.8 -2.65 93.15 -2.35 93.8 -2.15 94.5 -1.9 94.75 -1.7 95.05 -1.55 95.05 -1.15 95.05 -0.75 94.75 -0.55 94.4 -0.3 94 -0.3 93.15 -0.3 92.5 -0.85
L 92.4 -0.4
Q 92.8 -0.1 93.1 0 93.55 0.15 94.05 0.15
L 94.8 0
Q 95.15 -0.15 95.35 -0.45 95.55 -0.7 95.55 -1.2 95.55 -1.7 95.25 -2 95 -2.2 94.2 -2.55 93.55 -2.7 93.3 -2.95 93.05 -3.05 93.05 -3.45 93.05 -3.85 93.3 -4.05 93.6 -4.2 94 -4.2 94.45 -4.2 94.65 -4.1
L 95.2 -3.8 95.45 -4.2 94.8 -4.55 Z"/>
</g>

<g id="Business_DM_Banners___728x90_psd_Asset_Evaluation___Consumer_Goods_fr1_With_Managed_Wi_Fi_as_a_Service_from_Rogers_0_Layer0_0_MEMBER_18_FILL">
<path fill="#DA291C" stroke="none" d="
M 100.3 -4.7
Q 99.85 -4.7 99.4 -4.55 99 -4.4 98.6 -4.1
L 98.8 -3.65 99.45 -4.05 100.2 -4.2
Q 100.85 -4.2 101.15 -3.9 101.5 -3.6 101.5 -3
L 101.5 -2.7 100.95 -2.7
Q 98.35 -2.7 98.35 -1.2 98.35 -0.55 98.8 -0.2 99.25 0.15 99.8 0.15 100.35 0.15 100.85 -0.15 101.25 -0.35 101.5 -0.9
L 101.55 -0.9 101.55 -0.4 101.6 0 102.1 0 102.05 -2.95
Q 102.05 -3.8 101.6 -4.25 101.15 -4.7 100.3 -4.7
M 100.8 -0.55
Q 100.4 -0.3 99.9 -0.3 99.55 -0.3 99.2 -0.55 98.9 -0.75 98.9 -1.25 98.9 -2.35 101.05 -2.35
L 101.5 -2.35 101.5 -1.9 101.35 -1.15
Q 101.1 -0.75 100.8 -0.55 Z"/>
</g>

<g id="Business_DM_Banners___728x90_psd_Asset_Evaluation___Consumer_Goods_fr1_With_Managed_Wi_Fi_as_a_Service_from_Rogers_0_Layer0_0_MEMBER_19_FILL">
<path fill="#DA291C" stroke="none" d="
M 107.55 -7.05
Q 107.15 -7.05 106.45 -6.85 106 -6.6 105.65 -6.2 105.35 -5.75 105.35 -5.15 105.35 -4.6 105.6 -4.2 105.95 -3.75 106.25 -3.65
L 108.2 -2.85
Q 108.55 -2.7 108.75 -2.4 108.95 -2.1 108.95 -1.7 108.95 -1.05 108.45 -0.7 108.05 -0.35 107.35 -0.35 106.75 -0.35 106.3 -0.55 105.6 -0.85 105.35 -1.1
L 105.25 -0.55
Q 105.7 -0.2 106.2 0 106.9 0.2 107.35 0.2 107.85 0.2 108.45 -0.05 109 -0.3 109.25 -0.7 109.55 -1.15 109.55 -1.75 109.55 -2.3 109.25 -2.7 109.05 -3.05 108.6 -3.3
L 107.55 -3.7
Q 107.5 -3.7 106.65 -4.05 106.4 -4.2 106.15 -4.5 105.9 -4.75 105.9 -5.2 105.9 -5.6 106.15 -5.95 106.4 -6.25 106.75 -6.4 107.15 -6.55 107.55 -6.55 108.05 -6.55 108.5 -6.35 108.9 -6.2 109.25 -5.95
L 109.4 -6.45
Q 109.25 -6.6 108.55 -6.9 108.1 -7.05 107.55 -7.05 Z"/>
</g>

<g id="Business_DM_Banners___728x90_psd_Asset_Evaluation___Consumer_Goods_fr1_With_Managed_Wi_Fi_as_a_Service_from_Rogers_0_Layer0_0_MEMBER_20_FILL">
<path fill="#DA291C" stroke="none" d="
M 110.45 -2.3
Q 110.45 -1.55 110.75 -1.05 111 -0.6 111.6 -0.15 112.15 0.15 112.8 0.15 113.85 0.15 114.6 -0.45
L 114.5 -0.9
Q 114.15 -0.65 113.75 -0.5 113.4 -0.35 112.85 -0.35 112.3 -0.35 111.9 -0.6 111.45 -0.9 111.25 -1.25 111 -1.75 111 -2.2
L 114.85 -2.2 114.85 -2.45
Q 114.85 -3.1 114.6 -3.55 114.35 -4.1 113.9 -4.4 113.4 -4.7 112.7 -4.7 112.15 -4.7 111.55 -4.35 111 -3.95 110.75 -3.5 110.45 -2.95 110.45 -2.3
M 111.05 -2.6
Q 111.05 -3 111.25 -3.35 111.5 -3.75 111.8 -3.95 112.2 -4.25 112.7 -4.25 113.5 -4.25 113.85 -3.8 114.25 -3.4 114.35 -2.6
L 111.05 -2.6 Z"/>
</g>

<g id="Business_DM_Banners___728x90_psd_Asset_Evaluation___Consumer_Goods_fr1_With_Managed_Wi_Fi_as_a_Service_from_Rogers_0_Layer0_0_MEMBER_21_FILL">
<path fill="#DA291C" stroke="none" d="
M 116.55 -2.25
Q 116.55 -3 116.9 -3.6 117.25 -4.15 117.85 -4.15
L 118.25 -4.1 118.35 -4.6 117.9 -4.65
Q 117.5 -4.65 117.1 -4.35 116.7 -4 116.55 -3.55
L 116.5 -4.55 115.95 -4.55 116 0 116.55 0 116.55 -2.25 Z"/>
</g>

<g id="Business_DM_Banners___728x90_psd_Asset_Evaluation___Consumer_Goods_fr1_With_Managed_Wi_Fi_as_a_Service_from_Rogers_0_Layer0_0_MEMBER_22_FILL">
<path fill="#DA291C" stroke="none" d="
M 119.3 -4.55
L 118.7 -4.55 120.45 0 121.1 0 122.8 -4.55 122.2 -4.55 120.8 -0.55 119.3 -4.55 Z"/>
</g>

<g id="Business_DM_Banners___728x90_psd_Asset_Evaluation___Consumer_Goods_fr1_With_Managed_Wi_Fi_as_a_Service_from_Rogers_0_Layer0_0_MEMBER_23_FILL">
<path fill="#DA291C" stroke="none" d="
M 124.15 -4.55
L 123.6 -4.55 123.6 0 124.15 0 124.15 -4.55
M 124.3 -6.35
L 124.15 -6.65 123.9 -6.75
Q 123.8 -6.75 123.6 -6.65 123.5 -6.55 123.5 -6.35 123.5 -6.15 123.6 -6.05 123.8 -5.95 123.9 -5.95
L 124.15 -6.05 124.3 -6.35 Z"/>
</g>

<g id="Business_DM_Banners___728x90_psd_Asset_Evaluation___Consumer_Goods_fr1_With_Managed_Wi_Fi_as_a_Service_from_Rogers_0_Layer0_0_MEMBER_24_FILL">
<path fill="#DA291C" stroke="none" d="
M 125.6 -1
Q 125.9 -0.45 126.45 -0.15 127 0.15 127.65 0.15 128.1 0.15 128.55 0
L 129.2 -0.4 129.15 -0.9
Q 129 -0.75 128.5 -0.5 128.15 -0.35 127.7 -0.35 127.25 -0.35 126.75 -0.6 126.25 -1 126.1 -1.3 125.9 -1.7 125.9 -2.25 125.9 -2.85 126.1 -3.25 126.35 -3.7 126.75 -3.95 127.15 -4.2 127.7 -4.2 128.05 -4.2 128.4 -4.05 128.8 -3.9 129 -3.7
L 129.2 -4.15
Q 128.95 -4.4 128.55 -4.55 128.1 -4.7 127.7 -4.7 127.05 -4.7 126.45 -4.35 125.9 -4.05 125.6 -3.5 125.3 -2.95 125.3 -2.25 125.3 -1.6 125.6 -1 Z"/>
</g>

<g id="Business_DM_Banners___728x90_psd_Asset_Evaluation___Consumer_Goods_fr1_With_Managed_Wi_Fi_as_a_Service_from_Rogers_0_Layer0_0_MEMBER_25_FILL">
<path fill="#DA291C" stroke="none" d="
M 130.05 -1.05
Q 130.3 -0.6 130.9 -0.15 131.45 0.15 132.1 0.15 133.15 0.15 133.9 -0.45
L 133.8 -0.9
Q 133.45 -0.65 133.05 -0.5 132.6 -0.35 132.15 -0.35 131.5 -0.35 131.2 -0.6 130.75 -0.8 130.55 -1.25 130.3 -1.75 130.3 -2.2
L 134.15 -2.2 134.15 -2.45
Q 134.15 -3.1 133.9 -3.55 133.65 -4.1 133.15 -4.4 132.7 -4.7 132 -4.7 131.45 -4.7 130.85 -4.35 130.35 -4.05 130.05 -3.5 129.75 -2.95 129.75 -2.3 129.75 -1.55 130.05 -1.05
M 130.55 -3.35
Q 130.7 -3.7 131.1 -3.95 131.5 -4.25 132 -4.25 132.8 -4.25 133.15 -3.8 133.6 -3.35 133.6 -2.6
L 130.3 -2.6
Q 130.4 -3.1 130.55 -3.35 Z"/>
</g>

<g id="Business_DM_Banners___728x90_psd_Asset_Evaluation___Consumer_Goods_fr1_With_Managed_Wi_Fi_as_a_Service_from_Rogers_0_Layer0_0_MEMBER_26_FILL">
<path fill="#DA291C" stroke="none" d="
M 1.5 4.55
Q 1.1 5.05 1.1 5.75
L 1.1 7.1 0.3 7.1 0.15 7.55 1.1 7.55 1.1 11.6 1.7 11.6 1.7 7.55 2.75 7.55 2.85 7.1 1.7 7.1 1.7 5.8
Q 1.7 5.3 1.9 4.95 2.05 4.65 2.55 4.65
L 3.3 4.75 3.35 4.3 3 4.2 2.55 4.15
Q 1.9 4.15 1.5 4.55 Z"/>
</g>

<g id="Business_DM_Banners___728x90_psd_Asset_Evaluation___Consumer_Goods_fr1_With_Managed_Wi_Fi_as_a_Service_from_Rogers_0_Layer0_0_MEMBER_27_FILL">
<path fill="#DA291C" stroke="none" d="
M 3.65 7.1
L 3.7 11.6 4.25 11.6 4.25 9.35
Q 4.25 8.7 4.6 8 5 7.45 5.55 7.45
L 5.95 7.5 6.05 7.05 5.6 6.95
Q 5.2 6.95 4.8 7.25 4.4 7.6 4.25 8.05
L 4.2 7.1 3.65 7.1 Z"/>
</g>

<g id="Business_DM_Banners___728x90_psd_Asset_Evaluation___Consumer_Goods_fr1_With_Managed_Wi_Fi_as_a_Service_from_Rogers_0_Layer0_0_MEMBER_28_FILL">
<path fill="#DA291C" stroke="none" d="
M 11.1 9.35
Q 11.1 8.65 10.8 8.1 10.5 7.55 9.95 7.25 9.35 6.95 8.7 6.95 8.05 6.95 7.45 7.25 6.9 7.55 6.6 8.1 6.3 8.65 6.3 9.35 6.3 10 6.6 10.6 6.9 11.15 7.45 11.45 8.05 11.75 8.7 11.75 9.35 11.75 9.95 11.45 10.5 11.15 10.8 10.6 11.1 10 11.1 9.35
M 10.55 9.35
Q 10.55 9.8 10.3 10.3 10.15 10.75 9.7 11 9.35 11.25 8.7 11.25 8.05 11.25 7.75 11 7.35 10.8 7.1 10.3 6.85 9.8 6.85 9.35 6.85 8.8 7.1 8.4 7.35 7.9 7.75 7.7 8.05 7.45 8.7 7.45 9.35 7.45 9.65 7.7 10.05 7.9 10.3 8.4 10.55 8.8 10.55 9.35 Z"/>
</g>

<g id="Business_DM_Banners___728x90_psd_Asset_Evaluation___Consumer_Goods_fr1_With_Managed_Wi_Fi_as_a_Service_from_Rogers_0_Layer0_0_MEMBER_29_FILL">
<path fill="#DA291C" stroke="none" d="
M 12.8 8.05
L 12.75 7.1 12.25 7.1 12.25 11.6 12.85 11.6 12.85 9.35
Q 12.85 8.7 13.05 8.3 13.2 7.9 13.55 7.65 13.8 7.45 14.25 7.45 14.8 7.45 15.1 7.8 15.4 8.25 15.4 8.95
L 15.4 11.6 16 11.6 16 9.3
Q 16 8.4 16.4 7.95 16.75 7.45 17.4 7.45 18.05 7.45 18.35 7.9 18.6 8.4 18.6 9.05
L 18.6 11.6 19.15 11.6 19.15 8.9
Q 19.15 7.95 18.75 7.5 18.35 6.95 17.55 6.95 16.95 6.95 16.55 7.25 16.05 7.6 15.9 8.1 15.65 7.5 15.35 7.25 15 6.95 14.4 6.95 13.9 6.95 13.45 7.25 13 7.55 12.85 8.05
L 12.8 8.05 Z"/>
</g>

<g id="Business_DM_Banners___728x90_psd_Asset_Evaluation___Consumer_Goods_fr1_With_Managed_Wi_Fi_as_a_Service_from_Rogers_0_Layer0_0_MEMBER_30_FILL">
<path fill="#DA291C" stroke="none" d="
M 24.6 4.75
L 22.7 4.75 22.7 11.6 23.3 11.6 23.3 8.6 24.7 8.6 26.5 11.6 27.2 11.6 25.25 8.5
Q 26 8.35 26.4 7.85 26.85 7.35 26.85 6.55 26.85 5.55 26.2 5.2 25.6 4.75 24.6 4.75
M 23.25 5.25
L 24.45 5.25
Q 25.3 5.25 25.8 5.55 26.3 5.9 26.3 6.55 26.3 7.2 25.8 7.7 25.4 8.1 24.55 8.1
L 23.25 8.1 23.25 5.25 Z"/>
</g>

<g id="Business_DM_Banners___728x90_psd_Asset_Evaluation___Consumer_Goods_fr1_With_Managed_Wi_Fi_as_a_Service_from_Rogers_0_Layer0_0_MEMBER_31_FILL">
<path fill="#DA291C" stroke="none" d="
M 32.25 8.1
Q 31.95 7.55 31.4 7.25 30.8 6.95 30.15 6.95 29.5 6.95 28.9 7.25 28.35 7.55 28.05 8.1 27.75 8.65 27.75 9.35 27.75 10 28.05 10.6 28.35 11.15 28.9 11.45 29.5 11.75 30.15 11.75 30.8 11.75 31.4 11.45 31.95 11.15 32.25 10.6 32.55 10 32.55 9.35 32.55 8.65 32.25 8.1
M 31.8 10.3
Q 31.6 10.75 31.15 11 30.8 11.25 30.15 11.25 29.5 11.25 29.2 11 28.8 10.8 28.55 10.3 28.3 9.8 28.3 9.35 28.3 8.8 28.55 8.4 28.8 7.9 29.2 7.7 29.5 7.45 30.15 7.45 30.8 7.45 31.1 7.7 31.5 7.9 31.75 8.4 32 8.8 32 9.35 32 9.9 31.8 10.3 Z"/>
</g>

<g id="Business_DM_Banners___728x90_psd_Asset_Evaluation___Consumer_Goods_fr1_With_Managed_Wi_Fi_as_a_Service_from_Rogers_0_Layer0_0_MEMBER_32_FILL">
<path fill="#DA291C" stroke="none" d="
M 33.7 10.55
Q 34.05 11.15 34.5 11.4 35.05 11.7 35.7 11.7 36.3 11.7 36.8 11.4 37.25 11.1 37.55 10.6
L 37.55 11.55
Q 37.55 12.5 37.1 13 36.65 13.5 35.7 13.5 35.15 13.5 34.7 13.35
L 33.8 12.95 33.7 13.45 34.65 13.85
Q 35.1 14 35.7 14 36.95 14 37.55 13.35 38.1 12.65 38.1 11.55
L 38.15 7.1 37.6 7.1 37.55 8.1
Q 37.3 7.6 36.8 7.25 36.3 6.95 35.7 6.95 35.05 6.95 34.5 7.25 33.95 7.65 33.7 8.15 33.4 8.7 33.4 9.35 33.4 10.05 33.7 10.55
M 34.2 8.4
Q 34.45 7.9 34.85 7.7 35.15 7.45 35.8 7.45 36.4 7.45 36.7 7.7 37.15 7.95 37.35 8.4 37.6 8.8 37.6 9.35 37.6 9.8 37.35 10.3 37.2 10.6 36.7 11 36.3 11.25 35.8 11.25 35.25 11.25 34.85 11 34.45 10.75 34.2 10.3 34 9.9 34 9.35 34 8.8 34.2 8.4 Z"/>
</g>

<g id="Business_DM_Banners___728x90_psd_Asset_Evaluation___Consumer_Goods_fr1_With_Managed_Wi_Fi_as_a_Service_from_Rogers_0_Layer0_0_MEMBER_33_FILL">
<path fill="#DA291C" stroke="none" d="
M 43.65 9.2
Q 43.65 8.5 43.4 8.05 43.2 7.55 42.65 7.25 42.2 6.95 41.5 6.95 40.9 6.95 40.35 7.25 39.9 7.5 39.55 8.1 39.25 8.65 39.25 9.3 39.25 10 39.55 10.6 39.85 11.15 40.4 11.45 40.95 11.75 41.6 11.75 42.6 11.75 43.4 11.2
L 43.3 10.7
Q 42.95 10.95 42.55 11.1 42.15 11.3 41.65 11.3 41.1 11.3 40.7 11.05 40.25 10.75 40.05 10.35 39.8 9.95 39.8 9.45
L 43.65 9.45 43.65 9.2
M 41.5 7.4
Q 42.2 7.4 42.65 7.85 43.1 8.3 43.1 9
L 39.8 9
Q 39.9 8.5 40.05 8.3 40.2 7.9 40.6 7.65 40.9 7.4 41.5 7.4 Z"/>
</g>

<g id="Business_DM_Banners___728x90_psd_Asset_Evaluation___Consumer_Goods_fr1_With_Managed_Wi_Fi_as_a_Service_from_Rogers_0_Layer0_0_MEMBER_34_FILL">
<path fill="#DA291C" stroke="none" d="
M 44.75 7.1
L 44.8 11.6 45.35 11.6 45.35 9.35
Q 45.35 8.55 45.7 8 46.1 7.45 46.65 7.45
L 47.05 7.5 47.15 7.05 46.7 6.95
Q 46.3 6.95 45.9 7.25 45.5 7.6 45.35 8.05
L 45.3 7.1 44.75 7.1 Z"/>
</g>

<g id="Business_DM_Banners___728x90_psd_Asset_Evaluation___Consumer_Goods_fr1_With_Managed_Wi_Fi_as_a_Service_from_Rogers_0_Layer0_0_MEMBER_35_FILL">
<path fill="#DA291C" stroke="none" d="
M 50.6 7.45
Q 50.4 7.25 50 7.1 49.65 6.95 49.2 6.95
L 48.45 7.1
Q 48.05 7.3 47.9 7.5 47.7 7.75 47.7 8.2 47.7 8.7 48 9 48.45 9.3 48.95 9.45 49.6 9.65 49.9 9.9 50.2 10.15 50.2 10.45 50.2 10.85 49.9 11.05 49.55 11.3 49.2 11.3 48.35 11.3 47.7 10.75
L 47.6 11.25
Q 47.8 11.45 48.3 11.6 48.75 11.75 49.2 11.75 49.65 11.75 49.95 11.6 50.35 11.45 50.55 11.15 50.75 10.9 50.75 10.45 50.75 9.9 50.4 9.6 50.15 9.35 49.35 9.1
L 48.45 8.7
Q 48.2 8.45 48.2 8.15 48.2 7.75 48.5 7.6 48.75 7.4 49.2 7.4
L 49.85 7.5 50.4 7.85 50.6 7.45 Z"/>
</g>
</defs>

<g transform="matrix( 1, 0, 0, 1, -2,-276) ">
<g transform="matrix( 1, 0, 0, 1, 2,208) ">
<g transform="matrix( 1, 0, 0, 1, 29,82) ">
<g transform="matrix( 3.0799560546875, 0, 0, 3.09844970703125, 0.15,23.45) ">
<use xlink:href="#Business_DM_Banners___728x90_psd_Asset_Evaluation___Consumer_Goods_fr1_With_Managed_Wi_Fi_as_a_Service_from_Rogers_0_Layer0_0_MEMBER_0_FILL"/>
</g>

<g transform="matrix( 3.0799560546875, 0, 0, 3.09844970703125, 0.15,23.45) ">
<use xlink:href="#Business_DM_Banners___728x90_psd_Asset_Evaluation___Consumer_Goods_fr1_With_Managed_Wi_Fi_as_a_Service_from_Rogers_0_Layer0_0_MEMBER_1_FILL"/>
</g>

<g transform="matrix( 3.0799560546875, 0, 0, 3.09844970703125, 0.15,23.45) ">
<use xlink:href="#Business_DM_Banners___728x90_psd_Asset_Evaluation___Consumer_Goods_fr1_With_Managed_Wi_Fi_as_a_Service_from_Rogers_0_Layer0_0_MEMBER_2_FILL"/>
</g>

<g transform="matrix( 3.0799560546875, 0, 0, 3.09844970703125, 0.15,23.45) ">
<use xlink:href="#Business_DM_Banners___728x90_psd_Asset_Evaluation___Consumer_Goods_fr1_With_Managed_Wi_Fi_as_a_Service_from_Rogers_0_Layer0_0_MEMBER_3_FILL"/>
</g>

<g transform="matrix( 3.0799560546875, 0, 0, 3.09844970703125, 0.15,23.45) ">
<use xlink:href="#Business_DM_Banners___728x90_psd_Asset_Evaluation___Consumer_Goods_fr1_With_Managed_Wi_Fi_as_a_Service_from_Rogers_0_Layer0_0_MEMBER_4_FILL"/>
</g>

<g transform="matrix( 3.0799560546875, 0, 0, 3.09844970703125, 0.15,23.45) ">
<use xlink:href="#Business_DM_Banners___728x90_psd_Asset_Evaluation___Consumer_Goods_fr1_With_Managed_Wi_Fi_as_a_Service_from_Rogers_0_Layer0_0_MEMBER_5_FILL"/>
</g>

<g transform="matrix( 3.0799560546875, 0, 0, 3.09844970703125, 0.15,23.45) ">
<use xlink:href="#Business_DM_Banners___728x90_psd_Asset_Evaluation___Consumer_Goods_fr1_With_Managed_Wi_Fi_as_a_Service_from_Rogers_0_Layer0_0_MEMBER_6_FILL"/>
</g>

<g transform="matrix( 3.0799560546875, 0, 0, 3.09844970703125, 0.15,23.45) ">
<use xlink:href="#Business_DM_Banners___728x90_psd_Asset_Evaluation___Consumer_Goods_fr1_With_Managed_Wi_Fi_as_a_Service_from_Rogers_0_Layer0_0_MEMBER_7_FILL"/>
</g>

<g transform="matrix( 3.0799560546875, 0, 0, 3.09844970703125, 0.15,23.45) ">
<use xlink:href="#Business_DM_Banners___728x90_psd_Asset_Evaluation___Consumer_Goods_fr1_With_Managed_Wi_Fi_as_a_Service_from_Rogers_0_Layer0_0_MEMBER_8_FILL"/>
</g>

<g transform="matrix( 3.0799560546875, 0, 0, 3.09844970703125, 0.15,23.45) ">
<use xlink:href="#Business_DM_Banners___728x90_psd_Asset_Evaluation___Consumer_Goods_fr1_With_Managed_Wi_Fi_as_a_Service_from_Rogers_0_Layer0_0_MEMBER_9_FILL"/>
</g>

<g transform="matrix( 3.0799560546875, 0, 0, 3.09844970703125, 0.15,23.45) ">
<use xlink:href="#Business_DM_Banners___728x90_psd_Asset_Evaluation___Consumer_Goods_fr1_With_Managed_Wi_Fi_as_a_Service_from_Rogers_0_Layer0_0_MEMBER_10_FILL"/>
</g>

<g transform="matrix( 3.0799560546875, 0, 0, 3.09844970703125, 0.15,23.45) ">
<use xlink:href="#Business_DM_Banners___728x90_psd_Asset_Evaluation___Consumer_Goods_fr1_With_Managed_Wi_Fi_as_a_Service_from_Rogers_0_Layer0_0_MEMBER_11_FILL"/>
</g>

<g transform="matrix( 3.0799560546875, 0, 0, 3.09844970703125, 0.15,23.45) ">
<use xlink:href="#Business_DM_Banners___728x90_psd_Asset_Evaluation___Consumer_Goods_fr1_With_Managed_Wi_Fi_as_a_Service_from_Rogers_0_Layer0_0_MEMBER_12_FILL"/>
</g>

<g transform="matrix( 3.0799560546875, 0, 0, 3.09844970703125, 0.15,23.45) ">
<use xlink:href="#Business_DM_Banners___728x90_psd_Asset_Evaluation___Consumer_Goods_fr1_With_Managed_Wi_Fi_as_a_Service_from_Rogers_0_Layer0_0_MEMBER_13_FILL"/>
</g>

<g transform="matrix( 3.0799560546875, 0, 0, 3.09844970703125, 0.15,23.45) ">
<use xlink:href="#Business_DM_Banners___728x90_psd_Asset_Evaluation___Consumer_Goods_fr1_With_Managed_Wi_Fi_as_a_Service_from_Rogers_0_Layer0_0_MEMBER_14_FILL"/>
</g>

<g transform="matrix( 3.0799560546875, 0, 0, 3.09844970703125, 0.15,23.45) ">
<use xlink:href="#Business_DM_Banners___728x90_psd_Asset_Evaluation___Consumer_Goods_fr1_With_Managed_Wi_Fi_as_a_Service_from_Rogers_0_Layer0_0_MEMBER_15_FILL"/>
</g>

<g transform="matrix( 3.0799560546875, 0, 0, 3.09844970703125, 0.15,23.45) ">
<use xlink:href="#Business_DM_Banners___728x90_psd_Asset_Evaluation___Consumer_Goods_fr1_With_Managed_Wi_Fi_as_a_Service_from_Rogers_0_Layer0_0_MEMBER_16_FILL"/>
</g>

<g transform="matrix( 3.0799560546875, 0, 0, 3.09844970703125, 0.15,23.45) ">
<use xlink:href="#Business_DM_Banners___728x90_psd_Asset_Evaluation___Consumer_Goods_fr1_With_Managed_Wi_Fi_as_a_Service_from_Rogers_0_Layer0_0_MEMBER_17_FILL"/>
</g>

<g transform="matrix( 3.0799560546875, 0, 0, 3.09844970703125, 0.15,23.45) ">
<use xlink:href="#Business_DM_Banners___728x90_psd_Asset_Evaluation___Consumer_Goods_fr1_With_Managed_Wi_Fi_as_a_Service_from_Rogers_0_Layer0_0_MEMBER_18_FILL"/>
</g>

<g transform="matrix( 3.0799560546875, 0, 0, 3.09844970703125, 0.15,23.45) ">
<use xlink:href="#Business_DM_Banners___728x90_psd_Asset_Evaluation___Consumer_Goods_fr1_With_Managed_Wi_Fi_as_a_Service_from_Rogers_0_Layer0_0_MEMBER_19_FILL"/>
</g>

<g transform="matrix( 3.0799560546875, 0, 0, 3.09844970703125, 0.15,23.45) ">
<use xlink:href="#Business_DM_Banners___728x90_psd_Asset_Evaluation___Consumer_Goods_fr1_With_Managed_Wi_Fi_as_a_Service_from_Rogers_0_Layer0_0_MEMBER_20_FILL"/>
</g>

<g transform="matrix( 3.0799560546875, 0, 0, 3.09844970703125, 0.15,23.45) ">
<use xlink:href="#Business_DM_Banners___728x90_psd_Asset_Evaluation___Consumer_Goods_fr1_With_Managed_Wi_Fi_as_a_Service_from_Rogers_0_Layer0_0_MEMBER_21_FILL"/>
</g>

<g transform="matrix( 3.0799560546875, 0, 0, 3.09844970703125, 0.15,23.45) ">
<use xlink:href="#Business_DM_Banners___728x90_psd_Asset_Evaluation___Consumer_Goods_fr1_With_Managed_Wi_Fi_as_a_Service_from_Rogers_0_Layer0_0_MEMBER_22_FILL"/>
</g>

<g transform="matrix( 3.0799560546875, 0, 0, 3.09844970703125, 0.15,23.45) ">
<use xlink:href="#Business_DM_Banners___728x90_psd_Asset_Evaluation___Consumer_Goods_fr1_With_Managed_Wi_Fi_as_a_Service_from_Rogers_0_Layer0_0_MEMBER_23_FILL"/>
</g>

<g transform="matrix( 3.0799560546875, 0, 0, 3.09844970703125, 0.15,23.45) ">
<use xlink:href="#Business_DM_Banners___728x90_psd_Asset_Evaluation___Consumer_Goods_fr1_With_Managed_Wi_Fi_as_a_Service_from_Rogers_0_Layer0_0_MEMBER_24_FILL"/>
</g>

<g transform="matrix( 3.0799560546875, 0, 0, 3.09844970703125, 0.15,23.45) ">
<use xlink:href="#Business_DM_Banners___728x90_psd_Asset_Evaluation___Consumer_Goods_fr1_With_Managed_Wi_Fi_as_a_Service_from_Rogers_0_Layer0_0_MEMBER_25_FILL"/>
</g>

<g transform="matrix( 3.0799560546875, 0, 0, 3.09844970703125, 0.15,23.45) ">
<use xlink:href="#Business_DM_Banners___728x90_psd_Asset_Evaluation___Consumer_Goods_fr1_With_Managed_Wi_Fi_as_a_Service_from_Rogers_0_Layer0_0_MEMBER_26_FILL"/>
</g>

<g transform="matrix( 3.0799560546875, 0, 0, 3.09844970703125, 0.15,23.45) ">
<use xlink:href="#Business_DM_Banners___728x90_psd_Asset_Evaluation___Consumer_Goods_fr1_With_Managed_Wi_Fi_as_a_Service_from_Rogers_0_Layer0_0_MEMBER_27_FILL"/>
</g>

<g transform="matrix( 3.0799560546875, 0, 0, 3.09844970703125, 0.15,23.45) ">
<use xlink:href="#Business_DM_Banners___728x90_psd_Asset_Evaluation___Consumer_Goods_fr1_With_Managed_Wi_Fi_as_a_Service_from_Rogers_0_Layer0_0_MEMBER_28_FILL"/>
</g>

<g transform="matrix( 3.0799560546875, 0, 0, 3.09844970703125, 0.15,23.45) ">
<use xlink:href="#Business_DM_Banners___728x90_psd_Asset_Evaluation___Consumer_Goods_fr1_With_Managed_Wi_Fi_as_a_Service_from_Rogers_0_Layer0_0_MEMBER_29_FILL"/>
</g>

<g transform="matrix( 3.0799560546875, 0, 0, 3.09844970703125, 0.15,23.45) ">
<use xlink:href="#Business_DM_Banners___728x90_psd_Asset_Evaluation___Consumer_Goods_fr1_With_Managed_Wi_Fi_as_a_Service_from_Rogers_0_Layer0_0_MEMBER_30_FILL"/>
</g>

<g transform="matrix( 3.0799560546875, 0, 0, 3.09844970703125, 0.15,23.45) ">
<use xlink:href="#Business_DM_Banners___728x90_psd_Asset_Evaluation___Consumer_Goods_fr1_With_Managed_Wi_Fi_as_a_Service_from_Rogers_0_Layer0_0_MEMBER_31_FILL"/>
</g>

<g transform="matrix( 3.0799560546875, 0, 0, 3.09844970703125, 0.15,23.45) ">
<use xlink:href="#Business_DM_Banners___728x90_psd_Asset_Evaluation___Consumer_Goods_fr1_With_Managed_Wi_Fi_as_a_Service_from_Rogers_0_Layer0_0_MEMBER_32_FILL"/>
</g>

<g transform="matrix( 3.0799560546875, 0, 0, 3.09844970703125, 0.15,23.45) ">
<use xlink:href="#Business_DM_Banners___728x90_psd_Asset_Evaluation___Consumer_Goods_fr1_With_Managed_Wi_Fi_as_a_Service_from_Rogers_0_Layer0_0_MEMBER_33_FILL"/>
</g>

<g transform="matrix( 3.0799560546875, 0, 0, 3.09844970703125, 0.15,23.45) ">
<use xlink:href="#Business_DM_Banners___728x90_psd_Asset_Evaluation___Consumer_Goods_fr1_With_Managed_Wi_Fi_as_a_Service_from_Rogers_0_Layer0_0_MEMBER_34_FILL"/>
</g>

<g transform="matrix( 3.0799560546875, 0, 0, 3.09844970703125, 0.15,23.45) ">
<use xlink:href="#Business_DM_Banners___728x90_psd_Asset_Evaluation___Consumer_Goods_fr1_With_Managed_Wi_Fi_as_a_Service_from_Rogers_0_Layer0_0_MEMBER_35_FILL"/>
</g>
</g>
</g>
</g>
</svg>
