
<svg xmlns="http://www.w3.org/2000/svg" version="1.1" xmlns:xlink="http://www.w3.org/1999/xlink" preserveAspectRatio="none" x="0px" y="0px" width="300px" height="250px" viewBox="0 0 300 250">
<defs>
<g id="IT_300x250_FR_psd_Asset_Awareness_Phase_IT_Decisions_Makers__V7_1_Votre_entreprise_a_t_elle__du_mal___assurer_la_s_curit___de_son_0_Layer0_0_MEMBER_0_FILL">
<path fill="#D82C26" stroke="none" d="
M 0.5 -4.75
L 0.05 -4.75 1.85 0 2.3 0 4.15 -4.75 3.7 -4.75 2.1 -0.5 0.5 -4.75 Z"/>
</g>

<g id="IT_300x250_FR_psd_Asset_Awareness_Phase_IT_Decisions_Makers__V7_1_Votre_entreprise_a_t_elle__du_mal___assurer_la_s_curit___de_son_0_Layer0_0_MEMBER_1_FILL">
<path fill="#D82C26" stroke="none" d="
M 4.4 -0.7
Q 4.65 -0.3 5 -0.1 5.5 0.1 5.85 0.1 6.2 0.1 6.7 -0.1 7.1 -0.3 7.3 -0.7 7.5 -1.05 7.5 -1.6 7.5 -2.1 7.3 -2.45 7.1 -2.8 6.7 -3.05 6.2 -3.25 5.85 -3.25 5.5 -3.25 5 -3.05 4.65 -2.8 4.4 -2.45 4.15 -2.05 4.15 -1.6 4.15 -1.1 4.4 -0.7
M 4.55 -1.6
Q 4.55 -1.95 4.7 -2.25 4.85 -2.5 5.15 -2.75 5.45 -2.9 5.85 -2.9 6.2 -2.9 6.5 -2.75 6.8 -2.5 6.95 -2.25 7.1 -1.95 7.1 -1.6 7.1 -1.2 6.95 -0.9 6.8 -0.65 6.5 -0.4 6.2 -0.25 5.85 -0.25 5.45 -0.25 5.15 -0.4 4.85 -0.65 4.7 -0.9 4.55 -1.2 4.55 -1.6 Z"/>
</g>

<g id="IT_300x250_FR_psd_Asset_Awareness_Phase_IT_Decisions_Makers__V7_1_Votre_entreprise_a_t_elle__du_mal___assurer_la_s_curit___de_son_0_Layer0_0_MEMBER_2_FILL">
<path fill="#D82C26" stroke="none" d="
M 8.4 -3.15
L 7.9 -3.15 7.8 -2.85 8.4 -2.85 8.4 -0.75
Q 8.4 -0.35 8.6 -0.15 8.8 0.05 9.15 0.05
L 9.5 0 9.8 -0.1 9.75 -0.4 9.25 -0.25
Q 9.05 -0.25 8.9 -0.4 8.8 -0.6 8.8 -0.8
L 8.8 -2.85 9.6 -2.85 9.7 -3.15 8.8 -3.15 8.8 -4.05 8.4 -3.9 8.4 -3.15 Z"/>
</g>

<g id="IT_300x250_FR_psd_Asset_Awareness_Phase_IT_Decisions_Makers__V7_1_Votre_entreprise_a_t_elle__du_mal___assurer_la_s_curit___de_son_0_Layer0_0_MEMBER_3_FILL">
<path fill="#D82C26" stroke="none" d="
M 10.8 -3.15
L 10.4 -3.15 10.45 0 10.85 0 10.85 -1.55
Q 10.85 -2.15 11.05 -2.5 11.35 -2.9 11.7 -2.9
L 12 -2.85 12.1 -3.2 11.75 -3.25
Q 11.6 -3.25 11.2 -3.05 10.95 -2.8 10.8 -2.45
L 10.8 -3.15 Z"/>
</g>

<g id="IT_300x250_FR_psd_Asset_Awareness_Phase_IT_Decisions_Makers__V7_1_Votre_entreprise_a_t_elle__du_mal___assurer_la_s_curit___de_son_0_Layer0_0_MEMBER_4_FILL">
<path fill="#D82C26" stroke="none" d="
M 12.3 -1.6
Q 12.3 -1.1 12.55 -0.7 12.7 -0.35 13.1 -0.1 13.6 0.1 13.95 0.1 14.65 0.1 15.2 -0.3
L 15.1 -0.65
Q 14.95 -0.45 14.6 -0.35 14.4 -0.25 13.95 -0.25 13.6 -0.25 13.3 -0.4 13.1 -0.5 12.85 -0.85 12.7 -1.15 12.7 -1.5
L 15.35 -1.5 15.35 -1.7
Q 15.35 -2.15 15.2 -2.45 15.05 -2.75 14.7 -3.05 14.2 -3.25 13.85 -3.25 13.5 -3.25 13.1 -3.05 12.75 -2.8 12.5 -2.45 12.3 -1.95 12.3 -1.6
M 14.7 -2.6
Q 15 -2.3 15 -1.8
L 12.7 -1.8
Q 12.7 -2.05 12.85 -2.3 13 -2.55 13.25 -2.75 13.65 -2.95 13.85 -2.95 14.4 -2.95 14.7 -2.6 Z"/>
</g>

<g id="IT_300x250_FR_psd_Asset_Awareness_Phase_IT_Decisions_Makers__V7_1_Votre_entreprise_a_t_elle__du_mal___assurer_la_s_curit___de_son_0_Layer0_0_MEMBER_5_FILL">
<path fill="#D82C26" stroke="none" d="
M 17.25 -1.6
Q 17.25 -1.2 17.45 -0.7 17.7 -0.3 18.05 -0.1 18.55 0.1 18.85 0.1 19.6 0.1 20.15 -0.3
L 20.05 -0.65
Q 19.8 -0.4 19.55 -0.35 19.35 -0.25 18.9 -0.25 18.55 -0.25 18.25 -0.4 17.95 -0.55 17.8 -0.85 17.65 -1.15 17.65 -1.5
L 20.3 -1.5 20.3 -1.7
Q 20.3 -2.15 20.15 -2.45 19.9 -2.85 19.65 -3.05 19.15 -3.25 18.8 -3.25 18.45 -3.25 18.05 -3.05 17.7 -2.8 17.45 -2.45 17.25 -1.95 17.25 -1.6
M 19.6 -2.6
Q 19.95 -2.25 19.95 -1.8
L 17.65 -1.8
Q 17.65 -2.05 17.8 -2.3 17.95 -2.55 18.2 -2.75 18.6 -2.95 18.8 -2.95 19.3 -2.95 19.6 -2.6 Z"/>
</g>

<g id="IT_300x250_FR_psd_Asset_Awareness_Phase_IT_Decisions_Makers__V7_1_Votre_entreprise_a_t_elle__du_mal___assurer_la_s_curit___de_son_0_Layer0_0_MEMBER_6_FILL">
<path fill="#D82C26" stroke="none" d="
M 21.5 -3.15
L 21.15 -3.15 21.15 0 21.55 0 21.55 -1.6
Q 21.55 -2 21.7 -2.3 21.85 -2.65 22.1 -2.75 22.35 -2.9 22.6 -2.9 23.1 -2.9 23.25 -2.6 23.45 -2.35 23.45 -1.8
L 23.45 0 23.85 0 23.85 -1.9
Q 23.85 -2.45 23.6 -2.85 23.3 -3.25 22.7 -3.25 22.35 -3.25 22 -3 21.7 -2.85 21.55 -2.45
L 21.5 -3.15 Z"/>
</g>

<g id="IT_300x250_FR_psd_Asset_Awareness_Phase_IT_Decisions_Makers__V7_1_Votre_entreprise_a_t_elle__du_mal___assurer_la_s_curit___de_son_0_Layer0_0_MEMBER_7_FILL">
<path fill="#D82C26" stroke="none" d="
M 24.95 -0.75
Q 24.95 -0.45 25.15 -0.15 25.35 0.05 25.7 0.05
L 26.05 0 26.35 -0.1 26.3 -0.4
Q 26.1 -0.25 25.8 -0.25 25.6 -0.25 25.5 -0.4 25.35 -0.55 25.35 -0.8
L 25.35 -2.85 26.15 -2.85 26.25 -3.15 25.35 -3.15 25.35 -4.05 24.95 -3.9 24.95 -3.15 24.45 -3.15 24.4 -2.85 24.95 -2.85 24.95 -0.75 Z"/>
</g>

<g id="IT_300x250_FR_psd_Asset_Awareness_Phase_IT_Decisions_Makers__V7_1_Votre_entreprise_a_t_elle__du_mal___assurer_la_s_curit___de_son_0_Layer0_0_MEMBER_8_FILL">
<path fill="#D82C26" stroke="none" d="
M 28.65 -3.2
L 28.3 -3.25
Q 28.1 -3.25 27.8 -3.05 27.55 -2.9 27.4 -2.45
L 27.35 -3.15 27 -3.15 27 0 27.4 0 27.4 -1.55
Q 27.4 -2.1 27.65 -2.5 27.9 -2.9 28.3 -2.9
L 28.55 -2.85 28.65 -3.2 Z"/>
</g>

<g id="IT_300x250_FR_psd_Asset_Awareness_Phase_IT_Decisions_Makers__V7_1_Votre_entreprise_a_t_elle__du_mal___assurer_la_s_curit___de_son_0_Layer0_0_MEMBER_9_FILL">
<path fill="#D82C26" stroke="none" d="
M 29.1 -0.7
Q 29.3 -0.35 29.65 -0.1 30.15 0.1 30.5 0.1 31.2 0.1 31.75 -0.3
L 31.7 -0.65
Q 31.45 -0.4 31.2 -0.35 31 -0.25 30.55 -0.25 30.2 -0.25 29.9 -0.4 29.6 -0.55 29.45 -0.85 29.3 -1.15 29.3 -1.5
L 31.95 -1.5 31.95 -1.7
Q 31.95 -2.2 31.75 -2.45 31.6 -2.85 31.25 -3.05 30.85 -3.25 30.45 -3.25 30.15 -3.25 29.65 -3.05 29.35 -2.85 29.1 -2.45 28.9 -2.1 28.9 -1.6 28.9 -1.05 29.1 -0.7
M 29.45 -2.3
Q 29.6 -2.65 29.85 -2.75 30.15 -2.95 30.45 -2.95 30.95 -2.95 31.25 -2.6 31.55 -2.3 31.55 -1.8
L 29.3 -1.8
Q 29.3 -2.05 29.45 -2.3 Z"/>
</g>

<g id="IT_300x250_FR_psd_Asset_Awareness_Phase_IT_Decisions_Makers__V7_1_Votre_entreprise_a_t_elle__du_mal___assurer_la_s_curit___de_son_0_Layer0_0_MEMBER_10_FILL">
<path fill="#D82C26" stroke="none" d="
M 33.75 -3.05
Q 33.35 -2.8 33.2 -2.45
L 33.15 -3.15 32.75 -3.15 32.8 -2.55 32.8 1.6 33.2 1.6 33.2 -0.65
Q 33.5 -0.25 33.75 -0.1 34.15 0.1 34.5 0.1 34.9 0.1 35.3 -0.15 35.6 -0.35 35.85 -0.75 36.05 -1.1 36.05 -1.55 36.05 -2.05 35.85 -2.4 35.6 -2.8 35.3 -3 34.9 -3.25 34.5 -3.25 34.15 -3.25 33.75 -3.05
M 34.4 -2.9
Q 34.85 -2.9 35.05 -2.7 35.35 -2.55 35.5 -2.25 35.65 -1.95 35.65 -1.55 35.65 -1.2 35.5 -0.9 35.35 -0.65 35.05 -0.4 34.85 -0.25 34.4 -0.25 34.05 -0.25 33.8 -0.4 33.5 -0.65 33.35 -0.9 33.2 -1.2 33.2 -1.55 33.2 -1.95 33.35 -2.25 33.5 -2.55 33.8 -2.7 34 -2.9 34.4 -2.9 Z"/>
</g>

<g id="IT_300x250_FR_psd_Asset_Awareness_Phase_IT_Decisions_Makers__V7_1_Votre_entreprise_a_t_elle__du_mal___assurer_la_s_curit___de_son_0_Layer0_0_MEMBER_11_FILL">
<path fill="#D82C26" stroke="none" d="
M 38.55 -3.2
L 38.25 -3.25
Q 38 -3.25 37.7 -3.05 37.45 -2.9 37.3 -2.45
L 37.25 -3.15 36.9 -3.15 36.9 0 37.3 0 37.3 -1.55
Q 37.3 -2.1 37.55 -2.5 37.8 -2.9 38.2 -2.9
L 38.5 -2.85 38.55 -3.2 Z"/>
</g>

<g id="IT_300x250_FR_psd_Asset_Awareness_Phase_IT_Decisions_Makers__V7_1_Votre_entreprise_a_t_elle__du_mal___assurer_la_s_curit___de_son_0_Layer0_0_MEMBER_12_FILL">
<path fill="#D82C26" stroke="none" d="
M 39.55 -3.15
L 39.15 -3.15 39.15 0 39.55 0 39.55 -3.15
M 39.15 -4.6
L 39.1 -4.4 39.15 -4.2 39.35 -4.1 39.55 -4.2 39.65 -4.4 39.55 -4.6 39.35 -4.7 39.15 -4.6 Z"/>
</g>

<g id="IT_300x250_FR_psd_Asset_Awareness_Phase_IT_Decisions_Makers__V7_1_Votre_entreprise_a_t_elle__du_mal___assurer_la_s_curit___de_son_0_Layer0_0_MEMBER_13_FILL">
<path fill="#D82C26" stroke="none" d="
M 40.45 -0.6
L 40.4 -0.25
Q 40.6 -0.05 40.85 0
L 41.5 0.1 42.05 0 42.45 -0.35
Q 42.6 -0.5 42.6 -0.85 42.6 -1.15 42.35 -1.4 42 -1.65 41.6 -1.75
L 41 -2.05
Q 40.8 -2.1 40.8 -2.4 40.8 -2.6 41 -2.8 41.15 -2.9 41.5 -2.9
L 41.95 -2.85
Q 42.1 -2.8 42.3 -2.6
L 42.5 -2.9 42.05 -3.15 41.5 -3.25 41 -3.15
Q 40.75 -3.05 40.6 -2.85 40.45 -2.6 40.45 -2.35 40.45 -2 40.65 -1.85 40.85 -1.65 41.35 -1.5
L 42 -1.2
Q 42.2 -1.05 42.2 -0.8 42.2 -0.55 42 -0.4 41.8 -0.2 41.5 -0.2 40.95 -0.2 40.45 -0.6 Z"/>
</g>

<g id="IT_300x250_FR_psd_Asset_Awareness_Phase_IT_Decisions_Makers__V7_1_Votre_entreprise_a_t_elle__du_mal___assurer_la_s_curit___de_son_0_Layer0_0_MEMBER_14_FILL">
<path fill="#D82C26" stroke="none" d="
M 43.4 -2.45
Q 43.2 -2.1 43.2 -1.6 43.2 -1.05 43.4 -0.7 43.65 -0.3 43.95 -0.1 44.45 0.1 44.8 0.1 45.5 0.1 46.05 -0.3
L 46 -0.65
Q 45.8 -0.45 45.45 -0.35 45.25 -0.25 44.85 -0.25 44.45 -0.25 44.2 -0.4 43.9 -0.55 43.75 -0.85 43.55 -1.25 43.55 -1.5
L 46.25 -1.5 46.25 -1.7
Q 46.25 -2.2 46.05 -2.45 45.9 -2.85 45.55 -3.05 45.05 -3.25 44.75 -3.25 44.45 -3.25 43.95 -3.05 43.65 -2.85 43.4 -2.45
M 44.75 -2.95
Q 45.25 -2.95 45.55 -2.6 45.85 -2.3 45.85 -1.8
L 43.55 -1.8 43.7 -2.3
Q 43.85 -2.55 44.1 -2.75 44.5 -2.95 44.75 -2.95 Z"/>
</g>

<g id="IT_300x250_FR_psd_Asset_Awareness_Phase_IT_Decisions_Makers__V7_1_Votre_entreprise_a_t_elle__du_mal___assurer_la_s_curit___de_son_0_Layer0_0_MEMBER_15_FILL">
<path fill="#D82C26" stroke="none" d="
M 49.5 -3.25
L 48.85 -3.15 48.3 -2.85 48.45 -2.55
Q 48.65 -2.75 48.9 -2.8 49.1 -2.9 49.45 -2.9 49.85 -2.9 50.1 -2.7 50.3 -2.5 50.3 -2.05
L 50.3 -1.9 49.95 -1.9
Q 48.15 -1.9 48.15 -0.85 48.15 -0.35 48.45 -0.15 48.8 0.1 49.15 0.1 49.6 0.1 49.85 -0.1 50.1 -0.25 50.3 -0.6
L 50.35 -0.6 50.35 -0.3 50.4 0 50.75 0 50.7 -2.05
Q 50.7 -2.65 50.35 -2.95 50.05 -3.25 49.5 -3.25
M 50 -1.6
L 50.3 -1.6 50.3 -1.3
Q 50.3 -0.95 50.2 -0.8
L 49.85 -0.35
Q 49.55 -0.2 49.2 -0.2 48.95 -0.2 48.7 -0.35 48.5 -0.55 48.5 -0.85 48.5 -1.6 50 -1.6 Z"/>
</g>

<g id="IT_300x250_FR_psd_Asset_Awareness_Phase_IT_Decisions_Makers__V7_1_Votre_entreprise_a_t_elle__du_mal___assurer_la_s_curit___de_son_0_Layer0_0_MEMBER_16_FILL">
<path fill="#D82C26" stroke="none" d="
M 51.55 -1.85
L 51.55 -1.55 52.95 -1.55 52.95 -1.85 51.55 -1.85 Z"/>
</g>

<g id="IT_300x250_FR_psd_Asset_Awareness_Phase_IT_Decisions_Makers__V7_1_Votre_entreprise_a_t_elle__du_mal___assurer_la_s_curit___de_son_0_Layer0_0_MEMBER_17_FILL">
<path fill="#D82C26" stroke="none" d="
M 53.85 -3.15
L 53.35 -3.15 53.25 -2.85 53.85 -2.85 53.85 -0.75
Q 53.85 -0.45 54.05 -0.15 54.25 0.05 54.6 0.05
L 54.95 0 55.25 -0.1 55.2 -0.4 54.7 -0.25
Q 54.5 -0.25 54.4 -0.4 54.25 -0.55 54.25 -0.8
L 54.25 -2.85 55.05 -2.85 55.15 -3.15 54.25 -3.15 54.25 -4.05 53.85 -3.9 53.85 -3.15 Z"/>
</g>

<g id="IT_300x250_FR_psd_Asset_Awareness_Phase_IT_Decisions_Makers__V7_1_Votre_entreprise_a_t_elle__du_mal___assurer_la_s_curit___de_son_0_Layer0_0_MEMBER_18_FILL">
<path fill="#D82C26" stroke="none" d="
M 55.4 -1.85
L 55.4 -1.55 56.8 -1.55 56.8 -1.85 55.4 -1.85 Z"/>
</g>

<g id="IT_300x250_FR_psd_Asset_Awareness_Phase_IT_Decisions_Makers__V7_1_Votre_entreprise_a_t_elle__du_mal___assurer_la_s_curit___de_son_0_Layer0_0_MEMBER_19_FILL">
<path fill="#D82C26" stroke="none" d="
M 57.55 -1.6
Q 57.55 -1.05 57.75 -0.7 57.9 -0.35 58.3 -0.1 58.8 0.1 59.15 0.1 59.85 0.1 60.4 -0.3
L 60.3 -0.65
Q 60.15 -0.45 59.8 -0.35 59.6 -0.25 59.15 -0.25 58.8 -0.25 58.5 -0.4 58.25 -0.55 58.1 -0.85 57.9 -1.1 57.9 -1.5
L 60.55 -1.5 60.6 -1.7
Q 60.6 -2.05 60.4 -2.45 60.25 -2.75 59.9 -3.05 59.4 -3.25 59.1 -3.25 58.8 -3.25 58.3 -3.05 57.9 -2.8 57.75 -2.45 57.55 -2.1 57.55 -1.6
M 57.9 -1.8
Q 57.9 -2.05 58.05 -2.3 58.2 -2.55 58.45 -2.75 58.85 -2.95 59.1 -2.95 59.6 -2.95 59.9 -2.6 60.2 -2.3 60.2 -1.8
L 57.9 -1.8 Z"/>
</g>

<g id="IT_300x250_FR_psd_Asset_Awareness_Phase_IT_Decisions_Makers__V7_1_Votre_entreprise_a_t_elle__du_mal___assurer_la_s_curit___de_son_0_Layer0_0_MEMBER_20_FILL">
<path fill="#D82C26" stroke="none" d="
M 61.45 -0.7
L 61.55 -0.2
Q 61.65 -0.05 61.95 0.05
L 62.1 -0.25 61.9 -0.45 61.85 -0.8 61.85 -5.1 61.45 -5.05 61.45 -0.7 Z"/>
</g>

<g id="IT_300x250_FR_psd_Asset_Awareness_Phase_IT_Decisions_Makers__V7_1_Votre_entreprise_a_t_elle__du_mal___assurer_la_s_curit___de_son_0_Layer0_0_MEMBER_21_FILL">
<path fill="#D82C26" stroke="none" d="
M 62.9 -0.7
Q 62.9 -0.4 63.05 -0.2 63.15 -0.05 63.45 0.05
L 63.6 -0.25
Q 63.4 -0.35 63.4 -0.45
L 63.3 -0.8 63.3 -5.1 62.9 -5.05 62.9 -0.7 Z"/>
</g>

<g id="IT_300x250_FR_psd_Asset_Awareness_Phase_IT_Decisions_Makers__V7_1_Votre_entreprise_a_t_elle__du_mal___assurer_la_s_curit___de_son_0_Layer0_0_MEMBER_22_FILL">
<path fill="#D82C26" stroke="none" d="
M 64.4 -2.45
Q 64.2 -2.1 64.2 -1.6 64.2 -1.05 64.4 -0.7 64.6 -0.35 64.95 -0.1 65.45 0.1 65.8 0.1 66.5 0.1 67.05 -0.3
L 67 -0.65
Q 66.75 -0.4 66.5 -0.35 66.3 -0.25 65.85 -0.25 65.5 -0.25 65.2 -0.4 64.9 -0.55 64.75 -0.85
L 64.55 -1.5 67.25 -1.5 67.25 -1.7
Q 67.25 -2.2 67.05 -2.45 66.9 -2.85 66.55 -3.05 66.15 -3.25 65.75 -3.25 65.45 -3.25 64.95 -3.05 64.65 -2.85 64.4 -2.45
M 64.75 -2.3
Q 64.8 -2.6 65.15 -2.75 65.45 -2.95 65.75 -2.95 66.25 -2.95 66.55 -2.6 66.85 -2.3 66.85 -1.8
L 64.6 -1.8
Q 64.6 -2.05 64.75 -2.3 Z"/>
</g>

<g id="IT_300x250_FR_psd_Asset_Awareness_Phase_IT_Decisions_Makers__V7_1_Votre_entreprise_a_t_elle__du_mal___assurer_la_s_curit___de_son_0_Layer0_0_MEMBER_23_FILL">
<path fill="#D82C26" stroke="none" d="
M 3.65 2.25
L 3.25 2.35 3.25 4.95
Q 3 4.55 2.7 4.4 2.35 4.2 1.95 4.2 1.4 4.2 1.15 4.4 0.8 4.65 0.55 5 0.4 5.4 0.4 5.85 0.4 6.35 0.55 6.7 0.8 7.1 1.15 7.3 1.4 7.5 1.95 7.5 2.35 7.5 2.7 7.3 3.05 7.1 3.25 6.75
L 3.3 7.4 3.65 7.4 3.65 2.25
M 1.35 4.7
Q 1.6 4.5 2 4.5 2.4 4.5 2.65 4.7 2.95 4.85 3.1 5.2 3.25 5.5 3.25 5.85 3.25 6.2 3.1 6.5 2.95 6.75 2.65 7 2.35 7.15 2 7.15 1.65 7.15 1.35 7 1.1 6.85 0.9 6.5 0.75 6.2 0.75 5.85 0.75 5.5 0.9 5.2 1.05 4.85 1.35 4.7 Z"/>
</g>

<g id="IT_300x250_FR_psd_Asset_Awareness_Phase_IT_Decisions_Makers__V7_1_Votre_entreprise_a_t_elle__du_mal___assurer_la_s_curit___de_son_0_Layer0_0_MEMBER_24_FILL">
<path fill="#D82C26" stroke="none" d="
M 7.35 4.25
L 6.95 4.25 6.95 5.85
Q 6.95 6.25 6.8 6.55 6.75 6.8 6.45 7 6.25 7.2 5.9 7.2 5.5 7.2 5.25 6.85 5.05 6.6 5.05 6.1
L 5.05 4.25 4.65 4.25 4.65 6.2
Q 4.65 6.7 4.95 7.15 5.25 7.5 5.8 7.5 6.25 7.5 6.5 7.3 6.8 7.1 6.95 6.75
L 7 7.4 7.4 7.4 7.35 7.05 7.35 4.25 Z"/>
</g>

<g id="IT_300x250_FR_psd_Asset_Awareness_Phase_IT_Decisions_Makers__V7_1_Votre_entreprise_a_t_elle__du_mal___assurer_la_s_curit___de_son_0_Layer0_0_MEMBER_25_FILL">
<path fill="#D82C26" stroke="none" d="
M 11.25 4.2
Q 10.85 4.2 10.6 4.4 10.25 4.65 10.15 4.95
L 10.1 4.25 9.75 4.25 9.75 7.4 10.15 7.4 10.15 5.85
Q 10.15 5.45 10.3 5.15 10.4 4.85 10.65 4.65 10.9 4.5 11.15 4.5 11.55 4.5 11.75 4.8 11.95 5.1 11.95 5.55
L 11.95 7.4 12.35 7.4 12.35 5.8
Q 12.35 5.15 12.6 4.85 12.95 4.5 13.3 4.5 13.8 4.5 13.95 4.85 14.15 5.1 14.15 5.6
L 14.15 7.4 14.55 7.4 14.55 5.55
Q 14.55 4.95 14.25 4.55 14.05 4.2 13.4 4.2 12.95 4.2 12.7 4.4 12.4 4.65 12.25 5 12.2 4.7 11.9 4.4 11.65 4.2 11.25 4.2 Z"/>
</g>

<g id="IT_300x250_FR_psd_Asset_Awareness_Phase_IT_Decisions_Makers__V7_1_Votre_entreprise_a_t_elle__du_mal___assurer_la_s_curit___de_son_0_Layer0_0_MEMBER_26_FILL">
<path fill="#D82C26" stroke="none" d="
M 17.6 4.5
Q 17.25 4.15 16.7 4.15 16.35 4.15 16.05 4.3
L 15.55 4.55 15.65 4.9
Q 15.75 4.8 16.1 4.6
L 16.65 4.5
Q 17.1 4.5 17.3 4.7 17.55 4.95 17.55 5.35
L 17.55 5.55 17.15 5.55
Q 15.35 5.55 15.35 6.55 15.35 7.05 15.65 7.25 16 7.5 16.35 7.5 16.8 7.5 17.05 7.3 17.4 7.15 17.55 6.8
L 17.55 7.15 17.6 7.4 17.95 7.4 17.9 5.35
Q 17.9 4.8 17.6 4.5
M 17.55 5.8
L 17.55 6.1
Q 17.55 6.4 17.4 6.6 17.35 6.85 17.05 7.05 16.75 7.2 16.45 7.2 16.1 7.2 15.95 7.05 15.75 6.9 15.75 6.55 15.75 5.8 17.2 5.8
L 17.55 5.8 Z"/>
</g>

<g id="IT_300x250_FR_psd_Asset_Awareness_Phase_IT_Decisions_Makers__V7_1_Votre_entreprise_a_t_elle__du_mal___assurer_la_s_curit___de_son_0_Layer0_0_MEMBER_27_FILL">
<path fill="#D82C26" stroke="none" d="
M 19.1 7.2
Q 19.15 7.4 19.45 7.5
L 19.65 7.15
Q 19.45 7.1 19.4 6.95
L 19.35 6.65 19.35 2.3 18.95 2.4 18.95 6.7
Q 18.95 7.05 19.1 7.2 Z"/>
</g>

<g id="IT_300x250_FR_psd_Asset_Awareness_Phase_IT_Decisions_Makers__V7_1_Votre_entreprise_a_t_elle__du_mal___assurer_la_s_curit___de_son_0_Layer0_0_MEMBER_28_FILL">
<path fill="#D82C26" stroke="none" d="
M 22.2 4.3
L 21.65 4.55 21.8 4.9
Q 21.9 4.8 22.25 4.6
L 22.8 4.5
Q 23.25 4.5 23.45 4.7 23.65 4.9 23.65 5.35
L 23.65 5.55 23.3 5.55
Q 21.5 5.55 21.5 6.55 21.5 7.05 21.8 7.25 22.15 7.5 22.5 7.5 22.95 7.5 23.2 7.3 23.5 7.15 23.65 6.8
L 23.7 6.8 23.7 7.15 23.75 7.4 24.1 7.4 24.05 5.35
Q 24.05 4.8 23.7 4.5 23.4 4.15 22.85 4.15 22.5 4.15 22.2 4.3
M 23.35 5.8
L 23.65 5.8 23.65 6.1
Q 23.65 6.45 23.55 6.6 23.4 6.95 23.2 7.05 22.9 7.2 22.55 7.2 22.3 7.2 22.05 7.05 21.85 6.85 21.85 6.55 21.85 5.8 23.35 5.8
M 22.55 2.65
L 22.1 2.65 22.95 3.6 23.25 3.6 22.55 2.65 Z"/>
</g>

<g id="IT_300x250_FR_psd_Asset_Awareness_Phase_IT_Decisions_Makers__V7_1_Votre_entreprise_a_t_elle__du_mal___assurer_la_s_curit___de_son_0_Layer0_0_MEMBER_29_FILL">
<path fill="#D82C26" stroke="none" d="
M 27.5 4.15
Q 27.15 4.15 26.85 4.3
L 26.3 4.55 26.45 4.9
Q 26.55 4.8 26.9 4.6
L 27.45 4.5
Q 27.9 4.5 28.1 4.7 28.35 4.95 28.35 5.35
L 28.35 5.55 27.95 5.55
Q 26.15 5.55 26.15 6.55 26.15 7.05 26.45 7.25 26.8 7.5 27.15 7.5 27.6 7.5 27.85 7.3 28.25 7.1 28.3 6.8
L 28.35 6.8 28.35 7.15 28.4 7.4 28.75 7.4 28.7 5.35
Q 28.7 4.8 28.4 4.5 28.05 4.15 27.5 4.15
M 28.35 5.8
L 28.35 6.1
Q 28.35 6.4 28.2 6.6 28.05 6.95 27.85 7.05 27.55 7.2 27.25 7.2 26.9 7.2 26.75 7.05 26.5 6.9 26.5 6.55 26.5 5.8 28 5.8
L 28.35 5.8 Z"/>
</g>

<g id="IT_300x250_FR_psd_Asset_Awareness_Phase_IT_Decisions_Makers__V7_1_Votre_entreprise_a_t_elle__du_mal___assurer_la_s_curit___de_son_0_Layer0_0_MEMBER_30_FILL">
<path fill="#D82C26" stroke="none" d="
M 31.15 4.25
L 30.6 4.15 30.1 4.25 29.7 4.55
Q 29.55 4.8 29.55 5.05 29.55 5.4 29.75 5.6 30.1 5.85 30.45 5.9
L 31.1 6.2
Q 31.3 6.35 31.3 6.6 31.3 6.9 31.1 7.05 30.9 7.2 30.6 7.2 30.05 7.2 29.55 6.8
L 29.5 7.15
Q 29.7 7.35 29.95 7.4
L 30.6 7.5 31.15 7.4 31.55 7.1
Q 31.7 6.9 31.7 6.6 31.7 6.2 31.45 6.05 31.2 5.8 30.7 5.65
L 30.1 5.4
Q 29.9 5.25 29.9 5 29.9 4.8 30.1 4.6
L 30.6 4.5
Q 30.9 4.5 31.05 4.6
L 31.4 4.8 31.6 4.5 31.15 4.25 Z"/>
</g>

<g id="IT_300x250_FR_psd_Asset_Awareness_Phase_IT_Decisions_Makers__V7_1_Votre_entreprise_a_t_elle__du_mal___assurer_la_s_curit___de_son_0_Layer0_0_MEMBER_31_FILL">
<path fill="#D82C26" stroke="none" d="
M 32.35 5.05
Q 32.35 5.4 32.55 5.6 32.9 5.85 33.25 5.9
L 33.9 6.2
Q 34.1 6.35 34.1 6.6 34.1 6.9 33.9 7.05 33.7 7.2 33.4 7.2 32.85 7.2 32.35 6.8
L 32.3 7.15
Q 32.5 7.35 32.75 7.4
L 33.4 7.5 33.95 7.4
Q 34.05 7.4 34.3 7.1 34.45 6.9 34.45 6.6 34.45 6.2 34.25 6.05 34 5.8 33.5 5.65
L 32.9 5.4
Q 32.7 5.25 32.7 5 32.7 4.75 32.9 4.6
L 33.4 4.5
Q 33.7 4.5 33.85 4.6
L 34.2 4.8 34.4 4.5 33.95 4.25 33.4 4.15 32.9 4.25 32.5 4.55
Q 32.35 4.8 32.35 5.05 Z"/>
</g>

<g id="IT_300x250_FR_psd_Asset_Awareness_Phase_IT_Decisions_Makers__V7_1_Votre_entreprise_a_t_elle__du_mal___assurer_la_s_curit___de_son_0_Layer0_0_MEMBER_32_FILL">
<path fill="#D82C26" stroke="none" d="
M 35.6 6.1
L 35.6 4.25 35.2 4.25 35.2 6.2
Q 35.2 6.7 35.5 7.15 35.8 7.5 36.35 7.5 36.8 7.5 37.05 7.3 37.45 7 37.5 6.75
L 37.55 7.4 37.95 7.4 37.9 7.05 37.9 4.25 37.5 4.25 37.5 5.85 37.4 6.55
Q 37.25 6.85 37 7 36.8 7.2 36.45 7.2 36.05 7.2 35.8 6.85 35.6 6.45 35.6 6.1 Z"/>
</g>

<g id="IT_300x250_FR_psd_Asset_Awareness_Phase_IT_Decisions_Makers__V7_1_Votre_entreprise_a_t_elle__du_mal___assurer_la_s_curit___de_son_0_Layer0_0_MEMBER_33_FILL">
<path fill="#D82C26" stroke="none" d="
M 40.55 4.6
L 40.65 4.25 40.3 4.2
Q 40 4.2 39.75 4.4 39.45 4.6 39.4 4.95
L 39.35 4.25 38.95 4.25 39 7.4 39.4 7.4 39.4 5.85
Q 39.4 5.3 39.65 4.9 39.85 4.55 40.3 4.55
L 40.55 4.6 Z"/>
</g>

<g id="IT_300x250_FR_psd_Asset_Awareness_Phase_IT_Decisions_Makers__V7_1_Votre_entreprise_a_t_elle__du_mal___assurer_la_s_curit___de_son_0_Layer0_0_MEMBER_34_FILL">
<path fill="#D82C26" stroke="none" d="
M 42.45 4.15
Q 42.05 4.15 41.65 4.4 41.3 4.6 41.1 4.95 40.9 5.3 40.9 5.8 40.9 6.35 41.1 6.7 41.35 7.1 41.65 7.3 42 7.5 42.5 7.5 43.3 7.5 43.75 7.1
L 43.7 6.8 43.15 7.05
Q 42.85 7.2 42.55 7.2 42.1 7.2 41.9 7 41.6 6.85 41.45 6.55 41.25 6.15 41.25 5.9
L 43.95 5.9 43.95 5.75
Q 43.95 5.3 43.75 4.95 43.6 4.6 43.25 4.4 42.85 4.15 42.45 4.15
M 41.8 4.65
Q 42.1 4.5 42.45 4.5 42.95 4.5 43.25 4.8 43.55 5.1 43.55 5.6
L 41.25 5.6 41.4 5.1 41.8 4.65 Z"/>
</g>

<g id="IT_300x250_FR_psd_Asset_Awareness_Phase_IT_Decisions_Makers__V7_1_Votre_entreprise_a_t_elle__du_mal___assurer_la_s_curit___de_son_0_Layer0_0_MEMBER_35_FILL">
<path fill="#D82C26" stroke="none" d="
M 46.05 4.55
L 46.35 4.6 46.45 4.25 46.1 4.2
Q 45.8 4.2 45.55 4.4 45.25 4.6 45.2 4.95
L 45.15 4.95 45.15 4.25 44.75 4.25 44.8 7.4 45.2 7.4 45.2 5.85
Q 45.2 5.25 45.4 4.9 45.7 4.55 46.05 4.55 Z"/>
</g>

<g id="IT_300x250_FR_psd_Asset_Awareness_Phase_IT_Decisions_Makers__V7_1_Votre_entreprise_a_t_elle__du_mal___assurer_la_s_curit___de_son_0_Layer0_0_MEMBER_36_FILL">
<path fill="#D82C26" stroke="none" d="
M 48.35 7.2
Q 48.5 7.45 48.7 7.5
L 48.9 7.15 48.65 6.95 48.6 6.65 48.6 2.3 48.2 2.4 48.2 6.7
Q 48.2 7.05 48.35 7.2 Z"/>
</g>

<g id="IT_300x250_FR_psd_Asset_Awareness_Phase_IT_Decisions_Makers__V7_1_Votre_entreprise_a_t_elle__du_mal___assurer_la_s_curit___de_son_0_Layer0_0_MEMBER_37_FILL">
<path fill="#D82C26" stroke="none" d="
M 51.7 5.55
L 51.3 5.55
Q 49.5 5.55 49.5 6.55 49.5 7.05 49.8 7.25 50.15 7.5 50.5 7.5 50.95 7.5 51.2 7.3 51.6 7.1 51.65 6.8
L 51.7 6.8 51.7 7.15 51.75 7.4 52.1 7.4 52.05 5.35
Q 52.05 4.8 51.75 4.5 51.4 4.15 50.85 4.15 50.5 4.15 50.2 4.3
L 49.65 4.55 49.8 4.9
Q 49.9 4.8 50.25 4.6
L 50.8 4.5
Q 51.25 4.5 51.45 4.7 51.7 4.95 51.7 5.35
L 51.7 5.55
M 51.7 5.8
L 51.7 6.1
Q 51.7 6.4 51.55 6.6 51.4 6.95 51.2 7.05 50.9 7.2 50.6 7.2 50.25 7.2 50.1 7.05 49.85 6.9 49.85 6.55 49.85 5.8 51.35 5.8
L 51.7 5.8 Z"/>
</g>

<g id="IT_300x250_FR_psd_Asset_Awareness_Phase_IT_Decisions_Makers__V7_1_Votre_entreprise_a_t_elle__du_mal___assurer_la_s_curit___de_son_0_Layer0_0_MEMBER_38_FILL">
<path fill="#D82C26" stroke="none" d="
M 56.25 4.5
L 55.8 4.25 55.25 4.15 54.75 4.25 54.35 4.55
Q 54.2 4.8 54.2 5.05 54.2 5.4 54.4 5.6 54.75 5.85 55.1 5.9
L 55.75 6.2
Q 55.95 6.35 55.95 6.6 55.95 6.9 55.75 7.05 55.55 7.2 55.25 7.2 54.7 7.2 54.2 6.8
L 54.15 7.15
Q 54.35 7.35 54.6 7.4
L 55.25 7.5 55.8 7.4
Q 55.9 7.4 56.15 7.1 56.35 6.9 56.35 6.6 56.35 6.2 56.1 6.05 55.85 5.8 55.35 5.65
L 54.75 5.4
Q 54.55 5.25 54.55 5 54.55 4.8 54.75 4.6
L 55.25 4.5
Q 55.55 4.5 55.7 4.6
L 56.05 4.8 56.25 4.5 Z"/>
</g>

<g id="IT_300x250_FR_psd_Asset_Awareness_Phase_IT_Decisions_Makers__V7_1_Votre_entreprise_a_t_elle__du_mal___assurer_la_s_curit___de_son_0_Layer0_0_MEMBER_39_FILL">
<path fill="#D82C26" stroke="none" d="
M 57.7 4.4
Q 57.25 4.65 57.15 4.95 56.95 5.3 56.95 5.8 56.95 6.35 57.15 6.7 57.4 7.1 57.7 7.3 58.05 7.5 58.55 7.5 59.35 7.5 59.8 7.1
L 59.75 6.8 59.2 7.05
Q 58.9 7.2 58.6 7.2 58.15 7.2 57.95 7 57.65 6.85 57.5 6.55 57.3 6.3 57.3 5.9
L 60 5.9 60 5.75
Q 60 5.3 59.8 4.95 59.65 4.6 59.3 4.4 58.9 4.15 58.5 4.15 58.1 4.15 57.7 4.4
M 57.45 5.1
L 57.85 4.65
Q 58.15 4.5 58.5 4.5 59 4.5 59.3 4.8 59.6 5.1 59.6 5.6
L 57.3 5.6 57.45 5.1
M 59.35 2.65
L 58.9 2.65 58.2 3.6 58.55 3.6 59.35 2.65 Z"/>
</g>

<g id="IT_300x250_FR_psd_Asset_Awareness_Phase_IT_Decisions_Makers__V7_1_Votre_entreprise_a_t_elle__du_mal___assurer_la_s_curit___de_son_0_Layer0_0_MEMBER_40_FILL">
<path fill="#D82C26" stroke="none" d="
M 61.45 4.4
Q 61.1 4.65 60.85 5 60.65 5.35 60.65 5.85 60.65 6.35 60.85 6.7 61.1 7.1 61.45 7.3 61.8 7.5 62.3 7.5
L 62.9 7.4
Q 63.15 7.35 63.35 7.15
L 63.3 6.8 62.85 7.05
Q 62.7 7.15 62.3 7.15 61.95 7.15 61.65 7 61.35 6.75 61.2 6.5 61.05 6.2 61.05 5.85 61.05 5.5 61.2 5.2 61.35 4.85 61.65 4.7 61.9 4.5 62.3 4.5
L 62.8 4.6 63.2 4.85 63.35 4.55
Q 63.15 4.35 62.9 4.3 62.6 4.15 62.3 4.15 61.85 4.15 61.45 4.4 Z"/>
</g>

<g id="IT_300x250_FR_psd_Asset_Awareness_Phase_IT_Decisions_Makers__V7_1_Votre_entreprise_a_t_elle__du_mal___assurer_la_s_curit___de_son_0_Layer0_0_MEMBER_41_FILL">
<path fill="#D82C26" stroke="none" d="
M 66.7 4.25
L 66.3 4.25 66.3 5.85 66.2 6.55
Q 66.05 6.85 65.8 7 65.6 7.2 65.25 7.2 64.85 7.2 64.6 6.85 64.4 6.45 64.4 6.1
L 64.4 4.25 64.05 4.25 64.05 6.2
Q 64.05 6.8 64.3 7.15 64.6 7.5 65.15 7.5 65.6 7.5 65.85 7.3 66.2 7.1 66.3 6.75
L 66.4 7.4 66.75 7.4 66.75 7.05 66.7 6.7 66.7 4.25 Z"/>
</g>

<g id="IT_300x250_FR_psd_Asset_Awareness_Phase_IT_Decisions_Makers__V7_1_Votre_entreprise_a_t_elle__du_mal___assurer_la_s_curit___de_son_0_Layer0_0_MEMBER_42_FILL">
<path fill="#D82C26" stroke="none" d="
M 68.2 4.95
L 68.15 4.25 67.75 4.25 67.8 7.4 68.2 7.4 68.2 5.85
Q 68.2 5.3 68.45 4.9 68.65 4.55 69.1 4.55
L 69.35 4.6 69.45 4.25 69.1 4.2
Q 68.8 4.2 68.55 4.4 68.35 4.5 68.2 4.95 Z"/>
</g>

<g id="IT_300x250_FR_psd_Asset_Awareness_Phase_IT_Decisions_Makers__V7_1_Votre_entreprise_a_t_elle__du_mal___assurer_la_s_curit___de_son_0_Layer0_0_MEMBER_43_FILL">
<path fill="#D82C26" stroke="none" d="
M 70.45 4.25
L 70.05 4.25 70.05 7.4 70.45 7.4 70.45 4.25
M 70.05 2.8
L 69.95 3 70.05 3.2 70.25 3.3 70.45 3.2 70.55 3 70.45 2.8 70.25 2.75 70.05 2.8 Z"/>
</g>

<g id="IT_300x250_FR_psd_Asset_Awareness_Phase_IT_Decisions_Makers__V7_1_Votre_entreprise_a_t_elle__du_mal___assurer_la_s_curit___de_son_0_Layer0_0_MEMBER_44_FILL">
<path fill="#D82C26" stroke="none" d="
M 72.85 4.6
L 72.95 4.25 72.05 4.25 72.05 3.35 71.65 3.5 71.65 4.25 71.15 4.25 71.1 4.6 71.65 4.6 71.65 6.65
Q 71.65 6.95 71.85 7.25 72.1 7.5 72.4 7.5
L 72.75 7.45 73.05 7.3 73 7
Q 72.8 7.15 72.5 7.15 72.3 7.15 72.2 7 72.05 6.95 72.05 6.6
L 72.05 4.6 72.85 4.6 Z"/>
</g>

<g id="IT_300x250_FR_psd_Asset_Awareness_Phase_IT_Decisions_Makers__V7_1_Votre_entreprise_a_t_elle__du_mal___assurer_la_s_curit___de_son_0_Layer0_0_MEMBER_45_FILL">
<path fill="#D82C26" stroke="none" d="
M 75.8 2.65
L 75.35 2.65 74.65 3.6 75 3.6 75.8 2.65
M 76.45 5.75
Q 76.45 5.3 76.25 4.95 76.1 4.6 75.75 4.4 75.35 4.15 74.95 4.15 74.55 4.15 74.15 4.4 73.7 4.65 73.6 4.95 73.4 5.3 73.4 5.8 73.4 6.35 73.6 6.7 73.85 7.1 74.15 7.3 74.5 7.5 75 7.5 75.8 7.5 76.25 7.1
L 76.2 6.8 75.65 7.05
Q 75.35 7.2 75 7.2 74.6 7.2 74.4 7 74.1 6.85 73.95 6.55 73.75 6.3 73.75 5.9
L 76.45 5.9 76.45 5.75
M 73.75 5.6
L 73.9 5.1 74.3 4.65
Q 74.6 4.5 74.95 4.5 75.45 4.5 75.75 4.8 76.05 5.1 76.05 5.6
L 73.75 5.6 Z"/>
</g>

<g id="IT_300x250_FR_psd_Asset_Awareness_Phase_IT_Decisions_Makers__V7_1_Votre_entreprise_a_t_elle__du_mal___assurer_la_s_curit___de_son_0_Layer0_0_MEMBER_46_FILL">
<path fill="#D82C26" stroke="none" d="
M 1.95 11.6
Q 1.4 11.6 1.15 11.8 0.8 12.05 0.55 12.4 0.4 12.8 0.4 13.25 0.4 13.75 0.55 14.1 0.8 14.5 1.15 14.7 1.4 14.9 1.95 14.9 2.35 14.9 2.7 14.7 3 14.6 3.25 14.15
L 3.3 14.85 3.65 14.85 3.65 9.7 3.25 9.75 3.25 12.35
Q 3.1 12.1 2.7 11.8 2.35 11.6 1.95 11.6
M 2 11.9
Q 2.25 11.9 2.65 12.1 2.9 12.25 3.1 12.6 3.25 12.9 3.25 13.25 3.25 13.6 3.1 13.9 2.9 14.25 2.65 14.4 2.4 14.6 2 14.6 1.6 14.6 1.35 14.4 1.05 14.25 0.9 13.95 0.75 13.6 0.75 13.25 0.75 12.9 0.9 12.6 1.1 12.25 1.35 12.1 1.75 11.9 2 11.9 Z"/>
</g>

<g id="IT_300x250_FR_psd_Asset_Awareness_Phase_IT_Decisions_Makers__V7_1_Votre_entreprise_a_t_elle__du_mal___assurer_la_s_curit___de_son_0_Layer0_0_MEMBER_47_FILL">
<path fill="#D82C26" stroke="none" d="
M 6.05 11.6
Q 5.6 11.6 5.25 11.8 4.95 12 4.7 12.4 4.5 12.75 4.5 13.25 4.5 13.75 4.7 14.1 4.95 14.5 5.3 14.7 5.55 14.9 6.1 14.9 6.85 14.9 7.35 14.55
L 7.3 14.2 6.8 14.5 6.15 14.6
Q 5.75 14.6 5.5 14.4 5.2 14.25 5.05 13.95 4.9 13.65 4.9 13.3
L 7.55 13.3 7.55 13.15
Q 7.55 12.7 7.35 12.35 7.2 12 6.85 11.8 6.6 11.6 6.05 11.6
M 6.05 11.9
Q 6.55 11.9 6.85 12.2 7.15 12.5 7.15 13
L 4.9 13 5.05 12.5
Q 5.25 12.2 5.45 12.05 5.7 11.9 6.05 11.9 Z"/>
</g>

<g id="IT_300x250_FR_psd_Asset_Awareness_Phase_IT_Decisions_Makers__V7_1_Votre_entreprise_a_t_elle__du_mal___assurer_la_s_curit___de_son_0_Layer0_0_MEMBER_48_FILL">
<path fill="#D82C26" stroke="none" d="
M 11.1 11.7
Q 10.9 11.6 10.55 11.6 10.2 11.6 10.05 11.7 9.8 11.75 9.65 12 9.5 12.15 9.5 12.45 9.5 12.8 9.7 13 9.9 13.2 10.4 13.35
L 11.05 13.65
Q 11.25 13.8 11.25 14 11.25 14.3 11.05 14.45 10.85 14.6 10.55 14.6 9.9 14.6 9.5 14.2
L 9.45 14.55
Q 9.65 14.75 9.9 14.8 10.1 14.9 10.55 14.9 10.9 14.9 11.1 14.8 11.3 14.75 11.45 14.5 11.65 14.3 11.65 14 11.65 13.7 11.4 13.45 11.2 13.25 10.65 13.1
L 10.05 12.8
Q 9.85 12.65 9.85 12.45 9.85 12.25 10.05 12.05 10.3 11.9 10.55 11.9
L 11 12 11.35 12.2 11.55 11.9 11.1 11.7 Z"/>
</g>

<g id="IT_300x250_FR_psd_Asset_Awareness_Phase_IT_Decisions_Makers__V7_1_Votre_entreprise_a_t_elle__du_mal___assurer_la_s_curit___de_son_0_Layer0_0_MEMBER_49_FILL">
<path fill="#D82C26" stroke="none" d="
M 13.9 11.6
Q 13.4 11.6 13.05 11.8 12.7 12.05 12.45 12.4 12.25 12.75 12.25 13.25 12.25 13.75 12.45 14.1 12.7 14.5 13.05 14.7 13.4 14.9 13.9 14.9 14.4 14.9 14.75 14.7 15.15 14.5 15.35 14.1 15.6 13.7 15.6 13.25 15.6 12.8 15.35 12.4 15.15 12.05 14.75 11.8 14.4 11.6 13.9 11.6
M 13.9 11.9
Q 14.2 11.9 14.6 12.1
L 15.05 12.6
Q 15.2 12.9 15.2 13.25 15.2 13.6 15.05 13.9 14.85 14.25 14.6 14.4 14.35 14.6 13.9 14.6 13.45 14.6 13.25 14.4 13 14.25 12.8 13.9 12.65 13.6 12.65 13.25 12.65 12.9 12.8 12.6 13 12.25 13.25 12.1 13.55 11.9 13.9 11.9 Z"/>
</g>

<g id="IT_300x250_FR_psd_Asset_Awareness_Phase_IT_Decisions_Makers__V7_1_Votre_entreprise_a_t_elle__du_mal___assurer_la_s_curit___de_son_0_Layer0_0_MEMBER_50_FILL">
<path fill="#D82C26" stroke="none" d="
M 16.8 11.7
L 16.4 11.7 16.45 14.85 16.85 14.85 16.85 13.2
Q 16.85 12.8 17 12.55 17.05 12.3 17.35 12.1 17.55 11.9 17.9 11.9 18.3 11.9 18.55 12.25 18.75 12.65 18.75 13
L 18.75 14.85 19.15 14.85 19.15 12.9
Q 19.15 12.35 18.85 11.95 18.55 11.6 17.95 11.6 17.55 11.6 17.3 11.8 16.95 12 16.85 12.35
L 16.8 12.35 16.8 11.7 Z"/>
</g>

<g id="IT_300x250_FR_psd_Asset_Awareness_Phase_IT_Decisions_Makers__V7_1_Votre_entreprise_a_t_elle__du_mal___assurer_la_s_curit___de_son_0_Layer0_0_MEMBER_51_FILL">
<path fill="#D82C26" stroke="none" d="
M 21.85 11.7
L 21.45 11.7 21.5 14.85 21.9 14.85 21.9 13.25
Q 21.9 12.7 22.1 12.35 22.35 11.95 22.75 11.95
L 23.05 12 23.15 11.65 22.8 11.6
Q 22.5 11.6 22.25 11.8 21.95 12.1 21.9 12.35
L 21.85 12.35 21.85 11.7 Z"/>
</g>

<g id="IT_300x250_FR_psd_Asset_Awareness_Phase_IT_Decisions_Makers__V7_1_Votre_entreprise_a_t_elle__du_mal___assurer_la_s_curit___de_son_0_Layer0_0_MEMBER_52_FILL">
<path fill="#D82C26" stroke="none" d="
M 24.65 11.05
L 25 11.05 25.8 10.05 25.35 10.05 24.65 11.05
M 24.95 11.6
Q 24.4 11.6 24.15 11.8 23.75 12.05 23.6 12.4 23.35 12.8 23.35 13.25 23.35 13.7 23.6 14.1 23.75 14.45 24.15 14.7 24.5 14.9 25 14.9 25.75 14.9 26.25 14.55
L 26.15 14.2 25.65 14.5 25 14.6
Q 24.6 14.6 24.35 14.4
L 23.9 13.95
Q 23.75 13.65 23.75 13.3
L 26.4 13.3 26.4 13.15
Q 26.4 12.75 26.25 12.35 26.15 12.1 25.75 11.8 25.4 11.6 24.95 11.6
M 24.3 12.05
Q 24.6 11.9 24.95 11.9 25.45 11.9 25.75 12.2 26.05 12.5 26.05 13
L 23.75 13 23.9 12.5 24.3 12.05 Z"/>
</g>

<g id="IT_300x250_FR_psd_Asset_Awareness_Phase_IT_Decisions_Makers__V7_1_Votre_entreprise_a_t_elle__du_mal___assurer_la_s_curit___de_son_0_Layer0_0_MEMBER_53_FILL">
<path fill="#D82C26" stroke="none" d="
M 27.65 11.7
Q 27.4 11.75 27.25 12 27.1 12.15 27.1 12.45 27.1 12.8 27.3 13 27.5 13.2 28 13.35
L 28.65 13.65
Q 28.85 13.8 28.85 14 28.85 14.3 28.65 14.45 28.45 14.6 28.15 14.6 27.5 14.6 27.1 14.2
L 27.05 14.55
Q 27.25 14.75 27.5 14.8 27.7 14.9 28.15 14.9 28.5 14.9 28.65 14.8 28.9 14.75 29.05 14.5 29.2 14.3 29.2 14 29.2 13.65 29 13.45 28.8 13.25 28.25 13.1
L 27.65 12.8
Q 27.45 12.65 27.45 12.45 27.45 12.2 27.65 12.05 27.9 11.9 28.15 11.9
L 28.6 12 28.95 12.2 29.15 11.9 28.7 11.7
Q 28.5 11.6 28.15 11.6 27.8 11.6 27.65 11.7 Z"/>
</g>

<g id="IT_300x250_FR_psd_Asset_Awareness_Phase_IT_Decisions_Makers__V7_1_Votre_entreprise_a_t_elle__du_mal___assurer_la_s_curit___de_son_0_Layer0_0_MEMBER_54_FILL">
<path fill="#D82C26" stroke="none" d="
M 31.4 11.6
Q 30.95 11.6 30.6 11.8 30.2 12.05 30.05 12.4 29.85 12.75 29.85 13.25 29.85 13.75 30.05 14.1 30.2 14.45 30.6 14.7 30.95 14.9 31.45 14.9 32.2 14.9 32.7 14.55
L 32.6 14.2 32.1 14.5 31.45 14.6
Q 31.05 14.6 30.8 14.4 30.55 14.25 30.4 13.95 30.2 13.7 30.2 13.3
L 32.85 13.3 32.9 13.15
Q 32.9 12.85 32.7 12.35 32.6 12.1 32.2 11.8 31.85 11.6 31.4 11.6
M 31.4 11.9
Q 31.9 11.9 32.2 12.2 32.5 12.5 32.5 13
L 30.2 13 30.35 12.5 30.75 12.05
Q 31.05 11.9 31.4 11.9 Z"/>
</g>

<g id="IT_300x250_FR_psd_Asset_Awareness_Phase_IT_Decisions_Makers__V7_1_Votre_entreprise_a_t_elle__du_mal___assurer_la_s_curit___de_son_0_Layer0_0_MEMBER_55_FILL">
<path fill="#D82C26" stroke="none" d="
M 34.75 11.9
Q 35.1 11.9 35.4 12.1 35.65 12.35 35.65 12.75
L 35.65 12.95 35.25 12.95
Q 33.45 12.95 33.45 14 33.45 14.4 33.75 14.7 34 14.9 34.45 14.9 34.85 14.9 35.2 14.75 35.55 14.5 35.65 14.2
L 35.7 14.55 35.7 14.85 36.05 14.85 36 12.8
Q 36 12.2 35.7 11.9 35.4 11.6 34.8 11.6 34.4 11.6 34.2 11.7 33.9 11.75 33.65 12
L 33.75 12.3 34.25 12 34.75 11.9
M 35.65 13.5
L 35.55 14.05 35.15 14.45
Q 34.95 14.6 34.55 14.6 34.3 14.6 34.05 14.45 33.85 14.3 33.85 13.95 33.85 13.2 35.3 13.2
L 35.65 13.2 35.65 13.5 Z"/>
</g>

<g id="IT_300x250_FR_psd_Asset_Awareness_Phase_IT_Decisions_Makers__V7_1_Votre_entreprise_a_t_elle__du_mal___assurer_la_s_curit___de_son_0_Layer0_0_MEMBER_56_FILL">
<path fill="#D82C26" stroke="none" d="
M 37.4 11.7
L 37 11.7 37 13.6
Q 37 14.2 37.3 14.55 37.6 14.9 38.15 14.9 38.6 14.9 38.85 14.7 39.2 14.45 39.3 14.15
L 39.35 14.85 39.75 14.85 39.7 14.45 39.7 11.7 39.3 11.7 39.3 13.25
Q 39.3 13.65 39.15 13.95 39.1 14.25 38.8 14.45 38.6 14.6 38.25 14.6 37.85 14.6 37.6 14.3 37.4 13.8 37.4 13.5
L 37.4 11.7 Z"/>
</g>

<g id="IT_300x250_FR_psd_Asset_Awareness_Phase_IT_Decisions_Makers__V7_1_Votre_entreprise_a_t_elle__du_mal___assurer_la_s_curit___de_son_0_Layer0_0_MEMBER_57_FILL">
<path fill="#D82C26" stroke="none" d="
M 42.55 10.5
Q 42.35 10.25 42.05 10.1 41.75 9.95 41.4 9.95 40.95 9.95 40.6 10.15 40.2 10.35 40.05 10.55
L 40.25 10.85 40.75 10.45
Q 41.05 10.3 41.4 10.3 41.7 10.3 42.05 10.55 42.3 10.8 42.3 11.1
L 42.25 11.5 42.05 11.8 41.7 12.15 41.3 12.7
Q 41.2 12.85 41.2 13.25
L 41.2 13.45 41.55 13.45 41.55 13.3 41.6 12.95 41.75 12.65 42.4 11.95 42.6 11.6
Q 42.7 11.45 42.7 11.1 42.7 10.75 42.55 10.5
M 41.2 14.8
L 41.4 14.85 41.6 14.8 41.7 14.55 41.6 14.35 41.4 14.25 41.2 14.35 41.1 14.55 41.2 14.8 Z"/>
</g>
</defs>

<g transform="matrix( 1, 0, 0, 1, -66,7) ">
<g transform="matrix( 1, 0, 0, 1, 61,10) ">
<g transform="matrix( 1, 0, 0, 1, 27,6) ">
<g transform="matrix( 2.815704345703125, 0, 0, 2.832611083984375, 0.15,14.6) ">
<use xlink:href="#IT_300x250_FR_psd_Asset_Awareness_Phase_IT_Decisions_Makers__V7_1_Votre_entreprise_a_t_elle__du_mal___assurer_la_s_curit___de_son_0_Layer0_0_MEMBER_0_FILL"/>
</g>

<g transform="matrix( 2.815704345703125, 0, 0, 2.832611083984375, 0.15,14.6) ">
<use xlink:href="#IT_300x250_FR_psd_Asset_Awareness_Phase_IT_Decisions_Makers__V7_1_Votre_entreprise_a_t_elle__du_mal___assurer_la_s_curit___de_son_0_Layer0_0_MEMBER_1_FILL"/>
</g>

<g transform="matrix( 2.815704345703125, 0, 0, 2.832611083984375, 0.15,14.6) ">
<use xlink:href="#IT_300x250_FR_psd_Asset_Awareness_Phase_IT_Decisions_Makers__V7_1_Votre_entreprise_a_t_elle__du_mal___assurer_la_s_curit___de_son_0_Layer0_0_MEMBER_2_FILL"/>
</g>

<g transform="matrix( 2.815704345703125, 0, 0, 2.832611083984375, 0.15,14.6) ">
<use xlink:href="#IT_300x250_FR_psd_Asset_Awareness_Phase_IT_Decisions_Makers__V7_1_Votre_entreprise_a_t_elle__du_mal___assurer_la_s_curit___de_son_0_Layer0_0_MEMBER_3_FILL"/>
</g>

<g transform="matrix( 2.815704345703125, 0, 0, 2.832611083984375, 0.15,14.6) ">
<use xlink:href="#IT_300x250_FR_psd_Asset_Awareness_Phase_IT_Decisions_Makers__V7_1_Votre_entreprise_a_t_elle__du_mal___assurer_la_s_curit___de_son_0_Layer0_0_MEMBER_4_FILL"/>
</g>

<g transform="matrix( 2.815704345703125, 0, 0, 2.832611083984375, 0.15,14.6) ">
<use xlink:href="#IT_300x250_FR_psd_Asset_Awareness_Phase_IT_Decisions_Makers__V7_1_Votre_entreprise_a_t_elle__du_mal___assurer_la_s_curit___de_son_0_Layer0_0_MEMBER_5_FILL"/>
</g>

<g transform="matrix( 2.815704345703125, 0, 0, 2.832611083984375, 0.15,14.6) ">
<use xlink:href="#IT_300x250_FR_psd_Asset_Awareness_Phase_IT_Decisions_Makers__V7_1_Votre_entreprise_a_t_elle__du_mal___assurer_la_s_curit___de_son_0_Layer0_0_MEMBER_6_FILL"/>
</g>

<g transform="matrix( 2.815704345703125, 0, 0, 2.832611083984375, 0.15,14.6) ">
<use xlink:href="#IT_300x250_FR_psd_Asset_Awareness_Phase_IT_Decisions_Makers__V7_1_Votre_entreprise_a_t_elle__du_mal___assurer_la_s_curit___de_son_0_Layer0_0_MEMBER_7_FILL"/>
</g>

<g transform="matrix( 2.815704345703125, 0, 0, 2.832611083984375, 0.15,14.6) ">
<use xlink:href="#IT_300x250_FR_psd_Asset_Awareness_Phase_IT_Decisions_Makers__V7_1_Votre_entreprise_a_t_elle__du_mal___assurer_la_s_curit___de_son_0_Layer0_0_MEMBER_8_FILL"/>
</g>

<g transform="matrix( 2.815704345703125, 0, 0, 2.832611083984375, 0.15,14.6) ">
<use xlink:href="#IT_300x250_FR_psd_Asset_Awareness_Phase_IT_Decisions_Makers__V7_1_Votre_entreprise_a_t_elle__du_mal___assurer_la_s_curit___de_son_0_Layer0_0_MEMBER_9_FILL"/>
</g>

<g transform="matrix( 2.815704345703125, 0, 0, 2.832611083984375, 0.15,14.6) ">
<use xlink:href="#IT_300x250_FR_psd_Asset_Awareness_Phase_IT_Decisions_Makers__V7_1_Votre_entreprise_a_t_elle__du_mal___assurer_la_s_curit___de_son_0_Layer0_0_MEMBER_10_FILL"/>
</g>

<g transform="matrix( 2.815704345703125, 0, 0, 2.832611083984375, 0.15,14.6) ">
<use xlink:href="#IT_300x250_FR_psd_Asset_Awareness_Phase_IT_Decisions_Makers__V7_1_Votre_entreprise_a_t_elle__du_mal___assurer_la_s_curit___de_son_0_Layer0_0_MEMBER_11_FILL"/>
</g>

<g transform="matrix( 2.815704345703125, 0, 0, 2.832611083984375, 0.15,14.6) ">
<use xlink:href="#IT_300x250_FR_psd_Asset_Awareness_Phase_IT_Decisions_Makers__V7_1_Votre_entreprise_a_t_elle__du_mal___assurer_la_s_curit___de_son_0_Layer0_0_MEMBER_12_FILL"/>
</g>

<g transform="matrix( 2.815704345703125, 0, 0, 2.832611083984375, 0.15,14.6) ">
<use xlink:href="#IT_300x250_FR_psd_Asset_Awareness_Phase_IT_Decisions_Makers__V7_1_Votre_entreprise_a_t_elle__du_mal___assurer_la_s_curit___de_son_0_Layer0_0_MEMBER_13_FILL"/>
</g>

<g transform="matrix( 2.815704345703125, 0, 0, 2.832611083984375, 0.15,14.6) ">
<use xlink:href="#IT_300x250_FR_psd_Asset_Awareness_Phase_IT_Decisions_Makers__V7_1_Votre_entreprise_a_t_elle__du_mal___assurer_la_s_curit___de_son_0_Layer0_0_MEMBER_14_FILL"/>
</g>

<g transform="matrix( 2.815704345703125, 0, 0, 2.832611083984375, 0.15,14.6) ">
<use xlink:href="#IT_300x250_FR_psd_Asset_Awareness_Phase_IT_Decisions_Makers__V7_1_Votre_entreprise_a_t_elle__du_mal___assurer_la_s_curit___de_son_0_Layer0_0_MEMBER_15_FILL"/>
</g>

<g transform="matrix( 2.815704345703125, 0, 0, 2.832611083984375, 0.15,14.6) ">
<use xlink:href="#IT_300x250_FR_psd_Asset_Awareness_Phase_IT_Decisions_Makers__V7_1_Votre_entreprise_a_t_elle__du_mal___assurer_la_s_curit___de_son_0_Layer0_0_MEMBER_16_FILL"/>
</g>

<g transform="matrix( 2.815704345703125, 0, 0, 2.832611083984375, 0.15,14.6) ">
<use xlink:href="#IT_300x250_FR_psd_Asset_Awareness_Phase_IT_Decisions_Makers__V7_1_Votre_entreprise_a_t_elle__du_mal___assurer_la_s_curit___de_son_0_Layer0_0_MEMBER_17_FILL"/>
</g>

<g transform="matrix( 2.815704345703125, 0, 0, 2.832611083984375, 0.15,14.6) ">
<use xlink:href="#IT_300x250_FR_psd_Asset_Awareness_Phase_IT_Decisions_Makers__V7_1_Votre_entreprise_a_t_elle__du_mal___assurer_la_s_curit___de_son_0_Layer0_0_MEMBER_18_FILL"/>
</g>

<g transform="matrix( 2.815704345703125, 0, 0, 2.832611083984375, 0.15,14.6) ">
<use xlink:href="#IT_300x250_FR_psd_Asset_Awareness_Phase_IT_Decisions_Makers__V7_1_Votre_entreprise_a_t_elle__du_mal___assurer_la_s_curit___de_son_0_Layer0_0_MEMBER_19_FILL"/>
</g>

<g transform="matrix( 2.815704345703125, 0, 0, 2.832611083984375, 0.15,14.6) ">
<use xlink:href="#IT_300x250_FR_psd_Asset_Awareness_Phase_IT_Decisions_Makers__V7_1_Votre_entreprise_a_t_elle__du_mal___assurer_la_s_curit___de_son_0_Layer0_0_MEMBER_20_FILL"/>
</g>

<g transform="matrix( 2.815704345703125, 0, 0, 2.832611083984375, 0.15,14.6) ">
<use xlink:href="#IT_300x250_FR_psd_Asset_Awareness_Phase_IT_Decisions_Makers__V7_1_Votre_entreprise_a_t_elle__du_mal___assurer_la_s_curit___de_son_0_Layer0_0_MEMBER_21_FILL"/>
</g>

<g transform="matrix( 2.815704345703125, 0, 0, 2.832611083984375, 0.15,14.6) ">
<use xlink:href="#IT_300x250_FR_psd_Asset_Awareness_Phase_IT_Decisions_Makers__V7_1_Votre_entreprise_a_t_elle__du_mal___assurer_la_s_curit___de_son_0_Layer0_0_MEMBER_22_FILL"/>
</g>

<g transform="matrix( 2.815704345703125, 0, 0, 2.832611083984375, 0.15,14.6) ">
<use xlink:href="#IT_300x250_FR_psd_Asset_Awareness_Phase_IT_Decisions_Makers__V7_1_Votre_entreprise_a_t_elle__du_mal___assurer_la_s_curit___de_son_0_Layer0_0_MEMBER_23_FILL"/>
</g>

<g transform="matrix( 2.815704345703125, 0, 0, 2.832611083984375, 0.15,14.6) ">
<use xlink:href="#IT_300x250_FR_psd_Asset_Awareness_Phase_IT_Decisions_Makers__V7_1_Votre_entreprise_a_t_elle__du_mal___assurer_la_s_curit___de_son_0_Layer0_0_MEMBER_24_FILL"/>
</g>

<g transform="matrix( 2.815704345703125, 0, 0, 2.832611083984375, 0.15,14.6) ">
<use xlink:href="#IT_300x250_FR_psd_Asset_Awareness_Phase_IT_Decisions_Makers__V7_1_Votre_entreprise_a_t_elle__du_mal___assurer_la_s_curit___de_son_0_Layer0_0_MEMBER_25_FILL"/>
</g>

<g transform="matrix( 2.815704345703125, 0, 0, 2.832611083984375, 0.15,14.6) ">
<use xlink:href="#IT_300x250_FR_psd_Asset_Awareness_Phase_IT_Decisions_Makers__V7_1_Votre_entreprise_a_t_elle__du_mal___assurer_la_s_curit___de_son_0_Layer0_0_MEMBER_26_FILL"/>
</g>

<g transform="matrix( 2.815704345703125, 0, 0, 2.832611083984375, 0.15,14.6) ">
<use xlink:href="#IT_300x250_FR_psd_Asset_Awareness_Phase_IT_Decisions_Makers__V7_1_Votre_entreprise_a_t_elle__du_mal___assurer_la_s_curit___de_son_0_Layer0_0_MEMBER_27_FILL"/>
</g>

<g transform="matrix( 2.815704345703125, 0, 0, 2.832611083984375, 0.15,14.6) ">
<use xlink:href="#IT_300x250_FR_psd_Asset_Awareness_Phase_IT_Decisions_Makers__V7_1_Votre_entreprise_a_t_elle__du_mal___assurer_la_s_curit___de_son_0_Layer0_0_MEMBER_28_FILL"/>
</g>

<g transform="matrix( 2.815704345703125, 0, 0, 2.832611083984375, 0.15,14.6) ">
<use xlink:href="#IT_300x250_FR_psd_Asset_Awareness_Phase_IT_Decisions_Makers__V7_1_Votre_entreprise_a_t_elle__du_mal___assurer_la_s_curit___de_son_0_Layer0_0_MEMBER_29_FILL"/>
</g>

<g transform="matrix( 2.815704345703125, 0, 0, 2.832611083984375, 0.15,14.6) ">
<use xlink:href="#IT_300x250_FR_psd_Asset_Awareness_Phase_IT_Decisions_Makers__V7_1_Votre_entreprise_a_t_elle__du_mal___assurer_la_s_curit___de_son_0_Layer0_0_MEMBER_30_FILL"/>
</g>

<g transform="matrix( 2.815704345703125, 0, 0, 2.832611083984375, 0.15,14.6) ">
<use xlink:href="#IT_300x250_FR_psd_Asset_Awareness_Phase_IT_Decisions_Makers__V7_1_Votre_entreprise_a_t_elle__du_mal___assurer_la_s_curit___de_son_0_Layer0_0_MEMBER_31_FILL"/>
</g>

<g transform="matrix( 2.815704345703125, 0, 0, 2.832611083984375, 0.15,14.6) ">
<use xlink:href="#IT_300x250_FR_psd_Asset_Awareness_Phase_IT_Decisions_Makers__V7_1_Votre_entreprise_a_t_elle__du_mal___assurer_la_s_curit___de_son_0_Layer0_0_MEMBER_32_FILL"/>
</g>

<g transform="matrix( 2.815704345703125, 0, 0, 2.832611083984375, 0.15,14.6) ">
<use xlink:href="#IT_300x250_FR_psd_Asset_Awareness_Phase_IT_Decisions_Makers__V7_1_Votre_entreprise_a_t_elle__du_mal___assurer_la_s_curit___de_son_0_Layer0_0_MEMBER_33_FILL"/>
</g>

<g transform="matrix( 2.815704345703125, 0, 0, 2.832611083984375, 0.15,14.6) ">
<use xlink:href="#IT_300x250_FR_psd_Asset_Awareness_Phase_IT_Decisions_Makers__V7_1_Votre_entreprise_a_t_elle__du_mal___assurer_la_s_curit___de_son_0_Layer0_0_MEMBER_34_FILL"/>
</g>

<g transform="matrix( 2.815704345703125, 0, 0, 2.832611083984375, 0.15,14.6) ">
<use xlink:href="#IT_300x250_FR_psd_Asset_Awareness_Phase_IT_Decisions_Makers__V7_1_Votre_entreprise_a_t_elle__du_mal___assurer_la_s_curit___de_son_0_Layer0_0_MEMBER_35_FILL"/>
</g>

<g transform="matrix( 2.815704345703125, 0, 0, 2.832611083984375, 0.15,14.6) ">
<use xlink:href="#IT_300x250_FR_psd_Asset_Awareness_Phase_IT_Decisions_Makers__V7_1_Votre_entreprise_a_t_elle__du_mal___assurer_la_s_curit___de_son_0_Layer0_0_MEMBER_36_FILL"/>
</g>

<g transform="matrix( 2.815704345703125, 0, 0, 2.832611083984375, 0.15,14.6) ">
<use xlink:href="#IT_300x250_FR_psd_Asset_Awareness_Phase_IT_Decisions_Makers__V7_1_Votre_entreprise_a_t_elle__du_mal___assurer_la_s_curit___de_son_0_Layer0_0_MEMBER_37_FILL"/>
</g>

<g transform="matrix( 2.815704345703125, 0, 0, 2.832611083984375, 0.15,14.6) ">
<use xlink:href="#IT_300x250_FR_psd_Asset_Awareness_Phase_IT_Decisions_Makers__V7_1_Votre_entreprise_a_t_elle__du_mal___assurer_la_s_curit___de_son_0_Layer0_0_MEMBER_38_FILL"/>
</g>

<g transform="matrix( 2.815704345703125, 0, 0, 2.832611083984375, 0.15,14.6) ">
<use xlink:href="#IT_300x250_FR_psd_Asset_Awareness_Phase_IT_Decisions_Makers__V7_1_Votre_entreprise_a_t_elle__du_mal___assurer_la_s_curit___de_son_0_Layer0_0_MEMBER_39_FILL"/>
</g>

<g transform="matrix( 2.815704345703125, 0, 0, 2.832611083984375, 0.15,14.6) ">
<use xlink:href="#IT_300x250_FR_psd_Asset_Awareness_Phase_IT_Decisions_Makers__V7_1_Votre_entreprise_a_t_elle__du_mal___assurer_la_s_curit___de_son_0_Layer0_0_MEMBER_40_FILL"/>
</g>

<g transform="matrix( 2.815704345703125, 0, 0, 2.832611083984375, 0.15,14.6) ">
<use xlink:href="#IT_300x250_FR_psd_Asset_Awareness_Phase_IT_Decisions_Makers__V7_1_Votre_entreprise_a_t_elle__du_mal___assurer_la_s_curit___de_son_0_Layer0_0_MEMBER_41_FILL"/>
</g>

<g transform="matrix( 2.815704345703125, 0, 0, 2.832611083984375, 0.15,14.6) ">
<use xlink:href="#IT_300x250_FR_psd_Asset_Awareness_Phase_IT_Decisions_Makers__V7_1_Votre_entreprise_a_t_elle__du_mal___assurer_la_s_curit___de_son_0_Layer0_0_MEMBER_42_FILL"/>
</g>

<g transform="matrix( 2.815704345703125, 0, 0, 2.832611083984375, 0.15,14.6) ">
<use xlink:href="#IT_300x250_FR_psd_Asset_Awareness_Phase_IT_Decisions_Makers__V7_1_Votre_entreprise_a_t_elle__du_mal___assurer_la_s_curit___de_son_0_Layer0_0_MEMBER_43_FILL"/>
</g>

<g transform="matrix( 2.815704345703125, 0, 0, 2.832611083984375, 0.15,14.6) ">
<use xlink:href="#IT_300x250_FR_psd_Asset_Awareness_Phase_IT_Decisions_Makers__V7_1_Votre_entreprise_a_t_elle__du_mal___assurer_la_s_curit___de_son_0_Layer0_0_MEMBER_44_FILL"/>
</g>

<g transform="matrix( 2.815704345703125, 0, 0, 2.832611083984375, 0.15,14.6) ">
<use xlink:href="#IT_300x250_FR_psd_Asset_Awareness_Phase_IT_Decisions_Makers__V7_1_Votre_entreprise_a_t_elle__du_mal___assurer_la_s_curit___de_son_0_Layer0_0_MEMBER_45_FILL"/>
</g>

<g transform="matrix( 2.815704345703125, 0, 0, 2.832611083984375, 0.15,14.6) ">
<use xlink:href="#IT_300x250_FR_psd_Asset_Awareness_Phase_IT_Decisions_Makers__V7_1_Votre_entreprise_a_t_elle__du_mal___assurer_la_s_curit___de_son_0_Layer0_0_MEMBER_46_FILL"/>
</g>

<g transform="matrix( 2.815704345703125, 0, 0, 2.832611083984375, 0.15,14.6) ">
<use xlink:href="#IT_300x250_FR_psd_Asset_Awareness_Phase_IT_Decisions_Makers__V7_1_Votre_entreprise_a_t_elle__du_mal___assurer_la_s_curit___de_son_0_Layer0_0_MEMBER_47_FILL"/>
</g>

<g transform="matrix( 2.815704345703125, 0, 0, 2.832611083984375, 0.15,14.6) ">
<use xlink:href="#IT_300x250_FR_psd_Asset_Awareness_Phase_IT_Decisions_Makers__V7_1_Votre_entreprise_a_t_elle__du_mal___assurer_la_s_curit___de_son_0_Layer0_0_MEMBER_48_FILL"/>
</g>

<g transform="matrix( 2.815704345703125, 0, 0, 2.832611083984375, 0.15,14.6) ">
<use xlink:href="#IT_300x250_FR_psd_Asset_Awareness_Phase_IT_Decisions_Makers__V7_1_Votre_entreprise_a_t_elle__du_mal___assurer_la_s_curit___de_son_0_Layer0_0_MEMBER_49_FILL"/>
</g>

<g transform="matrix( 2.815704345703125, 0, 0, 2.832611083984375, 0.15,14.6) ">
<use xlink:href="#IT_300x250_FR_psd_Asset_Awareness_Phase_IT_Decisions_Makers__V7_1_Votre_entreprise_a_t_elle__du_mal___assurer_la_s_curit___de_son_0_Layer0_0_MEMBER_50_FILL"/>
</g>

<g transform="matrix( 2.815704345703125, 0, 0, 2.832611083984375, 0.15,14.6) ">
<use xlink:href="#IT_300x250_FR_psd_Asset_Awareness_Phase_IT_Decisions_Makers__V7_1_Votre_entreprise_a_t_elle__du_mal___assurer_la_s_curit___de_son_0_Layer0_0_MEMBER_51_FILL"/>
</g>

<g transform="matrix( 2.815704345703125, 0, 0, 2.832611083984375, 0.15,14.6) ">
<use xlink:href="#IT_300x250_FR_psd_Asset_Awareness_Phase_IT_Decisions_Makers__V7_1_Votre_entreprise_a_t_elle__du_mal___assurer_la_s_curit___de_son_0_Layer0_0_MEMBER_52_FILL"/>
</g>

<g transform="matrix( 2.815704345703125, 0, 0, 2.832611083984375, 0.15,14.6) ">
<use xlink:href="#IT_300x250_FR_psd_Asset_Awareness_Phase_IT_Decisions_Makers__V7_1_Votre_entreprise_a_t_elle__du_mal___assurer_la_s_curit___de_son_0_Layer0_0_MEMBER_53_FILL"/>
</g>

<g transform="matrix( 2.815704345703125, 0, 0, 2.832611083984375, 0.15,14.6) ">
<use xlink:href="#IT_300x250_FR_psd_Asset_Awareness_Phase_IT_Decisions_Makers__V7_1_Votre_entreprise_a_t_elle__du_mal___assurer_la_s_curit___de_son_0_Layer0_0_MEMBER_54_FILL"/>
</g>

<g transform="matrix( 2.815704345703125, 0, 0, 2.832611083984375, 0.15,14.6) ">
<use xlink:href="#IT_300x250_FR_psd_Asset_Awareness_Phase_IT_Decisions_Makers__V7_1_Votre_entreprise_a_t_elle__du_mal___assurer_la_s_curit___de_son_0_Layer0_0_MEMBER_55_FILL"/>
</g>

<g transform="matrix( 2.815704345703125, 0, 0, 2.832611083984375, 0.15,14.6) ">
<use xlink:href="#IT_300x250_FR_psd_Asset_Awareness_Phase_IT_Decisions_Makers__V7_1_Votre_entreprise_a_t_elle__du_mal___assurer_la_s_curit___de_son_0_Layer0_0_MEMBER_56_FILL"/>
</g>

<g transform="matrix( 2.815704345703125, 0, 0, 2.832611083984375, 0.15,14.6) ">
<use xlink:href="#IT_300x250_FR_psd_Asset_Awareness_Phase_IT_Decisions_Makers__V7_1_Votre_entreprise_a_t_elle__du_mal___assurer_la_s_curit___de_son_0_Layer0_0_MEMBER_57_FILL"/>
</g>
</g>
</g>
</g>
</svg>
