
<svg xmlns="http://www.w3.org/2000/svg" version="1.1" xmlns:xlink="http://www.w3.org/1999/xlink" preserveAspectRatio="none" x="0px" y="0px" width="300px" height="250px" viewBox="0 0 300 250">
<defs>
<g id="IT_300x250_FR_psd_Asset_Awareness_Phase_IT_Decisions_Makers__V7_3_fournisseur_au_Canada___proposer_une_solution_de_Wi_Fi_en_tant__0_Layer0_0_MEMBER_0_FILL">
<path fill="#D82C26" stroke="none" d="
M 1.8 -4.85
L 2.25 -4.75 2.3 -5.1 2.05 -5.15 1.75 -5.15
Q 1.3 -5.15 1.05 -4.9 0.75 -4.6 0.75 -4.05
L 0.75 -3.15 0.2 -3.15 0.1 -2.85 0.8 -2.85 0.8 0 1.15 0 1.15 -2.85 1.9 -2.85 2 -3.15 1.15 -3.15 1.15 -4.05
Q 1.15 -4.35 1.3 -4.6 1.45 -4.85 1.8 -4.85 Z"/>
</g>

<g id="IT_300x250_FR_psd_Asset_Awareness_Phase_IT_Decisions_Makers__V7_3_fournisseur_au_Canada___proposer_une_solution_de_Wi_Fi_en_tant__0_Layer0_0_MEMBER_1_FILL">
<path fill="#D82C26" stroke="none" d="
M 2.05 -1.6
Q 2.05 -1.1 2.3 -0.7 2.55 -0.3 2.9 -0.1 3.4 0.1 3.75 0.1 4.1 0.1 4.6 -0.1 5 -0.3 5.2 -0.7 5.4 -1.05 5.4 -1.6 5.4 -2.1 5.2 -2.45 5 -2.8 4.6 -3.05 4.1 -3.25 3.75 -3.25 3.4 -3.25 2.9 -3.05 2.55 -2.8 2.3 -2.45 2.05 -2.05 2.05 -1.6
M 4.4 -2.75
Q 4.7 -2.5 4.85 -2.25 5 -1.95 5 -1.6 5 -1.2 4.85 -0.9 4.7 -0.65 4.4 -0.4 4.1 -0.25 3.75 -0.25 3.35 -0.25 3.05 -0.4 2.75 -0.65 2.6 -0.9 2.45 -1.2 2.45 -1.6 2.45 -1.95 2.6 -2.25 2.75 -2.5 3.05 -2.75 3.35 -2.9 3.75 -2.9 4.1 -2.9 4.4 -2.75 Z"/>
</g>

<g id="IT_300x250_FR_psd_Asset_Awareness_Phase_IT_Decisions_Makers__V7_3_fournisseur_au_Canada___proposer_une_solution_de_Wi_Fi_en_tant__0_Layer0_0_MEMBER_2_FILL">
<path fill="#D82C26" stroke="none" d="
M 8.75 -3.15
L 8.35 -3.15 8.35 -1.6
Q 8.35 -1.15 8.2 -0.85 8.15 -0.6 7.85 -0.4 7.65 -0.25 7.3 -0.25 6.9 -0.25 6.65 -0.55 6.45 -0.95 6.45 -1.35
L 6.45 -3.15 6.05 -3.15 6.05 -1.25
Q 6.05 -0.65 6.35 -0.3 6.65 0.1 7.2 0.1 7.5 0.1 7.9 -0.1 8.2 -0.3 8.35 -0.7
L 8.4 0 8.8 0 8.75 -0.35 8.75 -3.15 Z"/>
</g>

<g id="IT_300x250_FR_psd_Asset_Awareness_Phase_IT_Decisions_Makers__V7_3_fournisseur_au_Canada___proposer_une_solution_de_Wi_Fi_en_tant__0_Layer0_0_MEMBER_3_FILL">
<path fill="#D82C26" stroke="none" d="
M 10 -3.15
L 9.65 -3.15 9.7 0 10.1 0 10.1 -1.55
Q 10.1 -2.15 10.3 -2.5 10.55 -2.9 10.95 -2.9
L 11.25 -2.85 11.3 -3.2 11 -3.25
Q 10.75 -3.25 10.45 -3.05 10.2 -2.8 10.05 -2.45
L 10 -3.15 Z"/>
</g>

<g id="IT_300x250_FR_psd_Asset_Awareness_Phase_IT_Decisions_Makers__V7_3_fournisseur_au_Canada___proposer_une_solution_de_Wi_Fi_en_tant__0_Layer0_0_MEMBER_4_FILL">
<path fill="#D82C26" stroke="none" d="
M 12.1 -3.15
L 11.75 -3.15 11.75 0 12.15 0 12.15 -1.6
Q 12.15 -2 12.3 -2.3 12.45 -2.65 12.7 -2.75 12.95 -2.9 13.2 -2.9 13.7 -2.9 13.85 -2.6 14.05 -2.35 14.05 -1.8
L 14.05 0 14.45 0 14.45 -1.9
Q 14.45 -2.45 14.2 -2.85 13.9 -3.25 13.3 -3.25 12.95 -3.25 12.6 -3 12.3 -2.85 12.15 -2.45
L 12.1 -3.15 Z"/>
</g>

<g id="IT_300x250_FR_psd_Asset_Awareness_Phase_IT_Decisions_Makers__V7_3_fournisseur_au_Canada___proposer_une_solution_de_Wi_Fi_en_tant__0_Layer0_0_MEMBER_5_FILL">
<path fill="#D82C26" stroke="none" d="
M 15.75 -3.15
L 15.35 -3.15 15.35 0 15.75 0 15.75 -3.15
M 15.55 -4.1
L 15.75 -4.2 15.8 -4.4 15.75 -4.6 15.55 -4.7 15.35 -4.6 15.25 -4.4 15.35 -4.2 15.55 -4.1 Z"/>
</g>

<g id="IT_300x250_FR_psd_Asset_Awareness_Phase_IT_Decisions_Makers__V7_3_fournisseur_au_Canada___proposer_une_solution_de_Wi_Fi_en_tant__0_Layer0_0_MEMBER_6_FILL">
<path fill="#D82C26" stroke="none" d="
M 17.5 -3.25
L 17 -3.15
Q 16.75 -3.05 16.6 -2.85 16.45 -2.6 16.45 -2.35 16.45 -2 16.65 -1.85 16.85 -1.65 17.35 -1.5
L 18 -1.2
Q 18.2 -1.05 18.2 -0.8 18.2 -0.55 18 -0.4 17.8 -0.2 17.5 -0.2 16.95 -0.2 16.45 -0.6
L 16.4 -0.25 16.9 0 17.5 0.1 18.05 0
Q 18.35 -0.2 18.45 -0.35 18.6 -0.5 18.6 -0.85 18.6 -1.15 18.35 -1.4 18 -1.65 17.6 -1.75
L 17 -2.05
Q 16.8 -2.15 16.8 -2.4 16.8 -2.6 17 -2.8 17.15 -2.9 17.5 -2.9
L 17.95 -2.85 18.3 -2.6 18.5 -2.9 18.05 -3.15 17.5 -3.25 Z"/>
</g>

<g id="IT_300x250_FR_psd_Asset_Awareness_Phase_IT_Decisions_Makers__V7_3_fournisseur_au_Canada___proposer_une_solution_de_Wi_Fi_en_tant__0_Layer0_0_MEMBER_7_FILL">
<path fill="#D82C26" stroke="none" d="
M 20.1 -3.25
L 19.6 -3.15
Q 19.4 -3.1 19.25 -2.85 19.1 -2.6 19.1 -2.35 19.1 -2 19.3 -1.85 19.5 -1.65 19.95 -1.5
L 20.65 -1.2
Q 20.85 -1 20.85 -0.8 20.85 -0.6 20.65 -0.4 20.45 -0.2 20.15 -0.2 19.6 -0.2 19.1 -0.6
L 19 -0.25 19.5 0 20.15 0.1 20.65 0
Q 20.9 -0.1 21.05 -0.35 21.2 -0.5 21.2 -0.85 21.2 -1.2 21 -1.4 20.35 -1.7 20.25 -1.75
L 19.65 -2.05
Q 19.45 -2.1 19.45 -2.4 19.45 -2.65 19.65 -2.8 19.75 -2.9 20.15 -2.9
L 20.6 -2.85 20.95 -2.6 21.1 -2.9 20.7 -3.15 20.1 -3.25 Z"/>
</g>

<g id="IT_300x250_FR_psd_Asset_Awareness_Phase_IT_Decisions_Makers__V7_3_fournisseur_au_Canada___proposer_une_solution_de_Wi_Fi_en_tant__0_Layer0_0_MEMBER_8_FILL">
<path fill="#D82C26" stroke="none" d="
M 21.85 -0.7
Q 22.1 -0.3 22.45 -0.1 22.95 0.1 23.25 0.1 23.95 0.1 24.5 -0.3
L 24.45 -0.65
Q 24.2 -0.4 23.95 -0.35 23.75 -0.25 23.3 -0.25 22.95 -0.25 22.65 -0.4 22.35 -0.55 22.2 -0.85 22.05 -1.15 22.05 -1.5
L 24.7 -1.5 24.7 -1.7
Q 24.7 -2.15 24.55 -2.45 24.3 -2.85 24 -3.05 23.6 -3.25 23.2 -3.25 22.9 -3.25 22.4 -3.05 22.05 -2.8 21.85 -2.45 21.65 -2.1 21.65 -1.6 21.65 -1.05 21.85 -0.7
M 22.2 -2.3
Q 22.35 -2.65 22.6 -2.75 22.9 -2.95 23.2 -2.95 23.7 -2.95 24 -2.6 24.3 -2.3 24.35 -1.8
L 22.05 -1.8
Q 22.05 -2.05 22.2 -2.3 Z"/>
</g>

<g id="IT_300x250_FR_psd_Asset_Awareness_Phase_IT_Decisions_Makers__V7_3_fournisseur_au_Canada___proposer_une_solution_de_Wi_Fi_en_tant__0_Layer0_0_MEMBER_9_FILL">
<path fill="#D82C26" stroke="none" d="
M 25.75 -3.15
L 25.35 -3.15 25.35 -1.25
Q 25.35 -0.7 25.6 -0.3 25.9 0.1 26.5 0.1 26.7 0.1 27.2 -0.1 27.5 -0.3 27.65 -0.7
L 27.7 0 28.1 0 28.05 -0.35 28.05 -3.15 27.65 -3.15 27.65 -1.6
Q 27.65 -1.15 27.5 -0.85 27.35 -0.5 27.1 -0.4 26.9 -0.25 26.6 -0.25 26.1 -0.25 25.95 -0.55 25.75 -0.8 25.75 -1.35
L 25.75 -3.15 Z"/>
</g>

<g id="IT_300x250_FR_psd_Asset_Awareness_Phase_IT_Decisions_Makers__V7_3_fournisseur_au_Canada___proposer_une_solution_de_Wi_Fi_en_tant__0_Layer0_0_MEMBER_10_FILL">
<path fill="#D82C26" stroke="none" d="
M 29.3 -3.15
L 28.9 -3.15 28.95 0 29.35 0 29.35 -1.55
Q 29.35 -2.1 29.6 -2.5 29.85 -2.9 30.25 -2.9
L 30.5 -2.85 30.6 -3.2 30.25 -3.25
Q 30.1 -3.25 29.7 -3.05 29.5 -2.85 29.35 -2.45
L 29.3 -3.15 Z"/>
</g>

<g id="IT_300x250_FR_psd_Asset_Awareness_Phase_IT_Decisions_Makers__V7_3_fournisseur_au_Canada___proposer_une_solution_de_Wi_Fi_en_tant__0_Layer0_0_MEMBER_11_FILL">
<path fill="#D82C26" stroke="none" d="
M 31.8 -0.85
Q 31.8 -0.35 32.1 -0.15 32.45 0.1 32.8 0.1 33.25 0.1 33.5 -0.1 33.8 -0.2 34 -0.6
L 34 -0.3 34.05 0 34.4 0 34.35 -2.05
Q 34.35 -2.65 34.05 -2.95 33.75 -3.25 33.15 -3.25
L 32.5 -3.15 32 -2.85 32.1 -2.55 32.55 -2.8
Q 32.75 -2.9 33.1 -2.9 33.55 -2.9 33.75 -2.7 34 -2.45 34 -2.05
L 34 -1.9 33.6 -1.9
Q 31.8 -1.9 31.8 -0.85
M 32.4 -0.35
Q 32.2 -0.5 32.2 -0.85 32.2 -1.6 33.65 -1.6
L 34 -1.6 34 -1.3
Q 34 -1 33.85 -0.8 33.8 -0.65 33.5 -0.35 33.3 -0.2 32.9 -0.2 32.65 -0.2 32.4 -0.35 Z"/>
</g>

<g id="IT_300x250_FR_psd_Asset_Awareness_Phase_IT_Decisions_Makers__V7_3_fournisseur_au_Canada___proposer_une_solution_de_Wi_Fi_en_tant__0_Layer0_0_MEMBER_12_FILL">
<path fill="#D82C26" stroke="none" d="
M 35.2 -3.15
L 35.2 -1.25
Q 35.2 -0.7 35.45 -0.3 35.75 0.1 36.35 0.1 36.55 0.1 37.05 -0.1 37.35 -0.3 37.5 -0.7
L 37.55 0 37.95 0 37.85 -0.75 37.85 -3.15 37.5 -3.15 37.5 -1.6
Q 37.5 -1.15 37.35 -0.85 37.2 -0.5 36.95 -0.4 36.75 -0.25 36.45 -0.25 35.95 -0.25 35.8 -0.55 35.6 -0.8 35.6 -1.35
L 35.6 -3.15 35.2 -3.15 Z"/>
</g>

<g id="IT_300x250_FR_psd_Asset_Awareness_Phase_IT_Decisions_Makers__V7_3_fournisseur_au_Canada___proposer_une_solution_de_Wi_Fi_en_tant__0_Layer0_0_MEMBER_13_FILL">
<path fill="#D82C26" stroke="none" d="
M 39.75 -2.35
Q 39.75 -1.6 40.05 -1.1 40.35 -0.5 40.95 -0.2 41.55 0.15 42.2 0.15 42.55 0.15 43.15 -0.05
L 43.9 -0.5 43.8 -0.9
Q 43.6 -0.7 43.1 -0.4 42.65 -0.25 42.2 -0.25 41.6 -0.25 41.15 -0.55 40.65 -0.8 40.45 -1.3 40.15 -1.75 40.15 -2.35 40.15 -3 40.45 -3.45 40.65 -3.95 41.15 -4.2 41.6 -4.5 42.2 -4.5 42.65 -4.5 43.1 -4.35 43.6 -4.05 43.75 -3.9
L 43.85 -4.3
Q 43.6 -4.55 43.15 -4.7 42.55 -4.9 42.2 -4.9 41.55 -4.9 40.95 -4.55 40.35 -4.25 40.05 -3.65 39.75 -3.1 39.75 -2.35 Z"/>
</g>

<g id="IT_300x250_FR_psd_Asset_Awareness_Phase_IT_Decisions_Makers__V7_3_fournisseur_au_Canada___proposer_une_solution_de_Wi_Fi_en_tant__0_Layer0_0_MEMBER_14_FILL">
<path fill="#D82C26" stroke="none" d="
M 44.35 -0.85
Q 44.35 -0.4 44.6 -0.15 44.95 0.1 45.35 0.1 45.7 0.1 46.05 -0.1 46.3 -0.25 46.5 -0.6
L 46.55 -0.3 46.55 0 46.95 0 46.9 -2.05
Q 46.9 -2.6 46.55 -2.95 46.25 -3.25 45.65 -3.25
L 45.05 -3.15 44.5 -2.85 44.6 -2.55 45.1 -2.8
Q 45.25 -2.9 45.6 -2.9 46.05 -2.9 46.25 -2.7 46.5 -2.5 46.5 -2.05
L 46.5 -1.9 46.15 -1.9
Q 44.35 -1.9 44.35 -0.85
M 44.9 -0.35
Q 44.7 -0.5 44.7 -0.85 44.7 -1.6 46.2 -1.6
L 46.5 -1.6 46.5 -1.3 46.4 -0.8
Q 46.3 -0.55 46 -0.35 45.8 -0.2 45.4 -0.2 45.15 -0.2 44.9 -0.35 Z"/>
</g>

<g id="IT_300x250_FR_psd_Asset_Awareness_Phase_IT_Decisions_Makers__V7_3_fournisseur_au_Canada___proposer_une_solution_de_Wi_Fi_en_tant__0_Layer0_0_MEMBER_15_FILL">
<path fill="#D82C26" stroke="none" d="
M 48.6 -3
Q 48.3 -2.85 48.15 -2.45
L 48.1 -3.15 47.75 -3.15 47.75 0 48.15 0 48.15 -1.6
Q 48.15 -2 48.3 -2.3 48.45 -2.6 48.65 -2.75 48.95 -2.9 49.2 -2.9 49.65 -2.9 49.85 -2.6 50.05 -2.35 50.05 -1.8
L 50.05 0 50.45 0 50.45 -1.9
Q 50.45 -2.45 50.15 -2.85 49.85 -3.25 49.3 -3.25 48.95 -3.25 48.6 -3 Z"/>
</g>

<g id="IT_300x250_FR_psd_Asset_Awareness_Phase_IT_Decisions_Makers__V7_3_fournisseur_au_Canada___proposer_une_solution_de_Wi_Fi_en_tant__0_Layer0_0_MEMBER_16_FILL">
<path fill="#D82C26" stroke="none" d="
M 52.45 -3.25
L 51.8 -3.15 51.25 -2.85 51.4 -2.55
Q 51.6 -2.75 51.85 -2.8 52.05 -2.9 52.4 -2.9 52.85 -2.9 53.05 -2.7 53.25 -2.5 53.25 -2.05
L 53.25 -1.9 52.9 -1.9
Q 51.1 -1.9 51.1 -0.85 51.1 -0.35 51.4 -0.15 51.75 0.1 52.1 0.1 52.55 0.1 52.8 -0.1 53.05 -0.25 53.25 -0.6
L 53.3 -0.6 53.3 -0.3 53.35 0 53.7 0 53.65 -2.05
Q 53.65 -2.65 53.3 -2.95 53 -3.25 52.45 -3.25
M 51.65 -0.35
Q 51.45 -0.55 51.45 -0.85 51.45 -1.6 52.95 -1.6
L 53.25 -1.6 53.25 -1.3
Q 53.25 -0.95 53.15 -0.8
L 52.8 -0.35
Q 52.5 -0.2 52.15 -0.2 51.9 -0.2 51.65 -0.35 Z"/>
</g>

<g id="IT_300x250_FR_psd_Asset_Awareness_Phase_IT_Decisions_Makers__V7_3_fournisseur_au_Canada___proposer_une_solution_de_Wi_Fi_en_tant__0_Layer0_0_MEMBER_17_FILL">
<path fill="#D82C26" stroke="none" d="
M 54.5 -0.75
Q 54.75 -0.35 55.05 -0.15 55.45 0.1 55.9 0.1 56.15 0.1 56.65 -0.1 57 -0.4 57.15 -0.7
L 57.2 -0.7 57.2 0 57.6 0 57.55 -5.15 57.15 -5.05 57.15 -2.45
Q 57 -2.8 56.6 -3.05 56.2 -3.25 55.9 -3.25 55.45 -3.25 55.05 -3 54.75 -2.8 54.5 -2.4 54.3 -2.05 54.3 -1.55 54.3 -1.1 54.5 -0.75
M 54.85 -2.25
Q 55 -2.55 55.3 -2.7 55.5 -2.9 55.95 -2.9 56.35 -2.9 56.55 -2.7 56.85 -2.55 57 -2.25 57.2 -2 57.2 -1.55 57.2 -1.15 57 -0.9 56.85 -0.65 56.55 -0.4 56.35 -0.25 55.95 -0.25 55.55 -0.25 55.3 -0.4 55 -0.65 54.85 -0.9 54.7 -1.2 54.7 -1.55 54.7 -1.95 54.85 -2.25 Z"/>
</g>

<g id="IT_300x250_FR_psd_Asset_Awareness_Phase_IT_Decisions_Makers__V7_3_fournisseur_au_Canada___proposer_une_solution_de_Wi_Fi_en_tant__0_Layer0_0_MEMBER_18_FILL">
<path fill="#D82C26" stroke="none" d="
M 59.6 -3.25
L 58.95 -3.15 58.4 -2.85 58.55 -2.55
Q 58.75 -2.75 59 -2.8 59.2 -2.9 59.55 -2.9 59.95 -2.9 60.2 -2.7 60.4 -2.5 60.4 -2.05
L 60.4 -1.9 60.05 -1.9
Q 58.25 -1.9 58.25 -0.85 58.25 -0.35 58.55 -0.15 58.9 0.1 59.25 0.1 59.7 0.1 59.95 -0.1 60.2 -0.25 60.4 -0.6
L 60.45 -0.6 60.45 -0.3 60.5 0 60.85 0 60.8 -2.05
Q 60.8 -2.65 60.45 -2.95 60.15 -3.25 59.6 -3.25
M 60.1 -1.6
L 60.4 -1.6 60.4 -1.3
Q 60.4 -0.95 60.3 -0.8 60.2 -0.55 59.9 -0.35 59.7 -0.2 59.3 -0.2 59.05 -0.2 58.8 -0.35 58.6 -0.55 58.6 -0.85 58.6 -1.6 60.1 -1.6 Z"/>
</g>

<g id="IT_300x250_FR_psd_Asset_Awareness_Phase_IT_Decisions_Makers__V7_3_fournisseur_au_Canada___proposer_une_solution_de_Wi_Fi_en_tant__0_Layer0_0_MEMBER_19_FILL">
<path fill="#D82C26" stroke="none" d="
M 62.55 -0.85
Q 62.55 -0.35 62.85 -0.15 63.2 0.1 63.55 0.1 64 0.1 64.25 -0.1 64.55 -0.2 64.75 -0.6
L 64.75 -0.3 64.8 0 65.15 0 65.1 -2.05
Q 65.1 -2.65 64.8 -2.95 64.5 -3.25 63.9 -3.25
L 63.25 -3.15 62.75 -2.85 62.85 -2.55 63.3 -2.8
Q 63.5 -2.9 63.85 -2.9 64.3 -2.9 64.5 -2.7 64.75 -2.45 64.75 -2.05
L 64.75 -1.9 64.35 -1.9
Q 62.55 -1.9 62.55 -0.85
M 63.15 -0.35
Q 62.95 -0.5 62.95 -0.85 62.95 -1.6 64.4 -1.6
L 64.75 -1.6 64.75 -1.3
Q 64.75 -1 64.6 -0.8 64.55 -0.65 64.25 -0.35 64.05 -0.2 63.65 -0.2 63.4 -0.2 63.15 -0.35
M 64.3 -3.8
L 63.65 -4.75 63.2 -4.75 64 -3.8 64.3 -3.8 Z"/>
</g>

<g id="IT_300x250_FR_psd_Asset_Awareness_Phase_IT_Decisions_Makers__V7_3_fournisseur_au_Canada___proposer_une_solution_de_Wi_Fi_en_tant__0_Layer0_0_MEMBER_20_FILL">
<path fill="#D82C26" stroke="none" d="
M 67.45 -3.15
L 67.1 -3.15 67.1 1.6 67.5 1.6 67.5 -0.65
Q 67.8 -0.25 68.05 -0.1 68.45 0.1 68.8 0.1 69.2 0.1 69.6 -0.15 70 -0.4 70.15 -0.75 70.35 -1.1 70.35 -1.55 70.35 -2.05 70.15 -2.4 70 -2.75 69.6 -3 69.2 -3.25 68.8 -3.25 68.45 -3.25 68.05 -3.05 67.75 -2.85 67.5 -2.45
L 67.45 -3.15
M 67.65 -2.25
Q 67.8 -2.55 68.1 -2.7 68.35 -2.9 68.75 -2.9 69.15 -2.9 69.4 -2.7 69.65 -2.5 69.8 -2.25 69.95 -1.95 69.95 -1.55 69.95 -1.2 69.8 -0.9
L 69.4 -0.4
Q 69.1 -0.25 68.75 -0.25 68.4 -0.25 68.1 -0.4 67.8 -0.65 67.65 -0.9 67.5 -1.2 67.5 -1.55 67.5 -1.95 67.65 -2.25 Z"/>
</g>

<g id="IT_300x250_FR_psd_Asset_Awareness_Phase_IT_Decisions_Makers__V7_3_fournisseur_au_Canada___proposer_une_solution_de_Wi_Fi_en_tant__0_Layer0_0_MEMBER_21_FILL">
<path fill="#D82C26" stroke="none" d="
M 71.4 -3.15
L 71.05 -3.15 71.05 0 71.45 0 71.45 -1.55
Q 71.45 -2.1 71.7 -2.5 71.95 -2.9 72.35 -2.9
L 72.65 -2.85 72.7 -3.2 72.4 -3.25
Q 72.15 -3.25 71.85 -3.05 71.6 -2.9 71.45 -2.45
L 71.4 -3.15 Z"/>
</g>

<g id="IT_300x250_FR_psd_Asset_Awareness_Phase_IT_Decisions_Makers__V7_3_fournisseur_au_Canada___proposer_une_solution_de_Wi_Fi_en_tant__0_Layer0_0_MEMBER_22_FILL">
<path fill="#D82C26" stroke="none" d="
M 72.75 -1.6
Q 72.75 -1.1 73 -0.7 73.25 -0.3 73.6 -0.1 74.1 0.1 74.45 0.1 74.8 0.1 75.3 -0.1 75.7 -0.3 75.9 -0.7 76.1 -1.05 76.1 -1.6 76.1 -2.1 75.9 -2.45 75.7 -2.8 75.3 -3.05 74.8 -3.25 74.45 -3.25 74.1 -3.25 73.6 -3.05 73.25 -2.8 73 -2.45 72.75 -2.05 72.75 -1.6
M 73.15 -1.6
Q 73.15 -1.95 73.3 -2.25 73.45 -2.5 73.75 -2.75 74.05 -2.9 74.45 -2.9 74.8 -2.9 75.1 -2.75 75.4 -2.5 75.55 -2.25 75.7 -1.95 75.7 -1.6 75.7 -1.2 75.55 -0.9 75.4 -0.65 75.1 -0.4 74.9 -0.25 74.45 -0.25 74.05 -0.25 73.75 -0.4 73.45 -0.65 73.3 -0.9 73.15 -1.2 73.15 -1.6 Z"/>
</g>

<g id="IT_300x250_FR_psd_Asset_Awareness_Phase_IT_Decisions_Makers__V7_3_fournisseur_au_Canada___proposer_une_solution_de_Wi_Fi_en_tant__0_Layer0_0_MEMBER_23_FILL">
<path fill="#D82C26" stroke="none" d="
M 77.15 -3.15
L 76.8 -3.15 76.8 1.6 77.2 1.6 77.2 -0.65
Q 77.5 -0.25 77.75 -0.1 78.15 0.1 78.5 0.1 78.9 0.1 79.3 -0.15 79.7 -0.4 79.85 -0.75 80.05 -1.1 80.05 -1.55 80.05 -2.05 79.85 -2.4 79.7 -2.75 79.3 -3 78.9 -3.25 78.5 -3.25 78.15 -3.25 77.75 -3.05 77.45 -2.85 77.2 -2.45
L 77.15 -3.15
M 77.8 -2.7
Q 78.05 -2.9 78.45 -2.9 78.85 -2.9 79.1 -2.7 79.35 -2.5 79.5 -2.25 79.65 -1.95 79.65 -1.55 79.65 -1.2 79.5 -0.9
L 79.1 -0.4
Q 78.8 -0.25 78.45 -0.25 78.1 -0.25 77.8 -0.4 77.5 -0.65 77.35 -0.9 77.2 -1.2 77.2 -1.55 77.2 -1.95 77.35 -2.25 77.5 -2.55 77.8 -2.7 Z"/>
</g>

<g id="IT_300x250_FR_psd_Asset_Awareness_Phase_IT_Decisions_Makers__V7_3_fournisseur_au_Canada___proposer_une_solution_de_Wi_Fi_en_tant__0_Layer0_0_MEMBER_24_FILL">
<path fill="#D82C26" stroke="none" d="
M 80.55 -1.6
Q 80.55 -1.2 80.75 -0.7 81 -0.3 81.35 -0.1 81.85 0.1 82.25 0.1 82.6 0.1 83.1 -0.1 83.5 -0.3 83.7 -0.7 83.9 -1.05 83.9 -1.6 83.9 -2.1 83.7 -2.45 83.5 -2.8 83.1 -3.05 82.6 -3.25 82.25 -3.25 81.85 -3.25 81.35 -3.05 81 -2.8 80.75 -2.45 80.55 -1.95 80.55 -1.6
M 82.9 -2.75
Q 83.2 -2.5 83.35 -2.25 83.5 -1.95 83.5 -1.6 83.5 -1.2 83.35 -0.9 83.2 -0.65 82.9 -0.4 82.6 -0.25 82.25 -0.25 81.85 -0.25 81.55 -0.4 81.25 -0.65 81.1 -0.9 80.95 -1.2 80.95 -1.6 80.95 -1.95 81.1 -2.25 81.25 -2.5 81.55 -2.75 81.85 -2.9 82.25 -2.9 82.6 -2.9 82.9 -2.75 Z"/>
</g>

<g id="IT_300x250_FR_psd_Asset_Awareness_Phase_IT_Decisions_Makers__V7_3_fournisseur_au_Canada___proposer_une_solution_de_Wi_Fi_en_tant__0_Layer0_0_MEMBER_25_FILL">
<path fill="#D82C26" stroke="none" d="
M 86 -3.15
L 85.45 -3.25 84.95 -3.15
Q 84.7 -3.1 84.55 -2.85 84.4 -2.6 84.4 -2.35 84.4 -2 84.6 -1.85 84.8 -1.65 85.3 -1.5
L 85.95 -1.2
Q 86.15 -1.05 86.15 -0.8 86.15 -0.55 85.95 -0.4 85.75 -0.2 85.45 -0.2 84.9 -0.2 84.4 -0.6
L 84.35 -0.25
Q 84.55 -0.05 84.8 0
L 85.45 0.1 86 0 86.35 -0.35
Q 86.5 -0.5 86.5 -0.85 86.5 -1.2 86.3 -1.4 85.95 -1.65 85.55 -1.75
L 84.95 -2.05
Q 84.75 -2.1 84.75 -2.4 84.75 -2.65 84.95 -2.8 85.1 -2.9 85.45 -2.9
L 85.9 -2.85 86.25 -2.6 86.45 -2.9 86 -3.15 Z"/>
</g>

<g id="IT_300x250_FR_psd_Asset_Awareness_Phase_IT_Decisions_Makers__V7_3_fournisseur_au_Canada___proposer_une_solution_de_Wi_Fi_en_tant__0_Layer0_0_MEMBER_26_FILL">
<path fill="#D82C26" stroke="none" d="
M 87.15 -2.45
Q 86.95 -1.95 86.95 -1.6 86.95 -1.2 87.15 -0.7 87.4 -0.3 87.75 -0.1 88.25 0.1 88.55 0.1 89.3 0.1 89.85 -0.3
L 89.75 -0.65
Q 89.5 -0.4 89.25 -0.35 89.05 -0.25 88.6 -0.25 88.25 -0.25 87.95 -0.4 87.65 -0.55 87.5 -0.85 87.35 -1.15 87.35 -1.5
L 90 -1.5 90 -1.7
Q 90 -2.15 89.85 -2.45 89.6 -2.85 89.35 -3.05 88.85 -3.25 88.5 -3.25 88.15 -3.25 87.75 -3.05 87.4 -2.8 87.15 -2.45
M 87.35 -1.8
Q 87.35 -2.05 87.5 -2.3 87.65 -2.55 87.9 -2.75 88.2 -2.95 88.5 -2.95 89 -2.95 89.3 -2.6 89.65 -2.25 89.65 -1.8
L 87.35 -1.8 Z"/>
</g>

<g id="IT_300x250_FR_psd_Asset_Awareness_Phase_IT_Decisions_Makers__V7_3_fournisseur_au_Canada___proposer_une_solution_de_Wi_Fi_en_tant__0_Layer0_0_MEMBER_27_FILL">
<path fill="#D82C26" stroke="none" d="
M 91.05 -3.15
L 90.65 -3.15 90.7 0 91.1 0 91.1 -1.55
Q 91.1 -2.2 91.35 -2.5 91.6 -2.9 92 -2.9
L 92.25 -2.85 92.35 -3.2 92 -3.25
Q 91.85 -3.25 91.45 -3.05 91.15 -2.75 91.1 -2.45
L 91.05 -2.45 91.05 -3.15 Z"/>
</g>

<g id="IT_300x250_FR_psd_Asset_Awareness_Phase_IT_Decisions_Makers__V7_3_fournisseur_au_Canada___proposer_une_solution_de_Wi_Fi_en_tant__0_Layer0_0_MEMBER_28_FILL">
<path fill="#D82C26" stroke="none" d="
M 0.95 4.25
L 0.6 4.25 0.6 6.2
Q 0.6 6.8 0.85 7.15 1.15 7.5 1.7 7.5 2.15 7.5 2.4 7.3 2.75 7.1 2.85 6.75
L 2.95 7.4 3.3 7.4 3.3 7.05 3.25 6.7 3.25 4.25 2.85 4.25 2.85 5.85 2.75 6.55
Q 2.6 6.85 2.35 7 2.15 7.2 1.8 7.2 1.4 7.2 1.15 6.85 0.95 6.45 0.95 6.1
L 0.95 4.25 Z"/>
</g>

<g id="IT_300x250_FR_psd_Asset_Awareness_Phase_IT_Decisions_Makers__V7_3_fournisseur_au_Canada___proposer_une_solution_de_Wi_Fi_en_tant__0_Layer0_0_MEMBER_29_FILL">
<path fill="#D82C26" stroke="none" d="
M 6.6 4.55
Q 6.3 4.2 5.7 4.2 5.3 4.2 5.05 4.4 4.65 4.65 4.6 4.95
L 4.55 4.95 4.55 4.25 4.15 4.25 4.2 7.4 4.6 7.4 4.6 5.8
Q 4.6 5.4 4.75 5.1 4.8 4.85 5.1 4.65 5.35 4.5 5.65 4.5 6.1 4.5 6.3 4.8 6.5 5.3 6.5 5.6
L 6.5 7.4 6.9 7.4 6.9 5.5
Q 6.9 4.95 6.6 4.55 Z"/>
</g>

<g id="IT_300x250_FR_psd_Asset_Awareness_Phase_IT_Decisions_Makers__V7_3_fournisseur_au_Canada___proposer_une_solution_de_Wi_Fi_en_tant__0_Layer0_0_MEMBER_30_FILL">
<path fill="#D82C26" stroke="none" d="
M 10.6 5.75
Q 10.6 5.35 10.45 4.95 10.2 4.5 9.9 4.4 9.55 4.15 9.1 4.15 8.7 4.15 8.3 4.4 7.9 4.7 7.75 4.95 7.55 5.45 7.55 5.8 7.55 6.2 7.75 6.7 8 7.1 8.35 7.3 8.7 7.5 9.15 7.5 9.95 7.5 10.4 7.1
L 10.35 6.8 9.85 7.05
Q 9.55 7.2 9.2 7.2 8.8 7.2 8.55 7 8.25 6.85 8.1 6.55 7.95 6.25 7.95 5.9
L 10.6 5.9 10.6 5.75
M 9.1 4.5
Q 9.6 4.5 9.9 4.8 10.25 5.15 10.25 5.6
L 7.95 5.6
Q 7.95 5.35 8.1 5.1 8.3 4.8 8.5 4.65 8.75 4.5 9.1 4.5 Z"/>
</g>

<g id="IT_300x250_FR_psd_Asset_Awareness_Phase_IT_Decisions_Makers__V7_3_fournisseur_au_Canada___proposer_une_solution_de_Wi_Fi_en_tant__0_Layer0_0_MEMBER_31_FILL">
<path fill="#D82C26" stroke="none" d="
M 12.2 5.05
Q 12.2 5.35 12.45 5.6 12.85 5.85 13.1 5.9
L 13.75 6.2
Q 14 6.35 14 6.6 14 6.9 13.75 7.05 13.6 7.2 13.25 7.2 12.65 7.2 12.25 6.8
L 12.15 7.15 12.65 7.4 13.3 7.5 13.8 7.4
Q 13.95 7.35 14.2 7.1 14.35 6.9 14.35 6.6 14.35 6.2 14.1 6.05 13.85 5.8 13.4 5.65
L 12.75 5.4
Q 12.6 5.25 12.6 5 12.6 4.75 12.8 4.6
L 13.25 4.5
Q 13.6 4.5 13.7 4.6
L 14.1 4.8 14.25 4.5 13.8 4.25 13.25 4.15 12.75 4.25 12.35 4.55
Q 12.2 4.8 12.2 5.05 Z"/>
</g>

<g id="IT_300x250_FR_psd_Asset_Awareness_Phase_IT_Decisions_Makers__V7_3_fournisseur_au_Canada___proposer_une_solution_de_Wi_Fi_en_tant__0_Layer0_0_MEMBER_32_FILL">
<path fill="#D82C26" stroke="none" d="
M 16.45 4.15
Q 16 4.15 15.6 4.4 15.15 4.65 15 5 14.8 5.35 14.8 5.85 14.8 6.35 15 6.7 15.25 7.1 15.6 7.3 15.95 7.5 16.45 7.5 16.95 7.5 17.3 7.3 17.7 7.1 17.9 6.7 18.15 6.3 18.15 5.85 18.15 5.4 17.9 5 17.75 4.65 17.3 4.4 16.9 4.15 16.45 4.15
M 15.2 5.85
Q 15.2 5.45 15.35 5.15 15.5 4.85 15.8 4.7 16.05 4.5 16.45 4.5 16.9 4.5 17.15 4.7 17.45 4.85 17.6 5.15 17.75 5.45 17.75 5.85 17.75 6.2 17.6 6.5 17.45 6.75 17.15 7 16.85 7.15 16.45 7.15 16.1 7.15 15.8 7 15.5 6.75 15.35 6.5 15.2 6.2 15.2 5.85 Z"/>
</g>

<g id="IT_300x250_FR_psd_Asset_Awareness_Phase_IT_Decisions_Makers__V7_3_fournisseur_au_Canada___proposer_une_solution_de_Wi_Fi_en_tant__0_Layer0_0_MEMBER_33_FILL">
<path fill="#D82C26" stroke="none" d="
M 18.95 7.2
Q 19.1 7.4 19.35 7.5
L 19.5 7.15 19.3 6.95 19.25 6.65 19.25 2.3 18.85 2.4 18.85 6.7 18.95 7.2 Z"/>
</g>

<g id="IT_300x250_FR_psd_Asset_Awareness_Phase_IT_Decisions_Makers__V7_3_fournisseur_au_Canada___proposer_une_solution_de_Wi_Fi_en_tant__0_Layer0_0_MEMBER_34_FILL">
<path fill="#D82C26" stroke="none" d="
M 20.5 6.1
L 20.5 4.25 20.1 4.25 20.1 6.2
Q 20.1 6.7 20.4 7.15 20.7 7.5 21.25 7.5 21.7 7.5 21.95 7.3 22.25 7.1 22.4 6.75
L 22.45 7.4 22.85 7.4 22.8 7.05 22.8 4.25 22.4 4.25 22.4 5.85
Q 22.4 6.25 22.25 6.55 22.2 6.8 21.9 7 21.7 7.2 21.35 7.2 20.95 7.2 20.7 6.85 20.5 6.6 20.5 6.1 Z"/>
</g>

<g id="IT_300x250_FR_psd_Asset_Awareness_Phase_IT_Decisions_Makers__V7_3_fournisseur_au_Canada___proposer_une_solution_de_Wi_Fi_en_tant__0_Layer0_0_MEMBER_35_FILL">
<path fill="#D82C26" stroke="none" d="
M 24.25 4.25
L 24.25 3.35 23.85 3.5 23.85 4.25 23.35 4.25 23.3 4.6 23.85 4.6 23.85 6.65
Q 23.85 6.95 24.05 7.25 24.3 7.5 24.6 7.5
L 24.95 7.45 25.25 7.3 25.2 7
Q 25 7.15 24.7 7.15 24.5 7.15 24.4 7 24.25 6.95 24.25 6.6
L 24.25 4.6 25.05 4.6 25.15 4.25 24.25 4.25 Z"/>
</g>

<g id="IT_300x250_FR_psd_Asset_Awareness_Phase_IT_Decisions_Makers__V7_3_fournisseur_au_Canada___proposer_une_solution_de_Wi_Fi_en_tant__0_Layer0_0_MEMBER_36_FILL">
<path fill="#D82C26" stroke="none" d="
M 26.15 4.25
L 25.75 4.25 25.75 7.4 26.15 7.4 26.15 4.25
M 25.75 2.8
Q 25.65 2.85 25.65 3 25.65 3.15 25.75 3.2
L 25.95 3.3 26.1 3.2
Q 26.2 3.15 26.2 3 26.2 2.85 26.1 2.8
L 25.95 2.75 25.75 2.8 Z"/>
</g>

<g id="IT_300x250_FR_psd_Asset_Awareness_Phase_IT_Decisions_Makers__V7_3_fournisseur_au_Canada___proposer_une_solution_de_Wi_Fi_en_tant__0_Layer0_0_MEMBER_37_FILL">
<path fill="#D82C26" stroke="none" d="
M 27.05 5
Q 26.8 5.4 26.8 5.85 26.8 6.3 27.05 6.7 27.2 7.05 27.6 7.3 28 7.5 28.5 7.5 29 7.5 29.35 7.3 29.75 7.1 29.95 6.7 30.15 6.35 30.15 5.85 30.15 5.35 29.95 5 29.8 4.65 29.35 4.4 28.95 4.15 28.5 4.15 28.1 4.15 27.6 4.4 27.15 4.65 27.05 5
M 27.2 5.85
Q 27.2 5.45 27.35 5.15 27.5 4.85 27.8 4.7 28.05 4.5 28.5 4.5 28.9 4.5 29.15 4.7 29.45 4.85 29.6 5.15 29.75 5.45 29.75 5.85 29.75 6.2 29.6 6.5 29.45 6.75 29.15 7 28.85 7.15 28.5 7.15 28.1 7.15 27.8 7 27.5 6.75 27.35 6.5 27.2 6.2 27.2 5.85 Z"/>
</g>

<g id="IT_300x250_FR_psd_Asset_Awareness_Phase_IT_Decisions_Makers__V7_3_fournisseur_au_Canada___proposer_une_solution_de_Wi_Fi_en_tant__0_Layer0_0_MEMBER_38_FILL">
<path fill="#D82C26" stroke="none" d="
M 31.2 4.25
L 30.8 4.25 30.85 7.4 31.25 7.4 31.25 5.8
Q 31.25 5.4 31.4 5.1 31.55 4.8 31.75 4.65 32 4.5 32.3 4.5 32.75 4.5 32.95 4.8 33.15 5.15 33.15 5.6
L 33.15 7.4 33.55 7.4 33.55 5.5
Q 33.55 4.95 33.25 4.55 32.95 4.2 32.35 4.2 31.95 4.2 31.7 4.4 31.35 4.65 31.25 4.95
L 31.2 4.25 Z"/>
</g>

<g id="IT_300x250_FR_psd_Asset_Awareness_Phase_IT_Decisions_Makers__V7_3_fournisseur_au_Canada___proposer_une_solution_de_Wi_Fi_en_tant__0_Layer0_0_MEMBER_39_FILL">
<path fill="#D82C26" stroke="none" d="
M 38.55 2.25
L 38.15 2.35 38.15 4.95
Q 38 4.6 37.65 4.4 37.3 4.2 36.9 4.2 36.4 4.2 36.05 4.4 35.75 4.6 35.5 5 35.3 5.35 35.3 5.85 35.3 6.35 35.5 6.7 35.75 7.1 36.05 7.3 36.4 7.5 36.9 7.5 37.3 7.5 37.65 7.3 38.05 7 38.15 6.75
L 38.2 6.75 38.2 7.4 38.6 7.4 38.55 2.25
M 36.95 4.5
Q 37.35 4.5 37.6 4.7 37.85 4.9 38 5.2 38.2 5.45 38.2 5.85 38.2 6.25 38 6.5
L 37.6 7
Q 37.3 7.15 36.95 7.15 36.55 7.15 36.3 7 36.05 6.85 35.85 6.5 35.7 6.2 35.7 5.85 35.7 5.5 35.85 5.2 36 4.85 36.3 4.7 36.5 4.5 36.95 4.5 Z"/>
</g>

<g id="IT_300x250_FR_psd_Asset_Awareness_Phase_IT_Decisions_Makers__V7_3_fournisseur_au_Canada___proposer_une_solution_de_Wi_Fi_en_tant__0_Layer0_0_MEMBER_40_FILL">
<path fill="#D82C26" stroke="none" d="
M 42.3 5.9
L 42.3 5.75
Q 42.3 5.35 42.15 4.95 41.9 4.5 41.6 4.4 41.25 4.15 40.8 4.15 40.4 4.15 40 4.4 39.6 4.7 39.45 4.95 39.25 5.45 39.25 5.8 39.25 6.2 39.45 6.7 39.7 7.1 40.05 7.3 40.4 7.5 40.85 7.5 41.65 7.5 42.1 7.1
L 42.05 6.8 41.55 7.05
Q 41.25 7.2 40.9 7.2 40.5 7.2 40.25 7 39.95 6.85 39.8 6.55 39.65 6.25 39.65 5.9
L 42.3 5.9
M 41.6 4.8
Q 41.9 5.1 41.95 5.6
L 39.65 5.6
Q 39.65 5.35 39.8 5.1 40 4.8 40.2 4.65 40.45 4.5 40.8 4.5 41.3 4.5 41.6 4.8 Z"/>
</g>

<g id="IT_300x250_FR_psd_Asset_Awareness_Phase_IT_Decisions_Makers__V7_3_fournisseur_au_Canada___proposer_une_solution_de_Wi_Fi_en_tant__0_Layer0_0_MEMBER_41_FILL">
<path fill="#D82C26" stroke="none" d="
M 47 2.65
L 46.5 2.65 45.3 6.9 45.25 6.9 44.05 2.65 43.6 2.65 45.05 7.4 45.5 7.4 46.75 3.2 48 7.4 48.45 7.4 49.85 2.65 49.45 2.65 48.25 6.9 48.2 6.9 47 2.65 Z"/>
</g>

<g id="IT_300x250_FR_psd_Asset_Awareness_Phase_IT_Decisions_Makers__V7_3_fournisseur_au_Canada___proposer_une_solution_de_Wi_Fi_en_tant__0_Layer0_0_MEMBER_42_FILL">
<path fill="#D82C26" stroke="none" d="
M 50.9 3
L 50.8 2.8 50.6 2.75 50.4 2.8 50.3 3 50.4 3.2 50.6 3.3 50.8 3.2 50.9 3
M 50.8 7.4
L 50.8 4.25 50.4 4.25 50.4 7.4 50.8 7.4 Z"/>
</g>

<g id="IT_300x250_FR_psd_Asset_Awareness_Phase_IT_Decisions_Makers__V7_3_fournisseur_au_Canada___proposer_une_solution_de_Wi_Fi_en_tant__0_Layer0_0_MEMBER_43_FILL">
<path fill="#D82C26" stroke="none" d="
M 51.55 5.55
L 51.55 5.9 52.9 5.9 52.9 5.55 51.55 5.55 Z"/>
</g>

<g id="IT_300x250_FR_psd_Asset_Awareness_Phase_IT_Decisions_Makers__V7_3_fournisseur_au_Canada___proposer_une_solution_de_Wi_Fi_en_tant__0_Layer0_0_MEMBER_44_FILL">
<path fill="#D82C26" stroke="none" d="
M 56 5.15
L 56.1 4.8 54.15 4.8 54.15 3.05 56.2 3.05 56.2 2.65 53.75 2.65 53.75 7.4 54.15 7.4 54.15 5.15 56 5.15 Z"/>
</g>

<g id="IT_300x250_FR_psd_Asset_Awareness_Phase_IT_Decisions_Makers__V7_3_fournisseur_au_Canada___proposer_une_solution_de_Wi_Fi_en_tant__0_Layer0_0_MEMBER_45_FILL">
<path fill="#D82C26" stroke="none" d="
M 57.25 4.25
L 56.85 4.25 56.85 7.4 57.25 7.4 57.25 4.25
M 56.85 2.8
L 56.75 3 56.85 3.2 57.05 3.3 57.25 3.2 57.35 3 57.25 2.8 57.05 2.75 56.85 2.8 Z"/>
</g>

<g id="IT_300x250_FR_psd_Asset_Awareness_Phase_IT_Decisions_Makers__V7_3_fournisseur_au_Canada___proposer_une_solution_de_Wi_Fi_en_tant__0_Layer0_0_MEMBER_46_FILL">
<path fill="#D82C26" stroke="none" d="
M 61.95 4.95
Q 61.7 4.5 61.4 4.4 61.05 4.15 60.6 4.15 60.2 4.15 59.8 4.4 59.4 4.7 59.25 4.95 59.05 5.3 59.05 5.8 59.05 6.35 59.25 6.7 59.5 7.1 59.85 7.3 60.1 7.5 60.65 7.5 61.45 7.5 61.9 7.1
L 61.85 6.8 61.35 7.05
Q 61.05 7.2 60.7 7.2 60.3 7.2 60.05 7 59.75 6.85 59.6 6.55 59.45 6.25 59.45 5.9
L 62.1 5.9 62.1 5.75
Q 62.1 5.35 61.95 4.95
M 61.4 4.8
Q 61.7 5.1 61.7 5.6
L 59.45 5.6
Q 59.45 5.35 59.6 5.1 59.8 4.8 60 4.65 60.25 4.5 60.6 4.5 61.1 4.5 61.4 4.8 Z"/>
</g>

<g id="IT_300x250_FR_psd_Asset_Awareness_Phase_IT_Decisions_Makers__V7_3_fournisseur_au_Canada___proposer_une_solution_de_Wi_Fi_en_tant__0_Layer0_0_MEMBER_47_FILL">
<path fill="#D82C26" stroke="none" d="
M 63.15 4.25
L 62.75 4.25 62.8 7.4 63.2 7.4 63.2 5.8 63.3 5.1
Q 63.45 4.85 63.7 4.65 63.95 4.5 64.25 4.5 64.7 4.5 64.9 4.8 65.1 5.3 65.1 5.6
L 65.1 7.4 65.5 7.4 65.5 5.5
Q 65.5 4.95 65.2 4.55 64.9 4.2 64.3 4.2 63.9 4.2 63.65 4.4 63.25 4.65 63.2 4.95
L 63.15 4.95 63.15 4.25 Z"/>
</g>

<g id="IT_300x250_FR_psd_Asset_Awareness_Phase_IT_Decisions_Makers__V7_3_fournisseur_au_Canada___proposer_une_solution_de_Wi_Fi_en_tant__0_Layer0_0_MEMBER_48_FILL">
<path fill="#D82C26" stroke="none" d="
M 67.95 4.25
L 67.95 3.35 67.55 3.5 67.55 4.25 67.05 4.25 66.95 4.6 67.55 4.6 67.55 6.65
Q 67.55 7.05 67.75 7.25 67.9 7.5 68.25 7.5
L 68.65 7.45 68.95 7.3 68.9 7 68.4 7.15
Q 68.2 7.15 68.05 7 67.95 6.95 67.95 6.6
L 67.95 4.6 68.75 4.6 68.8 4.25 67.95 4.25 Z"/>
</g>

<g id="IT_300x250_FR_psd_Asset_Awareness_Phase_IT_Decisions_Makers__V7_3_fournisseur_au_Canada___proposer_une_solution_de_Wi_Fi_en_tant__0_Layer0_0_MEMBER_49_FILL">
<path fill="#D82C26" stroke="none" d="
M 71.4 5.55
L 71.05 5.55
Q 69.25 5.55 69.25 6.55 69.25 7.05 69.55 7.25 69.9 7.5 70.25 7.5 70.7 7.5 70.95 7.3 71.25 7.15 71.4 6.8
L 71.45 6.8 71.45 7.15 71.5 7.4 71.85 7.4 71.8 5.35
Q 71.8 4.8 71.45 4.5 71.15 4.15 70.6 4.15 70.25 4.15 69.95 4.3
L 69.4 4.55 69.5 4.9
Q 69.6 4.8 70 4.6
L 70.5 4.5
Q 70.95 4.5 71.2 4.7 71.4 4.9 71.4 5.35
L 71.4 5.55
M 71.4 5.8
L 71.4 6.1 71.3 6.6
Q 71.15 6.95 70.9 7.05 70.7 7.2 70.3 7.2 70.05 7.2 69.8 7.05 69.6 6.85 69.6 6.55 69.6 5.8 71.1 5.8
L 71.4 5.8 Z"/>
</g>

<g id="IT_300x250_FR_psd_Asset_Awareness_Phase_IT_Decisions_Makers__V7_3_fournisseur_au_Canada___proposer_une_solution_de_Wi_Fi_en_tant__0_Layer0_0_MEMBER_50_FILL">
<path fill="#D82C26" stroke="none" d="
M 73 4.25
L 72.65 4.25 72.65 7.4 73.05 7.4 73.05 5.8
Q 73.05 5.4 73.2 5.1 73.35 4.8 73.55 4.65 73.85 4.5 74.1 4.5 74.6 4.5 74.75 4.8 74.95 5.15 74.95 5.6
L 74.95 7.4 75.35 7.4 75.35 5.5
Q 75.35 4.95 75.05 4.55 74.85 4.2 74.2 4.2 73.75 4.2 73.5 4.4 73.15 4.65 73.05 4.95
L 73 4.25 Z"/>
</g>

<g id="IT_300x250_FR_psd_Asset_Awareness_Phase_IT_Decisions_Makers__V7_3_fournisseur_au_Canada___proposer_une_solution_de_Wi_Fi_en_tant__0_Layer0_0_MEMBER_51_FILL">
<path fill="#D82C26" stroke="none" d="
M 76.3 3.5
L 76.3 4.25 75.8 4.25 75.7 4.6 76.3 4.6 76.3 6.65
Q 76.3 7.05 76.5 7.25 76.65 7.5 77 7.5
L 77.35 7.45 77.7 7.3 77.65 7 77.15 7.15
Q 76.95 7.15 76.8 7 76.7 6.95 76.7 6.6
L 76.7 4.6 77.5 4.6 77.55 4.25 76.7 4.25 76.7 3.35 76.3 3.5 Z"/>
</g>

<g id="IT_300x250_FR_psd_Asset_Awareness_Phase_IT_Decisions_Makers__V7_3_fournisseur_au_Canada___proposer_une_solution_de_Wi_Fi_en_tant__0_Layer0_0_MEMBER_52_FILL">
<path fill="#D82C26" stroke="none" d="
M 1.95 11.6
Q 1.4 11.6 1.15 11.8 0.8 12.05 0.55 12.4 0.4 12.8 0.4 13.25 0.4 13.75 0.55 14.1 0.8 14.5 1.15 14.7 1.4 14.9 1.95 14.9 2.35 14.9 2.7 14.7 3.05 14.55 3.2 14.15
L 3.25 14.15 3.25 15.55
Q 3.25 16.25 3.9 16.45
L 4.1 16.1
Q 3.8 16.05 3.75 15.9 3.65 15.8 3.65 15.5
L 3.65 11.7 3.25 11.7 3.25 12.35
Q 2.95 11.95 2.7 11.8 2.45 11.6 1.95 11.6
M 2 11.9
Q 2.25 11.9 2.65 12.1 2.9 12.25 3.1 12.6 3.25 12.9 3.25 13.25 3.25 13.6 3.1 13.9 2.9 14.25 2.65 14.4 2.4 14.6 2 14.6 1.6 14.6 1.35 14.4 1.05 14.25 0.9 13.95 0.75 13.6 0.75 13.25 0.75 12.9 0.9 12.6 1.1 12.25 1.35 12.1 1.75 11.9 2 11.9 Z"/>
</g>

<g id="IT_300x250_FR_psd_Asset_Awareness_Phase_IT_Decisions_Makers__V7_3_fournisseur_au_Canada___proposer_une_solution_de_Wi_Fi_en_tant__0_Layer0_0_MEMBER_53_FILL">
<path fill="#D82C26" stroke="none" d="
M 4.9 11.7
L 4.5 11.7 4.5 13.6
Q 4.5 14.2 4.8 14.55 5 14.9 5.65 14.9 6.1 14.9 6.35 14.7 6.7 14.45 6.8 14.15
L 6.85 14.85 7.25 14.85 7.2 14.45 7.2 11.7 6.8 11.7 6.8 13.25
Q 6.8 13.65 6.65 13.95 6.5 14.3 6.3 14.45
L 5.75 14.6
Q 5.25 14.6 5.1 14.3 4.9 13.95 4.9 13.5
L 4.9 11.7 Z"/>
</g>

<g id="IT_300x250_FR_psd_Asset_Awareness_Phase_IT_Decisions_Makers__V7_3_fournisseur_au_Canada___proposer_une_solution_de_Wi_Fi_en_tant__0_Layer0_0_MEMBER_54_FILL">
<path fill="#D82C26" stroke="none" d="
M 10.75 12.35
Q 10.65 12.1 10.25 11.8 9.9 11.6 9.45 11.6 9 11.6 8.65 11.8 8.25 12.05 8.1 12.4 7.9 12.75 7.9 13.25 7.9 13.75 8.1 14.1 8.35 14.5 8.65 14.7 9 14.9 9.5 14.9 10.25 14.9 10.75 14.55
L 10.7 14.2 10.15 14.5 9.55 14.6
Q 9.1 14.6 8.9 14.4 8.6 14.25 8.45 13.95 8.25 13.55 8.25 13.3
L 10.95 13.3 10.95 13.15
Q 10.95 12.7 10.75 12.35
M 8.8 12.05
Q 9.1 11.9 9.45 11.9 9.95 11.9 10.25 12.2 10.55 12.5 10.55 13
L 8.25 13 8.4 12.5 8.8 12.05 Z"/>
</g>

<g id="IT_300x250_FR_psd_Asset_Awareness_Phase_IT_Decisions_Makers__V7_3_fournisseur_au_Canada___proposer_une_solution_de_Wi_Fi_en_tant__0_Layer0_0_MEMBER_55_FILL">
<path fill="#D82C26" stroke="none" d="
M 13.1 11.7
Q 12.85 11.8 12.7 12 12.55 12.15 12.55 12.45 12.55 12.8 12.75 13 12.95 13.2 13.45 13.35
L 14.1 13.65
Q 14.3 13.8 14.3 14 14.3 14.3 14.1 14.45 13.9 14.6 13.6 14.6 12.95 14.6 12.55 14.2
L 12.5 14.55
Q 12.7 14.75 12.95 14.8 13.15 14.9 13.6 14.9 13.95 14.9 14.15 14.8 14.4 14.7 14.55 14.5 14.7 14.3 14.7 14 14.7 13.7 14.45 13.45 14.25 13.25 13.7 13.1
L 13.1 12.8
Q 12.9 12.65 12.9 12.45 12.9 12.25 13.1 12.05 13.35 11.9 13.6 11.9
L 14.05 12 14.4 12.2 14.6 11.9 14.15 11.7
Q 13.95 11.6 13.6 11.6 13.25 11.6 13.1 11.7 Z"/>
</g>

<g id="IT_300x250_FR_psd_Asset_Awareness_Phase_IT_Decisions_Makers__V7_3_fournisseur_au_Canada___proposer_une_solution_de_Wi_Fi_en_tant__0_Layer0_0_MEMBER_56_FILL">
<path fill="#D82C26" stroke="none" d="
M 16.65 11.6
Q 16.15 11.6 15.9 11.8 15.55 12.05 15.3 12.4 15.1 12.9 15.1 13.25 15.1 13.7 15.35 14.1 15.5 14.45 15.9 14.7 16.25 14.9 16.75 14.9 17.5 14.9 18 14.55
L 17.9 14.2 17.4 14.5 16.75 14.6
Q 16.35 14.6 16.1 14.4 15.8 14.25 15.65 13.95 15.5 13.65 15.5 13.3
L 18.15 13.3 18.15 13.15
Q 18.15 12.75 18 12.35 17.9 12.1 17.5 11.8 17.15 11.6 16.65 11.6
M 16.65 11.9
Q 17.2 11.9 17.5 12.2 17.8 12.5 17.8 13
L 15.5 13 15.65 12.5 16.05 12.05
Q 16.35 11.9 16.65 11.9 Z"/>
</g>

<g id="IT_300x250_FR_psd_Asset_Awareness_Phase_IT_Decisions_Makers__V7_3_fournisseur_au_Canada___proposer_une_solution_de_Wi_Fi_en_tant__0_Layer0_0_MEMBER_57_FILL">
<path fill="#D82C26" stroke="none" d="
M 20.4 12
L 20.5 11.65 20.15 11.6
Q 19.85 11.6 19.6 11.8 19.3 12.1 19.25 12.35
L 19.2 11.7 18.8 11.7 18.85 14.85 19.25 14.85 19.25 13.25
Q 19.25 12.75 19.5 12.35 19.7 11.95 20.15 11.95
L 20.4 12 Z"/>
</g>

<g id="IT_300x250_FR_psd_Asset_Awareness_Phase_IT_Decisions_Makers__V7_3_fournisseur_au_Canada___proposer_une_solution_de_Wi_Fi_en_tant__0_Layer0_0_MEMBER_58_FILL">
<path fill="#D82C26" stroke="none" d="
M 20.6 11.7
L 21.8 14.85 22.25 14.85 23.45 11.7 23.05 11.7 22.05 14.45 21.05 11.7 20.6 11.7 Z"/>
</g>

<g id="IT_300x250_FR_psd_Asset_Awareness_Phase_IT_Decisions_Makers__V7_3_fournisseur_au_Canada___proposer_une_solution_de_Wi_Fi_en_tant__0_Layer0_0_MEMBER_59_FILL">
<path fill="#D82C26" stroke="none" d="
M 24.3 11.7
L 23.9 11.7 23.9 14.85 24.3 14.85 24.3 11.7
M 24.1 10.7
L 24.3 10.65 24.4 10.45 24.3 10.25
Q 24.25 10.15 24.1 10.15 23.95 10.15 23.9 10.25
L 23.8 10.45 23.9 10.65 24.1 10.7 Z"/>
</g>

<g id="IT_300x250_FR_psd_Asset_Awareness_Phase_IT_Decisions_Makers__V7_3_fournisseur_au_Canada___proposer_une_solution_de_Wi_Fi_en_tant__0_Layer0_0_MEMBER_60_FILL">
<path fill="#D82C26" stroke="none" d="
M 26.65 11.6
Q 26.15 11.6 25.8 11.8 25.45 12.05 25.2 12.4 25 12.75 25 13.25 25 13.75 25.2 14.1 25.4 14.45 25.75 14.7 26.1 14.9 26.6 14.9 27.05 14.9 27.2 14.8
L 27.7 14.55 27.65 14.2 27.2 14.5 26.65 14.6
Q 26.4 14.6 26 14.4 25.75 14.25 25.55 13.9 25.4 13.6 25.4 13.25 25.4 12.9 25.55 12.6 25.75 12.25 26 12.1 26.3 11.9 26.65 11.9
L 27.15 12 27.55 12.25 27.7 11.95 27.25 11.7
Q 27.05 11.6 26.65 11.6 Z"/>
</g>

<g id="IT_300x250_FR_psd_Asset_Awareness_Phase_IT_Decisions_Makers__V7_3_fournisseur_au_Canada___proposer_une_solution_de_Wi_Fi_en_tant__0_Layer0_0_MEMBER_61_FILL">
<path fill="#D82C26" stroke="none" d="
M 29.55 11.6
Q 29 11.6 28.75 11.8 28.4 12.05 28.15 12.4 27.95 12.9 27.95 13.25 27.95 13.7 28.2 14.1 28.35 14.45 28.75 14.7 29.1 14.9 29.6 14.9 30.35 14.9 30.85 14.55
L 30.75 14.2 30.25 14.5 29.6 14.6
Q 29.2 14.6 28.95 14.4
L 28.5 13.95
Q 28.35 13.65 28.35 13.3
L 31 13.3 31 13.15
Q 31 12.75 30.85 12.35 30.75 12.1 30.35 11.8 30 11.6 29.55 11.6
M 29.55 11.9
Q 30.05 11.9 30.35 12.2 30.65 12.5 30.65 13
L 28.35 13 28.5 12.5 28.9 12.05
Q 29.2 11.9 29.55 11.9 Z"/>
</g>

<g id="IT_300x250_FR_psd_Asset_Awareness_Phase_IT_Decisions_Makers__V7_3_fournisseur_au_Canada___proposer_une_solution_de_Wi_Fi_en_tant__0_Layer0_0_MEMBER_62_FILL">
<path fill="#D82C26" stroke="none" d="
M 34.15 11.6
Q 33.7 11.6 33.35 11.8 32.95 12.05 32.8 12.4 32.6 12.75 32.6 13.25 32.6 13.75 32.8 14.1 32.95 14.45 33.35 14.7 33.7 14.9 34.2 14.9 34.95 14.9 35.45 14.55
L 35.35 14.2 34.85 14.5 34.2 14.6
Q 33.8 14.6 33.55 14.4 33.3 14.25 33.15 13.95 32.95 13.7 32.95 13.3
L 35.6 13.3 35.65 13.15
Q 35.65 12.85 35.45 12.35 35.35 12.1 34.95 11.8 34.6 11.6 34.15 11.6
M 34.15 11.9
Q 34.65 11.9 34.95 12.2 35.25 12.5 35.25 13
L 32.95 13 33.1 12.5 33.5 12.05
Q 33.8 11.9 34.15 11.9 Z"/>
</g>

<g id="IT_300x250_FR_psd_Asset_Awareness_Phase_IT_Decisions_Makers__V7_3_fournisseur_au_Canada___proposer_une_solution_de_Wi_Fi_en_tant__0_Layer0_0_MEMBER_63_FILL">
<path fill="#D82C26" stroke="none" d="
M 36.65 11.7
L 36.3 11.7 36.3 14.85 36.7 14.85 36.7 13.2
Q 36.7 12.8 36.85 12.55 37 12.2 37.25 12.1 37.45 11.9 37.75 11.9 38.25 11.9 38.4 12.25 38.6 12.5 38.6 13
L 38.6 14.85 39 14.85 39 12.9
Q 39 12.35 38.75 11.95 38.45 11.6 37.85 11.6 37.4 11.6 37.15 11.8 36.85 12 36.7 12.35
L 36.65 11.7 Z"/>
</g>

<g id="IT_300x250_FR_psd_Asset_Awareness_Phase_IT_Decisions_Makers__V7_3_fournisseur_au_Canada___proposer_une_solution_de_Wi_Fi_en_tant__0_Layer0_0_MEMBER_64_FILL">
<path fill="#D82C26" stroke="none" d="
M 41.15 12
L 41.25 11.7 40.35 11.7 40.35 10.8 39.95 10.95 39.95 11.7 39.45 11.7 39.35 12 39.95 12 39.95 14.05
Q 39.95 14.5 40.15 14.7 40.45 14.9 40.7 14.9
L 41.05 14.85 41.35 14.75 41.3 14.45
Q 41.1 14.55 40.8 14.55 40.55 14.55 40.45 14.45
L 40.35 14 40.35 12 41.15 12 Z"/>
</g>

<g id="IT_300x250_FR_psd_Asset_Awareness_Phase_IT_Decisions_Makers__V7_3_fournisseur_au_Canada___proposer_une_solution_de_Wi_Fi_en_tant__0_Layer0_0_MEMBER_65_FILL">
<path fill="#D82C26" stroke="none" d="
M 42.2 11.7
L 41.8 11.7 41.8 14.85 42.2 14.85 42.2 11.7
M 42 10.7
L 42.2 10.65 42.3 10.45 42.2 10.25
Q 42.15 10.15 42 10.15 41.85 10.15 41.8 10.25
L 41.75 10.45 41.8 10.65 42 10.7 Z"/>
</g>

<g id="IT_300x250_FR_psd_Asset_Awareness_Phase_IT_Decisions_Makers__V7_3_fournisseur_au_Canada___proposer_une_solution_de_Wi_Fi_en_tant__0_Layer0_0_MEMBER_66_FILL">
<path fill="#D82C26" stroke="none" d="
M 44.45 11.05
L 44.8 11.05 44.1 10.05 43.65 10.05 44.45 11.05
M 45.25 11.8
Q 45 11.6 44.45 11.6 44 11.6 43.65 11.8 43.3 12.05 43.1 12.4 42.9 12.9 42.9 13.25 42.9 13.6 43.1 14.1 43.35 14.5 43.7 14.7 44.05 14.9 44.5 14.9 45.25 14.9 45.75 14.55
L 45.7 14.2 45.2 14.5 44.55 14.6
Q 44.15 14.6 43.9 14.4 43.6 14.25 43.45 13.95 43.3 13.65 43.3 13.3
L 45.95 13.3 45.95 13.15
Q 45.95 12.75 45.8 12.35 45.6 12 45.25 11.8
M 43.85 12.05
Q 44.1 11.9 44.45 11.9 44.95 11.9 45.25 12.2 45.6 12.55 45.6 13
L 43.3 13 43.45 12.5
Q 43.65 12.2 43.85 12.05 Z"/>
</g>

<g id="IT_300x250_FR_psd_Asset_Awareness_Phase_IT_Decisions_Makers__V7_3_fournisseur_au_Canada___proposer_une_solution_de_Wi_Fi_en_tant__0_Layer0_0_MEMBER_67_FILL">
<path fill="#D82C26" stroke="none" d="
M 47 11.7
L 46.6 11.7 46.65 14.85 47.05 14.85 47.05 13.25
Q 47.05 12.65 47.3 12.35 47.5 11.95 47.95 11.95
L 48.2 12 48.3 11.65 47.95 11.6
Q 47.65 11.6 47.4 11.8 47.1 12.1 47.05 12.35
L 47 12.35 47 11.7 Z"/>
</g>

<g id="IT_300x250_FR_psd_Asset_Awareness_Phase_IT_Decisions_Makers__V7_3_fournisseur_au_Canada___proposer_une_solution_de_Wi_Fi_en_tant__0_Layer0_0_MEMBER_68_FILL">
<path fill="#D82C26" stroke="none" d="
M 51.25 12.35
Q 51.05 12.05 50.75 11.8 50.4 11.6 49.9 11.6 49.4 11.6 49.15 11.8 48.8 12.05 48.55 12.4 48.35 12.9 48.35 13.25 48.35 13.6 48.55 14.1 48.8 14.5 49.15 14.7 49.5 14.9 49.95 14.9 50.75 14.9 51.25 14.55
L 51.15 14.2 50.65 14.5 50 14.6
Q 49.6 14.6 49.35 14.4 49.05 14.25 48.9 13.95 48.75 13.65 48.75 13.3
L 51.4 13.3 51.4 13.15
Q 51.4 12.75 51.25 12.35
M 49.3 12.05
Q 49.55 11.9 49.9 11.9 50.4 11.9 50.7 12.2 51.05 12.55 51.05 13
L 48.75 13 48.9 12.5 49.3 12.05 Z"/>
</g>

<g id="IT_300x250_FR_psd_Asset_Awareness_Phase_IT_Decisions_Makers__V7_3_fournisseur_au_Canada___proposer_une_solution_de_Wi_Fi_en_tant__0_Layer0_0_MEMBER_69_FILL">
<path fill="#D82C26" stroke="none" d="
M 52.45 11.7
L 52.1 11.7 52.1 14.85 52.5 14.85 52.5 13.25
Q 52.5 12.85 52.65 12.55 52.7 12.3 53 12.1 53.3 11.9 53.5 11.9 53.9 11.9 54.1 12.2 54.3 12.6 54.3 12.95
L 54.3 14.85 54.65 14.85 54.65 13.2
Q 54.65 12.6 54.95 12.3 55.25 11.9 55.65 11.9 56.05 11.9 56.3 12.25 56.5 12.5 56.5 13.05
L 56.5 14.85 56.9 14.85 56.9 12.95
Q 56.9 12.4 56.6 12 56.4 11.6 55.75 11.6 55.3 11.6 55.05 11.8 54.75 12.05 54.6 12.4 54.55 12.1 54.25 11.8 54 11.6 53.6 11.6 53.15 11.6 52.9 11.8
L 52.5 12.35 52.45 11.7 Z"/>
</g>

<g id="IT_300x250_FR_psd_Asset_Awareness_Phase_IT_Decisions_Makers__V7_3_fournisseur_au_Canada___proposer_une_solution_de_Wi_Fi_en_tant__0_Layer0_0_MEMBER_70_FILL">
<path fill="#D82C26" stroke="none" d="
M 59.1 11.6
Q 58.65 11.6 58.3 11.8 57.95 12.05 57.75 12.4 57.55 12.75 57.55 13.25 57.55 13.75 57.75 14.1 58 14.5 58.35 14.7 58.7 14.9 59.15 14.9 59.9 14.9 60.4 14.55
L 60.35 14.2 59.85 14.5 59.2 14.6
Q 58.8 14.6 58.55 14.4 58.25 14.25 58.1 13.95 57.95 13.65 57.95 13.3
L 60.6 13.3 60.6 13.15
Q 60.6 12.75 60.45 12.35 60.25 12 59.9 11.8 59.65 11.6 59.1 11.6
M 59.1 11.9
Q 59.6 11.9 59.9 12.2 60.15 12.45 60.25 13
L 57.95 13 58.1 12.5
Q 58.3 12.2 58.5 12.05 58.75 11.9 59.1 11.9 Z"/>
</g>

<g id="IT_300x250_FR_psd_Asset_Awareness_Phase_IT_Decisions_Makers__V7_3_fournisseur_au_Canada___proposer_une_solution_de_Wi_Fi_en_tant__0_Layer0_0_MEMBER_71_FILL">
<path fill="#D82C26" stroke="none" d="
M 61.65 11.7
L 61.25 11.7 61.3 14.85 61.7 14.85 61.7 13.2
Q 61.7 12.8 61.85 12.55 61.9 12.3 62.2 12.1 62.4 11.9 62.75 11.9 63.15 11.9 63.4 12.25 63.6 12.5 63.6 13
L 63.6 14.85 64 14.85 64 12.9
Q 64 12.35 63.7 11.95 63.4 11.6 62.8 11.6 62.4 11.6 62.15 11.8 61.85 12 61.7 12.35
L 61.65 12.35 61.65 11.7 Z"/>
</g>

<g id="IT_300x250_FR_psd_Asset_Awareness_Phase_IT_Decisions_Makers__V7_3_fournisseur_au_Canada___proposer_une_solution_de_Wi_Fi_en_tant__0_Layer0_0_MEMBER_72_FILL">
<path fill="#D82C26" stroke="none" d="
M 65.3 11.7
L 65.3 10.8 64.9 10.95 64.9 11.7 64.4 11.7 64.35 12 64.95 12 64.95 14.05
Q 64.95 14.5 65.15 14.7 65.35 14.9 65.65 14.9
L 66 14.85 66.35 14.75 66.3 14.45
Q 66.1 14.55 65.75 14.55 65.5 14.55 65.45 14.45 65.3 14.3 65.3 14
L 65.3 12 66.15 12 66.2 11.7 65.3 11.7 Z"/>
</g>

<g id="IT_300x250_FR_psd_Asset_Awareness_Phase_IT_Decisions_Makers__V7_3_fournisseur_au_Canada___proposer_une_solution_de_Wi_Fi_en_tant__0_Layer0_0_MEMBER_73_FILL">
<path fill="#D82C26" stroke="none" d="
M 69.15 11.6
Q 68.7 11.6 68.35 11.8 68.05 12 67.8 12.4 67.6 12.75 67.6 13.25 67.6 13.75 67.8 14.1 68.05 14.55 68.35 14.65 68.75 14.9 69.15 14.9 69.5 14.9 69.9 14.7 70.3 14.45 70.45 14.1
L 70.45 14.8
Q 70.45 15.45 70.15 15.8 69.8 16.15 69.15 16.15
L 68.5 16.05 67.85 15.75 67.8 16.1 68.45 16.35
Q 68.75 16.5 69.2 16.5 69.95 16.5 70.45 16 70.85 15.5 70.85 14.8
L 70.85 11.7 70.5 11.7 70.45 12.4
Q 70.3 12.05 69.9 11.8 69.65 11.6 69.15 11.6
M 69.25 11.9
Q 69.55 11.9 69.85 12.1 70.1 12.25 70.3 12.6 70.45 12.9 70.45 13.25 70.45 13.6 70.3 13.9 70.15 14.15 69.85 14.4 69.65 14.55 69.25 14.55 68.85 14.55 68.6 14.4 68.3 14.15 68.15 13.9 68 13.6 68 13.25 68 12.9 68.15 12.6 68.35 12.25 68.6 12.1 68.9 11.9 69.25 11.9 Z"/>
</g>

<g id="IT_300x250_FR_psd_Asset_Awareness_Phase_IT_Decisions_Makers__V7_3_fournisseur_au_Canada___proposer_une_solution_de_Wi_Fi_en_tant__0_Layer0_0_MEMBER_74_FILL">
<path fill="#D82C26" stroke="none" d="
M 73.1 11.6
Q 72.65 11.6 72.3 11.8 72 12 71.75 12.4 71.55 12.75 71.55 13.25 71.55 13.75 71.75 14.1 71.95 14.45 72.3 14.7 72.65 14.9 73.15 14.9 73.9 14.9 74.4 14.55
L 74.35 14.2 73.85 14.5 73.2 14.6
Q 72.8 14.6 72.55 14.4 72.25 14.25 72.1 13.95
L 71.9 13.3 74.6 13.3 74.6 13.15
Q 74.6 12.7 74.4 12.35 74.25 12 73.9 11.8 73.65 11.6 73.1 11.6
M 72.5 12.05
Q 72.75 11.9 73.1 11.9 73.6 11.9 73.9 12.2 74.2 12.5 74.2 13
L 71.95 13 72.1 12.5
Q 72.15 12.3 72.5 12.05
M 72.8 11.05
L 73.15 11.05 73.95 10.05 73.5 10.05 72.8 11.05 Z"/>
</g>

<g id="IT_300x250_FR_psd_Asset_Awareness_Phase_IT_Decisions_Makers__V7_3_fournisseur_au_Canada___proposer_une_solution_de_Wi_Fi_en_tant__0_Layer0_0_MEMBER_75_FILL">
<path fill="#D82C26" stroke="none" d="
M 75.6 11.7
L 75.25 11.7 75.25 14.85 75.65 14.85 75.65 13.25
Q 75.65 12.75 75.9 12.35 76.1 11.95 76.55 11.95
L 76.85 12 76.9 11.65 76.6 11.6
Q 76.25 11.6 76.05 11.8 75.8 12 75.65 12.35
L 75.6 11.7 Z"/>
</g>

<g id="IT_300x250_FR_psd_Asset_Awareness_Phase_IT_Decisions_Makers__V7_3_fournisseur_au_Canada___proposer_une_solution_de_Wi_Fi_en_tant__0_Layer0_0_MEMBER_76_FILL">
<path fill="#D82C26" stroke="none" d="
M 79.35 11.8
Q 79.1 11.6 78.55 11.6 78.1 11.6 77.75 11.8 77.45 12 77.2 12.4 77 12.75 77 13.25 77 13.75 77.2 14.1 77.4 14.45 77.75 14.7 78.1 14.9 78.6 14.9 79.35 14.9 79.85 14.55
L 79.8 14.2 79.3 14.5 78.65 14.6
Q 78.25 14.6 78 14.4 77.7 14.25 77.55 13.95
L 77.35 13.3 80.05 13.3 80.05 13.15
Q 80.05 12.7 79.85 12.35 79.7 12 79.35 11.8
M 78.55 11.9
Q 79.05 11.9 79.35 12.2 79.65 12.5 79.65 13
L 77.4 13 77.55 12.5
Q 77.6 12.3 77.95 12.05 78.2 11.9 78.55 11.9
M 79.4 10.05
L 78.95 10.05 78.25 11.05 78.6 11.05 79.4 10.05 Z"/>
</g>

<g id="IT_300x250_FR_psd_Asset_Awareness_Phase_IT_Decisions_Makers__V7_3_fournisseur_au_Canada___proposer_une_solution_de_Wi_Fi_en_tant__0_Layer0_0_MEMBER_77_FILL">
<path fill="#D82C26" stroke="none" d="
M 81.2 14.55
L 81.1 14.35 80.9 14.25 80.7 14.35 80.6 14.55 80.7 14.8 80.9 14.85 81.1 14.8 81.2 14.55 Z"/>
</g>
</defs>

<g transform="matrix( 1, 0, 0, 1, -66,7) ">
<g transform="matrix( 1, 0, 0, 1, 61,10) ">
<g transform="matrix( 1, 0, 0, 1, 27,6) ">
<g transform="matrix( 2.815704345703125, 0, 0, 2.832611083984375, 0.15,14.6) ">
<use xlink:href="#IT_300x250_FR_psd_Asset_Awareness_Phase_IT_Decisions_Makers__V7_3_fournisseur_au_Canada___proposer_une_solution_de_Wi_Fi_en_tant__0_Layer0_0_MEMBER_0_FILL"/>
</g>

<g transform="matrix( 2.815704345703125, 0, 0, 2.832611083984375, 0.15,14.6) ">
<use xlink:href="#IT_300x250_FR_psd_Asset_Awareness_Phase_IT_Decisions_Makers__V7_3_fournisseur_au_Canada___proposer_une_solution_de_Wi_Fi_en_tant__0_Layer0_0_MEMBER_1_FILL"/>
</g>

<g transform="matrix( 2.815704345703125, 0, 0, 2.832611083984375, 0.15,14.6) ">
<use xlink:href="#IT_300x250_FR_psd_Asset_Awareness_Phase_IT_Decisions_Makers__V7_3_fournisseur_au_Canada___proposer_une_solution_de_Wi_Fi_en_tant__0_Layer0_0_MEMBER_2_FILL"/>
</g>

<g transform="matrix( 2.815704345703125, 0, 0, 2.832611083984375, 0.15,14.6) ">
<use xlink:href="#IT_300x250_FR_psd_Asset_Awareness_Phase_IT_Decisions_Makers__V7_3_fournisseur_au_Canada___proposer_une_solution_de_Wi_Fi_en_tant__0_Layer0_0_MEMBER_3_FILL"/>
</g>

<g transform="matrix( 2.815704345703125, 0, 0, 2.832611083984375, 0.15,14.6) ">
<use xlink:href="#IT_300x250_FR_psd_Asset_Awareness_Phase_IT_Decisions_Makers__V7_3_fournisseur_au_Canada___proposer_une_solution_de_Wi_Fi_en_tant__0_Layer0_0_MEMBER_4_FILL"/>
</g>

<g transform="matrix( 2.815704345703125, 0, 0, 2.832611083984375, 0.15,14.6) ">
<use xlink:href="#IT_300x250_FR_psd_Asset_Awareness_Phase_IT_Decisions_Makers__V7_3_fournisseur_au_Canada___proposer_une_solution_de_Wi_Fi_en_tant__0_Layer0_0_MEMBER_5_FILL"/>
</g>

<g transform="matrix( 2.815704345703125, 0, 0, 2.832611083984375, 0.15,14.6) ">
<use xlink:href="#IT_300x250_FR_psd_Asset_Awareness_Phase_IT_Decisions_Makers__V7_3_fournisseur_au_Canada___proposer_une_solution_de_Wi_Fi_en_tant__0_Layer0_0_MEMBER_6_FILL"/>
</g>

<g transform="matrix( 2.815704345703125, 0, 0, 2.832611083984375, 0.15,14.6) ">
<use xlink:href="#IT_300x250_FR_psd_Asset_Awareness_Phase_IT_Decisions_Makers__V7_3_fournisseur_au_Canada___proposer_une_solution_de_Wi_Fi_en_tant__0_Layer0_0_MEMBER_7_FILL"/>
</g>

<g transform="matrix( 2.815704345703125, 0, 0, 2.832611083984375, 0.15,14.6) ">
<use xlink:href="#IT_300x250_FR_psd_Asset_Awareness_Phase_IT_Decisions_Makers__V7_3_fournisseur_au_Canada___proposer_une_solution_de_Wi_Fi_en_tant__0_Layer0_0_MEMBER_8_FILL"/>
</g>

<g transform="matrix( 2.815704345703125, 0, 0, 2.832611083984375, 0.15,14.6) ">
<use xlink:href="#IT_300x250_FR_psd_Asset_Awareness_Phase_IT_Decisions_Makers__V7_3_fournisseur_au_Canada___proposer_une_solution_de_Wi_Fi_en_tant__0_Layer0_0_MEMBER_9_FILL"/>
</g>

<g transform="matrix( 2.815704345703125, 0, 0, 2.832611083984375, 0.15,14.6) ">
<use xlink:href="#IT_300x250_FR_psd_Asset_Awareness_Phase_IT_Decisions_Makers__V7_3_fournisseur_au_Canada___proposer_une_solution_de_Wi_Fi_en_tant__0_Layer0_0_MEMBER_10_FILL"/>
</g>

<g transform="matrix( 2.815704345703125, 0, 0, 2.832611083984375, 0.15,14.6) ">
<use xlink:href="#IT_300x250_FR_psd_Asset_Awareness_Phase_IT_Decisions_Makers__V7_3_fournisseur_au_Canada___proposer_une_solution_de_Wi_Fi_en_tant__0_Layer0_0_MEMBER_11_FILL"/>
</g>

<g transform="matrix( 2.815704345703125, 0, 0, 2.832611083984375, 0.15,14.6) ">
<use xlink:href="#IT_300x250_FR_psd_Asset_Awareness_Phase_IT_Decisions_Makers__V7_3_fournisseur_au_Canada___proposer_une_solution_de_Wi_Fi_en_tant__0_Layer0_0_MEMBER_12_FILL"/>
</g>

<g transform="matrix( 2.815704345703125, 0, 0, 2.832611083984375, 0.15,14.6) ">
<use xlink:href="#IT_300x250_FR_psd_Asset_Awareness_Phase_IT_Decisions_Makers__V7_3_fournisseur_au_Canada___proposer_une_solution_de_Wi_Fi_en_tant__0_Layer0_0_MEMBER_13_FILL"/>
</g>

<g transform="matrix( 2.815704345703125, 0, 0, 2.832611083984375, 0.15,14.6) ">
<use xlink:href="#IT_300x250_FR_psd_Asset_Awareness_Phase_IT_Decisions_Makers__V7_3_fournisseur_au_Canada___proposer_une_solution_de_Wi_Fi_en_tant__0_Layer0_0_MEMBER_14_FILL"/>
</g>

<g transform="matrix( 2.815704345703125, 0, 0, 2.832611083984375, 0.15,14.6) ">
<use xlink:href="#IT_300x250_FR_psd_Asset_Awareness_Phase_IT_Decisions_Makers__V7_3_fournisseur_au_Canada___proposer_une_solution_de_Wi_Fi_en_tant__0_Layer0_0_MEMBER_15_FILL"/>
</g>

<g transform="matrix( 2.815704345703125, 0, 0, 2.832611083984375, 0.15,14.6) ">
<use xlink:href="#IT_300x250_FR_psd_Asset_Awareness_Phase_IT_Decisions_Makers__V7_3_fournisseur_au_Canada___proposer_une_solution_de_Wi_Fi_en_tant__0_Layer0_0_MEMBER_16_FILL"/>
</g>

<g transform="matrix( 2.815704345703125, 0, 0, 2.832611083984375, 0.15,14.6) ">
<use xlink:href="#IT_300x250_FR_psd_Asset_Awareness_Phase_IT_Decisions_Makers__V7_3_fournisseur_au_Canada___proposer_une_solution_de_Wi_Fi_en_tant__0_Layer0_0_MEMBER_17_FILL"/>
</g>

<g transform="matrix( 2.815704345703125, 0, 0, 2.832611083984375, 0.15,14.6) ">
<use xlink:href="#IT_300x250_FR_psd_Asset_Awareness_Phase_IT_Decisions_Makers__V7_3_fournisseur_au_Canada___proposer_une_solution_de_Wi_Fi_en_tant__0_Layer0_0_MEMBER_18_FILL"/>
</g>

<g transform="matrix( 2.815704345703125, 0, 0, 2.832611083984375, 0.15,14.6) ">
<use xlink:href="#IT_300x250_FR_psd_Asset_Awareness_Phase_IT_Decisions_Makers__V7_3_fournisseur_au_Canada___proposer_une_solution_de_Wi_Fi_en_tant__0_Layer0_0_MEMBER_19_FILL"/>
</g>

<g transform="matrix( 2.815704345703125, 0, 0, 2.832611083984375, 0.15,14.6) ">
<use xlink:href="#IT_300x250_FR_psd_Asset_Awareness_Phase_IT_Decisions_Makers__V7_3_fournisseur_au_Canada___proposer_une_solution_de_Wi_Fi_en_tant__0_Layer0_0_MEMBER_20_FILL"/>
</g>

<g transform="matrix( 2.815704345703125, 0, 0, 2.832611083984375, 0.15,14.6) ">
<use xlink:href="#IT_300x250_FR_psd_Asset_Awareness_Phase_IT_Decisions_Makers__V7_3_fournisseur_au_Canada___proposer_une_solution_de_Wi_Fi_en_tant__0_Layer0_0_MEMBER_21_FILL"/>
</g>

<g transform="matrix( 2.815704345703125, 0, 0, 2.832611083984375, 0.15,14.6) ">
<use xlink:href="#IT_300x250_FR_psd_Asset_Awareness_Phase_IT_Decisions_Makers__V7_3_fournisseur_au_Canada___proposer_une_solution_de_Wi_Fi_en_tant__0_Layer0_0_MEMBER_22_FILL"/>
</g>

<g transform="matrix( 2.815704345703125, 0, 0, 2.832611083984375, 0.15,14.6) ">
<use xlink:href="#IT_300x250_FR_psd_Asset_Awareness_Phase_IT_Decisions_Makers__V7_3_fournisseur_au_Canada___proposer_une_solution_de_Wi_Fi_en_tant__0_Layer0_0_MEMBER_23_FILL"/>
</g>

<g transform="matrix( 2.815704345703125, 0, 0, 2.832611083984375, 0.15,14.6) ">
<use xlink:href="#IT_300x250_FR_psd_Asset_Awareness_Phase_IT_Decisions_Makers__V7_3_fournisseur_au_Canada___proposer_une_solution_de_Wi_Fi_en_tant__0_Layer0_0_MEMBER_24_FILL"/>
</g>

<g transform="matrix( 2.815704345703125, 0, 0, 2.832611083984375, 0.15,14.6) ">
<use xlink:href="#IT_300x250_FR_psd_Asset_Awareness_Phase_IT_Decisions_Makers__V7_3_fournisseur_au_Canada___proposer_une_solution_de_Wi_Fi_en_tant__0_Layer0_0_MEMBER_25_FILL"/>
</g>

<g transform="matrix( 2.815704345703125, 0, 0, 2.832611083984375, 0.15,14.6) ">
<use xlink:href="#IT_300x250_FR_psd_Asset_Awareness_Phase_IT_Decisions_Makers__V7_3_fournisseur_au_Canada___proposer_une_solution_de_Wi_Fi_en_tant__0_Layer0_0_MEMBER_26_FILL"/>
</g>

<g transform="matrix( 2.815704345703125, 0, 0, 2.832611083984375, 0.15,14.6) ">
<use xlink:href="#IT_300x250_FR_psd_Asset_Awareness_Phase_IT_Decisions_Makers__V7_3_fournisseur_au_Canada___proposer_une_solution_de_Wi_Fi_en_tant__0_Layer0_0_MEMBER_27_FILL"/>
</g>

<g transform="matrix( 2.815704345703125, 0, 0, 2.832611083984375, 0.15,14.6) ">
<use xlink:href="#IT_300x250_FR_psd_Asset_Awareness_Phase_IT_Decisions_Makers__V7_3_fournisseur_au_Canada___proposer_une_solution_de_Wi_Fi_en_tant__0_Layer0_0_MEMBER_28_FILL"/>
</g>

<g transform="matrix( 2.815704345703125, 0, 0, 2.832611083984375, 0.15,14.6) ">
<use xlink:href="#IT_300x250_FR_psd_Asset_Awareness_Phase_IT_Decisions_Makers__V7_3_fournisseur_au_Canada___proposer_une_solution_de_Wi_Fi_en_tant__0_Layer0_0_MEMBER_29_FILL"/>
</g>

<g transform="matrix( 2.815704345703125, 0, 0, 2.832611083984375, 0.15,14.6) ">
<use xlink:href="#IT_300x250_FR_psd_Asset_Awareness_Phase_IT_Decisions_Makers__V7_3_fournisseur_au_Canada___proposer_une_solution_de_Wi_Fi_en_tant__0_Layer0_0_MEMBER_30_FILL"/>
</g>

<g transform="matrix( 2.815704345703125, 0, 0, 2.832611083984375, 0.15,14.6) ">
<use xlink:href="#IT_300x250_FR_psd_Asset_Awareness_Phase_IT_Decisions_Makers__V7_3_fournisseur_au_Canada___proposer_une_solution_de_Wi_Fi_en_tant__0_Layer0_0_MEMBER_31_FILL"/>
</g>

<g transform="matrix( 2.815704345703125, 0, 0, 2.832611083984375, 0.15,14.6) ">
<use xlink:href="#IT_300x250_FR_psd_Asset_Awareness_Phase_IT_Decisions_Makers__V7_3_fournisseur_au_Canada___proposer_une_solution_de_Wi_Fi_en_tant__0_Layer0_0_MEMBER_32_FILL"/>
</g>

<g transform="matrix( 2.815704345703125, 0, 0, 2.832611083984375, 0.15,14.6) ">
<use xlink:href="#IT_300x250_FR_psd_Asset_Awareness_Phase_IT_Decisions_Makers__V7_3_fournisseur_au_Canada___proposer_une_solution_de_Wi_Fi_en_tant__0_Layer0_0_MEMBER_33_FILL"/>
</g>

<g transform="matrix( 2.815704345703125, 0, 0, 2.832611083984375, 0.15,14.6) ">
<use xlink:href="#IT_300x250_FR_psd_Asset_Awareness_Phase_IT_Decisions_Makers__V7_3_fournisseur_au_Canada___proposer_une_solution_de_Wi_Fi_en_tant__0_Layer0_0_MEMBER_34_FILL"/>
</g>

<g transform="matrix( 2.815704345703125, 0, 0, 2.832611083984375, 0.15,14.6) ">
<use xlink:href="#IT_300x250_FR_psd_Asset_Awareness_Phase_IT_Decisions_Makers__V7_3_fournisseur_au_Canada___proposer_une_solution_de_Wi_Fi_en_tant__0_Layer0_0_MEMBER_35_FILL"/>
</g>

<g transform="matrix( 2.815704345703125, 0, 0, 2.832611083984375, 0.15,14.6) ">
<use xlink:href="#IT_300x250_FR_psd_Asset_Awareness_Phase_IT_Decisions_Makers__V7_3_fournisseur_au_Canada___proposer_une_solution_de_Wi_Fi_en_tant__0_Layer0_0_MEMBER_36_FILL"/>
</g>

<g transform="matrix( 2.815704345703125, 0, 0, 2.832611083984375, 0.15,14.6) ">
<use xlink:href="#IT_300x250_FR_psd_Asset_Awareness_Phase_IT_Decisions_Makers__V7_3_fournisseur_au_Canada___proposer_une_solution_de_Wi_Fi_en_tant__0_Layer0_0_MEMBER_37_FILL"/>
</g>

<g transform="matrix( 2.815704345703125, 0, 0, 2.832611083984375, 0.15,14.6) ">
<use xlink:href="#IT_300x250_FR_psd_Asset_Awareness_Phase_IT_Decisions_Makers__V7_3_fournisseur_au_Canada___proposer_une_solution_de_Wi_Fi_en_tant__0_Layer0_0_MEMBER_38_FILL"/>
</g>

<g transform="matrix( 2.815704345703125, 0, 0, 2.832611083984375, 0.15,14.6) ">
<use xlink:href="#IT_300x250_FR_psd_Asset_Awareness_Phase_IT_Decisions_Makers__V7_3_fournisseur_au_Canada___proposer_une_solution_de_Wi_Fi_en_tant__0_Layer0_0_MEMBER_39_FILL"/>
</g>

<g transform="matrix( 2.815704345703125, 0, 0, 2.832611083984375, 0.15,14.6) ">
<use xlink:href="#IT_300x250_FR_psd_Asset_Awareness_Phase_IT_Decisions_Makers__V7_3_fournisseur_au_Canada___proposer_une_solution_de_Wi_Fi_en_tant__0_Layer0_0_MEMBER_40_FILL"/>
</g>

<g transform="matrix( 2.815704345703125, 0, 0, 2.832611083984375, 0.15,14.6) ">
<use xlink:href="#IT_300x250_FR_psd_Asset_Awareness_Phase_IT_Decisions_Makers__V7_3_fournisseur_au_Canada___proposer_une_solution_de_Wi_Fi_en_tant__0_Layer0_0_MEMBER_41_FILL"/>
</g>

<g transform="matrix( 2.815704345703125, 0, 0, 2.832611083984375, 0.15,14.6) ">
<use xlink:href="#IT_300x250_FR_psd_Asset_Awareness_Phase_IT_Decisions_Makers__V7_3_fournisseur_au_Canada___proposer_une_solution_de_Wi_Fi_en_tant__0_Layer0_0_MEMBER_42_FILL"/>
</g>

<g transform="matrix( 2.815704345703125, 0, 0, 2.832611083984375, 0.15,14.6) ">
<use xlink:href="#IT_300x250_FR_psd_Asset_Awareness_Phase_IT_Decisions_Makers__V7_3_fournisseur_au_Canada___proposer_une_solution_de_Wi_Fi_en_tant__0_Layer0_0_MEMBER_43_FILL"/>
</g>

<g transform="matrix( 2.815704345703125, 0, 0, 2.832611083984375, 0.15,14.6) ">
<use xlink:href="#IT_300x250_FR_psd_Asset_Awareness_Phase_IT_Decisions_Makers__V7_3_fournisseur_au_Canada___proposer_une_solution_de_Wi_Fi_en_tant__0_Layer0_0_MEMBER_44_FILL"/>
</g>

<g transform="matrix( 2.815704345703125, 0, 0, 2.832611083984375, 0.15,14.6) ">
<use xlink:href="#IT_300x250_FR_psd_Asset_Awareness_Phase_IT_Decisions_Makers__V7_3_fournisseur_au_Canada___proposer_une_solution_de_Wi_Fi_en_tant__0_Layer0_0_MEMBER_45_FILL"/>
</g>

<g transform="matrix( 2.815704345703125, 0, 0, 2.832611083984375, 0.15,14.6) ">
<use xlink:href="#IT_300x250_FR_psd_Asset_Awareness_Phase_IT_Decisions_Makers__V7_3_fournisseur_au_Canada___proposer_une_solution_de_Wi_Fi_en_tant__0_Layer0_0_MEMBER_46_FILL"/>
</g>

<g transform="matrix( 2.815704345703125, 0, 0, 2.832611083984375, 0.15,14.6) ">
<use xlink:href="#IT_300x250_FR_psd_Asset_Awareness_Phase_IT_Decisions_Makers__V7_3_fournisseur_au_Canada___proposer_une_solution_de_Wi_Fi_en_tant__0_Layer0_0_MEMBER_47_FILL"/>
</g>

<g transform="matrix( 2.815704345703125, 0, 0, 2.832611083984375, 0.15,14.6) ">
<use xlink:href="#IT_300x250_FR_psd_Asset_Awareness_Phase_IT_Decisions_Makers__V7_3_fournisseur_au_Canada___proposer_une_solution_de_Wi_Fi_en_tant__0_Layer0_0_MEMBER_48_FILL"/>
</g>

<g transform="matrix( 2.815704345703125, 0, 0, 2.832611083984375, 0.15,14.6) ">
<use xlink:href="#IT_300x250_FR_psd_Asset_Awareness_Phase_IT_Decisions_Makers__V7_3_fournisseur_au_Canada___proposer_une_solution_de_Wi_Fi_en_tant__0_Layer0_0_MEMBER_49_FILL"/>
</g>

<g transform="matrix( 2.815704345703125, 0, 0, 2.832611083984375, 0.15,14.6) ">
<use xlink:href="#IT_300x250_FR_psd_Asset_Awareness_Phase_IT_Decisions_Makers__V7_3_fournisseur_au_Canada___proposer_une_solution_de_Wi_Fi_en_tant__0_Layer0_0_MEMBER_50_FILL"/>
</g>

<g transform="matrix( 2.815704345703125, 0, 0, 2.832611083984375, 0.15,14.6) ">
<use xlink:href="#IT_300x250_FR_psd_Asset_Awareness_Phase_IT_Decisions_Makers__V7_3_fournisseur_au_Canada___proposer_une_solution_de_Wi_Fi_en_tant__0_Layer0_0_MEMBER_51_FILL"/>
</g>

<g transform="matrix( 2.815704345703125, 0, 0, 2.832611083984375, 0.15,14.6) ">
<use xlink:href="#IT_300x250_FR_psd_Asset_Awareness_Phase_IT_Decisions_Makers__V7_3_fournisseur_au_Canada___proposer_une_solution_de_Wi_Fi_en_tant__0_Layer0_0_MEMBER_52_FILL"/>
</g>

<g transform="matrix( 2.815704345703125, 0, 0, 2.832611083984375, 0.15,14.6) ">
<use xlink:href="#IT_300x250_FR_psd_Asset_Awareness_Phase_IT_Decisions_Makers__V7_3_fournisseur_au_Canada___proposer_une_solution_de_Wi_Fi_en_tant__0_Layer0_0_MEMBER_53_FILL"/>
</g>

<g transform="matrix( 2.815704345703125, 0, 0, 2.832611083984375, 0.15,14.6) ">
<use xlink:href="#IT_300x250_FR_psd_Asset_Awareness_Phase_IT_Decisions_Makers__V7_3_fournisseur_au_Canada___proposer_une_solution_de_Wi_Fi_en_tant__0_Layer0_0_MEMBER_54_FILL"/>
</g>

<g transform="matrix( 2.815704345703125, 0, 0, 2.832611083984375, 0.15,14.6) ">
<use xlink:href="#IT_300x250_FR_psd_Asset_Awareness_Phase_IT_Decisions_Makers__V7_3_fournisseur_au_Canada___proposer_une_solution_de_Wi_Fi_en_tant__0_Layer0_0_MEMBER_55_FILL"/>
</g>

<g transform="matrix( 2.815704345703125, 0, 0, 2.832611083984375, 0.15,14.6) ">
<use xlink:href="#IT_300x250_FR_psd_Asset_Awareness_Phase_IT_Decisions_Makers__V7_3_fournisseur_au_Canada___proposer_une_solution_de_Wi_Fi_en_tant__0_Layer0_0_MEMBER_56_FILL"/>
</g>

<g transform="matrix( 2.815704345703125, 0, 0, 2.832611083984375, 0.15,14.6) ">
<use xlink:href="#IT_300x250_FR_psd_Asset_Awareness_Phase_IT_Decisions_Makers__V7_3_fournisseur_au_Canada___proposer_une_solution_de_Wi_Fi_en_tant__0_Layer0_0_MEMBER_57_FILL"/>
</g>

<g transform="matrix( 2.815704345703125, 0, 0, 2.832611083984375, 0.15,14.6) ">
<use xlink:href="#IT_300x250_FR_psd_Asset_Awareness_Phase_IT_Decisions_Makers__V7_3_fournisseur_au_Canada___proposer_une_solution_de_Wi_Fi_en_tant__0_Layer0_0_MEMBER_58_FILL"/>
</g>

<g transform="matrix( 2.815704345703125, 0, 0, 2.832611083984375, 0.15,14.6) ">
<use xlink:href="#IT_300x250_FR_psd_Asset_Awareness_Phase_IT_Decisions_Makers__V7_3_fournisseur_au_Canada___proposer_une_solution_de_Wi_Fi_en_tant__0_Layer0_0_MEMBER_59_FILL"/>
</g>

<g transform="matrix( 2.815704345703125, 0, 0, 2.832611083984375, 0.15,14.6) ">
<use xlink:href="#IT_300x250_FR_psd_Asset_Awareness_Phase_IT_Decisions_Makers__V7_3_fournisseur_au_Canada___proposer_une_solution_de_Wi_Fi_en_tant__0_Layer0_0_MEMBER_60_FILL"/>
</g>

<g transform="matrix( 2.815704345703125, 0, 0, 2.832611083984375, 0.15,14.6) ">
<use xlink:href="#IT_300x250_FR_psd_Asset_Awareness_Phase_IT_Decisions_Makers__V7_3_fournisseur_au_Canada___proposer_une_solution_de_Wi_Fi_en_tant__0_Layer0_0_MEMBER_61_FILL"/>
</g>

<g transform="matrix( 2.815704345703125, 0, 0, 2.832611083984375, 0.15,14.6) ">
<use xlink:href="#IT_300x250_FR_psd_Asset_Awareness_Phase_IT_Decisions_Makers__V7_3_fournisseur_au_Canada___proposer_une_solution_de_Wi_Fi_en_tant__0_Layer0_0_MEMBER_62_FILL"/>
</g>

<g transform="matrix( 2.815704345703125, 0, 0, 2.832611083984375, 0.15,14.6) ">
<use xlink:href="#IT_300x250_FR_psd_Asset_Awareness_Phase_IT_Decisions_Makers__V7_3_fournisseur_au_Canada___proposer_une_solution_de_Wi_Fi_en_tant__0_Layer0_0_MEMBER_63_FILL"/>
</g>

<g transform="matrix( 2.815704345703125, 0, 0, 2.832611083984375, 0.15,14.6) ">
<use xlink:href="#IT_300x250_FR_psd_Asset_Awareness_Phase_IT_Decisions_Makers__V7_3_fournisseur_au_Canada___proposer_une_solution_de_Wi_Fi_en_tant__0_Layer0_0_MEMBER_64_FILL"/>
</g>

<g transform="matrix( 2.815704345703125, 0, 0, 2.832611083984375, 0.15,14.6) ">
<use xlink:href="#IT_300x250_FR_psd_Asset_Awareness_Phase_IT_Decisions_Makers__V7_3_fournisseur_au_Canada___proposer_une_solution_de_Wi_Fi_en_tant__0_Layer0_0_MEMBER_65_FILL"/>
</g>

<g transform="matrix( 2.815704345703125, 0, 0, 2.832611083984375, 0.15,14.6) ">
<use xlink:href="#IT_300x250_FR_psd_Asset_Awareness_Phase_IT_Decisions_Makers__V7_3_fournisseur_au_Canada___proposer_une_solution_de_Wi_Fi_en_tant__0_Layer0_0_MEMBER_66_FILL"/>
</g>

<g transform="matrix( 2.815704345703125, 0, 0, 2.832611083984375, 0.15,14.6) ">
<use xlink:href="#IT_300x250_FR_psd_Asset_Awareness_Phase_IT_Decisions_Makers__V7_3_fournisseur_au_Canada___proposer_une_solution_de_Wi_Fi_en_tant__0_Layer0_0_MEMBER_67_FILL"/>
</g>

<g transform="matrix( 2.815704345703125, 0, 0, 2.832611083984375, 0.15,14.6) ">
<use xlink:href="#IT_300x250_FR_psd_Asset_Awareness_Phase_IT_Decisions_Makers__V7_3_fournisseur_au_Canada___proposer_une_solution_de_Wi_Fi_en_tant__0_Layer0_0_MEMBER_68_FILL"/>
</g>

<g transform="matrix( 2.815704345703125, 0, 0, 2.832611083984375, 0.15,14.6) ">
<use xlink:href="#IT_300x250_FR_psd_Asset_Awareness_Phase_IT_Decisions_Makers__V7_3_fournisseur_au_Canada___proposer_une_solution_de_Wi_Fi_en_tant__0_Layer0_0_MEMBER_69_FILL"/>
</g>

<g transform="matrix( 2.815704345703125, 0, 0, 2.832611083984375, 0.15,14.6) ">
<use xlink:href="#IT_300x250_FR_psd_Asset_Awareness_Phase_IT_Decisions_Makers__V7_3_fournisseur_au_Canada___proposer_une_solution_de_Wi_Fi_en_tant__0_Layer0_0_MEMBER_70_FILL"/>
</g>

<g transform="matrix( 2.815704345703125, 0, 0, 2.832611083984375, 0.15,14.6) ">
<use xlink:href="#IT_300x250_FR_psd_Asset_Awareness_Phase_IT_Decisions_Makers__V7_3_fournisseur_au_Canada___proposer_une_solution_de_Wi_Fi_en_tant__0_Layer0_0_MEMBER_71_FILL"/>
</g>

<g transform="matrix( 2.815704345703125, 0, 0, 2.832611083984375, 0.15,14.6) ">
<use xlink:href="#IT_300x250_FR_psd_Asset_Awareness_Phase_IT_Decisions_Makers__V7_3_fournisseur_au_Canada___proposer_une_solution_de_Wi_Fi_en_tant__0_Layer0_0_MEMBER_72_FILL"/>
</g>

<g transform="matrix( 2.815704345703125, 0, 0, 2.832611083984375, 0.15,14.6) ">
<use xlink:href="#IT_300x250_FR_psd_Asset_Awareness_Phase_IT_Decisions_Makers__V7_3_fournisseur_au_Canada___proposer_une_solution_de_Wi_Fi_en_tant__0_Layer0_0_MEMBER_73_FILL"/>
</g>

<g transform="matrix( 2.815704345703125, 0, 0, 2.832611083984375, 0.15,14.6) ">
<use xlink:href="#IT_300x250_FR_psd_Asset_Awareness_Phase_IT_Decisions_Makers__V7_3_fournisseur_au_Canada___proposer_une_solution_de_Wi_Fi_en_tant__0_Layer0_0_MEMBER_74_FILL"/>
</g>

<g transform="matrix( 2.815704345703125, 0, 0, 2.832611083984375, 0.15,14.6) ">
<use xlink:href="#IT_300x250_FR_psd_Asset_Awareness_Phase_IT_Decisions_Makers__V7_3_fournisseur_au_Canada___proposer_une_solution_de_Wi_Fi_en_tant__0_Layer0_0_MEMBER_75_FILL"/>
</g>

<g transform="matrix( 2.815704345703125, 0, 0, 2.832611083984375, 0.15,14.6) ">
<use xlink:href="#IT_300x250_FR_psd_Asset_Awareness_Phase_IT_Decisions_Makers__V7_3_fournisseur_au_Canada___proposer_une_solution_de_Wi_Fi_en_tant__0_Layer0_0_MEMBER_76_FILL"/>
</g>

<g transform="matrix( 2.815704345703125, 0, 0, 2.832611083984375, 0.15,14.6) ">
<use xlink:href="#IT_300x250_FR_psd_Asset_Awareness_Phase_IT_Decisions_Makers__V7_3_fournisseur_au_Canada___proposer_une_solution_de_Wi_Fi_en_tant__0_Layer0_0_MEMBER_77_FILL"/>
</g>
</g>
</g>
</g>
</svg>
