
<svg xmlns="http://www.w3.org/2000/svg" version="1.1" xmlns:xlink="http://www.w3.org/1999/xlink" preserveAspectRatio="none" x="0px" y="0px" width="300px" height="250px" viewBox="0 0 300 250">
<defs>
<g id="BDM_300x250_FR_psd_Asset_7_V8_1_Vous_tentez_d_accro_tre_la__fid_lisation___la_marque__0_Layer0_0_MEMBER_0_FILL">
<path fill="#D82C26" stroke="none" d="
M 0.65 -6
L 0.05 -6 2.35 0 2.9 0 5.2 -6 4.65 -6 2.65 -0.6 0.65 -6 Z"/>
</g>

<g id="BDM_300x250_FR_psd_Asset_7_V8_1_Vous_tentez_d_accro_tre_la__fid_lisation___la_marque__0_Layer0_0_MEMBER_1_FILL">
<path fill="#D82C26" stroke="none" d="
M 9.15 -3.1
Q 8.85 -3.55 8.35 -3.85 7.85 -4.1 7.3 -4.1 6.7 -4.1 6.2 -3.85 5.75 -3.55 5.45 -3.1 5.2 -2.65 5.2 -2 5.2 -1.35 5.45 -0.9 5.75 -0.45 6.2 -0.15 6.6 0.1 7.3 0.1 8 0.1 8.35 -0.15 8.85 -0.45 9.15 -0.9 9.4 -1.5 9.4 -2 9.4 -2.5 9.15 -3.1
M 6.45 -3.45
Q 6.8 -3.65 7.3 -3.65 7.8 -3.65 8.15 -3.45 8.45 -3.25 8.7 -2.85 8.9 -2.5 8.9 -2 8.9 -1.5 8.7 -1.15 8.55 -0.8 8.15 -0.55 7.75 -0.3 7.3 -0.3 6.85 -0.3 6.45 -0.55 6.1 -0.75 5.85 -1.15 5.7 -1.5 5.7 -2 5.7 -2.45 5.85 -2.85 6.1 -3.2 6.45 -3.45 Z"/>
</g>

<g id="BDM_300x250_FR_psd_Asset_7_V8_1_Vous_tentez_d_accro_tre_la__fid_lisation___la_marque__0_Layer0_0_MEMBER_2_FILL">
<path fill="#D82C26" stroke="none" d="
M 13.75 -3.95
L 13.25 -3.95 13.25 -2
Q 13.25 -1.45 13.1 -1.1 13 -0.8 12.6 -0.5 12.35 -0.3 11.95 -0.3 11.35 -0.3 11.1 -0.7 10.85 -1.1 10.85 -1.7
L 10.85 -3.95 10.35 -3.95 10.35 -1.55
Q 10.35 -0.95 10.7 -0.35 11.1 0.1 11.8 0.1 12.3 0.1 12.7 -0.15 13.15 -0.5 13.25 -0.85
L 13.35 0 13.85 0 13.75 -0.9 13.75 -3.95 Z"/>
</g>

<g id="BDM_300x250_FR_psd_Asset_7_V8_1_Vous_tentez_d_accro_tre_la__fid_lisation___la_marque__0_Layer0_0_MEMBER_3_FILL">
<path fill="#D82C26" stroke="none" d="
M 14.85 -0.75
L 14.75 -0.35
Q 14.95 -0.15 15.35 0
L 16.15 0.1 16.85 0 17.35 -0.4
Q 17.5 -0.7 17.5 -1.05 17.5 -1.45 17.2 -1.75 16.75 -2.1 16.3 -2.2
L 15.5 -2.55
Q 15.3 -2.7 15.3 -3 15.3 -3.35 15.55 -3.5 15.75 -3.7 16.15 -3.7
L 16.7 -3.6 17.2 -3.3 17.4 -3.65
Q 17.2 -3.85 16.85 -3.95 16.5 -4.1 16.15 -4.1 15.8 -4.1 15.5 -3.95 15.3 -3.9 15 -3.6 14.8 -3.3 14.8 -3 14.8 -2.5 15.1 -2.3 15.5 -2 15.95 -1.9 16.6 -1.65 16.8 -1.5 17.05 -1.35 17.05 -1.05 17.05 -0.65 16.8 -0.5 16.55 -0.3 16.15 -0.3 15.4 -0.3 14.85 -0.75 Z"/>
</g>

<g id="BDM_300x250_FR_psd_Asset_7_V8_1_Vous_tentez_d_accro_tre_la__fid_lisation___la_marque__0_Layer0_0_MEMBER_4_FILL">
<path fill="#D82C26" stroke="none" d="
M 19.6 -3.95
L 19.5 -3.6 20.25 -3.6 20.25 -0.95
Q 20.25 -0.4 20.5 -0.2 20.75 0.1 21.15 0.1
L 21.6 0.05 22 -0.15 21.95 -0.5
Q 21.45 -0.3 21.3 -0.3 21.1 -0.3 20.9 -0.5 20.7 -0.65 20.7 -1.05
L 20.7 -3.6 21.75 -3.6 21.85 -3.95 20.7 -3.95 20.7 -5.1 20.2 -4.9 20.2 -3.95 19.6 -3.95 Z"/>
</g>

<g id="BDM_300x250_FR_psd_Asset_7_V8_1_Vous_tentez_d_accro_tre_la__fid_lisation___la_marque__0_Layer0_0_MEMBER_5_FILL">
<path fill="#D82C26" stroke="none" d="
M 25.3 -3.85
Q 24.8 -4.1 24.3 -4.1 23.8 -4.1 23.3 -3.85 22.85 -3.55 22.55 -3.1 22.3 -2.5 22.3 -2 22.3 -1.4 22.6 -0.9 22.8 -0.45 23.3 -0.15 23.7 0.1 24.35 0.1 25.3 0.1 25.95 -0.4
L 25.85 -0.8 25.2 -0.45
Q 24.85 -0.3 24.4 -0.3 23.9 -0.3 23.55 -0.5 23.2 -0.75 23 -1.1 22.8 -1.45 22.8 -1.9
L 26.15 -1.9 26.15 -2.15
Q 26.15 -2.7 25.95 -3.1 25.7 -3.55 25.3 -3.85
M 24.3 -3.7
Q 24.9 -3.7 25.3 -3.3 25.7 -2.9 25.7 -2.3
L 22.8 -2.3
Q 22.8 -2.5 23 -2.9 23.15 -3.2 23.5 -3.5 23.75 -3.7 24.3 -3.7 Z"/>
</g>

<g id="BDM_300x250_FR_psd_Asset_7_V8_1_Vous_tentez_d_accro_tre_la__fid_lisation___la_marque__0_Layer0_0_MEMBER_6_FILL">
<path fill="#D82C26" stroke="none" d="
M 29.1 -4.1
Q 28.65 -4.1 28.25 -3.8 27.9 -3.65 27.65 -3.1
L 27.6 -3.95 27.15 -3.95 27.15 0 27.65 0 27.65 -2
Q 27.65 -2.4 27.85 -2.9 28 -3.3 28.35 -3.45 28.6 -3.65 29 -3.65 29.6 -3.65 29.85 -3.25 30.05 -2.9 30.05 -2.3
L 30.05 0 30.55 0 30.55 -2.4
Q 30.55 -3.2 30.2 -3.6 29.85 -4.1 29.1 -4.1 Z"/>
</g>

<g id="BDM_300x250_FR_psd_Asset_7_V8_1_Vous_tentez_d_accro_tre_la__fid_lisation___la_marque__0_Layer0_0_MEMBER_7_FILL">
<path fill="#D82C26" stroke="none" d="
M 33.4 -3.6
L 33.5 -3.95 32.4 -3.95 32.4 -5.1 31.9 -4.9 31.9 -3.95 31.25 -3.95 31.15 -3.6 31.9 -3.6 31.9 -0.95
Q 31.9 -0.4 32.15 -0.2 32.4 0.1 32.8 0.1
L 33.25 0.05 33.65 -0.15 33.6 -0.5
Q 33.1 -0.3 32.95 -0.3 32.75 -0.3 32.55 -0.5 32.4 -0.65 32.4 -1.05
L 32.4 -3.6 33.4 -3.6 Z"/>
</g>

<g id="BDM_300x250_FR_psd_Asset_7_V8_1_Vous_tentez_d_accro_tre_la__fid_lisation___la_marque__0_Layer0_0_MEMBER_8_FILL">
<path fill="#D82C26" stroke="none" d="
M 34.25 -0.9
Q 34.45 -0.45 34.95 -0.15 35.35 0.1 36 0.1 36.95 0.1 37.6 -0.4
L 37.5 -0.8
Q 37.35 -0.65 36.85 -0.45 36.5 -0.3 36.05 -0.3 35.6 -0.3 35.25 -0.5 34.9 -0.7 34.65 -1.1 34.45 -1.6 34.45 -1.9
L 37.8 -1.9 37.85 -2.15
Q 37.85 -2.6 37.6 -3.1 37.35 -3.55 36.95 -3.85 36.55 -4.1 35.95 -4.1 35.45 -4.1 34.95 -3.85 34.45 -3.5 34.25 -3.1 34 -2.65 34 -2 34 -1.35 34.25 -0.9
M 34.65 -2.9
Q 34.9 -3.3 35.15 -3.5 35.5 -3.7 35.95 -3.7 36.55 -3.7 36.95 -3.3 37.35 -2.9 37.35 -2.3
L 34.45 -2.3 34.65 -2.9 Z"/>
</g>

<g id="BDM_300x250_FR_psd_Asset_7_V8_1_Vous_tentez_d_accro_tre_la__fid_lisation___la_marque__0_Layer0_0_MEMBER_9_FILL">
<path fill="#D82C26" stroke="none" d="
M 38.55 -3.95
L 38.45 -3.6 40.85 -3.6 38.4 -0.4 38.4 0 41.5 0 41.6 -0.4 39 -0.4 41.45 -3.6 41.45 -3.95 38.55 -3.95 Z"/>
</g>

<g id="BDM_300x250_FR_psd_Asset_7_V8_1_Vous_tentez_d_accro_tre_la__fid_lisation___la_marque__0_Layer0_0_MEMBER_10_FILL">
<path fill="#D82C26" stroke="none" d="
M 47.9 -6.5
L 47.4 -6.4 47.4 -3.1
Q 47.15 -3.55 46.75 -3.85 46.25 -4.1 45.8 -4.1 45.2 -4.1 44.75 -3.8 44.25 -3.45 44.05 -3.05 43.8 -2.55 43.8 -2 43.8 -1.5 44.05 -0.9 44.25 -0.45 44.75 -0.15 45.25 0.1 45.8 0.1 46.4 0.1 46.75 -0.15 47.15 -0.35 47.4 -0.85
L 47.45 -0.85 47.5 0 47.95 0 47.9 -6.5
M 44.5 -2.85
Q 44.65 -3.2 45.05 -3.45 45.3 -3.65 45.85 -3.65 46.4 -3.65 46.65 -3.45 47.05 -3.2 47.25 -2.85 47.45 -2.25 47.45 -2 47.45 -1.65 47.25 -1.15 47.05 -0.75 46.65 -0.55 46.3 -0.3 45.85 -0.3 45.4 -0.3 45.05 -0.55 44.65 -0.8 44.5 -1.15 44.3 -1.5 44.3 -2 44.3 -2.45 44.5 -2.85 Z"/>
</g>

<g id="BDM_300x250_FR_psd_Asset_7_V8_1_Vous_tentez_d_accro_tre_la__fid_lisation___la_marque__0_Layer0_0_MEMBER_11_FILL">
<path fill="#D82C26" stroke="none" d="
M 49.95 -5.85
Q 49.9 -6 49.7 -6 49.6 -6 49.4 -5.9
L 49.3 -5.6 49.4 -5.35 49.65 -5.25
Q 49.65 -5 49.45 -4.7
L 49.1 -4.2 49.3 -4.1
Q 50.05 -4.75 50.05 -5.5
L 49.95 -5.85 Z"/>
</g>

<g id="BDM_300x250_FR_psd_Asset_7_V8_1_Vous_tentez_d_accro_tre_la__fid_lisation___la_marque__0_Layer0_0_MEMBER_12_FILL">
<path fill="#D82C26" stroke="none" d="
M 52.05 -3.7
Q 52.55 -3.7 52.85 -3.4 53.15 -3.15 53.15 -2.6
L 53.15 -2.4 52.7 -2.4
Q 50.4 -2.4 50.4 -1.05 50.4 -0.5 50.8 -0.2 51.2 0.1 51.65 0.1 52.2 0.1 52.55 -0.1 53 -0.3 53.15 -0.75
L 53.2 -0.75 53.2 -0.35 53.25 0 53.7 0 53.65 -2.6
Q 53.65 -3.3 53.2 -3.7 52.8 -4.1 52.1 -4.1 51.7 -4.1 51.3 -3.95 50.8 -3.75 50.65 -3.6
L 50.75 -3.2 51.35 -3.55
Q 51.75 -3.7 52.05 -3.7
M 52.75 -2.05
L 53.15 -2.05 53.15 -1.65
Q 53.15 -1.3 53 -1 52.85 -0.65 52.55 -0.45 52.05 -0.25 51.75 -0.25 51.45 -0.25 51.15 -0.45 50.9 -0.65 50.9 -1.1 50.9 -2.05 52.75 -2.05 Z"/>
</g>

<g id="BDM_300x250_FR_psd_Asset_7_V8_1_Vous_tentez_d_accro_tre_la__fid_lisation___la_marque__0_Layer0_0_MEMBER_13_FILL">
<path fill="#D82C26" stroke="none" d="
M 54.85 -0.9
Q 55.1 -0.5 55.6 -0.15 56 0.1 56.65 0.1
L 57.45 0 58.05 -0.35 57.95 -0.8
Q 57.65 -0.5 57.4 -0.45 57.1 -0.3 56.7 -0.3 56.25 -0.3 55.85 -0.55 55.55 -0.75 55.3 -1.15 55.1 -1.65 55.1 -2 55.1 -2.25 55.3 -2.85 55.55 -3.25 55.85 -3.45 56.2 -3.65 56.7 -3.65 57.1 -3.65 57.3 -3.55 57.55 -3.5 57.8 -3.25
L 58.05 -3.6
Q 57.85 -3.8 57.45 -3.95
L 56.7 -4.1
Q 56.15 -4.1 55.6 -3.8 55.15 -3.55 54.85 -3.05 54.6 -2.55 54.6 -2 54.6 -1.4 54.85 -0.9 Z"/>
</g>

<g id="BDM_300x250_FR_psd_Asset_7_V8_1_Vous_tentez_d_accro_tre_la__fid_lisation___la_marque__0_Layer0_0_MEMBER_14_FILL">
<path fill="#D82C26" stroke="none" d="
M 59.75 -3.45
Q 60.1 -3.65 60.6 -3.65 61 -3.65 61.2 -3.55 61.35 -3.5 61.75 -3.25
L 61.95 -3.6
Q 61.75 -3.8 61.35 -3.95
L 60.6 -4.1
Q 60.05 -4.1 59.5 -3.8 59 -3.55 58.8 -3.05 58.5 -2.6 58.5 -2 58.5 -1.4 58.75 -0.9 59 -0.5 59.5 -0.15 59.9 0.1 60.55 0.1
L 61.35 0
Q 61.75 -0.15 61.95 -0.35
L 61.85 -0.8
Q 61.55 -0.5 61.3 -0.45 61 -0.3 60.6 -0.3 60.15 -0.3 59.8 -0.55 59.45 -0.75 59.2 -1.15 59 -1.65 59 -2 59 -2.25 59.2 -2.85 59.4 -3.2 59.75 -3.45 Z"/>
</g>

<g id="BDM_300x250_FR_psd_Asset_7_V8_1_Vous_tentez_d_accro_tre_la__fid_lisation___la_marque__0_Layer0_0_MEMBER_15_FILL">
<path fill="#D82C26" stroke="none" d="
M 64.4 -4.1
Q 64.1 -4.1 63.7 -3.85 63.4 -3.55 63.25 -3.1
L 63.2 -3.95 62.7 -3.95 62.75 0 63.25 0 63.25 -1.95
Q 63.25 -2.7 63.55 -3.15 63.85 -3.65 64.35 -3.65
L 64.75 -3.6 64.85 -4 64.4 -4.1 Z"/>
</g>

<g id="BDM_300x250_FR_psd_Asset_7_V8_1_Vous_tentez_d_accro_tre_la__fid_lisation___la_marque__0_Layer0_0_MEMBER_16_FILL">
<path fill="#D82C26" stroke="none" d="
M 65.3 -3.1
Q 65.05 -2.5 65.05 -2 65.05 -1.5 65.3 -0.9 65.6 -0.45 66.05 -0.15 66.5 0.1 67.15 0.1 67.8 0.1 68.25 -0.15 68.7 -0.45 69 -0.9 69.25 -1.5 69.25 -2 69.25 -2.5 69 -3.1 68.7 -3.55 68.25 -3.85 67.65 -4.1 67.15 -4.1 66.65 -4.1 66.05 -3.85 65.6 -3.55 65.3 -3.1
M 65.55 -2
Q 65.55 -2.5 65.75 -2.85 65.9 -3.2 66.3 -3.45 66.65 -3.65 67.15 -3.65 67.65 -3.65 68 -3.45 68.4 -3.2 68.55 -2.85 68.75 -2.5 68.75 -2 68.75 -1.5 68.55 -1.15 68.4 -0.8 68 -0.55 67.6 -0.3 67.15 -0.3 66.7 -0.3 66.3 -0.55 65.9 -0.8 65.75 -1.15 65.55 -1.5 65.55 -2 Z"/>
</g>

<g id="BDM_300x250_FR_psd_Asset_7_V8_1_Vous_tentez_d_accro_tre_la__fid_lisation___la_marque__0_Layer0_0_MEMBER_17_FILL">
<path fill="#D82C26" stroke="none" d="
M 70.75 -3.95
L 70.25 -3.95 70.25 0 70.75 0 70.75 -3.95
M 70.25 -6
L 69.35 -4.8 69.8 -4.8 70.55 -5.8 71.25 -4.8 71.7 -4.8 70.8 -6 70.25 -6 Z"/>
</g>

<g id="BDM_300x250_FR_psd_Asset_7_V8_1_Vous_tentez_d_accro_tre_la__fid_lisation___la_marque__0_Layer0_0_MEMBER_18_FILL">
<path fill="#D82C26" stroke="none" d="
M 73.85 -3.6
L 73.95 -3.95 72.8 -3.95 72.8 -5.1 72.3 -4.9 72.3 -3.95 71.7 -3.95 71.6 -3.6 72.35 -3.6 72.35 -0.95
Q 72.35 -0.4 72.6 -0.2 72.85 0.1 73.25 0.1
L 73.7 0.05 74.1 -0.15 74.05 -0.5
Q 73.55 -0.3 73.4 -0.3 73.25 -0.3 72.95 -0.5 72.8 -0.65 72.8 -1.05
L 72.8 -3.6 73.85 -3.6 Z"/>
</g>

<g id="BDM_300x250_FR_psd_Asset_7_V8_1_Vous_tentez_d_accro_tre_la__fid_lisation___la_marque__0_Layer0_0_MEMBER_19_FILL">
<path fill="#D82C26" stroke="none" d="
M 75.35 -1.95
Q 75.35 -2.7 75.65 -3.15 75.95 -3.65 76.45 -3.65
L 76.8 -3.6 76.9 -4 76.5 -4.1
Q 76.15 -4.1 75.8 -3.85 75.45 -3.45 75.3 -3.1
L 75.25 -3.95 74.8 -3.95 74.85 0 75.35 0 75.35 -1.95 Z"/>
</g>

<g id="BDM_300x250_FR_psd_Asset_7_V8_1_Vous_tentez_d_accro_tre_la__fid_lisation___la_marque__0_Layer0_0_MEMBER_20_FILL">
<path fill="#D82C26" stroke="none" d="
M 80.1 -3.85
Q 79.7 -4.1 79.1 -4.1 78.6 -4.1 78.1 -3.85 77.6 -3.5 77.4 -3.1 77.15 -2.65 77.15 -2 77.15 -1.35 77.4 -0.9 77.6 -0.45 78.1 -0.15 78.5 0.1 79.15 0.1 80.1 0.1 80.75 -0.4
L 80.65 -0.8
Q 80.5 -0.65 80 -0.45 79.65 -0.3 79.2 -0.3 78.75 -0.3 78.4 -0.5 78.05 -0.7 77.8 -1.1 77.6 -1.6 77.6 -1.9
L 81 -1.9 81 -2.15
Q 81 -2.6 80.75 -3.1 80.5 -3.55 80.1 -3.85
M 79.1 -3.7
Q 79.7 -3.7 80.1 -3.3 80.5 -2.9 80.5 -2.3
L 77.6 -2.3 77.8 -2.9
Q 78.05 -3.3 78.3 -3.5 78.65 -3.7 79.1 -3.7 Z"/>
</g>

<g id="BDM_300x250_FR_psd_Asset_7_V8_1_Vous_tentez_d_accro_tre_la__fid_lisation___la_marque__0_Layer0_0_MEMBER_21_FILL">
<path fill="#D82C26" stroke="none" d="
M 83.7 -0.9
Q 83.7 -0.45 83.85 -0.25 84.15 0.05 84.35 0.1
L 84.55 -0.3 84.25 -0.55 84.2 -1 84.2 -6.45 83.7 -6.35 83.7 -0.9 Z"/>
</g>

<g id="BDM_300x250_FR_psd_Asset_7_V8_1_Vous_tentez_d_accro_tre_la__fid_lisation___la_marque__0_Layer0_0_MEMBER_22_FILL">
<path fill="#D82C26" stroke="none" d="
M 85.25 -1.05
Q 85.25 -0.5 85.6 -0.2 86 0.1 86.5 0.1 87 0.1 87.4 -0.1 87.75 -0.3 88 -0.75
L 88 -0.35 88.05 0 88.5 0 88.45 -2.6
Q 88.45 -3.3 88.05 -3.7 87.65 -4.1 86.95 -4.1 86.55 -4.1 86.1 -3.95
L 85.45 -3.6 85.6 -3.2
Q 85.8 -3.4 86.2 -3.55 86.5 -3.7 86.85 -3.7 87.4 -3.7 87.7 -3.4 88 -3.15 88 -2.6
L 88 -2.4 87.5 -2.4
Q 85.25 -2.4 85.25 -1.05
M 85.95 -0.45
Q 85.7 -0.7 85.7 -1.1 85.7 -2.05 87.55 -2.05
L 88 -2.05 88 -1.65
Q 88 -1.3 87.85 -1 87.7 -0.7 87.35 -0.45 86.95 -0.25 86.6 -0.25 86.35 -0.25 85.95 -0.45 Z"/>
</g>

<g id="BDM_300x250_FR_psd_Asset_7_V8_1_Vous_tentez_d_accro_tre_la__fid_lisation___la_marque__0_Layer0_0_MEMBER_23_FILL">
<path fill="#D82C26" stroke="none" d="
M 1.45 4.4
Q 1.45 4.1 1.65 3.7 1.8 3.45 2.25 3.45
L 2.85 3.5 2.9 3.1 2.2 3
Q 1.65 3 1.3 3.35 0.95 3.8 0.95 4.4
L 0.95 5.55 0.25 5.55 0.15 5.95 1 5.95 1 9.55 1.45 9.55 1.45 5.95 2.4 5.95 2.5 5.55 1.45 5.55 1.45 4.4
M 3.75 5.55
L 3.25 5.55 3.25 9.55 3.75 9.55 3.75 5.55
M 3.5 4.35
L 3.75 4.25
Q 3.85 4.15 3.85 3.95 3.85 3.8 3.75 3.7
L 3.5 3.6 3.25 3.7 3.15 3.95 3.25 4.25 3.5 4.35 Z"/>
</g>

<g id="BDM_300x250_FR_psd_Asset_7_V8_1_Vous_tentez_d_accro_tre_la__fid_lisation___la_marque__0_Layer0_0_MEMBER_24_FILL">
<path fill="#D82C26" stroke="none" d="
M 6.8 5.45
Q 6.25 5.45 5.75 5.7 5.25 6.05 5.05 6.5 4.8 7 4.8 7.55 4.8 8.1 5.05 8.6 5.25 9.1 5.75 9.35 6.2 9.65 6.8 9.65 7.25 9.65 7.75 9.4 8.25 9 8.4 8.65
L 8.45 8.65 8.45 9.55 8.95 9.55 8.9 3 8.4 3.15 8.4 6.4
Q 8.15 5.95 7.7 5.7 7.3 5.45 6.8 5.45
M 6.85 5.85
Q 7.25 5.85 7.65 6.1 8.05 6.35 8.2 6.7 8.45 7.1 8.45 7.55 8.45 8 8.2 8.4 8.05 8.75 7.65 9 7.25 9.25 6.85 9.25 6.4 9.25 6 9 5.65 8.7 5.5 8.4 5.3 8.05 5.3 7.55 5.3 7.05 5.5 6.7 5.65 6.4 6 6.1 6.4 5.85 6.85 5.85 Z"/>
</g>

<g id="BDM_300x250_FR_psd_Asset_7_V8_1_Vous_tentez_d_accro_tre_la__fid_lisation___la_marque__0_Layer0_0_MEMBER_25_FILL">
<path fill="#D82C26" stroke="none" d="
M 11.9 5.45
Q 11.4 5.45 10.9 5.7 10.4 6.05 10.2 6.45 9.9 6.9 9.9 7.5 9.9 8.15 10.2 8.65 10.4 9.1 10.9 9.4 11.4 9.65 11.95 9.65 12.9 9.65 13.55 9.15
L 13.45 8.75 12.8 9.1
Q 12.45 9.25 12 9.25 11.55 9.25 11.2 9 10.85 8.85 10.6 8.45 10.4 7.95 10.4 7.6
L 13.75 7.6 13.75 7.4
Q 13.75 6.8 13.55 6.4 13.35 6 12.9 5.7 12.4 5.45 11.9 5.45
M 11.1 6.05
Q 11.45 5.85 11.9 5.85 12.55 5.85 12.9 6.2 13.3 6.7 13.3 7.25
L 10.4 7.25
Q 10.4 7.1 10.6 6.6 10.75 6.3 11.1 6.05
M 12.4 3.5
L 11.55 4.75 11.95 4.75 13 3.5 12.4 3.5 Z"/>
</g>

<g id="BDM_300x250_FR_psd_Asset_7_V8_1_Vous_tentez_d_accro_tre_la__fid_lisation___la_marque__0_Layer0_0_MEMBER_26_FILL">
<path fill="#D82C26" stroke="none" d="
M 14.95 9.3
Q 15.1 9.5 15.4 9.6
L 15.65 9.2
Q 15.45 9.15 15.35 8.95
L 15.3 8.55 15.3 3.1 14.8 3.15 14.8 8.65
Q 14.8 9 14.95 9.3 Z"/>
</g>

<g id="BDM_300x250_FR_psd_Asset_7_V8_1_Vous_tentez_d_accro_tre_la__fid_lisation___la_marque__0_Layer0_0_MEMBER_27_FILL">
<path fill="#D82C26" stroke="none" d="
M 17.1 5.55
L 16.6 5.55 16.6 9.55 17.1 9.55 17.1 5.55
M 16.85 4.35
L 17.1 4.25 17.2 3.95 17.1 3.7 16.85 3.6 16.6 3.7 16.5 3.95 16.6 4.25 16.85 4.35 Z"/>
</g>

<g id="BDM_300x250_FR_psd_Asset_7_V8_1_Vous_tentez_d_accro_tre_la__fid_lisation___la_marque__0_Layer0_0_MEMBER_28_FILL">
<path fill="#D82C26" stroke="none" d="
M 20.5 6.25
L 20.7 5.85 20.15 5.55 19.45 5.45 18.8 5.55
Q 18.45 5.7 18.35 5.95 18.15 6.15 18.15 6.55 18.15 6.95 18.4 7.2 18.7 7.5 19.25 7.65
L 20.1 8
Q 20.35 8.25 20.35 8.5 20.35 8.8 20.1 9.05 19.85 9.25 19.45 9.25 18.65 9.25 18.15 8.75
L 18.05 9.2
Q 18.3 9.45 18.65 9.5 19.05 9.65 19.5 9.65 19.85 9.65 20.15 9.5 20.45 9.35 20.65 9.1 20.85 8.8 20.85 8.5 20.85 8.05 20.55 7.8 20.3 7.55 19.6 7.3 19.05 7.15 18.85 6.95 18.6 6.8 18.6 6.5 18.6 6.15 18.85 6 19.1 5.85 19.45 5.85 19.85 5.85 20.05 5.95
L 20.5 6.25 Z"/>
</g>

<g id="BDM_300x250_FR_psd_Asset_7_V8_1_Vous_tentez_d_accro_tre_la__fid_lisation___la_marque__0_Layer0_0_MEMBER_29_FILL">
<path fill="#D82C26" stroke="none" d="
M 23.2 5.85
Q 23.65 5.85 24 6.1 24.3 6.4 24.3 6.9
L 24.3 7.15 23.85 7.15
Q 21.55 7.15 21.55 8.45 21.55 9.05 21.95 9.35 22.35 9.65 22.85 9.65 23.25 9.65 23.75 9.4 24.15 9.15 24.3 8.75
L 24.35 8.75 24.35 9.15 24.4 9.55 24.85 9.55 24.8 6.95
Q 24.8 6.2 24.4 5.8 24 5.45 23.25 5.45
L 22.45 5.55 21.8 5.95 21.95 6.35 22.5 6 23.2 5.85
M 23.7 9.05
Q 23.45 9.25 22.95 9.25 22.55 9.25 22.3 9.05 22.05 8.9 22.05 8.45 22.05 7.5 23.9 7.5
L 24.3 7.5 24.3 7.9 24.15 8.55
Q 24 8.8 23.7 9.05 Z"/>
</g>

<g id="BDM_300x250_FR_psd_Asset_7_V8_1_Vous_tentez_d_accro_tre_la__fid_lisation___la_marque__0_Layer0_0_MEMBER_30_FILL">
<path fill="#D82C26" stroke="none" d="
M 25.4 5.95
L 26.15 5.95 26.15 8.55
Q 26.15 9.1 26.4 9.35 26.6 9.6 27.05 9.6
L 27.5 9.55 27.9 9.4 27.85 9.05 27.2 9.2
Q 26.95 9.2 26.8 9.05 26.6 8.9 26.6 8.5
L 26.6 5.95 27.65 5.95 27.75 5.55 26.6 5.55 26.6 4.4 26.1 4.6 26.1 5.55 25.5 5.55 25.4 5.95 Z"/>
</g>

<g id="BDM_300x250_FR_psd_Asset_7_V8_1_Vous_tentez_d_accro_tre_la__fid_lisation___la_marque__0_Layer0_0_MEMBER_31_FILL">
<path fill="#D82C26" stroke="none" d="
M 29.15 5.55
L 28.65 5.55 28.65 9.55 29.15 9.55 29.15 5.55
M 28.85 4.35
L 29.1 4.25
Q 29.25 4.1 29.25 3.95 29.25 3.85 29.1 3.7
L 28.85 3.6 28.6 3.7 28.5 3.95 28.6 4.25 28.85 4.35 Z"/>
</g>

<g id="BDM_300x250_FR_psd_Asset_7_V8_1_Vous_tentez_d_accro_tre_la__fid_lisation___la_marque__0_Layer0_0_MEMBER_32_FILL">
<path fill="#D82C26" stroke="none" d="
M 33.3 5.7
Q 32.8 5.45 32.25 5.45 31.65 5.45 31.15 5.7 30.7 6 30.4 6.45 30.1 6.9 30.1 7.55 30.1 8.15 30.4 8.65 30.7 9.1 31.15 9.4 31.65 9.65 32.25 9.65 32.8 9.65 33.3 9.4 33.8 9.1 34.1 8.65 34.35 8.05 34.35 7.55 34.35 6.95 34.1 6.45 33.8 6 33.3 5.7
M 32.25 5.85
Q 32.7 5.85 33.1 6.1 33.4 6.3 33.65 6.7 33.85 7.05 33.85 7.55 33.85 8.05 33.65 8.4 33.5 8.75 33.1 9 32.7 9.25 32.25 9.25 31.8 9.25 31.4 9 31.05 8.8 30.8 8.4 30.6 7.9 30.6 7.55 30.6 7.2 30.8 6.7 31.05 6.35 31.4 6.1 31.8 5.85 32.25 5.85 Z"/>
</g>

<g id="BDM_300x250_FR_psd_Asset_7_V8_1_Vous_tentez_d_accro_tre_la__fid_lisation___la_marque__0_Layer0_0_MEMBER_33_FILL">
<path fill="#D82C26" stroke="none" d="
M 37.3 5.45
Q 36.9 5.45 36.4 5.7 36 6 35.85 6.4
L 35.8 5.55 35.35 5.55 35.35 9.55 35.85 9.55 35.85 7.5
Q 35.85 6.9 36.05 6.65 36.2 6.3 36.5 6.05 36.9 5.85 37.2 5.85 37.75 5.85 38 6.25 38.25 6.55 38.25 7.25
L 38.25 9.55 38.75 9.55 38.75 7.1
Q 38.75 6.4 38.4 5.9 38.05 5.45 37.3 5.45 Z"/>
</g>

<g id="BDM_300x250_FR_psd_Asset_7_V8_1_Vous_tentez_d_accro_tre_la__fid_lisation___la_marque__0_Layer0_0_MEMBER_34_FILL">
<path fill="#D82C26" stroke="none" d="
M 42.3 5.55
L 41.65 5.95 41.8 6.35
Q 42 6.15 42.4 6 42.7 5.85 43.05 5.85 43.55 5.85 43.9 6.1 44.2 6.4 44.2 6.9
L 44.2 7.15 43.7 7.15
Q 41.45 7.15 41.45 8.45 41.45 9.05 41.8 9.35 42.2 9.65 42.7 9.65 43.1 9.65 43.6 9.4 44 9.15 44.2 8.75
L 44.2 9.15 44.25 9.55 44.7 9.55 44.65 6.95
Q 44.65 6.2 44.25 5.8 43.9 5.45 43.15 5.45
L 42.3 5.55
M 44.05 8.55
L 43.55 9.05
Q 43.3 9.25 42.8 9.25 42.4 9.25 42.15 9.05 41.9 8.9 41.9 8.45 41.9 7.5 43.75 7.5
L 44.2 7.5 44.2 7.9 44.05 8.55
M 42.8 3.5
L 42.2 3.5 43.25 4.75 43.65 4.75 42.8 3.5 Z"/>
</g>

<g id="BDM_300x250_FR_psd_Asset_7_V8_1_Vous_tentez_d_accro_tre_la__fid_lisation___la_marque__0_Layer0_0_MEMBER_35_FILL">
<path fill="#D82C26" stroke="none" d="
M 47.8 9.3
Q 47.95 9.55 48.25 9.6
L 48.5 9.2
Q 48.3 9.15 48.2 8.95 48.1 8.85 48.1 8.55
L 48.1 3.1 47.6 3.15 47.6 8.65
Q 47.6 9.05 47.8 9.3 Z"/>
</g>

<g id="BDM_300x250_FR_psd_Asset_7_V8_1_Vous_tentez_d_accro_tre_la__fid_lisation___la_marque__0_Layer0_0_MEMBER_36_FILL">
<path fill="#D82C26" stroke="none" d="
M 51.95 5.8
Q 51.6 5.45 50.85 5.45
L 50.05 5.55 49.35 5.95 49.5 6.35 50.1 6 50.8 5.85
Q 51.25 5.85 51.6 6.1 51.9 6.4 51.9 6.9
L 51.9 7.15 51.4 7.15
Q 49.15 7.15 49.15 8.45 49.15 9.05 49.55 9.35 49.85 9.65 50.4 9.65 50.9 9.65 51.3 9.4 51.75 9.15 51.9 8.75
L 52 9.55 52.45 9.55 52.35 8.65 52.35 6.95
Q 52.35 6.15 51.95 5.8
M 51.75 8.55
Q 51.6 8.8 51.3 9.05 50.95 9.25 50.5 9.25 50.1 9.25 49.9 9.05 49.65 8.95 49.65 8.45 49.65 7.5 51.5 7.5
L 51.9 7.5 51.9 7.9 51.75 8.55 Z"/>
</g>

<g id="BDM_300x250_FR_psd_Asset_7_V8_1_Vous_tentez_d_accro_tre_la__fid_lisation___la_marque__0_Layer0_0_MEMBER_37_FILL">
<path fill="#D82C26" stroke="none" d="
M 61.35 7.15
Q 61.35 6.4 61.05 5.95 60.7 5.45 59.95 5.45 59.45 5.45 59.05 5.7 58.65 6.05 58.5 6.45 58.35 5.95 58 5.7 57.65 5.45 57.2 5.45 56.75 5.45 56.35 5.7 56 6 55.85 6.4
L 55.8 6.4 55.75 5.55 55.3 5.55 55.35 9.55 55.85 9.55 55.85 7.55
Q 55.85 7.05 56 6.65 56.15 6.3 56.45 6.05 56.85 5.85 57.1 5.85 57.5 5.85 57.85 6.2 58.1 6.6 58.1 7.2
L 58.1 9.55 58.6 9.55 58.6 7.5
Q 58.6 6.7 58.95 6.3 59.25 5.85 59.85 5.85 60.4 5.85 60.65 6.25 60.9 6.75 60.9 7.25
L 60.9 9.55 61.35 9.55 61.35 7.15 Z"/>
</g>

<g id="BDM_300x250_FR_psd_Asset_7_V8_1_Vous_tentez_d_accro_tre_la__fid_lisation___la_marque__0_Layer0_0_MEMBER_38_FILL">
<path fill="#D82C26" stroke="none" d="
M 63.95 5.85
Q 64.45 5.85 64.8 6.1 65.1 6.4 65.1 6.9
L 65.1 7.15 64.6 7.15
Q 62.35 7.15 62.35 8.45 62.35 9.05 62.7 9.35 63.1 9.65 63.6 9.65 64 9.65 64.5 9.4 64.9 9.15 65.05 8.75
L 65.1 8.75 65.1 9.15 65.15 9.55 65.6 9.55 65.55 6.95
Q 65.55 6.2 65.15 5.8 64.75 5.45 64 5.45
L 63.2 5.55 62.55 5.95 62.7 6.35
Q 62.9 6.15 63.3 6 63.6 5.85 63.95 5.85
M 64.65 7.5
L 65.1 7.5 65.1 7.9
Q 65.1 8.2 64.9 8.55 64.75 8.8 64.45 9.05 64.2 9.25 63.7 9.25 63.3 9.25 63.05 9.05 62.8 8.9 62.8 8.45 62.8 7.5 64.65 7.5 Z"/>
</g>

<g id="BDM_300x250_FR_psd_Asset_7_V8_1_Vous_tentez_d_accro_tre_la__fid_lisation___la_marque__0_Layer0_0_MEMBER_39_FILL">
<path fill="#D82C26" stroke="none" d="
M 67.2 5.55
L 66.75 5.55 66.8 9.55 67.3 9.55 67.3 7.55
Q 67.3 6.85 67.6 6.4 67.9 5.9 68.4 5.9
L 68.75 5.95 68.85 5.5 68.45 5.45
Q 68.15 5.45 67.75 5.7 67.45 6.05 67.3 6.4
L 67.25 6.4 67.2 5.55 Z"/>
</g>

<g id="BDM_300x250_FR_psd_Asset_7_V8_1_Vous_tentez_d_accro_tre_la__fid_lisation___la_marque__0_Layer0_0_MEMBER_40_FILL">
<path fill="#D82C26" stroke="none" d="
M 73.2 5.55
L 72.75 5.55 72.7 6.45
Q 72.55 6.1 72.05 5.7 71.55 5.45 71.1 5.45 70.55 5.45 70.05 5.7 69.55 6.05 69.35 6.5 69.1 6.9 69.1 7.55 69.1 8.25 69.35 8.6 69.55 9.1 70.05 9.35 70.5 9.65 71.1 9.65 71.6 9.65 72 9.4 72.55 9.05 72.7 8.7
L 72.7 10.45
Q 72.7 11.3 73.55 11.55
L 73.8 11.15
Q 73.45 11.1 73.35 10.9 73.2 10.7 73.2 10.35
L 73.2 5.55
M 71.15 5.85
Q 71.55 5.85 71.95 6.1 72.35 6.35 72.5 6.7 72.7 7.05 72.7 7.55 72.7 8.05 72.5 8.4 72.35 8.75 71.95 9 71.55 9.25 71.15 9.25 70.7 9.25 70.3 9 69.95 8.7 69.8 8.4 69.6 8.05 69.6 7.55 69.6 7.05 69.8 6.7 69.95 6.4 70.3 6.1 70.7 5.85 71.15 5.85 Z"/>
</g>

<g id="BDM_300x250_FR_psd_Asset_7_V8_1_Vous_tentez_d_accro_tre_la__fid_lisation___la_marque__0_Layer0_0_MEMBER_41_FILL">
<path fill="#D82C26" stroke="none" d="
M 77.8 5.55
L 77.35 5.55 77.35 7.55
Q 77.35 7.95 77.15 8.45 77 8.85 76.7 9.05 76.3 9.25 76 9.25 75.45 9.25 75.15 8.85 74.95 8.5 74.95 7.85
L 74.95 5.55 74.45 5.55 74.45 8
Q 74.45 8.75 74.8 9.15 75.1 9.65 75.9 9.65 76.35 9.65 76.75 9.4 77.1 9.1 77.35 8.7
L 77.4 9.55 77.9 9.55 77.8 8.6 77.8 5.55 Z"/>
</g>

<g id="BDM_300x250_FR_psd_Asset_7_V8_1_Vous_tentez_d_accro_tre_la__fid_lisation___la_marque__0_Layer0_0_MEMBER_42_FILL">
<path fill="#D82C26" stroke="none" d="
M 82.5 6.4
Q 82.35 6.1 81.85 5.7 81.35 5.45 80.8 5.45 80.3 5.45 79.8 5.7 79.3 6.05 79.1 6.45 78.85 6.95 78.85 7.5 78.85 8.05 79.1 8.65 79.45 9.15 79.85 9.4 80.35 9.65 80.85 9.65 81.8 9.65 82.45 9.15
L 82.35 8.75 81.75 9.1
Q 81.4 9.25 80.9 9.25 80.5 9.25 80.1 9 79.7 8.85 79.55 8.45 79.4 8.2 79.3 7.6
L 82.7 7.6 82.7 7.4
Q 82.7 7 82.5 6.4
M 81.8 6.2
Q 82.2 6.6 82.2 7.25
L 79.35 7.25 79.5 6.6
Q 79.8 6.2 80.05 6.05 80.3 5.85 80.8 5.85 81.45 5.85 81.8 6.2 Z"/>
</g>

<g id="BDM_300x250_FR_psd_Asset_7_V8_1_Vous_tentez_d_accro_tre_la__fid_lisation___la_marque__0_Layer0_0_MEMBER_43_FILL">
<path fill="#D82C26" stroke="none" d="
M 83.5 3.6
Q 83 3.85 82.75 4.1
L 83 4.5
Q 83.25 4.2 83.6 4.05 83.95 3.85 84.45 3.85 84.9 3.85 85.25 4.1 85.6 4.4 85.6 4.85
L 85.5 5.35 84.85 6.15
Q 84.4 6.6 84.35 6.85 84.2 7.15 84.2 7.55
L 84.2 7.8 84.65 7.8 84.65 7.65 84.7 7.15 84.9 6.8
Q 85.1 6.5 85.3 6.35
L 85.75 5.85 86 5.45
Q 86.1 5.25 86.1 4.85 86.1 4.4 85.9 4.05 85.6 3.7 85.3 3.55 84.95 3.4 84.5 3.4 83.85 3.4 83.5 3.6
M 84.2 8.95
Q 84.1 9 84.1 9.2 84.1 9.4 84.2 9.5
L 84.45 9.6 84.7 9.5
Q 84.8 9.4 84.8 9.2 84.8 9 84.7 8.95 84.65 8.85 84.45 8.85 84.25 8.85 84.2 8.95 Z"/>
</g>
</defs>

<g transform="matrix( 1, 0, 0, 1, -5,-31) ">
<g transform="matrix( 1, 0, 0, 1, 0,48) ">
<g transform="matrix( 1, 0, 0, 1, 25,9) ">
<g transform="matrix( 2.815704345703125, 0, 0, 2.832611083984375, 0.15,18.6) ">
<use xlink:href="#BDM_300x250_FR_psd_Asset_7_V8_1_Vous_tentez_d_accro_tre_la__fid_lisation___la_marque__0_Layer0_0_MEMBER_0_FILL"/>
</g>

<g transform="matrix( 2.815704345703125, 0, 0, 2.832611083984375, 0.15,18.6) ">
<use xlink:href="#BDM_300x250_FR_psd_Asset_7_V8_1_Vous_tentez_d_accro_tre_la__fid_lisation___la_marque__0_Layer0_0_MEMBER_1_FILL"/>
</g>

<g transform="matrix( 2.815704345703125, 0, 0, 2.832611083984375, 0.15,18.6) ">
<use xlink:href="#BDM_300x250_FR_psd_Asset_7_V8_1_Vous_tentez_d_accro_tre_la__fid_lisation___la_marque__0_Layer0_0_MEMBER_2_FILL"/>
</g>

<g transform="matrix( 2.815704345703125, 0, 0, 2.832611083984375, 0.15,18.6) ">
<use xlink:href="#BDM_300x250_FR_psd_Asset_7_V8_1_Vous_tentez_d_accro_tre_la__fid_lisation___la_marque__0_Layer0_0_MEMBER_3_FILL"/>
</g>

<g transform="matrix( 2.815704345703125, 0, 0, 2.832611083984375, 0.15,18.6) ">
<use xlink:href="#BDM_300x250_FR_psd_Asset_7_V8_1_Vous_tentez_d_accro_tre_la__fid_lisation___la_marque__0_Layer0_0_MEMBER_4_FILL"/>
</g>

<g transform="matrix( 2.815704345703125, 0, 0, 2.832611083984375, 0.15,18.6) ">
<use xlink:href="#BDM_300x250_FR_psd_Asset_7_V8_1_Vous_tentez_d_accro_tre_la__fid_lisation___la_marque__0_Layer0_0_MEMBER_5_FILL"/>
</g>

<g transform="matrix( 2.815704345703125, 0, 0, 2.832611083984375, 0.15,18.6) ">
<use xlink:href="#BDM_300x250_FR_psd_Asset_7_V8_1_Vous_tentez_d_accro_tre_la__fid_lisation___la_marque__0_Layer0_0_MEMBER_6_FILL"/>
</g>

<g transform="matrix( 2.815704345703125, 0, 0, 2.832611083984375, 0.15,18.6) ">
<use xlink:href="#BDM_300x250_FR_psd_Asset_7_V8_1_Vous_tentez_d_accro_tre_la__fid_lisation___la_marque__0_Layer0_0_MEMBER_7_FILL"/>
</g>

<g transform="matrix( 2.815704345703125, 0, 0, 2.832611083984375, 0.15,18.6) ">
<use xlink:href="#BDM_300x250_FR_psd_Asset_7_V8_1_Vous_tentez_d_accro_tre_la__fid_lisation___la_marque__0_Layer0_0_MEMBER_8_FILL"/>
</g>

<g transform="matrix( 2.815704345703125, 0, 0, 2.832611083984375, 0.15,18.6) ">
<use xlink:href="#BDM_300x250_FR_psd_Asset_7_V8_1_Vous_tentez_d_accro_tre_la__fid_lisation___la_marque__0_Layer0_0_MEMBER_9_FILL"/>
</g>

<g transform="matrix( 2.815704345703125, 0, 0, 2.832611083984375, 0.15,18.6) ">
<use xlink:href="#BDM_300x250_FR_psd_Asset_7_V8_1_Vous_tentez_d_accro_tre_la__fid_lisation___la_marque__0_Layer0_0_MEMBER_10_FILL"/>
</g>

<g transform="matrix( 2.815704345703125, 0, 0, 2.832611083984375, 0.15,18.6) ">
<use xlink:href="#BDM_300x250_FR_psd_Asset_7_V8_1_Vous_tentez_d_accro_tre_la__fid_lisation___la_marque__0_Layer0_0_MEMBER_11_FILL"/>
</g>

<g transform="matrix( 2.815704345703125, 0, 0, 2.832611083984375, 0.15,18.6) ">
<use xlink:href="#BDM_300x250_FR_psd_Asset_7_V8_1_Vous_tentez_d_accro_tre_la__fid_lisation___la_marque__0_Layer0_0_MEMBER_12_FILL"/>
</g>

<g transform="matrix( 2.815704345703125, 0, 0, 2.832611083984375, 0.15,18.6) ">
<use xlink:href="#BDM_300x250_FR_psd_Asset_7_V8_1_Vous_tentez_d_accro_tre_la__fid_lisation___la_marque__0_Layer0_0_MEMBER_13_FILL"/>
</g>

<g transform="matrix( 2.815704345703125, 0, 0, 2.832611083984375, 0.15,18.6) ">
<use xlink:href="#BDM_300x250_FR_psd_Asset_7_V8_1_Vous_tentez_d_accro_tre_la__fid_lisation___la_marque__0_Layer0_0_MEMBER_14_FILL"/>
</g>

<g transform="matrix( 2.815704345703125, 0, 0, 2.832611083984375, 0.15,18.6) ">
<use xlink:href="#BDM_300x250_FR_psd_Asset_7_V8_1_Vous_tentez_d_accro_tre_la__fid_lisation___la_marque__0_Layer0_0_MEMBER_15_FILL"/>
</g>

<g transform="matrix( 2.815704345703125, 0, 0, 2.832611083984375, 0.15,18.6) ">
<use xlink:href="#BDM_300x250_FR_psd_Asset_7_V8_1_Vous_tentez_d_accro_tre_la__fid_lisation___la_marque__0_Layer0_0_MEMBER_16_FILL"/>
</g>

<g transform="matrix( 2.815704345703125, 0, 0, 2.832611083984375, 0.15,18.6) ">
<use xlink:href="#BDM_300x250_FR_psd_Asset_7_V8_1_Vous_tentez_d_accro_tre_la__fid_lisation___la_marque__0_Layer0_0_MEMBER_17_FILL"/>
</g>

<g transform="matrix( 2.815704345703125, 0, 0, 2.832611083984375, 0.15,18.6) ">
<use xlink:href="#BDM_300x250_FR_psd_Asset_7_V8_1_Vous_tentez_d_accro_tre_la__fid_lisation___la_marque__0_Layer0_0_MEMBER_18_FILL"/>
</g>

<g transform="matrix( 2.815704345703125, 0, 0, 2.832611083984375, 0.15,18.6) ">
<use xlink:href="#BDM_300x250_FR_psd_Asset_7_V8_1_Vous_tentez_d_accro_tre_la__fid_lisation___la_marque__0_Layer0_0_MEMBER_19_FILL"/>
</g>

<g transform="matrix( 2.815704345703125, 0, 0, 2.832611083984375, 0.15,18.6) ">
<use xlink:href="#BDM_300x250_FR_psd_Asset_7_V8_1_Vous_tentez_d_accro_tre_la__fid_lisation___la_marque__0_Layer0_0_MEMBER_20_FILL"/>
</g>

<g transform="matrix( 2.815704345703125, 0, 0, 2.832611083984375, 0.15,18.6) ">
<use xlink:href="#BDM_300x250_FR_psd_Asset_7_V8_1_Vous_tentez_d_accro_tre_la__fid_lisation___la_marque__0_Layer0_0_MEMBER_21_FILL"/>
</g>

<g transform="matrix( 2.815704345703125, 0, 0, 2.832611083984375, 0.15,18.6) ">
<use xlink:href="#BDM_300x250_FR_psd_Asset_7_V8_1_Vous_tentez_d_accro_tre_la__fid_lisation___la_marque__0_Layer0_0_MEMBER_22_FILL"/>
</g>

<g transform="matrix( 2.815704345703125, 0, 0, 2.832611083984375, 0.15,18.6) ">
<use xlink:href="#BDM_300x250_FR_psd_Asset_7_V8_1_Vous_tentez_d_accro_tre_la__fid_lisation___la_marque__0_Layer0_0_MEMBER_23_FILL"/>
</g>

<g transform="matrix( 2.815704345703125, 0, 0, 2.832611083984375, 0.15,18.6) ">
<use xlink:href="#BDM_300x250_FR_psd_Asset_7_V8_1_Vous_tentez_d_accro_tre_la__fid_lisation___la_marque__0_Layer0_0_MEMBER_24_FILL"/>
</g>

<g transform="matrix( 2.815704345703125, 0, 0, 2.832611083984375, 0.15,18.6) ">
<use xlink:href="#BDM_300x250_FR_psd_Asset_7_V8_1_Vous_tentez_d_accro_tre_la__fid_lisation___la_marque__0_Layer0_0_MEMBER_25_FILL"/>
</g>

<g transform="matrix( 2.815704345703125, 0, 0, 2.832611083984375, 0.15,18.6) ">
<use xlink:href="#BDM_300x250_FR_psd_Asset_7_V8_1_Vous_tentez_d_accro_tre_la__fid_lisation___la_marque__0_Layer0_0_MEMBER_26_FILL"/>
</g>

<g transform="matrix( 2.815704345703125, 0, 0, 2.832611083984375, 0.15,18.6) ">
<use xlink:href="#BDM_300x250_FR_psd_Asset_7_V8_1_Vous_tentez_d_accro_tre_la__fid_lisation___la_marque__0_Layer0_0_MEMBER_27_FILL"/>
</g>

<g transform="matrix( 2.815704345703125, 0, 0, 2.832611083984375, 0.15,18.6) ">
<use xlink:href="#BDM_300x250_FR_psd_Asset_7_V8_1_Vous_tentez_d_accro_tre_la__fid_lisation___la_marque__0_Layer0_0_MEMBER_28_FILL"/>
</g>

<g transform="matrix( 2.815704345703125, 0, 0, 2.832611083984375, 0.15,18.6) ">
<use xlink:href="#BDM_300x250_FR_psd_Asset_7_V8_1_Vous_tentez_d_accro_tre_la__fid_lisation___la_marque__0_Layer0_0_MEMBER_29_FILL"/>
</g>

<g transform="matrix( 2.815704345703125, 0, 0, 2.832611083984375, 0.15,18.6) ">
<use xlink:href="#BDM_300x250_FR_psd_Asset_7_V8_1_Vous_tentez_d_accro_tre_la__fid_lisation___la_marque__0_Layer0_0_MEMBER_30_FILL"/>
</g>

<g transform="matrix( 2.815704345703125, 0, 0, 2.832611083984375, 0.15,18.6) ">
<use xlink:href="#BDM_300x250_FR_psd_Asset_7_V8_1_Vous_tentez_d_accro_tre_la__fid_lisation___la_marque__0_Layer0_0_MEMBER_31_FILL"/>
</g>

<g transform="matrix( 2.815704345703125, 0, 0, 2.832611083984375, 0.15,18.6) ">
<use xlink:href="#BDM_300x250_FR_psd_Asset_7_V8_1_Vous_tentez_d_accro_tre_la__fid_lisation___la_marque__0_Layer0_0_MEMBER_32_FILL"/>
</g>

<g transform="matrix( 2.815704345703125, 0, 0, 2.832611083984375, 0.15,18.6) ">
<use xlink:href="#BDM_300x250_FR_psd_Asset_7_V8_1_Vous_tentez_d_accro_tre_la__fid_lisation___la_marque__0_Layer0_0_MEMBER_33_FILL"/>
</g>

<g transform="matrix( 2.815704345703125, 0, 0, 2.832611083984375, 0.15,18.6) ">
<use xlink:href="#BDM_300x250_FR_psd_Asset_7_V8_1_Vous_tentez_d_accro_tre_la__fid_lisation___la_marque__0_Layer0_0_MEMBER_34_FILL"/>
</g>

<g transform="matrix( 2.815704345703125, 0, 0, 2.832611083984375, 0.15,18.6) ">
<use xlink:href="#BDM_300x250_FR_psd_Asset_7_V8_1_Vous_tentez_d_accro_tre_la__fid_lisation___la_marque__0_Layer0_0_MEMBER_35_FILL"/>
</g>

<g transform="matrix( 2.815704345703125, 0, 0, 2.832611083984375, 0.15,18.6) ">
<use xlink:href="#BDM_300x250_FR_psd_Asset_7_V8_1_Vous_tentez_d_accro_tre_la__fid_lisation___la_marque__0_Layer0_0_MEMBER_36_FILL"/>
</g>

<g transform="matrix( 2.815704345703125, 0, 0, 2.832611083984375, 0.15,18.6) ">
<use xlink:href="#BDM_300x250_FR_psd_Asset_7_V8_1_Vous_tentez_d_accro_tre_la__fid_lisation___la_marque__0_Layer0_0_MEMBER_37_FILL"/>
</g>

<g transform="matrix( 2.815704345703125, 0, 0, 2.832611083984375, 0.15,18.6) ">
<use xlink:href="#BDM_300x250_FR_psd_Asset_7_V8_1_Vous_tentez_d_accro_tre_la__fid_lisation___la_marque__0_Layer0_0_MEMBER_38_FILL"/>
</g>

<g transform="matrix( 2.815704345703125, 0, 0, 2.832611083984375, 0.15,18.6) ">
<use xlink:href="#BDM_300x250_FR_psd_Asset_7_V8_1_Vous_tentez_d_accro_tre_la__fid_lisation___la_marque__0_Layer0_0_MEMBER_39_FILL"/>
</g>

<g transform="matrix( 2.815704345703125, 0, 0, 2.832611083984375, 0.15,18.6) ">
<use xlink:href="#BDM_300x250_FR_psd_Asset_7_V8_1_Vous_tentez_d_accro_tre_la__fid_lisation___la_marque__0_Layer0_0_MEMBER_40_FILL"/>
</g>

<g transform="matrix( 2.815704345703125, 0, 0, 2.832611083984375, 0.15,18.6) ">
<use xlink:href="#BDM_300x250_FR_psd_Asset_7_V8_1_Vous_tentez_d_accro_tre_la__fid_lisation___la_marque__0_Layer0_0_MEMBER_41_FILL"/>
</g>

<g transform="matrix( 2.815704345703125, 0, 0, 2.832611083984375, 0.15,18.6) ">
<use xlink:href="#BDM_300x250_FR_psd_Asset_7_V8_1_Vous_tentez_d_accro_tre_la__fid_lisation___la_marque__0_Layer0_0_MEMBER_42_FILL"/>
</g>

<g transform="matrix( 2.815704345703125, 0, 0, 2.832611083984375, 0.15,18.6) ">
<use xlink:href="#BDM_300x250_FR_psd_Asset_7_V8_1_Vous_tentez_d_accro_tre_la__fid_lisation___la_marque__0_Layer0_0_MEMBER_43_FILL"/>
</g>
</g>
</g>
</g>
</svg>
