
<svg xmlns="http://www.w3.org/2000/svg" version="1.1" xmlns:xlink="http://www.w3.org/1999/xlink" preserveAspectRatio="none" x="0px" y="0px" width="200px" height="200px" viewBox="0 0 200 200">
<defs>
<g id="BDM_200x200_psd_Asset_1_ManagedWiFi_Awareness_DM8_4_CTA_Watch_the_video___0_Layer0_0_MEMBER_0_FILL">
<path fill="#24B9D1" stroke="none" d="
M 3.6 -1.95
L 1.4 -10.05 -0.1 -10.05 2.8 0 4.35 0 6.7 -8.15 6.75 -8.15 9.15 0 10.65 0 13.6 -10.05 12.1 -10.05 9.9 -1.95 9.85 -1.95 7.55 -10.05 5.95 -10.05 3.65 -1.95 3.6 -1.95 Z"/>
</g>

<g id="BDM_200x200_psd_Asset_1_ManagedWiFi_Awareness_DM8_4_CTA_Watch_the_video___0_Layer0_0_MEMBER_1_FILL">
<path fill="#24B9D1" stroke="none" d="
M 18.45 -6.3
Q 17.75 -7 16.4 -7 14.85 -7 13.7 -6.2
L 14.05 -5.2
Q 14.65 -5.6 15.05 -5.75 15.6 -5.95 16.15 -5.95 17 -5.95 17.4 -5.6 17.8 -5.2 17.8 -4.45
L 17.8 -4.15 17.25 -4.15
Q 15.5 -4.15 14.45 -3.65 13.35 -3.2 13.35 -1.9 13.35 -0.8 14 -0.35 14.65 0.2 15.5 0.2 16.1 0.2 16.9 -0.15 17.5 -0.4 17.85 -1.1
L 17.9 -1.1 17.9 -0.6 18 0 19.25 0
Q 19.15 -0.35 19.15 -1.4
L 19.15 -4.25
Q 19.15 -5.6 18.45 -6.3
M 15 -1.05
Q 14.65 -1.35 14.65 -1.9 14.65 -3.3 17.3 -3.3
L 17.85 -3.3 17.85 -2.8
Q 17.85 -2.2 17.6 -1.85 17.35 -1.35 16.95 -1.1 16.45 -0.8 15.85 -0.8 15.35 -0.8 15 -1.05 Z"/>
</g>

<g id="BDM_200x200_psd_Asset_1_ManagedWiFi_Awareness_DM8_4_CTA_Watch_the_video___0_Layer0_0_MEMBER_2_FILL">
<path fill="#24B9D1" stroke="none" d="
M 19.75 -6.8
L 19.55 -5.75 20.75 -5.75 20.75 -1.85
Q 20.75 -1 21.25 -0.4 21.65 0.15 22.6 0.15 23.5 0.15 24.2 -0.2
L 24.05 -1.2
Q 23.45 -0.95 23.05 -0.95 22.1 -0.95 22.1 -2.05
L 22.1 -5.75 23.8 -5.75 24 -6.8 22.1 -6.8 22.1 -8.7 20.75 -8.35 20.75 -6.8 19.75 -6.8 Z"/>
</g>

<g id="BDM_200x200_psd_Asset_1_ManagedWiFi_Awareness_DM8_4_CTA_Watch_the_video___0_Layer0_0_MEMBER_3_FILL">
<path fill="#24B9D1" stroke="none" d="
M 28.1 -7
Q 27.1 -7 26.25 -6.55 25.35 -6.05 24.95 -5.3 24.45 -4.5 24.45 -3.4 24.45 -2.3 24.9 -1.55 25.5 -0.65 26.2 -0.25 27.05 0.2 28 0.2 28.65 0.2 29.4 -0.05 30.1 -0.3 30.45 -0.6
L 30.25 -1.7
Q 29.75 -1.25 29.3 -1.15 28.7 -0.95 28.25 -0.95 27.5 -0.95 26.95 -1.3 26.45 -1.6 26.15 -2.2 25.85 -2.7 25.85 -3.4 25.85 -4.05 26.15 -4.65 26.45 -5.2 26.95 -5.55 27.5 -5.85 28.15 -5.85
L 29.1 -5.7
Q 29.7 -5.4 29.9 -5.2
L 30.45 -6.25
Q 30.15 -6.55 29.4 -6.8 28.85 -7 28.1 -7 Z"/>
</g>

<g id="BDM_200x200_psd_Asset_1_ManagedWiFi_Awareness_DM8_4_CTA_Watch_the_video___0_Layer0_0_MEMBER_4_FILL">
<path fill="#24B9D1" stroke="none" d="
M 32.7 -10.9
L 31.3 -10.7 31.3 0 32.7 0 32.7 -3.45
Q 32.7 -4.55 33.2 -5.2 33.7 -5.85 34.55 -5.85 35.35 -5.85 35.75 -5.3 36.1 -4.6 36.1 -3.85
L 36.1 0 37.45 0 37.45 -4.15
Q 37.45 -5.35 36.85 -6.2 36.25 -7 35 -7 34.25 -7 33.6 -6.6 33 -6.25 32.7 -5.6
L 32.7 -10.9 Z"/>
</g>

<g id="BDM_200x200_psd_Asset_1_ManagedWiFi_Awareness_DM8_4_CTA_Watch_the_video___0_Layer0_0_MEMBER_5_FILL">
<path fill="#24B9D1" stroke="none" d="
M 42.2 -6.8
L 41.2 -6.8 41 -5.75 42.2 -5.75 42.2 -1.85
Q 42.2 -0.9 42.65 -0.4 43.05 0.15 44 0.15 44.95 0.15 45.65 -0.2
L 45.45 -1.2
Q 44.85 -0.95 44.45 -0.95 43.55 -0.95 43.55 -2.05
L 43.55 -5.75 45.25 -5.75 45.45 -6.8 43.55 -6.8 43.55 -8.7 42.2 -8.35 42.2 -6.8 Z"/>
</g>

<g id="BDM_200x200_psd_Asset_1_ManagedWiFi_Awareness_DM8_4_CTA_Watch_the_video___0_Layer0_0_MEMBER_6_FILL">
<path fill="#24B9D1" stroke="none" d="
M 47.75 -10.9
L 46.35 -10.7 46.35 0 47.75 0 47.75 -3.45
Q 47.75 -4.55 48.25 -5.2 48.75 -5.85 49.6 -5.85 50.4 -5.85 50.8 -5.3 51.1 -4.7 51.1 -3.85
L 51.1 0 52.5 0 52.5 -4.15
Q 52.5 -5.35 51.9 -6.2 51.3 -7 50.05 -7 49.3 -7 48.65 -6.6 48.05 -6.25 47.75 -5.6
L 47.75 -10.9 Z"/>
</g>

<g id="BDM_200x200_psd_Asset_1_ManagedWiFi_Awareness_DM8_4_CTA_Watch_the_video___0_Layer0_0_MEMBER_7_FILL">
<path fill="#24B9D1" stroke="none" d="
M 58.95 -6.55
Q 58.2 -7 57.15 -7 56.25 -7 55.4 -6.55 54.55 -6.05 54.15 -5.3 53.7 -4.45 53.7 -3.4 53.7 -2.3 54.15 -1.5 54.55 -0.75 55.45 -0.25 56.3 0.2 57.3 0.2 58.95 0.2 60.05 -0.6
L 59.85 -1.65
Q 59.55 -1.4 58.75 -1.1 58.2 -0.9 57.45 -0.9 56.85 -0.9 56.2 -1.15 55.7 -1.45 55.35 -1.95 55.1 -2.4 55 -3.1
L 60.45 -3.1 60.5 -3.5
Q 60.5 -4.45 60.1 -5.35 59.6 -6.15 58.95 -6.55
M 55 -4
Q 55.1 -4.5 55.3 -4.95 55.6 -5.4 56.05 -5.7 56.6 -6 57.2 -6 58.1 -6 58.65 -5.45 59.2 -4.9 59.2 -4
L 55 -4 Z"/>
</g>

<g id="BDM_200x200_psd_Asset_1_ManagedWiFi_Awareness_DM8_4_CTA_Watch_the_video___0_Layer0_0_MEMBER_8_FILL">
<path fill="#24B9D1" stroke="none" d="
M 65.05 -6.8
L 63.55 -6.8 66.2 0 67.7 0 70.3 -6.8 68.85 -6.8 66.95 -1.45 65.05 -6.8 Z"/>
</g>

<g id="BDM_200x200_psd_Asset_1_ManagedWiFi_Awareness_DM8_4_CTA_Watch_the_video___0_Layer0_0_MEMBER_9_FILL">
<path fill="#24B9D1" stroke="none" d="
M 71.05 -8.7
Q 71.3 -8.45 71.65 -8.45 72 -8.45 72.25 -8.7 72.5 -9.05 72.5 -9.3 72.5 -9.65 72.25 -9.9 72.05 -10.15 71.65 -10.15 71.25 -10.15 71.05 -9.9 70.8 -9.7 70.8 -9.3 70.8 -8.95 71.05 -8.7
M 72.35 -6.8
L 70.95 -6.8 70.95 0 72.35 0 72.35 -6.8 Z"/>
</g>

<g id="BDM_200x200_psd_Asset_1_ManagedWiFi_Awareness_DM8_4_CTA_Watch_the_video___0_Layer0_0_MEMBER_10_FILL">
<path fill="#24B9D1" stroke="none" d="
M 80.85 -10.95
L 79.45 -10.75 79.45 -5.6
Q 79.1 -6.25 78.4 -6.65 77.75 -7 76.9 -7 75.9 -7 75.2 -6.5 74.45 -6.05 74 -5.2 73.6 -4.3 73.6 -3.4 73.6 -2.5 74 -1.6 74.5 -0.7 75.2 -0.3 76.05 0.2 76.95 0.2 77.75 0.2 78.45 -0.2 79.15 -0.55 79.5 -1.25
L 79.55 -1.25 79.6 0 80.9 0 80.85 -10.95
M 74.95 -3.4
Q 74.95 -4 75.2 -4.65 75.5 -5.2 76 -5.55 76.55 -5.85 77.2 -5.85 77.9 -5.85 78.4 -5.55 78.9 -5.2 79.2 -4.65 79.5 -4.05 79.5 -3.4 79.5 -2.7 79.2 -2.2 78.9 -1.6 78.4 -1.3 77.8 -0.95 77.2 -0.95 76.6 -0.95 76 -1.3 75.5 -1.6 75.2 -2.2 74.95 -2.8 74.95 -3.4 Z"/>
</g>

<g id="BDM_200x200_psd_Asset_1_ManagedWiFi_Awareness_DM8_4_CTA_Watch_the_video___0_Layer0_0_MEMBER_11_FILL">
<path fill="#24B9D1" stroke="none" d="
M 85.6 -7
Q 84.65 -7 83.8 -6.55 82.95 -6.05 82.55 -5.3 82.1 -4.45 82.1 -3.4 82.1 -2.3 82.55 -1.5 83.1 -0.65 83.85 -0.25 84.7 0.2 85.7 0.2 87.35 0.2 88.45 -0.6
L 88.25 -1.65
Q 87.9 -1.35 87.15 -1.1 86.6 -0.9 85.85 -0.9 85.25 -0.9 84.65 -1.15 84.25 -1.35 83.75 -1.95 83.5 -2.4 83.4 -3.1
L 88.9 -3.1 88.9 -3.5
Q 88.9 -4.45 88.5 -5.35 88.15 -6.1 87.35 -6.55 86.6 -7 85.6 -7
M 83.75 -4.95
Q 83.95 -5.35 84.45 -5.7 85 -6 85.6 -6 86.55 -6 87.05 -5.45 87.6 -4.9 87.6 -4
L 83.45 -4
Q 83.45 -4.5 83.75 -4.95 Z"/>
</g>

<g id="BDM_200x200_psd_Asset_1_ManagedWiFi_Awareness_DM8_4_CTA_Watch_the_video___0_Layer0_0_MEMBER_12_FILL">
<path fill="#24B9D1" stroke="none" d="
M 89.7 -3.4
Q 89.7 -2.35 90.15 -1.55 90.7 -0.7 91.5 -0.25 92.35 0.2 93.35 0.2 94.45 0.2 95.25 -0.25 96.1 -0.7 96.55 -1.55 97.05 -2.35 97.05 -3.4 97.05 -4.5 96.55 -5.3 96.15 -6.05 95.25 -6.55 94.45 -7 93.35 -7 92.35 -7 91.5 -6.55 90.65 -6.1 90.15 -5.3 89.7 -4.45 89.7 -3.4
M 94.6 -5.55
Q 95.1 -5.2 95.4 -4.65 95.7 -4.05 95.7 -3.4 95.7 -2.7 95.4 -2.2 95.1 -1.6 94.6 -1.3 94 -0.95 93.35 -0.95 92.75 -0.95 92.15 -1.3 91.55 -1.65 91.35 -2.2 91.05 -2.7 91.05 -3.4 91.05 -4.05 91.35 -4.65 91.55 -5.1 92.15 -5.55 92.7 -5.85 93.35 -5.85 94.1 -5.85 94.6 -5.55 Z"/>
</g>

<g id="BDM_200x200_psd_Asset_1_ManagedWiFi_Awareness_DM8_4_CTA_Watch_the_video___0_Layer0_0_MEMBER_13_FILL">
<path fill="#24B9D1" stroke="none" d="
M 98 -0.8
Q 98 -0.4 98.25 -0.15 98.6 0.1 98.9 0.1 99.35 0.1 99.55 -0.15 99.8 -0.35 99.8 -0.8 99.8 -1.25 99.55 -1.45 99.35 -1.75 98.9 -1.75 98.55 -1.75 98.25 -1.45 98 -1.2 98 -0.8 Z"/>
</g>

<g id="BDM_200x200_psd_Asset_1_ManagedWiFi_Awareness_DM8_4_footer_Do_more_with_Wi_Fi_as_a_Service__0_Layer0_0_MEMBER_0_FILL">
<path fill="#838282" stroke="none" d="
M 7.95 -6.65
Q 7.3 -7.6 6.2 -8.05 5.15 -8.5 3.85 -8.5
L 1.05 -8.5 1.05 0 3.9 0
Q 5.15 0 6.25 -0.45 7.3 -1 7.95 -1.9 8.6 -2.95 8.6 -4.25 8.6 -5.65 7.95 -6.65
M 2.25 -7.45
L 3.75 -7.45
Q 5.4 -7.45 6.35 -6.65 7.3 -5.85 7.3 -4.25 7.3 -2.65 6.35 -1.85 5.25 -1.05 3.75 -1.05
L 2.25 -1.05 2.25 -7.45 Z"/>
</g>

<g id="BDM_200x200_psd_Asset_1_ManagedWiFi_Awareness_DM8_4_footer_Do_more_with_Wi_Fi_as_a_Service__0_Layer0_0_MEMBER_1_FILL">
<path fill="#838282" stroke="none" d="
M 9.5 -2.9
Q 9.5 -1.9 9.9 -1.3 10.3 -0.6 11 -0.2 11.65 0.15 12.6 0.15 13.5 0.15 14.15 -0.2 14.8 -0.5 15.3 -1.3 15.7 -2 15.7 -2.9 15.7 -3.7 15.3 -4.5 14.85 -5.2 14.15 -5.55 13.45 -5.95 12.6 -5.95 11.7 -5.95 11 -5.55 10.25 -5.15 9.9 -4.5 9.5 -3.85 9.5 -2.9
M 13.65 -4.65
Q 14.05 -4.45 14.3 -3.9 14.55 -3.4 14.55 -2.9 14.55 -2.35 14.3 -1.85 14.05 -1.35 13.65 -1.1 13.2 -0.8 12.6 -0.8 12 -0.8 11.55 -1.1 11.05 -1.4 10.85 -1.85 10.65 -2.25 10.65 -2.9 10.65 -3.5 10.85 -3.9 11.05 -4.4 11.55 -4.65 12 -4.95 12.6 -4.95 13.2 -4.95 13.65 -4.65 Z"/>
</g>

<g id="BDM_200x200_psd_Asset_1_ManagedWiFi_Awareness_DM8_4_footer_Do_more_with_Wi_Fi_as_a_Service__0_Layer0_0_MEMBER_2_FILL">
<path fill="#838282" stroke="none" d="
M 19.5 -5.75
L 19.6 -4.5 19.6 0 20.75 0 20.75 -2.95
Q 20.75 -3.85 21.15 -4.4 21.6 -4.95 22.25 -4.95 22.85 -4.95 23.15 -4.55 23.45 -4.1 23.45 -3.35
L 23.45 0 24.6 0 24.6 -3
Q 24.6 -3.85 25 -4.4 25.45 -4.95 26.1 -4.95 26.75 -4.95 27.05 -4.45 27.35 -4 27.35 -3.25
L 27.35 0 28.5 0 28.5 -3.5
Q 28.5 -4.55 28 -5.2 27.5 -5.9 26.45 -5.9 25.7 -5.9 25.25 -5.6 24.65 -5.15 24.45 -4.65 24.25 -5.2 23.75 -5.6 23.3 -5.9 22.6 -5.9 21.95 -5.9 21.45 -5.55 21 -5.25 20.75 -4.7
L 20.7 -4.7 20.65 -5.75 19.5 -5.75 Z"/>
</g>

<g id="BDM_200x200_psd_Asset_1_ManagedWiFi_Awareness_DM8_4_footer_Do_more_with_Wi_Fi_as_a_Service__0_Layer0_0_MEMBER_3_FILL">
<path fill="#838282" stroke="none" d="
M 29.7 -2.9
Q 29.7 -1.9 30.1 -1.3 30.5 -0.6 31.2 -0.2 31.9 0.15 32.8 0.15 33.7 0.15 34.35 -0.2 35 -0.5 35.5 -1.3 35.9 -2 35.9 -2.9 35.9 -3.7 35.5 -4.5 35.05 -5.2 34.35 -5.55 33.65 -5.95 32.8 -5.95 32 -5.95 31.2 -5.55 30.45 -5.15 30.1 -4.5 29.7 -3.85 29.7 -2.9
M 33.85 -4.65
Q 34.25 -4.45 34.5 -3.9 34.75 -3.5 34.75 -2.9 34.75 -2.2 34.5 -1.85 34.25 -1.35 33.85 -1.1 33.4 -0.8 32.8 -0.8 32.2 -0.8 31.75 -1.1 31.25 -1.4 31.05 -1.85 30.85 -2.25 30.85 -2.9 30.85 -3.5 31.05 -3.9 31.25 -4.4 31.75 -4.65 32.2 -4.95 32.8 -4.95 33.4 -4.95 33.85 -4.65 Z"/>
</g>

<g id="BDM_200x200_psd_Asset_1_ManagedWiFi_Awareness_DM8_4_footer_Do_more_with_Wi_Fi_as_a_Service__0_Layer0_0_MEMBER_4_FILL">
<path fill="#838282" stroke="none" d="
M 38.25 -4.65
L 38.2 -5.75 37.1 -5.75 37.15 0 38.3 0 38.3 -2.9
Q 38.3 -3.65 38.7 -4.3 39.1 -4.9 39.75 -4.9
L 40.3 -4.8 40.45 -5.85 39.85 -5.9
Q 39.35 -5.9 38.95 -5.6 38.5 -5.25 38.3 -4.65
L 38.25 -4.65 Z"/>
</g>

<g id="BDM_200x200_psd_Asset_1_ManagedWiFi_Awareness_DM8_4_footer_Do_more_with_Wi_Fi_as_a_Service__0_Layer0_0_MEMBER_5_FILL">
<path fill="#838282" stroke="none" d="
M 44.95 -5.55
Q 44.25 -5.95 43.45 -5.95 42.65 -5.95 41.95 -5.55 41.25 -5.15 40.9 -4.45 40.5 -3.75 40.5 -2.9 40.5 -2 40.9 -1.3 41.35 -0.55 42 -0.2 42.65 0.15 43.55 0.15 44.95 0.15 45.9 -0.5
L 45.7 -1.4
Q 45.4 -1.15 44.8 -0.9
L 43.7 -0.75
Q 43.15 -0.75 42.65 -1 42.2 -1.2 41.95 -1.65 41.65 -2.1 41.65 -2.6
L 46.25 -2.6 46.25 -3
Q 46.25 -3.85 45.9 -4.5 45.6 -5.15 44.95 -5.55
M 44.7 -4.6
Q 45.15 -4.15 45.15 -3.4
L 41.65 -3.4
Q 41.65 -3.7 41.9 -4.2 42.1 -4.55 42.5 -4.85 43 -5.1 43.45 -5.1 44.25 -5.1 44.7 -4.6 Z"/>
</g>

<g id="BDM_200x200_psd_Asset_1_ManagedWiFi_Awareness_DM8_4_footer_Do_more_with_Wi_Fi_as_a_Service__0_Layer0_0_MEMBER_6_FILL">
<path fill="#838282" stroke="none" d="
M 50.6 -5.75
L 49.35 -5.75 51.2 0 52.4 0 53.85 -4.4 55.3 0 56.5 0 58.4 -5.75 57.2 -5.75 55.9 -1.3 54.45 -5.75 53.25 -5.75 51.85 -1.3 50.6 -5.75 Z"/>
</g>

<g id="BDM_200x200_psd_Asset_1_ManagedWiFi_Awareness_DM8_4_footer_Do_more_with_Wi_Fi_as_a_Service__0_Layer0_0_MEMBER_7_FILL">
<path fill="#838282" stroke="none" d="
M 60.4 -5.75
L 59.2 -5.75 59.2 0 60.4 0 60.4 -5.75
M 59.8 -7.15
Q 60.1 -7.15 60.3 -7.35 60.55 -7.6 60.55 -7.85 60.55 -8.15 60.3 -8.4 60 -8.6 59.8 -8.6 59.6 -8.6 59.3 -8.4 59.1 -8.2 59.1 -7.85 59.1 -7.55 59.3 -7.35 59.5 -7.15 59.8 -7.15 Z"/>
</g>

<g id="BDM_200x200_psd_Asset_1_ManagedWiFi_Awareness_DM8_4_footer_Do_more_with_Wi_Fi_as_a_Service__0_Layer0_0_MEMBER_8_FILL">
<path fill="#838282" stroke="none" d="
M 63.3 -7.35
L 62.15 -7.05 62.15 -5.75 61.3 -5.75 61.1 -4.85 62.15 -4.85 62.15 -1.6
Q 62.15 -0.8 62.55 -0.3 62.95 0.15 63.65 0.15 64.4 0.15 65.05 -0.2
L 64.9 -1
Q 64.5 -0.8 64.05 -0.8 63.3 -0.8 63.3 -1.75
L 63.3 -4.85 64.7 -4.85 64.9 -5.75 63.3 -5.75 63.3 -7.35 Z"/>
</g>

<g id="BDM_200x200_psd_Asset_1_ManagedWiFi_Awareness_DM8_4_footer_Do_more_with_Wi_Fi_as_a_Service__0_Layer0_0_MEMBER_9_FILL">
<path fill="#838282" stroke="none" d="
M 67 -2.9
Q 67 -3.85 67.45 -4.4 67.85 -4.95 68.55 -4.95 69.25 -4.95 69.55 -4.45 69.85 -4 69.85 -3.25
L 69.85 0 71.05 0 71.05 -3.55
Q 71.05 -4.55 70.5 -5.25 70.05 -5.9 68.95 -5.9 68.3 -5.9 67.75 -5.6 67.2 -5.2 67 -4.7
L 67 -9.2 65.8 -9.05 65.8 0 67 0 67 -2.9 Z"/>
</g>

<g id="BDM_200x200_psd_Asset_1_ManagedWiFi_Awareness_DM8_4_footer_Do_more_with_Wi_Fi_as_a_Service__0_Layer0_0_MEMBER_10_FILL">
<path fill="#838282" stroke="none" d="
M 75.55 -8.5
L 74.25 -8.5 76.7 0 78 0 80 -6.9 80.05 -6.9 82.1 0 83.35 0 85.85 -8.5 84.55 -8.5 82.7 -1.65 82.65 -1.65 80.7 -8.5 79.35 -8.5 77.45 -1.65 77.4 -1.65 75.55 -8.5 Z"/>
</g>

<g id="BDM_200x200_psd_Asset_1_ManagedWiFi_Awareness_DM8_4_footer_Do_more_with_Wi_Fi_as_a_Service__0_Layer0_0_MEMBER_11_FILL">
<path fill="#838282" stroke="none" d="
M 87.8 -5.75
L 86.6 -5.75 86.6 0 87.8 0 87.8 -5.75
M 87.2 -7.15
Q 87.5 -7.15 87.7 -7.35 87.95 -7.6 87.95 -7.85 87.95 -8.15 87.7 -8.4 87.4 -8.6 87.2 -8.6 87 -8.6 86.7 -8.4 86.5 -8.2 86.5 -7.85 86.5 -7.55 86.7 -7.35 86.9 -7.15 87.2 -7.15 Z"/>
</g>

<g id="BDM_200x200_psd_Asset_1_ManagedWiFi_Awareness_DM8_4_footer_Do_more_with_Wi_Fi_as_a_Service__0_Layer0_0_MEMBER_12_FILL">
<path fill="#838282" stroke="none" d="
M 88.95 -3.55
L 88.95 -2.6 91.65 -2.6 91.65 -3.55 88.95 -3.55 Z"/>
</g>

<g id="BDM_200x200_psd_Asset_1_ManagedWiFi_Awareness_DM8_4_footer_Do_more_with_Wi_Fi_as_a_Service__0_Layer0_0_MEMBER_13_FILL">
<path fill="#838282" stroke="none" d="
M 97.65 -8.5
L 92.9 -8.5 92.9 0 94.1 0 94.1 -3.75 97.25 -3.75 97.4 -4.8 94.1 -4.8 94.1 -7.45 97.5 -7.45 97.65 -8.5 Z"/>
</g>

<g id="BDM_200x200_psd_Asset_1_ManagedWiFi_Awareness_DM8_4_footer_Do_more_with_Wi_Fi_as_a_Service__0_Layer0_0_MEMBER_14_FILL">
<path fill="#838282" stroke="none" d="
M 99.7 -5.75
L 98.55 -5.75 98.55 0 99.7 0 99.7 -5.75
M 99.1 -7.15
Q 99.45 -7.15 99.65 -7.35 99.85 -7.65 99.85 -7.85 99.85 -8.1 99.65 -8.4 99.35 -8.6 99.1 -8.6 98.9 -8.6 98.6 -8.4 98.4 -8.2 98.4 -7.85 98.4 -7.55 98.6 -7.35 98.8 -7.15 99.1 -7.15 Z"/>
</g>

<g id="BDM_200x200_psd_Asset_1_ManagedWiFi_Awareness_DM8_4_footer_Do_more_with_Wi_Fi_as_a_Service__0_Layer0_0_MEMBER_15_FILL">
<path fill="#838282" stroke="none" d="
M 103.55 -1.6
Q 103.55 -0.7 104.1 -0.3 104.65 0.15 105.35 0.15 106.05 0.15 106.55 -0.15 107.05 -0.35 107.35 -0.9
L 107.4 -0.9 107.4 -0.5 107.5 0 108.55 0 108.45 -3.6
Q 108.45 -4.75 107.85 -5.35 107.25 -5.95 106.15 -5.95 104.85 -5.95 103.9 -5.25
L 104.2 -4.4 105 -4.85
Q 105.7 -5.05 105.95 -5.05 106.6 -5.05 106.95 -4.7 107.35 -4.4 107.35 -3.75
L 107.35 -3.5 106.85 -3.5
Q 105.55 -3.5 104.5 -3.1 103.55 -2.6 103.55 -1.6
M 104.95 -0.9
Q 104.65 -1.1 104.65 -1.6 104.65 -2.8 106.9 -2.8
L 107.4 -2.8 107.4 -2.35
Q 107.4 -1.95 107.15 -1.55 107.05 -1.25 106.6 -0.9 106.2 -0.65 105.65 -0.65 105.3 -0.65 104.95 -0.9 Z"/>
</g>

<g id="BDM_200x200_psd_Asset_1_ManagedWiFi_Awareness_DM8_4_footer_Do_more_with_Wi_Fi_as_a_Service__0_Layer0_0_MEMBER_16_FILL">
<path fill="#838282" stroke="none" d="
M 109.7 -1.35
L 109.55 -0.45
Q 109.95 -0.15 110.5 0 111.05 0.15 111.7 0.15
L 112.75 0
Q 113.3 -0.25 113.55 -0.6 113.85 -1.05 113.85 -1.6 113.85 -2.25 113.4 -2.7 113 -3.05 112.05 -3.35 111.2 -3.6 111.05 -3.75 110.75 -3.9 110.75 -4.3 110.75 -4.7 111.05 -4.85 111.3 -5.05 111.8 -5.05
L 112.55 -4.9
Q 113.05 -4.7 113.25 -4.5
L 113.7 -5.3
Q 113.3 -5.6 112.85 -5.75 112.15 -5.95 111.7 -5.95 111.35 -5.95 110.75 -5.75 110.2 -5.5 109.95 -5.15 109.65 -4.75 109.65 -4.2 109.65 -3.5 110.1 -3.15 110.6 -2.8 111.3 -2.6 112.1 -2.4 112.4 -2.15 112.75 -1.9 112.75 -1.55 112.75 -1.15 112.4 -0.9 112 -0.7 111.6 -0.7 110.7 -0.7 109.7 -1.35 Z"/>
</g>

<g id="BDM_200x200_psd_Asset_1_ManagedWiFi_Awareness_DM8_4_footer_Do_more_with_Wi_Fi_as_a_Service__0_Layer0_0_MEMBER_17_FILL">
<path fill="#838282" stroke="none" d="
M 121 -3.5
L 120.55 -3.5
Q 119.15 -3.5 118.2 -3.1 117.25 -2.65 117.25 -1.6 117.25 -0.65 117.75 -0.3 118.3 0.15 119.05 0.15 119.7 0.15 120.2 -0.15 120.7 -0.35 121 -0.9
L 121.05 -0.9 121.15 0 122.2 0 122.1 -3.6
Q 122.1 -4.75 121.5 -5.35 120.9 -5.95 119.8 -5.95 118.55 -5.95 117.55 -5.25
L 117.85 -4.4 118.65 -4.85
Q 119.35 -5.05 119.6 -5.05 120.3 -5.05 120.65 -4.7 121 -4.4 121 -3.75
L 121 -3.5
M 118.6 -0.9
Q 118.3 -1.1 118.3 -1.6 118.3 -2.8 120.55 -2.8
L 121.05 -2.8 121.05 -2.35
Q 121.05 -1.9 120.85 -1.55 120.65 -1.2 120.25 -0.9 119.85 -0.65 119.35 -0.65 118.95 -0.65 118.6 -0.9 Z"/>
</g>

<g id="BDM_200x200_psd_Asset_1_ManagedWiFi_Awareness_DM8_4_footer_Do_more_with_Wi_Fi_as_a_Service__0_Layer0_0_MEMBER_18_FILL">
<path fill="#838282" stroke="none" d="
M 129 -8.7
Q 128.15 -8.7 127.6 -8.45 126.9 -8.15 126.5 -7.6 126.1 -7.05 126.1 -6.25 126.1 -5.55 126.4 -5.1 126.7 -4.6 127.2 -4.35 127.6 -4.1 128.4 -3.85
L 129.5 -3.45
Q 129.9 -3.2 130.1 -2.95 130.35 -2.7 130.35 -2.2 130.35 -1.5 129.85 -1.15 129.45 -0.8 128.65 -0.8 128.05 -0.8 127.4 -1.05 126.75 -1.25 126.2 -1.75
L 126 -0.65
Q 126.5 -0.2 127.25 0 128.1 0.25 128.75 0.25 129.5 0.25 130.1 -0.05 130.75 -0.35 131.2 -0.95 131.6 -1.6 131.6 -2.35 131.6 -3 131.25 -3.55 130.95 -3.95 130.35 -4.3
L 128.1 -5.15 127.55 -5.6
Q 127.3 -5.95 127.3 -6.35 127.3 -6.95 127.8 -7.35 128.3 -7.7 129 -7.7 129.6 -7.7 130.15 -7.5 130.85 -7.2 131.05 -7
L 131.45 -8.05
Q 131.05 -8.35 130.35 -8.5 129.75 -8.7 129 -8.7 Z"/>
</g>

<g id="BDM_200x200_psd_Asset_1_ManagedWiFi_Awareness_DM8_4_footer_Do_more_with_Wi_Fi_as_a_Service__0_Layer0_0_MEMBER_19_FILL">
<path fill="#838282" stroke="none" d="
M 133.95 -5.55
Q 133.25 -5.15 132.9 -4.45 132.5 -3.85 132.5 -2.9 132.5 -1.9 132.9 -1.3 133.25 -0.6 133.95 -0.2 134.65 0.15 135.55 0.15 136.9 0.15 137.85 -0.5
L 137.7 -1.4 136.75 -0.9 135.65 -0.75
Q 135.15 -0.75 134.65 -1 134.3 -1.15 133.9 -1.65 133.6 -2.1 133.6 -2.6
L 138.2 -2.6 138.2 -3
Q 138.2 -3.8 137.9 -4.5 137.5 -5.2 136.9 -5.55 136.25 -5.95 135.45 -5.95 134.65 -5.95 133.95 -5.55
M 135.45 -5.1
Q 136.2 -5.1 136.65 -4.6 137.05 -4.2 137.15 -3.4
L 133.6 -3.4
Q 133.7 -3.9 133.85 -4.2 134.05 -4.55 134.5 -4.85 134.9 -5.1 135.45 -5.1 Z"/>
</g>

<g id="BDM_200x200_psd_Asset_1_ManagedWiFi_Awareness_DM8_4_footer_Do_more_with_Wi_Fi_as_a_Service__0_Layer0_0_MEMBER_20_FILL">
<path fill="#838282" stroke="none" d="
M 140.6 -2.9
Q 140.6 -3.65 141 -4.3 141.4 -4.9 142.1 -4.9
L 142.6 -4.8 142.75 -5.85 142.15 -5.9
Q 141.7 -5.9 141.25 -5.6 140.8 -5.25 140.6 -4.65
L 140.5 -5.75 139.4 -5.75 139.45 0 140.6 0 140.6 -2.9 Z"/>
</g>

<g id="BDM_200x200_psd_Asset_1_ManagedWiFi_Awareness_DM8_4_footer_Do_more_with_Wi_Fi_as_a_Service__0_Layer0_0_MEMBER_21_FILL">
<path fill="#838282" stroke="none" d="
M 143.8 -5.75
L 142.5 -5.75 144.75 0 146 0 148.2 -5.75 147 -5.75 145.4 -1.2 143.8 -5.75 Z"/>
</g>

<g id="BDM_200x200_psd_Asset_1_ManagedWiFi_Awareness_DM8_4_footer_Do_more_with_Wi_Fi_as_a_Service__0_Layer0_0_MEMBER_22_FILL">
<path fill="#838282" stroke="none" d="
M 150.1 -5.75
L 148.95 -5.75 148.95 0 150.1 0 150.1 -5.75
M 149.5 -7.15
Q 149.8 -7.15 150 -7.35 150.25 -7.6 150.25 -7.85 150.25 -8.15 150 -8.4 149.7 -8.6 149.5 -8.6 149.3 -8.6 149 -8.4 148.8 -8.2 148.8 -7.85 148.8 -7.55 149 -7.35 149.2 -7.15 149.5 -7.15 Z"/>
</g>

<g id="BDM_200x200_psd_Asset_1_ManagedWiFi_Awareness_DM8_4_footer_Do_more_with_Wi_Fi_as_a_Service__0_Layer0_0_MEMBER_23_FILL">
<path fill="#838282" stroke="none" d="
M 151.35 -2.9
Q 151.35 -1.95 151.7 -1.3 152.2 -0.5 152.8 -0.2 153.45 0.15 154.35 0.15 155 0.15 155.5 0 156.1 -0.25 156.4 -0.5
L 156.2 -1.45 155.45 -0.95
Q 155 -0.8 154.5 -0.8 153.9 -0.8 153.45 -1.1 152.95 -1.4 152.75 -1.85 152.5 -2.35 152.5 -2.9 152.5 -3.4 152.75 -3.9 152.95 -4.4 153.45 -4.65 153.85 -4.95 154.45 -4.95 154.9 -4.95 155.25 -4.8
L 155.95 -4.4 156.4 -5.3
Q 155.8 -5.65 155.5 -5.75 154.8 -5.95 154.4 -5.95 153.55 -5.95 152.85 -5.55 152.1 -5.2 151.75 -4.45 151.35 -3.85 151.35 -2.9 Z"/>
</g>

<g id="BDM_200x200_psd_Asset_1_ManagedWiFi_Awareness_DM8_4_footer_Do_more_with_Wi_Fi_as_a_Service__0_Layer0_0_MEMBER_24_FILL">
<path fill="#838282" stroke="none" d="
M 161.3 -5.55
Q 160.65 -5.95 159.85 -5.95 159.05 -5.95 158.35 -5.55 157.65 -5.15 157.3 -4.45 156.9 -3.85 156.9 -2.9 156.9 -1.9 157.3 -1.3 157.65 -0.6 158.35 -0.2 159.05 0.15 159.95 0.15 161.3 0.15 162.25 -0.5
L 162.1 -1.4
Q 161.85 -1.2 161.15 -0.9
L 160.05 -0.75
Q 159.55 -0.75 159.05 -1 158.65 -1.2 158.3 -1.65 158 -2.1 158 -2.6
L 162.6 -2.6 162.65 -3
Q 162.65 -3.7 162.3 -4.5 161.9 -5.2 161.3 -5.55
M 161.05 -4.6
Q 161.55 -4.1 161.55 -3.4
L 158 -3.4
Q 158.1 -3.9 158.25 -4.2 158.45 -4.55 158.9 -4.85 159.3 -5.1 159.85 -5.1 160.6 -5.1 161.05 -4.6 Z"/>
</g>

<g id="BDM_200x200_psd_Asset_1_ManagedWiFi_Awareness_DM8_4_footer_Do_more_with_Wi_Fi_as_a_Service__0_Layer0_0_MEMBER_25_FILL">
<path fill="#838282" stroke="none" d="
M 163.7 -0.7
Q 163.7 -0.4 163.95 -0.15 164.2 0.1 164.5 0.1 164.8 0.1 165.05 -0.15 165.3 -0.3 165.3 -0.7 165.3 -1 165.05 -1.25 164.85 -1.45 164.5 -1.45 164.15 -1.45 163.95 -1.25 163.7 -0.9 163.7 -0.7 Z"/>
</g>

<g id="BDM_200x200_psd_Asset_1_ManagedWiFi_Awareness_DM8_4_Learn_how_to_improve_customer_experiences_with_Wi_Fi_based_apps_0_Layer0_0_MEMBER_0_FILL">
<path fill="#D82C26" stroke="none" d="
M 0.95 -4.25
L 0.6 -4.25 0.6 0 2.8 0 2.85 -0.3 0.95 -0.3 0.95 -4.25 Z"/>
</g>

<g id="BDM_200x200_psd_Asset_1_ManagedWiFi_Awareness_DM8_4_Learn_how_to_improve_customer_experiences_with_Wi_Fi_based_apps_0_Layer0_0_MEMBER_1_FILL">
<path fill="#D82C26" stroke="none" d="
M 4.55 -2.9
Q 4.2 -2.9 3.85 -2.7 3.65 -2.6 3.35 -2.2 3.2 -1.8 3.2 -1.4 3.2 -0.95 3.35 -0.65 3.55 -0.3 3.9 -0.1 4.3 0.1 4.6 0.1 5.25 0.1 5.75 -0.25
L 5.7 -0.55 5.25 -0.3 4.65 -0.2
Q 4.35 -0.2 4.05 -0.35 3.8 -0.5 3.65 -0.8
L 3.5 -1.35 5.9 -1.35 5.9 -1.5
Q 5.9 -1.9 5.75 -2.2 5.55 -2.55 5.3 -2.7 5.05 -2.9 4.55 -2.9
M 4 -2.45
Q 4.3 -2.6 4.55 -2.6 5.05 -2.6 5.3 -2.35 5.55 -2.05 5.6 -1.6
L 3.55 -1.6 3.65 -2.05
Q 3.8 -2.3 4 -2.45 Z"/>
</g>

<g id="BDM_200x200_psd_Asset_1_ManagedWiFi_Awareness_DM8_4_Learn_how_to_improve_customer_experiences_with_Wi_Fi_based_apps_0_Layer0_0_MEMBER_2_FILL">
<path fill="#D82C26" stroke="none" d="
M 6.4 -0.75
Q 6.4 -0.3 6.65 -0.15 7 0.1 7.3 0.1 7.5 0.1 7.9 -0.1 8.2 -0.25 8.35 -0.55
L 8.35 -0.25 8.4 0 8.7 0 8.65 -1.8
Q 8.65 -2.4 8.4 -2.65 8.05 -2.9 7.6 -2.9
L 7 -2.8 6.55 -2.55 6.65 -2.25 7.05 -2.5
Q 7.25 -2.6 7.55 -2.6 7.95 -2.6 8.15 -2.4 8.35 -2.2 8.35 -1.85
L 8.35 -1.7 8 -1.7
Q 6.4 -1.7 6.4 -0.75
M 6.9 -0.35
Q 6.75 -0.4 6.75 -0.75 6.75 -1.45 8.05 -1.45
L 8.35 -1.45 8.35 -1.15 8.25 -0.7 7.9 -0.35
Q 7.7 -0.2 7.35 -0.2 7.15 -0.2 6.9 -0.35 Z"/>
</g>

<g id="BDM_200x200_psd_Asset_1_ManagedWiFi_Awareness_DM8_4_Learn_how_to_improve_customer_experiences_with_Wi_Fi_based_apps_0_Layer0_0_MEMBER_3_FILL">
<path fill="#D82C26" stroke="none" d="
M 9.85 -2.8
L 9.55 -2.8 9.55 0 9.9 0 9.9 -1.4
Q 9.9 -1.85 10.15 -2.25 10.35 -2.6 10.7 -2.6
L 10.95 -2.55 11.05 -2.85 10.75 -2.9
Q 10.45 -2.9 10.25 -2.7 10.1 -2.6 9.9 -2.2
L 9.85 -2.8 Z"/>
</g>

<g id="BDM_200x200_psd_Asset_1_ManagedWiFi_Awareness_DM8_4_Learn_how_to_improve_customer_experiences_with_Wi_Fi_based_apps_0_Layer0_0_MEMBER_4_FILL">
<path fill="#D82C26" stroke="none" d="
M 11.85 -2.8
L 11.5 -2.8 11.55 0 11.9 0 11.9 -1.45 12 -2.05
Q 12.15 -2.3 12.35 -2.45 12.6 -2.6 12.8 -2.6 13.25 -2.6 13.4 -2.3 13.6 -2.1 13.6 -1.65
L 13.6 0 13.95 0 13.95 -1.7
Q 13.95 -2.2 13.7 -2.55 13.4 -2.9 12.9 -2.9 12.5 -2.9 12.3 -2.7 12 -2.55 11.9 -2.2
L 11.85 -2.2 11.85 -2.8 Z"/>
</g>

<g id="BDM_200x200_psd_Asset_1_ManagedWiFi_Awareness_DM8_4_Learn_how_to_improve_customer_experiences_with_Wi_Fi_based_apps_0_Layer0_0_MEMBER_5_FILL">
<path fill="#D82C26" stroke="none" d="
M 16.25 -4.6
L 15.9 -4.55 15.9 0 16.25 0 16.25 -1.35 16.35 -2.05 16.7 -2.45
Q 16.95 -2.6 17.2 -2.6 17.6 -2.6 17.75 -2.3 17.95 -2.1 17.95 -1.65
L 17.95 0 18.3 0 18.3 -1.7
Q 18.3 -2.2 18.05 -2.55 17.85 -2.9 17.25 -2.9 16.9 -2.9 16.65 -2.7 16.45 -2.6 16.25 -2.2
L 16.25 -4.6 Z"/>
</g>

<g id="BDM_200x200_psd_Asset_1_ManagedWiFi_Awareness_DM8_4_Learn_how_to_improve_customer_experiences_with_Wi_Fi_based_apps_0_Layer0_0_MEMBER_6_FILL">
<path fill="#D82C26" stroke="none" d="
M 19.2 -0.65
Q 19.3 -0.4 19.7 -0.1 20.2 0.1 20.5 0.1 20.85 0.1 21.25 -0.1 21.6 -0.3 21.8 -0.65 22 -1.05 22 -1.4 22 -1.7 21.8 -2.2 21.5 -2.6 21.25 -2.7 21 -2.9 20.5 -2.9 20.05 -2.9 19.7 -2.7 19.35 -2.55 19.2 -2.2 19 -1.85 19 -1.4 19 -0.9 19.2 -0.65
M 19.5 -2
Q 19.65 -2.35 19.9 -2.45 20.15 -2.6 20.5 -2.6 20.8 -2.6 21.1 -2.45 21.35 -2.25 21.5 -2 21.65 -1.75 21.65 -1.4 21.65 -1.1 21.5 -0.8
L 21.1 -0.4
Q 20.85 -0.2 20.5 -0.2 20.1 -0.2 19.9 -0.4 19.7 -0.5 19.5 -0.8 19.35 -1.1 19.35 -1.4 19.35 -1.75 19.5 -2 Z"/>
</g>

<g id="BDM_200x200_psd_Asset_1_ManagedWiFi_Awareness_DM8_4_Learn_how_to_improve_customer_experiences_with_Wi_Fi_based_apps_0_Layer0_0_MEMBER_7_FILL">
<path fill="#D82C26" stroke="none" d="
M 22.65 -2.8
L 22.3 -2.8 23.15 0 23.55 0 24.35 -2.4 25.15 0 25.55 0 26.4 -2.8 26.05 -2.8 25.35 -0.4 24.55 -2.8 24.15 -2.8 23.35 -0.4 22.65 -2.8 Z"/>
</g>

<g id="BDM_200x200_psd_Asset_1_ManagedWiFi_Awareness_DM8_4_Learn_how_to_improve_customer_experiences_with_Wi_Fi_based_apps_0_Layer0_0_MEMBER_8_FILL">
<path fill="#D82C26" stroke="none" d="
M 28.4 -3.6
L 28.05 -3.5 28.05 -2.8 27.6 -2.8 27.55 -2.55 28.05 -2.55 28.05 -0.7
Q 28.05 -0.3 28.25 -0.15 28.4 0.05 28.7 0.05
L 29.05 0 29.3 -0.1 29.25 -0.35
Q 29.1 -0.25 28.8 -0.25 28.6 -0.25 28.5 -0.35 28.4 -0.55 28.4 -0.75
L 28.4 -2.55 29.15 -2.55 29.2 -2.8 28.4 -2.8 28.4 -3.6 Z"/>
</g>

<g id="BDM_200x200_psd_Asset_1_ManagedWiFi_Awareness_DM8_4_Learn_how_to_improve_customer_experiences_with_Wi_Fi_based_apps_0_Layer0_0_MEMBER_9_FILL">
<path fill="#D82C26" stroke="none" d="
M 29.75 -0.65
Q 29.85 -0.4 30.25 -0.1 30.75 0.1 31.05 0.1 31.3 0.1 31.8 -0.1 32.2 -0.4 32.35 -0.65 32.55 -1.05 32.55 -1.4 32.55 -1.7 32.35 -2.2 32.1 -2.55 31.8 -2.7 31.45 -2.9 31.05 -2.9 30.6 -2.9 30.25 -2.7 29.9 -2.55 29.75 -2.2 29.55 -1.85 29.55 -1.4 29.55 -0.9 29.75 -0.65
M 29.9 -1.4
L 30 -2
Q 30.15 -2.25 30.4 -2.45 30.7 -2.6 31.05 -2.6 31.35 -2.6 31.65 -2.45 31.9 -2.25 32.05 -2
L 32.15 -1.4
Q 32.15 -1 32.05 -0.8
L 31.65 -0.4
Q 31.4 -0.2 31.05 -0.2 30.65 -0.2 30.4 -0.4
L 30 -0.8 29.9 -1.4 Z"/>
</g>

<g id="BDM_200x200_psd_Asset_1_ManagedWiFi_Awareness_DM8_4_Learn_how_to_improve_customer_experiences_with_Wi_Fi_based_apps_0_Layer0_0_MEMBER_10_FILL">
<path fill="#D82C26" stroke="none" d="
M 34.65 -2.8
L 34.3 -2.8 34.3 0 34.65 0 34.65 -2.8
M 34.3 -3.75
L 34.45 -3.7 34.65 -3.75 34.7 -3.95 34.65 -4.1 34.45 -4.2 34.3 -4.1 34.2 -3.95 34.3 -3.75 Z"/>
</g>

<g id="BDM_200x200_psd_Asset_1_ManagedWiFi_Awareness_DM8_4_Learn_how_to_improve_customer_experiences_with_Wi_Fi_based_apps_0_Layer0_0_MEMBER_11_FILL">
<path fill="#D82C26" stroke="none" d="
M 36.8 -2.6
Q 37.1 -2.6 37.35 -2.35 37.5 -2.1 37.5 -1.65
L 37.5 0 37.85 0 37.85 -1.45
Q 37.85 -1.9 38.1 -2.3 38.4 -2.6 38.75 -2.6 39.15 -2.6 39.3 -2.3 39.5 -2.05 39.5 -1.6
L 39.5 0 39.85 0 39.85 -1.7
Q 39.85 -2.15 39.6 -2.55 39.4 -2.9 38.85 -2.9 38.45 -2.9 38.2 -2.7 37.95 -2.55 37.8 -2.15 37.75 -2.5 37.45 -2.7 37.25 -2.9 36.9 -2.9 36.5 -2.9 36.3 -2.7 36.1 -2.6 35.9 -2.2
L 35.85 -2.8 35.55 -2.8 35.55 0 35.9 0 35.9 -1.4
Q 35.9 -1.75 36.05 -2.05 36.1 -2.3 36.35 -2.45 36.6 -2.6 36.8 -2.6 Z"/>
</g>

<g id="BDM_200x200_psd_Asset_1_ManagedWiFi_Awareness_DM8_4_Learn_how_to_improve_customer_experiences_with_Wi_Fi_based_apps_0_Layer0_0_MEMBER_12_FILL">
<path fill="#D82C26" stroke="none" d="
M 42.95 -2.7
Q 42.7 -2.9 42.25 -2.9 41.8 -2.9 41.55 -2.7 41.3 -2.55 41.1 -2.2
L 41.05 -2.2 41.05 -2.8 40.7 -2.8 40.7 1.45 41.1 1.45 41.1 -0.6
Q 41.3 -0.25 41.55 -0.1 41.95 0.1 42.25 0.1 42.55 0.1 42.95 -0.1 43.25 -0.3 43.45 -0.65 43.65 -1 43.65 -1.4 43.65 -1.9 43.45 -2.15 43.3 -2.5 42.95 -2.7
M 42.2 -2.6
Q 42.55 -2.6 42.75 -2.45 43 -2.35 43.15 -2 43.3 -1.7 43.3 -1.4 43.3 -1.1 43.15 -0.8 42.95 -0.5 42.75 -0.4 42.55 -0.2 42.2 -0.2 41.85 -0.2 41.6 -0.4
L 41.2 -0.8
Q 41.05 -1.1 41.05 -1.4 41.05 -1.7 41.2 -2 41.35 -2.25 41.6 -2.45 41.9 -2.6 42.2 -2.6 Z"/>
</g>

<g id="BDM_200x200_psd_Asset_1_ManagedWiFi_Awareness_DM8_4_Learn_how_to_improve_customer_experiences_with_Wi_Fi_based_apps_0_Layer0_0_MEMBER_13_FILL">
<path fill="#D82C26" stroke="none" d="
M 44.7 -1.4
Q 44.7 -1.85 44.95 -2.25 45.2 -2.6 45.5 -2.6
L 45.75 -2.55 45.85 -2.85 45.55 -2.9
Q 45.25 -2.9 45.05 -2.7 44.9 -2.6 44.7 -2.2
L 44.65 -2.8 44.35 -2.8 44.35 0 44.7 0 44.7 -1.4 Z"/>
</g>

<g id="BDM_200x200_psd_Asset_1_ManagedWiFi_Awareness_DM8_4_Learn_how_to_improve_customer_experiences_with_Wi_Fi_based_apps_0_Layer0_0_MEMBER_14_FILL">
<path fill="#D82C26" stroke="none" d="
M 46.7 -2.7
Q 46.35 -2.55 46.2 -2.2 46 -1.85 46 -1.4 46 -0.9 46.2 -0.65 46.3 -0.4 46.7 -0.1 47.2 0.1 47.5 0.1 47.85 0.1 48.25 -0.1 48.6 -0.3 48.8 -0.65 49 -1.05 49 -1.4 49 -1.7 48.8 -2.2 48.5 -2.6 48.25 -2.7 48 -2.9 47.5 -2.9 47.05 -2.9 46.7 -2.7
M 46.9 -2.45
Q 47.15 -2.6 47.5 -2.6 47.8 -2.6 48.1 -2.45 48.35 -2.25 48.5 -2 48.65 -1.75 48.65 -1.4 48.65 -1.1 48.5 -0.8
L 48.1 -0.4
Q 47.85 -0.2 47.5 -0.2 47.1 -0.2 46.9 -0.4 46.7 -0.5 46.5 -0.8 46.35 -1.1 46.35 -1.4 46.35 -1.75 46.5 -2 46.65 -2.35 46.9 -2.45 Z"/>
</g>

<g id="BDM_200x200_psd_Asset_1_ManagedWiFi_Awareness_DM8_4_Learn_how_to_improve_customer_experiences_with_Wi_Fi_based_apps_0_Layer0_0_MEMBER_15_FILL">
<path fill="#D82C26" stroke="none" d="
M 49.6 -2.8
L 49.2 -2.8 50.3 0 50.7 0 51.75 -2.8 51.35 -2.8 50.5 -0.35 49.6 -2.8 Z"/>
</g>

<g id="BDM_200x200_psd_Asset_1_ManagedWiFi_Awareness_DM8_4_Learn_how_to_improve_customer_experiences_with_Wi_Fi_based_apps_0_Layer0_0_MEMBER_16_FILL">
<path fill="#D82C26" stroke="none" d="
M 52.15 -0.65
Q 52.25 -0.4 52.65 -0.1 53.15 0.1 53.4 0.1 54 0.1 54.5 -0.25
L 54.45 -0.55 54 -0.3 53.45 -0.2
Q 53.1 -0.2 52.85 -0.35 52.6 -0.5 52.45 -0.8 52.3 -1 52.3 -1.35
L 54.7 -1.35 54.7 -1.5
Q 54.7 -1.9 54.55 -2.2 54.35 -2.55 54.05 -2.7 53.8 -2.9 53.35 -2.9 52.9 -2.9 52.65 -2.7 52.3 -2.55 52.15 -2.2 51.95 -1.85 51.95 -1.4 51.95 -0.9 52.15 -0.65
M 52.45 -2.05
Q 52.5 -2.25 52.8 -2.45 53.05 -2.6 53.35 -2.6 53.85 -2.6 54.05 -2.35 54.35 -2.05 54.35 -1.6
L 52.3 -1.6
Q 52.3 -1.8 52.45 -2.05 Z"/>
</g>

<g id="BDM_200x200_psd_Asset_1_ManagedWiFi_Awareness_DM8_4_Learn_how_to_improve_customer_experiences_with_Wi_Fi_based_apps_0_Layer0_0_MEMBER_17_FILL">
<path fill="#D82C26" stroke="none" d="
M 0.55 5.25
Q 0.35 5.5 0.35 6 0.35 6.45 0.55 6.8 0.7 7.15 1.05 7.3 1.3 7.5 1.8 7.5
L 2.35 7.4 2.75 7.15 2.7 6.85 2.3 7.1 1.85 7.2
Q 1.5 7.2 1.25 7.05 1 6.95 0.85 6.6 0.7 6.3 0.7 6 0.7 5.7 0.85 5.4 1.05 5.1 1.25 5 1.45 4.8 1.8 4.8
L 2.25 4.9 2.6 5.1 2.75 4.85 2.35 4.6 1.8 4.5
Q 1.55 4.5 1.05 4.7 0.65 5 0.55 5.25 Z"/>
</g>

<g id="BDM_200x200_psd_Asset_1_ManagedWiFi_Awareness_DM8_4_Learn_how_to_improve_customer_experiences_with_Wi_Fi_based_apps_0_Layer0_0_MEMBER_18_FILL">
<path fill="#D82C26" stroke="none" d="
M 5.7 4.6
L 5.35 4.6 5.35 6 5.25 6.65
Q 5.15 6.9 4.9 7.05 4.7 7.2 4.45 7.2 4 7.2 3.85 6.9 3.65 6.7 3.65 6.25
L 3.65 4.6 3.3 4.6 3.3 6.3
Q 3.3 6.8 3.55 7.15 3.85 7.5 4.35 7.5 4.7 7.5 4.95 7.3 5.25 7.15 5.35 6.8
L 5.4 7.4 5.75 7.4 5.75 7.1 5.7 6.75 5.7 4.6 Z"/>
</g>

<g id="BDM_200x200_psd_Asset_1_ManagedWiFi_Awareness_DM8_4_Learn_how_to_improve_customer_experiences_with_Wi_Fi_based_apps_0_Layer0_0_MEMBER_19_FILL">
<path fill="#D82C26" stroke="none" d="
M 7.4 4.5
L 6.95 4.6
Q 6.8 4.65 6.6 4.85
L 6.45 5.3
Q 6.45 5.5 6.65 5.8
L 7.25 6.1
Q 7.65 6.15 7.85 6.35 8.05 6.5 8.05 6.7 8.05 7 7.85 7.05 7.7 7.2 7.4 7.2 6.85 7.2 6.5 6.85
L 6.4 7.2 6.85 7.4 7.45 7.5 7.9 7.4
Q 8.1 7.35 8.25 7.1 8.4 6.95 8.4 6.7 8.4 6.35 8.15 6.2 8.05 6.05 7.5 5.85 7 5.65 6.95 5.6 6.8 5.45 6.8 5.25 6.8 5.05 7 4.9
L 7.4 4.8 7.8 4.85 8.15 5.05 8.3 4.8 7.9 4.6 7.4 4.5 Z"/>
</g>

<g id="BDM_200x200_psd_Asset_1_ManagedWiFi_Awareness_DM8_4_Learn_how_to_improve_customer_experiences_with_Wi_Fi_based_apps_0_Layer0_0_MEMBER_20_FILL">
<path fill="#D82C26" stroke="none" d="
M 10.3 4.9
L 10.4 4.6 9.6 4.6 9.6 3.8 9.25 3.95 9.25 4.6 8.8 4.6 8.7 4.9 9.25 4.9 9.25 6.75
Q 9.25 7.1 9.4 7.3 9.65 7.45 9.9 7.45
L 10.2 7.45 10.5 7.3 10.45 7.05
Q 10.25 7.2 10 7.2
L 9.7 7.05 9.6 6.7 9.6 4.9 10.3 4.9 Z"/>
</g>

<g id="BDM_200x200_psd_Asset_1_ManagedWiFi_Awareness_DM8_4_Learn_how_to_improve_customer_experiences_with_Wi_Fi_based_apps_0_Layer0_0_MEMBER_21_FILL">
<path fill="#D82C26" stroke="none" d="
M 10.9 5.25
Q 10.7 5.65 10.7 6 10.7 6.35 10.9 6.75 11.15 7.2 11.45 7.3 11.8 7.5 12.2 7.5 12.65 7.5 13 7.3 13.35 7.15 13.5 6.75 13.7 6.5 13.7 6 13.7 5.5 13.5 5.25 13.4 5 13 4.7 12.5 4.5 12.2 4.5 11.95 4.5 11.45 4.7 11.1 4.9 10.9 5.25
M 11.05 6
Q 11.05 5.7 11.2 5.4 11.25 5.3 11.6 4.95 11.9 4.8 12.2 4.8 12.6 4.8 12.8 4.95 13.15 5.2 13.2 5.4 13.35 5.7 13.35 6 13.35 6.3 13.2 6.6 13.15 6.9 12.8 7.05 12.6 7.2 12.2 7.2 11.9 7.2 11.6 7.05 11.35 6.9 11.2 6.6 11.05 6.3 11.05 6 Z"/>
</g>

<g id="BDM_200x200_psd_Asset_1_ManagedWiFi_Awareness_DM8_4_Learn_how_to_improve_customer_experiences_with_Wi_Fi_based_apps_0_Layer0_0_MEMBER_22_FILL">
<path fill="#D82C26" stroke="none" d="
M 15.25 4.95
Q 15.4 4.8 15.7 4.8 16.05 4.8 16.2 5.05 16.4 5.25 16.4 5.75
L 16.4 7.4 16.75 7.4 16.75 5.95
Q 16.75 5.4 17 5.15 17.2 4.8 17.65 4.8 18.05 4.8 18.2 5.1 18.35 5.4 18.35 5.8
L 18.35 7.4 18.7 7.4 18.7 5.75
Q 18.7 5.15 18.45 4.85 18.2 4.5 17.7 4.5 17.4 4.5 17.1 4.7 16.75 4.95 16.7 5.25
L 16.35 4.7
Q 16.05 4.5 15.75 4.5 15.55 4.5 15.15 4.7 14.85 5 14.8 5.2
L 14.75 4.6 14.4 4.6 14.45 7.4 14.8 7.4 14.8 6 14.9 5.35 15.25 4.95 Z"/>
</g>

<g id="BDM_200x200_psd_Asset_1_ManagedWiFi_Awareness_DM8_4_Learn_how_to_improve_customer_experiences_with_Wi_Fi_based_apps_0_Layer0_0_MEMBER_23_FILL">
<path fill="#D82C26" stroke="none" d="
M 21.55 4.7
Q 21.15 4.5 20.8 4.5 20.5 4.5 20.1 4.7 19.7 5 19.6 5.25 19.4 5.65 19.4 6 19.4 6.35 19.6 6.75 19.85 7.2 20.1 7.3 20.45 7.5 20.85 7.5 21.5 7.5 22 7.15
L 21.9 6.85
Q 21.7 7.05 21.45 7.1
L 20.9 7.2
Q 20.6 7.2 20.3 7.05
L 19.9 6.65
Q 19.75 6.35 19.75 6.05
L 22.15 6.05 22.15 5.9
Q 22.15 5.5 22 5.2 21.85 4.95 21.55 4.7
M 21.55 5.05
Q 21.8 5.4 21.8 5.8
L 19.75 5.8
Q 19.75 5.6 19.9 5.35
L 20.25 4.95
Q 20.5 4.8 20.8 4.8 21.2 4.8 21.55 5.05 Z"/>
</g>

<g id="BDM_200x200_psd_Asset_1_ManagedWiFi_Awareness_DM8_4_Learn_how_to_improve_customer_experiences_with_Wi_Fi_based_apps_0_Layer0_0_MEMBER_24_FILL">
<path fill="#D82C26" stroke="none" d="
M 24.35 4.55
L 24.05 4.5
Q 23.85 4.5 23.55 4.7
L 23.2 5.2 23.15 4.6 22.85 4.6 22.85 7.4 23.2 7.4 23.2 6
Q 23.2 5.55 23.45 5.2 23.6 4.85 24 4.85
L 24.25 4.85 24.35 4.55 Z"/>
</g>

<g id="BDM_200x200_psd_Asset_1_ManagedWiFi_Awareness_DM8_4_Learn_how_to_improve_customer_experiences_with_Wi_Fi_based_apps_0_Layer0_0_MEMBER_25_FILL">
<path fill="#D82C26" stroke="none" d="
M 27.7 4.7
Q 27.3 4.5 26.95 4.5 26.65 4.5 26.25 4.7 25.85 5 25.75 5.25 25.55 5.5 25.55 6 25.55 6.5 25.75 6.75 25.9 7.15 26.25 7.3 26.6 7.5 27 7.5 27.7 7.5 28.1 7.15
L 28.05 6.85
Q 27.85 7.05 27.6 7.1
L 27.05 7.2
Q 26.7 7.2 26.45 7.05
L 26.05 6.65
Q 25.9 6.35 25.9 6.05
L 28.3 6.05 28.3 5.9
Q 28.3 5.5 28.15 5.2 28 4.95 27.7 4.7
M 26.95 4.8
Q 27.4 4.8 27.65 5.05 27.95 5.35 27.95 5.8
L 25.9 5.8
Q 25.9 5.6 26.05 5.35
L 26.4 4.95
Q 26.65 4.8 26.95 4.8 Z"/>
</g>

<g id="BDM_200x200_psd_Asset_1_ManagedWiFi_Awareness_DM8_4_Learn_how_to_improve_customer_experiences_with_Wi_Fi_based_apps_0_Layer0_0_MEMBER_26_FILL">
<path fill="#D82C26" stroke="none" d="
M 31.15 4.6
L 30.7 4.6 29.9 5.7 29.1 4.6 28.7 4.6 29.7 5.95 28.55 7.4 29 7.4 29.9 6.15 30.8 7.4 31.25 7.4 30.15 5.95 31.15 4.6 Z"/>
</g>

<g id="BDM_200x200_psd_Asset_1_ManagedWiFi_Awareness_DM8_4_Learn_how_to_improve_customer_experiences_with_Wi_Fi_based_apps_0_Layer0_0_MEMBER_27_FILL">
<path fill="#D82C26" stroke="none" d="
M 32.65 4.7
Q 32.3 4.9 32.15 5.2
L 32.1 4.6 31.8 4.6 31.8 8.85 32.15 8.85 32.15 6.8
Q 32.3 7.15 32.65 7.3 32.9 7.5 33.3 7.5 33.7 7.5 34.05 7.3 34.35 7.05 34.55 6.75 34.7 6.45 34.7 6
L 34.55 5.25
Q 34.35 4.95 34.05 4.7 33.55 4.5 33.3 4.5 33.05 4.5 32.65 4.7
M 32.3 5.4
Q 32.5 5.1 32.7 5 32.9 4.8 33.25 4.8 33.6 4.8 33.85 5 34.15 5.2 34.2 5.4 34.35 5.7 34.35 6 34.35 6.3 34.2 6.6 34.15 6.85 33.85 7.05 33.55 7.2 33.25 7.2 32.95 7.2 32.7 7.05 32.45 6.95 32.3 6.6 32.15 6.3 32.15 6 32.15 5.7 32.3 5.4 Z"/>
</g>

<g id="BDM_200x200_psd_Asset_1_ManagedWiFi_Awareness_DM8_4_Learn_how_to_improve_customer_experiences_with_Wi_Fi_based_apps_0_Layer0_0_MEMBER_28_FILL">
<path fill="#D82C26" stroke="none" d="
M 35.95 4.7
Q 35.55 5 35.45 5.25 35.25 5.5 35.25 6 35.25 6.5 35.45 6.75 35.6 7.15 35.95 7.3 36.3 7.5 36.7 7.5 37.4 7.5 37.8 7.15
L 37.75 6.85
Q 37.55 7.05 37.3 7.1
L 36.75 7.2
Q 36.4 7.2 36.15 7.05
L 35.75 6.65
Q 35.6 6.35 35.6 6.05
L 38 6.05 38 5.9
Q 38 5.5 37.85 5.2 37.7 4.9 37.35 4.7 36.95 4.5 36.65 4.5 36.35 4.5 35.95 4.7
M 35.75 5.35
Q 35.8 5.15 36.1 4.95 36.35 4.8 36.65 4.8 37.1 4.8 37.35 5.05 37.65 5.35 37.65 5.8
L 35.6 5.8
Q 35.6 5.6 35.75 5.35 Z"/>
</g>

<g id="BDM_200x200_psd_Asset_1_ManagedWiFi_Awareness_DM8_4_Learn_how_to_improve_customer_experiences_with_Wi_Fi_based_apps_0_Layer0_0_MEMBER_29_FILL">
<path fill="#D82C26" stroke="none" d="
M 40.15 4.55
L 39.85 4.5
Q 39.7 4.5 39.4 4.7 39.1 5 39.05 5.2
L 39 4.6 38.65 4.6 38.7 7.4 39.05 7.4 39.05 6
Q 39.05 5.6 39.25 5.2 39.45 4.85 39.85 4.85
L 40.1 4.85 40.15 4.55 Z"/>
</g>

<g id="BDM_200x200_psd_Asset_1_ManagedWiFi_Awareness_DM8_4_Learn_how_to_improve_customer_experiences_with_Wi_Fi_based_apps_0_Layer0_0_MEMBER_30_FILL">
<path fill="#D82C26" stroke="none" d="
M 41 4.6
L 40.65 4.6 40.65 7.4 41 7.4 41 4.6
M 40.65 3.65
L 40.85 3.75 41 3.65 41.1 3.5 41 3.3 40.85 3.2 40.65 3.3 40.6 3.5 40.65 3.65 Z"/>
</g>

<g id="BDM_200x200_psd_Asset_1_ManagedWiFi_Awareness_DM8_4_Learn_how_to_improve_customer_experiences_with_Wi_Fi_based_apps_0_Layer0_0_MEMBER_31_FILL">
<path fill="#D82C26" stroke="none" d="
M 42.4 4.7
Q 42.1 4.95 41.9 5.25 41.75 5.55 41.75 6 41.75 6.45 41.9 6.75 42.15 7.2 42.45 7.3 42.7 7.5 43.15 7.5 43.9 7.5 44.3 7.15
L 44.25 6.85 43.8 7.1 43.2 7.2
Q 42.9 7.2 42.6 7.05 42.3 6.85 42.25 6.65 42.1 6.35 42.1 6.05
L 44.45 6.05 44.45 5.9
Q 44.45 5.5 44.3 5.2 44.15 4.95 43.85 4.7 43.45 4.5 43.15 4.5 42.9 4.5 42.4 4.7
M 42.2 5.35
L 42.55 4.95
Q 42.85 4.8 43.15 4.8 43.5 4.8 43.85 5.05 44.05 5.25 44.15 5.8
L 42.1 5.8 42.2 5.35 Z"/>
</g>

<g id="BDM_200x200_psd_Asset_1_ManagedWiFi_Awareness_DM8_4_Learn_how_to_improve_customer_experiences_with_Wi_Fi_based_apps_0_Layer0_0_MEMBER_32_FILL">
<path fill="#D82C26" stroke="none" d="
M 46.55 4.5
Q 46.25 4.5 45.95 4.7 45.6 4.95 45.55 5.2
L 45.5 5.2 45.5 4.6 45.15 4.6 45.2 7.4 45.55 7.4 45.55 6 45.65 5.35 46 4.95
Q 46.25 4.8 46.45 4.8 46.9 4.8 47.05 5.1 47.25 5.35 47.25 5.8
L 47.25 7.4 47.6 7.4 47.6 5.7
Q 47.6 5.25 47.35 4.85 47 4.5 46.55 4.5 Z"/>
</g>

<g id="BDM_200x200_psd_Asset_1_ManagedWiFi_Awareness_DM8_4_Learn_how_to_improve_customer_experiences_with_Wi_Fi_based_apps_0_Layer0_0_MEMBER_33_FILL">
<path fill="#D82C26" stroke="none" d="
M 50.7 7.15
L 50.65 6.85 50.25 7.1 49.8 7.2
Q 49.45 7.2 49.2 7.05 48.95 6.95 48.8 6.6 48.65 6.3 48.65 6 48.65 5.7 48.8 5.4 49 5.1 49.2 5 49.4 4.8 49.75 4.8
L 50.2 4.9 50.55 5.1 50.7 4.85 50.3 4.6 49.75 4.5
Q 49.5 4.5 49 4.7 48.6 5 48.5 5.25 48.3 5.5 48.3 6 48.3 6.45 48.45 6.8 48.75 7.2 49 7.3 49.25 7.5 49.75 7.5
L 50.3 7.4 50.7 7.15 Z"/>
</g>

<g id="BDM_200x200_psd_Asset_1_ManagedWiFi_Awareness_DM8_4_Learn_how_to_improve_customer_experiences_with_Wi_Fi_based_apps_0_Layer0_0_MEMBER_34_FILL">
<path fill="#D82C26" stroke="none" d="
M 53.15 4.7
Q 52.75 4.5 52.45 4.5 52.15 4.5 51.75 4.7 51.35 5 51.25 5.25 51.05 5.5 51.05 6 51.05 6.5 51.25 6.75 51.4 7.15 51.75 7.3 52 7.5 52.5 7.5 53.2 7.5 53.6 7.15
L 53.55 6.85
Q 53.35 7.05 53.1 7.1
L 52.55 7.2
Q 52.2 7.2 51.95 7.05
L 51.55 6.65
Q 51.4 6.35 51.4 6.05
L 53.8 6.05 53.8 5.9
Q 53.8 5.5 53.65 5.2 53.55 5 53.15 4.7
M 52.45 4.8
Q 52.9 4.8 53.15 5.05 53.45 5.35 53.45 5.8
L 51.4 5.8
Q 51.4 5.6 51.55 5.35 51.6 5.15 51.9 4.95 52.15 4.8 52.45 4.8 Z"/>
</g>

<g id="BDM_200x200_psd_Asset_1_ManagedWiFi_Awareness_DM8_4_Learn_how_to_improve_customer_experiences_with_Wi_Fi_based_apps_0_Layer0_0_MEMBER_35_FILL">
<path fill="#D82C26" stroke="none" d="
M 56.15 4.8
L 55.75 4.6 55.25 4.5 54.8 4.6
Q 54.65 4.65 54.45 4.85
L 54.35 5.3
Q 54.35 5.6 54.55 5.8
L 55.15 6.1
Q 55.55 6.2 55.7 6.35 55.9 6.5 55.9 6.7 55.9 7 55.7 7.05 55.55 7.2 55.25 7.2 54.7 7.2 54.35 6.85
L 54.3 7.2 54.7 7.4 55.3 7.5 55.75 7.4
Q 55.95 7.35 56.1 7.1 56.25 6.95 56.25 6.7 56.25 6.4 56.05 6.2 55.9 6.05 55.4 5.85
L 54.8 5.6
Q 54.65 5.45 54.65 5.25 54.65 5.05 54.85 4.9
L 55.25 4.8 55.65 4.85 56 5.05 56.15 4.8 Z"/>
</g>

<g id="BDM_200x200_psd_Asset_1_ManagedWiFi_Awareness_DM8_4_Learn_how_to_improve_customer_experiences_with_Wi_Fi_based_apps_0_Layer0_0_MEMBER_36_FILL">
<path fill="#D82C26" stroke="none" d="
M 0.55 12
L 0.15 12 1 14.85 1.4 14.85 2.2 12.45 3.05 14.85 3.4 14.85 4.3 12 3.9 12 3.2 14.45 2.4 12 2.05 12 1.25 14.45 1.2 14.45 0.55 12 Z"/>
</g>

<g id="BDM_200x200_psd_Asset_1_ManagedWiFi_Awareness_DM8_4_Learn_how_to_improve_customer_experiences_with_Wi_Fi_based_apps_0_Layer0_0_MEMBER_37_FILL">
<path fill="#D82C26" stroke="none" d="
M 5.2 12
L 4.85 12 4.85 14.85 5.2 14.85 5.2 12
M 5.05 10.65
L 4.85 10.7 4.75 10.9 4.85 11.05 5.05 11.15 5.2 11.05 5.3 10.9 5.2 10.7 5.05 10.65 Z"/>
</g>

<g id="BDM_200x200_psd_Asset_1_ManagedWiFi_Awareness_DM8_4_Learn_how_to_improve_customer_experiences_with_Wi_Fi_based_apps_0_Layer0_0_MEMBER_38_FILL">
<path fill="#D82C26" stroke="none" d="
M 6.25 11.35
L 6.25 12 5.8 12 5.7 12.3 6.25 12.3 6.25 14.15
Q 6.25 14.5 6.4 14.7 6.7 14.9 6.9 14.9
L 7.2 14.85 7.5 14.75 7.45 14.45
Q 7.25 14.6 7 14.6
L 6.7 14.5 6.6 14.1 6.6 12.3 7.3 12.3 7.4 12 6.6 12 6.6 11.2 6.25 11.35 Z"/>
</g>

<g id="BDM_200x200_psd_Asset_1_ManagedWiFi_Awareness_DM8_4_Learn_how_to_improve_customer_experiences_with_Wi_Fi_based_apps_0_Layer0_0_MEMBER_39_FILL">
<path fill="#D82C26" stroke="none" d="
M 8.35 10.25
L 8 10.3 8 14.85 8.35 14.85 8.35 13.45
Q 8.35 13.1 8.5 12.8 8.65 12.5 8.85 12.35
L 9.3 12.25
Q 9.8 12.25 9.9 12.5 10.05 12.8 10.05 13.2
L 10.05 14.85 10.4 14.85 10.4 13.1
Q 10.4 12.55 10.15 12.25 9.95 11.95 9.4 11.95 9.05 11.95 8.8 12.1 8.45 12.35 8.4 12.6
L 8.35 12.6 8.35 10.25 Z"/>
</g>

<g id="BDM_200x200_psd_Asset_1_ManagedWiFi_Awareness_DM8_4_Learn_how_to_improve_customer_experiences_with_Wi_Fi_based_apps_0_Layer0_0_MEMBER_40_FILL">
<path fill="#D82C26" stroke="none" d="
M 12.35 10.6
L 11.95 10.6 13.2 14.85 13.6 14.85 14.75 11.05 15.85 14.85 16.3 14.85 17.55 10.6 17.15 10.6 16.05 14.35 14.95 10.6 14.5 10.6 13.45 14.35 13.4 14.35 12.35 10.6 Z"/>
</g>

<g id="BDM_200x200_psd_Asset_1_ManagedWiFi_Awareness_DM8_4_Learn_how_to_improve_customer_experiences_with_Wi_Fi_based_apps_0_Layer0_0_MEMBER_41_FILL">
<path fill="#D82C26" stroke="none" d="
M 18.45 12
L 18.1 12 18.1 14.85 18.45 14.85 18.45 12
M 18.45 10.7
L 18.3 10.65 18.1 10.7 18.05 10.9 18.1 11.05 18.3 11.15 18.45 11.05 18.55 10.9 18.45 10.7 Z"/>
</g>

<g id="BDM_200x200_psd_Asset_1_ManagedWiFi_Awareness_DM8_4_Learn_how_to_improve_customer_experiences_with_Wi_Fi_based_apps_0_Layer0_0_MEMBER_42_FILL">
<path fill="#D82C26" stroke="none" d="
M 19.25 13.15
L 19.25 13.45 20.45 13.45 20.45 13.15 19.25 13.15 Z"/>
</g>

<g id="BDM_200x200_psd_Asset_1_ManagedWiFi_Awareness_DM8_4_Learn_how_to_improve_customer_experiences_with_Wi_Fi_based_apps_0_Layer0_0_MEMBER_43_FILL">
<path fill="#D82C26" stroke="none" d="
M 23.5 10.6
L 21.3 10.6 21.3 14.85 21.7 14.85 21.7 12.8 23.35 12.8 23.4 12.5 21.7 12.5 21.7 10.9 23.5 10.9 23.5 10.6 Z"/>
</g>

<g id="BDM_200x200_psd_Asset_1_ManagedWiFi_Awareness_DM8_4_Learn_how_to_improve_customer_experiences_with_Wi_Fi_based_apps_0_Layer0_0_MEMBER_44_FILL">
<path fill="#D82C26" stroke="none" d="
M 24.55 12
L 24.2 12 24.2 14.85 24.55 14.85 24.55 12
M 24.55 10.7
L 24.35 10.65 24.2 10.7 24.1 10.9 24.2 11.05 24.35 11.15 24.55 11.05 24.6 10.9 24.55 10.7 Z"/>
</g>

<g id="BDM_200x200_psd_Asset_1_ManagedWiFi_Awareness_DM8_4_Learn_how_to_improve_customer_experiences_with_Wi_Fi_based_apps_0_Layer0_0_MEMBER_45_FILL">
<path fill="#D82C26" stroke="none" d="
M 26.9 10.2
L 26.5 10.3 26.5 14.85 26.8 14.85 26.85 14.2 26.9 14.2
Q 27.05 14.55 27.35 14.7 27.6 14.9 28.05 14.9 28.5 14.9 28.75 14.7 29.1 14.55 29.25 14.2 29.45 13.85 29.45 13.4 29.45 13 29.25 12.65 29.1 12.3 28.75 12.15 28.5 11.95 28.05 11.95 27.65 11.95 27.35 12.1 27.05 12.35 26.9 12.6
L 26.9 10.2
M 28.55 12.4
Q 28.8 12.5 28.95 12.85 29.1 13.1 29.1 13.4 29.1 13.8 28.95 14 28.8 14.35 28.55 14.45 28.35 14.6 28 14.6 27.7 14.6 27.4 14.45 27.15 14.3 27 14 26.85 13.8 26.85 13.4 26.85 13.1 27 12.85 27.15 12.6 27.4 12.4 27.7 12.25 28 12.25 28.35 12.25 28.55 12.4 Z"/>
</g>

<g id="BDM_200x200_psd_Asset_1_ManagedWiFi_Awareness_DM8_4_Learn_how_to_improve_customer_experiences_with_Wi_Fi_based_apps_0_Layer0_0_MEMBER_46_FILL">
<path fill="#D82C26" stroke="none" d="
M 30.65 12.3
L 31.1 12.2
Q 31.4 12.2 31.7 12.4 31.9 12.6 31.9 13
L 31.9 13.15 31.55 13.15
Q 29.95 13.15 29.95 14.05 29.95 14.45 30.2 14.7 30.45 14.9 30.85 14.9 31.2 14.9 31.5 14.75 31.75 14.65 31.9 14.3
L 31.95 14.55 31.95 14.85 32.3 14.85 32.25 13
Q 32.25 12.5 31.95 12.2 31.7 11.95 31.15 11.95
L 30.6 12
Q 30.2 12.2 30.1 12.3
L 30.2 12.55 30.65 12.3
M 31.9 13.35
L 31.9 13.65 31.8 14.1 31.45 14.5
Q 31.25 14.65 30.95 14.65 30.65 14.65 30.5 14.5 30.3 14.35 30.3 14.05 30.3 13.35 31.6 13.35
L 31.9 13.35 Z"/>
</g>

<g id="BDM_200x200_psd_Asset_1_ManagedWiFi_Awareness_DM8_4_Learn_how_to_improve_customer_experiences_with_Wi_Fi_based_apps_0_Layer0_0_MEMBER_47_FILL">
<path fill="#D82C26" stroke="none" d="
M 33.45 12
Q 33.15 12.1 33.1 12.3 32.95 12.45 32.95 12.7 32.95 13.05 33.15 13.2
L 34.35 13.75
Q 34.5 13.9 34.5 14.1 34.5 14.35 34.35 14.5 34.15 14.65 33.9 14.65 33.4 14.65 32.95 14.3
L 32.9 14.6
Q 33 14.7 33.35 14.8 33.5 14.9 33.9 14.9
L 34.35 14.8
Q 34.6 14.7 34.7 14.55
L 34.85 14.1
Q 34.85 13.75 34.65 13.6 34.45 13.4 34 13.25
L 33.45 13
Q 33.3 12.95 33.3 12.7 33.3 12.45 33.45 12.35 33.6 12.2 33.9 12.2
L 34.3 12.3
Q 34.55 12.45 34.6 12.5
L 34.75 12.25 34.4 12 33.9 11.95 33.45 12 Z"/>
</g>

<g id="BDM_200x200_psd_Asset_1_ManagedWiFi_Awareness_DM8_4_Learn_how_to_improve_customer_experiences_with_Wi_Fi_based_apps_0_Layer0_0_MEMBER_48_FILL">
<path fill="#D82C26" stroke="none" d="
M 36.75 11.95
Q 36.35 11.95 36.05 12.1 35.7 12.3 35.55 12.65 35.35 12.9 35.35 13.4 35.35 13.85 35.55 14.2 35.7 14.55 36.05 14.7 36.3 14.9 36.8 14.9 37.5 14.9 37.9 14.55
L 37.85 14.25
Q 37.65 14.45 37.4 14.5 37.2 14.6 36.8 14.6 36.5 14.6 36.25 14.45 36.05 14.35 35.85 14.05 35.7 13.85 35.7 13.45
L 38.05 13.45 38.1 13.3
Q 38.1 12.95 37.9 12.6 37.75 12.35 37.45 12.1 37.15 11.95 36.75 11.95
M 36.2 12.35
Q 36.45 12.2 36.75 12.2 37.25 12.2 37.45 12.5 37.75 12.75 37.75 13.2
L 35.7 13.2 35.85 12.75
Q 35.9 12.55 36.2 12.35 Z"/>
</g>

<g id="BDM_200x200_psd_Asset_1_ManagedWiFi_Awareness_DM8_4_Learn_how_to_improve_customer_experiences_with_Wi_Fi_based_apps_0_Layer0_0_MEMBER_49_FILL">
<path fill="#D82C26" stroke="none" d="
M 41.55 10.2
L 41.2 10.3 41.2 12.6 41.15 12.6
Q 41 12.35 40.7 12.1 40.4 11.95 40.05 11.95 39.55 11.95 39.3 12.15 38.95 12.3 38.8 12.65 38.6 13.15 38.6 13.4 38.6 13.7 38.8 14.2 38.95 14.55 39.3 14.7 39.55 14.9 40.05 14.9 40.4 14.9 40.7 14.75 41 14.5 41.2 14.2
L 41.2 14.85 41.55 14.85 41.55 10.2
M 40.65 12.4
Q 40.9 12.6 41.05 12.85 41.2 13.1 41.2 13.4 41.2 13.8 41.05 14 40.9 14.3 40.65 14.45 40.45 14.6 40.1 14.6 39.75 14.6 39.5 14.45 39.25 14.3 39.1 14 38.95 13.8 38.95 13.4 38.95 13.1 39.1 12.85 39.25 12.6 39.5 12.4 39.75 12.25 40.1 12.25 40.45 12.25 40.65 12.4 Z"/>
</g>

<g id="BDM_200x200_psd_Asset_1_ManagedWiFi_Awareness_DM8_4_Learn_how_to_improve_customer_experiences_with_Wi_Fi_based_apps_0_Layer0_0_MEMBER_50_FILL">
<path fill="#D82C26" stroke="none" d="
M 44 12.3
L 44.45 12.2
Q 44.75 12.2 45.05 12.4 45.25 12.6 45.25 13
L 45.25 13.15 44.9 13.15
Q 43.3 13.15 43.3 14.05 43.3 14.5 43.6 14.7 43.8 14.9 44.2 14.9 44.55 14.9 44.85 14.75 45.1 14.65 45.25 14.3
L 45.3 14.55 45.3 14.85 45.65 14.85 45.6 13
Q 45.6 12.5 45.3 12.2 45.05 11.95 44.5 11.95
L 43.95 12
Q 43.55 12.2 43.45 12.3
L 43.55 12.55 44 12.3
M 45.25 13.35
L 45.25 13.65
Q 45.25 13.95 45.15 14.1 45.1 14.3 44.8 14.5 44.6 14.65 44.3 14.65 44 14.65 43.85 14.5 43.65 14.35 43.65 14.05 43.65 13.35 44.95 13.35
L 45.25 13.35 Z"/>
</g>

<g id="BDM_200x200_psd_Asset_1_ManagedWiFi_Awareness_DM8_4_Learn_how_to_improve_customer_experiences_with_Wi_Fi_based_apps_0_Layer0_0_MEMBER_51_FILL">
<path fill="#D82C26" stroke="none" d="
M 46.8 12
L 46.45 12 46.5 12.55 46.5 16.25 46.85 16.25 46.85 14.25
Q 47 14.5 47.3 14.75 47.6 14.9 48 14.9 48.45 14.9 48.7 14.7 49 14.6 49.2 14.2 49.4 13.85 49.4 13.4 49.4 13 49.2 12.65 49 12.3 48.7 12.15 48.45 11.95 48 11.95 47.6 11.95 47.3 12.1 46.95 12.35 46.85 12.65
L 46.8 12.65 46.8 12
M 48.9 14
Q 48.75 14.35 48.5 14.45 48.3 14.6 47.95 14.6 47.65 14.6 47.35 14.45 47.1 14.3 46.95 14 46.8 13.8 46.8 13.4 46.8 13.1 46.95 12.85 47.1 12.6 47.35 12.4 47.65 12.25 47.95 12.25 48.3 12.25 48.5 12.4 48.75 12.5 48.9 12.85 49.05 13.1 49.05 13.4 49.05 13.8 48.9 14 Z"/>
</g>

<g id="BDM_200x200_psd_Asset_1_ManagedWiFi_Awareness_DM8_4_Learn_how_to_improve_customer_experiences_with_Wi_Fi_based_apps_0_Layer0_0_MEMBER_52_FILL">
<path fill="#D82C26" stroke="none" d="
M 51.6 11.95
Q 51.25 11.95 50.95 12.1 50.65 12.35 50.45 12.65
L 50.45 12 50.1 12 50.1 16.25 50.45 16.25 50.45 14.25 50.5 14.25
Q 50.65 14.5 50.95 14.75 51.25 14.9 51.6 14.9 52.1 14.9 52.35 14.7 52.7 14.55 52.85 14.2 53 13.85 53 13.4
L 52.85 12.65
Q 52.7 12.3 52.35 12.15 52.1 11.95 51.6 11.95
M 50.45 13.4
Q 50.45 13.1 50.6 12.85 50.75 12.5 51 12.4 51.25 12.25 51.55 12.25 51.95 12.25 52.15 12.4 52.4 12.6 52.55 12.85
L 52.65 13.4 52.55 14
Q 52.4 14.3 52.15 14.45 51.95 14.6 51.55 14.6 51.25 14.6 51 14.45 50.75 14.35 50.6 14 50.45 13.8 50.45 13.4 Z"/>
</g>

<g id="BDM_200x200_psd_Asset_1_ManagedWiFi_Awareness_DM8_4_Learn_how_to_improve_customer_experiences_with_Wi_Fi_based_apps_0_Layer0_0_MEMBER_53_FILL">
<path fill="#D82C26" stroke="none" d="
M 54.05 12
Q 53.85 12.05 53.7 12.3 53.55 12.45 53.55 12.7 53.55 13 53.75 13.2
L 54.35 13.5
Q 54.9 13.7 54.95 13.75 55.15 13.95 55.15 14.1 55.15 14.3 54.95 14.5 54.75 14.65 54.5 14.65 54.1 14.65 53.55 14.3
L 53.5 14.6
Q 53.6 14.7 53.95 14.8 54.1 14.9 54.5 14.9
L 55 14.8
Q 55.15 14.75 55.35 14.55
L 55.45 14.1
Q 55.45 13.75 55.25 13.6 55.05 13.4 54.6 13.25 54.1 13.05 54.05 13 53.9 12.95 53.9 12.7 53.9 12.45 54.05 12.35 54.3 12.2 54.5 12.2
L 54.9 12.3 55.25 12.5 55.4 12.25 55 12 54.5 11.95 54.05 12 Z"/>
</g>

<g id="BDM_200x200_psd_Asset_1_ManagedWiFi_Awareness_DM8_4_Learn_how_to_improve_customer_experiences_with_Wi_Fi_based_apps_0_Layer0_0_MEMBER_54_FILL">
<path fill="#D82C26" stroke="none" d="
M 56.2 14.8
L 56.4 14.85 56.6 14.8 56.7 14.6 56.6 14.4 56.4 14.3 56.2 14.4 56.15 14.6 56.2 14.8 Z"/>
</g>
</defs>

<g transform="matrix( 1, 0, 0, 1, -55,-13) ">
<g transform="matrix( 1, 0, 0, 1, 0,5) ">
<g transform="matrix( 1, 0, 0, 1, 79,112) ">
<g transform="matrix( 1, 0, 0, 1, 33,7) ">
<g transform="matrix( 1.1267547607421875, 0, 0, 1.1267547607421875, 0.6,12.6) ">
<use xlink:href="#BDM_200x200_psd_Asset_1_ManagedWiFi_Awareness_DM8_4_CTA_Watch_the_video___0_Layer0_0_MEMBER_0_FILL"/>
</g>

<g transform="matrix( 1.1267547607421875, 0, 0, 1.1267547607421875, 0.6,12.6) ">
<use xlink:href="#BDM_200x200_psd_Asset_1_ManagedWiFi_Awareness_DM8_4_CTA_Watch_the_video___0_Layer0_0_MEMBER_1_FILL"/>
</g>

<g transform="matrix( 1.1267547607421875, 0, 0, 1.1267547607421875, 0.6,12.6) ">
<use xlink:href="#BDM_200x200_psd_Asset_1_ManagedWiFi_Awareness_DM8_4_CTA_Watch_the_video___0_Layer0_0_MEMBER_2_FILL"/>
</g>

<g transform="matrix( 1.1267547607421875, 0, 0, 1.1267547607421875, 0.6,12.6) ">
<use xlink:href="#BDM_200x200_psd_Asset_1_ManagedWiFi_Awareness_DM8_4_CTA_Watch_the_video___0_Layer0_0_MEMBER_3_FILL"/>
</g>

<g transform="matrix( 1.1267547607421875, 0, 0, 1.1267547607421875, 0.6,12.6) ">
<use xlink:href="#BDM_200x200_psd_Asset_1_ManagedWiFi_Awareness_DM8_4_CTA_Watch_the_video___0_Layer0_0_MEMBER_4_FILL"/>
</g>

<g transform="matrix( 1.1267547607421875, 0, 0, 1.1267547607421875, 0.6,12.6) ">
<use xlink:href="#BDM_200x200_psd_Asset_1_ManagedWiFi_Awareness_DM8_4_CTA_Watch_the_video___0_Layer0_0_MEMBER_5_FILL"/>
</g>

<g transform="matrix( 1.1267547607421875, 0, 0, 1.1267547607421875, 0.6,12.6) ">
<use xlink:href="#BDM_200x200_psd_Asset_1_ManagedWiFi_Awareness_DM8_4_CTA_Watch_the_video___0_Layer0_0_MEMBER_6_FILL"/>
</g>

<g transform="matrix( 1.1267547607421875, 0, 0, 1.1267547607421875, 0.6,12.6) ">
<use xlink:href="#BDM_200x200_psd_Asset_1_ManagedWiFi_Awareness_DM8_4_CTA_Watch_the_video___0_Layer0_0_MEMBER_7_FILL"/>
</g>

<g transform="matrix( 1.1267547607421875, 0, 0, 1.1267547607421875, 0.6,12.6) ">
<use xlink:href="#BDM_200x200_psd_Asset_1_ManagedWiFi_Awareness_DM8_4_CTA_Watch_the_video___0_Layer0_0_MEMBER_8_FILL"/>
</g>

<g transform="matrix( 1.1267547607421875, 0, 0, 1.1267547607421875, 0.6,12.6) ">
<use xlink:href="#BDM_200x200_psd_Asset_1_ManagedWiFi_Awareness_DM8_4_CTA_Watch_the_video___0_Layer0_0_MEMBER_9_FILL"/>
</g>

<g transform="matrix( 1.1267547607421875, 0, 0, 1.1267547607421875, 0.6,12.6) ">
<use xlink:href="#BDM_200x200_psd_Asset_1_ManagedWiFi_Awareness_DM8_4_CTA_Watch_the_video___0_Layer0_0_MEMBER_10_FILL"/>
</g>

<g transform="matrix( 1.1267547607421875, 0, 0, 1.1267547607421875, 0.6,12.6) ">
<use xlink:href="#BDM_200x200_psd_Asset_1_ManagedWiFi_Awareness_DM8_4_CTA_Watch_the_video___0_Layer0_0_MEMBER_11_FILL"/>
</g>

<g transform="matrix( 1.1267547607421875, 0, 0, 1.1267547607421875, 0.6,12.6) ">
<use xlink:href="#BDM_200x200_psd_Asset_1_ManagedWiFi_Awareness_DM8_4_CTA_Watch_the_video___0_Layer0_0_MEMBER_12_FILL"/>
</g>

<g transform="matrix( 1.1267547607421875, 0, 0, 1.1267547607421875, 0.6,12.6) ">
<use xlink:href="#BDM_200x200_psd_Asset_1_ManagedWiFi_Awareness_DM8_4_CTA_Watch_the_video___0_Layer0_0_MEMBER_13_FILL"/>
</g>
</g>
</g>

<g transform="matrix( 1, 0, 0, 1, 72,167) ">
<g transform="matrix( 1, 0, 0, 1, 0,0) ">
<g transform="matrix( 1.00018310546875, 0, 0, 1.00018310546875, -0.75,9.8) ">
<use xlink:href="#BDM_200x200_psd_Asset_1_ManagedWiFi_Awareness_DM8_4_footer_Do_more_with_Wi_Fi_as_a_Service__0_Layer0_0_MEMBER_0_FILL"/>
</g>

<g transform="matrix( 1.00018310546875, 0, 0, 1.00018310546875, -0.75,9.8) ">
<use xlink:href="#BDM_200x200_psd_Asset_1_ManagedWiFi_Awareness_DM8_4_footer_Do_more_with_Wi_Fi_as_a_Service__0_Layer0_0_MEMBER_1_FILL"/>
</g>

<g transform="matrix( 1.00018310546875, 0, 0, 1.00018310546875, -0.75,9.8) ">
<use xlink:href="#BDM_200x200_psd_Asset_1_ManagedWiFi_Awareness_DM8_4_footer_Do_more_with_Wi_Fi_as_a_Service__0_Layer0_0_MEMBER_2_FILL"/>
</g>

<g transform="matrix( 1.00018310546875, 0, 0, 1.00018310546875, -0.75,9.8) ">
<use xlink:href="#BDM_200x200_psd_Asset_1_ManagedWiFi_Awareness_DM8_4_footer_Do_more_with_Wi_Fi_as_a_Service__0_Layer0_0_MEMBER_3_FILL"/>
</g>

<g transform="matrix( 1.00018310546875, 0, 0, 1.00018310546875, -0.75,9.8) ">
<use xlink:href="#BDM_200x200_psd_Asset_1_ManagedWiFi_Awareness_DM8_4_footer_Do_more_with_Wi_Fi_as_a_Service__0_Layer0_0_MEMBER_4_FILL"/>
</g>

<g transform="matrix( 1.00018310546875, 0, 0, 1.00018310546875, -0.75,9.8) ">
<use xlink:href="#BDM_200x200_psd_Asset_1_ManagedWiFi_Awareness_DM8_4_footer_Do_more_with_Wi_Fi_as_a_Service__0_Layer0_0_MEMBER_5_FILL"/>
</g>

<g transform="matrix( 1.00018310546875, 0, 0, 1.00018310546875, -0.75,9.8) ">
<use xlink:href="#BDM_200x200_psd_Asset_1_ManagedWiFi_Awareness_DM8_4_footer_Do_more_with_Wi_Fi_as_a_Service__0_Layer0_0_MEMBER_6_FILL"/>
</g>

<g transform="matrix( 1.00018310546875, 0, 0, 1.00018310546875, -0.75,9.8) ">
<use xlink:href="#BDM_200x200_psd_Asset_1_ManagedWiFi_Awareness_DM8_4_footer_Do_more_with_Wi_Fi_as_a_Service__0_Layer0_0_MEMBER_7_FILL"/>
</g>

<g transform="matrix( 1.00018310546875, 0, 0, 1.00018310546875, -0.75,9.8) ">
<use xlink:href="#BDM_200x200_psd_Asset_1_ManagedWiFi_Awareness_DM8_4_footer_Do_more_with_Wi_Fi_as_a_Service__0_Layer0_0_MEMBER_8_FILL"/>
</g>

<g transform="matrix( 1.00018310546875, 0, 0, 1.00018310546875, -0.75,9.8) ">
<use xlink:href="#BDM_200x200_psd_Asset_1_ManagedWiFi_Awareness_DM8_4_footer_Do_more_with_Wi_Fi_as_a_Service__0_Layer0_0_MEMBER_9_FILL"/>
</g>

<g transform="matrix( 1.00018310546875, 0, 0, 1.00018310546875, -0.75,9.8) ">
<use xlink:href="#BDM_200x200_psd_Asset_1_ManagedWiFi_Awareness_DM8_4_footer_Do_more_with_Wi_Fi_as_a_Service__0_Layer0_0_MEMBER_10_FILL"/>
</g>

<g transform="matrix( 1.00018310546875, 0, 0, 1.00018310546875, -0.75,9.8) ">
<use xlink:href="#BDM_200x200_psd_Asset_1_ManagedWiFi_Awareness_DM8_4_footer_Do_more_with_Wi_Fi_as_a_Service__0_Layer0_0_MEMBER_11_FILL"/>
</g>

<g transform="matrix( 1.00018310546875, 0, 0, 1.00018310546875, -0.75,9.8) ">
<use xlink:href="#BDM_200x200_psd_Asset_1_ManagedWiFi_Awareness_DM8_4_footer_Do_more_with_Wi_Fi_as_a_Service__0_Layer0_0_MEMBER_12_FILL"/>
</g>

<g transform="matrix( 1.00018310546875, 0, 0, 1.00018310546875, -0.75,9.8) ">
<use xlink:href="#BDM_200x200_psd_Asset_1_ManagedWiFi_Awareness_DM8_4_footer_Do_more_with_Wi_Fi_as_a_Service__0_Layer0_0_MEMBER_13_FILL"/>
</g>

<g transform="matrix( 1.00018310546875, 0, 0, 1.00018310546875, -0.75,9.8) ">
<use xlink:href="#BDM_200x200_psd_Asset_1_ManagedWiFi_Awareness_DM8_4_footer_Do_more_with_Wi_Fi_as_a_Service__0_Layer0_0_MEMBER_14_FILL"/>
</g>

<g transform="matrix( 1.00018310546875, 0, 0, 1.00018310546875, -0.75,9.8) ">
<use xlink:href="#BDM_200x200_psd_Asset_1_ManagedWiFi_Awareness_DM8_4_footer_Do_more_with_Wi_Fi_as_a_Service__0_Layer0_0_MEMBER_15_FILL"/>
</g>

<g transform="matrix( 1.00018310546875, 0, 0, 1.00018310546875, -0.75,9.8) ">
<use xlink:href="#BDM_200x200_psd_Asset_1_ManagedWiFi_Awareness_DM8_4_footer_Do_more_with_Wi_Fi_as_a_Service__0_Layer0_0_MEMBER_16_FILL"/>
</g>

<g transform="matrix( 1.00018310546875, 0, 0, 1.00018310546875, -0.75,9.8) ">
<use xlink:href="#BDM_200x200_psd_Asset_1_ManagedWiFi_Awareness_DM8_4_footer_Do_more_with_Wi_Fi_as_a_Service__0_Layer0_0_MEMBER_17_FILL"/>
</g>

<g transform="matrix( 1.00018310546875, 0, 0, 1.00018310546875, -0.75,9.8) ">
<use xlink:href="#BDM_200x200_psd_Asset_1_ManagedWiFi_Awareness_DM8_4_footer_Do_more_with_Wi_Fi_as_a_Service__0_Layer0_0_MEMBER_18_FILL"/>
</g>

<g transform="matrix( 1.00018310546875, 0, 0, 1.00018310546875, -0.75,9.8) ">
<use xlink:href="#BDM_200x200_psd_Asset_1_ManagedWiFi_Awareness_DM8_4_footer_Do_more_with_Wi_Fi_as_a_Service__0_Layer0_0_MEMBER_19_FILL"/>
</g>

<g transform="matrix( 1.00018310546875, 0, 0, 1.00018310546875, -0.75,9.8) ">
<use xlink:href="#BDM_200x200_psd_Asset_1_ManagedWiFi_Awareness_DM8_4_footer_Do_more_with_Wi_Fi_as_a_Service__0_Layer0_0_MEMBER_20_FILL"/>
</g>

<g transform="matrix( 1.00018310546875, 0, 0, 1.00018310546875, -0.75,9.8) ">
<use xlink:href="#BDM_200x200_psd_Asset_1_ManagedWiFi_Awareness_DM8_4_footer_Do_more_with_Wi_Fi_as_a_Service__0_Layer0_0_MEMBER_21_FILL"/>
</g>

<g transform="matrix( 1.00018310546875, 0, 0, 1.00018310546875, -0.75,9.8) ">
<use xlink:href="#BDM_200x200_psd_Asset_1_ManagedWiFi_Awareness_DM8_4_footer_Do_more_with_Wi_Fi_as_a_Service__0_Layer0_0_MEMBER_22_FILL"/>
</g>

<g transform="matrix( 1.00018310546875, 0, 0, 1.00018310546875, -0.75,9.8) ">
<use xlink:href="#BDM_200x200_psd_Asset_1_ManagedWiFi_Awareness_DM8_4_footer_Do_more_with_Wi_Fi_as_a_Service__0_Layer0_0_MEMBER_23_FILL"/>
</g>

<g transform="matrix( 1.00018310546875, 0, 0, 1.00018310546875, -0.75,9.8) ">
<use xlink:href="#BDM_200x200_psd_Asset_1_ManagedWiFi_Awareness_DM8_4_footer_Do_more_with_Wi_Fi_as_a_Service__0_Layer0_0_MEMBER_24_FILL"/>
</g>

<g transform="matrix( 1.00018310546875, 0, 0, 1.00018310546875, -0.75,9.8) ">
<use xlink:href="#BDM_200x200_psd_Asset_1_ManagedWiFi_Awareness_DM8_4_footer_Do_more_with_Wi_Fi_as_a_Service__0_Layer0_0_MEMBER_25_FILL"/>
</g>
</g>
</g>

<g transform="matrix( 1, 0, 0, 1, 71,28) ">
<g transform="matrix( 2.815704345703125, 0, 0, 2.832611083984375, 0.15,13.6) ">
<use xlink:href="#BDM_200x200_psd_Asset_1_ManagedWiFi_Awareness_DM8_4_Learn_how_to_improve_customer_experiences_with_Wi_Fi_based_apps_0_Layer0_0_MEMBER_0_FILL"/>
</g>

<g transform="matrix( 2.815704345703125, 0, 0, 2.832611083984375, 0.15,13.6) ">
<use xlink:href="#BDM_200x200_psd_Asset_1_ManagedWiFi_Awareness_DM8_4_Learn_how_to_improve_customer_experiences_with_Wi_Fi_based_apps_0_Layer0_0_MEMBER_1_FILL"/>
</g>

<g transform="matrix( 2.815704345703125, 0, 0, 2.832611083984375, 0.15,13.6) ">
<use xlink:href="#BDM_200x200_psd_Asset_1_ManagedWiFi_Awareness_DM8_4_Learn_how_to_improve_customer_experiences_with_Wi_Fi_based_apps_0_Layer0_0_MEMBER_2_FILL"/>
</g>

<g transform="matrix( 2.815704345703125, 0, 0, 2.832611083984375, 0.15,13.6) ">
<use xlink:href="#BDM_200x200_psd_Asset_1_ManagedWiFi_Awareness_DM8_4_Learn_how_to_improve_customer_experiences_with_Wi_Fi_based_apps_0_Layer0_0_MEMBER_3_FILL"/>
</g>

<g transform="matrix( 2.815704345703125, 0, 0, 2.832611083984375, 0.15,13.6) ">
<use xlink:href="#BDM_200x200_psd_Asset_1_ManagedWiFi_Awareness_DM8_4_Learn_how_to_improve_customer_experiences_with_Wi_Fi_based_apps_0_Layer0_0_MEMBER_4_FILL"/>
</g>

<g transform="matrix( 2.815704345703125, 0, 0, 2.832611083984375, 0.15,13.6) ">
<use xlink:href="#BDM_200x200_psd_Asset_1_ManagedWiFi_Awareness_DM8_4_Learn_how_to_improve_customer_experiences_with_Wi_Fi_based_apps_0_Layer0_0_MEMBER_5_FILL"/>
</g>

<g transform="matrix( 2.815704345703125, 0, 0, 2.832611083984375, 0.15,13.6) ">
<use xlink:href="#BDM_200x200_psd_Asset_1_ManagedWiFi_Awareness_DM8_4_Learn_how_to_improve_customer_experiences_with_Wi_Fi_based_apps_0_Layer0_0_MEMBER_6_FILL"/>
</g>

<g transform="matrix( 2.815704345703125, 0, 0, 2.832611083984375, 0.15,13.6) ">
<use xlink:href="#BDM_200x200_psd_Asset_1_ManagedWiFi_Awareness_DM8_4_Learn_how_to_improve_customer_experiences_with_Wi_Fi_based_apps_0_Layer0_0_MEMBER_7_FILL"/>
</g>

<g transform="matrix( 2.815704345703125, 0, 0, 2.832611083984375, 0.15,13.6) ">
<use xlink:href="#BDM_200x200_psd_Asset_1_ManagedWiFi_Awareness_DM8_4_Learn_how_to_improve_customer_experiences_with_Wi_Fi_based_apps_0_Layer0_0_MEMBER_8_FILL"/>
</g>

<g transform="matrix( 2.815704345703125, 0, 0, 2.832611083984375, 0.15,13.6) ">
<use xlink:href="#BDM_200x200_psd_Asset_1_ManagedWiFi_Awareness_DM8_4_Learn_how_to_improve_customer_experiences_with_Wi_Fi_based_apps_0_Layer0_0_MEMBER_9_FILL"/>
</g>

<g transform="matrix( 2.815704345703125, 0, 0, 2.832611083984375, 0.15,13.6) ">
<use xlink:href="#BDM_200x200_psd_Asset_1_ManagedWiFi_Awareness_DM8_4_Learn_how_to_improve_customer_experiences_with_Wi_Fi_based_apps_0_Layer0_0_MEMBER_10_FILL"/>
</g>

<g transform="matrix( 2.815704345703125, 0, 0, 2.832611083984375, 0.15,13.6) ">
<use xlink:href="#BDM_200x200_psd_Asset_1_ManagedWiFi_Awareness_DM8_4_Learn_how_to_improve_customer_experiences_with_Wi_Fi_based_apps_0_Layer0_0_MEMBER_11_FILL"/>
</g>

<g transform="matrix( 2.815704345703125, 0, 0, 2.832611083984375, 0.15,13.6) ">
<use xlink:href="#BDM_200x200_psd_Asset_1_ManagedWiFi_Awareness_DM8_4_Learn_how_to_improve_customer_experiences_with_Wi_Fi_based_apps_0_Layer0_0_MEMBER_12_FILL"/>
</g>

<g transform="matrix( 2.815704345703125, 0, 0, 2.832611083984375, 0.15,13.6) ">
<use xlink:href="#BDM_200x200_psd_Asset_1_ManagedWiFi_Awareness_DM8_4_Learn_how_to_improve_customer_experiences_with_Wi_Fi_based_apps_0_Layer0_0_MEMBER_13_FILL"/>
</g>

<g transform="matrix( 2.815704345703125, 0, 0, 2.832611083984375, 0.15,13.6) ">
<use xlink:href="#BDM_200x200_psd_Asset_1_ManagedWiFi_Awareness_DM8_4_Learn_how_to_improve_customer_experiences_with_Wi_Fi_based_apps_0_Layer0_0_MEMBER_14_FILL"/>
</g>

<g transform="matrix( 2.815704345703125, 0, 0, 2.832611083984375, 0.15,13.6) ">
<use xlink:href="#BDM_200x200_psd_Asset_1_ManagedWiFi_Awareness_DM8_4_Learn_how_to_improve_customer_experiences_with_Wi_Fi_based_apps_0_Layer0_0_MEMBER_15_FILL"/>
</g>

<g transform="matrix( 2.815704345703125, 0, 0, 2.832611083984375, 0.15,13.6) ">
<use xlink:href="#BDM_200x200_psd_Asset_1_ManagedWiFi_Awareness_DM8_4_Learn_how_to_improve_customer_experiences_with_Wi_Fi_based_apps_0_Layer0_0_MEMBER_16_FILL"/>
</g>

<g transform="matrix( 2.815704345703125, 0, 0, 2.832611083984375, 0.15,13.6) ">
<use xlink:href="#BDM_200x200_psd_Asset_1_ManagedWiFi_Awareness_DM8_4_Learn_how_to_improve_customer_experiences_with_Wi_Fi_based_apps_0_Layer0_0_MEMBER_17_FILL"/>
</g>

<g transform="matrix( 2.815704345703125, 0, 0, 2.832611083984375, 0.15,13.6) ">
<use xlink:href="#BDM_200x200_psd_Asset_1_ManagedWiFi_Awareness_DM8_4_Learn_how_to_improve_customer_experiences_with_Wi_Fi_based_apps_0_Layer0_0_MEMBER_18_FILL"/>
</g>

<g transform="matrix( 2.815704345703125, 0, 0, 2.832611083984375, 0.15,13.6) ">
<use xlink:href="#BDM_200x200_psd_Asset_1_ManagedWiFi_Awareness_DM8_4_Learn_how_to_improve_customer_experiences_with_Wi_Fi_based_apps_0_Layer0_0_MEMBER_19_FILL"/>
</g>

<g transform="matrix( 2.815704345703125, 0, 0, 2.832611083984375, 0.15,13.6) ">
<use xlink:href="#BDM_200x200_psd_Asset_1_ManagedWiFi_Awareness_DM8_4_Learn_how_to_improve_customer_experiences_with_Wi_Fi_based_apps_0_Layer0_0_MEMBER_20_FILL"/>
</g>

<g transform="matrix( 2.815704345703125, 0, 0, 2.832611083984375, 0.15,13.6) ">
<use xlink:href="#BDM_200x200_psd_Asset_1_ManagedWiFi_Awareness_DM8_4_Learn_how_to_improve_customer_experiences_with_Wi_Fi_based_apps_0_Layer0_0_MEMBER_21_FILL"/>
</g>

<g transform="matrix( 2.815704345703125, 0, 0, 2.832611083984375, 0.15,13.6) ">
<use xlink:href="#BDM_200x200_psd_Asset_1_ManagedWiFi_Awareness_DM8_4_Learn_how_to_improve_customer_experiences_with_Wi_Fi_based_apps_0_Layer0_0_MEMBER_22_FILL"/>
</g>

<g transform="matrix( 2.815704345703125, 0, 0, 2.832611083984375, 0.15,13.6) ">
<use xlink:href="#BDM_200x200_psd_Asset_1_ManagedWiFi_Awareness_DM8_4_Learn_how_to_improve_customer_experiences_with_Wi_Fi_based_apps_0_Layer0_0_MEMBER_23_FILL"/>
</g>

<g transform="matrix( 2.815704345703125, 0, 0, 2.832611083984375, 0.15,13.6) ">
<use xlink:href="#BDM_200x200_psd_Asset_1_ManagedWiFi_Awareness_DM8_4_Learn_how_to_improve_customer_experiences_with_Wi_Fi_based_apps_0_Layer0_0_MEMBER_24_FILL"/>
</g>

<g transform="matrix( 2.815704345703125, 0, 0, 2.832611083984375, 0.15,13.6) ">
<use xlink:href="#BDM_200x200_psd_Asset_1_ManagedWiFi_Awareness_DM8_4_Learn_how_to_improve_customer_experiences_with_Wi_Fi_based_apps_0_Layer0_0_MEMBER_25_FILL"/>
</g>

<g transform="matrix( 2.815704345703125, 0, 0, 2.832611083984375, 0.15,13.6) ">
<use xlink:href="#BDM_200x200_psd_Asset_1_ManagedWiFi_Awareness_DM8_4_Learn_how_to_improve_customer_experiences_with_Wi_Fi_based_apps_0_Layer0_0_MEMBER_26_FILL"/>
</g>

<g transform="matrix( 2.815704345703125, 0, 0, 2.832611083984375, 0.15,13.6) ">
<use xlink:href="#BDM_200x200_psd_Asset_1_ManagedWiFi_Awareness_DM8_4_Learn_how_to_improve_customer_experiences_with_Wi_Fi_based_apps_0_Layer0_0_MEMBER_27_FILL"/>
</g>

<g transform="matrix( 2.815704345703125, 0, 0, 2.832611083984375, 0.15,13.6) ">
<use xlink:href="#BDM_200x200_psd_Asset_1_ManagedWiFi_Awareness_DM8_4_Learn_how_to_improve_customer_experiences_with_Wi_Fi_based_apps_0_Layer0_0_MEMBER_28_FILL"/>
</g>

<g transform="matrix( 2.815704345703125, 0, 0, 2.832611083984375, 0.15,13.6) ">
<use xlink:href="#BDM_200x200_psd_Asset_1_ManagedWiFi_Awareness_DM8_4_Learn_how_to_improve_customer_experiences_with_Wi_Fi_based_apps_0_Layer0_0_MEMBER_29_FILL"/>
</g>

<g transform="matrix( 2.815704345703125, 0, 0, 2.832611083984375, 0.15,13.6) ">
<use xlink:href="#BDM_200x200_psd_Asset_1_ManagedWiFi_Awareness_DM8_4_Learn_how_to_improve_customer_experiences_with_Wi_Fi_based_apps_0_Layer0_0_MEMBER_30_FILL"/>
</g>

<g transform="matrix( 2.815704345703125, 0, 0, 2.832611083984375, 0.15,13.6) ">
<use xlink:href="#BDM_200x200_psd_Asset_1_ManagedWiFi_Awareness_DM8_4_Learn_how_to_improve_customer_experiences_with_Wi_Fi_based_apps_0_Layer0_0_MEMBER_31_FILL"/>
</g>

<g transform="matrix( 2.815704345703125, 0, 0, 2.832611083984375, 0.15,13.6) ">
<use xlink:href="#BDM_200x200_psd_Asset_1_ManagedWiFi_Awareness_DM8_4_Learn_how_to_improve_customer_experiences_with_Wi_Fi_based_apps_0_Layer0_0_MEMBER_32_FILL"/>
</g>

<g transform="matrix( 2.815704345703125, 0, 0, 2.832611083984375, 0.15,13.6) ">
<use xlink:href="#BDM_200x200_psd_Asset_1_ManagedWiFi_Awareness_DM8_4_Learn_how_to_improve_customer_experiences_with_Wi_Fi_based_apps_0_Layer0_0_MEMBER_33_FILL"/>
</g>

<g transform="matrix( 2.815704345703125, 0, 0, 2.832611083984375, 0.15,13.6) ">
<use xlink:href="#BDM_200x200_psd_Asset_1_ManagedWiFi_Awareness_DM8_4_Learn_how_to_improve_customer_experiences_with_Wi_Fi_based_apps_0_Layer0_0_MEMBER_34_FILL"/>
</g>

<g transform="matrix( 2.815704345703125, 0, 0, 2.832611083984375, 0.15,13.6) ">
<use xlink:href="#BDM_200x200_psd_Asset_1_ManagedWiFi_Awareness_DM8_4_Learn_how_to_improve_customer_experiences_with_Wi_Fi_based_apps_0_Layer0_0_MEMBER_35_FILL"/>
</g>

<g transform="matrix( 2.815704345703125, 0, 0, 2.832611083984375, 0.15,13.6) ">
<use xlink:href="#BDM_200x200_psd_Asset_1_ManagedWiFi_Awareness_DM8_4_Learn_how_to_improve_customer_experiences_with_Wi_Fi_based_apps_0_Layer0_0_MEMBER_36_FILL"/>
</g>

<g transform="matrix( 2.815704345703125, 0, 0, 2.832611083984375, 0.15,13.6) ">
<use xlink:href="#BDM_200x200_psd_Asset_1_ManagedWiFi_Awareness_DM8_4_Learn_how_to_improve_customer_experiences_with_Wi_Fi_based_apps_0_Layer0_0_MEMBER_37_FILL"/>
</g>

<g transform="matrix( 2.815704345703125, 0, 0, 2.832611083984375, 0.15,13.6) ">
<use xlink:href="#BDM_200x200_psd_Asset_1_ManagedWiFi_Awareness_DM8_4_Learn_how_to_improve_customer_experiences_with_Wi_Fi_based_apps_0_Layer0_0_MEMBER_38_FILL"/>
</g>

<g transform="matrix( 2.815704345703125, 0, 0, 2.832611083984375, 0.15,13.6) ">
<use xlink:href="#BDM_200x200_psd_Asset_1_ManagedWiFi_Awareness_DM8_4_Learn_how_to_improve_customer_experiences_with_Wi_Fi_based_apps_0_Layer0_0_MEMBER_39_FILL"/>
</g>

<g transform="matrix( 2.815704345703125, 0, 0, 2.832611083984375, 0.15,13.6) ">
<use xlink:href="#BDM_200x200_psd_Asset_1_ManagedWiFi_Awareness_DM8_4_Learn_how_to_improve_customer_experiences_with_Wi_Fi_based_apps_0_Layer0_0_MEMBER_40_FILL"/>
</g>

<g transform="matrix( 2.815704345703125, 0, 0, 2.832611083984375, 0.15,13.6) ">
<use xlink:href="#BDM_200x200_psd_Asset_1_ManagedWiFi_Awareness_DM8_4_Learn_how_to_improve_customer_experiences_with_Wi_Fi_based_apps_0_Layer0_0_MEMBER_41_FILL"/>
</g>

<g transform="matrix( 2.815704345703125, 0, 0, 2.832611083984375, 0.15,13.6) ">
<use xlink:href="#BDM_200x200_psd_Asset_1_ManagedWiFi_Awareness_DM8_4_Learn_how_to_improve_customer_experiences_with_Wi_Fi_based_apps_0_Layer0_0_MEMBER_42_FILL"/>
</g>

<g transform="matrix( 2.815704345703125, 0, 0, 2.832611083984375, 0.15,13.6) ">
<use xlink:href="#BDM_200x200_psd_Asset_1_ManagedWiFi_Awareness_DM8_4_Learn_how_to_improve_customer_experiences_with_Wi_Fi_based_apps_0_Layer0_0_MEMBER_43_FILL"/>
</g>

<g transform="matrix( 2.815704345703125, 0, 0, 2.832611083984375, 0.15,13.6) ">
<use xlink:href="#BDM_200x200_psd_Asset_1_ManagedWiFi_Awareness_DM8_4_Learn_how_to_improve_customer_experiences_with_Wi_Fi_based_apps_0_Layer0_0_MEMBER_44_FILL"/>
</g>

<g transform="matrix( 2.815704345703125, 0, 0, 2.832611083984375, 0.15,13.6) ">
<use xlink:href="#BDM_200x200_psd_Asset_1_ManagedWiFi_Awareness_DM8_4_Learn_how_to_improve_customer_experiences_with_Wi_Fi_based_apps_0_Layer0_0_MEMBER_45_FILL"/>
</g>

<g transform="matrix( 2.815704345703125, 0, 0, 2.832611083984375, 0.15,13.6) ">
<use xlink:href="#BDM_200x200_psd_Asset_1_ManagedWiFi_Awareness_DM8_4_Learn_how_to_improve_customer_experiences_with_Wi_Fi_based_apps_0_Layer0_0_MEMBER_46_FILL"/>
</g>

<g transform="matrix( 2.815704345703125, 0, 0, 2.832611083984375, 0.15,13.6) ">
<use xlink:href="#BDM_200x200_psd_Asset_1_ManagedWiFi_Awareness_DM8_4_Learn_how_to_improve_customer_experiences_with_Wi_Fi_based_apps_0_Layer0_0_MEMBER_47_FILL"/>
</g>

<g transform="matrix( 2.815704345703125, 0, 0, 2.832611083984375, 0.15,13.6) ">
<use xlink:href="#BDM_200x200_psd_Asset_1_ManagedWiFi_Awareness_DM8_4_Learn_how_to_improve_customer_experiences_with_Wi_Fi_based_apps_0_Layer0_0_MEMBER_48_FILL"/>
</g>

<g transform="matrix( 2.815704345703125, 0, 0, 2.832611083984375, 0.15,13.6) ">
<use xlink:href="#BDM_200x200_psd_Asset_1_ManagedWiFi_Awareness_DM8_4_Learn_how_to_improve_customer_experiences_with_Wi_Fi_based_apps_0_Layer0_0_MEMBER_49_FILL"/>
</g>

<g transform="matrix( 2.815704345703125, 0, 0, 2.832611083984375, 0.15,13.6) ">
<use xlink:href="#BDM_200x200_psd_Asset_1_ManagedWiFi_Awareness_DM8_4_Learn_how_to_improve_customer_experiences_with_Wi_Fi_based_apps_0_Layer0_0_MEMBER_50_FILL"/>
</g>

<g transform="matrix( 2.815704345703125, 0, 0, 2.832611083984375, 0.15,13.6) ">
<use xlink:href="#BDM_200x200_psd_Asset_1_ManagedWiFi_Awareness_DM8_4_Learn_how_to_improve_customer_experiences_with_Wi_Fi_based_apps_0_Layer0_0_MEMBER_51_FILL"/>
</g>

<g transform="matrix( 2.815704345703125, 0, 0, 2.832611083984375, 0.15,13.6) ">
<use xlink:href="#BDM_200x200_psd_Asset_1_ManagedWiFi_Awareness_DM8_4_Learn_how_to_improve_customer_experiences_with_Wi_Fi_based_apps_0_Layer0_0_MEMBER_52_FILL"/>
</g>

<g transform="matrix( 2.815704345703125, 0, 0, 2.832611083984375, 0.15,13.6) ">
<use xlink:href="#BDM_200x200_psd_Asset_1_ManagedWiFi_Awareness_DM8_4_Learn_how_to_improve_customer_experiences_with_Wi_Fi_based_apps_0_Layer0_0_MEMBER_53_FILL"/>
</g>

<g transform="matrix( 2.815704345703125, 0, 0, 2.832611083984375, 0.15,13.6) ">
<use xlink:href="#BDM_200x200_psd_Asset_1_ManagedWiFi_Awareness_DM8_4_Learn_how_to_improve_customer_experiences_with_Wi_Fi_based_apps_0_Layer0_0_MEMBER_54_FILL"/>
</g>
</g>
</g>
</g>
</svg>
