
<svg xmlns="http://www.w3.org/2000/svg" version="1.1" xmlns:xlink="http://www.w3.org/1999/xlink" preserveAspectRatio="none" x="0px" y="0px" width="160px" height="600px" viewBox="0 0 160 600">
<defs>
<g id="IT_160x600_FR_psd_Asset_9_V10_1_Le_Wi_Fi__en_tant__que_service__convient_il____votre__organisat_0_Layer0_0_MEMBER_0_FILL">
<path fill="#D82C26" stroke="none" d="
M 1.25 -5.5
L 0.75 -5.5 0.75 0 3.6 0 3.7 -0.4 1.25 -0.4 1.25 -5.5 Z"/>
</g>

<g id="IT_160x600_FR_psd_Asset_9_V10_1_Le_Wi_Fi__en_tant__que_service__convient_il____votre__organisat_0_Layer0_0_MEMBER_1_FILL">
<path fill="#D82C26" stroke="none" d="
M 4.3 -0.85
Q 4.55 -0.35 4.95 -0.15 5.35 0.1 5.9 0.1 6.75 0.1 7.35 -0.35
L 7.3 -0.75 6.7 -0.4 5.95 -0.25
Q 5.6 -0.25 5.2 -0.45 4.9 -0.65 4.7 -1 4.5 -1.35 4.5 -1.75
L 7.55 -1.75 7.6 -1.95
Q 7.6 -2.45 7.35 -2.85 7.2 -3.25 6.8 -3.5 6.3 -3.75 5.85 -3.75 5.35 -3.75 4.95 -3.5 4.6 -3.3 4.3 -2.85 4.05 -2.45 4.05 -1.85 4.05 -1.2 4.3 -0.85
M 4.5 -2.1
Q 4.5 -2.4 4.65 -2.7 4.75 -2.9 5.15 -3.2 5.4 -3.4 5.85 -3.4 6.35 -3.4 6.8 -3.05 7.15 -2.6 7.15 -2.1
L 4.5 -2.1 Z"/>
</g>

<g id="IT_160x600_FR_psd_Asset_9_V10_1_Le_Wi_Fi__en_tant__que_service__convient_il____votre__organisat_0_Layer0_0_MEMBER_2_FILL">
<path fill="#D82C26" stroke="none" d="
M 9.8 -5.5
L 9.3 -5.5 10.9 0 11.45 0 12.9 -4.9 14.35 0 14.9 0 16.55 -5.5 16.05 -5.5 14.65 -0.6 13.2 -5.5 12.65 -5.5 11.25 -0.6 11.2 -0.6 9.8 -5.5 Z"/>
</g>

<g id="IT_160x600_FR_psd_Asset_9_V10_1_Le_Wi_Fi__en_tant__que_service__convient_il____votre__organisat_0_Layer0_0_MEMBER_3_FILL">
<path fill="#D82C26" stroke="none" d="
M 17.2 -4.85
L 17.45 -4.75 17.65 -4.85
Q 17.75 -4.9 17.75 -5.1 17.75 -5.25 17.65 -5.35
L 17.45 -5.4
Q 17.3 -5.4 17.2 -5.3
L 17.1 -5.1 17.2 -4.85
M 17.65 -3.65
L 17.2 -3.65 17.2 0 17.65 0 17.65 -3.65 Z"/>
</g>

<g id="IT_160x600_FR_psd_Asset_9_V10_1_Le_Wi_Fi__en_tant__que_service__convient_il____votre__organisat_0_Layer0_0_MEMBER_4_FILL">
<path fill="#D82C26" stroke="none" d="
M 18.6 -2.15
L 18.6 -1.75 20.15 -1.75 20.15 -2.15 18.6 -2.15 Z"/>
</g>

<g id="IT_160x600_FR_psd_Asset_9_V10_1_Le_Wi_Fi__en_tant__que_service__convient_il____votre__organisat_0_Layer0_0_MEMBER_5_FILL">
<path fill="#D82C26" stroke="none" d="
M 24.05 -5.5
L 21.2 -5.5 21.2 0 21.7 0 21.7 -2.6 23.8 -2.6 23.9 -3 21.7 -3 21.7 -5.1 24 -5.1 24.05 -5.5 Z"/>
</g>

<g id="IT_160x600_FR_psd_Asset_9_V10_1_Le_Wi_Fi__en_tant__que_service__convient_il____votre__organisat_0_Layer0_0_MEMBER_6_FILL">
<path fill="#D82C26" stroke="none" d="
M 25.3 -3.65
L 24.85 -3.65 24.85 0 25.3 0 25.3 -3.65
M 25.1 -4.75
L 25.3 -4.85
Q 25.4 -4.9 25.4 -5.1 25.4 -5.25 25.3 -5.35
L 25.1 -5.4
Q 24.9 -5.4 24.85 -5.3
L 24.75 -5.1 24.85 -4.85 25.1 -4.75 Z"/>
</g>

<g id="IT_160x600_FR_psd_Asset_9_V10_1_Le_Wi_Fi__en_tant__que_service__convient_il____votre__organisat_0_Layer0_0_MEMBER_7_FILL">
<path fill="#D82C26" stroke="none" d="
M 2.25 5.8
Q 1.7 5.8 1.3 6.05 0.95 6.25 0.65 6.7 0.45 7.1 0.45 7.7 0.45 8.35 0.7 8.7 0.95 9.2 1.35 9.4 1.75 9.65 2.3 9.65 3.15 9.65 3.75 9.2
L 3.65 8.8 3.1 9.15 2.35 9.25
Q 1.85 9.25 1.6 9.05 1.35 8.95 1.05 8.55
L 0.9 7.8 3.95 7.8 3.95 7.6
Q 3.95 7.05 3.75 6.65 3.6 6.3 3.15 6 2.8 5.8 2.25 5.8
M 3.15 6.5
Q 3.45 6.8 3.55 7.45
L 0.9 7.45
Q 0.9 7.15 1.05 6.85 1.2 6.6 1.5 6.35 1.75 6.15 2.25 6.15 2.85 6.15 3.15 6.5 Z"/>
</g>

<g id="IT_160x600_FR_psd_Asset_9_V10_1_Le_Wi_Fi__en_tant__que_service__convient_il____votre__organisat_0_Layer0_0_MEMBER_8_FILL">
<path fill="#D82C26" stroke="none" d="
M 6.6 5.8
Q 6.1 5.8 5.8 6.05 5.45 6.25 5.3 6.7
L 5.25 6.7 5.2 5.9 4.8 5.9 4.85 9.55 5.3 9.55 5.3 7.7
Q 5.3 7.25 5.45 6.85 5.65 6.5 5.9 6.35 6.2 6.15 6.5 6.15 7 6.15 7.25 6.55 7.5 6.9 7.5 7.45
L 7.5 9.55 7.95 9.55 7.95 7.3
Q 7.95 6.6 7.6 6.2 7.3 5.8 6.6 5.8 Z"/>
</g>

<g id="IT_160x600_FR_psd_Asset_9_V10_1_Le_Wi_Fi__en_tant__que_service__convient_il____votre__organisat_0_Layer0_0_MEMBER_9_FILL">
<path fill="#D82C26" stroke="none" d="
M 10.5 5.05
L 10.5 5.9 9.95 5.9 9.85 6.25 10.55 6.25 10.55 8.65
Q 10.55 9.15 10.75 9.35 10.95 9.6 11.35 9.6
L 11.8 9.55 12.15 9.4 12.1 9.05
Q 11.75 9.25 11.5 9.25 11.25 9.25 11.1 9.1
L 11 8.6 11 6.25 11.9 6.25 12 5.9 11 5.9 11 4.85 10.5 5.05 Z"/>
</g>

<g id="IT_160x600_FR_psd_Asset_9_V10_1_Le_Wi_Fi__en_tant__que_service__convient_il____votre__organisat_0_Layer0_0_MEMBER_10_FILL">
<path fill="#D82C26" stroke="none" d="
M 14.1 5.8
Q 13.6 5.8 13.35 5.9 12.85 6.15 12.75 6.25
L 12.9 6.6
Q 13.15 6.35 13.4 6.3
L 14.05 6.15
Q 14.45 6.15 14.8 6.4 15.05 6.6 15.05 7.15
L 15.05 7.35 14.65 7.35
Q 12.55 7.35 12.55 8.55 12.55 9.15 12.9 9.35 13.2 9.65 13.7 9.65 14.05 9.65 14.55 9.45 14.9 9.25 15.05 8.85
L 15.1 8.85 15.1 9.2 15.15 9.55 15.55 9.55 15.5 7.15
Q 15.5 6.45 15.15 6.15 14.8 5.8 14.1 5.8
M 14.7 7.65
L 15.05 7.65 15.05 8
Q 15.05 8.4 14.95 8.6 14.8 8.85 14.5 9.1 14.25 9.3 13.8 9.3 13.45 9.3 13.2 9.1 13 8.95 13 8.55 13 7.65 14.7 7.65 Z"/>
</g>

<g id="IT_160x600_FR_psd_Asset_9_V10_1_Le_Wi_Fi__en_tant__que_service__convient_il____votre__organisat_0_Layer0_0_MEMBER_11_FILL">
<path fill="#D82C26" stroke="none" d="
M 16.95 5.9
L 16.55 5.9 16.6 9.55 17.05 9.55 17.05 7.7
Q 17.05 7.25 17.2 6.85 17.4 6.5 17.65 6.35 17.95 6.15 18.25 6.15 18.75 6.15 19 6.55 19.25 6.9 19.25 7.45
L 19.25 9.55 19.7 9.55 19.7 7.3
Q 19.7 6.6 19.35 6.2 19.05 5.8 18.35 5.8 17.85 5.8 17.55 6.05 17.2 6.25 17.05 6.7
L 17 6.7 16.95 5.9 Z"/>
</g>

<g id="IT_160x600_FR_psd_Asset_9_V10_1_Le_Wi_Fi__en_tant__que_service__convient_il____votre__organisat_0_Layer0_0_MEMBER_12_FILL">
<path fill="#D82C26" stroke="none" d="
M 20.8 5.9
L 20.25 5.9 20.15 6.25 20.85 6.25 20.85 8.65
Q 20.85 9.15 21.05 9.35 21.25 9.6 21.7 9.6
L 22.1 9.55 22.45 9.4 22.4 9.05
Q 22.15 9.25 21.8 9.25 21.55 9.25 21.45 9.1 21.3 8.95 21.3 8.6
L 21.3 6.25 22.2 6.25 22.3 5.9 21.3 5.9 21.3 4.85 20.8 5.05 20.8 5.9 Z"/>
</g>

<g id="IT_160x600_FR_psd_Asset_9_V10_1_Le_Wi_Fi__en_tant__que_service__convient_il____votre__organisat_0_Layer0_0_MEMBER_13_FILL">
<path fill="#D82C26" stroke="none" d="
M 4.25 15.45
L 3.8 15.45 3.75 16.2
Q 3.5 15.75 3.15 15.55 2.65 15.3 2.25 15.3 1.8 15.3 1.3 15.55 0.8 15.95 0.65 16.25 0.45 16.65 0.45 17.25 0.45 17.85 0.65 18.2 0.85 18.65 1.3 18.9 1.7 19.15 2.25 19.15 2.75 19.15 3.15 18.95 3.5 18.75 3.75 18.3
L 3.75 19.9
Q 3.75 20.75 4.55 20.95
L 4.75 20.55
Q 4.5 20.5 4.3 20.3
L 4.2 19.8 4.2 16.1 4.25 15.45
M 1.55 15.9
Q 1.9 15.7 2.3 15.7 2.8 15.7 3.05 15.9 3.3 16.05 3.6 16.45 3.75 16.85 3.75 17.25 3.75 17.7 3.6 18 3.35 18.45 3.05 18.55 2.7 18.8 2.3 18.8 2.05 18.8 1.55 18.6 1.3 18.4 1.05 18 0.9 17.7 0.9 17.25 0.9 16.85 1.05 16.45
L 1.55 15.9 Z"/>
</g>

<g id="IT_160x600_FR_psd_Asset_9_V10_1_Le_Wi_Fi__en_tant__que_service__convient_il____votre__organisat_0_Layer0_0_MEMBER_14_FILL">
<path fill="#D82C26" stroke="none" d="
M 5.25 15.45
L 5.25 17.65
Q 5.25 18.35 5.6 18.75 5.9 19.15 6.6 19.15 7.1 19.15 7.4 18.9 7.75 18.7 7.9 18.3
L 8 19.05 8.45 19.05 8.35 18.2 8.35 15.45 7.9 15.45 7.9 17.25
Q 7.9 17.75 7.75 18.05 7.6 18.45 7.35 18.6 7.1 18.8 6.7 18.8 6.2 18.8 5.95 18.45 5.7 18.05 5.7 17.55
L 5.7 15.45 5.25 15.45 Z"/>
</g>

<g id="IT_160x600_FR_psd_Asset_9_V10_1_Le_Wi_Fi__en_tant__que_service__convient_il____votre__organisat_0_Layer0_0_MEMBER_15_FILL">
<path fill="#D82C26" stroke="none" d="
M 9.25 17.2
Q 9.25 17.9 9.5 18.25 9.7 18.7 10.15 18.9 10.55 19.15 11.1 19.15 11.95 19.15 12.55 18.7
L 12.5 18.35 11.9 18.65 11.15 18.8
Q 10.65 18.8 10.4 18.6 10 18.3 9.9 18.05 9.7 17.8 9.7 17.3
L 12.75 17.3 12.8 17.1
Q 12.8 16.8 12.6 16.2 12.35 15.75 12 15.55 11.5 15.3 11.05 15.3 10.55 15.3 10.15 15.55 9.75 15.75 9.5 16.25 9.25 16.65 9.25 17.2
M 9.7 16.95
L 9.85 16.4
Q 10 16.05 10.35 15.9 10.7 15.65 11.05 15.65 11.6 15.65 12 16.05 12.35 16.4 12.35 16.95
L 9.7 16.95 Z"/>
</g>

<g id="IT_160x600_FR_psd_Asset_9_V10_1_Le_Wi_Fi__en_tant__que_service__convient_il____votre__organisat_0_Layer0_0_MEMBER_16_FILL">
<path fill="#D82C26" stroke="none" d="
M 16.05 15.3
L 15.45 15.4 15 15.75
Q 14.85 16 14.85 16.3 14.85 16.7 15.1 16.95 15.35 17.2 15.9 17.35 16.45 17.5 16.65 17.7 16.9 17.85 16.9 18.1 16.9 18.45 16.65 18.6 16.45 18.8 16.05 18.8 15.4 18.8 14.85 18.35
L 14.75 18.75
Q 15 19 15.35 19.05 15.55 19.15 16.1 19.15
L 16.7 19.05 17.15 18.7
Q 17.3 18.4 17.3 18.1 17.3 17.7 17.05 17.45 16.7 17.15 16.2 17.05
L 15.5 16.7
Q 15.25 16.55 15.25 16.3 15.25 16 15.5 15.85 15.75 15.7 16.05 15.7 16.4 15.7 16.6 15.8
L 17 16.05 17.2 15.7 16.7 15.45
Q 16.4 15.3 16.05 15.3 Z"/>
</g>

<g id="IT_160x600_FR_psd_Asset_9_V10_1_Le_Wi_Fi__en_tant__que_service__convient_il____votre__organisat_0_Layer0_0_MEMBER_17_FILL">
<path fill="#D82C26" stroke="none" d="
M 21.2 16.2
Q 21.05 15.75 20.6 15.55 20.2 15.3 19.7 15.3 19.25 15.3 18.75 15.55 18.45 15.75 18.1 16.25 17.9 16.65 17.9 17.2 17.9 17.85 18.1 18.25 18.4 18.7 18.8 18.9 19.1 19.15 19.75 19.15 20.6 19.15 21.2 18.7
L 21.1 18.35 20.55 18.65 19.8 18.8
Q 19.3 18.8 19.05 18.6 18.7 18.4 18.5 18.05
L 18.3 17.3 21.4 17.3 21.4 17.1
Q 21.4 16.6 21.2 16.2
M 20.6 16.05
Q 20.9 16.3 21 16.95
L 18.35 16.95 18.5 16.4
Q 18.7 16.05 18.95 15.9 19.3 15.65 19.7 15.65 20.3 15.65 20.6 16.05 Z"/>
</g>

<g id="IT_160x600_FR_psd_Asset_9_V10_1_Le_Wi_Fi__en_tant__que_service__convient_il____votre__organisat_0_Layer0_0_MEMBER_18_FILL">
<path fill="#D82C26" stroke="none" d="
M 24.15 15.4
L 23.8 15.3
Q 23.5 15.3 23.15 15.55 22.9 15.75 22.7 16.2
L 22.65 15.45 22.2 15.45 22.25 19.05 22.7 19.05 22.7 17.25
Q 22.7 16.6 23 16.15 23.3 15.7 23.75 15.7
L 24.05 15.8 24.15 15.4 Z"/>
</g>

<g id="IT_160x600_FR_psd_Asset_9_V10_1_Le_Wi_Fi__en_tant__que_service__convient_il____votre__organisat_0_Layer0_0_MEMBER_19_FILL">
<path fill="#D82C26" stroke="none" d="
M 24.35 15.45
L 25.75 19.05 26.3 19.05 27.65 15.45 27.15 15.45 26.05 18.6 24.85 15.45 24.35 15.45 Z"/>
</g>

<g id="IT_160x600_FR_psd_Asset_9_V10_1_Le_Wi_Fi__en_tant__que_service__convient_il____votre__organisat_0_Layer0_0_MEMBER_20_FILL">
<path fill="#D82C26" stroke="none" d="
M 28.7 15.45
L 28.25 15.45 28.25 19.05 28.7 19.05 28.7 15.45
M 28.7 13.75
Q 28.65 13.65 28.45 13.65 28.3 13.65 28.25 13.75 28.15 13.8 28.15 13.95 28.15 14.15 28.25 14.2
L 28.45 14.3 28.7 14.2 28.8 13.95 28.7 13.75 Z"/>
</g>

<g id="IT_160x600_FR_psd_Asset_9_V10_1_Le_Wi_Fi__en_tant__que_service__convient_il____votre__organisat_0_Layer0_0_MEMBER_21_FILL">
<path fill="#D82C26" stroke="none" d="
M 29.55 17.25
Q 29.55 17.9 29.8 18.25 29.95 18.55 30.45 18.95 30.85 19.15 31.45 19.15 31.9 19.15 32.15 19.05
L 32.7 18.75 32.6 18.35
Q 32.35 18.6 32.1 18.65 31.8 18.8 31.5 18.8 31.1 18.8 30.7 18.55 30.35 18.4 30.2 18 30 17.6 30 17.25 30 16.95 30.2 16.45 30.35 16.15 30.7 15.9 30.95 15.7 31.45 15.7
L 32.05 15.8 32.5 16.1 32.7 15.75
Q 32.5 15.55 32.15 15.45
L 31.45 15.3
Q 30.95 15.3 30.45 15.55 29.95 15.95 29.8 16.25 29.55 16.75 29.55 17.25 Z"/>
</g>

<g id="IT_160x600_FR_psd_Asset_9_V10_1_Le_Wi_Fi__en_tant__que_service__convient_il____votre__organisat_0_Layer0_0_MEMBER_22_FILL">
<path fill="#D82C26" stroke="none" d="
M 36.4 16.2
Q 36.15 15.75 35.8 15.55 35.4 15.3 34.85 15.3 34.35 15.3 33.95 15.55 33.55 15.75 33.3 16.25 33.05 16.75 33.05 17.2 33.05 17.75 33.3 18.25 33.5 18.6 33.95 18.9 34.35 19.15 34.95 19.15 35.8 19.15 36.4 18.7
L 36.3 18.35 35.7 18.65
Q 35.4 18.8 34.95 18.8 34.55 18.8 34.2 18.6 33.8 18.3 33.7 18.05 33.5 17.65 33.5 17.3
L 36.6 17.3 36.6 17.1
Q 36.6 16.6 36.4 16.2
M 35.8 16.05
Q 36.15 16.35 36.15 16.95
L 33.5 16.95
Q 33.5 16.8 33.7 16.4 33.9 16.05 34.15 15.9 34.5 15.65 34.85 15.65 35.4 15.65 35.8 16.05 Z"/>
</g>

<g id="IT_160x600_FR_psd_Asset_9_V10_1_Le_Wi_Fi__en_tant__que_service__convient_il____votre__organisat_0_Layer0_0_MEMBER_23_FILL">
<path fill="#D82C26" stroke="none" d="
M 3.6 25.3
L 3.05 24.95 2.35 24.85
Q 1.85 24.85 1.35 25.1 0.9 25.35 0.7 25.8 0.45 26.2 0.45 26.8 0.45 27.45 0.7 27.8 1 28.25 1.35 28.45 1.85 28.7 2.35 28.7
L 3.05 28.6 3.6 28.25 3.5 27.9
Q 3.1 28.2 3 28.2
L 2.35 28.3
Q 1.85 28.3 1.6 28.1 1.2 27.8 1.1 27.55 0.9 27.2 0.9 26.8 0.9 26.35 1.1 26 1.2 25.75 1.6 25.45 1.85 25.25 2.35 25.25 2.75 25.25 2.9 25.35 3.15 25.4 3.4 25.65
L 3.6 25.3 Z"/>
</g>

<g id="IT_160x600_FR_psd_Asset_9_V10_1_Le_Wi_Fi__en_tant__que_service__convient_il____votre__organisat_0_Layer0_0_MEMBER_24_FILL">
<path fill="#D82C26" stroke="none" d="
M 6.9 25.1
Q 6.4 24.85 5.9 24.85 5.4 24.85 4.9 25.1 4.45 25.3 4.2 25.75 3.95 26.25 3.95 26.75 3.95 27.25 4.2 27.75 4.45 28.2 4.9 28.45 5.4 28.7 5.9 28.7 6.4 28.7 6.9 28.45 7.35 28.2 7.55 27.75 7.85 27.3 7.85 26.75 7.85 26.2 7.55 25.75 7.3 25.35 6.9 25.1
M 7.35 26.75
Q 7.35 27.2 7.2 27.55 7 27.9 6.65 28.1 6.4 28.3 5.9 28.3 5.45 28.3 5.1 28.1 4.7 27.8 4.6 27.55 4.4 27.2 4.4 26.75 4.4 26.35 4.6 26 4.7 25.75 5.1 25.45 5.45 25.25 5.9 25.25 6.4 25.25 6.65 25.45 7 25.65 7.2 26
L 7.35 26.75 Z"/>
</g>

<g id="IT_160x600_FR_psd_Asset_9_V10_1_Le_Wi_Fi__en_tant__que_service__convient_il____votre__organisat_0_Layer0_0_MEMBER_25_FILL">
<path fill="#D82C26" stroke="none" d="
M 11.5 25.3
Q 11.15 24.85 10.45 24.85 10.05 24.85 9.65 25.1 9.35 25.3 9.15 25.75
L 9.1 24.95 8.65 24.95 8.7 28.6 9.15 28.6 9.15 26.75
Q 9.15 26.25 9.3 25.95 9.4 25.65 9.75 25.4 10.05 25.25 10.35 25.25 10.95 25.25 11.15 25.6 11.35 25.95 11.35 26.5
L 11.35 28.6 11.8 28.6 11.8 26.35
Q 11.8 25.75 11.5 25.3 Z"/>
</g>

<g id="IT_160x600_FR_psd_Asset_9_V10_1_Le_Wi_Fi__en_tant__que_service__convient_il____votre__organisat_0_Layer0_0_MEMBER_26_FILL">
<path fill="#D82C26" stroke="none" d="
M 12.2 24.95
L 13.6 28.6 14.15 28.6 15.5 24.95 15 24.95 13.9 28.15 12.7 24.95 12.2 24.95 Z"/>
</g>

<g id="IT_160x600_FR_psd_Asset_9_V10_1_Le_Wi_Fi__en_tant__que_service__convient_il____votre__organisat_0_Layer0_0_MEMBER_27_FILL">
<path fill="#D82C26" stroke="none" d="
M 16.1 24.95
L 16.1 28.6 16.55 28.6 16.55 24.95 16.1 24.95
M 16.3 23.85
L 16.55 23.75 16.65 23.5 16.55 23.25 16.3 23.15 16.1 23.25
Q 16 23.35 16 23.5 16 23.65 16.1 23.75
L 16.3 23.85 Z"/>
</g>

<g id="IT_160x600_FR_psd_Asset_9_V10_1_Le_Wi_Fi__en_tant__que_service__convient_il____votre__organisat_0_Layer0_0_MEMBER_28_FILL">
<path fill="#D82C26" stroke="none" d="
M 18.05 27.6
Q 17.85 27.25 17.85 26.85
L 20.95 26.85 20.95 26.65
Q 20.95 26.25 20.75 25.75 20.55 25.35 20.15 25.1 19.85 24.85 19.2 24.85 18.7 24.85 18.3 25.1 17.95 25.3 17.65 25.75 17.4 26.25 17.4 26.75 17.4 27.25 17.65 27.75 17.9 28.25 18.3 28.45 18.8 28.7 19.25 28.7 20.1 28.7 20.7 28.25
L 20.65 27.85
Q 20.45 28.05 20.05 28.2
L 19.3 28.35
Q 19.05 28.35 18.55 28.15 18.2 27.9 18.05 27.6
M 19.2 25.2
Q 19.8 25.2 20.15 25.55 20.5 26 20.5 26.5
L 17.85 26.5
Q 17.85 26.15 18.05 25.9 18.2 25.65 18.5 25.4 18.75 25.2 19.2 25.2 Z"/>
</g>

<g id="IT_160x600_FR_psd_Asset_9_V10_1_Le_Wi_Fi__en_tant__que_service__convient_il____votre__organisat_0_Layer0_0_MEMBER_29_FILL">
<path fill="#D82C26" stroke="none" d="
M 24.6 25.3
Q 24.25 24.85 23.55 24.85 23.15 24.85 22.75 25.1 22.45 25.3 22.25 25.75
L 22.2 24.95 21.75 24.95 21.8 28.6 22.25 28.6 22.25 26.75
Q 22.25 26.25 22.4 25.95 22.5 25.65 22.85 25.4 23.15 25.25 23.45 25.25 23.95 25.25 24.25 25.6 24.45 25.95 24.45 26.5
L 24.45 28.6 24.9 28.6 24.9 26.35
Q 24.9 25.75 24.6 25.3 Z"/>
</g>

<g id="IT_160x600_FR_psd_Asset_9_V10_1_Le_Wi_Fi__en_tant__que_service__convient_il____votre__organisat_0_Layer0_0_MEMBER_30_FILL">
<path fill="#D82C26" stroke="none" d="
M 26.5 23.9
L 26.05 24.1 26.05 24.95 25.45 24.95 25.35 25.3 26.05 25.3 26.05 27.7
Q 26.05 28.15 26.3 28.4 26.5 28.65 26.9 28.65
L 27.7 28.5 27.6 28.15 27.05 28.3
Q 26.8 28.3 26.65 28.15 26.5 28 26.5 27.65
L 26.5 25.3 27.45 25.3 27.55 24.95 26.5 24.95 26.5 23.9 Z"/>
</g>

<g id="IT_160x600_FR_psd_Asset_9_V10_1_Le_Wi_Fi__en_tant__que_service__convient_il____votre__organisat_0_Layer0_0_MEMBER_31_FILL">
<path fill="#D82C26" stroke="none" d="
M 27.7 26.45
L 27.7 26.8 29.3 26.8 29.3 26.45 27.7 26.45 Z"/>
</g>

<g id="IT_160x600_FR_psd_Asset_9_V10_1_Le_Wi_Fi__en_tant__que_service__convient_il____votre__organisat_0_Layer0_0_MEMBER_32_FILL">
<path fill="#D82C26" stroke="none" d="
M 30.2 24.95
L 30.2 28.6 30.65 28.6 30.65 24.95 30.2 24.95
M 30.4 23.85
L 30.65 23.75 30.75 23.5 30.65 23.25 30.4 23.15 30.2 23.25
Q 30.1 23.35 30.1 23.5 30.1 23.65 30.2 23.75
L 30.4 23.85 Z"/>
</g>

<g id="IT_160x600_FR_psd_Asset_9_V10_1_Le_Wi_Fi__en_tant__que_service__convient_il____votre__organisat_0_Layer0_0_MEMBER_33_FILL">
<path fill="#D82C26" stroke="none" d="
M 31.9 28.35
Q 32.05 28.55 32.35 28.7
L 32.55 28.3
Q 32.5 28.3 32.3 28.1
L 32.2 27.7 32.2 22.7 31.75 22.75 31.75 27.8
Q 31.75 28.15 31.9 28.35 Z"/>
</g>

<g id="IT_160x600_FR_psd_Asset_9_V10_1_Le_Wi_Fi__en_tant__que_service__convient_il____votre__organisat_0_Layer0_0_MEMBER_34_FILL">
<path fill="#D82C26" stroke="none" d="
M 1.3 34.85
L 1.95 34.75
Q 2.35 34.75 2.7 35 2.95 35.2 2.95 35.75
L 2.95 35.95 2.55 35.95
Q 0.45 35.95 0.45 37.15 0.45 37.75 0.8 37.95 1.1 38.25 1.6 38.25 2.05 38.25 2.45 38 2.8 37.85 2.95 37.4
L 3 37.4 3 37.8 3.05 38.15 3.45 38.15 3.4 35.75
Q 3.4 35.05 3.05 34.75 2.7 34.4 2 34.4 1.5 34.4 1.25 34.5 0.75 34.75 0.65 34.85
L 0.8 35.2 1.3 34.85
M 2.95 36.25
L 2.95 36.6
Q 2.95 37 2.85 37.2 2.7 37.45 2.4 37.7 2 37.9 1.7 37.9 1.35 37.9 1.1 37.7 0.9 37.55 0.9 37.15 0.9 36.25 2.6 36.25
L 2.95 36.25
M 1.15 32.6
L 2.1 33.75 2.5 33.75 1.7 32.6 1.15 32.6 Z"/>
</g>

<g id="IT_160x600_FR_psd_Asset_9_V10_1_Le_Wi_Fi__en_tant__que_service__convient_il____votre__organisat_0_Layer0_0_MEMBER_35_FILL">
<path fill="#D82C26" stroke="none" d="
M 5.25 34.5
L 6.65 38.15 7.2 38.15 8.55 34.5 8.05 34.5 6.95 37.65 5.75 34.5 5.25 34.5 Z"/>
</g>

<g id="IT_160x600_FR_psd_Asset_9_V10_1_Le_Wi_Fi__en_tant__que_service__convient_il____votre__organisat_0_Layer0_0_MEMBER_36_FILL">
<path fill="#D82C26" stroke="none" d="
M 11.7 34.6
Q 11.3 34.4 10.7 34.4 10.1 34.4 9.7 34.6 9.3 34.9 9 35.3 8.75 35.8 8.75 36.3 8.75 36.8 9 37.3 9.3 37.7 9.7 38 10.2 38.25 10.7 38.25 11.2 38.25 11.7 38 12.1 37.7 12.4 37.3 12.65 36.8 12.65 36.3 12.65 35.8 12.4 35.3 12.1 34.9 11.7 34.6
M 12.2 36.3
Q 12.2 36.65 12 37.05 11.85 37.35 11.5 37.65 11.15 37.85 10.7 37.85 10.25 37.85 9.9 37.65 9.55 37.35 9.4 37.05 9.2 36.65 9.2 36.3 9.2 35.95 9.4 35.55 9.55 35.25 9.9 34.95 10.4 34.75 10.7 34.75 11.05 34.75 11.45 34.95 11.75 35.15 12 35.55 12.2 35.95 12.2 36.3 Z"/>
</g>

<g id="IT_160x600_FR_psd_Asset_9_V10_1_Le_Wi_Fi__en_tant__que_service__convient_il____votre__organisat_0_Layer0_0_MEMBER_37_FILL">
<path fill="#D82C26" stroke="none" d="
M 13.95 33.45
L 13.5 33.6 13.5 34.5 12.95 34.5 12.85 34.85 13.5 34.85 13.5 37.25
Q 13.5 37.7 13.75 37.95 14 38.2 14.35 38.2
L 14.8 38.15 15.15 38 15.1 37.65
Q 14.75 37.85 14.5 37.85 14.25 37.85 14.1 37.7 13.95 37.5 13.95 37.2
L 13.95 34.85 14.9 34.85 15 34.5 13.95 34.5 13.95 33.45 Z"/>
</g>

<g id="IT_160x600_FR_psd_Asset_9_V10_1_Le_Wi_Fi__en_tant__que_service__convient_il____votre__organisat_0_Layer0_0_MEMBER_38_FILL">
<path fill="#D82C26" stroke="none" d="
M 16.5 35.25
Q 16.75 34.8 17.25 34.8
L 17.55 34.85 17.65 34.45 17.25 34.4
Q 16.9 34.4 16.65 34.6 16.35 34.95 16.2 35.3
L 16.15 34.5 15.7 34.5 15.75 38.15 16.2 38.15 16.2 36.3
Q 16.2 35.7 16.5 35.25 Z"/>
</g>

<g id="IT_160x600_FR_psd_Asset_9_V10_1_Le_Wi_Fi__en_tant__que_service__convient_il____votre__organisat_0_Layer0_0_MEMBER_39_FILL">
<path fill="#D82C26" stroke="none" d="
M 18.45 37.1
Q 18.25 36.85 18.25 36.35
L 21.3 36.35 21.3 36.2
Q 21.3 35.65 21.1 35.25 21 34.95 20.55 34.6 20.15 34.4 19.6 34.4 19.05 34.4 18.7 34.6 18.25 34.9 18.05 35.3 17.8 35.7 17.8 36.3 17.8 36.95 18.05 37.3 18.25 37.7 18.7 38 19.2 38.25 19.65 38.25 20.5 38.25 21.1 37.8
L 21.05 37.4 20.45 37.75 19.7 37.85
Q 19.2 37.85 18.95 37.65 18.6 37.5 18.45 37.1
M 18.9 34.95
Q 19.15 34.75 19.6 34.75 20.2 34.75 20.5 35.1 20.9 35.5 20.9 36.05
L 18.25 36.05
Q 18.25 35.75 18.4 35.45 18.5 35.25 18.9 34.95 Z"/>
</g>

<g id="IT_160x600_FR_psd_Asset_9_V10_1_Le_Wi_Fi__en_tant__que_service__convient_il____votre__organisat_0_Layer0_0_MEMBER_40_FILL">
<path fill="#D82C26" stroke="none" d="
M 4.05 44.85
Q 3.8 44.4 3.35 44.15 2.85 43.9 2.35 43.9 1.8 43.9 1.4 44.15 0.95 44.4 0.7 44.85 0.45 45.25 0.45 45.85 0.45 46.5 0.7 46.85 0.95 47.3 1.4 47.5 1.7 47.75 2.35 47.75 3 47.75 3.35 47.5 3.8 47.3 4.05 46.85 4.3 46.5 4.3 45.85 4.3 45.25 4.05 44.85
M 3.65 45.05
Q 3.85 45.4 3.85 45.85 3.85 46.25 3.65 46.6 3.5 47 3.15 47.15 2.8 47.4 2.35 47.4 1.95 47.4 1.6 47.15 1.3 47.05 1.05 46.6
L 0.9 45.85
Q 0.9 45.45 1.05 45.05 1.25 44.7 1.6 44.5 1.85 44.3 2.35 44.3 2.8 44.3 3.15 44.5 3.55 44.8 3.65 45.05 Z"/>
</g>

<g id="IT_160x600_FR_psd_Asset_9_V10_1_Le_Wi_Fi__en_tant__que_service__convient_il____votre__organisat_0_Layer0_0_MEMBER_41_FILL">
<path fill="#D82C26" stroke="none" d="
M 6.65 44.3
L 7 44.35 7.05 44 6.7 43.9
Q 6.4 43.9 6.05 44.15 5.8 44.35 5.6 44.8
L 5.55 44 5.15 44 5.15 47.65 5.65 47.65 5.65 45.85
Q 5.65 45.15 5.9 44.75 6.2 44.3 6.65 44.3 Z"/>
</g>

<g id="IT_160x600_FR_psd_Asset_9_V10_1_Le_Wi_Fi__en_tant__que_service__convient_il____votre__organisat_0_Layer0_0_MEMBER_42_FILL">
<path fill="#D82C26" stroke="none" d="
M 9.05 43.9
Q 8.5 43.9 8.1 44.15 7.65 44.45 7.45 44.85 7.2 45.35 7.2 45.85 7.2 46.3 7.45 46.8 7.65 47.2 8.1 47.5 8.5 47.75 9.05 47.75 9.5 47.75 9.9 47.5 10.25 47.3 10.5 46.85
L 10.5 47.6
Q 10.5 48.4 10.15 48.75 9.8 49.2 9 49.2
L 8.25 49.05 7.5 48.7 7.45 49.15 8.15 49.45
Q 8.45 49.55 9.05 49.55 10.05 49.55 10.5 49.05 10.95 48.55 10.95 47.6
L 11 44 10.55 44 10.55 44.8 10.5 44.8
Q 10.25 44.35 9.9 44.15 9.5 43.9 9.05 43.9
M 9.1 44.3
Q 9.5 44.3 9.85 44.5 10.2 44.75 10.35 45.05 10.55 45.4 10.55 45.85 10.55 46.25 10.35 46.6 10.25 46.85 9.85 47.15 9.5 47.35 9.1 47.35 8.6 47.35 8.35 47.15 8.05 46.95 7.85 46.6 7.65 46.25 7.65 45.85 7.65 45.4 7.85 45.05 8.05 44.7 8.35 44.5 8.6 44.3 9.1 44.3 Z"/>
</g>

<g id="IT_160x600_FR_psd_Asset_9_V10_1_Le_Wi_Fi__en_tant__que_service__convient_il____votre__organisat_0_Layer0_0_MEMBER_43_FILL">
<path fill="#D82C26" stroke="none" d="
M 12.7 44.4
Q 13 44.25 13.3 44.25 13.85 44.25 14.05 44.55 14.35 44.8 14.35 45.25
L 14.35 45.5 13.9 45.5
Q 11.8 45.5 11.8 46.7 11.8 47.15 12.15 47.5 12.55 47.75 12.95 47.75 13.45 47.75 13.8 47.55 14.1 47.35 14.35 46.95
L 14.35 47.35 14.4 47.65 14.85 47.65 14.75 46.85 14.75 45.3
Q 14.75 44.6 14.4 44.25 14.05 43.9 13.35 43.9 12.95 43.9 12.65 44.05 12.3 44.1 12 44.35
L 12.15 44.7 12.7 44.4
M 13.95 45.8
L 14.35 45.8 14.35 46.15
Q 14.35 46.45 14.2 46.75 14.05 47 13.75 47.25 13.45 47.4 13.05 47.4 12.75 47.4 12.5 47.25 12.25 47 12.25 46.65 12.25 45.8 13.95 45.8 Z"/>
</g>

<g id="IT_160x600_FR_psd_Asset_9_V10_1_Le_Wi_Fi__en_tant__que_service__convient_il____votre__organisat_0_Layer0_0_MEMBER_44_FILL">
<path fill="#D82C26" stroke="none" d="
M 18.95 45.45
Q 18.95 44.75 18.6 44.35 18.3 43.9 17.6 43.9 17.2 43.9 16.8 44.15 16.5 44.35 16.3 44.8
L 16.25 44.8 16.25 44 15.8 44 15.85 47.65 16.3 47.65 16.3 45.8
Q 16.3 45.3 16.45 45 16.55 44.7 16.9 44.45 17.2 44.3 17.5 44.3 18.05 44.3 18.25 44.65 18.5 45.05 18.5 45.55
L 18.5 47.65 18.95 47.65 18.95 45.45 Z"/>
</g>

<g id="IT_160x600_FR_psd_Asset_9_V10_1_Le_Wi_Fi__en_tant__que_service__convient_il____votre__organisat_0_Layer0_0_MEMBER_45_FILL">
<path fill="#D82C26" stroke="none" d="
M 20 42.35
L 19.95 42.55 20 42.8 20.25 42.9 20.5 42.8 20.6 42.55 20.5 42.35
Q 20.4 42.25 20.25 42.25 20.1 42.25 20 42.35
M 20.05 44
L 20.05 47.65 20.5 47.65 20.5 44 20.05 44 Z"/>
</g>

<g id="IT_160x600_FR_psd_Asset_9_V10_1_Le_Wi_Fi__en_tant__que_service__convient_il____votre__organisat_0_Layer0_0_MEMBER_46_FILL">
<path fill="#D82C26" stroke="none" d="
M 23.75 44.3
L 23.25 44 22.6 43.9 22 44
Q 21.7 44.15 21.55 44.35 21.35 44.65 21.35 44.9 21.35 45.35 21.65 45.55 21.8 45.7 22.4 45.95 22.95 46.1 23.15 46.3 23.4 46.45 23.4 46.7 23.4 47.1 23.15 47.2 22.95 47.4 22.6 47.4 21.85 47.4 21.4 46.95
L 21.3 47.35
Q 21.35 47.4 21.85 47.65
L 22.6 47.75 23.2 47.65
Q 23.55 47.5 23.65 47.3 23.85 47.05 23.85 46.7 23.85 46.3 23.55 46.05 23.3 45.8 22.7 45.65
L 22 45.3
Q 21.8 45.15 21.8 44.9 21.8 44.6 22.05 44.45 22.25 44.25 22.6 44.25
L 23.1 44.35 23.55 44.65 23.75 44.3 Z"/>
</g>

<g id="IT_160x600_FR_psd_Asset_9_V10_1_Le_Wi_Fi__en_tant__que_service__convient_il____votre__organisat_0_Layer0_0_MEMBER_47_FILL">
<path fill="#D82C26" stroke="none" d="
M 24.45 46.7
Q 24.45 47.2 24.8 47.5 25.15 47.75 25.6 47.75 26.1 47.75 26.45 47.55 26.8 47.35 26.95 46.95
L 27 46.95 27 47.35 27.05 47.65 27.45 47.65 27.4 45.3
Q 27.4 44.6 27.05 44.25 26.7 43.9 26 43.9
L 25.25 44.05 24.65 44.35 24.8 44.7 25.35 44.4
Q 25.65 44.25 25.95 44.25 26.4 44.25 26.7 44.55 27 44.8 27 45.25
L 27 45.5 26.55 45.5
Q 24.45 45.5 24.45 46.7
M 25.15 47.25
Q 24.9 47.05 24.9 46.65 24.9 45.8 26.6 45.8
L 27 45.8 27 46.15
Q 27 46.45 26.85 46.75 26.7 47 26.4 47.25 26.1 47.4 25.7 47.4 25.4 47.4 25.15 47.25 Z"/>
</g>

<g id="IT_160x600_FR_psd_Asset_9_V10_1_Le_Wi_Fi__en_tant__que_service__convient_il____votre__organisat_0_Layer0_0_MEMBER_48_FILL">
<path fill="#D82C26" stroke="none" d="
M 29 43
L 28.55 43.15 28.55 44 28 44 27.9 44.4 28.55 44.4 28.55 46.8
Q 28.55 47.15 28.8 47.5 29.05 47.75 29.4 47.75
L 29.8 47.7 30.2 47.55 30.15 47.2 29.55 47.35
Q 29.3 47.35 29.15 47.2 29 47.05 29 46.7
L 29 44.4 29.95 44.4 30.05 44 29 44 29 43 Z"/>
</g>

<g id="IT_160x600_FR_psd_Asset_9_V10_1_Le_Wi_Fi__en_tant__que_service__convient_il____votre__organisat_0_Layer0_0_MEMBER_49_FILL">
<path fill="#D82C26" stroke="none" d="
M 30.8 44
L 30.8 47.65 31.25 47.65 31.25 44 30.8 44
M 31 42.9
L 31.25 42.8 31.35 42.55 31.25 42.35
Q 31.2 42.25 31 42.25 30.85 42.25 30.8 42.35 30.7 42.4 30.7 42.55 30.7 42.75 30.8 42.8
L 31 42.9 Z"/>
</g>

<g id="IT_160x600_FR_psd_Asset_9_V10_1_Le_Wi_Fi__en_tant__que_service__convient_il____votre__organisat_0_Layer0_0_MEMBER_50_FILL">
<path fill="#D82C26" stroke="none" d="
M 34.05 43.9
Q 33.55 43.9 33.05 44.15 32.6 44.4 32.35 44.85 32.1 45.35 32.1 45.85 32.1 46.35 32.35 46.85 32.6 47.3 33.05 47.5 33.45 47.75 34.05 47.75 34.7 47.75 35 47.5 35.45 47.3 35.7 46.85 35.95 46.5 35.95 45.85 35.95 45.25 35.7 44.85 35.45 44.4 35 44.15 34.6 43.9 34.05 43.9
M 34.8 44.5
Q 35.15 44.7 35.35 45.05 35.5 45.45 35.5 45.85
L 35.35 46.6
Q 35.1 47.05 34.8 47.15 34.45 47.4 34.05 47.4 33.6 47.4 33.25 47.15 32.9 47 32.75 46.6 32.55 46.25 32.55 45.85 32.55 45.4 32.75 45.05 32.9 44.7 33.25 44.5 33.5 44.3 34.05 44.3 34.55 44.3 34.8 44.5 Z"/>
</g>

<g id="IT_160x600_FR_psd_Asset_9_V10_1_Le_Wi_Fi__en_tant__que_service__convient_il____votre__organisat_0_Layer0_0_MEMBER_51_FILL">
<path fill="#D82C26" stroke="none" d="
M 39.6 44.35
Q 39.3 43.9 38.6 43.9 38.2 43.9 37.8 44.15 37.5 44.35 37.3 44.8
L 37.25 44.8 37.25 44 36.8 44 36.85 47.65 37.3 47.65 37.3 45.8
Q 37.3 45.3 37.45 45 37.55 44.7 37.9 44.45 38.2 44.3 38.5 44.3 39.05 44.3 39.25 44.65 39.5 45.05 39.5 45.55
L 39.5 47.65 39.95 47.65 39.95 45.45
Q 39.95 44.75 39.6 44.35 Z"/>
</g>

<g id="IT_160x600_FR_psd_Asset_9_V10_1_Le_Wi_Fi__en_tant__que_service__convient_il____votre__organisat_0_Layer0_0_MEMBER_52_FILL">
<path fill="#D82C26" stroke="none" d="
M 41.7 42.45
Q 42.2 42.45 42.45 42.7 42.8 42.9 42.8 43.35
L 42.7 43.8 42.5 44.15 42.1 44.6
Q 41.75 44.85 41.6 45.2 41.5 45.4 41.5 45.85
L 41.5 46.1 41.9 46.1 41.9 45.9 41.95 45.5 42.15 45.15 42.9 44.3 43.15 43.9 43.25 43.35
Q 43.25 42.9 43.05 42.65 42.8 42.3 42.5 42.2 42.2 42.05 41.75 42.05 41.25 42.05 40.85 42.2 40.35 42.5 40.2 42.7
L 40.4 43.05 40.95 42.6 41.7 42.45
M 41.5 47.6
Q 41.55 47.7 41.75 47.7 41.9 47.7 41.95 47.6 42.05 47.55 42.05 47.35 42.05 47.2 41.95 47.1
L 41.75 47 41.5 47.1
Q 41.4 47.2 41.4 47.35 41.4 47.55 41.5 47.6 Z"/>
</g>
</defs>

<g transform="matrix( 1, 0, 0, 1, -374,41) ">
<g transform="matrix( 1, 0, 0, 1, 369,0) ">
<g transform="matrix( 1, 0, 0, 1, 26,11) ">
<g transform="matrix( 2.815704345703125, 0, 0, 2.832611083984375, -0.85,15.6) ">
<use xlink:href="#IT_160x600_FR_psd_Asset_9_V10_1_Le_Wi_Fi__en_tant__que_service__convient_il____votre__organisat_0_Layer0_0_MEMBER_0_FILL"/>
</g>

<g transform="matrix( 2.815704345703125, 0, 0, 2.832611083984375, -0.85,15.6) ">
<use xlink:href="#IT_160x600_FR_psd_Asset_9_V10_1_Le_Wi_Fi__en_tant__que_service__convient_il____votre__organisat_0_Layer0_0_MEMBER_1_FILL"/>
</g>

<g transform="matrix( 2.815704345703125, 0, 0, 2.832611083984375, -0.85,15.6) ">
<use xlink:href="#IT_160x600_FR_psd_Asset_9_V10_1_Le_Wi_Fi__en_tant__que_service__convient_il____votre__organisat_0_Layer0_0_MEMBER_2_FILL"/>
</g>

<g transform="matrix( 2.815704345703125, 0, 0, 2.832611083984375, -0.85,15.6) ">
<use xlink:href="#IT_160x600_FR_psd_Asset_9_V10_1_Le_Wi_Fi__en_tant__que_service__convient_il____votre__organisat_0_Layer0_0_MEMBER_3_FILL"/>
</g>

<g transform="matrix( 2.815704345703125, 0, 0, 2.832611083984375, -0.85,15.6) ">
<use xlink:href="#IT_160x600_FR_psd_Asset_9_V10_1_Le_Wi_Fi__en_tant__que_service__convient_il____votre__organisat_0_Layer0_0_MEMBER_4_FILL"/>
</g>

<g transform="matrix( 2.815704345703125, 0, 0, 2.832611083984375, -0.85,15.6) ">
<use xlink:href="#IT_160x600_FR_psd_Asset_9_V10_1_Le_Wi_Fi__en_tant__que_service__convient_il____votre__organisat_0_Layer0_0_MEMBER_5_FILL"/>
</g>

<g transform="matrix( 2.815704345703125, 0, 0, 2.832611083984375, -0.85,15.6) ">
<use xlink:href="#IT_160x600_FR_psd_Asset_9_V10_1_Le_Wi_Fi__en_tant__que_service__convient_il____votre__organisat_0_Layer0_0_MEMBER_6_FILL"/>
</g>

<g transform="matrix( 2.815704345703125, 0, 0, 2.832611083984375, -0.85,15.6) ">
<use xlink:href="#IT_160x600_FR_psd_Asset_9_V10_1_Le_Wi_Fi__en_tant__que_service__convient_il____votre__organisat_0_Layer0_0_MEMBER_7_FILL"/>
</g>

<g transform="matrix( 2.815704345703125, 0, 0, 2.832611083984375, -0.85,15.6) ">
<use xlink:href="#IT_160x600_FR_psd_Asset_9_V10_1_Le_Wi_Fi__en_tant__que_service__convient_il____votre__organisat_0_Layer0_0_MEMBER_8_FILL"/>
</g>

<g transform="matrix( 2.815704345703125, 0, 0, 2.832611083984375, -0.85,15.6) ">
<use xlink:href="#IT_160x600_FR_psd_Asset_9_V10_1_Le_Wi_Fi__en_tant__que_service__convient_il____votre__organisat_0_Layer0_0_MEMBER_9_FILL"/>
</g>

<g transform="matrix( 2.815704345703125, 0, 0, 2.832611083984375, -0.85,15.6) ">
<use xlink:href="#IT_160x600_FR_psd_Asset_9_V10_1_Le_Wi_Fi__en_tant__que_service__convient_il____votre__organisat_0_Layer0_0_MEMBER_10_FILL"/>
</g>

<g transform="matrix( 2.815704345703125, 0, 0, 2.832611083984375, -0.85,15.6) ">
<use xlink:href="#IT_160x600_FR_psd_Asset_9_V10_1_Le_Wi_Fi__en_tant__que_service__convient_il____votre__organisat_0_Layer0_0_MEMBER_11_FILL"/>
</g>

<g transform="matrix( 2.815704345703125, 0, 0, 2.832611083984375, -0.85,15.6) ">
<use xlink:href="#IT_160x600_FR_psd_Asset_9_V10_1_Le_Wi_Fi__en_tant__que_service__convient_il____votre__organisat_0_Layer0_0_MEMBER_12_FILL"/>
</g>

<g transform="matrix( 2.815704345703125, 0, 0, 2.832611083984375, -0.85,15.6) ">
<use xlink:href="#IT_160x600_FR_psd_Asset_9_V10_1_Le_Wi_Fi__en_tant__que_service__convient_il____votre__organisat_0_Layer0_0_MEMBER_13_FILL"/>
</g>

<g transform="matrix( 2.815704345703125, 0, 0, 2.832611083984375, -0.85,15.6) ">
<use xlink:href="#IT_160x600_FR_psd_Asset_9_V10_1_Le_Wi_Fi__en_tant__que_service__convient_il____votre__organisat_0_Layer0_0_MEMBER_14_FILL"/>
</g>

<g transform="matrix( 2.815704345703125, 0, 0, 2.832611083984375, -0.85,15.6) ">
<use xlink:href="#IT_160x600_FR_psd_Asset_9_V10_1_Le_Wi_Fi__en_tant__que_service__convient_il____votre__organisat_0_Layer0_0_MEMBER_15_FILL"/>
</g>

<g transform="matrix( 2.815704345703125, 0, 0, 2.832611083984375, -0.85,15.6) ">
<use xlink:href="#IT_160x600_FR_psd_Asset_9_V10_1_Le_Wi_Fi__en_tant__que_service__convient_il____votre__organisat_0_Layer0_0_MEMBER_16_FILL"/>
</g>

<g transform="matrix( 2.815704345703125, 0, 0, 2.832611083984375, -0.85,15.6) ">
<use xlink:href="#IT_160x600_FR_psd_Asset_9_V10_1_Le_Wi_Fi__en_tant__que_service__convient_il____votre__organisat_0_Layer0_0_MEMBER_17_FILL"/>
</g>

<g transform="matrix( 2.815704345703125, 0, 0, 2.832611083984375, -0.85,15.6) ">
<use xlink:href="#IT_160x600_FR_psd_Asset_9_V10_1_Le_Wi_Fi__en_tant__que_service__convient_il____votre__organisat_0_Layer0_0_MEMBER_18_FILL"/>
</g>

<g transform="matrix( 2.815704345703125, 0, 0, 2.832611083984375, -0.85,15.6) ">
<use xlink:href="#IT_160x600_FR_psd_Asset_9_V10_1_Le_Wi_Fi__en_tant__que_service__convient_il____votre__organisat_0_Layer0_0_MEMBER_19_FILL"/>
</g>

<g transform="matrix( 2.815704345703125, 0, 0, 2.832611083984375, -0.85,15.6) ">
<use xlink:href="#IT_160x600_FR_psd_Asset_9_V10_1_Le_Wi_Fi__en_tant__que_service__convient_il____votre__organisat_0_Layer0_0_MEMBER_20_FILL"/>
</g>

<g transform="matrix( 2.815704345703125, 0, 0, 2.832611083984375, -0.85,15.6) ">
<use xlink:href="#IT_160x600_FR_psd_Asset_9_V10_1_Le_Wi_Fi__en_tant__que_service__convient_il____votre__organisat_0_Layer0_0_MEMBER_21_FILL"/>
</g>

<g transform="matrix( 2.815704345703125, 0, 0, 2.832611083984375, -0.85,15.6) ">
<use xlink:href="#IT_160x600_FR_psd_Asset_9_V10_1_Le_Wi_Fi__en_tant__que_service__convient_il____votre__organisat_0_Layer0_0_MEMBER_22_FILL"/>
</g>

<g transform="matrix( 2.815704345703125, 0, 0, 2.832611083984375, -0.85,15.6) ">
<use xlink:href="#IT_160x600_FR_psd_Asset_9_V10_1_Le_Wi_Fi__en_tant__que_service__convient_il____votre__organisat_0_Layer0_0_MEMBER_23_FILL"/>
</g>

<g transform="matrix( 2.815704345703125, 0, 0, 2.832611083984375, -0.85,15.6) ">
<use xlink:href="#IT_160x600_FR_psd_Asset_9_V10_1_Le_Wi_Fi__en_tant__que_service__convient_il____votre__organisat_0_Layer0_0_MEMBER_24_FILL"/>
</g>

<g transform="matrix( 2.815704345703125, 0, 0, 2.832611083984375, -0.85,15.6) ">
<use xlink:href="#IT_160x600_FR_psd_Asset_9_V10_1_Le_Wi_Fi__en_tant__que_service__convient_il____votre__organisat_0_Layer0_0_MEMBER_25_FILL"/>
</g>

<g transform="matrix( 2.815704345703125, 0, 0, 2.832611083984375, -0.85,15.6) ">
<use xlink:href="#IT_160x600_FR_psd_Asset_9_V10_1_Le_Wi_Fi__en_tant__que_service__convient_il____votre__organisat_0_Layer0_0_MEMBER_26_FILL"/>
</g>

<g transform="matrix( 2.815704345703125, 0, 0, 2.832611083984375, -0.85,15.6) ">
<use xlink:href="#IT_160x600_FR_psd_Asset_9_V10_1_Le_Wi_Fi__en_tant__que_service__convient_il____votre__organisat_0_Layer0_0_MEMBER_27_FILL"/>
</g>

<g transform="matrix( 2.815704345703125, 0, 0, 2.832611083984375, -0.85,15.6) ">
<use xlink:href="#IT_160x600_FR_psd_Asset_9_V10_1_Le_Wi_Fi__en_tant__que_service__convient_il____votre__organisat_0_Layer0_0_MEMBER_28_FILL"/>
</g>

<g transform="matrix( 2.815704345703125, 0, 0, 2.832611083984375, -0.85,15.6) ">
<use xlink:href="#IT_160x600_FR_psd_Asset_9_V10_1_Le_Wi_Fi__en_tant__que_service__convient_il____votre__organisat_0_Layer0_0_MEMBER_29_FILL"/>
</g>

<g transform="matrix( 2.815704345703125, 0, 0, 2.832611083984375, -0.85,15.6) ">
<use xlink:href="#IT_160x600_FR_psd_Asset_9_V10_1_Le_Wi_Fi__en_tant__que_service__convient_il____votre__organisat_0_Layer0_0_MEMBER_30_FILL"/>
</g>

<g transform="matrix( 2.815704345703125, 0, 0, 2.832611083984375, -0.85,15.6) ">
<use xlink:href="#IT_160x600_FR_psd_Asset_9_V10_1_Le_Wi_Fi__en_tant__que_service__convient_il____votre__organisat_0_Layer0_0_MEMBER_31_FILL"/>
</g>

<g transform="matrix( 2.815704345703125, 0, 0, 2.832611083984375, -0.85,15.6) ">
<use xlink:href="#IT_160x600_FR_psd_Asset_9_V10_1_Le_Wi_Fi__en_tant__que_service__convient_il____votre__organisat_0_Layer0_0_MEMBER_32_FILL"/>
</g>

<g transform="matrix( 2.815704345703125, 0, 0, 2.832611083984375, -0.85,15.6) ">
<use xlink:href="#IT_160x600_FR_psd_Asset_9_V10_1_Le_Wi_Fi__en_tant__que_service__convient_il____votre__organisat_0_Layer0_0_MEMBER_33_FILL"/>
</g>

<g transform="matrix( 2.815704345703125, 0, 0, 2.832611083984375, -0.85,15.6) ">
<use xlink:href="#IT_160x600_FR_psd_Asset_9_V10_1_Le_Wi_Fi__en_tant__que_service__convient_il____votre__organisat_0_Layer0_0_MEMBER_34_FILL"/>
</g>

<g transform="matrix( 2.815704345703125, 0, 0, 2.832611083984375, -0.85,15.6) ">
<use xlink:href="#IT_160x600_FR_psd_Asset_9_V10_1_Le_Wi_Fi__en_tant__que_service__convient_il____votre__organisat_0_Layer0_0_MEMBER_35_FILL"/>
</g>

<g transform="matrix( 2.815704345703125, 0, 0, 2.832611083984375, -0.85,15.6) ">
<use xlink:href="#IT_160x600_FR_psd_Asset_9_V10_1_Le_Wi_Fi__en_tant__que_service__convient_il____votre__organisat_0_Layer0_0_MEMBER_36_FILL"/>
</g>

<g transform="matrix( 2.815704345703125, 0, 0, 2.832611083984375, -0.85,15.6) ">
<use xlink:href="#IT_160x600_FR_psd_Asset_9_V10_1_Le_Wi_Fi__en_tant__que_service__convient_il____votre__organisat_0_Layer0_0_MEMBER_37_FILL"/>
</g>

<g transform="matrix( 2.815704345703125, 0, 0, 2.832611083984375, -0.85,15.6) ">
<use xlink:href="#IT_160x600_FR_psd_Asset_9_V10_1_Le_Wi_Fi__en_tant__que_service__convient_il____votre__organisat_0_Layer0_0_MEMBER_38_FILL"/>
</g>

<g transform="matrix( 2.815704345703125, 0, 0, 2.832611083984375, -0.85,15.6) ">
<use xlink:href="#IT_160x600_FR_psd_Asset_9_V10_1_Le_Wi_Fi__en_tant__que_service__convient_il____votre__organisat_0_Layer0_0_MEMBER_39_FILL"/>
</g>

<g transform="matrix( 2.815704345703125, 0, 0, 2.832611083984375, -0.85,15.6) ">
<use xlink:href="#IT_160x600_FR_psd_Asset_9_V10_1_Le_Wi_Fi__en_tant__que_service__convient_il____votre__organisat_0_Layer0_0_MEMBER_40_FILL"/>
</g>

<g transform="matrix( 2.815704345703125, 0, 0, 2.832611083984375, -0.85,15.6) ">
<use xlink:href="#IT_160x600_FR_psd_Asset_9_V10_1_Le_Wi_Fi__en_tant__que_service__convient_il____votre__organisat_0_Layer0_0_MEMBER_41_FILL"/>
</g>

<g transform="matrix( 2.815704345703125, 0, 0, 2.832611083984375, -0.85,15.6) ">
<use xlink:href="#IT_160x600_FR_psd_Asset_9_V10_1_Le_Wi_Fi__en_tant__que_service__convient_il____votre__organisat_0_Layer0_0_MEMBER_42_FILL"/>
</g>

<g transform="matrix( 2.815704345703125, 0, 0, 2.832611083984375, -0.85,15.6) ">
<use xlink:href="#IT_160x600_FR_psd_Asset_9_V10_1_Le_Wi_Fi__en_tant__que_service__convient_il____votre__organisat_0_Layer0_0_MEMBER_43_FILL"/>
</g>

<g transform="matrix( 2.815704345703125, 0, 0, 2.832611083984375, -0.85,15.6) ">
<use xlink:href="#IT_160x600_FR_psd_Asset_9_V10_1_Le_Wi_Fi__en_tant__que_service__convient_il____votre__organisat_0_Layer0_0_MEMBER_44_FILL"/>
</g>

<g transform="matrix( 2.815704345703125, 0, 0, 2.832611083984375, -0.85,15.6) ">
<use xlink:href="#IT_160x600_FR_psd_Asset_9_V10_1_Le_Wi_Fi__en_tant__que_service__convient_il____votre__organisat_0_Layer0_0_MEMBER_45_FILL"/>
</g>

<g transform="matrix( 2.815704345703125, 0, 0, 2.832611083984375, -0.85,15.6) ">
<use xlink:href="#IT_160x600_FR_psd_Asset_9_V10_1_Le_Wi_Fi__en_tant__que_service__convient_il____votre__organisat_0_Layer0_0_MEMBER_46_FILL"/>
</g>

<g transform="matrix( 2.815704345703125, 0, 0, 2.832611083984375, -0.85,15.6) ">
<use xlink:href="#IT_160x600_FR_psd_Asset_9_V10_1_Le_Wi_Fi__en_tant__que_service__convient_il____votre__organisat_0_Layer0_0_MEMBER_47_FILL"/>
</g>

<g transform="matrix( 2.815704345703125, 0, 0, 2.832611083984375, -0.85,15.6) ">
<use xlink:href="#IT_160x600_FR_psd_Asset_9_V10_1_Le_Wi_Fi__en_tant__que_service__convient_il____votre__organisat_0_Layer0_0_MEMBER_48_FILL"/>
</g>

<g transform="matrix( 2.815704345703125, 0, 0, 2.832611083984375, -0.85,15.6) ">
<use xlink:href="#IT_160x600_FR_psd_Asset_9_V10_1_Le_Wi_Fi__en_tant__que_service__convient_il____votre__organisat_0_Layer0_0_MEMBER_49_FILL"/>
</g>

<g transform="matrix( 2.815704345703125, 0, 0, 2.832611083984375, -0.85,15.6) ">
<use xlink:href="#IT_160x600_FR_psd_Asset_9_V10_1_Le_Wi_Fi__en_tant__que_service__convient_il____votre__organisat_0_Layer0_0_MEMBER_50_FILL"/>
</g>

<g transform="matrix( 2.815704345703125, 0, 0, 2.832611083984375, -0.85,15.6) ">
<use xlink:href="#IT_160x600_FR_psd_Asset_9_V10_1_Le_Wi_Fi__en_tant__que_service__convient_il____votre__organisat_0_Layer0_0_MEMBER_51_FILL"/>
</g>

<g transform="matrix( 2.815704345703125, 0, 0, 2.832611083984375, -0.85,15.6) ">
<use xlink:href="#IT_160x600_FR_psd_Asset_9_V10_1_Le_Wi_Fi__en_tant__que_service__convient_il____votre__organisat_0_Layer0_0_MEMBER_52_FILL"/>
</g>
</g>
</g>
</g>
</svg>
