
<svg xmlns="http://www.w3.org/2000/svg" version="1.1" xmlns:xlink="http://www.w3.org/1999/xlink" preserveAspectRatio="none" x="0px" y="0px" width="300px" height="600px" viewBox="0 0 300 600">
<defs>
<g id="IT_300x600_FR_psd_Asset_B___V7_2_Rogers_a_une__nouvelle_solution__pour_vous_aider__0_Layer0_0_MEMBER_0_FILL">
<path fill="#D82C26" stroke="none" d="
M 4.55 -6.6
Q 3.85 -7 2.9 -7
L 0.95 -7 0.95 0 1.55 0 1.55 -3.1 3 -3.1 4.85 0 5.55 0 3.6 -3.2
Q 4.25 -3.35 4.75 -3.85 5.2 -4.35 5.2 -5.15 5.2 -6.15 4.55 -6.6
M 1.55 -6.5
L 2.8 -6.5
Q 3.6 -6.5 4.1 -6.2 4.65 -5.9 4.65 -5.15 4.65 -4.5 4.15 -4 3.65 -3.55 2.85 -3.55
L 1.55 -3.55 1.55 -6.5 Z"/>
</g>

<g id="IT_300x600_FR_psd_Asset_B___V7_2_Rogers_a_une__nouvelle_solution__pour_vous_aider__0_Layer0_0_MEMBER_1_FILL">
<path fill="#D82C26" stroke="none" d="
M 9.8 -4.45
Q 9.2 -4.75 8.5 -4.75 7.85 -4.75 7.25 -4.45 6.7 -4.15 6.4 -3.6 6.05 -3.05 6.05 -2.3 6.05 -1.6 6.4 -1.05 6.7 -0.5 7.25 -0.2 7.8 0.15 8.5 0.15 9.25 0.15 9.8 -0.2 10.35 -0.5 10.65 -1.05 11 -1.6 11 -2.3 11 -3.05 10.65 -3.6 10.35 -4.15 9.8 -4.45
M 8.5 -4.3
Q 9.05 -4.3 9.5 -4 9.9 -3.8 10.15 -3.3 10.4 -2.9 10.4 -2.3 10.4 -1.75 10.2 -1.35 10 -0.9 9.5 -0.6 9.1 -0.35 8.5 -0.35 8 -0.35 7.5 -0.6 7.05 -0.95 6.85 -1.35 6.65 -1.75 6.65 -2.3 6.65 -2.9 6.85 -3.3 7.05 -3.75 7.5 -4 7.95 -4.3 8.5 -4.3 Z"/>
</g>

<g id="IT_300x600_FR_psd_Asset_B___V7_2_Rogers_a_une__nouvelle_solution__pour_vous_aider__0_Layer0_0_MEMBER_2_FILL">
<path fill="#D82C26" stroke="none" d="
M 14.1 -4.75
Q 13.45 -4.75 12.9 -4.45 12.35 -4.05 12.1 -3.55 11.8 -3 11.8 -2.3 11.8 -1.6 12.1 -1.1 12.45 -0.5 12.9 -0.25 13.4 0.1 14.1 0.1 14.75 0.1 15.25 -0.2 15.8 -0.55 16 -1.05
L 16 -0.05
Q 16 0.9 15.55 1.4 15.1 1.95 14.1 1.95 13.55 1.95 13.1 1.75 12.65 1.6 12.2 1.35
L 12.1 1.85
Q 12.45 2.15 13.05 2.3
L 14.15 2.45
Q 15.4 2.45 16 1.75 16.6 1.1 16.6 -0.05
L 16.6 -4.65 16.1 -4.65 16.05 -3.6 16 -3.6
Q 15.75 -4.15 15.2 -4.45 14.75 -4.75 14.1 -4.75
M 14.2 -4.3
Q 14.7 -4.3 15.15 -4 15.6 -3.75 15.8 -3.3 16.05 -2.8 16.05 -2.35 16.05 -1.85 15.8 -1.35 15.6 -0.9 15.15 -0.65 14.8 -0.4 14.2 -0.4 13.55 -0.4 13.25 -0.65 12.8 -0.95 12.6 -1.35 12.4 -1.75 12.4 -2.3 12.4 -2.9 12.6 -3.3 12.85 -3.8 13.25 -4 13.65 -4.3 14.2 -4.3 Z"/>
</g>

<g id="IT_300x600_FR_psd_Asset_B___V7_2_Rogers_a_une__nouvelle_solution__pour_vous_aider__0_Layer0_0_MEMBER_3_FILL">
<path fill="#D82C26" stroke="none" d="
M 20 -4.75
Q 19.35 -4.75 18.8 -4.45 18.35 -4.2 18 -3.6 17.7 -3.05 17.7 -2.35 17.7 -1.65 18 -1.05 18.3 -0.5 18.85 -0.2 19.35 0.15 20.05 0.15 21.15 0.15 21.9 -0.45
L 21.8 -0.95
Q 21.5 -0.65 21.05 -0.5 20.6 -0.35 20.1 -0.35 19.55 -0.35 19.15 -0.6 18.7 -0.85 18.5 -1.3 18.25 -1.7 18.25 -2.25
L 22.2 -2.25 22.2 -2.5
Q 22.2 -3.05 21.95 -3.65 21.65 -4.15 21.2 -4.45 20.7 -4.75 20 -4.75
M 19.1 -4.05
Q 19.4 -4.3 20 -4.3 20.8 -4.3 21.15 -3.85 21.55 -3.45 21.65 -2.65
L 18.25 -2.65
Q 18.35 -3.15 18.5 -3.4 18.7 -3.85 19.1 -4.05 Z"/>
</g>

<g id="IT_300x600_FR_psd_Asset_B___V7_2_Rogers_a_une__nouvelle_solution__pour_vous_aider__0_Layer0_0_MEMBER_4_FILL">
<path fill="#D82C26" stroke="none" d="
M 23.85 -2.3
Q 23.85 -3 24.2 -3.7 24.6 -4.25 25.15 -4.25
L 25.6 -4.2 25.7 -4.7 25.2 -4.75
Q 24.8 -4.75 24.4 -4.45 24 -4.1 23.85 -3.65
L 23.8 -4.65 23.25 -4.65 23.3 0 23.85 0 23.85 -2.3 Z"/>
</g>

<g id="IT_300x600_FR_psd_Asset_B___V7_2_Rogers_a_une__nouvelle_solution__pour_vous_aider__0_Layer0_0_MEMBER_5_FILL">
<path fill="#D82C26" stroke="none" d="
M 29.15 -4.3
L 28.55 -4.65 27.7 -4.75
Q 27.2 -4.75 26.95 -4.65 26.6 -4.5 26.4 -4.2 26.15 -3.85 26.15 -3.5 26.15 -3.05 26.5 -2.7 26.75 -2.45 27.5 -2.2 28.15 -2 28.45 -1.75 28.75 -1.5 28.75 -1.2 28.75 -0.75 28.45 -0.55 28.2 -0.35 27.7 -0.35 26.75 -0.35 26.2 -0.9
L 26.1 -0.4
Q 26.35 -0.15 26.8 0 27.25 0.15 27.75 0.15
L 28.5 0
Q 28.9 -0.25 29.1 -0.5 29.3 -0.75 29.3 -1.2 29.3 -1.75 28.95 -2.05 28.75 -2.25 27.9 -2.6 27.25 -2.75 27 -3 26.7 -3.15 26.7 -3.55 26.7 -3.95 27 -4.1 27.25 -4.3 27.7 -4.3
L 28.4 -4.2 28.95 -3.85 29.15 -4.3 Z"/>
</g>

<g id="IT_300x600_FR_psd_Asset_B___V7_2_Rogers_a_une__nouvelle_solution__pour_vous_aider__0_Layer0_0_MEMBER_6_FILL">
<path fill="#D82C26" stroke="none" d="
M 33.95 -4.3
Q 34.6 -4.3 34.9 -4 35.25 -3.65 35.25 -3.05
L 35.25 -2.8 34.7 -2.8
Q 32.05 -2.8 32.05 -1.25 32.05 -0.55 32.5 -0.2 33.05 0.15 33.55 0.15 34.1 0.15 34.6 -0.15 35.1 -0.4 35.25 -0.9
L 35.3 -0.9 35.35 0 35.9 0 35.8 -1 35.8 -3
Q 35.8 -3.9 35.35 -4.35 34.95 -4.75 34.05 -4.75 33.55 -4.75 33.1 -4.6 32.6 -4.45 32.3 -4.2
L 32.5 -3.75 33.15 -4.15
Q 33.6 -4.3 33.95 -4.3
M 32.9 -0.55
Q 32.6 -0.75 32.6 -1.25 32.6 -2.4 34.8 -2.4
L 35.25 -2.4 35.25 -1.95
Q 35.25 -1.5 35.1 -1.15 34.85 -0.75 34.55 -0.55 34.15 -0.3 33.65 -0.3 33.25 -0.3 32.9 -0.55 Z"/>
</g>

<g id="IT_300x600_FR_psd_Asset_B___V7_2_Rogers_a_une__nouvelle_solution__pour_vous_aider__0_Layer0_0_MEMBER_7_FILL">
<path fill="#D82C26" stroke="none" d="
M 39.2 -1.8
Q 39.2 -1 39.6 -0.45 40.05 0.15 40.9 0.15 41.5 0.15 41.9 -0.2 42.4 -0.55 42.6 -1
L 42.65 0 43.25 0 43.15 -1.1 43.15 -4.65 42.6 -4.65 42.6 -2.3
Q 42.6 -1.85 42.4 -1.25 42.2 -0.85 41.8 -0.6 41.55 -0.35 41.05 -0.35 40.35 -0.35 40.05 -0.8 39.8 -1.15 39.8 -1.95
L 39.8 -4.65 39.2 -4.65 39.2 -1.8 Z"/>
</g>

<g id="IT_300x600_FR_psd_Asset_B___V7_2_Rogers_a_une__nouvelle_solution__pour_vous_aider__0_Layer0_0_MEMBER_8_FILL">
<path fill="#D82C26" stroke="none" d="
M 45.1 -4.65
L 44.55 -4.65 44.6 0 45.2 0 45.2 -2.35
Q 45.2 -3 45.4 -3.4 45.65 -3.85 45.95 -4.05 46.35 -4.3 46.75 -4.3 47.4 -4.3 47.7 -3.8 48 -3.35 48 -2.7
L 48 0 48.55 0 48.55 -2.85
Q 48.55 -3.75 48.15 -4.2 47.75 -4.75 46.85 -4.75 46.3 -4.75 45.85 -4.45 45.35 -4.1 45.2 -3.65
L 45.15 -3.65 45.1 -4.65 Z"/>
</g>

<g id="IT_300x600_FR_psd_Asset_B___V7_2_Rogers_a_une__nouvelle_solution__pour_vous_aider__0_Layer0_0_MEMBER_9_FILL">
<path fill="#D82C26" stroke="none" d="
M 49.65 -2.35
Q 49.65 -1.65 49.95 -1.05 50.25 -0.5 50.8 -0.2 51.3 0.15 52.05 0.15 53.1 0.15 53.9 -0.45
L 53.8 -0.95 53.05 -0.5
Q 52.6 -0.35 52.1 -0.35 51.5 -0.35 51.1 -0.6 50.65 -0.85 50.45 -1.3 50.2 -1.7 50.2 -2.25
L 54.15 -2.25 54.15 -2.5
Q 54.15 -3.05 53.9 -3.65 53.6 -4.15 53.15 -4.45 52.65 -4.75 51.95 -4.75 51.35 -4.75 50.8 -4.45 50.25 -4.15 49.95 -3.6 49.65 -3.05 49.65 -2.35
M 50.25 -2.65
Q 50.25 -3.05 50.45 -3.4 50.7 -3.85 51.05 -4.05 51.35 -4.3 51.95 -4.3 52.7 -4.3 53.15 -3.85 53.6 -3.4 53.6 -2.65
L 50.25 -2.65 Z"/>
</g>

<g id="IT_300x600_FR_psd_Asset_B___V7_2_Rogers_a_une__nouvelle_solution__pour_vous_aider__0_Layer0_0_MEMBER_10_FILL">
<path fill="#D82C26" stroke="none" d="
M 4.45 8.5
Q 4.05 7.95 3.15 7.95 2.6 7.95 2.15 8.25 1.75 8.5 1.5 9.1
L 1.45 8.1 0.9 8.1 0.95 12.7 1.5 12.7 1.5 10.35
Q 1.5 9.9 1.7 9.3 1.95 8.85 2.25 8.65 2.6 8.45 3.05 8.45 3.8 8.45 4 8.9 4.3 9.35 4.3 10.05
L 4.3 12.7 4.9 12.7 4.9 9.9
Q 4.9 9.05 4.45 8.5 Z"/>
</g>

<g id="IT_300x600_FR_psd_Asset_B___V7_2_Rogers_a_une__nouvelle_solution__pour_vous_aider__0_Layer0_0_MEMBER_11_FILL">
<path fill="#D82C26" stroke="none" d="
M 10.9 10.4
Q 10.9 9.65 10.55 9.1 10.25 8.55 9.7 8.25 9.1 7.95 8.4 7.95 7.75 7.95 7.15 8.25 6.6 8.55 6.3 9.1 5.95 9.65 5.95 10.4 5.95 11.15 6.3 11.65 6.55 12.1 7.15 12.55 7.75 12.85 8.4 12.85 9.1 12.85 9.7 12.55 10.3 12.1 10.55 11.65 10.9 11.15 10.9 10.4
M 8.4 8.45
Q 9.1 8.45 9.4 8.7 9.75 8.9 10.1 9.4 10.3 9.8 10.3 10.4 10.3 10.95 10.1 11.35 9.9 11.8 9.4 12.1 9 12.35 8.4 12.35 7.85 12.35 7.45 12.1 6.95 11.8 6.75 11.35 6.55 10.95 6.55 10.4 6.55 9.8 6.75 9.4 7 8.95 7.45 8.7 7.75 8.45 8.4 8.45 Z"/>
</g>

<g id="IT_300x600_FR_psd_Asset_B___V7_2_Rogers_a_une__nouvelle_solution__pour_vous_aider__0_Layer0_0_MEMBER_12_FILL">
<path fill="#D82C26" stroke="none" d="
M 11.95 10.9
Q 11.95 11.65 12.35 12.3 12.8 12.85 13.65 12.85 14.2 12.85 14.65 12.55 15.1 12.25 15.35 11.7
L 15.4 12.7 16 12.7 15.9 11.65 15.9 8.1 15.35 8.1 15.35 10.4
Q 15.35 10.95 15.1 11.45 14.95 11.9 14.55 12.15 14.3 12.35 13.8 12.35 13.1 12.35 12.8 11.9 12.55 11.55 12.55 10.75
L 12.55 8.1 11.95 8.1 11.95 10.9 Z"/>
</g>

<g id="IT_300x600_FR_psd_Asset_B___V7_2_Rogers_a_une__nouvelle_solution__pour_vous_aider__0_Layer0_0_MEMBER_13_FILL">
<path fill="#D82C26" stroke="none" d="
M 16.65 8.1
L 18.45 12.7 19.1 12.7 20.85 8.1 20.25 8.1 18.8 12.15 17.3 8.1 16.65 8.1 Z"/>
</g>

<g id="IT_300x600_FR_psd_Asset_B___V7_2_Rogers_a_une__nouvelle_solution__pour_vous_aider__0_Layer0_0_MEMBER_14_FILL">
<path fill="#D82C26" stroke="none" d="
M 24.6 8.25
Q 24.15 7.95 23.45 7.95 22.8 7.95 22.25 8.25 21.8 8.5 21.45 9.1 21.15 9.7 21.15 10.35 21.15 11.15 21.45 11.65 21.7 12.1 22.3 12.55 22.85 12.85 23.5 12.85 24.6 12.85 25.35 12.25
L 25.25 11.75
Q 24.95 12.05 24.5 12.2 24.05 12.35 23.55 12.35 23 12.35 22.6 12.1 22.2 11.85 21.95 11.45 21.7 10.95 21.7 10.5
L 25.65 10.5 25.65 10.25
Q 25.65 9.65 25.4 9.05 25.1 8.55 24.6 8.25
M 23.45 8.4
Q 24.15 8.4 24.6 8.85 25 9.25 25.1 10.05
L 21.7 10.05
Q 21.7 9.7 21.95 9.3 22.1 9 22.5 8.65 23 8.4 23.45 8.4 Z"/>
</g>

<g id="IT_300x600_FR_psd_Asset_B___V7_2_Rogers_a_une__nouvelle_solution__pour_vous_aider__0_Layer0_0_MEMBER_15_FILL">
<path fill="#D82C26" stroke="none" d="
M 26.95 12.4
Q 27.2 12.75 27.5 12.8
L 27.75 12.35 27.4 12.05 27.3 11.55 27.3 5.2 26.75 5.3 26.75 11.7
Q 26.75 12.2 26.95 12.4 Z"/>
</g>

<g id="IT_300x600_FR_psd_Asset_B___V7_2_Rogers_a_une__nouvelle_solution__pour_vous_aider__0_Layer0_0_MEMBER_16_FILL">
<path fill="#D82C26" stroke="none" d="
M 29 12.4
Q 29.15 12.7 29.5 12.8
L 29.8 12.35
Q 29.55 12.2 29.45 12.05
L 29.35 11.55 29.35 5.2 28.75 5.3 28.75 11.7
Q 28.75 12.15 29 12.4 Z"/>
</g>

<g id="IT_300x600_FR_psd_Asset_B___V7_2_Rogers_a_une__nouvelle_solution__pour_vous_aider__0_Layer0_0_MEMBER_17_FILL">
<path fill="#D82C26" stroke="none" d="
M 34.7 9.05
Q 34.5 8.55 33.95 8.25 33.5 7.95 32.75 7.95 32.15 7.95 31.6 8.25 31.15 8.5 30.8 9.1 30.5 9.7 30.5 10.35 30.5 11.15 30.8 11.65 31.05 12.2 31.65 12.55 32.2 12.85 32.85 12.85 33.95 12.85 34.7 12.25
L 34.6 11.75
Q 34.3 12.05 33.85 12.2 33.4 12.35 32.9 12.35 32.35 12.35 31.95 12.1 31.6 11.9 31.3 11.45 31.05 10.95 31.05 10.5
L 34.95 10.5 35 10.25
Q 35 9.6 34.7 9.05
M 31.85 8.65
Q 32.25 8.4 32.75 8.4 33.5 8.4 33.95 8.85 34.4 9.3 34.4 10.05
L 31.05 10.05
Q 31.05 9.8 31.25 9.3 31.45 8.95 31.85 8.65 Z"/>
</g>

<g id="IT_300x600_FR_psd_Asset_B___V7_2_Rogers_a_une__nouvelle_solution__pour_vous_aider__0_Layer0_0_MEMBER_18_FILL">
<path fill="#D82C26" stroke="none" d="
M 40.6 8.85
L 40.85 8.45
Q 40.7 8.3 40.2 8.1 39.85 7.95 39.35 7.95 38.95 7.95 38.65 8.1 38.3 8.15 38.05 8.5 37.85 8.75 37.85 9.2 37.85 9.8 38.15 10 38.5 10.3 39.15 10.5 39.85 10.75 40.15 10.95 40.45 11.2 40.45 11.5 40.45 11.95 40.15 12.15 39.75 12.4 39.4 12.4 38.55 12.4 37.85 11.8
L 37.75 12.3
Q 37.95 12.5 38.45 12.7 38.9 12.85 39.4 12.85 39.85 12.85 40.2 12.7 40.55 12.5 40.75 12.2 41 11.85 41 11.5 41 11.1 40.65 10.65 40.3 10.4 39.55 10.15 38.85 9.9 38.65 9.7 38.4 9.6 38.4 9.2 38.4 8.85 38.65 8.6 38.9 8.4 39.4 8.4 39.75 8.4 40.05 8.55 40.4 8.65 40.6 8.85 Z"/>
</g>

<g id="IT_300x600_FR_psd_Asset_B___V7_2_Rogers_a_une__nouvelle_solution__pour_vous_aider__0_Layer0_0_MEMBER_19_FILL">
<path fill="#D82C26" stroke="none" d="
M 45.45 8.25
Q 44.85 7.95 44.2 7.95 43.5 7.95 42.9 8.25 42.35 8.55 42.05 9.1 41.7 9.8 41.7 10.4 41.7 11.05 42.05 11.65 42.3 12.1 42.9 12.55 43.5 12.85 44.2 12.85 44.85 12.85 45.45 12.55 46.05 12.1 46.35 11.65 46.65 11.15 46.65 10.4 46.65 9.7 46.35 9.1 45.95 8.55 45.45 8.25
M 44.2 8.45
Q 44.85 8.45 45.2 8.7 45.65 8.95 45.85 9.4 46.05 9.8 46.05 10.4 46.05 10.95 45.85 11.35 45.65 11.75 45.2 12.1 44.7 12.35 44.2 12.35 43.7 12.35 43.2 12.1 42.8 11.85 42.55 11.35 42.3 10.85 42.3 10.4 42.3 9.9 42.55 9.4 42.8 8.9 43.2 8.7 43.6 8.45 44.2 8.45 Z"/>
</g>

<g id="IT_300x600_FR_psd_Asset_B___V7_2_Rogers_a_une__nouvelle_solution__pour_vous_aider__0_Layer0_0_MEMBER_20_FILL">
<path fill="#D82C26" stroke="none" d="
M 47.95 12.4
Q 48.2 12.7 48.5 12.8
L 48.8 12.35
Q 48.55 12.2 48.45 12.05
L 48.35 11.55 48.35 5.2 47.75 5.3 47.75 11.7
Q 47.75 12.1 47.95 12.4 Z"/>
</g>

<g id="IT_300x600_FR_psd_Asset_B___V7_2_Rogers_a_une__nouvelle_solution__pour_vous_aider__0_Layer0_0_MEMBER_21_FILL">
<path fill="#D82C26" stroke="none" d="
M 53.7 12.2
L 53.7 8.1 53.1 8.1 53.1 10.4
Q 53.1 11.05 52.9 11.45 52.75 11.9 52.35 12.15 52.1 12.35 51.6 12.35 50.9 12.35 50.6 11.9 50.3 11.45 50.3 10.75
L 50.3 8.1 49.75 8.1 49.75 10.9
Q 49.75 11.75 50.15 12.3 50.55 12.85 51.45 12.85 52 12.85 52.45 12.55 52.95 12.2 53.1 11.7
L 53.2 12.7 53.8 12.7 53.7 12.2 Z"/>
</g>

<g id="IT_300x600_FR_psd_Asset_B___V7_2_Rogers_a_une__nouvelle_solution__pour_vous_aider__0_Layer0_0_MEMBER_22_FILL">
<path fill="#D82C26" stroke="none" d="
M 55.35 8.55
L 55.35 11.6
Q 55.35 12.2 55.65 12.5 55.95 12.8 56.45 12.8
L 56.95 12.75 57.4 12.55 57.35 12.15
Q 56.75 12.35 56.6 12.35 56.4 12.35 56.1 12.15 55.95 11.95 55.95 11.5
L 55.95 8.55 57.15 8.55 57.25 8.1 55.95 8.1 55.95 6.75 55.35 7 55.35 8.1 54.6 8.1 54.5 8.55 55.35 8.55 Z"/>
</g>

<g id="IT_300x600_FR_psd_Asset_B___V7_2_Rogers_a_une__nouvelle_solution__pour_vous_aider__0_Layer0_0_MEMBER_23_FILL">
<path fill="#D82C26" stroke="none" d="
M 58.8 8.1
L 58.2 8.1 58.2 12.7 58.8 12.7 58.8 8.1
M 58.8 5.95
L 58.5 5.8
Q 58.3 5.8 58.2 5.95 58.05 6.05 58.05 6.2 58.05 6.4 58.2 6.55 58.3 6.65 58.5 6.65
L 58.8 6.55 58.9 6.2 58.8 5.95 Z"/>
</g>

<g id="IT_300x600_FR_psd_Asset_B___V7_2_Rogers_a_une__nouvelle_solution__pour_vous_aider__0_Layer0_0_MEMBER_24_FILL">
<path fill="#D82C26" stroke="none" d="
M 64.5 9.1
Q 64.1 8.55 63.6 8.25 63 7.95 62.35 7.95 61.65 7.95 61.05 8.25 60.5 8.55 60.2 9.1 59.85 9.8 59.85 10.4 59.85 11.05 60.2 11.65 60.45 12.1 61.05 12.55 61.65 12.85 62.35 12.85 63 12.85 63.6 12.55 64.2 12.1 64.5 11.65 64.8 11.15 64.8 10.4 64.8 9.7 64.5 9.1
M 61.35 8.7
Q 61.75 8.45 62.35 8.45 63 8.45 63.35 8.7 63.8 8.95 64 9.4 64.2 9.8 64.2 10.4 64.2 10.95 64 11.35 63.8 11.75 63.35 12.1 62.85 12.35 62.35 12.35 61.85 12.35 61.35 12.1 60.95 11.85 60.7 11.35 60.45 10.85 60.45 10.4 60.45 9.9 60.7 9.4 60.95 8.9 61.35 8.7 Z"/>
</g>

<g id="IT_300x600_FR_psd_Asset_B___V7_2_Rogers_a_une__nouvelle_solution__pour_vous_aider__0_Layer0_0_MEMBER_25_FILL">
<path fill="#D82C26" stroke="none" d="
M 66.4 8.1
L 65.9 8.1 65.9 12.7 66.5 12.7 66.5 10.35
Q 66.5 9.7 66.7 9.3 67 8.8 67.25 8.65 67.6 8.45 68.05 8.45 68.7 8.45 69 8.9 69.3 9.35 69.3 10.05
L 69.3 12.7 69.9 12.7 69.9 9.9
Q 69.9 9.05 69.45 8.5 69.05 7.95 68.15 7.95 67.6 7.95 67.15 8.25 66.65 8.6 66.5 9.1
L 66.45 9.1 66.4 8.1 Z"/>
</g>

<g id="IT_300x600_FR_psd_Asset_B___V7_2_Rogers_a_une__nouvelle_solution__pour_vous_aider__0_Layer0_0_MEMBER_26_FILL">
<path fill="#D82C26" stroke="none" d="
M 4.6 20.95
Q 4.1 20.65 3.4 20.65 2.75 20.65 2.3 20.95 1.85 21.2 1.5 21.8
L 1.45 20.8 0.9 20.8 0.9 27.8 1.5 27.8 1.5 24.45
Q 1.8 24.95 2.3 25.25 2.85 25.55 3.4 25.55 4.1 25.55 4.6 25.25 5.2 24.85 5.4 24.35 5.7 23.75 5.7 23.1 5.7 22.45 5.4 21.85 5.2 21.4 4.6 20.95
M 3.3 21.15
Q 3.85 21.15 4.25 21.4 4.7 21.7 4.9 22.1 5.1 22.5 5.1 23.1 5.1 23.7 4.9 24.1 4.65 24.6 4.25 24.8 3.95 25.05 3.3 25.05 2.85 25.05 2.35 24.8 1.85 24.4 1.7 24.1 1.45 23.6 1.45 23.1 1.45 22.6 1.7 22.1 1.85 21.8 2.35 21.4 2.85 21.15 3.3 21.15 Z"/>
</g>

<g id="IT_300x600_FR_psd_Asset_B___V7_2_Rogers_a_une__nouvelle_solution__pour_vous_aider__0_Layer0_0_MEMBER_27_FILL">
<path fill="#D82C26" stroke="none" d="
M 9 20.65
Q 8.3 20.65 7.7 20.95 7.15 21.25 6.85 21.85 6.5 22.45 6.5 23.1 6.5 23.75 6.85 24.35 7.15 24.95 7.7 25.25 8.3 25.55 9 25.55 9.65 25.55 10.25 25.25 10.75 25 11.15 24.35 11.45 23.85 11.45 23.1 11.45 22.4 11.15 21.85 10.75 21.2 10.25 20.95 9.65 20.65 9 20.65
M 9 21.15
Q 9.5 21.15 10 21.4 10.45 21.65 10.65 22.1 10.85 22.5 10.85 23.1 10.85 23.7 10.65 24.1 10.5 24.4 10 24.8 9.5 25.05 9 25.05 8.5 25.05 8 24.8 7.55 24.5 7.35 24.1 7.1 23.6 7.1 23.1 7.1 22.6 7.35 22.1 7.6 21.6 8 21.4 8.5 21.15 9 21.15 Z"/>
</g>

<g id="IT_300x600_FR_psd_Asset_B___V7_2_Rogers_a_une__nouvelle_solution__pour_vous_aider__0_Layer0_0_MEMBER_28_FILL">
<path fill="#D82C26" stroke="none" d="
M 12.5 20.8
L 12.5 23.6
Q 12.5 24.35 12.9 25 13.35 25.55 14.2 25.55 14.75 25.55 15.2 25.25 15.65 25 15.9 24.4
L 16 25.45 16.55 25.4 16.45 24.35 16.45 20.8 15.9 20.8 15.9 23.1
Q 15.9 23.55 15.7 24.15 15.45 24.6 15.15 24.85 14.8 25.05 14.35 25.05 13.65 25.05 13.4 24.6 13.1 24.15 13.1 23.45
L 13.1 20.8 12.5 20.8 Z"/>
</g>

<g id="IT_300x600_FR_psd_Asset_B___V7_2_Rogers_a_une__nouvelle_solution__pour_vous_aider__0_Layer0_0_MEMBER_29_FILL">
<path fill="#D82C26" stroke="none" d="
M 19.85 20.65
Q 19.45 20.65 19.05 20.95 18.65 21.25 18.5 21.8
L 18.45 21.8 18.4 20.8 17.85 20.8 17.9 25.4 18.5 25.4 18.5 23.1
Q 18.5 22.25 18.85 21.75 19.25 21.15 19.8 21.15
L 20.2 21.25 20.35 20.75 19.85 20.65 Z"/>
</g>

<g id="IT_300x600_FR_psd_Asset_B___V7_2_Rogers_a_une__nouvelle_solution__pour_vous_aider__0_Layer0_0_MEMBER_30_FILL">
<path fill="#D82C26" stroke="none" d="
M 22.15 20.8
L 23.9 25.4 24.55 25.4 26.3 20.8 25.7 20.8 24.25 24.85 22.75 20.8 22.15 20.8 Z"/>
</g>

<g id="IT_300x600_FR_psd_Asset_B___V7_2_Rogers_a_une__nouvelle_solution__pour_vous_aider__0_Layer0_0_MEMBER_31_FILL">
<path fill="#D82C26" stroke="none" d="
M 30.3 20.95
Q 29.8 20.65 29.05 20.65 28.35 20.65 27.8 20.95 27.2 21.25 26.9 21.85 26.6 22.4 26.6 23.1 26.6 23.85 26.9 24.35 27.2 24.95 27.8 25.25 28.35 25.55 29.05 25.55 29.8 25.55 30.3 25.25 30.9 24.95 31.2 24.35 31.5 23.85 31.5 23.1 31.5 22.4 31.2 21.85 30.9 21.25 30.3 20.95
M 29.05 21.15
Q 29.55 21.15 30.05 21.4 30.45 21.6 30.7 22.1 30.95 22.6 30.95 23.1 30.95 23.6 30.7 24.1 30.5 24.5 30.05 24.8 29.55 25.05 29.05 25.05 28.55 25.05 28.05 24.8 27.6 24.5 27.4 24.1 27.15 23.6 27.15 23.1 27.15 22.6 27.4 22.1 27.65 21.6 28.05 21.4 28.55 21.15 29.05 21.15 Z"/>
</g>

<g id="IT_300x600_FR_psd_Asset_B___V7_2_Rogers_a_une__nouvelle_solution__pour_vous_aider__0_Layer0_0_MEMBER_32_FILL">
<path fill="#D82C26" stroke="none" d="
M 32.6 20.8
L 32.6 23.6
Q 32.6 24.45 33 25 33.4 25.55 34.25 25.55 34.85 25.55 35.3 25.25 35.8 24.9 35.95 24.4
L 36.05 25.45 36.6 25.4 36.55 24.9 36.55 20.8 35.95 20.8 35.95 23.1
Q 35.95 23.75 35.75 24.15 35.5 24.7 35.2 24.85 34.85 25.05 34.4 25.05 33.75 25.05 33.45 24.6 33.15 24.15 33.15 23.45
L 33.15 20.8 32.6 20.8 Z"/>
</g>

<g id="IT_300x600_FR_psd_Asset_B___V7_2_Rogers_a_une__nouvelle_solution__pour_vous_aider__0_Layer0_0_MEMBER_33_FILL">
<path fill="#D82C26" stroke="none" d="
M 40.85 24.2
Q 40.85 23.75 40.5 23.4 40.05 23.05 39.4 22.85
L 38.5 22.45
Q 38.25 22.2 38.25 21.9 38.25 21.55 38.55 21.3 38.75 21.1 39.25 21.1 39.6 21.1 39.9 21.25 40.05 21.3 40.45 21.55
L 40.7 21.15
Q 40.55 21 40.05 20.8 39.7 20.65 39.25 20.65 38.9 20.65 38.5 20.8 38.15 20.95 37.9 21.2 37.7 21.45 37.7 21.9 37.7 22.5 38 22.7 38.5 23.1 39 23.2 39.7 23.45 40 23.65 40.3 23.9 40.3 24.2 40.3 24.65 40 24.85 39.65 25.1 39.25 25.1 38.4 25.1 37.7 24.55
L 37.6 25.05 38.3 25.4
Q 38.75 25.55 39.25 25.55 39.7 25.55 40.05 25.4 40.35 25.3 40.6 24.95 40.85 24.6 40.85 24.2 Z"/>
</g>

<g id="IT_300x600_FR_psd_Asset_B___V7_2_Rogers_a_une__nouvelle_solution__pour_vous_aider__0_Layer0_0_MEMBER_34_FILL">
<path fill="#D82C26" stroke="none" d="
M 44.7 21.3
Q 45.05 21.1 45.5 21.1 46.1 21.1 46.45 21.45 46.8 21.75 46.8 22.35
L 46.8 22.65 46.25 22.65
Q 43.6 22.65 43.6 24.15 43.6 24.8 44 25.2 44.4 25.55 45.05 25.55 45.6 25.55 46.1 25.3 46.6 24.95 46.8 24.5
L 46.9 25.4 47.4 25.4 47.35 22.4
Q 47.35 21.55 46.85 21.1 46.4 20.65 45.55 20.65 45.1 20.65 44.65 20.8 44.15 20.95 43.85 21.25
L 44 21.7
Q 44.2 21.5 44.7 21.3
M 46.8 23.5
Q 46.8 23.9 46.6 24.25 46.45 24.6 46.05 24.85 45.8 25.1 45.2 25.1 44.7 25.1 44.45 24.9 44.15 24.6 44.15 24.15 44.15 23.05 46.3 23.05
L 46.8 23.05 46.8 23.5 Z"/>
</g>

<g id="IT_300x600_FR_psd_Asset_B___V7_2_Rogers_a_une__nouvelle_solution__pour_vous_aider__0_Layer0_0_MEMBER_35_FILL">
<path fill="#D82C26" stroke="none" d="
M 49 19.35
L 49.3 19.25
Q 49.4 19.15 49.4 18.95 49.4 18.7 49.3 18.65
L 49 18.5 48.7 18.65 48.6 18.95 48.7 19.25 49 19.35
M 49.3 20.8
L 48.7 20.8 48.7 25.4 49.3 25.4 49.3 20.8 Z"/>
</g>

<g id="IT_300x600_FR_psd_Asset_B___V7_2_Rogers_a_une__nouvelle_solution__pour_vous_aider__0_Layer0_0_MEMBER_36_FILL">
<path fill="#D82C26" stroke="none" d="
M 55.2 17.85
L 54.65 17.95 54.65 21.8 54.6 21.8
Q 54.4 21.3 53.85 20.95 53.35 20.65 52.75 20.65 52.1 20.65 51.5 20.95 51 21.3 50.7 21.85 50.4 22.45 50.4 23.1 50.4 23.75 50.7 24.35 51 24.9 51.5 25.25 52.1 25.55 52.75 25.55 53.35 25.55 53.85 25.25 54.35 24.9 54.65 24.4
L 54.7 25.4 55.25 25.4 55.2 17.85
M 51.85 21.4
Q 52.25 21.15 52.8 21.15 53.35 21.15 53.75 21.4 54.2 21.7 54.4 22.1 54.65 22.6 54.65 23.1 54.65 23.6 54.4 24.1 54.2 24.5 53.75 24.8 53.35 25.05 52.8 25.05 52.15 25.05 51.85 24.8 51.4 24.55 51.2 24.1 51 23.7 51 23.1 51 22.5 51.2 22.1 51.35 21.8 51.85 21.4 Z"/>
</g>

<g id="IT_300x600_FR_psd_Asset_B___V7_2_Rogers_a_une__nouvelle_solution__pour_vous_aider__0_Layer0_0_MEMBER_37_FILL">
<path fill="#D82C26" stroke="none" d="
M 60.8 23.2
L 60.8 22.95
Q 60.8 22.25 60.55 21.8 60.3 21.25 59.8 20.95 59.35 20.65 58.6 20.65 58 20.65 57.45 20.95 57.05 21.2 56.6 21.8 56.3 22.4 56.3 23.1 56.3 23.75 56.65 24.35 56.95 25 57.5 25.25 58.05 25.55 58.7 25.55 59.8 25.55 60.55 24.95
L 60.45 24.5
Q 60.1 24.75 59.7 24.9 59.1 25.1 58.75 25.1 58.2 25.1 57.8 24.85 57.4 24.6 57.15 24.15 56.9 23.65 56.9 23.2
L 60.8 23.2
M 58.6 21.1
Q 59.35 21.1 59.8 21.55 60.25 22 60.25 22.75
L 56.9 22.75
Q 56.9 22.5 57.1 22 57.3 21.65 57.7 21.35 58.1 21.1 58.6 21.1 Z"/>
</g>

<g id="IT_300x600_FR_psd_Asset_B___V7_2_Rogers_a_une__nouvelle_solution__pour_vous_aider__0_Layer0_0_MEMBER_38_FILL">
<path fill="#D82C26" stroke="none" d="
M 64.35 20.75
L 63.85 20.65
Q 63.45 20.65 63.05 20.95 62.65 21.25 62.5 21.8
L 62.45 21.8 62.4 20.8 61.85 20.8 61.9 25.4 62.5 25.4 62.5 23.1
Q 62.5 22.25 62.85 21.75 63.25 21.15 63.8 21.15
L 64.2 21.25 64.35 20.75 Z"/>
</g>

<g id="IT_300x600_FR_psd_Asset_B___V7_2_Rogers_a_une__nouvelle_solution__pour_vous_aider__0_Layer0_0_MEMBER_39_FILL">
<path fill="#D82C26" stroke="none" d="
M 64.45 25.35
Q 64.55 25.5 64.75 25.5
L 65.05 25.35 65.2 25.05
Q 65.2 24.85 65.05 24.7
L 64.75 24.6 64.45 24.7
Q 64.3 24.85 64.3 25.05
L 64.45 25.35 Z"/>
</g>
</defs>

<g transform="matrix( 1, 0, 0, 1, -102,39) ">
<g transform="matrix( 1, 0, 0, 1, 97,0) ">
<g transform="matrix( 1, 0, 0, 1, 35,6) ">
<g transform="matrix( 2.815704345703125, 0, 0, 2.832611083984375, -1.85,19.6) ">
<use xlink:href="#IT_300x600_FR_psd_Asset_B___V7_2_Rogers_a_une__nouvelle_solution__pour_vous_aider__0_Layer0_0_MEMBER_0_FILL"/>
</g>

<g transform="matrix( 2.815704345703125, 0, 0, 2.832611083984375, -1.85,19.6) ">
<use xlink:href="#IT_300x600_FR_psd_Asset_B___V7_2_Rogers_a_une__nouvelle_solution__pour_vous_aider__0_Layer0_0_MEMBER_1_FILL"/>
</g>

<g transform="matrix( 2.815704345703125, 0, 0, 2.832611083984375, -1.85,19.6) ">
<use xlink:href="#IT_300x600_FR_psd_Asset_B___V7_2_Rogers_a_une__nouvelle_solution__pour_vous_aider__0_Layer0_0_MEMBER_2_FILL"/>
</g>

<g transform="matrix( 2.815704345703125, 0, 0, 2.832611083984375, -1.85,19.6) ">
<use xlink:href="#IT_300x600_FR_psd_Asset_B___V7_2_Rogers_a_une__nouvelle_solution__pour_vous_aider__0_Layer0_0_MEMBER_3_FILL"/>
</g>

<g transform="matrix( 2.815704345703125, 0, 0, 2.832611083984375, -1.85,19.6) ">
<use xlink:href="#IT_300x600_FR_psd_Asset_B___V7_2_Rogers_a_une__nouvelle_solution__pour_vous_aider__0_Layer0_0_MEMBER_4_FILL"/>
</g>

<g transform="matrix( 2.815704345703125, 0, 0, 2.832611083984375, -1.85,19.6) ">
<use xlink:href="#IT_300x600_FR_psd_Asset_B___V7_2_Rogers_a_une__nouvelle_solution__pour_vous_aider__0_Layer0_0_MEMBER_5_FILL"/>
</g>

<g transform="matrix( 2.815704345703125, 0, 0, 2.832611083984375, -1.85,19.6) ">
<use xlink:href="#IT_300x600_FR_psd_Asset_B___V7_2_Rogers_a_une__nouvelle_solution__pour_vous_aider__0_Layer0_0_MEMBER_6_FILL"/>
</g>

<g transform="matrix( 2.815704345703125, 0, 0, 2.832611083984375, -1.85,19.6) ">
<use xlink:href="#IT_300x600_FR_psd_Asset_B___V7_2_Rogers_a_une__nouvelle_solution__pour_vous_aider__0_Layer0_0_MEMBER_7_FILL"/>
</g>

<g transform="matrix( 2.815704345703125, 0, 0, 2.832611083984375, -1.85,19.6) ">
<use xlink:href="#IT_300x600_FR_psd_Asset_B___V7_2_Rogers_a_une__nouvelle_solution__pour_vous_aider__0_Layer0_0_MEMBER_8_FILL"/>
</g>

<g transform="matrix( 2.815704345703125, 0, 0, 2.832611083984375, -1.85,19.6) ">
<use xlink:href="#IT_300x600_FR_psd_Asset_B___V7_2_Rogers_a_une__nouvelle_solution__pour_vous_aider__0_Layer0_0_MEMBER_9_FILL"/>
</g>

<g transform="matrix( 2.815704345703125, 0, 0, 2.832611083984375, -1.85,19.6) ">
<use xlink:href="#IT_300x600_FR_psd_Asset_B___V7_2_Rogers_a_une__nouvelle_solution__pour_vous_aider__0_Layer0_0_MEMBER_10_FILL"/>
</g>

<g transform="matrix( 2.815704345703125, 0, 0, 2.832611083984375, -1.85,19.6) ">
<use xlink:href="#IT_300x600_FR_psd_Asset_B___V7_2_Rogers_a_une__nouvelle_solution__pour_vous_aider__0_Layer0_0_MEMBER_11_FILL"/>
</g>

<g transform="matrix( 2.815704345703125, 0, 0, 2.832611083984375, -1.85,19.6) ">
<use xlink:href="#IT_300x600_FR_psd_Asset_B___V7_2_Rogers_a_une__nouvelle_solution__pour_vous_aider__0_Layer0_0_MEMBER_12_FILL"/>
</g>

<g transform="matrix( 2.815704345703125, 0, 0, 2.832611083984375, -1.85,19.6) ">
<use xlink:href="#IT_300x600_FR_psd_Asset_B___V7_2_Rogers_a_une__nouvelle_solution__pour_vous_aider__0_Layer0_0_MEMBER_13_FILL"/>
</g>

<g transform="matrix( 2.815704345703125, 0, 0, 2.832611083984375, -1.85,19.6) ">
<use xlink:href="#IT_300x600_FR_psd_Asset_B___V7_2_Rogers_a_une__nouvelle_solution__pour_vous_aider__0_Layer0_0_MEMBER_14_FILL"/>
</g>

<g transform="matrix( 2.815704345703125, 0, 0, 2.832611083984375, -1.85,19.6) ">
<use xlink:href="#IT_300x600_FR_psd_Asset_B___V7_2_Rogers_a_une__nouvelle_solution__pour_vous_aider__0_Layer0_0_MEMBER_15_FILL"/>
</g>

<g transform="matrix( 2.815704345703125, 0, 0, 2.832611083984375, -1.85,19.6) ">
<use xlink:href="#IT_300x600_FR_psd_Asset_B___V7_2_Rogers_a_une__nouvelle_solution__pour_vous_aider__0_Layer0_0_MEMBER_16_FILL"/>
</g>

<g transform="matrix( 2.815704345703125, 0, 0, 2.832611083984375, -1.85,19.6) ">
<use xlink:href="#IT_300x600_FR_psd_Asset_B___V7_2_Rogers_a_une__nouvelle_solution__pour_vous_aider__0_Layer0_0_MEMBER_17_FILL"/>
</g>

<g transform="matrix( 2.815704345703125, 0, 0, 2.832611083984375, -1.85,19.6) ">
<use xlink:href="#IT_300x600_FR_psd_Asset_B___V7_2_Rogers_a_une__nouvelle_solution__pour_vous_aider__0_Layer0_0_MEMBER_18_FILL"/>
</g>

<g transform="matrix( 2.815704345703125, 0, 0, 2.832611083984375, -1.85,19.6) ">
<use xlink:href="#IT_300x600_FR_psd_Asset_B___V7_2_Rogers_a_une__nouvelle_solution__pour_vous_aider__0_Layer0_0_MEMBER_19_FILL"/>
</g>

<g transform="matrix( 2.815704345703125, 0, 0, 2.832611083984375, -1.85,19.6) ">
<use xlink:href="#IT_300x600_FR_psd_Asset_B___V7_2_Rogers_a_une__nouvelle_solution__pour_vous_aider__0_Layer0_0_MEMBER_20_FILL"/>
</g>

<g transform="matrix( 2.815704345703125, 0, 0, 2.832611083984375, -1.85,19.6) ">
<use xlink:href="#IT_300x600_FR_psd_Asset_B___V7_2_Rogers_a_une__nouvelle_solution__pour_vous_aider__0_Layer0_0_MEMBER_21_FILL"/>
</g>

<g transform="matrix( 2.815704345703125, 0, 0, 2.832611083984375, -1.85,19.6) ">
<use xlink:href="#IT_300x600_FR_psd_Asset_B___V7_2_Rogers_a_une__nouvelle_solution__pour_vous_aider__0_Layer0_0_MEMBER_22_FILL"/>
</g>

<g transform="matrix( 2.815704345703125, 0, 0, 2.832611083984375, -1.85,19.6) ">
<use xlink:href="#IT_300x600_FR_psd_Asset_B___V7_2_Rogers_a_une__nouvelle_solution__pour_vous_aider__0_Layer0_0_MEMBER_23_FILL"/>
</g>

<g transform="matrix( 2.815704345703125, 0, 0, 2.832611083984375, -1.85,19.6) ">
<use xlink:href="#IT_300x600_FR_psd_Asset_B___V7_2_Rogers_a_une__nouvelle_solution__pour_vous_aider__0_Layer0_0_MEMBER_24_FILL"/>
</g>

<g transform="matrix( 2.815704345703125, 0, 0, 2.832611083984375, -1.85,19.6) ">
<use xlink:href="#IT_300x600_FR_psd_Asset_B___V7_2_Rogers_a_une__nouvelle_solution__pour_vous_aider__0_Layer0_0_MEMBER_25_FILL"/>
</g>

<g transform="matrix( 2.815704345703125, 0, 0, 2.832611083984375, -1.85,19.6) ">
<use xlink:href="#IT_300x600_FR_psd_Asset_B___V7_2_Rogers_a_une__nouvelle_solution__pour_vous_aider__0_Layer0_0_MEMBER_26_FILL"/>
</g>

<g transform="matrix( 2.815704345703125, 0, 0, 2.832611083984375, -1.85,19.6) ">
<use xlink:href="#IT_300x600_FR_psd_Asset_B___V7_2_Rogers_a_une__nouvelle_solution__pour_vous_aider__0_Layer0_0_MEMBER_27_FILL"/>
</g>

<g transform="matrix( 2.815704345703125, 0, 0, 2.832611083984375, -1.85,19.6) ">
<use xlink:href="#IT_300x600_FR_psd_Asset_B___V7_2_Rogers_a_une__nouvelle_solution__pour_vous_aider__0_Layer0_0_MEMBER_28_FILL"/>
</g>

<g transform="matrix( 2.815704345703125, 0, 0, 2.832611083984375, -1.85,19.6) ">
<use xlink:href="#IT_300x600_FR_psd_Asset_B___V7_2_Rogers_a_une__nouvelle_solution__pour_vous_aider__0_Layer0_0_MEMBER_29_FILL"/>
</g>

<g transform="matrix( 2.815704345703125, 0, 0, 2.832611083984375, -1.85,19.6) ">
<use xlink:href="#IT_300x600_FR_psd_Asset_B___V7_2_Rogers_a_une__nouvelle_solution__pour_vous_aider__0_Layer0_0_MEMBER_30_FILL"/>
</g>

<g transform="matrix( 2.815704345703125, 0, 0, 2.832611083984375, -1.85,19.6) ">
<use xlink:href="#IT_300x600_FR_psd_Asset_B___V7_2_Rogers_a_une__nouvelle_solution__pour_vous_aider__0_Layer0_0_MEMBER_31_FILL"/>
</g>

<g transform="matrix( 2.815704345703125, 0, 0, 2.832611083984375, -1.85,19.6) ">
<use xlink:href="#IT_300x600_FR_psd_Asset_B___V7_2_Rogers_a_une__nouvelle_solution__pour_vous_aider__0_Layer0_0_MEMBER_32_FILL"/>
</g>

<g transform="matrix( 2.815704345703125, 0, 0, 2.832611083984375, -1.85,19.6) ">
<use xlink:href="#IT_300x600_FR_psd_Asset_B___V7_2_Rogers_a_une__nouvelle_solution__pour_vous_aider__0_Layer0_0_MEMBER_33_FILL"/>
</g>

<g transform="matrix( 2.815704345703125, 0, 0, 2.832611083984375, -1.85,19.6) ">
<use xlink:href="#IT_300x600_FR_psd_Asset_B___V7_2_Rogers_a_une__nouvelle_solution__pour_vous_aider__0_Layer0_0_MEMBER_34_FILL"/>
</g>

<g transform="matrix( 2.815704345703125, 0, 0, 2.832611083984375, -1.85,19.6) ">
<use xlink:href="#IT_300x600_FR_psd_Asset_B___V7_2_Rogers_a_une__nouvelle_solution__pour_vous_aider__0_Layer0_0_MEMBER_35_FILL"/>
</g>

<g transform="matrix( 2.815704345703125, 0, 0, 2.832611083984375, -1.85,19.6) ">
<use xlink:href="#IT_300x600_FR_psd_Asset_B___V7_2_Rogers_a_une__nouvelle_solution__pour_vous_aider__0_Layer0_0_MEMBER_36_FILL"/>
</g>

<g transform="matrix( 2.815704345703125, 0, 0, 2.832611083984375, -1.85,19.6) ">
<use xlink:href="#IT_300x600_FR_psd_Asset_B___V7_2_Rogers_a_une__nouvelle_solution__pour_vous_aider__0_Layer0_0_MEMBER_37_FILL"/>
</g>

<g transform="matrix( 2.815704345703125, 0, 0, 2.832611083984375, -1.85,19.6) ">
<use xlink:href="#IT_300x600_FR_psd_Asset_B___V7_2_Rogers_a_une__nouvelle_solution__pour_vous_aider__0_Layer0_0_MEMBER_38_FILL"/>
</g>

<g transform="matrix( 2.815704345703125, 0, 0, 2.832611083984375, -1.85,19.6) ">
<use xlink:href="#IT_300x600_FR_psd_Asset_B___V7_2_Rogers_a_une__nouvelle_solution__pour_vous_aider__0_Layer0_0_MEMBER_39_FILL"/>
</g>
</g>
</g>
</g>
</svg>
