
<svg xmlns="http://www.w3.org/2000/svg" version="1.1" xmlns:xlink="http://www.w3.org/1999/xlink" preserveAspectRatio="none" x="0px" y="0px" width="300px" height="600px" viewBox="0 0 300 600">
<defs>
<g id="IT_300x600_FR_psd_Asset_V6_2_Les_administrateurs_des__TI_prennent_en_charge__plus_d_appareil_0_Layer0_0_MEMBER_0_FILL">
<path fill="#D82C26" stroke="none" d="
M 1.4 -6.25
L 0.85 -6.25 0.85 0 4.1 0 4.2 -0.5 1.4 -0.5 1.4 -6.25 Z"/>
</g>

<g id="IT_300x600_FR_psd_Asset_V6_2_Les_administrateurs_des__TI_prennent_en_charge__plus_d_appareil_0_Layer0_0_MEMBER_1_FILL">
<path fill="#D82C26" stroke="none" d="
M 4.65 -2.1
Q 4.65 -1.55 4.9 -0.95 5.2 -0.45 5.7 -0.15 6.1 0.1 6.75 0.1 7.75 0.1 8.4 -0.4
L 8.35 -0.85
Q 7.95 -0.55 7.65 -0.45 7.3 -0.3 6.8 -0.3 6.35 -0.3 5.95 -0.55 5.6 -0.75 5.35 -1.15 5.15 -1.65 5.15 -2
L 8.65 -2 8.65 -2.2
Q 8.65 -2.85 8.45 -3.25 8.25 -3.65 7.75 -4 7.25 -4.25 6.7 -4.25 6.15 -4.25 5.65 -4 5.2 -3.7 4.9 -3.2 4.65 -2.7 4.65 -2.1
M 5.9 -3.6
Q 6.15 -3.85 6.7 -3.85 7.35 -3.85 7.75 -3.45 8.15 -3.05 8.15 -2.35
L 5.15 -2.35
Q 5.15 -2.55 5.35 -3.05 5.65 -3.45 5.9 -3.6 Z"/>
</g>

<g id="IT_300x600_FR_psd_Asset_V6_2_Les_administrateurs_des__TI_prennent_en_charge__plus_d_appareil_0_Layer0_0_MEMBER_2_FILL">
<path fill="#D82C26" stroke="none" d="
M 9.45 -0.8
L 9.35 -0.35 10 0 10.85 0.1 11.55 0
Q 11.8 -0.15 12.05 -0.45 12.25 -0.65 12.25 -1.1 12.25 -1.55 11.95 -1.8 11.7 -2.05 11 -2.3
L 10.15 -2.65
Q 9.95 -2.85 9.95 -3.15 9.95 -3.5 10.2 -3.65 10.4 -3.85 10.85 -3.85
L 11.4 -3.75 11.9 -3.45 12.15 -3.8 11.55 -4.15 10.8 -4.25 10.15 -4.15 9.65 -3.75
Q 9.45 -3.5 9.45 -3.1 9.45 -2.6 9.75 -2.4 10.1 -2.15 10.6 -1.95 11.15 -1.8 11.5 -1.55 11.75 -1.4 11.75 -1.05 11.75 -0.75 11.5 -0.5 11.25 -0.3 10.85 -0.3 10 -0.3 9.45 -0.8 Z"/>
</g>

<g id="IT_300x600_FR_psd_Asset_V6_2_Les_administrateurs_des__TI_prennent_en_charge__plus_d_appareil_0_Layer0_0_MEMBER_3_FILL">
<path fill="#D82C26" stroke="none" d="
M 14.7 -1.1
Q 14.7 -0.5 15.1 -0.2 15.5 0.1 16 0.1 16.55 0.1 16.95 -0.1 17.4 -0.3 17.55 -0.8
L 17.6 -0.8 17.6 -0.4 17.65 0 18.15 0 18.05 -0.9 18.05 -2.7
Q 18.05 -3.45 17.65 -3.85 17.25 -4.25 16.45 -4.25
L 15.65 -4.15
Q 15.35 -4.05 14.95 -3.75
L 15.1 -3.35
Q 15.3 -3.55 15.7 -3.7
L 16.4 -3.85
Q 16.95 -3.85 17.25 -3.55 17.55 -3.25 17.55 -2.7
L 17.55 -2.5 17.05 -2.5
Q 14.7 -2.5 14.7 -1.1
M 17.55 -2.15
L 17.55 -1.7
Q 17.55 -1.35 17.4 -1.05 17.25 -0.7 16.9 -0.5 16.55 -0.25 16.15 -0.25 15.8 -0.25 15.45 -0.5 15.2 -0.65 15.2 -1.15 15.2 -2.15 17.15 -2.15
L 17.55 -2.15 Z"/>
</g>

<g id="IT_300x600_FR_psd_Asset_V6_2_Les_administrateurs_des__TI_prennent_en_charge__plus_d_appareil_0_Layer0_0_MEMBER_4_FILL">
<path fill="#D82C26" stroke="none" d="
M 19.3 -0.95
Q 19.65 -0.4 20.05 -0.15 20.55 0.1 21.15 0.1 21.75 0.1 22.1 -0.15 22.6 -0.45 22.8 -0.9
L 22.85 -0.9 22.9 0 23.4 0 23.35 -6.8 22.8 -6.65 22.8 -3.25
Q 22.6 -3.65 22.1 -4 21.6 -4.25 21.15 -4.25 20.5 -4.25 20.05 -3.95 19.7 -3.75 19.3 -3.2 19.05 -2.6 19.05 -2.05 19.05 -1.55 19.3 -0.95
M 19.55 -2.05
Q 19.55 -2.45 19.75 -2.95 19.95 -3.3 20.35 -3.6 20.7 -3.8 21.2 -3.8 21.7 -3.8 22.05 -3.6 22.45 -3.3 22.65 -2.95 22.85 -2.45 22.85 -2.05 22.85 -1.7 22.65 -1.2 22.4 -0.75 22.05 -0.55 21.65 -0.3 21.2 -0.3 20.75 -0.3 20.35 -0.55 19.95 -0.8 19.75 -1.2 19.55 -1.7 19.55 -2.05 Z"/>
</g>

<g id="IT_300x600_FR_psd_Asset_V6_2_Les_administrateurs_des__TI_prennent_en_charge__plus_d_appareil_0_Layer0_0_MEMBER_5_FILL">
<path fill="#D82C26" stroke="none" d="
M 25.1 -4.15
L 24.6 -4.15 24.65 0 25.2 0 25.2 -2.05
Q 25.2 -2.6 25.35 -3 25.55 -3.45 25.8 -3.6 26.05 -3.8 26.5 -3.8 27.05 -3.8 27.25 -3.45 27.5 -3.2 27.5 -2.45
L 27.5 0 28.05 0 28.05 -2.15
Q 28.05 -2.95 28.4 -3.35 28.8 -3.8 29.35 -3.8 29.95 -3.8 30.2 -3.4 30.45 -2.9 30.45 -2.35
L 30.45 0 30.95 0 30.95 -2.5
Q 30.95 -3.15 30.6 -3.75 30.25 -4.25 29.45 -4.25 28.95 -4.25 28.55 -4 28.2 -3.75 27.95 -3.2 27.8 -3.7 27.45 -4 27.1 -4.25 26.6 -4.25 26.15 -4.25 25.75 -4 25.4 -3.7 25.15 -3.25
L 25.1 -4.15 Z"/>
</g>

<g id="IT_300x600_FR_psd_Asset_V6_2_Les_administrateurs_des__TI_prennent_en_charge__plus_d_appareil_0_Layer0_0_MEMBER_6_FILL">
<path fill="#D82C26" stroke="none" d="
M 32.75 -4.15
L 32.2 -4.15 32.2 0 32.75 0 32.75 -4.15
M 32.45 -5.4
L 32.75 -5.5 32.85 -5.8 32.75 -6.05
Q 32.65 -6.15 32.45 -6.15
L 32.2 -6.05 32.1 -5.8 32.2 -5.5 32.45 -5.4 Z"/>
</g>

<g id="IT_300x600_FR_psd_Asset_V6_2_Les_administrateurs_des__TI_prennent_en_charge__plus_d_appareil_0_Layer0_0_MEMBER_7_FILL">
<path fill="#D82C26" stroke="none" d="
M 34.5 -4.15
L 34.05 -4.15 34.05 0 34.6 0 34.6 -2.1
Q 34.6 -2.6 34.75 -3.05 35 -3.5 35.25 -3.6 35.5 -3.8 35.95 -3.8 36.6 -3.8 36.8 -3.4 37.1 -3 37.1 -2.4
L 37.1 0 37.6 0 37.6 -2.5
Q 37.6 -3.35 37.25 -3.75 36.9 -4.25 36.05 -4.25 35.65 -4.25 35.15 -4 34.8 -3.7 34.55 -3.25
L 34.5 -4.15 Z"/>
</g>

<g id="IT_300x600_FR_psd_Asset_V6_2_Les_administrateurs_des__TI_prennent_en_charge__plus_d_appareil_0_Layer0_0_MEMBER_8_FILL">
<path fill="#D82C26" stroke="none" d="
M 39.4 -4.15
L 38.9 -4.15 38.9 0 39.4 0 39.4 -4.15
M 39.4 -5.5
L 39.5 -5.8 39.4 -6.05
Q 39.3 -6.15 39.15 -6.15
L 38.85 -6.05 38.75 -5.8 38.85 -5.5 39.15 -5.4 39.4 -5.5 Z"/>
</g>

<g id="IT_300x600_FR_psd_Asset_V6_2_Les_administrateurs_des__TI_prennent_en_charge__plus_d_appareil_0_Layer0_0_MEMBER_9_FILL">
<path fill="#D82C26" stroke="none" d="
M 40.45 -0.8
L 40.4 -0.35
Q 40.6 -0.15 41 0
L 41.85 0.1 42.55 0
Q 42.9 -0.2 43.05 -0.45 43.25 -0.65 43.25 -1.1 43.25 -1.55 42.95 -1.8 42.7 -2.05 42 -2.3
L 41.2 -2.65
Q 40.95 -2.85 40.95 -3.15 40.95 -3.5 41.2 -3.65 41.4 -3.85 41.85 -3.85
L 42.45 -3.75 42.9 -3.45 43.15 -3.8
Q 42.95 -4 42.55 -4.15
L 41.85 -4.25 41.15 -4.15 40.65 -3.75
Q 40.45 -3.35 40.45 -3.1 40.45 -2.6 40.75 -2.4
L 41.65 -1.95
Q 42.25 -1.8 42.5 -1.55 42.75 -1.4 42.75 -1.05 42.75 -0.7 42.5 -0.5 42.25 -0.3 41.85 -0.3 41 -0.3 40.45 -0.8 Z"/>
</g>

<g id="IT_300x600_FR_psd_Asset_V6_2_Les_administrateurs_des__TI_prennent_en_charge__plus_d_appareil_0_Layer0_0_MEMBER_10_FILL">
<path fill="#D82C26" stroke="none" d="
M 45.05 -4.15
L 45.05 -5.3 44.5 -5.1 44.5 -4.15 43.85 -4.15 43.75 -3.7 44.55 -3.7 44.55 -1
Q 44.55 -0.45 44.8 -0.2 45.05 0.1 45.5 0.1
L 45.95 0.05 46.35 -0.15 46.3 -0.5 45.65 -0.35
Q 45.35 -0.35 45.2 -0.5 45.05 -0.7 45.05 -1.05
L 45.05 -3.7 46.1 -3.7 46.2 -4.15 45.05 -4.15 Z"/>
</g>

<g id="IT_300x600_FR_psd_Asset_V6_2_Les_administrateurs_des__TI_prennent_en_charge__plus_d_appareil_0_Layer0_0_MEMBER_11_FILL">
<path fill="#D82C26" stroke="none" d="
M 48.85 -4.25
Q 48.5 -4.25 48.15 -4 47.8 -3.75 47.65 -3.25
L 47.6 -3.25 47.55 -4.15 47.1 -4.15 47.1 0 47.65 0 47.65 -2.05
Q 47.65 -2.75 47.95 -3.3 48.25 -3.8 48.8 -3.8
L 49.2 -3.75 49.3 -4.2 48.85 -4.25 Z"/>
</g>

<g id="IT_300x600_FR_psd_Asset_V6_2_Les_administrateurs_des__TI_prennent_en_charge__plus_d_appareil_0_Layer0_0_MEMBER_12_FILL">
<path fill="#D82C26" stroke="none" d="
M 49.65 -1.1
Q 49.65 -0.5 50.05 -0.2 50.45 0.1 51 0.1 51.55 0.1 51.9 -0.1 52.3 -0.3 52.55 -0.8
L 52.6 -0.4 52.6 0 53.1 0 53.05 -2.7
Q 53.05 -3.45 52.6 -3.85 52.25 -4.25 51.45 -4.25
L 50.6 -4.15 49.9 -3.75 50.05 -3.35
Q 50.25 -3.55 50.65 -3.7
L 51.35 -3.85
Q 51.9 -3.85 52.25 -3.55 52.55 -3.25 52.55 -2.7
L 52.55 -2.5 52.05 -2.5
Q 49.65 -2.5 49.65 -1.1
M 50.45 -0.5
Q 50.15 -0.65 50.15 -1.15 50.15 -2.15 52.1 -2.15
L 52.55 -2.15 52.55 -1.7
Q 52.55 -1.35 52.4 -1.05 52.2 -0.75 51.9 -0.5 51.5 -0.25 51.1 -0.25 50.7 -0.25 50.45 -0.5 Z"/>
</g>

<g id="IT_300x600_FR_psd_Asset_V6_2_Les_administrateurs_des__TI_prennent_en_charge__plus_d_appareil_0_Layer0_0_MEMBER_13_FILL">
<path fill="#D82C26" stroke="none" d="
M 54.9 -4.15
L 54.9 -5.3 54.4 -5.1 54.4 -4.15 53.75 -4.15 53.65 -3.7 54.4 -3.7 54.4 -1
Q 54.4 -0.55 54.65 -0.2 54.95 0.1 55.35 0.1
L 55.85 0.05 56.25 -0.15 56.2 -0.5 55.5 -0.35
Q 55.25 -0.35 55.1 -0.5 54.9 -0.7 54.9 -1.05
L 54.9 -3.7 56 -3.7 56.1 -4.15 54.9 -4.15 Z"/>
</g>

<g id="IT_300x600_FR_psd_Asset_V6_2_Les_administrateurs_des__TI_prennent_en_charge__plus_d_appareil_0_Layer0_0_MEMBER_14_FILL">
<path fill="#D82C26" stroke="none" d="
M 59.65 -4
Q 59.25 -4.25 58.6 -4.25 58.15 -4.25 57.55 -4 57.05 -3.65 56.85 -3.2 56.55 -2.75 56.55 -2.1 56.55 -1.45 56.85 -0.95 57.05 -0.45 57.6 -0.15 58 0.1 58.7 0.1 59.65 0.1 60.35 -0.4
L 60.25 -0.85
Q 59.85 -0.55 59.55 -0.45 59.2 -0.3 58.75 -0.3 58.25 -0.3 57.85 -0.55 57.55 -0.75 57.3 -1.15 57.05 -1.55 57.05 -2
L 60.55 -2 60.6 -2.2
Q 60.6 -2.75 60.35 -3.25 60.15 -3.65 59.65 -4
M 58.6 -3.85
Q 59.25 -3.85 59.65 -3.45 60 -3.15 60.1 -2.35
L 57.1 -2.35
Q 57.1 -2.65 57.25 -3.05 57.55 -3.45 57.8 -3.6 58.1 -3.85 58.6 -3.85 Z"/>
</g>

<g id="IT_300x600_FR_psd_Asset_V6_2_Les_administrateurs_des__TI_prennent_en_charge__plus_d_appareil_0_Layer0_0_MEMBER_15_FILL">
<path fill="#D82C26" stroke="none" d="
M 65.1 -4.15
L 64.55 -4.15 64.55 -2.05
Q 64.55 -1.5 64.4 -1.15 64.2 -0.7 63.9 -0.5 63.5 -0.3 63.2 -0.3 62.6 -0.3 62.3 -0.7 62.05 -1.2 62.05 -1.75
L 62.05 -4.15 61.55 -4.15 61.55 -1.6
Q 61.55 -0.8 61.9 -0.4 62.25 0.1 63.05 0.1 63.55 0.1 63.95 -0.15 64.4 -0.45 64.55 -0.9
L 64.65 0 65.15 0 65.1 -4.15 Z"/>
</g>

<g id="IT_300x600_FR_psd_Asset_V6_2_Les_administrateurs_des__TI_prennent_en_charge__plus_d_appareil_0_Layer0_0_MEMBER_16_FILL">
<path fill="#D82C26" stroke="none" d="
M 68.5 -3.75
L 68.6 -4.2 68.15 -4.25
Q 67.8 -4.25 67.45 -4 67.1 -3.75 66.95 -3.25
L 66.9 -3.25 66.85 -4.15 66.4 -4.15 66.4 0 66.95 0 66.95 -2.05
Q 66.95 -2.75 67.25 -3.3 67.55 -3.8 68.1 -3.8
L 68.5 -3.75 Z"/>
</g>

<g id="IT_300x600_FR_psd_Asset_V6_2_Les_administrateurs_des__TI_prennent_en_charge__plus_d_appareil_0_Layer0_0_MEMBER_17_FILL">
<path fill="#D82C26" stroke="none" d="
M 69.25 -3.75
Q 69.05 -3.5 69.05 -3.1 69.05 -2.6 69.35 -2.4
L 70.2 -1.95
Q 70.75 -1.8 71.1 -1.55 71.35 -1.4 71.35 -1.05 71.35 -0.75 71.1 -0.5 70.85 -0.3 70.45 -0.3 69.6 -0.3 69.05 -0.8
L 68.95 -0.35 69.6 0 70.45 0.1 71.15 0
Q 71.5 -0.2 71.65 -0.45 71.85 -0.65 71.85 -1.1 71.85 -1.55 71.55 -1.8 71.3 -2.05 70.6 -2.3
L 69.75 -2.65
Q 69.55 -2.85 69.55 -3.15 69.55 -3.5 69.8 -3.65 70 -3.85 70.45 -3.85
L 71 -3.75 71.5 -3.45 71.75 -3.8
Q 71.55 -4 71.15 -4.15
L 70.4 -4.25 69.75 -4.15 69.25 -3.75 Z"/>
</g>

<g id="IT_300x600_FR_psd_Asset_V6_2_Les_administrateurs_des__TI_prennent_en_charge__plus_d_appareil_0_Layer0_0_MEMBER_18_FILL">
<path fill="#D82C26" stroke="none" d="
M 78.55 -6.8
L 78.05 -6.65 78.05 -3.25
Q 77.85 -3.65 77.35 -4 76.85 -4.25 76.35 -4.25 75.75 -4.25 75.3 -3.95 74.95 -3.8 74.55 -3.2 74.3 -2.6 74.3 -2.05 74.3 -1.55 74.55 -0.95 74.95 -0.35 75.3 -0.15 75.8 0.1 76.35 0.1 77 0.1 77.35 -0.15 77.85 -0.45 78.05 -0.9
L 78.1 -0.9 78.1 0 78.6 0 78.55 -6.8
M 75 -2.95
Q 75.2 -3.3 75.6 -3.6 75.85 -3.8 76.45 -3.8 76.95 -3.8 77.3 -3.6 77.75 -3.25 77.85 -2.95 78.1 -2.55 78.1 -2.05 78.1 -1.6 77.85 -1.2 77.7 -0.8 77.3 -0.55 76.9 -0.3 76.45 -0.3 75.95 -0.3 75.6 -0.55 75.2 -0.8 75 -1.2 74.8 -1.7 74.8 -2.05 74.8 -2.45 75 -2.95 Z"/>
</g>

<g id="IT_300x600_FR_psd_Asset_V6_2_Les_administrateurs_des__TI_prennent_en_charge__plus_d_appareil_0_Layer0_0_MEMBER_19_FILL">
<path fill="#D82C26" stroke="none" d="
M 79.9 -0.95
Q 80.1 -0.45 80.65 -0.15 81.05 0.1 81.75 0.1 82.75 0.1 83.4 -0.4
L 83.3 -0.85 82.65 -0.45
Q 82.2 -0.3 81.8 -0.3 81.35 -0.3 80.95 -0.55 80.6 -0.75 80.35 -1.15 80.2 -1.4 80.1 -2
L 83.6 -2 83.65 -2.2
Q 83.65 -2.75 83.4 -3.25 83.15 -3.7 82.75 -4 82.25 -4.25 81.65 -4.25 81.2 -4.25 80.6 -4 80.1 -3.65 79.9 -3.2 79.6 -2.75 79.6 -2.1 79.6 -1.45 79.9 -0.95
M 80.35 -3.05
Q 80.55 -3.4 80.85 -3.6 81.15 -3.85 81.65 -3.85 82.3 -3.85 82.7 -3.45 83.15 -3.05 83.15 -2.35
L 80.15 -2.35
Q 80.15 -2.7 80.35 -3.05 Z"/>
</g>

<g id="IT_300x600_FR_psd_Asset_V6_2_Les_administrateurs_des__TI_prennent_en_charge__plus_d_appareil_0_Layer0_0_MEMBER_20_FILL">
<path fill="#D82C26" stroke="none" d="
M 85.15 -3.65
Q 85.35 -3.85 85.8 -3.85
L 86.4 -3.75 86.85 -3.45 87.1 -3.8
Q 86.9 -4 86.5 -4.15
L 85.8 -4.25 85.1 -4.15
Q 84.9 -4.05 84.6 -3.75 84.4 -3.35 84.4 -3.1 84.4 -2.6 84.7 -2.4
L 85.6 -1.95
Q 86.1 -1.85 86.45 -1.55 86.7 -1.4 86.7 -1.05 86.7 -0.7 86.45 -0.5 86.2 -0.3 85.8 -0.3 84.95 -0.3 84.4 -0.8
L 84.35 -0.35
Q 84.55 -0.15 84.95 0
L 85.8 0.1 86.5 0
Q 86.85 -0.2 87 -0.45 87.2 -0.65 87.2 -1.1 87.2 -1.55 86.9 -1.8 86.65 -2.05 85.95 -2.3
L 85.15 -2.65
Q 84.9 -2.85 84.9 -3.15 84.9 -3.5 85.15 -3.65 Z"/>
</g>

<g id="IT_300x600_FR_psd_Asset_V6_2_Les_administrateurs_des__TI_prennent_en_charge__plus_d_appareil_0_Layer0_0_MEMBER_21_FILL">
<path fill="#D82C26" stroke="none" d="
M 2.05 5.9
L 2.05 11.65 2.55 11.65 2.55 5.9 4.45 5.9 4.55 5.4 0.15 5.4 0.05 5.9 2.05 5.9 Z"/>
</g>

<g id="IT_300x600_FR_psd_Asset_V6_2_Les_administrateurs_des__TI_prennent_en_charge__plus_d_appareil_0_Layer0_0_MEMBER_22_FILL">
<path fill="#D82C26" stroke="none" d="
M 5.35 5.4
L 5.35 11.65 5.9 11.65 5.9 5.4 5.35 5.4 Z"/>
</g>

<g id="IT_300x600_FR_psd_Asset_V6_2_Les_administrateurs_des__TI_prennent_en_charge__plus_d_appareil_0_Layer0_0_MEMBER_23_FILL">
<path fill="#D82C26" stroke="none" d="
M 11.25 7.4
Q 10.8 7.4 10.3 7.65 9.8 8 9.6 8.4
L 9.55 8.4 9.55 7.5 9.05 7.5 9.05 13.75 9.55 13.75 9.55 10.75 9.6 10.75
Q 9.75 11.15 10.3 11.5 10.7 11.75 11.25 11.75 11.85 11.75 12.35 11.5 12.75 11.25 13.1 10.7 13.35 10.1 13.35 9.6 13.35 9.05 13.1 8.45 12.75 7.9 12.35 7.7 11.9 7.4 11.25 7.4
M 12.05 8.05
Q 12.5 8.4 12.6 8.7 12.8 9.05 12.8 9.6 12.8 10.1 12.6 10.45 12.45 10.85 12.05 11.1 11.65 11.35 11.2 11.35 10.75 11.35 10.35 11.1 10 10.9 9.75 10.45 9.55 9.95 9.55 9.6 9.55 9.2 9.75 8.7 9.95 8.35 10.35 8.05 10.7 7.85 11.2 7.85 11.7 7.85 12.05 8.05 Z"/>
</g>

<g id="IT_300x600_FR_psd_Asset_V6_2_Les_administrateurs_des__TI_prennent_en_charge__plus_d_appareil_0_Layer0_0_MEMBER_24_FILL">
<path fill="#D82C26" stroke="none" d="
M 14.35 7.5
L 14.4 11.65 14.9 11.65 14.9 9.6
Q 14.9 8.85 15.25 8.35 15.55 7.85 16.1 7.85
L 16.45 7.9 16.55 7.45 16.1 7.4
Q 15.8 7.4 15.4 7.65 15.05 8.05 14.9 8.4
L 14.85 7.5 14.35 7.5 Z"/>
</g>

<g id="IT_300x600_FR_psd_Asset_V6_2_Les_administrateurs_des__TI_prennent_en_charge__plus_d_appareil_0_Layer0_0_MEMBER_25_FILL">
<path fill="#D82C26" stroke="none" d="
M 20.8 9.45
Q 20.8 8.9 20.55 8.4 20.3 7.95 19.9 7.65 19.4 7.4 18.8 7.4 18.3 7.4 17.8 7.65 17.25 7.95 17.05 8.45 16.75 8.9 16.75 9.55 16.75 10.2 17.05 10.7 17.35 11.2 17.8 11.5 18.2 11.75 18.9 11.75 19.9 11.75 20.55 11.25
L 20.45 10.8 19.8 11.2
Q 19.35 11.35 18.95 11.35 18.5 11.35 18.1 11.1 17.75 10.9 17.5 10.5 17.3 10.15 17.3 9.65
L 20.8 9.65 20.8 9.45
M 18.8 7.8
Q 19.4 7.8 19.9 8.2 20.3 8.6 20.3 9.3
L 17.3 9.3
Q 17.3 8.95 17.5 8.6 17.65 8.3 18 8.05 18.3 7.8 18.8 7.8 Z"/>
</g>

<g id="IT_300x600_FR_psd_Asset_V6_2_Les_administrateurs_des__TI_prennent_en_charge__plus_d_appareil_0_Layer0_0_MEMBER_26_FILL">
<path fill="#D82C26" stroke="none" d="
M 23.85 7.4
Q 23.4 7.4 22.9 7.65 22.5 8 22.35 8.4
L 22.3 8.4 22.25 7.5 21.8 7.5 21.8 11.65 22.35 11.65 22.35 9.55
Q 22.35 9 22.55 8.6 22.7 8.2 23 8.05 23.35 7.85 23.7 7.85 24.35 7.85 24.6 8.25 24.85 8.65 24.85 9.25
L 24.85 11.65 25.35 11.65 25.35 9.15
Q 25.35 8.3 25 7.9 24.65 7.4 23.85 7.4 Z"/>
</g>

<g id="IT_300x600_FR_psd_Asset_V6_2_Les_administrateurs_des__TI_prennent_en_charge__plus_d_appareil_0_Layer0_0_MEMBER_27_FILL">
<path fill="#D82C26" stroke="none" d="
M 29.8 7.9
Q 29.45 7.4 28.65 7.4 28.15 7.4 27.75 7.65 27.3 7.95 27.15 8.4
L 27.1 7.5 26.6 7.5 26.65 11.65 27.15 11.65 27.15 9.55
Q 27.15 9.2 27.35 8.6 27.5 8.25 27.85 8.05 28.1 7.85 28.55 7.85 29.2 7.85 29.4 8.25 29.65 8.55 29.65 9.25
L 29.65 11.65 30.2 11.65 30.2 9.15
Q 30.2 8.4 29.8 7.9 Z"/>
</g>

<g id="IT_300x600_FR_psd_Asset_V6_2_Les_administrateurs_des__TI_prennent_en_charge__plus_d_appareil_0_Layer0_0_MEMBER_28_FILL">
<path fill="#D82C26" stroke="none" d="
M 34.3 7.65
Q 33.8 7.4 33.25 7.4 32.7 7.4 32.2 7.65 31.75 7.95 31.45 8.45 31.2 8.95 31.2 9.55 31.2 10.1 31.45 10.7 31.75 11.2 32.25 11.5 32.65 11.75 33.3 11.75 34.3 11.75 34.95 11.25
L 34.9 10.8 34.2 11.2
Q 33.85 11.35 33.35 11.35 32.9 11.35 32.5 11.1 32.15 10.9 31.9 10.5 31.7 10 31.7 9.65
L 35.2 9.65 35.2 9.45
Q 35.2 8.8 35 8.4 34.8 8 34.3 7.65
M 33.25 7.8
Q 33.9 7.8 34.3 8.2 34.7 8.6 34.7 9.3
L 31.7 9.3
Q 31.7 9.1 31.9 8.6 32.2 8.2 32.45 8.05 32.7 7.8 33.25 7.8 Z"/>
</g>

<g id="IT_300x600_FR_psd_Asset_V6_2_Les_administrateurs_des__TI_prennent_en_charge__plus_d_appareil_0_Layer0_0_MEMBER_29_FILL">
<path fill="#D82C26" stroke="none" d="
M 39.4 7.9
Q 39.05 7.4 38.25 7.4 37.75 7.4 37.35 7.65 37 7.9 36.75 8.4
L 36.7 7.5 36.2 7.5 36.25 11.65 36.75 11.65 36.75 9.55
Q 36.75 9.2 36.95 8.6 37.1 8.25 37.45 8.05 37.7 7.85 38.15 7.85 38.8 7.85 39 8.25 39.25 8.55 39.25 9.25
L 39.25 11.65 39.8 11.65 39.8 9.15
Q 39.8 8.4 39.4 7.9 Z"/>
</g>

<g id="IT_300x600_FR_psd_Asset_V6_2_Les_administrateurs_des__TI_prennent_en_charge__plus_d_appareil_0_Layer0_0_MEMBER_30_FILL">
<path fill="#D82C26" stroke="none" d="
M 41.15 6.55
L 41.15 7.5 40.45 7.5 40.35 7.95 41.15 7.95 41.15 10.65
Q 41.15 11.1 41.4 11.45 41.7 11.75 42.1 11.75
L 42.55 11.7 43 11.5 42.9 11.15 42.25 11.3
Q 42.05 11.3 41.8 11.15 41.65 10.95 41.65 10.6
L 41.65 7.95 42.7 7.95 42.85 7.5 41.65 7.5 41.65 6.35 41.15 6.55 Z"/>
</g>

<g id="IT_300x600_FR_psd_Asset_V6_2_Les_administrateurs_des__TI_prennent_en_charge__plus_d_appareil_0_Layer0_0_MEMBER_31_FILL">
<path fill="#D82C26" stroke="none" d="
M 45.1 9.55
Q 45.1 10.1 45.35 10.7 45.65 11.2 46.15 11.5 46.55 11.75 47.2 11.75 48.2 11.75 48.85 11.25
L 48.8 10.8 48.1 11.2
Q 47.75 11.35 47.25 11.35 46.8 11.35 46.4 11.1 46.05 10.9 45.8 10.5 45.6 10 45.6 9.65
L 49.1 9.65 49.1 9.45
Q 49.1 8.8 48.9 8.4 48.7 8 48.2 7.65 47.7 7.4 47.15 7.4 46.6 7.4 46.1 7.65 45.65 7.95 45.35 8.45 45.1 8.95 45.1 9.55
M 46.35 8.05
Q 46.6 7.8 47.15 7.8 47.8 7.8 48.2 8.2 48.6 8.6 48.6 9.3
L 45.6 9.3
Q 45.6 9.1 45.8 8.6 46.1 8.2 46.35 8.05 Z"/>
</g>

<g id="IT_300x600_FR_psd_Asset_V6_2_Les_administrateurs_des__TI_prennent_en_charge__plus_d_appareil_0_Layer0_0_MEMBER_32_FILL">
<path fill="#D82C26" stroke="none" d="
M 53.7 9.15
Q 53.7 8.4 53.3 7.9 52.95 7.4 52.15 7.4 51.65 7.4 51.25 7.65 50.9 7.9 50.65 8.4
L 50.6 7.5 50.1 7.5 50.15 11.65 50.65 11.65 50.65 9.55
Q 50.65 9.2 50.85 8.6 51 8.25 51.35 8.05 51.6 7.85 52.05 7.85 52.7 7.85 52.9 8.25 53.15 8.55 53.15 9.25
L 53.15 11.65 53.7 11.65 53.7 9.15 Z"/>
</g>

<g id="IT_300x600_FR_psd_Asset_V6_2_Les_administrateurs_des__TI_prennent_en_charge__plus_d_appareil_0_Layer0_0_MEMBER_33_FILL">
<path fill="#D82C26" stroke="none" d="
M 59.4 7.5
L 58.6 7.4
Q 58.1 7.4 57.5 7.65 56.95 8.05 56.75 8.45 56.45 9 56.45 9.6 56.45 10.25 56.75 10.7 56.95 11.2 57.5 11.5 57.9 11.75 58.6 11.75 59.15 11.75 59.4 11.65 59.75 11.5 60 11.25
L 59.95 10.85 59.35 11.2
Q 59.15 11.3 58.65 11.3 58.15 11.3 57.75 11.1 57.5 10.95 57.2 10.45 57 10.1 57 9.6 57 9.05 57.2 8.7 57.45 8.3 57.75 8.05 58.1 7.85 58.65 7.85 59.05 7.85 59.3 7.95
L 59.8 8.3 60 7.9
Q 59.75 7.65 59.4 7.5 Z"/>
</g>

<g id="IT_300x600_FR_psd_Asset_V6_2_Les_administrateurs_des__TI_prennent_en_charge__plus_d_appareil_0_Layer0_0_MEMBER_34_FILL">
<path fill="#D82C26" stroke="none" d="
M 61.35 4.9
L 60.85 5 60.85 11.65 61.35 11.65 61.35 9.65
Q 61.35 9.05 61.55 8.65 61.7 8.35 62.05 8.05 62.3 7.85 62.75 7.85 63.4 7.85 63.6 8.25 63.85 8.65 63.85 9.25
L 63.85 11.65 64.35 11.65 64.35 9.15
Q 64.35 8.3 64 7.9 63.65 7.4 62.85 7.4 62.45 7.4 61.95 7.65 61.55 8 61.4 8.4
L 61.35 8.4 61.35 4.9 Z"/>
</g>

<g id="IT_300x600_FR_psd_Asset_V6_2_Les_administrateurs_des__TI_prennent_en_charge__plus_d_appareil_0_Layer0_0_MEMBER_35_FILL">
<path fill="#D82C26" stroke="none" d="
M 65.35 10.55
Q 65.35 11.15 65.75 11.45 66.15 11.75 66.65 11.75 67.2 11.75 67.6 11.55 68.05 11.35 68.2 10.85
L 68.25 10.85 68.25 11.25 68.3 11.65 68.8 11.65 68.7 10.75 68.7 8.95
Q 68.7 8.2 68.3 7.8 67.9 7.4 67.1 7.4
L 66.3 7.5
Q 66 7.6 65.6 7.9
L 65.75 8.3
Q 65.95 8.1 66.35 7.95
L 67.05 7.8
Q 67.6 7.8 67.9 8.1 68.2 8.4 68.2 8.95
L 68.2 9.15 67.7 9.15
Q 65.35 9.15 65.35 10.55
M 68.2 9.95
Q 68.2 10.3 68.05 10.6 67.9 10.95 67.55 11.15 67.2 11.4 66.8 11.4 66.45 11.4 66.1 11.15 65.85 11 65.85 10.5 65.85 9.5 67.8 9.5
L 68.2 9.5 68.2 9.95 Z"/>
</g>

<g id="IT_300x600_FR_psd_Asset_V6_2_Les_administrateurs_des__TI_prennent_en_charge__plus_d_appareil_0_Layer0_0_MEMBER_36_FILL">
<path fill="#D82C26" stroke="none" d="
M 71.7 7.4
Q 71.4 7.4 71 7.65 70.65 8.05 70.5 8.4
L 70.45 7.5 69.95 7.5 70 11.65 70.5 11.65 70.5 9.6
Q 70.5 8.85 70.85 8.35 71.15 7.85 71.7 7.85
L 72.05 7.9 72.15 7.45 71.7 7.4 Z"/>
</g>

<g id="IT_300x600_FR_psd_Asset_V6_2_Les_administrateurs_des__TI_prennent_en_charge__plus_d_appareil_0_Layer0_0_MEMBER_37_FILL">
<path fill="#D82C26" stroke="none" d="
M 75.4 7.65
Q 74.9 7.4 74.45 7.4 73.9 7.4 73.35 7.7 72.85 8.05 72.65 8.5 72.35 8.95 72.35 9.6 72.35 10.2 72.65 10.65 72.85 11.1 73.35 11.45 73.8 11.75 74.45 11.75 74.95 11.75 75.45 11.45 75.85 11.25 76.1 10.7
L 76.15 10.7 76.15 11.6
Q 76.15 12.45 75.7 12.9 75.3 13.4 74.4 13.4 74 13.4 73.55 13.25
L 72.75 12.85 72.65 13.3 73.45 13.7
Q 73.8 13.8 74.45 13.8 75.6 13.8 76.1 13.2 76.65 12.55 76.65 11.6
L 76.65 7.5 76.2 7.5 76.15 8.45
Q 75.85 7.9 75.4 7.65
M 74.5 7.85
Q 75 7.85 75.35 8.05 75.7 8.25 75.95 8.7 76.15 9.05 76.15 9.55 76.15 10.1 75.95 10.45 75.75 10.85 75.35 11.05 75.05 11.3 74.5 11.3 73.95 11.3 73.65 11.05 73.25 10.8 73.1 10.45 72.9 10.05 72.9 9.6 72.9 9.05 73.1 8.7 73.25 8.4 73.65 8.05 74 7.85 74.5 7.85 Z"/>
</g>

<g id="IT_300x600_FR_psd_Asset_V6_2_Les_administrateurs_des__TI_prennent_en_charge__plus_d_appareil_0_Layer0_0_MEMBER_38_FILL">
<path fill="#D82C26" stroke="none" d="
M 81.7 9.45
Q 81.7 8.9 81.45 8.4 81.2 7.95 80.8 7.65 80.3 7.4 79.75 7.4 79.2 7.4 78.7 7.65 78.25 7.9 77.95 8.45 77.7 8.85 77.7 9.55 77.7 10.25 77.95 10.7 78.25 11.2 78.7 11.5 79.15 11.75 79.8 11.75 80.8 11.75 81.45 11.25
L 81.35 10.8 80.7 11.2
Q 80.25 11.35 79.85 11.35 79.4 11.35 79 11.1 78.65 10.9 78.4 10.5 78.2 10.15 78.2 9.65
L 81.7 9.65 81.7 9.45
M 79.75 7.8
Q 80.3 7.8 80.8 8.2 81.2 8.6 81.2 9.3
L 78.2 9.3
Q 78.2 8.95 78.4 8.6 78.55 8.3 78.9 8.05 79.2 7.8 79.75 7.8 Z"/>
</g>

<g id="IT_300x600_FR_psd_Asset_V6_2_Les_administrateurs_des__TI_prennent_en_charge__plus_d_appareil_0_Layer0_0_MEMBER_39_FILL">
<path fill="#D82C26" stroke="none" d="
M 4.85 20.1
Q 4.5 19.55 4.1 19.35 3.65 19.05 3.05 19.05 2.55 19.05 2.05 19.3 1.55 19.65 1.35 20.05
L 1.3 20.05 1.3 19.15 0.8 19.15 0.8 25.4 1.35 25.4 1.35 22.4
Q 1.5 22.8 2.05 23.15 2.45 23.4 3.05 23.4 3.6 23.4 4.1 23.15 4.5 22.9 4.85 22.35 5.1 21.75 5.1 21.25 5.1 20.7 4.85 20.1
M 4.35 20.35
Q 4.55 20.7 4.55 21.25 4.55 21.75 4.35 22.1 4.2 22.5 3.8 22.75 3.4 23 2.95 23 2.5 23 2.1 22.75 1.7 22.5 1.55 22.1 1.3 21.7 1.3 21.25 1.3 20.75 1.55 20.35 1.7 20.05 2.1 19.7 2.45 19.5 2.95 19.5 3.45 19.5 3.8 19.7 4.25 20.05 4.35 20.35 Z"/>
</g>

<g id="IT_300x600_FR_psd_Asset_V6_2_Les_administrateurs_des__TI_prennent_en_charge__plus_d_appareil_0_Layer0_0_MEMBER_40_FILL">
<path fill="#D82C26" stroke="none" d="
M 6.3 23.05
Q 6.6 23.35 6.8 23.4
L 7.05 22.95
Q 6.85 22.9 6.75 22.7
L 6.65 22.25 6.65 16.55 6.15 16.65 6.15 22.4
Q 6.15 22.75 6.3 23.05 Z"/>
</g>

<g id="IT_300x600_FR_psd_Asset_V6_2_Les_administrateurs_des__TI_prennent_en_charge__plus_d_appareil_0_Layer0_0_MEMBER_41_FILL">
<path fill="#D82C26" stroke="none" d="
M 8.3 22.9
Q 8.65 23.4 9.45 23.4 9.95 23.4 10.35 23.15 10.8 22.85 10.95 22.4
L 11.05 23.3 11.55 23.3 11.5 22.8 11.5 19.15 10.95 19.15 10.95 21.25
Q 10.95 21.8 10.8 22.15 10.6 22.6 10.3 22.8 9.9 23 9.6 23 9 23 8.7 22.6 8.45 22.1 8.45 21.55
L 8.45 19.15 7.95 19.15 7.95 21.7
Q 7.95 22.5 8.3 22.9 Z"/>
</g>

<g id="IT_300x600_FR_psd_Asset_V6_2_Les_administrateurs_des__TI_prennent_en_charge__plus_d_appareil_0_Layer0_0_MEMBER_42_FILL">
<path fill="#D82C26" stroke="none" d="
M 14.7 19.15
L 13.95 19.05 13.3 19.15
Q 13.05 19.25 12.75 19.55 12.55 19.95 12.55 20.2 12.55 20.7 12.85 20.9
L 13.75 21.35
Q 14.35 21.5 14.6 21.75 14.9 21.9 14.9 22.25 14.9 22.6 14.6 22.8 14.4 23 13.95 23 13.1 23 12.6 22.5
L 12.5 22.95
Q 12.7 23.15 13.15 23.3
L 14 23.4 14.65 23.3
Q 15 23.15 15.2 22.85 15.4 22.55 15.4 22.2 15.4 21.7 15.05 21.5 14.8 21.25 14.1 21
L 13.3 20.65
Q 13.05 20.4 13.05 20.15 13.05 19.8 13.3 19.65 13.55 19.45 13.95 19.45
L 14.55 19.55 15.05 19.85 15.25 19.5 14.7 19.15 Z"/>
</g>

<g id="IT_300x600_FR_psd_Asset_V6_2_Les_administrateurs_des__TI_prennent_en_charge__plus_d_appareil_0_Layer0_0_MEMBER_43_FILL">
<path fill="#D82C26" stroke="none" d="
M 22.1 16.5
L 21.6 16.65 21.6 20.05 21.55 20.05
Q 21.35 19.65 20.85 19.3 20.35 19.05 19.9 19.05 19.25 19.05 18.8 19.35 18.35 19.55 18.1 20.1 17.8 20.65 17.8 21.25 17.8 21.85 18.1 22.35 18.35 22.85 18.8 23.15 19.3 23.4 19.9 23.4 20.5 23.4 20.85 23.15 21.25 22.9 21.6 22.4
L 21.65 23.3 22.15 23.3 22.1 16.5
M 20.8 19.7
Q 21.2 20 21.4 20.35 21.6 20.7 21.6 21.25 21.6 21.75 21.4 22.1 21.15 22.55 20.8 22.75 20.4 23 19.95 23 19.5 23 19.1 22.75 18.7 22.5 18.55 22.1 18.35 21.75 18.35 21.25 18.35 20.7 18.55 20.35 18.7 20.05 19.1 19.7 19.45 19.5 19.95 19.5 20.45 19.5 20.8 19.7 Z"/>
</g>

<g id="IT_300x600_FR_psd_Asset_V6_2_Les_administrateurs_des__TI_prennent_en_charge__plus_d_appareil_0_Layer0_0_MEMBER_44_FILL">
<path fill="#D82C26" stroke="none" d="
M 24.2 17.2
Q 24.05 17.05 23.9 17.05
L 23.65 17.15
Q 23.55 17.25 23.55 17.45 23.55 17.65 23.65 17.75
L 23.9 17.85 23.7 18.4
Q 23.6 18.6 23.3 18.9
L 23.5 19.05
Q 24.3 18.3 24.3 17.55
L 24.2 17.2 Z"/>
</g>

<g id="IT_300x600_FR_psd_Asset_V6_2_Les_administrateurs_des__TI_prennent_en_charge__plus_d_appareil_0_Layer0_0_MEMBER_45_FILL">
<path fill="#D82C26" stroke="none" d="
M 24.65 22.2
Q 24.65 22.8 25.05 23.1 25.45 23.4 25.95 23.4 26.5 23.4 26.9 23.2 27.35 22.9 27.5 22.5
L 27.55 22.5 27.55 22.9 27.6 23.3 28.1 23.3 28 22.4 28 20.6
Q 28 19.85 27.6 19.45 27.2 19.05 26.4 19.05
L 25.6 19.15
Q 25.3 19.25 24.9 19.55
L 25.05 19.95
Q 25.25 19.75 25.65 19.6
L 26.35 19.45
Q 26.9 19.45 27.2 19.75 27.5 20.05 27.5 20.6
L 27.5 20.8 27 20.8
Q 24.65 20.8 24.65 22.2
M 27.1 21.15
L 27.5 21.15 27.5 21.6
Q 27.5 21.95 27.35 22.25 27.2 22.6 26.85 22.8 26.5 23.05 26.1 23.05 25.75 23.05 25.4 22.8 25.15 22.65 25.15 22.15 25.15 21.15 27.1 21.15 Z"/>
</g>

<g id="IT_300x600_FR_psd_Asset_V6_2_Les_administrateurs_des__TI_prennent_en_charge__plus_d_appareil_0_Layer0_0_MEMBER_46_FILL">
<path fill="#D82C26" stroke="none" d="
M 29.75 19.15
L 29.25 19.15 29.3 25.4 29.8 25.4 29.8 22.4 29.85 22.4
Q 30.05 22.85 30.5 23.15 30.9 23.4 31.5 23.4 32 23.4 32.6 23.15 33.05 22.85 33.3 22.35 33.55 21.9 33.55 21.25 33.55 20.55 33.3 20.1 33.05 19.55 32.6 19.35 32.1 19.05 31.5 19.05 31 19.05 30.5 19.3 30.15 19.55 29.8 20.05
L 29.75 19.15
M 29.8 21.25
Q 29.8 20.7 30 20.35 30.2 20 30.6 19.7 30.95 19.5 31.45 19.5 31.95 19.5 32.3 19.7 32.7 20.1 32.85 20.35 33.05 20.7 33.05 21.25 33.05 21.75 32.85 22.1 32.65 22.5 32.3 22.75 31.9 23 31.45 23 31 23 30.6 22.75 30.25 22.55 30 22.1 29.8 21.75 29.8 21.25 Z"/>
</g>

<g id="IT_300x600_FR_psd_Asset_V6_2_Les_administrateurs_des__TI_prennent_en_charge__plus_d_appareil_0_Layer0_0_MEMBER_47_FILL">
<path fill="#D82C26" stroke="none" d="
M 35.1 19.15
L 34.6 19.15 34.6 25.4 35.15 25.4 35.15 22.4
Q 35.3 22.8 35.85 23.15 36.25 23.4 36.8 23.4 37.4 23.4 37.9 23.15 38.3 22.9 38.65 22.35 38.9 21.75 38.9 21.25 38.9 20.7 38.65 20.1 38.3 19.55 37.9 19.35 37.45 19.05 36.8 19.05 36.35 19.05 35.85 19.3 35.35 19.65 35.15 20.05
L 35.1 20.05 35.1 19.15
M 35.1 21.25
Q 35.1 20.85 35.3 20.35 35.5 20 35.9 19.7 36.25 19.5 36.75 19.5 37.25 19.5 37.6 19.7 38.05 20.05 38.15 20.35 38.35 20.7 38.35 21.25 38.35 21.75 38.15 22.1 38 22.5 37.6 22.75 37.2 23 36.75 23 36.3 23 35.9 22.75 35.55 22.55 35.3 22.1 35.1 21.6 35.1 21.25 Z"/>
</g>

<g id="IT_300x600_FR_psd_Asset_V6_2_Les_administrateurs_des__TI_prennent_en_charge__plus_d_appareil_0_Layer0_0_MEMBER_48_FILL">
<path fill="#D82C26" stroke="none" d="
M 41.4 19.05
L 40.55 19.15 39.85 19.55 40 19.95 40.65 19.6 41.35 19.45
Q 41.9 19.45 42.2 19.75 42.5 20.05 42.5 20.6
L 42.5 20.8 42 20.8
Q 39.65 20.8 39.65 22.2 39.65 22.85 40.05 23.1 40.45 23.4 40.95 23.4 41.5 23.4 41.9 23.2 42.35 22.9 42.5 22.5
L 42.55 22.5 42.55 22.9 42.6 23.3 43.05 23.3 43 20.6
Q 43 19.85 42.6 19.45 42.2 19.05 41.4 19.05
M 42.5 21.15
L 42.5 21.6
Q 42.5 21.95 42.35 22.25 42.2 22.6 41.85 22.8 41.5 23.05 41.05 23.05 40.75 23.05 40.4 22.8 40.15 22.65 40.15 22.15 40.15 21.15 42.1 21.15
L 42.5 21.15 Z"/>
</g>

<g id="IT_300x600_FR_psd_Asset_V6_2_Les_administrateurs_des__TI_prennent_en_charge__plus_d_appareil_0_Layer0_0_MEMBER_49_FILL">
<path fill="#D82C26" stroke="none" d="
M 45.3 19.3
Q 44.95 19.55 44.8 20.05
L 44.75 20.05 44.75 19.15 44.25 19.15 44.3 23.3 44.8 23.3 44.8 21.25
Q 44.8 20.55 45.1 20 45.4 19.5 45.95 19.5
L 46.35 19.55 46.45 19.1 46 19.05
Q 45.65 19.05 45.3 19.3 Z"/>
</g>

<g id="IT_300x600_FR_psd_Asset_V6_2_Les_administrateurs_des__TI_prennent_en_charge__plus_d_appareil_0_Layer0_0_MEMBER_50_FILL">
<path fill="#D82C26" stroke="none" d="
M 49.75 19.3
Q 49.35 19.05 48.7 19.05 48.25 19.05 47.65 19.3 47.15 19.65 46.95 20.1 46.65 20.55 46.65 21.2 46.65 21.85 46.95 22.35 47.15 22.85 47.7 23.15 48.1 23.4 48.8 23.4 49.75 23.4 50.45 22.9
L 50.35 22.45
Q 49.95 22.75 49.65 22.85 49.3 23 48.8 23 48.35 23 47.95 22.75 47.65 22.55 47.4 22.15 47.15 21.75 47.15 21.3
L 50.65 21.3 50.7 21.1
Q 50.7 20.55 50.45 20.05 50.25 19.65 49.75 19.3
M 49.75 19.85
Q 50.1 20.15 50.2 20.95
L 47.15 20.95 47.35 20.25
Q 47.65 19.85 47.9 19.7 48.2 19.45 48.7 19.45 49.35 19.45 49.75 19.85 Z"/>
</g>

<g id="IT_300x600_FR_psd_Asset_V6_2_Les_administrateurs_des__TI_prennent_en_charge__plus_d_appareil_0_Layer0_0_MEMBER_51_FILL">
<path fill="#D82C26" stroke="none" d="
M 51.7 19.15
L 51.7 23.3 52.2 23.3 52.2 19.15 51.7 19.15
M 51.95 17.9
L 52.2 17.8
Q 52.3 17.7 52.3 17.5 52.3 17.3 52.2 17.25 52.15 17.15 51.95 17.15
L 51.7 17.25
Q 51.6 17.3 51.6 17.5 51.6 17.7 51.7 17.8
L 51.95 17.9 Z"/>
</g>

<g id="IT_300x600_FR_psd_Asset_V6_2_Les_administrateurs_des__TI_prennent_en_charge__plus_d_appareil_0_Layer0_0_MEMBER_52_FILL">
<path fill="#D82C26" stroke="none" d="
M 53.7 23.05
Q 54 23.35 54.2 23.4
L 54.45 22.95
Q 54.25 22.9 54.15 22.7 54.05 22.6 54.05 22.25
L 54.05 16.55 53.5 16.65 53.5 22.4
Q 53.5 22.65 53.7 23.05 Z"/>
</g>

<g id="IT_300x600_FR_psd_Asset_V6_2_Les_administrateurs_des__TI_prennent_en_charge__plus_d_appareil_0_Layer0_0_MEMBER_53_FILL">
<path fill="#D82C26" stroke="none" d="
M 55.25 22.5
L 55.2 22.95
Q 55.4 23.15 55.8 23.3
L 56.65 23.4 57.35 23.3
Q 57.7 23.1 57.85 22.85 58.05 22.65 58.05 22.2 58.05 21.75 57.75 21.5 57.5 21.25 56.8 21
L 55.95 20.65
Q 55.75 20.45 55.75 20.15 55.75 19.8 56 19.65 56.2 19.45 56.65 19.45
L 57.25 19.55 57.7 19.85 57.95 19.5
Q 57.75 19.3 57.35 19.15
L 56.6 19.05 55.95 19.15 55.45 19.55
Q 55.25 19.8 55.25 20.2 55.25 20.7 55.55 20.9
L 56.45 21.35
Q 56.95 21.45 57.3 21.75 57.55 21.9 57.55 22.25 57.55 22.6 57.3 22.8 57.05 23 56.65 23 55.8 23 55.25 22.5 Z"/>
</g>

<g id="IT_300x600_FR_psd_Asset_V6_2_Les_administrateurs_des__TI_prennent_en_charge__plus_d_appareil_0_Layer0_0_MEMBER_54_FILL">
<path fill="#D82C26" stroke="none" d="
M 59.85 22.85
Q 59.85 22.6 59.7 22.45
L 59.45 22.35 59.15 22.45 59.05 22.75 59.15 23
Q 59.3 23.15 59.4 23.15 59.4 23.4 59.2 23.7
L 58.85 24.2 59.05 24.35
Q 59.85 23.55 59.85 22.85 Z"/>
</g>

<g id="IT_300x600_FR_psd_Asset_V6_2_Les_administrateurs_des__TI_prennent_en_charge__plus_d_appareil_0_Layer0_0_MEMBER_55_FILL">
<path fill="#D82C26" stroke="none" d="
M 66.85 16.5
L 66.35 16.65 66.35 20.05 66.3 20.05
Q 66.1 19.65 65.6 19.3 65.1 19.05 64.65 19.05 64 19.05 63.55 19.35 63.2 19.55 62.8 20.1 62.55 20.7 62.55 21.25 62.55 21.75 62.8 22.35 63.15 22.9 63.55 23.15 64.05 23.4 64.65 23.4 65.25 23.4 65.6 23.15 66.05 22.85 66.35 22.4
L 66.4 23.3 66.9 23.3 66.85 16.5
M 64.7 19.5
Q 65.2 19.5 65.55 19.7 65.95 20 66.15 20.35 66.35 20.85 66.35 21.25 66.35 21.6 66.15 22.1 65.9 22.55 65.55 22.75 65.15 23 64.7 23 64.25 23 63.85 22.75 63.45 22.5 63.3 22.1 63.1 21.75 63.1 21.25 63.1 20.7 63.3 20.35 63.45 20.05 63.85 19.7 64.2 19.5 64.7 19.5 Z"/>
</g>

<g id="IT_300x600_FR_psd_Asset_V6_2_Les_administrateurs_des__TI_prennent_en_charge__plus_d_appareil_0_Layer0_0_MEMBER_56_FILL">
<path fill="#D82C26" stroke="none" d="
M 69.95 19.05
Q 69.4 19.05 68.9 19.3 68.45 19.6 68.15 20.1 67.9 20.5 67.9 21.2 67.9 21.9 68.15 22.35 68.45 22.85 68.9 23.15 69.35 23.4 70 23.4 71 23.4 71.65 22.9
L 71.55 22.45 70.9 22.85
Q 70.55 23 70.05 23 69.6 23 69.2 22.75 68.85 22.55 68.6 22.15 68.4 21.8 68.4 21.3
L 71.9 21.3 71.9 21.1
Q 71.9 20.55 71.65 20.05 71.4 19.6 71 19.3 70.5 19.05 69.95 19.05
M 69.1 19.7
Q 69.4 19.45 69.95 19.45 70.5 19.45 71 19.85 71.4 20.25 71.4 20.95
L 68.4 20.95
Q 68.4 20.6 68.6 20.25 68.75 19.95 69.1 19.7 Z"/>
</g>

<g id="IT_300x600_FR_psd_Asset_V6_2_Les_administrateurs_des__TI_prennent_en_charge__plus_d_appareil_0_Layer0_0_MEMBER_57_FILL">
<path fill="#D82C26" stroke="none" d="
M 1.3 30.8
L 0.8 30.8 0.85 34.95 1.35 34.95 1.35 32.9
Q 1.35 32.35 1.5 31.95 1.8 31.45 2 31.35 2.25 31.15 2.65 31.15 3.2 31.15 3.4 31.5 3.7 31.8 3.7 32.5
L 3.7 34.95 4.2 34.95 4.2 32.8
Q 4.2 32.15 4.55 31.6 4.95 31.15 5.5 31.15 6.15 31.15 6.35 31.55 6.6 32.05 6.6 32.6
L 6.6 34.95 7.1 34.95 7.1 32.45
Q 7.1 31.7 6.75 31.2 6.4 30.7 5.6 30.7 5.1 30.7 4.7 30.95 4.3 31.25 4.1 31.75 3.95 31.25 3.65 30.95 3.25 30.7 2.75 30.7 2.3 30.7 1.9 30.95 1.5 31.3 1.35 31.7
L 1.3 31.7 1.3 30.8 Z"/>
</g>

<g id="IT_300x600_FR_psd_Asset_V6_2_Les_administrateurs_des__TI_prennent_en_charge__plus_d_appareil_0_Layer0_0_MEMBER_58_FILL">
<path fill="#D82C26" stroke="none" d="
M 10.95 32.45
L 10.45 32.45
Q 8.1 32.45 8.1 33.85 8.1 34.5 8.5 34.75 8.9 35.05 9.4 35.05 9.95 35.05 10.35 34.85 10.85 34.45 10.95 34.15
L 11 34.15 11 34.55 11.05 34.95 11.5 34.95 11.45 32.25
Q 11.45 31.5 11.05 31.1 10.65 30.7 9.85 30.7
L 9 30.8 8.3 31.2 8.45 31.6 9.1 31.25 9.8 31.1
Q 10.35 31.1 10.65 31.4 10.95 31.7 10.95 32.25
L 10.95 32.45
M 10.95 33.25
Q 10.95 33.6 10.8 33.9 10.65 34.25 10.3 34.45 9.95 34.7 9.5 34.7 9.2 34.7 8.85 34.45 8.6 34.3 8.6 33.8 8.6 32.8 10.55 32.8
L 10.95 32.8 10.95 33.25 Z"/>
</g>

<g id="IT_300x600_FR_psd_Asset_V6_2_Les_administrateurs_des__TI_prennent_en_charge__plus_d_appareil_0_Layer0_0_MEMBER_59_FILL">
<path fill="#D82C26" stroke="none" d="
M 12.8 30.8
L 12.15 30.8 12.05 31.25 12.8 31.25 12.8 33.95
Q 12.8 34.45 13.1 34.75 13.35 35.05 13.8 35.05
L 14.25 35 14.65 34.8 14.6 34.45 13.95 34.6
Q 13.65 34.6 13.5 34.45 13.35 34.25 13.35 33.9
L 13.35 31.25 14.4 31.25 14.5 30.8 13.35 30.8 13.35 29.65 12.8 29.85 12.8 30.8 Z"/>
</g>

<g id="IT_300x600_FR_psd_Asset_V6_2_Les_administrateurs_des__TI_prennent_en_charge__plus_d_appareil_0_Layer0_0_MEMBER_60_FILL">
<path fill="#D82C26" stroke="none" d="
M 18.75 31.7
Q 18.5 31.25 18.1 30.95 17.6 30.7 17.05 30.7 16.5 30.7 16 30.95 15.55 31.25 15.25 31.75 15 32.15 15 32.85 15 33.55 15.25 34 15.55 34.5 16 34.8 16.45 35.05 17.1 35.05 18.1 35.05 18.75 34.55
L 18.65 34.1 18 34.5
Q 17.65 34.65 17.15 34.65 16.7 34.65 16.3 34.4 15.95 34.2 15.7 33.8 15.5 33.45 15.5 32.95
L 19 32.95 19 32.75
Q 19 32.2 18.75 31.7
M 18.1 31.5
Q 18.5 31.9 18.5 32.6
L 15.5 32.6
Q 15.5 32.25 15.7 31.9 15.85 31.6 16.2 31.35 16.5 31.1 17.05 31.1 17.7 31.1 18.1 31.5
M 17.55 28.7
L 16.65 29.95 17.1 29.95 18.15 28.7 17.55 28.7 Z"/>
</g>

<g id="IT_300x600_FR_psd_Asset_V6_2_Les_administrateurs_des__TI_prennent_en_charge__plus_d_appareil_0_Layer0_0_MEMBER_61_FILL">
<path fill="#D82C26" stroke="none" d="
M 20 30.8
L 20 34.95 20.55 34.95 20.55 32.9
Q 20.55 32.2 20.85 31.65 21.15 31.15 21.7 31.15
L 22.1 31.2 22.2 30.75 21.75 30.7
Q 21.4 30.7 21.05 30.95 20.7 31.2 20.55 31.7
L 20.5 31.7 20.45 30.8 20 30.8 Z"/>
</g>

<g id="IT_300x600_FR_psd_Asset_V6_2_Les_administrateurs_des__TI_prennent_en_charge__plus_d_appareil_0_Layer0_0_MEMBER_62_FILL">
<path fill="#D82C26" stroke="none" d="
M 23.4 30.8
L 22.9 30.8 22.9 34.95 23.4 34.95 23.4 30.8
M 22.9 29.45
L 23.15 29.55 23.4 29.45 23.5 29.15 23.4 28.9
Q 23.35 28.8 23.15 28.8
L 22.9 28.9
Q 22.75 29 22.75 29.15
L 22.9 29.45 Z"/>
</g>

<g id="IT_300x600_FR_psd_Asset_V6_2_Les_administrateurs_des__TI_prennent_en_charge__plus_d_appareil_0_Layer0_0_MEMBER_63_FILL">
<path fill="#D82C26" stroke="none" d="
M 24.45 32.85
Q 24.45 33.4 24.7 34 25 34.5 25.45 34.8 25.9 35.05 26.55 35.05 27.55 35.05 28.2 34.55
L 28.1 34.1 27.45 34.5
Q 27.1 34.65 26.6 34.65 26.15 34.65 25.75 34.4 25.4 34.2 25.15 33.8 24.95 33.3 24.95 32.95
L 28.45 32.95 28.45 32.75
Q 28.45 32.1 28.25 31.7 28.05 31.3 27.55 30.95 27.05 30.7 26.5 30.7 25.95 30.7 25.45 30.95 25 31.25 24.7 31.75 24.45 32.25 24.45 32.85
M 24.95 32.6
Q 24.95 32.4 25.15 31.9 25.3 31.6 25.7 31.35 25.95 31.1 26.5 31.1 27.15 31.1 27.55 31.5 27.95 31.9 27.95 32.6
L 24.95 32.6 Z"/>
</g>

<g id="IT_300x600_FR_psd_Asset_V6_2_Les_administrateurs_des__TI_prennent_en_charge__plus_d_appareil_0_Layer0_0_MEMBER_64_FILL">
<path fill="#D82C26" stroke="none" d="
M 29.65 34.7
Q 29.95 35 30.15 35.05
L 30.4 34.6
Q 30.2 34.55 30.1 34.35
L 30 33.9 30 28.2 29.5 28.3 29.5 34.05
Q 29.5 34.4 29.65 34.7 Z"/>
</g>

<g id="IT_300x600_FR_psd_Asset_V6_2_Les_administrateurs_des__TI_prennent_en_charge__plus_d_appareil_0_Layer0_0_MEMBER_65_FILL">
<path fill="#D82C26" stroke="none" d="
M 31.3 36
Q 32.1 35.25 32.1 34.5
L 32 34.1
Q 31.8 34 31.7 34
L 31.45 34.1
Q 31.35 34.2 31.35 34.4 31.35 34.6 31.45 34.65 31.55 34.8 31.7 34.8
L 31.5 35.35 31.1 35.85 31.3 36 Z"/>
</g>

<g id="IT_300x600_FR_psd_Asset_V6_2_Les_administrateurs_des__TI_prennent_en_charge__plus_d_appareil_0_Layer0_0_MEMBER_66_FILL">
<path fill="#D82C26" stroke="none" d="
M 39.1 28.15
L 38.6 28.3 38.6 31.7
Q 38.25 31.2 37.9 30.95 37.4 30.7 36.9 30.7 36.35 30.7 35.8 31 35.35 31.2 35.1 31.75 34.85 32.2 34.85 32.9 34.85 33.55 35.1 34 35.35 34.5 35.8 34.8 36.4 35.05 36.9 35.05 37.55 35.05 37.9 34.8 38.4 34.5 38.6 34.05
L 38.65 34.95 39.15 34.95 39.1 28.15
M 38.6 32.9
Q 38.6 33.4 38.4 33.75 38.15 34.2 37.8 34.4 37.4 34.65 36.95 34.65 36.5 34.65 36.1 34.4 35.8 34.2 35.55 33.75 35.35 33.4 35.35 32.9 35.35 32.35 35.55 32 35.8 31.6 36.1 31.35 36.45 31.15 36.95 31.15 37.45 31.15 37.8 31.35 38.2 31.65 38.4 32 38.6 32.35 38.6 32.9 Z"/>
</g>

<g id="IT_300x600_FR_psd_Asset_V6_2_Les_administrateurs_des__TI_prennent_en_charge__plus_d_appareil_0_Layer0_0_MEMBER_67_FILL">
<path fill="#D82C26" stroke="none" d="
M 43.95 31.7
Q 43.75 31.3 43.25 30.95 42.75 30.7 42.2 30.7 41.65 30.7 41.15 30.95 40.7 31.25 40.4 31.75 40.15 32.25 40.15 32.85 40.15 33.5 40.45 34 40.65 34.5 41.2 34.8 41.6 35.05 42.25 35.05 43.25 35.05 43.9 34.55
L 43.85 34.1
Q 43.45 34.4 43.15 34.5 42.8 34.65 42.3 34.65 41.85 34.65 41.45 34.4 41.05 34.15 40.9 33.8 40.65 33.4 40.65 32.95
L 44.15 32.95 44.15 32.75
Q 44.15 32.1 43.95 31.7
M 43.25 31.5
Q 43.6 31.8 43.7 32.6
L 40.65 32.6 40.85 31.9
Q 41.15 31.5 41.4 31.35 41.65 31.1 42.2 31.1 42.85 31.1 43.25 31.5 Z"/>
</g>

<g id="IT_300x600_FR_psd_Asset_V6_2_Les_administrateurs_des__TI_prennent_en_charge__plus_d_appareil_0_Layer0_0_MEMBER_68_FILL">
<path fill="#D82C26" stroke="none" d="
M 47.15 34.7
Q 47.45 35 47.65 35.05
L 47.9 34.6
Q 47.7 34.55 47.6 34.35
L 47.5 33.9 47.5 28.2 47 28.3 47 34.05
Q 47 34.4 47.15 34.7 Z"/>
</g>

<g id="IT_300x600_FR_psd_Asset_V6_2_Les_administrateurs_des__TI_prennent_en_charge__plus_d_appareil_0_Layer0_0_MEMBER_69_FILL">
<path fill="#D82C26" stroke="none" d="
M 52.7 31.75
Q 52.45 31.3 51.9 30.95 51.3 30.7 50.75 30.7 50.15 30.7 49.65 30.95 49.15 31.25 48.85 31.75 48.55 32.2 48.55 32.9 48.55 33.5 48.85 34 49.15 34.5 49.65 34.8 50.05 35.05 50.75 35.05 51.45 35.05 51.9 34.8 52.45 34.45 52.7 34 52.95 33.4 52.95 32.9 52.95 32.25 52.7 31.75
M 52.25 32
Q 52.45 32.5 52.45 32.9 52.45 33.4 52.25 33.75 52 34.2 51.65 34.4 51.25 34.65 50.75 34.65 50.35 34.65 49.85 34.4 49.45 34.15 49.3 33.75 49.1 33.4 49.1 32.9 49.1 32.35 49.3 32 49.45 31.6 49.85 31.35 50.25 31.15 50.75 31.15 51.3 31.15 51.65 31.35 52 31.55 52.25 32 Z"/>
</g>

<g id="IT_300x600_FR_psd_Asset_V6_2_Les_administrateurs_des__TI_prennent_en_charge__plus_d_appareil_0_Layer0_0_MEMBER_70_FILL">
<path fill="#D82C26" stroke="none" d="
M 58.05 30.8
L 57.55 30.8 57.5 31.75
Q 57.3 31.3 56.8 30.95 56.3 30.7 55.8 30.7 55.2 30.7 54.75 31 54.2 31.3 54 31.8 53.75 32.2 53.75 32.9 53.75 33.6 54 33.95 54.2 34.45 54.75 34.75 55.2 35.05 55.8 35.05 56.35 35.05 56.8 34.75 57.3 34.5 57.5 34
L 57.5 34.9
Q 57.5 35.7 57.1 36.2 56.6 36.7 55.8 36.7 55.35 36.7 54.9 36.55
L 54.1 36.15 54 36.6
Q 54.5 36.9 54.85 37 55.15 37.1 55.8 37.1 57 37.1 57.5 36.5 58 35.95 58 34.9
L 58.05 30.8
M 54.45 32
L 55 31.35
Q 55.35 31.15 55.9 31.15 56.35 31.15 56.7 31.35 57.05 31.55 57.3 32 57.5 32.35 57.5 32.85 57.5 33.4 57.3 33.75 57.1 34.15 56.7 34.35 56.4 34.6 55.9 34.6 55.3 34.6 55 34.35 54.65 34.1 54.45 33.75 54.25 33.35 54.25 32.9 54.25 32.35 54.45 32 Z"/>
</g>

<g id="IT_300x600_FR_psd_Asset_V6_2_Les_administrateurs_des__TI_prennent_en_charge__plus_d_appareil_0_Layer0_0_MEMBER_71_FILL">
<path fill="#D82C26" stroke="none" d="
M 59.85 30.8
L 59.35 30.8 59.35 34.95 59.85 34.95 59.85 30.8
M 59.95 29.15
L 59.85 28.9
Q 59.8 28.8 59.6 28.8
L 59.35 28.9
Q 59.2 29 59.2 29.15
L 59.35 29.45 59.6 29.55 59.85 29.45 59.95 29.15 Z"/>
</g>

<g id="IT_300x600_FR_psd_Asset_V6_2_Les_administrateurs_des__TI_prennent_en_charge__plus_d_appareil_0_Layer0_0_MEMBER_72_FILL">
<path fill="#D82C26" stroke="none" d="
M 63.85 30.8
L 63.05 30.7
Q 62.45 30.7 61.95 30.95 61.45 31.25 61.15 31.75 60.9 32.2 60.9 32.9 60.9 33.65 61.15 34 61.45 34.5 61.9 34.8 62.35 35.05 63.05 35.05 63.6 35.05 63.85 34.95 64.2 34.8 64.45 34.55
L 64.35 34.15 63.8 34.5
Q 63.6 34.6 63.1 34.6 62.55 34.6 62.2 34.4 61.85 34.2 61.6 33.75 61.4 33.25 61.4 32.9 61.4 32.5 61.6 32 61.8 31.65 62.2 31.35 62.55 31.15 63.05 31.15 63.5 31.15 63.7 31.25
L 64.25 31.6 64.45 31.2
Q 64.2 30.95 63.85 30.8 Z"/>
</g>

<g id="IT_300x600_FR_psd_Asset_V6_2_Les_administrateurs_des__TI_prennent_en_charge__plus_d_appareil_0_Layer0_0_MEMBER_73_FILL">
<path fill="#D82C26" stroke="none" d="
M 65.5 29.55
L 65.8 29.45 65.9 29.15 65.8 28.9
Q 65.7 28.8 65.5 28.8
L 65.25 28.9 65.15 29.15 65.25 29.45 65.5 29.55
M 65.8 30.8
L 65.25 30.8 65.25 34.95 65.8 34.95 65.8 30.8 Z"/>
</g>

<g id="IT_300x600_FR_psd_Asset_V6_2_Les_administrateurs_des__TI_prennent_en_charge__plus_d_appareil_0_Layer0_0_MEMBER_74_FILL">
<path fill="#D82C26" stroke="none" d="
M 70.6 31.7
Q 70.35 31.25 69.95 30.95 69.45 30.7 68.9 30.7 68.35 30.7 67.85 30.95 67.4 31.2 67.1 31.75 66.85 32.15 66.85 32.85 66.85 33.55 67.1 34 67.4 34.5 67.85 34.8 68.3 35.05 68.95 35.05 69.95 35.05 70.6 34.55
L 70.5 34.1 69.85 34.5
Q 69.4 34.65 69 34.65 68.55 34.65 68.15 34.4 67.8 34.2 67.55 33.8 67.35 33.45 67.35 32.95
L 70.85 32.95 70.85 32.75
Q 70.85 32.2 70.6 31.7
M 69.95 31.5
Q 70.35 31.9 70.35 32.6
L 67.35 32.6
Q 67.35 32.25 67.55 31.9 67.7 31.6 68.05 31.35 68.35 31.1 68.9 31.1 69.45 31.1 69.95 31.5 Z"/>
</g>

<g id="IT_300x600_FR_psd_Asset_V6_2_Les_administrateurs_des__TI_prennent_en_charge__plus_d_appareil_0_Layer0_0_MEMBER_75_FILL">
<path fill="#D82C26" stroke="none" d="
M 72.05 34.7
Q 72.35 35 72.55 35.05
L 72.8 34.6
Q 72.6 34.55 72.5 34.35 72.4 34.25 72.4 33.9
L 72.4 28.2 71.85 28.3 71.85 34.05
Q 71.85 34.3 72.05 34.7 Z"/>
</g>

<g id="IT_300x600_FR_psd_Asset_V6_2_Les_administrateurs_des__TI_prennent_en_charge__plus_d_appareil_0_Layer0_0_MEMBER_76_FILL">
<path fill="#D82C26" stroke="none" d="
M 74.95 30.7
L 74.3 30.8 73.8 31.2
Q 73.6 31.45 73.6 31.85 73.6 32.35 73.9 32.55
L 74.8 33
Q 75.3 33.1 75.65 33.4 75.9 33.55 75.9 33.9 75.9 34.2 75.65 34.45 75.4 34.65 75 34.65 74.15 34.65 73.6 34.15
L 73.5 34.6 74.15 34.95 75 35.05 75.7 34.95
Q 76.05 34.75 76.2 34.5 76.4 34.3 76.4 33.85 76.4 33.4 76.1 33.15 75.85 32.9 75.15 32.65
L 74.3 32.3
Q 74.1 32.1 74.1 31.8 74.1 31.45 74.35 31.3 74.55 31.1 75 31.1
L 75.55 31.2 76.05 31.5 76.3 31.15
Q 76.1 30.95 75.7 30.8
L 74.95 30.7 Z"/>
</g>

<g id="IT_300x600_FR_psd_Asset_V6_2_Les_administrateurs_des__TI_prennent_en_charge__plus_d_appareil_0_Layer0_0_MEMBER_77_FILL">
<path fill="#D82C26" stroke="none" d="
M 2.55 42.35
Q 2 42.35 1.5 42.6 1.05 42.9 0.75 43.4 0.5 43.9 0.5 44.5 0.5 45.05 0.75 45.65 1.05 46.15 1.5 46.45 1.95 46.7 2.6 46.7 3.6 46.7 4.25 46.2
L 4.15 45.75 3.5 46.15
Q 3.15 46.3 2.65 46.3 2.2 46.3 1.8 46.05 1.45 45.85 1.2 45.45 1 44.95 1 44.6
L 4.5 44.6 4.5 44.4
Q 4.5 43.75 4.3 43.35 4.1 42.95 3.6 42.6 3.1 42.35 2.55 42.35
M 2.55 42.75
Q 3.2 42.75 3.6 43.15 4 43.55 4 44.25
L 1 44.25
Q 1 44.05 1.2 43.55 1.5 43.15 1.75 43 2 42.75 2.55 42.75 Z"/>
</g>

<g id="IT_300x600_FR_psd_Asset_V6_2_Les_administrateurs_des__TI_prennent_en_charge__plus_d_appareil_0_Layer0_0_MEMBER_78_FILL">
<path fill="#D82C26" stroke="none" d="
M 5.6 41.5
L 5.6 42.45 4.95 42.45 4.85 42.9 5.65 42.9 5.65 45.6
Q 5.65 46.15 5.9 46.4 6.15 46.7 6.6 46.7
L 7.05 46.65 7.5 46.45 7.4 46.1 6.75 46.25
Q 6.45 46.25 6.3 46.1 6.15 45.9 6.15 45.55
L 6.15 42.9 7.2 42.9 7.3 42.45 6.15 42.45 6.15 41.3 5.6 41.5 Z"/>
</g>

<g id="IT_300x600_FR_psd_Asset_V6_2_Les_administrateurs_des__TI_prennent_en_charge__plus_d_appareil_0_Layer0_0_MEMBER_79_FILL">
<path fill="#D82C26" stroke="none" d="
M 9.6 44.55
Q 9.6 45.2 9.85 45.65 10.1 46.15 10.6 46.45 11.1 46.7 11.65 46.7 12.3 46.7 12.65 46.45 13.15 46.15 13.35 45.7
L 13.4 46.6 13.9 46.6 13.85 39.8 13.35 39.95 13.35 43.35
Q 13 42.85 12.65 42.6 12.15 42.35 11.65 42.35 11.05 42.35 10.6 42.65 10.1 42.85 9.85 43.4 9.6 43.85 9.6 44.55
M 11.75 42.8
Q 12.2 42.8 12.55 43 12.95 43.3 13.15 43.65 13.35 44 13.35 44.55 13.35 45.05 13.15 45.4 12.9 45.85 12.55 46.05 12.15 46.3 11.75 46.3 11.25 46.3 10.85 46.05 10.55 45.85 10.3 45.4 10.1 45.05 10.1 44.55 10.1 44 10.3 43.65 10.55 43.25 10.85 43 11.2 42.8 11.75 42.8 Z"/>
</g>

<g id="IT_300x600_FR_psd_Asset_V6_2_Les_administrateurs_des__TI_prennent_en_charge__plus_d_appareil_0_Layer0_0_MEMBER_80_FILL">
<path fill="#D82C26" stroke="none" d="
M 15.95 40.5
Q 15.9 40.35 15.7 40.35
L 15.4 40.45 15.3 40.75 15.4 41.05 15.65 41.15
Q 15.65 41.4 15.45 41.7
L 15.1 42.2 15.3 42.35
Q 16.1 41.55 16.1 40.85 16.1 40.6 15.95 40.5 Z"/>
</g>

<g id="IT_300x600_FR_psd_Asset_V6_2_Les_administrateurs_des__TI_prennent_en_charge__plus_d_appareil_0_Layer0_0_MEMBER_81_FILL">
<path fill="#D82C26" stroke="none" d="
M 17.95 42.45
L 17.45 42.45 17.45 46.6 17.95 46.6 17.95 42.45
M 17.45 41.1
L 17.7 41.2 17.95 41.1 18.05 40.8 17.95 40.55
Q 17.9 40.45 17.7 40.45
L 17.45 40.55
Q 17.3 40.65 17.3 40.8
L 17.45 41.1 Z"/>
</g>

<g id="IT_300x600_FR_psd_Asset_V6_2_Les_administrateurs_des__TI_prennent_en_charge__plus_d_appareil_0_Layer0_0_MEMBER_82_FILL">
<path fill="#D82C26" stroke="none" d="
M 19.25 42.45
L 19.3 46.6 19.8 46.6 19.8 44.5
Q 19.8 43.95 20 43.55 20.15 43.15 20.5 43 20.75 42.8 21.2 42.8 21.8 42.8 22.05 43.2 22.3 43.6 22.3 44.2
L 22.3 46.6 22.8 46.6 22.8 44.1
Q 22.8 43.25 22.45 42.85 22.1 42.35 21.3 42.35 20.8 42.35 20.4 42.6 19.95 42.9 19.8 43.35
L 19.75 43.35 19.75 42.45 19.25 42.45 Z"/>
</g>

<g id="IT_300x600_FR_psd_Asset_V6_2_Les_administrateurs_des__TI_prennent_en_charge__plus_d_appareil_0_Layer0_0_MEMBER_83_FILL">
<path fill="#D82C26" stroke="none" d="
M 26.3 39.9
L 25.55 39.8
Q 25 39.8 24.6 40.2 24.3 40.5 24.3 41.25
L 24.3 42.45 23.55 42.45 23.4 42.9 24.3 42.9 24.3 46.6 24.8 46.6 24.8 42.9 25.75 42.9 25.9 42.45 24.8 42.45 24.8 41.3
Q 24.8 40.8 25 40.55 25.15 40.25 25.6 40.25 26.05 40.25 26.25 40.35
L 26.3 39.9 Z"/>
</g>

<g id="IT_300x600_FR_psd_Asset_V6_2_Les_administrateurs_des__TI_prennent_en_charge__plus_d_appareil_0_Layer0_0_MEMBER_84_FILL">
<path fill="#D82C26" stroke="none" d="
M 27.05 42.45
L 26.6 42.45 26.6 46.6 27.15 46.6 27.15 44.55
Q 27.15 43.85 27.45 43.3 27.75 42.8 28.3 42.8
L 28.7 42.85 28.8 42.4 28.35 42.35
Q 28 42.35 27.65 42.6 27.3 42.85 27.15 43.35
L 27.1 43.35 27.05 42.45 Z"/>
</g>

<g id="IT_300x600_FR_psd_Asset_V6_2_Les_administrateurs_des__TI_prennent_en_charge__plus_d_appareil_0_Layer0_0_MEMBER_85_FILL">
<path fill="#D82C26" stroke="none" d="
M 29.2 45.5
Q 29.2 46.1 29.55 46.4 29.95 46.7 30.5 46.7 31.05 46.7 31.4 46.5 31.85 46.2 32.05 45.8
L 32.1 46.2 32.1 46.6 32.6 46.6 32.55 43.9
Q 32.55 43.15 32.1 42.75 31.75 42.35 30.95 42.35
L 30.1 42.45 29.4 42.85 29.55 43.25
Q 29.75 43.05 30.15 42.9
L 30.85 42.75
Q 31.4 42.75 31.75 43.05 32.05 43.35 32.05 43.9
L 32.05 44.1 31.55 44.1
Q 29.2 44.1 29.2 45.5
M 29.95 46.1
Q 29.65 45.95 29.65 45.45 29.65 44.45 31.6 44.45
L 32.05 44.45 32.05 44.9
Q 32.05 45.25 31.9 45.55 31.7 45.85 31.4 46.1 31 46.35 30.6 46.35 30.2 46.35 29.95 46.1 Z"/>
</g>

<g id="IT_300x600_FR_psd_Asset_V6_2_Les_administrateurs_des__TI_prennent_en_charge__plus_d_appareil_0_Layer0_0_MEMBER_86_FILL">
<path fill="#D82C26" stroke="none" d="
M 36.25 42.8
Q 36.05 42.6 35.65 42.45
L 34.9 42.35 34.25 42.45 33.75 42.85
Q 33.55 43.1 33.55 43.5 33.55 44 33.85 44.2
L 34.7 44.65
Q 35.25 44.8 35.6 45.05 35.85 45.2 35.85 45.55 35.85 45.85 35.6 46.1 35.35 46.3 34.95 46.3 34.1 46.3 33.55 45.8
L 33.45 46.25 34.1 46.6 34.95 46.7 35.65 46.6
Q 35.9 46.45 36.15 46.15 36.35 45.95 36.35 45.5 36.35 45.05 36.05 44.8 35.8 44.55 35.1 44.3
L 34.25 43.95
Q 34.05 43.75 34.05 43.45 34.05 43.1 34.3 42.95 34.5 42.75 34.95 42.75
L 35.5 42.85 36 43.15 36.25 42.8 Z"/>
</g>

<g id="IT_300x600_FR_psd_Asset_V6_2_Les_administrateurs_des__TI_prennent_en_charge__plus_d_appareil_0_Layer0_0_MEMBER_87_FILL">
<path fill="#D82C26" stroke="none" d="
M 37.6 41.5
L 37.6 42.45 36.95 42.45 36.85 42.9 37.6 42.9 37.6 45.6
Q 37.6 46.05 37.85 46.4 38.15 46.7 38.6 46.7
L 39.05 46.65 39.45 46.45 39.4 46.1 38.75 46.25
Q 38.45 46.25 38.3 46.1 38.15 45.9 38.15 45.55
L 38.15 42.9 39.2 42.9 39.3 42.45 38.15 42.45 38.15 41.3 37.6 41.5 Z"/>
</g>

<g id="IT_300x600_FR_psd_Asset_V6_2_Les_administrateurs_des__TI_prennent_en_charge__plus_d_appareil_0_Layer0_0_MEMBER_88_FILL">
<path fill="#D82C26" stroke="none" d="
M 41.05 43.3
Q 41.35 42.8 41.9 42.8
L 42.25 42.85 42.35 42.4 41.95 42.35
Q 41.6 42.35 41.2 42.6 40.85 43 40.7 43.35
L 40.65 42.45 40.15 42.45 40.2 46.6 40.75 46.6 40.75 44.55
Q 40.75 43.85 41.05 43.3 Z"/>
</g>

<g id="IT_300x600_FR_psd_Asset_V6_2_Les_administrateurs_des__TI_prennent_en_charge__plus_d_appareil_0_Layer0_0_MEMBER_89_FILL">
<path fill="#D82C26" stroke="none" d="
M 46.55 42.45
L 46.05 42.45 46.05 44.55
Q 46.05 45.1 45.85 45.45 45.7 45.9 45.35 46.1 44.95 46.3 44.65 46.3 44.05 46.3 43.8 45.9 43.55 45.4 43.55 44.85
L 43.55 42.45 43.05 42.45 43.05 45
Q 43.05 45.8 43.4 46.2 43.75 46.7 44.55 46.7 44.95 46.7 45.45 46.45 45.9 46.15 46.05 45.7
L 46.15 46.6 46.65 46.6 46.55 45.65 46.55 42.45 Z"/>
</g>

<g id="IT_300x600_FR_psd_Asset_V6_2_Les_administrateurs_des__TI_prennent_en_charge__plus_d_appareil_0_Layer0_0_MEMBER_90_FILL">
<path fill="#D82C26" stroke="none" d="
M 49.8 42.35
Q 49.25 42.35 48.65 42.6 48.2 42.9 47.9 43.4 47.6 43.95 47.6 44.55 47.6 45.2 47.9 45.65 48.1 46.05 48.65 46.45 49.1 46.7 49.75 46.7 50.3 46.7 50.55 46.6
L 51.2 46.2 51.1 45.8 50.5 46.15
Q 50.3 46.25 49.8 46.25 49.3 46.25 48.95 46.05 48.6 45.85 48.35 45.4 48.15 45.05 48.15 44.55 48.15 44 48.35 43.65 48.55 43.3 48.95 43 49.3 42.8 49.8 42.8 50.2 42.8 50.45 42.9 50.85 43.1 50.95 43.25
L 51.2 42.85 50.55 42.45 49.8 42.35 Z"/>
</g>

<g id="IT_300x600_FR_psd_Asset_V6_2_Les_administrateurs_des__TI_prennent_en_charge__plus_d_appareil_0_Layer0_0_MEMBER_91_FILL">
<path fill="#D82C26" stroke="none" d="
M 52.9 42.45
L 52.9 41.3 52.4 41.5 52.4 42.45 51.75 42.45 51.6 42.9 52.4 42.9 52.4 45.6
Q 52.4 46.05 52.65 46.4 52.95 46.7 53.35 46.7
L 53.85 46.65 54.25 46.45 54.15 46.1
Q 53.85 46.25 53.5 46.25 53.25 46.25 53.1 46.1 52.9 45.9 52.9 45.55
L 52.9 42.9 54 42.9 54.1 42.45 52.9 42.45 Z"/>
</g>

<g id="IT_300x600_FR_psd_Asset_V6_2_Les_administrateurs_des__TI_prennent_en_charge__plus_d_appareil_0_Layer0_0_MEMBER_92_FILL">
<path fill="#D82C26" stroke="none" d="
M 58.4 42.45
L 57.9 42.45 57.9 44.55
Q 57.9 45.1 57.7 45.45 57.55 45.9 57.2 46.1 56.8 46.3 56.5 46.3 55.9 46.3 55.65 45.9 55.4 45.4 55.4 44.85
L 55.4 42.45 54.9 42.45 54.9 45
Q 54.9 45.8 55.25 46.2 55.6 46.7 56.4 46.7 56.8 46.7 57.3 46.45 57.75 46.15 57.9 45.7
L 58 46.6 58.5 46.6 58.4 45.65 58.4 42.45 Z"/>
</g>

<g id="IT_300x600_FR_psd_Asset_V6_2_Les_administrateurs_des__TI_prennent_en_charge__plus_d_appareil_0_Layer0_0_MEMBER_93_FILL">
<path fill="#D82C26" stroke="none" d="
M 59.7 42.45
L 59.75 46.6 60.3 46.6 60.3 44.55
Q 60.3 43.85 60.6 43.3 60.9 42.8 61.45 42.8
L 61.8 42.85 61.9 42.4 61.5 42.35
Q 61.15 42.35 60.75 42.6 60.5 42.85 60.25 43.35
L 60.2 42.45 59.7 42.45 Z"/>
</g>

<g id="IT_300x600_FR_psd_Asset_V6_2_Les_administrateurs_des__TI_prennent_en_charge__plus_d_appareil_0_Layer0_0_MEMBER_94_FILL">
<path fill="#D82C26" stroke="none" d="
M 64.2 42.35
Q 63.65 42.35 63.15 42.6 62.7 42.9 62.4 43.4 62.15 43.9 62.15 44.5 62.15 45.05 62.4 45.65 62.7 46.15 63.15 46.45 63.6 46.7 64.25 46.7 65.25 46.7 65.9 46.2
L 65.8 45.75 65.15 46.15
Q 64.8 46.3 64.3 46.3 63.85 46.3 63.45 46.05 63.1 45.85 62.85 45.45 62.65 45.1 62.65 44.6
L 66.15 44.6 66.15 44.4
Q 66.15 43.75 65.95 43.35 65.6 42.85 65.25 42.6 64.75 42.35 64.2 42.35
M 64.2 42.75
Q 64.85 42.75 65.25 43.15 65.65 43.55 65.65 44.25
L 62.65 44.25
Q 62.65 44.05 62.85 43.55 63 43.25 63.4 43 63.65 42.75 64.2 42.75 Z"/>
</g>

<g id="IT_300x600_FR_psd_Asset_V6_2_Les_administrateurs_des__TI_prennent_en_charge__plus_d_appareil_0_Layer0_0_MEMBER_95_FILL">
<path fill="#D82C26" stroke="none" d="
M 67.65 42.45
Q 67.3 42.65 67.15 42.85 66.95 43.1 66.95 43.5 66.95 43.95 67.2 44.2
L 68.1 44.65
Q 68.65 44.8 69 45.05 69.25 45.2 69.25 45.55 69.25 45.9 68.95 46.1 68.75 46.3 68.3 46.3 67.45 46.3 66.95 45.8
L 66.85 46.25
Q 67 46.4 67.5 46.6
L 68.35 46.7 69 46.6
Q 69.3 46.5 69.55 46.15 69.75 45.85 69.75 45.5 69.75 45.05 69.45 44.8 69.1 44.5 68.45 44.3
L 67.65 43.95
Q 67.4 43.7 67.4 43.45 67.4 43.1 67.65 42.95 67.9 42.75 68.3 42.75
L 68.9 42.85 69.4 43.15 69.6 42.8 69.05 42.45 68.3 42.35 67.65 42.45 Z"/>
</g>

<g id="IT_300x600_FR_psd_Asset_V6_2_Les_administrateurs_des__TI_prennent_en_charge__plus_d_appareil_0_Layer0_0_MEMBER_96_FILL">
<path fill="#D82C26" stroke="none" d="
M 4.75 51.45
L 4.25 51.6 4.25 55
Q 4.05 54.6 3.55 54.25 3.05 54 2.55 54 1.95 54 1.5 54.3 1.15 54.45 0.75 55.05 0.5 55.65 0.5 56.2 0.5 56.7 0.75 57.3 1.15 57.9 1.5 58.1 2 58.35 2.55 58.35 3.2 58.35 3.55 58.1 4.05 57.8 4.25 57.35
L 4.3 57.35 4.3 58.25 4.8 58.25 4.75 51.45
M 1.2 55.3
Q 1.4 54.95 1.8 54.65 2.05 54.45 2.65 54.45 3.15 54.45 3.5 54.65 3.95 55 4.05 55.3 4.3 55.7 4.3 56.2 4.3 56.65 4.05 57.05 3.9 57.45 3.5 57.7 3.1 57.95 2.65 57.95 2.15 57.95 1.8 57.7 1.4 57.45 1.2 57.05 1 56.55 1 56.2 1 55.8 1.2 55.3 Z"/>
</g>

<g id="IT_300x600_FR_psd_Asset_V6_2_Les_administrateurs_des__TI_prennent_en_charge__plus_d_appareil_0_Layer0_0_MEMBER_97_FILL">
<path fill="#D82C26" stroke="none" d="
M 6.8 54.25
Q 6.3 54.6 6.1 55.05 5.8 55.5 5.8 56.15 5.8 56.8 6.1 57.3 6.3 57.7 6.85 58.1 7.25 58.35 7.95 58.35 8.95 58.35 9.6 57.85
L 9.5 57.4 8.85 57.8
Q 8.4 57.95 8 57.95 7.55 57.95 7.15 57.7 6.8 57.5 6.55 57.1 6.4 56.85 6.3 56.25
L 9.85 56.25 9.85 56.05
Q 9.85 55.5 9.6 55 9.35 54.55 8.95 54.25 8.45 54 7.85 54 7.4 54 6.8 54.25
M 7.85 54.4
Q 8.45 54.4 8.95 54.8 9.35 55.2 9.35 55.9
L 6.35 55.9
Q 6.35 55.55 6.55 55.2 6.75 54.85 7.05 54.65 7.35 54.4 7.85 54.4 Z"/>
</g>

<g id="IT_300x600_FR_psd_Asset_V6_2_Les_administrateurs_des__TI_prennent_en_charge__plus_d_appareil_0_Layer0_0_MEMBER_98_FILL">
<path fill="#D82C26" stroke="none" d="
M 13.65 54.25
Q 13.4 54.5 13.15 55
L 13.1 54.1 12.6 54.1 12.65 58.25 13.2 58.25 13.2 56.2
Q 13.2 55.5 13.5 54.95 13.8 54.45 14.35 54.45
L 14.7 54.5 14.8 54.05 14.4 54
Q 14.05 54 13.65 54.25 Z"/>
</g>

<g id="IT_300x600_FR_psd_Asset_V6_2_Les_administrateurs_des__TI_prennent_en_charge__plus_d_appareil_0_Layer0_0_MEMBER_99_FILL">
<path fill="#D82C26" stroke="none" d="
M 16.75 53.25
L 17.15 53.25 18.25 52 17.65 52 16.75 53.25
M 17.1 54
Q 16.55 54 16.05 54.25 15.6 54.55 15.3 55.05 15.05 55.55 15.05 56.15 15.05 56.7 15.3 57.3 15.6 57.8 16.05 58.1 16.5 58.35 17.15 58.35 18.15 58.35 18.8 57.85
L 18.7 57.4 18.05 57.8
Q 17.7 57.95 17.2 57.95 16.75 57.95 16.35 57.7 16 57.5 15.75 57.1 15.55 56.75 15.55 56.25
L 19.05 56.25 19.05 56.05
Q 19.05 55.4 18.85 55 18.5 54.5 18.15 54.25 17.65 54 17.1 54
M 15.75 55.2
Q 15.9 54.9 16.3 54.65 16.55 54.4 17.1 54.4 17.75 54.4 18.15 54.8 18.55 55.2 18.55 55.9
L 15.55 55.9
Q 15.55 55.7 15.75 55.2 Z"/>
</g>

<g id="IT_300x600_FR_psd_Asset_V6_2_Les_administrateurs_des__TI_prennent_en_charge__plus_d_appareil_0_Layer0_0_MEMBER_100_FILL">
<path fill="#D82C26" stroke="none" d="
M 21.2 54
L 20.55 54.1
Q 20.2 54.3 20.05 54.5 19.85 54.75 19.85 55.15 19.85 55.6 20.1 55.85
L 21 56.3
Q 21.55 56.45 21.9 56.7 22.15 56.85 22.15 57.2 22.15 57.55 21.85 57.75 21.65 57.95 21.2 57.95 20.35 57.95 19.85 57.45
L 19.75 57.9
Q 19.9 58.05 20.4 58.25
L 21.25 58.35 21.9 58.25
Q 22.2 58.15 22.45 57.8 22.65 57.5 22.65 57.15 22.65 56.7 22.35 56.45 22.1 56.2 21.35 55.95
L 20.55 55.6
Q 20.3 55.35 20.3 55.1 20.3 54.75 20.6 54.6 20.8 54.4 21.2 54.4
L 21.8 54.5 22.3 54.8 22.5 54.45 21.95 54.1 21.2 54 Z"/>
</g>

<g id="IT_300x600_FR_psd_Asset_V6_2_Les_administrateurs_des__TI_prennent_en_charge__plus_d_appareil_0_Layer0_0_MEMBER_101_FILL">
<path fill="#D82C26" stroke="none" d="
M 26.45 54.25
Q 25.95 54 25.4 54 24.85 54 24.35 54.25 23.9 54.55 23.6 55.05 23.35 55.55 23.35 56.15 23.35 56.7 23.6 57.3 23.9 57.8 24.35 58.1 24.8 58.35 25.45 58.35 26.45 58.35 27.1 57.85
L 27.05 57.4 26.35 57.8
Q 26 57.95 25.5 57.95 25.05 57.95 24.65 57.7 24.3 57.5 24.05 57.1 23.85 56.6 23.85 56.25
L 27.35 56.25 27.35 56.05
Q 27.35 55.4 27.15 55 26.95 54.6 26.45 54.25
M 25.4 54.4
Q 26.05 54.4 26.45 54.8 26.85 55.2 26.85 55.9
L 23.85 55.9
Q 23.85 55.7 24.05 55.2 24.35 54.8 24.6 54.65 24.85 54.4 25.4 54.4 Z"/>
</g>

<g id="IT_300x600_FR_psd_Asset_V6_2_Les_administrateurs_des__TI_prennent_en_charge__plus_d_appareil_0_Layer0_0_MEMBER_102_FILL">
<path fill="#D82C26" stroke="none" d="
M 31.4 55.55
Q 31.4 54.8 31 54.4 30.6 54 29.8 54
L 28.95 54.1 28.25 54.5 28.4 54.9 29.05 54.55 29.75 54.4
Q 30.3 54.4 30.6 54.7 30.9 55 30.9 55.55
L 30.9 55.75 30.4 55.75
Q 28.05 55.75 28.05 57.15 28.05 57.8 28.45 58.05 28.85 58.35 29.35 58.35 29.9 58.35 30.3 58.15 30.8 57.75 30.9 57.45
L 30.95 57.45 30.95 57.85 31 58.25 31.45 58.25 31.4 55.55
M 30.9 56.55
Q 30.9 56.9 30.75 57.2 30.6 57.55 30.25 57.75 29.9 58 29.45 58 29.15 58 28.8 57.75 28.55 57.6 28.55 57.1 28.55 56.1 30.5 56.1
L 30.9 56.1 30.9 56.55 Z"/>
</g>

<g id="IT_300x600_FR_psd_Asset_V6_2_Les_administrateurs_des__TI_prennent_en_charge__plus_d_appareil_0_Layer0_0_MEMBER_103_FILL">
<path fill="#D82C26" stroke="none" d="
M 36.15 54.1
L 35.65 54.1 35.65 56.2
Q 35.65 56.6 35.45 57.1 35.35 57.45 34.95 57.75 34.55 57.95 34.25 57.95 33.65 57.95 33.4 57.55 33.15 57.2 33.15 56.5
L 33.15 54.1 32.6 54.1 32.6 56.65
Q 32.6 57.35 33 57.85 33.3 58.35 34.1 58.35 34.55 58.35 35.05 58.1 35.45 57.8 35.65 57.35
L 35.7 58.25 36.2 58.25 36.15 54.1 Z"/>
</g>
</defs>

<g transform="matrix( 1, 0, 0, 1, -156,26) ">
<g transform="matrix( 1, 0, 0, 1, 150,0) ">
<g transform="matrix( 1, 0, 0, 1, 30,12) ">
<g transform="matrix( 2.815704345703125, 0, 0, 2.832611083984375, 0.15,19.6) ">
<use xlink:href="#IT_300x600_FR_psd_Asset_V6_2_Les_administrateurs_des__TI_prennent_en_charge__plus_d_appareil_0_Layer0_0_MEMBER_0_FILL"/>
</g>

<g transform="matrix( 2.815704345703125, 0, 0, 2.832611083984375, 0.15,19.6) ">
<use xlink:href="#IT_300x600_FR_psd_Asset_V6_2_Les_administrateurs_des__TI_prennent_en_charge__plus_d_appareil_0_Layer0_0_MEMBER_1_FILL"/>
</g>

<g transform="matrix( 2.815704345703125, 0, 0, 2.832611083984375, 0.15,19.6) ">
<use xlink:href="#IT_300x600_FR_psd_Asset_V6_2_Les_administrateurs_des__TI_prennent_en_charge__plus_d_appareil_0_Layer0_0_MEMBER_2_FILL"/>
</g>

<g transform="matrix( 2.815704345703125, 0, 0, 2.832611083984375, 0.15,19.6) ">
<use xlink:href="#IT_300x600_FR_psd_Asset_V6_2_Les_administrateurs_des__TI_prennent_en_charge__plus_d_appareil_0_Layer0_0_MEMBER_3_FILL"/>
</g>

<g transform="matrix( 2.815704345703125, 0, 0, 2.832611083984375, 0.15,19.6) ">
<use xlink:href="#IT_300x600_FR_psd_Asset_V6_2_Les_administrateurs_des__TI_prennent_en_charge__plus_d_appareil_0_Layer0_0_MEMBER_4_FILL"/>
</g>

<g transform="matrix( 2.815704345703125, 0, 0, 2.832611083984375, 0.15,19.6) ">
<use xlink:href="#IT_300x600_FR_psd_Asset_V6_2_Les_administrateurs_des__TI_prennent_en_charge__plus_d_appareil_0_Layer0_0_MEMBER_5_FILL"/>
</g>

<g transform="matrix( 2.815704345703125, 0, 0, 2.832611083984375, 0.15,19.6) ">
<use xlink:href="#IT_300x600_FR_psd_Asset_V6_2_Les_administrateurs_des__TI_prennent_en_charge__plus_d_appareil_0_Layer0_0_MEMBER_6_FILL"/>
</g>

<g transform="matrix( 2.815704345703125, 0, 0, 2.832611083984375, 0.15,19.6) ">
<use xlink:href="#IT_300x600_FR_psd_Asset_V6_2_Les_administrateurs_des__TI_prennent_en_charge__plus_d_appareil_0_Layer0_0_MEMBER_7_FILL"/>
</g>

<g transform="matrix( 2.815704345703125, 0, 0, 2.832611083984375, 0.15,19.6) ">
<use xlink:href="#IT_300x600_FR_psd_Asset_V6_2_Les_administrateurs_des__TI_prennent_en_charge__plus_d_appareil_0_Layer0_0_MEMBER_8_FILL"/>
</g>

<g transform="matrix( 2.815704345703125, 0, 0, 2.832611083984375, 0.15,19.6) ">
<use xlink:href="#IT_300x600_FR_psd_Asset_V6_2_Les_administrateurs_des__TI_prennent_en_charge__plus_d_appareil_0_Layer0_0_MEMBER_9_FILL"/>
</g>

<g transform="matrix( 2.815704345703125, 0, 0, 2.832611083984375, 0.15,19.6) ">
<use xlink:href="#IT_300x600_FR_psd_Asset_V6_2_Les_administrateurs_des__TI_prennent_en_charge__plus_d_appareil_0_Layer0_0_MEMBER_10_FILL"/>
</g>

<g transform="matrix( 2.815704345703125, 0, 0, 2.832611083984375, 0.15,19.6) ">
<use xlink:href="#IT_300x600_FR_psd_Asset_V6_2_Les_administrateurs_des__TI_prennent_en_charge__plus_d_appareil_0_Layer0_0_MEMBER_11_FILL"/>
</g>

<g transform="matrix( 2.815704345703125, 0, 0, 2.832611083984375, 0.15,19.6) ">
<use xlink:href="#IT_300x600_FR_psd_Asset_V6_2_Les_administrateurs_des__TI_prennent_en_charge__plus_d_appareil_0_Layer0_0_MEMBER_12_FILL"/>
</g>

<g transform="matrix( 2.815704345703125, 0, 0, 2.832611083984375, 0.15,19.6) ">
<use xlink:href="#IT_300x600_FR_psd_Asset_V6_2_Les_administrateurs_des__TI_prennent_en_charge__plus_d_appareil_0_Layer0_0_MEMBER_13_FILL"/>
</g>

<g transform="matrix( 2.815704345703125, 0, 0, 2.832611083984375, 0.15,19.6) ">
<use xlink:href="#IT_300x600_FR_psd_Asset_V6_2_Les_administrateurs_des__TI_prennent_en_charge__plus_d_appareil_0_Layer0_0_MEMBER_14_FILL"/>
</g>

<g transform="matrix( 2.815704345703125, 0, 0, 2.832611083984375, 0.15,19.6) ">
<use xlink:href="#IT_300x600_FR_psd_Asset_V6_2_Les_administrateurs_des__TI_prennent_en_charge__plus_d_appareil_0_Layer0_0_MEMBER_15_FILL"/>
</g>

<g transform="matrix( 2.815704345703125, 0, 0, 2.832611083984375, 0.15,19.6) ">
<use xlink:href="#IT_300x600_FR_psd_Asset_V6_2_Les_administrateurs_des__TI_prennent_en_charge__plus_d_appareil_0_Layer0_0_MEMBER_16_FILL"/>
</g>

<g transform="matrix( 2.815704345703125, 0, 0, 2.832611083984375, 0.15,19.6) ">
<use xlink:href="#IT_300x600_FR_psd_Asset_V6_2_Les_administrateurs_des__TI_prennent_en_charge__plus_d_appareil_0_Layer0_0_MEMBER_17_FILL"/>
</g>

<g transform="matrix( 2.815704345703125, 0, 0, 2.832611083984375, 0.15,19.6) ">
<use xlink:href="#IT_300x600_FR_psd_Asset_V6_2_Les_administrateurs_des__TI_prennent_en_charge__plus_d_appareil_0_Layer0_0_MEMBER_18_FILL"/>
</g>

<g transform="matrix( 2.815704345703125, 0, 0, 2.832611083984375, 0.15,19.6) ">
<use xlink:href="#IT_300x600_FR_psd_Asset_V6_2_Les_administrateurs_des__TI_prennent_en_charge__plus_d_appareil_0_Layer0_0_MEMBER_19_FILL"/>
</g>

<g transform="matrix( 2.815704345703125, 0, 0, 2.832611083984375, 0.15,19.6) ">
<use xlink:href="#IT_300x600_FR_psd_Asset_V6_2_Les_administrateurs_des__TI_prennent_en_charge__plus_d_appareil_0_Layer0_0_MEMBER_20_FILL"/>
</g>

<g transform="matrix( 2.815704345703125, 0, 0, 2.832611083984375, 0.15,19.6) ">
<use xlink:href="#IT_300x600_FR_psd_Asset_V6_2_Les_administrateurs_des__TI_prennent_en_charge__plus_d_appareil_0_Layer0_0_MEMBER_21_FILL"/>
</g>

<g transform="matrix( 2.815704345703125, 0, 0, 2.832611083984375, 0.15,19.6) ">
<use xlink:href="#IT_300x600_FR_psd_Asset_V6_2_Les_administrateurs_des__TI_prennent_en_charge__plus_d_appareil_0_Layer0_0_MEMBER_22_FILL"/>
</g>

<g transform="matrix( 2.815704345703125, 0, 0, 2.832611083984375, 0.15,19.6) ">
<use xlink:href="#IT_300x600_FR_psd_Asset_V6_2_Les_administrateurs_des__TI_prennent_en_charge__plus_d_appareil_0_Layer0_0_MEMBER_23_FILL"/>
</g>

<g transform="matrix( 2.815704345703125, 0, 0, 2.832611083984375, 0.15,19.6) ">
<use xlink:href="#IT_300x600_FR_psd_Asset_V6_2_Les_administrateurs_des__TI_prennent_en_charge__plus_d_appareil_0_Layer0_0_MEMBER_24_FILL"/>
</g>

<g transform="matrix( 2.815704345703125, 0, 0, 2.832611083984375, 0.15,19.6) ">
<use xlink:href="#IT_300x600_FR_psd_Asset_V6_2_Les_administrateurs_des__TI_prennent_en_charge__plus_d_appareil_0_Layer0_0_MEMBER_25_FILL"/>
</g>

<g transform="matrix( 2.815704345703125, 0, 0, 2.832611083984375, 0.15,19.6) ">
<use xlink:href="#IT_300x600_FR_psd_Asset_V6_2_Les_administrateurs_des__TI_prennent_en_charge__plus_d_appareil_0_Layer0_0_MEMBER_26_FILL"/>
</g>

<g transform="matrix( 2.815704345703125, 0, 0, 2.832611083984375, 0.15,19.6) ">
<use xlink:href="#IT_300x600_FR_psd_Asset_V6_2_Les_administrateurs_des__TI_prennent_en_charge__plus_d_appareil_0_Layer0_0_MEMBER_27_FILL"/>
</g>

<g transform="matrix( 2.815704345703125, 0, 0, 2.832611083984375, 0.15,19.6) ">
<use xlink:href="#IT_300x600_FR_psd_Asset_V6_2_Les_administrateurs_des__TI_prennent_en_charge__plus_d_appareil_0_Layer0_0_MEMBER_28_FILL"/>
</g>

<g transform="matrix( 2.815704345703125, 0, 0, 2.832611083984375, 0.15,19.6) ">
<use xlink:href="#IT_300x600_FR_psd_Asset_V6_2_Les_administrateurs_des__TI_prennent_en_charge__plus_d_appareil_0_Layer0_0_MEMBER_29_FILL"/>
</g>

<g transform="matrix( 2.815704345703125, 0, 0, 2.832611083984375, 0.15,19.6) ">
<use xlink:href="#IT_300x600_FR_psd_Asset_V6_2_Les_administrateurs_des__TI_prennent_en_charge__plus_d_appareil_0_Layer0_0_MEMBER_30_FILL"/>
</g>

<g transform="matrix( 2.815704345703125, 0, 0, 2.832611083984375, 0.15,19.6) ">
<use xlink:href="#IT_300x600_FR_psd_Asset_V6_2_Les_administrateurs_des__TI_prennent_en_charge__plus_d_appareil_0_Layer0_0_MEMBER_31_FILL"/>
</g>

<g transform="matrix( 2.815704345703125, 0, 0, 2.832611083984375, 0.15,19.6) ">
<use xlink:href="#IT_300x600_FR_psd_Asset_V6_2_Les_administrateurs_des__TI_prennent_en_charge__plus_d_appareil_0_Layer0_0_MEMBER_32_FILL"/>
</g>

<g transform="matrix( 2.815704345703125, 0, 0, 2.832611083984375, 0.15,19.6) ">
<use xlink:href="#IT_300x600_FR_psd_Asset_V6_2_Les_administrateurs_des__TI_prennent_en_charge__plus_d_appareil_0_Layer0_0_MEMBER_33_FILL"/>
</g>

<g transform="matrix( 2.815704345703125, 0, 0, 2.832611083984375, 0.15,19.6) ">
<use xlink:href="#IT_300x600_FR_psd_Asset_V6_2_Les_administrateurs_des__TI_prennent_en_charge__plus_d_appareil_0_Layer0_0_MEMBER_34_FILL"/>
</g>

<g transform="matrix( 2.815704345703125, 0, 0, 2.832611083984375, 0.15,19.6) ">
<use xlink:href="#IT_300x600_FR_psd_Asset_V6_2_Les_administrateurs_des__TI_prennent_en_charge__plus_d_appareil_0_Layer0_0_MEMBER_35_FILL"/>
</g>

<g transform="matrix( 2.815704345703125, 0, 0, 2.832611083984375, 0.15,19.6) ">
<use xlink:href="#IT_300x600_FR_psd_Asset_V6_2_Les_administrateurs_des__TI_prennent_en_charge__plus_d_appareil_0_Layer0_0_MEMBER_36_FILL"/>
</g>

<g transform="matrix( 2.815704345703125, 0, 0, 2.832611083984375, 0.15,19.6) ">
<use xlink:href="#IT_300x600_FR_psd_Asset_V6_2_Les_administrateurs_des__TI_prennent_en_charge__plus_d_appareil_0_Layer0_0_MEMBER_37_FILL"/>
</g>

<g transform="matrix( 2.815704345703125, 0, 0, 2.832611083984375, 0.15,19.6) ">
<use xlink:href="#IT_300x600_FR_psd_Asset_V6_2_Les_administrateurs_des__TI_prennent_en_charge__plus_d_appareil_0_Layer0_0_MEMBER_38_FILL"/>
</g>

<g transform="matrix( 2.815704345703125, 0, 0, 2.832611083984375, 0.15,19.6) ">
<use xlink:href="#IT_300x600_FR_psd_Asset_V6_2_Les_administrateurs_des__TI_prennent_en_charge__plus_d_appareil_0_Layer0_0_MEMBER_39_FILL"/>
</g>

<g transform="matrix( 2.815704345703125, 0, 0, 2.832611083984375, 0.15,19.6) ">
<use xlink:href="#IT_300x600_FR_psd_Asset_V6_2_Les_administrateurs_des__TI_prennent_en_charge__plus_d_appareil_0_Layer0_0_MEMBER_40_FILL"/>
</g>

<g transform="matrix( 2.815704345703125, 0, 0, 2.832611083984375, 0.15,19.6) ">
<use xlink:href="#IT_300x600_FR_psd_Asset_V6_2_Les_administrateurs_des__TI_prennent_en_charge__plus_d_appareil_0_Layer0_0_MEMBER_41_FILL"/>
</g>

<g transform="matrix( 2.815704345703125, 0, 0, 2.832611083984375, 0.15,19.6) ">
<use xlink:href="#IT_300x600_FR_psd_Asset_V6_2_Les_administrateurs_des__TI_prennent_en_charge__plus_d_appareil_0_Layer0_0_MEMBER_42_FILL"/>
</g>

<g transform="matrix( 2.815704345703125, 0, 0, 2.832611083984375, 0.15,19.6) ">
<use xlink:href="#IT_300x600_FR_psd_Asset_V6_2_Les_administrateurs_des__TI_prennent_en_charge__plus_d_appareil_0_Layer0_0_MEMBER_43_FILL"/>
</g>

<g transform="matrix( 2.815704345703125, 0, 0, 2.832611083984375, 0.15,19.6) ">
<use xlink:href="#IT_300x600_FR_psd_Asset_V6_2_Les_administrateurs_des__TI_prennent_en_charge__plus_d_appareil_0_Layer0_0_MEMBER_44_FILL"/>
</g>

<g transform="matrix( 2.815704345703125, 0, 0, 2.832611083984375, 0.15,19.6) ">
<use xlink:href="#IT_300x600_FR_psd_Asset_V6_2_Les_administrateurs_des__TI_prennent_en_charge__plus_d_appareil_0_Layer0_0_MEMBER_45_FILL"/>
</g>

<g transform="matrix( 2.815704345703125, 0, 0, 2.832611083984375, 0.15,19.6) ">
<use xlink:href="#IT_300x600_FR_psd_Asset_V6_2_Les_administrateurs_des__TI_prennent_en_charge__plus_d_appareil_0_Layer0_0_MEMBER_46_FILL"/>
</g>

<g transform="matrix( 2.815704345703125, 0, 0, 2.832611083984375, 0.15,19.6) ">
<use xlink:href="#IT_300x600_FR_psd_Asset_V6_2_Les_administrateurs_des__TI_prennent_en_charge__plus_d_appareil_0_Layer0_0_MEMBER_47_FILL"/>
</g>

<g transform="matrix( 2.815704345703125, 0, 0, 2.832611083984375, 0.15,19.6) ">
<use xlink:href="#IT_300x600_FR_psd_Asset_V6_2_Les_administrateurs_des__TI_prennent_en_charge__plus_d_appareil_0_Layer0_0_MEMBER_48_FILL"/>
</g>

<g transform="matrix( 2.815704345703125, 0, 0, 2.832611083984375, 0.15,19.6) ">
<use xlink:href="#IT_300x600_FR_psd_Asset_V6_2_Les_administrateurs_des__TI_prennent_en_charge__plus_d_appareil_0_Layer0_0_MEMBER_49_FILL"/>
</g>

<g transform="matrix( 2.815704345703125, 0, 0, 2.832611083984375, 0.15,19.6) ">
<use xlink:href="#IT_300x600_FR_psd_Asset_V6_2_Les_administrateurs_des__TI_prennent_en_charge__plus_d_appareil_0_Layer0_0_MEMBER_50_FILL"/>
</g>

<g transform="matrix( 2.815704345703125, 0, 0, 2.832611083984375, 0.15,19.6) ">
<use xlink:href="#IT_300x600_FR_psd_Asset_V6_2_Les_administrateurs_des__TI_prennent_en_charge__plus_d_appareil_0_Layer0_0_MEMBER_51_FILL"/>
</g>

<g transform="matrix( 2.815704345703125, 0, 0, 2.832611083984375, 0.15,19.6) ">
<use xlink:href="#IT_300x600_FR_psd_Asset_V6_2_Les_administrateurs_des__TI_prennent_en_charge__plus_d_appareil_0_Layer0_0_MEMBER_52_FILL"/>
</g>

<g transform="matrix( 2.815704345703125, 0, 0, 2.832611083984375, 0.15,19.6) ">
<use xlink:href="#IT_300x600_FR_psd_Asset_V6_2_Les_administrateurs_des__TI_prennent_en_charge__plus_d_appareil_0_Layer0_0_MEMBER_53_FILL"/>
</g>

<g transform="matrix( 2.815704345703125, 0, 0, 2.832611083984375, 0.15,19.6) ">
<use xlink:href="#IT_300x600_FR_psd_Asset_V6_2_Les_administrateurs_des__TI_prennent_en_charge__plus_d_appareil_0_Layer0_0_MEMBER_54_FILL"/>
</g>

<g transform="matrix( 2.815704345703125, 0, 0, 2.832611083984375, 0.15,19.6) ">
<use xlink:href="#IT_300x600_FR_psd_Asset_V6_2_Les_administrateurs_des__TI_prennent_en_charge__plus_d_appareil_0_Layer0_0_MEMBER_55_FILL"/>
</g>

<g transform="matrix( 2.815704345703125, 0, 0, 2.832611083984375, 0.15,19.6) ">
<use xlink:href="#IT_300x600_FR_psd_Asset_V6_2_Les_administrateurs_des__TI_prennent_en_charge__plus_d_appareil_0_Layer0_0_MEMBER_56_FILL"/>
</g>

<g transform="matrix( 2.815704345703125, 0, 0, 2.832611083984375, 0.15,19.6) ">
<use xlink:href="#IT_300x600_FR_psd_Asset_V6_2_Les_administrateurs_des__TI_prennent_en_charge__plus_d_appareil_0_Layer0_0_MEMBER_57_FILL"/>
</g>

<g transform="matrix( 2.815704345703125, 0, 0, 2.832611083984375, 0.15,19.6) ">
<use xlink:href="#IT_300x600_FR_psd_Asset_V6_2_Les_administrateurs_des__TI_prennent_en_charge__plus_d_appareil_0_Layer0_0_MEMBER_58_FILL"/>
</g>

<g transform="matrix( 2.815704345703125, 0, 0, 2.832611083984375, 0.15,19.6) ">
<use xlink:href="#IT_300x600_FR_psd_Asset_V6_2_Les_administrateurs_des__TI_prennent_en_charge__plus_d_appareil_0_Layer0_0_MEMBER_59_FILL"/>
</g>

<g transform="matrix( 2.815704345703125, 0, 0, 2.832611083984375, 0.15,19.6) ">
<use xlink:href="#IT_300x600_FR_psd_Asset_V6_2_Les_administrateurs_des__TI_prennent_en_charge__plus_d_appareil_0_Layer0_0_MEMBER_60_FILL"/>
</g>

<g transform="matrix( 2.815704345703125, 0, 0, 2.832611083984375, 0.15,19.6) ">
<use xlink:href="#IT_300x600_FR_psd_Asset_V6_2_Les_administrateurs_des__TI_prennent_en_charge__plus_d_appareil_0_Layer0_0_MEMBER_61_FILL"/>
</g>

<g transform="matrix( 2.815704345703125, 0, 0, 2.832611083984375, 0.15,19.6) ">
<use xlink:href="#IT_300x600_FR_psd_Asset_V6_2_Les_administrateurs_des__TI_prennent_en_charge__plus_d_appareil_0_Layer0_0_MEMBER_62_FILL"/>
</g>

<g transform="matrix( 2.815704345703125, 0, 0, 2.832611083984375, 0.15,19.6) ">
<use xlink:href="#IT_300x600_FR_psd_Asset_V6_2_Les_administrateurs_des__TI_prennent_en_charge__plus_d_appareil_0_Layer0_0_MEMBER_63_FILL"/>
</g>

<g transform="matrix( 2.815704345703125, 0, 0, 2.832611083984375, 0.15,19.6) ">
<use xlink:href="#IT_300x600_FR_psd_Asset_V6_2_Les_administrateurs_des__TI_prennent_en_charge__plus_d_appareil_0_Layer0_0_MEMBER_64_FILL"/>
</g>

<g transform="matrix( 2.815704345703125, 0, 0, 2.832611083984375, 0.15,19.6) ">
<use xlink:href="#IT_300x600_FR_psd_Asset_V6_2_Les_administrateurs_des__TI_prennent_en_charge__plus_d_appareil_0_Layer0_0_MEMBER_65_FILL"/>
</g>

<g transform="matrix( 2.815704345703125, 0, 0, 2.832611083984375, 0.15,19.6) ">
<use xlink:href="#IT_300x600_FR_psd_Asset_V6_2_Les_administrateurs_des__TI_prennent_en_charge__plus_d_appareil_0_Layer0_0_MEMBER_66_FILL"/>
</g>

<g transform="matrix( 2.815704345703125, 0, 0, 2.832611083984375, 0.15,19.6) ">
<use xlink:href="#IT_300x600_FR_psd_Asset_V6_2_Les_administrateurs_des__TI_prennent_en_charge__plus_d_appareil_0_Layer0_0_MEMBER_67_FILL"/>
</g>

<g transform="matrix( 2.815704345703125, 0, 0, 2.832611083984375, 0.15,19.6) ">
<use xlink:href="#IT_300x600_FR_psd_Asset_V6_2_Les_administrateurs_des__TI_prennent_en_charge__plus_d_appareil_0_Layer0_0_MEMBER_68_FILL"/>
</g>

<g transform="matrix( 2.815704345703125, 0, 0, 2.832611083984375, 0.15,19.6) ">
<use xlink:href="#IT_300x600_FR_psd_Asset_V6_2_Les_administrateurs_des__TI_prennent_en_charge__plus_d_appareil_0_Layer0_0_MEMBER_69_FILL"/>
</g>

<g transform="matrix( 2.815704345703125, 0, 0, 2.832611083984375, 0.15,19.6) ">
<use xlink:href="#IT_300x600_FR_psd_Asset_V6_2_Les_administrateurs_des__TI_prennent_en_charge__plus_d_appareil_0_Layer0_0_MEMBER_70_FILL"/>
</g>

<g transform="matrix( 2.815704345703125, 0, 0, 2.832611083984375, 0.15,19.6) ">
<use xlink:href="#IT_300x600_FR_psd_Asset_V6_2_Les_administrateurs_des__TI_prennent_en_charge__plus_d_appareil_0_Layer0_0_MEMBER_71_FILL"/>
</g>

<g transform="matrix( 2.815704345703125, 0, 0, 2.832611083984375, 0.15,19.6) ">
<use xlink:href="#IT_300x600_FR_psd_Asset_V6_2_Les_administrateurs_des__TI_prennent_en_charge__plus_d_appareil_0_Layer0_0_MEMBER_72_FILL"/>
</g>

<g transform="matrix( 2.815704345703125, 0, 0, 2.832611083984375, 0.15,19.6) ">
<use xlink:href="#IT_300x600_FR_psd_Asset_V6_2_Les_administrateurs_des__TI_prennent_en_charge__plus_d_appareil_0_Layer0_0_MEMBER_73_FILL"/>
</g>

<g transform="matrix( 2.815704345703125, 0, 0, 2.832611083984375, 0.15,19.6) ">
<use xlink:href="#IT_300x600_FR_psd_Asset_V6_2_Les_administrateurs_des__TI_prennent_en_charge__plus_d_appareil_0_Layer0_0_MEMBER_74_FILL"/>
</g>

<g transform="matrix( 2.815704345703125, 0, 0, 2.832611083984375, 0.15,19.6) ">
<use xlink:href="#IT_300x600_FR_psd_Asset_V6_2_Les_administrateurs_des__TI_prennent_en_charge__plus_d_appareil_0_Layer0_0_MEMBER_75_FILL"/>
</g>

<g transform="matrix( 2.815704345703125, 0, 0, 2.832611083984375, 0.15,19.6) ">
<use xlink:href="#IT_300x600_FR_psd_Asset_V6_2_Les_administrateurs_des__TI_prennent_en_charge__plus_d_appareil_0_Layer0_0_MEMBER_76_FILL"/>
</g>

<g transform="matrix( 2.815704345703125, 0, 0, 2.832611083984375, 0.15,19.6) ">
<use xlink:href="#IT_300x600_FR_psd_Asset_V6_2_Les_administrateurs_des__TI_prennent_en_charge__plus_d_appareil_0_Layer0_0_MEMBER_77_FILL"/>
</g>

<g transform="matrix( 2.815704345703125, 0, 0, 2.832611083984375, 0.15,19.6) ">
<use xlink:href="#IT_300x600_FR_psd_Asset_V6_2_Les_administrateurs_des__TI_prennent_en_charge__plus_d_appareil_0_Layer0_0_MEMBER_78_FILL"/>
</g>

<g transform="matrix( 2.815704345703125, 0, 0, 2.832611083984375, 0.15,19.6) ">
<use xlink:href="#IT_300x600_FR_psd_Asset_V6_2_Les_administrateurs_des__TI_prennent_en_charge__plus_d_appareil_0_Layer0_0_MEMBER_79_FILL"/>
</g>

<g transform="matrix( 2.815704345703125, 0, 0, 2.832611083984375, 0.15,19.6) ">
<use xlink:href="#IT_300x600_FR_psd_Asset_V6_2_Les_administrateurs_des__TI_prennent_en_charge__plus_d_appareil_0_Layer0_0_MEMBER_80_FILL"/>
</g>

<g transform="matrix( 2.815704345703125, 0, 0, 2.832611083984375, 0.15,19.6) ">
<use xlink:href="#IT_300x600_FR_psd_Asset_V6_2_Les_administrateurs_des__TI_prennent_en_charge__plus_d_appareil_0_Layer0_0_MEMBER_81_FILL"/>
</g>

<g transform="matrix( 2.815704345703125, 0, 0, 2.832611083984375, 0.15,19.6) ">
<use xlink:href="#IT_300x600_FR_psd_Asset_V6_2_Les_administrateurs_des__TI_prennent_en_charge__plus_d_appareil_0_Layer0_0_MEMBER_82_FILL"/>
</g>

<g transform="matrix( 2.815704345703125, 0, 0, 2.832611083984375, 0.15,19.6) ">
<use xlink:href="#IT_300x600_FR_psd_Asset_V6_2_Les_administrateurs_des__TI_prennent_en_charge__plus_d_appareil_0_Layer0_0_MEMBER_83_FILL"/>
</g>

<g transform="matrix( 2.815704345703125, 0, 0, 2.832611083984375, 0.15,19.6) ">
<use xlink:href="#IT_300x600_FR_psd_Asset_V6_2_Les_administrateurs_des__TI_prennent_en_charge__plus_d_appareil_0_Layer0_0_MEMBER_84_FILL"/>
</g>

<g transform="matrix( 2.815704345703125, 0, 0, 2.832611083984375, 0.15,19.6) ">
<use xlink:href="#IT_300x600_FR_psd_Asset_V6_2_Les_administrateurs_des__TI_prennent_en_charge__plus_d_appareil_0_Layer0_0_MEMBER_85_FILL"/>
</g>

<g transform="matrix( 2.815704345703125, 0, 0, 2.832611083984375, 0.15,19.6) ">
<use xlink:href="#IT_300x600_FR_psd_Asset_V6_2_Les_administrateurs_des__TI_prennent_en_charge__plus_d_appareil_0_Layer0_0_MEMBER_86_FILL"/>
</g>

<g transform="matrix( 2.815704345703125, 0, 0, 2.832611083984375, 0.15,19.6) ">
<use xlink:href="#IT_300x600_FR_psd_Asset_V6_2_Les_administrateurs_des__TI_prennent_en_charge__plus_d_appareil_0_Layer0_0_MEMBER_87_FILL"/>
</g>

<g transform="matrix( 2.815704345703125, 0, 0, 2.832611083984375, 0.15,19.6) ">
<use xlink:href="#IT_300x600_FR_psd_Asset_V6_2_Les_administrateurs_des__TI_prennent_en_charge__plus_d_appareil_0_Layer0_0_MEMBER_88_FILL"/>
</g>

<g transform="matrix( 2.815704345703125, 0, 0, 2.832611083984375, 0.15,19.6) ">
<use xlink:href="#IT_300x600_FR_psd_Asset_V6_2_Les_administrateurs_des__TI_prennent_en_charge__plus_d_appareil_0_Layer0_0_MEMBER_89_FILL"/>
</g>

<g transform="matrix( 2.815704345703125, 0, 0, 2.832611083984375, 0.15,19.6) ">
<use xlink:href="#IT_300x600_FR_psd_Asset_V6_2_Les_administrateurs_des__TI_prennent_en_charge__plus_d_appareil_0_Layer0_0_MEMBER_90_FILL"/>
</g>

<g transform="matrix( 2.815704345703125, 0, 0, 2.832611083984375, 0.15,19.6) ">
<use xlink:href="#IT_300x600_FR_psd_Asset_V6_2_Les_administrateurs_des__TI_prennent_en_charge__plus_d_appareil_0_Layer0_0_MEMBER_91_FILL"/>
</g>

<g transform="matrix( 2.815704345703125, 0, 0, 2.832611083984375, 0.15,19.6) ">
<use xlink:href="#IT_300x600_FR_psd_Asset_V6_2_Les_administrateurs_des__TI_prennent_en_charge__plus_d_appareil_0_Layer0_0_MEMBER_92_FILL"/>
</g>

<g transform="matrix( 2.815704345703125, 0, 0, 2.832611083984375, 0.15,19.6) ">
<use xlink:href="#IT_300x600_FR_psd_Asset_V6_2_Les_administrateurs_des__TI_prennent_en_charge__plus_d_appareil_0_Layer0_0_MEMBER_93_FILL"/>
</g>

<g transform="matrix( 2.815704345703125, 0, 0, 2.832611083984375, 0.15,19.6) ">
<use xlink:href="#IT_300x600_FR_psd_Asset_V6_2_Les_administrateurs_des__TI_prennent_en_charge__plus_d_appareil_0_Layer0_0_MEMBER_94_FILL"/>
</g>

<g transform="matrix( 2.815704345703125, 0, 0, 2.832611083984375, 0.15,19.6) ">
<use xlink:href="#IT_300x600_FR_psd_Asset_V6_2_Les_administrateurs_des__TI_prennent_en_charge__plus_d_appareil_0_Layer0_0_MEMBER_95_FILL"/>
</g>

<g transform="matrix( 2.815704345703125, 0, 0, 2.832611083984375, 0.15,19.6) ">
<use xlink:href="#IT_300x600_FR_psd_Asset_V6_2_Les_administrateurs_des__TI_prennent_en_charge__plus_d_appareil_0_Layer0_0_MEMBER_96_FILL"/>
</g>

<g transform="matrix( 2.815704345703125, 0, 0, 2.832611083984375, 0.15,19.6) ">
<use xlink:href="#IT_300x600_FR_psd_Asset_V6_2_Les_administrateurs_des__TI_prennent_en_charge__plus_d_appareil_0_Layer0_0_MEMBER_97_FILL"/>
</g>

<g transform="matrix( 2.815704345703125, 0, 0, 2.832611083984375, 0.15,19.6) ">
<use xlink:href="#IT_300x600_FR_psd_Asset_V6_2_Les_administrateurs_des__TI_prennent_en_charge__plus_d_appareil_0_Layer0_0_MEMBER_98_FILL"/>
</g>

<g transform="matrix( 2.815704345703125, 0, 0, 2.832611083984375, 0.15,19.6) ">
<use xlink:href="#IT_300x600_FR_psd_Asset_V6_2_Les_administrateurs_des__TI_prennent_en_charge__plus_d_appareil_0_Layer0_0_MEMBER_99_FILL"/>
</g>

<g transform="matrix( 2.815704345703125, 0, 0, 2.832611083984375, 0.15,19.6) ">
<use xlink:href="#IT_300x600_FR_psd_Asset_V6_2_Les_administrateurs_des__TI_prennent_en_charge__plus_d_appareil_0_Layer0_0_MEMBER_100_FILL"/>
</g>

<g transform="matrix( 2.815704345703125, 0, 0, 2.832611083984375, 0.15,19.6) ">
<use xlink:href="#IT_300x600_FR_psd_Asset_V6_2_Les_administrateurs_des__TI_prennent_en_charge__plus_d_appareil_0_Layer0_0_MEMBER_101_FILL"/>
</g>

<g transform="matrix( 2.815704345703125, 0, 0, 2.832611083984375, 0.15,19.6) ">
<use xlink:href="#IT_300x600_FR_psd_Asset_V6_2_Les_administrateurs_des__TI_prennent_en_charge__plus_d_appareil_0_Layer0_0_MEMBER_102_FILL"/>
</g>

<g transform="matrix( 2.815704345703125, 0, 0, 2.832611083984375, 0.15,19.6) ">
<use xlink:href="#IT_300x600_FR_psd_Asset_V6_2_Les_administrateurs_des__TI_prennent_en_charge__plus_d_appareil_0_Layer0_0_MEMBER_103_FILL"/>
</g>
</g>
</g>
</g>
</svg>
