
<svg xmlns="http://www.w3.org/2000/svg" version="1.1" xmlns:xlink="http://www.w3.org/1999/xlink" preserveAspectRatio="none" x="0px" y="0px" width="300px" height="600px" viewBox="0 0 300 600">
<defs>
<g id="IT_300x600_FR_psd_Asset_V6_3_que_jamais___0_Layer0_0_MEMBER_0_FILL">
<path fill="#D82C26" stroke="none" d="
M 4.55 -5.1
Q 4 -5.45 3.3 -5.45 2.6 -5.45 1.9 -5.1 1.35 -4.75 0.95 -4.05 0.65 -3.45 0.65 -2.65 0.65 -1.85 0.95 -1.25 1.35 -0.55 1.9 -0.2 2.6 0.15 3.3 0.15 4 0.15 4.55 -0.2 5.15 -0.5 5.4 -1.15
L 5.45 -1.15 5.45 1.25
Q 5.45 2.4 6.6 2.7
L 6.9 2.15
Q 6.45 2 6.3 1.8 6.1 1.6 6.1 1.1
L 6.15 -5.3 5.5 -5.3 5.45 -4.15
Q 5.15 -4.7 4.55 -5.1
M 3.4 -4.9
Q 4 -4.9 4.45 -4.6 4.95 -4.3 5.2 -3.75 5.5 -3.2 5.5 -2.65 5.5 -2 5.2 -1.55 4.95 -1 4.45 -0.7 4 -0.4 3.4 -0.4 2.75 -0.4 2.3 -0.7 1.8 -1 1.55 -1.5 1.3 -2.1 1.3 -2.65 1.3 -3.15 1.55 -3.75 1.8 -4.3 2.3 -4.6 2.75 -4.9 3.4 -4.9 Z"/>
</g>

<g id="IT_300x600_FR_psd_Asset_V6_3_que_jamais___0_Layer0_0_MEMBER_1_FILL">
<path fill="#D82C26" stroke="none" d="
M 7.6 -2.05
Q 7.6 -1.1 8.05 -0.5 8.5 0.15 9.5 0.15 10.2 0.15 10.7 -0.2 11.25 -0.6 11.45 -1.15
L 11.55 0 12.2 0 12.1 -5.3 11.45 -5.3 11.45 -2.65
Q 11.45 -1.9 11.2 -1.45 11 -0.95 10.6 -0.65 10.1 -0.4 9.7 -0.4 8.9 -0.4 8.6 -0.9 8.25 -1.4 8.25 -2.25
L 8.25 -5.3 7.6 -5.3 7.6 -2.05 Z"/>
</g>

<g id="IT_300x600_FR_psd_Asset_V6_3_que_jamais___0_Layer0_0_MEMBER_2_FILL">
<path fill="#D82C26" stroke="none" d="
M 13.65 -1.2
Q 14.1 -0.5 14.65 -0.2 15.2 0.15 16 0.15 17.3 0.15 18.15 -0.5
L 18 -1.05
Q 17.55 -0.7 17.15 -0.6 16.75 -0.4 16.1 -0.4 15.45 -0.4 15 -0.7 14.5 -0.9 14.25 -1.45 13.95 -1.95 13.95 -2.55
L 18.45 -2.55 18.45 -2.85
Q 18.45 -3.55 18.15 -4.15 17.85 -4.75 17.3 -5.1 16.75 -5.45 15.95 -5.45 15.15 -5.45 14.6 -5.1 14 -4.7 13.65 -4.1 13.3 -3.4 13.3 -2.7 13.3 -2 13.65 -1.2
M 14.2 -3.9
Q 14.55 -4.4 14.9 -4.65 15.35 -4.95 15.95 -4.95 16.75 -4.95 17.3 -4.4 17.8 -3.9 17.8 -3.05
L 13.95 -3.05
Q 14.05 -3.65 14.2 -3.9 Z"/>
</g>

<g id="IT_300x600_FR_psd_Asset_V6_3_que_jamais___0_Layer0_0_MEMBER_3_FILL">
<path fill="#D82C26" stroke="none" d="
M 22.7 -5.3
L 22.05 -5.3 22.05 0.85
Q 22.05 1.65 21.85 1.9 21.6 2.15 21.1 2.15
L 21.25 2.7
Q 22.1 2.7 22.4 2.2 22.7 1.75 22.7 0.9
L 22.7 -5.3
M 22.4 -6.95
Q 22.65 -6.95 22.7 -7.05 22.85 -7.2 22.85 -7.4
L 22.75 -7.75
Q 22.6 -7.9 22.4 -7.9 22.2 -7.9 22.05 -7.75 21.9 -7.6 21.9 -7.4 21.9 -7.2 22.05 -7.05 22.15 -6.95 22.4 -6.95 Z"/>
</g>

<g id="IT_300x600_FR_psd_Asset_V6_3_que_jamais___0_Layer0_0_MEMBER_4_FILL">
<path fill="#D82C26" stroke="none" d="
M 23.85 -1.4
Q 23.85 -0.65 24.35 -0.25 24.9 0.15 25.55 0.15 26.25 0.15 26.75 -0.15 27.25 -0.45 27.55 -1.05
L 27.65 0 28.25 0 28.15 -3.45
Q 28.15 -4.45 27.65 -4.95 27.1 -5.45 26.15 -5.45
L 25.05 -5.3
Q 24.45 -5.05 24.15 -4.8
L 24.35 -4.25
Q 24.55 -4.45 25.15 -4.75 25.75 -4.95 26.05 -4.95 26.65 -4.95 27.15 -4.55 27.55 -4.15 27.55 -3.5
L 27.55 -3.15 26.9 -3.15
Q 23.85 -3.15 23.85 -1.4
M 24.85 -0.6
Q 24.5 -0.9 24.5 -1.45 24.5 -2.75 27 -2.75
L 27.55 -2.75 27.55 -2.2
Q 27.55 -1.85 27.35 -1.35 27.1 -0.85 26.7 -0.65 26.35 -0.35 25.7 -0.35 25.25 -0.35 24.85 -0.6 Z"/>
</g>

<g id="IT_300x600_FR_psd_Asset_V6_3_que_jamais___0_Layer0_0_MEMBER_5_FILL">
<path fill="#D82C26" stroke="none" d="
M 30.25 -5.3
L 29.6 -5.3 29.65 0 30.3 0 30.3 -2.65
Q 30.3 -3.25 30.55 -3.85 30.75 -4.35 31.15 -4.65 31.55 -4.9 32 -4.9 32.65 -4.9 33 -4.45 33.3 -4 33.3 -3.15
L 33.3 0 34 0 34 -2.75
Q 34 -3.7 34.45 -4.3 34.9 -4.9 35.65 -4.9 36.4 -4.9 36.7 -4.35 37.05 -3.85 37.05 -3
L 37.05 0 37.7 0 37.7 -3.15
Q 37.7 -4.1 37.25 -4.8 36.8 -5.45 35.8 -5.45 35.1 -5.45 34.6 -5.1 34.15 -4.75 33.85 -4.1 33.7 -4.65 33.25 -5.1 32.85 -5.45 32.15 -5.45 31.45 -5.45 31.05 -5.1 30.5 -4.7 30.3 -4.15
L 30.25 -5.3 Z"/>
</g>

<g id="IT_300x600_FR_psd_Asset_V6_3_que_jamais___0_Layer0_0_MEMBER_6_FILL">
<path fill="#D82C26" stroke="none" d="
M 38.8 -1.4
Q 38.8 -0.65 39.3 -0.25 39.85 0.15 40.5 0.15 41.1 0.15 41.7 -0.15 42.25 -0.45 42.45 -1.05
L 42.5 -1.05 42.6 0 43.2 0 43.1 -3.45
Q 43.1 -4.45 42.55 -4.95 42.05 -5.45 41.05 -5.45
L 40 -5.3
Q 39.4 -5.05 39.1 -4.8
L 39.3 -4.25
Q 39.6 -4.5 40.1 -4.75 40.7 -4.95 41 -4.95 41.6 -4.95 42.1 -4.55 42.5 -4.15 42.5 -3.5
L 42.5 -3.15 41.85 -3.15
Q 38.8 -3.15 38.8 -1.4
M 39.8 -0.6
Q 39.45 -0.9 39.45 -1.45 39.45 -2.75 41.95 -2.75
L 42.5 -2.75 42.5 -2.2
Q 42.5 -1.75 42.25 -1.35 42.1 -0.85 41.65 -0.65 41.2 -0.35 40.65 -0.35 40.15 -0.35 39.8 -0.6 Z"/>
</g>

<g id="IT_300x600_FR_psd_Asset_V6_3_que_jamais___0_Layer0_0_MEMBER_7_FILL">
<path fill="#D82C26" stroke="none" d="
M 45.25 -5.3
L 44.6 -5.3 44.6 0 45.25 0 45.25 -5.3
M 44.95 -6.95
Q 45.15 -6.95 45.25 -7.05 45.4 -7.2 45.4 -7.4 45.4 -7.6 45.25 -7.75
L 44.95 -7.9
Q 44.75 -7.9 44.6 -7.75 44.45 -7.6 44.45 -7.4 44.45 -7.2 44.6 -7.05 44.7 -6.95 44.95 -6.95 Z"/>
</g>

<g id="IT_300x600_FR_psd_Asset_V6_3_que_jamais___0_Layer0_0_MEMBER_8_FILL">
<path fill="#D82C26" stroke="none" d="
M 49.2 -5.3
Q 48.75 -5.45 48.25 -5.45 47.8 -5.45 47.4 -5.3 47 -5.15 46.75 -4.8 46.5 -4.5 46.5 -4 46.5 -3.4 46.85 -3.1 47.2 -2.75 48 -2.5 48.75 -2.25 49.1 -2 49.45 -1.8 49.45 -1.35 49.45 -0.85 49.1 -0.65 48.75 -0.35 48.25 -0.35 47.3 -0.35 46.5 -1
L 46.4 -0.45
Q 46.6 -0.25 47.2 0
L 48.3 0.15
Q 48.8 0.15 49.15 -0.05 49.6 -0.2 49.8 -0.55 50.1 -0.9 50.1 -1.4 50.1 -1.95 49.7 -2.35 49.2 -2.65 48.45 -2.95 47.7 -3.15 47.4 -3.4 47.1 -3.6 47.1 -4.05 47.1 -4.5 47.45 -4.7 47.8 -4.95 48.25 -4.95
L 49 -4.8 49.65 -4.4 49.9 -4.9 49.2 -5.3 Z"/>
</g>

<g id="IT_300x600_FR_psd_Asset_V6_3_que_jamais___0_Layer0_0_MEMBER_9_FILL">
<path fill="#D82C26" stroke="none" d="
M 51.2 -0.45
Q 51.2 -0.2 51.35 -0.05 51.45 0.1 51.7 0.1 51.9 0.1 52.05 -0.05 52.2 -0.25 52.2 -0.45 52.2 -0.65 52.05 -0.8 51.9 -0.95 51.7 -0.95 51.5 -0.95 51.35 -0.8 51.2 -0.65 51.2 -0.45 Z"/>
</g>
</defs>

<g transform="matrix( 1, 0, 0, 1, -156,26) ">
<g transform="matrix( 1, 0, 0, 1, 150,15) ">
<g transform="matrix( 1, 0, 0, 1, 32,12) ">
<g transform="matrix( 2.815704345703125, 0, 0, 2.832611083984375, -1.85,22.6) ">
<use xlink:href="#IT_300x600_FR_psd_Asset_V6_3_que_jamais___0_Layer0_0_MEMBER_0_FILL"/>
</g>

<g transform="matrix( 2.815704345703125, 0, 0, 2.832611083984375, -1.85,22.6) ">
<use xlink:href="#IT_300x600_FR_psd_Asset_V6_3_que_jamais___0_Layer0_0_MEMBER_1_FILL"/>
</g>

<g transform="matrix( 2.815704345703125, 0, 0, 2.832611083984375, -1.85,22.6) ">
<use xlink:href="#IT_300x600_FR_psd_Asset_V6_3_que_jamais___0_Layer0_0_MEMBER_2_FILL"/>
</g>

<g transform="matrix( 2.815704345703125, 0, 0, 2.832611083984375, -1.85,22.6) ">
<use xlink:href="#IT_300x600_FR_psd_Asset_V6_3_que_jamais___0_Layer0_0_MEMBER_3_FILL"/>
</g>

<g transform="matrix( 2.815704345703125, 0, 0, 2.832611083984375, -1.85,22.6) ">
<use xlink:href="#IT_300x600_FR_psd_Asset_V6_3_que_jamais___0_Layer0_0_MEMBER_4_FILL"/>
</g>

<g transform="matrix( 2.815704345703125, 0, 0, 2.832611083984375, -1.85,22.6) ">
<use xlink:href="#IT_300x600_FR_psd_Asset_V6_3_que_jamais___0_Layer0_0_MEMBER_5_FILL"/>
</g>

<g transform="matrix( 2.815704345703125, 0, 0, 2.832611083984375, -1.85,22.6) ">
<use xlink:href="#IT_300x600_FR_psd_Asset_V6_3_que_jamais___0_Layer0_0_MEMBER_6_FILL"/>
</g>

<g transform="matrix( 2.815704345703125, 0, 0, 2.832611083984375, -1.85,22.6) ">
<use xlink:href="#IT_300x600_FR_psd_Asset_V6_3_que_jamais___0_Layer0_0_MEMBER_7_FILL"/>
</g>

<g transform="matrix( 2.815704345703125, 0, 0, 2.832611083984375, -1.85,22.6) ">
<use xlink:href="#IT_300x600_FR_psd_Asset_V6_3_que_jamais___0_Layer0_0_MEMBER_8_FILL"/>
</g>

<g transform="matrix( 2.815704345703125, 0, 0, 2.832611083984375, -1.85,22.6) ">
<use xlink:href="#IT_300x600_FR_psd_Asset_V6_3_que_jamais___0_Layer0_0_MEMBER_9_FILL"/>
</g>
</g>
</g>
</g>
</svg>
