
<svg xmlns="http://www.w3.org/2000/svg" version="1.1" xmlns:xlink="http://www.w3.org/1999/xlink" preserveAspectRatio="none" x="0px" y="0px" width="300px" height="250px" viewBox="0 0 300 250">
<defs>
<g id="BDM_300x250_psd_Asset_1_ManagedWiFi_Awareness_DM7_4_Get_a_better__understanding_of__your_customer_s_needs_____0_Layer0_0_MEMBER_0_FILL">
<path fill="#D82C26" stroke="none" d="
M 3.7 -5.7
L 4.75 -5.55 5.65 -5.1 5.8 -5.5
Q 5.55 -5.7 4.85 -6 4.25 -6.15 3.7 -6.15 2.7 -6.15 2.05 -5.75 1.35 -5.35 0.95 -4.65 0.55 -4 0.55 -3 0.55 -2 0.95 -1.4 1.35 -0.6 2.05 -0.25 2.85 0.15 3.7 0.15 4.4 0.15 4.9 0
L 5.9 -0.35 5.9 -3.1 4.05 -3.1 3.95 -2.7 5.4 -2.7 5.4 -0.65
Q 4.7 -0.3 3.75 -0.3 2.85 -0.3 2.3 -0.65 1.7 -1 1.4 -1.65 1.05 -2.2 1.05 -3 1.05 -3.65 1.4 -4.35 1.65 -4.95 2.3 -5.35 2.85 -5.7 3.7 -5.7 Z"/>
</g>

<g id="BDM_300x250_psd_Asset_1_ManagedWiFi_Awareness_DM7_4_Get_a_better__understanding_of__your_customer_s_needs_____0_Layer0_0_MEMBER_1_FILL">
<path fill="#D82C26" stroke="none" d="
M 8.95 -4.1
Q 8.45 -4.1 7.95 -3.85 7.5 -3.55 7.2 -3.1 6.95 -2.5 6.95 -2 6.95 -1.4 7.25 -0.9 7.45 -0.45 7.95 -0.15 8.35 0.1 9 0.1 9.95 0.1 10.6 -0.4
L 10.5 -0.8 9.85 -0.45
Q 9.5 -0.3 9.05 -0.3 8.55 -0.3 8.2 -0.5 7.85 -0.75 7.65 -1.1 7.45 -1.45 7.45 -1.9
L 10.8 -1.9 10.8 -2.15
Q 10.8 -2.7 10.6 -3.1 10.35 -3.55 9.95 -3.85 9.45 -4.1 8.95 -4.1
M 8.95 -3.7
Q 9.55 -3.7 9.95 -3.3 10.35 -2.9 10.35 -2.3
L 7.45 -2.3
Q 7.45 -2.5 7.65 -2.9 7.8 -3.2 8.15 -3.5 8.4 -3.7 8.95 -3.7 Z"/>
</g>

<g id="BDM_300x250_psd_Asset_1_ManagedWiFi_Awareness_DM7_4_Get_a_better__understanding_of__your_customer_s_needs_____0_Layer0_0_MEMBER_2_FILL">
<path fill="#D82C26" stroke="none" d="
M 13.45 -3.6
L 13.55 -3.95 12.4 -3.95 12.4 -5.1 11.9 -4.9 11.9 -3.95 11.25 -3.95 11.15 -3.6 11.9 -3.6 11.9 -0.95
Q 11.9 -0.45 12.15 -0.2 12.45 0.1 12.85 0.1
L 13.3 0.05 13.7 -0.15 13.6 -0.5
Q 13.1 -0.3 13 -0.3 12.75 -0.3 12.55 -0.5 12.4 -0.65 12.4 -1.05
L 12.4 -3.6 13.45 -3.6 Z"/>
</g>

<g id="BDM_300x250_psd_Asset_1_ManagedWiFi_Awareness_DM7_4_Get_a_better__understanding_of__your_customer_s_needs_____0_Layer0_0_MEMBER_3_FILL">
<path fill="#D82C26" stroke="none" d="
M 16.65 -3.55
L 17.35 -3.7
Q 17.85 -3.7 18.15 -3.4 18.5 -3.2 18.5 -2.6
L 18.5 -2.4 18 -2.4
Q 15.7 -2.4 15.7 -1.05 15.7 -0.5 16.1 -0.2 16.5 0.1 17 0.1 17.5 0.1 17.9 -0.1 18.3 -0.35 18.45 -0.75
L 18.5 -0.75 18.5 -0.35 18.55 0 19 0 18.95 -2.6
Q 18.95 -3.3 18.55 -3.7 18.05 -4.1 17.4 -4.1 17 -4.1 16.6 -3.95
L 15.95 -3.6 16.1 -3.2 16.65 -3.55
M 16.45 -0.45
Q 16.2 -0.7 16.2 -1.1 16.2 -2.05 18.05 -2.05
L 18.5 -2.05 18.5 -1.65
Q 18.5 -1.4 18.3 -1 18.15 -0.65 17.85 -0.45 17.45 -0.25 17.1 -0.25 16.85 -0.25 16.45 -0.45 Z"/>
</g>

<g id="BDM_300x250_psd_Asset_1_ManagedWiFi_Awareness_DM7_4_Get_a_better__understanding_of__your_customer_s_needs_____0_Layer0_0_MEMBER_4_FILL">
<path fill="#D82C26" stroke="none" d="
M 22.4 -6.5
L 21.9 -6.4 21.85 0 22.3 0 22.35 -0.85 22.4 -0.85
Q 22.65 -0.35 23.05 -0.15 23.55 0.1 24 0.1 24.55 0.1 25.05 -0.15 25.55 -0.45 25.75 -0.9 26 -1.5 26 -2 26 -2.55 25.75 -3.05 25.55 -3.45 25.05 -3.8 24.6 -4.1 24 -4.1 23.5 -4.1 23.1 -3.85 22.6 -3.5 22.4 -3.1
L 22.4 -6.5
M 23.95 -3.65
Q 24.45 -3.65 24.8 -3.45 25.15 -3.2 25.35 -2.85 25.5 -2.4 25.5 -2 25.5 -1.5 25.35 -1.15 25.15 -0.8 24.8 -0.55 24.4 -0.3 23.95 -0.3 23.55 -0.3 23.15 -0.55 22.75 -0.8 22.6 -1.15 22.4 -1.5 22.4 -2 22.4 -2.45 22.6 -2.85 22.75 -3.2 23.15 -3.45 23.5 -3.65 23.95 -3.65 Z"/>
</g>

<g id="BDM_300x250_psd_Asset_1_ManagedWiFi_Awareness_DM7_4_Get_a_better__understanding_of__your_customer_s_needs_____0_Layer0_0_MEMBER_5_FILL">
<path fill="#D82C26" stroke="none" d="
M 29.75 -3.85
Q 29.35 -4.1 28.75 -4.1 28.25 -4.1 27.75 -3.85 27.25 -3.5 27.05 -3.1 26.8 -2.65 26.8 -2 26.8 -1.35 27.05 -0.9 27.25 -0.45 27.75 -0.15 28.15 0.1 28.8 0.1 29.75 0.1 30.4 -0.4
L 30.3 -0.8
Q 30.15 -0.65 29.65 -0.45 29.3 -0.3 28.85 -0.3 28.4 -0.3 28.05 -0.5 27.7 -0.7 27.45 -1.1 27.25 -1.6 27.25 -1.9
L 30.6 -1.9 30.65 -2.15
Q 30.65 -2.6 30.4 -3.1 30.15 -3.55 29.75 -3.85
M 28.75 -3.7
Q 29.35 -3.7 29.75 -3.3 30.15 -2.9 30.15 -2.3
L 27.25 -2.3 27.45 -2.9
Q 27.7 -3.3 27.95 -3.5 28.3 -3.7 28.75 -3.7 Z"/>
</g>

<g id="BDM_300x250_psd_Asset_1_ManagedWiFi_Awareness_DM7_4_Get_a_better__understanding_of__your_customer_s_needs_____0_Layer0_0_MEMBER_6_FILL">
<path fill="#D82C26" stroke="none" d="
M 33.25 -3.6
L 33.35 -3.95 32.2 -3.95 32.2 -5.1 31.7 -4.9 31.7 -3.95 31.1 -3.95 31 -3.6 31.7 -3.6 31.7 -0.95
Q 31.7 -0.45 31.95 -0.2 32.25 0.1 32.65 0.1
L 33.1 0.05 33.5 -0.15 33.45 -0.5
Q 32.95 -0.3 32.8 -0.3 32.65 -0.3 32.35 -0.5 32.2 -0.65 32.2 -1.05
L 32.2 -3.6 33.25 -3.6 Z"/>
</g>

<g id="BDM_300x250_psd_Asset_1_ManagedWiFi_Awareness_DM7_4_Get_a_better__understanding_of__your_customer_s_needs_____0_Layer0_0_MEMBER_7_FILL">
<path fill="#D82C26" stroke="none" d="
M 35 -3.95
L 35 -5.1 34.5 -4.9 34.5 -3.95 33.85 -3.95 33.75 -3.6 34.5 -3.6 34.5 -0.95
Q 34.5 -0.45 34.75 -0.2 35.05 0.1 35.45 0.1
L 35.9 0.05 36.3 -0.15 36.2 -0.5
Q 35.8 -0.3 35.6 -0.3 35.35 -0.3 35.15 -0.5 35 -0.65 35 -1.05
L 35 -3.6 36.05 -3.6 36.15 -3.95 35 -3.95 Z"/>
</g>

<g id="BDM_300x250_psd_Asset_1_ManagedWiFi_Awareness_DM7_4_Get_a_better__understanding_of__your_customer_s_needs_____0_Layer0_0_MEMBER_8_FILL">
<path fill="#D82C26" stroke="none" d="
M 39.6 -3.85
Q 39.1 -4.1 38.55 -4.1 38.05 -4.1 37.55 -3.85 37.2 -3.6 36.85 -3.1 36.6 -2.5 36.6 -2 36.6 -1.5 36.85 -0.9 37.15 -0.45 37.6 -0.15 38 0.1 38.65 0.1 39.65 0.1 40.2 -0.4
L 40.15 -0.8 39.5 -0.45
Q 39.15 -0.3 38.65 -0.3 38.2 -0.3 37.85 -0.5 37.55 -0.7 37.3 -1.1 37.1 -1.45 37.1 -1.9
L 40.45 -1.9 40.45 -2.15
Q 40.45 -2.7 40.25 -3.1 40.05 -3.5 39.6 -3.85
M 38.55 -3.7
Q 39.2 -3.7 39.6 -3.3 39.9 -3 40 -2.3
L 37.1 -2.3
Q 37.1 -2.65 37.3 -2.9 37.45 -3.3 37.8 -3.5 38.05 -3.7 38.55 -3.7 Z"/>
</g>

<g id="BDM_300x250_psd_Asset_1_ManagedWiFi_Awareness_DM7_4_Get_a_better__understanding_of__your_customer_s_needs_____0_Layer0_0_MEMBER_9_FILL">
<path fill="#D82C26" stroke="none" d="
M 43.55 -4
L 43.1 -4.1
Q 42.8 -4.1 42.4 -3.85 42.1 -3.55 41.95 -3.1
L 41.9 -3.1 41.9 -3.95 41.4 -3.95 41.45 0 41.95 0 41.95 -1.95
Q 41.95 -2.7 42.25 -3.15 42.55 -3.65 43.05 -3.65
L 43.4 -3.6 43.55 -4 Z"/>
</g>

<g id="BDM_300x250_psd_Asset_1_ManagedWiFi_Awareness_DM7_4_Get_a_better__understanding_of__your_customer_s_needs_____0_Layer0_0_MEMBER_10_FILL">
<path fill="#D82C26" stroke="none" d="
M 1.25 5.2
L 0.75 5.2 0.75 7.65
Q 0.75 8.4 1.1 8.8 1.4 9.3 2.2 9.3 2.65 9.3 3.05 9.05 3.45 8.75 3.65 8.3
L 3.7 9.2 4.2 9.2 4.1 8.25 4.1 5.2 3.65 5.2 3.65 7.2
Q 3.65 7.6 3.45 8.1 3.3 8.5 3 8.7 2.6 8.9 2.3 8.9 1.75 8.9 1.45 8.5 1.25 8.15 1.25 7.5
L 1.25 5.2 Z"/>
</g>

<g id="BDM_300x250_psd_Asset_1_ManagedWiFi_Awareness_DM7_4_Get_a_better__understanding_of__your_customer_s_needs_____0_Layer0_0_MEMBER_11_FILL">
<path fill="#D82C26" stroke="none" d="
M 5.85 5.2
L 5.4 5.2 5.45 9.2 5.95 9.2 5.95 7.15
Q 5.95 6.65 6.1 6.25 6.2 6 6.6 5.7 7 5.5 7.25 5.5 7.8 5.5 8.1 5.9 8.35 6.3 8.35 6.9
L 8.35 9.2 8.85 9.2 8.85 6.75
Q 8.85 6.1 8.45 5.55 8.15 5.1 7.35 5.1 6.9 5.1 6.5 5.35 6.2 5.55 5.9 6.05
L 5.85 5.2 Z"/>
</g>

<g id="BDM_300x250_psd_Asset_1_ManagedWiFi_Awareness_DM7_4_Get_a_better__understanding_of__your_customer_s_needs_____0_Layer0_0_MEMBER_12_FILL">
<path fill="#D82C26" stroke="none" d="
M 11.8 5.1
Q 11.25 5.1 10.75 5.35 10.35 5.6 10.05 6.15 9.8 6.65 9.8 7.2 9.8 7.75 10.05 8.25 10.35 8.8 10.75 9 11.2 9.3 11.8 9.3 12.25 9.3 12.75 9.05 13.2 8.75 13.45 8.3
L 13.5 9.2 13.95 9.2 13.95 2.65 13.45 2.75 13.45 6.05 13.4 6.05
Q 13.15 5.55 12.75 5.35 12.25 5.1 11.8 5.1
M 11.9 5.5
Q 12.3 5.5 12.7 5.75 13.05 6 13.25 6.35 13.45 6.7 13.45 7.2 13.45 7.7 13.25 8.05 13.05 8.4 12.7 8.65 12.35 8.85 11.9 8.85 11.4 8.85 11.05 8.65 10.75 8.45 10.5 8.05 10.3 7.55 10.3 7.2 10.3 6.85 10.5 6.35 10.75 5.95 11.05 5.75 11.45 5.5 11.9 5.5 Z"/>
</g>

<g id="BDM_300x250_psd_Asset_1_ManagedWiFi_Awareness_DM7_4_Get_a_better__understanding_of__your_customer_s_needs_____0_Layer0_0_MEMBER_13_FILL">
<path fill="#D82C26" stroke="none" d="
M 15.9 5.35
Q 15.4 5.7 15.2 6.1 14.95 6.6 14.95 7.15 14.95 7.75 15.2 8.25 15.5 8.8 15.95 9.05 16.45 9.3 17 9.3 17.9 9.3 18.55 8.8
L 18.5 8.35 17.85 8.75
Q 17.5 8.9 17 8.9 16.6 8.9 16.2 8.65 15.75 8.4 15.65 8.1 15.45 7.75 15.45 7.25
L 18.8 7.25 18.8 7.05
Q 18.8 6.65 18.6 6.05 18.4 5.6 17.95 5.35 17.6 5.1 16.9 5.1 16.4 5.1 15.9 5.35
M 16.9 5.5
Q 17.55 5.5 17.95 5.85 18.3 6.25 18.3 6.9
L 15.45 6.9
Q 15.45 6.6 15.65 6.25 15.85 5.9 16.15 5.7 16.4 5.5 16.9 5.5 Z"/>
</g>

<g id="BDM_300x250_psd_Asset_1_ManagedWiFi_Awareness_DM7_4_Get_a_better__understanding_of__your_customer_s_needs_____0_Layer0_0_MEMBER_14_FILL">
<path fill="#D82C26" stroke="none" d="
M 20.25 6.05
L 20.25 5.2 19.75 5.2 19.8 9.2 20.3 9.2 20.3 7.2
Q 20.3 6.55 20.6 6 20.9 5.55 21.4 5.55
L 21.75 5.6 21.85 5.15 21.45 5.1
Q 21.15 5.1 20.75 5.35 20.45 5.7 20.3 6.05
L 20.25 6.05 Z"/>
</g>

<g id="BDM_300x250_psd_Asset_1_ManagedWiFi_Awareness_DM7_4_Get_a_better__understanding_of__your_customer_s_needs_____0_Layer0_0_MEMBER_15_FILL">
<path fill="#D82C26" stroke="none" d="
M 23.05 5.65
Q 23.3 5.5 23.65 5.5 24.05 5.5 24.25 5.6
L 24.7 5.85 24.9 5.5 24.35 5.2 23.65 5.1 23 5.2
Q 22.7 5.35 22.5 5.6 22.35 5.85 22.35 6.2 22.35 6.6 22.6 6.85 22.75 7 23.45 7.3 23.75 7.4 24.3 7.65 24.55 7.9 24.55 8.15 24.55 8.45 24.3 8.7 24.05 8.9 23.65 8.9 22.85 8.9 22.35 8.4
L 22.25 8.85
Q 22.5 9.1 22.85 9.15 23.25 9.3 23.7 9.3 24.05 9.3 24.35 9.15 24.65 9 24.85 8.75 25.05 8.45 25.05 8.15 25.05 7.7 24.75 7.45 24.5 7.2 23.8 6.95 23.15 6.75 23 6.6 22.8 6.45 22.8 6.15 22.8 5.8 23.05 5.65 Z"/>
</g>

<g id="BDM_300x250_psd_Asset_1_ManagedWiFi_Awareness_DM7_4_Get_a_better__understanding_of__your_customer_s_needs_____0_Layer0_0_MEMBER_16_FILL">
<path fill="#D82C26" stroke="none" d="
M 26.75 5.6
L 27.75 5.6 27.85 5.2 26.75 5.2 26.75 4.05 26.25 4.25 26.25 5.2 25.6 5.2 25.5 5.6 26.25 5.6 26.25 8.2
Q 26.25 8.65 26.5 9 26.75 9.25 27.15 9.25
L 27.6 9.2 28 9.05 27.95 8.7 27.3 8.85
Q 27.05 8.85 26.9 8.7 26.75 8.5 26.75 8.15
L 26.75 5.6 Z"/>
</g>

<g id="BDM_300x250_psd_Asset_1_ManagedWiFi_Awareness_DM7_4_Get_a_better__understanding_of__your_customer_s_needs_____0_Layer0_0_MEMBER_17_FILL">
<path fill="#D82C26" stroke="none" d="
M 31.3 6.8
L 30.8 6.8
Q 28.55 6.8 28.55 8.1 28.55 8.7 28.9 9 29.3 9.3 29.8 9.3 30.2 9.3 30.7 9.05 31.1 8.8 31.3 8.4
L 31.3 8.8 31.35 9.2 31.8 9.2 31.75 6.6
Q 31.75 5.85 31.35 5.45 31 5.1 30.2 5.1
L 29.4 5.2 28.75 5.6 28.9 6
Q 29.2 5.7 29.5 5.65 29.8 5.5 30.15 5.5 30.65 5.5 31 5.75 31.3 6.05 31.3 6.55
L 31.3 6.8
M 31.3 7.15
L 31.3 7.55 31.15 8.2 30.65 8.7
Q 30.4 8.9 29.9 8.9 29.5 8.9 29.25 8.7 29 8.55 29 8.1 29 7.15 30.85 7.15
L 31.3 7.15 Z"/>
</g>

<g id="BDM_300x250_psd_Asset_1_ManagedWiFi_Awareness_DM7_4_Get_a_better__understanding_of__your_customer_s_needs_____0_Layer0_0_MEMBER_18_FILL">
<path fill="#D82C26" stroke="none" d="
M 33.4 5.2
L 32.95 5.2 33 9.2 33.5 9.2 33.5 7.15
Q 33.5 6.65 33.65 6.25 33.85 5.95 34.15 5.7 34.55 5.5 34.8 5.5 35.4 5.5 35.65 5.9 35.9 6.3 35.9 6.9
L 35.9 9.2 36.4 9.2 36.4 6.75
Q 36.4 6.15 36.05 5.55 35.7 5.1 34.9 5.1 34.45 5.1 34.05 5.35 33.65 5.65 33.5 6.05
L 33.45 6.05 33.4 5.2 Z"/>
</g>

<g id="BDM_300x250_psd_Asset_1_ManagedWiFi_Awareness_DM7_4_Get_a_better__understanding_of__your_customer_s_needs_____0_Layer0_0_MEMBER_19_FILL">
<path fill="#D82C26" stroke="none" d="
M 41.55 9.2
L 41.5 2.65 41 2.75 41 6.05
Q 40.65 5.55 40.3 5.35 39.8 5.1 39.35 5.1 38.85 5.1 38.35 5.35 37.85 5.7 37.65 6.15 37.4 6.55 37.4 7.2 37.4 7.9 37.65 8.25 37.85 8.75 38.35 9 38.8 9.3 39.35 9.3 39.8 9.3 40.3 9.05 40.85 8.7 41 8.3
L 41.05 9.2 41.55 9.2
M 41 7.2
Q 41 7.7 40.8 8.05 40.55 8.45 40.25 8.65 39.9 8.85 39.45 8.85 38.95 8.85 38.6 8.65 38.25 8.4 38.05 8.05 37.9 7.7 37.9 7.2 37.9 6.75 38.05 6.35 38.25 6 38.6 5.75 39 5.5 39.45 5.5 39.85 5.5 40.25 5.75 40.55 5.95 40.8 6.35 41 6.7 41 7.2 Z"/>
</g>

<g id="BDM_300x250_psd_Asset_1_ManagedWiFi_Awareness_DM7_4_Get_a_better__understanding_of__your_customer_s_needs_____0_Layer0_0_MEMBER_20_FILL">
<path fill="#D82C26" stroke="none" d="
M 43.25 5.2
L 42.75 5.2 42.75 9.2 43.25 9.2 43.25 5.2
M 42.75 3.9
L 43 4 43.25 3.9
Q 43.35 3.8 43.35 3.6 43.35 3.45 43.25 3.35
L 43 3.25 42.75 3.35 42.65 3.6 42.75 3.9 Z"/>
</g>

<g id="BDM_300x250_psd_Asset_1_ManagedWiFi_Awareness_DM7_4_Get_a_better__understanding_of__your_customer_s_needs_____0_Layer0_0_MEMBER_21_FILL">
<path fill="#D82C26" stroke="none" d="
M 46.5 5.1
Q 46 5.1 45.6 5.35 45.2 5.65 45.05 6.05
L 45 5.2 44.5 5.2 44.55 9.2 45.05 9.2 45.05 7.15
Q 45.05 6.6 45.25 6.25 45.35 5.95 45.7 5.7 46.1 5.5 46.4 5.5 46.95 5.5 47.2 5.9 47.45 6.3 47.45 6.9
L 47.45 9.2 47.95 9.2 47.95 6.75
Q 47.95 6.05 47.6 5.55 47.25 5.1 46.5 5.1 Z"/>
</g>

<g id="BDM_300x250_psd_Asset_1_ManagedWiFi_Awareness_DM7_4_Get_a_better__understanding_of__your_customer_s_needs_____0_Layer0_0_MEMBER_22_FILL">
<path fill="#D82C26" stroke="none" d="
M 53.05 5.2
L 52.6 5.2 52.55 6.1
Q 52.4 5.7 51.85 5.35 51.35 5.1 50.9 5.1 50.4 5.1 49.9 5.35 49.4 5.7 49.2 6.15 48.95 6.55 48.95 7.2 48.95 7.9 49.2 8.25 49.4 8.7 49.9 9 50.4 9.25 50.9 9.25 51.35 9.25 51.85 9 52.4 8.65 52.55 8.3
L 52.55 9.15
Q 52.55 9.9 52.15 10.4 51.8 10.85 50.9 10.85 50.5 10.85 50.05 10.7 49.55 10.55 49.25 10.3
L 49.2 10.8
Q 49.4 10.95 50 11.15
L 50.95 11.25
Q 52.05 11.25 52.5 10.7 53.05 10.05 53.05 9.1
L 53.05 5.2
M 51 5.5
Q 51.4 5.5 51.8 5.75 52.1 5.95 52.35 6.35 52.55 6.7 52.55 7.2 52.55 7.65 52.35 8 52.1 8.4 51.8 8.6 51.4 8.85 51 8.85 50.55 8.85 50.15 8.6 49.8 8.35 49.6 8 49.45 7.65 49.45 7.2 49.45 6.75 49.6 6.35 49.8 6 50.15 5.75 50.55 5.5 51 5.5 Z"/>
</g>

<g id="BDM_300x250_psd_Asset_1_ManagedWiFi_Awareness_DM7_4_Get_a_better__understanding_of__your_customer_s_needs_____0_Layer0_0_MEMBER_23_FILL">
<path fill="#D82C26" stroke="none" d="
M 59.7 6.1
Q 59.4 5.65 58.9 5.35 58.4 5.1 57.85 5.1 57.35 5.1 56.75 5.35 56.3 5.65 56 6.1 55.75 6.5 55.75 7.2 55.75 7.9 56 8.25 56.3 8.75 56.75 9.05 57.35 9.3 57.85 9.3 58.4 9.3 58.9 9.05 59.4 8.75 59.7 8.25 59.95 7.75 59.95 7.2 59.95 6.6 59.7 6.1
M 57.85 5.5
Q 58.3 5.5 58.7 5.75 59.1 6 59.25 6.35 59.45 6.7 59.45 7.2 59.45 7.65 59.25 8.05 59.1 8.4 58.7 8.65 58.35 8.85 57.85 8.85 57.35 8.85 57 8.65 56.6 8.4 56.45 8.05 56.25 7.65 56.25 7.2 56.25 6.7 56.45 6.35 56.6 6 57 5.75 57.4 5.5 57.85 5.5 Z"/>
</g>

<g id="BDM_300x250_psd_Asset_1_ManagedWiFi_Awareness_DM7_4_Get_a_better__understanding_of__your_customer_s_needs_____0_Layer0_0_MEMBER_24_FILL">
<path fill="#D82C26" stroke="none" d="
M 63.05 2.75
L 62.35 2.65
Q 61.8 2.65 61.45 3 61.1 3.35 61.1 4.05
L 61.1 5.2 60.4 5.2 60.3 5.6 61.1 5.6 61.1 9.2 61.6 9.2 61.6 5.6 62.5 5.6 62.65 5.2 61.6 5.2 61.6 4.05
Q 61.6 3.65 61.75 3.35 61.95 3.1 62.35 3.1
L 63 3.15 63.05 2.75 Z"/>
</g>

<g id="BDM_300x250_psd_Asset_1_ManagedWiFi_Awareness_DM7_4_Get_a_better__understanding_of__your_customer_s_needs_____0_Layer0_0_MEMBER_25_FILL">
<path fill="#D82C26" stroke="none" d="
M 3.8 14.4
L 3.3 14.4 2.1 17.85 0.7 14.4 0.15 14.4 1.8 18.4 1.5 19.2
Q 1.35 19.6 1.1 19.75 0.9 19.95 0.4 19.95
L 0.55 20.4
Q 1.05 20.4 1.45 20.15 1.85 19.75 1.95 19.35
L 3.8 14.4 Z"/>
</g>

<g id="BDM_300x250_psd_Asset_1_ManagedWiFi_Awareness_DM7_4_Get_a_better__understanding_of__your_customer_s_needs_____0_Layer0_0_MEMBER_26_FILL">
<path fill="#D82C26" stroke="none" d="
M 6.25 14.25
Q 5.65 14.25 5.2 14.55 4.7 14.8 4.45 15.3 4.15 15.75 4.15 16.35 4.15 17 4.45 17.45 4.7 17.9 5.2 18.2 5.65 18.5 6.25 18.5 6.9 18.5 7.35 18.2 7.9 17.9 8.1 17.45 8.4 17 8.4 16.35 8.4 15.75 8.1 15.3 7.9 14.8 7.35 14.55 6.9 14.25 6.25 14.25
M 6.25 14.7
Q 6.85 14.7 7.1 14.9 7.5 15.15 7.7 15.5 7.9 16 7.9 16.35 7.9 16.7 7.7 17.2 7.45 17.6 7.15 17.8 6.85 18.05 6.25 18.05 5.7 18.05 5.4 17.8 5.1 17.6 4.85 17.2 4.65 16.7 4.65 16.35 4.65 16 4.85 15.5 5.1 15.1 5.4 14.9 5.75 14.7 6.25 14.7 Z"/>
</g>

<g id="BDM_300x250_psd_Asset_1_ManagedWiFi_Awareness_DM7_4_Get_a_better__understanding_of__your_customer_s_needs_____0_Layer0_0_MEMBER_27_FILL">
<path fill="#D82C26" stroke="none" d="
M 9.35 16.8
Q 9.35 17.6 9.7 18 10.1 18.45 10.8 18.45 11.35 18.45 11.7 18.2 12.1 17.95 12.25 17.5
L 12.35 18.35 12.8 18.35 12.75 14.4 12.25 14.4 12.25 16.35
Q 12.25 16.85 12.1 17.3 11.85 17.75 11.6 17.85 11.35 18.05 10.95 18.05 10.3 18.05 10.1 17.65 9.85 17.25 9.85 16.7
L 9.85 14.4 9.35 14.4 9.35 16.8 Z"/>
</g>

<g id="BDM_300x250_psd_Asset_1_ManagedWiFi_Awareness_DM7_4_Get_a_better__understanding_of__your_customer_s_needs_____0_Layer0_0_MEMBER_28_FILL">
<path fill="#D82C26" stroke="none" d="
M 15.65 14.7
L 16.05 14.75 16.15 14.35 15.7 14.25
Q 15.4 14.25 15 14.55 14.7 14.75 14.55 15.25
L 14.5 14.4 14 14.4 14.05 18.35 14.55 18.35 14.55 16.4
Q 14.55 15.75 14.85 15.2 15.2 14.7 15.65 14.7 Z"/>
</g>

<g id="BDM_300x250_psd_Asset_1_ManagedWiFi_Awareness_DM7_4_Get_a_better__understanding_of__your_customer_s_needs_____0_Layer0_0_MEMBER_29_FILL">
<path fill="#D82C26" stroke="none" d="
M 21.5 14.75
Q 21.3 14.55 20.9 14.4
L 20.15 14.25
Q 19.55 14.25 19.1 14.55 18.6 14.8 18.35 15.3 18.05 15.75 18.05 16.35 18.05 17 18.35 17.45 18.55 17.95 19.05 18.2 19.6 18.5 20.15 18.5
L 20.9 18.35
Q 21.3 18.2 21.5 18
L 21.45 17.6 20.85 17.95 20.2 18.05
Q 19.75 18.05 19.35 17.8 18.95 17.55 18.8 17.2 18.6 16.85 18.6 16.35 18.6 15.9 18.8 15.55 18.95 15.15 19.35 14.9 19.7 14.7 20.15 14.7
L 20.8 14.8 21.3 15.1 21.5 14.75 Z"/>
</g>

<g id="BDM_300x250_psd_Asset_1_ManagedWiFi_Awareness_DM7_4_Get_a_better__understanding_of__your_customer_s_needs_____0_Layer0_0_MEMBER_30_FILL">
<path fill="#D82C26" stroke="none" d="
M 25.75 18.35
L 25.65 17.45 25.65 14.4 25.15 14.4 25.15 16.35
Q 25.15 16.85 25 17.3 24.85 17.7 24.5 17.85 24.25 18.05 23.85 18.05 23.2 18.05 23 17.65 22.75 17.25 22.75 16.7
L 22.75 14.4 22.25 14.4 22.25 16.8
Q 22.25 17.5 22.6 18 23 18.45 23.7 18.45 24.3 18.45 24.6 18.2 25 17.95 25.15 17.5
L 25.25 18.35 25.75 18.35 Z"/>
</g>

<g id="BDM_300x250_psd_Asset_1_ManagedWiFi_Awareness_DM7_4_Get_a_better__understanding_of__your_customer_s_needs_____0_Layer0_0_MEMBER_31_FILL">
<path fill="#D82C26" stroke="none" d="
M 28.75 14.4
Q 28.4 14.25 28.05 14.25 27.7 14.25 27.4 14.4 27.2 14.45 26.9 14.75 26.7 15.15 26.7 15.35 26.7 15.85 27 16.05 27.35 16.3 27.85 16.5 28.15 16.6 28.7 16.85 28.95 17 28.95 17.35 28.95 17.65 28.7 17.9 28.3 18.1 28.05 18.1 27.35 18.1 26.75 17.6
L 26.65 18.05 27.25 18.35
Q 27.5 18.45 28.05 18.45
L 28.7 18.35
Q 29 18.2 29.2 17.95 29.4 17.7 29.4 17.3 29.4 16.9 29.1 16.6
L 27.4 15.8
Q 27.2 15.65 27.2 15.35 27.2 15 27.45 14.85 27.65 14.65 28.05 14.65
L 28.6 14.75 29.1 15.05 29.3 14.7 28.75 14.4 Z"/>
</g>

<g id="BDM_300x250_psd_Asset_1_ManagedWiFi_Awareness_DM7_4_Get_a_better__understanding_of__your_customer_s_needs_____0_Layer0_0_MEMBER_32_FILL">
<path fill="#D82C26" stroke="none" d="
M 30 14.4
L 29.9 14.8 30.65 14.8 30.65 17.4
Q 30.65 17.95 30.9 18.15 31.15 18.45 31.55 18.45
L 32 18.4 32.4 18.25 32.35 17.85
Q 32 18.05 31.7 18.05 31.45 18.05 31.3 17.85 31.15 17.7 31.15 17.35
L 31.15 14.8 32.15 14.8 32.25 14.4 31.15 14.4 31.15 13.25 30.65 13.45 30.65 14.4 30 14.4 Z"/>
</g>

<g id="BDM_300x250_psd_Asset_1_ManagedWiFi_Awareness_DM7_4_Get_a_better__understanding_of__your_customer_s_needs_____0_Layer0_0_MEMBER_33_FILL">
<path fill="#D82C26" stroke="none" d="
M 35.9 18.2
Q 36.45 17.9 36.65 17.45 36.95 17 36.95 16.35 36.95 15.75 36.65 15.3 36.45 14.8 35.9 14.55 35.45 14.25 34.8 14.25 34.2 14.25 33.75 14.55 33.25 14.8 33 15.3 32.7 15.75 32.7 16.35 32.7 17 33 17.45 33.25 17.9 33.75 18.2 34.2 18.5 34.8 18.5 35.45 18.5 35.9 18.2
M 36.25 17.2
Q 36 17.6 35.7 17.8 35.4 18.05 34.8 18.05 34.25 18.05 33.95 17.8 33.6 17.55 33.4 17.2 33.2 16.7 33.2 16.35 33.2 16 33.4 15.5 33.6 15.15 33.95 14.9 34.3 14.7 34.8 14.7 35.35 14.7 35.7 14.9 36.05 15.15 36.25 15.5 36.45 15.85 36.45 16.35 36.45 16.85 36.25 17.2 Z"/>
</g>

<g id="BDM_300x250_psd_Asset_1_ManagedWiFi_Awareness_DM7_4_Get_a_better__understanding_of__your_customer_s_needs_____0_Layer0_0_MEMBER_34_FILL">
<path fill="#D82C26" stroke="none" d="
M 41.1 15.3
Q 40.95 14.8 40.65 14.55 40.35 14.25 39.8 14.25 39.4 14.25 39 14.55 38.6 14.8 38.45 15.25
L 38.4 14.4 37.95 14.4 37.95 18.35 38.45 18.35 38.45 16.4
Q 38.45 15.85 38.65 15.45 38.8 15.05 39.05 14.9 39.3 14.7 39.7 14.7 40.25 14.7 40.45 15.05 40.7 15.4 40.7 16
L 40.7 18.35 41.2 18.35 41.2 16.3
Q 41.2 15.55 41.55 15.15 41.95 14.7 42.45 14.7 43.05 14.7 43.25 15.1 43.5 15.5 43.5 16.1
L 43.5 18.35 44 18.35 44 16
Q 44 15.25 43.65 14.75 43.25 14.25 42.55 14.25 42.1 14.25 41.7 14.55 41.35 14.8 41.1 15.3 Z"/>
</g>

<g id="BDM_300x250_psd_Asset_1_ManagedWiFi_Awareness_DM7_4_Get_a_better__understanding_of__your_customer_s_needs_____0_Layer0_0_MEMBER_35_FILL">
<path fill="#D82C26" stroke="none" d="
M 46.95 14.25
Q 46.4 14.25 45.95 14.55 45.5 14.8 45.25 15.25 45 15.7 45 16.35 45 17.1 45.25 17.45 45.45 17.9 45.95 18.2 46.5 18.5 47 18.5 47.85 18.5 48.6 18
L 48.5 17.55
Q 48.35 17.7 47.85 17.9 47.5 18.05 47.05 18.05 46.6 18.05 46.25 17.85 45.85 17.6 45.7 17.25 45.45 16.85 45.45 16.45
L 48.85 16.45 48.85 16.25
Q 48.85 15.75 48.6 15.25 48.35 14.75 47.95 14.55 47.6 14.25 46.95 14.25
M 46.95 14.65
Q 47.55 14.65 47.95 15.05 48.35 15.45 48.35 16.1
L 45.45 16.1 45.65 15.45
Q 45.85 15.15 46.15 14.9 46.55 14.65 46.95 14.65 Z"/>
</g>

<g id="BDM_300x250_psd_Asset_1_ManagedWiFi_Awareness_DM7_4_Get_a_better__understanding_of__your_customer_s_needs_____0_Layer0_0_MEMBER_36_FILL">
<path fill="#D82C26" stroke="none" d="
M 49.8 14.4
L 49.85 18.35 50.35 18.35 50.35 16.4
Q 50.35 15.75 50.65 15.2 51 14.7 51.45 14.7
L 51.8 14.75 51.9 14.35 51.5 14.25
Q 51.1 14.25 50.8 14.55 50.55 14.75 50.3 15.25
L 50.25 14.4 49.8 14.4 Z"/>
</g>

<g id="BDM_300x250_psd_Asset_1_ManagedWiFi_Awareness_DM7_4_Get_a_better__understanding_of__your_customer_s_needs_____0_Layer0_0_MEMBER_37_FILL">
<path fill="#D82C26" stroke="none" d="
M 52.7 12.35
L 52.7 14.35 53.1 14.35 53.1 12.35 52.7 12.35 Z"/>
</g>

<g id="BDM_300x250_psd_Asset_1_ManagedWiFi_Awareness_DM7_4_Get_a_better__understanding_of__your_customer_s_needs_____0_Layer0_0_MEMBER_38_FILL">
<path fill="#D82C26" stroke="none" d="
M 56.4 17.35
Q 56.4 17.65 56.15 17.9 55.75 18.1 55.5 18.1 54.8 18.1 54.2 17.6
L 54.1 18.05 54.7 18.35
Q 54.95 18.45 55.5 18.45
L 56.2 18.35 56.7 17.95
Q 56.85 17.65 56.85 17.3 56.85 16.9 56.55 16.6
L 54.85 15.8
Q 54.65 15.65 54.65 15.35 54.65 15 54.9 14.85 55.1 14.65 55.5 14.65
L 56.05 14.75 56.55 15.05 56.75 14.7 56.2 14.4
Q 55.85 14.25 55.5 14.25 55.15 14.25 54.85 14.4 54.65 14.45 54.35 14.75 54.15 15.15 54.15 15.35 54.15 15.85 54.45 16.05 54.8 16.3 55.3 16.5 55.6 16.6 56.15 16.85 56.4 17 56.4 17.35 Z"/>
</g>

<g id="BDM_300x250_psd_Asset_1_ManagedWiFi_Awareness_DM7_4_Get_a_better__understanding_of__your_customer_s_needs_____0_Layer0_0_MEMBER_39_FILL">
<path fill="#D82C26" stroke="none" d="
M 62.55 14.75
Q 62.2 14.25 61.45 14.25 61 14.25 60.6 14.55 60.25 14.7 60 15.25
L 59.95 14.4 59.5 14.4 59.55 18.35 60.05 18.35 60.05 16.35
Q 60.05 15.85 60.2 15.45 60.35 15.1 60.7 14.9 60.95 14.7 61.35 14.7 61.95 14.7 62.2 15.1 62.45 15.5 62.45 16.05
L 62.45 18.35 62.95 18.35 62.95 15.95
Q 62.95 15.25 62.55 14.75 Z"/>
</g>

<g id="BDM_300x250_psd_Asset_1_ManagedWiFi_Awareness_DM7_4_Get_a_better__understanding_of__your_customer_s_needs_____0_Layer0_0_MEMBER_40_FILL">
<path fill="#D82C26" stroke="none" d="
M 67.55 15.25
Q 67.3 14.75 66.9 14.55 66.45 14.25 65.9 14.25 65.35 14.25 64.9 14.55 64.5 14.75 64.15 15.25 63.9 15.85 63.9 16.35 63.9 17 64.2 17.45 64.4 17.9 64.9 18.2 65.35 18.5 65.95 18.5 66.8 18.5 67.55 18
L 67.45 17.55 66.8 17.9
Q 66.45 18.05 66 18.05 65.5 18.05 65.15 17.85 64.8 17.6 64.6 17.25 64.4 16.9 64.4 16.45
L 67.75 16.45 67.75 16.25
Q 67.75 15.65 67.55 15.25
M 65.9 14.65
Q 66.5 14.65 66.9 15.05 67.3 15.45 67.3 16.1
L 64.4 16.1
Q 64.4 15.85 64.6 15.45 64.7 15.2 65.1 14.9 65.45 14.65 65.9 14.65 Z"/>
</g>

<g id="BDM_300x250_psd_Asset_1_ManagedWiFi_Awareness_DM7_4_Get_a_better__understanding_of__your_customer_s_needs_____0_Layer0_0_MEMBER_41_FILL">
<path fill="#D82C26" stroke="none" d="
M 69.5 14.55
Q 69.05 14.8 68.8 15.25 68.55 15.7 68.55 16.35 68.55 17.1 68.8 17.45 69 17.9 69.5 18.2 69.95 18.5 70.55 18.5 71.4 18.5 72.15 18
L 72.05 17.55
Q 71.9 17.7 71.4 17.9 71.05 18.05 70.6 18.05 70.15 18.05 69.8 17.85 69.45 17.65 69.2 17.25 69 16.75 69 16.45
L 72.35 16.45 72.4 16.25
Q 72.4 15.75 72.15 15.25 71.9 14.75 71.5 14.55 71.15 14.25 70.5 14.25 69.95 14.25 69.5 14.55
M 69.7 14.9
Q 70.1 14.65 70.5 14.65 71.1 14.65 71.5 15.05 71.9 15.45 71.9 16.1
L 69 16.1 69.2 15.45
Q 69.4 15.15 69.7 14.9 Z"/>
</g>

<g id="BDM_300x250_psd_Asset_1_ManagedWiFi_Awareness_DM7_4_Get_a_better__understanding_of__your_customer_s_needs_____0_Layer0_0_MEMBER_42_FILL">
<path fill="#D82C26" stroke="none" d="
M 77.25 11.85
L 76.75 11.95 76.75 15.25
Q 76.5 14.8 76.05 14.55 75.7 14.25 75.15 14.25 74.55 14.25 74.1 14.55 73.6 14.9 73.4 15.3 73.15 15.75 73.15 16.35 73.15 17 73.4 17.45 73.6 17.9 74.1 18.2 74.5 18.45 75.15 18.45 75.75 18.45 76.1 18.2 76.55 17.95 76.75 17.5
L 76.8 17.5 76.8 18.35 77.3 18.35 77.25 11.85
M 76.55 17.2
Q 76.4 17.55 76 17.8 75.7 18.05 75.2 18.05 74.7 18.05 74.35 17.85 73.95 17.55 73.85 17.2 73.65 16.85 73.65 16.35 73.65 15.9 73.85 15.55 73.95 15.2 74.35 14.9 74.7 14.7 75.2 14.7 75.65 14.7 76 14.9 76.4 15.15 76.55 15.55 76.8 15.95 76.8 16.35 76.8 16.8 76.55 17.2 Z"/>
</g>

<g id="BDM_300x250_psd_Asset_1_ManagedWiFi_Awareness_DM7_4_Get_a_better__understanding_of__your_customer_s_needs_____0_Layer0_0_MEMBER_43_FILL">
<path fill="#D82C26" stroke="none" d="
M 78.75 15.35
Q 78.75 15 79 14.85 79.2 14.65 79.65 14.65
L 80.2 14.75 80.65 15.05 80.85 14.7 80.3 14.4
Q 80 14.25 79.6 14.25 79.3 14.25 79 14.4 78.7 14.5 78.5 14.75 78.3 15 78.3 15.35 78.3 15.85 78.6 16.05 78.8 16.25 79.4 16.5 79.9 16.65 80.25 16.85 80.5 17 80.5 17.35 80.5 17.7 80.25 17.9 79.95 18.1 79.65 18.1 78.9 18.1 78.3 17.6
L 78.2 18.05 78.85 18.35
Q 79.1 18.45 79.65 18.45
L 80.3 18.35 80.8 17.95
Q 81 17.7 81 17.3 81 16.9 80.7 16.6 80.4 16.35 79.75 16.15
L 79 15.8
Q 78.75 15.65 78.75 15.35 Z"/>
</g>

<g id="BDM_300x250_psd_Asset_1_ManagedWiFi_Awareness_DM7_4_Get_a_better__understanding_of__your_customer_s_needs_____0_Layer0_0_MEMBER_44_FILL">
<path fill="#D82C26" stroke="none" d="
M 82.05 18.3
Q 82.1 18.4 82.3 18.4 82.5 18.4 82.6 18.3
L 82.7 18.05 82.6 17.75 82.3 17.65 82.05 17.75 81.95 18.05
Q 81.95 18.25 82.05 18.3 Z"/>
</g>

<g id="BDM_300x250_psd_Asset_1_ManagedWiFi_Awareness_DM7_4_Watch_the_video___0_Layer0_0_MEMBER_0_FILL">
<path fill="#24B9D1" stroke="none" d="
M 3.6 -1.95
L 1.4 -10.05 -0.1 -10.05 2.8 0 4.35 0 6.7 -8.15 6.75 -8.15 9.15 0 10.65 0 13.6 -10.05 12.1 -10.05 9.9 -1.95 9.85 -1.95 7.55 -10.05 5.95 -10.05 3.65 -1.95 3.6 -1.95 Z"/>
</g>

<g id="BDM_300x250_psd_Asset_1_ManagedWiFi_Awareness_DM7_4_Watch_the_video___0_Layer0_0_MEMBER_1_FILL">
<path fill="#24B9D1" stroke="none" d="
M 18.45 -6.3
Q 17.75 -7 16.4 -7 14.85 -7 13.7 -6.2
L 14.05 -5.2
Q 14.65 -5.6 15.05 -5.75 15.6 -5.95 16.15 -5.95 17 -5.95 17.4 -5.6 17.8 -5.2 17.8 -4.45
L 17.8 -4.15 17.25 -4.15
Q 15.5 -4.15 14.45 -3.65 13.35 -3.2 13.35 -1.9 13.35 -0.8 14 -0.35 14.65 0.2 15.5 0.2 16.1 0.2 16.9 -0.15 17.5 -0.4 17.85 -1.1
L 17.9 -1.1 17.9 -0.6 18 0 19.25 0
Q 19.15 -0.35 19.15 -1.4
L 19.15 -4.25
Q 19.15 -5.6 18.45 -6.3
M 15 -1.05
Q 14.65 -1.35 14.65 -1.9 14.65 -3.3 17.3 -3.3
L 17.85 -3.3 17.85 -2.8
Q 17.85 -2.2 17.6 -1.85 17.35 -1.35 16.95 -1.1 16.45 -0.8 15.85 -0.8 15.35 -0.8 15 -1.05 Z"/>
</g>

<g id="BDM_300x250_psd_Asset_1_ManagedWiFi_Awareness_DM7_4_Watch_the_video___0_Layer0_0_MEMBER_2_FILL">
<path fill="#24B9D1" stroke="none" d="
M 19.75 -6.8
L 19.55 -5.75 20.75 -5.75 20.75 -1.85
Q 20.75 -1 21.25 -0.4 21.65 0.15 22.6 0.15 23.5 0.15 24.2 -0.2
L 24.05 -1.2
Q 23.45 -0.95 23.05 -0.95 22.1 -0.95 22.1 -2.05
L 22.1 -5.75 23.8 -5.75 24 -6.8 22.1 -6.8 22.1 -8.7 20.75 -8.35 20.75 -6.8 19.75 -6.8 Z"/>
</g>

<g id="BDM_300x250_psd_Asset_1_ManagedWiFi_Awareness_DM7_4_Watch_the_video___0_Layer0_0_MEMBER_3_FILL">
<path fill="#24B9D1" stroke="none" d="
M 28.1 -7
Q 27.1 -7 26.25 -6.55 25.35 -6.05 24.95 -5.3 24.45 -4.5 24.45 -3.4 24.45 -2.3 24.9 -1.55 25.5 -0.65 26.2 -0.25 27.05 0.2 28 0.2 28.65 0.2 29.4 -0.05 30.1 -0.3 30.45 -0.6
L 30.25 -1.7
Q 29.75 -1.25 29.3 -1.15 28.7 -0.95 28.25 -0.95 27.5 -0.95 26.95 -1.3 26.45 -1.6 26.15 -2.2 25.85 -2.7 25.85 -3.4 25.85 -4.05 26.15 -4.65 26.45 -5.2 26.95 -5.55 27.5 -5.85 28.15 -5.85
L 29.1 -5.7
Q 29.7 -5.4 29.9 -5.2
L 30.45 -6.25
Q 30.15 -6.55 29.4 -6.8 28.85 -7 28.1 -7 Z"/>
</g>

<g id="BDM_300x250_psd_Asset_1_ManagedWiFi_Awareness_DM7_4_Watch_the_video___0_Layer0_0_MEMBER_4_FILL">
<path fill="#24B9D1" stroke="none" d="
M 32.7 -10.9
L 31.3 -10.7 31.3 0 32.7 0 32.7 -3.45
Q 32.7 -4.55 33.2 -5.2 33.7 -5.85 34.55 -5.85 35.35 -5.85 35.75 -5.3 36.1 -4.6 36.1 -3.85
L 36.1 0 37.45 0 37.45 -4.15
Q 37.45 -5.35 36.85 -6.2 36.25 -7 35 -7 34.25 -7 33.6 -6.6 33 -6.25 32.7 -5.6
L 32.7 -10.9 Z"/>
</g>

<g id="BDM_300x250_psd_Asset_1_ManagedWiFi_Awareness_DM7_4_Watch_the_video___0_Layer0_0_MEMBER_5_FILL">
<path fill="#24B9D1" stroke="none" d="
M 42.2 -6.8
L 41.2 -6.8 41 -5.75 42.2 -5.75 42.2 -1.85
Q 42.2 -0.9 42.65 -0.4 43.05 0.15 44 0.15 44.95 0.15 45.65 -0.2
L 45.45 -1.2
Q 44.85 -0.95 44.45 -0.95 43.55 -0.95 43.55 -2.05
L 43.55 -5.75 45.25 -5.75 45.45 -6.8 43.55 -6.8 43.55 -8.7 42.2 -8.35 42.2 -6.8 Z"/>
</g>

<g id="BDM_300x250_psd_Asset_1_ManagedWiFi_Awareness_DM7_4_Watch_the_video___0_Layer0_0_MEMBER_6_FILL">
<path fill="#24B9D1" stroke="none" d="
M 47.75 -10.9
L 46.35 -10.7 46.35 0 47.75 0 47.75 -3.45
Q 47.75 -4.55 48.25 -5.2 48.75 -5.85 49.6 -5.85 50.4 -5.85 50.8 -5.3 51.1 -4.7 51.1 -3.85
L 51.1 0 52.5 0 52.5 -4.15
Q 52.5 -5.35 51.9 -6.2 51.3 -7 50.05 -7 49.3 -7 48.65 -6.6 48.05 -6.25 47.75 -5.6
L 47.75 -10.9 Z"/>
</g>

<g id="BDM_300x250_psd_Asset_1_ManagedWiFi_Awareness_DM7_4_Watch_the_video___0_Layer0_0_MEMBER_7_FILL">
<path fill="#24B9D1" stroke="none" d="
M 58.95 -6.55
Q 58.2 -7 57.15 -7 56.25 -7 55.4 -6.55 54.55 -6.05 54.15 -5.3 53.7 -4.45 53.7 -3.4 53.7 -2.3 54.15 -1.5 54.55 -0.75 55.45 -0.25 56.3 0.2 57.3 0.2 58.95 0.2 60.05 -0.6
L 59.85 -1.65
Q 59.55 -1.4 58.75 -1.1 58.2 -0.9 57.45 -0.9 56.85 -0.9 56.2 -1.15 55.7 -1.45 55.35 -1.95 55.1 -2.4 55 -3.1
L 60.45 -3.1 60.5 -3.5
Q 60.5 -4.45 60.1 -5.35 59.6 -6.15 58.95 -6.55
M 55 -4
Q 55.1 -4.5 55.3 -4.95 55.6 -5.4 56.05 -5.7 56.6 -6 57.2 -6 58.1 -6 58.65 -5.45 59.2 -4.9 59.2 -4
L 55 -4 Z"/>
</g>

<g id="BDM_300x250_psd_Asset_1_ManagedWiFi_Awareness_DM7_4_Watch_the_video___0_Layer0_0_MEMBER_8_FILL">
<path fill="#24B9D1" stroke="none" d="
M 65.05 -6.8
L 63.55 -6.8 66.2 0 67.7 0 70.3 -6.8 68.85 -6.8 66.95 -1.45 65.05 -6.8 Z"/>
</g>

<g id="BDM_300x250_psd_Asset_1_ManagedWiFi_Awareness_DM7_4_Watch_the_video___0_Layer0_0_MEMBER_9_FILL">
<path fill="#24B9D1" stroke="none" d="
M 71.05 -8.7
Q 71.3 -8.45 71.65 -8.45 72 -8.45 72.25 -8.7 72.5 -9.05 72.5 -9.3 72.5 -9.65 72.25 -9.9 72.05 -10.15 71.65 -10.15 71.25 -10.15 71.05 -9.9 70.8 -9.7 70.8 -9.3 70.8 -8.95 71.05 -8.7
M 72.35 -6.8
L 70.95 -6.8 70.95 0 72.35 0 72.35 -6.8 Z"/>
</g>

<g id="BDM_300x250_psd_Asset_1_ManagedWiFi_Awareness_DM7_4_Watch_the_video___0_Layer0_0_MEMBER_10_FILL">
<path fill="#24B9D1" stroke="none" d="
M 80.85 -10.95
L 79.45 -10.75 79.45 -5.6
Q 79.1 -6.25 78.4 -6.65 77.75 -7 76.9 -7 75.9 -7 75.2 -6.5 74.45 -6.05 74 -5.2 73.6 -4.3 73.6 -3.4 73.6 -2.5 74 -1.6 74.5 -0.7 75.2 -0.3 76.05 0.2 76.95 0.2 77.75 0.2 78.45 -0.2 79.15 -0.55 79.5 -1.25
L 79.55 -1.25 79.6 0 80.9 0 80.85 -10.95
M 74.95 -3.4
Q 74.95 -4 75.2 -4.65 75.5 -5.2 76 -5.55 76.55 -5.85 77.2 -5.85 77.9 -5.85 78.4 -5.55 78.9 -5.2 79.2 -4.65 79.5 -4.05 79.5 -3.4 79.5 -2.7 79.2 -2.2 78.9 -1.6 78.4 -1.3 77.8 -0.95 77.2 -0.95 76.6 -0.95 76 -1.3 75.5 -1.6 75.2 -2.2 74.95 -2.8 74.95 -3.4 Z"/>
</g>

<g id="BDM_300x250_psd_Asset_1_ManagedWiFi_Awareness_DM7_4_Watch_the_video___0_Layer0_0_MEMBER_11_FILL">
<path fill="#24B9D1" stroke="none" d="
M 85.6 -7
Q 84.65 -7 83.8 -6.55 82.95 -6.05 82.55 -5.3 82.1 -4.45 82.1 -3.4 82.1 -2.3 82.55 -1.5 83.1 -0.65 83.85 -0.25 84.7 0.2 85.7 0.2 87.35 0.2 88.45 -0.6
L 88.25 -1.65
Q 87.9 -1.35 87.15 -1.1 86.6 -0.9 85.85 -0.9 85.25 -0.9 84.65 -1.15 84.25 -1.35 83.75 -1.95 83.5 -2.4 83.4 -3.1
L 88.9 -3.1 88.9 -3.5
Q 88.9 -4.45 88.5 -5.35 88.15 -6.1 87.35 -6.55 86.6 -7 85.6 -7
M 83.75 -4.95
Q 83.95 -5.35 84.45 -5.7 85 -6 85.6 -6 86.55 -6 87.05 -5.45 87.6 -4.9 87.6 -4
L 83.45 -4
Q 83.45 -4.5 83.75 -4.95 Z"/>
</g>

<g id="BDM_300x250_psd_Asset_1_ManagedWiFi_Awareness_DM7_4_Watch_the_video___0_Layer0_0_MEMBER_12_FILL">
<path fill="#24B9D1" stroke="none" d="
M 89.7 -3.4
Q 89.7 -2.35 90.15 -1.55 90.7 -0.7 91.5 -0.25 92.35 0.2 93.35 0.2 94.45 0.2 95.25 -0.25 96.1 -0.7 96.55 -1.55 97.05 -2.35 97.05 -3.4 97.05 -4.5 96.55 -5.3 96.15 -6.05 95.25 -6.55 94.45 -7 93.35 -7 92.35 -7 91.5 -6.55 90.65 -6.1 90.15 -5.3 89.7 -4.45 89.7 -3.4
M 94.6 -5.55
Q 95.1 -5.2 95.4 -4.65 95.7 -4.05 95.7 -3.4 95.7 -2.7 95.4 -2.2 95.1 -1.6 94.6 -1.3 94 -0.95 93.35 -0.95 92.75 -0.95 92.15 -1.3 91.55 -1.65 91.35 -2.2 91.05 -2.7 91.05 -3.4 91.05 -4.05 91.35 -4.65 91.55 -5.1 92.15 -5.55 92.7 -5.85 93.35 -5.85 94.1 -5.85 94.6 -5.55 Z"/>
</g>

<g id="BDM_300x250_psd_Asset_1_ManagedWiFi_Awareness_DM7_4_Watch_the_video___0_Layer0_0_MEMBER_13_FILL">
<path fill="#24B9D1" stroke="none" d="
M 98 -0.8
Q 98 -0.4 98.25 -0.15 98.6 0.1 98.9 0.1 99.35 0.1 99.55 -0.15 99.8 -0.35 99.8 -0.8 99.8 -1.25 99.55 -1.45 99.35 -1.75 98.9 -1.75 98.55 -1.75 98.25 -1.45 98 -1.2 98 -0.8 Z"/>
</g>

<g id="BDM_300x250_psd_Asset_1_ManagedWiFi_Awareness_DM7_4_Do_more_with_Wi_Fi_as_a_Service__0_Layer0_0_MEMBER_0_FILL">
<path fill="#838282" stroke="none" d="
M 9.25 -7.8
Q 8.45 -8.9 7.25 -9.4 6.05 -9.9 4.5 -9.9
L 1.25 -9.9 1.25 0 4.55 0
Q 6 0 7.25 -0.55 8.5 -1.05 9.25 -2.2 10 -3.3 10 -4.95 10 -6.65 9.25 -7.8
M 2.65 -8.7
L 4.4 -8.7
Q 6.3 -8.7 7.4 -7.75 8.55 -6.85 8.55 -4.95 8.55 -3.1 7.4 -2.2 6.25 -1.25 4.35 -1.25
L 2.65 -1.25 2.65 -8.7 Z"/>
</g>

<g id="BDM_300x250_psd_Asset_1_ManagedWiFi_Awareness_DM7_4_Do_more_with_Wi_Fi_as_a_Service__0_Layer0_0_MEMBER_1_FILL">
<path fill="#838282" stroke="none" d="
M 14.7 -6.9
Q 13.7 -6.9 12.85 -6.45 12.05 -6.05 11.55 -5.2 11.05 -4.5 11.05 -3.35 11.05 -2.3 11.55 -1.5 11.95 -0.75 12.85 -0.25 13.7 0.2 14.7 0.2 15.75 0.2 16.55 -0.25 17.3 -0.65 17.85 -1.5 18.3 -2.3 18.3 -3.35 18.3 -4.4 17.85 -5.25 17.25 -6.15 16.55 -6.45 15.75 -6.9 14.7 -6.9
M 13.45 -5.45
Q 14.05 -5.8 14.7 -5.8 15.3 -5.8 15.9 -5.45 16.35 -5.2 16.7 -4.6 17 -4 17 -3.35 17 -2.75 16.7 -2.15 16.35 -1.55 15.9 -1.3 15.4 -0.95 14.7 -0.95 13.95 -0.95 13.45 -1.3 13 -1.55 12.65 -2.15 12.4 -2.8 12.4 -3.35 12.4 -3.95 12.65 -4.6 13 -5.2 13.45 -5.45 Z"/>
</g>

<g id="BDM_300x250_psd_Asset_1_ManagedWiFi_Awareness_DM7_4_Do_more_with_Wi_Fi_as_a_Service__0_Layer0_0_MEMBER_2_FILL">
<path fill="#838282" stroke="none" d="
M 27.7 -6.5
Q 27.15 -6.9 26.4 -6.9 25.7 -6.9 25.05 -6.5 24.4 -6.1 24.2 -5.45
L 24.15 -5.45 24.1 -6.7 22.75 -6.7 22.85 0 24.2 0 24.2 -3.45
Q 24.2 -4.4 24.7 -5.15 25.2 -5.8 25.95 -5.8 26.6 -5.8 27 -5.3 27.35 -4.8 27.35 -3.9
L 27.35 0 28.7 0 28.7 -3.55
Q 28.7 -4.4 29.2 -5.15 29.7 -5.8 30.45 -5.8 31.25 -5.8 31.55 -5.2 31.9 -4.7 31.9 -3.75
L 31.9 0 33.25 0 33.25 -4.05
Q 33.25 -5.25 32.65 -6.1 32.15 -6.9 30.85 -6.9 30.1 -6.9 29.45 -6.5 28.85 -6.15 28.5 -5.4 28.3 -6.05 27.7 -6.5 Z"/>
</g>

<g id="BDM_300x250_psd_Asset_1_ManagedWiFi_Awareness_DM7_4_Do_more_with_Wi_Fi_as_a_Service__0_Layer0_0_MEMBER_3_FILL">
<path fill="#838282" stroke="none" d="
M 40.1 -6.45
Q 39.3 -6.9 38.25 -6.9 37.25 -6.9 36.4 -6.45 35.6 -6.05 35.1 -5.2 34.65 -4.45 34.65 -3.35 34.65 -2.3 35.1 -1.5 35.5 -0.75 36.4 -0.25 37.25 0.2 38.25 0.2 39.3 0.2 40.1 -0.25 41 -0.75 41.4 -1.5 41.9 -2.4 41.9 -3.35 41.9 -4.35 41.4 -5.25 40.9 -6.1 40.1 -6.45
M 38.25 -5.8
Q 38.95 -5.8 39.45 -5.45 40.05 -5.1 40.25 -4.6 40.55 -4 40.55 -3.35 40.55 -2.75 40.25 -2.15 40.05 -1.65 39.45 -1.3 39.05 -0.95 38.25 -0.95 37.55 -0.95 37.05 -1.3 36.6 -1.55 36.25 -2.15 35.95 -2.75 35.95 -3.35 35.95 -4 36.25 -4.6 36.6 -5.2 37.05 -5.45 37.65 -5.8 38.25 -5.8 Z"/>
</g>

<g id="BDM_300x250_psd_Asset_1_ManagedWiFi_Awareness_DM7_4_Do_more_with_Wi_Fi_as_a_Service__0_Layer0_0_MEMBER_4_FILL">
<path fill="#838282" stroke="none" d="
M 47.2 -6.8
L 46.45 -6.9
Q 45.95 -6.9 45.4 -6.5 44.9 -6.1 44.7 -5.45
L 44.65 -5.45 44.55 -6.7 43.25 -6.7 43.35 0 44.7 0 44.7 -3.35
Q 44.7 -4.3 45.15 -5 45.55 -5.7 46.4 -5.7 46.8 -5.7 47 -5.6
L 47.2 -6.8 Z"/>
</g>

<g id="BDM_300x250_psd_Asset_1_ManagedWiFi_Awareness_DM7_4_Do_more_with_Wi_Fi_as_a_Service__0_Layer0_0_MEMBER_5_FILL">
<path fill="#838282" stroke="none" d="
M 47.75 -1.5
Q 48.2 -0.7 49 -0.25 49.85 0.2 50.8 0.2 52.45 0.2 53.55 -0.55
L 53.35 -1.6
Q 52.8 -1.25 52.25 -1.1 51.6 -0.85 50.95 -0.85 50.35 -0.85 49.75 -1.15 49.15 -1.5 48.9 -1.95 48.65 -2.4 48.55 -3.05
L 53.95 -3.05 53.95 -3.45
Q 53.95 -4.6 53.55 -5.25 53.1 -6.1 52.45 -6.45 51.7 -6.9 50.7 -6.9 49.8 -6.9 48.95 -6.45 48.2 -6 47.7 -5.2 47.25 -4.45 47.25 -3.35 47.25 -2.3 47.75 -1.5
M 48.85 -4.85
Q 49.15 -5.35 49.6 -5.65 50.05 -5.95 50.7 -5.95 51.6 -5.95 52.15 -5.4 52.7 -4.75 52.7 -3.95
L 48.6 -3.95
Q 48.6 -4.35 48.85 -4.85 Z"/>
</g>

<g id="BDM_300x250_psd_Asset_1_ManagedWiFi_Awareness_DM7_4_Do_more_with_Wi_Fi_as_a_Service__0_Layer0_0_MEMBER_6_FILL">
<path fill="#838282" stroke="none" d="
M 60.5 -1.55
L 59 -6.7 57.55 -6.7 59.7 0 61.15 0 62.8 -5.1 62.85 -5.1 64.55 0 65.95 0 68.1 -6.7 66.7 -6.7 65.25 -1.55 65.2 -1.55 63.55 -6.7 62.15 -6.7 60.5 -1.55 Z"/>
</g>

<g id="BDM_300x250_psd_Asset_1_ManagedWiFi_Awareness_DM7_4_Do_more_with_Wi_Fi_as_a_Service__0_Layer0_0_MEMBER_7_FILL">
<path fill="#838282" stroke="none" d="
M 70.45 -6.7
L 69.1 -6.7 69.1 0 70.45 0 70.45 -6.7
M 69.8 -10
Q 69.4 -10 69.15 -9.8 68.9 -9.45 68.9 -9.2 68.9 -8.85 69.15 -8.6 69.4 -8.35 69.8 -8.35 70.15 -8.35 70.35 -8.6 70.6 -8.8 70.6 -9.2 70.6 -9.55 70.35 -9.8 70.15 -10 69.8 -10 Z"/>
</g>

<g id="BDM_300x250_psd_Asset_1_ManagedWiFi_Awareness_DM7_4_Do_more_with_Wi_Fi_as_a_Service__0_Layer0_0_MEMBER_8_FILL">
<path fill="#838282" stroke="none" d="
M 72.5 -6.7
L 71.5 -6.7 71.3 -5.65 72.5 -5.65 72.5 -1.85
Q 72.5 -0.85 72.95 -0.35 73.4 0.15 74.3 0.15 75.2 0.15 75.9 -0.2
L 75.75 -1.2
Q 75.15 -0.9 74.75 -0.9 73.85 -0.9 73.85 -2.05
L 73.85 -5.65 75.5 -5.65 75.7 -6.7 73.85 -6.7 73.85 -8.55 72.5 -8.2 72.5 -6.7 Z"/>
</g>

<g id="BDM_300x250_psd_Asset_1_ManagedWiFi_Awareness_DM7_4_Do_more_with_Wi_Fi_as_a_Service__0_Layer0_0_MEMBER_9_FILL">
<path fill="#838282" stroke="none" d="
M 78.15 -10.75
L 76.8 -10.55 76.8 0 78.15 0 78.15 -3.4
Q 78.15 -4.5 78.65 -5.15 79.2 -5.75 80 -5.75 80.9 -5.75 81.15 -5.2 81.5 -4.7 81.5 -3.8
L 81.5 0 82.85 0 82.85 -4.1
Q 82.85 -5.25 82.25 -6.1 81.65 -6.9 80.4 -6.9 79.7 -6.9 79.05 -6.5 78.45 -6.15 78.15 -5.5
L 78.15 -10.75 Z"/>
</g>

<g id="BDM_300x250_psd_Asset_1_ManagedWiFi_Awareness_DM7_4_Do_more_with_Wi_Fi_as_a_Service__0_Layer0_0_MEMBER_10_FILL">
<path fill="#838282" stroke="none" d="
M 88.15 -9.9
L 86.6 -9.9 89.5 0 91 0 93.35 -8.05 93.4 -8.05 95.75 0 97.25 0 100.15 -9.9 98.65 -9.9 96.45 -1.9 94.15 -9.9 92.6 -9.9 90.35 -1.9 90.3 -1.9 88.15 -9.9 Z"/>
</g>

<g id="BDM_300x250_psd_Asset_1_ManagedWiFi_Awareness_DM7_4_Do_more_with_Wi_Fi_as_a_Service__0_Layer0_0_MEMBER_11_FILL">
<path fill="#838282" stroke="none" d="
M 102.4 -6.7
L 101.05 -6.7 101.05 0 102.4 0 102.4 -6.7
M 101.15 -9.8
Q 100.9 -9.45 100.9 -9.2 100.9 -8.85 101.15 -8.6 101.35 -8.35 101.75 -8.35 102.1 -8.35 102.35 -8.6 102.6 -8.85 102.6 -9.2 102.6 -9.45 102.35 -9.8 102.1 -10 101.75 -10 101.35 -10 101.15 -9.8 Z"/>
</g>

<g id="BDM_300x250_psd_Asset_1_ManagedWiFi_Awareness_DM7_4_Do_more_with_Wi_Fi_as_a_Service__0_Layer0_0_MEMBER_12_FILL">
<path fill="#838282" stroke="none" d="
M 103.8 -4.15
L 103.8 -3.05 106.9 -3.05 106.9 -4.15 103.8 -4.15 Z"/>
</g>

<g id="BDM_300x250_psd_Asset_1_ManagedWiFi_Awareness_DM7_4_Do_more_with_Wi_Fi_as_a_Service__0_Layer0_0_MEMBER_13_FILL">
<path fill="#838282" stroke="none" d="
M 113.9 -9.9
L 108.4 -9.9 108.4 0 109.8 0 109.8 -4.4 113.45 -4.4 113.65 -5.6 109.8 -5.6 109.8 -8.7 113.75 -8.7 113.9 -9.9 Z"/>
</g>

<g id="BDM_300x250_psd_Asset_1_ManagedWiFi_Awareness_DM7_4_Do_more_with_Wi_Fi_as_a_Service__0_Layer0_0_MEMBER_14_FILL">
<path fill="#838282" stroke="none" d="
M 116.3 -6.7
L 114.95 -6.7 114.95 0 116.3 0 116.3 -6.7
M 115.65 -8.35
Q 116 -8.35 116.25 -8.6 116.5 -8.85 116.5 -9.2 116.5 -9.45 116.25 -9.8 116 -10 115.65 -10 115.25 -10 115.05 -9.8 114.8 -9.45 114.8 -9.2 114.8 -8.85 115.05 -8.6 115.25 -8.35 115.65 -8.35 Z"/>
</g>

<g id="BDM_300x250_psd_Asset_1_ManagedWiFi_Awareness_DM7_4_Do_more_with_Wi_Fi_as_a_Service__0_Layer0_0_MEMBER_15_FILL">
<path fill="#838282" stroke="none" d="
M 120.8 -1.85
Q 120.8 -0.85 121.45 -0.3 122.1 0.2 122.9 0.2 123.6 0.2 124.3 -0.15 124.9 -0.4 125.25 -1.1
L 125.3 -1.1 125.3 -0.55 125.4 0 126.65 0
Q 126.55 -0.35 126.55 -1.4
L 126.55 -4.2
Q 126.55 -5.45 125.85 -6.25 125.15 -6.9 123.85 -6.9 122.3 -6.9 121.2 -6.1
L 121.55 -5.1
Q 122 -5.45 122.5 -5.65 123.15 -5.9 123.6 -5.9 124.3 -5.9 124.8 -5.5 125.25 -5.1 125.25 -4.35
L 125.25 -4.1 124.65 -4.1
Q 122.95 -4.1 121.95 -3.6 120.8 -3.15 120.8 -1.85
M 124.7 -3.3
L 125.3 -3.3 125.3 -2.75
Q 125.3 -2.3 125.05 -1.8 124.85 -1.35 124.35 -1.05 123.85 -0.8 123.3 -0.8 122.7 -0.8 122.45 -1.05 122.1 -1.35 122.1 -1.9 122.1 -3.3 124.7 -3.3 Z"/>
</g>

<g id="BDM_300x250_psd_Asset_1_ManagedWiFi_Awareness_DM7_4_Do_more_with_Wi_Fi_as_a_Service__0_Layer0_0_MEMBER_16_FILL">
<path fill="#838282" stroke="none" d="
M 130.35 -6.9
Q 129.65 -6.9 129.2 -6.7 128.65 -6.45 128.3 -6.05 127.95 -5.55 127.95 -4.95 127.95 -4.15 128.45 -3.7 128.8 -3.35 129.85 -3 130.65 -2.8 131.15 -2.5 131.5 -2.2 131.5 -1.8 131.5 -1.3 131.15 -1.1 130.85 -0.85 130.2 -0.85 129.05 -0.85 128 -1.6
L 127.8 -0.5
Q 128.2 -0.25 128.9 0 129.5 0.2 130.3 0.2 130.9 0.2 131.55 -0.05 132.1 -0.3 132.45 -0.7 132.8 -1.2 132.8 -1.9 132.8 -2.7 132.3 -3.15 131.65 -3.6 130.7 -3.9 129.85 -4.15 129.55 -4.35 129.2 -4.55 129.2 -5 129.2 -5.4 129.55 -5.7 129.9 -5.9 130.45 -5.9 130.9 -5.9 131.3 -5.7
L 132.1 -5.3 132.6 -6.2
Q 132.25 -6.45 131.65 -6.7 131.1 -6.9 130.35 -6.9 Z"/>
</g>

<g id="BDM_300x250_psd_Asset_1_ManagedWiFi_Awareness_DM7_4_Do_more_with_Wi_Fi_as_a_Service__0_Layer0_0_MEMBER_17_FILL">
<path fill="#838282" stroke="none" d="
M 141.2 -4.1
L 140.6 -4.1
Q 138.9 -4.1 137.85 -3.6 136.75 -3.15 136.75 -1.85 136.75 -0.8 137.4 -0.3 138.05 0.2 138.85 0.2 139.55 0.2 140.25 -0.15 140.85 -0.4 141.2 -1.1
L 141.25 -1.1 141.25 -0.55 141.35 0 142.6 0
Q 142.5 -0.35 142.5 -1.4
L 142.5 -4.2
Q 142.5 -5.45 141.8 -6.25 141.1 -6.9 139.8 -6.9 138.25 -6.9 137.15 -6.1
L 137.5 -5.1
Q 137.95 -5.45 138.45 -5.65 139.1 -5.9 139.55 -5.9 140.25 -5.9 140.75 -5.5 141.2 -5.1 141.2 -4.35
L 141.2 -4.1
M 140.65 -3.3
L 141.2 -3.3 141.2 -2.75
Q 141.2 -2.2 141 -1.8 140.65 -1.3 140.3 -1.05 139.8 -0.8 139.25 -0.8 138.65 -0.8 138.4 -1.05 138.05 -1.35 138.05 -1.9 138.05 -3.3 140.65 -3.3 Z"/>
</g>

<g id="BDM_300x250_psd_Asset_1_ManagedWiFi_Awareness_DM7_4_Do_more_with_Wi_Fi_as_a_Service__0_Layer0_0_MEMBER_18_FILL">
<path fill="#838282" stroke="none" d="
M 148.8 -6.55
Q 148.5 -6.85 148.5 -7.4 148.5 -8.1 149.15 -8.6 149.8 -9 150.55 -9 151.15 -9 151.8 -8.75 152.55 -8.5 152.9 -8.15
L 153.35 -9.35
Q 152.85 -9.7 152.05 -9.95 151.2 -10.2 150.5 -10.2 149.75 -10.2 148.85 -9.85 148.1 -9.55 147.6 -8.9 147.1 -8.25 147.1 -7.3 147.1 -6.55 147.5 -5.9 147.9 -5.35 148.4 -5.05 149.15 -4.7 149.8 -4.5
L 151.05 -4
Q 151.55 -3.75 151.8 -3.45 152.1 -3.05 152.1 -2.6 152.1 -1.8 151.5 -1.35 150.95 -0.95 150.1 -0.95 149.35 -0.95 148.6 -1.25 147.8 -1.55 147.25 -2.05
L 147 -0.75
Q 147.65 -0.25 148.45 0 149.35 0.25 150.2 0.25 151.1 0.25 151.8 -0.1 152.6 -0.4 153.05 -1.1 153.5 -1.75 153.5 -2.75 153.5 -3.7 153.1 -4.15 152.6 -4.75 152.1 -5
L 149.45 -6.05
Q 149.05 -6.2 148.8 -6.55 Z"/>
</g>

<g id="BDM_300x250_psd_Asset_1_ManagedWiFi_Awareness_DM7_4_Do_more_with_Wi_Fi_as_a_Service__0_Layer0_0_MEMBER_19_FILL">
<path fill="#838282" stroke="none" d="
M 159.75 -6.45
Q 159 -6.9 158 -6.9 157.1 -6.9 156.25 -6.45 155.5 -6 155.05 -5.2 154.55 -4.5 154.55 -3.35 154.55 -2.4 155.05 -1.5 155.5 -0.7 156.3 -0.25 157.15 0.2 158.1 0.2 159.75 0.2 160.85 -0.55
L 160.65 -1.6
Q 160.1 -1.25 159.55 -1.1 158.9 -0.85 158.25 -0.85 157.65 -0.85 157.05 -1.15 156.6 -1.4 156.2 -1.95 155.95 -2.4 155.85 -3.05
L 161.25 -3.05 161.25 -3.45
Q 161.25 -4.6 160.85 -5.25 160.4 -6.1 159.75 -6.45
M 156.15 -4.85
Q 156.45 -5.35 156.9 -5.65 157.45 -5.95 158 -5.95 158.9 -5.95 159.45 -5.4 160 -4.75 160 -3.95
L 155.9 -3.95
Q 155.9 -4.35 156.15 -4.85 Z"/>
</g>

<g id="BDM_300x250_psd_Asset_1_ManagedWiFi_Awareness_DM7_4_Do_more_with_Wi_Fi_as_a_Service__0_Layer0_0_MEMBER_20_FILL">
<path fill="#838282" stroke="none" d="
M 163.95 -6.7
L 162.65 -6.7 162.7 0 164.05 0 164.05 -3.35
Q 164.05 -4.3 164.5 -5 164.9 -5.7 165.75 -5.7 166.2 -5.7 166.35 -5.6
L 166.55 -6.8 165.85 -6.9
Q 165.3 -6.9 164.8 -6.5 164.3 -6.1 164.05 -5.45
L 164 -5.45 163.95 -6.7 Z"/>
</g>

<g id="BDM_300x250_psd_Asset_1_ManagedWiFi_Awareness_DM7_4_Do_more_with_Wi_Fi_as_a_Service__0_Layer0_0_MEMBER_21_FILL">
<path fill="#838282" stroke="none" d="
M 167.75 -6.7
L 166.25 -6.7 168.85 0 170.35 0 172.9 -6.7 171.5 -6.7 169.6 -1.4 167.75 -6.7 Z"/>
</g>

<g id="BDM_300x250_psd_Asset_1_ManagedWiFi_Awareness_DM7_4_Do_more_with_Wi_Fi_as_a_Service__0_Layer0_0_MEMBER_22_FILL">
<path fill="#838282" stroke="none" d="
M 175.1 -6.7
L 173.75 -6.7 173.75 0 175.1 0 175.1 -6.7
M 174.45 -10
Q 174.05 -10 173.85 -9.8 173.6 -9.55 173.6 -9.2 173.6 -8.8 173.85 -8.6 174.05 -8.35 174.45 -8.35 174.8 -8.35 175 -8.6 175.25 -8.8 175.25 -9.2 175.25 -9.55 175 -9.8 174.8 -10 174.45 -10 Z"/>
</g>

<g id="BDM_300x250_psd_Asset_1_ManagedWiFi_Awareness_DM7_4_Do_more_with_Wi_Fi_as_a_Service__0_Layer0_0_MEMBER_23_FILL">
<path fill="#838282" stroke="none" d="
M 180.15 -6.9
Q 179.15 -6.9 178.3 -6.45 177.55 -6.05 177 -5.2 176.55 -4.35 176.55 -3.35 176.55 -2.3 177 -1.5 177.4 -0.75 178.3 -0.25 179.05 0.2 180.05 0.2 180.75 0.2 181.4 -0.05 182.15 -0.3 182.45 -0.6
L 182.25 -1.7
Q 181.75 -1.3 181.35 -1.15 180.95 -0.95 180.25 -0.95 179.6 -0.95 179.05 -1.25 178.5 -1.65 178.2 -2.15 177.95 -2.75 177.95 -3.35 177.95 -3.95 178.2 -4.55 178.5 -5.15 179 -5.45 179.6 -5.8 180.15 -5.8 180.5 -5.8 181.1 -5.6 181.55 -5.45 181.95 -5.15
L 182.45 -6.15
Q 182.15 -6.45 181.45 -6.7 180.85 -6.9 180.15 -6.9 Z"/>
</g>

<g id="BDM_300x250_psd_Asset_1_ManagedWiFi_Awareness_DM7_4_Do_more_with_Wi_Fi_as_a_Service__0_Layer0_0_MEMBER_24_FILL">
<path fill="#838282" stroke="none" d="
M 186.45 -6.9
Q 185.5 -6.9 184.75 -6.45 183.95 -6 183.5 -5.2 183.05 -4.45 183.05 -3.35 183.05 -2.3 183.5 -1.5 183.9 -0.75 184.75 -0.25 185.6 0.2 186.6 0.2 188.2 0.2 189.3 -0.55
L 189.1 -1.6
Q 188.55 -1.2 188.05 -1.1 187.4 -0.85 186.75 -0.85 186.1 -0.85 185.55 -1.15 184.95 -1.5 184.7 -1.95 184.35 -2.55 184.35 -3.05
L 189.7 -3.05 189.75 -3.45
Q 189.75 -4.45 189.35 -5.25 188.95 -6.1 188.2 -6.45 187.45 -6.9 186.45 -6.9
M 185.4 -5.65
Q 185.85 -5.95 186.5 -5.95 187.35 -5.95 187.9 -5.4 188.45 -4.75 188.45 -3.95
L 184.35 -3.95
Q 184.45 -4.55 184.65 -4.85 184.85 -5.35 185.4 -5.65 Z"/>
</g>

<g id="BDM_300x250_psd_Asset_1_ManagedWiFi_Awareness_DM7_4_Do_more_with_Wi_Fi_as_a_Service__0_Layer0_0_MEMBER_25_FILL">
<path fill="#838282" stroke="none" d="
M 191 -0.8
Q 191 -0.5 191.25 -0.15 191.6 0.1 191.9 0.1 192.35 0.1 192.55 -0.15 192.85 -0.35 192.85 -0.8 192.85 -1.15 192.55 -1.45 192.3 -1.7 191.9 -1.7 191.6 -1.7 191.25 -1.45 191 -1.1 191 -0.8 Z"/>
</g>
</defs>

<g transform="matrix( 1, 0, 0, 1, -286,-104) ">
<g transform="matrix( 1, 0, 0, 1, 281,121) ">
<g transform="matrix( 1, 0, 0, 1, 27,7) ">
<g transform="matrix( 2.815704345703125, 0, 0, 2.832611083984375, 0.15,18.6) ">
<use xlink:href="#BDM_300x250_psd_Asset_1_ManagedWiFi_Awareness_DM7_4_Get_a_better__understanding_of__your_customer_s_needs_____0_Layer0_0_MEMBER_0_FILL"/>
</g>

<g transform="matrix( 2.815704345703125, 0, 0, 2.832611083984375, 0.15,18.6) ">
<use xlink:href="#BDM_300x250_psd_Asset_1_ManagedWiFi_Awareness_DM7_4_Get_a_better__understanding_of__your_customer_s_needs_____0_Layer0_0_MEMBER_1_FILL"/>
</g>

<g transform="matrix( 2.815704345703125, 0, 0, 2.832611083984375, 0.15,18.6) ">
<use xlink:href="#BDM_300x250_psd_Asset_1_ManagedWiFi_Awareness_DM7_4_Get_a_better__understanding_of__your_customer_s_needs_____0_Layer0_0_MEMBER_2_FILL"/>
</g>

<g transform="matrix( 2.815704345703125, 0, 0, 2.832611083984375, 0.15,18.6) ">
<use xlink:href="#BDM_300x250_psd_Asset_1_ManagedWiFi_Awareness_DM7_4_Get_a_better__understanding_of__your_customer_s_needs_____0_Layer0_0_MEMBER_3_FILL"/>
</g>

<g transform="matrix( 2.815704345703125, 0, 0, 2.832611083984375, 0.15,18.6) ">
<use xlink:href="#BDM_300x250_psd_Asset_1_ManagedWiFi_Awareness_DM7_4_Get_a_better__understanding_of__your_customer_s_needs_____0_Layer0_0_MEMBER_4_FILL"/>
</g>

<g transform="matrix( 2.815704345703125, 0, 0, 2.832611083984375, 0.15,18.6) ">
<use xlink:href="#BDM_300x250_psd_Asset_1_ManagedWiFi_Awareness_DM7_4_Get_a_better__understanding_of__your_customer_s_needs_____0_Layer0_0_MEMBER_5_FILL"/>
</g>

<g transform="matrix( 2.815704345703125, 0, 0, 2.832611083984375, 0.15,18.6) ">
<use xlink:href="#BDM_300x250_psd_Asset_1_ManagedWiFi_Awareness_DM7_4_Get_a_better__understanding_of__your_customer_s_needs_____0_Layer0_0_MEMBER_6_FILL"/>
</g>

<g transform="matrix( 2.815704345703125, 0, 0, 2.832611083984375, 0.15,18.6) ">
<use xlink:href="#BDM_300x250_psd_Asset_1_ManagedWiFi_Awareness_DM7_4_Get_a_better__understanding_of__your_customer_s_needs_____0_Layer0_0_MEMBER_7_FILL"/>
</g>

<g transform="matrix( 2.815704345703125, 0, 0, 2.832611083984375, 0.15,18.6) ">
<use xlink:href="#BDM_300x250_psd_Asset_1_ManagedWiFi_Awareness_DM7_4_Get_a_better__understanding_of__your_customer_s_needs_____0_Layer0_0_MEMBER_8_FILL"/>
</g>

<g transform="matrix( 2.815704345703125, 0, 0, 2.832611083984375, 0.15,18.6) ">
<use xlink:href="#BDM_300x250_psd_Asset_1_ManagedWiFi_Awareness_DM7_4_Get_a_better__understanding_of__your_customer_s_needs_____0_Layer0_0_MEMBER_9_FILL"/>
</g>

<g transform="matrix( 2.815704345703125, 0, 0, 2.832611083984375, 0.15,18.6) ">
<use xlink:href="#BDM_300x250_psd_Asset_1_ManagedWiFi_Awareness_DM7_4_Get_a_better__understanding_of__your_customer_s_needs_____0_Layer0_0_MEMBER_10_FILL"/>
</g>

<g transform="matrix( 2.815704345703125, 0, 0, 2.832611083984375, 0.15,18.6) ">
<use xlink:href="#BDM_300x250_psd_Asset_1_ManagedWiFi_Awareness_DM7_4_Get_a_better__understanding_of__your_customer_s_needs_____0_Layer0_0_MEMBER_11_FILL"/>
</g>

<g transform="matrix( 2.815704345703125, 0, 0, 2.832611083984375, 0.15,18.6) ">
<use xlink:href="#BDM_300x250_psd_Asset_1_ManagedWiFi_Awareness_DM7_4_Get_a_better__understanding_of__your_customer_s_needs_____0_Layer0_0_MEMBER_12_FILL"/>
</g>

<g transform="matrix( 2.815704345703125, 0, 0, 2.832611083984375, 0.15,18.6) ">
<use xlink:href="#BDM_300x250_psd_Asset_1_ManagedWiFi_Awareness_DM7_4_Get_a_better__understanding_of__your_customer_s_needs_____0_Layer0_0_MEMBER_13_FILL"/>
</g>

<g transform="matrix( 2.815704345703125, 0, 0, 2.832611083984375, 0.15,18.6) ">
<use xlink:href="#BDM_300x250_psd_Asset_1_ManagedWiFi_Awareness_DM7_4_Get_a_better__understanding_of__your_customer_s_needs_____0_Layer0_0_MEMBER_14_FILL"/>
</g>

<g transform="matrix( 2.815704345703125, 0, 0, 2.832611083984375, 0.15,18.6) ">
<use xlink:href="#BDM_300x250_psd_Asset_1_ManagedWiFi_Awareness_DM7_4_Get_a_better__understanding_of__your_customer_s_needs_____0_Layer0_0_MEMBER_15_FILL"/>
</g>

<g transform="matrix( 2.815704345703125, 0, 0, 2.832611083984375, 0.15,18.6) ">
<use xlink:href="#BDM_300x250_psd_Asset_1_ManagedWiFi_Awareness_DM7_4_Get_a_better__understanding_of__your_customer_s_needs_____0_Layer0_0_MEMBER_16_FILL"/>
</g>

<g transform="matrix( 2.815704345703125, 0, 0, 2.832611083984375, 0.15,18.6) ">
<use xlink:href="#BDM_300x250_psd_Asset_1_ManagedWiFi_Awareness_DM7_4_Get_a_better__understanding_of__your_customer_s_needs_____0_Layer0_0_MEMBER_17_FILL"/>
</g>

<g transform="matrix( 2.815704345703125, 0, 0, 2.832611083984375, 0.15,18.6) ">
<use xlink:href="#BDM_300x250_psd_Asset_1_ManagedWiFi_Awareness_DM7_4_Get_a_better__understanding_of__your_customer_s_needs_____0_Layer0_0_MEMBER_18_FILL"/>
</g>

<g transform="matrix( 2.815704345703125, 0, 0, 2.832611083984375, 0.15,18.6) ">
<use xlink:href="#BDM_300x250_psd_Asset_1_ManagedWiFi_Awareness_DM7_4_Get_a_better__understanding_of__your_customer_s_needs_____0_Layer0_0_MEMBER_19_FILL"/>
</g>

<g transform="matrix( 2.815704345703125, 0, 0, 2.832611083984375, 0.15,18.6) ">
<use xlink:href="#BDM_300x250_psd_Asset_1_ManagedWiFi_Awareness_DM7_4_Get_a_better__understanding_of__your_customer_s_needs_____0_Layer0_0_MEMBER_20_FILL"/>
</g>

<g transform="matrix( 2.815704345703125, 0, 0, 2.832611083984375, 0.15,18.6) ">
<use xlink:href="#BDM_300x250_psd_Asset_1_ManagedWiFi_Awareness_DM7_4_Get_a_better__understanding_of__your_customer_s_needs_____0_Layer0_0_MEMBER_21_FILL"/>
</g>

<g transform="matrix( 2.815704345703125, 0, 0, 2.832611083984375, 0.15,18.6) ">
<use xlink:href="#BDM_300x250_psd_Asset_1_ManagedWiFi_Awareness_DM7_4_Get_a_better__understanding_of__your_customer_s_needs_____0_Layer0_0_MEMBER_22_FILL"/>
</g>

<g transform="matrix( 2.815704345703125, 0, 0, 2.832611083984375, 0.15,18.6) ">
<use xlink:href="#BDM_300x250_psd_Asset_1_ManagedWiFi_Awareness_DM7_4_Get_a_better__understanding_of__your_customer_s_needs_____0_Layer0_0_MEMBER_23_FILL"/>
</g>

<g transform="matrix( 2.815704345703125, 0, 0, 2.832611083984375, 0.15,18.6) ">
<use xlink:href="#BDM_300x250_psd_Asset_1_ManagedWiFi_Awareness_DM7_4_Get_a_better__understanding_of__your_customer_s_needs_____0_Layer0_0_MEMBER_24_FILL"/>
</g>

<g transform="matrix( 2.815704345703125, 0, 0, 2.832611083984375, 0.15,18.6) ">
<use xlink:href="#BDM_300x250_psd_Asset_1_ManagedWiFi_Awareness_DM7_4_Get_a_better__understanding_of__your_customer_s_needs_____0_Layer0_0_MEMBER_25_FILL"/>
</g>

<g transform="matrix( 2.815704345703125, 0, 0, 2.832611083984375, 0.15,18.6) ">
<use xlink:href="#BDM_300x250_psd_Asset_1_ManagedWiFi_Awareness_DM7_4_Get_a_better__understanding_of__your_customer_s_needs_____0_Layer0_0_MEMBER_26_FILL"/>
</g>

<g transform="matrix( 2.815704345703125, 0, 0, 2.832611083984375, 0.15,18.6) ">
<use xlink:href="#BDM_300x250_psd_Asset_1_ManagedWiFi_Awareness_DM7_4_Get_a_better__understanding_of__your_customer_s_needs_____0_Layer0_0_MEMBER_27_FILL"/>
</g>

<g transform="matrix( 2.815704345703125, 0, 0, 2.832611083984375, 0.15,18.6) ">
<use xlink:href="#BDM_300x250_psd_Asset_1_ManagedWiFi_Awareness_DM7_4_Get_a_better__understanding_of__your_customer_s_needs_____0_Layer0_0_MEMBER_28_FILL"/>
</g>

<g transform="matrix( 2.815704345703125, 0, 0, 2.832611083984375, 0.15,18.6) ">
<use xlink:href="#BDM_300x250_psd_Asset_1_ManagedWiFi_Awareness_DM7_4_Get_a_better__understanding_of__your_customer_s_needs_____0_Layer0_0_MEMBER_29_FILL"/>
</g>

<g transform="matrix( 2.815704345703125, 0, 0, 2.832611083984375, 0.15,18.6) ">
<use xlink:href="#BDM_300x250_psd_Asset_1_ManagedWiFi_Awareness_DM7_4_Get_a_better__understanding_of__your_customer_s_needs_____0_Layer0_0_MEMBER_30_FILL"/>
</g>

<g transform="matrix( 2.815704345703125, 0, 0, 2.832611083984375, 0.15,18.6) ">
<use xlink:href="#BDM_300x250_psd_Asset_1_ManagedWiFi_Awareness_DM7_4_Get_a_better__understanding_of__your_customer_s_needs_____0_Layer0_0_MEMBER_31_FILL"/>
</g>

<g transform="matrix( 2.815704345703125, 0, 0, 2.832611083984375, 0.15,18.6) ">
<use xlink:href="#BDM_300x250_psd_Asset_1_ManagedWiFi_Awareness_DM7_4_Get_a_better__understanding_of__your_customer_s_needs_____0_Layer0_0_MEMBER_32_FILL"/>
</g>

<g transform="matrix( 2.815704345703125, 0, 0, 2.832611083984375, 0.15,18.6) ">
<use xlink:href="#BDM_300x250_psd_Asset_1_ManagedWiFi_Awareness_DM7_4_Get_a_better__understanding_of__your_customer_s_needs_____0_Layer0_0_MEMBER_33_FILL"/>
</g>

<g transform="matrix( 2.815704345703125, 0, 0, 2.832611083984375, 0.15,18.6) ">
<use xlink:href="#BDM_300x250_psd_Asset_1_ManagedWiFi_Awareness_DM7_4_Get_a_better__understanding_of__your_customer_s_needs_____0_Layer0_0_MEMBER_34_FILL"/>
</g>

<g transform="matrix( 2.815704345703125, 0, 0, 2.832611083984375, 0.15,18.6) ">
<use xlink:href="#BDM_300x250_psd_Asset_1_ManagedWiFi_Awareness_DM7_4_Get_a_better__understanding_of__your_customer_s_needs_____0_Layer0_0_MEMBER_35_FILL"/>
</g>

<g transform="matrix( 2.815704345703125, 0, 0, 2.832611083984375, 0.15,18.6) ">
<use xlink:href="#BDM_300x250_psd_Asset_1_ManagedWiFi_Awareness_DM7_4_Get_a_better__understanding_of__your_customer_s_needs_____0_Layer0_0_MEMBER_36_FILL"/>
</g>

<g transform="matrix( 2.815704345703125, 0, 0, 2.832611083984375, 0.15,18.6) ">
<use xlink:href="#BDM_300x250_psd_Asset_1_ManagedWiFi_Awareness_DM7_4_Get_a_better__understanding_of__your_customer_s_needs_____0_Layer0_0_MEMBER_37_FILL"/>
</g>

<g transform="matrix( 2.815704345703125, 0, 0, 2.832611083984375, 0.15,18.6) ">
<use xlink:href="#BDM_300x250_psd_Asset_1_ManagedWiFi_Awareness_DM7_4_Get_a_better__understanding_of__your_customer_s_needs_____0_Layer0_0_MEMBER_38_FILL"/>
</g>

<g transform="matrix( 2.815704345703125, 0, 0, 2.832611083984375, 0.15,18.6) ">
<use xlink:href="#BDM_300x250_psd_Asset_1_ManagedWiFi_Awareness_DM7_4_Get_a_better__understanding_of__your_customer_s_needs_____0_Layer0_0_MEMBER_39_FILL"/>
</g>

<g transform="matrix( 2.815704345703125, 0, 0, 2.832611083984375, 0.15,18.6) ">
<use xlink:href="#BDM_300x250_psd_Asset_1_ManagedWiFi_Awareness_DM7_4_Get_a_better__understanding_of__your_customer_s_needs_____0_Layer0_0_MEMBER_40_FILL"/>
</g>

<g transform="matrix( 2.815704345703125, 0, 0, 2.832611083984375, 0.15,18.6) ">
<use xlink:href="#BDM_300x250_psd_Asset_1_ManagedWiFi_Awareness_DM7_4_Get_a_better__understanding_of__your_customer_s_needs_____0_Layer0_0_MEMBER_41_FILL"/>
</g>

<g transform="matrix( 2.815704345703125, 0, 0, 2.832611083984375, 0.15,18.6) ">
<use xlink:href="#BDM_300x250_psd_Asset_1_ManagedWiFi_Awareness_DM7_4_Get_a_better__understanding_of__your_customer_s_needs_____0_Layer0_0_MEMBER_42_FILL"/>
</g>

<g transform="matrix( 2.815704345703125, 0, 0, 2.832611083984375, 0.15,18.6) ">
<use xlink:href="#BDM_300x250_psd_Asset_1_ManagedWiFi_Awareness_DM7_4_Get_a_better__understanding_of__your_customer_s_needs_____0_Layer0_0_MEMBER_43_FILL"/>
</g>

<g transform="matrix( 2.815704345703125, 0, 0, 2.832611083984375, 0.15,18.6) ">
<use xlink:href="#BDM_300x250_psd_Asset_1_ManagedWiFi_Awareness_DM7_4_Get_a_better__understanding_of__your_customer_s_needs_____0_Layer0_0_MEMBER_44_FILL"/>
</g>
</g>

<g transform="matrix( 1, 0, 0, 1, 71,124) ">
<g transform="matrix( 1.1267547607421875, 0, 0, 1.1267547607421875, 0.6,12.6) ">
<use xlink:href="#BDM_300x250_psd_Asset_1_ManagedWiFi_Awareness_DM7_4_Watch_the_video___0_Layer0_0_MEMBER_0_FILL"/>
</g>

<g transform="matrix( 1.1267547607421875, 0, 0, 1.1267547607421875, 0.6,12.6) ">
<use xlink:href="#BDM_300x250_psd_Asset_1_ManagedWiFi_Awareness_DM7_4_Watch_the_video___0_Layer0_0_MEMBER_1_FILL"/>
</g>

<g transform="matrix( 1.1267547607421875, 0, 0, 1.1267547607421875, 0.6,12.6) ">
<use xlink:href="#BDM_300x250_psd_Asset_1_ManagedWiFi_Awareness_DM7_4_Watch_the_video___0_Layer0_0_MEMBER_2_FILL"/>
</g>

<g transform="matrix( 1.1267547607421875, 0, 0, 1.1267547607421875, 0.6,12.6) ">
<use xlink:href="#BDM_300x250_psd_Asset_1_ManagedWiFi_Awareness_DM7_4_Watch_the_video___0_Layer0_0_MEMBER_3_FILL"/>
</g>

<g transform="matrix( 1.1267547607421875, 0, 0, 1.1267547607421875, 0.6,12.6) ">
<use xlink:href="#BDM_300x250_psd_Asset_1_ManagedWiFi_Awareness_DM7_4_Watch_the_video___0_Layer0_0_MEMBER_4_FILL"/>
</g>

<g transform="matrix( 1.1267547607421875, 0, 0, 1.1267547607421875, 0.6,12.6) ">
<use xlink:href="#BDM_300x250_psd_Asset_1_ManagedWiFi_Awareness_DM7_4_Watch_the_video___0_Layer0_0_MEMBER_5_FILL"/>
</g>

<g transform="matrix( 1.1267547607421875, 0, 0, 1.1267547607421875, 0.6,12.6) ">
<use xlink:href="#BDM_300x250_psd_Asset_1_ManagedWiFi_Awareness_DM7_4_Watch_the_video___0_Layer0_0_MEMBER_6_FILL"/>
</g>

<g transform="matrix( 1.1267547607421875, 0, 0, 1.1267547607421875, 0.6,12.6) ">
<use xlink:href="#BDM_300x250_psd_Asset_1_ManagedWiFi_Awareness_DM7_4_Watch_the_video___0_Layer0_0_MEMBER_7_FILL"/>
</g>

<g transform="matrix( 1.1267547607421875, 0, 0, 1.1267547607421875, 0.6,12.6) ">
<use xlink:href="#BDM_300x250_psd_Asset_1_ManagedWiFi_Awareness_DM7_4_Watch_the_video___0_Layer0_0_MEMBER_8_FILL"/>
</g>

<g transform="matrix( 1.1267547607421875, 0, 0, 1.1267547607421875, 0.6,12.6) ">
<use xlink:href="#BDM_300x250_psd_Asset_1_ManagedWiFi_Awareness_DM7_4_Watch_the_video___0_Layer0_0_MEMBER_9_FILL"/>
</g>

<g transform="matrix( 1.1267547607421875, 0, 0, 1.1267547607421875, 0.6,12.6) ">
<use xlink:href="#BDM_300x250_psd_Asset_1_ManagedWiFi_Awareness_DM7_4_Watch_the_video___0_Layer0_0_MEMBER_10_FILL"/>
</g>

<g transform="matrix( 1.1267547607421875, 0, 0, 1.1267547607421875, 0.6,12.6) ">
<use xlink:href="#BDM_300x250_psd_Asset_1_ManagedWiFi_Awareness_DM7_4_Watch_the_video___0_Layer0_0_MEMBER_11_FILL"/>
</g>

<g transform="matrix( 1.1267547607421875, 0, 0, 1.1267547607421875, 0.6,12.6) ">
<use xlink:href="#BDM_300x250_psd_Asset_1_ManagedWiFi_Awareness_DM7_4_Watch_the_video___0_Layer0_0_MEMBER_12_FILL"/>
</g>

<g transform="matrix( 1.1267547607421875, 0, 0, 1.1267547607421875, 0.6,12.6) ">
<use xlink:href="#BDM_300x250_psd_Asset_1_ManagedWiFi_Awareness_DM7_4_Watch_the_video___0_Layer0_0_MEMBER_13_FILL"/>
</g>
</g>

<g transform="matrix( 1, 0, 0, 1, 28,173) ">
<g transform="matrix( 1.00018310546875, 0, 0, 1.00018310546875, -0.75,10.8) ">
<use xlink:href="#BDM_300x250_psd_Asset_1_ManagedWiFi_Awareness_DM7_4_Do_more_with_Wi_Fi_as_a_Service__0_Layer0_0_MEMBER_0_FILL"/>
</g>

<g transform="matrix( 1.00018310546875, 0, 0, 1.00018310546875, -0.75,10.8) ">
<use xlink:href="#BDM_300x250_psd_Asset_1_ManagedWiFi_Awareness_DM7_4_Do_more_with_Wi_Fi_as_a_Service__0_Layer0_0_MEMBER_1_FILL"/>
</g>

<g transform="matrix( 1.00018310546875, 0, 0, 1.00018310546875, -0.75,10.8) ">
<use xlink:href="#BDM_300x250_psd_Asset_1_ManagedWiFi_Awareness_DM7_4_Do_more_with_Wi_Fi_as_a_Service__0_Layer0_0_MEMBER_2_FILL"/>
</g>

<g transform="matrix( 1.00018310546875, 0, 0, 1.00018310546875, -0.75,10.8) ">
<use xlink:href="#BDM_300x250_psd_Asset_1_ManagedWiFi_Awareness_DM7_4_Do_more_with_Wi_Fi_as_a_Service__0_Layer0_0_MEMBER_3_FILL"/>
</g>

<g transform="matrix( 1.00018310546875, 0, 0, 1.00018310546875, -0.75,10.8) ">
<use xlink:href="#BDM_300x250_psd_Asset_1_ManagedWiFi_Awareness_DM7_4_Do_more_with_Wi_Fi_as_a_Service__0_Layer0_0_MEMBER_4_FILL"/>
</g>

<g transform="matrix( 1.00018310546875, 0, 0, 1.00018310546875, -0.75,10.8) ">
<use xlink:href="#BDM_300x250_psd_Asset_1_ManagedWiFi_Awareness_DM7_4_Do_more_with_Wi_Fi_as_a_Service__0_Layer0_0_MEMBER_5_FILL"/>
</g>

<g transform="matrix( 1.00018310546875, 0, 0, 1.00018310546875, -0.75,10.8) ">
<use xlink:href="#BDM_300x250_psd_Asset_1_ManagedWiFi_Awareness_DM7_4_Do_more_with_Wi_Fi_as_a_Service__0_Layer0_0_MEMBER_6_FILL"/>
</g>

<g transform="matrix( 1.00018310546875, 0, 0, 1.00018310546875, -0.75,10.8) ">
<use xlink:href="#BDM_300x250_psd_Asset_1_ManagedWiFi_Awareness_DM7_4_Do_more_with_Wi_Fi_as_a_Service__0_Layer0_0_MEMBER_7_FILL"/>
</g>

<g transform="matrix( 1.00018310546875, 0, 0, 1.00018310546875, -0.75,10.8) ">
<use xlink:href="#BDM_300x250_psd_Asset_1_ManagedWiFi_Awareness_DM7_4_Do_more_with_Wi_Fi_as_a_Service__0_Layer0_0_MEMBER_8_FILL"/>
</g>

<g transform="matrix( 1.00018310546875, 0, 0, 1.00018310546875, -0.75,10.8) ">
<use xlink:href="#BDM_300x250_psd_Asset_1_ManagedWiFi_Awareness_DM7_4_Do_more_with_Wi_Fi_as_a_Service__0_Layer0_0_MEMBER_9_FILL"/>
</g>

<g transform="matrix( 1.00018310546875, 0, 0, 1.00018310546875, -0.75,10.8) ">
<use xlink:href="#BDM_300x250_psd_Asset_1_ManagedWiFi_Awareness_DM7_4_Do_more_with_Wi_Fi_as_a_Service__0_Layer0_0_MEMBER_10_FILL"/>
</g>

<g transform="matrix( 1.00018310546875, 0, 0, 1.00018310546875, -0.75,10.8) ">
<use xlink:href="#BDM_300x250_psd_Asset_1_ManagedWiFi_Awareness_DM7_4_Do_more_with_Wi_Fi_as_a_Service__0_Layer0_0_MEMBER_11_FILL"/>
</g>

<g transform="matrix( 1.00018310546875, 0, 0, 1.00018310546875, -0.75,10.8) ">
<use xlink:href="#BDM_300x250_psd_Asset_1_ManagedWiFi_Awareness_DM7_4_Do_more_with_Wi_Fi_as_a_Service__0_Layer0_0_MEMBER_12_FILL"/>
</g>

<g transform="matrix( 1.00018310546875, 0, 0, 1.00018310546875, -0.75,10.8) ">
<use xlink:href="#BDM_300x250_psd_Asset_1_ManagedWiFi_Awareness_DM7_4_Do_more_with_Wi_Fi_as_a_Service__0_Layer0_0_MEMBER_13_FILL"/>
</g>

<g transform="matrix( 1.00018310546875, 0, 0, 1.00018310546875, -0.75,10.8) ">
<use xlink:href="#BDM_300x250_psd_Asset_1_ManagedWiFi_Awareness_DM7_4_Do_more_with_Wi_Fi_as_a_Service__0_Layer0_0_MEMBER_14_FILL"/>
</g>

<g transform="matrix( 1.00018310546875, 0, 0, 1.00018310546875, -0.75,10.8) ">
<use xlink:href="#BDM_300x250_psd_Asset_1_ManagedWiFi_Awareness_DM7_4_Do_more_with_Wi_Fi_as_a_Service__0_Layer0_0_MEMBER_15_FILL"/>
</g>

<g transform="matrix( 1.00018310546875, 0, 0, 1.00018310546875, -0.75,10.8) ">
<use xlink:href="#BDM_300x250_psd_Asset_1_ManagedWiFi_Awareness_DM7_4_Do_more_with_Wi_Fi_as_a_Service__0_Layer0_0_MEMBER_16_FILL"/>
</g>

<g transform="matrix( 1.00018310546875, 0, 0, 1.00018310546875, -0.75,10.8) ">
<use xlink:href="#BDM_300x250_psd_Asset_1_ManagedWiFi_Awareness_DM7_4_Do_more_with_Wi_Fi_as_a_Service__0_Layer0_0_MEMBER_17_FILL"/>
</g>

<g transform="matrix( 1.00018310546875, 0, 0, 1.00018310546875, -0.75,10.8) ">
<use xlink:href="#BDM_300x250_psd_Asset_1_ManagedWiFi_Awareness_DM7_4_Do_more_with_Wi_Fi_as_a_Service__0_Layer0_0_MEMBER_18_FILL"/>
</g>

<g transform="matrix( 1.00018310546875, 0, 0, 1.00018310546875, -0.75,10.8) ">
<use xlink:href="#BDM_300x250_psd_Asset_1_ManagedWiFi_Awareness_DM7_4_Do_more_with_Wi_Fi_as_a_Service__0_Layer0_0_MEMBER_19_FILL"/>
</g>

<g transform="matrix( 1.00018310546875, 0, 0, 1.00018310546875, -0.75,10.8) ">
<use xlink:href="#BDM_300x250_psd_Asset_1_ManagedWiFi_Awareness_DM7_4_Do_more_with_Wi_Fi_as_a_Service__0_Layer0_0_MEMBER_20_FILL"/>
</g>

<g transform="matrix( 1.00018310546875, 0, 0, 1.00018310546875, -0.75,10.8) ">
<use xlink:href="#BDM_300x250_psd_Asset_1_ManagedWiFi_Awareness_DM7_4_Do_more_with_Wi_Fi_as_a_Service__0_Layer0_0_MEMBER_21_FILL"/>
</g>

<g transform="matrix( 1.00018310546875, 0, 0, 1.00018310546875, -0.75,10.8) ">
<use xlink:href="#BDM_300x250_psd_Asset_1_ManagedWiFi_Awareness_DM7_4_Do_more_with_Wi_Fi_as_a_Service__0_Layer0_0_MEMBER_22_FILL"/>
</g>

<g transform="matrix( 1.00018310546875, 0, 0, 1.00018310546875, -0.75,10.8) ">
<use xlink:href="#BDM_300x250_psd_Asset_1_ManagedWiFi_Awareness_DM7_4_Do_more_with_Wi_Fi_as_a_Service__0_Layer0_0_MEMBER_23_FILL"/>
</g>

<g transform="matrix( 1.00018310546875, 0, 0, 1.00018310546875, -0.75,10.8) ">
<use xlink:href="#BDM_300x250_psd_Asset_1_ManagedWiFi_Awareness_DM7_4_Do_more_with_Wi_Fi_as_a_Service__0_Layer0_0_MEMBER_24_FILL"/>
</g>

<g transform="matrix( 1.00018310546875, 0, 0, 1.00018310546875, -0.75,10.8) ">
<use xlink:href="#BDM_300x250_psd_Asset_1_ManagedWiFi_Awareness_DM7_4_Do_more_with_Wi_Fi_as_a_Service__0_Layer0_0_MEMBER_25_FILL"/>
</g>
</g>
</g>
</g>
</svg>
