
<svg xmlns="http://www.w3.org/2000/svg" version="1.1" xmlns:xlink="http://www.w3.org/1999/xlink" preserveAspectRatio="none" x="0px" y="0px" width="728px" height="90px" viewBox="0 0 728 90">
<defs>
<g id="IT_728x90_FR_psd_Asset_V8_2_Les_solutions_de_r_seau_en_tant__que_service_peuvent_aider___0_Layer0_0_MEMBER_0_FILL">
<path fill="#D82C26" stroke="none" d="
M 1.5 -6.6
L 0.9 -6.6 0.9 0 4.35 0 4.45 -0.5 1.5 -0.5 1.5 -6.6 Z"/>
</g>

<g id="IT_728x90_FR_psd_Asset_V8_2_Les_solutions_de_r_seau_en_tant__que_service_peuvent_aider___0_Layer0_0_MEMBER_1_FILL">
<path fill="#D82C26" stroke="none" d="
M 9.2 -3.45
Q 8.95 -3.95 8.5 -4.25 7.9 -4.5 7.35 -4.5 6.8 -4.5 6.25 -4.2 5.8 -4 5.45 -3.4 5.2 -2.8 5.2 -2.2 5.2 -1.6 5.45 -1 5.75 -0.5 6.25 -0.15 6.8 0.15 7.45 0.15 8.4 0.15 9.2 -0.4
L 9.1 -0.9
Q 8.75 -0.65 8.35 -0.5 8 -0.3 7.5 -0.3 7.05 -0.3 6.55 -0.55 6.2 -0.75 5.95 -1.2 5.7 -1.7 5.7 -2.1
L 9.45 -2.1 9.45 -2.35
Q 9.45 -2.85 9.2 -3.45
M 6.5 -3.85
Q 6.9 -4.1 7.35 -4.1 8.05 -4.1 8.5 -3.65 8.9 -3.15 8.9 -2.5
L 5.75 -2.5
Q 5.75 -2.9 5.95 -3.25 6.1 -3.5 6.5 -3.85 Z"/>
</g>

<g id="IT_728x90_FR_psd_Asset_V8_2_Les_solutions_de_r_seau_en_tant__que_service_peuvent_aider___0_Layer0_0_MEMBER_2_FILL">
<path fill="#D82C26" stroke="none" d="
M 13.35 -4.05
Q 13.15 -4.25 12.75 -4.4
L 11.95 -4.5 11.25 -4.4
Q 10.9 -4.2 10.75 -3.95 10.5 -3.7 10.5 -3.3 10.5 -2.85 10.85 -2.55 11.15 -2.25 11.75 -2.1 12.4 -1.9 12.7 -1.65 12.95 -1.5 12.95 -1.15 12.95 -0.8 12.7 -0.55 12.35 -0.3 12 -0.3 11.2 -0.3 10.55 -0.85
L 10.45 -0.35
Q 10.6 -0.2 11.1 0 11.4 0.1 12 0.1
L 12.75 0
Q 13.1 -0.15 13.3 -0.45 13.5 -0.7 13.5 -1.15 13.5 -1.65 13.15 -1.95 12.75 -2.25 12.15 -2.45 11.45 -2.7 11.3 -2.85 11.05 -2.95 11.05 -3.35 11.05 -3.65 11.3 -3.9 11.7 -4.1 12 -4.1 12.3 -4.1 12.6 -3.95 12.75 -3.9 13.15 -3.65
L 13.35 -4.05 Z"/>
</g>

<g id="IT_728x90_FR_psd_Asset_V8_2_Les_solutions_de_r_seau_en_tant__que_service_peuvent_aider___0_Layer0_0_MEMBER_3_FILL">
<path fill="#D82C26" stroke="none" d="
M 18.95 -4.4
L 18.15 -4.5 17.45 -4.4
Q 17.1 -4.25 16.9 -3.95 16.7 -3.65 16.7 -3.3 16.7 -2.85 17 -2.55 17.4 -2.25 17.95 -2.1 18.6 -1.9 18.9 -1.65 19.15 -1.5 19.15 -1.15 19.15 -0.75 18.85 -0.55 18.6 -0.3 18.2 -0.3 17.4 -0.3 16.7 -0.85
L 16.65 -0.35
Q 16.8 -0.2 17.3 0 17.6 0.1 18.2 0.1
L 18.95 0
Q 19.3 -0.15 19.5 -0.45 19.7 -0.85 19.7 -1.15 19.7 -1.65 19.35 -1.95 18.95 -2.25 18.35 -2.45 17.65 -2.7 17.5 -2.85 17.25 -2.95 17.25 -3.35 17.25 -3.7 17.5 -3.9 17.9 -4.1 18.2 -4.1 18.5 -4.1 18.8 -3.95 18.9 -3.95 19.3 -3.65
L 19.55 -4.05
Q 19.35 -4.25 18.95 -4.4 Z"/>
</g>

<g id="IT_728x90_FR_psd_Asset_V8_2_Les_solutions_de_r_seau_en_tant__que_service_peuvent_aider___0_Layer0_0_MEMBER_4_FILL">
<path fill="#D82C26" stroke="none" d="
M 24.2 -4.2
Q 23.7 -4.5 23 -4.5 22.4 -4.5 21.85 -4.2 21.35 -4 21 -3.4 20.7 -2.85 20.7 -2.2 20.7 -1.5 21 -1 21.35 -0.4 21.85 -0.15 22.4 0.15 23 0.15 23.7 0.15 24.2 -0.15 24.75 -0.45 25.05 -1 25.35 -1.5 25.35 -2.2 25.35 -2.85 25.05 -3.4 24.7 -4 24.2 -4.2
M 23.95 -3.8
Q 24.3 -3.6 24.6 -3.15 24.8 -2.75 24.8 -2.2 24.8 -1.65 24.6 -1.25 24.3 -0.8 23.95 -0.6 23.65 -0.35 23 -0.35 22.4 -0.35 22.1 -0.6 21.75 -0.8 21.45 -1.25 21.25 -1.65 21.25 -2.2 21.25 -2.75 21.45 -3.15 21.75 -3.6 22.1 -3.8 22.5 -4.05 23 -4.05 23.55 -4.05 23.95 -3.8 Z"/>
</g>

<g id="IT_728x90_FR_psd_Asset_V8_2_Les_solutions_de_r_seau_en_tant__que_service_peuvent_aider___0_Layer0_0_MEMBER_5_FILL">
<path fill="#D82C26" stroke="none" d="
M 26.7 -0.95
Q 26.7 -0.6 26.9 -0.3 27.15 0.05 27.4 0.1
L 27.7 -0.35
Q 27.4 -0.5 27.35 -0.6
L 27.25 -1.1 27.25 -7.15 26.7 -7.05 26.7 -0.95 Z"/>
</g>

<g id="IT_728x90_FR_psd_Asset_V8_2_Les_solutions_de_r_seau_en_tant__que_service_peuvent_aider___0_Layer0_0_MEMBER_6_FILL">
<path fill="#D82C26" stroke="none" d="
M 28.9 -1.7
Q 28.9 -0.85 29.3 -0.4 29.65 0.1 30.5 0.1 30.95 0.1 31.45 -0.15 31.9 -0.45 32.1 -0.95
L 32.15 0 32.7 0 32.65 -4.4 32.1 -4.4 32.1 -2.2
Q 32.1 -1.8 31.9 -1.2 31.65 -0.75 31.35 -0.55 31.1 -0.35 30.65 -0.35 29.95 -0.35 29.7 -0.75 29.45 -1.25 29.45 -1.85
L 29.45 -4.4 28.9 -4.4 28.9 -1.7 Z"/>
</g>

<g id="IT_728x90_FR_psd_Asset_V8_2_Les_solutions_de_r_seau_en_tant__que_service_peuvent_aider___0_Layer0_0_MEMBER_7_FILL">
<path fill="#D82C26" stroke="none" d="
M 35.05 -4.4
L 35.05 -5.65 34.5 -5.45 34.5 -4.4 33.8 -4.4 33.7 -3.95 34.5 -3.95 34.5 -1.05
Q 34.5 -0.5 34.8 -0.2 35.05 0.1 35.55 0.1
L 36.05 0.05 36.45 -0.15 36.4 -0.55
Q 36.05 -0.35 35.7 -0.35 35.4 -0.35 35.25 -0.55 35.05 -0.7 35.05 -1.15
L 35.05 -3.95 36.2 -3.95 36.3 -4.4 35.05 -4.4 Z"/>
</g>

<g id="IT_728x90_FR_psd_Asset_V8_2_Les_solutions_de_r_seau_en_tant__que_service_peuvent_aider___0_Layer0_0_MEMBER_8_FILL">
<path fill="#D82C26" stroke="none" d="
M 38.05 -4.4
L 37.5 -4.4 37.5 0 38.05 0 38.05 -4.4
M 38.05 -6.4
Q 37.9 -6.55 37.8 -6.55 37.65 -6.55 37.5 -6.4 37.4 -6.35 37.4 -6.15 37.4 -5.95 37.5 -5.85 37.6 -5.75 37.8 -5.75 37.95 -5.75 38.05 -5.85 38.15 -5.95 38.15 -6.15 38.15 -6.35 38.05 -6.4 Z"/>
</g>

<g id="IT_728x90_FR_psd_Asset_V8_2_Les_solutions_de_r_seau_en_tant__que_service_peuvent_aider___0_Layer0_0_MEMBER_9_FILL">
<path fill="#D82C26" stroke="none" d="
M 39.4 -2.2
Q 39.4 -1.5 39.7 -1 40 -0.45 40.55 -0.15 41.1 0.15 41.7 0.15 42.4 0.15 42.9 -0.15 43.4 -0.4 43.75 -1 44.05 -1.5 44.05 -2.2 44.05 -2.85 43.75 -3.4 43.4 -4 42.9 -4.2 42.4 -4.5 41.7 -4.5 41.1 -4.5 40.55 -4.2 40.05 -4 39.7 -3.4 39.4 -2.85 39.4 -2.2
M 39.95 -2.2
Q 39.95 -2.75 40.15 -3.15 40.45 -3.6 40.8 -3.8 41.2 -4.05 41.7 -4.05 42.25 -4.05 42.65 -3.8 43 -3.6 43.3 -3.15 43.5 -2.75 43.5 -2.2 43.5 -1.65 43.3 -1.25 43 -0.8 42.65 -0.6 42.35 -0.35 41.7 -0.35 41.1 -0.35 40.8 -0.6 40.45 -0.8 40.15 -1.25 39.95 -1.65 39.95 -2.2 Z"/>
</g>

<g id="IT_728x90_FR_psd_Asset_V8_2_Les_solutions_de_r_seau_en_tant__que_service_peuvent_aider___0_Layer0_0_MEMBER_10_FILL">
<path fill="#D82C26" stroke="none" d="
M 45.95 -3.45
L 45.9 -4.4 45.4 -4.4 45.4 0 45.95 0 45.95 -2.25
Q 45.95 -2.7 46.15 -3.2 46.4 -3.65 46.7 -3.85 46.95 -4.05 47.45 -4.05 48.05 -4.05 48.35 -3.6 48.6 -3.3 48.6 -2.55
L 48.6 0 49.15 0 49.15 -2.7
Q 49.15 -3.55 48.75 -4 48.4 -4.5 47.55 -4.5 47.05 -4.5 46.6 -4.2 46.2 -3.9 45.95 -3.45 Z"/>
</g>

<g id="IT_728x90_FR_psd_Asset_V8_2_Les_solutions_de_r_seau_en_tant__que_service_peuvent_aider___0_Layer0_0_MEMBER_11_FILL">
<path fill="#D82C26" stroke="none" d="
M 50.55 -0.85
L 50.45 -0.35
Q 50.6 -0.2 51.1 0 51.4 0.1 52 0.1
L 52.75 0
Q 53.1 -0.15 53.3 -0.45 53.5 -0.85 53.5 -1.15 53.5 -1.65 53.15 -1.95 52.75 -2.25 52.15 -2.45 51.45 -2.7 51.3 -2.85 51.05 -2.95 51.05 -3.35 51.05 -3.7 51.3 -3.9 51.7 -4.1 52 -4.1 52.3 -4.1 52.6 -3.95 52.75 -3.9 53.15 -3.65
L 53.35 -4.05
Q 53.15 -4.25 52.75 -4.4
L 51.95 -4.5 51.25 -4.4
Q 50.9 -4.2 50.75 -3.95 50.5 -3.7 50.5 -3.3 50.5 -2.85 50.8 -2.55 51.2 -2.25 51.75 -2.1 52.4 -1.9 52.7 -1.65 52.95 -1.5 52.95 -1.15 52.95 -0.8 52.7 -0.55 52.35 -0.3 52 -0.3 51.2 -0.3 50.55 -0.85 Z"/>
</g>

<g id="IT_728x90_FR_psd_Asset_V8_2_Les_solutions_de_r_seau_en_tant__que_service_peuvent_aider___0_Layer0_0_MEMBER_12_FILL">
<path fill="#D82C26" stroke="none" d="
M 59.85 -4.25
Q 59.35 -4.5 58.85 -4.5 58.15 -4.5 57.7 -4.2 57.25 -3.95 56.9 -3.35 56.65 -2.75 56.65 -2.2 56.65 -1.6 56.9 -1 57.2 -0.5 57.7 -0.2 58.15 0.1 58.85 0.1 59.45 0.1 59.9 -0.15 60.35 -0.45 60.65 -0.95
L 60.7 0 61.2 0 61.15 -7.2 60.65 -7.05 60.65 -3.45 60.6 -3.45
Q 60.4 -3.95 59.85 -4.25
M 59.8 -3.8
Q 60.15 -3.6 60.4 -3.1 60.65 -2.7 60.65 -2.2 60.65 -1.75 60.4 -1.25 60.15 -0.8 59.8 -0.6 59.5 -0.35 58.9 -0.35 58.3 -0.35 58 -0.6 57.6 -0.85 57.4 -1.25 57.2 -1.65 57.2 -2.2 57.2 -2.75 57.4 -3.1 57.65 -3.6 58 -3.8 58.4 -4.05 58.9 -4.05 59.4 -4.05 59.8 -3.8 Z"/>
</g>

<g id="IT_728x90_FR_psd_Asset_V8_2_Les_solutions_de_r_seau_en_tant__que_service_peuvent_aider___0_Layer0_0_MEMBER_13_FILL">
<path fill="#D82C26" stroke="none" d="
M 64.7 -4.5
Q 64.15 -4.5 63.6 -4.2 63.15 -4 62.8 -3.4 62.55 -2.8 62.55 -2.2 62.55 -1.6 62.8 -1 63.1 -0.5 63.6 -0.15 64.15 0.15 64.8 0.15 65.75 0.15 66.55 -0.4
L 66.45 -0.9
Q 66.1 -0.65 65.7 -0.5 65.35 -0.3 64.85 -0.3 64.4 -0.3 63.9 -0.55 63.55 -0.75 63.3 -1.2 63.05 -1.7 63.05 -2.1
L 66.8 -2.1 66.8 -2.35
Q 66.8 -2.85 66.55 -3.45 66.3 -3.95 65.85 -4.25 65.25 -4.5 64.7 -4.5
M 63.85 -3.85
Q 64.25 -4.1 64.7 -4.1 65.4 -4.1 65.85 -3.65 66.25 -3.15 66.25 -2.5
L 63.1 -2.5
Q 63.1 -2.9 63.3 -3.25 63.45 -3.5 63.85 -3.85 Z"/>
</g>

<g id="IT_728x90_FR_psd_Asset_V8_2_Les_solutions_de_r_seau_en_tant__que_service_peuvent_aider___0_Layer0_0_MEMBER_14_FILL">
<path fill="#D82C26" stroke="none" d="
M 70.8 -4.4
L 70.3 -4.4 70.35 0 70.9 0 70.9 -2.2
Q 70.9 -3 71.25 -3.5 71.55 -4 72.15 -4
L 72.5 -3.95 72.65 -4.45 72.15 -4.5
Q 71.8 -4.5 71.4 -4.2 71.05 -3.95 70.9 -3.45
L 70.85 -3.45 70.8 -4.4 Z"/>
</g>

<g id="IT_728x90_FR_psd_Asset_V8_2_Les_solutions_de_r_seau_en_tant__que_service_peuvent_aider___0_Layer0_0_MEMBER_15_FILL">
<path fill="#D82C26" stroke="none" d="
M 75.3 -4.5
Q 74.65 -4.5 74.2 -4.2 73.75 -4 73.4 -3.4 73.1 -2.85 73.1 -2.2 73.1 -1.5 73.4 -1 73.75 -0.4 74.2 -0.15 74.75 0.15 75.35 0.15 76.4 0.15 77.1 -0.4
L 77 -0.9
Q 76.75 -0.65 76.3 -0.5 75.95 -0.3 75.4 -0.3 75 -0.3 74.5 -0.55 74.15 -0.75 73.9 -1.2 73.65 -1.7 73.65 -2.1
L 77.35 -2.1 77.4 -2.35
Q 77.4 -2.85 77.15 -3.45 76.75 -4.05 76.4 -4.25 75.9 -4.5 75.3 -4.5
M 74.45 -3.85
Q 74.85 -4.1 75.3 -4.1 76.05 -4.1 76.4 -3.65 76.85 -3.2 76.85 -2.5
L 73.65 -2.5
Q 73.75 -3 73.9 -3.25 74.05 -3.5 74.45 -3.85
M 74.9 -5.3
L 75.35 -5.3 76.5 -6.65 75.85 -6.65 74.9 -5.3 Z"/>
</g>

<g id="IT_728x90_FR_psd_Asset_V8_2_Les_solutions_de_r_seau_en_tant__que_service_peuvent_aider___0_Layer0_0_MEMBER_16_FILL">
<path fill="#D82C26" stroke="none" d="
M 79.2 -4.4
Q 78.85 -4.25 78.65 -3.95 78.45 -3.65 78.45 -3.3 78.45 -2.85 78.75 -2.55 79.05 -2.25 79.7 -2.1 80.35 -1.9 80.65 -1.65 80.9 -1.5 80.9 -1.15 80.9 -0.75 80.6 -0.55 80.35 -0.3 79.95 -0.3 79.1 -0.3 78.45 -0.85
L 78.4 -0.35
Q 78.55 -0.2 79.05 0 79.35 0.1 79.95 0.1
L 80.65 0
Q 81.05 -0.15 81.2 -0.45 81.45 -0.8 81.45 -1.15 81.45 -1.65 81.1 -1.95 80.7 -2.25 80.1 -2.45 79.35 -2.7 79.2 -2.85 78.95 -3 78.95 -3.35 78.95 -3.65 79.25 -3.9 79.65 -4.1 79.95 -4.1 80.25 -4.1 80.55 -3.95 80.65 -3.95 81.05 -3.65
L 81.3 -4.05
Q 81.1 -4.25 80.7 -4.4
L 79.9 -4.5 79.2 -4.4 Z"/>
</g>

<g id="IT_728x90_FR_psd_Asset_V8_2_Les_solutions_de_r_seau_en_tant__que_service_peuvent_aider___0_Layer0_0_MEMBER_17_FILL">
<path fill="#D82C26" stroke="none" d="
M 85.75 -4.25
Q 85.15 -4.5 84.6 -4.5 84.05 -4.5 83.5 -4.2 83.05 -4 82.7 -3.4 82.45 -2.8 82.45 -2.2 82.45 -1.5 82.75 -1 82.95 -0.5 83.55 -0.15 84 0.15 84.7 0.15 85.65 0.15 86.45 -0.4
L 86.35 -0.9 85.65 -0.5
Q 85.25 -0.3 84.75 -0.3 84.25 -0.3 83.85 -0.55 83.5 -0.75 83.2 -1.2 83.05 -1.5 82.95 -2.1
L 86.7 -2.1 86.7 -2.35
Q 86.7 -2.85 86.45 -3.45 86.2 -3.95 85.75 -4.25
M 84.6 -4.1
Q 85.3 -4.1 85.75 -3.65 86.15 -3.15 86.15 -2.5
L 83 -2.5
Q 83 -2.9 83.2 -3.25 83.35 -3.5 83.75 -3.85 84.15 -4.1 84.6 -4.1 Z"/>
</g>

<g id="IT_728x90_FR_psd_Asset_V8_2_Les_solutions_de_r_seau_en_tant__que_service_peuvent_aider___0_Layer0_0_MEMBER_18_FILL">
<path fill="#D82C26" stroke="none" d="
M 89.45 -4.1
Q 90.05 -4.1 90.35 -3.75 90.7 -3.45 90.7 -2.9
L 90.7 -2.65 90.15 -2.65
Q 87.65 -2.65 87.65 -1.2 87.65 -0.5 88.1 -0.2 88.5 0.1 89.05 0.1 89.7 0.1 90.05 -0.15 90.45 -0.35 90.7 -0.85
L 90.8 0 91.3 0 91.2 -0.95 91.2 -2.85
Q 91.2 -3.6 90.8 -4.1 90.4 -4.5 89.55 -4.5 89.1 -4.5 88.65 -4.35 88.25 -4.3 87.9 -3.95
L 88.05 -3.55 88.7 -3.9
Q 89.1 -4.1 89.45 -4.1
M 88.45 -0.5
Q 88.2 -0.75 88.2 -1.2 88.2 -2.25 90.25 -2.25
L 90.7 -2.25 90.7 -1.8 90.55 -1.1
Q 90.3 -0.7 90 -0.5 89.75 -0.3 89.15 -0.3 88.7 -0.3 88.45 -0.5 Z"/>
</g>

<g id="IT_728x90_FR_psd_Asset_V8_2_Les_solutions_de_r_seau_en_tant__que_service_peuvent_aider___0_Layer0_0_MEMBER_19_FILL">
<path fill="#D82C26" stroke="none" d="
M 93.3 -4.4
L 92.75 -4.4 92.75 -1.7
Q 92.75 -0.95 93.15 -0.4 93.5 0.1 94.35 0.1 94.85 0.1 95.35 -0.15 95.8 -0.45 95.95 -0.95
L 96.05 0 96.6 0 96.5 -1 96.5 -4.4 95.95 -4.4 95.95 -2.2
Q 95.95 -1.6 95.75 -1.2 95.65 -0.85 95.25 -0.55 94.9 -0.35 94.5 -0.35 93.8 -0.35 93.6 -0.75 93.3 -1.2 93.3 -1.85
L 93.3 -4.4 Z"/>
</g>

<g id="IT_728x90_FR_psd_Asset_V8_2_Les_solutions_de_r_seau_en_tant__que_service_peuvent_aider___0_Layer0_0_MEMBER_20_FILL">
<path fill="#D82C26" stroke="none" d="
M 100.35 -1
Q 100.65 -0.5 101.15 -0.15 101.7 0.15 102.3 0.15 103.35 0.15 104.05 -0.4
L 104 -0.9
Q 103.65 -0.65 103.25 -0.5 102.9 -0.3 102.35 -0.3 101.95 -0.3 101.45 -0.55 101.1 -0.75 100.85 -1.2 100.6 -1.7 100.6 -2.1
L 104.3 -2.1 104.35 -2.35
Q 104.35 -2.85 104.1 -3.45 103.85 -3.95 103.4 -4.25 102.8 -4.5 102.25 -4.5 101.6 -4.5 101.15 -4.2 100.7 -4 100.35 -3.4 100.1 -2.95 100.1 -2.2 100.1 -1.45 100.35 -1
M 100.6 -2.5
Q 100.7 -3 100.85 -3.25 101 -3.5 101.4 -3.85 101.8 -4.1 102.25 -4.1 103 -4.1 103.35 -3.65 103.8 -3.2 103.8 -2.5
L 100.6 -2.5 Z"/>
</g>

<g id="IT_728x90_FR_psd_Asset_V8_2_Les_solutions_de_r_seau_en_tant__que_service_peuvent_aider___0_Layer0_0_MEMBER_21_FILL">
<path fill="#D82C26" stroke="none" d="
M 106.15 -4.4
L 105.65 -4.4 105.7 0 106.25 0 106.25 -2.25
Q 106.25 -2.85 106.45 -3.2 106.55 -3.55 106.95 -3.85 107.3 -4.05 107.7 -4.05 108.4 -4.05 108.6 -3.6 108.9 -3.2 108.9 -2.55
L 108.9 0 109.45 0 109.45 -2.7
Q 109.45 -3.45 109.05 -4 108.6 -4.5 107.8 -4.5 107.3 -4.5 106.85 -4.2 106.4 -3.9 106.25 -3.45
L 106.2 -3.45 106.15 -4.4 Z"/>
</g>

<g id="IT_728x90_FR_psd_Asset_V8_2_Les_solutions_de_r_seau_en_tant__que_service_peuvent_aider___0_Layer0_0_MEMBER_22_FILL">
<path fill="#D82C26" stroke="none" d="
M 115 -3.95
L 115.1 -4.4 113.9 -4.4 113.9 -5.65 113.35 -5.45 113.35 -4.4 112.65 -4.4 112.5 -3.95 113.35 -3.95 113.35 -1.05
Q 113.35 -0.55 113.6 -0.2 113.9 0.1 114.35 0.1
L 114.85 0.05 115.3 -0.15 115.2 -0.55
Q 114.85 -0.35 114.5 -0.35 114.2 -0.35 114.05 -0.55 113.9 -0.7 113.9 -1.15
L 113.9 -3.95 115 -3.95 Z"/>
</g>

<g id="IT_728x90_FR_psd_Asset_V8_2_Les_solutions_de_r_seau_en_tant__que_service_peuvent_aider___0_Layer0_0_MEMBER_23_FILL">
<path fill="#D82C26" stroke="none" d="
M 116.5 -3.55
Q 116.65 -3.7 117.15 -3.9 117.5 -4.1 117.9 -4.1 118.5 -4.1 118.8 -3.75 119.15 -3.45 119.15 -2.9
L 119.15 -2.65 118.6 -2.65
Q 116.1 -2.65 116.1 -1.2 116.1 -0.5 116.5 -0.2 116.95 0.1 117.5 0.1 118.05 0.1 118.5 -0.15 118.9 -0.35 119.15 -0.85
L 119.15 -0.4 119.2 0 119.75 0 119.65 -0.95 119.65 -2.85
Q 119.65 -3.65 119.2 -4.1 118.8 -4.5 117.95 -4.5 117.5 -4.5 117.1 -4.35 116.7 -4.3 116.35 -3.95
L 116.5 -3.55
M 118.45 -0.5
Q 118.1 -0.3 117.6 -0.3 117.15 -0.3 116.9 -0.5 116.6 -0.7 116.6 -1.2 116.6 -2.25 118.7 -2.25
L 119.15 -2.25 119.15 -1.8
Q 119.15 -1.45 118.95 -1.1 118.8 -0.7 118.45 -0.5 Z"/>
</g>

<g id="IT_728x90_FR_psd_Asset_V8_2_Les_solutions_de_r_seau_en_tant__que_service_peuvent_aider___0_Layer0_0_MEMBER_24_FILL">
<path fill="#D82C26" stroke="none" d="
M 121.8 -3.45
L 121.75 -4.4 121.2 -4.4 121.25 0 121.8 0 121.8 -2.25
Q 121.8 -2.7 122 -3.2 122.25 -3.65 122.55 -3.85 122.8 -4.05 123.25 -4.05 123.9 -4.05 124.2 -3.6 124.45 -3.2 124.45 -2.55
L 124.45 0 125 0 125 -2.7
Q 125 -3.55 124.6 -4 124.25 -4.5 123.4 -4.5 122.85 -4.5 122.45 -4.2 122.05 -3.9 121.8 -3.45 Z"/>
</g>

<g id="IT_728x90_FR_psd_Asset_V8_2_Les_solutions_de_r_seau_en_tant__que_service_peuvent_aider___0_Layer0_0_MEMBER_25_FILL">
<path fill="#D82C26" stroke="none" d="
M 126 -4.4
L 125.9 -3.95 126.7 -3.95 126.7 -1.05
Q 126.7 -0.5 127 -0.2 127.25 0.1 127.75 0.1
L 128.2 0.05
Q 128.55 -0.05 128.65 -0.15
L 128.6 -0.55
Q 128.2 -0.35 127.9 -0.35 127.6 -0.35 127.4 -0.55 127.25 -0.7 127.25 -1.15
L 127.25 -3.95 128.4 -3.95 128.5 -4.4 127.25 -4.4 127.25 -5.65 126.7 -5.45 126.7 -4.4 126 -4.4 Z"/>
</g>

<g id="IT_728x90_FR_psd_Asset_V8_2_Les_solutions_de_r_seau_en_tant__que_service_peuvent_aider___0_Layer0_0_MEMBER_26_FILL">
<path fill="#D82C26" stroke="none" d="
M 4.5 7.05
Q 4.3 6.55 3.75 6.25 3.3 5.95 2.7 5.95 2.05 5.95 1.6 6.25 1.05 6.65 0.8 7.1 0.5 7.65 0.5 8.3 0.5 8.95 0.8 9.45 1.15 10.05 1.6 10.3 2.05 10.6 2.7 10.6 3.3 10.6 3.75 10.3 4.25 10.1 4.5 9.55
L 4.5 11.5
Q 4.5 12.45 5.45 12.75
L 5.7 12.25
Q 5.35 12.2 5.2 11.95 5.05 11.8 5.05 11.4
L 5.1 6.1 4.55 6.1 4.55 7.05 4.5 7.05
M 4.55 8.3
Q 4.55 8.8 4.3 9.2 4.1 9.55 3.7 9.9 3.3 10.15 2.8 10.15 2.3 10.15 1.9 9.9 1.55 9.7 1.3 9.2 1.1 8.85 1.1 8.3 1.1 7.75 1.3 7.35 1.5 6.95 1.9 6.7 2.2 6.45 2.8 6.45 3.4 6.45 3.7 6.7 4.1 6.95 4.3 7.35 4.55 7.85 4.55 8.3 Z"/>
</g>

<g id="IT_728x90_FR_psd_Asset_V8_2_Les_solutions_de_r_seau_en_tant__que_service_peuvent_aider___0_Layer0_0_MEMBER_27_FILL">
<path fill="#D82C26" stroke="none" d="
M 10.4 9.95
L 10.4 6.1 9.85 6.1 9.85 8.3
Q 9.85 8.9 9.65 9.3 9.5 9.7 9.15 9.95 8.8 10.15 8.4 10.15 7.75 10.15 7.5 9.7 7.2 9.35 7.2 8.65
L 7.2 6.1 6.65 6.1 6.65 8.75
Q 6.65 9.55 7.05 10.1 7.45 10.6 8.25 10.6 8.8 10.6 9.25 10.3 9.75 9.9 9.85 9.55
L 9.95 10.5 10.5 10.5 10.4 9.95 Z"/>
</g>

<g id="IT_728x90_FR_psd_Asset_V8_2_Les_solutions_de_r_seau_en_tant__que_service_peuvent_aider___0_Layer0_0_MEMBER_28_FILL">
<path fill="#D82C26" stroke="none" d="
M 12.55 9.25
Q 12.3 8.85 12.3 8.35
L 16 8.35 16 8.15
Q 16 7.45 15.8 7.05 15.5 6.5 15.05 6.25 14.6 5.95 13.95 5.95 13.3 5.95 12.85 6.25 12.35 6.55 12.05 7.05 11.75 7.6 11.75 8.25 11.75 8.9 12.05 9.5 12.35 10 12.85 10.3 13.4 10.6 14 10.6 15.05 10.6 15.75 10.05
L 15.65 9.6
Q 15.4 9.85 14.95 10 14.6 10.15 14.05 10.15 13.45 10.15 13.15 9.9 12.75 9.65 12.55 9.25
M 13.95 6.4
Q 14.65 6.4 15.05 6.8 15.5 7.25 15.5 7.95
L 12.3 7.95
Q 12.3 7.75 12.5 7.25 12.75 6.9 13.1 6.65 13.35 6.4 13.95 6.4 Z"/>
</g>

<g id="IT_728x90_FR_psd_Asset_V8_2_Les_solutions_de_r_seau_en_tant__que_service_peuvent_aider___0_Layer0_0_MEMBER_29_FILL">
<path fill="#D82C26" stroke="none" d="
M 21.55 6.1
Q 21.2 5.95 20.75 5.95 20.35 5.95 20.05 6.1 19.65 6.3 19.5 6.5 19.3 6.75 19.3 7.15 19.3 7.65 19.6 7.95 19.85 8.15 20.55 8.4
L 21.45 8.8
Q 21.75 9.05 21.75 9.35 21.75 9.75 21.45 9.95 21.2 10.15 20.75 10.15 19.85 10.15 19.3 9.65
L 19.2 10.1 19.9 10.45
Q 20.3 10.6 20.8 10.6 21.2 10.6 21.5 10.45 21.8 10.35 22.05 10 22.25 9.8 22.25 9.35 22.25 8.85 21.95 8.55 21.7 8.3 20.95 8.05
L 20.05 7.65
Q 19.8 7.5 19.8 7.15 19.8 6.75 20.1 6.6 20.3 6.4 20.75 6.4
L 21.4 6.5 21.9 6.85 22.15 6.45
Q 21.95 6.25 21.55 6.1 Z"/>
</g>

<g id="IT_728x90_FR_psd_Asset_V8_2_Les_solutions_de_r_seau_en_tant__que_service_peuvent_aider___0_Layer0_0_MEMBER_30_FILL">
<path fill="#D82C26" stroke="none" d="
M 23.55 9.5
Q 23.8 9.95 24.35 10.3 24.9 10.6 25.5 10.6 26.55 10.6 27.25 10.05
L 27.2 9.6
Q 26.85 9.85 26.45 10 26.1 10.15 25.55 10.15 25.05 10.15 24.65 9.9 24.25 9.65 24.05 9.25 23.8 8.85 23.8 8.35
L 27.5 8.35 27.55 8.15
Q 27.55 7.55 27.3 7.05 27.1 6.55 26.55 6.25 26.1 5.95 25.45 5.95 24.8 5.95 24.35 6.25 23.85 6.55 23.55 7.05 23.3 7.5 23.3 8.25 23.3 9 23.55 9.5
M 24.05 7.25
Q 24.2 6.9 24.6 6.65 24.9 6.4 25.45 6.4 26.15 6.4 26.55 6.8 27 7.25 27 7.95
L 23.8 7.95
Q 23.9 7.45 24.05 7.25 Z"/>
</g>

<g id="IT_728x90_FR_psd_Asset_V8_2_Les_solutions_de_r_seau_en_tant__que_service_peuvent_aider___0_Layer0_0_MEMBER_31_FILL">
<path fill="#D82C26" stroke="none" d="
M 31.15 6.05
L 30.7 5.95
Q 30.35 5.95 29.95 6.25 29.65 6.5 29.4 7.05
L 29.35 6.1 28.8 6.1 28.85 10.5 29.4 10.5 29.4 8.3
Q 29.4 7.6 29.75 7 30.15 6.45 30.65 6.45
L 31.05 6.5 31.15 6.05 Z"/>
</g>

<g id="IT_728x90_FR_psd_Asset_V8_2_Les_solutions_de_r_seau_en_tant__que_service_peuvent_aider___0_Layer0_0_MEMBER_32_FILL">
<path fill="#D82C26" stroke="none" d="
M 31.75 6.1
L 33.45 10.5 34.05 10.5 35.7 6.1 35.1 6.1 33.75 9.95 32.35 6.1 31.75 6.1 Z"/>
</g>

<g id="IT_728x90_FR_psd_Asset_V8_2_Les_solutions_de_r_seau_en_tant__que_service_peuvent_aider___0_Layer0_0_MEMBER_33_FILL">
<path fill="#D82C26" stroke="none" d="
M 37.25 6.1
L 36.7 6.1 36.7 10.5 37.25 10.5 37.25 6.1
M 37.4 4.35
L 37.25 4.05 37 3.95 36.7 4.05 36.6 4.35 36.7 4.65 37 4.75 37.25 4.65 37.4 4.35 Z"/>
</g>

<g id="IT_728x90_FR_psd_Asset_V8_2_Les_solutions_de_r_seau_en_tant__que_service_peuvent_aider___0_Layer0_0_MEMBER_34_FILL">
<path fill="#D82C26" stroke="none" d="
M 41.75 6.1
Q 41.3 5.95 40.9 5.95 40.3 5.95 39.75 6.25 39.2 6.55 38.9 7.1 38.6 7.65 38.6 8.3 38.6 9 38.9 9.5 39.2 10 39.7 10.3 40.25 10.6 40.9 10.6 41.3 10.6 41.75 10.45
L 42.4 10.1 42.3 9.6
Q 42.1 9.8 41.7 10
L 40.95 10.15
Q 40.5 10.15 40 9.9 39.6 9.55 39.4 9.2 39.2 8.85 39.2 8.3 39.2 7.75 39.4 7.35 39.6 6.95 40 6.7 40.3 6.45 40.9 6.45 41.4 6.45 41.6 6.55 41.95 6.7 42.15 6.9
L 42.4 6.5 41.75 6.1 Z"/>
</g>

<g id="IT_728x90_FR_psd_Asset_V8_2_Les_solutions_de_r_seau_en_tant__que_service_peuvent_aider___0_Layer0_0_MEMBER_35_FILL">
<path fill="#D82C26" stroke="none" d="
M 43.95 9.25
Q 43.7 8.85 43.7 8.35
L 47.4 8.35 47.4 8.15
Q 47.4 7.45 47.2 7.05 46.9 6.5 46.45 6.25 46 5.95 45.35 5.95 44.7 5.95 44.25 6.25 43.75 6.55 43.45 7.05 43.15 7.6 43.15 8.25 43.15 8.9 43.45 9.5 43.75 10 44.25 10.3 44.8 10.6 45.4 10.6 46.35 10.6 47.15 10.05
L 47.05 9.6
Q 46.65 9.9 46.35 10 46 10.15 45.45 10.15 44.85 10.15 44.55 9.9 44.15 9.65 43.95 9.25
M 44.5 6.65
Q 44.75 6.4 45.35 6.4 46.05 6.4 46.45 6.8 46.9 7.25 46.9 7.95
L 43.7 7.95
Q 43.7 7.75 43.9 7.25 44.15 6.9 44.5 6.65 Z"/>
</g>

<g id="IT_728x90_FR_psd_Asset_V8_2_Les_solutions_de_r_seau_en_tant__que_service_peuvent_aider___0_Layer0_0_MEMBER_36_FILL">
<path fill="#D82C26" stroke="none" d="
M 51.45 6.1
L 50.95 6.1 50.95 12.7 51.5 12.7 51.5 9.55 51.55 9.55
Q 51.8 10.1 52.25 10.3 52.8 10.6 53.3 10.6 53.95 10.6 54.45 10.3 54.9 10.05 55.25 9.45 55.5 8.85 55.5 8.3 55.5 7.7 55.25 7.1 55 6.65 54.45 6.25 53.95 5.95 53.3 5.95 52.8 5.95 52.25 6.25 51.75 6.6 51.55 7.05
L 51.5 7.05 51.45 6.1
M 54.95 8.3
Q 54.95 8.7 54.75 9.2 54.5 9.7 54.15 9.9 53.75 10.15 53.25 10.15 52.75 10.15 52.35 9.9 51.9 9.6 51.7 9.2 51.5 8.85 51.5 8.3 51.5 7.75 51.7 7.35 51.9 6.9 52.35 6.7 52.65 6.45 53.25 6.45 53.85 6.45 54.15 6.7 54.55 6.95 54.75 7.35 54.95 7.95 54.95 8.3 Z"/>
</g>

<g id="IT_728x90_FR_psd_Asset_V8_2_Les_solutions_de_r_seau_en_tant__que_service_peuvent_aider___0_Layer0_0_MEMBER_37_FILL">
<path fill="#D82C26" stroke="none" d="
M 60.85 8.35
L 60.85 8.15
Q 60.85 7.55 60.6 7.05 60.4 6.6 59.9 6.25 59.45 5.95 58.75 5.95 58.2 5.95 57.65 6.25 57.1 6.65 56.9 7.05 56.6 7.6 56.6 8.25 56.6 8.9 56.9 9.5 57.2 10 57.7 10.3 58.25 10.6 58.85 10.6 59.8 10.6 60.6 10.05
L 60.5 9.6 59.8 10
Q 59.35 10.15 58.9 10.15 58.3 10.15 58 9.9 57.55 9.7 57.35 9.25 57.15 8.9 57.15 8.35
L 60.85 8.35
M 59.9 6.8
Q 60.25 7.25 60.35 7.95
L 57.15 7.95
Q 57.15 7.6 57.35 7.25 57.6 6.85 57.9 6.65 58.2 6.4 58.75 6.4 59.4 6.4 59.9 6.8 Z"/>
</g>

<g id="IT_728x90_FR_psd_Asset_V8_2_Les_solutions_de_r_seau_en_tant__que_service_peuvent_aider___0_Layer0_0_MEMBER_38_FILL">
<path fill="#D82C26" stroke="none" d="
M 62.7 6.1
L 62.15 6.1 62.15 8.75
Q 62.15 9.6 62.5 10.1 63 10.6 63.75 10.6 64.25 10.6 64.7 10.3 65.1 10.05 65.35 9.55
L 65.4 10.5 65.95 10.5 65.85 9.45 65.85 6.1 65.35 6.1 65.35 8.3
Q 65.35 8.7 65.15 9.3 64.85 9.8 64.6 9.95 64.35 10.15 63.85 10.15 63.25 10.15 62.95 9.7 62.7 9.4 62.7 8.65
L 62.7 6.1 Z"/>
</g>

<g id="IT_728x90_FR_psd_Asset_V8_2_Les_solutions_de_r_seau_en_tant__que_service_peuvent_aider___0_Layer0_0_MEMBER_39_FILL">
<path fill="#D82C26" stroke="none" d="
M 66.9 6.1
L 68.6 10.5 69.2 10.5 70.85 6.1 70.3 6.1 68.9 9.95 67.5 6.1 66.9 6.1 Z"/>
</g>

<g id="IT_728x90_FR_psd_Asset_V8_2_Les_solutions_de_r_seau_en_tant__que_service_peuvent_aider___0_Layer0_0_MEMBER_40_FILL">
<path fill="#D82C26" stroke="none" d="
M 75.45 7.05
Q 75.25 6.6 74.75 6.25 74.25 5.95 73.6 5.95 73.05 5.95 72.5 6.25 71.95 6.65 71.75 7.05 71.45 7.6 71.45 8.25 71.45 8.9 71.75 9.5 71.95 9.95 72.55 10.3 73 10.6 73.7 10.6 74.65 10.6 75.45 10.05
L 75.35 9.6 74.65 10
Q 74.2 10.15 73.75 10.15 73.15 10.15 72.85 9.9 72.4 9.7 72.2 9.25 72.05 9 71.95 8.35
L 75.7 8.35 75.7 8.15
Q 75.7 7.55 75.45 7.05
M 74.75 6.8
Q 75.15 7.3 75.15 7.95
L 72 7.95
Q 72 7.6 72.2 7.25 72.35 6.9 72.75 6.65 73.05 6.4 73.6 6.4 74.25 6.4 74.75 6.8 Z"/>
</g>

<g id="IT_728x90_FR_psd_Asset_V8_2_Les_solutions_de_r_seau_en_tant__que_service_peuvent_aider___0_Layer0_0_MEMBER_41_FILL">
<path fill="#D82C26" stroke="none" d="
M 77.55 6.1
L 77 6.1 77.05 10.5 77.6 10.5 77.6 8.25
Q 77.6 7.65 77.8 7.25 77.95 6.95 78.3 6.65 78.65 6.45 79.05 6.45 79.75 6.45 80 6.85 80.25 7.35 80.25 7.95
L 80.25 10.5 80.8 10.5 80.8 7.8
Q 80.8 7.05 80.4 6.5 80 5.95 79.15 5.95 78.65 5.95 78.2 6.25 77.75 6.55 77.6 7.05
L 77.55 7.05 77.55 6.1 Z"/>
</g>

<g id="IT_728x90_FR_psd_Asset_V8_2_Les_solutions_de_r_seau_en_tant__que_service_peuvent_aider___0_Layer0_0_MEMBER_42_FILL">
<path fill="#D82C26" stroke="none" d="
M 82.5 6.1
L 81.8 6.1 81.65 6.55 82.5 6.55 82.5 9.4
Q 82.5 9.9 82.75 10.25 83.05 10.55 83.5 10.55
L 84 10.5 84.45 10.35 84.4 9.95 83.7 10.1
Q 83.45 10.1 83.2 9.95 83.05 9.75 83.05 9.35
L 83.05 6.55 84.15 6.55 84.3 6.1 83.05 6.1 83.05 4.85 82.5 5.05 82.5 6.1 Z"/>
</g>

<g id="IT_728x90_FR_psd_Asset_V8_2_Les_solutions_de_r_seau_en_tant__que_service_peuvent_aider___0_Layer0_0_MEMBER_43_FILL">
<path fill="#D82C26" stroke="none" d="
M 89.15 5.95
Q 88.7 5.95 88.25 6.1 87.85 6.25 87.5 6.5
L 87.65 6.95 88.3 6.55 89.05 6.4
Q 89.65 6.4 90 6.7 90.3 7 90.3 7.6
L 90.3 7.85 89.8 7.85
Q 87.25 7.85 87.25 9.3 87.25 9.95 87.7 10.25 88.05 10.6 88.65 10.6 89.15 10.6 89.65 10.35 90.05 10.15 90.3 9.65
L 90.35 9.65 90.35 10.1 90.4 10.5 90.9 10.5 90.8 9.5 90.8 7.65
Q 90.8 6.8 90.4 6.4 89.95 5.95 89.15 5.95
M 90.3 8.2
L 90.3 8.65
Q 90.3 9.05 90.15 9.35 89.9 9.75 89.6 9.95 89.25 10.2 88.75 10.2 88.35 10.2 88.1 9.95 87.8 9.75 87.8 9.3 87.8 8.2 89.85 8.2
L 90.3 8.2 Z"/>
</g>

<g id="IT_728x90_FR_psd_Asset_V8_2_Les_solutions_de_r_seau_en_tant__que_service_peuvent_aider___0_Layer0_0_MEMBER_44_FILL">
<path fill="#D82C26" stroke="none" d="
M 93 6.1
L 92.45 6.1 92.45 10.5 93 10.5 93 6.1
M 93.1 4.35
L 93 4.05 92.7 3.95 92.45 4.05 92.3 4.35 92.45 4.65 92.7 4.75 93 4.65 93.1 4.35 Z"/>
</g>

<g id="IT_728x90_FR_psd_Asset_V8_2_Les_solutions_de_r_seau_en_tant__que_service_peuvent_aider___0_Layer0_0_MEMBER_45_FILL">
<path fill="#D82C26" stroke="none" d="
M 98.9 3.3
L 98.35 3.4 98.35 7.05 98.3 7.05
Q 98.1 6.6 97.6 6.25 97.1 5.95 96.55 5.95 95.95 5.95 95.4 6.25 94.85 6.65 94.6 7.1 94.35 7.7 94.35 8.3 94.35 8.85 94.6 9.45 94.95 10.05 95.4 10.3 95.95 10.6 96.55 10.6 97.1 10.6 97.6 10.3 98 10.1 98.35 9.5
L 98.4 10.5 98.9 10.5 98.9 3.3
M 95.1 7.35
Q 95.3 6.95 95.7 6.7 96 6.45 96.6 6.45 97.2 6.45 97.5 6.7 97.95 7 98.15 7.35 98.35 7.75 98.35 8.3 98.35 8.85 98.15 9.2 98 9.5 97.5 9.9 97.1 10.15 96.6 10.15 96.1 10.15 95.7 9.9 95.35 9.7 95.1 9.2 94.9 8.85 94.9 8.3 94.9 7.75 95.1 7.35 Z"/>
</g>

<g id="IT_728x90_FR_psd_Asset_V8_2_Les_solutions_de_r_seau_en_tant__que_service_peuvent_aider___0_Layer0_0_MEMBER_46_FILL">
<path fill="#D82C26" stroke="none" d="
M 104.5 8.35
L 104.5 8.15
Q 104.5 7.55 104.25 7.05 104.05 6.6 103.55 6.25 103.1 5.95 102.4 5.95 101.85 5.95 101.3 6.25 100.75 6.65 100.55 7.05 100.25 7.6 100.25 8.25 100.25 8.9 100.55 9.5 100.85 10 101.35 10.3 101.8 10.6 102.5 10.6 103.45 10.6 104.25 10.05
L 104.15 9.6 103.45 10
Q 103 10.15 102.55 10.15 101.95 10.15 101.65 9.9 101.2 9.7 101 9.25 100.8 8.9 100.8 8.35
L 104.5 8.35
M 102.4 6.4
Q 103.05 6.4 103.55 6.8 103.9 7.25 104 7.95
L 100.8 7.95
Q 100.8 7.6 101 7.25 101.15 6.9 101.55 6.65 101.85 6.4 102.4 6.4 Z"/>
</g>

<g id="IT_728x90_FR_psd_Asset_V8_2_Les_solutions_de_r_seau_en_tant__que_service_peuvent_aider___0_Layer0_0_MEMBER_47_FILL">
<path fill="#D82C26" stroke="none" d="
M 108.15 6.05
L 107.65 5.95
Q 107.3 5.95 106.9 6.25 106.55 6.55 106.4 7.05
L 106.35 7.05 106.3 6.1 105.8 6.1 105.85 10.5 106.4 10.5 106.4 8.3
Q 106.4 7.55 106.7 7 107.1 6.45 107.65 6.45
L 108 6.5 108.15 6.05 Z"/>
</g>

<g id="IT_728x90_FR_psd_Asset_V8_2_Les_solutions_de_r_seau_en_tant__que_service_peuvent_aider___0_Layer0_0_MEMBER_48_FILL">
<path fill="#D82C26" stroke="none" d="
M 108.55 10.4
Q 108.65 10.55 108.85 10.55
L 109.15 10.4 109.25 10.1 109.15 9.8 108.85 9.7 108.55 9.8
Q 108.45 9.9 108.45 10.1 108.45 10.35 108.55 10.4 Z"/>
</g>
</defs>

<g transform="matrix( 1, 0, 0, 1, -223,-39) ">
<g transform="matrix( 1, 0, 0, 1, 223,52) ">
<g transform="matrix( 1, 0, 0, 1, 25,7) ">
<g transform="matrix( 2.6895904541015625, 0, 0, 2.672393798828125, -0.85,19.55) ">
<use xlink:href="#IT_728x90_FR_psd_Asset_V8_2_Les_solutions_de_r_seau_en_tant__que_service_peuvent_aider___0_Layer0_0_MEMBER_0_FILL"/>
</g>

<g transform="matrix( 2.6895904541015625, 0, 0, 2.672393798828125, -0.85,19.55) ">
<use xlink:href="#IT_728x90_FR_psd_Asset_V8_2_Les_solutions_de_r_seau_en_tant__que_service_peuvent_aider___0_Layer0_0_MEMBER_1_FILL"/>
</g>

<g transform="matrix( 2.6895904541015625, 0, 0, 2.672393798828125, -0.85,19.55) ">
<use xlink:href="#IT_728x90_FR_psd_Asset_V8_2_Les_solutions_de_r_seau_en_tant__que_service_peuvent_aider___0_Layer0_0_MEMBER_2_FILL"/>
</g>

<g transform="matrix( 2.6895904541015625, 0, 0, 2.672393798828125, -0.85,19.55) ">
<use xlink:href="#IT_728x90_FR_psd_Asset_V8_2_Les_solutions_de_r_seau_en_tant__que_service_peuvent_aider___0_Layer0_0_MEMBER_3_FILL"/>
</g>

<g transform="matrix( 2.6895904541015625, 0, 0, 2.672393798828125, -0.85,19.55) ">
<use xlink:href="#IT_728x90_FR_psd_Asset_V8_2_Les_solutions_de_r_seau_en_tant__que_service_peuvent_aider___0_Layer0_0_MEMBER_4_FILL"/>
</g>

<g transform="matrix( 2.6895904541015625, 0, 0, 2.672393798828125, -0.85,19.55) ">
<use xlink:href="#IT_728x90_FR_psd_Asset_V8_2_Les_solutions_de_r_seau_en_tant__que_service_peuvent_aider___0_Layer0_0_MEMBER_5_FILL"/>
</g>

<g transform="matrix( 2.6895904541015625, 0, 0, 2.672393798828125, -0.85,19.55) ">
<use xlink:href="#IT_728x90_FR_psd_Asset_V8_2_Les_solutions_de_r_seau_en_tant__que_service_peuvent_aider___0_Layer0_0_MEMBER_6_FILL"/>
</g>

<g transform="matrix( 2.6895904541015625, 0, 0, 2.672393798828125, -0.85,19.55) ">
<use xlink:href="#IT_728x90_FR_psd_Asset_V8_2_Les_solutions_de_r_seau_en_tant__que_service_peuvent_aider___0_Layer0_0_MEMBER_7_FILL"/>
</g>

<g transform="matrix( 2.6895904541015625, 0, 0, 2.672393798828125, -0.85,19.55) ">
<use xlink:href="#IT_728x90_FR_psd_Asset_V8_2_Les_solutions_de_r_seau_en_tant__que_service_peuvent_aider___0_Layer0_0_MEMBER_8_FILL"/>
</g>

<g transform="matrix( 2.6895904541015625, 0, 0, 2.672393798828125, -0.85,19.55) ">
<use xlink:href="#IT_728x90_FR_psd_Asset_V8_2_Les_solutions_de_r_seau_en_tant__que_service_peuvent_aider___0_Layer0_0_MEMBER_9_FILL"/>
</g>

<g transform="matrix( 2.6895904541015625, 0, 0, 2.672393798828125, -0.85,19.55) ">
<use xlink:href="#IT_728x90_FR_psd_Asset_V8_2_Les_solutions_de_r_seau_en_tant__que_service_peuvent_aider___0_Layer0_0_MEMBER_10_FILL"/>
</g>

<g transform="matrix( 2.6895904541015625, 0, 0, 2.672393798828125, -0.85,19.55) ">
<use xlink:href="#IT_728x90_FR_psd_Asset_V8_2_Les_solutions_de_r_seau_en_tant__que_service_peuvent_aider___0_Layer0_0_MEMBER_11_FILL"/>
</g>

<g transform="matrix( 2.6895904541015625, 0, 0, 2.672393798828125, -0.85,19.55) ">
<use xlink:href="#IT_728x90_FR_psd_Asset_V8_2_Les_solutions_de_r_seau_en_tant__que_service_peuvent_aider___0_Layer0_0_MEMBER_12_FILL"/>
</g>

<g transform="matrix( 2.6895904541015625, 0, 0, 2.672393798828125, -0.85,19.55) ">
<use xlink:href="#IT_728x90_FR_psd_Asset_V8_2_Les_solutions_de_r_seau_en_tant__que_service_peuvent_aider___0_Layer0_0_MEMBER_13_FILL"/>
</g>

<g transform="matrix( 2.6895904541015625, 0, 0, 2.672393798828125, -0.85,19.55) ">
<use xlink:href="#IT_728x90_FR_psd_Asset_V8_2_Les_solutions_de_r_seau_en_tant__que_service_peuvent_aider___0_Layer0_0_MEMBER_14_FILL"/>
</g>

<g transform="matrix( 2.6895904541015625, 0, 0, 2.672393798828125, -0.85,19.55) ">
<use xlink:href="#IT_728x90_FR_psd_Asset_V8_2_Les_solutions_de_r_seau_en_tant__que_service_peuvent_aider___0_Layer0_0_MEMBER_15_FILL"/>
</g>

<g transform="matrix( 2.6895904541015625, 0, 0, 2.672393798828125, -0.85,19.55) ">
<use xlink:href="#IT_728x90_FR_psd_Asset_V8_2_Les_solutions_de_r_seau_en_tant__que_service_peuvent_aider___0_Layer0_0_MEMBER_16_FILL"/>
</g>

<g transform="matrix( 2.6895904541015625, 0, 0, 2.672393798828125, -0.85,19.55) ">
<use xlink:href="#IT_728x90_FR_psd_Asset_V8_2_Les_solutions_de_r_seau_en_tant__que_service_peuvent_aider___0_Layer0_0_MEMBER_17_FILL"/>
</g>

<g transform="matrix( 2.6895904541015625, 0, 0, 2.672393798828125, -0.85,19.55) ">
<use xlink:href="#IT_728x90_FR_psd_Asset_V8_2_Les_solutions_de_r_seau_en_tant__que_service_peuvent_aider___0_Layer0_0_MEMBER_18_FILL"/>
</g>

<g transform="matrix( 2.6895904541015625, 0, 0, 2.672393798828125, -0.85,19.55) ">
<use xlink:href="#IT_728x90_FR_psd_Asset_V8_2_Les_solutions_de_r_seau_en_tant__que_service_peuvent_aider___0_Layer0_0_MEMBER_19_FILL"/>
</g>

<g transform="matrix( 2.6895904541015625, 0, 0, 2.672393798828125, -0.85,19.55) ">
<use xlink:href="#IT_728x90_FR_psd_Asset_V8_2_Les_solutions_de_r_seau_en_tant__que_service_peuvent_aider___0_Layer0_0_MEMBER_20_FILL"/>
</g>

<g transform="matrix( 2.6895904541015625, 0, 0, 2.672393798828125, -0.85,19.55) ">
<use xlink:href="#IT_728x90_FR_psd_Asset_V8_2_Les_solutions_de_r_seau_en_tant__que_service_peuvent_aider___0_Layer0_0_MEMBER_21_FILL"/>
</g>

<g transform="matrix( 2.6895904541015625, 0, 0, 2.672393798828125, -0.85,19.55) ">
<use xlink:href="#IT_728x90_FR_psd_Asset_V8_2_Les_solutions_de_r_seau_en_tant__que_service_peuvent_aider___0_Layer0_0_MEMBER_22_FILL"/>
</g>

<g transform="matrix( 2.6895904541015625, 0, 0, 2.672393798828125, -0.85,19.55) ">
<use xlink:href="#IT_728x90_FR_psd_Asset_V8_2_Les_solutions_de_r_seau_en_tant__que_service_peuvent_aider___0_Layer0_0_MEMBER_23_FILL"/>
</g>

<g transform="matrix( 2.6895904541015625, 0, 0, 2.672393798828125, -0.85,19.55) ">
<use xlink:href="#IT_728x90_FR_psd_Asset_V8_2_Les_solutions_de_r_seau_en_tant__que_service_peuvent_aider___0_Layer0_0_MEMBER_24_FILL"/>
</g>

<g transform="matrix( 2.6895904541015625, 0, 0, 2.672393798828125, -0.85,19.55) ">
<use xlink:href="#IT_728x90_FR_psd_Asset_V8_2_Les_solutions_de_r_seau_en_tant__que_service_peuvent_aider___0_Layer0_0_MEMBER_25_FILL"/>
</g>

<g transform="matrix( 2.6895904541015625, 0, 0, 2.672393798828125, -0.85,19.55) ">
<use xlink:href="#IT_728x90_FR_psd_Asset_V8_2_Les_solutions_de_r_seau_en_tant__que_service_peuvent_aider___0_Layer0_0_MEMBER_26_FILL"/>
</g>

<g transform="matrix( 2.6895904541015625, 0, 0, 2.672393798828125, -0.85,19.55) ">
<use xlink:href="#IT_728x90_FR_psd_Asset_V8_2_Les_solutions_de_r_seau_en_tant__que_service_peuvent_aider___0_Layer0_0_MEMBER_27_FILL"/>
</g>

<g transform="matrix( 2.6895904541015625, 0, 0, 2.672393798828125, -0.85,19.55) ">
<use xlink:href="#IT_728x90_FR_psd_Asset_V8_2_Les_solutions_de_r_seau_en_tant__que_service_peuvent_aider___0_Layer0_0_MEMBER_28_FILL"/>
</g>

<g transform="matrix( 2.6895904541015625, 0, 0, 2.672393798828125, -0.85,19.55) ">
<use xlink:href="#IT_728x90_FR_psd_Asset_V8_2_Les_solutions_de_r_seau_en_tant__que_service_peuvent_aider___0_Layer0_0_MEMBER_29_FILL"/>
</g>

<g transform="matrix( 2.6895904541015625, 0, 0, 2.672393798828125, -0.85,19.55) ">
<use xlink:href="#IT_728x90_FR_psd_Asset_V8_2_Les_solutions_de_r_seau_en_tant__que_service_peuvent_aider___0_Layer0_0_MEMBER_30_FILL"/>
</g>

<g transform="matrix( 2.6895904541015625, 0, 0, 2.672393798828125, -0.85,19.55) ">
<use xlink:href="#IT_728x90_FR_psd_Asset_V8_2_Les_solutions_de_r_seau_en_tant__que_service_peuvent_aider___0_Layer0_0_MEMBER_31_FILL"/>
</g>

<g transform="matrix( 2.6895904541015625, 0, 0, 2.672393798828125, -0.85,19.55) ">
<use xlink:href="#IT_728x90_FR_psd_Asset_V8_2_Les_solutions_de_r_seau_en_tant__que_service_peuvent_aider___0_Layer0_0_MEMBER_32_FILL"/>
</g>

<g transform="matrix( 2.6895904541015625, 0, 0, 2.672393798828125, -0.85,19.55) ">
<use xlink:href="#IT_728x90_FR_psd_Asset_V8_2_Les_solutions_de_r_seau_en_tant__que_service_peuvent_aider___0_Layer0_0_MEMBER_33_FILL"/>
</g>

<g transform="matrix( 2.6895904541015625, 0, 0, 2.672393798828125, -0.85,19.55) ">
<use xlink:href="#IT_728x90_FR_psd_Asset_V8_2_Les_solutions_de_r_seau_en_tant__que_service_peuvent_aider___0_Layer0_0_MEMBER_34_FILL"/>
</g>

<g transform="matrix( 2.6895904541015625, 0, 0, 2.672393798828125, -0.85,19.55) ">
<use xlink:href="#IT_728x90_FR_psd_Asset_V8_2_Les_solutions_de_r_seau_en_tant__que_service_peuvent_aider___0_Layer0_0_MEMBER_35_FILL"/>
</g>

<g transform="matrix( 2.6895904541015625, 0, 0, 2.672393798828125, -0.85,19.55) ">
<use xlink:href="#IT_728x90_FR_psd_Asset_V8_2_Les_solutions_de_r_seau_en_tant__que_service_peuvent_aider___0_Layer0_0_MEMBER_36_FILL"/>
</g>

<g transform="matrix( 2.6895904541015625, 0, 0, 2.672393798828125, -0.85,19.55) ">
<use xlink:href="#IT_728x90_FR_psd_Asset_V8_2_Les_solutions_de_r_seau_en_tant__que_service_peuvent_aider___0_Layer0_0_MEMBER_37_FILL"/>
</g>

<g transform="matrix( 2.6895904541015625, 0, 0, 2.672393798828125, -0.85,19.55) ">
<use xlink:href="#IT_728x90_FR_psd_Asset_V8_2_Les_solutions_de_r_seau_en_tant__que_service_peuvent_aider___0_Layer0_0_MEMBER_38_FILL"/>
</g>

<g transform="matrix( 2.6895904541015625, 0, 0, 2.672393798828125, -0.85,19.55) ">
<use xlink:href="#IT_728x90_FR_psd_Asset_V8_2_Les_solutions_de_r_seau_en_tant__que_service_peuvent_aider___0_Layer0_0_MEMBER_39_FILL"/>
</g>

<g transform="matrix( 2.6895904541015625, 0, 0, 2.672393798828125, -0.85,19.55) ">
<use xlink:href="#IT_728x90_FR_psd_Asset_V8_2_Les_solutions_de_r_seau_en_tant__que_service_peuvent_aider___0_Layer0_0_MEMBER_40_FILL"/>
</g>

<g transform="matrix( 2.6895904541015625, 0, 0, 2.672393798828125, -0.85,19.55) ">
<use xlink:href="#IT_728x90_FR_psd_Asset_V8_2_Les_solutions_de_r_seau_en_tant__que_service_peuvent_aider___0_Layer0_0_MEMBER_41_FILL"/>
</g>

<g transform="matrix( 2.6895904541015625, 0, 0, 2.672393798828125, -0.85,19.55) ">
<use xlink:href="#IT_728x90_FR_psd_Asset_V8_2_Les_solutions_de_r_seau_en_tant__que_service_peuvent_aider___0_Layer0_0_MEMBER_42_FILL"/>
</g>

<g transform="matrix( 2.6895904541015625, 0, 0, 2.672393798828125, -0.85,19.55) ">
<use xlink:href="#IT_728x90_FR_psd_Asset_V8_2_Les_solutions_de_r_seau_en_tant__que_service_peuvent_aider___0_Layer0_0_MEMBER_43_FILL"/>
</g>

<g transform="matrix( 2.6895904541015625, 0, 0, 2.672393798828125, -0.85,19.55) ">
<use xlink:href="#IT_728x90_FR_psd_Asset_V8_2_Les_solutions_de_r_seau_en_tant__que_service_peuvent_aider___0_Layer0_0_MEMBER_44_FILL"/>
</g>

<g transform="matrix( 2.6895904541015625, 0, 0, 2.672393798828125, -0.85,19.55) ">
<use xlink:href="#IT_728x90_FR_psd_Asset_V8_2_Les_solutions_de_r_seau_en_tant__que_service_peuvent_aider___0_Layer0_0_MEMBER_45_FILL"/>
</g>

<g transform="matrix( 2.6895904541015625, 0, 0, 2.672393798828125, -0.85,19.55) ">
<use xlink:href="#IT_728x90_FR_psd_Asset_V8_2_Les_solutions_de_r_seau_en_tant__que_service_peuvent_aider___0_Layer0_0_MEMBER_46_FILL"/>
</g>

<g transform="matrix( 2.6895904541015625, 0, 0, 2.672393798828125, -0.85,19.55) ">
<use xlink:href="#IT_728x90_FR_psd_Asset_V8_2_Les_solutions_de_r_seau_en_tant__que_service_peuvent_aider___0_Layer0_0_MEMBER_47_FILL"/>
</g>

<g transform="matrix( 2.6895904541015625, 0, 0, 2.672393798828125, -0.85,19.55) ">
<use xlink:href="#IT_728x90_FR_psd_Asset_V8_2_Les_solutions_de_r_seau_en_tant__que_service_peuvent_aider___0_Layer0_0_MEMBER_48_FILL"/>
</g>
</g>
</g>
</g>
</svg>
