
<svg xmlns="http://www.w3.org/2000/svg" version="1.1" xmlns:xlink="http://www.w3.org/1999/xlink" preserveAspectRatio="none" x="0px" y="0px" width="160px" height="600px" viewBox="0 0 160 600">
<defs>
<g id="IT_160x600_FR_psd_Asset_9_B___V7_2_Rogers_a__une_nouvelle__solution_pour__vous_aider__0_Layer0_0_MEMBER_0_FILL">
<path fill="#D82C26" stroke="none" d="
M 4.3 -4.25
Q 4.3 -5 3.75 -5.4 3.25 -5.75 2.35 -5.75
L 0.8 -5.75 0.8 0 1.3 0 1.3 -2.55 2.45 -2.55 4 0 4.55 0 2.95 -2.6
Q 3.5 -2.75 3.9 -3.15 4.3 -3.65 4.3 -4.25
M 3.8 -4.25
Q 3.8 -3.6 3.4 -3.3 3.05 -2.95 2.35 -2.95
L 1.25 -2.95 1.25 -5.35 2.3 -5.35
Q 2.9 -5.35 3.4 -5.1 3.8 -4.8 3.8 -4.25 Z"/>
</g>

<g id="IT_160x600_FR_psd_Asset_9_B___V7_2_Rogers_a__une_nouvelle__solution_pour__vous_aider__0_Layer0_0_MEMBER_1_FILL">
<path fill="#D82C26" stroke="none" d="
M 6.95 -3.9
Q 6.3 -3.9 5.9 -3.65 5.45 -3.4 5.2 -2.95 4.95 -2.55 4.95 -1.9 4.95 -1.3 5.2 -0.85 5.45 -0.4 5.9 -0.15 6.3 0.1 6.95 0.1 7.65 0.1 8 -0.15 8.45 -0.4 8.7 -0.85 9 -1.35 9 -1.9 9 -2.5 8.7 -2.95 8.45 -3.4 8 -3.65 7.65 -3.9 6.95 -3.9
M 6.15 -3.3
Q 6.4 -3.5 6.95 -3.5 7.5 -3.5 7.75 -3.3 8.15 -3.05 8.3 -2.7 8.5 -2.45 8.5 -1.9 8.5 -1.45 8.3 -1.1 8.15 -0.8 7.8 -0.5 7.45 -0.3 6.95 -0.3 6.4 -0.3 6.15 -0.5 5.75 -0.75 5.6 -1.1 5.4 -1.45 5.4 -1.9 5.4 -2.45 5.6 -2.7 5.75 -3.05 6.15 -3.3 Z"/>
</g>

<g id="IT_160x600_FR_psd_Asset_9_B___V7_2_Rogers_a__une_nouvelle__solution_pour__vous_aider__0_Layer0_0_MEMBER_2_FILL">
<path fill="#D82C26" stroke="none" d="
M 9.6 -1.9
Q 9.6 -1.4 9.85 -0.9 10.1 -0.4 10.5 -0.2 10.9 0.05 11.5 0.05 12.05 0.05 12.4 -0.15 12.85 -0.45 13.05 -0.85
L 13.05 -0.05
Q 13.05 0.75 12.7 1.15 12.35 1.6 11.5 1.6 11.1 1.6 10.65 1.45
L 9.95 1.1 9.85 1.55
Q 10.15 1.8 10.6 1.85 11.05 2 11.5 2 12.5 2 13.05 1.45 13.55 0.8 13.55 -0.05
L 13.55 -3.8 13.1 -3.8 13.05 -2.95
Q 12.8 -3.45 12.4 -3.65 12.1 -3.9 11.5 -3.9 11 -3.9 10.5 -3.65 10.1 -3.35 9.85 -2.9 9.6 -2.4 9.6 -1.9
M 11.55 -3.5
Q 12 -3.5 12.35 -3.3 12.65 -3.1 12.9 -2.7 13.1 -2.2 13.1 -1.9 13.1 -1.6 12.9 -1.1 12.7 -0.75 12.35 -0.55 11.95 -0.3 11.55 -0.3 11.15 -0.3 10.8 -0.55 10.55 -0.7 10.25 -1.1 10.1 -1.45 10.1 -1.9 10.1 -2.3 10.25 -2.7 10.5 -3.1 10.8 -3.3 11.05 -3.5 11.55 -3.5 Z"/>
</g>

<g id="IT_160x600_FR_psd_Asset_9_B___V7_2_Rogers_a__une_nouvelle__solution_pour__vous_aider__0_Layer0_0_MEMBER_3_FILL">
<path fill="#D82C26" stroke="none" d="
M 14.4 -1.9
Q 14.4 -1.45 14.65 -0.85 14.9 -0.4 15.35 -0.15 15.75 0.1 16.35 0.1 17.25 0.1 17.85 -0.35
L 17.8 -0.75 17.15 -0.4
Q 16.9 -0.3 16.4 -0.3 15.95 -0.3 15.6 -0.5 15.25 -0.7 15.05 -1.05 14.85 -1.55 14.85 -1.85
L 18.1 -1.85 18.1 -2.05
Q 18.1 -2.4 17.9 -3 17.6 -3.45 17.25 -3.65 16.95 -3.9 16.3 -3.9 15.7 -3.9 15.3 -3.65 14.85 -3.4 14.65 -2.95 14.4 -2.55 14.4 -1.9
M 14.85 -2.2
Q 14.85 -2.4 15.05 -2.8 15.25 -3.15 15.55 -3.35 15.8 -3.55 16.3 -3.55 16.85 -3.55 17.25 -3.15 17.55 -2.9 17.65 -2.2
L 14.85 -2.2 Z"/>
</g>

<g id="IT_160x600_FR_psd_Asset_9_B___V7_2_Rogers_a__une_nouvelle__solution_pour__vous_aider__0_Layer0_0_MEMBER_4_FILL">
<path fill="#D82C26" stroke="none" d="
M 19.4 -1.9
Q 19.4 -2.55 19.7 -3 20 -3.5 20.5 -3.5
L 20.85 -3.45 20.9 -3.85 20.5 -3.9
Q 20.1 -3.9 19.85 -3.65 19.6 -3.45 19.4 -3
L 19.35 -3.8 18.9 -3.8 18.95 0 19.4 0 19.4 -1.9 Z"/>
</g>

<g id="IT_160x600_FR_psd_Asset_9_B___V7_2_Rogers_a__une_nouvelle__solution_pour__vous_aider__0_Layer0_0_MEMBER_5_FILL">
<path fill="#D82C26" stroke="none" d="
M 23.75 -3.5
L 23.2 -3.8
Q 23 -3.9 22.5 -3.9 22.1 -3.9 21.9 -3.8 21.65 -3.75 21.45 -3.45 21.25 -3.25 21.25 -2.85 21.25 -2.4 21.55 -2.2 21.8 -1.95 22.35 -1.8
L 23.15 -1.45
Q 23.4 -1.3 23.4 -1 23.4 -0.7 23.15 -0.45 22.75 -0.25 22.55 -0.25 21.75 -0.25 21.25 -0.75
L 21.2 -0.3 21.75 0 22.55 0.1 23.2 0
Q 23.5 -0.15 23.65 -0.4 23.85 -0.6 23.85 -1 23.85 -1.4 23.55 -1.65 23.25 -1.95 22.65 -2.1
L 21.9 -2.45
Q 21.7 -2.65 21.7 -2.9 21.7 -3.15 21.95 -3.4 22.2 -3.55 22.55 -3.55
L 23.05 -3.45 23.5 -3.15 23.75 -3.5 Z"/>
</g>

<g id="IT_160x600_FR_psd_Asset_9_B___V7_2_Rogers_a__une_nouvelle__solution_pour__vous_aider__0_Layer0_0_MEMBER_6_FILL">
<path fill="#D82C26" stroke="none" d="
M 26.75 -3.4
L 27.4 -3.55
Q 27.85 -3.55 28.2 -3.3 28.5 -3 28.5 -2.5
L 28.5 -2.3 28.05 -2.3
Q 25.85 -2.3 25.85 -1 25.85 -0.4 26.2 -0.2 26.6 0.1 27.05 0.1 27.55 0.1 27.9 -0.1 28.25 -0.3 28.5 -0.75
L 28.55 -0.35 28.55 0 29 0 28.95 -2.45
Q 28.95 -3.15 28.55 -3.55 28.2 -3.9 27.5 -3.9 26.95 -3.9 26.7 -3.8
L 26.05 -3.45 26.2 -3.05 26.75 -3.4
M 26.55 -0.45
Q 26.3 -0.6 26.3 -1.05 26.3 -1.95 28.1 -1.95
L 28.5 -1.95 28.5 -1.6
Q 28.5 -1.25 28.35 -0.95 28.2 -0.7 27.9 -0.45 27.65 -0.25 27.15 -0.25 26.75 -0.25 26.55 -0.45 Z"/>
</g>

<g id="IT_160x600_FR_psd_Asset_9_B___V7_2_Rogers_a__une_nouvelle__solution_pour__vous_aider__0_Layer0_0_MEMBER_7_FILL">
<path fill="#D82C26" stroke="none" d="
M 1.2 6.1
L 0.7 6.1 0.7 8.4
Q 0.7 9.15 1.05 9.55 1.35 10 2.1 10 2.45 10 2.95 9.75 3.3 9.5 3.5 9.05
L 3.55 9.9 4 9.9 3.95 9.45 3.95 6.1 3.5 6.1 3.5 8
Q 3.5 8.35 3.3 8.85 3.15 9.25 2.85 9.4 2.6 9.6 2.2 9.6 1.65 9.6 1.4 9.2 1.2 8.85 1.2 8.3
L 1.2 6.1 Z"/>
</g>

<g id="IT_160x600_FR_psd_Asset_9_B___V7_2_Rogers_a__une_nouvelle__solution_pour__vous_aider__0_Layer0_0_MEMBER_8_FILL">
<path fill="#D82C26" stroke="none" d="
M 8.35 7.55
Q 8.35 6.85 8 6.45 7.7 5.95 6.95 5.95 6.5 5.95 6.1 6.25 5.8 6.45 5.55 6.9
L 5.5 6.1 5.05 6.1 5.1 9.9 5.6 9.9 5.6 7.95
Q 5.6 7.5 5.75 7.1 5.85 6.8 6.2 6.55 6.6 6.35 6.85 6.35 7.4 6.35 7.65 6.75 7.85 7.1 7.85 7.7
L 7.85 9.9 8.35 9.9 8.35 7.55 Z"/>
</g>

<g id="IT_160x600_FR_psd_Asset_9_B___V7_2_Rogers_a__une_nouvelle__solution_pour__vous_aider__0_Layer0_0_MEMBER_9_FILL">
<path fill="#D82C26" stroke="none" d="
M 12.9 7.85
Q 12.9 7.5 12.7 6.9 12.5 6.5 12.05 6.2 11.65 5.95 11.1 5.95 10.6 5.95 10.1 6.2 9.65 6.55 9.45 6.95 9.2 7.45 9.2 7.95 9.2 8.5 9.45 9 9.65 9.45 10.15 9.75 10.65 10 11.15 10 12.1 10 12.65 9.5
L 12.6 9.1 11.95 9.45 11.2 9.6
Q 10.75 9.6 10.4 9.4 10.15 9.25 9.85 8.85 9.65 8.35 9.65 8.05
L 12.9 8.05 12.9 7.85
M 12.05 6.7
Q 12.35 7 12.45 7.7
L 9.65 7.7
Q 9.65 7.5 9.85 7.1 10 6.75 10.35 6.55 10.6 6.35 11.1 6.35 11.7 6.35 12.05 6.7 Z"/>
</g>

<g id="IT_160x600_FR_psd_Asset_9_B___V7_2_Rogers_a__une_nouvelle__solution_pour__vous_aider__0_Layer0_0_MEMBER_10_FILL">
<path fill="#D82C26" stroke="none" d="
M 15.65 6.1
L 15.2 6.1 15.25 9.9 15.7 9.9 15.7 7.95
Q 15.7 7.6 15.9 7.1 16 6.8 16.35 6.55 16.75 6.35 17 6.35 17.55 6.35 17.8 6.75 18 7.1 18 7.7
L 18 9.9 18.5 9.9 18.5 7.55
Q 18.5 6.85 18.15 6.45 17.8 5.95 17.1 5.95 16.65 5.95 16.25 6.25 15.85 6.5 15.7 6.9
L 15.65 6.1 Z"/>
</g>

<g id="IT_160x600_FR_psd_Asset_9_B___V7_2_Rogers_a__une_nouvelle__solution_pour__vous_aider__0_Layer0_0_MEMBER_11_FILL">
<path fill="#D82C26" stroke="none" d="
M 23.4 8
Q 23.4 7.4 23.1 6.95 22.9 6.55 22.4 6.2 21.9 5.95 21.35 5.95 20.8 5.95 20.3 6.2 19.8 6.55 19.6 6.95 19.3 7.4 19.3 8 19.3 8.55 19.6 9 19.8 9.45 20.3 9.75 20.8 10 21.35 10 21.9 10 22.4 9.75 22.9 9.45 23.1 9 23.4 8.55 23.4 8
M 22.15 6.6
Q 22.6 6.85 22.7 7.15 22.9 7.5 22.9 8 22.9 8.45 22.7 8.8 22.55 9.2 22.15 9.35 21.8 9.6 21.35 9.6 20.9 9.6 20.55 9.35 20.15 9.2 20 8.8 19.8 8.45 19.8 8 19.8 7.5 20 7.15 20.1 6.85 20.55 6.6 20.9 6.35 21.35 6.35 21.8 6.35 22.15 6.6 Z"/>
</g>

<g id="IT_160x600_FR_psd_Asset_9_B___V7_2_Rogers_a__une_nouvelle__solution_pour__vous_aider__0_Layer0_0_MEMBER_12_FILL">
<path fill="#D82C26" stroke="none" d="
M 27.45 6.1
L 26.95 6.1 26.95 8
Q 26.95 8.5 26.8 8.85 26.65 9.25 26.35 9.4 26.1 9.6 25.7 9.6 25.15 9.6 24.9 9.2 24.65 8.8 24.65 8.3
L 24.65 6.1 24.2 6.1 24.2 8.4
Q 24.2 9.15 24.55 9.55 24.85 10 25.6 10 26 10 26.4 9.75 26.8 9.5 26.95 9.05
L 27.05 9.9 27.5 9.9 27.45 9.45 27.45 6.1 Z"/>
</g>

<g id="IT_160x600_FR_psd_Asset_9_B___V7_2_Rogers_a__une_nouvelle__solution_pour__vous_aider__0_Layer0_0_MEMBER_13_FILL">
<path fill="#D82C26" stroke="none" d="
M 28.05 6.1
L 29.5 9.9 30.05 9.9 31.45 6.1 30.95 6.1 29.75 9.4 28.55 6.1 28.05 6.1 Z"/>
</g>

<g id="IT_160x600_FR_psd_Asset_9_B___V7_2_Rogers_a__une_nouvelle__solution_pour__vous_aider__0_Layer0_0_MEMBER_14_FILL">
<path fill="#D82C26" stroke="none" d="
M 35.15 6.9
Q 34.95 6.5 34.5 6.2 34.1 5.95 33.55 5.95 33.05 5.95 32.55 6.2 32.1 6.55 31.9 6.95 31.65 7.45 31.65 7.95 31.65 8.5 31.9 9 32.1 9.45 32.6 9.75 33.1 10 33.6 10 34.55 10 35.1 9.5
L 35.05 9.1 34.4 9.45 33.65 9.6
Q 33.2 9.6 32.85 9.4 32.6 9.25 32.3 8.85 32.1 8.35 32.1 8.05
L 35.35 8.05 35.35 7.85
Q 35.35 7.5 35.15 6.9
M 34.5 6.7
Q 34.8 7 34.9 7.7
L 32.1 7.7 32.3 7.1
Q 32.45 6.75 32.8 6.55 33.05 6.35 33.55 6.35 34.15 6.35 34.5 6.7 Z"/>
</g>

<g id="IT_160x600_FR_psd_Asset_9_B___V7_2_Rogers_a__une_nouvelle__solution_pour__vous_aider__0_Layer0_0_MEMBER_15_FILL">
<path fill="#D82C26" stroke="none" d="
M 36.35 9.65
Q 36.6 9.9 36.8 9.95
L 37.05 9.6 36.75 9.35 36.65 8.95 36.65 3.7 36.2 3.8 36.2 9.05
Q 36.2 9.45 36.35 9.65 Z"/>
</g>

<g id="IT_160x600_FR_psd_Asset_9_B___V7_2_Rogers_a__une_nouvelle__solution_pour__vous_aider__0_Layer0_0_MEMBER_16_FILL">
<path fill="#D82C26" stroke="none" d="
M 38 9.65
Q 38.15 9.9 38.45 9.95
L 38.65 9.6
Q 38.4 9.45 38.35 9.35
L 38.3 8.95 38.3 3.7 37.8 3.8 37.8 9.05
Q 37.8 9.45 38 9.65 Z"/>
</g>

<g id="IT_160x600_FR_psd_Asset_9_B___V7_2_Rogers_a__une_nouvelle__solution_pour__vous_aider__0_Layer0_0_MEMBER_17_FILL">
<path fill="#D82C26" stroke="none" d="
M 42.65 6.9
Q 42.45 6.55 42.05 6.2 41.55 5.95 41.05 5.95 40.6 5.95 40.1 6.2 39.75 6.45 39.4 6.95 39.15 7.45 39.15 7.95 39.15 8.5 39.4 9 39.75 9.5 40.1 9.75 40.6 10 41.1 10 42 10 42.65 9.5
L 42.55 9.1
Q 42.35 9.3 41.95 9.45 41.6 9.6 41.15 9.6 40.7 9.6 40.35 9.4 40 9.15 39.85 8.85 39.65 8.5 39.65 8.05
L 42.85 8.05 42.85 7.85
Q 42.85 7.3 42.65 6.9
M 41.05 6.35
Q 41.7 6.35 42.05 6.7 42.4 7.15 42.4 7.7
L 39.65 7.7
Q 39.65 7.4 39.8 7.1 40 6.8 40.3 6.55 40.55 6.35 41.05 6.35 Z"/>
</g>

<g id="IT_160x600_FR_psd_Asset_9_B___V7_2_Rogers_a__une_nouvelle__solution_pour__vous_aider__0_Layer0_0_MEMBER_18_FILL">
<path fill="#D82C26" stroke="none" d="
M 1.8 16.25
Q 2.15 16.25 2.35 16.35
L 2.8 16.6 3 16.25 2.45 15.95 1.8 15.85 1.15 15.95
Q 0.75 16.2 0.7 16.3 0.5 16.7 0.5 16.9 0.5 17.35 0.8 17.55 1.05 17.8 1.6 17.95
L 2.4 18.3
Q 2.65 18.55 2.65 18.8 2.65 19.15 2.4 19.3 2.2 19.5 1.8 19.5 1.1 19.5 0.55 19.05
L 0.45 19.45
Q 0.7 19.7 1.05 19.75
L 1.8 19.9
Q 2.15 19.9 2.45 19.75 2.8 19.6 2.9 19.35 3.1 19.15 3.1 18.75 3.1 18.35 2.8 18.1 2.6 17.9 1.95 17.65 1.4 17.5 1.2 17.3 0.95 17.15 0.95 16.85 0.95 16.55 1.2 16.4 1.45 16.25 1.8 16.25 Z"/>
</g>

<g id="IT_160x600_FR_psd_Asset_9_B___V7_2_Rogers_a__une_nouvelle__solution_pour__vous_aider__0_Layer0_0_MEMBER_19_FILL">
<path fill="#D82C26" stroke="none" d="
M 7.7 17.85
Q 7.7 17.3 7.45 16.8 7.1 16.25 6.7 16.1 6.2 15.85 5.7 15.85 5.15 15.85 4.65 16.1 4.25 16.3 3.9 16.8 3.65 17.3 3.65 17.85 3.65 18.4 3.9 18.9 4.25 19.4 4.65 19.6 5.1 19.9 5.7 19.9 6.25 19.9 6.7 19.6 7.1 19.45 7.45 18.9 7.7 18.4 7.7 17.85
M 7.05 17.05
Q 7.25 17.55 7.25 17.85 7.25 18.15 7.05 18.65 6.8 19.05 6.5 19.25 6.1 19.5 5.7 19.5 5.25 19.5 4.85 19.25 4.5 19 4.3 18.65 4.15 18.3 4.15 17.85 4.15 17.45 4.3 17.05 4.5 16.7 4.85 16.45 5.35 16.25 5.7 16.25 6 16.25 6.5 16.45 6.8 16.65 7.05 17.05 Z"/>
</g>

<g id="IT_160x600_FR_psd_Asset_9_B___V7_2_Rogers_a__une_nouvelle__solution_pour__vous_aider__0_Layer0_0_MEMBER_20_FILL">
<path fill="#D82C26" stroke="none" d="
M 8.75 19.55
Q 8.9 19.8 9.2 19.85
L 9.4 19.45
Q 9.35 19.45 9.15 19.25 9.05 19.15 9.05 18.8
L 9.05 13.6 8.55 13.65 8.55 18.95
Q 8.55 19.25 8.75 19.55 Z"/>
</g>

<g id="IT_160x600_FR_psd_Asset_9_B___V7_2_Rogers_a__une_nouvelle__solution_pour__vous_aider__0_Layer0_0_MEMBER_21_FILL">
<path fill="#D82C26" stroke="none" d="
M 10.15 15.95
L 10.15 18.3
Q 10.15 19 10.5 19.4 10.85 19.9 11.55 19.9 12 19.9 12.35 19.6 12.75 19.4 12.9 18.95
L 13 19.8 13.45 19.75 13.4 19.35 13.4 15.95 12.9 15.95 12.9 17.85
Q 12.9 18.4 12.75 18.75 12.65 19.05 12.3 19.3 11.9 19.5 11.65 19.5 11.1 19.5 10.85 19.1 10.6 18.7 10.6 18.15
L 10.6 15.95 10.15 15.95 Z"/>
</g>

<g id="IT_160x600_FR_psd_Asset_9_B___V7_2_Rogers_a__une_nouvelle__solution_pour__vous_aider__0_Layer0_0_MEMBER_22_FILL">
<path fill="#D82C26" stroke="none" d="
M 15.2 15.95
L 15.2 14.85 14.7 15.05 14.7 15.95 14.1 15.95 14 16.35 14.7 16.35 14.7 18.85
Q 14.7 19.25 14.95 19.6 15.2 19.85 15.6 19.85
L 16 19.8 16.4 19.65 16.35 19.3 15.75 19.45
Q 15.5 19.45 15.35 19.3 15.2 19.15 15.2 18.8
L 15.2 16.35 16.15 16.35 16.25 15.95 15.2 15.95 Z"/>
</g>

<g id="IT_160x600_FR_psd_Asset_9_B___V7_2_Rogers_a__une_nouvelle__solution_pour__vous_aider__0_Layer0_0_MEMBER_23_FILL">
<path fill="#D82C26" stroke="none" d="
M 17.45 15.95
L 17 15.95 17 19.75 17.45 19.75 17.45 15.95
M 17 14.7
L 17.25 14.8 17.45 14.7
Q 17.55 14.6 17.55 14.45 17.55 14.25 17.45 14.2
L 17.25 14.1 17 14.2
Q 16.9 14.25 16.9 14.45 16.9 14.6 17 14.7 Z"/>
</g>

<g id="IT_160x600_FR_psd_Asset_9_B___V7_2_Rogers_a__une_nouvelle__solution_pour__vous_aider__0_Layer0_0_MEMBER_24_FILL">
<path fill="#D82C26" stroke="none" d="
M 22.35 17.85
Q 22.35 17.2 22.1 16.8 21.85 16.35 21.4 16.1 20.8 15.85 20.35 15.85 19.8 15.85 19.3 16.1 18.85 16.35 18.6 16.8 18.3 17.25 18.3 17.85 18.3 18.45 18.6 18.9 18.85 19.35 19.3 19.6 19.75 19.9 20.35 19.9 20.9 19.9 21.4 19.6 21.85 19.35 22.1 18.9 22.35 18.55 22.35 17.85
M 21.7 17.05
Q 21.9 17.4 21.9 17.85 21.9 18.3 21.7 18.65 21.55 19 21.15 19.25 20.8 19.5 20.35 19.5 19.9 19.5 19.5 19.25 19.15 18.95 19 18.65 18.8 18.3 18.8 17.85 18.8 17.4 19 17.05 19.15 16.75 19.5 16.45 20 16.25 20.35 16.25 20.65 16.25 21.15 16.45 21.45 16.65 21.7 17.05 Z"/>
</g>

<g id="IT_160x600_FR_psd_Asset_9_B___V7_2_Rogers_a__une_nouvelle__solution_pour__vous_aider__0_Layer0_0_MEMBER_25_FILL">
<path fill="#D82C26" stroke="none" d="
M 26.5 17.45
Q 26.5 16.85 26.15 16.3 25.8 15.85 25.1 15.85 24.65 15.85 24.25 16.1 23.8 16.45 23.7 16.8
L 23.65 15.95 23.2 15.95 23.25 19.75 23.7 19.75 23.7 17.85
Q 23.7 17.25 23.9 17 24.05 16.6 24.35 16.45 24.6 16.25 25 16.25 25.5 16.25 25.75 16.65 26 16.95 26 17.55
L 26 19.75 26.5 19.75 26.5 17.45 Z"/>
</g>

<g id="IT_160x600_FR_psd_Asset_9_B___V7_2_Rogers_a__une_nouvelle__solution_pour__vous_aider__0_Layer0_0_MEMBER_26_FILL">
<path fill="#D82C26" stroke="none" d="
M 30.2 16.1
Q 29.75 16.35 29.55 16.8
L 29.5 15.95 29.05 15.95 29.1 16.65 29.1 21.7 29.55 21.7 29.55 18.95 29.6 18.95
Q 29.7 19.25 30.2 19.65 30.7 19.9 31.1 19.9 31.65 19.9 32.1 19.6 32.55 19.35 32.8 18.9 33.05 18.4 33.05 17.85 33.05 17.35 32.8 16.85 32.6 16.45 32.1 16.1 31.6 15.85 31.1 15.85 30.7 15.85 30.2 16.1
M 29.75 17.05
Q 29.9 16.7 30.3 16.45 30.7 16.25 31.05 16.25 31.35 16.25 31.85 16.45 32.2 16.75 32.35 17.05 32.55 17.4 32.55 17.85 32.55 18.35 32.35 18.7 32.2 19 31.85 19.25 31.45 19.5 31.05 19.5 30.65 19.5 30.3 19.25 29.9 19 29.75 18.65 29.55 18.4 29.55 17.85 29.55 17.4 29.75 17.05 Z"/>
</g>

<g id="IT_160x600_FR_psd_Asset_9_B___V7_2_Rogers_a__une_nouvelle__solution_pour__vous_aider__0_Layer0_0_MEMBER_27_FILL">
<path fill="#D82C26" stroke="none" d="
M 37.7 17.85
Q 37.7 17.3 37.45 16.8 37.15 16.3 36.7 16.1 36.2 15.85 35.65 15.85 35.15 15.85 34.65 16.1 34.25 16.25 33.9 16.8 33.65 17.3 33.65 17.85 33.65 18.4 33.9 18.9 34.25 19.45 34.65 19.6 35.1 19.9 35.65 19.9 36.25 19.9 36.7 19.6 37.15 19.4 37.45 18.9 37.7 18.4 37.7 17.85
M 37 17.05
Q 37.2 17.4 37.2 17.85 37.2 18.3 37.05 18.65 36.85 19 36.5 19.25 36.1 19.5 35.65 19.5 35.25 19.5 34.85 19.25 34.55 19.05 34.3 18.65 34.1 18.15 34.1 17.85 34.1 17.55 34.3 17.05 34.55 16.65 34.85 16.45 35.35 16.25 35.65 16.25 36 16.25 36.5 16.45 36.85 16.75 37 17.05 Z"/>
</g>

<g id="IT_160x600_FR_psd_Asset_9_B___V7_2_Rogers_a__une_nouvelle__solution_pour__vous_aider__0_Layer0_0_MEMBER_28_FILL">
<path fill="#D82C26" stroke="none" d="
M 41.75 15.95
L 41.3 15.95 41.3 17.85
Q 41.3 18.4 41.1 18.75 41 19.05 40.65 19.3 40.25 19.5 40 19.5 39.45 19.5 39.2 19.1 39 18.75 39 18.15
L 39 15.95 38.5 15.95 38.5 18.3
Q 38.5 19 38.85 19.4 39.2 19.9 39.9 19.9 40.4 19.9 40.75 19.6 41.15 19.35 41.3 18.95
L 41.35 19.8 41.85 19.75 41.75 18.9 41.75 15.95 Z"/>
</g>

<g id="IT_160x600_FR_psd_Asset_9_B___V7_2_Rogers_a__une_nouvelle__solution_pour__vous_aider__0_Layer0_0_MEMBER_29_FILL">
<path fill="#D82C26" stroke="none" d="
M 44.45 16.3
L 44.8 16.35 44.9 15.9 44.5 15.85
Q 44.2 15.85 43.85 16.1 43.45 16.4 43.4 16.8
L 43.35 16.8 43.3 15.95 42.85 15.95 42.9 19.75 43.4 19.75 43.4 17.9
Q 43.4 17.25 43.65 16.75 43.95 16.3 44.45 16.3 Z"/>
</g>

<g id="IT_160x600_FR_psd_Asset_9_B___V7_2_Rogers_a__une_nouvelle__solution_pour__vous_aider__0_Layer0_0_MEMBER_30_FILL">
<path fill="#D82C26" stroke="none" d="
M 0.05 25.85
L 1.55 29.65 2.05 29.65 3.5 25.85 3 25.85 1.8 29.2 0.6 25.85 0.05 25.85 Z"/>
</g>

<g id="IT_160x600_FR_psd_Asset_9_B___V7_2_Rogers_a__une_nouvelle__solution_pour__vous_aider__0_Layer0_0_MEMBER_31_FILL">
<path fill="#D82C26" stroke="none" d="
M 6.75 26
Q 6.4 25.75 5.7 25.75 5.05 25.75 4.65 26 4.2 26.25 3.95 26.7 3.7 27.1 3.7 27.75 3.7 28.45 3.95 28.8 4.2 29.25 4.65 29.5 5.05 29.75 5.7 29.75 6.4 29.75 6.75 29.5 7.2 29.25 7.45 28.8 7.75 28.35 7.75 27.75 7.75 27.15 7.45 26.7 7.2 26.25 6.75 26
M 5.7 26.15
Q 6.25 26.15 6.5 26.35 6.9 26.6 7.05 26.95 7.25 27.3 7.25 27.75 7.25 28.2 7.05 28.55 6.9 28.9 6.5 29.15 6.25 29.35 5.7 29.35 5.15 29.35 4.9 29.15 4.5 28.9 4.35 28.55 4.15 28.2 4.15 27.75 4.15 27.3 4.35 26.95 4.5 26.6 4.9 26.35 5.15 26.15 5.7 26.15 Z"/>
</g>

<g id="IT_160x600_FR_psd_Asset_9_B___V7_2_Rogers_a__une_nouvelle__solution_pour__vous_aider__0_Layer0_0_MEMBER_32_FILL">
<path fill="#D82C26" stroke="none" d="
M 11.35 25.85
L 11.35 27.75
Q 11.35 28.1 11.15 28.6 11 29 10.7 29.2 10.4 29.35 10.05 29.35 9.45 29.35 9.25 29 9.05 28.65 9.05 28.05
L 9.05 25.85 8.55 25.85 8.55 28.15
Q 8.55 28.9 8.9 29.3 9.2 29.75 9.95 29.75 10.45 29.75 10.8 29.5 11.05 29.35 11.35 28.85
L 11.4 29.65 11.85 29.65 11.8 29.2 11.8 25.85 11.35 25.85 Z"/>
</g>

<g id="IT_160x600_FR_psd_Asset_9_B___V7_2_Rogers_a__une_nouvelle__solution_pour__vous_aider__0_Layer0_0_MEMBER_33_FILL">
<path fill="#D82C26" stroke="none" d="
M 14 26.1
L 14.5 26.2 14.95 26.5 15.2 26.15 14.65 25.85
Q 14.45 25.75 13.95 25.75 13.55 25.75 13.35 25.85 13.05 26 12.9 26.2 12.7 26.4 12.7 26.8 12.7 27.25 13 27.45 13.25 27.7 13.8 27.85
L 14.6 28.2
Q 14.85 28.45 14.85 28.65 14.85 28.95 14.6 29.2 14.2 29.4 14 29.4 13.2 29.4 12.7 28.9
L 12.65 29.35 13.2 29.65 14 29.75 14.65 29.65
Q 14.95 29.5 15.1 29.25 15.3 29.05 15.3 28.65 15.3 28.25 15 28 14.7 27.7 14.1 27.55
L 13.35 27.2
Q 13.15 27 13.15 26.75 13.15 26.45 13.4 26.3 13.6 26.1 14 26.1 Z"/>
</g>

<g id="IT_160x600_FR_psd_Asset_9_B___V7_2_Rogers_a__une_nouvelle__solution_pour__vous_aider__0_Layer0_0_MEMBER_34_FILL">
<path fill="#D82C26" stroke="none" d="
M 19.95 27.35
L 19.5 27.35
Q 17.3 27.35 17.3 28.65 17.3 29.2 17.65 29.5 18.05 29.75 18.5 29.75 19 29.75 19.35 29.55 19.7 29.35 19.95 28.9
L 19.95 29.3 20 29.65 20.45 29.65 20.4 27.2
Q 20.4 26.5 20 26.1 19.65 25.75 18.95 25.75 18.4 25.75 18.15 25.85
L 17.5 26.2 17.65 26.6 18.2 26.25 18.85 26.1
Q 19.35 26.1 19.65 26.4 19.95 26.65 19.95 27.15
L 19.95 27.35
M 19.55 27.7
L 19.95 27.7 19.95 28.05
Q 19.95 28.4 19.8 28.7 19.65 28.95 19.35 29.2 19.1 29.4 18.6 29.4 18.2 29.4 18 29.2 17.75 29.05 17.75 28.6 17.75 27.7 19.55 27.7 Z"/>
</g>

<g id="IT_160x600_FR_psd_Asset_9_B___V7_2_Rogers_a__une_nouvelle__solution_pour__vous_aider__0_Layer0_0_MEMBER_35_FILL">
<path fill="#D82C26" stroke="none" d="
M 21.45 25.85
L 21.45 29.65 21.95 29.65 21.95 25.85 21.45 25.85
M 21.7 24.7
L 21.95 24.6 22.05 24.35 21.95 24.1
Q 21.9 24 21.7 24 21.55 24 21.45 24.1
L 21.35 24.35 21.45 24.6 21.7 24.7 Z"/>
</g>

<g id="IT_160x600_FR_psd_Asset_9_B___V7_2_Rogers_a__une_nouvelle__solution_pour__vous_aider__0_Layer0_0_MEMBER_36_FILL">
<path fill="#D82C26" stroke="none" d="
M 26.75 23.4
L 26.3 23.5 26.3 26.65 26.25 26.65
Q 25.95 26.2 25.6 26 25.3 25.75 24.7 25.75 24.15 25.75 23.75 26 23.2 26.35 23.05 26.75 22.8 27.25 22.8 27.75 22.8 28.25 23.05 28.75 23.2 29.15 23.75 29.5 24.15 29.75 24.7 29.75 25.3 29.75 25.65 29.5 25.9 29.35 26.3 28.85
L 26.35 29.65 26.8 29.65 26.75 23.4
M 25.55 26.35
Q 25.85 26.55 26.1 26.95 26.3 27.3 26.3 27.75 26.3 28.2 26.1 28.55 25.85 28.95 25.55 29.15 25.3 29.35 24.8 29.35 24.25 29.35 24 29.15 23.65 28.95 23.5 28.55 23.3 28.2 23.3 27.75 23.3 27.3 23.5 26.95 23.65 26.55 24 26.35 24.25 26.15 24.8 26.15 25.3 26.15 25.55 26.35 Z"/>
</g>

<g id="IT_160x600_FR_psd_Asset_9_B___V7_2_Rogers_a__une_nouvelle__solution_pour__vous_aider__0_Layer0_0_MEMBER_37_FILL">
<path fill="#D82C26" stroke="none" d="
M 31.1 26.65
Q 30.85 26.2 30.5 26 30.15 25.75 29.5 25.75 28.95 25.75 28.55 26 28.2 26.2 27.85 26.7 27.6 27.2 27.6 27.75 27.6 28.3 27.85 28.8 28.2 29.35 28.55 29.5 28.95 29.75 29.55 29.75 30.45 29.75 31.1 29.3
L 31 28.9 30.4 29.25
Q 30.05 29.4 29.6 29.4 29.2 29.4 28.85 29.15 28.45 29 28.3 28.6 28.1 28.25 28.1 27.8
L 31.3 27.8 31.3 27.6
Q 31.3 27.05 31.1 26.65
M 30.5 26.5
Q 30.85 26.95 30.85 27.45
L 28.1 27.45
Q 28.1 27.1 28.3 26.85 28.45 26.5 28.75 26.3 29.15 26.1 29.5 26.1 30.1 26.1 30.5 26.5 Z"/>
</g>

<g id="IT_160x600_FR_psd_Asset_9_B___V7_2_Rogers_a__une_nouvelle__solution_pour__vous_aider__0_Layer0_0_MEMBER_38_FILL">
<path fill="#D82C26" stroke="none" d="
M 33.75 25.75
Q 33.35 25.75 33.1 26 32.85 26.2 32.65 26.65
L 32.6 26.65 32.6 25.85 32.15 25.85 32.15 29.65 32.65 29.65 32.65 27.75
Q 32.65 27.1 32.95 26.65 33.25 26.15 33.7 26.15
L 34.05 26.2 34.15 25.8 33.75 25.75 Z"/>
</g>

<g id="IT_160x600_FR_psd_Asset_9_B___V7_2_Rogers_a__une_nouvelle__solution_pour__vous_aider__0_Layer0_0_MEMBER_39_FILL">
<path fill="#D82C26" stroke="none" d="
M 34.2 29.6
Q 34.3 29.7 34.45 29.7
L 34.7 29.6
Q 34.85 29.55 34.85 29.35 34.85 29.2 34.7 29.1 34.65 28.95 34.45 28.95
L 34.2 29.1 34.1 29.35 34.2 29.6 Z"/>
</g>
</defs>

<g transform="matrix( 1, 0, 0, 1, -61,41) ">
<g transform="matrix( 1, 0, 0, 1, 56,0) ">
<g transform="matrix( 1, 0, 0, 1, 25,10) ">
<g transform="matrix( 2.815704345703125, 0, 0, 2.832611083984375, 0.15,16.6) ">
<use xlink:href="#IT_160x600_FR_psd_Asset_9_B___V7_2_Rogers_a__une_nouvelle__solution_pour__vous_aider__0_Layer0_0_MEMBER_0_FILL"/>
</g>

<g transform="matrix( 2.815704345703125, 0, 0, 2.832611083984375, 0.15,16.6) ">
<use xlink:href="#IT_160x600_FR_psd_Asset_9_B___V7_2_Rogers_a__une_nouvelle__solution_pour__vous_aider__0_Layer0_0_MEMBER_1_FILL"/>
</g>

<g transform="matrix( 2.815704345703125, 0, 0, 2.832611083984375, 0.15,16.6) ">
<use xlink:href="#IT_160x600_FR_psd_Asset_9_B___V7_2_Rogers_a__une_nouvelle__solution_pour__vous_aider__0_Layer0_0_MEMBER_2_FILL"/>
</g>

<g transform="matrix( 2.815704345703125, 0, 0, 2.832611083984375, 0.15,16.6) ">
<use xlink:href="#IT_160x600_FR_psd_Asset_9_B___V7_2_Rogers_a__une_nouvelle__solution_pour__vous_aider__0_Layer0_0_MEMBER_3_FILL"/>
</g>

<g transform="matrix( 2.815704345703125, 0, 0, 2.832611083984375, 0.15,16.6) ">
<use xlink:href="#IT_160x600_FR_psd_Asset_9_B___V7_2_Rogers_a__une_nouvelle__solution_pour__vous_aider__0_Layer0_0_MEMBER_4_FILL"/>
</g>

<g transform="matrix( 2.815704345703125, 0, 0, 2.832611083984375, 0.15,16.6) ">
<use xlink:href="#IT_160x600_FR_psd_Asset_9_B___V7_2_Rogers_a__une_nouvelle__solution_pour__vous_aider__0_Layer0_0_MEMBER_5_FILL"/>
</g>

<g transform="matrix( 2.815704345703125, 0, 0, 2.832611083984375, 0.15,16.6) ">
<use xlink:href="#IT_160x600_FR_psd_Asset_9_B___V7_2_Rogers_a__une_nouvelle__solution_pour__vous_aider__0_Layer0_0_MEMBER_6_FILL"/>
</g>

<g transform="matrix( 2.815704345703125, 0, 0, 2.832611083984375, 0.15,16.6) ">
<use xlink:href="#IT_160x600_FR_psd_Asset_9_B___V7_2_Rogers_a__une_nouvelle__solution_pour__vous_aider__0_Layer0_0_MEMBER_7_FILL"/>
</g>

<g transform="matrix( 2.815704345703125, 0, 0, 2.832611083984375, 0.15,16.6) ">
<use xlink:href="#IT_160x600_FR_psd_Asset_9_B___V7_2_Rogers_a__une_nouvelle__solution_pour__vous_aider__0_Layer0_0_MEMBER_8_FILL"/>
</g>

<g transform="matrix( 2.815704345703125, 0, 0, 2.832611083984375, 0.15,16.6) ">
<use xlink:href="#IT_160x600_FR_psd_Asset_9_B___V7_2_Rogers_a__une_nouvelle__solution_pour__vous_aider__0_Layer0_0_MEMBER_9_FILL"/>
</g>

<g transform="matrix( 2.815704345703125, 0, 0, 2.832611083984375, 0.15,16.6) ">
<use xlink:href="#IT_160x600_FR_psd_Asset_9_B___V7_2_Rogers_a__une_nouvelle__solution_pour__vous_aider__0_Layer0_0_MEMBER_10_FILL"/>
</g>

<g transform="matrix( 2.815704345703125, 0, 0, 2.832611083984375, 0.15,16.6) ">
<use xlink:href="#IT_160x600_FR_psd_Asset_9_B___V7_2_Rogers_a__une_nouvelle__solution_pour__vous_aider__0_Layer0_0_MEMBER_11_FILL"/>
</g>

<g transform="matrix( 2.815704345703125, 0, 0, 2.832611083984375, 0.15,16.6) ">
<use xlink:href="#IT_160x600_FR_psd_Asset_9_B___V7_2_Rogers_a__une_nouvelle__solution_pour__vous_aider__0_Layer0_0_MEMBER_12_FILL"/>
</g>

<g transform="matrix( 2.815704345703125, 0, 0, 2.832611083984375, 0.15,16.6) ">
<use xlink:href="#IT_160x600_FR_psd_Asset_9_B___V7_2_Rogers_a__une_nouvelle__solution_pour__vous_aider__0_Layer0_0_MEMBER_13_FILL"/>
</g>

<g transform="matrix( 2.815704345703125, 0, 0, 2.832611083984375, 0.15,16.6) ">
<use xlink:href="#IT_160x600_FR_psd_Asset_9_B___V7_2_Rogers_a__une_nouvelle__solution_pour__vous_aider__0_Layer0_0_MEMBER_14_FILL"/>
</g>

<g transform="matrix( 2.815704345703125, 0, 0, 2.832611083984375, 0.15,16.6) ">
<use xlink:href="#IT_160x600_FR_psd_Asset_9_B___V7_2_Rogers_a__une_nouvelle__solution_pour__vous_aider__0_Layer0_0_MEMBER_15_FILL"/>
</g>

<g transform="matrix( 2.815704345703125, 0, 0, 2.832611083984375, 0.15,16.6) ">
<use xlink:href="#IT_160x600_FR_psd_Asset_9_B___V7_2_Rogers_a__une_nouvelle__solution_pour__vous_aider__0_Layer0_0_MEMBER_16_FILL"/>
</g>

<g transform="matrix( 2.815704345703125, 0, 0, 2.832611083984375, 0.15,16.6) ">
<use xlink:href="#IT_160x600_FR_psd_Asset_9_B___V7_2_Rogers_a__une_nouvelle__solution_pour__vous_aider__0_Layer0_0_MEMBER_17_FILL"/>
</g>

<g transform="matrix( 2.815704345703125, 0, 0, 2.832611083984375, 0.15,16.6) ">
<use xlink:href="#IT_160x600_FR_psd_Asset_9_B___V7_2_Rogers_a__une_nouvelle__solution_pour__vous_aider__0_Layer0_0_MEMBER_18_FILL"/>
</g>

<g transform="matrix( 2.815704345703125, 0, 0, 2.832611083984375, 0.15,16.6) ">
<use xlink:href="#IT_160x600_FR_psd_Asset_9_B___V7_2_Rogers_a__une_nouvelle__solution_pour__vous_aider__0_Layer0_0_MEMBER_19_FILL"/>
</g>

<g transform="matrix( 2.815704345703125, 0, 0, 2.832611083984375, 0.15,16.6) ">
<use xlink:href="#IT_160x600_FR_psd_Asset_9_B___V7_2_Rogers_a__une_nouvelle__solution_pour__vous_aider__0_Layer0_0_MEMBER_20_FILL"/>
</g>

<g transform="matrix( 2.815704345703125, 0, 0, 2.832611083984375, 0.15,16.6) ">
<use xlink:href="#IT_160x600_FR_psd_Asset_9_B___V7_2_Rogers_a__une_nouvelle__solution_pour__vous_aider__0_Layer0_0_MEMBER_21_FILL"/>
</g>

<g transform="matrix( 2.815704345703125, 0, 0, 2.832611083984375, 0.15,16.6) ">
<use xlink:href="#IT_160x600_FR_psd_Asset_9_B___V7_2_Rogers_a__une_nouvelle__solution_pour__vous_aider__0_Layer0_0_MEMBER_22_FILL"/>
</g>

<g transform="matrix( 2.815704345703125, 0, 0, 2.832611083984375, 0.15,16.6) ">
<use xlink:href="#IT_160x600_FR_psd_Asset_9_B___V7_2_Rogers_a__une_nouvelle__solution_pour__vous_aider__0_Layer0_0_MEMBER_23_FILL"/>
</g>

<g transform="matrix( 2.815704345703125, 0, 0, 2.832611083984375, 0.15,16.6) ">
<use xlink:href="#IT_160x600_FR_psd_Asset_9_B___V7_2_Rogers_a__une_nouvelle__solution_pour__vous_aider__0_Layer0_0_MEMBER_24_FILL"/>
</g>

<g transform="matrix( 2.815704345703125, 0, 0, 2.832611083984375, 0.15,16.6) ">
<use xlink:href="#IT_160x600_FR_psd_Asset_9_B___V7_2_Rogers_a__une_nouvelle__solution_pour__vous_aider__0_Layer0_0_MEMBER_25_FILL"/>
</g>

<g transform="matrix( 2.815704345703125, 0, 0, 2.832611083984375, 0.15,16.6) ">
<use xlink:href="#IT_160x600_FR_psd_Asset_9_B___V7_2_Rogers_a__une_nouvelle__solution_pour__vous_aider__0_Layer0_0_MEMBER_26_FILL"/>
</g>

<g transform="matrix( 2.815704345703125, 0, 0, 2.832611083984375, 0.15,16.6) ">
<use xlink:href="#IT_160x600_FR_psd_Asset_9_B___V7_2_Rogers_a__une_nouvelle__solution_pour__vous_aider__0_Layer0_0_MEMBER_27_FILL"/>
</g>

<g transform="matrix( 2.815704345703125, 0, 0, 2.832611083984375, 0.15,16.6) ">
<use xlink:href="#IT_160x600_FR_psd_Asset_9_B___V7_2_Rogers_a__une_nouvelle__solution_pour__vous_aider__0_Layer0_0_MEMBER_28_FILL"/>
</g>

<g transform="matrix( 2.815704345703125, 0, 0, 2.832611083984375, 0.15,16.6) ">
<use xlink:href="#IT_160x600_FR_psd_Asset_9_B___V7_2_Rogers_a__une_nouvelle__solution_pour__vous_aider__0_Layer0_0_MEMBER_29_FILL"/>
</g>

<g transform="matrix( 2.815704345703125, 0, 0, 2.832611083984375, 0.15,16.6) ">
<use xlink:href="#IT_160x600_FR_psd_Asset_9_B___V7_2_Rogers_a__une_nouvelle__solution_pour__vous_aider__0_Layer0_0_MEMBER_30_FILL"/>
</g>

<g transform="matrix( 2.815704345703125, 0, 0, 2.832611083984375, 0.15,16.6) ">
<use xlink:href="#IT_160x600_FR_psd_Asset_9_B___V7_2_Rogers_a__une_nouvelle__solution_pour__vous_aider__0_Layer0_0_MEMBER_31_FILL"/>
</g>

<g transform="matrix( 2.815704345703125, 0, 0, 2.832611083984375, 0.15,16.6) ">
<use xlink:href="#IT_160x600_FR_psd_Asset_9_B___V7_2_Rogers_a__une_nouvelle__solution_pour__vous_aider__0_Layer0_0_MEMBER_32_FILL"/>
</g>

<g transform="matrix( 2.815704345703125, 0, 0, 2.832611083984375, 0.15,16.6) ">
<use xlink:href="#IT_160x600_FR_psd_Asset_9_B___V7_2_Rogers_a__une_nouvelle__solution_pour__vous_aider__0_Layer0_0_MEMBER_33_FILL"/>
</g>

<g transform="matrix( 2.815704345703125, 0, 0, 2.832611083984375, 0.15,16.6) ">
<use xlink:href="#IT_160x600_FR_psd_Asset_9_B___V7_2_Rogers_a__une_nouvelle__solution_pour__vous_aider__0_Layer0_0_MEMBER_34_FILL"/>
</g>

<g transform="matrix( 2.815704345703125, 0, 0, 2.832611083984375, 0.15,16.6) ">
<use xlink:href="#IT_160x600_FR_psd_Asset_9_B___V7_2_Rogers_a__une_nouvelle__solution_pour__vous_aider__0_Layer0_0_MEMBER_35_FILL"/>
</g>

<g transform="matrix( 2.815704345703125, 0, 0, 2.832611083984375, 0.15,16.6) ">
<use xlink:href="#IT_160x600_FR_psd_Asset_9_B___V7_2_Rogers_a__une_nouvelle__solution_pour__vous_aider__0_Layer0_0_MEMBER_36_FILL"/>
</g>

<g transform="matrix( 2.815704345703125, 0, 0, 2.832611083984375, 0.15,16.6) ">
<use xlink:href="#IT_160x600_FR_psd_Asset_9_B___V7_2_Rogers_a__une_nouvelle__solution_pour__vous_aider__0_Layer0_0_MEMBER_37_FILL"/>
</g>

<g transform="matrix( 2.815704345703125, 0, 0, 2.832611083984375, 0.15,16.6) ">
<use xlink:href="#IT_160x600_FR_psd_Asset_9_B___V7_2_Rogers_a__une_nouvelle__solution_pour__vous_aider__0_Layer0_0_MEMBER_38_FILL"/>
</g>

<g transform="matrix( 2.815704345703125, 0, 0, 2.832611083984375, 0.15,16.6) ">
<use xlink:href="#IT_160x600_FR_psd_Asset_9_B___V7_2_Rogers_a__une_nouvelle__solution_pour__vous_aider__0_Layer0_0_MEMBER_39_FILL"/>
</g>
</g>
</g>
</g>
</svg>
