
<svg xmlns="http://www.w3.org/2000/svg" version="1.1" xmlns:xlink="http://www.w3.org/1999/xlink" preserveAspectRatio="none" x="0px" y="0px" width="200px" height="200px" viewBox="0 0 200 200">
<defs>
<g id="Business_DM_Banners___200x200_psd_Asset_Awareness___Consumer_Goods_V1_fr1_Create_an_in_store_experience____0_Layer0_0_MEMBER_0_FILL">
<path fill="#DA291C" stroke="none" d="
M 3.35 -5.2
Q 3.95 -5.2 4.35 -5 4.6 -4.9 5.1 -4.55
L 5.25 -5
Q 4.95 -5.3 4.4 -5.45 3.95 -5.65 3.35 -5.65 2.55 -5.65 1.85 -5.25 1.25 -4.95 0.85 -4.25 0.5 -3.6 0.5 -2.75 0.5 -1.9 0.85 -1.25 1.25 -0.55 1.85 -0.25 2.55 0.15 3.35 0.15 3.75 0.15 4.45 -0.05 5 -0.3 5.25 -0.6
L 5.15 -1
Q 4.8 -0.65 4.35 -0.5 3.95 -0.3 3.35 -0.3 2.65 -0.3 2.1 -0.6 1.6 -0.95 1.3 -1.5 1 -2.1 1 -2.75 1 -3.4 1.3 -4 1.6 -4.55 2.1 -4.9 2.7 -5.2 3.35 -5.2 Z"/>
</g>

<g id="Business_DM_Banners___200x200_psd_Asset_Awareness___Consumer_Goods_V1_fr1_Create_an_in_store_experience____0_Layer0_0_MEMBER_1_FILL">
<path fill="#DA291C" stroke="none" d="
M 8 -3.7
L 7.6 -3.75
Q 7.35 -3.75 7 -3.5 6.7 -3.25 6.55 -2.85
L 6.5 -3.65 6.05 -3.65 6.1 0 6.55 0 6.55 -1.8
Q 6.55 -2.45 6.85 -2.9 7.1 -3.35 7.6 -3.35
L 7.9 -3.3 8 -3.7 Z"/>
</g>

<g id="Business_DM_Banners___200x200_psd_Asset_Awareness___Consumer_Goods_V1_fr1_Create_an_in_store_experience____0_Layer0_0_MEMBER_2_FILL">
<path fill="#DA291C" stroke="none" d="
M 10.05 -3.75
Q 9.55 -3.75 9.15 -3.5 8.8 -3.3 8.5 -2.85 8.25 -2.45 8.25 -1.85 8.25 -1.2 8.5 -0.85 8.75 -0.35 9.15 -0.15 9.55 0.1 10.1 0.1 10.95 0.1 11.55 -0.35
L 11.5 -0.75 10.9 -0.4 10.15 -0.25
Q 9.8 -0.25 9.4 -0.45 9.05 -0.7 8.9 -1 8.7 -1.35 8.7 -1.75
L 11.75 -1.75 11.8 -1.95
Q 11.8 -2.35 11.6 -2.85 11.4 -3.25 11 -3.5 10.5 -3.75 10.05 -3.75
M 9.35 -3.2
Q 9.6 -3.4 10.05 -3.4 10.55 -3.4 11 -3.05 11.35 -2.6 11.35 -2.1
L 8.7 -2.1
Q 8.7 -2.4 8.85 -2.7 8.95 -2.9 9.35 -3.2 Z"/>
</g>

<g id="Business_DM_Banners___200x200_psd_Asset_Awareness___Consumer_Goods_V1_fr1_Create_an_in_store_experience____0_Layer0_0_MEMBER_3_FILL">
<path fill="#DA291C" stroke="none" d="
M 13.95 -3.75
L 13.25 -3.65 12.6 -3.3 12.75 -2.95 13.3 -3.25
Q 13.6 -3.4 13.9 -3.4 14.4 -3.4 14.65 -3.15 14.95 -2.85 14.95 -2.4
L 14.95 -2.2 14.5 -2.2
Q 12.4 -2.2 12.4 -1 12.4 -0.5 12.75 -0.15 13.15 0.1 13.6 0.1 14.05 0.1 14.4 -0.1 14.8 -0.35 14.95 -0.7
L 14.95 -0.35 15 0 15.45 0 15.35 -0.8 15.35 -2.35
Q 15.35 -3.05 15 -3.4 14.65 -3.75 13.95 -3.75
M 14.55 -1.9
L 14.95 -1.9 14.95 -1.5
Q 14.95 -1.2 14.8 -0.9 14.65 -0.6 14.35 -0.45 14.15 -0.25 13.65 -0.25 13.35 -0.25 13.1 -0.4 12.85 -0.65 12.85 -1 12.85 -1.9 14.55 -1.9 Z"/>
</g>

<g id="Business_DM_Banners___200x200_psd_Asset_Awareness___Consumer_Goods_V1_fr1_Create_an_in_store_experience____0_Layer0_0_MEMBER_4_FILL">
<path fill="#DA291C" stroke="none" d="
M 18 -3.3
L 18.1 -3.65 17.05 -3.65 17.05 -4.7 16.6 -4.5 16.6 -3.65 16.05 -3.65 15.95 -3.3 16.6 -3.3 16.6 -0.9
Q 16.6 -0.5 16.85 -0.15 17.1 0.1 17.45 0.1
L 18.25 -0.1 18.2 -0.45 17.6 -0.3
Q 17.35 -0.3 17.2 -0.45 17.05 -0.6 17.05 -0.95
L 17.05 -3.3 18 -3.3 Z"/>
</g>

<g id="Business_DM_Banners___200x200_psd_Asset_Awareness___Consumer_Goods_V1_fr1_Create_an_in_store_experience____0_Layer0_0_MEMBER_5_FILL">
<path fill="#DA291C" stroke="none" d="
M 18.8 -0.85
Q 19 -0.4 19.45 -0.15 19.85 0.1 20.45 0.1 21.3 0.1 21.9 -0.35
L 21.8 -0.75
Q 21.6 -0.55 21.2 -0.4 20.9 -0.25 20.45 -0.25 20.2 -0.25 19.7 -0.45
L 19.2 -1
Q 19 -1.5 19 -1.75
L 22.1 -1.75 22.1 -1.95
Q 22.1 -2.5 21.9 -2.85 21.7 -3.25 21.3 -3.5 20.9 -3.75 20.35 -3.75 19.95 -3.75 19.45 -3.5 19.05 -3.25 18.8 -2.85 18.55 -2.35 18.55 -1.85 18.55 -1.35 18.8 -0.85
M 19.2 -2.7
Q 19.35 -2.95 19.65 -3.2 19.9 -3.4 20.35 -3.4 20.85 -3.4 21.3 -3.05 21.65 -2.7 21.65 -2.1
L 19 -2.1 19.2 -2.7 Z"/>
</g>

<g id="Business_DM_Banners___200x200_psd_Asset_Awareness___Consumer_Goods_V1_fr1_Create_an_in_store_experience____0_Layer0_0_MEMBER_6_FILL">
<path fill="#DA291C" stroke="none" d="
M 24.3 -1
Q 24.3 -0.45 24.65 -0.15 25 0.1 25.45 0.1 25.95 0.1 26.3 -0.1 26.65 -0.3 26.8 -0.7
L 26.85 -0.7 26.85 -0.35 26.9 0 27.3 0 27.25 -2.35
Q 27.25 -3.05 26.9 -3.4 26.55 -3.75 25.85 -3.75
L 25.1 -3.65 24.5 -3.3 24.65 -2.95 25.2 -3.25
Q 25.5 -3.4 25.8 -3.4 26.2 -3.4 26.55 -3.15 26.85 -2.85 26.85 -2.4
L 26.85 -2.2 26.4 -2.2
Q 24.3 -2.2 24.3 -1
M 25 -0.4
Q 24.75 -0.6 24.75 -1 24.75 -1.9 26.45 -1.9
L 26.85 -1.9 26.85 -1.5
Q 26.85 -1.2 26.7 -0.9 26.55 -0.6 26.25 -0.45 26 -0.25 25.55 -0.25 25.25 -0.25 25 -0.4 Z"/>
</g>

<g id="Business_DM_Banners___200x200_psd_Asset_Awareness___Consumer_Goods_V1_fr1_Create_an_in_store_experience____0_Layer0_0_MEMBER_7_FILL">
<path fill="#DA291C" stroke="none" d="
M 28.8 -3.65
L 28.4 -3.65 28.4 0 28.9 0 28.9 -1.85
Q 28.9 -2.35 29.05 -2.65 29.15 -2.95 29.5 -3.2 29.75 -3.35 30.1 -3.35 30.65 -3.35 30.85 -3 31.1 -2.6 31.1 -2.1
L 31.1 0 31.55 0 31.55 -2.2
Q 31.55 -2.9 31.2 -3.3 30.9 -3.75 30.2 -3.75 29.8 -3.75 29.4 -3.5 29.15 -3.35 28.85 -2.85
L 28.8 -3.65 Z"/>
</g>

<g id="Business_DM_Banners___200x200_psd_Asset_Awareness___Consumer_Goods_V1_fr1_Create_an_in_store_experience____0_Layer0_0_MEMBER_8_FILL">
<path fill="#DA291C" stroke="none" d="
M 34.7 -3.65
L 34.25 -3.65 34.25 0 34.7 0 34.7 -3.65
M 34.5 -4.75
L 34.7 -4.85 34.8 -5.1 34.7 -5.35 34.5 -5.4
Q 34.3 -5.4 34.25 -5.3
L 34.15 -5.1 34.25 -4.85 34.5 -4.75 Z"/>
</g>

<g id="Business_DM_Banners___200x200_psd_Asset_Awareness___Consumer_Goods_V1_fr1_Create_an_in_store_experience____0_Layer0_0_MEMBER_9_FILL">
<path fill="#DA291C" stroke="none" d="
M 36.3 -3.65
L 35.9 -3.65 35.9 0 36.4 0 36.4 -1.85
Q 36.4 -2.35 36.55 -2.65 36.65 -2.95 37 -3.2 37.25 -3.35 37.6 -3.35 38.15 -3.35 38.35 -3 38.6 -2.6 38.6 -2.1
L 38.6 0 39.05 0 39.05 -2.2
Q 39.05 -2.75 38.7 -3.3 38.4 -3.75 37.7 -3.75 37.3 -3.75 36.9 -3.5 36.5 -3.25 36.35 -2.85
L 36.3 -3.65 Z"/>
</g>

<g id="Business_DM_Banners___200x200_psd_Asset_Awareness___Consumer_Goods_V1_fr1_Create_an_in_store_experience____0_Layer0_0_MEMBER_10_FILL">
<path fill="#DA291C" stroke="none" d="
M 40 -2.15
L 40 -1.75 41.6 -1.75 41.6 -2.15 40 -2.15 Z"/>
</g>

<g id="Business_DM_Banners___200x200_psd_Asset_Awareness___Consumer_Goods_V1_fr1_Create_an_in_store_experience____0_Layer0_0_MEMBER_11_FILL">
<path fill="#DA291C" stroke="none" d="
M 44.2 -3.65
L 43.55 -3.75 42.95 -3.65
Q 42.65 -3.5 42.5 -3.3 42.35 -3.05 42.35 -2.75 42.35 -2.3 42.6 -2.1 42.75 -1.95 43.35 -1.7
L 44.15 -1.4
Q 44.35 -1.2 44.35 -0.95 44.35 -0.6 44.15 -0.45 43.9 -0.25 43.55 -0.25 42.9 -0.25 42.35 -0.7
L 42.25 -0.3 42.85 0 43.55 0.1 44.15 0
Q 44.45 -0.15 44.65 -0.4 44.8 -0.6 44.8 -0.95 44.8 -1.35 44.55 -1.6
L 42.95 -2.35
Q 42.75 -2.55 42.75 -2.75 42.75 -3.1 43 -3.25 43.25 -3.4 43.55 -3.4
L 44.05 -3.3 44.5 -3.05 44.7 -3.35 44.2 -3.65 Z"/>
</g>

<g id="Business_DM_Banners___200x200_psd_Asset_Awareness___Consumer_Goods_V1_fr1_Create_an_in_store_experience____0_Layer0_0_MEMBER_12_FILL">
<path fill="#DA291C" stroke="none" d="
M 45.35 -3.65
L 45.25 -3.3 45.95 -3.3 45.95 -0.9
Q 45.95 -0.5 46.2 -0.15 46.45 0.1 46.8 0.1
L 47.55 -0.1 47.5 -0.45
Q 47.2 -0.3 46.95 -0.3 46.7 -0.3 46.55 -0.45 46.4 -0.6 46.4 -0.95
L 46.4 -3.3 47.35 -3.3 47.45 -3.65 46.4 -3.65 46.4 -4.7 45.95 -4.5 45.95 -3.65 45.35 -3.65 Z"/>
</g>

<g id="Business_DM_Banners___200x200_psd_Asset_Awareness___Consumer_Goods_V1_fr1_Create_an_in_store_experience____0_Layer0_0_MEMBER_13_FILL">
<path fill="#DA291C" stroke="none" d="
M 49.8 -3.75
Q 49.3 -3.75 48.8 -3.5 48.35 -3.25 48.15 -2.8 47.9 -2.5 47.9 -1.85 47.9 -1.2 48.15 -0.85 48.35 -0.4 48.8 -0.15 49.2 0.1 49.8 0.1 50.45 0.1 50.8 -0.15 51.25 -0.4 51.5 -0.85 51.75 -1.35 51.75 -1.85 51.75 -2.4 51.5 -2.8 51.25 -3.25 50.8 -3.5 50.3 -3.75 49.8 -3.75
M 49.8 -3.35
Q 50.25 -3.35 50.6 -3.15 51 -2.85 51.1 -2.6 51.3 -2.25 51.3 -1.85 51.3 -1.4 51.1 -1.05 50.95 -0.7 50.6 -0.5 50.35 -0.3 49.8 -0.3 49.3 -0.3 49.05 -0.5 48.7 -0.7 48.5 -1.05 48.35 -1.4 48.35 -1.85
L 48.5 -2.6
Q 48.7 -2.95 49.05 -3.15 49.3 -3.35 49.8 -3.35 Z"/>
</g>

<g id="Business_DM_Banners___200x200_psd_Asset_Awareness___Consumer_Goods_V1_fr1_Create_an_in_store_experience____0_Layer0_0_MEMBER_14_FILL">
<path fill="#DA291C" stroke="none" d="
M 54.2 -3.75
Q 53.95 -3.75 53.6 -3.5 53.3 -3.25 53.15 -2.85
L 53.1 -3.65 52.65 -3.65 52.7 0 53.15 0 53.15 -1.8
Q 53.15 -2.45 53.45 -2.9 53.75 -3.35 54.2 -3.35
L 54.5 -3.3 54.6 -3.7 54.2 -3.75 Z"/>
</g>

<g id="Business_DM_Banners___200x200_psd_Asset_Awareness___Consumer_Goods_V1_fr1_Create_an_in_store_experience____0_Layer0_0_MEMBER_15_FILL">
<path fill="#DA291C" stroke="none" d="
M 54.85 -1.85
Q 54.85 -1.35 55.1 -0.85 55.35 -0.35 55.75 -0.15 56.15 0.1 56.7 0.1 57.55 0.1 58.15 -0.35
L 58.1 -0.75 57.5 -0.4 56.75 -0.25
Q 56.4 -0.25 56 -0.45 55.65 -0.7 55.5 -1 55.3 -1.35 55.3 -1.75
L 58.35 -1.75 58.4 -1.95
Q 58.4 -2.35 58.2 -2.85 58 -3.25 57.6 -3.5 57.1 -3.75 56.65 -3.75 56.15 -3.75 55.75 -3.5 55.4 -3.3 55.1 -2.85 54.85 -2.45 54.85 -1.85
M 55.3 -2.1
Q 55.3 -2.4 55.45 -2.7
L 55.95 -3.2
Q 56.2 -3.4 56.65 -3.4 57.15 -3.4 57.6 -3.05 57.95 -2.6 57.95 -2.1
L 55.3 -2.1 Z"/>
</g>

<g id="Business_DM_Banners___200x200_psd_Asset_Awareness___Consumer_Goods_V1_fr1_Create_an_in_store_experience____0_Layer0_0_MEMBER_16_FILL">
<path fill="#DA291C" stroke="none" d="
M 2.25 5.45
Q 1.7 5.45 1.3 5.65 0.9 5.95 0.65 6.35 0.45 6.75 0.45 7.35 0.45 8 0.7 8.35 0.9 8.75 1.35 9.05 1.75 9.3 2.3 9.3 3.15 9.3 3.75 8.85
L 3.65 8.45 3.1 8.8 2.35 8.9
Q 1.85 8.9 1.6 8.7 1.3 8.6 1.05 8.15 0.9 7.85 0.9 7.4
L 3.95 7.4 3.95 7.25
Q 3.95 6.7 3.75 6.3 3.6 5.95 3.15 5.65 2.8 5.45 2.25 5.45
M 2.25 5.8
Q 2.85 5.8 3.15 6.15 3.45 6.45 3.55 7.1
L 0.9 7.1
Q 0.9 6.8 1.05 6.5 1.2 6.25 1.5 6 1.75 5.8 2.25 5.8 Z"/>
</g>

<g id="Business_DM_Banners___200x200_psd_Asset_Awareness___Consumer_Goods_V1_fr1_Create_an_in_store_experience____0_Layer0_0_MEMBER_17_FILL">
<path fill="#DA291C" stroke="none" d="
M 7.65 5.55
L 7.1 5.55 6.1 6.95 5.05 5.55 4.5 5.55 5.8 7.25 4.35 9.2 4.9 9.2 6.1 7.55 7.25 9.2 7.85 9.2 6.35 7.25 7.65 5.55 Z"/>
</g>

<g id="Business_DM_Banners___200x200_psd_Asset_Awareness___Consumer_Goods_V1_fr1_Create_an_in_store_experience____0_Layer0_0_MEMBER_18_FILL">
<path fill="#DA291C" stroke="none" d="
M 11.45 5.7
Q 11.1 5.45 10.5 5.45 10 5.45 9.6 5.65 9.2 6 9 6.35
L 8.95 5.55 8.5 5.55 8.55 6.2 8.55 11.05 9 11.05 9 8.4 9.05 8.4
Q 9.2 8.8 9.65 9.05 10.05 9.3 10.5 9.3 10.95 9.3 11.45 9.05 11.95 8.65 12.1 8.35 12.3 7.95 12.3 7.35 12.3 6.75 12.1 6.4 11.9 5.95 11.45 5.7
M 10.45 5.8
Q 10.8 5.8 11.2 6.05 11.45 6.15 11.7 6.6 11.85 6.9 11.85 7.35 11.85 7.8 11.7 8.15 11.4 8.55 11.2 8.7 10.85 8.9 10.45 8.9 9.95 8.9 9.7 8.7 9.45 8.55 9.15 8.15 9 7.8 9 7.35 9 6.9 9.15 6.6 9.4 6.15 9.7 6.05 10.05 5.8 10.45 5.8 Z"/>
</g>

<g id="Business_DM_Banners___200x200_psd_Asset_Awareness___Consumer_Goods_V1_fr1_Create_an_in_store_experience____0_Layer0_0_MEMBER_19_FILL">
<path fill="#DA291C" stroke="none" d="
M 14.85 5.45
Q 14.3 5.45 13.95 5.65 13.5 5.95 13.3 6.35 13.05 6.85 13.05 7.35 13.05 7.85 13.3 8.35 13.45 8.65 13.95 9.05 14.45 9.3 14.9 9.3 15.75 9.3 16.35 8.85
L 16.3 8.45
Q 16.1 8.65 15.7 8.8
L 14.95 8.9
Q 14.55 8.9 14.2 8.7 13.85 8.55 13.7 8.15 13.5 7.9 13.5 7.4
L 16.6 7.4 16.6 7.25
Q 16.6 6.9 16.4 6.3 16.2 5.95 15.8 5.65 15.45 5.45 14.85 5.45
M 14.15 6
Q 14.4 5.8 14.85 5.8 15.45 5.8 15.8 6.15 16.15 6.6 16.15 7.1
L 13.5 7.1
Q 13.5 6.75 13.7 6.5 13.85 6.25 14.15 6 Z"/>
</g>

<g id="Business_DM_Banners___200x200_psd_Asset_Awareness___Consumer_Goods_V1_fr1_Create_an_in_store_experience____0_Layer0_0_MEMBER_20_FILL">
<path fill="#DA291C" stroke="none" d="
M 17.95 5.55
L 17.5 5.55 17.55 9.2 18 9.2 18 7.35
Q 18 6.8 18.25 6.3 18.55 5.85 19 5.85
L 19.35 5.9 19.45 5.5 19.05 5.45
Q 18.65 5.45 18.4 5.65 18.05 6 18 6.35
L 17.95 6.35 17.95 5.55 Z"/>
</g>

<g id="Business_DM_Banners___200x200_psd_Asset_Awareness___Consumer_Goods_V1_fr1_Create_an_in_store_experience____0_Layer0_0_MEMBER_21_FILL">
<path fill="#DA291C" stroke="none" d="
M 20.3 4.4
Q 20.5 4.4 20.55 4.3
L 20.65 4.1 20.55 3.85 20.3 3.75 20.1 3.85
Q 20 3.9 20 4.1 20 4.25 20.1 4.3 20.15 4.4 20.3 4.4
M 20.55 9.2
L 20.55 5.55 20.1 5.55 20.1 9.2 20.55 9.2 Z"/>
</g>

<g id="Business_DM_Banners___200x200_psd_Asset_Awareness___Consumer_Goods_V1_fr1_Create_an_in_store_experience____0_Layer0_0_MEMBER_22_FILL">
<path fill="#DA291C" stroke="none" d="
M 23.3 5.45
Q 22.75 5.45 22.4 5.65 21.95 5.95 21.75 6.35 21.5 6.85 21.5 7.35 21.5 7.85 21.75 8.35 21.95 8.75 22.4 9.05 22.9 9.3 23.35 9.3 24.2 9.3 24.8 8.85
L 24.75 8.45
Q 24.55 8.65 24.15 8.8
L 23.4 8.9
Q 22.9 8.9 22.65 8.7 22.3 8.55 22.15 8.15 21.95 7.9 21.95 7.4
L 25.05 7.4 25.05 7.25
Q 25.05 6.9 24.85 6.3 24.65 5.95 24.25 5.65 23.9 5.45 23.3 5.45
M 23.3 5.8
Q 23.9 5.8 24.25 6.15 24.6 6.6 24.6 7.1
L 21.95 7.1
Q 21.95 6.75 22.15 6.5 22.3 6.25 22.6 6 22.85 5.8 23.3 5.8 Z"/>
</g>

<g id="Business_DM_Banners___200x200_psd_Asset_Awareness___Consumer_Goods_V1_fr1_Create_an_in_store_experience____0_Layer0_0_MEMBER_23_FILL">
<path fill="#DA291C" stroke="none" d="
M 26.4 5.55
L 25.95 5.55 26 9.2 26.45 9.2 26.45 7.3
Q 26.45 6.9 26.6 6.5 26.8 6.15 27.05 6 27.45 5.8 27.65 5.8 28.15 5.8 28.4 6.2 28.65 6.55 28.65 7.05
L 28.65 9.2 29.1 9.2 29.1 6.95
Q 29.1 6.25 28.75 5.85 28.45 5.45 27.75 5.45 27.25 5.45 26.95 5.7 26.6 5.9 26.45 6.35
L 26.4 6.35 26.4 5.55 Z"/>
</g>

<g id="Business_DM_Banners___200x200_psd_Asset_Awareness___Consumer_Goods_V1_fr1_Create_an_in_store_experience____0_Layer0_0_MEMBER_24_FILL">
<path fill="#DA291C" stroke="none" d="
M 31.95 5.45
Q 31.35 5.45 30.95 5.7 30.55 5.9 30.25 6.35 30 6.85 30 7.35 30 7.85 30.25 8.35 30.6 8.9 30.95 9.05 31.45 9.3 31.9 9.3 32.3 9.3 32.6 9.15 32.75 9.1 33.15 8.85
L 33.1 8.45 32.6 8.8 31.95 8.9
Q 31.6 8.9 31.2 8.7 30.95 8.55 30.65 8.15 30.5 7.8 30.5 7.35 30.5 6.9 30.65 6.6 30.9 6.15 31.2 6.05 31.55 5.8 31.95 5.8
L 32.5 5.9 33 6.2 33.15 5.85 32.6 5.55
Q 32.4 5.45 31.95 5.45 Z"/>
</g>

<g id="Business_DM_Banners___200x200_psd_Asset_Awareness___Consumer_Goods_V1_fr1_Create_an_in_store_experience____0_Layer0_0_MEMBER_25_FILL">
<path fill="#DA291C" stroke="none" d="
M 36.35 5.65
Q 36 5.45 35.45 5.45 34.9 5.45 34.5 5.65 34.1 5.95 33.85 6.35 33.65 6.75 33.65 7.35 33.65 7.95 33.85 8.35 34.15 8.75 34.55 9.05 34.95 9.3 35.5 9.3 36.35 9.3 36.95 8.85
L 36.85 8.45 36.3 8.8 35.55 8.9
Q 35.05 8.9 34.8 8.7 34.5 8.6 34.25 8.15
L 34.05 7.4 37.15 7.4 37.15 7.25
Q 37.15 6.7 36.95 6.3 36.8 5.95 36.35 5.65
M 35.45 5.8
Q 36.05 5.8 36.35 6.15 36.65 6.45 36.75 7.1
L 34.1 7.1
Q 34.1 6.8 34.25 6.5 34.4 6.25 34.7 6 34.95 5.8 35.45 5.8 Z"/>
</g>

<g id="Business_DM_Banners___200x200_psd_Asset_Awareness___Consumer_Goods_V1_fr1_Create_an_in_store_experience____0_Layer0_0_MEMBER_26_FILL">
<path fill="#DA291C" stroke="none" d="
M 38.05 9.15
L 38.3 9.25 38.55 9.15 38.65 8.9 38.55 8.65
Q 38.5 8.55 38.3 8.55 38.15 8.55 38.05 8.65
L 37.95 8.9 38.05 9.15 Z"/>
</g>

<g id="Business_DM_Banners___200x200_psd_Asset_Awareness___Consumer_Goods_V1_fr1_Create_an_in_store_experience____0_Layer0_0_MEMBER_27_FILL">
<path fill="#DA291C" stroke="none" d="
M 39.75 9.15
L 40 9.25 40.25 9.15 40.35 8.9 40.25 8.65
Q 40.15 8.55 40 8.55 39.8 8.55 39.75 8.65
L 39.65 8.9 39.75 9.15 Z"/>
</g>

<g id="Business_DM_Banners___200x200_psd_Asset_Awareness___Consumer_Goods_V1_fr1_Create_an_in_store_experience____0_Layer0_0_MEMBER_28_FILL">
<path fill="#DA291C" stroke="none" d="
M 41.45 9.15
L 41.7 9.25 41.9 9.15 42.05 8.9
Q 42.05 8.75 41.9 8.65 41.85 8.55 41.7 8.55 41.5 8.55 41.45 8.65 41.35 8.7 41.35 8.9 41.35 9.05 41.45 9.15 Z"/>
</g>
</defs>

<g transform="matrix( 1, 0, 0, 1, -74,-40) ">
<g transform="matrix( 1, 0, 0, 1, 49,38) ">
<g transform="matrix( 1, 0, 0, 1, 43,17) ">
<g transform="matrix( 2.815704345703125, 0, 0, 2.832611083984375, -0.85,16.6) ">
<use xlink:href="#Business_DM_Banners___200x200_psd_Asset_Awareness___Consumer_Goods_V1_fr1_Create_an_in_store_experience____0_Layer0_0_MEMBER_0_FILL"/>
</g>

<g transform="matrix( 2.815704345703125, 0, 0, 2.832611083984375, -0.85,16.6) ">
<use xlink:href="#Business_DM_Banners___200x200_psd_Asset_Awareness___Consumer_Goods_V1_fr1_Create_an_in_store_experience____0_Layer0_0_MEMBER_1_FILL"/>
</g>

<g transform="matrix( 2.815704345703125, 0, 0, 2.832611083984375, -0.85,16.6) ">
<use xlink:href="#Business_DM_Banners___200x200_psd_Asset_Awareness___Consumer_Goods_V1_fr1_Create_an_in_store_experience____0_Layer0_0_MEMBER_2_FILL"/>
</g>

<g transform="matrix( 2.815704345703125, 0, 0, 2.832611083984375, -0.85,16.6) ">
<use xlink:href="#Business_DM_Banners___200x200_psd_Asset_Awareness___Consumer_Goods_V1_fr1_Create_an_in_store_experience____0_Layer0_0_MEMBER_3_FILL"/>
</g>

<g transform="matrix( 2.815704345703125, 0, 0, 2.832611083984375, -0.85,16.6) ">
<use xlink:href="#Business_DM_Banners___200x200_psd_Asset_Awareness___Consumer_Goods_V1_fr1_Create_an_in_store_experience____0_Layer0_0_MEMBER_4_FILL"/>
</g>

<g transform="matrix( 2.815704345703125, 0, 0, 2.832611083984375, -0.85,16.6) ">
<use xlink:href="#Business_DM_Banners___200x200_psd_Asset_Awareness___Consumer_Goods_V1_fr1_Create_an_in_store_experience____0_Layer0_0_MEMBER_5_FILL"/>
</g>

<g transform="matrix( 2.815704345703125, 0, 0, 2.832611083984375, -0.85,16.6) ">
<use xlink:href="#Business_DM_Banners___200x200_psd_Asset_Awareness___Consumer_Goods_V1_fr1_Create_an_in_store_experience____0_Layer0_0_MEMBER_6_FILL"/>
</g>

<g transform="matrix( 2.815704345703125, 0, 0, 2.832611083984375, -0.85,16.6) ">
<use xlink:href="#Business_DM_Banners___200x200_psd_Asset_Awareness___Consumer_Goods_V1_fr1_Create_an_in_store_experience____0_Layer0_0_MEMBER_7_FILL"/>
</g>

<g transform="matrix( 2.815704345703125, 0, 0, 2.832611083984375, -0.85,16.6) ">
<use xlink:href="#Business_DM_Banners___200x200_psd_Asset_Awareness___Consumer_Goods_V1_fr1_Create_an_in_store_experience____0_Layer0_0_MEMBER_8_FILL"/>
</g>

<g transform="matrix( 2.815704345703125, 0, 0, 2.832611083984375, -0.85,16.6) ">
<use xlink:href="#Business_DM_Banners___200x200_psd_Asset_Awareness___Consumer_Goods_V1_fr1_Create_an_in_store_experience____0_Layer0_0_MEMBER_9_FILL"/>
</g>

<g transform="matrix( 2.815704345703125, 0, 0, 2.832611083984375, -0.85,16.6) ">
<use xlink:href="#Business_DM_Banners___200x200_psd_Asset_Awareness___Consumer_Goods_V1_fr1_Create_an_in_store_experience____0_Layer0_0_MEMBER_10_FILL"/>
</g>

<g transform="matrix( 2.815704345703125, 0, 0, 2.832611083984375, -0.85,16.6) ">
<use xlink:href="#Business_DM_Banners___200x200_psd_Asset_Awareness___Consumer_Goods_V1_fr1_Create_an_in_store_experience____0_Layer0_0_MEMBER_11_FILL"/>
</g>

<g transform="matrix( 2.815704345703125, 0, 0, 2.832611083984375, -0.85,16.6) ">
<use xlink:href="#Business_DM_Banners___200x200_psd_Asset_Awareness___Consumer_Goods_V1_fr1_Create_an_in_store_experience____0_Layer0_0_MEMBER_12_FILL"/>
</g>

<g transform="matrix( 2.815704345703125, 0, 0, 2.832611083984375, -0.85,16.6) ">
<use xlink:href="#Business_DM_Banners___200x200_psd_Asset_Awareness___Consumer_Goods_V1_fr1_Create_an_in_store_experience____0_Layer0_0_MEMBER_13_FILL"/>
</g>

<g transform="matrix( 2.815704345703125, 0, 0, 2.832611083984375, -0.85,16.6) ">
<use xlink:href="#Business_DM_Banners___200x200_psd_Asset_Awareness___Consumer_Goods_V1_fr1_Create_an_in_store_experience____0_Layer0_0_MEMBER_14_FILL"/>
</g>

<g transform="matrix( 2.815704345703125, 0, 0, 2.832611083984375, -0.85,16.6) ">
<use xlink:href="#Business_DM_Banners___200x200_psd_Asset_Awareness___Consumer_Goods_V1_fr1_Create_an_in_store_experience____0_Layer0_0_MEMBER_15_FILL"/>
</g>

<g transform="matrix( 2.815704345703125, 0, 0, 2.832611083984375, -0.85,16.6) ">
<use xlink:href="#Business_DM_Banners___200x200_psd_Asset_Awareness___Consumer_Goods_V1_fr1_Create_an_in_store_experience____0_Layer0_0_MEMBER_16_FILL"/>
</g>

<g transform="matrix( 2.815704345703125, 0, 0, 2.832611083984375, -0.85,16.6) ">
<use xlink:href="#Business_DM_Banners___200x200_psd_Asset_Awareness___Consumer_Goods_V1_fr1_Create_an_in_store_experience____0_Layer0_0_MEMBER_17_FILL"/>
</g>

<g transform="matrix( 2.815704345703125, 0, 0, 2.832611083984375, -0.85,16.6) ">
<use xlink:href="#Business_DM_Banners___200x200_psd_Asset_Awareness___Consumer_Goods_V1_fr1_Create_an_in_store_experience____0_Layer0_0_MEMBER_18_FILL"/>
</g>

<g transform="matrix( 2.815704345703125, 0, 0, 2.832611083984375, -0.85,16.6) ">
<use xlink:href="#Business_DM_Banners___200x200_psd_Asset_Awareness___Consumer_Goods_V1_fr1_Create_an_in_store_experience____0_Layer0_0_MEMBER_19_FILL"/>
</g>

<g transform="matrix( 2.815704345703125, 0, 0, 2.832611083984375, -0.85,16.6) ">
<use xlink:href="#Business_DM_Banners___200x200_psd_Asset_Awareness___Consumer_Goods_V1_fr1_Create_an_in_store_experience____0_Layer0_0_MEMBER_20_FILL"/>
</g>

<g transform="matrix( 2.815704345703125, 0, 0, 2.832611083984375, -0.85,16.6) ">
<use xlink:href="#Business_DM_Banners___200x200_psd_Asset_Awareness___Consumer_Goods_V1_fr1_Create_an_in_store_experience____0_Layer0_0_MEMBER_21_FILL"/>
</g>

<g transform="matrix( 2.815704345703125, 0, 0, 2.832611083984375, -0.85,16.6) ">
<use xlink:href="#Business_DM_Banners___200x200_psd_Asset_Awareness___Consumer_Goods_V1_fr1_Create_an_in_store_experience____0_Layer0_0_MEMBER_22_FILL"/>
</g>

<g transform="matrix( 2.815704345703125, 0, 0, 2.832611083984375, -0.85,16.6) ">
<use xlink:href="#Business_DM_Banners___200x200_psd_Asset_Awareness___Consumer_Goods_V1_fr1_Create_an_in_store_experience____0_Layer0_0_MEMBER_23_FILL"/>
</g>

<g transform="matrix( 2.815704345703125, 0, 0, 2.832611083984375, -0.85,16.6) ">
<use xlink:href="#Business_DM_Banners___200x200_psd_Asset_Awareness___Consumer_Goods_V1_fr1_Create_an_in_store_experience____0_Layer0_0_MEMBER_24_FILL"/>
</g>

<g transform="matrix( 2.815704345703125, 0, 0, 2.832611083984375, -0.85,16.6) ">
<use xlink:href="#Business_DM_Banners___200x200_psd_Asset_Awareness___Consumer_Goods_V1_fr1_Create_an_in_store_experience____0_Layer0_0_MEMBER_25_FILL"/>
</g>

<g transform="matrix( 2.815704345703125, 0, 0, 2.832611083984375, -0.85,16.6) ">
<use xlink:href="#Business_DM_Banners___200x200_psd_Asset_Awareness___Consumer_Goods_V1_fr1_Create_an_in_store_experience____0_Layer0_0_MEMBER_26_FILL"/>
</g>

<g transform="matrix( 2.815704345703125, 0, 0, 2.832611083984375, -0.85,16.6) ">
<use xlink:href="#Business_DM_Banners___200x200_psd_Asset_Awareness___Consumer_Goods_V1_fr1_Create_an_in_store_experience____0_Layer0_0_MEMBER_27_FILL"/>
</g>

<g transform="matrix( 2.815704345703125, 0, 0, 2.832611083984375, -0.85,16.6) ">
<use xlink:href="#Business_DM_Banners___200x200_psd_Asset_Awareness___Consumer_Goods_V1_fr1_Create_an_in_store_experience____0_Layer0_0_MEMBER_28_FILL"/>
</g>
</g>
</g>
</g>
</svg>
