
<svg xmlns="http://www.w3.org/2000/svg" version="1.1" xmlns:xlink="http://www.w3.org/1999/xlink" preserveAspectRatio="none" x="0px" y="0px" width="300px" height="250px" viewBox="0 0 300 250">
<defs>
<g id="IT_300x250_FR_psd_Asset_Awareness_Phase_IT_Decisions_Makers__V6_2_Les_administrateurs_des_TI_prennent__en_charge_plus_d_appareils_0_Layer0_0_MEMBER_0_FILL">
<path fill="#D82C26" stroke="none" d="
M 1 -4.5
L 0.6 -4.5 0.6 0 2.95 0 3 -0.35 1 -0.35 1 -4.5 Z"/>
</g>

<g id="IT_300x250_FR_psd_Asset_Awareness_Phase_IT_Decisions_Makers__V6_2_Les_administrateurs_des_TI_prennent__en_charge_plus_d_appareils_0_Layer0_0_MEMBER_1_FILL">
<path fill="#D82C26" stroke="none" d="
M 4.7 -3.05
Q 4.3 -3.05 3.95 -2.85 3.6 -2.65 3.45 -2.3 3.25 -2.05 3.25 -1.5 3.25 -0.95 3.45 -0.7 3.6 -0.35 4 -0.1 4.4 0.1 4.75 0.1 5.4 0.1 5.95 -0.3
L 5.9 -0.6 5.4 -0.35
Q 5.1 -0.2 4.8 -0.2 4.4 -0.2 4.2 -0.4 3.95 -0.55 3.75 -0.8 3.6 -1.1 3.6 -1.45
L 6.15 -1.45 6.15 -1.6
Q 6.15 -2 5.95 -2.35 5.75 -2.7 5.5 -2.85 5.15 -3.05 4.7 -3.05
M 4.15 -2.6
Q 4.45 -2.8 4.7 -2.8 5.2 -2.8 5.5 -2.5 5.75 -2.2 5.8 -1.7
L 3.6 -1.7
Q 3.6 -1.95 3.75 -2.2 3.95 -2.5 4.15 -2.6 Z"/>
</g>

<g id="IT_300x250_FR_psd_Asset_Awareness_Phase_IT_Decisions_Makers__V6_2_Les_administrateurs_des_TI_prennent__en_charge_plus_d_appareils_0_Layer0_0_MEMBER_2_FILL">
<path fill="#D82C26" stroke="none" d="
M 6.6 -0.55
L 6.55 -0.25
Q 6.75 -0.05 7 0
L 7.6 0.1 8.1 0 8.45 -0.3
Q 8.6 -0.5 8.6 -0.8 8.6 -1.15 8.4 -1.3 8.25 -1.45 7.7 -1.65
L 7.1 -1.9
Q 6.95 -2.05 6.95 -2.25 6.95 -2.5 7.1 -2.65 7.25 -2.75 7.6 -2.75
L 8 -2.7 8.35 -2.5 8.5 -2.75 8.1 -2.95
Q 7.95 -3.05 7.55 -3.05
L 7.1 -3 6.75 -2.7 6.6 -2.25
Q 6.6 -1.9 6.8 -1.75 7 -1.55 7.45 -1.4
L 8.05 -1.15
Q 8.25 -1 8.25 -0.75 8.25 -0.5 8.05 -0.35 7.85 -0.2 7.6 -0.2 7.05 -0.2 6.6 -0.55 Z"/>
</g>

<g id="IT_300x250_FR_psd_Asset_Awareness_Phase_IT_Decisions_Makers__V6_2_Les_administrateurs_des_TI_prennent__en_charge_plus_d_appareils_0_Layer0_0_MEMBER_3_FILL">
<path fill="#D82C26" stroke="none" d="
M 12.05 -1.8
L 11.7 -1.8
Q 10 -1.8 10 -0.8 10 -0.4 10.25 -0.15 10.6 0.1 10.95 0.1 11.35 0.1 11.6 -0.1 11.9 -0.25 12.05 -0.6
L 12.1 -0.25 12.1 0 12.45 0 12.4 -1.95
Q 12.4 -2.5 12.1 -2.8 11.75 -3.05 11.25 -3.05 10.85 -3.05 10.65 -2.95
L 10.15 -2.7 10.25 -2.4 10.7 -2.65
Q 10.9 -2.75 11.2 -2.75 11.65 -2.75 11.85 -2.55 12.05 -2.4 12.05 -1.95
L 12.05 -1.8
M 11.75 -1.55
L 12.05 -1.55 12.05 -1.25 11.95 -0.75 11.6 -0.35
Q 11.4 -0.2 11 -0.2 10.7 -0.2 10.55 -0.35 10.35 -0.5 10.35 -0.8 10.35 -1.55 11.75 -1.55 Z"/>
</g>

<g id="IT_300x250_FR_psd_Asset_Awareness_Phase_IT_Decisions_Makers__V6_2_Les_administrateurs_des_TI_prennent__en_charge_plus_d_appareils_0_Layer0_0_MEMBER_4_FILL">
<path fill="#D82C26" stroke="none" d="
M 13.75 -2.85
Q 13.3 -2.6 13.2 -2.3 13 -1.95 13 -1.5 13 -1.05 13.2 -0.7 13.35 -0.35 13.75 -0.1 14.15 0.1 14.5 0.1 14.8 0.1 15.2 -0.1 15.55 -0.3 15.7 -0.65
L 15.75 -0.65 15.75 0 16.1 0 16.1 -4.9 15.7 -4.8 15.7 -2.35
Q 15.5 -2.7 15.2 -2.85 14.95 -3.05 14.5 -3.05 14 -3.05 13.75 -2.85
M 14.55 -2.75
Q 14.95 -2.75 15.15 -2.6 15.45 -2.35 15.6 -2.1 15.75 -1.85 15.75 -1.5 15.75 -1.15 15.6 -0.85 15.45 -0.55 15.15 -0.4 14.95 -0.25 14.55 -0.25 14.2 -0.25 13.95 -0.4 13.6 -0.55 13.55 -0.85 13.4 -1.15 13.4 -1.5 13.4 -1.85 13.55 -2.1 13.6 -2.35 13.95 -2.6 14.2 -2.75 14.55 -2.75 Z"/>
</g>

<g id="IT_300x250_FR_psd_Asset_Awareness_Phase_IT_Decisions_Makers__V6_2_Les_administrateurs_des_TI_prennent__en_charge_plus_d_appareils_0_Layer0_0_MEMBER_5_FILL">
<path fill="#D82C26" stroke="none" d="
M 17.25 -2.95
L 16.9 -2.95 16.95 0 17.3 0 17.3 -1.5
Q 17.3 -1.85 17.45 -2.15 17.5 -2.35 17.75 -2.6 18 -2.75 18.25 -2.75 18.65 -2.75 18.8 -2.5 19 -2.25 19 -1.75
L 19 0 19.35 0 19.35 -1.55
Q 19.35 -2.1 19.65 -2.4 19.85 -2.75 20.3 -2.75 20.75 -2.75 20.9 -2.45 21.1 -2.2 21.1 -1.7
L 21.1 0 21.45 0 21.45 -1.8
Q 21.45 -2.4 21.2 -2.7 21 -3.05 20.4 -3.05 19.95 -3.05 19.75 -2.85 19.45 -2.7 19.3 -2.3 19.25 -2.65 18.95 -2.85 18.75 -3.05 18.35 -3.05 17.95 -3.05 17.7 -2.85 17.5 -2.7 17.3 -2.35
L 17.25 -2.95 Z"/>
</g>

<g id="IT_300x250_FR_psd_Asset_Awareness_Phase_IT_Decisions_Makers__V6_2_Les_administrateurs_des_TI_prennent__en_charge_plus_d_appareils_0_Layer0_0_MEMBER_6_FILL">
<path fill="#D82C26" stroke="none" d="
M 22.65 -2.95
L 22.25 -2.95 22.25 0 22.65 0 22.65 -2.95
M 22.25 -3.95
L 22.45 -3.9 22.65 -3.95 22.75 -4.15 22.65 -4.35 22.45 -4.45 22.25 -4.35 22.2 -4.15 22.25 -3.95 Z"/>
</g>

<g id="IT_300x250_FR_psd_Asset_Awareness_Phase_IT_Decisions_Makers__V6_2_Les_administrateurs_des_TI_prennent__en_charge_plus_d_appareils_0_Layer0_0_MEMBER_7_FILL">
<path fill="#D82C26" stroke="none" d="
M 23.8 -2.95
L 23.45 -2.95 23.5 0 23.85 0 23.85 -1.5
Q 23.85 -1.9 24 -2.2
L 24.35 -2.6
Q 24.6 -2.75 24.85 -2.75 25.3 -2.75 25.5 -2.45 25.65 -2.15 25.65 -1.7
L 25.65 0 26.05 0 26.05 -1.8
Q 26.05 -2.3 25.8 -2.7 25.5 -3.05 24.95 -3.05 24.55 -3.05 24.3 -2.85 24.05 -2.7 23.85 -2.35
L 23.8 -2.95 Z"/>
</g>

<g id="IT_300x250_FR_psd_Asset_Awareness_Phase_IT_Decisions_Makers__V6_2_Les_administrateurs_des_TI_prennent__en_charge_plus_d_appareils_0_Layer0_0_MEMBER_8_FILL">
<path fill="#D82C26" stroke="none" d="
M 27.25 -2.95
L 26.85 -2.95 26.85 0 27.25 0 27.25 -2.95
M 26.85 -3.95
L 27.05 -3.9 27.25 -3.95 27.3 -4.15 27.25 -4.35 27.05 -4.45 26.85 -4.35 26.75 -4.15 26.85 -3.95 Z"/>
</g>

<g id="IT_300x250_FR_psd_Asset_Awareness_Phase_IT_Decisions_Makers__V6_2_Les_administrateurs_des_TI_prennent__en_charge_plus_d_appareils_0_Layer0_0_MEMBER_9_FILL">
<path fill="#D82C26" stroke="none" d="
M 29.8 -2.75
L 29.4 -2.95
Q 29.25 -3.05 28.85 -3.05
L 28.4 -3 28.05 -2.7 27.9 -2.25
Q 27.9 -1.9 28.1 -1.75 28.3 -1.55 28.75 -1.4
L 29.35 -1.15
Q 29.55 -1 29.55 -0.75 29.55 -0.5 29.35 -0.35 29.2 -0.2 28.9 -0.2 28.35 -0.2 27.9 -0.55
L 27.85 -0.25
Q 28.05 -0.05 28.3 0
L 28.9 0.1 29.4 0 29.75 -0.3
Q 29.9 -0.5 29.9 -0.8 29.9 -1.15 29.7 -1.3 29.55 -1.45 29 -1.65
L 28.4 -1.9
Q 28.25 -2.05 28.25 -2.25 28.25 -2.5 28.4 -2.65 28.55 -2.75 28.9 -2.75
L 29.3 -2.7 29.65 -2.5 29.8 -2.75 Z"/>
</g>

<g id="IT_300x250_FR_psd_Asset_Awareness_Phase_IT_Decisions_Makers__V6_2_Les_administrateurs_des_TI_prennent__en_charge_plus_d_appareils_0_Layer0_0_MEMBER_10_FILL">
<path fill="#D82C26" stroke="none" d="
M 30.2 -2.95
L 30.15 -2.7 30.7 -2.7 30.7 -0.7
Q 30.7 -0.35 30.9 -0.15 31.05 0.05 31.4 0.05
L 31.75 0 32.05 -0.1 32 -0.35 31.5 -0.25
Q 31.3 -0.25 31.2 -0.35 31.05 -0.5 31.05 -0.75
L 31.05 -2.7 31.85 -2.7 31.9 -2.95 31.05 -2.95 31.05 -3.85 30.7 -3.7 30.7 -2.95 30.2 -2.95 Z"/>
</g>

<g id="IT_300x250_FR_psd_Asset_Awareness_Phase_IT_Decisions_Makers__V6_2_Les_administrateurs_des_TI_prennent__en_charge_plus_d_appareils_0_Layer0_0_MEMBER_11_FILL">
<path fill="#D82C26" stroke="none" d="
M 32.8 -2.95
L 32.4 -2.95 32.45 0 32.85 0 32.85 -1.5
Q 32.85 -2 33.05 -2.35 33.3 -2.75 33.65 -2.75
L 33.95 -2.7 34 -3 33.7 -3.05
Q 33.4 -3.05 33.2 -2.85 33 -2.75 32.8 -2.35
L 32.8 -2.95 Z"/>
</g>

<g id="IT_300x250_FR_psd_Asset_Awareness_Phase_IT_Decisions_Makers__V6_2_Les_administrateurs_des_TI_prennent__en_charge_plus_d_appareils_0_Layer0_0_MEMBER_12_FILL">
<path fill="#D82C26" stroke="none" d="
M 34.2 -0.8
Q 34.2 -0.35 34.45 -0.15 34.8 0.1 35.15 0.1 35.55 0.1 35.8 -0.1 36.1 -0.25 36.25 -0.6
L 36.25 -0.25 36.3 0 36.65 0 36.6 -1.95
Q 36.6 -2.5 36.3 -2.8 35.95 -3.05 35.45 -3.05 35.05 -3.05 34.85 -2.95
L 34.35 -2.7 34.45 -2.4
Q 34.65 -2.6 34.9 -2.65 35.05 -2.75 35.4 -2.75 35.8 -2.75 36 -2.55 36.25 -2.4 36.25 -1.95
L 36.25 -1.8 35.9 -1.8
Q 34.2 -1.8 34.2 -0.8
M 34.75 -0.35
Q 34.55 -0.5 34.55 -0.8 34.55 -1.55 35.95 -1.55
L 36.25 -1.55 36.25 -1.25 36.15 -0.75 35.8 -0.35
Q 35.5 -0.2 35.2 -0.2 34.9 -0.2 34.75 -0.35 Z"/>
</g>

<g id="IT_300x250_FR_psd_Asset_Awareness_Phase_IT_Decisions_Makers__V6_2_Les_administrateurs_des_TI_prennent__en_charge_plus_d_appareils_0_Layer0_0_MEMBER_13_FILL">
<path fill="#D82C26" stroke="none" d="
M 37.85 -3.85
L 37.45 -3.7 37.45 -2.95 37 -2.95 36.9 -2.7 37.5 -2.7 37.5 -0.7
Q 37.5 -0.35 37.65 -0.15 37.85 0.05 38.15 0.05
L 38.5 0 38.8 -0.1 38.75 -0.35 38.3 -0.25 37.95 -0.35 37.85 -0.75 37.85 -2.7 38.6 -2.7 38.7 -2.95 37.85 -2.95 37.85 -3.85 Z"/>
</g>

<g id="IT_300x250_FR_psd_Asset_Awareness_Phase_IT_Decisions_Makers__V6_2_Les_administrateurs_des_TI_prennent__en_charge_plus_d_appareils_0_Layer0_0_MEMBER_14_FILL">
<path fill="#D82C26" stroke="none" d="
M 40.4 -3.05
Q 39.9 -3.05 39.65 -2.85 39.35 -2.75 39.1 -2.3 38.9 -1.9 38.9 -1.5 38.9 -1.1 39.1 -0.7 39.3 -0.35 39.65 -0.1 40.15 0.1 40.45 0.1 41.1 0.1 41.65 -0.3
L 41.55 -0.6
Q 41.35 -0.4 41.1 -0.35 40.8 -0.2 40.5 -0.2 40.1 -0.2 39.85 -0.4
L 39.45 -0.8
Q 39.3 -1.1 39.3 -1.45
L 41.8 -1.45 41.8 -1.6 41.65 -2.35
Q 41.45 -2.7 41.15 -2.85 40.9 -3.05 40.4 -3.05
M 39.8 -2.6
Q 40.2 -2.8 40.4 -2.8 40.85 -2.8 41.15 -2.5 41.45 -2.2 41.45 -1.7
L 39.3 -1.7
Q 39.3 -1.95 39.45 -2.2 39.5 -2.4 39.8 -2.6 Z"/>
</g>

<g id="IT_300x250_FR_psd_Asset_Awareness_Phase_IT_Decisions_Makers__V6_2_Les_administrateurs_des_TI_prennent__en_charge_plus_d_appareils_0_Layer0_0_MEMBER_15_FILL">
<path fill="#D82C26" stroke="none" d="
M 42.4 -1.15
Q 42.4 -0.65 42.65 -0.25 43 0.1 43.5 0.1 43.75 0.1 44.15 -0.1 44.5 -0.35 44.55 -0.65
L 44.65 0 45 0 44.95 -0.35 44.95 -2.95 44.55 -2.95 44.55 -1.5
Q 44.55 -1 44.45 -0.8 44.3 -0.45 44.1 -0.35 43.9 -0.2 43.6 -0.2 43.1 -0.2 42.95 -0.5 42.75 -0.9 42.75 -1.25
L 42.75 -2.95 42.4 -2.95 42.4 -1.15 Z"/>
</g>

<g id="IT_300x250_FR_psd_Asset_Awareness_Phase_IT_Decisions_Makers__V6_2_Les_administrateurs_des_TI_prennent__en_charge_plus_d_appareils_0_Layer0_0_MEMBER_16_FILL">
<path fill="#D82C26" stroke="none" d="
M 47 -2.75
L 47.3 -2.7 47.35 -3 47.05 -3.05
Q 46.75 -3.05 46.55 -2.85 46.35 -2.75 46.15 -2.35
L 46.1 -2.95 45.75 -2.95 45.8 0 46.2 0 46.2 -1.5
Q 46.2 -2 46.4 -2.35 46.65 -2.75 47 -2.75 Z"/>
</g>

<g id="IT_300x250_FR_psd_Asset_Awareness_Phase_IT_Decisions_Makers__V6_2_Les_administrateurs_des_TI_prennent__en_charge_plus_d_appareils_0_Layer0_0_MEMBER_17_FILL">
<path fill="#D82C26" stroke="none" d="
M 47.6 -0.55
L 47.5 -0.25 48 0 48.6 0.1 49.1 0 49.45 -0.3
Q 49.6 -0.5 49.6 -0.8 49.6 -1.1 49.4 -1.3 49.25 -1.45 48.7 -1.65
L 48.1 -1.9
Q 47.95 -2.05 47.95 -2.25 47.95 -2.5 48.1 -2.65 48.25 -2.75 48.6 -2.75
L 49 -2.7 49.35 -2.5 49.5 -2.75 49.1 -2.95
Q 48.95 -3.05 48.55 -3.05
L 48.1 -3 47.7 -2.7 47.6 -2.25
Q 47.6 -1.9 47.8 -1.75 48 -1.55 48.4 -1.4
L 49.05 -1.15
Q 49.25 -1 49.25 -0.75 49.25 -0.5 49.05 -0.35 48.85 -0.2 48.6 -0.2 48.05 -0.2 47.6 -0.55 Z"/>
</g>

<g id="IT_300x250_FR_psd_Asset_Awareness_Phase_IT_Decisions_Makers__V6_2_Les_administrateurs_des_TI_prennent__en_charge_plus_d_appareils_0_Layer0_0_MEMBER_18_FILL">
<path fill="#D82C26" stroke="none" d="
M 54.05 -4.9
L 53.7 -4.8 53.7 -2.35 53.65 -2.35
Q 53.45 -2.7 53.15 -2.85 52.9 -3.05 52.45 -3.05 51.95 -3.05 51.7 -2.85 51.35 -2.65 51.15 -2.3 50.95 -1.8 50.95 -1.5 50.95 -1.2 51.15 -0.7 51.4 -0.3 51.7 -0.1 52.1 0.1 52.45 0.1 52.75 0.1 53.15 -0.1 53.5 -0.3 53.7 -0.65
L 53.75 0 54.1 0 54.05 -4.9
M 52.5 -2.75
Q 52.9 -2.75 53.1 -2.6 53.4 -2.35 53.55 -2.1 53.7 -1.85 53.7 -1.5 53.7 -1.15 53.55 -0.85 53.4 -0.55 53.1 -0.4 52.9 -0.25 52.5 -0.25 52.15 -0.25 51.9 -0.4 51.65 -0.5 51.5 -0.85 51.35 -1.15 51.35 -1.5 51.35 -1.85 51.5 -2.1 51.65 -2.4 51.9 -2.6 52.15 -2.75 52.5 -2.75 Z"/>
</g>

<g id="IT_300x250_FR_psd_Asset_Awareness_Phase_IT_Decisions_Makers__V6_2_Les_administrateurs_des_TI_prennent__en_charge_plus_d_appareils_0_Layer0_0_MEMBER_19_FILL">
<path fill="#D82C26" stroke="none" d="
M 54.9 -0.7
Q 55.05 -0.35 55.45 -0.1 55.85 0.1 56.2 0.1 56.9 0.1 57.4 -0.3
L 57.35 -0.6 56.85 -0.35
Q 56.55 -0.2 56.25 -0.2 55.85 -0.2 55.65 -0.4 55.4 -0.55 55.2 -0.8 55.05 -1.1 55.05 -1.45
L 57.6 -1.45 57.6 -1.6
Q 57.6 -2 57.4 -2.35 57.2 -2.7 56.95 -2.85 56.6 -3.05 56.15 -3.05 55.75 -3.05 55.4 -2.85 55.05 -2.65 54.9 -2.3 54.7 -2.05 54.7 -1.5 54.7 -0.95 54.9 -0.7
M 55.2 -2.2
Q 55.4 -2.5 55.6 -2.6 55.9 -2.8 56.15 -2.8 56.65 -2.8 56.95 -2.5 57.2 -2.2 57.25 -1.7
L 55.05 -1.7
Q 55.05 -1.95 55.2 -2.2 Z"/>
</g>

<g id="IT_300x250_FR_psd_Asset_Awareness_Phase_IT_Decisions_Makers__V6_2_Les_administrateurs_des_TI_prennent__en_charge_plus_d_appareils_0_Layer0_0_MEMBER_20_FILL">
<path fill="#D82C26" stroke="none" d="
M 58.05 -0.55
L 58 -0.25
Q 58.2 -0.05 58.45 0
L 59.05 0.1 59.55 0 59.9 -0.3
Q 60.05 -0.5 60.05 -0.8 60.05 -1.15 59.85 -1.3 59.7 -1.45 59.15 -1.65
L 58.55 -1.9
Q 58.4 -2.05 58.4 -2.25 58.4 -2.5 58.55 -2.65 58.7 -2.75 59.05 -2.75
L 59.45 -2.7 59.8 -2.5 59.95 -2.75 59.55 -2.95
Q 59.4 -3.05 59 -3.05
L 58.55 -3 58.2 -2.7 58.05 -2.25
Q 58.05 -1.9 58.25 -1.75 58.45 -1.55 58.9 -1.4
L 59.5 -1.15
Q 59.7 -1 59.7 -0.75 59.7 -0.5 59.5 -0.35 59.3 -0.2 59.05 -0.2 58.5 -0.2 58.05 -0.55 Z"/>
</g>

<g id="IT_300x250_FR_psd_Asset_Awareness_Phase_IT_Decisions_Makers__V6_2_Les_administrateurs_des_TI_prennent__en_charge_plus_d_appareils_0_Layer0_0_MEMBER_21_FILL">
<path fill="#D82C26" stroke="none" d="
M 61.1 -4.15
L 62.55 -4.15 62.55 0 62.9 0 62.9 -4.15 64.3 -4.15 64.35 -4.5 61.2 -4.5 61.1 -4.15 Z"/>
</g>

<g id="IT_300x250_FR_psd_Asset_Awareness_Phase_IT_Decisions_Makers__V6_2_Les_administrateurs_des_TI_prennent__en_charge_plus_d_appareils_0_Layer0_0_MEMBER_22_FILL">
<path fill="#D82C26" stroke="none" d="
M 65.2 -4.5
L 64.8 -4.5 64.8 0 65.2 0 65.2 -4.5 Z"/>
</g>

<g id="IT_300x250_FR_psd_Asset_Awareness_Phase_IT_Decisions_Makers__V6_2_Les_administrateurs_des_TI_prennent__en_charge_plus_d_appareils_0_Layer0_0_MEMBER_23_FILL">
<path fill="#D82C26" stroke="none" d="
M 68 -2.85
Q 67.7 -2.7 67.5 -2.35
L 67.45 -2.35 67.45 -2.95 67.1 -2.95 67.1 1.55 67.5 1.55 67.5 -0.65
Q 67.65 -0.3 68 -0.1 68.4 0.1 68.7 0.1 69.05 0.1 69.45 -0.1 69.85 -0.35 70 -0.7 70.2 -1.05 70.2 -1.5 70.2 -1.95 70 -2.3 69.9 -2.6 69.45 -2.85 69.2 -3.05 68.7 -3.05 68.25 -3.05 68 -2.85
M 67.6 -2.1
Q 67.75 -2.35 68.05 -2.6 68.3 -2.75 68.65 -2.75 69.05 -2.75 69.25 -2.6 69.5 -2.4 69.65 -2.1 69.8 -1.85 69.8 -1.5 69.8 -1.15 69.65 -0.85 69.5 -0.5 69.25 -0.4 69.05 -0.25 68.65 -0.25 68.3 -0.25 68.05 -0.4 67.75 -0.55 67.6 -0.85 67.45 -1.15 67.45 -1.5 67.45 -1.85 67.6 -2.1 Z"/>
</g>

<g id="IT_300x250_FR_psd_Asset_Awareness_Phase_IT_Decisions_Makers__V6_2_Les_administrateurs_des_TI_prennent__en_charge_plus_d_appareils_0_Layer0_0_MEMBER_24_FILL">
<path fill="#D82C26" stroke="none" d="
M 71.2 -2.35
L 71.15 -2.95 70.8 -2.95 70.85 0 71.2 0 71.2 -1.5
Q 71.2 -1.95 71.45 -2.35 71.7 -2.75 72.05 -2.75
L 72.3 -2.7 72.4 -3 72.05 -3.05
Q 71.8 -3.05 71.55 -2.85 71.4 -2.75 71.2 -2.35 Z"/>
</g>

<g id="IT_300x250_FR_psd_Asset_Awareness_Phase_IT_Decisions_Makers__V6_2_Les_administrateurs_des_TI_prennent__en_charge_plus_d_appareils_0_Layer0_0_MEMBER_25_FILL">
<path fill="#D82C26" stroke="none" d="
M 72.65 -0.7
Q 72.8 -0.35 73.2 -0.1 73.6 0.1 73.95 0.1 74.6 0.1 75.15 -0.3
L 75.1 -0.6 74.6 -0.35
Q 74.3 -0.2 74 -0.2 73.6 -0.2 73.4 -0.4 73.15 -0.55 72.95 -0.8 72.8 -1.1 72.8 -1.45
L 75.35 -1.45 75.35 -1.6
Q 75.35 -2 75.15 -2.35 74.95 -2.7 74.7 -2.85 74.35 -3.05 73.9 -3.05 73.5 -3.05 73.15 -2.85 72.8 -2.65 72.65 -2.3 72.45 -2.05 72.45 -1.5 72.45 -0.95 72.65 -0.7
M 72.95 -2.2
Q 73.15 -2.5 73.35 -2.6 73.65 -2.8 73.9 -2.8 74.4 -2.8 74.7 -2.5 74.95 -2.2 75 -1.7
L 72.8 -1.7
Q 72.8 -1.95 72.95 -2.2 Z"/>
</g>

<g id="IT_300x250_FR_psd_Asset_Awareness_Phase_IT_Decisions_Makers__V6_2_Les_administrateurs_des_TI_prennent__en_charge_plus_d_appareils_0_Layer0_0_MEMBER_26_FILL">
<path fill="#D82C26" stroke="none" d="
M 77.35 -2.75
Q 77.8 -2.75 77.95 -2.45 78.15 -2.2 78.15 -1.7
L 78.15 0 78.5 0 78.5 -1.8
Q 78.5 -2.4 78.25 -2.7 77.95 -3.05 77.4 -3.05 77 -3.05 76.75 -2.85 76.45 -2.7 76.35 -2.35
L 76.3 -2.35 76.3 -2.95 75.95 -2.95 75.95 0 76.35 0 76.35 -1.5 76.45 -2.2 76.85 -2.6
Q 77.1 -2.75 77.35 -2.75 Z"/>
</g>

<g id="IT_300x250_FR_psd_Asset_Awareness_Phase_IT_Decisions_Makers__V6_2_Les_administrateurs_des_TI_prennent__en_charge_plus_d_appareils_0_Layer0_0_MEMBER_27_FILL">
<path fill="#D82C26" stroke="none" d="
M 79.65 -2.95
L 79.3 -2.95 79.35 0 79.7 0 79.7 -1.5
Q 79.7 -1.9 79.85 -2.2 79.9 -2.4 80.2 -2.6 80.45 -2.75 80.7 -2.75 81.15 -2.75 81.3 -2.45 81.5 -2.2 81.5 -1.7
L 81.5 0 81.9 0 81.9 -1.8
Q 81.9 -2.3 81.6 -2.7 81.4 -3.05 80.75 -3.05 80.35 -3.05 80.1 -2.85 79.9 -2.75 79.7 -2.35
L 79.65 -2.95 Z"/>
</g>

<g id="IT_300x250_FR_psd_Asset_Awareness_Phase_IT_Decisions_Makers__V6_2_Les_administrateurs_des_TI_prennent__en_charge_plus_d_appareils_0_Layer0_0_MEMBER_28_FILL">
<path fill="#D82C26" stroke="none" d="
M 82.7 -0.7
Q 82.95 -0.3 83.25 -0.1 83.65 0.1 84 0.1 84.7 0.1 85.2 -0.3
L 85.15 -0.6 84.65 -0.35
Q 84.35 -0.2 84.05 -0.2 83.65 -0.2 83.45 -0.4 83.2 -0.55 83 -0.8 82.85 -1.1 82.85 -1.45
L 85.4 -1.45 85.4 -1.6
Q 85.4 -2 85.2 -2.35 85 -2.7 84.75 -2.85 84.4 -3.05 83.95 -3.05 83.55 -3.05 83.2 -2.85 82.85 -2.65 82.7 -2.3 82.5 -2.05 82.5 -1.5 82.5 -0.95 82.7 -0.7
M 83 -2.2
Q 83.2 -2.5 83.4 -2.6 83.7 -2.8 83.95 -2.8 84.45 -2.8 84.75 -2.5 85 -2.2 85.05 -1.7
L 82.85 -1.7
Q 82.85 -1.95 83 -2.2 Z"/>
</g>

<g id="IT_300x250_FR_psd_Asset_Awareness_Phase_IT_Decisions_Makers__V6_2_Les_administrateurs_des_TI_prennent__en_charge_plus_d_appareils_0_Layer0_0_MEMBER_29_FILL">
<path fill="#D82C26" stroke="none" d="
M 87.4 -2.75
Q 87.85 -2.75 88 -2.45 88.2 -2.2 88.2 -1.7
L 88.2 0 88.55 0 88.55 -1.8
Q 88.55 -2.4 88.3 -2.7 88 -3.05 87.45 -3.05 87.05 -3.05 86.8 -2.85 86.6 -2.75 86.4 -2.35
L 86.35 -2.95 86 -2.95 86 0 86.4 0 86.4 -1.5
Q 86.4 -1.9 86.55 -2.2 86.6 -2.4 86.9 -2.6 87.15 -2.75 87.4 -2.75 Z"/>
</g>

<g id="IT_300x250_FR_psd_Asset_Awareness_Phase_IT_Decisions_Makers__V6_2_Les_administrateurs_des_TI_prennent__en_charge_plus_d_appareils_0_Layer0_0_MEMBER_30_FILL">
<path fill="#D82C26" stroke="none" d="
M 89.8 -3.85
L 89.45 -3.7 89.45 -2.95 88.95 -2.95 88.9 -2.7 89.45 -2.7 89.45 -0.7
Q 89.45 -0.35 89.65 -0.15 89.8 0.05 90.15 0.05
L 90.45 0
Q 90.65 0 90.75 -0.1
L 90.7 -0.35 90.25 -0.25
Q 90.05 -0.25 89.95 -0.35 89.8 -0.5 89.8 -0.75
L 89.8 -2.7 90.6 -2.7 90.65 -2.95 89.8 -2.95 89.8 -3.85 Z"/>
</g>

<g id="IT_300x250_FR_psd_Asset_Awareness_Phase_IT_Decisions_Makers__V6_2_Les_administrateurs_des_TI_prennent__en_charge_plus_d_appareils_0_Layer0_0_MEMBER_31_FILL">
<path fill="#D82C26" stroke="none" d="
M 1.85 4.35
Q 1.35 4.35 1.1 4.55 0.75 4.75 0.55 5.1 0.35 5.45 0.35 5.9 0.35 6.4 0.55 6.75 0.75 7.1 1.1 7.3 1.45 7.5 1.9 7.5 2.65 7.5 3.05 7.15
L 3 6.8 2.5 7.1 1.9 7.2
Q 1.6 7.2 1.3 7.05 1.1 6.9 0.9 6.6 0.7 6.2 0.7 6
L 3.25 6 3.25 5.8
Q 3.25 5.4 3.1 5.1 2.85 4.65 2.6 4.55 2.35 4.35 1.85 4.35
M 1.25 4.8
Q 1.5 4.65 1.85 4.65 2.3 4.65 2.6 4.95 2.9 5.2 2.9 5.7
L 0.7 5.7 0.85 5.2 1.25 4.8 Z"/>
</g>

<g id="IT_300x250_FR_psd_Asset_Awareness_Phase_IT_Decisions_Makers__V6_2_Les_administrateurs_des_TI_prennent__en_charge_plus_d_appareils_0_Layer0_0_MEMBER_32_FILL">
<path fill="#D82C26" stroke="none" d="
M 6.15 4.7
Q 5.95 4.35 5.3 4.35 4.9 4.35 4.65 4.55 4.35 4.85 4.25 5.1
L 4.2 4.45 3.85 4.45 3.9 7.4 4.25 7.4 4.25 5.9
Q 4.25 5.5 4.4 5.25 4.45 5 4.75 4.8 5 4.65 5.25 4.65 5.7 4.65 5.85 4.95 6.05 5.2 6.05 5.7
L 6.05 7.4 6.45 7.4 6.45 5.6
Q 6.45 5.1 6.15 4.7 Z"/>
</g>

<g id="IT_300x250_FR_psd_Asset_Awareness_Phase_IT_Decisions_Makers__V6_2_Les_administrateurs_des_TI_prennent__en_charge_plus_d_appareils_0_Layer0_0_MEMBER_33_FILL">
<path fill="#D82C26" stroke="none" d="
M 10.6 4.7
Q 10.4 4.5 10.15 4.45
L 9.6 4.35
Q 9.15 4.35 8.8 4.55 8.45 4.75 8.25 5.1 8.05 5.45 8.05 5.95 8.05 6.4 8.25 6.75 8.35 7.05 8.8 7.3 9.15 7.5 9.6 7.5
L 10.15 7.4
Q 10.4 7.35 10.6 7.15
L 10.55 6.85 10.15 7.1 9.6 7.2
Q 9.3 7.2 9 7 8.7 6.85 8.55 6.55 8.45 6.35 8.45 5.95 8.45 5.5 8.55 5.3 8.7 5 9 4.85 9.2 4.65 9.6 4.65
L 10.05 4.75
Q 10.25 4.8 10.45 5
L 10.6 4.7 Z"/>
</g>

<g id="IT_300x250_FR_psd_Asset_Awareness_Phase_IT_Decisions_Makers__V6_2_Les_administrateurs_des_TI_prennent__en_charge_plus_d_appareils_0_Layer0_0_MEMBER_34_FILL">
<path fill="#D82C26" stroke="none" d="
M 11.45 2.55
L 11.1 2.6 11.1 7.4 11.45 7.4 11.45 5.95
Q 11.45 5.55 11.6 5.25 11.75 4.95 11.95 4.8 12.2 4.65 12.45 4.65 12.9 4.65 13.1 4.95 13.25 5.25 13.25 5.7
L 13.25 7.4 13.65 7.4 13.65 5.6
Q 13.65 5.1 13.35 4.7 13.15 4.35 12.55 4.35 12.15 4.35 11.9 4.55 11.6 4.7 11.5 5.05
L 11.45 5.05 11.45 2.55 Z"/>
</g>

<g id="IT_300x250_FR_psd_Asset_Awareness_Phase_IT_Decisions_Makers__V6_2_Les_administrateurs_des_TI_prennent__en_charge_plus_d_appareils_0_Layer0_0_MEMBER_35_FILL">
<path fill="#D82C26" stroke="none" d="
M 16.3 5.65
L 15.95 5.65
Q 14.25 5.65 14.25 6.6 14.25 7.15 14.5 7.25 14.85 7.5 15.2 7.5 15.55 7.5 15.85 7.35 16.15 7.1 16.3 6.85
L 16.3 7.15 16.35 7.4 16.7 7.4 16.65 5.5
Q 16.65 4.9 16.35 4.65 16.05 4.35 15.5 4.35
L 14.9 4.45 14.4 4.7 14.5 5
Q 14.7 4.8 14.95 4.75
L 15.45 4.65
Q 15.85 4.65 16.05 4.85 16.3 5.1 16.3 5.45
L 16.3 5.65
M 16.3 5.9
L 16.3 6.15 16.2 6.65 15.85 7.05
Q 15.55 7.2 15.25 7.2 14.95 7.2 14.8 7.05 14.6 6.9 14.6 6.6 14.6 5.9 16 5.9
L 16.3 5.9 Z"/>
</g>

<g id="IT_300x250_FR_psd_Asset_Awareness_Phase_IT_Decisions_Makers__V6_2_Les_administrateurs_des_TI_prennent__en_charge_plus_d_appareils_0_Layer0_0_MEMBER_36_FILL">
<path fill="#D82C26" stroke="none" d="
M 18.7 4.35
Q 18.4 4.35 18.2 4.55 17.9 4.75 17.85 5.1
L 17.8 5.1 17.8 4.45 17.45 4.45 17.45 7.4 17.85 7.4 17.85 5.95
Q 17.85 5.4 18.05 5.05 18.25 4.7 18.65 4.7
L 18.95 4.75 19 4.4 18.7 4.35 Z"/>
</g>

<g id="IT_300x250_FR_psd_Asset_Awareness_Phase_IT_Decisions_Makers__V6_2_Les_administrateurs_des_TI_prennent__en_charge_plus_d_appareils_0_Layer0_0_MEMBER_37_FILL">
<path fill="#D82C26" stroke="none" d="
M 22.15 4.45
L 21.8 4.45 21.8 5.1 21.75 5.1
Q 21.6 4.7 21.25 4.55 21 4.35 20.55 4.35 20.05 4.35 19.8 4.55 19.5 4.75 19.25 5.15 19.05 5.55 19.05 5.9 19.05 6.3 19.25 6.7 19.5 7.15 19.8 7.25 20.05 7.45 20.55 7.45 20.95 7.45 21.25 7.3 21.55 7.1 21.75 6.75
L 21.8 6.75 21.8 7.4
Q 21.8 8 21.5 8.3 21.2 8.65 20.55 8.65
L 19.9 8.55
Q 19.55 8.45 19.35 8.25
L 19.25 8.6 19.85 8.9 20.55 9
Q 21.4 9 21.75 8.55 22.15 8.05 22.15 7.35
L 22.15 4.45
M 20.6 4.65
Q 21 4.65 21.2 4.85 21.5 5 21.65 5.3 21.8 5.6 21.8 5.9 21.8 6.25 21.65 6.55 21.5 6.85 21.2 7 21 7.15 20.6 7.15 20.25 7.15 20 7 19.75 6.9 19.6 6.55 19.45 6.25 19.45 5.9 19.45 5.6 19.6 5.3 19.75 4.95 20 4.85 20.2 4.65 20.6 4.65 Z"/>
</g>

<g id="IT_300x250_FR_psd_Asset_Awareness_Phase_IT_Decisions_Makers__V6_2_Les_administrateurs_des_TI_prennent__en_charge_plus_d_appareils_0_Layer0_0_MEMBER_38_FILL">
<path fill="#D82C26" stroke="none" d="
M 25.65 5.8
Q 25.65 5.4 25.5 5.1 25.35 4.7 25 4.55 24.75 4.35 24.25 4.35 23.85 4.35 23.5 4.55 23.1 4.85 22.95 5.1 22.8 5.5 22.8 5.9 22.8 6.4 23 6.75 23.1 7 23.5 7.3 23.85 7.5 24.3 7.5 25 7.5 25.5 7.15
L 25.45 6.8 24.95 7.1 24.35 7.2
Q 24 7.2 23.7 7.05
L 23.3 6.6
Q 23.15 6.3 23.15 6
L 25.65 6 25.65 5.8
M 23.3 5.2
L 23.65 4.8
Q 23.95 4.65 24.25 4.65 24.8 4.65 25 4.95 25.3 5.2 25.3 5.7
L 23.15 5.7 23.3 5.2 Z"/>
</g>

<g id="IT_300x250_FR_psd_Asset_Awareness_Phase_IT_Decisions_Makers__V6_2_Les_administrateurs_des_TI_prennent__en_charge_plus_d_appareils_0_Layer0_0_MEMBER_39_FILL">
<path fill="#D82C26" stroke="none" d="
M 27.7 5.1
L 27.65 4.45 27.3 4.45 27.3 8.95 27.7 8.95 27.7 6.8
Q 27.85 7.15 28.2 7.3 28.45 7.5 28.9 7.5 29.35 7.5 29.7 7.3 30.05 7 30.2 6.7 30.4 6.45 30.4 5.95 30.4 5.45 30.2 5.1 30.05 4.8 29.7 4.55 29.35 4.35 28.9 4.35 28.45 4.35 28.2 4.55 27.85 4.75 27.7 5.1
M 29.85 5.3
Q 30 5.6 30 5.95 30 6.25 29.85 6.55 29.8 6.85 29.45 7 29.25 7.2 28.85 7.2 28.5 7.2 28.25 7 28 6.9 27.85 6.55 27.65 6.3 27.65 5.95 27.65 5.55 27.85 5.3 28 4.95 28.25 4.85 28.5 4.65 28.85 4.65 29.25 4.65 29.45 4.85 29.8 5 29.85 5.3 Z"/>
</g>

<g id="IT_300x250_FR_psd_Asset_Awareness_Phase_IT_Decisions_Makers__V6_2_Les_administrateurs_des_TI_prennent__en_charge_plus_d_appareils_0_Layer0_0_MEMBER_40_FILL">
<path fill="#D82C26" stroke="none" d="
M 31.15 7.25
L 31.5 7.5 31.7 7.15 31.45 7 31.4 6.65 31.4 2.55 31.05 2.65 31.05 6.75 31.15 7.25 Z"/>
</g>

<g id="IT_300x250_FR_psd_Asset_Awareness_Phase_IT_Decisions_Makers__V6_2_Les_administrateurs_des_TI_prennent__en_charge_plus_d_appareils_0_Layer0_0_MEMBER_41_FILL">
<path fill="#D82C26" stroke="none" d="
M 32.6 4.45
L 32.25 4.45 32.25 6.25
Q 32.25 6.85 32.5 7.15 32.7 7.5 33.3 7.5 33.75 7.5 34 7.3 34.25 7.1 34.4 6.75
L 34.45 7.4 34.85 7.4 34.75 6.7 34.75 4.45 34.4 4.45 34.4 5.9
Q 34.4 6.3 34.25 6.6 34.2 6.85 33.9 7.05 33.7 7.2 33.4 7.2 32.95 7.2 32.8 6.9 32.6 6.65 32.6 6.15
L 32.6 4.45 Z"/>
</g>

<g id="IT_300x250_FR_psd_Asset_Awareness_Phase_IT_Decisions_Makers__V6_2_Les_administrateurs_des_TI_prennent__en_charge_plus_d_appareils_0_Layer0_0_MEMBER_42_FILL">
<path fill="#D82C26" stroke="none" d="
M 36.45 4.35
L 35.95 4.45 35.6 4.7
Q 35.45 4.95 35.45 5.15 35.45 5.5 35.65 5.7
L 36.9 6.3
Q 37.1 6.45 37.1 6.65 37.1 6.9 36.9 7.05 36.75 7.2 36.45 7.2 35.85 7.2 35.45 6.85
L 35.4 7.15
Q 35.6 7.35 35.85 7.4
L 36.45 7.5 36.95 7.4
Q 37.2 7.3 37.35 7.1
L 37.45 6.65
Q 37.45 6.3 37.25 6.1 37.1 5.95 36.55 5.75
L 35.95 5.5
Q 35.8 5.35 35.8 5.15 35.8 4.9 36 4.75
L 36.45 4.65
Q 36.75 4.65 36.85 4.75
L 37.2 4.95 37.4 4.65 36.95 4.45 36.45 4.35 Z"/>
</g>

<g id="IT_300x250_FR_psd_Asset_Awareness_Phase_IT_Decisions_Makers__V6_2_Les_administrateurs_des_TI_prennent__en_charge_plus_d_appareils_0_Layer0_0_MEMBER_43_FILL">
<path fill="#D82C26" stroke="none" d="
M 41.95 2.55
L 41.55 2.6 41.55 5.1
Q 41.4 4.75 41.05 4.55 40.8 4.35 40.35 4.35 39.9 4.35 39.55 4.55 39.2 4.85 39.05 5.15 38.85 5.4 38.85 5.95 38.85 6.45 39.05 6.7 39.2 7 39.55 7.3 39.9 7.5 40.35 7.5 40.8 7.5 41.05 7.3 41.4 7.15 41.55 6.75
L 41.6 7.4 41.95 7.4 41.95 2.55
M 41.4 5.3
Q 41.55 5.6 41.55 5.95 41.55 6.25 41.4 6.55 41.25 6.85 41 7 40.75 7.2 40.4 7.2 40 7.2 39.75 7 39.5 6.85 39.35 6.55 39.2 6.25 39.2 5.95 39.2 5.6 39.35 5.3 39.5 5.05 39.75 4.85 40 4.65 40.4 4.65 40.75 4.65 41 4.85 41.25 5.05 41.4 5.3 Z"/>
</g>

<g id="IT_300x250_FR_psd_Asset_Awareness_Phase_IT_Decisions_Makers__V6_2_Les_administrateurs_des_TI_prennent__en_charge_plus_d_appareils_0_Layer0_0_MEMBER_44_FILL">
<path fill="#D82C26" stroke="none" d="
M 43.35 3
L 43.15 2.9 42.95 3
Q 42.85 3.05 42.85 3.2
L 42.9 3.4 43.1 3.5
Q 43.1 3.7 42.95 3.9
L 42.7 4.25 42.85 4.35
Q 43.4 3.8 43.4 3.25
L 43.35 3 Z"/>
</g>

<g id="IT_300x250_FR_psd_Asset_Awareness_Phase_IT_Decisions_Makers__V6_2_Les_administrateurs_des_TI_prennent__en_charge_plus_d_appareils_0_Layer0_0_MEMBER_45_FILL">
<path fill="#D82C26" stroke="none" d="
M 45.65 5.45
L 45.65 5.65 45.25 5.65
Q 43.55 5.65 43.55 6.6 43.55 7.1 43.85 7.25 44.2 7.5 44.5 7.5 44.9 7.5 45.2 7.35 45.5 7.1 45.65 6.85
L 45.65 7.15 45.7 7.4 46.05 7.4 46 5.5
Q 46 4.9 45.7 4.65 45.4 4.35 44.85 4.35
L 44.25 4.45 43.75 4.7 43.85 5
Q 44.05 4.8 44.3 4.75
L 44.8 4.65
Q 45.2 4.65 45.4 4.85 45.65 5.1 45.65 5.45
M 45.65 5.9
L 45.65 6.15
Q 45.65 6.45 45.5 6.65 45.45 6.85 45.15 7.05 44.95 7.2 44.6 7.2 44.35 7.2 44.1 7.05 43.9 6.85 43.9 6.6 43.9 5.9 45.3 5.9
L 45.65 5.9 Z"/>
</g>

<g id="IT_300x250_FR_psd_Asset_Awareness_Phase_IT_Decisions_Makers__V6_2_Les_administrateurs_des_TI_prennent__en_charge_plus_d_appareils_0_Layer0_0_MEMBER_46_FILL">
<path fill="#D82C26" stroke="none" d="
M 47.7 4.55
Q 47.35 4.7 47.2 5.1
L 47.15 5.1 47.15 4.45 46.75 4.45 46.8 5 46.8 8.95 47.15 8.95 47.15 6.8 47.2 6.8
Q 47.4 7.2 47.7 7.3 47.95 7.5 48.4 7.5 48.9 7.5 49.15 7.3 49.45 7.1 49.7 6.7 49.9 6.3 49.9 5.95 49.9 5.6 49.7 5.1 49.4 4.7 49.15 4.55 48.9 4.35 48.4 4.35 47.95 4.35 47.7 4.55
M 47.3 5.3
Q 47.45 5 47.75 4.85 47.95 4.65 48.35 4.65 48.7 4.65 48.95 4.85 49.2 4.95 49.35 5.3 49.5 5.6 49.5 5.95 49.5 6.25 49.35 6.55 49.2 6.9 48.95 7 48.7 7.2 48.35 7.2 47.95 7.2 47.75 7 47.45 6.85 47.3 6.55 47.15 6.25 47.15 5.95 47.15 5.6 47.3 5.3 Z"/>
</g>

<g id="IT_300x250_FR_psd_Asset_Awareness_Phase_IT_Decisions_Makers__V6_2_Les_administrateurs_des_TI_prennent__en_charge_plus_d_appareils_0_Layer0_0_MEMBER_47_FILL">
<path fill="#D82C26" stroke="none" d="
M 52.9 4.55
Q 52.55 4.35 52.1 4.35 51.65 4.35 51.4 4.55 51.05 4.75 50.9 5.1
L 50.85 4.45 50.5 4.45 50.5 8.95 50.9 8.95 50.9 6.8
Q 51.05 7.15 51.4 7.3 51.65 7.5 52.1 7.5 52.55 7.5 52.9 7.3 53.25 7 53.4 6.7 53.6 6.45 53.6 5.95 53.6 5.45 53.4 5.1 53.25 4.8 52.9 4.55
M 51.05 5.3
Q 51.2 4.95 51.45 4.85 51.7 4.65 52.05 4.65 52.45 4.65 52.65 4.85 52.95 5 53.1 5.3
L 53.2 5.95 53.1 6.55
Q 52.95 6.85 52.65 7 52.45 7.2 52.05 7.2 51.7 7.2 51.45 7 51.2 6.9 51.05 6.55 50.9 6.25 50.9 5.95 50.9 5.6 51.05 5.3 Z"/>
</g>

<g id="IT_300x250_FR_psd_Asset_Awareness_Phase_IT_Decisions_Makers__V6_2_Les_administrateurs_des_TI_prennent__en_charge_plus_d_appareils_0_Layer0_0_MEMBER_48_FILL">
<path fill="#D82C26" stroke="none" d="
M 56.1 5.65
L 55.75 5.65
Q 54.05 5.65 54.05 6.6 54.05 7.1 54.3 7.25 54.65 7.5 55 7.5 55.35 7.5 55.65 7.35 55.95 7.1 56.1 6.85
L 56.1 7.15 56.15 7.4 56.5 7.4 56.45 5.5
Q 56.45 4.9 56.15 4.65 55.85 4.35 55.3 4.35
L 54.7 4.45 54.2 4.7 54.3 5
Q 54.5 4.8 54.75 4.75
L 55.25 4.65
Q 55.65 4.65 55.85 4.85 56.1 5.1 56.1 5.45
L 56.1 5.65
M 56.1 5.9
L 56.1 6.15 56 6.65 55.65 7.05
Q 55.35 7.2 55.05 7.2 54.75 7.2 54.6 7.05 54.4 6.9 54.4 6.6 54.4 5.9 55.8 5.9
L 56.1 5.9 Z"/>
</g>

<g id="IT_300x250_FR_psd_Asset_Awareness_Phase_IT_Decisions_Makers__V6_2_Les_administrateurs_des_TI_prennent__en_charge_plus_d_appareils_0_Layer0_0_MEMBER_49_FILL">
<path fill="#D82C26" stroke="none" d="
M 57.6 4.45
L 57.25 4.45 57.25 7.4 57.65 7.4 57.65 5.95
Q 57.65 5.4 57.85 5.05 58.05 4.7 58.5 4.7
L 58.75 4.75 58.8 4.4 58.5 4.35
Q 58.2 4.35 58 4.55 57.7 4.75 57.65 5.1
L 57.6 5.1 57.6 4.45 Z"/>
</g>

<g id="IT_300x250_FR_psd_Asset_Awareness_Phase_IT_Decisions_Makers__V6_2_Les_administrateurs_des_TI_prennent__en_charge_plus_d_appareils_0_Layer0_0_MEMBER_50_FILL">
<path fill="#D82C26" stroke="none" d="
M 61.6 5.1
Q 61.45 4.75 61.1 4.55 60.85 4.35 60.35 4.35 59.85 4.35 59.6 4.55 59.25 4.75 59.05 5.1 58.85 5.6 58.85 5.9 58.85 6.25 59.05 6.75 59.25 7.1 59.6 7.3 59.95 7.5 60.4 7.5 61.1 7.5 61.6 7.15
L 61.5 6.8 61.05 7.1 60.4 7.2
Q 60.1 7.2 59.8 7.05
L 59.4 6.6
Q 59.25 6.3 59.25 6
L 61.75 6 61.75 5.8
Q 61.75 5.4 61.6 5.1
M 61.1 4.95
Q 61.4 5.2 61.4 5.7
L 59.25 5.7 59.4 5.2
Q 59.45 5 59.75 4.8 60 4.65 60.35 4.65 60.8 4.65 61.1 4.95 Z"/>
</g>

<g id="IT_300x250_FR_psd_Asset_Awareness_Phase_IT_Decisions_Makers__V6_2_Les_administrateurs_des_TI_prennent__en_charge_plus_d_appareils_0_Layer0_0_MEMBER_51_FILL">
<path fill="#D82C26" stroke="none" d="
M 62.75 4.45
L 62.4 4.45 62.4 7.4 62.75 7.4 62.75 4.45
M 62.55 3
L 62.4 3.05
Q 62.3 3.1 62.3 3.25 62.3 3.4 62.4 3.45
L 62.55 3.5 62.75 3.45 62.85 3.25 62.75 3.05 62.55 3 Z"/>
</g>

<g id="IT_300x250_FR_psd_Asset_Awareness_Phase_IT_Decisions_Makers__V6_2_Les_administrateurs_des_TI_prennent__en_charge_plus_d_appareils_0_Layer0_0_MEMBER_52_FILL">
<path fill="#D82C26" stroke="none" d="
M 63.7 7.25
L 64.05 7.5 64.25 7.15 64.05 7 63.95 6.65 63.95 2.55 63.6 2.65 63.6 6.75 63.7 7.25 Z"/>
</g>

<g id="IT_300x250_FR_psd_Asset_Awareness_Phase_IT_Decisions_Makers__V6_2_Les_administrateurs_des_TI_prennent__en_charge_plus_d_appareils_0_Layer0_0_MEMBER_53_FILL">
<path fill="#D82C26" stroke="none" d="
M 66.65 4.65
L 66.25 4.45 65.7 4.35 65.25 4.45 64.85 4.7
Q 64.7 4.95 64.7 5.15 64.7 5.45 64.95 5.7
L 66.2 6.3
Q 66.4 6.5 66.4 6.65 66.4 6.85 66.2 7.05 66 7.2 65.7 7.2 65.1 7.2 64.75 6.85
L 64.65 7.15 65.15 7.4 65.75 7.5 66.25 7.4
Q 66.45 7.35 66.6 7.1
L 66.75 6.65
Q 66.75 6.35 66.5 6.1 66.3 5.9 65.85 5.75
L 65.25 5.5
Q 65.05 5.3 65.05 5.15 65.05 4.95 65.25 4.75
L 65.7 4.65
Q 66 4.65 66.15 4.75
L 66.5 4.95 66.65 4.65 Z"/>
</g>

<g id="IT_300x250_FR_psd_Asset_Awareness_Phase_IT_Decisions_Makers__V6_2_Les_administrateurs_des_TI_prennent__en_charge_plus_d_appareils_0_Layer0_0_MEMBER_54_FILL">
<path fill="#D82C26" stroke="none" d="
M 67.9 7.1
L 67.85 6.8 67.65 6.75 67.45 6.8 67.35 7 67.45 7.2 67.6 7.3
Q 67.6 7.55 67.45 7.7
L 67.2 8.05 67.35 8.15
Q 67.9 7.6 67.9 7.1 Z"/>
</g>

<g id="IT_300x250_FR_psd_Asset_Awareness_Phase_IT_Decisions_Makers__V6_2_Les_administrateurs_des_TI_prennent__en_charge_plus_d_appareils_0_Layer0_0_MEMBER_55_FILL">
<path fill="#D82C26" stroke="none" d="
M 71.7 4.55
Q 71.45 4.35 71 4.35 70.55 4.35 70.2 4.55 69.85 4.85 69.7 5.15 69.5 5.4 69.5 5.95 69.5 6.45 69.7 6.7 69.85 7 70.2 7.3 70.55 7.5 71 7.5 71.45 7.5 71.7 7.3 72.05 7.15 72.2 6.75
L 72.25 7.4 72.6 7.4 72.55 2.55 72.2 2.6 72.2 5.1
Q 71.95 4.65 71.7 4.55
M 72.05 5.3
Q 72.2 5.6 72.2 5.95 72.2 6.25 72.05 6.55 71.9 6.85 71.65 7 71.4 7.2 71.05 7.2 70.65 7.2 70.4 7 70.15 6.85 70 6.55 69.85 6.25 69.85 5.95 69.85 5.6 70 5.3 70.15 5.05 70.4 4.85 70.65 4.65 71.05 4.65 71.4 4.65 71.65 4.85 71.9 5.05 72.05 5.3 Z"/>
</g>

<g id="IT_300x250_FR_psd_Asset_Awareness_Phase_IT_Decisions_Makers__V6_2_Les_administrateurs_des_TI_prennent__en_charge_plus_d_appareils_0_Layer0_0_MEMBER_56_FILL">
<path fill="#D82C26" stroke="none" d="
M 76.1 5.8
Q 76.1 5.4 75.95 5.1 75.8 4.75 75.45 4.55 75.2 4.35 74.7 4.35 74.2 4.35 73.95 4.55 73.6 4.75 73.4 5.1 73.2 5.6 73.2 5.9 73.2 6.25 73.4 6.75 73.55 7 73.95 7.3 74.3 7.5 74.75 7.5 75.45 7.5 75.95 7.15
L 75.85 6.8 75.4 7.1 74.75 7.2
Q 74.45 7.2 74.15 7.05
L 73.75 6.6
Q 73.6 6.3 73.6 6
L 76.1 6 76.1 5.8
M 75.75 5.7
L 73.6 5.7 73.75 5.2
Q 73.8 5 74.1 4.8 74.35 4.65 74.7 4.65 75.15 4.65 75.45 4.95 75.75 5.2 75.75 5.7 Z"/>
</g>

<g id="IT_300x250_FR_psd_Asset_Awareness_Phase_IT_Decisions_Makers__V6_2_Les_administrateurs_des_TI_prennent__en_charge_plus_d_appareils_0_Layer0_0_MEMBER_57_FILL">
<path fill="#D82C26" stroke="none" d="
M 0.9 11.85
L 0.55 11.85 0.6 14.85 0.95 14.85 0.95 13.35
Q 0.95 12.95 1.1 12.65 1.25 12.3 1.45 12.25 1.6 12.1 1.9 12.1 2.35 12.1 2.45 12.35 2.65 12.55 2.65 13.05
L 2.65 14.85 3.05 14.85 3.05 13.3
Q 3.05 12.7 3.3 12.4 3.55 12.1 3.95 12.1 4.4 12.1 4.55 12.4 4.75 12.65 4.75 13.15
L 4.75 14.85 5.1 14.85 5.1 13.05
Q 5.1 12.4 4.85 12.15 4.6 11.75 4.05 11.75 3.8 11.75 3.4 11.95 3.1 12.2 2.95 12.55 2.9 12.25 2.6 11.95 2.3 11.75 2 11.75 1.75 11.75 1.35 11.95 1.05 12.25 0.95 12.5
L 0.9 11.85 Z"/>
</g>

<g id="IT_300x250_FR_psd_Asset_Awareness_Phase_IT_Decisions_Makers__V6_2_Les_administrateurs_des_TI_prennent__en_charge_plus_d_appareils_0_Layer0_0_MEMBER_58_FILL">
<path fill="#D82C26" stroke="none" d="
M 6.95 12.05
Q 7.25 12.05 7.55 12.25 7.8 12.5 7.8 12.85
L 7.8 13.05 7.4 13.05
Q 5.7 13.05 5.7 14.05 5.7 14.5 6 14.7 6.25 14.9 6.65 14.9 7.05 14.9 7.35 14.75 7.6 14.6 7.8 14.25
L 7.8 14.55 7.85 14.85 8.2 14.85 8.15 12.9
Q 8.15 12.35 7.85 12.05 7.55 11.75 7 11.75
L 6.4 11.85
Q 6.05 11.95 5.9 12.15
L 6 12.45
Q 6.1 12.35 6.45 12.15
L 6.95 12.05
M 7.8 13.6
L 7.65 14.1
Q 7.6 14.25 7.3 14.45 7.1 14.65 6.75 14.65 6.5 14.65 6.25 14.5 6.05 14.3 6.05 14 6.05 13.3 7.45 13.3
L 7.8 13.3 7.8 13.6 Z"/>
</g>

<g id="IT_300x250_FR_psd_Asset_Awareness_Phase_IT_Decisions_Makers__V6_2_Les_administrateurs_des_TI_prennent__en_charge_plus_d_appareils_0_Layer0_0_MEMBER_59_FILL">
<path fill="#D82C26" stroke="none" d="
M 10.15 12.15
L 10.25 11.85 9.4 11.85 9.4 11 9 11.15 9 11.85 8.55 11.85 8.45 12.15 9 12.15 9 14.1
Q 9 14.4 9.2 14.7 9.5 14.9 9.7 14.9
L 10.05 14.85 10.35 14.75 10.3 14.45 9.8 14.6 9.5 14.45
Q 9.4 14.35 9.4 14.05
L 9.4 12.15 10.15 12.15 Z"/>
</g>

<g id="IT_300x250_FR_psd_Asset_Awareness_Phase_IT_Decisions_Makers__V6_2_Les_administrateurs_des_TI_prennent__en_charge_plus_d_appareils_0_Layer0_0_MEMBER_60_FILL">
<path fill="#D82C26" stroke="none" d="
M 11.95 11.75
Q 11.45 11.75 11.2 11.95 10.95 12.1 10.65 12.5 10.45 13 10.45 13.3 10.45 13.65 10.65 14.15 10.9 14.6 11.2 14.7 11.55 14.9 12 14.9 12.75 14.9 13.15 14.55
L 13.1 14.2
Q 12.95 14.4 12.65 14.5
L 12 14.6
Q 11.7 14.6 11.4 14.45 11.15 14.35 11 14
L 10.8 13.4 13.35 13.4 13.35 13.25
Q 13.35 12.8 13.2 12.5 13.1 12.25 12.7 11.95 12.45 11.75 11.95 11.75
M 11.95 12.05
Q 12.4 12.05 12.7 12.35 13 12.65 13 13.1
L 10.85 13.1 10.95 12.65
Q 11 12.55 11.35 12.2 11.6 12.05 11.95 12.05
M 12.3 10.3
L 11.65 11.25 12 11.25 12.75 10.3 12.3 10.3 Z"/>
</g>

<g id="IT_300x250_FR_psd_Asset_Awareness_Phase_IT_Decisions_Makers__V6_2_Les_administrateurs_des_TI_prennent__en_charge_plus_d_appareils_0_Layer0_0_MEMBER_61_FILL">
<path fill="#D82C26" stroke="none" d="
M 14.3 11.85
L 13.95 11.85 14 14.85 14.35 14.85 14.35 13.35
Q 14.35 12.85 14.6 12.45 14.8 12.1 15.2 12.1
L 15.45 12.15 15.55 11.8 15.2 11.75
Q 15.1 11.75 14.7 11.95 14.5 12.15 14.35 12.5
L 14.3 11.85 Z"/>
</g>

<g id="IT_300x250_FR_psd_Asset_Awareness_Phase_IT_Decisions_Makers__V6_2_Les_administrateurs_des_TI_prennent__en_charge_plus_d_appareils_0_Layer0_0_MEMBER_62_FILL">
<path fill="#D82C26" stroke="none" d="
M 16.3 11.85
L 15.95 11.85 15.95 14.85 16.3 14.85 16.3 11.85
M 16.4 10.65
L 16.3 10.45 16.1 10.4 15.95 10.45 15.85 10.65 15.95 10.85 16.1 10.95 16.3 10.85 16.4 10.65 Z"/>
</g>

<g id="IT_300x250_FR_psd_Asset_Awareness_Phase_IT_Decisions_Makers__V6_2_Les_administrateurs_des_TI_prennent__en_charge_plus_d_appareils_0_Layer0_0_MEMBER_63_FILL">
<path fill="#D82C26" stroke="none" d="
M 18.4 11.75
Q 18 11.75 17.65 11.95 17.3 12.2 17.15 12.5 16.95 12.85 16.95 13.3 16.95 13.8 17.15 14.15 17.3 14.55 17.7 14.7 17.95 14.9 18.45 14.9 19.25 14.9 19.65 14.55
L 19.6 14.2
Q 19.35 14.45 19.1 14.5
L 18.5 14.6
Q 18.15 14.6 17.9 14.45 17.6 14.3 17.45 14 17.3 13.7 17.3 13.4
L 19.85 13.4 19.85 13.25
Q 19.85 12.75 19.65 12.5 19.55 12.2 19.2 11.95 18.85 11.75 18.4 11.75
M 18.4 12.05
Q 18.9 12.05 19.2 12.35 19.45 12.65 19.5 13.1
L 17.3 13.1
Q 17.3 12.9 17.45 12.65 17.55 12.4 17.85 12.2 18.1 12.05 18.4 12.05 Z"/>
</g>

<g id="IT_300x250_FR_psd_Asset_Awareness_Phase_IT_Decisions_Makers__V6_2_Les_administrateurs_des_TI_prennent__en_charge_plus_d_appareils_0_Layer0_0_MEMBER_64_FILL">
<path fill="#D82C26" stroke="none" d="
M 20.6 14.65
Q 20.8 14.85 20.95 14.9
L 21.1 14.6 20.9 14.4 20.85 14.1 20.85 10 20.45 10.05 20.45 14.15
Q 20.45 14.45 20.6 14.65 Z"/>
</g>

<g id="IT_300x250_FR_psd_Asset_Awareness_Phase_IT_Decisions_Makers__V6_2_Les_administrateurs_des_TI_prennent__en_charge_plus_d_appareils_0_Layer0_0_MEMBER_65_FILL">
<path fill="#D82C26" stroke="none" d="
M 21.95 14.7
L 21.8 15.15 21.55 15.5 21.65 15.6
Q 22.25 15 22.25 14.5
L 22.15 14.25
Q 22.1 14.15 21.95 14.15
L 21.75 14.2 21.7 14.45 21.75 14.65 21.95 14.7 Z"/>
</g>

<g id="IT_300x250_FR_psd_Asset_Awareness_Phase_IT_Decisions_Makers__V6_2_Les_administrateurs_des_TI_prennent__en_charge_plus_d_appareils_0_Layer0_0_MEMBER_66_FILL">
<path fill="#D82C26" stroke="none" d="
M 25.3 11.75
Q 24.95 11.75 24.55 11.95 24.25 12.15 24 12.55 23.85 12.95 23.85 13.35 23.85 13.8 24 14.15 24.2 14.5 24.55 14.7 24.8 14.9 25.3 14.9 25.7 14.9 26.05 14.7 26.25 14.6 26.55 14.2
L 26.6 14.85 26.95 14.85 26.9 9.95 26.55 10 26.55 12.5
Q 26.35 12.15 26 11.95 25.6 11.75 25.3 11.75
M 25.35 12.1
Q 25.7 12.1 26 12.25 26.25 12.45 26.4 12.7 26.55 13 26.55 13.35 26.55 13.75 26.4 13.95 26.3 14.15 26 14.45 25.7 14.6 25.35 14.6 25.05 14.6 24.75 14.45 24.5 14.25 24.35 13.95 24.2 13.75 24.2 13.35 24.2 13 24.35 12.7 24.5 12.35 24.75 12.25 25.05 12.1 25.35 12.1 Z"/>
</g>

<g id="IT_300x250_FR_psd_Asset_Awareness_Phase_IT_Decisions_Makers__V6_2_Les_administrateurs_des_TI_prennent__en_charge_plus_d_appareils_0_Layer0_0_MEMBER_67_FILL">
<path fill="#D82C26" stroke="none" d="
M 29 11.75
Q 28.6 11.75 28.25 11.95 27.9 12.2 27.75 12.5 27.55 12.85 27.55 13.3 27.55 13.8 27.75 14.15 28 14.6 28.3 14.7 28.55 14.9 29.1 14.9 29.85 14.9 30.25 14.55
L 30.2 14.2
Q 29.95 14.45 29.7 14.5
L 29.1 14.6
Q 28.75 14.6 28.5 14.45 28.2 14.3 28.05 14 27.9 13.7 27.9 13.4
L 30.45 13.4 30.45 13.25
Q 30.45 12.8 30.3 12.5 30.1 12.2 29.8 11.95 29.55 11.75 29 11.75
M 29 12.05
Q 29.5 12.05 29.8 12.35 30.1 12.65 30.1 13.1
L 27.9 13.1 28.05 12.65
Q 28.15 12.4 28.45 12.2 28.7 12.05 29 12.05 Z"/>
</g>

<g id="IT_300x250_FR_psd_Asset_Awareness_Phase_IT_Decisions_Makers__V6_2_Les_administrateurs_des_TI_prennent__en_charge_plus_d_appareils_0_Layer0_0_MEMBER_68_FILL">
<path fill="#D82C26" stroke="none" d="
M 32.2 14.65
L 32.55 14.9 32.75 14.6 32.5 14.4 32.45 14.1 32.45 10 32.1 10.05 32.1 14.15 32.2 14.65 Z"/>
</g>

<g id="IT_300x250_FR_psd_Asset_Awareness_Phase_IT_Decisions_Makers__V6_2_Les_administrateurs_des_TI_prennent__en_charge_plus_d_appareils_0_Layer0_0_MEMBER_69_FILL">
<path fill="#D82C26" stroke="none" d="
M 34.7 11.75
Q 34.15 11.75 33.9 11.95 33.55 12.15 33.3 12.5 33.1 13 33.1 13.35 33.1 13.65 33.3 14.15 33.55 14.55 33.9 14.7 34.15 14.9 34.7 14.9 35.15 14.9 35.5 14.7 35.85 14.55 36.1 14.15 36.3 13.65 36.3 13.35 36.3 13 36.1 12.5 35.85 12.15 35.5 11.95 35.15 11.75 34.7 11.75
M 34.7 12.1
Q 35.05 12.1 35.35 12.25 35.6 12.45 35.75 12.7 35.9 13 35.9 13.35 35.9 13.65 35.75 13.95
L 35.35 14.45
Q 35.05 14.6 34.7 14.6 34.35 14.6 34.05 14.45 33.8 14.25 33.65 13.95 33.5 13.65 33.5 13.35 33.5 13 33.65 12.7 33.8 12.35 34.05 12.25 34.35 12.1 34.7 12.1 Z"/>
</g>

<g id="IT_300x250_FR_psd_Asset_Awareness_Phase_IT_Decisions_Makers__V6_2_Les_administrateurs_des_TI_prennent__en_charge_plus_d_appareils_0_Layer0_0_MEMBER_70_FILL">
<path fill="#D82C26" stroke="none" d="
M 38.2 11.75
Q 37.85 11.75 37.45 11.95 37.15 12.15 36.9 12.55 36.75 12.95 36.75 13.35 36.75 13.8 36.9 14.15 37.2 14.55 37.45 14.7 37.85 14.9 38.2 14.9 38.45 14.9 38.95 14.7 39.25 14.45 39.45 14.15
L 39.45 14.8
Q 39.45 15.4 39.15 15.75 38.85 16.05 38.2 16.05 37.8 16.05 37.55 15.95
L 37 15.7 36.9 16.05 37.5 16.3 38.25 16.4
Q 39.05 16.4 39.4 15.95 39.8 15.55 39.8 14.8
L 39.85 11.85 39.5 11.85 39.45 12.5
Q 39.25 12.2 38.95 11.95 38.45 11.75 38.2 11.75
M 38.25 12.1
Q 38.6 12.1 38.9 12.25 39.15 12.45 39.3 12.7 39.45 13 39.45 13.35 39.45 13.65 39.3 13.95 39.15 14.25 38.9 14.4 38.5 14.6 38.25 14.6 38.05 14.6 37.65 14.4 37.4 14.25 37.25 13.95 37.1 13.65 37.1 13.35 37.1 13 37.25 12.7 37.4 12.45 37.65 12.25 37.95 12.1 38.25 12.1 Z"/>
</g>

<g id="IT_300x250_FR_psd_Asset_Awareness_Phase_IT_Decisions_Makers__V6_2_Les_administrateurs_des_TI_prennent__en_charge_plus_d_appareils_0_Layer0_0_MEMBER_71_FILL">
<path fill="#D82C26" stroke="none" d="
M 41 11.85
L 40.65 11.85 40.65 14.85 41 14.85 41 11.85
M 41.1 10.65
L 41 10.45 40.85 10.4 40.65 10.45 40.55 10.65 40.65 10.85 40.85 10.95 41 10.85 41.1 10.65 Z"/>
</g>

<g id="IT_300x250_FR_psd_Asset_Awareness_Phase_IT_Decisions_Makers__V6_2_Les_administrateurs_des_TI_prennent__en_charge_plus_d_appareils_0_Layer0_0_MEMBER_72_FILL">
<path fill="#D82C26" stroke="none" d="
M 43.2 11.75
Q 42.9 11.75 42.4 11.95 42.05 12.2 41.85 12.55 41.65 12.8 41.65 13.35 41.65 13.8 41.85 14.15 42.1 14.6 42.4 14.7 42.75 14.9 43.2 14.9 43.6 14.9 43.8 14.8
L 44.2 14.55 44.15 14.25 43.75 14.5 43.25 14.6
Q 42.85 14.6 42.6 14.4 42.35 14.3 42.2 13.95 42.05 13.75 42.05 13.35 42.05 13 42.2 12.7 42.35 12.35 42.6 12.25 42.9 12.1 43.2 12.1
L 43.7 12.15
Q 43.85 12.2 44.05 12.4
L 44.2 12.1 43.8 11.85 43.2 11.75 Z"/>
</g>

<g id="IT_300x250_FR_psd_Asset_Awareness_Phase_IT_Decisions_Makers__V6_2_Les_administrateurs_des_TI_prennent__en_charge_plus_d_appareils_0_Layer0_0_MEMBER_73_FILL">
<path fill="#D82C26" stroke="none" d="
M 45.1 11.85
L 44.7 11.85 44.7 14.85 45.1 14.85 45.1 11.85
M 45.15 10.65
Q 45.15 10.5 45.05 10.45
L 44.9 10.4 44.7 10.45 44.6 10.65 44.7 10.85 44.9 10.95 45.05 10.85
Q 45.15 10.8 45.15 10.65 Z"/>
</g>

<g id="IT_300x250_FR_psd_Asset_Awareness_Phase_IT_Decisions_Makers__V6_2_Les_administrateurs_des_TI_prennent__en_charge_plus_d_appareils_0_Layer0_0_MEMBER_74_FILL">
<path fill="#D82C26" stroke="none" d="
M 47.2 11.75
Q 46.7 11.75 46.45 11.95 46.2 12.1 45.9 12.5 45.7 13 45.7 13.3 45.7 13.65 45.9 14.15 46.15 14.6 46.45 14.7 46.8 14.9 47.25 14.9 47.95 14.9 48.45 14.55
L 48.35 14.2
Q 48.2 14.4 47.9 14.5
L 47.25 14.6
Q 46.95 14.6 46.65 14.45 46.4 14.3 46.25 14 46.1 13.7 46.1 13.4
L 48.6 13.4 48.6 13.25
Q 48.6 12.8 48.45 12.5 48.35 12.25 47.95 11.95 47.7 11.75 47.2 11.75
M 47.2 12.05
Q 47.65 12.05 47.95 12.35 48.25 12.65 48.25 13.1
L 46.1 13.1
Q 46.1 12.9 46.25 12.65 46.3 12.5 46.6 12.2 46.85 12.05 47.2 12.05 Z"/>
</g>

<g id="IT_300x250_FR_psd_Asset_Awareness_Phase_IT_Decisions_Makers__V6_2_Les_administrateurs_des_TI_prennent__en_charge_plus_d_appareils_0_Layer0_0_MEMBER_75_FILL">
<path fill="#D82C26" stroke="none" d="
M 49.35 14.65
L 49.7 14.9 49.9 14.6 49.65 14.4 49.6 14.1 49.6 10 49.25 10.05 49.25 14.15 49.35 14.65 Z"/>
</g>

<g id="IT_300x250_FR_psd_Asset_Awareness_Phase_IT_Decisions_Makers__V6_2_Les_administrateurs_des_TI_prennent__en_charge_plus_d_appareils_0_Layer0_0_MEMBER_76_FILL">
<path fill="#D82C26" stroke="none" d="
M 51.35 11.75
L 50.9 11.85
Q 50.65 11.95 50.5 12.15 50.35 12.3 50.35 12.6 50.35 12.85 50.6 13.1
L 51.85 13.7
Q 52.05 13.9 52.05 14.05 52.05 14.25 51.85 14.45 51.65 14.6 51.35 14.6 50.75 14.6 50.4 14.25
L 50.3 14.6 50.75 14.8
Q 50.95 14.9 51.4 14.9 51.7 14.9 51.85 14.8 52.1 14.75 52.25 14.5 52.4 14.35 52.4 14.05 52.4 13.75 52.15 13.5 51.75 13.25 51.5 13.15 51.1 13.1 50.9 12.9 50.7 12.7 50.7 12.55 50.7 12.3 50.9 12.2 51.15 12.05 51.35 12.05
L 51.8 12.15 52.15 12.35 52.3 12.1 51.9 11.85 51.35 11.75 Z"/>
</g>

<g id="IT_300x250_FR_psd_Asset_Awareness_Phase_IT_Decisions_Makers__V6_2_Les_administrateurs_des_TI_prennent__en_charge_plus_d_appareils_0_Layer0_0_MEMBER_77_FILL">
<path fill="#D82C26" stroke="none" d="
M 55.25 11.75
Q 54.75 11.75 54.5 11.95 54.25 12.1 53.95 12.5 53.75 13 53.75 13.3 53.75 13.65 53.95 14.15 54.2 14.6 54.5 14.7 54.85 14.9 55.3 14.9 56 14.9 56.5 14.55
L 56.4 14.2
Q 56.25 14.4 55.95 14.5
L 55.3 14.6
Q 55 14.6 54.7 14.45 54.45 14.3 54.3 14 54.15 13.7 54.15 13.4
L 56.65 13.4 56.65 13.25
Q 56.65 12.8 56.5 12.5 56.4 12.25 56 11.95 55.75 11.75 55.25 11.75
M 55.25 12.05
Q 55.7 12.05 56 12.35 56.3 12.65 56.3 13.1
L 54.15 13.1 54.3 12.65
Q 54.35 12.5 54.65 12.2 54.9 12.05 55.25 12.05 Z"/>
</g>

<g id="IT_300x250_FR_psd_Asset_Awareness_Phase_IT_Decisions_Makers__V6_2_Les_administrateurs_des_TI_prennent__en_charge_plus_d_appareils_0_Layer0_0_MEMBER_78_FILL">
<path fill="#D82C26" stroke="none" d="
M 56.8 12.15
L 57.35 12.15 57.35 14.1
Q 57.35 14.5 57.55 14.7 57.75 14.9 58.05 14.9
L 58.4 14.85 58.7 14.75 58.65 14.45 58.15 14.6
Q 57.95 14.6 57.85 14.45 57.7 14.3 57.7 14.05
L 57.7 12.15 58.5 12.15 58.55 11.85 57.7 11.85 57.7 11 57.35 11.15 57.35 11.85 56.85 11.85 56.8 12.15 Z"/>
</g>

<g id="IT_300x250_FR_psd_Asset_Awareness_Phase_IT_Decisions_Makers__V6_2_Les_administrateurs_des_TI_prennent__en_charge_plus_d_appareils_0_Layer0_0_MEMBER_79_FILL">
<path fill="#D82C26" stroke="none" d="
M 3.45 17.35
L 3.05 17.45 3.05 19.9
Q 2.9 19.6 2.55 19.35 2.25 19.2 1.85 19.2 1.4 19.2 1.05 19.4 0.7 19.6 0.55 19.95 0.35 20.3 0.35 20.75 0.35 21.2 0.55 21.55 0.7 21.95 1.05 22.1 1.4 22.3 1.85 22.3 2.25 22.3 2.55 22.15 2.9 21.95 3.05 21.6
L 3.1 21.6 3.1 22.25 3.45 22.25 3.45 17.35
M 3.1 20.75
Q 3.1 21.1 2.95 21.4 2.75 21.75 2.5 21.85 2.3 22 1.9 22 1.55 22 1.3 21.85 1 21.7 0.85 21.4
L 0.75 20.75 0.85 20.1 1.3 19.65
Q 1.55 19.5 1.9 19.5 2.3 19.5 2.5 19.65
L 2.95 20.1
Q 3.1 20.4 3.1 20.75 Z"/>
</g>

<g id="IT_300x250_FR_psd_Asset_Awareness_Phase_IT_Decisions_Makers__V6_2_Les_administrateurs_des_TI_prennent__en_charge_plus_d_appareils_0_Layer0_0_MEMBER_80_FILL">
<path fill="#D82C26" stroke="none" d="
M 4.85 17.85
Q 4.8 17.75 4.65 17.75
L 4.45 17.8 4.35 18.05 4.45 18.25 4.65 18.3 4.45 18.75 4.2 19.1 4.35 19.2
Q 4.9 18.65 4.9 18.1
L 4.85 17.85 Z"/>
</g>

<g id="IT_300x250_FR_psd_Asset_Awareness_Phase_IT_Decisions_Makers__V6_2_Les_administrateurs_des_TI_prennent__en_charge_plus_d_appareils_0_Layer0_0_MEMBER_81_FILL">
<path fill="#D82C26" stroke="none" d="
M 5.8 19.25
L 5.8 22.25 6.15 22.25 6.15 19.25 5.8 19.25
M 5.95 18.35
L 6.15 18.25 6.25 18.05 6.15 17.9 5.95 17.8 5.8 17.9 5.7 18.05 5.8 18.25 5.95 18.35 Z"/>
</g>

<g id="IT_300x250_FR_psd_Asset_Awareness_Phase_IT_Decisions_Makers__V6_2_Les_administrateurs_des_TI_prennent__en_charge_plus_d_appareils_0_Layer0_0_MEMBER_82_FILL">
<path fill="#D82C26" stroke="none" d="
M 8.45 19.2
Q 8.05 19.2 7.8 19.4 7.55 19.55 7.35 19.9
L 7.35 19.25 7 19.25 7 22.25 7.4 22.25 7.4 20.7
Q 7.4 20.25 7.5 20.05 7.65 19.8 7.85 19.65 8.1 19.5 8.35 19.5 8.8 19.5 9 19.8 9.2 20.2 9.2 20.5
L 9.2 22.25 9.55 22.25 9.55 20.4
Q 9.55 19.9 9.3 19.55 9 19.2 8.45 19.2 Z"/>
</g>

<g id="IT_300x250_FR_psd_Asset_Awareness_Phase_IT_Decisions_Makers__V6_2_Les_administrateurs_des_TI_prennent__en_charge_plus_d_appareils_0_Layer0_0_MEMBER_83_FILL">
<path fill="#D82C26" stroke="none" d="
M 9.95 19.25
L 9.9 19.55 10.5 19.55 10.5 22.25 10.85 22.25 10.85 19.55 11.55 19.55 11.65 19.25 10.85 19.25 10.85 18.4
Q 10.85 18.05 11 17.9 11.15 17.65 11.45 17.65
L 11.9 17.75 11.95 17.4 11.7 17.35 11.45 17.35
Q 11 17.35 10.75 17.6 10.5 17.95 10.5 18.4
L 10.5 19.25 9.95 19.25 Z"/>
</g>

<g id="IT_300x250_FR_psd_Asset_Awareness_Phase_IT_Decisions_Makers__V6_2_Les_administrateurs_des_TI_prennent__en_charge_plus_d_appareils_0_Layer0_0_MEMBER_84_FILL">
<path fill="#D82C26" stroke="none" d="
M 13.3 19.2
Q 13.05 19.2 12.8 19.35 12.5 19.65 12.45 19.9
L 12.4 19.25 12.05 19.25 12.05 22.25 12.45 22.25 12.45 20.75
Q 12.45 20.2 12.65 19.85 12.9 19.5 13.3 19.5
L 13.55 19.55 13.65 19.25 13.3 19.2 Z"/>
</g>

<g id="IT_300x250_FR_psd_Asset_Awareness_Phase_IT_Decisions_Makers__V6_2_Les_administrateurs_des_TI_prennent__en_charge_plus_d_appareils_0_Layer0_0_MEMBER_85_FILL">
<path fill="#D82C26" stroke="none" d="
M 15.05 19.15
L 14.45 19.25 13.95 19.55 14.05 19.85 14.5 19.6 15 19.45
Q 15.4 19.45 15.65 19.7 15.85 19.85 15.85 20.3
L 15.85 20.45 15.5 20.45
Q 13.8 20.45 13.8 21.45 13.8 21.9 14.1 22.1 14.3 22.3 14.75 22.3 15.1 22.3 15.4 22.15 15.7 22 15.85 21.65
L 15.9 21.95 15.9 22.25 16.25 22.25 16.2 20.3
Q 16.2 19.75 15.9 19.45 15.6 19.15 15.05 19.15
M 14.8 22.05
Q 14.6 22.05 14.35 21.9 14.15 21.75 14.15 21.45 14.15 20.7 15.55 20.7
L 15.85 20.7 15.85 21 15.75 21.5 15.4 21.9
Q 15.2 22.05 14.8 22.05 Z"/>
</g>

<g id="IT_300x250_FR_psd_Asset_Awareness_Phase_IT_Decisions_Makers__V6_2_Les_administrateurs_des_TI_prennent__en_charge_plus_d_appareils_0_Layer0_0_MEMBER_86_FILL">
<path fill="#D82C26" stroke="none" d="
M 18.3 21.1
Q 18.5 21.25 18.5 21.45 18.5 21.75 18.3 21.9 18.1 22.05 17.85 22.05 17.25 22.05 16.85 21.65
L 16.8 22 17.25 22.25 17.85 22.3
Q 18.2 22.3 18.35 22.2 18.5 22.15 18.7 21.95 18.85 21.75 18.85 21.45 18.85 21.1 18.65 20.95 18.5 20.8 17.95 20.6
L 17.35 20.3
Q 17.2 20.25 17.2 19.95 17.2 19.75 17.35 19.6 17.6 19.45 17.85 19.45
L 18.25 19.55 18.6 19.75 18.75 19.5 18.35 19.25 17.8 19.15 17.35 19.25
Q 17.05 19.45 17 19.55 16.85 19.7 16.85 20 16.85 20.35 17.05 20.5 17.25 20.7 17.7 20.85 18.15 20.95 18.3 21.1 Z"/>
</g>

<g id="IT_300x250_FR_psd_Asset_Awareness_Phase_IT_Decisions_Makers__V6_2_Les_administrateurs_des_TI_prennent__en_charge_plus_d_appareils_0_Layer0_0_MEMBER_87_FILL">
<path fill="#D82C26" stroke="none" d="
M 20.35 22.3
L 20.7 22.25 21 22.15 20.95 21.85 20.45 22
Q 20.25 22 20.15 21.85 20 21.8 20 21.45
L 20 19.55 20.8 19.55 20.85 19.25 20 19.25 20 18.4 19.65 18.55 19.65 19.25 19.15 19.25 19.1 19.55 19.65 19.55 19.65 21.5
Q 19.65 21.9 19.85 22.1 20 22.3 20.35 22.3 Z"/>
</g>

<g id="IT_300x250_FR_psd_Asset_Awareness_Phase_IT_Decisions_Makers__V6_2_Les_administrateurs_des_TI_prennent__en_charge_plus_d_appareils_0_Layer0_0_MEMBER_88_FILL">
<path fill="#D82C26" stroke="none" d="
M 22.9 19.55
L 22.95 19.25 22.65 19.2
Q 22.4 19.2 22.15 19.35 21.95 19.5 21.75 19.9
L 21.75 19.25 21.35 19.25 21.4 22.25 21.8 22.25 21.8 20.75
Q 21.8 20.2 22 19.85 22.25 19.5 22.6 19.5
L 22.9 19.55 Z"/>
</g>

<g id="IT_300x250_FR_psd_Asset_Awareness_Phase_IT_Decisions_Makers__V6_2_Les_administrateurs_des_TI_prennent__en_charge_plus_d_appareils_0_Layer0_0_MEMBER_89_FILL">
<path fill="#D82C26" stroke="none" d="
M 23.7 21
L 23.7 19.25 23.3 19.25 23.3 21.1
Q 23.3 21.65 23.6 21.95 23.8 22.3 24.4 22.3 24.75 22.3 25.05 22.15 25.35 21.95 25.5 21.6
L 25.55 22.25 25.9 22.25 25.9 21.9 25.85 21.55 25.85 19.25 25.5 19.25 25.5 20.75
Q 25.5 21.15 25.35 21.45 25.3 21.65 25 21.85 24.8 22 24.5 22 24.05 22 23.9 21.7 23.7 21.5 23.7 21 Z"/>
</g>

<g id="IT_300x250_FR_psd_Asset_Awareness_Phase_IT_Decisions_Makers__V6_2_Les_administrateurs_des_TI_prennent__en_charge_plus_d_appareils_0_Layer0_0_MEMBER_90_FILL">
<path fill="#D82C26" stroke="none" d="
M 28.65 19.25
L 28.05 19.15
Q 27.75 19.15 27.25 19.35 26.9 19.6 26.7 19.95 26.5 20.45 26.5 20.75 26.5 21.15 26.7 21.55 26.9 21.9 27.25 22.15 27.75 22.35 28.05 22.35
L 28.65 22.25 29.1 21.95 29.05 21.65 28.6 21.9
Q 28.45 22 28.1 22 27.75 22 27.45 21.85
L 27.05 21.4
Q 26.9 21.1 26.9 20.75 26.9 20.4 27.05 20.1
L 27.45 19.65
Q 27.75 19.5 28.1 19.5 28.4 19.5 28.55 19.6
L 28.95 19.8 29.1 19.55 28.65 19.25 Z"/>
</g>

<g id="IT_300x250_FR_psd_Asset_Awareness_Phase_IT_Decisions_Makers__V6_2_Les_administrateurs_des_TI_prennent__en_charge_plus_d_appareils_0_Layer0_0_MEMBER_91_FILL">
<path fill="#D82C26" stroke="none" d="
M 30.2 18.4
L 29.85 18.55 29.85 19.25 29.35 19.25 29.3 19.55 29.85 19.55 29.85 21.5
Q 29.85 21.9 30.05 22.1 30.2 22.3 30.55 22.3
L 30.85 22.25
Q 31.05 22.25 31.15 22.15
L 31.1 21.85
Q 30.9 22 30.65 22 30.45 22 30.3 21.85 30.2 21.75 30.2 21.45
L 30.2 19.55 31 19.55 31.05 19.25 30.2 19.25 30.2 18.4 Z"/>
</g>

<g id="IT_300x250_FR_psd_Asset_Awareness_Phase_IT_Decisions_Makers__V6_2_Les_administrateurs_des_TI_prennent__en_charge_plus_d_appareils_0_Layer0_0_MEMBER_92_FILL">
<path fill="#D82C26" stroke="none" d="
M 33.7 20.75
Q 33.7 21.15 33.55 21.45
L 33.2 21.85
Q 33 22 32.7 22 32.3 22 32.05 21.7 31.9 21.5 31.9 21
L 31.9 19.25 31.5 19.25 31.5 21.1
Q 31.5 21.65 31.8 21.95 32 22.3 32.6 22.3 32.95 22.3 33.25 22.15 33.55 21.95 33.7 21.6
L 33.75 22.25 34.1 22.25 34.05 21.9 34.05 19.25 33.7 19.25 33.7 20.75 Z"/>
</g>

<g id="IT_300x250_FR_psd_Asset_Awareness_Phase_IT_Decisions_Makers__V6_2_Les_administrateurs_des_TI_prennent__en_charge_plus_d_appareils_0_Layer0_0_MEMBER_93_FILL">
<path fill="#D82C26" stroke="none" d="
M 34.9 19.25
L 34.9 22.25 35.3 22.25 35.3 20.75
Q 35.3 20.2 35.5 19.85 35.75 19.5 36.15 19.5
L 36.4 19.55 36.45 19.25 36.15 19.2
Q 35.9 19.2 35.65 19.35 35.35 19.65 35.3 19.9
L 35.25 19.9 35.25 19.25 34.9 19.25 Z"/>
</g>

<g id="IT_300x250_FR_psd_Asset_Awareness_Phase_IT_Decisions_Makers__V6_2_Les_administrateurs_des_TI_prennent__en_charge_plus_d_appareils_0_Layer0_0_MEMBER_94_FILL">
<path fill="#D82C26" stroke="none" d="
M 38.75 19.35
Q 38.35 19.15 38 19.15 37.65 19.15 37.25 19.35 36.95 19.55 36.7 19.95 36.5 20.35 36.5 20.75 36.5 21.05 36.7 21.55 36.9 21.9 37.25 22.15 37.75 22.35 38.05 22.35 38.7 22.35 39.25 21.95
L 39.15 21.65
Q 38.95 21.85 38.7 21.9 38.5 22 38.1 22 37.75 22 37.45 21.85 37.2 21.7 37.05 21.4 36.9 21.2 36.9 20.8
L 39.4 20.8 39.4 20.65
Q 39.4 20.3 39.25 19.9 39.05 19.55 38.75 19.35
M 38.75 19.75
Q 39.05 20.05 39.05 20.55
L 36.9 20.55
Q 36.9 20.3 37.05 20.05 37.1 19.85 37.4 19.65 37.65 19.45 38 19.45 38.45 19.45 38.75 19.75 Z"/>
</g>

<g id="IT_300x250_FR_psd_Asset_Awareness_Phase_IT_Decisions_Makers__V6_2_Les_administrateurs_des_TI_prennent__en_charge_plus_d_appareils_0_Layer0_0_MEMBER_95_FILL">
<path fill="#D82C26" stroke="none" d="
M 40.85 19.45
L 41.3 19.55 41.65 19.75 41.8 19.5 41.4 19.25 40.85 19.15 40.4 19.25
Q 40.05 19.5 40 19.55 39.85 19.7 39.85 20 39.85 20.3 40.05 20.5 40.2 20.65 40.7 20.85 41.05 20.9 41.35 21.1 41.55 21.3 41.55 21.45 41.55 21.7 41.35 21.9 41.15 22.05 40.85 22.05 40.35 22.05 39.85 21.65
L 39.8 22 40.25 22.25 40.85 22.3
Q 41.2 22.3 41.35 22.2
L 41.75 21.95
Q 41.9 21.75 41.9 21.45 41.9 21.1 41.65 20.95 41.45 20.75 40.95 20.6
L 40.4 20.3
Q 40.2 20.25 40.2 19.95 40.2 19.8 40.4 19.6 40.55 19.45 40.85 19.45 Z"/>
</g>

<g id="IT_300x250_FR_psd_Asset_Awareness_Phase_IT_Decisions_Makers__V6_2_Les_administrateurs_des_TI_prennent__en_charge_plus_d_appareils_0_Layer0_0_MEMBER_96_FILL">
<path fill="#D82C26" stroke="none" d="
M 46.35 17.35
L 45.95 17.45 45.95 19.9
Q 45.8 19.6 45.45 19.35 45.15 19.2 44.75 19.2 44.3 19.2 43.95 19.4 43.6 19.6 43.45 19.95 43.25 20.3 43.25 20.75 43.25 21.2 43.45 21.55 43.6 21.95 43.95 22.1 44.3 22.3 44.75 22.3 45.15 22.3 45.45 22.15 45.8 21.95 45.95 21.6
L 46 21.6 46 22.25 46.35 22.25 46.35 17.35
M 44.8 19.5
Q 45.2 19.5 45.4 19.65
L 45.85 20.1
Q 46 20.4 46 20.75 46 21.1 45.85 21.4 45.65 21.75 45.4 21.85 45.2 22 44.8 22 44.45 22 44.2 21.85 43.85 21.7 43.8 21.4 43.65 21.1 43.65 20.75 43.65 20.4 43.8 20.1 43.85 19.9 44.2 19.65 44.45 19.5 44.8 19.5 Z"/>
</g>

<g id="IT_300x250_FR_psd_Asset_Awareness_Phase_IT_Decisions_Makers__V6_2_Les_administrateurs_des_TI_prennent__en_charge_plus_d_appareils_0_Layer0_0_MEMBER_97_FILL">
<path fill="#D82C26" stroke="none" d="
M 49.2 19.35
Q 48.8 19.15 48.45 19.15 48.2 19.15 47.7 19.35 47.35 19.65 47.2 19.95 47 20.2 47 20.75 47 21.2 47.2 21.55 47.35 21.85 47.7 22.15 48.2 22.35 48.5 22.35 49.15 22.35 49.7 21.95
L 49.65 21.65 49.15 21.9
Q 48.95 22 48.55 22 48.2 22 47.95 21.85 47.65 21.7 47.5 21.4 47.35 21.2 47.35 20.8
L 49.85 20.8 49.85 20.65
Q 49.85 20.3 49.7 19.9 49.5 19.55 49.2 19.35
M 49.2 19.75
Q 49.5 20.05 49.5 20.55
L 47.35 20.55
Q 47.35 20.3 47.5 20.05
L 47.85 19.65
Q 48.1 19.45 48.45 19.45 49 19.45 49.2 19.75 Z"/>
</g>

<g id="IT_300x250_FR_psd_Asset_Awareness_Phase_IT_Decisions_Makers__V6_2_Les_administrateurs_des_TI_prennent__en_charge_plus_d_appareils_0_Layer0_0_MEMBER_98_FILL">
<path fill="#D82C26" stroke="none" d="
M 52.15 19.85
Q 52.4 19.5 52.75 19.5
L 53 19.55 53.1 19.25 52.75 19.2
Q 52.5 19.2 52.25 19.35 51.95 19.65 51.9 19.9
L 51.85 19.25 51.5 19.25 51.55 22.25 51.9 22.25 51.9 20.75
Q 51.9 20.25 52.15 19.85 Z"/>
</g>

<g id="IT_300x250_FR_psd_Asset_Awareness_Phase_IT_Decisions_Makers__V6_2_Les_administrateurs_des_TI_prennent__en_charge_plus_d_appareils_0_Layer0_0_MEMBER_99_FILL">
<path fill="#D82C26" stroke="none" d="
M 55.35 19.35
Q 54.95 19.15 54.6 19.15 54.35 19.15 53.85 19.35 53.5 19.65 53.35 19.95 53.15 20.2 53.15 20.75 53.15 21.2 53.35 21.55 53.5 21.85 53.85 22.15 54.35 22.35 54.65 22.35 55.3 22.35 55.85 21.95
L 55.8 21.65 55.3 21.9
Q 55.1 22 54.7 22 54.35 22 54.05 21.85 53.8 21.7 53.65 21.4 53.5 21.2 53.5 20.8
L 56 20.8 56 20.65
Q 56 20.3 55.85 19.9 55.65 19.55 55.35 19.35
M 54.6 19.45
Q 55.15 19.45 55.35 19.75 55.65 20.05 55.65 20.55
L 53.5 20.55
Q 53.5 20.3 53.65 20.05
L 54 19.65
Q 54.25 19.45 54.6 19.45
M 55.45 17.75
L 55 17.75 54.35 18.65 54.65 18.65 55.45 17.75 Z"/>
</g>

<g id="IT_300x250_FR_psd_Asset_Awareness_Phase_IT_Decisions_Makers__V6_2_Les_administrateurs_des_TI_prennent__en_charge_plus_d_appareils_0_Layer0_0_MEMBER_100_FILL">
<path fill="#D82C26" stroke="none" d="
M 58.25 19.75
L 58.4 19.5 58 19.25 57.45 19.15 57 19.25
Q 56.65 19.5 56.6 19.55 56.45 19.7 56.45 20 56.45 20.35 56.7 20.5 56.8 20.65 57.3 20.85 57.65 20.9 57.95 21.1 58.15 21.3 58.15 21.45 58.15 21.7 57.95 21.9 57.75 22.05 57.45 22.05 56.9 22.05 56.5 21.65
L 56.4 22 56.9 22.25 57.5 22.3
Q 57.8 22.3 58 22.2 58.15 22.15 58.35 21.95 58.5 21.75 58.5 21.45 58.5 21.1 58.25 20.95 58.05 20.75 57.6 20.6
L 57 20.3
Q 56.8 20.2 56.8 19.95 56.8 19.8 57 19.6 57.25 19.45 57.45 19.45
L 57.9 19.55 58.25 19.75 Z"/>
</g>

<g id="IT_300x250_FR_psd_Asset_Awareness_Phase_IT_Decisions_Makers__V6_2_Les_administrateurs_des_TI_prennent__en_charge_plus_d_appareils_0_Layer0_0_MEMBER_101_FILL">
<path fill="#D82C26" stroke="none" d="
M 61.6 19.9
Q 61.45 19.55 61.15 19.35 60.65 19.15 60.35 19.15 60.1 19.15 59.6 19.35 59.25 19.65 59.1 19.95 58.9 20.2 58.9 20.75 58.9 21.2 59.1 21.55 59.25 21.9 59.65 22.15 60.05 22.35 60.4 22.35 61.05 22.35 61.6 21.95
L 61.55 21.65 61.05 21.9
Q 60.85 22 60.45 22 60.1 22 59.85 21.85 59.55 21.7 59.4 21.4 59.25 21.2 59.25 20.8
L 61.8 20.8 61.8 20.65
Q 61.8 20.25 61.6 19.9
M 61.15 19.75
Q 61.4 20.05 61.45 20.55
L 59.25 20.55
Q 59.25 20.3 59.4 20.05 59.6 19.75 59.8 19.65 60 19.45 60.35 19.45 60.85 19.45 61.15 19.75 Z"/>
</g>

<g id="IT_300x250_FR_psd_Asset_Awareness_Phase_IT_Decisions_Makers__V6_2_Les_administrateurs_des_TI_prennent__en_charge_plus_d_appareils_0_Layer0_0_MEMBER_102_FILL">
<path fill="#D82C26" stroke="none" d="
M 64.3 19.45
Q 64 19.15 63.45 19.15
L 62.85 19.25 62.35 19.55 62.45 19.85
Q 62.65 19.65 62.9 19.6 63.15 19.45 63.4 19.45 63.75 19.45 64 19.7 64.25 19.85 64.25 20.3
L 64.25 20.45 63.85 20.45
Q 62.15 20.45 62.15 21.45 62.15 21.9 62.45 22.1 62.7 22.3 63.1 22.3 63.5 22.3 63.8 22.15 64.15 22 64.2 21.65
L 64.25 21.65 64.25 21.95 64.3 22.25 64.65 22.25 64.6 20.3
Q 64.6 19.75 64.3 19.45
M 64.25 21
Q 64.25 21.3 64.1 21.5 64.05 21.7 63.75 21.9 63.55 22.05 63.2 22.05 62.95 22.05 62.7 21.9 62.5 21.7 62.5 21.45 62.5 20.7 63.9 20.7
L 64.25 20.7 64.25 21 Z"/>
</g>

<g id="IT_300x250_FR_psd_Asset_Awareness_Phase_IT_Decisions_Makers__V6_2_Les_administrateurs_des_TI_prennent__en_charge_plus_d_appareils_0_Layer0_0_MEMBER_103_FILL">
<path fill="#D82C26" stroke="none" d="
M 65.35 21.1
Q 65.35 21.6 65.6 21.95 65.9 22.3 66.45 22.3 66.8 22.3 67.1 22.15 67.4 21.9 67.5 21.6
L 67.6 22.25 67.95 22.25 67.9 21.9 67.9 19.25 67.5 19.25 67.5 20.75 67.4 21.45 67.05 21.85
Q 66.85 22 66.55 22 66.05 22 65.9 21.7 65.7 21.4 65.7 21
L 65.7 19.25 65.35 19.25 65.35 21.1 Z"/>
</g>
</defs>

<g transform="matrix( 1, 0, 0, 1, -5,23) ">
<g transform="matrix( 1, 0, 0, 1, 0,0) ">
<g transform="matrix( 1, 0, 0, 1, 28,7) ">
<g transform="matrix( 2.815704345703125, 0, 0, 2.832611083984375, -0.85,13.6) ">
<use xlink:href="#IT_300x250_FR_psd_Asset_Awareness_Phase_IT_Decisions_Makers__V6_2_Les_administrateurs_des_TI_prennent__en_charge_plus_d_appareils_0_Layer0_0_MEMBER_0_FILL"/>
</g>

<g transform="matrix( 2.815704345703125, 0, 0, 2.832611083984375, -0.85,13.6) ">
<use xlink:href="#IT_300x250_FR_psd_Asset_Awareness_Phase_IT_Decisions_Makers__V6_2_Les_administrateurs_des_TI_prennent__en_charge_plus_d_appareils_0_Layer0_0_MEMBER_1_FILL"/>
</g>

<g transform="matrix( 2.815704345703125, 0, 0, 2.832611083984375, -0.85,13.6) ">
<use xlink:href="#IT_300x250_FR_psd_Asset_Awareness_Phase_IT_Decisions_Makers__V6_2_Les_administrateurs_des_TI_prennent__en_charge_plus_d_appareils_0_Layer0_0_MEMBER_2_FILL"/>
</g>

<g transform="matrix( 2.815704345703125, 0, 0, 2.832611083984375, -0.85,13.6) ">
<use xlink:href="#IT_300x250_FR_psd_Asset_Awareness_Phase_IT_Decisions_Makers__V6_2_Les_administrateurs_des_TI_prennent__en_charge_plus_d_appareils_0_Layer0_0_MEMBER_3_FILL"/>
</g>

<g transform="matrix( 2.815704345703125, 0, 0, 2.832611083984375, -0.85,13.6) ">
<use xlink:href="#IT_300x250_FR_psd_Asset_Awareness_Phase_IT_Decisions_Makers__V6_2_Les_administrateurs_des_TI_prennent__en_charge_plus_d_appareils_0_Layer0_0_MEMBER_4_FILL"/>
</g>

<g transform="matrix( 2.815704345703125, 0, 0, 2.832611083984375, -0.85,13.6) ">
<use xlink:href="#IT_300x250_FR_psd_Asset_Awareness_Phase_IT_Decisions_Makers__V6_2_Les_administrateurs_des_TI_prennent__en_charge_plus_d_appareils_0_Layer0_0_MEMBER_5_FILL"/>
</g>

<g transform="matrix( 2.815704345703125, 0, 0, 2.832611083984375, -0.85,13.6) ">
<use xlink:href="#IT_300x250_FR_psd_Asset_Awareness_Phase_IT_Decisions_Makers__V6_2_Les_administrateurs_des_TI_prennent__en_charge_plus_d_appareils_0_Layer0_0_MEMBER_6_FILL"/>
</g>

<g transform="matrix( 2.815704345703125, 0, 0, 2.832611083984375, -0.85,13.6) ">
<use xlink:href="#IT_300x250_FR_psd_Asset_Awareness_Phase_IT_Decisions_Makers__V6_2_Les_administrateurs_des_TI_prennent__en_charge_plus_d_appareils_0_Layer0_0_MEMBER_7_FILL"/>
</g>

<g transform="matrix( 2.815704345703125, 0, 0, 2.832611083984375, -0.85,13.6) ">
<use xlink:href="#IT_300x250_FR_psd_Asset_Awareness_Phase_IT_Decisions_Makers__V6_2_Les_administrateurs_des_TI_prennent__en_charge_plus_d_appareils_0_Layer0_0_MEMBER_8_FILL"/>
</g>

<g transform="matrix( 2.815704345703125, 0, 0, 2.832611083984375, -0.85,13.6) ">
<use xlink:href="#IT_300x250_FR_psd_Asset_Awareness_Phase_IT_Decisions_Makers__V6_2_Les_administrateurs_des_TI_prennent__en_charge_plus_d_appareils_0_Layer0_0_MEMBER_9_FILL"/>
</g>

<g transform="matrix( 2.815704345703125, 0, 0, 2.832611083984375, -0.85,13.6) ">
<use xlink:href="#IT_300x250_FR_psd_Asset_Awareness_Phase_IT_Decisions_Makers__V6_2_Les_administrateurs_des_TI_prennent__en_charge_plus_d_appareils_0_Layer0_0_MEMBER_10_FILL"/>
</g>

<g transform="matrix( 2.815704345703125, 0, 0, 2.832611083984375, -0.85,13.6) ">
<use xlink:href="#IT_300x250_FR_psd_Asset_Awareness_Phase_IT_Decisions_Makers__V6_2_Les_administrateurs_des_TI_prennent__en_charge_plus_d_appareils_0_Layer0_0_MEMBER_11_FILL"/>
</g>

<g transform="matrix( 2.815704345703125, 0, 0, 2.832611083984375, -0.85,13.6) ">
<use xlink:href="#IT_300x250_FR_psd_Asset_Awareness_Phase_IT_Decisions_Makers__V6_2_Les_administrateurs_des_TI_prennent__en_charge_plus_d_appareils_0_Layer0_0_MEMBER_12_FILL"/>
</g>

<g transform="matrix( 2.815704345703125, 0, 0, 2.832611083984375, -0.85,13.6) ">
<use xlink:href="#IT_300x250_FR_psd_Asset_Awareness_Phase_IT_Decisions_Makers__V6_2_Les_administrateurs_des_TI_prennent__en_charge_plus_d_appareils_0_Layer0_0_MEMBER_13_FILL"/>
</g>

<g transform="matrix( 2.815704345703125, 0, 0, 2.832611083984375, -0.85,13.6) ">
<use xlink:href="#IT_300x250_FR_psd_Asset_Awareness_Phase_IT_Decisions_Makers__V6_2_Les_administrateurs_des_TI_prennent__en_charge_plus_d_appareils_0_Layer0_0_MEMBER_14_FILL"/>
</g>

<g transform="matrix( 2.815704345703125, 0, 0, 2.832611083984375, -0.85,13.6) ">
<use xlink:href="#IT_300x250_FR_psd_Asset_Awareness_Phase_IT_Decisions_Makers__V6_2_Les_administrateurs_des_TI_prennent__en_charge_plus_d_appareils_0_Layer0_0_MEMBER_15_FILL"/>
</g>

<g transform="matrix( 2.815704345703125, 0, 0, 2.832611083984375, -0.85,13.6) ">
<use xlink:href="#IT_300x250_FR_psd_Asset_Awareness_Phase_IT_Decisions_Makers__V6_2_Les_administrateurs_des_TI_prennent__en_charge_plus_d_appareils_0_Layer0_0_MEMBER_16_FILL"/>
</g>

<g transform="matrix( 2.815704345703125, 0, 0, 2.832611083984375, -0.85,13.6) ">
<use xlink:href="#IT_300x250_FR_psd_Asset_Awareness_Phase_IT_Decisions_Makers__V6_2_Les_administrateurs_des_TI_prennent__en_charge_plus_d_appareils_0_Layer0_0_MEMBER_17_FILL"/>
</g>

<g transform="matrix( 2.815704345703125, 0, 0, 2.832611083984375, -0.85,13.6) ">
<use xlink:href="#IT_300x250_FR_psd_Asset_Awareness_Phase_IT_Decisions_Makers__V6_2_Les_administrateurs_des_TI_prennent__en_charge_plus_d_appareils_0_Layer0_0_MEMBER_18_FILL"/>
</g>

<g transform="matrix( 2.815704345703125, 0, 0, 2.832611083984375, -0.85,13.6) ">
<use xlink:href="#IT_300x250_FR_psd_Asset_Awareness_Phase_IT_Decisions_Makers__V6_2_Les_administrateurs_des_TI_prennent__en_charge_plus_d_appareils_0_Layer0_0_MEMBER_19_FILL"/>
</g>

<g transform="matrix( 2.815704345703125, 0, 0, 2.832611083984375, -0.85,13.6) ">
<use xlink:href="#IT_300x250_FR_psd_Asset_Awareness_Phase_IT_Decisions_Makers__V6_2_Les_administrateurs_des_TI_prennent__en_charge_plus_d_appareils_0_Layer0_0_MEMBER_20_FILL"/>
</g>

<g transform="matrix( 2.815704345703125, 0, 0, 2.832611083984375, -0.85,13.6) ">
<use xlink:href="#IT_300x250_FR_psd_Asset_Awareness_Phase_IT_Decisions_Makers__V6_2_Les_administrateurs_des_TI_prennent__en_charge_plus_d_appareils_0_Layer0_0_MEMBER_21_FILL"/>
</g>

<g transform="matrix( 2.815704345703125, 0, 0, 2.832611083984375, -0.85,13.6) ">
<use xlink:href="#IT_300x250_FR_psd_Asset_Awareness_Phase_IT_Decisions_Makers__V6_2_Les_administrateurs_des_TI_prennent__en_charge_plus_d_appareils_0_Layer0_0_MEMBER_22_FILL"/>
</g>

<g transform="matrix( 2.815704345703125, 0, 0, 2.832611083984375, -0.85,13.6) ">
<use xlink:href="#IT_300x250_FR_psd_Asset_Awareness_Phase_IT_Decisions_Makers__V6_2_Les_administrateurs_des_TI_prennent__en_charge_plus_d_appareils_0_Layer0_0_MEMBER_23_FILL"/>
</g>

<g transform="matrix( 2.815704345703125, 0, 0, 2.832611083984375, -0.85,13.6) ">
<use xlink:href="#IT_300x250_FR_psd_Asset_Awareness_Phase_IT_Decisions_Makers__V6_2_Les_administrateurs_des_TI_prennent__en_charge_plus_d_appareils_0_Layer0_0_MEMBER_24_FILL"/>
</g>

<g transform="matrix( 2.815704345703125, 0, 0, 2.832611083984375, -0.85,13.6) ">
<use xlink:href="#IT_300x250_FR_psd_Asset_Awareness_Phase_IT_Decisions_Makers__V6_2_Les_administrateurs_des_TI_prennent__en_charge_plus_d_appareils_0_Layer0_0_MEMBER_25_FILL"/>
</g>

<g transform="matrix( 2.815704345703125, 0, 0, 2.832611083984375, -0.85,13.6) ">
<use xlink:href="#IT_300x250_FR_psd_Asset_Awareness_Phase_IT_Decisions_Makers__V6_2_Les_administrateurs_des_TI_prennent__en_charge_plus_d_appareils_0_Layer0_0_MEMBER_26_FILL"/>
</g>

<g transform="matrix( 2.815704345703125, 0, 0, 2.832611083984375, -0.85,13.6) ">
<use xlink:href="#IT_300x250_FR_psd_Asset_Awareness_Phase_IT_Decisions_Makers__V6_2_Les_administrateurs_des_TI_prennent__en_charge_plus_d_appareils_0_Layer0_0_MEMBER_27_FILL"/>
</g>

<g transform="matrix( 2.815704345703125, 0, 0, 2.832611083984375, -0.85,13.6) ">
<use xlink:href="#IT_300x250_FR_psd_Asset_Awareness_Phase_IT_Decisions_Makers__V6_2_Les_administrateurs_des_TI_prennent__en_charge_plus_d_appareils_0_Layer0_0_MEMBER_28_FILL"/>
</g>

<g transform="matrix( 2.815704345703125, 0, 0, 2.832611083984375, -0.85,13.6) ">
<use xlink:href="#IT_300x250_FR_psd_Asset_Awareness_Phase_IT_Decisions_Makers__V6_2_Les_administrateurs_des_TI_prennent__en_charge_plus_d_appareils_0_Layer0_0_MEMBER_29_FILL"/>
</g>

<g transform="matrix( 2.815704345703125, 0, 0, 2.832611083984375, -0.85,13.6) ">
<use xlink:href="#IT_300x250_FR_psd_Asset_Awareness_Phase_IT_Decisions_Makers__V6_2_Les_administrateurs_des_TI_prennent__en_charge_plus_d_appareils_0_Layer0_0_MEMBER_30_FILL"/>
</g>

<g transform="matrix( 2.815704345703125, 0, 0, 2.832611083984375, -0.85,13.6) ">
<use xlink:href="#IT_300x250_FR_psd_Asset_Awareness_Phase_IT_Decisions_Makers__V6_2_Les_administrateurs_des_TI_prennent__en_charge_plus_d_appareils_0_Layer0_0_MEMBER_31_FILL"/>
</g>

<g transform="matrix( 2.815704345703125, 0, 0, 2.832611083984375, -0.85,13.6) ">
<use xlink:href="#IT_300x250_FR_psd_Asset_Awareness_Phase_IT_Decisions_Makers__V6_2_Les_administrateurs_des_TI_prennent__en_charge_plus_d_appareils_0_Layer0_0_MEMBER_32_FILL"/>
</g>

<g transform="matrix( 2.815704345703125, 0, 0, 2.832611083984375, -0.85,13.6) ">
<use xlink:href="#IT_300x250_FR_psd_Asset_Awareness_Phase_IT_Decisions_Makers__V6_2_Les_administrateurs_des_TI_prennent__en_charge_plus_d_appareils_0_Layer0_0_MEMBER_33_FILL"/>
</g>

<g transform="matrix( 2.815704345703125, 0, 0, 2.832611083984375, -0.85,13.6) ">
<use xlink:href="#IT_300x250_FR_psd_Asset_Awareness_Phase_IT_Decisions_Makers__V6_2_Les_administrateurs_des_TI_prennent__en_charge_plus_d_appareils_0_Layer0_0_MEMBER_34_FILL"/>
</g>

<g transform="matrix( 2.815704345703125, 0, 0, 2.832611083984375, -0.85,13.6) ">
<use xlink:href="#IT_300x250_FR_psd_Asset_Awareness_Phase_IT_Decisions_Makers__V6_2_Les_administrateurs_des_TI_prennent__en_charge_plus_d_appareils_0_Layer0_0_MEMBER_35_FILL"/>
</g>

<g transform="matrix( 2.815704345703125, 0, 0, 2.832611083984375, -0.85,13.6) ">
<use xlink:href="#IT_300x250_FR_psd_Asset_Awareness_Phase_IT_Decisions_Makers__V6_2_Les_administrateurs_des_TI_prennent__en_charge_plus_d_appareils_0_Layer0_0_MEMBER_36_FILL"/>
</g>

<g transform="matrix( 2.815704345703125, 0, 0, 2.832611083984375, -0.85,13.6) ">
<use xlink:href="#IT_300x250_FR_psd_Asset_Awareness_Phase_IT_Decisions_Makers__V6_2_Les_administrateurs_des_TI_prennent__en_charge_plus_d_appareils_0_Layer0_0_MEMBER_37_FILL"/>
</g>

<g transform="matrix( 2.815704345703125, 0, 0, 2.832611083984375, -0.85,13.6) ">
<use xlink:href="#IT_300x250_FR_psd_Asset_Awareness_Phase_IT_Decisions_Makers__V6_2_Les_administrateurs_des_TI_prennent__en_charge_plus_d_appareils_0_Layer0_0_MEMBER_38_FILL"/>
</g>

<g transform="matrix( 2.815704345703125, 0, 0, 2.832611083984375, -0.85,13.6) ">
<use xlink:href="#IT_300x250_FR_psd_Asset_Awareness_Phase_IT_Decisions_Makers__V6_2_Les_administrateurs_des_TI_prennent__en_charge_plus_d_appareils_0_Layer0_0_MEMBER_39_FILL"/>
</g>

<g transform="matrix( 2.815704345703125, 0, 0, 2.832611083984375, -0.85,13.6) ">
<use xlink:href="#IT_300x250_FR_psd_Asset_Awareness_Phase_IT_Decisions_Makers__V6_2_Les_administrateurs_des_TI_prennent__en_charge_plus_d_appareils_0_Layer0_0_MEMBER_40_FILL"/>
</g>

<g transform="matrix( 2.815704345703125, 0, 0, 2.832611083984375, -0.85,13.6) ">
<use xlink:href="#IT_300x250_FR_psd_Asset_Awareness_Phase_IT_Decisions_Makers__V6_2_Les_administrateurs_des_TI_prennent__en_charge_plus_d_appareils_0_Layer0_0_MEMBER_41_FILL"/>
</g>

<g transform="matrix( 2.815704345703125, 0, 0, 2.832611083984375, -0.85,13.6) ">
<use xlink:href="#IT_300x250_FR_psd_Asset_Awareness_Phase_IT_Decisions_Makers__V6_2_Les_administrateurs_des_TI_prennent__en_charge_plus_d_appareils_0_Layer0_0_MEMBER_42_FILL"/>
</g>

<g transform="matrix( 2.815704345703125, 0, 0, 2.832611083984375, -0.85,13.6) ">
<use xlink:href="#IT_300x250_FR_psd_Asset_Awareness_Phase_IT_Decisions_Makers__V6_2_Les_administrateurs_des_TI_prennent__en_charge_plus_d_appareils_0_Layer0_0_MEMBER_43_FILL"/>
</g>

<g transform="matrix( 2.815704345703125, 0, 0, 2.832611083984375, -0.85,13.6) ">
<use xlink:href="#IT_300x250_FR_psd_Asset_Awareness_Phase_IT_Decisions_Makers__V6_2_Les_administrateurs_des_TI_prennent__en_charge_plus_d_appareils_0_Layer0_0_MEMBER_44_FILL"/>
</g>

<g transform="matrix( 2.815704345703125, 0, 0, 2.832611083984375, -0.85,13.6) ">
<use xlink:href="#IT_300x250_FR_psd_Asset_Awareness_Phase_IT_Decisions_Makers__V6_2_Les_administrateurs_des_TI_prennent__en_charge_plus_d_appareils_0_Layer0_0_MEMBER_45_FILL"/>
</g>

<g transform="matrix( 2.815704345703125, 0, 0, 2.832611083984375, -0.85,13.6) ">
<use xlink:href="#IT_300x250_FR_psd_Asset_Awareness_Phase_IT_Decisions_Makers__V6_2_Les_administrateurs_des_TI_prennent__en_charge_plus_d_appareils_0_Layer0_0_MEMBER_46_FILL"/>
</g>

<g transform="matrix( 2.815704345703125, 0, 0, 2.832611083984375, -0.85,13.6) ">
<use xlink:href="#IT_300x250_FR_psd_Asset_Awareness_Phase_IT_Decisions_Makers__V6_2_Les_administrateurs_des_TI_prennent__en_charge_plus_d_appareils_0_Layer0_0_MEMBER_47_FILL"/>
</g>

<g transform="matrix( 2.815704345703125, 0, 0, 2.832611083984375, -0.85,13.6) ">
<use xlink:href="#IT_300x250_FR_psd_Asset_Awareness_Phase_IT_Decisions_Makers__V6_2_Les_administrateurs_des_TI_prennent__en_charge_plus_d_appareils_0_Layer0_0_MEMBER_48_FILL"/>
</g>

<g transform="matrix( 2.815704345703125, 0, 0, 2.832611083984375, -0.85,13.6) ">
<use xlink:href="#IT_300x250_FR_psd_Asset_Awareness_Phase_IT_Decisions_Makers__V6_2_Les_administrateurs_des_TI_prennent__en_charge_plus_d_appareils_0_Layer0_0_MEMBER_49_FILL"/>
</g>

<g transform="matrix( 2.815704345703125, 0, 0, 2.832611083984375, -0.85,13.6) ">
<use xlink:href="#IT_300x250_FR_psd_Asset_Awareness_Phase_IT_Decisions_Makers__V6_2_Les_administrateurs_des_TI_prennent__en_charge_plus_d_appareils_0_Layer0_0_MEMBER_50_FILL"/>
</g>

<g transform="matrix( 2.815704345703125, 0, 0, 2.832611083984375, -0.85,13.6) ">
<use xlink:href="#IT_300x250_FR_psd_Asset_Awareness_Phase_IT_Decisions_Makers__V6_2_Les_administrateurs_des_TI_prennent__en_charge_plus_d_appareils_0_Layer0_0_MEMBER_51_FILL"/>
</g>

<g transform="matrix( 2.815704345703125, 0, 0, 2.832611083984375, -0.85,13.6) ">
<use xlink:href="#IT_300x250_FR_psd_Asset_Awareness_Phase_IT_Decisions_Makers__V6_2_Les_administrateurs_des_TI_prennent__en_charge_plus_d_appareils_0_Layer0_0_MEMBER_52_FILL"/>
</g>

<g transform="matrix( 2.815704345703125, 0, 0, 2.832611083984375, -0.85,13.6) ">
<use xlink:href="#IT_300x250_FR_psd_Asset_Awareness_Phase_IT_Decisions_Makers__V6_2_Les_administrateurs_des_TI_prennent__en_charge_plus_d_appareils_0_Layer0_0_MEMBER_53_FILL"/>
</g>

<g transform="matrix( 2.815704345703125, 0, 0, 2.832611083984375, -0.85,13.6) ">
<use xlink:href="#IT_300x250_FR_psd_Asset_Awareness_Phase_IT_Decisions_Makers__V6_2_Les_administrateurs_des_TI_prennent__en_charge_plus_d_appareils_0_Layer0_0_MEMBER_54_FILL"/>
</g>

<g transform="matrix( 2.815704345703125, 0, 0, 2.832611083984375, -0.85,13.6) ">
<use xlink:href="#IT_300x250_FR_psd_Asset_Awareness_Phase_IT_Decisions_Makers__V6_2_Les_administrateurs_des_TI_prennent__en_charge_plus_d_appareils_0_Layer0_0_MEMBER_55_FILL"/>
</g>

<g transform="matrix( 2.815704345703125, 0, 0, 2.832611083984375, -0.85,13.6) ">
<use xlink:href="#IT_300x250_FR_psd_Asset_Awareness_Phase_IT_Decisions_Makers__V6_2_Les_administrateurs_des_TI_prennent__en_charge_plus_d_appareils_0_Layer0_0_MEMBER_56_FILL"/>
</g>

<g transform="matrix( 2.815704345703125, 0, 0, 2.832611083984375, -0.85,13.6) ">
<use xlink:href="#IT_300x250_FR_psd_Asset_Awareness_Phase_IT_Decisions_Makers__V6_2_Les_administrateurs_des_TI_prennent__en_charge_plus_d_appareils_0_Layer0_0_MEMBER_57_FILL"/>
</g>

<g transform="matrix( 2.815704345703125, 0, 0, 2.832611083984375, -0.85,13.6) ">
<use xlink:href="#IT_300x250_FR_psd_Asset_Awareness_Phase_IT_Decisions_Makers__V6_2_Les_administrateurs_des_TI_prennent__en_charge_plus_d_appareils_0_Layer0_0_MEMBER_58_FILL"/>
</g>

<g transform="matrix( 2.815704345703125, 0, 0, 2.832611083984375, -0.85,13.6) ">
<use xlink:href="#IT_300x250_FR_psd_Asset_Awareness_Phase_IT_Decisions_Makers__V6_2_Les_administrateurs_des_TI_prennent__en_charge_plus_d_appareils_0_Layer0_0_MEMBER_59_FILL"/>
</g>

<g transform="matrix( 2.815704345703125, 0, 0, 2.832611083984375, -0.85,13.6) ">
<use xlink:href="#IT_300x250_FR_psd_Asset_Awareness_Phase_IT_Decisions_Makers__V6_2_Les_administrateurs_des_TI_prennent__en_charge_plus_d_appareils_0_Layer0_0_MEMBER_60_FILL"/>
</g>

<g transform="matrix( 2.815704345703125, 0, 0, 2.832611083984375, -0.85,13.6) ">
<use xlink:href="#IT_300x250_FR_psd_Asset_Awareness_Phase_IT_Decisions_Makers__V6_2_Les_administrateurs_des_TI_prennent__en_charge_plus_d_appareils_0_Layer0_0_MEMBER_61_FILL"/>
</g>

<g transform="matrix( 2.815704345703125, 0, 0, 2.832611083984375, -0.85,13.6) ">
<use xlink:href="#IT_300x250_FR_psd_Asset_Awareness_Phase_IT_Decisions_Makers__V6_2_Les_administrateurs_des_TI_prennent__en_charge_plus_d_appareils_0_Layer0_0_MEMBER_62_FILL"/>
</g>

<g transform="matrix( 2.815704345703125, 0, 0, 2.832611083984375, -0.85,13.6) ">
<use xlink:href="#IT_300x250_FR_psd_Asset_Awareness_Phase_IT_Decisions_Makers__V6_2_Les_administrateurs_des_TI_prennent__en_charge_plus_d_appareils_0_Layer0_0_MEMBER_63_FILL"/>
</g>

<g transform="matrix( 2.815704345703125, 0, 0, 2.832611083984375, -0.85,13.6) ">
<use xlink:href="#IT_300x250_FR_psd_Asset_Awareness_Phase_IT_Decisions_Makers__V6_2_Les_administrateurs_des_TI_prennent__en_charge_plus_d_appareils_0_Layer0_0_MEMBER_64_FILL"/>
</g>

<g transform="matrix( 2.815704345703125, 0, 0, 2.832611083984375, -0.85,13.6) ">
<use xlink:href="#IT_300x250_FR_psd_Asset_Awareness_Phase_IT_Decisions_Makers__V6_2_Les_administrateurs_des_TI_prennent__en_charge_plus_d_appareils_0_Layer0_0_MEMBER_65_FILL"/>
</g>

<g transform="matrix( 2.815704345703125, 0, 0, 2.832611083984375, -0.85,13.6) ">
<use xlink:href="#IT_300x250_FR_psd_Asset_Awareness_Phase_IT_Decisions_Makers__V6_2_Les_administrateurs_des_TI_prennent__en_charge_plus_d_appareils_0_Layer0_0_MEMBER_66_FILL"/>
</g>

<g transform="matrix( 2.815704345703125, 0, 0, 2.832611083984375, -0.85,13.6) ">
<use xlink:href="#IT_300x250_FR_psd_Asset_Awareness_Phase_IT_Decisions_Makers__V6_2_Les_administrateurs_des_TI_prennent__en_charge_plus_d_appareils_0_Layer0_0_MEMBER_67_FILL"/>
</g>

<g transform="matrix( 2.815704345703125, 0, 0, 2.832611083984375, -0.85,13.6) ">
<use xlink:href="#IT_300x250_FR_psd_Asset_Awareness_Phase_IT_Decisions_Makers__V6_2_Les_administrateurs_des_TI_prennent__en_charge_plus_d_appareils_0_Layer0_0_MEMBER_68_FILL"/>
</g>

<g transform="matrix( 2.815704345703125, 0, 0, 2.832611083984375, -0.85,13.6) ">
<use xlink:href="#IT_300x250_FR_psd_Asset_Awareness_Phase_IT_Decisions_Makers__V6_2_Les_administrateurs_des_TI_prennent__en_charge_plus_d_appareils_0_Layer0_0_MEMBER_69_FILL"/>
</g>

<g transform="matrix( 2.815704345703125, 0, 0, 2.832611083984375, -0.85,13.6) ">
<use xlink:href="#IT_300x250_FR_psd_Asset_Awareness_Phase_IT_Decisions_Makers__V6_2_Les_administrateurs_des_TI_prennent__en_charge_plus_d_appareils_0_Layer0_0_MEMBER_70_FILL"/>
</g>

<g transform="matrix( 2.815704345703125, 0, 0, 2.832611083984375, -0.85,13.6) ">
<use xlink:href="#IT_300x250_FR_psd_Asset_Awareness_Phase_IT_Decisions_Makers__V6_2_Les_administrateurs_des_TI_prennent__en_charge_plus_d_appareils_0_Layer0_0_MEMBER_71_FILL"/>
</g>

<g transform="matrix( 2.815704345703125, 0, 0, 2.832611083984375, -0.85,13.6) ">
<use xlink:href="#IT_300x250_FR_psd_Asset_Awareness_Phase_IT_Decisions_Makers__V6_2_Les_administrateurs_des_TI_prennent__en_charge_plus_d_appareils_0_Layer0_0_MEMBER_72_FILL"/>
</g>

<g transform="matrix( 2.815704345703125, 0, 0, 2.832611083984375, -0.85,13.6) ">
<use xlink:href="#IT_300x250_FR_psd_Asset_Awareness_Phase_IT_Decisions_Makers__V6_2_Les_administrateurs_des_TI_prennent__en_charge_plus_d_appareils_0_Layer0_0_MEMBER_73_FILL"/>
</g>

<g transform="matrix( 2.815704345703125, 0, 0, 2.832611083984375, -0.85,13.6) ">
<use xlink:href="#IT_300x250_FR_psd_Asset_Awareness_Phase_IT_Decisions_Makers__V6_2_Les_administrateurs_des_TI_prennent__en_charge_plus_d_appareils_0_Layer0_0_MEMBER_74_FILL"/>
</g>

<g transform="matrix( 2.815704345703125, 0, 0, 2.832611083984375, -0.85,13.6) ">
<use xlink:href="#IT_300x250_FR_psd_Asset_Awareness_Phase_IT_Decisions_Makers__V6_2_Les_administrateurs_des_TI_prennent__en_charge_plus_d_appareils_0_Layer0_0_MEMBER_75_FILL"/>
</g>

<g transform="matrix( 2.815704345703125, 0, 0, 2.832611083984375, -0.85,13.6) ">
<use xlink:href="#IT_300x250_FR_psd_Asset_Awareness_Phase_IT_Decisions_Makers__V6_2_Les_administrateurs_des_TI_prennent__en_charge_plus_d_appareils_0_Layer0_0_MEMBER_76_FILL"/>
</g>

<g transform="matrix( 2.815704345703125, 0, 0, 2.832611083984375, -0.85,13.6) ">
<use xlink:href="#IT_300x250_FR_psd_Asset_Awareness_Phase_IT_Decisions_Makers__V6_2_Les_administrateurs_des_TI_prennent__en_charge_plus_d_appareils_0_Layer0_0_MEMBER_77_FILL"/>
</g>

<g transform="matrix( 2.815704345703125, 0, 0, 2.832611083984375, -0.85,13.6) ">
<use xlink:href="#IT_300x250_FR_psd_Asset_Awareness_Phase_IT_Decisions_Makers__V6_2_Les_administrateurs_des_TI_prennent__en_charge_plus_d_appareils_0_Layer0_0_MEMBER_78_FILL"/>
</g>

<g transform="matrix( 2.815704345703125, 0, 0, 2.832611083984375, -0.85,13.6) ">
<use xlink:href="#IT_300x250_FR_psd_Asset_Awareness_Phase_IT_Decisions_Makers__V6_2_Les_administrateurs_des_TI_prennent__en_charge_plus_d_appareils_0_Layer0_0_MEMBER_79_FILL"/>
</g>

<g transform="matrix( 2.815704345703125, 0, 0, 2.832611083984375, -0.85,13.6) ">
<use xlink:href="#IT_300x250_FR_psd_Asset_Awareness_Phase_IT_Decisions_Makers__V6_2_Les_administrateurs_des_TI_prennent__en_charge_plus_d_appareils_0_Layer0_0_MEMBER_80_FILL"/>
</g>

<g transform="matrix( 2.815704345703125, 0, 0, 2.832611083984375, -0.85,13.6) ">
<use xlink:href="#IT_300x250_FR_psd_Asset_Awareness_Phase_IT_Decisions_Makers__V6_2_Les_administrateurs_des_TI_prennent__en_charge_plus_d_appareils_0_Layer0_0_MEMBER_81_FILL"/>
</g>

<g transform="matrix( 2.815704345703125, 0, 0, 2.832611083984375, -0.85,13.6) ">
<use xlink:href="#IT_300x250_FR_psd_Asset_Awareness_Phase_IT_Decisions_Makers__V6_2_Les_administrateurs_des_TI_prennent__en_charge_plus_d_appareils_0_Layer0_0_MEMBER_82_FILL"/>
</g>

<g transform="matrix( 2.815704345703125, 0, 0, 2.832611083984375, -0.85,13.6) ">
<use xlink:href="#IT_300x250_FR_psd_Asset_Awareness_Phase_IT_Decisions_Makers__V6_2_Les_administrateurs_des_TI_prennent__en_charge_plus_d_appareils_0_Layer0_0_MEMBER_83_FILL"/>
</g>

<g transform="matrix( 2.815704345703125, 0, 0, 2.832611083984375, -0.85,13.6) ">
<use xlink:href="#IT_300x250_FR_psd_Asset_Awareness_Phase_IT_Decisions_Makers__V6_2_Les_administrateurs_des_TI_prennent__en_charge_plus_d_appareils_0_Layer0_0_MEMBER_84_FILL"/>
</g>

<g transform="matrix( 2.815704345703125, 0, 0, 2.832611083984375, -0.85,13.6) ">
<use xlink:href="#IT_300x250_FR_psd_Asset_Awareness_Phase_IT_Decisions_Makers__V6_2_Les_administrateurs_des_TI_prennent__en_charge_plus_d_appareils_0_Layer0_0_MEMBER_85_FILL"/>
</g>

<g transform="matrix( 2.815704345703125, 0, 0, 2.832611083984375, -0.85,13.6) ">
<use xlink:href="#IT_300x250_FR_psd_Asset_Awareness_Phase_IT_Decisions_Makers__V6_2_Les_administrateurs_des_TI_prennent__en_charge_plus_d_appareils_0_Layer0_0_MEMBER_86_FILL"/>
</g>

<g transform="matrix( 2.815704345703125, 0, 0, 2.832611083984375, -0.85,13.6) ">
<use xlink:href="#IT_300x250_FR_psd_Asset_Awareness_Phase_IT_Decisions_Makers__V6_2_Les_administrateurs_des_TI_prennent__en_charge_plus_d_appareils_0_Layer0_0_MEMBER_87_FILL"/>
</g>

<g transform="matrix( 2.815704345703125, 0, 0, 2.832611083984375, -0.85,13.6) ">
<use xlink:href="#IT_300x250_FR_psd_Asset_Awareness_Phase_IT_Decisions_Makers__V6_2_Les_administrateurs_des_TI_prennent__en_charge_plus_d_appareils_0_Layer0_0_MEMBER_88_FILL"/>
</g>

<g transform="matrix( 2.815704345703125, 0, 0, 2.832611083984375, -0.85,13.6) ">
<use xlink:href="#IT_300x250_FR_psd_Asset_Awareness_Phase_IT_Decisions_Makers__V6_2_Les_administrateurs_des_TI_prennent__en_charge_plus_d_appareils_0_Layer0_0_MEMBER_89_FILL"/>
</g>

<g transform="matrix( 2.815704345703125, 0, 0, 2.832611083984375, -0.85,13.6) ">
<use xlink:href="#IT_300x250_FR_psd_Asset_Awareness_Phase_IT_Decisions_Makers__V6_2_Les_administrateurs_des_TI_prennent__en_charge_plus_d_appareils_0_Layer0_0_MEMBER_90_FILL"/>
</g>

<g transform="matrix( 2.815704345703125, 0, 0, 2.832611083984375, -0.85,13.6) ">
<use xlink:href="#IT_300x250_FR_psd_Asset_Awareness_Phase_IT_Decisions_Makers__V6_2_Les_administrateurs_des_TI_prennent__en_charge_plus_d_appareils_0_Layer0_0_MEMBER_91_FILL"/>
</g>

<g transform="matrix( 2.815704345703125, 0, 0, 2.832611083984375, -0.85,13.6) ">
<use xlink:href="#IT_300x250_FR_psd_Asset_Awareness_Phase_IT_Decisions_Makers__V6_2_Les_administrateurs_des_TI_prennent__en_charge_plus_d_appareils_0_Layer0_0_MEMBER_92_FILL"/>
</g>

<g transform="matrix( 2.815704345703125, 0, 0, 2.832611083984375, -0.85,13.6) ">
<use xlink:href="#IT_300x250_FR_psd_Asset_Awareness_Phase_IT_Decisions_Makers__V6_2_Les_administrateurs_des_TI_prennent__en_charge_plus_d_appareils_0_Layer0_0_MEMBER_93_FILL"/>
</g>

<g transform="matrix( 2.815704345703125, 0, 0, 2.832611083984375, -0.85,13.6) ">
<use xlink:href="#IT_300x250_FR_psd_Asset_Awareness_Phase_IT_Decisions_Makers__V6_2_Les_administrateurs_des_TI_prennent__en_charge_plus_d_appareils_0_Layer0_0_MEMBER_94_FILL"/>
</g>

<g transform="matrix( 2.815704345703125, 0, 0, 2.832611083984375, -0.85,13.6) ">
<use xlink:href="#IT_300x250_FR_psd_Asset_Awareness_Phase_IT_Decisions_Makers__V6_2_Les_administrateurs_des_TI_prennent__en_charge_plus_d_appareils_0_Layer0_0_MEMBER_95_FILL"/>
</g>

<g transform="matrix( 2.815704345703125, 0, 0, 2.832611083984375, -0.85,13.6) ">
<use xlink:href="#IT_300x250_FR_psd_Asset_Awareness_Phase_IT_Decisions_Makers__V6_2_Les_administrateurs_des_TI_prennent__en_charge_plus_d_appareils_0_Layer0_0_MEMBER_96_FILL"/>
</g>

<g transform="matrix( 2.815704345703125, 0, 0, 2.832611083984375, -0.85,13.6) ">
<use xlink:href="#IT_300x250_FR_psd_Asset_Awareness_Phase_IT_Decisions_Makers__V6_2_Les_administrateurs_des_TI_prennent__en_charge_plus_d_appareils_0_Layer0_0_MEMBER_97_FILL"/>
</g>

<g transform="matrix( 2.815704345703125, 0, 0, 2.832611083984375, -0.85,13.6) ">
<use xlink:href="#IT_300x250_FR_psd_Asset_Awareness_Phase_IT_Decisions_Makers__V6_2_Les_administrateurs_des_TI_prennent__en_charge_plus_d_appareils_0_Layer0_0_MEMBER_98_FILL"/>
</g>

<g transform="matrix( 2.815704345703125, 0, 0, 2.832611083984375, -0.85,13.6) ">
<use xlink:href="#IT_300x250_FR_psd_Asset_Awareness_Phase_IT_Decisions_Makers__V6_2_Les_administrateurs_des_TI_prennent__en_charge_plus_d_appareils_0_Layer0_0_MEMBER_99_FILL"/>
</g>

<g transform="matrix( 2.815704345703125, 0, 0, 2.832611083984375, -0.85,13.6) ">
<use xlink:href="#IT_300x250_FR_psd_Asset_Awareness_Phase_IT_Decisions_Makers__V6_2_Les_administrateurs_des_TI_prennent__en_charge_plus_d_appareils_0_Layer0_0_MEMBER_100_FILL"/>
</g>

<g transform="matrix( 2.815704345703125, 0, 0, 2.832611083984375, -0.85,13.6) ">
<use xlink:href="#IT_300x250_FR_psd_Asset_Awareness_Phase_IT_Decisions_Makers__V6_2_Les_administrateurs_des_TI_prennent__en_charge_plus_d_appareils_0_Layer0_0_MEMBER_101_FILL"/>
</g>

<g transform="matrix( 2.815704345703125, 0, 0, 2.832611083984375, -0.85,13.6) ">
<use xlink:href="#IT_300x250_FR_psd_Asset_Awareness_Phase_IT_Decisions_Makers__V6_2_Les_administrateurs_des_TI_prennent__en_charge_plus_d_appareils_0_Layer0_0_MEMBER_102_FILL"/>
</g>

<g transform="matrix( 2.815704345703125, 0, 0, 2.832611083984375, -0.85,13.6) ">
<use xlink:href="#IT_300x250_FR_psd_Asset_Awareness_Phase_IT_Decisions_Makers__V6_2_Les_administrateurs_des_TI_prennent__en_charge_plus_d_appareils_0_Layer0_0_MEMBER_103_FILL"/>
</g>
</g>
</g>
</g>
</svg>
